ISO-10303-21;
HEADER;
/****************************************************************
 * Generated by software with PDE/Lib inside                    *
 * PDE/Lib Version 3.2.2, created Thu Mar 23, 2000 at 18:38:49  *
 * International Technegroup Inc. (www.iti-oh.com)              *
 ****************************************************************/
FILE_DESCRIPTION((''),'2;1');
FILE_NAME('AMPHENOL_31-5329.stp','2009-06-03T11:19:32',(''),(''),'Mechanical Desktop 2006','Mechanical Desktop 2006',', , ');
FILE_SCHEMA(('AUTOMOTIVE_DESIGN { 1 2 10303 214 0 1 1 1 }'));
ENDSEC;
DATA;
#8=(NAMED_UNIT(*)PLANE_ANGLE_UNIT()SI_UNIT($,.RADIAN.));
#9=DIMENSIONAL_EXPONENTS(0.0,0.0,0.0,0.0,0.0,0.0,0.0);
#10=PLANE_ANGLE_MEASURE_WITH_UNIT(PLANE_ANGLE_MEASURE(0.017453292500000),#8);
#14=(CONVERSION_BASED_UNIT('DEGREE',#10)NAMED_UNIT(#9)PLANE_ANGLE_UNIT());
#18=(NAMED_UNIT(*)SI_UNIT($,.STERADIAN.)SOLID_ANGLE_UNIT());
#22=(LENGTH_UNIT()NAMED_UNIT(*)SI_UNIT(.MILLI.,.METRE.));
#23=UNCERTAINTY_MEASURE_WITH_UNIT(LENGTH_MEASURE(0.000001000000000),#22,'DISTANCE_ACCURACY_VALUE','');
#28=(GEOMETRIC_REPRESENTATION_CONTEXT(3)GLOBAL_UNCERTAINTY_ASSIGNED_CONTEXT((#23))GLOBAL_UNIT_ASSIGNED_CONTEXT((#14,#18,#22))REPRESENTATION_CONTEXT('None','None'));
#29=APPLICATION_CONTEXT('automotive design');
#30=APPLICATION_PROTOCOL_DEFINITION('DRAFT_INTERNATIONAL_STANDARD','automotive_design',1998,#29);
#31=PRODUCT_CONTEXT('3D Mechanical Parts',#29,'mechanical');
#32=PRODUCT('Product','Product','',(#31));
#33=PRODUCT_RELATED_PRODUCT_CATEGORY('part',$,(#32));
#34=PRODUCT_CATEGORY('part',$);
#35=PERSON('1','Design','Joe',$,$,$);
#36=ORGANIZATION($,'None','None');
#37=PERSON_AND_ORGANIZATION(#35,#36);
#38=PERSON_AND_ORGANIZATION_ROLE('design_owner');
#39=APPLIED_PERSON_AND_ORGANIZATION_ASSIGNMENT(#37,#38,(#32));
#40=PRODUCT_DEFINITION_FORMATION_WITH_SPECIFIED_SOURCE('None','',#32,.BOUGHT.);
#41=PERSON('2','Creator','Joe',$,$,$);
#42=ORGANIZATION($,'None','None');
#43=PERSON_AND_ORGANIZATION(#41,#42);
#44=PERSON_AND_ORGANIZATION_ROLE('creator');
#45=APPLIED_PERSON_AND_ORGANIZATION_ASSIGNMENT(#43,#44,(#40));
#46=PERSON('3','Supplier','Joe',$,$,$);
#47=ORGANIZATION($,'None','None');
#48=PERSON_AND_ORGANIZATION(#46,#47);
#49=PERSON_AND_ORGANIZATION_ROLE('design_supplier');
#50=APPLIED_PERSON_AND_ORGANIZATION_ASSIGNMENT(#48,#49,(#40));
#51=PRODUCT_DEFINITION_CONTEXT('part definition',#29,'design');
#52=PRODUCT_DEFINITION('None','',#40,#51);
#53=PERSON('4','Creator','Joe',$,$,$);
#54=ORGANIZATION($,'None','None');
#55=PERSON_AND_ORGANIZATION(#53,#54);
#56=PERSON_AND_ORGANIZATION_ROLE('creator');
#57=APPLIED_PERSON_AND_ORGANIZATION_ASSIGNMENT(#55,#56,(#52));
#58=CARTESIAN_POINT('NONE',(0.0,0.0,0.0));
#59=DIRECTION('NONE',(0.0,0.0,1.0));
#60=DIRECTION('NONE',(1.0,0.0,0.0));
#61=AXIS2_PLACEMENT_3D('NONE',#58,#59,#60);
#62=SHAPE_REPRESENTATION('SR1',(#61),#28);
#63=PRODUCT_DEFINITION_SHAPE('PDS1','Test Part',#52);
#64=SHAPE_DEFINITION_REPRESENTATION(#63,#62);
#65=CARTESIAN_POINT('',(-4.500000000000042,-0.999999999999997,12.699999999999983));
#66=CARTESIAN_POINT('',(-5.500000000000052,-0.999999999999997,12.699999999999980));
#67=CARTESIAN_POINT('',(-4.500000000000038,-0.999999999999997,11.699999999999983));
#68=CARTESIAN_POINT('',(-5.500000000000048,-0.999999999999997,11.699999999999978));
#69=CARTESIAN_POINT('',(-4.500000000000037,2.567843E-015,11.699999999999983));
#70=CARTESIAN_POINT('',(-5.500000000000048,3.073163E-015,11.699999999999980));
#71=CARTESIAN_POINT('',(-4.500000000000036,1.000000000000002,11.699999999999983));
#72=CARTESIAN_POINT('',(-5.500000000000048,1.000000000000003,11.699999999999978));
#73=CARTESIAN_POINT('',(-4.500000000000040,1.000000000000003,12.699999999999983));
#74=CARTESIAN_POINT('',(-5.500000000000052,1.000000000000003,12.699999999999980));
#75=CARTESIAN_POINT('',(-4.500000000000044,1.000000000000002,13.699999999999982));
#76=CARTESIAN_POINT('',(-5.500000000000055,1.000000000000003,13.699999999999980));
#77=CARTESIAN_POINT('',(-4.500000000000044,2.567843E-015,13.699999999999983));
#78=CARTESIAN_POINT('',(-5.500000000000055,3.073163E-015,13.699999999999980));
#79=CARTESIAN_POINT('',(-4.500000000000045,-0.999999999999997,13.699999999999982));
#80=CARTESIAN_POINT('',(-5.500000000000055,-0.999999999999997,13.699999999999980));
#81=CARTESIAN_POINT('',(-4.500000000000042,-0.999999999999997,12.699999999999983));
#82=CARTESIAN_POINT('',(-5.500000000000052,-0.999999999999997,12.699999999999980));
#90=(BOUNDED_SURFACE()B_SPLINE_SURFACE(1,2,((#65,#67,#69,#71,#73,#75,#77,#79,#81),(#66,#68,#70,#72,#74,#76,#78,#80,#82)),.UNSPECIFIED.,.F.,.T.,.U.)B_SPLINE_SURFACE_WITH_KNOTS((2,2),(3,2,2,2,3),(-4.440892E-015,1.000000000000005),(0.0,1.570796326794897,3.141592653589793,4.712388980384690,6.283185307179586),.UNSPECIFIED.)GEOMETRIC_REPRESENTATION_ITEM()RATIONAL_B_SPLINE_SURFACE(((1.0,0.707106781186548,1.0,0.707106781186548,1.0,0.707106781186548,1.0,0.707106781186548,1.0),(1.0,0.707106781186548,1.0,0.707106781186548,1.0,0.707106781186548,1.0,0.707106781186548,1.0)))REPRESENTATION_ITEM('')SURFACE());
#91=CARTESIAN_POINT('',(-4.500000000000045,1.000000000000002,12.699999999999983));
#92=VERTEX_POINT('',#91);
#93=CARTESIAN_POINT('',(-5.500000000000045,1.000000000000003,12.699999999999980));
#94=VERTEX_POINT('',#93);
#95=CARTESIAN_POINT('',(-4.500000000000045,1.000000000000002,12.699999999999983));
#96=DIRECTION('',(-1.0,0.0,0.0));
#97=VECTOR('',#96,1.0);
#98=LINE('',#95,#97);
#99=EDGE_CURVE('',#92,#94,#98,.T.);
#100=ORIENTED_EDGE('',*,*,#99,.F.);
#101=CARTESIAN_POINT('',(-4.500000000000046,-0.999999999999997,12.699999999999983));
#102=VERTEX_POINT('',#101);
#103=CARTESIAN_POINT('',(-4.500000000000045,2.567843E-015,12.699999999999983));
#104=DIRECTION('',(1.0,0.0,0.0));
#105=DIRECTION('',(0.0,1.0,0.0));
#106=AXIS2_PLACEMENT_3D('',#103,#104,#105);
#107=CIRCLE('',#106,1.0);
#108=EDGE_CURVE('',#102,#92,#107,.T.);
#109=ORIENTED_EDGE('',*,*,#108,.F.);
#110=CARTESIAN_POINT('',(-5.500000000000046,-0.999999999999997,12.699999999999980));
#111=VERTEX_POINT('',#110);
#112=CARTESIAN_POINT('',(-5.500000000000046,-0.999999999999997,12.699999999999980));
#113=DIRECTION('',(1.0,0.0,0.0));
#114=VECTOR('',#113,1.0);
#115=LINE('',#112,#114);
#116=EDGE_CURVE('',#111,#102,#115,.T.);
#117=ORIENTED_EDGE('',*,*,#116,.F.);
#118=CARTESIAN_POINT('',(-5.500000000000045,3.073163E-015,12.699999999999980));
#119=DIRECTION('',(-1.0,0.0,0.0));
#120=DIRECTION('',(0.0,1.0,0.0));
#121=AXIS2_PLACEMENT_3D('',#118,#119,#120);
#122=CIRCLE('',#121,1.0);
#123=EDGE_CURVE('',#94,#111,#122,.T.);
#124=ORIENTED_EDGE('',*,*,#123,.F.);
#125=EDGE_LOOP('',(#100,#109,#117,#124));
#126=FACE_OUTER_BOUND('',#125,.T.);
#127=ADVANCED_FACE('',(#126),#90,.T.);
#128=CARTESIAN_POINT('',(-4.500000000000041,-0.999999999999997,12.699999999999983));
#129=CARTESIAN_POINT('',(-5.500000000000051,-0.999999999999997,12.699999999999980));
#130=CARTESIAN_POINT('',(-4.500000000000037,-0.999999999999997,11.699999999999983));
#131=CARTESIAN_POINT('',(-5.500000000000047,-0.999999999999997,11.699999999999978));
#132=CARTESIAN_POINT('',(-4.500000000000036,2.567843E-015,11.699999999999983));
#133=CARTESIAN_POINT('',(-5.500000000000046,3.073163E-015,11.699999999999980));
#134=CARTESIAN_POINT('',(-4.500000000000036,1.000000000000002,11.699999999999983));
#135=CARTESIAN_POINT('',(-5.500000000000045,1.000000000000003,11.699999999999978));
#136=CARTESIAN_POINT('',(-4.500000000000039,1.000000000000003,12.699999999999983));
#137=CARTESIAN_POINT('',(-5.500000000000049,1.000000000000003,12.699999999999980));
#138=CARTESIAN_POINT('',(-4.500000000000043,1.000000000000002,13.699999999999982));
#139=CARTESIAN_POINT('',(-5.500000000000052,1.000000000000003,13.699999999999980));
#140=CARTESIAN_POINT('',(-4.500000000000044,2.567843E-015,13.699999999999983));
#141=CARTESIAN_POINT('',(-5.500000000000053,3.073163E-015,13.699999999999980));
#142=CARTESIAN_POINT('',(-4.500000000000044,-0.999999999999997,13.699999999999982));
#143=CARTESIAN_POINT('',(-5.500000000000054,-0.999999999999997,13.699999999999980));
#144=CARTESIAN_POINT('',(-4.500000000000041,-0.999999999999997,12.699999999999983));
#145=CARTESIAN_POINT('',(-5.500000000000051,-0.999999999999997,12.699999999999980));
#153=(BOUNDED_SURFACE()B_SPLINE_SURFACE(1,2,((#128,#130,#132,#134,#136,#138,#140,#142,#144),(#129,#131,#133,#135,#137,#139,#141,#143,#145)),.UNSPECIFIED.,.F.,.T.,.U.)B_SPLINE_SURFACE_WITH_KNOTS((2,2),(3,2,2,2,3),(-5.329071E-015,1.000000000000004),(0.0,1.570796326794897,3.141592653589793,4.712388980384690,6.283185307179586),.UNSPECIFIED.)GEOMETRIC_REPRESENTATION_ITEM()RATIONAL_B_SPLINE_SURFACE(((1.0,0.707106781186548,1.0,0.707106781186548,1.0,0.707106781186548,1.0,0.707106781186548,1.0),(1.0,0.707106781186548,1.0,0.707106781186548,1.0,0.707106781186548,1.0,0.707106781186548,1.0)))REPRESENTATION_ITEM('')SURFACE());
#154=ORIENTED_EDGE('',*,*,#99,.T.);
#155=CARTESIAN_POINT('',(-5.500000000000045,3.073163E-015,12.699999999999980));
#156=DIRECTION('',(-1.0,0.0,0.0));
#157=DIRECTION('',(0.0,1.0,0.0));
#158=AXIS2_PLACEMENT_3D('',#155,#156,#157);
#159=CIRCLE('',#158,1.0);
#160=EDGE_CURVE('',#111,#94,#159,.T.);
#161=ORIENTED_EDGE('',*,*,#160,.F.);
#162=ORIENTED_EDGE('',*,*,#116,.T.);
#163=CARTESIAN_POINT('',(-4.500000000000045,2.567843E-015,12.699999999999983));
#164=DIRECTION('',(1.0,0.0,0.0));
#165=DIRECTION('',(0.0,1.0,0.0));
#166=AXIS2_PLACEMENT_3D('',#163,#164,#165);
#167=CIRCLE('',#166,1.0);
#168=EDGE_CURVE('',#92,#102,#167,.T.);
#169=ORIENTED_EDGE('',*,*,#168,.F.);
#170=EDGE_LOOP('',(#154,#161,#162,#169));
#171=FACE_OUTER_BOUND('',#170,.T.);
#172=ADVANCED_FACE('',(#171),#153,.T.);
#173=CARTESIAN_POINT('',(-5.500000000000048,1.000000000000003,13.699999999999980));
#174=CARTESIAN_POINT('',(-5.500000000000041,1.000000000000003,11.699999999999980));
#175=CARTESIAN_POINT('',(-5.500000000000049,-0.999999999999997,13.699999999999980));
#176=CARTESIAN_POINT('',(-5.500000000000041,-0.999999999999997,11.699999999999980));
#177=B_SPLINE_SURFACE_WITH_KNOTS('',1,1,((#173,#175),(#174,#176)),.UNSPECIFIED.,.F.,.F.,.U.,(2,2),(2,2),(0.0,2.0),(0.0,2.0),.UNSPECIFIED.);
#178=ORIENTED_EDGE('',*,*,#123,.T.);
#179=ORIENTED_EDGE('',*,*,#160,.T.);
#180=EDGE_LOOP('',(#178,#179));
#181=FACE_OUTER_BOUND('',#180,.T.);
#182=ADVANCED_FACE('',(#181),#177,.T.);
#183=CARTESIAN_POINT('',(-4.500000000000048,1.000000000000003,13.699999999999983));
#184=CARTESIAN_POINT('',(-4.500000000000041,1.000000000000003,11.699999999999983));
#185=CARTESIAN_POINT('',(-4.500000000000049,-0.999999999999997,13.699999999999983));
#186=CARTESIAN_POINT('',(-4.500000000000041,-0.999999999999997,11.699999999999983));
#187=B_SPLINE_SURFACE_WITH_KNOTS('',1,1,((#183,#185),(#184,#186)),.UNSPECIFIED.,.F.,.F.,.U.,(2,2),(2,2),(0.0,2.0),(0.0,2.0),.UNSPECIFIED.);
#188=ORIENTED_EDGE('',*,*,#168,.T.);
#189=ORIENTED_EDGE('',*,*,#108,.T.);
#190=EDGE_LOOP('',(#188,#189));
#191=FACE_OUTER_BOUND('',#190,.T.);
#192=ADVANCED_FACE('',(#191),#187,.F.);
#193=CLOSED_SHELL('',(#127,#172,#182,#192));
#194=MANIFOLD_SOLID_BREP('3D3',#193);
#195=COLOUR_RGB('9',0.750000000000000,0.750000000000000,0.750000000000000);
#196=SURFACE_STYLE_USAGE(.BOTH.,#197);
#197=SURFACE_SIDE_STYLE('NONE',(#198));
#198=SURFACE_STYLE_FILL_AREA(#199);
#199=FILL_AREA_STYLE('NONE',(#200));
#200=FILL_AREA_STYLE_COLOUR('NONE',#195);
#201=PRESENTATION_STYLE_ASSIGNMENT((#196));
#202=STYLED_ITEM('NONE',(#201),#194);
#203=MECHANICAL_DESIGN_GEOMETRIC_PRESENTATION_REPRESENTATION('NONE',(#202,#293,#382,#552,#722,#891,#1079,#1267,#1455),#28);
#204=PRESENTATION_LAYER_ASSIGNMENT('3D','None',(#194,#292,#381,#544,#714,#890,#1078,#1266,#1454));
#205=CARTESIAN_POINT('',(4.500000000000000,1.836910E-017,12.699999999999999));
#206=DIRECTION('',(1.0,-6.123032E-017,0.0));
#207=DIRECTION('',(0.0,1.0,0.0));
#208=AXIS2_PLACEMENT_3D('',#205,#206,#207);
#209=CYLINDRICAL_SURFACE('',#208,1.0);
#210=CARTESIAN_POINT('',(4.500000000000000,1.0,12.699999999999999));
#211=VERTEX_POINT('',#210);
#212=CARTESIAN_POINT('',(5.500000000000000,1.000000000000000,12.699999999999999));
#213=VERTEX_POINT('',#212);
#214=CARTESIAN_POINT('',(4.500000000000000,1.0,12.699999999999999));
#215=DIRECTION('',(1.0,0.0,0.0));
#216=VECTOR('',#215,1.0);
#217=LINE('',#214,#216);
#218=EDGE_CURVE('',#211,#213,#217,.T.);
#219=ORIENTED_EDGE('',*,*,#218,.F.);
#220=CARTESIAN_POINT('',(4.500000000000000,-1.0,12.699999999999999));
#221=VERTEX_POINT('',#220);
#222=CARTESIAN_POINT('',(4.500000000000000,1.836910E-017,12.699999999999999));
#223=DIRECTION('',(1.0,0.0,0.0));
#224=DIRECTION('',(0.0,1.0,0.0));
#225=AXIS2_PLACEMENT_3D('',#222,#223,#224);
#226=CIRCLE('',#225,1.0);
#227=EDGE_CURVE('',#211,#221,#226,.T.);
#228=ORIENTED_EDGE('',*,*,#227,.T.);
#229=CARTESIAN_POINT('',(5.500000000000000,-1.0,12.699999999999999));
#230=VERTEX_POINT('',#229);
#231=CARTESIAN_POINT('',(5.500000000000000,-1.0,12.699999999999999));
#232=DIRECTION('',(-1.0,0.0,0.0));
#233=VECTOR('',#232,1.0);
#234=LINE('',#231,#233);
#235=EDGE_CURVE('',#230,#221,#234,.T.);
#236=ORIENTED_EDGE('',*,*,#235,.F.);
#237=CARTESIAN_POINT('',(5.500000000000000,-4.286122E-017,12.699999999999999));
#238=DIRECTION('',(-1.0,0.0,0.0));
#239=DIRECTION('',(0.0,1.0,0.0));
#240=AXIS2_PLACEMENT_3D('',#237,#238,#239);
#241=CIRCLE('',#240,1.0);
#242=EDGE_CURVE('',#230,#213,#241,.T.);
#243=ORIENTED_EDGE('',*,*,#242,.T.);
#244=EDGE_LOOP('',(#219,#228,#236,#243));
#245=FACE_OUTER_BOUND('',#244,.T.);
#246=ADVANCED_FACE('',(#245),#209,.T.);
#247=CARTESIAN_POINT('',(4.500000000000000,1.836910E-017,12.699999999999999));
#248=DIRECTION('',(1.0,-6.123032E-017,0.0));
#249=DIRECTION('',(0.0,1.0,0.0));
#250=AXIS2_PLACEMENT_3D('',#247,#248,#249);
#251=CYLINDRICAL_SURFACE('',#250,1.0);
#252=ORIENTED_EDGE('',*,*,#218,.T.);
#253=CARTESIAN_POINT('',(5.500000000000000,-4.286122E-017,12.699999999999999));
#254=DIRECTION('',(-1.0,0.0,0.0));
#255=DIRECTION('',(0.0,1.0,0.0));
#256=AXIS2_PLACEMENT_3D('',#253,#254,#255);
#257=CIRCLE('',#256,1.0);
#258=EDGE_CURVE('',#213,#230,#257,.T.);
#259=ORIENTED_EDGE('',*,*,#258,.T.);
#260=ORIENTED_EDGE('',*,*,#235,.T.);
#261=CARTESIAN_POINT('',(4.500000000000000,1.836910E-017,12.699999999999999));
#262=DIRECTION('',(1.0,0.0,0.0));
#263=DIRECTION('',(0.0,1.0,0.0));
#264=AXIS2_PLACEMENT_3D('',#261,#262,#263);
#265=CIRCLE('',#264,1.0);
#266=EDGE_CURVE('',#221,#211,#265,.T.);
#267=ORIENTED_EDGE('',*,*,#266,.T.);
#268=EDGE_LOOP('',(#252,#259,#260,#267));
#269=FACE_OUTER_BOUND('',#268,.T.);
#270=ADVANCED_FACE('',(#269),#251,.T.);
#271=CARTESIAN_POINT('',(5.500000000000000,-4.286122E-017,12.699999999999999));
#272=DIRECTION('',(1.0,0.0,0.0));
#273=DIRECTION('',(0.0,0.0,-1.0));
#274=AXIS2_PLACEMENT_3D('',#271,#272,#273);
#275=PLANE('',#274);
#276=ORIENTED_EDGE('',*,*,#258,.F.);
#277=ORIENTED_EDGE('',*,*,#242,.F.);
#278=EDGE_LOOP('',(#276,#277));
#279=FACE_OUTER_BOUND('',#278,.T.);
#280=ADVANCED_FACE('',(#279),#275,.T.);
#281=CARTESIAN_POINT('',(4.500000000000000,1.836910E-017,12.699999999999999));
#282=DIRECTION('',(1.0,0.0,0.0));
#283=DIRECTION('',(0.0,0.0,-1.0));
#284=AXIS2_PLACEMENT_3D('',#281,#282,#283);
#285=PLANE('',#284);
#286=ORIENTED_EDGE('',*,*,#227,.F.);
#287=ORIENTED_EDGE('',*,*,#266,.F.);
#288=EDGE_LOOP('',(#286,#287));
#289=FACE_OUTER_BOUND('',#288,.T.);
#290=ADVANCED_FACE('',(#289),#285,.F.);
#291=CLOSED_SHELL('',(#246,#270,#280,#290));
#292=MANIFOLD_SOLID_BREP('3D1',#291);
#293=STYLED_ITEM('NONE',(#201),#292);
#294=CARTESIAN_POINT('',(0.0,0.0,0.600000000000000));
#295=DIRECTION('',(0.0,0.0,-1.0));
#296=DIRECTION('',(1.0,0.0,0.0));
#297=AXIS2_PLACEMENT_3D('',#294,#295,#296);
#298=CYLINDRICAL_SURFACE('',#297,0.500000000000000);
#299=CARTESIAN_POINT('',(0.500000000000000,0.0,0.600000000000000));
#300=VERTEX_POINT('',#299);
#301=CARTESIAN_POINT('',(0.500000000000000,0.0,-3.200000000000000));
#302=VERTEX_POINT('',#301);
#303=CARTESIAN_POINT('',(0.500000000000000,0.0,0.600000000000000));
#304=DIRECTION('',(0.0,0.0,-1.0));
#305=VECTOR('',#304,3.800000000000000);
#306=LINE('',#303,#305);
#307=EDGE_CURVE('',#300,#302,#306,.T.);
#308=ORIENTED_EDGE('',*,*,#307,.F.);
#309=CARTESIAN_POINT('',(-0.500000000000000,-6.123032E-017,0.600000000000000));
#310=VERTEX_POINT('',#309);
#311=CARTESIAN_POINT('',(0.0,0.0,0.600000000000000));
#312=DIRECTION('',(0.0,0.0,1.0));
#313=DIRECTION('',(1.0,0.0,0.0));
#314=AXIS2_PLACEMENT_3D('',#311,#312,#313);
#315=CIRCLE('',#314,0.500000000000000);
#316=EDGE_CURVE('',#310,#300,#315,.T.);
#317=ORIENTED_EDGE('',*,*,#316,.F.);
#318=CARTESIAN_POINT('',(-0.500000000000000,-6.123032E-017,-3.200000000000000));
#319=VERTEX_POINT('',#318);
#320=CARTESIAN_POINT('',(-0.500000000000000,-6.123032E-017,-3.200000000000000));
#321=DIRECTION('',(0.0,0.0,1.0));
#322=VECTOR('',#321,3.800000000000000);
#323=LINE('',#320,#322);
#324=EDGE_CURVE('',#319,#310,#323,.T.);
#325=ORIENTED_EDGE('',*,*,#324,.F.);
#326=CARTESIAN_POINT('',(0.0,0.0,-3.200000000000000));
#327=DIRECTION('',(0.0,0.0,1.0));
#328=DIRECTION('',(1.0,0.0,0.0));
#329=AXIS2_PLACEMENT_3D('',#326,#327,#328);
#330=CIRCLE('',#329,0.500000000000000);
#331=EDGE_CURVE('',#319,#302,#330,.T.);
#332=ORIENTED_EDGE('',*,*,#331,.T.);
#333=EDGE_LOOP('',(#308,#317,#325,#332));
#334=FACE_OUTER_BOUND('',#333,.T.);
#335=ADVANCED_FACE('',(#334),#298,.T.);
#336=CARTESIAN_POINT('',(0.0,0.0,0.600000000000000));
#337=DIRECTION('',(0.0,0.0,-1.0));
#338=DIRECTION('',(1.0,0.0,0.0));
#339=AXIS2_PLACEMENT_3D('',#336,#337,#338);
#340=CYLINDRICAL_SURFACE('',#339,0.500000000000000);
#341=ORIENTED_EDGE('',*,*,#307,.T.);
#342=CARTESIAN_POINT('',(0.0,0.0,-3.200000000000000));
#343=DIRECTION('',(0.0,0.0,1.0));
#344=DIRECTION('',(1.0,0.0,0.0));
#345=AXIS2_PLACEMENT_3D('',#342,#343,#344);
#346=CIRCLE('',#345,0.500000000000000);
#347=EDGE_CURVE('',#302,#319,#346,.T.);
#348=ORIENTED_EDGE('',*,*,#347,.T.);
#349=ORIENTED_EDGE('',*,*,#324,.T.);
#350=CARTESIAN_POINT('',(0.0,0.0,0.600000000000000));
#351=DIRECTION('',(0.0,0.0,1.0));
#352=DIRECTION('',(1.0,0.0,0.0));
#353=AXIS2_PLACEMENT_3D('',#350,#351,#352);
#354=CIRCLE('',#353,0.500000000000000);
#355=EDGE_CURVE('',#300,#310,#354,.T.);
#356=ORIENTED_EDGE('',*,*,#355,.F.);
#357=EDGE_LOOP('',(#341,#348,#349,#356));
#358=FACE_OUTER_BOUND('',#357,.T.);
#359=ADVANCED_FACE('',(#358),#340,.T.);
#360=CARTESIAN_POINT('',(0.0,0.0,-3.200000000000000));
#361=DIRECTION('',(0.0,0.0,1.0));
#362=DIRECTION('',(1.0,0.0,0.0));
#363=AXIS2_PLACEMENT_3D('',#360,#361,#362);
#364=PLANE('',#363);
#365=ORIENTED_EDGE('',*,*,#347,.F.);
#366=ORIENTED_EDGE('',*,*,#331,.F.);
#367=EDGE_LOOP('',(#365,#366));
#368=FACE_OUTER_BOUND('',#367,.T.);
#369=ADVANCED_FACE('',(#368),#364,.F.);
#370=CARTESIAN_POINT('',(0.0,0.0,0.600000000000000));
#371=DIRECTION('',(0.0,0.0,1.0));
#372=DIRECTION('',(1.0,0.0,0.0));
#373=AXIS2_PLACEMENT_3D('',#370,#371,#372);
#374=PLANE('',#373);
#375=ORIENTED_EDGE('',*,*,#355,.T.);
#376=ORIENTED_EDGE('',*,*,#316,.T.);
#377=EDGE_LOOP('',(#375,#376));
#378=FACE_OUTER_BOUND('',#377,.T.);
#379=ADVANCED_FACE('',(#378),#374,.T.);
#380=CLOSED_SHELL('',(#335,#359,#369,#379));
#381=MANIFOLD_SOLID_BREP('3CF',#380);
#382=STYLED_ITEM('NONE',(#201),#381);
#383=CARTESIAN_POINT('',(0.0,-2.620126E-014,13.400000000000000));
#384=DIRECTION('',(0.0,0.0,-1.0));
#385=DIRECTION('',(1.0,0.0,0.0));
#386=AXIS2_PLACEMENT_3D('',#383,#384,#385);
#387=CYLINDRICAL_SURFACE('',#386,1.0);
#388=CARTESIAN_POINT('',(1.0,-2.620126E-014,13.400000000000000));
#389=VERTEX_POINT('',#388);
#390=CARTESIAN_POINT('',(1.0,-2.620126E-014,8.699999999999999));
#391=VERTEX_POINT('',#390);
#392=CARTESIAN_POINT('',(1.0,-2.620126E-014,13.400000000000000));
#393=DIRECTION('',(0.0,0.0,-1.0));
#394=VECTOR('',#393,4.700000000000001);
#395=LINE('',#392,#394);
#396=EDGE_CURVE('',#389,#391,#395,.T.);
#397=ORIENTED_EDGE('',*,*,#396,.F.);
#398=CARTESIAN_POINT('',(-1.0,-2.632372E-014,13.400000000000002));
#399=VERTEX_POINT('',#398);
#400=CARTESIAN_POINT('',(0.0,-2.620126E-014,13.400000000000000));
#401=DIRECTION('',(0.0,0.0,1.0));
#402=DIRECTION('',(1.0,0.0,0.0));
#403=AXIS2_PLACEMENT_3D('',#400,#401,#402);
#404=CIRCLE('',#403,1.0);
#405=EDGE_CURVE('',#399,#389,#404,.T.);
#406=ORIENTED_EDGE('',*,*,#405,.F.);
#407=CARTESIAN_POINT('',(-1.0,-2.632372E-014,8.699999999999999));
#408=VERTEX_POINT('',#407);
#409=CARTESIAN_POINT('',(-1.0,-2.632372E-014,8.699999999999999));
#410=DIRECTION('',(0.0,0.0,1.0));
#411=VECTOR('',#410,4.700000000000003);
#412=LINE('',#409,#411);
#413=EDGE_CURVE('',#408,#399,#412,.T.);
#414=ORIENTED_EDGE('',*,*,#413,.F.);
#415=CARTESIAN_POINT('',(0.0,-2.620126E-014,8.699999999999999));
#416=DIRECTION('',(0.0,0.0,1.0));
#417=DIRECTION('',(1.0,0.0,0.0));
#418=AXIS2_PLACEMENT_3D('',#415,#416,#417);
#419=CIRCLE('',#418,1.0);
#420=EDGE_CURVE('',#408,#391,#419,.T.);
#421=ORIENTED_EDGE('',*,*,#420,.T.);
#422=EDGE_LOOP('',(#397,#406,#414,#421));
#423=FACE_OUTER_BOUND('',#422,.T.);
#424=ADVANCED_FACE('',(#423),#387,.T.);
#425=CARTESIAN_POINT('',(0.0,-2.620126E-014,13.400000000000000));
#426=DIRECTION('',(0.0,0.0,-1.0));
#427=DIRECTION('',(1.0,0.0,0.0));
#428=AXIS2_PLACEMENT_3D('',#425,#426,#427);
#429=CYLINDRICAL_SURFACE('',#428,0.400000000000000);
#430=CARTESIAN_POINT('',(0.400000000000000,-2.620126E-014,8.699999999999999));
#431=VERTEX_POINT('',#430);
#432=CARTESIAN_POINT('',(0.400000000000000,-2.620126E-014,13.400000000000000));
#433=VERTEX_POINT('',#432);
#434=CARTESIAN_POINT('',(0.400000000000000,-2.620126E-014,8.699999999999999));
#435=DIRECTION('',(0.0,0.0,1.0));
#436=VECTOR('',#435,4.700000000000001);
#437=LINE('',#434,#436);
#438=EDGE_CURVE('',#431,#433,#437,.T.);
#439=ORIENTED_EDGE('',*,*,#438,.F.);
#440=CARTESIAN_POINT('',(-0.400000000000000,-2.625025E-014,8.699999999999999));
#441=VERTEX_POINT('',#440);
#442=CARTESIAN_POINT('',(0.0,-2.620126E-014,8.699999999999999));
#443=DIRECTION('',(0.0,0.0,1.0));
#444=DIRECTION('',(1.0,0.0,0.0));
#445=AXIS2_PLACEMENT_3D('',#442,#443,#444);
#446=CIRCLE('',#445,0.400000000000000);
#447=EDGE_CURVE('',#441,#431,#446,.T.);
#448=ORIENTED_EDGE('',*,*,#447,.F.);
#449=CARTESIAN_POINT('',(-0.400000000000000,-2.625025E-014,13.400000000000002));
#450=VERTEX_POINT('',#449);
#451=CARTESIAN_POINT('',(-0.400000000000000,-2.625025E-014,13.400000000000002));
#452=DIRECTION('',(0.0,0.0,-1.0));
#453=VECTOR('',#452,4.700000000000003);
#454=LINE('',#451,#453);
#455=EDGE_CURVE('',#450,#441,#454,.T.);
#456=ORIENTED_EDGE('',*,*,#455,.F.);
#457=CARTESIAN_POINT('',(0.0,-2.620126E-014,13.400000000000000));
#458=DIRECTION('',(0.0,0.0,-1.0));
#459=DIRECTION('',(1.0,0.0,0.0));
#460=AXIS2_PLACEMENT_3D('',#457,#458,#459);
#461=CIRCLE('',#460,0.400000000000000);
#462=EDGE_CURVE('',#433,#450,#461,.T.);
#463=ORIENTED_EDGE('',*,*,#462,.F.);
#464=EDGE_LOOP('',(#439,#448,#456,#463));
#465=FACE_OUTER_BOUND('',#464,.T.);
#466=ADVANCED_FACE('',(#465),#429,.F.);
#467=CARTESIAN_POINT('',(0.0,-2.620126E-014,13.400000000000000));
#468=DIRECTION('',(0.0,0.0,-1.0));
#469=DIRECTION('',(1.0,0.0,0.0));
#470=AXIS2_PLACEMENT_3D('',#467,#468,#469);
#471=CYLINDRICAL_SURFACE('',#470,0.400000000000000);
#472=ORIENTED_EDGE('',*,*,#438,.T.);
#473=CARTESIAN_POINT('',(0.0,-2.620126E-014,13.400000000000000));
#474=DIRECTION('',(0.0,0.0,-1.0));
#475=DIRECTION('',(1.0,0.0,0.0));
#476=AXIS2_PLACEMENT_3D('',#473,#474,#475);
#477=CIRCLE('',#476,0.400000000000000);
#478=EDGE_CURVE('',#450,#433,#477,.T.);
#479=ORIENTED_EDGE('',*,*,#478,.F.);
#480=ORIENTED_EDGE('',*,*,#455,.T.);
#481=CARTESIAN_POINT('',(0.0,-2.620126E-014,8.699999999999999));
#482=DIRECTION('',(0.0,0.0,1.0));
#483=DIRECTION('',(1.0,0.0,0.0));
#484=AXIS2_PLACEMENT_3D('',#481,#482,#483);
#485=CIRCLE('',#484,0.400000000000000);
#486=EDGE_CURVE('',#431,#441,#485,.T.);
#487=ORIENTED_EDGE('',*,*,#486,.F.);
#488=EDGE_LOOP('',(#472,#479,#480,#487));
#489=FACE_OUTER_BOUND('',#488,.T.);
#490=ADVANCED_FACE('',(#489),#471,.F.);
#491=CARTESIAN_POINT('',(0.0,-2.620126E-014,13.400000000000000));
#492=DIRECTION('',(0.0,0.0,-1.0));
#493=DIRECTION('',(1.0,0.0,0.0));
#494=AXIS2_PLACEMENT_3D('',#491,#492,#493);
#495=CYLINDRICAL_SURFACE('',#494,1.0);
#496=ORIENTED_EDGE('',*,*,#396,.T.);
#497=CARTESIAN_POINT('',(0.0,-2.620126E-014,8.699999999999999));
#498=DIRECTION('',(0.0,0.0,1.0));
#499=DIRECTION('',(1.0,0.0,0.0));
#500=AXIS2_PLACEMENT_3D('',#497,#498,#499);
#501=CIRCLE('',#500,1.0);
#502=EDGE_CURVE('',#391,#408,#501,.T.);
#503=ORIENTED_EDGE('',*,*,#502,.T.);
#504=ORIENTED_EDGE('',*,*,#413,.T.);
#505=CARTESIAN_POINT('',(0.0,-2.620126E-014,13.400000000000000));
#506=DIRECTION('',(0.0,0.0,1.0));
#507=DIRECTION('',(1.0,0.0,0.0));
#508=AXIS2_PLACEMENT_3D('',#505,#506,#507);
#509=CIRCLE('',#508,1.0);
#510=EDGE_CURVE('',#389,#399,#509,.T.);
#511=ORIENTED_EDGE('',*,*,#510,.F.);
#512=EDGE_LOOP('',(#496,#503,#504,#511));
#513=FACE_OUTER_BOUND('',#512,.T.);
#514=ADVANCED_FACE('',(#513),#495,.T.);
#515=CARTESIAN_POINT('',(0.0,-2.620126E-014,8.699999999999999));
#516=DIRECTION('',(0.0,0.0,1.0));
#517=DIRECTION('',(1.0,0.0,0.0));
#518=AXIS2_PLACEMENT_3D('',#515,#516,#517);
#519=PLANE('',#518);
#520=ORIENTED_EDGE('',*,*,#502,.F.);
#521=ORIENTED_EDGE('',*,*,#420,.F.);
#522=EDGE_LOOP('',(#520,#521));
#523=FACE_OUTER_BOUND('',#522,.T.);
#524=ORIENTED_EDGE('',*,*,#486,.T.);
#525=ORIENTED_EDGE('',*,*,#447,.T.);
#526=EDGE_LOOP('',(#524,#525));
#527=FACE_BOUND('',#526,.T.);
#528=ADVANCED_FACE('',(#523,#527),#519,.F.);
#529=CARTESIAN_POINT('',(0.0,-2.620126E-014,13.400000000000000));
#530=DIRECTION('',(0.0,0.0,1.0));
#531=DIRECTION('',(1.0,0.0,0.0));
#532=AXIS2_PLACEMENT_3D('',#529,#530,#531);
#533=PLANE('',#532);
#534=ORIENTED_EDGE('',*,*,#510,.T.);
#535=ORIENTED_EDGE('',*,*,#405,.T.);
#536=EDGE_LOOP('',(#534,#535));
#537=FACE_OUTER_BOUND('',#536,.T.);
#538=ORIENTED_EDGE('',*,*,#462,.T.);
#539=ORIENTED_EDGE('',*,*,#478,.T.);
#540=EDGE_LOOP('',(#538,#539));
#541=FACE_BOUND('',#540,.T.);
#542=ADVANCED_FACE('',(#537,#541),#533,.T.);
#543=CLOSED_SHELL('',(#424,#466,#490,#514,#528,#542));
#544=MANIFOLD_SOLID_BREP('3C9',#543);
#545=COLOUR_RGB('40',1.0,0.750000000000000,0.0);
#546=SURFACE_STYLE_USAGE(.BOTH.,#547);
#547=SURFACE_SIDE_STYLE('NONE',(#548));
#548=SURFACE_STYLE_FILL_AREA(#549);
#549=FILL_AREA_STYLE('NONE',(#550));
#550=FILL_AREA_STYLE_COLOUR('NONE',#545);
#551=PRESENTATION_STYLE_ASSIGNMENT((#546));
#552=STYLED_ITEM('NONE',(#551),#544);
#553=CARTESIAN_POINT('',(0.0,-2.398082E-015,13.400000000000000));
#554=DIRECTION('',(0.0,-4.440892E-016,-1.0));
#555=DIRECTION('',(-1.0,0.0,0.0));
#556=AXIS2_PLACEMENT_3D('',#553,#554,#555);
#557=CYLINDRICAL_SURFACE('',#556,2.500000000000000);
#558=CARTESIAN_POINT('',(-2.500000000000000,-2.398082E-015,13.400000000000000));
#559=VERTEX_POINT('',#558);
#560=CARTESIAN_POINT('',(-2.500000000000000,-4.485301E-015,8.699999999999999));
#561=VERTEX_POINT('',#560);
#562=CARTESIAN_POINT('',(-2.500000000000000,-2.398082E-015,13.400000000000000));
#563=DIRECTION('',(0.0,0.0,-1.0));
#564=VECTOR('',#563,4.700000000000001);
#565=LINE('',#562,#564);
#566=EDGE_CURVE('',#559,#561,#565,.T.);
#567=ORIENTED_EDGE('',*,*,#566,.F.);
#568=CARTESIAN_POINT('',(2.500000000000000,-2.091930E-015,13.400000000000002));
#569=VERTEX_POINT('',#568);
#570=CARTESIAN_POINT('',(0.0,-2.398082E-015,13.400000000000000));
#571=DIRECTION('',(0.0,0.0,-1.0));
#572=DIRECTION('',(-1.0,0.0,0.0));
#573=AXIS2_PLACEMENT_3D('',#570,#571,#572);
#574=CIRCLE('',#573,2.500000000000000);
#575=EDGE_CURVE('',#559,#569,#574,.T.);
#576=ORIENTED_EDGE('',*,*,#575,.T.);
#577=CARTESIAN_POINT('',(2.500000000000000,-4.179149E-015,8.699999999999999));
#578=VERTEX_POINT('',#577);
#579=CARTESIAN_POINT('',(2.500000000000000,-4.179149E-015,8.699999999999999));
#580=DIRECTION('',(0.0,0.0,1.0));
#581=VECTOR('',#580,4.700000000000003);
#582=LINE('',#579,#581);
#583=EDGE_CURVE('',#578,#569,#582,.T.);
#584=ORIENTED_EDGE('',*,*,#583,.F.);
#585=CARTESIAN_POINT('',(0.0,-4.485301E-015,8.699999999999999));
#586=DIRECTION('',(0.0,0.0,1.0));
#587=DIRECTION('',(-1.0,0.0,0.0));
#588=AXIS2_PLACEMENT_3D('',#585,#586,#587);
#589=CIRCLE('',#588,2.500000000000000);
#590=EDGE_CURVE('',#578,#561,#589,.T.);
#591=ORIENTED_EDGE('',*,*,#590,.T.);
#592=EDGE_LOOP('',(#567,#576,#584,#591));
#593=FACE_OUTER_BOUND('',#592,.T.);
#594=ADVANCED_FACE('',(#593),#557,.T.);
#595=CARTESIAN_POINT('',(0.0,-1.429967E-014,13.400000000000000));
#596=DIRECTION('',(0.0,0.0,-1.0));
#597=DIRECTION('',(1.0,0.0,0.0));
#598=AXIS2_PLACEMENT_3D('',#595,#596,#597);
#599=CYLINDRICAL_SURFACE('',#598,1.0);
#600=CARTESIAN_POINT('',(1.0,-1.429967E-014,8.699999999999999));
#601=VERTEX_POINT('',#600);
#602=CARTESIAN_POINT('',(1.0,-1.429967E-014,13.400000000000000));
#603=VERTEX_POINT('',#602);
#604=CARTESIAN_POINT('',(1.0,-1.429967E-014,8.699999999999999));
#605=DIRECTION('',(0.0,0.0,1.0));
#606=VECTOR('',#605,4.700000000000001);
#607=LINE('',#604,#606);
#608=EDGE_CURVE('',#601,#603,#607,.T.);
#609=ORIENTED_EDGE('',*,*,#608,.F.);
#610=CARTESIAN_POINT('',(-1.0,-1.442213E-014,8.699999999999999));
#611=VERTEX_POINT('',#610);
#612=CARTESIAN_POINT('',(0.0,-1.429967E-014,8.699999999999999));
#613=DIRECTION('',(0.0,0.0,1.0));
#614=DIRECTION('',(1.0,0.0,0.0));
#615=AXIS2_PLACEMENT_3D('',#612,#613,#614);
#616=CIRCLE('',#615,1.0);
#617=EDGE_CURVE('',#611,#601,#616,.T.);
#618=ORIENTED_EDGE('',*,*,#617,.F.);
#619=CARTESIAN_POINT('',(-1.0,-1.442213E-014,13.400000000000002));
#620=VERTEX_POINT('',#619);
#621=CARTESIAN_POINT('',(-1.0,-1.442213E-014,13.400000000000002));
#622=DIRECTION('',(0.0,0.0,-1.0));
#623=VECTOR('',#622,4.700000000000003);
#624=LINE('',#621,#623);
#625=EDGE_CURVE('',#620,#611,#624,.T.);
#626=ORIENTED_EDGE('',*,*,#625,.F.);
#627=CARTESIAN_POINT('',(0.0,-1.429967E-014,13.400000000000000));
#628=DIRECTION('',(0.0,0.0,-1.0));
#629=DIRECTION('',(1.0,0.0,0.0));
#630=AXIS2_PLACEMENT_3D('',#627,#628,#629);
#631=CIRCLE('',#630,1.0);
#632=EDGE_CURVE('',#603,#620,#631,.T.);
#633=ORIENTED_EDGE('',*,*,#632,.F.);
#634=EDGE_LOOP('',(#609,#618,#626,#633));
#635=FACE_OUTER_BOUND('',#634,.T.);
#636=ADVANCED_FACE('',(#635),#599,.F.);
#637=CARTESIAN_POINT('',(0.0,-1.429967E-014,13.400000000000000));
#638=DIRECTION('',(0.0,0.0,-1.0));
#639=DIRECTION('',(1.0,0.0,0.0));
#640=AXIS2_PLACEMENT_3D('',#637,#638,#639);
#641=CYLINDRICAL_SURFACE('',#640,1.0);
#642=ORIENTED_EDGE('',*,*,#608,.T.);
#643=CARTESIAN_POINT('',(0.0,-1.429967E-014,13.400000000000000));
#644=DIRECTION('',(0.0,0.0,-1.0));
#645=DIRECTION('',(1.0,0.0,0.0));
#646=AXIS2_PLACEMENT_3D('',#643,#644,#645);
#647=CIRCLE('',#646,1.0);
#648=EDGE_CURVE('',#620,#603,#647,.T.);
#649=ORIENTED_EDGE('',*,*,#648,.F.);
#650=ORIENTED_EDGE('',*,*,#625,.T.);
#651=CARTESIAN_POINT('',(0.0,-1.429967E-014,8.699999999999999));
#652=DIRECTION('',(0.0,0.0,1.0));
#653=DIRECTION('',(1.0,0.0,0.0));
#654=AXIS2_PLACEMENT_3D('',#651,#652,#653);
#655=CIRCLE('',#654,1.0);
#656=EDGE_CURVE('',#601,#611,#655,.T.);
#657=ORIENTED_EDGE('',*,*,#656,.F.);
#658=EDGE_LOOP('',(#642,#649,#650,#657));
#659=FACE_OUTER_BOUND('',#658,.T.);
#660=ADVANCED_FACE('',(#659),#641,.F.);
#661=CARTESIAN_POINT('',(0.0,-2.398082E-015,13.400000000000000));
#662=DIRECTION('',(0.0,-4.440892E-016,-1.0));
#663=DIRECTION('',(-1.0,0.0,0.0));
#664=AXIS2_PLACEMENT_3D('',#661,#662,#663);
#665=CYLINDRICAL_SURFACE('',#664,2.500000000000000);
#666=ORIENTED_EDGE('',*,*,#566,.T.);
#667=CARTESIAN_POINT('',(0.0,-4.485301E-015,8.699999999999999));
#668=DIRECTION('',(0.0,0.0,1.0));
#669=DIRECTION('',(-1.0,0.0,0.0));
#670=AXIS2_PLACEMENT_3D('',#667,#668,#669);
#671=CIRCLE('',#670,2.500000000000000);
#672=EDGE_CURVE('',#561,#578,#671,.T.);
#673=ORIENTED_EDGE('',*,*,#672,.T.);
#674=ORIENTED_EDGE('',*,*,#583,.T.);
#675=CARTESIAN_POINT('',(0.0,-2.398082E-015,13.400000000000000));
#676=DIRECTION('',(0.0,0.0,-1.0));
#677=DIRECTION('',(-1.0,0.0,0.0));
#678=AXIS2_PLACEMENT_3D('',#675,#676,#677);
#679=CIRCLE('',#678,2.500000000000000);
#680=EDGE_CURVE('',#569,#559,#679,.T.);
#681=ORIENTED_EDGE('',*,*,#680,.T.);
#682=EDGE_LOOP('',(#666,#673,#674,#681));
#683=FACE_OUTER_BOUND('',#682,.T.);
#684=ADVANCED_FACE('',(#683),#665,.T.);
#685=CARTESIAN_POINT('',(0.0,-4.485301E-015,8.699999999999999));
#686=DIRECTION('',(0.0,0.0,-1.0));
#687=DIRECTION('',(-1.0,0.0,0.0));
#688=AXIS2_PLACEMENT_3D('',#685,#686,#687);
#689=PLANE('',#688);
#690=ORIENTED_EDGE('',*,*,#672,.F.);
#691=ORIENTED_EDGE('',*,*,#590,.F.);
#692=EDGE_LOOP('',(#690,#691));
#693=FACE_OUTER_BOUND('',#692,.T.);
#694=ORIENTED_EDGE('',*,*,#656,.T.);
#695=ORIENTED_EDGE('',*,*,#617,.T.);
#696=EDGE_LOOP('',(#694,#695));
#697=FACE_BOUND('',#696,.T.);
#698=ADVANCED_FACE('',(#693,#697),#689,.T.);
#699=CARTESIAN_POINT('',(0.0,-2.398082E-015,13.400000000000000));
#700=DIRECTION('',(0.0,0.0,-1.0));
#701=DIRECTION('',(-1.0,0.0,0.0));
#702=AXIS2_PLACEMENT_3D('',#699,#700,#701);
#703=PLANE('',#702);
#704=ORIENTED_EDGE('',*,*,#575,.F.);
#705=ORIENTED_EDGE('',*,*,#680,.F.);
#706=EDGE_LOOP('',(#704,#705));
#707=FACE_OUTER_BOUND('',#706,.T.);
#708=ORIENTED_EDGE('',*,*,#632,.T.);
#709=ORIENTED_EDGE('',*,*,#648,.T.);
#710=EDGE_LOOP('',(#708,#709));
#711=FACE_BOUND('',#710,.T.);
#712=ADVANCED_FACE('',(#707,#711),#703,.F.);
#713=CLOSED_SHELL('',(#594,#636,#660,#684,#698,#712));
#714=MANIFOLD_SOLID_BREP('3C4',#713);
#715=COLOUR_RGB('254',0.866000000000000,0.866000000000000,0.866000000000000);
#716=SURFACE_STYLE_USAGE(.BOTH.,#717);
#717=SURFACE_SIDE_STYLE('NONE',(#718));
#718=SURFACE_STYLE_FILL_AREA(#719);
#719=FILL_AREA_STYLE('NONE',(#720));
#720=FILL_AREA_STYLE_COLOUR('NONE',#715);
#721=PRESENTATION_STYLE_ASSIGNMENT((#716));
#722=STYLED_ITEM('NONE',(#721),#714);
#723=CARTESIAN_POINT('',(0.0,0.0,0.600000000000000));
#724=DIRECTION('',(0.0,0.0,1.0));
#725=DIRECTION('',(1.0,0.0,0.0));
#726=AXIS2_PLACEMENT_3D('',#723,#724,#725);
#727=CYLINDRICAL_SURFACE('',#726,4.800000000000000);
#728=CARTESIAN_POINT('',(4.800000000000000,0.0,0.600000000000000));
#729=VERTEX_POINT('',#728);
#730=CARTESIAN_POINT('',(4.800000000000000,0.0,17.0));
#731=VERTEX_POINT('',#730);
#732=CARTESIAN_POINT('',(4.800000000000000,0.0,0.600000000000000));
#733=DIRECTION('',(0.0,0.0,1.0));
#734=VECTOR('',#733,16.399999999999999);
#735=LINE('',#732,#734);
#736=EDGE_CURVE('',#729,#731,#735,.T.);
#737=ORIENTED_EDGE('',*,*,#736,.F.);
#738=CARTESIAN_POINT('',(-4.800000000000000,5.878110E-016,0.600000000000000));
#739=VERTEX_POINT('',#738);
#740=CARTESIAN_POINT('',(0.0,0.0,0.600000000000000));
#741=DIRECTION('',(0.0,0.0,1.0));
#742=DIRECTION('',(1.0,0.0,0.0));
#743=AXIS2_PLACEMENT_3D('',#740,#741,#742);
#744=CIRCLE('',#743,4.800000000000000);
#745=EDGE_CURVE('',#729,#739,#744,.T.);
#746=ORIENTED_EDGE('',*,*,#745,.T.);
#747=CARTESIAN_POINT('',(-4.800000000000000,5.878110E-016,17.0));
#748=VERTEX_POINT('',#747);
#749=CARTESIAN_POINT('',(-4.800000000000000,5.878110E-016,17.0));
#750=DIRECTION('',(0.0,0.0,-1.0));
#751=VECTOR('',#750,16.399999999999999);
#752=LINE('',#749,#751);
#753=EDGE_CURVE('',#748,#739,#752,.T.);
#754=ORIENTED_EDGE('',*,*,#753,.F.);
#755=CARTESIAN_POINT('',(0.0,0.0,17.0));
#756=DIRECTION('',(0.0,0.0,-1.0));
#757=DIRECTION('',(1.0,0.0,0.0));
#758=AXIS2_PLACEMENT_3D('',#755,#756,#757);
#759=CIRCLE('',#758,4.800000000000000);
#760=EDGE_CURVE('',#748,#731,#759,.T.);
#761=ORIENTED_EDGE('',*,*,#760,.T.);
#762=EDGE_LOOP('',(#737,#746,#754,#761));
#763=FACE_OUTER_BOUND('',#762,.T.);
#764=ADVANCED_FACE('',(#763),#727,.T.);
#765=CARTESIAN_POINT('',(0.0,0.0,17.0));
#766=DIRECTION('',(0.0,-4.440892E-016,-1.0));
#767=DIRECTION('',(-1.0,0.0,0.0));
#768=AXIS2_PLACEMENT_3D('',#765,#766,#767);
#769=CYLINDRICAL_SURFACE('',#768,4.400000000000000);
#770=CARTESIAN_POINT('',(-4.400000000000000,-3.685940E-015,8.699999999999999));
#771=VERTEX_POINT('',#770);
#772=CARTESIAN_POINT('',(-4.400000000000000,0.0,17.0));
#773=VERTEX_POINT('',#772);
#774=CARTESIAN_POINT('',(-4.400000000000000,-3.685940E-015,8.699999999999999));
#775=DIRECTION('',(0.0,0.0,1.0));
#776=VECTOR('',#775,8.300000000000001);
#777=LINE('',#774,#776);
#778=EDGE_CURVE('',#771,#773,#777,.T.);
#779=ORIENTED_EDGE('',*,*,#778,.F.);
#780=CARTESIAN_POINT('',(4.400000000000000,-3.147114E-015,8.699999999999999));
#781=VERTEX_POINT('',#780);
#782=CARTESIAN_POINT('',(0.0,-3.685940E-015,8.699999999999999));
#783=DIRECTION('',(0.0,0.0,1.0));
#784=DIRECTION('',(-1.0,0.0,0.0));
#785=AXIS2_PLACEMENT_3D('',#782,#783,#784);
#786=CIRCLE('',#785,4.400000000000000);
#787=EDGE_CURVE('',#781,#771,#786,.T.);
#788=ORIENTED_EDGE('',*,*,#787,.F.);
#789=CARTESIAN_POINT('',(4.400000000000000,5.388268E-016,17.0));
#790=VERTEX_POINT('',#789);
#791=CARTESIAN_POINT('',(4.400000000000000,5.388268E-016,17.0));
#792=DIRECTION('',(0.0,0.0,-1.0));
#793=VECTOR('',#792,8.300000000000001);
#794=LINE('',#791,#793);
#795=EDGE_CURVE('',#790,#781,#794,.T.);
#796=ORIENTED_EDGE('',*,*,#795,.F.);
#797=CARTESIAN_POINT('',(0.0,0.0,17.0));
#798=DIRECTION('',(0.0,0.0,-1.0));
#799=DIRECTION('',(-1.0,0.0,0.0));
#800=AXIS2_PLACEMENT_3D('',#797,#798,#799);
#801=CIRCLE('',#800,4.400000000000000);
#802=EDGE_CURVE('',#773,#790,#801,.T.);
#803=ORIENTED_EDGE('',*,*,#802,.F.);
#804=EDGE_LOOP('',(#779,#788,#796,#803));
#805=FACE_OUTER_BOUND('',#804,.T.);
#806=ADVANCED_FACE('',(#805),#769,.F.);
#807=CARTESIAN_POINT('',(0.0,0.0,17.0));
#808=DIRECTION('',(0.0,-4.440892E-016,-1.0));
#809=DIRECTION('',(-1.0,0.0,0.0));
#810=AXIS2_PLACEMENT_3D('',#807,#808,#809);
#811=CYLINDRICAL_SURFACE('',#810,4.400000000000000);
#812=ORIENTED_EDGE('',*,*,#778,.T.);
#813=CARTESIAN_POINT('',(0.0,0.0,17.0));
#814=DIRECTION('',(0.0,0.0,-1.0));
#815=DIRECTION('',(-1.0,0.0,0.0));
#816=AXIS2_PLACEMENT_3D('',#813,#814,#815);
#817=CIRCLE('',#816,4.400000000000000);
#818=EDGE_CURVE('',#790,#773,#817,.T.);
#819=ORIENTED_EDGE('',*,*,#818,.F.);
#820=ORIENTED_EDGE('',*,*,#795,.T.);
#821=CARTESIAN_POINT('',(0.0,-3.685940E-015,8.699999999999999));
#822=DIRECTION('',(0.0,0.0,1.0));
#823=DIRECTION('',(-1.0,0.0,0.0));
#824=AXIS2_PLACEMENT_3D('',#821,#822,#823);
#825=CIRCLE('',#824,4.400000000000000);
#826=EDGE_CURVE('',#771,#781,#825,.T.);
#827=ORIENTED_EDGE('',*,*,#826,.F.);
#828=EDGE_LOOP('',(#812,#819,#820,#827));
#829=FACE_OUTER_BOUND('',#828,.T.);
#830=ADVANCED_FACE('',(#829),#811,.F.);
#831=CARTESIAN_POINT('',(0.0,-3.685940E-015,8.699999999999999));
#832=DIRECTION('',(0.0,0.0,-1.0));
#833=DIRECTION('',(-1.0,0.0,0.0));
#834=AXIS2_PLACEMENT_3D('',#831,#832,#833);
#835=PLANE('',#834);
#836=ORIENTED_EDGE('',*,*,#826,.T.);
#837=ORIENTED_EDGE('',*,*,#787,.T.);
#838=EDGE_LOOP('',(#836,#837));
#839=FACE_OUTER_BOUND('',#838,.T.);
#840=ADVANCED_FACE('',(#839),#835,.F.);
#841=CARTESIAN_POINT('',(0.0,0.0,0.600000000000000));
#842=DIRECTION('',(0.0,0.0,1.0));
#843=DIRECTION('',(1.0,0.0,0.0));
#844=AXIS2_PLACEMENT_3D('',#841,#842,#843);
#845=CYLINDRICAL_SURFACE('',#844,4.800000000000000);
#846=ORIENTED_EDGE('',*,*,#736,.T.);
#847=CARTESIAN_POINT('',(0.0,0.0,17.0));
#848=DIRECTION('',(0.0,0.0,-1.0));
#849=DIRECTION('',(1.0,0.0,0.0));
#850=AXIS2_PLACEMENT_3D('',#847,#848,#849);
#851=CIRCLE('',#850,4.800000000000000);
#852=EDGE_CURVE('',#731,#748,#851,.T.);
#853=ORIENTED_EDGE('',*,*,#852,.T.);
#854=ORIENTED_EDGE('',*,*,#753,.T.);
#855=CARTESIAN_POINT('',(0.0,0.0,0.600000000000000));
#856=DIRECTION('',(0.0,0.0,1.0));
#857=DIRECTION('',(1.0,0.0,0.0));
#858=AXIS2_PLACEMENT_3D('',#855,#856,#857);
#859=CIRCLE('',#858,4.800000000000000);
#860=EDGE_CURVE('',#739,#729,#859,.T.);
#861=ORIENTED_EDGE('',*,*,#860,.T.);
#862=EDGE_LOOP('',(#846,#853,#854,#861));
#863=FACE_OUTER_BOUND('',#862,.T.);
#864=ADVANCED_FACE('',(#863),#845,.T.);
#865=CARTESIAN_POINT('',(0.0,0.0,17.0));
#866=DIRECTION('',(0.0,0.0,1.0));
#867=DIRECTION('',(1.0,0.0,0.0));
#868=AXIS2_PLACEMENT_3D('',#865,#866,#867);
#869=PLANE('',#868);
#870=ORIENTED_EDGE('',*,*,#852,.F.);
#871=ORIENTED_EDGE('',*,*,#760,.F.);
#872=EDGE_LOOP('',(#870,#871));
#873=FACE_OUTER_BOUND('',#872,.T.);
#874=ORIENTED_EDGE('',*,*,#802,.T.);
#875=ORIENTED_EDGE('',*,*,#818,.T.);
#876=EDGE_LOOP('',(#874,#875));
#877=FACE_BOUND('',#876,.T.);
#878=ADVANCED_FACE('',(#873,#877),#869,.T.);
#879=CARTESIAN_POINT('',(0.0,0.0,0.600000000000000));
#880=DIRECTION('',(0.0,0.0,1.0));
#881=DIRECTION('',(1.0,0.0,0.0));
#882=AXIS2_PLACEMENT_3D('',#879,#880,#881);
#883=PLANE('',#882);
#884=ORIENTED_EDGE('',*,*,#745,.F.);
#885=ORIENTED_EDGE('',*,*,#860,.F.);
#886=EDGE_LOOP('',(#884,#885));
#887=FACE_OUTER_BOUND('',#886,.T.);
#888=ADVANCED_FACE('',(#887),#883,.F.);
#889=CLOSED_SHELL('',(#764,#806,#830,#840,#864,#878,#888));
#890=MANIFOLD_SOLID_BREP('3B7',#889);
#891=STYLED_ITEM('NONE',(#201),#890);
#892=CARTESIAN_POINT('',(8.881784E-016,8.881784E-016,0.600000000000000));
#893=DIRECTION('',(0.0,0.0,-1.0));
#894=DIRECTION('',(0.866025403784438,-0.500000000000001,0.0));
#895=AXIS2_PLACEMENT_3D('',#892,#893,#894);
#896=CYLINDRICAL_SURFACE('',#895,4.800000000000000);
#897=CARTESIAN_POINT('',(4.156921938165306,-2.400000000000001,0.600000000000000));
#898=VERTEX_POINT('',#897);
#899=CARTESIAN_POINT('',(4.156921938165306,-2.400000000000001,-3.200000000000000));
#900=VERTEX_POINT('',#899);
#901=CARTESIAN_POINT('',(4.156921938165306,-2.400000000000001,0.600000000000000));
#902=DIRECTION('',(0.0,0.0,-1.0));
#903=VECTOR('',#902,3.800000000000000);
#904=LINE('',#901,#903);
#905=EDGE_CURVE('',#898,#900,#904,.T.);
#906=ORIENTED_EDGE('',*,*,#905,.F.);
#907=CARTESIAN_POINT('',(3.884307680857823,-2.819956354348224,0.600000000000000));
#908=VERTEX_POINT('',#907);
#909=CARTESIAN_POINT('',(8.881784E-016,8.881784E-016,0.600000000000000));
#910=DIRECTION('',(0.0,0.0,1.0));
#911=DIRECTION('',(0.866025403784438,-0.500000000000001,0.0));
#912=AXIS2_PLACEMENT_3D('',#909,#910,#911);
#913=CIRCLE('',#912,4.800000000000000);
#914=EDGE_CURVE('',#908,#898,#913,.T.);
#915=ORIENTED_EDGE('',*,*,#914,.F.);
#916=CARTESIAN_POINT('',(3.884307680857823,-2.819956354348224,-3.200000000000000));
#917=VERTEX_POINT('',#916);
#918=CARTESIAN_POINT('',(3.884307680857823,-2.819956354348224,0.600000000000000));
#919=DIRECTION('',(0.0,0.0,-1.0));
#920=VECTOR('',#919,3.800000000000000);
#921=LINE('',#918,#920);
#922=EDGE_CURVE('',#908,#917,#921,.T.);
#923=ORIENTED_EDGE('',*,*,#922,.T.);
#924=CARTESIAN_POINT('',(8.881784E-016,8.881784E-016,-3.200000000000000));
#925=DIRECTION('',(0.0,0.0,1.0));
#926=DIRECTION('',(0.866025403784438,-0.500000000000001,0.0));
#927=AXIS2_PLACEMENT_3D('',#924,#925,#926);
#928=CIRCLE('',#927,4.800000000000000);
#929=EDGE_CURVE('',#917,#900,#928,.T.);
#930=ORIENTED_EDGE('',*,*,#929,.T.);
#931=EDGE_LOOP('',(#906,#915,#923,#930));
#932=FACE_OUTER_BOUND('',#931,.T.);
#933=ADVANCED_FACE('',(#932),#896,.T.);
#934=CARTESIAN_POINT('',(4.384307680857823,-1.953930950563786,0.600000000000000));
#935=DIRECTION('',(0.500000000000000,0.866025403784439,0.0));
#936=DIRECTION('',(0.0,0.0,1.0));
#937=AXIS2_PLACEMENT_3D('',#934,#935,#936);
#938=PLANE('',#937);
#939=CARTESIAN_POINT('',(4.384307680857823,-1.953930950563786,-3.200000000000000));
#940=VERTEX_POINT('',#939);
#941=CARTESIAN_POINT('',(3.540896534380866,-1.466987298107784,-3.200000000000000));
#942=VERTEX_POINT('',#941);
#943=CARTESIAN_POINT('',(4.384307680857823,-1.953930950563786,-3.200000000000000));
#944=DIRECTION('',(-0.866025403784439,0.500000000000000,0.0));
#945=VECTOR('',#944,0.973887304912004);
#946=LINE('',#943,#945);
#947=EDGE_CURVE('',#940,#942,#946,.T.);
#948=ORIENTED_EDGE('',*,*,#947,.T.);
#949=CARTESIAN_POINT('',(3.540896534380866,-1.466987298107784,0.600000000000000));
#950=VERTEX_POINT('',#949);
#951=CARTESIAN_POINT('',(3.540896534380866,-1.466987298107784,0.600000000000000));
#952=DIRECTION('',(0.0,0.0,-1.0));
#953=VECTOR('',#952,3.800000000000000);
#954=LINE('',#951,#953);
#955=EDGE_CURVE('',#950,#942,#954,.T.);
#956=ORIENTED_EDGE('',*,*,#955,.F.);
#957=CARTESIAN_POINT('',(4.384307680857823,-1.953930950563786,0.600000000000000));
#958=VERTEX_POINT('',#957);
#959=CARTESIAN_POINT('',(4.384307680857823,-1.953930950563786,0.600000000000000));
#960=DIRECTION('',(-0.866025403784439,0.500000000000000,0.0));
#961=VECTOR('',#960,0.973887304912004);
#962=LINE('',#959,#961);
#963=EDGE_CURVE('',#958,#950,#962,.T.);
#964=ORIENTED_EDGE('',*,*,#963,.F.);
#965=CARTESIAN_POINT('',(4.384307680857823,-1.953930950563786,0.600000000000000));
#966=DIRECTION('',(0.0,0.0,-1.0));
#967=VECTOR('',#966,3.800000000000000);
#968=LINE('',#965,#967);
#969=EDGE_CURVE('',#958,#940,#968,.T.);
#970=ORIENTED_EDGE('',*,*,#969,.T.);
#971=EDGE_LOOP('',(#948,#956,#964,#970));
#972=FACE_OUTER_BOUND('',#971,.T.);
#973=ADVANCED_FACE('',(#972),#938,.T.);
#974=CARTESIAN_POINT('',(3.540896534380866,-1.466987298107784,0.600000000000000));
#975=DIRECTION('',(-0.866025403784439,0.500000000000000,0.0));
#976=DIRECTION('',(0.0,0.0,1.0));
#977=AXIS2_PLACEMENT_3D('',#974,#975,#976);
#978=PLANE('',#977);
#979=CARTESIAN_POINT('',(3.040896534380866,-2.333012701892222,-3.200000000000000));
#980=VERTEX_POINT('',#979);
#981=CARTESIAN_POINT('',(3.540896534380866,-1.466987298107784,-3.200000000000000));
#982=DIRECTION('',(-0.500000000000000,-0.866025403784439,0.0));
#983=VECTOR('',#982,1.000000000000000);
#984=LINE('',#981,#983);
#985=EDGE_CURVE('',#942,#980,#984,.T.);
#986=ORIENTED_EDGE('',*,*,#985,.T.);
#987=CARTESIAN_POINT('',(3.040896534380866,-2.333012701892222,0.600000000000000));
#988=VERTEX_POINT('',#987);
#989=CARTESIAN_POINT('',(3.040896534380866,-2.333012701892222,0.600000000000000));
#990=DIRECTION('',(0.0,0.0,-1.0));
#991=VECTOR('',#990,3.800000000000000);
#992=LINE('',#989,#991);
#993=EDGE_CURVE('',#988,#980,#992,.T.);
#994=ORIENTED_EDGE('',*,*,#993,.F.);
#995=CARTESIAN_POINT('',(3.540896534380866,-1.466987298107784,0.600000000000000));
#996=DIRECTION('',(-0.500000000000000,-0.866025403784439,0.0));
#997=VECTOR('',#996,1.000000000000000);
#998=LINE('',#995,#997);
#999=EDGE_CURVE('',#950,#988,#998,.T.);
#1000=ORIENTED_EDGE('',*,*,#999,.F.);
#1001=ORIENTED_EDGE('',*,*,#955,.T.);
#1002=EDGE_LOOP('',(#986,#994,#1000,#1001));
#1003=FACE_OUTER_BOUND('',#1002,.T.);
#1004=ADVANCED_FACE('',(#1003),#978,.T.);
#1005=CARTESIAN_POINT('',(3.040896534380866,-2.333012701892222,0.600000000000000));
#1006=DIRECTION('',(-0.500000000000000,-0.866025403784439,0.0));
#1007=DIRECTION('',(0.0,0.0,-1.0));
#1008=AXIS2_PLACEMENT_3D('',#1005,#1006,#1007);
#1009=PLANE('',#1008);
#1010=CARTESIAN_POINT('',(3.040896534380866,-2.333012701892222,-3.200000000000000));
#1011=DIRECTION('',(0.866025403784439,-0.500000000000000,0.0));
#1012=VECTOR('',#1011,0.973887304912004);
#1013=LINE('',#1010,#1012);
#1014=EDGE_CURVE('',#980,#917,#1013,.T.);
#1015=ORIENTED_EDGE('',*,*,#1014,.T.);
#1016=ORIENTED_EDGE('',*,*,#922,.F.);
#1017=CARTESIAN_POINT('',(3.040896534380866,-2.333012701892222,0.600000000000000));
#1018=DIRECTION('',(0.866025403784439,-0.500000000000000,0.0));
#1019=VECTOR('',#1018,0.973887304912004);
#1020=LINE('',#1017,#1019);
#1021=EDGE_CURVE('',#988,#908,#1020,.T.);
#1022=ORIENTED_EDGE('',*,*,#1021,.F.);
#1023=ORIENTED_EDGE('',*,*,#993,.T.);
#1024=EDGE_LOOP('',(#1015,#1016,#1022,#1023));
#1025=FACE_OUTER_BOUND('',#1024,.T.);
#1026=ADVANCED_FACE('',(#1025),#1009,.T.);
#1027=CARTESIAN_POINT('',(8.881784E-016,8.881784E-016,0.600000000000000));
#1028=DIRECTION('',(0.0,0.0,-1.0));
#1029=DIRECTION('',(0.866025403784438,-0.500000000000001,0.0));
#1030=AXIS2_PLACEMENT_3D('',#1027,#1028,#1029);
#1031=CYLINDRICAL_SURFACE('',#1030,4.800000000000000);
#1032=ORIENTED_EDGE('',*,*,#905,.T.);
#1033=CARTESIAN_POINT('',(8.881784E-016,8.881784E-016,-3.200000000000000));
#1034=DIRECTION('',(0.0,0.0,1.0));
#1035=DIRECTION('',(0.866025403784438,-0.500000000000001,0.0));
#1036=AXIS2_PLACEMENT_3D('',#1033,#1034,#1035);
#1037=CIRCLE('',#1036,4.800000000000000);
#1038=EDGE_CURVE('',#900,#940,#1037,.T.);
#1039=ORIENTED_EDGE('',*,*,#1038,.T.);
#1040=ORIENTED_EDGE('',*,*,#969,.F.);
#1041=CARTESIAN_POINT('',(8.881784E-016,8.881784E-016,0.600000000000000));
#1042=DIRECTION('',(0.0,0.0,1.0));
#1043=DIRECTION('',(0.866025403784438,-0.500000000000001,0.0));
#1044=AXIS2_PLACEMENT_3D('',#1041,#1042,#1043);
#1045=CIRCLE('',#1044,4.800000000000000);
#1046=EDGE_CURVE('',#898,#958,#1045,.T.);
#1047=ORIENTED_EDGE('',*,*,#1046,.F.);
#1048=EDGE_LOOP('',(#1032,#1039,#1040,#1047));
#1049=FACE_OUTER_BOUND('',#1048,.T.);
#1050=ADVANCED_FACE('',(#1049),#1031,.T.);
#1051=CARTESIAN_POINT('',(3.716237223556800,-2.145570561393029,-3.200000000000000));
#1052=DIRECTION('',(0.0,0.0,1.0));
#1053=DIRECTION('',(1.0,0.0,0.0));
#1054=AXIS2_PLACEMENT_3D('',#1051,#1052,#1053);
#1055=PLANE('',#1054);
#1056=ORIENTED_EDGE('',*,*,#947,.F.);
#1057=ORIENTED_EDGE('',*,*,#1038,.F.);
#1058=ORIENTED_EDGE('',*,*,#929,.F.);
#1059=ORIENTED_EDGE('',*,*,#1014,.F.);
#1060=ORIENTED_EDGE('',*,*,#985,.F.);
#1061=EDGE_LOOP('',(#1056,#1057,#1058,#1059,#1060));
#1062=FACE_OUTER_BOUND('',#1061,.T.);
#1063=ADVANCED_FACE('',(#1062),#1055,.F.);
#1064=CARTESIAN_POINT('',(3.716237223556800,-2.145570561393029,0.600000000000000));
#1065=DIRECTION('',(0.0,0.0,1.0));
#1066=DIRECTION('',(1.0,0.0,0.0));
#1067=AXIS2_PLACEMENT_3D('',#1064,#1065,#1066);
#1068=PLANE('',#1067);
#1069=ORIENTED_EDGE('',*,*,#914,.T.);
#1070=ORIENTED_EDGE('',*,*,#1046,.T.);
#1071=ORIENTED_EDGE('',*,*,#963,.T.);
#1072=ORIENTED_EDGE('',*,*,#999,.T.);
#1073=ORIENTED_EDGE('',*,*,#1021,.T.);
#1074=EDGE_LOOP('',(#1069,#1070,#1071,#1072,#1073));
#1075=FACE_OUTER_BOUND('',#1074,.T.);
#1076=ADVANCED_FACE('',(#1075),#1068,.T.);
#1077=CLOSED_SHELL('',(#933,#973,#1004,#1026,#1050,#1063,#1076));
#1078=MANIFOLD_SOLID_BREP('3B6',#1077);
#1079=STYLED_ITEM('NONE',(#201),#1078);
#1080=CARTESIAN_POINT('',(3.053113E-016,0.0,0.600000000000000));
#1081=DIRECTION('',(0.0,0.0,-1.0));
#1082=DIRECTION('',(0.0,1.0,0.0));
#1083=AXIS2_PLACEMENT_3D('',#1080,#1081,#1082);
#1084=CYLINDRICAL_SURFACE('',#1083,4.800000000000000);
#1085=CARTESIAN_POINT('',(-2.824997E-016,4.800000000000000,0.600000000000000));
#1086=VERTEX_POINT('',#1085);
#1087=CARTESIAN_POINT('',(-2.824997E-016,4.800000000000000,-3.200000000000000));
#1088=VERTEX_POINT('',#1087);
#1089=CARTESIAN_POINT('',(-2.824997E-016,4.800000000000000,0.600000000000000));
#1090=DIRECTION('',(0.0,0.0,-1.0));
#1091=VECTOR('',#1090,3.800000000000000);
#1092=LINE('',#1089,#1091);
#1093=EDGE_CURVE('',#1086,#1088,#1092,.T.);
#1094=ORIENTED_EDGE('',*,*,#1093,.F.);
#1095=CARTESIAN_POINT('',(0.500000000000000,4.773887304912004,0.600000000000000));
#1096=VERTEX_POINT('',#1095);
#1097=CARTESIAN_POINT('',(3.053113E-016,0.0,0.600000000000000));
#1098=DIRECTION('',(0.0,0.0,1.0));
#1099=DIRECTION('',(0.0,1.0,0.0));
#1100=AXIS2_PLACEMENT_3D('',#1097,#1098,#1099);
#1101=CIRCLE('',#1100,4.800000000000000);
#1102=EDGE_CURVE('',#1096,#1086,#1101,.T.);
#1103=ORIENTED_EDGE('',*,*,#1102,.F.);
#1104=CARTESIAN_POINT('',(0.500000000000000,4.773887304912004,-3.200000000000000));
#1105=VERTEX_POINT('',#1104);
#1106=CARTESIAN_POINT('',(0.500000000000000,4.773887304912004,0.600000000000000));
#1107=DIRECTION('',(0.0,0.0,-1.0));
#1108=VECTOR('',#1107,3.800000000000000);
#1109=LINE('',#1106,#1108);
#1110=EDGE_CURVE('',#1096,#1105,#1109,.T.);
#1111=ORIENTED_EDGE('',*,*,#1110,.T.);
#1112=CARTESIAN_POINT('',(3.053113E-016,0.0,-3.200000000000000));
#1113=DIRECTION('',(0.0,0.0,1.0));
#1114=DIRECTION('',(0.0,1.0,0.0));
#1115=AXIS2_PLACEMENT_3D('',#1112,#1113,#1114);
#1116=CIRCLE('',#1115,4.800000000000000);
#1117=EDGE_CURVE('',#1105,#1088,#1116,.T.);
#1118=ORIENTED_EDGE('',*,*,#1117,.T.);
#1119=EDGE_LOOP('',(#1094,#1103,#1111,#1118));
#1120=FACE_OUTER_BOUND('',#1119,.T.);
#1121=ADVANCED_FACE('',(#1120),#1084,.T.);
#1122=CARTESIAN_POINT('',(-0.500000000000000,4.773887304912004,0.600000000000000));
#1123=DIRECTION('',(-1.0,0.0,0.0));
#1124=DIRECTION('',(0.0,0.0,1.0));
#1125=AXIS2_PLACEMENT_3D('',#1122,#1123,#1124);
#1126=PLANE('',#1125);
#1127=CARTESIAN_POINT('',(-0.500000000000000,4.773887304912004,-3.200000000000000));
#1128=VERTEX_POINT('',#1127);
#1129=CARTESIAN_POINT('',(-0.499999999999999,3.800000000000001,-3.200000000000000));
#1130=VERTEX_POINT('',#1129);
#1131=CARTESIAN_POINT('',(-0.500000000000000,4.773887304912004,-3.200000000000000));
#1132=DIRECTION('',(0.0,-1.0,0.0));
#1133=VECTOR('',#1132,0.973887304912004);
#1134=LINE('',#1131,#1133);
#1135=EDGE_CURVE('',#1128,#1130,#1134,.T.);
#1136=ORIENTED_EDGE('',*,*,#1135,.T.);
#1137=CARTESIAN_POINT('',(-0.499999999999999,3.800000000000001,0.600000000000000));
#1138=VERTEX_POINT('',#1137);
#1139=CARTESIAN_POINT('',(-0.499999999999999,3.800000000000001,0.600000000000000));
#1140=DIRECTION('',(0.0,0.0,-1.0));
#1141=VECTOR('',#1140,3.800000000000000);
#1142=LINE('',#1139,#1141);
#1143=EDGE_CURVE('',#1138,#1130,#1142,.T.);
#1144=ORIENTED_EDGE('',*,*,#1143,.F.);
#1145=CARTESIAN_POINT('',(-0.500000000000000,4.773887304912004,0.600000000000000));
#1146=VERTEX_POINT('',#1145);
#1147=CARTESIAN_POINT('',(-0.500000000000000,4.773887304912004,0.600000000000000));
#1148=DIRECTION('',(0.0,-1.0,0.0));
#1149=VECTOR('',#1148,0.973887304912004);
#1150=LINE('',#1147,#1149);
#1151=EDGE_CURVE('',#1146,#1138,#1150,.T.);
#1152=ORIENTED_EDGE('',*,*,#1151,.F.);
#1153=CARTESIAN_POINT('',(-0.500000000000000,4.773887304912004,0.600000000000000));
#1154=DIRECTION('',(0.0,0.0,-1.0));
#1155=VECTOR('',#1154,3.800000000000000);
#1156=LINE('',#1153,#1155);
#1157=EDGE_CURVE('',#1146,#1128,#1156,.T.);
#1158=ORIENTED_EDGE('',*,*,#1157,.T.);
#1159=EDGE_LOOP('',(#1136,#1144,#1152,#1158));
#1160=FACE_OUTER_BOUND('',#1159,.T.);
#1161=ADVANCED_FACE('',(#1160),#1126,.T.);
#1162=CARTESIAN_POINT('',(-0.499999999999999,3.800000000000001,0.600000000000000));
#1163=DIRECTION('',(0.0,-1.0,0.0));
#1164=DIRECTION('',(0.0,0.0,-1.0));
#1165=AXIS2_PLACEMENT_3D('',#1162,#1163,#1164);
#1166=PLANE('',#1165);
#1167=CARTESIAN_POINT('',(0.500000000000001,3.800000000000001,-3.200000000000000));
#1168=VERTEX_POINT('',#1167);
#1169=CARTESIAN_POINT('',(-0.499999999999999,3.800000000000001,-3.200000000000000));
#1170=DIRECTION('',(1.0,0.0,0.0));
#1171=VECTOR('',#1170,1.0);
#1172=LINE('',#1169,#1171);
#1173=EDGE_CURVE('',#1130,#1168,#1172,.T.);
#1174=ORIENTED_EDGE('',*,*,#1173,.T.);
#1175=CARTESIAN_POINT('',(0.500000000000001,3.800000000000001,0.600000000000000));
#1176=VERTEX_POINT('',#1175);
#1177=CARTESIAN_POINT('',(0.500000000000001,3.800000000000001,0.600000000000000));
#1178=DIRECTION('',(0.0,0.0,-1.0));
#1179=VECTOR('',#1178,3.800000000000000);
#1180=LINE('',#1177,#1179);
#1181=EDGE_CURVE('',#1176,#1168,#1180,.T.);
#1182=ORIENTED_EDGE('',*,*,#1181,.F.);
#1183=CARTESIAN_POINT('',(-0.499999999999999,3.800000000000001,0.600000000000000));
#1184=DIRECTION('',(1.0,0.0,0.0));
#1185=VECTOR('',#1184,1.0);
#1186=LINE('',#1183,#1185);
#1187=EDGE_CURVE('',#1138,#1176,#1186,.T.);
#1188=ORIENTED_EDGE('',*,*,#1187,.F.);
#1189=ORIENTED_EDGE('',*,*,#1143,.T.);
#1190=EDGE_LOOP('',(#1174,#1182,#1188,#1189));
#1191=FACE_OUTER_BOUND('',#1190,.T.);
#1192=ADVANCED_FACE('',(#1191),#1166,.T.);
#1193=CARTESIAN_POINT('',(0.500000000000001,3.800000000000001,0.600000000000000));
#1194=DIRECTION('',(1.0,0.0,0.0));
#1195=DIRECTION('',(0.0,0.0,-1.0));
#1196=AXIS2_PLACEMENT_3D('',#1193,#1194,#1195);
#1197=PLANE('',#1196);
#1198=CARTESIAN_POINT('',(0.500000000000001,3.800000000000001,-3.200000000000000));
#1199=DIRECTION('',(0.0,1.0,0.0));
#1200=VECTOR('',#1199,0.973887304912004);
#1201=LINE('',#1198,#1200);
#1202=EDGE_CURVE('',#1168,#1105,#1201,.T.);
#1203=ORIENTED_EDGE('',*,*,#1202,.T.);
#1204=ORIENTED_EDGE('',*,*,#1110,.F.);
#1205=CARTESIAN_POINT('',(0.500000000000001,3.800000000000001,0.600000000000000));
#1206=DIRECTION('',(0.0,1.0,0.0));
#1207=VECTOR('',#1206,0.973887304912004);
#1208=LINE('',#1205,#1207);
#1209=EDGE_CURVE('',#1176,#1096,#1208,.T.);
#1210=ORIENTED_EDGE('',*,*,#1209,.F.);
#1211=ORIENTED_EDGE('',*,*,#1181,.T.);
#1212=EDGE_LOOP('',(#1203,#1204,#1210,#1211));
#1213=FACE_OUTER_BOUND('',#1212,.T.);
#1214=ADVANCED_FACE('',(#1213),#1197,.T.);
#1215=CARTESIAN_POINT('',(3.053113E-016,0.0,0.600000000000000));
#1216=DIRECTION('',(0.0,0.0,-1.0));
#1217=DIRECTION('',(0.0,1.0,0.0));
#1218=AXIS2_PLACEMENT_3D('',#1215,#1216,#1217);
#1219=CYLINDRICAL_SURFACE('',#1218,4.800000000000000);
#1220=ORIENTED_EDGE('',*,*,#1093,.T.);
#1221=CARTESIAN_POINT('',(3.053113E-016,0.0,-3.200000000000000));
#1222=DIRECTION('',(0.0,0.0,1.0));
#1223=DIRECTION('',(0.0,1.0,0.0));
#1224=AXIS2_PLACEMENT_3D('',#1221,#1222,#1223);
#1225=CIRCLE('',#1224,4.800000000000000);
#1226=EDGE_CURVE('',#1088,#1128,#1225,.T.);
#1227=ORIENTED_EDGE('',*,*,#1226,.T.);
#1228=ORIENTED_EDGE('',*,*,#1157,.F.);
#1229=CARTESIAN_POINT('',(3.053113E-016,0.0,0.600000000000000));
#1230=DIRECTION('',(0.0,0.0,1.0));
#1231=DIRECTION('',(0.0,1.0,0.0));
#1232=AXIS2_PLACEMENT_3D('',#1229,#1230,#1231);
#1233=CIRCLE('',#1232,4.800000000000000);
#1234=EDGE_CURVE('',#1086,#1146,#1233,.T.);
#1235=ORIENTED_EDGE('',*,*,#1234,.F.);
#1236=EDGE_LOOP('',(#1220,#1227,#1228,#1235));
#1237=FACE_OUTER_BOUND('',#1236,.T.);
#1238=ADVANCED_FACE('',(#1237),#1219,.T.);
#1239=CARTESIAN_POINT('',(5.967449E-016,4.291141122786053,-3.200000000000000));
#1240=DIRECTION('',(0.0,0.0,1.0));
#1241=DIRECTION('',(1.0,0.0,0.0));
#1242=AXIS2_PLACEMENT_3D('',#1239,#1240,#1241);
#1243=PLANE('',#1242);
#1244=ORIENTED_EDGE('',*,*,#1135,.F.);
#1245=ORIENTED_EDGE('',*,*,#1226,.F.);
#1246=ORIENTED_EDGE('',*,*,#1117,.F.);
#1247=ORIENTED_EDGE('',*,*,#1202,.F.);
#1248=ORIENTED_EDGE('',*,*,#1173,.F.);
#1249=EDGE_LOOP('',(#1244,#1245,#1246,#1247,#1248));
#1250=FACE_OUTER_BOUND('',#1249,.T.);
#1251=ADVANCED_FACE('',(#1250),#1243,.F.);
#1252=CARTESIAN_POINT('',(5.967449E-016,4.291141122786053,0.600000000000000));
#1253=DIRECTION('',(0.0,0.0,1.0));
#1254=DIRECTION('',(1.0,0.0,0.0));
#1255=AXIS2_PLACEMENT_3D('',#1252,#1253,#1254);
#1256=PLANE('',#1255);
#1257=ORIENTED_EDGE('',*,*,#1102,.T.);
#1258=ORIENTED_EDGE('',*,*,#1234,.T.);
#1259=ORIENTED_EDGE('',*,*,#1151,.T.);
#1260=ORIENTED_EDGE('',*,*,#1187,.T.);
#1261=ORIENTED_EDGE('',*,*,#1209,.T.);
#1262=EDGE_LOOP('',(#1257,#1258,#1259,#1260,#1261));
#1263=FACE_OUTER_BOUND('',#1262,.T.);
#1264=ADVANCED_FACE('',(#1263),#1256,.T.);
#1265=CLOSED_SHELL('',(#1121,#1161,#1192,#1214,#1238,#1251,#1264));
#1266=MANIFOLD_SOLID_BREP('3B5',#1265);
#1267=STYLED_ITEM('NONE',(#201),#1266);
#1268=CARTESIAN_POINT('',(-8.881784E-016,0.0,0.600000000000000));
#1269=DIRECTION('',(0.0,0.0,-1.0));
#1270=DIRECTION('',(-0.866025403784439,-0.500000000000000,0.0));
#1271=AXIS2_PLACEMENT_3D('',#1268,#1269,#1270);
#1272=CYLINDRICAL_SURFACE('',#1271,4.799999999999998);
#1273=CARTESIAN_POINT('',(-4.156921938165304,-2.400000000000000,0.600000000000000));
#1274=VERTEX_POINT('',#1273);
#1275=CARTESIAN_POINT('',(-4.156921938165304,-2.400000000000000,-3.200000000000000));
#1276=VERTEX_POINT('',#1275);
#1277=CARTESIAN_POINT('',(-4.156921938165304,-2.400000000000000,0.600000000000000));
#1278=DIRECTION('',(0.0,0.0,-1.0));
#1279=VECTOR('',#1278,3.800000000000000);
#1280=LINE('',#1277,#1279);
#1281=EDGE_CURVE('',#1274,#1276,#1280,.T.);
#1282=ORIENTED_EDGE('',*,*,#1281,.F.);
#1283=CARTESIAN_POINT('',(-4.384307680857824,-1.953930950563782,0.600000000000000));
#1284=VERTEX_POINT('',#1283);
#1285=CARTESIAN_POINT('',(-8.881784E-016,0.0,0.600000000000000));
#1286=DIRECTION('',(0.0,0.0,1.0));
#1287=DIRECTION('',(-0.866025403784439,-0.500000000000000,0.0));
#1288=AXIS2_PLACEMENT_3D('',#1285,#1286,#1287);
#1289=CIRCLE('',#1288,4.799999999999998);
#1290=EDGE_CURVE('',#1284,#1274,#1289,.T.);
#1291=ORIENTED_EDGE('',*,*,#1290,.F.);
#1292=CARTESIAN_POINT('',(-4.384307680857824,-1.953930950563782,-3.200000000000000));
#1293=VERTEX_POINT('',#1292);
#1294=CARTESIAN_POINT('',(-4.384307680857824,-1.953930950563782,0.600000000000000));
#1295=DIRECTION('',(0.0,0.0,-1.0));
#1296=VECTOR('',#1295,3.800000000000000);
#1297=LINE('',#1294,#1296);
#1298=EDGE_CURVE('',#1284,#1293,#1297,.T.);
#1299=ORIENTED_EDGE('',*,*,#1298,.T.);
#1300=CARTESIAN_POINT('',(-8.881784E-016,0.0,-3.200000000000000));
#1301=DIRECTION('',(0.0,0.0,1.0));
#1302=DIRECTION('',(-0.866025403784439,-0.500000000000000,0.0));
#1303=AXIS2_PLACEMENT_3D('',#1300,#1301,#1302);
#1304=CIRCLE('',#1303,4.799999999999998);
#1305=EDGE_CURVE('',#1293,#1276,#1304,.T.);
#1306=ORIENTED_EDGE('',*,*,#1305,.T.);
#1307=EDGE_LOOP('',(#1282,#1291,#1299,#1306));
#1308=FACE_OUTER_BOUND('',#1307,.T.);
#1309=ADVANCED_FACE('',(#1308),#1272,.T.);
#1310=CARTESIAN_POINT('',(-3.884307680857825,-2.819956354348220,0.600000000000000));
#1311=DIRECTION('',(0.500000000000000,-0.866025403784439,0.0));
#1312=DIRECTION('',(0.0,0.0,-1.0));
#1313=AXIS2_PLACEMENT_3D('',#1310,#1311,#1312);
#1314=PLANE('',#1313);
#1315=CARTESIAN_POINT('',(-3.884307680857825,-2.819956354348220,-3.200000000000000));
#1316=VERTEX_POINT('',#1315);
#1317=CARTESIAN_POINT('',(-3.040896534380868,-2.333012701892218,-3.200000000000000));
#1318=VERTEX_POINT('',#1317);
#1319=CARTESIAN_POINT('',(-3.884307680857825,-2.819956354348220,-3.200000000000000));
#1320=DIRECTION('',(0.866025403784439,0.500000000000000,0.0));
#1321=VECTOR('',#1320,0.973887304912003);
#1322=LINE('',#1319,#1321);
#1323=EDGE_CURVE('',#1316,#1318,#1322,.T.);
#1324=ORIENTED_EDGE('',*,*,#1323,.T.);
#1325=CARTESIAN_POINT('',(-3.040896534380868,-2.333012701892218,0.600000000000000));
#1326=VERTEX_POINT('',#1325);
#1327=CARTESIAN_POINT('',(-3.040896534380868,-2.333012701892218,0.600000000000000));
#1328=DIRECTION('',(0.0,0.0,-1.0));
#1329=VECTOR('',#1328,3.800000000000000);
#1330=LINE('',#1327,#1329);
#1331=EDGE_CURVE('',#1326,#1318,#1330,.T.);
#1332=ORIENTED_EDGE('',*,*,#1331,.F.);
#1333=CARTESIAN_POINT('',(-3.884307680857825,-2.819956354348220,0.600000000000000));
#1334=VERTEX_POINT('',#1333);
#1335=CARTESIAN_POINT('',(-3.884307680857825,-2.819956354348220,0.600000000000000));
#1336=DIRECTION('',(0.866025403784439,0.500000000000000,0.0));
#1337=VECTOR('',#1336,0.973887304912003);
#1338=LINE('',#1335,#1337);
#1339=EDGE_CURVE('',#1334,#1326,#1338,.T.);
#1340=ORIENTED_EDGE('',*,*,#1339,.F.);
#1341=CARTESIAN_POINT('',(-3.884307680857825,-2.819956354348220,0.600000000000000));
#1342=DIRECTION('',(0.0,0.0,-1.0));
#1343=VECTOR('',#1342,3.800000000000000);
#1344=LINE('',#1341,#1343);
#1345=EDGE_CURVE('',#1334,#1316,#1344,.T.);
#1346=ORIENTED_EDGE('',*,*,#1345,.T.);
#1347=EDGE_LOOP('',(#1324,#1332,#1340,#1346));
#1348=FACE_OUTER_BOUND('',#1347,.T.);
#1349=ADVANCED_FACE('',(#1348),#1314,.T.);
#1350=CARTESIAN_POINT('',(-3.040896534380868,-2.333012701892218,0.600000000000000));
#1351=DIRECTION('',(0.866025403784439,0.500000000000000,0.0));
#1352=DIRECTION('',(0.0,0.0,-1.0));
#1353=AXIS2_PLACEMENT_3D('',#1350,#1351,#1352);
#1354=PLANE('',#1353);
#1355=CARTESIAN_POINT('',(-3.540896534380868,-1.466987298107779,-3.200000000000000));
#1356=VERTEX_POINT('',#1355);
#1357=CARTESIAN_POINT('',(-3.040896534380868,-2.333012701892218,-3.200000000000000));
#1358=DIRECTION('',(-0.500000000000000,0.866025403784439,0.0));
#1359=VECTOR('',#1358,1.000000000000000);
#1360=LINE('',#1357,#1359);
#1361=EDGE_CURVE('',#1318,#1356,#1360,.T.);
#1362=ORIENTED_EDGE('',*,*,#1361,.T.);
#1363=CARTESIAN_POINT('',(-3.540896534380868,-1.466987298107779,0.600000000000000));
#1364=VERTEX_POINT('',#1363);
#1365=CARTESIAN_POINT('',(-3.540896534380868,-1.466987298107779,0.600000000000000));
#1366=DIRECTION('',(0.0,0.0,-1.0));
#1367=VECTOR('',#1366,3.800000000000000);
#1368=LINE('',#1365,#1367);
#1369=EDGE_CURVE('',#1364,#1356,#1368,.T.);
#1370=ORIENTED_EDGE('',*,*,#1369,.F.);
#1371=CARTESIAN_POINT('',(-3.040896534380868,-2.333012701892218,0.600000000000000));
#1372=DIRECTION('',(-0.500000000000000,0.866025403784439,0.0));
#1373=VECTOR('',#1372,1.000000000000000);
#1374=LINE('',#1371,#1373);
#1375=EDGE_CURVE('',#1326,#1364,#1374,.T.);
#1376=ORIENTED_EDGE('',*,*,#1375,.F.);
#1377=ORIENTED_EDGE('',*,*,#1331,.T.);
#1378=EDGE_LOOP('',(#1362,#1370,#1376,#1377));
#1379=FACE_OUTER_BOUND('',#1378,.T.);
#1380=ADVANCED_FACE('',(#1379),#1354,.T.);
#1381=CARTESIAN_POINT('',(-3.540896534380868,-1.466987298107779,0.600000000000000));
#1382=DIRECTION('',(-0.500000000000001,0.866025403784438,0.0));
#1383=DIRECTION('',(0.0,0.0,1.0));
#1384=AXIS2_PLACEMENT_3D('',#1381,#1382,#1383);
#1385=PLANE('',#1384);
#1386=CARTESIAN_POINT('',(-3.540896534380868,-1.466987298107779,-3.200000000000000));
#1387=DIRECTION('',(-0.866025403784438,-0.500000000000001,0.0));
#1388=VECTOR('',#1387,0.973887304912003);
#1389=LINE('',#1386,#1388);
#1390=EDGE_CURVE('',#1356,#1293,#1389,.T.);
#1391=ORIENTED_EDGE('',*,*,#1390,.T.);
#1392=ORIENTED_EDGE('',*,*,#1298,.F.);
#1393=CARTESIAN_POINT('',(-3.540896534380868,-1.466987298107779,0.600000000000000));
#1394=DIRECTION('',(-0.866025403784438,-0.500000000000001,0.0));
#1395=VECTOR('',#1394,0.973887304912003);
#1396=LINE('',#1393,#1395);
#1397=EDGE_CURVE('',#1364,#1284,#1396,.T.);
#1398=ORIENTED_EDGE('',*,*,#1397,.F.);
#1399=ORIENTED_EDGE('',*,*,#1369,.T.);
#1400=EDGE_LOOP('',(#1391,#1392,#1398,#1399));
#1401=FACE_OUTER_BOUND('',#1400,.T.);
#1402=ADVANCED_FACE('',(#1401),#1385,.T.);
#1403=CARTESIAN_POINT('',(-8.881784E-016,0.0,0.600000000000000));
#1404=DIRECTION('',(0.0,0.0,-1.0));
#1405=DIRECTION('',(-0.866025403784439,-0.500000000000000,0.0));
#1406=AXIS2_PLACEMENT_3D('',#1403,#1404,#1405);
#1407=CYLINDRICAL_SURFACE('',#1406,4.799999999999998);
#1408=ORIENTED_EDGE('',*,*,#1281,.T.);
#1409=CARTESIAN_POINT('',(-8.881784E-016,0.0,-3.200000000000000));
#1410=DIRECTION('',(0.0,0.0,1.0));
#1411=DIRECTION('',(-0.866025403784439,-0.500000000000000,0.0));
#1412=AXIS2_PLACEMENT_3D('',#1409,#1410,#1411);
#1413=CIRCLE('',#1412,4.799999999999998);
#1414=EDGE_CURVE('',#1276,#1316,#1413,.T.);
#1415=ORIENTED_EDGE('',*,*,#1414,.T.);
#1416=ORIENTED_EDGE('',*,*,#1345,.F.);
#1417=CARTESIAN_POINT('',(-8.881784E-016,0.0,0.600000000000000));
#1418=DIRECTION('',(0.0,0.0,1.0));
#1419=DIRECTION('',(-0.866025403784439,-0.500000000000000,0.0));
#1420=AXIS2_PLACEMENT_3D('',#1417,#1418,#1419);
#1421=CIRCLE('',#1420,4.799999999999998);
#1422=EDGE_CURVE('',#1274,#1334,#1421,.T.);
#1423=ORIENTED_EDGE('',*,*,#1422,.F.);
#1424=EDGE_LOOP('',(#1408,#1415,#1416,#1423));
#1425=FACE_OUTER_BOUND('',#1424,.T.);
#1426=ADVANCED_FACE('',(#1425),#1407,.T.);
#1427=CARTESIAN_POINT('',(-3.716237223556802,-2.145570561393025,-3.200000000000000));
#1428=DIRECTION('',(0.0,0.0,1.0));
#1429=DIRECTION('',(1.0,0.0,0.0));
#1430=AXIS2_PLACEMENT_3D('',#1427,#1428,#1429);
#1431=PLANE('',#1430);
#1432=ORIENTED_EDGE('',*,*,#1323,.F.);
#1433=ORIENTED_EDGE('',*,*,#1414,.F.);
#1434=ORIENTED_EDGE('',*,*,#1305,.F.);
#1435=ORIENTED_EDGE('',*,*,#1390,.F.);
#1436=ORIENTED_EDGE('',*,*,#1361,.F.);
#1437=EDGE_LOOP('',(#1432,#1433,#1434,#1435,#1436));
#1438=FACE_OUTER_BOUND('',#1437,.T.);
#1439=ADVANCED_FACE('',(#1438),#1431,.F.);
#1440=CARTESIAN_POINT('',(-3.716237223556802,-2.145570561393025,0.600000000000000));
#1441=DIRECTION('',(0.0,0.0,1.0));
#1442=DIRECTION('',(1.0,0.0,0.0));
#1443=AXIS2_PLACEMENT_3D('',#1440,#1441,#1442);
#1444=PLANE('',#1443);
#1445=ORIENTED_EDGE('',*,*,#1290,.T.);
#1446=ORIENTED_EDGE('',*,*,#1422,.T.);
#1447=ORIENTED_EDGE('',*,*,#1339,.T.);
#1448=ORIENTED_EDGE('',*,*,#1375,.T.);
#1449=ORIENTED_EDGE('',*,*,#1397,.T.);
#1450=EDGE_LOOP('',(#1445,#1446,#1447,#1448,#1449));
#1451=FACE_OUTER_BOUND('',#1450,.T.);
#1452=ADVANCED_FACE('',(#1451),#1444,.T.);
#1453=CLOSED_SHELL('',(#1309,#1349,#1380,#1402,#1426,#1439,#1452));
#1454=MANIFOLD_SOLID_BREP('3B4',#1453);
#1455=STYLED_ITEM('NONE',(#201),#1454);
#1456=ADVANCED_BREP_SHAPE_REPRESENTATION('ABSR1',(#194,#292,#381,#544,#714,#890,#1078,#1266,#1454),#28);
#1457=SHAPE_REPRESENTATION_RELATIONSHIP('SRRPL1','',#1456,#62);
ENDSEC;
END-ISO-10303-21;
