ISO-10303-21;
HEADER;
/****************************************************************
 * Generated by software with PDElib inside                    *
 * PDElib Version v51a, created Wed 11/30/2011                  *
 * ITI Transcendata (http://www.transcendata.com/)              *
 ****************************************************************/
FILE_DESCRIPTION((''),'2;1');
FILE_NAME('ANALOG-DEVICES_CC-14-1.stp','2014-06-03T15:59:32',(''),(''),'Mechanical Desktop 2011','Mechanical Desktop 2011',', , ');
FILE_SCHEMA(('AUTOMOTIVE_DESIGN { 1 2 10303 214 1 1 1 1 }'));
ENDSEC;
DATA;
#10=(NAMED_UNIT(*)PLANE_ANGLE_UNIT()SI_UNIT($,.RADIAN.));
#11=DIMENSIONAL_EXPONENTS(0.0,0.0,0.0,0.0,0.0,0.0,0.0);
#12=PLANE_ANGLE_MEASURE_WITH_UNIT(PLANE_ANGLE_MEASURE(0.0174532925),#10);
#16=(CONVERSION_BASED_UNIT('DEGREE',#12)NAMED_UNIT(#11)PLANE_ANGLE_UNIT());
#20=(NAMED_UNIT(*)SI_UNIT($,.STERADIAN.)SOLID_ANGLE_UNIT());
#24=(LENGTH_UNIT()NAMED_UNIT(*)SI_UNIT(.MILLI.,.METRE.));
#26=UNCERTAINTY_MEASURE_WITH_UNIT(LENGTH_MEASURE(0.000001),#24,'DISTANCE_ACCURACY_VALUE','');
#28=(GEOMETRIC_REPRESENTATION_CONTEXT(3)GLOBAL_UNCERTAINTY_ASSIGNED_CONTEXT((#26))GLOBAL_UNIT_ASSIGNED_CONTEXT((#16,#20,#24))REPRESENTATION_CONTEXT('','3D'));
#29=APPLICATION_CONTEXT('automotive design');
#30=APPLICATION_PROTOCOL_DEFINITION('INTERNATIONAL_STANDARD','automotive_design',1998,#29);
#31=PRODUCT_CONTEXT('3D Mechanical Parts',#29,'mechanical');
#32=PRODUCT('Product','Product','',(#31));
#33=PRODUCT_RELATED_PRODUCT_CATEGORY('part',$,(#32));
#34=PRODUCT_CATEGORY('part',$);
#35=PERSON('1','Design','Joe',$,$,$);
#36=ORGANIZATION($,'None','None');
#37=PERSON_AND_ORGANIZATION(#35,#36);
#38=PERSON_AND_ORGANIZATION_ROLE('design_owner');
#39=APPLIED_PERSON_AND_ORGANIZATION_ASSIGNMENT(#37,#38,(#32));
#40=PRODUCT_DEFINITION_FORMATION_WITH_SPECIFIED_SOURCE('None','',#32,.BOUGHT.);
#41=PERSON('2','Creator','Joe',$,$,$);
#42=ORGANIZATION($,'None','None');
#43=PERSON_AND_ORGANIZATION(#41,#42);
#44=PERSON_AND_ORGANIZATION_ROLE('creator');
#45=APPLIED_PERSON_AND_ORGANIZATION_ASSIGNMENT(#43,#44,(#40));
#46=PERSON('3','Supplier','Joe',$,$,$);
#47=ORGANIZATION($,'None','None');
#48=PERSON_AND_ORGANIZATION(#46,#47);
#49=PERSON_AND_ORGANIZATION_ROLE('design_supplier');
#50=APPLIED_PERSON_AND_ORGANIZATION_ASSIGNMENT(#48,#49,(#40));
#51=PRODUCT_DEFINITION_CONTEXT('part definition',#29,'design');
#52=PRODUCT_DEFINITION('None','',#40,#51);
#53=PERSON('4','Creator','Joe',$,$,$);
#54=ORGANIZATION($,'None','None');
#55=PERSON_AND_ORGANIZATION(#53,#54);
#56=PERSON_AND_ORGANIZATION_ROLE('creator');
#57=APPLIED_PERSON_AND_ORGANIZATION_ASSIGNMENT(#55,#56,(#52));
#58=CARTESIAN_POINT('NONE',(0.0,0.0,0.0));
#59=DIRECTION('NONE',(0.0,0.0,1.0));
#60=DIRECTION('NONE',(1.0,0.0,0.0));
#61=AXIS2_PLACEMENT_3D('NONE',#58,#59,#60);
#62=SHAPE_REPRESENTATION('SR1',(#61),#28);
#63=PRODUCT_DEFINITION_SHAPE('PDS1','Test Part',#52);
#64=SHAPE_DEFINITION_REPRESENTATION(#63,#62);
#65=CARTESIAN_POINT('',(-0.7035,2.15,0.0));
#66=DIRECTION('',(0.707106781186548,0.707106781186547,0.0));
#67=DIRECTION('',(0.0,0.0,-1.0));
#68=AXIS2_PLACEMENT_3D('',#65,#66,#67);
#69=PLANE('',#68);
#70=CARTESIAN_POINT('',(-0.8035,2.25,0.02));
#71=VERTEX_POINT('',#70);
#72=CARTESIAN_POINT('',(-0.6035,2.05,0.02));
#73=VERTEX_POINT('',#72);
#74=CARTESIAN_POINT('',(-0.8035,2.25,0.02));
#75=DIRECTION('',(0.707106781186547,-0.707106781186548,0.0));
#76=VECTOR('',#75,0.282842712474619);
#77=LINE('',#74,#76);
#78=EDGE_CURVE('',#71,#73,#77,.T.);
#79=ORIENTED_EDGE('',*,*,#78,.T.);
#80=CARTESIAN_POINT('',(-0.6035,2.05,0.0));
#81=VERTEX_POINT('',#80);
#82=CARTESIAN_POINT('',(-0.6035,2.05,0.02));
#83=DIRECTION('',(0.0,0.0,-1.0));
#84=VECTOR('',#83,0.02);
#85=LINE('',#82,#84);
#86=EDGE_CURVE('',#73,#81,#85,.T.);
#87=ORIENTED_EDGE('',*,*,#86,.T.);
#88=CARTESIAN_POINT('',(-0.8035,2.25,0.0));
#89=VERTEX_POINT('',#88);
#90=CARTESIAN_POINT('',(-0.6035,2.05,0.0));
#91=DIRECTION('',(-0.707106781186547,0.707106781186548,0.0));
#92=VECTOR('',#91,0.282842712474619);
#93=LINE('',#90,#92);
#94=EDGE_CURVE('',#81,#89,#93,.T.);
#95=ORIENTED_EDGE('',*,*,#94,.T.);
#96=CARTESIAN_POINT('',(-0.8035,2.25,0.0));
#97=DIRECTION('',(0.0,0.0,1.0));
#98=VECTOR('',#97,0.02);
#99=LINE('',#96,#98);
#100=EDGE_CURVE('',#89,#71,#99,.T.);
#101=ORIENTED_EDGE('',*,*,#100,.T.);
#102=EDGE_LOOP('',(#79,#87,#95,#101));
#103=FACE_OUTER_BOUND('',#102,.T.);
#104=ADVANCED_FACE('',(#103),#69,.T.);
#105=CARTESIAN_POINT('',(-1.01,2.0,0.0));
#106=DIRECTION('',(0.0,0.0,1.0));
#107=DIRECTION('',(1.0,0.0,0.0));
#108=AXIS2_PLACEMENT_3D('',#105,#106,#107);
#109=PLANE('',#108);
#110=ORIENTED_EDGE('',*,*,#94,.F.);
#111=CARTESIAN_POINT('',(-0.6035,1.75,0.0));
#112=VERTEX_POINT('',#111);
#113=CARTESIAN_POINT('',(-0.6035,1.75,0.0));
#114=DIRECTION('',(0.0,1.0,0.0));
#115=VECTOR('',#114,0.3);
#116=LINE('',#113,#115);
#117=EDGE_CURVE('',#112,#81,#116,.T.);
#118=ORIENTED_EDGE('',*,*,#117,.F.);
#119=CARTESIAN_POINT('',(-1.4165,1.75,0.0));
#120=VERTEX_POINT('',#119);
#121=CARTESIAN_POINT('',(-1.4165,1.75,0.0));
#122=DIRECTION('',(1.0,0.0,0.0));
#123=VECTOR('',#122,0.813);
#124=LINE('',#121,#123);
#125=EDGE_CURVE('',#120,#112,#124,.T.);
#126=ORIENTED_EDGE('',*,*,#125,.F.);
#127=CARTESIAN_POINT('',(-1.4165,2.25,0.0));
#128=VERTEX_POINT('',#127);
#129=CARTESIAN_POINT('',(-1.4165,2.25,0.0));
#130=DIRECTION('',(0.0,-1.0,0.0));
#131=VECTOR('',#130,0.5);
#132=LINE('',#129,#131);
#133=EDGE_CURVE('',#128,#120,#132,.T.);
#134=ORIENTED_EDGE('',*,*,#133,.F.);
#135=CARTESIAN_POINT('',(-0.8035,2.25,0.0));
#136=DIRECTION('',(-1.0,0.0,0.0));
#137=VECTOR('',#136,0.613);
#138=LINE('',#135,#137);
#139=EDGE_CURVE('',#89,#128,#138,.T.);
#140=ORIENTED_EDGE('',*,*,#139,.F.);
#141=EDGE_LOOP('',(#110,#118,#126,#134,#140));
#142=FACE_OUTER_BOUND('',#141,.T.);
#143=ADVANCED_FACE('',(#142),#109,.F.);
#144=CARTESIAN_POINT('',(-0.6035,2.25,0.0));
#145=DIRECTION('',(1.0,0.0,0.0));
#146=DIRECTION('',(0.0,0.0,-1.0));
#147=AXIS2_PLACEMENT_3D('',#144,#145,#146);
#148=PLANE('',#147);
#149=ORIENTED_EDGE('',*,*,#86,.F.);
#150=CARTESIAN_POINT('',(-0.6035,1.75,0.02));
#151=VERTEX_POINT('',#150);
#152=CARTESIAN_POINT('',(-0.6035,2.05,0.02));
#153=DIRECTION('',(0.0,-1.0,0.0));
#154=VECTOR('',#153,0.3);
#155=LINE('',#152,#154);
#156=EDGE_CURVE('',#73,#151,#155,.T.);
#157=ORIENTED_EDGE('',*,*,#156,.T.);
#158=CARTESIAN_POINT('',(-0.6035,1.75,0.0));
#159=DIRECTION('',(0.0,0.0,1.0));
#160=VECTOR('',#159,0.02);
#161=LINE('',#158,#160);
#162=EDGE_CURVE('',#112,#151,#161,.T.);
#163=ORIENTED_EDGE('',*,*,#162,.F.);
#164=ORIENTED_EDGE('',*,*,#117,.T.);
#165=EDGE_LOOP('',(#149,#157,#163,#164));
#166=FACE_OUTER_BOUND('',#165,.T.);
#167=ADVANCED_FACE('',(#166),#148,.T.);
#168=CARTESIAN_POINT('',(-1.4165,2.25,0.0));
#169=DIRECTION('',(0.0,1.0,0.0));
#170=DIRECTION('',(0.0,0.0,1.0));
#171=AXIS2_PLACEMENT_3D('',#168,#169,#170);
#172=PLANE('',#171);
#173=ORIENTED_EDGE('',*,*,#100,.F.);
#174=ORIENTED_EDGE('',*,*,#139,.T.);
#175=CARTESIAN_POINT('',(-1.4165,2.25,0.02));
#176=VERTEX_POINT('',#175);
#177=CARTESIAN_POINT('',(-1.4165,2.25,0.0));
#178=DIRECTION('',(0.0,0.0,1.0));
#179=VECTOR('',#178,0.02);
#180=LINE('',#177,#179);
#181=EDGE_CURVE('',#128,#176,#180,.T.);
#182=ORIENTED_EDGE('',*,*,#181,.T.);
#183=CARTESIAN_POINT('',(-1.4165,2.25,0.02));
#184=DIRECTION('',(1.0,0.0,0.0));
#185=VECTOR('',#184,0.613);
#186=LINE('',#183,#185);
#187=EDGE_CURVE('',#176,#71,#186,.T.);
#188=ORIENTED_EDGE('',*,*,#187,.T.);
#189=EDGE_LOOP('',(#173,#174,#182,#188));
#190=FACE_OUTER_BOUND('',#189,.T.);
#191=ADVANCED_FACE('',(#190),#172,.T.);
#192=CARTESIAN_POINT('',(-0.6035,1.75,0.0));
#193=DIRECTION('',(0.0,-1.0,0.0));
#194=DIRECTION('',(0.0,0.0,-1.0));
#195=AXIS2_PLACEMENT_3D('',#192,#193,#194);
#196=PLANE('',#195);
#197=CARTESIAN_POINT('',(-1.4165,1.75,0.02));
#198=VERTEX_POINT('',#197);
#199=CARTESIAN_POINT('',(-0.6035,1.75,0.02));
#200=DIRECTION('',(-1.0,0.0,0.0));
#201=VECTOR('',#200,0.813);
#202=LINE('',#199,#201);
#203=EDGE_CURVE('',#151,#198,#202,.T.);
#204=ORIENTED_EDGE('',*,*,#203,.T.);
#205=CARTESIAN_POINT('',(-1.4165,1.75,0.0));
#206=DIRECTION('',(0.0,0.0,1.0));
#207=VECTOR('',#206,0.02);
#208=LINE('',#205,#207);
#209=EDGE_CURVE('',#120,#198,#208,.T.);
#210=ORIENTED_EDGE('',*,*,#209,.F.);
#211=ORIENTED_EDGE('',*,*,#125,.T.);
#212=ORIENTED_EDGE('',*,*,#162,.T.);
#213=EDGE_LOOP('',(#204,#210,#211,#212));
#214=FACE_OUTER_BOUND('',#213,.T.);
#215=ADVANCED_FACE('',(#214),#196,.T.);
#216=CARTESIAN_POINT('',(-1.4165,1.75,0.0));
#217=DIRECTION('',(-1.0,0.0,0.0));
#218=DIRECTION('',(0.0,0.0,1.0));
#219=AXIS2_PLACEMENT_3D('',#216,#217,#218);
#220=PLANE('',#219);
#221=CARTESIAN_POINT('',(-1.4165,1.75,0.02));
#222=DIRECTION('',(0.0,1.0,0.0));
#223=VECTOR('',#222,0.5);
#224=LINE('',#221,#223);
#225=EDGE_CURVE('',#198,#176,#224,.T.);
#226=ORIENTED_EDGE('',*,*,#225,.T.);
#227=ORIENTED_EDGE('',*,*,#181,.F.);
#228=ORIENTED_EDGE('',*,*,#133,.T.);
#229=ORIENTED_EDGE('',*,*,#209,.T.);
#230=EDGE_LOOP('',(#226,#227,#228,#229));
#231=FACE_OUTER_BOUND('',#230,.T.);
#232=ADVANCED_FACE('',(#231),#220,.T.);
#233=CARTESIAN_POINT('',(-1.01,2.0,0.02));
#234=DIRECTION('',(0.0,0.0,1.0));
#235=DIRECTION('',(1.0,0.0,0.0));
#236=AXIS2_PLACEMENT_3D('',#233,#234,#235);
#237=PLANE('',#236);
#238=ORIENTED_EDGE('',*,*,#78,.F.);
#239=ORIENTED_EDGE('',*,*,#187,.F.);
#240=ORIENTED_EDGE('',*,*,#225,.F.);
#241=ORIENTED_EDGE('',*,*,#203,.F.);
#242=ORIENTED_EDGE('',*,*,#156,.F.);
#243=EDGE_LOOP('',(#238,#239,#240,#241,#242));
#244=FACE_OUTER_BOUND('',#243,.T.);
#245=ADVANCED_FACE('',(#244),#237,.T.);
#246=CLOSED_SHELL('',(#104,#143,#167,#191,#215,#232,#245));
#247=MANIFOLD_SOLID_BREP('2C6B',#246);
#248=COLOUR_RGB('40',1.0,0.75,0.0);
#249=SURFACE_STYLE_USAGE(.BOTH.,#250);
#250=SURFACE_SIDE_STYLE('NONE',(#251));
#251=SURFACE_STYLE_FILL_AREA(#252);
#252=FILL_AREA_STYLE('NONE',(#253));
#253=FILL_AREA_STYLE_COLOUR('NONE',#248);
#254=PRESENTATION_STYLE_ASSIGNMENT((#249));
#255=STYLED_ITEM('NONE',(#254),#247);
#256=MECHANICAL_DESIGN_GEOMETRIC_PRESENTATION_REPRESENTATION('NONE',(#255,#408,#559,#710,#861,#1012,#1163,#1314,#1465,#1616,#1767,#1918,#2069,#2307,#2458),#28);
#257=PRESENTATION_LAYER_ASSIGNMENT('3D','None',(#247,#407,#558,#709,#860,#1011,#1162,#1313,#1464,#1615,#1766,#1917,#2068,#2299,#2457));
#258=CARTESIAN_POINT('',(0.25,-1.6035,5.828671E-016));
#259=DIRECTION('',(1.0,0.0,0.0));
#260=DIRECTION('',(0.0,0.0,1.0));
#261=AXIS2_PLACEMENT_3D('',#258,#259,#260);
#262=PLANE('',#261);
#263=CARTESIAN_POINT('',(0.25,-1.6035,0.020000000000001));
#264=VERTEX_POINT('',#263);
#265=CARTESIAN_POINT('',(0.25,-2.416499999999999,0.020000000000001));
#266=VERTEX_POINT('',#265);
#267=CARTESIAN_POINT('',(0.25,-1.603499999999999,0.020000000000001));
#268=DIRECTION('',(0.0,-1.0,0.0));
#269=VECTOR('',#268,0.813);
#270=LINE('',#267,#269);
#271=EDGE_CURVE('',#264,#266,#270,.T.);
#272=ORIENTED_EDGE('',*,*,#271,.T.);
#273=CARTESIAN_POINT('',(0.25,-2.416499999999999,5.828671E-016));
#274=VERTEX_POINT('',#273);
#275=CARTESIAN_POINT('',(0.25,-2.416499999999999,5.828671E-016));
#276=DIRECTION('',(0.0,0.0,1.0));
#277=VECTOR('',#276,0.02);
#278=LINE('',#275,#277);
#279=EDGE_CURVE('',#274,#266,#278,.T.);
#280=ORIENTED_EDGE('',*,*,#279,.F.);
#281=CARTESIAN_POINT('',(0.25,-1.6035,5.828671E-016));
#282=VERTEX_POINT('',#281);
#283=CARTESIAN_POINT('',(0.25,-2.416499999999999,5.828671E-016));
#284=DIRECTION('',(0.0,1.0,0.0));
#285=VECTOR('',#284,0.813);
#286=LINE('',#283,#285);
#287=EDGE_CURVE('',#274,#282,#286,.T.);
#288=ORIENTED_EDGE('',*,*,#287,.T.);
#289=CARTESIAN_POINT('',(0.25,-1.6035,5.828671E-016));
#290=DIRECTION('',(0.0,0.0,1.0));
#291=VECTOR('',#290,0.02);
#292=LINE('',#289,#291);
#293=EDGE_CURVE('',#282,#264,#292,.T.);
#294=ORIENTED_EDGE('',*,*,#293,.T.);
#295=EDGE_LOOP('',(#272,#280,#288,#294));
#296=FACE_OUTER_BOUND('',#295,.T.);
#297=ADVANCED_FACE('',(#296),#262,.T.);
#298=CARTESIAN_POINT('',(0.25,-2.416499999999999,5.828671E-016));
#299=DIRECTION('',(0.0,-1.0,0.0));
#300=DIRECTION('',(0.0,0.0,-1.0));
#301=AXIS2_PLACEMENT_3D('',#298,#299,#300);
#302=PLANE('',#301);
#303=CARTESIAN_POINT('',(-0.25,-2.416499999999999,0.020000000000001));
#304=VERTEX_POINT('',#303);
#305=CARTESIAN_POINT('',(0.25,-2.416499999999999,0.020000000000001));
#306=DIRECTION('',(-1.0,0.0,0.0));
#307=VECTOR('',#306,0.5);
#308=LINE('',#305,#307);
#309=EDGE_CURVE('',#266,#304,#308,.T.);
#310=ORIENTED_EDGE('',*,*,#309,.T.);
#311=CARTESIAN_POINT('',(-0.25,-2.416499999999999,5.828671E-016));
#312=VERTEX_POINT('',#311);
#313=CARTESIAN_POINT('',(-0.25,-2.416499999999999,5.828671E-016));
#314=DIRECTION('',(0.0,0.0,1.0));
#315=VECTOR('',#314,0.02);
#316=LINE('',#313,#315);
#317=EDGE_CURVE('',#312,#304,#316,.T.);
#318=ORIENTED_EDGE('',*,*,#317,.F.);
#319=CARTESIAN_POINT('',(-0.25,-2.416499999999999,5.828671E-016));
#320=DIRECTION('',(1.0,0.0,0.0));
#321=VECTOR('',#320,0.5);
#322=LINE('',#319,#321);
#323=EDGE_CURVE('',#312,#274,#322,.T.);
#324=ORIENTED_EDGE('',*,*,#323,.T.);
#325=ORIENTED_EDGE('',*,*,#279,.T.);
#326=EDGE_LOOP('',(#310,#318,#324,#325));
#327=FACE_OUTER_BOUND('',#326,.T.);
#328=ADVANCED_FACE('',(#327),#302,.T.);
#329=CARTESIAN_POINT('',(-0.25,-2.416499999999999,5.828671E-016));
#330=DIRECTION('',(-1.0,0.0,0.0));
#331=DIRECTION('',(0.0,0.0,-1.0));
#332=AXIS2_PLACEMENT_3D('',#329,#330,#331);
#333=PLANE('',#332);
#334=CARTESIAN_POINT('',(-0.25,-1.6035,0.020000000000001));
#335=VERTEX_POINT('',#334);
#336=CARTESIAN_POINT('',(-0.25,-2.416499999999999,0.020000000000001));
#337=DIRECTION('',(0.0,1.0,0.0));
#338=VECTOR('',#337,0.813);
#339=LINE('',#336,#338);
#340=EDGE_CURVE('',#304,#335,#339,.T.);
#341=ORIENTED_EDGE('',*,*,#340,.T.);
#342=CARTESIAN_POINT('',(-0.25,-1.6035,5.828671E-016));
#343=VERTEX_POINT('',#342);
#344=CARTESIAN_POINT('',(-0.25,-1.6035,5.828671E-016));
#345=DIRECTION('',(0.0,0.0,1.0));
#346=VECTOR('',#345,0.02);
#347=LINE('',#344,#346);
#348=EDGE_CURVE('',#343,#335,#347,.T.);
#349=ORIENTED_EDGE('',*,*,#348,.F.);
#350=CARTESIAN_POINT('',(-0.25,-1.6035,5.828671E-016));
#351=DIRECTION('',(0.0,-1.0,0.0));
#352=VECTOR('',#351,0.813);
#353=LINE('',#350,#352);
#354=EDGE_CURVE('',#343,#312,#353,.T.);
#355=ORIENTED_EDGE('',*,*,#354,.T.);
#356=ORIENTED_EDGE('',*,*,#317,.T.);
#357=EDGE_LOOP('',(#341,#349,#355,#356));
#358=FACE_OUTER_BOUND('',#357,.T.);
#359=ADVANCED_FACE('',(#358),#333,.T.);
#360=CARTESIAN_POINT('',(-0.25,-1.6035,5.828671E-016));
#361=DIRECTION('',(0.0,1.0,0.0));
#362=DIRECTION('',(0.0,0.0,1.0));
#363=AXIS2_PLACEMENT_3D('',#360,#361,#362);
#364=PLANE('',#363);
#365=CARTESIAN_POINT('',(-0.25,-1.6035,0.020000000000001));
#366=DIRECTION('',(1.0,0.0,0.0));
#367=VECTOR('',#366,0.5);
#368=LINE('',#365,#367);
#369=EDGE_CURVE('',#335,#264,#368,.T.);
#370=ORIENTED_EDGE('',*,*,#369,.T.);
#371=ORIENTED_EDGE('',*,*,#293,.F.);
#372=CARTESIAN_POINT('',(0.25,-1.6035,5.828671E-016));
#373=DIRECTION('',(-1.0,0.0,0.0));
#374=VECTOR('',#373,0.5);
#375=LINE('',#372,#374);
#376=EDGE_CURVE('',#282,#343,#375,.T.);
#377=ORIENTED_EDGE('',*,*,#376,.T.);
#378=ORIENTED_EDGE('',*,*,#348,.T.);
#379=EDGE_LOOP('',(#370,#371,#377,#378));
#380=FACE_OUTER_BOUND('',#379,.T.);
#381=ADVANCED_FACE('',(#380),#364,.T.);
#382=CARTESIAN_POINT('',(2.220446E-016,-2.01,5.828671E-016));
#383=DIRECTION('',(0.0,0.0,1.0));
#384=DIRECTION('',(0.0,-1.0,0.0));
#385=AXIS2_PLACEMENT_3D('',#382,#383,#384);
#386=PLANE('',#385);
#387=ORIENTED_EDGE('',*,*,#376,.F.);
#388=ORIENTED_EDGE('',*,*,#287,.F.);
#389=ORIENTED_EDGE('',*,*,#323,.F.);
#390=ORIENTED_EDGE('',*,*,#354,.F.);
#391=EDGE_LOOP('',(#387,#388,#389,#390));
#392=FACE_OUTER_BOUND('',#391,.T.);
#393=ADVANCED_FACE('',(#392),#386,.F.);
#394=CARTESIAN_POINT('',(2.220446E-016,-2.01,0.020000000000001));
#395=DIRECTION('',(0.0,0.0,1.0));
#396=DIRECTION('',(0.0,-1.0,0.0));
#397=AXIS2_PLACEMENT_3D('',#394,#395,#396);
#398=PLANE('',#397);
#399=ORIENTED_EDGE('',*,*,#271,.F.);
#400=ORIENTED_EDGE('',*,*,#369,.F.);
#401=ORIENTED_EDGE('',*,*,#340,.F.);
#402=ORIENTED_EDGE('',*,*,#309,.F.);
#403=EDGE_LOOP('',(#399,#400,#401,#402));
#404=FACE_OUTER_BOUND('',#403,.T.);
#405=ADVANCED_FACE('',(#404),#398,.T.);
#406=CLOSED_SHELL('',(#297,#328,#359,#381,#393,#405));
#407=MANIFOLD_SOLID_BREP('2BDA',#406);
#408=STYLED_ITEM('NONE',(#254),#407);
#409=CARTESIAN_POINT('',(0.25,2.4165,5.828671E-016));
#410=DIRECTION('',(1.0,0.0,0.0));
#411=DIRECTION('',(0.0,0.0,1.0));
#412=AXIS2_PLACEMENT_3D('',#409,#410,#411);
#413=PLANE('',#412);
#414=CARTESIAN_POINT('',(0.25,2.4165,0.020000000000001));
#415=VERTEX_POINT('',#414);
#416=CARTESIAN_POINT('',(0.25,1.6035,0.020000000000001));
#417=VERTEX_POINT('',#416);
#418=CARTESIAN_POINT('',(0.25,2.4165,0.020000000000001));
#419=DIRECTION('',(0.0,-1.0,0.0));
#420=VECTOR('',#419,0.813);
#421=LINE('',#418,#420);
#422=EDGE_CURVE('',#415,#417,#421,.T.);
#423=ORIENTED_EDGE('',*,*,#422,.T.);
#424=CARTESIAN_POINT('',(0.25,1.6035,5.828671E-016));
#425=VERTEX_POINT('',#424);
#426=CARTESIAN_POINT('',(0.25,1.6035,5.828671E-016));
#427=DIRECTION('',(0.0,0.0,1.0));
#428=VECTOR('',#427,0.02);
#429=LINE('',#426,#428);
#430=EDGE_CURVE('',#425,#417,#429,.T.);
#431=ORIENTED_EDGE('',*,*,#430,.F.);
#432=CARTESIAN_POINT('',(0.25,2.4165,5.828671E-016));
#433=VERTEX_POINT('',#432);
#434=CARTESIAN_POINT('',(0.25,1.6035,5.828671E-016));
#435=DIRECTION('',(0.0,1.0,0.0));
#436=VECTOR('',#435,0.813);
#437=LINE('',#434,#436);
#438=EDGE_CURVE('',#425,#433,#437,.T.);
#439=ORIENTED_EDGE('',*,*,#438,.T.);
#440=CARTESIAN_POINT('',(0.25,2.4165,5.828671E-016));
#441=DIRECTION('',(0.0,0.0,1.0));
#442=VECTOR('',#441,0.02);
#443=LINE('',#440,#442);
#444=EDGE_CURVE('',#433,#415,#443,.T.);
#445=ORIENTED_EDGE('',*,*,#444,.T.);
#446=EDGE_LOOP('',(#423,#431,#439,#445));
#447=FACE_OUTER_BOUND('',#446,.T.);
#448=ADVANCED_FACE('',(#447),#413,.T.);
#449=CARTESIAN_POINT('',(0.25,1.6035,5.828671E-016));
#450=DIRECTION('',(0.0,-1.0,0.0));
#451=DIRECTION('',(0.0,0.0,-1.0));
#452=AXIS2_PLACEMENT_3D('',#449,#450,#451);
#453=PLANE('',#452);
#454=CARTESIAN_POINT('',(-0.25,1.6035,0.020000000000001));
#455=VERTEX_POINT('',#454);
#456=CARTESIAN_POINT('',(0.25,1.6035,0.020000000000001));
#457=DIRECTION('',(-1.0,0.0,0.0));
#458=VECTOR('',#457,0.5);
#459=LINE('',#456,#458);
#460=EDGE_CURVE('',#417,#455,#459,.T.);
#461=ORIENTED_EDGE('',*,*,#460,.T.);
#462=CARTESIAN_POINT('',(-0.25,1.6035,5.828671E-016));
#463=VERTEX_POINT('',#462);
#464=CARTESIAN_POINT('',(-0.25,1.6035,5.828671E-016));
#465=DIRECTION('',(0.0,0.0,1.0));
#466=VECTOR('',#465,0.02);
#467=LINE('',#464,#466);
#468=EDGE_CURVE('',#463,#455,#467,.T.);
#469=ORIENTED_EDGE('',*,*,#468,.F.);
#470=CARTESIAN_POINT('',(-0.25,1.6035,5.828671E-016));
#471=DIRECTION('',(1.0,0.0,0.0));
#472=VECTOR('',#471,0.5);
#473=LINE('',#470,#472);
#474=EDGE_CURVE('',#463,#425,#473,.T.);
#475=ORIENTED_EDGE('',*,*,#474,.T.);
#476=ORIENTED_EDGE('',*,*,#430,.T.);
#477=EDGE_LOOP('',(#461,#469,#475,#476));
#478=FACE_OUTER_BOUND('',#477,.T.);
#479=ADVANCED_FACE('',(#478),#453,.T.);
#480=CARTESIAN_POINT('',(-0.25,1.6035,5.828671E-016));
#481=DIRECTION('',(-1.0,0.0,0.0));
#482=DIRECTION('',(0.0,0.0,-1.0));
#483=AXIS2_PLACEMENT_3D('',#480,#481,#482);
#484=PLANE('',#483);
#485=CARTESIAN_POINT('',(-0.25,2.4165,0.020000000000001));
#486=VERTEX_POINT('',#485);
#487=CARTESIAN_POINT('',(-0.25,1.6035,0.020000000000001));
#488=DIRECTION('',(0.0,1.0,0.0));
#489=VECTOR('',#488,0.813);
#490=LINE('',#487,#489);
#491=EDGE_CURVE('',#455,#486,#490,.T.);
#492=ORIENTED_EDGE('',*,*,#491,.T.);
#493=CARTESIAN_POINT('',(-0.25,2.4165,5.828671E-016));
#494=VERTEX_POINT('',#493);
#495=CARTESIAN_POINT('',(-0.25,2.4165,5.828671E-016));
#496=DIRECTION('',(0.0,0.0,1.0));
#497=VECTOR('',#496,0.02);
#498=LINE('',#495,#497);
#499=EDGE_CURVE('',#494,#486,#498,.T.);
#500=ORIENTED_EDGE('',*,*,#499,.F.);
#501=CARTESIAN_POINT('',(-0.25,2.4165,5.828671E-016));
#502=DIRECTION('',(0.0,-1.0,0.0));
#503=VECTOR('',#502,0.813);
#504=LINE('',#501,#503);
#505=EDGE_CURVE('',#494,#463,#504,.T.);
#506=ORIENTED_EDGE('',*,*,#505,.T.);
#507=ORIENTED_EDGE('',*,*,#468,.T.);
#508=EDGE_LOOP('',(#492,#500,#506,#507));
#509=FACE_OUTER_BOUND('',#508,.T.);
#510=ADVANCED_FACE('',(#509),#484,.T.);
#511=CARTESIAN_POINT('',(-0.25,2.4165,5.828671E-016));
#512=DIRECTION('',(0.0,1.0,0.0));
#513=DIRECTION('',(0.0,0.0,1.0));
#514=AXIS2_PLACEMENT_3D('',#511,#512,#513);
#515=PLANE('',#514);
#516=CARTESIAN_POINT('',(-0.25,2.4165,0.020000000000001));
#517=DIRECTION('',(1.0,0.0,0.0));
#518=VECTOR('',#517,0.5);
#519=LINE('',#516,#518);
#520=EDGE_CURVE('',#486,#415,#519,.T.);
#521=ORIENTED_EDGE('',*,*,#520,.T.);
#522=ORIENTED_EDGE('',*,*,#444,.F.);
#523=CARTESIAN_POINT('',(0.25,2.4165,5.828671E-016));
#524=DIRECTION('',(-1.0,0.0,0.0));
#525=VECTOR('',#524,0.5);
#526=LINE('',#523,#525);
#527=EDGE_CURVE('',#433,#494,#526,.T.);
#528=ORIENTED_EDGE('',*,*,#527,.T.);
#529=ORIENTED_EDGE('',*,*,#499,.T.);
#530=EDGE_LOOP('',(#521,#522,#528,#529));
#531=FACE_OUTER_BOUND('',#530,.T.);
#532=ADVANCED_FACE('',(#531),#515,.T.);
#533=CARTESIAN_POINT('',(0.0,2.01,5.828671E-016));
#534=DIRECTION('',(0.0,0.0,1.0));
#535=DIRECTION('',(0.0,-1.0,0.0));
#536=AXIS2_PLACEMENT_3D('',#533,#534,#535);
#537=PLANE('',#536);
#538=ORIENTED_EDGE('',*,*,#527,.F.);
#539=ORIENTED_EDGE('',*,*,#438,.F.);
#540=ORIENTED_EDGE('',*,*,#474,.F.);
#541=ORIENTED_EDGE('',*,*,#505,.F.);
#542=EDGE_LOOP('',(#538,#539,#540,#541));
#543=FACE_OUTER_BOUND('',#542,.T.);
#544=ADVANCED_FACE('',(#543),#537,.F.);
#545=CARTESIAN_POINT('',(0.0,2.01,0.020000000000001));
#546=DIRECTION('',(0.0,0.0,1.0));
#547=DIRECTION('',(0.0,-1.0,0.0));
#548=AXIS2_PLACEMENT_3D('',#545,#546,#547);
#549=PLANE('',#548);
#550=ORIENTED_EDGE('',*,*,#422,.F.);
#551=ORIENTED_EDGE('',*,*,#520,.F.);
#552=ORIENTED_EDGE('',*,*,#491,.F.);
#553=ORIENTED_EDGE('',*,*,#460,.F.);
#554=EDGE_LOOP('',(#550,#551,#552,#553));
#555=FACE_OUTER_BOUND('',#554,.T.);
#556=ADVANCED_FACE('',(#555),#549,.T.);
#557=CLOSED_SHELL('',(#448,#479,#510,#532,#544,#556));
#558=MANIFOLD_SOLID_BREP('2BD0',#557);
#559=STYLED_ITEM('NONE',(#254),#558);
#560=CARTESIAN_POINT('',(0.603499999999999,2.25,3.608225E-016));
#561=DIRECTION('',(0.0,1.0,0.0));
#562=DIRECTION('',(0.0,0.0,1.0));
#563=AXIS2_PLACEMENT_3D('',#560,#561,#562);
#564=PLANE('',#563);
#565=CARTESIAN_POINT('',(0.603499999999999,2.25,0.02));
#566=VERTEX_POINT('',#565);
#567=CARTESIAN_POINT('',(1.416499999999999,2.25,0.02));
#568=VERTEX_POINT('',#567);
#569=CARTESIAN_POINT('',(0.603499999999999,2.25,0.02));
#570=DIRECTION('',(1.0,0.0,0.0));
#571=VECTOR('',#570,0.813);
#572=LINE('',#569,#571);
#573=EDGE_CURVE('',#566,#568,#572,.T.);
#574=ORIENTED_EDGE('',*,*,#573,.T.);
#575=CARTESIAN_POINT('',(1.416499999999999,2.25,3.608225E-016));
#576=VERTEX_POINT('',#575);
#577=CARTESIAN_POINT('',(1.416499999999999,2.25,3.608225E-016));
#578=DIRECTION('',(0.0,0.0,1.0));
#579=VECTOR('',#578,0.02);
#580=LINE('',#577,#579);
#581=EDGE_CURVE('',#576,#568,#580,.T.);
#582=ORIENTED_EDGE('',*,*,#581,.F.);
#583=CARTESIAN_POINT('',(0.603499999999999,2.25,3.608225E-016));
#584=VERTEX_POINT('',#583);
#585=CARTESIAN_POINT('',(1.416499999999999,2.25,3.608225E-016));
#586=DIRECTION('',(-1.0,0.0,0.0));
#587=VECTOR('',#586,0.813);
#588=LINE('',#585,#587);
#589=EDGE_CURVE('',#576,#584,#588,.T.);
#590=ORIENTED_EDGE('',*,*,#589,.T.);
#591=CARTESIAN_POINT('',(0.603499999999999,2.25,3.608225E-016));
#592=DIRECTION('',(0.0,0.0,1.0));
#593=VECTOR('',#592,0.02);
#594=LINE('',#591,#593);
#595=EDGE_CURVE('',#584,#566,#594,.T.);
#596=ORIENTED_EDGE('',*,*,#595,.T.);
#597=EDGE_LOOP('',(#574,#582,#590,#596));
#598=FACE_OUTER_BOUND('',#597,.T.);
#599=ADVANCED_FACE('',(#598),#564,.T.);
#600=CARTESIAN_POINT('',(1.416499999999999,2.25,3.608225E-016));
#601=DIRECTION('',(1.0,0.0,0.0));
#602=DIRECTION('',(0.0,0.0,-1.0));
#603=AXIS2_PLACEMENT_3D('',#600,#601,#602);
#604=PLANE('',#603);
#605=CARTESIAN_POINT('',(1.416499999999999,1.75,0.02));
#606=VERTEX_POINT('',#605);
#607=CARTESIAN_POINT('',(1.416499999999999,2.25,0.02));
#608=DIRECTION('',(0.0,-1.0,0.0));
#609=VECTOR('',#608,0.5);
#610=LINE('',#607,#609);
#611=EDGE_CURVE('',#568,#606,#610,.T.);
#612=ORIENTED_EDGE('',*,*,#611,.T.);
#613=CARTESIAN_POINT('',(1.416499999999999,1.75,3.608225E-016));
#614=VERTEX_POINT('',#613);
#615=CARTESIAN_POINT('',(1.416499999999999,1.75,3.608225E-016));
#616=DIRECTION('',(0.0,0.0,1.0));
#617=VECTOR('',#616,0.02);
#618=LINE('',#615,#617);
#619=EDGE_CURVE('',#614,#606,#618,.T.);
#620=ORIENTED_EDGE('',*,*,#619,.F.);
#621=CARTESIAN_POINT('',(1.416499999999999,1.75,3.608225E-016));
#622=DIRECTION('',(0.0,1.0,0.0));
#623=VECTOR('',#622,0.5);
#624=LINE('',#621,#623);
#625=EDGE_CURVE('',#614,#576,#624,.T.);
#626=ORIENTED_EDGE('',*,*,#625,.T.);
#627=ORIENTED_EDGE('',*,*,#581,.T.);
#628=EDGE_LOOP('',(#612,#620,#626,#627));
#629=FACE_OUTER_BOUND('',#628,.T.);
#630=ADVANCED_FACE('',(#629),#604,.T.);
#631=CARTESIAN_POINT('',(1.416499999999999,1.75,3.608225E-016));
#632=DIRECTION('',(0.0,-1.0,0.0));
#633=DIRECTION('',(0.0,0.0,-1.0));
#634=AXIS2_PLACEMENT_3D('',#631,#632,#633);
#635=PLANE('',#634);
#636=CARTESIAN_POINT('',(0.603499999999999,1.75,0.02));
#637=VERTEX_POINT('',#636);
#638=CARTESIAN_POINT('',(1.416499999999999,1.75,0.02));
#639=DIRECTION('',(-1.0,0.0,0.0));
#640=VECTOR('',#639,0.813);
#641=LINE('',#638,#640);
#642=EDGE_CURVE('',#606,#637,#641,.T.);
#643=ORIENTED_EDGE('',*,*,#642,.T.);
#644=CARTESIAN_POINT('',(0.603499999999999,1.75,3.608225E-016));
#645=VERTEX_POINT('',#644);
#646=CARTESIAN_POINT('',(0.603499999999999,1.75,3.608225E-016));
#647=DIRECTION('',(0.0,0.0,1.0));
#648=VECTOR('',#647,0.02);
#649=LINE('',#646,#648);
#650=EDGE_CURVE('',#645,#637,#649,.T.);
#651=ORIENTED_EDGE('',*,*,#650,.F.);
#652=CARTESIAN_POINT('',(0.603499999999999,1.75,3.608225E-016));
#653=DIRECTION('',(1.0,0.0,0.0));
#654=VECTOR('',#653,0.813);
#655=LINE('',#652,#654);
#656=EDGE_CURVE('',#645,#614,#655,.T.);
#657=ORIENTED_EDGE('',*,*,#656,.T.);
#658=ORIENTED_EDGE('',*,*,#619,.T.);
#659=EDGE_LOOP('',(#643,#651,#657,#658));
#660=FACE_OUTER_BOUND('',#659,.T.);
#661=ADVANCED_FACE('',(#660),#635,.T.);
#662=CARTESIAN_POINT('',(0.603499999999999,1.75,3.608225E-016));
#663=DIRECTION('',(-1.0,0.0,0.0));
#664=DIRECTION('',(0.0,0.0,1.0));
#665=AXIS2_PLACEMENT_3D('',#662,#663,#664);
#666=PLANE('',#665);
#667=CARTESIAN_POINT('',(0.603499999999999,1.75,0.02));
#668=DIRECTION('',(0.0,1.0,0.0));
#669=VECTOR('',#668,0.5);
#670=LINE('',#667,#669);
#671=EDGE_CURVE('',#637,#566,#670,.T.);
#672=ORIENTED_EDGE('',*,*,#671,.T.);
#673=ORIENTED_EDGE('',*,*,#595,.F.);
#674=CARTESIAN_POINT('',(0.603499999999999,2.25,3.608225E-016));
#675=DIRECTION('',(0.0,-1.0,0.0));
#676=VECTOR('',#675,0.5);
#677=LINE('',#674,#676);
#678=EDGE_CURVE('',#584,#645,#677,.T.);
#679=ORIENTED_EDGE('',*,*,#678,.T.);
#680=ORIENTED_EDGE('',*,*,#650,.T.);
#681=EDGE_LOOP('',(#672,#673,#679,#680));
#682=FACE_OUTER_BOUND('',#681,.T.);
#683=ADVANCED_FACE('',(#682),#666,.T.);
#684=CARTESIAN_POINT('',(1.01,2.0,3.608225E-016));
#685=DIRECTION('',(0.0,0.0,1.0));
#686=DIRECTION('',(1.0,0.0,0.0));
#687=AXIS2_PLACEMENT_3D('',#684,#685,#686);
#688=PLANE('',#687);
#689=ORIENTED_EDGE('',*,*,#678,.F.);
#690=ORIENTED_EDGE('',*,*,#589,.F.);
#691=ORIENTED_EDGE('',*,*,#625,.F.);
#692=ORIENTED_EDGE('',*,*,#656,.F.);
#693=EDGE_LOOP('',(#689,#690,#691,#692));
#694=FACE_OUTER_BOUND('',#693,.T.);
#695=ADVANCED_FACE('',(#694),#688,.F.);
#696=CARTESIAN_POINT('',(1.01,2.0,0.02));
#697=DIRECTION('',(0.0,0.0,1.0));
#698=DIRECTION('',(1.0,0.0,0.0));
#699=AXIS2_PLACEMENT_3D('',#696,#697,#698);
#700=PLANE('',#699);
#701=ORIENTED_EDGE('',*,*,#573,.F.);
#702=ORIENTED_EDGE('',*,*,#671,.F.);
#703=ORIENTED_EDGE('',*,*,#642,.F.);
#704=ORIENTED_EDGE('',*,*,#611,.F.);
#705=EDGE_LOOP('',(#701,#702,#703,#704));
#706=FACE_OUTER_BOUND('',#705,.T.);
#707=ADVANCED_FACE('',(#706),#700,.T.);
#708=CLOSED_SHELL('',(#599,#630,#661,#683,#695,#707));
#709=MANIFOLD_SOLID_BREP('2BB0',#708);
#710=STYLED_ITEM('NONE',(#254),#709);
#711=CARTESIAN_POINT('',(0.603499999999999,1.45,3.608225E-016));
#712=DIRECTION('',(0.0,1.0,0.0));
#713=DIRECTION('',(0.0,0.0,1.0));
#714=AXIS2_PLACEMENT_3D('',#711,#712,#713);
#715=PLANE('',#714);
#716=CARTESIAN_POINT('',(0.603499999999999,1.45,0.02));
#717=VERTEX_POINT('',#716);
#718=CARTESIAN_POINT('',(1.416499999999999,1.45,0.02));
#719=VERTEX_POINT('',#718);
#720=CARTESIAN_POINT('',(0.603499999999999,1.45,0.02));
#721=DIRECTION('',(1.0,0.0,0.0));
#722=VECTOR('',#721,0.813);
#723=LINE('',#720,#722);
#724=EDGE_CURVE('',#717,#719,#723,.T.);
#725=ORIENTED_EDGE('',*,*,#724,.T.);
#726=CARTESIAN_POINT('',(1.416499999999999,1.45,3.608225E-016));
#727=VERTEX_POINT('',#726);
#728=CARTESIAN_POINT('',(1.416499999999999,1.45,3.608225E-016));
#729=DIRECTION('',(0.0,0.0,1.0));
#730=VECTOR('',#729,0.02);
#731=LINE('',#728,#730);
#732=EDGE_CURVE('',#727,#719,#731,.T.);
#733=ORIENTED_EDGE('',*,*,#732,.F.);
#734=CARTESIAN_POINT('',(0.603499999999999,1.45,3.608225E-016));
#735=VERTEX_POINT('',#734);
#736=CARTESIAN_POINT('',(1.416499999999999,1.45,3.608225E-016));
#737=DIRECTION('',(-1.0,0.0,0.0));
#738=VECTOR('',#737,0.813);
#739=LINE('',#736,#738);
#740=EDGE_CURVE('',#727,#735,#739,.T.);
#741=ORIENTED_EDGE('',*,*,#740,.T.);
#742=CARTESIAN_POINT('',(0.603499999999999,1.45,3.608225E-016));
#743=DIRECTION('',(0.0,0.0,1.0));
#744=VECTOR('',#743,0.02);
#745=LINE('',#742,#744);
#746=EDGE_CURVE('',#735,#717,#745,.T.);
#747=ORIENTED_EDGE('',*,*,#746,.T.);
#748=EDGE_LOOP('',(#725,#733,#741,#747));
#749=FACE_OUTER_BOUND('',#748,.T.);
#750=ADVANCED_FACE('',(#749),#715,.T.);
#751=CARTESIAN_POINT('',(1.416499999999999,1.45,3.608225E-016));
#752=DIRECTION('',(1.0,0.0,0.0));
#753=DIRECTION('',(0.0,0.0,-1.0));
#754=AXIS2_PLACEMENT_3D('',#751,#752,#753);
#755=PLANE('',#754);
#756=CARTESIAN_POINT('',(1.416499999999999,0.95,0.02));
#757=VERTEX_POINT('',#756);
#758=CARTESIAN_POINT('',(1.416499999999999,1.45,0.02));
#759=DIRECTION('',(0.0,-1.0,0.0));
#760=VECTOR('',#759,0.5);
#761=LINE('',#758,#760);
#762=EDGE_CURVE('',#719,#757,#761,.T.);
#763=ORIENTED_EDGE('',*,*,#762,.T.);
#764=CARTESIAN_POINT('',(1.416499999999999,0.95,3.608225E-016));
#765=VERTEX_POINT('',#764);
#766=CARTESIAN_POINT('',(1.416499999999999,0.95,3.608225E-016));
#767=DIRECTION('',(0.0,0.0,1.0));
#768=VECTOR('',#767,0.02);
#769=LINE('',#766,#768);
#770=EDGE_CURVE('',#765,#757,#769,.T.);
#771=ORIENTED_EDGE('',*,*,#770,.F.);
#772=CARTESIAN_POINT('',(1.416499999999999,0.95,3.608225E-016));
#773=DIRECTION('',(0.0,1.0,0.0));
#774=VECTOR('',#773,0.5);
#775=LINE('',#772,#774);
#776=EDGE_CURVE('',#765,#727,#775,.T.);
#777=ORIENTED_EDGE('',*,*,#776,.T.);
#778=ORIENTED_EDGE('',*,*,#732,.T.);
#779=EDGE_LOOP('',(#763,#771,#777,#778));
#780=FACE_OUTER_BOUND('',#779,.T.);
#781=ADVANCED_FACE('',(#780),#755,.T.);
#782=CARTESIAN_POINT('',(1.416499999999999,0.95,3.608225E-016));
#783=DIRECTION('',(0.0,-1.0,0.0));
#784=DIRECTION('',(0.0,0.0,-1.0));
#785=AXIS2_PLACEMENT_3D('',#782,#783,#784);
#786=PLANE('',#785);
#787=CARTESIAN_POINT('',(0.603499999999999,0.95,0.02));
#788=VERTEX_POINT('',#787);
#789=CARTESIAN_POINT('',(1.416499999999999,0.95,0.02));
#790=DIRECTION('',(-1.0,0.0,0.0));
#791=VECTOR('',#790,0.813);
#792=LINE('',#789,#791);
#793=EDGE_CURVE('',#757,#788,#792,.T.);
#794=ORIENTED_EDGE('',*,*,#793,.T.);
#795=CARTESIAN_POINT('',(0.603499999999999,0.95,3.608225E-016));
#796=VERTEX_POINT('',#795);
#797=CARTESIAN_POINT('',(0.603499999999999,0.95,3.608225E-016));
#798=DIRECTION('',(0.0,0.0,1.0));
#799=VECTOR('',#798,0.02);
#800=LINE('',#797,#799);
#801=EDGE_CURVE('',#796,#788,#800,.T.);
#802=ORIENTED_EDGE('',*,*,#801,.F.);
#803=CARTESIAN_POINT('',(0.603499999999999,0.95,3.608225E-016));
#804=DIRECTION('',(1.0,0.0,0.0));
#805=VECTOR('',#804,0.813);
#806=LINE('',#803,#805);
#807=EDGE_CURVE('',#796,#765,#806,.T.);
#808=ORIENTED_EDGE('',*,*,#807,.T.);
#809=ORIENTED_EDGE('',*,*,#770,.T.);
#810=EDGE_LOOP('',(#794,#802,#808,#809));
#811=FACE_OUTER_BOUND('',#810,.T.);
#812=ADVANCED_FACE('',(#811),#786,.T.);
#813=CARTESIAN_POINT('',(0.603499999999999,0.95,3.608225E-016));
#814=DIRECTION('',(-1.0,0.0,0.0));
#815=DIRECTION('',(0.0,0.0,1.0));
#816=AXIS2_PLACEMENT_3D('',#813,#814,#815);
#817=PLANE('',#816);
#818=CARTESIAN_POINT('',(0.603499999999999,0.95,0.02));
#819=DIRECTION('',(0.0,1.0,0.0));
#820=VECTOR('',#819,0.5);
#821=LINE('',#818,#820);
#822=EDGE_CURVE('',#788,#717,#821,.T.);
#823=ORIENTED_EDGE('',*,*,#822,.T.);
#824=ORIENTED_EDGE('',*,*,#746,.F.);
#825=CARTESIAN_POINT('',(0.603499999999999,1.45,3.608225E-016));
#826=DIRECTION('',(0.0,-1.0,0.0));
#827=VECTOR('',#826,0.5);
#828=LINE('',#825,#827);
#829=EDGE_CURVE('',#735,#796,#828,.T.);
#830=ORIENTED_EDGE('',*,*,#829,.T.);
#831=ORIENTED_EDGE('',*,*,#801,.T.);
#832=EDGE_LOOP('',(#823,#824,#830,#831));
#833=FACE_OUTER_BOUND('',#832,.T.);
#834=ADVANCED_FACE('',(#833),#817,.T.);
#835=CARTESIAN_POINT('',(1.01,1.2,3.608225E-016));
#836=DIRECTION('',(0.0,0.0,1.0));
#837=DIRECTION('',(1.0,0.0,0.0));
#838=AXIS2_PLACEMENT_3D('',#835,#836,#837);
#839=PLANE('',#838);
#840=ORIENTED_EDGE('',*,*,#829,.F.);
#841=ORIENTED_EDGE('',*,*,#740,.F.);
#842=ORIENTED_EDGE('',*,*,#776,.F.);
#843=ORIENTED_EDGE('',*,*,#807,.F.);
#844=EDGE_LOOP('',(#840,#841,#842,#843));
#845=FACE_OUTER_BOUND('',#844,.T.);
#846=ADVANCED_FACE('',(#845),#839,.F.);
#847=CARTESIAN_POINT('',(1.01,1.2,0.02));
#848=DIRECTION('',(0.0,0.0,1.0));
#849=DIRECTION('',(1.0,0.0,0.0));
#850=AXIS2_PLACEMENT_3D('',#847,#848,#849);
#851=PLANE('',#850);
#852=ORIENTED_EDGE('',*,*,#724,.F.);
#853=ORIENTED_EDGE('',*,*,#822,.F.);
#854=ORIENTED_EDGE('',*,*,#793,.F.);
#855=ORIENTED_EDGE('',*,*,#762,.F.);
#856=EDGE_LOOP('',(#852,#853,#854,#855));
#857=FACE_OUTER_BOUND('',#856,.T.);
#858=ADVANCED_FACE('',(#857),#851,.T.);
#859=CLOSED_SHELL('',(#750,#781,#812,#834,#846,#858));
#860=MANIFOLD_SOLID_BREP('2BA9',#859);
#861=STYLED_ITEM('NONE',(#254),#860);
#862=CARTESIAN_POINT('',(0.603499999999999,-1.75,3.608225E-016));
#863=DIRECTION('',(0.0,1.0,0.0));
#864=DIRECTION('',(0.0,0.0,1.0));
#865=AXIS2_PLACEMENT_3D('',#862,#863,#864);
#866=PLANE('',#865);
#867=CARTESIAN_POINT('',(0.603499999999999,-1.75,0.02));
#868=VERTEX_POINT('',#867);
#869=CARTESIAN_POINT('',(1.416499999999999,-1.75,0.02));
#870=VERTEX_POINT('',#869);
#871=CARTESIAN_POINT('',(0.603499999999999,-1.75,0.02));
#872=DIRECTION('',(1.0,0.0,0.0));
#873=VECTOR('',#872,0.813);
#874=LINE('',#871,#873);
#875=EDGE_CURVE('',#868,#870,#874,.T.);
#876=ORIENTED_EDGE('',*,*,#875,.T.);
#877=CARTESIAN_POINT('',(1.416499999999999,-1.75,3.608225E-016));
#878=VERTEX_POINT('',#877);
#879=CARTESIAN_POINT('',(1.416499999999999,-1.75,3.608225E-016));
#880=DIRECTION('',(0.0,0.0,1.0));
#881=VECTOR('',#880,0.02);
#882=LINE('',#879,#881);
#883=EDGE_CURVE('',#878,#870,#882,.T.);
#884=ORIENTED_EDGE('',*,*,#883,.F.);
#885=CARTESIAN_POINT('',(0.603499999999999,-1.75,3.608225E-016));
#886=VERTEX_POINT('',#885);
#887=CARTESIAN_POINT('',(1.416499999999999,-1.75,3.608225E-016));
#888=DIRECTION('',(-1.0,0.0,0.0));
#889=VECTOR('',#888,0.813);
#890=LINE('',#887,#889);
#891=EDGE_CURVE('',#878,#886,#890,.T.);
#892=ORIENTED_EDGE('',*,*,#891,.T.);
#893=CARTESIAN_POINT('',(0.603499999999999,-1.75,3.608225E-016));
#894=DIRECTION('',(0.0,0.0,1.0));
#895=VECTOR('',#894,0.02);
#896=LINE('',#893,#895);
#897=EDGE_CURVE('',#886,#868,#896,.T.);
#898=ORIENTED_EDGE('',*,*,#897,.T.);
#899=EDGE_LOOP('',(#876,#884,#892,#898));
#900=FACE_OUTER_BOUND('',#899,.T.);
#901=ADVANCED_FACE('',(#900),#866,.T.);
#902=CARTESIAN_POINT('',(1.416499999999999,-1.75,3.608225E-016));
#903=DIRECTION('',(1.0,0.0,0.0));
#904=DIRECTION('',(0.0,0.0,-1.0));
#905=AXIS2_PLACEMENT_3D('',#902,#903,#904);
#906=PLANE('',#905);
#907=CARTESIAN_POINT('',(1.416499999999999,-2.25,0.02));
#908=VERTEX_POINT('',#907);
#909=CARTESIAN_POINT('',(1.416499999999999,-1.75,0.02));
#910=DIRECTION('',(0.0,-1.0,0.0));
#911=VECTOR('',#910,0.5);
#912=LINE('',#909,#911);
#913=EDGE_CURVE('',#870,#908,#912,.T.);
#914=ORIENTED_EDGE('',*,*,#913,.T.);
#915=CARTESIAN_POINT('',(1.416499999999999,-2.25,3.608225E-016));
#916=VERTEX_POINT('',#915);
#917=CARTESIAN_POINT('',(1.416499999999999,-2.25,3.608225E-016));
#918=DIRECTION('',(0.0,0.0,1.0));
#919=VECTOR('',#918,0.02);
#920=LINE('',#917,#919);
#921=EDGE_CURVE('',#916,#908,#920,.T.);
#922=ORIENTED_EDGE('',*,*,#921,.F.);
#923=CARTESIAN_POINT('',(1.416499999999999,-2.25,3.608225E-016));
#924=DIRECTION('',(0.0,1.0,0.0));
#925=VECTOR('',#924,0.5);
#926=LINE('',#923,#925);
#927=EDGE_CURVE('',#916,#878,#926,.T.);
#928=ORIENTED_EDGE('',*,*,#927,.T.);
#929=ORIENTED_EDGE('',*,*,#883,.T.);
#930=EDGE_LOOP('',(#914,#922,#928,#929));
#931=FACE_OUTER_BOUND('',#930,.T.);
#932=ADVANCED_FACE('',(#931),#906,.T.);
#933=CARTESIAN_POINT('',(1.416499999999999,-2.25,3.608225E-016));
#934=DIRECTION('',(0.0,-1.0,0.0));
#935=DIRECTION('',(0.0,0.0,-1.0));
#936=AXIS2_PLACEMENT_3D('',#933,#934,#935);
#937=PLANE('',#936);
#938=CARTESIAN_POINT('',(0.603499999999999,-2.25,0.02));
#939=VERTEX_POINT('',#938);
#940=CARTESIAN_POINT('',(1.416499999999999,-2.25,0.02));
#941=DIRECTION('',(-1.0,0.0,0.0));
#942=VECTOR('',#941,0.813);
#943=LINE('',#940,#942);
#944=EDGE_CURVE('',#908,#939,#943,.T.);
#945=ORIENTED_EDGE('',*,*,#944,.T.);
#946=CARTESIAN_POINT('',(0.603499999999999,-2.25,3.608225E-016));
#947=VERTEX_POINT('',#946);
#948=CARTESIAN_POINT('',(0.603499999999999,-2.25,3.608225E-016));
#949=DIRECTION('',(0.0,0.0,1.0));
#950=VECTOR('',#949,0.02);
#951=LINE('',#948,#950);
#952=EDGE_CURVE('',#947,#939,#951,.T.);
#953=ORIENTED_EDGE('',*,*,#952,.F.);
#954=CARTESIAN_POINT('',(0.603499999999999,-2.25,3.608225E-016));
#955=DIRECTION('',(1.0,0.0,0.0));
#956=VECTOR('',#955,0.813);
#957=LINE('',#954,#956);
#958=EDGE_CURVE('',#947,#916,#957,.T.);
#959=ORIENTED_EDGE('',*,*,#958,.T.);
#960=ORIENTED_EDGE('',*,*,#921,.T.);
#961=EDGE_LOOP('',(#945,#953,#959,#960));
#962=FACE_OUTER_BOUND('',#961,.T.);
#963=ADVANCED_FACE('',(#962),#937,.T.);
#964=CARTESIAN_POINT('',(0.603499999999999,-2.25,3.608225E-016));
#965=DIRECTION('',(-1.0,0.0,0.0));
#966=DIRECTION('',(0.0,0.0,1.0));
#967=AXIS2_PLACEMENT_3D('',#964,#965,#966);
#968=PLANE('',#967);
#969=CARTESIAN_POINT('',(0.603499999999999,-2.25,0.02));
#970=DIRECTION('',(0.0,1.0,0.0));
#971=VECTOR('',#970,0.5);
#972=LINE('',#969,#971);
#973=EDGE_CURVE('',#939,#868,#972,.T.);
#974=ORIENTED_EDGE('',*,*,#973,.T.);
#975=ORIENTED_EDGE('',*,*,#897,.F.);
#976=CARTESIAN_POINT('',(0.603499999999999,-1.75,3.608225E-016));
#977=DIRECTION('',(0.0,-1.0,0.0));
#978=VECTOR('',#977,0.5);
#979=LINE('',#976,#978);
#980=EDGE_CURVE('',#886,#947,#979,.T.);
#981=ORIENTED_EDGE('',*,*,#980,.T.);
#982=ORIENTED_EDGE('',*,*,#952,.T.);
#983=EDGE_LOOP('',(#974,#975,#981,#982));
#984=FACE_OUTER_BOUND('',#983,.T.);
#985=ADVANCED_FACE('',(#984),#968,.T.);
#986=CARTESIAN_POINT('',(1.01,-2.0,3.608225E-016));
#987=DIRECTION('',(0.0,0.0,1.0));
#988=DIRECTION('',(1.0,0.0,0.0));
#989=AXIS2_PLACEMENT_3D('',#986,#987,#988);
#990=PLANE('',#989);
#991=ORIENTED_EDGE('',*,*,#980,.F.);
#992=ORIENTED_EDGE('',*,*,#891,.F.);
#993=ORIENTED_EDGE('',*,*,#927,.F.);
#994=ORIENTED_EDGE('',*,*,#958,.F.);
#995=EDGE_LOOP('',(#991,#992,#993,#994));
#996=FACE_OUTER_BOUND('',#995,.T.);
#997=ADVANCED_FACE('',(#996),#990,.F.);
#998=CARTESIAN_POINT('',(1.01,-2.0,0.02));
#999=DIRECTION('',(0.0,0.0,1.0));
#1000=DIRECTION('',(1.0,0.0,0.0));
#1001=AXIS2_PLACEMENT_3D('',#998,#999,#1000);
#1002=PLANE('',#1001);
#1003=ORIENTED_EDGE('',*,*,#875,.F.);
#1004=ORIENTED_EDGE('',*,*,#973,.F.);
#1005=ORIENTED_EDGE('',*,*,#944,.F.);
#1006=ORIENTED_EDGE('',*,*,#913,.F.);
#1007=EDGE_LOOP('',(#1003,#1004,#1005,#1006));
#1008=FACE_OUTER_BOUND('',#1007,.T.);
#1009=ADVANCED_FACE('',(#1008),#1002,.T.);
#1010=CLOSED_SHELL('',(#901,#932,#963,#985,#997,#1009));
#1011=MANIFOLD_SOLID_BREP('2BA2',#1010);
#1012=STYLED_ITEM('NONE',(#254),#1011);
#1013=CARTESIAN_POINT('',(0.603499999999999,-0.95,3.608225E-016));
#1014=DIRECTION('',(0.0,1.0,0.0));
#1015=DIRECTION('',(0.0,0.0,1.0));
#1016=AXIS2_PLACEMENT_3D('',#1013,#1014,#1015);
#1017=PLANE('',#1016);
#1018=CARTESIAN_POINT('',(0.603499999999999,-0.95,0.02));
#1019=VERTEX_POINT('',#1018);
#1020=CARTESIAN_POINT('',(1.416499999999999,-0.95,0.02));
#1021=VERTEX_POINT('',#1020);
#1022=CARTESIAN_POINT('',(0.603499999999999,-0.95,0.02));
#1023=DIRECTION('',(1.0,0.0,0.0));
#1024=VECTOR('',#1023,0.813);
#1025=LINE('',#1022,#1024);
#1026=EDGE_CURVE('',#1019,#1021,#1025,.T.);
#1027=ORIENTED_EDGE('',*,*,#1026,.T.);
#1028=CARTESIAN_POINT('',(1.416499999999999,-0.95,3.608225E-016));
#1029=VERTEX_POINT('',#1028);
#1030=CARTESIAN_POINT('',(1.416499999999999,-0.95,3.608225E-016));
#1031=DIRECTION('',(0.0,0.0,1.0));
#1032=VECTOR('',#1031,0.02);
#1033=LINE('',#1030,#1032);
#1034=EDGE_CURVE('',#1029,#1021,#1033,.T.);
#1035=ORIENTED_EDGE('',*,*,#1034,.F.);
#1036=CARTESIAN_POINT('',(0.603499999999999,-0.95,3.608225E-016));
#1037=VERTEX_POINT('',#1036);
#1038=CARTESIAN_POINT('',(1.416499999999999,-0.95,3.608225E-016));
#1039=DIRECTION('',(-1.0,0.0,0.0));
#1040=VECTOR('',#1039,0.813);
#1041=LINE('',#1038,#1040);
#1042=EDGE_CURVE('',#1029,#1037,#1041,.T.);
#1043=ORIENTED_EDGE('',*,*,#1042,.T.);
#1044=CARTESIAN_POINT('',(0.603499999999999,-0.95,3.608225E-016));
#1045=DIRECTION('',(0.0,0.0,1.0));
#1046=VECTOR('',#1045,0.02);
#1047=LINE('',#1044,#1046);
#1048=EDGE_CURVE('',#1037,#1019,#1047,.T.);
#1049=ORIENTED_EDGE('',*,*,#1048,.T.);
#1050=EDGE_LOOP('',(#1027,#1035,#1043,#1049));
#1051=FACE_OUTER_BOUND('',#1050,.T.);
#1052=ADVANCED_FACE('',(#1051),#1017,.T.);
#1053=CARTESIAN_POINT('',(1.416499999999999,-0.95,3.608225E-016));
#1054=DIRECTION('',(1.0,0.0,0.0));
#1055=DIRECTION('',(0.0,0.0,-1.0));
#1056=AXIS2_PLACEMENT_3D('',#1053,#1054,#1055);
#1057=PLANE('',#1056);
#1058=CARTESIAN_POINT('',(1.416499999999999,-1.45,0.02));
#1059=VERTEX_POINT('',#1058);
#1060=CARTESIAN_POINT('',(1.416499999999999,-0.95,0.02));
#1061=DIRECTION('',(0.0,-1.0,0.0));
#1062=VECTOR('',#1061,0.5);
#1063=LINE('',#1060,#1062);
#1064=EDGE_CURVE('',#1021,#1059,#1063,.T.);
#1065=ORIENTED_EDGE('',*,*,#1064,.T.);
#1066=CARTESIAN_POINT('',(1.416499999999999,-1.45,3.608225E-016));
#1067=VERTEX_POINT('',#1066);
#1068=CARTESIAN_POINT('',(1.416499999999999,-1.45,3.608225E-016));
#1069=DIRECTION('',(0.0,0.0,1.0));
#1070=VECTOR('',#1069,0.02);
#1071=LINE('',#1068,#1070);
#1072=EDGE_CURVE('',#1067,#1059,#1071,.T.);
#1073=ORIENTED_EDGE('',*,*,#1072,.F.);
#1074=CARTESIAN_POINT('',(1.416499999999999,-1.45,3.608225E-016));
#1075=DIRECTION('',(0.0,1.0,0.0));
#1076=VECTOR('',#1075,0.5);
#1077=LINE('',#1074,#1076);
#1078=EDGE_CURVE('',#1067,#1029,#1077,.T.);
#1079=ORIENTED_EDGE('',*,*,#1078,.T.);
#1080=ORIENTED_EDGE('',*,*,#1034,.T.);
#1081=EDGE_LOOP('',(#1065,#1073,#1079,#1080));
#1082=FACE_OUTER_BOUND('',#1081,.T.);
#1083=ADVANCED_FACE('',(#1082),#1057,.T.);
#1084=CARTESIAN_POINT('',(1.416499999999999,-1.45,3.608225E-016));
#1085=DIRECTION('',(0.0,-1.0,0.0));
#1086=DIRECTION('',(0.0,0.0,-1.0));
#1087=AXIS2_PLACEMENT_3D('',#1084,#1085,#1086);
#1088=PLANE('',#1087);
#1089=CARTESIAN_POINT('',(0.603499999999999,-1.45,0.02));
#1090=VERTEX_POINT('',#1089);
#1091=CARTESIAN_POINT('',(1.416499999999999,-1.45,0.02));
#1092=DIRECTION('',(-1.0,0.0,0.0));
#1093=VECTOR('',#1092,0.813);
#1094=LINE('',#1091,#1093);
#1095=EDGE_CURVE('',#1059,#1090,#1094,.T.);
#1096=ORIENTED_EDGE('',*,*,#1095,.T.);
#1097=CARTESIAN_POINT('',(0.603499999999999,-1.45,3.608225E-016));
#1098=VERTEX_POINT('',#1097);
#1099=CARTESIAN_POINT('',(0.603499999999999,-1.45,3.608225E-016));
#1100=DIRECTION('',(0.0,0.0,1.0));
#1101=VECTOR('',#1100,0.02);
#1102=LINE('',#1099,#1101);
#1103=EDGE_CURVE('',#1098,#1090,#1102,.T.);
#1104=ORIENTED_EDGE('',*,*,#1103,.F.);
#1105=CARTESIAN_POINT('',(0.603499999999999,-1.45,3.608225E-016));
#1106=DIRECTION('',(1.0,0.0,0.0));
#1107=VECTOR('',#1106,0.813);
#1108=LINE('',#1105,#1107);
#1109=EDGE_CURVE('',#1098,#1067,#1108,.T.);
#1110=ORIENTED_EDGE('',*,*,#1109,.T.);
#1111=ORIENTED_EDGE('',*,*,#1072,.T.);
#1112=EDGE_LOOP('',(#1096,#1104,#1110,#1111));
#1113=FACE_OUTER_BOUND('',#1112,.T.);
#1114=ADVANCED_FACE('',(#1113),#1088,.T.);
#1115=CARTESIAN_POINT('',(0.603499999999999,-1.45,3.608225E-016));
#1116=DIRECTION('',(-1.0,0.0,0.0));
#1117=DIRECTION('',(0.0,0.0,1.0));
#1118=AXIS2_PLACEMENT_3D('',#1115,#1116,#1117);
#1119=PLANE('',#1118);
#1120=CARTESIAN_POINT('',(0.603499999999999,-1.45,0.02));
#1121=DIRECTION('',(0.0,1.0,0.0));
#1122=VECTOR('',#1121,0.5);
#1123=LINE('',#1120,#1122);
#1124=EDGE_CURVE('',#1090,#1019,#1123,.T.);
#1125=ORIENTED_EDGE('',*,*,#1124,.T.);
#1126=ORIENTED_EDGE('',*,*,#1048,.F.);
#1127=CARTESIAN_POINT('',(0.603499999999999,-0.95,3.608225E-016));
#1128=DIRECTION('',(0.0,-1.0,0.0));
#1129=VECTOR('',#1128,0.5);
#1130=LINE('',#1127,#1129);
#1131=EDGE_CURVE('',#1037,#1098,#1130,.T.);
#1132=ORIENTED_EDGE('',*,*,#1131,.T.);
#1133=ORIENTED_EDGE('',*,*,#1103,.T.);
#1134=EDGE_LOOP('',(#1125,#1126,#1132,#1133));
#1135=FACE_OUTER_BOUND('',#1134,.T.);
#1136=ADVANCED_FACE('',(#1135),#1119,.T.);
#1137=CARTESIAN_POINT('',(1.01,-1.2,3.608225E-016));
#1138=DIRECTION('',(0.0,0.0,1.0));
#1139=DIRECTION('',(1.0,0.0,0.0));
#1140=AXIS2_PLACEMENT_3D('',#1137,#1138,#1139);
#1141=PLANE('',#1140);
#1142=ORIENTED_EDGE('',*,*,#1131,.F.);
#1143=ORIENTED_EDGE('',*,*,#1042,.F.);
#1144=ORIENTED_EDGE('',*,*,#1078,.F.);
#1145=ORIENTED_EDGE('',*,*,#1109,.F.);
#1146=EDGE_LOOP('',(#1142,#1143,#1144,#1145));
#1147=FACE_OUTER_BOUND('',#1146,.T.);
#1148=ADVANCED_FACE('',(#1147),#1141,.F.);
#1149=CARTESIAN_POINT('',(1.01,-1.2,0.02));
#1150=DIRECTION('',(0.0,0.0,1.0));
#1151=DIRECTION('',(1.0,0.0,0.0));
#1152=AXIS2_PLACEMENT_3D('',#1149,#1150,#1151);
#1153=PLANE('',#1152);
#1154=ORIENTED_EDGE('',*,*,#1026,.F.);
#1155=ORIENTED_EDGE('',*,*,#1124,.F.);
#1156=ORIENTED_EDGE('',*,*,#1095,.F.);
#1157=ORIENTED_EDGE('',*,*,#1064,.F.);
#1158=EDGE_LOOP('',(#1154,#1155,#1156,#1157));
#1159=FACE_OUTER_BOUND('',#1158,.T.);
#1160=ADVANCED_FACE('',(#1159),#1153,.T.);
#1161=CLOSED_SHELL('',(#1052,#1083,#1114,#1136,#1148,#1160));
#1162=MANIFOLD_SOLID_BREP('2B9B',#1161);
#1163=STYLED_ITEM('NONE',(#254),#1162);
#1164=CARTESIAN_POINT('',(0.603499999999999,-0.15,3.608225E-016));
#1165=DIRECTION('',(0.0,1.0,0.0));
#1166=DIRECTION('',(0.0,0.0,1.0));
#1167=AXIS2_PLACEMENT_3D('',#1164,#1165,#1166);
#1168=PLANE('',#1167);
#1169=CARTESIAN_POINT('',(0.603499999999999,-0.15,0.02));
#1170=VERTEX_POINT('',#1169);
#1171=CARTESIAN_POINT('',(1.416499999999999,-0.15,0.02));
#1172=VERTEX_POINT('',#1171);
#1173=CARTESIAN_POINT('',(0.603499999999999,-0.15,0.02));
#1174=DIRECTION('',(1.0,0.0,0.0));
#1175=VECTOR('',#1174,0.813);
#1176=LINE('',#1173,#1175);
#1177=EDGE_CURVE('',#1170,#1172,#1176,.T.);
#1178=ORIENTED_EDGE('',*,*,#1177,.T.);
#1179=CARTESIAN_POINT('',(1.416499999999999,-0.15,3.608225E-016));
#1180=VERTEX_POINT('',#1179);
#1181=CARTESIAN_POINT('',(1.416499999999999,-0.15,3.608225E-016));
#1182=DIRECTION('',(0.0,0.0,1.0));
#1183=VECTOR('',#1182,0.02);
#1184=LINE('',#1181,#1183);
#1185=EDGE_CURVE('',#1180,#1172,#1184,.T.);
#1186=ORIENTED_EDGE('',*,*,#1185,.F.);
#1187=CARTESIAN_POINT('',(0.603499999999999,-0.15,3.608225E-016));
#1188=VERTEX_POINT('',#1187);
#1189=CARTESIAN_POINT('',(1.416499999999999,-0.15,3.608225E-016));
#1190=DIRECTION('',(-1.0,0.0,0.0));
#1191=VECTOR('',#1190,0.813);
#1192=LINE('',#1189,#1191);
#1193=EDGE_CURVE('',#1180,#1188,#1192,.T.);
#1194=ORIENTED_EDGE('',*,*,#1193,.T.);
#1195=CARTESIAN_POINT('',(0.603499999999999,-0.15,3.608225E-016));
#1196=DIRECTION('',(0.0,0.0,1.0));
#1197=VECTOR('',#1196,0.02);
#1198=LINE('',#1195,#1197);
#1199=EDGE_CURVE('',#1188,#1170,#1198,.T.);
#1200=ORIENTED_EDGE('',*,*,#1199,.T.);
#1201=EDGE_LOOP('',(#1178,#1186,#1194,#1200));
#1202=FACE_OUTER_BOUND('',#1201,.T.);
#1203=ADVANCED_FACE('',(#1202),#1168,.T.);
#1204=CARTESIAN_POINT('',(1.416499999999999,-0.15,3.608225E-016));
#1205=DIRECTION('',(1.0,0.0,0.0));
#1206=DIRECTION('',(0.0,0.0,-1.0));
#1207=AXIS2_PLACEMENT_3D('',#1204,#1205,#1206);
#1208=PLANE('',#1207);
#1209=CARTESIAN_POINT('',(1.416499999999999,-0.65,0.02));
#1210=VERTEX_POINT('',#1209);
#1211=CARTESIAN_POINT('',(1.416499999999999,-0.15,0.02));
#1212=DIRECTION('',(0.0,-1.0,0.0));
#1213=VECTOR('',#1212,0.5);
#1214=LINE('',#1211,#1213);
#1215=EDGE_CURVE('',#1172,#1210,#1214,.T.);
#1216=ORIENTED_EDGE('',*,*,#1215,.T.);
#1217=CARTESIAN_POINT('',(1.416499999999999,-0.65,3.608225E-016));
#1218=VERTEX_POINT('',#1217);
#1219=CARTESIAN_POINT('',(1.416499999999999,-0.65,3.608225E-016));
#1220=DIRECTION('',(0.0,0.0,1.0));
#1221=VECTOR('',#1220,0.02);
#1222=LINE('',#1219,#1221);
#1223=EDGE_CURVE('',#1218,#1210,#1222,.T.);
#1224=ORIENTED_EDGE('',*,*,#1223,.F.);
#1225=CARTESIAN_POINT('',(1.416499999999999,-0.65,3.608225E-016));
#1226=DIRECTION('',(0.0,1.0,0.0));
#1227=VECTOR('',#1226,0.5);
#1228=LINE('',#1225,#1227);
#1229=EDGE_CURVE('',#1218,#1180,#1228,.T.);
#1230=ORIENTED_EDGE('',*,*,#1229,.T.);
#1231=ORIENTED_EDGE('',*,*,#1185,.T.);
#1232=EDGE_LOOP('',(#1216,#1224,#1230,#1231));
#1233=FACE_OUTER_BOUND('',#1232,.T.);
#1234=ADVANCED_FACE('',(#1233),#1208,.T.);
#1235=CARTESIAN_POINT('',(1.416499999999999,-0.65,3.608225E-016));
#1236=DIRECTION('',(0.0,-1.0,0.0));
#1237=DIRECTION('',(0.0,0.0,-1.0));
#1238=AXIS2_PLACEMENT_3D('',#1235,#1236,#1237);
#1239=PLANE('',#1238);
#1240=CARTESIAN_POINT('',(0.603499999999999,-0.65,0.02));
#1241=VERTEX_POINT('',#1240);
#1242=CARTESIAN_POINT('',(1.416499999999999,-0.65,0.02));
#1243=DIRECTION('',(-1.0,0.0,0.0));
#1244=VECTOR('',#1243,0.813);
#1245=LINE('',#1242,#1244);
#1246=EDGE_CURVE('',#1210,#1241,#1245,.T.);
#1247=ORIENTED_EDGE('',*,*,#1246,.T.);
#1248=CARTESIAN_POINT('',(0.603499999999999,-0.65,3.608225E-016));
#1249=VERTEX_POINT('',#1248);
#1250=CARTESIAN_POINT('',(0.603499999999999,-0.65,3.608225E-016));
#1251=DIRECTION('',(0.0,0.0,1.0));
#1252=VECTOR('',#1251,0.02);
#1253=LINE('',#1250,#1252);
#1254=EDGE_CURVE('',#1249,#1241,#1253,.T.);
#1255=ORIENTED_EDGE('',*,*,#1254,.F.);
#1256=CARTESIAN_POINT('',(0.603499999999999,-0.65,3.608225E-016));
#1257=DIRECTION('',(1.0,0.0,0.0));
#1258=VECTOR('',#1257,0.813);
#1259=LINE('',#1256,#1258);
#1260=EDGE_CURVE('',#1249,#1218,#1259,.T.);
#1261=ORIENTED_EDGE('',*,*,#1260,.T.);
#1262=ORIENTED_EDGE('',*,*,#1223,.T.);
#1263=EDGE_LOOP('',(#1247,#1255,#1261,#1262));
#1264=FACE_OUTER_BOUND('',#1263,.T.);
#1265=ADVANCED_FACE('',(#1264),#1239,.T.);
#1266=CARTESIAN_POINT('',(0.603499999999999,-0.65,3.608225E-016));
#1267=DIRECTION('',(-1.0,0.0,0.0));
#1268=DIRECTION('',(0.0,0.0,1.0));
#1269=AXIS2_PLACEMENT_3D('',#1266,#1267,#1268);
#1270=PLANE('',#1269);
#1271=CARTESIAN_POINT('',(0.603499999999999,-0.65,0.02));
#1272=DIRECTION('',(0.0,1.0,0.0));
#1273=VECTOR('',#1272,0.5);
#1274=LINE('',#1271,#1273);
#1275=EDGE_CURVE('',#1241,#1170,#1274,.T.);
#1276=ORIENTED_EDGE('',*,*,#1275,.T.);
#1277=ORIENTED_EDGE('',*,*,#1199,.F.);
#1278=CARTESIAN_POINT('',(0.603499999999999,-0.15,3.608225E-016));
#1279=DIRECTION('',(0.0,-1.0,0.0));
#1280=VECTOR('',#1279,0.5);
#1281=LINE('',#1278,#1280);
#1282=EDGE_CURVE('',#1188,#1249,#1281,.T.);
#1283=ORIENTED_EDGE('',*,*,#1282,.T.);
#1284=ORIENTED_EDGE('',*,*,#1254,.T.);
#1285=EDGE_LOOP('',(#1276,#1277,#1283,#1284));
#1286=FACE_OUTER_BOUND('',#1285,.T.);
#1287=ADVANCED_FACE('',(#1286),#1270,.T.);
#1288=CARTESIAN_POINT('',(1.01,-0.4,3.608225E-016));
#1289=DIRECTION('',(0.0,0.0,1.0));
#1290=DIRECTION('',(1.0,0.0,0.0));
#1291=AXIS2_PLACEMENT_3D('',#1288,#1289,#1290);
#1292=PLANE('',#1291);
#1293=ORIENTED_EDGE('',*,*,#1282,.F.);
#1294=ORIENTED_EDGE('',*,*,#1193,.F.);
#1295=ORIENTED_EDGE('',*,*,#1229,.F.);
#1296=ORIENTED_EDGE('',*,*,#1260,.F.);
#1297=EDGE_LOOP('',(#1293,#1294,#1295,#1296));
#1298=FACE_OUTER_BOUND('',#1297,.T.);
#1299=ADVANCED_FACE('',(#1298),#1292,.F.);
#1300=CARTESIAN_POINT('',(1.01,-0.4,0.02));
#1301=DIRECTION('',(0.0,0.0,1.0));
#1302=DIRECTION('',(1.0,0.0,0.0));
#1303=AXIS2_PLACEMENT_3D('',#1300,#1301,#1302);
#1304=PLANE('',#1303);
#1305=ORIENTED_EDGE('',*,*,#1177,.F.);
#1306=ORIENTED_EDGE('',*,*,#1275,.F.);
#1307=ORIENTED_EDGE('',*,*,#1246,.F.);
#1308=ORIENTED_EDGE('',*,*,#1215,.F.);
#1309=EDGE_LOOP('',(#1305,#1306,#1307,#1308));
#1310=FACE_OUTER_BOUND('',#1309,.T.);
#1311=ADVANCED_FACE('',(#1310),#1304,.T.);
#1312=CLOSED_SHELL('',(#1203,#1234,#1265,#1287,#1299,#1311));
#1313=MANIFOLD_SOLID_BREP('2B94',#1312);
#1314=STYLED_ITEM('NONE',(#254),#1313);
#1315=CARTESIAN_POINT('',(0.603499999999999,0.65,3.608225E-016));
#1316=DIRECTION('',(0.0,1.0,0.0));
#1317=DIRECTION('',(0.0,0.0,1.0));
#1318=AXIS2_PLACEMENT_3D('',#1315,#1316,#1317);
#1319=PLANE('',#1318);
#1320=CARTESIAN_POINT('',(0.603499999999999,0.65,0.02));
#1321=VERTEX_POINT('',#1320);
#1322=CARTESIAN_POINT('',(1.416499999999999,0.65,0.02));
#1323=VERTEX_POINT('',#1322);
#1324=CARTESIAN_POINT('',(0.603499999999999,0.65,0.02));
#1325=DIRECTION('',(1.0,0.0,0.0));
#1326=VECTOR('',#1325,0.813);
#1327=LINE('',#1324,#1326);
#1328=EDGE_CURVE('',#1321,#1323,#1327,.T.);
#1329=ORIENTED_EDGE('',*,*,#1328,.T.);
#1330=CARTESIAN_POINT('',(1.416499999999999,0.65,3.608225E-016));
#1331=VERTEX_POINT('',#1330);
#1332=CARTESIAN_POINT('',(1.416499999999999,0.65,3.608225E-016));
#1333=DIRECTION('',(0.0,0.0,1.0));
#1334=VECTOR('',#1333,0.02);
#1335=LINE('',#1332,#1334);
#1336=EDGE_CURVE('',#1331,#1323,#1335,.T.);
#1337=ORIENTED_EDGE('',*,*,#1336,.F.);
#1338=CARTESIAN_POINT('',(0.603499999999999,0.65,3.608225E-016));
#1339=VERTEX_POINT('',#1338);
#1340=CARTESIAN_POINT('',(1.416499999999999,0.65,3.608225E-016));
#1341=DIRECTION('',(-1.0,0.0,0.0));
#1342=VECTOR('',#1341,0.813);
#1343=LINE('',#1340,#1342);
#1344=EDGE_CURVE('',#1331,#1339,#1343,.T.);
#1345=ORIENTED_EDGE('',*,*,#1344,.T.);
#1346=CARTESIAN_POINT('',(0.603499999999999,0.65,3.608225E-016));
#1347=DIRECTION('',(0.0,0.0,1.0));
#1348=VECTOR('',#1347,0.02);
#1349=LINE('',#1346,#1348);
#1350=EDGE_CURVE('',#1339,#1321,#1349,.T.);
#1351=ORIENTED_EDGE('',*,*,#1350,.T.);
#1352=EDGE_LOOP('',(#1329,#1337,#1345,#1351));
#1353=FACE_OUTER_BOUND('',#1352,.T.);
#1354=ADVANCED_FACE('',(#1353),#1319,.T.);
#1355=CARTESIAN_POINT('',(1.416499999999999,0.65,3.608225E-016));
#1356=DIRECTION('',(1.0,0.0,0.0));
#1357=DIRECTION('',(0.0,0.0,-1.0));
#1358=AXIS2_PLACEMENT_3D('',#1355,#1356,#1357);
#1359=PLANE('',#1358);
#1360=CARTESIAN_POINT('',(1.416499999999999,0.15,0.02));
#1361=VERTEX_POINT('',#1360);
#1362=CARTESIAN_POINT('',(1.416499999999999,0.65,0.02));
#1363=DIRECTION('',(0.0,-1.0,0.0));
#1364=VECTOR('',#1363,0.5);
#1365=LINE('',#1362,#1364);
#1366=EDGE_CURVE('',#1323,#1361,#1365,.T.);
#1367=ORIENTED_EDGE('',*,*,#1366,.T.);
#1368=CARTESIAN_POINT('',(1.416499999999999,0.15,3.608225E-016));
#1369=VERTEX_POINT('',#1368);
#1370=CARTESIAN_POINT('',(1.416499999999999,0.15,3.608225E-016));
#1371=DIRECTION('',(0.0,0.0,1.0));
#1372=VECTOR('',#1371,0.02);
#1373=LINE('',#1370,#1372);
#1374=EDGE_CURVE('',#1369,#1361,#1373,.T.);
#1375=ORIENTED_EDGE('',*,*,#1374,.F.);
#1376=CARTESIAN_POINT('',(1.416499999999999,0.15,3.608225E-016));
#1377=DIRECTION('',(0.0,1.0,0.0));
#1378=VECTOR('',#1377,0.5);
#1379=LINE('',#1376,#1378);
#1380=EDGE_CURVE('',#1369,#1331,#1379,.T.);
#1381=ORIENTED_EDGE('',*,*,#1380,.T.);
#1382=ORIENTED_EDGE('',*,*,#1336,.T.);
#1383=EDGE_LOOP('',(#1367,#1375,#1381,#1382));
#1384=FACE_OUTER_BOUND('',#1383,.T.);
#1385=ADVANCED_FACE('',(#1384),#1359,.T.);
#1386=CARTESIAN_POINT('',(1.416499999999999,0.15,3.608225E-016));
#1387=DIRECTION('',(0.0,-1.0,0.0));
#1388=DIRECTION('',(0.0,0.0,-1.0));
#1389=AXIS2_PLACEMENT_3D('',#1386,#1387,#1388);
#1390=PLANE('',#1389);
#1391=CARTESIAN_POINT('',(0.603499999999999,0.15,0.02));
#1392=VERTEX_POINT('',#1391);
#1393=CARTESIAN_POINT('',(1.416499999999999,0.15,0.02));
#1394=DIRECTION('',(-1.0,0.0,0.0));
#1395=VECTOR('',#1394,0.813);
#1396=LINE('',#1393,#1395);
#1397=EDGE_CURVE('',#1361,#1392,#1396,.T.);
#1398=ORIENTED_EDGE('',*,*,#1397,.T.);
#1399=CARTESIAN_POINT('',(0.603499999999999,0.15,3.608225E-016));
#1400=VERTEX_POINT('',#1399);
#1401=CARTESIAN_POINT('',(0.603499999999999,0.15,3.608225E-016));
#1402=DIRECTION('',(0.0,0.0,1.0));
#1403=VECTOR('',#1402,0.02);
#1404=LINE('',#1401,#1403);
#1405=EDGE_CURVE('',#1400,#1392,#1404,.T.);
#1406=ORIENTED_EDGE('',*,*,#1405,.F.);
#1407=CARTESIAN_POINT('',(0.603499999999999,0.15,3.608225E-016));
#1408=DIRECTION('',(1.0,0.0,0.0));
#1409=VECTOR('',#1408,0.813);
#1410=LINE('',#1407,#1409);
#1411=EDGE_CURVE('',#1400,#1369,#1410,.T.);
#1412=ORIENTED_EDGE('',*,*,#1411,.T.);
#1413=ORIENTED_EDGE('',*,*,#1374,.T.);
#1414=EDGE_LOOP('',(#1398,#1406,#1412,#1413));
#1415=FACE_OUTER_BOUND('',#1414,.T.);
#1416=ADVANCED_FACE('',(#1415),#1390,.T.);
#1417=CARTESIAN_POINT('',(0.603499999999999,0.15,3.608225E-016));
#1418=DIRECTION('',(-1.0,0.0,0.0));
#1419=DIRECTION('',(0.0,0.0,1.0));
#1420=AXIS2_PLACEMENT_3D('',#1417,#1418,#1419);
#1421=PLANE('',#1420);
#1422=CARTESIAN_POINT('',(0.603499999999999,0.15,0.02));
#1423=DIRECTION('',(0.0,1.0,0.0));
#1424=VECTOR('',#1423,0.5);
#1425=LINE('',#1422,#1424);
#1426=EDGE_CURVE('',#1392,#1321,#1425,.T.);
#1427=ORIENTED_EDGE('',*,*,#1426,.T.);
#1428=ORIENTED_EDGE('',*,*,#1350,.F.);
#1429=CARTESIAN_POINT('',(0.603499999999999,0.65,3.608225E-016));
#1430=DIRECTION('',(0.0,-1.0,0.0));
#1431=VECTOR('',#1430,0.5);
#1432=LINE('',#1429,#1431);
#1433=EDGE_CURVE('',#1339,#1400,#1432,.T.);
#1434=ORIENTED_EDGE('',*,*,#1433,.T.);
#1435=ORIENTED_EDGE('',*,*,#1405,.T.);
#1436=EDGE_LOOP('',(#1427,#1428,#1434,#1435));
#1437=FACE_OUTER_BOUND('',#1436,.T.);
#1438=ADVANCED_FACE('',(#1437),#1421,.T.);
#1439=CARTESIAN_POINT('',(1.01,0.4,3.608225E-016));
#1440=DIRECTION('',(0.0,0.0,1.0));
#1441=DIRECTION('',(1.0,0.0,0.0));
#1442=AXIS2_PLACEMENT_3D('',#1439,#1440,#1441);
#1443=PLANE('',#1442);
#1444=ORIENTED_EDGE('',*,*,#1433,.F.);
#1445=ORIENTED_EDGE('',*,*,#1344,.F.);
#1446=ORIENTED_EDGE('',*,*,#1380,.F.);
#1447=ORIENTED_EDGE('',*,*,#1411,.F.);
#1448=EDGE_LOOP('',(#1444,#1445,#1446,#1447));
#1449=FACE_OUTER_BOUND('',#1448,.T.);
#1450=ADVANCED_FACE('',(#1449),#1443,.F.);
#1451=CARTESIAN_POINT('',(1.01,0.4,0.02));
#1452=DIRECTION('',(0.0,0.0,1.0));
#1453=DIRECTION('',(1.0,0.0,0.0));
#1454=AXIS2_PLACEMENT_3D('',#1451,#1452,#1453);
#1455=PLANE('',#1454);
#1456=ORIENTED_EDGE('',*,*,#1328,.F.);
#1457=ORIENTED_EDGE('',*,*,#1426,.F.);
#1458=ORIENTED_EDGE('',*,*,#1397,.F.);
#1459=ORIENTED_EDGE('',*,*,#1366,.F.);
#1460=EDGE_LOOP('',(#1456,#1457,#1458,#1459));
#1461=FACE_OUTER_BOUND('',#1460,.T.);
#1462=ADVANCED_FACE('',(#1461),#1455,.T.);
#1463=CLOSED_SHELL('',(#1354,#1385,#1416,#1438,#1450,#1462));
#1464=MANIFOLD_SOLID_BREP('2B8D',#1463);
#1465=STYLED_ITEM('NONE',(#254),#1464);
#1466=CARTESIAN_POINT('',(-1.4165,1.45,0.0));
#1467=DIRECTION('',(0.0,1.0,0.0));
#1468=DIRECTION('',(0.0,0.0,1.0));
#1469=AXIS2_PLACEMENT_3D('',#1466,#1467,#1468);
#1470=PLANE('',#1469);
#1471=CARTESIAN_POINT('',(-1.4165,1.45,0.02));
#1472=VERTEX_POINT('',#1471);
#1473=CARTESIAN_POINT('',(-0.6035,1.45,0.02));
#1474=VERTEX_POINT('',#1473);
#1475=CARTESIAN_POINT('',(-1.4165,1.45,0.02));
#1476=DIRECTION('',(1.0,0.0,0.0));
#1477=VECTOR('',#1476,0.813);
#1478=LINE('',#1475,#1477);
#1479=EDGE_CURVE('',#1472,#1474,#1478,.T.);
#1480=ORIENTED_EDGE('',*,*,#1479,.T.);
#1481=CARTESIAN_POINT('',(-0.6035,1.45,0.0));
#1482=VERTEX_POINT('',#1481);
#1483=CARTESIAN_POINT('',(-0.6035,1.45,0.0));
#1484=DIRECTION('',(0.0,0.0,1.0));
#1485=VECTOR('',#1484,0.02);
#1486=LINE('',#1483,#1485);
#1487=EDGE_CURVE('',#1482,#1474,#1486,.T.);
#1488=ORIENTED_EDGE('',*,*,#1487,.F.);
#1489=CARTESIAN_POINT('',(-1.4165,1.45,0.0));
#1490=VERTEX_POINT('',#1489);
#1491=CARTESIAN_POINT('',(-0.6035,1.45,0.0));
#1492=DIRECTION('',(-1.0,0.0,0.0));
#1493=VECTOR('',#1492,0.813);
#1494=LINE('',#1491,#1493);
#1495=EDGE_CURVE('',#1482,#1490,#1494,.T.);
#1496=ORIENTED_EDGE('',*,*,#1495,.T.);
#1497=CARTESIAN_POINT('',(-1.4165,1.45,0.0));
#1498=DIRECTION('',(0.0,0.0,1.0));
#1499=VECTOR('',#1498,0.02);
#1500=LINE('',#1497,#1499);
#1501=EDGE_CURVE('',#1490,#1472,#1500,.T.);
#1502=ORIENTED_EDGE('',*,*,#1501,.T.);
#1503=EDGE_LOOP('',(#1480,#1488,#1496,#1502));
#1504=FACE_OUTER_BOUND('',#1503,.T.);
#1505=ADVANCED_FACE('',(#1504),#1470,.T.);
#1506=CARTESIAN_POINT('',(-0.6035,1.45,0.0));
#1507=DIRECTION('',(1.0,0.0,0.0));
#1508=DIRECTION('',(0.0,0.0,-1.0));
#1509=AXIS2_PLACEMENT_3D('',#1506,#1507,#1508);
#1510=PLANE('',#1509);
#1511=CARTESIAN_POINT('',(-0.6035,0.95,0.02));
#1512=VERTEX_POINT('',#1511);
#1513=CARTESIAN_POINT('',(-0.6035,1.45,0.02));
#1514=DIRECTION('',(0.0,-1.0,0.0));
#1515=VECTOR('',#1514,0.5);
#1516=LINE('',#1513,#1515);
#1517=EDGE_CURVE('',#1474,#1512,#1516,.T.);
#1518=ORIENTED_EDGE('',*,*,#1517,.T.);
#1519=CARTESIAN_POINT('',(-0.6035,0.95,0.0));
#1520=VERTEX_POINT('',#1519);
#1521=CARTESIAN_POINT('',(-0.6035,0.95,0.0));
#1522=DIRECTION('',(0.0,0.0,1.0));
#1523=VECTOR('',#1522,0.02);
#1524=LINE('',#1521,#1523);
#1525=EDGE_CURVE('',#1520,#1512,#1524,.T.);
#1526=ORIENTED_EDGE('',*,*,#1525,.F.);
#1527=CARTESIAN_POINT('',(-0.6035,0.95,0.0));
#1528=DIRECTION('',(0.0,1.0,0.0));
#1529=VECTOR('',#1528,0.5);
#1530=LINE('',#1527,#1529);
#1531=EDGE_CURVE('',#1520,#1482,#1530,.T.);
#1532=ORIENTED_EDGE('',*,*,#1531,.T.);
#1533=ORIENTED_EDGE('',*,*,#1487,.T.);
#1534=EDGE_LOOP('',(#1518,#1526,#1532,#1533));
#1535=FACE_OUTER_BOUND('',#1534,.T.);
#1536=ADVANCED_FACE('',(#1535),#1510,.T.);
#1537=CARTESIAN_POINT('',(-0.6035,0.95,0.0));
#1538=DIRECTION('',(0.0,-1.0,0.0));
#1539=DIRECTION('',(0.0,0.0,-1.0));
#1540=AXIS2_PLACEMENT_3D('',#1537,#1538,#1539);
#1541=PLANE('',#1540);
#1542=CARTESIAN_POINT('',(-1.4165,0.95,0.02));
#1543=VERTEX_POINT('',#1542);
#1544=CARTESIAN_POINT('',(-0.6035,0.95,0.02));
#1545=DIRECTION('',(-1.0,0.0,0.0));
#1546=VECTOR('',#1545,0.813);
#1547=LINE('',#1544,#1546);
#1548=EDGE_CURVE('',#1512,#1543,#1547,.T.);
#1549=ORIENTED_EDGE('',*,*,#1548,.T.);
#1550=CARTESIAN_POINT('',(-1.4165,0.95,0.0));
#1551=VERTEX_POINT('',#1550);
#1552=CARTESIAN_POINT('',(-1.4165,0.95,0.0));
#1553=DIRECTION('',(0.0,0.0,1.0));
#1554=VECTOR('',#1553,0.02);
#1555=LINE('',#1552,#1554);
#1556=EDGE_CURVE('',#1551,#1543,#1555,.T.);
#1557=ORIENTED_EDGE('',*,*,#1556,.F.);
#1558=CARTESIAN_POINT('',(-1.4165,0.95,0.0));
#1559=DIRECTION('',(1.0,0.0,0.0));
#1560=VECTOR('',#1559,0.813);
#1561=LINE('',#1558,#1560);
#1562=EDGE_CURVE('',#1551,#1520,#1561,.T.);
#1563=ORIENTED_EDGE('',*,*,#1562,.T.);
#1564=ORIENTED_EDGE('',*,*,#1525,.T.);
#1565=EDGE_LOOP('',(#1549,#1557,#1563,#1564));
#1566=FACE_OUTER_BOUND('',#1565,.T.);
#1567=ADVANCED_FACE('',(#1566),#1541,.T.);
#1568=CARTESIAN_POINT('',(-1.4165,0.95,0.0));
#1569=DIRECTION('',(-1.0,0.0,0.0));
#1570=DIRECTION('',(0.0,0.0,1.0));
#1571=AXIS2_PLACEMENT_3D('',#1568,#1569,#1570);
#1572=PLANE('',#1571);
#1573=CARTESIAN_POINT('',(-1.4165,0.95,0.02));
#1574=DIRECTION('',(0.0,1.0,0.0));
#1575=VECTOR('',#1574,0.5);
#1576=LINE('',#1573,#1575);
#1577=EDGE_CURVE('',#1543,#1472,#1576,.T.);
#1578=ORIENTED_EDGE('',*,*,#1577,.T.);
#1579=ORIENTED_EDGE('',*,*,#1501,.F.);
#1580=CARTESIAN_POINT('',(-1.4165,1.45,0.0));
#1581=DIRECTION('',(0.0,-1.0,0.0));
#1582=VECTOR('',#1581,0.5);
#1583=LINE('',#1580,#1582);
#1584=EDGE_CURVE('',#1490,#1551,#1583,.T.);
#1585=ORIENTED_EDGE('',*,*,#1584,.T.);
#1586=ORIENTED_EDGE('',*,*,#1556,.T.);
#1587=EDGE_LOOP('',(#1578,#1579,#1585,#1586));
#1588=FACE_OUTER_BOUND('',#1587,.T.);
#1589=ADVANCED_FACE('',(#1588),#1572,.T.);
#1590=CARTESIAN_POINT('',(-1.01,1.2,0.0));
#1591=DIRECTION('',(0.0,0.0,1.0));
#1592=DIRECTION('',(1.0,0.0,0.0));
#1593=AXIS2_PLACEMENT_3D('',#1590,#1591,#1592);
#1594=PLANE('',#1593);
#1595=ORIENTED_EDGE('',*,*,#1584,.F.);
#1596=ORIENTED_EDGE('',*,*,#1495,.F.);
#1597=ORIENTED_EDGE('',*,*,#1531,.F.);
#1598=ORIENTED_EDGE('',*,*,#1562,.F.);
#1599=EDGE_LOOP('',(#1595,#1596,#1597,#1598));
#1600=FACE_OUTER_BOUND('',#1599,.T.);
#1601=ADVANCED_FACE('',(#1600),#1594,.F.);
#1602=CARTESIAN_POINT('',(-1.01,1.2,0.02));
#1603=DIRECTION('',(0.0,0.0,1.0));
#1604=DIRECTION('',(1.0,0.0,0.0));
#1605=AXIS2_PLACEMENT_3D('',#1602,#1603,#1604);
#1606=PLANE('',#1605);
#1607=ORIENTED_EDGE('',*,*,#1479,.F.);
#1608=ORIENTED_EDGE('',*,*,#1577,.F.);
#1609=ORIENTED_EDGE('',*,*,#1548,.F.);
#1610=ORIENTED_EDGE('',*,*,#1517,.F.);
#1611=EDGE_LOOP('',(#1607,#1608,#1609,#1610));
#1612=FACE_OUTER_BOUND('',#1611,.T.);
#1613=ADVANCED_FACE('',(#1612),#1606,.T.);
#1614=CLOSED_SHELL('',(#1505,#1536,#1567,#1589,#1601,#1613));
#1615=MANIFOLD_SOLID_BREP('2B7F',#1614);
#1616=STYLED_ITEM('NONE',(#254),#1615);
#1617=CARTESIAN_POINT('',(-1.4165,-1.75,0.0));
#1618=DIRECTION('',(0.0,1.0,0.0));
#1619=DIRECTION('',(0.0,0.0,1.0));
#1620=AXIS2_PLACEMENT_3D('',#1617,#1618,#1619);
#1621=PLANE('',#1620);
#1622=CARTESIAN_POINT('',(-1.4165,-1.75,0.02));
#1623=VERTEX_POINT('',#1622);
#1624=CARTESIAN_POINT('',(-0.6035,-1.75,0.02));
#1625=VERTEX_POINT('',#1624);
#1626=CARTESIAN_POINT('',(-1.4165,-1.75,0.02));
#1627=DIRECTION('',(1.0,0.0,0.0));
#1628=VECTOR('',#1627,0.813);
#1629=LINE('',#1626,#1628);
#1630=EDGE_CURVE('',#1623,#1625,#1629,.T.);
#1631=ORIENTED_EDGE('',*,*,#1630,.T.);
#1632=CARTESIAN_POINT('',(-0.6035,-1.75,0.0));
#1633=VERTEX_POINT('',#1632);
#1634=CARTESIAN_POINT('',(-0.6035,-1.75,0.0));
#1635=DIRECTION('',(0.0,0.0,1.0));
#1636=VECTOR('',#1635,0.02);
#1637=LINE('',#1634,#1636);
#1638=EDGE_CURVE('',#1633,#1625,#1637,.T.);
#1639=ORIENTED_EDGE('',*,*,#1638,.F.);
#1640=CARTESIAN_POINT('',(-1.4165,-1.75,0.0));
#1641=VERTEX_POINT('',#1640);
#1642=CARTESIAN_POINT('',(-0.6035,-1.75,0.0));
#1643=DIRECTION('',(-1.0,0.0,0.0));
#1644=VECTOR('',#1643,0.813);
#1645=LINE('',#1642,#1644);
#1646=EDGE_CURVE('',#1633,#1641,#1645,.T.);
#1647=ORIENTED_EDGE('',*,*,#1646,.T.);
#1648=CARTESIAN_POINT('',(-1.4165,-1.75,0.0));
#1649=DIRECTION('',(0.0,0.0,1.0));
#1650=VECTOR('',#1649,0.02);
#1651=LINE('',#1648,#1650);
#1652=EDGE_CURVE('',#1641,#1623,#1651,.T.);
#1653=ORIENTED_EDGE('',*,*,#1652,.T.);
#1654=EDGE_LOOP('',(#1631,#1639,#1647,#1653));
#1655=FACE_OUTER_BOUND('',#1654,.T.);
#1656=ADVANCED_FACE('',(#1655),#1621,.T.);
#1657=CARTESIAN_POINT('',(-0.6035,-1.75,0.0));
#1658=DIRECTION('',(1.0,0.0,0.0));
#1659=DIRECTION('',(0.0,0.0,-1.0));
#1660=AXIS2_PLACEMENT_3D('',#1657,#1658,#1659);
#1661=PLANE('',#1660);
#1662=CARTESIAN_POINT('',(-0.6035,-2.25,0.02));
#1663=VERTEX_POINT('',#1662);
#1664=CARTESIAN_POINT('',(-0.6035,-1.75,0.02));
#1665=DIRECTION('',(0.0,-1.0,0.0));
#1666=VECTOR('',#1665,0.5);
#1667=LINE('',#1664,#1666);
#1668=EDGE_CURVE('',#1625,#1663,#1667,.T.);
#1669=ORIENTED_EDGE('',*,*,#1668,.T.);
#1670=CARTESIAN_POINT('',(-0.6035,-2.25,0.0));
#1671=VERTEX_POINT('',#1670);
#1672=CARTESIAN_POINT('',(-0.6035,-2.25,0.0));
#1673=DIRECTION('',(0.0,0.0,1.0));
#1674=VECTOR('',#1673,0.02);
#1675=LINE('',#1672,#1674);
#1676=EDGE_CURVE('',#1671,#1663,#1675,.T.);
#1677=ORIENTED_EDGE('',*,*,#1676,.F.);
#1678=CARTESIAN_POINT('',(-0.6035,-2.25,0.0));
#1679=DIRECTION('',(0.0,1.0,0.0));
#1680=VECTOR('',#1679,0.5);
#1681=LINE('',#1678,#1680);
#1682=EDGE_CURVE('',#1671,#1633,#1681,.T.);
#1683=ORIENTED_EDGE('',*,*,#1682,.T.);
#1684=ORIENTED_EDGE('',*,*,#1638,.T.);
#1685=EDGE_LOOP('',(#1669,#1677,#1683,#1684));
#1686=FACE_OUTER_BOUND('',#1685,.T.);
#1687=ADVANCED_FACE('',(#1686),#1661,.T.);
#1688=CARTESIAN_POINT('',(-0.6035,-2.25,0.0));
#1689=DIRECTION('',(0.0,-1.0,0.0));
#1690=DIRECTION('',(0.0,0.0,-1.0));
#1691=AXIS2_PLACEMENT_3D('',#1688,#1689,#1690);
#1692=PLANE('',#1691);
#1693=CARTESIAN_POINT('',(-1.4165,-2.25,0.02));
#1694=VERTEX_POINT('',#1693);
#1695=CARTESIAN_POINT('',(-0.6035,-2.25,0.02));
#1696=DIRECTION('',(-1.0,0.0,0.0));
#1697=VECTOR('',#1696,0.813);
#1698=LINE('',#1695,#1697);
#1699=EDGE_CURVE('',#1663,#1694,#1698,.T.);
#1700=ORIENTED_EDGE('',*,*,#1699,.T.);
#1701=CARTESIAN_POINT('',(-1.4165,-2.25,0.0));
#1702=VERTEX_POINT('',#1701);
#1703=CARTESIAN_POINT('',(-1.4165,-2.25,0.0));
#1704=DIRECTION('',(0.0,0.0,1.0));
#1705=VECTOR('',#1704,0.02);
#1706=LINE('',#1703,#1705);
#1707=EDGE_CURVE('',#1702,#1694,#1706,.T.);
#1708=ORIENTED_EDGE('',*,*,#1707,.F.);
#1709=CARTESIAN_POINT('',(-1.4165,-2.25,0.0));
#1710=DIRECTION('',(1.0,0.0,0.0));
#1711=VECTOR('',#1710,0.813);
#1712=LINE('',#1709,#1711);
#1713=EDGE_CURVE('',#1702,#1671,#1712,.T.);
#1714=ORIENTED_EDGE('',*,*,#1713,.T.);
#1715=ORIENTED_EDGE('',*,*,#1676,.T.);
#1716=EDGE_LOOP('',(#1700,#1708,#1714,#1715));
#1717=FACE_OUTER_BOUND('',#1716,.T.);
#1718=ADVANCED_FACE('',(#1717),#1692,.T.);
#1719=CARTESIAN_POINT('',(-1.4165,-2.25,0.0));
#1720=DIRECTION('',(-1.0,0.0,0.0));
#1721=DIRECTION('',(0.0,0.0,1.0));
#1722=AXIS2_PLACEMENT_3D('',#1719,#1720,#1721);
#1723=PLANE('',#1722);
#1724=CARTESIAN_POINT('',(-1.4165,-2.25,0.02));
#1725=DIRECTION('',(0.0,1.0,0.0));
#1726=VECTOR('',#1725,0.5);
#1727=LINE('',#1724,#1726);
#1728=EDGE_CURVE('',#1694,#1623,#1727,.T.);
#1729=ORIENTED_EDGE('',*,*,#1728,.T.);
#1730=ORIENTED_EDGE('',*,*,#1652,.F.);
#1731=CARTESIAN_POINT('',(-1.4165,-1.75,0.0));
#1732=DIRECTION('',(0.0,-1.0,0.0));
#1733=VECTOR('',#1732,0.5);
#1734=LINE('',#1731,#1733);
#1735=EDGE_CURVE('',#1641,#1702,#1734,.T.);
#1736=ORIENTED_EDGE('',*,*,#1735,.T.);
#1737=ORIENTED_EDGE('',*,*,#1707,.T.);
#1738=EDGE_LOOP('',(#1729,#1730,#1736,#1737));
#1739=FACE_OUTER_BOUND('',#1738,.T.);
#1740=ADVANCED_FACE('',(#1739),#1723,.T.);
#1741=CARTESIAN_POINT('',(-1.01,-2.0,0.0));
#1742=DIRECTION('',(0.0,0.0,1.0));
#1743=DIRECTION('',(1.0,0.0,0.0));
#1744=AXIS2_PLACEMENT_3D('',#1741,#1742,#1743);
#1745=PLANE('',#1744);
#1746=ORIENTED_EDGE('',*,*,#1735,.F.);
#1747=ORIENTED_EDGE('',*,*,#1646,.F.);
#1748=ORIENTED_EDGE('',*,*,#1682,.F.);
#1749=ORIENTED_EDGE('',*,*,#1713,.F.);
#1750=EDGE_LOOP('',(#1746,#1747,#1748,#1749));
#1751=FACE_OUTER_BOUND('',#1750,.T.);
#1752=ADVANCED_FACE('',(#1751),#1745,.F.);
#1753=CARTESIAN_POINT('',(-1.01,-2.0,0.02));
#1754=DIRECTION('',(0.0,0.0,1.0));
#1755=DIRECTION('',(1.0,0.0,0.0));
#1756=AXIS2_PLACEMENT_3D('',#1753,#1754,#1755);
#1757=PLANE('',#1756);
#1758=ORIENTED_EDGE('',*,*,#1630,.F.);
#1759=ORIENTED_EDGE('',*,*,#1728,.F.);
#1760=ORIENTED_EDGE('',*,*,#1699,.F.);
#1761=ORIENTED_EDGE('',*,*,#1668,.F.);
#1762=EDGE_LOOP('',(#1758,#1759,#1760,#1761));
#1763=FACE_OUTER_BOUND('',#1762,.T.);
#1764=ADVANCED_FACE('',(#1763),#1757,.T.);
#1765=CLOSED_SHELL('',(#1656,#1687,#1718,#1740,#1752,#1764));
#1766=MANIFOLD_SOLID_BREP('2B78',#1765);
#1767=STYLED_ITEM('NONE',(#254),#1766);
#1768=CARTESIAN_POINT('',(-1.4165,-0.95,0.0));
#1769=DIRECTION('',(0.0,1.0,0.0));
#1770=DIRECTION('',(0.0,0.0,1.0));
#1771=AXIS2_PLACEMENT_3D('',#1768,#1769,#1770);
#1772=PLANE('',#1771);
#1773=CARTESIAN_POINT('',(-1.4165,-0.95,0.02));
#1774=VERTEX_POINT('',#1773);
#1775=CARTESIAN_POINT('',(-0.6035,-0.95,0.02));
#1776=VERTEX_POINT('',#1775);
#1777=CARTESIAN_POINT('',(-1.4165,-0.95,0.02));
#1778=DIRECTION('',(1.0,0.0,0.0));
#1779=VECTOR('',#1778,0.813);
#1780=LINE('',#1777,#1779);
#1781=EDGE_CURVE('',#1774,#1776,#1780,.T.);
#1782=ORIENTED_EDGE('',*,*,#1781,.T.);
#1783=CARTESIAN_POINT('',(-0.6035,-0.95,0.0));
#1784=VERTEX_POINT('',#1783);
#1785=CARTESIAN_POINT('',(-0.6035,-0.95,0.0));
#1786=DIRECTION('',(0.0,0.0,1.0));
#1787=VECTOR('',#1786,0.02);
#1788=LINE('',#1785,#1787);
#1789=EDGE_CURVE('',#1784,#1776,#1788,.T.);
#1790=ORIENTED_EDGE('',*,*,#1789,.F.);
#1791=CARTESIAN_POINT('',(-1.4165,-0.95,0.0));
#1792=VERTEX_POINT('',#1791);
#1793=CARTESIAN_POINT('',(-0.6035,-0.95,0.0));
#1794=DIRECTION('',(-1.0,0.0,0.0));
#1795=VECTOR('',#1794,0.813);
#1796=LINE('',#1793,#1795);
#1797=EDGE_CURVE('',#1784,#1792,#1796,.T.);
#1798=ORIENTED_EDGE('',*,*,#1797,.T.);
#1799=CARTESIAN_POINT('',(-1.4165,-0.95,0.0));
#1800=DIRECTION('',(0.0,0.0,1.0));
#1801=VECTOR('',#1800,0.02);
#1802=LINE('',#1799,#1801);
#1803=EDGE_CURVE('',#1792,#1774,#1802,.T.);
#1804=ORIENTED_EDGE('',*,*,#1803,.T.);
#1805=EDGE_LOOP('',(#1782,#1790,#1798,#1804));
#1806=FACE_OUTER_BOUND('',#1805,.T.);
#1807=ADVANCED_FACE('',(#1806),#1772,.T.);
#1808=CARTESIAN_POINT('',(-0.6035,-0.95,0.0));
#1809=DIRECTION('',(1.0,0.0,0.0));
#1810=DIRECTION('',(0.0,0.0,-1.0));
#1811=AXIS2_PLACEMENT_3D('',#1808,#1809,#1810);
#1812=PLANE('',#1811);
#1813=CARTESIAN_POINT('',(-0.6035,-1.45,0.02));
#1814=VERTEX_POINT('',#1813);
#1815=CARTESIAN_POINT('',(-0.6035,-0.95,0.02));
#1816=DIRECTION('',(0.0,-1.0,0.0));
#1817=VECTOR('',#1816,0.5);
#1818=LINE('',#1815,#1817);
#1819=EDGE_CURVE('',#1776,#1814,#1818,.T.);
#1820=ORIENTED_EDGE('',*,*,#1819,.T.);
#1821=CARTESIAN_POINT('',(-0.6035,-1.45,0.0));
#1822=VERTEX_POINT('',#1821);
#1823=CARTESIAN_POINT('',(-0.6035,-1.45,0.0));
#1824=DIRECTION('',(0.0,0.0,1.0));
#1825=VECTOR('',#1824,0.02);
#1826=LINE('',#1823,#1825);
#1827=EDGE_CURVE('',#1822,#1814,#1826,.T.);
#1828=ORIENTED_EDGE('',*,*,#1827,.F.);
#1829=CARTESIAN_POINT('',(-0.6035,-1.45,0.0));
#1830=DIRECTION('',(0.0,1.0,0.0));
#1831=VECTOR('',#1830,0.5);
#1832=LINE('',#1829,#1831);
#1833=EDGE_CURVE('',#1822,#1784,#1832,.T.);
#1834=ORIENTED_EDGE('',*,*,#1833,.T.);
#1835=ORIENTED_EDGE('',*,*,#1789,.T.);
#1836=EDGE_LOOP('',(#1820,#1828,#1834,#1835));
#1837=FACE_OUTER_BOUND('',#1836,.T.);
#1838=ADVANCED_FACE('',(#1837),#1812,.T.);
#1839=CARTESIAN_POINT('',(-0.6035,-1.45,0.0));
#1840=DIRECTION('',(0.0,-1.0,0.0));
#1841=DIRECTION('',(0.0,0.0,-1.0));
#1842=AXIS2_PLACEMENT_3D('',#1839,#1840,#1841);
#1843=PLANE('',#1842);
#1844=CARTESIAN_POINT('',(-1.4165,-1.45,0.02));
#1845=VERTEX_POINT('',#1844);
#1846=CARTESIAN_POINT('',(-0.6035,-1.45,0.02));
#1847=DIRECTION('',(-1.0,0.0,0.0));
#1848=VECTOR('',#1847,0.813);
#1849=LINE('',#1846,#1848);
#1850=EDGE_CURVE('',#1814,#1845,#1849,.T.);
#1851=ORIENTED_EDGE('',*,*,#1850,.T.);
#1852=CARTESIAN_POINT('',(-1.4165,-1.45,0.0));
#1853=VERTEX_POINT('',#1852);
#1854=CARTESIAN_POINT('',(-1.4165,-1.45,0.0));
#1855=DIRECTION('',(0.0,0.0,1.0));
#1856=VECTOR('',#1855,0.02);
#1857=LINE('',#1854,#1856);
#1858=EDGE_CURVE('',#1853,#1845,#1857,.T.);
#1859=ORIENTED_EDGE('',*,*,#1858,.F.);
#1860=CARTESIAN_POINT('',(-1.4165,-1.45,0.0));
#1861=DIRECTION('',(1.0,0.0,0.0));
#1862=VECTOR('',#1861,0.813);
#1863=LINE('',#1860,#1862);
#1864=EDGE_CURVE('',#1853,#1822,#1863,.T.);
#1865=ORIENTED_EDGE('',*,*,#1864,.T.);
#1866=ORIENTED_EDGE('',*,*,#1827,.T.);
#1867=EDGE_LOOP('',(#1851,#1859,#1865,#1866));
#1868=FACE_OUTER_BOUND('',#1867,.T.);
#1869=ADVANCED_FACE('',(#1868),#1843,.T.);
#1870=CARTESIAN_POINT('',(-1.4165,-1.45,0.0));
#1871=DIRECTION('',(-1.0,0.0,0.0));
#1872=DIRECTION('',(0.0,0.0,1.0));
#1873=AXIS2_PLACEMENT_3D('',#1870,#1871,#1872);
#1874=PLANE('',#1873);
#1875=CARTESIAN_POINT('',(-1.4165,-1.45,0.02));
#1876=DIRECTION('',(0.0,1.0,0.0));
#1877=VECTOR('',#1876,0.5);
#1878=LINE('',#1875,#1877);
#1879=EDGE_CURVE('',#1845,#1774,#1878,.T.);
#1880=ORIENTED_EDGE('',*,*,#1879,.T.);
#1881=ORIENTED_EDGE('',*,*,#1803,.F.);
#1882=CARTESIAN_POINT('',(-1.4165,-0.95,0.0));
#1883=DIRECTION('',(0.0,-1.0,0.0));
#1884=VECTOR('',#1883,0.5);
#1885=LINE('',#1882,#1884);
#1886=EDGE_CURVE('',#1792,#1853,#1885,.T.);
#1887=ORIENTED_EDGE('',*,*,#1886,.T.);
#1888=ORIENTED_EDGE('',*,*,#1858,.T.);
#1889=EDGE_LOOP('',(#1880,#1881,#1887,#1888));
#1890=FACE_OUTER_BOUND('',#1889,.T.);
#1891=ADVANCED_FACE('',(#1890),#1874,.T.);
#1892=CARTESIAN_POINT('',(-1.01,-1.2,0.0));
#1893=DIRECTION('',(0.0,0.0,1.0));
#1894=DIRECTION('',(1.0,0.0,0.0));
#1895=AXIS2_PLACEMENT_3D('',#1892,#1893,#1894);
#1896=PLANE('',#1895);
#1897=ORIENTED_EDGE('',*,*,#1886,.F.);
#1898=ORIENTED_EDGE('',*,*,#1797,.F.);
#1899=ORIENTED_EDGE('',*,*,#1833,.F.);
#1900=ORIENTED_EDGE('',*,*,#1864,.F.);
#1901=EDGE_LOOP('',(#1897,#1898,#1899,#1900));
#1902=FACE_OUTER_BOUND('',#1901,.T.);
#1903=ADVANCED_FACE('',(#1902),#1896,.F.);
#1904=CARTESIAN_POINT('',(-1.01,-1.2,0.02));
#1905=DIRECTION('',(0.0,0.0,1.0));
#1906=DIRECTION('',(1.0,0.0,0.0));
#1907=AXIS2_PLACEMENT_3D('',#1904,#1905,#1906);
#1908=PLANE('',#1907);
#1909=ORIENTED_EDGE('',*,*,#1781,.F.);
#1910=ORIENTED_EDGE('',*,*,#1879,.F.);
#1911=ORIENTED_EDGE('',*,*,#1850,.F.);
#1912=ORIENTED_EDGE('',*,*,#1819,.F.);
#1913=EDGE_LOOP('',(#1909,#1910,#1911,#1912));
#1914=FACE_OUTER_BOUND('',#1913,.T.);
#1915=ADVANCED_FACE('',(#1914),#1908,.T.);
#1916=CLOSED_SHELL('',(#1807,#1838,#1869,#1891,#1903,#1915));
#1917=MANIFOLD_SOLID_BREP('2B71',#1916);
#1918=STYLED_ITEM('NONE',(#254),#1917);
#1919=CARTESIAN_POINT('',(-1.4165,-0.15,0.0));
#1920=DIRECTION('',(0.0,1.0,0.0));
#1921=DIRECTION('',(0.0,0.0,1.0));
#1922=AXIS2_PLACEMENT_3D('',#1919,#1920,#1921);
#1923=PLANE('',#1922);
#1924=CARTESIAN_POINT('',(-1.4165,-0.15,0.02));
#1925=VERTEX_POINT('',#1924);
#1926=CARTESIAN_POINT('',(-0.6035,-0.15,0.02));
#1927=VERTEX_POINT('',#1926);
#1928=CARTESIAN_POINT('',(-1.4165,-0.15,0.02));
#1929=DIRECTION('',(1.0,0.0,0.0));
#1930=VECTOR('',#1929,0.813);
#1931=LINE('',#1928,#1930);
#1932=EDGE_CURVE('',#1925,#1927,#1931,.T.);
#1933=ORIENTED_EDGE('',*,*,#1932,.T.);
#1934=CARTESIAN_POINT('',(-0.6035,-0.15,0.0));
#1935=VERTEX_POINT('',#1934);
#1936=CARTESIAN_POINT('',(-0.6035,-0.15,0.0));
#1937=DIRECTION('',(0.0,0.0,1.0));
#1938=VECTOR('',#1937,0.02);
#1939=LINE('',#1936,#1938);
#1940=EDGE_CURVE('',#1935,#1927,#1939,.T.);
#1941=ORIENTED_EDGE('',*,*,#1940,.F.);
#1942=CARTESIAN_POINT('',(-1.4165,-0.15,0.0));
#1943=VERTEX_POINT('',#1942);
#1944=CARTESIAN_POINT('',(-0.6035,-0.15,0.0));
#1945=DIRECTION('',(-1.0,0.0,0.0));
#1946=VECTOR('',#1945,0.813);
#1947=LINE('',#1944,#1946);
#1948=EDGE_CURVE('',#1935,#1943,#1947,.T.);
#1949=ORIENTED_EDGE('',*,*,#1948,.T.);
#1950=CARTESIAN_POINT('',(-1.4165,-0.15,0.0));
#1951=DIRECTION('',(0.0,0.0,1.0));
#1952=VECTOR('',#1951,0.02);
#1953=LINE('',#1950,#1952);
#1954=EDGE_CURVE('',#1943,#1925,#1953,.T.);
#1955=ORIENTED_EDGE('',*,*,#1954,.T.);
#1956=EDGE_LOOP('',(#1933,#1941,#1949,#1955));
#1957=FACE_OUTER_BOUND('',#1956,.T.);
#1958=ADVANCED_FACE('',(#1957),#1923,.T.);
#1959=CARTESIAN_POINT('',(-0.6035,-0.15,0.0));
#1960=DIRECTION('',(1.0,0.0,0.0));
#1961=DIRECTION('',(0.0,0.0,-1.0));
#1962=AXIS2_PLACEMENT_3D('',#1959,#1960,#1961);
#1963=PLANE('',#1962);
#1964=CARTESIAN_POINT('',(-0.6035,-0.65,0.02));
#1965=VERTEX_POINT('',#1964);
#1966=CARTESIAN_POINT('',(-0.6035,-0.15,0.02));
#1967=DIRECTION('',(0.0,-1.0,0.0));
#1968=VECTOR('',#1967,0.5);
#1969=LINE('',#1966,#1968);
#1970=EDGE_CURVE('',#1927,#1965,#1969,.T.);
#1971=ORIENTED_EDGE('',*,*,#1970,.T.);
#1972=CARTESIAN_POINT('',(-0.6035,-0.65,0.0));
#1973=VERTEX_POINT('',#1972);
#1974=CARTESIAN_POINT('',(-0.6035,-0.65,0.0));
#1975=DIRECTION('',(0.0,0.0,1.0));
#1976=VECTOR('',#1975,0.02);
#1977=LINE('',#1974,#1976);
#1978=EDGE_CURVE('',#1973,#1965,#1977,.T.);
#1979=ORIENTED_EDGE('',*,*,#1978,.F.);
#1980=CARTESIAN_POINT('',(-0.6035,-0.65,0.0));
#1981=DIRECTION('',(0.0,1.0,0.0));
#1982=VECTOR('',#1981,0.5);
#1983=LINE('',#1980,#1982);
#1984=EDGE_CURVE('',#1973,#1935,#1983,.T.);
#1985=ORIENTED_EDGE('',*,*,#1984,.T.);
#1986=ORIENTED_EDGE('',*,*,#1940,.T.);
#1987=EDGE_LOOP('',(#1971,#1979,#1985,#1986));
#1988=FACE_OUTER_BOUND('',#1987,.T.);
#1989=ADVANCED_FACE('',(#1988),#1963,.T.);
#1990=CARTESIAN_POINT('',(-0.6035,-0.65,0.0));
#1991=DIRECTION('',(0.0,-1.0,0.0));
#1992=DIRECTION('',(0.0,0.0,-1.0));
#1993=AXIS2_PLACEMENT_3D('',#1990,#1991,#1992);
#1994=PLANE('',#1993);
#1995=CARTESIAN_POINT('',(-1.4165,-0.65,0.02));
#1996=VERTEX_POINT('',#1995);
#1997=CARTESIAN_POINT('',(-0.6035,-0.65,0.02));
#1998=DIRECTION('',(-1.0,0.0,0.0));
#1999=VECTOR('',#1998,0.813);
#2000=LINE('',#1997,#1999);
#2001=EDGE_CURVE('',#1965,#1996,#2000,.T.);
#2002=ORIENTED_EDGE('',*,*,#2001,.T.);
#2003=CARTESIAN_POINT('',(-1.4165,-0.65,0.0));
#2004=VERTEX_POINT('',#2003);
#2005=CARTESIAN_POINT('',(-1.4165,-0.65,0.0));
#2006=DIRECTION('',(0.0,0.0,1.0));
#2007=VECTOR('',#2006,0.02);
#2008=LINE('',#2005,#2007);
#2009=EDGE_CURVE('',#2004,#1996,#2008,.T.);
#2010=ORIENTED_EDGE('',*,*,#2009,.F.);
#2011=CARTESIAN_POINT('',(-1.4165,-0.65,0.0));
#2012=DIRECTION('',(1.0,0.0,0.0));
#2013=VECTOR('',#2012,0.813);
#2014=LINE('',#2011,#2013);
#2015=EDGE_CURVE('',#2004,#1973,#2014,.T.);
#2016=ORIENTED_EDGE('',*,*,#2015,.T.);
#2017=ORIENTED_EDGE('',*,*,#1978,.T.);
#2018=EDGE_LOOP('',(#2002,#2010,#2016,#2017));
#2019=FACE_OUTER_BOUND('',#2018,.T.);
#2020=ADVANCED_FACE('',(#2019),#1994,.T.);
#2021=CARTESIAN_POINT('',(-1.4165,-0.65,0.0));
#2022=DIRECTION('',(-1.0,0.0,0.0));
#2023=DIRECTION('',(0.0,0.0,1.0));
#2024=AXIS2_PLACEMENT_3D('',#2021,#2022,#2023);
#2025=PLANE('',#2024);
#2026=CARTESIAN_POINT('',(-1.4165,-0.65,0.02));
#2027=DIRECTION('',(0.0,1.0,0.0));
#2028=VECTOR('',#2027,0.5);
#2029=LINE('',#2026,#2028);
#2030=EDGE_CURVE('',#1996,#1925,#2029,.T.);
#2031=ORIENTED_EDGE('',*,*,#2030,.T.);
#2032=ORIENTED_EDGE('',*,*,#1954,.F.);
#2033=CARTESIAN_POINT('',(-1.4165,-0.15,0.0));
#2034=DIRECTION('',(0.0,-1.0,0.0));
#2035=VECTOR('',#2034,0.5);
#2036=LINE('',#2033,#2035);
#2037=EDGE_CURVE('',#1943,#2004,#2036,.T.);
#2038=ORIENTED_EDGE('',*,*,#2037,.T.);
#2039=ORIENTED_EDGE('',*,*,#2009,.T.);
#2040=EDGE_LOOP('',(#2031,#2032,#2038,#2039));
#2041=FACE_OUTER_BOUND('',#2040,.T.);
#2042=ADVANCED_FACE('',(#2041),#2025,.T.);
#2043=CARTESIAN_POINT('',(-1.01,-0.4,0.0));
#2044=DIRECTION('',(0.0,0.0,1.0));
#2045=DIRECTION('',(1.0,0.0,0.0));
#2046=AXIS2_PLACEMENT_3D('',#2043,#2044,#2045);
#2047=PLANE('',#2046);
#2048=ORIENTED_EDGE('',*,*,#2037,.F.);
#2049=ORIENTED_EDGE('',*,*,#1948,.F.);
#2050=ORIENTED_EDGE('',*,*,#1984,.F.);
#2051=ORIENTED_EDGE('',*,*,#2015,.F.);
#2052=EDGE_LOOP('',(#2048,#2049,#2050,#2051));
#2053=FACE_OUTER_BOUND('',#2052,.T.);
#2054=ADVANCED_FACE('',(#2053),#2047,.F.);
#2055=CARTESIAN_POINT('',(-1.01,-0.4,0.02));
#2056=DIRECTION('',(0.0,0.0,1.0));
#2057=DIRECTION('',(1.0,0.0,0.0));
#2058=AXIS2_PLACEMENT_3D('',#2055,#2056,#2057);
#2059=PLANE('',#2058);
#2060=ORIENTED_EDGE('',*,*,#1932,.F.);
#2061=ORIENTED_EDGE('',*,*,#2030,.F.);
#2062=ORIENTED_EDGE('',*,*,#2001,.F.);
#2063=ORIENTED_EDGE('',*,*,#1970,.F.);
#2064=EDGE_LOOP('',(#2060,#2061,#2062,#2063));
#2065=FACE_OUTER_BOUND('',#2064,.T.);
#2066=ADVANCED_FACE('',(#2065),#2059,.T.);
#2067=CLOSED_SHELL('',(#1958,#1989,#2020,#2042,#2054,#2066));
#2068=MANIFOLD_SOLID_BREP('2B69',#2067);
#2069=STYLED_ITEM('NONE',(#254),#2068);
#2070=CARTESIAN_POINT('',(-1.0,2.0,0.79));
#2071=DIRECTION('',(0.0,0.0,-1.0));
#2072=DIRECTION('',(1.0,0.0,0.0));
#2073=AXIS2_PLACEMENT_3D('',#2070,#2071,#2072);
#2074=CYLINDRICAL_SURFACE('',#2073,0.25);
#2075=CARTESIAN_POINT('',(-0.75,2.0,0.79));
#2076=VERTEX_POINT('',#2075);
#2077=CARTESIAN_POINT('',(-0.75,2.0,0.74));
#2078=VERTEX_POINT('',#2077);
#2079=CARTESIAN_POINT('',(-0.75,2.0,0.79));
#2080=DIRECTION('',(0.0,0.0,-1.0));
#2081=VECTOR('',#2080,0.05);
#2082=LINE('',#2079,#2081);
#2083=EDGE_CURVE('',#2076,#2078,#2082,.T.);
#2084=ORIENTED_EDGE('',*,*,#2083,.F.);
#2085=CARTESIAN_POINT('',(-1.25,2.0,0.79));
#2086=VERTEX_POINT('',#2085);
#2087=CARTESIAN_POINT('',(-1.0,2.0,0.79));
#2088=DIRECTION('',(0.0,0.0,-1.0));
#2089=DIRECTION('',(1.0,0.0,0.0));
#2090=AXIS2_PLACEMENT_3D('',#2087,#2088,#2089);
#2091=CIRCLE('',#2090,0.25);
#2092=EDGE_CURVE('',#2086,#2076,#2091,.T.);
#2093=ORIENTED_EDGE('',*,*,#2092,.F.);
#2094=CARTESIAN_POINT('',(-1.25,2.0,0.74));
#2095=VERTEX_POINT('',#2094);
#2096=CARTESIAN_POINT('',(-1.25,2.0,0.79));
#2097=DIRECTION('',(0.0,0.0,-1.0));
#2098=VECTOR('',#2097,0.05);
#2099=LINE('',#2096,#2098);
#2100=EDGE_CURVE('',#2086,#2095,#2099,.T.);
#2101=ORIENTED_EDGE('',*,*,#2100,.T.);
#2102=CARTESIAN_POINT('',(-1.0,2.0,0.74));
#2103=DIRECTION('',(0.0,0.0,1.0));
#2104=DIRECTION('',(1.0,0.0,0.0));
#2105=AXIS2_PLACEMENT_3D('',#2102,#2103,#2104);
#2106=CIRCLE('',#2105,0.25);
#2107=EDGE_CURVE('',#2078,#2095,#2106,.T.);
#2108=ORIENTED_EDGE('',*,*,#2107,.F.);
#2109=EDGE_LOOP('',(#2084,#2093,#2101,#2108));
#2110=FACE_OUTER_BOUND('',#2109,.T.);
#2111=ADVANCED_FACE('',(#2110),#2074,.F.);
#2112=CARTESIAN_POINT('',(-1.0,2.0,0.79));
#2113=DIRECTION('',(0.0,0.0,-1.0));
#2114=DIRECTION('',(1.0,0.0,0.0));
#2115=AXIS2_PLACEMENT_3D('',#2112,#2113,#2114);
#2116=CYLINDRICAL_SURFACE('',#2115,0.25);
#2117=ORIENTED_EDGE('',*,*,#2083,.T.);
#2118=CARTESIAN_POINT('',(-1.0,2.0,0.74));
#2119=DIRECTION('',(0.0,0.0,1.0));
#2120=DIRECTION('',(1.0,0.0,0.0));
#2121=AXIS2_PLACEMENT_3D('',#2118,#2119,#2120);
#2122=CIRCLE('',#2121,0.25);
#2123=EDGE_CURVE('',#2095,#2078,#2122,.T.);
#2124=ORIENTED_EDGE('',*,*,#2123,.F.);
#2125=ORIENTED_EDGE('',*,*,#2100,.F.);
#2126=CARTESIAN_POINT('',(-1.0,2.0,0.79));
#2127=DIRECTION('',(0.0,0.0,-1.0));
#2128=DIRECTION('',(1.0,0.0,0.0));
#2129=AXIS2_PLACEMENT_3D('',#2126,#2127,#2128);
#2130=CIRCLE('',#2129,0.25);
#2131=EDGE_CURVE('',#2076,#2086,#2130,.T.);
#2132=ORIENTED_EDGE('',*,*,#2131,.F.);
#2133=EDGE_LOOP('',(#2117,#2124,#2125,#2132));
#2134=FACE_OUTER_BOUND('',#2133,.T.);
#2135=ADVANCED_FACE('',(#2134),#2116,.F.);
#2136=CARTESIAN_POINT('',(-1.0,2.0,0.74));
#2137=DIRECTION('',(0.0,0.0,1.0));
#2138=DIRECTION('',(1.0,0.0,0.0));
#2139=AXIS2_PLACEMENT_3D('',#2136,#2137,#2138);
#2140=PLANE('',#2139);
#2141=ORIENTED_EDGE('',*,*,#2107,.T.);
#2142=ORIENTED_EDGE('',*,*,#2123,.T.);
#2143=EDGE_LOOP('',(#2141,#2142));
#2144=FACE_OUTER_BOUND('',#2143,.T.);
#2145=ADVANCED_FACE('',(#2144),#2140,.T.);
#2146=CARTESIAN_POINT('',(-1.5,2.5,0.79));
#2147=DIRECTION('',(-1.0,0.0,0.0));
#2148=DIRECTION('',(0.0,0.0,1.0));
#2149=AXIS2_PLACEMENT_3D('',#2146,#2147,#2148);
#2150=PLANE('',#2149);
#2151=CARTESIAN_POINT('',(-1.5,2.5,0.020000000000001));
#2152=VERTEX_POINT('',#2151);
#2153=CARTESIAN_POINT('',(-1.5,-2.5,0.020000000000001));
#2154=VERTEX_POINT('',#2153);
#2155=CARTESIAN_POINT('',(-1.5,2.5,0.02));
#2156=DIRECTION('',(0.0,-1.0,0.0));
#2157=VECTOR('',#2156,4.999999999999999);
#2158=LINE('',#2155,#2157);
#2159=EDGE_CURVE('',#2152,#2154,#2158,.T.);
#2160=ORIENTED_EDGE('',*,*,#2159,.T.);
#2161=CARTESIAN_POINT('',(-1.5,-2.5,0.79));
#2162=VERTEX_POINT('',#2161);
#2163=CARTESIAN_POINT('',(-1.5,-2.5,0.79));
#2164=DIRECTION('',(0.0,0.0,-1.0));
#2165=VECTOR('',#2164,0.769999999999999);
#2166=LINE('',#2163,#2165);
#2167=EDGE_CURVE('',#2162,#2154,#2166,.T.);
#2168=ORIENTED_EDGE('',*,*,#2167,.F.);
#2169=CARTESIAN_POINT('',(-1.5,2.5,0.79));
#2170=VERTEX_POINT('',#2169);
#2171=CARTESIAN_POINT('',(-1.5,-2.5,0.79));
#2172=DIRECTION('',(0.0,1.0,0.0));
#2173=VECTOR('',#2172,4.999999999999999);
#2174=LINE('',#2171,#2173);
#2175=EDGE_CURVE('',#2162,#2170,#2174,.T.);
#2176=ORIENTED_EDGE('',*,*,#2175,.T.);
#2177=CARTESIAN_POINT('',(-1.5,2.5,0.79));
#2178=DIRECTION('',(0.0,0.0,-1.0));
#2179=VECTOR('',#2178,0.769999999999999);
#2180=LINE('',#2177,#2179);
#2181=EDGE_CURVE('',#2170,#2152,#2180,.T.);
#2182=ORIENTED_EDGE('',*,*,#2181,.T.);
#2183=EDGE_LOOP('',(#2160,#2168,#2176,#2182));
#2184=FACE_OUTER_BOUND('',#2183,.T.);
#2185=ADVANCED_FACE('',(#2184),#2150,.T.);
#2186=CARTESIAN_POINT('',(-1.5,-2.5,0.79));
#2187=DIRECTION('',(0.0,-1.0,0.0));
#2188=DIRECTION('',(0.0,0.0,-1.0));
#2189=AXIS2_PLACEMENT_3D('',#2186,#2187,#2188);
#2190=PLANE('',#2189);
#2191=CARTESIAN_POINT('',(1.5,-2.5,0.020000000000001));
#2192=VERTEX_POINT('',#2191);
#2193=CARTESIAN_POINT('',(-1.5,-2.5,0.02));
#2194=DIRECTION('',(1.0,0.0,0.0));
#2195=VECTOR('',#2194,3.0);
#2196=LINE('',#2193,#2195);
#2197=EDGE_CURVE('',#2154,#2192,#2196,.T.);
#2198=ORIENTED_EDGE('',*,*,#2197,.T.);
#2199=CARTESIAN_POINT('',(1.5,-2.5,0.79));
#2200=VERTEX_POINT('',#2199);
#2201=CARTESIAN_POINT('',(1.5,-2.5,0.79));
#2202=DIRECTION('',(0.0,0.0,-1.0));
#2203=VECTOR('',#2202,0.769999999999999);
#2204=LINE('',#2201,#2203);
#2205=EDGE_CURVE('',#2200,#2192,#2204,.T.);
#2206=ORIENTED_EDGE('',*,*,#2205,.F.);
#2207=CARTESIAN_POINT('',(1.5,-2.5,0.79));
#2208=DIRECTION('',(-1.0,0.0,0.0));
#2209=VECTOR('',#2208,3.0);
#2210=LINE('',#2207,#2209);
#2211=EDGE_CURVE('',#2200,#2162,#2210,.T.);
#2212=ORIENTED_EDGE('',*,*,#2211,.T.);
#2213=ORIENTED_EDGE('',*,*,#2167,.T.);
#2214=EDGE_LOOP('',(#2198,#2206,#2212,#2213));
#2215=FACE_OUTER_BOUND('',#2214,.T.);
#2216=ADVANCED_FACE('',(#2215),#2190,.T.);
#2217=CARTESIAN_POINT('',(1.5,-2.5,0.79));
#2218=DIRECTION('',(1.0,0.0,0.0));
#2219=DIRECTION('',(0.0,0.0,-1.0));
#2220=AXIS2_PLACEMENT_3D('',#2217,#2218,#2219);
#2221=PLANE('',#2220);
#2222=CARTESIAN_POINT('',(1.5,2.5,0.020000000000001));
#2223=VERTEX_POINT('',#2222);
#2224=CARTESIAN_POINT('',(1.5,-2.5,0.02));
#2225=DIRECTION('',(0.0,1.0,0.0));
#2226=VECTOR('',#2225,4.999999999999999);
#2227=LINE('',#2224,#2226);
#2228=EDGE_CURVE('',#2192,#2223,#2227,.T.);
#2229=ORIENTED_EDGE('',*,*,#2228,.T.);
#2230=CARTESIAN_POINT('',(1.5,2.5,0.79));
#2231=VERTEX_POINT('',#2230);
#2232=CARTESIAN_POINT('',(1.5,2.5,0.79));
#2233=DIRECTION('',(0.0,0.0,-1.0));
#2234=VECTOR('',#2233,0.769999999999999);
#2235=LINE('',#2232,#2234);
#2236=EDGE_CURVE('',#2231,#2223,#2235,.T.);
#2237=ORIENTED_EDGE('',*,*,#2236,.F.);
#2238=CARTESIAN_POINT('',(1.5,2.5,0.79));
#2239=DIRECTION('',(0.0,-1.0,0.0));
#2240=VECTOR('',#2239,4.999999999999999);
#2241=LINE('',#2238,#2240);
#2242=EDGE_CURVE('',#2231,#2200,#2241,.T.);
#2243=ORIENTED_EDGE('',*,*,#2242,.T.);
#2244=ORIENTED_EDGE('',*,*,#2205,.T.);
#2245=EDGE_LOOP('',(#2229,#2237,#2243,#2244));
#2246=FACE_OUTER_BOUND('',#2245,.T.);
#2247=ADVANCED_FACE('',(#2246),#2221,.T.);
#2248=CARTESIAN_POINT('',(1.5,2.5,0.79));
#2249=DIRECTION('',(0.0,1.0,0.0));
#2250=DIRECTION('',(0.0,0.0,1.0));
#2251=AXIS2_PLACEMENT_3D('',#2248,#2249,#2250);
#2252=PLANE('',#2251);
#2253=CARTESIAN_POINT('',(1.5,2.5,0.02));
#2254=DIRECTION('',(-1.0,0.0,0.0));
#2255=VECTOR('',#2254,3.0);
#2256=LINE('',#2253,#2255);
#2257=EDGE_CURVE('',#2223,#2152,#2256,.T.);
#2258=ORIENTED_EDGE('',*,*,#2257,.T.);
#2259=ORIENTED_EDGE('',*,*,#2181,.F.);
#2260=CARTESIAN_POINT('',(-1.5,2.5,0.79));
#2261=DIRECTION('',(1.0,0.0,0.0));
#2262=VECTOR('',#2261,3.0);
#2263=LINE('',#2260,#2262);
#2264=EDGE_CURVE('',#2170,#2231,#2263,.T.);
#2265=ORIENTED_EDGE('',*,*,#2264,.T.);
#2266=ORIENTED_EDGE('',*,*,#2236,.T.);
#2267=EDGE_LOOP('',(#2258,#2259,#2265,#2266));
#2268=FACE_OUTER_BOUND('',#2267,.T.);
#2269=ADVANCED_FACE('',(#2268),#2252,.T.);
#2270=CARTESIAN_POINT('',(5.551115E-017,8.074349E-017,0.79));
#2271=DIRECTION('',(0.0,0.0,1.0));
#2272=DIRECTION('',(1.0,0.0,0.0));
#2273=AXIS2_PLACEMENT_3D('',#2270,#2271,#2272);
#2274=PLANE('',#2273);
#2275=ORIENTED_EDGE('',*,*,#2264,.F.);
#2276=ORIENTED_EDGE('',*,*,#2175,.F.);
#2277=ORIENTED_EDGE('',*,*,#2211,.F.);
#2278=ORIENTED_EDGE('',*,*,#2242,.F.);
#2279=EDGE_LOOP('',(#2275,#2276,#2277,#2278));
#2280=FACE_OUTER_BOUND('',#2279,.T.);
#2281=ORIENTED_EDGE('',*,*,#2131,.T.);
#2282=ORIENTED_EDGE('',*,*,#2092,.T.);
#2283=EDGE_LOOP('',(#2281,#2282));
#2284=FACE_BOUND('',#2283,.T.);
#2285=ADVANCED_FACE('',(#2280,#2284),#2274,.T.);
#2286=CARTESIAN_POINT('',(5.551115E-017,3.027881E-017,0.020000000000001));
#2287=DIRECTION('',(0.0,0.0,1.0));
#2288=DIRECTION('',(1.0,0.0,0.0));
#2289=AXIS2_PLACEMENT_3D('',#2286,#2287,#2288);
#2290=PLANE('',#2289);
#2291=ORIENTED_EDGE('',*,*,#2159,.F.);
#2292=ORIENTED_EDGE('',*,*,#2257,.F.);
#2293=ORIENTED_EDGE('',*,*,#2228,.F.);
#2294=ORIENTED_EDGE('',*,*,#2197,.F.);
#2295=EDGE_LOOP('',(#2291,#2292,#2293,#2294));
#2296=FACE_OUTER_BOUND('',#2295,.T.);
#2297=ADVANCED_FACE('',(#2296),#2290,.F.);
#2298=CLOSED_SHELL('',(#2111,#2135,#2145,#2185,#2216,#2247,#2269,#2285,#2297));
#2299=MANIFOLD_SOLID_BREP('2B61',#2298);
#2300=COLOUR_RGB('250',0.33,0.33,0.33);
#2301=SURFACE_STYLE_USAGE(.BOTH.,#2302);
#2302=SURFACE_SIDE_STYLE('NONE',(#2303));
#2303=SURFACE_STYLE_FILL_AREA(#2304);
#2304=FILL_AREA_STYLE('NONE',(#2305));
#2305=FILL_AREA_STYLE_COLOUR('NONE',#2300);
#2306=PRESENTATION_STYLE_ASSIGNMENT((#2301));
#2307=STYLED_ITEM('NONE',(#2306),#2299);
#2308=CARTESIAN_POINT('',(-1.4165,0.65,0.0));
#2309=DIRECTION('',(0.0,1.0,0.0));
#2310=DIRECTION('',(0.0,0.0,1.0));
#2311=AXIS2_PLACEMENT_3D('',#2308,#2309,#2310);
#2312=PLANE('',#2311);
#2313=CARTESIAN_POINT('',(-1.4165,0.65,0.02));
#2314=VERTEX_POINT('',#2313);
#2315=CARTESIAN_POINT('',(-0.6035,0.65,0.02));
#2316=VERTEX_POINT('',#2315);
#2317=CARTESIAN_POINT('',(-1.4165,0.65,0.02));
#2318=DIRECTION('',(1.0,0.0,0.0));
#2319=VECTOR('',#2318,0.813);
#2320=LINE('',#2317,#2319);
#2321=EDGE_CURVE('',#2314,#2316,#2320,.T.);
#2322=ORIENTED_EDGE('',*,*,#2321,.T.);
#2323=CARTESIAN_POINT('',(-0.6035,0.65,0.0));
#2324=VERTEX_POINT('',#2323);
#2325=CARTESIAN_POINT('',(-0.6035,0.65,0.0));
#2326=DIRECTION('',(0.0,0.0,1.0));
#2327=VECTOR('',#2326,0.02);
#2328=LINE('',#2325,#2327);
#2329=EDGE_CURVE('',#2324,#2316,#2328,.T.);
#2330=ORIENTED_EDGE('',*,*,#2329,.F.);
#2331=CARTESIAN_POINT('',(-1.4165,0.65,0.0));
#2332=VERTEX_POINT('',#2331);
#2333=CARTESIAN_POINT('',(-0.6035,0.65,0.0));
#2334=DIRECTION('',(-1.0,0.0,0.0));
#2335=VECTOR('',#2334,0.813);
#2336=LINE('',#2333,#2335);
#2337=EDGE_CURVE('',#2324,#2332,#2336,.T.);
#2338=ORIENTED_EDGE('',*,*,#2337,.T.);
#2339=CARTESIAN_POINT('',(-1.4165,0.65,0.0));
#2340=DIRECTION('',(0.0,0.0,1.0));
#2341=VECTOR('',#2340,0.02);
#2342=LINE('',#2339,#2341);
#2343=EDGE_CURVE('',#2332,#2314,#2342,.T.);
#2344=ORIENTED_EDGE('',*,*,#2343,.T.);
#2345=EDGE_LOOP('',(#2322,#2330,#2338,#2344));
#2346=FACE_OUTER_BOUND('',#2345,.T.);
#2347=ADVANCED_FACE('',(#2346),#2312,.T.);
#2348=CARTESIAN_POINT('',(-0.6035,0.65,0.0));
#2349=DIRECTION('',(1.0,0.0,0.0));
#2350=DIRECTION('',(0.0,0.0,-1.0));
#2351=AXIS2_PLACEMENT_3D('',#2348,#2349,#2350);
#2352=PLANE('',#2351);
#2353=CARTESIAN_POINT('',(-0.6035,0.15,0.02));
#2354=VERTEX_POINT('',#2353);
#2355=CARTESIAN_POINT('',(-0.6035,0.65,0.02));
#2356=DIRECTION('',(0.0,-1.0,0.0));
#2357=VECTOR('',#2356,0.5);
#2358=LINE('',#2355,#2357);
#2359=EDGE_CURVE('',#2316,#2354,#2358,.T.);
#2360=ORIENTED_EDGE('',*,*,#2359,.T.);
#2361=CARTESIAN_POINT('',(-0.6035,0.15,0.0));
#2362=VERTEX_POINT('',#2361);
#2363=CARTESIAN_POINT('',(-0.6035,0.15,0.0));
#2364=DIRECTION('',(0.0,0.0,1.0));
#2365=VECTOR('',#2364,0.02);
#2366=LINE('',#2363,#2365);
#2367=EDGE_CURVE('',#2362,#2354,#2366,.T.);
#2368=ORIENTED_EDGE('',*,*,#2367,.F.);
#2369=CARTESIAN_POINT('',(-0.6035,0.15,0.0));
#2370=DIRECTION('',(0.0,1.0,0.0));
#2371=VECTOR('',#2370,0.5);
#2372=LINE('',#2369,#2371);
#2373=EDGE_CURVE('',#2362,#2324,#2372,.T.);
#2374=ORIENTED_EDGE('',*,*,#2373,.T.);
#2375=ORIENTED_EDGE('',*,*,#2329,.T.);
#2376=EDGE_LOOP('',(#2360,#2368,#2374,#2375));
#2377=FACE_OUTER_BOUND('',#2376,.T.);
#2378=ADVANCED_FACE('',(#2377),#2352,.T.);
#2379=CARTESIAN_POINT('',(-0.6035,0.15,0.0));
#2380=DIRECTION('',(0.0,-1.0,0.0));
#2381=DIRECTION('',(0.0,0.0,-1.0));
#2382=AXIS2_PLACEMENT_3D('',#2379,#2380,#2381);
#2383=PLANE('',#2382);
#2384=CARTESIAN_POINT('',(-1.4165,0.15,0.02));
#2385=VERTEX_POINT('',#2384);
#2386=CARTESIAN_POINT('',(-0.6035,0.15,0.02));
#2387=DIRECTION('',(-1.0,0.0,0.0));
#2388=VECTOR('',#2387,0.813);
#2389=LINE('',#2386,#2388);
#2390=EDGE_CURVE('',#2354,#2385,#2389,.T.);
#2391=ORIENTED_EDGE('',*,*,#2390,.T.);
#2392=CARTESIAN_POINT('',(-1.4165,0.15,0.0));
#2393=VERTEX_POINT('',#2392);
#2394=CARTESIAN_POINT('',(-1.4165,0.15,0.0));
#2395=DIRECTION('',(0.0,0.0,1.0));
#2396=VECTOR('',#2395,0.02);
#2397=LINE('',#2394,#2396);
#2398=EDGE_CURVE('',#2393,#2385,#2397,.T.);
#2399=ORIENTED_EDGE('',*,*,#2398,.F.);
#2400=CARTESIAN_POINT('',(-1.4165,0.15,0.0));
#2401=DIRECTION('',(1.0,0.0,0.0));
#2402=VECTOR('',#2401,0.813);
#2403=LINE('',#2400,#2402);
#2404=EDGE_CURVE('',#2393,#2362,#2403,.T.);
#2405=ORIENTED_EDGE('',*,*,#2404,.T.);
#2406=ORIENTED_EDGE('',*,*,#2367,.T.);
#2407=EDGE_LOOP('',(#2391,#2399,#2405,#2406));
#2408=FACE_OUTER_BOUND('',#2407,.T.);
#2409=ADVANCED_FACE('',(#2408),#2383,.T.);
#2410=CARTESIAN_POINT('',(-1.4165,0.15,0.0));
#2411=DIRECTION('',(-1.0,0.0,0.0));
#2412=DIRECTION('',(0.0,0.0,1.0));
#2413=AXIS2_PLACEMENT_3D('',#2410,#2411,#2412);
#2414=PLANE('',#2413);
#2415=CARTESIAN_POINT('',(-1.4165,0.15,0.02));
#2416=DIRECTION('',(0.0,1.0,0.0));
#2417=VECTOR('',#2416,0.5);
#2418=LINE('',#2415,#2417);
#2419=EDGE_CURVE('',#2385,#2314,#2418,.T.);
#2420=ORIENTED_EDGE('',*,*,#2419,.T.);
#2421=ORIENTED_EDGE('',*,*,#2343,.F.);
#2422=CARTESIAN_POINT('',(-1.4165,0.65,0.0));
#2423=DIRECTION('',(0.0,-1.0,0.0));
#2424=VECTOR('',#2423,0.5);
#2425=LINE('',#2422,#2424);
#2426=EDGE_CURVE('',#2332,#2393,#2425,.T.);
#2427=ORIENTED_EDGE('',*,*,#2426,.T.);
#2428=ORIENTED_EDGE('',*,*,#2398,.T.);
#2429=EDGE_LOOP('',(#2420,#2421,#2427,#2428));
#2430=FACE_OUTER_BOUND('',#2429,.T.);
#2431=ADVANCED_FACE('',(#2430),#2414,.T.);
#2432=CARTESIAN_POINT('',(-1.01,0.4,0.0));
#2433=DIRECTION('',(0.0,0.0,1.0));
#2434=DIRECTION('',(1.0,0.0,0.0));
#2435=AXIS2_PLACEMENT_3D('',#2432,#2433,#2434);
#2436=PLANE('',#2435);
#2437=ORIENTED_EDGE('',*,*,#2426,.F.);
#2438=ORIENTED_EDGE('',*,*,#2337,.F.);
#2439=ORIENTED_EDGE('',*,*,#2373,.F.);
#2440=ORIENTED_EDGE('',*,*,#2404,.F.);
#2441=EDGE_LOOP('',(#2437,#2438,#2439,#2440));
#2442=FACE_OUTER_BOUND('',#2441,.T.);
#2443=ADVANCED_FACE('',(#2442),#2436,.F.);
#2444=CARTESIAN_POINT('',(-1.01,0.4,0.02));
#2445=DIRECTION('',(0.0,0.0,1.0));
#2446=DIRECTION('',(1.0,0.0,0.0));
#2447=AXIS2_PLACEMENT_3D('',#2444,#2445,#2446);
#2448=PLANE('',#2447);
#2449=ORIENTED_EDGE('',*,*,#2321,.F.);
#2450=ORIENTED_EDGE('',*,*,#2419,.F.);
#2451=ORIENTED_EDGE('',*,*,#2390,.F.);
#2452=ORIENTED_EDGE('',*,*,#2359,.F.);
#2453=EDGE_LOOP('',(#2449,#2450,#2451,#2452));
#2454=FACE_OUTER_BOUND('',#2453,.T.);
#2455=ADVANCED_FACE('',(#2454),#2448,.T.);
#2456=CLOSED_SHELL('',(#2347,#2378,#2409,#2431,#2443,#2455));
#2457=MANIFOLD_SOLID_BREP('2B5D',#2456);
#2458=STYLED_ITEM('NONE',(#254),#2457);
#2459=ADVANCED_BREP_SHAPE_REPRESENTATION('ABSR1',(#247,#407,#558,#709,#860,#1011,#1162,#1313,#1464,#1615,#1766,#1917,#2068,#2299,#2457),#28);
#2460=SHAPE_REPRESENTATION_RELATIONSHIP('SRRPL1','',#2459,#62);
ENDSEC;
END-ISO-10303-21;
