ISO-10303-21;
HEADER;
/****************************************************************
 * Generated by software with PDElib inside                    *
 * PDElib Version v51a, created Wed 11/30/2011                  *
 * ITI Transcendata (http://www.transcendata.com/)              *
 ****************************************************************/
FILE_DESCRIPTION((''),'2;1');
FILE_NAME('BAT_PANASONIC_ML-621S-DN.stp','2014-07-23T13:29:24',(''),(''),'Mechanical Desktop 2011','Mechanical Desktop 2011',', , ');
FILE_SCHEMA(('AUTOMOTIVE_DESIGN { 1 2 10303 214 1 1 1 1 }'));
ENDSEC;
DATA;
#10=(NAMED_UNIT(*)PLANE_ANGLE_UNIT()SI_UNIT($,.RADIAN.));
#11=DIMENSIONAL_EXPONENTS(0.0,0.0,0.0,0.0,0.0,0.0,0.0);
#12=PLANE_ANGLE_MEASURE_WITH_UNIT(PLANE_ANGLE_MEASURE(0.0174532925),#10);
#16=(CONVERSION_BASED_UNIT('DEGREE',#12)NAMED_UNIT(#11)PLANE_ANGLE_UNIT());
#20=(NAMED_UNIT(*)SI_UNIT($,.STERADIAN.)SOLID_ANGLE_UNIT());
#24=(LENGTH_UNIT()NAMED_UNIT(*)SI_UNIT(.MILLI.,.METRE.));
#26=UNCERTAINTY_MEASURE_WITH_UNIT(LENGTH_MEASURE(0.000001),#24,'DISTANCE_ACCURACY_VALUE','');
#28=(GEOMETRIC_REPRESENTATION_CONTEXT(3)GLOBAL_UNCERTAINTY_ASSIGNED_CONTEXT((#26))GLOBAL_UNIT_ASSIGNED_CONTEXT((#16,#20,#24))REPRESENTATION_CONTEXT('','3D'));
#29=APPLICATION_CONTEXT('automotive design');
#30=APPLICATION_PROTOCOL_DEFINITION('INTERNATIONAL_STANDARD','automotive_design',1998,#29);
#31=PRODUCT_CONTEXT('3D Mechanical Parts',#29,'mechanical');
#32=PRODUCT('Product','Product','',(#31));
#33=PRODUCT_RELATED_PRODUCT_CATEGORY('part',$,(#32));
#34=PRODUCT_CATEGORY('part',$);
#35=PERSON('1','Design','Joe',$,$,$);
#36=ORGANIZATION($,'None','None');
#37=PERSON_AND_ORGANIZATION(#35,#36);
#38=PERSON_AND_ORGANIZATION_ROLE('design_owner');
#39=APPLIED_PERSON_AND_ORGANIZATION_ASSIGNMENT(#37,#38,(#32));
#40=PRODUCT_DEFINITION_FORMATION_WITH_SPECIFIED_SOURCE('None','',#32,.BOUGHT.);
#41=PERSON('2','Creator','Joe',$,$,$);
#42=ORGANIZATION($,'None','None');
#43=PERSON_AND_ORGANIZATION(#41,#42);
#44=PERSON_AND_ORGANIZATION_ROLE('creator');
#45=APPLIED_PERSON_AND_ORGANIZATION_ASSIGNMENT(#43,#44,(#40));
#46=PERSON('3','Supplier','Joe',$,$,$);
#47=ORGANIZATION($,'None','None');
#48=PERSON_AND_ORGANIZATION(#46,#47);
#49=PERSON_AND_ORGANIZATION_ROLE('design_supplier');
#50=APPLIED_PERSON_AND_ORGANIZATION_ASSIGNMENT(#48,#49,(#40));
#51=PRODUCT_DEFINITION_CONTEXT('part definition',#29,'design');
#52=PRODUCT_DEFINITION('None','',#40,#51);
#53=PERSON('4','Creator','Joe',$,$,$);
#54=ORGANIZATION($,'None','None');
#55=PERSON_AND_ORGANIZATION(#53,#54);
#56=PERSON_AND_ORGANIZATION_ROLE('creator');
#57=APPLIED_PERSON_AND_ORGANIZATION_ASSIGNMENT(#55,#56,(#52));
#58=CARTESIAN_POINT('NONE',(0.0,0.0,0.0));
#59=DIRECTION('NONE',(0.0,0.0,1.0));
#60=DIRECTION('NONE',(1.0,0.0,0.0));
#61=AXIS2_PLACEMENT_3D('NONE',#58,#59,#60);
#62=SHAPE_REPRESENTATION('SR1',(#61),#28);
#63=PRODUCT_DEFINITION_SHAPE('PDS1','Test Part',#52);
#64=SHAPE_DEFINITION_REPRESENTATION(#63,#62);
#65=CARTESIAN_POINT('',(-0.500000000000002,-0.075,6.5));
#66=DIRECTION('',(-1.0,0.0,0.0));
#67=DIRECTION('',(0.0,-1.0,0.0));
#68=AXIS2_PLACEMENT_3D('',#65,#66,#67);
#69=PLANE('',#68);
#70=CARTESIAN_POINT('',(-0.500000000000002,0.075,6.3));
#71=VERTEX_POINT('',#70);
#72=CARTESIAN_POINT('',(-0.500000000000001,0.074999999999999,2.200000000000001));
#73=VERTEX_POINT('',#72);
#74=CARTESIAN_POINT('',(-0.500000000000002,0.075,6.3));
#75=DIRECTION('',(0.0,0.0,-1.0));
#76=VECTOR('',#75,4.099999999999999);
#77=LINE('',#74,#76);
#78=EDGE_CURVE('',#71,#73,#77,.T.);
#79=ORIENTED_EDGE('',*,*,#78,.T.);
#80=CARTESIAN_POINT('',(-0.500000000000001,-0.075,2.200000000000001));
#81=VERTEX_POINT('',#80);
#82=CARTESIAN_POINT('',(-0.500000000000001,-0.075,2.200000000000001));
#83=DIRECTION('',(0.0,1.0,0.0));
#84=VECTOR('',#83,0.149999999999999);
#85=LINE('',#82,#84);
#86=EDGE_CURVE('',#81,#73,#85,.T.);
#87=ORIENTED_EDGE('',*,*,#86,.F.);
#88=CARTESIAN_POINT('',(-0.500000000000002,-0.075,6.3));
#89=VERTEX_POINT('',#88);
#90=CARTESIAN_POINT('',(-0.500000000000002,-0.075,6.3));
#91=DIRECTION('',(0.0,0.0,-1.0));
#92=VECTOR('',#91,4.099999999999999);
#93=LINE('',#90,#92);
#94=EDGE_CURVE('',#89,#81,#93,.T.);
#95=ORIENTED_EDGE('',*,*,#94,.F.);
#96=CARTESIAN_POINT('',(-0.500000000000002,-0.075,6.3));
#97=DIRECTION('',(0.0,1.0,0.0));
#98=VECTOR('',#97,0.149999999999999);
#99=LINE('',#96,#98);
#100=EDGE_CURVE('',#89,#71,#99,.T.);
#101=ORIENTED_EDGE('',*,*,#100,.T.);
#102=EDGE_LOOP('',(#79,#87,#95,#101));
#103=FACE_OUTER_BOUND('',#102,.T.);
#104=ADVANCED_FACE('',(#103),#69,.T.);
#105=CARTESIAN_POINT('',(-0.500000000000001,-0.075,2.200000000000001));
#106=DIRECTION('',(-0.707106781186548,-2.003070E-016,-0.707106781186547));
#107=DIRECTION('',(0.0,-1.0,0.0));
#108=AXIS2_PLACEMENT_3D('',#105,#106,#107);
#109=PLANE('',#108);
#110=CARTESIAN_POINT('',(0.599999999999999,0.075,1.099999999999999));
#111=VERTEX_POINT('',#110);
#112=CARTESIAN_POINT('',(-0.500000000000001,0.075,2.200000000000001));
#113=DIRECTION('',(0.707106781186547,1.159727E-016,-0.707106781186548));
#114=VECTOR('',#113,1.555634918610406);
#115=LINE('',#112,#114);
#116=EDGE_CURVE('',#73,#111,#115,.T.);
#117=ORIENTED_EDGE('',*,*,#116,.T.);
#118=CARTESIAN_POINT('',(0.599999999999999,-0.075,1.099999999999999));
#119=VERTEX_POINT('',#118);
#120=CARTESIAN_POINT('',(0.599999999999999,-0.075,1.099999999999999));
#121=DIRECTION('',(0.0,1.0,0.0));
#122=VECTOR('',#121,0.149999999999999);
#123=LINE('',#120,#122);
#124=EDGE_CURVE('',#119,#111,#123,.T.);
#125=ORIENTED_EDGE('',*,*,#124,.F.);
#126=CARTESIAN_POINT('',(-0.500000000000001,-0.075,2.200000000000001));
#127=DIRECTION('',(0.707106781186547,1.159727E-016,-0.707106781186548));
#128=VECTOR('',#127,1.555634918610406);
#129=LINE('',#126,#128);
#130=EDGE_CURVE('',#81,#119,#129,.T.);
#131=ORIENTED_EDGE('',*,*,#130,.F.);
#132=ORIENTED_EDGE('',*,*,#86,.T.);
#133=EDGE_LOOP('',(#117,#125,#131,#132));
#134=FACE_OUTER_BOUND('',#133,.T.);
#135=ADVANCED_FACE('',(#134),#109,.T.);
#136=CARTESIAN_POINT('',(0.599999999999999,-0.075,1.099999999999999));
#137=DIRECTION('',(-1.0,0.0,0.0));
#138=DIRECTION('',(0.0,-1.0,0.0));
#139=AXIS2_PLACEMENT_3D('',#136,#137,#138);
#140=PLANE('',#139);
#141=CARTESIAN_POINT('',(0.6,0.074999999999999,-1.85));
#142=VERTEX_POINT('',#141);
#143=CARTESIAN_POINT('',(0.599999999999999,0.075,1.099999999999999));
#144=DIRECTION('',(0.0,0.0,-1.0));
#145=VECTOR('',#144,2.949999999999999);
#146=LINE('',#143,#145);
#147=EDGE_CURVE('',#111,#142,#146,.T.);
#148=ORIENTED_EDGE('',*,*,#147,.T.);
#149=CARTESIAN_POINT('',(0.6,-0.075,-1.85));
#150=VERTEX_POINT('',#149);
#151=CARTESIAN_POINT('',(0.6,-0.075,-1.85));
#152=DIRECTION('',(0.0,1.0,0.0));
#153=VECTOR('',#152,0.149999999999999);
#154=LINE('',#151,#153);
#155=EDGE_CURVE('',#150,#142,#154,.T.);
#156=ORIENTED_EDGE('',*,*,#155,.F.);
#157=CARTESIAN_POINT('',(0.599999999999999,-0.075,1.099999999999999));
#158=DIRECTION('',(0.0,0.0,-1.0));
#159=VECTOR('',#158,2.949999999999999);
#160=LINE('',#157,#159);
#161=EDGE_CURVE('',#119,#150,#160,.T.);
#162=ORIENTED_EDGE('',*,*,#161,.F.);
#163=ORIENTED_EDGE('',*,*,#124,.T.);
#164=EDGE_LOOP('',(#148,#156,#162,#163));
#165=FACE_OUTER_BOUND('',#164,.T.);
#166=ADVANCED_FACE('',(#165),#140,.T.);
#167=CARTESIAN_POINT('',(0.6,-0.075,-1.85));
#168=DIRECTION('',(0.0,0.0,-1.0));
#169=DIRECTION('',(0.0,1.0,0.0));
#170=AXIS2_PLACEMENT_3D('',#167,#168,#169);
#171=PLANE('',#170);
#172=CARTESIAN_POINT('',(1.1,0.075,-1.85));
#173=VERTEX_POINT('',#172);
#174=CARTESIAN_POINT('',(0.6,0.075,-1.85));
#175=DIRECTION('',(1.0,0.0,0.0));
#176=VECTOR('',#175,0.5);
#177=LINE('',#174,#176);
#178=EDGE_CURVE('',#142,#173,#177,.T.);
#179=ORIENTED_EDGE('',*,*,#178,.T.);
#180=CARTESIAN_POINT('',(1.1,-0.075,-1.85));
#181=VERTEX_POINT('',#180);
#182=CARTESIAN_POINT('',(1.1,-0.075,-1.85));
#183=DIRECTION('',(0.0,1.0,0.0));
#184=VECTOR('',#183,0.149999999999999);
#185=LINE('',#182,#184);
#186=EDGE_CURVE('',#181,#173,#185,.T.);
#187=ORIENTED_EDGE('',*,*,#186,.F.);
#188=CARTESIAN_POINT('',(0.6,-0.075,-1.85));
#189=DIRECTION('',(1.0,0.0,0.0));
#190=VECTOR('',#189,0.5);
#191=LINE('',#188,#190);
#192=EDGE_CURVE('',#150,#181,#191,.T.);
#193=ORIENTED_EDGE('',*,*,#192,.F.);
#194=ORIENTED_EDGE('',*,*,#155,.T.);
#195=EDGE_LOOP('',(#179,#187,#193,#194));
#196=FACE_OUTER_BOUND('',#195,.T.);
#197=ADVANCED_FACE('',(#196),#171,.T.);
#198=CARTESIAN_POINT('',(1.1,-0.075,-1.85));
#199=DIRECTION('',(1.0,0.0,0.0));
#200=DIRECTION('',(0.0,1.0,0.0));
#201=AXIS2_PLACEMENT_3D('',#198,#199,#200);
#202=PLANE('',#201);
#203=CARTESIAN_POINT('',(1.099999999999998,0.075,6.3));
#204=VERTEX_POINT('',#203);
#205=CARTESIAN_POINT('',(1.1,0.075,-1.85));
#206=DIRECTION('',(0.0,0.0,1.0));
#207=VECTOR('',#206,8.15);
#208=LINE('',#205,#207);
#209=EDGE_CURVE('',#173,#204,#208,.T.);
#210=ORIENTED_EDGE('',*,*,#209,.T.);
#211=CARTESIAN_POINT('',(1.099999999999998,-0.074999999999999,6.3));
#212=VERTEX_POINT('',#211);
#213=CARTESIAN_POINT('',(1.099999999999998,-0.074999999999999,6.3));
#214=DIRECTION('',(0.0,1.0,0.0));
#215=VECTOR('',#214,0.149999999999999);
#216=LINE('',#213,#215);
#217=EDGE_CURVE('',#212,#204,#216,.T.);
#218=ORIENTED_EDGE('',*,*,#217,.F.);
#219=CARTESIAN_POINT('',(1.1,-0.075,-1.85));
#220=DIRECTION('',(0.0,0.0,1.0));
#221=VECTOR('',#220,8.15);
#222=LINE('',#219,#221);
#223=EDGE_CURVE('',#181,#212,#222,.T.);
#224=ORIENTED_EDGE('',*,*,#223,.F.);
#225=ORIENTED_EDGE('',*,*,#186,.T.);
#226=EDGE_LOOP('',(#210,#218,#224,#225));
#227=FACE_OUTER_BOUND('',#226,.T.);
#228=ADVANCED_FACE('',(#227),#202,.T.);
#229=CARTESIAN_POINT('',(1.099999999999998,-0.074999999999999,6.3));
#230=DIRECTION('',(0.0,0.0,1.0));
#231=DIRECTION('',(0.0,-1.0,0.0));
#232=AXIS2_PLACEMENT_3D('',#229,#230,#231);
#233=PLANE('',#232);
#234=CARTESIAN_POINT('',(1.099999999999998,0.075000000000001,6.3));
#235=DIRECTION('',(-1.0,0.0,0.0));
#236=VECTOR('',#235,1.6);
#237=LINE('',#234,#236);
#238=EDGE_CURVE('',#204,#71,#237,.T.);
#239=ORIENTED_EDGE('',*,*,#238,.T.);
#240=ORIENTED_EDGE('',*,*,#100,.F.);
#241=CARTESIAN_POINT('',(1.099999999999998,-0.074999999999999,6.3));
#242=DIRECTION('',(-1.0,0.0,0.0));
#243=VECTOR('',#242,1.6);
#244=LINE('',#241,#243);
#245=EDGE_CURVE('',#212,#89,#244,.T.);
#246=ORIENTED_EDGE('',*,*,#245,.F.);
#247=ORIENTED_EDGE('',*,*,#217,.T.);
#248=EDGE_LOOP('',(#239,#240,#246,#247));
#249=FACE_OUTER_BOUND('',#248,.T.);
#250=ADVANCED_FACE('',(#249),#233,.T.);
#251=CARTESIAN_POINT('',(0.508307401303641,0.075,2.547529480230051));
#252=DIRECTION('',(0.0,-1.0,0.0));
#253=DIRECTION('',(1.0,0.0,0.0));
#254=AXIS2_PLACEMENT_3D('',#251,#252,#253);
#255=PLANE('',#254);
#256=ORIENTED_EDGE('',*,*,#78,.F.);
#257=ORIENTED_EDGE('',*,*,#238,.F.);
#258=ORIENTED_EDGE('',*,*,#209,.F.);
#259=ORIENTED_EDGE('',*,*,#178,.F.);
#260=ORIENTED_EDGE('',*,*,#147,.F.);
#261=ORIENTED_EDGE('',*,*,#116,.F.);
#262=EDGE_LOOP('',(#256,#257,#258,#259,#260,#261));
#263=FACE_OUTER_BOUND('',#262,.T.);
#264=ADVANCED_FACE('',(#263),#255,.F.);
#265=CARTESIAN_POINT('',(0.508307401303641,-0.075,2.547529480230051));
#266=DIRECTION('',(0.0,-1.0,0.0));
#267=DIRECTION('',(1.0,0.0,0.0));
#268=AXIS2_PLACEMENT_3D('',#265,#266,#267);
#269=PLANE('',#268);
#270=ORIENTED_EDGE('',*,*,#245,.T.);
#271=ORIENTED_EDGE('',*,*,#94,.T.);
#272=ORIENTED_EDGE('',*,*,#130,.T.);
#273=ORIENTED_EDGE('',*,*,#161,.T.);
#274=ORIENTED_EDGE('',*,*,#192,.T.);
#275=ORIENTED_EDGE('',*,*,#223,.T.);
#276=EDGE_LOOP('',(#270,#271,#272,#273,#274,#275));
#277=FACE_OUTER_BOUND('',#276,.T.);
#278=ADVANCED_FACE('',(#277),#269,.T.);
#279=CLOSED_SHELL('',(#104,#135,#166,#197,#228,#250,#264,#278));
#280=MANIFOLD_SOLID_BREP('2C18',#279);
#281=COLOUR_RGB('253',0.732,0.732,0.732);
#282=SURFACE_STYLE_USAGE(.BOTH.,#283);
#283=SURFACE_SIDE_STYLE('NONE',(#284));
#284=SURFACE_STYLE_FILL_AREA(#285);
#285=FILL_AREA_STYLE('NONE',(#286));
#286=FILL_AREA_STYLE_COLOUR('NONE',#281);
#287=PRESENTATION_STYLE_ASSIGNMENT((#282));
#288=STYLED_ITEM('NONE',(#287),#280);
#289=MECHANICAL_DESIGN_GEOMETRIC_PRESENTATION_REPRESENTATION('NONE',(#288,#779,#875,#973,#1607),#28);
#290=PRESENTATION_LAYER_ASSIGNMENT('3D','None',(#280,#778,#867,#965,#1599));
#291=CARTESIAN_POINT('',(-1.099999999999999,0.074999999999999,-1.85));
#292=DIRECTION('',(0.0,0.0,-1.0));
#293=DIRECTION('',(0.0,1.0,0.0));
#294=AXIS2_PLACEMENT_3D('',#291,#292,#293);
#295=PLANE('',#294);
#296=CARTESIAN_POINT('',(-0.6,0.074999999999999,-1.85));
#297=VERTEX_POINT('',#296);
#298=CARTESIAN_POINT('',(-0.6,-0.075,-1.85));
#299=VERTEX_POINT('',#298);
#300=CARTESIAN_POINT('',(-0.6,0.074999999999999,-1.85));
#301=DIRECTION('',(0.0,-1.0,0.0));
#302=VECTOR('',#301,0.149999999999999);
#303=LINE('',#300,#302);
#304=EDGE_CURVE('',#297,#299,#303,.T.);
#305=ORIENTED_EDGE('',*,*,#304,.T.);
#306=CARTESIAN_POINT('',(-1.099999999999999,-0.075,-1.85));
#307=VERTEX_POINT('',#306);
#308=CARTESIAN_POINT('',(-1.099999999999999,-0.075,-1.85));
#309=DIRECTION('',(1.0,0.0,0.0));
#310=VECTOR('',#309,0.499999999999999);
#311=LINE('',#308,#310);
#312=EDGE_CURVE('',#307,#299,#311,.T.);
#313=ORIENTED_EDGE('',*,*,#312,.F.);
#314=CARTESIAN_POINT('',(-1.099999999999999,0.074999999999999,-1.85));
#315=VERTEX_POINT('',#314);
#316=CARTESIAN_POINT('',(-1.099999999999999,-0.075,-1.85));
#317=DIRECTION('',(0.0,1.0,0.0));
#318=VECTOR('',#317,0.149999999999999);
#319=LINE('',#316,#318);
#320=EDGE_CURVE('',#307,#315,#319,.T.);
#321=ORIENTED_EDGE('',*,*,#320,.T.);
#322=CARTESIAN_POINT('',(-1.099999999999999,0.074999999999999,-1.85));
#323=DIRECTION('',(1.0,0.0,0.0));
#324=VECTOR('',#323,0.499999999999999);
#325=LINE('',#322,#324);
#326=EDGE_CURVE('',#315,#297,#325,.T.);
#327=ORIENTED_EDGE('',*,*,#326,.T.);
#328=EDGE_LOOP('',(#305,#313,#321,#327));
#329=FACE_OUTER_BOUND('',#328,.T.);
#330=ADVANCED_FACE('',(#329),#295,.T.);
#331=CARTESIAN_POINT('',(-1.099999999999999,-0.075,-1.85));
#332=DIRECTION('',(0.0,-1.0,0.0));
#333=DIRECTION('',(1.0,0.0,0.0));
#334=AXIS2_PLACEMENT_3D('',#331,#332,#333);
#335=PLANE('',#334);
#336=CARTESIAN_POINT('',(-0.6,-0.075,-1.221245E-015));
#337=VERTEX_POINT('',#336);
#338=CARTESIAN_POINT('',(-0.6,-0.075,-1.85));
#339=DIRECTION('',(0.0,0.0,1.0));
#340=VECTOR('',#339,1.849999999999999);
#341=LINE('',#338,#340);
#342=EDGE_CURVE('',#299,#337,#341,.T.);
#343=ORIENTED_EDGE('',*,*,#342,.T.);
#344=CARTESIAN_POINT('',(-1.1,-0.075,-1.221245E-015));
#345=VERTEX_POINT('',#344);
#346=CARTESIAN_POINT('',(-1.1,-0.075,-1.221245E-015));
#347=DIRECTION('',(1.0,0.0,0.0));
#348=VECTOR('',#347,0.499999999999999);
#349=LINE('',#346,#348);
#350=EDGE_CURVE('',#345,#337,#349,.T.);
#351=ORIENTED_EDGE('',*,*,#350,.F.);
#352=CARTESIAN_POINT('',(-1.1,-0.075,-1.221245E-015));
#353=DIRECTION('',(0.0,0.0,-1.0));
#354=VECTOR('',#353,1.849999999999999);
#355=LINE('',#352,#354);
#356=EDGE_CURVE('',#345,#307,#355,.T.);
#357=ORIENTED_EDGE('',*,*,#356,.T.);
#358=ORIENTED_EDGE('',*,*,#312,.T.);
#359=EDGE_LOOP('',(#343,#351,#357,#358));
#360=FACE_OUTER_BOUND('',#359,.T.);
#361=ADVANCED_FACE('',(#360),#335,.T.);
#362=CARTESIAN_POINT('',(-1.1,0.225,-1.221245E-015));
#363=DIRECTION('',(1.0,2.220446E-016,2.220446E-016));
#364=DIRECTION('',(1.027163E-031,-0.707106781186548,0.707106781186547));
#365=AXIS2_PLACEMENT_3D('',#362,#363,#364);
#366=CYLINDRICAL_SURFACE('',#365,0.300000000000001);
#367=CARTESIAN_POINT('',(-0.600000000000001,0.225,0.299999999999999));
#368=VERTEX_POINT('',#367);
#369=CARTESIAN_POINT('',(-0.6,0.225,-1.221245E-015));
#370=DIRECTION('',(-1.0,-7.263137E-032,7.263137E-032));
#371=DIRECTION('',(1.027163E-031,-0.707106781186548,0.707106781186547));
#372=AXIS2_PLACEMENT_3D('',#369,#370,#371);
#373=CIRCLE('',#372,0.300000000000001);
#374=EDGE_CURVE('',#337,#368,#373,.T.);
#375=ORIENTED_EDGE('',*,*,#374,.T.);
#376=CARTESIAN_POINT('',(-1.1,0.225,0.299999999999999));
#377=VERTEX_POINT('',#376);
#378=CARTESIAN_POINT('',(-1.1,0.225,0.299999999999999));
#379=DIRECTION('',(1.0,0.0,0.0));
#380=VECTOR('',#379,0.499999999999999);
#381=LINE('',#378,#380);
#382=EDGE_CURVE('',#377,#368,#381,.T.);
#383=ORIENTED_EDGE('',*,*,#382,.F.);
#384=CARTESIAN_POINT('',(-1.1,0.225,-1.221245E-015));
#385=DIRECTION('',(1.0,7.263137E-032,-7.263137E-032));
#386=DIRECTION('',(1.027163E-031,-0.707106781186548,0.707106781186547));
#387=AXIS2_PLACEMENT_3D('',#384,#385,#386);
#388=CIRCLE('',#387,0.300000000000001);
#389=EDGE_CURVE('',#377,#345,#388,.T.);
#390=ORIENTED_EDGE('',*,*,#389,.T.);
#391=ORIENTED_EDGE('',*,*,#350,.T.);
#392=EDGE_LOOP('',(#375,#383,#390,#391));
#393=FACE_OUTER_BOUND('',#392,.T.);
#394=ADVANCED_FACE('',(#393),#366,.T.);
#395=CARTESIAN_POINT('',(-1.1,0.225,0.299999999999999));
#396=DIRECTION('',(0.0,0.0,1.0));
#397=DIRECTION('',(0.0,-1.0,0.0));
#398=AXIS2_PLACEMENT_3D('',#395,#396,#397);
#399=PLANE('',#398);
#400=CARTESIAN_POINT('',(-0.600000000000001,1.975,0.299999999999999));
#401=VERTEX_POINT('',#400);
#402=CARTESIAN_POINT('',(-0.6,0.225,0.299999999999999));
#403=DIRECTION('',(0.0,1.0,0.0));
#404=VECTOR('',#403,1.75);
#405=LINE('',#402,#404);
#406=EDGE_CURVE('',#368,#401,#405,.T.);
#407=ORIENTED_EDGE('',*,*,#406,.T.);
#408=CARTESIAN_POINT('',(-1.1,1.975,0.299999999999999));
#409=VERTEX_POINT('',#408);
#410=CARTESIAN_POINT('',(-1.1,1.975,0.299999999999999));
#411=DIRECTION('',(1.0,0.0,0.0));
#412=VECTOR('',#411,0.499999999999999);
#413=LINE('',#410,#412);
#414=EDGE_CURVE('',#409,#401,#413,.T.);
#415=ORIENTED_EDGE('',*,*,#414,.F.);
#416=CARTESIAN_POINT('',(-1.1,1.975,0.299999999999999));
#417=DIRECTION('',(0.0,-1.0,0.0));
#418=VECTOR('',#417,1.75);
#419=LINE('',#416,#418);
#420=EDGE_CURVE('',#409,#377,#419,.T.);
#421=ORIENTED_EDGE('',*,*,#420,.T.);
#422=ORIENTED_EDGE('',*,*,#382,.T.);
#423=EDGE_LOOP('',(#407,#415,#421,#422));
#424=FACE_OUTER_BOUND('',#423,.T.);
#425=ADVANCED_FACE('',(#424),#399,.T.);
#426=CARTESIAN_POINT('',(-1.1,1.974999999999999,0.449999999999999));
#427=DIRECTION('',(1.0,2.220446E-016,2.220446E-016));
#428=DIRECTION('',(-3.697785E-031,0.707106781186548,-0.707106781186547));
#429=AXIS2_PLACEMENT_3D('',#426,#427,#428);
#430=CYLINDRICAL_SURFACE('',#429,0.15);
#431=CARTESIAN_POINT('',(-0.600000000000001,2.125,0.449999999999999));
#432=VERTEX_POINT('',#431);
#433=CARTESIAN_POINT('',(-0.600000000000001,1.975,0.449999999999999));
#434=DIRECTION('',(1.0,2.614729E-031,-2.614729E-031));
#435=DIRECTION('',(-3.697785E-031,0.707106781186548,-0.707106781186547));
#436=AXIS2_PLACEMENT_3D('',#433,#434,#435);
#437=CIRCLE('',#436,0.15);
#438=EDGE_CURVE('',#401,#432,#437,.T.);
#439=ORIENTED_EDGE('',*,*,#438,.T.);
#440=CARTESIAN_POINT('',(-1.1,2.125,0.449999999999999));
#441=VERTEX_POINT('',#440);
#442=CARTESIAN_POINT('',(-1.1,2.125,0.449999999999999));
#443=DIRECTION('',(1.0,0.0,0.0));
#444=VECTOR('',#443,0.499999999999999);
#445=LINE('',#442,#444);
#446=EDGE_CURVE('',#441,#432,#445,.T.);
#447=ORIENTED_EDGE('',*,*,#446,.F.);
#448=CARTESIAN_POINT('',(-1.1,1.974999999999999,0.449999999999999));
#449=DIRECTION('',(-1.0,-2.614729E-031,2.614729E-031));
#450=DIRECTION('',(-3.697785E-031,0.707106781186548,-0.707106781186547));
#451=AXIS2_PLACEMENT_3D('',#448,#449,#450);
#452=CIRCLE('',#451,0.15);
#453=EDGE_CURVE('',#441,#409,#452,.T.);
#454=ORIENTED_EDGE('',*,*,#453,.T.);
#455=ORIENTED_EDGE('',*,*,#414,.T.);
#456=EDGE_LOOP('',(#439,#447,#454,#455));
#457=FACE_OUTER_BOUND('',#456,.T.);
#458=ADVANCED_FACE('',(#457),#430,.F.);
#459=CARTESIAN_POINT('',(-1.1,1.974999999999999,0.449999999999999));
#460=DIRECTION('',(1.0,2.220446E-016,2.220446E-016));
#461=DIRECTION('',(-1.232595E-031,0.707106781186548,-0.707106781186547));
#462=AXIS2_PLACEMENT_3D('',#459,#460,#461);
#463=CYLINDRICAL_SURFACE('',#462,0.3);
#464=CARTESIAN_POINT('',(-0.600000000000001,2.275,0.449999999999999));
#465=VERTEX_POINT('',#464);
#466=CARTESIAN_POINT('',(-0.600000000000001,1.975,0.149999999999999));
#467=VERTEX_POINT('',#466);
#468=CARTESIAN_POINT('',(-0.600000000000001,1.975,0.449999999999999));
#469=DIRECTION('',(-1.0,-8.715764E-032,8.715764E-032));
#470=DIRECTION('',(-1.232595E-031,0.707106781186548,-0.707106781186547));
#471=AXIS2_PLACEMENT_3D('',#468,#469,#470);
#472=CIRCLE('',#471,0.3);
#473=EDGE_CURVE('',#465,#467,#472,.T.);
#474=ORIENTED_EDGE('',*,*,#473,.T.);
#475=CARTESIAN_POINT('',(-1.1,1.975,0.149999999999999));
#476=VERTEX_POINT('',#475);
#477=CARTESIAN_POINT('',(-1.1,1.975,0.149999999999999));
#478=DIRECTION('',(1.0,0.0,0.0));
#479=VECTOR('',#478,0.499999999999999);
#480=LINE('',#477,#479);
#481=EDGE_CURVE('',#476,#467,#480,.T.);
#482=ORIENTED_EDGE('',*,*,#481,.F.);
#483=CARTESIAN_POINT('',(-1.1,2.275,0.449999999999999));
#484=VERTEX_POINT('',#483);
#485=CARTESIAN_POINT('',(-1.1,1.974999999999999,0.449999999999999));
#486=DIRECTION('',(1.0,8.715764E-032,-8.715764E-032));
#487=DIRECTION('',(-1.232595E-031,0.707106781186548,-0.707106781186547));
#488=AXIS2_PLACEMENT_3D('',#485,#486,#487);
#489=CIRCLE('',#488,0.3);
#490=EDGE_CURVE('',#476,#484,#489,.T.);
#491=ORIENTED_EDGE('',*,*,#490,.T.);
#492=CARTESIAN_POINT('',(-1.1,2.275,0.449999999999999));
#493=DIRECTION('',(1.0,0.0,0.0));
#494=VECTOR('',#493,0.499999999999999);
#495=LINE('',#492,#494);
#496=EDGE_CURVE('',#484,#465,#495,.T.);
#497=ORIENTED_EDGE('',*,*,#496,.T.);
#498=EDGE_LOOP('',(#474,#482,#491,#497));
#499=FACE_OUTER_BOUND('',#498,.T.);
#500=ADVANCED_FACE('',(#499),#463,.T.);
#501=CARTESIAN_POINT('',(-1.1,1.975,0.149999999999999));
#502=DIRECTION('',(0.0,0.0,-1.0));
#503=DIRECTION('',(0.0,1.0,0.0));
#504=AXIS2_PLACEMENT_3D('',#501,#502,#503);
#505=PLANE('',#504);
#506=CARTESIAN_POINT('',(-0.600000000000001,0.225,0.149999999999999));
#507=VERTEX_POINT('',#506);
#508=CARTESIAN_POINT('',(-0.600000000000001,1.975,0.149999999999999));
#509=DIRECTION('',(0.0,-1.0,0.0));
#510=VECTOR('',#509,1.75);
#511=LINE('',#508,#510);
#512=EDGE_CURVE('',#467,#507,#511,.T.);
#513=ORIENTED_EDGE('',*,*,#512,.T.);
#514=CARTESIAN_POINT('',(-1.1,0.225,0.149999999999999));
#515=VERTEX_POINT('',#514);
#516=CARTESIAN_POINT('',(-1.1,0.225,0.149999999999999));
#517=DIRECTION('',(1.0,0.0,0.0));
#518=VECTOR('',#517,0.499999999999999);
#519=LINE('',#516,#518);
#520=EDGE_CURVE('',#515,#507,#519,.T.);
#521=ORIENTED_EDGE('',*,*,#520,.F.);
#522=CARTESIAN_POINT('',(-1.1,0.225,0.149999999999999));
#523=DIRECTION('',(0.0,1.0,0.0));
#524=VECTOR('',#523,1.75);
#525=LINE('',#522,#524);
#526=EDGE_CURVE('',#515,#476,#525,.T.);
#527=ORIENTED_EDGE('',*,*,#526,.T.);
#528=ORIENTED_EDGE('',*,*,#481,.T.);
#529=EDGE_LOOP('',(#513,#521,#527,#528));
#530=FACE_OUTER_BOUND('',#529,.T.);
#531=ADVANCED_FACE('',(#530),#505,.T.);
#532=CARTESIAN_POINT('',(-1.1,0.225,-1.221245E-015));
#533=DIRECTION('',(1.0,2.220446E-016,2.220446E-016));
#534=DIRECTION('',(2.259758E-031,-0.707106781186548,0.707106781186547));
#535=AXIS2_PLACEMENT_3D('',#532,#533,#534);
#536=CYLINDRICAL_SURFACE('',#535,0.15);
#537=CARTESIAN_POINT('',(-0.6,0.075,-1.221245E-015));
#538=VERTEX_POINT('',#537);
#539=CARTESIAN_POINT('',(-0.6,0.225,-1.221245E-015));
#540=DIRECTION('',(1.0,1.597890E-031,-1.597890E-031));
#541=DIRECTION('',(2.259758E-031,-0.707106781186548,0.707106781186547));
#542=AXIS2_PLACEMENT_3D('',#539,#540,#541);
#543=CIRCLE('',#542,0.15);
#544=EDGE_CURVE('',#507,#538,#543,.T.);
#545=ORIENTED_EDGE('',*,*,#544,.T.);
#546=CARTESIAN_POINT('',(-1.1,0.075,-1.221245E-015));
#547=VERTEX_POINT('',#546);
#548=CARTESIAN_POINT('',(-1.1,0.075,-1.221245E-015));
#549=DIRECTION('',(1.0,0.0,0.0));
#550=VECTOR('',#549,0.499999999999999);
#551=LINE('',#548,#550);
#552=EDGE_CURVE('',#547,#538,#551,.T.);
#553=ORIENTED_EDGE('',*,*,#552,.F.);
#554=CARTESIAN_POINT('',(-1.1,0.225,-1.221245E-015));
#555=DIRECTION('',(-1.0,-1.597890E-031,1.597890E-031));
#556=DIRECTION('',(2.259758E-031,-0.707106781186548,0.707106781186547));
#557=AXIS2_PLACEMENT_3D('',#554,#555,#556);
#558=CIRCLE('',#557,0.15);
#559=EDGE_CURVE('',#547,#515,#558,.T.);
#560=ORIENTED_EDGE('',*,*,#559,.T.);
#561=ORIENTED_EDGE('',*,*,#520,.T.);
#562=EDGE_LOOP('',(#545,#553,#560,#561));
#563=FACE_OUTER_BOUND('',#562,.T.);
#564=ADVANCED_FACE('',(#563),#536,.F.);
#565=CARTESIAN_POINT('',(-1.1,0.075,-1.221245E-015));
#566=DIRECTION('',(0.0,1.0,0.0));
#567=DIRECTION('',(-1.0,0.0,0.0));
#568=AXIS2_PLACEMENT_3D('',#565,#566,#567);
#569=PLANE('',#568);
#570=CARTESIAN_POINT('',(-0.6,0.075,-1.332268E-015));
#571=DIRECTION('',(0.0,0.0,-1.0));
#572=VECTOR('',#571,1.849999999999999);
#573=LINE('',#570,#572);
#574=EDGE_CURVE('',#538,#297,#573,.T.);
#575=ORIENTED_EDGE('',*,*,#574,.T.);
#576=ORIENTED_EDGE('',*,*,#326,.F.);
#577=CARTESIAN_POINT('',(-1.099999999999999,0.074999999999999,-1.85));
#578=DIRECTION('',(0.0,0.0,1.0));
#579=VECTOR('',#578,1.849999999999999);
#580=LINE('',#577,#579);
#581=EDGE_CURVE('',#315,#547,#580,.T.);
#582=ORIENTED_EDGE('',*,*,#581,.T.);
#583=ORIENTED_EDGE('',*,*,#552,.T.);
#584=EDGE_LOOP('',(#575,#576,#582,#583));
#585=FACE_OUTER_BOUND('',#584,.T.);
#586=ADVANCED_FACE('',(#585),#569,.T.);
#587=CARTESIAN_POINT('',(-0.600000000000001,1.539712790198011,1.923890325765041));
#588=DIRECTION('',(1.0,0.0,0.0));
#589=DIRECTION('',(0.0,1.0,0.0));
#590=AXIS2_PLACEMENT_3D('',#587,#588,#589);
#591=PLANE('',#590);
#592=CARTESIAN_POINT('',(-0.600000000000001,2.125,1.099999999999999));
#593=VERTEX_POINT('',#592);
#594=CARTESIAN_POINT('',(-0.600000000000001,2.275,1.099999999999999));
#595=VERTEX_POINT('',#594);
#596=CARTESIAN_POINT('',(-0.600000000000001,2.125,1.099999999999999));
#597=DIRECTION('',(0.0,1.0,0.0));
#598=VECTOR('',#597,0.15);
#599=LINE('',#596,#598);
#600=EDGE_CURVE('',#593,#595,#599,.T.);
#601=ORIENTED_EDGE('',*,*,#600,.F.);
#602=CARTESIAN_POINT('',(-0.600000000000001,2.125,0.449999999999999));
#603=DIRECTION('',(0.0,0.0,1.0));
#604=VECTOR('',#603,0.65);
#605=LINE('',#602,#604);
#606=EDGE_CURVE('',#432,#593,#605,.T.);
#607=ORIENTED_EDGE('',*,*,#606,.F.);
#608=ORIENTED_EDGE('',*,*,#438,.F.);
#609=ORIENTED_EDGE('',*,*,#406,.F.);
#610=ORIENTED_EDGE('',*,*,#374,.F.);
#611=ORIENTED_EDGE('',*,*,#342,.F.);
#612=ORIENTED_EDGE('',*,*,#304,.F.);
#613=ORIENTED_EDGE('',*,*,#574,.F.);
#614=ORIENTED_EDGE('',*,*,#544,.F.);
#615=ORIENTED_EDGE('',*,*,#512,.F.);
#616=ORIENTED_EDGE('',*,*,#473,.F.);
#617=CARTESIAN_POINT('',(-0.600000000000001,2.275,1.099999999999999));
#618=DIRECTION('',(0.0,0.0,-1.0));
#619=VECTOR('',#618,0.65);
#620=LINE('',#617,#619);
#621=EDGE_CURVE('',#595,#465,#620,.T.);
#622=ORIENTED_EDGE('',*,*,#621,.F.);
#623=EDGE_LOOP('',(#601,#607,#608,#609,#610,#611,#612,#613,#614,#615,#616,#622));
#624=FACE_OUTER_BOUND('',#623,.T.);
#625=ADVANCED_FACE('',(#624),#591,.T.);
#626=CARTESIAN_POINT('',(-0.418716217319678,2.125,3.503905140683333));
#627=DIRECTION('',(0.0,-1.0,0.0));
#628=DIRECTION('',(1.0,0.0,0.0));
#629=AXIS2_PLACEMENT_3D('',#626,#627,#628);
#630=PLANE('',#629);
#631=CARTESIAN_POINT('',(0.5,2.125,2.200000000000001));
#632=VERTEX_POINT('',#631);
#633=CARTESIAN_POINT('',(0.5,2.125,2.200000000000001));
#634=DIRECTION('',(-0.707106781186547,-2.854714E-016,-0.707106781186548));
#635=VECTOR('',#634,1.555634918610406);
#636=LINE('',#633,#635);
#637=EDGE_CURVE('',#632,#593,#636,.T.);
#638=ORIENTED_EDGE('',*,*,#637,.F.);
#639=CARTESIAN_POINT('',(0.499999999999999,2.125,6.3));
#640=VERTEX_POINT('',#639);
#641=CARTESIAN_POINT('',(0.499999999999999,2.125,6.3));
#642=DIRECTION('',(0.0,0.0,-1.0));
#643=VECTOR('',#642,4.099999999999999);
#644=LINE('',#641,#643);
#645=EDGE_CURVE('',#640,#632,#644,.T.);
#646=ORIENTED_EDGE('',*,*,#645,.F.);
#647=CARTESIAN_POINT('',(-1.100000000000001,2.125,6.3));
#648=VERTEX_POINT('',#647);
#649=CARTESIAN_POINT('',(-1.100000000000001,2.125,6.3));
#650=DIRECTION('',(1.0,0.0,0.0));
#651=VECTOR('',#650,1.6);
#652=LINE('',#649,#651);
#653=EDGE_CURVE('',#648,#640,#652,.T.);
#654=ORIENTED_EDGE('',*,*,#653,.F.);
#655=CARTESIAN_POINT('',(-1.100000000000001,2.125,0.449999999999999));
#656=DIRECTION('',(0.0,0.0,1.0));
#657=VECTOR('',#656,5.850000000000001);
#658=LINE('',#655,#657);
#659=EDGE_CURVE('',#441,#648,#658,.T.);
#660=ORIENTED_EDGE('',*,*,#659,.F.);
#661=ORIENTED_EDGE('',*,*,#446,.T.);
#662=ORIENTED_EDGE('',*,*,#606,.T.);
#663=EDGE_LOOP('',(#638,#646,#654,#660,#661,#662));
#664=FACE_OUTER_BOUND('',#663,.T.);
#665=ADVANCED_FACE('',(#664),#630,.T.);
#666=CARTESIAN_POINT('',(-0.418716217319678,2.275,3.503905140683334));
#667=DIRECTION('',(0.0,-1.0,0.0));
#668=DIRECTION('',(1.0,0.0,0.0));
#669=AXIS2_PLACEMENT_3D('',#666,#667,#668);
#670=PLANE('',#669);
#671=CARTESIAN_POINT('',(0.499999999999999,2.275,6.3));
#672=VERTEX_POINT('',#671);
#673=CARTESIAN_POINT('',(-1.100000000000001,2.275,6.3));
#674=VERTEX_POINT('',#673);
#675=CARTESIAN_POINT('',(0.499999999999998,2.275,6.3));
#676=DIRECTION('',(-1.0,0.0,0.0));
#677=VECTOR('',#676,1.6);
#678=LINE('',#675,#677);
#679=EDGE_CURVE('',#672,#674,#678,.T.);
#680=ORIENTED_EDGE('',*,*,#679,.F.);
#681=CARTESIAN_POINT('',(0.5,2.275,2.200000000000001));
#682=VERTEX_POINT('',#681);
#683=CARTESIAN_POINT('',(0.5,2.275,2.200000000000001));
#684=DIRECTION('',(0.0,0.0,1.0));
#685=VECTOR('',#684,4.099999999999999);
#686=LINE('',#683,#685);
#687=EDGE_CURVE('',#682,#672,#686,.T.);
#688=ORIENTED_EDGE('',*,*,#687,.F.);
#689=CARTESIAN_POINT('',(-0.600000000000001,2.275,1.1));
#690=DIRECTION('',(0.707106781186547,2.854714E-016,0.707106781186548));
#691=VECTOR('',#690,1.555634918610406);
#692=LINE('',#689,#691);
#693=EDGE_CURVE('',#595,#682,#692,.T.);
#694=ORIENTED_EDGE('',*,*,#693,.F.);
#695=ORIENTED_EDGE('',*,*,#621,.T.);
#696=ORIENTED_EDGE('',*,*,#496,.F.);
#697=CARTESIAN_POINT('',(-1.1,2.275,0.449999999999999));
#698=DIRECTION('',(0.0,0.0,1.0));
#699=VECTOR('',#698,5.850000000000001);
#700=LINE('',#697,#699);
#701=EDGE_CURVE('',#484,#674,#700,.T.);
#702=ORIENTED_EDGE('',*,*,#701,.T.);
#703=EDGE_LOOP('',(#680,#688,#694,#695,#696,#702));
#704=FACE_OUTER_BOUND('',#703,.T.);
#705=ADVANCED_FACE('',(#704),#670,.F.);
#706=CARTESIAN_POINT('',(-1.100000000000001,2.125,6.5));
#707=DIRECTION('',(-1.0,0.0,0.0));
#708=DIRECTION('',(0.0,-1.0,0.0));
#709=AXIS2_PLACEMENT_3D('',#706,#707,#708);
#710=PLANE('',#709);
#711=ORIENTED_EDGE('',*,*,#659,.T.);
#712=CARTESIAN_POINT('',(-1.100000000000001,2.125,6.3));
#713=DIRECTION('',(0.0,1.0,0.0));
#714=VECTOR('',#713,0.15);
#715=LINE('',#712,#714);
#716=EDGE_CURVE('',#648,#674,#715,.T.);
#717=ORIENTED_EDGE('',*,*,#716,.T.);
#718=ORIENTED_EDGE('',*,*,#701,.F.);
#719=ORIENTED_EDGE('',*,*,#490,.F.);
#720=ORIENTED_EDGE('',*,*,#526,.F.);
#721=ORIENTED_EDGE('',*,*,#559,.F.);
#722=ORIENTED_EDGE('',*,*,#581,.F.);
#723=ORIENTED_EDGE('',*,*,#320,.F.);
#724=ORIENTED_EDGE('',*,*,#356,.F.);
#725=ORIENTED_EDGE('',*,*,#389,.F.);
#726=ORIENTED_EDGE('',*,*,#420,.F.);
#727=ORIENTED_EDGE('',*,*,#453,.F.);
#728=EDGE_LOOP('',(#711,#717,#718,#719,#720,#721,#722,#723,#724,#725,#726,#727));
#729=FACE_OUTER_BOUND('',#728,.T.);
#730=ADVANCED_FACE('',(#729),#710,.T.);
#731=CARTESIAN_POINT('',(-0.600000000000001,2.125,1.099999999999999));
#732=DIRECTION('',(0.707106781186548,1.137114E-016,-0.707106781186547));
#733=DIRECTION('',(0.0,1.0,0.0));
#734=AXIS2_PLACEMENT_3D('',#731,#732,#733);
#735=PLANE('',#734);
#736=ORIENTED_EDGE('',*,*,#693,.T.);
#737=CARTESIAN_POINT('',(0.5,2.125,2.200000000000001));
#738=DIRECTION('',(0.0,1.0,0.0));
#739=VECTOR('',#738,0.15);
#740=LINE('',#737,#739);
#741=EDGE_CURVE('',#632,#682,#740,.T.);
#742=ORIENTED_EDGE('',*,*,#741,.F.);
#743=ORIENTED_EDGE('',*,*,#637,.T.);
#744=ORIENTED_EDGE('',*,*,#600,.T.);
#745=EDGE_LOOP('',(#736,#742,#743,#744));
#746=FACE_OUTER_BOUND('',#745,.T.);
#747=ADVANCED_FACE('',(#746),#735,.T.);
#748=CARTESIAN_POINT('',(0.5,2.125,2.200000000000001));
#749=DIRECTION('',(1.0,0.0,0.0));
#750=DIRECTION('',(0.0,1.0,0.0));
#751=AXIS2_PLACEMENT_3D('',#748,#749,#750);
#752=PLANE('',#751);
#753=ORIENTED_EDGE('',*,*,#687,.T.);
#754=CARTESIAN_POINT('',(0.499999999999999,2.125,6.3));
#755=DIRECTION('',(0.0,1.0,0.0));
#756=VECTOR('',#755,0.15);
#757=LINE('',#754,#756);
#758=EDGE_CURVE('',#640,#672,#757,.T.);
#759=ORIENTED_EDGE('',*,*,#758,.F.);
#760=ORIENTED_EDGE('',*,*,#645,.T.);
#761=ORIENTED_EDGE('',*,*,#741,.T.);
#762=EDGE_LOOP('',(#753,#759,#760,#761));
#763=FACE_OUTER_BOUND('',#762,.T.);
#764=ADVANCED_FACE('',(#763),#752,.T.);
#765=CARTESIAN_POINT('',(0.499999999999999,2.125,6.3));
#766=DIRECTION('',(0.0,0.0,1.0));
#767=DIRECTION('',(0.0,-1.0,0.0));
#768=AXIS2_PLACEMENT_3D('',#765,#766,#767);
#769=PLANE('',#768);
#770=ORIENTED_EDGE('',*,*,#653,.T.);
#771=ORIENTED_EDGE('',*,*,#758,.T.);
#772=ORIENTED_EDGE('',*,*,#679,.T.);
#773=ORIENTED_EDGE('',*,*,#716,.F.);
#774=EDGE_LOOP('',(#770,#771,#772,#773));
#775=FACE_OUTER_BOUND('',#774,.T.);
#776=ADVANCED_FACE('',(#775),#769,.T.);
#777=CLOSED_SHELL('',(#330,#361,#394,#425,#458,#500,#531,#564,#586,#625,#665,#705,#730,#747,#764,#776));
#778=MANIFOLD_SOLID_BREP('2C10',#777);
#779=STYLED_ITEM('NONE',(#287),#778);
#780=CARTESIAN_POINT('',(-9.992007E-016,0.125,4.0));
#781=DIRECTION('',(-2.220446E-016,1.0,-6.123234E-017));
#782=DIRECTION('',(1.0,0.0,0.0));
#783=AXIS2_PLACEMENT_3D('',#780,#781,#782);
#784=CYLINDRICAL_SURFACE('',#783,2.65);
#785=CARTESIAN_POINT('',(2.649999999999999,0.175000000000001,4.000000000000001));
#786=VERTEX_POINT('',#785);
#787=CARTESIAN_POINT('',(2.649999999999999,0.125000000000001,4.000000000000001));
#788=VERTEX_POINT('',#787);
#789=CARTESIAN_POINT('',(2.649999999999999,0.175000000000001,4.000000000000001));
#790=DIRECTION('',(0.0,-1.0,0.0));
#791=VECTOR('',#790,0.05);
#792=LINE('',#789,#791);
#793=EDGE_CURVE('',#786,#788,#792,.T.);
#794=ORIENTED_EDGE('',*,*,#793,.F.);
#795=CARTESIAN_POINT('',(-2.650000000000001,0.174999999999999,4.0));
#796=VERTEX_POINT('',#795);
#797=CARTESIAN_POINT('',(-1.010303E-015,0.175,4.0));
#798=DIRECTION('',(0.0,-1.0,0.0));
#799=DIRECTION('',(1.0,0.0,0.0));
#800=AXIS2_PLACEMENT_3D('',#797,#798,#799);
#801=CIRCLE('',#800,2.65);
#802=EDGE_CURVE('',#786,#796,#801,.T.);
#803=ORIENTED_EDGE('',*,*,#802,.T.);
#804=CARTESIAN_POINT('',(-2.650000000000001,0.124999999999999,4.0));
#805=VERTEX_POINT('',#804);
#806=CARTESIAN_POINT('',(-2.650000000000001,0.174999999999999,4.0));
#807=DIRECTION('',(0.0,-1.0,0.0));
#808=VECTOR('',#807,0.05);
#809=LINE('',#806,#808);
#810=EDGE_CURVE('',#796,#805,#809,.T.);
#811=ORIENTED_EDGE('',*,*,#810,.T.);
#812=CARTESIAN_POINT('',(-9.992007E-016,0.125,4.0));
#813=DIRECTION('',(0.0,-1.0,0.0));
#814=DIRECTION('',(1.0,0.0,0.0));
#815=AXIS2_PLACEMENT_3D('',#812,#813,#814);
#816=CIRCLE('',#815,2.65);
#817=EDGE_CURVE('',#788,#805,#816,.T.);
#818=ORIENTED_EDGE('',*,*,#817,.F.);
#819=EDGE_LOOP('',(#794,#803,#811,#818));
#820=FACE_OUTER_BOUND('',#819,.T.);
#821=ADVANCED_FACE('',(#820),#784,.T.);
#822=CARTESIAN_POINT('',(-9.992007E-016,0.125,4.0));
#823=DIRECTION('',(-2.220446E-016,1.0,-6.123234E-017));
#824=DIRECTION('',(1.0,0.0,0.0));
#825=AXIS2_PLACEMENT_3D('',#822,#823,#824);
#826=CYLINDRICAL_SURFACE('',#825,2.65);
#827=ORIENTED_EDGE('',*,*,#793,.T.);
#828=CARTESIAN_POINT('',(-9.992007E-016,0.125,4.0));
#829=DIRECTION('',(0.0,-1.0,0.0));
#830=DIRECTION('',(1.0,0.0,0.0));
#831=AXIS2_PLACEMENT_3D('',#828,#829,#830);
#832=CIRCLE('',#831,2.65);
#833=EDGE_CURVE('',#805,#788,#832,.T.);
#834=ORIENTED_EDGE('',*,*,#833,.F.);
#835=ORIENTED_EDGE('',*,*,#810,.F.);
#836=CARTESIAN_POINT('',(-1.010303E-015,0.175,4.0));
#837=DIRECTION('',(0.0,-1.0,0.0));
#838=DIRECTION('',(1.0,0.0,0.0));
#839=AXIS2_PLACEMENT_3D('',#836,#837,#838);
#840=CIRCLE('',#839,2.65);
#841=EDGE_CURVE('',#796,#786,#840,.T.);
#842=ORIENTED_EDGE('',*,*,#841,.T.);
#843=EDGE_LOOP('',(#827,#834,#835,#842));
#844=FACE_OUTER_BOUND('',#843,.T.);
#845=ADVANCED_FACE('',(#844),#826,.T.);
#846=CARTESIAN_POINT('',(-1.010303E-015,0.175,4.0));
#847=DIRECTION('',(0.0,-1.0,0.0));
#848=DIRECTION('',(1.0,0.0,0.0));
#849=AXIS2_PLACEMENT_3D('',#846,#847,#848);
#850=PLANE('',#849);
#851=ORIENTED_EDGE('',*,*,#802,.F.);
#852=ORIENTED_EDGE('',*,*,#841,.F.);
#853=EDGE_LOOP('',(#851,#852));
#854=FACE_OUTER_BOUND('',#853,.T.);
#855=ADVANCED_FACE('',(#854),#850,.F.);
#856=CARTESIAN_POINT('',(-9.992007E-016,0.125,4.0));
#857=DIRECTION('',(0.0,-1.0,0.0));
#858=DIRECTION('',(1.0,0.0,0.0));
#859=AXIS2_PLACEMENT_3D('',#856,#857,#858);
#860=PLANE('',#859);
#861=ORIENTED_EDGE('',*,*,#817,.T.);
#862=ORIENTED_EDGE('',*,*,#833,.T.);
#863=EDGE_LOOP('',(#861,#862));
#864=FACE_OUTER_BOUND('',#863,.T.);
#865=ADVANCED_FACE('',(#864),#860,.T.);
#866=CLOSED_SHELL('',(#821,#845,#855,#865));
#867=MANIFOLD_SOLID_BREP('2BD2',#866);
#868=COLOUR_RGB('250',0.33,0.33,0.33);
#869=SURFACE_STYLE_USAGE(.BOTH.,#870);
#870=SURFACE_SIDE_STYLE('NONE',(#871));
#871=SURFACE_STYLE_FILL_AREA(#872);
#872=FILL_AREA_STYLE('NONE',(#873));
#873=FILL_AREA_STYLE_COLOUR('NONE',#868);
#874=PRESENTATION_STYLE_ASSIGNMENT((#869));
#875=STYLED_ITEM('NONE',(#874),#867);
#876=CARTESIAN_POINT('',(-9.992007E-016,0.125,4.0));
#877=DIRECTION('',(2.220446E-016,-1.0,6.123234E-017));
#878=DIRECTION('',(1.0,0.0,0.0));
#879=AXIS2_PLACEMENT_3D('',#876,#877,#878);
#880=TOROIDAL_SURFACE('',#879,2.55,0.05);
#881=CARTESIAN_POINT('',(2.549999999999999,0.075000000000001,4.0));
#882=VERTEX_POINT('',#881);
#883=CARTESIAN_POINT('',(2.599999999999999,0.125000000000001,4.000000000000001));
#884=VERTEX_POINT('',#883);
#885=CARTESIAN_POINT('',(2.549999999999999,0.125000000000001,4.000000000000001));
#886=DIRECTION('',(0.0,0.0,1.0));
#887=DIRECTION('',(1.0,0.0,0.0));
#888=AXIS2_PLACEMENT_3D('',#885,#886,#887);
#889=CIRCLE('',#888,0.05);
#890=EDGE_CURVE('',#882,#884,#889,.T.);
#891=ORIENTED_EDGE('',*,*,#890,.F.);
#892=CARTESIAN_POINT('',(-2.550000000000001,0.075,3.999999999999999));
#893=VERTEX_POINT('',#892);
#894=CARTESIAN_POINT('',(-9.880985E-016,0.075,4.0));
#895=DIRECTION('',(0.0,1.0,0.0));
#896=DIRECTION('',(-1.0,0.0,0.0));
#897=AXIS2_PLACEMENT_3D('',#894,#895,#896);
#898=CIRCLE('',#897,2.55);
#899=EDGE_CURVE('',#882,#893,#898,.T.);
#900=ORIENTED_EDGE('',*,*,#899,.T.);
#901=CARTESIAN_POINT('',(-2.600000000000001,0.124999999999999,3.999999999999999));
#902=VERTEX_POINT('',#901);
#903=CARTESIAN_POINT('',(-2.550000000000001,0.125,3.999999999999999));
#904=DIRECTION('',(0.0,0.0,-1.0));
#905=DIRECTION('',(-1.0,0.0,0.0));
#906=AXIS2_PLACEMENT_3D('',#903,#904,#905);
#907=CIRCLE('',#906,0.05);
#908=EDGE_CURVE('',#893,#902,#907,.T.);
#909=ORIENTED_EDGE('',*,*,#908,.T.);
#910=CARTESIAN_POINT('',(-9.992007E-016,0.125,4.0));
#911=DIRECTION('',(0.0,1.0,0.0));
#912=DIRECTION('',(1.0,0.0,0.0));
#913=AXIS2_PLACEMENT_3D('',#910,#911,#912);
#914=CIRCLE('',#913,2.6);
#915=EDGE_CURVE('',#884,#902,#914,.T.);
#916=ORIENTED_EDGE('',*,*,#915,.F.);
#917=EDGE_LOOP('',(#891,#900,#909,#916));
#918=FACE_OUTER_BOUND('',#917,.T.);
#919=ADVANCED_FACE('',(#918),#880,.T.);
#920=CARTESIAN_POINT('',(-9.992007E-016,0.125,4.0));
#921=DIRECTION('',(2.220446E-016,-1.0,6.123234E-017));
#922=DIRECTION('',(1.0,0.0,0.0));
#923=AXIS2_PLACEMENT_3D('',#920,#921,#922);
#924=TOROIDAL_SURFACE('',#923,2.55,0.05);
#925=ORIENTED_EDGE('',*,*,#890,.T.);
#926=CARTESIAN_POINT('',(-9.992007E-016,0.125,4.0));
#927=DIRECTION('',(0.0,1.0,0.0));
#928=DIRECTION('',(1.0,0.0,0.0));
#929=AXIS2_PLACEMENT_3D('',#926,#927,#928);
#930=CIRCLE('',#929,2.6);
#931=EDGE_CURVE('',#902,#884,#930,.T.);
#932=ORIENTED_EDGE('',*,*,#931,.F.);
#933=ORIENTED_EDGE('',*,*,#908,.F.);
#934=CARTESIAN_POINT('',(-9.880985E-016,0.075,4.0));
#935=DIRECTION('',(0.0,1.0,0.0));
#936=DIRECTION('',(-1.0,0.0,0.0));
#937=AXIS2_PLACEMENT_3D('',#934,#935,#936);
#938=CIRCLE('',#937,2.55);
#939=EDGE_CURVE('',#893,#882,#938,.T.);
#940=ORIENTED_EDGE('',*,*,#939,.T.);
#941=EDGE_LOOP('',(#925,#932,#933,#940));
#942=FACE_OUTER_BOUND('',#941,.T.);
#943=ADVANCED_FACE('',(#942),#924,.T.);
#944=CARTESIAN_POINT('',(-9.880985E-016,0.075,4.0));
#945=DIRECTION('',(0.0,-1.0,0.0));
#946=DIRECTION('',(1.0,0.0,0.0));
#947=AXIS2_PLACEMENT_3D('',#944,#945,#946);
#948=PLANE('',#947);
#949=ORIENTED_EDGE('',*,*,#899,.F.);
#950=ORIENTED_EDGE('',*,*,#939,.F.);
#951=EDGE_LOOP('',(#949,#950));
#952=FACE_OUTER_BOUND('',#951,.T.);
#953=ADVANCED_FACE('',(#952),#948,.T.);
#954=CARTESIAN_POINT('',(-9.992007E-016,0.125,4.0));
#955=DIRECTION('',(0.0,1.0,0.0));
#956=DIRECTION('',(-1.0,0.0,0.0));
#957=AXIS2_PLACEMENT_3D('',#954,#955,#956);
#958=PLANE('',#957);
#959=ORIENTED_EDGE('',*,*,#915,.T.);
#960=ORIENTED_EDGE('',*,*,#931,.T.);
#961=EDGE_LOOP('',(#959,#960));
#962=FACE_OUTER_BOUND('',#961,.T.);
#963=ADVANCED_FACE('',(#962),#958,.T.);
#964=CLOSED_SHELL('',(#919,#943,#953,#963));
#965=MANIFOLD_SOLID_BREP('2BAD',#964);
#966=DRAUGHTING_PRE_DEFINED_COLOUR('white');
#967=SURFACE_STYLE_USAGE(.BOTH.,#968);
#968=SURFACE_SIDE_STYLE('NONE',(#969));
#969=SURFACE_STYLE_FILL_AREA(#970);
#970=FILL_AREA_STYLE('NONE',(#971));
#971=FILL_AREA_STYLE_COLOUR('NONE',#966);
#972=PRESENTATION_STYLE_ASSIGNMENT((#967));
#973=STYLED_ITEM('NONE',(#972),#965);
#974=CARTESIAN_POINT('',(-1.221245E-015,1.125,4.0));
#975=DIRECTION('',(2.220446E-016,-1.0,6.123234E-017));
#976=DIRECTION('',(1.0,0.0,0.0));
#977=AXIS2_PLACEMENT_3D('',#974,#975,#976);
#978=CYLINDRICAL_SURFACE('',#977,3.4);
#979=CARTESIAN_POINT('',(3.399999999999999,0.825000000000001,4.000000000000001));
#980=VERTEX_POINT('',#979);
#981=CARTESIAN_POINT('',(3.399999999999999,2.125000000000001,4.000000000000001));
#982=VERTEX_POINT('',#981);
#983=CARTESIAN_POINT('',(3.399999999999999,0.825000000000001,4.000000000000001));
#984=DIRECTION('',(0.0,1.0,0.0));
#985=VECTOR('',#984,1.3);
#986=LINE('',#983,#985);
#987=EDGE_CURVE('',#980,#982,#986,.T.);
#988=ORIENTED_EDGE('',*,*,#987,.F.);
#989=CARTESIAN_POINT('',(-3.400000000000001,0.824999999999999,3.999999999999999));
#990=VERTEX_POINT('',#989);
#991=CARTESIAN_POINT('',(-1.154632E-015,0.825,4.0));
#992=DIRECTION('',(0.0,-1.0,0.0));
#993=DIRECTION('',(-1.0,0.0,0.0));
#994=AXIS2_PLACEMENT_3D('',#991,#992,#993);
#995=CIRCLE('',#994,3.4);
#996=EDGE_CURVE('',#990,#980,#995,.T.);
#997=ORIENTED_EDGE('',*,*,#996,.F.);
#998=CARTESIAN_POINT('',(-3.400000000000001,2.125,3.999999999999999));
#999=VERTEX_POINT('',#998);
#1000=CARTESIAN_POINT('',(-3.400000000000001,0.824999999999999,3.999999999999999));
#1001=DIRECTION('',(0.0,1.0,0.0));
#1002=VECTOR('',#1001,1.3);
#1003=LINE('',#1000,#1002);
#1004=EDGE_CURVE('',#990,#999,#1003,.T.);
#1005=ORIENTED_EDGE('',*,*,#1004,.T.);
#1006=CARTESIAN_POINT('',(-1.443290E-015,2.125,4.0));
#1007=DIRECTION('',(0.0,1.0,0.0));
#1008=DIRECTION('',(1.0,0.0,0.0));
#1009=AXIS2_PLACEMENT_3D('',#1006,#1007,#1008);
#1010=CIRCLE('',#1009,3.4);
#1011=EDGE_CURVE('',#982,#999,#1010,.T.);
#1012=ORIENTED_EDGE('',*,*,#1011,.F.);
#1013=EDGE_LOOP('',(#988,#997,#1005,#1012));
#1014=FACE_OUTER_BOUND('',#1013,.T.);
#1015=ADVANCED_FACE('',(#1014),#978,.T.);
#1016=CARTESIAN_POINT('',(-1.154632E-015,0.825,4.0));
#1017=DIRECTION('',(2.220446E-016,-1.0,6.123234E-017));
#1018=DIRECTION('',(1.0,0.0,0.0));
#1019=AXIS2_PLACEMENT_3D('',#1016,#1017,#1018);
#1020=TOROIDAL_SURFACE('',#1019,2.7,0.7);
#1021=CARTESIAN_POINT('',(2.699999999999999,0.125000000000001,4.0));
#1022=VERTEX_POINT('',#1021);
#1023=CARTESIAN_POINT('',(2.699999999999999,0.825000000000001,4.000000000000001));
#1024=DIRECTION('',(0.0,0.0,1.0));
#1025=DIRECTION('',(1.0,0.0,0.0));
#1026=AXIS2_PLACEMENT_3D('',#1023,#1024,#1025);
#1027=CIRCLE('',#1026,0.7);
#1028=EDGE_CURVE('',#1022,#980,#1027,.T.);
#1029=ORIENTED_EDGE('',*,*,#1028,.F.);
#1030=CARTESIAN_POINT('',(-2.700000000000001,0.124999999999999,3.999999999999999));
#1031=VERTEX_POINT('',#1030);
#1032=CARTESIAN_POINT('',(-9.992007E-016,0.125,4.0));
#1033=DIRECTION('',(0.0,1.0,0.0));
#1034=DIRECTION('',(-1.0,0.0,0.0));
#1035=AXIS2_PLACEMENT_3D('',#1032,#1033,#1034);
#1036=CIRCLE('',#1035,2.7);
#1037=EDGE_CURVE('',#1022,#1031,#1036,.T.);
#1038=ORIENTED_EDGE('',*,*,#1037,.T.);
#1039=CARTESIAN_POINT('',(-2.700000000000002,0.824999999999999,3.999999999999999));
#1040=DIRECTION('',(0.0,0.0,-1.0));
#1041=DIRECTION('',(-1.0,0.0,0.0));
#1042=AXIS2_PLACEMENT_3D('',#1039,#1040,#1041);
#1043=CIRCLE('',#1042,0.7);
#1044=EDGE_CURVE('',#1031,#990,#1043,.T.);
#1045=ORIENTED_EDGE('',*,*,#1044,.T.);
#1046=ORIENTED_EDGE('',*,*,#996,.T.);
#1047=EDGE_LOOP('',(#1029,#1038,#1045,#1046));
#1048=FACE_OUTER_BOUND('',#1047,.T.);
#1049=ADVANCED_FACE('',(#1048),#1020,.T.);
#1050=CARTESIAN_POINT('',(-9.992007E-016,0.125,4.0));
#1051=DIRECTION('',(-2.220446E-016,1.0,-6.123234E-017));
#1052=DIRECTION('',(1.0,0.0,0.0));
#1053=AXIS2_PLACEMENT_3D('',#1050,#1051,#1052);
#1054=CYLINDRICAL_SURFACE('',#1053,2.65);
#1055=CARTESIAN_POINT('',(2.649999999999999,0.125000000000001,4.000000000000001));
#1056=VERTEX_POINT('',#1055);
#1057=CARTESIAN_POINT('',(2.649999999999999,0.175000000000001,4.000000000000001));
#1058=VERTEX_POINT('',#1057);
#1059=CARTESIAN_POINT('',(2.649999999999999,0.125000000000001,4.000000000000001));
#1060=DIRECTION('',(0.0,1.0,0.0));
#1061=VECTOR('',#1060,0.05);
#1062=LINE('',#1059,#1061);
#1063=EDGE_CURVE('',#1056,#1058,#1062,.T.);
#1064=ORIENTED_EDGE('',*,*,#1063,.F.);
#1065=CARTESIAN_POINT('',(-2.650000000000001,0.124999999999999,4.0));
#1066=VERTEX_POINT('',#1065);
#1067=CARTESIAN_POINT('',(-9.992007E-016,0.125,4.0));
#1068=DIRECTION('',(0.0,1.0,0.0));
#1069=DIRECTION('',(1.0,0.0,0.0));
#1070=AXIS2_PLACEMENT_3D('',#1067,#1068,#1069);
#1071=CIRCLE('',#1070,2.65);
#1072=EDGE_CURVE('',#1066,#1056,#1071,.T.);
#1073=ORIENTED_EDGE('',*,*,#1072,.F.);
#1074=CARTESIAN_POINT('',(-2.650000000000001,0.174999999999999,4.0));
#1075=VERTEX_POINT('',#1074);
#1076=CARTESIAN_POINT('',(-2.650000000000001,0.124999999999999,4.0));
#1077=DIRECTION('',(0.0,1.0,0.0));
#1078=VECTOR('',#1077,0.05);
#1079=LINE('',#1076,#1078);
#1080=EDGE_CURVE('',#1066,#1075,#1079,.T.);
#1081=ORIENTED_EDGE('',*,*,#1080,.T.);
#1082=CARTESIAN_POINT('',(-1.010303E-015,0.175,4.0));
#1083=DIRECTION('',(0.0,-1.0,0.0));
#1084=DIRECTION('',(1.0,0.0,0.0));
#1085=AXIS2_PLACEMENT_3D('',#1082,#1083,#1084);
#1086=CIRCLE('',#1085,2.65);
#1087=EDGE_CURVE('',#1058,#1075,#1086,.T.);
#1088=ORIENTED_EDGE('',*,*,#1087,.F.);
#1089=EDGE_LOOP('',(#1064,#1073,#1081,#1088));
#1090=FACE_OUTER_BOUND('',#1089,.T.);
#1091=ADVANCED_FACE('',(#1090),#1054,.F.);
#1092=CARTESIAN_POINT('',(-1.575000000000002,2.125,2.699999999999999));
#1093=DIRECTION('',(-1.0,0.0,0.0));
#1094=DIRECTION('',(0.0,-1.0,0.0));
#1095=AXIS2_PLACEMENT_3D('',#1092,#1093,#1094);
#1096=PLANE('',#1095);
#1097=CARTESIAN_POINT('',(-1.575000000000002,2.075,3.575));
#1098=VERTEX_POINT('',#1097);
#1099=CARTESIAN_POINT('',(-1.575000000000002,2.125,3.575));
#1100=VERTEX_POINT('',#1099);
#1101=CARTESIAN_POINT('',(-1.575000000000002,2.075,3.575));
#1102=DIRECTION('',(0.0,1.0,0.0));
#1103=VECTOR('',#1102,0.05);
#1104=LINE('',#1101,#1103);
#1105=EDGE_CURVE('',#1098,#1100,#1104,.T.);
#1106=ORIENTED_EDGE('',*,*,#1105,.T.);
#1107=CARTESIAN_POINT('',(-1.575000000000002,2.125,4.3));
#1108=VERTEX_POINT('',#1107);
#1109=CARTESIAN_POINT('',(-1.575000000000002,2.125,4.3));
#1110=DIRECTION('',(0.0,0.0,-1.0));
#1111=VECTOR('',#1110,0.725);
#1112=LINE('',#1109,#1111);
#1113=EDGE_CURVE('',#1108,#1100,#1112,.T.);
#1114=ORIENTED_EDGE('',*,*,#1113,.F.);
#1115=CARTESIAN_POINT('',(-1.575000000000002,2.075,4.3));
#1116=VERTEX_POINT('',#1115);
#1117=CARTESIAN_POINT('',(-1.575000000000002,2.125,4.3));
#1118=DIRECTION('',(0.0,-1.0,0.0));
#1119=VECTOR('',#1118,0.05);
#1120=LINE('',#1117,#1119);
#1121=EDGE_CURVE('',#1108,#1116,#1120,.T.);
#1122=ORIENTED_EDGE('',*,*,#1121,.T.);
#1123=CARTESIAN_POINT('',(-1.575000000000002,2.075,3.575));
#1124=DIRECTION('',(0.0,0.0,1.0));
#1125=VECTOR('',#1124,0.724999999999999);
#1126=LINE('',#1123,#1125);
#1127=EDGE_CURVE('',#1098,#1116,#1126,.T.);
#1128=ORIENTED_EDGE('',*,*,#1127,.F.);
#1129=EDGE_LOOP('',(#1106,#1114,#1122,#1128));
#1130=FACE_OUTER_BOUND('',#1129,.T.);
#1131=ADVANCED_FACE('',(#1130),#1096,.F.);
#1132=CARTESIAN_POINT('',(-1.575000000000002,2.125,2.699999999999999));
#1133=DIRECTION('',(-1.0,0.0,0.0));
#1134=DIRECTION('',(0.0,-1.0,0.0));
#1135=AXIS2_PLACEMENT_3D('',#1132,#1133,#1134);
#1136=PLANE('',#1135);
#1137=CARTESIAN_POINT('',(-1.575000000000002,2.125,3.425));
#1138=VERTEX_POINT('',#1137);
#1139=CARTESIAN_POINT('',(-1.575000000000002,2.075,3.425));
#1140=VERTEX_POINT('',#1139);
#1141=CARTESIAN_POINT('',(-1.575000000000002,2.125,3.425));
#1142=DIRECTION('',(0.0,-1.0,0.0));
#1143=VECTOR('',#1142,0.05);
#1144=LINE('',#1141,#1143);
#1145=EDGE_CURVE('',#1138,#1140,#1144,.T.);
#1146=ORIENTED_EDGE('',*,*,#1145,.T.);
#1147=CARTESIAN_POINT('',(-1.575000000000002,2.075,2.699999999999999));
#1148=VERTEX_POINT('',#1147);
#1149=CARTESIAN_POINT('',(-1.575000000000002,2.075,2.699999999999999));
#1150=DIRECTION('',(0.0,0.0,1.0));
#1151=VECTOR('',#1150,0.725);
#1152=LINE('',#1149,#1151);
#1153=EDGE_CURVE('',#1148,#1140,#1152,.T.);
#1154=ORIENTED_EDGE('',*,*,#1153,.F.);
#1155=CARTESIAN_POINT('',(-1.575000000000002,2.125,2.699999999999999));
#1156=VERTEX_POINT('',#1155);
#1157=CARTESIAN_POINT('',(-1.575000000000002,2.125,2.699999999999999));
#1158=DIRECTION('',(0.0,-1.0,0.0));
#1159=VECTOR('',#1158,0.05);
#1160=LINE('',#1157,#1159);
#1161=EDGE_CURVE('',#1156,#1148,#1160,.T.);
#1162=ORIENTED_EDGE('',*,*,#1161,.F.);
#1163=CARTESIAN_POINT('',(-1.575000000000002,2.125,3.425));
#1164=DIRECTION('',(0.0,0.0,-1.0));
#1165=VECTOR('',#1164,0.725000000000001);
#1166=LINE('',#1163,#1165);
#1167=EDGE_CURVE('',#1138,#1156,#1166,.T.);
#1168=ORIENTED_EDGE('',*,*,#1167,.F.);
#1169=EDGE_LOOP('',(#1146,#1154,#1162,#1168));
#1170=FACE_OUTER_BOUND('',#1169,.T.);
#1171=ADVANCED_FACE('',(#1170),#1136,.F.);
#1172=CARTESIAN_POINT('',(-1.425000000000001,2.125,4.3));
#1173=DIRECTION('',(1.0,0.0,0.0));
#1174=DIRECTION('',(0.0,1.0,0.0));
#1175=AXIS2_PLACEMENT_3D('',#1172,#1173,#1174);
#1176=PLANE('',#1175);
#1177=CARTESIAN_POINT('',(-1.425000000000001,2.125,3.575));
#1178=VERTEX_POINT('',#1177);
#1179=CARTESIAN_POINT('',(-1.425000000000001,2.075,3.575));
#1180=VERTEX_POINT('',#1179);
#1181=CARTESIAN_POINT('',(-1.425000000000001,2.125,3.575));
#1182=DIRECTION('',(0.0,-1.0,0.0));
#1183=VECTOR('',#1182,0.05);
#1184=LINE('',#1181,#1183);
#1185=EDGE_CURVE('',#1178,#1180,#1184,.T.);
#1186=ORIENTED_EDGE('',*,*,#1185,.T.);
#1187=CARTESIAN_POINT('',(-1.425000000000001,2.075,4.3));
#1188=VERTEX_POINT('',#1187);
#1189=CARTESIAN_POINT('',(-1.425000000000001,2.075,4.3));
#1190=DIRECTION('',(0.0,0.0,-1.0));
#1191=VECTOR('',#1190,0.725);
#1192=LINE('',#1189,#1191);
#1193=EDGE_CURVE('',#1188,#1180,#1192,.T.);
#1194=ORIENTED_EDGE('',*,*,#1193,.F.);
#1195=CARTESIAN_POINT('',(-1.425000000000001,2.125,4.3));
#1196=VERTEX_POINT('',#1195);
#1197=CARTESIAN_POINT('',(-1.425000000000001,2.125,4.3));
#1198=DIRECTION('',(0.0,-1.0,0.0));
#1199=VECTOR('',#1198,0.05);
#1200=LINE('',#1197,#1199);
#1201=EDGE_CURVE('',#1196,#1188,#1200,.T.);
#1202=ORIENTED_EDGE('',*,*,#1201,.F.);
#1203=CARTESIAN_POINT('',(-1.425000000000001,2.125,3.574999999999999));
#1204=DIRECTION('',(0.0,0.0,1.0));
#1205=VECTOR('',#1204,0.725000000000001);
#1206=LINE('',#1203,#1205);
#1207=EDGE_CURVE('',#1178,#1196,#1206,.T.);
#1208=ORIENTED_EDGE('',*,*,#1207,.F.);
#1209=EDGE_LOOP('',(#1186,#1194,#1202,#1208));
#1210=FACE_OUTER_BOUND('',#1209,.T.);
#1211=ADVANCED_FACE('',(#1210),#1176,.F.);
#1212=CARTESIAN_POINT('',(-1.425000000000001,2.125,2.699999999999999));
#1213=DIRECTION('',(0.0,0.0,-1.0));
#1214=DIRECTION('',(0.0,1.0,0.0));
#1215=AXIS2_PLACEMENT_3D('',#1212,#1213,#1214);
#1216=PLANE('',#1215);
#1217=CARTESIAN_POINT('',(-1.425000000000001,2.075,2.699999999999999));
#1218=VERTEX_POINT('',#1217);
#1219=CARTESIAN_POINT('',(-1.425000000000001,2.075,2.699999999999999));
#1220=DIRECTION('',(-1.0,0.0,0.0));
#1221=VECTOR('',#1220,0.15);
#1222=LINE('',#1219,#1221);
#1223=EDGE_CURVE('',#1218,#1148,#1222,.T.);
#1224=ORIENTED_EDGE('',*,*,#1223,.F.);
#1225=CARTESIAN_POINT('',(-1.425000000000001,2.125,2.699999999999999));
#1226=VERTEX_POINT('',#1225);
#1227=CARTESIAN_POINT('',(-1.425000000000001,2.125,2.699999999999999));
#1228=DIRECTION('',(0.0,-1.0,0.0));
#1229=VECTOR('',#1228,0.05);
#1230=LINE('',#1227,#1229);
#1231=EDGE_CURVE('',#1226,#1218,#1230,.T.);
#1232=ORIENTED_EDGE('',*,*,#1231,.F.);
#1233=CARTESIAN_POINT('',(-1.575000000000001,2.125,2.699999999999999));
#1234=DIRECTION('',(1.0,0.0,0.0));
#1235=VECTOR('',#1234,0.15);
#1236=LINE('',#1233,#1235);
#1237=EDGE_CURVE('',#1156,#1226,#1236,.T.);
#1238=ORIENTED_EDGE('',*,*,#1237,.F.);
#1239=ORIENTED_EDGE('',*,*,#1161,.T.);
#1240=EDGE_LOOP('',(#1224,#1232,#1238,#1239));
#1241=FACE_OUTER_BOUND('',#1240,.T.);
#1242=ADVANCED_FACE('',(#1241),#1216,.F.);
#1243=CARTESIAN_POINT('',(-1.575000000000002,2.125,4.3));
#1244=DIRECTION('',(0.0,0.0,1.0));
#1245=DIRECTION('',(0.0,-1.0,0.0));
#1246=AXIS2_PLACEMENT_3D('',#1243,#1244,#1245);
#1247=PLANE('',#1246);
#1248=CARTESIAN_POINT('',(-1.575000000000002,2.075,4.3));
#1249=DIRECTION('',(1.0,0.0,0.0));
#1250=VECTOR('',#1249,0.15);
#1251=LINE('',#1248,#1250);
#1252=EDGE_CURVE('',#1116,#1188,#1251,.T.);
#1253=ORIENTED_EDGE('',*,*,#1252,.F.);
#1254=ORIENTED_EDGE('',*,*,#1121,.F.);
#1255=CARTESIAN_POINT('',(-1.425000000000001,2.125,4.3));
#1256=DIRECTION('',(-1.0,0.0,0.0));
#1257=VECTOR('',#1256,0.15);
#1258=LINE('',#1255,#1257);
#1259=EDGE_CURVE('',#1196,#1108,#1258,.T.);
#1260=ORIENTED_EDGE('',*,*,#1259,.F.);
#1261=ORIENTED_EDGE('',*,*,#1201,.T.);
#1262=EDGE_LOOP('',(#1253,#1254,#1260,#1261));
#1263=FACE_OUTER_BOUND('',#1262,.T.);
#1264=ADVANCED_FACE('',(#1263),#1247,.F.);
#1265=CARTESIAN_POINT('',(-1.425000000000001,2.125,4.3));
#1266=DIRECTION('',(1.0,0.0,0.0));
#1267=DIRECTION('',(0.0,1.0,0.0));
#1268=AXIS2_PLACEMENT_3D('',#1265,#1266,#1267);
#1269=PLANE('',#1268);
#1270=CARTESIAN_POINT('',(-1.425000000000001,2.075,3.425));
#1271=VERTEX_POINT('',#1270);
#1272=CARTESIAN_POINT('',(-1.425000000000001,2.125,3.425));
#1273=VERTEX_POINT('',#1272);
#1274=CARTESIAN_POINT('',(-1.425000000000001,2.075,3.425));
#1275=DIRECTION('',(0.0,1.0,0.0));
#1276=VECTOR('',#1275,0.05);
#1277=LINE('',#1274,#1276);
#1278=EDGE_CURVE('',#1271,#1273,#1277,.T.);
#1279=ORIENTED_EDGE('',*,*,#1278,.T.);
#1280=CARTESIAN_POINT('',(-1.425000000000001,2.125,2.699999999999999));
#1281=DIRECTION('',(0.0,0.0,1.0));
#1282=VECTOR('',#1281,0.725);
#1283=LINE('',#1280,#1282);
#1284=EDGE_CURVE('',#1226,#1273,#1283,.T.);
#1285=ORIENTED_EDGE('',*,*,#1284,.F.);
#1286=ORIENTED_EDGE('',*,*,#1231,.T.);
#1287=CARTESIAN_POINT('',(-1.425000000000001,2.075,3.424999999999999));
#1288=DIRECTION('',(0.0,0.0,-1.0));
#1289=VECTOR('',#1288,0.725);
#1290=LINE('',#1287,#1289);
#1291=EDGE_CURVE('',#1271,#1218,#1290,.T.);
#1292=ORIENTED_EDGE('',*,*,#1291,.F.);
#1293=EDGE_LOOP('',(#1279,#1285,#1286,#1292));
#1294=FACE_OUTER_BOUND('',#1293,.T.);
#1295=ADVANCED_FACE('',(#1294),#1269,.F.);
#1296=CARTESIAN_POINT('',(-1.500000000000002,2.075,3.5));
#1297=DIRECTION('',(0.0,-1.0,0.0));
#1298=DIRECTION('',(1.0,0.0,0.0));
#1299=AXIS2_PLACEMENT_3D('',#1296,#1297,#1298);
#1300=PLANE('',#1299);
#1301=CARTESIAN_POINT('',(-2.300000000000002,2.074999999999999,3.574999999999999));
#1302=VERTEX_POINT('',#1301);
#1303=CARTESIAN_POINT('',(-2.300000000000002,2.074999999999999,3.574999999999999));
#1304=DIRECTION('',(1.0,0.0,0.0));
#1305=VECTOR('',#1304,0.725000000000001);
#1306=LINE('',#1303,#1305);
#1307=EDGE_CURVE('',#1302,#1098,#1306,.T.);
#1308=ORIENTED_EDGE('',*,*,#1307,.T.);
#1309=ORIENTED_EDGE('',*,*,#1127,.T.);
#1310=ORIENTED_EDGE('',*,*,#1252,.T.);
#1311=ORIENTED_EDGE('',*,*,#1193,.T.);
#1312=CARTESIAN_POINT('',(-0.700000000000001,2.075,3.575));
#1313=VERTEX_POINT('',#1312);
#1314=CARTESIAN_POINT('',(-1.425000000000001,2.074999999999999,3.574999999999999));
#1315=DIRECTION('',(1.0,0.0,0.0));
#1316=VECTOR('',#1315,0.725000000000001);
#1317=LINE('',#1314,#1316);
#1318=EDGE_CURVE('',#1180,#1313,#1317,.T.);
#1319=ORIENTED_EDGE('',*,*,#1318,.T.);
#1320=CARTESIAN_POINT('',(-0.700000000000001,2.075,3.425));
#1321=VERTEX_POINT('',#1320);
#1322=CARTESIAN_POINT('',(-0.700000000000001,2.075,3.575));
#1323=DIRECTION('',(0.0,0.0,-1.0));
#1324=VECTOR('',#1323,0.15);
#1325=LINE('',#1322,#1324);
#1326=EDGE_CURVE('',#1313,#1321,#1325,.T.);
#1327=ORIENTED_EDGE('',*,*,#1326,.T.);
#1328=CARTESIAN_POINT('',(-0.700000000000001,2.075,3.425));
#1329=DIRECTION('',(-1.0,0.0,0.0));
#1330=VECTOR('',#1329,0.725000000000001);
#1331=LINE('',#1328,#1330);
#1332=EDGE_CURVE('',#1321,#1271,#1331,.T.);
#1333=ORIENTED_EDGE('',*,*,#1332,.T.);
#1334=ORIENTED_EDGE('',*,*,#1291,.T.);
#1335=ORIENTED_EDGE('',*,*,#1223,.T.);
#1336=ORIENTED_EDGE('',*,*,#1153,.T.);
#1337=CARTESIAN_POINT('',(-2.300000000000002,2.074999999999999,3.424999999999999));
#1338=VERTEX_POINT('',#1337);
#1339=CARTESIAN_POINT('',(-1.575000000000002,2.075,3.425));
#1340=DIRECTION('',(-1.0,0.0,0.0));
#1341=VECTOR('',#1340,0.725000000000001);
#1342=LINE('',#1339,#1341);
#1343=EDGE_CURVE('',#1140,#1338,#1342,.T.);
#1344=ORIENTED_EDGE('',*,*,#1343,.T.);
#1345=CARTESIAN_POINT('',(-2.300000000000002,2.074999999999999,3.424999999999999));
#1346=DIRECTION('',(0.0,0.0,1.0));
#1347=VECTOR('',#1346,0.15);
#1348=LINE('',#1345,#1347);
#1349=EDGE_CURVE('',#1338,#1302,#1348,.T.);
#1350=ORIENTED_EDGE('',*,*,#1349,.T.);
#1351=EDGE_LOOP('',(#1308,#1309,#1310,#1311,#1319,#1327,#1333,#1334,#1335,#1336,#1344,#1350));
#1352=FACE_OUTER_BOUND('',#1351,.T.);
#1353=ADVANCED_FACE('',(#1352),#1300,.F.);
#1354=CARTESIAN_POINT('',(-0.700000000000001,2.125,3.425));
#1355=DIRECTION('',(0.0,0.0,-1.0));
#1356=DIRECTION('',(0.0,1.0,0.0));
#1357=AXIS2_PLACEMENT_3D('',#1354,#1355,#1356);
#1358=PLANE('',#1357);
#1359=ORIENTED_EDGE('',*,*,#1278,.F.);
#1360=ORIENTED_EDGE('',*,*,#1332,.F.);
#1361=CARTESIAN_POINT('',(-0.700000000000001,2.125,3.425));
#1362=VERTEX_POINT('',#1361);
#1363=CARTESIAN_POINT('',(-0.700000000000001,2.125,3.425));
#1364=DIRECTION('',(0.0,-1.0,0.0));
#1365=VECTOR('',#1364,0.05);
#1366=LINE('',#1363,#1365);
#1367=EDGE_CURVE('',#1362,#1321,#1366,.T.);
#1368=ORIENTED_EDGE('',*,*,#1367,.F.);
#1369=CARTESIAN_POINT('',(-1.425000000000001,2.125,3.424999999999999));
#1370=DIRECTION('',(1.0,0.0,0.0));
#1371=VECTOR('',#1370,0.725000000000001);
#1372=LINE('',#1369,#1371);
#1373=EDGE_CURVE('',#1273,#1362,#1372,.T.);
#1374=ORIENTED_EDGE('',*,*,#1373,.F.);
#1375=EDGE_LOOP('',(#1359,#1360,#1368,#1374));
#1376=FACE_OUTER_BOUND('',#1375,.T.);
#1377=ADVANCED_FACE('',(#1376),#1358,.F.);
#1378=CARTESIAN_POINT('',(-2.300000000000002,2.125,3.574999999999999));
#1379=DIRECTION('',(0.0,0.0,1.0));
#1380=DIRECTION('',(0.0,-1.0,0.0));
#1381=AXIS2_PLACEMENT_3D('',#1378,#1379,#1380);
#1382=PLANE('',#1381);
#1383=ORIENTED_EDGE('',*,*,#1185,.F.);
#1384=CARTESIAN_POINT('',(-0.700000000000001,2.125,3.575));
#1385=VERTEX_POINT('',#1384);
#1386=CARTESIAN_POINT('',(-0.700000000000001,2.125,3.575));
#1387=DIRECTION('',(-1.0,0.0,0.0));
#1388=VECTOR('',#1387,0.725000000000001);
#1389=LINE('',#1386,#1388);
#1390=EDGE_CURVE('',#1385,#1178,#1389,.T.);
#1391=ORIENTED_EDGE('',*,*,#1390,.F.);
#1392=CARTESIAN_POINT('',(-0.700000000000001,2.125,3.575));
#1393=DIRECTION('',(0.0,-1.0,0.0));
#1394=VECTOR('',#1393,0.05);
#1395=LINE('',#1392,#1394);
#1396=EDGE_CURVE('',#1385,#1313,#1395,.T.);
#1397=ORIENTED_EDGE('',*,*,#1396,.T.);
#1398=ORIENTED_EDGE('',*,*,#1318,.F.);
#1399=EDGE_LOOP('',(#1383,#1391,#1397,#1398));
#1400=FACE_OUTER_BOUND('',#1399,.T.);
#1401=ADVANCED_FACE('',(#1400),#1382,.F.);
#1402=CARTESIAN_POINT('',(-0.700000000000001,2.125,3.575));
#1403=DIRECTION('',(1.0,0.0,0.0));
#1404=DIRECTION('',(0.0,1.0,0.0));
#1405=AXIS2_PLACEMENT_3D('',#1402,#1403,#1404);
#1406=PLANE('',#1405);
#1407=ORIENTED_EDGE('',*,*,#1326,.F.);
#1408=ORIENTED_EDGE('',*,*,#1396,.F.);
#1409=CARTESIAN_POINT('',(-0.700000000000001,2.125,3.424999999999999));
#1410=DIRECTION('',(0.0,0.0,1.0));
#1411=VECTOR('',#1410,0.15);
#1412=LINE('',#1409,#1411);
#1413=EDGE_CURVE('',#1362,#1385,#1412,.T.);
#1414=ORIENTED_EDGE('',*,*,#1413,.F.);
#1415=ORIENTED_EDGE('',*,*,#1367,.T.);
#1416=EDGE_LOOP('',(#1407,#1408,#1414,#1415));
#1417=FACE_OUTER_BOUND('',#1416,.T.);
#1418=ADVANCED_FACE('',(#1417),#1406,.F.);
#1419=CARTESIAN_POINT('',(-0.700000000000001,2.125,3.425));
#1420=DIRECTION('',(0.0,0.0,-1.0));
#1421=DIRECTION('',(0.0,1.0,0.0));
#1422=AXIS2_PLACEMENT_3D('',#1419,#1420,#1421);
#1423=PLANE('',#1422);
#1424=ORIENTED_EDGE('',*,*,#1145,.F.);
#1425=CARTESIAN_POINT('',(-2.300000000000002,2.125,3.424999999999999));
#1426=VERTEX_POINT('',#1425);
#1427=CARTESIAN_POINT('',(-2.300000000000002,2.125,3.424999999999999));
#1428=DIRECTION('',(1.0,0.0,0.0));
#1429=VECTOR('',#1428,0.725000000000001);
#1430=LINE('',#1427,#1429);
#1431=EDGE_CURVE('',#1426,#1138,#1430,.T.);
#1432=ORIENTED_EDGE('',*,*,#1431,.F.);
#1433=CARTESIAN_POINT('',(-2.300000000000002,2.125,3.424999999999999));
#1434=DIRECTION('',(0.0,-1.0,0.0));
#1435=VECTOR('',#1434,0.05);
#1436=LINE('',#1433,#1435);
#1437=EDGE_CURVE('',#1426,#1338,#1436,.T.);
#1438=ORIENTED_EDGE('',*,*,#1437,.T.);
#1439=ORIENTED_EDGE('',*,*,#1343,.F.);
#1440=EDGE_LOOP('',(#1424,#1432,#1438,#1439));
#1441=FACE_OUTER_BOUND('',#1440,.T.);
#1442=ADVANCED_FACE('',(#1441),#1423,.F.);
#1443=CARTESIAN_POINT('',(-2.300000000000002,2.125,3.424999999999999));
#1444=DIRECTION('',(-1.0,0.0,0.0));
#1445=DIRECTION('',(0.0,-1.0,0.0));
#1446=AXIS2_PLACEMENT_3D('',#1443,#1444,#1445);
#1447=PLANE('',#1446);
#1448=ORIENTED_EDGE('',*,*,#1349,.F.);
#1449=ORIENTED_EDGE('',*,*,#1437,.F.);
#1450=CARTESIAN_POINT('',(-2.300000000000002,2.125,3.574999999999999));
#1451=VERTEX_POINT('',#1450);
#1452=CARTESIAN_POINT('',(-2.300000000000002,2.125,3.575));
#1453=DIRECTION('',(0.0,0.0,-1.0));
#1454=VECTOR('',#1453,0.15);
#1455=LINE('',#1452,#1454);
#1456=EDGE_CURVE('',#1451,#1426,#1455,.T.);
#1457=ORIENTED_EDGE('',*,*,#1456,.F.);
#1458=CARTESIAN_POINT('',(-2.300000000000002,2.125,3.574999999999999));
#1459=DIRECTION('',(0.0,-1.0,0.0));
#1460=VECTOR('',#1459,0.05);
#1461=LINE('',#1458,#1460);
#1462=EDGE_CURVE('',#1451,#1302,#1461,.T.);
#1463=ORIENTED_EDGE('',*,*,#1462,.T.);
#1464=EDGE_LOOP('',(#1448,#1449,#1457,#1463));
#1465=FACE_OUTER_BOUND('',#1464,.T.);
#1466=ADVANCED_FACE('',(#1465),#1447,.F.);
#1467=CARTESIAN_POINT('',(-2.300000000000002,2.125,3.574999999999999));
#1468=DIRECTION('',(0.0,0.0,1.0));
#1469=DIRECTION('',(0.0,-1.0,0.0));
#1470=AXIS2_PLACEMENT_3D('',#1467,#1468,#1469);
#1471=PLANE('',#1470);
#1472=ORIENTED_EDGE('',*,*,#1105,.F.);
#1473=ORIENTED_EDGE('',*,*,#1307,.F.);
#1474=ORIENTED_EDGE('',*,*,#1462,.F.);
#1475=CARTESIAN_POINT('',(-1.575000000000002,2.125,3.575));
#1476=DIRECTION('',(-1.0,0.0,0.0));
#1477=VECTOR('',#1476,0.725000000000001);
#1478=LINE('',#1475,#1477);
#1479=EDGE_CURVE('',#1100,#1451,#1478,.T.);
#1480=ORIENTED_EDGE('',*,*,#1479,.F.);
#1481=EDGE_LOOP('',(#1472,#1473,#1474,#1480));
#1482=FACE_OUTER_BOUND('',#1481,.T.);
#1483=ADVANCED_FACE('',(#1482),#1471,.F.);
#1484=CARTESIAN_POINT('',(-9.992007E-016,0.125,4.0));
#1485=DIRECTION('',(-2.220446E-016,1.0,-6.123234E-017));
#1486=DIRECTION('',(1.0,0.0,0.0));
#1487=AXIS2_PLACEMENT_3D('',#1484,#1485,#1486);
#1488=CYLINDRICAL_SURFACE('',#1487,2.65);
#1489=ORIENTED_EDGE('',*,*,#1063,.T.);
#1490=CARTESIAN_POINT('',(-1.010303E-015,0.175,4.0));
#1491=DIRECTION('',(0.0,-1.0,0.0));
#1492=DIRECTION('',(1.0,0.0,0.0));
#1493=AXIS2_PLACEMENT_3D('',#1490,#1491,#1492);
#1494=CIRCLE('',#1493,2.65);
#1495=EDGE_CURVE('',#1075,#1058,#1494,.T.);
#1496=ORIENTED_EDGE('',*,*,#1495,.F.);
#1497=ORIENTED_EDGE('',*,*,#1080,.F.);
#1498=CARTESIAN_POINT('',(-9.992007E-016,0.125,4.0));
#1499=DIRECTION('',(0.0,1.0,0.0));
#1500=DIRECTION('',(1.0,0.0,0.0));
#1501=AXIS2_PLACEMENT_3D('',#1498,#1499,#1500);
#1502=CIRCLE('',#1501,2.65);
#1503=EDGE_CURVE('',#1056,#1066,#1502,.T.);
#1504=ORIENTED_EDGE('',*,*,#1503,.F.);
#1505=EDGE_LOOP('',(#1489,#1496,#1497,#1504));
#1506=FACE_OUTER_BOUND('',#1505,.T.);
#1507=ADVANCED_FACE('',(#1506),#1488,.F.);
#1508=CARTESIAN_POINT('',(-1.010303E-015,0.175,4.0));
#1509=DIRECTION('',(0.0,-1.0,0.0));
#1510=DIRECTION('',(1.0,0.0,0.0));
#1511=AXIS2_PLACEMENT_3D('',#1508,#1509,#1510);
#1512=PLANE('',#1511);
#1513=ORIENTED_EDGE('',*,*,#1087,.T.);
#1514=ORIENTED_EDGE('',*,*,#1495,.T.);
#1515=EDGE_LOOP('',(#1513,#1514));
#1516=FACE_OUTER_BOUND('',#1515,.T.);
#1517=ADVANCED_FACE('',(#1516),#1512,.T.);
#1518=CARTESIAN_POINT('',(-1.154632E-015,0.825,4.0));
#1519=DIRECTION('',(2.220446E-016,-1.0,6.123234E-017));
#1520=DIRECTION('',(1.0,0.0,0.0));
#1521=AXIS2_PLACEMENT_3D('',#1518,#1519,#1520);
#1522=TOROIDAL_SURFACE('',#1521,2.7,0.7);
#1523=ORIENTED_EDGE('',*,*,#1028,.T.);
#1524=CARTESIAN_POINT('',(-1.154632E-015,0.825,4.0));
#1525=DIRECTION('',(0.0,-1.0,0.0));
#1526=DIRECTION('',(-1.0,0.0,0.0));
#1527=AXIS2_PLACEMENT_3D('',#1524,#1525,#1526);
#1528=CIRCLE('',#1527,3.4);
#1529=EDGE_CURVE('',#980,#990,#1528,.T.);
#1530=ORIENTED_EDGE('',*,*,#1529,.T.);
#1531=ORIENTED_EDGE('',*,*,#1044,.F.);
#1532=CARTESIAN_POINT('',(-9.992007E-016,0.125,4.0));
#1533=DIRECTION('',(0.0,1.0,0.0));
#1534=DIRECTION('',(-1.0,0.0,0.0));
#1535=AXIS2_PLACEMENT_3D('',#1532,#1533,#1534);
#1536=CIRCLE('',#1535,2.7);
#1537=EDGE_CURVE('',#1031,#1022,#1536,.T.);
#1538=ORIENTED_EDGE('',*,*,#1537,.T.);
#1539=EDGE_LOOP('',(#1523,#1530,#1531,#1538));
#1540=FACE_OUTER_BOUND('',#1539,.T.);
#1541=ADVANCED_FACE('',(#1540),#1522,.T.);
#1542=CARTESIAN_POINT('',(-1.221245E-015,1.125,4.0));
#1543=DIRECTION('',(2.220446E-016,-1.0,6.123234E-017));
#1544=DIRECTION('',(1.0,0.0,0.0));
#1545=AXIS2_PLACEMENT_3D('',#1542,#1543,#1544);
#1546=CYLINDRICAL_SURFACE('',#1545,3.4);
#1547=ORIENTED_EDGE('',*,*,#987,.T.);
#1548=CARTESIAN_POINT('',(-1.443290E-015,2.125,4.0));
#1549=DIRECTION('',(0.0,1.0,0.0));
#1550=DIRECTION('',(1.0,0.0,0.0));
#1551=AXIS2_PLACEMENT_3D('',#1548,#1549,#1550);
#1552=CIRCLE('',#1551,3.4);
#1553=EDGE_CURVE('',#999,#982,#1552,.T.);
#1554=ORIENTED_EDGE('',*,*,#1553,.F.);
#1555=ORIENTED_EDGE('',*,*,#1004,.F.);
#1556=ORIENTED_EDGE('',*,*,#1529,.F.);
#1557=EDGE_LOOP('',(#1547,#1554,#1555,#1556));
#1558=FACE_OUTER_BOUND('',#1557,.T.);
#1559=ADVANCED_FACE('',(#1558),#1546,.T.);
#1560=CARTESIAN_POINT('',(-9.992007E-016,0.125,4.0));
#1561=DIRECTION('',(0.0,-1.0,0.0));
#1562=DIRECTION('',(1.0,0.0,0.0));
#1563=AXIS2_PLACEMENT_3D('',#1560,#1561,#1562);
#1564=PLANE('',#1563);
#1565=ORIENTED_EDGE('',*,*,#1037,.F.);
#1566=ORIENTED_EDGE('',*,*,#1537,.F.);
#1567=EDGE_LOOP('',(#1565,#1566));
#1568=FACE_OUTER_BOUND('',#1567,.T.);
#1569=ORIENTED_EDGE('',*,*,#1503,.T.);
#1570=ORIENTED_EDGE('',*,*,#1072,.T.);
#1571=EDGE_LOOP('',(#1569,#1570));
#1572=FACE_BOUND('',#1571,.T.);
#1573=ADVANCED_FACE('',(#1568,#1572),#1564,.T.);
#1574=CARTESIAN_POINT('',(-1.443290E-015,2.125,4.0));
#1575=DIRECTION('',(0.0,1.0,0.0));
#1576=DIRECTION('',(-1.0,0.0,0.0));
#1577=AXIS2_PLACEMENT_3D('',#1574,#1575,#1576);
#1578=PLANE('',#1577);
#1579=ORIENTED_EDGE('',*,*,#1011,.T.);
#1580=ORIENTED_EDGE('',*,*,#1553,.T.);
#1581=EDGE_LOOP('',(#1579,#1580));
#1582=FACE_OUTER_BOUND('',#1581,.T.);
#1583=ORIENTED_EDGE('',*,*,#1207,.T.);
#1584=ORIENTED_EDGE('',*,*,#1259,.T.);
#1585=ORIENTED_EDGE('',*,*,#1113,.T.);
#1586=ORIENTED_EDGE('',*,*,#1479,.T.);
#1587=ORIENTED_EDGE('',*,*,#1456,.T.);
#1588=ORIENTED_EDGE('',*,*,#1431,.T.);
#1589=ORIENTED_EDGE('',*,*,#1167,.T.);
#1590=ORIENTED_EDGE('',*,*,#1237,.T.);
#1591=ORIENTED_EDGE('',*,*,#1284,.T.);
#1592=ORIENTED_EDGE('',*,*,#1373,.T.);
#1593=ORIENTED_EDGE('',*,*,#1413,.T.);
#1594=ORIENTED_EDGE('',*,*,#1390,.T.);
#1595=EDGE_LOOP('',(#1583,#1584,#1585,#1586,#1587,#1588,#1589,#1590,#1591,#1592,#1593,#1594));
#1596=FACE_BOUND('',#1595,.T.);
#1597=ADVANCED_FACE('',(#1582,#1596),#1578,.T.);
#1598=CLOSED_SHELL('',(#1015,#1049,#1091,#1131,#1171,#1211,#1242,#1264,#1295,#1353,#1377,#1401,#1418,#1442,#1466,#1483,#1507,#1517,#1541,#1559,#1573,#1597));
#1599=MANIFOLD_SOLID_BREP('2BA9',#1598);
#1600=COLOUR_RGB('254',0.866,0.866,0.866);
#1601=SURFACE_STYLE_USAGE(.BOTH.,#1602);
#1602=SURFACE_SIDE_STYLE('NONE',(#1603));
#1603=SURFACE_STYLE_FILL_AREA(#1604);
#1604=FILL_AREA_STYLE('NONE',(#1605));
#1605=FILL_AREA_STYLE_COLOUR('NONE',#1600);
#1606=PRESENTATION_STYLE_ASSIGNMENT((#1601));
#1607=STYLED_ITEM('NONE',(#1606),#1599);
#1608=ADVANCED_BREP_SHAPE_REPRESENTATION('ABSR1',(#280,#778,#867,#965,#1599),#28);
#1609=SHAPE_REPRESENTATION_RELATIONSHIP('SRRPL1','',#1608,#62);
ENDSEC;
END-ISO-10303-21;
