ISO-10303-21;
HEADER;
/****************************************************************
 * Generated by software with PDElib inside                    *
 * PDElib Version v51a, created Fri 09/10/2010                  *
 * ITI Transcendata (http://www.transcendata.com/)              *
 ****************************************************************/
FILE_DESCRIPTION((''),'2;1');
FILE_NAME('BIVAR_121-032.stp','2013-10-24T08:52:26',(''),(''),'Mechanical Desktop 2011','Mechanical Desktop 2011',', , ');
FILE_SCHEMA(('AUTOMOTIVE_DESIGN { 1 2 10303 214 1 1 1 1 }'));
ENDSEC;
DATA;
#10=(NAMED_UNIT(*)PLANE_ANGLE_UNIT()SI_UNIT($,.RADIAN.));
#11=DIMENSIONAL_EXPONENTS(0.0,0.0,0.0,0.0,0.0,0.0,0.0);
#12=PLANE_ANGLE_MEASURE_WITH_UNIT(PLANE_ANGLE_MEASURE(0.0174532925),#10);
#16=(CONVERSION_BASED_UNIT('DEGREE',#12)NAMED_UNIT(#11)PLANE_ANGLE_UNIT());
#20=(NAMED_UNIT(*)SI_UNIT($,.STERADIAN.)SOLID_ANGLE_UNIT());
#24=(LENGTH_UNIT()NAMED_UNIT(*)SI_UNIT(.MILLI.,.METRE.));
#26=UNCERTAINTY_MEASURE_WITH_UNIT(LENGTH_MEASURE(0.000001),#24,'DISTANCE_ACCURACY_VALUE','');
#28=(GEOMETRIC_REPRESENTATION_CONTEXT(3)GLOBAL_UNCERTAINTY_ASSIGNED_CONTEXT((#26))GLOBAL_UNIT_ASSIGNED_CONTEXT((#16,#20,#24))REPRESENTATION_CONTEXT('','3D'));
#29=APPLICATION_CONTEXT('automotive design');
#30=APPLICATION_PROTOCOL_DEFINITION('INTERNATIONAL_STANDARD','automotive_design',1998,#29);
#31=PRODUCT_CONTEXT('3D Mechanical Parts',#29,'mechanical');
#32=PRODUCT('Product','Product','',(#31));
#33=PRODUCT_RELATED_PRODUCT_CATEGORY('part',$,(#32));
#34=PRODUCT_CATEGORY('part',$);
#35=PERSON('1','Design','Joe',$,$,$);
#36=ORGANIZATION($,'None','None');
#37=PERSON_AND_ORGANIZATION(#35,#36);
#38=PERSON_AND_ORGANIZATION_ROLE('design_owner');
#39=APPLIED_PERSON_AND_ORGANIZATION_ASSIGNMENT(#37,#38,(#32));
#40=PRODUCT_DEFINITION_FORMATION_WITH_SPECIFIED_SOURCE('None','',#32,.BOUGHT.);
#41=PERSON('2','Creator','Joe',$,$,$);
#42=ORGANIZATION($,'None','None');
#43=PERSON_AND_ORGANIZATION(#41,#42);
#44=PERSON_AND_ORGANIZATION_ROLE('creator');
#45=APPLIED_PERSON_AND_ORGANIZATION_ASSIGNMENT(#43,#44,(#40));
#46=PERSON('3','Supplier','Joe',$,$,$);
#47=ORGANIZATION($,'None','None');
#48=PERSON_AND_ORGANIZATION(#46,#47);
#49=PERSON_AND_ORGANIZATION_ROLE('design_supplier');
#50=APPLIED_PERSON_AND_ORGANIZATION_ASSIGNMENT(#48,#49,(#40));
#51=PRODUCT_DEFINITION_CONTEXT('part definition',#29,'design');
#52=PRODUCT_DEFINITION('None','',#40,#51);
#53=PERSON('4','Creator','Joe',$,$,$);
#54=ORGANIZATION($,'None','None');
#55=PERSON_AND_ORGANIZATION(#53,#54);
#56=PERSON_AND_ORGANIZATION_ROLE('creator');
#57=APPLIED_PERSON_AND_ORGANIZATION_ASSIGNMENT(#55,#56,(#52));
#58=CARTESIAN_POINT('NONE',(0.0,0.0,0.0));
#59=DIRECTION('NONE',(0.0,0.0,1.0));
#60=DIRECTION('NONE',(1.0,0.0,0.0));
#61=AXIS2_PLACEMENT_3D('NONE',#58,#59,#60);
#62=SHAPE_REPRESENTATION('SR1',(#61),#28);
#63=PRODUCT_DEFINITION_SHAPE('PDS1','Test Part',#52);
#64=SHAPE_DEFINITION_REPRESENTATION(#63,#62);
#65=CARTESIAN_POINT('',(0.0,1.25,0.4));
#66=DIRECTION('',(0.0,0.0,1.0));
#67=DIRECTION('',(1.0,0.0,0.0));
#68=AXIS2_PLACEMENT_3D('',#65,#66,#67);
#69=CYLINDRICAL_SURFACE('',#68,0.4);
#70=CARTESIAN_POINT('',(0.4,1.25,0.0));
#71=VERTEX_POINT('',#70);
#72=CARTESIAN_POINT('',(0.4,1.25,0.8));
#73=VERTEX_POINT('',#72);
#74=CARTESIAN_POINT('',(0.4,1.25,0.0));
#75=DIRECTION('',(0.0,0.0,1.0));
#76=VECTOR('',#75,0.8);
#77=LINE('',#74,#76);
#78=EDGE_CURVE('',#71,#73,#77,.T.);
#79=ORIENTED_EDGE('',*,*,#78,.F.);
#80=CARTESIAN_POINT('',(-0.4,1.25,0.0));
#81=VERTEX_POINT('',#80);
#82=CARTESIAN_POINT('',(0.0,1.25,0.0));
#83=DIRECTION('',(0.0,0.0,1.0));
#84=DIRECTION('',(1.0,0.0,0.0));
#85=AXIS2_PLACEMENT_3D('',#82,#83,#84);
#86=CIRCLE('',#85,0.4);
#87=EDGE_CURVE('',#81,#71,#86,.T.);
#88=ORIENTED_EDGE('',*,*,#87,.F.);
#89=CARTESIAN_POINT('',(-0.4,1.25,0.8));
#90=VERTEX_POINT('',#89);
#91=CARTESIAN_POINT('',(-0.4,1.25,0.0));
#92=DIRECTION('',(0.0,0.0,1.0));
#93=VECTOR('',#92,0.8);
#94=LINE('',#91,#93);
#95=EDGE_CURVE('',#81,#90,#94,.T.);
#96=ORIENTED_EDGE('',*,*,#95,.T.);
#97=CARTESIAN_POINT('',(0.0,1.25,0.8));
#98=DIRECTION('',(0.0,0.0,-1.0));
#99=DIRECTION('',(1.0,0.0,0.0));
#100=AXIS2_PLACEMENT_3D('',#97,#98,#99);
#101=CIRCLE('',#100,0.4);
#102=EDGE_CURVE('',#73,#90,#101,.T.);
#103=ORIENTED_EDGE('',*,*,#102,.F.);
#104=EDGE_LOOP('',(#79,#88,#96,#103));
#105=FACE_OUTER_BOUND('',#104,.T.);
#106=ADVANCED_FACE('',(#105),#69,.F.);
#107=CARTESIAN_POINT('',(1.25,0.0,0.4));
#108=DIRECTION('',(0.0,0.0,1.0));
#109=DIRECTION('',(1.0,0.0,0.0));
#110=AXIS2_PLACEMENT_3D('',#107,#108,#109);
#111=CYLINDRICAL_SURFACE('',#110,0.4);
#112=CARTESIAN_POINT('',(1.65,0.0,0.0));
#113=VERTEX_POINT('',#112);
#114=CARTESIAN_POINT('',(1.65,0.0,0.8));
#115=VERTEX_POINT('',#114);
#116=CARTESIAN_POINT('',(1.65,0.0,0.0));
#117=DIRECTION('',(0.0,0.0,1.0));
#118=VECTOR('',#117,0.8);
#119=LINE('',#116,#118);
#120=EDGE_CURVE('',#113,#115,#119,.T.);
#121=ORIENTED_EDGE('',*,*,#120,.F.);
#122=CARTESIAN_POINT('',(0.85,-4.898587E-017,0.0));
#123=VERTEX_POINT('',#122);
#124=CARTESIAN_POINT('',(1.25,0.0,0.0));
#125=DIRECTION('',(0.0,0.0,1.0));
#126=DIRECTION('',(1.0,0.0,0.0));
#127=AXIS2_PLACEMENT_3D('',#124,#125,#126);
#128=CIRCLE('',#127,0.4);
#129=EDGE_CURVE('',#123,#113,#128,.T.);
#130=ORIENTED_EDGE('',*,*,#129,.F.);
#131=CARTESIAN_POINT('',(0.85,-4.898587E-017,0.8));
#132=VERTEX_POINT('',#131);
#133=CARTESIAN_POINT('',(0.85,-4.898587E-017,0.0));
#134=DIRECTION('',(0.0,0.0,1.0));
#135=VECTOR('',#134,0.8);
#136=LINE('',#133,#135);
#137=EDGE_CURVE('',#123,#132,#136,.T.);
#138=ORIENTED_EDGE('',*,*,#137,.T.);
#139=CARTESIAN_POINT('',(1.25,0.0,0.8));
#140=DIRECTION('',(0.0,0.0,-1.0));
#141=DIRECTION('',(1.0,0.0,0.0));
#142=AXIS2_PLACEMENT_3D('',#139,#140,#141);
#143=CIRCLE('',#142,0.4);
#144=EDGE_CURVE('',#115,#132,#143,.T.);
#145=ORIENTED_EDGE('',*,*,#144,.F.);
#146=EDGE_LOOP('',(#121,#130,#138,#145));
#147=FACE_OUTER_BOUND('',#146,.T.);
#148=ADVANCED_FACE('',(#147),#111,.F.);
#149=CARTESIAN_POINT('',(0.0,-1.25,0.4));
#150=DIRECTION('',(0.0,0.0,1.0));
#151=DIRECTION('',(1.0,0.0,0.0));
#152=AXIS2_PLACEMENT_3D('',#149,#150,#151);
#153=CYLINDRICAL_SURFACE('',#152,0.4);
#154=CARTESIAN_POINT('',(0.4,-1.25,0.0));
#155=VERTEX_POINT('',#154);
#156=CARTESIAN_POINT('',(0.4,-1.25,0.8));
#157=VERTEX_POINT('',#156);
#158=CARTESIAN_POINT('',(0.4,-1.25,0.0));
#159=DIRECTION('',(0.0,0.0,1.0));
#160=VECTOR('',#159,0.8);
#161=LINE('',#158,#160);
#162=EDGE_CURVE('',#155,#157,#161,.T.);
#163=ORIENTED_EDGE('',*,*,#162,.F.);
#164=CARTESIAN_POINT('',(-0.4,-1.25,0.0));
#165=VERTEX_POINT('',#164);
#166=CARTESIAN_POINT('',(0.0,-1.25,0.0));
#167=DIRECTION('',(0.0,0.0,1.0));
#168=DIRECTION('',(1.0,0.0,0.0));
#169=AXIS2_PLACEMENT_3D('',#166,#167,#168);
#170=CIRCLE('',#169,0.4);
#171=EDGE_CURVE('',#165,#155,#170,.T.);
#172=ORIENTED_EDGE('',*,*,#171,.F.);
#173=CARTESIAN_POINT('',(-0.4,-1.25,0.8));
#174=VERTEX_POINT('',#173);
#175=CARTESIAN_POINT('',(-0.4,-1.25,0.0));
#176=DIRECTION('',(0.0,0.0,1.0));
#177=VECTOR('',#176,0.8);
#178=LINE('',#175,#177);
#179=EDGE_CURVE('',#165,#174,#178,.T.);
#180=ORIENTED_EDGE('',*,*,#179,.T.);
#181=CARTESIAN_POINT('',(0.0,-1.25,0.8));
#182=DIRECTION('',(0.0,0.0,-1.0));
#183=DIRECTION('',(1.0,0.0,0.0));
#184=AXIS2_PLACEMENT_3D('',#181,#182,#183);
#185=CIRCLE('',#184,0.4);
#186=EDGE_CURVE('',#157,#174,#185,.T.);
#187=ORIENTED_EDGE('',*,*,#186,.F.);
#188=EDGE_LOOP('',(#163,#172,#180,#187));
#189=FACE_OUTER_BOUND('',#188,.T.);
#190=ADVANCED_FACE('',(#189),#153,.F.);
#191=CARTESIAN_POINT('',(-1.25,0.0,0.4));
#192=DIRECTION('',(0.0,0.0,1.0));
#193=DIRECTION('',(1.0,0.0,0.0));
#194=AXIS2_PLACEMENT_3D('',#191,#192,#193);
#195=CYLINDRICAL_SURFACE('',#194,0.4);
#196=CARTESIAN_POINT('',(-0.85,0.0,0.0));
#197=VERTEX_POINT('',#196);
#198=CARTESIAN_POINT('',(-0.85,0.0,0.8));
#199=VERTEX_POINT('',#198);
#200=CARTESIAN_POINT('',(-0.85,0.0,0.0));
#201=DIRECTION('',(0.0,0.0,1.0));
#202=VECTOR('',#201,0.8);
#203=LINE('',#200,#202);
#204=EDGE_CURVE('',#197,#199,#203,.T.);
#205=ORIENTED_EDGE('',*,*,#204,.F.);
#206=CARTESIAN_POINT('',(-1.65,-4.898587E-017,0.0));
#207=VERTEX_POINT('',#206);
#208=CARTESIAN_POINT('',(-1.25,0.0,0.0));
#209=DIRECTION('',(0.0,0.0,1.0));
#210=DIRECTION('',(1.0,0.0,0.0));
#211=AXIS2_PLACEMENT_3D('',#208,#209,#210);
#212=CIRCLE('',#211,0.4);
#213=EDGE_CURVE('',#207,#197,#212,.T.);
#214=ORIENTED_EDGE('',*,*,#213,.F.);
#215=CARTESIAN_POINT('',(-1.65,-4.898587E-017,0.8));
#216=VERTEX_POINT('',#215);
#217=CARTESIAN_POINT('',(-1.65,-4.898587E-017,0.0));
#218=DIRECTION('',(0.0,0.0,1.0));
#219=VECTOR('',#218,0.8);
#220=LINE('',#217,#219);
#221=EDGE_CURVE('',#207,#216,#220,.T.);
#222=ORIENTED_EDGE('',*,*,#221,.T.);
#223=CARTESIAN_POINT('',(-1.25,0.0,0.8));
#224=DIRECTION('',(0.0,0.0,-1.0));
#225=DIRECTION('',(1.0,0.0,0.0));
#226=AXIS2_PLACEMENT_3D('',#223,#224,#225);
#227=CIRCLE('',#226,0.4);
#228=EDGE_CURVE('',#199,#216,#227,.T.);
#229=ORIENTED_EDGE('',*,*,#228,.F.);
#230=EDGE_LOOP('',(#205,#214,#222,#229));
#231=FACE_OUTER_BOUND('',#230,.T.);
#232=ADVANCED_FACE('',(#231),#195,.F.);
#233=CARTESIAN_POINT('',(0.0,0.0,0.7));
#234=DIRECTION('',(0.0,0.0,1.0));
#235=DIRECTION('',(1.0,0.0,0.0));
#236=AXIS2_PLACEMENT_3D('',#233,#234,#235);
#237=TOROIDAL_SURFACE('',#236,2.25,0.1);
#238=CARTESIAN_POINT('',(2.25,-5.510911E-016,0.8));
#239=VERTEX_POINT('',#238);
#240=CARTESIAN_POINT('',(2.35,0.0,0.7));
#241=VERTEX_POINT('',#240);
#242=CARTESIAN_POINT('',(2.25,0.0,0.7));
#243=DIRECTION('',(0.0,1.0,0.0));
#244=DIRECTION('',(1.0,0.0,0.0));
#245=AXIS2_PLACEMENT_3D('',#242,#243,#244);
#246=CIRCLE('',#245,0.1);
#247=EDGE_CURVE('',#239,#241,#246,.T.);
#248=ORIENTED_EDGE('',*,*,#247,.F.);
#249=CARTESIAN_POINT('',(-2.25,-2.755455E-016,0.8));
#250=VERTEX_POINT('',#249);
#251=CARTESIAN_POINT('',(0.0,0.0,0.8));
#252=DIRECTION('',(0.0,0.0,-1.0));
#253=DIRECTION('',(-1.0,0.0,0.0));
#254=AXIS2_PLACEMENT_3D('',#251,#252,#253);
#255=CIRCLE('',#254,2.25);
#256=EDGE_CURVE('',#239,#250,#255,.T.);
#257=ORIENTED_EDGE('',*,*,#256,.T.);
#258=CARTESIAN_POINT('',(-2.35,-2.877920E-016,0.7));
#259=VERTEX_POINT('',#258);
#260=CARTESIAN_POINT('',(-2.25,-2.755455E-016,0.7));
#261=DIRECTION('',(0.0,-1.0,0.0));
#262=DIRECTION('',(-1.0,0.0,0.0));
#263=AXIS2_PLACEMENT_3D('',#260,#261,#262);
#264=CIRCLE('',#263,0.1);
#265=EDGE_CURVE('',#250,#259,#264,.T.);
#266=ORIENTED_EDGE('',*,*,#265,.T.);
#267=CARTESIAN_POINT('',(0.0,0.0,0.7));
#268=DIRECTION('',(0.0,0.0,1.0));
#269=DIRECTION('',(-1.0,0.0,0.0));
#270=AXIS2_PLACEMENT_3D('',#267,#268,#269);
#271=CIRCLE('',#270,2.35);
#272=EDGE_CURVE('',#259,#241,#271,.T.);
#273=ORIENTED_EDGE('',*,*,#272,.T.);
#274=EDGE_LOOP('',(#248,#257,#266,#273));
#275=FACE_OUTER_BOUND('',#274,.T.);
#276=ADVANCED_FACE('',(#275),#237,.T.);
#277=CARTESIAN_POINT('',(0.0,0.0,0.4));
#278=DIRECTION('',(0.0,0.0,1.0));
#279=DIRECTION('',(1.0,0.0,0.0));
#280=AXIS2_PLACEMENT_3D('',#277,#278,#279);
#281=CYLINDRICAL_SURFACE('',#280,2.35);
#282=CARTESIAN_POINT('',(2.35,0.0,0.1));
#283=VERTEX_POINT('',#282);
#284=CARTESIAN_POINT('',(2.35,0.0,0.7));
#285=DIRECTION('',(0.0,0.0,-1.0));
#286=VECTOR('',#285,0.6);
#287=LINE('',#284,#286);
#288=EDGE_CURVE('',#241,#283,#287,.T.);
#289=ORIENTED_EDGE('',*,*,#288,.F.);
#290=ORIENTED_EDGE('',*,*,#272,.F.);
#291=CARTESIAN_POINT('',(-2.35,0.0,0.1));
#292=VERTEX_POINT('',#291);
#293=CARTESIAN_POINT('',(-2.35,-2.877920E-016,0.7));
#294=DIRECTION('',(0.0,0.0,-1.0));
#295=VECTOR('',#294,0.6);
#296=LINE('',#293,#295);
#297=EDGE_CURVE('',#259,#292,#296,.T.);
#298=ORIENTED_EDGE('',*,*,#297,.T.);
#299=CARTESIAN_POINT('',(0.0,0.0,0.1));
#300=DIRECTION('',(0.0,0.0,-1.0));
#301=DIRECTION('',(-1.0,0.0,0.0));
#302=AXIS2_PLACEMENT_3D('',#299,#300,#301);
#303=CIRCLE('',#302,2.35);
#304=EDGE_CURVE('',#283,#292,#303,.T.);
#305=ORIENTED_EDGE('',*,*,#304,.F.);
#306=EDGE_LOOP('',(#289,#290,#298,#305));
#307=FACE_OUTER_BOUND('',#306,.T.);
#308=ADVANCED_FACE('',(#307),#281,.T.);
#309=CARTESIAN_POINT('',(0.0,0.0,0.1));
#310=DIRECTION('',(0.0,0.0,-1.0));
#311=DIRECTION('',(-1.0,0.0,0.0));
#312=AXIS2_PLACEMENT_3D('',#309,#310,#311);
#313=TOROIDAL_SURFACE('',#312,2.25,0.1);
#314=CARTESIAN_POINT('',(-2.25,0.0,0.0));
#315=VERTEX_POINT('',#314);
#316=CARTESIAN_POINT('',(-2.25,0.0,0.1));
#317=DIRECTION('',(0.0,1.0,0.0));
#318=DIRECTION('',(-1.0,0.0,0.0));
#319=AXIS2_PLACEMENT_3D('',#316,#317,#318);
#320=CIRCLE('',#319,0.1);
#321=EDGE_CURVE('',#315,#292,#320,.T.);
#322=ORIENTED_EDGE('',*,*,#321,.F.);
#323=CARTESIAN_POINT('',(2.25,5.510911E-016,0.0));
#324=VERTEX_POINT('',#323);
#325=CARTESIAN_POINT('',(0.0,0.0,0.0));
#326=DIRECTION('',(0.0,0.0,1.0));
#327=DIRECTION('',(-1.0,0.0,0.0));
#328=AXIS2_PLACEMENT_3D('',#325,#326,#327);
#329=CIRCLE('',#328,2.25);
#330=EDGE_CURVE('',#315,#324,#329,.T.);
#331=ORIENTED_EDGE('',*,*,#330,.T.);
#332=CARTESIAN_POINT('',(2.25,-2.755455E-016,0.1));
#333=DIRECTION('',(0.0,-1.0,0.0));
#334=DIRECTION('',(1.0,0.0,0.0));
#335=AXIS2_PLACEMENT_3D('',#332,#333,#334);
#336=CIRCLE('',#335,0.1);
#337=EDGE_CURVE('',#324,#283,#336,.T.);
#338=ORIENTED_EDGE('',*,*,#337,.T.);
#339=ORIENTED_EDGE('',*,*,#304,.T.);
#340=EDGE_LOOP('',(#322,#331,#338,#339));
#341=FACE_OUTER_BOUND('',#340,.T.);
#342=ADVANCED_FACE('',(#341),#313,.T.);
#343=CARTESIAN_POINT('',(0.0,0.0,0.1));
#344=DIRECTION('',(0.0,0.0,-1.0));
#345=DIRECTION('',(-1.0,0.0,0.0));
#346=AXIS2_PLACEMENT_3D('',#343,#344,#345);
#347=TOROIDAL_SURFACE('',#346,2.25,0.1);
#348=ORIENTED_EDGE('',*,*,#321,.T.);
#349=CARTESIAN_POINT('',(0.0,0.0,0.1));
#350=DIRECTION('',(0.0,0.0,-1.0));
#351=DIRECTION('',(-1.0,0.0,0.0));
#352=AXIS2_PLACEMENT_3D('',#349,#350,#351);
#353=CIRCLE('',#352,2.35);
#354=EDGE_CURVE('',#292,#283,#353,.T.);
#355=ORIENTED_EDGE('',*,*,#354,.T.);
#356=ORIENTED_EDGE('',*,*,#337,.F.);
#357=CARTESIAN_POINT('',(0.0,0.0,0.0));
#358=DIRECTION('',(0.0,0.0,1.0));
#359=DIRECTION('',(-1.0,0.0,0.0));
#360=AXIS2_PLACEMENT_3D('',#357,#358,#359);
#361=CIRCLE('',#360,2.25);
#362=EDGE_CURVE('',#324,#315,#361,.T.);
#363=ORIENTED_EDGE('',*,*,#362,.T.);
#364=EDGE_LOOP('',(#348,#355,#356,#363));
#365=FACE_OUTER_BOUND('',#364,.T.);
#366=ADVANCED_FACE('',(#365),#347,.T.);
#367=CARTESIAN_POINT('',(0.0,0.0,0.4));
#368=DIRECTION('',(0.0,0.0,1.0));
#369=DIRECTION('',(1.0,0.0,0.0));
#370=AXIS2_PLACEMENT_3D('',#367,#368,#369);
#371=CYLINDRICAL_SURFACE('',#370,2.35);
#372=ORIENTED_EDGE('',*,*,#288,.T.);
#373=ORIENTED_EDGE('',*,*,#354,.F.);
#374=ORIENTED_EDGE('',*,*,#297,.F.);
#375=CARTESIAN_POINT('',(0.0,0.0,0.7));
#376=DIRECTION('',(0.0,0.0,1.0));
#377=DIRECTION('',(-1.0,0.0,0.0));
#378=AXIS2_PLACEMENT_3D('',#375,#376,#377);
#379=CIRCLE('',#378,2.35);
#380=EDGE_CURVE('',#241,#259,#379,.T.);
#381=ORIENTED_EDGE('',*,*,#380,.F.);
#382=EDGE_LOOP('',(#372,#373,#374,#381));
#383=FACE_OUTER_BOUND('',#382,.T.);
#384=ADVANCED_FACE('',(#383),#371,.T.);
#385=CARTESIAN_POINT('',(0.0,0.0,0.0));
#386=DIRECTION('',(0.0,0.0,-1.0));
#387=DIRECTION('',(-1.0,0.0,0.0));
#388=AXIS2_PLACEMENT_3D('',#385,#386,#387);
#389=PLANE('',#388);
#390=ORIENTED_EDGE('',*,*,#362,.F.);
#391=ORIENTED_EDGE('',*,*,#330,.F.);
#392=EDGE_LOOP('',(#390,#391));
#393=FACE_OUTER_BOUND('',#392,.T.);
#394=CARTESIAN_POINT('',(0.0,1.25,0.0));
#395=DIRECTION('',(0.0,0.0,1.0));
#396=DIRECTION('',(1.0,0.0,0.0));
#397=AXIS2_PLACEMENT_3D('',#394,#395,#396);
#398=CIRCLE('',#397,0.4);
#399=EDGE_CURVE('',#71,#81,#398,.T.);
#400=ORIENTED_EDGE('',*,*,#399,.T.);
#401=ORIENTED_EDGE('',*,*,#87,.T.);
#402=EDGE_LOOP('',(#400,#401));
#403=FACE_BOUND('',#402,.T.);
#404=CARTESIAN_POINT('',(1.25,0.0,0.0));
#405=DIRECTION('',(0.0,0.0,1.0));
#406=DIRECTION('',(1.0,0.0,0.0));
#407=AXIS2_PLACEMENT_3D('',#404,#405,#406);
#408=CIRCLE('',#407,0.4);
#409=EDGE_CURVE('',#113,#123,#408,.T.);
#410=ORIENTED_EDGE('',*,*,#409,.T.);
#411=ORIENTED_EDGE('',*,*,#129,.T.);
#412=EDGE_LOOP('',(#410,#411));
#413=FACE_BOUND('',#412,.T.);
#414=CARTESIAN_POINT('',(0.0,-1.25,0.0));
#415=DIRECTION('',(0.0,0.0,1.0));
#416=DIRECTION('',(1.0,0.0,0.0));
#417=AXIS2_PLACEMENT_3D('',#414,#415,#416);
#418=CIRCLE('',#417,0.4);
#419=EDGE_CURVE('',#155,#165,#418,.T.);
#420=ORIENTED_EDGE('',*,*,#419,.T.);
#421=ORIENTED_EDGE('',*,*,#171,.T.);
#422=EDGE_LOOP('',(#420,#421));
#423=FACE_BOUND('',#422,.T.);
#424=CARTESIAN_POINT('',(-1.25,0.0,0.0));
#425=DIRECTION('',(0.0,0.0,1.0));
#426=DIRECTION('',(1.0,0.0,0.0));
#427=AXIS2_PLACEMENT_3D('',#424,#425,#426);
#428=CIRCLE('',#427,0.4);
#429=EDGE_CURVE('',#197,#207,#428,.T.);
#430=ORIENTED_EDGE('',*,*,#429,.T.);
#431=ORIENTED_EDGE('',*,*,#213,.T.);
#432=EDGE_LOOP('',(#430,#431));
#433=FACE_BOUND('',#432,.T.);
#434=ADVANCED_FACE('',(#393,#403,#413,#423,#433),#389,.T.);
#435=CARTESIAN_POINT('',(0.0,0.0,0.7));
#436=DIRECTION('',(0.0,0.0,1.0));
#437=DIRECTION('',(1.0,0.0,0.0));
#438=AXIS2_PLACEMENT_3D('',#435,#436,#437);
#439=TOROIDAL_SURFACE('',#438,2.25,0.1);
#440=ORIENTED_EDGE('',*,*,#247,.T.);
#441=ORIENTED_EDGE('',*,*,#380,.T.);
#442=ORIENTED_EDGE('',*,*,#265,.F.);
#443=CARTESIAN_POINT('',(0.0,0.0,0.8));
#444=DIRECTION('',(0.0,0.0,-1.0));
#445=DIRECTION('',(-1.0,0.0,0.0));
#446=AXIS2_PLACEMENT_3D('',#443,#444,#445);
#447=CIRCLE('',#446,2.25);
#448=EDGE_CURVE('',#250,#239,#447,.T.);
#449=ORIENTED_EDGE('',*,*,#448,.T.);
#450=EDGE_LOOP('',(#440,#441,#442,#449));
#451=FACE_OUTER_BOUND('',#450,.T.);
#452=ADVANCED_FACE('',(#451),#439,.T.);
#453=CARTESIAN_POINT('',(0.0,0.0,0.8));
#454=DIRECTION('',(0.0,0.0,1.0));
#455=DIRECTION('',(1.0,0.0,0.0));
#456=AXIS2_PLACEMENT_3D('',#453,#454,#455);
#457=PLANE('',#456);
#458=ORIENTED_EDGE('',*,*,#256,.F.);
#459=ORIENTED_EDGE('',*,*,#448,.F.);
#460=EDGE_LOOP('',(#458,#459));
#461=FACE_OUTER_BOUND('',#460,.T.);
#462=ORIENTED_EDGE('',*,*,#102,.T.);
#463=CARTESIAN_POINT('',(0.0,1.25,0.8));
#464=DIRECTION('',(0.0,0.0,-1.0));
#465=DIRECTION('',(1.0,0.0,0.0));
#466=AXIS2_PLACEMENT_3D('',#463,#464,#465);
#467=CIRCLE('',#466,0.4);
#468=EDGE_CURVE('',#90,#73,#467,.T.);
#469=ORIENTED_EDGE('',*,*,#468,.T.);
#470=EDGE_LOOP('',(#462,#469));
#471=FACE_BOUND('',#470,.T.);
#472=ORIENTED_EDGE('',*,*,#144,.T.);
#473=CARTESIAN_POINT('',(1.25,0.0,0.8));
#474=DIRECTION('',(0.0,0.0,-1.0));
#475=DIRECTION('',(1.0,0.0,0.0));
#476=AXIS2_PLACEMENT_3D('',#473,#474,#475);
#477=CIRCLE('',#476,0.4);
#478=EDGE_CURVE('',#132,#115,#477,.T.);
#479=ORIENTED_EDGE('',*,*,#478,.T.);
#480=EDGE_LOOP('',(#472,#479));
#481=FACE_BOUND('',#480,.T.);
#482=ORIENTED_EDGE('',*,*,#186,.T.);
#483=CARTESIAN_POINT('',(0.0,-1.25,0.8));
#484=DIRECTION('',(0.0,0.0,-1.0));
#485=DIRECTION('',(1.0,0.0,0.0));
#486=AXIS2_PLACEMENT_3D('',#483,#484,#485);
#487=CIRCLE('',#486,0.4);
#488=EDGE_CURVE('',#174,#157,#487,.T.);
#489=ORIENTED_EDGE('',*,*,#488,.T.);
#490=EDGE_LOOP('',(#482,#489));
#491=FACE_BOUND('',#490,.T.);
#492=ORIENTED_EDGE('',*,*,#228,.T.);
#493=CARTESIAN_POINT('',(-1.25,0.0,0.8));
#494=DIRECTION('',(0.0,0.0,-1.0));
#495=DIRECTION('',(1.0,0.0,0.0));
#496=AXIS2_PLACEMENT_3D('',#493,#494,#495);
#497=CIRCLE('',#496,0.4);
#498=EDGE_CURVE('',#216,#199,#497,.T.);
#499=ORIENTED_EDGE('',*,*,#498,.T.);
#500=EDGE_LOOP('',(#492,#499));
#501=FACE_BOUND('',#500,.T.);
#502=ADVANCED_FACE('',(#461,#471,#481,#491,#501),#457,.T.);
#503=CARTESIAN_POINT('',(-1.25,0.0,0.4));
#504=DIRECTION('',(0.0,0.0,1.0));
#505=DIRECTION('',(1.0,0.0,0.0));
#506=AXIS2_PLACEMENT_3D('',#503,#504,#505);
#507=CYLINDRICAL_SURFACE('',#506,0.4);
#508=ORIENTED_EDGE('',*,*,#204,.T.);
#509=ORIENTED_EDGE('',*,*,#498,.F.);
#510=ORIENTED_EDGE('',*,*,#221,.F.);
#511=ORIENTED_EDGE('',*,*,#429,.F.);
#512=EDGE_LOOP('',(#508,#509,#510,#511));
#513=FACE_OUTER_BOUND('',#512,.T.);
#514=ADVANCED_FACE('',(#513),#507,.F.);
#515=CARTESIAN_POINT('',(0.0,-1.25,0.4));
#516=DIRECTION('',(0.0,0.0,1.0));
#517=DIRECTION('',(1.0,0.0,0.0));
#518=AXIS2_PLACEMENT_3D('',#515,#516,#517);
#519=CYLINDRICAL_SURFACE('',#518,0.4);
#520=ORIENTED_EDGE('',*,*,#162,.T.);
#521=ORIENTED_EDGE('',*,*,#488,.F.);
#522=ORIENTED_EDGE('',*,*,#179,.F.);
#523=ORIENTED_EDGE('',*,*,#419,.F.);
#524=EDGE_LOOP('',(#520,#521,#522,#523));
#525=FACE_OUTER_BOUND('',#524,.T.);
#526=ADVANCED_FACE('',(#525),#519,.F.);
#527=CARTESIAN_POINT('',(1.25,0.0,0.4));
#528=DIRECTION('',(0.0,0.0,1.0));
#529=DIRECTION('',(1.0,0.0,0.0));
#530=AXIS2_PLACEMENT_3D('',#527,#528,#529);
#531=CYLINDRICAL_SURFACE('',#530,0.4);
#532=ORIENTED_EDGE('',*,*,#120,.T.);
#533=ORIENTED_EDGE('',*,*,#478,.F.);
#534=ORIENTED_EDGE('',*,*,#137,.F.);
#535=ORIENTED_EDGE('',*,*,#409,.F.);
#536=EDGE_LOOP('',(#532,#533,#534,#535));
#537=FACE_OUTER_BOUND('',#536,.T.);
#538=ADVANCED_FACE('',(#537),#531,.F.);
#539=CARTESIAN_POINT('',(0.0,1.25,0.4));
#540=DIRECTION('',(0.0,0.0,1.0));
#541=DIRECTION('',(1.0,0.0,0.0));
#542=AXIS2_PLACEMENT_3D('',#539,#540,#541);
#543=CYLINDRICAL_SURFACE('',#542,0.4);
#544=ORIENTED_EDGE('',*,*,#78,.T.);
#545=ORIENTED_EDGE('',*,*,#468,.F.);
#546=ORIENTED_EDGE('',*,*,#95,.F.);
#547=ORIENTED_EDGE('',*,*,#399,.F.);
#548=EDGE_LOOP('',(#544,#545,#546,#547));
#549=FACE_OUTER_BOUND('',#548,.T.);
#550=ADVANCED_FACE('',(#549),#543,.F.);
#551=CLOSED_SHELL('',(#106,#148,#190,#232,#276,#308,#342,#366,#384,#434,#452,#502,#514,#526,#538,#550));
#552=MANIFOLD_SOLID_BREP('21A1',#551);
#553=COLOUR_RGB('254',0.866,0.866,0.866);
#554=SURFACE_STYLE_USAGE(.BOTH.,#555);
#555=SURFACE_SIDE_STYLE('NONE',(#556));
#556=SURFACE_STYLE_FILL_AREA(#557);
#557=FILL_AREA_STYLE('NONE',(#558));
#558=FILL_AREA_STYLE_COLOUR('NONE',#553);
#559=PRESENTATION_STYLE_ASSIGNMENT((#554));
#560=STYLED_ITEM('NONE',(#559),#552);
#561=MECHANICAL_DESIGN_GEOMETRIC_PRESENTATION_REPRESENTATION('NONE',(#560),#28);
#562=PRESENTATION_LAYER_ASSIGNMENT('3D','None',(#552));
#563=ADVANCED_BREP_SHAPE_REPRESENTATION('ABSR1',(#552),#28);
#564=SHAPE_REPRESENTATION_RELATIONSHIP('SRRPL1','',#563,#62);
ENDSEC;
END-ISO-10303-21;
