ISO-10303-21;
HEADER;
/* Generated by software containing ST-Developer
 * from STEP Tools, Inc. (www.steptools.com) 
 */

FILE_DESCRIPTION(
/* description */ (''),
/* implementation_level */ '2;1');

FILE_NAME(
/* name */ 'G:\\Applications\\Altium\\CernLib\\StepLib\\BIVAR_ELM 5-28
0.stp',
/* time_stamp */ '2017-01-09T15:06:31+01:00',
/* author */ ('jchouvet'),
/* organization */ (''),
/* preprocessor_version */ 'ST-DEVELOPER v16.1',
/* originating_system */ 'AutoCAD Mechanical',
/* authorisation */ '');

FILE_SCHEMA (('AUTOMOTIVE_DESIGN { 1 0 10303 214 3 1 1 }'));
ENDSEC;

DATA;
#10=MECHANICAL_DESIGN_GEOMETRIC_PRESENTATION_REPRESENTATION('',(#17),#621);
#11=DIMENSIONAL_EXPONENTS(0.,0.,0.,0.,0.,0.,0.);
#12=(
CONVERSION_BASED_UNIT('degree',#13)
NAMED_UNIT(#11)
PLANE_ANGLE_UNIT()
);
#13=PLANE_ANGLE_MEASURE_WITH_UNIT(PLANE_ANGLE_MEASURE(0.01745329252),#624);
#14=PRESENTATION_LAYER_ASSIGNMENT('1','3D',(#18));
#15=SHAPE_REPRESENTATION_RELATIONSHIP('SRR','None',#627,#16);
#16=ADVANCED_BREP_SHAPE_REPRESENTATION('',(#18),#620);
#17=STYLED_ITEM('',(#637),#18);
#18=MANIFOLD_SOLID_BREP('2DEF',#375);
#19=FACE_BOUND('',#72,.T.);
#20=FACE_BOUND('',#74,.T.);
#21=FACE_BOUND('',#75,.T.);
#22=FACE_BOUND('',#77,.T.);
#23=FACE_BOUND('',#78,.T.);
#24=PLANE('',#380);
#25=PLANE('',#381);
#26=PLANE('',#385);
#27=PLANE('',#389);
#28=PLANE('',#390);
#29=PLANE('',#394);
#30=PLANE('',#395);
#31=PLANE('',#399);
#32=PLANE('',#400);
#33=PLANE('',#404);
#34=PLANE('',#408);
#35=PLANE('',#409);
#36=FACE_OUTER_BOUND('',#55,.T.);
#37=FACE_OUTER_BOUND('',#56,.T.);
#38=FACE_OUTER_BOUND('',#57,.T.);
#39=FACE_OUTER_BOUND('',#58,.T.);
#40=FACE_OUTER_BOUND('',#59,.T.);
#41=FACE_OUTER_BOUND('',#60,.T.);
#42=FACE_OUTER_BOUND('',#61,.T.);
#43=FACE_OUTER_BOUND('',#62,.T.);
#44=FACE_OUTER_BOUND('',#63,.T.);
#45=FACE_OUTER_BOUND('',#64,.T.);
#46=FACE_OUTER_BOUND('',#65,.T.);
#47=FACE_OUTER_BOUND('',#66,.T.);
#48=FACE_OUTER_BOUND('',#67,.T.);
#49=FACE_OUTER_BOUND('',#68,.T.);
#50=FACE_OUTER_BOUND('',#69,.T.);
#51=FACE_OUTER_BOUND('',#70,.T.);
#52=FACE_OUTER_BOUND('',#71,.T.);
#53=FACE_OUTER_BOUND('',#73,.T.);
#54=FACE_OUTER_BOUND('',#76,.T.);
#55=EDGE_LOOP('',(#249,#250,#251,#252));
#56=EDGE_LOOP('',(#253,#254,#255,#256));
#57=EDGE_LOOP('',(#257,#258,#259,#260));
#58=EDGE_LOOP('',(#261,#262,#263,#264));
#59=EDGE_LOOP('',(#265,#266,#267,#268));
#60=EDGE_LOOP('',(#269,#270,#271,#272));
#61=EDGE_LOOP('',(#273,#274,#275,#276));
#62=EDGE_LOOP('',(#277,#278,#279,#280));
#63=EDGE_LOOP('',(#281,#282,#283,#284));
#64=EDGE_LOOP('',(#285,#286,#287,#288));
#65=EDGE_LOOP('',(#289,#290,#291,#292));
#66=EDGE_LOOP('',(#293,#294,#295,#296));
#67=EDGE_LOOP('',(#297,#298,#299,#300));
#68=EDGE_LOOP('',(#301,#302,#303,#304));
#69=EDGE_LOOP('',(#305,#306,#307,#308));
#70=EDGE_LOOP('',(#309,#310,#311,#312));
#71=EDGE_LOOP('',(#313));
#72=EDGE_LOOP('',(#314));
#73=EDGE_LOOP('',(#315));
#74=EDGE_LOOP('',(#316,#317,#318,#319,#320,#321,#322,#323));
#75=EDGE_LOOP('',(#324,#325,#326,#327,#328,#329,#330,#331));
#76=EDGE_LOOP('',(#332));
#77=EDGE_LOOP('',(#333,#334,#335,#336,#337,#338,#339,#340));
#78=EDGE_LOOP('',(#341,#342,#343,#344,#345,#346,#347,#348));
#79=LINE('',#520,#115);
#80=LINE('',#523,#116);
#81=LINE('',#526,#117);
#82=LINE('',#528,#118);
#83=LINE('',#529,#119);
#84=LINE('',#532,#120);
#85=LINE('',#534,#121);
#86=LINE('',#535,#122);
#87=LINE('',#540,#123);
#88=LINE('',#544,#124);
#89=LINE('',#546,#125);
#90=LINE('',#547,#126);
#91=LINE('',#552,#127);
#92=LINE('',#556,#128);
#93=LINE('',#558,#129);
#94=LINE('',#559,#130);
#95=LINE('',#561,#131);
#96=LINE('',#562,#132);
#97=LINE('',#568,#133);
#98=LINE('',#571,#134);
#99=LINE('',#574,#135);
#100=LINE('',#576,#136);
#101=LINE('',#577,#137);
#102=LINE('',#580,#138);
#103=LINE('',#582,#139);
#104=LINE('',#583,#140);
#105=LINE('',#588,#141);
#106=LINE('',#592,#142);
#107=LINE('',#594,#143);
#108=LINE('',#595,#144);
#109=LINE('',#598,#145);
#110=LINE('',#600,#146);
#111=LINE('',#601,#147);
#112=LINE('',#606,#148);
#113=LINE('',#609,#149);
#114=LINE('',#610,#150);
#115=VECTOR('',#416,7.11);
#116=VECTOR('',#419,7.11);
#117=VECTOR('',#422,0.450984134975937);
#118=VECTOR('',#423,7.11);
#119=VECTOR('',#424,0.450984134975937);
#120=VECTOR('',#427,0.635000000000023);
#121=VECTOR('',#428,7.11);
#122=VECTOR('',#429,0.635000000000023);
#123=VECTOR('',#434,7.11);
#124=VECTOR('',#439,0.152400000000012);
#125=VECTOR('',#440,7.11);
#126=VECTOR('',#441,0.152400000000012);
#127=VECTOR('',#446,7.11);
#128=VECTOR('',#451,0.635);
#129=VECTOR('',#452,7.11);
#130=VECTOR('',#453,0.635);
#131=VECTOR('',#456,0.45098413497595);
#132=VECTOR('',#457,0.45098413497595);
#133=VECTOR('',#462,7.11);
#134=VECTOR('',#465,7.11);
#135=VECTOR('',#468,0.635);
#136=VECTOR('',#469,7.11);
#137=VECTOR('',#470,0.635);
#138=VECTOR('',#473,0.450984134975944);
#139=VECTOR('',#474,7.11);
#140=VECTOR('',#475,0.450984134975944);
#141=VECTOR('',#480,7.11);
#142=VECTOR('',#485,0.45098413497594);
#143=VECTOR('',#486,7.11);
#144=VECTOR('',#487,0.45098413497594);
#145=VECTOR('',#490,0.635);
#146=VECTOR('',#491,7.11);
#147=VECTOR('',#492,0.635);
#148=VECTOR('',#497,7.11);
#149=VECTOR('',#502,0.1524);
#150=VECTOR('',#503,0.1524);
#151=CIRCLE('',#378,0.254);
#152=CIRCLE('',#379,0.254);
#153=CIRCLE('',#383,0.254000000000002);
#154=CIRCLE('',#384,0.254000000000002);
#155=CIRCLE('',#387,0.253999999999995);
#156=CIRCLE('',#388,0.253999999999995);
#157=CIRCLE('',#392,0.254);
#158=CIRCLE('',#393,0.254);
#159=CIRCLE('',#397,0.254);
#160=CIRCLE('',#398,0.254);
#161=CIRCLE('',#402,0.253999999999959);
#162=CIRCLE('',#403,0.253999999999959);
#163=CIRCLE('',#406,1.965);
#164=CIRCLE('',#407,1.965);
#165=VERTEX_POINT('',#516);
#166=VERTEX_POINT('',#517);
#167=VERTEX_POINT('',#519);
#168=VERTEX_POINT('',#521);
#169=VERTEX_POINT('',#525);
#170=VERTEX_POINT('',#527);
#171=VERTEX_POINT('',#531);
#172=VERTEX_POINT('',#533);
#173=VERTEX_POINT('',#537);
#174=VERTEX_POINT('',#539);
#175=VERTEX_POINT('',#543);
#176=VERTEX_POINT('',#545);
#177=VERTEX_POINT('',#549);
#178=VERTEX_POINT('',#551);
#179=VERTEX_POINT('',#555);
#180=VERTEX_POINT('',#557);
#181=VERTEX_POINT('',#564);
#182=VERTEX_POINT('',#565);
#183=VERTEX_POINT('',#567);
#184=VERTEX_POINT('',#569);
#185=VERTEX_POINT('',#573);
#186=VERTEX_POINT('',#575);
#187=VERTEX_POINT('',#579);
#188=VERTEX_POINT('',#581);
#189=VERTEX_POINT('',#585);
#190=VERTEX_POINT('',#587);
#191=VERTEX_POINT('',#591);
#192=VERTEX_POINT('',#593);
#193=VERTEX_POINT('',#597);
#194=VERTEX_POINT('',#599);
#195=VERTEX_POINT('',#603);
#196=VERTEX_POINT('',#605);
#197=VERTEX_POINT('',#612);
#198=VERTEX_POINT('',#614);
#199=EDGE_CURVE('',#165,#166,#151,.T.);
#200=EDGE_CURVE('',#165,#167,#79,.T.);
#201=EDGE_CURVE('',#168,#167,#152,.T.);
#202=EDGE_CURVE('',#166,#168,#80,.T.);
#203=EDGE_CURVE('',#169,#165,#81,.T.);
#204=EDGE_CURVE('',#169,#170,#82,.T.);
#205=EDGE_CURVE('',#167,#170,#83,.T.);
#206=EDGE_CURVE('',#171,#169,#84,.T.);
#207=EDGE_CURVE('',#171,#172,#85,.T.);
#208=EDGE_CURVE('',#170,#172,#86,.T.);
#209=EDGE_CURVE('',#173,#171,#153,.T.);
#210=EDGE_CURVE('',#173,#174,#87,.T.);
#211=EDGE_CURVE('',#172,#174,#154,.T.);
#212=EDGE_CURVE('',#175,#173,#88,.T.);
#213=EDGE_CURVE('',#175,#176,#89,.T.);
#214=EDGE_CURVE('',#174,#176,#90,.T.);
#215=EDGE_CURVE('',#177,#175,#155,.T.);
#216=EDGE_CURVE('',#177,#178,#91,.T.);
#217=EDGE_CURVE('',#176,#178,#156,.T.);
#218=EDGE_CURVE('',#179,#177,#92,.T.);
#219=EDGE_CURVE('',#179,#180,#93,.T.);
#220=EDGE_CURVE('',#178,#180,#94,.T.);
#221=EDGE_CURVE('',#166,#179,#95,.T.);
#222=EDGE_CURVE('',#180,#168,#96,.T.);
#223=EDGE_CURVE('',#181,#182,#157,.T.);
#224=EDGE_CURVE('',#181,#183,#97,.T.);
#225=EDGE_CURVE('',#184,#183,#158,.T.);
#226=EDGE_CURVE('',#182,#184,#98,.T.);
#227=EDGE_CURVE('',#185,#181,#99,.T.);
#228=EDGE_CURVE('',#185,#186,#100,.T.);
#229=EDGE_CURVE('',#183,#186,#101,.T.);
#230=EDGE_CURVE('',#187,#185,#102,.T.);
#231=EDGE_CURVE('',#187,#188,#103,.T.);
#232=EDGE_CURVE('',#186,#188,#104,.T.);
#233=EDGE_CURVE('',#189,#187,#159,.T.);
#234=EDGE_CURVE('',#189,#190,#105,.T.);
#235=EDGE_CURVE('',#188,#190,#160,.T.);
#236=EDGE_CURVE('',#191,#189,#106,.T.);
#237=EDGE_CURVE('',#191,#192,#107,.T.);
#238=EDGE_CURVE('',#190,#192,#108,.T.);
#239=EDGE_CURVE('',#193,#191,#109,.T.);
#240=EDGE_CURVE('',#193,#194,#110,.T.);
#241=EDGE_CURVE('',#192,#194,#111,.T.);
#242=EDGE_CURVE('',#195,#193,#161,.T.);
#243=EDGE_CURVE('',#195,#196,#112,.T.);
#244=EDGE_CURVE('',#194,#196,#162,.T.);
#245=EDGE_CURVE('',#182,#195,#113,.T.);
#246=EDGE_CURVE('',#196,#184,#114,.T.);
#247=EDGE_CURVE('',#197,#197,#163,.T.);
#248=EDGE_CURVE('',#198,#198,#164,.T.);
#249=ORIENTED_EDGE('',*,*,#199,.F.);
#250=ORIENTED_EDGE('',*,*,#200,.T.);
#251=ORIENTED_EDGE('',*,*,#201,.F.);
#252=ORIENTED_EDGE('',*,*,#202,.F.);
#253=ORIENTED_EDGE('',*,*,#203,.F.);
#254=ORIENTED_EDGE('',*,*,#204,.T.);
#255=ORIENTED_EDGE('',*,*,#205,.F.);
#256=ORIENTED_EDGE('',*,*,#200,.F.);
#257=ORIENTED_EDGE('',*,*,#206,.F.);
#258=ORIENTED_EDGE('',*,*,#207,.T.);
#259=ORIENTED_EDGE('',*,*,#208,.F.);
#260=ORIENTED_EDGE('',*,*,#204,.F.);
#261=ORIENTED_EDGE('',*,*,#209,.F.);
#262=ORIENTED_EDGE('',*,*,#210,.T.);
#263=ORIENTED_EDGE('',*,*,#211,.F.);
#264=ORIENTED_EDGE('',*,*,#207,.F.);
#265=ORIENTED_EDGE('',*,*,#212,.F.);
#266=ORIENTED_EDGE('',*,*,#213,.T.);
#267=ORIENTED_EDGE('',*,*,#214,.F.);
#268=ORIENTED_EDGE('',*,*,#210,.F.);
#269=ORIENTED_EDGE('',*,*,#215,.F.);
#270=ORIENTED_EDGE('',*,*,#216,.T.);
#271=ORIENTED_EDGE('',*,*,#217,.F.);
#272=ORIENTED_EDGE('',*,*,#213,.F.);
#273=ORIENTED_EDGE('',*,*,#218,.F.);
#274=ORIENTED_EDGE('',*,*,#219,.T.);
#275=ORIENTED_EDGE('',*,*,#220,.F.);
#276=ORIENTED_EDGE('',*,*,#216,.F.);
#277=ORIENTED_EDGE('',*,*,#221,.F.);
#278=ORIENTED_EDGE('',*,*,#202,.T.);
#279=ORIENTED_EDGE('',*,*,#222,.F.);
#280=ORIENTED_EDGE('',*,*,#219,.F.);
#281=ORIENTED_EDGE('',*,*,#223,.F.);
#282=ORIENTED_EDGE('',*,*,#224,.T.);
#283=ORIENTED_EDGE('',*,*,#225,.F.);
#284=ORIENTED_EDGE('',*,*,#226,.F.);
#285=ORIENTED_EDGE('',*,*,#227,.F.);
#286=ORIENTED_EDGE('',*,*,#228,.T.);
#287=ORIENTED_EDGE('',*,*,#229,.F.);
#288=ORIENTED_EDGE('',*,*,#224,.F.);
#289=ORIENTED_EDGE('',*,*,#230,.F.);
#290=ORIENTED_EDGE('',*,*,#231,.T.);
#291=ORIENTED_EDGE('',*,*,#232,.F.);
#292=ORIENTED_EDGE('',*,*,#228,.F.);
#293=ORIENTED_EDGE('',*,*,#233,.F.);
#294=ORIENTED_EDGE('',*,*,#234,.T.);
#295=ORIENTED_EDGE('',*,*,#235,.F.);
#296=ORIENTED_EDGE('',*,*,#231,.F.);
#297=ORIENTED_EDGE('',*,*,#236,.F.);
#298=ORIENTED_EDGE('',*,*,#237,.T.);
#299=ORIENTED_EDGE('',*,*,#238,.F.);
#300=ORIENTED_EDGE('',*,*,#234,.F.);
#301=ORIENTED_EDGE('',*,*,#239,.F.);
#302=ORIENTED_EDGE('',*,*,#240,.T.);
#303=ORIENTED_EDGE('',*,*,#241,.F.);
#304=ORIENTED_EDGE('',*,*,#237,.F.);
#305=ORIENTED_EDGE('',*,*,#242,.F.);
#306=ORIENTED_EDGE('',*,*,#243,.T.);
#307=ORIENTED_EDGE('',*,*,#244,.F.);
#308=ORIENTED_EDGE('',*,*,#240,.F.);
#309=ORIENTED_EDGE('',*,*,#245,.F.);
#310=ORIENTED_EDGE('',*,*,#226,.T.);
#311=ORIENTED_EDGE('',*,*,#246,.F.);
#312=ORIENTED_EDGE('',*,*,#243,.F.);
#313=ORIENTED_EDGE('',*,*,#247,.F.);
#314=ORIENTED_EDGE('',*,*,#248,.T.);
#315=ORIENTED_EDGE('',*,*,#247,.T.);
#316=ORIENTED_EDGE('',*,*,#201,.T.);
#317=ORIENTED_EDGE('',*,*,#205,.T.);
#318=ORIENTED_EDGE('',*,*,#208,.T.);
#319=ORIENTED_EDGE('',*,*,#211,.T.);
#320=ORIENTED_EDGE('',*,*,#214,.T.);
#321=ORIENTED_EDGE('',*,*,#217,.T.);
#322=ORIENTED_EDGE('',*,*,#220,.T.);
#323=ORIENTED_EDGE('',*,*,#222,.T.);
#324=ORIENTED_EDGE('',*,*,#225,.T.);
#325=ORIENTED_EDGE('',*,*,#229,.T.);
#326=ORIENTED_EDGE('',*,*,#232,.T.);
#327=ORIENTED_EDGE('',*,*,#235,.T.);
#328=ORIENTED_EDGE('',*,*,#238,.T.);
#329=ORIENTED_EDGE('',*,*,#241,.T.);
#330=ORIENTED_EDGE('',*,*,#244,.T.);
#331=ORIENTED_EDGE('',*,*,#246,.T.);
#332=ORIENTED_EDGE('',*,*,#248,.F.);
#333=ORIENTED_EDGE('',*,*,#199,.T.);
#334=ORIENTED_EDGE('',*,*,#221,.T.);
#335=ORIENTED_EDGE('',*,*,#218,.T.);
#336=ORIENTED_EDGE('',*,*,#215,.T.);
#337=ORIENTED_EDGE('',*,*,#212,.T.);
#338=ORIENTED_EDGE('',*,*,#209,.T.);
#339=ORIENTED_EDGE('',*,*,#206,.T.);
#340=ORIENTED_EDGE('',*,*,#203,.T.);
#341=ORIENTED_EDGE('',*,*,#223,.T.);
#342=ORIENTED_EDGE('',*,*,#245,.T.);
#343=ORIENTED_EDGE('',*,*,#242,.T.);
#344=ORIENTED_EDGE('',*,*,#239,.T.);
#345=ORIENTED_EDGE('',*,*,#236,.T.);
#346=ORIENTED_EDGE('',*,*,#233,.T.);
#347=ORIENTED_EDGE('',*,*,#230,.T.);
#348=ORIENTED_EDGE('',*,*,#227,.T.);
#349=CYLINDRICAL_SURFACE('',#377,0.254);
#350=CYLINDRICAL_SURFACE('',#382,0.254000000000002);
#351=CYLINDRICAL_SURFACE('',#386,0.253999999999995);
#352=CYLINDRICAL_SURFACE('',#391,0.254);
#353=CYLINDRICAL_SURFACE('',#396,0.254);
#354=CYLINDRICAL_SURFACE('',#401,0.253999999999959);
#355=CYLINDRICAL_SURFACE('',#405,1.965);
#356=ADVANCED_FACE('',(#36),#349,.F.);
#357=ADVANCED_FACE('',(#37),#24,.F.);
#358=ADVANCED_FACE('',(#38),#25,.F.);
#359=ADVANCED_FACE('',(#39),#350,.F.);
#360=ADVANCED_FACE('',(#40),#26,.F.);
#361=ADVANCED_FACE('',(#41),#351,.F.);
#362=ADVANCED_FACE('',(#42),#27,.F.);
#363=ADVANCED_FACE('',(#43),#28,.F.);
#364=ADVANCED_FACE('',(#44),#352,.F.);
#365=ADVANCED_FACE('',(#45),#29,.F.);
#366=ADVANCED_FACE('',(#46),#30,.F.);
#367=ADVANCED_FACE('',(#47),#353,.F.);
#368=ADVANCED_FACE('',(#48),#31,.F.);
#369=ADVANCED_FACE('',(#49),#32,.F.);
#370=ADVANCED_FACE('',(#50),#354,.F.);
#371=ADVANCED_FACE('',(#51),#33,.F.);
#372=ADVANCED_FACE('',(#52,#19),#355,.T.);
#373=ADVANCED_FACE('',(#53,#20,#21),#34,.T.);
#374=ADVANCED_FACE('',(#54,#22,#23),#35,.F.);
#375=CLOSED_SHELL('',(#356,#357,#358,#359,#360,#361,#362,#363,#364,#365,
#366,#367,#368,#369,#370,#371,#372,#373,#374));
#376=AXIS2_PLACEMENT_3D('placement',#514,#410,#411);
#377=AXIS2_PLACEMENT_3D('',#515,#412,#413);
#378=AXIS2_PLACEMENT_3D('',#518,#414,#415);
#379=AXIS2_PLACEMENT_3D('',#522,#417,#418);
#380=AXIS2_PLACEMENT_3D('',#524,#420,#421);
#381=AXIS2_PLACEMENT_3D('',#530,#425,#426);
#382=AXIS2_PLACEMENT_3D('',#536,#430,#431);
#383=AXIS2_PLACEMENT_3D('',#538,#432,#433);
#384=AXIS2_PLACEMENT_3D('',#541,#435,#436);
#385=AXIS2_PLACEMENT_3D('',#542,#437,#438);
#386=AXIS2_PLACEMENT_3D('',#548,#442,#443);
#387=AXIS2_PLACEMENT_3D('',#550,#444,#445);
#388=AXIS2_PLACEMENT_3D('',#553,#447,#448);
#389=AXIS2_PLACEMENT_3D('',#554,#449,#450);
#390=AXIS2_PLACEMENT_3D('',#560,#454,#455);
#391=AXIS2_PLACEMENT_3D('',#563,#458,#459);
#392=AXIS2_PLACEMENT_3D('',#566,#460,#461);
#393=AXIS2_PLACEMENT_3D('',#570,#463,#464);
#394=AXIS2_PLACEMENT_3D('',#572,#466,#467);
#395=AXIS2_PLACEMENT_3D('',#578,#471,#472);
#396=AXIS2_PLACEMENT_3D('',#584,#476,#477);
#397=AXIS2_PLACEMENT_3D('',#586,#478,#479);
#398=AXIS2_PLACEMENT_3D('',#589,#481,#482);
#399=AXIS2_PLACEMENT_3D('',#590,#483,#484);
#400=AXIS2_PLACEMENT_3D('',#596,#488,#489);
#401=AXIS2_PLACEMENT_3D('',#602,#493,#494);
#402=AXIS2_PLACEMENT_3D('',#604,#495,#496);
#403=AXIS2_PLACEMENT_3D('',#607,#498,#499);
#404=AXIS2_PLACEMENT_3D('',#608,#500,#501);
#405=AXIS2_PLACEMENT_3D('',#611,#504,#505);
#406=AXIS2_PLACEMENT_3D('',#613,#506,#507);
#407=AXIS2_PLACEMENT_3D('',#615,#508,#509);
#408=AXIS2_PLACEMENT_3D('',#616,#510,#511);
#409=AXIS2_PLACEMENT_3D('',#617,#512,#513);
#410=DIRECTION('axis',(0.,0.,1.));
#411=DIRECTION('refdir',(1.,0.,0.));
#412=DIRECTION('center_axis',(0.,0.,1.));
#413=DIRECTION('ref_axis',(7.16836913537503E-14,1.,0.));
#414=DIRECTION('center_axis',(0.,0.,1.));
#415=DIRECTION('ref_axis',(7.16836913537503E-14,1.,0.));
#416=DIRECTION('',(0.,0.,1.));
#417=DIRECTION('center_axis',(0.,0.,-1.));
#418=DIRECTION('ref_axis',(7.16836913537503E-14,1.,0.));
#419=DIRECTION('',(0.,0.,1.));
#420=DIRECTION('center_axis',(-0.168963815110763,0.985622254813281,0.));
#421=DIRECTION('ref_axis',(-0.985622254813281,-0.168963815110763,0.));
#422=DIRECTION('',(-0.985622254813281,-0.168963815110763,0.));
#423=DIRECTION('',(0.,0.,1.));
#424=DIRECTION('',(0.985622254813281,0.168963815110763,0.));
#425=DIRECTION('center_axis',(-2.41276814800419E-14,1.,0.));
#426=DIRECTION('ref_axis',(-1.,-2.41473507855972E-14,0.));
#427=DIRECTION('',(-1.,-2.41276814800419E-14,0.));
#428=DIRECTION('',(0.,0.,1.));
#429=DIRECTION('',(1.,2.41276814800419E-14,0.));
#430=DIRECTION('center_axis',(0.,0.,1.));
#431=DIRECTION('ref_axis',(1.,-7.21207870327361E-15,0.));
#432=DIRECTION('center_axis',(0.,0.,1.));
#433=DIRECTION('ref_axis',(1.,-7.21207870327361E-15,0.));
#434=DIRECTION('',(0.,0.,1.));
#435=DIRECTION('center_axis',(0.,0.,-1.));
#436=DIRECTION('ref_axis',(1.,-7.21207870327361E-15,0.));
#437=DIRECTION('center_axis',(1.,-1.47519791657859E-13,0.));
#438=DIRECTION('ref_axis',(1.47520884397068E-13,1.,0.));
#439=DIRECTION('',(1.47519791657859E-13,1.,0.));
#440=DIRECTION('',(0.,0.,1.));
#441=DIRECTION('',(-1.47519791657859E-13,-1.,0.));
#442=DIRECTION('center_axis',(0.,0.,1.));
#443=DIRECTION('ref_axis',(-1.8139470677931E-14,-1.,0.));
#444=DIRECTION('center_axis',(0.,0.,1.));
#445=DIRECTION('ref_axis',(-1.8139470677931E-14,-1.,0.));
#446=DIRECTION('',(0.,0.,1.));
#447=DIRECTION('center_axis',(0.,0.,-1.));
#448=DIRECTION('ref_axis',(-1.8139470677931E-14,-1.,0.));
#449=DIRECTION('center_axis',(5.94450123421344E-14,-1.,0.));
#450=DIRECTION('ref_axis',(1.,5.94524429686771E-14,0.));
#451=DIRECTION('',(1.,5.94450123421344E-14,0.));
#452=DIRECTION('',(0.,0.,1.));
#453=DIRECTION('',(-1.,-5.94450123421344E-14,0.));
#454=DIRECTION('center_axis',(-0.168963815110928,-0.985622254813253,0.));
#455=DIRECTION('ref_axis',(0.985622254813253,-0.168963815110928,0.));
#456=DIRECTION('',(0.985622254813253,-0.168963815110928,0.));
#457=DIRECTION('',(-0.985622254813253,0.168963815110928,0.));
#458=DIRECTION('center_axis',(0.,0.,1.));
#459=DIRECTION('ref_axis',(-1.,-1.0927391974657E-16,0.));
#460=DIRECTION('center_axis',(0.,0.,1.));
#461=DIRECTION('ref_axis',(-1.,-1.0927391974657E-16,0.));
#462=DIRECTION('',(0.,0.,1.));
#463=DIRECTION('center_axis',(0.,0.,-1.));
#464=DIRECTION('ref_axis',(-1.,-1.0927391974657E-16,0.));
#465=DIRECTION('',(0.,0.,1.));
#466=DIRECTION('center_axis',(-1.74838271594513E-16,1.,0.));
#467=DIRECTION('ref_axis',(-1.,-1.66533453693773E-16,0.));
#468=DIRECTION('',(-1.,-1.74838271594513E-16,0.));
#469=DIRECTION('',(0.,0.,1.));
#470=DIRECTION('',(1.,1.74838271594513E-16,0.));
#471=DIRECTION('center_axis',(0.168963815110846,0.985622254813267,0.));
#472=DIRECTION('ref_axis',(-0.985622254813267,0.168963815110846,0.));
#473=DIRECTION('',(-0.985622254813267,0.168963815110846,0.));
#474=DIRECTION('',(0.,0.,1.));
#475=DIRECTION('',(0.985622254813267,-0.168963815110846,0.));
#476=DIRECTION('center_axis',(0.,0.,1.));
#477=DIRECTION('ref_axis',(6.99353086378052E-15,1.,0.));
#478=DIRECTION('center_axis',(0.,0.,1.));
#479=DIRECTION('ref_axis',(6.99353086378052E-15,1.,0.));
#480=DIRECTION('',(0.,0.,1.));
#481=DIRECTION('center_axis',(0.,0.,-1.));
#482=DIRECTION('ref_axis',(6.99353086378052E-15,1.,0.));
#483=DIRECTION('center_axis',(0.168963815110847,-0.985622254813267,0.));
#484=DIRECTION('ref_axis',(0.985622254813267,0.168963815110847,0.));
#485=DIRECTION('',(0.985622254813267,0.168963815110847,0.));
#486=DIRECTION('',(0.,0.,1.));
#487=DIRECTION('',(-0.985622254813267,-0.168963815110847,0.));
#488=DIRECTION('center_axis',(1.74838271594513E-16,-1.,0.));
#489=DIRECTION('ref_axis',(1.,1.66533453693773E-16,0.));
#490=DIRECTION('',(1.,1.74838271594513E-16,0.));
#491=DIRECTION('',(0.,0.,1.));
#492=DIRECTION('',(-1.,-1.74838271594513E-16,0.));
#493=DIRECTION('center_axis',(0.,0.,1.));
#494=DIRECTION('ref_axis',(1.6172540122495E-13,-1.,0.));
#495=DIRECTION('center_axis',(0.,0.,1.));
#496=DIRECTION('ref_axis',(1.6172540122495E-13,-1.,0.));
#497=DIRECTION('',(0.,0.,1.));
#498=DIRECTION('center_axis',(0.,0.,-1.));
#499=DIRECTION('ref_axis',(1.6172540122495E-13,-1.,0.));
#500=DIRECTION('center_axis',(-1.,1.82123199577618E-16,0.));
#501=DIRECTION('ref_axis',(-1.94289029309402E-16,-1.,0.));
#502=DIRECTION('',(-1.82123199577618E-16,-1.,0.));
#503=DIRECTION('',(1.82123199577618E-16,1.,0.));
#504=DIRECTION('center_axis',(0.,0.,1.));
#505=DIRECTION('ref_axis',(-1.,0.,0.));
#506=DIRECTION('center_axis',(0.,0.,1.));
#507=DIRECTION('ref_axis',(-1.,0.,0.));
#508=DIRECTION('center_axis',(0.,0.,1.));
#509=DIRECTION('ref_axis',(-1.,0.,0.));
#510=DIRECTION('center_axis',(0.,0.,1.));
#511=DIRECTION('ref_axis',(1.,0.,0.));
#512=DIRECTION('center_axis',(0.,0.,1.));
#513=DIRECTION('ref_axis',(1.,0.,0.));
#514=CARTESIAN_POINT('',(0.,0.,0.));
#515=CARTESIAN_POINT('Origin',(-1.46050000000002,3.79763929237221E-14,0.));
#516=CARTESIAN_POINT('',(-1.4605,0.254000000000038,0.));
#517=CARTESIAN_POINT('',(-1.4605,-0.253999999999962,0.));
#518=CARTESIAN_POINT('Origin',(-1.46050000000002,3.79763929237221E-14,0.));
#519=CARTESIAN_POINT('',(-1.4605,0.254000000000038,7.11));
#520=CARTESIAN_POINT('',(-1.4605,0.254000000000038,0.));
#521=CARTESIAN_POINT('',(-1.4605,-0.253999999999962,7.11));
#522=CARTESIAN_POINT('Origin',(-1.46050000000002,3.79763929237221E-14,7.11));
#523=CARTESIAN_POINT('',(-1.4605,-0.253999999999962,0.));
#524=CARTESIAN_POINT('Origin',(-1.016,0.3302,0.));
#525=CARTESIAN_POINT('',(-1.016,0.3302,0.));
#526=CARTESIAN_POINT('',(-0.549997620935738,0.410086122125262,0.));
#527=CARTESIAN_POINT('',(-1.016,0.3302,7.11));
#528=CARTESIAN_POINT('',(-1.016,0.3302,0.));
#529=CARTESIAN_POINT('',(-0.549997620935738,0.410086122125262,7.11));
#530=CARTESIAN_POINT('Origin',(-0.380999999999977,0.330200000000015,0.));
#531=CARTESIAN_POINT('',(-0.380999999999977,0.330200000000015,0.));
#532=CARTESIAN_POINT('',(-0.190499999999993,0.33020000000002,0.));
#533=CARTESIAN_POINT('',(-0.380999999999977,0.330200000000015,7.11));
#534=CARTESIAN_POINT('',(-0.380999999999977,0.330200000000015,0.));
#535=CARTESIAN_POINT('',(-0.190499999999993,0.33020000000002,7.11));
#536=CARTESIAN_POINT('Origin',(-0.380999999999979,0.0762000000000135,0.));
#537=CARTESIAN_POINT('',(-0.126999999999977,0.0762000000000117,0.));
#538=CARTESIAN_POINT('Origin',(-0.380999999999979,0.0762000000000135,0.));
#539=CARTESIAN_POINT('',(-0.126999999999978,0.0762000000000117,7.11));
#540=CARTESIAN_POINT('',(-0.126999999999977,0.0762000000000117,0.));
#541=CARTESIAN_POINT('Origin',(-0.380999999999979,0.0762000000000135,7.11));
#542=CARTESIAN_POINT('Origin',(-0.127,-0.0762,0.));
#543=CARTESIAN_POINT('',(-0.127,-0.0762000000000001,0.));
#544=CARTESIAN_POINT('',(-0.126999999999994,-0.0380999999999906,0.));
#545=CARTESIAN_POINT('',(-0.127,-0.0762000000000001,7.11));
#546=CARTESIAN_POINT('',(-0.127,-0.0762000000000001,0.));
#547=CARTESIAN_POINT('',(-0.126999999999994,-0.0380999999999906,7.11));
#548=CARTESIAN_POINT('Origin',(-0.380999999999995,-0.076199999999967,0.));
#549=CARTESIAN_POINT('',(-0.381,-0.330199999999962,0.));
#550=CARTESIAN_POINT('Origin',(-0.380999999999995,-0.076199999999967,0.));
#551=CARTESIAN_POINT('',(-0.381,-0.330199999999962,7.11));
#552=CARTESIAN_POINT('',(-0.381,-0.330199999999962,0.));
#553=CARTESIAN_POINT('Origin',(-0.380999999999995,-0.076199999999967,7.11));
#554=CARTESIAN_POINT('Origin',(-1.016,-0.3302,0.));
#555=CARTESIAN_POINT('',(-1.016,-0.3302,0.));
#556=CARTESIAN_POINT('',(-0.50799999999999,-0.33019999999997,0.));
#557=CARTESIAN_POINT('',(-1.016,-0.3302,7.11));
#558=CARTESIAN_POINT('',(-1.016,-0.3302,0.));
#559=CARTESIAN_POINT('',(-0.50799999999999,-0.33019999999997,7.11));
#560=CARTESIAN_POINT('Origin',(-1.4605,-0.253999999999962,0.));
#561=CARTESIAN_POINT('',(-0.772247620935792,-0.371986122125314,0.));
#562=CARTESIAN_POINT('',(-0.772247620935792,-0.371986122125314,7.11));
#563=CARTESIAN_POINT('Origin',(0.381,0.0761999999999999,0.));
#564=CARTESIAN_POINT('',(0.381,0.3302,0.));
#565=CARTESIAN_POINT('',(0.127,0.0762,0.));
#566=CARTESIAN_POINT('Origin',(0.381,0.0761999999999999,0.));
#567=CARTESIAN_POINT('',(0.381,0.3302,7.11));
#568=CARTESIAN_POINT('',(0.381,0.3302,0.));
#569=CARTESIAN_POINT('',(0.127,0.0762,7.11));
#570=CARTESIAN_POINT('Origin',(0.381,0.0761999999999999,7.11));
#571=CARTESIAN_POINT('',(0.127,0.0762,0.));
#572=CARTESIAN_POINT('Origin',(1.016,0.3302,0.));
#573=CARTESIAN_POINT('',(1.016,0.3302,0.));
#574=CARTESIAN_POINT('',(0.508,0.3302,0.));
#575=CARTESIAN_POINT('',(1.016,0.3302,7.11));
#576=CARTESIAN_POINT('',(1.016,0.3302,0.));
#577=CARTESIAN_POINT('',(0.508,0.3302,7.11));
#578=CARTESIAN_POINT('Origin',(1.4605,0.254,0.));
#579=CARTESIAN_POINT('',(1.4605,0.254,0.));
#580=CARTESIAN_POINT('',(0.772247620935765,0.371986122125298,0.));
#581=CARTESIAN_POINT('',(1.4605,0.254,7.11));
#582=CARTESIAN_POINT('',(1.4605,0.254,0.));
#583=CARTESIAN_POINT('',(0.772247620935765,0.371986122125298,7.11));
#584=CARTESIAN_POINT('Origin',(1.4605,1.85857481967387E-17,0.));
#585=CARTESIAN_POINT('',(1.4605,-0.254,0.));
#586=CARTESIAN_POINT('Origin',(1.4605,1.85857481967387E-17,0.));
#587=CARTESIAN_POINT('',(1.4605,-0.254,7.11));
#588=CARTESIAN_POINT('',(1.4605,-0.254,0.));
#589=CARTESIAN_POINT('Origin',(1.4605,1.85857481967387E-17,7.11));
#590=CARTESIAN_POINT('Origin',(1.016,-0.3302,0.));
#591=CARTESIAN_POINT('',(1.016,-0.3302,0.));
#592=CARTESIAN_POINT('',(0.549997620935766,-0.410086122125297,0.));
#593=CARTESIAN_POINT('',(1.016,-0.3302,7.11));
#594=CARTESIAN_POINT('',(1.016,-0.3302,0.));
#595=CARTESIAN_POINT('',(0.549997620935766,-0.410086122125297,7.11));
#596=CARTESIAN_POINT('Origin',(0.381,-0.3302,0.));
#597=CARTESIAN_POINT('',(0.381,-0.3302,0.));
#598=CARTESIAN_POINT('',(0.1905,-0.3302,0.));
#599=CARTESIAN_POINT('',(0.381,-0.3302,7.11));
#600=CARTESIAN_POINT('',(0.381,-0.3302,0.));
#601=CARTESIAN_POINT('',(0.1905,-0.3302,7.11));
#602=CARTESIAN_POINT('Origin',(0.380999999999959,-0.0762000000000407,0.));
#603=CARTESIAN_POINT('',(0.127,-0.0762,0.));
#604=CARTESIAN_POINT('Origin',(0.380999999999959,-0.0762000000000407,0.));
#605=CARTESIAN_POINT('',(0.127,-0.0762,7.11));
#606=CARTESIAN_POINT('',(0.127,-0.0762,0.));
#607=CARTESIAN_POINT('Origin',(0.380999999999959,-0.0762000000000407,7.11));
#608=CARTESIAN_POINT('Origin',(0.127,0.0762,0.));
#609=CARTESIAN_POINT('',(0.127,0.0381,0.));
#610=CARTESIAN_POINT('',(0.127,0.0381,7.11));
#611=CARTESIAN_POINT('Origin',(0.,0.,0.));
#612=CARTESIAN_POINT('',(1.965,2.40643096032455E-16,7.11));
#613=CARTESIAN_POINT('Origin',(0.,0.,7.11));
#614=CARTESIAN_POINT('',(1.965,2.40643096032455E-16,0.));
#615=CARTESIAN_POINT('Origin',(0.,0.,0.));
#616=CARTESIAN_POINT('Origin',(-9.53867906320621E-17,3.76665996480121E-17,
7.11));
#617=CARTESIAN_POINT('Origin',(-9.53867906320621E-17,3.76665996480121E-17,
0.));
#618=UNCERTAINTY_MEASURE_WITH_UNIT(LENGTH_MEASURE(0.01),#622,
'DISTANCE_ACCURACY_VALUE',
'Maximum model space distance between geometric entities at asserted c
onnectivities');
#619=UNCERTAINTY_MEASURE_WITH_UNIT(LENGTH_MEASURE(1.E-6),#622,
'DISTANCE_ACCURACY_VALUE',
'Maximum model space distance between geometric entities at asserted c
onnectivities');
#620=(
GEOMETRIC_REPRESENTATION_CONTEXT(3)
GLOBAL_UNCERTAINTY_ASSIGNED_CONTEXT((#618))
GLOBAL_UNIT_ASSIGNED_CONTEXT((#622,#624,#623))
REPRESENTATION_CONTEXT('','3D')
);
#621=(
GEOMETRIC_REPRESENTATION_CONTEXT(3)
GLOBAL_UNCERTAINTY_ASSIGNED_CONTEXT((#619))
GLOBAL_UNIT_ASSIGNED_CONTEXT((#622,#12,#623))
REPRESENTATION_CONTEXT('','3D')
);
#622=(
LENGTH_UNIT()
NAMED_UNIT(*)
SI_UNIT(.MILLI.,.METRE.)
);
#623=(
NAMED_UNIT(*)
SI_UNIT($,.STERADIAN.)
SOLID_ANGLE_UNIT()
);
#624=(
NAMED_UNIT(*)
PLANE_ANGLE_UNIT()
SI_UNIT($,.RADIAN.)
);
#625=SHAPE_DEFINITION_REPRESENTATION(#626,#627);
#626=PRODUCT_DEFINITION_SHAPE('',$,#629);
#627=SHAPE_REPRESENTATION('',(#376),#620);
#628=PRODUCT_DEFINITION_CONTEXT('part definition',#633,'design');
#629=PRODUCT_DEFINITION('Product','Product',#630,#628);
#630=PRODUCT_DEFINITION_FORMATION('',$,#635);
#631=PRODUCT_RELATED_PRODUCT_CATEGORY('Product','Product',(#635));
#632=APPLICATION_PROTOCOL_DEFINITION('international standard',
'automotive_design',2009,#633);
#633=APPLICATION_CONTEXT(
'Core Data for Automotive Mechanical Design Process');
#634=PRODUCT_CONTEXT('part definition',#633,'mechanical');
#635=PRODUCT('Product','Product',$,(#634));
#636=PRESENTATION_STYLE_ASSIGNMENT((#638));
#637=PRESENTATION_STYLE_ASSIGNMENT((#639));
#638=SURFACE_STYLE_USAGE(.BOTH.,#640);
#639=SURFACE_STYLE_USAGE(.BOTH.,#641);
#640=SURFACE_SIDE_STYLE('',(#642));
#641=SURFACE_SIDE_STYLE('',(#643));
#642=SURFACE_STYLE_FILL_AREA(#644);
#643=SURFACE_STYLE_FILL_AREA(#645);
#644=FILL_AREA_STYLE('',(#646));
#645=FILL_AREA_STYLE('',(#647));
#646=FILL_AREA_STYLE_COLOUR('',#648);
#647=FILL_AREA_STYLE_COLOUR('',#649);
#648=COLOUR_RGB('',1.,1.,1.);
#649=COLOUR_RGB('',0.329411764705882,0.329411764705882,0.329411764705882);
ENDSEC;
END-ISO-10303-21;
