ISO-10303-21;
HEADER;
/* Generated by software containing ST-Developer
 * from STEP Tools, Inc. (www.steptools.com) 
 */

FILE_DESCRIPTION(
/* description */ (''),
/* implementation_level */ '2;1');

FILE_NAME(
/* name */ 
'G:\\Applications\\Altium\\CernLib\\StepLib\\BOSSARD_BN5687-3061612_h.
stp',
/* time_stamp */ '2017-03-09T12:39:44+01:00',
/* author */ ('riccim'),
/* organization */ (''),
/* preprocessor_version */ 'ST-DEVELOPER v15.5',
/* originating_system */ 'AutoCAD Mechanical',
/* authorisation */ '');

FILE_SCHEMA (('AUTOMOTIVE_DESIGN { 1 0 10303 214 3 1 1 }'));
ENDSEC;

DATA;
#10=MECHANICAL_DESIGN_GEOMETRIC_PRESENTATION_REPRESENTATION('',(#17),#847);
#11=DIMENSIONAL_EXPONENTS(0.,0.,0.,0.,0.,0.,0.);
#12=(
CONVERSION_BASED_UNIT('degree',#13)
NAMED_UNIT(#11)
PLANE_ANGLE_UNIT()
);
#13=PLANE_ANGLE_MEASURE_WITH_UNIT(PLANE_ANGLE_MEASURE(0.01745329252),#850);
#14=PRESENTATION_LAYER_ASSIGNMENT('3D','',(#399));
#15=SHAPE_REPRESENTATION_RELATIONSHIP('SRR','None',#853,#16);
#16=ADVANCED_BREP_SHAPE_REPRESENTATION($,(#399),#846);
#17=STYLED_ITEM($,(#863),#399);
#18=CONICAL_SURFACE($,#434,1.73205080756881,1.04719755119658);
#19=CONICAL_SURFACE($,#435,1.73205080756881,1.04719755119658);
#20=CONICAL_SURFACE($,#436,1.73205080756881,1.04719755119658);
#21=CONICAL_SURFACE($,#437,1.73205080756881,1.04719755119658);
#22=CONICAL_SURFACE($,#438,1.73205080756881,1.04719755119658);
#23=CONICAL_SURFACE($,#439,1.73205080756881,1.04719755119658);
#24=CONICAL_SURFACE($,#446,1.362,0.785398163397449);
#25=SPHERICAL_SURFACE($,#427,5.);
#26=TOROIDAL_SURFACE($,#425,2.52,0.279999999999999);
#27=B_SPLINE_CURVE_WITH_KNOTS($,3,(#600,#601,#602,#603,#604,#605,#606,#607),
 .UNSPECIFIED.,.F.,.F.,(4,2,2,4),(-0.530448305668518,-0.403288047035194,
-0.276127788401871,-0.149273982749143),.UNSPECIFIED.);
#28=B_SPLINE_CURVE_WITH_KNOTS($,3,(#609,#610,#611,#612,#613,#614,#615,#616),
 .UNSPECIFIED.,.F.,.F.,(4,2,2,4),(-0.9116226285879,-0.784768822935168,-0.657608564301843,
-0.530448305668518),.UNSPECIFIED.);
#29=B_SPLINE_CURVE_WITH_KNOTS($,3,(#621,#622,#623,#624,#625,#626,#627,#628,
#629,#630,#631,#632,#633,#634),.UNSPECIFIED.,.F.,.F.,(4,2,2,2,2,2,4),(-1.02918411940707,
-0.910886583487079,-0.768832187566984,-0.62677779164689,-0.484723395726796,
-0.342668999806701,-0.22437147348977),.UNSPECIFIED.);
#30=B_SPLINE_CURVE_WITH_KNOTS($,3,(#639,#640,#641,#642,#643,#644,#645,#646),
 .UNSPECIFIED.,.F.,.F.,(4,2,2,4),(-0.53044830566852,-0.403288047035195,
-0.276127788401871,-0.149273988364144),.UNSPECIFIED.);
#31=B_SPLINE_CURVE_WITH_KNOTS($,3,(#647,#648,#649,#650,#651,#652,#653,#654),
 .UNSPECIFIED.,.F.,.F.,(4,2,2,4),(-0.911622638313364,-0.784768822935169,
-0.657608564301844,-0.53044830566852),.UNSPECIFIED.);
#32=B_SPLINE_CURVE_WITH_KNOTS($,3,(#658,#659,#660,#661,#662,#663,#664,#665,
#666,#667,#668,#669,#670,#671),.UNSPECIFIED.,.F.,.F.,(4,2,2,2,2,2,4),(-1.0291841249514,
-0.910886583487078,-0.768832187566983,-0.626777791646889,-0.484723395726795,
-0.3426689998067,-0.22437145604585),.UNSPECIFIED.);
#33=B_SPLINE_CURVE_WITH_KNOTS($,3,(#676,#677,#678,#679,#680,#681,#682,#683),
 .UNSPECIFIED.,.F.,.F.,(4,2,2,4),(-0.530448305668523,-0.403288047035197,
-0.276127788401872,-0.149273974808337),.UNSPECIFIED.);
#34=B_SPLINE_CURVE_WITH_KNOTS($,3,(#684,#685,#686,#687,#688,#689,#690,#691),
 .UNSPECIFIED.,.F.,.F.,(4,2,2,4),(-0.91162262064709,-0.78476882293517,-0.657608564301846,
-0.530448305668523),.UNSPECIFIED.);
#35=B_SPLINE_CURVE_WITH_KNOTS($,3,(#695,#696,#697,#698,#699,#700,#701,#702,
#703,#704,#705,#706,#707,#708),.UNSPECIFIED.,.F.,.F.,(4,2,2,2,2,2,4),(-1.02918411156621,
-0.910886583487078,-0.768832187566984,-0.626777791646889,-0.484723395726795,
-0.3426689998067,-0.22437146388671),.UNSPECIFIED.);
#36=B_SPLINE_CURVE_WITH_KNOTS($,3,(#726,#727,#728,#729,#730,#731,#732,#733),
 .UNSPECIFIED.,.F.,.F.,(4,2,2,4),(-0.911622628587901,-0.784768822935168,
-0.657608564301843,-0.530448305668518),.UNSPECIFIED.);
#37=B_SPLINE_CURVE_WITH_KNOTS($,3,(#738,#739,#740,#741,#742,#743,#744,#745),
 .UNSPECIFIED.,.F.,.F.,(4,2,2,4),(-0.530448305668522,-0.403288047035197,
-0.276127788401872,-0.149273994660354),.UNSPECIFIED.);
#38=B_SPLINE_CURVE_WITH_KNOTS($,3,(#746,#747,#748,#749,#750,#751,#752,#753,
#754,#755,#756,#757,#758,#759),.UNSPECIFIED.,.F.,.F.,(4,2,2,2,2,2,4),(-1.02918413116836,
-0.910886583487077,-0.768832187566983,-0.626777791646889,-0.484723395726794,
-0.342668999806699,-0.22437146388671),.UNSPECIFIED.);
#39=B_SPLINE_CURVE_WITH_KNOTS($,3,(#762,#763,#764,#765,#766,#767,#768,#769),
 .UNSPECIFIED.,.F.,.F.,(4,2,2,4),(-0.911622628587898,-0.78476882293517,
-0.657608564301845,-0.530448305668522),.UNSPECIFIED.);
#40=B_SPLINE_CURVE_WITH_KNOTS($,3,(#771,#772,#773,#774,#775,#776,#777,#778),
 .UNSPECIFIED.,.F.,.F.,(4,2,2,4),(-0.530448305668519,-0.403288047035195,
-0.276127788401871,-0.149273994660352),.UNSPECIFIED.);
#41=B_SPLINE_CURVE_WITH_KNOTS($,3,(#779,#780,#781,#782,#783,#784,#785,#786,
#787,#788,#789,#790,#791,#792),.UNSPECIFIED.,.F.,.F.,(4,2,2,2,2,2,4),(-1.02918413116836,
-0.910886583487078,-0.768832187566983,-0.626777791646889,-0.484723395726795,
-0.342668999806701,-0.224371463886711),.UNSPECIFIED.);
#42=B_SPLINE_CURVE_WITH_KNOTS($,3,(#795,#796,#797,#798,#799,#800,#801,#802),
 .UNSPECIFIED.,.F.,.F.,(4,2,2,4),(-0.911622628587895,-0.784768822935168,
-0.657608564301844,-0.530448305668519),.UNSPECIFIED.);
#43=B_SPLINE_CURVE_WITH_KNOTS($,3,(#804,#805,#806,#807,#808,#809,#810,#811),
 .UNSPECIFIED.,.F.,.F.,(4,2,2,4),(-0.530448305668518,-0.403288047035195,
-0.276127788401871,-0.149273974808335),.UNSPECIFIED.);
#44=B_SPLINE_CURVE_WITH_KNOTS($,3,(#812,#813,#814,#815,#816,#817,#818,#819,
#820,#821,#822,#823,#824,#825),.UNSPECIFIED.,.F.,.F.,(4,2,2,2,2,2,4),(-1.02918411156621,
-0.910886583487078,-0.768832187566983,-0.62677779164689,-0.484723395726795,
-0.3426689998067,-0.224371463886709),.UNSPECIFIED.);
#45=LINE($,#598,#57);
#46=LINE($,#617,#58);
#47=LINE($,#620,#59);
#48=LINE($,#637,#60);
#49=LINE($,#657,#61);
#50=LINE($,#674,#62);
#51=LINE($,#694,#63);
#52=LINE($,#827,#64);
#53=LINE($,#828,#65);
#54=LINE($,#830,#66);
#55=LINE($,#832,#67);
#56=LINE($,#834,#68);
#57=VECTOR($,#487,1.16350066788172);
#58=VECTOR($,#488,1.16350066788172);
#59=VECTOR($,#491,1.16350066315845);
#60=VECTOR($,#494,1.1635006706087);
#61=VECTOR($,#497,1.16350067173825);
#62=VECTOR($,#500,1.16350066402519);
#63=VECTOR($,#503,1.16350066788172);
#64=VECTOR($,#540,1.16350066788172);
#65=VECTOR($,#541,1.16350067366652);
#66=VECTOR($,#544,1.16350067366652);
#67=VECTOR($,#547,1.16350066788172);
#68=VECTOR($,#550,1.16350066402519);
#69=CYLINDRICAL_SURFACE($,#417,0.28);
#70=CYLINDRICAL_SURFACE($,#418,0.49);
#71=CYLINDRICAL_SURFACE($,#419,0.28);
#72=CYLINDRICAL_SURFACE($,#420,0.49);
#73=CYLINDRICAL_SURFACE($,#421,0.28);
#74=CYLINDRICAL_SURFACE($,#422,0.49);
#75=CYLINDRICAL_SURFACE($,#423,2.8);
#76=CYLINDRICAL_SURFACE($,#440,0.49);
#77=CYLINDRICAL_SURFACE($,#441,0.49);
#78=CYLINDRICAL_SURFACE($,#442,0.28);
#79=CYLINDRICAL_SURFACE($,#443,0.49);
#80=CYLINDRICAL_SURFACE($,#444,0.28);
#81=CYLINDRICAL_SURFACE($,#445,0.28);
#82=CYLINDRICAL_SURFACE($,#449,1.5);
#83=FACE_BOUND($,#116,.T.);
#84=FACE_BOUND($,#125,.T.);
#85=FACE_BOUND($,#127,.T.);
#86=FACE_BOUND($,#129,.T.);
#87=FACE_BOUND($,#143,.T.);
#88=FACE_BOUND($,#145,.T.);
#89=FACE_OUTER_BOUND($,#115,.T.);
#90=FACE_OUTER_BOUND($,#117,.T.);
#91=FACE_OUTER_BOUND($,#118,.T.);
#92=FACE_OUTER_BOUND($,#119,.T.);
#93=FACE_OUTER_BOUND($,#120,.T.);
#94=FACE_OUTER_BOUND($,#121,.T.);
#95=FACE_OUTER_BOUND($,#122,.T.);
#96=FACE_OUTER_BOUND($,#123,.T.);
#97=FACE_OUTER_BOUND($,#124,.T.);
#98=FACE_OUTER_BOUND($,#126,.T.);
#99=FACE_OUTER_BOUND($,#128,.T.);
#100=FACE_OUTER_BOUND($,#130,.T.);
#101=FACE_OUTER_BOUND($,#131,.T.);
#102=FACE_OUTER_BOUND($,#132,.T.);
#103=FACE_OUTER_BOUND($,#133,.T.);
#104=FACE_OUTER_BOUND($,#134,.T.);
#105=FACE_OUTER_BOUND($,#135,.T.);
#106=FACE_OUTER_BOUND($,#136,.T.);
#107=FACE_OUTER_BOUND($,#137,.T.);
#108=FACE_OUTER_BOUND($,#138,.T.);
#109=FACE_OUTER_BOUND($,#139,.T.);
#110=FACE_OUTER_BOUND($,#140,.T.);
#111=FACE_OUTER_BOUND($,#141,.T.);
#112=FACE_OUTER_BOUND($,#142,.T.);
#113=FACE_OUTER_BOUND($,#144,.T.);
#114=FACE_OUTER_BOUND($,#146,.T.);
#115=EDGE_LOOP($,(#261));
#116=EDGE_LOOP($,(#262));
#117=EDGE_LOOP($,(#263,#264,#265,#266,#267,#268,#269,#270,#271,#272,#273,
#274));
#118=EDGE_LOOP($,(#275,#276,#277,#278,#279));
#119=EDGE_LOOP($,(#280,#281,#282,#283));
#120=EDGE_LOOP($,(#284,#285,#286,#287,#288));
#121=EDGE_LOOP($,(#289,#290,#291,#292));
#122=EDGE_LOOP($,(#293,#294,#295,#296,#297));
#123=EDGE_LOOP($,(#298,#299,#300,#301));
#124=EDGE_LOOP($,(#302));
#125=EDGE_LOOP($,(#303));
#126=EDGE_LOOP($,(#304));
#127=EDGE_LOOP($,(#305));
#128=EDGE_LOOP($,(#306));
#129=EDGE_LOOP($,(#307,#308,#309,#310,#311,#312));
#130=EDGE_LOOP($,(#313,#314,#315,#316));
#131=EDGE_LOOP($,(#317,#318,#319,#320));
#132=EDGE_LOOP($,(#321,#322,#323,#324));
#133=EDGE_LOOP($,(#325,#326,#327,#328));
#134=EDGE_LOOP($,(#329,#330,#331,#332));
#135=EDGE_LOOP($,(#333,#334,#335,#336));
#136=EDGE_LOOP($,(#337,#338,#339,#340));
#137=EDGE_LOOP($,(#341,#342,#343,#344));
#138=EDGE_LOOP($,(#345,#346,#347,#348,#349));
#139=EDGE_LOOP($,(#350,#351,#352,#353));
#140=EDGE_LOOP($,(#354,#355,#356,#357,#358));
#141=EDGE_LOOP($,(#359,#360,#361,#362,#363));
#142=EDGE_LOOP($,(#364));
#143=EDGE_LOOP($,(#365));
#144=EDGE_LOOP($,(#366));
#145=EDGE_LOOP($,(#367));
#146=EDGE_LOOP($,(#368));
#147=CIRCLE($,#402,2.8);
#148=CIRCLE($,#403,1.5);
#149=CIRCLE($,#405,0.28);
#150=CIRCLE($,#406,0.49);
#151=CIRCLE($,#407,0.28);
#152=CIRCLE($,#408,0.49);
#153=CIRCLE($,#409,0.28);
#154=CIRCLE($,#410,0.49);
#155=CIRCLE($,#411,0.28);
#156=CIRCLE($,#412,0.49);
#157=CIRCLE($,#413,0.28);
#158=CIRCLE($,#414,0.49);
#159=CIRCLE($,#415,0.28);
#160=CIRCLE($,#416,0.49);
#161=CIRCLE($,#424,2.8);
#162=CIRCLE($,#426,2.66949152542373);
#163=CIRCLE($,#428,1.4);
#164=CIRCLE($,#429,1.4);
#165=CIRCLE($,#430,1.4);
#166=CIRCLE($,#431,1.4);
#167=CIRCLE($,#432,1.4);
#168=CIRCLE($,#433,1.4);
#169=CIRCLE($,#447,1.5);
#170=CIRCLE($,#448,1.224);
#171=VERTEX_POINT($,#567);
#172=VERTEX_POINT($,#569);
#173=VERTEX_POINT($,#572);
#174=VERTEX_POINT($,#573);
#175=VERTEX_POINT($,#575);
#176=VERTEX_POINT($,#577);
#177=VERTEX_POINT($,#579);
#178=VERTEX_POINT($,#581);
#179=VERTEX_POINT($,#583);
#180=VERTEX_POINT($,#585);
#181=VERTEX_POINT($,#587);
#182=VERTEX_POINT($,#589);
#183=VERTEX_POINT($,#591);
#184=VERTEX_POINT($,#593);
#185=VERTEX_POINT($,#597);
#186=VERTEX_POINT($,#599);
#187=VERTEX_POINT($,#608);
#188=VERTEX_POINT($,#619);
#189=VERTEX_POINT($,#636);
#190=VERTEX_POINT($,#638);
#191=VERTEX_POINT($,#656);
#192=VERTEX_POINT($,#673);
#193=VERTEX_POINT($,#675);
#194=VERTEX_POINT($,#693);
#195=VERTEX_POINT($,#710);
#196=VERTEX_POINT($,#713);
#197=VERTEX_POINT($,#716);
#198=VERTEX_POINT($,#718);
#199=VERTEX_POINT($,#720);
#200=VERTEX_POINT($,#737);
#201=VERTEX_POINT($,#761);
#202=VERTEX_POINT($,#770);
#203=VERTEX_POINT($,#794);
#204=VERTEX_POINT($,#803);
#205=VERTEX_POINT($,#838);
#206=VERTEX_POINT($,#840);
#207=EDGE_CURVE($,#171,#171,#147,.T.);
#208=EDGE_CURVE($,#172,#172,#148,.T.);
#209=EDGE_CURVE($,#173,#174,#149,.T.);
#210=EDGE_CURVE($,#175,#173,#150,.T.);
#211=EDGE_CURVE($,#176,#175,#151,.T.);
#212=EDGE_CURVE($,#177,#176,#152,.T.);
#213=EDGE_CURVE($,#178,#177,#153,.T.);
#214=EDGE_CURVE($,#179,#178,#154,.T.);
#215=EDGE_CURVE($,#180,#179,#155,.T.);
#216=EDGE_CURVE($,#181,#180,#156,.T.);
#217=EDGE_CURVE($,#182,#181,#157,.T.);
#218=EDGE_CURVE($,#183,#182,#158,.T.);
#219=EDGE_CURVE($,#184,#183,#159,.T.);
#220=EDGE_CURVE($,#174,#184,#160,.T.);
#221=EDGE_CURVE($,#185,#179,#45,.T.);
#222=EDGE_CURVE($,#186,#185,#27,.T.);
#223=EDGE_CURVE($,#187,#186,#28,.T.);
#224=EDGE_CURVE($,#187,#180,#46,.T.);
#225=EDGE_CURVE($,#188,#178,#47,.T.);
#226=EDGE_CURVE($,#185,#188,#29,.T.);
#227=EDGE_CURVE($,#189,#177,#48,.T.);
#228=EDGE_CURVE($,#190,#189,#30,.T.);
#229=EDGE_CURVE($,#188,#190,#31,.T.);
#230=EDGE_CURVE($,#191,#176,#49,.T.);
#231=EDGE_CURVE($,#189,#191,#32,.T.);
#232=EDGE_CURVE($,#192,#175,#50,.T.);
#233=EDGE_CURVE($,#193,#192,#33,.T.);
#234=EDGE_CURVE($,#191,#193,#34,.T.);
#235=EDGE_CURVE($,#194,#173,#51,.T.);
#236=EDGE_CURVE($,#192,#194,#35,.T.);
#237=EDGE_CURVE($,#195,#195,#161,.T.);
#238=EDGE_CURVE($,#196,#196,#162,.T.);
#239=EDGE_CURVE($,#193,#197,#163,.T.);
#240=EDGE_CURVE($,#197,#198,#164,.T.);
#241=EDGE_CURVE($,#198,#199,#165,.T.);
#242=EDGE_CURVE($,#199,#186,#166,.T.);
#243=EDGE_CURVE($,#186,#190,#167,.T.);
#244=EDGE_CURVE($,#190,#193,#168,.T.);
#245=EDGE_CURVE($,#194,#197,#36,.T.);
#246=EDGE_CURVE($,#199,#200,#37,.T.);
#247=EDGE_CURVE($,#200,#187,#38,.T.);
#248=EDGE_CURVE($,#201,#199,#39,.T.);
#249=EDGE_CURVE($,#198,#202,#40,.T.);
#250=EDGE_CURVE($,#202,#201,#41,.T.);
#251=EDGE_CURVE($,#203,#198,#42,.T.);
#252=EDGE_CURVE($,#197,#204,#43,.T.);
#253=EDGE_CURVE($,#204,#203,#44,.T.);
#254=EDGE_CURVE($,#201,#182,#52,.T.);
#255=EDGE_CURVE($,#202,#183,#53,.T.);
#256=EDGE_CURVE($,#200,#181,#54,.T.);
#257=EDGE_CURVE($,#203,#184,#55,.T.);
#258=EDGE_CURVE($,#204,#174,#56,.T.);
#259=EDGE_CURVE($,#205,#205,#169,.T.);
#260=EDGE_CURVE($,#206,#206,#170,.T.);
#261=ORIENTED_EDGE($,*,*,#207,.F.);
#262=ORIENTED_EDGE($,*,*,#208,.T.);
#263=ORIENTED_EDGE($,*,*,#209,.F.);
#264=ORIENTED_EDGE($,*,*,#210,.F.);
#265=ORIENTED_EDGE($,*,*,#211,.F.);
#266=ORIENTED_EDGE($,*,*,#212,.F.);
#267=ORIENTED_EDGE($,*,*,#213,.F.);
#268=ORIENTED_EDGE($,*,*,#214,.F.);
#269=ORIENTED_EDGE($,*,*,#215,.F.);
#270=ORIENTED_EDGE($,*,*,#216,.F.);
#271=ORIENTED_EDGE($,*,*,#217,.F.);
#272=ORIENTED_EDGE($,*,*,#218,.F.);
#273=ORIENTED_EDGE($,*,*,#219,.F.);
#274=ORIENTED_EDGE($,*,*,#220,.F.);
#275=ORIENTED_EDGE($,*,*,#215,.T.);
#276=ORIENTED_EDGE($,*,*,#221,.F.);
#277=ORIENTED_EDGE($,*,*,#222,.F.);
#278=ORIENTED_EDGE($,*,*,#223,.F.);
#279=ORIENTED_EDGE($,*,*,#224,.T.);
#280=ORIENTED_EDGE($,*,*,#214,.T.);
#281=ORIENTED_EDGE($,*,*,#225,.F.);
#282=ORIENTED_EDGE($,*,*,#226,.F.);
#283=ORIENTED_EDGE($,*,*,#221,.T.);
#284=ORIENTED_EDGE($,*,*,#213,.T.);
#285=ORIENTED_EDGE($,*,*,#227,.F.);
#286=ORIENTED_EDGE($,*,*,#228,.F.);
#287=ORIENTED_EDGE($,*,*,#229,.F.);
#288=ORIENTED_EDGE($,*,*,#225,.T.);
#289=ORIENTED_EDGE($,*,*,#212,.T.);
#290=ORIENTED_EDGE($,*,*,#230,.F.);
#291=ORIENTED_EDGE($,*,*,#231,.F.);
#292=ORIENTED_EDGE($,*,*,#227,.T.);
#293=ORIENTED_EDGE($,*,*,#211,.T.);
#294=ORIENTED_EDGE($,*,*,#232,.F.);
#295=ORIENTED_EDGE($,*,*,#233,.F.);
#296=ORIENTED_EDGE($,*,*,#234,.F.);
#297=ORIENTED_EDGE($,*,*,#230,.T.);
#298=ORIENTED_EDGE($,*,*,#210,.T.);
#299=ORIENTED_EDGE($,*,*,#235,.F.);
#300=ORIENTED_EDGE($,*,*,#236,.F.);
#301=ORIENTED_EDGE($,*,*,#232,.T.);
#302=ORIENTED_EDGE($,*,*,#237,.T.);
#303=ORIENTED_EDGE($,*,*,#207,.T.);
#304=ORIENTED_EDGE($,*,*,#238,.F.);
#305=ORIENTED_EDGE($,*,*,#237,.F.);
#306=ORIENTED_EDGE($,*,*,#238,.T.);
#307=ORIENTED_EDGE($,*,*,#239,.T.);
#308=ORIENTED_EDGE($,*,*,#240,.T.);
#309=ORIENTED_EDGE($,*,*,#241,.T.);
#310=ORIENTED_EDGE($,*,*,#242,.T.);
#311=ORIENTED_EDGE($,*,*,#243,.T.);
#312=ORIENTED_EDGE($,*,*,#244,.T.);
#313=ORIENTED_EDGE($,*,*,#233,.T.);
#314=ORIENTED_EDGE($,*,*,#236,.T.);
#315=ORIENTED_EDGE($,*,*,#245,.T.);
#316=ORIENTED_EDGE($,*,*,#239,.F.);
#317=ORIENTED_EDGE($,*,*,#228,.T.);
#318=ORIENTED_EDGE($,*,*,#231,.T.);
#319=ORIENTED_EDGE($,*,*,#234,.T.);
#320=ORIENTED_EDGE($,*,*,#244,.F.);
#321=ORIENTED_EDGE($,*,*,#222,.T.);
#322=ORIENTED_EDGE($,*,*,#226,.T.);
#323=ORIENTED_EDGE($,*,*,#229,.T.);
#324=ORIENTED_EDGE($,*,*,#243,.F.);
#325=ORIENTED_EDGE($,*,*,#223,.T.);
#326=ORIENTED_EDGE($,*,*,#242,.F.);
#327=ORIENTED_EDGE($,*,*,#246,.T.);
#328=ORIENTED_EDGE($,*,*,#247,.T.);
#329=ORIENTED_EDGE($,*,*,#248,.T.);
#330=ORIENTED_EDGE($,*,*,#241,.F.);
#331=ORIENTED_EDGE($,*,*,#249,.T.);
#332=ORIENTED_EDGE($,*,*,#250,.T.);
#333=ORIENTED_EDGE($,*,*,#251,.T.);
#334=ORIENTED_EDGE($,*,*,#240,.F.);
#335=ORIENTED_EDGE($,*,*,#252,.T.);
#336=ORIENTED_EDGE($,*,*,#253,.T.);
#337=ORIENTED_EDGE($,*,*,#218,.T.);
#338=ORIENTED_EDGE($,*,*,#254,.F.);
#339=ORIENTED_EDGE($,*,*,#250,.F.);
#340=ORIENTED_EDGE($,*,*,#255,.T.);
#341=ORIENTED_EDGE($,*,*,#216,.T.);
#342=ORIENTED_EDGE($,*,*,#224,.F.);
#343=ORIENTED_EDGE($,*,*,#247,.F.);
#344=ORIENTED_EDGE($,*,*,#256,.T.);
#345=ORIENTED_EDGE($,*,*,#219,.T.);
#346=ORIENTED_EDGE($,*,*,#255,.F.);
#347=ORIENTED_EDGE($,*,*,#249,.F.);
#348=ORIENTED_EDGE($,*,*,#251,.F.);
#349=ORIENTED_EDGE($,*,*,#257,.T.);
#350=ORIENTED_EDGE($,*,*,#220,.T.);
#351=ORIENTED_EDGE($,*,*,#257,.F.);
#352=ORIENTED_EDGE($,*,*,#253,.F.);
#353=ORIENTED_EDGE($,*,*,#258,.T.);
#354=ORIENTED_EDGE($,*,*,#209,.T.);
#355=ORIENTED_EDGE($,*,*,#258,.F.);
#356=ORIENTED_EDGE($,*,*,#252,.F.);
#357=ORIENTED_EDGE($,*,*,#245,.F.);
#358=ORIENTED_EDGE($,*,*,#235,.T.);
#359=ORIENTED_EDGE($,*,*,#217,.T.);
#360=ORIENTED_EDGE($,*,*,#256,.F.);
#361=ORIENTED_EDGE($,*,*,#246,.F.);
#362=ORIENTED_EDGE($,*,*,#248,.F.);
#363=ORIENTED_EDGE($,*,*,#254,.T.);
#364=ORIENTED_EDGE($,*,*,#259,.T.);
#365=ORIENTED_EDGE($,*,*,#260,.T.);
#366=ORIENTED_EDGE($,*,*,#208,.F.);
#367=ORIENTED_EDGE($,*,*,#259,.F.);
#368=ORIENTED_EDGE($,*,*,#260,.F.);
#369=PLANE($,#401);
#370=PLANE($,#404);
#371=PLANE($,#450);
#372=ADVANCED_FACE($,(#89,#83),#369,.T.);
#373=ADVANCED_FACE($,(#90),#370,.T.);
#374=ADVANCED_FACE($,(#91),#69,.F.);
#375=ADVANCED_FACE($,(#92),#70,.T.);
#376=ADVANCED_FACE($,(#93),#71,.F.);
#377=ADVANCED_FACE($,(#94),#72,.T.);
#378=ADVANCED_FACE($,(#95),#73,.F.);
#379=ADVANCED_FACE($,(#96),#74,.T.);
#380=ADVANCED_FACE($,(#97,#84),#75,.T.);
#381=ADVANCED_FACE($,(#98,#85),#26,.T.);
#382=ADVANCED_FACE($,(#99,#86),#25,.T.);
#383=ADVANCED_FACE($,(#100),#18,.F.);
#384=ADVANCED_FACE($,(#101),#19,.F.);
#385=ADVANCED_FACE($,(#102),#20,.F.);
#386=ADVANCED_FACE($,(#103),#21,.F.);
#387=ADVANCED_FACE($,(#104),#22,.F.);
#388=ADVANCED_FACE($,(#105),#23,.F.);
#389=ADVANCED_FACE($,(#106),#76,.T.);
#390=ADVANCED_FACE($,(#107),#77,.T.);
#391=ADVANCED_FACE($,(#108),#78,.F.);
#392=ADVANCED_FACE($,(#109),#79,.T.);
#393=ADVANCED_FACE($,(#110),#80,.F.);
#394=ADVANCED_FACE($,(#111),#81,.F.);
#395=ADVANCED_FACE($,(#112,#87),#24,.T.);
#396=ADVANCED_FACE($,(#113,#88),#82,.T.);
#397=ADVANCED_FACE($,(#114),#371,.T.);
#398=CLOSED_SHELL($,(#372,#373,#374,#375,#376,#377,#378,#379,#380,#381,
#382,#383,#384,#385,#386,#387,#388,#389,#390,#391,#392,#393,#394,#395,#396,
#397));
#399=MANIFOLD_SOLID_BREP('1CBD',#398);
#400=AXIS2_PLACEMENT_3D('placement',#565,#451,#452);
#401=AXIS2_PLACEMENT_3D($,#566,#453,#454);
#402=AXIS2_PLACEMENT_3D($,#568,#455,#456);
#403=AXIS2_PLACEMENT_3D($,#570,#457,#458);
#404=AXIS2_PLACEMENT_3D($,#571,#459,#460);
#405=AXIS2_PLACEMENT_3D($,#574,#461,#462);
#406=AXIS2_PLACEMENT_3D($,#576,#463,#464);
#407=AXIS2_PLACEMENT_3D($,#578,#465,#466);
#408=AXIS2_PLACEMENT_3D($,#580,#467,#468);
#409=AXIS2_PLACEMENT_3D($,#582,#469,#470);
#410=AXIS2_PLACEMENT_3D($,#584,#471,#472);
#411=AXIS2_PLACEMENT_3D($,#586,#473,#474);
#412=AXIS2_PLACEMENT_3D($,#588,#475,#476);
#413=AXIS2_PLACEMENT_3D($,#590,#477,#478);
#414=AXIS2_PLACEMENT_3D($,#592,#479,#480);
#415=AXIS2_PLACEMENT_3D($,#594,#481,#482);
#416=AXIS2_PLACEMENT_3D($,#595,#483,#484);
#417=AXIS2_PLACEMENT_3D($,#596,#485,#486);
#418=AXIS2_PLACEMENT_3D($,#618,#489,#490);
#419=AXIS2_PLACEMENT_3D($,#635,#492,#493);
#420=AXIS2_PLACEMENT_3D($,#655,#495,#496);
#421=AXIS2_PLACEMENT_3D($,#672,#498,#499);
#422=AXIS2_PLACEMENT_3D($,#692,#501,#502);
#423=AXIS2_PLACEMENT_3D($,#709,#504,#505);
#424=AXIS2_PLACEMENT_3D($,#711,#506,#507);
#425=AXIS2_PLACEMENT_3D($,#712,#508,#509);
#426=AXIS2_PLACEMENT_3D($,#714,#510,#511);
#427=AXIS2_PLACEMENT_3D($,#715,#512,#513);
#428=AXIS2_PLACEMENT_3D($,#717,#514,#515);
#429=AXIS2_PLACEMENT_3D($,#719,#516,#517);
#430=AXIS2_PLACEMENT_3D($,#721,#518,#519);
#431=AXIS2_PLACEMENT_3D($,#722,#520,#521);
#432=AXIS2_PLACEMENT_3D($,#723,#522,#523);
#433=AXIS2_PLACEMENT_3D($,#724,#524,#525);
#434=AXIS2_PLACEMENT_3D($,#725,#526,#527);
#435=AXIS2_PLACEMENT_3D($,#734,#528,#529);
#436=AXIS2_PLACEMENT_3D($,#735,#530,#531);
#437=AXIS2_PLACEMENT_3D($,#736,#532,#533);
#438=AXIS2_PLACEMENT_3D($,#760,#534,#535);
#439=AXIS2_PLACEMENT_3D($,#793,#536,#537);
#440=AXIS2_PLACEMENT_3D($,#826,#538,#539);
#441=AXIS2_PLACEMENT_3D($,#829,#542,#543);
#442=AXIS2_PLACEMENT_3D($,#831,#545,#546);
#443=AXIS2_PLACEMENT_3D($,#833,#548,#549);
#444=AXIS2_PLACEMENT_3D($,#835,#551,#552);
#445=AXIS2_PLACEMENT_3D($,#836,#553,#554);
#446=AXIS2_PLACEMENT_3D($,#837,#555,#556);
#447=AXIS2_PLACEMENT_3D($,#839,#557,#558);
#448=AXIS2_PLACEMENT_3D($,#841,#559,#560);
#449=AXIS2_PLACEMENT_3D($,#842,#561,#562);
#450=AXIS2_PLACEMENT_3D($,#843,#563,#564);
#451=DIRECTION('axis',(0.,0.,1.));
#452=DIRECTION('refdir',(1.,0.,0.));
#453=DIRECTION('center_axis',(-1.,1.22464679914735E-16,0.));
#454=DIRECTION('ref_axis',(0.,0.,-1.));
#455=DIRECTION('center_axis',(1.,-1.22464679914735E-16,0.));
#456=DIRECTION('ref_axis',(-1.22464679914735E-16,-1.,0.));
#457=DIRECTION('center_axis',(1.,0.,2.22044604925031E-16));
#458=DIRECTION('ref_axis',(2.22044604925031E-16,0.,-1.));
#459=DIRECTION('center_axis',(1.,0.,0.));
#460=DIRECTION('ref_axis',(0.,1.,0.));
#461=DIRECTION('center_axis',(-1.,0.,0.));
#462=DIRECTION('ref_axis',(-8.90652217561712E-17,-0.727272727272728,0.686348585024613));
#463=DIRECTION('center_axis',(1.,0.,0.));
#464=DIRECTION('ref_axis',(-8.9065220478116E-17,-0.727272716836615,-0.686348596082989));
#465=DIRECTION('center_axis',(-1.,0.,0.));
#466=DIRECTION('ref_axis',(-1.17325043253327E-16,-0.958031681747043,-0.286662339292994));
#467=DIRECTION('center_axis',(1.,0.,0.));
#468=DIRECTION('ref_axis',(2.82598192818401E-17,0.230758936384888,-0.973010952291142));
#469=DIRECTION('center_axis',(-1.,0.,0.));
#470=DIRECTION('ref_axis',(-2.82598166796646E-17,-0.230758915136513,-0.973010957330399));
#471=DIRECTION('center_axis',(1.,0.,0.));
#472=DIRECTION('ref_axis',(1.17325042319184E-16,0.958031674119183,-0.286662364785467));
#473=DIRECTION('center_axis',(-1.,0.,0.));
#474=DIRECTION('ref_axis',(8.90652217561712E-17,0.727272727272728,-0.686348585024613));
#475=DIRECTION('center_axis',(1.,0.,0.));
#476=DIRECTION('ref_axis',(8.90652236732539E-17,0.727272742926896,0.686348568437051));
#477=DIRECTION('center_axis',(-1.,0.,0.));
#478=DIRECTION('ref_axis',(1.17325042319184E-16,0.958031674119182,0.286662364785468));
#479=DIRECTION('center_axis',(1.,0.,0.));
#480=DIRECTION('ref_axis',(-2.82598178452353E-17,-0.23075892465412,0.973010955073207));
#481=DIRECTION('center_axis',(-1.,0.,0.));
#482=DIRECTION('ref_axis',(2.82598205630125E-17,0.230758946846455,0.97301094981008));
#483=DIRECTION('center_axis',(1.,0.,0.));
#484=DIRECTION('ref_axis',(-1.1732504285298E-16,-0.958031678477961,0.286662350218339));
#485=DIRECTION('center_axis',(1.,-1.22464679914735E-16,0.));
#486=DIRECTION('ref_axis',(8.90652217561712E-17,0.727272727272728,-0.686348585024613));
#487=DIRECTION($,(-1.,1.22464679914735E-16,0.));
#488=DIRECTION($,(-1.,1.22464679914735E-16,0.));
#489=DIRECTION('center_axis',(1.,-1.22464679914735E-16,0.));
#490=DIRECTION('ref_axis',(1.17325042319184E-16,0.958031674119183,-0.286662364785467));
#491=DIRECTION($,(-1.,1.22464679914735E-16,0.));
#492=DIRECTION('center_axis',(1.,-1.22464679914735E-16,0.));
#493=DIRECTION('ref_axis',(-2.82598166796646E-17,-0.230758915136513,-0.973010957330399));
#494=DIRECTION($,(-1.,1.22464679914735E-16,0.));
#495=DIRECTION('center_axis',(1.,-1.22464679914735E-16,0.));
#496=DIRECTION('ref_axis',(2.82598192818401E-17,0.230758936384888,-0.973010952291142));
#497=DIRECTION($,(-1.,1.22464679914735E-16,0.));
#498=DIRECTION('center_axis',(1.,-1.22464679914735E-16,0.));
#499=DIRECTION('ref_axis',(-1.17325043253327E-16,-0.958031681747043,-0.286662339292994));
#500=DIRECTION($,(-1.,1.22464679914735E-16,0.));
#501=DIRECTION('center_axis',(1.,-1.22464679914735E-16,0.));
#502=DIRECTION('ref_axis',(-8.9065220478116E-17,-0.727272716836615,-0.686348596082989));
#503=DIRECTION($,(-1.,1.22464679914735E-16,0.));
#504=DIRECTION('center_axis',(-1.,1.22464679914735E-16,0.));
#505=DIRECTION('ref_axis',(-1.22464679914735E-16,-1.,0.));
#506=DIRECTION('center_axis',(-1.,1.22464679914735E-16,0.));
#507=DIRECTION('ref_axis',(-1.22464679914735E-16,-1.,0.));
#508=DIRECTION('center_axis',(1.,-1.22464679914735E-16,0.));
#509=DIRECTION('ref_axis',(0.,0.,1.));
#510=DIRECTION('center_axis',(1.,-1.22464679914735E-16,0.));
#511=DIRECTION('ref_axis',(-1.22464679914735E-16,-1.,0.));
#512=DIRECTION('center_axis',(8.88178419700125E-17,0.,1.));
#513=DIRECTION('ref_axis',(1.,0.,0.));
#514=DIRECTION('center_axis',(-1.,1.22464679914735E-16,0.));
#515=DIRECTION('ref_axis',(-1.22464679914735E-16,-1.,0.));
#516=DIRECTION('center_axis',(-1.,1.22464679914735E-16,0.));
#517=DIRECTION('ref_axis',(-1.22464679914735E-16,-1.,0.));
#518=DIRECTION('center_axis',(-1.,1.22464679914735E-16,0.));
#519=DIRECTION('ref_axis',(-1.22464679914735E-16,-1.,0.));
#520=DIRECTION('center_axis',(-1.,1.22464679914735E-16,0.));
#521=DIRECTION('ref_axis',(-1.22464679914735E-16,-1.,0.));
#522=DIRECTION('center_axis',(-1.,1.22464679914735E-16,0.));
#523=DIRECTION('ref_axis',(-1.22464679914735E-16,-1.,0.));
#524=DIRECTION('center_axis',(-1.,1.22464679914735E-16,0.));
#525=DIRECTION('ref_axis',(-1.22464679914735E-16,-1.,0.));
#526=DIRECTION('center_axis',(1.,-1.22464679914735E-16,0.));
#527=DIRECTION('ref_axis',(-1.22464679914735E-16,-1.,0.));
#528=DIRECTION('center_axis',(1.,-1.22464679914735E-16,0.));
#529=DIRECTION('ref_axis',(-1.22464679914735E-16,-1.,0.));
#530=DIRECTION('center_axis',(1.,-1.22464679914735E-16,0.));
#531=DIRECTION('ref_axis',(-1.22464679914735E-16,-1.,0.));
#532=DIRECTION('center_axis',(1.,-1.22464679914735E-16,0.));
#533=DIRECTION('ref_axis',(-1.22464679914735E-16,-1.,0.));
#534=DIRECTION('center_axis',(1.,-1.22464679914735E-16,0.));
#535=DIRECTION('ref_axis',(-1.22464679914735E-16,-1.,0.));
#536=DIRECTION('center_axis',(1.,-1.22464679914735E-16,0.));
#537=DIRECTION('ref_axis',(-1.22464679914735E-16,-1.,0.));
#538=DIRECTION('center_axis',(1.,-1.22464679914735E-16,0.));
#539=DIRECTION('ref_axis',(-2.82598178452353E-17,-0.23075892465412,0.973010955073207));
#540=DIRECTION($,(-1.,1.22464679914735E-16,0.));
#541=DIRECTION($,(-1.,1.22464679914735E-16,0.));
#542=DIRECTION('center_axis',(1.,-1.22464679914735E-16,0.));
#543=DIRECTION('ref_axis',(8.90652236732539E-17,0.727272742926896,0.686348568437051));
#544=DIRECTION($,(-1.,1.22464679914735E-16,0.));
#545=DIRECTION('center_axis',(1.,-1.22464679914735E-16,0.));
#546=DIRECTION('ref_axis',(2.82598205630125E-17,0.230758946846455,0.97301094981008));
#547=DIRECTION($,(-1.,1.22464679914735E-16,0.));
#548=DIRECTION('center_axis',(1.,-1.22464679914735E-16,0.));
#549=DIRECTION('ref_axis',(-1.1732504285298E-16,-0.958031678477961,0.286662350218339));
#550=DIRECTION($,(-1.,1.22464679914735E-16,0.));
#551=DIRECTION('center_axis',(1.,-1.22464679914735E-16,0.));
#552=DIRECTION('ref_axis',(-8.90652217561712E-17,-0.727272727272728,0.686348585024613));
#553=DIRECTION('center_axis',(1.,-1.22464679914735E-16,0.));
#554=DIRECTION('ref_axis',(1.17325042319184E-16,0.958031674119182,0.286662364785468));
#555=DIRECTION('center_axis',(1.,0.,2.22044604925031E-16));
#556=DIRECTION('ref_axis',(-2.22044604925031E-16,0.,1.));
#557=DIRECTION('center_axis',(-1.,0.,-2.22044604925031E-16));
#558=DIRECTION('ref_axis',(-2.22044604925031E-16,0.,1.));
#559=DIRECTION('center_axis',(1.,0.,2.22044604925031E-16));
#560=DIRECTION('ref_axis',(-2.22044604925031E-16,0.,1.));
#561=DIRECTION('center_axis',(1.,0.,2.22044604925031E-16));
#562=DIRECTION('ref_axis',(2.22044604925031E-16,0.,-1.));
#563=DIRECTION('center_axis',(-1.,0.,-2.22044604925031E-16));
#564=DIRECTION('ref_axis',(0.,0.,1.));
#565=CARTESIAN_POINT('',(0.,0.,0.));
#566=CARTESIAN_POINT('Origin',(-3.77191214137385E-16,-3.08,3.08));
#567=CARTESIAN_POINT('',(3.42901103761259E-16,2.8,3.42889779070266E-16));
#568=CARTESIAN_POINT('Origin',(0.,0.,0.));
#569=CARTESIAN_POINT('',(4.44089209850063E-16,7.34788079488412E-16,-1.5));
#570=CARTESIAN_POINT('Origin',(0.,7.34788079488412E-16,1.33226762955019E-15));
#571=CARTESIAN_POINT('Origin',(1.13,-2.77555756156289E-16,6.66133814775094E-16));
#572=CARTESIAN_POINT('',(1.13,0.356363636363636,1.16212605604546));
#573=CARTESIAN_POINT('',(1.13,0.828248866617569,0.889682982960749));
#574=CARTESIAN_POINT('Origin',(1.13,0.56,0.969948452238572));
#575=CARTESIAN_POINT('',(1.13,-0.356363631249941,1.16212605062686));
#576=CARTESIAN_POINT('Origin',(1.13,-5.26963146922456E-16,1.49843686270752));
#577=CARTESIAN_POINT('',(1.13,-0.828248870889173,0.889682997236533));
#578=CARTESIAN_POINT('Origin',(1.13,-0.56,0.969948452238571));
#579=CARTESIAN_POINT('',(1.13,-1.18461251024318,0.272443064731102));
#580=CARTESIAN_POINT('Origin',(1.13,-1.29768438907177,0.749218431353761));
#581=CARTESIAN_POINT('',(1.13,-1.18461249623822,-0.272443068052512));
#582=CARTESIAN_POINT('Origin',(1.13,-1.12,-3.33066907387547E-16));
#583=CARTESIAN_POINT('',(1.13,-0.828248868753371,-0.889682990098641));
#584=CARTESIAN_POINT('Origin',(1.13,-1.29768438907177,-0.749218431353762));
#585=CARTESIAN_POINT('',(1.13,-0.356363636363635,-1.16212605604546));
#586=CARTESIAN_POINT('Origin',(1.13,-0.56,-0.969948452238571));
#587=CARTESIAN_POINT('',(1.13,0.35636364403418,-1.16212606417337));
#588=CARTESIAN_POINT('Origin',(1.13,1.30490484370905E-15,-1.49843686270752));
#589=CARTESIAN_POINT('',(1.13,0.828248868753372,-0.88968299009864));
#590=CARTESIAN_POINT('Origin',(1.13,0.560000000000001,-0.969948452238571));
#591=CARTESIAN_POINT('',(1.13,1.18461251599125,-0.272443063367889));
#592=CARTESIAN_POINT('Origin',(1.13,1.29768438907177,-0.749218431353761));
#593=CARTESIAN_POINT('',(1.13,1.18461250511701,0.272443065946823));
#594=CARTESIAN_POINT('Origin',(1.13,1.12,5.55111512312578E-16));
#595=CARTESIAN_POINT('Origin',(1.13,1.29768438907177,0.749218431353763));
#596=CARTESIAN_POINT('Origin',(0.954675701275806,-0.56,-0.969948452238571));
#597=CARTESIAN_POINT('',(2.29350066788172,-0.828248868753372,-0.889682990098641));
#598=CARTESIAN_POINT($,(2.29350066788172,-0.828248868753372,-0.889682990098641));
#599=CARTESIAN_POINT('',(2.4,-0.7,-1.21243556529821));
#600=CARTESIAN_POINT('Ctrl Pts',(2.4,-0.700000000000001,-1.21243556529821));
#601=CARTESIAN_POINT('Ctrl Pts',(2.4,-0.736708004776086,-1.19124218885933));
#602=CARTESIAN_POINT('Ctrl Pts',(2.39533282527292,-0.769765875912875,-1.16039434536563));
#603=CARTESIAN_POINT('Ctrl Pts',(2.37716419055874,-0.817460220715264,-1.08820917489685));
#604=CARTESIAN_POINT('Ctrl Pts',(2.36361637622483,-0.832102383647212,-1.04688728247498));
#605=CARTESIAN_POINT('Ctrl Pts',(2.33284142656683,-0.842754837044745,-0.968729326850515));
#606=CARTESIAN_POINT('Ctrl Pts',(2.31403611330576,-0.839621687902536,-0.927691191758048));
#607=CARTESIAN_POINT('Ctrl Pts',(2.29350066788172,-0.828248868753371,-0.88968299009864));
#608=CARTESIAN_POINT('',(2.29350066788172,-0.356363636363635,-1.16212605604546));
#609=CARTESIAN_POINT('Ctrl Pts',(2.29350066788172,-0.356363636363634,-1.16212605604546));
#610=CARTESIAN_POINT('Ctrl Pts',(2.31403611330576,-0.383593294978262,-1.19097930717099));
#611=CARTESIAN_POINT('Ctrl Pts',(2.33284142656683,-0.417566787921172,-1.21421176146822));
#612=CARTESIAN_POINT('Ctrl Pts',(2.36361637622483,-0.490579789698586,-1.24406544402556));
#613=CARTESIAN_POINT('Ctrl Pts',(2.37716419055874,-0.533686679734343,-1.25204590517108));
#614=CARTESIAN_POINT('Ctrl Pts',(2.39533282527292,-0.620048043538013,-1.24683397618974));
#615=CARTESIAN_POINT('Ctrl Pts',(2.4,-0.663291995223914,-1.2336289417371));
#616=CARTESIAN_POINT('Ctrl Pts',(2.4,-0.700000000000001,-1.21243556529821));
#617=CARTESIAN_POINT($,(2.29350066788172,-0.356363636363635,-1.16212605604546));
#618=CARTESIAN_POINT('Origin',(0.834452429749341,-1.29768438907177,-0.749218431353762));
#619=CARTESIAN_POINT('',(2.29350066315845,-1.18461249623822,-0.272443068052512));
#620=CARTESIAN_POINT($,(2.29350066315845,-1.18461249623822,-0.272443068052512));
#621=CARTESIAN_POINT('Ctrl Pts',(2.29350066788172,-0.82824886875337,-0.88968299009864));
#622=CARTESIAN_POINT('Ctrl Pts',(2.27410766179623,-0.817508748614033,-0.853789281885388));
#623=CARTESIAN_POINT('Ctrl Pts',(2.25606900828201,-0.810999795680392,-0.816698603185646));
#624=CARTESIAN_POINT('Ctrl Pts',(2.22201267114241,-0.80590340818236,-0.737039005850209));
#625=CARTESIAN_POINT('Ctrl Pts',(2.20446250669945,-0.808991844250849,-0.688411875267197));
#626=CARTESIAN_POINT('Ctrl Pts',(2.18031258069292,-0.830818357859571,-0.592521406390354));
#627=CARTESIAN_POINT('Ctrl Pts',(2.17393091727945,-0.849656208564046,-0.545226003215781));
#628=CARTESIAN_POINT('Ctrl Pts',(2.17393091727945,-0.897007673870744,-0.463210859491745));
#629=CARTESIAN_POINT('Ctrl Pts',(2.18031258069292,-0.928547769149914,-0.423249100641684));
#630=CARTESIAN_POINT('Ctrl Pts',(2.20446250669945,-1.0006780943737,-0.356401550942062));
#631=CARTESIAN_POINT('Ctrl Pts',(2.22201267114241,-1.04124620673749,-0.32941332155728));
#632=CARTESIAN_POINT('Ctrl Pts',(2.25606900702584,-1.11278163279565,-0.29399712523671));
#633=CARTESIAN_POINT('Ctrl Pts',(2.27410765886356,-1.14815757615147,-0.281088705253149));
#634=CARTESIAN_POINT('Ctrl Pts',(2.29350066315845,-1.18461249623822,-0.272443068052513));
#635=CARTESIAN_POINT('Origin',(0.954675696316383,-1.12,-3.33066907387547E-16));
#636=CARTESIAN_POINT('',(2.2935006706087,-1.18461251024318,0.272443064731102));
#637=CARTESIAN_POINT($,(2.2935006706087,-1.18461251024318,0.272443064731102));
#638=CARTESIAN_POINT('',(2.4,-1.4,-3.42889779070266E-16));
#639=CARTESIAN_POINT('Ctrl Pts',(2.4,-1.4,-6.6266436782314E-16));
#640=CARTESIAN_POINT('Ctrl Pts',(2.4,-1.4,0.0423867528777742));
#641=CARTESIAN_POINT('Ctrl Pts',(2.39533282527292,-1.38981391945089,0.0864396308241134));
#642=CARTESIAN_POINT('Ctrl Pts',(2.37716419055874,-1.35114690044961,0.163836730274227));
#643=CARTESIAN_POINT('Ctrl Pts',(2.36361637622483,-1.3226821733458,0.197178161550578));
#644=CARTESIAN_POINT('Ctrl Pts',(2.33284142724711,-1.2603216263444,0.245482433549936));
#645=CARTESIAN_POINT('Ctrl Pts',(2.31403611497617,-1.22321498617084,0.263288113865496));
#646=CARTESIAN_POINT('Ctrl Pts',(2.2935006706087,-1.18461251024318,0.272443064731101));
#647=CARTESIAN_POINT('Ctrl Pts',(2.29350066315845,-1.18461249623822,-0.272443068052513));
#648=CARTESIAN_POINT('Ctrl Pts',(2.31403611041251,-1.22321497718228,-0.263288118093196));
#649=CARTESIAN_POINT('Ctrl Pts',(2.33284142538854,-1.26032162257831,-0.245482436467139));
#650=CARTESIAN_POINT('Ctrl Pts',(2.36361637622483,-1.3226821733458,-0.19717816155058));
#651=CARTESIAN_POINT('Ctrl Pts',(2.37716419055874,-1.35114690044961,-0.163836730274228));
#652=CARTESIAN_POINT('Ctrl Pts',(2.39533282527292,-1.38981391945089,-0.0864396308241148));
#653=CARTESIAN_POINT('Ctrl Pts',(2.4,-1.4,-0.0423867528777755));
#654=CARTESIAN_POINT('Ctrl Pts',(2.4,-1.4,-6.6266436782314E-16));
#655=CARTESIAN_POINT('Origin',(0.834452429556514,-1.29768438907177,0.749218431353761));
#656=CARTESIAN_POINT('',(2.29350067173825,-0.828248870889173,0.889682997236533));
#657=CARTESIAN_POINT($,(2.29350067173825,-0.828248870889173,0.889682997236533));
#658=CARTESIAN_POINT('Ctrl Pts',(2.2935006706087,-1.18461251024318,0.272443064731101));
#659=CARTESIAN_POINT('Ctrl Pts',(2.27410766348941,-1.14815758521676,0.281088701972159));
#660=CARTESIAN_POINT('Ctrl Pts',(2.25606900900726,-1.11278163695762,0.293997123176179));
#661=CARTESIAN_POINT('Ctrl Pts',(2.22201267114241,-1.04124620673749,0.329413321557279));
#662=CARTESIAN_POINT('Ctrl Pts',(2.20446250669945,-1.0006780943737,0.356401550942061));
#663=CARTESIAN_POINT('Ctrl Pts',(2.18031258069292,-0.928547769149914,0.423249100641682));
#664=CARTESIAN_POINT('Ctrl Pts',(2.17393091727945,-0.897007673870744,0.463210859491743));
#665=CARTESIAN_POINT('Ctrl Pts',(2.17393091727945,-0.849656208564046,0.545226003215779));
#666=CARTESIAN_POINT('Ctrl Pts',(2.18031258069292,-0.830818357859571,0.592521406390352));
#667=CARTESIAN_POINT('Ctrl Pts',(2.20446250669944,-0.808991844250849,0.688411875267195));
#668=CARTESIAN_POINT('Ctrl Pts',(2.22201267114241,-0.80590340818236,0.737039005850207));
#669=CARTESIAN_POINT('Ctrl Pts',(2.25606900930766,-0.810999795833877,0.816698605584705));
#670=CARTESIAN_POINT('Ctrl Pts',(2.27410766419075,-0.817508749489475,0.853789286798425));
#671=CARTESIAN_POINT('Ctrl Pts',(2.29350067173825,-0.828248870889172,0.889682997236532));
#672=CARTESIAN_POINT('Origin',(0.95467569722645,-0.56,0.969948452238571));
#673=CARTESIAN_POINT('',(2.29350066402519,-0.356363631249941,1.16212605062686));
#674=CARTESIAN_POINT($,(2.29350066402519,-0.356363631249941,1.16212605062686));
#675=CARTESIAN_POINT('',(2.4,-0.700000000000001,1.21243556529821));
#676=CARTESIAN_POINT('Ctrl Pts',(2.4,-0.7,1.21243556529821));
#677=CARTESIAN_POINT('Ctrl Pts',(2.4,-0.663291995223914,1.2336289417371));
#678=CARTESIAN_POINT('Ctrl Pts',(2.39533282527292,-0.620048043538012,1.24683397618974));
#679=CARTESIAN_POINT('Ctrl Pts',(2.37716419055874,-0.533686679734343,1.25204590517108));
#680=CARTESIAN_POINT('Ctrl Pts',(2.36361637622483,-0.490579789698586,1.24406544402556));
#681=CARTESIAN_POINT('Ctrl Pts',(2.33284142560476,-0.417566785638692,1.21421176053496));
#682=CARTESIAN_POINT('Ctrl Pts',(2.31403611094343,-0.383593290756628,1.19097930423574));
#683=CARTESIAN_POINT('Ctrl Pts',(2.29350066402519,-0.356363631249941,1.16212605062686));
#684=CARTESIAN_POINT('Ctrl Pts',(2.29350067173825,-0.828248870889172,0.889682997236532));
#685=CARTESIAN_POINT('Ctrl Pts',(2.31403611566808,-0.839621688333722,0.927691196881718));
#686=CARTESIAN_POINT('Ctrl Pts',(2.33284142752889,-0.842754836711736,0.968729329293833));
#687=CARTESIAN_POINT('Ctrl Pts',(2.36361637622483,-0.832102383647212,1.04688728247498));
#688=CARTESIAN_POINT('Ctrl Pts',(2.37716419055874,-0.817460220715264,1.08820917489685));
#689=CARTESIAN_POINT('Ctrl Pts',(2.39533282527292,-0.769765875912875,1.16039434536563));
#690=CARTESIAN_POINT('Ctrl Pts',(2.4,-0.736708004776087,1.19124218885933));
#691=CARTESIAN_POINT('Ctrl Pts',(2.4,-0.7,1.21243556529821));
#692=CARTESIAN_POINT('Origin',(0.834452429749341,-4.90769008332131E-16,
1.49843686270752));
#693=CARTESIAN_POINT('',(2.29350066788172,0.356363636363636,1.16212605604546));
#694=CARTESIAN_POINT($,(2.29350066788172,0.356363636363636,1.16212605604546));
#695=CARTESIAN_POINT('Ctrl Pts',(2.29350066402519,-0.356363631249943,1.16212605062686));
#696=CARTESIAN_POINT('Ctrl Pts',(2.27410765940171,-0.33064882946751,1.1348779818438));
#697=CARTESIAN_POINT('Ctrl Pts',(2.25606900725635,-0.301781837752937,1.11069572578358));
#698=CARTESIAN_POINT('Ctrl Pts',(2.2220126711424,-0.235342798555129,1.06645232740748));
#699=CARTESIAN_POINT('Ctrl Pts',(2.20446250669944,-0.191686250122852,1.04481342620925));
#700=CARTESIAN_POINT('Ctrl Pts',(2.18031258069292,-0.0977294112903445,1.01577050703203));
#701=CARTESIAN_POINT('Ctrl Pts',(2.17393091727945,-0.0473514653066992,1.00843686270752));
#702=CARTESIAN_POINT('Ctrl Pts',(2.17393091727945,0.0473514653066972,1.00843686270752));
#703=CARTESIAN_POINT('Ctrl Pts',(2.18031258069292,0.0977294112903426,1.01577050703203));
#704=CARTESIAN_POINT('Ctrl Pts',(2.20446250669944,0.191686250122851,1.04481342620925));
#705=CARTESIAN_POINT('Ctrl Pts',(2.2220126711424,0.235342798555127,1.06645232740748));
#706=CARTESIAN_POINT('Ctrl Pts',(2.25606900828201,0.301781839753839,1.11069572711603));
#707=CARTESIAN_POINT('Ctrl Pts',(2.27410766179623,0.330648833284602,1.13487798505847));
#708=CARTESIAN_POINT('Ctrl Pts',(2.29350066788172,0.356363636363636,1.16212605604546));
#709=CARTESIAN_POINT('Origin',(1.6705393447622,-2.04582066141275E-16,0.));
#710=CARTESIAN_POINT('',(1.59098985215448,1.48049716078576E-16,2.8));
#711=CARTESIAN_POINT('Origin',(1.59098985215448,-1.9484006299169E-16,0.));
#712=CARTESIAN_POINT('Origin',(1.59098985215448,-1.9484006299169E-16,0.));
#713=CARTESIAN_POINT('',(1.82774348745178,-2.66949152542373,-6.53815256701777E-16));
#714=CARTESIAN_POINT('Origin',(1.82774348745178,-2.23834021157024E-16,0.));
#715=CARTESIAN_POINT('Origin',(-2.4,2.93915231795365E-16,0.));
#716=CARTESIAN_POINT('',(2.4,0.699999999999999,1.21243556529821));
#717=CARTESIAN_POINT('Origin',(2.4,-2.93915231795365E-16,0.));
#718=CARTESIAN_POINT('',(2.4,1.4,6.93889390390723E-16));
#719=CARTESIAN_POINT('Origin',(2.4,-2.93915231795365E-16,0.));
#720=CARTESIAN_POINT('',(2.4,0.700000000000001,-1.21243556529821));
#721=CARTESIAN_POINT('Origin',(2.4,-2.93915231795365E-16,0.));
#722=CARTESIAN_POINT('Origin',(2.4,-2.93915231795365E-16,0.));
#723=CARTESIAN_POINT('Origin',(2.4,-2.93915231795365E-16,0.));
#724=CARTESIAN_POINT('Origin',(2.4,-2.93915231795365E-16,0.));
#725=CARTESIAN_POINT('Origin',(2.5917096231345,-3.17392889429105E-16,0.));
#726=CARTESIAN_POINT('Ctrl Pts',(2.29350066788172,0.356363636363634,1.16212605604546));
#727=CARTESIAN_POINT('Ctrl Pts',(2.31403611330576,0.383593294978261,1.19097930717099));
#728=CARTESIAN_POINT('Ctrl Pts',(2.33284142656683,0.417566787921171,1.21421176146822));
#729=CARTESIAN_POINT('Ctrl Pts',(2.36361637622483,0.490579789698585,1.24406544402556));
#730=CARTESIAN_POINT('Ctrl Pts',(2.37716419055874,0.533686679734342,1.25204590517108));
#731=CARTESIAN_POINT('Ctrl Pts',(2.39533282527292,0.620048043538012,1.24683397618975));
#732=CARTESIAN_POINT('Ctrl Pts',(2.4,0.663291995223913,1.2336289417371));
#733=CARTESIAN_POINT('Ctrl Pts',(2.4,0.7,1.21243556529821));
#734=CARTESIAN_POINT('Origin',(2.5917096231345,-3.17392889429105E-16,0.));
#735=CARTESIAN_POINT('Origin',(2.5917096231345,-3.17392889429105E-16,0.));
#736=CARTESIAN_POINT('Origin',(2.5917096231345,-3.17392889429105E-16,0.));
#737=CARTESIAN_POINT('',(2.29350067366652,0.35636364403418,-1.16212606417337));
#738=CARTESIAN_POINT('Ctrl Pts',(2.4,0.700000000000001,-1.21243556529821));
#739=CARTESIAN_POINT('Ctrl Pts',(2.4,0.663291995223915,-1.2336289417371));
#740=CARTESIAN_POINT('Ctrl Pts',(2.39533282527292,0.620048043538013,-1.24683397618974));
#741=CARTESIAN_POINT('Ctrl Pts',(2.37716419055874,0.533686679734344,-1.25204590517108));
#742=CARTESIAN_POINT('Ctrl Pts',(2.36361637622483,0.490579789698586,-1.24406544402556));
#743=CARTESIAN_POINT('Ctrl Pts',(2.33284142800992,0.417566791344894,-1.21421176286812));
#744=CARTESIAN_POINT('Ctrl Pts',(2.31403611684925,0.383593301310718,-1.19097931157387));
#745=CARTESIAN_POINT('Ctrl Pts',(2.29350067366652,0.356363644034181,-1.16212606417337));
#746=CARTESIAN_POINT('Ctrl Pts',(2.29350067366652,0.356363644034183,-1.16212606417337));
#747=CARTESIAN_POINT('Ctrl Pts',(2.27410766538801,0.330648839010246,-1.13487798988048));
#748=CARTESIAN_POINT('Ctrl Pts',(2.25606900982049,0.301781842755198,-1.11069572911471));
#749=CARTESIAN_POINT('Ctrl Pts',(2.2220126711424,0.235342798555129,-1.06645232740748));
#750=CARTESIAN_POINT('Ctrl Pts',(2.20446250669944,0.191686250122852,-1.04481342620925));
#751=CARTESIAN_POINT('Ctrl Pts',(2.18031258069292,0.0977294112903442,-1.01577050703203));
#752=CARTESIAN_POINT('Ctrl Pts',(2.17393091727945,0.0473514653066988,-1.00843686270752));
#753=CARTESIAN_POINT('Ctrl Pts',(2.17393091727945,-0.0473514653066977,-1.00843686270752));
#754=CARTESIAN_POINT('Ctrl Pts',(2.18031258069292,-0.0977294112903433,-1.01577050703203));
#755=CARTESIAN_POINT('Ctrl Pts',(2.20446250669944,-0.191686250122851,-1.04481342620925));
#756=CARTESIAN_POINT('Ctrl Pts',(2.2220126711424,-0.235342798555127,-1.06645232740748));
#757=CARTESIAN_POINT('Ctrl Pts',(2.25606900828201,-0.301781839753839,-1.11069572711603));
#758=CARTESIAN_POINT('Ctrl Pts',(2.27410766179623,-0.330648833284601,-1.13487798505847));
#759=CARTESIAN_POINT('Ctrl Pts',(2.29350066788172,-0.356363636363635,-1.16212605604546));
#760=CARTESIAN_POINT('Origin',(2.5917096231345,-3.17392889429105E-16,0.));
#761=CARTESIAN_POINT('',(2.29350066788172,0.828248868753372,-0.88968299009864));
#762=CARTESIAN_POINT('Ctrl Pts',(2.29350066788172,0.828248868753371,-0.889682990098639));
#763=CARTESIAN_POINT('Ctrl Pts',(2.31403611330576,0.839621687902536,-0.927691191758047));
#764=CARTESIAN_POINT('Ctrl Pts',(2.33284142656683,0.842754837044746,-0.968729326850514));
#765=CARTESIAN_POINT('Ctrl Pts',(2.36361637622483,0.832102383647213,-1.04688728247498));
#766=CARTESIAN_POINT('Ctrl Pts',(2.37716419055874,0.817460220715264,-1.08820917489685));
#767=CARTESIAN_POINT('Ctrl Pts',(2.39533282527292,0.769765875912875,-1.16039434536563));
#768=CARTESIAN_POINT('Ctrl Pts',(2.4,0.736708004776087,-1.19124218885933));
#769=CARTESIAN_POINT('Ctrl Pts',(2.4,0.700000000000001,-1.21243556529821));
#770=CARTESIAN_POINT('',(2.29350067366652,1.18461251599125,-0.272443063367889));
#771=CARTESIAN_POINT('Ctrl Pts',(2.4,1.4,4.26741975090295E-16));
#772=CARTESIAN_POINT('Ctrl Pts',(2.4,1.4,-0.0423867528777744));
#773=CARTESIAN_POINT('Ctrl Pts',(2.39533282527292,1.38981391945089,-0.0864396308241138));
#774=CARTESIAN_POINT('Ctrl Pts',(2.37716419055874,1.35114690044961,-0.163836730274227));
#775=CARTESIAN_POINT('Ctrl Pts',(2.36361637622483,1.3226821733458,-0.197178161550578));
#776=CARTESIAN_POINT('Ctrl Pts',(2.33284142800992,1.26032162789012,-0.245482432352626));
#777=CARTESIAN_POINT('Ctrl Pts',(2.31403611684924,1.22321498986003,-0.263288112130315));
#778=CARTESIAN_POINT('Ctrl Pts',(2.29350067366652,1.18461251599125,-0.27244306336789));
#779=CARTESIAN_POINT('Ctrl Pts',(2.29350067366652,1.18461251599125,-0.27244306336789));
#780=CARTESIAN_POINT('Ctrl Pts',(2.27410766538801,1.14815758893744,-0.281088700625539));
#781=CARTESIAN_POINT('Ctrl Pts',(2.25606900982049,1.11278163866581,-0.293997122330473));
#782=CARTESIAN_POINT('Ctrl Pts',(2.22201267114241,1.04124620673749,-0.329413321557278));
#783=CARTESIAN_POINT('Ctrl Pts',(2.20446250669944,1.0006780943737,-0.356401550942061));
#784=CARTESIAN_POINT('Ctrl Pts',(2.18031258069292,0.928547769149914,-0.423249100641682));
#785=CARTESIAN_POINT('Ctrl Pts',(2.17393091727945,0.897007673870744,-0.463210859491743));
#786=CARTESIAN_POINT('Ctrl Pts',(2.17393091727945,0.849656208564046,-0.545226003215779));
#787=CARTESIAN_POINT('Ctrl Pts',(2.18031258069292,0.830818357859571,-0.592521406390352));
#788=CARTESIAN_POINT('Ctrl Pts',(2.20446250669944,0.808991844250849,-0.688411875267195));
#789=CARTESIAN_POINT('Ctrl Pts',(2.22201267114241,0.805903408182359,-0.737039005850207));
#790=CARTESIAN_POINT('Ctrl Pts',(2.25606900828201,0.810999795680392,-0.816698603185645));
#791=CARTESIAN_POINT('Ctrl Pts',(2.27410766179623,0.817508748614033,-0.853789281885387));
#792=CARTESIAN_POINT('Ctrl Pts',(2.29350066788172,0.82824886875337,-0.889682990098639));
#793=CARTESIAN_POINT('Origin',(2.5917096231345,-3.17392889429105E-16,0.));
#794=CARTESIAN_POINT('',(2.29350066788172,1.18461250511701,0.272443065946823));
#795=CARTESIAN_POINT('Ctrl Pts',(2.29350066788172,1.18461250511701,0.272443065946823));
#796=CARTESIAN_POINT('Ctrl Pts',(2.31403611330576,1.2232149828808,0.263288115412941));
#797=CARTESIAN_POINT('Ctrl Pts',(2.33284142656683,1.26032162496592,0.245482434617707));
#798=CARTESIAN_POINT('Ctrl Pts',(2.36361637622483,1.3226821733458,0.197178161550579));
#799=CARTESIAN_POINT('Ctrl Pts',(2.37716419055874,1.35114690044961,0.163836730274228));
#800=CARTESIAN_POINT('Ctrl Pts',(2.39533282527292,1.38981391945089,0.0864396308241145));
#801=CARTESIAN_POINT('Ctrl Pts',(2.4,1.4,0.0423867528777752));
#802=CARTESIAN_POINT('Ctrl Pts',(2.4,1.4,4.26741975090295E-16));
#803=CARTESIAN_POINT('',(2.29350066402519,0.828248866617569,0.889682982960749));
#804=CARTESIAN_POINT('Ctrl Pts',(2.4,0.7,1.21243556529821));
#805=CARTESIAN_POINT('Ctrl Pts',(2.4,0.736708004776086,1.19124218885933));
#806=CARTESIAN_POINT('Ctrl Pts',(2.39533282527292,0.769765875912874,1.16039434536563));
#807=CARTESIAN_POINT('Ctrl Pts',(2.37716419055874,0.817460220715263,1.08820917489685));
#808=CARTESIAN_POINT('Ctrl Pts',(2.36361637622483,0.832102383647212,1.04688728247498));
#809=CARTESIAN_POINT('Ctrl Pts',(2.33284142560476,0.842754837377754,0.968729324407197));
#810=CARTESIAN_POINT('Ctrl Pts',(2.31403611094343,0.839621687471349,0.927691186634377));
#811=CARTESIAN_POINT('Ctrl Pts',(2.29350066402519,0.828248866617569,0.889682982960747));
#812=CARTESIAN_POINT('Ctrl Pts',(2.29350066402519,0.828248866617569,0.889682982960748));
#813=CARTESIAN_POINT('Ctrl Pts',(2.27410765940171,0.817508747738591,0.853789276972351));
#814=CARTESIAN_POINT('Ctrl Pts',(2.25606900725635,0.810999795526907,0.816698600786587));
#815=CARTESIAN_POINT('Ctrl Pts',(2.22201267114241,0.805903408182359,0.737039005850209));
#816=CARTESIAN_POINT('Ctrl Pts',(2.20446250669945,0.808991844250849,0.688411875267197));
#817=CARTESIAN_POINT('Ctrl Pts',(2.18031258069292,0.830818357859571,0.592521406390354));
#818=CARTESIAN_POINT('Ctrl Pts',(2.17393091727945,0.849656208564046,0.545226003215781));
#819=CARTESIAN_POINT('Ctrl Pts',(2.17393091727945,0.897007673870744,0.463210859491745));
#820=CARTESIAN_POINT('Ctrl Pts',(2.18031258069292,0.928547769149914,0.423249100641684));
#821=CARTESIAN_POINT('Ctrl Pts',(2.20446250669945,1.0006780943737,0.356401550942063));
#822=CARTESIAN_POINT('Ctrl Pts',(2.22201267114241,1.04124620673749,0.32941332155728));
#823=CARTESIAN_POINT('Ctrl Pts',(2.25606900828201,1.11278163543423,0.293997123930387));
#824=CARTESIAN_POINT('Ctrl Pts',(2.27410766179623,1.14815758189864,0.281088703173086));
#825=CARTESIAN_POINT('Ctrl Pts',(2.29350066788172,1.18461250511701,0.272443065946823));
#826=CARTESIAN_POINT('Origin',(0.834452429460102,1.29768438907177,-0.749218431353761));
#827=CARTESIAN_POINT($,(2.29350066788172,0.828248868753372,-0.88968299009864));
#828=CARTESIAN_POINT($,(2.29350067366652,1.18461251599125,-0.272443063367889));
#829=CARTESIAN_POINT('Origin',(0.834452429460102,1.3410989823348E-15,-1.49843686270752));
#830=CARTESIAN_POINT($,(2.29350067366652,0.35636364403418,-1.16212606417337));
#831=CARTESIAN_POINT('Origin',(0.954675701275806,1.12,5.55111512312578E-16));
#832=CARTESIAN_POINT($,(2.29350066788172,1.18461250511701,0.272443065946823));
#833=CARTESIAN_POINT('Origin',(0.834452429749342,1.29768438907177,0.749218431353763));
#834=CARTESIAN_POINT($,(2.29350066402519,0.828248866617569,0.889682982960749));
#835=CARTESIAN_POINT('Origin',(0.95467569722645,0.56,0.969948452238572));
#836=CARTESIAN_POINT('Origin',(0.954675701275806,0.560000000000001,-0.969948452238571));
#837=CARTESIAN_POINT('Origin',(-24.862,7.34788079488412E-16,3.06421554796543E-17));
#838=CARTESIAN_POINT('',(-24.724,5.51091059616309E-16,-1.5));
#839=CARTESIAN_POINT('Origin',(-24.724,7.34788079488412E-16,6.12843109593086E-17));
#840=CARTESIAN_POINT('',(-25.,8.84684847704048E-16,-1.224));
#841=CARTESIAN_POINT('Origin',(-25.,7.34788079488412E-16,0.));
#842=CARTESIAN_POINT('Origin',(-3.,7.34788079488412E-16,6.66133814775094E-16));
#843=CARTESIAN_POINT('Origin',(-25.,7.34788079488412E-16,0.));
#844=UNCERTAINTY_MEASURE_WITH_UNIT(LENGTH_MEASURE(0.01),#848,
'DISTANCE_ACCURACY_VALUE',
'Maximum model space distance between geometric entities at asserted c
onnectivities');
#845=UNCERTAINTY_MEASURE_WITH_UNIT(LENGTH_MEASURE(1.E-6),#848,
'DISTANCE_ACCURACY_VALUE',
'Maximum model space distance between geometric entities at asserted c
onnectivities');
#846=(
GEOMETRIC_REPRESENTATION_CONTEXT(3)
GLOBAL_UNCERTAINTY_ASSIGNED_CONTEXT((#844))
GLOBAL_UNIT_ASSIGNED_CONTEXT((#848,#850,#849))
REPRESENTATION_CONTEXT('','3D')
);
#847=(
GEOMETRIC_REPRESENTATION_CONTEXT(3)
GLOBAL_UNCERTAINTY_ASSIGNED_CONTEXT((#845))
GLOBAL_UNIT_ASSIGNED_CONTEXT((#848,#12,#849))
REPRESENTATION_CONTEXT('','3D')
);
#848=(
LENGTH_UNIT()
NAMED_UNIT(*)
SI_UNIT(.MILLI.,.METRE.)
);
#849=(
NAMED_UNIT(*)
SI_UNIT($,.STERADIAN.)
SOLID_ANGLE_UNIT()
);
#850=(
NAMED_UNIT(*)
PLANE_ANGLE_UNIT()
SI_UNIT($,.RADIAN.)
);
#851=SHAPE_DEFINITION_REPRESENTATION(#852,#853);
#852=PRODUCT_DEFINITION_SHAPE('',$,#855);
#853=SHAPE_REPRESENTATION('',(#400),#846);
#854=PRODUCT_DEFINITION_CONTEXT('part definition',#859,'design');
#855=PRODUCT_DEFINITION('Product','Product',#856,#854);
#856=PRODUCT_DEFINITION_FORMATION('',$,#861);
#857=PRODUCT_RELATED_PRODUCT_CATEGORY('Product','Product',(#861));
#858=APPLICATION_PROTOCOL_DEFINITION('international standard',
'automotive_design',2009,#859);
#859=APPLICATION_CONTEXT(
'Core Data for Automotive Mechanical Design Process');
#860=PRODUCT_CONTEXT('part definition',#859,'mechanical');
#861=PRODUCT('Product','Product',$,(#860));
#862=PRESENTATION_STYLE_ASSIGNMENT((#864));
#863=PRESENTATION_STYLE_ASSIGNMENT((#865));
#864=SURFACE_STYLE_USAGE(.BOTH.,#866);
#865=SURFACE_STYLE_USAGE(.BOTH.,#867);
#866=SURFACE_SIDE_STYLE($,(#868));
#867=SURFACE_SIDE_STYLE($,(#869));
#868=SURFACE_STYLE_FILL_AREA(#870);
#869=SURFACE_STYLE_FILL_AREA(#871);
#870=FILL_AREA_STYLE($,(#872));
#871=FILL_AREA_STYLE($,(#873));
#872=FILL_AREA_STYLE_COLOUR($,#874);
#873=FILL_AREA_STYLE_COLOUR($,#875);
#874=COLOUR_RGB('',1.,1.,1.);
#875=COLOUR_RGB('',0.733333333333333,0.733333333333333,0.733333333333333);
ENDSEC;
END-ISO-10303-21;
