ISO-10303-21;
HEADER;
/* Generated by software containing ST-Developer
 * from STEP Tools, Inc. (www.steptools.com) 
 */

FILE_DESCRIPTION(
/* description */ (''),
/* implementation_level */ '2;1');

FILE_NAME(
/* name */ 
'G:\\Applications\\Altium\\CernLib\\StepLib\\BOSSARD_BN83728-8243964_v.
stp',
/* time_stamp */ '2017-05-02T08:44:51+02:00',
/* author */ ('jchouvet'),
/* organization */ (''),
/* preprocessor_version */ 'ST-DEVELOPER v16.1',
/* originating_system */ 'AutoCAD Mechanical',
/* authorisation */ '');

FILE_SCHEMA (('AUTOMOTIVE_DESIGN { 1 0 10303 214 3 1 1 }'));
ENDSEC;

DATA;
#10=MECHANICAL_DESIGN_GEOMETRIC_PRESENTATION_REPRESENTATION('',(#17),#107);
#11=DIMENSIONAL_EXPONENTS(0.,0.,0.,0.,0.,0.,0.);
#12=(
CONVERSION_BASED_UNIT('degree',#13)
NAMED_UNIT(#11)
PLANE_ANGLE_UNIT()
);
#13=PLANE_ANGLE_MEASURE_WITH_UNIT(PLANE_ANGLE_MEASURE(0.01745329252),#110);
#14=PRESENTATION_LAYER_ASSIGNMENT('1','3D',(#18));
#15=SHAPE_REPRESENTATION_RELATIONSHIP('SRR','None',#113,#16);
#16=ADVANCED_BREP_SHAPE_REPRESENTATION('',(#18),#106);
#17=STYLED_ITEM('',(#123),#18);
#18=MANIFOLD_SOLID_BREP('2D8E',#63);
#19=PLANE('',#71);
#20=PLANE('',#72);
#21=FACE_BOUND('',#30,.T.);
#22=FACE_BOUND('',#32,.T.);
#23=FACE_BOUND('',#34,.T.);
#24=FACE_BOUND('',#36,.T.);
#25=FACE_OUTER_BOUND('',#29,.T.);
#26=FACE_OUTER_BOUND('',#31,.T.);
#27=FACE_OUTER_BOUND('',#33,.T.);
#28=FACE_OUTER_BOUND('',#35,.T.);
#29=EDGE_LOOP('',(#49));
#30=EDGE_LOOP('',(#50));
#31=EDGE_LOOP('',(#51));
#32=EDGE_LOOP('',(#52));
#33=EDGE_LOOP('',(#53));
#34=EDGE_LOOP('',(#54));
#35=EDGE_LOOP('',(#55));
#36=EDGE_LOOP('',(#56));
#37=CIRCLE('',#66,1.6);
#38=CIRCLE('',#67,1.6);
#39=CIRCLE('',#69,3.);
#40=CIRCLE('',#70,3.);
#41=VERTEX_POINT('',#93);
#42=VERTEX_POINT('',#95);
#43=VERTEX_POINT('',#98);
#44=VERTEX_POINT('',#100);
#45=EDGE_CURVE('',#41,#41,#37,.T.);
#46=EDGE_CURVE('',#42,#42,#38,.T.);
#47=EDGE_CURVE('',#43,#43,#39,.T.);
#48=EDGE_CURVE('',#44,#44,#40,.T.);
#49=ORIENTED_EDGE('',*,*,#45,.F.);
#50=ORIENTED_EDGE('',*,*,#46,.F.);
#51=ORIENTED_EDGE('',*,*,#47,.F.);
#52=ORIENTED_EDGE('',*,*,#48,.T.);
#53=ORIENTED_EDGE('',*,*,#47,.T.);
#54=ORIENTED_EDGE('',*,*,#45,.T.);
#55=ORIENTED_EDGE('',*,*,#48,.F.);
#56=ORIENTED_EDGE('',*,*,#46,.T.);
#57=CYLINDRICAL_SURFACE('',#65,1.6);
#58=CYLINDRICAL_SURFACE('',#68,3.);
#59=ADVANCED_FACE('',(#25,#21),#57,.F.);
#60=ADVANCED_FACE('',(#26,#22),#58,.T.);
#61=ADVANCED_FACE('',(#27,#23),#19,.T.);
#62=ADVANCED_FACE('',(#28,#24),#20,.F.);
#63=CLOSED_SHELL('',(#59,#60,#61,#62));
#64=AXIS2_PLACEMENT_3D('placement',#91,#73,#74);
#65=AXIS2_PLACEMENT_3D('',#92,#75,#76);
#66=AXIS2_PLACEMENT_3D('',#94,#77,#78);
#67=AXIS2_PLACEMENT_3D('',#96,#79,#80);
#68=AXIS2_PLACEMENT_3D('',#97,#81,#82);
#69=AXIS2_PLACEMENT_3D('',#99,#83,#84);
#70=AXIS2_PLACEMENT_3D('',#101,#85,#86);
#71=AXIS2_PLACEMENT_3D('',#102,#87,#88);
#72=AXIS2_PLACEMENT_3D('',#103,#89,#90);
#73=DIRECTION('axis',(0.,0.,1.));
#74=DIRECTION('refdir',(1.,0.,0.));
#75=DIRECTION('center_axis',(0.,0.,1.));
#76=DIRECTION('ref_axis',(-1.,0.,0.));
#77=DIRECTION('center_axis',(0.,0.,-1.));
#78=DIRECTION('ref_axis',(-1.,0.,0.));
#79=DIRECTION('center_axis',(0.,0.,1.));
#80=DIRECTION('ref_axis',(-1.,0.,0.));
#81=DIRECTION('center_axis',(0.,0.,1.));
#82=DIRECTION('ref_axis',(-1.,0.,0.));
#83=DIRECTION('center_axis',(0.,0.,1.));
#84=DIRECTION('ref_axis',(-1.,0.,0.));
#85=DIRECTION('center_axis',(0.,0.,1.));
#86=DIRECTION('ref_axis',(-1.,0.,0.));
#87=DIRECTION('center_axis',(0.,0.,1.));
#88=DIRECTION('ref_axis',(1.,0.,0.));
#89=DIRECTION('center_axis',(0.,0.,1.));
#90=DIRECTION('ref_axis',(1.,0.,0.));
#91=CARTESIAN_POINT('',(0.,0.,0.));
#92=CARTESIAN_POINT('Origin',(0.,0.,0.));
#93=CARTESIAN_POINT('',(1.6,1.95943487863577E-16,0.4));
#94=CARTESIAN_POINT('Origin',(0.,0.,0.4));
#95=CARTESIAN_POINT('',(1.6,1.95943487863577E-16,0.));
#96=CARTESIAN_POINT('Origin',(0.,0.,0.));
#97=CARTESIAN_POINT('Origin',(0.,0.,0.));
#98=CARTESIAN_POINT('',(3.,3.67394039744206E-16,0.4));
#99=CARTESIAN_POINT('Origin',(0.,0.,0.4));
#100=CARTESIAN_POINT('',(3.,3.67394039744206E-16,0.));
#101=CARTESIAN_POINT('Origin',(0.,0.,0.));
#102=CARTESIAN_POINT('Origin',(-1.29302661056476E-16,-4.93432455388958E-17,
0.4));
#103=CARTESIAN_POINT('Origin',(-1.29302661056476E-16,-4.93432455388958E-17,
0.));
#104=UNCERTAINTY_MEASURE_WITH_UNIT(LENGTH_MEASURE(0.01),#108,
'DISTANCE_ACCURACY_VALUE',
'Maximum model space distance between geometric entities at asserted c
onnectivities');
#105=UNCERTAINTY_MEASURE_WITH_UNIT(LENGTH_MEASURE(1.E-6),#108,
'DISTANCE_ACCURACY_VALUE',
'Maximum model space distance between geometric entities at asserted c
onnectivities');
#106=(
GEOMETRIC_REPRESENTATION_CONTEXT(3)
GLOBAL_UNCERTAINTY_ASSIGNED_CONTEXT((#104))
GLOBAL_UNIT_ASSIGNED_CONTEXT((#108,#110,#109))
REPRESENTATION_CONTEXT('','3D')
);
#107=(
GEOMETRIC_REPRESENTATION_CONTEXT(3)
GLOBAL_UNCERTAINTY_ASSIGNED_CONTEXT((#105))
GLOBAL_UNIT_ASSIGNED_CONTEXT((#108,#12,#109))
REPRESENTATION_CONTEXT('','3D')
);
#108=(
LENGTH_UNIT()
NAMED_UNIT(*)
SI_UNIT(.MILLI.,.METRE.)
);
#109=(
NAMED_UNIT(*)
SI_UNIT($,.STERADIAN.)
SOLID_ANGLE_UNIT()
);
#110=(
NAMED_UNIT(*)
PLANE_ANGLE_UNIT()
SI_UNIT($,.RADIAN.)
);
#111=SHAPE_DEFINITION_REPRESENTATION(#112,#113);
#112=PRODUCT_DEFINITION_SHAPE('',$,#115);
#113=SHAPE_REPRESENTATION('',(#64),#106);
#114=PRODUCT_DEFINITION_CONTEXT('part definition',#119,'design');
#115=PRODUCT_DEFINITION('Product','Product',#116,#114);
#116=PRODUCT_DEFINITION_FORMATION('',$,#121);
#117=PRODUCT_RELATED_PRODUCT_CATEGORY('Product','Product',(#121));
#118=APPLICATION_PROTOCOL_DEFINITION('international standard',
'automotive_design',2009,#119);
#119=APPLICATION_CONTEXT(
'Core Data for Automotive Mechanical Design Process');
#120=PRODUCT_CONTEXT('part definition',#119,'mechanical');
#121=PRODUCT('Product','Product',$,(#120));
#122=PRESENTATION_STYLE_ASSIGNMENT((#124));
#123=PRESENTATION_STYLE_ASSIGNMENT((#125));
#124=SURFACE_STYLE_USAGE(.BOTH.,#126);
#125=SURFACE_STYLE_USAGE(.BOTH.,#127);
#126=SURFACE_SIDE_STYLE('',(#128));
#127=SURFACE_SIDE_STYLE('',(#129));
#128=SURFACE_STYLE_FILL_AREA(#130);
#129=SURFACE_STYLE_FILL_AREA(#131);
#130=FILL_AREA_STYLE('',(#132));
#131=FILL_AREA_STYLE('',(#133));
#132=FILL_AREA_STYLE_COLOUR('',#134);
#133=FILL_AREA_STYLE_COLOUR('',#135);
#134=COLOUR_RGB('',1.,1.,1.);
#135=COLOUR_RGB('',0.733333333333333,0.733333333333333,0.733333333333333);
ENDSEC;
END-ISO-10303-21;
