ISO-10303-21;
HEADER;
/****************************************************************
 * Generated by software with PDElib inside                    *
 * PDElib Version v51a, created Wed 11/30/2011                  *
 * ITI Transcendata (http://www.transcendata.com/)              *
 ****************************************************************/
FILE_DESCRIPTION((''),'2;1');
FILE_NAME('BOSSARD_BN5687-3061619_v.stp','2014-03-18T15:27:54',(''),(''),'Mechanical Desktop 2011','Mechanical Desktop 2011',', , ');
FILE_SCHEMA(('AUTOMOTIVE_DESIGN { 1 2 10303 214 1 1 1 1 }'));
ENDSEC;
DATA;
#10=(NAMED_UNIT(*)PLANE_ANGLE_UNIT()SI_UNIT($,.RADIAN.));
#11=DIMENSIONAL_EXPONENTS(0.0,0.0,0.0,0.0,0.0,0.0,0.0);
#12=PLANE_ANGLE_MEASURE_WITH_UNIT(PLANE_ANGLE_MEASURE(0.0174532925),#10);
#16=(CONVERSION_BASED_UNIT('DEGREE',#12)NAMED_UNIT(#11)PLANE_ANGLE_UNIT());
#20=(NAMED_UNIT(*)SI_UNIT($,.STERADIAN.)SOLID_ANGLE_UNIT());
#24=(LENGTH_UNIT()NAMED_UNIT(*)SI_UNIT(.MILLI.,.METRE.));
#26=UNCERTAINTY_MEASURE_WITH_UNIT(LENGTH_MEASURE(0.000001),#24,'DISTANCE_ACCURACY_VALUE','');
#28=(GEOMETRIC_REPRESENTATION_CONTEXT(3)GLOBAL_UNCERTAINTY_ASSIGNED_CONTEXT((#26))GLOBAL_UNIT_ASSIGNED_CONTEXT((#16,#20,#24))REPRESENTATION_CONTEXT('','3D'));
#29=APPLICATION_CONTEXT('automotive design');
#30=APPLICATION_PROTOCOL_DEFINITION('INTERNATIONAL_STANDARD','automotive_design',1998,#29);
#31=PRODUCT_CONTEXT('3D Mechanical Parts',#29,'mechanical');
#32=PRODUCT('Product','Product','',(#31));
#33=PRODUCT_RELATED_PRODUCT_CATEGORY('part',$,(#32));
#34=PRODUCT_CATEGORY('part',$);
#35=PERSON('1','Design','Joe',$,$,$);
#36=ORGANIZATION($,'None','None');
#37=PERSON_AND_ORGANIZATION(#35,#36);
#38=PERSON_AND_ORGANIZATION_ROLE('design_owner');
#39=APPLIED_PERSON_AND_ORGANIZATION_ASSIGNMENT(#37,#38,(#32));
#40=PRODUCT_DEFINITION_FORMATION_WITH_SPECIFIED_SOURCE('None','',#32,.BOUGHT.);
#41=PERSON('2','Creator','Joe',$,$,$);
#42=ORGANIZATION($,'None','None');
#43=PERSON_AND_ORGANIZATION(#41,#42);
#44=PERSON_AND_ORGANIZATION_ROLE('creator');
#45=APPLIED_PERSON_AND_ORGANIZATION_ASSIGNMENT(#43,#44,(#40));
#46=PERSON('3','Supplier','Joe',$,$,$);
#47=ORGANIZATION($,'None','None');
#48=PERSON_AND_ORGANIZATION(#46,#47);
#49=PERSON_AND_ORGANIZATION_ROLE('design_supplier');
#50=APPLIED_PERSON_AND_ORGANIZATION_ASSIGNMENT(#48,#49,(#40));
#51=PRODUCT_DEFINITION_CONTEXT('part definition',#29,'design');
#52=PRODUCT_DEFINITION('None','',#40,#51);
#53=PERSON('4','Creator','Joe',$,$,$);
#54=ORGANIZATION($,'None','None');
#55=PERSON_AND_ORGANIZATION(#53,#54);
#56=PERSON_AND_ORGANIZATION_ROLE('creator');
#57=APPLIED_PERSON_AND_ORGANIZATION_ASSIGNMENT(#55,#56,(#52));
#58=CARTESIAN_POINT('NONE',(0.0,0.0,0.0));
#59=DIRECTION('NONE',(0.0,0.0,1.0));
#60=DIRECTION('NONE',(1.0,0.0,0.0));
#61=AXIS2_PLACEMENT_3D('NONE',#58,#59,#60);
#62=SHAPE_REPRESENTATION('SR1',(#61),#28);
#63=PRODUCT_DEFINITION_SHAPE('PDS1','Test Part',#52);
#64=SHAPE_DEFINITION_REPRESENTATION(#63,#62);
#65=CARTESIAN_POINT('',(5.681174E-016,3.787450E-016,-3.09268721961639));
#66=DIRECTION('',(0.0,0.0,1.0));
#67=DIRECTION('',(1.0,0.0,0.0));
#68=AXIS2_PLACEMENT_3D('',#65,#66,#67);
#69=SPHERICAL_SURFACE('',#68,6.50000000000001);
#70=CARTESIAN_POINT('',(1.974999999999999,3.787450E-016,3.100000000000001));
#71=VERTEX_POINT('',#70);
#72=CARTESIAN_POINT('',(3.83606557377049,-6.822650E-016,2.154655051832371));
#73=VERTEX_POINT('',#72);
#74=CARTESIAN_POINT('',(5.681174E-016,3.787450E-016,-3.09268721961639));
#75=DIRECTION('',(0.0,1.0,0.0));
#76=DIRECTION('',(1.0,0.0,0.0));
#77=AXIS2_PLACEMENT_3D('',#74,#75,#76);
#78=CIRCLE('',#77,6.50000000000001);
#79=EDGE_CURVE('',#71,#73,#78,.T.);
#80=ORIENTED_EDGE('',*,*,#79,.F.);
#81=CARTESIAN_POINT('',(1.710400172474269,-0.987499999999999,3.100000000000001));
#82=VERTEX_POINT('',#81);
#83=CARTESIAN_POINT('',(-5.694608E-016,-6.016851E-016,3.1));
#84=DIRECTION('',(0.0,0.0,-1.0));
#85=DIRECTION('',(0.0,-1.0,0.0));
#86=AXIS2_PLACEMENT_3D('',#83,#84,#85);
#87=CIRCLE('',#86,1.975);
#88=EDGE_CURVE('',#71,#82,#87,.T.);
#89=ORIENTED_EDGE('',*,*,#88,.T.);
#90=CARTESIAN_POINT('',(-8.574125E-017,-1.975000000000001,3.1));
#91=VERTEX_POINT('',#90);
#92=CARTESIAN_POINT('',(-5.694608E-016,-6.016851E-016,3.1));
#93=DIRECTION('',(0.0,0.0,-1.0));
#94=DIRECTION('',(0.0,-1.0,0.0));
#95=AXIS2_PLACEMENT_3D('',#92,#93,#94);
#96=CIRCLE('',#95,1.975);
#97=EDGE_CURVE('',#82,#91,#96,.T.);
#98=ORIENTED_EDGE('',*,*,#97,.T.);
#99=CARTESIAN_POINT('',(-1.710400172474271,-0.987500000000001,3.1));
#100=VERTEX_POINT('',#99);
#101=CARTESIAN_POINT('',(-5.694608E-016,-6.016851E-016,3.1));
#102=DIRECTION('',(0.0,0.0,-1.0));
#103=DIRECTION('',(0.0,-1.0,0.0));
#104=AXIS2_PLACEMENT_3D('',#101,#102,#103);
#105=CIRCLE('',#104,1.975);
#106=EDGE_CURVE('',#91,#100,#105,.T.);
#107=ORIENTED_EDGE('',*,*,#106,.T.);
#108=CARTESIAN_POINT('',(-1.975000000000001,1.368772E-016,3.1));
#109=VERTEX_POINT('',#108);
#110=CARTESIAN_POINT('',(-5.694608E-016,-6.016851E-016,3.1));
#111=DIRECTION('',(0.0,0.0,-1.0));
#112=DIRECTION('',(0.0,-1.0,0.0));
#113=AXIS2_PLACEMENT_3D('',#110,#111,#112);
#114=CIRCLE('',#113,1.975);
#115=EDGE_CURVE('',#100,#109,#114,.T.);
#116=ORIENTED_EDGE('',*,*,#115,.T.);
#117=CARTESIAN_POINT('',(-3.836065573770491,-1.152048E-015,2.15465505183237));
#118=VERTEX_POINT('',#117);
#119=CARTESIAN_POINT('',(5.681174E-016,3.787450E-016,-3.09268721961639));
#120=DIRECTION('',(0.0,-1.0,0.0));
#121=DIRECTION('',(-1.0,0.0,0.0));
#122=AXIS2_PLACEMENT_3D('',#119,#120,#121);
#123=CIRCLE('',#122,6.50000000000001);
#124=EDGE_CURVE('',#109,#118,#123,.T.);
#125=ORIENTED_EDGE('',*,*,#124,.T.);
#126=CARTESIAN_POINT('',(5.437303E-016,-3.836065573770491,2.15465505183237));
#127=VERTEX_POINT('',#126);
#128=CARTESIAN_POINT('',(-3.958037E-016,-1.022138E-015,2.15465505183237));
#129=DIRECTION('',(0.0,0.0,1.0));
#130=DIRECTION('',(0.0,-1.0,0.0));
#131=AXIS2_PLACEMENT_3D('',#128,#129,#130);
#132=CIRCLE('',#131,3.83606557377049);
#133=EDGE_CURVE('',#118,#127,#132,.T.);
#134=ORIENTED_EDGE('',*,*,#133,.T.);
#135=CARTESIAN_POINT('',(-3.958037E-016,-1.022138E-015,2.15465505183237));
#136=DIRECTION('',(0.0,0.0,1.0));
#137=DIRECTION('',(0.0,-1.0,0.0));
#138=AXIS2_PLACEMENT_3D('',#135,#136,#137);
#139=CIRCLE('',#138,3.83606557377049);
#140=EDGE_CURVE('',#127,#73,#139,.T.);
#141=ORIENTED_EDGE('',*,*,#140,.T.);
#142=EDGE_LOOP('',(#80,#89,#98,#107,#116,#125,#134,#141));
#143=FACE_OUTER_BOUND('',#142,.T.);
#144=ADVANCED_FACE('',(#143),#69,.T.);
#145=CARTESIAN_POINT('',(-3.364855E-016,-1.112502E-015,1.83174168128168));
#146=DIRECTION('',(-1.836970E-016,-1.224647E-016,1.0));
#147=DIRECTION('',(-1.0,0.0,0.0));
#148=AXIS2_PLACEMENT_3D('',#145,#146,#147);
#149=TOROIDAL_SURFACE('',#148,3.6,0.399999999999999);
#150=CARTESIAN_POINT('',(-4.0,-6.226595E-016,1.831741681281679));
#151=VERTEX_POINT('',#150);
#152=CARTESIAN_POINT('',(-3.600000000000001,-1.112502E-015,1.831741681281679));
#153=DIRECTION('',(0.0,-1.0,0.0));
#154=DIRECTION('',(-1.0,0.0,0.0));
#155=AXIS2_PLACEMENT_3D('',#152,#153,#154);
#156=CIRCLE('',#155,0.399999999999999);
#157=EDGE_CURVE('',#118,#151,#156,.T.);
#158=ORIENTED_EDGE('',*,*,#157,.F.);
#159=CARTESIAN_POINT('',(-3.958037E-016,-1.022138E-015,2.15465505183237));
#160=DIRECTION('',(0.0,0.0,1.0));
#161=DIRECTION('',(0.0,-1.0,0.0));
#162=AXIS2_PLACEMENT_3D('',#159,#160,#161);
#163=CIRCLE('',#162,3.83606557377049);
#164=EDGE_CURVE('',#73,#118,#163,.T.);
#165=ORIENTED_EDGE('',*,*,#164,.F.);
#166=CARTESIAN_POINT('',(4.0,-6.226434E-016,1.831741681281681));
#167=VERTEX_POINT('',#166);
#168=CARTESIAN_POINT('',(3.6,-6.716292E-016,1.831741681281681));
#169=DIRECTION('',(0.0,1.0,0.0));
#170=DIRECTION('',(1.0,0.0,0.0));
#171=AXIS2_PLACEMENT_3D('',#168,#169,#170);
#172=CIRCLE('',#171,0.399999999999999);
#173=EDGE_CURVE('',#73,#167,#172,.T.);
#174=ORIENTED_EDGE('',*,*,#173,.T.);
#175=CARTESIAN_POINT('',(1.533732E-016,4.0,1.83174168128168));
#176=VERTEX_POINT('',#175);
#177=CARTESIAN_POINT('',(-3.364855E-016,-2.243237E-016,1.83174168128168));
#178=DIRECTION('',(0.0,0.0,-1.0));
#179=DIRECTION('',(0.0,-1.0,0.0));
#180=AXIS2_PLACEMENT_3D('',#177,#178,#179);
#181=CIRCLE('',#180,4.0);
#182=EDGE_CURVE('',#176,#167,#181,.T.);
#183=ORIENTED_EDGE('',*,*,#182,.F.);
#184=CARTESIAN_POINT('',(-3.364855E-016,-2.243237E-016,1.83174168128168));
#185=DIRECTION('',(0.0,0.0,-1.0));
#186=DIRECTION('',(0.0,-1.0,0.0));
#187=AXIS2_PLACEMENT_3D('',#184,#185,#186);
#188=CIRCLE('',#187,4.0);
#189=EDGE_CURVE('',#151,#176,#188,.T.);
#190=ORIENTED_EDGE('',*,*,#189,.F.);
#191=EDGE_LOOP('',(#158,#165,#174,#183,#190));
#192=FACE_OUTER_BOUND('',#191,.T.);
#193=ADVANCED_FACE('',(#192),#149,.T.);
#194=CARTESIAN_POINT('',(-3.533098E-016,-2.355398E-016,1.923328765345764));
#195=DIRECTION('',(1.836970E-016,1.224647E-016,-1.0));
#196=DIRECTION('',(0.0,-1.0,0.0));
#197=AXIS2_PLACEMENT_3D('',#194,#195,#196);
#198=CYLINDRICAL_SURFACE('',#197,4.0);
#199=CARTESIAN_POINT('',(9.860761E-032,-4.0,-4.440892E-016));
#200=VERTEX_POINT('',#199);
#201=CARTESIAN_POINT('',(-3.364855E-016,-4.0,1.831741681281679));
#202=VERTEX_POINT('',#201);
#203=CARTESIAN_POINT('',(9.860761E-032,-4.0,-4.440892E-016));
#204=DIRECTION('',(0.0,0.0,1.0));
#205=VECTOR('',#204,1.83174168128168);
#206=LINE('',#203,#205);
#207=EDGE_CURVE('',#200,#202,#206,.T.);
#208=ORIENTED_EDGE('',*,*,#207,.F.);
#209=CARTESIAN_POINT('',(-4.898425E-016,4.0,4.898587E-016));
#210=VERTEX_POINT('',#209);
#211=CARTESIAN_POINT('',(0.0,0.0,0.0));
#212=DIRECTION('',(0.0,0.0,1.0));
#213=DIRECTION('',(0.0,-1.0,0.0));
#214=AXIS2_PLACEMENT_3D('',#211,#212,#213);
#215=CIRCLE('',#214,4.0);
#216=EDGE_CURVE('',#200,#210,#215,.T.);
#217=ORIENTED_EDGE('',*,*,#216,.T.);
#218=CARTESIAN_POINT('',(4.898587E-016,4.0,4.440892E-016));
#219=DIRECTION('',(0.0,0.0,1.0));
#220=VECTOR('',#219,1.83174168128168);
#221=LINE('',#218,#220);
#222=EDGE_CURVE('',#210,#176,#221,.T.);
#223=ORIENTED_EDGE('',*,*,#222,.T.);
#224=ORIENTED_EDGE('',*,*,#182,.T.);
#225=CARTESIAN_POINT('',(-3.364855E-016,-2.243237E-016,1.83174168128168));
#226=DIRECTION('',(0.0,0.0,-1.0));
#227=DIRECTION('',(0.0,-1.0,0.0));
#228=AXIS2_PLACEMENT_3D('',#225,#226,#227);
#229=CIRCLE('',#228,4.0);
#230=EDGE_CURVE('',#167,#202,#229,.T.);
#231=ORIENTED_EDGE('',*,*,#230,.T.);
#232=EDGE_LOOP('',(#208,#217,#223,#224,#231));
#233=FACE_OUTER_BOUND('',#232,.T.);
#234=ADVANCED_FACE('',(#233),#198,.T.);
#235=CARTESIAN_POINT('',(2.1138662884624,1.206172E-015,1.029647177682105));
#236=DIRECTION('',(-1.836970E-016,-1.224647E-016,1.0));
#237=DIRECTION('',(-0.686348585024614,0.727272727272727,-3.701497E-017));
#238=AXIS2_PLACEMENT_3D('',#235,#236,#237);
#239=CYLINDRICAL_SURFACE('',#238,0.691250000000001);
#240=CARTESIAN_POINT('',(1.63942782906414,-0.502727272727272,1.439999999999998));
#241=VERTEX_POINT('',#240);
#242=CARTESIAN_POINT('',(1.63942782906414,0.502727272727274,1.439999999999998));
#243=VERTEX_POINT('',#242);
#244=CARTESIAN_POINT('',(2.1138662884624,1.155918E-015,1.439999999999997));
#245=DIRECTION('',(2.540517E-017,-2.691998E-017,-1.0));
#246=DIRECTION('',(-0.686348585024614,0.727272727272727,-3.701497E-017));
#247=AXIS2_PLACEMENT_3D('',#244,#245,#246);
#248=CIRCLE('',#247,0.691250000000001);
#249=EDGE_CURVE('',#241,#243,#248,.T.);
#250=ORIENTED_EDGE('',*,*,#249,.F.);
#251=CARTESIAN_POINT('',(1.63942782906414,-0.502727272727272,2.94975987076172));
#252=VERTEX_POINT('',#251);
#253=CARTESIAN_POINT('',(1.63942782906414,-0.502727272727272,2.94975987076172));
#254=DIRECTION('',(0.0,0.0,-1.0));
#255=VECTOR('',#254,1.509759870761723);
#256=LINE('',#253,#255);
#257=EDGE_CURVE('',#252,#241,#256,.T.);
#258=ORIENTED_EDGE('',*,*,#257,.F.);
#259=CARTESIAN_POINT('',(1.63942782906414,0.502727272727274,2.94975987076172));
#260=VERTEX_POINT('',#259);
#261=CARTESIAN_POINT('',(2.206563790081244,0.685006376389028,3.293669435640165));
#262=CARTESIAN_POINT('',(2.096661092082353,0.699878800758815,3.23561578327415));
#263=CARTESIAN_POINT('',(1.985051697410076,0.686890709805882,3.172477913743025));
#264=CARTESIAN_POINT('',(1.821884502521925,0.630429696493238,3.072792776917186));
#265=CARTESIAN_POINT('',(1.754068480832938,0.595141569894637,3.029047804041986));
#266=CARTESIAN_POINT('',(1.632931136136782,0.502343892444304,2.945999713959215));
#267=CARTESIAN_POINT('',(1.579589008508874,0.444821220652259,2.906741612442529));
#268=CARTESIAN_POINT('',(1.504459533306991,0.3320014479617,2.848910732504465));
#269=CARTESIAN_POINT('',(1.473933226259488,0.27041453142331,2.824152464808146));
#270=CARTESIAN_POINT('',(1.432961965277336,0.137868276641736,2.790083819191796));
#271=CARTESIAN_POINT('',(1.422616288462399,0.066799388557664,2.781081115447796));
#272=CARTESIAN_POINT('',(1.422616288462399,-0.066799388557663,2.781081115447796));
#273=CARTESIAN_POINT('',(1.432961965277336,-0.137868276641734,2.790083819191795));
#274=CARTESIAN_POINT('',(1.473933226259488,-0.270414531423309,2.824152464808146));
#275=CARTESIAN_POINT('',(1.504459533306992,-0.332001447961699,2.848910732504465));
#276=CARTESIAN_POINT('',(1.579589008508875,-0.444821220652258,2.906741612442529));
#277=CARTESIAN_POINT('',(1.632931136136783,-0.502343892444302,2.945999713959215));
#278=CARTESIAN_POINT('',(1.754068480832938,-0.595141569894635,3.029047804041986));
#279=CARTESIAN_POINT('',(1.821884502521926,-0.630429696493236,3.072792776917186));
#280=CARTESIAN_POINT('',(1.887822396704437,-0.653246294669104,3.113076781358747));
#281=CARTESIAN_POINT('',(1.985051697410077,-0.68689070980588,3.172477913743025));
#282=CARTESIAN_POINT('',(2.09666109548178,-0.69987888521358,3.235615798474653));
#283=CARTESIAN_POINT('',(2.206563790081253,-0.685006376389226,3.293669435640202));
#284=B_SPLINE_CURVE_WITH_KNOTS('',3,(#261,#262,#263,#264,#265,#266,#267,#268,#269,#270,#271,#272,#273,#274,#275,#276,#277,#278,#279,#280,#281,#282,#283),.UNSPECIFIED.,.F.,.U.,(4,2,2,2,2,2,2,2,2,3,4),(-2.124815563595092,-1.768408769289427,-1.526704742640061,-1.285000715990695,-1.084602550317705,-0.884204384644714,-0.683806218971723,-0.483408053298731,-0.241704026649366,0.0,0.356406794305665),.UNSPECIFIED.);
#285=EDGE_CURVE('',#260,#252,#284,.T.);
#286=ORIENTED_EDGE('',*,*,#285,.F.);
#287=CARTESIAN_POINT('',(1.63942782906414,0.502727272727274,2.94975987076172));
#288=DIRECTION('',(0.0,0.0,-1.0));
#289=VECTOR('',#288,1.509759870761723);
#290=LINE('',#287,#289);
#291=EDGE_CURVE('',#260,#243,#290,.T.);
#292=ORIENTED_EDGE('',*,*,#291,.T.);
#293=EDGE_LOOP('',(#250,#258,#286,#292));
#294=FACE_OUTER_BOUND('',#293,.T.);
#295=ADVANCED_FACE('',(#294),#239,.T.);
#296=CARTESIAN_POINT('',(1.36832013797941,-0.789999999999998,1.199247864299806));
#297=DIRECTION('',(-1.836970E-016,-1.224647E-016,1.0));
#298=DIRECTION('',(0.686348585024615,0.727272727272726,2.151454E-016));
#299=AXIS2_PLACEMENT_3D('',#296,#297,#298);
#300=CYLINDRICAL_SURFACE('',#299,0.395000000000001);
#301=CARTESIAN_POINT('',(1.25508850388915,-1.16842251127708,1.439999999999997));
#302=VERTEX_POINT('',#301);
#303=CARTESIAN_POINT('',(1.36832013797941,-0.789999999999998,1.439999999999997));
#304=DIRECTION('',(-1.476647E-016,-1.564694E-016,1.0));
#305=DIRECTION('',(0.686348585024615,0.727272727272726,2.151454E-016));
#306=AXIS2_PLACEMENT_3D('',#303,#304,#305);
#307=CIRCLE('',#306,0.395000000000001);
#308=EDGE_CURVE('',#302,#241,#307,.T.);
#309=ORIENTED_EDGE('',*,*,#308,.F.);
#310=CARTESIAN_POINT('',(1.25508850388915,-1.168422511277081,2.94975987076172));
#311=VERTEX_POINT('',#310);
#312=CARTESIAN_POINT('',(1.25508850388915,-1.168422511277081,2.94975987076172));
#313=DIRECTION('',(0.0,0.0,-1.0));
#314=VECTOR('',#313,1.509759870761723);
#315=LINE('',#312,#314);
#316=EDGE_CURVE('',#311,#302,#315,.T.);
#317=ORIENTED_EDGE('',*,*,#316,.F.);
#318=CARTESIAN_POINT('',(1.091571576636704,-1.071842569167155,2.842980069462897));
#319=CARTESIAN_POINT('',(1.061396016139243,-1.042212400168698,2.818563467418297));
#320=CARTESIAN_POINT('',(1.033775291732159,-1.005030229742199,2.792102983496397));
#321=CARTESIAN_POINT('',(0.993191464190163,-0.922048284371028,2.742110681015689));
#322=CARTESIAN_POINT('',(0.980224870387112,-0.876233862071497,2.718606014070074));
#323=CARTESIAN_POINT('',(0.971547477918798,-0.79396979581566,2.683984351376065));
#324=CARTESIAN_POINT('',(0.972886233968638,-0.751867423626612,2.669267954989815));
#325=CARTESIAN_POINT('',(0.989983243575217,-0.668825478225574,2.649153437770194));
#326=CARTESIAN_POINT('',(1.005819964833908,-0.627868717640521,2.643893287340188));
#327=CARTESIAN_POINT('',(1.046660242135204,-0.557131282359474,2.643893287340188));
#328=CARTESIAN_POINT('',(1.074211476629232,-0.522937899144269,2.649153437770194));
#329=CARTESIAN_POINT('',(1.137579406122922,-0.466610481795706,2.669267954989815));
#330=CARTESIAN_POINT('',(1.173371751973305,-0.44439989895255,2.683984351376065));
#331=CARTESIAN_POINT('',(1.248953219403623,-0.4107827081408,2.718606014070075));
#332=CARTESIAN_POINT('',(1.295112969876251,-0.399104896625031,2.74211068101569));
#333=CARTESIAN_POINT('',(1.387269356394134,-0.392760549573621,2.792102983496398));
#334=CARTESIAN_POINT('',(1.433280422754867,-0.398089713367834,2.818563467418298));
#335=CARTESIAN_POINT('',(1.52820279007175,-0.424454141010502,2.875441520777998));
#336=CARTESIAN_POINT('',(1.582738421758273,-0.452743762069973,2.910068224287397));
#337=CARTESIAN_POINT('',(1.674184913941601,-0.532777022358401,2.973984753407772));
#338=CARTESIAN_POINT('',(1.711047267849469,-0.58452183995661,3.003342475503121));
#339=CARTESIAN_POINT('',(1.755020894250344,-0.692067917610502,3.048673102174295));
#340=CARTESIAN_POINT('',(1.766279044794909,-0.752879423196661,3.067785197395352));
#341=CARTESIAN_POINT('',(1.758926502124815,-0.874710632848266,3.093415949938572));
#342=CARTESIAN_POINT('',(1.740297971379122,-0.935715493262306,3.099999999999991));
#343=CARTESIAN_POINT('',(1.680502373569404,-1.039284506737692,3.099999999999991));
#344=CARTESIAN_POINT('',(1.636984880069369,-1.085919717805661,3.093415949938572));
#345=CARTESIAN_POINT('',(1.535152228872338,-1.153202811366174,3.067785197395352));
#346=CARTESIAN_POINT('',(1.476858844920063,-1.173858719788031,3.048673102174295));
#347=CARTESIAN_POINT('',(1.36173439639398,-1.189549481055293,3.003342475503121));
#348=CARTESIAN_POINT('',(1.298490892885805,-1.183498154926891,2.973984753407772));
#349=CARTESIAN_POINT('',(1.183456810236671,-1.144319799753367,2.910068224287396));
#350=CARTESIAN_POINT('',(1.131689463892472,-1.111235367831143,2.875441520777998));
#351=CARTESIAN_POINT('',(1.091571576636704,-1.071842569167155,2.842980069462897));
#352=B_SPLINE_CURVE_WITH_KNOTS('',3,(#318,#319,#320,#321,#322,#323,#324,#325,#326,#327,#328,#329,#330,#331,#332,#333,#334,#335,#336,#337,#338,#339,#340,#341,#342,#343,#344,#345,#346,#347,#348,#349,#350,#351),.UNSPECIFIED.,.T.,.U.,(4,2,2,2,2,2,2,2,2,2,2,2,2,2,2,2,4),(0.0,0.146499612267599,0.292999224535197,0.415520056439085,0.538040888342973,0.66056172024686,0.783082552150748,0.929582164418346,1.076081776685944,1.270850484576549,1.465619192467153,1.645005985896307,1.824392779325462,2.003779572754616,2.18316636618377,2.377935074074375,2.572703781964979),.UNSPECIFIED.);
#353=EDGE_CURVE('',#82,#311,#352,.T.);
#354=ORIENTED_EDGE('',*,*,#353,.F.);
#355=CARTESIAN_POINT('',(1.105895441376077,-0.494774190469987,2.659210696380005));
#356=CARTESIAN_POINT('',(1.137579406122922,-0.466610481795706,2.669267954989815));
#357=CARTESIAN_POINT('',(1.173371751973305,-0.44439989895255,2.683984351376065));
#358=CARTESIAN_POINT('',(1.248953219403623,-0.4107827081408,2.718606014070075));
#359=CARTESIAN_POINT('',(1.295112969876251,-0.399104896625031,2.74211068101569));
#360=CARTESIAN_POINT('',(1.387269356394134,-0.392760549573621,2.792102983496398));
#361=CARTESIAN_POINT('',(1.433280422754867,-0.398089713367834,2.818563467418298));
#362=CARTESIAN_POINT('',(1.52820279007175,-0.424454141010502,2.875441520777998));
#363=CARTESIAN_POINT('',(1.582738421758273,-0.452743762069973,2.910068224287397));
#364=CARTESIAN_POINT('',(1.674184913941601,-0.532777022358401,2.973984753407772));
#365=CARTESIAN_POINT('',(1.711047267849469,-0.58452183995661,3.003342475503121));
#366=CARTESIAN_POINT('',(1.755020894250344,-0.692067917610502,3.048673102174295));
#367=CARTESIAN_POINT('',(1.766279044794909,-0.752879423196661,3.067785197395352));
#368=CARTESIAN_POINT('',(1.758926502124815,-0.874710632848266,3.093415949938572));
#369=CARTESIAN_POINT('',(1.740297971379122,-0.935715493262306,3.099999999999991));
#370=CARTESIAN_POINT('',(1.680502373569404,-1.039284506737692,3.099999999999991));
#371=CARTESIAN_POINT('',(1.636984880069369,-1.085919717805661,3.093415949938572));
#372=CARTESIAN_POINT('',(1.535152228872338,-1.153202811366174,3.067785197395352));
#373=CARTESIAN_POINT('',(1.476858844920063,-1.173858719788031,3.048673102174295));
#374=CARTESIAN_POINT('',(1.36173439639398,-1.189549481055293,3.003342475503121));
#375=CARTESIAN_POINT('',(1.298490892885805,-1.183498154926891,2.973984753407772));
#376=CARTESIAN_POINT('',(1.183456810236671,-1.144319799753367,2.910068224287396));
#377=CARTESIAN_POINT('',(1.131689463892472,-1.111235367831143,2.875441520777998));
#378=CARTESIAN_POINT('',(1.091571576636704,-1.071842569167155,2.842980069462897));
#379=B_SPLINE_CURVE_WITH_KNOTS('',3,(#355,#356,#357,#358,#359,#360,#361,#362,#363,#364,#365,#366,#367,#368,#369,#370,#371,#372,#373,#374,#375,#376,#377,#378),.UNSPECIFIED.,.F.,.U.,(4,2,2,2,2,2,2,2,2,2,2,4),(0.0,0.122520831903888,0.269020444171486,0.415520056439084,0.610288764329688,0.805057472220293,0.984444265649447,1.163831059078601,1.343217852507755,1.52260464593691,1.717373353827514,1.912142061718118),.UNSPECIFIED.);
#380=EDGE_CURVE('',#252,#82,#379,.T.);
#381=ORIENTED_EDGE('',*,*,#380,.F.);
#382=ORIENTED_EDGE('',*,*,#257,.T.);
#383=EDGE_LOOP('',(#309,#317,#354,#381,#382));
#384=FACE_OUTER_BOUND('',#383,.T.);
#385=ADVANCED_FACE('',(#384),#300,.F.);
#386=CARTESIAN_POINT('',(1.0569331442312,-1.83066190601196,1.029647177348119));
#387=DIRECTION('',(-1.836970E-016,-1.224647E-016,1.0));
#388=DIRECTION('',(0.286662364785466,0.958031674119183,1.699841E-016));
#389=AXIS2_PLACEMENT_3D('',#386,#387,#388);
#390=CYLINDRICAL_SURFACE('',#389,0.691250000000001);
#391=CARTESIAN_POINT('',(0.384339322197087,-1.67114979656085,1.439999999999997));
#392=VERTEX_POINT('',#391);
#393=CARTESIAN_POINT('',(1.0569331442312,-1.83066190601196,1.439999999999997));
#394=DIRECTION('',(4.872803E-017,1.628501E-016,-1.0));
#395=DIRECTION('',(0.286662364785466,0.958031674119183,1.699841E-016));
#396=AXIS2_PLACEMENT_3D('',#393,#394,#395);
#397=CIRCLE('',#396,0.691250000000001);
#398=EDGE_CURVE('',#392,#302,#397,.T.);
#399=ORIENTED_EDGE('',*,*,#398,.F.);
#400=CARTESIAN_POINT('',(0.384339322197086,-1.671149796560851,2.94975987744142));
#401=VERTEX_POINT('',#400);
#402=CARTESIAN_POINT('',(0.384339322197086,-1.671149796560851,2.94975987744142));
#403=DIRECTION('',(0.0,0.0,-1.0));
#404=VECTOR('',#403,1.509759877441423);
#405=LINE('',#402,#404);
#406=EDGE_CURVE('',#401,#392,#405,.T.);
#407=ORIENTED_EDGE('',*,*,#406,.F.);
#408=CARTESIAN_POINT('',(1.696514818747844,-1.568437109086715,3.293669435640164));
#409=CARTESIAN_POINT('',(1.654443367068497,-1.465822368490333,3.235615783274148));
#410=CARTESIAN_POINT('',(1.587390653020455,-1.375659842879603,3.172477913743023));
#411=CARTESIAN_POINT('',(1.456910383724219,-1.26258341369854,3.072792776917185));
#412=CARTESIAN_POINT('',(1.392441958793375,-1.221497079431582,3.029047804041985));
#413=CARTESIAN_POINT('',(1.251508140361115,-1.162987900302886,2.945999713959214));
#414=CARTESIAN_POINT('',(1.175020981481695,-1.145553598581228,2.906741612442526));
#415=CARTESIAN_POINT('',(1.039751454681545,-1.136899450828683,2.848910732504463));
#416=CARTESIAN_POINT('',(0.971152466894795,-1.141256351711017,2.824152464808144));
#417=CARTESIAN_POINT('',(0.83587841258639,-1.172047326266178,2.790083819191794));
#418=CARTESIAN_POINT('',(0.769158111679403,-1.198622151367135,2.781081115447794));
#419=CARTESIAN_POINT('',(0.653458176782994,-1.265421539924798,2.781081115447794));
#420=CARTESIAN_POINT('',(0.597083552690944,-1.309915602907914,2.790083819191793));
#421=CARTESIAN_POINT('',(0.502780759364692,-1.411670883134327,2.824152464808143));
#422=CARTESIAN_POINT('',(0.464708078625446,-1.468900898790384,2.848910732504463));
#423=CARTESIAN_POINT('',(0.404568027027178,-1.590374819233487,2.906741612442526));
#424=CARTESIAN_POINT('',(0.381422995775667,-1.665331792747189,2.945999713959212));
#425=CARTESIAN_POINT('',(0.361626522039562,-1.816638649326218,3.029047804041983));
#426=CARTESIAN_POINT('',(0.364974118797705,-1.893013110191778,3.072792776917183));
#427=CARTESIAN_POINT('',(0.378183312240718,-1.961525300713817,3.113076781358744));
#428=CARTESIAN_POINT('',(0.39766104438962,-2.062550552685486,3.172477913743022));
#429=CARTESIAN_POINT('',(0.442217653573595,-2.165701214420521,3.23561579847465));
#430=CARTESIAN_POINT('',(0.51004897133323,-2.25344348547585,3.293669435640199));
#431=B_SPLINE_CURVE_WITH_KNOTS('',3,(#408,#409,#410,#411,#412,#413,#414,#415,#416,#417,#418,#419,#420,#421,#422,#423,#424,#425,#426,#427,#428,#429,#430),.UNSPECIFIED.,.F.,.U.,(4,2,2,2,2,2,2,2,2,3,4),(-2.124815563595091,-1.768408769289426,-1.52670474264006,-1.285000715990694,-1.084602550317704,-0.884204384644713,-0.683806218971722,-0.483408053298731,-0.241704026649366,0.0,0.356406794305665),.UNSPECIFIED.);
#432=EDGE_CURVE('',#311,#401,#431,.T.);
#433=ORIENTED_EDGE('',*,*,#432,.F.);
#434=ORIENTED_EDGE('',*,*,#316,.T.);
#435=EDGE_LOOP('',(#399,#407,#433,#434));
#436=FACE_OUTER_BOUND('',#435,.T.);
#437=ADVANCED_FACE('',(#436),#390,.T.);
#438=CARTESIAN_POINT('',(3.903244E-016,-1.58,1.199247864299806));
#439=DIRECTION('',(-1.836970E-016,-1.224647E-016,1.0));
#440=DIRECTION('',(0.973010942271107,-0.230758978635054,1.504794E-016));
#441=AXIS2_PLACEMENT_3D('',#438,#439,#440);
#442=CYLINDRICAL_SURFACE('',#441,0.395);
#443=CARTESIAN_POINT('',(-0.384339325174981,-1.67114978400435,1.439999999999997));
#444=VERTEX_POINT('',#443);
#445=CARTESIAN_POINT('',(3.460990E-016,-1.58,1.439999999999997));
#446=DIRECTION('',(-1.464181E-016,3.472447E-017,1.0));
#447=DIRECTION('',(0.973010942271107,-0.230758978635054,1.504794E-016));
#448=AXIS2_PLACEMENT_3D('',#445,#446,#447);
#449=CIRCLE('',#448,0.395);
#450=EDGE_CURVE('',#444,#392,#449,.T.);
#451=ORIENTED_EDGE('',*,*,#450,.F.);
#452=CARTESIAN_POINT('',(-0.384339325174981,-1.67114978400435,2.94975987076172));
#453=VERTEX_POINT('',#452);
#454=CARTESIAN_POINT('',(-0.384339325174981,-1.67114978400435,2.94975987076172));
#455=DIRECTION('',(0.0,0.0,-1.0));
#456=VECTOR('',#455,1.509759870761723);
#457=LINE('',#454,#456);
#458=EDGE_CURVE('',#453,#444,#457,.T.);
#459=ORIENTED_EDGE('',*,*,#458,.F.);
#460=CARTESIAN_POINT('',(-0.382457105437982,-1.481250000000001,2.8429800694629));
#461=CARTESIAN_POINT('',(-0.371884406615623,-1.440302113536537,2.8185634674183));
#462=CARTESIAN_POINT('',(-0.353494064661974,-1.397790779315824,2.7921029834964));
#463=CARTESIAN_POINT('',(-0.301921505686086,-1.321153180996064,2.742110681015693));
#464=CARTESIAN_POINT('',(-0.26872834901651,-1.287016570212302,2.718606014070077));
#465=CARTESIAN_POINT('',(-0.201824274054507,-1.238369694768216,2.683984351376068));
#466=CARTESIAN_POINT('',(-0.164693172154283,-1.218477905422323,2.669267954989818));
#467=CARTESIAN_POINT('',(-0.084228233054015,-1.191763377369848,2.649153437770197));
#468=CARTESIAN_POINT('',(-0.040840277301296,-1.185,2.64389328734019));
#469=CARTESIAN_POINT('',(0.040840277301296,-1.185,2.64389328734019));
#470=CARTESIAN_POINT('',(0.084228233054014,-1.191763377369848,2.649153437770198));
#471=CARTESIAN_POINT('',(0.164693172154283,-1.218477905422323,2.669267954989818));
#472=CARTESIAN_POINT('',(0.201824274054506,-1.238369694768216,2.683984351376068));
#473=CARTESIAN_POINT('',(0.26872834901651,-1.287016570212302,2.718606014070077));
#474=CARTESIAN_POINT('',(0.301921505686086,-1.321153180996064,2.742110681015693));
#475=CARTESIAN_POINT('',(0.353494064661974,-1.397790779315824,2.7921029834964));
#476=CARTESIAN_POINT('',(0.371884406615623,-1.440302113536536,2.8185634674183));
#477=CARTESIAN_POINT('',(0.396513326179277,-1.535689508841649,2.875441520778));
#478=CARTESIAN_POINT('',(0.399281611521601,-1.597063561823345,2.910068224287398));
#479=CARTESIAN_POINT('',(0.375694021055795,-1.716275177285295,2.973984753407774));
#480=CARTESIAN_POINT('',(0.349312871455488,-1.774071321011905,3.003342475503123));
#481=CARTESIAN_POINT('',(0.278162049330281,-1.865926637398536,3.048673102174296));
#482=CARTESIAN_POINT('',(0.231126815922571,-1.906082234562837,3.067785197395353));
#483=CARTESIAN_POINT('',(0.121941622055447,-1.960630350653929,3.093415949938573));
#484=CARTESIAN_POINT('',(0.059795597809718,-1.975000000000001,3.099999999999992));
#485=CARTESIAN_POINT('',(-0.059795597809718,-1.975000000000001,3.099999999999992));
#486=CARTESIAN_POINT('',(-0.121941622055446,-1.96063035065393,3.093415949938573));
#487=CARTESIAN_POINT('',(-0.231126815922571,-1.906082234562838,3.067785197395352));
#488=CARTESIAN_POINT('',(-0.278162049330281,-1.865926637398536,3.048673102174296));
#489=CARTESIAN_POINT('',(-0.349312871455487,-1.774071321011906,3.003342475503123));
#490=CARTESIAN_POINT('',(-0.375694021055795,-1.716275177285296,2.973984753407774));
#491=CARTESIAN_POINT('',(-0.399281611521601,-1.597063561823345,2.910068224287398));
#492=CARTESIAN_POINT('',(-0.396513326179277,-1.535689508841649,2.875441520778));
#493=CARTESIAN_POINT('',(-0.382457105437982,-1.481250000000001,2.8429800694629));
#494=B_SPLINE_CURVE_WITH_KNOTS('',3,(#460,#461,#462,#463,#464,#465,#466,#467,#468,#469,#470,#471,#472,#473,#474,#475,#476,#477,#478,#479,#480,#481,#482,#483,#484,#485,#486,#487,#488,#489,#490,#491,#492,#493),.UNSPECIFIED.,.T.,.U.,(4,2,2,2,2,2,2,2,2,2,2,2,2,2,2,2,4),(0.0,0.146499612267598,0.292999224535196,0.415520056439084,0.538040888342971,0.660561720246859,0.783082552150746,0.929582164418344,1.076081776685943,1.270850484576546,1.46561919246715,1.645005985896304,1.824392779325457,2.003779572754612,2.183166366183765,2.377935074074369,2.572703781964972),.UNSPECIFIED.);
#495=EDGE_CURVE('',#91,#453,#494,.T.);
#496=ORIENTED_EDGE('',*,*,#495,.F.);
#497=CARTESIAN_POINT('',(-0.382457105437982,-1.481250000000001,2.8429800694629));
#498=CARTESIAN_POINT('',(-0.371884406615623,-1.440302113536537,2.8185634674183));
#499=CARTESIAN_POINT('',(-0.353494064661974,-1.397790779315824,2.7921029834964));
#500=CARTESIAN_POINT('',(-0.301921505686086,-1.321153180996064,2.742110681015693));
#501=CARTESIAN_POINT('',(-0.26872834901651,-1.287016570212302,2.718606014070077));
#502=CARTESIAN_POINT('',(-0.201824274054507,-1.238369694768216,2.683984351376068));
#503=CARTESIAN_POINT('',(-0.164693172154283,-1.218477905422323,2.669267954989818));
#504=CARTESIAN_POINT('',(-0.084228233054015,-1.191763377369848,2.649153437770197));
#505=CARTESIAN_POINT('',(-0.040840277301296,-1.185,2.64389328734019));
#506=CARTESIAN_POINT('',(0.040840277301296,-1.185,2.64389328734019));
#507=CARTESIAN_POINT('',(0.084228233054014,-1.191763377369848,2.649153437770198));
#508=CARTESIAN_POINT('',(0.164693172154283,-1.218477905422323,2.669267954989818));
#509=CARTESIAN_POINT('',(0.201824274054506,-1.238369694768216,2.683984351376068));
#510=CARTESIAN_POINT('',(0.26872834901651,-1.287016570212302,2.718606014070077));
#511=CARTESIAN_POINT('',(0.301921505686086,-1.321153180996064,2.742110681015693));
#512=CARTESIAN_POINT('',(0.353494064661974,-1.397790779315824,2.7921029834964));
#513=CARTESIAN_POINT('',(0.371884406615623,-1.440302113536536,2.8185634674183));
#514=CARTESIAN_POINT('',(0.396513326179277,-1.535689508841649,2.875441520778));
#515=CARTESIAN_POINT('',(0.399281611521601,-1.597063561823345,2.910068224287398));
#516=CARTESIAN_POINT('',(0.375694021055795,-1.716275177285295,2.973984753407774));
#517=CARTESIAN_POINT('',(0.349312871455488,-1.774071321011905,3.003342475503123));
#518=CARTESIAN_POINT('',(0.278162049330281,-1.865926637398536,3.048673102174296));
#519=CARTESIAN_POINT('',(0.231126815922571,-1.906082234562837,3.067785197395353));
#520=CARTESIAN_POINT('',(0.121941622055447,-1.960630350653929,3.093415949938573));
#521=CARTESIAN_POINT('',(0.059795597809718,-1.975000000000001,3.099999999999992));
#522=CARTESIAN_POINT('',(-0.059795597809718,-1.975000000000001,3.099999999999992));
#523=CARTESIAN_POINT('',(-0.121941622055446,-1.96063035065393,3.093415949938573));
#524=CARTESIAN_POINT('',(-0.231126815922571,-1.906082234562838,3.067785197395352));
#525=CARTESIAN_POINT('',(-0.278162049330281,-1.865926637398536,3.048673102174296));
#526=CARTESIAN_POINT('',(-0.349312871455487,-1.774071321011906,3.003342475503123));
#527=CARTESIAN_POINT('',(-0.375694021055795,-1.716275177285296,2.973984753407774));
#528=CARTESIAN_POINT('',(-0.399281611521601,-1.597063561823345,2.910068224287398));
#529=CARTESIAN_POINT('',(-0.396513326179277,-1.535689508841649,2.875441520778));
#530=CARTESIAN_POINT('',(-0.382457105437982,-1.481250000000001,2.8429800694629));
#531=B_SPLINE_CURVE_WITH_KNOTS('',3,(#497,#498,#499,#500,#501,#502,#503,#504,#505,#506,#507,#508,#509,#510,#511,#512,#513,#514,#515,#516,#517,#518,#519,#520,#521,#522,#523,#524,#525,#526,#527,#528,#529,#530),.UNSPECIFIED.,.T.,.U.,(4,2,2,2,2,2,2,2,2,2,2,2,2,2,2,2,4),(0.0,0.146499612267598,0.292999224535196,0.415520056439084,0.538040888342971,0.660561720246859,0.783082552150746,0.929582164418344,1.076081776685943,1.270850484576546,1.46561919246715,1.645005985896304,1.824392779325457,2.003779572754612,2.183166366183765,2.377935074074369,2.572703781964972),.UNSPECIFIED.);
#532=EDGE_CURVE('',#401,#91,#531,.T.);
#533=ORIENTED_EDGE('',*,*,#532,.F.);
#534=ORIENTED_EDGE('',*,*,#406,.T.);
#535=EDGE_LOOP('',(#451,#459,#496,#533,#534));
#536=FACE_OUTER_BOUND('',#535,.T.);
#537=ADVANCED_FACE('',(#536),#442,.F.);
#538=CARTESIAN_POINT('',(-1.0569331442312,-1.83066190601196,1.029647177682104));
#539=DIRECTION('',(-1.836970E-016,-1.224647E-016,1.0));
#540=DIRECTION('',(0.97301094981008,0.230758946846456,2.069990E-016));
#541=AXIS2_PLACEMENT_3D('',#538,#539,#540);
#542=CYLINDRICAL_SURFACE('',#541,0.69125);
#543=CARTESIAN_POINT('',(-1.25508849152596,-1.16842250757776,1.439999999999996));
#544=VERTEX_POINT('',#543);
#545=CARTESIAN_POINT('',(-1.0569331442312,-1.83066190601196,1.439999999999996));
#546=DIRECTION('',(2.014123E-016,4.776688E-017,-1.0));
#547=DIRECTION('',(0.97301094981008,0.230758946846456,2.069990E-016));
#548=AXIS2_PLACEMENT_3D('',#545,#546,#547);
#549=CIRCLE('',#548,0.69125);
#550=EDGE_CURVE('',#544,#444,#549,.T.);
#551=ORIENTED_EDGE('',*,*,#550,.F.);
#552=CARTESIAN_POINT('',(-1.25508849152596,-1.16842250757776,2.949759864082009));
#553=VERTEX_POINT('',#552);
#554=CARTESIAN_POINT('',(-1.25508849152596,-1.16842250757776,2.949759864082009));
#555=DIRECTION('',(0.0,0.0,-1.0));
#556=VECTOR('',#555,1.509759864082013);
#557=LINE('',#554,#556);
#558=EDGE_CURVE('',#553,#544,#557,.T.);
#559=ORIENTED_EDGE('',*,*,#558,.F.);
#560=CARTESIAN_POINT('',(-0.510048971333402,-2.253443485475743,3.293669435640162));
#561=CARTESIAN_POINT('',(-0.442217725013858,-2.165701169249148,3.235615783274147));
#562=CARTESIAN_POINT('',(-0.397661044389622,-2.062550552685486,3.172477913743022));
#563=CARTESIAN_POINT('',(-0.364974118797707,-1.893013110191779,3.072792776917184));
#564=CARTESIAN_POINT('',(-0.361626522039564,-1.816638649326219,3.029047804041984));
#565=CARTESIAN_POINT('',(-0.381422995775669,-1.66533179274719,2.945999713959213));
#566=CARTESIAN_POINT('',(-0.40456802702718,-1.590374819233487,2.906741612442527));
#567=CARTESIAN_POINT('',(-0.464708078625448,-1.468900898790384,2.848910732504463));
#568=CARTESIAN_POINT('',(-0.502780759364694,-1.411670883134327,2.824152464808144));
#569=CARTESIAN_POINT('',(-0.597083552690946,-1.309915602907914,2.790083819191794));
#570=CARTESIAN_POINT('',(-0.653458176782996,-1.265421539924799,2.781081115447794));
#571=CARTESIAN_POINT('',(-0.769158111679405,-1.198622151367135,2.781081115447794));
#572=CARTESIAN_POINT('',(-0.835878412586392,-1.17204732626618,2.790083819191794));
#573=CARTESIAN_POINT('',(-0.971152466894796,-1.141256351711018,2.824152464808144));
#574=CARTESIAN_POINT('',(-1.039751454681546,-1.136899450828685,2.848910732504463));
#575=CARTESIAN_POINT('',(-1.175020981481697,-1.145553598581229,2.906741612442527));
#576=CARTESIAN_POINT('',(-1.251508140361116,-1.162987900302887,2.945999713959213));
#577=CARTESIAN_POINT('',(-1.392441958793376,-1.221497079431583,3.029047804041984));
#578=CARTESIAN_POINT('',(-1.45691038372422,-1.262583413698541,3.072792776917185));
#579=CARTESIAN_POINT('',(-1.509639084463719,-1.308279006044712,3.113076781358745));
#580=CARTESIAN_POINT('',(-1.587390653020456,-1.375659842879604,3.172477913743022));
#581=CARTESIAN_POINT('',(-1.654443441908184,-1.465822329206939,3.235615798474651));
#582=CARTESIAN_POINT('',(-1.696514818748021,-1.568437109086622,3.2936694356402));
#583=B_SPLINE_CURVE_WITH_KNOTS('',3,(#560,#561,#562,#563,#564,#565,#566,#567,#568,#569,#570,#571,#572,#573,#574,#575,#576,#577,#578,#579,#580,#581,#582),.UNSPECIFIED.,.F.,.U.,(4,2,2,2,2,2,2,2,2,3,4),(-2.124815563595089,-1.768408769289424,-1.526704742640059,-1.285000715990694,-1.084602550317703,-0.884204384644712,-0.683806218971721,-0.483408053298731,-0.241704026649365,0.0,0.356406794305664),.UNSPECIFIED.);
#584=EDGE_CURVE('',#453,#553,#583,.T.);
#585=ORIENTED_EDGE('',*,*,#584,.F.);
#586=ORIENTED_EDGE('',*,*,#458,.T.);
#587=EDGE_LOOP('',(#551,#559,#585,#586));
#588=FACE_OUTER_BOUND('',#587,.T.);
#589=ADVANCED_FACE('',(#588),#542,.T.);
#590=CARTESIAN_POINT('',(-1.36832013797941,-0.790000000000001,1.19924785728611));
#591=DIRECTION('',(-1.836970E-016,-1.224647E-016,1.0));
#592=DIRECTION('',(0.286662396084687,-0.958031664753826,-6.466601E-017));
#593=AXIS2_PLACEMENT_3D('',#590,#591,#592);
#594=CYLINDRICAL_SURFACE('',#593,0.395);
#595=CARTESIAN_POINT('',(-1.63942782906414,-0.502727272727274,1.439999999999996));
#596=VERTEX_POINT('',#595);
#597=CARTESIAN_POINT('',(-1.36832013797941,-0.790000000000001,1.439999999999997));
#598=DIRECTION('',(1.853731E-017,-6.195209E-017,1.0));
#599=DIRECTION('',(0.286662396084687,-0.958031664753826,-6.466601E-017));
#600=AXIS2_PLACEMENT_3D('',#597,#598,#599);
#601=CIRCLE('',#600,0.395);
#602=EDGE_CURVE('',#596,#544,#601,.T.);
#603=ORIENTED_EDGE('',*,*,#602,.F.);
#604=CARTESIAN_POINT('',(-1.639427829064141,-0.502727272727274,2.949759870761719));
#605=VERTEX_POINT('',#604);
#606=CARTESIAN_POINT('',(-1.639427829064141,-0.502727272727274,2.949759870761719));
#607=DIRECTION('',(0.0,0.0,-1.0));
#608=VECTOR('',#607,1.509759870761724);
#609=LINE('',#606,#608);
#610=EDGE_CURVE('',#605,#596,#609,.T.);
#611=ORIENTED_EDGE('',*,*,#610,.F.);
#612=CARTESIAN_POINT('',(-1.091571576636705,-1.071842569167158,2.842980069462898));
#613=CARTESIAN_POINT('',(-1.131689463892473,-1.111235367831145,2.875441520777999));
#614=CARTESIAN_POINT('',(-1.183456810236671,-1.144319799753369,2.910068224287397));
#615=CARTESIAN_POINT('',(-1.298490892885806,-1.183498154926893,2.973984753407772));
#616=CARTESIAN_POINT('',(-1.361734396393981,-1.189549481055295,3.003342475503121));
#617=CARTESIAN_POINT('',(-1.476858844920063,-1.173858719788033,3.048673102174295));
#618=CARTESIAN_POINT('',(-1.535152228872338,-1.153202811366177,3.067785197395351));
#619=CARTESIAN_POINT('',(-1.636984880069368,-1.085919717805664,3.093415949938571));
#620=CARTESIAN_POINT('',(-1.680502373569405,-1.039284506737695,3.099999999999991));
#621=CARTESIAN_POINT('',(-1.740297971379123,-0.935715493262309,3.099999999999991));
#622=CARTESIAN_POINT('',(-1.758926502124815,-0.874710632848269,3.093415949938571));
#623=CARTESIAN_POINT('',(-1.76627904479491,-0.752879423196664,3.067785197395352));
#624=CARTESIAN_POINT('',(-1.755020894250345,-0.692067917610506,3.048673102174295));
#625=CARTESIAN_POINT('',(-1.711047267849469,-0.584521839956614,3.003342475503121));
#626=CARTESIAN_POINT('',(-1.674184913941601,-0.532777022358405,2.973984753407773));
#627=CARTESIAN_POINT('',(-1.582738421758274,-0.452743762069977,2.910068224287397));
#628=CARTESIAN_POINT('',(-1.528202790071751,-0.424454141010507,2.875441520777998));
#629=CARTESIAN_POINT('',(-1.474028682074689,-0.409407430832845,2.842980069462898));
#630=CARTESIAN_POINT('',(-1.433280422754868,-0.398089713367838,2.818563467418298));
#631=CARTESIAN_POINT('',(-1.387269356394136,-0.392760549573625,2.792102983496398));
#632=CARTESIAN_POINT('',(-1.295112969876253,-0.399104896625034,2.742110681015691));
#633=CARTESIAN_POINT('',(-1.248953219403624,-0.410782708140804,2.718606014070076));
#634=CARTESIAN_POINT('',(-1.173371751973307,-0.444399898952554,2.683984351376067));
#635=CARTESIAN_POINT('',(-1.13757940458765,-0.466610479288289,2.669267952804855));
#636=CARTESIAN_POINT('',(-1.105895441376079,-0.494774190469992,2.659210696380007));
#637=B_SPLINE_CURVE_WITH_KNOTS('',3,(#612,#613,#614,#615,#616,#617,#618,#619,#620,#621,#622,#623,#624,#625,#626,#627,#628,#629,#630,#631,#632,#633,#634,#635,#636),.UNSPECIFIED.,.F.,.U.,(4,2,2,2,2,2,2,2,3,2,2,4),(-0.415520056439084,-0.220751348548481,-0.025982640657877,0.153404152771277,0.332790946200431,0.512177739629585,0.691564533058738,0.886333240949342,1.081101948839946,1.227601561107544,1.374101173375142,1.49662200527903),.UNSPECIFIED.);
#638=EDGE_CURVE('',#100,#605,#637,.T.);
#639=ORIENTED_EDGE('',*,*,#638,.F.);
#640=CARTESIAN_POINT('',(-1.474028682074689,-0.409407430832845,2.842980069462898));
#641=CARTESIAN_POINT('',(-1.433280422754868,-0.398089713367838,2.818563467418298));
#642=CARTESIAN_POINT('',(-1.387269356394136,-0.392760549573625,2.792102983496398));
#643=CARTESIAN_POINT('',(-1.295112969876253,-0.399104896625034,2.742110681015691));
#644=CARTESIAN_POINT('',(-1.248953219403624,-0.410782708140804,2.718606014070076));
#645=CARTESIAN_POINT('',(-1.173371751973307,-0.444399898952554,2.683984351376067));
#646=CARTESIAN_POINT('',(-1.137579406122923,-0.46661048179571,2.669267954989816));
#647=CARTESIAN_POINT('',(-1.074211476629233,-0.522937899144272,2.649153437770196));
#648=CARTESIAN_POINT('',(-1.046660242135205,-0.557131282359478,2.643893287340189));
#649=CARTESIAN_POINT('',(-1.005819964833909,-0.627868717640524,2.643893287340189));
#650=CARTESIAN_POINT('',(-0.989983243575219,-0.668825478225578,2.649153437770196));
#651=CARTESIAN_POINT('',(-0.97288623396864,-0.751867423626615,2.669267954989816));
#652=CARTESIAN_POINT('',(-0.9715474779188,-0.793969795815664,2.683984351376067));
#653=CARTESIAN_POINT('',(-0.980224870387114,-0.8762338620715,2.718606014070076));
#654=CARTESIAN_POINT('',(-0.993191464190165,-0.922048284371031,2.742110681015692));
#655=CARTESIAN_POINT('',(-1.033775291732161,-1.005030229742201,2.792102983496399));
#656=CARTESIAN_POINT('',(-1.061396016139244,-1.042212400168701,2.818563467418299));
#657=CARTESIAN_POINT('',(-1.131689463892473,-1.111235367831145,2.875441520777999));
#658=CARTESIAN_POINT('',(-1.183456810236671,-1.144319799753369,2.910068224287397));
#659=CARTESIAN_POINT('',(-1.298490892885806,-1.183498154926893,2.973984753407772));
#660=CARTESIAN_POINT('',(-1.361734396393981,-1.189549481055295,3.003342475503121));
#661=CARTESIAN_POINT('',(-1.476858844920063,-1.173858719788033,3.048673102174295));
#662=CARTESIAN_POINT('',(-1.535152228872338,-1.153202811366177,3.067785197395351));
#663=CARTESIAN_POINT('',(-1.636984880069368,-1.085919717805664,3.093415949938571));
#664=CARTESIAN_POINT('',(-1.680502373569405,-1.039284506737695,3.099999999999991));
#665=CARTESIAN_POINT('',(-1.740297971379123,-0.935715493262309,3.099999999999991));
#666=CARTESIAN_POINT('',(-1.758926502124815,-0.874710632848269,3.093415949938571));
#667=CARTESIAN_POINT('',(-1.76627904479491,-0.752879423196664,3.067785197395352));
#668=CARTESIAN_POINT('',(-1.755020894250345,-0.692067917610506,3.048673102174295));
#669=CARTESIAN_POINT('',(-1.711047267849469,-0.584521839956614,3.003342475503121));
#670=CARTESIAN_POINT('',(-1.674184913941601,-0.532777022358405,2.973984753407773));
#671=CARTESIAN_POINT('',(-1.582738421758274,-0.452743762069977,2.910068224287397));
#672=CARTESIAN_POINT('',(-1.528202790071751,-0.424454141010507,2.875441520777998));
#673=CARTESIAN_POINT('',(-1.474028682074689,-0.409407430832845,2.842980069462898));
#674=B_SPLINE_CURVE_WITH_KNOTS('',3,(#640,#641,#642,#643,#644,#645,#646,#647,#648,#649,#650,#651,#652,#653,#654,#655,#656,#657,#658,#659,#660,#661,#662,#663,#664,#665,#666,#667,#668,#669,#670,#671,#672,#673),.UNSPECIFIED.,.T.,.U.,(4,2,2,2,2,2,2,2,2,2,2,2,2,2,2,2,4),(0.0,0.146499612267598,0.292999224535196,0.415520056439084,0.538040888342972,0.66056172024686,0.783082552150747,0.929582164418345,1.076081776685943,1.270850484576547,1.465619192467151,1.645005985896305,1.824392779325459,2.003779572754612,2.183166366183766,2.37793507407437,2.572703781964973),.UNSPECIFIED.);
#675=EDGE_CURVE('',#553,#100,#674,.T.);
#676=ORIENTED_EDGE('',*,*,#675,.F.);
#677=ORIENTED_EDGE('',*,*,#558,.T.);
#678=EDGE_LOOP('',(#603,#611,#639,#676,#677));
#679=FACE_OUTER_BOUND('',#678,.T.);
#680=ADVANCED_FACE('',(#679),#594,.F.);
#681=CARTESIAN_POINT('',(-3.533098E-016,-2.355398E-016,1.923328765345764));
#682=DIRECTION('',(1.836970E-016,1.224647E-016,-1.0));
#683=DIRECTION('',(0.0,-1.0,0.0));
#684=AXIS2_PLACEMENT_3D('',#681,#682,#683);
#685=CYLINDRICAL_SURFACE('',#684,4.0);
#686=ORIENTED_EDGE('',*,*,#207,.T.);
#687=CARTESIAN_POINT('',(-3.364855E-016,-2.243237E-016,1.83174168128168));
#688=DIRECTION('',(0.0,0.0,-1.0));
#689=DIRECTION('',(0.0,-1.0,0.0));
#690=AXIS2_PLACEMENT_3D('',#687,#688,#689);
#691=CIRCLE('',#690,4.0);
#692=EDGE_CURVE('',#202,#151,#691,.T.);
#693=ORIENTED_EDGE('',*,*,#692,.T.);
#694=ORIENTED_EDGE('',*,*,#189,.T.);
#695=ORIENTED_EDGE('',*,*,#222,.F.);
#696=CARTESIAN_POINT('',(0.0,0.0,0.0));
#697=DIRECTION('',(0.0,0.0,1.0));
#698=DIRECTION('',(0.0,-1.0,0.0));
#699=AXIS2_PLACEMENT_3D('',#696,#697,#698);
#700=CIRCLE('',#699,4.0);
#701=EDGE_CURVE('',#210,#200,#700,.T.);
#702=ORIENTED_EDGE('',*,*,#701,.T.);
#703=EDGE_LOOP('',(#686,#693,#694,#695,#702));
#704=FACE_OUTER_BOUND('',#703,.T.);
#705=ADVANCED_FACE('',(#704),#685,.T.);
#706=CARTESIAN_POINT('',(-3.364855E-016,-1.112502E-015,1.83174168128168));
#707=DIRECTION('',(-1.836970E-016,-1.224647E-016,1.0));
#708=DIRECTION('',(-1.0,0.0,0.0));
#709=AXIS2_PLACEMENT_3D('',#706,#707,#708);
#710=TOROIDAL_SURFACE('',#709,3.6,0.399999999999999);
#711=ORIENTED_EDGE('',*,*,#157,.T.);
#712=ORIENTED_EDGE('',*,*,#692,.F.);
#713=ORIENTED_EDGE('',*,*,#230,.F.);
#714=ORIENTED_EDGE('',*,*,#173,.F.);
#715=ORIENTED_EDGE('',*,*,#140,.F.);
#716=ORIENTED_EDGE('',*,*,#133,.F.);
#717=EDGE_LOOP('',(#711,#712,#713,#714,#715,#716));
#718=FACE_OUTER_BOUND('',#717,.T.);
#719=ADVANCED_FACE('',(#718),#710,.T.);
#720=CARTESIAN_POINT('',(5.681174E-016,3.787450E-016,-3.09268721961639));
#721=DIRECTION('',(0.0,0.0,1.0));
#722=DIRECTION('',(1.0,0.0,0.0));
#723=AXIS2_PLACEMENT_3D('',#720,#721,#722);
#724=SPHERICAL_SURFACE('',#723,6.50000000000001);
#725=ORIENTED_EDGE('',*,*,#79,.T.);
#726=ORIENTED_EDGE('',*,*,#164,.T.);
#727=ORIENTED_EDGE('',*,*,#124,.F.);
#728=CARTESIAN_POINT('',(-1.710400172474271,0.987499999999999,3.1));
#729=VERTEX_POINT('',#728);
#730=CARTESIAN_POINT('',(-5.694608E-016,-6.016851E-016,3.1));
#731=DIRECTION('',(0.0,0.0,-1.0));
#732=DIRECTION('',(0.0,-1.0,0.0));
#733=AXIS2_PLACEMENT_3D('',#730,#731,#732);
#734=CIRCLE('',#733,1.975);
#735=EDGE_CURVE('',#109,#729,#734,.T.);
#736=ORIENTED_EDGE('',*,*,#735,.T.);
#737=CARTESIAN_POINT('',(-1.818462E-015,1.975,3.100000000000001));
#738=VERTEX_POINT('',#737);
#739=CARTESIAN_POINT('',(-5.694608E-016,-6.016851E-016,3.1));
#740=DIRECTION('',(0.0,0.0,-1.0));
#741=DIRECTION('',(0.0,-1.0,0.0));
#742=AXIS2_PLACEMENT_3D('',#739,#740,#741);
#743=CIRCLE('',#742,1.975);
#744=EDGE_CURVE('',#729,#738,#743,.T.);
#745=ORIENTED_EDGE('',*,*,#744,.T.);
#746=CARTESIAN_POINT('',(1.710400172474269,0.987500000000001,3.100000000000001));
#747=VERTEX_POINT('',#746);
#748=CARTESIAN_POINT('',(-5.694608E-016,-6.016851E-016,3.1));
#749=DIRECTION('',(0.0,0.0,-1.0));
#750=DIRECTION('',(0.0,-1.0,0.0));
#751=AXIS2_PLACEMENT_3D('',#748,#749,#750);
#752=CIRCLE('',#751,1.975);
#753=EDGE_CURVE('',#738,#747,#752,.T.);
#754=ORIENTED_EDGE('',*,*,#753,.T.);
#755=CARTESIAN_POINT('',(-5.694608E-016,-6.016851E-016,3.1));
#756=DIRECTION('',(0.0,0.0,-1.0));
#757=DIRECTION('',(0.0,-1.0,0.0));
#758=AXIS2_PLACEMENT_3D('',#755,#756,#757);
#759=CIRCLE('',#758,1.975);
#760=EDGE_CURVE('',#747,#71,#759,.T.);
#761=ORIENTED_EDGE('',*,*,#760,.T.);
#762=EDGE_LOOP('',(#725,#726,#727,#736,#745,#754,#761));
#763=FACE_OUTER_BOUND('',#762,.T.);
#764=ADVANCED_FACE('',(#763),#724,.T.);
#765=CARTESIAN_POINT('',(-4.4,-4.4,-1.347111E-015));
#766=DIRECTION('',(0.0,0.0,-1.0));
#767=DIRECTION('',(1.0,0.0,0.0));
#768=AXIS2_PLACEMENT_3D('',#765,#766,#767);
#769=PLANE('',#768);
#770=ORIENTED_EDGE('',*,*,#701,.F.);
#771=ORIENTED_EDGE('',*,*,#216,.F.);
#772=EDGE_LOOP('',(#770,#771));
#773=FACE_OUTER_BOUND('',#772,.T.);
#774=ADVANCED_FACE('',(#773),#769,.T.);
#775=CARTESIAN_POINT('',(-5.436942E-016,-5.845074E-016,2.959733218350487));
#776=DIRECTION('',(-1.836970E-016,-1.224647E-016,1.0));
#777=DIRECTION('',(0.0,-1.0,0.0));
#778=AXIS2_PLACEMENT_3D('',#775,#776,#777);
#779=CONICAL_SURFACE('',#778,1.732050807568886,60.000000000000121);
#780=ORIENTED_EDGE('',*,*,#638,.T.);
#781=CARTESIAN_POINT('',(-1.639427829064141,0.502727272727272,2.949759870761719));
#782=VERTEX_POINT('',#781);
#783=CARTESIAN_POINT('',(-2.206563790081246,-0.685006376389028,3.293669435640164));
#784=CARTESIAN_POINT('',(-2.096661092082355,-0.699878800758815,3.235615783274149));
#785=CARTESIAN_POINT('',(-1.985051697410078,-0.686890709805882,3.172477913743024));
#786=CARTESIAN_POINT('',(-1.821884502521927,-0.630429696493238,3.072792776917186));
#787=CARTESIAN_POINT('',(-1.75406848083294,-0.595141569894637,3.029047804041986));
#788=CARTESIAN_POINT('',(-1.632931136136784,-0.502343892444304,2.945999713959215));
#789=CARTESIAN_POINT('',(-1.579589008508877,-0.444821220652259,2.906741612442529));
#790=CARTESIAN_POINT('',(-1.504459533306994,-0.332001447961701,2.848910732504465));
#791=CARTESIAN_POINT('',(-1.47393322625949,-0.270414531423311,2.824152464808146));
#792=CARTESIAN_POINT('',(-1.432961965277338,-0.137868276641737,2.790083819191795));
#793=CARTESIAN_POINT('',(-1.4226162884624,-0.066799388557665,2.781081115447795));
#794=CARTESIAN_POINT('',(-1.4226162884624,0.066799388557662,2.781081115447795));
#795=CARTESIAN_POINT('',(-1.432961965277338,0.137868276641733,2.790083819191795));
#796=CARTESIAN_POINT('',(-1.47393322625949,0.270414531423308,2.824152464808146));
#797=CARTESIAN_POINT('',(-1.504459533306993,0.332001447961698,2.848910732504464));
#798=CARTESIAN_POINT('',(-1.579589008508876,0.444821220652257,2.906741612442528));
#799=CARTESIAN_POINT('',(-1.632931136136784,0.502343892444301,2.945999713959214));
#800=CARTESIAN_POINT('',(-1.75406848083294,0.595141569894635,3.029047804041985));
#801=CARTESIAN_POINT('',(-1.821884502521927,0.630429696493236,3.072792776917186));
#802=CARTESIAN_POINT('',(-1.887822396704439,0.653246294669104,3.113076781358747));
#803=CARTESIAN_POINT('',(-1.985051697410078,0.686890709805879,3.172477913743024));
#804=CARTESIAN_POINT('',(-2.096661095481781,0.699878885213579,3.235615798474651));
#805=CARTESIAN_POINT('',(-2.206563790081253,0.685006376389225,3.293669435640201));
#806=B_SPLINE_CURVE_WITH_KNOTS('',3,(#783,#784,#785,#786,#787,#788,#789,#790,#791,#792,#793,#794,#795,#796,#797,#798,#799,#800,#801,#802,#803,#804,#805),.UNSPECIFIED.,.F.,.U.,(4,2,2,2,2,2,2,2,2,3,4),(-2.124815563595091,-1.768408769289426,-1.52670474264006,-1.285000715990695,-1.084602550317705,-0.884204384644713,-0.683806218971722,-0.483408053298731,-0.241704026649366,0.0,0.356406794305665),.UNSPECIFIED.);
#807=EDGE_CURVE('',#605,#782,#806,.T.);
#808=ORIENTED_EDGE('',*,*,#807,.T.);
#809=CARTESIAN_POINT('',(-1.105895441376079,0.494774190469988,2.659210696380006));
#810=CARTESIAN_POINT('',(-1.137579406122923,0.466610481795707,2.669267954989816));
#811=CARTESIAN_POINT('',(-1.173371751973307,0.444399898952551,2.683984351376066));
#812=CARTESIAN_POINT('',(-1.248953219403624,0.410782708140801,2.718606014070075));
#813=CARTESIAN_POINT('',(-1.295112969876251,0.399104896625032,2.74211068101569));
#814=CARTESIAN_POINT('',(-1.387269356394135,0.392760549573622,2.792102983496398));
#815=CARTESIAN_POINT('',(-1.433280422754868,0.398089713367835,2.818563467418298));
#816=CARTESIAN_POINT('',(-1.528202790071751,0.424454141010504,2.875441520777998));
#817=CARTESIAN_POINT('',(-1.582738421758274,0.452743762069975,2.910068224287396));
#818=CARTESIAN_POINT('',(-1.674184913941602,0.532777022358402,2.973984753407772));
#819=CARTESIAN_POINT('',(-1.711047267849469,0.584521839956611,3.003342475503121));
#820=CARTESIAN_POINT('',(-1.755020894250345,0.692067917610503,3.048673102174295));
#821=CARTESIAN_POINT('',(-1.76627904479491,0.752879423196661,3.067785197395351));
#822=CARTESIAN_POINT('',(-1.758926502124815,0.874710632848266,3.09341594993857));
#823=CARTESIAN_POINT('',(-1.740297971379123,0.935715493262306,3.09999999999999));
#824=CARTESIAN_POINT('',(-1.680502373569405,1.039284506737692,3.09999999999999));
#825=CARTESIAN_POINT('',(-1.636984880069369,1.08591971780566,3.093415949938571));
#826=CARTESIAN_POINT('',(-1.535152228872339,1.153202811366173,3.067785197395351));
#827=CARTESIAN_POINT('',(-1.476858844920064,1.17385871978803,3.048673102174294));
#828=CARTESIAN_POINT('',(-1.361734396393981,1.189549481055292,3.00334247550312));
#829=CARTESIAN_POINT('',(-1.298490892885806,1.18349815492689,2.973984753407772));
#830=CARTESIAN_POINT('',(-1.183456810236672,1.144319799753367,2.910068224287397));
#831=CARTESIAN_POINT('',(-1.131689463892474,1.111235367831142,2.875441520777998));
#832=CARTESIAN_POINT('',(-1.091571576636705,1.071842569167155,2.842980069462898));
#833=B_SPLINE_CURVE_WITH_KNOTS('',3,(#809,#810,#811,#812,#813,#814,#815,#816,#817,#818,#819,#820,#821,#822,#823,#824,#825,#826,#827,#828,#829,#830,#831,#832),.UNSPECIFIED.,.F.,.U.,(4,2,2,2,2,2,2,2,2,2,2,4),(0.0,0.122520831903888,0.269020444171485,0.415520056439084,0.610288764329687,0.805057472220291,0.984444265649445,1.163831059078599,1.343217852507753,1.522604645936907,1.717373353827511,1.912142061718115),.UNSPECIFIED.);
#834=EDGE_CURVE('',#782,#729,#833,.T.);
#835=ORIENTED_EDGE('',*,*,#834,.T.);
#836=ORIENTED_EDGE('',*,*,#735,.F.);
#837=ORIENTED_EDGE('',*,*,#115,.F.);
#838=EDGE_LOOP('',(#780,#808,#835,#836,#837));
#839=FACE_OUTER_BOUND('',#838,.T.);
#840=ADVANCED_FACE('',(#839),#779,.F.);
#841=CARTESIAN_POINT('',(-5.436942E-016,-5.845074E-016,2.959733218350487));
#842=DIRECTION('',(-1.836970E-016,-1.224647E-016,1.0));
#843=DIRECTION('',(0.0,-1.0,0.0));
#844=AXIS2_PLACEMENT_3D('',#841,#842,#843);
#845=CONICAL_SURFACE('',#844,1.732050807568886,60.000000000000121);
#846=ORIENTED_EDGE('',*,*,#495,.T.);
#847=ORIENTED_EDGE('',*,*,#584,.T.);
#848=ORIENTED_EDGE('',*,*,#675,.T.);
#849=ORIENTED_EDGE('',*,*,#106,.F.);
#850=EDGE_LOOP('',(#846,#847,#848,#849));
#851=FACE_OUTER_BOUND('',#850,.T.);
#852=ADVANCED_FACE('',(#851),#845,.F.);
#853=CARTESIAN_POINT('',(-5.436942E-016,-5.845074E-016,2.959733218350487));
#854=DIRECTION('',(-1.836970E-016,-1.224647E-016,1.0));
#855=DIRECTION('',(0.0,-1.0,0.0));
#856=AXIS2_PLACEMENT_3D('',#853,#854,#855);
#857=CONICAL_SURFACE('',#856,1.732050807568886,60.000000000000121);
#858=ORIENTED_EDGE('',*,*,#353,.T.);
#859=ORIENTED_EDGE('',*,*,#432,.T.);
#860=ORIENTED_EDGE('',*,*,#532,.T.);
#861=ORIENTED_EDGE('',*,*,#97,.F.);
#862=EDGE_LOOP('',(#858,#859,#860,#861));
#863=FACE_OUTER_BOUND('',#862,.T.);
#864=ADVANCED_FACE('',(#863),#857,.F.);
#865=CARTESIAN_POINT('',(-5.436942E-016,-5.845074E-016,2.959733218350487));
#866=DIRECTION('',(-1.836970E-016,-1.224647E-016,1.0));
#867=DIRECTION('',(0.0,-1.0,0.0));
#868=AXIS2_PLACEMENT_3D('',#865,#866,#867);
#869=CONICAL_SURFACE('',#868,1.732050807568886,60.000000000000121);
#870=ORIENTED_EDGE('',*,*,#380,.T.);
#871=ORIENTED_EDGE('',*,*,#88,.F.);
#872=ORIENTED_EDGE('',*,*,#760,.F.);
#873=CARTESIAN_POINT('',(1.091571576636704,1.071842569167156,2.842980069462898));
#874=CARTESIAN_POINT('',(1.131689463892472,1.111235367831144,2.875441520777999));
#875=CARTESIAN_POINT('',(1.18345681023667,1.144319799753369,2.910068224287397));
#876=CARTESIAN_POINT('',(1.298490892885805,1.183498154926892,2.973984753407773));
#877=CARTESIAN_POINT('',(1.36173439639398,1.189549481055294,3.003342475503122));
#878=CARTESIAN_POINT('',(1.476858844920062,1.173858719788032,3.048673102174296));
#879=CARTESIAN_POINT('',(1.535152228872337,1.153202811366176,3.067785197395352));
#880=CARTESIAN_POINT('',(1.636984880069368,1.085919717805663,3.093415949938573));
#881=CARTESIAN_POINT('',(1.680502373569404,1.039284506737694,3.099999999999992));
#882=CARTESIAN_POINT('',(1.740297971379122,0.935715493262308,3.099999999999992));
#883=CARTESIAN_POINT('',(1.758926502124815,0.874710632848267,3.093415949938572));
#884=CARTESIAN_POINT('',(1.766279044794909,0.752879423196662,3.067785197395352));
#885=CARTESIAN_POINT('',(1.755020894250345,0.692067917610504,3.048673102174297));
#886=CARTESIAN_POINT('',(1.711047267849469,0.584521839956612,3.003342475503122));
#887=CARTESIAN_POINT('',(1.674184913941601,0.532777022358403,2.973984753407773));
#888=CARTESIAN_POINT('',(1.582738421758273,0.452743762069975,2.910068224287397));
#889=CARTESIAN_POINT('',(1.52820279007175,0.424454141010504,2.875441520777999));
#890=CARTESIAN_POINT('',(1.474028682074688,0.409407430832842,2.842980069462898));
#891=CARTESIAN_POINT('',(1.433280422754867,0.398089713367835,2.818563467418298));
#892=CARTESIAN_POINT('',(1.387269356394134,0.392760549573622,2.792102983496399));
#893=CARTESIAN_POINT('',(1.295112969876251,0.399104896625032,2.742110681015691));
#894=CARTESIAN_POINT('',(1.248953219403623,0.410782708140801,2.718606014070076));
#895=CARTESIAN_POINT('',(1.173371751973305,0.444399898952552,2.683984351376066));
#896=CARTESIAN_POINT('',(1.137579404587648,0.466610479288287,2.669267952804854));
#897=CARTESIAN_POINT('',(1.105895441376077,0.49477419046999,2.659210696380006));
#898=B_SPLINE_CURVE_WITH_KNOTS('',3,(#873,#874,#875,#876,#877,#878,#879,#880,#881,#882,#883,#884,#885,#886,#887,#888,#889,#890,#891,#892,#893,#894,#895,#896,#897),.UNSPECIFIED.,.F.,.U.,(4,2,2,2,2,2,2,2,3,2,2,4),(-0.415520056439084,-0.22075134854848,-0.025982640657876,0.153404152771278,0.332790946200432,0.512177739629587,0.691564533058741,0.886333240949346,1.08110194883995,1.227601561107548,1.374101173375147,1.496622005279034),.UNSPECIFIED.);
#899=EDGE_CURVE('',#747,#260,#898,.T.);
#900=ORIENTED_EDGE('',*,*,#899,.T.);
#901=ORIENTED_EDGE('',*,*,#285,.T.);
#902=EDGE_LOOP('',(#870,#871,#872,#900,#901));
#903=FACE_OUTER_BOUND('',#902,.T.);
#904=ADVANCED_FACE('',(#903),#869,.F.);
#905=CARTESIAN_POINT('',(-5.436942E-016,-5.845074E-016,2.959733218350487));
#906=DIRECTION('',(-1.836970E-016,-1.224647E-016,1.0));
#907=DIRECTION('',(0.0,-1.0,0.0));
#908=AXIS2_PLACEMENT_3D('',#905,#906,#907);
#909=CONICAL_SURFACE('',#908,1.732050807568886,60.000000000000121);
#910=CARTESIAN_POINT('',(1.25508850388915,1.16842251127708,2.94975987076172));
#911=VERTEX_POINT('',#910);
#912=CARTESIAN_POINT('',(1.474028682074688,0.409407430832842,2.842980069462898));
#913=CARTESIAN_POINT('',(1.433280422754867,0.398089713367835,2.818563467418298));
#914=CARTESIAN_POINT('',(1.387269356394134,0.392760549573622,2.792102983496399));
#915=CARTESIAN_POINT('',(1.295112969876251,0.399104896625032,2.742110681015691));
#916=CARTESIAN_POINT('',(1.248953219403623,0.410782708140801,2.718606014070076));
#917=CARTESIAN_POINT('',(1.173371751973305,0.444399898952552,2.683984351376066));
#918=CARTESIAN_POINT('',(1.137579406122921,0.466610481795708,2.669267954989815));
#919=CARTESIAN_POINT('',(1.074211476629232,0.52293789914427,2.649153437770195));
#920=CARTESIAN_POINT('',(1.046660242135204,0.557131282359476,2.643893287340188));
#921=CARTESIAN_POINT('',(1.005819964833908,0.627868717640522,2.643893287340188));
#922=CARTESIAN_POINT('',(0.989983243575217,0.668825478225576,2.649153437770195));
#923=CARTESIAN_POINT('',(0.972886233968638,0.751867423626613,2.669267954989815));
#924=CARTESIAN_POINT('',(0.971547477918798,0.793969795815662,2.683984351376066));
#925=CARTESIAN_POINT('',(0.980224870387112,0.876233862071498,2.718606014070076));
#926=CARTESIAN_POINT('',(0.993191464190163,0.922048284371029,2.742110681015691));
#927=CARTESIAN_POINT('',(1.033775291732159,1.005030229742199,2.792102983496398));
#928=CARTESIAN_POINT('',(1.061396016139242,1.042212400168699,2.818563467418298));
#929=CARTESIAN_POINT('',(1.131689463892472,1.111235367831144,2.875441520777999));
#930=CARTESIAN_POINT('',(1.18345681023667,1.144319799753369,2.910068224287397));
#931=CARTESIAN_POINT('',(1.298490892885805,1.183498154926892,2.973984753407773));
#932=CARTESIAN_POINT('',(1.36173439639398,1.189549481055294,3.003342475503122));
#933=CARTESIAN_POINT('',(1.476858844920062,1.173858719788032,3.048673102174296));
#934=CARTESIAN_POINT('',(1.535152228872337,1.153202811366176,3.067785197395352));
#935=CARTESIAN_POINT('',(1.636984880069368,1.085919717805663,3.093415949938573));
#936=CARTESIAN_POINT('',(1.680502373569404,1.039284506737694,3.099999999999992));
#937=CARTESIAN_POINT('',(1.740297971379122,0.935715493262308,3.099999999999992));
#938=CARTESIAN_POINT('',(1.758926502124815,0.874710632848267,3.093415949938572));
#939=CARTESIAN_POINT('',(1.766279044794909,0.752879423196662,3.067785197395352));
#940=CARTESIAN_POINT('',(1.755020894250345,0.692067917610504,3.048673102174297));
#941=CARTESIAN_POINT('',(1.711047267849469,0.584521839956612,3.003342475503122));
#942=CARTESIAN_POINT('',(1.674184913941601,0.532777022358403,2.973984753407773));
#943=CARTESIAN_POINT('',(1.582738421758273,0.452743762069975,2.910068224287397));
#944=CARTESIAN_POINT('',(1.52820279007175,0.424454141010504,2.875441520777999));
#945=CARTESIAN_POINT('',(1.474028682074688,0.409407430832842,2.842980069462898));
#946=B_SPLINE_CURVE_WITH_KNOTS('',3,(#912,#913,#914,#915,#916,#917,#918,#919,#920,#921,#922,#923,#924,#925,#926,#927,#928,#929,#930,#931,#932,#933,#934,#935,#936,#937,#938,#939,#940,#941,#942,#943,#944,#945),.UNSPECIFIED.,.T.,.U.,(4,2,2,2,2,2,2,2,2,2,2,2,2,2,2,2,4),(0.0,0.146499612267598,0.292999224535197,0.415520056439084,0.538040888342972,0.66056172024686,0.783082552150748,0.929582164418346,1.076081776685944,1.270850484576549,1.465619192467153,1.645005985896307,1.824392779325461,2.003779572754616,2.18316636618377,2.377935074074375,2.572703781964979),.UNSPECIFIED.);
#947=EDGE_CURVE('',#911,#747,#946,.T.);
#948=ORIENTED_EDGE('',*,*,#947,.T.);
#949=ORIENTED_EDGE('',*,*,#753,.F.);
#950=CARTESIAN_POINT('',(0.38433932517498,1.671149784004349,2.94975987076172));
#951=VERTEX_POINT('',#950);
#952=CARTESIAN_POINT('',(0.382457105437981,1.48125,2.8429800694629));
#953=CARTESIAN_POINT('',(0.371884406615622,1.440302113536536,2.8185634674183));
#954=CARTESIAN_POINT('',(0.353494064661973,1.397790779315823,2.792102983496401));
#955=CARTESIAN_POINT('',(0.301921505686085,1.321153180996063,2.742110681015693));
#956=CARTESIAN_POINT('',(0.268728349016508,1.287016570212302,2.718606014070078));
#957=CARTESIAN_POINT('',(0.201824274054505,1.238369694768216,2.683984351376068));
#958=CARTESIAN_POINT('',(0.164693172154282,1.218477905422323,2.669267954989818));
#959=CARTESIAN_POINT('',(0.084228233054013,1.191763377369848,2.649153437770197));
#960=CARTESIAN_POINT('',(0.040840277301295,1.185,2.643893287340191));
#961=CARTESIAN_POINT('',(-0.040840277301297,1.185,2.643893287340191));
#962=CARTESIAN_POINT('',(-0.084228233054016,1.191763377369848,2.649153437770198));
#963=CARTESIAN_POINT('',(-0.164693172154285,1.218477905422323,2.669267954989818));
#964=CARTESIAN_POINT('',(-0.201824274054508,1.238369694768215,2.683984351376068));
#965=CARTESIAN_POINT('',(-0.268728349016511,1.287016570212301,2.718606014070078));
#966=CARTESIAN_POINT('',(-0.301921505686088,1.321153180996063,2.742110681015693));
#967=CARTESIAN_POINT('',(-0.353494064661976,1.397790779315823,2.7921029834964));
#968=CARTESIAN_POINT('',(-0.371884406615625,1.440302113536535,2.8185634674183));
#969=CARTESIAN_POINT('',(-0.396513326179278,1.535689508841648,2.875441520778));
#970=CARTESIAN_POINT('',(-0.399281611521603,1.597063561823344,2.910068224287398));
#971=CARTESIAN_POINT('',(-0.375694021055796,1.716275177285294,2.973984753407774));
#972=CARTESIAN_POINT('',(-0.349312871455489,1.774071321011905,3.003342475503123));
#973=CARTESIAN_POINT('',(-0.278162049330283,1.865926637398535,3.048673102174297));
#974=CARTESIAN_POINT('',(-0.231126815922573,1.906082234562837,3.067785197395354));
#975=CARTESIAN_POINT('',(-0.121941622055448,1.960630350653929,3.093415949938574));
#976=CARTESIAN_POINT('',(-0.05979559780972,1.975,3.099999999999993));
#977=CARTESIAN_POINT('',(0.059795597809716,1.975,3.099999999999993));
#978=CARTESIAN_POINT('',(0.121941622055445,1.960630350653929,3.093415949938574));
#979=CARTESIAN_POINT('',(0.231126815922569,1.906082234562837,3.067785197395354));
#980=CARTESIAN_POINT('',(0.278162049330279,1.865926637398535,3.048673102174297));
#981=CARTESIAN_POINT('',(0.349312871455486,1.774071321011905,3.003342475503123));
#982=CARTESIAN_POINT('',(0.375694021055793,1.716275177285295,2.973984753407774));
#983=CARTESIAN_POINT('',(0.3992816115216,1.597063561823344,2.910068224287398));
#984=CARTESIAN_POINT('',(0.396513326179275,1.535689508841649,2.875441520778));
#985=CARTESIAN_POINT('',(0.382457105437981,1.48125,2.8429800694629));
#986=B_SPLINE_CURVE_WITH_KNOTS('',3,(#952,#953,#954,#955,#956,#957,#958,#959,#960,#961,#962,#963,#964,#965,#966,#967,#968,#969,#970,#971,#972,#973,#974,#975,#976,#977,#978,#979,#980,#981,#982,#983,#984,#985),.UNSPECIFIED.,.T.,.U.,(4,2,2,2,2,2,2,2,2,2,2,2,2,2,2,2,4),(0.0,0.146499612267598,0.292999224535196,0.415520056439084,0.538040888342972,0.660561720246859,0.783082552150747,0.929582164418345,1.076081776685943,1.270850484576547,1.46561919246715,1.645005985896304,1.824392779325458,2.003779572754612,2.183166366183766,2.377935074074369,2.572703781964973),.UNSPECIFIED.);
#987=EDGE_CURVE('',#738,#951,#986,.T.);
#988=ORIENTED_EDGE('',*,*,#987,.T.);
#989=CARTESIAN_POINT('',(0.5100489713334,2.253443485475741,3.293669435640163));
#990=CARTESIAN_POINT('',(0.442217725013857,2.165701169249146,3.235615783274148));
#991=CARTESIAN_POINT('',(0.397661044389621,2.062550552685485,3.172477913743023));
#992=CARTESIAN_POINT('',(0.364974118797706,1.893013110191778,3.072792776917185));
#993=CARTESIAN_POINT('',(0.361626522039563,1.816638649326218,3.029047804041985));
#994=CARTESIAN_POINT('',(0.381422995775668,1.665331792747189,2.945999713959213));
#995=CARTESIAN_POINT('',(0.404568027027179,1.590374819233486,2.906741612442527));
#996=CARTESIAN_POINT('',(0.464708078625447,1.468900898790383,2.848910732504463));
#997=CARTESIAN_POINT('',(0.502780759364693,1.411670883134326,2.824152464808144));
#998=CARTESIAN_POINT('',(0.597083552690945,1.309915602907914,2.790083819191794));
#999=CARTESIAN_POINT('',(0.653458176782995,1.265421539924799,2.781081115447795));
#1000=CARTESIAN_POINT('',(0.769158111679403,1.198622151367135,2.781081115447795));
#1001=CARTESIAN_POINT('',(0.835878412586391,1.172047326266179,2.790083819191795));
#1002=CARTESIAN_POINT('',(0.971152466894795,1.141256351711017,2.824152464808145));
#1003=CARTESIAN_POINT('',(1.039751454681545,1.136899450828684,2.848910732504463));
#1004=CARTESIAN_POINT('',(1.175020981481695,1.145553598581228,2.906741612442527));
#1005=CARTESIAN_POINT('',(1.251508140361114,1.162987900302886,2.945999713959214));
#1006=CARTESIAN_POINT('',(1.392441958793375,1.221497079431582,3.029047804041985));
#1007=CARTESIAN_POINT('',(1.456910383724218,1.262583413698541,3.072792776917185));
#1008=CARTESIAN_POINT('',(1.509639084463718,1.308279006044712,3.113076781358746));
#1009=CARTESIAN_POINT('',(1.587390653020455,1.375659842879604,3.172477913743023));
#1010=CARTESIAN_POINT('',(1.654443441908183,1.465822329206939,3.235615798474651));
#1011=CARTESIAN_POINT('',(1.69651481874802,1.568437109086621,3.293669435640201));
#1012=B_SPLINE_CURVE_WITH_KNOTS('',3,(#989,#990,#991,#992,#993,#994,#995,#996,#997,#998,#999,#1000,#1001,#1002,#1003,#1004,#1005,#1006,#1007,#1008,#1009,#1010,#1011),.UNSPECIFIED.,.F.,.U.,(4,2,2,2,2,2,2,2,2,3,4),(-2.124815563595089,-1.768408769289424,-1.526704742640059,-1.285000715990694,-1.084602550317703,-0.884204384644713,-0.683806218971722,-0.483408053298731,-0.241704026649366,0.0,0.356406794305664),.UNSPECIFIED.);
#1013=EDGE_CURVE('',#951,#911,#1012,.T.);
#1014=ORIENTED_EDGE('',*,*,#1013,.T.);
#1015=EDGE_LOOP('',(#948,#949,#988,#1014));
#1016=FACE_OUTER_BOUND('',#1015,.T.);
#1017=ADVANCED_FACE('',(#1016),#909,.F.);
#1018=CARTESIAN_POINT('',(-5.436942E-016,-5.845074E-016,2.959733218350487));
#1019=DIRECTION('',(-1.836970E-016,-1.224647E-016,1.0));
#1020=DIRECTION('',(0.0,-1.0,0.0));
#1021=AXIS2_PLACEMENT_3D('',#1018,#1019,#1020);
#1022=CONICAL_SURFACE('',#1021,1.732050807568886,60.000000000000121);
#1023=CARTESIAN_POINT('',(-0.384339325174984,1.671149784004349,2.94975987076172));
#1024=VERTEX_POINT('',#1023);
#1025=CARTESIAN_POINT('',(0.382457105437981,1.48125,2.8429800694629));
#1026=CARTESIAN_POINT('',(0.371884406615622,1.440302113536536,2.8185634674183));
#1027=CARTESIAN_POINT('',(0.353494064661973,1.397790779315823,2.792102983496401));
#1028=CARTESIAN_POINT('',(0.301921505686085,1.321153180996063,2.742110681015693));
#1029=CARTESIAN_POINT('',(0.268728349016508,1.287016570212302,2.718606014070078));
#1030=CARTESIAN_POINT('',(0.201824274054505,1.238369694768216,2.683984351376068));
#1031=CARTESIAN_POINT('',(0.164693172154282,1.218477905422323,2.669267954989818));
#1032=CARTESIAN_POINT('',(0.084228233054013,1.191763377369848,2.649153437770197));
#1033=CARTESIAN_POINT('',(0.040840277301295,1.185,2.643893287340191));
#1034=CARTESIAN_POINT('',(-0.040840277301297,1.185,2.643893287340191));
#1035=CARTESIAN_POINT('',(-0.084228233054016,1.191763377369848,2.649153437770198));
#1036=CARTESIAN_POINT('',(-0.164693172154285,1.218477905422323,2.669267954989818));
#1037=CARTESIAN_POINT('',(-0.201824274054508,1.238369694768215,2.683984351376068));
#1038=CARTESIAN_POINT('',(-0.268728349016511,1.287016570212301,2.718606014070078));
#1039=CARTESIAN_POINT('',(-0.301921505686088,1.321153180996063,2.742110681015693));
#1040=CARTESIAN_POINT('',(-0.353494064661976,1.397790779315823,2.7921029834964));
#1041=CARTESIAN_POINT('',(-0.371884406615625,1.440302113536535,2.8185634674183));
#1042=CARTESIAN_POINT('',(-0.396513326179278,1.535689508841648,2.875441520778));
#1043=CARTESIAN_POINT('',(-0.399281611521603,1.597063561823344,2.910068224287398));
#1044=CARTESIAN_POINT('',(-0.375694021055796,1.716275177285294,2.973984753407774));
#1045=CARTESIAN_POINT('',(-0.349312871455489,1.774071321011905,3.003342475503123));
#1046=CARTESIAN_POINT('',(-0.278162049330283,1.865926637398535,3.048673102174297));
#1047=CARTESIAN_POINT('',(-0.231126815922573,1.906082234562837,3.067785197395354));
#1048=CARTESIAN_POINT('',(-0.121941622055448,1.960630350653929,3.093415949938574));
#1049=CARTESIAN_POINT('',(-0.05979559780972,1.975,3.099999999999993));
#1050=CARTESIAN_POINT('',(0.059795597809716,1.975,3.099999999999993));
#1051=CARTESIAN_POINT('',(0.121941622055445,1.960630350653929,3.093415949938574));
#1052=CARTESIAN_POINT('',(0.231126815922569,1.906082234562837,3.067785197395354));
#1053=CARTESIAN_POINT('',(0.278162049330279,1.865926637398535,3.048673102174297));
#1054=CARTESIAN_POINT('',(0.349312871455486,1.774071321011905,3.003342475503123));
#1055=CARTESIAN_POINT('',(0.375694021055793,1.716275177285295,2.973984753407774));
#1056=CARTESIAN_POINT('',(0.3992816115216,1.597063561823344,2.910068224287398));
#1057=CARTESIAN_POINT('',(0.396513326179275,1.535689508841649,2.875441520778));
#1058=CARTESIAN_POINT('',(0.382457105437981,1.48125,2.8429800694629));
#1059=B_SPLINE_CURVE_WITH_KNOTS('',3,(#1025,#1026,#1027,#1028,#1029,#1030,#1031,#1032,#1033,#1034,#1035,#1036,#1037,#1038,#1039,#1040,#1041,#1042,#1043,#1044,#1045,#1046,#1047,#1048,#1049,#1050,#1051,#1052,#1053,#1054,#1055,#1056,#1057,#1058),.UNSPECIFIED.,.T.,.U.,(4,2,2,2,2,2,2,2,2,2,2,2,2,2,2,2,4),(0.0,0.146499612267598,0.292999224535196,0.415520056439084,0.538040888342972,0.660561720246859,0.783082552150747,0.929582164418345,1.076081776685943,1.270850484576547,1.46561919246715,1.645005985896304,1.824392779325458,2.003779572754612,2.183166366183766,2.377935074074369,2.572703781964973),.UNSPECIFIED.);
#1060=EDGE_CURVE('',#1024,#738,#1059,.T.);
#1061=ORIENTED_EDGE('',*,*,#1060,.T.);
#1062=ORIENTED_EDGE('',*,*,#744,.F.);
#1063=CARTESIAN_POINT('',(-1.25508850388915,1.16842251127708,2.949759870761719));
#1064=VERTEX_POINT('',#1063);
#1065=CARTESIAN_POINT('',(-1.091571576636705,1.071842569167155,2.842980069462898));
#1066=CARTESIAN_POINT('',(-1.061396016139244,1.042212400168698,2.818563467418298));
#1067=CARTESIAN_POINT('',(-1.033775291732161,1.005030229742198,2.792102983496398));
#1068=CARTESIAN_POINT('',(-0.993191464190165,0.922048284371028,2.74211068101569));
#1069=CARTESIAN_POINT('',(-0.980224870387114,0.876233862071497,2.718606014070076));
#1070=CARTESIAN_POINT('',(-0.9715474779188,0.793969795815661,2.683984351376067));
#1071=CARTESIAN_POINT('',(-0.97288623396864,0.751867423626613,2.669267954989816));
#1072=CARTESIAN_POINT('',(-0.989983243575219,0.668825478225575,2.649153437770195));
#1073=CARTESIAN_POINT('',(-1.00581996483391,0.627868717640521,2.643893287340188));
#1074=CARTESIAN_POINT('',(-1.046660242135205,0.557131282359475,2.643893287340188));
#1075=CARTESIAN_POINT('',(-1.074211476629234,0.522937899144269,2.649153437770196));
#1076=CARTESIAN_POINT('',(-1.137579406122923,0.466610481795707,2.669267954989816));
#1077=CARTESIAN_POINT('',(-1.173371751973307,0.444399898952551,2.683984351376066));
#1078=CARTESIAN_POINT('',(-1.248953219403624,0.410782708140801,2.718606014070075));
#1079=CARTESIAN_POINT('',(-1.295112969876251,0.399104896625032,2.74211068101569));
#1080=CARTESIAN_POINT('',(-1.387269356394135,0.392760549573622,2.792102983496398));
#1081=CARTESIAN_POINT('',(-1.433280422754868,0.398089713367835,2.818563467418298));
#1082=CARTESIAN_POINT('',(-1.528202790071751,0.424454141010504,2.875441520777998));
#1083=CARTESIAN_POINT('',(-1.582738421758274,0.452743762069975,2.910068224287396));
#1084=CARTESIAN_POINT('',(-1.674184913941602,0.532777022358402,2.973984753407772));
#1085=CARTESIAN_POINT('',(-1.711047267849469,0.584521839956611,3.003342475503121));
#1086=CARTESIAN_POINT('',(-1.755020894250345,0.692067917610503,3.048673102174295));
#1087=CARTESIAN_POINT('',(-1.76627904479491,0.752879423196661,3.067785197395351));
#1088=CARTESIAN_POINT('',(-1.758926502124815,0.874710632848266,3.09341594993857));
#1089=CARTESIAN_POINT('',(-1.740297971379123,0.935715493262306,3.09999999999999));
#1090=CARTESIAN_POINT('',(-1.680502373569405,1.039284506737692,3.09999999999999));
#1091=CARTESIAN_POINT('',(-1.636984880069369,1.08591971780566,3.093415949938571));
#1092=CARTESIAN_POINT('',(-1.535152228872339,1.153202811366173,3.067785197395351));
#1093=CARTESIAN_POINT('',(-1.476858844920064,1.17385871978803,3.048673102174294));
#1094=CARTESIAN_POINT('',(-1.361734396393981,1.189549481055292,3.00334247550312));
#1095=CARTESIAN_POINT('',(-1.298490892885806,1.18349815492689,2.973984753407772));
#1096=CARTESIAN_POINT('',(-1.183456810236672,1.144319799753367,2.910068224287397));
#1097=CARTESIAN_POINT('',(-1.131689463892474,1.111235367831142,2.875441520777998));
#1098=CARTESIAN_POINT('',(-1.091571576636705,1.071842569167155,2.842980069462898));
#1099=B_SPLINE_CURVE_WITH_KNOTS('',3,(#1065,#1066,#1067,#1068,#1069,#1070,#1071,#1072,#1073,#1074,#1075,#1076,#1077,#1078,#1079,#1080,#1081,#1082,#1083,#1084,#1085,#1086,#1087,#1088,#1089,#1090,#1091,#1092,#1093,#1094,#1095,#1096,#1097,#1098),.UNSPECIFIED.,.T.,.U.,(4,2,2,2,2,2,2,2,2,2,2,2,2,2,2,2,4),(0.0,0.146499612267598,0.292999224535196,0.415520056439084,0.538040888342971,0.660561720246859,0.783082552150746,0.929582164418344,1.076081776685942,1.270850484576546,1.46561919246715,1.645005985896304,1.824392779325458,2.003779572754612,2.183166366183766,2.37793507407437,2.572703781964973),.UNSPECIFIED.);
#1100=EDGE_CURVE('',#729,#1064,#1099,.T.);
#1101=ORIENTED_EDGE('',*,*,#1100,.T.);
#1102=CARTESIAN_POINT('',(-1.696514818747844,1.568437109086714,3.293669435640163));
#1103=CARTESIAN_POINT('',(-1.654443367068497,1.465822368490333,3.235615783274148));
#1104=CARTESIAN_POINT('',(-1.587390653020456,1.375659842879604,3.172477913743022));
#1105=CARTESIAN_POINT('',(-1.45691038372422,1.262583413698541,3.072792776917184));
#1106=CARTESIAN_POINT('',(-1.392441958793376,1.221497079431582,3.029047804041984));
#1107=CARTESIAN_POINT('',(-1.251508140361116,1.162987900302886,2.945999713959213));
#1108=CARTESIAN_POINT('',(-1.175020981481697,1.145553598581228,2.906741612442527));
#1109=CARTESIAN_POINT('',(-1.039751454681546,1.136899450828684,2.848910732504463));
#1110=CARTESIAN_POINT('',(-0.971152466894796,1.141256351711017,2.824152464808144));
#1111=CARTESIAN_POINT('',(-0.835878412586392,1.172047326266179,2.790083819191794));
#1112=CARTESIAN_POINT('',(-0.769158111679404,1.198622151367135,2.781081115447795));
#1113=CARTESIAN_POINT('',(-0.653458176782996,1.265421539924798,2.781081115447795));
#1114=CARTESIAN_POINT('',(-0.597083552690946,1.309915602907914,2.790083819191794));
#1115=CARTESIAN_POINT('',(-0.502780759364694,1.411670883134327,2.824152464808144));
#1116=CARTESIAN_POINT('',(-0.464708078625448,1.468900898790384,2.848910732504463));
#1117=CARTESIAN_POINT('',(-0.40456802702718,1.590374819233487,2.906741612442527));
#1118=CARTESIAN_POINT('',(-0.381422995775669,1.665331792747189,2.945999713959214));
#1119=CARTESIAN_POINT('',(-0.361626522039564,1.816638649326218,3.029047804041985));
#1120=CARTESIAN_POINT('',(-0.364974118797707,1.893013110191777,3.072792776917185));
#1121=CARTESIAN_POINT('',(-0.37818331224072,1.961525300713817,3.113076781358746));
#1122=CARTESIAN_POINT('',(-0.397661044389622,2.062550552685484,3.172477913743023));
#1123=CARTESIAN_POINT('',(-0.442217653573597,2.165701214420519,3.235615798474651));
#1124=CARTESIAN_POINT('',(-0.510048971333232,2.253443485475847,3.2936694356402));
#1125=B_SPLINE_CURVE_WITH_KNOTS('',3,(#1102,#1103,#1104,#1105,#1106,#1107,#1108,#1109,#1110,#1111,#1112,#1113,#1114,#1115,#1116,#1117,#1118,#1119,#1120,#1121,#1122,#1123,#1124),.UNSPECIFIED.,.F.,.U.,(4,2,2,2,2,2,2,2,2,3,4),(-2.124815563595089,-1.768408769289425,-1.526704742640059,-1.285000715990694,-1.084602550317703,-0.884204384644712,-0.683806218971721,-0.483408053298731,-0.241704026649366,0.0,0.356406794305664),.UNSPECIFIED.);
#1126=EDGE_CURVE('',#1064,#1024,#1125,.T.);
#1127=ORIENTED_EDGE('',*,*,#1126,.T.);
#1128=EDGE_LOOP('',(#1061,#1062,#1101,#1127));
#1129=FACE_OUTER_BOUND('',#1128,.T.);
#1130=ADVANCED_FACE('',(#1129),#1022,.F.);
#1131=CARTESIAN_POINT('',(1.0569331442312,1.83066190601196,1.029647177682105));
#1132=DIRECTION('',(-1.836970E-016,-1.224647E-016,1.0));
#1133=DIRECTION('',(-0.97301094981008,-0.230758946846457,-2.069990E-016));
#1134=AXIS2_PLACEMENT_3D('',#1131,#1132,#1133);
#1135=CYLINDRICAL_SURFACE('',#1134,0.69125);
#1136=CARTESIAN_POINT('',(1.25508850388915,1.16842251127708,1.439999999999997));
#1137=VERTEX_POINT('',#1136);
#1138=CARTESIAN_POINT('',(0.384339325174981,1.67114978400435,1.439999999999997));
#1139=VERTEX_POINT('',#1138);
#1140=CARTESIAN_POINT('',(1.0569331442312,1.83066190601196,1.439999999999997));
#1141=DIRECTION('',(2.014123E-016,4.776688E-017,-1.0));
#1142=DIRECTION('',(-0.97301094981008,-0.230758946846457,-2.069990E-016));
#1143=AXIS2_PLACEMENT_3D('',#1140,#1141,#1142);
#1144=CIRCLE('',#1143,0.69125);
#1145=EDGE_CURVE('',#1137,#1139,#1144,.T.);
#1146=ORIENTED_EDGE('',*,*,#1145,.F.);
#1147=CARTESIAN_POINT('',(1.25508850388915,1.16842251127708,2.94975987076172));
#1148=DIRECTION('',(0.0,0.0,-1.0));
#1149=VECTOR('',#1148,1.509759870761723);
#1150=LINE('',#1147,#1149);
#1151=EDGE_CURVE('',#911,#1137,#1150,.T.);
#1152=ORIENTED_EDGE('',*,*,#1151,.F.);
#1153=ORIENTED_EDGE('',*,*,#1013,.F.);
#1154=CARTESIAN_POINT('',(0.38433932517498,1.671149784004349,2.94975987076172));
#1155=DIRECTION('',(0.0,0.0,-1.0));
#1156=VECTOR('',#1155,1.509759870761723);
#1157=LINE('',#1154,#1156);
#1158=EDGE_CURVE('',#951,#1139,#1157,.T.);
#1159=ORIENTED_EDGE('',*,*,#1158,.T.);
#1160=EDGE_LOOP('',(#1146,#1152,#1153,#1159));
#1161=FACE_OUTER_BOUND('',#1160,.T.);
#1162=ADVANCED_FACE('',(#1161),#1135,.T.);
#1163=CARTESIAN_POINT('',(-1.219499E-015,1.58,1.199247864299806));
#1164=DIRECTION('',(-1.836970E-016,-1.224647E-016,1.0));
#1165=DIRECTION('',(-0.97301094981008,0.230758946846456,-1.504794E-016));
#1166=AXIS2_PLACEMENT_3D('',#1163,#1164,#1165);
#1167=CYLINDRICAL_SURFACE('',#1166,0.395);
#1168=CARTESIAN_POINT('',(-0.384339325174983,1.67114978400435,1.439999999999997));
#1169=VERTEX_POINT('',#1168);
#1170=CARTESIAN_POINT('',(-1.263724E-015,1.58,1.439999999999997));
#1171=DIRECTION('',(-1.464181E-016,3.472447E-017,1.0));
#1172=DIRECTION('',(-0.97301094981008,0.230758946846456,-1.504794E-016));
#1173=AXIS2_PLACEMENT_3D('',#1170,#1171,#1172);
#1174=CIRCLE('',#1173,0.395);
#1175=EDGE_CURVE('',#1139,#1169,#1174,.T.);
#1176=ORIENTED_EDGE('',*,*,#1175,.F.);
#1177=ORIENTED_EDGE('',*,*,#1158,.F.);
#1178=ORIENTED_EDGE('',*,*,#987,.F.);
#1179=ORIENTED_EDGE('',*,*,#1060,.F.);
#1180=CARTESIAN_POINT('',(-0.384339325174984,1.671149784004349,2.94975987076172));
#1181=DIRECTION('',(0.0,0.0,-1.0));
#1182=VECTOR('',#1181,1.509759870761723);
#1183=LINE('',#1180,#1182);
#1184=EDGE_CURVE('',#1024,#1169,#1183,.T.);
#1185=ORIENTED_EDGE('',*,*,#1184,.T.);
#1186=EDGE_LOOP('',(#1176,#1177,#1178,#1179,#1185));
#1187=FACE_OUTER_BOUND('',#1186,.T.);
#1188=ADVANCED_FACE('',(#1187),#1167,.F.);
#1189=CARTESIAN_POINT('',(-1.0569331442312,1.83066190601196,1.029647177682104));
#1190=DIRECTION('',(-1.836970E-016,-1.224647E-016,1.0));
#1191=DIRECTION('',(-0.286662364785465,-0.958031674119183,-1.699841E-016));
#1192=AXIS2_PLACEMENT_3D('',#1189,#1190,#1191);
#1193=CYLINDRICAL_SURFACE('',#1192,0.69125);
#1194=CARTESIAN_POINT('',(-1.25508850388915,1.16842251127708,1.439999999999996));
#1195=VERTEX_POINT('',#1194);
#1196=CARTESIAN_POINT('',(-1.0569331442312,1.83066190601196,1.439999999999997));
#1197=DIRECTION('',(4.872803E-017,1.628501E-016,-1.0));
#1198=DIRECTION('',(-0.286662364785465,-0.958031674119183,-1.699841E-016));
#1199=AXIS2_PLACEMENT_3D('',#1196,#1197,#1198);
#1200=CIRCLE('',#1199,0.69125);
#1201=EDGE_CURVE('',#1169,#1195,#1200,.T.);
#1202=ORIENTED_EDGE('',*,*,#1201,.F.);
#1203=ORIENTED_EDGE('',*,*,#1184,.F.);
#1204=ORIENTED_EDGE('',*,*,#1126,.F.);
#1205=CARTESIAN_POINT('',(-1.25508850388915,1.16842251127708,2.949759870761719));
#1206=DIRECTION('',(0.0,0.0,-1.0));
#1207=VECTOR('',#1206,1.509759870761723);
#1208=LINE('',#1205,#1207);
#1209=EDGE_CURVE('',#1064,#1195,#1208,.T.);
#1210=ORIENTED_EDGE('',*,*,#1209,.T.);
#1211=EDGE_LOOP('',(#1202,#1203,#1204,#1210));
#1212=FACE_OUTER_BOUND('',#1211,.T.);
#1213=ADVANCED_FACE('',(#1212),#1193,.T.);
#1214=CARTESIAN_POINT('',(-1.36832013797941,0.789999999999999,1.199247864299806));
#1215=DIRECTION('',(-1.836970E-016,-1.224647E-016,1.0));
#1216=DIRECTION('',(-0.686348585024615,-0.727272727272726,-2.151454E-016));
#1217=AXIS2_PLACEMENT_3D('',#1214,#1215,#1216);
#1218=CYLINDRICAL_SURFACE('',#1217,0.395);
#1219=CARTESIAN_POINT('',(-1.63942782906414,0.502727272727272,1.439999999999996));
#1220=VERTEX_POINT('',#1219);
#1221=CARTESIAN_POINT('',(-1.36832013797941,0.789999999999999,1.439999999999997));
#1222=DIRECTION('',(-1.476647E-016,-1.564694E-016,1.0));
#1223=DIRECTION('',(-0.686348585024615,-0.727272727272726,-2.151454E-016));
#1224=AXIS2_PLACEMENT_3D('',#1221,#1222,#1223);
#1225=CIRCLE('',#1224,0.395);
#1226=EDGE_CURVE('',#1195,#1220,#1225,.T.);
#1227=ORIENTED_EDGE('',*,*,#1226,.F.);
#1228=ORIENTED_EDGE('',*,*,#1209,.F.);
#1229=ORIENTED_EDGE('',*,*,#1100,.F.);
#1230=ORIENTED_EDGE('',*,*,#834,.F.);
#1231=CARTESIAN_POINT('',(-1.639427829064141,0.502727272727272,2.949759870761719));
#1232=DIRECTION('',(0.0,0.0,-1.0));
#1233=VECTOR('',#1232,1.509759870761724);
#1234=LINE('',#1231,#1233);
#1235=EDGE_CURVE('',#782,#1220,#1234,.T.);
#1236=ORIENTED_EDGE('',*,*,#1235,.T.);
#1237=EDGE_LOOP('',(#1227,#1228,#1229,#1230,#1236));
#1238=FACE_OUTER_BOUND('',#1237,.T.);
#1239=ADVANCED_FACE('',(#1238),#1218,.F.);
#1240=CARTESIAN_POINT('',(1.36832013797941,0.79,1.199247864299806));
#1241=DIRECTION('',(-1.836970E-016,-1.224647E-016,1.0));
#1242=DIRECTION('',(-0.286662364785465,0.958031674119183,6.466602E-017));
#1243=AXIS2_PLACEMENT_3D('',#1240,#1241,#1242);
#1244=CYLINDRICAL_SURFACE('',#1243,0.395000000000001);
#1245=CARTESIAN_POINT('',(1.36832013797941,0.79,1.439999999999997));
#1246=DIRECTION('',(1.853731E-017,-6.195210E-017,1.0));
#1247=DIRECTION('',(-0.286662364785465,0.958031674119183,6.466602E-017));
#1248=AXIS2_PLACEMENT_3D('',#1245,#1246,#1247);
#1249=CIRCLE('',#1248,0.395000000000001);
#1250=EDGE_CURVE('',#243,#1137,#1249,.T.);
#1251=ORIENTED_EDGE('',*,*,#1250,.F.);
#1252=ORIENTED_EDGE('',*,*,#291,.F.);
#1253=ORIENTED_EDGE('',*,*,#899,.F.);
#1254=ORIENTED_EDGE('',*,*,#947,.F.);
#1255=ORIENTED_EDGE('',*,*,#1151,.T.);
#1256=EDGE_LOOP('',(#1251,#1252,#1253,#1254,#1255));
#1257=FACE_OUTER_BOUND('',#1256,.T.);
#1258=ADVANCED_FACE('',(#1257),#1244,.F.);
#1259=CARTESIAN_POINT('',(-2.1138662884624,-1.125296E-015,1.029647177682104));
#1260=DIRECTION('',(-1.836970E-016,-1.224647E-016,1.0));
#1261=DIRECTION('',(0.686348585024614,-0.727272727272727,3.701497E-017));
#1262=AXIS2_PLACEMENT_3D('',#1259,#1260,#1261);
#1263=CYLINDRICAL_SURFACE('',#1262,0.69125);
#1264=CARTESIAN_POINT('',(-2.1138662884624,-1.175550E-015,1.439999999999996));
#1265=DIRECTION('',(2.540517E-017,-2.691998E-017,-1.0));
#1266=DIRECTION('',(0.686348585024614,-0.727272727272727,3.701497E-017));
#1267=AXIS2_PLACEMENT_3D('',#1264,#1265,#1266);
#1268=CIRCLE('',#1267,0.69125);
#1269=EDGE_CURVE('',#1220,#596,#1268,.T.);
#1270=ORIENTED_EDGE('',*,*,#1269,.F.);
#1271=ORIENTED_EDGE('',*,*,#1235,.F.);
#1272=ORIENTED_EDGE('',*,*,#807,.F.);
#1273=ORIENTED_EDGE('',*,*,#610,.T.);
#1274=EDGE_LOOP('',(#1270,#1271,#1272,#1273));
#1275=FACE_OUTER_BOUND('',#1274,.T.);
#1276=ADVANCED_FACE('',(#1275),#1263,.T.);
#1277=CARTESIAN_POINT('',(4.859347E-016,-1.195483E-015,1.439999999999997));
#1278=DIRECTION('',(0.0,0.0,1.0));
#1279=DIRECTION('',(1.0,0.0,0.0));
#1280=AXIS2_PLACEMENT_3D('',#1277,#1278,#1279);
#1281=PLANE('',#1280);
#1282=ORIENTED_EDGE('',*,*,#602,.T.);
#1283=ORIENTED_EDGE('',*,*,#550,.T.);
#1284=ORIENTED_EDGE('',*,*,#450,.T.);
#1285=ORIENTED_EDGE('',*,*,#398,.T.);
#1286=ORIENTED_EDGE('',*,*,#308,.T.);
#1287=ORIENTED_EDGE('',*,*,#249,.T.);
#1288=ORIENTED_EDGE('',*,*,#1250,.T.);
#1289=ORIENTED_EDGE('',*,*,#1145,.T.);
#1290=ORIENTED_EDGE('',*,*,#1175,.T.);
#1291=ORIENTED_EDGE('',*,*,#1201,.T.);
#1292=ORIENTED_EDGE('',*,*,#1226,.T.);
#1293=ORIENTED_EDGE('',*,*,#1269,.T.);
#1294=EDGE_LOOP('',(#1282,#1283,#1284,#1285,#1286,#1287,#1288,#1289,#1290,#1291,#1292,#1293));
#1295=FACE_OUTER_BOUND('',#1294,.T.);
#1296=ADVANCED_FACE('',(#1295),#1281,.T.);
#1297=CLOSED_SHELL('',(#144,#193,#234,#295,#385,#437,#537,#589,#680,#705,#719,#764,#774,#840,#852,#864,#904,#1017,#1130,#1162,#1188,#1213,#1239,#1258,#1276,#1296));
#1298=MANIFOLD_SOLID_BREP('43C9',#1297);
#1299=COLOUR_RGB('254',0.866,0.866,0.866);
#1300=SURFACE_STYLE_USAGE(.BOTH.,#1301);
#1301=SURFACE_SIDE_STYLE('NONE',(#1302));
#1302=SURFACE_STYLE_FILL_AREA(#1303);
#1303=FILL_AREA_STYLE('NONE',(#1304));
#1304=FILL_AREA_STYLE_COLOUR('NONE',#1299);
#1305=PRESENTATION_STYLE_ASSIGNMENT((#1300));
#1306=STYLED_ITEM('NONE',(#1305),#1298);
#1307=MECHANICAL_DESIGN_GEOMETRIC_PRESENTATION_REPRESENTATION('NONE',(#1306,#1447),#28);
#1308=PRESENTATION_LAYER_ASSIGNMENT('3D','None',(#1298,#1446));
#1309=CARTESIAN_POINT('',(1.469576E-015,9.797174E-016,-8.0));
#1310=DIRECTION('',(-4.057416E-016,0.0,1.0));
#1311=DIRECTION('',(0.0,1.0,0.0));
#1312=AXIS2_PLACEMENT_3D('',#1309,#1310,#1311);
#1313=CYLINDRICAL_SURFACE('',#1312,2.0);
#1314=CARTESIAN_POINT('',(-1.776357E-015,2.000000000000001,-3.263115E-031));
#1315=VERTEX_POINT('',#1314);
#1316=CARTESIAN_POINT('',(1.602521E-015,2.000000000000001,-9.724));
#1317=VERTEX_POINT('',#1316);
#1318=CARTESIAN_POINT('',(-1.776357E-015,2.000000000000001,0.0));
#1319=DIRECTION('',(0.0,0.0,-1.0));
#1320=VECTOR('',#1319,9.724);
#1321=LINE('',#1318,#1320);
#1322=EDGE_CURVE('',#1315,#1317,#1321,.T.);
#1323=ORIENTED_EDGE('',*,*,#1322,.F.);
#1324=CARTESIAN_POINT('',(-1.531427E-015,-1.999999999999999,0.0));
#1325=VERTEX_POINT('',#1324);
#1326=CARTESIAN_POINT('',(-1.776357E-015,9.797174E-016,-3.263115E-031));
#1327=DIRECTION('',(0.0,0.0,-1.0));
#1328=DIRECTION('',(0.0,1.0,0.0));
#1329=AXIS2_PLACEMENT_3D('',#1326,#1327,#1328);
#1330=CIRCLE('',#1329,2.0);
#1331=EDGE_CURVE('',#1315,#1325,#1330,.T.);
#1332=ORIENTED_EDGE('',*,*,#1331,.T.);
#1333=CARTESIAN_POINT('',(1.357591E-015,-1.999999999999999,-9.724));
#1334=VERTEX_POINT('',#1333);
#1335=CARTESIAN_POINT('',(-1.531427E-015,-1.999999999999999,0.0));
#1336=DIRECTION('',(0.0,0.0,-1.0));
#1337=VECTOR('',#1336,9.724);
#1338=LINE('',#1335,#1337);
#1339=EDGE_CURVE('',#1325,#1334,#1338,.T.);
#1340=ORIENTED_EDGE('',*,*,#1339,.T.);
#1341=CARTESIAN_POINT('',(1.357591E-015,9.797174E-016,-9.724));
#1342=DIRECTION('',(0.0,0.0,-1.0));
#1343=DIRECTION('',(0.0,-1.0,0.0));
#1344=AXIS2_PLACEMENT_3D('',#1341,#1342,#1343);
#1345=CIRCLE('',#1344,2.0);
#1346=EDGE_CURVE('',#1317,#1334,#1345,.T.);
#1347=ORIENTED_EDGE('',*,*,#1346,.F.);
#1348=EDGE_LOOP('',(#1323,#1332,#1340,#1347));
#1349=FACE_OUTER_BOUND('',#1348,.T.);
#1350=ADVANCED_FACE('',(#1349),#1313,.T.);
#1351=CARTESIAN_POINT('',(1.413584E-015,9.797174E-016,-9.862));
#1352=DIRECTION('',(-4.057416E-016,0.0,1.0));
#1353=DIRECTION('',(0.0,-1.0,0.0));
#1354=AXIS2_PLACEMENT_3D('',#1351,#1352,#1353);
#1355=CONICAL_SURFACE('',#1354,1.862,45.000000000000021);
#1356=CARTESIAN_POINT('',(1.469576E-015,-1.723999999999999,-10.0));
#1357=VERTEX_POINT('',#1356);
#1358=CARTESIAN_POINT('',(1.357591E-015,-1.999999999999999,-9.724));
#1359=DIRECTION('',(2.869027E-016,0.707106781186548,-0.707106781186547));
#1360=VECTOR('',#1359,0.390322943214974);
#1361=LINE('',#1358,#1360);
#1362=EDGE_CURVE('',#1334,#1357,#1361,.T.);
#1363=ORIENTED_EDGE('',*,*,#1362,.F.);
#1364=CARTESIAN_POINT('',(1.357591E-015,9.797174E-016,-9.724));
#1365=DIRECTION('',(0.0,0.0,-1.0));
#1366=DIRECTION('',(0.0,-1.0,0.0));
#1367=AXIS2_PLACEMENT_3D('',#1364,#1365,#1366);
#1368=CIRCLE('',#1367,2.0);
#1369=EDGE_CURVE('',#1334,#1317,#1368,.T.);
#1370=ORIENTED_EDGE('',*,*,#1369,.T.);
#1371=CARTESIAN_POINT('',(1.258447E-015,1.724000000000001,-10.0));
#1372=VERTEX_POINT('',#1371);
#1373=CARTESIAN_POINT('',(1.112662E-015,2.000000000000001,-9.724));
#1374=DIRECTION('',(3.734983E-016,-0.707106781186548,-0.707106781186547));
#1375=VECTOR('',#1374,0.390322943214974);
#1376=LINE('',#1373,#1375);
#1377=EDGE_CURVE('',#1317,#1372,#1376,.T.);
#1378=ORIENTED_EDGE('',*,*,#1377,.T.);
#1379=CARTESIAN_POINT('',(1.469576E-015,9.797174E-016,-10.0));
#1380=DIRECTION('',(0.0,0.0,1.0));
#1381=DIRECTION('',(0.0,-1.0,0.0));
#1382=AXIS2_PLACEMENT_3D('',#1379,#1380,#1381);
#1383=CIRCLE('',#1382,1.724);
#1384=EDGE_CURVE('',#1372,#1357,#1383,.T.);
#1385=ORIENTED_EDGE('',*,*,#1384,.T.);
#1386=EDGE_LOOP('',(#1363,#1370,#1378,#1385));
#1387=FACE_OUTER_BOUND('',#1386,.T.);
#1388=ADVANCED_FACE('',(#1387),#1355,.T.);
#1389=CARTESIAN_POINT('',(1.413584E-015,9.797174E-016,-9.862));
#1390=DIRECTION('',(-4.057416E-016,0.0,1.0));
#1391=DIRECTION('',(0.0,-1.0,0.0));
#1392=AXIS2_PLACEMENT_3D('',#1389,#1390,#1391);
#1393=CONICAL_SURFACE('',#1392,1.862,45.000000000000021);
#1394=ORIENTED_EDGE('',*,*,#1362,.T.);
#1395=CARTESIAN_POINT('',(1.469576E-015,9.797174E-016,-10.0));
#1396=DIRECTION('',(0.0,0.0,1.0));
#1397=DIRECTION('',(0.0,-1.0,0.0));
#1398=AXIS2_PLACEMENT_3D('',#1395,#1396,#1397);
#1399=CIRCLE('',#1398,1.724);
#1400=EDGE_CURVE('',#1357,#1372,#1399,.T.);
#1401=ORIENTED_EDGE('',*,*,#1400,.T.);
#1402=ORIENTED_EDGE('',*,*,#1377,.F.);
#1403=ORIENTED_EDGE('',*,*,#1346,.T.);
#1404=EDGE_LOOP('',(#1394,#1401,#1402,#1403));
#1405=FACE_OUTER_BOUND('',#1404,.T.);
#1406=ADVANCED_FACE('',(#1405),#1393,.T.);
#1407=CARTESIAN_POINT('',(1.469576E-015,9.797174E-016,-8.0));
#1408=DIRECTION('',(-4.057416E-016,0.0,1.0));
#1409=DIRECTION('',(0.0,1.0,0.0));
#1410=AXIS2_PLACEMENT_3D('',#1407,#1408,#1409);
#1411=CYLINDRICAL_SURFACE('',#1410,2.0);
#1412=ORIENTED_EDGE('',*,*,#1322,.T.);
#1413=ORIENTED_EDGE('',*,*,#1369,.F.);
#1414=ORIENTED_EDGE('',*,*,#1339,.F.);
#1415=CARTESIAN_POINT('',(-1.776357E-015,9.797174E-016,-3.263115E-031));
#1416=DIRECTION('',(0.0,0.0,-1.0));
#1417=DIRECTION('',(0.0,1.0,0.0));
#1418=AXIS2_PLACEMENT_3D('',#1415,#1416,#1417);
#1419=CIRCLE('',#1418,2.0);
#1420=EDGE_CURVE('',#1325,#1315,#1419,.T.);
#1421=ORIENTED_EDGE('',*,*,#1420,.T.);
#1422=EDGE_LOOP('',(#1412,#1413,#1414,#1421));
#1423=FACE_OUTER_BOUND('',#1422,.T.);
#1424=ADVANCED_FACE('',(#1423),#1411,.T.);
#1425=CARTESIAN_POINT('',(1.469576E-015,9.797174E-016,-10.0));
#1426=DIRECTION('',(0.0,0.0,1.0));
#1427=DIRECTION('',(1.0,0.0,0.0));
#1428=AXIS2_PLACEMENT_3D('',#1425,#1426,#1427);
#1429=PLANE('',#1428);
#1430=ORIENTED_EDGE('',*,*,#1384,.F.);
#1431=ORIENTED_EDGE('',*,*,#1400,.F.);
#1432=EDGE_LOOP('',(#1430,#1431));
#1433=FACE_OUTER_BOUND('',#1432,.T.);
#1434=ADVANCED_FACE('',(#1433),#1429,.F.);
#1435=CARTESIAN_POINT('',(-1.776357E-015,9.797174E-016,-3.263115E-031));
#1436=DIRECTION('',(0.0,0.0,1.0));
#1437=DIRECTION('',(1.0,0.0,0.0));
#1438=AXIS2_PLACEMENT_3D('',#1435,#1436,#1437);
#1439=PLANE('',#1438);
#1440=ORIENTED_EDGE('',*,*,#1331,.F.);
#1441=ORIENTED_EDGE('',*,*,#1420,.F.);
#1442=EDGE_LOOP('',(#1440,#1441));
#1443=FACE_OUTER_BOUND('',#1442,.T.);
#1444=ADVANCED_FACE('',(#1443),#1439,.T.);
#1445=CLOSED_SHELL('',(#1350,#1388,#1406,#1424,#1434,#1444));
#1446=MANIFOLD_SOLID_BREP('4387',#1445);
#1447=STYLED_ITEM('NONE',(#1305),#1446);
#1448=ADVANCED_BREP_SHAPE_REPRESENTATION('ABSR1',(#1298,#1446),#28);
#1449=SHAPE_REPRESENTATION_RELATIONSHIP('SRRPL1','',#1448,#62);
ENDSEC;
END-ISO-10303-21;
