ISO-10303-21;
HEADER;
/****************************************************************
 * Generated by software with PDE/Lib inside                    *
 * PDElib Version v51a, created Mon 11/23/2009                  *
 * ITI Transcendata (http://www.transcendata.com/)              *
 ****************************************************************/
FILE_DESCRIPTION((''),'2;1');
FILE_NAME('CAPC4833X160N.stp','2011-06-22T16:25:14',(''),(''),'Mechanical Desktop 2011','Mechanical Desktop 2011',', , ');
FILE_SCHEMA(('AUTOMOTIVE_DESIGN { 1 2 10303 214 1 1 1 1 }'));
ENDSEC;
DATA;
#10=(NAMED_UNIT(*)PLANE_ANGLE_UNIT()SI_UNIT($,.RADIAN.));
#11=DIMENSIONAL_EXPONENTS(0.0,0.0,0.0,0.0,0.0,0.0,0.0);
#12=PLANE_ANGLE_MEASURE_WITH_UNIT(PLANE_ANGLE_MEASURE(0.017453292500000),#10);
#16=(CONVERSION_BASED_UNIT('DEGREE',#12)NAMED_UNIT(#11)PLANE_ANGLE_UNIT());
#20=(NAMED_UNIT(*)SI_UNIT($,.STERADIAN.)SOLID_ANGLE_UNIT());
#24=(LENGTH_UNIT()NAMED_UNIT(*)SI_UNIT(.MILLI.,.METRE.));
#26=UNCERTAINTY_MEASURE_WITH_UNIT(LENGTH_MEASURE(0.000001000000000),#24,'DISTANCE_ACCURACY_VALUE','');
#28=(GEOMETRIC_REPRESENTATION_CONTEXT(3)GLOBAL_UNCERTAINTY_ASSIGNED_CONTEXT((#26))GLOBAL_UNIT_ASSIGNED_CONTEXT((#16,#20,#24))REPRESENTATION_CONTEXT('','3D'));
#29=APPLICATION_CONTEXT('automotive design');
#30=APPLICATION_PROTOCOL_DEFINITION('INTERNATIONAL_STANDARD','automotive_design',1998,#29);
#31=PRODUCT_CONTEXT('3D Mechanical Parts',#29,'mechanical');
#32=PRODUCT('Product','Product','',(#31));
#33=PRODUCT_RELATED_PRODUCT_CATEGORY('part',$,(#32));
#34=PRODUCT_CATEGORY('part',$);
#35=PERSON('1','Design','Joe',$,$,$);
#36=ORGANIZATION($,'None','None');
#37=PERSON_AND_ORGANIZATION(#35,#36);
#38=PERSON_AND_ORGANIZATION_ROLE('design_owner');
#39=APPLIED_PERSON_AND_ORGANIZATION_ASSIGNMENT(#37,#38,(#32));
#40=PRODUCT_DEFINITION_FORMATION_WITH_SPECIFIED_SOURCE('None','',#32,.BOUGHT.);
#41=PERSON('2','Creator','Joe',$,$,$);
#42=ORGANIZATION($,'None','None');
#43=PERSON_AND_ORGANIZATION(#41,#42);
#44=PERSON_AND_ORGANIZATION_ROLE('creator');
#45=APPLIED_PERSON_AND_ORGANIZATION_ASSIGNMENT(#43,#44,(#40));
#46=PERSON('3','Supplier','Joe',$,$,$);
#47=ORGANIZATION($,'None','None');
#48=PERSON_AND_ORGANIZATION(#46,#47);
#49=PERSON_AND_ORGANIZATION_ROLE('design_supplier');
#50=APPLIED_PERSON_AND_ORGANIZATION_ASSIGNMENT(#48,#49,(#40));
#51=PRODUCT_DEFINITION_CONTEXT('part definition',#29,'design');
#52=PRODUCT_DEFINITION('None','',#40,#51);
#53=PERSON('4','Creator','Joe',$,$,$);
#54=ORGANIZATION($,'None','None');
#55=PERSON_AND_ORGANIZATION(#53,#54);
#56=PERSON_AND_ORGANIZATION_ROLE('creator');
#57=APPLIED_PERSON_AND_ORGANIZATION_ASSIGNMENT(#55,#56,(#52));
#58=CARTESIAN_POINT('NONE',(0.0,0.0,0.0));
#59=DIRECTION('NONE',(0.0,0.0,1.0));
#60=DIRECTION('NONE',(1.0,0.0,0.0));
#61=AXIS2_PLACEMENT_3D('NONE',#58,#59,#60);
#62=SHAPE_REPRESENTATION('SR1',(#61),#28);
#63=PRODUCT_DEFINITION_SHAPE('PDS1','Test Part',#52);
#64=SHAPE_DEFINITION_REPRESENTATION(#63,#62);
#65=CARTESIAN_POINT('',(-2.399999999999999,-1.650000000000000,0.0));
#66=DIRECTION('',(1.0,0.0,0.0));
#67=VECTOR('',#66,0.350000000000001);
#68=LINE('',#65,#67);
#69=CARTESIAN_POINT('',(-2.049999999999997,-1.650000000000000,0.0));
#70=TRIMMED_CURVE('AFC',#68,(PARAMETER_VALUE(0.0),#65),(PARAMETER_VALUE(1.0),#69),.T.,.PARAMETER.);
#71=DRAUGHTING_PRE_DEFINED_COLOUR('red');
#72=CURVE_STYLE('NONE',#73,POSITIVE_LENGTH_MEASURE(0.200000000000000),#71);
#73=DRAUGHTING_PRE_DEFINED_CURVE_FONT('continuous');
#74=PRESENTATION_STYLE_ASSIGNMENT((#72));
#75=STYLED_ITEM('NONE',(#74),#70);
#76=MECHANICAL_DESIGN_GEOMETRIC_PRESENTATION_REPRESENTATION('NONE',(#75,#235,#387,#394,#552),#28);
#77=PRESENTATION_LAYER_ASSIGNMENT('Mechanical 14','None',(#70,#393));
#78=CARTESIAN_POINT('',(2.224999999999998,0.0,0.0));
#79=DIRECTION('',(0.0,0.0,-1.0));
#80=DIRECTION('',(1.0,0.0,0.0));
#81=AXIS2_PLACEMENT_3D('',#78,#79,#80);
#82=PLANE('',#81);
#83=CARTESIAN_POINT('',(2.399999999999999,1.650000000000000,0.0));
#84=VERTEX_POINT('',#83);
#85=CARTESIAN_POINT('',(2.399999999999999,-1.650000000000000,0.0));
#86=VERTEX_POINT('',#85);
#87=CARTESIAN_POINT('',(2.399999999999999,1.650000000000000,0.0));
#88=DIRECTION('',(0.0,-1.0,0.0));
#89=VECTOR('',#88,3.300000000000001);
#90=LINE('',#87,#89);
#91=EDGE_CURVE('',#84,#86,#90,.T.);
#92=ORIENTED_EDGE('',*,*,#91,.T.);
#93=CARTESIAN_POINT('',(2.049999999999997,-1.650000000000000,0.0));
#94=VERTEX_POINT('',#93);
#95=CARTESIAN_POINT('',(2.399999999999999,-1.650000000000000,0.0));
#96=DIRECTION('',(-1.0,0.0,0.0));
#97=VECTOR('',#96,0.350000000000001);
#98=LINE('',#95,#97);
#99=EDGE_CURVE('',#86,#94,#98,.T.);
#100=ORIENTED_EDGE('',*,*,#99,.T.);
#101=CARTESIAN_POINT('',(2.049999999999997,1.650000000000000,0.0));
#102=VERTEX_POINT('',#101);
#103=CARTESIAN_POINT('',(2.049999999999997,-1.650000000000000,0.0));
#104=DIRECTION('',(0.0,1.0,0.0));
#105=VECTOR('',#104,3.300000000000001);
#106=LINE('',#103,#105);
#107=EDGE_CURVE('',#94,#102,#106,.T.);
#108=ORIENTED_EDGE('',*,*,#107,.T.);
#109=CARTESIAN_POINT('',(2.049999999999997,1.650000000000000,0.0));
#110=DIRECTION('',(1.0,0.0,0.0));
#111=VECTOR('',#110,0.350000000000001);
#112=LINE('',#109,#111);
#113=EDGE_CURVE('',#102,#84,#112,.T.);
#114=ORIENTED_EDGE('',*,*,#113,.T.);
#115=EDGE_LOOP('',(#92,#100,#108,#114));
#116=FACE_OUTER_BOUND('',#115,.T.);
#117=ADVANCED_FACE('',(#116),#82,.T.);
#118=CARTESIAN_POINT('',(2.224999999999998,0.0,1.600000000000000));
#119=DIRECTION('',(0.0,0.0,-1.0));
#120=DIRECTION('',(1.0,0.0,0.0));
#121=AXIS2_PLACEMENT_3D('',#118,#119,#120);
#122=PLANE('',#121);
#123=CARTESIAN_POINT('',(2.399999999999999,-1.650000000000000,1.600000000000000));
#124=VERTEX_POINT('',#123);
#125=CARTESIAN_POINT('',(2.399999999999999,1.650000000000000,1.600000000000000));
#126=VERTEX_POINT('',#125);
#127=CARTESIAN_POINT('',(2.399999999999999,-1.650000000000000,1.600000000000000));
#128=DIRECTION('',(0.0,1.0,0.0));
#129=VECTOR('',#128,3.300000000000001);
#130=LINE('',#127,#129);
#131=EDGE_CURVE('',#124,#126,#130,.T.);
#132=ORIENTED_EDGE('',*,*,#131,.T.);
#133=CARTESIAN_POINT('',(2.049999999999997,1.650000000000000,1.600000000000000));
#134=VERTEX_POINT('',#133);
#135=CARTESIAN_POINT('',(2.399999999999999,1.650000000000000,1.600000000000000));
#136=DIRECTION('',(-1.0,0.0,0.0));
#137=VECTOR('',#136,0.350000000000001);
#138=LINE('',#135,#137);
#139=EDGE_CURVE('',#126,#134,#138,.T.);
#140=ORIENTED_EDGE('',*,*,#139,.T.);
#141=CARTESIAN_POINT('',(2.049999999999997,-1.650000000000000,1.600000000000000));
#142=VERTEX_POINT('',#141);
#143=CARTESIAN_POINT('',(2.049999999999997,1.650000000000000,1.600000000000000));
#144=DIRECTION('',(0.0,-1.0,0.0));
#145=VECTOR('',#144,3.300000000000001);
#146=LINE('',#143,#145);
#147=EDGE_CURVE('',#134,#142,#146,.T.);
#148=ORIENTED_EDGE('',*,*,#147,.T.);
#149=CARTESIAN_POINT('',(2.049999999999997,-1.650000000000000,1.600000000000000));
#150=DIRECTION('',(1.0,0.0,0.0));
#151=VECTOR('',#150,0.350000000000001);
#152=LINE('',#149,#151);
#153=EDGE_CURVE('',#142,#124,#152,.T.);
#154=ORIENTED_EDGE('',*,*,#153,.T.);
#155=EDGE_LOOP('',(#132,#140,#148,#154));
#156=FACE_OUTER_BOUND('',#155,.T.);
#157=ADVANCED_FACE('',(#156),#122,.F.);
#158=CARTESIAN_POINT('',(2.224999999999998,1.650000000000000,0.800000000000000));
#159=DIRECTION('',(0.0,-1.0,0.0));
#160=DIRECTION('',(0.0,0.0,-1.0));
#161=AXIS2_PLACEMENT_3D('',#158,#159,#160);
#162=PLANE('',#161);
#163=CARTESIAN_POINT('',(2.049999999999997,1.650000000000000,0.0));
#164=DIRECTION('',(0.0,0.0,1.0));
#165=VECTOR('',#164,1.600000000000000);
#166=LINE('',#163,#165);
#167=EDGE_CURVE('',#102,#134,#166,.T.);
#168=ORIENTED_EDGE('',*,*,#167,.T.);
#169=ORIENTED_EDGE('',*,*,#139,.F.);
#170=CARTESIAN_POINT('',(2.399999999999999,1.650000000000000,0.0));
#171=DIRECTION('',(0.0,0.0,1.0));
#172=VECTOR('',#171,1.600000000000000);
#173=LINE('',#170,#172);
#174=EDGE_CURVE('',#84,#126,#173,.T.);
#175=ORIENTED_EDGE('',*,*,#174,.F.);
#176=ORIENTED_EDGE('',*,*,#113,.F.);
#177=EDGE_LOOP('',(#168,#169,#175,#176));
#178=FACE_OUTER_BOUND('',#177,.T.);
#179=ADVANCED_FACE('',(#178),#162,.F.);
#180=CARTESIAN_POINT('',(2.049999999999997,0.0,0.800000000000000));
#181=DIRECTION('',(1.0,0.0,0.0));
#182=DIRECTION('',(0.0,0.0,1.0));
#183=AXIS2_PLACEMENT_3D('',#180,#181,#182);
#184=PLANE('',#183);
#185=CARTESIAN_POINT('',(2.049999999999997,-1.650000000000000,0.0));
#186=DIRECTION('',(0.0,0.0,1.0));
#187=VECTOR('',#186,1.600000000000000);
#188=LINE('',#185,#187);
#189=EDGE_CURVE('',#94,#142,#188,.T.);
#190=ORIENTED_EDGE('',*,*,#189,.T.);
#191=ORIENTED_EDGE('',*,*,#147,.F.);
#192=ORIENTED_EDGE('',*,*,#167,.F.);
#193=ORIENTED_EDGE('',*,*,#107,.F.);
#194=EDGE_LOOP('',(#190,#191,#192,#193));
#195=FACE_OUTER_BOUND('',#194,.T.);
#196=ADVANCED_FACE('',(#195),#184,.F.);
#197=CARTESIAN_POINT('',(2.224999999999998,-1.650000000000000,0.800000000000000));
#198=DIRECTION('',(0.0,1.0,0.0));
#199=DIRECTION('',(0.0,0.0,1.0));
#200=AXIS2_PLACEMENT_3D('',#197,#198,#199);
#201=PLANE('',#200);
#202=CARTESIAN_POINT('',(2.399999999999999,-1.650000000000000,0.0));
#203=DIRECTION('',(0.0,0.0,1.0));
#204=VECTOR('',#203,1.600000000000000);
#205=LINE('',#202,#204);
#206=EDGE_CURVE('',#86,#124,#205,.T.);
#207=ORIENTED_EDGE('',*,*,#206,.T.);
#208=ORIENTED_EDGE('',*,*,#153,.F.);
#209=ORIENTED_EDGE('',*,*,#189,.F.);
#210=ORIENTED_EDGE('',*,*,#99,.F.);
#211=EDGE_LOOP('',(#207,#208,#209,#210));
#212=FACE_OUTER_BOUND('',#211,.T.);
#213=ADVANCED_FACE('',(#212),#201,.F.);
#214=CARTESIAN_POINT('',(2.399999999999999,0.0,0.800000000000000));
#215=DIRECTION('',(-1.0,0.0,0.0));
#216=DIRECTION('',(0.0,0.0,-1.0));
#217=AXIS2_PLACEMENT_3D('',#214,#215,#216);
#218=PLANE('',#217);
#219=ORIENTED_EDGE('',*,*,#174,.T.);
#220=ORIENTED_EDGE('',*,*,#131,.F.);
#221=ORIENTED_EDGE('',*,*,#206,.F.);
#222=ORIENTED_EDGE('',*,*,#91,.F.);
#223=EDGE_LOOP('',(#219,#220,#221,#222));
#224=FACE_OUTER_BOUND('',#223,.T.);
#225=ADVANCED_FACE('',(#224),#218,.F.);
#226=CLOSED_SHELL('',(#117,#157,#179,#196,#213,#225));
#227=MANIFOLD_SOLID_BREP('AF8',#226);
#228=COLOUR_RGB('254',0.866000000000000,0.866000000000000,0.866000000000000);
#229=SURFACE_STYLE_USAGE(.BOTH.,#230);
#230=SURFACE_SIDE_STYLE('NONE',(#231));
#231=SURFACE_STYLE_FILL_AREA(#232);
#232=FILL_AREA_STYLE('NONE',(#233));
#233=FILL_AREA_STYLE_COLOUR('NONE',#228);
#234=PRESENTATION_STYLE_ASSIGNMENT((#229));
#235=STYLED_ITEM('NONE',(#234),#227);
#236=PRESENTATION_LAYER_ASSIGNMENT('3D','None',(#227,#386,#544));
#237=CARTESIAN_POINT('',(-2.224999999999998,0.0,0.0));
#238=DIRECTION('',(0.0,0.0,-1.0));
#239=DIRECTION('',(1.0,0.0,0.0));
#240=AXIS2_PLACEMENT_3D('',#237,#238,#239);
#241=PLANE('',#240);
#242=CARTESIAN_POINT('',(-2.049999999999997,1.650000000000000,0.0));
#243=VERTEX_POINT('',#242);
#244=CARTESIAN_POINT('',(-2.049999999999997,-1.650000000000000,0.0));
#245=VERTEX_POINT('',#244);
#246=CARTESIAN_POINT('',(-2.049999999999997,1.650000000000000,0.0));
#247=DIRECTION('',(0.0,-1.0,0.0));
#248=VECTOR('',#247,3.300000000000001);
#249=LINE('',#246,#248);
#250=EDGE_CURVE('',#243,#245,#249,.T.);
#251=ORIENTED_EDGE('',*,*,#250,.T.);
#252=CARTESIAN_POINT('',(-2.399999999999999,-1.650000000000000,0.0));
#253=VERTEX_POINT('',#252);
#254=CARTESIAN_POINT('',(-2.049999999999997,-1.650000000000000,0.0));
#255=DIRECTION('',(-1.0,0.0,0.0));
#256=VECTOR('',#255,0.350000000000001);
#257=LINE('',#254,#256);
#258=EDGE_CURVE('',#245,#253,#257,.T.);
#259=ORIENTED_EDGE('',*,*,#258,.T.);
#260=CARTESIAN_POINT('',(-2.399999999999999,1.650000000000000,0.0));
#261=VERTEX_POINT('',#260);
#262=CARTESIAN_POINT('',(-2.399999999999999,-1.650000000000000,0.0));
#263=DIRECTION('',(0.0,1.0,0.0));
#264=VECTOR('',#263,3.300000000000001);
#265=LINE('',#262,#264);
#266=EDGE_CURVE('',#253,#261,#265,.T.);
#267=ORIENTED_EDGE('',*,*,#266,.T.);
#268=CARTESIAN_POINT('',(-2.399999999999999,1.650000000000000,0.0));
#269=DIRECTION('',(1.0,0.0,0.0));
#270=VECTOR('',#269,0.350000000000001);
#271=LINE('',#268,#270);
#272=EDGE_CURVE('',#261,#243,#271,.T.);
#273=ORIENTED_EDGE('',*,*,#272,.T.);
#274=EDGE_LOOP('',(#251,#259,#267,#273));
#275=FACE_OUTER_BOUND('',#274,.T.);
#276=ADVANCED_FACE('',(#275),#241,.T.);
#277=CARTESIAN_POINT('',(-2.224999999999998,0.0,1.600000000000000));
#278=DIRECTION('',(0.0,0.0,-1.0));
#279=DIRECTION('',(1.0,0.0,0.0));
#280=AXIS2_PLACEMENT_3D('',#277,#278,#279);
#281=PLANE('',#280);
#282=CARTESIAN_POINT('',(-2.049999999999997,-1.650000000000000,1.600000000000000));
#283=VERTEX_POINT('',#282);
#284=CARTESIAN_POINT('',(-2.049999999999997,1.650000000000000,1.600000000000000));
#285=VERTEX_POINT('',#284);
#286=CARTESIAN_POINT('',(-2.049999999999997,-1.650000000000000,1.600000000000000));
#287=DIRECTION('',(0.0,1.0,0.0));
#288=VECTOR('',#287,3.300000000000001);
#289=LINE('',#286,#288);
#290=EDGE_CURVE('',#283,#285,#289,.T.);
#291=ORIENTED_EDGE('',*,*,#290,.T.);
#292=CARTESIAN_POINT('',(-2.399999999999999,1.650000000000000,1.600000000000000));
#293=VERTEX_POINT('',#292);
#294=CARTESIAN_POINT('',(-2.049999999999997,1.650000000000000,1.600000000000000));
#295=DIRECTION('',(-1.0,0.0,0.0));
#296=VECTOR('',#295,0.350000000000001);
#297=LINE('',#294,#296);
#298=EDGE_CURVE('',#285,#293,#297,.T.);
#299=ORIENTED_EDGE('',*,*,#298,.T.);
#300=CARTESIAN_POINT('',(-2.399999999999999,-1.650000000000000,1.600000000000000));
#301=VERTEX_POINT('',#300);
#302=CARTESIAN_POINT('',(-2.399999999999999,1.650000000000000,1.600000000000000));
#303=DIRECTION('',(0.0,-1.0,0.0));
#304=VECTOR('',#303,3.300000000000001);
#305=LINE('',#302,#304);
#306=EDGE_CURVE('',#293,#301,#305,.T.);
#307=ORIENTED_EDGE('',*,*,#306,.T.);
#308=CARTESIAN_POINT('',(-2.399999999999999,-1.650000000000000,1.600000000000000));
#309=DIRECTION('',(1.0,0.0,0.0));
#310=VECTOR('',#309,0.350000000000001);
#311=LINE('',#308,#310);
#312=EDGE_CURVE('',#301,#283,#311,.T.);
#313=ORIENTED_EDGE('',*,*,#312,.T.);
#314=EDGE_LOOP('',(#291,#299,#307,#313));
#315=FACE_OUTER_BOUND('',#314,.T.);
#316=ADVANCED_FACE('',(#315),#281,.F.);
#317=CARTESIAN_POINT('',(-2.224999999999998,1.650000000000000,0.800000000000000));
#318=DIRECTION('',(0.0,-1.0,0.0));
#319=DIRECTION('',(0.0,0.0,-1.0));
#320=AXIS2_PLACEMENT_3D('',#317,#318,#319);
#321=PLANE('',#320);
#322=CARTESIAN_POINT('',(-2.399999999999999,1.650000000000000,0.0));
#323=DIRECTION('',(0.0,0.0,1.0));
#324=VECTOR('',#323,1.600000000000000);
#325=LINE('',#322,#324);
#326=EDGE_CURVE('',#261,#293,#325,.T.);
#327=ORIENTED_EDGE('',*,*,#326,.T.);
#328=ORIENTED_EDGE('',*,*,#298,.F.);
#329=CARTESIAN_POINT('',(-2.049999999999997,1.650000000000000,0.0));
#330=DIRECTION('',(0.0,0.0,1.0));
#331=VECTOR('',#330,1.600000000000000);
#332=LINE('',#329,#331);
#333=EDGE_CURVE('',#243,#285,#332,.T.);
#334=ORIENTED_EDGE('',*,*,#333,.F.);
#335=ORIENTED_EDGE('',*,*,#272,.F.);
#336=EDGE_LOOP('',(#327,#328,#334,#335));
#337=FACE_OUTER_BOUND('',#336,.T.);
#338=ADVANCED_FACE('',(#337),#321,.F.);
#339=CARTESIAN_POINT('',(-2.399999999999999,0.0,0.800000000000000));
#340=DIRECTION('',(1.0,0.0,0.0));
#341=DIRECTION('',(0.0,0.0,1.0));
#342=AXIS2_PLACEMENT_3D('',#339,#340,#341);
#343=PLANE('',#342);
#344=CARTESIAN_POINT('',(-2.399999999999999,-1.650000000000000,0.0));
#345=DIRECTION('',(0.0,0.0,1.0));
#346=VECTOR('',#345,1.600000000000000);
#347=LINE('',#344,#346);
#348=EDGE_CURVE('',#253,#301,#347,.T.);
#349=ORIENTED_EDGE('',*,*,#348,.T.);
#350=ORIENTED_EDGE('',*,*,#306,.F.);
#351=ORIENTED_EDGE('',*,*,#326,.F.);
#352=ORIENTED_EDGE('',*,*,#266,.F.);
#353=EDGE_LOOP('',(#349,#350,#351,#352));
#354=FACE_OUTER_BOUND('',#353,.T.);
#355=ADVANCED_FACE('',(#354),#343,.F.);
#356=CARTESIAN_POINT('',(-2.224999999999998,-1.650000000000000,0.800000000000000));
#357=DIRECTION('',(0.0,1.0,0.0));
#358=DIRECTION('',(0.0,0.0,1.0));
#359=AXIS2_PLACEMENT_3D('',#356,#357,#358);
#360=PLANE('',#359);
#361=CARTESIAN_POINT('',(-2.049999999999997,-1.650000000000000,0.0));
#362=DIRECTION('',(0.0,0.0,1.0));
#363=VECTOR('',#362,1.600000000000000);
#364=LINE('',#361,#363);
#365=EDGE_CURVE('',#245,#283,#364,.T.);
#366=ORIENTED_EDGE('',*,*,#365,.T.);
#367=ORIENTED_EDGE('',*,*,#312,.F.);
#368=ORIENTED_EDGE('',*,*,#348,.F.);
#369=ORIENTED_EDGE('',*,*,#258,.F.);
#370=EDGE_LOOP('',(#366,#367,#368,#369));
#371=FACE_OUTER_BOUND('',#370,.T.);
#372=ADVANCED_FACE('',(#371),#360,.F.);
#373=CARTESIAN_POINT('',(-2.049999999999997,0.0,0.800000000000000));
#374=DIRECTION('',(-1.0,0.0,0.0));
#375=DIRECTION('',(0.0,0.0,-1.0));
#376=AXIS2_PLACEMENT_3D('',#373,#374,#375);
#377=PLANE('',#376);
#378=ORIENTED_EDGE('',*,*,#333,.T.);
#379=ORIENTED_EDGE('',*,*,#290,.F.);
#380=ORIENTED_EDGE('',*,*,#365,.F.);
#381=ORIENTED_EDGE('',*,*,#250,.F.);
#382=EDGE_LOOP('',(#378,#379,#380,#381));
#383=FACE_OUTER_BOUND('',#382,.T.);
#384=ADVANCED_FACE('',(#383),#377,.F.);
#385=CLOSED_SHELL('',(#276,#316,#338,#355,#372,#384));
#386=MANIFOLD_SOLID_BREP('AF4',#385);
#387=STYLED_ITEM('NONE',(#234),#386);
#388=CARTESIAN_POINT('',(-2.399999999999999,-1.650000000000000,0.0));
#389=DIRECTION('',(1.0,0.0,0.0));
#390=VECTOR('',#389,0.350000000000001);
#391=LINE('',#388,#390);
#392=CARTESIAN_POINT('',(-2.049999999999997,-1.650000000000000,0.0));
#393=TRIMMED_CURVE('AF3',#391,(PARAMETER_VALUE(0.0),#388),(PARAMETER_VALUE(1.0),#392),.T.,.PARAMETER.);
#394=STYLED_ITEM('NONE',(#74),#393);
#395=CARTESIAN_POINT('',(2.049999999999997,1.650000000000000,0.050000000000000));
#396=CARTESIAN_POINT('',(2.049999999999997,1.650000000000000,1.550000000000000));
#397=CARTESIAN_POINT('',(-2.049999999999997,1.650000000000000,0.050000000000000));
#398=CARTESIAN_POINT('',(-2.049999999999997,1.650000000000000,1.550000000000000));
#399=B_SPLINE_SURFACE_WITH_KNOTS('',1,1,((#395,#397),(#396,#398)),.UNSPECIFIED.,.F.,.F.,.U.,(2,2),(2,2),(0.0,1.500000000000000),(0.0,4.099999999999994),.UNSPECIFIED.);
#400=CARTESIAN_POINT('',(2.049999999999997,1.650000000000000,1.550000000000000));
#401=VERTEX_POINT('',#400);
#402=CARTESIAN_POINT('',(2.049999999999997,1.650000000000000,0.050000000000000));
#403=VERTEX_POINT('',#402);
#404=CARTESIAN_POINT('',(2.049999999999997,1.650000000000000,1.550000000000000));
#405=DIRECTION('',(0.0,0.0,-1.0));
#406=VECTOR('',#405,1.500000000000000);
#407=LINE('',#404,#406);
#408=EDGE_CURVE('',#401,#403,#407,.T.);
#409=ORIENTED_EDGE('',*,*,#408,.T.);
#410=CARTESIAN_POINT('',(-2.049999999999997,1.650000000000000,0.050000000000000));
#411=VERTEX_POINT('',#410);
#412=CARTESIAN_POINT('',(2.049999999999997,1.650000000000000,0.050000000000000));
#413=DIRECTION('',(-1.0,0.0,0.0));
#414=VECTOR('',#413,4.099999999999994);
#415=LINE('',#412,#414);
#416=EDGE_CURVE('',#403,#411,#415,.T.);
#417=ORIENTED_EDGE('',*,*,#416,.T.);
#418=CARTESIAN_POINT('',(-2.049999999999997,1.650000000000000,1.550000000000000));
#419=VERTEX_POINT('',#418);
#420=CARTESIAN_POINT('',(-2.049999999999997,1.650000000000000,0.050000000000000));
#421=DIRECTION('',(0.0,0.0,1.0));
#422=VECTOR('',#421,1.500000000000000);
#423=LINE('',#420,#422);
#424=EDGE_CURVE('',#411,#419,#423,.T.);
#425=ORIENTED_EDGE('',*,*,#424,.T.);
#426=CARTESIAN_POINT('',(-2.049999999999997,1.650000000000000,1.550000000000000));
#427=DIRECTION('',(1.0,0.0,0.0));
#428=VECTOR('',#427,4.099999999999994);
#429=LINE('',#426,#428);
#430=EDGE_CURVE('',#419,#401,#429,.T.);
#431=ORIENTED_EDGE('',*,*,#430,.T.);
#432=EDGE_LOOP('',(#409,#417,#425,#431));
#433=FACE_OUTER_BOUND('',#432,.T.);
#434=ADVANCED_FACE('',(#433),#399,.F.);
#435=CARTESIAN_POINT('',(-2.049999999999997,0.0,0.800000000000000));
#436=DIRECTION('',(-1.0,0.0,0.0));
#437=DIRECTION('',(0.0,0.0,-1.0));
#438=AXIS2_PLACEMENT_3D('',#435,#436,#437);
#439=PLANE('',#438);
#440=ORIENTED_EDGE('',*,*,#424,.F.);
#441=CARTESIAN_POINT('',(-2.049999999999997,-1.650000000000000,0.050000000000000));
#442=VERTEX_POINT('',#441);
#443=CARTESIAN_POINT('',(-2.049999999999997,-1.650000000000000,0.050000000000000));
#444=DIRECTION('',(0.0,1.0,0.0));
#445=VECTOR('',#444,3.300000000000001);
#446=LINE('',#443,#445);
#447=EDGE_CURVE('',#442,#411,#446,.T.);
#448=ORIENTED_EDGE('',*,*,#447,.F.);
#449=CARTESIAN_POINT('',(-2.049999999999997,-1.650000000000000,1.550000000000000));
#450=VERTEX_POINT('',#449);
#451=CARTESIAN_POINT('',(-2.049999999999997,-1.650000000000000,1.550000000000000));
#452=DIRECTION('',(0.0,0.0,-1.0));
#453=VECTOR('',#452,1.500000000000000);
#454=LINE('',#451,#453);
#455=EDGE_CURVE('',#450,#442,#454,.T.);
#456=ORIENTED_EDGE('',*,*,#455,.F.);
#457=CARTESIAN_POINT('',(-2.049999999999997,1.650000000000000,1.550000000000000));
#458=DIRECTION('',(0.0,-1.0,0.0));
#459=VECTOR('',#458,3.300000000000001);
#460=LINE('',#457,#459);
#461=EDGE_CURVE('',#419,#450,#460,.T.);
#462=ORIENTED_EDGE('',*,*,#461,.F.);
#463=EDGE_LOOP('',(#440,#448,#456,#462));
#464=FACE_OUTER_BOUND('',#463,.T.);
#465=ADVANCED_FACE('',(#464),#439,.T.);
#466=CARTESIAN_POINT('',(2.049999999999997,-1.650000000000000,1.550000000000000));
#467=CARTESIAN_POINT('',(2.049999999999997,-1.650000000000000,0.050000000000000));
#468=CARTESIAN_POINT('',(-2.049999999999997,-1.650000000000000,1.550000000000000));
#469=CARTESIAN_POINT('',(-2.049999999999997,-1.650000000000000,0.050000000000000));
#470=B_SPLINE_SURFACE_WITH_KNOTS('',1,1,((#466,#468),(#467,#469)),.UNSPECIFIED.,.F.,.F.,.U.,(2,2),(2,2),(0.0,1.500000000000000),(0.0,4.099999999999994),.UNSPECIFIED.);
#471=CARTESIAN_POINT('',(2.049999999999997,-1.650000000000000,0.050000000000000));
#472=VERTEX_POINT('',#471);
#473=CARTESIAN_POINT('',(2.049999999999997,-1.650000000000000,1.550000000000000));
#474=VERTEX_POINT('',#473);
#475=CARTESIAN_POINT('',(2.049999999999997,-1.650000000000000,0.050000000000000));
#476=DIRECTION('',(0.0,0.0,1.0));
#477=VECTOR('',#476,1.500000000000000);
#478=LINE('',#475,#477);
#479=EDGE_CURVE('',#472,#474,#478,.T.);
#480=ORIENTED_EDGE('',*,*,#479,.T.);
#481=CARTESIAN_POINT('',(2.049999999999997,-1.650000000000000,1.550000000000000));
#482=DIRECTION('',(-1.0,0.0,0.0));
#483=VECTOR('',#482,4.099999999999994);
#484=LINE('',#481,#483);
#485=EDGE_CURVE('',#474,#450,#484,.T.);
#486=ORIENTED_EDGE('',*,*,#485,.T.);
#487=ORIENTED_EDGE('',*,*,#455,.T.);
#488=CARTESIAN_POINT('',(-2.049999999999997,-1.650000000000000,0.050000000000000));
#489=DIRECTION('',(1.0,0.0,0.0));
#490=VECTOR('',#489,4.099999999999994);
#491=LINE('',#488,#490);
#492=EDGE_CURVE('',#442,#472,#491,.T.);
#493=ORIENTED_EDGE('',*,*,#492,.T.);
#494=EDGE_LOOP('',(#480,#486,#487,#493));
#495=FACE_OUTER_BOUND('',#494,.T.);
#496=ADVANCED_FACE('',(#495),#470,.F.);
#497=CARTESIAN_POINT('',(-2.049999999999997,-1.650000000000000,1.550000000000000));
#498=CARTESIAN_POINT('',(2.049999999999997,-1.650000000000000,1.550000000000000));
#499=CARTESIAN_POINT('',(-2.049999999999997,1.650000000000000,1.550000000000000));
#500=CARTESIAN_POINT('',(2.049999999999997,1.650000000000000,1.550000000000000));
#501=B_SPLINE_SURFACE_WITH_KNOTS('',1,1,((#497,#499),(#498,#500)),.UNSPECIFIED.,.F.,.F.,.U.,(2,2),(2,2),(0.0,4.099999999999994),(0.0,3.300000000000001),.UNSPECIFIED.);
#502=CARTESIAN_POINT('',(2.049999999999997,-1.650000000000000,1.550000000000000));
#503=DIRECTION('',(0.0,1.0,0.0));
#504=VECTOR('',#503,3.300000000000001);
#505=LINE('',#502,#504);
#506=EDGE_CURVE('',#474,#401,#505,.T.);
#507=ORIENTED_EDGE('',*,*,#506,.T.);
#508=ORIENTED_EDGE('',*,*,#430,.F.);
#509=ORIENTED_EDGE('',*,*,#461,.T.);
#510=ORIENTED_EDGE('',*,*,#485,.F.);
#511=EDGE_LOOP('',(#507,#508,#509,#510));
#512=FACE_OUTER_BOUND('',#511,.T.);
#513=ADVANCED_FACE('',(#512),#501,.T.);
#514=CARTESIAN_POINT('',(2.049999999999997,0.0,0.800000000000000));
#515=DIRECTION('',(1.0,0.0,0.0));
#516=DIRECTION('',(0.0,0.0,1.0));
#517=AXIS2_PLACEMENT_3D('',#514,#515,#516);
#518=PLANE('',#517);
#519=ORIENTED_EDGE('',*,*,#479,.F.);
#520=CARTESIAN_POINT('',(2.049999999999997,1.650000000000000,0.050000000000000));
#521=DIRECTION('',(0.0,-1.0,0.0));
#522=VECTOR('',#521,3.300000000000001);
#523=LINE('',#520,#522);
#524=EDGE_CURVE('',#403,#472,#523,.T.);
#525=ORIENTED_EDGE('',*,*,#524,.F.);
#526=ORIENTED_EDGE('',*,*,#408,.F.);
#527=ORIENTED_EDGE('',*,*,#506,.F.);
#528=EDGE_LOOP('',(#519,#525,#526,#527));
#529=FACE_OUTER_BOUND('',#528,.T.);
#530=ADVANCED_FACE('',(#529),#518,.T.);
#531=CARTESIAN_POINT('',(-2.049999999999997,-1.650000000000000,0.050000000000000));
#532=CARTESIAN_POINT('',(2.049999999999997,-1.650000000000000,0.050000000000000));
#533=CARTESIAN_POINT('',(-2.049999999999997,1.650000000000000,0.050000000000000));
#534=CARTESIAN_POINT('',(2.049999999999997,1.650000000000000,0.050000000000000));
#535=B_SPLINE_SURFACE_WITH_KNOTS('',1,1,((#531,#533),(#532,#534)),.UNSPECIFIED.,.F.,.F.,.U.,(2,2),(2,2),(0.0,4.099999999999994),(0.0,3.300000000000001),.UNSPECIFIED.);
#536=ORIENTED_EDGE('',*,*,#524,.T.);
#537=ORIENTED_EDGE('',*,*,#492,.F.);
#538=ORIENTED_EDGE('',*,*,#447,.T.);
#539=ORIENTED_EDGE('',*,*,#416,.F.);
#540=EDGE_LOOP('',(#536,#537,#538,#539));
#541=FACE_OUTER_BOUND('',#540,.T.);
#542=ADVANCED_FACE('',(#541),#535,.F.);
#543=CLOSED_SHELL('',(#434,#465,#496,#513,#530,#542));
#544=MANIFOLD_SOLID_BREP('AEF',#543);
#545=COLOUR_RGB('251',0.464000000000000,0.464000000000000,0.464000000000000);
#546=SURFACE_STYLE_USAGE(.BOTH.,#547);
#547=SURFACE_SIDE_STYLE('NONE',(#548));
#548=SURFACE_STYLE_FILL_AREA(#549);
#549=FILL_AREA_STYLE('NONE',(#550));
#550=FILL_AREA_STYLE_COLOUR('NONE',#545);
#551=PRESENTATION_STYLE_ASSIGNMENT((#546));
#552=STYLED_ITEM('NONE',(#551),#544);
#553=ADVANCED_BREP_SHAPE_REPRESENTATION('ABSR1',(#227,#386,#544),#28);
#554=SHAPE_REPRESENTATION_RELATIONSHIP('SRRPL1','',#553,#62);
#555=GEOMETRIC_CURVE_SET('GCS1',(#70,#393));
#556=GEOMETRICALLY_BOUNDED_WIREFRAME_SHAPE_REPRESENTATION('GBWSR1',(#555),#28);
#557=SHAPE_REPRESENTATION_RELATIONSHIP('SRRPL2','',#556,#62);
ENDSEC;
END-ISO-10303-21;
