ISO-10303-21;
HEADER;
/****************************************************************
 * Generated by software with PDElib inside                    *
 * PDElib Version v51a, created Wed 11/30/2011                  *
 * ITI Transcendata (http://www.transcendata.com/)              *
 ****************************************************************/
FILE_DESCRIPTION((''),'2;1');
FILE_NAME('CAPC4532X220N.stp','2015-01-21T09:57:14',(''),(''),'Mechanical Desktop 2011','Mechanical Desktop 2011',', , ');
FILE_SCHEMA(('AUTOMOTIVE_DESIGN { 1 2 10303 214 1 1 1 1 }'));
ENDSEC;
DATA;
#10=(NAMED_UNIT(*)PLANE_ANGLE_UNIT()SI_UNIT($,.RADIAN.));
#11=DIMENSIONAL_EXPONENTS(0.0,0.0,0.0,0.0,0.0,0.0,0.0);
#12=PLANE_ANGLE_MEASURE_WITH_UNIT(PLANE_ANGLE_MEASURE(0.0174532925),#10);
#16=(CONVERSION_BASED_UNIT('DEGREE',#12)NAMED_UNIT(#11)PLANE_ANGLE_UNIT());
#20=(NAMED_UNIT(*)SI_UNIT($,.STERADIAN.)SOLID_ANGLE_UNIT());
#24=(LENGTH_UNIT()NAMED_UNIT(*)SI_UNIT(.MILLI.,.METRE.));
#26=UNCERTAINTY_MEASURE_WITH_UNIT(LENGTH_MEASURE(0.000001),#24,'DISTANCE_ACCURACY_VALUE','');
#28=(GEOMETRIC_REPRESENTATION_CONTEXT(3)GLOBAL_UNCERTAINTY_ASSIGNED_CONTEXT((#26))GLOBAL_UNIT_ASSIGNED_CONTEXT((#16,#20,#24))REPRESENTATION_CONTEXT('','3D'));
#29=APPLICATION_CONTEXT('automotive design');
#30=APPLICATION_PROTOCOL_DEFINITION('INTERNATIONAL_STANDARD','automotive_design',1998,#29);
#31=PRODUCT_CONTEXT('3D Mechanical Parts',#29,'mechanical');
#32=PRODUCT('Product','Product','',(#31));
#33=PRODUCT_RELATED_PRODUCT_CATEGORY('part',$,(#32));
#34=PRODUCT_CATEGORY('part',$);
#35=PERSON('1','Design','Joe',$,$,$);
#36=ORGANIZATION($,'None','None');
#37=PERSON_AND_ORGANIZATION(#35,#36);
#38=PERSON_AND_ORGANIZATION_ROLE('design_owner');
#39=APPLIED_PERSON_AND_ORGANIZATION_ASSIGNMENT(#37,#38,(#32));
#40=PRODUCT_DEFINITION_FORMATION_WITH_SPECIFIED_SOURCE('None','',#32,.BOUGHT.);
#41=PERSON('2','Creator','Joe',$,$,$);
#42=ORGANIZATION($,'None','None');
#43=PERSON_AND_ORGANIZATION(#41,#42);
#44=PERSON_AND_ORGANIZATION_ROLE('creator');
#45=APPLIED_PERSON_AND_ORGANIZATION_ASSIGNMENT(#43,#44,(#40));
#46=PERSON('3','Supplier','Joe',$,$,$);
#47=ORGANIZATION($,'None','None');
#48=PERSON_AND_ORGANIZATION(#46,#47);
#49=PERSON_AND_ORGANIZATION_ROLE('design_supplier');
#50=APPLIED_PERSON_AND_ORGANIZATION_ASSIGNMENT(#48,#49,(#40));
#51=PRODUCT_DEFINITION_CONTEXT('part definition',#29,'design');
#52=PRODUCT_DEFINITION('None','',#40,#51);
#53=PERSON('4','Creator','Joe',$,$,$);
#54=ORGANIZATION($,'None','None');
#55=PERSON_AND_ORGANIZATION(#53,#54);
#56=PERSON_AND_ORGANIZATION_ROLE('creator');
#57=APPLIED_PERSON_AND_ORGANIZATION_ASSIGNMENT(#55,#56,(#52));
#58=CARTESIAN_POINT('NONE',(0.0,0.0,0.0));
#59=DIRECTION('NONE',(0.0,0.0,1.0));
#60=DIRECTION('NONE',(1.0,0.0,0.0));
#61=AXIS2_PLACEMENT_3D('NONE',#58,#59,#60);
#62=SHAPE_REPRESENTATION('SR1',(#61),#28);
#63=PRODUCT_DEFINITION_SHAPE('PDS1','Test Part',#52);
#64=SHAPE_DEFINITION_REPRESENTATION(#63,#62);
#65=CARTESIAN_POINT('',(2.250000000000001,1.6,2.0));
#66=DIRECTION('',(0.577350269189626,0.577350269189626,0.577350269189626));
#67=DIRECTION('',(-0.707106781186548,0.0,0.707106781186548));
#68=AXIS2_PLACEMENT_3D('',#65,#66,#67);
#69=SPHERICAL_SURFACE('',#68,0.2);
#70=CARTESIAN_POINT('',(2.365470053837926,1.715470053837926,2.115470053837925));
#71=VERTEX_POINT('',#70);
#72=CARTESIAN_POINT('',(2.250000000000001,1.689442719099992,2.178885438199983));
#73=VERTEX_POINT('',#72);
#74=CARTESIAN_POINT('',(2.250000000000001,1.6,2.0));
#75=DIRECTION('',(0.408248290463863,-0.816496580927726,0.408248290463863));
#76=DIRECTION('',(-0.707106781186548,0.0,0.707106781186548));
#77=AXIS2_PLACEMENT_3D('',#74,#75,#76);
#78=CIRCLE('',#77,0.2);
#79=EDGE_CURVE('',#71,#73,#78,.T.);
#80=ORIENTED_EDGE('',*,*,#79,.F.);
#81=CARTESIAN_POINT('',(2.428885438199984,1.689442719099992,2.0));
#82=VERTEX_POINT('',#81);
#83=CARTESIAN_POINT('',(2.250000000000001,1.6,2.0));
#84=DIRECTION('',(-0.408248290463863,0.816496580927726,-0.408248290463863));
#85=DIRECTION('',(0.707106781186548,0.0,-0.707106781186547));
#86=AXIS2_PLACEMENT_3D('',#83,#84,#85);
#87=CIRCLE('',#86,0.2);
#88=EDGE_CURVE('',#71,#82,#87,.T.);
#89=ORIENTED_EDGE('',*,*,#88,.T.);
#90=CARTESIAN_POINT('',(2.250000000000001,1.8,2.0));
#91=VERTEX_POINT('',#90);
#92=CARTESIAN_POINT('',(2.250000000000001,1.6,2.0));
#93=DIRECTION('',(0.0,0.0,1.0));
#94=DIRECTION('',(0.707106781186547,0.707106781186547,0.0));
#95=AXIS2_PLACEMENT_3D('',#92,#93,#94);
#96=CIRCLE('',#95,0.2);
#97=EDGE_CURVE('',#82,#91,#96,.T.);
#98=ORIENTED_EDGE('',*,*,#97,.T.);
#99=CARTESIAN_POINT('',(2.25,1.6,2.0));
#100=DIRECTION('',(1.0,0.0,0.0));
#101=DIRECTION('',(0.0,0.0,1.0));
#102=AXIS2_PLACEMENT_3D('',#99,#100,#101);
#103=CIRCLE('',#102,0.2);
#104=EDGE_CURVE('',#73,#91,#103,.F.);
#105=ORIENTED_EDGE('',*,*,#104,.F.);
#106=EDGE_LOOP('',(#80,#89,#98,#105));
#107=FACE_OUTER_BOUND('',#106,.T.);
#108=ADVANCED_FACE('',(#107),#69,.T.);
#109=CARTESIAN_POINT('',(2.25,-1.599999999999999,0.2));
#110=DIRECTION('',(0.577350269189626,0.577350269189626,0.577350269189626));
#111=DIRECTION('',(-0.707106781186548,0.0,0.707106781186548));
#112=AXIS2_PLACEMENT_3D('',#109,#110,#111);
#113=SPHERICAL_SURFACE('',#112,0.2);
#114=CARTESIAN_POINT('',(2.25,-1.8,0.2));
#115=VERTEX_POINT('',#114);
#116=CARTESIAN_POINT('',(2.25,-1.599999999999999,0.0));
#117=VERTEX_POINT('',#116);
#118=CARTESIAN_POINT('',(2.25,-1.599999999999999,0.2));
#119=DIRECTION('',(1.0,0.0,0.0));
#120=DIRECTION('',(0.0,-0.707106781186548,-0.707106781186547));
#121=AXIS2_PLACEMENT_3D('',#118,#119,#120);
#122=CIRCLE('',#121,0.2);
#123=EDGE_CURVE('',#115,#117,#122,.T.);
#124=ORIENTED_EDGE('',*,*,#123,.T.);
#125=CARTESIAN_POINT('',(2.45,-1.599999999999999,0.2));
#126=VERTEX_POINT('',#125);
#127=CARTESIAN_POINT('',(2.25,-1.599999999999999,0.2));
#128=DIRECTION('',(0.0,-1.0,0.0));
#129=DIRECTION('',(1.0,0.0,0.0));
#130=AXIS2_PLACEMENT_3D('',#127,#128,#129);
#131=CIRCLE('',#130,0.2);
#132=EDGE_CURVE('',#126,#117,#131,.F.);
#133=ORIENTED_EDGE('',*,*,#132,.F.);
#134=CARTESIAN_POINT('',(2.25,-1.599999999999999,0.2));
#135=DIRECTION('',(0.0,0.0,-1.0));
#136=DIRECTION('',(0.0,-1.0,0.0));
#137=AXIS2_PLACEMENT_3D('',#134,#135,#136);
#138=CIRCLE('',#137,0.2);
#139=EDGE_CURVE('',#115,#126,#138,.F.);
#140=ORIENTED_EDGE('',*,*,#139,.F.);
#141=EDGE_LOOP('',(#124,#133,#140));
#142=FACE_OUTER_BOUND('',#141,.T.);
#143=ADVANCED_FACE('',(#142),#113,.T.);
#144=CARTESIAN_POINT('',(2.25,-1.599999999999999,2.0));
#145=DIRECTION('',(0.577350269189626,0.577350269189626,0.577350269189626));
#146=DIRECTION('',(-0.707106781186548,0.0,0.707106781186548));
#147=AXIS2_PLACEMENT_3D('',#144,#145,#146);
#148=SPHERICAL_SURFACE('',#147,0.2);
#149=CARTESIAN_POINT('',(2.25,-1.8,2.0));
#150=VERTEX_POINT('',#149);
#151=CARTESIAN_POINT('',(2.45,-1.599999999999999,2.0));
#152=VERTEX_POINT('',#151);
#153=CARTESIAN_POINT('',(2.25,-1.599999999999999,2.0));
#154=DIRECTION('',(0.0,0.0,1.0));
#155=DIRECTION('',(0.707106781186547,-0.707106781186548,0.0));
#156=AXIS2_PLACEMENT_3D('',#153,#154,#155);
#157=CIRCLE('',#156,0.2);
#158=EDGE_CURVE('',#150,#152,#157,.T.);
#159=ORIENTED_EDGE('',*,*,#158,.T.);
#160=CARTESIAN_POINT('',(2.25,-1.599999999999999,2.2));
#161=VERTEX_POINT('',#160);
#162=CARTESIAN_POINT('',(2.25,-1.599999999999999,2.0));
#163=DIRECTION('',(0.0,-1.0,0.0));
#164=DIRECTION('',(0.0,0.0,1.0));
#165=AXIS2_PLACEMENT_3D('',#162,#163,#164);
#166=CIRCLE('',#165,0.2);
#167=EDGE_CURVE('',#161,#152,#166,.F.);
#168=ORIENTED_EDGE('',*,*,#167,.F.);
#169=CARTESIAN_POINT('',(2.25,-1.599999999999999,2.0));
#170=DIRECTION('',(1.0,0.0,0.0));
#171=DIRECTION('',(0.0,-0.707106781186547,0.707106781186547));
#172=AXIS2_PLACEMENT_3D('',#169,#170,#171);
#173=CIRCLE('',#172,0.2);
#174=EDGE_CURVE('',#161,#150,#173,.T.);
#175=ORIENTED_EDGE('',*,*,#174,.T.);
#176=EDGE_LOOP('',(#159,#168,#175));
#177=FACE_OUTER_BOUND('',#176,.T.);
#178=ADVANCED_FACE('',(#177),#148,.T.);
#179=CARTESIAN_POINT('',(2.25,1.6,0.2));
#180=DIRECTION('',(0.577350269189626,0.577350269189626,0.577350269189626));
#181=DIRECTION('',(-0.707106781186548,0.0,0.707106781186548));
#182=AXIS2_PLACEMENT_3D('',#179,#180,#181);
#183=SPHERICAL_SURFACE('',#182,0.2);
#184=CARTESIAN_POINT('',(2.25,1.6,0.0));
#185=VERTEX_POINT('',#184);
#186=CARTESIAN_POINT('',(2.250000000000001,1.8,0.2));
#187=VERTEX_POINT('',#186);
#188=CARTESIAN_POINT('',(2.25,1.6,0.2));
#189=DIRECTION('',(1.0,-1.110223E-015,1.110223E-015));
#190=DIRECTION('',(1.570092E-015,0.707106781186548,-0.707106781186547));
#191=AXIS2_PLACEMENT_3D('',#188,#189,#190);
#192=CIRCLE('',#191,0.2);
#193=EDGE_CURVE('',#185,#187,#192,.T.);
#194=ORIENTED_EDGE('',*,*,#193,.T.);
#195=CARTESIAN_POINT('',(2.450000000000001,1.6,0.2));
#196=VERTEX_POINT('',#195);
#197=CARTESIAN_POINT('',(2.250000000000001,1.6,0.2));
#198=DIRECTION('',(0.0,0.0,-1.0));
#199=DIRECTION('',(1.0,0.0,0.0));
#200=AXIS2_PLACEMENT_3D('',#197,#198,#199);
#201=CIRCLE('',#200,0.2);
#202=EDGE_CURVE('',#196,#187,#201,.F.);
#203=ORIENTED_EDGE('',*,*,#202,.F.);
#204=CARTESIAN_POINT('',(2.25,1.6,0.2));
#205=DIRECTION('',(0.0,1.0,0.0));
#206=DIRECTION('',(0.707106781186548,0.0,-0.707106781186547));
#207=AXIS2_PLACEMENT_3D('',#204,#205,#206);
#208=CIRCLE('',#207,0.2);
#209=EDGE_CURVE('',#196,#185,#208,.T.);
#210=ORIENTED_EDGE('',*,*,#209,.T.);
#211=EDGE_LOOP('',(#194,#203,#210));
#212=FACE_OUTER_BOUND('',#211,.T.);
#213=ADVANCED_FACE('',(#212),#183,.T.);
#214=CARTESIAN_POINT('',(2.250000000000001,1.6,2.0));
#215=DIRECTION('',(0.577350269189626,0.577350269189626,0.577350269189626));
#216=DIRECTION('',(-0.707106781186548,0.0,0.707106781186548));
#217=AXIS2_PLACEMENT_3D('',#214,#215,#216);
#218=SPHERICAL_SURFACE('',#217,0.2);
#219=ORIENTED_EDGE('',*,*,#79,.T.);
#220=CARTESIAN_POINT('',(2.25,1.6,2.2));
#221=VERTEX_POINT('',#220);
#222=CARTESIAN_POINT('',(2.25,1.6,2.0));
#223=DIRECTION('',(1.0,0.0,0.0));
#224=DIRECTION('',(0.0,0.0,1.0));
#225=AXIS2_PLACEMENT_3D('',#222,#223,#224);
#226=CIRCLE('',#225,0.2);
#227=EDGE_CURVE('',#221,#73,#226,.F.);
#228=ORIENTED_EDGE('',*,*,#227,.F.);
#229=CARTESIAN_POINT('',(2.450000000000001,1.6,2.0));
#230=VERTEX_POINT('',#229);
#231=CARTESIAN_POINT('',(2.25,1.6,2.0));
#232=DIRECTION('',(0.0,1.0,0.0));
#233=DIRECTION('',(0.707106781186547,0.0,0.707106781186547));
#234=AXIS2_PLACEMENT_3D('',#231,#232,#233);
#235=CIRCLE('',#234,0.2);
#236=EDGE_CURVE('',#221,#230,#235,.T.);
#237=ORIENTED_EDGE('',*,*,#236,.T.);
#238=CARTESIAN_POINT('',(2.250000000000001,1.6,2.0));
#239=DIRECTION('',(0.0,0.0,1.0));
#240=DIRECTION('',(0.707106781186547,0.707106781186547,0.0));
#241=AXIS2_PLACEMENT_3D('',#238,#239,#240);
#242=CIRCLE('',#241,0.2);
#243=EDGE_CURVE('',#230,#82,#242,.T.);
#244=ORIENTED_EDGE('',*,*,#243,.T.);
#245=ORIENTED_EDGE('',*,*,#88,.F.);
#246=EDGE_LOOP('',(#219,#228,#237,#244,#245));
#247=FACE_OUTER_BOUND('',#246,.T.);
#248=ADVANCED_FACE('',(#247),#218,.T.);
#249=CARTESIAN_POINT('',(2.000000000000001,1.6,2.0));
#250=DIRECTION('',(1.0,0.0,0.0));
#251=DIRECTION('',(0.0,0.707106781186547,0.707106781186547));
#252=AXIS2_PLACEMENT_3D('',#249,#250,#251);
#253=CYLINDRICAL_SURFACE('',#252,0.2);
#254=CARTESIAN_POINT('',(1.850000000000001,1.8,2.0));
#255=VERTEX_POINT('',#254);
#256=CARTESIAN_POINT('',(1.850000000000001,1.6,2.2));
#257=VERTEX_POINT('',#256);
#258=CARTESIAN_POINT('',(1.85,1.6,2.0));
#259=DIRECTION('',(1.0,0.0,0.0));
#260=DIRECTION('',(0.0,0.707106781186547,0.707106781186547));
#261=AXIS2_PLACEMENT_3D('',#258,#259,#260);
#262=CIRCLE('',#261,0.2);
#263=EDGE_CURVE('',#255,#257,#262,.T.);
#264=ORIENTED_EDGE('',*,*,#263,.T.);
#265=CARTESIAN_POINT('',(1.850000000000001,1.6,2.2));
#266=DIRECTION('',(1.0,0.0,0.0));
#267=VECTOR('',#266,0.4);
#268=LINE('',#265,#267);
#269=EDGE_CURVE('',#257,#221,#268,.T.);
#270=ORIENTED_EDGE('',*,*,#269,.T.);
#271=ORIENTED_EDGE('',*,*,#227,.T.);
#272=ORIENTED_EDGE('',*,*,#104,.T.);
#273=CARTESIAN_POINT('',(2.250000000000001,1.8,2.0));
#274=DIRECTION('',(-1.0,0.0,0.0));
#275=VECTOR('',#274,0.4);
#276=LINE('',#273,#275);
#277=EDGE_CURVE('',#91,#255,#276,.T.);
#278=ORIENTED_EDGE('',*,*,#277,.T.);
#279=EDGE_LOOP('',(#264,#270,#271,#272,#278));
#280=FACE_OUTER_BOUND('',#279,.T.);
#281=ADVANCED_FACE('',(#280),#253,.T.);
#282=CARTESIAN_POINT('',(2.250000000000001,1.6,0.0));
#283=DIRECTION('',(0.0,0.0,1.0));
#284=DIRECTION('',(0.707106781186547,0.707106781186547,0.0));
#285=AXIS2_PLACEMENT_3D('',#282,#283,#284);
#286=CYLINDRICAL_SURFACE('',#285,0.2);
#287=ORIENTED_EDGE('',*,*,#243,.F.);
#288=CARTESIAN_POINT('',(2.450000000000001,1.6,2.0));
#289=DIRECTION('',(0.0,0.0,-1.0));
#290=VECTOR('',#289,1.8);
#291=LINE('',#288,#290);
#292=EDGE_CURVE('',#230,#196,#291,.T.);
#293=ORIENTED_EDGE('',*,*,#292,.T.);
#294=ORIENTED_EDGE('',*,*,#202,.T.);
#295=CARTESIAN_POINT('',(2.250000000000001,1.8,0.2));
#296=DIRECTION('',(0.0,0.0,1.0));
#297=VECTOR('',#296,1.8);
#298=LINE('',#295,#297);
#299=EDGE_CURVE('',#187,#91,#298,.T.);
#300=ORIENTED_EDGE('',*,*,#299,.T.);
#301=ORIENTED_EDGE('',*,*,#97,.F.);
#302=EDGE_LOOP('',(#287,#293,#294,#300,#301));
#303=FACE_OUTER_BOUND('',#302,.T.);
#304=ADVANCED_FACE('',(#303),#286,.T.);
#305=CARTESIAN_POINT('',(2.25,0.9,2.0));
#306=DIRECTION('',(-1.233581E-016,-1.0,0.0));
#307=DIRECTION('',(0.707106781186547,0.0,0.707106781186547));
#308=AXIS2_PLACEMENT_3D('',#305,#306,#307);
#309=CYLINDRICAL_SURFACE('',#308,0.2);
#310=ORIENTED_EDGE('',*,*,#167,.T.);
#311=CARTESIAN_POINT('',(2.45,-1.599999999999999,2.0));
#312=DIRECTION('',(0.0,1.0,0.0));
#313=VECTOR('',#312,3.2);
#314=LINE('',#311,#313);
#315=EDGE_CURVE('',#152,#230,#314,.T.);
#316=ORIENTED_EDGE('',*,*,#315,.T.);
#317=ORIENTED_EDGE('',*,*,#236,.F.);
#318=CARTESIAN_POINT('',(2.25,1.6,2.2));
#319=DIRECTION('',(0.0,-1.0,0.0));
#320=VECTOR('',#319,3.2);
#321=LINE('',#318,#320);
#322=EDGE_CURVE('',#221,#161,#321,.T.);
#323=ORIENTED_EDGE('',*,*,#322,.T.);
#324=EDGE_LOOP('',(#310,#316,#317,#323));
#325=FACE_OUTER_BOUND('',#324,.T.);
#326=ADVANCED_FACE('',(#325),#309,.T.);
#327=CARTESIAN_POINT('',(2.000000000000001,1.6,0.2));
#328=DIRECTION('',(1.0,0.0,0.0));
#329=DIRECTION('',(0.0,0.707106781186548,-0.707106781186547));
#330=AXIS2_PLACEMENT_3D('',#327,#328,#329);
#331=CYLINDRICAL_SURFACE('',#330,0.2);
#332=CARTESIAN_POINT('',(1.850000000000001,1.6,0.0));
#333=VERTEX_POINT('',#332);
#334=CARTESIAN_POINT('',(1.850000000000001,1.8,0.2));
#335=VERTEX_POINT('',#334);
#336=CARTESIAN_POINT('',(1.85,1.6,0.2));
#337=DIRECTION('',(1.0,0.0,0.0));
#338=DIRECTION('',(0.0,0.707106781186548,-0.707106781186547));
#339=AXIS2_PLACEMENT_3D('',#336,#337,#338);
#340=CIRCLE('',#339,0.2);
#341=EDGE_CURVE('',#333,#335,#340,.T.);
#342=ORIENTED_EDGE('',*,*,#341,.T.);
#343=CARTESIAN_POINT('',(1.850000000000001,1.8,0.2));
#344=DIRECTION('',(1.0,0.0,0.0));
#345=VECTOR('',#344,0.4);
#346=LINE('',#343,#345);
#347=EDGE_CURVE('',#335,#187,#346,.T.);
#348=ORIENTED_EDGE('',*,*,#347,.T.);
#349=ORIENTED_EDGE('',*,*,#193,.F.);
#350=CARTESIAN_POINT('',(2.250000000000001,1.6,0.0));
#351=DIRECTION('',(-1.0,0.0,0.0));
#352=VECTOR('',#351,0.4);
#353=LINE('',#350,#352);
#354=EDGE_CURVE('',#185,#333,#353,.T.);
#355=ORIENTED_EDGE('',*,*,#354,.T.);
#356=EDGE_LOOP('',(#342,#348,#349,#355));
#357=FACE_OUTER_BOUND('',#356,.T.);
#358=ADVANCED_FACE('',(#357),#331,.T.);
#359=CARTESIAN_POINT('',(2.25,0.9,0.2));
#360=DIRECTION('',(-1.233581E-016,-1.0,0.0));
#361=DIRECTION('',(0.707106781186548,0.0,-0.707106781186547));
#362=AXIS2_PLACEMENT_3D('',#359,#360,#361);
#363=CYLINDRICAL_SURFACE('',#362,0.2);
#364=ORIENTED_EDGE('',*,*,#132,.T.);
#365=CARTESIAN_POINT('',(2.25,-1.599999999999999,0.0));
#366=DIRECTION('',(0.0,1.0,0.0));
#367=VECTOR('',#366,3.2);
#368=LINE('',#365,#367);
#369=EDGE_CURVE('',#117,#185,#368,.T.);
#370=ORIENTED_EDGE('',*,*,#369,.T.);
#371=ORIENTED_EDGE('',*,*,#209,.F.);
#372=CARTESIAN_POINT('',(2.450000000000001,1.6,0.2));
#373=DIRECTION('',(0.0,-1.0,0.0));
#374=VECTOR('',#373,3.2);
#375=LINE('',#372,#374);
#376=EDGE_CURVE('',#196,#126,#375,.T.);
#377=ORIENTED_EDGE('',*,*,#376,.T.);
#378=EDGE_LOOP('',(#364,#370,#371,#377));
#379=FACE_OUTER_BOUND('',#378,.T.);
#380=ADVANCED_FACE('',(#379),#363,.T.);
#381=CARTESIAN_POINT('',(2.25,-1.599999999999999,0.0));
#382=DIRECTION('',(0.0,0.0,1.0));
#383=DIRECTION('',(0.707106781186547,-0.707106781186548,0.0));
#384=AXIS2_PLACEMENT_3D('',#381,#382,#383);
#385=CYLINDRICAL_SURFACE('',#384,0.2);
#386=ORIENTED_EDGE('',*,*,#158,.F.);
#387=CARTESIAN_POINT('',(2.25,-1.8,2.0));
#388=DIRECTION('',(0.0,0.0,-1.0));
#389=VECTOR('',#388,1.8);
#390=LINE('',#387,#389);
#391=EDGE_CURVE('',#150,#115,#390,.T.);
#392=ORIENTED_EDGE('',*,*,#391,.T.);
#393=ORIENTED_EDGE('',*,*,#139,.T.);
#394=CARTESIAN_POINT('',(2.45,-1.599999999999999,0.2));
#395=DIRECTION('',(0.0,0.0,1.0));
#396=VECTOR('',#395,1.8);
#397=LINE('',#394,#396);
#398=EDGE_CURVE('',#126,#152,#397,.T.);
#399=ORIENTED_EDGE('',*,*,#398,.T.);
#400=EDGE_LOOP('',(#386,#392,#393,#399));
#401=FACE_OUTER_BOUND('',#400,.T.);
#402=ADVANCED_FACE('',(#401),#385,.T.);
#403=CARTESIAN_POINT('',(2.300000000000001,-1.599999999999999,2.0));
#404=DIRECTION('',(-1.0,0.0,0.0));
#405=DIRECTION('',(0.0,-0.707106781186547,0.707106781186547));
#406=AXIS2_PLACEMENT_3D('',#403,#404,#405);
#407=CYLINDRICAL_SURFACE('',#406,0.2);
#408=CARTESIAN_POINT('',(1.85,-1.599999999999999,2.2));
#409=VERTEX_POINT('',#408);
#410=CARTESIAN_POINT('',(1.85,-1.8,2.0));
#411=VERTEX_POINT('',#410);
#412=CARTESIAN_POINT('',(1.85,-1.599999999999999,2.0));
#413=DIRECTION('',(1.0,0.0,0.0));
#414=DIRECTION('',(0.0,-0.707106781186547,0.707106781186547));
#415=AXIS2_PLACEMENT_3D('',#412,#413,#414);
#416=CIRCLE('',#415,0.2);
#417=EDGE_CURVE('',#409,#411,#416,.T.);
#418=ORIENTED_EDGE('',*,*,#417,.T.);
#419=CARTESIAN_POINT('',(1.85,-1.8,2.0));
#420=DIRECTION('',(1.0,0.0,0.0));
#421=VECTOR('',#420,0.4);
#422=LINE('',#419,#421);
#423=EDGE_CURVE('',#411,#150,#422,.T.);
#424=ORIENTED_EDGE('',*,*,#423,.T.);
#425=ORIENTED_EDGE('',*,*,#174,.F.);
#426=CARTESIAN_POINT('',(2.25,-1.599999999999999,2.2));
#427=DIRECTION('',(-1.0,0.0,0.0));
#428=VECTOR('',#427,0.4);
#429=LINE('',#426,#428);
#430=EDGE_CURVE('',#161,#409,#429,.T.);
#431=ORIENTED_EDGE('',*,*,#430,.T.);
#432=EDGE_LOOP('',(#418,#424,#425,#431));
#433=FACE_OUTER_BOUND('',#432,.T.);
#434=ADVANCED_FACE('',(#433),#407,.T.);
#435=CARTESIAN_POINT('',(2.300000000000001,-1.599999999999999,0.2));
#436=DIRECTION('',(-1.0,0.0,0.0));
#437=DIRECTION('',(0.0,-0.707106781186548,-0.707106781186547));
#438=AXIS2_PLACEMENT_3D('',#435,#436,#437);
#439=CYLINDRICAL_SURFACE('',#438,0.2);
#440=CARTESIAN_POINT('',(1.85,-1.8,0.2));
#441=VERTEX_POINT('',#440);
#442=CARTESIAN_POINT('',(1.85,-1.599999999999999,0.0));
#443=VERTEX_POINT('',#442);
#444=CARTESIAN_POINT('',(1.85,-1.599999999999999,0.2));
#445=DIRECTION('',(1.0,0.0,0.0));
#446=DIRECTION('',(0.0,-0.707106781186548,-0.707106781186547));
#447=AXIS2_PLACEMENT_3D('',#444,#445,#446);
#448=CIRCLE('',#447,0.2);
#449=EDGE_CURVE('',#441,#443,#448,.T.);
#450=ORIENTED_EDGE('',*,*,#449,.T.);
#451=CARTESIAN_POINT('',(1.85,-1.599999999999999,0.0));
#452=DIRECTION('',(1.0,0.0,0.0));
#453=VECTOR('',#452,0.400000000000001);
#454=LINE('',#451,#453);
#455=EDGE_CURVE('',#443,#117,#454,.T.);
#456=ORIENTED_EDGE('',*,*,#455,.T.);
#457=ORIENTED_EDGE('',*,*,#123,.F.);
#458=CARTESIAN_POINT('',(2.25,-1.8,0.2));
#459=DIRECTION('',(-1.0,0.0,0.0));
#460=VECTOR('',#459,0.400000000000001);
#461=LINE('',#458,#460);
#462=EDGE_CURVE('',#115,#441,#461,.T.);
#463=ORIENTED_EDGE('',*,*,#462,.T.);
#464=EDGE_LOOP('',(#450,#456,#457,#463));
#465=FACE_OUTER_BOUND('',#464,.T.);
#466=ADVANCED_FACE('',(#465),#439,.T.);
#467=CARTESIAN_POINT('',(2.150000000000001,0.0,0.0));
#468=DIRECTION('',(0.0,0.0,1.0));
#469=DIRECTION('',(1.0,0.0,0.0));
#470=AXIS2_PLACEMENT_3D('',#467,#468,#469);
#471=PLANE('',#470);
#472=ORIENTED_EDGE('',*,*,#354,.F.);
#473=ORIENTED_EDGE('',*,*,#369,.F.);
#474=ORIENTED_EDGE('',*,*,#455,.F.);
#475=CARTESIAN_POINT('',(1.85,-1.599999999999999,0.0));
#476=DIRECTION('',(0.0,1.0,0.0));
#477=VECTOR('',#476,3.2);
#478=LINE('',#475,#477);
#479=EDGE_CURVE('',#443,#333,#478,.T.);
#480=ORIENTED_EDGE('',*,*,#479,.T.);
#481=EDGE_LOOP('',(#472,#473,#474,#480));
#482=FACE_OUTER_BOUND('',#481,.T.);
#483=ADVANCED_FACE('',(#482),#471,.F.);
#484=CARTESIAN_POINT('',(1.85,-1.8,0.0));
#485=DIRECTION('',(-1.0,0.0,0.0));
#486=DIRECTION('',(0.0,0.0,1.0));
#487=AXIS2_PLACEMENT_3D('',#484,#485,#486);
#488=PLANE('',#487);
#489=ORIENTED_EDGE('',*,*,#341,.F.);
#490=ORIENTED_EDGE('',*,*,#479,.F.);
#491=ORIENTED_EDGE('',*,*,#449,.F.);
#492=CARTESIAN_POINT('',(1.85,-1.8,0.2));
#493=DIRECTION('',(0.0,0.0,1.0));
#494=VECTOR('',#493,1.8);
#495=LINE('',#492,#494);
#496=EDGE_CURVE('',#441,#411,#495,.T.);
#497=ORIENTED_EDGE('',*,*,#496,.T.);
#498=ORIENTED_EDGE('',*,*,#417,.F.);
#499=CARTESIAN_POINT('',(1.85,-1.599999999999999,2.2));
#500=DIRECTION('',(0.0,1.0,0.0));
#501=VECTOR('',#500,3.2);
#502=LINE('',#499,#501);
#503=EDGE_CURVE('',#409,#257,#502,.T.);
#504=ORIENTED_EDGE('',*,*,#503,.T.);
#505=ORIENTED_EDGE('',*,*,#263,.F.);
#506=CARTESIAN_POINT('',(1.850000000000001,1.8,0.2));
#507=DIRECTION('',(0.0,0.0,1.0));
#508=VECTOR('',#507,1.8);
#509=LINE('',#506,#508);
#510=EDGE_CURVE('',#335,#255,#509,.T.);
#511=ORIENTED_EDGE('',*,*,#510,.F.);
#512=EDGE_LOOP('',(#489,#490,#491,#497,#498,#504,#505,#511));
#513=FACE_OUTER_BOUND('',#512,.T.);
#514=ADVANCED_FACE('',(#513),#488,.T.);
#515=CARTESIAN_POINT('',(2.45,-1.8,0.0));
#516=DIRECTION('',(0.0,-1.0,0.0));
#517=DIRECTION('',(0.0,0.0,-1.0));
#518=AXIS2_PLACEMENT_3D('',#515,#516,#517);
#519=PLANE('',#518);
#520=ORIENTED_EDGE('',*,*,#462,.F.);
#521=ORIENTED_EDGE('',*,*,#391,.F.);
#522=ORIENTED_EDGE('',*,*,#423,.F.);
#523=ORIENTED_EDGE('',*,*,#496,.F.);
#524=EDGE_LOOP('',(#520,#521,#522,#523));
#525=FACE_OUTER_BOUND('',#524,.T.);
#526=ADVANCED_FACE('',(#525),#519,.T.);
#527=CARTESIAN_POINT('',(2.450000000000001,1.8,0.0));
#528=DIRECTION('',(1.0,0.0,0.0));
#529=DIRECTION('',(0.0,0.0,-1.0));
#530=AXIS2_PLACEMENT_3D('',#527,#528,#529);
#531=PLANE('',#530);
#532=ORIENTED_EDGE('',*,*,#292,.F.);
#533=ORIENTED_EDGE('',*,*,#315,.F.);
#534=ORIENTED_EDGE('',*,*,#398,.F.);
#535=ORIENTED_EDGE('',*,*,#376,.F.);
#536=EDGE_LOOP('',(#532,#533,#534,#535));
#537=FACE_OUTER_BOUND('',#536,.T.);
#538=ADVANCED_FACE('',(#537),#531,.T.);
#539=CARTESIAN_POINT('',(1.850000000000001,1.8,0.0));
#540=DIRECTION('',(0.0,1.0,0.0));
#541=DIRECTION('',(0.0,0.0,1.0));
#542=AXIS2_PLACEMENT_3D('',#539,#540,#541);
#543=PLANE('',#542);
#544=ORIENTED_EDGE('',*,*,#347,.F.);
#545=ORIENTED_EDGE('',*,*,#510,.T.);
#546=ORIENTED_EDGE('',*,*,#277,.F.);
#547=ORIENTED_EDGE('',*,*,#299,.F.);
#548=EDGE_LOOP('',(#544,#545,#546,#547));
#549=FACE_OUTER_BOUND('',#548,.T.);
#550=ADVANCED_FACE('',(#549),#543,.T.);
#551=CARTESIAN_POINT('',(2.150000000000001,0.0,2.2));
#552=DIRECTION('',(0.0,0.0,1.0));
#553=DIRECTION('',(1.0,0.0,0.0));
#554=AXIS2_PLACEMENT_3D('',#551,#552,#553);
#555=PLANE('',#554);
#556=ORIENTED_EDGE('',*,*,#269,.F.);
#557=ORIENTED_EDGE('',*,*,#503,.F.);
#558=ORIENTED_EDGE('',*,*,#430,.F.);
#559=ORIENTED_EDGE('',*,*,#322,.F.);
#560=EDGE_LOOP('',(#556,#557,#558,#559));
#561=FACE_OUTER_BOUND('',#560,.T.);
#562=ADVANCED_FACE('',(#561),#555,.T.);
#563=CLOSED_SHELL('',(#108,#143,#178,#213,#248,#281,#304,#326,#358,#380,#402,#434,#466,#483,#514,#526,#538,#550,#562));
#564=MANIFOLD_SOLID_BREP('57C',#563);
#565=COLOUR_RGB('254',0.866,0.866,0.866);
#566=SURFACE_STYLE_USAGE(.BOTH.,#567);
#567=SURFACE_SIDE_STYLE('NONE',(#568));
#568=SURFACE_STYLE_FILL_AREA(#569);
#569=FILL_AREA_STYLE('NONE',(#570));
#570=FILL_AREA_STYLE_COLOUR('NONE',#565);
#571=PRESENTATION_STYLE_ASSIGNMENT((#566));
#572=STYLED_ITEM('NONE',(#571),#564);
#573=MECHANICAL_DESIGN_GEOMETRIC_PRESENTATION_REPRESENTATION('NONE',(#572,#872,#1373),#28);
#574=PRESENTATION_LAYER_ASSIGNMENT('3D','None',(#564,#864,#1372));
#575=CARTESIAN_POINT('',(0.925,-1.599999999999999,0.2));
#576=DIRECTION('',(-1.0,0.0,0.0));
#577=DIRECTION('',(0.0,-0.707106781186548,-0.707106781186547));
#578=AXIS2_PLACEMENT_3D('',#575,#576,#577);
#579=CYLINDRICAL_SURFACE('',#578,0.2);
#580=CARTESIAN_POINT('',(-1.850000000000001,-1.8,0.2));
#581=VERTEX_POINT('',#580);
#582=CARTESIAN_POINT('',(-1.850000000000001,-1.599999999999999,0.0));
#583=VERTEX_POINT('',#582);
#584=CARTESIAN_POINT('',(-1.850000000000001,-1.599999999999999,0.2));
#585=DIRECTION('',(1.0,0.0,0.0));
#586=DIRECTION('',(0.0,-0.707106781186548,-0.707106781186547));
#587=AXIS2_PLACEMENT_3D('',#584,#585,#586);
#588=CIRCLE('',#587,0.2);
#589=EDGE_CURVE('',#581,#583,#588,.T.);
#590=ORIENTED_EDGE('',*,*,#589,.T.);
#591=CARTESIAN_POINT('',(1.85,-1.599999999999999,0.0));
#592=VERTEX_POINT('',#591);
#593=CARTESIAN_POINT('',(-1.850000000000001,-1.599999999999999,0.0));
#594=DIRECTION('',(1.0,0.0,0.0));
#595=VECTOR('',#594,3.700000000000001);
#596=LINE('',#593,#595);
#597=EDGE_CURVE('',#583,#592,#596,.T.);
#598=ORIENTED_EDGE('',*,*,#597,.T.);
#599=CARTESIAN_POINT('',(1.85,-1.8,0.2));
#600=VERTEX_POINT('',#599);
#601=CARTESIAN_POINT('',(1.85,-1.599999999999999,0.2));
#602=DIRECTION('',(-1.0,0.0,0.0));
#603=DIRECTION('',(0.0,-0.707106781186548,-0.707106781186547));
#604=AXIS2_PLACEMENT_3D('',#601,#602,#603);
#605=CIRCLE('',#604,0.2);
#606=EDGE_CURVE('',#592,#600,#605,.T.);
#607=ORIENTED_EDGE('',*,*,#606,.T.);
#608=CARTESIAN_POINT('',(1.85,-1.8,0.2));
#609=DIRECTION('',(-1.0,0.0,0.0));
#610=VECTOR('',#609,3.700000000000001);
#611=LINE('',#608,#610);
#612=EDGE_CURVE('',#600,#581,#611,.T.);
#613=ORIENTED_EDGE('',*,*,#612,.T.);
#614=EDGE_LOOP('',(#590,#598,#607,#613));
#615=FACE_OUTER_BOUND('',#614,.T.);
#616=ADVANCED_FACE('',(#615),#579,.T.);
#617=CARTESIAN_POINT('',(1.85,-1.8,0.0));
#618=DIRECTION('',(0.0,-1.0,0.0));
#619=DIRECTION('',(0.0,0.0,-1.0));
#620=AXIS2_PLACEMENT_3D('',#617,#618,#619);
#621=PLANE('',#620);
#622=ORIENTED_EDGE('',*,*,#612,.F.);
#623=CARTESIAN_POINT('',(1.85,-1.8,2.0));
#624=VERTEX_POINT('',#623);
#625=CARTESIAN_POINT('',(1.85,-1.8,0.2));
#626=DIRECTION('',(0.0,0.0,1.0));
#627=VECTOR('',#626,1.8);
#628=LINE('',#625,#627);
#629=EDGE_CURVE('',#600,#624,#628,.T.);
#630=ORIENTED_EDGE('',*,*,#629,.T.);
#631=CARTESIAN_POINT('',(-1.850000000000001,-1.8,2.0));
#632=VERTEX_POINT('',#631);
#633=CARTESIAN_POINT('',(-1.850000000000001,-1.8,2.0));
#634=DIRECTION('',(1.0,0.0,0.0));
#635=VECTOR('',#634,3.700000000000001);
#636=LINE('',#633,#635);
#637=EDGE_CURVE('',#632,#624,#636,.T.);
#638=ORIENTED_EDGE('',*,*,#637,.F.);
#639=CARTESIAN_POINT('',(-1.850000000000001,-1.8,0.2));
#640=DIRECTION('',(0.0,0.0,1.0));
#641=VECTOR('',#640,1.8);
#642=LINE('',#639,#641);
#643=EDGE_CURVE('',#581,#632,#642,.T.);
#644=ORIENTED_EDGE('',*,*,#643,.F.);
#645=EDGE_LOOP('',(#622,#630,#638,#644));
#646=FACE_OUTER_BOUND('',#645,.T.);
#647=ADVANCED_FACE('',(#646),#621,.T.);
#648=CARTESIAN_POINT('',(1.85,1.8,0.0));
#649=DIRECTION('',(1.0,0.0,0.0));
#650=DIRECTION('',(0.0,0.0,-1.0));
#651=AXIS2_PLACEMENT_3D('',#648,#649,#650);
#652=PLANE('',#651);
#653=ORIENTED_EDGE('',*,*,#606,.F.);
#654=CARTESIAN_POINT('',(1.85,1.6,0.0));
#655=VERTEX_POINT('',#654);
#656=CARTESIAN_POINT('',(1.85,1.6,0.0));
#657=DIRECTION('',(0.0,-1.0,0.0));
#658=VECTOR('',#657,3.199999999999999);
#659=LINE('',#656,#658);
#660=EDGE_CURVE('',#655,#592,#659,.T.);
#661=ORIENTED_EDGE('',*,*,#660,.F.);
#662=CARTESIAN_POINT('',(1.85,1.8,0.2));
#663=VERTEX_POINT('',#662);
#664=CARTESIAN_POINT('',(1.85,1.6,0.2));
#665=DIRECTION('',(-1.0,0.0,0.0));
#666=DIRECTION('',(0.0,0.707106781186547,-0.707106781186548));
#667=AXIS2_PLACEMENT_3D('',#664,#665,#666);
#668=CIRCLE('',#667,0.2);
#669=EDGE_CURVE('',#663,#655,#668,.T.);
#670=ORIENTED_EDGE('',*,*,#669,.F.);
#671=CARTESIAN_POINT('',(1.85,1.8,2.0));
#672=VERTEX_POINT('',#671);
#673=CARTESIAN_POINT('',(1.85,1.8,0.2));
#674=DIRECTION('',(0.0,0.0,1.0));
#675=VECTOR('',#674,1.8);
#676=LINE('',#673,#675);
#677=EDGE_CURVE('',#663,#672,#676,.T.);
#678=ORIENTED_EDGE('',*,*,#677,.T.);
#679=CARTESIAN_POINT('',(1.85,1.6,2.2));
#680=VERTEX_POINT('',#679);
#681=CARTESIAN_POINT('',(1.85,1.6,2.0));
#682=DIRECTION('',(-1.0,0.0,0.0));
#683=DIRECTION('',(0.0,0.707106781186547,0.707106781186548));
#684=AXIS2_PLACEMENT_3D('',#681,#682,#683);
#685=CIRCLE('',#684,0.2);
#686=EDGE_CURVE('',#680,#672,#685,.T.);
#687=ORIENTED_EDGE('',*,*,#686,.F.);
#688=CARTESIAN_POINT('',(1.85,-1.599999999999999,2.2));
#689=VERTEX_POINT('',#688);
#690=CARTESIAN_POINT('',(1.85,1.6,2.2));
#691=DIRECTION('',(0.0,-1.0,0.0));
#692=VECTOR('',#691,3.199999999999999);
#693=LINE('',#690,#692);
#694=EDGE_CURVE('',#680,#689,#693,.T.);
#695=ORIENTED_EDGE('',*,*,#694,.T.);
#696=CARTESIAN_POINT('',(1.85,-1.599999999999999,2.0));
#697=DIRECTION('',(-1.0,0.0,0.0));
#698=DIRECTION('',(0.0,-0.707106781186547,0.707106781186547));
#699=AXIS2_PLACEMENT_3D('',#696,#697,#698);
#700=CIRCLE('',#699,0.2);
#701=EDGE_CURVE('',#624,#689,#700,.T.);
#702=ORIENTED_EDGE('',*,*,#701,.F.);
#703=ORIENTED_EDGE('',*,*,#629,.F.);
#704=EDGE_LOOP('',(#653,#661,#670,#678,#687,#695,#702,#703));
#705=FACE_OUTER_BOUND('',#704,.T.);
#706=ADVANCED_FACE('',(#705),#652,.T.);
#707=CARTESIAN_POINT('',(-0.925,1.6,0.2));
#708=DIRECTION('',(1.0,0.0,0.0));
#709=DIRECTION('',(0.0,0.707106781186547,-0.707106781186548));
#710=AXIS2_PLACEMENT_3D('',#707,#708,#709);
#711=CYLINDRICAL_SURFACE('',#710,0.2);
#712=ORIENTED_EDGE('',*,*,#669,.T.);
#713=CARTESIAN_POINT('',(-1.85,1.6,0.0));
#714=VERTEX_POINT('',#713);
#715=CARTESIAN_POINT('',(1.85,1.6,0.0));
#716=DIRECTION('',(-1.0,0.0,0.0));
#717=VECTOR('',#716,3.7);
#718=LINE('',#715,#717);
#719=EDGE_CURVE('',#655,#714,#718,.T.);
#720=ORIENTED_EDGE('',*,*,#719,.T.);
#721=CARTESIAN_POINT('',(-1.85,1.8,0.2));
#722=VERTEX_POINT('',#721);
#723=CARTESIAN_POINT('',(-1.850000000000001,1.6,0.2));
#724=DIRECTION('',(1.0,0.0,0.0));
#725=DIRECTION('',(0.0,0.707106781186547,-0.707106781186548));
#726=AXIS2_PLACEMENT_3D('',#723,#724,#725);
#727=CIRCLE('',#726,0.2);
#728=EDGE_CURVE('',#714,#722,#727,.T.);
#729=ORIENTED_EDGE('',*,*,#728,.T.);
#730=CARTESIAN_POINT('',(-1.85,1.8,0.2));
#731=DIRECTION('',(1.0,0.0,0.0));
#732=VECTOR('',#731,3.7);
#733=LINE('',#730,#732);
#734=EDGE_CURVE('',#722,#663,#733,.T.);
#735=ORIENTED_EDGE('',*,*,#734,.T.);
#736=EDGE_LOOP('',(#712,#720,#729,#735));
#737=FACE_OUTER_BOUND('',#736,.T.);
#738=ADVANCED_FACE('',(#737),#711,.T.);
#739=CARTESIAN_POINT('',(-1.85,1.8,0.0));
#740=DIRECTION('',(0.0,1.0,0.0));
#741=DIRECTION('',(0.0,0.0,1.0));
#742=AXIS2_PLACEMENT_3D('',#739,#740,#741);
#743=PLANE('',#742);
#744=ORIENTED_EDGE('',*,*,#734,.F.);
#745=CARTESIAN_POINT('',(-1.85,1.8,2.0));
#746=VERTEX_POINT('',#745);
#747=CARTESIAN_POINT('',(-1.85,1.8,0.2));
#748=DIRECTION('',(0.0,0.0,1.0));
#749=VECTOR('',#748,1.8);
#750=LINE('',#747,#749);
#751=EDGE_CURVE('',#722,#746,#750,.T.);
#752=ORIENTED_EDGE('',*,*,#751,.T.);
#753=CARTESIAN_POINT('',(1.85,1.8,2.0));
#754=DIRECTION('',(-1.0,0.0,0.0));
#755=VECTOR('',#754,3.7);
#756=LINE('',#753,#755);
#757=EDGE_CURVE('',#672,#746,#756,.T.);
#758=ORIENTED_EDGE('',*,*,#757,.F.);
#759=ORIENTED_EDGE('',*,*,#677,.F.);
#760=EDGE_LOOP('',(#744,#752,#758,#759));
#761=FACE_OUTER_BOUND('',#760,.T.);
#762=ADVANCED_FACE('',(#761),#743,.T.);
#763=CARTESIAN_POINT('',(-1.850000000000001,-1.8,0.0));
#764=DIRECTION('',(-1.0,0.0,0.0));
#765=DIRECTION('',(0.0,0.0,1.0));
#766=AXIS2_PLACEMENT_3D('',#763,#764,#765);
#767=PLANE('',#766);
#768=ORIENTED_EDGE('',*,*,#589,.F.);
#769=ORIENTED_EDGE('',*,*,#643,.T.);
#770=CARTESIAN_POINT('',(-1.850000000000001,-1.599999999999999,2.2));
#771=VERTEX_POINT('',#770);
#772=CARTESIAN_POINT('',(-1.850000000000001,-1.599999999999999,2.0));
#773=DIRECTION('',(1.0,0.0,0.0));
#774=DIRECTION('',(0.0,-0.707106781186547,0.707106781186547));
#775=AXIS2_PLACEMENT_3D('',#772,#773,#774);
#776=CIRCLE('',#775,0.2);
#777=EDGE_CURVE('',#771,#632,#776,.T.);
#778=ORIENTED_EDGE('',*,*,#777,.F.);
#779=CARTESIAN_POINT('',(-1.85,1.6,2.2));
#780=VERTEX_POINT('',#779);
#781=CARTESIAN_POINT('',(-1.850000000000001,-1.599999999999999,2.2));
#782=DIRECTION('',(0.0,1.0,0.0));
#783=VECTOR('',#782,3.199999999999999);
#784=LINE('',#781,#783);
#785=EDGE_CURVE('',#771,#780,#784,.T.);
#786=ORIENTED_EDGE('',*,*,#785,.T.);
#787=CARTESIAN_POINT('',(-1.850000000000001,1.6,2.0));
#788=DIRECTION('',(1.0,0.0,0.0));
#789=DIRECTION('',(0.0,0.707106781186547,0.707106781186548));
#790=AXIS2_PLACEMENT_3D('',#787,#788,#789);
#791=CIRCLE('',#790,0.2);
#792=EDGE_CURVE('',#746,#780,#791,.T.);
#793=ORIENTED_EDGE('',*,*,#792,.F.);
#794=ORIENTED_EDGE('',*,*,#751,.F.);
#795=ORIENTED_EDGE('',*,*,#728,.F.);
#796=CARTESIAN_POINT('',(-1.850000000000001,-1.599999999999999,0.0));
#797=DIRECTION('',(0.0,1.0,0.0));
#798=VECTOR('',#797,3.199999999999999);
#799=LINE('',#796,#798);
#800=EDGE_CURVE('',#583,#714,#799,.T.);
#801=ORIENTED_EDGE('',*,*,#800,.F.);
#802=EDGE_LOOP('',(#768,#769,#778,#786,#793,#794,#795,#801));
#803=FACE_OUTER_BOUND('',#802,.T.);
#804=ADVANCED_FACE('',(#803),#767,.T.);
#805=CARTESIAN_POINT('',(-0.925,1.6,2.0));
#806=DIRECTION('',(1.0,0.0,0.0));
#807=DIRECTION('',(0.0,0.707106781186547,0.707106781186548));
#808=AXIS2_PLACEMENT_3D('',#805,#806,#807);
#809=CYLINDRICAL_SURFACE('',#808,0.2);
#810=ORIENTED_EDGE('',*,*,#686,.T.);
#811=ORIENTED_EDGE('',*,*,#757,.T.);
#812=ORIENTED_EDGE('',*,*,#792,.T.);
#813=CARTESIAN_POINT('',(-1.85,1.6,2.2));
#814=DIRECTION('',(1.0,0.0,0.0));
#815=VECTOR('',#814,3.7);
#816=LINE('',#813,#815);
#817=EDGE_CURVE('',#780,#680,#816,.T.);
#818=ORIENTED_EDGE('',*,*,#817,.T.);
#819=EDGE_LOOP('',(#810,#811,#812,#818));
#820=FACE_OUTER_BOUND('',#819,.T.);
#821=ADVANCED_FACE('',(#820),#809,.T.);
#822=CARTESIAN_POINT('',(-1.665335E-016,0.0,2.2));
#823=DIRECTION('',(0.0,0.0,1.0));
#824=DIRECTION('',(1.0,0.0,0.0));
#825=AXIS2_PLACEMENT_3D('',#822,#823,#824);
#826=PLANE('',#825);
#827=ORIENTED_EDGE('',*,*,#817,.F.);
#828=ORIENTED_EDGE('',*,*,#785,.F.);
#829=CARTESIAN_POINT('',(1.85,-1.599999999999999,2.2));
#830=DIRECTION('',(-1.0,0.0,0.0));
#831=VECTOR('',#830,3.700000000000001);
#832=LINE('',#829,#831);
#833=EDGE_CURVE('',#689,#771,#832,.T.);
#834=ORIENTED_EDGE('',*,*,#833,.F.);
#835=ORIENTED_EDGE('',*,*,#694,.F.);
#836=EDGE_LOOP('',(#827,#828,#834,#835));
#837=FACE_OUTER_BOUND('',#836,.T.);
#838=ADVANCED_FACE('',(#837),#826,.T.);
#839=CARTESIAN_POINT('',(0.925,-1.599999999999999,2.0));
#840=DIRECTION('',(-1.0,0.0,0.0));
#841=DIRECTION('',(0.0,-0.707106781186547,0.707106781186547));
#842=AXIS2_PLACEMENT_3D('',#839,#840,#841);
#843=CYLINDRICAL_SURFACE('',#842,0.2);
#844=ORIENTED_EDGE('',*,*,#777,.T.);
#845=ORIENTED_EDGE('',*,*,#637,.T.);
#846=ORIENTED_EDGE('',*,*,#701,.T.);
#847=ORIENTED_EDGE('',*,*,#833,.T.);
#848=EDGE_LOOP('',(#844,#845,#846,#847));
#849=FACE_OUTER_BOUND('',#848,.T.);
#850=ADVANCED_FACE('',(#849),#843,.T.);
#851=CARTESIAN_POINT('',(-1.665335E-016,0.0,0.0));
#852=DIRECTION('',(0.0,0.0,1.0));
#853=DIRECTION('',(1.0,0.0,0.0));
#854=AXIS2_PLACEMENT_3D('',#851,#852,#853);
#855=PLANE('',#854);
#856=ORIENTED_EDGE('',*,*,#597,.F.);
#857=ORIENTED_EDGE('',*,*,#800,.T.);
#858=ORIENTED_EDGE('',*,*,#719,.F.);
#859=ORIENTED_EDGE('',*,*,#660,.T.);
#860=EDGE_LOOP('',(#856,#857,#858,#859));
#861=FACE_OUTER_BOUND('',#860,.T.);
#862=ADVANCED_FACE('',(#861),#855,.F.);
#863=CLOSED_SHELL('',(#616,#647,#706,#738,#762,#804,#821,#838,#850,#862));
#864=MANIFOLD_SOLID_BREP('578',#863);
#865=COLOUR_RGB('35',0.5,0.375,0.25);
#866=SURFACE_STYLE_USAGE(.BOTH.,#867);
#867=SURFACE_SIDE_STYLE('NONE',(#868));
#868=SURFACE_STYLE_FILL_AREA(#869);
#869=FILL_AREA_STYLE('NONE',(#870));
#870=FILL_AREA_STYLE_COLOUR('NONE',#865);
#871=PRESENTATION_STYLE_ASSIGNMENT((#866));
#872=STYLED_ITEM('NONE',(#871),#864);
#873=CARTESIAN_POINT('',(-2.25,-1.599999999999999,0.2));
#874=DIRECTION('',(0.577350269189626,0.577350269189626,0.577350269189626));
#875=DIRECTION('',(-0.707106781186548,0.0,0.707106781186548));
#876=AXIS2_PLACEMENT_3D('',#873,#874,#875);
#877=SPHERICAL_SURFACE('',#876,0.2);
#878=CARTESIAN_POINT('',(-2.428885438199984,-1.689442719099991,0.2));
#879=VERTEX_POINT('',#878);
#880=CARTESIAN_POINT('',(-2.365470053837925,-1.715470053837925,0.084529946162075));
#881=VERTEX_POINT('',#880);
#882=CARTESIAN_POINT('',(-2.25,-1.599999999999999,0.2));
#883=DIRECTION('',(0.408248290463863,-0.816496580927726,0.408248290463863));
#884=DIRECTION('',(-0.707106781186548,0.0,0.707106781186547));
#885=AXIS2_PLACEMENT_3D('',#882,#883,#884);
#886=CIRCLE('',#885,0.2);
#887=EDGE_CURVE('',#879,#881,#886,.T.);
#888=ORIENTED_EDGE('',*,*,#887,.F.);
#889=CARTESIAN_POINT('',(-2.450000000000001,-1.599999999999999,0.2));
#890=VERTEX_POINT('',#889);
#891=CARTESIAN_POINT('',(-2.250000000000001,-1.599999999999999,0.2));
#892=DIRECTION('',(0.0,0.0,-1.0));
#893=DIRECTION('',(-1.0,0.0,0.0));
#894=AXIS2_PLACEMENT_3D('',#891,#892,#893);
#895=CIRCLE('',#894,0.2);
#896=EDGE_CURVE('',#890,#879,#895,.F.);
#897=ORIENTED_EDGE('',*,*,#896,.F.);
#898=CARTESIAN_POINT('',(-2.25,-1.599999999999999,0.0));
#899=VERTEX_POINT('',#898);
#900=CARTESIAN_POINT('',(-2.25,-1.599999999999999,0.2));
#901=DIRECTION('',(0.0,-1.0,0.0));
#902=DIRECTION('',(-0.707106781186549,0.0,-0.707106781186546));
#903=AXIS2_PLACEMENT_3D('',#900,#901,#902);
#904=CIRCLE('',#903,0.2);
#905=EDGE_CURVE('',#890,#899,#904,.T.);
#906=ORIENTED_EDGE('',*,*,#905,.T.);
#907=CARTESIAN_POINT('',(-2.25,-1.689442719099991,0.021114561800017));
#908=VERTEX_POINT('',#907);
#909=CARTESIAN_POINT('',(-2.25,-1.599999999999999,0.2));
#910=DIRECTION('',(-1.0,0.0,0.0));
#911=DIRECTION('',(0.0,-0.707106781186548,-0.707106781186547));
#912=AXIS2_PLACEMENT_3D('',#909,#910,#911);
#913=CIRCLE('',#912,0.2);
#914=EDGE_CURVE('',#899,#908,#913,.T.);
#915=ORIENTED_EDGE('',*,*,#914,.T.);
#916=CARTESIAN_POINT('',(-2.25,-1.599999999999999,0.2));
#917=DIRECTION('',(-0.408248290463863,0.816496580927726,-0.408248290463863));
#918=DIRECTION('',(0.707106781186548,0.0,-0.707106781186547));
#919=AXIS2_PLACEMENT_3D('',#916,#917,#918);
#920=CIRCLE('',#919,0.2);
#921=EDGE_CURVE('',#908,#881,#920,.T.);
#922=ORIENTED_EDGE('',*,*,#921,.T.);
#923=EDGE_LOOP('',(#888,#897,#906,#915,#922));
#924=FACE_OUTER_BOUND('',#923,.T.);
#925=ADVANCED_FACE('',(#924),#877,.T.);
#926=CARTESIAN_POINT('',(-2.25,1.6,0.2));
#927=DIRECTION('',(0.577350269189626,0.577350269189626,0.577350269189626));
#928=DIRECTION('',(-0.707106781186548,0.0,0.707106781186548));
#929=AXIS2_PLACEMENT_3D('',#926,#927,#928);
#930=SPHERICAL_SURFACE('',#929,0.2);
#931=CARTESIAN_POINT('',(-2.25,1.6,0.0));
#932=VERTEX_POINT('',#931);
#933=CARTESIAN_POINT('',(-2.45,1.6,0.2));
#934=VERTEX_POINT('',#933);
#935=CARTESIAN_POINT('',(-2.25,1.6,0.2));
#936=DIRECTION('',(0.0,1.0,0.0));
#937=DIRECTION('',(-0.707106781186548,0.0,-0.707106781186547));
#938=AXIS2_PLACEMENT_3D('',#935,#936,#937);
#939=CIRCLE('',#938,0.2);
#940=EDGE_CURVE('',#932,#934,#939,.T.);
#941=ORIENTED_EDGE('',*,*,#940,.T.);
#942=CARTESIAN_POINT('',(-2.25,1.8,0.2));
#943=VERTEX_POINT('',#942);
#944=CARTESIAN_POINT('',(-2.25,1.6,0.2));
#945=DIRECTION('',(0.0,0.0,-1.0));
#946=DIRECTION('',(0.0,1.0,0.0));
#947=AXIS2_PLACEMENT_3D('',#944,#945,#946);
#948=CIRCLE('',#947,0.2);
#949=EDGE_CURVE('',#943,#934,#948,.F.);
#950=ORIENTED_EDGE('',*,*,#949,.F.);
#951=CARTESIAN_POINT('',(-2.25,1.6,0.2));
#952=DIRECTION('',(-1.0,0.0,0.0));
#953=DIRECTION('',(0.0,0.707106781186548,-0.707106781186547));
#954=AXIS2_PLACEMENT_3D('',#951,#952,#953);
#955=CIRCLE('',#954,0.2);
#956=EDGE_CURVE('',#943,#932,#955,.T.);
#957=ORIENTED_EDGE('',*,*,#956,.T.);
#958=EDGE_LOOP('',(#941,#950,#957));
#959=FACE_OUTER_BOUND('',#958,.T.);
#960=ADVANCED_FACE('',(#959),#930,.T.);
#961=CARTESIAN_POINT('',(-2.25,-1.599999999999999,0.2));
#962=DIRECTION('',(0.577350269189626,0.577350269189626,0.577350269189626));
#963=DIRECTION('',(-0.707106781186548,0.0,0.707106781186548));
#964=AXIS2_PLACEMENT_3D('',#961,#962,#963);
#965=SPHERICAL_SURFACE('',#964,0.2);
#966=ORIENTED_EDGE('',*,*,#887,.T.);
#967=ORIENTED_EDGE('',*,*,#921,.F.);
#968=CARTESIAN_POINT('',(-2.250000000000001,-1.8,0.2));
#969=VERTEX_POINT('',#968);
#970=CARTESIAN_POINT('',(-2.25,-1.599999999999999,0.2));
#971=DIRECTION('',(-1.0,0.0,0.0));
#972=DIRECTION('',(0.0,-0.707106781186548,-0.707106781186547));
#973=AXIS2_PLACEMENT_3D('',#970,#971,#972);
#974=CIRCLE('',#973,0.2);
#975=EDGE_CURVE('',#908,#969,#974,.T.);
#976=ORIENTED_EDGE('',*,*,#975,.T.);
#977=CARTESIAN_POINT('',(-2.250000000000001,-1.599999999999999,0.2));
#978=DIRECTION('',(0.0,0.0,-1.0));
#979=DIRECTION('',(-1.0,0.0,0.0));
#980=AXIS2_PLACEMENT_3D('',#977,#978,#979);
#981=CIRCLE('',#980,0.2);
#982=EDGE_CURVE('',#879,#969,#981,.F.);
#983=ORIENTED_EDGE('',*,*,#982,.F.);
#984=EDGE_LOOP('',(#966,#967,#976,#983));
#985=FACE_OUTER_BOUND('',#984,.T.);
#986=ADVANCED_FACE('',(#985),#965,.T.);
#987=CARTESIAN_POINT('',(-2.25,1.6,2.0));
#988=DIRECTION('',(0.577350269189626,0.577350269189626,0.577350269189626));
#989=DIRECTION('',(-0.707106781186548,0.0,0.707106781186548));
#990=AXIS2_PLACEMENT_3D('',#987,#988,#989);
#991=SPHERICAL_SURFACE('',#990,0.2);
#992=CARTESIAN_POINT('',(-2.25,1.8,2.0));
#993=VERTEX_POINT('',#992);
#994=CARTESIAN_POINT('',(-2.45,1.6,2.0));
#995=VERTEX_POINT('',#994);
#996=CARTESIAN_POINT('',(-2.25,1.6,2.0));
#997=DIRECTION('',(0.0,0.0,1.0));
#998=DIRECTION('',(-0.707106781186547,0.707106781186547,0.0));
#999=AXIS2_PLACEMENT_3D('',#996,#997,#998);
#1000=CIRCLE('',#999,0.2);
#1001=EDGE_CURVE('',#993,#995,#1000,.T.);
#1002=ORIENTED_EDGE('',*,*,#1001,.T.);
#1003=CARTESIAN_POINT('',(-2.25,1.6,2.2));
#1004=VERTEX_POINT('',#1003);
#1005=CARTESIAN_POINT('',(-2.25,1.6,2.0));
#1006=DIRECTION('',(0.0,1.0,0.0));
#1007=DIRECTION('',(0.0,0.0,1.0));
#1008=AXIS2_PLACEMENT_3D('',#1005,#1006,#1007);
#1009=CIRCLE('',#1008,0.2);
#1010=EDGE_CURVE('',#1004,#995,#1009,.F.);
#1011=ORIENTED_EDGE('',*,*,#1010,.F.);
#1012=CARTESIAN_POINT('',(-2.25,1.6,2.0));
#1013=DIRECTION('',(-1.0,0.0,0.0));
#1014=DIRECTION('',(0.0,0.707106781186547,0.707106781186547));
#1015=AXIS2_PLACEMENT_3D('',#1012,#1013,#1014);
#1016=CIRCLE('',#1015,0.2);
#1017=EDGE_CURVE('',#1004,#993,#1016,.T.);
#1018=ORIENTED_EDGE('',*,*,#1017,.T.);
#1019=EDGE_LOOP('',(#1002,#1011,#1018));
#1020=FACE_OUTER_BOUND('',#1019,.T.);
#1021=ADVANCED_FACE('',(#1020),#991,.T.);
#1022=CARTESIAN_POINT('',(-2.250000000000001,-1.599999999999999,2.0));
#1023=DIRECTION('',(0.577350269189626,0.577350269189626,0.577350269189626));
#1024=DIRECTION('',(-0.707106781186548,0.0,0.707106781186548));
#1025=AXIS2_PLACEMENT_3D('',#1022,#1023,#1024);
#1026=SPHERICAL_SURFACE('',#1025,0.2);
#1027=CARTESIAN_POINT('',(-2.250000000000001,-1.8,2.0));
#1028=VERTEX_POINT('',#1027);
#1029=CARTESIAN_POINT('',(-2.25,-1.599999999999999,2.2));
#1030=VERTEX_POINT('',#1029);
#1031=CARTESIAN_POINT('',(-2.250000000000001,-1.599999999999999,2.0));
#1032=DIRECTION('',(-1.0,-2.220446E-015,2.220446E-015));
#1033=DIRECTION('',(3.140185E-015,-0.707106781186547,0.707106781186547));
#1034=AXIS2_PLACEMENT_3D('',#1031,#1032,#1033);
#1035=CIRCLE('',#1034,0.2);
#1036=EDGE_CURVE('',#1028,#1030,#1035,.T.);
#1037=ORIENTED_EDGE('',*,*,#1036,.T.);
#1038=CARTESIAN_POINT('',(-2.450000000000001,-1.599999999999999,2.0));
#1039=VERTEX_POINT('',#1038);
#1040=CARTESIAN_POINT('',(-2.25,-1.599999999999999,2.0));
#1041=DIRECTION('',(0.0,-1.0,0.0));
#1042=DIRECTION('',(-1.0,0.0,0.0));
#1043=AXIS2_PLACEMENT_3D('',#1040,#1041,#1042);
#1044=CIRCLE('',#1043,0.2);
#1045=EDGE_CURVE('',#1039,#1030,#1044,.F.);
#1046=ORIENTED_EDGE('',*,*,#1045,.F.);
#1047=CARTESIAN_POINT('',(-2.250000000000001,-1.599999999999999,2.0));
#1048=DIRECTION('',(0.0,0.0,1.0));
#1049=DIRECTION('',(-0.707106781186547,-0.707106781186547,0.0));
#1050=AXIS2_PLACEMENT_3D('',#1047,#1048,#1049);
#1051=CIRCLE('',#1050,0.2);
#1052=EDGE_CURVE('',#1039,#1028,#1051,.T.);
#1053=ORIENTED_EDGE('',*,*,#1052,.T.);
#1054=EDGE_LOOP('',(#1037,#1046,#1053));
#1055=FACE_OUTER_BOUND('',#1054,.T.);
#1056=ADVANCED_FACE('',(#1055),#1026,.T.);
#1057=CARTESIAN_POINT('',(-2.25,-0.9,2.0));
#1058=DIRECTION('',(2.467162E-016,1.0,0.0));
#1059=DIRECTION('',(-0.707106781186547,0.0,0.707106781186547));
#1060=AXIS2_PLACEMENT_3D('',#1057,#1058,#1059);
#1061=CYLINDRICAL_SURFACE('',#1060,0.2);
#1062=ORIENTED_EDGE('',*,*,#1010,.T.);
#1063=CARTESIAN_POINT('',(-2.45,1.6,2.0));
#1064=DIRECTION('',(0.0,-1.0,0.0));
#1065=VECTOR('',#1064,3.2);
#1066=LINE('',#1063,#1065);
#1067=EDGE_CURVE('',#995,#1039,#1066,.T.);
#1068=ORIENTED_EDGE('',*,*,#1067,.T.);
#1069=ORIENTED_EDGE('',*,*,#1045,.T.);
#1070=CARTESIAN_POINT('',(-2.25,-1.599999999999999,2.2));
#1071=DIRECTION('',(0.0,1.0,0.0));
#1072=VECTOR('',#1071,3.2);
#1073=LINE('',#1070,#1072);
#1074=EDGE_CURVE('',#1030,#1004,#1073,.T.);
#1075=ORIENTED_EDGE('',*,*,#1074,.T.);
#1076=EDGE_LOOP('',(#1062,#1068,#1069,#1075));
#1077=FACE_OUTER_BOUND('',#1076,.T.);
#1078=ADVANCED_FACE('',(#1077),#1061,.T.);
#1079=CARTESIAN_POINT('',(-2.250000000000001,-1.599999999999999,0.0));
#1080=DIRECTION('',(0.0,0.0,1.0));
#1081=DIRECTION('',(-0.707106781186547,-0.707106781186547,0.0));
#1082=AXIS2_PLACEMENT_3D('',#1079,#1080,#1081);
#1083=CYLINDRICAL_SURFACE('',#1082,0.2);
#1084=ORIENTED_EDGE('',*,*,#1052,.F.);
#1085=CARTESIAN_POINT('',(-2.450000000000001,-1.599999999999999,2.0));
#1086=DIRECTION('',(0.0,0.0,-1.0));
#1087=VECTOR('',#1086,1.8);
#1088=LINE('',#1085,#1087);
#1089=EDGE_CURVE('',#1039,#890,#1088,.T.);
#1090=ORIENTED_EDGE('',*,*,#1089,.T.);
#1091=ORIENTED_EDGE('',*,*,#896,.T.);
#1092=ORIENTED_EDGE('',*,*,#982,.T.);
#1093=CARTESIAN_POINT('',(-2.250000000000001,-1.8,0.2));
#1094=DIRECTION('',(0.0,0.0,1.0));
#1095=VECTOR('',#1094,1.8);
#1096=LINE('',#1093,#1095);
#1097=EDGE_CURVE('',#969,#1028,#1096,.T.);
#1098=ORIENTED_EDGE('',*,*,#1097,.T.);
#1099=EDGE_LOOP('',(#1084,#1090,#1091,#1092,#1098));
#1100=FACE_OUTER_BOUND('',#1099,.T.);
#1101=ADVANCED_FACE('',(#1100),#1083,.T.);
#1102=CARTESIAN_POINT('',(-2.0,-1.599999999999999,2.0));
#1103=DIRECTION('',(-1.0,0.0,0.0));
#1104=DIRECTION('',(0.0,-0.707106781186547,0.707106781186547));
#1105=AXIS2_PLACEMENT_3D('',#1102,#1103,#1104);
#1106=CYLINDRICAL_SURFACE('',#1105,0.2);
#1107=CARTESIAN_POINT('',(-1.850000000000001,-1.8,2.0));
#1108=VERTEX_POINT('',#1107);
#1109=CARTESIAN_POINT('',(-1.850000000000001,-1.599999999999999,2.2));
#1110=VERTEX_POINT('',#1109);
#1111=CARTESIAN_POINT('',(-1.85,-1.599999999999999,2.0));
#1112=DIRECTION('',(-1.0,0.0,0.0));
#1113=DIRECTION('',(0.0,-0.707106781186547,0.707106781186547));
#1114=AXIS2_PLACEMENT_3D('',#1111,#1112,#1113);
#1115=CIRCLE('',#1114,0.2);
#1116=EDGE_CURVE('',#1108,#1110,#1115,.T.);
#1117=ORIENTED_EDGE('',*,*,#1116,.T.);
#1118=CARTESIAN_POINT('',(-1.850000000000001,-1.599999999999999,2.2));
#1119=DIRECTION('',(-1.0,0.0,0.0));
#1120=VECTOR('',#1119,0.4);
#1121=LINE('',#1118,#1120);
#1122=EDGE_CURVE('',#1110,#1030,#1121,.T.);
#1123=ORIENTED_EDGE('',*,*,#1122,.T.);
#1124=ORIENTED_EDGE('',*,*,#1036,.F.);
#1125=CARTESIAN_POINT('',(-2.250000000000001,-1.8,2.0));
#1126=DIRECTION('',(1.0,0.0,0.0));
#1127=VECTOR('',#1126,0.4);
#1128=LINE('',#1125,#1127);
#1129=EDGE_CURVE('',#1028,#1108,#1128,.T.);
#1130=ORIENTED_EDGE('',*,*,#1129,.T.);
#1131=EDGE_LOOP('',(#1117,#1123,#1124,#1130));
#1132=FACE_OUTER_BOUND('',#1131,.T.);
#1133=ADVANCED_FACE('',(#1132),#1106,.T.);
#1134=CARTESIAN_POINT('',(-2.25,1.6,0.0));
#1135=DIRECTION('',(0.0,0.0,1.0));
#1136=DIRECTION('',(-0.707106781186547,0.707106781186547,0.0));
#1137=AXIS2_PLACEMENT_3D('',#1134,#1135,#1136);
#1138=CYLINDRICAL_SURFACE('',#1137,0.2);
#1139=ORIENTED_EDGE('',*,*,#1001,.F.);
#1140=CARTESIAN_POINT('',(-2.25,1.8,2.0));
#1141=DIRECTION('',(0.0,0.0,-1.0));
#1142=VECTOR('',#1141,1.8);
#1143=LINE('',#1140,#1142);
#1144=EDGE_CURVE('',#993,#943,#1143,.T.);
#1145=ORIENTED_EDGE('',*,*,#1144,.T.);
#1146=ORIENTED_EDGE('',*,*,#949,.T.);
#1147=CARTESIAN_POINT('',(-2.45,1.6,0.2));
#1148=DIRECTION('',(0.0,0.0,1.0));
#1149=VECTOR('',#1148,1.8);
#1150=LINE('',#1147,#1149);
#1151=EDGE_CURVE('',#934,#995,#1150,.T.);
#1152=ORIENTED_EDGE('',*,*,#1151,.T.);
#1153=EDGE_LOOP('',(#1139,#1145,#1146,#1152));
#1154=FACE_OUTER_BOUND('',#1153,.T.);
#1155=ADVANCED_FACE('',(#1154),#1138,.T.);
#1156=CARTESIAN_POINT('',(-2.3,1.6,2.0));
#1157=DIRECTION('',(1.0,0.0,0.0));
#1158=DIRECTION('',(0.0,0.707106781186547,0.707106781186547));
#1159=AXIS2_PLACEMENT_3D('',#1156,#1157,#1158);
#1160=CYLINDRICAL_SURFACE('',#1159,0.2);
#1161=CARTESIAN_POINT('',(-1.85,1.6,2.2));
#1162=VERTEX_POINT('',#1161);
#1163=CARTESIAN_POINT('',(-1.85,1.8,2.0));
#1164=VERTEX_POINT('',#1163);
#1165=CARTESIAN_POINT('',(-1.85,1.6,2.0));
#1166=DIRECTION('',(-1.0,0.0,0.0));
#1167=DIRECTION('',(0.0,0.707106781186547,0.707106781186547));
#1168=AXIS2_PLACEMENT_3D('',#1165,#1166,#1167);
#1169=CIRCLE('',#1168,0.2);
#1170=EDGE_CURVE('',#1162,#1164,#1169,.T.);
#1171=ORIENTED_EDGE('',*,*,#1170,.T.);
#1172=CARTESIAN_POINT('',(-1.85,1.8,2.0));
#1173=DIRECTION('',(-1.0,0.0,0.0));
#1174=VECTOR('',#1173,0.4);
#1175=LINE('',#1172,#1174);
#1176=EDGE_CURVE('',#1164,#993,#1175,.T.);
#1177=ORIENTED_EDGE('',*,*,#1176,.T.);
#1178=ORIENTED_EDGE('',*,*,#1017,.F.);
#1179=CARTESIAN_POINT('',(-2.25,1.6,2.2));
#1180=DIRECTION('',(1.0,0.0,0.0));
#1181=VECTOR('',#1180,0.4);
#1182=LINE('',#1179,#1181);
#1183=EDGE_CURVE('',#1004,#1162,#1182,.T.);
#1184=ORIENTED_EDGE('',*,*,#1183,.T.);
#1185=EDGE_LOOP('',(#1171,#1177,#1178,#1184));
#1186=FACE_OUTER_BOUND('',#1185,.T.);
#1187=ADVANCED_FACE('',(#1186),#1160,.T.);
#1188=CARTESIAN_POINT('',(-2.0,-1.599999999999999,0.2));
#1189=DIRECTION('',(-1.0,0.0,0.0));
#1190=DIRECTION('',(0.0,-0.707106781186548,-0.707106781186547));
#1191=AXIS2_PLACEMENT_3D('',#1188,#1189,#1190);
#1192=CYLINDRICAL_SURFACE('',#1191,0.2);
#1193=CARTESIAN_POINT('',(-1.850000000000001,-1.599999999999999,0.0));
#1194=VERTEX_POINT('',#1193);
#1195=CARTESIAN_POINT('',(-1.850000000000001,-1.8,0.2));
#1196=VERTEX_POINT('',#1195);
#1197=CARTESIAN_POINT('',(-1.85,-1.599999999999999,0.2));
#1198=DIRECTION('',(-1.0,0.0,0.0));
#1199=DIRECTION('',(0.0,-0.707106781186548,-0.707106781186547));
#1200=AXIS2_PLACEMENT_3D('',#1197,#1198,#1199);
#1201=CIRCLE('',#1200,0.2);
#1202=EDGE_CURVE('',#1194,#1196,#1201,.T.);
#1203=ORIENTED_EDGE('',*,*,#1202,.T.);
#1204=CARTESIAN_POINT('',(-1.850000000000001,-1.8,0.2));
#1205=DIRECTION('',(-1.0,0.0,0.0));
#1206=VECTOR('',#1205,0.4);
#1207=LINE('',#1204,#1206);
#1208=EDGE_CURVE('',#1196,#969,#1207,.T.);
#1209=ORIENTED_EDGE('',*,*,#1208,.T.);
#1210=ORIENTED_EDGE('',*,*,#975,.F.);
#1211=ORIENTED_EDGE('',*,*,#914,.F.);
#1212=CARTESIAN_POINT('',(-2.25,-1.599999999999999,0.0));
#1213=DIRECTION('',(1.0,0.0,0.0));
#1214=VECTOR('',#1213,0.4);
#1215=LINE('',#1212,#1214);
#1216=EDGE_CURVE('',#899,#1194,#1215,.T.);
#1217=ORIENTED_EDGE('',*,*,#1216,.T.);
#1218=EDGE_LOOP('',(#1203,#1209,#1210,#1211,#1217));
#1219=FACE_OUTER_BOUND('',#1218,.T.);
#1220=ADVANCED_FACE('',(#1219),#1192,.T.);
#1221=CARTESIAN_POINT('',(-2.25,-0.9,0.2));
#1222=DIRECTION('',(2.467162E-016,1.0,0.0));
#1223=DIRECTION('',(-0.707106781186548,0.0,-0.707106781186547));
#1224=AXIS2_PLACEMENT_3D('',#1221,#1222,#1223);
#1225=CYLINDRICAL_SURFACE('',#1224,0.2);
#1226=ORIENTED_EDGE('',*,*,#940,.F.);
#1227=CARTESIAN_POINT('',(-2.25,1.6,0.0));
#1228=DIRECTION('',(0.0,-1.0,0.0));
#1229=VECTOR('',#1228,3.2);
#1230=LINE('',#1227,#1229);
#1231=EDGE_CURVE('',#932,#899,#1230,.T.);
#1232=ORIENTED_EDGE('',*,*,#1231,.T.);
#1233=ORIENTED_EDGE('',*,*,#905,.F.);
#1234=CARTESIAN_POINT('',(-2.450000000000001,-1.599999999999999,0.2));
#1235=DIRECTION('',(0.0,1.0,0.0));
#1236=VECTOR('',#1235,3.2);
#1237=LINE('',#1234,#1236);
#1238=EDGE_CURVE('',#890,#934,#1237,.T.);
#1239=ORIENTED_EDGE('',*,*,#1238,.T.);
#1240=EDGE_LOOP('',(#1226,#1232,#1233,#1239));
#1241=FACE_OUTER_BOUND('',#1240,.T.);
#1242=ADVANCED_FACE('',(#1241),#1225,.T.);
#1243=CARTESIAN_POINT('',(-2.3,1.6,0.2));
#1244=DIRECTION('',(1.0,0.0,0.0));
#1245=DIRECTION('',(0.0,0.707106781186548,-0.707106781186547));
#1246=AXIS2_PLACEMENT_3D('',#1243,#1244,#1245);
#1247=CYLINDRICAL_SURFACE('',#1246,0.2);
#1248=CARTESIAN_POINT('',(-1.85,1.8,0.2));
#1249=VERTEX_POINT('',#1248);
#1250=CARTESIAN_POINT('',(-1.85,1.6,0.0));
#1251=VERTEX_POINT('',#1250);
#1252=CARTESIAN_POINT('',(-1.85,1.6,0.2));
#1253=DIRECTION('',(-1.0,0.0,0.0));
#1254=DIRECTION('',(0.0,0.707106781186548,-0.707106781186547));
#1255=AXIS2_PLACEMENT_3D('',#1252,#1253,#1254);
#1256=CIRCLE('',#1255,0.2);
#1257=EDGE_CURVE('',#1249,#1251,#1256,.T.);
#1258=ORIENTED_EDGE('',*,*,#1257,.T.);
#1259=CARTESIAN_POINT('',(-1.85,1.6,0.0));
#1260=DIRECTION('',(-1.0,0.0,0.0));
#1261=VECTOR('',#1260,0.4);
#1262=LINE('',#1259,#1261);
#1263=EDGE_CURVE('',#1251,#932,#1262,.T.);
#1264=ORIENTED_EDGE('',*,*,#1263,.T.);
#1265=ORIENTED_EDGE('',*,*,#956,.F.);
#1266=CARTESIAN_POINT('',(-2.25,1.8,0.2));
#1267=DIRECTION('',(1.0,0.0,0.0));
#1268=VECTOR('',#1267,0.4);
#1269=LINE('',#1266,#1268);
#1270=EDGE_CURVE('',#943,#1249,#1269,.T.);
#1271=ORIENTED_EDGE('',*,*,#1270,.T.);
#1272=EDGE_LOOP('',(#1258,#1264,#1265,#1271));
#1273=FACE_OUTER_BOUND('',#1272,.T.);
#1274=ADVANCED_FACE('',(#1273),#1247,.T.);
#1275=CARTESIAN_POINT('',(-1.850000000000001,-1.8,0.0));
#1276=DIRECTION('',(0.0,-1.0,0.0));
#1277=DIRECTION('',(0.0,0.0,-1.0));
#1278=AXIS2_PLACEMENT_3D('',#1275,#1276,#1277);
#1279=PLANE('',#1278);
#1280=ORIENTED_EDGE('',*,*,#1129,.F.);
#1281=ORIENTED_EDGE('',*,*,#1097,.F.);
#1282=ORIENTED_EDGE('',*,*,#1208,.F.);
#1283=CARTESIAN_POINT('',(-1.850000000000001,-1.8,0.2));
#1284=DIRECTION('',(0.0,0.0,1.0));
#1285=VECTOR('',#1284,1.8);
#1286=LINE('',#1283,#1285);
#1287=EDGE_CURVE('',#1196,#1108,#1286,.T.);
#1288=ORIENTED_EDGE('',*,*,#1287,.T.);
#1289=EDGE_LOOP('',(#1280,#1281,#1282,#1288));
#1290=FACE_OUTER_BOUND('',#1289,.T.);
#1291=ADVANCED_FACE('',(#1290),#1279,.T.);
#1292=CARTESIAN_POINT('',(-2.150000000000001,0.0,0.0));
#1293=DIRECTION('',(0.0,0.0,1.0));
#1294=DIRECTION('',(1.0,0.0,0.0));
#1295=AXIS2_PLACEMENT_3D('',#1292,#1293,#1294);
#1296=PLANE('',#1295);
#1297=ORIENTED_EDGE('',*,*,#1216,.F.);
#1298=ORIENTED_EDGE('',*,*,#1231,.F.);
#1299=ORIENTED_EDGE('',*,*,#1263,.F.);
#1300=CARTESIAN_POINT('',(-1.85,1.6,0.0));
#1301=DIRECTION('',(0.0,-1.0,0.0));
#1302=VECTOR('',#1301,3.199999999999999);
#1303=LINE('',#1300,#1302);
#1304=EDGE_CURVE('',#1251,#1194,#1303,.T.);
#1305=ORIENTED_EDGE('',*,*,#1304,.T.);
#1306=EDGE_LOOP('',(#1297,#1298,#1299,#1305));
#1307=FACE_OUTER_BOUND('',#1306,.T.);
#1308=ADVANCED_FACE('',(#1307),#1296,.F.);
#1309=CARTESIAN_POINT('',(-2.450000000000001,-1.8,0.0));
#1310=DIRECTION('',(-1.0,0.0,0.0));
#1311=DIRECTION('',(0.0,0.0,1.0));
#1312=AXIS2_PLACEMENT_3D('',#1309,#1310,#1311);
#1313=PLANE('',#1312);
#1314=ORIENTED_EDGE('',*,*,#1067,.F.);
#1315=ORIENTED_EDGE('',*,*,#1151,.F.);
#1316=ORIENTED_EDGE('',*,*,#1238,.F.);
#1317=ORIENTED_EDGE('',*,*,#1089,.F.);
#1318=EDGE_LOOP('',(#1314,#1315,#1316,#1317));
#1319=FACE_OUTER_BOUND('',#1318,.T.);
#1320=ADVANCED_FACE('',(#1319),#1313,.T.);
#1321=CARTESIAN_POINT('',(-1.85,1.8,0.0));
#1322=DIRECTION('',(1.0,0.0,0.0));
#1323=DIRECTION('',(0.0,0.0,-1.0));
#1324=AXIS2_PLACEMENT_3D('',#1321,#1322,#1323);
#1325=PLANE('',#1324);
#1326=ORIENTED_EDGE('',*,*,#1116,.F.);
#1327=ORIENTED_EDGE('',*,*,#1287,.F.);
#1328=ORIENTED_EDGE('',*,*,#1202,.F.);
#1329=ORIENTED_EDGE('',*,*,#1304,.F.);
#1330=ORIENTED_EDGE('',*,*,#1257,.F.);
#1331=CARTESIAN_POINT('',(-1.85,1.8,0.2));
#1332=DIRECTION('',(0.0,0.0,1.0));
#1333=VECTOR('',#1332,1.8);
#1334=LINE('',#1331,#1333);
#1335=EDGE_CURVE('',#1249,#1164,#1334,.T.);
#1336=ORIENTED_EDGE('',*,*,#1335,.T.);
#1337=ORIENTED_EDGE('',*,*,#1170,.F.);
#1338=CARTESIAN_POINT('',(-1.85,1.6,2.2));
#1339=DIRECTION('',(0.0,-1.0,0.0));
#1340=VECTOR('',#1339,3.199999999999999);
#1341=LINE('',#1338,#1340);
#1342=EDGE_CURVE('',#1162,#1110,#1341,.T.);
#1343=ORIENTED_EDGE('',*,*,#1342,.T.);
#1344=EDGE_LOOP('',(#1326,#1327,#1328,#1329,#1330,#1336,#1337,#1343));
#1345=FACE_OUTER_BOUND('',#1344,.T.);
#1346=ADVANCED_FACE('',(#1345),#1325,.T.);
#1347=CARTESIAN_POINT('',(-2.45,1.8,0.0));
#1348=DIRECTION('',(0.0,1.0,0.0));
#1349=DIRECTION('',(0.0,0.0,1.0));
#1350=AXIS2_PLACEMENT_3D('',#1347,#1348,#1349);
#1351=PLANE('',#1350);
#1352=ORIENTED_EDGE('',*,*,#1176,.F.);
#1353=ORIENTED_EDGE('',*,*,#1335,.F.);
#1354=ORIENTED_EDGE('',*,*,#1270,.F.);
#1355=ORIENTED_EDGE('',*,*,#1144,.F.);
#1356=EDGE_LOOP('',(#1352,#1353,#1354,#1355));
#1357=FACE_OUTER_BOUND('',#1356,.T.);
#1358=ADVANCED_FACE('',(#1357),#1351,.T.);
#1359=CARTESIAN_POINT('',(-2.150000000000001,0.0,2.2));
#1360=DIRECTION('',(0.0,0.0,1.0));
#1361=DIRECTION('',(1.0,0.0,0.0));
#1362=AXIS2_PLACEMENT_3D('',#1359,#1360,#1361);
#1363=PLANE('',#1362);
#1364=ORIENTED_EDGE('',*,*,#1122,.F.);
#1365=ORIENTED_EDGE('',*,*,#1342,.F.);
#1366=ORIENTED_EDGE('',*,*,#1183,.F.);
#1367=ORIENTED_EDGE('',*,*,#1074,.F.);
#1368=EDGE_LOOP('',(#1364,#1365,#1366,#1367));
#1369=FACE_OUTER_BOUND('',#1368,.T.);
#1370=ADVANCED_FACE('',(#1369),#1363,.T.);
#1371=CLOSED_SHELL('',(#925,#960,#986,#1021,#1056,#1078,#1101,#1133,#1155,#1187,#1220,#1242,#1274,#1291,#1308,#1320,#1346,#1358,#1370));
#1372=MANIFOLD_SOLID_BREP('574',#1371);
#1373=STYLED_ITEM('NONE',(#571),#1372);
#1374=ADVANCED_BREP_SHAPE_REPRESENTATION('ABSR1',(#564,#864,#1372),#28);
#1375=SHAPE_REPRESENTATION_RELATIONSHIP('SRRPL1','',#1374,#62);
ENDSEC;
END-ISO-10303-21;
