ISO-10303-21;
HEADER;
/****************************************************************
 * Generated by software with PDElib inside                    *
 * PDElib Version v51a, created Fri 09/10/2010                  *
 * ITI Transcendata (http://www.transcendata.com/)              *
 ****************************************************************/
FILE_DESCRIPTION((''),'2;1');
FILE_NAME('CAPMP7343X310N.stp','2012-01-11T15:36:34',(''),(''),'Mechanical Desktop 2011','Mechanical Desktop 2011',', , ');
FILE_SCHEMA(('AUTOMOTIVE_DESIGN { 1 2 10303 214 1 1 1 1 }'));
ENDSEC;
DATA;
#10=(NAMED_UNIT(*)PLANE_ANGLE_UNIT()SI_UNIT($,.RADIAN.));
#11=DIMENSIONAL_EXPONENTS(0.0,0.0,0.0,0.0,0.0,0.0,0.0);
#12=PLANE_ANGLE_MEASURE_WITH_UNIT(PLANE_ANGLE_MEASURE(0.0174532925),#10);
#16=(CONVERSION_BASED_UNIT('DEGREE',#12)NAMED_UNIT(#11)PLANE_ANGLE_UNIT());
#20=(NAMED_UNIT(*)SI_UNIT($,.STERADIAN.)SOLID_ANGLE_UNIT());
#24=(LENGTH_UNIT()NAMED_UNIT(*)SI_UNIT(.MILLI.,.METRE.));
#26=UNCERTAINTY_MEASURE_WITH_UNIT(LENGTH_MEASURE(0.000001),#24,'DISTANCE_ACCURACY_VALUE','');
#28=(GEOMETRIC_REPRESENTATION_CONTEXT(3)GLOBAL_UNCERTAINTY_ASSIGNED_CONTEXT((#26))GLOBAL_UNIT_ASSIGNED_CONTEXT((#16,#20,#24))REPRESENTATION_CONTEXT('','3D'));
#29=APPLICATION_CONTEXT('automotive design');
#30=APPLICATION_PROTOCOL_DEFINITION('INTERNATIONAL_STANDARD','automotive_design',1998,#29);
#31=PRODUCT_CONTEXT('3D Mechanical Parts',#29,'mechanical');
#32=PRODUCT('Product','Product','',(#31));
#33=PRODUCT_RELATED_PRODUCT_CATEGORY('part',$,(#32));
#34=PRODUCT_CATEGORY('part',$);
#35=PERSON('1','Design','Joe',$,$,$);
#36=ORGANIZATION($,'None','None');
#37=PERSON_AND_ORGANIZATION(#35,#36);
#38=PERSON_AND_ORGANIZATION_ROLE('design_owner');
#39=APPLIED_PERSON_AND_ORGANIZATION_ASSIGNMENT(#37,#38,(#32));
#40=PRODUCT_DEFINITION_FORMATION_WITH_SPECIFIED_SOURCE('None','',#32,.BOUGHT.);
#41=PERSON('2','Creator','Joe',$,$,$);
#42=ORGANIZATION($,'None','None');
#43=PERSON_AND_ORGANIZATION(#41,#42);
#44=PERSON_AND_ORGANIZATION_ROLE('creator');
#45=APPLIED_PERSON_AND_ORGANIZATION_ASSIGNMENT(#43,#44,(#40));
#46=PERSON('3','Supplier','Joe',$,$,$);
#47=ORGANIZATION($,'None','None');
#48=PERSON_AND_ORGANIZATION(#46,#47);
#49=PERSON_AND_ORGANIZATION_ROLE('design_supplier');
#50=APPLIED_PERSON_AND_ORGANIZATION_ASSIGNMENT(#48,#49,(#40));
#51=PRODUCT_DEFINITION_CONTEXT('part definition',#29,'design');
#52=PRODUCT_DEFINITION('None','',#40,#51);
#53=PERSON('4','Creator','Joe',$,$,$);
#54=ORGANIZATION($,'None','None');
#55=PERSON_AND_ORGANIZATION(#53,#54);
#56=PERSON_AND_ORGANIZATION_ROLE('creator');
#57=APPLIED_PERSON_AND_ORGANIZATION_ASSIGNMENT(#55,#56,(#52));
#58=CARTESIAN_POINT('NONE',(0.0,0.0,0.0));
#59=DIRECTION('NONE',(0.0,0.0,1.0));
#60=DIRECTION('NONE',(1.0,0.0,0.0));
#61=AXIS2_PLACEMENT_3D('NONE',#58,#59,#60);
#62=SHAPE_REPRESENTATION('SR1',(#61),#28);
#63=PRODUCT_DEFINITION_SHAPE('PDS1','Test Part',#52);
#64=SHAPE_DEFINITION_REPRESENTATION(#63,#62);
#65=CARTESIAN_POINT('',(-1.800000000000001,-2.099999999999999,3.1));
#66=DIRECTION('',(1.0,0.0,0.0));
#67=DIRECTION('',(0.0,0.0,-1.0));
#68=AXIS2_PLACEMENT_3D('',#65,#66,#67);
#69=PLANE('',#68);
#70=CARTESIAN_POINT('',(-1.800000000000001,-2.099999999999999,3.05));
#71=VERTEX_POINT('',#70);
#72=CARTESIAN_POINT('',(-1.800000000000001,2.100000000000001,3.05));
#73=VERTEX_POINT('',#72);
#74=CARTESIAN_POINT('',(-1.800000000000001,-2.099999999999999,3.05));
#75=DIRECTION('',(0.0,1.0,0.0));
#76=VECTOR('',#75,4.199999999999999);
#77=LINE('',#74,#76);
#78=EDGE_CURVE('',#71,#73,#77,.T.);
#79=ORIENTED_EDGE('',*,*,#78,.T.);
#80=CARTESIAN_POINT('',(-1.800000000000001,2.100000000000001,3.1));
#81=VERTEX_POINT('',#80);
#82=CARTESIAN_POINT('',(-1.800000000000001,2.100000000000001,3.1));
#83=DIRECTION('',(0.0,0.0,-1.0));
#84=VECTOR('',#83,0.049999999999999);
#85=LINE('',#82,#84);
#86=EDGE_CURVE('',#81,#73,#85,.T.);
#87=ORIENTED_EDGE('',*,*,#86,.F.);
#88=CARTESIAN_POINT('',(-1.800000000000001,-2.099999999999999,3.1));
#89=VERTEX_POINT('',#88);
#90=CARTESIAN_POINT('',(-1.800000000000001,-2.099999999999999,3.1));
#91=DIRECTION('',(0.0,1.0,0.0));
#92=VECTOR('',#91,4.199999999999999);
#93=LINE('',#90,#92);
#94=EDGE_CURVE('',#89,#81,#93,.T.);
#95=ORIENTED_EDGE('',*,*,#94,.F.);
#96=CARTESIAN_POINT('',(-1.800000000000001,-2.099999999999999,3.1));
#97=DIRECTION('',(0.0,0.0,-1.0));
#98=VECTOR('',#97,0.049999999999999);
#99=LINE('',#96,#98);
#100=EDGE_CURVE('',#89,#71,#99,.T.);
#101=ORIENTED_EDGE('',*,*,#100,.T.);
#102=EDGE_LOOP('',(#79,#87,#95,#101));
#103=FACE_OUTER_BOUND('',#102,.T.);
#104=ADVANCED_FACE('',(#103),#69,.T.);
#105=CARTESIAN_POINT('',(-1.800000000000001,2.100000000000001,3.1));
#106=DIRECTION('',(0.0,1.0,0.0));
#107=DIRECTION('',(0.0,0.0,1.0));
#108=AXIS2_PLACEMENT_3D('',#105,#106,#107);
#109=PLANE('',#108);
#110=CARTESIAN_POINT('',(-2.400000000000001,2.100000000000001,3.05));
#111=VERTEX_POINT('',#110);
#112=CARTESIAN_POINT('',(-1.800000000000001,2.100000000000001,3.05));
#113=DIRECTION('',(-1.0,0.0,0.0));
#114=VECTOR('',#113,0.6);
#115=LINE('',#112,#114);
#116=EDGE_CURVE('',#73,#111,#115,.T.);
#117=ORIENTED_EDGE('',*,*,#116,.T.);
#118=CARTESIAN_POINT('',(-2.400000000000001,2.100000000000001,3.1));
#119=VERTEX_POINT('',#118);
#120=CARTESIAN_POINT('',(-2.400000000000001,2.100000000000001,3.1));
#121=DIRECTION('',(0.0,0.0,-1.0));
#122=VECTOR('',#121,0.049999999999999);
#123=LINE('',#120,#122);
#124=EDGE_CURVE('',#119,#111,#123,.T.);
#125=ORIENTED_EDGE('',*,*,#124,.F.);
#126=CARTESIAN_POINT('',(-1.800000000000001,2.100000000000001,3.1));
#127=DIRECTION('',(-1.0,0.0,0.0));
#128=VECTOR('',#127,0.6);
#129=LINE('',#126,#128);
#130=EDGE_CURVE('',#81,#119,#129,.T.);
#131=ORIENTED_EDGE('',*,*,#130,.F.);
#132=ORIENTED_EDGE('',*,*,#86,.T.);
#133=EDGE_LOOP('',(#117,#125,#131,#132));
#134=FACE_OUTER_BOUND('',#133,.T.);
#135=ADVANCED_FACE('',(#134),#109,.T.);
#136=CARTESIAN_POINT('',(-2.400000000000001,2.100000000000001,3.1));
#137=DIRECTION('',(-1.0,0.0,0.0));
#138=DIRECTION('',(0.0,0.0,1.0));
#139=AXIS2_PLACEMENT_3D('',#136,#137,#138);
#140=PLANE('',#139);
#141=CARTESIAN_POINT('',(-2.4,-2.099999999999999,3.05));
#142=VERTEX_POINT('',#141);
#143=CARTESIAN_POINT('',(-2.400000000000001,2.100000000000001,3.05));
#144=DIRECTION('',(0.0,-1.0,0.0));
#145=VECTOR('',#144,4.199999999999999);
#146=LINE('',#143,#145);
#147=EDGE_CURVE('',#111,#142,#146,.T.);
#148=ORIENTED_EDGE('',*,*,#147,.T.);
#149=CARTESIAN_POINT('',(-2.4,-2.099999999999999,3.1));
#150=VERTEX_POINT('',#149);
#151=CARTESIAN_POINT('',(-2.4,-2.099999999999999,3.1));
#152=DIRECTION('',(0.0,0.0,-1.0));
#153=VECTOR('',#152,0.049999999999999);
#154=LINE('',#151,#153);
#155=EDGE_CURVE('',#150,#142,#154,.T.);
#156=ORIENTED_EDGE('',*,*,#155,.F.);
#157=CARTESIAN_POINT('',(-2.400000000000001,2.100000000000001,3.1));
#158=DIRECTION('',(0.0,-1.0,0.0));
#159=VECTOR('',#158,4.199999999999999);
#160=LINE('',#157,#159);
#161=EDGE_CURVE('',#119,#150,#160,.T.);
#162=ORIENTED_EDGE('',*,*,#161,.F.);
#163=ORIENTED_EDGE('',*,*,#124,.T.);
#164=EDGE_LOOP('',(#148,#156,#162,#163));
#165=FACE_OUTER_BOUND('',#164,.T.);
#166=ADVANCED_FACE('',(#165),#140,.T.);
#167=CARTESIAN_POINT('',(-2.4,-2.099999999999999,3.1));
#168=DIRECTION('',(0.0,-1.0,0.0));
#169=DIRECTION('',(0.0,0.0,-1.0));
#170=AXIS2_PLACEMENT_3D('',#167,#168,#169);
#171=PLANE('',#170);
#172=CARTESIAN_POINT('',(-2.4,-2.099999999999999,3.05));
#173=DIRECTION('',(1.0,0.0,0.0));
#174=VECTOR('',#173,0.6);
#175=LINE('',#172,#174);
#176=EDGE_CURVE('',#142,#71,#175,.T.);
#177=ORIENTED_EDGE('',*,*,#176,.T.);
#178=ORIENTED_EDGE('',*,*,#100,.F.);
#179=CARTESIAN_POINT('',(-2.4,-2.099999999999999,3.1));
#180=DIRECTION('',(1.0,0.0,0.0));
#181=VECTOR('',#180,0.6);
#182=LINE('',#179,#181);
#183=EDGE_CURVE('',#150,#89,#182,.T.);
#184=ORIENTED_EDGE('',*,*,#183,.F.);
#185=ORIENTED_EDGE('',*,*,#155,.T.);
#186=EDGE_LOOP('',(#177,#178,#184,#185));
#187=FACE_OUTER_BOUND('',#186,.T.);
#188=ADVANCED_FACE('',(#187),#171,.T.);
#189=CARTESIAN_POINT('',(-2.100000000000001,1.264140E-015,3.05));
#190=DIRECTION('',(0.0,0.0,1.0));
#191=DIRECTION('',(1.0,0.0,0.0));
#192=AXIS2_PLACEMENT_3D('',#189,#190,#191);
#193=PLANE('',#192);
#194=ORIENTED_EDGE('',*,*,#78,.F.);
#195=ORIENTED_EDGE('',*,*,#176,.F.);
#196=ORIENTED_EDGE('',*,*,#147,.F.);
#197=ORIENTED_EDGE('',*,*,#116,.F.);
#198=EDGE_LOOP('',(#194,#195,#196,#197));
#199=FACE_OUTER_BOUND('',#198,.T.);
#200=ADVANCED_FACE('',(#199),#193,.F.);
#201=CARTESIAN_POINT('',(-2.100000000000001,1.264140E-015,3.1));
#202=DIRECTION('',(0.0,0.0,1.0));
#203=DIRECTION('',(1.0,0.0,0.0));
#204=AXIS2_PLACEMENT_3D('',#201,#202,#203);
#205=PLANE('',#204);
#206=ORIENTED_EDGE('',*,*,#183,.T.);
#207=ORIENTED_EDGE('',*,*,#94,.T.);
#208=ORIENTED_EDGE('',*,*,#130,.T.);
#209=ORIENTED_EDGE('',*,*,#161,.T.);
#210=EDGE_LOOP('',(#206,#207,#208,#209));
#211=FACE_OUTER_BOUND('',#210,.T.);
#212=ADVANCED_FACE('',(#211),#205,.T.);
#213=CLOSED_SHELL('',(#104,#135,#166,#188,#200,#212));
#214=MANIFOLD_SOLID_BREP('4E3',#213);
#215=COLOUR_RGB('254',0.866,0.866,0.866);
#216=SURFACE_STYLE_USAGE(.BOTH.,#217);
#217=SURFACE_SIDE_STYLE('NONE',(#218));
#218=SURFACE_STYLE_FILL_AREA(#219);
#219=FILL_AREA_STYLE('NONE',(#220));
#220=FILL_AREA_STYLE_COLOUR('NONE',#215);
#221=PRESENTATION_STYLE_ASSIGNMENT((#216));
#222=STYLED_ITEM('NONE',(#221),#214);
#223=MECHANICAL_DESIGN_GEOMETRIC_PRESENTATION_REPRESENTATION('NONE',(#222,#382,#540,#691,#842,#993,#1144,#1457),#28);
#224=PRESENTATION_LAYER_ASSIGNMENT('3D','None',(#214,#374,#532,#690,#841,#992,#1143,#1456));
#225=CARTESIAN_POINT('',(1.749999999999999,-1.2,0.1));
#226=DIRECTION('',(1.0,0.0,0.0));
#227=DIRECTION('',(0.0,0.0,-1.0));
#228=AXIS2_PLACEMENT_3D('',#225,#226,#227);
#229=PLANE('',#228);
#230=CARTESIAN_POINT('',(1.749999999999999,-2.2,-3.608225E-016));
#231=VERTEX_POINT('',#230);
#232=CARTESIAN_POINT('',(1.75,2.2,-3.608225E-016));
#233=VERTEX_POINT('',#232);
#234=CARTESIAN_POINT('',(1.749999999999999,-2.2,-3.608225E-016));
#235=DIRECTION('',(0.0,1.0,0.0));
#236=VECTOR('',#235,4.4);
#237=LINE('',#234,#236);
#238=EDGE_CURVE('',#231,#233,#237,.T.);
#239=ORIENTED_EDGE('',*,*,#238,.T.);
#240=CARTESIAN_POINT('',(1.75,2.2,0.1));
#241=VERTEX_POINT('',#240);
#242=CARTESIAN_POINT('',(1.75,2.2,0.1));
#243=DIRECTION('',(0.0,0.0,-1.0));
#244=VECTOR('',#243,0.1);
#245=LINE('',#242,#244);
#246=EDGE_CURVE('',#241,#233,#245,.T.);
#247=ORIENTED_EDGE('',*,*,#246,.F.);
#248=CARTESIAN_POINT('',(1.749999999999999,-2.2,0.1));
#249=VERTEX_POINT('',#248);
#250=CARTESIAN_POINT('',(1.75,2.2,0.1));
#251=DIRECTION('',(0.0,-1.0,0.0));
#252=VECTOR('',#251,4.4);
#253=LINE('',#250,#252);
#254=EDGE_CURVE('',#241,#249,#253,.T.);
#255=ORIENTED_EDGE('',*,*,#254,.T.);
#256=CARTESIAN_POINT('',(1.749999999999999,-2.2,0.1));
#257=DIRECTION('',(0.0,0.0,-1.0));
#258=VECTOR('',#257,0.1);
#259=LINE('',#256,#258);
#260=EDGE_CURVE('',#249,#231,#259,.T.);
#261=ORIENTED_EDGE('',*,*,#260,.T.);
#262=EDGE_LOOP('',(#239,#247,#255,#261));
#263=FACE_OUTER_BOUND('',#262,.T.);
#264=ADVANCED_FACE('',(#263),#229,.T.);
#265=CARTESIAN_POINT('',(1.75,2.2,0.1));
#266=DIRECTION('',(0.0,1.0,0.0));
#267=DIRECTION('',(0.0,0.0,1.0));
#268=AXIS2_PLACEMENT_3D('',#265,#266,#267);
#269=PLANE('',#268);
#270=CARTESIAN_POINT('',(-1.75,2.200000000000001,-3.608225E-016));
#271=VERTEX_POINT('',#270);
#272=CARTESIAN_POINT('',(1.75,2.2,-3.608225E-016));
#273=DIRECTION('',(-1.0,0.0,0.0));
#274=VECTOR('',#273,3.5);
#275=LINE('',#272,#274);
#276=EDGE_CURVE('',#233,#271,#275,.T.);
#277=ORIENTED_EDGE('',*,*,#276,.T.);
#278=CARTESIAN_POINT('',(-1.75,2.200000000000001,0.1));
#279=VERTEX_POINT('',#278);
#280=CARTESIAN_POINT('',(-1.75,2.200000000000001,0.1));
#281=DIRECTION('',(0.0,0.0,-1.0));
#282=VECTOR('',#281,0.1);
#283=LINE('',#280,#282);
#284=EDGE_CURVE('',#279,#271,#283,.T.);
#285=ORIENTED_EDGE('',*,*,#284,.F.);
#286=CARTESIAN_POINT('',(-1.75,2.200000000000001,0.1));
#287=DIRECTION('',(1.0,0.0,0.0));
#288=VECTOR('',#287,3.5);
#289=LINE('',#286,#288);
#290=EDGE_CURVE('',#279,#241,#289,.T.);
#291=ORIENTED_EDGE('',*,*,#290,.T.);
#292=ORIENTED_EDGE('',*,*,#246,.T.);
#293=EDGE_LOOP('',(#277,#285,#291,#292));
#294=FACE_OUTER_BOUND('',#293,.T.);
#295=ADVANCED_FACE('',(#294),#269,.T.);
#296=CARTESIAN_POINT('',(-1.75,1.200000000000001,0.1));
#297=DIRECTION('',(-1.0,0.0,0.0));
#298=DIRECTION('',(0.0,0.0,1.0));
#299=AXIS2_PLACEMENT_3D('',#296,#297,#298);
#300=PLANE('',#299);
#301=CARTESIAN_POINT('',(-1.750000000000001,-2.199999999999999,-3.608225E-016));
#302=VERTEX_POINT('',#301);
#303=CARTESIAN_POINT('',(-1.749999999999999,2.200000000000001,-3.608225E-016));
#304=DIRECTION('',(0.0,-1.0,0.0));
#305=VECTOR('',#304,4.4);
#306=LINE('',#303,#305);
#307=EDGE_CURVE('',#271,#302,#306,.T.);
#308=ORIENTED_EDGE('',*,*,#307,.T.);
#309=CARTESIAN_POINT('',(-1.750000000000001,-2.199999999999999,0.1));
#310=VERTEX_POINT('',#309);
#311=CARTESIAN_POINT('',(-1.750000000000001,-2.199999999999999,0.1));
#312=DIRECTION('',(0.0,0.0,-1.0));
#313=VECTOR('',#312,0.1);
#314=LINE('',#311,#313);
#315=EDGE_CURVE('',#310,#302,#314,.T.);
#316=ORIENTED_EDGE('',*,*,#315,.F.);
#317=CARTESIAN_POINT('',(-1.750000000000001,-2.199999999999999,0.1));
#318=DIRECTION('',(0.0,1.0,0.0));
#319=VECTOR('',#318,4.4);
#320=LINE('',#317,#319);
#321=EDGE_CURVE('',#310,#279,#320,.T.);
#322=ORIENTED_EDGE('',*,*,#321,.T.);
#323=ORIENTED_EDGE('',*,*,#284,.T.);
#324=EDGE_LOOP('',(#308,#316,#322,#323));
#325=FACE_OUTER_BOUND('',#324,.T.);
#326=ADVANCED_FACE('',(#325),#300,.T.);
#327=CARTESIAN_POINT('',(-1.750000000000001,-2.199999999999999,0.1));
#328=DIRECTION('',(0.0,-1.0,0.0));
#329=DIRECTION('',(0.0,0.0,-1.0));
#330=AXIS2_PLACEMENT_3D('',#327,#328,#329);
#331=PLANE('',#330);
#332=CARTESIAN_POINT('',(-1.750000000000001,-2.199999999999999,-3.608225E-016));
#333=DIRECTION('',(1.0,0.0,0.0));
#334=VECTOR('',#333,3.5);
#335=LINE('',#332,#334);
#336=EDGE_CURVE('',#302,#231,#335,.T.);
#337=ORIENTED_EDGE('',*,*,#336,.T.);
#338=ORIENTED_EDGE('',*,*,#260,.F.);
#339=CARTESIAN_POINT('',(1.749999999999999,-2.2,0.1));
#340=DIRECTION('',(-1.0,0.0,0.0));
#341=VECTOR('',#340,3.5);
#342=LINE('',#339,#341);
#343=EDGE_CURVE('',#249,#310,#342,.T.);
#344=ORIENTED_EDGE('',*,*,#343,.T.);
#345=ORIENTED_EDGE('',*,*,#315,.T.);
#346=EDGE_LOOP('',(#337,#338,#344,#345));
#347=FACE_OUTER_BOUND('',#346,.T.);
#348=ADVANCED_FACE('',(#347),#331,.T.);
#349=CARTESIAN_POINT('',(-2.775558E-016,6.907674E-016,-3.608225E-016));
#350=DIRECTION('',(0.0,0.0,1.0));
#351=DIRECTION('',(1.0,0.0,0.0));
#352=AXIS2_PLACEMENT_3D('',#349,#350,#351);
#353=PLANE('',#352);
#354=ORIENTED_EDGE('',*,*,#238,.F.);
#355=ORIENTED_EDGE('',*,*,#336,.F.);
#356=ORIENTED_EDGE('',*,*,#307,.F.);
#357=ORIENTED_EDGE('',*,*,#276,.F.);
#358=EDGE_LOOP('',(#354,#355,#356,#357));
#359=FACE_OUTER_BOUND('',#358,.T.);
#360=ADVANCED_FACE('',(#359),#353,.F.);
#361=CARTESIAN_POINT('',(-2.775558E-016,6.907674E-016,0.1));
#362=DIRECTION('',(0.0,0.0,1.0));
#363=DIRECTION('',(1.0,0.0,0.0));
#364=AXIS2_PLACEMENT_3D('',#361,#362,#363);
#365=PLANE('',#364);
#366=ORIENTED_EDGE('',*,*,#343,.F.);
#367=ORIENTED_EDGE('',*,*,#254,.F.);
#368=ORIENTED_EDGE('',*,*,#290,.F.);
#369=ORIENTED_EDGE('',*,*,#321,.F.);
#370=EDGE_LOOP('',(#366,#367,#368,#369));
#371=FACE_OUTER_BOUND('',#370,.T.);
#372=ADVANCED_FACE('',(#371),#365,.T.);
#373=CLOSED_SHELL('',(#264,#295,#326,#348,#360,#372));
#374=MANIFOLD_SOLID_BREP('4CC',#373);
#375=COLOUR_RGB('250',0.33,0.33,0.33);
#376=SURFACE_STYLE_USAGE(.BOTH.,#377);
#377=SURFACE_SIDE_STYLE('NONE',(#378));
#378=SURFACE_STYLE_FILL_AREA(#379);
#379=FILL_AREA_STYLE('NONE',(#380));
#380=FILL_AREA_STYLE_COLOUR('NONE',#375);
#381=PRESENTATION_STYLE_ASSIGNMENT((#376));
#382=STYLED_ITEM('NONE',(#381),#374);
#383=CARTESIAN_POINT('',(-3.8,-1.199999999999999,1.0));
#384=CARTESIAN_POINT('',(-3.8,-1.199999999999999,-3.330669E-016));
#385=CARTESIAN_POINT('',(-3.699999999999999,-1.199999999999999,1.0));
#386=CARTESIAN_POINT('',(-3.7,-1.199999999999999,-3.330669E-016));
#387=B_SPLINE_SURFACE_WITH_KNOTS('',1,1,((#383,#385),(#384,#386)),.UNSPECIFIED.,.F.,.F.,.U.,(2,2),(2,2),(0.0,1.0),(0.0,0.100000000000001),.UNSPECIFIED.);
#388=CARTESIAN_POINT('',(-3.8,-1.199999999999999,-3.330669E-016));
#389=VERTEX_POINT('',#388);
#390=CARTESIAN_POINT('',(-3.8,-1.199999999999999,1.0));
#391=VERTEX_POINT('',#390);
#392=CARTESIAN_POINT('',(-3.8,-1.199999999999999,-3.330669E-016));
#393=DIRECTION('',(0.0,0.0,1.0));
#394=VECTOR('',#393,1.0);
#395=LINE('',#392,#394);
#396=EDGE_CURVE('',#389,#391,#395,.T.);
#397=ORIENTED_EDGE('',*,*,#396,.F.);
#398=CARTESIAN_POINT('',(-3.699999999999999,-1.199999999999999,-3.330669E-016));
#399=VERTEX_POINT('',#398);
#400=CARTESIAN_POINT('',(-3.699999999999999,-1.199999999999999,-3.330669E-016));
#401=DIRECTION('',(-1.0,0.0,0.0));
#402=VECTOR('',#401,0.100000000000001);
#403=LINE('',#400,#402);
#404=EDGE_CURVE('',#399,#389,#403,.T.);
#405=ORIENTED_EDGE('',*,*,#404,.F.);
#406=CARTESIAN_POINT('',(-3.699999999999999,-1.199999999999999,1.0));
#407=VERTEX_POINT('',#406);
#408=CARTESIAN_POINT('',(-3.699999999999999,-1.199999999999999,1.0));
#409=DIRECTION('',(0.0,0.0,-1.0));
#410=VECTOR('',#409,1.0);
#411=LINE('',#408,#410);
#412=EDGE_CURVE('',#407,#399,#411,.T.);
#413=ORIENTED_EDGE('',*,*,#412,.F.);
#414=CARTESIAN_POINT('',(-3.699999999999999,-1.199999999999999,1.0));
#415=DIRECTION('',(-1.0,0.0,0.0));
#416=VECTOR('',#415,0.100000000000001);
#417=LINE('',#414,#416);
#418=EDGE_CURVE('',#407,#391,#417,.T.);
#419=ORIENTED_EDGE('',*,*,#418,.T.);
#420=EDGE_LOOP('',(#397,#405,#413,#419));
#421=FACE_OUTER_BOUND('',#420,.T.);
#422=ADVANCED_FACE('',(#421),#387,.T.);
#423=CARTESIAN_POINT('',(-3.699999999999999,1.200000000000001,1.0));
#424=CARTESIAN_POINT('',(-3.8,1.200000000000001,1.0));
#425=CARTESIAN_POINT('',(-3.699999999999999,-1.199999999999999,1.0));
#426=CARTESIAN_POINT('',(-3.800000000000001,-1.199999999999999,1.0));
#427=B_SPLINE_SURFACE_WITH_KNOTS('',1,1,((#423,#425),(#424,#426)),.UNSPECIFIED.,.F.,.F.,.U.,(2,2),(2,2),(0.0,0.100000000000001),(0.0,2.4),.UNSPECIFIED.);
#428=CARTESIAN_POINT('',(-3.8,1.200000000000001,1.0));
#429=VERTEX_POINT('',#428);
#430=CARTESIAN_POINT('',(-3.799999999999999,-1.199999999999999,1.0));
#431=DIRECTION('',(0.0,1.0,0.0));
#432=VECTOR('',#431,2.4);
#433=LINE('',#430,#432);
#434=EDGE_CURVE('',#391,#429,#433,.T.);
#435=ORIENTED_EDGE('',*,*,#434,.F.);
#436=ORIENTED_EDGE('',*,*,#418,.F.);
#437=CARTESIAN_POINT('',(-3.699999999999999,1.200000000000001,1.0));
#438=VERTEX_POINT('',#437);
#439=CARTESIAN_POINT('',(-3.699999999999999,1.200000000000001,1.0));
#440=DIRECTION('',(0.0,-1.0,0.0));
#441=VECTOR('',#440,2.4);
#442=LINE('',#439,#441);
#443=EDGE_CURVE('',#438,#407,#442,.T.);
#444=ORIENTED_EDGE('',*,*,#443,.F.);
#445=CARTESIAN_POINT('',(-3.699999999999999,1.200000000000001,1.0));
#446=DIRECTION('',(-1.0,0.0,0.0));
#447=VECTOR('',#446,0.100000000000001);
#448=LINE('',#445,#447);
#449=EDGE_CURVE('',#438,#429,#448,.T.);
#450=ORIENTED_EDGE('',*,*,#449,.T.);
#451=EDGE_LOOP('',(#435,#436,#444,#450));
#452=FACE_OUTER_BOUND('',#451,.T.);
#453=ADVANCED_FACE('',(#452),#427,.T.);
#454=CARTESIAN_POINT('',(-3.8,1.200000000000001,-3.330669E-016));
#455=CARTESIAN_POINT('',(-3.8,1.200000000000001,1.0));
#456=CARTESIAN_POINT('',(-3.699999999999999,1.200000000000001,-3.330669E-016));
#457=CARTESIAN_POINT('',(-3.7,1.200000000000001,1.0));
#458=B_SPLINE_SURFACE_WITH_KNOTS('',1,1,((#454,#456),(#455,#457)),.UNSPECIFIED.,.F.,.F.,.U.,(2,2),(2,2),(0.0,1.0),(0.0,0.100000000000001),.UNSPECIFIED.);
#459=CARTESIAN_POINT('',(-3.8,1.200000000000001,-3.330669E-016));
#460=VERTEX_POINT('',#459);
#461=CARTESIAN_POINT('',(-3.799999999999999,1.200000000000001,1.0));
#462=DIRECTION('',(0.0,0.0,-1.0));
#463=VECTOR('',#462,1.0);
#464=LINE('',#461,#463);
#465=EDGE_CURVE('',#429,#460,#464,.T.);
#466=ORIENTED_EDGE('',*,*,#465,.F.);
#467=ORIENTED_EDGE('',*,*,#449,.F.);
#468=CARTESIAN_POINT('',(-3.699999999999999,1.200000000000001,-3.330669E-016));
#469=VERTEX_POINT('',#468);
#470=CARTESIAN_POINT('',(-3.699999999999999,1.200000000000001,-3.330669E-016));
#471=DIRECTION('',(0.0,0.0,1.0));
#472=VECTOR('',#471,1.0);
#473=LINE('',#470,#472);
#474=EDGE_CURVE('',#469,#438,#473,.T.);
#475=ORIENTED_EDGE('',*,*,#474,.F.);
#476=CARTESIAN_POINT('',(-3.699999999999999,1.200000000000001,-3.330669E-016));
#477=DIRECTION('',(-1.0,0.0,0.0));
#478=VECTOR('',#477,0.100000000000001);
#479=LINE('',#476,#478);
#480=EDGE_CURVE('',#469,#460,#479,.T.);
#481=ORIENTED_EDGE('',*,*,#480,.T.);
#482=EDGE_LOOP('',(#466,#467,#475,#481));
#483=FACE_OUTER_BOUND('',#482,.T.);
#484=ADVANCED_FACE('',(#483),#458,.T.);
#485=CARTESIAN_POINT('',(-3.8,1.200000000000001,-3.330669E-016));
#486=CARTESIAN_POINT('',(-3.699999999999999,1.200000000000001,-3.330669E-016));
#487=CARTESIAN_POINT('',(-3.8,-1.199999999999999,-3.330669E-016));
#488=CARTESIAN_POINT('',(-3.7,-1.199999999999999,-3.330669E-016));
#489=B_SPLINE_SURFACE_WITH_KNOTS('',1,1,((#485,#487),(#486,#488)),.UNSPECIFIED.,.F.,.F.,.U.,(2,2),(2,2),(0.0,0.100000000000001),(0.0,2.4),.UNSPECIFIED.);
#490=CARTESIAN_POINT('',(-3.799999999999999,1.200000000000001,-3.330669E-016));
#491=DIRECTION('',(0.0,-1.0,0.0));
#492=VECTOR('',#491,2.4);
#493=LINE('',#490,#492);
#494=EDGE_CURVE('',#460,#389,#493,.T.);
#495=ORIENTED_EDGE('',*,*,#494,.F.);
#496=ORIENTED_EDGE('',*,*,#480,.F.);
#497=CARTESIAN_POINT('',(-3.699999999999999,-1.199999999999999,-3.330669E-016));
#498=DIRECTION('',(0.0,1.0,0.0));
#499=VECTOR('',#498,2.4);
#500=LINE('',#497,#499);
#501=EDGE_CURVE('',#399,#469,#500,.T.);
#502=ORIENTED_EDGE('',*,*,#501,.F.);
#503=ORIENTED_EDGE('',*,*,#404,.T.);
#504=EDGE_LOOP('',(#495,#496,#502,#503));
#505=FACE_OUTER_BOUND('',#504,.T.);
#506=ADVANCED_FACE('',(#505),#489,.T.);
#507=CARTESIAN_POINT('',(-3.8,1.200000000000001,1.0));
#508=CARTESIAN_POINT('',(-3.8,1.200000000000001,-3.330669E-016));
#509=CARTESIAN_POINT('',(-3.8,-1.199999999999999,1.0));
#510=CARTESIAN_POINT('',(-3.8,-1.199999999999999,-3.330669E-016));
#511=B_SPLINE_SURFACE_WITH_KNOTS('',1,1,((#507,#509),(#508,#510)),.UNSPECIFIED.,.F.,.F.,.U.,(2,2),(2,2),(0.0,1.0),(0.0,2.4),.UNSPECIFIED.);
#512=ORIENTED_EDGE('',*,*,#396,.T.);
#513=ORIENTED_EDGE('',*,*,#434,.T.);
#514=ORIENTED_EDGE('',*,*,#465,.T.);
#515=ORIENTED_EDGE('',*,*,#494,.T.);
#516=EDGE_LOOP('',(#512,#513,#514,#515));
#517=FACE_OUTER_BOUND('',#516,.T.);
#518=ADVANCED_FACE('',(#517),#511,.T.);
#519=CARTESIAN_POINT('',(-3.7,1.200000000000001,1.0));
#520=CARTESIAN_POINT('',(-3.7,1.200000000000001,-3.330669E-016));
#521=CARTESIAN_POINT('',(-3.7,-1.199999999999999,1.0));
#522=CARTESIAN_POINT('',(-3.7,-1.199999999999999,-3.330669E-016));
#523=B_SPLINE_SURFACE_WITH_KNOTS('',1,1,((#519,#521),(#520,#522)),.UNSPECIFIED.,.F.,.F.,.U.,(2,2),(2,2),(0.0,1.0),(0.0,2.4),.UNSPECIFIED.);
#524=ORIENTED_EDGE('',*,*,#501,.T.);
#525=ORIENTED_EDGE('',*,*,#474,.T.);
#526=ORIENTED_EDGE('',*,*,#443,.T.);
#527=ORIENTED_EDGE('',*,*,#412,.T.);
#528=EDGE_LOOP('',(#524,#525,#526,#527));
#529=FACE_OUTER_BOUND('',#528,.T.);
#530=ADVANCED_FACE('',(#529),#523,.F.);
#531=CLOSED_SHELL('',(#422,#453,#484,#506,#518,#530));
#532=MANIFOLD_SOLID_BREP('4BD',#531);
#533=COLOUR_RGB('253',0.732,0.732,0.732);
#534=SURFACE_STYLE_USAGE(.BOTH.,#535);
#535=SURFACE_SIDE_STYLE('NONE',(#536));
#536=SURFACE_STYLE_FILL_AREA(#537);
#537=FILL_AREA_STYLE('NONE',(#538));
#538=FILL_AREA_STYLE_COLOUR('NONE',#533);
#539=PRESENTATION_STYLE_ASSIGNMENT((#534));
#540=STYLED_ITEM('NONE',(#539),#532);
#541=CARTESIAN_POINT('',(-3.699999999999999,-1.199999999999999,0.100000000000002));
#542=CARTESIAN_POINT('',(-3.699999999999999,-1.199999999999999,1.054712E-015));
#543=CARTESIAN_POINT('',(-2.4,-1.199999999999999,0.100000000000002));
#544=CARTESIAN_POINT('',(-2.4,-1.199999999999999,1.054712E-015));
#545=B_SPLINE_SURFACE_WITH_KNOTS('',1,1,((#541,#543),(#542,#544)),.UNSPECIFIED.,.F.,.F.,.U.,(2,2),(2,2),(0.0,0.100000000000001),(0.0,1.3),.UNSPECIFIED.);
#546=CARTESIAN_POINT('',(-3.699999999999999,-1.199999999999999,0.100000000000002));
#547=VERTEX_POINT('',#546);
#548=CARTESIAN_POINT('',(-2.4,-1.199999999999999,0.100000000000001));
#549=VERTEX_POINT('',#548);
#550=CARTESIAN_POINT('',(-3.699999999999999,-1.199999999999999,0.100000000000002));
#551=DIRECTION('',(1.0,0.0,0.0));
#552=VECTOR('',#551,1.3);
#553=LINE('',#550,#552);
#554=EDGE_CURVE('',#547,#549,#553,.T.);
#555=ORIENTED_EDGE('',*,*,#554,.F.);
#556=CARTESIAN_POINT('',(-3.699999999999999,-1.199999999999999,1.643130E-015));
#557=VERTEX_POINT('',#556);
#558=CARTESIAN_POINT('',(-3.699999999999999,-1.199999999999999,1.643130E-015));
#559=DIRECTION('',(0.0,0.0,1.0));
#560=VECTOR('',#559,0.1);
#561=LINE('',#558,#560);
#562=EDGE_CURVE('',#557,#547,#561,.T.);
#563=ORIENTED_EDGE('',*,*,#562,.F.);
#564=CARTESIAN_POINT('',(-2.4,-1.199999999999999,1.065814E-015));
#565=VERTEX_POINT('',#564);
#566=CARTESIAN_POINT('',(-3.699999999999999,-1.199999999999999,1.643130E-015));
#567=DIRECTION('',(1.0,0.0,0.0));
#568=VECTOR('',#567,1.3);
#569=LINE('',#566,#568);
#570=EDGE_CURVE('',#557,#565,#569,.T.);
#571=ORIENTED_EDGE('',*,*,#570,.T.);
#572=CARTESIAN_POINT('',(-2.4,-1.199999999999999,1.065814E-015));
#573=DIRECTION('',(0.0,0.0,1.0));
#574=VECTOR('',#573,0.1);
#575=LINE('',#572,#574);
#576=EDGE_CURVE('',#565,#549,#575,.T.);
#577=ORIENTED_EDGE('',*,*,#576,.T.);
#578=EDGE_LOOP('',(#555,#563,#571,#577));
#579=FACE_OUTER_BOUND('',#578,.T.);
#580=ADVANCED_FACE('',(#579),#545,.T.);
#581=CARTESIAN_POINT('',(-2.4,1.200000000000001,1.065814E-015));
#582=CARTESIAN_POINT('',(-2.4,1.200000000000001,0.100000000000001));
#583=CARTESIAN_POINT('',(-2.4,-1.199999999999999,1.065814E-015));
#584=CARTESIAN_POINT('',(-2.4,-1.199999999999999,0.100000000000001));
#585=B_SPLINE_SURFACE_WITH_KNOTS('',1,1,((#581,#583),(#582,#584)),.UNSPECIFIED.,.F.,.F.,.U.,(2,2),(2,2),(0.0,0.1),(0.0,2.4),.UNSPECIFIED.);
#586=CARTESIAN_POINT('',(-2.4,1.200000000000001,0.100000000000001));
#587=VERTEX_POINT('',#586);
#588=CARTESIAN_POINT('',(-2.4,-1.199999999999999,0.100000000000001));
#589=DIRECTION('',(0.0,1.0,0.0));
#590=VECTOR('',#589,2.4);
#591=LINE('',#588,#590);
#592=EDGE_CURVE('',#549,#587,#591,.T.);
#593=ORIENTED_EDGE('',*,*,#592,.F.);
#594=ORIENTED_EDGE('',*,*,#576,.F.);
#595=CARTESIAN_POINT('',(-2.4,1.200000000000001,1.065814E-015));
#596=VERTEX_POINT('',#595);
#597=CARTESIAN_POINT('',(-2.4,-1.199999999999999,1.065814E-015));
#598=DIRECTION('',(0.0,1.0,0.0));
#599=VECTOR('',#598,2.4);
#600=LINE('',#597,#599);
#601=EDGE_CURVE('',#565,#596,#600,.T.);
#602=ORIENTED_EDGE('',*,*,#601,.T.);
#603=CARTESIAN_POINT('',(-2.4,1.200000000000001,1.065814E-015));
#604=DIRECTION('',(0.0,0.0,1.0));
#605=VECTOR('',#604,0.1);
#606=LINE('',#603,#605);
#607=EDGE_CURVE('',#596,#587,#606,.T.);
#608=ORIENTED_EDGE('',*,*,#607,.T.);
#609=EDGE_LOOP('',(#593,#594,#602,#608));
#610=FACE_OUTER_BOUND('',#609,.T.);
#611=ADVANCED_FACE('',(#610),#585,.T.);
#612=CARTESIAN_POINT('',(-3.699999999999999,1.200000000000001,1.065814E-015));
#613=CARTESIAN_POINT('',(-3.699999999999999,1.200000000000001,0.100000000000002));
#614=CARTESIAN_POINT('',(-2.4,1.200000000000001,1.065814E-015));
#615=CARTESIAN_POINT('',(-2.4,1.200000000000001,0.100000000000002));
#616=B_SPLINE_SURFACE_WITH_KNOTS('',1,1,((#612,#614),(#613,#615)),.UNSPECIFIED.,.F.,.F.,.U.,(2,2),(2,2),(0.0,0.100000000000001),(0.0,1.3),.UNSPECIFIED.);
#617=CARTESIAN_POINT('',(-3.699999999999999,1.200000000000001,0.100000000000002));
#618=VERTEX_POINT('',#617);
#619=CARTESIAN_POINT('',(-2.4,1.200000000000001,0.100000000000001));
#620=DIRECTION('',(-1.0,0.0,0.0));
#621=VECTOR('',#620,1.3);
#622=LINE('',#619,#621);
#623=EDGE_CURVE('',#587,#618,#622,.T.);
#624=ORIENTED_EDGE('',*,*,#623,.F.);
#625=ORIENTED_EDGE('',*,*,#607,.F.);
#626=CARTESIAN_POINT('',(-3.699999999999999,1.200000000000001,1.643130E-015));
#627=VERTEX_POINT('',#626);
#628=CARTESIAN_POINT('',(-2.4,1.200000000000001,1.065814E-015));
#629=DIRECTION('',(-1.0,0.0,0.0));
#630=VECTOR('',#629,1.3);
#631=LINE('',#628,#630);
#632=EDGE_CURVE('',#596,#627,#631,.T.);
#633=ORIENTED_EDGE('',*,*,#632,.T.);
#634=CARTESIAN_POINT('',(-3.699999999999999,1.200000000000001,1.643130E-015));
#635=DIRECTION('',(0.0,0.0,1.0));
#636=VECTOR('',#635,0.1);
#637=LINE('',#634,#636);
#638=EDGE_CURVE('',#627,#618,#637,.T.);
#639=ORIENTED_EDGE('',*,*,#638,.T.);
#640=EDGE_LOOP('',(#624,#625,#633,#639));
#641=FACE_OUTER_BOUND('',#640,.T.);
#642=ADVANCED_FACE('',(#641),#616,.T.);
#643=CARTESIAN_POINT('',(-3.699999999999999,1.200000000000001,0.100000000000002));
#644=CARTESIAN_POINT('',(-3.699999999999999,1.200000000000001,1.637579E-015));
#645=CARTESIAN_POINT('',(-3.699999999999999,-1.199999999999999,0.100000000000002));
#646=CARTESIAN_POINT('',(-3.699999999999999,-1.199999999999999,1.637579E-015));
#647=B_SPLINE_SURFACE_WITH_KNOTS('',1,1,((#643,#645),(#644,#646)),.UNSPECIFIED.,.F.,.F.,.U.,(2,2),(2,2),(0.0,0.1),(0.0,2.4),.UNSPECIFIED.);
#648=CARTESIAN_POINT('',(-3.699999999999999,1.200000000000001,0.100000000000002));
#649=DIRECTION('',(0.0,-1.0,0.0));
#650=VECTOR('',#649,2.4);
#651=LINE('',#648,#650);
#652=EDGE_CURVE('',#618,#547,#651,.T.);
#653=ORIENTED_EDGE('',*,*,#652,.F.);
#654=ORIENTED_EDGE('',*,*,#638,.F.);
#655=CARTESIAN_POINT('',(-3.699999999999999,1.200000000000001,1.643130E-015));
#656=DIRECTION('',(0.0,-1.0,0.0));
#657=VECTOR('',#656,2.4);
#658=LINE('',#655,#657);
#659=EDGE_CURVE('',#627,#557,#658,.T.);
#660=ORIENTED_EDGE('',*,*,#659,.T.);
#661=ORIENTED_EDGE('',*,*,#562,.T.);
#662=EDGE_LOOP('',(#653,#654,#660,#661));
#663=FACE_OUTER_BOUND('',#662,.T.);
#664=ADVANCED_FACE('',(#663),#647,.T.);
#665=CARTESIAN_POINT('',(-2.4,1.200000000000001,0.100000000000001));
#666=CARTESIAN_POINT('',(-3.699999999999999,1.200000000000001,0.100000000000002));
#667=CARTESIAN_POINT('',(-2.4,-1.199999999999999,0.100000000000001));
#668=CARTESIAN_POINT('',(-3.699999999999999,-1.199999999999999,0.100000000000002));
#669=B_SPLINE_SURFACE_WITH_KNOTS('',1,1,((#665,#667),(#666,#668)),.UNSPECIFIED.,.F.,.F.,.U.,(2,2),(2,2),(0.0,1.3),(0.0,2.4),.UNSPECIFIED.);
#670=ORIENTED_EDGE('',*,*,#554,.T.);
#671=ORIENTED_EDGE('',*,*,#592,.T.);
#672=ORIENTED_EDGE('',*,*,#623,.T.);
#673=ORIENTED_EDGE('',*,*,#652,.T.);
#674=EDGE_LOOP('',(#670,#671,#672,#673));
#675=FACE_OUTER_BOUND('',#674,.T.);
#676=ADVANCED_FACE('',(#675),#669,.T.);
#677=CARTESIAN_POINT('',(-2.4,1.200000000000001,1.065814E-015));
#678=CARTESIAN_POINT('',(-3.699999999999999,1.200000000000001,1.643130E-015));
#679=CARTESIAN_POINT('',(-2.4,-1.199999999999999,1.065814E-015));
#680=CARTESIAN_POINT('',(-3.699999999999999,-1.199999999999999,1.643130E-015));
#681=B_SPLINE_SURFACE_WITH_KNOTS('',1,1,((#677,#679),(#678,#680)),.UNSPECIFIED.,.F.,.F.,.U.,(2,2),(2,2),(0.0,1.3),(0.0,2.4),.UNSPECIFIED.);
#682=ORIENTED_EDGE('',*,*,#659,.F.);
#683=ORIENTED_EDGE('',*,*,#632,.F.);
#684=ORIENTED_EDGE('',*,*,#601,.F.);
#685=ORIENTED_EDGE('',*,*,#570,.F.);
#686=EDGE_LOOP('',(#682,#683,#684,#685));
#687=FACE_OUTER_BOUND('',#686,.T.);
#688=ADVANCED_FACE('',(#687),#681,.F.);
#689=CLOSED_SHELL('',(#580,#611,#642,#664,#676,#688));
#690=MANIFOLD_SOLID_BREP('4BC',#689);
#691=STYLED_ITEM('NONE',(#539),#690);
#692=CARTESIAN_POINT('',(3.699999999999999,-1.199999999999999,-3.330669E-016));
#693=DIRECTION('',(0.0,-1.0,0.0));
#694=DIRECTION('',(0.0,0.0,-1.0));
#695=AXIS2_PLACEMENT_3D('',#692,#693,#694);
#696=PLANE('',#695);
#697=CARTESIAN_POINT('',(3.8,-1.199999999999999,-3.330669E-016));
#698=VERTEX_POINT('',#697);
#699=CARTESIAN_POINT('',(3.8,-1.199999999999999,1.0));
#700=VERTEX_POINT('',#699);
#701=CARTESIAN_POINT('',(3.8,-1.199999999999999,-3.330669E-016));
#702=DIRECTION('',(0.0,0.0,1.0));
#703=VECTOR('',#702,1.0);
#704=LINE('',#701,#703);
#705=EDGE_CURVE('',#698,#700,#704,.T.);
#706=ORIENTED_EDGE('',*,*,#705,.T.);
#707=CARTESIAN_POINT('',(3.699999999999999,-1.199999999999999,1.0));
#708=VERTEX_POINT('',#707);
#709=CARTESIAN_POINT('',(3.699999999999999,-1.199999999999999,1.0));
#710=DIRECTION('',(1.0,0.0,0.0));
#711=VECTOR('',#710,0.100000000000001);
#712=LINE('',#709,#711);
#713=EDGE_CURVE('',#708,#700,#712,.T.);
#714=ORIENTED_EDGE('',*,*,#713,.F.);
#715=CARTESIAN_POINT('',(3.699999999999999,-1.199999999999999,-3.330669E-016));
#716=VERTEX_POINT('',#715);
#717=CARTESIAN_POINT('',(3.699999999999999,-1.199999999999999,1.0));
#718=DIRECTION('',(0.0,0.0,-1.0));
#719=VECTOR('',#718,1.0);
#720=LINE('',#717,#719);
#721=EDGE_CURVE('',#708,#716,#720,.T.);
#722=ORIENTED_EDGE('',*,*,#721,.T.);
#723=CARTESIAN_POINT('',(3.699999999999999,-1.199999999999999,-3.330669E-016));
#724=DIRECTION('',(1.0,0.0,0.0));
#725=VECTOR('',#724,0.100000000000001);
#726=LINE('',#723,#725);
#727=EDGE_CURVE('',#716,#698,#726,.T.);
#728=ORIENTED_EDGE('',*,*,#727,.T.);
#729=EDGE_LOOP('',(#706,#714,#722,#728));
#730=FACE_OUTER_BOUND('',#729,.T.);
#731=ADVANCED_FACE('',(#730),#696,.T.);
#732=CARTESIAN_POINT('',(3.699999999999999,-1.199999999999999,1.0));
#733=DIRECTION('',(0.0,0.0,1.0));
#734=DIRECTION('',(1.0,0.0,0.0));
#735=AXIS2_PLACEMENT_3D('',#732,#733,#734);
#736=PLANE('',#735);
#737=CARTESIAN_POINT('',(3.8,1.200000000000001,1.0));
#738=VERTEX_POINT('',#737);
#739=CARTESIAN_POINT('',(3.799999999999999,-1.199999999999999,1.0));
#740=DIRECTION('',(0.0,1.0,0.0));
#741=VECTOR('',#740,2.4);
#742=LINE('',#739,#741);
#743=EDGE_CURVE('',#700,#738,#742,.T.);
#744=ORIENTED_EDGE('',*,*,#743,.T.);
#745=CARTESIAN_POINT('',(3.699999999999999,1.200000000000001,1.0));
#746=VERTEX_POINT('',#745);
#747=CARTESIAN_POINT('',(3.699999999999999,1.200000000000001,1.0));
#748=DIRECTION('',(1.0,0.0,0.0));
#749=VECTOR('',#748,0.100000000000001);
#750=LINE('',#747,#749);
#751=EDGE_CURVE('',#746,#738,#750,.T.);
#752=ORIENTED_EDGE('',*,*,#751,.F.);
#753=CARTESIAN_POINT('',(3.699999999999999,1.200000000000001,1.0));
#754=DIRECTION('',(0.0,-1.0,0.0));
#755=VECTOR('',#754,2.4);
#756=LINE('',#753,#755);
#757=EDGE_CURVE('',#746,#708,#756,.T.);
#758=ORIENTED_EDGE('',*,*,#757,.T.);
#759=ORIENTED_EDGE('',*,*,#713,.T.);
#760=EDGE_LOOP('',(#744,#752,#758,#759));
#761=FACE_OUTER_BOUND('',#760,.T.);
#762=ADVANCED_FACE('',(#761),#736,.T.);
#763=CARTESIAN_POINT('',(3.699999999999999,1.200000000000001,1.0));
#764=DIRECTION('',(0.0,1.0,0.0));
#765=DIRECTION('',(0.0,0.0,1.0));
#766=AXIS2_PLACEMENT_3D('',#763,#764,#765);
#767=PLANE('',#766);
#768=CARTESIAN_POINT('',(3.8,1.200000000000001,-3.330669E-016));
#769=VERTEX_POINT('',#768);
#770=CARTESIAN_POINT('',(3.799999999999999,1.200000000000001,1.0));
#771=DIRECTION('',(0.0,0.0,-1.0));
#772=VECTOR('',#771,1.0);
#773=LINE('',#770,#772);
#774=EDGE_CURVE('',#738,#769,#773,.T.);
#775=ORIENTED_EDGE('',*,*,#774,.T.);
#776=CARTESIAN_POINT('',(3.699999999999999,1.200000000000001,-3.330669E-016));
#777=VERTEX_POINT('',#776);
#778=CARTESIAN_POINT('',(3.699999999999999,1.200000000000001,-3.330669E-016));
#779=DIRECTION('',(1.0,0.0,0.0));
#780=VECTOR('',#779,0.100000000000001);
#781=LINE('',#778,#780);
#782=EDGE_CURVE('',#777,#769,#781,.T.);
#783=ORIENTED_EDGE('',*,*,#782,.F.);
#784=CARTESIAN_POINT('',(3.699999999999999,1.200000000000001,-3.330669E-016));
#785=DIRECTION('',(0.0,0.0,1.0));
#786=VECTOR('',#785,1.0);
#787=LINE('',#784,#786);
#788=EDGE_CURVE('',#777,#746,#787,.T.);
#789=ORIENTED_EDGE('',*,*,#788,.T.);
#790=ORIENTED_EDGE('',*,*,#751,.T.);
#791=EDGE_LOOP('',(#775,#783,#789,#790));
#792=FACE_OUTER_BOUND('',#791,.T.);
#793=ADVANCED_FACE('',(#792),#767,.T.);
#794=CARTESIAN_POINT('',(3.699999999999999,1.200000000000001,-3.330669E-016));
#795=DIRECTION('',(0.0,0.0,-1.0));
#796=DIRECTION('',(-1.0,0.0,0.0));
#797=AXIS2_PLACEMENT_3D('',#794,#795,#796);
#798=PLANE('',#797);
#799=CARTESIAN_POINT('',(3.799999999999999,1.200000000000001,-3.330669E-016));
#800=DIRECTION('',(0.0,-1.0,0.0));
#801=VECTOR('',#800,2.4);
#802=LINE('',#799,#801);
#803=EDGE_CURVE('',#769,#698,#802,.T.);
#804=ORIENTED_EDGE('',*,*,#803,.T.);
#805=ORIENTED_EDGE('',*,*,#727,.F.);
#806=CARTESIAN_POINT('',(3.699999999999999,-1.199999999999999,-3.330669E-016));
#807=DIRECTION('',(0.0,1.0,0.0));
#808=VECTOR('',#807,2.4);
#809=LINE('',#806,#808);
#810=EDGE_CURVE('',#716,#777,#809,.T.);
#811=ORIENTED_EDGE('',*,*,#810,.T.);
#812=ORIENTED_EDGE('',*,*,#782,.T.);
#813=EDGE_LOOP('',(#804,#805,#811,#812));
#814=FACE_OUTER_BOUND('',#813,.T.);
#815=ADVANCED_FACE('',(#814),#798,.T.);
#816=CARTESIAN_POINT('',(3.8,6.938894E-016,0.5));
#817=DIRECTION('',(1.0,0.0,0.0));
#818=DIRECTION('',(0.0,0.0,-1.0));
#819=AXIS2_PLACEMENT_3D('',#816,#817,#818);
#820=PLANE('',#819);
#821=ORIENTED_EDGE('',*,*,#705,.F.);
#822=ORIENTED_EDGE('',*,*,#803,.F.);
#823=ORIENTED_EDGE('',*,*,#774,.F.);
#824=ORIENTED_EDGE('',*,*,#743,.F.);
#825=EDGE_LOOP('',(#821,#822,#823,#824));
#826=FACE_OUTER_BOUND('',#825,.T.);
#827=ADVANCED_FACE('',(#826),#820,.T.);
#828=CARTESIAN_POINT('',(3.7,6.938894E-016,0.5));
#829=DIRECTION('',(1.0,0.0,0.0));
#830=DIRECTION('',(0.0,0.0,-1.0));
#831=AXIS2_PLACEMENT_3D('',#828,#829,#830);
#832=PLANE('',#831);
#833=ORIENTED_EDGE('',*,*,#810,.F.);
#834=ORIENTED_EDGE('',*,*,#721,.F.);
#835=ORIENTED_EDGE('',*,*,#757,.F.);
#836=ORIENTED_EDGE('',*,*,#788,.F.);
#837=EDGE_LOOP('',(#833,#834,#835,#836));
#838=FACE_OUTER_BOUND('',#837,.T.);
#839=ADVANCED_FACE('',(#838),#832,.F.);
#840=CLOSED_SHELL('',(#731,#762,#793,#815,#827,#839));
#841=MANIFOLD_SOLID_BREP('4B9',#840);
#842=STYLED_ITEM('NONE',(#539),#841);
#843=CARTESIAN_POINT('',(3.699999999999999,-1.199999999999999,1.643130E-015));
#844=DIRECTION('',(0.0,-1.0,0.0));
#845=DIRECTION('',(0.0,0.0,-1.0));
#846=AXIS2_PLACEMENT_3D('',#843,#844,#845);
#847=PLANE('',#846);
#848=CARTESIAN_POINT('',(3.699999999999999,-1.199999999999999,0.100000000000002));
#849=VERTEX_POINT('',#848);
#850=CARTESIAN_POINT('',(2.4,-1.199999999999999,0.100000000000001));
#851=VERTEX_POINT('',#850);
#852=CARTESIAN_POINT('',(3.699999999999999,-1.199999999999999,0.100000000000002));
#853=DIRECTION('',(-1.0,0.0,0.0));
#854=VECTOR('',#853,1.3);
#855=LINE('',#852,#854);
#856=EDGE_CURVE('',#849,#851,#855,.T.);
#857=ORIENTED_EDGE('',*,*,#856,.T.);
#858=CARTESIAN_POINT('',(2.4,-1.199999999999999,1.065814E-015));
#859=VERTEX_POINT('',#858);
#860=CARTESIAN_POINT('',(2.4,-1.199999999999999,1.065814E-015));
#861=DIRECTION('',(0.0,0.0,1.0));
#862=VECTOR('',#861,0.1);
#863=LINE('',#860,#862);
#864=EDGE_CURVE('',#859,#851,#863,.T.);
#865=ORIENTED_EDGE('',*,*,#864,.F.);
#866=CARTESIAN_POINT('',(3.699999999999999,-1.199999999999999,1.643130E-015));
#867=VERTEX_POINT('',#866);
#868=CARTESIAN_POINT('',(3.699999999999999,-1.199999999999999,1.643130E-015));
#869=DIRECTION('',(-1.0,0.0,0.0));
#870=VECTOR('',#869,1.3);
#871=LINE('',#868,#870);
#872=EDGE_CURVE('',#867,#859,#871,.T.);
#873=ORIENTED_EDGE('',*,*,#872,.F.);
#874=CARTESIAN_POINT('',(3.699999999999999,-1.199999999999999,1.643130E-015));
#875=DIRECTION('',(0.0,0.0,1.0));
#876=VECTOR('',#875,0.1);
#877=LINE('',#874,#876);
#878=EDGE_CURVE('',#867,#849,#877,.T.);
#879=ORIENTED_EDGE('',*,*,#878,.T.);
#880=EDGE_LOOP('',(#857,#865,#873,#879));
#881=FACE_OUTER_BOUND('',#880,.T.);
#882=ADVANCED_FACE('',(#881),#847,.T.);
#883=CARTESIAN_POINT('',(2.4,-1.199999999999999,1.065814E-015));
#884=DIRECTION('',(-1.0,0.0,0.0));
#885=DIRECTION('',(0.0,0.0,1.0));
#886=AXIS2_PLACEMENT_3D('',#883,#884,#885);
#887=PLANE('',#886);
#888=CARTESIAN_POINT('',(2.4,1.200000000000001,0.100000000000001));
#889=VERTEX_POINT('',#888);
#890=CARTESIAN_POINT('',(2.4,-1.199999999999999,0.100000000000001));
#891=DIRECTION('',(0.0,1.0,0.0));
#892=VECTOR('',#891,2.4);
#893=LINE('',#890,#892);
#894=EDGE_CURVE('',#851,#889,#893,.T.);
#895=ORIENTED_EDGE('',*,*,#894,.T.);
#896=CARTESIAN_POINT('',(2.4,1.200000000000001,1.065814E-015));
#897=VERTEX_POINT('',#896);
#898=CARTESIAN_POINT('',(2.4,1.200000000000001,1.065814E-015));
#899=DIRECTION('',(0.0,0.0,1.0));
#900=VECTOR('',#899,0.1);
#901=LINE('',#898,#900);
#902=EDGE_CURVE('',#897,#889,#901,.T.);
#903=ORIENTED_EDGE('',*,*,#902,.F.);
#904=CARTESIAN_POINT('',(2.4,-1.199999999999999,1.065814E-015));
#905=DIRECTION('',(0.0,1.0,0.0));
#906=VECTOR('',#905,2.4);
#907=LINE('',#904,#906);
#908=EDGE_CURVE('',#859,#897,#907,.T.);
#909=ORIENTED_EDGE('',*,*,#908,.F.);
#910=ORIENTED_EDGE('',*,*,#864,.T.);
#911=EDGE_LOOP('',(#895,#903,#909,#910));
#912=FACE_OUTER_BOUND('',#911,.T.);
#913=ADVANCED_FACE('',(#912),#887,.T.);
#914=CARTESIAN_POINT('',(2.4,1.200000000000001,1.065814E-015));
#915=DIRECTION('',(0.0,1.0,0.0));
#916=DIRECTION('',(0.0,0.0,1.0));
#917=AXIS2_PLACEMENT_3D('',#914,#915,#916);
#918=PLANE('',#917);
#919=CARTESIAN_POINT('',(3.699999999999999,1.200000000000001,0.100000000000002));
#920=VERTEX_POINT('',#919);
#921=CARTESIAN_POINT('',(2.4,1.200000000000001,0.100000000000001));
#922=DIRECTION('',(1.0,0.0,0.0));
#923=VECTOR('',#922,1.3);
#924=LINE('',#921,#923);
#925=EDGE_CURVE('',#889,#920,#924,.T.);
#926=ORIENTED_EDGE('',*,*,#925,.T.);
#927=CARTESIAN_POINT('',(3.699999999999999,1.200000000000001,1.643130E-015));
#928=VERTEX_POINT('',#927);
#929=CARTESIAN_POINT('',(3.699999999999999,1.200000000000001,1.643130E-015));
#930=DIRECTION('',(0.0,0.0,1.0));
#931=VECTOR('',#930,0.1);
#932=LINE('',#929,#931);
#933=EDGE_CURVE('',#928,#920,#932,.T.);
#934=ORIENTED_EDGE('',*,*,#933,.F.);
#935=CARTESIAN_POINT('',(2.4,1.200000000000001,1.065814E-015));
#936=DIRECTION('',(1.0,0.0,0.0));
#937=VECTOR('',#936,1.3);
#938=LINE('',#935,#937);
#939=EDGE_CURVE('',#897,#928,#938,.T.);
#940=ORIENTED_EDGE('',*,*,#939,.F.);
#941=ORIENTED_EDGE('',*,*,#902,.T.);
#942=EDGE_LOOP('',(#926,#934,#940,#941));
#943=FACE_OUTER_BOUND('',#942,.T.);
#944=ADVANCED_FACE('',(#943),#918,.T.);
#945=CARTESIAN_POINT('',(3.699999999999999,1.200000000000001,1.643130E-015));
#946=DIRECTION('',(1.0,0.0,0.0));
#947=DIRECTION('',(0.0,0.0,-1.0));
#948=AXIS2_PLACEMENT_3D('',#945,#946,#947);
#949=PLANE('',#948);
#950=CARTESIAN_POINT('',(3.699999999999999,1.200000000000001,0.100000000000002));
#951=DIRECTION('',(0.0,-1.0,0.0));
#952=VECTOR('',#951,2.4);
#953=LINE('',#950,#952);
#954=EDGE_CURVE('',#920,#849,#953,.T.);
#955=ORIENTED_EDGE('',*,*,#954,.T.);
#956=ORIENTED_EDGE('',*,*,#878,.F.);
#957=CARTESIAN_POINT('',(3.699999999999999,1.200000000000001,1.643130E-015));
#958=DIRECTION('',(0.0,-1.0,0.0));
#959=VECTOR('',#958,2.4);
#960=LINE('',#957,#959);
#961=EDGE_CURVE('',#928,#867,#960,.T.);
#962=ORIENTED_EDGE('',*,*,#961,.F.);
#963=ORIENTED_EDGE('',*,*,#933,.T.);
#964=EDGE_LOOP('',(#955,#956,#962,#963));
#965=FACE_OUTER_BOUND('',#964,.T.);
#966=ADVANCED_FACE('',(#965),#949,.T.);
#967=CARTESIAN_POINT('',(3.049999999999999,7.216450E-016,0.100000000000001));
#968=DIRECTION('',(0.0,0.0,1.0));
#969=DIRECTION('',(1.0,0.0,0.0));
#970=AXIS2_PLACEMENT_3D('',#967,#968,#969);
#971=PLANE('',#970);
#972=ORIENTED_EDGE('',*,*,#856,.F.);
#973=ORIENTED_EDGE('',*,*,#954,.F.);
#974=ORIENTED_EDGE('',*,*,#925,.F.);
#975=ORIENTED_EDGE('',*,*,#894,.F.);
#976=EDGE_LOOP('',(#972,#973,#974,#975));
#977=FACE_OUTER_BOUND('',#976,.T.);
#978=ADVANCED_FACE('',(#977),#971,.T.);
#979=CARTESIAN_POINT('',(3.049999999999999,7.216450E-016,1.354472E-015));
#980=DIRECTION('',(0.0,0.0,1.0));
#981=DIRECTION('',(1.0,0.0,0.0));
#982=AXIS2_PLACEMENT_3D('',#979,#980,#981);
#983=PLANE('',#982);
#984=ORIENTED_EDGE('',*,*,#961,.T.);
#985=ORIENTED_EDGE('',*,*,#872,.T.);
#986=ORIENTED_EDGE('',*,*,#908,.T.);
#987=ORIENTED_EDGE('',*,*,#939,.T.);
#988=EDGE_LOOP('',(#984,#985,#986,#987));
#989=FACE_OUTER_BOUND('',#988,.T.);
#990=ADVANCED_FACE('',(#989),#983,.F.);
#991=CLOSED_SHELL('',(#882,#913,#944,#966,#978,#990));
#992=MANIFOLD_SOLID_BREP('4B8',#991);
#993=STYLED_ITEM('NONE',(#539),#992);
#994=CARTESIAN_POINT('',(-3.65,-1.15,0.55));
#995=DIRECTION('',(-0.993883734673619,0.0,-0.110431526074847));
#996=DIRECTION('',(-0.110431526074847,0.0,0.993883734673619));
#997=AXIS2_PLACEMENT_3D('',#994,#995,#996);
#998=PLANE('',#997);
#999=CARTESIAN_POINT('',(-3.6,-2.2,0.1));
#1000=VERTEX_POINT('',#999);
#1001=CARTESIAN_POINT('',(-3.7,-2.3,1.0));
#1002=VERTEX_POINT('',#1001);
#1003=CARTESIAN_POINT('',(-3.6,-2.199999999999999,0.1));
#1004=DIRECTION('',(-0.10976425998969,-0.10976425998969,0.987878339907213));
#1005=VECTOR('',#1004,0.91104335791443);
#1006=LINE('',#1003,#1005);
#1007=EDGE_CURVE('',#1000,#1002,#1006,.T.);
#1008=ORIENTED_EDGE('',*,*,#1007,.T.);
#1009=CARTESIAN_POINT('',(-3.7,2.300000000000001,1.0));
#1010=VERTEX_POINT('',#1009);
#1011=CARTESIAN_POINT('',(-3.7,-2.3,1.0));
#1012=DIRECTION('',(0.0,1.0,0.0));
#1013=VECTOR('',#1012,4.600000000000001);
#1014=LINE('',#1011,#1013);
#1015=EDGE_CURVE('',#1002,#1010,#1014,.T.);
#1016=ORIENTED_EDGE('',*,*,#1015,.T.);
#1017=CARTESIAN_POINT('',(-3.6,2.200000000000001,0.1));
#1018=VERTEX_POINT('',#1017);
#1019=CARTESIAN_POINT('',(-3.700000000000001,2.300000000000001,1.0));
#1020=DIRECTION('',(0.10976425998969,-0.10976425998969,-0.987878339907213));
#1021=VECTOR('',#1020,0.91104335791443);
#1022=LINE('',#1019,#1021);
#1023=EDGE_CURVE('',#1010,#1018,#1022,.T.);
#1024=ORIENTED_EDGE('',*,*,#1023,.T.);
#1025=CARTESIAN_POINT('',(-3.6,2.200000000000001,0.1));
#1026=DIRECTION('',(0.0,-1.0,0.0));
#1027=VECTOR('',#1026,4.4);
#1028=LINE('',#1025,#1027);
#1029=EDGE_CURVE('',#1018,#1000,#1028,.T.);
#1030=ORIENTED_EDGE('',*,*,#1029,.T.);
#1031=EDGE_LOOP('',(#1008,#1016,#1024,#1030));
#1032=FACE_OUTER_BOUND('',#1031,.T.);
#1033=ADVANCED_FACE('',(#1032),#998,.T.);
#1034=CARTESIAN_POINT('',(-5.048123E-016,4.440892E-016,0.1));
#1035=DIRECTION('',(0.0,0.0,1.0));
#1036=DIRECTION('',(1.0,0.0,0.0));
#1037=AXIS2_PLACEMENT_3D('',#1034,#1035,#1036);
#1038=PLANE('',#1037);
#1039=ORIENTED_EDGE('',*,*,#1029,.F.);
#1040=CARTESIAN_POINT('',(3.6,2.200000000000001,0.1));
#1041=VERTEX_POINT('',#1040);
#1042=CARTESIAN_POINT('',(3.6,2.200000000000001,0.1));
#1043=DIRECTION('',(-1.0,0.0,0.0));
#1044=VECTOR('',#1043,7.199999999999999);
#1045=LINE('',#1042,#1044);
#1046=EDGE_CURVE('',#1041,#1018,#1045,.T.);
#1047=ORIENTED_EDGE('',*,*,#1046,.F.);
#1048=CARTESIAN_POINT('',(3.599999999999998,-2.199999999999999,0.1));
#1049=VERTEX_POINT('',#1048);
#1050=CARTESIAN_POINT('',(3.599999999999998,-2.199999999999999,0.1));
#1051=DIRECTION('',(0.0,1.0,0.0));
#1052=VECTOR('',#1051,4.4);
#1053=LINE('',#1050,#1052);
#1054=EDGE_CURVE('',#1049,#1041,#1053,.T.);
#1055=ORIENTED_EDGE('',*,*,#1054,.F.);
#1056=CARTESIAN_POINT('',(-3.6,-2.2,0.1));
#1057=DIRECTION('',(1.0,0.0,0.0));
#1058=VECTOR('',#1057,7.199999999999998);
#1059=LINE('',#1056,#1058);
#1060=EDGE_CURVE('',#1000,#1049,#1059,.T.);
#1061=ORIENTED_EDGE('',*,*,#1060,.F.);
#1062=EDGE_LOOP('',(#1039,#1047,#1055,#1061));
#1063=FACE_OUTER_BOUND('',#1062,.T.);
#1064=ADVANCED_FACE('',(#1063),#1038,.F.);
#1065=CARTESIAN_POINT('',(-1.9,2.250000000000001,0.55));
#1066=DIRECTION('',(0.0,0.993883734673619,-0.110431526074847));
#1067=DIRECTION('',(0.0,0.110431526074847,0.993883734673619));
#1068=AXIS2_PLACEMENT_3D('',#1065,#1066,#1067);
#1069=PLANE('',#1068);
#1070=ORIENTED_EDGE('',*,*,#1023,.F.);
#1071=CARTESIAN_POINT('',(3.7,2.300000000000001,1.0));
#1072=VERTEX_POINT('',#1071);
#1073=CARTESIAN_POINT('',(-3.7,2.300000000000001,1.0));
#1074=DIRECTION('',(1.0,0.0,0.0));
#1075=VECTOR('',#1074,7.4);
#1076=LINE('',#1073,#1075);
#1077=EDGE_CURVE('',#1010,#1072,#1076,.T.);
#1078=ORIENTED_EDGE('',*,*,#1077,.T.);
#1079=CARTESIAN_POINT('',(3.7,2.300000000000001,1.0));
#1080=DIRECTION('',(-0.10976425998969,-0.10976425998969,-0.987878339907213));
#1081=VECTOR('',#1080,0.91104335791443);
#1082=LINE('',#1079,#1081);
#1083=EDGE_CURVE('',#1072,#1041,#1082,.T.);
#1084=ORIENTED_EDGE('',*,*,#1083,.T.);
#1085=ORIENTED_EDGE('',*,*,#1046,.T.);
#1086=EDGE_LOOP('',(#1070,#1078,#1084,#1085));
#1087=FACE_OUTER_BOUND('',#1086,.T.);
#1088=ADVANCED_FACE('',(#1087),#1069,.T.);
#1089=CARTESIAN_POINT('',(3.65,1.15,0.55));
#1090=DIRECTION('',(0.993883734673619,-3.838026E-016,-0.110431526074847));
#1091=DIRECTION('',(-0.110431526074847,0.0,-0.993883734673619));
#1092=AXIS2_PLACEMENT_3D('',#1089,#1090,#1091);
#1093=PLANE('',#1092);
#1094=ORIENTED_EDGE('',*,*,#1083,.F.);
#1095=CARTESIAN_POINT('',(3.699999999999998,-2.299999999999999,1.0));
#1096=VERTEX_POINT('',#1095);
#1097=CARTESIAN_POINT('',(3.7,2.3,1.0));
#1098=DIRECTION('',(0.0,-1.0,0.0));
#1099=VECTOR('',#1098,4.6);
#1100=LINE('',#1097,#1099);
#1101=EDGE_CURVE('',#1072,#1096,#1100,.T.);
#1102=ORIENTED_EDGE('',*,*,#1101,.T.);
#1103=CARTESIAN_POINT('',(3.699999999999998,-2.3,1.0));
#1104=DIRECTION('',(-0.10976425998969,0.10976425998969,-0.987878339907213));
#1105=VECTOR('',#1104,0.91104335791443);
#1106=LINE('',#1103,#1105);
#1107=EDGE_CURVE('',#1096,#1049,#1106,.T.);
#1108=ORIENTED_EDGE('',*,*,#1107,.T.);
#1109=ORIENTED_EDGE('',*,*,#1054,.T.);
#1110=EDGE_LOOP('',(#1094,#1102,#1108,#1109));
#1111=FACE_OUTER_BOUND('',#1110,.T.);
#1112=ADVANCED_FACE('',(#1111),#1093,.T.);
#1113=CARTESIAN_POINT('',(1.899999999999999,-2.249999999999999,0.55));
#1114=DIRECTION('',(5.807540E-017,-0.993883734673619,-0.110431526074847));
#1115=DIRECTION('',(0.0,0.110431526074847,-0.993883734673619));
#1116=AXIS2_PLACEMENT_3D('',#1113,#1114,#1115);
#1117=PLANE('',#1116);
#1118=ORIENTED_EDGE('',*,*,#1007,.F.);
#1119=ORIENTED_EDGE('',*,*,#1060,.T.);
#1120=ORIENTED_EDGE('',*,*,#1107,.F.);
#1121=CARTESIAN_POINT('',(3.699999999999998,-2.299999999999999,1.0));
#1122=DIRECTION('',(-1.0,0.0,0.0));
#1123=VECTOR('',#1122,7.399999999999999);
#1124=LINE('',#1121,#1123);
#1125=EDGE_CURVE('',#1096,#1002,#1124,.T.);
#1126=ORIENTED_EDGE('',*,*,#1125,.T.);
#1127=EDGE_LOOP('',(#1118,#1119,#1120,#1126));
#1128=FACE_OUTER_BOUND('',#1127,.T.);
#1129=ADVANCED_FACE('',(#1128),#1117,.T.);
#1130=CARTESIAN_POINT('',(-5.048123E-016,4.440892E-016,1.0));
#1131=DIRECTION('',(0.0,0.0,1.0));
#1132=DIRECTION('',(1.0,0.0,0.0));
#1133=AXIS2_PLACEMENT_3D('',#1130,#1131,#1132);
#1134=PLANE('',#1133);
#1135=ORIENTED_EDGE('',*,*,#1077,.F.);
#1136=ORIENTED_EDGE('',*,*,#1015,.F.);
#1137=ORIENTED_EDGE('',*,*,#1125,.F.);
#1138=ORIENTED_EDGE('',*,*,#1101,.F.);
#1139=EDGE_LOOP('',(#1135,#1136,#1137,#1138));
#1140=FACE_OUTER_BOUND('',#1139,.T.);
#1141=ADVANCED_FACE('',(#1140),#1134,.T.);
#1142=CLOSED_SHELL('',(#1033,#1064,#1088,#1112,#1129,#1141));
#1143=MANIFOLD_SOLID_BREP('4A8',#1142);
#1144=STYLED_ITEM('NONE',(#381),#1143);
#1145=CARTESIAN_POINT('',(-5.048123E-016,6.883383E-016,3.1));
#1146=DIRECTION('',(0.0,0.0,1.0));
#1147=DIRECTION('',(1.0,0.0,0.0));
#1148=AXIS2_PLACEMENT_3D('',#1145,#1146,#1147);
#1149=PLANE('',#1148);
#1150=CARTESIAN_POINT('',(-3.600000000000001,-2.099999999999999,3.1));
#1151=VERTEX_POINT('',#1150);
#1152=CARTESIAN_POINT('',(-3.600000000000001,2.100000000000002,3.100000000000001));
#1153=VERTEX_POINT('',#1152);
#1154=CARTESIAN_POINT('',(-3.600000000000001,-2.099999999999999,3.1));
#1155=DIRECTION('',(0.0,1.0,0.0));
#1156=VECTOR('',#1155,4.200000000000001);
#1157=LINE('',#1154,#1156);
#1158=EDGE_CURVE('',#1151,#1153,#1157,.T.);
#1159=ORIENTED_EDGE('',*,*,#1158,.F.);
#1160=CARTESIAN_POINT('',(-2.4,-2.099999999999999,3.1));
#1161=VERTEX_POINT('',#1160);
#1162=CARTESIAN_POINT('',(-2.4,-2.099999999999999,3.1));
#1163=DIRECTION('',(-1.0,0.0,0.0));
#1164=VECTOR('',#1163,1.200000000000001);
#1165=LINE('',#1162,#1164);
#1166=EDGE_CURVE('',#1161,#1151,#1165,.T.);
#1167=ORIENTED_EDGE('',*,*,#1166,.F.);
#1168=CARTESIAN_POINT('',(-2.400000000000001,2.100000000000001,3.1));
#1169=VERTEX_POINT('',#1168);
#1170=CARTESIAN_POINT('',(-2.4,-2.099999999999999,3.1));
#1171=DIRECTION('',(0.0,1.0,0.0));
#1172=VECTOR('',#1171,4.199999999999999);
#1173=LINE('',#1170,#1172);
#1174=EDGE_CURVE('',#1161,#1169,#1173,.T.);
#1175=ORIENTED_EDGE('',*,*,#1174,.T.);
#1176=CARTESIAN_POINT('',(-3.600000000000001,2.100000000000001,3.1));
#1177=DIRECTION('',(1.0,0.0,0.0));
#1178=VECTOR('',#1177,1.2);
#1179=LINE('',#1176,#1178);
#1180=EDGE_CURVE('',#1153,#1169,#1179,.T.);
#1181=ORIENTED_EDGE('',*,*,#1180,.F.);
#1182=EDGE_LOOP('',(#1159,#1167,#1175,#1181));
#1183=FACE_OUTER_BOUND('',#1182,.T.);
#1184=ADVANCED_FACE('',(#1183),#1149,.T.);
#1185=CARTESIAN_POINT('',(-1.800000000000001,-2.099999999999999,3.1));
#1186=DIRECTION('',(1.0,0.0,0.0));
#1187=DIRECTION('',(0.0,0.0,-1.0));
#1188=AXIS2_PLACEMENT_3D('',#1185,#1186,#1187);
#1189=PLANE('',#1188);
#1190=CARTESIAN_POINT('',(-1.800000000000001,-2.099999999999999,3.05));
#1191=VERTEX_POINT('',#1190);
#1192=CARTESIAN_POINT('',(-1.800000000000001,2.100000000000001,3.05));
#1193=VERTEX_POINT('',#1192);
#1194=CARTESIAN_POINT('',(-1.800000000000001,-2.099999999999999,3.05));
#1195=DIRECTION('',(0.0,1.0,0.0));
#1196=VECTOR('',#1195,4.199999999999999);
#1197=LINE('',#1194,#1196);
#1198=EDGE_CURVE('',#1191,#1193,#1197,.T.);
#1199=ORIENTED_EDGE('',*,*,#1198,.F.);
#1200=CARTESIAN_POINT('',(-1.800000000000001,-2.099999999999999,3.1));
#1201=VERTEX_POINT('',#1200);
#1202=CARTESIAN_POINT('',(-1.800000000000001,-2.099999999999999,3.1));
#1203=DIRECTION('',(0.0,0.0,-1.0));
#1204=VECTOR('',#1203,0.049999999999999);
#1205=LINE('',#1202,#1204);
#1206=EDGE_CURVE('',#1201,#1191,#1205,.T.);
#1207=ORIENTED_EDGE('',*,*,#1206,.F.);
#1208=CARTESIAN_POINT('',(-1.800000000000001,2.100000000000001,3.1));
#1209=VERTEX_POINT('',#1208);
#1210=CARTESIAN_POINT('',(-1.800000000000001,2.100000000000001,3.1));
#1211=DIRECTION('',(0.0,-1.0,0.0));
#1212=VECTOR('',#1211,4.199999999999999);
#1213=LINE('',#1210,#1212);
#1214=EDGE_CURVE('',#1209,#1201,#1213,.T.);
#1215=ORIENTED_EDGE('',*,*,#1214,.F.);
#1216=CARTESIAN_POINT('',(-1.800000000000001,2.100000000000001,3.1));
#1217=DIRECTION('',(0.0,0.0,-1.0));
#1218=VECTOR('',#1217,0.049999999999999);
#1219=LINE('',#1216,#1218);
#1220=EDGE_CURVE('',#1209,#1193,#1219,.T.);
#1221=ORIENTED_EDGE('',*,*,#1220,.T.);
#1222=EDGE_LOOP('',(#1199,#1207,#1215,#1221));
#1223=FACE_OUTER_BOUND('',#1222,.T.);
#1224=ADVANCED_FACE('',(#1223),#1189,.F.);
#1225=CARTESIAN_POINT('',(-1.800000000000001,2.100000000000001,3.1));
#1226=DIRECTION('',(0.0,1.0,0.0));
#1227=DIRECTION('',(0.0,0.0,1.0));
#1228=AXIS2_PLACEMENT_3D('',#1225,#1226,#1227);
#1229=PLANE('',#1228);
#1230=CARTESIAN_POINT('',(-2.400000000000001,2.100000000000001,3.05));
#1231=VERTEX_POINT('',#1230);
#1232=CARTESIAN_POINT('',(-1.800000000000001,2.100000000000001,3.05));
#1233=DIRECTION('',(-1.0,0.0,0.0));
#1234=VECTOR('',#1233,0.6);
#1235=LINE('',#1232,#1234);
#1236=EDGE_CURVE('',#1193,#1231,#1235,.T.);
#1237=ORIENTED_EDGE('',*,*,#1236,.F.);
#1238=ORIENTED_EDGE('',*,*,#1220,.F.);
#1239=CARTESIAN_POINT('',(-2.400000000000001,2.100000000000001,3.1));
#1240=DIRECTION('',(1.0,0.0,0.0));
#1241=VECTOR('',#1240,0.6);
#1242=LINE('',#1239,#1241);
#1243=EDGE_CURVE('',#1169,#1209,#1242,.T.);
#1244=ORIENTED_EDGE('',*,*,#1243,.F.);
#1245=CARTESIAN_POINT('',(-2.400000000000001,2.100000000000001,3.1));
#1246=DIRECTION('',(0.0,0.0,-1.0));
#1247=VECTOR('',#1246,0.049999999999999);
#1248=LINE('',#1245,#1247);
#1249=EDGE_CURVE('',#1169,#1231,#1248,.T.);
#1250=ORIENTED_EDGE('',*,*,#1249,.T.);
#1251=EDGE_LOOP('',(#1237,#1238,#1244,#1250));
#1252=FACE_OUTER_BOUND('',#1251,.T.);
#1253=ADVANCED_FACE('',(#1252),#1229,.F.);
#1254=CARTESIAN_POINT('',(-2.400000000000001,2.100000000000001,3.1));
#1255=DIRECTION('',(-1.0,0.0,0.0));
#1256=DIRECTION('',(0.0,0.0,1.0));
#1257=AXIS2_PLACEMENT_3D('',#1254,#1255,#1256);
#1258=PLANE('',#1257);
#1259=CARTESIAN_POINT('',(-2.4,-2.099999999999999,3.05));
#1260=VERTEX_POINT('',#1259);
#1261=CARTESIAN_POINT('',(-2.400000000000001,2.100000000000001,3.05));
#1262=DIRECTION('',(0.0,-1.0,0.0));
#1263=VECTOR('',#1262,4.199999999999999);
#1264=LINE('',#1261,#1263);
#1265=EDGE_CURVE('',#1231,#1260,#1264,.T.);
#1266=ORIENTED_EDGE('',*,*,#1265,.F.);
#1267=ORIENTED_EDGE('',*,*,#1249,.F.);
#1268=ORIENTED_EDGE('',*,*,#1174,.F.);
#1269=CARTESIAN_POINT('',(-2.4,-2.099999999999999,3.1));
#1270=DIRECTION('',(0.0,0.0,-1.0));
#1271=VECTOR('',#1270,0.049999999999999);
#1272=LINE('',#1269,#1271);
#1273=EDGE_CURVE('',#1161,#1260,#1272,.T.);
#1274=ORIENTED_EDGE('',*,*,#1273,.T.);
#1275=EDGE_LOOP('',(#1266,#1267,#1268,#1274));
#1276=FACE_OUTER_BOUND('',#1275,.T.);
#1277=ADVANCED_FACE('',(#1276),#1258,.F.);
#1278=CARTESIAN_POINT('',(-2.4,-2.099999999999999,3.1));
#1279=DIRECTION('',(0.0,-1.0,0.0));
#1280=DIRECTION('',(0.0,0.0,-1.0));
#1281=AXIS2_PLACEMENT_3D('',#1278,#1279,#1280);
#1282=PLANE('',#1281);
#1283=CARTESIAN_POINT('',(-2.4,-2.099999999999999,3.05));
#1284=DIRECTION('',(1.0,0.0,0.0));
#1285=VECTOR('',#1284,0.6);
#1286=LINE('',#1283,#1285);
#1287=EDGE_CURVE('',#1260,#1191,#1286,.T.);
#1288=ORIENTED_EDGE('',*,*,#1287,.F.);
#1289=ORIENTED_EDGE('',*,*,#1273,.F.);
#1290=CARTESIAN_POINT('',(-1.8,-2.099999999999998,3.1));
#1291=DIRECTION('',(-1.0,0.0,0.0));
#1292=VECTOR('',#1291,0.6);
#1293=LINE('',#1290,#1292);
#1294=EDGE_CURVE('',#1201,#1161,#1293,.T.);
#1295=ORIENTED_EDGE('',*,*,#1294,.F.);
#1296=ORIENTED_EDGE('',*,*,#1206,.T.);
#1297=EDGE_LOOP('',(#1288,#1289,#1295,#1296));
#1298=FACE_OUTER_BOUND('',#1297,.T.);
#1299=ADVANCED_FACE('',(#1298),#1282,.F.);
#1300=CARTESIAN_POINT('',(-2.100000000000001,1.264140E-015,3.05));
#1301=DIRECTION('',(0.0,0.0,1.0));
#1302=DIRECTION('',(1.0,0.0,0.0));
#1303=AXIS2_PLACEMENT_3D('',#1300,#1301,#1302);
#1304=PLANE('',#1303);
#1305=ORIENTED_EDGE('',*,*,#1198,.T.);
#1306=ORIENTED_EDGE('',*,*,#1236,.T.);
#1307=ORIENTED_EDGE('',*,*,#1265,.T.);
#1308=ORIENTED_EDGE('',*,*,#1287,.T.);
#1309=EDGE_LOOP('',(#1305,#1306,#1307,#1308));
#1310=FACE_OUTER_BOUND('',#1309,.T.);
#1311=ADVANCED_FACE('',(#1310),#1304,.T.);
#1312=CARTESIAN_POINT('',(-5.048123E-016,6.883383E-016,3.1));
#1313=DIRECTION('',(0.0,0.0,1.0));
#1314=DIRECTION('',(1.0,0.0,0.0));
#1315=AXIS2_PLACEMENT_3D('',#1312,#1313,#1314);
#1316=PLANE('',#1315);
#1317=ORIENTED_EDGE('',*,*,#1214,.T.);
#1318=CARTESIAN_POINT('',(3.599999999999998,-2.099999999999998,3.1));
#1319=VERTEX_POINT('',#1318);
#1320=CARTESIAN_POINT('',(3.599999999999998,-2.099999999999998,3.1));
#1321=DIRECTION('',(-1.0,0.0,0.0));
#1322=VECTOR('',#1321,5.399999999999999);
#1323=LINE('',#1320,#1322);
#1324=EDGE_CURVE('',#1319,#1201,#1323,.T.);
#1325=ORIENTED_EDGE('',*,*,#1324,.F.);
#1326=CARTESIAN_POINT('',(3.6,2.100000000000001,3.1));
#1327=VERTEX_POINT('',#1326);
#1328=CARTESIAN_POINT('',(3.6,2.100000000000001,3.1));
#1329=DIRECTION('',(0.0,-1.0,0.0));
#1330=VECTOR('',#1329,4.199999999999999);
#1331=LINE('',#1328,#1330);
#1332=EDGE_CURVE('',#1327,#1319,#1331,.T.);
#1333=ORIENTED_EDGE('',*,*,#1332,.F.);
#1334=CARTESIAN_POINT('',(-1.800000000000001,2.100000000000001,3.1));
#1335=DIRECTION('',(1.0,0.0,0.0));
#1336=VECTOR('',#1335,5.4);
#1337=LINE('',#1334,#1336);
#1338=EDGE_CURVE('',#1209,#1327,#1337,.T.);
#1339=ORIENTED_EDGE('',*,*,#1338,.F.);
#1340=EDGE_LOOP('',(#1317,#1325,#1333,#1339));
#1341=FACE_OUTER_BOUND('',#1340,.T.);
#1342=ADVANCED_FACE('',(#1341),#1316,.T.);
#1343=CARTESIAN_POINT('',(-1.9,2.200000000000001,2.05));
#1344=DIRECTION('',(9.663144E-035,0.995495472593952,0.094809092627995));
#1345=DIRECTION('',(0.0,-0.094809092627995,0.995495472593952));
#1346=AXIS2_PLACEMENT_3D('',#1343,#1344,#1345);
#1347=PLANE('',#1346);
#1348=CARTESIAN_POINT('',(-3.8,2.300000000000001,1.0));
#1349=VERTEX_POINT('',#1348);
#1350=CARTESIAN_POINT('',(-3.800000000000001,2.300000000000002,1.0));
#1351=DIRECTION('',(0.094385835636602,-0.094385835636602,0.991051274184318));
#1352=VECTOR('',#1351,2.11896201004171);
#1353=LINE('',#1350,#1352);
#1354=EDGE_CURVE('',#1349,#1153,#1353,.T.);
#1355=ORIENTED_EDGE('',*,*,#1354,.T.);
#1356=ORIENTED_EDGE('',*,*,#1180,.T.);
#1357=ORIENTED_EDGE('',*,*,#1243,.T.);
#1358=ORIENTED_EDGE('',*,*,#1338,.T.);
#1359=CARTESIAN_POINT('',(3.8,2.300000000000001,1.0));
#1360=VERTEX_POINT('',#1359);
#1361=CARTESIAN_POINT('',(3.800000000000001,2.300000000000001,1.0));
#1362=DIRECTION('',(-0.094385835636602,-0.094385835636602,0.991051274184318));
#1363=VECTOR('',#1362,2.118962010041709);
#1364=LINE('',#1361,#1363);
#1365=EDGE_CURVE('',#1360,#1327,#1364,.T.);
#1366=ORIENTED_EDGE('',*,*,#1365,.F.);
#1367=CARTESIAN_POINT('',(3.8,2.300000000000001,1.0));
#1368=DIRECTION('',(-1.0,0.0,0.0));
#1369=VECTOR('',#1368,7.600000000000001);
#1370=LINE('',#1367,#1369);
#1371=EDGE_CURVE('',#1360,#1349,#1370,.T.);
#1372=ORIENTED_EDGE('',*,*,#1371,.T.);
#1373=EDGE_LOOP('',(#1355,#1356,#1357,#1358,#1366,#1372));
#1374=FACE_OUTER_BOUND('',#1373,.T.);
#1375=ADVANCED_FACE('',(#1374),#1347,.T.);
#1376=CARTESIAN_POINT('',(3.7,1.15,2.05));
#1377=DIRECTION('',(0.995495472593952,-3.844250E-016,0.094809092627996));
#1378=DIRECTION('',(0.094809092627996,0.0,-0.995495472593952));
#1379=AXIS2_PLACEMENT_3D('',#1376,#1377,#1378);
#1380=PLANE('',#1379);
#1381=CARTESIAN_POINT('',(3.799999999999999,-2.299999999999999,1.0));
#1382=VERTEX_POINT('',#1381);
#1383=CARTESIAN_POINT('',(3.599999999999999,-2.099999999999998,3.1));
#1384=DIRECTION('',(0.094385835636602,-0.094385835636602,-0.991051274184318));
#1385=VECTOR('',#1384,2.118962010041709);
#1386=LINE('',#1383,#1385);
#1387=EDGE_CURVE('',#1319,#1382,#1386,.T.);
#1388=ORIENTED_EDGE('',*,*,#1387,.T.);
#1389=CARTESIAN_POINT('',(3.799999999999999,-2.299999999999999,1.0));
#1390=DIRECTION('',(0.0,1.0,0.0));
#1391=VECTOR('',#1390,4.6);
#1392=LINE('',#1389,#1391);
#1393=EDGE_CURVE('',#1382,#1360,#1392,.T.);
#1394=ORIENTED_EDGE('',*,*,#1393,.T.);
#1395=ORIENTED_EDGE('',*,*,#1365,.T.);
#1396=ORIENTED_EDGE('',*,*,#1332,.T.);
#1397=EDGE_LOOP('',(#1388,#1394,#1395,#1396));
#1398=FACE_OUTER_BOUND('',#1397,.T.);
#1399=ADVANCED_FACE('',(#1398),#1380,.T.);
#1400=CARTESIAN_POINT('',(-3.7,-1.15,2.05));
#1401=DIRECTION('',(-0.995495472593952,9.232047E-034,0.094809092627996));
#1402=DIRECTION('',(0.094809092627996,0.0,0.995495472593952));
#1403=AXIS2_PLACEMENT_3D('',#1400,#1401,#1402);
#1404=PLANE('',#1403);
#1405=ORIENTED_EDGE('',*,*,#1158,.T.);
#1406=ORIENTED_EDGE('',*,*,#1354,.F.);
#1407=CARTESIAN_POINT('',(-3.8,-2.3,1.0));
#1408=VERTEX_POINT('',#1407);
#1409=CARTESIAN_POINT('',(-3.8,2.300000000000001,1.0));
#1410=DIRECTION('',(0.0,-1.0,0.0));
#1411=VECTOR('',#1410,4.600000000000001);
#1412=LINE('',#1409,#1411);
#1413=EDGE_CURVE('',#1349,#1408,#1412,.T.);
#1414=ORIENTED_EDGE('',*,*,#1413,.T.);
#1415=CARTESIAN_POINT('',(-3.800000000000002,-2.3,1.0));
#1416=DIRECTION('',(0.094385835636602,0.094385835636602,0.991051274184318));
#1417=VECTOR('',#1416,2.118962010041709);
#1418=LINE('',#1415,#1417);
#1419=EDGE_CURVE('',#1408,#1151,#1418,.T.);
#1420=ORIENTED_EDGE('',*,*,#1419,.T.);
#1421=EDGE_LOOP('',(#1405,#1406,#1414,#1420));
#1422=FACE_OUTER_BOUND('',#1421,.T.);
#1423=ADVANCED_FACE('',(#1422),#1404,.T.);
#1424=CARTESIAN_POINT('',(1.899999999999999,-2.199999999999999,2.05));
#1425=DIRECTION('',(5.816958E-017,-0.995495472593952,0.094809092627996));
#1426=DIRECTION('',(0.0,-0.094809092627996,-0.995495472593952));
#1427=AXIS2_PLACEMENT_3D('',#1424,#1425,#1426);
#1428=PLANE('',#1427);
#1429=ORIENTED_EDGE('',*,*,#1166,.T.);
#1430=ORIENTED_EDGE('',*,*,#1419,.F.);
#1431=CARTESIAN_POINT('',(-3.8,-2.3,1.0));
#1432=DIRECTION('',(1.0,0.0,0.0));
#1433=VECTOR('',#1432,7.599999999999999);
#1434=LINE('',#1431,#1433);
#1435=EDGE_CURVE('',#1408,#1382,#1434,.T.);
#1436=ORIENTED_EDGE('',*,*,#1435,.T.);
#1437=ORIENTED_EDGE('',*,*,#1387,.F.);
#1438=ORIENTED_EDGE('',*,*,#1324,.T.);
#1439=ORIENTED_EDGE('',*,*,#1294,.T.);
#1440=EDGE_LOOP('',(#1429,#1430,#1436,#1437,#1438,#1439));
#1441=FACE_OUTER_BOUND('',#1440,.T.);
#1442=ADVANCED_FACE('',(#1441),#1428,.T.);
#1443=CARTESIAN_POINT('',(-5.048123E-016,4.440892E-016,1.0));
#1444=DIRECTION('',(0.0,0.0,1.0));
#1445=DIRECTION('',(1.0,0.0,0.0));
#1446=AXIS2_PLACEMENT_3D('',#1443,#1444,#1445);
#1447=PLANE('',#1446);
#1448=ORIENTED_EDGE('',*,*,#1413,.F.);
#1449=ORIENTED_EDGE('',*,*,#1371,.F.);
#1450=ORIENTED_EDGE('',*,*,#1393,.F.);
#1451=ORIENTED_EDGE('',*,*,#1435,.F.);
#1452=EDGE_LOOP('',(#1448,#1449,#1450,#1451));
#1453=FACE_OUTER_BOUND('',#1452,.T.);
#1454=ADVANCED_FACE('',(#1453),#1447,.F.);
#1455=CLOSED_SHELL('',(#1184,#1224,#1253,#1277,#1299,#1311,#1342,#1375,#1399,#1423,#1442,#1454));
#1456=MANIFOLD_SOLID_BREP('4A7',#1455);
#1457=STYLED_ITEM('NONE',(#381),#1456);
#1458=ADVANCED_BREP_SHAPE_REPRESENTATION('ABSR1',(#214,#374,#532,#690,#841,#992,#1143,#1456),#28);
#1459=SHAPE_REPRESENTATION_RELATIONSHIP('SRRPL1','',#1458,#62);
ENDSEC;
END-ISO-10303-21;
