ISO-10303-21;
HEADER;
/****************************************************************
 * Generated by software with PDE/Lib inside                    *
 * PDE/Lib Version 3.2.2, created Thu Mar 23, 2000 at 18:38:49  *
 * International Technegroup Inc. (www.iti-oh.com)              *
 ****************************************************************/
FILE_DESCRIPTION((''),'2;1');
FILE_NAME('CAPPRB254-600X990.stp','2009-12-16T14:30:50',(''),(''),'Mechanical Desktop 2006','Mechanical Desktop 2006',', , ');
FILE_SCHEMA(('AUTOMOTIVE_DESIGN { 1 2 10303 214 0 1 1 1 }'));
ENDSEC;
DATA;
#8=(NAMED_UNIT(*)PLANE_ANGLE_UNIT()SI_UNIT($,.RADIAN.));
#9=DIMENSIONAL_EXPONENTS(0.0,0.0,0.0,0.0,0.0,0.0,0.0);
#10=PLANE_ANGLE_MEASURE_WITH_UNIT(PLANE_ANGLE_MEASURE(0.017453292500000),#8);
#14=(CONVERSION_BASED_UNIT('DEGREE',#10)NAMED_UNIT(#9)PLANE_ANGLE_UNIT());
#18=(NAMED_UNIT(*)SI_UNIT($,.STERADIAN.)SOLID_ANGLE_UNIT());
#22=(LENGTH_UNIT()NAMED_UNIT(*)SI_UNIT(.MILLI.,.METRE.));
#23=UNCERTAINTY_MEASURE_WITH_UNIT(LENGTH_MEASURE(0.000001000000000),#22,'DISTANCE_ACCURACY_VALUE','');
#28=(GEOMETRIC_REPRESENTATION_CONTEXT(3)GLOBAL_UNCERTAINTY_ASSIGNED_CONTEXT((#23))GLOBAL_UNIT_ASSIGNED_CONTEXT((#14,#18,#22))REPRESENTATION_CONTEXT('None','None'));
#29=APPLICATION_CONTEXT('automotive design');
#30=APPLICATION_PROTOCOL_DEFINITION('DRAFT_INTERNATIONAL_STANDARD','automotive_design',1998,#29);
#31=PRODUCT_CONTEXT('3D Mechanical Parts',#29,'mechanical');
#32=PRODUCT('Product','Product','',(#31));
#33=PRODUCT_RELATED_PRODUCT_CATEGORY('part',$,(#32));
#34=PRODUCT_CATEGORY('part',$);
#35=PERSON('1','Design','Joe',$,$,$);
#36=ORGANIZATION($,'None','None');
#37=PERSON_AND_ORGANIZATION(#35,#36);
#38=PERSON_AND_ORGANIZATION_ROLE('design_owner');
#39=APPLIED_PERSON_AND_ORGANIZATION_ASSIGNMENT(#37,#38,(#32));
#40=PRODUCT_DEFINITION_FORMATION_WITH_SPECIFIED_SOURCE('None','',#32,.BOUGHT.);
#41=PERSON('2','Creator','Joe',$,$,$);
#42=ORGANIZATION($,'None','None');
#43=PERSON_AND_ORGANIZATION(#41,#42);
#44=PERSON_AND_ORGANIZATION_ROLE('creator');
#45=APPLIED_PERSON_AND_ORGANIZATION_ASSIGNMENT(#43,#44,(#40));
#46=PERSON('3','Supplier','Joe',$,$,$);
#47=ORGANIZATION($,'None','None');
#48=PERSON_AND_ORGANIZATION(#46,#47);
#49=PERSON_AND_ORGANIZATION_ROLE('design_supplier');
#50=APPLIED_PERSON_AND_ORGANIZATION_ASSIGNMENT(#48,#49,(#40));
#51=PRODUCT_DEFINITION_CONTEXT('part definition',#29,'design');
#52=PRODUCT_DEFINITION('None','',#40,#51);
#53=PERSON('4','Creator','Joe',$,$,$);
#54=ORGANIZATION($,'None','None');
#55=PERSON_AND_ORGANIZATION(#53,#54);
#56=PERSON_AND_ORGANIZATION_ROLE('creator');
#57=APPLIED_PERSON_AND_ORGANIZATION_ASSIGNMENT(#55,#56,(#52));
#58=CARTESIAN_POINT('NONE',(0.0,0.0,0.0));
#59=DIRECTION('NONE',(0.0,0.0,1.0));
#60=DIRECTION('NONE',(1.0,0.0,0.0));
#61=AXIS2_PLACEMENT_3D('NONE',#58,#59,#60);
#62=SHAPE_REPRESENTATION('SR1',(#61),#28);
#63=PRODUCT_DEFINITION_SHAPE('PDS1','Test Part',#52);
#64=SHAPE_DEFINITION_REPRESENTATION(#63,#62);
#65=CARTESIAN_POINT('',(1.520000000000000,-3.068926E-016,6.661338E-016));
#66=CARTESIAN_POINT('',(1.519999999999998,-1.069858E-014,-3.600000000000001));
#67=CARTESIAN_POINT('',(1.520000000000000,0.250000000000000,-5.551115E-017));
#68=CARTESIAN_POINT('',(1.519999999999998,0.249999999999989,-3.600000000000002));
#69=CARTESIAN_POINT('',(1.270000000000000,0.250000000000000,1.665335E-016));
#70=CARTESIAN_POINT('',(1.269999999999998,0.249999999999989,-3.600000000000002));
#71=CARTESIAN_POINT('',(1.020000000000000,0.250000000000000,3.885781E-016));
#72=CARTESIAN_POINT('',(1.019999999999998,0.249999999999989,-3.600000000000002));
#73=CARTESIAN_POINT('',(1.020000000000000,-2.571007E-016,1.110223E-015));
#74=CARTESIAN_POINT('',(1.019999999999998,-1.064879E-014,-3.600000000000001));
#75=CARTESIAN_POINT('',(1.020000000000000,-0.250000000000000,1.831868E-015));
#76=CARTESIAN_POINT('',(1.019999999999998,-0.250000000000011,-3.600000000000001));
#77=CARTESIAN_POINT('',(1.270000000000000,-0.250000000000000,1.609823E-015));
#78=CARTESIAN_POINT('',(1.269999999999998,-0.250000000000011,-3.600000000000001));
#79=CARTESIAN_POINT('',(1.520000000000000,-0.250000000000000,1.387779E-015));
#80=CARTESIAN_POINT('',(1.519999999999998,-0.250000000000011,-3.600000000000001));
#81=CARTESIAN_POINT('',(1.520000000000000,-3.068926E-016,6.661338E-016));
#82=CARTESIAN_POINT('',(1.519999999999998,-1.069858E-014,-3.600000000000001));
#90=(BOUNDED_SURFACE()B_SPLINE_SURFACE(1,2,((#65,#67,#69,#71,#73,#75,#77,#79,#81),(#66,#68,#70,#72,#74,#76,#78,#80,#82)),.UNSPECIFIED.,.F.,.T.,.U.)B_SPLINE_SURFACE_WITH_KNOTS((2,2),(3,2,2,2,3),(-7.200000000000004,7.200000000000006),(0.0,0.392699081698724,0.785398163397448,1.178097245096172,1.570796326794897),.UNSPECIFIED.)GEOMETRIC_REPRESENTATION_ITEM()RATIONAL_B_SPLINE_SURFACE(((1.0,0.707106781186548,1.0,0.707106781186548,1.0,0.707106781186548,1.0,0.707106781186548,1.0),(1.0,0.707106781186548,1.0,0.707106781186548,1.0,0.707106781186548,1.0,0.707106781186548,1.0)))REPRESENTATION_ITEM('')SURFACE());
#91=CARTESIAN_POINT('',(1.020000000000000,-2.264855E-016,2.220446E-016));
#92=VERTEX_POINT('',#91);
#93=CARTESIAN_POINT('',(1.019999999999998,-1.061817E-014,-3.600000000000000));
#94=VERTEX_POINT('',#93);
#95=CARTESIAN_POINT('',(1.020000000000000,-2.264855E-016,2.220446E-016));
#96=DIRECTION('',(0.0,0.0,-1.0));
#97=VECTOR('',#96,3.600000000000000);
#98=LINE('',#95,#97);
#99=EDGE_CURVE('',#92,#94,#98,.T.);
#100=ORIENTED_EDGE('',*,*,#99,.F.);
#101=CARTESIAN_POINT('',(1.520000000000000,-3.681230E-016,-1.110223E-016));
#102=VERTEX_POINT('',#101);
#103=CARTESIAN_POINT('',(1.270000000000000,-2.819966E-016,0.0));
#104=DIRECTION('',(0.0,0.0,-1.0));
#105=DIRECTION('',(-1.0,0.0,0.0));
#106=AXIS2_PLACEMENT_3D('',#103,#104,#105);
#107=CIRCLE('',#106,0.250000000000000);
#108=EDGE_CURVE('',#92,#102,#107,.T.);
#109=ORIENTED_EDGE('',*,*,#108,.T.);
#110=CARTESIAN_POINT('',(1.519999999999998,-1.075981E-014,-3.600000000000000));
#111=VERTEX_POINT('',#110);
#112=CARTESIAN_POINT('',(1.519999999999998,-1.075981E-014,-3.600000000000000));
#113=DIRECTION('',(0.0,0.0,1.0));
#114=VECTOR('',#113,3.600000000000000);
#115=LINE('',#112,#114);
#116=EDGE_CURVE('',#111,#102,#115,.T.);
#117=ORIENTED_EDGE('',*,*,#116,.F.);
#118=CARTESIAN_POINT('',(1.269999999999998,-1.067368E-014,-3.600000000000000));
#119=DIRECTION('',(0.0,0.0,1.0));
#120=DIRECTION('',(-1.0,0.0,0.0));
#121=AXIS2_PLACEMENT_3D('',#118,#119,#120);
#122=CIRCLE('',#121,0.250000000000000);
#123=EDGE_CURVE('',#111,#94,#122,.T.);
#124=ORIENTED_EDGE('',*,*,#123,.T.);
#125=EDGE_LOOP('',(#100,#109,#117,#124));
#126=FACE_OUTER_BOUND('',#125,.T.);
#127=ADVANCED_FACE('',(#126),#90,.T.);
#128=CARTESIAN_POINT('',(1.520000000000000,-3.068926E-016,4.440892E-016));
#129=CARTESIAN_POINT('',(1.519999999999998,-1.069858E-014,-3.600000000000001));
#130=CARTESIAN_POINT('',(1.520000000000000,0.250000000000000,-2.775558E-016));
#131=CARTESIAN_POINT('',(1.519999999999998,0.249999999999989,-3.600000000000002));
#132=CARTESIAN_POINT('',(1.270000000000000,0.250000000000000,-5.551115E-017));
#133=CARTESIAN_POINT('',(1.269999999999998,0.249999999999989,-3.600000000000002));
#134=CARTESIAN_POINT('',(1.020000000000000,0.250000000000000,1.665335E-016));
#135=CARTESIAN_POINT('',(1.019999999999998,0.249999999999989,-3.600000000000002));
#136=CARTESIAN_POINT('',(1.020000000000000,-2.571007E-016,8.881784E-016));
#137=CARTESIAN_POINT('',(1.019999999999998,-1.064879E-014,-3.600000000000001));
#138=CARTESIAN_POINT('',(1.020000000000000,-0.250000000000000,1.609823E-015));
#139=CARTESIAN_POINT('',(1.019999999999998,-0.250000000000011,-3.600000000000001));
#140=CARTESIAN_POINT('',(1.270000000000000,-0.250000000000000,1.387779E-015));
#141=CARTESIAN_POINT('',(1.269999999999998,-0.250000000000011,-3.600000000000001));
#142=CARTESIAN_POINT('',(1.520000000000000,-0.250000000000000,1.165734E-015));
#143=CARTESIAN_POINT('',(1.519999999999998,-0.250000000000011,-3.600000000000001));
#144=CARTESIAN_POINT('',(1.520000000000000,-3.068926E-016,4.440892E-016));
#145=CARTESIAN_POINT('',(1.519999999999998,-1.069858E-014,-3.600000000000001));
#153=(BOUNDED_SURFACE()B_SPLINE_SURFACE(1,2,((#128,#130,#132,#134,#136,#138,#140,#142,#144),(#129,#131,#133,#135,#137,#139,#141,#143,#145)),.UNSPECIFIED.,.F.,.T.,.U.)B_SPLINE_SURFACE_WITH_KNOTS((2,2),(3,2,2,2,3),(-7.200000000000003,7.200000000000005),(0.0,0.392699081698724,0.785398163397448,1.178097245096172,1.570796326794897),.UNSPECIFIED.)GEOMETRIC_REPRESENTATION_ITEM()RATIONAL_B_SPLINE_SURFACE(((1.0,0.707106781186548,1.0,0.707106781186548,1.0,0.707106781186548,1.0,0.707106781186548,1.0),(1.0,0.707106781186548,1.0,0.707106781186548,1.0,0.707106781186548,1.0,0.707106781186548,1.0)))REPRESENTATION_ITEM('')SURFACE());
#154=ORIENTED_EDGE('',*,*,#99,.T.);
#155=CARTESIAN_POINT('',(1.269999999999998,-1.067368E-014,-3.600000000000000));
#156=DIRECTION('',(0.0,0.0,1.0));
#157=DIRECTION('',(-1.0,0.0,0.0));
#158=AXIS2_PLACEMENT_3D('',#155,#156,#157);
#159=CIRCLE('',#158,0.250000000000000);
#160=EDGE_CURVE('',#94,#111,#159,.T.);
#161=ORIENTED_EDGE('',*,*,#160,.T.);
#162=ORIENTED_EDGE('',*,*,#116,.T.);
#163=CARTESIAN_POINT('',(1.270000000000000,-2.819966E-016,0.0));
#164=DIRECTION('',(0.0,0.0,-1.0));
#165=DIRECTION('',(-1.0,0.0,0.0));
#166=AXIS2_PLACEMENT_3D('',#163,#164,#165);
#167=CIRCLE('',#166,0.250000000000000);
#168=EDGE_CURVE('',#102,#92,#167,.T.);
#169=ORIENTED_EDGE('',*,*,#168,.T.);
#170=EDGE_LOOP('',(#154,#161,#162,#169));
#171=FACE_OUTER_BOUND('',#170,.T.);
#172=ADVANCED_FACE('',(#171),#153,.T.);
#173=CARTESIAN_POINT('',(1.020000000000000,-0.250000000000000,8.326673E-016));
#174=CARTESIAN_POINT('',(1.520000000000000,-0.250000000000000,6.106227E-016));
#175=CARTESIAN_POINT('',(1.020000000000000,0.250000000000000,-6.106227E-016));
#176=CARTESIAN_POINT('',(1.520000000000000,0.250000000000000,-8.326673E-016));
#177=B_SPLINE_SURFACE_WITH_KNOTS('',1,1,((#173,#175),(#174,#176)),.UNSPECIFIED.,.F.,.F.,.U.,(2,2),(2,2),(0.0,0.500000000000000),(0.0,0.500000000000000),.UNSPECIFIED.);
#178=ORIENTED_EDGE('',*,*,#108,.F.);
#179=ORIENTED_EDGE('',*,*,#168,.F.);
#180=EDGE_LOOP('',(#178,#179));
#181=FACE_OUTER_BOUND('',#180,.T.);
#182=ADVANCED_FACE('',(#181),#177,.T.);
#183=CARTESIAN_POINT('',(1.519999999999998,-0.250000000000011,-3.599999999999999));
#184=CARTESIAN_POINT('',(1.019999999999998,-0.250000000000011,-3.599999999999999));
#185=CARTESIAN_POINT('',(1.519999999999998,0.249999999999989,-3.600000000000001));
#186=CARTESIAN_POINT('',(1.019999999999998,0.249999999999989,-3.600000000000000));
#187=B_SPLINE_SURFACE_WITH_KNOTS('',1,1,((#183,#185),(#184,#186)),.UNSPECIFIED.,.F.,.F.,.U.,(2,2),(2,2),(0.0,0.500000000000000),(0.0,0.500000000000000),.UNSPECIFIED.);
#188=ORIENTED_EDGE('',*,*,#160,.F.);
#189=ORIENTED_EDGE('',*,*,#123,.F.);
#190=EDGE_LOOP('',(#188,#189));
#191=FACE_OUTER_BOUND('',#190,.T.);
#192=ADVANCED_FACE('',(#191),#187,.T.);
#193=CLOSED_SHELL('',(#127,#172,#182,#192));
#194=MANIFOLD_SOLID_BREP('15B',#193);
#195=COLOUR_RGB('253',0.732000000000000,0.732000000000000,0.732000000000000);
#196=SURFACE_STYLE_USAGE(.BOTH.,#197);
#197=SURFACE_SIDE_STYLE('NONE',(#198));
#198=SURFACE_STYLE_FILL_AREA(#199);
#199=FILL_AREA_STYLE('NONE',(#200));
#200=FILL_AREA_STYLE_COLOUR('NONE',#195);
#201=PRESENTATION_STYLE_ASSIGNMENT((#196));
#202=STYLED_ITEM('NONE',(#201),#194);
#203=MECHANICAL_DESIGN_GEOMETRIC_PRESENTATION_REPRESENTATION('NONE',(#202,#342,#431,#520,#773,#784,#793,#800,#807),#28);
#204=PRESENTATION_LAYER_ASSIGNMENT('3D','None',(#194,#334,#430,#519,#772));
#205=CARTESIAN_POINT('',(1.770000000000001,2.998880E-015,1.500000000000002));
#206=CARTESIAN_POINT('',(1.519999999999999,-1.306093E-015,-1.054712E-015));
#207=CARTESIAN_POINT('',(1.770000000000001,0.500000000000003,1.500000000000000));
#208=CARTESIAN_POINT('',(1.519999999999999,0.249999999999998,-1.776357E-015));
#209=CARTESIAN_POINT('',(1.270000000000000,0.500000000000003,1.500000000000000));
#210=CARTESIAN_POINT('',(1.269999999999999,0.249999999999999,-1.665335E-015));
#211=CARTESIAN_POINT('',(0.770000000000000,0.500000000000003,1.500000000000001));
#212=CARTESIAN_POINT('',(1.020000000000000,0.249999999999998,-1.554312E-015));
#213=CARTESIAN_POINT('',(0.770000000000000,3.098464E-015,1.500000000000002));
#214=CARTESIAN_POINT('',(1.020000000000000,-1.256301E-015,-8.326673E-016));
#215=CARTESIAN_POINT('',(0.770000000000000,-0.499999999999997,1.500000000000004));
#216=CARTESIAN_POINT('',(1.020000000000000,-0.250000000000001,-1.110223E-016));
#217=CARTESIAN_POINT('',(1.270000000000000,-0.499999999999997,1.500000000000004));
#218=CARTESIAN_POINT('',(1.269999999999999,-0.250000000000001,-2.220446E-016));
#219=CARTESIAN_POINT('',(1.770000000000001,-0.499999999999997,1.500000000000003));
#220=CARTESIAN_POINT('',(1.519999999999999,-0.250000000000001,-3.330669E-016));
#221=CARTESIAN_POINT('',(1.770000000000001,2.998880E-015,1.500000000000002));
#222=CARTESIAN_POINT('',(1.519999999999999,-1.306093E-015,-1.054712E-015));
#230=(BOUNDED_SURFACE()B_SPLINE_SURFACE(1,2,((#205,#207,#209,#211,#213,#215,#217,#219,#221),(#206,#208,#210,#212,#214,#216,#218,#220,#222)),.UNSPECIFIED.,.F.,.T.,.U.)B_SPLINE_SURFACE_WITH_KNOTS((2,2),(3,2,2,2,3),(-6.082762530298227,4.440892E-015),(0.0,0.392699081698724,0.785398163397448,1.178097245096172,1.570796326794897),.UNSPECIFIED.)GEOMETRIC_REPRESENTATION_ITEM()RATIONAL_B_SPLINE_SURFACE(((1.0,0.707106781186548,1.0,0.707106781186548,1.0,0.707106781186548,1.0,0.707106781186548,1.0),(1.0,0.707106781186548,1.0,0.707106781186548,1.0,0.707106781186548,1.0,0.707106781186548,1.0)))REPRESENTATION_ITEM('')SURFACE());
#231=CARTESIAN_POINT('',(0.770000000000000,3.159695E-015,1.500000000000000));
#232=VERTEX_POINT('',#231);
#233=CARTESIAN_POINT('',(1.020000000000000,-2.264855E-016,0.0));
#234=VERTEX_POINT('',#233);
#235=CARTESIAN_POINT('',(0.770000000000000,3.159695E-015,1.500000000000000));
#236=DIRECTION('',(0.164398987305357,-2.226738E-015,-0.986393923832144));
#237=VECTOR('',#236,1.520690632574555);
#238=LINE('',#235,#237);
#239=EDGE_CURVE('',#232,#234,#238,.T.);
#240=ORIENTED_EDGE('',*,*,#239,.F.);
#241=CARTESIAN_POINT('',(1.770000000000000,2.876420E-015,1.500000000000000));
#242=VERTEX_POINT('',#241);
#243=CARTESIAN_POINT('',(1.270000000000000,3.048672E-015,1.500000000000000));
#244=DIRECTION('',(0.0,0.0,-1.0));
#245=DIRECTION('',(-1.0,0.0,0.0));
#246=AXIS2_PLACEMENT_3D('',#243,#244,#245);
#247=CIRCLE('',#246,0.500000000000000);
#248=EDGE_CURVE('',#232,#242,#247,.T.);
#249=ORIENTED_EDGE('',*,*,#248,.T.);
#250=CARTESIAN_POINT('',(1.520000000000000,-1.367324E-015,-1.110223E-016));
#251=VERTEX_POINT('',#250);
#252=CARTESIAN_POINT('',(1.520000000000000,-1.367324E-015,-1.110223E-016));
#253=DIRECTION('',(0.164398987305357,2.790669E-015,0.986393923832144));
#254=VECTOR('',#253,1.520690632574555);
#255=LINE('',#252,#254);
#256=EDGE_CURVE('',#251,#242,#255,.T.);
#257=ORIENTED_EDGE('',*,*,#256,.F.);
#258=CARTESIAN_POINT('',(1.270000000000000,-2.819966E-016,0.0));
#259=DIRECTION('',(0.0,0.0,-1.0));
#260=DIRECTION('',(-1.0,0.0,0.0));
#261=AXIS2_PLACEMENT_3D('',#258,#259,#260);
#262=CIRCLE('',#261,0.250000000000000);
#263=EDGE_CURVE('',#234,#251,#262,.T.);
#264=ORIENTED_EDGE('',*,*,#263,.F.);
#265=EDGE_LOOP('',(#240,#249,#257,#264));
#266=FACE_OUTER_BOUND('',#265,.T.);
#267=ADVANCED_FACE('',(#266),#230,.T.);
#268=CARTESIAN_POINT('',(1.020000000000000,-0.250000000000000,8.326673E-016));
#269=CARTESIAN_POINT('',(1.520000000000000,-0.250000000000000,6.106227E-016));
#270=CARTESIAN_POINT('',(1.020000000000000,0.250000000000000,-6.106227E-016));
#271=CARTESIAN_POINT('',(1.520000000000000,0.250000000000000,-8.326673E-016));
#272=B_SPLINE_SURFACE_WITH_KNOTS('',1,1,((#268,#270),(#269,#271)),.UNSPECIFIED.,.F.,.F.,.U.,(2,2),(2,2),(0.0,0.500000000000000),(0.0,0.500000000000000),.UNSPECIFIED.);
#273=ORIENTED_EDGE('',*,*,#263,.T.);
#274=CARTESIAN_POINT('',(1.270000000000000,-2.819966E-016,0.0));
#275=DIRECTION('',(0.0,0.0,-1.0));
#276=DIRECTION('',(-1.0,0.0,0.0));
#277=AXIS2_PLACEMENT_3D('',#274,#275,#276);
#278=CIRCLE('',#277,0.250000000000000);
#279=EDGE_CURVE('',#251,#234,#278,.T.);
#280=ORIENTED_EDGE('',*,*,#279,.T.);
#281=EDGE_LOOP('',(#273,#280));
#282=FACE_OUTER_BOUND('',#281,.T.);
#283=ADVANCED_FACE('',(#282),#272,.F.);
#284=CARTESIAN_POINT('',(1.770000000000000,2.998880E-015,1.500000000000001));
#285=CARTESIAN_POINT('',(1.519999999999999,-1.306093E-015,-1.887379E-015));
#286=CARTESIAN_POINT('',(1.770000000000000,0.500000000000003,1.500000000000000));
#287=CARTESIAN_POINT('',(1.519999999999999,0.249999999999998,-2.609024E-015));
#288=CARTESIAN_POINT('',(1.270000000000000,0.500000000000003,1.500000000000000));
#289=CARTESIAN_POINT('',(1.269999999999999,0.249999999999999,-2.498002E-015));
#290=CARTESIAN_POINT('',(0.770000000000000,0.500000000000003,1.500000000000000));
#291=CARTESIAN_POINT('',(1.020000000000000,0.249999999999998,-2.386980E-015));
#292=CARTESIAN_POINT('',(0.770000000000000,3.098464E-015,1.500000000000002));
#293=CARTESIAN_POINT('',(1.020000000000000,-1.256301E-015,-1.665335E-015));
#294=CARTESIAN_POINT('',(0.770000000000000,-0.499999999999997,1.500000000000003));
#295=CARTESIAN_POINT('',(1.020000000000000,-0.250000000000001,-9.436896E-016));
#296=CARTESIAN_POINT('',(1.270000000000000,-0.499999999999997,1.500000000000003));
#297=CARTESIAN_POINT('',(1.269999999999999,-0.250000000000001,-1.054712E-015));
#298=CARTESIAN_POINT('',(1.770000000000000,-0.499999999999997,1.500000000000003));
#299=CARTESIAN_POINT('',(1.519999999999999,-0.250000000000001,-1.165734E-015));
#300=CARTESIAN_POINT('',(1.770000000000000,2.998880E-015,1.500000000000001));
#301=CARTESIAN_POINT('',(1.519999999999999,-1.306093E-015,-1.887379E-015));
#309=(BOUNDED_SURFACE()B_SPLINE_SURFACE(1,2,((#284,#286,#288,#290,#292,#294,#296,#298,#300),(#285,#287,#289,#291,#293,#295,#297,#299,#301)),.UNSPECIFIED.,.F.,.T.,.U.)B_SPLINE_SURFACE_WITH_KNOTS((2,2),(3,2,2,2,3),(-6.082762530298226,8.881784E-015),(0.0,0.392699081698724,0.785398163397448,1.178097245096172,1.570796326794897),.UNSPECIFIED.)GEOMETRIC_REPRESENTATION_ITEM()RATIONAL_B_SPLINE_SURFACE(((1.0,0.707106781186548,1.0,0.707106781186548,1.0,0.707106781186548,1.0,0.707106781186548,1.0),(1.0,0.707106781186548,1.0,0.707106781186548,1.0,0.707106781186548,1.0,0.707106781186548,1.0)))REPRESENTATION_ITEM('')SURFACE());
#310=ORIENTED_EDGE('',*,*,#239,.T.);
#311=ORIENTED_EDGE('',*,*,#279,.F.);
#312=ORIENTED_EDGE('',*,*,#256,.T.);
#313=CARTESIAN_POINT('',(1.270000000000000,3.048672E-015,1.500000000000000));
#314=DIRECTION('',(0.0,0.0,-1.0));
#315=DIRECTION('',(-1.0,0.0,0.0));
#316=AXIS2_PLACEMENT_3D('',#313,#314,#315);
#317=CIRCLE('',#316,0.500000000000000);
#318=EDGE_CURVE('',#242,#232,#317,.T.);
#319=ORIENTED_EDGE('',*,*,#318,.T.);
#320=EDGE_LOOP('',(#310,#311,#312,#319));
#321=FACE_OUTER_BOUND('',#320,.T.);
#322=ADVANCED_FACE('',(#321),#309,.T.);
#323=CARTESIAN_POINT('',(0.770000000000000,-0.499999999999997,1.500000000000002));
#324=CARTESIAN_POINT('',(1.770000000000000,-0.499999999999997,1.500000000000001));
#325=CARTESIAN_POINT('',(0.770000000000000,0.500000000000003,1.499999999999999));
#326=CARTESIAN_POINT('',(1.770000000000000,0.500000000000003,1.499999999999998));
#327=B_SPLINE_SURFACE_WITH_KNOTS('',1,1,((#323,#325),(#324,#326)),.UNSPECIFIED.,.F.,.F.,.U.,(2,2),(2,2),(0.0,1.0),(0.0,1.000000000000000),.UNSPECIFIED.);
#328=ORIENTED_EDGE('',*,*,#248,.F.);
#329=ORIENTED_EDGE('',*,*,#318,.F.);
#330=EDGE_LOOP('',(#328,#329));
#331=FACE_OUTER_BOUND('',#330,.T.);
#332=ADVANCED_FACE('',(#331),#327,.T.);
#333=CLOSED_SHELL('',(#267,#283,#322,#332));
#334=MANIFOLD_SOLID_BREP('15A',#333);
#335=COLOUR_RGB('40',1.0,0.750000000000000,0.0);
#336=SURFACE_STYLE_USAGE(.BOTH.,#337);
#337=SURFACE_SIDE_STYLE('NONE',(#338));
#338=SURFACE_STYLE_FILL_AREA(#339);
#339=FILL_AREA_STYLE('NONE',(#340));
#340=FILL_AREA_STYLE_COLOUR('NONE',#335);
#341=PRESENTATION_STYLE_ASSIGNMENT((#336));
#342=STYLED_ITEM('NONE',(#341),#334);
#343=CARTESIAN_POINT('',(-1.269999999999999,-5.477840E-015,-1.800000000000000));
#344=DIRECTION('',(4.440892E-016,-2.886580E-015,-1.0));
#345=DIRECTION('',(1.0,0.0,0.0));
#346=AXIS2_PLACEMENT_3D('',#343,#344,#345);
#347=CYLINDRICAL_SURFACE('',#346,0.250000000000000);
#348=CARTESIAN_POINT('',(-1.020000000000000,-2.264855E-016,2.220446E-016));
#349=VERTEX_POINT('',#348);
#350=CARTESIAN_POINT('',(-1.019999999999998,-1.061817E-014,-3.600000000000000));
#351=VERTEX_POINT('',#350);
#352=CARTESIAN_POINT('',(-1.020000000000000,-2.264855E-016,2.220446E-016));
#353=DIRECTION('',(0.0,0.0,-1.0));
#354=VECTOR('',#353,3.600000000000000);
#355=LINE('',#352,#354);
#356=EDGE_CURVE('',#349,#351,#355,.T.);
#357=ORIENTED_EDGE('',*,*,#356,.F.);
#358=CARTESIAN_POINT('',(-1.520000000000000,-3.681230E-016,-1.110223E-016));
#359=VERTEX_POINT('',#358);
#360=CARTESIAN_POINT('',(-1.270000000000000,-2.819966E-016,0.0));
#361=DIRECTION('',(0.0,0.0,1.0));
#362=DIRECTION('',(1.0,0.0,0.0));
#363=AXIS2_PLACEMENT_3D('',#360,#361,#362);
#364=CIRCLE('',#363,0.250000000000000);
#365=EDGE_CURVE('',#359,#349,#364,.T.);
#366=ORIENTED_EDGE('',*,*,#365,.F.);
#367=CARTESIAN_POINT('',(-1.519999999999998,-1.075981E-014,-3.600000000000000));
#368=VERTEX_POINT('',#367);
#369=CARTESIAN_POINT('',(-1.519999999999998,-1.075981E-014,-3.600000000000000));
#370=DIRECTION('',(0.0,0.0,1.0));
#371=VECTOR('',#370,3.600000000000000);
#372=LINE('',#369,#371);
#373=EDGE_CURVE('',#368,#359,#372,.T.);
#374=ORIENTED_EDGE('',*,*,#373,.F.);
#375=CARTESIAN_POINT('',(-1.269999999999998,-1.067368E-014,-3.600000000000000));
#376=DIRECTION('',(0.0,0.0,-1.0));
#377=DIRECTION('',(1.0,0.0,0.0));
#378=AXIS2_PLACEMENT_3D('',#375,#376,#377);
#379=CIRCLE('',#378,0.250000000000000);
#380=EDGE_CURVE('',#351,#368,#379,.T.);
#381=ORIENTED_EDGE('',*,*,#380,.F.);
#382=EDGE_LOOP('',(#357,#366,#374,#381));
#383=FACE_OUTER_BOUND('',#382,.T.);
#384=ADVANCED_FACE('',(#383),#347,.T.);
#385=CARTESIAN_POINT('',(-1.269999999999999,-5.477840E-015,-1.800000000000000));
#386=DIRECTION('',(4.440892E-016,-2.886580E-015,-1.0));
#387=DIRECTION('',(1.0,0.0,0.0));
#388=AXIS2_PLACEMENT_3D('',#385,#386,#387);
#389=CYLINDRICAL_SURFACE('',#388,0.250000000000000);
#390=ORIENTED_EDGE('',*,*,#356,.T.);
#391=CARTESIAN_POINT('',(-1.269999999999998,-1.067368E-014,-3.600000000000000));
#392=DIRECTION('',(0.0,0.0,-1.0));
#393=DIRECTION('',(1.0,0.0,0.0));
#394=AXIS2_PLACEMENT_3D('',#391,#392,#393);
#395=CIRCLE('',#394,0.250000000000000);
#396=EDGE_CURVE('',#368,#351,#395,.T.);
#397=ORIENTED_EDGE('',*,*,#396,.F.);
#398=ORIENTED_EDGE('',*,*,#373,.T.);
#399=CARTESIAN_POINT('',(-1.270000000000000,-2.819966E-016,0.0));
#400=DIRECTION('',(0.0,0.0,1.0));
#401=DIRECTION('',(1.0,0.0,0.0));
#402=AXIS2_PLACEMENT_3D('',#399,#400,#401);
#403=CIRCLE('',#402,0.250000000000000);
#404=EDGE_CURVE('',#349,#359,#403,.T.);
#405=ORIENTED_EDGE('',*,*,#404,.F.);
#406=EDGE_LOOP('',(#390,#397,#398,#405));
#407=FACE_OUTER_BOUND('',#406,.T.);
#408=ADVANCED_FACE('',(#407),#389,.T.);
#409=CARTESIAN_POINT('',(-1.270000000000000,-2.819966E-016,0.0));
#410=DIRECTION('',(0.0,0.0,1.0));
#411=DIRECTION('',(-1.0,0.0,0.0));
#412=AXIS2_PLACEMENT_3D('',#409,#410,#411);
#413=PLANE('',#412);
#414=ORIENTED_EDGE('',*,*,#404,.T.);
#415=ORIENTED_EDGE('',*,*,#365,.T.);
#416=EDGE_LOOP('',(#414,#415));
#417=FACE_OUTER_BOUND('',#416,.T.);
#418=ADVANCED_FACE('',(#417),#413,.T.);
#419=CARTESIAN_POINT('',(-1.269999999999998,-1.067368E-014,-3.600000000000000));
#420=DIRECTION('',(0.0,0.0,-1.0));
#421=DIRECTION('',(1.0,0.0,0.0));
#422=AXIS2_PLACEMENT_3D('',#419,#420,#421);
#423=PLANE('',#422);
#424=ORIENTED_EDGE('',*,*,#380,.T.);
#425=ORIENTED_EDGE('',*,*,#396,.T.);
#426=EDGE_LOOP('',(#424,#425));
#427=FACE_OUTER_BOUND('',#426,.T.);
#428=ADVANCED_FACE('',(#427),#423,.T.);
#429=CLOSED_SHELL('',(#384,#408,#418,#428));
#430=MANIFOLD_SOLID_BREP('159',#429);
#431=STYLED_ITEM('NONE',(#201),#430);
#432=CARTESIAN_POINT('',(-1.269999999999999,-1.281197E-015,1.021405E-016));
#433=DIRECTION('',(-4.440892E-016,2.886580E-015,1.0));
#434=DIRECTION('',(1.0,0.0,0.0));
#435=AXIS2_PLACEMENT_3D('',#432,#433,#434);
#436=CONICAL_SURFACE('',#435,0.250000000000000,9.462322208025617);
#437=CARTESIAN_POINT('',(-0.770000000000000,3.159695E-015,1.500000000000000));
#438=VERTEX_POINT('',#437);
#439=CARTESIAN_POINT('',(-1.020000000000000,-2.264855E-016,0.0));
#440=VERTEX_POINT('',#439);
#441=CARTESIAN_POINT('',(-0.770000000000000,3.159695E-015,1.500000000000000));
#442=DIRECTION('',(-0.164398987305357,-2.226738E-015,-0.986393923832144));
#443=VECTOR('',#442,1.520690632574555);
#444=LINE('',#441,#443);
#445=EDGE_CURVE('',#438,#440,#444,.T.);
#446=ORIENTED_EDGE('',*,*,#445,.F.);
#447=CARTESIAN_POINT('',(-1.770000000000000,2.876420E-015,1.500000000000000));
#448=VERTEX_POINT('',#447);
#449=CARTESIAN_POINT('',(-1.270000000000000,3.048672E-015,1.500000000000000));
#450=DIRECTION('',(0.0,0.0,1.0));
#451=DIRECTION('',(1.0,0.0,0.0));
#452=AXIS2_PLACEMENT_3D('',#449,#450,#451);
#453=CIRCLE('',#452,0.500000000000000);
#454=EDGE_CURVE('',#448,#438,#453,.T.);
#455=ORIENTED_EDGE('',*,*,#454,.F.);
#456=CARTESIAN_POINT('',(-1.520000000000000,-1.367324E-015,-1.110223E-016));
#457=VERTEX_POINT('',#456);
#458=CARTESIAN_POINT('',(-1.520000000000000,-1.367324E-015,-1.110223E-016));
#459=DIRECTION('',(-0.164398987305357,2.790669E-015,0.986393923832144));
#460=VECTOR('',#459,1.520690632574555);
#461=LINE('',#458,#460);
#462=EDGE_CURVE('',#457,#448,#461,.T.);
#463=ORIENTED_EDGE('',*,*,#462,.F.);
#464=CARTESIAN_POINT('',(-1.270000000000000,-2.819966E-016,0.0));
#465=DIRECTION('',(0.0,0.0,1.0));
#466=DIRECTION('',(1.0,0.0,0.0));
#467=AXIS2_PLACEMENT_3D('',#464,#465,#466);
#468=CIRCLE('',#467,0.250000000000000);
#469=EDGE_CURVE('',#457,#440,#468,.T.);
#470=ORIENTED_EDGE('',*,*,#469,.T.);
#471=EDGE_LOOP('',(#446,#455,#463,#470));
#472=FACE_OUTER_BOUND('',#471,.T.);
#473=ADVANCED_FACE('',(#472),#436,.T.);
#474=CARTESIAN_POINT('',(-1.270000000000000,-2.819966E-016,0.0));
#475=DIRECTION('',(0.0,0.0,1.0));
#476=DIRECTION('',(-1.0,0.0,0.0));
#477=AXIS2_PLACEMENT_3D('',#474,#475,#476);
#478=PLANE('',#477);
#479=CARTESIAN_POINT('',(-1.270000000000000,-2.819966E-016,0.0));
#480=DIRECTION('',(0.0,0.0,1.0));
#481=DIRECTION('',(1.0,0.0,0.0));
#482=AXIS2_PLACEMENT_3D('',#479,#480,#481);
#483=CIRCLE('',#482,0.250000000000000);
#484=EDGE_CURVE('',#440,#457,#483,.T.);
#485=ORIENTED_EDGE('',*,*,#484,.F.);
#486=ORIENTED_EDGE('',*,*,#469,.F.);
#487=EDGE_LOOP('',(#485,#486));
#488=FACE_OUTER_BOUND('',#487,.T.);
#489=ADVANCED_FACE('',(#488),#478,.F.);
#490=CARTESIAN_POINT('',(-1.269999999999999,-1.281197E-015,1.021405E-016));
#491=DIRECTION('',(-4.440892E-016,2.886580E-015,1.0));
#492=DIRECTION('',(1.0,0.0,0.0));
#493=AXIS2_PLACEMENT_3D('',#490,#491,#492);
#494=CONICAL_SURFACE('',#493,0.250000000000000,9.462322208025617);
#495=ORIENTED_EDGE('',*,*,#445,.T.);
#496=ORIENTED_EDGE('',*,*,#484,.T.);
#497=ORIENTED_EDGE('',*,*,#462,.T.);
#498=CARTESIAN_POINT('',(-1.270000000000000,3.048672E-015,1.500000000000000));
#499=DIRECTION('',(0.0,0.0,1.0));
#500=DIRECTION('',(1.0,0.0,0.0));
#501=AXIS2_PLACEMENT_3D('',#498,#499,#500);
#502=CIRCLE('',#501,0.500000000000000);
#503=EDGE_CURVE('',#438,#448,#502,.T.);
#504=ORIENTED_EDGE('',*,*,#503,.F.);
#505=EDGE_LOOP('',(#495,#496,#497,#504));
#506=FACE_OUTER_BOUND('',#505,.T.);
#507=ADVANCED_FACE('',(#506),#494,.T.);
#508=CARTESIAN_POINT('',(-1.270000000000000,3.048672E-015,1.500000000000000));
#509=DIRECTION('',(0.0,0.0,1.0));
#510=DIRECTION('',(-1.0,0.0,0.0));
#511=AXIS2_PLACEMENT_3D('',#508,#509,#510);
#512=PLANE('',#511);
#513=ORIENTED_EDGE('',*,*,#503,.T.);
#514=ORIENTED_EDGE('',*,*,#454,.T.);
#515=EDGE_LOOP('',(#513,#514));
#516=FACE_OUTER_BOUND('',#515,.T.);
#517=ADVANCED_FACE('',(#516),#512,.T.);
#518=CLOSED_SHELL('',(#473,#489,#507,#517));
#519=MANIFOLD_SOLID_BREP('156',#518);
#520=STYLED_ITEM('NONE',(#341),#519);
#521=CARTESIAN_POINT('',(-2.631229E-015,5.262457E-015,5.925000000000003));
#522=DIRECTION('',(-4.440892E-016,8.881784E-016,1.0));
#523=DIRECTION('',(-1.0,0.0,0.0));
#524=AXIS2_PLACEMENT_3D('',#521,#522,#523);
#525=CYLINDRICAL_SURFACE('',#524,2.999999999999996);
#526=CARTESIAN_POINT('',(-3.0,3.730349E-015,4.950000000000003));
#527=VERTEX_POINT('',#526);
#528=CARTESIAN_POINT('',(-2.999999999999999,5.462297E-015,6.899999999999998));
#529=VERTEX_POINT('',#528);
#530=CARTESIAN_POINT('',(-3.0,3.730349E-015,4.950000000000003));
#531=DIRECTION('',(0.0,0.0,1.0));
#532=VECTOR('',#531,1.949999999999995);
#533=LINE('',#530,#532);
#534=EDGE_CURVE('',#527,#529,#533,.T.);
#535=ORIENTED_EDGE('',*,*,#534,.F.);
#536=CARTESIAN_POINT('',(2.999999999999996,4.029101E-015,4.950000000000005));
#537=VERTEX_POINT('',#536);
#538=CARTESIAN_POINT('',(-2.198242E-015,4.396483E-015,4.950000000000004));
#539=DIRECTION('',(0.0,0.0,1.0));
#540=DIRECTION('',(-1.0,0.0,0.0));
#541=AXIS2_PLACEMENT_3D('',#538,#539,#540);
#542=CIRCLE('',#541,2.999999999999998);
#543=EDGE_CURVE('',#527,#537,#542,.T.);
#544=ORIENTED_EDGE('',*,*,#543,.T.);
#545=CARTESIAN_POINT('',(2.999999999999993,5.761049E-015,6.900000000000000));
#546=VERTEX_POINT('',#545);
#547=CARTESIAN_POINT('',(2.999999999999993,5.761049E-015,6.900000000000000));
#548=DIRECTION('',(0.0,0.0,-1.0));
#549=VECTOR('',#548,1.949999999999995);
#550=LINE('',#547,#549);
#551=EDGE_CURVE('',#546,#537,#550,.T.);
#552=ORIENTED_EDGE('',*,*,#551,.F.);
#553=CARTESIAN_POINT('',(-3.064216E-015,6.128431E-015,6.899999999999999));
#554=DIRECTION('',(0.0,0.0,1.0));
#555=DIRECTION('',(-1.0,0.0,0.0));
#556=AXIS2_PLACEMENT_3D('',#553,#554,#555);
#557=CIRCLE('',#556,2.999999999999996);
#558=EDGE_CURVE('',#529,#546,#557,.T.);
#559=ORIENTED_EDGE('',*,*,#558,.F.);
#560=EDGE_LOOP('',(#535,#544,#552,#559));
#561=FACE_OUTER_BOUND('',#560,.T.);
#562=ADVANCED_FACE('',(#561),#525,.T.);
#563=CARTESIAN_POINT('',(-1.499999999999997,1.055325E-015,0.981373033403111));
#564=CARTESIAN_POINT('',(-3.000000000000004,2.749666E-015,2.682213161944639));
#565=CARTESIAN_POINT('',(-3.000000000000000,4.763865E-015,4.950000000000008));
#566=CARTESIAN_POINT('',(-1.499999999999996,1.499999999999997,0.981373033403109));
#567=CARTESIAN_POINT('',(-3.000000000000002,3.000000000000004,2.682213161944636));
#568=CARTESIAN_POINT('',(-3.000000000000000,3.000000000000003,4.950000000000006));
#569=CARTESIAN_POINT('',(-2.743307E-016,1.499999999999997,0.981373033403110));
#570=CARTESIAN_POINT('',(-8.459645E-016,3.000000000000005,2.682213161944638));
#571=CARTESIAN_POINT('',(-1.853064E-015,3.000000000000003,4.950000000000007));
#572=CARTESIAN_POINT('',(1.499999999999996,1.499999999999997,0.981373033403110));
#573=CARTESIAN_POINT('',(3.000000000000000,3.000000000000003,2.682213161944639));
#574=CARTESIAN_POINT('',(2.999999999999996,3.000000000000002,4.950000000000009));
#575=CARTESIAN_POINT('',(1.499999999999996,6.879434E-016,0.981373033403111));
#576=CARTESIAN_POINT('',(3.000000000000001,2.014902E-015,2.682213161944642));
#577=CARTESIAN_POINT('',(2.999999999999996,4.029101E-015,4.950000000000012));
#578=CARTESIAN_POINT('',(1.499999999999996,-1.499999999999996,0.981373033403113));
#579=CARTESIAN_POINT('',(3.000000000000000,-3.000000000000000,2.682213161944644));
#580=CARTESIAN_POINT('',(2.999999999999995,-2.999999999999994,4.950000000000014));
#581=CARTESIAN_POINT('',(-6.417126E-016,-1.499999999999996,0.981373033403112));
#582=CARTESIAN_POINT('',(-1.580728E-015,-3.0,2.682213161944643));
#583=CARTESIAN_POINT('',(-2.587828E-015,-2.999999999999994,4.950000000000013));
#584=CARTESIAN_POINT('',(-1.499999999999997,-1.499999999999995,0.981373033403112));
#585=CARTESIAN_POINT('',(-3.000000000000003,-2.999999999999999,2.682213161944642));
#586=CARTESIAN_POINT('',(-3.0,-2.999999999999993,4.950000000000011));
#587=CARTESIAN_POINT('',(-1.499999999999997,1.055325E-015,0.981373033403111));
#588=CARTESIAN_POINT('',(-3.000000000000004,2.749666E-015,2.682213161944639));
#589=CARTESIAN_POINT('',(-3.000000000000000,4.763865E-015,4.950000000000008));
#597=(BOUNDED_SURFACE()B_SPLINE_SURFACE(2,2,((#563,#566,#569,#572,#575,#578,#581,#584,#587),(#564,#567,#570,#573,#576,#579,#582,#585,#588),(#565,#568,#571,#574,#577,#580,#583,#586,#589)),.UNSPECIFIED.,.F.,.T.,.U.)B_SPLINE_SURFACE_WITH_KNOTS((3,3),(3,2,2,2,3),(-0.722734247813416,1.554312E-015),(0.0,1.570796326794897,3.141592653589793,4.712388980384690,6.283185307179586),.UNSPECIFIED.)GEOMETRIC_REPRESENTATION_ITEM()RATIONAL_B_SPLINE_SURFACE(((1.0,0.707106781186548,1.0,0.707106781186548,1.0,0.707106781186548,1.0,0.707106781186548,1.0),(0.935414346693484,0.661437827766147,0.935414346693484,0.661437827766147,0.935414346693484,0.661437827766147,0.935414346693484,0.661437827766147,0.935414346693484),(1.0,0.707106781186548,1.0,0.707106781186548,1.0,0.707106781186548,1.0,0.707106781186548,1.0)))REPRESENTATION_ITEM('')SURFACE());
#598=CARTESIAN_POINT('',(1.499999999999996,1.862893E-015,0.981373033403114));
#599=VERTEX_POINT('',#598);
#600=CARTESIAN_POINT('',(-3.000000000000005,4.763865E-015,4.949999999999998));
#601=DIRECTION('',(0.0,-1.0,0.0));
#602=DIRECTION('',(1.0,0.0,0.0));
#603=AXIS2_PLACEMENT_3D('',#600,#601,#602);
#604=CIRCLE('',#603,6.000000000000001);
#605=EDGE_CURVE('',#599,#537,#604,.T.);
#606=ORIENTED_EDGE('',*,*,#605,.F.);
#607=CARTESIAN_POINT('',(-1.499999999999997,5.385674E-016,0.981373033403113));
#608=VERTEX_POINT('',#607);
#609=CARTESIAN_POINT('',(-4.358172E-016,8.716343E-016,0.981373033403113));
#610=DIRECTION('',(0.0,0.0,1.0));
#611=DIRECTION('',(-1.0,0.0,0.0));
#612=AXIS2_PLACEMENT_3D('',#609,#610,#611);
#613=CIRCLE('',#612,1.499999999999997);
#614=EDGE_CURVE('',#599,#608,#613,.T.);
#615=ORIENTED_EDGE('',*,*,#614,.T.);
#616=CARTESIAN_POINT('',(3.000000000000000,4.029101E-015,4.950000000000002));
#617=DIRECTION('',(0.0,-1.0,0.0));
#618=DIRECTION('',(-1.0,0.0,0.0));
#619=AXIS2_PLACEMENT_3D('',#616,#617,#618);
#620=CIRCLE('',#619,6.000000000000001);
#621=EDGE_CURVE('',#527,#608,#620,.T.);
#622=ORIENTED_EDGE('',*,*,#621,.F.);
#623=CARTESIAN_POINT('',(-2.198242E-015,4.396483E-015,4.950000000000004));
#624=DIRECTION('',(0.0,0.0,1.0));
#625=DIRECTION('',(-1.0,0.0,0.0));
#626=AXIS2_PLACEMENT_3D('',#623,#624,#625);
#627=CIRCLE('',#626,2.999999999999998);
#628=EDGE_CURVE('',#537,#527,#627,.T.);
#629=ORIENTED_EDGE('',*,*,#628,.F.);
#630=EDGE_LOOP('',(#606,#615,#622,#629));
#631=FACE_OUTER_BOUND('',#630,.T.);
#632=ADVANCED_FACE('',(#631),#597,.T.);
#633=CARTESIAN_POINT('',(1.887379E-015,2.046584E-015,2.304248688935409));
#634=DIRECTION('',(0.0,0.0,1.0));
#635=DIRECTION('',(1.0,0.0,0.0));
#636=AXIS2_PLACEMENT_3D('',#633,#634,#635);
#637=SPHERICAL_SURFACE('',#636,2.000000000000003);
#638=CARTESIAN_POINT('',(-3.673819E-016,2.702271E-016,0.304248688935409));
#639=VERTEX_POINT('',#638);
#640=CARTESIAN_POINT('',(1.887379E-015,2.046584E-015,2.304248688935409));
#641=DIRECTION('',(0.0,-1.0,0.0));
#642=DIRECTION('',(0.0,0.0,1.0));
#643=AXIS2_PLACEMENT_3D('',#640,#641,#642);
#644=CIRCLE('',#643,2.000000000000003);
#645=EDGE_CURVE('',#639,#599,#644,.T.);
#646=ORIENTED_EDGE('',*,*,#645,.F.);
#647=CARTESIAN_POINT('',(1.887379E-015,2.046584E-015,2.304248688935409));
#648=DIRECTION('',(0.0,-1.0,0.0));
#649=DIRECTION('',(0.0,0.0,1.0));
#650=AXIS2_PLACEMENT_3D('',#647,#648,#649);
#651=CIRCLE('',#650,2.000000000000003);
#652=EDGE_CURVE('',#608,#639,#651,.T.);
#653=ORIENTED_EDGE('',*,*,#652,.F.);
#654=ORIENTED_EDGE('',*,*,#614,.F.);
#655=EDGE_LOOP('',(#646,#653,#654));
#656=FACE_OUTER_BOUND('',#655,.T.);
#657=ADVANCED_FACE('',(#656),#637,.T.);
#658=CARTESIAN_POINT('',(2.664535E-015,6.128431E-015,6.899999999999999));
#659=DIRECTION('',(0.0,0.0,1.0));
#660=DIRECTION('',(1.0,0.0,0.0));
#661=AXIS2_PLACEMENT_3D('',#658,#659,#660);
#662=SPHERICAL_SURFACE('',#661,3.000000000000007);
#663=CARTESIAN_POINT('',(-3.747089E-031,8.792966E-015,9.900000000000000));
#664=VERTEX_POINT('',#663);
#665=CARTESIAN_POINT('',(2.664535E-015,6.128431E-015,6.899999999999999));
#666=DIRECTION('',(0.0,-1.0,0.0));
#667=DIRECTION('',(0.0,0.0,1.0));
#668=AXIS2_PLACEMENT_3D('',#665,#666,#667);
#669=CIRCLE('',#668,3.000000000000007);
#670=EDGE_CURVE('',#664,#529,#669,.T.);
#671=ORIENTED_EDGE('',*,*,#670,.F.);
#672=CARTESIAN_POINT('',(2.664535E-015,6.128431E-015,6.899999999999999));
#673=DIRECTION('',(0.0,-1.0,0.0));
#674=DIRECTION('',(0.0,0.0,1.0));
#675=AXIS2_PLACEMENT_3D('',#672,#673,#674);
#676=CIRCLE('',#675,3.000000000000007);
#677=EDGE_CURVE('',#546,#664,#676,.T.);
#678=ORIENTED_EDGE('',*,*,#677,.F.);
#679=CARTESIAN_POINT('',(-3.064216E-015,6.128431E-015,6.899999999999999));
#680=DIRECTION('',(0.0,0.0,1.0));
#681=DIRECTION('',(-1.0,0.0,0.0));
#682=AXIS2_PLACEMENT_3D('',#679,#680,#681);
#683=CIRCLE('',#682,2.999999999999996);
#684=EDGE_CURVE('',#546,#529,#683,.T.);
#685=ORIENTED_EDGE('',*,*,#684,.T.);
#686=EDGE_LOOP('',(#671,#678,#685));
#687=FACE_OUTER_BOUND('',#686,.T.);
#688=ADVANCED_FACE('',(#687),#662,.T.);
#689=CARTESIAN_POINT('',(2.664535E-015,6.128431E-015,6.899999999999999));
#690=DIRECTION('',(0.0,0.0,1.0));
#691=DIRECTION('',(1.0,0.0,0.0));
#692=AXIS2_PLACEMENT_3D('',#689,#690,#691);
#693=SPHERICAL_SURFACE('',#692,3.000000000000007);
#694=ORIENTED_EDGE('',*,*,#670,.T.);
#695=ORIENTED_EDGE('',*,*,#558,.T.);
#696=ORIENTED_EDGE('',*,*,#677,.T.);
#697=EDGE_LOOP('',(#694,#695,#696));
#698=FACE_OUTER_BOUND('',#697,.T.);
#699=ADVANCED_FACE('',(#698),#693,.T.);
#700=CARTESIAN_POINT('',(1.887379E-015,2.046584E-015,2.304248688935409));
#701=DIRECTION('',(0.0,0.0,1.0));
#702=DIRECTION('',(1.0,0.0,0.0));
#703=AXIS2_PLACEMENT_3D('',#700,#701,#702);
#704=SPHERICAL_SURFACE('',#703,2.000000000000003);
#705=ORIENTED_EDGE('',*,*,#645,.T.);
#706=CARTESIAN_POINT('',(-4.358172E-016,8.716343E-016,0.981373033403113));
#707=DIRECTION('',(0.0,0.0,1.0));
#708=DIRECTION('',(-1.0,0.0,0.0));
#709=AXIS2_PLACEMENT_3D('',#706,#707,#708);
#710=CIRCLE('',#709,1.499999999999997);
#711=EDGE_CURVE('',#608,#599,#710,.T.);
#712=ORIENTED_EDGE('',*,*,#711,.F.);
#713=ORIENTED_EDGE('',*,*,#652,.T.);
#714=EDGE_LOOP('',(#705,#712,#713));
#715=FACE_OUTER_BOUND('',#714,.T.);
#716=ADVANCED_FACE('',(#715),#704,.T.);
#717=CARTESIAN_POINT('',(-1.499999999999994,1.055325E-015,0.981373033403108));
#718=CARTESIAN_POINT('',(-3.000000000000003,2.749666E-015,2.682213161944635));
#719=CARTESIAN_POINT('',(-3.000000000000000,4.763865E-015,4.950000000000006));
#720=CARTESIAN_POINT('',(-1.499999999999994,1.499999999999995,0.981373033403107));
#721=CARTESIAN_POINT('',(-3.000000000000001,3.000000000000003,2.682213161944633));
#722=CARTESIAN_POINT('',(-3.000000000000000,3.000000000000003,4.950000000000004));
#723=CARTESIAN_POINT('',(-2.743307E-016,1.499999999999995,0.981373033403107));
#724=CARTESIAN_POINT('',(-8.459645E-016,3.000000000000004,2.682213161944634));
#725=CARTESIAN_POINT('',(-1.853064E-015,3.000000000000003,4.950000000000006));
#726=CARTESIAN_POINT('',(1.499999999999994,1.499999999999994,0.981373033403107));
#727=CARTESIAN_POINT('',(3.000000000000000,3.000000000000002,2.682213161944635));
#728=CARTESIAN_POINT('',(2.999999999999996,3.000000000000002,4.950000000000007));
#729=CARTESIAN_POINT('',(1.499999999999993,6.879434E-016,0.981373033403109));
#730=CARTESIAN_POINT('',(3.0,2.014902E-015,2.682213161944638));
#731=CARTESIAN_POINT('',(2.999999999999996,4.029101E-015,4.950000000000010));
#732=CARTESIAN_POINT('',(1.499999999999993,-1.499999999999993,0.981373033403110));
#733=CARTESIAN_POINT('',(2.999999999999999,-2.999999999999999,2.682213161944641));
#734=CARTESIAN_POINT('',(2.999999999999995,-2.999999999999994,4.950000000000013));
#735=CARTESIAN_POINT('',(-6.417126E-016,-1.499999999999993,0.981373033403110));
#736=CARTESIAN_POINT('',(-1.580728E-015,-2.999999999999999,2.682213161944639));
#737=CARTESIAN_POINT('',(-2.587828E-015,-2.999999999999994,4.950000000000011));
#738=CARTESIAN_POINT('',(-1.499999999999994,-1.499999999999993,0.981373033403109));
#739=CARTESIAN_POINT('',(-3.000000000000002,-2.999999999999998,2.682213161944638));
#740=CARTESIAN_POINT('',(-3.0,-2.999999999999993,4.950000000000009));
#741=CARTESIAN_POINT('',(-1.499999999999994,1.055325E-015,0.981373033403108));
#742=CARTESIAN_POINT('',(-3.000000000000003,2.749666E-015,2.682213161944635));
#743=CARTESIAN_POINT('',(-3.000000000000000,4.763865E-015,4.950000000000006));
#751=(BOUNDED_SURFACE()B_SPLINE_SURFACE(2,2,((#717,#720,#723,#726,#729,#732,#735,#738,#741),(#718,#721,#724,#727,#730,#733,#736,#739,#742),(#719,#722,#725,#728,#731,#734,#737,#740,#743)),.UNSPECIFIED.,.F.,.T.,.U.)B_SPLINE_SURFACE_WITH_KNOTS((3,3),(3,2,2,2,3),(-0.722734247813417,1.258253E-015),(0.0,1.570796326794897,3.141592653589793,4.712388980384690,6.283185307179586),.UNSPECIFIED.)GEOMETRIC_REPRESENTATION_ITEM()RATIONAL_B_SPLINE_SURFACE(((1.0,0.707106781186548,1.0,0.707106781186548,1.0,0.707106781186548,1.0,0.707106781186548,1.0),(0.935414346693485,0.661437827766148,0.935414346693485,0.661437827766148,0.935414346693485,0.661437827766148,0.935414346693485,0.661437827766148,0.935414346693485),(1.0,0.707106781186548,1.0,0.707106781186548,1.0,0.707106781186548,1.0,0.707106781186548,1.0)))REPRESENTATION_ITEM('')SURFACE());
#752=ORIENTED_EDGE('',*,*,#605,.T.);
#753=ORIENTED_EDGE('',*,*,#543,.F.);
#754=ORIENTED_EDGE('',*,*,#621,.T.);
#755=ORIENTED_EDGE('',*,*,#711,.T.);
#756=EDGE_LOOP('',(#752,#753,#754,#755));
#757=FACE_OUTER_BOUND('',#756,.T.);
#758=ADVANCED_FACE('',(#757),#751,.T.);
#759=CARTESIAN_POINT('',(-2.631229E-015,5.262457E-015,5.925000000000003));
#760=DIRECTION('',(-4.440892E-016,8.881784E-016,1.0));
#761=DIRECTION('',(-1.0,0.0,0.0));
#762=AXIS2_PLACEMENT_3D('',#759,#760,#761);
#763=CYLINDRICAL_SURFACE('',#762,2.999999999999996);
#764=ORIENTED_EDGE('',*,*,#534,.T.);
#765=ORIENTED_EDGE('',*,*,#684,.F.);
#766=ORIENTED_EDGE('',*,*,#551,.T.);
#767=ORIENTED_EDGE('',*,*,#628,.T.);
#768=EDGE_LOOP('',(#764,#765,#766,#767));
#769=FACE_OUTER_BOUND('',#768,.T.);
#770=ADVANCED_FACE('',(#769),#763,.T.);
#771=CLOSED_SHELL('',(#562,#632,#657,#688,#699,#716,#758,#770));
#772=MANIFOLD_SOLID_BREP('139',#771);
#773=STYLED_ITEM('NONE',(#341),#772);
#774=CARTESIAN_POINT('',(0.0,0.0,0.0));
#775=DIRECTION('',(0.0,-1.0,0.0));
#776=VECTOR('',#775,1.0);
#777=LINE('',#774,#776);
#778=CARTESIAN_POINT('',(0.0,-1.0,0.0));
#779=TRIMMED_CURVE('D0',#777,(PARAMETER_VALUE(0.0),#774),(PARAMETER_VALUE(1.0),#778),.T.,.PARAMETER.);
#780=COLOUR_RGB('44',0.500000000000000,0.375000000000000,0.0);
#781=CURVE_STYLE('NONE',#782,POSITIVE_LENGTH_MEASURE(0.200000000000000),#780);
#782=DRAUGHTING_PRE_DEFINED_CURVE_FONT('continuous');
#783=PRESENTATION_STYLE_ASSIGNMENT((#781));
#784=STYLED_ITEM('NONE',(#783),#779);
#785=PRESENTATION_LAYER_ASSIGNMENT('Mechanical 8','None',(#779,#792,#799,#806));
#786=INVISIBILITY((#785));
#787=CARTESIAN_POINT('',(0.0,1.0,0.0));
#788=DIRECTION('',(0.0,-1.0,0.0));
#789=VECTOR('',#788,1.0);
#790=LINE('',#787,#789);
#791=CARTESIAN_POINT('',(0.0,0.0,0.0));
#792=TRIMMED_CURVE('CF',#790,(PARAMETER_VALUE(0.0),#787),(PARAMETER_VALUE(1.0),#791),.T.,.PARAMETER.);
#793=STYLED_ITEM('NONE',(#783),#792);
#794=CARTESIAN_POINT('',(1.0,0.0,0.0));
#795=DIRECTION('',(-1.0,0.0,0.0));
#796=VECTOR('',#795,1.0);
#797=LINE('',#794,#796);
#798=CARTESIAN_POINT('',(0.0,0.0,0.0));
#799=TRIMMED_CURVE('CE',#797,(PARAMETER_VALUE(0.0),#794),(PARAMETER_VALUE(1.0),#798),.T.,.PARAMETER.);
#800=STYLED_ITEM('NONE',(#783),#799);
#801=CARTESIAN_POINT('',(0.0,0.0,0.0));
#802=DIRECTION('',(-1.0,0.0,0.0));
#803=VECTOR('',#802,1.0);
#804=LINE('',#801,#803);
#805=CARTESIAN_POINT('',(-1.0,0.0,0.0));
#806=TRIMMED_CURVE('CD',#804,(PARAMETER_VALUE(0.0),#801),(PARAMETER_VALUE(1.0),#805),.T.,.PARAMETER.);
#807=STYLED_ITEM('NONE',(#783),#806);
#808=ADVANCED_BREP_SHAPE_REPRESENTATION('ABSR1',(#194,#334,#430,#519,#772),#28);
#809=SHAPE_REPRESENTATION_RELATIONSHIP('SRRPL1','',#808,#62);
#810=GEOMETRIC_CURVE_SET('GCS1',(#779,#792,#799,#806));
#811=GEOMETRICALLY_BOUNDED_WIREFRAME_SHAPE_REPRESENTATION('GBWSR1',(#810),#28);
#812=SHAPE_REPRESENTATION_RELATIONSHIP('SRRPL2','',#811,#62);
ENDSEC;
END-ISO-10303-21;
