ISO-10303-21;
HEADER;
/****************************************************************
 * Generated by software with PDE/Lib inside                    *
 * PDElib Version v51a, created Mon 11/03/2008                  *
 * International Technegroup Inc. (www.iti-oh.com)              *
 ****************************************************************/
FILE_DESCRIPTION((''),'2;1');
FILE_NAME('CAPPA1651-1150X850.stp','2010-04-15T12:02:24',(''),(''),'Mechanical Desktop 2010','Mechanical Desktop 2010',', , ');
FILE_SCHEMA(('AUTOMOTIVE_DESIGN { 1 2 10303 214 1 1 1 1 }'));
ENDSEC;
DATA;
#8=(NAMED_UNIT(*)PLANE_ANGLE_UNIT()SI_UNIT($,.RADIAN.));
#9=DIMENSIONAL_EXPONENTS(0.0,0.0,0.0,0.0,0.0,0.0,0.0);
#10=PLANE_ANGLE_MEASURE_WITH_UNIT(PLANE_ANGLE_MEASURE(0.017453292500000),#8);
#14=(CONVERSION_BASED_UNIT('DEGREE',#10)NAMED_UNIT(#9)PLANE_ANGLE_UNIT());
#18=(NAMED_UNIT(*)SI_UNIT($,.STERADIAN.)SOLID_ANGLE_UNIT());
#22=(LENGTH_UNIT()NAMED_UNIT(*)SI_UNIT(.MILLI.,.METRE.));
#23=UNCERTAINTY_MEASURE_WITH_UNIT(LENGTH_MEASURE(0.000001000000000),#22,'DISTANCE_ACCURACY_VALUE','');
#28=(GEOMETRIC_REPRESENTATION_CONTEXT(3)GLOBAL_UNCERTAINTY_ASSIGNED_CONTEXT((#23))GLOBAL_UNIT_ASSIGNED_CONTEXT((#14,#18,#22))REPRESENTATION_CONTEXT('None','None'));
#29=APPLICATION_CONTEXT('automotive design');
#30=APPLICATION_PROTOCOL_DEFINITION('INTERNATIONAL_STANDARD','automotive_design',1998,#29);
#31=PRODUCT_CONTEXT('3D Mechanical Parts',#29,'mechanical');
#32=PRODUCT('Product','Product','',(#31));
#33=PRODUCT_RELATED_PRODUCT_CATEGORY('part',$,(#32));
#34=PRODUCT_CATEGORY('part',$);
#35=PERSON('1','Design','Joe',$,$,$);
#36=ORGANIZATION($,'None','None');
#37=PERSON_AND_ORGANIZATION(#35,#36);
#38=PERSON_AND_ORGANIZATION_ROLE('design_owner');
#39=APPLIED_PERSON_AND_ORGANIZATION_ASSIGNMENT(#37,#38,(#32));
#40=PRODUCT_DEFINITION_FORMATION_WITH_SPECIFIED_SOURCE('None','',#32,.BOUGHT.);
#41=PERSON('2','Creator','Joe',$,$,$);
#42=ORGANIZATION($,'None','None');
#43=PERSON_AND_ORGANIZATION(#41,#42);
#44=PERSON_AND_ORGANIZATION_ROLE('creator');
#45=APPLIED_PERSON_AND_ORGANIZATION_ASSIGNMENT(#43,#44,(#40));
#46=PERSON('3','Supplier','Joe',$,$,$);
#47=ORGANIZATION($,'None','None');
#48=PERSON_AND_ORGANIZATION(#46,#47);
#49=PERSON_AND_ORGANIZATION_ROLE('design_supplier');
#50=APPLIED_PERSON_AND_ORGANIZATION_ASSIGNMENT(#48,#49,(#40));
#51=PRODUCT_DEFINITION_CONTEXT('part definition',#29,'design');
#52=PRODUCT_DEFINITION('None','',#40,#51);
#53=PERSON('4','Creator','Joe',$,$,$);
#54=ORGANIZATION($,'None','None');
#55=PERSON_AND_ORGANIZATION(#53,#54);
#56=PERSON_AND_ORGANIZATION_ROLE('creator');
#57=APPLIED_PERSON_AND_ORGANIZATION_ASSIGNMENT(#55,#56,(#52));
#58=CARTESIAN_POINT('NONE',(0.0,0.0,0.0));
#59=DIRECTION('NONE',(0.0,0.0,1.0));
#60=DIRECTION('NONE',(1.0,0.0,0.0));
#61=AXIS2_PLACEMENT_3D('NONE',#58,#59,#60);
#62=SHAPE_REPRESENTATION('SR1',(#61),#28);
#63=PRODUCT_DEFINITION_SHAPE('PDS1','Test Part',#52);
#64=SHAPE_DEFINITION_REPRESENTATION(#63,#62);
#65=CARTESIAN_POINT('',(7.455000000000004,-2.963275E-016,3.949999999999998));
#66=CARTESIAN_POINT('',(7.455000000000004,0.300000000000000,3.949999999999997));
#67=CARTESIAN_POINT('',(7.455000000000004,0.300000000000000,4.249999999999997));
#68=CARTESIAN_POINT('',(7.455000000000005,0.300000000000000,4.549999999999997));
#69=CARTESIAN_POINT('',(7.455000000000004,-1.776357E-016,4.549999999999997));
#70=CARTESIAN_POINT('',(7.955000000000003,-2.963275E-016,3.949999999999998));
#71=CARTESIAN_POINT('',(7.955000000000002,0.300000000000000,3.949999999999997));
#72=CARTESIAN_POINT('',(8.255000000000003,0.300000000000000,4.249999999999997));
#73=CARTESIAN_POINT('',(8.555000000000002,0.300000000000000,4.549999999999997));
#74=CARTESIAN_POINT('',(8.555000000000002,-1.776357E-016,4.549999999999997));
#75=CARTESIAN_POINT('',(7.955000000000003,-4.073498E-016,3.449999999999998));
#76=CARTESIAN_POINT('',(7.955000000000002,0.300000000000000,3.449999999999998));
#77=CARTESIAN_POINT('',(8.255000000000003,0.300000000000000,3.449999999999998));
#78=CARTESIAN_POINT('',(8.555000000000003,0.300000000000000,3.449999999999998));
#79=CARTESIAN_POINT('',(8.555000000000003,-4.218847E-016,3.449999999999998));
#80=CARTESIAN_POINT('',(7.955000000000003,-5.183721E-016,2.949999999999999));
#81=CARTESIAN_POINT('',(7.955000000000002,0.300000000000000,2.950000000000000));
#82=CARTESIAN_POINT('',(8.255000000000003,0.299999999999999,2.650000000000000));
#83=CARTESIAN_POINT('',(8.555000000000002,0.299999999999999,2.350000000000000));
#84=CARTESIAN_POINT('',(8.555000000000002,-6.661338E-016,2.350000000000000));
#85=CARTESIAN_POINT('',(7.455000000000004,-5.183721E-016,2.949999999999999));
#86=CARTESIAN_POINT('',(7.455000000000004,0.300000000000000,2.950000000000000));
#87=CARTESIAN_POINT('',(7.455000000000004,0.299999999999999,2.650000000000000));
#88=CARTESIAN_POINT('',(7.455000000000005,0.299999999999999,2.350000000000000));
#89=CARTESIAN_POINT('',(7.455000000000004,-6.661338E-016,2.350000000000000));
#90=CARTESIAN_POINT('',(6.955000000000004,-5.183721E-016,2.949999999999999));
#91=CARTESIAN_POINT('',(6.955000000000005,0.300000000000000,2.950000000000000));
#92=CARTESIAN_POINT('',(6.655000000000005,0.299999999999999,2.650000000000000));
#93=CARTESIAN_POINT('',(6.355000000000005,0.299999999999999,2.350000000000000));
#94=CARTESIAN_POINT('',(6.355000000000005,-6.661338E-016,2.350000000000000));
#95=CARTESIAN_POINT('',(6.955000000000005,-4.073498E-016,3.449999999999998));
#96=CARTESIAN_POINT('',(6.955000000000005,0.300000000000000,3.449999999999998));
#97=CARTESIAN_POINT('',(6.655000000000005,0.300000000000000,3.449999999999998));
#98=CARTESIAN_POINT('',(6.355000000000005,0.300000000000000,3.449999999999998));
#99=CARTESIAN_POINT('',(6.355000000000005,-4.218847E-016,3.449999999999998));
#100=CARTESIAN_POINT('',(6.955000000000004,-2.963275E-016,3.949999999999998));
#101=CARTESIAN_POINT('',(6.955000000000005,0.300000000000000,3.949999999999997));
#102=CARTESIAN_POINT('',(6.655000000000005,0.300000000000000,4.249999999999997));
#103=CARTESIAN_POINT('',(6.355000000000005,0.300000000000000,4.549999999999997));
#104=CARTESIAN_POINT('',(6.355000000000005,-1.776357E-016,4.549999999999997));
#105=CARTESIAN_POINT('',(7.455000000000004,-2.963275E-016,3.949999999999998));
#106=CARTESIAN_POINT('',(7.455000000000004,0.300000000000000,3.949999999999997));
#107=CARTESIAN_POINT('',(7.455000000000004,0.300000000000000,4.249999999999997));
#108=CARTESIAN_POINT('',(7.455000000000005,0.300000000000000,4.549999999999997));
#109=CARTESIAN_POINT('',(7.455000000000004,-1.776357E-016,4.549999999999997));
#117=(BOUNDED_SURFACE()B_SPLINE_SURFACE(2,2,((#65,#70,#75,#80,#85,#90,#95,#100,#105),(#66,#71,#76,#81,#86,#91,#96,#101,#106),(#67,#72,#77,#82,#87,#92,#97,#102,#107),(#68,#73,#78,#83,#88,#93,#98,#103,#108),(#69,#74,#79,#84,#89,#94,#99,#104,#109)),.UNSPECIFIED.,.F.,.T.,.U.)B_SPLINE_SURFACE_WITH_KNOTS((3,2,3),(3,2,2,2,3),(-3.141592653589794,-1.570796326794897,8.141636E-016),(0.0,1.570796326794897,3.141592653589793,4.712388980384690,6.283185307179586),.UNSPECIFIED.)GEOMETRIC_REPRESENTATION_ITEM()RATIONAL_B_SPLINE_SURFACE(((1.0,0.707106781186548,1.0,0.707106781186548,1.0,0.707106781186548,1.0,0.707106781186548,1.0),(0.707106781186542,0.499999999999996,0.707106781186542,0.499999999999996,0.707106781186542,0.499999999999996,0.707106781186542,0.499999999999996,0.707106781186542),(1.0,0.707106781186548,1.0,0.707106781186548,1.0,0.707106781186548,1.0,0.707106781186548,1.0),(0.707106781186544,0.499999999999998,0.707106781186544,0.499999999999998,0.707106781186544,0.499999999999998,0.707106781186544,0.499999999999998,0.707106781186544),(1.0,0.707106781186548,1.0,0.707106781186548,1.0,0.707106781186548,1.0,0.707106781186548,1.0)))REPRESENTATION_ITEM('')SURFACE());
#118=CARTESIAN_POINT('',(8.555000000000003,-1.776357E-016,3.449999999999999));
#119=VERTEX_POINT('',#118);
#120=CARTESIAN_POINT('',(7.455000000000003,6.661338E-017,4.549999999999997));
#121=VERTEX_POINT('',#120);
#122=CARTESIAN_POINT('',(7.455000000000004,-1.776357E-016,3.449999999999998));
#123=DIRECTION('',(0.0,-1.0,0.0));
#124=DIRECTION('',(0.0,0.0,-1.0));
#125=AXIS2_PLACEMENT_3D('',#122,#123,#124);
#126=CIRCLE('',#125,1.099999999999999);
#127=EDGE_CURVE('',#119,#121,#126,.T.);
#128=ORIENTED_EDGE('',*,*,#127,.F.);
#129=CARTESIAN_POINT('',(8.255000000000003,0.300000000000000,3.449999999999998));
#130=VERTEX_POINT('',#129);
#131=CARTESIAN_POINT('',(8.255000000000003,-1.776357E-016,3.449999999999999));
#132=DIRECTION('',(0.0,0.0,-1.0));
#133=DIRECTION('',(0.0,1.0,0.0));
#134=AXIS2_PLACEMENT_3D('',#131,#132,#133);
#135=CIRCLE('',#134,0.300000000000000);
#136=EDGE_CURVE('',#130,#119,#135,.T.);
#137=ORIENTED_EDGE('',*,*,#136,.F.);
#138=CARTESIAN_POINT('',(7.955000000000003,-1.408975E-016,3.450000000000000));
#139=VERTEX_POINT('',#138);
#140=CARTESIAN_POINT('',(8.255000000000003,-1.776357E-016,3.449999999999999));
#141=DIRECTION('',(0.0,0.0,-1.0));
#142=DIRECTION('',(0.0,1.0,0.0));
#143=AXIS2_PLACEMENT_3D('',#140,#141,#142);
#144=CIRCLE('',#143,0.300000000000000);
#145=EDGE_CURVE('',#139,#130,#144,.T.);
#146=ORIENTED_EDGE('',*,*,#145,.F.);
#147=CARTESIAN_POINT('',(7.455000000000003,-2.987519E-017,3.949999999999998));
#148=VERTEX_POINT('',#147);
#149=CARTESIAN_POINT('',(7.455000000000004,-1.408975E-016,3.449999999999998));
#150=DIRECTION('',(0.0,-1.0,0.0));
#151=DIRECTION('',(0.0,0.0,-1.0));
#152=AXIS2_PLACEMENT_3D('',#149,#150,#151);
#153=CIRCLE('',#152,0.499999999999999);
#154=EDGE_CURVE('',#139,#148,#153,.T.);
#155=ORIENTED_EDGE('',*,*,#154,.T.);
#156=CARTESIAN_POINT('',(7.455000000000004,0.300000000000000,4.249999999999997));
#157=VERTEX_POINT('',#156);
#158=CARTESIAN_POINT('',(7.455000000000003,-1.972152E-031,4.249999999999997));
#159=DIRECTION('',(1.0,0.0,0.0));
#160=DIRECTION('',(0.0,1.0,0.0));
#161=AXIS2_PLACEMENT_3D('',#158,#159,#160);
#162=CIRCLE('',#161,0.300000000000000);
#163=EDGE_CURVE('',#148,#157,#162,.T.);
#164=ORIENTED_EDGE('',*,*,#163,.T.);
#165=CARTESIAN_POINT('',(7.455000000000003,-1.972152E-031,4.249999999999997));
#166=DIRECTION('',(1.0,0.0,0.0));
#167=DIRECTION('',(0.0,1.0,0.0));
#168=AXIS2_PLACEMENT_3D('',#165,#166,#167);
#169=CIRCLE('',#168,0.300000000000000);
#170=EDGE_CURVE('',#157,#121,#169,.T.);
#171=ORIENTED_EDGE('',*,*,#170,.T.);
#172=EDGE_LOOP('',(#128,#137,#146,#155,#164,#171));
#173=FACE_OUTER_BOUND('',#172,.T.);
#174=ADVANCED_FACE('',(#173),#117,.T.);
#175=CARTESIAN_POINT('',(5.749999999999999,-0.300000000000000,4.249999999999998));
#176=CARTESIAN_POINT('',(7.455000000000004,-0.300000000000000,4.249999999999997));
#177=CARTESIAN_POINT('',(5.750000000000000,-0.300000000000000,4.549999999999998));
#178=CARTESIAN_POINT('',(7.455000000000005,-0.300000000000000,4.549999999999997));
#179=CARTESIAN_POINT('',(5.749999999999999,-4.013778E-063,4.549999999999998));
#180=CARTESIAN_POINT('',(7.455000000000004,-1.972152E-031,4.549999999999997));
#181=CARTESIAN_POINT('',(5.750000000000000,0.300000000000000,4.549999999999998));
#182=CARTESIAN_POINT('',(7.455000000000005,0.300000000000000,4.549999999999997));
#183=CARTESIAN_POINT('',(5.749999999999999,0.300000000000000,4.249999999999998));
#184=CARTESIAN_POINT('',(7.455000000000004,0.300000000000000,4.249999999999997));
#185=CARTESIAN_POINT('',(5.750000000000000,0.300000000000000,3.949999999999998));
#186=CARTESIAN_POINT('',(7.455000000000005,0.300000000000000,3.949999999999998));
#187=CARTESIAN_POINT('',(5.749999999999999,-4.013778E-063,3.949999999999998));
#188=CARTESIAN_POINT('',(7.455000000000004,-1.972152E-031,3.949999999999998));
#189=CARTESIAN_POINT('',(5.750000000000000,-0.300000000000000,3.949999999999998));
#190=CARTESIAN_POINT('',(7.455000000000005,-0.300000000000000,3.949999999999998));
#191=CARTESIAN_POINT('',(5.749999999999999,-0.300000000000000,4.249999999999998));
#192=CARTESIAN_POINT('',(7.455000000000004,-0.300000000000000,4.249999999999997));
#200=(BOUNDED_SURFACE()B_SPLINE_SURFACE(1,2,((#175,#177,#179,#181,#183,#185,#187,#189,#191),(#176,#178,#180,#182,#184,#186,#188,#190,#192)),.UNSPECIFIED.,.F.,.T.,.U.)B_SPLINE_SURFACE_WITH_KNOTS((2,2),(3,2,2,2,3),(0.0,5.683333333333349),(0.0,0.471238898038469,0.942477796076938,1.413716694115407,1.884955592153876),.UNSPECIFIED.)GEOMETRIC_REPRESENTATION_ITEM()RATIONAL_B_SPLINE_SURFACE(((1.0,0.707106781186548,1.0,0.707106781186548,1.0,0.707106781186548,1.0,0.707106781186548,1.0),(1.0,0.707106781186548,1.0,0.707106781186548,1.0,0.707106781186548,1.0,0.707106781186548,1.0)))REPRESENTATION_ITEM('')SURFACE());
#201=CARTESIAN_POINT('',(5.749999999999999,0.300000000000000,4.249999999999998));
#202=VERTEX_POINT('',#201);
#203=CARTESIAN_POINT('',(7.455000000000003,0.300000000000000,4.249999999999997));
#204=DIRECTION('',(-1.0,0.0,0.0));
#205=VECTOR('',#204,1.705000000000004);
#206=LINE('',#203,#205);
#207=EDGE_CURVE('',#157,#202,#206,.T.);
#208=ORIENTED_EDGE('',*,*,#207,.F.);
#209=ORIENTED_EDGE('',*,*,#163,.F.);
#210=CARTESIAN_POINT('',(7.455000000000003,-0.300000000000000,4.249999999999997));
#211=VERTEX_POINT('',#210);
#212=CARTESIAN_POINT('',(7.455000000000003,-1.972152E-031,4.249999999999997));
#213=DIRECTION('',(1.0,0.0,0.0));
#214=DIRECTION('',(0.0,1.0,0.0));
#215=AXIS2_PLACEMENT_3D('',#212,#213,#214);
#216=CIRCLE('',#215,0.300000000000000);
#217=EDGE_CURVE('',#211,#148,#216,.T.);
#218=ORIENTED_EDGE('',*,*,#217,.F.);
#219=CARTESIAN_POINT('',(5.749999999999999,-0.300000000000000,4.249999999999998));
#220=VERTEX_POINT('',#219);
#221=CARTESIAN_POINT('',(7.455000000000003,-0.300000000000000,4.249999999999997));
#222=DIRECTION('',(-1.0,0.0,0.0));
#223=VECTOR('',#222,1.705000000000004);
#224=LINE('',#221,#223);
#225=EDGE_CURVE('',#211,#220,#224,.T.);
#226=ORIENTED_EDGE('',*,*,#225,.T.);
#227=CARTESIAN_POINT('',(5.749999999999999,0.0,4.249999999999998));
#228=DIRECTION('',(1.0,0.0,0.0));
#229=DIRECTION('',(0.0,1.0,0.0));
#230=AXIS2_PLACEMENT_3D('',#227,#228,#229);
#231=CIRCLE('',#230,0.300000000000000);
#232=EDGE_CURVE('',#220,#202,#231,.T.);
#233=ORIENTED_EDGE('',*,*,#232,.T.);
#234=EDGE_LOOP('',(#208,#209,#218,#226,#233));
#235=FACE_OUTER_BOUND('',#234,.T.);
#236=ADVANCED_FACE('',(#235),#200,.T.);
#237=CARTESIAN_POINT('',(8.255000000000003,-0.300000000000000,3.450000000000000));
#238=CARTESIAN_POINT('',(8.255000000000003,-0.300000000000002,-3.799999999999999));
#239=CARTESIAN_POINT('',(8.555000000000003,-0.300000000000000,3.450000000000000));
#240=CARTESIAN_POINT('',(8.555000000000003,-0.300000000000002,-3.799999999999999));
#241=CARTESIAN_POINT('',(8.555000000000003,-1.776357E-016,3.450000000000000));
#242=CARTESIAN_POINT('',(8.555000000000003,-1.787459E-015,-3.799999999999999));
#243=CARTESIAN_POINT('',(8.555000000000003,0.300000000000000,3.450000000000000));
#244=CARTESIAN_POINT('',(8.555000000000003,0.299999999999998,-3.799999999999999));
#245=CARTESIAN_POINT('',(8.255000000000003,0.300000000000000,3.450000000000000));
#246=CARTESIAN_POINT('',(8.255000000000003,0.299999999999998,-3.799999999999999));
#247=CARTESIAN_POINT('',(7.955000000000003,0.300000000000000,3.450000000000000));
#248=CARTESIAN_POINT('',(7.955000000000003,0.299999999999998,-3.799999999999999));
#249=CARTESIAN_POINT('',(7.955000000000003,-1.776357E-016,3.450000000000000));
#250=CARTESIAN_POINT('',(7.955000000000003,-1.787459E-015,-3.799999999999999));
#251=CARTESIAN_POINT('',(7.955000000000003,-0.300000000000000,3.450000000000000));
#252=CARTESIAN_POINT('',(7.955000000000003,-0.300000000000002,-3.799999999999999));
#253=CARTESIAN_POINT('',(8.255000000000003,-0.300000000000000,3.450000000000000));
#254=CARTESIAN_POINT('',(8.255000000000003,-0.300000000000002,-3.799999999999999));
#262=(BOUNDED_SURFACE()B_SPLINE_SURFACE(1,2,((#237,#239,#241,#243,#245,#247,#249,#251,#253),(#238,#240,#242,#244,#246,#248,#250,#252,#254)),.UNSPECIFIED.,.F.,.T.,.U.)B_SPLINE_SURFACE_WITH_KNOTS((2,2),(3,2,2,2,3),(-1.480297E-015,24.166666666666661),(0.0,0.471238898038469,0.942477796076938,1.413716694115407,1.884955592153876),.UNSPECIFIED.)GEOMETRIC_REPRESENTATION_ITEM()RATIONAL_B_SPLINE_SURFACE(((1.0,0.707106781186548,1.0,0.707106781186548,1.0,0.707106781186548,1.0,0.707106781186548,1.0),(1.0,0.707106781186548,1.0,0.707106781186548,1.0,0.707106781186548,1.0,0.707106781186548,1.0)))REPRESENTATION_ITEM('')SURFACE());
#263=CARTESIAN_POINT('',(8.255000000000003,0.299999999999998,-3.799999999999999));
#264=VERTEX_POINT('',#263);
#265=CARTESIAN_POINT('',(8.255000000000003,0.299999999999998,-3.799999999999997));
#266=DIRECTION('',(0.0,0.0,1.0));
#267=VECTOR('',#266,7.249999999999995);
#268=LINE('',#265,#267);
#269=EDGE_CURVE('',#264,#130,#268,.T.);
#270=ORIENTED_EDGE('',*,*,#269,.F.);
#271=CARTESIAN_POINT('',(8.255000000000003,-0.300000000000002,-3.799999999999997));
#272=VERTEX_POINT('',#271);
#273=CARTESIAN_POINT('',(8.255000000000003,-1.787459E-015,-3.799999999999998));
#274=DIRECTION('',(0.0,0.0,-1.0));
#275=DIRECTION('',(0.0,1.0,0.0));
#276=AXIS2_PLACEMENT_3D('',#273,#274,#275);
#277=CIRCLE('',#276,0.300000000000000);
#278=EDGE_CURVE('',#272,#264,#277,.T.);
#279=ORIENTED_EDGE('',*,*,#278,.F.);
#280=CARTESIAN_POINT('',(8.255000000000003,-0.300000000000000,3.449999999999999));
#281=VERTEX_POINT('',#280);
#282=CARTESIAN_POINT('',(8.255000000000003,-0.300000000000002,-3.799999999999997));
#283=DIRECTION('',(0.0,0.0,1.0));
#284=VECTOR('',#283,7.249999999999996);
#285=LINE('',#282,#284);
#286=EDGE_CURVE('',#272,#281,#285,.T.);
#287=ORIENTED_EDGE('',*,*,#286,.T.);
#288=CARTESIAN_POINT('',(8.255000000000003,-1.776357E-016,3.449999999999999));
#289=DIRECTION('',(0.0,0.0,-1.0));
#290=DIRECTION('',(0.0,1.0,0.0));
#291=AXIS2_PLACEMENT_3D('',#288,#289,#290);
#292=CIRCLE('',#291,0.300000000000000);
#293=EDGE_CURVE('',#281,#139,#292,.T.);
#294=ORIENTED_EDGE('',*,*,#293,.T.);
#295=ORIENTED_EDGE('',*,*,#145,.T.);
#296=EDGE_LOOP('',(#270,#279,#287,#294,#295));
#297=FACE_OUTER_BOUND('',#296,.T.);
#298=ADVANCED_FACE('',(#297),#262,.T.);
#299=CARTESIAN_POINT('',(8.255000000000003,-0.300000000000000,3.449999999999999));
#300=CARTESIAN_POINT('',(8.255000000000003,-0.300000000000002,-3.799999999999999));
#301=CARTESIAN_POINT('',(8.555000000000003,-0.300000000000000,3.449999999999999));
#302=CARTESIAN_POINT('',(8.555000000000003,-0.300000000000002,-3.799999999999999));
#303=CARTESIAN_POINT('',(8.555000000000003,-1.776357E-016,3.449999999999999));
#304=CARTESIAN_POINT('',(8.555000000000003,-1.787459E-015,-3.799999999999999));
#305=CARTESIAN_POINT('',(8.555000000000003,0.300000000000000,3.449999999999999));
#306=CARTESIAN_POINT('',(8.555000000000003,0.299999999999998,-3.799999999999999));
#307=CARTESIAN_POINT('',(8.255000000000003,0.300000000000000,3.449999999999999));
#308=CARTESIAN_POINT('',(8.255000000000003,0.299999999999998,-3.799999999999999));
#309=CARTESIAN_POINT('',(7.955000000000003,0.300000000000000,3.449999999999999));
#310=CARTESIAN_POINT('',(7.955000000000003,0.299999999999998,-3.799999999999999));
#311=CARTESIAN_POINT('',(7.955000000000003,-1.776357E-016,3.449999999999999));
#312=CARTESIAN_POINT('',(7.955000000000003,-1.787459E-015,-3.799999999999999));
#313=CARTESIAN_POINT('',(7.955000000000003,-0.300000000000000,3.449999999999999));
#314=CARTESIAN_POINT('',(7.955000000000003,-0.300000000000002,-3.799999999999999));
#315=CARTESIAN_POINT('',(8.255000000000003,-0.300000000000000,3.449999999999999));
#316=CARTESIAN_POINT('',(8.255000000000003,-0.300000000000002,-3.799999999999999));
#324=(BOUNDED_SURFACE()B_SPLINE_SURFACE(1,2,((#299,#301,#303,#305,#307,#309,#311,#313,#315),(#300,#302,#304,#306,#308,#310,#312,#314,#316)),.UNSPECIFIED.,.F.,.T.,.U.)B_SPLINE_SURFACE_WITH_KNOTS((2,2),(3,2,2,2,3),(0.0,24.166666666666661),(0.0,0.471238898038469,0.942477796076938,1.413716694115407,1.884955592153876),.UNSPECIFIED.)GEOMETRIC_REPRESENTATION_ITEM()RATIONAL_B_SPLINE_SURFACE(((1.0,0.707106781186548,1.0,0.707106781186548,1.0,0.707106781186548,1.0,0.707106781186548,1.0),(1.0,0.707106781186548,1.0,0.707106781186548,1.0,0.707106781186548,1.0,0.707106781186548,1.0)))REPRESENTATION_ITEM('')SURFACE());
#325=ORIENTED_EDGE('',*,*,#269,.T.);
#326=ORIENTED_EDGE('',*,*,#136,.T.);
#327=CARTESIAN_POINT('',(8.255000000000003,-1.776357E-016,3.449999999999999));
#328=DIRECTION('',(0.0,0.0,-1.0));
#329=DIRECTION('',(0.0,1.0,0.0));
#330=AXIS2_PLACEMENT_3D('',#327,#328,#329);
#331=CIRCLE('',#330,0.300000000000000);
#332=EDGE_CURVE('',#119,#281,#331,.T.);
#333=ORIENTED_EDGE('',*,*,#332,.T.);
#334=ORIENTED_EDGE('',*,*,#286,.F.);
#335=CARTESIAN_POINT('',(8.255000000000003,-1.787459E-015,-3.799999999999998));
#336=DIRECTION('',(0.0,0.0,-1.0));
#337=DIRECTION('',(0.0,1.0,0.0));
#338=AXIS2_PLACEMENT_3D('',#335,#336,#337);
#339=CIRCLE('',#338,0.300000000000000);
#340=EDGE_CURVE('',#264,#272,#339,.T.);
#341=ORIENTED_EDGE('',*,*,#340,.F.);
#342=EDGE_LOOP('',(#325,#326,#333,#334,#341));
#343=FACE_OUTER_BOUND('',#342,.T.);
#344=ADVANCED_FACE('',(#343),#324,.T.);
#345=CARTESIAN_POINT('',(7.455000000000004,3.292315E-016,4.549999999999997));
#346=CARTESIAN_POINT('',(7.455000000000004,-0.300000000000000,4.549999999999997));
#347=CARTESIAN_POINT('',(7.455000000000004,-0.300000000000000,4.249999999999997));
#348=CARTESIAN_POINT('',(7.455000000000005,-0.300000000000000,3.949999999999998));
#349=CARTESIAN_POINT('',(7.455000000000004,1.631007E-016,3.949999999999998));
#350=CARTESIAN_POINT('',(8.555000000000002,3.292315E-016,4.549999999999997));
#351=CARTESIAN_POINT('',(8.555000000000002,-0.300000000000000,4.549999999999997));
#352=CARTESIAN_POINT('',(8.255000000000003,-0.300000000000000,4.249999999999997));
#353=CARTESIAN_POINT('',(7.955000000000003,-0.300000000000000,3.949999999999998));
#354=CARTESIAN_POINT('',(7.955000000000003,1.631007E-016,3.949999999999998));
#355=CARTESIAN_POINT('',(8.555000000000003,8.498248E-017,3.449999999999998));
#356=CARTESIAN_POINT('',(8.555000000000003,-0.300000000000000,3.449999999999998));
#357=CARTESIAN_POINT('',(8.255000000000003,-0.300000000000000,3.449999999999998));
#358=CARTESIAN_POINT('',(7.955000000000003,-0.300000000000000,3.449999999999998));
#359=CARTESIAN_POINT('',(7.955000000000003,5.207844E-017,3.449999999999998));
#360=CARTESIAN_POINT('',(8.555000000000002,-1.592666E-016,2.350000000000000));
#361=CARTESIAN_POINT('',(8.555000000000002,-0.300000000000000,2.350000000000000));
#362=CARTESIAN_POINT('',(8.255000000000003,-0.300000000000000,2.650000000000000));
#363=CARTESIAN_POINT('',(7.955000000000003,-0.300000000000000,2.949999999999999));
#364=CARTESIAN_POINT('',(7.955000000000003,-5.894386E-017,2.949999999999999));
#365=CARTESIAN_POINT('',(7.455000000000004,-1.592666E-016,2.350000000000000));
#366=CARTESIAN_POINT('',(7.455000000000004,-0.300000000000000,2.350000000000000));
#367=CARTESIAN_POINT('',(7.455000000000004,-0.300000000000000,2.650000000000000));
#368=CARTESIAN_POINT('',(7.455000000000005,-0.300000000000000,2.949999999999999));
#369=CARTESIAN_POINT('',(7.455000000000004,-5.894386E-017,2.949999999999999));
#370=CARTESIAN_POINT('',(6.355000000000005,-1.592666E-016,2.350000000000000));
#371=CARTESIAN_POINT('',(6.355000000000005,-0.300000000000000,2.350000000000000));
#372=CARTESIAN_POINT('',(6.655000000000005,-0.300000000000000,2.650000000000000));
#373=CARTESIAN_POINT('',(6.955000000000005,-0.300000000000000,2.949999999999999));
#374=CARTESIAN_POINT('',(6.955000000000004,-5.894386E-017,2.949999999999999));
#375=CARTESIAN_POINT('',(6.355000000000005,8.498248E-017,3.449999999999998));
#376=CARTESIAN_POINT('',(6.355000000000006,-0.300000000000000,3.449999999999998));
#377=CARTESIAN_POINT('',(6.655000000000005,-0.300000000000000,3.449999999999998));
#378=CARTESIAN_POINT('',(6.955000000000004,-0.300000000000000,3.449999999999998));
#379=CARTESIAN_POINT('',(6.955000000000005,5.207844E-017,3.449999999999998));
#380=CARTESIAN_POINT('',(6.355000000000005,3.292315E-016,4.549999999999997));
#381=CARTESIAN_POINT('',(6.355000000000005,-0.300000000000000,4.549999999999997));
#382=CARTESIAN_POINT('',(6.655000000000005,-0.300000000000000,4.249999999999997));
#383=CARTESIAN_POINT('',(6.955000000000005,-0.300000000000000,3.949999999999998));
#384=CARTESIAN_POINT('',(6.955000000000004,1.631007E-016,3.949999999999998));
#385=CARTESIAN_POINT('',(7.455000000000004,3.292315E-016,4.549999999999997));
#386=CARTESIAN_POINT('',(7.455000000000004,-0.300000000000000,4.549999999999997));
#387=CARTESIAN_POINT('',(7.455000000000004,-0.300000000000000,4.249999999999997));
#388=CARTESIAN_POINT('',(7.455000000000005,-0.300000000000000,3.949999999999998));
#389=CARTESIAN_POINT('',(7.455000000000004,1.631007E-016,3.949999999999998));
#397=(BOUNDED_SURFACE()B_SPLINE_SURFACE(2,2,((#345,#350,#355,#360,#365,#370,#375,#380,#385),(#346,#351,#356,#361,#366,#371,#376,#381,#386),(#347,#352,#357,#362,#367,#372,#377,#382,#387),(#348,#353,#358,#363,#368,#373,#378,#383,#388),(#349,#354,#359,#364,#369,#374,#379,#384,#389)),.UNSPECIFIED.,.F.,.T.,.U.)B_SPLINE_SURFACE_WITH_KNOTS((3,2,3),(3,2,2,2,3),(-8.753939E-016,1.570796326794897,3.141592653589794),(0.0,1.570796326794897,3.141592653589793,4.712388980384690,6.283185307179586),.UNSPECIFIED.)GEOMETRIC_REPRESENTATION_ITEM()RATIONAL_B_SPLINE_SURFACE(((1.0,0.707106781186548,1.0,0.707106781186548,1.0,0.707106781186548,1.0,0.707106781186548,1.0),(0.707106781186553,0.500000000000004,0.707106781186553,0.500000000000004,0.707106781186553,0.500000000000004,0.707106781186553,0.500000000000004,0.707106781186553),(1.0,0.707106781186548,1.0,0.707106781186548,1.0,0.707106781186548,1.0,0.707106781186548,1.0),(0.707106781186544,0.499999999999998,0.707106781186544,0.499999999999998,0.707106781186544,0.499999999999998,0.707106781186544,0.499999999999998,0.707106781186544),(1.0,0.707106781186548,1.0,0.707106781186548,1.0,0.707106781186548,1.0,0.707106781186548,1.0)))REPRESENTATION_ITEM('')SURFACE());
#398=ORIENTED_EDGE('',*,*,#127,.T.);
#399=CARTESIAN_POINT('',(7.455000000000003,-1.972152E-031,4.249999999999997));
#400=DIRECTION('',(1.0,0.0,0.0));
#401=DIRECTION('',(0.0,1.0,0.0));
#402=AXIS2_PLACEMENT_3D('',#399,#400,#401);
#403=CIRCLE('',#402,0.300000000000000);
#404=EDGE_CURVE('',#121,#211,#403,.T.);
#405=ORIENTED_EDGE('',*,*,#404,.T.);
#406=ORIENTED_EDGE('',*,*,#217,.T.);
#407=ORIENTED_EDGE('',*,*,#154,.F.);
#408=ORIENTED_EDGE('',*,*,#293,.F.);
#409=ORIENTED_EDGE('',*,*,#332,.F.);
#410=EDGE_LOOP('',(#398,#405,#406,#407,#408,#409));
#411=FACE_OUTER_BOUND('',#410,.T.);
#412=ADVANCED_FACE('',(#411),#397,.T.);
#413=CARTESIAN_POINT('',(5.749999999999998,-0.300000000000000,4.249999999999998));
#414=CARTESIAN_POINT('',(7.455000000000004,-0.300000000000000,4.249999999999997));
#415=CARTESIAN_POINT('',(5.749999999999998,-0.300000000000000,4.549999999999998));
#416=CARTESIAN_POINT('',(7.455000000000005,-0.300000000000000,4.549999999999997));
#417=CARTESIAN_POINT('',(5.749999999999998,1.027345E-046,4.549999999999998));
#418=CARTESIAN_POINT('',(7.455000000000004,-1.972152E-031,4.549999999999997));
#419=CARTESIAN_POINT('',(5.749999999999998,0.300000000000000,4.549999999999998));
#420=CARTESIAN_POINT('',(7.455000000000005,0.300000000000000,4.549999999999997));
#421=CARTESIAN_POINT('',(5.749999999999998,0.300000000000000,4.249999999999998));
#422=CARTESIAN_POINT('',(7.455000000000004,0.300000000000000,4.249999999999997));
#423=CARTESIAN_POINT('',(5.749999999999998,0.300000000000000,3.949999999999998));
#424=CARTESIAN_POINT('',(7.455000000000005,0.300000000000000,3.949999999999998));
#425=CARTESIAN_POINT('',(5.749999999999998,1.027345E-046,3.949999999999998));
#426=CARTESIAN_POINT('',(7.455000000000004,-1.972152E-031,3.949999999999998));
#427=CARTESIAN_POINT('',(5.749999999999998,-0.300000000000000,3.949999999999998));
#428=CARTESIAN_POINT('',(7.455000000000005,-0.300000000000000,3.949999999999998));
#429=CARTESIAN_POINT('',(5.749999999999998,-0.300000000000000,4.249999999999998));
#430=CARTESIAN_POINT('',(7.455000000000004,-0.300000000000000,4.249999999999997));
#438=(BOUNDED_SURFACE()B_SPLINE_SURFACE(1,2,((#413,#415,#417,#419,#421,#423,#425,#427,#429),(#414,#416,#418,#420,#422,#424,#426,#428,#430)),.UNSPECIFIED.,.F.,.T.,.U.)B_SPLINE_SURFACE_WITH_KNOTS((2,2),(3,2,2,2,3),(-2.960595E-015,5.683333333333349),(0.0,0.471238898038469,0.942477796076938,1.413716694115407,1.884955592153876),.UNSPECIFIED.)GEOMETRIC_REPRESENTATION_ITEM()RATIONAL_B_SPLINE_SURFACE(((1.0,0.707106781186548,1.0,0.707106781186548,1.0,0.707106781186548,1.0,0.707106781186548,1.0),(1.0,0.707106781186548,1.0,0.707106781186548,1.0,0.707106781186548,1.0,0.707106781186548,1.0)))REPRESENTATION_ITEM('')SURFACE());
#439=ORIENTED_EDGE('',*,*,#207,.T.);
#440=CARTESIAN_POINT('',(5.749999999999999,0.0,4.249999999999998));
#441=DIRECTION('',(1.0,0.0,0.0));
#442=DIRECTION('',(0.0,1.0,0.0));
#443=AXIS2_PLACEMENT_3D('',#440,#441,#442);
#444=CIRCLE('',#443,0.300000000000000);
#445=EDGE_CURVE('',#202,#220,#444,.T.);
#446=ORIENTED_EDGE('',*,*,#445,.T.);
#447=ORIENTED_EDGE('',*,*,#225,.F.);
#448=ORIENTED_EDGE('',*,*,#404,.F.);
#449=ORIENTED_EDGE('',*,*,#170,.F.);
#450=EDGE_LOOP('',(#439,#446,#447,#448,#449));
#451=FACE_OUTER_BOUND('',#450,.T.);
#452=ADVANCED_FACE('',(#451),#438,.T.);
#453=CARTESIAN_POINT('',(8.555000000000003,0.299999999999998,-3.799999999999999));
#454=CARTESIAN_POINT('',(7.955000000000003,0.299999999999998,-3.799999999999999));
#455=CARTESIAN_POINT('',(8.555000000000003,-0.300000000000002,-3.799999999999999));
#456=CARTESIAN_POINT('',(7.955000000000002,-0.300000000000002,-3.799999999999999));
#457=B_SPLINE_SURFACE_WITH_KNOTS('',1,1,((#453,#455),(#454,#456)),.UNSPECIFIED.,.F.,.F.,.U.,(2,2),(2,2),(0.0,0.600000000000001),(0.0,0.600000000000000),.UNSPECIFIED.);
#458=ORIENTED_EDGE('',*,*,#340,.T.);
#459=ORIENTED_EDGE('',*,*,#278,.T.);
#460=EDGE_LOOP('',(#458,#459));
#461=FACE_OUTER_BOUND('',#460,.T.);
#462=ADVANCED_FACE('',(#461),#457,.F.);
#463=CARTESIAN_POINT('',(5.749999999999999,0.300000000000000,4.549999999999998));
#464=CARTESIAN_POINT('',(5.749999999999999,0.300000000000000,3.949999999999999));
#465=CARTESIAN_POINT('',(5.749999999999999,-0.300000000000000,4.549999999999998));
#466=CARTESIAN_POINT('',(5.749999999999999,-0.300000000000000,3.949999999999998));
#467=B_SPLINE_SURFACE_WITH_KNOTS('',1,1,((#463,#465),(#464,#466)),.UNSPECIFIED.,.F.,.F.,.U.,(2,2),(2,2),(0.0,0.599999999999999),(0.0,0.600000000000000),.UNSPECIFIED.);
#468=ORIENTED_EDGE('',*,*,#445,.F.);
#469=ORIENTED_EDGE('',*,*,#232,.F.);
#470=EDGE_LOOP('',(#468,#469));
#471=FACE_OUTER_BOUND('',#470,.T.);
#472=ADVANCED_FACE('',(#471),#467,.T.);
#473=CLOSED_SHELL('',(#174,#236,#298,#344,#412,#452,#462,#472));
#474=MANIFOLD_SOLID_BREP('716',#473);
#475=COLOUR_RGB('253',0.732000000000000,0.732000000000000,0.732000000000000);
#476=SURFACE_STYLE_USAGE(.BOTH.,#477);
#477=SURFACE_SIDE_STYLE('NONE',(#478));
#478=SURFACE_STYLE_FILL_AREA(#479);
#479=FILL_AREA_STYLE('NONE',(#480));
#480=FILL_AREA_STYLE_COLOUR('NONE',#475);
#481=PRESENTATION_STYLE_ASSIGNMENT((#476));
#482=STYLED_ITEM('NONE',(#481),#474);
#483=MECHANICAL_DESIGN_GEOMETRIC_PRESENTATION_REPRESENTATION('NONE',(#482,#580,#676,#907,#1593),#28);
#484=PRESENTATION_LAYER_ASSIGNMENT('3D','None',(#474,#572,#668,#906,#1585));
#485=CARTESIAN_POINT('',(5.449999999999999,7.837481E-016,4.250000000000001));
#486=DIRECTION('',(1.0,0.0,0.0));
#487=DIRECTION('',(0.0,1.0,0.0));
#488=AXIS2_PLACEMENT_3D('',#485,#486,#487);
#489=CYLINDRICAL_SURFACE('',#488,3.200000000000000);
#490=CARTESIAN_POINT('',(5.650000000000000,3.200000000000001,4.250000000000001));
#491=VERTEX_POINT('',#490);
#492=CARTESIAN_POINT('',(5.449999999999999,3.200000000000001,4.250000000000001));
#493=VERTEX_POINT('',#492);
#494=CARTESIAN_POINT('',(5.650000000000000,3.200000000000001,4.250000000000001));
#495=DIRECTION('',(-1.0,0.0,0.0));
#496=VECTOR('',#495,0.200000000000000);
#497=LINE('',#494,#496);
#498=EDGE_CURVE('',#491,#493,#497,.T.);
#499=ORIENTED_EDGE('',*,*,#498,.F.);
#500=CARTESIAN_POINT('',(5.650000000000000,-3.199999999999999,4.250000000000001));
#501=VERTEX_POINT('',#500);
#502=CARTESIAN_POINT('',(5.650000000000000,7.837481E-016,4.250000000000001));
#503=DIRECTION('',(-1.0,0.0,0.0));
#504=DIRECTION('',(0.0,1.0,0.0));
#505=AXIS2_PLACEMENT_3D('',#502,#503,#504);
#506=CIRCLE('',#505,3.200000000000000);
#507=EDGE_CURVE('',#491,#501,#506,.T.);
#508=ORIENTED_EDGE('',*,*,#507,.T.);
#509=CARTESIAN_POINT('',(5.449999999999999,-3.199999999999999,4.250000000000001));
#510=VERTEX_POINT('',#509);
#511=CARTESIAN_POINT('',(5.650000000000000,-3.199999999999999,4.250000000000001));
#512=DIRECTION('',(-1.0,0.0,0.0));
#513=VECTOR('',#512,0.200000000000000);
#514=LINE('',#511,#513);
#515=EDGE_CURVE('',#501,#510,#514,.T.);
#516=ORIENTED_EDGE('',*,*,#515,.T.);
#517=CARTESIAN_POINT('',(5.449999999999999,7.837481E-016,4.250000000000001));
#518=DIRECTION('',(1.0,0.0,0.0));
#519=DIRECTION('',(0.0,1.0,0.0));
#520=AXIS2_PLACEMENT_3D('',#517,#518,#519);
#521=CIRCLE('',#520,3.200000000000000);
#522=EDGE_CURVE('',#510,#493,#521,.T.);
#523=ORIENTED_EDGE('',*,*,#522,.T.);
#524=EDGE_LOOP('',(#499,#508,#516,#523));
#525=FACE_OUTER_BOUND('',#524,.T.);
#526=ADVANCED_FACE('',(#525),#489,.T.);
#527=CARTESIAN_POINT('',(5.449999999999999,7.837481E-016,4.250000000000001));
#528=DIRECTION('',(1.0,0.0,0.0));
#529=DIRECTION('',(0.0,1.0,0.0));
#530=AXIS2_PLACEMENT_3D('',#527,#528,#529);
#531=CYLINDRICAL_SURFACE('',#530,3.200000000000000);
#532=ORIENTED_EDGE('',*,*,#498,.T.);
#533=CARTESIAN_POINT('',(5.449999999999999,7.837481E-016,4.250000000000001));
#534=DIRECTION('',(1.0,0.0,0.0));
#535=DIRECTION('',(0.0,1.0,0.0));
#536=AXIS2_PLACEMENT_3D('',#533,#534,#535);
#537=CIRCLE('',#536,3.200000000000000);
#538=EDGE_CURVE('',#493,#510,#537,.T.);
#539=ORIENTED_EDGE('',*,*,#538,.T.);
#540=ORIENTED_EDGE('',*,*,#515,.F.);
#541=CARTESIAN_POINT('',(5.650000000000000,7.837481E-016,4.250000000000001));
#542=DIRECTION('',(-1.0,0.0,0.0));
#543=DIRECTION('',(0.0,1.0,0.0));
#544=AXIS2_PLACEMENT_3D('',#541,#542,#543);
#545=CIRCLE('',#544,3.200000000000000);
#546=EDGE_CURVE('',#501,#491,#545,.T.);
#547=ORIENTED_EDGE('',*,*,#546,.T.);
#548=EDGE_LOOP('',(#532,#539,#540,#547));
#549=FACE_OUTER_BOUND('',#548,.T.);
#550=ADVANCED_FACE('',(#549),#531,.T.);
#551=CARTESIAN_POINT('',(5.449999999999999,7.837481E-016,4.250000000000001));
#552=DIRECTION('',(1.0,0.0,0.0));
#553=DIRECTION('',(0.0,0.0,-1.0));
#554=AXIS2_PLACEMENT_3D('',#551,#552,#553);
#555=PLANE('',#554);
#556=ORIENTED_EDGE('',*,*,#538,.F.);
#557=ORIENTED_EDGE('',*,*,#522,.F.);
#558=EDGE_LOOP('',(#556,#557));
#559=FACE_OUTER_BOUND('',#558,.T.);
#560=ADVANCED_FACE('',(#559),#555,.F.);
#561=CARTESIAN_POINT('',(5.650000000000000,7.837481E-016,4.250000000000001));
#562=DIRECTION('',(1.0,0.0,0.0));
#563=DIRECTION('',(0.0,0.0,-1.0));
#564=AXIS2_PLACEMENT_3D('',#561,#562,#563);
#565=PLANE('',#564);
#566=ORIENTED_EDGE('',*,*,#507,.F.);
#567=ORIENTED_EDGE('',*,*,#546,.F.);
#568=EDGE_LOOP('',(#566,#567));
#569=FACE_OUTER_BOUND('',#568,.T.);
#570=ADVANCED_FACE('',(#569),#565,.T.);
#571=CLOSED_SHELL('',(#526,#550,#560,#570));
#572=MANIFOLD_SOLID_BREP('705',#571);
#573=COLOUR_RGB('254',0.866000000000000,0.866000000000000,0.866000000000000);
#574=SURFACE_STYLE_USAGE(.BOTH.,#575);
#575=SURFACE_SIDE_STYLE('NONE',(#576));
#576=SURFACE_STYLE_FILL_AREA(#577);
#577=FILL_AREA_STYLE('NONE',(#578));
#578=FILL_AREA_STYLE_COLOUR('NONE',#573);
#579=PRESENTATION_STYLE_ASSIGNMENT((#574));
#580=STYLED_ITEM('NONE',(#579),#572);
#581=CARTESIAN_POINT('',(-5.649999999999999,0.0,4.249999999999998));
#582=DIRECTION('',(1.0,0.0,0.0));
#583=DIRECTION('',(0.0,1.0,0.0));
#584=AXIS2_PLACEMENT_3D('',#581,#582,#583);
#585=CYLINDRICAL_SURFACE('',#584,3.200000000000000);
#586=CARTESIAN_POINT('',(-5.449999999999998,3.200000000000000,4.249999999999998));
#587=VERTEX_POINT('',#586);
#588=CARTESIAN_POINT('',(-5.649999999999999,3.200000000000000,4.249999999999998));
#589=VERTEX_POINT('',#588);
#590=CARTESIAN_POINT('',(-5.449999999999998,3.200000000000000,4.249999999999998));
#591=DIRECTION('',(-1.0,0.0,0.0));
#592=VECTOR('',#591,0.200000000000000);
#593=LINE('',#590,#592);
#594=EDGE_CURVE('',#587,#589,#593,.T.);
#595=ORIENTED_EDGE('',*,*,#594,.F.);
#596=CARTESIAN_POINT('',(-5.449999999999998,-3.200000000000000,4.249999999999998));
#597=VERTEX_POINT('',#596);
#598=CARTESIAN_POINT('',(-5.449999999999998,0.0,4.249999999999998));
#599=DIRECTION('',(-1.0,0.0,0.0));
#600=DIRECTION('',(0.0,1.0,0.0));
#601=AXIS2_PLACEMENT_3D('',#598,#599,#600);
#602=CIRCLE('',#601,3.200000000000000);
#603=EDGE_CURVE('',#587,#597,#602,.T.);
#604=ORIENTED_EDGE('',*,*,#603,.T.);
#605=CARTESIAN_POINT('',(-5.649999999999999,-3.200000000000000,4.249999999999998));
#606=VERTEX_POINT('',#605);
#607=CARTESIAN_POINT('',(-5.449999999999998,-3.200000000000000,4.249999999999998));
#608=DIRECTION('',(-1.0,0.0,0.0));
#609=VECTOR('',#608,0.200000000000000);
#610=LINE('',#607,#609);
#611=EDGE_CURVE('',#597,#606,#610,.T.);
#612=ORIENTED_EDGE('',*,*,#611,.T.);
#613=CARTESIAN_POINT('',(-5.649999999999999,0.0,4.249999999999998));
#614=DIRECTION('',(1.0,0.0,0.0));
#615=DIRECTION('',(0.0,1.0,0.0));
#616=AXIS2_PLACEMENT_3D('',#613,#614,#615);
#617=CIRCLE('',#616,3.200000000000000);
#618=EDGE_CURVE('',#606,#589,#617,.T.);
#619=ORIENTED_EDGE('',*,*,#618,.T.);
#620=EDGE_LOOP('',(#595,#604,#612,#619));
#621=FACE_OUTER_BOUND('',#620,.T.);
#622=ADVANCED_FACE('',(#621),#585,.T.);
#623=CARTESIAN_POINT('',(-5.649999999999999,0.0,4.249999999999998));
#624=DIRECTION('',(1.0,0.0,0.0));
#625=DIRECTION('',(0.0,1.0,0.0));
#626=AXIS2_PLACEMENT_3D('',#623,#624,#625);
#627=CYLINDRICAL_SURFACE('',#626,3.200000000000000);
#628=ORIENTED_EDGE('',*,*,#594,.T.);
#629=CARTESIAN_POINT('',(-5.649999999999999,0.0,4.249999999999998));
#630=DIRECTION('',(1.0,0.0,0.0));
#631=DIRECTION('',(0.0,1.0,0.0));
#632=AXIS2_PLACEMENT_3D('',#629,#630,#631);
#633=CIRCLE('',#632,3.200000000000000);
#634=EDGE_CURVE('',#589,#606,#633,.T.);
#635=ORIENTED_EDGE('',*,*,#634,.T.);
#636=ORIENTED_EDGE('',*,*,#611,.F.);
#637=CARTESIAN_POINT('',(-5.449999999999998,0.0,4.249999999999998));
#638=DIRECTION('',(-1.0,0.0,0.0));
#639=DIRECTION('',(0.0,1.0,0.0));
#640=AXIS2_PLACEMENT_3D('',#637,#638,#639);
#641=CIRCLE('',#640,3.200000000000000);
#642=EDGE_CURVE('',#597,#587,#641,.T.);
#643=ORIENTED_EDGE('',*,*,#642,.T.);
#644=EDGE_LOOP('',(#628,#635,#636,#643));
#645=FACE_OUTER_BOUND('',#644,.T.);
#646=ADVANCED_FACE('',(#645),#627,.T.);
#647=CARTESIAN_POINT('',(-5.649999999999999,0.0,4.249999999999998));
#648=DIRECTION('',(1.0,0.0,0.0));
#649=DIRECTION('',(0.0,0.0,-1.0));
#650=AXIS2_PLACEMENT_3D('',#647,#648,#649);
#651=PLANE('',#650);
#652=ORIENTED_EDGE('',*,*,#634,.F.);
#653=ORIENTED_EDGE('',*,*,#618,.F.);
#654=EDGE_LOOP('',(#652,#653));
#655=FACE_OUTER_BOUND('',#654,.T.);
#656=ADVANCED_FACE('',(#655),#651,.F.);
#657=CARTESIAN_POINT('',(-5.449999999999998,0.0,4.249999999999998));
#658=DIRECTION('',(1.0,0.0,0.0));
#659=DIRECTION('',(0.0,0.0,-1.0));
#660=AXIS2_PLACEMENT_3D('',#657,#658,#659);
#661=PLANE('',#660);
#662=ORIENTED_EDGE('',*,*,#603,.F.);
#663=ORIENTED_EDGE('',*,*,#642,.F.);
#664=EDGE_LOOP('',(#662,#663));
#665=FACE_OUTER_BOUND('',#664,.T.);
#666=ADVANCED_FACE('',(#665),#661,.T.);
#667=CLOSED_SHELL('',(#622,#646,#656,#666));
#668=MANIFOLD_SOLID_BREP('6F6',#667);
#669=COLOUR_RGB('250',0.330000000000000,0.330000000000000,0.330000000000000);
#670=SURFACE_STYLE_USAGE(.BOTH.,#671);
#671=SURFACE_SIDE_STYLE('NONE',(#672));
#672=SURFACE_STYLE_FILL_AREA(#673);
#673=FILL_AREA_STYLE('NONE',(#674));
#674=FILL_AREA_STYLE_COLOUR('NONE',#669);
#675=PRESENTATION_STYLE_ASSIGNMENT((#670));
#676=STYLED_ITEM('NONE',(#675),#668);
#677=CARTESIAN_POINT('',(-7.455000000000004,-1.776357E-016,3.449999999999998));
#678=DIRECTION('',(0.0,-1.0,2.220446E-016));
#679=DIRECTION('',(0.0,0.0,-1.0));
#680=AXIS2_PLACEMENT_3D('',#677,#678,#679);
#681=TOROIDAL_SURFACE('',#680,0.799999999999999,0.300000000000000);
#682=CARTESIAN_POINT('',(-8.555000000000003,-1.776357E-016,3.449999999999999));
#683=VERTEX_POINT('',#682);
#684=CARTESIAN_POINT('',(-7.455000000000003,6.661338E-017,4.549999999999997));
#685=VERTEX_POINT('',#684);
#686=CARTESIAN_POINT('',(-7.455000000000004,-1.776357E-016,3.449999999999998));
#687=DIRECTION('',(0.0,1.0,0.0));
#688=DIRECTION('',(0.0,0.0,-1.0));
#689=AXIS2_PLACEMENT_3D('',#686,#687,#688);
#690=CIRCLE('',#689,1.099999999999999);
#691=EDGE_CURVE('',#683,#685,#690,.T.);
#692=ORIENTED_EDGE('',*,*,#691,.F.);
#693=CARTESIAN_POINT('',(-8.255000000000003,-0.300000000000000,3.449999999999999));
#694=VERTEX_POINT('',#693);
#695=CARTESIAN_POINT('',(-8.255000000000003,-1.776357E-016,3.449999999999999));
#696=DIRECTION('',(0.0,0.0,1.0));
#697=DIRECTION('',(0.0,1.0,0.0));
#698=AXIS2_PLACEMENT_3D('',#695,#696,#697);
#699=CIRCLE('',#698,0.300000000000000);
#700=EDGE_CURVE('',#683,#694,#699,.T.);
#701=ORIENTED_EDGE('',*,*,#700,.T.);
#702=CARTESIAN_POINT('',(-7.955000000000003,-1.408975E-016,3.450000000000000));
#703=VERTEX_POINT('',#702);
#704=CARTESIAN_POINT('',(-8.255000000000003,-1.776357E-016,3.449999999999999));
#705=DIRECTION('',(0.0,0.0,1.0));
#706=DIRECTION('',(0.0,1.0,0.0));
#707=AXIS2_PLACEMENT_3D('',#704,#705,#706);
#708=CIRCLE('',#707,0.300000000000000);
#709=EDGE_CURVE('',#694,#703,#708,.T.);
#710=ORIENTED_EDGE('',*,*,#709,.T.);
#711=CARTESIAN_POINT('',(-7.455000000000003,-2.987519E-017,3.949999999999998));
#712=VERTEX_POINT('',#711);
#713=CARTESIAN_POINT('',(-7.455000000000004,-1.408975E-016,3.449999999999998));
#714=DIRECTION('',(0.0,1.0,0.0));
#715=DIRECTION('',(0.0,0.0,-1.0));
#716=AXIS2_PLACEMENT_3D('',#713,#714,#715);
#717=CIRCLE('',#716,0.499999999999999);
#718=EDGE_CURVE('',#703,#712,#717,.T.);
#719=ORIENTED_EDGE('',*,*,#718,.T.);
#720=CARTESIAN_POINT('',(-7.455000000000003,-0.300000000000000,4.249999999999997));
#721=VERTEX_POINT('',#720);
#722=CARTESIAN_POINT('',(-7.455000000000003,-1.972152E-031,4.249999999999997));
#723=DIRECTION('',(1.0,0.0,0.0));
#724=DIRECTION('',(0.0,1.0,0.0));
#725=AXIS2_PLACEMENT_3D('',#722,#723,#724);
#726=CIRCLE('',#725,0.300000000000000);
#727=EDGE_CURVE('',#721,#712,#726,.T.);
#728=ORIENTED_EDGE('',*,*,#727,.F.);
#729=CARTESIAN_POINT('',(-7.455000000000003,-1.972152E-031,4.249999999999997));
#730=DIRECTION('',(1.0,0.0,0.0));
#731=DIRECTION('',(0.0,1.0,0.0));
#732=AXIS2_PLACEMENT_3D('',#729,#730,#731);
#733=CIRCLE('',#732,0.300000000000000);
#734=EDGE_CURVE('',#685,#721,#733,.T.);
#735=ORIENTED_EDGE('',*,*,#734,.F.);
#736=EDGE_LOOP('',(#692,#701,#710,#719,#728,#735));
#737=FACE_OUTER_BOUND('',#736,.T.);
#738=ADVANCED_FACE('',(#737),#681,.T.);
#739=CARTESIAN_POINT('',(-5.749999999999999,0.0,4.249999999999998));
#740=DIRECTION('',(-1.0,-1.156688E-031,-5.209258E-016));
#741=DIRECTION('',(0.0,1.0,0.0));
#742=AXIS2_PLACEMENT_3D('',#739,#740,#741);
#743=CYLINDRICAL_SURFACE('',#742,0.300000000000000);
#744=CARTESIAN_POINT('',(-7.455000000000004,0.300000000000000,4.249999999999997));
#745=VERTEX_POINT('',#744);
#746=CARTESIAN_POINT('',(-5.749999999999999,0.300000000000000,4.249999999999998));
#747=VERTEX_POINT('',#746);
#748=CARTESIAN_POINT('',(-7.455000000000003,0.300000000000000,4.249999999999997));
#749=DIRECTION('',(1.0,0.0,0.0));
#750=VECTOR('',#749,1.705000000000004);
#751=LINE('',#748,#750);
#752=EDGE_CURVE('',#745,#747,#751,.T.);
#753=ORIENTED_EDGE('',*,*,#752,.F.);
#754=CARTESIAN_POINT('',(-7.455000000000003,-1.972152E-031,4.249999999999997));
#755=DIRECTION('',(1.0,0.0,0.0));
#756=DIRECTION('',(0.0,1.0,0.0));
#757=AXIS2_PLACEMENT_3D('',#754,#755,#756);
#758=CIRCLE('',#757,0.300000000000000);
#759=EDGE_CURVE('',#745,#685,#758,.T.);
#760=ORIENTED_EDGE('',*,*,#759,.T.);
#761=ORIENTED_EDGE('',*,*,#734,.T.);
#762=CARTESIAN_POINT('',(-5.749999999999999,-0.300000000000000,4.249999999999998));
#763=VERTEX_POINT('',#762);
#764=CARTESIAN_POINT('',(-7.455000000000003,-0.300000000000000,4.249999999999997));
#765=DIRECTION('',(1.0,0.0,0.0));
#766=VECTOR('',#765,1.705000000000004);
#767=LINE('',#764,#766);
#768=EDGE_CURVE('',#721,#763,#767,.T.);
#769=ORIENTED_EDGE('',*,*,#768,.T.);
#770=CARTESIAN_POINT('',(-5.749999999999999,0.0,4.249999999999998));
#771=DIRECTION('',(1.0,0.0,0.0));
#772=DIRECTION('',(0.0,1.0,0.0));
#773=AXIS2_PLACEMENT_3D('',#770,#771,#772);
#774=CIRCLE('',#773,0.300000000000000);
#775=EDGE_CURVE('',#747,#763,#774,.T.);
#776=ORIENTED_EDGE('',*,*,#775,.F.);
#777=EDGE_LOOP('',(#753,#760,#761,#769,#776));
#778=FACE_OUTER_BOUND('',#777,.T.);
#779=ADVANCED_FACE('',(#778),#743,.T.);
#780=CARTESIAN_POINT('',(-8.255000000000003,-1.776357E-016,3.449999999999999));
#781=DIRECTION('',(0.0,-2.220446E-016,-1.0));
#782=DIRECTION('',(0.0,1.0,0.0));
#783=AXIS2_PLACEMENT_3D('',#780,#781,#782);
#784=CYLINDRICAL_SURFACE('',#783,0.300000000000000);
#785=CARTESIAN_POINT('',(-8.255000000000003,0.299999999999998,-3.799999999999999));
#786=VERTEX_POINT('',#785);
#787=CARTESIAN_POINT('',(-8.255000000000003,0.300000000000000,3.449999999999998));
#788=VERTEX_POINT('',#787);
#789=CARTESIAN_POINT('',(-8.255000000000003,0.299999999999998,-3.799999999999997));
#790=DIRECTION('',(0.0,0.0,1.0));
#791=VECTOR('',#790,7.249999999999995);
#792=LINE('',#789,#791);
#793=EDGE_CURVE('',#786,#788,#792,.T.);
#794=ORIENTED_EDGE('',*,*,#793,.F.);
#795=CARTESIAN_POINT('',(-8.255000000000003,-0.300000000000002,-3.799999999999997));
#796=VERTEX_POINT('',#795);
#797=CARTESIAN_POINT('',(-8.255000000000003,-1.787459E-015,-3.799999999999998));
#798=DIRECTION('',(0.0,0.0,1.0));
#799=DIRECTION('',(0.0,1.0,0.0));
#800=AXIS2_PLACEMENT_3D('',#797,#798,#799);
#801=CIRCLE('',#800,0.300000000000000);
#802=EDGE_CURVE('',#786,#796,#801,.T.);
#803=ORIENTED_EDGE('',*,*,#802,.T.);
#804=CARTESIAN_POINT('',(-8.255000000000003,-0.300000000000002,-3.799999999999997));
#805=DIRECTION('',(0.0,0.0,1.0));
#806=VECTOR('',#805,7.249999999999996);
#807=LINE('',#804,#806);
#808=EDGE_CURVE('',#796,#694,#807,.T.);
#809=ORIENTED_EDGE('',*,*,#808,.T.);
#810=ORIENTED_EDGE('',*,*,#700,.F.);
#811=CARTESIAN_POINT('',(-8.255000000000003,-1.776357E-016,3.449999999999999));
#812=DIRECTION('',(0.0,0.0,1.0));
#813=DIRECTION('',(0.0,1.0,0.0));
#814=AXIS2_PLACEMENT_3D('',#811,#812,#813);
#815=CIRCLE('',#814,0.300000000000000);
#816=EDGE_CURVE('',#788,#683,#815,.T.);
#817=ORIENTED_EDGE('',*,*,#816,.F.);
#818=EDGE_LOOP('',(#794,#803,#809,#810,#817));
#819=FACE_OUTER_BOUND('',#818,.T.);
#820=ADVANCED_FACE('',(#819),#784,.T.);
#821=CARTESIAN_POINT('',(-8.255000000000003,-1.776357E-016,3.449999999999999));
#822=DIRECTION('',(0.0,-2.220446E-016,-1.0));
#823=DIRECTION('',(0.0,1.0,0.0));
#824=AXIS2_PLACEMENT_3D('',#821,#822,#823);
#825=CYLINDRICAL_SURFACE('',#824,0.300000000000000);
#826=ORIENTED_EDGE('',*,*,#793,.T.);
#827=CARTESIAN_POINT('',(-8.255000000000003,-1.776357E-016,3.449999999999999));
#828=DIRECTION('',(0.0,0.0,1.0));
#829=DIRECTION('',(0.0,1.0,0.0));
#830=AXIS2_PLACEMENT_3D('',#827,#828,#829);
#831=CIRCLE('',#830,0.300000000000000);
#832=EDGE_CURVE('',#703,#788,#831,.T.);
#833=ORIENTED_EDGE('',*,*,#832,.F.);
#834=ORIENTED_EDGE('',*,*,#709,.F.);
#835=ORIENTED_EDGE('',*,*,#808,.F.);
#836=CARTESIAN_POINT('',(-8.255000000000003,-1.787459E-015,-3.799999999999998));
#837=DIRECTION('',(0.0,0.0,1.0));
#838=DIRECTION('',(0.0,1.0,0.0));
#839=AXIS2_PLACEMENT_3D('',#836,#837,#838);
#840=CIRCLE('',#839,0.300000000000000);
#841=EDGE_CURVE('',#796,#786,#840,.T.);
#842=ORIENTED_EDGE('',*,*,#841,.T.);
#843=EDGE_LOOP('',(#826,#833,#834,#835,#842));
#844=FACE_OUTER_BOUND('',#843,.T.);
#845=ADVANCED_FACE('',(#844),#825,.T.);
#846=CARTESIAN_POINT('',(-7.455000000000004,-1.776357E-016,3.449999999999998));
#847=DIRECTION('',(0.0,-1.0,2.220446E-016));
#848=DIRECTION('',(0.0,0.0,-1.0));
#849=AXIS2_PLACEMENT_3D('',#846,#847,#848);
#850=TOROIDAL_SURFACE('',#849,0.799999999999999,0.300000000000000);
#851=ORIENTED_EDGE('',*,*,#691,.T.);
#852=ORIENTED_EDGE('',*,*,#759,.F.);
#853=CARTESIAN_POINT('',(-7.455000000000003,-1.972152E-031,4.249999999999997));
#854=DIRECTION('',(1.0,0.0,0.0));
#855=DIRECTION('',(0.0,1.0,0.0));
#856=AXIS2_PLACEMENT_3D('',#853,#854,#855);
#857=CIRCLE('',#856,0.300000000000000);
#858=EDGE_CURVE('',#712,#745,#857,.T.);
#859=ORIENTED_EDGE('',*,*,#858,.F.);
#860=ORIENTED_EDGE('',*,*,#718,.F.);
#861=ORIENTED_EDGE('',*,*,#832,.T.);
#862=ORIENTED_EDGE('',*,*,#816,.T.);
#863=EDGE_LOOP('',(#851,#852,#859,#860,#861,#862));
#864=FACE_OUTER_BOUND('',#863,.T.);
#865=ADVANCED_FACE('',(#864),#850,.T.);
#866=CARTESIAN_POINT('',(-5.749999999999999,0.0,4.249999999999998));
#867=DIRECTION('',(-1.0,-1.156688E-031,-5.209258E-016));
#868=DIRECTION('',(0.0,1.0,0.0));
#869=AXIS2_PLACEMENT_3D('',#866,#867,#868);
#870=CYLINDRICAL_SURFACE('',#869,0.300000000000000);
#871=ORIENTED_EDGE('',*,*,#752,.T.);
#872=CARTESIAN_POINT('',(-5.749999999999999,0.0,4.249999999999998));
#873=DIRECTION('',(1.0,0.0,0.0));
#874=DIRECTION('',(0.0,1.0,0.0));
#875=AXIS2_PLACEMENT_3D('',#872,#873,#874);
#876=CIRCLE('',#875,0.300000000000000);
#877=EDGE_CURVE('',#763,#747,#876,.T.);
#878=ORIENTED_EDGE('',*,*,#877,.F.);
#879=ORIENTED_EDGE('',*,*,#768,.F.);
#880=ORIENTED_EDGE('',*,*,#727,.T.);
#881=ORIENTED_EDGE('',*,*,#858,.T.);
#882=EDGE_LOOP('',(#871,#878,#879,#880,#881));
#883=FACE_OUTER_BOUND('',#882,.T.);
#884=ADVANCED_FACE('',(#883),#870,.T.);
#885=CARTESIAN_POINT('',(-8.255000000000003,-8.437695E-016,-3.799999999999999));
#886=DIRECTION('',(0.0,0.0,1.0));
#887=DIRECTION('',(1.0,0.0,0.0));
#888=AXIS2_PLACEMENT_3D('',#885,#886,#887);
#889=PLANE('',#888);
#890=ORIENTED_EDGE('',*,*,#802,.F.);
#891=ORIENTED_EDGE('',*,*,#841,.F.);
#892=EDGE_LOOP('',(#890,#891));
#893=FACE_OUTER_BOUND('',#892,.T.);
#894=ADVANCED_FACE('',(#893),#889,.F.);
#895=CARTESIAN_POINT('',(-5.749999999999999,0.0,4.249999999999998));
#896=DIRECTION('',(1.0,0.0,0.0));
#897=DIRECTION('',(0.0,0.0,-1.0));
#898=AXIS2_PLACEMENT_3D('',#895,#896,#897);
#899=PLANE('',#898);
#900=ORIENTED_EDGE('',*,*,#775,.T.);
#901=ORIENTED_EDGE('',*,*,#877,.T.);
#902=EDGE_LOOP('',(#900,#901));
#903=FACE_OUTER_BOUND('',#902,.T.);
#904=ADVANCED_FACE('',(#903),#899,.T.);
#905=CLOSED_SHELL('',(#738,#779,#820,#845,#865,#884,#894,#904));
#906=MANIFOLD_SOLID_BREP('6F1',#905);
#907=STYLED_ITEM('NONE',(#481),#906);
#908=CARTESIAN_POINT('',(-5.749999999999999,0.0,4.249999999999998));
#909=DIRECTION('',(1.0,0.0,0.0));
#910=DIRECTION('',(0.0,1.0,0.0));
#911=AXIS2_PLACEMENT_3D('',#908,#909,#910);
#912=CYLINDRICAL_SURFACE('',#911,3.200000000000000);
#913=CARTESIAN_POINT('',(-5.749999999999999,3.200000000000000,4.249999999999998));
#914=VERTEX_POINT('',#913);
#915=CARTESIAN_POINT('',(-5.549999999999999,3.200000000000000,4.249999999999998));
#916=VERTEX_POINT('',#915);
#917=CARTESIAN_POINT('',(-5.749999999999999,3.200000000000000,4.249999999999998));
#918=DIRECTION('',(1.0,0.0,0.0));
#919=VECTOR('',#918,0.200000000000000);
#920=LINE('',#917,#919);
#921=EDGE_CURVE('',#914,#916,#920,.T.);
#922=ORIENTED_EDGE('',*,*,#921,.F.);
#923=CARTESIAN_POINT('',(-5.750000000000000,-3.200000000000000,4.249999999999998));
#924=VERTEX_POINT('',#923);
#925=CARTESIAN_POINT('',(-5.750000000000000,0.0,4.249999999999998));
#926=DIRECTION('',(1.0,0.0,0.0));
#927=DIRECTION('',(0.0,1.0,0.0));
#928=AXIS2_PLACEMENT_3D('',#925,#926,#927);
#929=CIRCLE('',#928,3.200000000000000);
#930=EDGE_CURVE('',#924,#914,#929,.T.);
#931=ORIENTED_EDGE('',*,*,#930,.F.);
#932=CARTESIAN_POINT('',(-5.549999999999999,-3.200000000000000,4.249999999999998));
#933=VERTEX_POINT('',#932);
#934=CARTESIAN_POINT('',(-5.750000000000000,-3.200000000000000,4.249999999999998));
#935=DIRECTION('',(1.0,0.0,0.0));
#936=VECTOR('',#935,0.200000000000001);
#937=LINE('',#934,#936);
#938=EDGE_CURVE('',#924,#933,#937,.T.);
#939=ORIENTED_EDGE('',*,*,#938,.T.);
#940=CARTESIAN_POINT('',(-5.549999999999999,0.0,4.249999999999998));
#941=DIRECTION('',(-1.0,0.0,0.0));
#942=DIRECTION('',(0.0,1.0,0.0));
#943=AXIS2_PLACEMENT_3D('',#940,#941,#942);
#944=CIRCLE('',#943,3.200000000000000);
#945=EDGE_CURVE('',#916,#933,#944,.T.);
#946=ORIENTED_EDGE('',*,*,#945,.F.);
#947=EDGE_LOOP('',(#922,#931,#939,#946));
#948=FACE_OUTER_BOUND('',#947,.T.);
#949=ADVANCED_FACE('',(#948),#912,.F.);
#950=CARTESIAN_POINT('',(5.550000000000000,0.0,4.250000000000001));
#951=DIRECTION('',(1.0,0.0,0.0));
#952=DIRECTION('',(0.0,1.0,0.0));
#953=AXIS2_PLACEMENT_3D('',#950,#951,#952);
#954=CYLINDRICAL_SURFACE('',#953,3.200000000000000);
#955=CARTESIAN_POINT('',(5.550000000000000,3.200000000000000,4.250000000000001));
#956=VERTEX_POINT('',#955);
#957=CARTESIAN_POINT('',(5.750000000000000,3.200000000000000,4.250000000000001));
#958=VERTEX_POINT('',#957);
#959=CARTESIAN_POINT('',(5.550000000000000,3.200000000000000,4.250000000000001));
#960=DIRECTION('',(1.0,0.0,0.0));
#961=VECTOR('',#960,0.200000000000000);
#962=LINE('',#959,#961);
#963=EDGE_CURVE('',#956,#958,#962,.T.);
#964=ORIENTED_EDGE('',*,*,#963,.F.);
#965=CARTESIAN_POINT('',(5.550000000000000,-3.200000000000000,4.250000000000001));
#966=VERTEX_POINT('',#965);
#967=CARTESIAN_POINT('',(5.550000000000000,0.0,4.250000000000001));
#968=DIRECTION('',(1.0,0.0,0.0));
#969=DIRECTION('',(0.0,1.0,0.0));
#970=AXIS2_PLACEMENT_3D('',#967,#968,#969);
#971=CIRCLE('',#970,3.200000000000000);
#972=EDGE_CURVE('',#966,#956,#971,.T.);
#973=ORIENTED_EDGE('',*,*,#972,.F.);
#974=CARTESIAN_POINT('',(5.750000000000000,-3.200000000000000,4.250000000000001));
#975=VERTEX_POINT('',#974);
#976=CARTESIAN_POINT('',(5.550000000000000,-3.200000000000000,4.250000000000001));
#977=DIRECTION('',(1.0,0.0,0.0));
#978=VECTOR('',#977,0.200000000000000);
#979=LINE('',#976,#978);
#980=EDGE_CURVE('',#966,#975,#979,.T.);
#981=ORIENTED_EDGE('',*,*,#980,.T.);
#982=CARTESIAN_POINT('',(5.750000000000000,0.0,4.250000000000001));
#983=DIRECTION('',(-1.0,0.0,0.0));
#984=DIRECTION('',(0.0,1.0,0.0));
#985=AXIS2_PLACEMENT_3D('',#982,#983,#984);
#986=CIRCLE('',#985,3.200000000000000);
#987=EDGE_CURVE('',#958,#975,#986,.T.);
#988=ORIENTED_EDGE('',*,*,#987,.F.);
#989=EDGE_LOOP('',(#964,#973,#981,#988));
#990=FACE_OUTER_BOUND('',#989,.T.);
#991=ADVANCED_FACE('',(#990),#954,.F.);
#992=CARTESIAN_POINT('',(-5.450000000000000,0.0,4.249999999999998));
#993=DIRECTION('',(1.0,0.0,2.220446E-016));
#994=DIRECTION('',(0.0,0.0,-1.0));
#995=AXIS2_PLACEMENT_3D('',#992,#993,#994);
#996=TOROIDAL_SURFACE('',#995,3.950000000000000,0.300000000000000);
#997=CARTESIAN_POINT('',(-5.449999999999998,0.0,-1.776357E-015));
#998=VERTEX_POINT('',#997);
#999=CARTESIAN_POINT('',(-5.749999999999999,0.0,0.299999999999998));
#1000=VERTEX_POINT('',#999);
#1001=CARTESIAN_POINT('',(-5.449999999999999,0.0,0.299999999999998));
#1002=DIRECTION('',(0.0,1.0,0.0));
#1003=DIRECTION('',(0.0,0.0,-1.0));
#1004=AXIS2_PLACEMENT_3D('',#1001,#1002,#1003);
#1005=CIRCLE('',#1004,0.300000000000000);
#1006=EDGE_CURVE('',#998,#1000,#1005,.T.);
#1007=ORIENTED_EDGE('',*,*,#1006,.F.);
#1008=CARTESIAN_POINT('',(-5.450000000000000,-4.250000000000000,4.249999999999997));
#1009=VERTEX_POINT('',#1008);
#1010=CARTESIAN_POINT('',(-5.450000000000000,0.0,4.249999999999998));
#1011=DIRECTION('',(-1.0,0.0,0.0));
#1012=DIRECTION('',(0.0,-1.0,0.0));
#1013=AXIS2_PLACEMENT_3D('',#1010,#1011,#1012);
#1014=CIRCLE('',#1013,4.250000000000000);
#1015=EDGE_CURVE('',#998,#1009,#1014,.T.);
#1016=ORIENTED_EDGE('',*,*,#1015,.T.);
#1017=CARTESIAN_POINT('',(-5.450000000000002,-5.204577E-016,8.499999999999998));
#1018=VERTEX_POINT('',#1017);
#1019=CARTESIAN_POINT('',(-5.450000000000000,0.0,4.249999999999998));
#1020=DIRECTION('',(-1.0,0.0,0.0));
#1021=DIRECTION('',(0.0,-1.0,0.0));
#1022=AXIS2_PLACEMENT_3D('',#1019,#1020,#1021);
#1023=CIRCLE('',#1022,4.250000000000000);
#1024=EDGE_CURVE('',#1009,#1018,#1023,.T.);
#1025=ORIENTED_EDGE('',*,*,#1024,.T.);
#1026=CARTESIAN_POINT('',(-5.750000000000001,-4.837195E-016,8.199999999999999));
#1027=VERTEX_POINT('',#1026);
#1028=CARTESIAN_POINT('',(-5.450000000000001,-4.837195E-016,8.199999999999999));
#1029=DIRECTION('',(0.0,-1.0,0.0));
#1030=DIRECTION('',(0.0,0.0,1.0));
#1031=AXIS2_PLACEMENT_3D('',#1028,#1029,#1030);
#1032=CIRCLE('',#1031,0.300000000000000);
#1033=EDGE_CURVE('',#1018,#1027,#1032,.T.);
#1034=ORIENTED_EDGE('',*,*,#1033,.T.);
#1035=CARTESIAN_POINT('',(-5.750000000000000,0.0,4.249999999999998));
#1036=DIRECTION('',(1.0,0.0,0.0));
#1037=DIRECTION('',(0.0,-1.0,0.0));
#1038=AXIS2_PLACEMENT_3D('',#1035,#1036,#1037);
#1039=CIRCLE('',#1038,3.950000000000000);
#1040=EDGE_CURVE('',#1027,#1000,#1039,.T.);
#1041=ORIENTED_EDGE('',*,*,#1040,.T.);
#1042=EDGE_LOOP('',(#1007,#1016,#1025,#1034,#1041));
#1043=FACE_OUTER_BOUND('',#1042,.T.);
#1044=ADVANCED_FACE('',(#1043),#996,.T.);
#1045=CARTESIAN_POINT('',(5.449999999999999,0.0,4.250000000000001));
#1046=DIRECTION('',(-1.0,0.0,-2.220446E-016));
#1047=DIRECTION('',(0.0,0.0,1.0));
#1048=AXIS2_PLACEMENT_3D('',#1045,#1046,#1047);
#1049=TOROIDAL_SURFACE('',#1048,3.950000000000000,0.300000000000000);
#1050=CARTESIAN_POINT('',(5.449999999999998,0.0,8.500000000000000));
#1051=VERTEX_POINT('',#1050);
#1052=CARTESIAN_POINT('',(5.749999999999999,0.0,8.200000000000001));
#1053=VERTEX_POINT('',#1052);
#1054=CARTESIAN_POINT('',(5.449999999999998,0.0,8.200000000000001));
#1055=DIRECTION('',(0.0,1.0,0.0));
#1056=DIRECTION('',(0.0,0.0,1.0));
#1057=AXIS2_PLACEMENT_3D('',#1054,#1055,#1056);
#1058=CIRCLE('',#1057,0.300000000000000);
#1059=EDGE_CURVE('',#1051,#1053,#1058,.T.);
#1060=ORIENTED_EDGE('',*,*,#1059,.F.);
#1061=CARTESIAN_POINT('',(5.449999999999999,-4.250000000000000,4.250000000000000));
#1062=VERTEX_POINT('',#1061);
#1063=CARTESIAN_POINT('',(5.449999999999999,0.0,4.250000000000001));
#1064=DIRECTION('',(1.0,0.0,0.0));
#1065=DIRECTION('',(0.0,-1.0,0.0));
#1066=AXIS2_PLACEMENT_3D('',#1063,#1064,#1065);
#1067=CIRCLE('',#1066,4.250000000000000);
#1068=EDGE_CURVE('',#1051,#1062,#1067,.T.);
#1069=ORIENTED_EDGE('',*,*,#1068,.T.);
#1070=CARTESIAN_POINT('',(5.450000000000000,-5.204577E-016,8.881784E-016));
#1071=VERTEX_POINT('',#1070);
#1072=CARTESIAN_POINT('',(5.449999999999999,0.0,4.250000000000001));
#1073=DIRECTION('',(1.0,0.0,0.0));
#1074=DIRECTION('',(0.0,-1.0,0.0));
#1075=AXIS2_PLACEMENT_3D('',#1072,#1073,#1074);
#1076=CIRCLE('',#1075,4.250000000000000);
#1077=EDGE_CURVE('',#1062,#1071,#1076,.T.);
#1078=ORIENTED_EDGE('',*,*,#1077,.T.);
#1079=CARTESIAN_POINT('',(5.750000000000001,-4.837195E-016,0.300000000000001));
#1080=VERTEX_POINT('',#1079);
#1081=CARTESIAN_POINT('',(5.450000000000000,-4.837195E-016,0.300000000000001));
#1082=DIRECTION('',(0.0,-1.0,0.0));
#1083=DIRECTION('',(0.0,0.0,-1.0));
#1084=AXIS2_PLACEMENT_3D('',#1081,#1082,#1083);
#1085=CIRCLE('',#1084,0.300000000000000);
#1086=EDGE_CURVE('',#1071,#1080,#1085,.T.);
#1087=ORIENTED_EDGE('',*,*,#1086,.T.);
#1088=CARTESIAN_POINT('',(5.750000000000000,0.0,4.250000000000001));
#1089=DIRECTION('',(-1.0,0.0,0.0));
#1090=DIRECTION('',(0.0,-1.0,0.0));
#1091=AXIS2_PLACEMENT_3D('',#1088,#1089,#1090);
#1092=CIRCLE('',#1091,3.950000000000000);
#1093=EDGE_CURVE('',#1080,#1053,#1092,.T.);
#1094=ORIENTED_EDGE('',*,*,#1093,.T.);
#1095=EDGE_LOOP('',(#1060,#1069,#1078,#1087,#1094));
#1096=FACE_OUTER_BOUND('',#1095,.T.);
#1097=ADVANCED_FACE('',(#1096),#1049,.T.);
#1098=CARTESIAN_POINT('',(-3.949999999999998,-4.379058E-048,4.249999999999998));
#1099=DIRECTION('',(-1.0,8.758115E-047,2.220446E-016));
#1100=DIRECTION('',(0.0,0.0,1.0));
#1101=AXIS2_PLACEMENT_3D('',#1098,#1099,#1100);
#1102=TOROIDAL_SURFACE('',#1101,4.750000000000000,0.800000000000000);
#1103=CARTESIAN_POINT('',(-4.499078868019691,-4.379058E-048,8.418181818181816));
#1104=VERTEX_POINT('',#1103);
#1105=CARTESIAN_POINT('',(-3.400921131980308,-5.104382E-016,8.418181818181816));
#1106=VERTEX_POINT('',#1105);
#1107=CARTESIAN_POINT('',(-3.949999999999997,5.854827E-031,8.999999999999998));
#1108=DIRECTION('',(0.0,-1.0,0.0));
#1109=DIRECTION('',(0.0,0.0,1.0));
#1110=AXIS2_PLACEMENT_3D('',#1107,#1108,#1109);
#1111=CIRCLE('',#1110,0.800000000000000);
#1112=EDGE_CURVE('',#1104,#1106,#1111,.T.);
#1113=ORIENTED_EDGE('',*,*,#1112,.F.);
#1114=CARTESIAN_POINT('',(-4.499078868019690,-4.168181818181818,4.249999999999999));
#1115=VERTEX_POINT('',#1114);
#1116=CARTESIAN_POINT('',(-4.499078868019690,4.370990E-047,4.249999999999998));
#1117=DIRECTION('',(-1.0,0.0,0.0));
#1118=DIRECTION('',(0.0,1.0,0.0));
#1119=AXIS2_PLACEMENT_3D('',#1116,#1117,#1118);
#1120=CIRCLE('',#1119,4.168181818181818);
#1121=EDGE_CURVE('',#1115,#1104,#1120,.T.);
#1122=ORIENTED_EDGE('',*,*,#1121,.F.);
#1123=CARTESIAN_POINT('',(-4.499078868019689,-5.104382E-016,0.081818181818180));
#1124=VERTEX_POINT('',#1123);
#1125=CARTESIAN_POINT('',(-4.499078868019690,4.370990E-047,4.249999999999998));
#1126=DIRECTION('',(-1.0,0.0,0.0));
#1127=DIRECTION('',(0.0,1.0,0.0));
#1128=AXIS2_PLACEMENT_3D('',#1125,#1126,#1127);
#1129=CIRCLE('',#1128,4.168181818181818);
#1130=EDGE_CURVE('',#1124,#1115,#1129,.T.);
#1131=ORIENTED_EDGE('',*,*,#1130,.F.);
#1132=CARTESIAN_POINT('',(-3.400921131980307,-4.379058E-048,0.081818181818180));
#1133=VERTEX_POINT('',#1132);
#1134=CARTESIAN_POINT('',(-3.950000000000000,-5.816880E-016,-0.500000000000002));
#1135=DIRECTION('',(0.0,1.0,0.0));
#1136=DIRECTION('',(0.0,0.0,-1.0));
#1137=AXIS2_PLACEMENT_3D('',#1134,#1135,#1136);
#1138=CIRCLE('',#1137,0.800000000000000);
#1139=EDGE_CURVE('',#1124,#1133,#1138,.T.);
#1140=ORIENTED_EDGE('',*,*,#1139,.T.);
#1141=CARTESIAN_POINT('',(-3.400921131980307,-4.168181818181818,4.249999999999997));
#1142=VERTEX_POINT('',#1141);
#1143=CARTESIAN_POINT('',(-3.400921131980307,-5.246802E-047,4.249999999999998));
#1144=DIRECTION('',(1.0,0.0,0.0));
#1145=DIRECTION('',(0.0,1.0,0.0));
#1146=AXIS2_PLACEMENT_3D('',#1143,#1144,#1145);
#1147=CIRCLE('',#1146,4.168181818181818);
#1148=EDGE_CURVE('',#1142,#1133,#1147,.T.);
#1149=ORIENTED_EDGE('',*,*,#1148,.F.);
#1150=CARTESIAN_POINT('',(-3.400921131980307,-5.246802E-047,4.249999999999998));
#1151=DIRECTION('',(1.0,0.0,0.0));
#1152=DIRECTION('',(0.0,1.0,0.0));
#1153=AXIS2_PLACEMENT_3D('',#1150,#1151,#1152);
#1154=CIRCLE('',#1153,4.168181818181818);
#1155=EDGE_CURVE('',#1106,#1142,#1154,.T.);
#1156=ORIENTED_EDGE('',*,*,#1155,.F.);
#1157=EDGE_LOOP('',(#1113,#1122,#1131,#1140,#1149,#1156));
#1158=FACE_OUTER_BOUND('',#1157,.T.);
#1159=ADVANCED_FACE('',(#1158),#1102,.F.);
#1160=CARTESIAN_POINT('',(-5.750000000000000,0.0,4.249999999999998));
#1161=DIRECTION('',(1.0,0.0,2.220446E-016));
#1162=DIRECTION('',(0.0,1.0,0.0));
#1163=AXIS2_PLACEMENT_3D('',#1160,#1161,#1162);
#1164=CYLINDRICAL_SURFACE('',#1163,4.250000000000000);
#1165=CARTESIAN_POINT('',(-4.704983443527074,4.250000000000000,4.249999999999998));
#1166=VERTEX_POINT('',#1165);
#1167=CARTESIAN_POINT('',(-5.450000000000000,4.250000000000000,4.249999999999996));
#1168=VERTEX_POINT('',#1167);
#1169=CARTESIAN_POINT('',(-4.704983443527074,4.250000000000000,4.249999999999998));
#1170=DIRECTION('',(-1.0,0.0,0.0));
#1171=VECTOR('',#1170,0.745016556472926);
#1172=LINE('',#1169,#1171);
#1173=EDGE_CURVE('',#1166,#1168,#1172,.T.);
#1174=ORIENTED_EDGE('',*,*,#1173,.F.);
#1175=CARTESIAN_POINT('',(-4.704983443527072,-5.204577E-016,-1.776357E-015));
#1176=VERTEX_POINT('',#1175);
#1177=CARTESIAN_POINT('',(-4.704983443527074,-4.379058E-048,4.249999999999998));
#1178=DIRECTION('',(1.0,0.0,0.0));
#1179=DIRECTION('',(0.0,1.0,0.0));
#1180=AXIS2_PLACEMENT_3D('',#1177,#1178,#1179);
#1181=CIRCLE('',#1180,4.250000000000000);
#1182=EDGE_CURVE('',#1176,#1166,#1181,.T.);
#1183=ORIENTED_EDGE('',*,*,#1182,.F.);
#1184=CARTESIAN_POINT('',(-4.704983443527074,-4.250000000000000,4.249999999999997));
#1185=VERTEX_POINT('',#1184);
#1186=CARTESIAN_POINT('',(-4.704983443527074,-4.379058E-048,4.249999999999998));
#1187=DIRECTION('',(1.0,0.0,0.0));
#1188=DIRECTION('',(0.0,1.0,0.0));
#1189=AXIS2_PLACEMENT_3D('',#1186,#1187,#1188);
#1190=CIRCLE('',#1189,4.250000000000000);
#1191=EDGE_CURVE('',#1185,#1176,#1190,.T.);
#1192=ORIENTED_EDGE('',*,*,#1191,.F.);
#1193=CARTESIAN_POINT('',(-4.704983443527074,-4.250000000000000,4.249999999999997));
#1194=DIRECTION('',(-1.0,0.0,0.0));
#1195=VECTOR('',#1194,0.745016556472926);
#1196=LINE('',#1193,#1195);
#1197=EDGE_CURVE('',#1185,#1009,#1196,.T.);
#1198=ORIENTED_EDGE('',*,*,#1197,.T.);
#1199=ORIENTED_EDGE('',*,*,#1015,.F.);
#1200=CARTESIAN_POINT('',(-5.450000000000000,0.0,4.249999999999998));
#1201=DIRECTION('',(-1.0,0.0,0.0));
#1202=DIRECTION('',(0.0,-1.0,0.0));
#1203=AXIS2_PLACEMENT_3D('',#1200,#1201,#1202);
#1204=CIRCLE('',#1203,4.250000000000000);
#1205=EDGE_CURVE('',#1168,#998,#1204,.T.);
#1206=ORIENTED_EDGE('',*,*,#1205,.F.);
#1207=EDGE_LOOP('',(#1174,#1183,#1192,#1198,#1199,#1206));
#1208=FACE_OUTER_BOUND('',#1207,.T.);
#1209=ADVANCED_FACE('',(#1208),#1164,.T.);
#1210=CARTESIAN_POINT('',(-4.704983443527074,-4.379058E-048,4.249999999999998));
#1211=DIRECTION('',(-1.0,0.0,-2.220446E-016));
#1212=DIRECTION('',(0.0,0.0,1.0));
#1213=AXIS2_PLACEMENT_3D('',#1210,#1211,#1212);
#1214=TOROIDAL_SURFACE('',#1213,3.950000000000000,0.300000000000000);
#1215=CARTESIAN_POINT('',(-4.704983443527076,-4.379058E-048,8.499999999999998));
#1216=VERTEX_POINT('',#1215);
#1217=CARTESIAN_POINT('',(-4.704983443527075,-4.379058E-048,8.199999999999999));
#1218=DIRECTION('',(0.0,1.0,0.0));
#1219=DIRECTION('',(0.0,0.0,1.0));
#1220=AXIS2_PLACEMENT_3D('',#1217,#1218,#1219);
#1221=CIRCLE('',#1220,0.300000000000000);
#1222=EDGE_CURVE('',#1216,#1104,#1221,.T.);
#1223=ORIENTED_EDGE('',*,*,#1222,.F.);
#1224=CARTESIAN_POINT('',(-4.704983443527074,-4.379058E-048,4.249999999999998));
#1225=DIRECTION('',(1.0,0.0,0.0));
#1226=DIRECTION('',(0.0,1.0,0.0));
#1227=AXIS2_PLACEMENT_3D('',#1224,#1225,#1226);
#1228=CIRCLE('',#1227,4.250000000000000);
#1229=EDGE_CURVE('',#1216,#1185,#1228,.T.);
#1230=ORIENTED_EDGE('',*,*,#1229,.T.);
#1231=ORIENTED_EDGE('',*,*,#1191,.T.);
#1232=CARTESIAN_POINT('',(-4.704983443527073,-4.837195E-016,0.299999999999998));
#1233=DIRECTION('',(0.0,-1.0,0.0));
#1234=DIRECTION('',(0.0,0.0,-1.0));
#1235=AXIS2_PLACEMENT_3D('',#1232,#1233,#1234);
#1236=CIRCLE('',#1235,0.300000000000000);
#1237=EDGE_CURVE('',#1176,#1124,#1236,.T.);
#1238=ORIENTED_EDGE('',*,*,#1237,.T.);
#1239=ORIENTED_EDGE('',*,*,#1130,.T.);
#1240=ORIENTED_EDGE('',*,*,#1121,.T.);
#1241=EDGE_LOOP('',(#1223,#1230,#1231,#1238,#1239,#1240));
#1242=FACE_OUTER_BOUND('',#1241,.T.);
#1243=ADVANCED_FACE('',(#1242),#1214,.T.);
#1244=CARTESIAN_POINT('',(-5.750000000000000,0.0,4.249999999999998));
#1245=DIRECTION('',(1.0,0.0,2.220446E-016));
#1246=DIRECTION('',(0.0,1.0,0.0));
#1247=AXIS2_PLACEMENT_3D('',#1244,#1245,#1246);
#1248=CYLINDRICAL_SURFACE('',#1247,4.250000000000000);
#1249=CARTESIAN_POINT('',(5.449999999999999,4.250000000000000,4.250000000000003));
#1250=VERTEX_POINT('',#1249);
#1251=CARTESIAN_POINT('',(-3.195016556472923,4.250000000000000,4.249999999999999));
#1252=VERTEX_POINT('',#1251);
#1253=CARTESIAN_POINT('',(5.449999999999999,4.250000000000000,4.250000000000001));
#1254=DIRECTION('',(-1.0,0.0,0.0));
#1255=VECTOR('',#1254,8.645016556472923);
#1256=LINE('',#1253,#1255);
#1257=EDGE_CURVE('',#1250,#1252,#1256,.T.);
#1258=ORIENTED_EDGE('',*,*,#1257,.F.);
#1259=CARTESIAN_POINT('',(5.449999999999999,0.0,4.250000000000001));
#1260=DIRECTION('',(1.0,0.0,0.0));
#1261=DIRECTION('',(0.0,-1.0,0.0));
#1262=AXIS2_PLACEMENT_3D('',#1259,#1260,#1261);
#1263=CIRCLE('',#1262,4.250000000000000);
#1264=EDGE_CURVE('',#1071,#1250,#1263,.T.);
#1265=ORIENTED_EDGE('',*,*,#1264,.F.);
#1266=ORIENTED_EDGE('',*,*,#1077,.F.);
#1267=CARTESIAN_POINT('',(-3.195016556472923,-4.250000000000000,4.249999999999999));
#1268=VERTEX_POINT('',#1267);
#1269=CARTESIAN_POINT('',(5.449999999999999,-4.250000000000000,4.250000000000000));
#1270=DIRECTION('',(-1.0,0.0,0.0));
#1271=VECTOR('',#1270,8.645016556472923);
#1272=LINE('',#1269,#1271);
#1273=EDGE_CURVE('',#1062,#1268,#1272,.T.);
#1274=ORIENTED_EDGE('',*,*,#1273,.T.);
#1275=CARTESIAN_POINT('',(-3.195016556472922,-4.379058E-048,-1.776357E-015));
#1276=VERTEX_POINT('',#1275);
#1277=CARTESIAN_POINT('',(-3.195016556472923,-4.379058E-048,4.249999999999998));
#1278=DIRECTION('',(-1.0,0.0,0.0));
#1279=DIRECTION('',(0.0,1.0,0.0));
#1280=AXIS2_PLACEMENT_3D('',#1277,#1278,#1279);
#1281=CIRCLE('',#1280,4.250000000000000);
#1282=EDGE_CURVE('',#1276,#1268,#1281,.T.);
#1283=ORIENTED_EDGE('',*,*,#1282,.F.);
#1284=CARTESIAN_POINT('',(-3.195016556472923,-4.379058E-048,4.249999999999998));
#1285=DIRECTION('',(-1.0,0.0,0.0));
#1286=DIRECTION('',(0.0,1.0,0.0));
#1287=AXIS2_PLACEMENT_3D('',#1284,#1285,#1286);
#1288=CIRCLE('',#1287,4.250000000000000);
#1289=EDGE_CURVE('',#1252,#1276,#1288,.T.);
#1290=ORIENTED_EDGE('',*,*,#1289,.F.);
#1291=EDGE_LOOP('',(#1258,#1265,#1266,#1274,#1283,#1290));
#1292=FACE_OUTER_BOUND('',#1291,.T.);
#1293=ADVANCED_FACE('',(#1292),#1248,.T.);
#1294=CARTESIAN_POINT('',(-3.195016556472923,-4.379058E-048,4.249999999999998));
#1295=DIRECTION('',(1.0,0.0,2.220446E-016));
#1296=DIRECTION('',(0.0,0.0,-1.0));
#1297=AXIS2_PLACEMENT_3D('',#1294,#1295,#1296);
#1298=TOROIDAL_SURFACE('',#1297,3.950000000000000,0.300000000000000);
#1299=CARTESIAN_POINT('',(-3.195016556472922,-4.379058E-048,0.299999999999998));
#1300=DIRECTION('',(0.0,1.0,0.0));
#1301=DIRECTION('',(0.0,0.0,-1.0));
#1302=AXIS2_PLACEMENT_3D('',#1299,#1300,#1301);
#1303=CIRCLE('',#1302,0.300000000000000);
#1304=EDGE_CURVE('',#1276,#1133,#1303,.T.);
#1305=ORIENTED_EDGE('',*,*,#1304,.F.);
#1306=ORIENTED_EDGE('',*,*,#1282,.T.);
#1307=CARTESIAN_POINT('',(-3.195016556472924,-5.204577E-016,8.499999999999998));
#1308=VERTEX_POINT('',#1307);
#1309=CARTESIAN_POINT('',(-3.195016556472923,-4.379058E-048,4.249999999999998));
#1310=DIRECTION('',(-1.0,0.0,0.0));
#1311=DIRECTION('',(0.0,1.0,0.0));
#1312=AXIS2_PLACEMENT_3D('',#1309,#1310,#1311);
#1313=CIRCLE('',#1312,4.250000000000000);
#1314=EDGE_CURVE('',#1268,#1308,#1313,.T.);
#1315=ORIENTED_EDGE('',*,*,#1314,.T.);
#1316=CARTESIAN_POINT('',(-3.195016556472924,-4.837195E-016,8.199999999999999));
#1317=DIRECTION('',(0.0,-1.0,0.0));
#1318=DIRECTION('',(0.0,0.0,1.0));
#1319=AXIS2_PLACEMENT_3D('',#1316,#1317,#1318);
#1320=CIRCLE('',#1319,0.300000000000000);
#1321=EDGE_CURVE('',#1308,#1106,#1320,.T.);
#1322=ORIENTED_EDGE('',*,*,#1321,.T.);
#1323=ORIENTED_EDGE('',*,*,#1155,.T.);
#1324=ORIENTED_EDGE('',*,*,#1148,.T.);
#1325=EDGE_LOOP('',(#1305,#1306,#1315,#1322,#1323,#1324));
#1326=FACE_OUTER_BOUND('',#1325,.T.);
#1327=ADVANCED_FACE('',(#1326),#1298,.T.);
#1328=CARTESIAN_POINT('',(-3.195016556472923,-4.379058E-048,4.249999999999998));
#1329=DIRECTION('',(1.0,0.0,2.220446E-016));
#1330=DIRECTION('',(0.0,0.0,-1.0));
#1331=AXIS2_PLACEMENT_3D('',#1328,#1329,#1330);
#1332=TOROIDAL_SURFACE('',#1331,3.950000000000000,0.300000000000000);
#1333=ORIENTED_EDGE('',*,*,#1304,.T.);
#1334=CARTESIAN_POINT('',(-3.400921131980307,-5.246802E-047,4.249999999999998));
#1335=DIRECTION('',(1.0,0.0,0.0));
#1336=DIRECTION('',(0.0,1.0,0.0));
#1337=AXIS2_PLACEMENT_3D('',#1334,#1335,#1336);
#1338=CIRCLE('',#1337,4.168181818181818);
#1339=EDGE_CURVE('',#1133,#1106,#1338,.T.);
#1340=ORIENTED_EDGE('',*,*,#1339,.T.);
#1341=ORIENTED_EDGE('',*,*,#1321,.F.);
#1342=CARTESIAN_POINT('',(-3.195016556472923,-4.379058E-048,4.249999999999998));
#1343=DIRECTION('',(-1.0,0.0,0.0));
#1344=DIRECTION('',(0.0,1.0,0.0));
#1345=AXIS2_PLACEMENT_3D('',#1342,#1343,#1344);
#1346=CIRCLE('',#1345,4.250000000000000);
#1347=EDGE_CURVE('',#1308,#1252,#1346,.T.);
#1348=ORIENTED_EDGE('',*,*,#1347,.T.);
#1349=ORIENTED_EDGE('',*,*,#1289,.T.);
#1350=EDGE_LOOP('',(#1333,#1340,#1341,#1348,#1349));
#1351=FACE_OUTER_BOUND('',#1350,.T.);
#1352=ADVANCED_FACE('',(#1351),#1332,.T.);
#1353=CARTESIAN_POINT('',(-5.750000000000000,0.0,4.249999999999998));
#1354=DIRECTION('',(1.0,0.0,2.220446E-016));
#1355=DIRECTION('',(0.0,1.0,0.0));
#1356=AXIS2_PLACEMENT_3D('',#1353,#1354,#1355);
#1357=CYLINDRICAL_SURFACE('',#1356,4.250000000000000);
#1358=ORIENTED_EDGE('',*,*,#1257,.T.);
#1359=ORIENTED_EDGE('',*,*,#1347,.F.);
#1360=ORIENTED_EDGE('',*,*,#1314,.F.);
#1361=ORIENTED_EDGE('',*,*,#1273,.F.);
#1362=ORIENTED_EDGE('',*,*,#1068,.F.);
#1363=CARTESIAN_POINT('',(5.449999999999999,0.0,4.250000000000001));
#1364=DIRECTION('',(1.0,0.0,0.0));
#1365=DIRECTION('',(0.0,-1.0,0.0));
#1366=AXIS2_PLACEMENT_3D('',#1363,#1364,#1365);
#1367=CIRCLE('',#1366,4.250000000000000);
#1368=EDGE_CURVE('',#1250,#1051,#1367,.T.);
#1369=ORIENTED_EDGE('',*,*,#1368,.F.);
#1370=EDGE_LOOP('',(#1358,#1359,#1360,#1361,#1362,#1369));
#1371=FACE_OUTER_BOUND('',#1370,.T.);
#1372=ADVANCED_FACE('',(#1371),#1357,.T.);
#1373=CARTESIAN_POINT('',(-4.704983443527074,-4.379058E-048,4.249999999999998));
#1374=DIRECTION('',(-1.0,0.0,-2.220446E-016));
#1375=DIRECTION('',(0.0,0.0,1.0));
#1376=AXIS2_PLACEMENT_3D('',#1373,#1374,#1375);
#1377=TOROIDAL_SURFACE('',#1376,3.950000000000000,0.300000000000000);
#1378=ORIENTED_EDGE('',*,*,#1222,.T.);
#1379=CARTESIAN_POINT('',(-4.499078868019690,4.370990E-047,4.249999999999998));
#1380=DIRECTION('',(-1.0,0.0,0.0));
#1381=DIRECTION('',(0.0,1.0,0.0));
#1382=AXIS2_PLACEMENT_3D('',#1379,#1380,#1381);
#1383=CIRCLE('',#1382,4.168181818181818);
#1384=EDGE_CURVE('',#1104,#1124,#1383,.T.);
#1385=ORIENTED_EDGE('',*,*,#1384,.T.);
#1386=ORIENTED_EDGE('',*,*,#1237,.F.);
#1387=ORIENTED_EDGE('',*,*,#1182,.T.);
#1388=CARTESIAN_POINT('',(-4.704983443527074,-4.379058E-048,4.249999999999998));
#1389=DIRECTION('',(1.0,0.0,0.0));
#1390=DIRECTION('',(0.0,1.0,0.0));
#1391=AXIS2_PLACEMENT_3D('',#1388,#1389,#1390);
#1392=CIRCLE('',#1391,4.250000000000000);
#1393=EDGE_CURVE('',#1166,#1216,#1392,.T.);
#1394=ORIENTED_EDGE('',*,*,#1393,.T.);
#1395=EDGE_LOOP('',(#1378,#1385,#1386,#1387,#1394));
#1396=FACE_OUTER_BOUND('',#1395,.T.);
#1397=ADVANCED_FACE('',(#1396),#1377,.T.);
#1398=CARTESIAN_POINT('',(-5.750000000000000,0.0,4.249999999999998));
#1399=DIRECTION('',(1.0,0.0,2.220446E-016));
#1400=DIRECTION('',(0.0,1.0,0.0));
#1401=AXIS2_PLACEMENT_3D('',#1398,#1399,#1400);
#1402=CYLINDRICAL_SURFACE('',#1401,4.250000000000000);
#1403=ORIENTED_EDGE('',*,*,#1173,.T.);
#1404=CARTESIAN_POINT('',(-5.450000000000000,0.0,4.249999999999998));
#1405=DIRECTION('',(-1.0,0.0,0.0));
#1406=DIRECTION('',(0.0,-1.0,0.0));
#1407=AXIS2_PLACEMENT_3D('',#1404,#1405,#1406);
#1408=CIRCLE('',#1407,4.250000000000000);
#1409=EDGE_CURVE('',#1018,#1168,#1408,.T.);
#1410=ORIENTED_EDGE('',*,*,#1409,.F.);
#1411=ORIENTED_EDGE('',*,*,#1024,.F.);
#1412=ORIENTED_EDGE('',*,*,#1197,.F.);
#1413=ORIENTED_EDGE('',*,*,#1229,.F.);
#1414=ORIENTED_EDGE('',*,*,#1393,.F.);
#1415=EDGE_LOOP('',(#1403,#1410,#1411,#1412,#1413,#1414));
#1416=FACE_OUTER_BOUND('',#1415,.T.);
#1417=ADVANCED_FACE('',(#1416),#1402,.T.);
#1418=CARTESIAN_POINT('',(-3.949999999999998,-4.379058E-048,4.249999999999998));
#1419=DIRECTION('',(-1.0,8.758115E-047,2.220446E-016));
#1420=DIRECTION('',(0.0,0.0,1.0));
#1421=AXIS2_PLACEMENT_3D('',#1418,#1419,#1420);
#1422=TOROIDAL_SURFACE('',#1421,4.750000000000000,0.800000000000000);
#1423=ORIENTED_EDGE('',*,*,#1112,.T.);
#1424=ORIENTED_EDGE('',*,*,#1339,.F.);
#1425=ORIENTED_EDGE('',*,*,#1139,.F.);
#1426=ORIENTED_EDGE('',*,*,#1384,.F.);
#1427=EDGE_LOOP('',(#1423,#1424,#1425,#1426));
#1428=FACE_OUTER_BOUND('',#1427,.T.);
#1429=ADVANCED_FACE('',(#1428),#1422,.F.);
#1430=CARTESIAN_POINT('',(5.449999999999999,0.0,4.250000000000001));
#1431=DIRECTION('',(-1.0,0.0,-2.220446E-016));
#1432=DIRECTION('',(0.0,0.0,1.0));
#1433=AXIS2_PLACEMENT_3D('',#1430,#1431,#1432);
#1434=TOROIDAL_SURFACE('',#1433,3.950000000000000,0.300000000000000);
#1435=ORIENTED_EDGE('',*,*,#1059,.T.);
#1436=CARTESIAN_POINT('',(5.750000000000000,3.950000000000000,4.250000000000001));
#1437=VERTEX_POINT('',#1436);
#1438=CARTESIAN_POINT('',(5.750000000000000,0.0,4.250000000000001));
#1439=DIRECTION('',(-1.0,0.0,0.0));
#1440=DIRECTION('',(0.0,-1.0,0.0));
#1441=AXIS2_PLACEMENT_3D('',#1438,#1439,#1440);
#1442=CIRCLE('',#1441,3.950000000000000);
#1443=EDGE_CURVE('',#1053,#1437,#1442,.T.);
#1444=ORIENTED_EDGE('',*,*,#1443,.T.);
#1445=CARTESIAN_POINT('',(5.750000000000000,0.0,4.250000000000001));
#1446=DIRECTION('',(-1.0,0.0,0.0));
#1447=DIRECTION('',(0.0,-1.0,0.0));
#1448=AXIS2_PLACEMENT_3D('',#1445,#1446,#1447);
#1449=CIRCLE('',#1448,3.950000000000000);
#1450=EDGE_CURVE('',#1437,#1080,#1449,.T.);
#1451=ORIENTED_EDGE('',*,*,#1450,.T.);
#1452=ORIENTED_EDGE('',*,*,#1086,.F.);
#1453=ORIENTED_EDGE('',*,*,#1264,.T.);
#1454=ORIENTED_EDGE('',*,*,#1368,.T.);
#1455=EDGE_LOOP('',(#1435,#1444,#1451,#1452,#1453,#1454));
#1456=FACE_OUTER_BOUND('',#1455,.T.);
#1457=ADVANCED_FACE('',(#1456),#1434,.T.);
#1458=CARTESIAN_POINT('',(5.750000000000000,0.0,4.250000000000001));
#1459=DIRECTION('',(1.0,0.0,0.0));
#1460=DIRECTION('',(0.0,0.0,-1.0));
#1461=AXIS2_PLACEMENT_3D('',#1458,#1459,#1460);
#1462=PLANE('',#1461);
#1463=ORIENTED_EDGE('',*,*,#1450,.F.);
#1464=ORIENTED_EDGE('',*,*,#1443,.F.);
#1465=ORIENTED_EDGE('',*,*,#1093,.F.);
#1466=EDGE_LOOP('',(#1463,#1464,#1465));
#1467=FACE_OUTER_BOUND('',#1466,.T.);
#1468=ORIENTED_EDGE('',*,*,#987,.T.);
#1469=CARTESIAN_POINT('',(5.750000000000000,0.0,4.250000000000001));
#1470=DIRECTION('',(-1.0,0.0,0.0));
#1471=DIRECTION('',(0.0,1.0,0.0));
#1472=AXIS2_PLACEMENT_3D('',#1469,#1470,#1471);
#1473=CIRCLE('',#1472,3.200000000000000);
#1474=EDGE_CURVE('',#975,#958,#1473,.T.);
#1475=ORIENTED_EDGE('',*,*,#1474,.T.);
#1476=EDGE_LOOP('',(#1468,#1475));
#1477=FACE_BOUND('',#1476,.T.);
#1478=ADVANCED_FACE('',(#1467,#1477),#1462,.T.);
#1479=CARTESIAN_POINT('',(-5.450000000000000,0.0,4.249999999999998));
#1480=DIRECTION('',(1.0,0.0,2.220446E-016));
#1481=DIRECTION('',(0.0,0.0,-1.0));
#1482=AXIS2_PLACEMENT_3D('',#1479,#1480,#1481);
#1483=TOROIDAL_SURFACE('',#1482,3.950000000000000,0.300000000000000);
#1484=ORIENTED_EDGE('',*,*,#1006,.T.);
#1485=CARTESIAN_POINT('',(-5.750000000000000,3.950000000000000,4.249999999999998));
#1486=VERTEX_POINT('',#1485);
#1487=CARTESIAN_POINT('',(-5.750000000000000,0.0,4.249999999999998));
#1488=DIRECTION('',(1.0,0.0,0.0));
#1489=DIRECTION('',(0.0,-1.0,0.0));
#1490=AXIS2_PLACEMENT_3D('',#1487,#1488,#1489);
#1491=CIRCLE('',#1490,3.950000000000000);
#1492=EDGE_CURVE('',#1000,#1486,#1491,.T.);
#1493=ORIENTED_EDGE('',*,*,#1492,.T.);
#1494=CARTESIAN_POINT('',(-5.750000000000000,0.0,4.249999999999998));
#1495=DIRECTION('',(1.0,0.0,0.0));
#1496=DIRECTION('',(0.0,-1.0,0.0));
#1497=AXIS2_PLACEMENT_3D('',#1494,#1495,#1496);
#1498=CIRCLE('',#1497,3.950000000000000);
#1499=EDGE_CURVE('',#1486,#1027,#1498,.T.);
#1500=ORIENTED_EDGE('',*,*,#1499,.T.);
#1501=ORIENTED_EDGE('',*,*,#1033,.F.);
#1502=ORIENTED_EDGE('',*,*,#1409,.T.);
#1503=ORIENTED_EDGE('',*,*,#1205,.T.);
#1504=EDGE_LOOP('',(#1484,#1493,#1500,#1501,#1502,#1503));
#1505=FACE_OUTER_BOUND('',#1504,.T.);
#1506=ADVANCED_FACE('',(#1505),#1483,.T.);
#1507=CARTESIAN_POINT('',(-5.750000000000000,0.0,4.249999999999998));
#1508=DIRECTION('',(1.0,0.0,0.0));
#1509=DIRECTION('',(0.0,0.0,-1.0));
#1510=AXIS2_PLACEMENT_3D('',#1507,#1508,#1509);
#1511=PLANE('',#1510);
#1512=ORIENTED_EDGE('',*,*,#1499,.F.);
#1513=ORIENTED_EDGE('',*,*,#1492,.F.);
#1514=ORIENTED_EDGE('',*,*,#1040,.F.);
#1515=EDGE_LOOP('',(#1512,#1513,#1514));
#1516=FACE_OUTER_BOUND('',#1515,.T.);
#1517=CARTESIAN_POINT('',(-5.750000000000000,0.0,4.249999999999998));
#1518=DIRECTION('',(1.0,0.0,0.0));
#1519=DIRECTION('',(0.0,1.0,0.0));
#1520=AXIS2_PLACEMENT_3D('',#1517,#1518,#1519);
#1521=CIRCLE('',#1520,3.200000000000000);
#1522=EDGE_CURVE('',#914,#924,#1521,.T.);
#1523=ORIENTED_EDGE('',*,*,#1522,.T.);
#1524=ORIENTED_EDGE('',*,*,#930,.T.);
#1525=EDGE_LOOP('',(#1523,#1524));
#1526=FACE_BOUND('',#1525,.T.);
#1527=ADVANCED_FACE('',(#1516,#1526),#1511,.F.);
#1528=CARTESIAN_POINT('',(5.550000000000000,0.0,4.250000000000001));
#1529=DIRECTION('',(1.0,0.0,0.0));
#1530=DIRECTION('',(0.0,1.0,0.0));
#1531=AXIS2_PLACEMENT_3D('',#1528,#1529,#1530);
#1532=CYLINDRICAL_SURFACE('',#1531,3.200000000000000);
#1533=ORIENTED_EDGE('',*,*,#963,.T.);
#1534=ORIENTED_EDGE('',*,*,#1474,.F.);
#1535=ORIENTED_EDGE('',*,*,#980,.F.);
#1536=CARTESIAN_POINT('',(5.550000000000000,0.0,4.250000000000001));
#1537=DIRECTION('',(1.0,0.0,0.0));
#1538=DIRECTION('',(0.0,1.0,0.0));
#1539=AXIS2_PLACEMENT_3D('',#1536,#1537,#1538);
#1540=CIRCLE('',#1539,3.200000000000000);
#1541=EDGE_CURVE('',#956,#966,#1540,.T.);
#1542=ORIENTED_EDGE('',*,*,#1541,.F.);
#1543=EDGE_LOOP('',(#1533,#1534,#1535,#1542));
#1544=FACE_OUTER_BOUND('',#1543,.T.);
#1545=ADVANCED_FACE('',(#1544),#1532,.F.);
#1546=CARTESIAN_POINT('',(5.550000000000000,0.0,4.250000000000001));
#1547=DIRECTION('',(1.0,0.0,0.0));
#1548=DIRECTION('',(0.0,0.0,-1.0));
#1549=AXIS2_PLACEMENT_3D('',#1546,#1547,#1548);
#1550=PLANE('',#1549);
#1551=ORIENTED_EDGE('',*,*,#1541,.T.);
#1552=ORIENTED_EDGE('',*,*,#972,.T.);
#1553=EDGE_LOOP('',(#1551,#1552));
#1554=FACE_OUTER_BOUND('',#1553,.T.);
#1555=ADVANCED_FACE('',(#1554),#1550,.T.);
#1556=CARTESIAN_POINT('',(-5.749999999999999,0.0,4.249999999999998));
#1557=DIRECTION('',(1.0,0.0,0.0));
#1558=DIRECTION('',(0.0,1.0,0.0));
#1559=AXIS2_PLACEMENT_3D('',#1556,#1557,#1558);
#1560=CYLINDRICAL_SURFACE('',#1559,3.200000000000000);
#1561=ORIENTED_EDGE('',*,*,#921,.T.);
#1562=CARTESIAN_POINT('',(-5.549999999999999,0.0,4.249999999999998));
#1563=DIRECTION('',(-1.0,0.0,0.0));
#1564=DIRECTION('',(0.0,1.0,0.0));
#1565=AXIS2_PLACEMENT_3D('',#1562,#1563,#1564);
#1566=CIRCLE('',#1565,3.200000000000000);
#1567=EDGE_CURVE('',#933,#916,#1566,.T.);
#1568=ORIENTED_EDGE('',*,*,#1567,.F.);
#1569=ORIENTED_EDGE('',*,*,#938,.F.);
#1570=ORIENTED_EDGE('',*,*,#1522,.F.);
#1571=EDGE_LOOP('',(#1561,#1568,#1569,#1570));
#1572=FACE_OUTER_BOUND('',#1571,.T.);
#1573=ADVANCED_FACE('',(#1572),#1560,.F.);
#1574=CARTESIAN_POINT('',(-5.549999999999999,0.0,4.249999999999998));
#1575=DIRECTION('',(1.0,0.0,0.0));
#1576=DIRECTION('',(0.0,0.0,-1.0));
#1577=AXIS2_PLACEMENT_3D('',#1574,#1575,#1576);
#1578=PLANE('',#1577);
#1579=ORIENTED_EDGE('',*,*,#945,.T.);
#1580=ORIENTED_EDGE('',*,*,#1567,.T.);
#1581=EDGE_LOOP('',(#1579,#1580));
#1582=FACE_OUTER_BOUND('',#1581,.T.);
#1583=ADVANCED_FACE('',(#1582),#1578,.F.);
#1584=CLOSED_SHELL('',(#949,#991,#1044,#1097,#1159,#1209,#1243,#1293,#1327,#1352,#1372,#1397,#1417,#1429,#1457,#1478,#1506,#1527,#1545,#1555,#1573,#1583));
#1585=MANIFOLD_SOLID_BREP('6D9',#1584);
#1586=COLOUR_RGB('160',0.0,0.250000000000000,1.0);
#1587=SURFACE_STYLE_USAGE(.BOTH.,#1588);
#1588=SURFACE_SIDE_STYLE('NONE',(#1589));
#1589=SURFACE_STYLE_FILL_AREA(#1590);
#1590=FILL_AREA_STYLE('NONE',(#1591));
#1591=FILL_AREA_STYLE_COLOUR('NONE',#1586);
#1592=PRESENTATION_STYLE_ASSIGNMENT((#1587));
#1593=STYLED_ITEM('NONE',(#1592),#1585);
#1594=ADVANCED_BREP_SHAPE_REPRESENTATION('ABSR1',(#474,#572,#668,#906,#1585),#28);
#1595=SHAPE_REPRESENTATION_RELATIONSHIP('SRRPL1','',#1594,#62);
ENDSEC;
END-ISO-10303-21;
