ISO-10303-21;
HEADER;
/****************************************************************
 * Generated by software with PDElib inside                    *
 * PDElib Version v51a, created Fri 09/10/2010                  *
 * ITI Transcendata (http://www.transcendata.com/)              *
 ****************************************************************/
FILE_DESCRIPTION((''),'2;1');
FILE_NAME('CAPPR750-1650X1600.stp','2015-07-02T15:16:20',(''),(''),'Mechanical Desktop 2011','Mechanical Desktop 2011',', , ');
FILE_SCHEMA(('AUTOMOTIVE_DESIGN { 1 2 10303 214 1 1 1 1 }'));
ENDSEC;
DATA;
#10=(NAMED_UNIT(*)PLANE_ANGLE_UNIT()SI_UNIT($,.RADIAN.));
#11=DIMENSIONAL_EXPONENTS(0.0,0.0,0.0,0.0,0.0,0.0,0.0);
#12=PLANE_ANGLE_MEASURE_WITH_UNIT(PLANE_ANGLE_MEASURE(0.0174532925),#10);
#16=(CONVERSION_BASED_UNIT('DEGREE',#12)NAMED_UNIT(#11)PLANE_ANGLE_UNIT());
#20=(NAMED_UNIT(*)SI_UNIT($,.STERADIAN.)SOLID_ANGLE_UNIT());
#24=(LENGTH_UNIT()NAMED_UNIT(*)SI_UNIT(.MILLI.,.METRE.));
#26=UNCERTAINTY_MEASURE_WITH_UNIT(LENGTH_MEASURE(0.000001),#24,'DISTANCE_ACCURACY_VALUE','');
#28=(GEOMETRIC_REPRESENTATION_CONTEXT(3)GLOBAL_UNCERTAINTY_ASSIGNED_CONTEXT((#26))GLOBAL_UNIT_ASSIGNED_CONTEXT((#16,#20,#24))REPRESENTATION_CONTEXT('','3D'));
#29=APPLICATION_CONTEXT('automotive design');
#30=APPLICATION_PROTOCOL_DEFINITION('INTERNATIONAL_STANDARD','automotive_design',1998,#29);
#31=PRODUCT_CONTEXT('3D Mechanical Parts',#29,'mechanical');
#32=PRODUCT('Product','Product','',(#31));
#33=PRODUCT_RELATED_PRODUCT_CATEGORY('part',$,(#32));
#34=PRODUCT_CATEGORY('part',$);
#35=PERSON('1','Design','Joe',$,$,$);
#36=ORGANIZATION($,'None','None');
#37=PERSON_AND_ORGANIZATION(#35,#36);
#38=PERSON_AND_ORGANIZATION_ROLE('design_owner');
#39=APPLIED_PERSON_AND_ORGANIZATION_ASSIGNMENT(#37,#38,(#32));
#40=PRODUCT_DEFINITION_FORMATION_WITH_SPECIFIED_SOURCE('None','',#32,.BOUGHT.);
#41=PERSON('2','Creator','Joe',$,$,$);
#42=ORGANIZATION($,'None','None');
#43=PERSON_AND_ORGANIZATION(#41,#42);
#44=PERSON_AND_ORGANIZATION_ROLE('creator');
#45=APPLIED_PERSON_AND_ORGANIZATION_ASSIGNMENT(#43,#44,(#40));
#46=PERSON('3','Supplier','Joe',$,$,$);
#47=ORGANIZATION($,'None','None');
#48=PERSON_AND_ORGANIZATION(#46,#47);
#49=PERSON_AND_ORGANIZATION_ROLE('design_supplier');
#50=APPLIED_PERSON_AND_ORGANIZATION_ASSIGNMENT(#48,#49,(#40));
#51=PRODUCT_DEFINITION_CONTEXT('part definition',#29,'design');
#52=PRODUCT_DEFINITION('None','',#40,#51);
#53=PERSON('4','Creator','Joe',$,$,$);
#54=ORGANIZATION($,'None','None');
#55=PERSON_AND_ORGANIZATION(#53,#54);
#56=PERSON_AND_ORGANIZATION_ROLE('creator');
#57=APPLIED_PERSON_AND_ORGANIZATION_ASSIGNMENT(#55,#56,(#52));
#58=CARTESIAN_POINT('NONE',(0.0,0.0,0.0));
#59=DIRECTION('NONE',(0.0,0.0,1.0));
#60=DIRECTION('NONE',(1.0,0.0,0.0));
#61=AXIS2_PLACEMENT_3D('NONE',#58,#59,#60);
#62=SHAPE_REPRESENTATION('SR1',(#61),#28);
#63=PRODUCT_DEFINITION_SHAPE('PDS1','Test Part',#52);
#64=SHAPE_DEFINITION_REPRESENTATION(#63,#62);
#65=CARTESIAN_POINT('',(0.0,6.661338E-017,0.600000000000014));
#66=DIRECTION('',(0.0,0.0,-1.0));
#67=DIRECTION('',(1.0,0.0,0.0));
#68=AXIS2_PLACEMENT_3D('',#65,#66,#67);
#69=CYLINDRICAL_SURFACE('',#68,5.757820768311567);
#70=CARTESIAN_POINT('',(5.757820768311567,6.661338E-017,0.300000000000013));
#71=VERTEX_POINT('',#70);
#72=CARTESIAN_POINT('',(5.757820768311567,6.661338E-017,0.600000000000014));
#73=VERTEX_POINT('',#72);
#74=CARTESIAN_POINT('',(5.757820768311567,6.661338E-017,0.300000000000013));
#75=DIRECTION('',(0.0,0.0,1.0));
#76=VECTOR('',#75,0.300000000000001);
#77=LINE('',#74,#76);
#78=EDGE_CURVE('',#71,#73,#77,.T.);
#79=ORIENTED_EDGE('',*,*,#78,.F.);
#80=CARTESIAN_POINT('',(-5.757820768311567,7.717431E-016,0.300000000000013));
#81=VERTEX_POINT('',#80);
#82=CARTESIAN_POINT('',(0.0,6.661338E-017,0.300000000000013));
#83=DIRECTION('',(0.0,0.0,1.0));
#84=DIRECTION('',(1.0,0.0,0.0));
#85=AXIS2_PLACEMENT_3D('',#82,#83,#84);
#86=CIRCLE('',#85,5.757820768311567);
#87=EDGE_CURVE('',#71,#81,#86,.T.);
#88=ORIENTED_EDGE('',*,*,#87,.T.);
#89=CARTESIAN_POINT('',(-5.757820768311567,7.717431E-016,0.600000000000014));
#90=VERTEX_POINT('',#89);
#91=CARTESIAN_POINT('',(-5.757820768311567,7.717431E-016,0.300000000000013));
#92=DIRECTION('',(0.0,0.0,1.0));
#93=VECTOR('',#92,0.300000000000001);
#94=LINE('',#91,#93);
#95=EDGE_CURVE('',#81,#90,#94,.T.);
#96=ORIENTED_EDGE('',*,*,#95,.T.);
#97=CARTESIAN_POINT('',(0.0,6.661338E-017,0.600000000000014));
#98=DIRECTION('',(0.0,0.0,1.0));
#99=DIRECTION('',(1.0,0.0,0.0));
#100=AXIS2_PLACEMENT_3D('',#97,#98,#99);
#101=CIRCLE('',#100,5.757820768311567);
#102=EDGE_CURVE('',#73,#90,#101,.T.);
#103=ORIENTED_EDGE('',*,*,#102,.F.);
#104=EDGE_LOOP('',(#79,#88,#96,#103));
#105=FACE_OUTER_BOUND('',#104,.T.);
#106=ADVANCED_FACE('',(#105),#69,.T.);
#107=CARTESIAN_POINT('',(0.0,6.661338E-017,0.600000000000014));
#108=DIRECTION('',(0.0,0.0,-1.0));
#109=DIRECTION('',(1.0,0.0,0.0));
#110=AXIS2_PLACEMENT_3D('',#107,#108,#109);
#111=CYLINDRICAL_SURFACE('',#110,5.757820768311567);
#112=ORIENTED_EDGE('',*,*,#78,.T.);
#113=CARTESIAN_POINT('',(0.0,6.661338E-017,0.600000000000014));
#114=DIRECTION('',(0.0,0.0,1.0));
#115=DIRECTION('',(1.0,0.0,0.0));
#116=AXIS2_PLACEMENT_3D('',#113,#114,#115);
#117=CIRCLE('',#116,5.757820768311567);
#118=EDGE_CURVE('',#90,#73,#117,.T.);
#119=ORIENTED_EDGE('',*,*,#118,.F.);
#120=ORIENTED_EDGE('',*,*,#95,.F.);
#121=CARTESIAN_POINT('',(0.0,6.661338E-017,0.300000000000013));
#122=DIRECTION('',(0.0,0.0,1.0));
#123=DIRECTION('',(1.0,0.0,0.0));
#124=AXIS2_PLACEMENT_3D('',#121,#122,#123);
#125=CIRCLE('',#124,5.757820768311567);
#126=EDGE_CURVE('',#81,#71,#125,.T.);
#127=ORIENTED_EDGE('',*,*,#126,.T.);
#128=EDGE_LOOP('',(#112,#119,#120,#127));
#129=FACE_OUTER_BOUND('',#128,.T.);
#130=ADVANCED_FACE('',(#129),#111,.T.);
#131=CARTESIAN_POINT('',(0.0,6.661338E-017,0.300000000000013));
#132=DIRECTION('',(0.0,0.0,1.0));
#133=DIRECTION('',(1.0,0.0,0.0));
#134=AXIS2_PLACEMENT_3D('',#131,#132,#133);
#135=PLANE('',#134);
#136=ORIENTED_EDGE('',*,*,#87,.F.);
#137=ORIENTED_EDGE('',*,*,#126,.F.);
#138=EDGE_LOOP('',(#136,#137));
#139=FACE_OUTER_BOUND('',#138,.T.);
#140=ADVANCED_FACE('',(#139),#135,.F.);
#141=CARTESIAN_POINT('',(0.0,6.661338E-017,0.600000000000014));
#142=DIRECTION('',(0.0,0.0,1.0));
#143=DIRECTION('',(1.0,0.0,0.0));
#144=AXIS2_PLACEMENT_3D('',#141,#142,#143);
#145=PLANE('',#144);
#146=ORIENTED_EDGE('',*,*,#102,.T.);
#147=ORIENTED_EDGE('',*,*,#118,.T.);
#148=EDGE_LOOP('',(#146,#147));
#149=FACE_OUTER_BOUND('',#148,.T.);
#150=ADVANCED_FACE('',(#149),#145,.T.);
#151=CLOSED_SHELL('',(#106,#130,#140,#150));
#152=MANIFOLD_SOLID_BREP('3DA',#151);
#153=COLOUR_RGB('254',0.866,0.866,0.866);
#154=SURFACE_STYLE_USAGE(.BOTH.,#155);
#155=SURFACE_SIDE_STYLE('NONE',(#156));
#156=SURFACE_STYLE_FILL_AREA(#157);
#157=FILL_AREA_STYLE('NONE',(#158));
#158=FILL_AREA_STYLE_COLOUR('NONE',#153);
#159=PRESENTATION_STYLE_ASSIGNMENT((#154));
#160=STYLED_ITEM('NONE',(#159),#152);
#161=MECHANICAL_DESIGN_GEOMETRIC_PRESENTATION_REPRESENTATION('NONE',(#160,#251,#406,#561,#1469,#1558,#1647),#28);
#162=PRESENTATION_LAYER_ASSIGNMENT('3D','None',(#152,#250,#405,#560,#1461,#1557,#1646));
#163=CARTESIAN_POINT('',(0.0,-1.332268E-016,15.700000000000003));
#164=DIRECTION('',(0.0,0.0,-1.0));
#165=DIRECTION('',(1.0,0.0,0.0));
#166=AXIS2_PLACEMENT_3D('',#163,#164,#165);
#167=CYLINDRICAL_SURFACE('',#166,5.757820768311567);
#168=CARTESIAN_POINT('',(5.757820768311567,-1.332268E-016,15.400000000000002));
#169=VERTEX_POINT('',#168);
#170=CARTESIAN_POINT('',(5.757820768311567,-1.332268E-016,15.700000000000003));
#171=VERTEX_POINT('',#170);
#172=CARTESIAN_POINT('',(5.757820768311567,-1.332268E-016,15.400000000000002));
#173=DIRECTION('',(0.0,0.0,1.0));
#174=VECTOR('',#173,0.300000000000001);
#175=LINE('',#172,#174);
#176=EDGE_CURVE('',#169,#171,#175,.T.);
#177=ORIENTED_EDGE('',*,*,#176,.F.);
#178=CARTESIAN_POINT('',(-5.757820768311567,5.719029E-016,15.400000000000002));
#179=VERTEX_POINT('',#178);
#180=CARTESIAN_POINT('',(0.0,-1.332268E-016,15.400000000000002));
#181=DIRECTION('',(0.0,0.0,1.0));
#182=DIRECTION('',(1.0,0.0,0.0));
#183=AXIS2_PLACEMENT_3D('',#180,#181,#182);
#184=CIRCLE('',#183,5.757820768311567);
#185=EDGE_CURVE('',#169,#179,#184,.T.);
#186=ORIENTED_EDGE('',*,*,#185,.T.);
#187=CARTESIAN_POINT('',(-5.757820768311567,5.719029E-016,15.700000000000003));
#188=VERTEX_POINT('',#187);
#189=CARTESIAN_POINT('',(-5.757820768311567,5.719029E-016,15.400000000000002));
#190=DIRECTION('',(0.0,0.0,1.0));
#191=VECTOR('',#190,0.300000000000001);
#192=LINE('',#189,#191);
#193=EDGE_CURVE('',#179,#188,#192,.T.);
#194=ORIENTED_EDGE('',*,*,#193,.T.);
#195=CARTESIAN_POINT('',(0.0,-1.332268E-016,15.700000000000003));
#196=DIRECTION('',(0.0,0.0,1.0));
#197=DIRECTION('',(1.0,0.0,0.0));
#198=AXIS2_PLACEMENT_3D('',#195,#196,#197);
#199=CIRCLE('',#198,5.757820768311567);
#200=EDGE_CURVE('',#171,#188,#199,.T.);
#201=ORIENTED_EDGE('',*,*,#200,.F.);
#202=EDGE_LOOP('',(#177,#186,#194,#201));
#203=FACE_OUTER_BOUND('',#202,.T.);
#204=ADVANCED_FACE('',(#203),#167,.T.);
#205=CARTESIAN_POINT('',(0.0,-1.332268E-016,15.700000000000003));
#206=DIRECTION('',(0.0,0.0,-1.0));
#207=DIRECTION('',(1.0,0.0,0.0));
#208=AXIS2_PLACEMENT_3D('',#205,#206,#207);
#209=CYLINDRICAL_SURFACE('',#208,5.757820768311567);
#210=ORIENTED_EDGE('',*,*,#176,.T.);
#211=CARTESIAN_POINT('',(0.0,-1.332268E-016,15.700000000000003));
#212=DIRECTION('',(0.0,0.0,1.0));
#213=DIRECTION('',(1.0,0.0,0.0));
#214=AXIS2_PLACEMENT_3D('',#211,#212,#213);
#215=CIRCLE('',#214,5.757820768311567);
#216=EDGE_CURVE('',#188,#171,#215,.T.);
#217=ORIENTED_EDGE('',*,*,#216,.F.);
#218=ORIENTED_EDGE('',*,*,#193,.F.);
#219=CARTESIAN_POINT('',(0.0,-1.332268E-016,15.400000000000002));
#220=DIRECTION('',(0.0,0.0,1.0));
#221=DIRECTION('',(1.0,0.0,0.0));
#222=AXIS2_PLACEMENT_3D('',#219,#220,#221);
#223=CIRCLE('',#222,5.757820768311567);
#224=EDGE_CURVE('',#179,#169,#223,.T.);
#225=ORIENTED_EDGE('',*,*,#224,.T.);
#226=EDGE_LOOP('',(#210,#217,#218,#225));
#227=FACE_OUTER_BOUND('',#226,.T.);
#228=ADVANCED_FACE('',(#227),#209,.T.);
#229=CARTESIAN_POINT('',(0.0,-1.332268E-016,15.400000000000002));
#230=DIRECTION('',(0.0,0.0,1.0));
#231=DIRECTION('',(1.0,0.0,0.0));
#232=AXIS2_PLACEMENT_3D('',#229,#230,#231);
#233=PLANE('',#232);
#234=ORIENTED_EDGE('',*,*,#185,.F.);
#235=ORIENTED_EDGE('',*,*,#224,.F.);
#236=EDGE_LOOP('',(#234,#235));
#237=FACE_OUTER_BOUND('',#236,.T.);
#238=ADVANCED_FACE('',(#237),#233,.F.);
#239=CARTESIAN_POINT('',(0.0,-1.332268E-016,15.700000000000003));
#240=DIRECTION('',(0.0,0.0,1.0));
#241=DIRECTION('',(1.0,0.0,0.0));
#242=AXIS2_PLACEMENT_3D('',#239,#240,#241);
#243=PLANE('',#242);
#244=ORIENTED_EDGE('',*,*,#200,.T.);
#245=ORIENTED_EDGE('',*,*,#216,.T.);
#246=EDGE_LOOP('',(#244,#245));
#247=FACE_OUTER_BOUND('',#246,.T.);
#248=ADVANCED_FACE('',(#247),#243,.T.);
#249=CLOSED_SHELL('',(#204,#228,#238,#248));
#250=MANIFOLD_SOLID_BREP('3CB',#249);
#251=STYLED_ITEM('NONE',(#159),#250);
#252=CARTESIAN_POINT('',(1.065814E-014,-6.880621E-015,9.046191597012342));
#253=DIRECTION('',(5.438345E-032,-8.881784E-016,-1.0));
#254=DIRECTION('',(1.0,0.0,0.0));
#255=AXIS2_PLACEMENT_3D('',#252,#253,#254);
#256=CYLINDRICAL_SURFACE('',#255,8.249999999999996);
#257=CARTESIAN_POINT('',(8.218606259256907,-0.71903487766819,5.046191597012343));
#258=VERTEX_POINT('',#257);
#259=CARTESIAN_POINT('',(8.218606259256907,0.719034877668171,5.046191597012341));
#260=VERTEX_POINT('',#259);
#261=CARTESIAN_POINT('',(1.065814E-014,-1.043333E-014,5.046191597012342));
#262=DIRECTION('',(0.0,0.0,1.0));
#263=DIRECTION('',(1.0,0.0,0.0));
#264=AXIS2_PLACEMENT_3D('',#261,#262,#263);
#265=CIRCLE('',#264,8.249999999999996);
#266=EDGE_CURVE('',#258,#260,#265,.T.);
#267=ORIENTED_EDGE('',*,*,#266,.T.);
#268=CARTESIAN_POINT('',(8.218606259256907,0.719034877668175,9.046191597012342));
#269=VERTEX_POINT('',#268);
#270=CARTESIAN_POINT('',(8.218606259256907,0.719034877668175,9.046191597012342));
#271=DIRECTION('',(0.0,0.0,-1.0));
#272=VECTOR('',#271,4.0);
#273=LINE('',#270,#272);
#274=EDGE_CURVE('',#269,#260,#273,.T.);
#275=ORIENTED_EDGE('',*,*,#274,.F.);
#276=CARTESIAN_POINT('',(8.218606259256907,-0.719034877668186,9.046191597012342));
#277=VERTEX_POINT('',#276);
#278=CARTESIAN_POINT('',(1.065814E-014,-6.880621E-015,9.046191597012342));
#279=DIRECTION('',(0.0,0.0,-1.0));
#280=DIRECTION('',(1.0,0.0,0.0));
#281=AXIS2_PLACEMENT_3D('',#278,#279,#280);
#282=CIRCLE('',#281,8.249999999999996);
#283=EDGE_CURVE('',#269,#277,#282,.T.);
#284=ORIENTED_EDGE('',*,*,#283,.T.);
#285=CARTESIAN_POINT('',(8.218606259256907,-0.719034877668186,9.046191597012342));
#286=DIRECTION('',(0.0,0.0,-1.0));
#287=VECTOR('',#286,4.0);
#288=LINE('',#285,#287);
#289=EDGE_CURVE('',#277,#258,#288,.T.);
#290=ORIENTED_EDGE('',*,*,#289,.T.);
#291=EDGE_LOOP('',(#267,#275,#284,#290));
#292=FACE_OUTER_BOUND('',#291,.T.);
#293=ADVANCED_FACE('',(#292),#256,.T.);
#294=CARTESIAN_POINT('',(8.218606259256907,0.719034877668175,9.046191597012342));
#295=DIRECTION('',(-0.087155742747658,0.996194698091746,-8.847986E-016));
#296=DIRECTION('',(0.0,0.0,-1.0));
#297=AXIS2_PLACEMENT_3D('',#294,#295,#296);
#298=PLANE('',#297);
#299=CARTESIAN_POINT('',(7.96955758473397,0.697245941981256,5.046191597012341));
#300=VERTEX_POINT('',#299);
#301=CARTESIAN_POINT('',(8.218606259256907,0.719034877668171,5.046191597012341));
#302=DIRECTION('',(-0.996194698091746,-0.087155742747658,0.0));
#303=VECTOR('',#302,0.250000000000001);
#304=LINE('',#301,#303);
#305=EDGE_CURVE('',#260,#300,#304,.T.);
#306=ORIENTED_EDGE('',*,*,#305,.T.);
#307=CARTESIAN_POINT('',(7.96955758473397,0.69724594198126,9.046191597012342));
#308=VERTEX_POINT('',#307);
#309=CARTESIAN_POINT('',(7.96955758473397,0.69724594198126,9.046191597012342));
#310=DIRECTION('',(0.0,0.0,-1.0));
#311=VECTOR('',#310,4.0);
#312=LINE('',#309,#311);
#313=EDGE_CURVE('',#308,#300,#312,.T.);
#314=ORIENTED_EDGE('',*,*,#313,.F.);
#315=CARTESIAN_POINT('',(7.96955758473397,0.69724594198126,9.046191597012342));
#316=DIRECTION('',(0.996194698091746,0.087155742747658,0.0));
#317=VECTOR('',#316,0.250000000000001);
#318=LINE('',#315,#317);
#319=EDGE_CURVE('',#308,#269,#318,.T.);
#320=ORIENTED_EDGE('',*,*,#319,.T.);
#321=ORIENTED_EDGE('',*,*,#274,.T.);
#322=EDGE_LOOP('',(#306,#314,#320,#321));
#323=FACE_OUTER_BOUND('',#322,.T.);
#324=ADVANCED_FACE('',(#323),#298,.T.);
#325=CARTESIAN_POINT('',(1.776357E-015,-7.713288E-015,9.046191597012342));
#326=DIRECTION('',(5.438345E-032,-8.881784E-016,-1.0));
#327=DIRECTION('',(1.0,0.0,0.0));
#328=AXIS2_PLACEMENT_3D('',#325,#326,#327);
#329=CYLINDRICAL_SURFACE('',#328,8.000000000000004);
#330=CARTESIAN_POINT('',(7.96955758473397,-0.697245941981277,5.046191597012343));
#331=VERTEX_POINT('',#330);
#332=CARTESIAN_POINT('',(1.776357E-015,-1.126600E-014,5.046191597012342));
#333=DIRECTION('',(0.0,0.0,-1.0));
#334=DIRECTION('',(1.0,0.0,0.0));
#335=AXIS2_PLACEMENT_3D('',#332,#333,#334);
#336=CIRCLE('',#335,8.000000000000004);
#337=EDGE_CURVE('',#300,#331,#336,.T.);
#338=ORIENTED_EDGE('',*,*,#337,.T.);
#339=CARTESIAN_POINT('',(7.96955758473397,-0.697245941981273,9.046191597012342));
#340=VERTEX_POINT('',#339);
#341=CARTESIAN_POINT('',(7.96955758473397,-0.697245941981273,9.046191597012342));
#342=DIRECTION('',(0.0,0.0,-1.0));
#343=VECTOR('',#342,4.0);
#344=LINE('',#341,#343);
#345=EDGE_CURVE('',#340,#331,#344,.T.);
#346=ORIENTED_EDGE('',*,*,#345,.F.);
#347=CARTESIAN_POINT('',(1.776357E-015,-7.713288E-015,9.046191597012342));
#348=DIRECTION('',(0.0,0.0,1.0));
#349=DIRECTION('',(1.0,0.0,0.0));
#350=AXIS2_PLACEMENT_3D('',#347,#348,#349);
#351=CIRCLE('',#350,8.000000000000004);
#352=EDGE_CURVE('',#340,#308,#351,.T.);
#353=ORIENTED_EDGE('',*,*,#352,.T.);
#354=ORIENTED_EDGE('',*,*,#313,.T.);
#355=EDGE_LOOP('',(#338,#346,#353,#354));
#356=FACE_OUTER_BOUND('',#355,.T.);
#357=ADVANCED_FACE('',(#356),#329,.F.);
#358=CARTESIAN_POINT('',(7.96955758473397,-0.697245941981273,9.046191597012342));
#359=DIRECTION('',(-0.087155742747652,-0.996194698091746,8.847986E-016));
#360=DIRECTION('',(0.0,0.0,1.0));
#361=AXIS2_PLACEMENT_3D('',#358,#359,#360);
#362=PLANE('',#361);
#363=CARTESIAN_POINT('',(7.96955758473397,-0.697245941981277,5.046191597012343));
#364=DIRECTION('',(0.996194698091746,-0.087155742747652,0.0));
#365=VECTOR('',#364,0.250000000000001);
#366=LINE('',#363,#365);
#367=EDGE_CURVE('',#331,#258,#366,.T.);
#368=ORIENTED_EDGE('',*,*,#367,.T.);
#369=ORIENTED_EDGE('',*,*,#289,.F.);
#370=CARTESIAN_POINT('',(8.218606259256907,-0.719034877668186,9.046191597012342));
#371=DIRECTION('',(-0.996194698091746,0.087155742747652,0.0));
#372=VECTOR('',#371,0.250000000000001);
#373=LINE('',#370,#372);
#374=EDGE_CURVE('',#277,#340,#373,.T.);
#375=ORIENTED_EDGE('',*,*,#374,.T.);
#376=ORIENTED_EDGE('',*,*,#345,.T.);
#377=EDGE_LOOP('',(#368,#369,#375,#376));
#378=FACE_OUTER_BOUND('',#377,.T.);
#379=ADVANCED_FACE('',(#378),#362,.T.);
#380=CARTESIAN_POINT('',(8.111482948227902,-9.810852E-015,5.046191597012342));
#381=DIRECTION('',(0.0,0.0,1.0));
#382=DIRECTION('',(-1.0,0.0,0.0));
#383=AXIS2_PLACEMENT_3D('',#380,#381,#382);
#384=PLANE('',#383);
#385=ORIENTED_EDGE('',*,*,#266,.F.);
#386=ORIENTED_EDGE('',*,*,#367,.F.);
#387=ORIENTED_EDGE('',*,*,#337,.F.);
#388=ORIENTED_EDGE('',*,*,#305,.F.);
#389=EDGE_LOOP('',(#385,#386,#387,#388));
#390=FACE_OUTER_BOUND('',#389,.T.);
#391=ADVANCED_FACE('',(#390),#384,.F.);
#392=CARTESIAN_POINT('',(8.111482948227902,-6.258138E-015,9.046191597012342));
#393=DIRECTION('',(0.0,0.0,1.0));
#394=DIRECTION('',(-1.0,0.0,0.0));
#395=AXIS2_PLACEMENT_3D('',#392,#393,#394);
#396=PLANE('',#395);
#397=ORIENTED_EDGE('',*,*,#374,.F.);
#398=ORIENTED_EDGE('',*,*,#283,.F.);
#399=ORIENTED_EDGE('',*,*,#319,.F.);
#400=ORIENTED_EDGE('',*,*,#352,.F.);
#401=EDGE_LOOP('',(#397,#398,#399,#400));
#402=FACE_OUTER_BOUND('',#401,.T.);
#403=ADVANCED_FACE('',(#402),#396,.T.);
#404=CLOSED_SHELL('',(#293,#324,#357,#379,#391,#403));
#405=MANIFOLD_SOLID_BREP('3BE',#404);
#406=STYLED_ITEM('NONE',(#159),#405);
#407=CARTESIAN_POINT('',(1.243450E-014,-1.217475E-015,14.92232719154871));
#408=DIRECTION('',(5.438345E-032,-8.881784E-016,-1.0));
#409=DIRECTION('',(1.0,0.0,0.0));
#410=AXIS2_PLACEMENT_3D('',#407,#408,#409);
#411=CYLINDRICAL_SURFACE('',#410,8.249999999999996);
#412=CARTESIAN_POINT('',(8.218606259256909,-0.719034877668184,10.92232719154871));
#413=VERTEX_POINT('',#412);
#414=CARTESIAN_POINT('',(8.218606259256909,0.719034877668177,10.92232719154871));
#415=VERTEX_POINT('',#414);
#416=CARTESIAN_POINT('',(1.243450E-014,-4.770188E-015,10.92232719154871));
#417=DIRECTION('',(0.0,0.0,1.0));
#418=DIRECTION('',(1.0,0.0,0.0));
#419=AXIS2_PLACEMENT_3D('',#416,#417,#418);
#420=CIRCLE('',#419,8.249999999999996);
#421=EDGE_CURVE('',#413,#415,#420,.T.);
#422=ORIENTED_EDGE('',*,*,#421,.T.);
#423=CARTESIAN_POINT('',(8.218606259256909,0.71903487766818,14.92232719154871));
#424=VERTEX_POINT('',#423);
#425=CARTESIAN_POINT('',(8.218606259256909,0.71903487766818,14.92232719154871));
#426=DIRECTION('',(0.0,0.0,-1.0));
#427=VECTOR('',#426,4.0);
#428=LINE('',#425,#427);
#429=EDGE_CURVE('',#424,#415,#428,.T.);
#430=ORIENTED_EDGE('',*,*,#429,.F.);
#431=CARTESIAN_POINT('',(8.218606259256909,-0.719034877668181,14.92232719154871));
#432=VERTEX_POINT('',#431);
#433=CARTESIAN_POINT('',(1.243450E-014,-1.217475E-015,14.92232719154871));
#434=DIRECTION('',(0.0,0.0,-1.0));
#435=DIRECTION('',(1.0,0.0,0.0));
#436=AXIS2_PLACEMENT_3D('',#433,#434,#435);
#437=CIRCLE('',#436,8.249999999999996);
#438=EDGE_CURVE('',#424,#432,#437,.T.);
#439=ORIENTED_EDGE('',*,*,#438,.T.);
#440=CARTESIAN_POINT('',(8.218606259256909,-0.719034877668181,14.92232719154871));
#441=DIRECTION('',(0.0,0.0,-1.0));
#442=VECTOR('',#441,4.0);
#443=LINE('',#440,#442);
#444=EDGE_CURVE('',#432,#413,#443,.T.);
#445=ORIENTED_EDGE('',*,*,#444,.T.);
#446=EDGE_LOOP('',(#422,#430,#439,#445));
#447=FACE_OUTER_BOUND('',#446,.T.);
#448=ADVANCED_FACE('',(#447),#411,.T.);
#449=CARTESIAN_POINT('',(8.218606259256909,0.71903487766818,14.92232719154871));
#450=DIRECTION('',(-0.087155742747658,0.996194698091746,-8.847986E-016));
#451=DIRECTION('',(0.0,0.0,-1.0));
#452=AXIS2_PLACEMENT_3D('',#449,#450,#451);
#453=PLANE('',#452);
#454=CARTESIAN_POINT('',(7.969557584733972,0.697245941981262,10.92232719154871));
#455=VERTEX_POINT('',#454);
#456=CARTESIAN_POINT('',(8.218606259256909,0.719034877668177,10.92232719154871));
#457=DIRECTION('',(-0.996194698091746,-0.087155742747658,0.0));
#458=VECTOR('',#457,0.250000000000001);
#459=LINE('',#456,#458);
#460=EDGE_CURVE('',#415,#455,#459,.T.);
#461=ORIENTED_EDGE('',*,*,#460,.T.);
#462=CARTESIAN_POINT('',(7.969557584733972,0.697245941981266,14.92232719154871));
#463=VERTEX_POINT('',#462);
#464=CARTESIAN_POINT('',(7.969557584733972,0.697245941981266,14.92232719154871));
#465=DIRECTION('',(0.0,0.0,-1.0));
#466=VECTOR('',#465,4.0);
#467=LINE('',#464,#466);
#468=EDGE_CURVE('',#463,#455,#467,.T.);
#469=ORIENTED_EDGE('',*,*,#468,.F.);
#470=CARTESIAN_POINT('',(7.969557584733972,0.697245941981266,14.92232719154871));
#471=DIRECTION('',(0.996194698091746,0.087155742747658,0.0));
#472=VECTOR('',#471,0.250000000000001);
#473=LINE('',#470,#472);
#474=EDGE_CURVE('',#463,#424,#473,.T.);
#475=ORIENTED_EDGE('',*,*,#474,.T.);
#476=ORIENTED_EDGE('',*,*,#429,.T.);
#477=EDGE_LOOP('',(#461,#469,#475,#476));
#478=FACE_OUTER_BOUND('',#477,.T.);
#479=ADVANCED_FACE('',(#478),#453,.T.);
#480=CARTESIAN_POINT('',(3.552714E-015,-2.050142E-015,14.92232719154871));
#481=DIRECTION('',(5.438345E-032,-8.881784E-016,-1.0));
#482=DIRECTION('',(1.0,0.0,0.0));
#483=AXIS2_PLACEMENT_3D('',#480,#481,#482);
#484=CYLINDRICAL_SURFACE('',#483,8.000000000000004);
#485=CARTESIAN_POINT('',(7.969557584733972,-0.697245941981271,10.92232719154871));
#486=VERTEX_POINT('',#485);
#487=CARTESIAN_POINT('',(3.552714E-015,-5.602856E-015,10.92232719154871));
#488=DIRECTION('',(0.0,0.0,-1.0));
#489=DIRECTION('',(1.0,0.0,0.0));
#490=AXIS2_PLACEMENT_3D('',#487,#488,#489);
#491=CIRCLE('',#490,8.000000000000004);
#492=EDGE_CURVE('',#455,#486,#491,.T.);
#493=ORIENTED_EDGE('',*,*,#492,.T.);
#494=CARTESIAN_POINT('',(7.969557584733972,-0.697245941981268,14.92232719154871));
#495=VERTEX_POINT('',#494);
#496=CARTESIAN_POINT('',(7.969557584733972,-0.697245941981268,14.92232719154871));
#497=DIRECTION('',(0.0,0.0,-1.0));
#498=VECTOR('',#497,4.0);
#499=LINE('',#496,#498);
#500=EDGE_CURVE('',#495,#486,#499,.T.);
#501=ORIENTED_EDGE('',*,*,#500,.F.);
#502=CARTESIAN_POINT('',(3.552714E-015,-2.050142E-015,14.92232719154871));
#503=DIRECTION('',(0.0,0.0,1.0));
#504=DIRECTION('',(1.0,0.0,0.0));
#505=AXIS2_PLACEMENT_3D('',#502,#503,#504);
#506=CIRCLE('',#505,8.000000000000004);
#507=EDGE_CURVE('',#495,#463,#506,.T.);
#508=ORIENTED_EDGE('',*,*,#507,.T.);
#509=ORIENTED_EDGE('',*,*,#468,.T.);
#510=EDGE_LOOP('',(#493,#501,#508,#509));
#511=FACE_OUTER_BOUND('',#510,.T.);
#512=ADVANCED_FACE('',(#511),#484,.F.);
#513=CARTESIAN_POINT('',(7.969557584733972,-0.697245941981268,14.92232719154871));
#514=DIRECTION('',(-0.087155742747652,-0.996194698091746,8.847986E-016));
#515=DIRECTION('',(0.0,0.0,1.0));
#516=AXIS2_PLACEMENT_3D('',#513,#514,#515);
#517=PLANE('',#516);
#518=CARTESIAN_POINT('',(7.969557584733972,-0.697245941981271,10.92232719154871));
#519=DIRECTION('',(0.996194698091746,-0.087155742747652,0.0));
#520=VECTOR('',#519,0.250000000000001);
#521=LINE('',#518,#520);
#522=EDGE_CURVE('',#486,#413,#521,.T.);
#523=ORIENTED_EDGE('',*,*,#522,.T.);
#524=ORIENTED_EDGE('',*,*,#444,.F.);
#525=CARTESIAN_POINT('',(8.218606259256909,-0.719034877668181,14.92232719154871));
#526=DIRECTION('',(-0.996194698091746,0.087155742747652,0.0));
#527=VECTOR('',#526,0.250000000000001);
#528=LINE('',#525,#527);
#529=EDGE_CURVE('',#432,#495,#528,.T.);
#530=ORIENTED_EDGE('',*,*,#529,.T.);
#531=ORIENTED_EDGE('',*,*,#500,.T.);
#532=EDGE_LOOP('',(#523,#524,#530,#531));
#533=FACE_OUTER_BOUND('',#532,.T.);
#534=ADVANCED_FACE('',(#533),#517,.T.);
#535=CARTESIAN_POINT('',(8.111482948227904,-4.147706E-015,10.92232719154871));
#536=DIRECTION('',(0.0,0.0,1.0));
#537=DIRECTION('',(-1.0,0.0,0.0));
#538=AXIS2_PLACEMENT_3D('',#535,#536,#537);
#539=PLANE('',#538);
#540=ORIENTED_EDGE('',*,*,#421,.F.);
#541=ORIENTED_EDGE('',*,*,#522,.F.);
#542=ORIENTED_EDGE('',*,*,#492,.F.);
#543=ORIENTED_EDGE('',*,*,#460,.F.);
#544=EDGE_LOOP('',(#540,#541,#542,#543));
#545=FACE_OUTER_BOUND('',#544,.T.);
#546=ADVANCED_FACE('',(#545),#539,.F.);
#547=CARTESIAN_POINT('',(8.111482948227904,-5.949919E-016,14.92232719154871));
#548=DIRECTION('',(0.0,0.0,1.0));
#549=DIRECTION('',(-1.0,0.0,0.0));
#550=AXIS2_PLACEMENT_3D('',#547,#548,#549);
#551=PLANE('',#550);
#552=ORIENTED_EDGE('',*,*,#529,.F.);
#553=ORIENTED_EDGE('',*,*,#438,.F.);
#554=ORIENTED_EDGE('',*,*,#474,.F.);
#555=ORIENTED_EDGE('',*,*,#507,.F.);
#556=EDGE_LOOP('',(#552,#553,#554,#555));
#557=FACE_OUTER_BOUND('',#556,.T.);
#558=ADVANCED_FACE('',(#557),#551,.T.);
#559=CLOSED_SHELL('',(#448,#479,#512,#534,#546,#558));
#560=MANIFOLD_SOLID_BREP('3BD',#559);
#561=STYLED_ITEM('NONE',(#159),#560);
#562=CARTESIAN_POINT('',(0.0,-4.119422E-015,3.447771530041507));
#563=DIRECTION('',(0.0,0.0,1.0));
#564=DIRECTION('',(1.0,0.0,0.0));
#565=AXIS2_PLACEMENT_3D('',#562,#563,#564);
#566=TOROIDAL_SURFACE('',#565,12.0,4.0);
#567=CARTESIAN_POINT('',(8.199999999999999,-4.119422E-015,4.696771129721187));
#568=VERTEX_POINT('',#567);
#569=CARTESIAN_POINT('',(8.199999999999999,-5.123633E-015,2.198771930361827));
#570=VERTEX_POINT('',#569);
#571=CARTESIAN_POINT('',(12.0,-4.119422E-015,3.447771530041507));
#572=DIRECTION('',(0.0,-1.0,0.0));
#573=DIRECTION('',(1.0,0.0,0.0));
#574=AXIS2_PLACEMENT_3D('',#571,#572,#573);
#575=CIRCLE('',#574,4.0);
#576=EDGE_CURVE('',#568,#570,#575,.T.);
#577=ORIENTED_EDGE('',*,*,#576,.F.);
#578=CARTESIAN_POINT('',(-8.199999999999999,-5.123599E-015,4.696771129721187));
#579=VERTEX_POINT('',#578);
#580=CARTESIAN_POINT('',(0.0,-4.119422E-015,4.696771129721187));
#581=DIRECTION('',(0.0,0.0,1.0));
#582=DIRECTION('',(1.0,0.0,0.0));
#583=AXIS2_PLACEMENT_3D('',#580,#581,#582);
#584=CIRCLE('',#583,8.199999999999999);
#585=EDGE_CURVE('',#579,#568,#584,.T.);
#586=ORIENTED_EDGE('',*,*,#585,.F.);
#587=CARTESIAN_POINT('',(-8.199999999999999,-3.115245E-015,2.198771930361827));
#588=VERTEX_POINT('',#587);
#589=CARTESIAN_POINT('',(-12.0,-5.588998E-015,3.447771530041507));
#590=DIRECTION('',(0.0,1.0,0.0));
#591=DIRECTION('',(-1.0,0.0,0.0));
#592=AXIS2_PLACEMENT_3D('',#589,#590,#591);
#593=CIRCLE('',#592,4.0);
#594=EDGE_CURVE('',#579,#588,#593,.T.);
#595=ORIENTED_EDGE('',*,*,#594,.T.);
#596=CARTESIAN_POINT('',(0.0,-4.119422E-015,2.198771930361827));
#597=DIRECTION('',(0.0,0.0,-1.0));
#598=DIRECTION('',(1.0,0.0,0.0));
#599=AXIS2_PLACEMENT_3D('',#596,#597,#598);
#600=CIRCLE('',#599,8.199999999999999);
#601=EDGE_CURVE('',#570,#588,#600,.T.);
#602=ORIENTED_EDGE('',*,*,#601,.F.);
#603=EDGE_LOOP('',(#577,#586,#595,#602));
#604=FACE_OUTER_BOUND('',#603,.T.);
#605=ADVANCED_FACE('',(#604),#566,.F.);
#606=CARTESIAN_POINT('',(0.0,6.661338E-017,15.0));
#607=DIRECTION('',(0.0,0.0,-1.0));
#608=DIRECTION('',(-1.0,0.0,0.0));
#609=AXIS2_PLACEMENT_3D('',#606,#607,#608);
#610=TOROIDAL_SURFACE('',#609,7.25,1.0);
#611=CARTESIAN_POINT('',(-8.25,-1.010334E-015,15.0));
#612=VERTEX_POINT('',#611);
#613=CARTESIAN_POINT('',(-7.25,6.661338E-017,16.0));
#614=VERTEX_POINT('',#613);
#615=CARTESIAN_POINT('',(-7.25,6.661338E-017,15.0));
#616=DIRECTION('',(0.0,1.0,0.0));
#617=DIRECTION('',(-1.0,0.0,0.0));
#618=AXIS2_PLACEMENT_3D('',#615,#616,#617);
#619=CIRCLE('',#618,1.0);
#620=EDGE_CURVE('',#612,#614,#619,.T.);
#621=ORIENTED_EDGE('',*,*,#620,.F.);
#622=CARTESIAN_POINT('',(8.25,2.087214E-015,15.0));
#623=VERTEX_POINT('',#622);
#624=CARTESIAN_POINT('',(0.0,6.661338E-017,15.0));
#625=DIRECTION('',(0.0,0.0,1.0));
#626=DIRECTION('',(-1.0,0.0,0.0));
#627=AXIS2_PLACEMENT_3D('',#624,#625,#626);
#628=CIRCLE('',#627,8.25);
#629=EDGE_CURVE('',#612,#623,#628,.T.);
#630=ORIENTED_EDGE('',*,*,#629,.T.);
#631=CARTESIAN_POINT('',(7.25,6.661338E-017,16.0));
#632=VERTEX_POINT('',#631);
#633=CARTESIAN_POINT('',(7.25,-8.212555E-016,15.0));
#634=DIRECTION('',(0.0,-1.0,0.0));
#635=DIRECTION('',(1.0,0.0,0.0));
#636=AXIS2_PLACEMENT_3D('',#633,#634,#635);
#637=CIRCLE('',#636,1.0);
#638=EDGE_CURVE('',#623,#632,#637,.T.);
#639=ORIENTED_EDGE('',*,*,#638,.T.);
#640=CARTESIAN_POINT('',(0.0,6.661338E-017,16.0));
#641=DIRECTION('',(0.0,0.0,-1.0));
#642=DIRECTION('',(-1.0,0.0,0.0));
#643=AXIS2_PLACEMENT_3D('',#640,#641,#642);
#644=CIRCLE('',#643,7.25);
#645=EDGE_CURVE('',#632,#614,#644,.T.);
#646=ORIENTED_EDGE('',*,*,#645,.T.);
#647=EDGE_LOOP('',(#621,#630,#639,#646));
#648=FACE_OUTER_BOUND('',#647,.T.);
#649=ADVANCED_FACE('',(#648),#610,.T.);
#650=CARTESIAN_POINT('',(0.0,0.007820768311567,9.699999999999989));
#651=DIRECTION('',(0.0,0.0,1.0));
#652=DIRECTION('',(1.0,0.0,0.0));
#653=AXIS2_PLACEMENT_3D('',#650,#651,#652);
#654=CYLINDRICAL_SURFACE('',#653,5.75);
#655=CARTESIAN_POINT('',(5.75,0.007820768311567,15.400000000000002));
#656=VERTEX_POINT('',#655);
#657=CARTESIAN_POINT('',(5.75,0.007820768311567,16.0));
#658=VERTEX_POINT('',#657);
#659=CARTESIAN_POINT('',(5.75,0.007820768311567,15.400000000000002));
#660=DIRECTION('',(0.0,0.0,1.0));
#661=VECTOR('',#660,0.599999999999998);
#662=LINE('',#659,#661);
#663=EDGE_CURVE('',#656,#658,#662,.T.);
#664=ORIENTED_EDGE('',*,*,#663,.F.);
#665=CARTESIAN_POINT('',(-5.75,0.007820768311568,15.400000000000002));
#666=VERTEX_POINT('',#665);
#667=CARTESIAN_POINT('',(0.0,0.007820768311567,15.400000000000002));
#668=DIRECTION('',(0.0,0.0,-1.0));
#669=DIRECTION('',(1.0,0.0,0.0));
#670=AXIS2_PLACEMENT_3D('',#667,#668,#669);
#671=CIRCLE('',#670,5.75);
#672=EDGE_CURVE('',#656,#666,#671,.T.);
#673=ORIENTED_EDGE('',*,*,#672,.T.);
#674=CARTESIAN_POINT('',(-5.75,0.007820768311568,16.0));
#675=VERTEX_POINT('',#674);
#676=CARTESIAN_POINT('',(-5.75,0.007820768311566,15.400000000000002));
#677=DIRECTION('',(0.0,0.0,1.0));
#678=VECTOR('',#677,0.599999999999998);
#679=LINE('',#676,#678);
#680=EDGE_CURVE('',#666,#675,#679,.T.);
#681=ORIENTED_EDGE('',*,*,#680,.T.);
#682=CARTESIAN_POINT('',(0.0,0.007820768311567,16.0));
#683=DIRECTION('',(0.0,0.0,-1.0));
#684=DIRECTION('',(1.0,0.0,0.0));
#685=AXIS2_PLACEMENT_3D('',#682,#683,#684);
#686=CIRCLE('',#685,5.75);
#687=EDGE_CURVE('',#658,#675,#686,.T.);
#688=ORIENTED_EDGE('',*,*,#687,.F.);
#689=EDGE_LOOP('',(#664,#673,#681,#688));
#690=FACE_OUTER_BOUND('',#689,.T.);
#691=ADVANCED_FACE('',(#690),#654,.F.);
#692=CARTESIAN_POINT('',(0.0,0.0,0.0));
#693=DIRECTION('',(0.0,0.0,1.0));
#694=DIRECTION('',(1.0,0.0,0.0));
#695=AXIS2_PLACEMENT_3D('',#692,#693,#694);
#696=CYLINDRICAL_SURFACE('',#695,8.25);
#697=CARTESIAN_POINT('',(8.25,0.0,14.92232719154871));
#698=VERTEX_POINT('',#697);
#699=CARTESIAN_POINT('',(8.25,0.0,15.0));
#700=DIRECTION('',(0.0,0.0,-1.0));
#701=VECTOR('',#700,0.07767280845129);
#702=LINE('',#699,#701);
#703=EDGE_CURVE('',#623,#698,#702,.T.);
#704=ORIENTED_EDGE('',*,*,#703,.F.);
#705=ORIENTED_EDGE('',*,*,#629,.F.);
#706=CARTESIAN_POINT('',(-8.25,-3.109122E-015,5.009021029641106));
#707=VERTEX_POINT('',#706);
#708=CARTESIAN_POINT('',(-8.25,-1.010334E-015,15.0));
#709=DIRECTION('',(0.0,0.0,-1.0));
#710=VECTOR('',#709,9.990978970358894);
#711=LINE('',#708,#710);
#712=EDGE_CURVE('',#612,#707,#711,.T.);
#713=ORIENTED_EDGE('',*,*,#712,.T.);
#714=CARTESIAN_POINT('',(8.25,-4.119422E-015,5.009021029641106));
#715=VERTEX_POINT('',#714);
#716=CARTESIAN_POINT('',(0.0,-4.119422E-015,5.009021029641106));
#717=DIRECTION('',(0.0,0.0,-1.0));
#718=DIRECTION('',(1.0,0.0,0.0));
#719=AXIS2_PLACEMENT_3D('',#716,#717,#718);
#720=CIRCLE('',#719,8.25);
#721=EDGE_CURVE('',#715,#707,#720,.T.);
#722=ORIENTED_EDGE('',*,*,#721,.F.);
#723=CARTESIAN_POINT('',(8.25,0.0,5.046191597012342));
#724=VERTEX_POINT('',#723);
#725=CARTESIAN_POINT('',(8.25,0.0,5.046191597012342));
#726=DIRECTION('',(0.0,0.0,-1.0));
#727=VECTOR('',#726,0.037170567371236);
#728=LINE('',#725,#727);
#729=EDGE_CURVE('',#724,#715,#728,.T.);
#730=ORIENTED_EDGE('',*,*,#729,.F.);
#731=CARTESIAN_POINT('',(8.218606259256907,-0.71903487766819,5.046191597012343));
#732=VERTEX_POINT('',#731);
#733=CARTESIAN_POINT('',(0.0,0.0,5.046191597012342));
#734=DIRECTION('',(0.0,0.0,-1.0));
#735=DIRECTION('',(1.0,0.0,0.0));
#736=AXIS2_PLACEMENT_3D('',#733,#734,#735);
#737=CIRCLE('',#736,8.25);
#738=EDGE_CURVE('',#724,#732,#737,.T.);
#739=ORIENTED_EDGE('',*,*,#738,.T.);
#740=CARTESIAN_POINT('',(8.218606259256907,-0.719034877668186,9.046191597012342));
#741=VERTEX_POINT('',#740);
#742=CARTESIAN_POINT('',(8.2186062592569,-0.719034877668194,5.046191597012343));
#743=DIRECTION('',(0.0,0.0,1.0));
#744=VECTOR('',#743,3.999999999999999);
#745=LINE('',#742,#744);
#746=EDGE_CURVE('',#732,#741,#745,.T.);
#747=ORIENTED_EDGE('',*,*,#746,.T.);
#748=CARTESIAN_POINT('',(8.25,0.0,9.046191597012342));
#749=VERTEX_POINT('',#748);
#750=CARTESIAN_POINT('',(0.0,0.0,9.046191597012342));
#751=DIRECTION('',(0.0,0.0,1.0));
#752=DIRECTION('',(1.0,0.0,0.0));
#753=AXIS2_PLACEMENT_3D('',#750,#751,#752);
#754=CIRCLE('',#753,8.25);
#755=EDGE_CURVE('',#741,#749,#754,.T.);
#756=ORIENTED_EDGE('',*,*,#755,.T.);
#757=CARTESIAN_POINT('',(8.25,0.0,10.92232719154871));
#758=VERTEX_POINT('',#757);
#759=CARTESIAN_POINT('',(8.25,0.0,10.92232719154871));
#760=DIRECTION('',(0.0,0.0,-1.0));
#761=VECTOR('',#760,1.876135594536368);
#762=LINE('',#759,#761);
#763=EDGE_CURVE('',#758,#749,#762,.T.);
#764=ORIENTED_EDGE('',*,*,#763,.F.);
#765=CARTESIAN_POINT('',(8.218606259256909,-0.719034877668184,10.92232719154871));
#766=VERTEX_POINT('',#765);
#767=CARTESIAN_POINT('',(0.0,0.0,10.92232719154871));
#768=DIRECTION('',(0.0,0.0,-1.0));
#769=DIRECTION('',(1.0,0.0,0.0));
#770=AXIS2_PLACEMENT_3D('',#767,#768,#769);
#771=CIRCLE('',#770,8.25);
#772=EDGE_CURVE('',#758,#766,#771,.T.);
#773=ORIENTED_EDGE('',*,*,#772,.T.);
#774=CARTESIAN_POINT('',(8.218606259256909,-0.719034877668181,14.92232719154871));
#775=VERTEX_POINT('',#774);
#776=CARTESIAN_POINT('',(8.2186062592569,-0.719034877668193,10.92232719154871));
#777=DIRECTION('',(0.0,0.0,1.0));
#778=VECTOR('',#777,4.0);
#779=LINE('',#776,#778);
#780=EDGE_CURVE('',#766,#775,#779,.T.);
#781=ORIENTED_EDGE('',*,*,#780,.T.);
#782=CARTESIAN_POINT('',(0.0,0.0,14.92232719154871));
#783=DIRECTION('',(0.0,0.0,1.0));
#784=DIRECTION('',(1.0,0.0,0.0));
#785=AXIS2_PLACEMENT_3D('',#782,#783,#784);
#786=CIRCLE('',#785,8.25);
#787=EDGE_CURVE('',#775,#698,#786,.T.);
#788=ORIENTED_EDGE('',*,*,#787,.T.);
#789=EDGE_LOOP('',(#704,#705,#713,#722,#730,#739,#747,#756,#764,#773,#781,#788));
#790=FACE_OUTER_BOUND('',#789,.T.);
#791=ADVANCED_FACE('',(#790),#696,.T.);
#792=CARTESIAN_POINT('',(0.0,-4.119422E-015,5.009021029641106));
#793=DIRECTION('',(0.0,0.0,1.0));
#794=DIRECTION('',(1.0,0.0,0.0));
#795=AXIS2_PLACEMENT_3D('',#792,#793,#794);
#796=TOROIDAL_SURFACE('',#795,7.25,1.0);
#797=CARTESIAN_POINT('',(7.25,-4.119422E-015,5.009021029641106));
#798=DIRECTION('',(0.0,1.0,0.0));
#799=DIRECTION('',(1.0,0.0,0.0));
#800=AXIS2_PLACEMENT_3D('',#797,#798,#799);
#801=CIRCLE('',#800,1.0);
#802=EDGE_CURVE('',#715,#568,#801,.T.);
#803=ORIENTED_EDGE('',*,*,#802,.F.);
#804=ORIENTED_EDGE('',*,*,#721,.T.);
#805=CARTESIAN_POINT('',(-7.25,-5.007291E-015,5.009021029641106));
#806=DIRECTION('',(0.0,-1.0,0.0));
#807=DIRECTION('',(-1.0,0.0,0.0));
#808=AXIS2_PLACEMENT_3D('',#805,#806,#807);
#809=CIRCLE('',#808,1.0);
#810=EDGE_CURVE('',#707,#579,#809,.T.);
#811=ORIENTED_EDGE('',*,*,#810,.T.);
#812=ORIENTED_EDGE('',*,*,#585,.T.);
#813=EDGE_LOOP('',(#803,#804,#811,#812));
#814=FACE_OUTER_BOUND('',#813,.T.);
#815=ADVANCED_FACE('',(#814),#796,.T.);
#816=CARTESIAN_POINT('',(0.0,-4.119422E-015,1.886522030441908));
#817=DIRECTION('',(0.0,0.0,-1.0));
#818=DIRECTION('',(-1.0,0.0,0.0));
#819=AXIS2_PLACEMENT_3D('',#816,#817,#818);
#820=TOROIDAL_SURFACE('',#819,7.25,1.0);
#821=CARTESIAN_POINT('',(-8.25,-5.129722E-015,1.886522030441908));
#822=VERTEX_POINT('',#821);
#823=CARTESIAN_POINT('',(-7.25,-4.119422E-015,1.886522030441908));
#824=DIRECTION('',(0.0,1.0,0.0));
#825=DIRECTION('',(-1.0,0.0,0.0));
#826=AXIS2_PLACEMENT_3D('',#823,#824,#825);
#827=CIRCLE('',#826,1.0);
#828=EDGE_CURVE('',#822,#588,#827,.T.);
#829=ORIENTED_EDGE('',*,*,#828,.F.);
#830=CARTESIAN_POINT('',(8.25,0.0,1.886522030441908));
#831=VERTEX_POINT('',#830);
#832=CARTESIAN_POINT('',(0.0,-4.119422E-015,1.886522030441908));
#833=DIRECTION('',(0.0,0.0,1.0));
#834=DIRECTION('',(1.0,0.0,0.0));
#835=AXIS2_PLACEMENT_3D('',#832,#833,#834);
#836=CIRCLE('',#835,8.25);
#837=EDGE_CURVE('',#822,#831,#836,.T.);
#838=ORIENTED_EDGE('',*,*,#837,.T.);
#839=CARTESIAN_POINT('',(7.25,-5.007291E-015,1.886522030441908));
#840=DIRECTION('',(0.0,-1.0,0.0));
#841=DIRECTION('',(1.0,0.0,0.0));
#842=AXIS2_PLACEMENT_3D('',#839,#840,#841);
#843=CIRCLE('',#842,1.0);
#844=EDGE_CURVE('',#831,#570,#843,.T.);
#845=ORIENTED_EDGE('',*,*,#844,.T.);
#846=ORIENTED_EDGE('',*,*,#601,.T.);
#847=EDGE_LOOP('',(#829,#838,#845,#846));
#848=FACE_OUTER_BOUND('',#847,.T.);
#849=ADVANCED_FACE('',(#848),#820,.T.);
#850=CARTESIAN_POINT('',(0.0,0.0,0.0));
#851=DIRECTION('',(0.0,0.0,1.0));
#852=DIRECTION('',(1.0,0.0,0.0));
#853=AXIS2_PLACEMENT_3D('',#850,#851,#852);
#854=CYLINDRICAL_SURFACE('',#853,8.25);
#855=CARTESIAN_POINT('',(8.25,-2.020600E-015,1.0));
#856=VERTEX_POINT('',#855);
#857=CARTESIAN_POINT('',(8.25,0.0,1.886522030441908));
#858=DIRECTION('',(0.0,0.0,-1.0));
#859=VECTOR('',#858,0.886522030441907);
#860=LINE('',#857,#859);
#861=EDGE_CURVE('',#831,#856,#860,.T.);
#862=ORIENTED_EDGE('',*,*,#861,.F.);
#863=ORIENTED_EDGE('',*,*,#837,.F.);
#864=CARTESIAN_POINT('',(-8.25,-1.010334E-015,1.0));
#865=VERTEX_POINT('',#864);
#866=CARTESIAN_POINT('',(-8.25,-1.010334E-015,1.886522030441908));
#867=DIRECTION('',(0.0,0.0,-1.0));
#868=VECTOR('',#867,0.886522030441907);
#869=LINE('',#866,#868);
#870=EDGE_CURVE('',#822,#865,#869,.T.);
#871=ORIENTED_EDGE('',*,*,#870,.T.);
#872=CARTESIAN_POINT('',(0.0,0.0,1.0));
#873=DIRECTION('',(0.0,0.0,-1.0));
#874=DIRECTION('',(-1.0,0.0,0.0));
#875=AXIS2_PLACEMENT_3D('',#872,#873,#874);
#876=CIRCLE('',#875,8.25);
#877=EDGE_CURVE('',#856,#865,#876,.T.);
#878=ORIENTED_EDGE('',*,*,#877,.F.);
#879=EDGE_LOOP('',(#862,#863,#871,#878));
#880=FACE_OUTER_BOUND('',#879,.T.);
#881=ADVANCED_FACE('',(#880),#854,.T.);
#882=CARTESIAN_POINT('',(0.0,0.0,1.0));
#883=DIRECTION('',(0.0,0.0,1.0));
#884=DIRECTION('',(1.0,0.0,0.0));
#885=AXIS2_PLACEMENT_3D('',#882,#883,#884);
#886=TOROIDAL_SURFACE('',#885,7.25,1.0);
#887=CARTESIAN_POINT('',(7.25,0.0,0.0));
#888=VERTEX_POINT('',#887);
#889=CARTESIAN_POINT('',(7.25,0.0,1.0));
#890=DIRECTION('',(0.0,1.0,0.0));
#891=DIRECTION('',(1.0,0.0,0.0));
#892=AXIS2_PLACEMENT_3D('',#889,#890,#891);
#893=CIRCLE('',#892,1.0);
#894=EDGE_CURVE('',#856,#888,#893,.T.);
#895=ORIENTED_EDGE('',*,*,#894,.F.);
#896=ORIENTED_EDGE('',*,*,#877,.T.);
#897=CARTESIAN_POINT('',(-7.25,-8.878689E-016,0.0));
#898=VERTEX_POINT('',#897);
#899=CARTESIAN_POINT('',(-7.25,-8.878689E-016,1.0));
#900=DIRECTION('',(0.0,-1.0,0.0));
#901=DIRECTION('',(-1.0,0.0,0.0));
#902=AXIS2_PLACEMENT_3D('',#899,#900,#901);
#903=CIRCLE('',#902,1.0);
#904=EDGE_CURVE('',#865,#898,#903,.T.);
#905=ORIENTED_EDGE('',*,*,#904,.T.);
#906=CARTESIAN_POINT('',(0.0,0.0,0.0));
#907=DIRECTION('',(0.0,0.0,1.0));
#908=DIRECTION('',(-1.0,0.0,0.0));
#909=AXIS2_PLACEMENT_3D('',#906,#907,#908);
#910=CIRCLE('',#909,7.25);
#911=EDGE_CURVE('',#898,#888,#910,.T.);
#912=ORIENTED_EDGE('',*,*,#911,.T.);
#913=EDGE_LOOP('',(#895,#896,#905,#912));
#914=FACE_OUTER_BOUND('',#913,.T.);
#915=ADVANCED_FACE('',(#914),#886,.T.);
#916=CARTESIAN_POINT('',(0.0,6.286235E-031,0.300000000000014));
#917=DIRECTION('',(0.0,0.0,-1.0));
#918=DIRECTION('',(1.0,0.0,0.0));
#919=AXIS2_PLACEMENT_3D('',#916,#917,#918);
#920=CYLINDRICAL_SURFACE('',#919,5.757820768311567);
#921=CARTESIAN_POINT('',(5.757820768311567,6.661338E-017,0.600000000000014));
#922=VERTEX_POINT('',#921);
#923=CARTESIAN_POINT('',(5.757820768311567,6.286235E-031,1.348921E-014));
#924=VERTEX_POINT('',#923);
#925=CARTESIAN_POINT('',(5.757820768311567,6.286235E-031,0.600000000000014));
#926=DIRECTION('',(0.0,0.0,-1.0));
#927=VECTOR('',#926,0.600000000000001);
#928=LINE('',#925,#927);
#929=EDGE_CURVE('',#922,#924,#928,.T.);
#930=ORIENTED_EDGE('',*,*,#929,.F.);
#931=CARTESIAN_POINT('',(-5.757820768311567,7.051297E-016,0.600000000000014));
#932=VERTEX_POINT('',#931);
#933=CARTESIAN_POINT('',(0.0,6.661338E-017,0.600000000000014));
#934=DIRECTION('',(0.0,0.0,1.0));
#935=DIRECTION('',(1.0,0.0,0.0));
#936=AXIS2_PLACEMENT_3D('',#933,#934,#935);
#937=CIRCLE('',#936,5.757820768311567);
#938=EDGE_CURVE('',#922,#932,#937,.T.);
#939=ORIENTED_EDGE('',*,*,#938,.T.);
#940=CARTESIAN_POINT('',(-5.757820768311567,7.051297E-016,0.0));
#941=VERTEX_POINT('',#940);
#942=CARTESIAN_POINT('',(-5.757820768311567,7.051297E-016,0.600000000000014));
#943=DIRECTION('',(0.0,0.0,-1.0));
#944=VECTOR('',#943,0.600000000000014);
#945=LINE('',#942,#944);
#946=EDGE_CURVE('',#932,#941,#945,.T.);
#947=ORIENTED_EDGE('',*,*,#946,.T.);
#948=CARTESIAN_POINT('',(0.0,6.286235E-031,0.0));
#949=DIRECTION('',(0.0,0.0,1.0));
#950=DIRECTION('',(1.0,0.0,0.0));
#951=AXIS2_PLACEMENT_3D('',#948,#949,#950);
#952=CIRCLE('',#951,5.757820768311567);
#953=EDGE_CURVE('',#924,#941,#952,.T.);
#954=ORIENTED_EDGE('',*,*,#953,.F.);
#955=EDGE_LOOP('',(#930,#939,#947,#954));
#956=FACE_OUTER_BOUND('',#955,.T.);
#957=ADVANCED_FACE('',(#956),#920,.F.);
#958=CARTESIAN_POINT('',(0.0,0.007820768311567,15.400000000000002));
#959=DIRECTION('',(0.0,0.0,1.0));
#960=DIRECTION('',(1.0,0.0,0.0));
#961=AXIS2_PLACEMENT_3D('',#958,#959,#960);
#962=PLANE('',#961);
#963=CARTESIAN_POINT('',(0.0,0.007820768311567,15.400000000000002));
#964=DIRECTION('',(0.0,0.0,-1.0));
#965=DIRECTION('',(1.0,0.0,0.0));
#966=AXIS2_PLACEMENT_3D('',#963,#964,#965);
#967=CIRCLE('',#966,5.75);
#968=EDGE_CURVE('',#666,#656,#967,.T.);
#969=ORIENTED_EDGE('',*,*,#968,.F.);
#970=ORIENTED_EDGE('',*,*,#672,.F.);
#971=EDGE_LOOP('',(#969,#970));
#972=FACE_OUTER_BOUND('',#971,.T.);
#973=ADVANCED_FACE('',(#972),#962,.T.);
#974=CARTESIAN_POINT('',(0.0,6.661338E-017,0.600000000000014));
#975=DIRECTION('',(0.0,0.0,1.0));
#976=DIRECTION('',(1.0,0.0,0.0));
#977=AXIS2_PLACEMENT_3D('',#974,#975,#976);
#978=PLANE('',#977);
#979=ORIENTED_EDGE('',*,*,#938,.F.);
#980=CARTESIAN_POINT('',(0.0,6.661338E-017,0.600000000000014));
#981=DIRECTION('',(0.0,0.0,1.0));
#982=DIRECTION('',(1.0,0.0,0.0));
#983=AXIS2_PLACEMENT_3D('',#980,#981,#982);
#984=CIRCLE('',#983,5.757820768311567);
#985=EDGE_CURVE('',#932,#922,#984,.T.);
#986=ORIENTED_EDGE('',*,*,#985,.F.);
#987=EDGE_LOOP('',(#979,#986));
#988=FACE_OUTER_BOUND('',#987,.T.);
#989=ADVANCED_FACE('',(#988),#978,.F.);
#990=CARTESIAN_POINT('',(0.0,6.286235E-031,0.300000000000014));
#991=DIRECTION('',(0.0,0.0,-1.0));
#992=DIRECTION('',(1.0,0.0,0.0));
#993=AXIS2_PLACEMENT_3D('',#990,#991,#992);
#994=CYLINDRICAL_SURFACE('',#993,5.757820768311567);
#995=ORIENTED_EDGE('',*,*,#929,.T.);
#996=CARTESIAN_POINT('',(0.0,6.286235E-031,0.0));
#997=DIRECTION('',(0.0,0.0,1.0));
#998=DIRECTION('',(1.0,0.0,0.0));
#999=AXIS2_PLACEMENT_3D('',#996,#997,#998);
#1000=CIRCLE('',#999,5.757820768311567);
#1001=EDGE_CURVE('',#941,#924,#1000,.T.);
#1002=ORIENTED_EDGE('',*,*,#1001,.F.);
#1003=ORIENTED_EDGE('',*,*,#946,.F.);
#1004=ORIENTED_EDGE('',*,*,#985,.T.);
#1005=EDGE_LOOP('',(#995,#1002,#1003,#1004));
#1006=FACE_OUTER_BOUND('',#1005,.T.);
#1007=ADVANCED_FACE('',(#1006),#994,.F.);
#1008=CARTESIAN_POINT('',(8.218606259256909,0.71903487766818,14.92232719154871));
#1009=DIRECTION('',(-0.087155742747658,0.996194698091746,-8.847986E-016));
#1010=DIRECTION('',(0.0,0.0,-1.0));
#1011=AXIS2_PLACEMENT_3D('',#1008,#1009,#1010);
#1012=PLANE('',#1011);
#1013=CARTESIAN_POINT('',(8.218606259256909,0.719034877668177,10.92232719154871));
#1014=VERTEX_POINT('',#1013);
#1015=CARTESIAN_POINT('',(7.969557584733972,0.697245941981262,10.92232719154871));
#1016=VERTEX_POINT('',#1015);
#1017=CARTESIAN_POINT('',(8.218606259256909,0.719034877668177,10.92232719154871));
#1018=DIRECTION('',(-0.996194698091746,-0.087155742747658,0.0));
#1019=VECTOR('',#1018,0.250000000000001);
#1020=LINE('',#1017,#1019);
#1021=EDGE_CURVE('',#1014,#1016,#1020,.T.);
#1022=ORIENTED_EDGE('',*,*,#1021,.F.);
#1023=CARTESIAN_POINT('',(8.218606259256909,0.71903487766818,14.92232719154871));
#1024=VERTEX_POINT('',#1023);
#1025=CARTESIAN_POINT('',(8.218606259256902,0.719034877668166,14.92232719154871));
#1026=DIRECTION('',(0.0,0.0,-1.0));
#1027=VECTOR('',#1026,4.0);
#1028=LINE('',#1025,#1027);
#1029=EDGE_CURVE('',#1024,#1014,#1028,.T.);
#1030=ORIENTED_EDGE('',*,*,#1029,.F.);
#1031=CARTESIAN_POINT('',(7.969557584733972,0.697245941981266,14.92232719154871));
#1032=VERTEX_POINT('',#1031);
#1033=CARTESIAN_POINT('',(7.969557584733972,0.697245941981266,14.92232719154871));
#1034=DIRECTION('',(0.996194698091746,0.087155742747658,0.0));
#1035=VECTOR('',#1034,0.250000000000001);
#1036=LINE('',#1033,#1035);
#1037=EDGE_CURVE('',#1032,#1024,#1036,.T.);
#1038=ORIENTED_EDGE('',*,*,#1037,.F.);
#1039=CARTESIAN_POINT('',(7.969557584733972,0.697245941981266,14.92232719154871));
#1040=DIRECTION('',(0.0,0.0,-1.0));
#1041=VECTOR('',#1040,4.0);
#1042=LINE('',#1039,#1041);
#1043=EDGE_CURVE('',#1032,#1016,#1042,.T.);
#1044=ORIENTED_EDGE('',*,*,#1043,.T.);
#1045=EDGE_LOOP('',(#1022,#1030,#1038,#1044));
#1046=FACE_OUTER_BOUND('',#1045,.T.);
#1047=ADVANCED_FACE('',(#1046),#1012,.F.);
#1048=CARTESIAN_POINT('',(3.552714E-015,-2.050142E-015,14.92232719154871));
#1049=DIRECTION('',(5.438345E-032,-8.881784E-016,-1.0));
#1050=DIRECTION('',(1.0,0.0,0.0));
#1051=AXIS2_PLACEMENT_3D('',#1048,#1049,#1050);
#1052=CYLINDRICAL_SURFACE('',#1051,8.000000000000004);
#1053=CARTESIAN_POINT('',(7.969557584733972,-0.697245941981271,10.92232719154871));
#1054=VERTEX_POINT('',#1053);
#1055=CARTESIAN_POINT('',(3.552714E-015,-5.602856E-015,10.92232719154871));
#1056=DIRECTION('',(0.0,0.0,-1.0));
#1057=DIRECTION('',(1.0,0.0,0.0));
#1058=AXIS2_PLACEMENT_3D('',#1055,#1056,#1057);
#1059=CIRCLE('',#1058,8.000000000000004);
#1060=EDGE_CURVE('',#1016,#1054,#1059,.T.);
#1061=ORIENTED_EDGE('',*,*,#1060,.F.);
#1062=ORIENTED_EDGE('',*,*,#1043,.F.);
#1063=CARTESIAN_POINT('',(7.969557584733972,-0.697245941981268,14.92232719154871));
#1064=VERTEX_POINT('',#1063);
#1065=CARTESIAN_POINT('',(3.552714E-015,-2.050142E-015,14.92232719154871));
#1066=DIRECTION('',(0.0,0.0,1.0));
#1067=DIRECTION('',(1.0,0.0,0.0));
#1068=AXIS2_PLACEMENT_3D('',#1065,#1066,#1067);
#1069=CIRCLE('',#1068,8.000000000000004);
#1070=EDGE_CURVE('',#1064,#1032,#1069,.T.);
#1071=ORIENTED_EDGE('',*,*,#1070,.F.);
#1072=CARTESIAN_POINT('',(7.969557584733972,-0.697245941981268,14.92232719154871));
#1073=DIRECTION('',(0.0,0.0,-1.0));
#1074=VECTOR('',#1073,4.0);
#1075=LINE('',#1072,#1074);
#1076=EDGE_CURVE('',#1064,#1054,#1075,.T.);
#1077=ORIENTED_EDGE('',*,*,#1076,.T.);
#1078=EDGE_LOOP('',(#1061,#1062,#1071,#1077));
#1079=FACE_OUTER_BOUND('',#1078,.T.);
#1080=ADVANCED_FACE('',(#1079),#1052,.T.);
#1081=CARTESIAN_POINT('',(7.969557584733972,-0.697245941981268,14.92232719154871));
#1082=DIRECTION('',(-0.087155742747652,-0.996194698091746,8.847986E-016));
#1083=DIRECTION('',(0.0,0.0,1.0));
#1084=AXIS2_PLACEMENT_3D('',#1081,#1082,#1083);
#1085=PLANE('',#1084);
#1086=CARTESIAN_POINT('',(7.969557584733972,-0.697245941981271,10.92232719154871));
#1087=DIRECTION('',(0.996194698091746,-0.087155742747652,0.0));
#1088=VECTOR('',#1087,0.250000000000001);
#1089=LINE('',#1086,#1088);
#1090=EDGE_CURVE('',#1054,#766,#1089,.T.);
#1091=ORIENTED_EDGE('',*,*,#1090,.F.);
#1092=ORIENTED_EDGE('',*,*,#1076,.F.);
#1093=CARTESIAN_POINT('',(8.218606259256909,-0.719034877668181,14.92232719154871));
#1094=DIRECTION('',(-0.996194698091746,0.087155742747652,0.0));
#1095=VECTOR('',#1094,0.250000000000001);
#1096=LINE('',#1093,#1095);
#1097=EDGE_CURVE('',#775,#1064,#1096,.T.);
#1098=ORIENTED_EDGE('',*,*,#1097,.F.);
#1099=ORIENTED_EDGE('',*,*,#780,.F.);
#1100=EDGE_LOOP('',(#1091,#1092,#1098,#1099));
#1101=FACE_OUTER_BOUND('',#1100,.T.);
#1102=ADVANCED_FACE('',(#1101),#1085,.F.);
#1103=CARTESIAN_POINT('',(8.111482948227904,-4.147706E-015,10.92232719154871));
#1104=DIRECTION('',(0.0,0.0,1.0));
#1105=DIRECTION('',(-1.0,0.0,0.0));
#1106=AXIS2_PLACEMENT_3D('',#1103,#1104,#1105);
#1107=PLANE('',#1106);
#1108=CARTESIAN_POINT('',(0.0,0.0,10.92232719154871));
#1109=DIRECTION('',(0.0,0.0,-1.0));
#1110=DIRECTION('',(1.0,0.0,0.0));
#1111=AXIS2_PLACEMENT_3D('',#1108,#1109,#1110);
#1112=CIRCLE('',#1111,8.25);
#1113=EDGE_CURVE('',#1014,#758,#1112,.T.);
#1114=ORIENTED_EDGE('',*,*,#1113,.F.);
#1115=ORIENTED_EDGE('',*,*,#1021,.T.);
#1116=ORIENTED_EDGE('',*,*,#1060,.T.);
#1117=ORIENTED_EDGE('',*,*,#1090,.T.);
#1118=ORIENTED_EDGE('',*,*,#772,.F.);
#1119=EDGE_LOOP('',(#1114,#1115,#1116,#1117,#1118));
#1120=FACE_OUTER_BOUND('',#1119,.T.);
#1121=ADVANCED_FACE('',(#1120),#1107,.T.);
#1122=CARTESIAN_POINT('',(8.111482948227904,-5.949919E-016,14.92232719154871));
#1123=DIRECTION('',(0.0,0.0,1.0));
#1124=DIRECTION('',(-1.0,0.0,0.0));
#1125=AXIS2_PLACEMENT_3D('',#1122,#1123,#1124);
#1126=PLANE('',#1125);
#1127=ORIENTED_EDGE('',*,*,#1097,.T.);
#1128=ORIENTED_EDGE('',*,*,#1070,.T.);
#1129=ORIENTED_EDGE('',*,*,#1037,.T.);
#1130=CARTESIAN_POINT('',(0.0,0.0,14.92232719154871));
#1131=DIRECTION('',(0.0,0.0,1.0));
#1132=DIRECTION('',(1.0,0.0,0.0));
#1133=AXIS2_PLACEMENT_3D('',#1130,#1131,#1132);
#1134=CIRCLE('',#1133,8.25);
#1135=EDGE_CURVE('',#698,#1024,#1134,.T.);
#1136=ORIENTED_EDGE('',*,*,#1135,.F.);
#1137=ORIENTED_EDGE('',*,*,#787,.F.);
#1138=EDGE_LOOP('',(#1127,#1128,#1129,#1136,#1137));
#1139=FACE_OUTER_BOUND('',#1138,.T.);
#1140=ADVANCED_FACE('',(#1139),#1126,.F.);
#1141=CARTESIAN_POINT('',(8.218606259256907,0.719034877668175,9.046191597012342));
#1142=DIRECTION('',(-0.087155742747658,0.996194698091746,-8.847986E-016));
#1143=DIRECTION('',(0.0,0.0,-1.0));
#1144=AXIS2_PLACEMENT_3D('',#1141,#1142,#1143);
#1145=PLANE('',#1144);
#1146=CARTESIAN_POINT('',(8.218606259256907,0.719034877668171,5.046191597012341));
#1147=VERTEX_POINT('',#1146);
#1148=CARTESIAN_POINT('',(7.96955758473397,0.697245941981256,5.046191597012341));
#1149=VERTEX_POINT('',#1148);
#1150=CARTESIAN_POINT('',(8.218606259256907,0.719034877668171,5.046191597012341));
#1151=DIRECTION('',(-0.996194698091746,-0.087155742747658,0.0));
#1152=VECTOR('',#1151,0.250000000000001);
#1153=LINE('',#1150,#1152);
#1154=EDGE_CURVE('',#1147,#1149,#1153,.T.);
#1155=ORIENTED_EDGE('',*,*,#1154,.F.);
#1156=CARTESIAN_POINT('',(8.218606259256907,0.719034877668175,9.046191597012342));
#1157=VERTEX_POINT('',#1156);
#1158=CARTESIAN_POINT('',(8.218606259256902,0.719034877668166,9.046191597012342));
#1159=DIRECTION('',(0.0,0.0,-1.0));
#1160=VECTOR('',#1159,4.000000000000001);
#1161=LINE('',#1158,#1160);
#1162=EDGE_CURVE('',#1157,#1147,#1161,.T.);
#1163=ORIENTED_EDGE('',*,*,#1162,.F.);
#1164=CARTESIAN_POINT('',(7.96955758473397,0.69724594198126,9.046191597012342));
#1165=VERTEX_POINT('',#1164);
#1166=CARTESIAN_POINT('',(7.96955758473397,0.69724594198126,9.046191597012342));
#1167=DIRECTION('',(0.996194698091746,0.087155742747658,0.0));
#1168=VECTOR('',#1167,0.250000000000001);
#1169=LINE('',#1166,#1168);
#1170=EDGE_CURVE('',#1165,#1157,#1169,.T.);
#1171=ORIENTED_EDGE('',*,*,#1170,.F.);
#1172=CARTESIAN_POINT('',(7.96955758473397,0.69724594198126,9.046191597012342));
#1173=DIRECTION('',(0.0,0.0,-1.0));
#1174=VECTOR('',#1173,4.0);
#1175=LINE('',#1172,#1174);
#1176=EDGE_CURVE('',#1165,#1149,#1175,.T.);
#1177=ORIENTED_EDGE('',*,*,#1176,.T.);
#1178=EDGE_LOOP('',(#1155,#1163,#1171,#1177));
#1179=FACE_OUTER_BOUND('',#1178,.T.);
#1180=ADVANCED_FACE('',(#1179),#1145,.F.);
#1181=CARTESIAN_POINT('',(1.776357E-015,-7.713288E-015,9.046191597012342));
#1182=DIRECTION('',(5.438345E-032,-8.881784E-016,-1.0));
#1183=DIRECTION('',(1.0,0.0,0.0));
#1184=AXIS2_PLACEMENT_3D('',#1181,#1182,#1183);
#1185=CYLINDRICAL_SURFACE('',#1184,8.000000000000004);
#1186=CARTESIAN_POINT('',(7.96955758473397,-0.697245941981277,5.046191597012343));
#1187=VERTEX_POINT('',#1186);
#1188=CARTESIAN_POINT('',(1.776357E-015,-1.126600E-014,5.046191597012342));
#1189=DIRECTION('',(0.0,0.0,-1.0));
#1190=DIRECTION('',(1.0,0.0,0.0));
#1191=AXIS2_PLACEMENT_3D('',#1188,#1189,#1190);
#1192=CIRCLE('',#1191,8.000000000000004);
#1193=EDGE_CURVE('',#1149,#1187,#1192,.T.);
#1194=ORIENTED_EDGE('',*,*,#1193,.F.);
#1195=ORIENTED_EDGE('',*,*,#1176,.F.);
#1196=CARTESIAN_POINT('',(7.96955758473397,-0.697245941981273,9.046191597012342));
#1197=VERTEX_POINT('',#1196);
#1198=CARTESIAN_POINT('',(1.776357E-015,-7.713288E-015,9.046191597012342));
#1199=DIRECTION('',(0.0,0.0,1.0));
#1200=DIRECTION('',(1.0,0.0,0.0));
#1201=AXIS2_PLACEMENT_3D('',#1198,#1199,#1200);
#1202=CIRCLE('',#1201,8.000000000000004);
#1203=EDGE_CURVE('',#1197,#1165,#1202,.T.);
#1204=ORIENTED_EDGE('',*,*,#1203,.F.);
#1205=CARTESIAN_POINT('',(7.96955758473397,-0.697245941981273,9.046191597012342));
#1206=DIRECTION('',(0.0,0.0,-1.0));
#1207=VECTOR('',#1206,4.0);
#1208=LINE('',#1205,#1207);
#1209=EDGE_CURVE('',#1197,#1187,#1208,.T.);
#1210=ORIENTED_EDGE('',*,*,#1209,.T.);
#1211=EDGE_LOOP('',(#1194,#1195,#1204,#1210));
#1212=FACE_OUTER_BOUND('',#1211,.T.);
#1213=ADVANCED_FACE('',(#1212),#1185,.T.);
#1214=CARTESIAN_POINT('',(7.96955758473397,-0.697245941981273,9.046191597012342));
#1215=DIRECTION('',(-0.087155742747652,-0.996194698091746,8.847986E-016));
#1216=DIRECTION('',(0.0,0.0,1.0));
#1217=AXIS2_PLACEMENT_3D('',#1214,#1215,#1216);
#1218=PLANE('',#1217);
#1219=CARTESIAN_POINT('',(7.96955758473397,-0.697245941981277,5.046191597012343));
#1220=DIRECTION('',(0.996194698091746,-0.087155742747652,0.0));
#1221=VECTOR('',#1220,0.250000000000001);
#1222=LINE('',#1219,#1221);
#1223=EDGE_CURVE('',#1187,#732,#1222,.T.);
#1224=ORIENTED_EDGE('',*,*,#1223,.F.);
#1225=ORIENTED_EDGE('',*,*,#1209,.F.);
#1226=CARTESIAN_POINT('',(8.218606259256907,-0.719034877668186,9.046191597012342));
#1227=DIRECTION('',(-0.996194698091746,0.087155742747652,0.0));
#1228=VECTOR('',#1227,0.250000000000001);
#1229=LINE('',#1226,#1228);
#1230=EDGE_CURVE('',#741,#1197,#1229,.T.);
#1231=ORIENTED_EDGE('',*,*,#1230,.F.);
#1232=ORIENTED_EDGE('',*,*,#746,.F.);
#1233=EDGE_LOOP('',(#1224,#1225,#1231,#1232));
#1234=FACE_OUTER_BOUND('',#1233,.T.);
#1235=ADVANCED_FACE('',(#1234),#1218,.F.);
#1236=CARTESIAN_POINT('',(8.111482948227902,-9.810852E-015,5.046191597012342));
#1237=DIRECTION('',(0.0,0.0,1.0));
#1238=DIRECTION('',(-1.0,0.0,0.0));
#1239=AXIS2_PLACEMENT_3D('',#1236,#1237,#1238);
#1240=PLANE('',#1239);
#1241=CARTESIAN_POINT('',(0.0,0.0,5.046191597012342));
#1242=DIRECTION('',(0.0,0.0,-1.0));
#1243=DIRECTION('',(1.0,0.0,0.0));
#1244=AXIS2_PLACEMENT_3D('',#1241,#1242,#1243);
#1245=CIRCLE('',#1244,8.25);
#1246=EDGE_CURVE('',#1147,#724,#1245,.T.);
#1247=ORIENTED_EDGE('',*,*,#1246,.F.);
#1248=ORIENTED_EDGE('',*,*,#1154,.T.);
#1249=ORIENTED_EDGE('',*,*,#1193,.T.);
#1250=ORIENTED_EDGE('',*,*,#1223,.T.);
#1251=ORIENTED_EDGE('',*,*,#738,.F.);
#1252=EDGE_LOOP('',(#1247,#1248,#1249,#1250,#1251));
#1253=FACE_OUTER_BOUND('',#1252,.T.);
#1254=ADVANCED_FACE('',(#1253),#1240,.T.);
#1255=CARTESIAN_POINT('',(8.111482948227902,-6.258138E-015,9.046191597012342));
#1256=DIRECTION('',(0.0,0.0,1.0));
#1257=DIRECTION('',(-1.0,0.0,0.0));
#1258=AXIS2_PLACEMENT_3D('',#1255,#1256,#1257);
#1259=PLANE('',#1258);
#1260=ORIENTED_EDGE('',*,*,#1230,.T.);
#1261=ORIENTED_EDGE('',*,*,#1203,.T.);
#1262=ORIENTED_EDGE('',*,*,#1170,.T.);
#1263=CARTESIAN_POINT('',(0.0,0.0,9.046191597012342));
#1264=DIRECTION('',(0.0,0.0,1.0));
#1265=DIRECTION('',(1.0,0.0,0.0));
#1266=AXIS2_PLACEMENT_3D('',#1263,#1264,#1265);
#1267=CIRCLE('',#1266,8.25);
#1268=EDGE_CURVE('',#749,#1157,#1267,.T.);
#1269=ORIENTED_EDGE('',*,*,#1268,.F.);
#1270=ORIENTED_EDGE('',*,*,#755,.F.);
#1271=EDGE_LOOP('',(#1260,#1261,#1262,#1269,#1270));
#1272=FACE_OUTER_BOUND('',#1271,.T.);
#1273=ADVANCED_FACE('',(#1272),#1259,.F.);
#1274=CARTESIAN_POINT('',(0.0,0.0,1.0));
#1275=DIRECTION('',(0.0,0.0,1.0));
#1276=DIRECTION('',(1.0,0.0,0.0));
#1277=AXIS2_PLACEMENT_3D('',#1274,#1275,#1276);
#1278=TOROIDAL_SURFACE('',#1277,7.25,1.0);
#1279=ORIENTED_EDGE('',*,*,#894,.T.);
#1280=CARTESIAN_POINT('',(0.0,0.0,0.0));
#1281=DIRECTION('',(0.0,0.0,1.0));
#1282=DIRECTION('',(-1.0,0.0,0.0));
#1283=AXIS2_PLACEMENT_3D('',#1280,#1281,#1282);
#1284=CIRCLE('',#1283,7.25);
#1285=EDGE_CURVE('',#888,#898,#1284,.T.);
#1286=ORIENTED_EDGE('',*,*,#1285,.T.);
#1287=ORIENTED_EDGE('',*,*,#904,.F.);
#1288=CARTESIAN_POINT('',(0.0,0.0,1.0));
#1289=DIRECTION('',(0.0,0.0,-1.0));
#1290=DIRECTION('',(-1.0,0.0,0.0));
#1291=AXIS2_PLACEMENT_3D('',#1288,#1289,#1290);
#1292=CIRCLE('',#1291,8.25);
#1293=EDGE_CURVE('',#865,#856,#1292,.T.);
#1294=ORIENTED_EDGE('',*,*,#1293,.T.);
#1295=EDGE_LOOP('',(#1279,#1286,#1287,#1294));
#1296=FACE_OUTER_BOUND('',#1295,.T.);
#1297=ADVANCED_FACE('',(#1296),#1278,.T.);
#1298=CARTESIAN_POINT('',(0.0,0.0,0.0));
#1299=DIRECTION('',(0.0,0.0,1.0));
#1300=DIRECTION('',(1.0,0.0,0.0));
#1301=AXIS2_PLACEMENT_3D('',#1298,#1299,#1300);
#1302=CYLINDRICAL_SURFACE('',#1301,8.25);
#1303=ORIENTED_EDGE('',*,*,#861,.T.);
#1304=ORIENTED_EDGE('',*,*,#1293,.F.);
#1305=ORIENTED_EDGE('',*,*,#870,.F.);
#1306=CARTESIAN_POINT('',(0.0,-4.119422E-015,1.886522030441908));
#1307=DIRECTION('',(0.0,0.0,1.0));
#1308=DIRECTION('',(1.0,0.0,0.0));
#1309=AXIS2_PLACEMENT_3D('',#1306,#1307,#1308);
#1310=CIRCLE('',#1309,8.25);
#1311=EDGE_CURVE('',#831,#822,#1310,.T.);
#1312=ORIENTED_EDGE('',*,*,#1311,.F.);
#1313=EDGE_LOOP('',(#1303,#1304,#1305,#1312));
#1314=FACE_OUTER_BOUND('',#1313,.T.);
#1315=ADVANCED_FACE('',(#1314),#1302,.T.);
#1316=CARTESIAN_POINT('',(0.0,0.0,0.0));
#1317=DIRECTION('',(0.0,0.0,1.0));
#1318=DIRECTION('',(1.0,0.0,0.0));
#1319=AXIS2_PLACEMENT_3D('',#1316,#1317,#1318);
#1320=PLANE('',#1319);
#1321=ORIENTED_EDGE('',*,*,#1285,.F.);
#1322=ORIENTED_EDGE('',*,*,#911,.F.);
#1323=EDGE_LOOP('',(#1321,#1322));
#1324=FACE_OUTER_BOUND('',#1323,.T.);
#1325=ORIENTED_EDGE('',*,*,#953,.T.);
#1326=ORIENTED_EDGE('',*,*,#1001,.T.);
#1327=EDGE_LOOP('',(#1325,#1326));
#1328=FACE_BOUND('',#1327,.T.);
#1329=ADVANCED_FACE('',(#1324,#1328),#1320,.F.);
#1330=CARTESIAN_POINT('',(0.0,-4.119422E-015,1.886522030441908));
#1331=DIRECTION('',(0.0,0.0,-1.0));
#1332=DIRECTION('',(-1.0,0.0,0.0));
#1333=AXIS2_PLACEMENT_3D('',#1330,#1331,#1332);
#1334=TOROIDAL_SURFACE('',#1333,7.25,1.0);
#1335=ORIENTED_EDGE('',*,*,#828,.T.);
#1336=CARTESIAN_POINT('',(0.0,-4.119422E-015,2.198771930361827));
#1337=DIRECTION('',(0.0,0.0,-1.0));
#1338=DIRECTION('',(1.0,0.0,0.0));
#1339=AXIS2_PLACEMENT_3D('',#1336,#1337,#1338);
#1340=CIRCLE('',#1339,8.199999999999999);
#1341=EDGE_CURVE('',#588,#570,#1340,.T.);
#1342=ORIENTED_EDGE('',*,*,#1341,.T.);
#1343=ORIENTED_EDGE('',*,*,#844,.F.);
#1344=ORIENTED_EDGE('',*,*,#1311,.T.);
#1345=EDGE_LOOP('',(#1335,#1342,#1343,#1344));
#1346=FACE_OUTER_BOUND('',#1345,.T.);
#1347=ADVANCED_FACE('',(#1346),#1334,.T.);
#1348=CARTESIAN_POINT('',(0.0,-4.119422E-015,5.009021029641106));
#1349=DIRECTION('',(0.0,0.0,1.0));
#1350=DIRECTION('',(1.0,0.0,0.0));
#1351=AXIS2_PLACEMENT_3D('',#1348,#1349,#1350);
#1352=TOROIDAL_SURFACE('',#1351,7.25,1.0);
#1353=ORIENTED_EDGE('',*,*,#802,.T.);
#1354=CARTESIAN_POINT('',(0.0,-4.119422E-015,4.696771129721187));
#1355=DIRECTION('',(0.0,0.0,1.0));
#1356=DIRECTION('',(1.0,0.0,0.0));
#1357=AXIS2_PLACEMENT_3D('',#1354,#1355,#1356);
#1358=CIRCLE('',#1357,8.199999999999999);
#1359=EDGE_CURVE('',#568,#579,#1358,.T.);
#1360=ORIENTED_EDGE('',*,*,#1359,.T.);
#1361=ORIENTED_EDGE('',*,*,#810,.F.);
#1362=CARTESIAN_POINT('',(0.0,-4.119422E-015,5.009021029641106));
#1363=DIRECTION('',(0.0,0.0,-1.0));
#1364=DIRECTION('',(1.0,0.0,0.0));
#1365=AXIS2_PLACEMENT_3D('',#1362,#1363,#1364);
#1366=CIRCLE('',#1365,8.25);
#1367=EDGE_CURVE('',#707,#715,#1366,.T.);
#1368=ORIENTED_EDGE('',*,*,#1367,.T.);
#1369=EDGE_LOOP('',(#1353,#1360,#1361,#1368));
#1370=FACE_OUTER_BOUND('',#1369,.T.);
#1371=ADVANCED_FACE('',(#1370),#1352,.T.);
#1372=CARTESIAN_POINT('',(0.0,0.0,0.0));
#1373=DIRECTION('',(0.0,0.0,1.0));
#1374=DIRECTION('',(1.0,0.0,0.0));
#1375=AXIS2_PLACEMENT_3D('',#1372,#1373,#1374);
#1376=CYLINDRICAL_SURFACE('',#1375,8.25);
#1377=ORIENTED_EDGE('',*,*,#703,.T.);
#1378=ORIENTED_EDGE('',*,*,#1135,.T.);
#1379=ORIENTED_EDGE('',*,*,#1029,.T.);
#1380=ORIENTED_EDGE('',*,*,#1113,.T.);
#1381=ORIENTED_EDGE('',*,*,#763,.T.);
#1382=ORIENTED_EDGE('',*,*,#1268,.T.);
#1383=ORIENTED_EDGE('',*,*,#1162,.T.);
#1384=ORIENTED_EDGE('',*,*,#1246,.T.);
#1385=ORIENTED_EDGE('',*,*,#729,.T.);
#1386=ORIENTED_EDGE('',*,*,#1367,.F.);
#1387=ORIENTED_EDGE('',*,*,#712,.F.);
#1388=CARTESIAN_POINT('',(0.0,6.661338E-017,15.0));
#1389=DIRECTION('',(0.0,0.0,1.0));
#1390=DIRECTION('',(-1.0,0.0,0.0));
#1391=AXIS2_PLACEMENT_3D('',#1388,#1389,#1390);
#1392=CIRCLE('',#1391,8.25);
#1393=EDGE_CURVE('',#623,#612,#1392,.T.);
#1394=ORIENTED_EDGE('',*,*,#1393,.F.);
#1395=EDGE_LOOP('',(#1377,#1378,#1379,#1380,#1381,#1382,#1383,#1384,#1385,#1386,#1387,#1394));
#1396=FACE_OUTER_BOUND('',#1395,.T.);
#1397=ADVANCED_FACE('',(#1396),#1376,.T.);
#1398=CARTESIAN_POINT('',(0.0,0.007820768311567,9.699999999999989));
#1399=DIRECTION('',(0.0,0.0,1.0));
#1400=DIRECTION('',(1.0,0.0,0.0));
#1401=AXIS2_PLACEMENT_3D('',#1398,#1399,#1400);
#1402=CYLINDRICAL_SURFACE('',#1401,5.75);
#1403=ORIENTED_EDGE('',*,*,#663,.T.);
#1404=CARTESIAN_POINT('',(0.0,0.007820768311567,16.0));
#1405=DIRECTION('',(0.0,0.0,-1.0));
#1406=DIRECTION('',(1.0,0.0,0.0));
#1407=AXIS2_PLACEMENT_3D('',#1404,#1405,#1406);
#1408=CIRCLE('',#1407,5.75);
#1409=EDGE_CURVE('',#675,#658,#1408,.T.);
#1410=ORIENTED_EDGE('',*,*,#1409,.F.);
#1411=ORIENTED_EDGE('',*,*,#680,.F.);
#1412=ORIENTED_EDGE('',*,*,#968,.T.);
#1413=EDGE_LOOP('',(#1403,#1410,#1411,#1412));
#1414=FACE_OUTER_BOUND('',#1413,.T.);
#1415=ADVANCED_FACE('',(#1414),#1402,.F.);
#1416=CARTESIAN_POINT('',(0.0,6.661338E-017,15.0));
#1417=DIRECTION('',(0.0,0.0,-1.0));
#1418=DIRECTION('',(-1.0,0.0,0.0));
#1419=AXIS2_PLACEMENT_3D('',#1416,#1417,#1418);
#1420=TOROIDAL_SURFACE('',#1419,7.25,1.0);
#1421=ORIENTED_EDGE('',*,*,#620,.T.);
#1422=CARTESIAN_POINT('',(0.0,6.661338E-017,16.0));
#1423=DIRECTION('',(0.0,0.0,-1.0));
#1424=DIRECTION('',(-1.0,0.0,0.0));
#1425=AXIS2_PLACEMENT_3D('',#1422,#1423,#1424);
#1426=CIRCLE('',#1425,7.25);
#1427=EDGE_CURVE('',#614,#632,#1426,.T.);
#1428=ORIENTED_EDGE('',*,*,#1427,.T.);
#1429=ORIENTED_EDGE('',*,*,#638,.F.);
#1430=ORIENTED_EDGE('',*,*,#1393,.T.);
#1431=EDGE_LOOP('',(#1421,#1428,#1429,#1430));
#1432=FACE_OUTER_BOUND('',#1431,.T.);
#1433=ADVANCED_FACE('',(#1432),#1420,.T.);
#1434=CARTESIAN_POINT('',(0.0,6.661338E-017,16.0));
#1435=DIRECTION('',(0.0,0.0,1.0));
#1436=DIRECTION('',(1.0,0.0,0.0));
#1437=AXIS2_PLACEMENT_3D('',#1434,#1435,#1436);
#1438=PLANE('',#1437);
#1439=ORIENTED_EDGE('',*,*,#645,.F.);
#1440=ORIENTED_EDGE('',*,*,#1427,.F.);
#1441=EDGE_LOOP('',(#1439,#1440));
#1442=FACE_OUTER_BOUND('',#1441,.T.);
#1443=ORIENTED_EDGE('',*,*,#1409,.T.);
#1444=ORIENTED_EDGE('',*,*,#687,.T.);
#1445=EDGE_LOOP('',(#1443,#1444));
#1446=FACE_BOUND('',#1445,.T.);
#1447=ADVANCED_FACE('',(#1442,#1446),#1438,.T.);
#1448=CARTESIAN_POINT('',(0.0,-4.119422E-015,3.447771530041507));
#1449=DIRECTION('',(0.0,0.0,1.0));
#1450=DIRECTION('',(1.0,0.0,0.0));
#1451=AXIS2_PLACEMENT_3D('',#1448,#1449,#1450);
#1452=TOROIDAL_SURFACE('',#1451,12.0,4.0);
#1453=ORIENTED_EDGE('',*,*,#576,.T.);
#1454=ORIENTED_EDGE('',*,*,#1341,.F.);
#1455=ORIENTED_EDGE('',*,*,#594,.F.);
#1456=ORIENTED_EDGE('',*,*,#1359,.F.);
#1457=EDGE_LOOP('',(#1453,#1454,#1455,#1456));
#1458=FACE_OUTER_BOUND('',#1457,.T.);
#1459=ADVANCED_FACE('',(#1458),#1452,.F.);
#1460=CLOSED_SHELL('',(#605,#649,#691,#791,#815,#849,#881,#915,#957,#973,#989,#1007,#1047,#1080,#1102,#1121,#1140,#1180,#1213,#1235,#1254,#1273,#1297,#1315,#1329,#1347,#1371,#1397,#1415,#1433,#1447,#1459));
#1461=MANIFOLD_SOLID_BREP('3A2',#1460);
#1462=COLOUR_RGB('250',0.33,0.33,0.33);
#1463=SURFACE_STYLE_USAGE(.BOTH.,#1464);
#1464=SURFACE_SIDE_STYLE('NONE',(#1465));
#1465=SURFACE_STYLE_FILL_AREA(#1466);
#1466=FILL_AREA_STYLE('NONE',(#1467));
#1467=FILL_AREA_STYLE_COLOUR('NONE',#1462);
#1468=PRESENTATION_STYLE_ASSIGNMENT((#1463));
#1469=STYLED_ITEM('NONE',(#1468),#1461);
#1470=CARTESIAN_POINT('',(3.75,0.0,0.5));
#1471=DIRECTION('',(0.0,0.0,-1.0));
#1472=DIRECTION('',(1.0,0.0,0.0));
#1473=AXIS2_PLACEMENT_3D('',#1470,#1471,#1472);
#1474=CYLINDRICAL_SURFACE('',#1473,0.4);
#1475=CARTESIAN_POINT('',(4.15,0.0,-3.1));
#1476=VERTEX_POINT('',#1475);
#1477=CARTESIAN_POINT('',(4.15,0.0,0.0));
#1478=VERTEX_POINT('',#1477);
#1479=CARTESIAN_POINT('',(4.15,0.0,-3.1));
#1480=DIRECTION('',(0.0,0.0,1.0));
#1481=VECTOR('',#1480,3.1);
#1482=LINE('',#1479,#1481);
#1483=EDGE_CURVE('',#1476,#1478,#1482,.T.);
#1484=ORIENTED_EDGE('',*,*,#1483,.F.);
#1485=CARTESIAN_POINT('',(3.35,4.898587E-017,-3.1));
#1486=VERTEX_POINT('',#1485);
#1487=CARTESIAN_POINT('',(3.75,0.0,-3.1));
#1488=DIRECTION('',(0.0,0.0,1.0));
#1489=DIRECTION('',(1.0,0.0,0.0));
#1490=AXIS2_PLACEMENT_3D('',#1487,#1488,#1489);
#1491=CIRCLE('',#1490,0.4);
#1492=EDGE_CURVE('',#1476,#1486,#1491,.T.);
#1493=ORIENTED_EDGE('',*,*,#1492,.T.);
#1494=CARTESIAN_POINT('',(3.35,-4.898587E-017,0.0));
#1495=VERTEX_POINT('',#1494);
#1496=CARTESIAN_POINT('',(3.35,4.898587E-017,-3.1));
#1497=DIRECTION('',(0.0,0.0,1.0));
#1498=VECTOR('',#1497,3.1);
#1499=LINE('',#1496,#1498);
#1500=EDGE_CURVE('',#1486,#1495,#1499,.T.);
#1501=ORIENTED_EDGE('',*,*,#1500,.T.);
#1502=CARTESIAN_POINT('',(3.75,0.0,0.0));
#1503=DIRECTION('',(0.0,0.0,1.0));
#1504=DIRECTION('',(1.0,0.0,0.0));
#1505=AXIS2_PLACEMENT_3D('',#1502,#1503,#1504);
#1506=CIRCLE('',#1505,0.4);
#1507=EDGE_CURVE('',#1478,#1495,#1506,.T.);
#1508=ORIENTED_EDGE('',*,*,#1507,.F.);
#1509=EDGE_LOOP('',(#1484,#1493,#1501,#1508));
#1510=FACE_OUTER_BOUND('',#1509,.T.);
#1511=ADVANCED_FACE('',(#1510),#1474,.T.);
#1512=CARTESIAN_POINT('',(3.75,0.0,0.5));
#1513=DIRECTION('',(0.0,0.0,-1.0));
#1514=DIRECTION('',(1.0,0.0,0.0));
#1515=AXIS2_PLACEMENT_3D('',#1512,#1513,#1514);
#1516=CYLINDRICAL_SURFACE('',#1515,0.4);
#1517=ORIENTED_EDGE('',*,*,#1483,.T.);
#1518=CARTESIAN_POINT('',(3.75,0.0,0.0));
#1519=DIRECTION('',(0.0,0.0,1.0));
#1520=DIRECTION('',(1.0,0.0,0.0));
#1521=AXIS2_PLACEMENT_3D('',#1518,#1519,#1520);
#1522=CIRCLE('',#1521,0.4);
#1523=EDGE_CURVE('',#1495,#1478,#1522,.T.);
#1524=ORIENTED_EDGE('',*,*,#1523,.F.);
#1525=ORIENTED_EDGE('',*,*,#1500,.F.);
#1526=CARTESIAN_POINT('',(3.75,0.0,-3.1));
#1527=DIRECTION('',(0.0,0.0,1.0));
#1528=DIRECTION('',(1.0,0.0,0.0));
#1529=AXIS2_PLACEMENT_3D('',#1526,#1527,#1528);
#1530=CIRCLE('',#1529,0.4);
#1531=EDGE_CURVE('',#1486,#1476,#1530,.T.);
#1532=ORIENTED_EDGE('',*,*,#1531,.T.);
#1533=EDGE_LOOP('',(#1517,#1524,#1525,#1532));
#1534=FACE_OUTER_BOUND('',#1533,.T.);
#1535=ADVANCED_FACE('',(#1534),#1516,.T.);
#1536=CARTESIAN_POINT('',(3.75,0.0,-3.1));
#1537=DIRECTION('',(0.0,0.0,1.0));
#1538=DIRECTION('',(1.0,0.0,0.0));
#1539=AXIS2_PLACEMENT_3D('',#1536,#1537,#1538);
#1540=PLANE('',#1539);
#1541=ORIENTED_EDGE('',*,*,#1492,.F.);
#1542=ORIENTED_EDGE('',*,*,#1531,.F.);
#1543=EDGE_LOOP('',(#1541,#1542));
#1544=FACE_OUTER_BOUND('',#1543,.T.);
#1545=ADVANCED_FACE('',(#1544),#1540,.F.);
#1546=CARTESIAN_POINT('',(3.75,0.0,0.0));
#1547=DIRECTION('',(0.0,0.0,1.0));
#1548=DIRECTION('',(1.0,0.0,0.0));
#1549=AXIS2_PLACEMENT_3D('',#1546,#1547,#1548);
#1550=PLANE('',#1549);
#1551=ORIENTED_EDGE('',*,*,#1523,.T.);
#1552=ORIENTED_EDGE('',*,*,#1507,.T.);
#1553=EDGE_LOOP('',(#1551,#1552));
#1554=FACE_OUTER_BOUND('',#1553,.T.);
#1555=ADVANCED_FACE('',(#1554),#1550,.T.);
#1556=CLOSED_SHELL('',(#1511,#1535,#1545,#1555));
#1557=MANIFOLD_SOLID_BREP('3A1',#1556);
#1558=STYLED_ITEM('NONE',(#159),#1557);
#1559=CARTESIAN_POINT('',(-3.75,0.0,0.5));
#1560=DIRECTION('',(0.0,0.0,-1.0));
#1561=DIRECTION('',(1.0,0.0,0.0));
#1562=AXIS2_PLACEMENT_3D('',#1559,#1560,#1561);
#1563=CYLINDRICAL_SURFACE('',#1562,0.4);
#1564=CARTESIAN_POINT('',(-3.35,0.0,-3.1));
#1565=VERTEX_POINT('',#1564);
#1566=CARTESIAN_POINT('',(-3.35,0.0,0.0));
#1567=VERTEX_POINT('',#1566);
#1568=CARTESIAN_POINT('',(-3.35,0.0,-3.1));
#1569=DIRECTION('',(0.0,0.0,1.0));
#1570=VECTOR('',#1569,3.1);
#1571=LINE('',#1568,#1570);
#1572=EDGE_CURVE('',#1565,#1567,#1571,.T.);
#1573=ORIENTED_EDGE('',*,*,#1572,.F.);
#1574=CARTESIAN_POINT('',(-4.15,4.898587E-017,-3.1));
#1575=VERTEX_POINT('',#1574);
#1576=CARTESIAN_POINT('',(-3.75,0.0,-3.1));
#1577=DIRECTION('',(0.0,0.0,1.0));
#1578=DIRECTION('',(1.0,0.0,0.0));
#1579=AXIS2_PLACEMENT_3D('',#1576,#1577,#1578);
#1580=CIRCLE('',#1579,0.4);
#1581=EDGE_CURVE('',#1565,#1575,#1580,.T.);
#1582=ORIENTED_EDGE('',*,*,#1581,.T.);
#1583=CARTESIAN_POINT('',(-4.15,-4.898587E-017,0.0));
#1584=VERTEX_POINT('',#1583);
#1585=CARTESIAN_POINT('',(-4.15,4.898587E-017,-3.1));
#1586=DIRECTION('',(0.0,0.0,1.0));
#1587=VECTOR('',#1586,3.1);
#1588=LINE('',#1585,#1587);
#1589=EDGE_CURVE('',#1575,#1584,#1588,.T.);
#1590=ORIENTED_EDGE('',*,*,#1589,.T.);
#1591=CARTESIAN_POINT('',(-3.75,0.0,0.0));
#1592=DIRECTION('',(0.0,0.0,1.0));
#1593=DIRECTION('',(1.0,0.0,0.0));
#1594=AXIS2_PLACEMENT_3D('',#1591,#1592,#1593);
#1595=CIRCLE('',#1594,0.4);
#1596=EDGE_CURVE('',#1567,#1584,#1595,.T.);
#1597=ORIENTED_EDGE('',*,*,#1596,.F.);
#1598=EDGE_LOOP('',(#1573,#1582,#1590,#1597));
#1599=FACE_OUTER_BOUND('',#1598,.T.);
#1600=ADVANCED_FACE('',(#1599),#1563,.T.);
#1601=CARTESIAN_POINT('',(-3.75,0.0,0.5));
#1602=DIRECTION('',(0.0,0.0,-1.0));
#1603=DIRECTION('',(1.0,0.0,0.0));
#1604=AXIS2_PLACEMENT_3D('',#1601,#1602,#1603);
#1605=CYLINDRICAL_SURFACE('',#1604,0.4);
#1606=ORIENTED_EDGE('',*,*,#1572,.T.);
#1607=CARTESIAN_POINT('',(-3.75,0.0,0.0));
#1608=DIRECTION('',(0.0,0.0,1.0));
#1609=DIRECTION('',(1.0,0.0,0.0));
#1610=AXIS2_PLACEMENT_3D('',#1607,#1608,#1609);
#1611=CIRCLE('',#1610,0.4);
#1612=EDGE_CURVE('',#1584,#1567,#1611,.T.);
#1613=ORIENTED_EDGE('',*,*,#1612,.F.);
#1614=ORIENTED_EDGE('',*,*,#1589,.F.);
#1615=CARTESIAN_POINT('',(-3.75,0.0,-3.1));
#1616=DIRECTION('',(0.0,0.0,1.0));
#1617=DIRECTION('',(1.0,0.0,0.0));
#1618=AXIS2_PLACEMENT_3D('',#1615,#1616,#1617);
#1619=CIRCLE('',#1618,0.4);
#1620=EDGE_CURVE('',#1575,#1565,#1619,.T.);
#1621=ORIENTED_EDGE('',*,*,#1620,.T.);
#1622=EDGE_LOOP('',(#1606,#1613,#1614,#1621));
#1623=FACE_OUTER_BOUND('',#1622,.T.);
#1624=ADVANCED_FACE('',(#1623),#1605,.T.);
#1625=CARTESIAN_POINT('',(-3.75,0.0,-3.1));
#1626=DIRECTION('',(0.0,0.0,1.0));
#1627=DIRECTION('',(1.0,0.0,0.0));
#1628=AXIS2_PLACEMENT_3D('',#1625,#1626,#1627);
#1629=PLANE('',#1628);
#1630=ORIENTED_EDGE('',*,*,#1581,.F.);
#1631=ORIENTED_EDGE('',*,*,#1620,.F.);
#1632=EDGE_LOOP('',(#1630,#1631));
#1633=FACE_OUTER_BOUND('',#1632,.T.);
#1634=ADVANCED_FACE('',(#1633),#1629,.F.);
#1635=CARTESIAN_POINT('',(-3.75,0.0,0.0));
#1636=DIRECTION('',(0.0,0.0,1.0));
#1637=DIRECTION('',(1.0,0.0,0.0));
#1638=AXIS2_PLACEMENT_3D('',#1635,#1636,#1637);
#1639=PLANE('',#1638);
#1640=ORIENTED_EDGE('',*,*,#1612,.T.);
#1641=ORIENTED_EDGE('',*,*,#1596,.T.);
#1642=EDGE_LOOP('',(#1640,#1641));
#1643=FACE_OUTER_BOUND('',#1642,.T.);
#1644=ADVANCED_FACE('',(#1643),#1639,.T.);
#1645=CLOSED_SHELL('',(#1600,#1624,#1634,#1644));
#1646=MANIFOLD_SOLID_BREP('39F',#1645);
#1647=STYLED_ITEM('NONE',(#159),#1646);
#1648=ADVANCED_BREP_SHAPE_REPRESENTATION('ABSR1',(#152,#250,#405,#560,#1461,#1557,#1646),#28);
#1649=SHAPE_REPRESENTATION_RELATIONSHIP('SRRPL1','',#1648,#62);
ENDSEC;
END-ISO-10303-21;
