ISO-10303-21;
HEADER;
/****************************************************************
 * Generated by software with PDE/Lib inside                    *
 * PDE/Lib Version 3.2.2, created Thu Mar 23, 2000 at 18:38:49  *
 * International Technegroup Inc. (www.iti-oh.com)              *
 ****************************************************************/
FILE_DESCRIPTION((''),'2;1');
FILE_NAME('CAPPR200-500X700.stp','2009-06-24T15:07:56',(''),(''),'Mechanical Desktop 2006','Mechanical Desktop 2006',', , ');
FILE_SCHEMA(('AUTOMOTIVE_DESIGN { 1 2 10303 214 0 1 1 1 }'));
ENDSEC;
DATA;
#8=(NAMED_UNIT(*)PLANE_ANGLE_UNIT()SI_UNIT($,.RADIAN.));
#9=DIMENSIONAL_EXPONENTS(0.0,0.0,0.0,0.0,0.0,0.0,0.0);
#10=PLANE_ANGLE_MEASURE_WITH_UNIT(PLANE_ANGLE_MEASURE(0.017453292500000),#8);
#14=(CONVERSION_BASED_UNIT('DEGREE',#10)NAMED_UNIT(#9)PLANE_ANGLE_UNIT());
#18=(NAMED_UNIT(*)SI_UNIT($,.STERADIAN.)SOLID_ANGLE_UNIT());
#22=(LENGTH_UNIT()NAMED_UNIT(*)SI_UNIT(.MILLI.,.METRE.));
#23=UNCERTAINTY_MEASURE_WITH_UNIT(LENGTH_MEASURE(0.000001000000000),#22,'DISTANCE_ACCURACY_VALUE','');
#28=(GEOMETRIC_REPRESENTATION_CONTEXT(3)GLOBAL_UNCERTAINTY_ASSIGNED_CONTEXT((#23))GLOBAL_UNIT_ASSIGNED_CONTEXT((#14,#18,#22))REPRESENTATION_CONTEXT('None','None'));
#29=APPLICATION_CONTEXT('automotive design');
#30=APPLICATION_PROTOCOL_DEFINITION('DRAFT_INTERNATIONAL_STANDARD','automotive_design',1998,#29);
#31=PRODUCT_CONTEXT('3D Mechanical Parts',#29,'mechanical');
#32=PRODUCT('Product','Product','',(#31));
#33=PRODUCT_RELATED_PRODUCT_CATEGORY('part',$,(#32));
#34=PRODUCT_CATEGORY('part',$);
#35=PERSON('1','Design','Joe',$,$,$);
#36=ORGANIZATION($,'None','None');
#37=PERSON_AND_ORGANIZATION(#35,#36);
#38=PERSON_AND_ORGANIZATION_ROLE('design_owner');
#39=APPLIED_PERSON_AND_ORGANIZATION_ASSIGNMENT(#37,#38,(#32));
#40=PRODUCT_DEFINITION_FORMATION_WITH_SPECIFIED_SOURCE('None','',#32,.BOUGHT.);
#41=PERSON('2','Creator','Joe',$,$,$);
#42=ORGANIZATION($,'None','None');
#43=PERSON_AND_ORGANIZATION(#41,#42);
#44=PERSON_AND_ORGANIZATION_ROLE('creator');
#45=APPLIED_PERSON_AND_ORGANIZATION_ASSIGNMENT(#43,#44,(#40));
#46=PERSON('3','Supplier','Joe',$,$,$);
#47=ORGANIZATION($,'None','None');
#48=PERSON_AND_ORGANIZATION(#46,#47);
#49=PERSON_AND_ORGANIZATION_ROLE('design_supplier');
#50=APPLIED_PERSON_AND_ORGANIZATION_ASSIGNMENT(#48,#49,(#40));
#51=PRODUCT_DEFINITION_CONTEXT('part definition',#29,'design');
#52=PRODUCT_DEFINITION('None','',#40,#51);
#53=PERSON('4','Creator','Joe',$,$,$);
#54=ORGANIZATION($,'None','None');
#55=PERSON_AND_ORGANIZATION(#53,#54);
#56=PERSON_AND_ORGANIZATION_ROLE('creator');
#57=APPLIED_PERSON_AND_ORGANIZATION_ASSIGNMENT(#55,#56,(#52));
#58=CARTESIAN_POINT('NONE',(0.0,0.0,0.0));
#59=DIRECTION('NONE',(0.0,0.0,1.0));
#60=DIRECTION('NONE',(1.0,0.0,0.0));
#61=AXIS2_PLACEMENT_3D('NONE',#58,#59,#60);
#62=SHAPE_REPRESENTATION('SR1',(#61),#28);
#63=PRODUCT_DEFINITION_SHAPE('PDS1','Test Part',#52);
#64=SHAPE_DEFINITION_REPRESENTATION(#63,#62);
#65=CARTESIAN_POINT('',(-6.661338E-015,-1.564305E-015,3.954995821270984));
#66=DIRECTION('',(0.0,0.0,-1.0));
#67=DIRECTION('',(1.0,0.0,0.0));
#68=AXIS2_PLACEMENT_3D('',#65,#66,#67);
#69=CYLINDRICAL_SURFACE('',#68,2.500000000000007);
#70=CARTESIAN_POINT('',(2.500000000000000,-1.258154E-015,3.954995821270984));
#71=VERTEX_POINT('',#70);
#72=CARTESIAN_POINT('',(2.500000000000000,-1.258154E-015,1.954995821270984));
#73=VERTEX_POINT('',#72);
#74=CARTESIAN_POINT('',(2.500000000000000,-1.258154E-015,3.954995821270984));
#75=DIRECTION('',(0.0,0.0,-1.0));
#76=VECTOR('',#75,2.0);
#77=LINE('',#74,#76);
#78=EDGE_CURVE('',#71,#73,#77,.T.);
#79=ORIENTED_EDGE('',*,*,#78,.F.);
#80=CARTESIAN_POINT('',(2.481365379103305,-0.304673358512871,3.954995821270984));
#81=VERTEX_POINT('',#80);
#82=CARTESIAN_POINT('',(-6.661338E-015,-1.564305E-015,3.954995821270984));
#83=DIRECTION('',(0.0,0.0,1.0));
#84=DIRECTION('',(1.0,0.0,0.0));
#85=AXIS2_PLACEMENT_3D('',#82,#83,#84);
#86=CIRCLE('',#85,2.500000000000007);
#87=EDGE_CURVE('',#81,#71,#86,.T.);
#88=ORIENTED_EDGE('',*,*,#87,.F.);
#89=CARTESIAN_POINT('',(2.481365379103305,-0.304673358512871,1.954995821270984));
#90=VERTEX_POINT('',#89);
#91=CARTESIAN_POINT('',(2.481365379103305,-0.304673358512871,3.954995821270984));
#92=DIRECTION('',(0.0,0.0,-1.0));
#93=VECTOR('',#92,2.0);
#94=LINE('',#91,#93);
#95=EDGE_CURVE('',#81,#90,#94,.T.);
#96=ORIENTED_EDGE('',*,*,#95,.T.);
#97=CARTESIAN_POINT('',(-6.661338E-015,-1.564305E-015,1.954995821270984));
#98=DIRECTION('',(0.0,0.0,1.0));
#99=DIRECTION('',(1.0,0.0,0.0));
#100=AXIS2_PLACEMENT_3D('',#97,#98,#99);
#101=CIRCLE('',#100,2.500000000000007);
#102=EDGE_CURVE('',#90,#73,#101,.T.);
#103=ORIENTED_EDGE('',*,*,#102,.T.);
#104=EDGE_LOOP('',(#79,#88,#96,#103));
#105=FACE_OUTER_BOUND('',#104,.T.);
#106=ADVANCED_FACE('',(#105),#69,.T.);
#107=CARTESIAN_POINT('',(-4.440892E-015,2.120517E-016,3.954995821270984));
#108=DIRECTION('',(0.0,0.0,-1.0));
#109=DIRECTION('',(1.0,0.0,0.0));
#110=AXIS2_PLACEMENT_3D('',#107,#108,#109);
#111=CYLINDRICAL_SURFACE('',#110,2.400000000000004);
#112=CARTESIAN_POINT('',(2.400000000000000,-1.316032E-015,3.954995821270984));
#113=VERTEX_POINT('',#112);
#114=CARTESIAN_POINT('',(2.400000000000000,-1.316032E-015,1.954995821270984));
#115=VERTEX_POINT('',#114);
#116=CARTESIAN_POINT('',(2.400000000000000,-1.316032E-015,3.954995821270984));
#117=DIRECTION('',(0.0,0.0,-1.0));
#118=VECTOR('',#117,2.0);
#119=LINE('',#116,#118);
#120=EDGE_CURVE('',#113,#115,#119,.T.);
#121=ORIENTED_EDGE('',*,*,#120,.F.);
#122=CARTESIAN_POINT('',(2.382110763939173,0.292486424172353,3.954995821270984));
#123=VERTEX_POINT('',#122);
#124=CARTESIAN_POINT('',(-4.440892E-015,2.120517E-016,3.954995821270984));
#125=DIRECTION('',(0.0,0.0,-1.0));
#126=DIRECTION('',(1.0,0.0,0.0));
#127=AXIS2_PLACEMENT_3D('',#124,#125,#126);
#128=CIRCLE('',#127,2.400000000000004);
#129=EDGE_CURVE('',#123,#113,#128,.T.);
#130=ORIENTED_EDGE('',*,*,#129,.F.);
#131=CARTESIAN_POINT('',(2.382110763939173,0.292486424172353,1.954995821270984));
#132=VERTEX_POINT('',#131);
#133=CARTESIAN_POINT('',(2.382110763939173,0.292486424172353,3.954995821270984));
#134=DIRECTION('',(0.0,0.0,-1.0));
#135=VECTOR('',#134,2.0);
#136=LINE('',#133,#135);
#137=EDGE_CURVE('',#123,#132,#136,.T.);
#138=ORIENTED_EDGE('',*,*,#137,.T.);
#139=CARTESIAN_POINT('',(-4.440892E-015,2.120517E-016,1.954995821270984));
#140=DIRECTION('',(0.0,0.0,-1.0));
#141=DIRECTION('',(1.0,0.0,0.0));
#142=AXIS2_PLACEMENT_3D('',#139,#140,#141);
#143=CIRCLE('',#142,2.400000000000004);
#144=EDGE_CURVE('',#132,#115,#143,.T.);
#145=ORIENTED_EDGE('',*,*,#144,.T.);
#146=EDGE_LOOP('',(#121,#130,#138,#145));
#147=FACE_OUTER_BOUND('',#146,.T.);
#148=ADVANCED_FACE('',(#147),#111,.F.);
#149=CARTESIAN_POINT('',(2.481365379103305,0.304673358512868,3.954995821270984));
#150=DIRECTION('',(-0.121869343405150,0.992546151641322,0.0));
#151=DIRECTION('',(0.0,0.0,1.0));
#152=AXIS2_PLACEMENT_3D('',#149,#150,#151);
#153=PLANE('',#152);
#154=CARTESIAN_POINT('',(2.481365379103305,0.304673358512868,1.954995821270984));
#155=VERTEX_POINT('',#154);
#156=CARTESIAN_POINT('',(2.481365379103305,0.304673358512868,1.954995821270984));
#157=DIRECTION('',(-0.992546151641322,-0.121869343405150,0.0));
#158=VECTOR('',#157,0.100000000000000);
#159=LINE('',#156,#158);
#160=EDGE_CURVE('',#155,#132,#159,.T.);
#161=ORIENTED_EDGE('',*,*,#160,.T.);
#162=ORIENTED_EDGE('',*,*,#137,.F.);
#163=CARTESIAN_POINT('',(2.481365379103305,0.304673358512868,3.954995821270984));
#164=VERTEX_POINT('',#163);
#165=CARTESIAN_POINT('',(2.481365379103305,0.304673358512868,3.954995821270984));
#166=DIRECTION('',(-0.992546151641322,-0.121869343405150,0.0));
#167=VECTOR('',#166,0.100000000000000);
#168=LINE('',#165,#167);
#169=EDGE_CURVE('',#164,#123,#168,.T.);
#170=ORIENTED_EDGE('',*,*,#169,.F.);
#171=CARTESIAN_POINT('',(2.481365379103305,0.304673358512868,3.954995821270984));
#172=DIRECTION('',(0.0,0.0,-1.0));
#173=VECTOR('',#172,2.0);
#174=LINE('',#171,#173);
#175=EDGE_CURVE('',#164,#155,#174,.T.);
#176=ORIENTED_EDGE('',*,*,#175,.T.);
#177=EDGE_LOOP('',(#161,#162,#170,#176));
#178=FACE_OUTER_BOUND('',#177,.T.);
#179=ADVANCED_FACE('',(#178),#153,.T.);
#180=CARTESIAN_POINT('',(-4.440892E-015,2.120517E-016,3.954995821270984));
#181=DIRECTION('',(0.0,0.0,-1.0));
#182=DIRECTION('',(1.0,0.0,0.0));
#183=AXIS2_PLACEMENT_3D('',#180,#181,#182);
#184=CYLINDRICAL_SURFACE('',#183,2.400000000000004);
#185=ORIENTED_EDGE('',*,*,#120,.T.);
#186=CARTESIAN_POINT('',(2.382110763939173,-0.292486424172356,1.954995821270984));
#187=VERTEX_POINT('',#186);
#188=CARTESIAN_POINT('',(-4.440892E-015,2.120517E-016,1.954995821270984));
#189=DIRECTION('',(0.0,0.0,-1.0));
#190=DIRECTION('',(1.0,0.0,0.0));
#191=AXIS2_PLACEMENT_3D('',#188,#189,#190);
#192=CIRCLE('',#191,2.400000000000004);
#193=EDGE_CURVE('',#115,#187,#192,.T.);
#194=ORIENTED_EDGE('',*,*,#193,.T.);
#195=CARTESIAN_POINT('',(2.382110763939173,-0.292486424172356,3.954995821270984));
#196=VERTEX_POINT('',#195);
#197=CARTESIAN_POINT('',(2.382110763939173,-0.292486424172356,3.954995821270984));
#198=DIRECTION('',(0.0,0.0,-1.0));
#199=VECTOR('',#198,2.0);
#200=LINE('',#197,#199);
#201=EDGE_CURVE('',#196,#187,#200,.T.);
#202=ORIENTED_EDGE('',*,*,#201,.F.);
#203=CARTESIAN_POINT('',(-4.440892E-015,2.120517E-016,3.954995821270984));
#204=DIRECTION('',(0.0,0.0,-1.0));
#205=DIRECTION('',(1.0,0.0,0.0));
#206=AXIS2_PLACEMENT_3D('',#203,#204,#205);
#207=CIRCLE('',#206,2.400000000000004);
#208=EDGE_CURVE('',#113,#196,#207,.T.);
#209=ORIENTED_EDGE('',*,*,#208,.F.);
#210=EDGE_LOOP('',(#185,#194,#202,#209));
#211=FACE_OUTER_BOUND('',#210,.T.);
#212=ADVANCED_FACE('',(#211),#184,.F.);
#213=CARTESIAN_POINT('',(2.382110763939173,-0.292486424172356,3.954995821270984));
#214=DIRECTION('',(-0.121869343405150,-0.992546151641322,0.0));
#215=DIRECTION('',(0.0,0.0,-1.0));
#216=AXIS2_PLACEMENT_3D('',#213,#214,#215);
#217=PLANE('',#216);
#218=CARTESIAN_POINT('',(2.382110763939173,-0.292486424172356,1.954995821270984));
#219=DIRECTION('',(0.992546151641322,-0.121869343405150,0.0));
#220=VECTOR('',#219,0.100000000000000);
#221=LINE('',#218,#220);
#222=EDGE_CURVE('',#187,#90,#221,.T.);
#223=ORIENTED_EDGE('',*,*,#222,.T.);
#224=ORIENTED_EDGE('',*,*,#95,.F.);
#225=CARTESIAN_POINT('',(2.382110763939173,-0.292486424172356,3.954995821270984));
#226=DIRECTION('',(0.992546151641322,-0.121869343405150,0.0));
#227=VECTOR('',#226,0.100000000000000);
#228=LINE('',#225,#227);
#229=EDGE_CURVE('',#196,#81,#228,.T.);
#230=ORIENTED_EDGE('',*,*,#229,.F.);
#231=ORIENTED_EDGE('',*,*,#201,.T.);
#232=EDGE_LOOP('',(#223,#224,#230,#231));
#233=FACE_OUTER_BOUND('',#232,.T.);
#234=ADVANCED_FACE('',(#233),#217,.T.);
#235=CARTESIAN_POINT('',(-6.661338E-015,-1.564305E-015,3.954995821270984));
#236=DIRECTION('',(0.0,0.0,-1.0));
#237=DIRECTION('',(1.0,0.0,0.0));
#238=AXIS2_PLACEMENT_3D('',#235,#236,#237);
#239=CYLINDRICAL_SURFACE('',#238,2.500000000000007);
#240=ORIENTED_EDGE('',*,*,#78,.T.);
#241=CARTESIAN_POINT('',(-6.661338E-015,-1.564305E-015,1.954995821270984));
#242=DIRECTION('',(0.0,0.0,1.0));
#243=DIRECTION('',(1.0,0.0,0.0));
#244=AXIS2_PLACEMENT_3D('',#241,#242,#243);
#245=CIRCLE('',#244,2.500000000000007);
#246=EDGE_CURVE('',#73,#155,#245,.T.);
#247=ORIENTED_EDGE('',*,*,#246,.T.);
#248=ORIENTED_EDGE('',*,*,#175,.F.);
#249=CARTESIAN_POINT('',(-6.661338E-015,-1.564305E-015,3.954995821270984));
#250=DIRECTION('',(0.0,0.0,1.0));
#251=DIRECTION('',(1.0,0.0,0.0));
#252=AXIS2_PLACEMENT_3D('',#249,#250,#251);
#253=CIRCLE('',#252,2.500000000000007);
#254=EDGE_CURVE('',#71,#164,#253,.T.);
#255=ORIENTED_EDGE('',*,*,#254,.F.);
#256=EDGE_LOOP('',(#240,#247,#248,#255));
#257=FACE_OUTER_BOUND('',#256,.T.);
#258=ADVANCED_FACE('',(#257),#239,.T.);
#259=CARTESIAN_POINT('',(2.441996393312838,-1.564305E-015,1.954995821270984));
#260=DIRECTION('',(0.0,0.0,1.0));
#261=DIRECTION('',(1.0,0.0,0.0));
#262=AXIS2_PLACEMENT_3D('',#259,#260,#261);
#263=PLANE('',#262);
#264=ORIENTED_EDGE('',*,*,#160,.F.);
#265=ORIENTED_EDGE('',*,*,#246,.F.);
#266=ORIENTED_EDGE('',*,*,#102,.F.);
#267=ORIENTED_EDGE('',*,*,#222,.F.);
#268=ORIENTED_EDGE('',*,*,#193,.F.);
#269=ORIENTED_EDGE('',*,*,#144,.F.);
#270=EDGE_LOOP('',(#264,#265,#266,#267,#268,#269));
#271=FACE_OUTER_BOUND('',#270,.T.);
#272=ADVANCED_FACE('',(#271),#263,.F.);
#273=CARTESIAN_POINT('',(2.441996393312838,-1.564305E-015,3.954995821270984));
#274=DIRECTION('',(0.0,0.0,1.0));
#275=DIRECTION('',(1.0,0.0,0.0));
#276=AXIS2_PLACEMENT_3D('',#273,#274,#275);
#277=PLANE('',#276);
#278=ORIENTED_EDGE('',*,*,#87,.T.);
#279=ORIENTED_EDGE('',*,*,#254,.T.);
#280=ORIENTED_EDGE('',*,*,#169,.T.);
#281=ORIENTED_EDGE('',*,*,#129,.T.);
#282=ORIENTED_EDGE('',*,*,#208,.T.);
#283=ORIENTED_EDGE('',*,*,#229,.T.);
#284=EDGE_LOOP('',(#278,#279,#280,#281,#282,#283));
#285=FACE_OUTER_BOUND('',#284,.T.);
#286=ADVANCED_FACE('',(#285),#277,.T.);
#287=CLOSED_SHELL('',(#106,#148,#179,#212,#234,#258,#272,#286));
#288=MANIFOLD_SOLID_BREP('797',#287);
#289=COLOUR_RGB('254',0.866000000000000,0.866000000000000,0.866000000000000);
#290=SURFACE_STYLE_USAGE(.BOTH.,#291);
#291=SURFACE_SIDE_STYLE('NONE',(#292));
#292=SURFACE_STYLE_FILL_AREA(#293);
#293=FILL_AREA_STYLE('NONE',(#294));
#294=FILL_AREA_STYLE_COLOUR('NONE',#289);
#295=PRESENTATION_STYLE_ASSIGNMENT((#290));
#296=STYLED_ITEM('NONE',(#295),#288);
#297=MECHANICAL_DESIGN_GEOMETRIC_PRESENTATION_REPRESENTATION('NONE',(#296,#523,#619,#708,#1634,#1723,#1812),#28);
#298=PRESENTATION_LAYER_ASSIGNMENT('3D','None',(#288,#522,#611,#707,#1626,#1722,#1811));
#299=CARTESIAN_POINT('',(-6.661338E-015,-1.005195E-015,6.473004317895024));
#300=DIRECTION('',(0.0,0.0,-1.0));
#301=DIRECTION('',(1.0,0.0,0.0));
#302=AXIS2_PLACEMENT_3D('',#299,#300,#301);
#303=CYLINDRICAL_SURFACE('',#302,2.500000000000007);
#304=CARTESIAN_POINT('',(2.500000000000000,-6.990434E-016,6.473004317895024));
#305=VERTEX_POINT('',#304);
#306=CARTESIAN_POINT('',(2.500000000000000,-6.990434E-016,4.473004317895024));
#307=VERTEX_POINT('',#306);
#308=CARTESIAN_POINT('',(2.500000000000000,-6.990434E-016,6.473004317895024));
#309=DIRECTION('',(0.0,0.0,-1.0));
#310=VECTOR('',#309,2.0);
#311=LINE('',#308,#310);
#312=EDGE_CURVE('',#305,#307,#311,.T.);
#313=ORIENTED_EDGE('',*,*,#312,.F.);
#314=CARTESIAN_POINT('',(2.481365379103305,-0.304673358512870,6.473004317895024));
#315=VERTEX_POINT('',#314);
#316=CARTESIAN_POINT('',(-6.661338E-015,-1.005195E-015,6.473004317895024));
#317=DIRECTION('',(0.0,0.0,1.0));
#318=DIRECTION('',(1.0,0.0,0.0));
#319=AXIS2_PLACEMENT_3D('',#316,#317,#318);
#320=CIRCLE('',#319,2.500000000000007);
#321=EDGE_CURVE('',#315,#305,#320,.T.);
#322=ORIENTED_EDGE('',*,*,#321,.F.);
#323=CARTESIAN_POINT('',(2.481365379103305,-0.304673358512870,4.473004317895024));
#324=VERTEX_POINT('',#323);
#325=CARTESIAN_POINT('',(2.481365379103305,-0.304673358512870,6.473004317895024));
#326=DIRECTION('',(0.0,0.0,-1.0));
#327=VECTOR('',#326,2.0);
#328=LINE('',#325,#327);
#329=EDGE_CURVE('',#315,#324,#328,.T.);
#330=ORIENTED_EDGE('',*,*,#329,.T.);
#331=CARTESIAN_POINT('',(-6.661338E-015,-1.005195E-015,4.473004317895024));
#332=DIRECTION('',(0.0,0.0,1.0));
#333=DIRECTION('',(1.0,0.0,0.0));
#334=AXIS2_PLACEMENT_3D('',#331,#332,#333);
#335=CIRCLE('',#334,2.500000000000007);
#336=EDGE_CURVE('',#324,#307,#335,.T.);
#337=ORIENTED_EDGE('',*,*,#336,.T.);
#338=EDGE_LOOP('',(#313,#322,#330,#337));
#339=FACE_OUTER_BOUND('',#338,.T.);
#340=ADVANCED_FACE('',(#339),#303,.T.);
#341=CARTESIAN_POINT('',(-4.440892E-015,7.711619E-016,6.473004317895024));
#342=DIRECTION('',(0.0,0.0,-1.0));
#343=DIRECTION('',(1.0,0.0,0.0));
#344=AXIS2_PLACEMENT_3D('',#341,#342,#343);
#345=CYLINDRICAL_SURFACE('',#344,2.400000000000004);
#346=CARTESIAN_POINT('',(2.400000000000000,-7.569216E-016,6.473004317895024));
#347=VERTEX_POINT('',#346);
#348=CARTESIAN_POINT('',(2.400000000000000,-7.569216E-016,4.473004317895024));
#349=VERTEX_POINT('',#348);
#350=CARTESIAN_POINT('',(2.400000000000000,-7.569216E-016,6.473004317895024));
#351=DIRECTION('',(0.0,0.0,-1.0));
#352=VECTOR('',#351,2.0);
#353=LINE('',#350,#352);
#354=EDGE_CURVE('',#347,#349,#353,.T.);
#355=ORIENTED_EDGE('',*,*,#354,.F.);
#356=CARTESIAN_POINT('',(2.382110763939173,0.292486424172353,6.473004317895024));
#357=VERTEX_POINT('',#356);
#358=CARTESIAN_POINT('',(-4.440892E-015,7.711619E-016,6.473004317895024));
#359=DIRECTION('',(0.0,0.0,-1.0));
#360=DIRECTION('',(1.0,0.0,0.0));
#361=AXIS2_PLACEMENT_3D('',#358,#359,#360);
#362=CIRCLE('',#361,2.400000000000004);
#363=EDGE_CURVE('',#357,#347,#362,.T.);
#364=ORIENTED_EDGE('',*,*,#363,.F.);
#365=CARTESIAN_POINT('',(2.382110763939173,0.292486424172353,4.473004317895024));
#366=VERTEX_POINT('',#365);
#367=CARTESIAN_POINT('',(2.382110763939173,0.292486424172353,6.473004317895024));
#368=DIRECTION('',(0.0,0.0,-1.0));
#369=VECTOR('',#368,2.0);
#370=LINE('',#367,#369);
#371=EDGE_CURVE('',#357,#366,#370,.T.);
#372=ORIENTED_EDGE('',*,*,#371,.T.);
#373=CARTESIAN_POINT('',(-4.440892E-015,7.711619E-016,4.473004317895024));
#374=DIRECTION('',(0.0,0.0,-1.0));
#375=DIRECTION('',(1.0,0.0,0.0));
#376=AXIS2_PLACEMENT_3D('',#373,#374,#375);
#377=CIRCLE('',#376,2.400000000000004);
#378=EDGE_CURVE('',#366,#349,#377,.T.);
#379=ORIENTED_EDGE('',*,*,#378,.T.);
#380=EDGE_LOOP('',(#355,#364,#372,#379));
#381=FACE_OUTER_BOUND('',#380,.T.);
#382=ADVANCED_FACE('',(#381),#345,.F.);
#383=CARTESIAN_POINT('',(2.481365379103305,0.304673358512868,6.473004317895024));
#384=DIRECTION('',(-0.121869343405150,0.992546151641322,0.0));
#385=DIRECTION('',(0.0,0.0,1.0));
#386=AXIS2_PLACEMENT_3D('',#383,#384,#385);
#387=PLANE('',#386);
#388=CARTESIAN_POINT('',(2.481365379103305,0.304673358512868,4.473004317895024));
#389=VERTEX_POINT('',#388);
#390=CARTESIAN_POINT('',(2.481365379103305,0.304673358512868,4.473004317895024));
#391=DIRECTION('',(-0.992546151641322,-0.121869343405150,0.0));
#392=VECTOR('',#391,0.100000000000000);
#393=LINE('',#390,#392);
#394=EDGE_CURVE('',#389,#366,#393,.T.);
#395=ORIENTED_EDGE('',*,*,#394,.T.);
#396=ORIENTED_EDGE('',*,*,#371,.F.);
#397=CARTESIAN_POINT('',(2.481365379103305,0.304673358512868,6.473004317895024));
#398=VERTEX_POINT('',#397);
#399=CARTESIAN_POINT('',(2.481365379103305,0.304673358512868,6.473004317895024));
#400=DIRECTION('',(-0.992546151641322,-0.121869343405150,0.0));
#401=VECTOR('',#400,0.100000000000000);
#402=LINE('',#399,#401);
#403=EDGE_CURVE('',#398,#357,#402,.T.);
#404=ORIENTED_EDGE('',*,*,#403,.F.);
#405=CARTESIAN_POINT('',(2.481365379103305,0.304673358512868,6.473004317895024));
#406=DIRECTION('',(0.0,0.0,-1.0));
#407=VECTOR('',#406,2.0);
#408=LINE('',#405,#407);
#409=EDGE_CURVE('',#398,#389,#408,.T.);
#410=ORIENTED_EDGE('',*,*,#409,.T.);
#411=EDGE_LOOP('',(#395,#396,#404,#410));
#412=FACE_OUTER_BOUND('',#411,.T.);
#413=ADVANCED_FACE('',(#412),#387,.T.);
#414=CARTESIAN_POINT('',(-4.440892E-015,7.711619E-016,6.473004317895024));
#415=DIRECTION('',(0.0,0.0,-1.0));
#416=DIRECTION('',(1.0,0.0,0.0));
#417=AXIS2_PLACEMENT_3D('',#414,#415,#416);
#418=CYLINDRICAL_SURFACE('',#417,2.400000000000004);
#419=ORIENTED_EDGE('',*,*,#354,.T.);
#420=CARTESIAN_POINT('',(2.382110763939173,-0.292486424172355,4.473004317895024));
#421=VERTEX_POINT('',#420);
#422=CARTESIAN_POINT('',(-4.440892E-015,7.711619E-016,4.473004317895024));
#423=DIRECTION('',(0.0,0.0,-1.0));
#424=DIRECTION('',(1.0,0.0,0.0));
#425=AXIS2_PLACEMENT_3D('',#422,#423,#424);
#426=CIRCLE('',#425,2.400000000000004);
#427=EDGE_CURVE('',#349,#421,#426,.T.);
#428=ORIENTED_EDGE('',*,*,#427,.T.);
#429=CARTESIAN_POINT('',(2.382110763939173,-0.292486424172355,6.473004317895024));
#430=VERTEX_POINT('',#429);
#431=CARTESIAN_POINT('',(2.382110763939173,-0.292486424172355,6.473004317895024));
#432=DIRECTION('',(0.0,0.0,-1.0));
#433=VECTOR('',#432,2.0);
#434=LINE('',#431,#433);
#435=EDGE_CURVE('',#430,#421,#434,.T.);
#436=ORIENTED_EDGE('',*,*,#435,.F.);
#437=CARTESIAN_POINT('',(-4.440892E-015,7.711619E-016,6.473004317895024));
#438=DIRECTION('',(0.0,0.0,-1.0));
#439=DIRECTION('',(1.0,0.0,0.0));
#440=AXIS2_PLACEMENT_3D('',#437,#438,#439);
#441=CIRCLE('',#440,2.400000000000004);
#442=EDGE_CURVE('',#347,#430,#441,.T.);
#443=ORIENTED_EDGE('',*,*,#442,.F.);
#444=EDGE_LOOP('',(#419,#428,#436,#443));
#445=FACE_OUTER_BOUND('',#444,.T.);
#446=ADVANCED_FACE('',(#445),#418,.F.);
#447=CARTESIAN_POINT('',(2.382110763939173,-0.292486424172355,6.473004317895024));
#448=DIRECTION('',(-0.121869343405150,-0.992546151641322,0.0));
#449=DIRECTION('',(0.0,0.0,-1.0));
#450=AXIS2_PLACEMENT_3D('',#447,#448,#449);
#451=PLANE('',#450);
#452=CARTESIAN_POINT('',(2.382110763939173,-0.292486424172355,4.473004317895024));
#453=DIRECTION('',(0.992546151641322,-0.121869343405150,0.0));
#454=VECTOR('',#453,0.100000000000000);
#455=LINE('',#452,#454);
#456=EDGE_CURVE('',#421,#324,#455,.T.);
#457=ORIENTED_EDGE('',*,*,#456,.T.);
#458=ORIENTED_EDGE('',*,*,#329,.F.);
#459=CARTESIAN_POINT('',(2.382110763939173,-0.292486424172355,6.473004317895024));
#460=DIRECTION('',(0.992546151641322,-0.121869343405150,0.0));
#461=VECTOR('',#460,0.100000000000000);
#462=LINE('',#459,#461);
#463=EDGE_CURVE('',#430,#315,#462,.T.);
#464=ORIENTED_EDGE('',*,*,#463,.F.);
#465=ORIENTED_EDGE('',*,*,#435,.T.);
#466=EDGE_LOOP('',(#457,#458,#464,#465));
#467=FACE_OUTER_BOUND('',#466,.T.);
#468=ADVANCED_FACE('',(#467),#451,.T.);
#469=CARTESIAN_POINT('',(-6.661338E-015,-1.005195E-015,6.473004317895024));
#470=DIRECTION('',(0.0,0.0,-1.0));
#471=DIRECTION('',(1.0,0.0,0.0));
#472=AXIS2_PLACEMENT_3D('',#469,#470,#471);
#473=CYLINDRICAL_SURFACE('',#472,2.500000000000007);
#474=ORIENTED_EDGE('',*,*,#312,.T.);
#475=CARTESIAN_POINT('',(-6.661338E-015,-1.005195E-015,4.473004317895024));
#476=DIRECTION('',(0.0,0.0,1.0));
#477=DIRECTION('',(1.0,0.0,0.0));
#478=AXIS2_PLACEMENT_3D('',#475,#476,#477);
#479=CIRCLE('',#478,2.500000000000007);
#480=EDGE_CURVE('',#307,#389,#479,.T.);
#481=ORIENTED_EDGE('',*,*,#480,.T.);
#482=ORIENTED_EDGE('',*,*,#409,.F.);
#483=CARTESIAN_POINT('',(-6.661338E-015,-1.005195E-015,6.473004317895024));
#484=DIRECTION('',(0.0,0.0,1.0));
#485=DIRECTION('',(1.0,0.0,0.0));
#486=AXIS2_PLACEMENT_3D('',#483,#484,#485);
#487=CIRCLE('',#486,2.500000000000007);
#488=EDGE_CURVE('',#305,#398,#487,.T.);
#489=ORIENTED_EDGE('',*,*,#488,.F.);
#490=EDGE_LOOP('',(#474,#481,#482,#489));
#491=FACE_OUTER_BOUND('',#490,.T.);
#492=ADVANCED_FACE('',(#491),#473,.T.);
#493=CARTESIAN_POINT('',(2.441996393312838,-1.005195E-015,4.473004317895024));
#494=DIRECTION('',(0.0,0.0,1.0));
#495=DIRECTION('',(1.0,0.0,0.0));
#496=AXIS2_PLACEMENT_3D('',#493,#494,#495);
#497=PLANE('',#496);
#498=ORIENTED_EDGE('',*,*,#394,.F.);
#499=ORIENTED_EDGE('',*,*,#480,.F.);
#500=ORIENTED_EDGE('',*,*,#336,.F.);
#501=ORIENTED_EDGE('',*,*,#456,.F.);
#502=ORIENTED_EDGE('',*,*,#427,.F.);
#503=ORIENTED_EDGE('',*,*,#378,.F.);
#504=EDGE_LOOP('',(#498,#499,#500,#501,#502,#503));
#505=FACE_OUTER_BOUND('',#504,.T.);
#506=ADVANCED_FACE('',(#505),#497,.F.);
#507=CARTESIAN_POINT('',(2.441996393312838,-1.005195E-015,6.473004317895024));
#508=DIRECTION('',(0.0,0.0,1.0));
#509=DIRECTION('',(1.0,0.0,0.0));
#510=AXIS2_PLACEMENT_3D('',#507,#508,#509);
#511=PLANE('',#510);
#512=ORIENTED_EDGE('',*,*,#321,.T.);
#513=ORIENTED_EDGE('',*,*,#488,.T.);
#514=ORIENTED_EDGE('',*,*,#403,.T.);
#515=ORIENTED_EDGE('',*,*,#363,.T.);
#516=ORIENTED_EDGE('',*,*,#442,.T.);
#517=ORIENTED_EDGE('',*,*,#463,.T.);
#518=EDGE_LOOP('',(#512,#513,#514,#515,#516,#517));
#519=FACE_OUTER_BOUND('',#518,.T.);
#520=ADVANCED_FACE('',(#519),#511,.T.);
#521=CLOSED_SHELL('',(#340,#382,#413,#446,#468,#492,#506,#520));
#522=MANIFOLD_SOLID_BREP('795',#521);
#523=STYLED_ITEM('NONE',(#295),#522);
#524=CARTESIAN_POINT('',(0.0,2.220446E-017,0.100000000000000));
#525=DIRECTION('',(0.0,0.0,-1.0));
#526=DIRECTION('',(1.0,0.0,0.0));
#527=AXIS2_PLACEMENT_3D('',#524,#525,#526);
#528=CYLINDRICAL_SURFACE('',#527,1.750000000000000);
#529=CARTESIAN_POINT('',(1.750000000000000,2.220446E-017,0.100000000000000));
#530=VERTEX_POINT('',#529);
#531=CARTESIAN_POINT('',(1.750000000000000,2.220446E-017,8.326673E-017));
#532=VERTEX_POINT('',#531);
#533=CARTESIAN_POINT('',(1.750000000000000,2.220446E-017,0.100000000000000));
#534=DIRECTION('',(0.0,0.0,-1.0));
#535=VECTOR('',#534,0.100000000000000);
#536=LINE('',#533,#535);
#537=EDGE_CURVE('',#530,#532,#536,.T.);
#538=ORIENTED_EDGE('',*,*,#537,.F.);
#539=CARTESIAN_POINT('',(-1.750000000000000,-1.921017E-016,0.100000000000000));
#540=VERTEX_POINT('',#539);
#541=CARTESIAN_POINT('',(0.0,2.220446E-017,0.100000000000000));
#542=DIRECTION('',(0.0,0.0,1.0));
#543=DIRECTION('',(1.0,0.0,0.0));
#544=AXIS2_PLACEMENT_3D('',#541,#542,#543);
#545=CIRCLE('',#544,1.750000000000000);
#546=EDGE_CURVE('',#540,#530,#545,.T.);
#547=ORIENTED_EDGE('',*,*,#546,.F.);
#548=CARTESIAN_POINT('',(-1.750000000000000,-1.921017E-016,8.326673E-017));
#549=VERTEX_POINT('',#548);
#550=CARTESIAN_POINT('',(-1.750000000000000,-1.921017E-016,8.326673E-017));
#551=DIRECTION('',(0.0,0.0,1.0));
#552=VECTOR('',#551,0.100000000000000);
#553=LINE('',#550,#552);
#554=EDGE_CURVE('',#549,#540,#553,.T.);
#555=ORIENTED_EDGE('',*,*,#554,.F.);
#556=CARTESIAN_POINT('',(0.0,2.220446E-017,8.326673E-017));
#557=DIRECTION('',(0.0,0.0,1.0));
#558=DIRECTION('',(1.0,0.0,0.0));
#559=AXIS2_PLACEMENT_3D('',#556,#557,#558);
#560=CIRCLE('',#559,1.750000000000000);
#561=EDGE_CURVE('',#549,#532,#560,.T.);
#562=ORIENTED_EDGE('',*,*,#561,.T.);
#563=EDGE_LOOP('',(#538,#547,#555,#562));
#564=FACE_OUTER_BOUND('',#563,.T.);
#565=ADVANCED_FACE('',(#564),#528,.T.);
#566=CARTESIAN_POINT('',(0.0,2.220446E-017,0.100000000000000));
#567=DIRECTION('',(0.0,0.0,-1.0));
#568=DIRECTION('',(1.0,0.0,0.0));
#569=AXIS2_PLACEMENT_3D('',#566,#567,#568);
#570=CYLINDRICAL_SURFACE('',#569,1.750000000000000);
#571=ORIENTED_EDGE('',*,*,#537,.T.);
#572=CARTESIAN_POINT('',(0.0,2.220446E-017,8.326673E-017));
#573=DIRECTION('',(0.0,0.0,1.0));
#574=DIRECTION('',(1.0,0.0,0.0));
#575=AXIS2_PLACEMENT_3D('',#572,#573,#574);
#576=CIRCLE('',#575,1.750000000000000);
#577=EDGE_CURVE('',#532,#549,#576,.T.);
#578=ORIENTED_EDGE('',*,*,#577,.T.);
#579=ORIENTED_EDGE('',*,*,#554,.T.);
#580=CARTESIAN_POINT('',(0.0,2.220446E-017,0.100000000000000));
#581=DIRECTION('',(0.0,0.0,1.0));
#582=DIRECTION('',(1.0,0.0,0.0));
#583=AXIS2_PLACEMENT_3D('',#580,#581,#582);
#584=CIRCLE('',#583,1.750000000000000);
#585=EDGE_CURVE('',#530,#540,#584,.T.);
#586=ORIENTED_EDGE('',*,*,#585,.F.);
#587=EDGE_LOOP('',(#571,#578,#579,#586));
#588=FACE_OUTER_BOUND('',#587,.T.);
#589=ADVANCED_FACE('',(#588),#570,.T.);
#590=CARTESIAN_POINT('',(0.0,2.220446E-017,8.326673E-017));
#591=DIRECTION('',(0.0,0.0,1.0));
#592=DIRECTION('',(1.0,0.0,0.0));
#593=AXIS2_PLACEMENT_3D('',#590,#591,#592);
#594=PLANE('',#593);
#595=ORIENTED_EDGE('',*,*,#577,.F.);
#596=ORIENTED_EDGE('',*,*,#561,.F.);
#597=EDGE_LOOP('',(#595,#596));
#598=FACE_OUTER_BOUND('',#597,.T.);
#599=ADVANCED_FACE('',(#598),#594,.F.);
#600=CARTESIAN_POINT('',(0.0,2.220446E-017,0.100000000000000));
#601=DIRECTION('',(0.0,0.0,1.0));
#602=DIRECTION('',(1.0,0.0,0.0));
#603=AXIS2_PLACEMENT_3D('',#600,#601,#602);
#604=PLANE('',#603);
#605=ORIENTED_EDGE('',*,*,#585,.T.);
#606=ORIENTED_EDGE('',*,*,#546,.T.);
#607=EDGE_LOOP('',(#605,#606));
#608=FACE_OUTER_BOUND('',#607,.T.);
#609=ADVANCED_FACE('',(#608),#604,.T.);
#610=CLOSED_SHELL('',(#565,#589,#599,#609));
#611=MANIFOLD_SOLID_BREP('77E',#610);
#612=COLOUR_RGB('255',1.0,1.0,1.0);
#613=SURFACE_STYLE_USAGE(.BOTH.,#614);
#614=SURFACE_SIDE_STYLE('NONE',(#615));
#615=SURFACE_STYLE_FILL_AREA(#616);
#616=FILL_AREA_STYLE('NONE',(#617));
#617=FILL_AREA_STYLE_COLOUR('NONE',#612);
#618=PRESENTATION_STYLE_ASSIGNMENT((#613));
#619=STYLED_ITEM('NONE',(#618),#611);
#620=CARTESIAN_POINT('',(0.0,0.0,6.900000000000000));
#621=DIRECTION('',(0.0,0.0,-1.0));
#622=DIRECTION('',(1.0,0.0,0.0));
#623=AXIS2_PLACEMENT_3D('',#620,#621,#622);
#624=CYLINDRICAL_SURFACE('',#623,1.750000000000000);
#625=CARTESIAN_POINT('',(1.750000000000000,0.0,6.900000000000000));
#626=VERTEX_POINT('',#625);
#627=CARTESIAN_POINT('',(1.750000000000000,0.0,6.800000000000001));
#628=VERTEX_POINT('',#627);
#629=CARTESIAN_POINT('',(1.750000000000000,0.0,6.900000000000000));
#630=DIRECTION('',(0.0,0.0,-1.0));
#631=VECTOR('',#630,0.100000000000000);
#632=LINE('',#629,#631);
#633=EDGE_CURVE('',#626,#628,#632,.T.);
#634=ORIENTED_EDGE('',*,*,#633,.F.);
#635=CARTESIAN_POINT('',(-1.750000000000000,-2.143061E-016,6.900000000000000));
#636=VERTEX_POINT('',#635);
#637=CARTESIAN_POINT('',(0.0,0.0,6.900000000000000));
#638=DIRECTION('',(0.0,0.0,1.0));
#639=DIRECTION('',(1.0,0.0,0.0));
#640=AXIS2_PLACEMENT_3D('',#637,#638,#639);
#641=CIRCLE('',#640,1.750000000000000);
#642=EDGE_CURVE('',#636,#626,#641,.T.);
#643=ORIENTED_EDGE('',*,*,#642,.F.);
#644=CARTESIAN_POINT('',(-1.750000000000000,-2.143061E-016,6.800000000000001));
#645=VERTEX_POINT('',#644);
#646=CARTESIAN_POINT('',(-1.750000000000000,-2.143061E-016,6.800000000000001));
#647=DIRECTION('',(0.0,0.0,1.0));
#648=VECTOR('',#647,0.100000000000000);
#649=LINE('',#646,#648);
#650=EDGE_CURVE('',#645,#636,#649,.T.);
#651=ORIENTED_EDGE('',*,*,#650,.F.);
#652=CARTESIAN_POINT('',(0.0,0.0,6.800000000000001));
#653=DIRECTION('',(0.0,0.0,1.0));
#654=DIRECTION('',(1.0,0.0,0.0));
#655=AXIS2_PLACEMENT_3D('',#652,#653,#654);
#656=CIRCLE('',#655,1.750000000000000);
#657=EDGE_CURVE('',#645,#628,#656,.T.);
#658=ORIENTED_EDGE('',*,*,#657,.T.);
#659=EDGE_LOOP('',(#634,#643,#651,#658));
#660=FACE_OUTER_BOUND('',#659,.T.);
#661=ADVANCED_FACE('',(#660),#624,.T.);
#662=CARTESIAN_POINT('',(0.0,0.0,6.900000000000000));
#663=DIRECTION('',(0.0,0.0,-1.0));
#664=DIRECTION('',(1.0,0.0,0.0));
#665=AXIS2_PLACEMENT_3D('',#662,#663,#664);
#666=CYLINDRICAL_SURFACE('',#665,1.750000000000000);
#667=ORIENTED_EDGE('',*,*,#633,.T.);
#668=CARTESIAN_POINT('',(0.0,0.0,6.800000000000001));
#669=DIRECTION('',(0.0,0.0,1.0));
#670=DIRECTION('',(1.0,0.0,0.0));
#671=AXIS2_PLACEMENT_3D('',#668,#669,#670);
#672=CIRCLE('',#671,1.750000000000000);
#673=EDGE_CURVE('',#628,#645,#672,.T.);
#674=ORIENTED_EDGE('',*,*,#673,.T.);
#675=ORIENTED_EDGE('',*,*,#650,.T.);
#676=CARTESIAN_POINT('',(0.0,0.0,6.900000000000000));
#677=DIRECTION('',(0.0,0.0,1.0));
#678=DIRECTION('',(1.0,0.0,0.0));
#679=AXIS2_PLACEMENT_3D('',#676,#677,#678);
#680=CIRCLE('',#679,1.750000000000000);
#681=EDGE_CURVE('',#626,#636,#680,.T.);
#682=ORIENTED_EDGE('',*,*,#681,.F.);
#683=EDGE_LOOP('',(#667,#674,#675,#682));
#684=FACE_OUTER_BOUND('',#683,.T.);
#685=ADVANCED_FACE('',(#684),#666,.T.);
#686=CARTESIAN_POINT('',(0.0,0.0,6.800000000000001));
#687=DIRECTION('',(0.0,0.0,1.0));
#688=DIRECTION('',(1.0,0.0,0.0));
#689=AXIS2_PLACEMENT_3D('',#686,#687,#688);
#690=PLANE('',#689);
#691=ORIENTED_EDGE('',*,*,#673,.F.);
#692=ORIENTED_EDGE('',*,*,#657,.F.);
#693=EDGE_LOOP('',(#691,#692));
#694=FACE_OUTER_BOUND('',#693,.T.);
#695=ADVANCED_FACE('',(#694),#690,.F.);
#696=CARTESIAN_POINT('',(0.0,0.0,6.900000000000000));
#697=DIRECTION('',(0.0,0.0,1.0));
#698=DIRECTION('',(1.0,0.0,0.0));
#699=AXIS2_PLACEMENT_3D('',#696,#697,#698);
#700=PLANE('',#699);
#701=ORIENTED_EDGE('',*,*,#681,.T.);
#702=ORIENTED_EDGE('',*,*,#642,.T.);
#703=EDGE_LOOP('',(#701,#702));
#704=FACE_OUTER_BOUND('',#703,.T.);
#705=ADVANCED_FACE('',(#704),#700,.T.);
#706=CLOSED_SHELL('',(#661,#685,#695,#705));
#707=MANIFOLD_SOLID_BREP('76E',#706);
#708=STYLED_ITEM('NONE',(#295),#707);
#709=CARTESIAN_POINT('',(0.0,-1.110223E-016,1.500000000000000));
#710=DIRECTION('',(0.0,0.0,1.0));
#711=DIRECTION('',(1.0,0.0,0.0));
#712=AXIS2_PLACEMENT_3D('',#709,#710,#711);
#713=TOROIDAL_SURFACE('',#712,2.875000000000000,0.500000000000000);
#714=CARTESIAN_POINT('',(-2.375000000000000,1.148068E-016,1.500000000000000));
#715=VERTEX_POINT('',#714);
#716=CARTESIAN_POINT('',(2.375000000000000,-3.368515E-016,1.500000000000000));
#717=VERTEX_POINT('',#716);
#718=CARTESIAN_POINT('',(0.0,-1.110223E-016,1.500000000000000));
#719=DIRECTION('',(0.0,0.0,1.0));
#720=DIRECTION('',(1.0,0.0,0.0));
#721=AXIS2_PLACEMENT_3D('',#718,#719,#720);
#722=CIRCLE('',#721,2.375000000000000);
#723=EDGE_CURVE('',#715,#717,#722,.T.);
#724=ORIENTED_EDGE('',*,*,#723,.F.);
#725=CARTESIAN_POINT('',(-2.500000000000000,1.951293E-016,1.169281086116926));
#726=VERTEX_POINT('',#725);
#727=CARTESIAN_POINT('',(-2.875000000000000,2.410520E-016,1.500000000000000));
#728=DIRECTION('',(0.0,1.0,0.0));
#729=DIRECTION('',(-1.0,0.0,0.0));
#730=AXIS2_PLACEMENT_3D('',#727,#728,#729);
#731=CIRCLE('',#730,0.500000000000000);
#732=EDGE_CURVE('',#715,#726,#731,.T.);
#733=ORIENTED_EDGE('',*,*,#732,.T.);
#734=CARTESIAN_POINT('',(2.500000000000000,-3.061516E-016,1.169281086116926));
#735=VERTEX_POINT('',#734);
#736=CARTESIAN_POINT('',(0.0,-1.110223E-016,1.169281086116926));
#737=DIRECTION('',(0.0,0.0,-1.0));
#738=DIRECTION('',(1.0,0.0,0.0));
#739=AXIS2_PLACEMENT_3D('',#736,#737,#738);
#740=CIRCLE('',#739,2.500000000000000);
#741=EDGE_CURVE('',#735,#726,#740,.T.);
#742=ORIENTED_EDGE('',*,*,#741,.F.);
#743=CARTESIAN_POINT('',(2.875000000000000,-4.630966E-016,1.500000000000000));
#744=DIRECTION('',(0.0,1.0,0.0));
#745=DIRECTION('',(1.0,0.0,0.0));
#746=AXIS2_PLACEMENT_3D('',#743,#744,#745);
#747=CIRCLE('',#746,0.500000000000000);
#748=EDGE_CURVE('',#735,#717,#747,.T.);
#749=ORIENTED_EDGE('',*,*,#748,.T.);
#750=EDGE_LOOP('',(#724,#733,#742,#749));
#751=FACE_OUTER_BOUND('',#750,.T.);
#752=ADVANCED_FACE('',(#751),#713,.F.);
#753=CARTESIAN_POINT('',(0.0,-1.110223E-016,1.500000000000000));
#754=DIRECTION('',(0.0,0.0,1.0));
#755=DIRECTION('',(1.0,0.0,0.0));
#756=AXIS2_PLACEMENT_3D('',#753,#754,#755);
#757=TOROIDAL_SURFACE('',#756,2.875000000000000,0.500000000000000);
#758=CARTESIAN_POINT('',(0.0,-1.110223E-016,1.500000000000000));
#759=DIRECTION('',(0.0,0.0,1.0));
#760=DIRECTION('',(1.0,0.0,0.0));
#761=AXIS2_PLACEMENT_3D('',#758,#759,#760);
#762=CIRCLE('',#761,2.375000000000000);
#763=EDGE_CURVE('',#717,#715,#762,.T.);
#764=ORIENTED_EDGE('',*,*,#763,.F.);
#765=ORIENTED_EDGE('',*,*,#748,.F.);
#766=CARTESIAN_POINT('',(0.0,-1.110223E-016,1.169281086116926));
#767=DIRECTION('',(0.0,0.0,-1.0));
#768=DIRECTION('',(1.0,0.0,0.0));
#769=AXIS2_PLACEMENT_3D('',#766,#767,#768);
#770=CIRCLE('',#769,2.500000000000000);
#771=EDGE_CURVE('',#726,#735,#770,.T.);
#772=ORIENTED_EDGE('',*,*,#771,.F.);
#773=ORIENTED_EDGE('',*,*,#732,.F.);
#774=EDGE_LOOP('',(#764,#765,#772,#773));
#775=FACE_OUTER_BOUND('',#774,.T.);
#776=ADVANCED_FACE('',(#775),#757,.F.);
#777=CARTESIAN_POINT('',(0.0,0.0,7.0));
#778=DIRECTION('',(0.0,0.0,-1.0));
#779=DIRECTION('',(1.0,0.0,0.0));
#780=AXIS2_PLACEMENT_3D('',#777,#778,#779);
#781=CYLINDRICAL_SURFACE('',#780,1.750000000000000);
#782=CARTESIAN_POINT('',(1.750000000000000,0.0,6.800000000000001));
#783=VERTEX_POINT('',#782);
#784=CARTESIAN_POINT('',(1.750000000000000,0.0,7.0));
#785=VERTEX_POINT('',#784);
#786=CARTESIAN_POINT('',(1.750000000000000,0.0,6.800000000000001));
#787=DIRECTION('',(0.0,0.0,1.0));
#788=VECTOR('',#787,0.199999999999999);
#789=LINE('',#786,#788);
#790=EDGE_CURVE('',#783,#785,#789,.T.);
#791=ORIENTED_EDGE('',*,*,#790,.F.);
#792=CARTESIAN_POINT('',(-1.750000000000000,-2.143061E-016,6.800000000000001));
#793=VERTEX_POINT('',#792);
#794=CARTESIAN_POINT('',(0.0,0.0,6.800000000000001));
#795=DIRECTION('',(0.0,0.0,1.0));
#796=DIRECTION('',(1.0,0.0,0.0));
#797=AXIS2_PLACEMENT_3D('',#794,#795,#796);
#798=CIRCLE('',#797,1.750000000000000);
#799=EDGE_CURVE('',#793,#783,#798,.T.);
#800=ORIENTED_EDGE('',*,*,#799,.F.);
#801=CARTESIAN_POINT('',(-1.750000000000000,-2.143061E-016,7.0));
#802=VERTEX_POINT('',#801);
#803=CARTESIAN_POINT('',(-1.750000000000000,-2.143061E-016,7.0));
#804=DIRECTION('',(0.0,0.0,-1.0));
#805=VECTOR('',#804,0.199999999999999);
#806=LINE('',#803,#805);
#807=EDGE_CURVE('',#802,#793,#806,.T.);
#808=ORIENTED_EDGE('',*,*,#807,.F.);
#809=CARTESIAN_POINT('',(0.0,0.0,7.0));
#810=DIRECTION('',(0.0,0.0,-1.0));
#811=DIRECTION('',(1.0,0.0,0.0));
#812=AXIS2_PLACEMENT_3D('',#809,#810,#811);
#813=CIRCLE('',#812,1.750000000000000);
#814=EDGE_CURVE('',#785,#802,#813,.T.);
#815=ORIENTED_EDGE('',*,*,#814,.F.);
#816=EDGE_LOOP('',(#791,#800,#808,#815));
#817=FACE_OUTER_BOUND('',#816,.T.);
#818=ADVANCED_FACE('',(#817),#781,.F.);
#819=CARTESIAN_POINT('',(0.0,-1.110223E-016,1.500000000000000));
#820=DIRECTION('',(0.0,0.0,1.0));
#821=DIRECTION('',(1.0,0.0,0.0));
#822=AXIS2_PLACEMENT_3D('',#819,#820,#821);
#823=TOROIDAL_SURFACE('',#822,2.875000000000000,0.500000000000000);
#824=ORIENTED_EDGE('',*,*,#763,.T.);
#825=CARTESIAN_POINT('',(-2.500000000000000,-4.171739E-016,1.830718913883074));
#826=VERTEX_POINT('',#825);
#827=CARTESIAN_POINT('',(-2.875000000000000,2.410520E-016,1.500000000000000));
#828=DIRECTION('',(0.0,1.0,0.0));
#829=DIRECTION('',(-1.0,0.0,0.0));
#830=AXIS2_PLACEMENT_3D('',#827,#828,#829);
#831=CIRCLE('',#830,0.500000000000000);
#832=EDGE_CURVE('',#826,#715,#831,.T.);
#833=ORIENTED_EDGE('',*,*,#832,.F.);
#834=CARTESIAN_POINT('',(2.500000000000000,-3.061516E-016,1.830718913883074));
#835=VERTEX_POINT('',#834);
#836=CARTESIAN_POINT('',(0.0,-1.110223E-016,1.830718913883074));
#837=DIRECTION('',(0.0,0.0,1.0));
#838=DIRECTION('',(1.0,0.0,0.0));
#839=AXIS2_PLACEMENT_3D('',#836,#837,#838);
#840=CIRCLE('',#839,2.500000000000000);
#841=EDGE_CURVE('',#835,#826,#840,.T.);
#842=ORIENTED_EDGE('',*,*,#841,.F.);
#843=CARTESIAN_POINT('',(2.875000000000000,-4.630966E-016,1.500000000000000));
#844=DIRECTION('',(0.0,1.0,0.0));
#845=DIRECTION('',(1.0,0.0,0.0));
#846=AXIS2_PLACEMENT_3D('',#843,#844,#845);
#847=CIRCLE('',#846,0.500000000000000);
#848=EDGE_CURVE('',#717,#835,#847,.T.);
#849=ORIENTED_EDGE('',*,*,#848,.F.);
#850=EDGE_LOOP('',(#824,#833,#842,#849));
#851=FACE_OUTER_BOUND('',#850,.T.);
#852=ADVANCED_FACE('',(#851),#823,.F.);
#853=CARTESIAN_POINT('',(0.0,0.0,0.0));
#854=DIRECTION('',(0.0,0.0,1.0));
#855=DIRECTION('',(1.0,0.0,0.0));
#856=AXIS2_PLACEMENT_3D('',#853,#854,#855);
#857=CYLINDRICAL_SURFACE('',#856,2.500000000000000);
#858=CARTESIAN_POINT('',(2.500000000000000,-3.061516E-016,1.954995821270984));
#859=VERTEX_POINT('',#858);
#860=CARTESIAN_POINT('',(2.500000000000000,-3.061516E-016,1.830718913883074));
#861=DIRECTION('',(0.0,0.0,1.0));
#862=VECTOR('',#861,0.124276907387910);
#863=LINE('',#860,#862);
#864=EDGE_CURVE('',#835,#859,#863,.T.);
#865=ORIENTED_EDGE('',*,*,#864,.F.);
#866=ORIENTED_EDGE('',*,*,#841,.T.);
#867=CARTESIAN_POINT('',(-2.500000000000000,-3.061516E-016,6.500000000000000));
#868=VERTEX_POINT('',#867);
#869=CARTESIAN_POINT('',(-2.500000000000000,-3.061516E-016,6.500000000000000));
#870=DIRECTION('',(0.0,0.0,-1.0));
#871=VECTOR('',#870,4.669281086116927);
#872=LINE('',#869,#871);
#873=EDGE_CURVE('',#868,#826,#872,.T.);
#874=ORIENTED_EDGE('',*,*,#873,.F.);
#875=CARTESIAN_POINT('',(2.500000000000000,6.123032E-016,6.500000000000000));
#876=VERTEX_POINT('',#875);
#877=CARTESIAN_POINT('',(0.0,0.0,6.500000000000000));
#878=DIRECTION('',(0.0,0.0,1.0));
#879=DIRECTION('',(-1.0,0.0,0.0));
#880=AXIS2_PLACEMENT_3D('',#877,#878,#879);
#881=CIRCLE('',#880,2.500000000000000);
#882=EDGE_CURVE('',#876,#868,#881,.T.);
#883=ORIENTED_EDGE('',*,*,#882,.F.);
#884=CARTESIAN_POINT('',(2.500000000000000,-3.061516E-016,6.473004317895024));
#885=VERTEX_POINT('',#884);
#886=CARTESIAN_POINT('',(2.500000000000000,-3.061516E-016,6.473004317895024));
#887=DIRECTION('',(0.0,0.0,1.0));
#888=VECTOR('',#887,0.026995682104976);
#889=LINE('',#886,#888);
#890=EDGE_CURVE('',#885,#876,#889,.T.);
#891=ORIENTED_EDGE('',*,*,#890,.F.);
#892=CARTESIAN_POINT('',(2.481365379103305,0.304673358512868,6.473004317895024));
#893=VERTEX_POINT('',#892);
#894=CARTESIAN_POINT('',(0.0,0.0,6.473004317895024));
#895=DIRECTION('',(0.0,0.0,1.0));
#896=DIRECTION('',(1.0,0.0,0.0));
#897=AXIS2_PLACEMENT_3D('',#894,#895,#896);
#898=CIRCLE('',#897,2.500000000000000);
#899=EDGE_CURVE('',#885,#893,#898,.T.);
#900=ORIENTED_EDGE('',*,*,#899,.T.);
#901=CARTESIAN_POINT('',(2.481365379103305,0.304673358512868,4.473004317895024));
#902=VERTEX_POINT('',#901);
#903=CARTESIAN_POINT('',(2.481365379103305,0.304673358512868,6.473004317895024));
#904=DIRECTION('',(0.0,0.0,-1.0));
#905=VECTOR('',#904,2.0);
#906=LINE('',#903,#905);
#907=EDGE_CURVE('',#893,#902,#906,.T.);
#908=ORIENTED_EDGE('',*,*,#907,.T.);
#909=CARTESIAN_POINT('',(2.500000000000000,-3.061516E-016,4.473004317895024));
#910=VERTEX_POINT('',#909);
#911=CARTESIAN_POINT('',(0.0,0.0,4.473004317895024));
#912=DIRECTION('',(0.0,0.0,-1.0));
#913=DIRECTION('',(1.0,0.0,0.0));
#914=AXIS2_PLACEMENT_3D('',#911,#912,#913);
#915=CIRCLE('',#914,2.500000000000000);
#916=EDGE_CURVE('',#902,#910,#915,.T.);
#917=ORIENTED_EDGE('',*,*,#916,.T.);
#918=CARTESIAN_POINT('',(2.500000000000000,-3.061516E-016,3.954995821270984));
#919=VERTEX_POINT('',#918);
#920=CARTESIAN_POINT('',(2.500000000000000,-3.061516E-016,3.954995821270984));
#921=DIRECTION('',(0.0,0.0,1.0));
#922=VECTOR('',#921,0.518008496624039);
#923=LINE('',#920,#922);
#924=EDGE_CURVE('',#919,#910,#923,.T.);
#925=ORIENTED_EDGE('',*,*,#924,.F.);
#926=CARTESIAN_POINT('',(2.481365379103305,0.304673358512868,3.954995821270984));
#927=VERTEX_POINT('',#926);
#928=CARTESIAN_POINT('',(0.0,0.0,3.954995821270984));
#929=DIRECTION('',(0.0,0.0,1.0));
#930=DIRECTION('',(1.0,0.0,0.0));
#931=AXIS2_PLACEMENT_3D('',#928,#929,#930);
#932=CIRCLE('',#931,2.500000000000000);
#933=EDGE_CURVE('',#919,#927,#932,.T.);
#934=ORIENTED_EDGE('',*,*,#933,.T.);
#935=CARTESIAN_POINT('',(2.481365379103305,0.304673358512868,1.954995821270984));
#936=VERTEX_POINT('',#935);
#937=CARTESIAN_POINT('',(2.481365379103305,0.304673358512868,3.954995821270984));
#938=DIRECTION('',(0.0,0.0,-1.0));
#939=VECTOR('',#938,2.0);
#940=LINE('',#937,#939);
#941=EDGE_CURVE('',#927,#936,#940,.T.);
#942=ORIENTED_EDGE('',*,*,#941,.T.);
#943=CARTESIAN_POINT('',(0.0,0.0,1.954995821270984));
#944=DIRECTION('',(0.0,0.0,-1.0));
#945=DIRECTION('',(1.0,0.0,0.0));
#946=AXIS2_PLACEMENT_3D('',#943,#944,#945);
#947=CIRCLE('',#946,2.500000000000000);
#948=EDGE_CURVE('',#936,#859,#947,.T.);
#949=ORIENTED_EDGE('',*,*,#948,.T.);
#950=EDGE_LOOP('',(#865,#866,#874,#883,#891,#900,#908,#917,#925,#934,#942,#949));
#951=FACE_OUTER_BOUND('',#950,.T.);
#952=ADVANCED_FACE('',(#951),#857,.T.);
#953=CARTESIAN_POINT('',(0.0,0.0,6.500000000000000));
#954=DIRECTION('',(0.0,0.0,-1.0));
#955=DIRECTION('',(-1.0,0.0,0.0));
#956=AXIS2_PLACEMENT_3D('',#953,#954,#955);
#957=TOROIDAL_SURFACE('',#956,2.0,0.500000000000000);
#958=CARTESIAN_POINT('',(-2.0,-2.449213E-016,7.0));
#959=VERTEX_POINT('',#958);
#960=CARTESIAN_POINT('',(-2.0,-2.449213E-016,6.500000000000000));
#961=DIRECTION('',(0.0,-1.0,0.0));
#962=DIRECTION('',(-1.0,0.0,0.0));
#963=AXIS2_PLACEMENT_3D('',#960,#961,#962);
#964=CIRCLE('',#963,0.500000000000000);
#965=EDGE_CURVE('',#959,#868,#964,.T.);
#966=ORIENTED_EDGE('',*,*,#965,.F.);
#967=CARTESIAN_POINT('',(2.0,0.0,7.0));
#968=VERTEX_POINT('',#967);
#969=CARTESIAN_POINT('',(0.0,0.0,7.0));
#970=DIRECTION('',(0.0,0.0,-1.0));
#971=DIRECTION('',(-1.0,0.0,0.0));
#972=AXIS2_PLACEMENT_3D('',#969,#970,#971);
#973=CIRCLE('',#972,2.0);
#974=EDGE_CURVE('',#959,#968,#973,.T.);
#975=ORIENTED_EDGE('',*,*,#974,.T.);
#976=CARTESIAN_POINT('',(2.0,2.449213E-016,6.500000000000000));
#977=DIRECTION('',(0.0,-1.0,0.0));
#978=DIRECTION('',(1.0,0.0,0.0));
#979=AXIS2_PLACEMENT_3D('',#976,#977,#978);
#980=CIRCLE('',#979,0.500000000000000);
#981=EDGE_CURVE('',#876,#968,#980,.T.);
#982=ORIENTED_EDGE('',*,*,#981,.F.);
#983=ORIENTED_EDGE('',*,*,#882,.T.);
#984=EDGE_LOOP('',(#966,#975,#982,#983));
#985=FACE_OUTER_BOUND('',#984,.T.);
#986=ADVANCED_FACE('',(#985),#957,.T.);
#987=CARTESIAN_POINT('',(0.0,0.0,0.0));
#988=DIRECTION('',(0.0,0.0,1.0));
#989=DIRECTION('',(1.0,0.0,0.0));
#990=AXIS2_PLACEMENT_3D('',#987,#988,#989);
#991=CYLINDRICAL_SURFACE('',#990,2.500000000000000);
#992=CARTESIAN_POINT('',(2.500000000000000,-6.123032E-016,0.500000000000000));
#993=VERTEX_POINT('',#992);
#994=CARTESIAN_POINT('',(2.500000000000000,-6.123032E-016,0.500000000000000));
#995=DIRECTION('',(0.0,0.0,1.0));
#996=VECTOR('',#995,0.669281086116926);
#997=LINE('',#994,#996);
#998=EDGE_CURVE('',#993,#735,#997,.T.);
#999=ORIENTED_EDGE('',*,*,#998,.F.);
#1000=CARTESIAN_POINT('',(-2.500000000000000,3.061516E-016,0.500000000000000));
#1001=VERTEX_POINT('',#1000);
#1002=CARTESIAN_POINT('',(0.0,0.0,0.500000000000000));
#1003=DIRECTION('',(0.0,0.0,-1.0));
#1004=DIRECTION('',(-1.0,0.0,0.0));
#1005=AXIS2_PLACEMENT_3D('',#1002,#1003,#1004);
#1006=CIRCLE('',#1005,2.500000000000000);
#1007=EDGE_CURVE('',#1001,#993,#1006,.T.);
#1008=ORIENTED_EDGE('',*,*,#1007,.F.);
#1009=CARTESIAN_POINT('',(-2.500000000000000,1.951293E-016,1.169281086116926));
#1010=DIRECTION('',(0.0,0.0,-1.0));
#1011=VECTOR('',#1010,0.669281086116926);
#1012=LINE('',#1009,#1011);
#1013=EDGE_CURVE('',#726,#1001,#1012,.T.);
#1014=ORIENTED_EDGE('',*,*,#1013,.F.);
#1015=ORIENTED_EDGE('',*,*,#771,.T.);
#1016=EDGE_LOOP('',(#999,#1008,#1014,#1015));
#1017=FACE_OUTER_BOUND('',#1016,.T.);
#1018=ADVANCED_FACE('',(#1017),#991,.T.);
#1019=CARTESIAN_POINT('',(0.0,0.0,0.500000000000000));
#1020=DIRECTION('',(0.0,0.0,1.0));
#1021=DIRECTION('',(1.0,0.0,0.0));
#1022=AXIS2_PLACEMENT_3D('',#1019,#1020,#1021);
#1023=TOROIDAL_SURFACE('',#1022,2.0,0.500000000000000);
#1024=CARTESIAN_POINT('',(2.0,0.0,0.0));
#1025=VERTEX_POINT('',#1024);
#1026=CARTESIAN_POINT('',(2.0,-2.449213E-016,0.500000000000000));
#1027=DIRECTION('',(0.0,-1.0,0.0));
#1028=DIRECTION('',(1.0,0.0,0.0));
#1029=AXIS2_PLACEMENT_3D('',#1026,#1027,#1028);
#1030=CIRCLE('',#1029,0.500000000000000);
#1031=EDGE_CURVE('',#1025,#993,#1030,.T.);
#1032=ORIENTED_EDGE('',*,*,#1031,.F.);
#1033=CARTESIAN_POINT('',(-2.0,2.449213E-016,0.0));
#1034=VERTEX_POINT('',#1033);
#1035=CARTESIAN_POINT('',(0.0,0.0,0.0));
#1036=DIRECTION('',(0.0,0.0,1.0));
#1037=DIRECTION('',(-1.0,0.0,0.0));
#1038=AXIS2_PLACEMENT_3D('',#1035,#1036,#1037);
#1039=CIRCLE('',#1038,2.0);
#1040=EDGE_CURVE('',#1025,#1034,#1039,.T.);
#1041=ORIENTED_EDGE('',*,*,#1040,.T.);
#1042=CARTESIAN_POINT('',(-2.0,2.449213E-016,0.500000000000000));
#1043=DIRECTION('',(0.0,-1.0,0.0));
#1044=DIRECTION('',(-1.0,0.0,0.0));
#1045=AXIS2_PLACEMENT_3D('',#1042,#1043,#1044);
#1046=CIRCLE('',#1045,0.500000000000000);
#1047=EDGE_CURVE('',#1001,#1034,#1046,.T.);
#1048=ORIENTED_EDGE('',*,*,#1047,.F.);
#1049=ORIENTED_EDGE('',*,*,#1007,.T.);
#1050=EDGE_LOOP('',(#1032,#1041,#1048,#1049));
#1051=FACE_OUTER_BOUND('',#1050,.T.);
#1052=ADVANCED_FACE('',(#1051),#1023,.T.);
#1053=CARTESIAN_POINT('',(0.0,2.220446E-017,0.100000000000000));
#1054=DIRECTION('',(0.0,0.0,-1.0));
#1055=DIRECTION('',(1.0,0.0,0.0));
#1056=AXIS2_PLACEMENT_3D('',#1053,#1054,#1055);
#1057=CYLINDRICAL_SURFACE('',#1056,1.750000000000000);
#1058=CARTESIAN_POINT('',(1.750000000000000,2.220446E-017,8.326673E-017));
#1059=VERTEX_POINT('',#1058);
#1060=CARTESIAN_POINT('',(1.750000000000000,2.220446E-017,0.100000000000000));
#1061=VERTEX_POINT('',#1060);
#1062=CARTESIAN_POINT('',(1.750000000000000,2.220446E-017,8.326673E-017));
#1063=DIRECTION('',(0.0,0.0,1.0));
#1064=VECTOR('',#1063,0.100000000000000);
#1065=LINE('',#1062,#1064);
#1066=EDGE_CURVE('',#1059,#1061,#1065,.T.);
#1067=ORIENTED_EDGE('',*,*,#1066,.F.);
#1068=CARTESIAN_POINT('',(-1.750000000000000,-1.921017E-016,0.0));
#1069=VERTEX_POINT('',#1068);
#1070=CARTESIAN_POINT('',(0.0,2.220446E-017,0.0));
#1071=DIRECTION('',(0.0,0.0,1.0));
#1072=DIRECTION('',(1.0,0.0,0.0));
#1073=AXIS2_PLACEMENT_3D('',#1070,#1071,#1072);
#1074=CIRCLE('',#1073,1.750000000000000);
#1075=EDGE_CURVE('',#1069,#1059,#1074,.T.);
#1076=ORIENTED_EDGE('',*,*,#1075,.F.);
#1077=CARTESIAN_POINT('',(-1.750000000000000,-1.921017E-016,0.100000000000000));
#1078=VERTEX_POINT('',#1077);
#1079=CARTESIAN_POINT('',(-1.750000000000000,-1.921017E-016,0.100000000000000));
#1080=DIRECTION('',(0.0,0.0,-1.0));
#1081=VECTOR('',#1080,0.100000000000000);
#1082=LINE('',#1079,#1081);
#1083=EDGE_CURVE('',#1078,#1069,#1082,.T.);
#1084=ORIENTED_EDGE('',*,*,#1083,.F.);
#1085=CARTESIAN_POINT('',(0.0,2.220446E-017,0.100000000000000));
#1086=DIRECTION('',(0.0,0.0,1.0));
#1087=DIRECTION('',(1.0,0.0,0.0));
#1088=AXIS2_PLACEMENT_3D('',#1085,#1086,#1087);
#1089=CIRCLE('',#1088,1.750000000000000);
#1090=EDGE_CURVE('',#1078,#1061,#1089,.T.);
#1091=ORIENTED_EDGE('',*,*,#1090,.T.);
#1092=EDGE_LOOP('',(#1067,#1076,#1084,#1091));
#1093=FACE_OUTER_BOUND('',#1092,.T.);
#1094=ADVANCED_FACE('',(#1093),#1057,.F.);
#1095=CARTESIAN_POINT('',(-4.440892E-015,2.120517E-016,3.954995821270984));
#1096=DIRECTION('',(0.0,0.0,-1.0));
#1097=DIRECTION('',(1.0,0.0,0.0));
#1098=AXIS2_PLACEMENT_3D('',#1095,#1096,#1097);
#1099=CYLINDRICAL_SURFACE('',#1098,2.400000000000004);
#1100=CARTESIAN_POINT('',(2.400000000000000,-1.316032E-015,1.954995821270984));
#1101=VERTEX_POINT('',#1100);
#1102=CARTESIAN_POINT('',(2.400000000000000,-1.316032E-015,3.954995821270984));
#1103=VERTEX_POINT('',#1102);
#1104=CARTESIAN_POINT('',(2.400000000000000,-1.316032E-015,1.954995821270984));
#1105=DIRECTION('',(0.0,0.0,1.0));
#1106=VECTOR('',#1105,2.0);
#1107=LINE('',#1104,#1106);
#1108=EDGE_CURVE('',#1101,#1103,#1107,.T.);
#1109=ORIENTED_EDGE('',*,*,#1108,.F.);
#1110=CARTESIAN_POINT('',(2.382110763939173,0.292486424172353,1.954995821270984));
#1111=VERTEX_POINT('',#1110);
#1112=CARTESIAN_POINT('',(-4.440892E-015,2.120517E-016,1.954995821270984));
#1113=DIRECTION('',(0.0,0.0,-1.0));
#1114=DIRECTION('',(1.0,0.0,0.0));
#1115=AXIS2_PLACEMENT_3D('',#1112,#1113,#1114);
#1116=CIRCLE('',#1115,2.400000000000004);
#1117=EDGE_CURVE('',#1111,#1101,#1116,.T.);
#1118=ORIENTED_EDGE('',*,*,#1117,.F.);
#1119=CARTESIAN_POINT('',(2.382110763939173,0.292486424172353,3.954995821270984));
#1120=VERTEX_POINT('',#1119);
#1121=CARTESIAN_POINT('',(2.382110763939173,0.292486424172353,3.954995821270984));
#1122=DIRECTION('',(0.0,0.0,-1.0));
#1123=VECTOR('',#1122,2.0);
#1124=LINE('',#1121,#1123);
#1125=EDGE_CURVE('',#1120,#1111,#1124,.T.);
#1126=ORIENTED_EDGE('',*,*,#1125,.F.);
#1127=CARTESIAN_POINT('',(-4.440892E-015,2.120517E-016,3.954995821270984));
#1128=DIRECTION('',(0.0,0.0,-1.0));
#1129=DIRECTION('',(1.0,0.0,0.0));
#1130=AXIS2_PLACEMENT_3D('',#1127,#1128,#1129);
#1131=CIRCLE('',#1130,2.400000000000004);
#1132=EDGE_CURVE('',#1120,#1103,#1131,.T.);
#1133=ORIENTED_EDGE('',*,*,#1132,.T.);
#1134=EDGE_LOOP('',(#1109,#1118,#1126,#1133));
#1135=FACE_OUTER_BOUND('',#1134,.T.);
#1136=ADVANCED_FACE('',(#1135),#1099,.T.);
#1137=CARTESIAN_POINT('',(-4.440892E-015,7.711619E-016,6.473004317895024));
#1138=DIRECTION('',(0.0,0.0,-1.0));
#1139=DIRECTION('',(1.0,0.0,0.0));
#1140=AXIS2_PLACEMENT_3D('',#1137,#1138,#1139);
#1141=CYLINDRICAL_SURFACE('',#1140,2.400000000000004);
#1142=CARTESIAN_POINT('',(2.400000000000000,-7.569216E-016,4.473004317895024));
#1143=VERTEX_POINT('',#1142);
#1144=CARTESIAN_POINT('',(2.400000000000000,-7.569216E-016,6.473004317895024));
#1145=VERTEX_POINT('',#1144);
#1146=CARTESIAN_POINT('',(2.400000000000000,-7.569216E-016,4.473004317895024));
#1147=DIRECTION('',(0.0,0.0,1.0));
#1148=VECTOR('',#1147,2.0);
#1149=LINE('',#1146,#1148);
#1150=EDGE_CURVE('',#1143,#1145,#1149,.T.);
#1151=ORIENTED_EDGE('',*,*,#1150,.F.);
#1152=CARTESIAN_POINT('',(2.382110763939173,0.292486424172353,4.473004317895024));
#1153=VERTEX_POINT('',#1152);
#1154=CARTESIAN_POINT('',(-4.440892E-015,7.711619E-016,4.473004317895024));
#1155=DIRECTION('',(0.0,0.0,-1.0));
#1156=DIRECTION('',(1.0,0.0,0.0));
#1157=AXIS2_PLACEMENT_3D('',#1154,#1155,#1156);
#1158=CIRCLE('',#1157,2.400000000000004);
#1159=EDGE_CURVE('',#1153,#1143,#1158,.T.);
#1160=ORIENTED_EDGE('',*,*,#1159,.F.);
#1161=CARTESIAN_POINT('',(2.382110763939173,0.292486424172353,6.473004317895024));
#1162=VERTEX_POINT('',#1161);
#1163=CARTESIAN_POINT('',(2.382110763939173,0.292486424172353,6.473004317895024));
#1164=DIRECTION('',(0.0,0.0,-1.0));
#1165=VECTOR('',#1164,2.0);
#1166=LINE('',#1163,#1165);
#1167=EDGE_CURVE('',#1162,#1153,#1166,.T.);
#1168=ORIENTED_EDGE('',*,*,#1167,.F.);
#1169=CARTESIAN_POINT('',(-4.440892E-015,7.711619E-016,6.473004317895024));
#1170=DIRECTION('',(0.0,0.0,-1.0));
#1171=DIRECTION('',(1.0,0.0,0.0));
#1172=AXIS2_PLACEMENT_3D('',#1169,#1170,#1171);
#1173=CIRCLE('',#1172,2.400000000000004);
#1174=EDGE_CURVE('',#1162,#1145,#1173,.T.);
#1175=ORIENTED_EDGE('',*,*,#1174,.T.);
#1176=EDGE_LOOP('',(#1151,#1160,#1168,#1175));
#1177=FACE_OUTER_BOUND('',#1176,.T.);
#1178=ADVANCED_FACE('',(#1177),#1141,.T.);
#1179=CARTESIAN_POINT('',(2.481365379103305,0.304673358512868,6.473004317895024));
#1180=DIRECTION('',(-0.121869343405150,0.992546151641322,0.0));
#1181=DIRECTION('',(0.0,0.0,1.0));
#1182=AXIS2_PLACEMENT_3D('',#1179,#1180,#1181);
#1183=PLANE('',#1182);
#1184=CARTESIAN_POINT('',(2.481365379103305,0.304673358512868,4.473004317895024));
#1185=DIRECTION('',(-0.992546151641322,-0.121869343405150,0.0));
#1186=VECTOR('',#1185,0.100000000000000);
#1187=LINE('',#1184,#1186);
#1188=EDGE_CURVE('',#902,#1153,#1187,.T.);
#1189=ORIENTED_EDGE('',*,*,#1188,.F.);
#1190=ORIENTED_EDGE('',*,*,#907,.F.);
#1191=CARTESIAN_POINT('',(2.481365379103305,0.304673358512868,6.473004317895024));
#1192=DIRECTION('',(-0.992546151641322,-0.121869343405150,0.0));
#1193=VECTOR('',#1192,0.100000000000000);
#1194=LINE('',#1191,#1193);
#1195=EDGE_CURVE('',#893,#1162,#1194,.T.);
#1196=ORIENTED_EDGE('',*,*,#1195,.T.);
#1197=ORIENTED_EDGE('',*,*,#1167,.T.);
#1198=EDGE_LOOP('',(#1189,#1190,#1196,#1197));
#1199=FACE_OUTER_BOUND('',#1198,.T.);
#1200=ADVANCED_FACE('',(#1199),#1183,.F.);
#1201=CARTESIAN_POINT('',(-4.440892E-015,7.711619E-016,6.473004317895024));
#1202=DIRECTION('',(0.0,0.0,-1.0));
#1203=DIRECTION('',(1.0,0.0,0.0));
#1204=AXIS2_PLACEMENT_3D('',#1201,#1202,#1203);
#1205=CYLINDRICAL_SURFACE('',#1204,2.400000000000004);
#1206=ORIENTED_EDGE('',*,*,#1150,.T.);
#1207=CARTESIAN_POINT('',(2.382110763939173,-0.292486424172355,6.473004317895024));
#1208=VERTEX_POINT('',#1207);
#1209=CARTESIAN_POINT('',(-4.440892E-015,7.711619E-016,6.473004317895024));
#1210=DIRECTION('',(0.0,0.0,-1.0));
#1211=DIRECTION('',(1.0,0.0,0.0));
#1212=AXIS2_PLACEMENT_3D('',#1209,#1210,#1211);
#1213=CIRCLE('',#1212,2.400000000000004);
#1214=EDGE_CURVE('',#1145,#1208,#1213,.T.);
#1215=ORIENTED_EDGE('',*,*,#1214,.T.);
#1216=CARTESIAN_POINT('',(2.382110763939173,-0.292486424172355,4.473004317895024));
#1217=VERTEX_POINT('',#1216);
#1218=CARTESIAN_POINT('',(2.382110763939173,-0.292486424172355,6.473004317895024));
#1219=DIRECTION('',(0.0,0.0,-1.0));
#1220=VECTOR('',#1219,2.0);
#1221=LINE('',#1218,#1220);
#1222=EDGE_CURVE('',#1208,#1217,#1221,.T.);
#1223=ORIENTED_EDGE('',*,*,#1222,.T.);
#1224=CARTESIAN_POINT('',(-4.440892E-015,7.711619E-016,4.473004317895024));
#1225=DIRECTION('',(0.0,0.0,-1.0));
#1226=DIRECTION('',(1.0,0.0,0.0));
#1227=AXIS2_PLACEMENT_3D('',#1224,#1225,#1226);
#1228=CIRCLE('',#1227,2.400000000000004);
#1229=EDGE_CURVE('',#1143,#1217,#1228,.T.);
#1230=ORIENTED_EDGE('',*,*,#1229,.F.);
#1231=EDGE_LOOP('',(#1206,#1215,#1223,#1230));
#1232=FACE_OUTER_BOUND('',#1231,.T.);
#1233=ADVANCED_FACE('',(#1232),#1205,.T.);
#1234=CARTESIAN_POINT('',(2.382110763939173,-0.292486424172355,6.473004317895024));
#1235=DIRECTION('',(-0.121869343405150,-0.992546151641322,0.0));
#1236=DIRECTION('',(0.0,0.0,-1.0));
#1237=AXIS2_PLACEMENT_3D('',#1234,#1235,#1236);
#1238=PLANE('',#1237);
#1239=CARTESIAN_POINT('',(2.481365379103305,-0.304673358512870,4.473004317895024));
#1240=VERTEX_POINT('',#1239);
#1241=CARTESIAN_POINT('',(2.382110763939173,-0.292486424172355,4.473004317895024));
#1242=DIRECTION('',(0.992546151641322,-0.121869343405150,0.0));
#1243=VECTOR('',#1242,0.100000000000000);
#1244=LINE('',#1241,#1243);
#1245=EDGE_CURVE('',#1217,#1240,#1244,.T.);
#1246=ORIENTED_EDGE('',*,*,#1245,.F.);
#1247=ORIENTED_EDGE('',*,*,#1222,.F.);
#1248=CARTESIAN_POINT('',(2.481365379103305,-0.304673358512870,6.473004317895024));
#1249=VERTEX_POINT('',#1248);
#1250=CARTESIAN_POINT('',(2.382110763939173,-0.292486424172355,6.473004317895024));
#1251=DIRECTION('',(0.992546151641322,-0.121869343405150,0.0));
#1252=VECTOR('',#1251,0.100000000000000);
#1253=LINE('',#1250,#1252);
#1254=EDGE_CURVE('',#1208,#1249,#1253,.T.);
#1255=ORIENTED_EDGE('',*,*,#1254,.T.);
#1256=CARTESIAN_POINT('',(2.481365379103305,-0.304673358512870,4.473004317895024));
#1257=DIRECTION('',(0.0,0.0,1.0));
#1258=VECTOR('',#1257,2.0);
#1259=LINE('',#1256,#1258);
#1260=EDGE_CURVE('',#1240,#1249,#1259,.T.);
#1261=ORIENTED_EDGE('',*,*,#1260,.F.);
#1262=EDGE_LOOP('',(#1246,#1247,#1255,#1261));
#1263=FACE_OUTER_BOUND('',#1262,.T.);
#1264=ADVANCED_FACE('',(#1263),#1238,.F.);
#1265=CARTESIAN_POINT('',(2.441996393312838,-1.005195E-015,4.473004317895024));
#1266=DIRECTION('',(0.0,0.0,1.0));
#1267=DIRECTION('',(1.0,0.0,0.0));
#1268=AXIS2_PLACEMENT_3D('',#1265,#1266,#1267);
#1269=PLANE('',#1268);
#1270=ORIENTED_EDGE('',*,*,#1188,.T.);
#1271=ORIENTED_EDGE('',*,*,#1159,.T.);
#1272=ORIENTED_EDGE('',*,*,#1229,.T.);
#1273=ORIENTED_EDGE('',*,*,#1245,.T.);
#1274=CARTESIAN_POINT('',(0.0,0.0,4.473004317895024));
#1275=DIRECTION('',(0.0,0.0,-1.0));
#1276=DIRECTION('',(1.0,0.0,0.0));
#1277=AXIS2_PLACEMENT_3D('',#1274,#1275,#1276);
#1278=CIRCLE('',#1277,2.500000000000000);
#1279=EDGE_CURVE('',#910,#1240,#1278,.T.);
#1280=ORIENTED_EDGE('',*,*,#1279,.F.);
#1281=ORIENTED_EDGE('',*,*,#916,.F.);
#1282=EDGE_LOOP('',(#1270,#1271,#1272,#1273,#1280,#1281));
#1283=FACE_OUTER_BOUND('',#1282,.T.);
#1284=ADVANCED_FACE('',(#1283),#1269,.T.);
#1285=CARTESIAN_POINT('',(2.441996393312838,-1.005195E-015,6.473004317895024));
#1286=DIRECTION('',(0.0,0.0,1.0));
#1287=DIRECTION('',(1.0,0.0,0.0));
#1288=AXIS2_PLACEMENT_3D('',#1285,#1286,#1287);
#1289=PLANE('',#1288);
#1290=CARTESIAN_POINT('',(0.0,0.0,6.473004317895024));
#1291=DIRECTION('',(0.0,0.0,1.0));
#1292=DIRECTION('',(1.0,0.0,0.0));
#1293=AXIS2_PLACEMENT_3D('',#1290,#1291,#1292);
#1294=CIRCLE('',#1293,2.500000000000000);
#1295=EDGE_CURVE('',#1249,#885,#1294,.T.);
#1296=ORIENTED_EDGE('',*,*,#1295,.F.);
#1297=ORIENTED_EDGE('',*,*,#1254,.F.);
#1298=ORIENTED_EDGE('',*,*,#1214,.F.);
#1299=ORIENTED_EDGE('',*,*,#1174,.F.);
#1300=ORIENTED_EDGE('',*,*,#1195,.F.);
#1301=ORIENTED_EDGE('',*,*,#899,.F.);
#1302=EDGE_LOOP('',(#1296,#1297,#1298,#1299,#1300,#1301));
#1303=FACE_OUTER_BOUND('',#1302,.T.);
#1304=ADVANCED_FACE('',(#1303),#1289,.F.);
#1305=CARTESIAN_POINT('',(2.481365379103305,0.304673358512868,3.954995821270984));
#1306=DIRECTION('',(-0.121869343405150,0.992546151641322,0.0));
#1307=DIRECTION('',(0.0,0.0,1.0));
#1308=AXIS2_PLACEMENT_3D('',#1305,#1306,#1307);
#1309=PLANE('',#1308);
#1310=CARTESIAN_POINT('',(2.481365379103305,0.304673358512868,1.954995821270984));
#1311=DIRECTION('',(-0.992546151641322,-0.121869343405150,0.0));
#1312=VECTOR('',#1311,0.100000000000000);
#1313=LINE('',#1310,#1312);
#1314=EDGE_CURVE('',#936,#1111,#1313,.T.);
#1315=ORIENTED_EDGE('',*,*,#1314,.F.);
#1316=ORIENTED_EDGE('',*,*,#941,.F.);
#1317=CARTESIAN_POINT('',(2.481365379103305,0.304673358512868,3.954995821270984));
#1318=DIRECTION('',(-0.992546151641322,-0.121869343405150,0.0));
#1319=VECTOR('',#1318,0.100000000000000);
#1320=LINE('',#1317,#1319);
#1321=EDGE_CURVE('',#927,#1120,#1320,.T.);
#1322=ORIENTED_EDGE('',*,*,#1321,.T.);
#1323=ORIENTED_EDGE('',*,*,#1125,.T.);
#1324=EDGE_LOOP('',(#1315,#1316,#1322,#1323));
#1325=FACE_OUTER_BOUND('',#1324,.T.);
#1326=ADVANCED_FACE('',(#1325),#1309,.F.);
#1327=CARTESIAN_POINT('',(-4.440892E-015,2.120517E-016,3.954995821270984));
#1328=DIRECTION('',(0.0,0.0,-1.0));
#1329=DIRECTION('',(1.0,0.0,0.0));
#1330=AXIS2_PLACEMENT_3D('',#1327,#1328,#1329);
#1331=CYLINDRICAL_SURFACE('',#1330,2.400000000000004);
#1332=ORIENTED_EDGE('',*,*,#1108,.T.);
#1333=CARTESIAN_POINT('',(2.382110763939173,-0.292486424172356,3.954995821270984));
#1334=VERTEX_POINT('',#1333);
#1335=CARTESIAN_POINT('',(-4.440892E-015,2.120517E-016,3.954995821270984));
#1336=DIRECTION('',(0.0,0.0,-1.0));
#1337=DIRECTION('',(1.0,0.0,0.0));
#1338=AXIS2_PLACEMENT_3D('',#1335,#1336,#1337);
#1339=CIRCLE('',#1338,2.400000000000004);
#1340=EDGE_CURVE('',#1103,#1334,#1339,.T.);
#1341=ORIENTED_EDGE('',*,*,#1340,.T.);
#1342=CARTESIAN_POINT('',(2.382110763939173,-0.292486424172356,1.954995821270984));
#1343=VERTEX_POINT('',#1342);
#1344=CARTESIAN_POINT('',(2.382110763939173,-0.292486424172356,3.954995821270984));
#1345=DIRECTION('',(0.0,0.0,-1.0));
#1346=VECTOR('',#1345,2.0);
#1347=LINE('',#1344,#1346);
#1348=EDGE_CURVE('',#1334,#1343,#1347,.T.);
#1349=ORIENTED_EDGE('',*,*,#1348,.T.);
#1350=CARTESIAN_POINT('',(-4.440892E-015,2.120517E-016,1.954995821270984));
#1351=DIRECTION('',(0.0,0.0,-1.0));
#1352=DIRECTION('',(1.0,0.0,0.0));
#1353=AXIS2_PLACEMENT_3D('',#1350,#1351,#1352);
#1354=CIRCLE('',#1353,2.400000000000004);
#1355=EDGE_CURVE('',#1101,#1343,#1354,.T.);
#1356=ORIENTED_EDGE('',*,*,#1355,.F.);
#1357=EDGE_LOOP('',(#1332,#1341,#1349,#1356));
#1358=FACE_OUTER_BOUND('',#1357,.T.);
#1359=ADVANCED_FACE('',(#1358),#1331,.T.);
#1360=CARTESIAN_POINT('',(2.382110763939173,-0.292486424172356,3.954995821270984));
#1361=DIRECTION('',(-0.121869343405150,-0.992546151641322,0.0));
#1362=DIRECTION('',(0.0,0.0,-1.0));
#1363=AXIS2_PLACEMENT_3D('',#1360,#1361,#1362);
#1364=PLANE('',#1363);
#1365=CARTESIAN_POINT('',(2.481365379103305,-0.304673358512871,1.954995821270984));
#1366=VERTEX_POINT('',#1365);
#1367=CARTESIAN_POINT('',(2.382110763939173,-0.292486424172356,1.954995821270984));
#1368=DIRECTION('',(0.992546151641322,-0.121869343405150,0.0));
#1369=VECTOR('',#1368,0.100000000000000);
#1370=LINE('',#1367,#1369);
#1371=EDGE_CURVE('',#1343,#1366,#1370,.T.);
#1372=ORIENTED_EDGE('',*,*,#1371,.F.);
#1373=ORIENTED_EDGE('',*,*,#1348,.F.);
#1374=CARTESIAN_POINT('',(2.481365379103305,-0.304673358512871,3.954995821270984));
#1375=VERTEX_POINT('',#1374);
#1376=CARTESIAN_POINT('',(2.382110763939173,-0.292486424172356,3.954995821270984));
#1377=DIRECTION('',(0.992546151641322,-0.121869343405150,0.0));
#1378=VECTOR('',#1377,0.100000000000000);
#1379=LINE('',#1376,#1378);
#1380=EDGE_CURVE('',#1334,#1375,#1379,.T.);
#1381=ORIENTED_EDGE('',*,*,#1380,.T.);
#1382=CARTESIAN_POINT('',(2.481365379103305,-0.304673358512871,1.954995821270984));
#1383=DIRECTION('',(0.0,0.0,1.0));
#1384=VECTOR('',#1383,2.0);
#1385=LINE('',#1382,#1384);
#1386=EDGE_CURVE('',#1366,#1375,#1385,.T.);
#1387=ORIENTED_EDGE('',*,*,#1386,.F.);
#1388=EDGE_LOOP('',(#1372,#1373,#1381,#1387));
#1389=FACE_OUTER_BOUND('',#1388,.T.);
#1390=ADVANCED_FACE('',(#1389),#1364,.F.);
#1391=CARTESIAN_POINT('',(2.441996393312838,-1.564305E-015,1.954995821270984));
#1392=DIRECTION('',(0.0,0.0,1.0));
#1393=DIRECTION('',(1.0,0.0,0.0));
#1394=AXIS2_PLACEMENT_3D('',#1391,#1392,#1393);
#1395=PLANE('',#1394);
#1396=ORIENTED_EDGE('',*,*,#1314,.T.);
#1397=ORIENTED_EDGE('',*,*,#1117,.T.);
#1398=ORIENTED_EDGE('',*,*,#1355,.T.);
#1399=ORIENTED_EDGE('',*,*,#1371,.T.);
#1400=CARTESIAN_POINT('',(0.0,0.0,1.954995821270984));
#1401=DIRECTION('',(0.0,0.0,-1.0));
#1402=DIRECTION('',(1.0,0.0,0.0));
#1403=AXIS2_PLACEMENT_3D('',#1400,#1401,#1402);
#1404=CIRCLE('',#1403,2.500000000000000);
#1405=EDGE_CURVE('',#859,#1366,#1404,.T.);
#1406=ORIENTED_EDGE('',*,*,#1405,.F.);
#1407=ORIENTED_EDGE('',*,*,#948,.F.);
#1408=EDGE_LOOP('',(#1396,#1397,#1398,#1399,#1406,#1407));
#1409=FACE_OUTER_BOUND('',#1408,.T.);
#1410=ADVANCED_FACE('',(#1409),#1395,.T.);
#1411=CARTESIAN_POINT('',(2.441996393312838,-1.564305E-015,3.954995821270984));
#1412=DIRECTION('',(0.0,0.0,1.0));
#1413=DIRECTION('',(1.0,0.0,0.0));
#1414=AXIS2_PLACEMENT_3D('',#1411,#1412,#1413);
#1415=PLANE('',#1414);
#1416=CARTESIAN_POINT('',(0.0,0.0,3.954995821270984));
#1417=DIRECTION('',(0.0,0.0,1.0));
#1418=DIRECTION('',(1.0,0.0,0.0));
#1419=AXIS2_PLACEMENT_3D('',#1416,#1417,#1418);
#1420=CIRCLE('',#1419,2.500000000000000);
#1421=EDGE_CURVE('',#1375,#919,#1420,.T.);
#1422=ORIENTED_EDGE('',*,*,#1421,.F.);
#1423=ORIENTED_EDGE('',*,*,#1380,.F.);
#1424=ORIENTED_EDGE('',*,*,#1340,.F.);
#1425=ORIENTED_EDGE('',*,*,#1132,.F.);
#1426=ORIENTED_EDGE('',*,*,#1321,.F.);
#1427=ORIENTED_EDGE('',*,*,#933,.F.);
#1428=EDGE_LOOP('',(#1422,#1423,#1424,#1425,#1426,#1427));
#1429=FACE_OUTER_BOUND('',#1428,.T.);
#1430=ADVANCED_FACE('',(#1429),#1415,.F.);
#1431=CARTESIAN_POINT('',(0.0,2.220446E-017,0.100000000000000));
#1432=DIRECTION('',(0.0,0.0,-1.0));
#1433=DIRECTION('',(1.0,0.0,0.0));
#1434=AXIS2_PLACEMENT_3D('',#1431,#1432,#1433);
#1435=CYLINDRICAL_SURFACE('',#1434,1.750000000000000);
#1436=ORIENTED_EDGE('',*,*,#1066,.T.);
#1437=CARTESIAN_POINT('',(0.0,2.220446E-017,0.100000000000000));
#1438=DIRECTION('',(0.0,0.0,1.0));
#1439=DIRECTION('',(1.0,0.0,0.0));
#1440=AXIS2_PLACEMENT_3D('',#1437,#1438,#1439);
#1441=CIRCLE('',#1440,1.750000000000000);
#1442=EDGE_CURVE('',#1061,#1078,#1441,.T.);
#1443=ORIENTED_EDGE('',*,*,#1442,.T.);
#1444=ORIENTED_EDGE('',*,*,#1083,.T.);
#1445=CARTESIAN_POINT('',(0.0,2.220446E-017,0.0));
#1446=DIRECTION('',(0.0,0.0,1.0));
#1447=DIRECTION('',(1.0,0.0,0.0));
#1448=AXIS2_PLACEMENT_3D('',#1445,#1446,#1447);
#1449=CIRCLE('',#1448,1.750000000000000);
#1450=EDGE_CURVE('',#1059,#1069,#1449,.T.);
#1451=ORIENTED_EDGE('',*,*,#1450,.F.);
#1452=EDGE_LOOP('',(#1436,#1443,#1444,#1451));
#1453=FACE_OUTER_BOUND('',#1452,.T.);
#1454=ADVANCED_FACE('',(#1453),#1435,.F.);
#1455=CARTESIAN_POINT('',(0.0,2.220446E-017,0.100000000000000));
#1456=DIRECTION('',(0.0,0.0,1.0));
#1457=DIRECTION('',(1.0,0.0,0.0));
#1458=AXIS2_PLACEMENT_3D('',#1455,#1456,#1457);
#1459=PLANE('',#1458);
#1460=ORIENTED_EDGE('',*,*,#1442,.F.);
#1461=ORIENTED_EDGE('',*,*,#1090,.F.);
#1462=EDGE_LOOP('',(#1460,#1461));
#1463=FACE_OUTER_BOUND('',#1462,.T.);
#1464=ADVANCED_FACE('',(#1463),#1459,.F.);
#1465=CARTESIAN_POINT('',(0.0,0.0,6.800000000000001));
#1466=DIRECTION('',(0.0,0.0,1.0));
#1467=DIRECTION('',(1.0,0.0,0.0));
#1468=AXIS2_PLACEMENT_3D('',#1465,#1466,#1467);
#1469=PLANE('',#1468);
#1470=CARTESIAN_POINT('',(0.0,0.0,6.800000000000001));
#1471=DIRECTION('',(0.0,0.0,1.0));
#1472=DIRECTION('',(1.0,0.0,0.0));
#1473=AXIS2_PLACEMENT_3D('',#1470,#1471,#1472);
#1474=CIRCLE('',#1473,1.750000000000000);
#1475=EDGE_CURVE('',#783,#793,#1474,.T.);
#1476=ORIENTED_EDGE('',*,*,#1475,.T.);
#1477=ORIENTED_EDGE('',*,*,#799,.T.);
#1478=EDGE_LOOP('',(#1476,#1477));
#1479=FACE_OUTER_BOUND('',#1478,.T.);
#1480=ADVANCED_FACE('',(#1479),#1469,.T.);
#1481=CARTESIAN_POINT('',(0.0,0.0,0.500000000000000));
#1482=DIRECTION('',(0.0,0.0,1.0));
#1483=DIRECTION('',(1.0,0.0,0.0));
#1484=AXIS2_PLACEMENT_3D('',#1481,#1482,#1483);
#1485=TOROIDAL_SURFACE('',#1484,2.0,0.500000000000000);
#1486=ORIENTED_EDGE('',*,*,#1031,.T.);
#1487=CARTESIAN_POINT('',(0.0,0.0,0.500000000000000));
#1488=DIRECTION('',(0.0,0.0,-1.0));
#1489=DIRECTION('',(-1.0,0.0,0.0));
#1490=AXIS2_PLACEMENT_3D('',#1487,#1488,#1489);
#1491=CIRCLE('',#1490,2.500000000000000);
#1492=EDGE_CURVE('',#993,#1001,#1491,.T.);
#1493=ORIENTED_EDGE('',*,*,#1492,.T.);
#1494=ORIENTED_EDGE('',*,*,#1047,.T.);
#1495=CARTESIAN_POINT('',(0.0,0.0,0.0));
#1496=DIRECTION('',(0.0,0.0,1.0));
#1497=DIRECTION('',(-1.0,0.0,0.0));
#1498=AXIS2_PLACEMENT_3D('',#1495,#1496,#1497);
#1499=CIRCLE('',#1498,2.0);
#1500=EDGE_CURVE('',#1034,#1025,#1499,.T.);
#1501=ORIENTED_EDGE('',*,*,#1500,.T.);
#1502=EDGE_LOOP('',(#1486,#1493,#1494,#1501));
#1503=FACE_OUTER_BOUND('',#1502,.T.);
#1504=ADVANCED_FACE('',(#1503),#1485,.T.);
#1505=CARTESIAN_POINT('',(0.0,0.0,0.0));
#1506=DIRECTION('',(0.0,0.0,1.0));
#1507=DIRECTION('',(1.0,0.0,0.0));
#1508=AXIS2_PLACEMENT_3D('',#1505,#1506,#1507);
#1509=CYLINDRICAL_SURFACE('',#1508,2.500000000000000);
#1510=ORIENTED_EDGE('',*,*,#998,.T.);
#1511=ORIENTED_EDGE('',*,*,#741,.T.);
#1512=ORIENTED_EDGE('',*,*,#1013,.T.);
#1513=ORIENTED_EDGE('',*,*,#1492,.F.);
#1514=EDGE_LOOP('',(#1510,#1511,#1512,#1513));
#1515=FACE_OUTER_BOUND('',#1514,.T.);
#1516=ADVANCED_FACE('',(#1515),#1509,.T.);
#1517=CARTESIAN_POINT('',(0.0,0.0,0.0));
#1518=DIRECTION('',(0.0,0.0,1.0));
#1519=DIRECTION('',(1.0,0.0,0.0));
#1520=AXIS2_PLACEMENT_3D('',#1517,#1518,#1519);
#1521=PLANE('',#1520);
#1522=ORIENTED_EDGE('',*,*,#1040,.F.);
#1523=ORIENTED_EDGE('',*,*,#1500,.F.);
#1524=EDGE_LOOP('',(#1522,#1523));
#1525=FACE_OUTER_BOUND('',#1524,.T.);
#1526=ORIENTED_EDGE('',*,*,#1450,.T.);
#1527=ORIENTED_EDGE('',*,*,#1075,.T.);
#1528=EDGE_LOOP('',(#1526,#1527));
#1529=FACE_BOUND('',#1528,.T.);
#1530=ADVANCED_FACE('',(#1525,#1529),#1521,.F.);
#1531=CARTESIAN_POINT('',(0.0,0.0,6.500000000000000));
#1532=DIRECTION('',(0.0,0.0,-1.0));
#1533=DIRECTION('',(-1.0,0.0,0.0));
#1534=AXIS2_PLACEMENT_3D('',#1531,#1532,#1533);
#1535=TOROIDAL_SURFACE('',#1534,2.0,0.500000000000000);
#1536=ORIENTED_EDGE('',*,*,#965,.T.);
#1537=CARTESIAN_POINT('',(0.0,0.0,6.500000000000000));
#1538=DIRECTION('',(0.0,0.0,1.0));
#1539=DIRECTION('',(-1.0,0.0,0.0));
#1540=AXIS2_PLACEMENT_3D('',#1537,#1538,#1539);
#1541=CIRCLE('',#1540,2.500000000000000);
#1542=EDGE_CURVE('',#868,#876,#1541,.T.);
#1543=ORIENTED_EDGE('',*,*,#1542,.T.);
#1544=ORIENTED_EDGE('',*,*,#981,.T.);
#1545=CARTESIAN_POINT('',(0.0,0.0,7.0));
#1546=DIRECTION('',(0.0,0.0,-1.0));
#1547=DIRECTION('',(-1.0,0.0,0.0));
#1548=AXIS2_PLACEMENT_3D('',#1545,#1546,#1547);
#1549=CIRCLE('',#1548,2.0);
#1550=EDGE_CURVE('',#968,#959,#1549,.T.);
#1551=ORIENTED_EDGE('',*,*,#1550,.T.);
#1552=EDGE_LOOP('',(#1536,#1543,#1544,#1551));
#1553=FACE_OUTER_BOUND('',#1552,.T.);
#1554=ADVANCED_FACE('',(#1553),#1535,.T.);
#1555=CARTESIAN_POINT('',(0.0,0.0,0.0));
#1556=DIRECTION('',(0.0,0.0,1.0));
#1557=DIRECTION('',(1.0,0.0,0.0));
#1558=AXIS2_PLACEMENT_3D('',#1555,#1556,#1557);
#1559=CYLINDRICAL_SURFACE('',#1558,2.500000000000000);
#1560=ORIENTED_EDGE('',*,*,#864,.T.);
#1561=ORIENTED_EDGE('',*,*,#1405,.T.);
#1562=ORIENTED_EDGE('',*,*,#1386,.T.);
#1563=ORIENTED_EDGE('',*,*,#1421,.T.);
#1564=ORIENTED_EDGE('',*,*,#924,.T.);
#1565=ORIENTED_EDGE('',*,*,#1279,.T.);
#1566=ORIENTED_EDGE('',*,*,#1260,.T.);
#1567=ORIENTED_EDGE('',*,*,#1295,.T.);
#1568=ORIENTED_EDGE('',*,*,#890,.T.);
#1569=ORIENTED_EDGE('',*,*,#1542,.F.);
#1570=ORIENTED_EDGE('',*,*,#873,.T.);
#1571=CARTESIAN_POINT('',(0.0,-1.110223E-016,1.830718913883074));
#1572=DIRECTION('',(0.0,0.0,1.0));
#1573=DIRECTION('',(1.0,0.0,0.0));
#1574=AXIS2_PLACEMENT_3D('',#1571,#1572,#1573);
#1575=CIRCLE('',#1574,2.500000000000000);
#1576=EDGE_CURVE('',#826,#835,#1575,.T.);
#1577=ORIENTED_EDGE('',*,*,#1576,.T.);
#1578=EDGE_LOOP('',(#1560,#1561,#1562,#1563,#1564,#1565,#1566,#1567,#1568,#1569,#1570,#1577));
#1579=FACE_OUTER_BOUND('',#1578,.T.);
#1580=ADVANCED_FACE('',(#1579),#1559,.T.);
#1581=CARTESIAN_POINT('',(0.0,0.0,7.0));
#1582=DIRECTION('',(0.0,0.0,1.0));
#1583=DIRECTION('',(1.0,0.0,0.0));
#1584=AXIS2_PLACEMENT_3D('',#1581,#1582,#1583);
#1585=PLANE('',#1584);
#1586=ORIENTED_EDGE('',*,*,#1550,.F.);
#1587=ORIENTED_EDGE('',*,*,#974,.F.);
#1588=EDGE_LOOP('',(#1586,#1587));
#1589=FACE_OUTER_BOUND('',#1588,.T.);
#1590=ORIENTED_EDGE('',*,*,#814,.T.);
#1591=CARTESIAN_POINT('',(0.0,0.0,7.0));
#1592=DIRECTION('',(0.0,0.0,-1.0));
#1593=DIRECTION('',(1.0,0.0,0.0));
#1594=AXIS2_PLACEMENT_3D('',#1591,#1592,#1593);
#1595=CIRCLE('',#1594,1.750000000000000);
#1596=EDGE_CURVE('',#802,#785,#1595,.T.);
#1597=ORIENTED_EDGE('',*,*,#1596,.T.);
#1598=EDGE_LOOP('',(#1590,#1597));
#1599=FACE_BOUND('',#1598,.T.);
#1600=ADVANCED_FACE('',(#1589,#1599),#1585,.T.);
#1601=CARTESIAN_POINT('',(0.0,-1.110223E-016,1.500000000000000));
#1602=DIRECTION('',(0.0,0.0,1.0));
#1603=DIRECTION('',(1.0,0.0,0.0));
#1604=AXIS2_PLACEMENT_3D('',#1601,#1602,#1603);
#1605=TOROIDAL_SURFACE('',#1604,2.875000000000000,0.500000000000000);
#1606=ORIENTED_EDGE('',*,*,#723,.T.);
#1607=ORIENTED_EDGE('',*,*,#848,.T.);
#1608=ORIENTED_EDGE('',*,*,#1576,.F.);
#1609=ORIENTED_EDGE('',*,*,#832,.T.);
#1610=EDGE_LOOP('',(#1606,#1607,#1608,#1609));
#1611=FACE_OUTER_BOUND('',#1610,.T.);
#1612=ADVANCED_FACE('',(#1611),#1605,.F.);
#1613=CARTESIAN_POINT('',(0.0,0.0,7.0));
#1614=DIRECTION('',(0.0,0.0,-1.0));
#1615=DIRECTION('',(1.0,0.0,0.0));
#1616=AXIS2_PLACEMENT_3D('',#1613,#1614,#1615);
#1617=CYLINDRICAL_SURFACE('',#1616,1.750000000000000);
#1618=ORIENTED_EDGE('',*,*,#790,.T.);
#1619=ORIENTED_EDGE('',*,*,#1596,.F.);
#1620=ORIENTED_EDGE('',*,*,#807,.T.);
#1621=ORIENTED_EDGE('',*,*,#1475,.F.);
#1622=EDGE_LOOP('',(#1618,#1619,#1620,#1621));
#1623=FACE_OUTER_BOUND('',#1622,.T.);
#1624=ADVANCED_FACE('',(#1623),#1617,.F.);
#1625=CLOSED_SHELL('',(#752,#776,#818,#852,#952,#986,#1018,#1052,#1094,#1136,#1178,#1200,#1233,#1264,#1284,#1304,#1326,#1359,#1390,#1410,#1430,#1454,#1464,#1480,#1504,#1516,#1530,#1554,#1580,#1600,#1612,#1624));
#1626=MANIFOLD_SOLID_BREP('769',#1625);
#1627=COLOUR_RGB('250',0.330000000000000,0.330000000000000,0.330000000000000);
#1628=SURFACE_STYLE_USAGE(.BOTH.,#1629);
#1629=SURFACE_SIDE_STYLE('NONE',(#1630));
#1630=SURFACE_STYLE_FILL_AREA(#1631);
#1631=FILL_AREA_STYLE('NONE',(#1632));
#1632=FILL_AREA_STYLE_COLOUR('NONE',#1627);
#1633=PRESENTATION_STYLE_ASSIGNMENT((#1628));
#1634=STYLED_ITEM('NONE',(#1633),#1626);
#1635=CARTESIAN_POINT('',(-1.0,0.0,0.0));
#1636=DIRECTION('',(0.0,0.0,-1.0));
#1637=DIRECTION('',(1.0,0.0,0.0));
#1638=AXIS2_PLACEMENT_3D('',#1635,#1636,#1637);
#1639=CYLINDRICAL_SURFACE('',#1638,0.250000000000000);
#1640=CARTESIAN_POINT('',(-0.750000000000000,0.0,0.0));
#1641=VERTEX_POINT('',#1640);
#1642=CARTESIAN_POINT('',(-0.750000000000000,0.0,-3.600000000000000));
#1643=VERTEX_POINT('',#1642);
#1644=CARTESIAN_POINT('',(-0.750000000000000,0.0,0.0));
#1645=DIRECTION('',(0.0,0.0,-1.0));
#1646=VECTOR('',#1645,3.600000000000000);
#1647=LINE('',#1644,#1646);
#1648=EDGE_CURVE('',#1641,#1643,#1647,.T.);
#1649=ORIENTED_EDGE('',*,*,#1648,.F.);
#1650=CARTESIAN_POINT('',(-1.250000000000000,-3.061516E-017,0.0));
#1651=VERTEX_POINT('',#1650);
#1652=CARTESIAN_POINT('',(-1.0,0.0,0.0));
#1653=DIRECTION('',(0.0,0.0,1.0));
#1654=DIRECTION('',(1.0,0.0,0.0));
#1655=AXIS2_PLACEMENT_3D('',#1652,#1653,#1654);
#1656=CIRCLE('',#1655,0.250000000000000);
#1657=EDGE_CURVE('',#1651,#1641,#1656,.T.);
#1658=ORIENTED_EDGE('',*,*,#1657,.F.);
#1659=CARTESIAN_POINT('',(-1.250000000000000,-3.061516E-017,-3.600000000000000));
#1660=VERTEX_POINT('',#1659);
#1661=CARTESIAN_POINT('',(-1.250000000000000,-3.061516E-017,-3.600000000000000));
#1662=DIRECTION('',(0.0,0.0,1.0));
#1663=VECTOR('',#1662,3.600000000000000);
#1664=LINE('',#1661,#1663);
#1665=EDGE_CURVE('',#1660,#1651,#1664,.T.);
#1666=ORIENTED_EDGE('',*,*,#1665,.F.);
#1667=CARTESIAN_POINT('',(-1.0,0.0,-3.600000000000000));
#1668=DIRECTION('',(0.0,0.0,1.0));
#1669=DIRECTION('',(1.0,0.0,0.0));
#1670=AXIS2_PLACEMENT_3D('',#1667,#1668,#1669);
#1671=CIRCLE('',#1670,0.250000000000000);
#1672=EDGE_CURVE('',#1660,#1643,#1671,.T.);
#1673=ORIENTED_EDGE('',*,*,#1672,.T.);
#1674=EDGE_LOOP('',(#1649,#1658,#1666,#1673));
#1675=FACE_OUTER_BOUND('',#1674,.T.);
#1676=ADVANCED_FACE('',(#1675),#1639,.T.);
#1677=CARTESIAN_POINT('',(-1.0,0.0,0.0));
#1678=DIRECTION('',(0.0,0.0,-1.0));
#1679=DIRECTION('',(1.0,0.0,0.0));
#1680=AXIS2_PLACEMENT_3D('',#1677,#1678,#1679);
#1681=CYLINDRICAL_SURFACE('',#1680,0.250000000000000);
#1682=ORIENTED_EDGE('',*,*,#1648,.T.);
#1683=CARTESIAN_POINT('',(-1.0,0.0,-3.600000000000000));
#1684=DIRECTION('',(0.0,0.0,1.0));
#1685=DIRECTION('',(1.0,0.0,0.0));
#1686=AXIS2_PLACEMENT_3D('',#1683,#1684,#1685);
#1687=CIRCLE('',#1686,0.250000000000000);
#1688=EDGE_CURVE('',#1643,#1660,#1687,.T.);
#1689=ORIENTED_EDGE('',*,*,#1688,.T.);
#1690=ORIENTED_EDGE('',*,*,#1665,.T.);
#1691=CARTESIAN_POINT('',(-1.0,0.0,0.0));
#1692=DIRECTION('',(0.0,0.0,1.0));
#1693=DIRECTION('',(1.0,0.0,0.0));
#1694=AXIS2_PLACEMENT_3D('',#1691,#1692,#1693);
#1695=CIRCLE('',#1694,0.250000000000000);
#1696=EDGE_CURVE('',#1641,#1651,#1695,.T.);
#1697=ORIENTED_EDGE('',*,*,#1696,.F.);
#1698=EDGE_LOOP('',(#1682,#1689,#1690,#1697));
#1699=FACE_OUTER_BOUND('',#1698,.T.);
#1700=ADVANCED_FACE('',(#1699),#1681,.T.);
#1701=CARTESIAN_POINT('',(-1.0,0.0,-3.600000000000000));
#1702=DIRECTION('',(0.0,0.0,1.0));
#1703=DIRECTION('',(1.0,0.0,0.0));
#1704=AXIS2_PLACEMENT_3D('',#1701,#1702,#1703);
#1705=PLANE('',#1704);
#1706=ORIENTED_EDGE('',*,*,#1688,.F.);
#1707=ORIENTED_EDGE('',*,*,#1672,.F.);
#1708=EDGE_LOOP('',(#1706,#1707));
#1709=FACE_OUTER_BOUND('',#1708,.T.);
#1710=ADVANCED_FACE('',(#1709),#1705,.F.);
#1711=CARTESIAN_POINT('',(-1.0,0.0,0.0));
#1712=DIRECTION('',(0.0,0.0,1.0));
#1713=DIRECTION('',(1.0,0.0,0.0));
#1714=AXIS2_PLACEMENT_3D('',#1711,#1712,#1713);
#1715=PLANE('',#1714);
#1716=ORIENTED_EDGE('',*,*,#1696,.T.);
#1717=ORIENTED_EDGE('',*,*,#1657,.T.);
#1718=EDGE_LOOP('',(#1716,#1717));
#1719=FACE_OUTER_BOUND('',#1718,.T.);
#1720=ADVANCED_FACE('',(#1719),#1715,.T.);
#1721=CLOSED_SHELL('',(#1676,#1700,#1710,#1720));
#1722=MANIFOLD_SOLID_BREP('768',#1721);
#1723=STYLED_ITEM('NONE',(#618),#1722);
#1724=CARTESIAN_POINT('',(1.0,0.0,0.0));
#1725=DIRECTION('',(0.0,0.0,-1.0));
#1726=DIRECTION('',(1.0,0.0,0.0));
#1727=AXIS2_PLACEMENT_3D('',#1724,#1725,#1726);
#1728=CYLINDRICAL_SURFACE('',#1727,0.250000000000000);
#1729=CARTESIAN_POINT('',(1.250000000000000,0.0,0.0));
#1730=VERTEX_POINT('',#1729);
#1731=CARTESIAN_POINT('',(1.250000000000000,0.0,-3.600000000000000));
#1732=VERTEX_POINT('',#1731);
#1733=CARTESIAN_POINT('',(1.250000000000000,0.0,0.0));
#1734=DIRECTION('',(0.0,0.0,-1.0));
#1735=VECTOR('',#1734,3.600000000000000);
#1736=LINE('',#1733,#1735);
#1737=EDGE_CURVE('',#1730,#1732,#1736,.T.);
#1738=ORIENTED_EDGE('',*,*,#1737,.F.);
#1739=CARTESIAN_POINT('',(0.750000000000000,-3.061516E-017,0.0));
#1740=VERTEX_POINT('',#1739);
#1741=CARTESIAN_POINT('',(1.0,0.0,0.0));
#1742=DIRECTION('',(0.0,0.0,1.0));
#1743=DIRECTION('',(1.0,0.0,0.0));
#1744=AXIS2_PLACEMENT_3D('',#1741,#1742,#1743);
#1745=CIRCLE('',#1744,0.250000000000000);
#1746=EDGE_CURVE('',#1740,#1730,#1745,.T.);
#1747=ORIENTED_EDGE('',*,*,#1746,.F.);
#1748=CARTESIAN_POINT('',(0.750000000000000,-3.061516E-017,-3.600000000000000));
#1749=VERTEX_POINT('',#1748);
#1750=CARTESIAN_POINT('',(0.750000000000000,-3.061516E-017,-3.600000000000000));
#1751=DIRECTION('',(0.0,0.0,1.0));
#1752=VECTOR('',#1751,3.600000000000000);
#1753=LINE('',#1750,#1752);
#1754=EDGE_CURVE('',#1749,#1740,#1753,.T.);
#1755=ORIENTED_EDGE('',*,*,#1754,.F.);
#1756=CARTESIAN_POINT('',(1.0,0.0,-3.600000000000000));
#1757=DIRECTION('',(0.0,0.0,1.0));
#1758=DIRECTION('',(1.0,0.0,0.0));
#1759=AXIS2_PLACEMENT_3D('',#1756,#1757,#1758);
#1760=CIRCLE('',#1759,0.250000000000000);
#1761=EDGE_CURVE('',#1749,#1732,#1760,.T.);
#1762=ORIENTED_EDGE('',*,*,#1761,.T.);
#1763=EDGE_LOOP('',(#1738,#1747,#1755,#1762));
#1764=FACE_OUTER_BOUND('',#1763,.T.);
#1765=ADVANCED_FACE('',(#1764),#1728,.T.);
#1766=CARTESIAN_POINT('',(1.0,0.0,0.0));
#1767=DIRECTION('',(0.0,0.0,-1.0));
#1768=DIRECTION('',(1.0,0.0,0.0));
#1769=AXIS2_PLACEMENT_3D('',#1766,#1767,#1768);
#1770=CYLINDRICAL_SURFACE('',#1769,0.250000000000000);
#1771=ORIENTED_EDGE('',*,*,#1737,.T.);
#1772=CARTESIAN_POINT('',(1.0,0.0,-3.600000000000000));
#1773=DIRECTION('',(0.0,0.0,1.0));
#1774=DIRECTION('',(1.0,0.0,0.0));
#1775=AXIS2_PLACEMENT_3D('',#1772,#1773,#1774);
#1776=CIRCLE('',#1775,0.250000000000000);
#1777=EDGE_CURVE('',#1732,#1749,#1776,.T.);
#1778=ORIENTED_EDGE('',*,*,#1777,.T.);
#1779=ORIENTED_EDGE('',*,*,#1754,.T.);
#1780=CARTESIAN_POINT('',(1.0,0.0,0.0));
#1781=DIRECTION('',(0.0,0.0,1.0));
#1782=DIRECTION('',(1.0,0.0,0.0));
#1783=AXIS2_PLACEMENT_3D('',#1780,#1781,#1782);
#1784=CIRCLE('',#1783,0.250000000000000);
#1785=EDGE_CURVE('',#1730,#1740,#1784,.T.);
#1786=ORIENTED_EDGE('',*,*,#1785,.F.);
#1787=EDGE_LOOP('',(#1771,#1778,#1779,#1786));
#1788=FACE_OUTER_BOUND('',#1787,.T.);
#1789=ADVANCED_FACE('',(#1788),#1770,.T.);
#1790=CARTESIAN_POINT('',(1.0,0.0,-3.600000000000000));
#1791=DIRECTION('',(0.0,0.0,1.0));
#1792=DIRECTION('',(1.0,0.0,0.0));
#1793=AXIS2_PLACEMENT_3D('',#1790,#1791,#1792);
#1794=PLANE('',#1793);
#1795=ORIENTED_EDGE('',*,*,#1777,.F.);
#1796=ORIENTED_EDGE('',*,*,#1761,.F.);
#1797=EDGE_LOOP('',(#1795,#1796));
#1798=FACE_OUTER_BOUND('',#1797,.T.);
#1799=ADVANCED_FACE('',(#1798),#1794,.F.);
#1800=CARTESIAN_POINT('',(1.0,0.0,0.0));
#1801=DIRECTION('',(0.0,0.0,1.0));
#1802=DIRECTION('',(1.0,0.0,0.0));
#1803=AXIS2_PLACEMENT_3D('',#1800,#1801,#1802);
#1804=PLANE('',#1803);
#1805=ORIENTED_EDGE('',*,*,#1785,.T.);
#1806=ORIENTED_EDGE('',*,*,#1746,.T.);
#1807=EDGE_LOOP('',(#1805,#1806));
#1808=FACE_OUTER_BOUND('',#1807,.T.);
#1809=ADVANCED_FACE('',(#1808),#1804,.T.);
#1810=CLOSED_SHELL('',(#1765,#1789,#1799,#1809));
#1811=MANIFOLD_SOLID_BREP('767',#1810);
#1812=STYLED_ITEM('NONE',(#618),#1811);
#1813=ADVANCED_BREP_SHAPE_REPRESENTATION('ABSR1',(#288,#522,#611,#707,#1626,#1722,#1811),#28);
#1814=SHAPE_REPRESENTATION_RELATIONSHIP('SRRPL1','',#1813,#62);
ENDSEC;
END-ISO-10303-21;
