ISO-10303-21;
HEADER;
/****************************************************************
 * Generated by software with PDE/Lib inside                    *
 * PDElib Version v51a, created Mon 11/03/2008                  *
 * International Technegroup Inc. (www.iti-oh.com)              *
 ****************************************************************/
FILE_DESCRIPTION((''),'2;1');
FILE_NAME('CAPPRB508-600X1150.stp','2010-08-19T17:46:24',(''),(''),'Mechanical Desktop 2010','Mechanical Desktop 2010',', , ');
FILE_SCHEMA(('AUTOMOTIVE_DESIGN { 1 2 10303 214 1 1 1 1 }'));
ENDSEC;
DATA;
#8=(NAMED_UNIT(*)PLANE_ANGLE_UNIT()SI_UNIT($,.RADIAN.));
#9=DIMENSIONAL_EXPONENTS(0.0,0.0,0.0,0.0,0.0,0.0,0.0);
#10=PLANE_ANGLE_MEASURE_WITH_UNIT(PLANE_ANGLE_MEASURE(0.017453292500000),#8);
#14=(CONVERSION_BASED_UNIT('DEGREE',#10)NAMED_UNIT(#9)PLANE_ANGLE_UNIT());
#18=(NAMED_UNIT(*)SI_UNIT($,.STERADIAN.)SOLID_ANGLE_UNIT());
#22=(LENGTH_UNIT()NAMED_UNIT(*)SI_UNIT(.MILLI.,.METRE.));
#23=UNCERTAINTY_MEASURE_WITH_UNIT(LENGTH_MEASURE(0.000001000000000),#22,'DISTANCE_ACCURACY_VALUE','');
#28=(GEOMETRIC_REPRESENTATION_CONTEXT(3)GLOBAL_UNCERTAINTY_ASSIGNED_CONTEXT((#23))GLOBAL_UNIT_ASSIGNED_CONTEXT((#14,#18,#22))REPRESENTATION_CONTEXT('None','None'));
#29=APPLICATION_CONTEXT('automotive design');
#30=APPLICATION_PROTOCOL_DEFINITION('INTERNATIONAL_STANDARD','automotive_design',1998,#29);
#31=PRODUCT_CONTEXT('3D Mechanical Parts',#29,'mechanical');
#32=PRODUCT('Product','Product','',(#31));
#33=PRODUCT_RELATED_PRODUCT_CATEGORY('part',$,(#32));
#34=PRODUCT_CATEGORY('part',$);
#35=PERSON('1','Design','Joe',$,$,$);
#36=ORGANIZATION($,'None','None');
#37=PERSON_AND_ORGANIZATION(#35,#36);
#38=PERSON_AND_ORGANIZATION_ROLE('design_owner');
#39=APPLIED_PERSON_AND_ORGANIZATION_ASSIGNMENT(#37,#38,(#32));
#40=PRODUCT_DEFINITION_FORMATION_WITH_SPECIFIED_SOURCE('None','',#32,.BOUGHT.);
#41=PERSON('2','Creator','Joe',$,$,$);
#42=ORGANIZATION($,'None','None');
#43=PERSON_AND_ORGANIZATION(#41,#42);
#44=PERSON_AND_ORGANIZATION_ROLE('creator');
#45=APPLIED_PERSON_AND_ORGANIZATION_ASSIGNMENT(#43,#44,(#40));
#46=PERSON('3','Supplier','Joe',$,$,$);
#47=ORGANIZATION($,'None','None');
#48=PERSON_AND_ORGANIZATION(#46,#47);
#49=PERSON_AND_ORGANIZATION_ROLE('design_supplier');
#50=APPLIED_PERSON_AND_ORGANIZATION_ASSIGNMENT(#48,#49,(#40));
#51=PRODUCT_DEFINITION_CONTEXT('part definition',#29,'design');
#52=PRODUCT_DEFINITION('None','',#40,#51);
#53=PERSON('4','Creator','Joe',$,$,$);
#54=ORGANIZATION($,'None','None');
#55=PERSON_AND_ORGANIZATION(#53,#54);
#56=PERSON_AND_ORGANIZATION_ROLE('creator');
#57=APPLIED_PERSON_AND_ORGANIZATION_ASSIGNMENT(#55,#56,(#52));
#58=CARTESIAN_POINT('NONE',(0.0,0.0,0.0));
#59=DIRECTION('NONE',(0.0,0.0,1.0));
#60=DIRECTION('NONE',(1.0,0.0,0.0));
#61=AXIS2_PLACEMENT_3D('NONE',#58,#59,#60);
#62=SHAPE_REPRESENTATION('SR1',(#61),#28);
#63=PRODUCT_DEFINITION_SHAPE('PDS1','Test Part',#52);
#64=SHAPE_DEFINITION_REPRESENTATION(#63,#62);
#65=CARTESIAN_POINT('',(-2.290000000000000,3.061617E-017,-2.143061E-017));
#66=CARTESIAN_POINT('',(-2.290000000000000,0.250000000000000,-2.143061E-017));
#67=CARTESIAN_POINT('',(-2.540000000000000,0.250000000000000,-3.673819E-017));
#68=CARTESIAN_POINT('',(-2.790000000000000,0.250000000000000,-5.204577E-017));
#69=CARTESIAN_POINT('',(-2.790000000000000,0.0,-5.204577E-017));
#70=CARTESIAN_POINT('',(-2.290000000000000,3.061617E-017,0.254458164622202));
#71=CARTESIAN_POINT('',(-2.290000000000000,0.250000000000000,0.254458164622202));
#72=CARTESIAN_POINT('',(-2.540000000000000,0.250000000000000,0.436213996495204));
#73=CARTESIAN_POINT('',(-2.790000000000000,0.250000000000000,0.617969828368206));
#74=CARTESIAN_POINT('',(-2.790000000000000,0.0,0.617969828368206));
#75=CARTESIAN_POINT('',(-2.047946474710569,3.061617E-017,0.332937769857312));
#76=CARTESIAN_POINT('',(-2.047946474710569,0.250000000000000,0.332937769857312));
#77=CARTESIAN_POINT('',(-2.125051099503832,0.250000000000000,0.570750462612535));
#78=CARTESIAN_POINT('',(-2.202155724297096,0.250000000000000,0.808563155367758));
#79=CARTESIAN_POINT('',(-2.202155724297096,0.0,0.808563155367758));
#87=(BOUNDED_SURFACE()B_SPLINE_SURFACE(2,2,((#65,#70,#75),(#66,#71,#76),(#67,#72,#77),(#68,#73,#78),(#69,#74,#79)),.UNSPECIFIED.,.F.,.F.,.U.)B_SPLINE_SURFACE_WITH_KNOTS((3,2,3),(3,3),(-3.141592653589793,-1.570796326794897,0.0),(0.0,1.257266292250662),.UNSPECIFIED.)GEOMETRIC_REPRESENTATION_ITEM()RATIONAL_B_SPLINE_SURFACE(((1.0,0.808832028041995,1.0),(0.707106781186549,0.571930611869363,0.707106781186549),(1.0,0.808832028041995,1.0),(0.707106781186549,0.571930611869363,0.707106781186549),(1.0,0.808832028041995,1.0)))REPRESENTATION_ITEM('')SURFACE());
#88=CARTESIAN_POINT('',(-2.465844736640674,3.061516E-017,0.667822815533656));
#89=VERTEX_POINT('',#88);
#90=CARTESIAN_POINT('',(-2.790000000000000,3.061516E-017,0.0));
#91=VERTEX_POINT('',#90);
#92=CARTESIAN_POINT('',(-1.940000000000000,0.0,0.0));
#93=DIRECTION('',(0.0,-1.0,0.0));
#94=DIRECTION('',(0.0,0.0,-1.0));
#95=AXIS2_PLACEMENT_3D('',#92,#93,#94);
#96=CIRCLE('',#95,0.850000000000000);
#97=EDGE_CURVE('',#89,#91,#96,.T.);
#98=ORIENTED_EDGE('',*,*,#97,.F.);
#99=CARTESIAN_POINT('',(-2.156524303322631,0.0,0.274985865219741));
#100=VERTEX_POINT('',#99);
#101=CARTESIAN_POINT('',(-2.311184519981652,0.0,0.471404340376699));
#102=DIRECTION('',(0.785673900627831,2.220446E-016,0.618640866636087));
#103=DIRECTION('',(0.618640866636087,0.0,-0.785673900627831));
#104=AXIS2_PLACEMENT_3D('',#101,#102,#103);
#105=CIRCLE('',#104,0.250000000000000);
#106=EDGE_CURVE('',#100,#89,#105,.T.);
#107=ORIENTED_EDGE('',*,*,#106,.F.);
#108=CARTESIAN_POINT('',(-2.290000000000000,0.0,0.0));
#109=VERTEX_POINT('',#108);
#110=CARTESIAN_POINT('',(-1.940000000000000,3.061516E-017,0.0));
#111=DIRECTION('',(0.0,-1.0,0.0));
#112=DIRECTION('',(0.0,0.0,-1.0));
#113=AXIS2_PLACEMENT_3D('',#110,#111,#112);
#114=CIRCLE('',#113,0.350000000000000);
#115=EDGE_CURVE('',#100,#109,#114,.T.);
#116=ORIENTED_EDGE('',*,*,#115,.T.);
#117=CARTESIAN_POINT('',(-2.540000000000000,0.0,0.0));
#118=DIRECTION('',(0.0,0.0,1.0));
#119=DIRECTION('',(1.0,0.0,0.0));
#120=AXIS2_PLACEMENT_3D('',#117,#118,#119);
#121=CIRCLE('',#120,0.250000000000000);
#122=EDGE_CURVE('',#109,#91,#121,.T.);
#123=ORIENTED_EDGE('',*,*,#122,.T.);
#124=EDGE_LOOP('',(#98,#107,#116,#123));
#125=FACE_OUTER_BOUND('',#124,.T.);
#126=ADVANCED_FACE('',(#125),#87,.T.);
#127=CARTESIAN_POINT('',(-1.762053525289431,-3.061617E-017,1.249531572284514));
#128=CARTESIAN_POINT('',(-1.762053525289431,-0.250000000000000,1.249531572284514));
#129=CARTESIAN_POINT('',(-1.684948900496168,-0.250000000000000,1.011718879529291));
#130=CARTESIAN_POINT('',(-1.607844275702904,-0.250000000000000,0.773906186774068));
#131=CARTESIAN_POINT('',(-1.607844275702904,3.061516E-017,0.773906186774068));
#132=CARTESIAN_POINT('',(-1.519999999999999,-3.061617E-017,1.328011177519623));
#133=CARTESIAN_POINT('',(-1.519999999999999,-0.250000000000000,1.328011177519623));
#134=CARTESIAN_POINT('',(-1.269999999999999,-0.250000000000000,1.146255345646622));
#135=CARTESIAN_POINT('',(-1.019999999999999,-0.250000000000000,0.964499513773620));
#136=CARTESIAN_POINT('',(-1.019999999999999,3.061516E-017,0.964499513773620));
#137=CARTESIAN_POINT('',(-1.520000000000000,-3.061617E-017,1.582469342141826));
#138=CARTESIAN_POINT('',(-1.520000000000000,-0.250000000000000,1.582469342141826));
#139=CARTESIAN_POINT('',(-1.270000000000000,-0.250000000000000,1.582469342141827));
#140=CARTESIAN_POINT('',(-1.020000000000000,-0.250000000000000,1.582469342141827));
#141=CARTESIAN_POINT('',(-1.020000000000000,3.061516E-017,1.582469342141827));
#149=(BOUNDED_SURFACE()B_SPLINE_SURFACE(2,2,((#127,#132,#137),(#128,#133,#138),(#129,#134,#139),(#130,#135,#140),(#131,#136,#141)),.UNSPECIFIED.,.F.,.F.,.U.)B_SPLINE_SURFACE_WITH_KNOTS((3,2,3),(3,3),(-3.141592653589793,-1.570796326794897,1.224606E-016),(0.0,1.257266292250664),.UNSPECIFIED.)GEOMETRIC_REPRESENTATION_ITEM()RATIONAL_B_SPLINE_SURFACE(((1.0,0.808832028041995,1.0),(0.707106781186548,0.571930611869362,0.707106781186548),(1.0,0.808832028041995,1.0),(0.707106781186548,0.571930611869362,0.707106781186548),(1.0,0.808832028041995,1.0)))REPRESENTATION_ITEM('')SURFACE());
#150=CARTESIAN_POINT('',(-1.020000000000001,0.0,1.582469342141826));
#151=VERTEX_POINT('',#150);
#152=CARTESIAN_POINT('',(-1.344155263359326,0.0,0.914646526608170));
#153=VERTEX_POINT('',#152);
#154=CARTESIAN_POINT('',(-1.870000000000000,0.0,1.582469342141826));
#155=DIRECTION('',(0.0,1.0,0.0));
#156=DIRECTION('',(0.0,0.0,1.0));
#157=AXIS2_PLACEMENT_3D('',#154,#155,#156);
#158=CIRCLE('',#157,0.850000000000000);
#159=EDGE_CURVE('',#151,#153,#158,.T.);
#160=ORIENTED_EDGE('',*,*,#159,.F.);
#161=CARTESIAN_POINT('',(-1.520000000000000,3.061516E-017,1.582469342141826));
#162=VERTEX_POINT('',#161);
#163=CARTESIAN_POINT('',(-1.270000000000000,0.0,1.582469342141826));
#164=DIRECTION('',(0.0,0.0,1.0));
#165=DIRECTION('',(1.0,0.0,0.0));
#166=AXIS2_PLACEMENT_3D('',#163,#164,#165);
#167=CIRCLE('',#166,0.250000000000000);
#168=EDGE_CURVE('',#162,#151,#167,.T.);
#169=ORIENTED_EDGE('',*,*,#168,.F.);
#170=CARTESIAN_POINT('',(-1.653475696677370,3.061516E-017,1.307483476922085));
#171=VERTEX_POINT('',#170);
#172=CARTESIAN_POINT('',(-1.870000000000000,-3.061516E-017,1.582469342141826));
#173=DIRECTION('',(0.0,1.0,0.0));
#174=DIRECTION('',(0.0,0.0,1.0));
#175=AXIS2_PLACEMENT_3D('',#172,#173,#174);
#176=CIRCLE('',#175,0.350000000000000);
#177=EDGE_CURVE('',#162,#171,#176,.T.);
#178=ORIENTED_EDGE('',*,*,#177,.T.);
#179=CARTESIAN_POINT('',(-1.498815480018348,0.0,1.111065001765127));
#180=DIRECTION('',(0.785673900627831,2.220446E-016,0.618640866636087));
#181=DIRECTION('',(0.618640866636087,0.0,-0.785673900627831));
#182=AXIS2_PLACEMENT_3D('',#179,#180,#181);
#183=CIRCLE('',#182,0.250000000000000);
#184=EDGE_CURVE('',#171,#153,#183,.T.);
#185=ORIENTED_EDGE('',*,*,#184,.T.);
#186=EDGE_LOOP('',(#160,#169,#178,#185));
#187=FACE_OUTER_BOUND('',#186,.T.);
#188=ADVANCED_FACE('',(#187),#149,.T.);
#189=CARTESIAN_POINT('',(-2.790000000000000,3.061516E-017,-2.908765328929087));
#190=CARTESIAN_POINT('',(-2.790000000000000,3.061516E-017,0.0));
#191=CARTESIAN_POINT('',(-2.790000000000000,0.250000000000000,-2.908765328929087));
#192=CARTESIAN_POINT('',(-2.790000000000000,0.250000000000000,0.0));
#193=CARTESIAN_POINT('',(-2.540000000000000,0.250000000000000,-2.908765328929087));
#194=CARTESIAN_POINT('',(-2.540000000000000,0.250000000000000,0.0));
#195=CARTESIAN_POINT('',(-2.290000000000000,0.250000000000000,-2.908765328929087));
#196=CARTESIAN_POINT('',(-2.290000000000000,0.250000000000000,0.0));
#197=CARTESIAN_POINT('',(-2.290000000000000,-3.061516E-017,-2.908765328929087));
#198=CARTESIAN_POINT('',(-2.290000000000000,-3.061516E-017,0.0));
#199=CARTESIAN_POINT('',(-2.290000000000000,-0.250000000000000,-2.908765328929087));
#200=CARTESIAN_POINT('',(-2.290000000000000,-0.250000000000000,0.0));
#201=CARTESIAN_POINT('',(-2.540000000000000,-0.250000000000000,-2.908765328929087));
#202=CARTESIAN_POINT('',(-2.540000000000000,-0.250000000000000,0.0));
#203=CARTESIAN_POINT('',(-2.790000000000000,-0.250000000000000,-2.908765328929087));
#204=CARTESIAN_POINT('',(-2.790000000000000,-0.250000000000000,0.0));
#205=CARTESIAN_POINT('',(-2.790000000000000,3.061516E-017,-2.908765328929087));
#206=CARTESIAN_POINT('',(-2.790000000000000,3.061516E-017,0.0));
#214=(BOUNDED_SURFACE()B_SPLINE_SURFACE(1,2,((#189,#191,#193,#195,#197,#199,#201,#203,#205),(#190,#192,#194,#196,#198,#200,#202,#204,#206)),.UNSPECIFIED.,.F.,.T.,.U.)B_SPLINE_SURFACE_WITH_KNOTS((2,2),(3,2,2,2,3),(0.0,11.635061315716348),(0.0,0.392699081698724,0.785398163397448,1.178097245096172,1.570796326794897),.UNSPECIFIED.)GEOMETRIC_REPRESENTATION_ITEM()RATIONAL_B_SPLINE_SURFACE(((1.0,0.707106781186548,1.0,0.707106781186548,1.0,0.707106781186548,1.0,0.707106781186548,1.0),(1.0,0.707106781186548,1.0,0.707106781186548,1.0,0.707106781186548,1.0,0.707106781186548,1.0)))REPRESENTATION_ITEM('')SURFACE());
#215=CARTESIAN_POINT('',(-2.290000000000000,0.0,-2.908765328929087));
#216=VERTEX_POINT('',#215);
#217=CARTESIAN_POINT('',(-2.290000000000000,0.0,0.0));
#218=DIRECTION('',(0.0,0.0,-1.0));
#219=VECTOR('',#218,2.908765328929087);
#220=LINE('',#217,#219);
#221=EDGE_CURVE('',#109,#216,#220,.T.);
#222=ORIENTED_EDGE('',*,*,#221,.F.);
#223=CARTESIAN_POINT('',(-2.540000000000000,0.0,0.0));
#224=DIRECTION('',(0.0,0.0,1.0));
#225=DIRECTION('',(1.0,0.0,0.0));
#226=AXIS2_PLACEMENT_3D('',#223,#224,#225);
#227=CIRCLE('',#226,0.250000000000000);
#228=EDGE_CURVE('',#91,#109,#227,.T.);
#229=ORIENTED_EDGE('',*,*,#228,.F.);
#230=CARTESIAN_POINT('',(-2.790000000000000,3.061516E-017,-2.908765328929087));
#231=VERTEX_POINT('',#230);
#232=CARTESIAN_POINT('',(-2.790000000000000,3.061516E-017,0.0));
#233=DIRECTION('',(0.0,0.0,-1.0));
#234=VECTOR('',#233,2.908765328929087);
#235=LINE('',#232,#234);
#236=EDGE_CURVE('',#91,#231,#235,.T.);
#237=ORIENTED_EDGE('',*,*,#236,.T.);
#238=CARTESIAN_POINT('',(-2.540000000000000,0.0,-2.908765328929087));
#239=DIRECTION('',(0.0,0.0,1.0));
#240=DIRECTION('',(1.0,0.0,0.0));
#241=AXIS2_PLACEMENT_3D('',#238,#239,#240);
#242=CIRCLE('',#241,0.250000000000000);
#243=EDGE_CURVE('',#231,#216,#242,.T.);
#244=ORIENTED_EDGE('',*,*,#243,.T.);
#245=EDGE_LOOP('',(#222,#229,#237,#244));
#246=FACE_OUTER_BOUND('',#245,.T.);
#247=ADVANCED_FACE('',(#246),#214,.T.);
#248=CARTESIAN_POINT('',(-2.656783129575220,3.061516E-017,0.517477624246613));
#249=CARTESIAN_POINT('',(-1.462537303742824,3.061516E-017,1.457828668209129));
#250=CARTESIAN_POINT('',(-2.656783129575220,0.250000000000000,0.517477624246613));
#251=CARTESIAN_POINT('',(-1.462537303742824,0.250000000000000,1.457828668209129));
#252=CARTESIAN_POINT('',(-2.502122912916198,0.250000000000000,0.321059149089655));
#253=CARTESIAN_POINT('',(-1.307877087083802,0.250000000000000,1.261410193052171));
#254=CARTESIAN_POINT('',(-2.347462696257176,0.250000000000000,0.124640673932697));
#255=CARTESIAN_POINT('',(-1.153216870424780,0.250000000000000,1.064991717895214));
#256=CARTESIAN_POINT('',(-2.347462696257176,-3.061516E-017,0.124640673932697));
#257=CARTESIAN_POINT('',(-1.153216870424780,-3.061516E-017,1.064991717895214));
#258=CARTESIAN_POINT('',(-2.347462696257176,-0.250000000000000,0.124640673932697));
#259=CARTESIAN_POINT('',(-1.153216870424780,-0.250000000000000,1.064991717895214));
#260=CARTESIAN_POINT('',(-2.502122912916198,-0.250000000000000,0.321059149089655));
#261=CARTESIAN_POINT('',(-1.307877087083802,-0.250000000000000,1.261410193052171));
#262=CARTESIAN_POINT('',(-2.656783129575220,-0.250000000000000,0.517477624246613));
#263=CARTESIAN_POINT('',(-1.462537303742824,-0.250000000000000,1.457828668209129));
#264=CARTESIAN_POINT('',(-2.656783129575220,3.061516E-017,0.517477624246613));
#265=CARTESIAN_POINT('',(-1.462537303742824,3.061516E-017,1.457828668209129));
#273=(BOUNDED_SURFACE()B_SPLINE_SURFACE(1,2,((#248,#250,#252,#254,#256,#258,#260,#262,#264),(#249,#251,#253,#255,#257,#259,#261,#263,#265)),.UNSPECIFIED.,.F.,.T.,.U.)B_SPLINE_SURFACE_WITH_KNOTS((2,2),(3,2,2,2,3),(-0.972099965555515,5.108009478721939),(0.0,0.392699081698724,0.785398163397448,1.178097245096172,1.570796326794897),.UNSPECIFIED.)GEOMETRIC_REPRESENTATION_ITEM()RATIONAL_B_SPLINE_SURFACE(((1.0,0.707106781186548,1.0,0.707106781186548,1.0,0.707106781186548,1.0,0.707106781186548,1.0),(1.0,0.707106781186548,1.0,0.707106781186548,1.0,0.707106781186548,1.0,0.707106781186548,1.0)))REPRESENTATION_ITEM('')SURFACE());
#274=CARTESIAN_POINT('',(-1.344155263359326,0.0,0.914646526608170));
#275=DIRECTION('',(-0.785673900627831,0.0,-0.618640866636087));
#276=VECTOR('',#275,1.033977378291606);
#277=LINE('',#274,#276);
#278=EDGE_CURVE('',#153,#100,#277,.T.);
#279=ORIENTED_EDGE('',*,*,#278,.F.);
#280=ORIENTED_EDGE('',*,*,#184,.F.);
#281=CARTESIAN_POINT('',(-1.653475696677370,3.061516E-017,1.307483476922085));
#282=DIRECTION('',(-0.785673900627831,0.0,-0.618640866636087));
#283=VECTOR('',#282,1.033977378291606);
#284=LINE('',#281,#283);
#285=EDGE_CURVE('',#171,#89,#284,.T.);
#286=ORIENTED_EDGE('',*,*,#285,.T.);
#287=CARTESIAN_POINT('',(-2.311184519981652,0.0,0.471404340376699));
#288=DIRECTION('',(0.785673900627831,2.220446E-016,0.618640866636087));
#289=DIRECTION('',(0.618640866636087,0.0,-0.785673900627831));
#290=AXIS2_PLACEMENT_3D('',#287,#288,#289);
#291=CIRCLE('',#290,0.250000000000000);
#292=EDGE_CURVE('',#89,#100,#291,.T.);
#293=ORIENTED_EDGE('',*,*,#292,.T.);
#294=EDGE_LOOP('',(#279,#280,#286,#293));
#295=FACE_OUTER_BOUND('',#294,.T.);
#296=ADVANCED_FACE('',(#295),#273,.T.);
#297=CARTESIAN_POINT('',(-1.520000000000000,3.061516E-017,1.582469342141826));
#298=CARTESIAN_POINT('',(-1.520000000000000,3.061516E-017,1.892469342141826));
#299=CARTESIAN_POINT('',(-1.520000000000000,0.250000000000000,1.582469342141826));
#300=CARTESIAN_POINT('',(-1.520000000000000,0.250000000000000,1.892469342141826));
#301=CARTESIAN_POINT('',(-1.270000000000000,0.250000000000000,1.582469342141826));
#302=CARTESIAN_POINT('',(-1.270000000000000,0.250000000000000,1.892469342141826));
#303=CARTESIAN_POINT('',(-1.020000000000000,0.250000000000000,1.582469342141826));
#304=CARTESIAN_POINT('',(-1.020000000000000,0.250000000000000,1.892469342141826));
#305=CARTESIAN_POINT('',(-1.020000000000000,-3.061516E-017,1.582469342141826));
#306=CARTESIAN_POINT('',(-1.020000000000000,-3.061516E-017,1.892469342141826));
#307=CARTESIAN_POINT('',(-1.020000000000000,-0.250000000000000,1.582469342141826));
#308=CARTESIAN_POINT('',(-1.020000000000000,-0.250000000000000,1.892469342141826));
#309=CARTESIAN_POINT('',(-1.270000000000000,-0.250000000000000,1.582469342141826));
#310=CARTESIAN_POINT('',(-1.270000000000000,-0.250000000000000,1.892469342141826));
#311=CARTESIAN_POINT('',(-1.520000000000000,-0.250000000000000,1.582469342141826));
#312=CARTESIAN_POINT('',(-1.520000000000000,-0.250000000000000,1.892469342141826));
#313=CARTESIAN_POINT('',(-1.520000000000000,3.061516E-017,1.582469342141826));
#314=CARTESIAN_POINT('',(-1.520000000000000,3.061516E-017,1.892469342141826));
#322=(BOUNDED_SURFACE()B_SPLINE_SURFACE(1,2,((#297,#299,#301,#303,#305,#307,#309,#311,#313),(#298,#300,#302,#304,#306,#308,#310,#312,#314)),.UNSPECIFIED.,.F.,.T.,.U.)B_SPLINE_SURFACE_WITH_KNOTS((2,2),(3,2,2,2,3),(-8.881784E-016,1.239999999999999),(0.0,0.392699081698724,0.785398163397449,1.178097245096173,1.570796326794897),.UNSPECIFIED.)GEOMETRIC_REPRESENTATION_ITEM()RATIONAL_B_SPLINE_SURFACE(((1.0,0.707106781186548,1.0,0.707106781186548,1.0,0.707106781186548,1.0,0.707106781186548,1.0),(1.0,0.707106781186548,1.0,0.707106781186548,1.0,0.707106781186548,1.0,0.707106781186548,1.0)))REPRESENTATION_ITEM('')SURFACE());
#323=CARTESIAN_POINT('',(-1.020000000000001,0.0,1.892469342141826));
#324=VERTEX_POINT('',#323);
#325=CARTESIAN_POINT('',(-1.020000000000000,0.0,1.892469342141826));
#326=DIRECTION('',(0.0,0.0,-1.0));
#327=VECTOR('',#326,0.310000000000000);
#328=LINE('',#325,#327);
#329=EDGE_CURVE('',#324,#151,#328,.T.);
#330=ORIENTED_EDGE('',*,*,#329,.F.);
#331=CARTESIAN_POINT('',(-1.520000000000000,3.061516E-017,1.892469342141826));
#332=VERTEX_POINT('',#331);
#333=CARTESIAN_POINT('',(-1.270000000000000,0.0,1.892469342141826));
#334=DIRECTION('',(0.0,0.0,1.0));
#335=DIRECTION('',(1.0,0.0,0.0));
#336=AXIS2_PLACEMENT_3D('',#333,#334,#335);
#337=CIRCLE('',#336,0.250000000000000);
#338=EDGE_CURVE('',#332,#324,#337,.T.);
#339=ORIENTED_EDGE('',*,*,#338,.F.);
#340=CARTESIAN_POINT('',(-1.520000000000000,3.061516E-017,1.892469342141826));
#341=DIRECTION('',(0.0,0.0,-1.0));
#342=VECTOR('',#341,0.310000000000000);
#343=LINE('',#340,#342);
#344=EDGE_CURVE('',#332,#162,#343,.T.);
#345=ORIENTED_EDGE('',*,*,#344,.T.);
#346=ORIENTED_EDGE('',*,*,#168,.T.);
#347=EDGE_LOOP('',(#330,#339,#345,#346));
#348=FACE_OUTER_BOUND('',#347,.T.);
#349=ADVANCED_FACE('',(#348),#322,.T.);
#350=CARTESIAN_POINT('',(-1.520000000000000,3.061516E-017,1.582469342141826));
#351=CARTESIAN_POINT('',(-1.520000000000000,3.061516E-017,1.892469342141826));
#352=CARTESIAN_POINT('',(-1.520000000000000,0.250000000000000,1.582469342141826));
#353=CARTESIAN_POINT('',(-1.520000000000000,0.250000000000000,1.892469342141826));
#354=CARTESIAN_POINT('',(-1.270000000000000,0.250000000000000,1.582469342141826));
#355=CARTESIAN_POINT('',(-1.270000000000000,0.250000000000000,1.892469342141826));
#356=CARTESIAN_POINT('',(-1.020000000000000,0.250000000000000,1.582469342141826));
#357=CARTESIAN_POINT('',(-1.020000000000000,0.250000000000000,1.892469342141826));
#358=CARTESIAN_POINT('',(-1.020000000000000,-3.061516E-017,1.582469342141826));
#359=CARTESIAN_POINT('',(-1.020000000000000,-3.061516E-017,1.892469342141826));
#360=CARTESIAN_POINT('',(-1.020000000000000,-0.250000000000000,1.582469342141826));
#361=CARTESIAN_POINT('',(-1.020000000000000,-0.250000000000000,1.892469342141826));
#362=CARTESIAN_POINT('',(-1.270000000000000,-0.250000000000000,1.582469342141826));
#363=CARTESIAN_POINT('',(-1.270000000000000,-0.250000000000000,1.892469342141826));
#364=CARTESIAN_POINT('',(-1.520000000000000,-0.250000000000000,1.582469342141826));
#365=CARTESIAN_POINT('',(-1.520000000000000,-0.250000000000000,1.892469342141826));
#366=CARTESIAN_POINT('',(-1.520000000000000,3.061516E-017,1.582469342141826));
#367=CARTESIAN_POINT('',(-1.520000000000000,3.061516E-017,1.892469342141826));
#375=(BOUNDED_SURFACE()B_SPLINE_SURFACE(1,2,((#350,#352,#354,#356,#358,#360,#362,#364,#366),(#351,#353,#355,#357,#359,#361,#363,#365,#367)),.UNSPECIFIED.,.F.,.T.,.U.)B_SPLINE_SURFACE_WITH_KNOTS((2,2),(3,2,2,2,3),(-8.881784E-016,1.239999999999999),(0.0,0.392699081698724,0.785398163397449,1.178097245096173,1.570796326794897),.UNSPECIFIED.)GEOMETRIC_REPRESENTATION_ITEM()RATIONAL_B_SPLINE_SURFACE(((1.0,0.707106781186548,1.0,0.707106781186548,1.0,0.707106781186548,1.0,0.707106781186548,1.0),(1.0,0.707106781186548,1.0,0.707106781186548,1.0,0.707106781186548,1.0,0.707106781186548,1.0)))REPRESENTATION_ITEM('')SURFACE());
#376=ORIENTED_EDGE('',*,*,#329,.T.);
#377=CARTESIAN_POINT('',(-1.270000000000000,0.0,1.582469342141826));
#378=DIRECTION('',(0.0,0.0,1.0));
#379=DIRECTION('',(1.0,0.0,0.0));
#380=AXIS2_PLACEMENT_3D('',#377,#378,#379);
#381=CIRCLE('',#380,0.250000000000000);
#382=EDGE_CURVE('',#151,#162,#381,.T.);
#383=ORIENTED_EDGE('',*,*,#382,.T.);
#384=ORIENTED_EDGE('',*,*,#344,.F.);
#385=CARTESIAN_POINT('',(-1.270000000000000,0.0,1.892469342141826));
#386=DIRECTION('',(0.0,0.0,1.0));
#387=DIRECTION('',(1.0,0.0,0.0));
#388=AXIS2_PLACEMENT_3D('',#385,#386,#387);
#389=CIRCLE('',#388,0.250000000000000);
#390=EDGE_CURVE('',#324,#332,#389,.T.);
#391=ORIENTED_EDGE('',*,*,#390,.F.);
#392=EDGE_LOOP('',(#376,#383,#384,#391));
#393=FACE_OUTER_BOUND('',#392,.T.);
#394=ADVANCED_FACE('',(#393),#375,.T.);
#395=CARTESIAN_POINT('',(-1.607844275702904,-3.061516E-017,0.773906186774068));
#396=CARTESIAN_POINT('',(-1.607844275702904,0.250000000000000,0.773906186774068));
#397=CARTESIAN_POINT('',(-1.684948900496168,0.250000000000000,1.011718879529291));
#398=CARTESIAN_POINT('',(-1.762053525289431,0.250000000000000,1.249531572284514));
#399=CARTESIAN_POINT('',(-1.762053525289431,3.061617E-017,1.249531572284514));
#400=CARTESIAN_POINT('',(-1.019999999999999,-3.061516E-017,0.964499513773620));
#401=CARTESIAN_POINT('',(-1.019999999999999,0.250000000000000,0.964499513773620));
#402=CARTESIAN_POINT('',(-1.269999999999999,0.250000000000000,1.146255345646622));
#403=CARTESIAN_POINT('',(-1.519999999999999,0.250000000000000,1.328011177519623));
#404=CARTESIAN_POINT('',(-1.519999999999999,3.061617E-017,1.328011177519623));
#405=CARTESIAN_POINT('',(-1.020000000000000,-3.061516E-017,1.582469342141827));
#406=CARTESIAN_POINT('',(-1.020000000000000,0.250000000000000,1.582469342141827));
#407=CARTESIAN_POINT('',(-1.270000000000000,0.250000000000000,1.582469342141827));
#408=CARTESIAN_POINT('',(-1.520000000000000,0.250000000000000,1.582469342141826));
#409=CARTESIAN_POINT('',(-1.520000000000000,3.061617E-017,1.582469342141826));
#417=(BOUNDED_SURFACE()B_SPLINE_SURFACE(2,2,((#395,#400,#405),(#396,#401,#406),(#397,#402,#407),(#398,#403,#408),(#399,#404,#409)),.UNSPECIFIED.,.F.,.F.,.U.)B_SPLINE_SURFACE_WITH_KNOTS((3,2,3),(3,3),(-1.224606E-016,1.570796326794897,3.141592653589793),(0.0,1.257266292250664),.UNSPECIFIED.)GEOMETRIC_REPRESENTATION_ITEM()RATIONAL_B_SPLINE_SURFACE(((1.0,0.808832028041995,1.0),(0.707106781186548,0.571930611869362,0.707106781186548),(1.0,0.808832028041995,1.0),(0.707106781186548,0.571930611869362,0.707106781186548),(1.0,0.808832028041995,1.0)))REPRESENTATION_ITEM('')SURFACE());
#418=ORIENTED_EDGE('',*,*,#159,.T.);
#419=CARTESIAN_POINT('',(-1.498815480018348,0.0,1.111065001765127));
#420=DIRECTION('',(0.785673900627831,2.220446E-016,0.618640866636087));
#421=DIRECTION('',(0.618640866636087,0.0,-0.785673900627831));
#422=AXIS2_PLACEMENT_3D('',#419,#420,#421);
#423=CIRCLE('',#422,0.250000000000000);
#424=EDGE_CURVE('',#153,#171,#423,.T.);
#425=ORIENTED_EDGE('',*,*,#424,.T.);
#426=ORIENTED_EDGE('',*,*,#177,.F.);
#427=ORIENTED_EDGE('',*,*,#382,.F.);
#428=EDGE_LOOP('',(#418,#425,#426,#427));
#429=FACE_OUTER_BOUND('',#428,.T.);
#430=ADVANCED_FACE('',(#429),#417,.T.);
#431=CARTESIAN_POINT('',(-2.656783129575220,3.061516E-017,0.517477624246613));
#432=CARTESIAN_POINT('',(-1.462537303742824,3.061516E-017,1.457828668209129));
#433=CARTESIAN_POINT('',(-2.656783129575220,0.250000000000000,0.517477624246613));
#434=CARTESIAN_POINT('',(-1.462537303742824,0.250000000000000,1.457828668209129));
#435=CARTESIAN_POINT('',(-2.502122912916198,0.250000000000000,0.321059149089655));
#436=CARTESIAN_POINT('',(-1.307877087083802,0.250000000000000,1.261410193052171));
#437=CARTESIAN_POINT('',(-2.347462696257176,0.250000000000000,0.124640673932697));
#438=CARTESIAN_POINT('',(-1.153216870424780,0.250000000000000,1.064991717895214));
#439=CARTESIAN_POINT('',(-2.347462696257176,-3.061516E-017,0.124640673932697));
#440=CARTESIAN_POINT('',(-1.153216870424780,-3.061516E-017,1.064991717895214));
#441=CARTESIAN_POINT('',(-2.347462696257176,-0.250000000000000,0.124640673932697));
#442=CARTESIAN_POINT('',(-1.153216870424780,-0.250000000000000,1.064991717895214));
#443=CARTESIAN_POINT('',(-2.502122912916198,-0.250000000000000,0.321059149089655));
#444=CARTESIAN_POINT('',(-1.307877087083802,-0.250000000000000,1.261410193052171));
#445=CARTESIAN_POINT('',(-2.656783129575220,-0.250000000000000,0.517477624246613));
#446=CARTESIAN_POINT('',(-1.462537303742824,-0.250000000000000,1.457828668209129));
#447=CARTESIAN_POINT('',(-2.656783129575220,3.061516E-017,0.517477624246613));
#448=CARTESIAN_POINT('',(-1.462537303742824,3.061516E-017,1.457828668209129));
#456=(BOUNDED_SURFACE()B_SPLINE_SURFACE(1,2,((#431,#433,#435,#437,#439,#441,#443,#445,#447),(#432,#434,#436,#438,#440,#442,#444,#446,#448)),.UNSPECIFIED.,.F.,.T.,.U.)B_SPLINE_SURFACE_WITH_KNOTS((2,2),(3,2,2,2,3),(-0.972099965555515,5.108009478721939),(0.0,0.392699081698724,0.785398163397448,1.178097245096172,1.570796326794897),.UNSPECIFIED.)GEOMETRIC_REPRESENTATION_ITEM()RATIONAL_B_SPLINE_SURFACE(((1.0,0.707106781186548,1.0,0.707106781186548,1.0,0.707106781186548,1.0,0.707106781186548,1.0),(1.0,0.707106781186548,1.0,0.707106781186548,1.0,0.707106781186548,1.0,0.707106781186548,1.0)))REPRESENTATION_ITEM('')SURFACE());
#457=ORIENTED_EDGE('',*,*,#278,.T.);
#458=ORIENTED_EDGE('',*,*,#106,.T.);
#459=ORIENTED_EDGE('',*,*,#285,.F.);
#460=ORIENTED_EDGE('',*,*,#424,.F.);
#461=EDGE_LOOP('',(#457,#458,#459,#460));
#462=FACE_OUTER_BOUND('',#461,.T.);
#463=ADVANCED_FACE('',(#462),#456,.T.);
#464=CARTESIAN_POINT('',(-2.790000000000000,3.061516E-017,-5.204577E-017));
#465=CARTESIAN_POINT('',(-2.790000000000000,-0.250000000000000,-5.204577E-017));
#466=CARTESIAN_POINT('',(-2.540000000000000,-0.250000000000000,-3.673819E-017));
#467=CARTESIAN_POINT('',(-2.290000000000000,-0.250000000000000,-2.143061E-017));
#468=CARTESIAN_POINT('',(-2.290000000000000,-3.061617E-017,-2.143061E-017));
#469=CARTESIAN_POINT('',(-2.790000000000000,3.061516E-017,0.617969828368206));
#470=CARTESIAN_POINT('',(-2.790000000000000,-0.250000000000000,0.617969828368206));
#471=CARTESIAN_POINT('',(-2.540000000000000,-0.250000000000000,0.436213996495204));
#472=CARTESIAN_POINT('',(-2.290000000000000,-0.250000000000000,0.254458164622202));
#473=CARTESIAN_POINT('',(-2.290000000000000,-3.061617E-017,0.254458164622202));
#474=CARTESIAN_POINT('',(-2.202155724297096,3.061516E-017,0.808563155367758));
#475=CARTESIAN_POINT('',(-2.202155724297096,-0.250000000000000,0.808563155367758));
#476=CARTESIAN_POINT('',(-2.125051099503832,-0.250000000000000,0.570750462612535));
#477=CARTESIAN_POINT('',(-2.047946474710569,-0.250000000000000,0.332937769857312));
#478=CARTESIAN_POINT('',(-2.047946474710569,-3.061617E-017,0.332937769857312));
#486=(BOUNDED_SURFACE()B_SPLINE_SURFACE(2,2,((#464,#469,#474),(#465,#470,#475),(#466,#471,#476),(#467,#472,#477),(#468,#473,#478)),.UNSPECIFIED.,.F.,.F.,.U.)B_SPLINE_SURFACE_WITH_KNOTS((3,2,3),(3,3),(-1.224606E-016,1.570796326794897,3.141592653589793),(0.0,1.257266292250662),.UNSPECIFIED.)GEOMETRIC_REPRESENTATION_ITEM()RATIONAL_B_SPLINE_SURFACE(((1.0,0.808832028041995,1.0),(0.707106781186549,0.571930611869363,0.707106781186549),(1.0,0.808832028041995,1.0),(0.707106781186549,0.571930611869363,0.707106781186549),(1.0,0.808832028041995,1.0)))REPRESENTATION_ITEM('')SURFACE());
#487=ORIENTED_EDGE('',*,*,#97,.T.);
#488=ORIENTED_EDGE('',*,*,#228,.T.);
#489=ORIENTED_EDGE('',*,*,#115,.F.);
#490=ORIENTED_EDGE('',*,*,#292,.F.);
#491=EDGE_LOOP('',(#487,#488,#489,#490));
#492=FACE_OUTER_BOUND('',#491,.T.);
#493=ADVANCED_FACE('',(#492),#486,.T.);
#494=CARTESIAN_POINT('',(-2.790000000000000,3.061516E-017,-2.908765328929087));
#495=CARTESIAN_POINT('',(-2.790000000000000,3.061516E-017,0.0));
#496=CARTESIAN_POINT('',(-2.790000000000000,0.250000000000000,-2.908765328929087));
#497=CARTESIAN_POINT('',(-2.790000000000000,0.250000000000000,0.0));
#498=CARTESIAN_POINT('',(-2.540000000000000,0.250000000000000,-2.908765328929087));
#499=CARTESIAN_POINT('',(-2.540000000000000,0.250000000000000,0.0));
#500=CARTESIAN_POINT('',(-2.290000000000000,0.250000000000000,-2.908765328929087));
#501=CARTESIAN_POINT('',(-2.290000000000000,0.250000000000000,0.0));
#502=CARTESIAN_POINT('',(-2.290000000000000,-3.061516E-017,-2.908765328929087));
#503=CARTESIAN_POINT('',(-2.290000000000000,-3.061516E-017,0.0));
#504=CARTESIAN_POINT('',(-2.290000000000000,-0.250000000000000,-2.908765328929087));
#505=CARTESIAN_POINT('',(-2.290000000000000,-0.250000000000000,0.0));
#506=CARTESIAN_POINT('',(-2.540000000000000,-0.250000000000000,-2.908765328929087));
#507=CARTESIAN_POINT('',(-2.540000000000000,-0.250000000000000,0.0));
#508=CARTESIAN_POINT('',(-2.790000000000000,-0.250000000000000,-2.908765328929087));
#509=CARTESIAN_POINT('',(-2.790000000000000,-0.250000000000000,0.0));
#510=CARTESIAN_POINT('',(-2.790000000000000,3.061516E-017,-2.908765328929087));
#511=CARTESIAN_POINT('',(-2.790000000000000,3.061516E-017,0.0));
#519=(BOUNDED_SURFACE()B_SPLINE_SURFACE(1,2,((#494,#496,#498,#500,#502,#504,#506,#508,#510),(#495,#497,#499,#501,#503,#505,#507,#509,#511)),.UNSPECIFIED.,.F.,.T.,.U.)B_SPLINE_SURFACE_WITH_KNOTS((2,2),(3,2,2,2,3),(0.0,11.635061315716348),(0.0,0.392699081698724,0.785398163397448,1.178097245096172,1.570796326794897),.UNSPECIFIED.)GEOMETRIC_REPRESENTATION_ITEM()RATIONAL_B_SPLINE_SURFACE(((1.0,0.707106781186548,1.0,0.707106781186548,1.0,0.707106781186548,1.0,0.707106781186548,1.0),(1.0,0.707106781186548,1.0,0.707106781186548,1.0,0.707106781186548,1.0,0.707106781186548,1.0)))REPRESENTATION_ITEM('')SURFACE());
#520=ORIENTED_EDGE('',*,*,#221,.T.);
#521=CARTESIAN_POINT('',(-2.540000000000000,0.0,-2.908765328929087));
#522=DIRECTION('',(0.0,0.0,1.0));
#523=DIRECTION('',(1.0,0.0,0.0));
#524=AXIS2_PLACEMENT_3D('',#521,#522,#523);
#525=CIRCLE('',#524,0.250000000000000);
#526=EDGE_CURVE('',#216,#231,#525,.T.);
#527=ORIENTED_EDGE('',*,*,#526,.T.);
#528=ORIENTED_EDGE('',*,*,#236,.F.);
#529=ORIENTED_EDGE('',*,*,#122,.F.);
#530=EDGE_LOOP('',(#520,#527,#528,#529));
#531=FACE_OUTER_BOUND('',#530,.T.);
#532=ADVANCED_FACE('',(#531),#519,.T.);
#533=CARTESIAN_POINT('',(-1.520000000000000,0.250000000000000,1.892469342141826));
#534=CARTESIAN_POINT('',(-1.020000000000000,0.250000000000000,1.892469342141826));
#535=CARTESIAN_POINT('',(-1.520000000000000,-0.250000000000000,1.892469342141826));
#536=CARTESIAN_POINT('',(-1.020000000000000,-0.250000000000000,1.892469342141826));
#537=B_SPLINE_SURFACE_WITH_KNOTS('',1,1,((#533,#535),(#534,#536)),.UNSPECIFIED.,.F.,.F.,.U.,(2,2),(2,2),(0.0,0.500000000000000),(0.0,0.500000000000000),.UNSPECIFIED.);
#538=ORIENTED_EDGE('',*,*,#390,.T.);
#539=ORIENTED_EDGE('',*,*,#338,.T.);
#540=EDGE_LOOP('',(#538,#539));
#541=FACE_OUTER_BOUND('',#540,.T.);
#542=ADVANCED_FACE('',(#541),#537,.F.);
#543=CARTESIAN_POINT('',(-2.790000000000000,0.250000000000000,-2.908765328929087));
#544=CARTESIAN_POINT('',(-2.290000000000000,0.250000000000000,-2.908765328929087));
#545=CARTESIAN_POINT('',(-2.790000000000000,-0.250000000000000,-2.908765328929087));
#546=CARTESIAN_POINT('',(-2.290000000000000,-0.250000000000000,-2.908765328929087));
#547=B_SPLINE_SURFACE_WITH_KNOTS('',1,1,((#543,#545),(#544,#546)),.UNSPECIFIED.,.F.,.F.,.U.,(2,2),(2,2),(0.0,0.500000000000000),(0.0,0.500000000000000),.UNSPECIFIED.);
#548=ORIENTED_EDGE('',*,*,#526,.F.);
#549=ORIENTED_EDGE('',*,*,#243,.F.);
#550=EDGE_LOOP('',(#548,#549));
#551=FACE_OUTER_BOUND('',#550,.T.);
#552=ADVANCED_FACE('',(#551),#547,.T.);
#553=CLOSED_SHELL('',(#126,#188,#247,#296,#349,#394,#430,#463,#493,#532,#542,#552));
#554=MANIFOLD_SOLID_BREP('1D5',#553);
#555=COLOUR_RGB('253',0.732000000000000,0.732000000000000,0.732000000000000);
#556=SURFACE_STYLE_USAGE(.BOTH.,#557);
#557=SURFACE_SIDE_STYLE('NONE',(#558));
#558=SURFACE_STYLE_FILL_AREA(#559);
#559=FILL_AREA_STYLE('NONE',(#560));
#560=FILL_AREA_STYLE_COLOUR('NONE',#555);
#561=PRESENTATION_STYLE_ASSIGNMENT((#556));
#562=STYLED_ITEM('NONE',(#561),#554);
#563=MECHANICAL_DESIGN_GEOMETRIC_PRESENTATION_REPRESENTATION('NONE',(#562,#857,#995,#1084,#1337,#1348,#1357,#1364,#1371),#28);
#564=PRESENTATION_LAYER_ASSIGNMENT('3D','None',(#554,#856,#987,#1083,#1336));
#565=CARTESIAN_POINT('',(1.940000000000000,0.0,0.0));
#566=DIRECTION('',(0.0,-1.0,0.0));
#567=DIRECTION('',(0.0,0.0,-1.0));
#568=AXIS2_PLACEMENT_3D('',#565,#566,#567);
#569=TOROIDAL_SURFACE('',#568,0.600000000000000,0.250000000000000);
#570=CARTESIAN_POINT('',(2.465844736640674,3.061516E-017,0.667822815533656));
#571=VERTEX_POINT('',#570);
#572=CARTESIAN_POINT('',(2.790000000000000,3.061516E-017,0.0));
#573=VERTEX_POINT('',#572);
#574=CARTESIAN_POINT('',(1.940000000000000,0.0,0.0));
#575=DIRECTION('',(0.0,1.0,0.0));
#576=DIRECTION('',(0.0,0.0,-1.0));
#577=AXIS2_PLACEMENT_3D('',#574,#575,#576);
#578=CIRCLE('',#577,0.850000000000000);
#579=EDGE_CURVE('',#571,#573,#578,.T.);
#580=ORIENTED_EDGE('',*,*,#579,.F.);
#581=CARTESIAN_POINT('',(2.156524303322631,0.0,0.274985865219741));
#582=VERTEX_POINT('',#581);
#583=CARTESIAN_POINT('',(2.311184519981652,0.0,0.471404340376699));
#584=DIRECTION('',(0.785673900627831,-2.220446E-016,-0.618640866636087));
#585=DIRECTION('',(-0.618640866636087,0.0,-0.785673900627831));
#586=AXIS2_PLACEMENT_3D('',#583,#584,#585);
#587=CIRCLE('',#586,0.250000000000000);
#588=EDGE_CURVE('',#571,#582,#587,.T.);
#589=ORIENTED_EDGE('',*,*,#588,.T.);
#590=CARTESIAN_POINT('',(2.290000000000000,0.0,0.0));
#591=VERTEX_POINT('',#590);
#592=CARTESIAN_POINT('',(1.940000000000000,3.061516E-017,0.0));
#593=DIRECTION('',(0.0,1.0,0.0));
#594=DIRECTION('',(0.0,0.0,-1.0));
#595=AXIS2_PLACEMENT_3D('',#592,#593,#594);
#596=CIRCLE('',#595,0.350000000000000);
#597=EDGE_CURVE('',#582,#591,#596,.T.);
#598=ORIENTED_EDGE('',*,*,#597,.T.);
#599=CARTESIAN_POINT('',(2.540000000000000,0.0,0.0));
#600=DIRECTION('',(0.0,0.0,-1.0));
#601=DIRECTION('',(-1.0,0.0,0.0));
#602=AXIS2_PLACEMENT_3D('',#599,#600,#601);
#603=CIRCLE('',#602,0.250000000000000);
#604=EDGE_CURVE('',#573,#591,#603,.T.);
#605=ORIENTED_EDGE('',*,*,#604,.F.);
#606=EDGE_LOOP('',(#580,#589,#598,#605));
#607=FACE_OUTER_BOUND('',#606,.T.);
#608=ADVANCED_FACE('',(#607),#569,.T.);
#609=CARTESIAN_POINT('',(1.870000000000000,0.0,1.582469342141826));
#610=DIRECTION('',(0.0,1.0,0.0));
#611=DIRECTION('',(0.0,0.0,1.0));
#612=AXIS2_PLACEMENT_3D('',#609,#610,#611);
#613=TOROIDAL_SURFACE('',#612,0.600000000000000,0.250000000000000);
#614=CARTESIAN_POINT('',(1.020000000000001,0.0,1.582469342141826));
#615=VERTEX_POINT('',#614);
#616=CARTESIAN_POINT('',(1.344155263359326,0.0,0.914646526608170));
#617=VERTEX_POINT('',#616);
#618=CARTESIAN_POINT('',(1.870000000000000,0.0,1.582469342141826));
#619=DIRECTION('',(0.0,-1.0,0.0));
#620=DIRECTION('',(0.0,0.0,1.0));
#621=AXIS2_PLACEMENT_3D('',#618,#619,#620);
#622=CIRCLE('',#621,0.850000000000000);
#623=EDGE_CURVE('',#615,#617,#622,.T.);
#624=ORIENTED_EDGE('',*,*,#623,.F.);
#625=CARTESIAN_POINT('',(1.520000000000000,3.061516E-017,1.582469342141826));
#626=VERTEX_POINT('',#625);
#627=CARTESIAN_POINT('',(1.270000000000000,0.0,1.582469342141826));
#628=DIRECTION('',(0.0,0.0,-1.0));
#629=DIRECTION('',(-1.0,0.0,0.0));
#630=AXIS2_PLACEMENT_3D('',#627,#628,#629);
#631=CIRCLE('',#630,0.250000000000000);
#632=EDGE_CURVE('',#615,#626,#631,.T.);
#633=ORIENTED_EDGE('',*,*,#632,.T.);
#634=CARTESIAN_POINT('',(1.653475696677370,3.061516E-017,1.307483476922085));
#635=VERTEX_POINT('',#634);
#636=CARTESIAN_POINT('',(1.870000000000000,-3.061516E-017,1.582469342141826));
#637=DIRECTION('',(0.0,-1.0,0.0));
#638=DIRECTION('',(0.0,0.0,1.0));
#639=AXIS2_PLACEMENT_3D('',#636,#637,#638);
#640=CIRCLE('',#639,0.350000000000000);
#641=EDGE_CURVE('',#626,#635,#640,.T.);
#642=ORIENTED_EDGE('',*,*,#641,.T.);
#643=CARTESIAN_POINT('',(1.498815480018348,0.0,1.111065001765127));
#644=DIRECTION('',(0.785673900627831,-2.220446E-016,-0.618640866636087));
#645=DIRECTION('',(-0.618640866636087,0.0,-0.785673900627831));
#646=AXIS2_PLACEMENT_3D('',#643,#644,#645);
#647=CIRCLE('',#646,0.250000000000000);
#648=EDGE_CURVE('',#617,#635,#647,.T.);
#649=ORIENTED_EDGE('',*,*,#648,.F.);
#650=EDGE_LOOP('',(#624,#633,#642,#649));
#651=FACE_OUTER_BOUND('',#650,.T.);
#652=ADVANCED_FACE('',(#651),#613,.T.);
#653=CARTESIAN_POINT('',(2.540000000000000,0.0,-2.908765328929087));
#654=DIRECTION('',(0.0,0.0,1.0));
#655=DIRECTION('',(-1.0,0.0,0.0));
#656=AXIS2_PLACEMENT_3D('',#653,#654,#655);
#657=CYLINDRICAL_SURFACE('',#656,0.250000000000000);
#658=CARTESIAN_POINT('',(2.290000000000000,0.0,-2.908765328929087));
#659=VERTEX_POINT('',#658);
#660=CARTESIAN_POINT('',(2.290000000000000,0.0,0.0));
#661=DIRECTION('',(0.0,0.0,-1.0));
#662=VECTOR('',#661,2.908765328929087);
#663=LINE('',#660,#662);
#664=EDGE_CURVE('',#591,#659,#663,.T.);
#665=ORIENTED_EDGE('',*,*,#664,.F.);
#666=CARTESIAN_POINT('',(2.540000000000000,0.0,0.0));
#667=DIRECTION('',(0.0,0.0,-1.0));
#668=DIRECTION('',(-1.0,0.0,0.0));
#669=AXIS2_PLACEMENT_3D('',#666,#667,#668);
#670=CIRCLE('',#669,0.250000000000000);
#671=EDGE_CURVE('',#591,#573,#670,.T.);
#672=ORIENTED_EDGE('',*,*,#671,.T.);
#673=CARTESIAN_POINT('',(2.790000000000000,3.061516E-017,-2.908765328929087));
#674=VERTEX_POINT('',#673);
#675=CARTESIAN_POINT('',(2.790000000000000,3.061516E-017,0.0));
#676=DIRECTION('',(0.0,0.0,-1.0));
#677=VECTOR('',#676,2.908765328929087);
#678=LINE('',#675,#677);
#679=EDGE_CURVE('',#573,#674,#678,.T.);
#680=ORIENTED_EDGE('',*,*,#679,.T.);
#681=CARTESIAN_POINT('',(2.540000000000000,0.0,-2.908765328929087));
#682=DIRECTION('',(0.0,0.0,-1.0));
#683=DIRECTION('',(-1.0,0.0,0.0));
#684=AXIS2_PLACEMENT_3D('',#681,#682,#683);
#685=CIRCLE('',#684,0.250000000000000);
#686=EDGE_CURVE('',#659,#674,#685,.T.);
#687=ORIENTED_EDGE('',*,*,#686,.F.);
#688=EDGE_LOOP('',(#665,#672,#680,#687));
#689=FACE_OUTER_BOUND('',#688,.T.);
#690=ADVANCED_FACE('',(#689),#657,.T.);
#691=CARTESIAN_POINT('',(2.311184519981652,0.0,0.471404340376699));
#692=DIRECTION('',(-0.785673900627831,0.0,0.618640866636088));
#693=DIRECTION('',(-0.618640866636088,0.0,-0.785673900627831));
#694=AXIS2_PLACEMENT_3D('',#691,#692,#693);
#695=CYLINDRICAL_SURFACE('',#694,0.250000000000000);
#696=CARTESIAN_POINT('',(1.344155263359326,0.0,0.914646526608170));
#697=DIRECTION('',(0.785673900627831,0.0,-0.618640866636087));
#698=VECTOR('',#697,1.033977378291606);
#699=LINE('',#696,#698);
#700=EDGE_CURVE('',#617,#582,#699,.T.);
#701=ORIENTED_EDGE('',*,*,#700,.F.);
#702=ORIENTED_EDGE('',*,*,#648,.T.);
#703=CARTESIAN_POINT('',(1.653475696677370,3.061516E-017,1.307483476922085));
#704=DIRECTION('',(0.785673900627831,0.0,-0.618640866636087));
#705=VECTOR('',#704,1.033977378291606);
#706=LINE('',#703,#705);
#707=EDGE_CURVE('',#635,#571,#706,.T.);
#708=ORIENTED_EDGE('',*,*,#707,.T.);
#709=CARTESIAN_POINT('',(2.311184519981652,0.0,0.471404340376699));
#710=DIRECTION('',(0.785673900627831,-2.220446E-016,-0.618640866636087));
#711=DIRECTION('',(-0.618640866636087,0.0,-0.785673900627831));
#712=AXIS2_PLACEMENT_3D('',#709,#710,#711);
#713=CIRCLE('',#712,0.250000000000000);
#714=EDGE_CURVE('',#582,#571,#713,.T.);
#715=ORIENTED_EDGE('',*,*,#714,.F.);
#716=EDGE_LOOP('',(#701,#702,#708,#715));
#717=FACE_OUTER_BOUND('',#716,.T.);
#718=ADVANCED_FACE('',(#717),#695,.T.);
#719=CARTESIAN_POINT('',(1.270000000000000,0.0,1.582469342141826));
#720=DIRECTION('',(0.0,0.0,1.0));
#721=DIRECTION('',(-1.0,0.0,0.0));
#722=AXIS2_PLACEMENT_3D('',#719,#720,#721);
#723=CYLINDRICAL_SURFACE('',#722,0.250000000000000);
#724=CARTESIAN_POINT('',(1.020000000000001,0.0,1.892469342141826));
#725=VERTEX_POINT('',#724);
#726=CARTESIAN_POINT('',(1.020000000000000,0.0,1.892469342141826));
#727=DIRECTION('',(0.0,0.0,-1.0));
#728=VECTOR('',#727,0.310000000000000);
#729=LINE('',#726,#728);
#730=EDGE_CURVE('',#725,#615,#729,.T.);
#731=ORIENTED_EDGE('',*,*,#730,.F.);
#732=CARTESIAN_POINT('',(1.520000000000000,3.061516E-017,1.892469342141826));
#733=VERTEX_POINT('',#732);
#734=CARTESIAN_POINT('',(1.270000000000000,0.0,1.892469342141826));
#735=DIRECTION('',(0.0,0.0,-1.0));
#736=DIRECTION('',(-1.0,0.0,0.0));
#737=AXIS2_PLACEMENT_3D('',#734,#735,#736);
#738=CIRCLE('',#737,0.250000000000000);
#739=EDGE_CURVE('',#725,#733,#738,.T.);
#740=ORIENTED_EDGE('',*,*,#739,.T.);
#741=CARTESIAN_POINT('',(1.520000000000000,3.061516E-017,1.892469342141826));
#742=DIRECTION('',(0.0,0.0,-1.0));
#743=VECTOR('',#742,0.310000000000000);
#744=LINE('',#741,#743);
#745=EDGE_CURVE('',#733,#626,#744,.T.);
#746=ORIENTED_EDGE('',*,*,#745,.T.);
#747=ORIENTED_EDGE('',*,*,#632,.F.);
#748=EDGE_LOOP('',(#731,#740,#746,#747));
#749=FACE_OUTER_BOUND('',#748,.T.);
#750=ADVANCED_FACE('',(#749),#723,.T.);
#751=CARTESIAN_POINT('',(1.270000000000000,0.0,1.582469342141826));
#752=DIRECTION('',(0.0,0.0,1.0));
#753=DIRECTION('',(-1.0,0.0,0.0));
#754=AXIS2_PLACEMENT_3D('',#751,#752,#753);
#755=CYLINDRICAL_SURFACE('',#754,0.250000000000000);
#756=ORIENTED_EDGE('',*,*,#730,.T.);
#757=CARTESIAN_POINT('',(1.270000000000000,0.0,1.582469342141826));
#758=DIRECTION('',(0.0,0.0,-1.0));
#759=DIRECTION('',(-1.0,0.0,0.0));
#760=AXIS2_PLACEMENT_3D('',#757,#758,#759);
#761=CIRCLE('',#760,0.250000000000000);
#762=EDGE_CURVE('',#626,#615,#761,.T.);
#763=ORIENTED_EDGE('',*,*,#762,.F.);
#764=ORIENTED_EDGE('',*,*,#745,.F.);
#765=CARTESIAN_POINT('',(1.270000000000000,0.0,1.892469342141826));
#766=DIRECTION('',(0.0,0.0,-1.0));
#767=DIRECTION('',(-1.0,0.0,0.0));
#768=AXIS2_PLACEMENT_3D('',#765,#766,#767);
#769=CIRCLE('',#768,0.250000000000000);
#770=EDGE_CURVE('',#733,#725,#769,.T.);
#771=ORIENTED_EDGE('',*,*,#770,.T.);
#772=EDGE_LOOP('',(#756,#763,#764,#771));
#773=FACE_OUTER_BOUND('',#772,.T.);
#774=ADVANCED_FACE('',(#773),#755,.T.);
#775=CARTESIAN_POINT('',(1.870000000000000,0.0,1.582469342141826));
#776=DIRECTION('',(0.0,1.0,0.0));
#777=DIRECTION('',(0.0,0.0,1.0));
#778=AXIS2_PLACEMENT_3D('',#775,#776,#777);
#779=TOROIDAL_SURFACE('',#778,0.600000000000000,0.250000000000000);
#780=ORIENTED_EDGE('',*,*,#623,.T.);
#781=CARTESIAN_POINT('',(1.498815480018348,0.0,1.111065001765127));
#782=DIRECTION('',(0.785673900627831,-2.220446E-016,-0.618640866636087));
#783=DIRECTION('',(-0.618640866636087,0.0,-0.785673900627831));
#784=AXIS2_PLACEMENT_3D('',#781,#782,#783);
#785=CIRCLE('',#784,0.250000000000000);
#786=EDGE_CURVE('',#635,#617,#785,.T.);
#787=ORIENTED_EDGE('',*,*,#786,.F.);
#788=ORIENTED_EDGE('',*,*,#641,.F.);
#789=ORIENTED_EDGE('',*,*,#762,.T.);
#790=EDGE_LOOP('',(#780,#787,#788,#789));
#791=FACE_OUTER_BOUND('',#790,.T.);
#792=ADVANCED_FACE('',(#791),#779,.T.);
#793=CARTESIAN_POINT('',(2.311184519981652,0.0,0.471404340376699));
#794=DIRECTION('',(-0.785673900627831,0.0,0.618640866636088));
#795=DIRECTION('',(-0.618640866636088,0.0,-0.785673900627831));
#796=AXIS2_PLACEMENT_3D('',#793,#794,#795);
#797=CYLINDRICAL_SURFACE('',#796,0.250000000000000);
#798=ORIENTED_EDGE('',*,*,#700,.T.);
#799=ORIENTED_EDGE('',*,*,#588,.F.);
#800=ORIENTED_EDGE('',*,*,#707,.F.);
#801=ORIENTED_EDGE('',*,*,#786,.T.);
#802=EDGE_LOOP('',(#798,#799,#800,#801));
#803=FACE_OUTER_BOUND('',#802,.T.);
#804=ADVANCED_FACE('',(#803),#797,.T.);
#805=CARTESIAN_POINT('',(1.940000000000000,0.0,0.0));
#806=DIRECTION('',(0.0,-1.0,0.0));
#807=DIRECTION('',(0.0,0.0,-1.0));
#808=AXIS2_PLACEMENT_3D('',#805,#806,#807);
#809=TOROIDAL_SURFACE('',#808,0.600000000000000,0.250000000000000);
#810=ORIENTED_EDGE('',*,*,#579,.T.);
#811=ORIENTED_EDGE('',*,*,#671,.F.);
#812=ORIENTED_EDGE('',*,*,#597,.F.);
#813=ORIENTED_EDGE('',*,*,#714,.T.);
#814=EDGE_LOOP('',(#810,#811,#812,#813));
#815=FACE_OUTER_BOUND('',#814,.T.);
#816=ADVANCED_FACE('',(#815),#809,.T.);
#817=CARTESIAN_POINT('',(2.540000000000000,0.0,-2.908765328929087));
#818=DIRECTION('',(0.0,0.0,1.0));
#819=DIRECTION('',(-1.0,0.0,0.0));
#820=AXIS2_PLACEMENT_3D('',#817,#818,#819);
#821=CYLINDRICAL_SURFACE('',#820,0.250000000000000);
#822=ORIENTED_EDGE('',*,*,#664,.T.);
#823=CARTESIAN_POINT('',(2.540000000000000,0.0,-2.908765328929087));
#824=DIRECTION('',(0.0,0.0,-1.0));
#825=DIRECTION('',(-1.0,0.0,0.0));
#826=AXIS2_PLACEMENT_3D('',#823,#824,#825);
#827=CIRCLE('',#826,0.250000000000000);
#828=EDGE_CURVE('',#674,#659,#827,.T.);
#829=ORIENTED_EDGE('',*,*,#828,.F.);
#830=ORIENTED_EDGE('',*,*,#679,.F.);
#831=ORIENTED_EDGE('',*,*,#604,.T.);
#832=EDGE_LOOP('',(#822,#829,#830,#831));
#833=FACE_OUTER_BOUND('',#832,.T.);
#834=ADVANCED_FACE('',(#833),#821,.T.);
#835=CARTESIAN_POINT('',(1.270000000000000,2.819966E-016,1.892469342141826));
#836=DIRECTION('',(0.0,0.0,-1.0));
#837=DIRECTION('',(-1.0,0.0,0.0));
#838=AXIS2_PLACEMENT_3D('',#835,#836,#837);
#839=PLANE('',#838);
#840=ORIENTED_EDGE('',*,*,#739,.F.);
#841=ORIENTED_EDGE('',*,*,#770,.F.);
#842=EDGE_LOOP('',(#840,#841));
#843=FACE_OUTER_BOUND('',#842,.T.);
#844=ADVANCED_FACE('',(#843),#839,.F.);
#845=CARTESIAN_POINT('',(2.540000000000000,0.0,-2.908765328929087));
#846=DIRECTION('',(0.0,0.0,-1.0));
#847=DIRECTION('',(-1.0,0.0,0.0));
#848=AXIS2_PLACEMENT_3D('',#845,#846,#847);
#849=PLANE('',#848);
#850=ORIENTED_EDGE('',*,*,#686,.T.);
#851=ORIENTED_EDGE('',*,*,#828,.T.);
#852=EDGE_LOOP('',(#850,#851));
#853=FACE_OUTER_BOUND('',#852,.T.);
#854=ADVANCED_FACE('',(#853),#849,.T.);
#855=CLOSED_SHELL('',(#608,#652,#690,#718,#750,#774,#792,#804,#816,#834,#844,#854));
#856=MANIFOLD_SOLID_BREP('1D1',#855);
#857=STYLED_ITEM('NONE',(#561),#856);
#858=CARTESIAN_POINT('',(1.770000000000000,3.280877E-015,3.391234671070914));
#859=CARTESIAN_POINT('',(1.519999999999999,-1.024097E-015,1.891234671070911));
#860=CARTESIAN_POINT('',(1.770000000000000,0.500000000000003,3.391234671070913));
#861=CARTESIAN_POINT('',(1.519999999999999,0.249999999999998,1.891234671070911));
#862=CARTESIAN_POINT('',(1.270000000000000,0.500000000000004,3.391234671070913));
#863=CARTESIAN_POINT('',(1.269999999999999,0.249999999999999,1.891234671070911));
#864=CARTESIAN_POINT('',(0.770000000000000,0.500000000000003,3.391234671070913));
#865=CARTESIAN_POINT('',(1.020000000000000,0.249999999999999,1.891234671070911));
#866=CARTESIAN_POINT('',(0.770000000000000,3.380461E-015,3.391234671070914));
#867=CARTESIAN_POINT('',(1.020000000000000,-9.743047E-016,1.891234671070911));
#868=CARTESIAN_POINT('',(0.770000000000000,-0.499999999999997,3.391234671070916));
#869=CARTESIAN_POINT('',(1.020000000000000,-0.250000000000001,1.891234671070912));
#870=CARTESIAN_POINT('',(1.270000000000000,-0.499999999999997,3.391234671070916));
#871=CARTESIAN_POINT('',(1.269999999999999,-0.250000000000001,1.891234671070912));
#872=CARTESIAN_POINT('',(1.770000000000000,-0.499999999999997,3.391234671070916));
#873=CARTESIAN_POINT('',(1.519999999999999,-0.250000000000001,1.891234671070912));
#874=CARTESIAN_POINT('',(1.770000000000000,3.280877E-015,3.391234671070914));
#875=CARTESIAN_POINT('',(1.519999999999999,-1.024097E-015,1.891234671070911));
#883=(BOUNDED_SURFACE()B_SPLINE_SURFACE(1,2,((#858,#860,#862,#864,#866,#868,#870,#872,#874),(#859,#861,#863,#865,#867,#869,#871,#873,#875)),.UNSPECIFIED.,.F.,.T.,.U.)B_SPLINE_SURFACE_WITH_KNOTS((2,2),(3,2,2,2,3),(-6.082762530298226,9.769963E-015),(0.0,0.392699081698724,0.785398163397448,1.178097245096172,1.570796326794897),.UNSPECIFIED.)GEOMETRIC_REPRESENTATION_ITEM()RATIONAL_B_SPLINE_SURFACE(((1.0,0.707106781186548,1.0,0.707106781186548,1.0,0.707106781186548,1.0,0.707106781186548,1.0),(1.0,0.707106781186548,1.0,0.707106781186548,1.0,0.707106781186548,1.0,0.707106781186548,1.0)))REPRESENTATION_ITEM('')SURFACE());
#884=CARTESIAN_POINT('',(1.020000000000000,5.551115E-017,1.891234671070913));
#885=VERTEX_POINT('',#884);
#886=CARTESIAN_POINT('',(0.770000000000000,3.441691E-015,3.391234671070913));
#887=VERTEX_POINT('',#886);
#888=CARTESIAN_POINT('',(1.019999999999999,-9.436896E-016,1.891234671070913));
#889=DIRECTION('',(-0.164398987305357,2.883809E-015,0.986393923832144));
#890=VECTOR('',#889,1.520690632574555);
#891=LINE('',#888,#890);
#892=EDGE_CURVE('',#885,#887,#891,.T.);
#893=ORIENTED_EDGE('',*,*,#892,.F.);
#894=CARTESIAN_POINT('',(1.519999999999999,-1.024097E-015,1.891234671070913));
#895=VERTEX_POINT('',#894);
#896=CARTESIAN_POINT('',(1.270000000000000,-7.888609E-031,1.891234671070913));
#897=DIRECTION('',(0.0,0.0,-1.0));
#898=DIRECTION('',(-1.0,0.0,0.0));
#899=AXIS2_PLACEMENT_3D('',#896,#897,#898);
#900=CIRCLE('',#899,0.250000000000000);
#901=EDGE_CURVE('',#895,#885,#900,.T.);
#902=ORIENTED_EDGE('',*,*,#901,.F.);
#903=CARTESIAN_POINT('',(1.770000000000000,3.280877E-015,3.391234671070913));
#904=VERTEX_POINT('',#903);
#905=CARTESIAN_POINT('',(1.519999999999999,-1.024097E-015,1.891234671070913));
#906=DIRECTION('',(0.164398987305358,2.830933E-015,0.986393923832144));
#907=VECTOR('',#906,1.520690632574555);
#908=LINE('',#905,#907);
#909=EDGE_CURVE('',#895,#904,#908,.T.);
#910=ORIENTED_EDGE('',*,*,#909,.T.);
#911=CARTESIAN_POINT('',(1.270000000000000,3.330669E-015,3.391234671070913));
#912=DIRECTION('',(0.0,0.0,-1.0));
#913=DIRECTION('',(-1.0,0.0,0.0));
#914=AXIS2_PLACEMENT_3D('',#911,#912,#913);
#915=CIRCLE('',#914,0.500000000000000);
#916=EDGE_CURVE('',#904,#887,#915,.T.);
#917=ORIENTED_EDGE('',*,*,#916,.T.);
#918=EDGE_LOOP('',(#893,#902,#910,#917));
#919=FACE_OUTER_BOUND('',#918,.T.);
#920=ADVANCED_FACE('',(#919),#883,.T.);
#921=CARTESIAN_POINT('',(1.020000000000000,-0.250000000000000,1.891234671070914));
#922=CARTESIAN_POINT('',(1.520000000000000,-0.250000000000000,1.891234671070914));
#923=CARTESIAN_POINT('',(1.020000000000000,0.250000000000000,1.891234671070913));
#924=CARTESIAN_POINT('',(1.520000000000000,0.250000000000000,1.891234671070913));
#925=B_SPLINE_SURFACE_WITH_KNOTS('',1,1,((#921,#923),(#922,#924)),.UNSPECIFIED.,.F.,.F.,.U.,(2,2),(2,2),(0.0,0.500000000000000),(0.0,0.500000000000000),.UNSPECIFIED.);
#926=CARTESIAN_POINT('',(1.270000000000000,-7.888609E-031,1.891234671070913));
#927=DIRECTION('',(0.0,0.0,-1.0));
#928=DIRECTION('',(-1.0,0.0,0.0));
#929=AXIS2_PLACEMENT_3D('',#926,#927,#928);
#930=CIRCLE('',#929,0.250000000000000);
#931=EDGE_CURVE('',#885,#895,#930,.T.);
#932=ORIENTED_EDGE('',*,*,#931,.T.);
#933=ORIENTED_EDGE('',*,*,#901,.T.);
#934=EDGE_LOOP('',(#932,#933));
#935=FACE_OUTER_BOUND('',#934,.T.);
#936=ADVANCED_FACE('',(#935),#925,.F.);
#937=CARTESIAN_POINT('',(1.770000000000000,3.280877E-015,3.391234671070914));
#938=CARTESIAN_POINT('',(1.519999999999999,-1.024097E-015,1.891234671070912));
#939=CARTESIAN_POINT('',(1.770000000000000,0.500000000000003,3.391234671070913));
#940=CARTESIAN_POINT('',(1.519999999999999,0.249999999999999,1.891234671070911));
#941=CARTESIAN_POINT('',(1.270000000000000,0.500000000000004,3.391234671070913));
#942=CARTESIAN_POINT('',(1.269999999999999,0.249999999999999,1.891234671070911));
#943=CARTESIAN_POINT('',(0.770000000000000,0.500000000000003,3.391234671070913));
#944=CARTESIAN_POINT('',(1.020000000000000,0.249999999999999,1.891234671070911));
#945=CARTESIAN_POINT('',(0.770000000000000,3.380461E-015,3.391234671070914));
#946=CARTESIAN_POINT('',(1.020000000000000,-9.743047E-016,1.891234671070912));
#947=CARTESIAN_POINT('',(0.770000000000000,-0.499999999999997,3.391234671070916));
#948=CARTESIAN_POINT('',(1.020000000000000,-0.250000000000001,1.891234671070913));
#949=CARTESIAN_POINT('',(1.270000000000000,-0.499999999999997,3.391234671070916));
#950=CARTESIAN_POINT('',(1.269999999999999,-0.250000000000001,1.891234671070913));
#951=CARTESIAN_POINT('',(1.770000000000000,-0.499999999999997,3.391234671070916));
#952=CARTESIAN_POINT('',(1.519999999999999,-0.250000000000001,1.891234671070913));
#953=CARTESIAN_POINT('',(1.770000000000000,3.280877E-015,3.391234671070914));
#954=CARTESIAN_POINT('',(1.519999999999999,-1.024097E-015,1.891234671070912));
#962=(BOUNDED_SURFACE()B_SPLINE_SURFACE(1,2,((#937,#939,#941,#943,#945,#947,#949,#951,#953),(#938,#940,#942,#944,#946,#948,#950,#952,#954)),.UNSPECIFIED.,.F.,.T.,.U.)B_SPLINE_SURFACE_WITH_KNOTS((2,2),(3,2,2,2,3),(-6.082762530298226,5.329071E-015),(0.0,0.392699081698724,0.785398163397448,1.178097245096172,1.570796326794897),.UNSPECIFIED.)GEOMETRIC_REPRESENTATION_ITEM()RATIONAL_B_SPLINE_SURFACE(((1.0,0.707106781186548,1.0,0.707106781186548,1.0,0.707106781186548,1.0,0.707106781186548,1.0),(1.0,0.707106781186548,1.0,0.707106781186548,1.0,0.707106781186548,1.0,0.707106781186548,1.0)))REPRESENTATION_ITEM('')SURFACE());
#963=ORIENTED_EDGE('',*,*,#892,.T.);
#964=CARTESIAN_POINT('',(1.270000000000000,3.330669E-015,3.391234671070913));
#965=DIRECTION('',(0.0,0.0,-1.0));
#966=DIRECTION('',(-1.0,0.0,0.0));
#967=AXIS2_PLACEMENT_3D('',#964,#965,#966);
#968=CIRCLE('',#967,0.500000000000000);
#969=EDGE_CURVE('',#887,#904,#968,.T.);
#970=ORIENTED_EDGE('',*,*,#969,.T.);
#971=ORIENTED_EDGE('',*,*,#909,.F.);
#972=ORIENTED_EDGE('',*,*,#931,.F.);
#973=EDGE_LOOP('',(#963,#970,#971,#972));
#974=FACE_OUTER_BOUND('',#973,.T.);
#975=ADVANCED_FACE('',(#974),#962,.T.);
#976=CARTESIAN_POINT('',(0.770000000000000,-0.499999999999997,3.391234671070915));
#977=CARTESIAN_POINT('',(1.770000000000000,-0.499999999999997,3.391234671070915));
#978=CARTESIAN_POINT('',(0.770000000000000,0.500000000000004,3.391234671070913));
#979=CARTESIAN_POINT('',(1.770000000000000,0.500000000000004,3.391234671070912));
#980=B_SPLINE_SURFACE_WITH_KNOTS('',1,1,((#976,#978),(#977,#979)),.UNSPECIFIED.,.F.,.F.,.U.,(2,2),(2,2),(0.0,1.0),(0.0,1.000000000000000),.UNSPECIFIED.);
#981=ORIENTED_EDGE('',*,*,#969,.F.);
#982=ORIENTED_EDGE('',*,*,#916,.F.);
#983=EDGE_LOOP('',(#981,#982));
#984=FACE_OUTER_BOUND('',#983,.T.);
#985=ADVANCED_FACE('',(#984),#980,.T.);
#986=CLOSED_SHELL('',(#920,#936,#975,#985));
#987=MANIFOLD_SOLID_BREP('15A',#986);
#988=COLOUR_RGB('40',1.0,0.750000000000000,0.0);
#989=SURFACE_STYLE_USAGE(.BOTH.,#990);
#990=SURFACE_SIDE_STYLE('NONE',(#991));
#991=SURFACE_STYLE_FILL_AREA(#992);
#992=FILL_AREA_STYLE('NONE',(#993));
#993=FILL_AREA_STYLE_COLOUR('NONE',#988);
#994=PRESENTATION_STYLE_ASSIGNMENT((#989));
#995=STYLED_ITEM('NONE',(#994),#987);
#996=CARTESIAN_POINT('',(-1.269999999999999,-9.992007E-016,1.891234671070913));
#997=DIRECTION('',(-4.440892E-016,2.886580E-015,1.0));
#998=DIRECTION('',(1.0,0.0,0.0));
#999=AXIS2_PLACEMENT_3D('',#996,#997,#998);
#1000=CONICAL_SURFACE('',#999,0.250000000000000,9.462322208025618);
#1001=CARTESIAN_POINT('',(-1.020000000000000,5.551115E-017,1.891234671070913));
#1002=VERTEX_POINT('',#1001);
#1003=CARTESIAN_POINT('',(-0.770000000000000,3.441691E-015,3.391234671070913));
#1004=VERTEX_POINT('',#1003);
#1005=CARTESIAN_POINT('',(-1.019999999999999,-9.436896E-016,1.891234671070913));
#1006=DIRECTION('',(0.164398987305357,2.883809E-015,0.986393923832144));
#1007=VECTOR('',#1006,1.520690632574555);
#1008=LINE('',#1005,#1007);
#1009=EDGE_CURVE('',#1002,#1004,#1008,.T.);
#1010=ORIENTED_EDGE('',*,*,#1009,.F.);
#1011=CARTESIAN_POINT('',(-1.519999999999999,-1.024097E-015,1.891234671070913));
#1012=VERTEX_POINT('',#1011);
#1013=CARTESIAN_POINT('',(-1.270000000000000,-7.888609E-031,1.891234671070913));
#1014=DIRECTION('',(0.0,0.0,1.0));
#1015=DIRECTION('',(1.0,0.0,0.0));
#1016=AXIS2_PLACEMENT_3D('',#1013,#1014,#1015);
#1017=CIRCLE('',#1016,0.250000000000000);
#1018=EDGE_CURVE('',#1002,#1012,#1017,.T.);
#1019=ORIENTED_EDGE('',*,*,#1018,.T.);
#1020=CARTESIAN_POINT('',(-1.770000000000000,3.280877E-015,3.391234671070913));
#1021=VERTEX_POINT('',#1020);
#1022=CARTESIAN_POINT('',(-1.519999999999999,-1.024097E-015,1.891234671070913));
#1023=DIRECTION('',(-0.164398987305358,2.830933E-015,0.986393923832144));
#1024=VECTOR('',#1023,1.520690632574555);
#1025=LINE('',#1022,#1024);
#1026=EDGE_CURVE('',#1012,#1021,#1025,.T.);
#1027=ORIENTED_EDGE('',*,*,#1026,.T.);
#1028=CARTESIAN_POINT('',(-1.270000000000000,3.330669E-015,3.391234671070913));
#1029=DIRECTION('',(0.0,0.0,1.0));
#1030=DIRECTION('',(1.0,0.0,0.0));
#1031=AXIS2_PLACEMENT_3D('',#1028,#1029,#1030);
#1032=CIRCLE('',#1031,0.500000000000000);
#1033=EDGE_CURVE('',#1004,#1021,#1032,.T.);
#1034=ORIENTED_EDGE('',*,*,#1033,.F.);
#1035=EDGE_LOOP('',(#1010,#1019,#1027,#1034));
#1036=FACE_OUTER_BOUND('',#1035,.T.);
#1037=ADVANCED_FACE('',(#1036),#1000,.T.);
#1038=CARTESIAN_POINT('',(-1.270000000000000,-7.888609E-031,1.891234671070913));
#1039=DIRECTION('',(0.0,0.0,1.0));
#1040=DIRECTION('',(-1.0,0.0,0.0));
#1041=AXIS2_PLACEMENT_3D('',#1038,#1039,#1040);
#1042=PLANE('',#1041);
#1043=ORIENTED_EDGE('',*,*,#1018,.F.);
#1044=CARTESIAN_POINT('',(-1.270000000000000,-7.888609E-031,1.891234671070913));
#1045=DIRECTION('',(0.0,0.0,1.0));
#1046=DIRECTION('',(1.0,0.0,0.0));
#1047=AXIS2_PLACEMENT_3D('',#1044,#1045,#1046);
#1048=CIRCLE('',#1047,0.250000000000000);
#1049=EDGE_CURVE('',#1012,#1002,#1048,.T.);
#1050=ORIENTED_EDGE('',*,*,#1049,.F.);
#1051=EDGE_LOOP('',(#1043,#1050));
#1052=FACE_OUTER_BOUND('',#1051,.T.);
#1053=ADVANCED_FACE('',(#1052),#1042,.F.);
#1054=CARTESIAN_POINT('',(-1.269999999999999,-9.992007E-016,1.891234671070913));
#1055=DIRECTION('',(-4.440892E-016,2.886580E-015,1.0));
#1056=DIRECTION('',(1.0,0.0,0.0));
#1057=AXIS2_PLACEMENT_3D('',#1054,#1055,#1056);
#1058=CONICAL_SURFACE('',#1057,0.250000000000000,9.462322208025618);
#1059=ORIENTED_EDGE('',*,*,#1009,.T.);
#1060=CARTESIAN_POINT('',(-1.270000000000000,3.330669E-015,3.391234671070913));
#1061=DIRECTION('',(0.0,0.0,1.0));
#1062=DIRECTION('',(1.0,0.0,0.0));
#1063=AXIS2_PLACEMENT_3D('',#1060,#1061,#1062);
#1064=CIRCLE('',#1063,0.500000000000000);
#1065=EDGE_CURVE('',#1021,#1004,#1064,.T.);
#1066=ORIENTED_EDGE('',*,*,#1065,.F.);
#1067=ORIENTED_EDGE('',*,*,#1026,.F.);
#1068=ORIENTED_EDGE('',*,*,#1049,.T.);
#1069=EDGE_LOOP('',(#1059,#1066,#1067,#1068));
#1070=FACE_OUTER_BOUND('',#1069,.T.);
#1071=ADVANCED_FACE('',(#1070),#1058,.T.);
#1072=CARTESIAN_POINT('',(-1.270000000000000,3.330669E-015,3.391234671070913));
#1073=DIRECTION('',(0.0,0.0,1.0));
#1074=DIRECTION('',(-1.0,0.0,0.0));
#1075=AXIS2_PLACEMENT_3D('',#1072,#1073,#1074);
#1076=PLANE('',#1075);
#1077=ORIENTED_EDGE('',*,*,#1033,.T.);
#1078=ORIENTED_EDGE('',*,*,#1065,.T.);
#1079=EDGE_LOOP('',(#1077,#1078));
#1080=FACE_OUTER_BOUND('',#1079,.T.);
#1081=ADVANCED_FACE('',(#1080),#1076,.T.);
#1082=CLOSED_SHELL('',(#1037,#1053,#1071,#1081));
#1083=MANIFOLD_SOLID_BREP('156',#1082);
#1084=STYLED_ITEM('NONE',(#994),#1083);
#1085=CARTESIAN_POINT('',(-2.631229E-015,5.544454E-015,7.816234671070916));
#1086=DIRECTION('',(-4.440892E-016,8.881784E-016,1.0));
#1087=DIRECTION('',(-1.0,0.0,0.0));
#1088=AXIS2_PLACEMENT_3D('',#1085,#1086,#1087);
#1089=CYLINDRICAL_SURFACE('',#1088,2.999999999999996);
#1090=CARTESIAN_POINT('',(-2.999999999999999,5.744294E-015,8.791234671070910));
#1091=VERTEX_POINT('',#1090);
#1092=CARTESIAN_POINT('',(-3.0,4.012346E-015,6.841234671070916));
#1093=VERTEX_POINT('',#1092);
#1094=CARTESIAN_POINT('',(-3.000000000000000,5.744294E-015,8.791234671070910));
#1095=DIRECTION('',(0.0,0.0,-1.0));
#1096=VECTOR('',#1095,1.949999999999994);
#1097=LINE('',#1094,#1096);
#1098=EDGE_CURVE('',#1091,#1093,#1097,.T.);
#1099=ORIENTED_EDGE('',*,*,#1098,.F.);
#1100=CARTESIAN_POINT('',(2.999999999999993,6.410428E-015,8.791234671070914));
#1101=VERTEX_POINT('',#1100);
#1102=CARTESIAN_POINT('',(-3.064216E-015,6.410428E-015,8.791234671070912));
#1103=DIRECTION('',(0.0,0.0,1.0));
#1104=DIRECTION('',(-1.0,0.0,0.0));
#1105=AXIS2_PLACEMENT_3D('',#1102,#1103,#1104);
#1106=CIRCLE('',#1105,2.999999999999996);
#1107=EDGE_CURVE('',#1101,#1091,#1106,.T.);
#1108=ORIENTED_EDGE('',*,*,#1107,.F.);
#1109=CARTESIAN_POINT('',(2.999999999999996,4.678480E-015,6.841234671070918));
#1110=VERTEX_POINT('',#1109);
#1111=CARTESIAN_POINT('',(2.999999999999993,7.443943E-015,8.791234671070914));
#1112=DIRECTION('',(0.0,0.0,-1.0));
#1113=VECTOR('',#1112,1.949999999999996);
#1114=LINE('',#1111,#1113);
#1115=EDGE_CURVE('',#1101,#1110,#1114,.T.);
#1116=ORIENTED_EDGE('',*,*,#1115,.T.);
#1117=CARTESIAN_POINT('',(-2.198242E-015,4.678480E-015,6.841234671070916));
#1118=DIRECTION('',(0.0,0.0,1.0));
#1119=DIRECTION('',(-1.0,0.0,0.0));
#1120=AXIS2_PLACEMENT_3D('',#1117,#1118,#1119);
#1121=CIRCLE('',#1120,2.999999999999998);
#1122=EDGE_CURVE('',#1110,#1093,#1121,.T.);
#1123=ORIENTED_EDGE('',*,*,#1122,.T.);
#1124=EDGE_LOOP('',(#1099,#1108,#1116,#1123));
#1125=FACE_OUTER_BOUND('',#1124,.T.);
#1126=ADVANCED_FACE('',(#1125),#1089,.T.);
#1127=CARTESIAN_POINT('',(-1.499999999999995,1.337322E-015,2.872607704474021));
#1128=CARTESIAN_POINT('',(-3.000000000000003,3.031662E-015,4.573447833015548));
#1129=CARTESIAN_POINT('',(-3.000000000000000,5.045862E-015,6.841234671070920));
#1130=CARTESIAN_POINT('',(-1.499999999999995,1.499999999999996,2.872607704474020));
#1131=CARTESIAN_POINT('',(-3.000000000000002,3.000000000000004,4.573447833015545));
#1132=CARTESIAN_POINT('',(-3.000000000000000,3.000000000000003,6.841234671070916));
#1133=CARTESIAN_POINT('',(-2.743307E-016,1.499999999999996,2.872607704474020));
#1134=CARTESIAN_POINT('',(-8.459645E-016,3.000000000000004,4.573447833015547));
#1135=CARTESIAN_POINT('',(-1.853064E-015,3.000000000000003,6.841234671070919));
#1136=CARTESIAN_POINT('',(1.499999999999994,1.499999999999995,2.872607704474020));
#1137=CARTESIAN_POINT('',(3.0,3.000000000000003,4.573447833015549));
#1138=CARTESIAN_POINT('',(2.999999999999996,3.000000000000002,6.841234671070921));
#1139=CARTESIAN_POINT('',(1.499999999999994,9.699400E-016,2.872607704474022));
#1140=CARTESIAN_POINT('',(3.000000000000000,2.296899E-015,4.573447833015552));
#1141=CARTESIAN_POINT('',(2.999999999999996,4.311098E-015,6.841234671070923));
#1142=CARTESIAN_POINT('',(1.499999999999994,-1.499999999999994,2.872607704474023));
#1143=CARTESIAN_POINT('',(2.999999999999999,-2.999999999999999,4.573447833015554));
#1144=CARTESIAN_POINT('',(2.999999999999995,-2.999999999999993,6.841234671070925));
#1145=CARTESIAN_POINT('',(-6.417126E-016,-1.499999999999994,2.872607704474023));
#1146=CARTESIAN_POINT('',(-1.580728E-015,-2.999999999999999,4.573447833015552));
#1147=CARTESIAN_POINT('',(-2.587828E-015,-2.999999999999993,6.841234671070924));
#1148=CARTESIAN_POINT('',(-1.499999999999995,-1.499999999999993,2.872607704474022));
#1149=CARTESIAN_POINT('',(-3.000000000000003,-2.999999999999998,4.573447833015551));
#1150=CARTESIAN_POINT('',(-3.0,-2.999999999999993,6.841234671070923));
#1151=CARTESIAN_POINT('',(-1.499999999999995,1.337322E-015,2.872607704474021));
#1152=CARTESIAN_POINT('',(-3.000000000000003,3.031662E-015,4.573447833015548));
#1153=CARTESIAN_POINT('',(-3.000000000000000,5.045862E-015,6.841234671070920));
#1161=(BOUNDED_SURFACE()B_SPLINE_SURFACE(2,2,((#1127,#1130,#1133,#1136,#1139,#1142,#1145,#1148,#1151),(#1128,#1131,#1134,#1137,#1140,#1143,#1146,#1149,#1152),(#1129,#1132,#1135,#1138,#1141,#1144,#1147,#1150,#1153)),.UNSPECIFIED.,.F.,.T.,.U.)B_SPLINE_SURFACE_WITH_KNOTS((3,3),(3,2,2,2,3),(-0.722734247813417,1.258253E-015),(0.0,1.570796326794897,3.141592653589793,4.712388980384690,6.283185307179586),.UNSPECIFIED.)GEOMETRIC_REPRESENTATION_ITEM()RATIONAL_B_SPLINE_SURFACE(((1.0,0.707106781186548,1.0,0.707106781186548,1.0,0.707106781186548,1.0,0.707106781186548,1.0),(0.935414346693484,0.661437827766147,0.935414346693484,0.661437827766147,0.935414346693484,0.661437827766147,0.935414346693484,0.661437827766147,0.935414346693484),(1.0,0.707106781186548,1.0,0.707106781186548,1.0,0.707106781186548,1.0,0.707106781186548,1.0)))REPRESENTATION_ITEM('')SURFACE());
#1162=CARTESIAN_POINT('',(1.499999999999996,2.328581E-015,2.872607704474027));
#1163=VERTEX_POINT('',#1162);
#1164=CARTESIAN_POINT('',(-3.000000000000005,4.678480E-015,6.841234671070912));
#1165=DIRECTION('',(0.0,1.0,0.0));
#1166=DIRECTION('',(1.0,0.0,0.0));
#1167=AXIS2_PLACEMENT_3D('',#1164,#1165,#1166);
#1168=CIRCLE('',#1167,6.000000000000001);
#1169=EDGE_CURVE('',#1110,#1163,#1168,.T.);
#1170=ORIENTED_EDGE('',*,*,#1169,.F.);
#1171=CARTESIAN_POINT('',(-2.198242E-015,4.678480E-015,6.841234671070916));
#1172=DIRECTION('',(0.0,0.0,1.0));
#1173=DIRECTION('',(-1.0,0.0,0.0));
#1174=AXIS2_PLACEMENT_3D('',#1171,#1172,#1173);
#1175=CIRCLE('',#1174,2.999999999999998);
#1176=EDGE_CURVE('',#1093,#1110,#1175,.T.);
#1177=ORIENTED_EDGE('',*,*,#1176,.F.);
#1178=CARTESIAN_POINT('',(-1.499999999999997,8.205641E-016,2.872607704474026));
#1179=VERTEX_POINT('',#1178);
#1180=CARTESIAN_POINT('',(3.000000000000000,5.045862E-015,6.841234671070914));
#1181=DIRECTION('',(0.0,-1.0,0.0));
#1182=DIRECTION('',(-1.0,0.0,0.0));
#1183=AXIS2_PLACEMENT_3D('',#1180,#1181,#1182);
#1184=CIRCLE('',#1183,6.000000000000001);
#1185=EDGE_CURVE('',#1093,#1179,#1184,.T.);
#1186=ORIENTED_EDGE('',*,*,#1185,.T.);
#1187=CARTESIAN_POINT('',(-4.358172E-016,1.153631E-015,2.872607704474026));
#1188=DIRECTION('',(0.0,0.0,1.0));
#1189=DIRECTION('',(-1.0,0.0,0.0));
#1190=AXIS2_PLACEMENT_3D('',#1187,#1188,#1189);
#1191=CIRCLE('',#1190,1.499999999999997);
#1192=EDGE_CURVE('',#1179,#1163,#1191,.T.);
#1193=ORIENTED_EDGE('',*,*,#1192,.T.);
#1194=EDGE_LOOP('',(#1170,#1177,#1186,#1193));
#1195=FACE_OUTER_BOUND('',#1194,.T.);
#1196=ADVANCED_FACE('',(#1195),#1161,.T.);
#1197=CARTESIAN_POINT('',(1.887379E-015,2.328581E-015,4.195483360006323));
#1198=DIRECTION('',(0.0,0.0,1.0));
#1199=DIRECTION('',(1.0,0.0,0.0));
#1200=AXIS2_PLACEMENT_3D('',#1197,#1198,#1199);
#1201=SPHERICAL_SURFACE('',#1200,2.000000000000003);
#1202=CARTESIAN_POINT('',(-3.673819E-016,5.522238E-016,2.195483360006322));
#1203=VERTEX_POINT('',#1202);
#1204=CARTESIAN_POINT('',(1.887379E-015,2.328581E-015,4.195483360006323));
#1205=DIRECTION('',(0.0,1.0,0.0));
#1206=DIRECTION('',(1.0,0.0,0.0));
#1207=AXIS2_PLACEMENT_3D('',#1204,#1205,#1206);
#1208=CIRCLE('',#1207,2.000000000000003);
#1209=EDGE_CURVE('',#1163,#1203,#1208,.T.);
#1210=ORIENTED_EDGE('',*,*,#1209,.F.);
#1211=ORIENTED_EDGE('',*,*,#1192,.F.);
#1212=CARTESIAN_POINT('',(1.887379E-015,2.328581E-015,4.195483360006323));
#1213=DIRECTION('',(0.0,-1.0,0.0));
#1214=DIRECTION('',(-1.0,0.0,0.0));
#1215=AXIS2_PLACEMENT_3D('',#1212,#1213,#1214);
#1216=CIRCLE('',#1215,2.000000000000003);
#1217=EDGE_CURVE('',#1179,#1203,#1216,.T.);
#1218=ORIENTED_EDGE('',*,*,#1217,.T.);
#1219=EDGE_LOOP('',(#1210,#1211,#1218));
#1220=FACE_OUTER_BOUND('',#1219,.T.);
#1221=ADVANCED_FACE('',(#1220),#1201,.T.);
#1222=CARTESIAN_POINT('',(2.664535E-015,6.410428E-015,8.791234671070912));
#1223=DIRECTION('',(0.0,0.0,1.0));
#1224=DIRECTION('',(1.0,0.0,0.0));
#1225=AXIS2_PLACEMENT_3D('',#1222,#1223,#1224);
#1226=SPHERICAL_SURFACE('',#1225,3.000000000000007);
#1227=CARTESIAN_POINT('',(-3.747089E-031,9.074963E-015,11.791234671070914));
#1228=VERTEX_POINT('',#1227);
#1229=CARTESIAN_POINT('',(2.664535E-015,6.410428E-015,8.791234671070912));
#1230=DIRECTION('',(0.0,1.0,0.0));
#1231=DIRECTION('',(1.0,0.0,0.0));
#1232=AXIS2_PLACEMENT_3D('',#1229,#1230,#1231);
#1233=CIRCLE('',#1232,3.000000000000007);
#1234=EDGE_CURVE('',#1228,#1101,#1233,.T.);
#1235=ORIENTED_EDGE('',*,*,#1234,.F.);
#1236=CARTESIAN_POINT('',(2.664535E-015,6.410428E-015,8.791234671070912));
#1237=DIRECTION('',(0.0,-1.0,0.0));
#1238=DIRECTION('',(-1.0,0.0,0.0));
#1239=AXIS2_PLACEMENT_3D('',#1236,#1237,#1238);
#1240=CIRCLE('',#1239,3.000000000000007);
#1241=EDGE_CURVE('',#1228,#1091,#1240,.T.);
#1242=ORIENTED_EDGE('',*,*,#1241,.T.);
#1243=CARTESIAN_POINT('',(-3.064216E-015,6.410428E-015,8.791234671070912));
#1244=DIRECTION('',(0.0,0.0,1.0));
#1245=DIRECTION('',(-1.0,0.0,0.0));
#1246=AXIS2_PLACEMENT_3D('',#1243,#1244,#1245);
#1247=CIRCLE('',#1246,2.999999999999996);
#1248=EDGE_CURVE('',#1091,#1101,#1247,.T.);
#1249=ORIENTED_EDGE('',*,*,#1248,.T.);
#1250=EDGE_LOOP('',(#1235,#1242,#1249));
#1251=FACE_OUTER_BOUND('',#1250,.T.);
#1252=ADVANCED_FACE('',(#1251),#1226,.T.);
#1253=CARTESIAN_POINT('',(2.664535E-015,6.410428E-015,8.791234671070912));
#1254=DIRECTION('',(0.0,0.0,1.0));
#1255=DIRECTION('',(1.0,0.0,0.0));
#1256=AXIS2_PLACEMENT_3D('',#1253,#1254,#1255);
#1257=SPHERICAL_SURFACE('',#1256,3.000000000000007);
#1258=ORIENTED_EDGE('',*,*,#1234,.T.);
#1259=ORIENTED_EDGE('',*,*,#1107,.T.);
#1260=ORIENTED_EDGE('',*,*,#1241,.F.);
#1261=EDGE_LOOP('',(#1258,#1259,#1260));
#1262=FACE_OUTER_BOUND('',#1261,.T.);
#1263=ADVANCED_FACE('',(#1262),#1257,.T.);
#1264=CARTESIAN_POINT('',(1.887379E-015,2.328581E-015,4.195483360006323));
#1265=DIRECTION('',(0.0,0.0,1.0));
#1266=DIRECTION('',(1.0,0.0,0.0));
#1267=AXIS2_PLACEMENT_3D('',#1264,#1265,#1266);
#1268=SPHERICAL_SURFACE('',#1267,2.000000000000003);
#1269=ORIENTED_EDGE('',*,*,#1209,.T.);
#1270=ORIENTED_EDGE('',*,*,#1217,.F.);
#1271=CARTESIAN_POINT('',(-4.358172E-016,1.153631E-015,2.872607704474026));
#1272=DIRECTION('',(0.0,0.0,1.0));
#1273=DIRECTION('',(-1.0,0.0,0.0));
#1274=AXIS2_PLACEMENT_3D('',#1271,#1272,#1273);
#1275=CIRCLE('',#1274,1.499999999999997);
#1276=EDGE_CURVE('',#1163,#1179,#1275,.T.);
#1277=ORIENTED_EDGE('',*,*,#1276,.F.);
#1278=EDGE_LOOP('',(#1269,#1270,#1277));
#1279=FACE_OUTER_BOUND('',#1278,.T.);
#1280=ADVANCED_FACE('',(#1279),#1268,.T.);
#1281=CARTESIAN_POINT('',(-1.499999999999997,1.337322E-015,2.872607704474023));
#1282=CARTESIAN_POINT('',(-3.000000000000004,3.031662E-015,4.573447833015552));
#1283=CARTESIAN_POINT('',(-3.000000000000000,5.045862E-015,6.841234671070921));
#1284=CARTESIAN_POINT('',(-1.499999999999996,1.499999999999998,2.872607704474022));
#1285=CARTESIAN_POINT('',(-3.000000000000002,3.000000000000004,4.573447833015549));
#1286=CARTESIAN_POINT('',(-3.000000000000000,3.000000000000003,6.841234671070918));
#1287=CARTESIAN_POINT('',(-2.743307E-016,1.499999999999998,2.872607704474022));
#1288=CARTESIAN_POINT('',(-8.459645E-016,3.000000000000005,4.573447833015551));
#1289=CARTESIAN_POINT('',(-1.853064E-015,3.000000000000003,6.841234671070919));
#1290=CARTESIAN_POINT('',(1.499999999999996,1.499999999999997,2.872607704474023));
#1291=CARTESIAN_POINT('',(3.000000000000000,3.000000000000004,4.573447833015552));
#1292=CARTESIAN_POINT('',(2.999999999999996,3.000000000000002,6.841234671070921));
#1293=CARTESIAN_POINT('',(1.499999999999996,9.699400E-016,2.872607704474024));
#1294=CARTESIAN_POINT('',(3.000000000000001,2.296899E-015,4.573447833015555));
#1295=CARTESIAN_POINT('',(2.999999999999996,4.311098E-015,6.841234671070922));
#1296=CARTESIAN_POINT('',(1.499999999999996,-1.499999999999995,2.872607704474025));
#1297=CARTESIAN_POINT('',(3.000000000000000,-2.999999999999999,4.573447833015558));
#1298=CARTESIAN_POINT('',(2.999999999999995,-2.999999999999993,6.841234671070925));
#1299=CARTESIAN_POINT('',(-6.417126E-016,-1.499999999999995,2.872607704474025));
#1300=CARTESIAN_POINT('',(-1.580728E-015,-3.000000000000000,4.573447833015556));
#1301=CARTESIAN_POINT('',(-2.587828E-015,-2.999999999999993,6.841234671070924));
#1302=CARTESIAN_POINT('',(-1.499999999999997,-1.499999999999995,2.872607704474025));
#1303=CARTESIAN_POINT('',(-3.000000000000003,-2.999999999999998,4.573447833015554));
#1304=CARTESIAN_POINT('',(-3.0,-2.999999999999993,6.841234671070923));
#1305=CARTESIAN_POINT('',(-1.499999999999997,1.337322E-015,2.872607704474023));
#1306=CARTESIAN_POINT('',(-3.000000000000004,3.031662E-015,4.573447833015552));
#1307=CARTESIAN_POINT('',(-3.000000000000000,5.045862E-015,6.841234671070921));
#1315=(BOUNDED_SURFACE()B_SPLINE_SURFACE(2,2,((#1281,#1284,#1287,#1290,#1293,#1296,#1299,#1302,#1305),(#1282,#1285,#1288,#1291,#1294,#1297,#1300,#1303,#1306),(#1283,#1286,#1289,#1292,#1295,#1298,#1301,#1304,#1307)),.UNSPECIFIED.,.F.,.T.,.U.)B_SPLINE_SURFACE_WITH_KNOTS((3,3),(3,2,2,2,3),(-0.722734247813416,1.554312E-015),(0.0,1.570796326794897,3.141592653589793,4.712388980384690,6.283185307179586),.UNSPECIFIED.)GEOMETRIC_REPRESENTATION_ITEM()RATIONAL_B_SPLINE_SURFACE(((1.0,0.707106781186548,1.0,0.707106781186548,1.0,0.707106781186548,1.0,0.707106781186548,1.0),(0.935414346693484,0.661437827766147,0.935414346693484,0.661437827766147,0.935414346693484,0.661437827766147,0.935414346693484,0.661437827766147,0.935414346693484),(1.0,0.707106781186548,1.0,0.707106781186548,1.0,0.707106781186548,1.0,0.707106781186548,1.0)))REPRESENTATION_ITEM('')SURFACE());
#1316=ORIENTED_EDGE('',*,*,#1169,.T.);
#1317=ORIENTED_EDGE('',*,*,#1276,.T.);
#1318=ORIENTED_EDGE('',*,*,#1185,.F.);
#1319=ORIENTED_EDGE('',*,*,#1122,.F.);
#1320=EDGE_LOOP('',(#1316,#1317,#1318,#1319));
#1321=FACE_OUTER_BOUND('',#1320,.T.);
#1322=ADVANCED_FACE('',(#1321),#1315,.T.);
#1323=CARTESIAN_POINT('',(-2.631229E-015,5.544454E-015,7.816234671070916));
#1324=DIRECTION('',(-4.440892E-016,8.881784E-016,1.0));
#1325=DIRECTION('',(-1.0,0.0,0.0));
#1326=AXIS2_PLACEMENT_3D('',#1323,#1324,#1325);
#1327=CYLINDRICAL_SURFACE('',#1326,2.999999999999996);
#1328=ORIENTED_EDGE('',*,*,#1098,.T.);
#1329=ORIENTED_EDGE('',*,*,#1176,.T.);
#1330=ORIENTED_EDGE('',*,*,#1115,.F.);
#1331=ORIENTED_EDGE('',*,*,#1248,.F.);
#1332=EDGE_LOOP('',(#1328,#1329,#1330,#1331));
#1333=FACE_OUTER_BOUND('',#1332,.T.);
#1334=ADVANCED_FACE('',(#1333),#1327,.T.);
#1335=CLOSED_SHELL('',(#1126,#1196,#1221,#1252,#1263,#1280,#1322,#1334));
#1336=MANIFOLD_SOLID_BREP('139',#1335);
#1337=STYLED_ITEM('NONE',(#994),#1336);
#1338=CARTESIAN_POINT('',(0.0,0.0,0.0));
#1339=DIRECTION('',(0.0,-1.0,0.0));
#1340=VECTOR('',#1339,1.0);
#1341=LINE('',#1338,#1340);
#1342=CARTESIAN_POINT('',(0.0,-1.0,0.0));
#1343=TRIMMED_CURVE('D0',#1341,(PARAMETER_VALUE(0.0),#1338),(PARAMETER_VALUE(1.0),#1342),.T.,.PARAMETER.);
#1344=COLOUR_RGB('44',0.500000000000000,0.375000000000000,0.0);
#1345=CURVE_STYLE('NONE',#1346,POSITIVE_LENGTH_MEASURE(0.200000000000000),#1344);
#1346=DRAUGHTING_PRE_DEFINED_CURVE_FONT('continuous');
#1347=PRESENTATION_STYLE_ASSIGNMENT((#1345));
#1348=STYLED_ITEM('NONE',(#1347),#1343);
#1349=PRESENTATION_LAYER_ASSIGNMENT('Mechanical 8','None',(#1343,#1356,#1363,#1370));
#1350=INVISIBILITY((#1349));
#1351=CARTESIAN_POINT('',(0.0,1.0,0.0));
#1352=DIRECTION('',(0.0,-1.0,0.0));
#1353=VECTOR('',#1352,1.0);
#1354=LINE('',#1351,#1353);
#1355=CARTESIAN_POINT('',(0.0,0.0,0.0));
#1356=TRIMMED_CURVE('CF',#1354,(PARAMETER_VALUE(0.0),#1351),(PARAMETER_VALUE(1.0),#1355),.T.,.PARAMETER.);
#1357=STYLED_ITEM('NONE',(#1347),#1356);
#1358=CARTESIAN_POINT('',(1.0,0.0,0.0));
#1359=DIRECTION('',(-1.0,0.0,0.0));
#1360=VECTOR('',#1359,1.0);
#1361=LINE('',#1358,#1360);
#1362=CARTESIAN_POINT('',(0.0,0.0,0.0));
#1363=TRIMMED_CURVE('CE',#1361,(PARAMETER_VALUE(0.0),#1358),(PARAMETER_VALUE(1.0),#1362),.T.,.PARAMETER.);
#1364=STYLED_ITEM('NONE',(#1347),#1363);
#1365=CARTESIAN_POINT('',(0.0,0.0,0.0));
#1366=DIRECTION('',(-1.0,0.0,0.0));
#1367=VECTOR('',#1366,1.0);
#1368=LINE('',#1365,#1367);
#1369=CARTESIAN_POINT('',(-1.0,0.0,0.0));
#1370=TRIMMED_CURVE('CD',#1368,(PARAMETER_VALUE(0.0),#1365),(PARAMETER_VALUE(1.0),#1369),.T.,.PARAMETER.);
#1371=STYLED_ITEM('NONE',(#1347),#1370);
#1372=ADVANCED_BREP_SHAPE_REPRESENTATION('ABSR1',(#554,#856,#987,#1083,#1336),#28);
#1373=SHAPE_REPRESENTATION_RELATIONSHIP('SRRPL1','',#1372,#62);
#1374=GEOMETRIC_CURVE_SET('GCS1',(#1343,#1356,#1363,#1370));
#1375=GEOMETRICALLY_BOUNDED_WIREFRAME_SHAPE_REPRESENTATION('GBWSR1',(#1374),#28);
#1376=SHAPE_REPRESENTATION_RELATIONSHIP('SRRPL2','',#1375,#62);
ENDSEC;
END-ISO-10303-21;
