ISO-10303-21;
HEADER;
/****************************************************************
 * Generated by software with PDE/Lib inside                    *
 * PDE/Lib Version 3.2.2, created Thu Mar 23, 2000 at 18:38:49  *
 * International Technegroup Inc. (www.iti-oh.com)              *
 ****************************************************************/
FILE_DESCRIPTION((''),'2;1');
FILE_NAME('CAPPRB254-450X760.stp','2009-12-16T15:30:14',(''),(''),'Mechanical Desktop 2006','Mechanical Desktop 2006',', , ');
FILE_SCHEMA(('AUTOMOTIVE_DESIGN { 1 2 10303 214 0 1 1 1 }'));
ENDSEC;
DATA;
#8=(NAMED_UNIT(*)PLANE_ANGLE_UNIT()SI_UNIT($,.RADIAN.));
#9=DIMENSIONAL_EXPONENTS(0.0,0.0,0.0,0.0,0.0,0.0,0.0);
#10=PLANE_ANGLE_MEASURE_WITH_UNIT(PLANE_ANGLE_MEASURE(0.017453292500000),#8);
#14=(CONVERSION_BASED_UNIT('DEGREE',#10)NAMED_UNIT(#9)PLANE_ANGLE_UNIT());
#18=(NAMED_UNIT(*)SI_UNIT($,.STERADIAN.)SOLID_ANGLE_UNIT());
#22=(LENGTH_UNIT()NAMED_UNIT(*)SI_UNIT(.MILLI.,.METRE.));
#23=UNCERTAINTY_MEASURE_WITH_UNIT(LENGTH_MEASURE(0.000001000000000),#22,'DISTANCE_ACCURACY_VALUE','');
#28=(GEOMETRIC_REPRESENTATION_CONTEXT(3)GLOBAL_UNCERTAINTY_ASSIGNED_CONTEXT((#23))GLOBAL_UNIT_ASSIGNED_CONTEXT((#14,#18,#22))REPRESENTATION_CONTEXT('None','None'));
#29=APPLICATION_CONTEXT('automotive design');
#30=APPLICATION_PROTOCOL_DEFINITION('DRAFT_INTERNATIONAL_STANDARD','automotive_design',1998,#29);
#31=PRODUCT_CONTEXT('3D Mechanical Parts',#29,'mechanical');
#32=PRODUCT('Product','Product','',(#31));
#33=PRODUCT_RELATED_PRODUCT_CATEGORY('part',$,(#32));
#34=PRODUCT_CATEGORY('part',$);
#35=PERSON('1','Design','Joe',$,$,$);
#36=ORGANIZATION($,'None','None');
#37=PERSON_AND_ORGANIZATION(#35,#36);
#38=PERSON_AND_ORGANIZATION_ROLE('design_owner');
#39=APPLIED_PERSON_AND_ORGANIZATION_ASSIGNMENT(#37,#38,(#32));
#40=PRODUCT_DEFINITION_FORMATION_WITH_SPECIFIED_SOURCE('None','',#32,.BOUGHT.);
#41=PERSON('2','Creator','Joe',$,$,$);
#42=ORGANIZATION($,'None','None');
#43=PERSON_AND_ORGANIZATION(#41,#42);
#44=PERSON_AND_ORGANIZATION_ROLE('creator');
#45=APPLIED_PERSON_AND_ORGANIZATION_ASSIGNMENT(#43,#44,(#40));
#46=PERSON('3','Supplier','Joe',$,$,$);
#47=ORGANIZATION($,'None','None');
#48=PERSON_AND_ORGANIZATION(#46,#47);
#49=PERSON_AND_ORGANIZATION_ROLE('design_supplier');
#50=APPLIED_PERSON_AND_ORGANIZATION_ASSIGNMENT(#48,#49,(#40));
#51=PRODUCT_DEFINITION_CONTEXT('part definition',#29,'design');
#52=PRODUCT_DEFINITION('None','',#40,#51);
#53=PERSON('4','Creator','Joe',$,$,$);
#54=ORGANIZATION($,'None','None');
#55=PERSON_AND_ORGANIZATION(#53,#54);
#56=PERSON_AND_ORGANIZATION_ROLE('creator');
#57=APPLIED_PERSON_AND_ORGANIZATION_ASSIGNMENT(#55,#56,(#52));
#58=CARTESIAN_POINT('NONE',(0.0,0.0,0.0));
#59=DIRECTION('NONE',(0.0,0.0,1.0));
#60=DIRECTION('NONE',(1.0,0.0,0.0));
#61=AXIS2_PLACEMENT_3D('NONE',#58,#59,#60);
#62=SHAPE_REPRESENTATION('SR1',(#61),#28);
#63=PRODUCT_DEFINITION_SHAPE('PDS1','Test Part',#52);
#64=SHAPE_DEFINITION_REPRESENTATION(#63,#62);
#65=CARTESIAN_POINT('',(1.520000000000000,6.501196E-016,7.413934E-016));
#66=CARTESIAN_POINT('',(1.520000000000001,-3.696701E-016,-3.600000000000000));
#67=CARTESIAN_POINT('',(1.520000000000000,0.250000000000001,6.705747E-016));
#68=CARTESIAN_POINT('',(1.520000000000001,0.250000000000000,-3.600000000000000));
#69=CARTESIAN_POINT('',(1.270000000000000,0.250000000000001,6.150636E-016));
#70=CARTESIAN_POINT('',(1.270000000000001,0.250000000000000,-3.600000000000000));
#71=CARTESIAN_POINT('',(1.020000000000000,0.250000000000000,5.595524E-016));
#72=CARTESIAN_POINT('',(1.020000000000001,0.249999999999999,-3.600000000000000));
#73=CARTESIAN_POINT('',(1.020000000000000,4.778670E-016,6.303711E-016));
#74=CARTESIAN_POINT('',(1.020000000000001,-5.419227E-016,-3.600000000000000));
#75=CARTESIAN_POINT('',(1.020000000000000,-0.249999999999999,7.011899E-016));
#76=CARTESIAN_POINT('',(1.020000000000001,-0.250000000000001,-3.600000000000000));
#77=CARTESIAN_POINT('',(1.270000000000000,-0.249999999999999,7.567010E-016));
#78=CARTESIAN_POINT('',(1.270000000000001,-0.250000000000000,-3.600000000000000));
#79=CARTESIAN_POINT('',(1.520000000000000,-0.249999999999999,8.122122E-016));
#80=CARTESIAN_POINT('',(1.520000000000001,-0.250000000000000,-3.600000000000000));
#81=CARTESIAN_POINT('',(1.520000000000000,6.501196E-016,7.413934E-016));
#82=CARTESIAN_POINT('',(1.520000000000001,-3.696701E-016,-3.600000000000000));
#90=(BOUNDED_SURFACE()B_SPLINE_SURFACE(1,2,((#65,#67,#69,#71,#73,#75,#77,#79,#81),(#66,#68,#70,#72,#74,#76,#78,#80,#82)),.UNSPECIFIED.,.F.,.T.,.U.)B_SPLINE_SURFACE_WITH_KNOTS((2,2),(3,2,2,2,3),(-7.273641E-016,14.400000000000002),(0.0,0.392699081698724,0.785398163397448,1.178097245096172,1.570796326794897),.UNSPECIFIED.)GEOMETRIC_REPRESENTATION_ITEM()RATIONAL_B_SPLINE_SURFACE(((1.0,0.707106781186548,1.0,0.707106781186548,1.0,0.707106781186548,1.0,0.707106781186548,1.0),(1.0,0.707106781186548,1.0,0.707106781186548,1.0,0.707106781186548,1.0,0.707106781186548,1.0)))REPRESENTATION_ITEM('')SURFACE());
#91=CARTESIAN_POINT('',(1.020000000000000,5.084821E-016,4.485301E-016));
#92=VERTEX_POINT('',#91);
#93=CARTESIAN_POINT('',(1.020000000000001,-5.113076E-016,-3.600000000000000));
#94=VERTEX_POINT('',#93);
#95=CARTESIAN_POINT('',(1.020000000000000,5.084821E-016,4.485301E-016));
#96=DIRECTION('',(0.0,0.0,-1.0));
#97=VECTOR('',#96,3.600000000000000);
#98=LINE('',#95,#97);
#99=EDGE_CURVE('',#92,#94,#98,.T.);
#100=ORIENTED_EDGE('',*,*,#99,.F.);
#101=CARTESIAN_POINT('',(1.520000000000000,5.888893E-016,4.996004E-016));
#102=VERTEX_POINT('',#101);
#103=CARTESIAN_POINT('',(1.270000000000000,5.639933E-016,5.040413E-016));
#104=DIRECTION('',(0.0,0.0,1.0));
#105=DIRECTION('',(-1.0,0.0,0.0));
#106=AXIS2_PLACEMENT_3D('',#103,#104,#105);
#107=CIRCLE('',#106,0.250000000000000);
#108=EDGE_CURVE('',#102,#92,#107,.T.);
#109=ORIENTED_EDGE('',*,*,#108,.F.);
#110=CARTESIAN_POINT('',(1.520000000000001,-4.309004E-016,-3.600000000000000));
#111=VERTEX_POINT('',#110);
#112=CARTESIAN_POINT('',(1.520000000000001,-4.309004E-016,-3.600000000000000));
#113=DIRECTION('',(0.0,0.0,1.0));
#114=VECTOR('',#113,3.600000000000000);
#115=LINE('',#112,#114);
#116=EDGE_CURVE('',#111,#102,#115,.T.);
#117=ORIENTED_EDGE('',*,*,#116,.F.);
#118=CARTESIAN_POINT('',(1.270000000000001,-4.557964E-016,-3.600000000000000));
#119=DIRECTION('',(0.0,0.0,-1.0));
#120=DIRECTION('',(-1.0,0.0,0.0));
#121=AXIS2_PLACEMENT_3D('',#118,#119,#120);
#122=CIRCLE('',#121,0.250000000000000);
#123=EDGE_CURVE('',#94,#111,#122,.T.);
#124=ORIENTED_EDGE('',*,*,#123,.F.);
#125=EDGE_LOOP('',(#100,#109,#117,#124));
#126=FACE_OUTER_BOUND('',#125,.T.);
#127=ADVANCED_FACE('',(#126),#90,.T.);
#128=CARTESIAN_POINT('',(1.520000000000000,6.501196E-016,6.858823E-016));
#129=CARTESIAN_POINT('',(1.520000000000001,-3.696701E-016,-3.600000000000000));
#130=CARTESIAN_POINT('',(1.520000000000000,0.250000000000001,6.150636E-016));
#131=CARTESIAN_POINT('',(1.520000000000001,0.250000000000000,-3.600000000000000));
#132=CARTESIAN_POINT('',(1.270000000000000,0.250000000000001,5.595524E-016));
#133=CARTESIAN_POINT('',(1.270000000000001,0.250000000000000,-3.600000000000000));
#134=CARTESIAN_POINT('',(1.020000000000000,0.250000000000000,5.040413E-016));
#135=CARTESIAN_POINT('',(1.020000000000001,0.249999999999999,-3.600000000000000));
#136=CARTESIAN_POINT('',(1.020000000000000,4.778670E-016,5.748600E-016));
#137=CARTESIAN_POINT('',(1.020000000000001,-5.419227E-016,-3.600000000000000));
#138=CARTESIAN_POINT('',(1.020000000000000,-0.249999999999999,6.456787E-016));
#139=CARTESIAN_POINT('',(1.020000000000001,-0.250000000000001,-3.600000000000000));
#140=CARTESIAN_POINT('',(1.270000000000000,-0.249999999999999,7.011899E-016));
#141=CARTESIAN_POINT('',(1.270000000000001,-0.250000000000000,-3.600000000000000));
#142=CARTESIAN_POINT('',(1.520000000000000,-0.249999999999999,7.567010E-016));
#143=CARTESIAN_POINT('',(1.520000000000001,-0.250000000000000,-3.600000000000000));
#144=CARTESIAN_POINT('',(1.520000000000000,6.501196E-016,6.858823E-016));
#145=CARTESIAN_POINT('',(1.520000000000001,-3.696701E-016,-3.600000000000000));
#153=(BOUNDED_SURFACE()B_SPLINE_SURFACE(1,2,((#128,#130,#132,#134,#136,#138,#140,#142,#144),(#129,#131,#133,#135,#137,#139,#141,#143,#145)),.UNSPECIFIED.,.F.,.T.,.U.)B_SPLINE_SURFACE_WITH_KNOTS((2,2),(3,2,2,2,3),(-5.053195E-016,14.400000000000002),(0.0,0.392699081698724,0.785398163397448,1.178097245096172,1.570796326794897),.UNSPECIFIED.)GEOMETRIC_REPRESENTATION_ITEM()RATIONAL_B_SPLINE_SURFACE(((1.0,0.707106781186548,1.0,0.707106781186548,1.0,0.707106781186548,1.0,0.707106781186548,1.0),(1.0,0.707106781186548,1.0,0.707106781186548,1.0,0.707106781186548,1.0,0.707106781186548,1.0)))REPRESENTATION_ITEM('')SURFACE());
#154=ORIENTED_EDGE('',*,*,#99,.T.);
#155=CARTESIAN_POINT('',(1.270000000000001,-4.557964E-016,-3.600000000000000));
#156=DIRECTION('',(0.0,0.0,-1.0));
#157=DIRECTION('',(-1.0,0.0,0.0));
#158=AXIS2_PLACEMENT_3D('',#155,#156,#157);
#159=CIRCLE('',#158,0.250000000000000);
#160=EDGE_CURVE('',#111,#94,#159,.T.);
#161=ORIENTED_EDGE('',*,*,#160,.F.);
#162=ORIENTED_EDGE('',*,*,#116,.T.);
#163=CARTESIAN_POINT('',(1.270000000000000,5.639933E-016,5.040413E-016));
#164=DIRECTION('',(0.0,0.0,1.0));
#165=DIRECTION('',(-1.0,0.0,0.0));
#166=AXIS2_PLACEMENT_3D('',#163,#164,#165);
#167=CIRCLE('',#166,0.250000000000000);
#168=EDGE_CURVE('',#92,#102,#167,.T.);
#169=ORIENTED_EDGE('',*,*,#168,.F.);
#170=EDGE_LOOP('',(#154,#161,#162,#169));
#171=FACE_OUTER_BOUND('',#170,.T.);
#172=ADVANCED_FACE('',(#171),#153,.T.);
#173=CARTESIAN_POINT('',(1.020000000000001,-0.250000000000001,-3.600000000000000));
#174=CARTESIAN_POINT('',(1.020000000000001,0.250000000000000,-3.600000000000000));
#175=CARTESIAN_POINT('',(1.520000000000001,-0.250000000000000,-3.600000000000000));
#176=CARTESIAN_POINT('',(1.520000000000001,0.250000000000000,-3.600000000000000));
#177=B_SPLINE_SURFACE_WITH_KNOTS('',1,1,((#173,#175),(#174,#176)),.UNSPECIFIED.,.F.,.F.,.U.,(2,2),(2,2),(0.0,0.500000000000000),(0.0,0.500000000000000),.UNSPECIFIED.);
#178=ORIENTED_EDGE('',*,*,#123,.T.);
#179=ORIENTED_EDGE('',*,*,#160,.T.);
#180=EDGE_LOOP('',(#178,#179));
#181=FACE_OUTER_BOUND('',#180,.T.);
#182=ADVANCED_FACE('',(#181),#177,.T.);
#183=CARTESIAN_POINT('',(1.020000000000000,-0.250000000000000,5.193488E-016));
#184=CARTESIAN_POINT('',(1.020000000000000,0.250000000000001,3.777114E-016));
#185=CARTESIAN_POINT('',(1.520000000000000,-0.249999999999999,6.303711E-016));
#186=CARTESIAN_POINT('',(1.520000000000000,0.250000000000001,4.887337E-016));
#187=B_SPLINE_SURFACE_WITH_KNOTS('',1,1,((#183,#185),(#184,#186)),.UNSPECIFIED.,.F.,.F.,.U.,(2,2),(2,2),(0.0,0.500000000000000),(0.0,0.500000000000000),.UNSPECIFIED.);
#188=ORIENTED_EDGE('',*,*,#168,.T.);
#189=ORIENTED_EDGE('',*,*,#108,.T.);
#190=EDGE_LOOP('',(#188,#189));
#191=FACE_OUTER_BOUND('',#190,.T.);
#192=ADVANCED_FACE('',(#191),#187,.F.);
#193=CLOSED_SHELL('',(#127,#172,#182,#192));
#194=MANIFOLD_SOLID_BREP('16E',#193);
#195=COLOUR_RGB('253',0.732000000000000,0.732000000000000,0.732000000000000);
#196=SURFACE_STYLE_USAGE(.BOTH.,#197);
#197=SURFACE_SIDE_STYLE('NONE',(#198));
#198=SURFACE_STYLE_FILL_AREA(#199);
#199=FILL_AREA_STYLE('NONE',(#200));
#200=FILL_AREA_STYLE_COLOUR('NONE',#195);
#201=PRESENTATION_STYLE_ASSIGNMENT((#196));
#202=STYLED_ITEM('NONE',(#201),#194);
#203=MECHANICAL_DESIGN_GEOMETRIC_PRESENTATION_REPRESENTATION('NONE',(#202,#342,#431,#520,#813),#28);
#204=PRESENTATION_LAYER_ASSIGNMENT('3D','None',(#194,#334,#430,#519,#812));
#205=CARTESIAN_POINT('',(1.769999999999998,1.833294E-015,2.220924221532469));
#206=CARTESIAN_POINT('',(1.519999999999999,1.118035E-015,3.061578E-016));
#207=CARTESIAN_POINT('',(1.769999999999998,0.500000000000002,2.220924221532469));
#208=CARTESIAN_POINT('',(1.519999999999999,0.250000000000001,2.353391E-016));
#209=CARTESIAN_POINT('',(1.269999999999998,0.500000000000002,2.220924221532469));
#210=CARTESIAN_POINT('',(1.269999999999999,0.250000000000001,1.798279E-016));
#211=CARTESIAN_POINT('',(0.769999999999998,0.500000000000001,2.220924221532469));
#212=CARTESIAN_POINT('',(1.019999999999999,0.250000000000001,1.243168E-016));
#213=CARTESIAN_POINT('',(0.769999999999998,1.488789E-015,2.220924221532469));
#214=CARTESIAN_POINT('',(1.019999999999999,9.457827E-016,1.951355E-016));
#215=CARTESIAN_POINT('',(0.769999999999998,-0.499999999999998,2.220924221532469));
#216=CARTESIAN_POINT('',(1.019999999999999,-0.249999999999999,2.659542E-016));
#217=CARTESIAN_POINT('',(1.269999999999998,-0.499999999999998,2.220924221532469));
#218=CARTESIAN_POINT('',(1.269999999999999,-0.249999999999999,3.214654E-016));
#219=CARTESIAN_POINT('',(1.769999999999999,-0.499999999999998,2.220924221532469));
#220=CARTESIAN_POINT('',(1.519999999999999,-0.249999999999999,3.769765E-016));
#221=CARTESIAN_POINT('',(1.769999999999998,1.833294E-015,2.220924221532469));
#222=CARTESIAN_POINT('',(1.519999999999999,1.118035E-015,3.061578E-016));
#230=(BOUNDED_SURFACE()B_SPLINE_SURFACE(1,2,((#205,#207,#209,#211,#213,#215,#217,#219,#221),(#206,#208,#210,#212,#214,#216,#218,#220,#222)),.UNSPECIFIED.,.F.,.T.,.U.)B_SPLINE_SURFACE_WITH_KNOTS((2,2),(3,2,2,2,3),(-8.939802590920765,1.776357E-015),(0.0,0.392699081698724,0.785398163397448,1.178097245096172,1.570796326794897),.UNSPECIFIED.)GEOMETRIC_REPRESENTATION_ITEM()RATIONAL_B_SPLINE_SURFACE(((1.0,0.707106781186548,1.0,0.707106781186548,1.0,0.707106781186548,1.0,0.707106781186548,1.0),(1.0,0.707106781186548,1.0,0.707106781186548,1.0,0.707106781186548,1.0,0.707106781186548,1.0)))REPRESENTATION_ITEM('')SURFACE());
#231=CARTESIAN_POINT('',(0.769999999999998,1.550019E-015,2.220924221532469));
#232=VERTEX_POINT('',#231);
#233=CARTESIAN_POINT('',(1.020000000000000,5.084821E-016,5.084821E-016));
#234=VERTEX_POINT('',#233);
#235=CARTESIAN_POINT('',(0.769999999999998,1.550019E-015,2.220924221532469));
#236=DIRECTION('',(0.111859293293076,-4.660222E-016,-0.993724055512381));
#237=VECTOR('',#236,2.234950647730191);
#238=LINE('',#235,#237);
#239=EDGE_CURVE('',#232,#234,#238,.T.);
#240=ORIENTED_EDGE('',*,*,#239,.F.);
#241=CARTESIAN_POINT('',(1.769999999999998,1.710833E-015,2.220924221532469));
#242=VERTEX_POINT('',#241);
#243=CARTESIAN_POINT('',(1.269999999999998,1.661041E-015,2.220924221532469));
#244=DIRECTION('',(0.0,0.0,-1.0));
#245=DIRECTION('',(-1.0,0.0,0.0));
#246=AXIS2_PLACEMENT_3D('',#243,#244,#245);
#247=CIRCLE('',#246,0.500000000000000);
#248=EDGE_CURVE('',#232,#242,#247,.T.);
#249=ORIENTED_EDGE('',*,*,#248,.T.);
#250=CARTESIAN_POINT('',(1.520000000000000,1.056805E-015,7.216450E-016));
#251=VERTEX_POINT('',#250);
#252=CARTESIAN_POINT('',(1.520000000000000,1.056805E-015,7.216450E-016));
#253=DIRECTION('',(0.111859293293075,2.926365E-016,0.993724055512381));
#254=VECTOR('',#253,2.234950647730190);
#255=LINE('',#252,#254);
#256=EDGE_CURVE('',#251,#242,#255,.T.);
#257=ORIENTED_EDGE('',*,*,#256,.F.);
#258=CARTESIAN_POINT('',(1.270000000000000,5.639933E-016,7.260859E-016));
#259=DIRECTION('',(0.0,0.0,-1.0));
#260=DIRECTION('',(-1.0,0.0,0.0));
#261=AXIS2_PLACEMENT_3D('',#258,#259,#260);
#262=CIRCLE('',#261,0.250000000000000);
#263=EDGE_CURVE('',#234,#251,#262,.T.);
#264=ORIENTED_EDGE('',*,*,#263,.F.);
#265=EDGE_LOOP('',(#240,#249,#257,#264));
#266=FACE_OUTER_BOUND('',#265,.T.);
#267=ADVANCED_FACE('',(#266),#230,.T.);
#268=CARTESIAN_POINT('',(1.020000000000000,-0.250000000000000,5.793009E-016));
#269=CARTESIAN_POINT('',(1.020000000000000,0.250000000000001,4.376634E-016));
#270=CARTESIAN_POINT('',(1.520000000000000,-0.249999999999999,6.903232E-016));
#271=CARTESIAN_POINT('',(1.520000000000000,0.250000000000001,5.486857E-016));
#272=B_SPLINE_SURFACE_WITH_KNOTS('',1,1,((#268,#270),(#269,#271)),.UNSPECIFIED.,.F.,.F.,.U.,(2,2),(2,2),(0.0,0.500000000000000),(0.0,0.500000000000000),.UNSPECIFIED.);
#273=ORIENTED_EDGE('',*,*,#263,.T.);
#274=CARTESIAN_POINT('',(1.270000000000000,5.639933E-016,7.260859E-016));
#275=DIRECTION('',(0.0,0.0,-1.0));
#276=DIRECTION('',(-1.0,0.0,0.0));
#277=AXIS2_PLACEMENT_3D('',#274,#275,#276);
#278=CIRCLE('',#277,0.250000000000000);
#279=EDGE_CURVE('',#251,#234,#278,.T.);
#280=ORIENTED_EDGE('',*,*,#279,.T.);
#281=EDGE_LOOP('',(#273,#280));
#282=FACE_OUTER_BOUND('',#281,.T.);
#283=ADVANCED_FACE('',(#282),#272,.T.);
#284=CARTESIAN_POINT('',(1.769999999999998,1.833294E-015,2.220924221532469));
#285=CARTESIAN_POINT('',(1.519999999999999,1.118035E-015,1.645203E-016));
#286=CARTESIAN_POINT('',(1.769999999999998,0.500000000000002,2.220924221532469));
#287=CARTESIAN_POINT('',(1.519999999999999,0.250000000000001,9.370160E-017));
#288=CARTESIAN_POINT('',(1.269999999999998,0.500000000000002,2.220924221532469));
#289=CARTESIAN_POINT('',(1.269999999999999,0.250000000000001,3.819045E-017));
#290=CARTESIAN_POINT('',(0.769999999999998,0.500000000000001,2.220924221532469));
#291=CARTESIAN_POINT('',(1.019999999999999,0.250000000000001,-1.732070E-017));
#292=CARTESIAN_POINT('',(0.769999999999998,1.488789E-015,2.220924221532469));
#293=CARTESIAN_POINT('',(1.019999999999999,9.457827E-016,5.349803E-017));
#294=CARTESIAN_POINT('',(0.769999999999998,-0.499999999999998,2.220924221532469));
#295=CARTESIAN_POINT('',(1.019999999999999,-0.249999999999999,1.243168E-016));
#296=CARTESIAN_POINT('',(1.269999999999998,-0.499999999999998,2.220924221532469));
#297=CARTESIAN_POINT('',(1.269999999999999,-0.249999999999999,1.798279E-016));
#298=CARTESIAN_POINT('',(1.769999999999999,-0.499999999999998,2.220924221532469));
#299=CARTESIAN_POINT('',(1.519999999999999,-0.249999999999999,2.353391E-016));
#300=CARTESIAN_POINT('',(1.769999999999998,1.833294E-015,2.220924221532469));
#301=CARTESIAN_POINT('',(1.519999999999999,1.118035E-015,1.645203E-016));
#309=(BOUNDED_SURFACE()B_SPLINE_SURFACE(1,2,((#284,#286,#288,#290,#292,#294,#296,#298,#300),(#285,#287,#289,#291,#293,#295,#297,#299,#301)),.UNSPECIFIED.,.F.,.T.,.U.)B_SPLINE_SURFACE_WITH_KNOTS((2,2),(3,2,2,2,3),(-8.939802590920765,1.776357E-015),(0.0,0.392699081698724,0.785398163397448,1.178097245096172,1.570796326794897),.UNSPECIFIED.)GEOMETRIC_REPRESENTATION_ITEM()RATIONAL_B_SPLINE_SURFACE(((1.0,0.707106781186548,1.0,0.707106781186548,1.0,0.707106781186548,1.0,0.707106781186548,1.0),(1.0,0.707106781186548,1.0,0.707106781186548,1.0,0.707106781186548,1.0,0.707106781186548,1.0)))REPRESENTATION_ITEM('')SURFACE());
#310=ORIENTED_EDGE('',*,*,#239,.T.);
#311=ORIENTED_EDGE('',*,*,#279,.F.);
#312=ORIENTED_EDGE('',*,*,#256,.T.);
#313=CARTESIAN_POINT('',(1.269999999999998,1.661041E-015,2.220924221532469));
#314=DIRECTION('',(0.0,0.0,-1.0));
#315=DIRECTION('',(-1.0,0.0,0.0));
#316=AXIS2_PLACEMENT_3D('',#313,#314,#315);
#317=CIRCLE('',#316,0.500000000000000);
#318=EDGE_CURVE('',#242,#232,#317,.T.);
#319=ORIENTED_EDGE('',*,*,#318,.T.);
#320=EDGE_LOOP('',(#310,#311,#312,#319));
#321=FACE_OUTER_BOUND('',#320,.T.);
#322=ADVANCED_FACE('',(#321),#309,.T.);
#323=CARTESIAN_POINT('',(0.769999999999998,-0.499999999999999,2.220924221532469));
#324=CARTESIAN_POINT('',(1.769999999999999,-0.499999999999998,2.220924221532469));
#325=CARTESIAN_POINT('',(0.769999999999998,0.500000000000001,2.220924221532469));
#326=CARTESIAN_POINT('',(1.769999999999999,0.500000000000002,2.220924221532469));
#327=B_SPLINE_SURFACE_WITH_KNOTS('',1,1,((#323,#325),(#324,#326)),.UNSPECIFIED.,.F.,.F.,.U.,(2,2),(2,2),(0.0,1.000000000000000),(0.0,1.0),.UNSPECIFIED.);
#328=ORIENTED_EDGE('',*,*,#248,.F.);
#329=ORIENTED_EDGE('',*,*,#318,.F.);
#330=EDGE_LOOP('',(#328,#329));
#331=FACE_OUTER_BOUND('',#330,.T.);
#332=ADVANCED_FACE('',(#331),#327,.T.);
#333=CLOSED_SHELL('',(#267,#283,#322,#332));
#334=MANIFOLD_SOLID_BREP('16D',#333);
#335=COLOUR_RGB('40',1.0,0.750000000000000,0.0);
#336=SURFACE_STYLE_USAGE(.BOTH.,#337);
#337=SURFACE_SIDE_STYLE('NONE',(#338));
#338=SURFACE_STYLE_FILL_AREA(#339);
#339=FILL_AREA_STYLE('NONE',(#340));
#340=FILL_AREA_STYLE_COLOUR('NONE',#335);
#341=PRESENTATION_STYLE_ASSIGNMENT((#336));
#342=STYLED_ITEM('NONE',(#341),#334);
#343=CARTESIAN_POINT('',(-1.270000000000000,4.930381E-032,-5.995204E-017));
#344=DIRECTION('',(2.220446E-016,-2.832749E-016,-1.0));
#345=DIRECTION('',(1.0,0.0,0.0));
#346=AXIS2_PLACEMENT_3D('',#343,#344,#345);
#347=CYLINDRICAL_SURFACE('',#346,0.250000000000000);
#348=CARTESIAN_POINT('',(-1.020000000000000,5.551115E-017,-4.440892E-018));
#349=VERTEX_POINT('',#348);
#350=CARTESIAN_POINT('',(-1.019999999999999,-9.642786E-016,-3.600000000000001));
#351=VERTEX_POINT('',#350);
#352=CARTESIAN_POINT('',(-1.020000000000000,5.551115E-017,-4.440892E-018));
#353=DIRECTION('',(0.0,0.0,-1.0));
#354=VECTOR('',#353,3.600000000000001);
#355=LINE('',#352,#354);
#356=EDGE_CURVE('',#349,#351,#355,.T.);
#357=ORIENTED_EDGE('',*,*,#356,.F.);
#358=CARTESIAN_POINT('',(-1.520000000000000,-8.612631E-017,-5.551115E-017));
#359=VERTEX_POINT('',#358);
#360=CARTESIAN_POINT('',(-1.270000000000000,4.930381E-032,-5.995204E-017));
#361=DIRECTION('',(0.0,0.0,-1.0));
#362=DIRECTION('',(1.0,0.0,0.0));
#363=AXIS2_PLACEMENT_3D('',#360,#361,#362);
#364=CIRCLE('',#363,0.250000000000000);
#365=EDGE_CURVE('',#349,#359,#364,.T.);
#366=ORIENTED_EDGE('',*,*,#365,.T.);
#367=CARTESIAN_POINT('',(-1.519999999999999,-1.105916E-015,-3.600000000000001));
#368=VERTEX_POINT('',#367);
#369=CARTESIAN_POINT('',(-1.519999999999999,-1.105916E-015,-3.600000000000001));
#370=DIRECTION('',(0.0,0.0,1.0));
#371=VECTOR('',#370,3.600000000000001);
#372=LINE('',#369,#371);
#373=EDGE_CURVE('',#368,#359,#372,.T.);
#374=ORIENTED_EDGE('',*,*,#373,.F.);
#375=CARTESIAN_POINT('',(-1.269999999999999,-1.019790E-015,-3.600000000000001));
#376=DIRECTION('',(0.0,0.0,1.0));
#377=DIRECTION('',(1.0,0.0,0.0));
#378=AXIS2_PLACEMENT_3D('',#375,#376,#377);
#379=CIRCLE('',#378,0.250000000000000);
#380=EDGE_CURVE('',#368,#351,#379,.T.);
#381=ORIENTED_EDGE('',*,*,#380,.T.);
#382=EDGE_LOOP('',(#357,#366,#374,#381));
#383=FACE_OUTER_BOUND('',#382,.T.);
#384=ADVANCED_FACE('',(#383),#347,.T.);
#385=CARTESIAN_POINT('',(-1.270000000000000,4.930381E-032,-5.995204E-017));
#386=DIRECTION('',(2.220446E-016,-2.832749E-016,-1.0));
#387=DIRECTION('',(1.0,0.0,0.0));
#388=AXIS2_PLACEMENT_3D('',#385,#386,#387);
#389=CYLINDRICAL_SURFACE('',#388,0.250000000000000);
#390=ORIENTED_EDGE('',*,*,#356,.T.);
#391=CARTESIAN_POINT('',(-1.269999999999999,-1.019790E-015,-3.600000000000001));
#392=DIRECTION('',(0.0,0.0,1.0));
#393=DIRECTION('',(1.0,0.0,0.0));
#394=AXIS2_PLACEMENT_3D('',#391,#392,#393);
#395=CIRCLE('',#394,0.250000000000000);
#396=EDGE_CURVE('',#351,#368,#395,.T.);
#397=ORIENTED_EDGE('',*,*,#396,.T.);
#398=ORIENTED_EDGE('',*,*,#373,.T.);
#399=CARTESIAN_POINT('',(-1.270000000000000,4.930381E-032,-5.995204E-017));
#400=DIRECTION('',(0.0,0.0,-1.0));
#401=DIRECTION('',(1.0,0.0,0.0));
#402=AXIS2_PLACEMENT_3D('',#399,#400,#401);
#403=CIRCLE('',#402,0.250000000000000);
#404=EDGE_CURVE('',#359,#349,#403,.T.);
#405=ORIENTED_EDGE('',*,*,#404,.T.);
#406=EDGE_LOOP('',(#390,#397,#398,#405));
#407=FACE_OUTER_BOUND('',#406,.T.);
#408=ADVANCED_FACE('',(#407),#389,.T.);
#409=CARTESIAN_POINT('',(-1.269999999999999,-1.019790E-015,-3.600000000000001));
#410=DIRECTION('',(0.0,0.0,-1.0));
#411=DIRECTION('',(0.0,1.0,0.0));
#412=AXIS2_PLACEMENT_3D('',#409,#410,#411);
#413=PLANE('',#412);
#414=ORIENTED_EDGE('',*,*,#396,.F.);
#415=ORIENTED_EDGE('',*,*,#380,.F.);
#416=EDGE_LOOP('',(#414,#415));
#417=FACE_OUTER_BOUND('',#416,.T.);
#418=ADVANCED_FACE('',(#417),#413,.T.);
#419=CARTESIAN_POINT('',(-1.270000000000000,4.930381E-032,-5.995204E-017));
#420=DIRECTION('',(0.0,0.0,-1.0));
#421=DIRECTION('',(0.0,1.0,0.0));
#422=AXIS2_PLACEMENT_3D('',#419,#420,#421);
#423=PLANE('',#422);
#424=ORIENTED_EDGE('',*,*,#365,.F.);
#425=ORIENTED_EDGE('',*,*,#404,.F.);
#426=EDGE_LOOP('',(#424,#425));
#427=FACE_OUTER_BOUND('',#426,.T.);
#428=ADVANCED_FACE('',(#427),#423,.F.);
#429=CLOSED_SHELL('',(#384,#408,#418,#428));
#430=MANIFOLD_SOLID_BREP('16C',#429);
#431=STYLED_ITEM('NONE',(#201),#430);
#432=CARTESIAN_POINT('',(-1.269999999999999,4.679157E-016,1.620926E-016));
#433=DIRECTION('',(-2.220446E-016,2.832749E-016,1.0));
#434=DIRECTION('',(1.0,0.0,0.0));
#435=AXIS2_PLACEMENT_3D('',#432,#433,#434);
#436=CONICAL_SURFACE('',#435,0.250000000000000,6.422506800283291);
#437=CARTESIAN_POINT('',(-0.769999999999999,1.208070E-015,2.220924221532469));
#438=VERTEX_POINT('',#437);
#439=CARTESIAN_POINT('',(-1.020000000000000,5.551115E-017,5.551115E-017));
#440=VERTEX_POINT('',#439);
#441=CARTESIAN_POINT('',(-0.769999999999999,1.208070E-015,2.220924221532469));
#442=DIRECTION('',(-0.111859293293076,-5.156977E-016,-0.993724055512381));
#443=VECTOR('',#442,2.234950647730191);
#444=LINE('',#441,#443);
#445=EDGE_CURVE('',#438,#440,#444,.T.);
#446=ORIENTED_EDGE('',*,*,#445,.F.);
#447=CARTESIAN_POINT('',(-1.769999999999999,9.247952E-016,2.220924221532468));
#448=VERTEX_POINT('',#447);
#449=CARTESIAN_POINT('',(-1.269999999999999,1.097048E-015,2.220924221532468));
#450=DIRECTION('',(0.0,0.0,1.0));
#451=DIRECTION('',(1.0,0.0,0.0));
#452=AXIS2_PLACEMENT_3D('',#449,#450,#451);
#453=CIRCLE('',#452,0.500000000000000);
#454=EDGE_CURVE('',#448,#438,#453,.T.);
#455=ORIENTED_EDGE('',*,*,#454,.F.);
#456=CARTESIAN_POINT('',(-1.520000000000000,3.817894E-016,1.665335E-016));
#457=VERTEX_POINT('',#456);
#458=CARTESIAN_POINT('',(-1.520000000000000,3.817894E-016,1.665335E-016));
#459=DIRECTION('',(-0.111859293293075,2.429610E-016,0.993724055512381));
#460=VECTOR('',#459,2.234950647730190);
#461=LINE('',#458,#460);
#462=EDGE_CURVE('',#457,#448,#461,.T.);
#463=ORIENTED_EDGE('',*,*,#462,.F.);
#464=CARTESIAN_POINT('',(-1.270000000000000,1.479114E-031,1.620926E-016));
#465=DIRECTION('',(0.0,0.0,1.0));
#466=DIRECTION('',(1.0,0.0,0.0));
#467=AXIS2_PLACEMENT_3D('',#464,#465,#466);
#468=CIRCLE('',#467,0.250000000000000);
#469=EDGE_CURVE('',#457,#440,#468,.T.);
#470=ORIENTED_EDGE('',*,*,#469,.T.);
#471=EDGE_LOOP('',(#446,#455,#463,#470));
#472=FACE_OUTER_BOUND('',#471,.T.);
#473=ADVANCED_FACE('',(#472),#436,.T.);
#474=CARTESIAN_POINT('',(-1.270000000000000,4.930381E-032,3.203706E-032));
#475=DIRECTION('',(0.0,0.0,-1.0));
#476=DIRECTION('',(0.0,1.0,0.0));
#477=AXIS2_PLACEMENT_3D('',#474,#475,#476);
#478=PLANE('',#477);
#479=CARTESIAN_POINT('',(-1.270000000000000,1.479114E-031,1.620926E-016));
#480=DIRECTION('',(0.0,0.0,1.0));
#481=DIRECTION('',(1.0,0.0,0.0));
#482=AXIS2_PLACEMENT_3D('',#479,#480,#481);
#483=CIRCLE('',#482,0.250000000000000);
#484=EDGE_CURVE('',#440,#457,#483,.T.);
#485=ORIENTED_EDGE('',*,*,#484,.F.);
#486=ORIENTED_EDGE('',*,*,#469,.F.);
#487=EDGE_LOOP('',(#485,#486));
#488=FACE_OUTER_BOUND('',#487,.T.);
#489=ADVANCED_FACE('',(#488),#478,.T.);
#490=CARTESIAN_POINT('',(-1.269999999999999,4.679157E-016,1.620926E-016));
#491=DIRECTION('',(-2.220446E-016,2.832749E-016,1.0));
#492=DIRECTION('',(1.0,0.0,0.0));
#493=AXIS2_PLACEMENT_3D('',#490,#491,#492);
#494=CONICAL_SURFACE('',#493,0.250000000000000,6.422506800283291);
#495=ORIENTED_EDGE('',*,*,#445,.T.);
#496=ORIENTED_EDGE('',*,*,#484,.T.);
#497=ORIENTED_EDGE('',*,*,#462,.T.);
#498=CARTESIAN_POINT('',(-1.269999999999999,1.097048E-015,2.220924221532468));
#499=DIRECTION('',(0.0,0.0,1.0));
#500=DIRECTION('',(1.0,0.0,0.0));
#501=AXIS2_PLACEMENT_3D('',#498,#499,#500);
#502=CIRCLE('',#501,0.500000000000000);
#503=EDGE_CURVE('',#438,#448,#502,.T.);
#504=ORIENTED_EDGE('',*,*,#503,.F.);
#505=EDGE_LOOP('',(#495,#496,#497,#504));
#506=FACE_OUTER_BOUND('',#505,.T.);
#507=ADVANCED_FACE('',(#506),#494,.T.);
#508=CARTESIAN_POINT('',(-1.269999999999999,1.097048E-015,2.220924221532468));
#509=DIRECTION('',(0.0,0.0,1.0));
#510=DIRECTION('',(-1.0,0.0,0.0));
#511=AXIS2_PLACEMENT_3D('',#508,#509,#510);
#512=PLANE('',#511);
#513=ORIENTED_EDGE('',*,*,#503,.T.);
#514=ORIENTED_EDGE('',*,*,#454,.T.);
#515=EDGE_LOOP('',(#513,#514));
#516=FACE_OUTER_BOUND('',#515,.T.);
#517=ADVANCED_FACE('',(#516),#512,.T.);
#518=CLOSED_SHELL('',(#473,#489,#507,#517));
#519=MANIFOLD_SOLID_BREP('164',#518);
#520=STYLED_ITEM('NONE',(#341),#519);
#521=CARTESIAN_POINT('',(-3.303220E-016,1.358212760032558,1.378498373219502));
#522=CARTESIAN_POINT('',(-1.229827E-015,3.620941107490390,4.414705257808033));
#523=CARTESIAN_POINT('',(-1.580686E-015,1.016129032258061,7.163058559902922));
#524=CARTESIAN_POINT('',(1.358212760032557,1.358212760032558,1.378498373219503));
#525=CARTESIAN_POINT('',(3.620941107490387,3.620941107490390,4.414705257808033));
#526=CARTESIAN_POINT('',(1.016129032258059,1.016129032258061,7.163058559902922));
#527=CARTESIAN_POINT('',(1.358212760032558,3.000693E-016,1.378498373219503));
#528=CARTESIAN_POINT('',(3.620941107490389,7.113086E-016,4.414705257808033));
#529=CARTESIAN_POINT('',(1.016129032258059,6.201937E-016,7.163058559902922));
#530=CARTESIAN_POINT('',(1.358212760032558,-1.358212760032558,1.378498373219503));
#531=CARTESIAN_POINT('',(3.620941107490388,-3.620941107490388,4.414705257808033));
#532=CARTESIAN_POINT('',(1.016129032258059,-1.016129032258060,7.163058559902922));
#533=CARTESIAN_POINT('',(-5.980961E-017,-1.358212760032558,1.378498373219502));
#534=CARTESIAN_POINT('',(-5.086515E-016,-3.620941107490390,4.414705257808033));
#535=CARTESIAN_POINT('',(-1.378306E-015,-1.016129032258060,7.163058559902922));
#536=CARTESIAN_POINT('',(-1.358212760032558,-1.358212760032558,1.378498373219502));
#537=CARTESIAN_POINT('',(-3.620941107490389,-3.620941107490389,4.414705257808032));
#538=CARTESIAN_POINT('',(-1.016129032258062,-1.016129032258060,7.163058559902922));
#539=CARTESIAN_POINT('',(-1.358212760032558,2.955682E-017,1.378498373219502));
#540=CARTESIAN_POINT('',(-3.620941107490391,-9.866740E-018,4.414705257808032));
#541=CARTESIAN_POINT('',(-1.016129032258062,4.178133E-016,7.163058559902922));
#542=CARTESIAN_POINT('',(-1.358212760032558,1.358212760032558,1.378498373219502));
#543=CARTESIAN_POINT('',(-3.620941107490390,3.620941107490389,4.414705257808032));
#544=CARTESIAN_POINT('',(-1.016129032258062,1.016129032258061,7.163058559902922));
#545=CARTESIAN_POINT('',(-3.303220E-016,1.358212760032558,1.378498373219502));
#546=CARTESIAN_POINT('',(-1.229827E-015,3.620941107490390,4.414705257808033));
#547=CARTESIAN_POINT('',(-1.580686E-015,1.016129032258061,7.163058559902922));
#555=(BOUNDED_SURFACE()B_SPLINE_SURFACE(2,2,((#521,#524,#527,#530,#533,#536,#539,#542,#545),(#522,#525,#528,#531,#534,#537,#540,#543,#546),(#523,#526,#529,#532,#535,#538,#541,#544,#547)),.UNSPECIFIED.,.F.,.T.,.U.)B_SPLINE_SURFACE_WITH_KNOTS((3,3),(3,2,2,2,3),(-0.640453147725987,0.758590316210185),(0.0,1.570796326794897,3.141592653589793,4.712388980384690,6.283185307179586),.UNSPECIFIED.)GEOMETRIC_REPRESENTATION_ITEM()RATIONAL_B_SPLINE_SURFACE(((1.0,0.707106781186548,1.0,0.707106781186548,1.0,0.707106781186548,1.0,0.707106781186548,1.0),(0.765150208523024,0.541042901072931,0.765150208523024,0.541042901072931,0.765150208523024,0.541042901072931,0.765150208523024,0.541042901072931,0.765150208523024),(1.0,0.707106781186548,1.0,0.707106781186548,1.0,0.707106781186548,1.0,0.707106781186548,1.0)))REPRESENTATION_ITEM('')SURFACE());
#556=CARTESIAN_POINT('',(-5.980961E-017,-1.358212760032560,1.378498373219503));
#557=VERTEX_POINT('',#556);
#558=CARTESIAN_POINT('',(-1.378306E-015,-1.016129032258061,7.163058559902922));
#559=VERTEX_POINT('',#558);
#560=CARTESIAN_POINT('',(-1.016211E-015,2.250000000000001,4.067513188786387));
#561=DIRECTION('',(-1.0,0.0,0.0));
#562=DIRECTION('',(0.0,-1.0,0.0));
#563=AXIS2_PLACEMENT_3D('',#560,#561,#562);
#564=CIRCLE('',#563,4.499999999999998);
#565=EDGE_CURVE('',#557,#559,#564,.T.);
#566=ORIENTED_EDGE('',*,*,#565,.F.);
#567=CARTESIAN_POINT('',(-3.303220E-016,1.358212760032560,1.378498373219503));
#568=VERTEX_POINT('',#567);
#569=CARTESIAN_POINT('',(-1.950658E-016,1.648130E-016,1.378498373219503));
#570=DIRECTION('',(0.0,0.0,1.0));
#571=DIRECTION('',(-1.0,0.0,0.0));
#572=AXIS2_PLACEMENT_3D('',#569,#570,#571);
#573=CIRCLE('',#572,1.358212760032560);
#574=EDGE_CURVE('',#557,#568,#573,.T.);
#575=ORIENTED_EDGE('',*,*,#574,.T.);
#576=CARTESIAN_POINT('',(-1.580686E-015,1.016129032258062,7.163058559902922));
#577=VERTEX_POINT('',#576);
#578=CARTESIAN_POINT('',(-5.680831E-016,-2.250000000000000,4.067513188786387));
#579=DIRECTION('',(-1.0,0.0,0.0));
#580=DIRECTION('',(0.0,1.0,0.0));
#581=AXIS2_PLACEMENT_3D('',#578,#579,#580);
#582=CIRCLE('',#581,4.499999999999998);
#583=EDGE_CURVE('',#577,#568,#582,.T.);
#584=ORIENTED_EDGE('',*,*,#583,.F.);
#585=CARTESIAN_POINT('',(-1.479496E-015,5.190035E-016,7.163058559902922));
#586=DIRECTION('',(0.0,0.0,1.0));
#587=DIRECTION('',(-1.0,0.0,0.0));
#588=AXIS2_PLACEMENT_3D('',#585,#586,#587);
#589=CIRCLE('',#588,1.016129032258062);
#590=EDGE_CURVE('',#559,#577,#589,.T.);
#591=ORIENTED_EDGE('',*,*,#590,.F.);
#592=EDGE_LOOP('',(#566,#575,#584,#591));
#593=FACE_OUTER_BOUND('',#592,.T.);
#594=ADVANCED_FACE('',(#593),#555,.T.);
#595=CARTESIAN_POINT('',(-1.432486E-016,1.110223E-016,1.145134405942629));
#596=CARTESIAN_POINT('',(-1.044591E-016,0.790048622495927,0.616116150933235));
#597=CARTESIAN_POINT('',(-3.303220E-016,1.358212760032560,1.378498373219503));
#598=CARTESIAN_POINT('',(-1.827504E-016,1.110223E-016,1.145134405942629));
#599=CARTESIAN_POINT('',(0.790048622495927,0.790048622495927,0.616116150933235));
#600=CARTESIAN_POINT('',(1.358212760032560,1.358212760032560,1.378498373219504));
#601=CARTESIAN_POINT('',(-1.827504E-016,1.505241E-016,1.145134405942629));
#602=CARTESIAN_POINT('',(0.790048622495927,1.968083E-016,0.616116150933235));
#603=CARTESIAN_POINT('',(1.358212760032560,3.000693E-016,1.378498373219504));
#604=CARTESIAN_POINT('',(-1.827504E-016,1.900259E-016,1.145134405942629));
#605=CARTESIAN_POINT('',(0.790048622495927,-0.790048622495927,0.616116150933235));
#606=CARTESIAN_POINT('',(1.358212760032560,-1.358212760032560,1.378498373219504));
#607=CARTESIAN_POINT('',(-1.432486E-016,1.900259E-016,1.145134405942629));
#608=CARTESIAN_POINT('',(5.289321E-017,-0.790048622495927,0.616116150933235));
#609=CARTESIAN_POINT('',(-5.980961E-017,-1.358212760032560,1.378498373219503));
#610=CARTESIAN_POINT('',(-1.037468E-016,1.900259E-016,1.145134405942629));
#611=CARTESIAN_POINT('',(-0.790048622495927,-0.790048622495927,0.616116150933234));
#612=CARTESIAN_POINT('',(-1.358212760032560,-1.358212760032560,1.378498373219503));
#613=CARTESIAN_POINT('',(-1.037468E-016,1.505241E-016,1.145134405942629));
#614=CARTESIAN_POINT('',(-0.790048622495927,3.945595E-017,0.616116150933234));
#615=CARTESIAN_POINT('',(-1.358212760032560,2.955682E-017,1.378498373219503));
#616=CARTESIAN_POINT('',(-1.037468E-016,1.110223E-016,1.145134405942629));
#617=CARTESIAN_POINT('',(-0.790048622495927,0.790048622495927,0.616116150933234));
#618=CARTESIAN_POINT('',(-1.358212760032560,1.358212760032560,1.378498373219503));
#619=CARTESIAN_POINT('',(-1.432486E-016,1.110223E-016,1.145134405942629));
#620=CARTESIAN_POINT('',(-1.044591E-016,0.790048622495927,0.616116150933235));
#621=CARTESIAN_POINT('',(-3.303220E-016,1.358212760032560,1.378498373219503));
#629=(BOUNDED_SURFACE()B_SPLINE_SURFACE(2,2,((#595,#598,#601,#604,#607,#610,#613,#616,#619),(#596,#599,#602,#605,#608,#611,#614,#617,#620),(#597,#600,#603,#606,#609,#612,#615,#618,#621)),.UNSPECIFIED.,.F.,.T.,.U.)B_SPLINE_SURFACE_WITH_KNOTS((3,3),(3,2,2,2,3),(-2.160828434527994,-0.640453147725985),(0.0,1.570796326794897,3.141592653589793,4.712388980384690,6.283185307179586),.UNSPECIFIED.)GEOMETRIC_REPRESENTATION_ITEM()RATIONAL_B_SPLINE_SURFACE(((1.0,0.707106781186548,1.0,0.707106781186548,1.0,0.707106781186548,1.0,0.707106781186548,1.0),(0.724706726417923,0.512445040621617,0.724706726417923,0.512445040621617,0.724706726417923,0.512445040621617,0.724706726417923,0.512445040621617,0.724706726417923),(1.0,0.707106781186548,1.0,0.707106781186548,1.0,0.707106781186548,1.0,0.707106781186548,1.0)))REPRESENTATION_ITEM('')SURFACE());
#630=CARTESIAN_POINT('',(-5.029864E-017,-0.556387702247545,0.976057221123254));
#631=VERTEX_POINT('',#630);
#632=CARTESIAN_POINT('',(-2.723432E-016,-0.556387702247545,1.976057221123254));
#633=DIRECTION('',(-1.0,0.0,0.0));
#634=DIRECTION('',(0.0,-1.0,0.0));
#635=AXIS2_PLACEMENT_3D('',#632,#633,#634);
#636=CIRCLE('',#635,1.0);
#637=EDGE_CURVE('',#631,#557,#636,.T.);
#638=ORIENTED_EDGE('',*,*,#637,.F.);
#639=CARTESIAN_POINT('',(-1.611132E-016,0.556387702247545,0.976057221123254));
#640=VERTEX_POINT('',#639);
#641=CARTESIAN_POINT('',(-1.057059E-016,1.401714E-016,0.976057221123254));
#642=DIRECTION('',(0.0,0.0,1.0));
#643=DIRECTION('',(-1.0,0.0,0.0));
#644=AXIS2_PLACEMENT_3D('',#641,#642,#643);
#645=CIRCLE('',#644,0.556387702247545);
#646=EDGE_CURVE('',#631,#640,#645,.T.);
#647=ORIENTED_EDGE('',*,*,#646,.T.);
#648=CARTESIAN_POINT('',(-3.831578E-016,0.556387702247546,1.976057221123254));
#649=DIRECTION('',(-1.0,0.0,0.0));
#650=DIRECTION('',(0.0,1.0,0.0));
#651=AXIS2_PLACEMENT_3D('',#648,#649,#650);
#652=CIRCLE('',#651,1.0);
#653=EDGE_CURVE('',#568,#640,#652,.T.);
#654=ORIENTED_EDGE('',*,*,#653,.F.);
#655=ORIENTED_EDGE('',*,*,#574,.F.);
#656=EDGE_LOOP('',(#638,#647,#654,#655));
#657=FACE_OUTER_BOUND('',#656,.T.);
#658=ADVANCED_FACE('',(#657),#629,.T.);
#659=CARTESIAN_POINT('',(-0.278193851123772,7.839999E-017,0.976057221123255));
#660=DIRECTION('',(0.0,0.0,-1.0));
#661=DIRECTION('',(0.0,1.0,0.0));
#662=AXIS2_PLACEMENT_3D('',#659,#660,#661);
#663=PLANE('',#662);
#664=CARTESIAN_POINT('',(-0.556387702247545,1.662855E-017,0.976057221123254));
#665=VERTEX_POINT('',#664);
#666=CARTESIAN_POINT('',(-1.057059E-016,1.401714E-016,0.976057221123254));
#667=DIRECTION('',(0.0,0.0,1.0));
#668=DIRECTION('',(-1.0,0.0,0.0));
#669=AXIS2_PLACEMENT_3D('',#666,#667,#668);
#670=CIRCLE('',#669,0.556387702247545);
#671=EDGE_CURVE('',#665,#631,#670,.T.);
#672=ORIENTED_EDGE('',*,*,#671,.F.);
#673=CARTESIAN_POINT('',(-1.057059E-016,1.401714E-016,0.976057221123254));
#674=DIRECTION('',(0.0,0.0,1.0));
#675=DIRECTION('',(-1.0,0.0,0.0));
#676=AXIS2_PLACEMENT_3D('',#673,#674,#675);
#677=CIRCLE('',#676,0.556387702247545);
#678=EDGE_CURVE('',#640,#665,#677,.T.);
#679=ORIENTED_EDGE('',*,*,#678,.F.);
#680=ORIENTED_EDGE('',*,*,#646,.F.);
#681=EDGE_LOOP('',(#672,#679,#680));
#682=FACE_OUTER_BOUND('',#681,.T.);
#683=ADVANCED_FACE('',(#682),#663,.T.);
#684=CARTESIAN_POINT('',(-1.432486E-016,1.110223E-016,1.145134405942629));
#685=CARTESIAN_POINT('',(-1.044591E-016,0.790048622495927,0.616116150933235));
#686=CARTESIAN_POINT('',(-3.303220E-016,1.358212760032560,1.378498373219503));
#687=CARTESIAN_POINT('',(-1.827504E-016,1.110223E-016,1.145134405942629));
#688=CARTESIAN_POINT('',(0.790048622495927,0.790048622495927,0.616116150933235));
#689=CARTESIAN_POINT('',(1.358212760032559,1.358212760032560,1.378498373219504));
#690=CARTESIAN_POINT('',(-1.827504E-016,1.505241E-016,1.145134405942629));
#691=CARTESIAN_POINT('',(0.790048622495927,1.968083E-016,0.616116150933235));
#692=CARTESIAN_POINT('',(1.358212760032560,3.000693E-016,1.378498373219504));
#693=CARTESIAN_POINT('',(-1.827504E-016,1.900259E-016,1.145134405942629));
#694=CARTESIAN_POINT('',(0.790048622495927,-0.790048622495926,0.616116150933235));
#695=CARTESIAN_POINT('',(1.358212760032560,-1.358212760032560,1.378498373219504));
#696=CARTESIAN_POINT('',(-1.432486E-016,1.900259E-016,1.145134405942629));
#697=CARTESIAN_POINT('',(5.289321E-017,-0.790048622495927,0.616116150933235));
#698=CARTESIAN_POINT('',(-5.980961E-017,-1.358212760032560,1.378498373219503));
#699=CARTESIAN_POINT('',(-1.037468E-016,1.900259E-016,1.145134405942629));
#700=CARTESIAN_POINT('',(-0.790048622495927,-0.790048622495927,0.616116150933235));
#701=CARTESIAN_POINT('',(-1.358212760032560,-1.358212760032560,1.378498373219503));
#702=CARTESIAN_POINT('',(-1.037468E-016,1.505241E-016,1.145134405942629));
#703=CARTESIAN_POINT('',(-0.790048622495927,3.945595E-017,0.616116150933235));
#704=CARTESIAN_POINT('',(-1.358212760032560,2.955682E-017,1.378498373219503));
#705=CARTESIAN_POINT('',(-1.037468E-016,1.110223E-016,1.145134405942629));
#706=CARTESIAN_POINT('',(-0.790048622495927,0.790048622495927,0.616116150933235));
#707=CARTESIAN_POINT('',(-1.358212760032560,1.358212760032560,1.378498373219503));
#708=CARTESIAN_POINT('',(-1.432486E-016,1.110223E-016,1.145134405942629));
#709=CARTESIAN_POINT('',(-1.044591E-016,0.790048622495927,0.616116150933235));
#710=CARTESIAN_POINT('',(-3.303220E-016,1.358212760032560,1.378498373219503));
#718=(BOUNDED_SURFACE()B_SPLINE_SURFACE(2,2,((#684,#687,#690,#693,#696,#699,#702,#705,#708),(#685,#688,#691,#694,#697,#700,#703,#706,#709),(#686,#689,#692,#695,#698,#701,#704,#707,#710)),.UNSPECIFIED.,.F.,.T.,.U.)B_SPLINE_SURFACE_WITH_KNOTS((3,3),(3,2,2,2,3),(-2.160828434527994,-0.640453147725985),(0.0,1.570796326794897,3.141592653589793,4.712388980384690,6.283185307179586),.UNSPECIFIED.)GEOMETRIC_REPRESENTATION_ITEM()RATIONAL_B_SPLINE_SURFACE(((1.0,0.707106781186548,1.0,0.707106781186548,1.0,0.707106781186548,1.0,0.707106781186548,1.0),(0.724706726417924,0.512445040621618,0.724706726417924,0.512445040621618,0.724706726417924,0.512445040621618,0.724706726417924,0.512445040621618,0.724706726417924),(1.0,0.707106781186548,1.0,0.707106781186548,1.0,0.707106781186548,1.0,0.707106781186548,1.0)))REPRESENTATION_ITEM('')SURFACE());
#719=ORIENTED_EDGE('',*,*,#637,.T.);
#720=CARTESIAN_POINT('',(-1.358212760032560,-1.367708E-016,1.378498373219502));
#721=VERTEX_POINT('',#720);
#722=CARTESIAN_POINT('',(-1.950658E-016,1.648130E-016,1.378498373219503));
#723=DIRECTION('',(0.0,0.0,1.0));
#724=DIRECTION('',(-1.0,0.0,0.0));
#725=AXIS2_PLACEMENT_3D('',#722,#723,#724);
#726=CIRCLE('',#725,1.358212760032560);
#727=EDGE_CURVE('',#721,#557,#726,.T.);
#728=ORIENTED_EDGE('',*,*,#727,.F.);
#729=CARTESIAN_POINT('',(-1.950658E-016,1.648130E-016,1.378498373219503));
#730=DIRECTION('',(0.0,0.0,1.0));
#731=DIRECTION('',(-1.0,0.0,0.0));
#732=AXIS2_PLACEMENT_3D('',#729,#730,#731);
#733=CIRCLE('',#732,1.358212760032560);
#734=EDGE_CURVE('',#568,#721,#733,.T.);
#735=ORIENTED_EDGE('',*,*,#734,.F.);
#736=ORIENTED_EDGE('',*,*,#653,.T.);
#737=ORIENTED_EDGE('',*,*,#678,.T.);
#738=ORIENTED_EDGE('',*,*,#671,.T.);
#739=EDGE_LOOP('',(#719,#728,#735,#736,#737,#738));
#740=FACE_OUTER_BOUND('',#739,.T.);
#741=ADVANCED_FACE('',(#740),#718,.T.);
#742=CARTESIAN_POINT('',(-3.303220E-016,1.358212760032558,1.378498373219502));
#743=CARTESIAN_POINT('',(-1.229827E-015,3.620941107490390,4.414705257808032));
#744=CARTESIAN_POINT('',(-1.580686E-015,1.016129032258061,7.163058559902922));
#745=CARTESIAN_POINT('',(1.358212760032557,1.358212760032558,1.378498373219502));
#746=CARTESIAN_POINT('',(3.620941107490387,3.620941107490390,4.414705257808033));
#747=CARTESIAN_POINT('',(1.016129032258058,1.016129032258061,7.163058559902922));
#748=CARTESIAN_POINT('',(1.358212760032557,3.000693E-016,1.378498373219502));
#749=CARTESIAN_POINT('',(3.620941107490389,7.113086E-016,4.414705257808033));
#750=CARTESIAN_POINT('',(1.016129032258059,6.201937E-016,7.163058559902922));
#751=CARTESIAN_POINT('',(1.358212760032557,-1.358212760032557,1.378498373219502));
#752=CARTESIAN_POINT('',(3.620941107490388,-3.620941107490388,4.414705257808033));
#753=CARTESIAN_POINT('',(1.016129032258058,-1.016129032258059,7.163058559902922));
#754=CARTESIAN_POINT('',(-5.980961E-017,-1.358212760032557,1.378498373219502));
#755=CARTESIAN_POINT('',(-5.086515E-016,-3.620941107490389,4.414705257808032));
#756=CARTESIAN_POINT('',(-1.378306E-015,-1.016129032258060,7.163058559902922));
#757=CARTESIAN_POINT('',(-1.358212760032557,-1.358212760032557,1.378498373219501));
#758=CARTESIAN_POINT('',(-3.620941107490390,-3.620941107490389,4.414705257808032));
#759=CARTESIAN_POINT('',(-1.016129032258061,-1.016129032258059,7.163058559902922));
#760=CARTESIAN_POINT('',(-1.358212760032558,2.955682E-017,1.378498373219501));
#761=CARTESIAN_POINT('',(-3.620941107490391,-9.866740E-018,4.414705257808032));
#762=CARTESIAN_POINT('',(-1.016129032258062,4.178133E-016,7.163058559902922));
#763=CARTESIAN_POINT('',(-1.358212760032558,1.358212760032557,1.378498373219501));
#764=CARTESIAN_POINT('',(-3.620941107490390,3.620941107490389,4.414705257808032));
#765=CARTESIAN_POINT('',(-1.016129032258061,1.016129032258060,7.163058559902922));
#766=CARTESIAN_POINT('',(-3.303220E-016,1.358212760032558,1.378498373219502));
#767=CARTESIAN_POINT('',(-1.229827E-015,3.620941107490390,4.414705257808032));
#768=CARTESIAN_POINT('',(-1.580686E-015,1.016129032258061,7.163058559902922));
#776=(BOUNDED_SURFACE()B_SPLINE_SURFACE(2,2,((#742,#745,#748,#751,#754,#757,#760,#763,#766),(#743,#746,#749,#752,#755,#758,#761,#764,#767),(#744,#747,#750,#753,#756,#759,#762,#765,#768)),.UNSPECIFIED.,.F.,.T.,.U.)B_SPLINE_SURFACE_WITH_KNOTS((3,3),(3,2,2,2,3),(-0.640453147725987,0.758590316210185),(0.0,1.570796326794897,3.141592653589793,4.712388980384690,6.283185307179586),.UNSPECIFIED.)GEOMETRIC_REPRESENTATION_ITEM()RATIONAL_B_SPLINE_SURFACE(((1.0,0.707106781186548,1.0,0.707106781186548,1.0,0.707106781186548,1.0,0.707106781186548,1.0),(0.765150208523024,0.541042901072931,0.765150208523024,0.541042901072931,0.765150208523024,0.541042901072931,0.765150208523024,0.541042901072931,0.765150208523024),(1.0,0.707106781186548,1.0,0.707106781186548,1.0,0.707106781186548,1.0,0.707106781186548,1.0)))REPRESENTATION_ITEM('')SURFACE());
#777=ORIENTED_EDGE('',*,*,#565,.T.);
#778=CARTESIAN_POINT('',(-1.016129032258063,2.933775E-016,7.163058559902923));
#779=VERTEX_POINT('',#778);
#780=CARTESIAN_POINT('',(-1.479496E-015,5.190035E-016,7.163058559902922));
#781=DIRECTION('',(0.0,0.0,1.0));
#782=DIRECTION('',(-1.0,0.0,0.0));
#783=AXIS2_PLACEMENT_3D('',#780,#781,#782);
#784=CIRCLE('',#783,1.016129032258062);
#785=EDGE_CURVE('',#779,#559,#784,.T.);
#786=ORIENTED_EDGE('',*,*,#785,.F.);
#787=CARTESIAN_POINT('',(-1.479496E-015,5.190035E-016,7.163058559902922));
#788=DIRECTION('',(0.0,0.0,1.0));
#789=DIRECTION('',(-1.0,0.0,0.0));
#790=AXIS2_PLACEMENT_3D('',#787,#788,#789);
#791=CIRCLE('',#790,1.016129032258062);
#792=EDGE_CURVE('',#577,#779,#791,.T.);
#793=ORIENTED_EDGE('',*,*,#792,.F.);
#794=ORIENTED_EDGE('',*,*,#583,.T.);
#795=ORIENTED_EDGE('',*,*,#734,.T.);
#796=ORIENTED_EDGE('',*,*,#727,.T.);
#797=EDGE_LOOP('',(#777,#786,#793,#794,#795,#796));
#798=FACE_OUTER_BOUND('',#797,.T.);
#799=ADVANCED_FACE('',(#798),#776,.T.);
#800=CARTESIAN_POINT('',(1.776357E-016,4.600351E-016,6.200000000000000));
#801=DIRECTION('',(0.0,-1.0,0.0));
#802=DIRECTION('',(1.0,0.0,0.0));
#803=AXIS2_PLACEMENT_3D('',#800,#801,#802);
#804=SPHERICAL_SURFACE('',#803,1.400000000000001);
#805=ORIENTED_EDGE('',*,*,#785,.T.);
#806=ORIENTED_EDGE('',*,*,#590,.T.);
#807=ORIENTED_EDGE('',*,*,#792,.T.);
#808=EDGE_LOOP('',(#805,#806,#807));
#809=FACE_OUTER_BOUND('',#808,.T.);
#810=ADVANCED_FACE('',(#809),#804,.T.);
#811=CLOSED_SHELL('',(#594,#658,#683,#741,#799,#810));
#812=MANIFOLD_SOLID_BREP('158',#811);
#813=STYLED_ITEM('NONE',(#341),#812);
#814=ADVANCED_BREP_SHAPE_REPRESENTATION('ABSR1',(#194,#334,#430,#519,#812),#28);
#815=SHAPE_REPRESENTATION_RELATIONSHIP('SRRPL1','',#814,#62);
ENDSEC;
END-ISO-10303-21;
