ISO-10303-21;
HEADER;
/****************************************************************
 * Generated by software with PDElib inside                    *
 * PDElib Version v51a, created Fri 09/10/2010                  *
 * ITI Transcendata (http://www.transcendata.com/)              *
 ****************************************************************/
FILE_DESCRIPTION((''),'2;1');
FILE_NAME('CAPR2750-1700X3150X3450.stp','2013-05-22T17:11:36',(''),(''),'Mechanical Desktop 2011','Mechanical Desktop 2011',', , ');
FILE_SCHEMA(('AUTOMOTIVE_DESIGN { 1 2 10303 214 1 1 1 1 }'));
ENDSEC;
DATA;
#10=(NAMED_UNIT(*)PLANE_ANGLE_UNIT()SI_UNIT($,.RADIAN.));
#11=DIMENSIONAL_EXPONENTS(0.0,0.0,0.0,0.0,0.0,0.0,0.0);
#12=PLANE_ANGLE_MEASURE_WITH_UNIT(PLANE_ANGLE_MEASURE(0.0174532925),#10);
#16=(CONVERSION_BASED_UNIT('DEGREE',#12)NAMED_UNIT(#11)PLANE_ANGLE_UNIT());
#20=(NAMED_UNIT(*)SI_UNIT($,.STERADIAN.)SOLID_ANGLE_UNIT());
#24=(LENGTH_UNIT()NAMED_UNIT(*)SI_UNIT(.MILLI.,.METRE.));
#26=UNCERTAINTY_MEASURE_WITH_UNIT(LENGTH_MEASURE(0.000001),#24,'DISTANCE_ACCURACY_VALUE','');
#28=(GEOMETRIC_REPRESENTATION_CONTEXT(3)GLOBAL_UNCERTAINTY_ASSIGNED_CONTEXT((#26))GLOBAL_UNIT_ASSIGNED_CONTEXT((#16,#20,#24))REPRESENTATION_CONTEXT('','3D'));
#29=APPLICATION_CONTEXT('automotive design');
#30=APPLICATION_PROTOCOL_DEFINITION('INTERNATIONAL_STANDARD','automotive_design',1998,#29);
#31=PRODUCT_CONTEXT('3D Mechanical Parts',#29,'mechanical');
#32=PRODUCT('Product','Product','',(#31));
#33=PRODUCT_RELATED_PRODUCT_CATEGORY('part',$,(#32));
#34=PRODUCT_CATEGORY('part',$);
#35=PERSON('1','Design','Joe',$,$,$);
#36=ORGANIZATION($,'None','None');
#37=PERSON_AND_ORGANIZATION(#35,#36);
#38=PERSON_AND_ORGANIZATION_ROLE('design_owner');
#39=APPLIED_PERSON_AND_ORGANIZATION_ASSIGNMENT(#37,#38,(#32));
#40=PRODUCT_DEFINITION_FORMATION_WITH_SPECIFIED_SOURCE('None','',#32,.BOUGHT.);
#41=PERSON('2','Creator','Joe',$,$,$);
#42=ORGANIZATION($,'None','None');
#43=PERSON_AND_ORGANIZATION(#41,#42);
#44=PERSON_AND_ORGANIZATION_ROLE('creator');
#45=APPLIED_PERSON_AND_ORGANIZATION_ASSIGNMENT(#43,#44,(#40));
#46=PERSON('3','Supplier','Joe',$,$,$);
#47=ORGANIZATION($,'None','None');
#48=PERSON_AND_ORGANIZATION(#46,#47);
#49=PERSON_AND_ORGANIZATION_ROLE('design_supplier');
#50=APPLIED_PERSON_AND_ORGANIZATION_ASSIGNMENT(#48,#49,(#40));
#51=PRODUCT_DEFINITION_CONTEXT('part definition',#29,'design');
#52=PRODUCT_DEFINITION('None','',#40,#51);
#53=PERSON('4','Creator','Joe',$,$,$);
#54=ORGANIZATION($,'None','None');
#55=PERSON_AND_ORGANIZATION(#53,#54);
#56=PERSON_AND_ORGANIZATION_ROLE('creator');
#57=APPLIED_PERSON_AND_ORGANIZATION_ASSIGNMENT(#55,#56,(#52));
#58=CARTESIAN_POINT('NONE',(0.0,0.0,0.0));
#59=DIRECTION('NONE',(0.0,0.0,1.0));
#60=DIRECTION('NONE',(1.0,0.0,0.0));
#61=AXIS2_PLACEMENT_3D('NONE',#58,#59,#60);
#62=SHAPE_REPRESENTATION('SR1',(#61),#28);
#63=PRODUCT_DEFINITION_SHAPE('PDS1','Test Part',#52);
#64=SHAPE_DEFINITION_REPRESENTATION(#63,#62);
#65=CARTESIAN_POINT('',(14.949999999999999,-7.700000000000003,33.700000000000003));
#66=DIRECTION('',(0.0,0.0,1.0));
#67=DIRECTION('',(1.0,0.0,0.0));
#68=AXIS2_PLACEMENT_3D('',#65,#66,#67);
#69=SPHERICAL_SURFACE('',#68,0.8);
#70=CARTESIAN_POINT('',(14.949999999999999,-8.500000000000004,33.700000000000003));
#71=VERTEX_POINT('',#70);
#72=CARTESIAN_POINT('',(15.75,-7.700000000000004,33.700000000000003));
#73=VERTEX_POINT('',#72);
#74=CARTESIAN_POINT('',(14.949999999999999,-7.700000000000003,33.700000000000003));
#75=DIRECTION('',(0.0,0.0,1.0));
#76=DIRECTION('',(0.707106781186547,-0.707106781186547,0.0));
#77=AXIS2_PLACEMENT_3D('',#74,#75,#76);
#78=CIRCLE('',#77,0.8);
#79=EDGE_CURVE('',#71,#73,#78,.T.);
#80=ORIENTED_EDGE('',*,*,#79,.T.);
#81=CARTESIAN_POINT('',(14.949999999999999,-7.700000000000004,34.5));
#82=VERTEX_POINT('',#81);
#83=CARTESIAN_POINT('',(14.949999999999999,-7.700000000000004,33.700000000000003));
#84=DIRECTION('',(0.0,-1.0,0.0));
#85=DIRECTION('',(0.0,0.0,1.0));
#86=AXIS2_PLACEMENT_3D('',#83,#84,#85);
#87=CIRCLE('',#86,0.799999999999997);
#88=EDGE_CURVE('',#82,#73,#87,.F.);
#89=ORIENTED_EDGE('',*,*,#88,.F.);
#90=CARTESIAN_POINT('',(14.949999999999999,-7.700000000000004,33.700000000000003));
#91=DIRECTION('',(1.0,0.0,0.0));
#92=DIRECTION('',(0.0,-1.0,0.0));
#93=AXIS2_PLACEMENT_3D('',#90,#91,#92);
#94=CIRCLE('',#93,0.8);
#95=EDGE_CURVE('',#71,#82,#94,.F.);
#96=ORIENTED_EDGE('',*,*,#95,.F.);
#97=EDGE_LOOP('',(#80,#89,#96));
#98=FACE_OUTER_BOUND('',#97,.T.);
#99=ADVANCED_FACE('',(#98),#69,.T.);
#100=CARTESIAN_POINT('',(14.949999999999999,7.7,33.700000000000003));
#101=DIRECTION('',(0.0,0.0,1.0));
#102=DIRECTION('',(1.0,0.0,0.0));
#103=AXIS2_PLACEMENT_3D('',#100,#101,#102);
#104=SPHERICAL_SURFACE('',#103,0.8);
#105=CARTESIAN_POINT('',(15.75,7.7,33.700000000000003));
#106=VERTEX_POINT('',#105);
#107=CARTESIAN_POINT('',(14.949999999999999,8.5,33.700000000000003));
#108=VERTEX_POINT('',#107);
#109=CARTESIAN_POINT('',(14.949999999999999,7.7,33.700000000000003));
#110=DIRECTION('',(0.0,0.0,1.0));
#111=DIRECTION('',(0.707106781186548,0.707106781186547,0.0));
#112=AXIS2_PLACEMENT_3D('',#109,#110,#111);
#113=CIRCLE('',#112,0.8);
#114=EDGE_CURVE('',#106,#108,#113,.T.);
#115=ORIENTED_EDGE('',*,*,#114,.T.);
#116=CARTESIAN_POINT('',(14.949999999999999,7.7,34.5));
#117=VERTEX_POINT('',#116);
#118=CARTESIAN_POINT('',(14.949999999999999,7.7,33.700000000000003));
#119=DIRECTION('',(1.0,0.0,0.0));
#120=DIRECTION('',(0.0,0.0,1.0));
#121=AXIS2_PLACEMENT_3D('',#118,#119,#120);
#122=CIRCLE('',#121,0.799999999999997);
#123=EDGE_CURVE('',#117,#108,#122,.F.);
#124=ORIENTED_EDGE('',*,*,#123,.F.);
#125=CARTESIAN_POINT('',(14.949999999999999,7.7,33.700000000000003));
#126=DIRECTION('',(0.0,1.0,0.0));
#127=DIRECTION('',(0.707106781186549,0.0,0.707106781186546));
#128=AXIS2_PLACEMENT_3D('',#125,#126,#127);
#129=CIRCLE('',#128,0.8);
#130=EDGE_CURVE('',#117,#106,#129,.T.);
#131=ORIENTED_EDGE('',*,*,#130,.T.);
#132=EDGE_LOOP('',(#115,#124,#131));
#133=FACE_OUTER_BOUND('',#132,.T.);
#134=ADVANCED_FACE('',(#133),#104,.T.);
#135=CARTESIAN_POINT('',(-14.949999999999996,-7.700000000000004,33.700000000000003));
#136=DIRECTION('',(0.0,0.0,1.0));
#137=DIRECTION('',(1.0,0.0,0.0));
#138=AXIS2_PLACEMENT_3D('',#135,#136,#137);
#139=SPHERICAL_SURFACE('',#138,0.8);
#140=CARTESIAN_POINT('',(-14.949999999999996,-8.500000000000004,33.700000000000003));
#141=VERTEX_POINT('',#140);
#142=CARTESIAN_POINT('',(-14.949999999999996,-7.700000000000004,34.5));
#143=VERTEX_POINT('',#142);
#144=CARTESIAN_POINT('',(-14.949999999999996,-7.700000000000004,33.700000000000003));
#145=DIRECTION('',(-1.0,0.0,0.0));
#146=DIRECTION('',(0.0,-0.707106781186548,0.707106781186547));
#147=AXIS2_PLACEMENT_3D('',#144,#145,#146);
#148=CIRCLE('',#147,0.8);
#149=EDGE_CURVE('',#141,#143,#148,.T.);
#150=ORIENTED_EDGE('',*,*,#149,.T.);
#151=CARTESIAN_POINT('',(-15.749999999999996,-7.700000000000004,33.700000000000003));
#152=VERTEX_POINT('',#151);
#153=CARTESIAN_POINT('',(-14.949999999999996,-7.700000000000004,33.700000000000003));
#154=DIRECTION('',(0.0,-1.0,0.0));
#155=DIRECTION('',(-1.0,0.0,0.0));
#156=AXIS2_PLACEMENT_3D('',#153,#154,#155);
#157=CIRCLE('',#156,0.800000000000001);
#158=EDGE_CURVE('',#152,#143,#157,.F.);
#159=ORIENTED_EDGE('',*,*,#158,.F.);
#160=CARTESIAN_POINT('',(-14.949999999999996,-7.700000000000004,33.700000000000003));
#161=DIRECTION('',(0.0,0.0,1.0));
#162=DIRECTION('',(-0.707106781186548,-0.707106781186547,0.0));
#163=AXIS2_PLACEMENT_3D('',#160,#161,#162);
#164=CIRCLE('',#163,0.8);
#165=EDGE_CURVE('',#152,#141,#164,.T.);
#166=ORIENTED_EDGE('',*,*,#165,.T.);
#167=EDGE_LOOP('',(#150,#159,#166));
#168=FACE_OUTER_BOUND('',#167,.T.);
#169=ADVANCED_FACE('',(#168),#139,.T.);
#170=CARTESIAN_POINT('',(-14.949999999999999,7.699999999999999,33.700000000000003));
#171=DIRECTION('',(0.0,0.0,1.0));
#172=DIRECTION('',(1.0,0.0,0.0));
#173=AXIS2_PLACEMENT_3D('',#170,#171,#172);
#174=SPHERICAL_SURFACE('',#173,0.800000000000001);
#175=CARTESIAN_POINT('',(-14.949999999999998,7.7,34.5));
#176=VERTEX_POINT('',#175);
#177=CARTESIAN_POINT('',(-14.949999999999999,8.5,33.700000000000003));
#178=VERTEX_POINT('',#177);
#179=CARTESIAN_POINT('',(-14.949999999999999,7.7,33.700000000000003));
#180=DIRECTION('',(-1.0,0.0,0.0));
#181=DIRECTION('',(0.0,0.707106781186548,0.707106781186547));
#182=AXIS2_PLACEMENT_3D('',#179,#180,#181);
#183=CIRCLE('',#182,0.8);
#184=EDGE_CURVE('',#176,#178,#183,.T.);
#185=ORIENTED_EDGE('',*,*,#184,.T.);
#186=CARTESIAN_POINT('',(-15.75,7.699999999999999,33.700000000000003));
#187=VERTEX_POINT('',#186);
#188=CARTESIAN_POINT('',(-14.949999999999999,7.699999999999999,33.700000000000003));
#189=DIRECTION('',(0.0,0.0,1.0));
#190=DIRECTION('',(-1.0,0.0,0.0));
#191=AXIS2_PLACEMENT_3D('',#188,#189,#190);
#192=CIRCLE('',#191,0.800000000000001);
#193=EDGE_CURVE('',#187,#178,#192,.F.);
#194=ORIENTED_EDGE('',*,*,#193,.F.);
#195=CARTESIAN_POINT('',(-14.949999999999998,7.699999999999998,33.700000000000003));
#196=DIRECTION('',(1.110223E-015,1.0,-1.110223E-015));
#197=DIRECTION('',(-0.707106781186549,1.570092E-015,0.707106781186546));
#198=AXIS2_PLACEMENT_3D('',#195,#196,#197);
#199=CIRCLE('',#198,0.8);
#200=EDGE_CURVE('',#187,#176,#199,.T.);
#201=ORIENTED_EDGE('',*,*,#200,.T.);
#202=EDGE_LOOP('',(#185,#194,#201));
#203=FACE_OUTER_BOUND('',#202,.T.);
#204=ADVANCED_FACE('',(#203),#174,.T.);
#205=CARTESIAN_POINT('',(-14.949999999999999,7.699999999999999,0.0));
#206=DIRECTION('',(0.0,0.0,1.0));
#207=DIRECTION('',(-0.707106781186547,0.707106781186547,0.0));
#208=AXIS2_PLACEMENT_3D('',#205,#206,#207);
#209=CYLINDRICAL_SURFACE('',#208,0.8);
#210=CARTESIAN_POINT('',(-14.949999999999999,8.5,0.0));
#211=VERTEX_POINT('',#210);
#212=CARTESIAN_POINT('',(-15.75,7.699999999999999,0.0));
#213=VERTEX_POINT('',#212);
#214=CARTESIAN_POINT('',(-14.949999999999999,7.699999999999999,0.0));
#215=DIRECTION('',(0.0,0.0,1.0));
#216=DIRECTION('',(-0.707106781186547,0.707106781186547,0.0));
#217=AXIS2_PLACEMENT_3D('',#214,#215,#216);
#218=CIRCLE('',#217,0.8);
#219=EDGE_CURVE('',#211,#213,#218,.T.);
#220=ORIENTED_EDGE('',*,*,#219,.T.);
#221=CARTESIAN_POINT('',(-15.75,7.699999999999999,0.0));
#222=DIRECTION('',(0.0,0.0,1.0));
#223=VECTOR('',#222,33.700000000000003);
#224=LINE('',#221,#223);
#225=EDGE_CURVE('',#213,#187,#224,.T.);
#226=ORIENTED_EDGE('',*,*,#225,.T.);
#227=ORIENTED_EDGE('',*,*,#193,.T.);
#228=CARTESIAN_POINT('',(-14.949999999999999,8.5,33.700000000000003));
#229=DIRECTION('',(0.0,0.0,-1.0));
#230=VECTOR('',#229,33.700000000000003);
#231=LINE('',#228,#230);
#232=EDGE_CURVE('',#178,#211,#231,.T.);
#233=ORIENTED_EDGE('',*,*,#232,.T.);
#234=EDGE_LOOP('',(#220,#226,#227,#233));
#235=FACE_OUTER_BOUND('',#234,.T.);
#236=ADVANCED_FACE('',(#235),#209,.T.);
#237=CARTESIAN_POINT('',(-14.949999999999996,-4.250000000000004,33.700000000000003));
#238=DIRECTION('',(-2.089832E-016,1.0,0.0));
#239=DIRECTION('',(-0.707106781186549,0.0,0.707106781186546));
#240=AXIS2_PLACEMENT_3D('',#237,#238,#239);
#241=CYLINDRICAL_SURFACE('',#240,0.8);
#242=ORIENTED_EDGE('',*,*,#200,.F.);
#243=CARTESIAN_POINT('',(-15.749999999999998,7.699999999999998,33.700000000000003));
#244=DIRECTION('',(0.0,-1.0,0.0));
#245=VECTOR('',#244,15.400000000000002);
#246=LINE('',#243,#245);
#247=EDGE_CURVE('',#187,#152,#246,.T.);
#248=ORIENTED_EDGE('',*,*,#247,.T.);
#249=ORIENTED_EDGE('',*,*,#158,.T.);
#250=CARTESIAN_POINT('',(-14.949999999999996,-7.700000000000004,34.5));
#251=DIRECTION('',(0.0,1.0,0.0));
#252=VECTOR('',#251,15.400000000000004);
#253=LINE('',#250,#252);
#254=EDGE_CURVE('',#143,#176,#253,.T.);
#255=ORIENTED_EDGE('',*,*,#254,.T.);
#256=EDGE_LOOP('',(#242,#248,#249,#255));
#257=FACE_OUTER_BOUND('',#256,.T.);
#258=ADVANCED_FACE('',(#257),#241,.T.);
#259=CARTESIAN_POINT('',(-7.875,7.7,33.700000000000003));
#260=DIRECTION('',(1.0,0.0,0.0));
#261=DIRECTION('',(0.0,0.707106781186548,0.707106781186547));
#262=AXIS2_PLACEMENT_3D('',#259,#260,#261);
#263=CYLINDRICAL_SURFACE('',#262,0.8);
#264=ORIENTED_EDGE('',*,*,#123,.T.);
#265=CARTESIAN_POINT('',(14.949999999999999,8.5,33.700000000000003));
#266=DIRECTION('',(-1.0,0.0,0.0));
#267=VECTOR('',#266,29.899999999999999);
#268=LINE('',#265,#267);
#269=EDGE_CURVE('',#108,#178,#268,.T.);
#270=ORIENTED_EDGE('',*,*,#269,.T.);
#271=ORIENTED_EDGE('',*,*,#184,.F.);
#272=CARTESIAN_POINT('',(-14.949999999999998,7.7,34.5));
#273=DIRECTION('',(1.0,0.0,0.0));
#274=VECTOR('',#273,29.899999999999999);
#275=LINE('',#272,#274);
#276=EDGE_CURVE('',#176,#117,#275,.T.);
#277=ORIENTED_EDGE('',*,*,#276,.T.);
#278=EDGE_LOOP('',(#264,#270,#271,#277));
#279=FACE_OUTER_BOUND('',#278,.T.);
#280=ADVANCED_FACE('',(#279),#263,.T.);
#281=CARTESIAN_POINT('',(-14.949999999999996,-7.700000000000004,0.0));
#282=DIRECTION('',(0.0,0.0,1.0));
#283=DIRECTION('',(-0.707106781186548,-0.707106781186547,0.0));
#284=AXIS2_PLACEMENT_3D('',#281,#282,#283);
#285=CYLINDRICAL_SURFACE('',#284,0.8);
#286=CARTESIAN_POINT('',(-15.749999999999996,-7.700000000000004,0.0));
#287=VERTEX_POINT('',#286);
#288=CARTESIAN_POINT('',(-14.949999999999996,-8.500000000000004,0.0));
#289=VERTEX_POINT('',#288);
#290=CARTESIAN_POINT('',(-14.949999999999996,-7.700000000000004,0.0));
#291=DIRECTION('',(0.0,0.0,1.0));
#292=DIRECTION('',(-0.707106781186548,-0.707106781186547,0.0));
#293=AXIS2_PLACEMENT_3D('',#290,#291,#292);
#294=CIRCLE('',#293,0.8);
#295=EDGE_CURVE('',#287,#289,#294,.T.);
#296=ORIENTED_EDGE('',*,*,#295,.T.);
#297=CARTESIAN_POINT('',(-14.949999999999996,-8.500000000000004,0.0));
#298=DIRECTION('',(0.0,0.0,1.0));
#299=VECTOR('',#298,33.700000000000003);
#300=LINE('',#297,#299);
#301=EDGE_CURVE('',#289,#141,#300,.T.);
#302=ORIENTED_EDGE('',*,*,#301,.T.);
#303=ORIENTED_EDGE('',*,*,#165,.F.);
#304=CARTESIAN_POINT('',(-15.749999999999996,-7.700000000000004,33.700000000000003));
#305=DIRECTION('',(0.0,0.0,-1.0));
#306=VECTOR('',#305,33.700000000000003);
#307=LINE('',#304,#306);
#308=EDGE_CURVE('',#152,#287,#307,.T.);
#309=ORIENTED_EDGE('',*,*,#308,.T.);
#310=EDGE_LOOP('',(#296,#302,#303,#309));
#311=FACE_OUTER_BOUND('',#310,.T.);
#312=ADVANCED_FACE('',(#311),#285,.T.);
#313=CARTESIAN_POINT('',(7.875,-7.700000000000004,33.700000000000003));
#314=DIRECTION('',(-1.0,0.0,0.0));
#315=DIRECTION('',(0.0,-0.707106781186548,0.707106781186547));
#316=AXIS2_PLACEMENT_3D('',#313,#314,#315);
#317=CYLINDRICAL_SURFACE('',#316,0.8);
#318=ORIENTED_EDGE('',*,*,#149,.F.);
#319=CARTESIAN_POINT('',(-14.949999999999996,-8.500000000000004,33.700000000000003));
#320=DIRECTION('',(1.0,0.0,0.0));
#321=VECTOR('',#320,29.899999999999995);
#322=LINE('',#319,#321);
#323=EDGE_CURVE('',#141,#71,#322,.T.);
#324=ORIENTED_EDGE('',*,*,#323,.T.);
#325=ORIENTED_EDGE('',*,*,#95,.T.);
#326=CARTESIAN_POINT('',(14.949999999999999,-7.700000000000004,34.5));
#327=DIRECTION('',(-1.0,0.0,0.0));
#328=VECTOR('',#327,29.899999999999995);
#329=LINE('',#326,#328);
#330=EDGE_CURVE('',#82,#143,#329,.T.);
#331=ORIENTED_EDGE('',*,*,#330,.T.);
#332=EDGE_LOOP('',(#318,#324,#325,#331));
#333=FACE_OUTER_BOUND('',#332,.T.);
#334=ADVANCED_FACE('',(#333),#317,.T.);
#335=CARTESIAN_POINT('',(14.949999999999999,7.7,0.0));
#336=DIRECTION('',(0.0,0.0,1.0));
#337=DIRECTION('',(0.707106781186548,0.707106781186547,0.0));
#338=AXIS2_PLACEMENT_3D('',#335,#336,#337);
#339=CYLINDRICAL_SURFACE('',#338,0.8);
#340=CARTESIAN_POINT('',(15.75,7.7,0.0));
#341=VERTEX_POINT('',#340);
#342=CARTESIAN_POINT('',(14.949999999999999,8.5,0.0));
#343=VERTEX_POINT('',#342);
#344=CARTESIAN_POINT('',(14.949999999999999,7.7,0.0));
#345=DIRECTION('',(0.0,0.0,1.0));
#346=DIRECTION('',(0.707106781186548,0.707106781186547,0.0));
#347=AXIS2_PLACEMENT_3D('',#344,#345,#346);
#348=CIRCLE('',#347,0.8);
#349=EDGE_CURVE('',#341,#343,#348,.T.);
#350=ORIENTED_EDGE('',*,*,#349,.T.);
#351=CARTESIAN_POINT('',(14.949999999999999,8.5,0.0));
#352=DIRECTION('',(0.0,0.0,1.0));
#353=VECTOR('',#352,33.700000000000003);
#354=LINE('',#351,#353);
#355=EDGE_CURVE('',#343,#108,#354,.T.);
#356=ORIENTED_EDGE('',*,*,#355,.T.);
#357=ORIENTED_EDGE('',*,*,#114,.F.);
#358=CARTESIAN_POINT('',(15.75,7.7,33.700000000000003));
#359=DIRECTION('',(0.0,0.0,-1.0));
#360=VECTOR('',#359,33.700000000000003);
#361=LINE('',#358,#360);
#362=EDGE_CURVE('',#106,#341,#361,.T.);
#363=ORIENTED_EDGE('',*,*,#362,.T.);
#364=EDGE_LOOP('',(#350,#356,#357,#363));
#365=FACE_OUTER_BOUND('',#364,.T.);
#366=ADVANCED_FACE('',(#365),#339,.T.);
#367=CARTESIAN_POINT('',(14.949999999999999,4.249999999999999,33.700000000000003));
#368=DIRECTION('',(0.0,-1.0,0.0));
#369=DIRECTION('',(0.707106781186549,0.0,0.707106781186546));
#370=AXIS2_PLACEMENT_3D('',#367,#368,#369);
#371=CYLINDRICAL_SURFACE('',#370,0.8);
#372=ORIENTED_EDGE('',*,*,#88,.T.);
#373=CARTESIAN_POINT('',(15.75,-7.700000000000004,33.700000000000003));
#374=DIRECTION('',(0.0,1.0,0.0));
#375=VECTOR('',#374,15.400000000000004);
#376=LINE('',#373,#375);
#377=EDGE_CURVE('',#73,#106,#376,.T.);
#378=ORIENTED_EDGE('',*,*,#377,.T.);
#379=ORIENTED_EDGE('',*,*,#130,.F.);
#380=CARTESIAN_POINT('',(14.949999999999999,7.7,34.5));
#381=DIRECTION('',(0.0,-1.0,0.0));
#382=VECTOR('',#381,15.400000000000004);
#383=LINE('',#380,#382);
#384=EDGE_CURVE('',#117,#82,#383,.T.);
#385=ORIENTED_EDGE('',*,*,#384,.T.);
#386=EDGE_LOOP('',(#372,#378,#379,#385));
#387=FACE_OUTER_BOUND('',#386,.T.);
#388=ADVANCED_FACE('',(#387),#371,.T.);
#389=CARTESIAN_POINT('',(14.949999999999999,-7.700000000000003,0.0));
#390=DIRECTION('',(0.0,0.0,1.0));
#391=DIRECTION('',(0.707106781186547,-0.707106781186547,0.0));
#392=AXIS2_PLACEMENT_3D('',#389,#390,#391);
#393=CYLINDRICAL_SURFACE('',#392,0.8);
#394=CARTESIAN_POINT('',(14.949999999999999,-8.500000000000004,0.0));
#395=VERTEX_POINT('',#394);
#396=CARTESIAN_POINT('',(15.75,-7.700000000000003,0.0));
#397=VERTEX_POINT('',#396);
#398=CARTESIAN_POINT('',(14.949999999999999,-7.700000000000003,0.0));
#399=DIRECTION('',(0.0,0.0,1.0));
#400=DIRECTION('',(0.707106781186547,-0.707106781186547,0.0));
#401=AXIS2_PLACEMENT_3D('',#398,#399,#400);
#402=CIRCLE('',#401,0.8);
#403=EDGE_CURVE('',#395,#397,#402,.T.);
#404=ORIENTED_EDGE('',*,*,#403,.T.);
#405=CARTESIAN_POINT('',(15.75,-7.700000000000003,0.0));
#406=DIRECTION('',(0.0,0.0,1.0));
#407=VECTOR('',#406,33.700000000000003);
#408=LINE('',#405,#407);
#409=EDGE_CURVE('',#397,#73,#408,.T.);
#410=ORIENTED_EDGE('',*,*,#409,.T.);
#411=ORIENTED_EDGE('',*,*,#79,.F.);
#412=CARTESIAN_POINT('',(14.949999999999999,-8.500000000000004,33.700000000000003));
#413=DIRECTION('',(0.0,0.0,-1.0));
#414=VECTOR('',#413,33.700000000000003);
#415=LINE('',#412,#414);
#416=EDGE_CURVE('',#71,#395,#415,.T.);
#417=ORIENTED_EDGE('',*,*,#416,.T.);
#418=EDGE_LOOP('',(#404,#410,#411,#417));
#419=FACE_OUTER_BOUND('',#418,.T.);
#420=ADVANCED_FACE('',(#419),#393,.T.);
#421=CARTESIAN_POINT('',(-15.749999999999996,-8.500000000000004,0.0));
#422=DIRECTION('',(-1.0,0.0,0.0));
#423=DIRECTION('',(0.0,0.0,1.0));
#424=AXIS2_PLACEMENT_3D('',#421,#422,#423);
#425=PLANE('',#424);
#426=ORIENTED_EDGE('',*,*,#308,.F.);
#427=ORIENTED_EDGE('',*,*,#247,.F.);
#428=ORIENTED_EDGE('',*,*,#225,.F.);
#429=CARTESIAN_POINT('',(-15.749999999999996,-7.700000000000004,0.0));
#430=DIRECTION('',(0.0,1.0,0.0));
#431=VECTOR('',#430,15.400000000000002);
#432=LINE('',#429,#431);
#433=EDGE_CURVE('',#287,#213,#432,.T.);
#434=ORIENTED_EDGE('',*,*,#433,.F.);
#435=EDGE_LOOP('',(#426,#427,#428,#434));
#436=FACE_OUTER_BOUND('',#435,.T.);
#437=ADVANCED_FACE('',(#436),#425,.T.);
#438=CARTESIAN_POINT('',(-15.75,8.5,0.0));
#439=DIRECTION('',(0.0,1.0,0.0));
#440=DIRECTION('',(0.0,0.0,1.0));
#441=AXIS2_PLACEMENT_3D('',#438,#439,#440);
#442=PLANE('',#441);
#443=ORIENTED_EDGE('',*,*,#232,.F.);
#444=ORIENTED_EDGE('',*,*,#269,.F.);
#445=ORIENTED_EDGE('',*,*,#355,.F.);
#446=CARTESIAN_POINT('',(-14.949999999999999,8.5,0.0));
#447=DIRECTION('',(1.0,0.0,0.0));
#448=VECTOR('',#447,29.899999999999999);
#449=LINE('',#446,#448);
#450=EDGE_CURVE('',#211,#343,#449,.T.);
#451=ORIENTED_EDGE('',*,*,#450,.F.);
#452=EDGE_LOOP('',(#443,#444,#445,#451));
#453=FACE_OUTER_BOUND('',#452,.T.);
#454=ADVANCED_FACE('',(#453),#442,.T.);
#455=CARTESIAN_POINT('',(8.881784E-016,-1.256102E-015,34.5));
#456=DIRECTION('',(0.0,0.0,1.0));
#457=DIRECTION('',(1.0,0.0,0.0));
#458=AXIS2_PLACEMENT_3D('',#455,#456,#457);
#459=PLANE('',#458);
#460=ORIENTED_EDGE('',*,*,#254,.F.);
#461=ORIENTED_EDGE('',*,*,#330,.F.);
#462=ORIENTED_EDGE('',*,*,#384,.F.);
#463=ORIENTED_EDGE('',*,*,#276,.F.);
#464=EDGE_LOOP('',(#460,#461,#462,#463));
#465=FACE_OUTER_BOUND('',#464,.T.);
#466=ADVANCED_FACE('',(#465),#459,.T.);
#467=CARTESIAN_POINT('',(15.75,8.5,0.0));
#468=DIRECTION('',(1.0,0.0,0.0));
#469=DIRECTION('',(0.0,0.0,-1.0));
#470=AXIS2_PLACEMENT_3D('',#467,#468,#469);
#471=PLANE('',#470);
#472=ORIENTED_EDGE('',*,*,#409,.F.);
#473=CARTESIAN_POINT('',(15.75,7.7,0.0));
#474=DIRECTION('',(0.0,-1.0,0.0));
#475=VECTOR('',#474,15.400000000000002);
#476=LINE('',#473,#475);
#477=EDGE_CURVE('',#341,#397,#476,.T.);
#478=ORIENTED_EDGE('',*,*,#477,.F.);
#479=ORIENTED_EDGE('',*,*,#362,.F.);
#480=ORIENTED_EDGE('',*,*,#377,.F.);
#481=EDGE_LOOP('',(#472,#478,#479,#480));
#482=FACE_OUTER_BOUND('',#481,.T.);
#483=ADVANCED_FACE('',(#482),#471,.T.);
#484=CARTESIAN_POINT('',(15.75,-8.500000000000004,0.0));
#485=DIRECTION('',(0.0,-1.0,0.0));
#486=DIRECTION('',(0.0,0.0,-1.0));
#487=AXIS2_PLACEMENT_3D('',#484,#485,#486);
#488=PLANE('',#487);
#489=ORIENTED_EDGE('',*,*,#301,.F.);
#490=CARTESIAN_POINT('',(14.949999999999999,-8.500000000000004,0.0));
#491=DIRECTION('',(-1.0,0.0,0.0));
#492=VECTOR('',#491,29.899999999999995);
#493=LINE('',#490,#492);
#494=EDGE_CURVE('',#395,#289,#493,.T.);
#495=ORIENTED_EDGE('',*,*,#494,.F.);
#496=ORIENTED_EDGE('',*,*,#416,.F.);
#497=ORIENTED_EDGE('',*,*,#323,.F.);
#498=EDGE_LOOP('',(#489,#495,#496,#497));
#499=FACE_OUTER_BOUND('',#498,.T.);
#500=ADVANCED_FACE('',(#499),#488,.T.);
#501=CARTESIAN_POINT('',(8.881784E-016,-1.256102E-015,0.0));
#502=DIRECTION('',(0.0,0.0,1.0));
#503=DIRECTION('',(1.0,0.0,0.0));
#504=AXIS2_PLACEMENT_3D('',#501,#502,#503);
#505=PLANE('',#504);
#506=ORIENTED_EDGE('',*,*,#295,.F.);
#507=ORIENTED_EDGE('',*,*,#433,.T.);
#508=ORIENTED_EDGE('',*,*,#219,.F.);
#509=ORIENTED_EDGE('',*,*,#450,.T.);
#510=ORIENTED_EDGE('',*,*,#349,.F.);
#511=ORIENTED_EDGE('',*,*,#477,.T.);
#512=ORIENTED_EDGE('',*,*,#403,.F.);
#513=ORIENTED_EDGE('',*,*,#494,.T.);
#514=EDGE_LOOP('',(#506,#507,#508,#509,#510,#511,#512,#513));
#515=FACE_OUTER_BOUND('',#514,.T.);
#516=ADVANCED_FACE('',(#515),#505,.F.);
#517=CLOSED_SHELL('',(#99,#134,#169,#204,#236,#258,#280,#312,#334,#366,#388,#420,#437,#454,#466,#483,#500,#516));
#518=MANIFOLD_SOLID_BREP('8F7',#517);
#519=COLOUR_RGB('240',1.0,0.0,0.25);
#520=SURFACE_STYLE_USAGE(.BOTH.,#521);
#521=SURFACE_SIDE_STYLE('NONE',(#522));
#522=SURFACE_STYLE_FILL_AREA(#523);
#523=FILL_AREA_STYLE('NONE',(#524));
#524=FILL_AREA_STYLE_COLOUR('NONE',#519);
#525=PRESENTATION_STYLE_ASSIGNMENT((#520));
#526=STYLED_ITEM('NONE',(#525),#518);
#527=MECHANICAL_DESIGN_GEOMETRIC_PRESENTATION_REPRESENTATION('NONE',(#526,#624,#713),#28);
#528=PRESENTATION_LAYER_ASSIGNMENT('3D','None',(#518,#616,#712));
#529=CARTESIAN_POINT('',(13.75,1.110223E-016,0.0));
#530=DIRECTION('',(0.0,0.0,-1.0));
#531=DIRECTION('',(1.0,0.0,0.0));
#532=AXIS2_PLACEMENT_3D('',#529,#530,#531);
#533=CYLINDRICAL_SURFACE('',#532,0.4);
#534=CARTESIAN_POINT('',(14.15,1.110223E-016,-3.8));
#535=VERTEX_POINT('',#534);
#536=CARTESIAN_POINT('',(14.15,1.110223E-016,0.0));
#537=VERTEX_POINT('',#536);
#538=CARTESIAN_POINT('',(14.15,1.110223E-016,-3.799999999999999));
#539=DIRECTION('',(0.0,0.0,1.0));
#540=VECTOR('',#539,3.799999999999999);
#541=LINE('',#538,#540);
#542=EDGE_CURVE('',#535,#537,#541,.T.);
#543=ORIENTED_EDGE('',*,*,#542,.F.);
#544=CARTESIAN_POINT('',(13.35,1.600082E-016,-3.799999999999999));
#545=VERTEX_POINT('',#544);
#546=CARTESIAN_POINT('',(13.75,1.110223E-016,-3.8));
#547=DIRECTION('',(0.0,0.0,1.0));
#548=DIRECTION('',(1.0,0.0,0.0));
#549=AXIS2_PLACEMENT_3D('',#546,#547,#548);
#550=CIRCLE('',#549,0.4);
#551=EDGE_CURVE('',#535,#545,#550,.T.);
#552=ORIENTED_EDGE('',*,*,#551,.T.);
#553=CARTESIAN_POINT('',(13.35,1.600082E-016,0.0));
#554=VERTEX_POINT('',#553);
#555=CARTESIAN_POINT('',(13.35,1.600082E-016,-3.799999999999999));
#556=DIRECTION('',(0.0,0.0,1.0));
#557=VECTOR('',#556,3.799999999999999);
#558=LINE('',#555,#557);
#559=EDGE_CURVE('',#545,#554,#558,.T.);
#560=ORIENTED_EDGE('',*,*,#559,.T.);
#561=CARTESIAN_POINT('',(13.75,1.110223E-016,0.0));
#562=DIRECTION('',(0.0,0.0,1.0));
#563=DIRECTION('',(1.0,0.0,0.0));
#564=AXIS2_PLACEMENT_3D('',#561,#562,#563);
#565=CIRCLE('',#564,0.4);
#566=EDGE_CURVE('',#537,#554,#565,.T.);
#567=ORIENTED_EDGE('',*,*,#566,.F.);
#568=EDGE_LOOP('',(#543,#552,#560,#567));
#569=FACE_OUTER_BOUND('',#568,.T.);
#570=ADVANCED_FACE('',(#569),#533,.T.);
#571=CARTESIAN_POINT('',(13.75,1.110223E-016,0.0));
#572=DIRECTION('',(0.0,0.0,-1.0));
#573=DIRECTION('',(1.0,0.0,0.0));
#574=AXIS2_PLACEMENT_3D('',#571,#572,#573);
#575=CYLINDRICAL_SURFACE('',#574,0.4);
#576=ORIENTED_EDGE('',*,*,#542,.T.);
#577=CARTESIAN_POINT('',(13.75,1.110223E-016,0.0));
#578=DIRECTION('',(0.0,0.0,1.0));
#579=DIRECTION('',(1.0,0.0,0.0));
#580=AXIS2_PLACEMENT_3D('',#577,#578,#579);
#581=CIRCLE('',#580,0.4);
#582=EDGE_CURVE('',#554,#537,#581,.T.);
#583=ORIENTED_EDGE('',*,*,#582,.F.);
#584=ORIENTED_EDGE('',*,*,#559,.F.);
#585=CARTESIAN_POINT('',(13.75,1.110223E-016,-3.8));
#586=DIRECTION('',(0.0,0.0,1.0));
#587=DIRECTION('',(1.0,0.0,0.0));
#588=AXIS2_PLACEMENT_3D('',#585,#586,#587);
#589=CIRCLE('',#588,0.4);
#590=EDGE_CURVE('',#545,#535,#589,.T.);
#591=ORIENTED_EDGE('',*,*,#590,.T.);
#592=EDGE_LOOP('',(#576,#583,#584,#591));
#593=FACE_OUTER_BOUND('',#592,.T.);
#594=ADVANCED_FACE('',(#593),#575,.T.);
#595=CARTESIAN_POINT('',(13.75,1.110223E-016,-3.8));
#596=DIRECTION('',(0.0,0.0,1.0));
#597=DIRECTION('',(1.0,0.0,0.0));
#598=AXIS2_PLACEMENT_3D('',#595,#596,#597);
#599=PLANE('',#598);
#600=ORIENTED_EDGE('',*,*,#551,.F.);
#601=ORIENTED_EDGE('',*,*,#590,.F.);
#602=EDGE_LOOP('',(#600,#601));
#603=FACE_OUTER_BOUND('',#602,.T.);
#604=ADVANCED_FACE('',(#603),#599,.F.);
#605=CARTESIAN_POINT('',(13.75,1.110223E-016,0.0));
#606=DIRECTION('',(0.0,0.0,1.0));
#607=DIRECTION('',(1.0,0.0,0.0));
#608=AXIS2_PLACEMENT_3D('',#605,#606,#607);
#609=PLANE('',#608);
#610=ORIENTED_EDGE('',*,*,#566,.T.);
#611=ORIENTED_EDGE('',*,*,#582,.T.);
#612=EDGE_LOOP('',(#610,#611));
#613=FACE_OUTER_BOUND('',#612,.T.);
#614=ADVANCED_FACE('',(#613),#609,.T.);
#615=CLOSED_SHELL('',(#570,#594,#604,#614));
#616=MANIFOLD_SOLID_BREP('7E0',#615);
#617=COLOUR_RGB('255',1.0,1.0,1.0);
#618=SURFACE_STYLE_USAGE(.BOTH.,#619);
#619=SURFACE_SIDE_STYLE('NONE',(#620));
#620=SURFACE_STYLE_FILL_AREA(#621);
#621=FILL_AREA_STYLE('NONE',(#622));
#622=FILL_AREA_STYLE_COLOUR('NONE',#617);
#623=PRESENTATION_STYLE_ASSIGNMENT((#618));
#624=STYLED_ITEM('NONE',(#623),#616);
#625=CARTESIAN_POINT('',(-13.75,1.110223E-016,0.0));
#626=DIRECTION('',(0.0,0.0,-1.0));
#627=DIRECTION('',(1.0,0.0,0.0));
#628=AXIS2_PLACEMENT_3D('',#625,#626,#627);
#629=CYLINDRICAL_SURFACE('',#628,0.4);
#630=CARTESIAN_POINT('',(-13.35,1.110223E-016,-3.8));
#631=VERTEX_POINT('',#630);
#632=CARTESIAN_POINT('',(-13.35,1.110223E-016,0.0));
#633=VERTEX_POINT('',#632);
#634=CARTESIAN_POINT('',(-13.35,1.110223E-016,-3.799999999999999));
#635=DIRECTION('',(0.0,0.0,1.0));
#636=VECTOR('',#635,3.799999999999999);
#637=LINE('',#634,#636);
#638=EDGE_CURVE('',#631,#633,#637,.T.);
#639=ORIENTED_EDGE('',*,*,#638,.F.);
#640=CARTESIAN_POINT('',(-14.15,1.600082E-016,-3.799999999999999));
#641=VERTEX_POINT('',#640);
#642=CARTESIAN_POINT('',(-13.75,1.110223E-016,-3.8));
#643=DIRECTION('',(0.0,0.0,1.0));
#644=DIRECTION('',(1.0,0.0,0.0));
#645=AXIS2_PLACEMENT_3D('',#642,#643,#644);
#646=CIRCLE('',#645,0.4);
#647=EDGE_CURVE('',#631,#641,#646,.T.);
#648=ORIENTED_EDGE('',*,*,#647,.T.);
#649=CARTESIAN_POINT('',(-14.15,1.600082E-016,0.0));
#650=VERTEX_POINT('',#649);
#651=CARTESIAN_POINT('',(-14.15,1.600082E-016,-3.799999999999999));
#652=DIRECTION('',(0.0,0.0,1.0));
#653=VECTOR('',#652,3.799999999999999);
#654=LINE('',#651,#653);
#655=EDGE_CURVE('',#641,#650,#654,.T.);
#656=ORIENTED_EDGE('',*,*,#655,.T.);
#657=CARTESIAN_POINT('',(-13.75,1.110223E-016,0.0));
#658=DIRECTION('',(0.0,0.0,1.0));
#659=DIRECTION('',(1.0,0.0,0.0));
#660=AXIS2_PLACEMENT_3D('',#657,#658,#659);
#661=CIRCLE('',#660,0.4);
#662=EDGE_CURVE('',#633,#650,#661,.T.);
#663=ORIENTED_EDGE('',*,*,#662,.F.);
#664=EDGE_LOOP('',(#639,#648,#656,#663));
#665=FACE_OUTER_BOUND('',#664,.T.);
#666=ADVANCED_FACE('',(#665),#629,.T.);
#667=CARTESIAN_POINT('',(-13.75,1.110223E-016,0.0));
#668=DIRECTION('',(0.0,0.0,-1.0));
#669=DIRECTION('',(1.0,0.0,0.0));
#670=AXIS2_PLACEMENT_3D('',#667,#668,#669);
#671=CYLINDRICAL_SURFACE('',#670,0.4);
#672=ORIENTED_EDGE('',*,*,#638,.T.);
#673=CARTESIAN_POINT('',(-13.75,1.110223E-016,0.0));
#674=DIRECTION('',(0.0,0.0,1.0));
#675=DIRECTION('',(1.0,0.0,0.0));
#676=AXIS2_PLACEMENT_3D('',#673,#674,#675);
#677=CIRCLE('',#676,0.4);
#678=EDGE_CURVE('',#650,#633,#677,.T.);
#679=ORIENTED_EDGE('',*,*,#678,.F.);
#680=ORIENTED_EDGE('',*,*,#655,.F.);
#681=CARTESIAN_POINT('',(-13.75,1.110223E-016,-3.8));
#682=DIRECTION('',(0.0,0.0,1.0));
#683=DIRECTION('',(1.0,0.0,0.0));
#684=AXIS2_PLACEMENT_3D('',#681,#682,#683);
#685=CIRCLE('',#684,0.4);
#686=EDGE_CURVE('',#641,#631,#685,.T.);
#687=ORIENTED_EDGE('',*,*,#686,.T.);
#688=EDGE_LOOP('',(#672,#679,#680,#687));
#689=FACE_OUTER_BOUND('',#688,.T.);
#690=ADVANCED_FACE('',(#689),#671,.T.);
#691=CARTESIAN_POINT('',(-13.75,1.110223E-016,-3.8));
#692=DIRECTION('',(0.0,0.0,1.0));
#693=DIRECTION('',(1.0,0.0,0.0));
#694=AXIS2_PLACEMENT_3D('',#691,#692,#693);
#695=PLANE('',#694);
#696=ORIENTED_EDGE('',*,*,#647,.F.);
#697=ORIENTED_EDGE('',*,*,#686,.F.);
#698=EDGE_LOOP('',(#696,#697));
#699=FACE_OUTER_BOUND('',#698,.T.);
#700=ADVANCED_FACE('',(#699),#695,.F.);
#701=CARTESIAN_POINT('',(-13.75,1.110223E-016,0.0));
#702=DIRECTION('',(0.0,0.0,1.0));
#703=DIRECTION('',(1.0,0.0,0.0));
#704=AXIS2_PLACEMENT_3D('',#701,#702,#703);
#705=PLANE('',#704);
#706=ORIENTED_EDGE('',*,*,#662,.T.);
#707=ORIENTED_EDGE('',*,*,#678,.T.);
#708=EDGE_LOOP('',(#706,#707));
#709=FACE_OUTER_BOUND('',#708,.T.);
#710=ADVANCED_FACE('',(#709),#705,.T.);
#711=CLOSED_SHELL('',(#666,#690,#700,#710));
#712=MANIFOLD_SOLID_BREP('7DF',#711);
#713=STYLED_ITEM('NONE',(#623),#712);
#714=ADVANCED_BREP_SHAPE_REPRESENTATION('ABSR1',(#518,#616,#712),#28);
#715=SHAPE_REPRESENTATION_RELATIONSHIP('SRRPL1','',#714,#62);
ENDSEC;
END-ISO-10303-21;
