ISO-10303-21;
HEADER;
/****************************************************************
 * Generated by software with PDElib inside                    *
 * PDElib Version v51a, created Fri 09/10/2010                  *
 * ITI Transcendata (http://www.transcendata.com/)              *
 ****************************************************************/
FILE_DESCRIPTION((''),'2;1');
FILE_NAME('CAPR1000-600X1300X1200.stp','2012-06-12T16:25:57',(''),(''),'Mechanical Desktop 2011','Mechanical Desktop 2011',', , ');
FILE_SCHEMA(('AUTOMOTIVE_DESIGN { 1 2 10303 214 1 1 1 1 }'));
ENDSEC;
DATA;
#10=(NAMED_UNIT(*)PLANE_ANGLE_UNIT()SI_UNIT($,.RADIAN.));
#11=DIMENSIONAL_EXPONENTS(0.0,0.0,0.0,0.0,0.0,0.0,0.0);
#12=PLANE_ANGLE_MEASURE_WITH_UNIT(PLANE_ANGLE_MEASURE(0.0174532925),#10);
#16=(CONVERSION_BASED_UNIT('DEGREE',#12)NAMED_UNIT(#11)PLANE_ANGLE_UNIT());
#20=(NAMED_UNIT(*)SI_UNIT($,.STERADIAN.)SOLID_ANGLE_UNIT());
#24=(LENGTH_UNIT()NAMED_UNIT(*)SI_UNIT(.MILLI.,.METRE.));
#26=UNCERTAINTY_MEASURE_WITH_UNIT(LENGTH_MEASURE(0.000001),#24,'DISTANCE_ACCURACY_VALUE','');
#28=(GEOMETRIC_REPRESENTATION_CONTEXT(3)GLOBAL_UNCERTAINTY_ASSIGNED_CONTEXT((#26))GLOBAL_UNIT_ASSIGNED_CONTEXT((#16,#20,#24))REPRESENTATION_CONTEXT('','3D'));
#29=APPLICATION_CONTEXT('automotive design');
#30=APPLICATION_PROTOCOL_DEFINITION('INTERNATIONAL_STANDARD','automotive_design',1998,#29);
#31=PRODUCT_CONTEXT('3D Mechanical Parts',#29,'mechanical');
#32=PRODUCT('Product','Product','',(#31));
#33=PRODUCT_RELATED_PRODUCT_CATEGORY('part',$,(#32));
#34=PRODUCT_CATEGORY('part',$);
#35=PERSON('1','Design','Joe',$,$,$);
#36=ORGANIZATION($,'None','None');
#37=PERSON_AND_ORGANIZATION(#35,#36);
#38=PERSON_AND_ORGANIZATION_ROLE('design_owner');
#39=APPLIED_PERSON_AND_ORGANIZATION_ASSIGNMENT(#37,#38,(#32));
#40=PRODUCT_DEFINITION_FORMATION_WITH_SPECIFIED_SOURCE('None','',#32,.BOUGHT.);
#41=PERSON('2','Creator','Joe',$,$,$);
#42=ORGANIZATION($,'None','None');
#43=PERSON_AND_ORGANIZATION(#41,#42);
#44=PERSON_AND_ORGANIZATION_ROLE('creator');
#45=APPLIED_PERSON_AND_ORGANIZATION_ASSIGNMENT(#43,#44,(#40));
#46=PERSON('3','Supplier','Joe',$,$,$);
#47=ORGANIZATION($,'None','None');
#48=PERSON_AND_ORGANIZATION(#46,#47);
#49=PERSON_AND_ORGANIZATION_ROLE('design_supplier');
#50=APPLIED_PERSON_AND_ORGANIZATION_ASSIGNMENT(#48,#49,(#40));
#51=PRODUCT_DEFINITION_CONTEXT('part definition',#29,'design');
#52=PRODUCT_DEFINITION('None','',#40,#51);
#53=PERSON('4','Creator','Joe',$,$,$);
#54=ORGANIZATION($,'None','None');
#55=PERSON_AND_ORGANIZATION(#53,#54);
#56=PERSON_AND_ORGANIZATION_ROLE('creator');
#57=APPLIED_PERSON_AND_ORGANIZATION_ASSIGNMENT(#55,#56,(#52));
#58=CARTESIAN_POINT('NONE',(0.0,0.0,0.0));
#59=DIRECTION('NONE',(0.0,0.0,1.0));
#60=DIRECTION('NONE',(1.0,0.0,0.0));
#61=AXIS2_PLACEMENT_3D('NONE',#58,#59,#60);
#62=SHAPE_REPRESENTATION('SR1',(#61),#28);
#63=PRODUCT_DEFINITION_SHAPE('PDS1','Test Part',#52);
#64=SHAPE_DEFINITION_REPRESENTATION(#63,#62);
#65=CARTESIAN_POINT('',(5.0,-2.326829E-016,-1.9));
#66=DIRECTION('',(0.0,-1.224647E-016,-1.0));
#67=DIRECTION('',(1.0,0.0,0.0));
#68=AXIS2_PLACEMENT_3D('',#65,#66,#67);
#69=CYLINDRICAL_SURFACE('',#68,0.3);
#70=CARTESIAN_POINT('',(5.3,-4.653658E-016,-3.8));
#71=VERTEX_POINT('',#70);
#72=CARTESIAN_POINT('',(5.3,0.0,0.0));
#73=VERTEX_POINT('',#72);
#74=CARTESIAN_POINT('',(5.3,-4.653658E-016,-3.8));
#75=DIRECTION('',(0.0,0.0,1.0));
#76=VECTOR('',#75,3.8);
#77=LINE('',#74,#76);
#78=EDGE_CURVE('',#71,#73,#77,.T.);
#79=ORIENTED_EDGE('',*,*,#78,.F.);
#80=CARTESIAN_POINT('',(4.7,-4.286264E-016,-3.8));
#81=VERTEX_POINT('',#80);
#82=CARTESIAN_POINT('',(5.0,-4.653658E-016,-3.8));
#83=DIRECTION('',(0.0,0.0,-1.0));
#84=DIRECTION('',(1.0,0.0,0.0));
#85=AXIS2_PLACEMENT_3D('',#82,#83,#84);
#86=CIRCLE('',#85,0.3);
#87=EDGE_CURVE('',#81,#71,#86,.T.);
#88=ORIENTED_EDGE('',*,*,#87,.F.);
#89=CARTESIAN_POINT('',(4.7,3.673940E-017,0.0));
#90=VERTEX_POINT('',#89);
#91=CARTESIAN_POINT('',(4.7,-4.286264E-016,-3.8));
#92=DIRECTION('',(0.0,0.0,1.0));
#93=VECTOR('',#92,3.8);
#94=LINE('',#91,#93);
#95=EDGE_CURVE('',#81,#90,#94,.T.);
#96=ORIENTED_EDGE('',*,*,#95,.T.);
#97=CARTESIAN_POINT('',(5.0,0.0,0.0));
#98=DIRECTION('',(0.0,0.0,1.0));
#99=DIRECTION('',(1.0,0.0,0.0));
#100=AXIS2_PLACEMENT_3D('',#97,#98,#99);
#101=CIRCLE('',#100,0.3);
#102=EDGE_CURVE('',#73,#90,#101,.T.);
#103=ORIENTED_EDGE('',*,*,#102,.F.);
#104=EDGE_LOOP('',(#79,#88,#96,#103));
#105=FACE_OUTER_BOUND('',#104,.T.);
#106=ADVANCED_FACE('',(#105),#69,.T.);
#107=CARTESIAN_POINT('',(5.0,-2.326829E-016,-1.9));
#108=DIRECTION('',(0.0,-1.224647E-016,-1.0));
#109=DIRECTION('',(1.0,0.0,0.0));
#110=AXIS2_PLACEMENT_3D('',#107,#108,#109);
#111=CYLINDRICAL_SURFACE('',#110,0.3);
#112=ORIENTED_EDGE('',*,*,#78,.T.);
#113=CARTESIAN_POINT('',(5.0,0.0,0.0));
#114=DIRECTION('',(0.0,0.0,1.0));
#115=DIRECTION('',(1.0,0.0,0.0));
#116=AXIS2_PLACEMENT_3D('',#113,#114,#115);
#117=CIRCLE('',#116,0.3);
#118=EDGE_CURVE('',#90,#73,#117,.T.);
#119=ORIENTED_EDGE('',*,*,#118,.F.);
#120=ORIENTED_EDGE('',*,*,#95,.F.);
#121=CARTESIAN_POINT('',(5.0,-4.653658E-016,-3.8));
#122=DIRECTION('',(0.0,0.0,-1.0));
#123=DIRECTION('',(1.0,0.0,0.0));
#124=AXIS2_PLACEMENT_3D('',#121,#122,#123);
#125=CIRCLE('',#124,0.3);
#126=EDGE_CURVE('',#71,#81,#125,.T.);
#127=ORIENTED_EDGE('',*,*,#126,.F.);
#128=EDGE_LOOP('',(#112,#119,#120,#127));
#129=FACE_OUTER_BOUND('',#128,.T.);
#130=ADVANCED_FACE('',(#129),#111,.T.);
#131=CARTESIAN_POINT('',(5.0,0.0,0.0));
#132=DIRECTION('',(0.0,0.0,1.0));
#133=DIRECTION('',(-1.0,0.0,0.0));
#134=AXIS2_PLACEMENT_3D('',#131,#132,#133);
#135=PLANE('',#134);
#136=ORIENTED_EDGE('',*,*,#102,.T.);
#137=ORIENTED_EDGE('',*,*,#118,.T.);
#138=EDGE_LOOP('',(#136,#137));
#139=FACE_OUTER_BOUND('',#138,.T.);
#140=ADVANCED_FACE('',(#139),#135,.T.);
#141=CARTESIAN_POINT('',(5.0,-4.653658E-016,-3.8));
#142=DIRECTION('',(0.0,0.0,-1.0));
#143=DIRECTION('',(1.0,0.0,0.0));
#144=AXIS2_PLACEMENT_3D('',#141,#142,#143);
#145=PLANE('',#144);
#146=ORIENTED_EDGE('',*,*,#126,.T.);
#147=ORIENTED_EDGE('',*,*,#87,.T.);
#148=EDGE_LOOP('',(#146,#147));
#149=FACE_OUTER_BOUND('',#148,.T.);
#150=ADVANCED_FACE('',(#149),#145,.T.);
#151=CLOSED_SHELL('',(#106,#130,#140,#150));
#152=MANIFOLD_SOLID_BREP('14A0',#151);
#153=COLOUR_RGB('254',0.866,0.866,0.866);
#154=SURFACE_STYLE_USAGE(.BOTH.,#155);
#155=SURFACE_SIDE_STYLE('NONE',(#156));
#156=SURFACE_STYLE_FILL_AREA(#157);
#157=FILL_AREA_STYLE('NONE',(#158));
#158=FILL_AREA_STYLE_COLOUR('NONE',#153);
#159=PRESENTATION_STYLE_ASSIGNMENT((#154));
#160=STYLED_ITEM('NONE',(#159),#152);
#161=MECHANICAL_DESIGN_GEOMETRIC_PRESENTATION_REPRESENTATION('NONE',(#160,#251,#713),#28);
#162=PRESENTATION_LAYER_ASSIGNMENT('3D','None',(#152,#250,#705));
#163=CARTESIAN_POINT('',(-5.0,0.0,-1.9));
#164=DIRECTION('',(0.0,-1.224647E-016,-1.0));
#165=DIRECTION('',(1.0,0.0,0.0));
#166=AXIS2_PLACEMENT_3D('',#163,#164,#165);
#167=CYLINDRICAL_SURFACE('',#166,0.3);
#168=CARTESIAN_POINT('',(-4.7,-2.326829E-016,-3.8));
#169=VERTEX_POINT('',#168);
#170=CARTESIAN_POINT('',(-4.7,2.326829E-016,0.0));
#171=VERTEX_POINT('',#170);
#172=CARTESIAN_POINT('',(-4.7,-2.326829E-016,-3.8));
#173=DIRECTION('',(0.0,0.0,1.0));
#174=VECTOR('',#173,3.8);
#175=LINE('',#172,#174);
#176=EDGE_CURVE('',#169,#171,#175,.T.);
#177=ORIENTED_EDGE('',*,*,#176,.F.);
#178=CARTESIAN_POINT('',(-5.3,-1.959435E-016,-3.8));
#179=VERTEX_POINT('',#178);
#180=CARTESIAN_POINT('',(-5.0,-2.326829E-016,-3.8));
#181=DIRECTION('',(0.0,0.0,-1.0));
#182=DIRECTION('',(1.0,0.0,0.0));
#183=AXIS2_PLACEMENT_3D('',#180,#181,#182);
#184=CIRCLE('',#183,0.3);
#185=EDGE_CURVE('',#179,#169,#184,.T.);
#186=ORIENTED_EDGE('',*,*,#185,.F.);
#187=CARTESIAN_POINT('',(-5.3,2.694223E-016,0.0));
#188=VERTEX_POINT('',#187);
#189=CARTESIAN_POINT('',(-5.3,-1.959435E-016,-3.8));
#190=DIRECTION('',(0.0,0.0,1.0));
#191=VECTOR('',#190,3.8);
#192=LINE('',#189,#191);
#193=EDGE_CURVE('',#179,#188,#192,.T.);
#194=ORIENTED_EDGE('',*,*,#193,.T.);
#195=CARTESIAN_POINT('',(-5.0,2.326829E-016,0.0));
#196=DIRECTION('',(0.0,0.0,1.0));
#197=DIRECTION('',(1.0,0.0,0.0));
#198=AXIS2_PLACEMENT_3D('',#195,#196,#197);
#199=CIRCLE('',#198,0.3);
#200=EDGE_CURVE('',#171,#188,#199,.T.);
#201=ORIENTED_EDGE('',*,*,#200,.F.);
#202=EDGE_LOOP('',(#177,#186,#194,#201));
#203=FACE_OUTER_BOUND('',#202,.T.);
#204=ADVANCED_FACE('',(#203),#167,.T.);
#205=CARTESIAN_POINT('',(-5.0,0.0,-1.9));
#206=DIRECTION('',(0.0,-1.224647E-016,-1.0));
#207=DIRECTION('',(1.0,0.0,0.0));
#208=AXIS2_PLACEMENT_3D('',#205,#206,#207);
#209=CYLINDRICAL_SURFACE('',#208,0.3);
#210=ORIENTED_EDGE('',*,*,#176,.T.);
#211=CARTESIAN_POINT('',(-5.0,2.326829E-016,0.0));
#212=DIRECTION('',(0.0,0.0,1.0));
#213=DIRECTION('',(1.0,0.0,0.0));
#214=AXIS2_PLACEMENT_3D('',#211,#212,#213);
#215=CIRCLE('',#214,0.3);
#216=EDGE_CURVE('',#188,#171,#215,.T.);
#217=ORIENTED_EDGE('',*,*,#216,.F.);
#218=ORIENTED_EDGE('',*,*,#193,.F.);
#219=CARTESIAN_POINT('',(-5.0,-2.326829E-016,-3.8));
#220=DIRECTION('',(0.0,0.0,-1.0));
#221=DIRECTION('',(1.0,0.0,0.0));
#222=AXIS2_PLACEMENT_3D('',#219,#220,#221);
#223=CIRCLE('',#222,0.3);
#224=EDGE_CURVE('',#169,#179,#223,.T.);
#225=ORIENTED_EDGE('',*,*,#224,.F.);
#226=EDGE_LOOP('',(#210,#217,#218,#225));
#227=FACE_OUTER_BOUND('',#226,.T.);
#228=ADVANCED_FACE('',(#227),#209,.T.);
#229=CARTESIAN_POINT('',(-5.0,2.326829E-016,0.0));
#230=DIRECTION('',(0.0,0.0,1.0));
#231=DIRECTION('',(-1.0,0.0,0.0));
#232=AXIS2_PLACEMENT_3D('',#229,#230,#231);
#233=PLANE('',#232);
#234=ORIENTED_EDGE('',*,*,#200,.T.);
#235=ORIENTED_EDGE('',*,*,#216,.T.);
#236=EDGE_LOOP('',(#234,#235));
#237=FACE_OUTER_BOUND('',#236,.T.);
#238=ADVANCED_FACE('',(#237),#233,.T.);
#239=CARTESIAN_POINT('',(-5.0,-2.326829E-016,-3.8));
#240=DIRECTION('',(0.0,0.0,-1.0));
#241=DIRECTION('',(1.0,0.0,0.0));
#242=AXIS2_PLACEMENT_3D('',#239,#240,#241);
#243=PLANE('',#242);
#244=ORIENTED_EDGE('',*,*,#224,.T.);
#245=ORIENTED_EDGE('',*,*,#185,.T.);
#246=EDGE_LOOP('',(#244,#245));
#247=FACE_OUTER_BOUND('',#246,.T.);
#248=ADVANCED_FACE('',(#247),#243,.T.);
#249=CLOSED_SHELL('',(#204,#228,#238,#248));
#250=MANIFOLD_SOLID_BREP('149C',#249);
#251=STYLED_ITEM('NONE',(#159),#250);
#252=CARTESIAN_POINT('',(6.099999999999999,2.599999999999998,11.6));
#253=DIRECTION('',(0.0,0.0,1.0));
#254=DIRECTION('',(1.0,0.0,0.0));
#255=AXIS2_PLACEMENT_3D('',#252,#253,#254);
#256=SPHERICAL_SURFACE('',#255,0.4);
#257=CARTESIAN_POINT('',(6.099999999999999,2.599999999999998,12.0));
#258=VERTEX_POINT('',#257);
#259=CARTESIAN_POINT('',(6.099999999999999,2.999999999999998,11.6));
#260=VERTEX_POINT('',#259);
#261=CARTESIAN_POINT('',(6.099999999999999,2.599999999999998,11.6));
#262=DIRECTION('',(1.0,0.0,0.0));
#263=DIRECTION('',(0.0,0.0,1.0));
#264=AXIS2_PLACEMENT_3D('',#261,#262,#263);
#265=CIRCLE('',#264,0.4);
#266=EDGE_CURVE('',#258,#260,#265,.F.);
#267=ORIENTED_EDGE('',*,*,#266,.F.);
#268=CARTESIAN_POINT('',(6.499999999999999,2.599999999999998,11.6));
#269=VERTEX_POINT('',#268);
#270=CARTESIAN_POINT('',(6.099999999999999,2.599999999999998,11.6));
#271=DIRECTION('',(0.0,1.0,0.0));
#272=DIRECTION('',(1.0,0.0,0.0));
#273=AXIS2_PLACEMENT_3D('',#270,#271,#272);
#274=CIRCLE('',#273,0.4);
#275=EDGE_CURVE('',#269,#258,#274,.F.);
#276=ORIENTED_EDGE('',*,*,#275,.F.);
#277=CARTESIAN_POINT('',(6.099999999999999,2.599999999999998,11.6));
#278=DIRECTION('',(0.0,0.0,1.0));
#279=DIRECTION('',(0.707106781186548,0.707106781186547,0.0));
#280=AXIS2_PLACEMENT_3D('',#277,#278,#279);
#281=CIRCLE('',#280,0.4);
#282=EDGE_CURVE('',#269,#260,#281,.T.);
#283=ORIENTED_EDGE('',*,*,#282,.T.);
#284=EDGE_LOOP('',(#267,#276,#283));
#285=FACE_OUTER_BOUND('',#284,.T.);
#286=ADVANCED_FACE('',(#285),#256,.T.);
#287=CARTESIAN_POINT('',(-6.099999999999999,2.599999999999998,11.6));
#288=DIRECTION('',(0.0,0.0,1.0));
#289=DIRECTION('',(1.0,0.0,0.0));
#290=AXIS2_PLACEMENT_3D('',#287,#288,#289);
#291=SPHERICAL_SURFACE('',#290,0.4);
#292=CARTESIAN_POINT('',(-6.099999999999999,2.999999999999998,11.6));
#293=VERTEX_POINT('',#292);
#294=CARTESIAN_POINT('',(-6.499999999999999,2.599999999999998,11.6));
#295=VERTEX_POINT('',#294);
#296=CARTESIAN_POINT('',(-6.099999999999999,2.599999999999998,11.6));
#297=DIRECTION('',(0.0,0.0,1.0));
#298=DIRECTION('',(-0.707106781186548,0.707106781186547,0.0));
#299=AXIS2_PLACEMENT_3D('',#296,#297,#298);
#300=CIRCLE('',#299,0.4);
#301=EDGE_CURVE('',#293,#295,#300,.T.);
#302=ORIENTED_EDGE('',*,*,#301,.T.);
#303=CARTESIAN_POINT('',(-6.099999999999999,2.599999999999998,12.0));
#304=VERTEX_POINT('',#303);
#305=CARTESIAN_POINT('',(-6.099999999999999,2.599999999999998,11.6));
#306=DIRECTION('',(0.0,1.0,0.0));
#307=DIRECTION('',(0.0,0.0,1.0));
#308=AXIS2_PLACEMENT_3D('',#305,#306,#307);
#309=CIRCLE('',#308,0.4);
#310=EDGE_CURVE('',#304,#295,#309,.F.);
#311=ORIENTED_EDGE('',*,*,#310,.F.);
#312=CARTESIAN_POINT('',(-6.099999999999999,2.599999999999998,11.6));
#313=DIRECTION('',(-1.0,0.0,0.0));
#314=DIRECTION('',(0.0,0.707106781186545,0.70710678118655));
#315=AXIS2_PLACEMENT_3D('',#312,#313,#314);
#316=CIRCLE('',#315,0.4);
#317=EDGE_CURVE('',#304,#293,#316,.T.);
#318=ORIENTED_EDGE('',*,*,#317,.T.);
#319=EDGE_LOOP('',(#302,#311,#318));
#320=FACE_OUTER_BOUND('',#319,.T.);
#321=ADVANCED_FACE('',(#320),#291,.T.);
#322=CARTESIAN_POINT('',(6.099999999999999,-2.599999999999998,11.6));
#323=DIRECTION('',(0.0,0.0,1.0));
#324=DIRECTION('',(1.0,0.0,0.0));
#325=AXIS2_PLACEMENT_3D('',#322,#323,#324);
#326=SPHERICAL_SURFACE('',#325,0.4);
#327=CARTESIAN_POINT('',(6.499999999999999,-2.599999999999998,11.6));
#328=VERTEX_POINT('',#327);
#329=CARTESIAN_POINT('',(6.099999999999999,-2.599999999999998,12.0));
#330=VERTEX_POINT('',#329);
#331=CARTESIAN_POINT('',(6.099999999999999,-2.599999999999998,11.6));
#332=DIRECTION('',(0.0,-1.0,0.0));
#333=DIRECTION('',(0.707106781186546,0.0,0.707106781186549));
#334=AXIS2_PLACEMENT_3D('',#331,#332,#333);
#335=CIRCLE('',#334,0.4);
#336=EDGE_CURVE('',#328,#330,#335,.T.);
#337=ORIENTED_EDGE('',*,*,#336,.T.);
#338=CARTESIAN_POINT('',(6.099999999999999,-2.999999999999998,11.6));
#339=VERTEX_POINT('',#338);
#340=CARTESIAN_POINT('',(6.099999999999999,-2.599999999999998,11.6));
#341=DIRECTION('',(1.0,0.0,0.0));
#342=DIRECTION('',(0.0,-1.0,0.0));
#343=AXIS2_PLACEMENT_3D('',#340,#341,#342);
#344=CIRCLE('',#343,0.4);
#345=EDGE_CURVE('',#339,#330,#344,.F.);
#346=ORIENTED_EDGE('',*,*,#345,.F.);
#347=CARTESIAN_POINT('',(6.099999999999999,-2.599999999999998,11.6));
#348=DIRECTION('',(0.0,0.0,1.0));
#349=DIRECTION('',(0.707106781186548,-0.707106781186547,0.0));
#350=AXIS2_PLACEMENT_3D('',#347,#348,#349);
#351=CIRCLE('',#350,0.4);
#352=EDGE_CURVE('',#339,#328,#351,.T.);
#353=ORIENTED_EDGE('',*,*,#352,.T.);
#354=EDGE_LOOP('',(#337,#346,#353));
#355=FACE_OUTER_BOUND('',#354,.T.);
#356=ADVANCED_FACE('',(#355),#326,.T.);
#357=CARTESIAN_POINT('',(-6.099999999999999,-2.599999999999998,11.6));
#358=DIRECTION('',(0.0,0.0,1.0));
#359=DIRECTION('',(1.0,0.0,0.0));
#360=AXIS2_PLACEMENT_3D('',#357,#358,#359);
#361=SPHERICAL_SURFACE('',#360,0.4);
#362=CARTESIAN_POINT('',(-6.099999999999999,-2.599999999999998,12.0));
#363=VERTEX_POINT('',#362);
#364=CARTESIAN_POINT('',(-6.499999999999999,-2.599999999999998,11.6));
#365=VERTEX_POINT('',#364);
#366=CARTESIAN_POINT('',(-6.099999999999999,-2.599999999999998,11.6));
#367=DIRECTION('',(0.0,-1.0,0.0));
#368=DIRECTION('',(-0.707106781186546,0.0,0.707106781186549));
#369=AXIS2_PLACEMENT_3D('',#366,#367,#368);
#370=CIRCLE('',#369,0.4);
#371=EDGE_CURVE('',#363,#365,#370,.T.);
#372=ORIENTED_EDGE('',*,*,#371,.T.);
#373=CARTESIAN_POINT('',(-6.099999999999999,-2.999999999999998,11.6));
#374=VERTEX_POINT('',#373);
#375=CARTESIAN_POINT('',(-6.099999999999999,-2.599999999999998,11.6));
#376=DIRECTION('',(0.0,0.0,1.0));
#377=DIRECTION('',(0.0,-1.0,0.0));
#378=AXIS2_PLACEMENT_3D('',#375,#376,#377);
#379=CIRCLE('',#378,0.4);
#380=EDGE_CURVE('',#374,#365,#379,.F.);
#381=ORIENTED_EDGE('',*,*,#380,.F.);
#382=CARTESIAN_POINT('',(-6.099999999999999,-2.599999999999998,11.6));
#383=DIRECTION('',(-1.0,0.0,0.0));
#384=DIRECTION('',(0.0,-0.707106781186545,0.70710678118655));
#385=AXIS2_PLACEMENT_3D('',#382,#383,#384);
#386=CIRCLE('',#385,0.4);
#387=EDGE_CURVE('',#374,#363,#386,.T.);
#388=ORIENTED_EDGE('',*,*,#387,.T.);
#389=EDGE_LOOP('',(#372,#381,#388));
#390=FACE_OUTER_BOUND('',#389,.T.);
#391=ADVANCED_FACE('',(#390),#361,.T.);
#392=CARTESIAN_POINT('',(-6.099999999999999,-2.599999999999998,6.0));
#393=DIRECTION('',(0.0,0.0,-1.0));
#394=DIRECTION('',(-0.707106781186548,-0.707106781186547,0.0));
#395=AXIS2_PLACEMENT_3D('',#392,#393,#394);
#396=CYLINDRICAL_SURFACE('',#395,0.4);
#397=CARTESIAN_POINT('',(-6.499999999999999,-2.599999999999998,0.0));
#398=VERTEX_POINT('',#397);
#399=CARTESIAN_POINT('',(-6.099999999999999,-2.999999999999998,0.0));
#400=VERTEX_POINT('',#399);
#401=CARTESIAN_POINT('',(-6.099999999999999,-2.599999999999998,0.0));
#402=DIRECTION('',(0.0,0.0,1.0));
#403=DIRECTION('',(-0.707106781186548,-0.707106781186547,0.0));
#404=AXIS2_PLACEMENT_3D('',#401,#402,#403);
#405=CIRCLE('',#404,0.4);
#406=EDGE_CURVE('',#398,#400,#405,.T.);
#407=ORIENTED_EDGE('',*,*,#406,.T.);
#408=CARTESIAN_POINT('',(-6.099999999999999,-2.999999999999998,0.0));
#409=DIRECTION('',(0.0,0.0,1.0));
#410=VECTOR('',#409,11.6);
#411=LINE('',#408,#410);
#412=EDGE_CURVE('',#400,#374,#411,.T.);
#413=ORIENTED_EDGE('',*,*,#412,.T.);
#414=ORIENTED_EDGE('',*,*,#380,.T.);
#415=CARTESIAN_POINT('',(-6.499999999999999,-2.599999999999998,11.6));
#416=DIRECTION('',(0.0,0.0,-1.0));
#417=VECTOR('',#416,11.6);
#418=LINE('',#415,#417);
#419=EDGE_CURVE('',#365,#398,#418,.T.);
#420=ORIENTED_EDGE('',*,*,#419,.T.);
#421=EDGE_LOOP('',(#407,#413,#414,#420));
#422=FACE_OUTER_BOUND('',#421,.T.);
#423=ADVANCED_FACE('',(#422),#396,.T.);
#424=CARTESIAN_POINT('',(0.0,-2.599999999999998,11.6));
#425=DIRECTION('',(-1.0,0.0,0.0));
#426=DIRECTION('',(0.0,-0.707106781186545,0.70710678118655));
#427=AXIS2_PLACEMENT_3D('',#424,#425,#426);
#428=CYLINDRICAL_SURFACE('',#427,0.4);
#429=ORIENTED_EDGE('',*,*,#387,.F.);
#430=CARTESIAN_POINT('',(-6.099999999999999,-2.999999999999998,11.6));
#431=DIRECTION('',(1.0,0.0,0.0));
#432=VECTOR('',#431,12.199999999999998);
#433=LINE('',#430,#432);
#434=EDGE_CURVE('',#374,#339,#433,.T.);
#435=ORIENTED_EDGE('',*,*,#434,.T.);
#436=ORIENTED_EDGE('',*,*,#345,.T.);
#437=CARTESIAN_POINT('',(6.099999999999999,-2.599999999999998,12.0));
#438=DIRECTION('',(-1.0,0.0,0.0));
#439=VECTOR('',#438,12.199999999999998);
#440=LINE('',#437,#439);
#441=EDGE_CURVE('',#330,#363,#440,.T.);
#442=ORIENTED_EDGE('',*,*,#441,.T.);
#443=EDGE_LOOP('',(#429,#435,#436,#442));
#444=FACE_OUTER_BOUND('',#443,.T.);
#445=ADVANCED_FACE('',(#444),#428,.T.);
#446=CARTESIAN_POINT('',(-6.099999999999999,0.0,11.6));
#447=DIRECTION('',(0.0,1.0,0.0));
#448=DIRECTION('',(-0.707106781186546,0.0,0.707106781186549));
#449=AXIS2_PLACEMENT_3D('',#446,#447,#448);
#450=CYLINDRICAL_SURFACE('',#449,0.4);
#451=ORIENTED_EDGE('',*,*,#310,.T.);
#452=CARTESIAN_POINT('',(-6.499999999999999,2.599999999999998,11.6));
#453=DIRECTION('',(0.0,-1.0,0.0));
#454=VECTOR('',#453,5.199999999999997);
#455=LINE('',#452,#454);
#456=EDGE_CURVE('',#295,#365,#455,.T.);
#457=ORIENTED_EDGE('',*,*,#456,.T.);
#458=ORIENTED_EDGE('',*,*,#371,.F.);
#459=CARTESIAN_POINT('',(-6.099999999999999,-2.599999999999998,12.0));
#460=DIRECTION('',(0.0,1.0,0.0));
#461=VECTOR('',#460,5.199999999999997);
#462=LINE('',#459,#461);
#463=EDGE_CURVE('',#363,#304,#462,.T.);
#464=ORIENTED_EDGE('',*,*,#463,.T.);
#465=EDGE_LOOP('',(#451,#457,#458,#464));
#466=FACE_OUTER_BOUND('',#465,.T.);
#467=ADVANCED_FACE('',(#466),#450,.T.);
#468=CARTESIAN_POINT('',(6.099999999999999,0.0,11.6));
#469=DIRECTION('',(0.0,-1.0,0.0));
#470=DIRECTION('',(0.707106781186546,0.0,0.707106781186549));
#471=AXIS2_PLACEMENT_3D('',#468,#469,#470);
#472=CYLINDRICAL_SURFACE('',#471,0.4);
#473=ORIENTED_EDGE('',*,*,#336,.F.);
#474=CARTESIAN_POINT('',(6.499999999999999,-2.599999999999998,11.6));
#475=DIRECTION('',(0.0,1.0,0.0));
#476=VECTOR('',#475,5.199999999999997);
#477=LINE('',#474,#476);
#478=EDGE_CURVE('',#328,#269,#477,.T.);
#479=ORIENTED_EDGE('',*,*,#478,.T.);
#480=ORIENTED_EDGE('',*,*,#275,.T.);
#481=CARTESIAN_POINT('',(6.099999999999999,2.599999999999998,12.0));
#482=DIRECTION('',(0.0,-1.0,0.0));
#483=VECTOR('',#482,5.199999999999997);
#484=LINE('',#481,#483);
#485=EDGE_CURVE('',#258,#330,#484,.T.);
#486=ORIENTED_EDGE('',*,*,#485,.T.);
#487=EDGE_LOOP('',(#473,#479,#480,#486));
#488=FACE_OUTER_BOUND('',#487,.T.);
#489=ADVANCED_FACE('',(#488),#472,.T.);
#490=CARTESIAN_POINT('',(6.099999999999999,-2.599999999999998,6.0));
#491=DIRECTION('',(0.0,0.0,-1.0));
#492=DIRECTION('',(0.707106781186548,-0.707106781186547,0.0));
#493=AXIS2_PLACEMENT_3D('',#490,#491,#492);
#494=CYLINDRICAL_SURFACE('',#493,0.4);
#495=CARTESIAN_POINT('',(6.099999999999999,-2.999999999999998,0.0));
#496=VERTEX_POINT('',#495);
#497=CARTESIAN_POINT('',(6.499999999999999,-2.599999999999998,0.0));
#498=VERTEX_POINT('',#497);
#499=CARTESIAN_POINT('',(6.099999999999999,-2.599999999999998,0.0));
#500=DIRECTION('',(0.0,0.0,1.0));
#501=DIRECTION('',(0.707106781186548,-0.707106781186547,0.0));
#502=AXIS2_PLACEMENT_3D('',#499,#500,#501);
#503=CIRCLE('',#502,0.4);
#504=EDGE_CURVE('',#496,#498,#503,.T.);
#505=ORIENTED_EDGE('',*,*,#504,.T.);
#506=CARTESIAN_POINT('',(6.499999999999999,-2.599999999999998,0.0));
#507=DIRECTION('',(0.0,0.0,1.0));
#508=VECTOR('',#507,11.6);
#509=LINE('',#506,#508);
#510=EDGE_CURVE('',#498,#328,#509,.T.);
#511=ORIENTED_EDGE('',*,*,#510,.T.);
#512=ORIENTED_EDGE('',*,*,#352,.F.);
#513=CARTESIAN_POINT('',(6.099999999999999,-2.999999999999998,11.6));
#514=DIRECTION('',(0.0,0.0,-1.0));
#515=VECTOR('',#514,11.6);
#516=LINE('',#513,#515);
#517=EDGE_CURVE('',#339,#496,#516,.T.);
#518=ORIENTED_EDGE('',*,*,#517,.T.);
#519=EDGE_LOOP('',(#505,#511,#512,#518));
#520=FACE_OUTER_BOUND('',#519,.T.);
#521=ADVANCED_FACE('',(#520),#494,.T.);
#522=CARTESIAN_POINT('',(0.0,2.599999999999998,11.6));
#523=DIRECTION('',(1.0,0.0,0.0));
#524=DIRECTION('',(0.0,0.707106781186545,0.70710678118655));
#525=AXIS2_PLACEMENT_3D('',#522,#523,#524);
#526=CYLINDRICAL_SURFACE('',#525,0.4);
#527=ORIENTED_EDGE('',*,*,#266,.T.);
#528=CARTESIAN_POINT('',(6.099999999999999,2.999999999999998,11.6));
#529=DIRECTION('',(-1.0,0.0,0.0));
#530=VECTOR('',#529,12.199999999999998);
#531=LINE('',#528,#530);
#532=EDGE_CURVE('',#260,#293,#531,.T.);
#533=ORIENTED_EDGE('',*,*,#532,.T.);
#534=ORIENTED_EDGE('',*,*,#317,.F.);
#535=CARTESIAN_POINT('',(-6.099999999999999,2.599999999999998,12.0));
#536=DIRECTION('',(1.0,0.0,0.0));
#537=VECTOR('',#536,12.199999999999998);
#538=LINE('',#535,#537);
#539=EDGE_CURVE('',#304,#258,#538,.T.);
#540=ORIENTED_EDGE('',*,*,#539,.T.);
#541=EDGE_LOOP('',(#527,#533,#534,#540));
#542=FACE_OUTER_BOUND('',#541,.T.);
#543=ADVANCED_FACE('',(#542),#526,.T.);
#544=CARTESIAN_POINT('',(-6.099999999999999,2.599999999999998,6.0));
#545=DIRECTION('',(0.0,0.0,-1.0));
#546=DIRECTION('',(-0.707106781186548,0.707106781186547,0.0));
#547=AXIS2_PLACEMENT_3D('',#544,#545,#546);
#548=CYLINDRICAL_SURFACE('',#547,0.4);
#549=CARTESIAN_POINT('',(-6.099999999999999,2.999999999999998,0.0));
#550=VERTEX_POINT('',#549);
#551=CARTESIAN_POINT('',(-6.499999999999999,2.599999999999998,0.0));
#552=VERTEX_POINT('',#551);
#553=CARTESIAN_POINT('',(-6.099999999999999,2.599999999999998,0.0));
#554=DIRECTION('',(0.0,0.0,1.0));
#555=DIRECTION('',(-0.707106781186548,0.707106781186547,0.0));
#556=AXIS2_PLACEMENT_3D('',#553,#554,#555);
#557=CIRCLE('',#556,0.4);
#558=EDGE_CURVE('',#550,#552,#557,.T.);
#559=ORIENTED_EDGE('',*,*,#558,.T.);
#560=CARTESIAN_POINT('',(-6.499999999999999,2.599999999999998,0.0));
#561=DIRECTION('',(0.0,0.0,1.0));
#562=VECTOR('',#561,11.6);
#563=LINE('',#560,#562);
#564=EDGE_CURVE('',#552,#295,#563,.T.);
#565=ORIENTED_EDGE('',*,*,#564,.T.);
#566=ORIENTED_EDGE('',*,*,#301,.F.);
#567=CARTESIAN_POINT('',(-6.099999999999999,2.999999999999998,11.6));
#568=DIRECTION('',(0.0,0.0,-1.0));
#569=VECTOR('',#568,11.6);
#570=LINE('',#567,#569);
#571=EDGE_CURVE('',#293,#550,#570,.T.);
#572=ORIENTED_EDGE('',*,*,#571,.T.);
#573=EDGE_LOOP('',(#559,#565,#566,#572));
#574=FACE_OUTER_BOUND('',#573,.T.);
#575=ADVANCED_FACE('',(#574),#548,.T.);
#576=CARTESIAN_POINT('',(6.099999999999999,2.599999999999998,6.0));
#577=DIRECTION('',(0.0,0.0,-1.0));
#578=DIRECTION('',(0.707106781186548,0.707106781186547,0.0));
#579=AXIS2_PLACEMENT_3D('',#576,#577,#578);
#580=CYLINDRICAL_SURFACE('',#579,0.4);
#581=CARTESIAN_POINT('',(6.499999999999999,2.599999999999998,0.0));
#582=VERTEX_POINT('',#581);
#583=CARTESIAN_POINT('',(6.099999999999999,2.999999999999998,0.0));
#584=VERTEX_POINT('',#583);
#585=CARTESIAN_POINT('',(6.099999999999999,2.599999999999998,0.0));
#586=DIRECTION('',(0.0,0.0,1.0));
#587=DIRECTION('',(0.707106781186548,0.707106781186547,0.0));
#588=AXIS2_PLACEMENT_3D('',#585,#586,#587);
#589=CIRCLE('',#588,0.4);
#590=EDGE_CURVE('',#582,#584,#589,.T.);
#591=ORIENTED_EDGE('',*,*,#590,.T.);
#592=CARTESIAN_POINT('',(6.099999999999999,2.999999999999998,0.0));
#593=DIRECTION('',(0.0,0.0,1.0));
#594=VECTOR('',#593,11.6);
#595=LINE('',#592,#594);
#596=EDGE_CURVE('',#584,#260,#595,.T.);
#597=ORIENTED_EDGE('',*,*,#596,.T.);
#598=ORIENTED_EDGE('',*,*,#282,.F.);
#599=CARTESIAN_POINT('',(6.499999999999999,2.599999999999998,11.6));
#600=DIRECTION('',(0.0,0.0,-1.0));
#601=VECTOR('',#600,11.6);
#602=LINE('',#599,#601);
#603=EDGE_CURVE('',#269,#582,#602,.T.);
#604=ORIENTED_EDGE('',*,*,#603,.T.);
#605=EDGE_LOOP('',(#591,#597,#598,#604));
#606=FACE_OUTER_BOUND('',#605,.T.);
#607=ADVANCED_FACE('',(#606),#580,.T.);
#608=CARTESIAN_POINT('',(-6.499999999999999,-2.599999999999998,11.6));
#609=CARTESIAN_POINT('',(-6.499999999999999,-2.599999999999998,0.0));
#610=CARTESIAN_POINT('',(-6.499999999999999,2.599999999999998,11.6));
#611=CARTESIAN_POINT('',(-6.499999999999999,2.599999999999998,0.0));
#612=B_SPLINE_SURFACE_WITH_KNOTS('',1,1,((#608,#610),(#609,#611)),.UNSPECIFIED.,.F.,.F.,.U.,(2,2),(2,2),(0.0,11.6),(0.0,5.199999999999997),.UNSPECIFIED.);
#613=ORIENTED_EDGE('',*,*,#419,.F.);
#614=ORIENTED_EDGE('',*,*,#456,.F.);
#615=ORIENTED_EDGE('',*,*,#564,.F.);
#616=CARTESIAN_POINT('',(-6.499999999999999,2.599999999999998,0.0));
#617=DIRECTION('',(0.0,-1.0,0.0));
#618=VECTOR('',#617,5.199999999999997);
#619=LINE('',#616,#618);
#620=EDGE_CURVE('',#552,#398,#619,.T.);
#621=ORIENTED_EDGE('',*,*,#620,.T.);
#622=EDGE_LOOP('',(#613,#614,#615,#621));
#623=FACE_OUTER_BOUND('',#622,.T.);
#624=ADVANCED_FACE('',(#623),#612,.F.);
#625=CARTESIAN_POINT('',(6.099999999999999,2.999999999999998,0.0));
#626=CARTESIAN_POINT('',(6.099999999999999,2.999999999999998,11.6));
#627=CARTESIAN_POINT('',(-6.099999999999999,2.999999999999998,0.0));
#628=CARTESIAN_POINT('',(-6.099999999999999,2.999999999999998,11.6));
#629=B_SPLINE_SURFACE_WITH_KNOTS('',1,1,((#625,#627),(#626,#628)),.UNSPECIFIED.,.F.,.F.,.U.,(2,2),(2,2),(0.0,11.6),(0.0,12.199999999999998),.UNSPECIFIED.);
#630=ORIENTED_EDGE('',*,*,#571,.F.);
#631=ORIENTED_EDGE('',*,*,#532,.F.);
#632=ORIENTED_EDGE('',*,*,#596,.F.);
#633=CARTESIAN_POINT('',(6.099999999999999,2.999999999999998,0.0));
#634=DIRECTION('',(-1.0,0.0,0.0));
#635=VECTOR('',#634,12.199999999999998);
#636=LINE('',#633,#635);
#637=EDGE_CURVE('',#584,#550,#636,.T.);
#638=ORIENTED_EDGE('',*,*,#637,.T.);
#639=EDGE_LOOP('',(#630,#631,#632,#638));
#640=FACE_OUTER_BOUND('',#639,.T.);
#641=ADVANCED_FACE('',(#640),#629,.F.);
#642=CARTESIAN_POINT('',(-6.099999999999999,-2.599999999999998,12.0));
#643=CARTESIAN_POINT('',(6.099999999999999,-2.599999999999998,12.0));
#644=CARTESIAN_POINT('',(-6.099999999999999,2.599999999999998,12.0));
#645=CARTESIAN_POINT('',(6.099999999999999,2.599999999999998,12.0));
#646=B_SPLINE_SURFACE_WITH_KNOTS('',1,1,((#642,#644),(#643,#645)),.UNSPECIFIED.,.F.,.F.,.U.,(2,2),(2,2),(0.0,12.199999999999998),(0.0,5.199999999999997),.UNSPECIFIED.);
#647=ORIENTED_EDGE('',*,*,#441,.F.);
#648=ORIENTED_EDGE('',*,*,#485,.F.);
#649=ORIENTED_EDGE('',*,*,#539,.F.);
#650=ORIENTED_EDGE('',*,*,#463,.F.);
#651=EDGE_LOOP('',(#647,#648,#649,#650));
#652=FACE_OUTER_BOUND('',#651,.T.);
#653=ADVANCED_FACE('',(#652),#646,.T.);
#654=CARTESIAN_POINT('',(-6.499999999999999,-2.999999999999999,0.0));
#655=CARTESIAN_POINT('',(6.499999999999999,-2.999999999999999,0.0));
#656=CARTESIAN_POINT('',(-6.499999999999999,2.999999999999999,0.0));
#657=CARTESIAN_POINT('',(6.499999999999999,2.999999999999999,0.0));
#658=B_SPLINE_SURFACE_WITH_KNOTS('',1,1,((#654,#656),(#655,#657)),.UNSPECIFIED.,.F.,.F.,.U.,(2,2),(2,2),(0.0,12.999999999999998),(0.0,5.999999999999997),.UNSPECIFIED.);
#659=ORIENTED_EDGE('',*,*,#406,.F.);
#660=ORIENTED_EDGE('',*,*,#620,.F.);
#661=ORIENTED_EDGE('',*,*,#558,.F.);
#662=ORIENTED_EDGE('',*,*,#637,.F.);
#663=ORIENTED_EDGE('',*,*,#590,.F.);
#664=CARTESIAN_POINT('',(6.499999999999999,-2.599999999999998,0.0));
#665=DIRECTION('',(0.0,1.0,0.0));
#666=VECTOR('',#665,5.199999999999997);
#667=LINE('',#664,#666);
#668=EDGE_CURVE('',#498,#582,#667,.T.);
#669=ORIENTED_EDGE('',*,*,#668,.F.);
#670=ORIENTED_EDGE('',*,*,#504,.F.);
#671=CARTESIAN_POINT('',(-6.099999999999999,-2.999999999999998,0.0));
#672=DIRECTION('',(1.0,0.0,0.0));
#673=VECTOR('',#672,12.199999999999998);
#674=LINE('',#671,#673);
#675=EDGE_CURVE('',#400,#496,#674,.T.);
#676=ORIENTED_EDGE('',*,*,#675,.F.);
#677=EDGE_LOOP('',(#659,#660,#661,#662,#663,#669,#670,#676));
#678=FACE_OUTER_BOUND('',#677,.T.);
#679=ADVANCED_FACE('',(#678),#658,.F.);
#680=CARTESIAN_POINT('',(6.099999999999999,-2.999999999999998,11.6));
#681=CARTESIAN_POINT('',(6.099999999999999,-2.999999999999998,0.0));
#682=CARTESIAN_POINT('',(-6.099999999999999,-2.999999999999998,11.6));
#683=CARTESIAN_POINT('',(-6.099999999999999,-2.999999999999998,0.0));
#684=B_SPLINE_SURFACE_WITH_KNOTS('',1,1,((#680,#682),(#681,#683)),.UNSPECIFIED.,.F.,.F.,.U.,(2,2),(2,2),(0.0,11.6),(0.0,12.199999999999998),.UNSPECIFIED.);
#685=ORIENTED_EDGE('',*,*,#412,.F.);
#686=ORIENTED_EDGE('',*,*,#675,.T.);
#687=ORIENTED_EDGE('',*,*,#517,.F.);
#688=ORIENTED_EDGE('',*,*,#434,.F.);
#689=EDGE_LOOP('',(#685,#686,#687,#688));
#690=FACE_OUTER_BOUND('',#689,.T.);
#691=ADVANCED_FACE('',(#690),#684,.F.);
#692=CARTESIAN_POINT('',(6.499999999999999,-2.599999999999998,0.0));
#693=CARTESIAN_POINT('',(6.499999999999999,-2.599999999999998,11.6));
#694=CARTESIAN_POINT('',(6.499999999999999,2.599999999999998,0.0));
#695=CARTESIAN_POINT('',(6.499999999999999,2.599999999999998,11.6));
#696=B_SPLINE_SURFACE_WITH_KNOTS('',1,1,((#692,#694),(#693,#695)),.UNSPECIFIED.,.F.,.F.,.U.,(2,2),(2,2),(0.0,11.6),(0.0,5.199999999999997),.UNSPECIFIED.);
#697=ORIENTED_EDGE('',*,*,#510,.F.);
#698=ORIENTED_EDGE('',*,*,#668,.T.);
#699=ORIENTED_EDGE('',*,*,#603,.F.);
#700=ORIENTED_EDGE('',*,*,#478,.F.);
#701=EDGE_LOOP('',(#697,#698,#699,#700));
#702=FACE_OUTER_BOUND('',#701,.T.);
#703=ADVANCED_FACE('',(#702),#696,.F.);
#704=CLOSED_SHELL('',(#286,#321,#356,#391,#423,#445,#467,#489,#521,#543,#575,#607,#624,#641,#653,#679,#691,#703));
#705=MANIFOLD_SOLID_BREP('148E',#704);
#706=COLOUR_RGB('240',1.0,0.0,0.25);
#707=SURFACE_STYLE_USAGE(.BOTH.,#708);
#708=SURFACE_SIDE_STYLE('NONE',(#709));
#709=SURFACE_STYLE_FILL_AREA(#710);
#710=FILL_AREA_STYLE('NONE',(#711));
#711=FILL_AREA_STYLE_COLOUR('NONE',#706);
#712=PRESENTATION_STYLE_ASSIGNMENT((#707));
#713=STYLED_ITEM('NONE',(#712),#705);
#714=ADVANCED_BREP_SHAPE_REPRESENTATION('ABSR1',(#152,#250,#705),#28);
#715=SHAPE_REPRESENTATION_RELATIONSHIP('SRRPL1','',#714,#62);
ENDSEC;
END-ISO-10303-21;
