ISO-10303-21;
HEADER;
/****************************************************************
 * Generated by software with PDElib inside                    *
 * PDElib Version v51a, created Fri 09/10/2010                  *
 * ITI Transcendata (http://www.transcendata.com/)              *
 ****************************************************************/
FILE_DESCRIPTION((''),'2;1');
FILE_NAME('CAPR750-570X1030X1250.stp','2012-07-25T16:00:21',(''),(''),'Mechanical Desktop 2011','Mechanical Desktop 2011',', , ');
FILE_SCHEMA(('AUTOMOTIVE_DESIGN { 1 2 10303 214 1 1 1 1 }'));
ENDSEC;
DATA;
#10=(NAMED_UNIT(*)PLANE_ANGLE_UNIT()SI_UNIT($,.RADIAN.));
#11=DIMENSIONAL_EXPONENTS(0.0,0.0,0.0,0.0,0.0,0.0,0.0);
#12=PLANE_ANGLE_MEASURE_WITH_UNIT(PLANE_ANGLE_MEASURE(0.0174532925),#10);
#16=(CONVERSION_BASED_UNIT('DEGREE',#12)NAMED_UNIT(#11)PLANE_ANGLE_UNIT());
#20=(NAMED_UNIT(*)SI_UNIT($,.STERADIAN.)SOLID_ANGLE_UNIT());
#24=(LENGTH_UNIT()NAMED_UNIT(*)SI_UNIT(.MILLI.,.METRE.));
#26=UNCERTAINTY_MEASURE_WITH_UNIT(LENGTH_MEASURE(0.000001),#24,'DISTANCE_ACCURACY_VALUE','');
#28=(GEOMETRIC_REPRESENTATION_CONTEXT(3)GLOBAL_UNCERTAINTY_ASSIGNED_CONTEXT((#26))GLOBAL_UNIT_ASSIGNED_CONTEXT((#16,#20,#24))REPRESENTATION_CONTEXT('','3D'));
#29=APPLICATION_CONTEXT('automotive design');
#30=APPLICATION_PROTOCOL_DEFINITION('INTERNATIONAL_STANDARD','automotive_design',1998,#29);
#31=PRODUCT_CONTEXT('3D Mechanical Parts',#29,'mechanical');
#32=PRODUCT('Product','Product','',(#31));
#33=PRODUCT_RELATED_PRODUCT_CATEGORY('part',$,(#32));
#34=PRODUCT_CATEGORY('part',$);
#35=PERSON('1','Design','Joe',$,$,$);
#36=ORGANIZATION($,'None','None');
#37=PERSON_AND_ORGANIZATION(#35,#36);
#38=PERSON_AND_ORGANIZATION_ROLE('design_owner');
#39=APPLIED_PERSON_AND_ORGANIZATION_ASSIGNMENT(#37,#38,(#32));
#40=PRODUCT_DEFINITION_FORMATION_WITH_SPECIFIED_SOURCE('None','',#32,.BOUGHT.);
#41=PERSON('2','Creator','Joe',$,$,$);
#42=ORGANIZATION($,'None','None');
#43=PERSON_AND_ORGANIZATION(#41,#42);
#44=PERSON_AND_ORGANIZATION_ROLE('creator');
#45=APPLIED_PERSON_AND_ORGANIZATION_ASSIGNMENT(#43,#44,(#40));
#46=PERSON('3','Supplier','Joe',$,$,$);
#47=ORGANIZATION($,'None','None');
#48=PERSON_AND_ORGANIZATION(#46,#47);
#49=PERSON_AND_ORGANIZATION_ROLE('design_supplier');
#50=APPLIED_PERSON_AND_ORGANIZATION_ASSIGNMENT(#48,#49,(#40));
#51=PRODUCT_DEFINITION_CONTEXT('part definition',#29,'design');
#52=PRODUCT_DEFINITION('None','',#40,#51);
#53=PERSON('4','Creator','Joe',$,$,$);
#54=ORGANIZATION($,'None','None');
#55=PERSON_AND_ORGANIZATION(#53,#54);
#56=PERSON_AND_ORGANIZATION_ROLE('creator');
#57=APPLIED_PERSON_AND_ORGANIZATION_ASSIGNMENT(#55,#56,(#52));
#58=CARTESIAN_POINT('NONE',(0.0,0.0,0.0));
#59=DIRECTION('NONE',(0.0,0.0,1.0));
#60=DIRECTION('NONE',(1.0,0.0,0.0));
#61=AXIS2_PLACEMENT_3D('NONE',#58,#59,#60);
#62=SHAPE_REPRESENTATION('SR1',(#61),#28);
#63=PRODUCT_DEFINITION_SHAPE('PDS1','Test Part',#52);
#64=SHAPE_DEFINITION_REPRESENTATION(#63,#62);
#65=CARTESIAN_POINT('',(4.750000000000001,2.45,12.1));
#66=DIRECTION('',(0.577350269189626,0.577350269189626,0.577350269189626));
#67=DIRECTION('',(-0.707106781186548,0.0,0.707106781186548));
#68=AXIS2_PLACEMENT_3D('',#65,#66,#67);
#69=SPHERICAL_SURFACE('',#68,0.4);
#70=CARTESIAN_POINT('',(4.980940107675851,2.68094010767585,12.33094010767585));
#71=VERTEX_POINT('',#70);
#72=CARTESIAN_POINT('',(4.750000000000001,2.628885438199983,12.457770876399966));
#73=VERTEX_POINT('',#72);
#74=CARTESIAN_POINT('',(4.750000000000001,2.45,12.1));
#75=DIRECTION('',(0.408248290463862,-0.816496580927726,0.408248290463864));
#76=DIRECTION('',(-0.707106781186549,0.0,0.707106781186546));
#77=AXIS2_PLACEMENT_3D('',#74,#75,#76);
#78=CIRCLE('',#77,0.4);
#79=EDGE_CURVE('',#71,#73,#78,.T.);
#80=ORIENTED_EDGE('',*,*,#79,.F.);
#81=CARTESIAN_POINT('',(5.107770876399967,2.628885438199982,12.1));
#82=VERTEX_POINT('',#81);
#83=CARTESIAN_POINT('',(4.750000000000001,2.45,12.1));
#84=DIRECTION('',(-0.408248290463862,0.816496580927726,-0.408248290463864));
#85=DIRECTION('',(0.707106781186549,0.0,-0.707106781186546));
#86=AXIS2_PLACEMENT_3D('',#83,#84,#85);
#87=CIRCLE('',#86,0.4);
#88=EDGE_CURVE('',#71,#82,#87,.T.);
#89=ORIENTED_EDGE('',*,*,#88,.T.);
#90=CARTESIAN_POINT('',(4.750000000000001,2.85,12.1));
#91=VERTEX_POINT('',#90);
#92=CARTESIAN_POINT('',(4.750000000000001,2.45,12.1));
#93=DIRECTION('',(0.0,0.0,1.0));
#94=DIRECTION('',(0.707106781186548,0.707106781186547,0.0));
#95=AXIS2_PLACEMENT_3D('',#92,#93,#94);
#96=CIRCLE('',#95,0.4);
#97=EDGE_CURVE('',#82,#91,#96,.T.);
#98=ORIENTED_EDGE('',*,*,#97,.T.);
#99=CARTESIAN_POINT('',(4.750000000000001,2.45,12.1));
#100=DIRECTION('',(1.0,0.0,0.0));
#101=DIRECTION('',(0.0,0.0,1.0));
#102=AXIS2_PLACEMENT_3D('',#99,#100,#101);
#103=CIRCLE('',#102,0.4);
#104=EDGE_CURVE('',#73,#91,#103,.F.);
#105=ORIENTED_EDGE('',*,*,#104,.F.);
#106=EDGE_LOOP('',(#80,#89,#98,#105));
#107=FACE_OUTER_BOUND('',#106,.T.);
#108=ADVANCED_FACE('',(#107),#69,.T.);
#109=CARTESIAN_POINT('',(4.750000000000001,2.45,12.1));
#110=DIRECTION('',(0.577350269189626,0.577350269189626,0.577350269189626));
#111=DIRECTION('',(-0.707106781186548,0.0,0.707106781186548));
#112=AXIS2_PLACEMENT_3D('',#109,#110,#111);
#113=SPHERICAL_SURFACE('',#112,0.4);
#114=ORIENTED_EDGE('',*,*,#79,.T.);
#115=CARTESIAN_POINT('',(4.750000000000001,2.45,12.5));
#116=VERTEX_POINT('',#115);
#117=CARTESIAN_POINT('',(4.750000000000001,2.45,12.1));
#118=DIRECTION('',(1.0,0.0,0.0));
#119=DIRECTION('',(0.0,0.0,1.0));
#120=AXIS2_PLACEMENT_3D('',#117,#118,#119);
#121=CIRCLE('',#120,0.4);
#122=EDGE_CURVE('',#116,#73,#121,.F.);
#123=ORIENTED_EDGE('',*,*,#122,.F.);
#124=CARTESIAN_POINT('',(5.150000000000001,2.45,12.100000000000001));
#125=VERTEX_POINT('',#124);
#126=CARTESIAN_POINT('',(4.750000000000001,2.45,12.1));
#127=DIRECTION('',(0.0,1.0,0.0));
#128=DIRECTION('',(0.707106781186546,0.0,0.707106781186549));
#129=AXIS2_PLACEMENT_3D('',#126,#127,#128);
#130=CIRCLE('',#129,0.4);
#131=EDGE_CURVE('',#116,#125,#130,.T.);
#132=ORIENTED_EDGE('',*,*,#131,.T.);
#133=CARTESIAN_POINT('',(4.750000000000001,2.45,12.1));
#134=DIRECTION('',(0.0,0.0,1.0));
#135=DIRECTION('',(0.707106781186548,0.707106781186547,0.0));
#136=AXIS2_PLACEMENT_3D('',#133,#134,#135);
#137=CIRCLE('',#136,0.4);
#138=EDGE_CURVE('',#125,#82,#137,.T.);
#139=ORIENTED_EDGE('',*,*,#138,.T.);
#140=ORIENTED_EDGE('',*,*,#88,.F.);
#141=EDGE_LOOP('',(#114,#123,#132,#139,#140));
#142=FACE_OUTER_BOUND('',#141,.T.);
#143=ADVANCED_FACE('',(#142),#113,.T.);
#144=CARTESIAN_POINT('',(4.750000000000001,-2.45,12.1));
#145=DIRECTION('',(0.577350269189626,0.577350269189626,0.577350269189626));
#146=DIRECTION('',(-0.707106781186548,0.0,0.707106781186548));
#147=AXIS2_PLACEMENT_3D('',#144,#145,#146);
#148=SPHERICAL_SURFACE('',#147,0.4);
#149=CARTESIAN_POINT('',(5.150000000000001,-2.45,12.1));
#150=VERTEX_POINT('',#149);
#151=CARTESIAN_POINT('',(4.750000000000001,-2.45,12.5));
#152=VERTEX_POINT('',#151);
#153=CARTESIAN_POINT('',(4.750000000000001,-2.45,12.1));
#154=DIRECTION('',(0.0,-1.0,0.0));
#155=DIRECTION('',(0.707106781186546,0.0,0.707106781186549));
#156=AXIS2_PLACEMENT_3D('',#153,#154,#155);
#157=CIRCLE('',#156,0.4);
#158=EDGE_CURVE('',#150,#152,#157,.T.);
#159=ORIENTED_EDGE('',*,*,#158,.T.);
#160=CARTESIAN_POINT('',(4.750000000000001,-2.85,12.1));
#161=VERTEX_POINT('',#160);
#162=CARTESIAN_POINT('',(4.750000000000001,-2.45,12.1));
#163=DIRECTION('',(1.0,0.0,0.0));
#164=DIRECTION('',(0.0,-1.0,0.0));
#165=AXIS2_PLACEMENT_3D('',#162,#163,#164);
#166=CIRCLE('',#165,0.4);
#167=EDGE_CURVE('',#161,#152,#166,.F.);
#168=ORIENTED_EDGE('',*,*,#167,.F.);
#169=CARTESIAN_POINT('',(4.750000000000001,-2.45,12.1));
#170=DIRECTION('',(0.0,0.0,1.0));
#171=DIRECTION('',(0.707106781186548,-0.707106781186547,0.0));
#172=AXIS2_PLACEMENT_3D('',#169,#170,#171);
#173=CIRCLE('',#172,0.4);
#174=EDGE_CURVE('',#161,#150,#173,.T.);
#175=ORIENTED_EDGE('',*,*,#174,.T.);
#176=EDGE_LOOP('',(#159,#168,#175));
#177=FACE_OUTER_BOUND('',#176,.T.);
#178=ADVANCED_FACE('',(#177),#148,.T.);
#179=CARTESIAN_POINT('',(-4.749999999999999,2.45,12.1));
#180=DIRECTION('',(0.577350269189626,0.577350269189626,0.577350269189626));
#181=DIRECTION('',(-0.707106781186548,0.0,0.707106781186548));
#182=AXIS2_PLACEMENT_3D('',#179,#180,#181);
#183=SPHERICAL_SURFACE('',#182,0.4);
#184=CARTESIAN_POINT('',(-4.749999999999999,2.85,12.1));
#185=VERTEX_POINT('',#184);
#186=CARTESIAN_POINT('',(-5.15,2.45,12.1));
#187=VERTEX_POINT('',#186);
#188=CARTESIAN_POINT('',(-4.749999999999999,2.45,12.1));
#189=DIRECTION('',(0.0,0.0,1.0));
#190=DIRECTION('',(-0.707106781186548,0.707106781186547,0.0));
#191=AXIS2_PLACEMENT_3D('',#188,#189,#190);
#192=CIRCLE('',#191,0.4);
#193=EDGE_CURVE('',#185,#187,#192,.T.);
#194=ORIENTED_EDGE('',*,*,#193,.T.);
#195=CARTESIAN_POINT('',(-4.749999999999999,2.45,12.5));
#196=VERTEX_POINT('',#195);
#197=CARTESIAN_POINT('',(-4.749999999999999,2.45,12.1));
#198=DIRECTION('',(0.0,1.0,0.0));
#199=DIRECTION('',(0.0,0.0,1.0));
#200=AXIS2_PLACEMENT_3D('',#197,#198,#199);
#201=CIRCLE('',#200,0.4);
#202=EDGE_CURVE('',#196,#187,#201,.F.);
#203=ORIENTED_EDGE('',*,*,#202,.F.);
#204=CARTESIAN_POINT('',(-4.749999999999999,2.45,12.1));
#205=DIRECTION('',(-1.0,0.0,0.0));
#206=DIRECTION('',(0.0,0.707106781186545,0.70710678118655));
#207=AXIS2_PLACEMENT_3D('',#204,#205,#206);
#208=CIRCLE('',#207,0.4);
#209=EDGE_CURVE('',#196,#185,#208,.T.);
#210=ORIENTED_EDGE('',*,*,#209,.T.);
#211=EDGE_LOOP('',(#194,#203,#210));
#212=FACE_OUTER_BOUND('',#211,.T.);
#213=ADVANCED_FACE('',(#212),#183,.T.);
#214=CARTESIAN_POINT('',(-4.749999999999999,-2.45,12.1));
#215=DIRECTION('',(0.577350269189626,0.577350269189626,0.577350269189626));
#216=DIRECTION('',(-0.707106781186548,0.0,0.707106781186548));
#217=AXIS2_PLACEMENT_3D('',#214,#215,#216);
#218=SPHERICAL_SURFACE('',#217,0.4);
#219=CARTESIAN_POINT('',(-4.749999999999999,-2.85,12.1));
#220=VERTEX_POINT('',#219);
#221=CARTESIAN_POINT('',(-4.749999999999999,-2.45,12.5));
#222=VERTEX_POINT('',#221);
#223=CARTESIAN_POINT('',(-4.749999999999999,-2.45,12.1));
#224=DIRECTION('',(-1.0,0.0,0.0));
#225=DIRECTION('',(0.0,-0.707106781186545,0.70710678118655));
#226=AXIS2_PLACEMENT_3D('',#223,#224,#225);
#227=CIRCLE('',#226,0.4);
#228=EDGE_CURVE('',#220,#222,#227,.T.);
#229=ORIENTED_EDGE('',*,*,#228,.T.);
#230=CARTESIAN_POINT('',(-5.15,-2.45,12.1));
#231=VERTEX_POINT('',#230);
#232=CARTESIAN_POINT('',(-4.749999999999999,-2.45,12.1));
#233=DIRECTION('',(0.0,-1.0,0.0));
#234=DIRECTION('',(-1.0,0.0,0.0));
#235=AXIS2_PLACEMENT_3D('',#232,#233,#234);
#236=CIRCLE('',#235,0.4);
#237=EDGE_CURVE('',#231,#222,#236,.F.);
#238=ORIENTED_EDGE('',*,*,#237,.F.);
#239=CARTESIAN_POINT('',(-4.749999999999999,-2.45,12.1));
#240=DIRECTION('',(0.0,0.0,1.0));
#241=DIRECTION('',(-0.707106781186548,-0.707106781186547,0.0));
#242=AXIS2_PLACEMENT_3D('',#239,#240,#241);
#243=CIRCLE('',#242,0.4);
#244=EDGE_CURVE('',#231,#220,#243,.T.);
#245=ORIENTED_EDGE('',*,*,#244,.T.);
#246=EDGE_LOOP('',(#229,#238,#245));
#247=FACE_OUTER_BOUND('',#246,.T.);
#248=ADVANCED_FACE('',(#247),#218,.T.);
#249=CARTESIAN_POINT('',(-4.749999999999999,-0.75,12.1));
#250=DIRECTION('',(0.0,1.0,0.0));
#251=DIRECTION('',(-0.707106781186546,0.0,0.707106781186549));
#252=AXIS2_PLACEMENT_3D('',#249,#250,#251);
#253=CYLINDRICAL_SURFACE('',#252,0.4);
#254=ORIENTED_EDGE('',*,*,#202,.T.);
#255=CARTESIAN_POINT('',(-5.15,2.45,12.1));
#256=DIRECTION('',(0.0,-1.0,0.0));
#257=VECTOR('',#256,4.9);
#258=LINE('',#255,#257);
#259=EDGE_CURVE('',#187,#231,#258,.T.);
#260=ORIENTED_EDGE('',*,*,#259,.T.);
#261=ORIENTED_EDGE('',*,*,#237,.T.);
#262=CARTESIAN_POINT('',(-4.749999999999999,-2.45,12.5));
#263=DIRECTION('',(0.0,1.0,0.0));
#264=VECTOR('',#263,4.9);
#265=LINE('',#262,#264);
#266=EDGE_CURVE('',#222,#196,#265,.T.);
#267=ORIENTED_EDGE('',*,*,#266,.T.);
#268=EDGE_LOOP('',(#254,#260,#261,#267));
#269=FACE_OUTER_BOUND('',#268,.T.);
#270=ADVANCED_FACE('',(#269),#253,.T.);
#271=CARTESIAN_POINT('',(8.881784E-016,-2.45,12.1));
#272=DIRECTION('',(-1.0,0.0,0.0));
#273=DIRECTION('',(0.0,-0.707106781186545,0.70710678118655));
#274=AXIS2_PLACEMENT_3D('',#271,#272,#273);
#275=CYLINDRICAL_SURFACE('',#274,0.4);
#276=ORIENTED_EDGE('',*,*,#228,.F.);
#277=CARTESIAN_POINT('',(-4.749999999999999,-2.85,12.1));
#278=DIRECTION('',(1.0,0.0,0.0));
#279=VECTOR('',#278,9.5);
#280=LINE('',#277,#279);
#281=EDGE_CURVE('',#220,#161,#280,.T.);
#282=ORIENTED_EDGE('',*,*,#281,.T.);
#283=ORIENTED_EDGE('',*,*,#167,.T.);
#284=CARTESIAN_POINT('',(4.750000000000001,-2.45,12.5));
#285=DIRECTION('',(-1.0,0.0,0.0));
#286=VECTOR('',#285,9.5);
#287=LINE('',#284,#286);
#288=EDGE_CURVE('',#152,#222,#287,.T.);
#289=ORIENTED_EDGE('',*,*,#288,.T.);
#290=EDGE_LOOP('',(#276,#282,#283,#289));
#291=FACE_OUTER_BOUND('',#290,.T.);
#292=ADVANCED_FACE('',(#291),#275,.T.);
#293=CARTESIAN_POINT('',(-4.749999999999999,-2.45,6.25));
#294=DIRECTION('',(0.0,0.0,-1.0));
#295=DIRECTION('',(-0.707106781186548,-0.707106781186547,0.0));
#296=AXIS2_PLACEMENT_3D('',#293,#294,#295);
#297=CYLINDRICAL_SURFACE('',#296,0.4);
#298=CARTESIAN_POINT('',(-5.15,-2.45,0.0));
#299=VERTEX_POINT('',#298);
#300=CARTESIAN_POINT('',(-4.749999999999999,-2.85,0.0));
#301=VERTEX_POINT('',#300);
#302=CARTESIAN_POINT('',(-4.749999999999999,-2.45,0.0));
#303=DIRECTION('',(0.0,0.0,1.0));
#304=DIRECTION('',(-0.707106781186548,-0.707106781186547,0.0));
#305=AXIS2_PLACEMENT_3D('',#302,#303,#304);
#306=CIRCLE('',#305,0.4);
#307=EDGE_CURVE('',#299,#301,#306,.T.);
#308=ORIENTED_EDGE('',*,*,#307,.T.);
#309=CARTESIAN_POINT('',(-4.749999999999999,-2.85,0.0));
#310=DIRECTION('',(0.0,0.0,1.0));
#311=VECTOR('',#310,12.1);
#312=LINE('',#309,#311);
#313=EDGE_CURVE('',#301,#220,#312,.T.);
#314=ORIENTED_EDGE('',*,*,#313,.T.);
#315=ORIENTED_EDGE('',*,*,#244,.F.);
#316=CARTESIAN_POINT('',(-5.15,-2.45,12.1));
#317=DIRECTION('',(0.0,0.0,-1.0));
#318=VECTOR('',#317,12.1);
#319=LINE('',#316,#318);
#320=EDGE_CURVE('',#231,#299,#319,.T.);
#321=ORIENTED_EDGE('',*,*,#320,.T.);
#322=EDGE_LOOP('',(#308,#314,#315,#321));
#323=FACE_OUTER_BOUND('',#322,.T.);
#324=ADVANCED_FACE('',(#323),#297,.T.);
#325=CARTESIAN_POINT('',(8.881784E-016,2.45,12.1));
#326=DIRECTION('',(1.0,0.0,0.0));
#327=DIRECTION('',(0.0,0.707106781186545,0.70710678118655));
#328=AXIS2_PLACEMENT_3D('',#325,#326,#327);
#329=CYLINDRICAL_SURFACE('',#328,0.4);
#330=ORIENTED_EDGE('',*,*,#122,.T.);
#331=ORIENTED_EDGE('',*,*,#104,.T.);
#332=CARTESIAN_POINT('',(4.750000000000001,2.85,12.1));
#333=DIRECTION('',(-1.0,0.0,0.0));
#334=VECTOR('',#333,9.5);
#335=LINE('',#332,#334);
#336=EDGE_CURVE('',#91,#185,#335,.T.);
#337=ORIENTED_EDGE('',*,*,#336,.T.);
#338=ORIENTED_EDGE('',*,*,#209,.F.);
#339=CARTESIAN_POINT('',(-4.749999999999999,2.45,12.5));
#340=DIRECTION('',(1.0,0.0,0.0));
#341=VECTOR('',#340,9.5);
#342=LINE('',#339,#341);
#343=EDGE_CURVE('',#196,#116,#342,.T.);
#344=ORIENTED_EDGE('',*,*,#343,.T.);
#345=EDGE_LOOP('',(#330,#331,#337,#338,#344));
#346=FACE_OUTER_BOUND('',#345,.T.);
#347=ADVANCED_FACE('',(#346),#329,.T.);
#348=CARTESIAN_POINT('',(-4.749999999999999,2.45,6.25));
#349=DIRECTION('',(0.0,0.0,-1.0));
#350=DIRECTION('',(-0.707106781186548,0.707106781186547,0.0));
#351=AXIS2_PLACEMENT_3D('',#348,#349,#350);
#352=CYLINDRICAL_SURFACE('',#351,0.4);
#353=CARTESIAN_POINT('',(-4.749999999999999,2.85,0.0));
#354=VERTEX_POINT('',#353);
#355=CARTESIAN_POINT('',(-5.15,2.45,0.0));
#356=VERTEX_POINT('',#355);
#357=CARTESIAN_POINT('',(-4.749999999999999,2.45,0.0));
#358=DIRECTION('',(0.0,0.0,1.0));
#359=DIRECTION('',(-0.707106781186548,0.707106781186547,0.0));
#360=AXIS2_PLACEMENT_3D('',#357,#358,#359);
#361=CIRCLE('',#360,0.4);
#362=EDGE_CURVE('',#354,#356,#361,.T.);
#363=ORIENTED_EDGE('',*,*,#362,.T.);
#364=CARTESIAN_POINT('',(-5.15,2.45,0.0));
#365=DIRECTION('',(0.0,0.0,1.0));
#366=VECTOR('',#365,12.1);
#367=LINE('',#364,#366);
#368=EDGE_CURVE('',#356,#187,#367,.T.);
#369=ORIENTED_EDGE('',*,*,#368,.T.);
#370=ORIENTED_EDGE('',*,*,#193,.F.);
#371=CARTESIAN_POINT('',(-4.749999999999999,2.85,12.1));
#372=DIRECTION('',(0.0,0.0,-1.0));
#373=VECTOR('',#372,12.1);
#374=LINE('',#371,#373);
#375=EDGE_CURVE('',#185,#354,#374,.T.);
#376=ORIENTED_EDGE('',*,*,#375,.T.);
#377=EDGE_LOOP('',(#363,#369,#370,#376));
#378=FACE_OUTER_BOUND('',#377,.T.);
#379=ADVANCED_FACE('',(#378),#352,.T.);
#380=CARTESIAN_POINT('',(4.750000000000001,-0.75,12.1));
#381=DIRECTION('',(0.0,-1.0,0.0));
#382=DIRECTION('',(0.707106781186546,0.0,0.707106781186549));
#383=AXIS2_PLACEMENT_3D('',#380,#381,#382);
#384=CYLINDRICAL_SURFACE('',#383,0.4);
#385=ORIENTED_EDGE('',*,*,#158,.F.);
#386=CARTESIAN_POINT('',(5.150000000000001,-2.45,12.1));
#387=DIRECTION('',(0.0,1.0,0.0));
#388=VECTOR('',#387,4.9);
#389=LINE('',#386,#388);
#390=EDGE_CURVE('',#150,#125,#389,.T.);
#391=ORIENTED_EDGE('',*,*,#390,.T.);
#392=ORIENTED_EDGE('',*,*,#131,.F.);
#393=CARTESIAN_POINT('',(4.750000000000001,2.45,12.5));
#394=DIRECTION('',(0.0,-1.0,0.0));
#395=VECTOR('',#394,4.9);
#396=LINE('',#393,#395);
#397=EDGE_CURVE('',#116,#152,#396,.T.);
#398=ORIENTED_EDGE('',*,*,#397,.T.);
#399=EDGE_LOOP('',(#385,#391,#392,#398));
#400=FACE_OUTER_BOUND('',#399,.T.);
#401=ADVANCED_FACE('',(#400),#384,.T.);
#402=CARTESIAN_POINT('',(4.750000000000001,-2.45,6.25));
#403=DIRECTION('',(0.0,0.0,-1.0));
#404=DIRECTION('',(0.707106781186548,-0.707106781186547,0.0));
#405=AXIS2_PLACEMENT_3D('',#402,#403,#404);
#406=CYLINDRICAL_SURFACE('',#405,0.4);
#407=CARTESIAN_POINT('',(4.750000000000001,-2.85,0.0));
#408=VERTEX_POINT('',#407);
#409=CARTESIAN_POINT('',(5.150000000000001,-2.45,0.0));
#410=VERTEX_POINT('',#409);
#411=CARTESIAN_POINT('',(4.750000000000001,-2.45,0.0));
#412=DIRECTION('',(0.0,0.0,1.0));
#413=DIRECTION('',(0.707106781186548,-0.707106781186547,0.0));
#414=AXIS2_PLACEMENT_3D('',#411,#412,#413);
#415=CIRCLE('',#414,0.4);
#416=EDGE_CURVE('',#408,#410,#415,.T.);
#417=ORIENTED_EDGE('',*,*,#416,.T.);
#418=CARTESIAN_POINT('',(5.150000000000001,-2.45,0.0));
#419=DIRECTION('',(0.0,0.0,1.0));
#420=VECTOR('',#419,12.1);
#421=LINE('',#418,#420);
#422=EDGE_CURVE('',#410,#150,#421,.T.);
#423=ORIENTED_EDGE('',*,*,#422,.T.);
#424=ORIENTED_EDGE('',*,*,#174,.F.);
#425=CARTESIAN_POINT('',(4.750000000000001,-2.85,12.1));
#426=DIRECTION('',(0.0,0.0,-1.0));
#427=VECTOR('',#426,12.1);
#428=LINE('',#425,#427);
#429=EDGE_CURVE('',#161,#408,#428,.T.);
#430=ORIENTED_EDGE('',*,*,#429,.T.);
#431=EDGE_LOOP('',(#417,#423,#424,#430));
#432=FACE_OUTER_BOUND('',#431,.T.);
#433=ADVANCED_FACE('',(#432),#406,.T.);
#434=CARTESIAN_POINT('',(4.750000000000001,2.45,6.25));
#435=DIRECTION('',(0.0,0.0,-1.0));
#436=DIRECTION('',(0.707106781186548,0.707106781186547,0.0));
#437=AXIS2_PLACEMENT_3D('',#434,#435,#436);
#438=CYLINDRICAL_SURFACE('',#437,0.4);
#439=CARTESIAN_POINT('',(5.150000000000001,2.45,0.0));
#440=VERTEX_POINT('',#439);
#441=CARTESIAN_POINT('',(4.750000000000001,2.85,0.0));
#442=VERTEX_POINT('',#441);
#443=CARTESIAN_POINT('',(4.750000000000001,2.45,0.0));
#444=DIRECTION('',(0.0,0.0,1.0));
#445=DIRECTION('',(0.707106781186548,0.707106781186547,0.0));
#446=AXIS2_PLACEMENT_3D('',#443,#444,#445);
#447=CIRCLE('',#446,0.4);
#448=EDGE_CURVE('',#440,#442,#447,.T.);
#449=ORIENTED_EDGE('',*,*,#448,.T.);
#450=CARTESIAN_POINT('',(4.750000000000001,2.85,0.0));
#451=DIRECTION('',(0.0,0.0,1.0));
#452=VECTOR('',#451,12.1);
#453=LINE('',#450,#452);
#454=EDGE_CURVE('',#442,#91,#453,.T.);
#455=ORIENTED_EDGE('',*,*,#454,.T.);
#456=ORIENTED_EDGE('',*,*,#97,.F.);
#457=ORIENTED_EDGE('',*,*,#138,.F.);
#458=CARTESIAN_POINT('',(5.150000000000001,2.45,12.1));
#459=DIRECTION('',(0.0,0.0,-1.0));
#460=VECTOR('',#459,12.1);
#461=LINE('',#458,#460);
#462=EDGE_CURVE('',#125,#440,#461,.T.);
#463=ORIENTED_EDGE('',*,*,#462,.T.);
#464=EDGE_LOOP('',(#449,#455,#456,#457,#463));
#465=FACE_OUTER_BOUND('',#464,.T.);
#466=ADVANCED_FACE('',(#465),#438,.T.);
#467=CARTESIAN_POINT('',(-5.15,-2.45,12.1));
#468=CARTESIAN_POINT('',(-5.15,-2.45,0.0));
#469=CARTESIAN_POINT('',(-5.15,2.45,12.1));
#470=CARTESIAN_POINT('',(-5.15,2.45,0.0));
#471=B_SPLINE_SURFACE_WITH_KNOTS('',1,1,((#467,#469),(#468,#470)),.UNSPECIFIED.,.F.,.F.,.U.,(2,2),(2,2),(0.0,12.1),(0.0,4.9),.UNSPECIFIED.);
#472=ORIENTED_EDGE('',*,*,#320,.F.);
#473=ORIENTED_EDGE('',*,*,#259,.F.);
#474=ORIENTED_EDGE('',*,*,#368,.F.);
#475=CARTESIAN_POINT('',(-5.15,2.45,0.0));
#476=DIRECTION('',(0.0,-1.0,0.0));
#477=VECTOR('',#476,4.9);
#478=LINE('',#475,#477);
#479=EDGE_CURVE('',#356,#299,#478,.T.);
#480=ORIENTED_EDGE('',*,*,#479,.T.);
#481=EDGE_LOOP('',(#472,#473,#474,#480));
#482=FACE_OUTER_BOUND('',#481,.T.);
#483=ADVANCED_FACE('',(#482),#471,.F.);
#484=CARTESIAN_POINT('',(4.750000000000001,2.85,0.0));
#485=CARTESIAN_POINT('',(4.750000000000001,2.85,12.1));
#486=CARTESIAN_POINT('',(-4.749999999999999,2.85,0.0));
#487=CARTESIAN_POINT('',(-4.749999999999999,2.85,12.1));
#488=B_SPLINE_SURFACE_WITH_KNOTS('',1,1,((#484,#486),(#485,#487)),.UNSPECIFIED.,.F.,.F.,.U.,(2,2),(2,2),(0.0,12.1),(0.0,9.5),.UNSPECIFIED.);
#489=ORIENTED_EDGE('',*,*,#375,.F.);
#490=ORIENTED_EDGE('',*,*,#336,.F.);
#491=ORIENTED_EDGE('',*,*,#454,.F.);
#492=CARTESIAN_POINT('',(4.750000000000001,2.85,0.0));
#493=DIRECTION('',(-1.0,0.0,0.0));
#494=VECTOR('',#493,9.5);
#495=LINE('',#492,#494);
#496=EDGE_CURVE('',#442,#354,#495,.T.);
#497=ORIENTED_EDGE('',*,*,#496,.T.);
#498=EDGE_LOOP('',(#489,#490,#491,#497));
#499=FACE_OUTER_BOUND('',#498,.T.);
#500=ADVANCED_FACE('',(#499),#488,.F.);
#501=CARTESIAN_POINT('',(-4.749999999999999,-2.45,12.5));
#502=CARTESIAN_POINT('',(4.750000000000001,-2.45,12.5));
#503=CARTESIAN_POINT('',(-4.749999999999999,2.45,12.5));
#504=CARTESIAN_POINT('',(4.750000000000001,2.45,12.5));
#505=B_SPLINE_SURFACE_WITH_KNOTS('',1,1,((#501,#503),(#502,#504)),.UNSPECIFIED.,.F.,.F.,.U.,(2,2),(2,2),(0.0,9.5),(0.0,4.9),.UNSPECIFIED.);
#506=ORIENTED_EDGE('',*,*,#266,.F.);
#507=ORIENTED_EDGE('',*,*,#288,.F.);
#508=ORIENTED_EDGE('',*,*,#397,.F.);
#509=ORIENTED_EDGE('',*,*,#343,.F.);
#510=EDGE_LOOP('',(#506,#507,#508,#509));
#511=FACE_OUTER_BOUND('',#510,.T.);
#512=ADVANCED_FACE('',(#511),#505,.T.);
#513=CARTESIAN_POINT('',(-5.15,-2.85,0.0));
#514=CARTESIAN_POINT('',(5.150000000000001,-2.85,0.0));
#515=CARTESIAN_POINT('',(-5.15,2.85,0.0));
#516=CARTESIAN_POINT('',(5.150000000000001,2.85,0.0));
#517=B_SPLINE_SURFACE_WITH_KNOTS('',1,1,((#513,#515),(#514,#516)),.UNSPECIFIED.,.F.,.F.,.U.,(2,2),(2,2),(0.0,10.300000000000001),(0.0,5.699999999999999),.UNSPECIFIED.);
#518=ORIENTED_EDGE('',*,*,#307,.F.);
#519=ORIENTED_EDGE('',*,*,#479,.F.);
#520=ORIENTED_EDGE('',*,*,#362,.F.);
#521=ORIENTED_EDGE('',*,*,#496,.F.);
#522=ORIENTED_EDGE('',*,*,#448,.F.);
#523=CARTESIAN_POINT('',(5.150000000000001,-2.45,0.0));
#524=DIRECTION('',(0.0,1.0,0.0));
#525=VECTOR('',#524,4.9);
#526=LINE('',#523,#525);
#527=EDGE_CURVE('',#410,#440,#526,.T.);
#528=ORIENTED_EDGE('',*,*,#527,.F.);
#529=ORIENTED_EDGE('',*,*,#416,.F.);
#530=CARTESIAN_POINT('',(-4.749999999999999,-2.85,0.0));
#531=DIRECTION('',(1.0,0.0,0.0));
#532=VECTOR('',#531,9.5);
#533=LINE('',#530,#532);
#534=EDGE_CURVE('',#301,#408,#533,.T.);
#535=ORIENTED_EDGE('',*,*,#534,.F.);
#536=EDGE_LOOP('',(#518,#519,#520,#521,#522,#528,#529,#535));
#537=FACE_OUTER_BOUND('',#536,.T.);
#538=ADVANCED_FACE('',(#537),#517,.F.);
#539=CARTESIAN_POINT('',(4.750000000000001,-2.85,12.1));
#540=CARTESIAN_POINT('',(4.750000000000001,-2.85,0.0));
#541=CARTESIAN_POINT('',(-4.749999999999999,-2.85,12.1));
#542=CARTESIAN_POINT('',(-4.749999999999999,-2.85,0.0));
#543=B_SPLINE_SURFACE_WITH_KNOTS('',1,1,((#539,#541),(#540,#542)),.UNSPECIFIED.,.F.,.F.,.U.,(2,2),(2,2),(0.0,12.1),(0.0,9.5),.UNSPECIFIED.);
#544=ORIENTED_EDGE('',*,*,#313,.F.);
#545=ORIENTED_EDGE('',*,*,#534,.T.);
#546=ORIENTED_EDGE('',*,*,#429,.F.);
#547=ORIENTED_EDGE('',*,*,#281,.F.);
#548=EDGE_LOOP('',(#544,#545,#546,#547));
#549=FACE_OUTER_BOUND('',#548,.T.);
#550=ADVANCED_FACE('',(#549),#543,.F.);
#551=CARTESIAN_POINT('',(5.150000000000001,-2.45,0.0));
#552=CARTESIAN_POINT('',(5.150000000000001,-2.45,12.100000000000001));
#553=CARTESIAN_POINT('',(5.150000000000001,2.45,0.0));
#554=CARTESIAN_POINT('',(5.150000000000001,2.45,12.100000000000001));
#555=B_SPLINE_SURFACE_WITH_KNOTS('',1,1,((#551,#553),(#552,#554)),.UNSPECIFIED.,.F.,.F.,.U.,(2,2),(2,2),(0.0,12.100000000000001),(0.0,4.9),.UNSPECIFIED.);
#556=ORIENTED_EDGE('',*,*,#422,.F.);
#557=ORIENTED_EDGE('',*,*,#527,.T.);
#558=ORIENTED_EDGE('',*,*,#462,.F.);
#559=ORIENTED_EDGE('',*,*,#390,.F.);
#560=EDGE_LOOP('',(#556,#557,#558,#559));
#561=FACE_OUTER_BOUND('',#560,.T.);
#562=ADVANCED_FACE('',(#561),#555,.F.);
#563=CLOSED_SHELL('',(#108,#143,#178,#213,#248,#270,#292,#324,#347,#379,#401,#433,#466,#483,#500,#512,#538,#550,#562));
#564=MANIFOLD_SOLID_BREP('14EB',#563);
#565=COLOUR_RGB('240',1.0,0.0,0.25);
#566=SURFACE_STYLE_USAGE(.BOTH.,#567);
#567=SURFACE_SIDE_STYLE('NONE',(#568));
#568=SURFACE_STYLE_FILL_AREA(#569);
#569=FILL_AREA_STYLE('NONE',(#570));
#570=FILL_AREA_STYLE_COLOUR('NONE',#565);
#571=PRESENTATION_STYLE_ASSIGNMENT((#566));
#572=STYLED_ITEM('NONE',(#571),#564);
#573=MECHANICAL_DESIGN_GEOMETRIC_PRESENTATION_REPRESENTATION('NONE',(#572,#670,#760),#28);
#574=PRESENTATION_LAYER_ASSIGNMENT('Mechanical 14','None',(#564));
#575=CARTESIAN_POINT('',(-3.75,-2.326829E-016,-1.9));
#576=DIRECTION('',(0.0,-1.224647E-016,-1.0));
#577=DIRECTION('',(1.0,0.0,0.0));
#578=AXIS2_PLACEMENT_3D('',#575,#576,#577);
#579=CYLINDRICAL_SURFACE('',#578,0.3);
#580=CARTESIAN_POINT('',(-3.45,-4.653658E-016,-3.8));
#581=VERTEX_POINT('',#580);
#582=CARTESIAN_POINT('',(-3.45,0.0,0.0));
#583=VERTEX_POINT('',#582);
#584=CARTESIAN_POINT('',(-3.45,-4.653658E-016,-3.8));
#585=DIRECTION('',(0.0,0.0,1.0));
#586=VECTOR('',#585,3.8);
#587=LINE('',#584,#586);
#588=EDGE_CURVE('',#581,#583,#587,.T.);
#589=ORIENTED_EDGE('',*,*,#588,.F.);
#590=CARTESIAN_POINT('',(-4.05,-4.286264E-016,-3.8));
#591=VERTEX_POINT('',#590);
#592=CARTESIAN_POINT('',(-3.75,-4.653658E-016,-3.8));
#593=DIRECTION('',(0.0,0.0,-1.0));
#594=DIRECTION('',(1.0,0.0,0.0));
#595=AXIS2_PLACEMENT_3D('',#592,#593,#594);
#596=CIRCLE('',#595,0.3);
#597=EDGE_CURVE('',#591,#581,#596,.T.);
#598=ORIENTED_EDGE('',*,*,#597,.F.);
#599=CARTESIAN_POINT('',(-4.05,3.673940E-017,0.0));
#600=VERTEX_POINT('',#599);
#601=CARTESIAN_POINT('',(-4.05,-4.286264E-016,-3.8));
#602=DIRECTION('',(0.0,0.0,1.0));
#603=VECTOR('',#602,3.8);
#604=LINE('',#601,#603);
#605=EDGE_CURVE('',#591,#600,#604,.T.);
#606=ORIENTED_EDGE('',*,*,#605,.T.);
#607=CARTESIAN_POINT('',(-3.75,0.0,0.0));
#608=DIRECTION('',(0.0,0.0,1.0));
#609=DIRECTION('',(1.0,0.0,0.0));
#610=AXIS2_PLACEMENT_3D('',#607,#608,#609);
#611=CIRCLE('',#610,0.3);
#612=EDGE_CURVE('',#583,#600,#611,.T.);
#613=ORIENTED_EDGE('',*,*,#612,.F.);
#614=EDGE_LOOP('',(#589,#598,#606,#613));
#615=FACE_OUTER_BOUND('',#614,.T.);
#616=ADVANCED_FACE('',(#615),#579,.T.);
#617=CARTESIAN_POINT('',(-3.75,-2.326829E-016,-1.9));
#618=DIRECTION('',(0.0,-1.224647E-016,-1.0));
#619=DIRECTION('',(1.0,0.0,0.0));
#620=AXIS2_PLACEMENT_3D('',#617,#618,#619);
#621=CYLINDRICAL_SURFACE('',#620,0.3);
#622=ORIENTED_EDGE('',*,*,#588,.T.);
#623=CARTESIAN_POINT('',(-3.75,0.0,0.0));
#624=DIRECTION('',(0.0,0.0,1.0));
#625=DIRECTION('',(1.0,0.0,0.0));
#626=AXIS2_PLACEMENT_3D('',#623,#624,#625);
#627=CIRCLE('',#626,0.3);
#628=EDGE_CURVE('',#600,#583,#627,.T.);
#629=ORIENTED_EDGE('',*,*,#628,.F.);
#630=ORIENTED_EDGE('',*,*,#605,.F.);
#631=CARTESIAN_POINT('',(-3.75,-4.653658E-016,-3.8));
#632=DIRECTION('',(0.0,0.0,-1.0));
#633=DIRECTION('',(1.0,0.0,0.0));
#634=AXIS2_PLACEMENT_3D('',#631,#632,#633);
#635=CIRCLE('',#634,0.3);
#636=EDGE_CURVE('',#581,#591,#635,.T.);
#637=ORIENTED_EDGE('',*,*,#636,.F.);
#638=EDGE_LOOP('',(#622,#629,#630,#637));
#639=FACE_OUTER_BOUND('',#638,.T.);
#640=ADVANCED_FACE('',(#639),#621,.T.);
#641=CARTESIAN_POINT('',(-3.75,0.0,0.0));
#642=DIRECTION('',(0.0,0.0,1.0));
#643=DIRECTION('',(-1.0,0.0,0.0));
#644=AXIS2_PLACEMENT_3D('',#641,#642,#643);
#645=PLANE('',#644);
#646=ORIENTED_EDGE('',*,*,#612,.T.);
#647=ORIENTED_EDGE('',*,*,#628,.T.);
#648=EDGE_LOOP('',(#646,#647));
#649=FACE_OUTER_BOUND('',#648,.T.);
#650=ADVANCED_FACE('',(#649),#645,.T.);
#651=CARTESIAN_POINT('',(-3.75,-4.653658E-016,-3.8));
#652=DIRECTION('',(0.0,0.0,-1.0));
#653=DIRECTION('',(1.0,0.0,0.0));
#654=AXIS2_PLACEMENT_3D('',#651,#652,#653);
#655=PLANE('',#654);
#656=ORIENTED_EDGE('',*,*,#636,.T.);
#657=ORIENTED_EDGE('',*,*,#597,.T.);
#658=EDGE_LOOP('',(#656,#657));
#659=FACE_OUTER_BOUND('',#658,.T.);
#660=ADVANCED_FACE('',(#659),#655,.T.);
#661=CLOSED_SHELL('',(#616,#640,#650,#660));
#662=MANIFOLD_SOLID_BREP('14D8',#661);
#663=COLOUR_RGB('254',0.866,0.866,0.866);
#664=SURFACE_STYLE_USAGE(.BOTH.,#665);
#665=SURFACE_SIDE_STYLE('NONE',(#666));
#666=SURFACE_STYLE_FILL_AREA(#667);
#667=FILL_AREA_STYLE('NONE',(#668));
#668=FILL_AREA_STYLE_COLOUR('NONE',#663);
#669=PRESENTATION_STYLE_ASSIGNMENT((#664));
#670=STYLED_ITEM('NONE',(#669),#662);
#671=PRESENTATION_LAYER_ASSIGNMENT('3D','None',(#662,#759));
#672=CARTESIAN_POINT('',(3.75,-2.326829E-016,-1.9));
#673=DIRECTION('',(0.0,-1.224647E-016,-1.0));
#674=DIRECTION('',(1.0,0.0,0.0));
#675=AXIS2_PLACEMENT_3D('',#672,#673,#674);
#676=CYLINDRICAL_SURFACE('',#675,0.3);
#677=CARTESIAN_POINT('',(4.050000000000001,-4.653658E-016,-3.8));
#678=VERTEX_POINT('',#677);
#679=CARTESIAN_POINT('',(4.050000000000001,0.0,0.0));
#680=VERTEX_POINT('',#679);
#681=CARTESIAN_POINT('',(4.050000000000001,-4.653658E-016,-3.8));
#682=DIRECTION('',(0.0,0.0,1.0));
#683=VECTOR('',#682,3.8);
#684=LINE('',#681,#683);
#685=EDGE_CURVE('',#678,#680,#684,.T.);
#686=ORIENTED_EDGE('',*,*,#685,.F.);
#687=CARTESIAN_POINT('',(3.450000000000001,-4.286264E-016,-3.8));
#688=VERTEX_POINT('',#687);
#689=CARTESIAN_POINT('',(3.75,-4.653658E-016,-3.8));
#690=DIRECTION('',(0.0,0.0,-1.0));
#691=DIRECTION('',(1.0,0.0,0.0));
#692=AXIS2_PLACEMENT_3D('',#689,#690,#691);
#693=CIRCLE('',#692,0.3);
#694=EDGE_CURVE('',#688,#678,#693,.T.);
#695=ORIENTED_EDGE('',*,*,#694,.F.);
#696=CARTESIAN_POINT('',(3.450000000000001,3.673940E-017,0.0));
#697=VERTEX_POINT('',#696);
#698=CARTESIAN_POINT('',(3.450000000000001,-4.286264E-016,-3.8));
#699=DIRECTION('',(0.0,0.0,1.0));
#700=VECTOR('',#699,3.8);
#701=LINE('',#698,#700);
#702=EDGE_CURVE('',#688,#697,#701,.T.);
#703=ORIENTED_EDGE('',*,*,#702,.T.);
#704=CARTESIAN_POINT('',(3.75,0.0,0.0));
#705=DIRECTION('',(0.0,0.0,1.0));
#706=DIRECTION('',(1.0,0.0,0.0));
#707=AXIS2_PLACEMENT_3D('',#704,#705,#706);
#708=CIRCLE('',#707,0.3);
#709=EDGE_CURVE('',#680,#697,#708,.T.);
#710=ORIENTED_EDGE('',*,*,#709,.F.);
#711=EDGE_LOOP('',(#686,#695,#703,#710));
#712=FACE_OUTER_BOUND('',#711,.T.);
#713=ADVANCED_FACE('',(#712),#676,.T.);
#714=CARTESIAN_POINT('',(3.75,-2.326829E-016,-1.9));
#715=DIRECTION('',(0.0,-1.224647E-016,-1.0));
#716=DIRECTION('',(1.0,0.0,0.0));
#717=AXIS2_PLACEMENT_3D('',#714,#715,#716);
#718=CYLINDRICAL_SURFACE('',#717,0.3);
#719=ORIENTED_EDGE('',*,*,#685,.T.);
#720=CARTESIAN_POINT('',(3.75,0.0,0.0));
#721=DIRECTION('',(0.0,0.0,1.0));
#722=DIRECTION('',(1.0,0.0,0.0));
#723=AXIS2_PLACEMENT_3D('',#720,#721,#722);
#724=CIRCLE('',#723,0.3);
#725=EDGE_CURVE('',#697,#680,#724,.T.);
#726=ORIENTED_EDGE('',*,*,#725,.F.);
#727=ORIENTED_EDGE('',*,*,#702,.F.);
#728=CARTESIAN_POINT('',(3.75,-4.653658E-016,-3.8));
#729=DIRECTION('',(0.0,0.0,-1.0));
#730=DIRECTION('',(1.0,0.0,0.0));
#731=AXIS2_PLACEMENT_3D('',#728,#729,#730);
#732=CIRCLE('',#731,0.3);
#733=EDGE_CURVE('',#678,#688,#732,.T.);
#734=ORIENTED_EDGE('',*,*,#733,.F.);
#735=EDGE_LOOP('',(#719,#726,#727,#734));
#736=FACE_OUTER_BOUND('',#735,.T.);
#737=ADVANCED_FACE('',(#736),#718,.T.);
#738=CARTESIAN_POINT('',(3.75,0.0,0.0));
#739=DIRECTION('',(0.0,0.0,1.0));
#740=DIRECTION('',(-1.0,0.0,0.0));
#741=AXIS2_PLACEMENT_3D('',#738,#739,#740);
#742=PLANE('',#741);
#743=ORIENTED_EDGE('',*,*,#709,.T.);
#744=ORIENTED_EDGE('',*,*,#725,.T.);
#745=EDGE_LOOP('',(#743,#744));
#746=FACE_OUTER_BOUND('',#745,.T.);
#747=ADVANCED_FACE('',(#746),#742,.T.);
#748=CARTESIAN_POINT('',(3.75,-4.653658E-016,-3.8));
#749=DIRECTION('',(0.0,0.0,-1.0));
#750=DIRECTION('',(1.0,0.0,0.0));
#751=AXIS2_PLACEMENT_3D('',#748,#749,#750);
#752=PLANE('',#751);
#753=ORIENTED_EDGE('',*,*,#733,.T.);
#754=ORIENTED_EDGE('',*,*,#694,.T.);
#755=EDGE_LOOP('',(#753,#754));
#756=FACE_OUTER_BOUND('',#755,.T.);
#757=ADVANCED_FACE('',(#756),#752,.T.);
#758=CLOSED_SHELL('',(#713,#737,#747,#757));
#759=MANIFOLD_SOLID_BREP('14D0',#758);
#760=STYLED_ITEM('NONE',(#669),#759);
#761=ADVANCED_BREP_SHAPE_REPRESENTATION('ABSR1',(#564,#662,#759),#28);
#762=SHAPE_REPRESENTATION_RELATIONSHIP('SRRPL1','',#761,#62);
ENDSEC;
END-ISO-10303-21;
