ISO-10303-21;
HEADER;
/****************************************************************
 * Generated by software with PDElib inside                    *
 * PDElib Version v51a, created Fri 09/10/2010                  *
 * ITI Transcendata (http://www.transcendata.com/)              *
 ****************************************************************/
FILE_DESCRIPTION((''),'2;1');
FILE_NAME('COMATEL_386.0334.1.20.440_a.stp','2013-08-29T12:22:31',(''),(''),'Mechanical Desktop 2011','Mechanical Desktop 2011',', , ');
FILE_SCHEMA(('AUTOMOTIVE_DESIGN { 1 2 10303 214 1 1 1 1 }'));
ENDSEC;
DATA;
#10=(NAMED_UNIT(*)PLANE_ANGLE_UNIT()SI_UNIT($,.RADIAN.));
#11=DIMENSIONAL_EXPONENTS(0.0,0.0,0.0,0.0,0.0,0.0,0.0);
#12=PLANE_ANGLE_MEASURE_WITH_UNIT(PLANE_ANGLE_MEASURE(0.0174532925),#10);
#16=(CONVERSION_BASED_UNIT('DEGREE',#12)NAMED_UNIT(#11)PLANE_ANGLE_UNIT());
#20=(NAMED_UNIT(*)SI_UNIT($,.STERADIAN.)SOLID_ANGLE_UNIT());
#24=(LENGTH_UNIT()NAMED_UNIT(*)SI_UNIT(.MILLI.,.METRE.));
#26=UNCERTAINTY_MEASURE_WITH_UNIT(LENGTH_MEASURE(0.000001),#24,'DISTANCE_ACCURACY_VALUE','');
#28=(GEOMETRIC_REPRESENTATION_CONTEXT(3)GLOBAL_UNCERTAINTY_ASSIGNED_CONTEXT((#26))GLOBAL_UNIT_ASSIGNED_CONTEXT((#16,#20,#24))REPRESENTATION_CONTEXT('','3D'));
#29=APPLICATION_CONTEXT('automotive design');
#30=APPLICATION_PROTOCOL_DEFINITION('INTERNATIONAL_STANDARD','automotive_design',1998,#29);
#31=PRODUCT_CONTEXT('3D Mechanical Parts',#29,'mechanical');
#32=PRODUCT('Product','Product','',(#31));
#33=PRODUCT_RELATED_PRODUCT_CATEGORY('part',$,(#32));
#34=PRODUCT_CATEGORY('part',$);
#35=PERSON('1','Design','Joe',$,$,$);
#36=ORGANIZATION($,'None','None');
#37=PERSON_AND_ORGANIZATION(#35,#36);
#38=PERSON_AND_ORGANIZATION_ROLE('design_owner');
#39=APPLIED_PERSON_AND_ORGANIZATION_ASSIGNMENT(#37,#38,(#32));
#40=PRODUCT_DEFINITION_FORMATION_WITH_SPECIFIED_SOURCE('None','',#32,.BOUGHT.);
#41=PERSON('2','Creator','Joe',$,$,$);
#42=ORGANIZATION($,'None','None');
#43=PERSON_AND_ORGANIZATION(#41,#42);
#44=PERSON_AND_ORGANIZATION_ROLE('creator');
#45=APPLIED_PERSON_AND_ORGANIZATION_ASSIGNMENT(#43,#44,(#40));
#46=PERSON('3','Supplier','Joe',$,$,$);
#47=ORGANIZATION($,'None','None');
#48=PERSON_AND_ORGANIZATION(#46,#47);
#49=PERSON_AND_ORGANIZATION_ROLE('design_supplier');
#50=APPLIED_PERSON_AND_ORGANIZATION_ASSIGNMENT(#48,#49,(#40));
#51=PRODUCT_DEFINITION_CONTEXT('part definition',#29,'design');
#52=PRODUCT_DEFINITION('None','',#40,#51);
#53=PERSON('4','Creator','Joe',$,$,$);
#54=ORGANIZATION($,'None','None');
#55=PERSON_AND_ORGANIZATION(#53,#54);
#56=PERSON_AND_ORGANIZATION_ROLE('creator');
#57=APPLIED_PERSON_AND_ORGANIZATION_ASSIGNMENT(#55,#56,(#52));
#58=CARTESIAN_POINT('NONE',(0.0,0.0,0.0));
#59=DIRECTION('NONE',(0.0,0.0,1.0));
#60=DIRECTION('NONE',(1.0,0.0,0.0));
#61=AXIS2_PLACEMENT_3D('NONE',#58,#59,#60);
#62=SHAPE_REPRESENTATION('SR1',(#61),#28);
#63=PRODUCT_DEFINITION_SHAPE('PDS1','Test Part',#52);
#64=SHAPE_DEFINITION_REPRESENTATION(#63,#62);
#65=CARTESIAN_POINT('',(0.3,-0.299999999999997,13.199999999999996));
#66=DIRECTION('',(1.0,0.0,0.0));
#67=DIRECTION('',(0.0,0.0,-1.0));
#68=AXIS2_PLACEMENT_3D('',#65,#66,#67);
#69=PLANE('',#68);
#70=CARTESIAN_POINT('',(0.299999999999998,0.299999999999997,-2.700000000000001));
#71=VERTEX_POINT('',#70);
#72=CARTESIAN_POINT('',(0.299999999999998,-0.300000000000004,-2.700000000000001));
#73=VERTEX_POINT('',#72);
#74=CARTESIAN_POINT('',(0.299999999999998,0.299999999999997,-2.700000000000001));
#75=DIRECTION('',(0.0,-1.0,0.0));
#76=VECTOR('',#75,0.600000000000001);
#77=LINE('',#74,#76);
#78=EDGE_CURVE('',#71,#73,#77,.T.);
#79=ORIENTED_EDGE('',*,*,#78,.F.);
#80=CARTESIAN_POINT('',(0.3,0.300000000000001,0.3));
#81=VERTEX_POINT('',#80);
#82=CARTESIAN_POINT('',(0.299999999999998,0.299999999999999,0.300000000000001));
#83=DIRECTION('',(0.0,0.0,-1.0));
#84=VECTOR('',#83,3.000000000000002);
#85=LINE('',#82,#84);
#86=EDGE_CURVE('',#81,#71,#85,.T.);
#87=ORIENTED_EDGE('',*,*,#86,.F.);
#88=CARTESIAN_POINT('',(0.3,-0.300000000000001,0.3));
#89=VERTEX_POINT('',#88);
#90=CARTESIAN_POINT('',(0.3,-0.300000000000001,0.3));
#91=DIRECTION('',(0.0,1.0,0.0));
#92=VECTOR('',#91,0.600000000000001);
#93=LINE('',#90,#92);
#94=EDGE_CURVE('',#89,#81,#93,.T.);
#95=ORIENTED_EDGE('',*,*,#94,.F.);
#96=CARTESIAN_POINT('',(0.299999999999998,-0.300000000000003,0.300000000000001));
#97=DIRECTION('',(0.0,0.0,-1.0));
#98=VECTOR('',#97,3.000000000000002);
#99=LINE('',#96,#98);
#100=EDGE_CURVE('',#89,#73,#99,.T.);
#101=ORIENTED_EDGE('',*,*,#100,.T.);
#102=EDGE_LOOP('',(#79,#87,#95,#101));
#103=FACE_OUTER_BOUND('',#102,.T.);
#104=ADVANCED_FACE('',(#103),#69,.T.);
#105=CARTESIAN_POINT('',(-0.3,-0.299999999999997,13.199999999999996));
#106=DIRECTION('',(0.0,-1.0,0.0));
#107=DIRECTION('',(0.0,0.0,1.0));
#108=AXIS2_PLACEMENT_3D('',#105,#106,#107);
#109=PLANE('',#108);
#110=CARTESIAN_POINT('',(-0.300000000000002,-0.300000000000004,-2.700000000000001));
#111=VERTEX_POINT('',#110);
#112=CARTESIAN_POINT('',(0.299999999999998,-0.300000000000004,-2.700000000000001));
#113=DIRECTION('',(-1.0,0.0,0.0));
#114=VECTOR('',#113,0.6);
#115=LINE('',#112,#114);
#116=EDGE_CURVE('',#73,#111,#115,.T.);
#117=ORIENTED_EDGE('',*,*,#116,.F.);
#118=ORIENTED_EDGE('',*,*,#100,.F.);
#119=CARTESIAN_POINT('',(-0.3,-0.300000000000001,0.3));
#120=VERTEX_POINT('',#119);
#121=CARTESIAN_POINT('',(-0.3,-0.300000000000001,0.3));
#122=DIRECTION('',(1.0,0.0,0.0));
#123=VECTOR('',#122,0.6);
#124=LINE('',#121,#123);
#125=EDGE_CURVE('',#120,#89,#124,.T.);
#126=ORIENTED_EDGE('',*,*,#125,.F.);
#127=CARTESIAN_POINT('',(-0.300000000000002,-0.300000000000003,0.300000000000001));
#128=DIRECTION('',(0.0,0.0,-1.0));
#129=VECTOR('',#128,3.000000000000002);
#130=LINE('',#127,#129);
#131=EDGE_CURVE('',#120,#111,#130,.T.);
#132=ORIENTED_EDGE('',*,*,#131,.T.);
#133=EDGE_LOOP('',(#117,#118,#126,#132));
#134=FACE_OUTER_BOUND('',#133,.T.);
#135=ADVANCED_FACE('',(#134),#109,.T.);
#136=CARTESIAN_POINT('',(-0.3,0.300000000000004,13.199999999999996));
#137=DIRECTION('',(-1.0,0.0,0.0));
#138=DIRECTION('',(0.0,0.0,1.0));
#139=AXIS2_PLACEMENT_3D('',#136,#137,#138);
#140=PLANE('',#139);
#141=CARTESIAN_POINT('',(-0.300000000000002,0.299999999999997,-2.700000000000001));
#142=VERTEX_POINT('',#141);
#143=CARTESIAN_POINT('',(-0.300000000000002,-0.300000000000004,-2.700000000000001));
#144=DIRECTION('',(0.0,1.0,0.0));
#145=VECTOR('',#144,0.600000000000001);
#146=LINE('',#143,#145);
#147=EDGE_CURVE('',#111,#142,#146,.T.);
#148=ORIENTED_EDGE('',*,*,#147,.F.);
#149=ORIENTED_EDGE('',*,*,#131,.F.);
#150=CARTESIAN_POINT('',(-0.3,0.300000000000001,0.3));
#151=VERTEX_POINT('',#150);
#152=CARTESIAN_POINT('',(-0.3,0.300000000000001,0.3));
#153=DIRECTION('',(0.0,-1.0,0.0));
#154=VECTOR('',#153,0.600000000000001);
#155=LINE('',#152,#154);
#156=EDGE_CURVE('',#151,#120,#155,.T.);
#157=ORIENTED_EDGE('',*,*,#156,.F.);
#158=CARTESIAN_POINT('',(-0.300000000000002,0.299999999999999,0.300000000000001));
#159=DIRECTION('',(0.0,0.0,-1.0));
#160=VECTOR('',#159,3.000000000000002);
#161=LINE('',#158,#160);
#162=EDGE_CURVE('',#151,#142,#161,.T.);
#163=ORIENTED_EDGE('',*,*,#162,.T.);
#164=EDGE_LOOP('',(#148,#149,#157,#163));
#165=FACE_OUTER_BOUND('',#164,.T.);
#166=ADVANCED_FACE('',(#165),#140,.T.);
#167=CARTESIAN_POINT('',(0.3,0.300000000000004,13.199999999999996));
#168=DIRECTION('',(0.0,1.0,0.0));
#169=DIRECTION('',(0.0,0.0,-1.0));
#170=AXIS2_PLACEMENT_3D('',#167,#168,#169);
#171=PLANE('',#170);
#172=CARTESIAN_POINT('',(-0.300000000000002,0.299999999999997,-2.700000000000001));
#173=DIRECTION('',(1.0,0.0,0.0));
#174=VECTOR('',#173,0.6);
#175=LINE('',#172,#174);
#176=EDGE_CURVE('',#142,#71,#175,.T.);
#177=ORIENTED_EDGE('',*,*,#176,.F.);
#178=ORIENTED_EDGE('',*,*,#162,.F.);
#179=CARTESIAN_POINT('',(0.3,0.300000000000001,0.3));
#180=DIRECTION('',(-1.0,0.0,0.0));
#181=VECTOR('',#180,0.6);
#182=LINE('',#179,#181);
#183=EDGE_CURVE('',#81,#151,#182,.T.);
#184=ORIENTED_EDGE('',*,*,#183,.F.);
#185=ORIENTED_EDGE('',*,*,#86,.T.);
#186=EDGE_LOOP('',(#177,#178,#184,#185));
#187=FACE_OUTER_BOUND('',#186,.T.);
#188=ADVANCED_FACE('',(#187),#171,.T.);
#189=CARTESIAN_POINT('',(0.174999999999998,-0.150000000000004,-3.000000000000002));
#190=DIRECTION('',(0.923076923076923,-1.708035E-016,-0.384615384615384));
#191=DIRECTION('',(-0.384615384615384,-4.099285E-016,-0.923076923076923));
#192=AXIS2_PLACEMENT_3D('',#189,#190,#191);
#193=PLANE('',#192);
#194=CARTESIAN_POINT('',(0.049999999999998,0.049999999999995,-3.300000000000003));
#195=VERTEX_POINT('',#194);
#196=CARTESIAN_POINT('',(0.049999999999998,0.049999999999997,-3.300000000000003));
#197=DIRECTION('',(0.358979079308869,0.358979079308869,0.861549790341286));
#198=VECTOR('',#197,0.696419413859208);
#199=LINE('',#196,#198);
#200=EDGE_CURVE('',#195,#71,#199,.T.);
#201=ORIENTED_EDGE('',*,*,#200,.T.);
#202=ORIENTED_EDGE('',*,*,#78,.T.);
#203=CARTESIAN_POINT('',(0.049999999999998,-0.050000000000006,-3.300000000000003));
#204=VERTEX_POINT('',#203);
#205=CARTESIAN_POINT('',(0.299999999999998,-0.300000000000004,-2.700000000000001));
#206=DIRECTION('',(-0.358979079308869,0.358979079308868,-0.861549790341286));
#207=VECTOR('',#206,0.696419413859207);
#208=LINE('',#205,#207);
#209=EDGE_CURVE('',#73,#204,#208,.T.);
#210=ORIENTED_EDGE('',*,*,#209,.T.);
#211=CARTESIAN_POINT('',(0.049999999999998,-0.050000000000006,-3.300000000000003));
#212=DIRECTION('',(0.0,1.0,0.0));
#213=VECTOR('',#212,0.1);
#214=LINE('',#211,#213);
#215=EDGE_CURVE('',#204,#195,#214,.T.);
#216=ORIENTED_EDGE('',*,*,#215,.T.);
#217=EDGE_LOOP('',(#201,#202,#210,#216));
#218=FACE_OUTER_BOUND('',#217,.T.);
#219=ADVANCED_FACE('',(#218),#193,.T.);
#220=CARTESIAN_POINT('',(0.149999999999998,0.174999999999997,-3.000000000000002));
#221=DIRECTION('',(-4.710024E-017,0.923076923076923,-0.384615384615384));
#222=DIRECTION('',(-1.130406E-016,-0.384615384615384,-0.923076923076923));
#223=AXIS2_PLACEMENT_3D('',#220,#221,#222);
#224=PLANE('',#223);
#225=ORIENTED_EDGE('',*,*,#200,.F.);
#226=CARTESIAN_POINT('',(-0.050000000000002,0.049999999999995,-3.300000000000003));
#227=VERTEX_POINT('',#226);
#228=CARTESIAN_POINT('',(0.049999999999998,0.049999999999995,-3.300000000000003));
#229=DIRECTION('',(-1.0,0.0,0.0));
#230=VECTOR('',#229,0.1);
#231=LINE('',#228,#230);
#232=EDGE_CURVE('',#195,#227,#231,.T.);
#233=ORIENTED_EDGE('',*,*,#232,.T.);
#234=CARTESIAN_POINT('',(-0.300000000000002,0.299999999999997,-2.700000000000001));
#235=DIRECTION('',(0.358979079308868,-0.358979079308869,-0.861549790341286));
#236=VECTOR('',#235,0.696419413859208);
#237=LINE('',#234,#236);
#238=EDGE_CURVE('',#142,#227,#237,.T.);
#239=ORIENTED_EDGE('',*,*,#238,.F.);
#240=ORIENTED_EDGE('',*,*,#176,.T.);
#241=EDGE_LOOP('',(#225,#233,#239,#240));
#242=FACE_OUTER_BOUND('',#241,.T.);
#243=ADVANCED_FACE('',(#242),#224,.T.);
#244=CARTESIAN_POINT('',(-1.998401E-015,-5.218048E-015,-3.300000000000003));
#245=DIRECTION('',(0.0,0.0,-1.0));
#246=DIRECTION('',(-1.0,0.0,0.0));
#247=AXIS2_PLACEMENT_3D('',#244,#245,#246);
#248=PLANE('',#247);
#249=ORIENTED_EDGE('',*,*,#215,.F.);
#250=CARTESIAN_POINT('',(-0.050000000000002,-0.050000000000006,-3.300000000000003));
#251=VERTEX_POINT('',#250);
#252=CARTESIAN_POINT('',(-0.050000000000002,-0.050000000000006,-3.300000000000003));
#253=DIRECTION('',(1.0,0.0,0.0));
#254=VECTOR('',#253,0.1);
#255=LINE('',#252,#254);
#256=EDGE_CURVE('',#251,#204,#255,.T.);
#257=ORIENTED_EDGE('',*,*,#256,.F.);
#258=CARTESIAN_POINT('',(-0.050000000000002,0.049999999999995,-3.300000000000003));
#259=DIRECTION('',(0.0,-1.0,0.0));
#260=VECTOR('',#259,0.1);
#261=LINE('',#258,#260);
#262=EDGE_CURVE('',#227,#251,#261,.T.);
#263=ORIENTED_EDGE('',*,*,#262,.F.);
#264=ORIENTED_EDGE('',*,*,#232,.F.);
#265=EDGE_LOOP('',(#249,#257,#263,#264));
#266=FACE_OUTER_BOUND('',#265,.T.);
#267=ADVANCED_FACE('',(#266),#248,.T.);
#268=CARTESIAN_POINT('',(-0.175000000000002,0.149999999999997,-3.000000000000002));
#269=DIRECTION('',(-0.923076923076923,-1.708035E-016,-0.384615384615384));
#270=DIRECTION('',(-0.384615384615384,4.099285E-016,0.923076923076923));
#271=AXIS2_PLACEMENT_3D('',#268,#269,#270);
#272=PLANE('',#271);
#273=CARTESIAN_POINT('',(-0.050000000000003,-0.050000000000004,-3.300000000000002));
#274=DIRECTION('',(-0.358979079308868,-0.358979079308868,0.861549790341287));
#275=VECTOR('',#274,0.696419413859206);
#276=LINE('',#273,#275);
#277=EDGE_CURVE('',#251,#111,#276,.T.);
#278=ORIENTED_EDGE('',*,*,#277,.T.);
#279=ORIENTED_EDGE('',*,*,#147,.T.);
#280=ORIENTED_EDGE('',*,*,#238,.T.);
#281=ORIENTED_EDGE('',*,*,#262,.T.);
#282=EDGE_LOOP('',(#278,#279,#280,#281));
#283=FACE_OUTER_BOUND('',#282,.T.);
#284=ADVANCED_FACE('',(#283),#272,.T.);
#285=CARTESIAN_POINT('',(-0.150000000000002,-0.175000000000004,-3.000000000000002));
#286=DIRECTION('',(-4.710024E-017,-0.923076923076924,-0.384615384615383));
#287=DIRECTION('',(1.130406E-016,-0.384615384615383,0.923076923076924));
#288=AXIS2_PLACEMENT_3D('',#285,#286,#287);
#289=PLANE('',#288);
#290=ORIENTED_EDGE('',*,*,#209,.F.);
#291=ORIENTED_EDGE('',*,*,#116,.T.);
#292=ORIENTED_EDGE('',*,*,#277,.F.);
#293=ORIENTED_EDGE('',*,*,#256,.T.);
#294=EDGE_LOOP('',(#290,#291,#292,#293));
#295=FACE_OUTER_BOUND('',#294,.T.);
#296=ADVANCED_FACE('',(#295),#289,.T.);
#297=CARTESIAN_POINT('',(0.0,6.661338E-017,0.300000000000002));
#298=DIRECTION('',(0.0,0.0,-1.0));
#299=DIRECTION('',(-1.0,0.0,0.0));
#300=AXIS2_PLACEMENT_3D('',#297,#298,#299);
#301=PLANE('',#300);
#302=ORIENTED_EDGE('',*,*,#183,.T.);
#303=ORIENTED_EDGE('',*,*,#156,.T.);
#304=ORIENTED_EDGE('',*,*,#125,.T.);
#305=ORIENTED_EDGE('',*,*,#94,.T.);
#306=EDGE_LOOP('',(#302,#303,#304,#305));
#307=FACE_OUTER_BOUND('',#306,.T.);
#308=ADVANCED_FACE('',(#307),#301,.F.);
#309=CLOSED_SHELL('',(#104,#135,#166,#188,#219,#243,#267,#284,#296,#308));
#310=MANIFOLD_SOLID_BREP('37D',#309);
#311=COLOUR_RGB('254',0.866,0.866,0.866);
#312=SURFACE_STYLE_USAGE(.BOTH.,#313);
#313=SURFACE_SIDE_STYLE('NONE',(#314));
#314=SURFACE_STYLE_FILL_AREA(#315);
#315=FILL_AREA_STYLE('NONE',(#316));
#316=FILL_AREA_STYLE_COLOUR('NONE',#311);
#317=PRESENTATION_STYLE_ASSIGNMENT((#312));
#318=STYLED_ITEM('NONE',(#317),#310);
#319=MECHANICAL_DESIGN_GEOMETRIC_PRESENTATION_REPRESENTATION('NONE',(#318,#567,#953),#28);
#320=PRESENTATION_LAYER_ASSIGNMENT('3D','None',(#310,#566,#945));
#321=CARTESIAN_POINT('',(-0.3,-0.300000000000002,-7.3));
#322=DIRECTION('',(-1.0,0.0,0.0));
#323=DIRECTION('',(0.0,0.0,1.0));
#324=AXIS2_PLACEMENT_3D('',#321,#322,#323);
#325=PLANE('',#324);
#326=CARTESIAN_POINT('',(-0.3,0.299999999999998,8.599999999999998));
#327=VERTEX_POINT('',#326);
#328=CARTESIAN_POINT('',(-0.3,-0.300000000000002,8.599999999999998));
#329=VERTEX_POINT('',#328);
#330=CARTESIAN_POINT('',(-0.3,0.299999999999998,8.599999999999998));
#331=DIRECTION('',(0.0,-1.0,0.0));
#332=VECTOR('',#331,0.6);
#333=LINE('',#330,#332);
#334=EDGE_CURVE('',#327,#329,#333,.T.);
#335=ORIENTED_EDGE('',*,*,#334,.F.);
#336=CARTESIAN_POINT('',(-0.3,0.3,1.699999999999999));
#337=VERTEX_POINT('',#336);
#338=CARTESIAN_POINT('',(-0.3,0.299999999999998,1.7));
#339=DIRECTION('',(0.0,0.0,1.0));
#340=VECTOR('',#339,6.899999999999998);
#341=LINE('',#338,#340);
#342=EDGE_CURVE('',#337,#327,#341,.T.);
#343=ORIENTED_EDGE('',*,*,#342,.F.);
#344=CARTESIAN_POINT('',(-0.3,-0.3,1.699999999999999));
#345=VERTEX_POINT('',#344);
#346=CARTESIAN_POINT('',(-0.3,-0.3,1.699999999999999));
#347=DIRECTION('',(0.0,1.0,0.0));
#348=VECTOR('',#347,0.6);
#349=LINE('',#346,#348);
#350=EDGE_CURVE('',#345,#337,#349,.T.);
#351=ORIENTED_EDGE('',*,*,#350,.F.);
#352=CARTESIAN_POINT('',(-0.3,-0.300000000000002,1.7));
#353=DIRECTION('',(0.0,0.0,1.0));
#354=VECTOR('',#353,6.899999999999998);
#355=LINE('',#352,#354);
#356=EDGE_CURVE('',#345,#329,#355,.T.);
#357=ORIENTED_EDGE('',*,*,#356,.T.);
#358=EDGE_LOOP('',(#335,#343,#351,#357));
#359=FACE_OUTER_BOUND('',#358,.T.);
#360=ADVANCED_FACE('',(#359),#325,.T.);
#361=CARTESIAN_POINT('',(0.3,-0.300000000000002,-7.3));
#362=DIRECTION('',(0.0,-1.0,0.0));
#363=DIRECTION('',(0.0,0.0,-1.0));
#364=AXIS2_PLACEMENT_3D('',#361,#362,#363);
#365=PLANE('',#364);
#366=CARTESIAN_POINT('',(0.3,-0.300000000000002,8.599999999999998));
#367=VERTEX_POINT('',#366);
#368=CARTESIAN_POINT('',(-0.3,-0.300000000000002,8.599999999999998));
#369=DIRECTION('',(1.0,0.0,0.0));
#370=VECTOR('',#369,0.6);
#371=LINE('',#368,#370);
#372=EDGE_CURVE('',#329,#367,#371,.T.);
#373=ORIENTED_EDGE('',*,*,#372,.F.);
#374=ORIENTED_EDGE('',*,*,#356,.F.);
#375=CARTESIAN_POINT('',(0.3,-0.3,1.699999999999999));
#376=VERTEX_POINT('',#375);
#377=CARTESIAN_POINT('',(0.3,-0.3,1.699999999999999));
#378=DIRECTION('',(-1.0,0.0,0.0));
#379=VECTOR('',#378,0.6);
#380=LINE('',#377,#379);
#381=EDGE_CURVE('',#376,#345,#380,.T.);
#382=ORIENTED_EDGE('',*,*,#381,.F.);
#383=CARTESIAN_POINT('',(0.3,-0.300000000000002,1.7));
#384=DIRECTION('',(0.0,0.0,1.0));
#385=VECTOR('',#384,6.899999999999998);
#386=LINE('',#383,#385);
#387=EDGE_CURVE('',#376,#367,#386,.T.);
#388=ORIENTED_EDGE('',*,*,#387,.T.);
#389=EDGE_LOOP('',(#373,#374,#382,#388));
#390=FACE_OUTER_BOUND('',#389,.T.);
#391=ADVANCED_FACE('',(#390),#365,.T.);
#392=CARTESIAN_POINT('',(0.3,0.299999999999998,-7.3));
#393=DIRECTION('',(1.0,0.0,0.0));
#394=DIRECTION('',(0.0,0.0,-1.0));
#395=AXIS2_PLACEMENT_3D('',#392,#393,#394);
#396=PLANE('',#395);
#397=CARTESIAN_POINT('',(0.3,0.299999999999998,8.599999999999998));
#398=VERTEX_POINT('',#397);
#399=CARTESIAN_POINT('',(0.3,-0.300000000000002,8.599999999999998));
#400=DIRECTION('',(0.0,1.0,0.0));
#401=VECTOR('',#400,0.6);
#402=LINE('',#399,#401);
#403=EDGE_CURVE('',#367,#398,#402,.T.);
#404=ORIENTED_EDGE('',*,*,#403,.F.);
#405=ORIENTED_EDGE('',*,*,#387,.F.);
#406=CARTESIAN_POINT('',(0.3,0.3,1.699999999999999));
#407=VERTEX_POINT('',#406);
#408=CARTESIAN_POINT('',(0.3,0.3,1.699999999999999));
#409=DIRECTION('',(0.0,-1.0,0.0));
#410=VECTOR('',#409,0.6);
#411=LINE('',#408,#410);
#412=EDGE_CURVE('',#407,#376,#411,.T.);
#413=ORIENTED_EDGE('',*,*,#412,.F.);
#414=CARTESIAN_POINT('',(0.3,0.299999999999998,1.7));
#415=DIRECTION('',(0.0,0.0,1.0));
#416=VECTOR('',#415,6.899999999999998);
#417=LINE('',#414,#416);
#418=EDGE_CURVE('',#407,#398,#417,.T.);
#419=ORIENTED_EDGE('',*,*,#418,.T.);
#420=EDGE_LOOP('',(#404,#405,#413,#419));
#421=FACE_OUTER_BOUND('',#420,.T.);
#422=ADVANCED_FACE('',(#421),#396,.T.);
#423=CARTESIAN_POINT('',(-0.3,0.299999999999998,-7.3));
#424=DIRECTION('',(0.0,1.0,0.0));
#425=DIRECTION('',(0.0,0.0,1.0));
#426=AXIS2_PLACEMENT_3D('',#423,#424,#425);
#427=PLANE('',#426);
#428=CARTESIAN_POINT('',(0.3,0.299999999999998,8.599999999999998));
#429=DIRECTION('',(-1.0,0.0,0.0));
#430=VECTOR('',#429,0.6);
#431=LINE('',#428,#430);
#432=EDGE_CURVE('',#398,#327,#431,.T.);
#433=ORIENTED_EDGE('',*,*,#432,.F.);
#434=ORIENTED_EDGE('',*,*,#418,.F.);
#435=CARTESIAN_POINT('',(-0.3,0.3,1.699999999999999));
#436=DIRECTION('',(1.0,0.0,0.0));
#437=VECTOR('',#436,0.6);
#438=LINE('',#435,#437);
#439=EDGE_CURVE('',#337,#407,#438,.T.);
#440=ORIENTED_EDGE('',*,*,#439,.F.);
#441=ORIENTED_EDGE('',*,*,#342,.T.);
#442=EDGE_LOOP('',(#433,#434,#440,#441));
#443=FACE_OUTER_BOUND('',#442,.T.);
#444=ADVANCED_FACE('',(#443),#427,.T.);
#445=CARTESIAN_POINT('',(-0.175,-0.150000000000002,8.899999999999999));
#446=DIRECTION('',(-0.923076923076923,3.144777E-032,0.384615384615384));
#447=DIRECTION('',(0.384615384615384,0.0,0.923076923076923));
#448=AXIS2_PLACEMENT_3D('',#445,#446,#447);
#449=PLANE('',#448);
#450=CARTESIAN_POINT('',(-0.05,0.049999999999998,9.199999999999999));
#451=VERTEX_POINT('',#450);
#452=CARTESIAN_POINT('',(-0.05,0.049999999999998,9.199999999999999));
#453=DIRECTION('',(-0.358979079308868,0.358979079308868,-0.861549790341286));
#454=VECTOR('',#453,0.696419413859207);
#455=LINE('',#452,#454);
#456=EDGE_CURVE('',#451,#327,#455,.T.);
#457=ORIENTED_EDGE('',*,*,#456,.T.);
#458=ORIENTED_EDGE('',*,*,#334,.T.);
#459=CARTESIAN_POINT('',(-0.05,-0.050000000000002,9.199999999999999));
#460=VERTEX_POINT('',#459);
#461=CARTESIAN_POINT('',(-0.3,-0.300000000000003,8.599999999999998));
#462=DIRECTION('',(0.358979079308868,0.358979079308868,0.861549790341286));
#463=VECTOR('',#462,0.696419413859207);
#464=LINE('',#461,#463);
#465=EDGE_CURVE('',#329,#460,#464,.T.);
#466=ORIENTED_EDGE('',*,*,#465,.T.);
#467=CARTESIAN_POINT('',(-0.05,-0.050000000000002,9.199999999999999));
#468=DIRECTION('',(0.0,1.0,0.0));
#469=VECTOR('',#468,0.1);
#470=LINE('',#467,#469);
#471=EDGE_CURVE('',#460,#451,#470,.T.);
#472=ORIENTED_EDGE('',*,*,#471,.T.);
#473=EDGE_LOOP('',(#457,#458,#466,#472));
#474=FACE_OUTER_BOUND('',#473,.T.);
#475=ADVANCED_FACE('',(#474),#449,.T.);
#476=CARTESIAN_POINT('',(-0.15,0.174999999999998,8.899999999999999));
#477=DIRECTION('',(4.717165E-032,0.923076923076923,0.384615384615384));
#478=DIRECTION('',(0.0,-0.384615384615384,0.923076923076923));
#479=AXIS2_PLACEMENT_3D('',#476,#477,#478);
#480=PLANE('',#479);
#481=ORIENTED_EDGE('',*,*,#456,.F.);
#482=CARTESIAN_POINT('',(0.05,0.049999999999998,9.199999999999999));
#483=VERTEX_POINT('',#482);
#484=CARTESIAN_POINT('',(-0.05,0.049999999999998,9.199999999999999));
#485=DIRECTION('',(1.0,0.0,0.0));
#486=VECTOR('',#485,0.1);
#487=LINE('',#484,#486);
#488=EDGE_CURVE('',#451,#483,#487,.T.);
#489=ORIENTED_EDGE('',*,*,#488,.T.);
#490=CARTESIAN_POINT('',(0.3,0.299999999999999,8.599999999999998));
#491=DIRECTION('',(-0.358979079308868,-0.358979079308868,0.861549790341286));
#492=VECTOR('',#491,0.696419413859207);
#493=LINE('',#490,#492);
#494=EDGE_CURVE('',#398,#483,#493,.T.);
#495=ORIENTED_EDGE('',*,*,#494,.F.);
#496=ORIENTED_EDGE('',*,*,#432,.T.);
#497=EDGE_LOOP('',(#481,#489,#495,#496));
#498=FACE_OUTER_BOUND('',#497,.T.);
#499=ADVANCED_FACE('',(#498),#480,.T.);
#500=CARTESIAN_POINT('',(-2.220446E-016,-1.993355E-015,9.199999999999999));
#501=DIRECTION('',(0.0,0.0,1.0));
#502=DIRECTION('',(1.0,0.0,0.0));
#503=AXIS2_PLACEMENT_3D('',#500,#501,#502);
#504=PLANE('',#503);
#505=ORIENTED_EDGE('',*,*,#471,.F.);
#506=CARTESIAN_POINT('',(0.05,-0.050000000000002,9.199999999999999));
#507=VERTEX_POINT('',#506);
#508=CARTESIAN_POINT('',(0.05,-0.050000000000002,9.199999999999999));
#509=DIRECTION('',(-1.0,0.0,0.0));
#510=VECTOR('',#509,0.1);
#511=LINE('',#508,#510);
#512=EDGE_CURVE('',#507,#460,#511,.T.);
#513=ORIENTED_EDGE('',*,*,#512,.F.);
#514=CARTESIAN_POINT('',(0.05,0.049999999999998,9.199999999999999));
#515=DIRECTION('',(0.0,-1.0,0.0));
#516=VECTOR('',#515,0.1);
#517=LINE('',#514,#516);
#518=EDGE_CURVE('',#483,#507,#517,.T.);
#519=ORIENTED_EDGE('',*,*,#518,.F.);
#520=ORIENTED_EDGE('',*,*,#488,.F.);
#521=EDGE_LOOP('',(#505,#513,#519,#520));
#522=FACE_OUTER_BOUND('',#521,.T.);
#523=ADVANCED_FACE('',(#522),#504,.T.);
#524=CARTESIAN_POINT('',(0.175,0.149999999999998,8.899999999999999));
#525=DIRECTION('',(0.923076923076923,3.144777E-032,0.384615384615384));
#526=DIRECTION('',(0.384615384615384,0.0,-0.923076923076923));
#527=AXIS2_PLACEMENT_3D('',#524,#525,#526);
#528=PLANE('',#527);
#529=CARTESIAN_POINT('',(0.05,-0.050000000000002,9.199999999999999));
#530=DIRECTION('',(0.358979079308868,-0.358979079308868,-0.861549790341286));
#531=VECTOR('',#530,0.696419413859207);
#532=LINE('',#529,#531);
#533=EDGE_CURVE('',#507,#367,#532,.T.);
#534=ORIENTED_EDGE('',*,*,#533,.T.);
#535=ORIENTED_EDGE('',*,*,#403,.T.);
#536=ORIENTED_EDGE('',*,*,#494,.T.);
#537=ORIENTED_EDGE('',*,*,#518,.T.);
#538=EDGE_LOOP('',(#534,#535,#536,#537));
#539=FACE_OUTER_BOUND('',#538,.T.);
#540=ADVANCED_FACE('',(#539),#528,.T.);
#541=CARTESIAN_POINT('',(0.15,-0.175000000000002,8.899999999999999));
#542=DIRECTION('',(4.717165E-032,-0.923076923076923,0.384615384615384));
#543=DIRECTION('',(0.0,-0.384615384615384,-0.923076923076923));
#544=AXIS2_PLACEMENT_3D('',#541,#542,#543);
#545=PLANE('',#544);
#546=ORIENTED_EDGE('',*,*,#465,.F.);
#547=ORIENTED_EDGE('',*,*,#372,.T.);
#548=ORIENTED_EDGE('',*,*,#533,.F.);
#549=ORIENTED_EDGE('',*,*,#512,.T.);
#550=EDGE_LOOP('',(#546,#547,#548,#549));
#551=FACE_OUTER_BOUND('',#550,.T.);
#552=ADVANCED_FACE('',(#551),#545,.T.);
#553=CARTESIAN_POINT('',(-2.220446E-016,5.046468E-018,1.699999999999999));
#554=DIRECTION('',(0.0,0.0,1.0));
#555=DIRECTION('',(1.0,0.0,0.0));
#556=AXIS2_PLACEMENT_3D('',#553,#554,#555);
#557=PLANE('',#556);
#558=ORIENTED_EDGE('',*,*,#439,.T.);
#559=ORIENTED_EDGE('',*,*,#412,.T.);
#560=ORIENTED_EDGE('',*,*,#381,.T.);
#561=ORIENTED_EDGE('',*,*,#350,.T.);
#562=EDGE_LOOP('',(#558,#559,#560,#561));
#563=FACE_OUTER_BOUND('',#562,.T.);
#564=ADVANCED_FACE('',(#563),#557,.F.);
#565=CLOSED_SHELL('',(#360,#391,#422,#444,#475,#499,#523,#540,#552,#564));
#566=MANIFOLD_SOLID_BREP('372',#565);
#567=STYLED_ITEM('NONE',(#317),#566);
#568=CARTESIAN_POINT('',(1.069999999999999,-1.225,0.0));
#569=DIRECTION('',(0.866025403784439,1.124258E-030,0.5));
#570=DIRECTION('',(0.5,0.0,-0.866025403784439));
#571=AXIS2_PLACEMENT_3D('',#568,#569,#570);
#572=PLANE('',#571);
#573=CARTESIAN_POINT('',(1.07,1.224999999999999,0.0));
#574=VERTEX_POINT('',#573);
#575=CARTESIAN_POINT('',(0.896794919243112,1.225000000000001,0.3));
#576=VERTEX_POINT('',#575);
#577=CARTESIAN_POINT('',(1.07,1.224999999999999,-3.885781E-016));
#578=DIRECTION('',(-0.5,0.0,0.866025403784439));
#579=VECTOR('',#578,0.346410161513776);
#580=LINE('',#577,#579);
#581=EDGE_CURVE('',#574,#576,#580,.T.);
#582=ORIENTED_EDGE('',*,*,#581,.F.);
#583=CARTESIAN_POINT('',(1.069999999999999,-1.225,0.0));
#584=VERTEX_POINT('',#583);
#585=CARTESIAN_POINT('',(1.069999999999999,-1.225,2.775558E-017));
#586=DIRECTION('',(0.0,1.0,0.0));
#587=VECTOR('',#586,2.449999999999999);
#588=LINE('',#585,#587);
#589=EDGE_CURVE('',#584,#574,#588,.T.);
#590=ORIENTED_EDGE('',*,*,#589,.F.);
#591=CARTESIAN_POINT('',(0.896794919243112,-1.225,0.3));
#592=VERTEX_POINT('',#591);
#593=CARTESIAN_POINT('',(0.896794919243112,-1.225,0.3));
#594=DIRECTION('',(0.5,0.0,-0.866025403784439));
#595=VECTOR('',#594,0.346410161513775);
#596=LINE('',#593,#595);
#597=EDGE_CURVE('',#592,#584,#596,.T.);
#598=ORIENTED_EDGE('',*,*,#597,.F.);
#599=CARTESIAN_POINT('',(0.896794919243112,-1.225,0.3));
#600=DIRECTION('',(0.0,1.0,0.0));
#601=VECTOR('',#600,2.45);
#602=LINE('',#599,#601);
#603=EDGE_CURVE('',#592,#576,#602,.T.);
#604=ORIENTED_EDGE('',*,*,#603,.T.);
#605=EDGE_LOOP('',(#582,#590,#598,#604));
#606=FACE_OUTER_BOUND('',#605,.T.);
#607=ADVANCED_FACE('',(#606),#572,.F.);
#608=CARTESIAN_POINT('',(0.896794919243112,-1.225,0.3));
#609=DIRECTION('',(0.0,0.0,1.0));
#610=DIRECTION('',(1.0,0.0,0.0));
#611=AXIS2_PLACEMENT_3D('',#608,#609,#610);
#612=PLANE('',#611);
#613=CARTESIAN_POINT('',(-0.896794919243112,1.225000000000001,0.3));
#614=VERTEX_POINT('',#613);
#615=CARTESIAN_POINT('',(0.896794919243112,1.224999999999999,0.3));
#616=DIRECTION('',(-1.0,0.0,0.0));
#617=VECTOR('',#616,1.793589838486224);
#618=LINE('',#615,#617);
#619=EDGE_CURVE('',#576,#614,#618,.T.);
#620=ORIENTED_EDGE('',*,*,#619,.F.);
#621=ORIENTED_EDGE('',*,*,#603,.F.);
#622=CARTESIAN_POINT('',(-0.896794919243112,-1.225,0.3));
#623=VERTEX_POINT('',#622);
#624=CARTESIAN_POINT('',(-0.896794919243112,-1.225000000000001,0.3));
#625=DIRECTION('',(1.0,0.0,0.0));
#626=VECTOR('',#625,1.793589838486224);
#627=LINE('',#624,#626);
#628=EDGE_CURVE('',#623,#592,#627,.T.);
#629=ORIENTED_EDGE('',*,*,#628,.F.);
#630=CARTESIAN_POINT('',(-0.896794919243112,-1.225,0.3));
#631=DIRECTION('',(0.0,1.0,0.0));
#632=VECTOR('',#631,2.45);
#633=LINE('',#630,#632);
#634=EDGE_CURVE('',#623,#614,#633,.T.);
#635=ORIENTED_EDGE('',*,*,#634,.T.);
#636=EDGE_LOOP('',(#620,#621,#629,#635));
#637=FACE_OUTER_BOUND('',#636,.T.);
#638=ADVANCED_FACE('',(#637),#612,.F.);
#639=CARTESIAN_POINT('',(-0.896794919243112,-1.225,0.3));
#640=DIRECTION('',(-0.866025403784438,1.124258E-030,0.500000000000001));
#641=DIRECTION('',(0.500000000000001,0.0,0.866025403784438));
#642=AXIS2_PLACEMENT_3D('',#639,#640,#641);
#643=PLANE('',#642);
#644=CARTESIAN_POINT('',(-1.07,1.224999999999999,0.0));
#645=VERTEX_POINT('',#644);
#646=CARTESIAN_POINT('',(-0.896794919243112,1.225,0.3));
#647=DIRECTION('',(-0.500000000000001,0.0,-0.866025403784438));
#648=VECTOR('',#647,0.346410161513776);
#649=LINE('',#646,#648);
#650=EDGE_CURVE('',#614,#645,#649,.T.);
#651=ORIENTED_EDGE('',*,*,#650,.F.);
#652=ORIENTED_EDGE('',*,*,#634,.F.);
#653=CARTESIAN_POINT('',(-1.07,-1.225000000000001,0.0));
#654=VERTEX_POINT('',#653);
#655=CARTESIAN_POINT('',(-1.07,-1.225000000000001,-1.110223E-016));
#656=DIRECTION('',(0.5,6.409876E-016,0.866025403784438));
#657=VECTOR('',#656,0.346410161513776);
#658=LINE('',#655,#657);
#659=EDGE_CURVE('',#654,#623,#658,.T.);
#660=ORIENTED_EDGE('',*,*,#659,.F.);
#661=CARTESIAN_POINT('',(-1.07,1.225,0.0));
#662=DIRECTION('',(0.0,-1.0,0.0));
#663=VECTOR('',#662,2.45);
#664=LINE('',#661,#663);
#665=EDGE_CURVE('',#645,#654,#664,.T.);
#666=ORIENTED_EDGE('',*,*,#665,.F.);
#667=EDGE_LOOP('',(#651,#652,#660,#666));
#668=FACE_OUTER_BOUND('',#667,.T.);
#669=ADVANCED_FACE('',(#668),#643,.F.);
#670=CARTESIAN_POINT('',(-6.560533E-017,-1.665335E-016,0.0));
#671=DIRECTION('',(0.0,0.0,1.0));
#672=DIRECTION('',(1.0,0.0,0.0));
#673=AXIS2_PLACEMENT_3D('',#670,#671,#672);
#674=PLANE('',#673);
#675=ORIENTED_EDGE('',*,*,#589,.T.);
#676=CARTESIAN_POINT('',(1.270000000000001,1.025,0.0));
#677=VERTEX_POINT('',#676);
#678=CARTESIAN_POINT('',(1.270000000000001,1.025,0.0));
#679=DIRECTION('',(-0.707106781186548,0.707106781186547,0.0));
#680=VECTOR('',#679,0.282842712474619);
#681=LINE('',#678,#680);
#682=EDGE_CURVE('',#677,#574,#681,.T.);
#683=ORIENTED_EDGE('',*,*,#682,.F.);
#684=CARTESIAN_POINT('',(1.270000000000001,-1.025,0.0));
#685=VERTEX_POINT('',#684);
#686=CARTESIAN_POINT('',(1.270000000000001,-1.025,0.0));
#687=DIRECTION('',(0.0,1.0,0.0));
#688=VECTOR('',#687,2.05);
#689=LINE('',#686,#688);
#690=EDGE_CURVE('',#685,#677,#689,.T.);
#691=ORIENTED_EDGE('',*,*,#690,.F.);
#692=CARTESIAN_POINT('',(1.069999999999999,-1.225,0.0));
#693=DIRECTION('',(0.707106781186551,0.707106781186544,0.0));
#694=VECTOR('',#693,0.282842712474619);
#695=LINE('',#692,#694);
#696=EDGE_CURVE('',#584,#685,#695,.T.);
#697=ORIENTED_EDGE('',*,*,#696,.F.);
#698=EDGE_LOOP('',(#675,#683,#691,#697));
#699=FACE_OUTER_BOUND('',#698,.T.);
#700=ADVANCED_FACE('',(#699),#674,.F.);
#701=CARTESIAN_POINT('',(-6.560533E-017,-1.665335E-016,0.0));
#702=DIRECTION('',(0.0,0.0,1.0));
#703=DIRECTION('',(1.0,0.0,0.0));
#704=AXIS2_PLACEMENT_3D('',#701,#702,#703);
#705=PLANE('',#704);
#706=ORIENTED_EDGE('',*,*,#665,.T.);
#707=CARTESIAN_POINT('',(-1.27,-1.025,0.0));
#708=VERTEX_POINT('',#707);
#709=CARTESIAN_POINT('',(-1.27,-1.025,0.0));
#710=DIRECTION('',(0.707106781186547,-0.707106781186548,0.0));
#711=VECTOR('',#710,0.282842712474619);
#712=LINE('',#709,#711);
#713=EDGE_CURVE('',#708,#654,#712,.T.);
#714=ORIENTED_EDGE('',*,*,#713,.F.);
#715=CARTESIAN_POINT('',(-1.270000000000001,1.025,0.0));
#716=VERTEX_POINT('',#715);
#717=CARTESIAN_POINT('',(-1.270000000000001,1.025,0.0));
#718=DIRECTION('',(0.0,-1.0,0.0));
#719=VECTOR('',#718,2.05);
#720=LINE('',#717,#719);
#721=EDGE_CURVE('',#716,#708,#720,.T.);
#722=ORIENTED_EDGE('',*,*,#721,.F.);
#723=CARTESIAN_POINT('',(-1.07,1.224999999999999,0.0));
#724=DIRECTION('',(-0.707106781186549,-0.707106781186546,0.0));
#725=VECTOR('',#724,0.282842712474619);
#726=LINE('',#723,#725);
#727=EDGE_CURVE('',#645,#716,#726,.T.);
#728=ORIENTED_EDGE('',*,*,#727,.F.);
#729=EDGE_LOOP('',(#706,#714,#722,#728));
#730=FACE_OUTER_BOUND('',#729,.T.);
#731=ADVANCED_FACE('',(#730),#705,.F.);
#732=CARTESIAN_POINT('',(1.069999999999999,-1.225,0.0));
#733=DIRECTION('',(0.0,-1.0,0.0));
#734=DIRECTION('',(0.0,0.0,-1.0));
#735=AXIS2_PLACEMENT_3D('',#732,#733,#734);
#736=PLANE('',#735);
#737=ORIENTED_EDGE('',*,*,#659,.T.);
#738=ORIENTED_EDGE('',*,*,#628,.T.);
#739=ORIENTED_EDGE('',*,*,#597,.T.);
#740=CARTESIAN_POINT('',(1.069999999999999,-1.225,1.7));
#741=VERTEX_POINT('',#740);
#742=CARTESIAN_POINT('',(1.069999999999999,-1.225,0.0));
#743=DIRECTION('',(0.0,0.0,1.0));
#744=VECTOR('',#743,1.7);
#745=LINE('',#742,#744);
#746=EDGE_CURVE('',#584,#741,#745,.T.);
#747=ORIENTED_EDGE('',*,*,#746,.T.);
#748=CARTESIAN_POINT('',(-1.07,-1.225000000000001,1.7));
#749=VERTEX_POINT('',#748);
#750=CARTESIAN_POINT('',(1.069999999999999,-1.225,1.7));
#751=DIRECTION('',(-1.0,0.0,0.0));
#752=VECTOR('',#751,2.14);
#753=LINE('',#750,#752);
#754=EDGE_CURVE('',#741,#749,#753,.T.);
#755=ORIENTED_EDGE('',*,*,#754,.T.);
#756=CARTESIAN_POINT('',(-1.07,-1.225000000000001,0.0));
#757=DIRECTION('',(0.0,0.0,1.0));
#758=VECTOR('',#757,1.7);
#759=LINE('',#756,#758);
#760=EDGE_CURVE('',#654,#749,#759,.T.);
#761=ORIENTED_EDGE('',*,*,#760,.F.);
#762=EDGE_LOOP('',(#737,#738,#739,#747,#755,#761));
#763=FACE_OUTER_BOUND('',#762,.T.);
#764=ADVANCED_FACE('',(#763),#736,.T.);
#765=CARTESIAN_POINT('',(-1.07,1.224999999999999,0.0));
#766=DIRECTION('',(0.0,1.0,0.0));
#767=DIRECTION('',(0.0,0.0,1.0));
#768=AXIS2_PLACEMENT_3D('',#765,#766,#767);
#769=PLANE('',#768);
#770=ORIENTED_EDGE('',*,*,#650,.T.);
#771=CARTESIAN_POINT('',(-1.07,1.224999999999999,1.7));
#772=VERTEX_POINT('',#771);
#773=CARTESIAN_POINT('',(-1.07,1.224999999999999,0.0));
#774=DIRECTION('',(0.0,0.0,1.0));
#775=VECTOR('',#774,1.7);
#776=LINE('',#773,#775);
#777=EDGE_CURVE('',#645,#772,#776,.T.);
#778=ORIENTED_EDGE('',*,*,#777,.T.);
#779=CARTESIAN_POINT('',(1.07,1.224999999999999,1.7));
#780=VERTEX_POINT('',#779);
#781=CARTESIAN_POINT('',(-1.07,1.224999999999999,1.7));
#782=DIRECTION('',(1.0,0.0,0.0));
#783=VECTOR('',#782,2.14);
#784=LINE('',#781,#783);
#785=EDGE_CURVE('',#772,#780,#784,.T.);
#786=ORIENTED_EDGE('',*,*,#785,.T.);
#787=CARTESIAN_POINT('',(1.07,1.224999999999999,0.0));
#788=DIRECTION('',(0.0,0.0,1.0));
#789=VECTOR('',#788,1.7);
#790=LINE('',#787,#789);
#791=EDGE_CURVE('',#574,#780,#790,.T.);
#792=ORIENTED_EDGE('',*,*,#791,.F.);
#793=ORIENTED_EDGE('',*,*,#581,.T.);
#794=ORIENTED_EDGE('',*,*,#619,.T.);
#795=EDGE_LOOP('',(#770,#778,#786,#792,#793,#794));
#796=FACE_OUTER_BOUND('',#795,.T.);
#797=ADVANCED_FACE('',(#796),#769,.T.);
#798=CARTESIAN_POINT('',(1.07,1.224999999999999,0.0));
#799=DIRECTION('',(0.707106781186547,0.707106781186548,0.0));
#800=DIRECTION('',(0.0,0.0,-1.0));
#801=AXIS2_PLACEMENT_3D('',#798,#799,#800);
#802=PLANE('',#801);
#803=CARTESIAN_POINT('',(1.270000000000001,1.025,1.7));
#804=VERTEX_POINT('',#803);
#805=CARTESIAN_POINT('',(1.07,1.224999999999999,1.7));
#806=DIRECTION('',(0.707106781186548,-0.707106781186547,0.0));
#807=VECTOR('',#806,0.282842712474619);
#808=LINE('',#805,#807);
#809=EDGE_CURVE('',#780,#804,#808,.T.);
#810=ORIENTED_EDGE('',*,*,#809,.T.);
#811=CARTESIAN_POINT('',(1.270000000000001,1.025,0.0));
#812=DIRECTION('',(0.0,0.0,1.0));
#813=VECTOR('',#812,1.7);
#814=LINE('',#811,#813);
#815=EDGE_CURVE('',#677,#804,#814,.T.);
#816=ORIENTED_EDGE('',*,*,#815,.F.);
#817=ORIENTED_EDGE('',*,*,#682,.T.);
#818=ORIENTED_EDGE('',*,*,#791,.T.);
#819=EDGE_LOOP('',(#810,#816,#817,#818));
#820=FACE_OUTER_BOUND('',#819,.T.);
#821=ADVANCED_FACE('',(#820),#802,.T.);
#822=CARTESIAN_POINT('',(1.270000000000001,1.025,0.0));
#823=DIRECTION('',(1.0,0.0,0.0));
#824=DIRECTION('',(0.0,0.0,-1.0));
#825=AXIS2_PLACEMENT_3D('',#822,#823,#824);
#826=PLANE('',#825);
#827=CARTESIAN_POINT('',(1.270000000000001,-1.025,1.7));
#828=VERTEX_POINT('',#827);
#829=CARTESIAN_POINT('',(1.270000000000001,1.025,1.7));
#830=DIRECTION('',(0.0,-1.0,0.0));
#831=VECTOR('',#830,2.05);
#832=LINE('',#829,#831);
#833=EDGE_CURVE('',#804,#828,#832,.T.);
#834=ORIENTED_EDGE('',*,*,#833,.T.);
#835=CARTESIAN_POINT('',(1.270000000000001,-1.025,0.0));
#836=DIRECTION('',(0.0,0.0,1.0));
#837=VECTOR('',#836,1.7);
#838=LINE('',#835,#837);
#839=EDGE_CURVE('',#685,#828,#838,.T.);
#840=ORIENTED_EDGE('',*,*,#839,.F.);
#841=ORIENTED_EDGE('',*,*,#690,.T.);
#842=ORIENTED_EDGE('',*,*,#815,.T.);
#843=EDGE_LOOP('',(#834,#840,#841,#842));
#844=FACE_OUTER_BOUND('',#843,.T.);
#845=ADVANCED_FACE('',(#844),#826,.T.);
#846=CARTESIAN_POINT('',(1.270000000000001,-1.025,0.0));
#847=DIRECTION('',(0.707106781186544,-0.707106781186551,0.0));
#848=DIRECTION('',(0.0,0.0,-1.0));
#849=AXIS2_PLACEMENT_3D('',#846,#847,#848);
#850=PLANE('',#849);
#851=CARTESIAN_POINT('',(1.270000000000001,-1.025,1.7));
#852=DIRECTION('',(-0.707106781186551,-0.707106781186544,0.0));
#853=VECTOR('',#852,0.282842712474619);
#854=LINE('',#851,#853);
#855=EDGE_CURVE('',#828,#741,#854,.T.);
#856=ORIENTED_EDGE('',*,*,#855,.T.);
#857=ORIENTED_EDGE('',*,*,#746,.F.);
#858=ORIENTED_EDGE('',*,*,#696,.T.);
#859=ORIENTED_EDGE('',*,*,#839,.T.);
#860=EDGE_LOOP('',(#856,#857,#858,#859));
#861=FACE_OUTER_BOUND('',#860,.T.);
#862=ADVANCED_FACE('',(#861),#850,.T.);
#863=CARTESIAN_POINT('',(-1.07,-1.225000000000001,0.0));
#864=DIRECTION('',(-0.707106781186548,-0.707106781186547,0.0));
#865=DIRECTION('',(0.0,0.0,1.0));
#866=AXIS2_PLACEMENT_3D('',#863,#864,#865);
#867=PLANE('',#866);
#868=CARTESIAN_POINT('',(-1.27,-1.025,1.7));
#869=VERTEX_POINT('',#868);
#870=CARTESIAN_POINT('',(-1.07,-1.225000000000001,1.7));
#871=DIRECTION('',(-0.707106781186547,0.707106781186548,0.0));
#872=VECTOR('',#871,0.282842712474619);
#873=LINE('',#870,#872);
#874=EDGE_CURVE('',#749,#869,#873,.T.);
#875=ORIENTED_EDGE('',*,*,#874,.T.);
#876=CARTESIAN_POINT('',(-1.27,-1.025,0.0));
#877=DIRECTION('',(0.0,0.0,1.0));
#878=VECTOR('',#877,1.7);
#879=LINE('',#876,#878);
#880=EDGE_CURVE('',#708,#869,#879,.T.);
#881=ORIENTED_EDGE('',*,*,#880,.F.);
#882=ORIENTED_EDGE('',*,*,#713,.T.);
#883=ORIENTED_EDGE('',*,*,#760,.T.);
#884=EDGE_LOOP('',(#875,#881,#882,#883));
#885=FACE_OUTER_BOUND('',#884,.T.);
#886=ADVANCED_FACE('',(#885),#867,.T.);
#887=CARTESIAN_POINT('',(-1.27,-1.025,0.0));
#888=DIRECTION('',(-1.0,0.0,0.0));
#889=DIRECTION('',(0.0,0.0,1.0));
#890=AXIS2_PLACEMENT_3D('',#887,#888,#889);
#891=PLANE('',#890);
#892=CARTESIAN_POINT('',(-1.270000000000001,1.025,1.7));
#893=VERTEX_POINT('',#892);
#894=CARTESIAN_POINT('',(-1.27,-1.025,1.7));
#895=DIRECTION('',(0.0,1.0,0.0));
#896=VECTOR('',#895,2.05);
#897=LINE('',#894,#896);
#898=EDGE_CURVE('',#869,#893,#897,.T.);
#899=ORIENTED_EDGE('',*,*,#898,.T.);
#900=CARTESIAN_POINT('',(-1.270000000000001,1.025,0.0));
#901=DIRECTION('',(0.0,0.0,1.0));
#902=VECTOR('',#901,1.7);
#903=LINE('',#900,#902);
#904=EDGE_CURVE('',#716,#893,#903,.T.);
#905=ORIENTED_EDGE('',*,*,#904,.F.);
#906=ORIENTED_EDGE('',*,*,#721,.T.);
#907=ORIENTED_EDGE('',*,*,#880,.T.);
#908=EDGE_LOOP('',(#899,#905,#906,#907));
#909=FACE_OUTER_BOUND('',#908,.T.);
#910=ADVANCED_FACE('',(#909),#891,.T.);
#911=CARTESIAN_POINT('',(-1.270000000000001,1.025,0.0));
#912=DIRECTION('',(-0.707106781186546,0.707106781186549,0.0));
#913=DIRECTION('',(0.0,0.0,1.0));
#914=AXIS2_PLACEMENT_3D('',#911,#912,#913);
#915=PLANE('',#914);
#916=CARTESIAN_POINT('',(-1.270000000000001,1.025,1.7));
#917=DIRECTION('',(0.707106781186549,0.707106781186546,0.0));
#918=VECTOR('',#917,0.282842712474619);
#919=LINE('',#916,#918);
#920=EDGE_CURVE('',#893,#772,#919,.T.);
#921=ORIENTED_EDGE('',*,*,#920,.T.);
#922=ORIENTED_EDGE('',*,*,#777,.F.);
#923=ORIENTED_EDGE('',*,*,#727,.T.);
#924=ORIENTED_EDGE('',*,*,#904,.T.);
#925=EDGE_LOOP('',(#921,#922,#923,#924));
#926=FACE_OUTER_BOUND('',#925,.T.);
#927=ADVANCED_FACE('',(#926),#915,.T.);
#928=CARTESIAN_POINT('',(-6.560533E-017,-1.665335E-016,1.7));
#929=DIRECTION('',(0.0,0.0,1.0));
#930=DIRECTION('',(1.0,0.0,0.0));
#931=AXIS2_PLACEMENT_3D('',#928,#929,#930);
#932=PLANE('',#931);
#933=ORIENTED_EDGE('',*,*,#785,.F.);
#934=ORIENTED_EDGE('',*,*,#920,.F.);
#935=ORIENTED_EDGE('',*,*,#898,.F.);
#936=ORIENTED_EDGE('',*,*,#874,.F.);
#937=ORIENTED_EDGE('',*,*,#754,.F.);
#938=ORIENTED_EDGE('',*,*,#855,.F.);
#939=ORIENTED_EDGE('',*,*,#833,.F.);
#940=ORIENTED_EDGE('',*,*,#809,.F.);
#941=EDGE_LOOP('',(#933,#934,#935,#936,#937,#938,#939,#940));
#942=FACE_OUTER_BOUND('',#941,.T.);
#943=ADVANCED_FACE('',(#942),#932,.T.);
#944=CLOSED_SHELL('',(#607,#638,#669,#700,#731,#764,#797,#821,#845,#862,#886,#910,#927,#943));
#945=MANIFOLD_SOLID_BREP('371',#944);
#946=COLOUR_RGB('250',0.33,0.33,0.33);
#947=SURFACE_STYLE_USAGE(.BOTH.,#948);
#948=SURFACE_SIDE_STYLE('NONE',(#949));
#949=SURFACE_STYLE_FILL_AREA(#950);
#950=FILL_AREA_STYLE('NONE',(#951));
#951=FILL_AREA_STYLE_COLOUR('NONE',#946);
#952=PRESENTATION_STYLE_ASSIGNMENT((#947));
#953=STYLED_ITEM('NONE',(#952),#945);
#954=ADVANCED_BREP_SHAPE_REPRESENTATION('ABSR1',(#310,#566,#945),#28);
#955=SHAPE_REPRESENTATION_RELATIONSHIP('SRRPL1','',#954,#62);
ENDSEC;
END-ISO-10303-21;
