ISO-10303-21;
HEADER;
/****************************************************************
 * Generated by software with PDE/Lib inside                    *
 * PDElib Version v51a, created Mon 11/03/2008                  *
 * International Technegroup Inc. (www.iti-oh.com)              *
 ****************************************************************/
FILE_DESCRIPTION((''),'2;1');
FILE_NAME('CLAMP_FERROXCUBE_CLM-E18-PLT18.stp','2010-03-02T15:55:27',(''),(''),'Mechanical Desktop 2010','Mechanical Desktop 2010',', , ');
FILE_SCHEMA(('AUTOMOTIVE_DESIGN { 1 2 10303 214 1 1 1 1 }'));
ENDSEC;
DATA;
#8=(NAMED_UNIT(*)PLANE_ANGLE_UNIT()SI_UNIT($,.RADIAN.));
#9=DIMENSIONAL_EXPONENTS(0.0,0.0,0.0,0.0,0.0,0.0,0.0);
#10=PLANE_ANGLE_MEASURE_WITH_UNIT(PLANE_ANGLE_MEASURE(0.017453292500000),#8);
#14=(CONVERSION_BASED_UNIT('DEGREE',#10)NAMED_UNIT(#9)PLANE_ANGLE_UNIT());
#18=(NAMED_UNIT(*)SI_UNIT($,.STERADIAN.)SOLID_ANGLE_UNIT());
#22=(LENGTH_UNIT()NAMED_UNIT(*)SI_UNIT(.MILLI.,.METRE.));
#23=UNCERTAINTY_MEASURE_WITH_UNIT(LENGTH_MEASURE(0.000001000000000),#22,'DISTANCE_ACCURACY_VALUE','');
#28=(GEOMETRIC_REPRESENTATION_CONTEXT(3)GLOBAL_UNCERTAINTY_ASSIGNED_CONTEXT((#23))GLOBAL_UNIT_ASSIGNED_CONTEXT((#14,#18,#22))REPRESENTATION_CONTEXT('None','None'));
#29=APPLICATION_CONTEXT('automotive design');
#30=APPLICATION_PROTOCOL_DEFINITION('INTERNATIONAL_STANDARD','automotive_design',1998,#29);
#31=PRODUCT_CONTEXT('3D Mechanical Parts',#29,'mechanical');
#32=PRODUCT('Product','Product','',(#31));
#33=PRODUCT_RELATED_PRODUCT_CATEGORY('part',$,(#32));
#34=PRODUCT_CATEGORY('part',$);
#35=PERSON('1','Design','Joe',$,$,$);
#36=ORGANIZATION($,'None','None');
#37=PERSON_AND_ORGANIZATION(#35,#36);
#38=PERSON_AND_ORGANIZATION_ROLE('design_owner');
#39=APPLIED_PERSON_AND_ORGANIZATION_ASSIGNMENT(#37,#38,(#32));
#40=PRODUCT_DEFINITION_FORMATION_WITH_SPECIFIED_SOURCE('None','',#32,.BOUGHT.);
#41=PERSON('2','Creator','Joe',$,$,$);
#42=ORGANIZATION($,'None','None');
#43=PERSON_AND_ORGANIZATION(#41,#42);
#44=PERSON_AND_ORGANIZATION_ROLE('creator');
#45=APPLIED_PERSON_AND_ORGANIZATION_ASSIGNMENT(#43,#44,(#40));
#46=PERSON('3','Supplier','Joe',$,$,$);
#47=ORGANIZATION($,'None','None');
#48=PERSON_AND_ORGANIZATION(#46,#47);
#49=PERSON_AND_ORGANIZATION_ROLE('design_supplier');
#50=APPLIED_PERSON_AND_ORGANIZATION_ASSIGNMENT(#48,#49,(#40));
#51=PRODUCT_DEFINITION_CONTEXT('part definition',#29,'design');
#52=PRODUCT_DEFINITION('None','',#40,#51);
#53=PERSON('4','Creator','Joe',$,$,$);
#54=ORGANIZATION($,'None','None');
#55=PERSON_AND_ORGANIZATION(#53,#54);
#56=PERSON_AND_ORGANIZATION_ROLE('creator');
#57=APPLIED_PERSON_AND_ORGANIZATION_ASSIGNMENT(#55,#56,(#52));
#58=CARTESIAN_POINT('NONE',(0.0,0.0,0.0));
#59=DIRECTION('NONE',(0.0,0.0,1.0));
#60=DIRECTION('NONE',(1.0,0.0,0.0));
#61=AXIS2_PLACEMENT_3D('NONE',#58,#59,#60);
#62=SHAPE_REPRESENTATION('SR1',(#61),#28);
#63=PRODUCT_DEFINITION_SHAPE('PDS1','Test Part',#52);
#64=SHAPE_DEFINITION_REPRESENTATION(#63,#62);
#65=CARTESIAN_POINT('',(-8.999999999999996,1.099999999999998,-3.599999999999996));
#66=DIRECTION('',(0.0,-1.0,0.0));
#67=DIRECTION('',(-0.707106781186548,0.0,-0.707106781186547));
#68=AXIS2_PLACEMENT_3D('',#65,#66,#67);
#69=CYLINDRICAL_SURFACE('',#68,0.199999999999999);
#70=CARTESIAN_POINT('',(-9.199999999999996,-1.100000000000002,-3.599999999999996));
#71=VERTEX_POINT('',#70);
#72=CARTESIAN_POINT('',(-8.999999999999996,-1.100000000000002,-3.799999999999995));
#73=VERTEX_POINT('',#72);
#74=CARTESIAN_POINT('',(-8.999999999999996,-1.100000000000002,-3.599999999999996));
#75=DIRECTION('',(0.0,-1.0,0.0));
#76=DIRECTION('',(-0.707106781186548,0.0,-0.707106781186547));
#77=AXIS2_PLACEMENT_3D('',#74,#75,#76);
#78=CIRCLE('',#77,0.199999999999999);
#79=EDGE_CURVE('',#71,#73,#78,.T.);
#80=ORIENTED_EDGE('',*,*,#79,.T.);
#81=CARTESIAN_POINT('',(-8.999999999999996,1.099999999999998,-3.799999999999995));
#82=VERTEX_POINT('',#81);
#83=CARTESIAN_POINT('',(-8.999999999999996,1.099999999999998,-3.799999999999995));
#84=DIRECTION('',(0.0,-1.0,0.0));
#85=VECTOR('',#84,2.200000000000000);
#86=LINE('',#83,#85);
#87=EDGE_CURVE('',#82,#73,#86,.T.);
#88=ORIENTED_EDGE('',*,*,#87,.F.);
#89=CARTESIAN_POINT('',(-9.199999999999996,1.099999999999998,-3.599999999999996));
#90=VERTEX_POINT('',#89);
#91=CARTESIAN_POINT('',(-8.999999999999996,1.099999999999998,-3.599999999999996));
#92=DIRECTION('',(0.0,1.0,0.0));
#93=DIRECTION('',(-0.707106781186548,0.0,-0.707106781186547));
#94=AXIS2_PLACEMENT_3D('',#91,#92,#93);
#95=CIRCLE('',#94,0.199999999999999);
#96=EDGE_CURVE('',#82,#90,#95,.T.);
#97=ORIENTED_EDGE('',*,*,#96,.T.);
#98=CARTESIAN_POINT('',(-9.199999999999996,1.099999999999998,-3.599999999999996));
#99=DIRECTION('',(0.0,-1.0,0.0));
#100=VECTOR('',#99,2.200000000000000);
#101=LINE('',#98,#100);
#102=EDGE_CURVE('',#90,#71,#101,.T.);
#103=ORIENTED_EDGE('',*,*,#102,.T.);
#104=EDGE_LOOP('',(#80,#88,#97,#103));
#105=FACE_OUTER_BOUND('',#104,.T.);
#106=ADVANCED_FACE('',(#105),#69,.F.);
#107=CARTESIAN_POINT('',(-9.199999999999996,1.099999999999998,1.300000000000006));
#108=DIRECTION('',(1.0,0.0,0.0));
#109=DIRECTION('',(0.0,0.0,-1.0));
#110=AXIS2_PLACEMENT_3D('',#107,#108,#109);
#111=PLANE('',#110);
#112=CARTESIAN_POINT('',(-9.199999999999996,-1.100000000000002,1.300000000000006));
#113=VERTEX_POINT('',#112);
#114=CARTESIAN_POINT('',(-9.199999999999996,-1.100000000000002,1.300000000000006));
#115=DIRECTION('',(0.0,0.0,-1.0));
#116=VECTOR('',#115,4.900000000000002);
#117=LINE('',#114,#116);
#118=EDGE_CURVE('',#113,#71,#117,.T.);
#119=ORIENTED_EDGE('',*,*,#118,.T.);
#120=ORIENTED_EDGE('',*,*,#102,.F.);
#121=CARTESIAN_POINT('',(-9.199999999999996,1.099999999999998,1.300000000000006));
#122=VERTEX_POINT('',#121);
#123=CARTESIAN_POINT('',(-9.199999999999996,1.099999999999998,-3.599999999999996));
#124=DIRECTION('',(0.0,0.0,1.0));
#125=VECTOR('',#124,4.900000000000002);
#126=LINE('',#123,#125);
#127=EDGE_CURVE('',#90,#122,#126,.T.);
#128=ORIENTED_EDGE('',*,*,#127,.T.);
#129=CARTESIAN_POINT('',(-9.199999999999996,1.099999999999998,1.300000000000006));
#130=DIRECTION('',(0.0,-1.0,0.0));
#131=VECTOR('',#130,2.200000000000000);
#132=LINE('',#129,#131);
#133=EDGE_CURVE('',#122,#113,#132,.T.);
#134=ORIENTED_EDGE('',*,*,#133,.T.);
#135=EDGE_LOOP('',(#119,#120,#128,#134));
#136=FACE_OUTER_BOUND('',#135,.T.);
#137=ADVANCED_FACE('',(#136),#111,.T.);
#138=CARTESIAN_POINT('',(-8.999999999999996,1.099999999999998,1.300000000000006));
#139=DIRECTION('',(0.0,-1.0,0.0));
#140=DIRECTION('',(-0.707106781186547,0.0,0.707106781186548));
#141=AXIS2_PLACEMENT_3D('',#138,#139,#140);
#142=CYLINDRICAL_SURFACE('',#141,0.199999999999999);
#143=CARTESIAN_POINT('',(-8.999999999999996,-1.100000000000002,1.500000000000005));
#144=VERTEX_POINT('',#143);
#145=CARTESIAN_POINT('',(-8.999999999999996,-1.100000000000002,1.300000000000006));
#146=DIRECTION('',(0.0,-1.0,0.0));
#147=DIRECTION('',(-0.707106781186547,0.0,0.707106781186548));
#148=AXIS2_PLACEMENT_3D('',#145,#146,#147);
#149=CIRCLE('',#148,0.199999999999999);
#150=EDGE_CURVE('',#144,#113,#149,.T.);
#151=ORIENTED_EDGE('',*,*,#150,.T.);
#152=ORIENTED_EDGE('',*,*,#133,.F.);
#153=CARTESIAN_POINT('',(-8.999999999999996,1.099999999999998,1.500000000000005));
#154=VERTEX_POINT('',#153);
#155=CARTESIAN_POINT('',(-8.999999999999996,1.099999999999998,1.300000000000006));
#156=DIRECTION('',(0.0,1.0,0.0));
#157=DIRECTION('',(-0.707106781186547,0.0,0.707106781186548));
#158=AXIS2_PLACEMENT_3D('',#155,#156,#157);
#159=CIRCLE('',#158,0.199999999999999);
#160=EDGE_CURVE('',#122,#154,#159,.T.);
#161=ORIENTED_EDGE('',*,*,#160,.T.);
#162=CARTESIAN_POINT('',(-8.999999999999996,1.099999999999998,1.500000000000005));
#163=DIRECTION('',(0.0,-1.0,0.0));
#164=VECTOR('',#163,2.200000000000000);
#165=LINE('',#162,#164);
#166=EDGE_CURVE('',#154,#144,#165,.T.);
#167=ORIENTED_EDGE('',*,*,#166,.T.);
#168=EDGE_LOOP('',(#151,#152,#161,#167));
#169=FACE_OUTER_BOUND('',#168,.T.);
#170=ADVANCED_FACE('',(#169),#142,.F.);
#171=CARTESIAN_POINT('',(-8.199999999999999,1.099999999999998,1.500000000000005));
#172=DIRECTION('',(0.0,0.0,-1.0));
#173=DIRECTION('',(-1.0,0.0,0.0));
#174=AXIS2_PLACEMENT_3D('',#171,#172,#173);
#175=PLANE('',#174);
#176=CARTESIAN_POINT('',(-8.199999999999999,-1.100000000000002,1.500000000000005));
#177=VERTEX_POINT('',#176);
#178=CARTESIAN_POINT('',(-8.199999999999999,-1.100000000000002,1.500000000000005));
#179=DIRECTION('',(-1.0,0.0,0.0));
#180=VECTOR('',#179,0.799999999999997);
#181=LINE('',#178,#180);
#182=EDGE_CURVE('',#177,#144,#181,.T.);
#183=ORIENTED_EDGE('',*,*,#182,.T.);
#184=ORIENTED_EDGE('',*,*,#166,.F.);
#185=CARTESIAN_POINT('',(-8.199999999999999,1.099999999999998,1.500000000000005));
#186=VERTEX_POINT('',#185);
#187=CARTESIAN_POINT('',(-8.999999999999996,1.099999999999998,1.500000000000005));
#188=DIRECTION('',(1.0,0.0,0.0));
#189=VECTOR('',#188,0.799999999999997);
#190=LINE('',#187,#189);
#191=EDGE_CURVE('',#154,#186,#190,.T.);
#192=ORIENTED_EDGE('',*,*,#191,.T.);
#193=CARTESIAN_POINT('',(-8.199999999999999,1.099999999999998,1.500000000000005));
#194=DIRECTION('',(0.0,-1.0,0.0));
#195=VECTOR('',#194,2.200000000000000);
#196=LINE('',#193,#195);
#197=EDGE_CURVE('',#186,#177,#196,.T.);
#198=ORIENTED_EDGE('',*,*,#197,.T.);
#199=EDGE_LOOP('',(#183,#184,#192,#198));
#200=FACE_OUTER_BOUND('',#199,.T.);
#201=ADVANCED_FACE('',(#200),#175,.T.);
#202=CARTESIAN_POINT('',(-8.199999999999999,1.099999999999998,1.900000000000006));
#203=DIRECTION('',(1.0,0.0,0.0));
#204=DIRECTION('',(0.0,0.0,-1.0));
#205=AXIS2_PLACEMENT_3D('',#202,#203,#204);
#206=PLANE('',#205);
#207=CARTESIAN_POINT('',(-8.199999999999999,-1.100000000000002,1.900000000000006));
#208=VERTEX_POINT('',#207);
#209=CARTESIAN_POINT('',(-8.199999999999999,-1.100000000000002,1.900000000000006));
#210=DIRECTION('',(0.0,0.0,-1.0));
#211=VECTOR('',#210,0.400000000000000);
#212=LINE('',#209,#211);
#213=EDGE_CURVE('',#208,#177,#212,.T.);
#214=ORIENTED_EDGE('',*,*,#213,.T.);
#215=ORIENTED_EDGE('',*,*,#197,.F.);
#216=CARTESIAN_POINT('',(-8.199999999999999,1.099999999999998,1.900000000000006));
#217=VERTEX_POINT('',#216);
#218=CARTESIAN_POINT('',(-8.199999999999999,1.099999999999998,1.500000000000005));
#219=DIRECTION('',(0.0,0.0,1.0));
#220=VECTOR('',#219,0.400000000000000);
#221=LINE('',#218,#220);
#222=EDGE_CURVE('',#186,#217,#221,.T.);
#223=ORIENTED_EDGE('',*,*,#222,.T.);
#224=CARTESIAN_POINT('',(-8.199999999999999,1.099999999999998,1.900000000000006));
#225=DIRECTION('',(0.0,-1.0,0.0));
#226=VECTOR('',#225,2.200000000000000);
#227=LINE('',#224,#226);
#228=EDGE_CURVE('',#217,#208,#227,.T.);
#229=ORIENTED_EDGE('',*,*,#228,.T.);
#230=EDGE_LOOP('',(#214,#215,#223,#229));
#231=FACE_OUTER_BOUND('',#230,.T.);
#232=ADVANCED_FACE('',(#231),#206,.T.);
#233=CARTESIAN_POINT('',(-8.999999999999996,1.099999999999998,1.900000000000006));
#234=DIRECTION('',(0.0,0.0,1.0));
#235=DIRECTION('',(1.0,0.0,0.0));
#236=AXIS2_PLACEMENT_3D('',#233,#234,#235);
#237=PLANE('',#236);
#238=CARTESIAN_POINT('',(-8.999999999999996,-1.100000000000002,1.900000000000006));
#239=VERTEX_POINT('',#238);
#240=CARTESIAN_POINT('',(-8.999999999999996,-1.100000000000002,1.900000000000006));
#241=DIRECTION('',(1.0,0.0,0.0));
#242=VECTOR('',#241,0.799999999999997);
#243=LINE('',#240,#242);
#244=EDGE_CURVE('',#239,#208,#243,.T.);
#245=ORIENTED_EDGE('',*,*,#244,.T.);
#246=ORIENTED_EDGE('',*,*,#228,.F.);
#247=CARTESIAN_POINT('',(-8.999999999999996,1.099999999999998,1.900000000000006));
#248=VERTEX_POINT('',#247);
#249=CARTESIAN_POINT('',(-8.199999999999999,1.099999999999998,1.900000000000006));
#250=DIRECTION('',(-1.0,0.0,0.0));
#251=VECTOR('',#250,0.799999999999997);
#252=LINE('',#249,#251);
#253=EDGE_CURVE('',#217,#248,#252,.T.);
#254=ORIENTED_EDGE('',*,*,#253,.T.);
#255=CARTESIAN_POINT('',(-8.999999999999996,1.099999999999998,1.900000000000006));
#256=DIRECTION('',(0.0,-1.0,0.0));
#257=VECTOR('',#256,2.200000000000000);
#258=LINE('',#255,#257);
#259=EDGE_CURVE('',#248,#239,#258,.T.);
#260=ORIENTED_EDGE('',*,*,#259,.T.);
#261=EDGE_LOOP('',(#245,#246,#254,#260));
#262=FACE_OUTER_BOUND('',#261,.T.);
#263=ADVANCED_FACE('',(#262),#237,.T.);
#264=CARTESIAN_POINT('',(-8.999999999999996,1.099999999999998,1.300000000000006));
#265=DIRECTION('',(0.0,-1.0,0.0));
#266=DIRECTION('',(-0.707106781186546,0.0,0.707106781186549));
#267=AXIS2_PLACEMENT_3D('',#264,#265,#266);
#268=CYLINDRICAL_SURFACE('',#267,0.600000000000001);
#269=CARTESIAN_POINT('',(-9.599999999999998,-1.100000000000002,1.300000000000006));
#270=VERTEX_POINT('',#269);
#271=CARTESIAN_POINT('',(-8.999999999999996,-1.100000000000002,1.300000000000006));
#272=DIRECTION('',(0.0,1.0,0.0));
#273=DIRECTION('',(-0.707106781186546,0.0,0.707106781186549));
#274=AXIS2_PLACEMENT_3D('',#271,#272,#273);
#275=CIRCLE('',#274,0.600000000000001);
#276=EDGE_CURVE('',#270,#239,#275,.T.);
#277=ORIENTED_EDGE('',*,*,#276,.T.);
#278=ORIENTED_EDGE('',*,*,#259,.F.);
#279=CARTESIAN_POINT('',(-9.599999999999998,1.099999999999998,1.300000000000006));
#280=VERTEX_POINT('',#279);
#281=CARTESIAN_POINT('',(-8.999999999999996,1.099999999999998,1.300000000000006));
#282=DIRECTION('',(0.0,-1.0,0.0));
#283=DIRECTION('',(-0.707106781186546,0.0,0.707106781186549));
#284=AXIS2_PLACEMENT_3D('',#281,#282,#283);
#285=CIRCLE('',#284,0.600000000000001);
#286=EDGE_CURVE('',#248,#280,#285,.T.);
#287=ORIENTED_EDGE('',*,*,#286,.T.);
#288=CARTESIAN_POINT('',(-9.599999999999998,1.099999999999998,1.300000000000006));
#289=DIRECTION('',(0.0,-1.0,0.0));
#290=VECTOR('',#289,2.200000000000000);
#291=LINE('',#288,#290);
#292=EDGE_CURVE('',#280,#270,#291,.T.);
#293=ORIENTED_EDGE('',*,*,#292,.T.);
#294=EDGE_LOOP('',(#277,#278,#287,#293));
#295=FACE_OUTER_BOUND('',#294,.T.);
#296=ADVANCED_FACE('',(#295),#268,.T.);
#297=CARTESIAN_POINT('',(-9.599999999999998,1.099999999999998,-3.599999999999996));
#298=DIRECTION('',(-1.0,0.0,0.0));
#299=DIRECTION('',(0.0,0.0,1.0));
#300=AXIS2_PLACEMENT_3D('',#297,#298,#299);
#301=PLANE('',#300);
#302=CARTESIAN_POINT('',(-9.599999999999998,-1.100000000000002,-3.599999999999996));
#303=VERTEX_POINT('',#302);
#304=CARTESIAN_POINT('',(-9.599999999999998,-1.100000000000002,-3.599999999999996));
#305=DIRECTION('',(0.0,0.0,1.0));
#306=VECTOR('',#305,4.900000000000002);
#307=LINE('',#304,#306);
#308=EDGE_CURVE('',#303,#270,#307,.T.);
#309=ORIENTED_EDGE('',*,*,#308,.T.);
#310=ORIENTED_EDGE('',*,*,#292,.F.);
#311=CARTESIAN_POINT('',(-9.599999999999998,1.099999999999998,-3.599999999999996));
#312=VERTEX_POINT('',#311);
#313=CARTESIAN_POINT('',(-9.599999999999998,1.099999999999998,1.300000000000006));
#314=DIRECTION('',(0.0,0.0,-1.0));
#315=VECTOR('',#314,4.900000000000002);
#316=LINE('',#313,#315);
#317=EDGE_CURVE('',#280,#312,#316,.T.);
#318=ORIENTED_EDGE('',*,*,#317,.T.);
#319=CARTESIAN_POINT('',(-9.599999999999998,1.099999999999998,-3.599999999999996));
#320=DIRECTION('',(0.0,-1.0,0.0));
#321=VECTOR('',#320,2.200000000000000);
#322=LINE('',#319,#321);
#323=EDGE_CURVE('',#312,#303,#322,.T.);
#324=ORIENTED_EDGE('',*,*,#323,.T.);
#325=EDGE_LOOP('',(#309,#310,#318,#324));
#326=FACE_OUTER_BOUND('',#325,.T.);
#327=ADVANCED_FACE('',(#326),#301,.T.);
#328=CARTESIAN_POINT('',(-8.999999999999996,1.099999999999998,-3.599999999999996));
#329=DIRECTION('',(0.0,-1.0,0.0));
#330=DIRECTION('',(-0.707106781186546,0.0,-0.707106781186548));
#331=AXIS2_PLACEMENT_3D('',#328,#329,#330);
#332=CYLINDRICAL_SURFACE('',#331,0.600000000000001);
#333=CARTESIAN_POINT('',(-8.999999999999996,-1.100000000000002,-4.199999999999996));
#334=VERTEX_POINT('',#333);
#335=CARTESIAN_POINT('',(-8.999999999999996,-1.100000000000002,-3.599999999999996));
#336=DIRECTION('',(0.0,1.000000000000000,0.0));
#337=DIRECTION('',(-0.707106781186546,0.0,-0.707106781186548));
#338=AXIS2_PLACEMENT_3D('',#335,#336,#337);
#339=CIRCLE('',#338,0.600000000000001);
#340=EDGE_CURVE('',#334,#303,#339,.T.);
#341=ORIENTED_EDGE('',*,*,#340,.T.);
#342=ORIENTED_EDGE('',*,*,#323,.F.);
#343=CARTESIAN_POINT('',(-8.999999999999996,1.099999999999998,-4.199999999999996));
#344=VERTEX_POINT('',#343);
#345=CARTESIAN_POINT('',(-8.999999999999996,1.099999999999998,-3.599999999999996));
#346=DIRECTION('',(0.0,-1.000000000000000,0.0));
#347=DIRECTION('',(-0.707106781186546,0.0,-0.707106781186548));
#348=AXIS2_PLACEMENT_3D('',#345,#346,#347);
#349=CIRCLE('',#348,0.600000000000001);
#350=EDGE_CURVE('',#312,#344,#349,.T.);
#351=ORIENTED_EDGE('',*,*,#350,.T.);
#352=CARTESIAN_POINT('',(-8.999999999999996,1.099999999999998,-4.199999999999996));
#353=DIRECTION('',(0.0,-1.0,0.0));
#354=VECTOR('',#353,2.200000000000000);
#355=LINE('',#352,#354);
#356=EDGE_CURVE('',#344,#334,#355,.T.);
#357=ORIENTED_EDGE('',*,*,#356,.T.);
#358=EDGE_LOOP('',(#341,#342,#351,#357));
#359=FACE_OUTER_BOUND('',#358,.T.);
#360=ADVANCED_FACE('',(#359),#332,.T.);
#361=CARTESIAN_POINT('',(9.0,1.099999999999994,-4.200000000000000));
#362=DIRECTION('',(0.0,0.0,-1.0));
#363=DIRECTION('',(-1.0,0.0,0.0));
#364=AXIS2_PLACEMENT_3D('',#361,#362,#363);
#365=PLANE('',#364);
#366=CARTESIAN_POINT('',(9.0,1.099999999999994,-4.200000000000000));
#367=VERTEX_POINT('',#366);
#368=CARTESIAN_POINT('',(-8.999999999999996,1.099999999999998,-4.199999999999996));
#369=DIRECTION('',(1.0,0.0,0.0));
#370=VECTOR('',#369,17.999999999999996);
#371=LINE('',#368,#370);
#372=EDGE_CURVE('',#344,#367,#371,.T.);
#373=ORIENTED_EDGE('',*,*,#372,.T.);
#374=CARTESIAN_POINT('',(9.0,-1.100000000000001,-4.200000000000000));
#375=VERTEX_POINT('',#374);
#376=CARTESIAN_POINT('',(9.0,1.099999999999994,-4.200000000000000));
#377=DIRECTION('',(0.0,-1.0,0.0));
#378=VECTOR('',#377,2.199999999999999);
#379=LINE('',#376,#378);
#380=EDGE_CURVE('',#367,#375,#379,.T.);
#381=ORIENTED_EDGE('',*,*,#380,.T.);
#382=CARTESIAN_POINT('',(9.0,-1.100000000000001,-4.199999999999999));
#383=DIRECTION('',(-1.0,0.0,0.0));
#384=VECTOR('',#383,17.999999999999996);
#385=LINE('',#382,#384);
#386=EDGE_CURVE('',#375,#334,#385,.T.);
#387=ORIENTED_EDGE('',*,*,#386,.T.);
#388=ORIENTED_EDGE('',*,*,#356,.F.);
#389=EDGE_LOOP('',(#373,#381,#387,#388));
#390=FACE_OUTER_BOUND('',#389,.T.);
#391=ADVANCED_FACE('',(#390),#365,.T.);
#392=CARTESIAN_POINT('',(-0.200000000000000,1.099999999999994,-2.578777805133275));
#393=DIRECTION('',(0.0,1.0,0.0));
#394=DIRECTION('',(0.0,0.0,-1.0));
#395=AXIS2_PLACEMENT_3D('',#392,#393,#394);
#396=PLANE('',#395);
#397=CARTESIAN_POINT('',(9.0,1.099999999999994,-3.799999999999998));
#398=VERTEX_POINT('',#397);
#399=CARTESIAN_POINT('',(9.0,1.099999999999998,-3.799999999999999));
#400=DIRECTION('',(-1.0,0.0,0.0));
#401=VECTOR('',#400,17.999999999999996);
#402=LINE('',#399,#401);
#403=EDGE_CURVE('',#398,#82,#402,.T.);
#404=ORIENTED_EDGE('',*,*,#403,.F.);
#405=CARTESIAN_POINT('',(9.199999999999999,1.099999999999994,-3.599999999999999));
#406=VERTEX_POINT('',#405);
#407=CARTESIAN_POINT('',(9.0,1.099999999999994,-3.599999999999999));
#408=DIRECTION('',(0.0,1.0,0.0));
#409=DIRECTION('',(0.707106781186547,0.0,-0.707106781186548));
#410=AXIS2_PLACEMENT_3D('',#407,#408,#409);
#411=CIRCLE('',#410,0.199999999999999);
#412=EDGE_CURVE('',#406,#398,#411,.T.);
#413=ORIENTED_EDGE('',*,*,#412,.F.);
#414=CARTESIAN_POINT('',(9.199999999999999,1.099999999999994,1.300000000000002));
#415=VERTEX_POINT('',#414);
#416=CARTESIAN_POINT('',(9.199999999999999,1.099999999999994,1.300000000000002));
#417=DIRECTION('',(0.0,0.0,-1.0));
#418=VECTOR('',#417,4.900000000000000);
#419=LINE('',#416,#418);
#420=EDGE_CURVE('',#415,#406,#419,.T.);
#421=ORIENTED_EDGE('',*,*,#420,.F.);
#422=CARTESIAN_POINT('',(9.0,1.099999999999994,1.500000000000001));
#423=VERTEX_POINT('',#422);
#424=CARTESIAN_POINT('',(9.0,1.099999999999994,1.300000000000002));
#425=DIRECTION('',(0.0,1.0,0.0));
#426=DIRECTION('',(0.707106781186548,0.0,0.707106781186547));
#427=AXIS2_PLACEMENT_3D('',#424,#425,#426);
#428=CIRCLE('',#427,0.199999999999999);
#429=EDGE_CURVE('',#423,#415,#428,.T.);
#430=ORIENTED_EDGE('',*,*,#429,.F.);
#431=CARTESIAN_POINT('',(8.199999999999999,1.099999999999994,1.500000000000003));
#432=VERTEX_POINT('',#431);
#433=CARTESIAN_POINT('',(8.199999999999999,1.099999999999994,1.500000000000003));
#434=DIRECTION('',(1.0,0.0,0.0));
#435=VECTOR('',#434,0.800000000000001);
#436=LINE('',#433,#435);
#437=EDGE_CURVE('',#432,#423,#436,.T.);
#438=ORIENTED_EDGE('',*,*,#437,.F.);
#439=CARTESIAN_POINT('',(8.199999999999999,1.099999999999994,1.900000000000001));
#440=VERTEX_POINT('',#439);
#441=CARTESIAN_POINT('',(8.199999999999999,1.099999999999994,1.900000000000001));
#442=DIRECTION('',(0.0,0.0,-1.0));
#443=VECTOR('',#442,0.399999999999999);
#444=LINE('',#441,#443);
#445=EDGE_CURVE('',#440,#432,#444,.T.);
#446=ORIENTED_EDGE('',*,*,#445,.F.);
#447=CARTESIAN_POINT('',(9.0,1.099999999999994,1.900000000000001));
#448=VERTEX_POINT('',#447);
#449=CARTESIAN_POINT('',(9.0,1.099999999999994,1.900000000000001));
#450=DIRECTION('',(-1.0,0.0,0.0));
#451=VECTOR('',#450,0.800000000000001);
#452=LINE('',#449,#451);
#453=EDGE_CURVE('',#448,#440,#452,.T.);
#454=ORIENTED_EDGE('',*,*,#453,.F.);
#455=CARTESIAN_POINT('',(9.599999999999998,1.099999999999994,1.300000000000002));
#456=VERTEX_POINT('',#455);
#457=CARTESIAN_POINT('',(9.0,1.099999999999994,1.300000000000002));
#458=DIRECTION('',(0.0,-1.000000000000000,0.0));
#459=DIRECTION('',(0.707106781186549,0.0,0.707106781186546));
#460=AXIS2_PLACEMENT_3D('',#457,#458,#459);
#461=CIRCLE('',#460,0.599999999999999);
#462=EDGE_CURVE('',#456,#448,#461,.T.);
#463=ORIENTED_EDGE('',*,*,#462,.F.);
#464=CARTESIAN_POINT('',(9.599999999999998,1.099999999999994,-3.599999999999999));
#465=VERTEX_POINT('',#464);
#466=CARTESIAN_POINT('',(9.599999999999998,1.099999999999994,-3.599999999999999));
#467=DIRECTION('',(0.0,0.0,1.0));
#468=VECTOR('',#467,4.900000000000000);
#469=LINE('',#466,#468);
#470=EDGE_CURVE('',#465,#456,#469,.T.);
#471=ORIENTED_EDGE('',*,*,#470,.F.);
#472=CARTESIAN_POINT('',(8.999999999999996,1.099999999999994,-3.600000000000001));
#473=DIRECTION('',(0.0,-1.000000000000000,0.0));
#474=DIRECTION('',(0.707106781186549,0.0,-0.707106781186545));
#475=AXIS2_PLACEMENT_3D('',#472,#473,#474);
#476=CIRCLE('',#475,0.600000000000000);
#477=EDGE_CURVE('',#367,#465,#476,.T.);
#478=ORIENTED_EDGE('',*,*,#477,.F.);
#479=ORIENTED_EDGE('',*,*,#372,.F.);
#480=ORIENTED_EDGE('',*,*,#350,.F.);
#481=ORIENTED_EDGE('',*,*,#317,.F.);
#482=ORIENTED_EDGE('',*,*,#286,.F.);
#483=ORIENTED_EDGE('',*,*,#253,.F.);
#484=ORIENTED_EDGE('',*,*,#222,.F.);
#485=ORIENTED_EDGE('',*,*,#191,.F.);
#486=ORIENTED_EDGE('',*,*,#160,.F.);
#487=ORIENTED_EDGE('',*,*,#127,.F.);
#488=ORIENTED_EDGE('',*,*,#96,.F.);
#489=EDGE_LOOP('',(#404,#413,#421,#430,#438,#446,#454,#463,#471,#478,#479,#480,#481,#482,#483,#484,#485,#486,#487,#488));
#490=FACE_OUTER_BOUND('',#489,.T.);
#491=ADVANCED_FACE('',(#490),#396,.T.);
#492=CARTESIAN_POINT('',(9.0,1.099999999999994,-3.599999999999999));
#493=DIRECTION('',(0.0,-1.0,0.0));
#494=DIRECTION('',(0.707106781186547,0.0,-0.707106781186548));
#495=AXIS2_PLACEMENT_3D('',#492,#493,#494);
#496=CYLINDRICAL_SURFACE('',#495,0.199999999999999);
#497=CARTESIAN_POINT('',(9.0,-1.100000000000001,-3.799999999999998));
#498=VERTEX_POINT('',#497);
#499=CARTESIAN_POINT('',(9.199999999999999,-1.100000000000001,-3.599999999999999));
#500=VERTEX_POINT('',#499);
#501=CARTESIAN_POINT('',(9.0,-1.100000000000001,-3.599999999999999));
#502=DIRECTION('',(0.0,-1.0,0.0));
#503=DIRECTION('',(0.707106781186547,0.0,-0.707106781186548));
#504=AXIS2_PLACEMENT_3D('',#501,#502,#503);
#505=CIRCLE('',#504,0.199999999999999);
#506=EDGE_CURVE('',#498,#500,#505,.T.);
#507=ORIENTED_EDGE('',*,*,#506,.T.);
#508=CARTESIAN_POINT('',(9.199999999999999,1.099999999999994,-3.599999999999999));
#509=DIRECTION('',(0.0,-1.0,0.0));
#510=VECTOR('',#509,2.199999999999999);
#511=LINE('',#508,#510);
#512=EDGE_CURVE('',#406,#500,#511,.T.);
#513=ORIENTED_EDGE('',*,*,#512,.F.);
#514=ORIENTED_EDGE('',*,*,#412,.T.);
#515=CARTESIAN_POINT('',(9.0,-1.100000000000005,-3.799999999999998));
#516=DIRECTION('',(0.0,1.0,0.0));
#517=VECTOR('',#516,2.199999999999999);
#518=LINE('',#515,#517);
#519=EDGE_CURVE('',#398,#498,#518,.F.);
#520=ORIENTED_EDGE('',*,*,#519,.T.);
#521=EDGE_LOOP('',(#507,#513,#514,#520));
#522=FACE_OUTER_BOUND('',#521,.T.);
#523=ADVANCED_FACE('',(#522),#496,.F.);
#524=CARTESIAN_POINT('',(-0.200000000000000,-1.100000000000001,-2.578777805133274));
#525=DIRECTION('',(0.0,1.0,0.0));
#526=DIRECTION('',(0.0,0.0,-1.0));
#527=AXIS2_PLACEMENT_3D('',#524,#525,#526);
#528=PLANE('',#527);
#529=ORIENTED_EDGE('',*,*,#386,.F.);
#530=CARTESIAN_POINT('',(9.599999999999998,-1.100000000000001,-3.599999999999999));
#531=VERTEX_POINT('',#530);
#532=CARTESIAN_POINT('',(8.999999999999996,-1.100000000000001,-3.600000000000001));
#533=DIRECTION('',(0.0,1.000000000000000,0.0));
#534=DIRECTION('',(0.707106781186549,0.0,-0.707106781186545));
#535=AXIS2_PLACEMENT_3D('',#532,#533,#534);
#536=CIRCLE('',#535,0.600000000000000);
#537=EDGE_CURVE('',#531,#375,#536,.T.);
#538=ORIENTED_EDGE('',*,*,#537,.F.);
#539=CARTESIAN_POINT('',(9.599999999999998,-1.100000000000001,1.300000000000002));
#540=VERTEX_POINT('',#539);
#541=CARTESIAN_POINT('',(9.599999999999998,-1.100000000000001,1.300000000000002));
#542=DIRECTION('',(0.0,0.0,-1.0));
#543=VECTOR('',#542,4.900000000000000);
#544=LINE('',#541,#543);
#545=EDGE_CURVE('',#540,#531,#544,.T.);
#546=ORIENTED_EDGE('',*,*,#545,.F.);
#547=CARTESIAN_POINT('',(9.0,-1.100000000000001,1.900000000000001));
#548=VERTEX_POINT('',#547);
#549=CARTESIAN_POINT('',(9.0,-1.100000000000001,1.300000000000002));
#550=DIRECTION('',(0.0,1.000000000000000,0.0));
#551=DIRECTION('',(0.707106781186549,0.0,0.707106781186546));
#552=AXIS2_PLACEMENT_3D('',#549,#550,#551);
#553=CIRCLE('',#552,0.599999999999999);
#554=EDGE_CURVE('',#548,#540,#553,.T.);
#555=ORIENTED_EDGE('',*,*,#554,.F.);
#556=CARTESIAN_POINT('',(8.199999999999999,-1.100000000000001,1.900000000000001));
#557=VERTEX_POINT('',#556);
#558=CARTESIAN_POINT('',(8.199999999999999,-1.100000000000001,1.900000000000001));
#559=DIRECTION('',(1.0,0.0,0.0));
#560=VECTOR('',#559,0.800000000000001);
#561=LINE('',#558,#560);
#562=EDGE_CURVE('',#557,#548,#561,.T.);
#563=ORIENTED_EDGE('',*,*,#562,.F.);
#564=CARTESIAN_POINT('',(8.199999999999999,-1.100000000000001,1.500000000000003));
#565=VERTEX_POINT('',#564);
#566=CARTESIAN_POINT('',(8.199999999999999,-1.100000000000001,1.500000000000003));
#567=DIRECTION('',(0.0,0.0,1.0));
#568=VECTOR('',#567,0.399999999999999);
#569=LINE('',#566,#568);
#570=EDGE_CURVE('',#565,#557,#569,.T.);
#571=ORIENTED_EDGE('',*,*,#570,.F.);
#572=CARTESIAN_POINT('',(9.0,-1.100000000000001,1.500000000000001));
#573=VERTEX_POINT('',#572);
#574=CARTESIAN_POINT('',(9.0,-1.100000000000001,1.500000000000001));
#575=DIRECTION('',(-1.0,0.0,0.0));
#576=VECTOR('',#575,0.800000000000001);
#577=LINE('',#574,#576);
#578=EDGE_CURVE('',#573,#565,#577,.T.);
#579=ORIENTED_EDGE('',*,*,#578,.F.);
#580=CARTESIAN_POINT('',(9.199999999999999,-1.100000000000001,1.300000000000002));
#581=VERTEX_POINT('',#580);
#582=CARTESIAN_POINT('',(9.0,-1.100000000000001,1.300000000000002));
#583=DIRECTION('',(0.0,-1.0,0.0));
#584=DIRECTION('',(0.707106781186548,0.0,0.707106781186547));
#585=AXIS2_PLACEMENT_3D('',#582,#583,#584);
#586=CIRCLE('',#585,0.199999999999999);
#587=EDGE_CURVE('',#581,#573,#586,.T.);
#588=ORIENTED_EDGE('',*,*,#587,.F.);
#589=CARTESIAN_POINT('',(9.199999999999999,-1.100000000000001,-3.599999999999999));
#590=DIRECTION('',(0.0,0.0,1.0));
#591=VECTOR('',#590,4.900000000000000);
#592=LINE('',#589,#591);
#593=EDGE_CURVE('',#500,#581,#592,.T.);
#594=ORIENTED_EDGE('',*,*,#593,.F.);
#595=ORIENTED_EDGE('',*,*,#506,.F.);
#596=CARTESIAN_POINT('',(-8.999999999999996,-1.100000000000001,-3.799999999999999));
#597=DIRECTION('',(1.0,0.0,0.0));
#598=VECTOR('',#597,17.999999999999996);
#599=LINE('',#596,#598);
#600=EDGE_CURVE('',#73,#498,#599,.T.);
#601=ORIENTED_EDGE('',*,*,#600,.F.);
#602=ORIENTED_EDGE('',*,*,#79,.F.);
#603=ORIENTED_EDGE('',*,*,#118,.F.);
#604=ORIENTED_EDGE('',*,*,#150,.F.);
#605=ORIENTED_EDGE('',*,*,#182,.F.);
#606=ORIENTED_EDGE('',*,*,#213,.F.);
#607=ORIENTED_EDGE('',*,*,#244,.F.);
#608=ORIENTED_EDGE('',*,*,#276,.F.);
#609=ORIENTED_EDGE('',*,*,#308,.F.);
#610=ORIENTED_EDGE('',*,*,#340,.F.);
#611=EDGE_LOOP('',(#529,#538,#546,#555,#563,#571,#579,#588,#594,#595,#601,#602,#603,#604,#605,#606,#607,#608,#609,#610));
#612=FACE_OUTER_BOUND('',#611,.T.);
#613=ADVANCED_FACE('',(#612),#528,.F.);
#614=CARTESIAN_POINT('',(-15.999999999999996,1.099999999999994,-3.799999999999997));
#615=DIRECTION('',(0.0,0.0,1.0));
#616=DIRECTION('',(1.0,0.0,0.0));
#617=AXIS2_PLACEMENT_3D('',#614,#615,#616);
#618=PLANE('',#617);
#619=ORIENTED_EDGE('',*,*,#600,.T.);
#620=ORIENTED_EDGE('',*,*,#519,.F.);
#621=ORIENTED_EDGE('',*,*,#403,.T.);
#622=ORIENTED_EDGE('',*,*,#87,.T.);
#623=EDGE_LOOP('',(#619,#620,#621,#622));
#624=FACE_OUTER_BOUND('',#623,.T.);
#625=ADVANCED_FACE('',(#624),#618,.T.);
#626=CARTESIAN_POINT('',(9.199999999999999,1.099999999999994,-3.599999999999999));
#627=DIRECTION('',(-1.0,0.0,0.0));
#628=DIRECTION('',(0.0,0.0,1.0));
#629=AXIS2_PLACEMENT_3D('',#626,#627,#628);
#630=PLANE('',#629);
#631=ORIENTED_EDGE('',*,*,#593,.T.);
#632=CARTESIAN_POINT('',(9.199999999999999,1.099999999999994,1.300000000000002));
#633=DIRECTION('',(0.0,-1.0,0.0));
#634=VECTOR('',#633,2.199999999999999);
#635=LINE('',#632,#634);
#636=EDGE_CURVE('',#415,#581,#635,.T.);
#637=ORIENTED_EDGE('',*,*,#636,.F.);
#638=ORIENTED_EDGE('',*,*,#420,.T.);
#639=ORIENTED_EDGE('',*,*,#512,.T.);
#640=EDGE_LOOP('',(#631,#637,#638,#639));
#641=FACE_OUTER_BOUND('',#640,.T.);
#642=ADVANCED_FACE('',(#641),#630,.T.);
#643=CARTESIAN_POINT('',(9.0,1.099999999999994,1.300000000000002));
#644=DIRECTION('',(0.0,-1.0,0.0));
#645=DIRECTION('',(0.707106781186548,0.0,0.707106781186547));
#646=AXIS2_PLACEMENT_3D('',#643,#644,#645);
#647=CYLINDRICAL_SURFACE('',#646,0.199999999999999);
#648=ORIENTED_EDGE('',*,*,#587,.T.);
#649=CARTESIAN_POINT('',(9.0,1.099999999999994,1.500000000000001));
#650=DIRECTION('',(0.0,-1.0,0.0));
#651=VECTOR('',#650,2.199999999999999);
#652=LINE('',#649,#651);
#653=EDGE_CURVE('',#423,#573,#652,.T.);
#654=ORIENTED_EDGE('',*,*,#653,.F.);
#655=ORIENTED_EDGE('',*,*,#429,.T.);
#656=ORIENTED_EDGE('',*,*,#636,.T.);
#657=EDGE_LOOP('',(#648,#654,#655,#656));
#658=FACE_OUTER_BOUND('',#657,.T.);
#659=ADVANCED_FACE('',(#658),#647,.F.);
#660=CARTESIAN_POINT('',(9.0,1.099999999999994,1.500000000000001));
#661=DIRECTION('',(0.0,0.0,-1.0));
#662=DIRECTION('',(-1.0,0.0,0.0));
#663=AXIS2_PLACEMENT_3D('',#660,#661,#662);
#664=PLANE('',#663);
#665=ORIENTED_EDGE('',*,*,#578,.T.);
#666=CARTESIAN_POINT('',(8.199999999999999,1.099999999999994,1.500000000000003));
#667=DIRECTION('',(0.0,-1.0,0.0));
#668=VECTOR('',#667,2.199999999999999);
#669=LINE('',#666,#668);
#670=EDGE_CURVE('',#432,#565,#669,.T.);
#671=ORIENTED_EDGE('',*,*,#670,.F.);
#672=ORIENTED_EDGE('',*,*,#437,.T.);
#673=ORIENTED_EDGE('',*,*,#653,.T.);
#674=EDGE_LOOP('',(#665,#671,#672,#673));
#675=FACE_OUTER_BOUND('',#674,.T.);
#676=ADVANCED_FACE('',(#675),#664,.T.);
#677=CARTESIAN_POINT('',(8.199999999999999,1.099999999999994,1.500000000000003));
#678=DIRECTION('',(-1.0,0.0,0.0));
#679=DIRECTION('',(0.0,0.0,1.0));
#680=AXIS2_PLACEMENT_3D('',#677,#678,#679);
#681=PLANE('',#680);
#682=ORIENTED_EDGE('',*,*,#570,.T.);
#683=CARTESIAN_POINT('',(8.199999999999999,1.099999999999994,1.900000000000001));
#684=DIRECTION('',(0.0,-1.0,0.0));
#685=VECTOR('',#684,2.199999999999999);
#686=LINE('',#683,#685);
#687=EDGE_CURVE('',#440,#557,#686,.T.);
#688=ORIENTED_EDGE('',*,*,#687,.F.);
#689=ORIENTED_EDGE('',*,*,#445,.T.);
#690=ORIENTED_EDGE('',*,*,#670,.T.);
#691=EDGE_LOOP('',(#682,#688,#689,#690));
#692=FACE_OUTER_BOUND('',#691,.T.);
#693=ADVANCED_FACE('',(#692),#681,.T.);
#694=CARTESIAN_POINT('',(8.199999999999999,1.099999999999994,1.900000000000001));
#695=DIRECTION('',(0.0,0.0,1.0));
#696=DIRECTION('',(1.0,0.0,0.0));
#697=AXIS2_PLACEMENT_3D('',#694,#695,#696);
#698=PLANE('',#697);
#699=ORIENTED_EDGE('',*,*,#562,.T.);
#700=CARTESIAN_POINT('',(9.0,1.099999999999994,1.900000000000001));
#701=DIRECTION('',(0.0,-1.0,0.0));
#702=VECTOR('',#701,2.199999999999999);
#703=LINE('',#700,#702);
#704=EDGE_CURVE('',#448,#548,#703,.T.);
#705=ORIENTED_EDGE('',*,*,#704,.F.);
#706=ORIENTED_EDGE('',*,*,#453,.T.);
#707=ORIENTED_EDGE('',*,*,#687,.T.);
#708=EDGE_LOOP('',(#699,#705,#706,#707));
#709=FACE_OUTER_BOUND('',#708,.T.);
#710=ADVANCED_FACE('',(#709),#698,.T.);
#711=CARTESIAN_POINT('',(9.0,1.099999999999994,1.300000000000002));
#712=DIRECTION('',(0.0,-1.0,0.0));
#713=DIRECTION('',(0.707106781186549,0.0,0.707106781186546));
#714=AXIS2_PLACEMENT_3D('',#711,#712,#713);
#715=CYLINDRICAL_SURFACE('',#714,0.599999999999999);
#716=ORIENTED_EDGE('',*,*,#554,.T.);
#717=CARTESIAN_POINT('',(9.599999999999998,1.099999999999994,1.300000000000002));
#718=DIRECTION('',(0.0,-1.0,0.0));
#719=VECTOR('',#718,2.199999999999999);
#720=LINE('',#717,#719);
#721=EDGE_CURVE('',#456,#540,#720,.T.);
#722=ORIENTED_EDGE('',*,*,#721,.F.);
#723=ORIENTED_EDGE('',*,*,#462,.T.);
#724=ORIENTED_EDGE('',*,*,#704,.T.);
#725=EDGE_LOOP('',(#716,#722,#723,#724));
#726=FACE_OUTER_BOUND('',#725,.T.);
#727=ADVANCED_FACE('',(#726),#715,.T.);
#728=CARTESIAN_POINT('',(9.599999999999998,1.099999999999994,1.300000000000002));
#729=DIRECTION('',(1.0,0.0,0.0));
#730=DIRECTION('',(0.0,0.0,-1.0));
#731=AXIS2_PLACEMENT_3D('',#728,#729,#730);
#732=PLANE('',#731);
#733=ORIENTED_EDGE('',*,*,#545,.T.);
#734=CARTESIAN_POINT('',(9.599999999999998,1.099999999999994,-3.599999999999999));
#735=DIRECTION('',(0.0,-1.0,0.0));
#736=VECTOR('',#735,2.199999999999999);
#737=LINE('',#734,#736);
#738=EDGE_CURVE('',#465,#531,#737,.T.);
#739=ORIENTED_EDGE('',*,*,#738,.F.);
#740=ORIENTED_EDGE('',*,*,#470,.T.);
#741=ORIENTED_EDGE('',*,*,#721,.T.);
#742=EDGE_LOOP('',(#733,#739,#740,#741));
#743=FACE_OUTER_BOUND('',#742,.T.);
#744=ADVANCED_FACE('',(#743),#732,.T.);
#745=CARTESIAN_POINT('',(8.999999999999996,1.099999999999994,-3.600000000000001));
#746=DIRECTION('',(0.0,-1.0,0.0));
#747=DIRECTION('',(0.707106781186549,0.0,-0.707106781186545));
#748=AXIS2_PLACEMENT_3D('',#745,#746,#747);
#749=CYLINDRICAL_SURFACE('',#748,0.600000000000000);
#750=ORIENTED_EDGE('',*,*,#537,.T.);
#751=ORIENTED_EDGE('',*,*,#380,.F.);
#752=ORIENTED_EDGE('',*,*,#477,.T.);
#753=ORIENTED_EDGE('',*,*,#738,.T.);
#754=EDGE_LOOP('',(#750,#751,#752,#753));
#755=FACE_OUTER_BOUND('',#754,.T.);
#756=ADVANCED_FACE('',(#755),#749,.T.);
#757=CLOSED_SHELL('',(#106,#137,#170,#201,#232,#263,#296,#327,#360,#391,#491,#523,#613,#625,#642,#659,#676,#693,#710,#727,#744,#756));
#758=MANIFOLD_SOLID_BREP('486',#757);
#759=COLOUR_RGB('254',0.866000000000000,0.866000000000000,0.866000000000000);
#760=SURFACE_STYLE_USAGE(.BOTH.,#761);
#761=SURFACE_SIDE_STYLE('NONE',(#762));
#762=SURFACE_STYLE_FILL_AREA(#763);
#763=FILL_AREA_STYLE('NONE',(#764));
#764=FILL_AREA_STYLE_COLOUR('NONE',#759);
#765=PRESENTATION_STYLE_ASSIGNMENT((#760));
#766=STYLED_ITEM('NONE',(#765),#758);
#767=MECHANICAL_DESIGN_GEOMETRIC_PRESENTATION_REPRESENTATION('NONE',(#766),#28);
#768=PRESENTATION_LAYER_ASSIGNMENT('3D','None',(#758));
#769=ADVANCED_BREP_SHAPE_REPRESENTATION('ABSR1',(#758),#28);
#770=SHAPE_REPRESENTATION_RELATIONSHIP('SRRPL1','',#769,#62);
ENDSEC;
END-ISO-10303-21;
