ISO-10303-21;
HEADER;
/****************************************************************
 * Generated by software with PDE/Lib inside                    *
 * PDElib Version v51a, created Mon 11/23/2009                  *
 * ITI Transcendata (http://www.transcendata.com/)              *
 ****************************************************************/
FILE_DESCRIPTION((''),'2;1');
FILE_NAME('CORECL_FERROXCUBE_CLM-E14-PLT14.stp','2011-01-26T16:32:50',(''),(''),'Mechanical Desktop 2011','Mechanical Desktop 2011',', , ');
FILE_SCHEMA(('AUTOMOTIVE_DESIGN { 1 2 10303 214 1 1 1 1 }'));
ENDSEC;
DATA;
#10=(NAMED_UNIT(*)PLANE_ANGLE_UNIT()SI_UNIT($,.RADIAN.));
#11=DIMENSIONAL_EXPONENTS(0.0,0.0,0.0,0.0,0.0,0.0,0.0);
#12=PLANE_ANGLE_MEASURE_WITH_UNIT(PLANE_ANGLE_MEASURE(0.017453292500000),#10);
#16=(CONVERSION_BASED_UNIT('DEGREE',#12)NAMED_UNIT(#11)PLANE_ANGLE_UNIT());
#20=(NAMED_UNIT(*)SI_UNIT($,.STERADIAN.)SOLID_ANGLE_UNIT());
#24=(LENGTH_UNIT()NAMED_UNIT(*)SI_UNIT(.MILLI.,.METRE.));
#26=UNCERTAINTY_MEASURE_WITH_UNIT(LENGTH_MEASURE(0.000001000000000),#24,'DISTANCE_ACCURACY_VALUE','');
#28=(GEOMETRIC_REPRESENTATION_CONTEXT(3)GLOBAL_UNCERTAINTY_ASSIGNED_CONTEXT((#26))GLOBAL_UNIT_ASSIGNED_CONTEXT((#16,#20,#24))REPRESENTATION_CONTEXT('','3D'));
#29=APPLICATION_CONTEXT('automotive design');
#30=APPLICATION_PROTOCOL_DEFINITION('INTERNATIONAL_STANDARD','automotive_design',1998,#29);
#31=PRODUCT_CONTEXT('3D Mechanical Parts',#29,'mechanical');
#32=PRODUCT('Product','Product','',(#31));
#33=PRODUCT_RELATED_PRODUCT_CATEGORY('part',$,(#32));
#34=PRODUCT_CATEGORY('part',$);
#35=PERSON('1','Design','Joe',$,$,$);
#36=ORGANIZATION($,'None','None');
#37=PERSON_AND_ORGANIZATION(#35,#36);
#38=PERSON_AND_ORGANIZATION_ROLE('design_owner');
#39=APPLIED_PERSON_AND_ORGANIZATION_ASSIGNMENT(#37,#38,(#32));
#40=PRODUCT_DEFINITION_FORMATION_WITH_SPECIFIED_SOURCE('None','',#32,.BOUGHT.);
#41=PERSON('2','Creator','Joe',$,$,$);
#42=ORGANIZATION($,'None','None');
#43=PERSON_AND_ORGANIZATION(#41,#42);
#44=PERSON_AND_ORGANIZATION_ROLE('creator');
#45=APPLIED_PERSON_AND_ORGANIZATION_ASSIGNMENT(#43,#44,(#40));
#46=PERSON('3','Supplier','Joe',$,$,$);
#47=ORGANIZATION($,'None','None');
#48=PERSON_AND_ORGANIZATION(#46,#47);
#49=PERSON_AND_ORGANIZATION_ROLE('design_supplier');
#50=APPLIED_PERSON_AND_ORGANIZATION_ASSIGNMENT(#48,#49,(#40));
#51=PRODUCT_DEFINITION_CONTEXT('part definition',#29,'design');
#52=PRODUCT_DEFINITION('None','',#40,#51);
#53=PERSON('4','Creator','Joe',$,$,$);
#54=ORGANIZATION($,'None','None');
#55=PERSON_AND_ORGANIZATION(#53,#54);
#56=PERSON_AND_ORGANIZATION_ROLE('creator');
#57=APPLIED_PERSON_AND_ORGANIZATION_ASSIGNMENT(#55,#56,(#52));
#58=CARTESIAN_POINT('NONE',(0.0,0.0,0.0));
#59=DIRECTION('NONE',(0.0,0.0,1.0));
#60=DIRECTION('NONE',(1.0,0.0,0.0));
#61=AXIS2_PLACEMENT_3D('NONE',#58,#59,#60);
#62=SHAPE_REPRESENTATION('SR1',(#61),#28);
#63=PRODUCT_DEFINITION_SHAPE('PDS1','Test Part',#52);
#64=SHAPE_DEFINITION_REPRESENTATION(#63,#62);
#65=CARTESIAN_POINT('',(-3.552714E-015,1.100000000000009,-3.650000000000001));
#66=CARTESIAN_POINT('',(6.975000000000005,1.100000000000009,-3.650000000000000));
#67=CARTESIAN_POINT('',(-3.552714E-015,-1.099999999999994,-3.650000000000001));
#68=CARTESIAN_POINT('',(6.975000000000005,-1.099999999999994,-3.650000000000000));
#69=B_SPLINE_SURFACE_WITH_KNOTS('',1,1,((#65,#67),(#66,#68)),.UNSPECIFIED.,.F.,.F.,.U.,(2,2),(2,2),(0.0,6.975000000000009),(0.0,2.200000000000003),.UNSPECIFIED.);
#70=CARTESIAN_POINT('',(-3.552714E-015,1.100000000000009,-3.650000000000000));
#71=VERTEX_POINT('',#70);
#72=CARTESIAN_POINT('',(0.0,-1.099999999999991,-3.650000000000000));
#73=VERTEX_POINT('',#72);
#74=CARTESIAN_POINT('',(-1.221245E-016,1.100000000000009,-3.650000000000000));
#75=DIRECTION('',(0.0,-1.0,0.0));
#76=VECTOR('',#75,2.199999999999999);
#77=LINE('',#74,#76);
#78=EDGE_CURVE('',#71,#73,#77,.T.);
#79=ORIENTED_EDGE('',*,*,#78,.F.);
#80=CARTESIAN_POINT('',(6.975000000000005,1.100000000000005,-3.649999999999999));
#81=VERTEX_POINT('',#80);
#82=CARTESIAN_POINT('',(6.975000000000005,1.100000000000005,-3.649999999999999));
#83=DIRECTION('',(-1.0,0.0,0.0));
#84=VECTOR('',#83,6.975000000000003);
#85=LINE('',#82,#84);
#86=EDGE_CURVE('',#81,#71,#85,.T.);
#87=ORIENTED_EDGE('',*,*,#86,.F.);
#88=CARTESIAN_POINT('',(6.975000000000005,-1.099999999999994,-3.649999999999999));
#89=VERTEX_POINT('',#88);
#90=CARTESIAN_POINT('',(6.975000000000005,1.100000000000005,-3.649999999999999));
#91=DIRECTION('',(0.0,-1.0,0.0));
#92=VECTOR('',#91,2.199999999999999);
#93=LINE('',#90,#92);
#94=EDGE_CURVE('',#81,#89,#93,.T.);
#95=ORIENTED_EDGE('',*,*,#94,.T.);
#96=CARTESIAN_POINT('',(-3.552714E-015,-1.099999999999994,-3.650000000000000));
#97=DIRECTION('',(1.0,0.0,0.0));
#98=VECTOR('',#97,6.975000000000001);
#99=LINE('',#96,#98);
#100=EDGE_CURVE('',#73,#89,#99,.T.);
#101=ORIENTED_EDGE('',*,*,#100,.F.);
#102=EDGE_LOOP('',(#79,#87,#95,#101));
#103=FACE_OUTER_BOUND('',#102,.T.);
#104=ADVANCED_FACE('',(#103),#69,.T.);
#105=CARTESIAN_POINT('',(7.575000000000006,-1.099999999999994,0.200000000000001));
#106=CARTESIAN_POINT('',(7.575000000000007,-1.099999999999994,-3.650000000000001));
#107=CARTESIAN_POINT('',(0.0,-1.099999999999994,0.200000000000000));
#108=CARTESIAN_POINT('',(8.881784E-016,-1.099999999999994,-3.650000000000002));
#109=B_SPLINE_SURFACE_WITH_KNOTS('',1,1,((#105,#107),(#106,#108)),.UNSPECIFIED.,.F.,.F.,.U.,(2,2),(2,2),(0.0,3.850000000000002),(0.0,7.575000000000006),.UNSPECIFIED.);
#110=CARTESIAN_POINT('',(0.0,-1.099999999999991,-3.250000000000002));
#111=VERTEX_POINT('',#110);
#112=CARTESIAN_POINT('',(0.0,-1.099999999999994,-3.650000000000000));
#113=DIRECTION('',(0.0,0.0,1.0));
#114=VECTOR('',#113,0.399999999999999);
#115=LINE('',#112,#114);
#116=EDGE_CURVE('',#73,#111,#115,.T.);
#117=ORIENTED_EDGE('',*,*,#116,.F.);
#118=ORIENTED_EDGE('',*,*,#100,.T.);
#119=CARTESIAN_POINT('',(7.574999999999999,-1.099999999999994,-3.050000000000001));
#120=VERTEX_POINT('',#119);
#121=CARTESIAN_POINT('',(6.975000000000005,-1.099999999999994,-3.050000000000001));
#122=DIRECTION('',(0.0,-1.000000000000000,0.0));
#123=DIRECTION('',(0.707106781186546,0.0,-0.707106781186548));
#124=AXIS2_PLACEMENT_3D('',#121,#122,#123);
#125=CIRCLE('',#124,0.600000000000001);
#126=EDGE_CURVE('',#89,#120,#125,.T.);
#127=ORIENTED_EDGE('',*,*,#126,.T.);
#128=CARTESIAN_POINT('',(7.575000000000006,-1.099999999999994,0.200000000000000));
#129=VERTEX_POINT('',#128);
#130=CARTESIAN_POINT('',(7.575000000000000,-1.099999999999994,-3.050000000000001));
#131=DIRECTION('',(0.0,0.0,1.0));
#132=VECTOR('',#131,3.250000000000001);
#133=LINE('',#130,#132);
#134=EDGE_CURVE('',#120,#129,#133,.T.);
#135=ORIENTED_EDGE('',*,*,#134,.T.);
#136=CARTESIAN_POINT('',(7.175000000000001,-1.099999999999991,0.200000000000000));
#137=VERTEX_POINT('',#136);
#138=CARTESIAN_POINT('',(7.174999999999999,-1.099999999999994,0.200000000000000));
#139=DIRECTION('',(1.0,0.0,0.0));
#140=VECTOR('',#139,0.400000000000006);
#141=LINE('',#138,#140);
#142=EDGE_CURVE('',#137,#129,#141,.T.);
#143=ORIENTED_EDGE('',*,*,#142,.F.);
#144=CARTESIAN_POINT('',(7.175000000000001,-1.099999999999994,-3.050000000000001));
#145=VERTEX_POINT('',#144);
#146=CARTESIAN_POINT('',(7.175000000000001,-1.099999999999994,0.200000000000000));
#147=DIRECTION('',(0.0,0.0,-1.0));
#148=VECTOR('',#147,3.250000000000001);
#149=LINE('',#146,#148);
#150=EDGE_CURVE('',#137,#145,#149,.T.);
#151=ORIENTED_EDGE('',*,*,#150,.T.);
#152=CARTESIAN_POINT('',(6.975000000000005,-1.099999999999994,-3.250000000000000));
#153=VERTEX_POINT('',#152);
#154=CARTESIAN_POINT('',(6.975000000000005,-1.099999999999994,-3.050000000000001));
#155=DIRECTION('',(0.0,1.0,0.0));
#156=DIRECTION('',(0.707106781186548,0.0,-0.707106781186547));
#157=AXIS2_PLACEMENT_3D('',#154,#155,#156);
#158=CIRCLE('',#157,0.199999999999999);
#159=EDGE_CURVE('',#145,#153,#158,.T.);
#160=ORIENTED_EDGE('',*,*,#159,.T.);
#161=CARTESIAN_POINT('',(6.975000000000003,-1.099999999999994,-3.250000000000003));
#162=DIRECTION('',(-1.0,0.0,0.0));
#163=VECTOR('',#162,6.975000000000001);
#164=LINE('',#161,#163);
#165=EDGE_CURVE('',#153,#111,#164,.T.);
#166=ORIENTED_EDGE('',*,*,#165,.T.);
#167=EDGE_LOOP('',(#117,#118,#127,#135,#143,#151,#160,#166));
#168=FACE_OUTER_BOUND('',#167,.T.);
#169=ADVANCED_FACE('',(#168),#109,.F.);
#170=CARTESIAN_POINT('',(6.975000000000005,1.100000000000009,-3.250000000000000));
#171=CARTESIAN_POINT('',(-3.552714E-015,1.100000000000009,-3.250000000000000));
#172=CARTESIAN_POINT('',(6.975000000000005,-1.099999999999994,-3.250000000000000));
#173=CARTESIAN_POINT('',(-3.552714E-015,-1.099999999999994,-3.250000000000000));
#174=B_SPLINE_SURFACE_WITH_KNOTS('',1,1,((#170,#172),(#171,#173)),.UNSPECIFIED.,.F.,.F.,.U.,(2,2),(2,2),(0.0,6.975000000000009),(0.0,2.200000000000003),.UNSPECIFIED.);
#175=CARTESIAN_POINT('',(-3.552714E-015,1.100000000000009,-3.250000000000002));
#176=VERTEX_POINT('',#175);
#177=CARTESIAN_POINT('',(3.663736E-016,-1.099999999999991,-3.250000000000000));
#178=DIRECTION('',(0.0,1.0,0.0));
#179=VECTOR('',#178,2.199999999999999);
#180=LINE('',#177,#179);
#181=EDGE_CURVE('',#111,#176,#180,.T.);
#182=ORIENTED_EDGE('',*,*,#181,.F.);
#183=ORIENTED_EDGE('',*,*,#165,.F.);
#184=CARTESIAN_POINT('',(6.975000000000005,1.100000000000005,-3.250000000000000));
#185=VERTEX_POINT('',#184);
#186=CARTESIAN_POINT('',(6.975000000000005,1.100000000000005,-3.250000000000000));
#187=DIRECTION('',(0.0,-1.0,0.0));
#188=VECTOR('',#187,2.199999999999999);
#189=LINE('',#186,#188);
#190=EDGE_CURVE('',#185,#153,#189,.T.);
#191=ORIENTED_EDGE('',*,*,#190,.F.);
#192=CARTESIAN_POINT('',(-1.776357E-015,1.100000000000005,-3.250000000000002));
#193=DIRECTION('',(1.0,0.0,0.0));
#194=VECTOR('',#193,6.975000000000003);
#195=LINE('',#192,#194);
#196=EDGE_CURVE('',#176,#185,#195,.T.);
#197=ORIENTED_EDGE('',*,*,#196,.F.);
#198=EDGE_LOOP('',(#182,#183,#191,#197));
#199=FACE_OUTER_BOUND('',#198,.T.);
#200=ADVANCED_FACE('',(#199),#174,.T.);
#201=CARTESIAN_POINT('',(7.575000000000006,1.100000000000001,0.200000000000001));
#202=CARTESIAN_POINT('',(7.575000000000007,1.100000000000001,-3.650000000000001));
#203=CARTESIAN_POINT('',(-3.552714E-015,1.100000000000001,0.200000000000000));
#204=CARTESIAN_POINT('',(-2.664535E-015,1.100000000000001,-3.650000000000002));
#205=B_SPLINE_SURFACE_WITH_KNOTS('',1,1,((#201,#203),(#202,#204)),.UNSPECIFIED.,.F.,.F.,.U.,(2,2),(2,2),(0.0,3.850000000000002),(0.0,7.575000000000010),.UNSPECIFIED.);
#206=CARTESIAN_POINT('',(0.0,1.100000000000001,-3.250000000000002));
#207=DIRECTION('',(0.0,0.0,-1.0));
#208=VECTOR('',#207,0.399999999999999);
#209=LINE('',#206,#208);
#210=EDGE_CURVE('',#176,#71,#209,.T.);
#211=ORIENTED_EDGE('',*,*,#210,.F.);
#212=ORIENTED_EDGE('',*,*,#196,.T.);
#213=CARTESIAN_POINT('',(7.175000000000001,1.100000000000005,-3.050000000000001));
#214=VERTEX_POINT('',#213);
#215=CARTESIAN_POINT('',(6.975000000000005,1.100000000000005,-3.050000000000001));
#216=DIRECTION('',(0.0,-1.0,0.0));
#217=DIRECTION('',(0.707106781186548,0.0,-0.707106781186547));
#218=AXIS2_PLACEMENT_3D('',#215,#216,#217);
#219=CIRCLE('',#218,0.199999999999999);
#220=EDGE_CURVE('',#185,#214,#219,.T.);
#221=ORIENTED_EDGE('',*,*,#220,.T.);
#222=CARTESIAN_POINT('',(7.175000000000001,1.100000000000005,0.200000000000000));
#223=VERTEX_POINT('',#222);
#224=CARTESIAN_POINT('',(7.175000000000001,1.100000000000005,-3.050000000000001));
#225=DIRECTION('',(0.0,0.0,1.0));
#226=VECTOR('',#225,3.250000000000001);
#227=LINE('',#224,#226);
#228=EDGE_CURVE('',#214,#223,#227,.T.);
#229=ORIENTED_EDGE('',*,*,#228,.T.);
#230=CARTESIAN_POINT('',(7.575000000000006,1.100000000000005,0.200000000000000));
#231=VERTEX_POINT('',#230);
#232=CARTESIAN_POINT('',(7.575000000000006,1.100000000000001,0.200000000000000));
#233=DIRECTION('',(-1.0,0.0,0.0));
#234=VECTOR('',#233,0.400000000000006);
#235=LINE('',#232,#234);
#236=EDGE_CURVE('',#231,#223,#235,.T.);
#237=ORIENTED_EDGE('',*,*,#236,.F.);
#238=CARTESIAN_POINT('',(7.574999999999999,1.100000000000005,-3.050000000000001));
#239=VERTEX_POINT('',#238);
#240=CARTESIAN_POINT('',(7.574999999999999,1.100000000000005,0.200000000000000));
#241=DIRECTION('',(0.0,0.0,-1.0));
#242=VECTOR('',#241,3.250000000000001);
#243=LINE('',#240,#242);
#244=EDGE_CURVE('',#231,#239,#243,.T.);
#245=ORIENTED_EDGE('',*,*,#244,.T.);
#246=CARTESIAN_POINT('',(6.975000000000005,1.100000000000005,-3.050000000000001));
#247=DIRECTION('',(0.0,1.000000000000000,0.0));
#248=DIRECTION('',(0.707106781186546,0.0,-0.707106781186548));
#249=AXIS2_PLACEMENT_3D('',#246,#247,#248);
#250=CIRCLE('',#249,0.600000000000001);
#251=EDGE_CURVE('',#239,#81,#250,.T.);
#252=ORIENTED_EDGE('',*,*,#251,.T.);
#253=ORIENTED_EDGE('',*,*,#86,.T.);
#254=EDGE_LOOP('',(#211,#212,#221,#229,#237,#245,#252,#253));
#255=FACE_OUTER_BOUND('',#254,.T.);
#256=ADVANCED_FACE('',(#255),#205,.T.);
#257=CARTESIAN_POINT('',(0.0,7.105427E-015,-3.450000000000001));
#258=DIRECTION('',(-1.0,0.0,0.0));
#259=DIRECTION('',(0.0,0.0,-1.0));
#260=AXIS2_PLACEMENT_3D('',#257,#258,#259);
#261=PLANE('',#260);
#262=ORIENTED_EDGE('',*,*,#210,.T.);
#263=ORIENTED_EDGE('',*,*,#78,.T.);
#264=ORIENTED_EDGE('',*,*,#116,.T.);
#265=ORIENTED_EDGE('',*,*,#181,.T.);
#266=EDGE_LOOP('',(#262,#263,#264,#265));
#267=FACE_OUTER_BOUND('',#266,.T.);
#268=ADVANCED_FACE('',(#267),#261,.T.);
#269=CARTESIAN_POINT('',(7.574999999999999,1.100000000000005,-3.050000000000001));
#270=CARTESIAN_POINT('',(7.574999999999999,1.100000000000005,0.200000000000000));
#271=CARTESIAN_POINT('',(7.574999999999999,-1.099999999999994,-3.050000000000001));
#272=CARTESIAN_POINT('',(7.574999999999999,-1.099999999999994,0.200000000000000));
#273=B_SPLINE_SURFACE_WITH_KNOTS('',1,1,((#269,#271),(#270,#272)),.UNSPECIFIED.,.F.,.F.,.U.,(2,2),(2,2),(0.0,3.250000000000001),(0.0,2.199999999999999),.UNSPECIFIED.);
#274=CARTESIAN_POINT('',(7.574999999999999,-1.099999999999994,0.200000000000000));
#275=DIRECTION('',(0.0,1.0,0.0));
#276=VECTOR('',#275,2.199999999999999);
#277=LINE('',#274,#276);
#278=EDGE_CURVE('',#129,#231,#277,.T.);
#279=ORIENTED_EDGE('',*,*,#278,.F.);
#280=ORIENTED_EDGE('',*,*,#134,.F.);
#281=CARTESIAN_POINT('',(7.574999999999999,1.100000000000005,-3.050000000000001));
#282=DIRECTION('',(0.0,-1.0,0.0));
#283=VECTOR('',#282,2.199999999999999);
#284=LINE('',#281,#283);
#285=EDGE_CURVE('',#239,#120,#284,.T.);
#286=ORIENTED_EDGE('',*,*,#285,.F.);
#287=ORIENTED_EDGE('',*,*,#244,.F.);
#288=EDGE_LOOP('',(#279,#280,#286,#287));
#289=FACE_OUTER_BOUND('',#288,.T.);
#290=ADVANCED_FACE('',(#289),#273,.T.);
#291=CARTESIAN_POINT('',(7.175000000000001,1.100000000000005,0.200000000000000));
#292=CARTESIAN_POINT('',(7.175000000000001,1.100000000000005,-3.050000000000001));
#293=CARTESIAN_POINT('',(7.175000000000001,-1.099999999999994,0.200000000000000));
#294=CARTESIAN_POINT('',(7.175000000000001,-1.099999999999994,-3.050000000000001));
#295=B_SPLINE_SURFACE_WITH_KNOTS('',1,1,((#291,#293),(#292,#294)),.UNSPECIFIED.,.F.,.F.,.U.,(2,2),(2,2),(0.0,3.250000000000001),(0.0,2.199999999999999),.UNSPECIFIED.);
#296=CARTESIAN_POINT('',(7.175000000000001,1.100000000000005,0.200000000000000));
#297=DIRECTION('',(0.0,-1.0,0.0));
#298=VECTOR('',#297,2.199999999999996);
#299=LINE('',#296,#298);
#300=EDGE_CURVE('',#223,#137,#299,.T.);
#301=ORIENTED_EDGE('',*,*,#300,.F.);
#302=ORIENTED_EDGE('',*,*,#228,.F.);
#303=CARTESIAN_POINT('',(7.175000000000001,1.100000000000005,-3.050000000000001));
#304=DIRECTION('',(0.0,-1.0,0.0));
#305=VECTOR('',#304,2.199999999999999);
#306=LINE('',#303,#305);
#307=EDGE_CURVE('',#214,#145,#306,.T.);
#308=ORIENTED_EDGE('',*,*,#307,.T.);
#309=ORIENTED_EDGE('',*,*,#150,.F.);
#310=EDGE_LOOP('',(#301,#302,#308,#309));
#311=FACE_OUTER_BOUND('',#310,.T.);
#312=ADVANCED_FACE('',(#311),#295,.T.);
#313=CARTESIAN_POINT('',(7.175000000000001,1.100000000000005,0.200000000000000));
#314=CARTESIAN_POINT('',(7.175000000000002,-1.099999999999994,0.200000000000000));
#315=CARTESIAN_POINT('',(7.575000000000006,1.100000000000005,0.200000000000000));
#316=CARTESIAN_POINT('',(7.575000000000006,-1.099999999999994,0.200000000000000));
#317=B_SPLINE_SURFACE_WITH_KNOTS('',1,1,((#313,#315),(#314,#316)),.UNSPECIFIED.,.F.,.F.,.U.,(2,2),(2,2),(0.0,2.199999999999999),(0.0,0.400000000000006),.UNSPECIFIED.);
#318=ORIENTED_EDGE('',*,*,#300,.T.);
#319=ORIENTED_EDGE('',*,*,#142,.T.);
#320=ORIENTED_EDGE('',*,*,#278,.T.);
#321=ORIENTED_EDGE('',*,*,#236,.T.);
#322=EDGE_LOOP('',(#318,#319,#320,#321));
#323=FACE_OUTER_BOUND('',#322,.T.);
#324=ADVANCED_FACE('',(#323),#317,.T.);
#325=CARTESIAN_POINT('',(6.550735931288076,1.100000000000005,-2.625735931288071));
#326=CARTESIAN_POINT('',(6.550735931288076,-1.099999999999994,-2.625735931288071));
#327=CARTESIAN_POINT('',(6.975000000000006,1.100000000000005,-2.201471862576143));
#328=CARTESIAN_POINT('',(6.975000000000006,-1.099999999999994,-2.201471862576143));
#329=CARTESIAN_POINT('',(7.399264068711934,1.100000000000005,-2.625735931288072));
#330=CARTESIAN_POINT('',(7.399264068711934,-1.099999999999994,-2.625735931288072));
#331=CARTESIAN_POINT('',(7.823528137423864,1.100000000000005,-3.050000000000001));
#332=CARTESIAN_POINT('',(7.823528137423864,-1.099999999999994,-3.050000000000001));
#333=CARTESIAN_POINT('',(7.399264068711934,1.100000000000005,-3.474264068711930));
#334=CARTESIAN_POINT('',(7.399264068711934,-1.099999999999994,-3.474264068711930));
#335=CARTESIAN_POINT('',(6.975000000000005,1.100000000000005,-3.898528137423859));
#336=CARTESIAN_POINT('',(6.975000000000005,-1.099999999999994,-3.898528137423859));
#337=CARTESIAN_POINT('',(6.550735931288076,1.100000000000005,-3.474264068711929));
#338=CARTESIAN_POINT('',(6.550735931288076,-1.099999999999994,-3.474264068711929));
#339=CARTESIAN_POINT('',(6.126471862576147,1.100000000000005,-3.050000000000000));
#340=CARTESIAN_POINT('',(6.126471862576147,-1.099999999999994,-3.050000000000000));
#341=CARTESIAN_POINT('',(6.550735931288076,1.100000000000005,-2.625735931288071));
#342=CARTESIAN_POINT('',(6.550735931288076,-1.099999999999994,-2.625735931288071));
#350=(BOUNDED_SURFACE()B_SPLINE_SURFACE(1,2,((#325,#327,#329,#331,#333,#335,#337,#339,#341),(#326,#328,#330,#332,#334,#336,#338,#340,#342)),.UNSPECIFIED.,.F.,.T.,.U.)B_SPLINE_SURFACE_WITH_KNOTS((2,2),(3,2,2,2,3),(0.0,3.666666666666662),(0.0,0.942477796076939,1.884955592153878,2.827433388230817,3.769911184307756),.UNSPECIFIED.)GEOMETRIC_REPRESENTATION_ITEM()RATIONAL_B_SPLINE_SURFACE(((1.0,0.707106781186548,1.0,0.707106781186548,1.0,0.707106781186548,1.0,0.707106781186548,1.0),(1.0,0.707106781186548,1.0,0.707106781186548,1.0,0.707106781186548,1.0,0.707106781186548,1.0)))REPRESENTATION_ITEM('')SURFACE());
#351=ORIENTED_EDGE('',*,*,#126,.F.);
#352=ORIENTED_EDGE('',*,*,#94,.F.);
#353=ORIENTED_EDGE('',*,*,#251,.F.);
#354=ORIENTED_EDGE('',*,*,#285,.T.);
#355=EDGE_LOOP('',(#351,#352,#353,#354));
#356=FACE_OUTER_BOUND('',#355,.T.);
#357=ADVANCED_FACE('',(#356),#350,.T.);
#358=CARTESIAN_POINT('',(6.833578643762696,-1.099999999999994,-2.908578643762692));
#359=CARTESIAN_POINT('',(6.833578643762696,1.100000000000005,-2.908578643762692));
#360=CARTESIAN_POINT('',(6.975000000000005,-1.099999999999994,-2.767157287525382));
#361=CARTESIAN_POINT('',(6.975000000000005,1.100000000000005,-2.767157287525382));
#362=CARTESIAN_POINT('',(7.116421356237314,-1.099999999999994,-2.908578643762692));
#363=CARTESIAN_POINT('',(7.116421356237314,1.100000000000005,-2.908578643762692));
#364=CARTESIAN_POINT('',(7.257842712474623,-1.099999999999994,-3.050000000000001));
#365=CARTESIAN_POINT('',(7.257842712474623,1.100000000000005,-3.050000000000001));
#366=CARTESIAN_POINT('',(7.116421356237314,-1.099999999999994,-3.191421356237310));
#367=CARTESIAN_POINT('',(7.116421356237314,1.100000000000005,-3.191421356237310));
#368=CARTESIAN_POINT('',(6.975000000000005,-1.099999999999994,-3.332842712474619));
#369=CARTESIAN_POINT('',(6.975000000000005,1.100000000000005,-3.332842712474619));
#370=CARTESIAN_POINT('',(6.833578643762696,-1.099999999999994,-3.191421356237310));
#371=CARTESIAN_POINT('',(6.833578643762696,1.100000000000005,-3.191421356237310));
#372=CARTESIAN_POINT('',(6.692157287525387,-1.099999999999994,-3.050000000000001));
#373=CARTESIAN_POINT('',(6.692157287525387,1.100000000000005,-3.050000000000001));
#374=CARTESIAN_POINT('',(6.833578643762696,-1.099999999999994,-2.908578643762692));
#375=CARTESIAN_POINT('',(6.833578643762696,1.100000000000005,-2.908578643762692));
#383=(BOUNDED_SURFACE()B_SPLINE_SURFACE(1,2,((#358,#360,#362,#364,#366,#368,#370,#372,#374),(#359,#361,#363,#365,#367,#369,#371,#373,#375)),.UNSPECIFIED.,.F.,.T.,.U.)B_SPLINE_SURFACE_WITH_KNOTS((2,2),(3,2,2,2,3),(-11.000000000000036,0.0),(0.0,0.314159265358978,0.628318530717956,0.942477796076935,1.256637061435913),.UNSPECIFIED.)GEOMETRIC_REPRESENTATION_ITEM()RATIONAL_B_SPLINE_SURFACE(((1.0,0.707106781186548,1.0,0.707106781186548,1.0,0.707106781186548,1.0,0.707106781186548,1.0),(1.0,0.707106781186548,1.0,0.707106781186548,1.0,0.707106781186548,1.0,0.707106781186548,1.0)))REPRESENTATION_ITEM('')SURFACE());
#384=ORIENTED_EDGE('',*,*,#159,.F.);
#385=ORIENTED_EDGE('',*,*,#307,.F.);
#386=ORIENTED_EDGE('',*,*,#220,.F.);
#387=ORIENTED_EDGE('',*,*,#190,.T.);
#388=EDGE_LOOP('',(#384,#385,#386,#387));
#389=FACE_OUTER_BOUND('',#388,.T.);
#390=ADVANCED_FACE('',(#389),#383,.T.);
#391=CLOSED_SHELL('',(#104,#169,#200,#256,#268,#290,#312,#324,#357,#390));
#392=MANIFOLD_SOLID_BREP('AA4',#391);
#393=COLOUR_RGB('254',0.866000000000000,0.866000000000000,0.866000000000000);
#394=SURFACE_STYLE_USAGE(.BOTH.,#395);
#395=SURFACE_SIDE_STYLE('NONE',(#396));
#396=SURFACE_STYLE_FILL_AREA(#397);
#397=FILL_AREA_STYLE('NONE',(#398));
#398=FILL_AREA_STYLE_COLOUR('NONE',#393);
#399=PRESENTATION_STYLE_ASSIGNMENT((#394));
#400=STYLED_ITEM('NONE',(#399),#392);
#401=MECHANICAL_DESIGN_GEOMETRIC_PRESENTATION_REPRESENTATION('NONE',(#400,#731,#1018,#1305),#28);
#402=PRESENTATION_LAYER_ASSIGNMENT('3D','None',(#392,#730,#1017,#1304));
#403=CARTESIAN_POINT('',(7.174999999999994,1.100000000000001,0.200000000000002));
#404=CARTESIAN_POINT('',(7.174999999999995,-1.100000000000001,0.200000000000002));
#405=CARTESIAN_POINT('',(7.574999999999999,1.100000000000001,0.200000000000002));
#406=CARTESIAN_POINT('',(7.574999999999999,-1.100000000000001,0.200000000000002));
#407=B_SPLINE_SURFACE_WITH_KNOTS('',1,1,((#403,#405),(#404,#406)),.UNSPECIFIED.,.F.,.F.,.U.,(2,2),(2,2),(0.0,2.200000000000003),(0.0,0.400000000000006),.UNSPECIFIED.);
#408=CARTESIAN_POINT('',(7.174999999999994,-1.100000000000001,0.200000000000002));
#409=VERTEX_POINT('',#408);
#410=CARTESIAN_POINT('',(7.174999999999994,1.100000000000001,0.200000000000002));
#411=VERTEX_POINT('',#410);
#412=CARTESIAN_POINT('',(7.174999999999994,-1.100000000000001,0.200000000000002));
#413=DIRECTION('',(0.0,1.0,0.0));
#414=VECTOR('',#413,2.200000000000003);
#415=LINE('',#412,#414);
#416=EDGE_CURVE('',#409,#411,#415,.T.);
#417=ORIENTED_EDGE('',*,*,#416,.T.);
#418=CARTESIAN_POINT('',(7.574999999999999,1.099999999999998,0.200000000000002));
#419=VERTEX_POINT('',#418);
#420=CARTESIAN_POINT('',(7.174999999999994,1.099999999999994,0.200000000000002));
#421=DIRECTION('',(1.0,0.0,0.0));
#422=VECTOR('',#421,0.400000000000006);
#423=LINE('',#420,#422);
#424=EDGE_CURVE('',#411,#419,#423,.T.);
#425=ORIENTED_EDGE('',*,*,#424,.T.);
#426=CARTESIAN_POINT('',(7.574999999999999,-1.100000000000001,0.200000000000002));
#427=VERTEX_POINT('',#426);
#428=CARTESIAN_POINT('',(7.574999999999999,1.099999999999998,0.200000000000002));
#429=DIRECTION('',(0.0,-1.0,0.0));
#430=VECTOR('',#429,2.199999999999999);
#431=LINE('',#428,#430);
#432=EDGE_CURVE('',#419,#427,#431,.T.);
#433=ORIENTED_EDGE('',*,*,#432,.T.);
#434=CARTESIAN_POINT('',(7.575000000000001,-1.100000000000001,0.200000000000002));
#435=DIRECTION('',(-1.0,0.0,0.0));
#436=VECTOR('',#435,0.400000000000006);
#437=LINE('',#434,#436);
#438=EDGE_CURVE('',#427,#409,#437,.T.);
#439=ORIENTED_EDGE('',*,*,#438,.T.);
#440=EDGE_LOOP('',(#417,#425,#433,#439));
#441=FACE_OUTER_BOUND('',#440,.T.);
#442=ADVANCED_FACE('',(#441),#407,.F.);
#443=CARTESIAN_POINT('',(7.574999999999999,1.099999999999994,1.350000000000003));
#444=CARTESIAN_POINT('',(7.574999999999999,1.099999999999994,0.200000000000002));
#445=CARTESIAN_POINT('',(6.175000000000001,1.099999999999994,1.350000000000003));
#446=CARTESIAN_POINT('',(6.175000000000001,1.099999999999994,0.200000000000002));
#447=B_SPLINE_SURFACE_WITH_KNOTS('',1,1,((#443,#445),(#444,#446)),.UNSPECIFIED.,.F.,.F.,.U.,(2,2),(2,2),(0.0,1.150000000000002),(0.0,1.399999999999999),.UNSPECIFIED.);
#448=ORIENTED_EDGE('',*,*,#424,.F.);
#449=CARTESIAN_POINT('',(7.174999999999994,1.099999999999998,0.750000000000002));
#450=VERTEX_POINT('',#449);
#451=CARTESIAN_POINT('',(7.174999999999993,1.099999999999998,0.200000000000002));
#452=DIRECTION('',(0.0,0.0,1.0));
#453=VECTOR('',#452,0.550000000000000);
#454=LINE('',#451,#453);
#455=EDGE_CURVE('',#411,#450,#454,.T.);
#456=ORIENTED_EDGE('',*,*,#455,.T.);
#457=CARTESIAN_POINT('',(6.974999999999998,1.099999999999998,0.950000000000001));
#458=VERTEX_POINT('',#457);
#459=CARTESIAN_POINT('',(6.974999999999998,1.099999999999998,0.750000000000002));
#460=DIRECTION('',(0.0,-1.0,0.0));
#461=DIRECTION('',(0.707106781186547,0.0,0.707106781186548));
#462=AXIS2_PLACEMENT_3D('',#459,#460,#461);
#463=CIRCLE('',#462,0.199999999999999);
#464=EDGE_CURVE('',#450,#458,#463,.T.);
#465=ORIENTED_EDGE('',*,*,#464,.T.);
#466=CARTESIAN_POINT('',(6.175000000000001,1.099999999999998,0.949999999999997));
#467=VERTEX_POINT('',#466);
#468=CARTESIAN_POINT('',(6.974999999999998,1.099999999999998,0.950000000000001));
#469=DIRECTION('',(-1.0,0.0,0.0));
#470=VECTOR('',#469,0.799999999999997);
#471=LINE('',#468,#470);
#472=EDGE_CURVE('',#458,#467,#471,.T.);
#473=ORIENTED_EDGE('',*,*,#472,.T.);
#474=CARTESIAN_POINT('',(6.175000000000001,1.099999999999998,1.350000000000003));
#475=VERTEX_POINT('',#474);
#476=CARTESIAN_POINT('',(6.175000000000001,1.099999999999998,0.949999999999997));
#477=DIRECTION('',(0.0,0.0,1.0));
#478=VECTOR('',#477,0.400000000000006);
#479=LINE('',#476,#478);
#480=EDGE_CURVE('',#467,#475,#479,.T.);
#481=ORIENTED_EDGE('',*,*,#480,.T.);
#482=CARTESIAN_POINT('',(6.974999999999998,1.099999999999998,1.350000000000003));
#483=VERTEX_POINT('',#482);
#484=CARTESIAN_POINT('',(6.175000000000001,1.099999999999998,1.350000000000003));
#485=DIRECTION('',(1.0,0.0,0.0));
#486=VECTOR('',#485,0.799999999999997);
#487=LINE('',#484,#486);
#488=EDGE_CURVE('',#475,#483,#487,.T.);
#489=ORIENTED_EDGE('',*,*,#488,.T.);
#490=CARTESIAN_POINT('',(7.574999999999999,1.099999999999998,0.750000000000002));
#491=VERTEX_POINT('',#490);
#492=CARTESIAN_POINT('',(6.974999999999998,1.099999999999998,0.750000000000002));
#493=DIRECTION('',(0.0,1.0,0.0));
#494=DIRECTION('',(0.707106781186547,0.0,0.707106781186548));
#495=AXIS2_PLACEMENT_3D('',#492,#493,#494);
#496=CIRCLE('',#495,0.600000000000001);
#497=EDGE_CURVE('',#483,#491,#496,.T.);
#498=ORIENTED_EDGE('',*,*,#497,.T.);
#499=CARTESIAN_POINT('',(7.574999999999999,1.099999999999998,0.750000000000002));
#500=DIRECTION('',(0.0,0.0,-1.0));
#501=VECTOR('',#500,0.550000000000000);
#502=LINE('',#499,#501);
#503=EDGE_CURVE('',#491,#419,#502,.T.);
#504=ORIENTED_EDGE('',*,*,#503,.T.);
#505=EDGE_LOOP('',(#448,#456,#465,#473,#481,#489,#498,#504));
#506=FACE_OUTER_BOUND('',#505,.T.);
#507=ADVANCED_FACE('',(#506),#447,.T.);
#508=CARTESIAN_POINT('',(7.174999999999994,1.100000000000001,0.750000000000002));
#509=CARTESIAN_POINT('',(7.174999999999994,1.100000000000001,0.200000000000002));
#510=CARTESIAN_POINT('',(7.174999999999994,-1.100000000000001,0.750000000000002));
#511=CARTESIAN_POINT('',(7.174999999999994,-1.100000000000001,0.200000000000002));
#512=B_SPLINE_SURFACE_WITH_KNOTS('',1,1,((#508,#510),(#509,#511)),.UNSPECIFIED.,.F.,.F.,.U.,(2,2),(2,2),(0.0,0.550000000000000),(0.0,2.200000000000003),.UNSPECIFIED.);
#513=ORIENTED_EDGE('',*,*,#416,.F.);
#514=CARTESIAN_POINT('',(7.174999999999994,-1.100000000000001,0.750000000000002));
#515=VERTEX_POINT('',#514);
#516=CARTESIAN_POINT('',(7.174999999999993,-1.100000000000001,0.750000000000002));
#517=DIRECTION('',(0.0,0.0,-1.0));
#518=VECTOR('',#517,0.550000000000000);
#519=LINE('',#516,#518);
#520=EDGE_CURVE('',#515,#409,#519,.T.);
#521=ORIENTED_EDGE('',*,*,#520,.F.);
#522=CARTESIAN_POINT('',(7.174999999999994,1.099999999999998,0.750000000000002));
#523=DIRECTION('',(0.0,-1.0,0.0));
#524=VECTOR('',#523,2.200000000000000);
#525=LINE('',#522,#524);
#526=EDGE_CURVE('',#450,#515,#525,.T.);
#527=ORIENTED_EDGE('',*,*,#526,.F.);
#528=ORIENTED_EDGE('',*,*,#455,.F.);
#529=EDGE_LOOP('',(#513,#521,#527,#528));
#530=FACE_OUTER_BOUND('',#529,.T.);
#531=ADVANCED_FACE('',(#530),#512,.T.);
#532=CARTESIAN_POINT('',(6.833578643762689,-1.100000000000001,0.608578643762693));
#533=CARTESIAN_POINT('',(6.833578643762689,1.099999999999998,0.608578643762693));
#534=CARTESIAN_POINT('',(6.692157287525379,-1.100000000000001,0.750000000000002));
#535=CARTESIAN_POINT('',(6.692157287525379,1.099999999999998,0.750000000000002));
#536=CARTESIAN_POINT('',(6.833578643762689,-1.100000000000001,0.891421356237311));
#537=CARTESIAN_POINT('',(6.833578643762689,1.099999999999998,0.891421356237311));
#538=CARTESIAN_POINT('',(6.974999999999999,-1.100000000000001,1.032842712474620));
#539=CARTESIAN_POINT('',(6.974999999999999,1.099999999999998,1.032842712474620));
#540=CARTESIAN_POINT('',(7.116421356237307,-1.100000000000001,0.891421356237311));
#541=CARTESIAN_POINT('',(7.116421356237307,1.099999999999998,0.891421356237311));
#542=CARTESIAN_POINT('',(7.257842712474616,-1.100000000000001,0.750000000000001));
#543=CARTESIAN_POINT('',(7.257842712474616,1.099999999999998,0.750000000000001));
#544=CARTESIAN_POINT('',(7.116421356237307,-1.100000000000001,0.608578643762692));
#545=CARTESIAN_POINT('',(7.116421356237307,1.099999999999998,0.608578643762692));
#546=CARTESIAN_POINT('',(6.974999999999999,-1.100000000000001,0.467157287525384));
#547=CARTESIAN_POINT('',(6.974999999999999,1.099999999999998,0.467157287525384));
#548=CARTESIAN_POINT('',(6.833578643762689,-1.100000000000001,0.608578643762693));
#549=CARTESIAN_POINT('',(6.833578643762689,1.099999999999998,0.608578643762693));
#557=(BOUNDED_SURFACE()B_SPLINE_SURFACE(1,2,((#532,#534,#536,#538,#540,#542,#544,#546,#548),(#533,#535,#537,#539,#541,#543,#545,#547,#549)),.UNSPECIFIED.,.F.,.T.,.U.)B_SPLINE_SURFACE_WITH_KNOTS((2,2),(3,2,2,2,3),(-11.000000000000037,0.0),(0.0,0.314159265358978,0.628318530717956,0.942477796076934,1.256637061435913),.UNSPECIFIED.)GEOMETRIC_REPRESENTATION_ITEM()RATIONAL_B_SPLINE_SURFACE(((1.0,0.707106781186548,1.0,0.707106781186548,1.0,0.707106781186548,1.0,0.707106781186548,1.0),(1.0,0.707106781186548,1.0,0.707106781186548,1.0,0.707106781186548,1.0,0.707106781186548,1.0)))REPRESENTATION_ITEM('')SURFACE());
#558=CARTESIAN_POINT('',(6.974999999999998,-1.100000000000001,0.950000000000001));
#559=VERTEX_POINT('',#558);
#560=CARTESIAN_POINT('',(6.974999999999998,-1.100000000000001,0.750000000000002));
#561=DIRECTION('',(0.0,1.0,0.0));
#562=DIRECTION('',(0.707106781186547,0.0,0.707106781186548));
#563=AXIS2_PLACEMENT_3D('',#560,#561,#562);
#564=CIRCLE('',#563,0.199999999999999);
#565=EDGE_CURVE('',#559,#515,#564,.T.);
#566=ORIENTED_EDGE('',*,*,#565,.F.);
#567=CARTESIAN_POINT('',(6.974999999999998,1.099999999999998,0.950000000000001));
#568=DIRECTION('',(0.0,-1.0,0.0));
#569=VECTOR('',#568,2.200000000000000);
#570=LINE('',#567,#569);
#571=EDGE_CURVE('',#458,#559,#570,.T.);
#572=ORIENTED_EDGE('',*,*,#571,.F.);
#573=ORIENTED_EDGE('',*,*,#464,.F.);
#574=ORIENTED_EDGE('',*,*,#526,.T.);
#575=EDGE_LOOP('',(#566,#572,#573,#574));
#576=FACE_OUTER_BOUND('',#575,.T.);
#577=ADVANCED_FACE('',(#576),#557,.T.);
#578=CARTESIAN_POINT('',(6.175000000000001,1.099999999999998,0.949999999999997));
#579=CARTESIAN_POINT('',(6.974999999999998,1.099999999999998,0.950000000000001));
#580=CARTESIAN_POINT('',(6.175000000000001,-1.100000000000001,0.949999999999997));
#581=CARTESIAN_POINT('',(6.974999999999998,-1.100000000000001,0.950000000000001));
#582=B_SPLINE_SURFACE_WITH_KNOTS('',1,1,((#578,#580),(#579,#581)),.UNSPECIFIED.,.F.,.F.,.U.,(2,2),(2,2),(0.0,0.799999999999997),(0.0,2.199999999999999),.UNSPECIFIED.);
#583=CARTESIAN_POINT('',(6.175000000000001,-1.100000000000001,0.949999999999997));
#584=VERTEX_POINT('',#583);
#585=CARTESIAN_POINT('',(6.175000000000001,-1.100000000000001,0.949999999999997));
#586=DIRECTION('',(1.0,0.0,0.0));
#587=VECTOR('',#586,0.799999999999997);
#588=LINE('',#585,#587);
#589=EDGE_CURVE('',#584,#559,#588,.T.);
#590=ORIENTED_EDGE('',*,*,#589,.F.);
#591=CARTESIAN_POINT('',(6.175000000000001,1.099999999999998,0.949999999999997));
#592=DIRECTION('',(0.0,-1.0,0.0));
#593=VECTOR('',#592,2.200000000000000);
#594=LINE('',#591,#593);
#595=EDGE_CURVE('',#467,#584,#594,.T.);
#596=ORIENTED_EDGE('',*,*,#595,.F.);
#597=ORIENTED_EDGE('',*,*,#472,.F.);
#598=ORIENTED_EDGE('',*,*,#571,.T.);
#599=EDGE_LOOP('',(#590,#596,#597,#598));
#600=FACE_OUTER_BOUND('',#599,.T.);
#601=ADVANCED_FACE('',(#600),#582,.T.);
#602=CARTESIAN_POINT('',(6.175000000000001,1.099999999999998,1.350000000000003));
#603=CARTESIAN_POINT('',(6.175000000000001,1.099999999999998,0.949999999999997));
#604=CARTESIAN_POINT('',(6.175000000000001,-1.100000000000001,1.350000000000003));
#605=CARTESIAN_POINT('',(6.175000000000001,-1.100000000000001,0.949999999999998));
#606=B_SPLINE_SURFACE_WITH_KNOTS('',1,1,((#602,#604),(#603,#605)),.UNSPECIFIED.,.F.,.F.,.U.,(2,2),(2,2),(0.0,0.400000000000006),(0.0,2.199999999999999),.UNSPECIFIED.);
#607=CARTESIAN_POINT('',(6.175000000000001,-1.100000000000001,1.350000000000003));
#608=VERTEX_POINT('',#607);
#609=CARTESIAN_POINT('',(6.175000000000001,-1.100000000000001,1.350000000000003));
#610=DIRECTION('',(0.0,0.0,-1.0));
#611=VECTOR('',#610,0.400000000000006);
#612=LINE('',#609,#611);
#613=EDGE_CURVE('',#608,#584,#612,.T.);
#614=ORIENTED_EDGE('',*,*,#613,.F.);
#615=CARTESIAN_POINT('',(6.175000000000001,1.099999999999998,1.350000000000003));
#616=DIRECTION('',(0.0,-1.0,0.0));
#617=VECTOR('',#616,2.200000000000000);
#618=LINE('',#615,#617);
#619=EDGE_CURVE('',#475,#608,#618,.T.);
#620=ORIENTED_EDGE('',*,*,#619,.F.);
#621=ORIENTED_EDGE('',*,*,#480,.F.);
#622=ORIENTED_EDGE('',*,*,#595,.T.);
#623=EDGE_LOOP('',(#614,#620,#621,#622));
#624=FACE_OUTER_BOUND('',#623,.T.);
#625=ADVANCED_FACE('',(#624),#606,.T.);
#626=CARTESIAN_POINT('',(6.974999999999998,1.099999999999998,1.350000000000003));
#627=CARTESIAN_POINT('',(6.175000000000001,1.099999999999998,1.350000000000003));
#628=CARTESIAN_POINT('',(6.974999999999998,-1.100000000000001,1.350000000000003));
#629=CARTESIAN_POINT('',(6.175000000000001,-1.100000000000001,1.350000000000003));
#630=B_SPLINE_SURFACE_WITH_KNOTS('',1,1,((#626,#628),(#627,#629)),.UNSPECIFIED.,.F.,.F.,.U.,(2,2),(2,2),(0.0,0.799999999999997),(0.0,2.199999999999999),.UNSPECIFIED.);
#631=CARTESIAN_POINT('',(6.974999999999998,-1.100000000000001,1.350000000000003));
#632=VERTEX_POINT('',#631);
#633=CARTESIAN_POINT('',(6.974999999999998,-1.100000000000001,1.350000000000003));
#634=DIRECTION('',(-1.0,0.0,0.0));
#635=VECTOR('',#634,0.799999999999997);
#636=LINE('',#633,#635);
#637=EDGE_CURVE('',#632,#608,#636,.T.);
#638=ORIENTED_EDGE('',*,*,#637,.F.);
#639=CARTESIAN_POINT('',(6.974999999999998,1.099999999999998,1.350000000000003));
#640=DIRECTION('',(0.0,-1.0,0.0));
#641=VECTOR('',#640,2.200000000000000);
#642=LINE('',#639,#641);
#643=EDGE_CURVE('',#483,#632,#642,.T.);
#644=ORIENTED_EDGE('',*,*,#643,.F.);
#645=ORIENTED_EDGE('',*,*,#488,.F.);
#646=ORIENTED_EDGE('',*,*,#619,.T.);
#647=EDGE_LOOP('',(#638,#644,#645,#646));
#648=FACE_OUTER_BOUND('',#647,.T.);
#649=ADVANCED_FACE('',(#648),#630,.T.);
#650=CARTESIAN_POINT('',(6.550735931288068,1.099999999999998,0.325735931288072));
#651=CARTESIAN_POINT('',(6.550735931288068,-1.100000000000001,0.325735931288072));
#652=CARTESIAN_POINT('',(6.126471862576139,1.099999999999998,0.750000000000002));
#653=CARTESIAN_POINT('',(6.126471862576139,-1.100000000000001,0.750000000000002));
#654=CARTESIAN_POINT('',(6.550735931288068,1.099999999999998,1.174264068711931));
#655=CARTESIAN_POINT('',(6.550735931288068,-1.100000000000001,1.174264068711931));
#656=CARTESIAN_POINT('',(6.974999999999999,1.099999999999998,1.598528137423861));
#657=CARTESIAN_POINT('',(6.974999999999999,-1.100000000000001,1.598528137423861));
#658=CARTESIAN_POINT('',(7.399264068711927,1.099999999999998,1.174264068711931));
#659=CARTESIAN_POINT('',(7.399264068711927,-1.100000000000001,1.174264068711931));
#660=CARTESIAN_POINT('',(7.823528137423858,1.099999999999998,0.750000000000002));
#661=CARTESIAN_POINT('',(7.823528137423858,-1.100000000000001,0.750000000000002));
#662=CARTESIAN_POINT('',(7.399264068711927,1.099999999999998,0.325735931288072));
#663=CARTESIAN_POINT('',(7.399264068711927,-1.100000000000001,0.325735931288072));
#664=CARTESIAN_POINT('',(6.974999999999999,1.099999999999998,-0.098528137423857));
#665=CARTESIAN_POINT('',(6.974999999999999,-1.100000000000001,-0.098528137423857));
#666=CARTESIAN_POINT('',(6.550735931288068,1.099999999999998,0.325735931288072));
#667=CARTESIAN_POINT('',(6.550735931288068,-1.100000000000001,0.325735931288072));
#675=(BOUNDED_SURFACE()B_SPLINE_SURFACE(1,2,((#650,#652,#654,#656,#658,#660,#662,#664,#666),(#651,#653,#655,#657,#659,#661,#663,#665,#667)),.UNSPECIFIED.,.F.,.T.,.U.)B_SPLINE_SURFACE_WITH_KNOTS((2,2),(3,2,2,2,3),(0.0,3.666666666666657),(0.0,0.942477796076940,1.884955592153880,2.827433388230821,3.769911184307761),.UNSPECIFIED.)GEOMETRIC_REPRESENTATION_ITEM()RATIONAL_B_SPLINE_SURFACE(((1.0,0.707106781186548,1.0,0.707106781186548,1.0,0.707106781186548,1.0,0.707106781186548,1.0),(1.0,0.707106781186548,1.0,0.707106781186548,1.0,0.707106781186548,1.0,0.707106781186548,1.0)))REPRESENTATION_ITEM('')SURFACE());
#676=CARTESIAN_POINT('',(7.574999999999999,-1.100000000000001,0.750000000000002));
#677=VERTEX_POINT('',#676);
#678=CARTESIAN_POINT('',(6.974999999999998,-1.100000000000001,0.750000000000002));
#679=DIRECTION('',(0.0,-1.0,0.0));
#680=DIRECTION('',(0.707106781186547,0.0,0.707106781186548));
#681=AXIS2_PLACEMENT_3D('',#678,#679,#680);
#682=CIRCLE('',#681,0.600000000000001);
#683=EDGE_CURVE('',#677,#632,#682,.T.);
#684=ORIENTED_EDGE('',*,*,#683,.F.);
#685=CARTESIAN_POINT('',(7.574999999999999,1.099999999999998,0.750000000000002));
#686=DIRECTION('',(0.0,-1.0,0.0));
#687=VECTOR('',#686,2.200000000000000);
#688=LINE('',#685,#687);
#689=EDGE_CURVE('',#491,#677,#688,.T.);
#690=ORIENTED_EDGE('',*,*,#689,.F.);
#691=ORIENTED_EDGE('',*,*,#497,.F.);
#692=ORIENTED_EDGE('',*,*,#643,.T.);
#693=EDGE_LOOP('',(#684,#690,#691,#692));
#694=FACE_OUTER_BOUND('',#693,.T.);
#695=ADVANCED_FACE('',(#694),#675,.T.);
#696=CARTESIAN_POINT('',(7.574999999999998,1.099999999999998,0.200000000000002));
#697=CARTESIAN_POINT('',(7.574999999999998,1.099999999999998,0.750000000000002));
#698=CARTESIAN_POINT('',(7.574999999999998,-1.100000000000001,0.200000000000002));
#699=CARTESIAN_POINT('',(7.574999999999998,-1.100000000000001,0.750000000000002));
#700=B_SPLINE_SURFACE_WITH_KNOTS('',1,1,((#696,#698),(#697,#699)),.UNSPECIFIED.,.F.,.F.,.U.,(2,2),(2,2),(0.0,0.550000000000000),(0.0,2.199999999999999),.UNSPECIFIED.);
#701=ORIENTED_EDGE('',*,*,#432,.F.);
#702=ORIENTED_EDGE('',*,*,#503,.F.);
#703=ORIENTED_EDGE('',*,*,#689,.T.);
#704=CARTESIAN_POINT('',(7.574999999999999,-1.100000000000001,0.200000000000002));
#705=DIRECTION('',(0.0,0.0,1.0));
#706=VECTOR('',#705,0.550000000000000);
#707=LINE('',#704,#706);
#708=EDGE_CURVE('',#427,#677,#707,.T.);
#709=ORIENTED_EDGE('',*,*,#708,.F.);
#710=EDGE_LOOP('',(#701,#702,#703,#709));
#711=FACE_OUTER_BOUND('',#710,.T.);
#712=ADVANCED_FACE('',(#711),#700,.T.);
#713=CARTESIAN_POINT('',(7.574999999999999,-1.100000000000001,1.350000000000003));
#714=CARTESIAN_POINT('',(7.574999999999999,-1.100000000000001,0.200000000000002));
#715=CARTESIAN_POINT('',(6.175000000000001,-1.100000000000001,1.350000000000003));
#716=CARTESIAN_POINT('',(6.175000000000001,-1.100000000000001,0.200000000000002));
#717=B_SPLINE_SURFACE_WITH_KNOTS('',1,1,((#713,#715),(#714,#716)),.UNSPECIFIED.,.F.,.F.,.U.,(2,2),(2,2),(0.0,1.150000000000002),(0.0,1.399999999999999),.UNSPECIFIED.);
#718=ORIENTED_EDGE('',*,*,#438,.F.);
#719=ORIENTED_EDGE('',*,*,#708,.T.);
#720=ORIENTED_EDGE('',*,*,#683,.T.);
#721=ORIENTED_EDGE('',*,*,#637,.T.);
#722=ORIENTED_EDGE('',*,*,#613,.T.);
#723=ORIENTED_EDGE('',*,*,#589,.T.);
#724=ORIENTED_EDGE('',*,*,#565,.T.);
#725=ORIENTED_EDGE('',*,*,#520,.T.);
#726=EDGE_LOOP('',(#718,#719,#720,#721,#722,#723,#724,#725));
#727=FACE_OUTER_BOUND('',#726,.T.);
#728=ADVANCED_FACE('',(#727),#717,.F.);
#729=CLOSED_SHELL('',(#442,#507,#531,#577,#601,#625,#649,#695,#712,#728));
#730=MANIFOLD_SOLID_BREP('A92',#729);
#731=STYLED_ITEM('NONE',(#399),#730);
#732=CARTESIAN_POINT('',(11.025000000000002,1.100000000000001,-3.650000000000002));
#733=DIRECTION('',(0.0,0.0,-1.0));
#734=DIRECTION('',(-1.0,0.0,0.0));
#735=AXIS2_PLACEMENT_3D('',#732,#733,#734);
#736=PLANE('',#735);
#737=CARTESIAN_POINT('',(3.552714E-015,1.100000000000009,-3.650000000000000));
#738=VERTEX_POINT('',#737);
#739=CARTESIAN_POINT('',(0.0,-1.099999999999991,-3.650000000000000));
#740=VERTEX_POINT('',#739);
#741=CARTESIAN_POINT('',(1.221245E-016,1.100000000000009,-3.650000000000000));
#742=DIRECTION('',(0.0,-1.0,0.0));
#743=VECTOR('',#742,2.199999999999999);
#744=LINE('',#741,#743);
#745=EDGE_CURVE('',#738,#740,#744,.T.);
#746=ORIENTED_EDGE('',*,*,#745,.T.);
#747=CARTESIAN_POINT('',(-6.975000000000001,-1.099999999999994,-3.649999999999999));
#748=VERTEX_POINT('',#747);
#749=CARTESIAN_POINT('',(0.0,-1.099999999999994,-3.650000000000000));
#750=DIRECTION('',(-1.0,0.0,0.0));
#751=VECTOR('',#750,6.975000000000001);
#752=LINE('',#749,#751);
#753=EDGE_CURVE('',#740,#748,#752,.T.);
#754=ORIENTED_EDGE('',*,*,#753,.T.);
#755=CARTESIAN_POINT('',(-6.975000000000001,1.100000000000005,-3.649999999999999));
#756=VERTEX_POINT('',#755);
#757=CARTESIAN_POINT('',(-6.975000000000001,1.100000000000005,-3.649999999999999));
#758=DIRECTION('',(0.0,-1.0,0.0));
#759=VECTOR('',#758,2.199999999999999);
#760=LINE('',#757,#759);
#761=EDGE_CURVE('',#756,#748,#760,.T.);
#762=ORIENTED_EDGE('',*,*,#761,.F.);
#763=CARTESIAN_POINT('',(-6.975000000000001,1.100000000000005,-3.649999999999999));
#764=DIRECTION('',(1.0,0.0,0.0));
#765=VECTOR('',#764,6.975000000000003);
#766=LINE('',#763,#765);
#767=EDGE_CURVE('',#756,#738,#766,.T.);
#768=ORIENTED_EDGE('',*,*,#767,.T.);
#769=EDGE_LOOP('',(#746,#754,#762,#768));
#770=FACE_OUTER_BOUND('',#769,.T.);
#771=ADVANCED_FACE('',(#770),#736,.T.);
#772=CARTESIAN_POINT('',(1.824999999999992,-1.099999999999994,-2.028777805133279));
#773=DIRECTION('',(0.0,1.0,0.0));
#774=DIRECTION('',(0.0,0.0,-1.0));
#775=AXIS2_PLACEMENT_3D('',#772,#773,#774);
#776=PLANE('',#775);
#777=CARTESIAN_POINT('',(0.0,-1.099999999999991,-3.250000000000002));
#778=VERTEX_POINT('',#777);
#779=CARTESIAN_POINT('',(0.0,-1.099999999999994,-3.650000000000000));
#780=DIRECTION('',(0.0,0.0,1.0));
#781=VECTOR('',#780,0.399999999999999);
#782=LINE('',#779,#781);
#783=EDGE_CURVE('',#740,#778,#782,.T.);
#784=ORIENTED_EDGE('',*,*,#783,.T.);
#785=CARTESIAN_POINT('',(-6.975000000000001,-1.099999999999994,-3.250000000000000));
#786=VERTEX_POINT('',#785);
#787=CARTESIAN_POINT('',(-6.975000000000003,-1.099999999999994,-3.250000000000003));
#788=DIRECTION('',(1.0,0.0,0.0));
#789=VECTOR('',#788,6.975000000000001);
#790=LINE('',#787,#789);
#791=EDGE_CURVE('',#786,#778,#790,.T.);
#792=ORIENTED_EDGE('',*,*,#791,.F.);
#793=CARTESIAN_POINT('',(-7.175000000000001,-1.099999999999994,-3.050000000000001));
#794=VERTEX_POINT('',#793);
#795=CARTESIAN_POINT('',(-6.975000000000001,-1.099999999999994,-3.050000000000001));
#796=DIRECTION('',(0.0,-1.0,0.0));
#797=DIRECTION('',(-0.707106781186548,0.0,-0.707106781186547));
#798=AXIS2_PLACEMENT_3D('',#795,#796,#797);
#799=CIRCLE('',#798,0.199999999999999);
#800=EDGE_CURVE('',#794,#786,#799,.T.);
#801=ORIENTED_EDGE('',*,*,#800,.F.);
#802=CARTESIAN_POINT('',(-7.175000000000001,-1.099999999999991,0.200000000000000));
#803=VERTEX_POINT('',#802);
#804=CARTESIAN_POINT('',(-7.175000000000001,-1.099999999999994,0.200000000000000));
#805=DIRECTION('',(0.0,0.0,-1.0));
#806=VECTOR('',#805,3.250000000000001);
#807=LINE('',#804,#806);
#808=EDGE_CURVE('',#803,#794,#807,.T.);
#809=ORIENTED_EDGE('',*,*,#808,.F.);
#810=CARTESIAN_POINT('',(-7.575000000000006,-1.099999999999994,0.200000000000000));
#811=VERTEX_POINT('',#810);
#812=CARTESIAN_POINT('',(-7.174999999999999,-1.099999999999994,0.200000000000000));
#813=DIRECTION('',(-1.0,0.0,0.0));
#814=VECTOR('',#813,0.400000000000006);
#815=LINE('',#812,#814);
#816=EDGE_CURVE('',#803,#811,#815,.T.);
#817=ORIENTED_EDGE('',*,*,#816,.T.);
#818=CARTESIAN_POINT('',(-7.575000000000003,-1.099999999999994,-3.050000000000001));
#819=VERTEX_POINT('',#818);
#820=CARTESIAN_POINT('',(-7.575000000000004,-1.099999999999994,-3.050000000000001));
#821=DIRECTION('',(0.0,0.0,1.0));
#822=VECTOR('',#821,3.250000000000001);
#823=LINE('',#820,#822);
#824=EDGE_CURVE('',#819,#811,#823,.T.);
#825=ORIENTED_EDGE('',*,*,#824,.F.);
#826=CARTESIAN_POINT('',(-6.975000000000001,-1.099999999999994,-3.050000000000001));
#827=DIRECTION('',(0.0,1.000000000000000,0.0));
#828=DIRECTION('',(-0.707106781186546,0.0,-0.707106781186548));
#829=AXIS2_PLACEMENT_3D('',#826,#827,#828);
#830=CIRCLE('',#829,0.600000000000001);
#831=EDGE_CURVE('',#748,#819,#830,.T.);
#832=ORIENTED_EDGE('',*,*,#831,.F.);
#833=ORIENTED_EDGE('',*,*,#753,.F.);
#834=EDGE_LOOP('',(#784,#792,#801,#809,#817,#825,#832,#833));
#835=FACE_OUTER_BOUND('',#834,.T.);
#836=ADVANCED_FACE('',(#835),#776,.F.);
#837=CARTESIAN_POINT('',(-13.975000000000001,1.100000000000001,-3.250000000000000));
#838=DIRECTION('',(0.0,0.0,1.0));
#839=DIRECTION('',(1.0,0.0,0.0));
#840=AXIS2_PLACEMENT_3D('',#837,#838,#839);
#841=PLANE('',#840);
#842=CARTESIAN_POINT('',(3.552714E-015,1.100000000000009,-3.250000000000002));
#843=VERTEX_POINT('',#842);
#844=CARTESIAN_POINT('',(-3.663736E-016,-1.099999999999991,-3.250000000000000));
#845=DIRECTION('',(0.0,1.0,0.0));
#846=VECTOR('',#845,2.199999999999999);
#847=LINE('',#844,#846);
#848=EDGE_CURVE('',#778,#843,#847,.T.);
#849=ORIENTED_EDGE('',*,*,#848,.T.);
#850=CARTESIAN_POINT('',(-6.975000000000001,1.100000000000005,-3.250000000000000));
#851=VERTEX_POINT('',#850);
#852=CARTESIAN_POINT('',(-1.776357E-015,1.100000000000005,-3.250000000000002));
#853=DIRECTION('',(-1.0,0.0,0.0));
#854=VECTOR('',#853,6.975000000000003);
#855=LINE('',#852,#854);
#856=EDGE_CURVE('',#843,#851,#855,.T.);
#857=ORIENTED_EDGE('',*,*,#856,.T.);
#858=CARTESIAN_POINT('',(-6.975000000000001,1.100000000000005,-3.250000000000000));
#859=DIRECTION('',(0.0,-1.0,0.0));
#860=VECTOR('',#859,2.199999999999999);
#861=LINE('',#858,#860);
#862=EDGE_CURVE('',#851,#786,#861,.T.);
#863=ORIENTED_EDGE('',*,*,#862,.T.);
#864=ORIENTED_EDGE('',*,*,#791,.T.);
#865=EDGE_LOOP('',(#849,#857,#863,#864));
#866=FACE_OUTER_BOUND('',#865,.T.);
#867=ADVANCED_FACE('',(#866),#841,.T.);
#868=CARTESIAN_POINT('',(1.824999999999996,1.100000000000001,-2.028777805133279));
#869=DIRECTION('',(0.0,1.0,0.0));
#870=DIRECTION('',(0.0,0.0,-1.0));
#871=AXIS2_PLACEMENT_3D('',#868,#869,#870);
#872=PLANE('',#871);
#873=CARTESIAN_POINT('',(0.0,1.100000000000001,-3.250000000000002));
#874=DIRECTION('',(0.0,0.0,-1.0));
#875=VECTOR('',#874,0.399999999999999);
#876=LINE('',#873,#875);
#877=EDGE_CURVE('',#843,#738,#876,.T.);
#878=ORIENTED_EDGE('',*,*,#877,.T.);
#879=ORIENTED_EDGE('',*,*,#767,.F.);
#880=CARTESIAN_POINT('',(-7.575000000000003,1.100000000000005,-3.050000000000001));
#881=VERTEX_POINT('',#880);
#882=CARTESIAN_POINT('',(-6.975000000000001,1.100000000000005,-3.050000000000001));
#883=DIRECTION('',(0.0,-1.000000000000000,0.0));
#884=DIRECTION('',(-0.707106781186546,0.0,-0.707106781186548));
#885=AXIS2_PLACEMENT_3D('',#882,#883,#884);
#886=CIRCLE('',#885,0.600000000000001);
#887=EDGE_CURVE('',#881,#756,#886,.T.);
#888=ORIENTED_EDGE('',*,*,#887,.F.);
#889=CARTESIAN_POINT('',(-7.575000000000006,1.100000000000005,0.200000000000000));
#890=VERTEX_POINT('',#889);
#891=CARTESIAN_POINT('',(-7.575000000000003,1.100000000000005,0.200000000000000));
#892=DIRECTION('',(0.0,0.0,-1.0));
#893=VECTOR('',#892,3.250000000000001);
#894=LINE('',#891,#893);
#895=EDGE_CURVE('',#890,#881,#894,.T.);
#896=ORIENTED_EDGE('',*,*,#895,.F.);
#897=CARTESIAN_POINT('',(-7.175000000000001,1.100000000000005,0.200000000000000));
#898=VERTEX_POINT('',#897);
#899=CARTESIAN_POINT('',(-7.575000000000006,1.100000000000001,0.200000000000000));
#900=DIRECTION('',(1.0,0.0,0.0));
#901=VECTOR('',#900,0.400000000000006);
#902=LINE('',#899,#901);
#903=EDGE_CURVE('',#890,#898,#902,.T.);
#904=ORIENTED_EDGE('',*,*,#903,.T.);
#905=CARTESIAN_POINT('',(-7.175000000000001,1.100000000000005,-3.050000000000001));
#906=VERTEX_POINT('',#905);
#907=CARTESIAN_POINT('',(-7.175000000000001,1.100000000000005,-3.050000000000001));
#908=DIRECTION('',(0.0,0.0,1.0));
#909=VECTOR('',#908,3.250000000000001);
#910=LINE('',#907,#909);
#911=EDGE_CURVE('',#906,#898,#910,.T.);
#912=ORIENTED_EDGE('',*,*,#911,.F.);
#913=CARTESIAN_POINT('',(-6.975000000000001,1.100000000000005,-3.050000000000001));
#914=DIRECTION('',(0.0,1.0,0.0));
#915=DIRECTION('',(-0.707106781186548,0.0,-0.707106781186547));
#916=AXIS2_PLACEMENT_3D('',#913,#914,#915);
#917=CIRCLE('',#916,0.199999999999999);
#918=EDGE_CURVE('',#851,#906,#917,.T.);
#919=ORIENTED_EDGE('',*,*,#918,.F.);
#920=ORIENTED_EDGE('',*,*,#856,.F.);
#921=EDGE_LOOP('',(#878,#879,#888,#896,#904,#912,#919,#920));
#922=FACE_OUTER_BOUND('',#921,.T.);
#923=ADVANCED_FACE('',(#922),#872,.T.);
#924=CARTESIAN_POINT('',(-2.442491E-016,-1.099999999999994,-3.250000000000000));
#925=CARTESIAN_POINT('',(-2.442491E-016,-1.099999999999994,-3.650000000000000));
#926=CARTESIAN_POINT('',(2.442491E-016,1.100000000000009,-3.250000000000000));
#927=CARTESIAN_POINT('',(2.442491E-016,1.100000000000009,-3.650000000000000));
#928=B_SPLINE_SURFACE_WITH_KNOTS('',1,1,((#924,#926),(#925,#927)),.UNSPECIFIED.,.F.,.F.,.U.,(2,2),(2,2),(0.0,0.400000000000000),(0.0,2.200000000000003),.UNSPECIFIED.);
#929=ORIENTED_EDGE('',*,*,#877,.F.);
#930=ORIENTED_EDGE('',*,*,#848,.F.);
#931=ORIENTED_EDGE('',*,*,#783,.F.);
#932=ORIENTED_EDGE('',*,*,#745,.F.);
#933=EDGE_LOOP('',(#929,#930,#931,#932));
#934=FACE_OUTER_BOUND('',#933,.T.);
#935=ADVANCED_FACE('',(#934),#928,.T.);
#936=CARTESIAN_POINT('',(-7.575000000000003,1.100000000000005,-3.050000000000001));
#937=DIRECTION('',(-1.0,0.0,0.0));
#938=DIRECTION('',(0.0,0.0,1.0));
#939=AXIS2_PLACEMENT_3D('',#936,#937,#938);
#940=PLANE('',#939);
#941=CARTESIAN_POINT('',(-7.575000000000003,-1.099999999999994,0.200000000000000));
#942=DIRECTION('',(0.0,1.0,0.0));
#943=VECTOR('',#942,2.199999999999999);
#944=LINE('',#941,#943);
#945=EDGE_CURVE('',#811,#890,#944,.T.);
#946=ORIENTED_EDGE('',*,*,#945,.T.);
#947=ORIENTED_EDGE('',*,*,#895,.T.);
#948=CARTESIAN_POINT('',(-7.575000000000003,1.100000000000005,-3.050000000000001));
#949=DIRECTION('',(0.0,-1.0,0.0));
#950=VECTOR('',#949,2.199999999999999);
#951=LINE('',#948,#950);
#952=EDGE_CURVE('',#881,#819,#951,.T.);
#953=ORIENTED_EDGE('',*,*,#952,.T.);
#954=ORIENTED_EDGE('',*,*,#824,.T.);
#955=EDGE_LOOP('',(#946,#947,#953,#954));
#956=FACE_OUTER_BOUND('',#955,.T.);
#957=ADVANCED_FACE('',(#956),#940,.T.);
#958=CARTESIAN_POINT('',(-7.175000000000001,1.100000000000005,1.850000000000003));
#959=DIRECTION('',(1.0,0.0,0.0));
#960=DIRECTION('',(0.0,0.0,-1.0));
#961=AXIS2_PLACEMENT_3D('',#958,#959,#960);
#962=PLANE('',#961);
#963=CARTESIAN_POINT('',(-7.175000000000001,1.100000000000005,0.200000000000000));
#964=DIRECTION('',(0.0,-1.0,0.0));
#965=VECTOR('',#964,2.199999999999996);
#966=LINE('',#963,#965);
#967=EDGE_CURVE('',#898,#803,#966,.T.);
#968=ORIENTED_EDGE('',*,*,#967,.T.);
#969=ORIENTED_EDGE('',*,*,#808,.T.);
#970=CARTESIAN_POINT('',(-7.175000000000001,1.100000000000005,-3.050000000000001));
#971=DIRECTION('',(0.0,-1.0,0.0));
#972=VECTOR('',#971,2.199999999999999);
#973=LINE('',#970,#972);
#974=EDGE_CURVE('',#906,#794,#973,.T.);
#975=ORIENTED_EDGE('',*,*,#974,.F.);
#976=ORIENTED_EDGE('',*,*,#911,.T.);
#977=EDGE_LOOP('',(#968,#969,#975,#976));
#978=FACE_OUTER_BOUND('',#977,.T.);
#979=ADVANCED_FACE('',(#978),#962,.T.);
#980=CARTESIAN_POINT('',(2.024999999999992,3.552714E-015,0.200000000000000));
#981=DIRECTION('',(0.0,0.0,1.0));
#982=DIRECTION('',(0.0,-1.0,0.0));
#983=AXIS2_PLACEMENT_3D('',#980,#981,#982);
#984=PLANE('',#983);
#985=ORIENTED_EDGE('',*,*,#967,.F.);
#986=ORIENTED_EDGE('',*,*,#903,.F.);
#987=ORIENTED_EDGE('',*,*,#945,.F.);
#988=ORIENTED_EDGE('',*,*,#816,.F.);
#989=EDGE_LOOP('',(#985,#986,#987,#988));
#990=FACE_OUTER_BOUND('',#989,.T.);
#991=ADVANCED_FACE('',(#990),#984,.T.);
#992=CARTESIAN_POINT('',(-6.975000000000001,1.100000000000005,-3.050000000000001));
#993=DIRECTION('',(0.0,-1.0,0.0));
#994=DIRECTION('',(-0.707106781186546,0.0,-0.707106781186548));
#995=AXIS2_PLACEMENT_3D('',#992,#993,#994);
#996=CYLINDRICAL_SURFACE('',#995,0.600000000000001);
#997=ORIENTED_EDGE('',*,*,#831,.T.);
#998=ORIENTED_EDGE('',*,*,#952,.F.);
#999=ORIENTED_EDGE('',*,*,#887,.T.);
#1000=ORIENTED_EDGE('',*,*,#761,.T.);
#1001=EDGE_LOOP('',(#997,#998,#999,#1000));
#1002=FACE_OUTER_BOUND('',#1001,.T.);
#1003=ADVANCED_FACE('',(#1002),#996,.T.);
#1004=CARTESIAN_POINT('',(-6.975000000000001,1.100000000000005,-3.050000000000001));
#1005=DIRECTION('',(0.0,-1.0,0.0));
#1006=DIRECTION('',(-0.707106781186548,0.0,-0.707106781186547));
#1007=AXIS2_PLACEMENT_3D('',#1004,#1005,#1006);
#1008=CYLINDRICAL_SURFACE('',#1007,0.199999999999999);
#1009=ORIENTED_EDGE('',*,*,#800,.T.);
#1010=ORIENTED_EDGE('',*,*,#862,.F.);
#1011=ORIENTED_EDGE('',*,*,#918,.T.);
#1012=ORIENTED_EDGE('',*,*,#974,.T.);
#1013=EDGE_LOOP('',(#1009,#1010,#1011,#1012));
#1014=FACE_OUTER_BOUND('',#1013,.T.);
#1015=ADVANCED_FACE('',(#1014),#1008,.F.);
#1016=CLOSED_SHELL('',(#771,#836,#867,#923,#935,#957,#979,#991,#1003,#1015));
#1017=MANIFOLD_SOLID_BREP('A70',#1016);
#1018=STYLED_ITEM('NONE',(#399),#1017);
#1019=CARTESIAN_POINT('',(2.024999999999995,-3.552714E-015,0.200000000000001));
#1020=DIRECTION('',(0.0,0.0,1.0));
#1021=DIRECTION('',(0.0,-1.0,0.0));
#1022=AXIS2_PLACEMENT_3D('',#1019,#1020,#1021);
#1023=PLANE('',#1022);
#1024=CARTESIAN_POINT('',(-7.174999999999994,-1.100000000000001,0.200000000000001));
#1025=VERTEX_POINT('',#1024);
#1026=CARTESIAN_POINT('',(-7.174999999999994,1.100000000000001,0.200000000000001));
#1027=VERTEX_POINT('',#1026);
#1028=CARTESIAN_POINT('',(-7.174999999999994,-1.100000000000001,0.200000000000001));
#1029=DIRECTION('',(0.0,1.0,0.0));
#1030=VECTOR('',#1029,2.200000000000003);
#1031=LINE('',#1028,#1030);
#1032=EDGE_CURVE('',#1025,#1027,#1031,.T.);
#1033=ORIENTED_EDGE('',*,*,#1032,.F.);
#1034=CARTESIAN_POINT('',(-7.574999999999999,-1.100000000000001,0.200000000000001));
#1035=VERTEX_POINT('',#1034);
#1036=CARTESIAN_POINT('',(-7.575000000000001,-1.100000000000001,0.200000000000001));
#1037=DIRECTION('',(1.0,0.0,0.0));
#1038=VECTOR('',#1037,0.400000000000006);
#1039=LINE('',#1036,#1038);
#1040=EDGE_CURVE('',#1035,#1025,#1039,.T.);
#1041=ORIENTED_EDGE('',*,*,#1040,.F.);
#1042=CARTESIAN_POINT('',(-7.574999999999999,1.099999999999998,0.200000000000001));
#1043=VERTEX_POINT('',#1042);
#1044=CARTESIAN_POINT('',(-7.574999999999996,1.099999999999998,0.200000000000001));
#1045=DIRECTION('',(0.0,-1.0,0.0));
#1046=VECTOR('',#1045,2.199999999999999);
#1047=LINE('',#1044,#1046);
#1048=EDGE_CURVE('',#1043,#1035,#1047,.T.);
#1049=ORIENTED_EDGE('',*,*,#1048,.F.);
#1050=CARTESIAN_POINT('',(-7.174999999999994,1.099999999999994,0.200000000000001));
#1051=DIRECTION('',(-1.0,0.0,0.0));
#1052=VECTOR('',#1051,0.400000000000006);
#1053=LINE('',#1050,#1052);
#1054=EDGE_CURVE('',#1027,#1043,#1053,.T.);
#1055=ORIENTED_EDGE('',*,*,#1054,.F.);
#1056=EDGE_LOOP('',(#1033,#1041,#1049,#1055));
#1057=FACE_OUTER_BOUND('',#1056,.T.);
#1058=ADVANCED_FACE('',(#1057),#1023,.F.);
#1059=CARTESIAN_POINT('',(1.824999999999999,1.099999999999994,-3.128777805133280));
#1060=DIRECTION('',(0.0,1.0,0.0));
#1061=DIRECTION('',(0.0,0.0,-1.0));
#1062=AXIS2_PLACEMENT_3D('',#1059,#1060,#1061);
#1063=PLANE('',#1062);
#1064=ORIENTED_EDGE('',*,*,#1054,.T.);
#1065=CARTESIAN_POINT('',(-7.574999999999999,1.099999999999998,0.750000000000002));
#1066=VERTEX_POINT('',#1065);
#1067=CARTESIAN_POINT('',(-7.574999999999999,1.099999999999998,0.750000000000002));
#1068=DIRECTION('',(0.0,0.0,-1.0));
#1069=VECTOR('',#1068,0.550000000000001);
#1070=LINE('',#1067,#1069);
#1071=EDGE_CURVE('',#1066,#1043,#1070,.T.);
#1072=ORIENTED_EDGE('',*,*,#1071,.F.);
#1073=CARTESIAN_POINT('',(-6.974999999999998,1.099999999999998,1.350000000000003));
#1074=VERTEX_POINT('',#1073);
#1075=CARTESIAN_POINT('',(-6.974999999999998,1.099999999999998,0.750000000000002));
#1076=DIRECTION('',(0.0,-1.0,0.0));
#1077=DIRECTION('',(-0.707106781186546,0.0,0.707106781186549));
#1078=AXIS2_PLACEMENT_3D('',#1075,#1076,#1077);
#1079=CIRCLE('',#1078,0.600000000000001);
#1080=EDGE_CURVE('',#1074,#1066,#1079,.T.);
#1081=ORIENTED_EDGE('',*,*,#1080,.F.);
#1082=CARTESIAN_POINT('',(-6.175000000000001,1.099999999999998,1.350000000000003));
#1083=VERTEX_POINT('',#1082);
#1084=CARTESIAN_POINT('',(-6.175000000000001,1.099999999999998,1.350000000000003));
#1085=DIRECTION('',(-1.0,0.0,0.0));
#1086=VECTOR('',#1085,0.799999999999997);
#1087=LINE('',#1084,#1086);
#1088=EDGE_CURVE('',#1083,#1074,#1087,.T.);
#1089=ORIENTED_EDGE('',*,*,#1088,.F.);
#1090=CARTESIAN_POINT('',(-6.175000000000001,1.099999999999998,0.950000000000001));
#1091=VERTEX_POINT('',#1090);
#1092=CARTESIAN_POINT('',(-6.175000000000001,1.099999999999998,0.950000000000001));
#1093=DIRECTION('',(0.0,0.0,1.0));
#1094=VECTOR('',#1093,0.400000000000000);
#1095=LINE('',#1092,#1094);
#1096=EDGE_CURVE('',#1091,#1083,#1095,.T.);
#1097=ORIENTED_EDGE('',*,*,#1096,.F.);
#1098=CARTESIAN_POINT('',(-6.974999999999998,1.099999999999998,0.950000000000001));
#1099=VERTEX_POINT('',#1098);
#1100=CARTESIAN_POINT('',(-6.974999999999998,1.099999999999998,0.950000000000001));
#1101=DIRECTION('',(1.0,0.0,0.0));
#1102=VECTOR('',#1101,0.799999999999997);
#1103=LINE('',#1100,#1102);
#1104=EDGE_CURVE('',#1099,#1091,#1103,.T.);
#1105=ORIENTED_EDGE('',*,*,#1104,.F.);
#1106=CARTESIAN_POINT('',(-7.174999999999994,1.099999999999998,0.750000000000002));
#1107=VERTEX_POINT('',#1106);
#1108=CARTESIAN_POINT('',(-6.974999999999998,1.099999999999998,0.750000000000002));
#1109=DIRECTION('',(0.0,1.0,0.0));
#1110=DIRECTION('',(-0.707106781186547,0.0,0.707106781186548));
#1111=AXIS2_PLACEMENT_3D('',#1108,#1109,#1110);
#1112=CIRCLE('',#1111,0.199999999999999);
#1113=EDGE_CURVE('',#1107,#1099,#1112,.T.);
#1114=ORIENTED_EDGE('',*,*,#1113,.F.);
#1115=CARTESIAN_POINT('',(-7.174999999999993,1.099999999999998,0.200000000000001));
#1116=DIRECTION('',(0.0,0.0,1.0));
#1117=VECTOR('',#1116,0.550000000000001);
#1118=LINE('',#1115,#1117);
#1119=EDGE_CURVE('',#1027,#1107,#1118,.T.);
#1120=ORIENTED_EDGE('',*,*,#1119,.F.);
#1121=EDGE_LOOP('',(#1064,#1072,#1081,#1089,#1097,#1105,#1114,#1120));
#1122=FACE_OUTER_BOUND('',#1121,.T.);
#1123=ADVANCED_FACE('',(#1122),#1063,.T.);
#1124=CARTESIAN_POINT('',(-7.174999999999994,1.099999999999998,0.750000000000002));
#1125=DIRECTION('',(1.0,0.0,0.0));
#1126=DIRECTION('',(0.0,0.0,-1.0));
#1127=AXIS2_PLACEMENT_3D('',#1124,#1125,#1126);
#1128=PLANE('',#1127);
#1129=ORIENTED_EDGE('',*,*,#1032,.T.);
#1130=ORIENTED_EDGE('',*,*,#1119,.T.);
#1131=CARTESIAN_POINT('',(-7.174999999999994,-1.100000000000001,0.750000000000002));
#1132=VERTEX_POINT('',#1131);
#1133=CARTESIAN_POINT('',(-7.174999999999994,1.099999999999998,0.750000000000002));
#1134=DIRECTION('',(0.0,-1.0,0.0));
#1135=VECTOR('',#1134,2.199999999999999);
#1136=LINE('',#1133,#1135);
#1137=EDGE_CURVE('',#1107,#1132,#1136,.T.);
#1138=ORIENTED_EDGE('',*,*,#1137,.T.);
#1139=CARTESIAN_POINT('',(-7.174999999999993,-1.100000000000001,0.750000000000002));
#1140=DIRECTION('',(0.0,0.0,-1.0));
#1141=VECTOR('',#1140,0.550000000000001);
#1142=LINE('',#1139,#1141);
#1143=EDGE_CURVE('',#1132,#1025,#1142,.T.);
#1144=ORIENTED_EDGE('',*,*,#1143,.T.);
#1145=EDGE_LOOP('',(#1129,#1130,#1138,#1144));
#1146=FACE_OUTER_BOUND('',#1145,.T.);
#1147=ADVANCED_FACE('',(#1146),#1128,.T.);
#1148=CARTESIAN_POINT('',(-6.974999999999998,1.099999999999998,0.750000000000002));
#1149=DIRECTION('',(0.0,-1.0,0.0));
#1150=DIRECTION('',(-0.707106781186547,0.0,0.707106781186548));
#1151=AXIS2_PLACEMENT_3D('',#1148,#1149,#1150);
#1152=CYLINDRICAL_SURFACE('',#1151,0.199999999999999);
#1153=CARTESIAN_POINT('',(-6.974999999999998,-1.100000000000001,0.950000000000001));
#1154=VERTEX_POINT('',#1153);
#1155=CARTESIAN_POINT('',(-6.974999999999998,-1.100000000000001,0.750000000000002));
#1156=DIRECTION('',(0.0,-1.0,0.0));
#1157=DIRECTION('',(-0.707106781186547,0.0,0.707106781186548));
#1158=AXIS2_PLACEMENT_3D('',#1155,#1156,#1157);
#1159=CIRCLE('',#1158,0.199999999999999);
#1160=EDGE_CURVE('',#1154,#1132,#1159,.T.);
#1161=ORIENTED_EDGE('',*,*,#1160,.T.);
#1162=ORIENTED_EDGE('',*,*,#1137,.F.);
#1163=ORIENTED_EDGE('',*,*,#1113,.T.);
#1164=CARTESIAN_POINT('',(-6.974999999999998,1.099999999999998,0.950000000000001));
#1165=DIRECTION('',(0.0,-1.0,0.0));
#1166=VECTOR('',#1165,2.199999999999999);
#1167=LINE('',#1164,#1166);
#1168=EDGE_CURVE('',#1099,#1154,#1167,.T.);
#1169=ORIENTED_EDGE('',*,*,#1168,.T.);
#1170=EDGE_LOOP('',(#1161,#1162,#1163,#1169));
#1171=FACE_OUTER_BOUND('',#1170,.T.);
#1172=ADVANCED_FACE('',(#1171),#1152,.F.);
#1173=CARTESIAN_POINT('',(-6.175000000000001,1.099999999999998,0.950000000000001));
#1174=DIRECTION('',(0.0,0.0,-1.0));
#1175=DIRECTION('',(-1.0,0.0,0.0));
#1176=AXIS2_PLACEMENT_3D('',#1173,#1174,#1175);
#1177=PLANE('',#1176);
#1178=CARTESIAN_POINT('',(-6.175000000000001,-1.100000000000001,0.950000000000001));
#1179=VERTEX_POINT('',#1178);
#1180=CARTESIAN_POINT('',(-6.175000000000001,-1.100000000000001,0.950000000000001));
#1181=DIRECTION('',(-1.0,0.0,0.0));
#1182=VECTOR('',#1181,0.799999999999997);
#1183=LINE('',#1180,#1182);
#1184=EDGE_CURVE('',#1179,#1154,#1183,.T.);
#1185=ORIENTED_EDGE('',*,*,#1184,.T.);
#1186=ORIENTED_EDGE('',*,*,#1168,.F.);
#1187=ORIENTED_EDGE('',*,*,#1104,.T.);
#1188=CARTESIAN_POINT('',(-6.175000000000001,1.099999999999998,0.950000000000001));
#1189=DIRECTION('',(0.0,-1.0,0.0));
#1190=VECTOR('',#1189,2.199999999999999);
#1191=LINE('',#1188,#1190);
#1192=EDGE_CURVE('',#1091,#1179,#1191,.T.);
#1193=ORIENTED_EDGE('',*,*,#1192,.T.);
#1194=EDGE_LOOP('',(#1185,#1186,#1187,#1193));
#1195=FACE_OUTER_BOUND('',#1194,.T.);
#1196=ADVANCED_FACE('',(#1195),#1177,.T.);
#1197=CARTESIAN_POINT('',(-6.175000000000001,1.099999999999998,1.350000000000003));
#1198=DIRECTION('',(1.0,0.0,0.0));
#1199=DIRECTION('',(0.0,0.0,-1.0));
#1200=AXIS2_PLACEMENT_3D('',#1197,#1198,#1199);
#1201=PLANE('',#1200);
#1202=CARTESIAN_POINT('',(-6.175000000000001,-1.100000000000001,1.350000000000003));
#1203=VERTEX_POINT('',#1202);
#1204=CARTESIAN_POINT('',(-6.175000000000001,-1.100000000000001,1.350000000000001));
#1205=DIRECTION('',(0.0,0.0,-1.0));
#1206=VECTOR('',#1205,0.400000000000000);
#1207=LINE('',#1204,#1206);
#1208=EDGE_CURVE('',#1203,#1179,#1207,.T.);
#1209=ORIENTED_EDGE('',*,*,#1208,.T.);
#1210=ORIENTED_EDGE('',*,*,#1192,.F.);
#1211=ORIENTED_EDGE('',*,*,#1096,.T.);
#1212=CARTESIAN_POINT('',(-6.175000000000001,1.099999999999998,1.350000000000003));
#1213=DIRECTION('',(0.0,-1.0,0.0));
#1214=VECTOR('',#1213,2.199999999999999);
#1215=LINE('',#1212,#1214);
#1216=EDGE_CURVE('',#1083,#1203,#1215,.T.);
#1217=ORIENTED_EDGE('',*,*,#1216,.T.);
#1218=EDGE_LOOP('',(#1209,#1210,#1211,#1217));
#1219=FACE_OUTER_BOUND('',#1218,.T.);
#1220=ADVANCED_FACE('',(#1219),#1201,.T.);
#1221=CARTESIAN_POINT('',(-6.974999999999998,1.099999999999998,1.350000000000003));
#1222=DIRECTION('',(0.0,0.0,1.0));
#1223=DIRECTION('',(1.0,0.0,0.0));
#1224=AXIS2_PLACEMENT_3D('',#1221,#1222,#1223);
#1225=PLANE('',#1224);
#1226=CARTESIAN_POINT('',(-6.974999999999998,-1.100000000000001,1.350000000000003));
#1227=VERTEX_POINT('',#1226);
#1228=CARTESIAN_POINT('',(-6.974999999999998,-1.100000000000001,1.350000000000003));
#1229=DIRECTION('',(1.0,0.0,0.0));
#1230=VECTOR('',#1229,0.799999999999997);
#1231=LINE('',#1228,#1230);
#1232=EDGE_CURVE('',#1227,#1203,#1231,.T.);
#1233=ORIENTED_EDGE('',*,*,#1232,.T.);
#1234=ORIENTED_EDGE('',*,*,#1216,.F.);
#1235=ORIENTED_EDGE('',*,*,#1088,.T.);
#1236=CARTESIAN_POINT('',(-6.974999999999998,1.099999999999998,1.350000000000003));
#1237=DIRECTION('',(0.0,-1.0,0.0));
#1238=VECTOR('',#1237,2.199999999999999);
#1239=LINE('',#1236,#1238);
#1240=EDGE_CURVE('',#1074,#1227,#1239,.T.);
#1241=ORIENTED_EDGE('',*,*,#1240,.T.);
#1242=EDGE_LOOP('',(#1233,#1234,#1235,#1241));
#1243=FACE_OUTER_BOUND('',#1242,.T.);
#1244=ADVANCED_FACE('',(#1243),#1225,.T.);
#1245=CARTESIAN_POINT('',(-6.974999999999998,1.099999999999998,0.750000000000002));
#1246=DIRECTION('',(0.0,-1.0,0.0));
#1247=DIRECTION('',(-0.707106781186546,0.0,0.707106781186549));
#1248=AXIS2_PLACEMENT_3D('',#1245,#1246,#1247);
#1249=CYLINDRICAL_SURFACE('',#1248,0.600000000000001);
#1250=CARTESIAN_POINT('',(-7.574999999999999,-1.100000000000001,0.750000000000002));
#1251=VERTEX_POINT('',#1250);
#1252=CARTESIAN_POINT('',(-6.974999999999998,-1.100000000000001,0.750000000000002));
#1253=DIRECTION('',(0.0,1.0,0.0));
#1254=DIRECTION('',(-0.707106781186546,0.0,0.707106781186549));
#1255=AXIS2_PLACEMENT_3D('',#1252,#1253,#1254);
#1256=CIRCLE('',#1255,0.600000000000001);
#1257=EDGE_CURVE('',#1251,#1227,#1256,.T.);
#1258=ORIENTED_EDGE('',*,*,#1257,.T.);
#1259=ORIENTED_EDGE('',*,*,#1240,.F.);
#1260=ORIENTED_EDGE('',*,*,#1080,.T.);
#1261=CARTESIAN_POINT('',(-7.574999999999999,1.099999999999998,0.750000000000002));
#1262=DIRECTION('',(0.0,-1.0,0.0));
#1263=VECTOR('',#1262,2.199999999999999);
#1264=LINE('',#1261,#1263);
#1265=EDGE_CURVE('',#1066,#1251,#1264,.T.);
#1266=ORIENTED_EDGE('',*,*,#1265,.T.);
#1267=EDGE_LOOP('',(#1258,#1259,#1260,#1266));
#1268=FACE_OUTER_BOUND('',#1267,.T.);
#1269=ADVANCED_FACE('',(#1268),#1249,.T.);
#1270=CARTESIAN_POINT('',(-7.574999999999999,1.099999999999998,-4.150000000000000));
#1271=DIRECTION('',(-1.0,0.0,0.0));
#1272=DIRECTION('',(0.0,0.0,1.0));
#1273=AXIS2_PLACEMENT_3D('',#1270,#1271,#1272);
#1274=PLANE('',#1273);
#1275=ORIENTED_EDGE('',*,*,#1048,.T.);
#1276=CARTESIAN_POINT('',(-7.574999999999999,-1.100000000000001,0.200000000000001));
#1277=DIRECTION('',(0.0,0.0,1.0));
#1278=VECTOR('',#1277,0.550000000000001);
#1279=LINE('',#1276,#1278);
#1280=EDGE_CURVE('',#1035,#1251,#1279,.T.);
#1281=ORIENTED_EDGE('',*,*,#1280,.T.);
#1282=ORIENTED_EDGE('',*,*,#1265,.F.);
#1283=ORIENTED_EDGE('',*,*,#1071,.T.);
#1284=EDGE_LOOP('',(#1275,#1281,#1282,#1283));
#1285=FACE_OUTER_BOUND('',#1284,.T.);
#1286=ADVANCED_FACE('',(#1285),#1274,.T.);
#1287=CARTESIAN_POINT('',(1.824999999999999,-1.100000000000001,-3.128777805133280));
#1288=DIRECTION('',(0.0,1.0,0.0));
#1289=DIRECTION('',(0.0,0.0,-1.0));
#1290=AXIS2_PLACEMENT_3D('',#1287,#1288,#1289);
#1291=PLANE('',#1290);
#1292=ORIENTED_EDGE('',*,*,#1040,.T.);
#1293=ORIENTED_EDGE('',*,*,#1143,.F.);
#1294=ORIENTED_EDGE('',*,*,#1160,.F.);
#1295=ORIENTED_EDGE('',*,*,#1184,.F.);
#1296=ORIENTED_EDGE('',*,*,#1208,.F.);
#1297=ORIENTED_EDGE('',*,*,#1232,.F.);
#1298=ORIENTED_EDGE('',*,*,#1257,.F.);
#1299=ORIENTED_EDGE('',*,*,#1280,.F.);
#1300=EDGE_LOOP('',(#1292,#1293,#1294,#1295,#1296,#1297,#1298,#1299));
#1301=FACE_OUTER_BOUND('',#1300,.T.);
#1302=ADVANCED_FACE('',(#1301),#1291,.F.);
#1303=CLOSED_SHELL('',(#1058,#1123,#1147,#1172,#1196,#1220,#1244,#1269,#1286,#1302));
#1304=MANIFOLD_SOLID_BREP('A32',#1303);
#1305=STYLED_ITEM('NONE',(#399),#1304);
#1306=ADVANCED_BREP_SHAPE_REPRESENTATION('ABSR1',(#392,#730,#1017,#1304),#28);
#1307=SHAPE_REPRESENTATION_RELATIONSHIP('SRRPL1','',#1306,#62);
ENDSEC;
END-ISO-10303-21;
