ISO-10303-21;
HEADER;
/****************************************************************
 * Generated by software with PDE/Lib inside                    *
 * PDElib Version v51a, created Mon 11/23/2009                  *
 * ITI Transcendata (http://www.transcendata.com/)              *
 ****************************************************************/
FILE_DESCRIPTION((''),'2;1');
FILE_NAME('CORE_FERROXCUBE_PLT14-5-1-S.stp','2011-01-26T16:34:02',(''),(''),'Mechanical Desktop 2011','Mechanical Desktop 2011',', , ');
FILE_SCHEMA(('AUTOMOTIVE_DESIGN { 1 2 10303 214 1 1 1 1 }'));
ENDSEC;
DATA;
#10=(NAMED_UNIT(*)PLANE_ANGLE_UNIT()SI_UNIT($,.RADIAN.));
#11=DIMENSIONAL_EXPONENTS(0.0,0.0,0.0,0.0,0.0,0.0,0.0);
#12=PLANE_ANGLE_MEASURE_WITH_UNIT(PLANE_ANGLE_MEASURE(0.017453292500000),#10);
#16=(CONVERSION_BASED_UNIT('DEGREE',#12)NAMED_UNIT(#11)PLANE_ANGLE_UNIT());
#20=(NAMED_UNIT(*)SI_UNIT($,.STERADIAN.)SOLID_ANGLE_UNIT());
#24=(LENGTH_UNIT()NAMED_UNIT(*)SI_UNIT(.MILLI.,.METRE.));
#26=UNCERTAINTY_MEASURE_WITH_UNIT(LENGTH_MEASURE(0.000001000000000),#24,'DISTANCE_ACCURACY_VALUE','');
#28=(GEOMETRIC_REPRESENTATION_CONTEXT(3)GLOBAL_UNCERTAINTY_ASSIGNED_CONTEXT((#26))GLOBAL_UNIT_ASSIGNED_CONTEXT((#16,#20,#24))REPRESENTATION_CONTEXT('','3D'));
#29=APPLICATION_CONTEXT('automotive design');
#30=APPLICATION_PROTOCOL_DEFINITION('INTERNATIONAL_STANDARD','automotive_design',1998,#29);
#31=PRODUCT_CONTEXT('3D Mechanical Parts',#29,'mechanical');
#32=PRODUCT('Product','Product','',(#31));
#33=PRODUCT_RELATED_PRODUCT_CATEGORY('part',$,(#32));
#34=PRODUCT_CATEGORY('part',$);
#35=PERSON('1','Design','Joe',$,$,$);
#36=ORGANIZATION($,'None','None');
#37=PERSON_AND_ORGANIZATION(#35,#36);
#38=PERSON_AND_ORGANIZATION_ROLE('design_owner');
#39=APPLIED_PERSON_AND_ORGANIZATION_ASSIGNMENT(#37,#38,(#32));
#40=PRODUCT_DEFINITION_FORMATION_WITH_SPECIFIED_SOURCE('None','',#32,.BOUGHT.);
#41=PERSON('2','Creator','Joe',$,$,$);
#42=ORGANIZATION($,'None','None');
#43=PERSON_AND_ORGANIZATION(#41,#42);
#44=PERSON_AND_ORGANIZATION_ROLE('creator');
#45=APPLIED_PERSON_AND_ORGANIZATION_ASSIGNMENT(#43,#44,(#40));
#46=PERSON('3','Supplier','Joe',$,$,$);
#47=ORGANIZATION($,'None','None');
#48=PERSON_AND_ORGANIZATION(#46,#47);
#49=PERSON_AND_ORGANIZATION_ROLE('design_supplier');
#50=APPLIED_PERSON_AND_ORGANIZATION_ASSIGNMENT(#48,#49,(#40));
#51=PRODUCT_DEFINITION_CONTEXT('part definition',#29,'design');
#52=PRODUCT_DEFINITION('None','',#40,#51);
#53=PERSON('4','Creator','Joe',$,$,$);
#54=ORGANIZATION($,'None','None');
#55=PERSON_AND_ORGANIZATION(#53,#54);
#56=PERSON_AND_ORGANIZATION_ROLE('creator');
#57=APPLIED_PERSON_AND_ORGANIZATION_ASSIGNMENT(#55,#56,(#52));
#58=CARTESIAN_POINT('NONE',(0.0,0.0,0.0));
#59=DIRECTION('NONE',(0.0,0.0,1.0));
#60=DIRECTION('NONE',(1.0,0.0,0.0));
#61=AXIS2_PLACEMENT_3D('NONE',#58,#59,#60);
#62=SHAPE_REPRESENTATION('SR1',(#61),#28);
#63=PRODUCT_DEFINITION_SHAPE('PDS1','Test Part',#52);
#64=SHAPE_DEFINITION_REPRESENTATION(#63,#62);
#65=CARTESIAN_POINT('',(-7.150000000000002,1.350000000000005,-3.650000000000000));
#66=DIRECTION('',(0.0,1.0,0.0));
#67=DIRECTION('',(0.0,0.0,1.0));
#68=AXIS2_PLACEMENT_3D('',#65,#66,#67);
#69=PLANE('',#68);
#70=CARTESIAN_POINT('',(-7.150000000000002,1.350000000000005,-3.249999999999999));
#71=VERTEX_POINT('',#70);
#72=CARTESIAN_POINT('',(7.150000000000002,1.350000000000012,-3.249999999999999));
#73=VERTEX_POINT('',#72);
#74=CARTESIAN_POINT('',(-7.149999999999997,1.350000000000005,-3.250000000000000));
#75=DIRECTION('',(1.0,0.0,0.0));
#76=VECTOR('',#75,14.299999999999999);
#77=LINE('',#74,#76);
#78=EDGE_CURVE('',#71,#73,#77,.T.);
#79=ORIENTED_EDGE('',*,*,#78,.F.);
#80=CARTESIAN_POINT('',(-7.150000000000002,1.350000000000005,-3.650000000000000));
#81=VERTEX_POINT('',#80);
#82=CARTESIAN_POINT('',(-7.150000000000002,1.350000000000005,-3.650000000000000));
#83=DIRECTION('',(0.0,0.0,1.0));
#84=VECTOR('',#83,0.400000000000000);
#85=LINE('',#82,#84);
#86=EDGE_CURVE('',#81,#71,#85,.T.);
#87=ORIENTED_EDGE('',*,*,#86,.F.);
#88=CARTESIAN_POINT('',(7.150000000000002,1.350000000000012,-3.650000000000000));
#89=VERTEX_POINT('',#88);
#90=CARTESIAN_POINT('',(7.149999999999999,1.350000000000017,-3.649999999999998));
#91=DIRECTION('',(-1.0,0.0,0.0));
#92=VECTOR('',#91,14.299999999999997);
#93=LINE('',#90,#92);
#94=EDGE_CURVE('',#89,#81,#93,.T.);
#95=ORIENTED_EDGE('',*,*,#94,.F.);
#96=CARTESIAN_POINT('',(7.150000000000002,1.350000000000012,-3.249999999999999));
#97=DIRECTION('',(0.0,0.0,-1.0));
#98=VECTOR('',#97,0.400000000000000);
#99=LINE('',#96,#98);
#100=EDGE_CURVE('',#73,#89,#99,.T.);
#101=ORIENTED_EDGE('',*,*,#100,.F.);
#102=EDGE_LOOP('',(#79,#87,#95,#101));
#103=FACE_OUTER_BOUND('',#102,.T.);
#104=ADVANCED_FACE('',(#103),#69,.F.);
#105=CARTESIAN_POINT('',(7.150000000000002,-1.349999999999991,-3.650000000000000));
#106=DIRECTION('',(0.0,-1.0,0.0));
#107=DIRECTION('',(0.0,0.0,-1.0));
#108=AXIS2_PLACEMENT_3D('',#105,#106,#107);
#109=PLANE('',#108);
#110=CARTESIAN_POINT('',(7.150000000000002,-1.349999999999991,-3.249999999999999));
#111=VERTEX_POINT('',#110);
#112=CARTESIAN_POINT('',(-7.150000000000002,-1.349999999999998,-3.249999999999999));
#113=VERTEX_POINT('',#112);
#114=CARTESIAN_POINT('',(7.149999999999997,-1.349999999999991,-3.250000000000000));
#115=DIRECTION('',(-1.0,0.0,0.0));
#116=VECTOR('',#115,14.299999999999999);
#117=LINE('',#114,#116);
#118=EDGE_CURVE('',#111,#113,#117,.T.);
#119=ORIENTED_EDGE('',*,*,#118,.F.);
#120=CARTESIAN_POINT('',(7.150000000000002,-1.349999999999991,-3.650000000000000));
#121=VERTEX_POINT('',#120);
#122=CARTESIAN_POINT('',(7.150000000000002,-1.349999999999991,-3.650000000000000));
#123=DIRECTION('',(0.0,0.0,1.0));
#124=VECTOR('',#123,0.400000000000000);
#125=LINE('',#122,#124);
#126=EDGE_CURVE('',#121,#111,#125,.T.);
#127=ORIENTED_EDGE('',*,*,#126,.F.);
#128=CARTESIAN_POINT('',(-7.150000000000002,-1.349999999999998,-3.650000000000000));
#129=VERTEX_POINT('',#128);
#130=CARTESIAN_POINT('',(-7.150000000000000,-1.349999999999996,-3.649999999999998));
#131=DIRECTION('',(1.0,0.0,0.0));
#132=VECTOR('',#131,14.299999999999999);
#133=LINE('',#130,#132);
#134=EDGE_CURVE('',#129,#121,#133,.T.);
#135=ORIENTED_EDGE('',*,*,#134,.F.);
#136=CARTESIAN_POINT('',(-7.150000000000002,-1.350000000000005,-3.249999999999999));
#137=DIRECTION('',(0.0,0.0,-1.0));
#138=VECTOR('',#137,0.400000000000000);
#139=LINE('',#136,#138);
#140=EDGE_CURVE('',#113,#129,#139,.T.);
#141=ORIENTED_EDGE('',*,*,#140,.F.);
#142=EDGE_LOOP('',(#119,#127,#135,#141));
#143=FACE_OUTER_BOUND('',#142,.T.);
#144=ADVANCED_FACE('',(#143),#109,.F.);
#145=CARTESIAN_POINT('',(0.0,3.552714E-015,-3.249999999999999));
#146=DIRECTION('',(0.0,0.0,1.0));
#147=DIRECTION('',(1.0,0.0,0.0));
#148=AXIS2_PLACEMENT_3D('',#145,#146,#147);
#149=PLANE('',#148);
#150=CARTESIAN_POINT('',(-7.150000000000002,1.350000000000005,-3.249999999999999));
#151=DIRECTION('',(0.0,-1.0,0.0));
#152=VECTOR('',#151,2.700000000000003);
#153=LINE('',#150,#152);
#154=EDGE_CURVE('',#71,#113,#153,.T.);
#155=ORIENTED_EDGE('',*,*,#154,.F.);
#156=ORIENTED_EDGE('',*,*,#78,.T.);
#157=CARTESIAN_POINT('',(7.150000000000002,-1.349999999999991,-3.249999999999999));
#158=DIRECTION('',(0.0,1.0,0.0));
#159=VECTOR('',#158,2.700000000000003);
#160=LINE('',#157,#159);
#161=EDGE_CURVE('',#111,#73,#160,.T.);
#162=ORIENTED_EDGE('',*,*,#161,.F.);
#163=ORIENTED_EDGE('',*,*,#118,.T.);
#164=EDGE_LOOP('',(#155,#156,#162,#163));
#165=FACE_OUTER_BOUND('',#164,.T.);
#166=ADVANCED_FACE('',(#165),#149,.F.);
#167=CARTESIAN_POINT('',(0.0,3.552714E-015,-3.649999999999998));
#168=DIRECTION('',(0.0,0.0,1.0));
#169=DIRECTION('',(1.0,0.0,0.0));
#170=AXIS2_PLACEMENT_3D('',#167,#168,#169);
#171=PLANE('',#170);
#172=ORIENTED_EDGE('',*,*,#94,.T.);
#173=CARTESIAN_POINT('',(-7.150000000000002,1.850000000000005,-3.650000000000000));
#174=VERTEX_POINT('',#173);
#175=CARTESIAN_POINT('',(-7.150000000000002,1.850000000000009,-3.650000000000000));
#176=DIRECTION('',(0.0,-1.0,0.0));
#177=VECTOR('',#176,0.500000000000004);
#178=LINE('',#175,#177);
#179=EDGE_CURVE('',#174,#81,#178,.T.);
#180=ORIENTED_EDGE('',*,*,#179,.F.);
#181=CARTESIAN_POINT('',(-6.449999999999999,2.550000000000008,-3.650000000000000));
#182=VERTEX_POINT('',#181);
#183=CARTESIAN_POINT('',(-6.449999999999999,1.850000000000005,-3.649999999999998));
#184=DIRECTION('',(0.0,0.0,1.0));
#185=DIRECTION('',(-0.707106781186550,0.707106781186545,0.0));
#186=AXIS2_PLACEMENT_3D('',#183,#184,#185);
#187=CIRCLE('',#186,0.700000000000000);
#188=EDGE_CURVE('',#182,#174,#187,.T.);
#189=ORIENTED_EDGE('',*,*,#188,.F.);
#190=CARTESIAN_POINT('',(6.449999999999999,2.550000000000008,-3.650000000000000));
#191=VERTEX_POINT('',#190);
#192=CARTESIAN_POINT('',(6.449999999999998,2.550000000000008,-3.650000000000000));
#193=DIRECTION('',(-1.0,0.0,0.0));
#194=VECTOR('',#193,12.899999999999999);
#195=LINE('',#192,#194);
#196=EDGE_CURVE('',#191,#182,#195,.T.);
#197=ORIENTED_EDGE('',*,*,#196,.F.);
#198=CARTESIAN_POINT('',(7.150000000000002,1.850000000000012,-3.650000000000000));
#199=VERTEX_POINT('',#198);
#200=CARTESIAN_POINT('',(6.449999999999999,1.850000000000012,-3.649999999999998));
#201=DIRECTION('',(0.0,0.0,1.000000000000000));
#202=DIRECTION('',(0.707106781186551,0.707106781186544,0.0));
#203=AXIS2_PLACEMENT_3D('',#200,#201,#202);
#204=CIRCLE('',#203,0.700000000000000);
#205=EDGE_CURVE('',#199,#191,#204,.T.);
#206=ORIENTED_EDGE('',*,*,#205,.F.);
#207=CARTESIAN_POINT('',(7.150000000000002,1.350000000000012,-3.650000000000000));
#208=DIRECTION('',(0.0,1.0,0.0));
#209=VECTOR('',#208,0.500000000000000);
#210=LINE('',#207,#209);
#211=EDGE_CURVE('',#89,#199,#210,.T.);
#212=ORIENTED_EDGE('',*,*,#211,.F.);
#213=EDGE_LOOP('',(#172,#180,#189,#197,#206,#212));
#214=FACE_OUTER_BOUND('',#213,.T.);
#215=ADVANCED_FACE('',(#214),#171,.F.);
#216=CARTESIAN_POINT('',(0.0,3.552714E-015,-3.649999999999998));
#217=DIRECTION('',(0.0,0.0,1.0));
#218=DIRECTION('',(1.0,0.0,0.0));
#219=AXIS2_PLACEMENT_3D('',#216,#217,#218);
#220=PLANE('',#219);
#221=ORIENTED_EDGE('',*,*,#134,.T.);
#222=CARTESIAN_POINT('',(7.150000000000002,-1.849999999999998,-3.650000000000000));
#223=VERTEX_POINT('',#222);
#224=CARTESIAN_POINT('',(7.150000000000002,-1.849999999999994,-3.650000000000000));
#225=DIRECTION('',(0.0,1.0,0.0));
#226=VECTOR('',#225,0.500000000000004);
#227=LINE('',#224,#226);
#228=EDGE_CURVE('',#223,#121,#227,.T.);
#229=ORIENTED_EDGE('',*,*,#228,.F.);
#230=CARTESIAN_POINT('',(6.449999999999999,-2.549999999999994,-3.650000000000000));
#231=VERTEX_POINT('',#230);
#232=CARTESIAN_POINT('',(6.449999999999999,-1.849999999999998,-3.649999999999998));
#233=DIRECTION('',(0.0,0.0,1.000000000000000));
#234=DIRECTION('',(0.707106781186551,-0.707106781186544,0.0));
#235=AXIS2_PLACEMENT_3D('',#232,#233,#234);
#236=CIRCLE('',#235,0.700000000000000);
#237=EDGE_CURVE('',#231,#223,#236,.T.);
#238=ORIENTED_EDGE('',*,*,#237,.F.);
#239=CARTESIAN_POINT('',(-6.449999999999999,-2.549999999999994,-3.650000000000000));
#240=VERTEX_POINT('',#239);
#241=CARTESIAN_POINT('',(-6.449999999999996,-2.549999999999994,-3.650000000000000));
#242=DIRECTION('',(1.0,0.0,0.0));
#243=VECTOR('',#242,12.899999999999999);
#244=LINE('',#241,#243);
#245=EDGE_CURVE('',#240,#231,#244,.T.);
#246=ORIENTED_EDGE('',*,*,#245,.F.);
#247=CARTESIAN_POINT('',(-7.150000000000002,-1.849999999999998,-3.650000000000000));
#248=VERTEX_POINT('',#247);
#249=CARTESIAN_POINT('',(-6.449999999999999,-1.849999999999998,-3.649999999999998));
#250=DIRECTION('',(0.0,0.0,1.0));
#251=DIRECTION('',(-0.707106781186550,-0.707106781186545,0.0));
#252=AXIS2_PLACEMENT_3D('',#249,#250,#251);
#253=CIRCLE('',#252,0.700000000000000);
#254=EDGE_CURVE('',#248,#240,#253,.T.);
#255=ORIENTED_EDGE('',*,*,#254,.F.);
#256=CARTESIAN_POINT('',(-7.150000000000002,-1.349999999999998,-3.650000000000000));
#257=DIRECTION('',(0.0,-1.0,0.0));
#258=VECTOR('',#257,0.500000000000000);
#259=LINE('',#256,#258);
#260=EDGE_CURVE('',#129,#248,#259,.T.);
#261=ORIENTED_EDGE('',*,*,#260,.F.);
#262=EDGE_LOOP('',(#221,#229,#238,#246,#255,#261));
#263=FACE_OUTER_BOUND('',#262,.T.);
#264=ADVANCED_FACE('',(#263),#220,.F.);
#265=CARTESIAN_POINT('',(7.150000000000002,-2.549999999999994,-2.150000000000000));
#266=DIRECTION('',(1.0,0.0,0.0));
#267=DIRECTION('',(0.0,0.0,-1.0));
#268=AXIS2_PLACEMENT_3D('',#265,#266,#267);
#269=PLANE('',#268);
#270=ORIENTED_EDGE('',*,*,#126,.T.);
#271=ORIENTED_EDGE('',*,*,#161,.T.);
#272=ORIENTED_EDGE('',*,*,#100,.T.);
#273=ORIENTED_EDGE('',*,*,#211,.T.);
#274=CARTESIAN_POINT('',(7.150000000000002,1.850000000000012,-1.850000000000000));
#275=VERTEX_POINT('',#274);
#276=CARTESIAN_POINT('',(7.150000000000002,1.850000000000012,-1.850000000000000));
#277=DIRECTION('',(0.0,0.0,-1.0));
#278=VECTOR('',#277,1.800000000000000);
#279=LINE('',#276,#278);
#280=EDGE_CURVE('',#275,#199,#279,.T.);
#281=ORIENTED_EDGE('',*,*,#280,.F.);
#282=CARTESIAN_POINT('',(7.150000000000002,-1.849999999999998,-1.850000000000000));
#283=VERTEX_POINT('',#282);
#284=CARTESIAN_POINT('',(7.150000000000002,1.850000000000012,-1.850000000000000));
#285=DIRECTION('',(0.0,-1.0,0.0));
#286=VECTOR('',#285,3.700000000000010);
#287=LINE('',#284,#286);
#288=EDGE_CURVE('',#275,#283,#287,.T.);
#289=ORIENTED_EDGE('',*,*,#288,.T.);
#290=CARTESIAN_POINT('',(7.150000000000002,-1.849999999999998,-3.650000000000000));
#291=DIRECTION('',(0.0,0.0,1.0));
#292=VECTOR('',#291,1.800000000000000);
#293=LINE('',#290,#292);
#294=EDGE_CURVE('',#223,#283,#293,.T.);
#295=ORIENTED_EDGE('',*,*,#294,.F.);
#296=ORIENTED_EDGE('',*,*,#228,.T.);
#297=EDGE_LOOP('',(#270,#271,#272,#273,#281,#289,#295,#296));
#298=FACE_OUTER_BOUND('',#297,.T.);
#299=ADVANCED_FACE('',(#298),#269,.T.);
#300=CARTESIAN_POINT('',(6.449999999999999,-1.849999999999998,-2.150000000000000));
#301=DIRECTION('',(0.0,0.0,-1.0));
#302=DIRECTION('',(0.707106781186551,-0.707106781186544,0.0));
#303=AXIS2_PLACEMENT_3D('',#300,#301,#302);
#304=CYLINDRICAL_SURFACE('',#303,0.700000000000000);
#305=ORIENTED_EDGE('',*,*,#237,.T.);
#306=ORIENTED_EDGE('',*,*,#294,.T.);
#307=CARTESIAN_POINT('',(6.449999999999999,-2.549999999999994,-1.850000000000000));
#308=VERTEX_POINT('',#307);
#309=CARTESIAN_POINT('',(6.449999999999999,-1.849999999999998,-1.849999999999998));
#310=DIRECTION('',(0.0,0.0,-1.000000000000000));
#311=DIRECTION('',(0.707106781186551,-0.707106781186544,0.0));
#312=AXIS2_PLACEMENT_3D('',#309,#310,#311);
#313=CIRCLE('',#312,0.700000000000000);
#314=EDGE_CURVE('',#283,#308,#313,.T.);
#315=ORIENTED_EDGE('',*,*,#314,.T.);
#316=CARTESIAN_POINT('',(6.449999999999999,-2.549999999999994,-1.850000000000000));
#317=DIRECTION('',(0.0,0.0,-1.0));
#318=VECTOR('',#317,1.800000000000000);
#319=LINE('',#316,#318);
#320=EDGE_CURVE('',#308,#231,#319,.T.);
#321=ORIENTED_EDGE('',*,*,#320,.T.);
#322=EDGE_LOOP('',(#305,#306,#315,#321));
#323=FACE_OUTER_BOUND('',#322,.T.);
#324=ADVANCED_FACE('',(#323),#304,.T.);
#325=CARTESIAN_POINT('',(-7.150000000000002,-2.549999999999994,-2.150000000000000));
#326=DIRECTION('',(0.0,-1.0,0.0));
#327=DIRECTION('',(0.0,0.0,-1.0));
#328=AXIS2_PLACEMENT_3D('',#325,#326,#327);
#329=PLANE('',#328);
#330=ORIENTED_EDGE('',*,*,#320,.F.);
#331=CARTESIAN_POINT('',(-6.449999999999999,-2.549999999999994,-1.850000000000000));
#332=VERTEX_POINT('',#331);
#333=CARTESIAN_POINT('',(6.450000000000003,-2.549999999999994,-1.850000000000000));
#334=DIRECTION('',(-1.0,0.0,0.0));
#335=VECTOR('',#334,12.899999999999999);
#336=LINE('',#333,#335);
#337=EDGE_CURVE('',#308,#332,#336,.T.);
#338=ORIENTED_EDGE('',*,*,#337,.T.);
#339=CARTESIAN_POINT('',(-6.449999999999999,-2.549999999999994,-3.650000000000000));
#340=DIRECTION('',(0.0,0.0,1.0));
#341=VECTOR('',#340,1.800000000000000);
#342=LINE('',#339,#341);
#343=EDGE_CURVE('',#240,#332,#342,.T.);
#344=ORIENTED_EDGE('',*,*,#343,.F.);
#345=ORIENTED_EDGE('',*,*,#245,.T.);
#346=EDGE_LOOP('',(#330,#338,#344,#345));
#347=FACE_OUTER_BOUND('',#346,.T.);
#348=ADVANCED_FACE('',(#347),#329,.T.);
#349=CARTESIAN_POINT('',(-6.449999999999999,-1.849999999999998,-2.150000000000000));
#350=DIRECTION('',(0.0,0.0,-1.0));
#351=DIRECTION('',(-0.707106781186550,-0.707106781186545,0.0));
#352=AXIS2_PLACEMENT_3D('',#349,#350,#351);
#353=CYLINDRICAL_SURFACE('',#352,0.700000000000000);
#354=ORIENTED_EDGE('',*,*,#254,.T.);
#355=ORIENTED_EDGE('',*,*,#343,.T.);
#356=CARTESIAN_POINT('',(-7.150000000000002,-1.849999999999998,-1.850000000000000));
#357=VERTEX_POINT('',#356);
#358=CARTESIAN_POINT('',(-6.449999999999999,-1.849999999999998,-1.849999999999998));
#359=DIRECTION('',(0.0,0.0,-1.0));
#360=DIRECTION('',(-0.707106781186550,-0.707106781186545,0.0));
#361=AXIS2_PLACEMENT_3D('',#358,#359,#360);
#362=CIRCLE('',#361,0.700000000000000);
#363=EDGE_CURVE('',#332,#357,#362,.T.);
#364=ORIENTED_EDGE('',*,*,#363,.T.);
#365=CARTESIAN_POINT('',(-7.150000000000002,-1.849999999999998,-1.850000000000000));
#366=DIRECTION('',(0.0,0.0,-1.0));
#367=VECTOR('',#366,1.800000000000000);
#368=LINE('',#365,#367);
#369=EDGE_CURVE('',#357,#248,#368,.T.);
#370=ORIENTED_EDGE('',*,*,#369,.T.);
#371=EDGE_LOOP('',(#354,#355,#364,#370));
#372=FACE_OUTER_BOUND('',#371,.T.);
#373=ADVANCED_FACE('',(#372),#353,.T.);
#374=CARTESIAN_POINT('',(-7.150000000000002,2.550000000000008,-2.150000000000000));
#375=DIRECTION('',(-1.0,0.0,0.0));
#376=DIRECTION('',(0.0,0.0,1.0));
#377=AXIS2_PLACEMENT_3D('',#374,#375,#376);
#378=PLANE('',#377);
#379=ORIENTED_EDGE('',*,*,#140,.T.);
#380=ORIENTED_EDGE('',*,*,#260,.T.);
#381=ORIENTED_EDGE('',*,*,#369,.F.);
#382=CARTESIAN_POINT('',(-7.150000000000002,1.850000000000005,-1.850000000000000));
#383=VERTEX_POINT('',#382);
#384=CARTESIAN_POINT('',(-7.150000000000002,-1.849999999999998,-1.850000000000000));
#385=DIRECTION('',(0.0,1.0,0.0));
#386=VECTOR('',#385,3.700000000000003);
#387=LINE('',#384,#386);
#388=EDGE_CURVE('',#357,#383,#387,.T.);
#389=ORIENTED_EDGE('',*,*,#388,.T.);
#390=CARTESIAN_POINT('',(-7.150000000000002,1.850000000000005,-3.650000000000000));
#391=DIRECTION('',(0.0,0.0,1.0));
#392=VECTOR('',#391,1.800000000000000);
#393=LINE('',#390,#392);
#394=EDGE_CURVE('',#174,#383,#393,.T.);
#395=ORIENTED_EDGE('',*,*,#394,.F.);
#396=ORIENTED_EDGE('',*,*,#179,.T.);
#397=ORIENTED_EDGE('',*,*,#86,.T.);
#398=ORIENTED_EDGE('',*,*,#154,.T.);
#399=EDGE_LOOP('',(#379,#380,#381,#389,#395,#396,#397,#398));
#400=FACE_OUTER_BOUND('',#399,.T.);
#401=ADVANCED_FACE('',(#400),#378,.T.);
#402=CARTESIAN_POINT('',(-6.449999999999999,1.850000000000005,-2.150000000000000));
#403=DIRECTION('',(0.0,0.0,-1.0));
#404=DIRECTION('',(-0.707106781186550,0.707106781186545,0.0));
#405=AXIS2_PLACEMENT_3D('',#402,#403,#404);
#406=CYLINDRICAL_SURFACE('',#405,0.700000000000000);
#407=ORIENTED_EDGE('',*,*,#188,.T.);
#408=ORIENTED_EDGE('',*,*,#394,.T.);
#409=CARTESIAN_POINT('',(-6.449999999999999,2.550000000000008,-1.850000000000000));
#410=VERTEX_POINT('',#409);
#411=CARTESIAN_POINT('',(-6.449999999999999,1.850000000000005,-1.849999999999998));
#412=DIRECTION('',(0.0,0.0,-1.0));
#413=DIRECTION('',(-0.707106781186550,0.707106781186545,0.0));
#414=AXIS2_PLACEMENT_3D('',#411,#412,#413);
#415=CIRCLE('',#414,0.700000000000000);
#416=EDGE_CURVE('',#383,#410,#415,.T.);
#417=ORIENTED_EDGE('',*,*,#416,.T.);
#418=CARTESIAN_POINT('',(-6.449999999999999,2.550000000000008,-1.850000000000000));
#419=DIRECTION('',(0.0,0.0,-1.0));
#420=VECTOR('',#419,1.800000000000000);
#421=LINE('',#418,#420);
#422=EDGE_CURVE('',#410,#182,#421,.T.);
#423=ORIENTED_EDGE('',*,*,#422,.T.);
#424=EDGE_LOOP('',(#407,#408,#417,#423));
#425=FACE_OUTER_BOUND('',#424,.T.);
#426=ADVANCED_FACE('',(#425),#406,.T.);
#427=CARTESIAN_POINT('',(7.150000000000002,2.550000000000008,-2.150000000000000));
#428=DIRECTION('',(0.0,1.0,0.0));
#429=DIRECTION('',(0.0,0.0,1.0));
#430=AXIS2_PLACEMENT_3D('',#427,#428,#429);
#431=PLANE('',#430);
#432=CARTESIAN_POINT('',(6.449999999999999,2.550000000000008,-1.850000000000000));
#433=VERTEX_POINT('',#432);
#434=CARTESIAN_POINT('',(6.449999999999999,2.550000000000008,-3.650000000000000));
#435=DIRECTION('',(0.0,0.0,1.0));
#436=VECTOR('',#435,1.800000000000000);
#437=LINE('',#434,#436);
#438=EDGE_CURVE('',#191,#433,#437,.T.);
#439=ORIENTED_EDGE('',*,*,#438,.F.);
#440=ORIENTED_EDGE('',*,*,#196,.T.);
#441=ORIENTED_EDGE('',*,*,#422,.F.);
#442=CARTESIAN_POINT('',(-6.450000000000001,2.550000000000008,-1.850000000000000));
#443=DIRECTION('',(1.0,0.0,0.0));
#444=VECTOR('',#443,12.899999999999999);
#445=LINE('',#442,#444);
#446=EDGE_CURVE('',#410,#433,#445,.T.);
#447=ORIENTED_EDGE('',*,*,#446,.T.);
#448=EDGE_LOOP('',(#439,#440,#441,#447));
#449=FACE_OUTER_BOUND('',#448,.T.);
#450=ADVANCED_FACE('',(#449),#431,.T.);
#451=CARTESIAN_POINT('',(0.0,3.552714E-015,-1.849999999999998));
#452=DIRECTION('',(0.0,0.0,1.0));
#453=DIRECTION('',(1.0,0.0,0.0));
#454=AXIS2_PLACEMENT_3D('',#451,#452,#453);
#455=PLANE('',#454);
#456=CARTESIAN_POINT('',(6.449999999999999,1.850000000000012,-1.849999999999998));
#457=DIRECTION('',(0.0,0.0,-1.000000000000000));
#458=DIRECTION('',(0.707106781186551,0.707106781186544,0.0));
#459=AXIS2_PLACEMENT_3D('',#456,#457,#458);
#460=CIRCLE('',#459,0.700000000000000);
#461=EDGE_CURVE('',#433,#275,#460,.T.);
#462=ORIENTED_EDGE('',*,*,#461,.F.);
#463=ORIENTED_EDGE('',*,*,#446,.F.);
#464=ORIENTED_EDGE('',*,*,#416,.F.);
#465=ORIENTED_EDGE('',*,*,#388,.F.);
#466=ORIENTED_EDGE('',*,*,#363,.F.);
#467=ORIENTED_EDGE('',*,*,#337,.F.);
#468=ORIENTED_EDGE('',*,*,#314,.F.);
#469=ORIENTED_EDGE('',*,*,#288,.F.);
#470=EDGE_LOOP('',(#462,#463,#464,#465,#466,#467,#468,#469));
#471=FACE_OUTER_BOUND('',#470,.T.);
#472=ADVANCED_FACE('',(#471),#455,.T.);
#473=CARTESIAN_POINT('',(6.449999999999999,1.850000000000012,-2.150000000000000));
#474=DIRECTION('',(0.0,0.0,-1.0));
#475=DIRECTION('',(0.707106781186551,0.707106781186544,0.0));
#476=AXIS2_PLACEMENT_3D('',#473,#474,#475);
#477=CYLINDRICAL_SURFACE('',#476,0.700000000000000);
#478=ORIENTED_EDGE('',*,*,#205,.T.);
#479=ORIENTED_EDGE('',*,*,#438,.T.);
#480=ORIENTED_EDGE('',*,*,#461,.T.);
#481=ORIENTED_EDGE('',*,*,#280,.T.);
#482=EDGE_LOOP('',(#478,#479,#480,#481));
#483=FACE_OUTER_BOUND('',#482,.T.);
#484=ADVANCED_FACE('',(#483),#477,.T.);
#485=CLOSED_SHELL('',(#104,#144,#166,#215,#264,#299,#324,#348,#373,#401,#426,#450,#472,#484));
#486=MANIFOLD_SOLID_BREP('9FF',#485);
#487=COLOUR_RGB('250',0.330000000000000,0.330000000000000,0.330000000000000);
#488=SURFACE_STYLE_USAGE(.BOTH.,#489);
#489=SURFACE_SIDE_STYLE('NONE',(#490));
#490=SURFACE_STYLE_FILL_AREA(#491);
#491=FILL_AREA_STYLE('NONE',(#492));
#492=FILL_AREA_STYLE_COLOUR('NONE',#487);
#493=PRESENTATION_STYLE_ASSIGNMENT((#488));
#494=STYLED_ITEM('NONE',(#493),#486);
#495=MECHANICAL_DESIGN_GEOMETRIC_PRESENTATION_REPRESENTATION('NONE',(#494),#28);
#496=PRESENTATION_LAYER_ASSIGNMENT('3D','None',(#486));
#497=ADVANCED_BREP_SHAPE_REPRESENTATION('ABSR1',(#486),#28);
#498=SHAPE_REPRESENTATION_RELATIONSHIP('SRRPL1','',#497,#62);
ENDSEC;
END-ISO-10303-21;
