ISO-10303-21;
HEADER;
/* Generated by software containing ST-Developer
 * from STEP Tools, Inc. (www.steptools.com) 
 */

FILE_DESCRIPTION(
/* description */ (''),
/* implementation_level */ '2;1');

FILE_NAME(
/* name */ 
'G:\\Applications\\Altium\\CernLib\\StepLib\\CORE_VAC_T60006-L2020-W40
9-09_h.stp',
/* time_stamp */ '2017-02-13T11:28:27+01:00',
/* author */ ('jchouvet'),
/* organization */ (''),
/* preprocessor_version */ 'ST-DEVELOPER v16.1',
/* originating_system */ 'AutoCAD Mechanical',
/* authorisation */ '');

FILE_SCHEMA (('AUTOMOTIVE_DESIGN { 1 0 10303 214 3 1 1 }'));
ENDSEC;

DATA;
#10=MECHANICAL_DESIGN_GEOMETRIC_PRESENTATION_REPRESENTATION('',(#17),#187);
#11=DIMENSIONAL_EXPONENTS(0.,0.,0.,0.,0.,0.,0.);
#12=(
CONVERSION_BASED_UNIT('degree',#13)
NAMED_UNIT(#11)
PLANE_ANGLE_UNIT()
);
#13=PLANE_ANGLE_MEASURE_WITH_UNIT(PLANE_ANGLE_MEASURE(0.01745329252),#190);
#14=PRESENTATION_LAYER_ASSIGNMENT('1','3D',(#18));
#15=SHAPE_REPRESENTATION_RELATIONSHIP('SRR','None',#193,#16);
#16=ADVANCED_BREP_SHAPE_REPRESENTATION('',(#18),#186);
#17=STYLED_ITEM('',(#203),#18);
#18=MANIFOLD_SOLID_BREP('2D8A',#107);
#19=PLANE('',#114);
#20=PLANE('',#118);
#21=CYLINDRICAL_SURFACE('',#112,5.15);
#22=CYLINDRICAL_SURFACE('',#122,11.3);
#23=FACE_BOUND('',#40,.T.);
#24=FACE_BOUND('',#42,.T.);
#25=FACE_BOUND('',#44,.T.);
#26=FACE_BOUND('',#46,.T.);
#27=FACE_BOUND('',#48,.T.);
#28=FACE_BOUND('',#50,.T.);
#29=FACE_BOUND('',#52,.T.);
#30=FACE_BOUND('',#54,.T.);
#31=FACE_OUTER_BOUND('',#39,.T.);
#32=FACE_OUTER_BOUND('',#41,.T.);
#33=FACE_OUTER_BOUND('',#43,.T.);
#34=FACE_OUTER_BOUND('',#45,.T.);
#35=FACE_OUTER_BOUND('',#47,.T.);
#36=FACE_OUTER_BOUND('',#49,.T.);
#37=FACE_OUTER_BOUND('',#51,.T.);
#38=FACE_OUTER_BOUND('',#53,.T.);
#39=EDGE_LOOP('',(#79));
#40=EDGE_LOOP('',(#80));
#41=EDGE_LOOP('',(#81));
#42=EDGE_LOOP('',(#82));
#43=EDGE_LOOP('',(#83));
#44=EDGE_LOOP('',(#84));
#45=EDGE_LOOP('',(#85));
#46=EDGE_LOOP('',(#86));
#47=EDGE_LOOP('',(#87));
#48=EDGE_LOOP('',(#88));
#49=EDGE_LOOP('',(#89));
#50=EDGE_LOOP('',(#90));
#51=EDGE_LOOP('',(#91));
#52=EDGE_LOOP('',(#92));
#53=EDGE_LOOP('',(#93));
#54=EDGE_LOOP('',(#94));
#55=CIRCLE('',#110,5.15);
#56=CIRCLE('',#111,6.15);
#57=CIRCLE('',#113,5.15);
#58=CIRCLE('',#115,10.3);
#59=CIRCLE('',#117,6.15);
#60=CIRCLE('',#119,10.3);
#61=CIRCLE('',#121,11.3);
#62=CIRCLE('',#123,11.3);
#63=VERTEX_POINT('',#161);
#64=VERTEX_POINT('',#163);
#65=VERTEX_POINT('',#166);
#66=VERTEX_POINT('',#169);
#67=VERTEX_POINT('',#172);
#68=VERTEX_POINT('',#175);
#69=VERTEX_POINT('',#178);
#70=VERTEX_POINT('',#181);
#71=EDGE_CURVE('',#63,#63,#55,.T.);
#72=EDGE_CURVE('',#64,#64,#56,.T.);
#73=EDGE_CURVE('',#65,#65,#57,.T.);
#74=EDGE_CURVE('',#66,#66,#58,.T.);
#75=EDGE_CURVE('',#67,#67,#59,.T.);
#76=EDGE_CURVE('',#68,#68,#60,.T.);
#77=EDGE_CURVE('',#69,#69,#61,.T.);
#78=EDGE_CURVE('',#70,#70,#62,.T.);
#79=ORIENTED_EDGE('',*,*,#71,.T.);
#80=ORIENTED_EDGE('',*,*,#72,.T.);
#81=ORIENTED_EDGE('',*,*,#73,.F.);
#82=ORIENTED_EDGE('',*,*,#71,.F.);
#83=ORIENTED_EDGE('',*,*,#74,.F.);
#84=ORIENTED_EDGE('',*,*,#72,.F.);
#85=ORIENTED_EDGE('',*,*,#73,.T.);
#86=ORIENTED_EDGE('',*,*,#75,.T.);
#87=ORIENTED_EDGE('',*,*,#76,.F.);
#88=ORIENTED_EDGE('',*,*,#75,.F.);
#89=ORIENTED_EDGE('',*,*,#77,.T.);
#90=ORIENTED_EDGE('',*,*,#76,.T.);
#91=ORIENTED_EDGE('',*,*,#78,.F.);
#92=ORIENTED_EDGE('',*,*,#77,.F.);
#93=ORIENTED_EDGE('',*,*,#74,.T.);
#94=ORIENTED_EDGE('',*,*,#78,.T.);
#95=TOROIDAL_SURFACE('',#109,6.15,1.);
#96=TOROIDAL_SURFACE('',#116,6.15,1.);
#97=TOROIDAL_SURFACE('',#120,10.3,1.);
#98=TOROIDAL_SURFACE('',#124,10.3,1.);
#99=ADVANCED_FACE('',(#31,#23),#95,.T.);
#100=ADVANCED_FACE('',(#32,#24),#21,.F.);
#101=ADVANCED_FACE('',(#33,#25),#19,.F.);
#102=ADVANCED_FACE('',(#34,#26),#96,.T.);
#103=ADVANCED_FACE('',(#35,#27),#20,.T.);
#104=ADVANCED_FACE('',(#36,#28),#97,.T.);
#105=ADVANCED_FACE('',(#37,#29),#22,.T.);
#106=ADVANCED_FACE('',(#38,#30),#98,.T.);
#107=CLOSED_SHELL('',(#99,#100,#101,#102,#103,#104,#105,#106));
#108=AXIS2_PLACEMENT_3D('placement',#159,#125,#126);
#109=AXIS2_PLACEMENT_3D('',#160,#127,#128);
#110=AXIS2_PLACEMENT_3D('',#162,#129,#130);
#111=AXIS2_PLACEMENT_3D('',#164,#131,#132);
#112=AXIS2_PLACEMENT_3D('',#165,#133,#134);
#113=AXIS2_PLACEMENT_3D('',#167,#135,#136);
#114=AXIS2_PLACEMENT_3D('',#168,#137,#138);
#115=AXIS2_PLACEMENT_3D('',#170,#139,#140);
#116=AXIS2_PLACEMENT_3D('',#171,#141,#142);
#117=AXIS2_PLACEMENT_3D('',#173,#143,#144);
#118=AXIS2_PLACEMENT_3D('',#174,#145,#146);
#119=AXIS2_PLACEMENT_3D('',#176,#147,#148);
#120=AXIS2_PLACEMENT_3D('',#177,#149,#150);
#121=AXIS2_PLACEMENT_3D('',#179,#151,#152);
#122=AXIS2_PLACEMENT_3D('',#180,#153,#154);
#123=AXIS2_PLACEMENT_3D('',#182,#155,#156);
#124=AXIS2_PLACEMENT_3D('',#183,#157,#158);
#125=DIRECTION('axis',(0.,0.,1.));
#126=DIRECTION('refdir',(1.,0.,0.));
#127=DIRECTION('center_axis',(0.,0.,1.));
#128=DIRECTION('ref_axis',(1.,0.,0.));
#129=DIRECTION('center_axis',(0.,0.,1.));
#130=DIRECTION('ref_axis',(-1.,0.,0.));
#131=DIRECTION('center_axis',(0.,0.,-1.));
#132=DIRECTION('ref_axis',(-1.,0.,0.));
#133=DIRECTION('center_axis',(0.,0.,1.));
#134=DIRECTION('ref_axis',(-1.,0.,0.));
#135=DIRECTION('center_axis',(0.,0.,-1.));
#136=DIRECTION('ref_axis',(-1.,0.,0.));
#137=DIRECTION('center_axis',(0.,0.,1.));
#138=DIRECTION('ref_axis',(1.,0.,0.));
#139=DIRECTION('center_axis',(0.,0.,1.));
#140=DIRECTION('ref_axis',(-1.,0.,0.));
#141=DIRECTION('center_axis',(0.,0.,-1.));
#142=DIRECTION('ref_axis',(-1.,0.,0.));
#143=DIRECTION('center_axis',(0.,0.,1.));
#144=DIRECTION('ref_axis',(-1.,0.,0.));
#145=DIRECTION('center_axis',(0.,0.,1.));
#146=DIRECTION('ref_axis',(1.,0.,0.));
#147=DIRECTION('center_axis',(0.,0.,-1.));
#148=DIRECTION('ref_axis',(-1.,0.,0.));
#149=DIRECTION('center_axis',(0.,0.,1.));
#150=DIRECTION('ref_axis',(1.,0.,0.));
#151=DIRECTION('center_axis',(0.,0.,1.));
#152=DIRECTION('ref_axis',(-1.,0.,0.));
#153=DIRECTION('center_axis',(0.,0.,1.));
#154=DIRECTION('ref_axis',(-1.,0.,0.));
#155=DIRECTION('center_axis',(0.,0.,-1.));
#156=DIRECTION('ref_axis',(-1.,0.,0.));
#157=DIRECTION('center_axis',(0.,0.,1.));
#158=DIRECTION('ref_axis',(1.,0.,0.));
#159=CARTESIAN_POINT('',(0.,0.,0.));
#160=CARTESIAN_POINT('Origin',(0.,0.,1.));
#161=CARTESIAN_POINT('',(5.15,6.30693101560887E-16,1.));
#162=CARTESIAN_POINT('Origin',(0.,0.,1.));
#163=CARTESIAN_POINT('',(6.15,-7.53157781475622E-16,0.));
#164=CARTESIAN_POINT('Origin',(0.,0.,0.));
#165=CARTESIAN_POINT('Origin',(0.,0.,0.));
#166=CARTESIAN_POINT('',(5.15,-6.30693101560887E-16,9.2));
#167=CARTESIAN_POINT('Origin',(0.,0.,9.2));
#168=CARTESIAN_POINT('Origin',(-1.15320906919709E-16,0.,0.));
#169=CARTESIAN_POINT('',(10.3,1.26138620312177E-15,0.));
#170=CARTESIAN_POINT('Origin',(0.,0.,0.));
#171=CARTESIAN_POINT('Origin',(0.,0.,9.2));
#172=CARTESIAN_POINT('',(6.15,7.53157781475622E-16,10.2));
#173=CARTESIAN_POINT('Origin',(0.,0.,10.2));
#174=CARTESIAN_POINT('Origin',(-1.15320906919709E-16,0.,10.2));
#175=CARTESIAN_POINT('',(10.3,-1.26138620312177E-15,10.2));
#176=CARTESIAN_POINT('Origin',(0.,0.,10.2));
#177=CARTESIAN_POINT('Origin',(0.,0.,9.2));
#178=CARTESIAN_POINT('',(11.3,1.38385088303651E-15,9.2));
#179=CARTESIAN_POINT('Origin',(0.,0.,9.2));
#180=CARTESIAN_POINT('Origin',(0.,0.,0.));
#181=CARTESIAN_POINT('',(11.3,-1.38385088303651E-15,1.));
#182=CARTESIAN_POINT('Origin',(0.,0.,1.));
#183=CARTESIAN_POINT('Origin',(0.,0.,1.));
#184=UNCERTAINTY_MEASURE_WITH_UNIT(LENGTH_MEASURE(0.01),#188,
'DISTANCE_ACCURACY_VALUE',
'Maximum model space distance between geometric entities at asserted c
onnectivities');
#185=UNCERTAINTY_MEASURE_WITH_UNIT(LENGTH_MEASURE(1.E-6),#188,
'DISTANCE_ACCURACY_VALUE',
'Maximum model space distance between geometric entities at asserted c
onnectivities');
#186=(
GEOMETRIC_REPRESENTATION_CONTEXT(3)
GLOBAL_UNCERTAINTY_ASSIGNED_CONTEXT((#184))
GLOBAL_UNIT_ASSIGNED_CONTEXT((#188,#190,#189))
REPRESENTATION_CONTEXT('','3D')
);
#187=(
GEOMETRIC_REPRESENTATION_CONTEXT(3)
GLOBAL_UNCERTAINTY_ASSIGNED_CONTEXT((#185))
GLOBAL_UNIT_ASSIGNED_CONTEXT((#188,#12,#189))
REPRESENTATION_CONTEXT('','3D')
);
#188=(
LENGTH_UNIT()
NAMED_UNIT(*)
SI_UNIT(.MILLI.,.METRE.)
);
#189=(
NAMED_UNIT(*)
SI_UNIT($,.STERADIAN.)
SOLID_ANGLE_UNIT()
);
#190=(
NAMED_UNIT(*)
PLANE_ANGLE_UNIT()
SI_UNIT($,.RADIAN.)
);
#191=SHAPE_DEFINITION_REPRESENTATION(#192,#193);
#192=PRODUCT_DEFINITION_SHAPE('',$,#195);
#193=SHAPE_REPRESENTATION('',(#108),#186);
#194=PRODUCT_DEFINITION_CONTEXT('part definition',#199,'design');
#195=PRODUCT_DEFINITION('Product','Product',#196,#194);
#196=PRODUCT_DEFINITION_FORMATION('',$,#201);
#197=PRODUCT_RELATED_PRODUCT_CATEGORY('Product','Product',(#201));
#198=APPLICATION_PROTOCOL_DEFINITION('international standard',
'automotive_design',2009,#199);
#199=APPLICATION_CONTEXT(
'Core Data for Automotive Mechanical Design Process');
#200=PRODUCT_CONTEXT('part definition',#199,'mechanical');
#201=PRODUCT('Product','Product',$,(#200));
#202=PRESENTATION_STYLE_ASSIGNMENT((#204));
#203=PRESENTATION_STYLE_ASSIGNMENT((#205));
#204=SURFACE_STYLE_USAGE(.BOTH.,#206);
#205=SURFACE_STYLE_USAGE(.BOTH.,#207);
#206=SURFACE_SIDE_STYLE('',(#208));
#207=SURFACE_SIDE_STYLE('',(#209));
#208=SURFACE_STYLE_FILL_AREA(#210);
#209=SURFACE_STYLE_FILL_AREA(#211);
#210=FILL_AREA_STYLE('',(#212));
#211=FILL_AREA_STYLE('',(#213));
#212=FILL_AREA_STYLE_COLOUR('',#214);
#213=FILL_AREA_STYLE_COLOUR('',#215);
#214=COLOUR_RGB('',1.,1.,1.);
#215=COLOUR_RGB('',0.462745098039216,0.462745098039216,0.462745098039216);
ENDSEC;
END-ISO-10303-21;
