ISO-10303-21;
HEADER;
/* Generated by software containing ST-Developer
 * from STEP Tools, Inc. (www.steptools.com) 
 */

FILE_DESCRIPTION(
/* description */ (''),
/* implementation_level */ '2;1');

FILE_NAME(
/* name */ 
'G:\\Applications\\Altium\\CernLib\\StepLib\\CORE_FERROXCUBE_ELP 43-10
-28.stp',
/* time_stamp */ '2015-03-09T10:47:57+01:00',
/* author */ ('admchouv'),
/* organization */ (''),
/* preprocessor_version */ 'ST-DEVELOPER v15.5',
/* originating_system */ 'AutoCAD Mechanical',
/* authorisation */ '');

FILE_SCHEMA (('AUTOMOTIVE_DESIGN { 1 0 10303 214 3 1 1 }'));
ENDSEC;

DATA;
#10=MECHANICAL_DESIGN_GEOMETRIC_PRESENTATION_REPRESENTATION('',(#17),#1123);
#11=DIMENSIONAL_EXPONENTS(0.,0.,0.,0.,0.,0.,0.);
#12=(
CONVERSION_BASED_UNIT('degree',#13)
NAMED_UNIT(#11)
PLANE_ANGLE_UNIT()
);
#13=PLANE_ANGLE_MEASURE_WITH_UNIT(PLANE_ANGLE_MEASURE(0.01745329252),#1126);
#14=PRESENTATION_LAYER_ASSIGNMENT('3D','',(#675));
#15=SHAPE_REPRESENTATION_RELATIONSHIP('SRR','None',#1129,#16);
#16=ADVANCED_BREP_SHAPE_REPRESENTATION($,(#675),#1122);
#17=STYLED_ITEM($,(#1139),#675);
#18=PLANE($,#680);
#19=PLANE($,#681);
#20=PLANE($,#687);
#21=PLANE($,#690);
#22=PLANE($,#696);
#23=PLANE($,#702);
#24=PLANE($,#710);
#25=PLANE($,#711);
#26=PLANE($,#717);
#27=PLANE($,#722);
#28=PLANE($,#723);
#29=PLANE($,#724);
#30=PLANE($,#725);
#31=PLANE($,#726);
#32=PLANE($,#727);
#33=PLANE($,#728);
#34=PLANE($,#729);
#35=PLANE($,#730);
#36=PLANE($,#731);
#37=PLANE($,#732);
#38=PLANE($,#733);
#39=PLANE($,#734);
#40=FACE_OUTER_BOUND($,#74,.T.);
#41=FACE_OUTER_BOUND($,#75,.T.);
#42=FACE_OUTER_BOUND($,#76,.T.);
#43=FACE_OUTER_BOUND($,#77,.T.);
#44=FACE_OUTER_BOUND($,#78,.T.);
#45=FACE_OUTER_BOUND($,#79,.T.);
#46=FACE_OUTER_BOUND($,#80,.T.);
#47=FACE_OUTER_BOUND($,#81,.T.);
#48=FACE_OUTER_BOUND($,#82,.T.);
#49=FACE_OUTER_BOUND($,#83,.T.);
#50=FACE_OUTER_BOUND($,#84,.T.);
#51=FACE_OUTER_BOUND($,#85,.T.);
#52=FACE_OUTER_BOUND($,#86,.T.);
#53=FACE_OUTER_BOUND($,#87,.T.);
#54=FACE_OUTER_BOUND($,#88,.T.);
#55=FACE_OUTER_BOUND($,#89,.T.);
#56=FACE_OUTER_BOUND($,#90,.T.);
#57=FACE_OUTER_BOUND($,#91,.T.);
#58=FACE_OUTER_BOUND($,#92,.T.);
#59=FACE_OUTER_BOUND($,#93,.T.);
#60=FACE_OUTER_BOUND($,#94,.T.);
#61=FACE_OUTER_BOUND($,#95,.T.);
#62=FACE_OUTER_BOUND($,#96,.T.);
#63=FACE_OUTER_BOUND($,#97,.T.);
#64=FACE_OUTER_BOUND($,#98,.T.);
#65=FACE_OUTER_BOUND($,#99,.T.);
#66=FACE_OUTER_BOUND($,#100,.T.);
#67=FACE_OUTER_BOUND($,#101,.T.);
#68=FACE_OUTER_BOUND($,#102,.T.);
#69=FACE_OUTER_BOUND($,#103,.T.);
#70=FACE_OUTER_BOUND($,#104,.T.);
#71=FACE_OUTER_BOUND($,#105,.T.);
#72=FACE_OUTER_BOUND($,#106,.T.);
#73=FACE_OUTER_BOUND($,#107,.T.);
#74=EDGE_LOOP($,(#436,#437,#438,#439));
#75=EDGE_LOOP($,(#440,#441,#442,#443,#444,#445,#446,#447,#448,#449,#450,
#451));
#76=EDGE_LOOP($,(#452,#453,#454,#455,#456,#457,#458,#459));
#77=EDGE_LOOP($,(#460,#461,#462,#463));
#78=EDGE_LOOP($,(#464,#465,#466,#467));
#79=EDGE_LOOP($,(#468,#469,#470,#471));
#80=EDGE_LOOP($,(#472,#473,#474,#475,#476,#477,#478,#479,#480,#481,#482,
#483));
#81=EDGE_LOOP($,(#484,#485,#486,#487));
#82=EDGE_LOOP($,(#488,#489,#490,#491));
#83=EDGE_LOOP($,(#492,#493,#494,#495,#496,#497,#498,#499));
#84=EDGE_LOOP($,(#500,#501,#502,#503));
#85=EDGE_LOOP($,(#504,#505,#506,#507,#508,#509,#510,#511));
#86=EDGE_LOOP($,(#512,#513,#514,#515));
#87=EDGE_LOOP($,(#516,#517,#518,#519));
#88=EDGE_LOOP($,(#520,#521,#522,#523));
#89=EDGE_LOOP($,(#524,#525,#526,#527,#528,#529,#530,#531));
#90=EDGE_LOOP($,(#532,#533,#534,#535,#536,#537,#538,#539));
#91=EDGE_LOOP($,(#540,#541,#542,#543));
#92=EDGE_LOOP($,(#544,#545,#546,#547));
#93=EDGE_LOOP($,(#548,#549,#550,#551));
#94=EDGE_LOOP($,(#552,#553,#554,#555));
#95=EDGE_LOOP($,(#556,#557,#558,#559));
#96=EDGE_LOOP($,(#560,#561,#562,#563));
#97=EDGE_LOOP($,(#564,#565,#566,#567));
#98=EDGE_LOOP($,(#568,#569,#570,#571));
#99=EDGE_LOOP($,(#572,#573,#574,#575));
#100=EDGE_LOOP($,(#576,#577,#578,#579));
#101=EDGE_LOOP($,(#580,#581,#582,#583));
#102=EDGE_LOOP($,(#584,#585,#586,#587));
#103=EDGE_LOOP($,(#588,#589,#590,#591,#592,#593,#594,#595));
#104=EDGE_LOOP($,(#596,#597,#598,#599,#600,#601,#602,#603));
#105=EDGE_LOOP($,(#604,#605,#606,#607));
#106=EDGE_LOOP($,(#608,#609,#610,#611,#612,#613,#614,#615,#616,#617,#618,
#619,#620,#621,#622,#623));
#107=EDGE_LOOP($,(#624,#625,#626,#627));
#108=LINE($,#931,#180);
#109=LINE($,#934,#181);
#110=LINE($,#937,#182);
#111=LINE($,#939,#183);
#112=LINE($,#941,#184);
#113=LINE($,#943,#185);
#114=LINE($,#945,#186);
#115=LINE($,#947,#187);
#116=LINE($,#949,#188);
#117=LINE($,#951,#189);
#118=LINE($,#953,#190);
#119=LINE($,#955,#191);
#120=LINE($,#956,#192);
#121=LINE($,#959,#193);
#122=LINE($,#963,#194);
#123=LINE($,#967,#195);
#124=LINE($,#971,#196);
#125=LINE($,#975,#197);
#126=LINE($,#976,#198);
#127=LINE($,#979,#199);
#128=LINE($,#982,#200);
#129=LINE($,#985,#201);
#130=LINE($,#987,#202);
#131=LINE($,#989,#203);
#132=LINE($,#991,#204);
#133=LINE($,#993,#205);
#134=LINE($,#995,#206);
#135=LINE($,#997,#207);
#136=LINE($,#999,#208);
#137=LINE($,#1001,#209);
#138=LINE($,#1002,#210);
#139=LINE($,#1010,#211);
#140=LINE($,#1013,#212);
#141=LINE($,#1018,#213);
#142=LINE($,#1023,#214);
#143=LINE($,#1026,#215);
#144=LINE($,#1028,#216);
#145=LINE($,#1030,#217);
#146=LINE($,#1032,#218);
#147=LINE($,#1034,#219);
#148=LINE($,#1035,#220);
#149=LINE($,#1040,#221);
#150=LINE($,#1047,#222);
#151=LINE($,#1050,#223);
#152=LINE($,#1052,#224);
#153=LINE($,#1054,#225);
#154=LINE($,#1056,#226);
#155=LINE($,#1058,#227);
#156=LINE($,#1060,#228);
#157=LINE($,#1061,#229);
#158=LINE($,#1066,#230);
#159=LINE($,#1072,#231);
#160=LINE($,#1075,#232);
#161=LINE($,#1076,#233);
#162=LINE($,#1083,#234);
#163=LINE($,#1085,#235);
#164=LINE($,#1086,#236);
#165=LINE($,#1089,#237);
#166=LINE($,#1091,#238);
#167=LINE($,#1092,#239);
#168=LINE($,#1094,#240);
#169=LINE($,#1096,#241);
#170=LINE($,#1099,#242);
#171=LINE($,#1101,#243);
#172=LINE($,#1102,#244);
#173=LINE($,#1105,#245);
#174=LINE($,#1107,#246);
#175=LINE($,#1108,#247);
#176=LINE($,#1110,#248);
#177=LINE($,#1112,#249);
#178=LINE($,#1114,#250);
#179=LINE($,#1115,#251);
#180=VECTOR($,#741,5.4);
#181=VECTOR($,#744,5.4);
#182=VECTOR($,#747,14.65);
#183=VECTOR($,#748,6.68);
#184=VECTOR($,#749,5.4);
#185=VECTOR($,#750,14.65);
#186=VECTOR($,#751,5.4);
#187=VECTOR($,#752,3.41999999999999);
#188=VECTOR($,#753,9.63);
#189=VECTOR($,#754,42.82);
#190=VECTOR($,#755,9.63);
#191=VECTOR($,#756,3.41999999999999);
#192=VECTOR($,#757,5.4);
#193=VECTOR($,#760,26.88);
#194=VECTOR($,#763,6.68);
#195=VECTOR($,#766,26.88);
#196=VECTOR($,#771,5.4);
#197=VECTOR($,#776,5.4);
#198=VECTOR($,#777,26.88);
#199=VECTOR($,#780,5.4);
#200=VECTOR($,#783,5.4);
#201=VECTOR($,#786,14.65);
#202=VECTOR($,#787,5.4);
#203=VECTOR($,#788,3.41999999999999);
#204=VECTOR($,#789,9.63);
#205=VECTOR($,#790,42.82);
#206=VECTOR($,#791,9.63);
#207=VECTOR($,#792,3.41999999999999);
#208=VECTOR($,#793,5.4);
#209=VECTOR($,#794,14.65);
#210=VECTOR($,#795,5.4);
#211=VECTOR($,#806,5.4);
#212=VECTOR($,#809,27.22);
#213=VECTOR($,#814,27.22);
#214=VECTOR($,#821,9.63);
#215=VECTOR($,#824,9.63);
#216=VECTOR($,#825,8.11);
#217=VECTOR($,#826,1.);
#218=VECTOR($,#827,11.);
#219=VECTOR($,#828,1.);
#220=VECTOR($,#829,8.10999999999999);
#221=VECTOR($,#836,5.4);
#222=VECTOR($,#845,9.63);
#223=VECTOR($,#848,27.22);
#224=VECTOR($,#849,9.63);
#225=VECTOR($,#850,8.11000000000002);
#226=VECTOR($,#851,1.);
#227=VECTOR($,#852,11.);
#228=VECTOR($,#853,1.);
#229=VECTOR($,#854,8.11);
#230=VECTOR($,#859,27.22);
#231=VECTOR($,#868,5.4);
#232=VECTOR($,#871,27.22);
#233=VECTOR($,#872,5.4);
#234=VECTOR($,#883,5.02493781056045);
#235=VECTOR($,#884,5.02493781056045);
#236=VECTOR($,#885,11.);
#237=VECTOR($,#888,1.73205080756888);
#238=VECTOR($,#889,1.73205080756888);
#239=VECTOR($,#890,11.);
#240=VECTOR($,#893,4.13397459621556);
#241=VECTOR($,#896,4.13397459621556);
#242=VECTOR($,#899,5.02493781056045);
#243=VECTOR($,#900,11.);
#244=VECTOR($,#901,5.02493781056045);
#245=VECTOR($,#904,1.73205080756888);
#246=VECTOR($,#905,11.);
#247=VECTOR($,#906,1.73205080756888);
#248=VECTOR($,#909,4.13397459621556);
#249=VECTOR($,#912,4.13397459621556);
#250=VECTOR($,#915,27.22);
#251=VECTOR($,#916,26.88);
#252=CIRCLE($,#678,0.81);
#253=CIRCLE($,#679,0.81);
#254=CIRCLE($,#682,0.81);
#255=CIRCLE($,#683,0.81);
#256=CIRCLE($,#684,0.81);
#257=CIRCLE($,#686,0.81);
#258=CIRCLE($,#689,0.81);
#259=CIRCLE($,#692,0.81);
#260=CIRCLE($,#694,0.64);
#261=CIRCLE($,#695,0.64);
#262=CIRCLE($,#697,0.64);
#263=CIRCLE($,#698,0.64);
#264=CIRCLE($,#699,0.64);
#265=CIRCLE($,#701,0.64);
#266=CIRCLE($,#704,0.64);
#267=CIRCLE($,#706,0.64);
#268=CIRCLE($,#708,0.64);
#269=CIRCLE($,#709,0.64);
#270=CIRCLE($,#712,0.64);
#271=CIRCLE($,#713,0.64);
#272=CIRCLE($,#714,0.64);
#273=CIRCLE($,#716,0.64);
#274=CIRCLE($,#719,0.64);
#275=CIRCLE($,#721,0.64);
#276=VERTEX_POINT($,#927);
#277=VERTEX_POINT($,#928);
#278=VERTEX_POINT($,#930);
#279=VERTEX_POINT($,#932);
#280=VERTEX_POINT($,#936);
#281=VERTEX_POINT($,#938);
#282=VERTEX_POINT($,#940);
#283=VERTEX_POINT($,#942);
#284=VERTEX_POINT($,#944);
#285=VERTEX_POINT($,#946);
#286=VERTEX_POINT($,#948);
#287=VERTEX_POINT($,#950);
#288=VERTEX_POINT($,#952);
#289=VERTEX_POINT($,#954);
#290=VERTEX_POINT($,#958);
#291=VERTEX_POINT($,#960);
#292=VERTEX_POINT($,#962);
#293=VERTEX_POINT($,#964);
#294=VERTEX_POINT($,#966);
#295=VERTEX_POINT($,#970);
#296=VERTEX_POINT($,#974);
#297=VERTEX_POINT($,#978);
#298=VERTEX_POINT($,#980);
#299=VERTEX_POINT($,#984);
#300=VERTEX_POINT($,#986);
#301=VERTEX_POINT($,#988);
#302=VERTEX_POINT($,#990);
#303=VERTEX_POINT($,#992);
#304=VERTEX_POINT($,#994);
#305=VERTEX_POINT($,#996);
#306=VERTEX_POINT($,#998);
#307=VERTEX_POINT($,#1000);
#308=VERTEX_POINT($,#1006);
#309=VERTEX_POINT($,#1008);
#310=VERTEX_POINT($,#1012);
#311=VERTEX_POINT($,#1015);
#312=VERTEX_POINT($,#1017);
#313=VERTEX_POINT($,#1021);
#314=VERTEX_POINT($,#1025);
#315=VERTEX_POINT($,#1027);
#316=VERTEX_POINT($,#1029);
#317=VERTEX_POINT($,#1031);
#318=VERTEX_POINT($,#1033);
#319=VERTEX_POINT($,#1039);
#320=VERTEX_POINT($,#1043);
#321=VERTEX_POINT($,#1045);
#322=VERTEX_POINT($,#1049);
#323=VERTEX_POINT($,#1051);
#324=VERTEX_POINT($,#1053);
#325=VERTEX_POINT($,#1055);
#326=VERTEX_POINT($,#1057);
#327=VERTEX_POINT($,#1059);
#328=VERTEX_POINT($,#1063);
#329=VERTEX_POINT($,#1065);
#330=VERTEX_POINT($,#1070);
#331=VERTEX_POINT($,#1074);
#332=VERTEX_POINT($,#1082);
#333=VERTEX_POINT($,#1084);
#334=VERTEX_POINT($,#1088);
#335=VERTEX_POINT($,#1090);
#336=VERTEX_POINT($,#1098);
#337=VERTEX_POINT($,#1100);
#338=VERTEX_POINT($,#1104);
#339=VERTEX_POINT($,#1106);
#340=EDGE_CURVE($,#276,#277,#252,.T.);
#341=EDGE_CURVE($,#277,#278,#108,.T.);
#342=EDGE_CURVE($,#278,#279,#253,.F.);
#343=EDGE_CURVE($,#279,#276,#109,.T.);
#344=EDGE_CURVE($,#278,#280,#110,.T.);
#345=EDGE_CURVE($,#281,#277,#111,.T.);
#346=EDGE_CURVE($,#282,#281,#112,.T.);
#347=EDGE_CURVE($,#283,#282,#113,.T.);
#348=EDGE_CURVE($,#284,#283,#114,.T.);
#349=EDGE_CURVE($,#284,#285,#115,.T.);
#350=EDGE_CURVE($,#286,#285,#116,.T.);
#351=EDGE_CURVE($,#286,#287,#117,.T.);
#352=EDGE_CURVE($,#288,#287,#118,.T.);
#353=EDGE_CURVE($,#288,#289,#119,.T.);
#354=EDGE_CURVE($,#280,#289,#120,.T.);
#355=EDGE_CURVE($,#276,#290,#121,.T.);
#356=EDGE_CURVE($,#291,#290,#254,.T.);
#357=EDGE_CURVE($,#291,#292,#122,.T.);
#358=EDGE_CURVE($,#293,#292,#255,.T.);
#359=EDGE_CURVE($,#293,#294,#123,.T.);
#360=EDGE_CURVE($,#281,#294,#256,.T.);
#361=EDGE_CURVE($,#294,#295,#124,.T.);
#362=EDGE_CURVE($,#295,#282,#257,.F.);
#363=EDGE_CURVE($,#296,#293,#125,.T.);
#364=EDGE_CURVE($,#296,#295,#126,.T.);
#365=EDGE_CURVE($,#290,#297,#127,.T.);
#366=EDGE_CURVE($,#297,#298,#258,.F.);
#367=EDGE_CURVE($,#298,#291,#128,.T.);
#368=EDGE_CURVE($,#299,#298,#129,.T.);
#369=EDGE_CURVE($,#300,#299,#130,.T.);
#370=EDGE_CURVE($,#300,#301,#131,.T.);
#371=EDGE_CURVE($,#302,#301,#132,.T.);
#372=EDGE_CURVE($,#302,#303,#133,.T.);
#373=EDGE_CURVE($,#304,#303,#134,.T.);
#374=EDGE_CURVE($,#304,#305,#135,.T.);
#375=EDGE_CURVE($,#306,#305,#136,.T.);
#376=EDGE_CURVE($,#307,#306,#137,.T.);
#377=EDGE_CURVE($,#292,#307,#138,.T.);
#378=EDGE_CURVE($,#307,#296,#259,.F.);
#379=EDGE_CURVE($,#308,#300,#260,.T.);
#380=EDGE_CURVE($,#299,#309,#261,.F.);
#381=EDGE_CURVE($,#309,#308,#139,.T.);
#382=EDGE_CURVE($,#308,#310,#140,.T.);
#383=EDGE_CURVE($,#289,#310,#262,.T.);
#384=EDGE_CURVE($,#311,#288,#263,.T.);
#385=EDGE_CURVE($,#312,#311,#141,.T.);
#386=EDGE_CURVE($,#301,#312,#264,.T.);
#387=EDGE_CURVE($,#313,#302,#265,.T.);
#388=EDGE_CURVE($,#312,#313,#142,.T.);
#389=EDGE_CURVE($,#314,#311,#143,.T.);
#390=EDGE_CURVE($,#314,#315,#144,.T.);
#391=EDGE_CURVE($,#315,#316,#145,.T.);
#392=EDGE_CURVE($,#316,#317,#146,.T.);
#393=EDGE_CURVE($,#317,#318,#147,.T.);
#394=EDGE_CURVE($,#318,#313,#148,.T.);
#395=EDGE_CURVE($,#287,#314,#266,.T.);
#396=EDGE_CURVE($,#310,#319,#149,.T.);
#397=EDGE_CURVE($,#319,#280,#267,.F.);
#398=EDGE_CURVE($,#320,#286,#268,.T.);
#399=EDGE_CURVE($,#285,#321,#269,.T.);
#400=EDGE_CURVE($,#321,#320,#150,.T.);
#401=EDGE_CURVE($,#321,#322,#151,.T.);
#402=EDGE_CURVE($,#323,#322,#152,.T.);
#403=EDGE_CURVE($,#323,#324,#153,.T.);
#404=EDGE_CURVE($,#324,#325,#154,.T.);
#405=EDGE_CURVE($,#325,#326,#155,.T.);
#406=EDGE_CURVE($,#326,#327,#156,.T.);
#407=EDGE_CURVE($,#327,#320,#157,.T.);
#408=EDGE_CURVE($,#328,#284,#270,.T.);
#409=EDGE_CURVE($,#328,#329,#158,.T.);
#410=EDGE_CURVE($,#305,#329,#271,.T.);
#411=EDGE_CURVE($,#322,#304,#272,.T.);
#412=EDGE_CURVE($,#283,#330,#273,.F.);
#413=EDGE_CURVE($,#330,#328,#159,.T.);
#414=EDGE_CURVE($,#331,#330,#160,.T.);
#415=EDGE_CURVE($,#329,#331,#161,.T.);
#416=EDGE_CURVE($,#331,#306,#274,.F.);
#417=EDGE_CURVE($,#303,#323,#275,.T.);
#418=EDGE_CURVE($,#326,#332,#162,.T.);
#419=EDGE_CURVE($,#325,#333,#163,.T.);
#420=EDGE_CURVE($,#332,#333,#164,.T.);
#421=EDGE_CURVE($,#332,#334,#165,.T.);
#422=EDGE_CURVE($,#333,#335,#166,.T.);
#423=EDGE_CURVE($,#334,#335,#167,.T.);
#424=EDGE_CURVE($,#335,#324,#168,.T.);
#425=EDGE_CURVE($,#327,#334,#169,.T.);
#426=EDGE_CURVE($,#316,#336,#170,.T.);
#427=EDGE_CURVE($,#336,#337,#171,.T.);
#428=EDGE_CURVE($,#317,#337,#172,.T.);
#429=EDGE_CURVE($,#336,#338,#173,.T.);
#430=EDGE_CURVE($,#339,#338,#174,.T.);
#431=EDGE_CURVE($,#337,#339,#175,.T.);
#432=EDGE_CURVE($,#318,#339,#176,.T.);
#433=EDGE_CURVE($,#338,#315,#177,.T.);
#434=EDGE_CURVE($,#319,#309,#178,.T.);
#435=EDGE_CURVE($,#279,#297,#179,.T.);
#436=ORIENTED_EDGE($,*,*,#340,.T.);
#437=ORIENTED_EDGE($,*,*,#341,.T.);
#438=ORIENTED_EDGE($,*,*,#342,.T.);
#439=ORIENTED_EDGE($,*,*,#343,.T.);
#440=ORIENTED_EDGE($,*,*,#344,.F.);
#441=ORIENTED_EDGE($,*,*,#341,.F.);
#442=ORIENTED_EDGE($,*,*,#345,.F.);
#443=ORIENTED_EDGE($,*,*,#346,.F.);
#444=ORIENTED_EDGE($,*,*,#347,.F.);
#445=ORIENTED_EDGE($,*,*,#348,.F.);
#446=ORIENTED_EDGE($,*,*,#349,.T.);
#447=ORIENTED_EDGE($,*,*,#350,.F.);
#448=ORIENTED_EDGE($,*,*,#351,.T.);
#449=ORIENTED_EDGE($,*,*,#352,.F.);
#450=ORIENTED_EDGE($,*,*,#353,.T.);
#451=ORIENTED_EDGE($,*,*,#354,.F.);
#452=ORIENTED_EDGE($,*,*,#340,.F.);
#453=ORIENTED_EDGE($,*,*,#355,.T.);
#454=ORIENTED_EDGE($,*,*,#356,.F.);
#455=ORIENTED_EDGE($,*,*,#357,.T.);
#456=ORIENTED_EDGE($,*,*,#358,.F.);
#457=ORIENTED_EDGE($,*,*,#359,.T.);
#458=ORIENTED_EDGE($,*,*,#360,.F.);
#459=ORIENTED_EDGE($,*,*,#345,.T.);
#460=ORIENTED_EDGE($,*,*,#360,.T.);
#461=ORIENTED_EDGE($,*,*,#361,.T.);
#462=ORIENTED_EDGE($,*,*,#362,.T.);
#463=ORIENTED_EDGE($,*,*,#346,.T.);
#464=ORIENTED_EDGE($,*,*,#361,.F.);
#465=ORIENTED_EDGE($,*,*,#359,.F.);
#466=ORIENTED_EDGE($,*,*,#363,.F.);
#467=ORIENTED_EDGE($,*,*,#364,.T.);
#468=ORIENTED_EDGE($,*,*,#356,.T.);
#469=ORIENTED_EDGE($,*,*,#365,.T.);
#470=ORIENTED_EDGE($,*,*,#366,.T.);
#471=ORIENTED_EDGE($,*,*,#367,.T.);
#472=ORIENTED_EDGE($,*,*,#367,.F.);
#473=ORIENTED_EDGE($,*,*,#368,.F.);
#474=ORIENTED_EDGE($,*,*,#369,.F.);
#475=ORIENTED_EDGE($,*,*,#370,.T.);
#476=ORIENTED_EDGE($,*,*,#371,.F.);
#477=ORIENTED_EDGE($,*,*,#372,.T.);
#478=ORIENTED_EDGE($,*,*,#373,.F.);
#479=ORIENTED_EDGE($,*,*,#374,.T.);
#480=ORIENTED_EDGE($,*,*,#375,.F.);
#481=ORIENTED_EDGE($,*,*,#376,.F.);
#482=ORIENTED_EDGE($,*,*,#377,.F.);
#483=ORIENTED_EDGE($,*,*,#357,.F.);
#484=ORIENTED_EDGE($,*,*,#358,.T.);
#485=ORIENTED_EDGE($,*,*,#377,.T.);
#486=ORIENTED_EDGE($,*,*,#378,.T.);
#487=ORIENTED_EDGE($,*,*,#363,.T.);
#488=ORIENTED_EDGE($,*,*,#379,.T.);
#489=ORIENTED_EDGE($,*,*,#369,.T.);
#490=ORIENTED_EDGE($,*,*,#380,.T.);
#491=ORIENTED_EDGE($,*,*,#381,.T.);
#492=ORIENTED_EDGE($,*,*,#379,.F.);
#493=ORIENTED_EDGE($,*,*,#382,.T.);
#494=ORIENTED_EDGE($,*,*,#383,.F.);
#495=ORIENTED_EDGE($,*,*,#353,.F.);
#496=ORIENTED_EDGE($,*,*,#384,.F.);
#497=ORIENTED_EDGE($,*,*,#385,.F.);
#498=ORIENTED_EDGE($,*,*,#386,.F.);
#499=ORIENTED_EDGE($,*,*,#370,.F.);
#500=ORIENTED_EDGE($,*,*,#387,.T.);
#501=ORIENTED_EDGE($,*,*,#371,.T.);
#502=ORIENTED_EDGE($,*,*,#386,.T.);
#503=ORIENTED_EDGE($,*,*,#388,.T.);
#504=ORIENTED_EDGE($,*,*,#388,.F.);
#505=ORIENTED_EDGE($,*,*,#385,.T.);
#506=ORIENTED_EDGE($,*,*,#389,.F.);
#507=ORIENTED_EDGE($,*,*,#390,.T.);
#508=ORIENTED_EDGE($,*,*,#391,.T.);
#509=ORIENTED_EDGE($,*,*,#392,.T.);
#510=ORIENTED_EDGE($,*,*,#393,.T.);
#511=ORIENTED_EDGE($,*,*,#394,.T.);
#512=ORIENTED_EDGE($,*,*,#395,.T.);
#513=ORIENTED_EDGE($,*,*,#389,.T.);
#514=ORIENTED_EDGE($,*,*,#384,.T.);
#515=ORIENTED_EDGE($,*,*,#352,.T.);
#516=ORIENTED_EDGE($,*,*,#383,.T.);
#517=ORIENTED_EDGE($,*,*,#396,.T.);
#518=ORIENTED_EDGE($,*,*,#397,.T.);
#519=ORIENTED_EDGE($,*,*,#354,.T.);
#520=ORIENTED_EDGE($,*,*,#398,.T.);
#521=ORIENTED_EDGE($,*,*,#350,.T.);
#522=ORIENTED_EDGE($,*,*,#399,.T.);
#523=ORIENTED_EDGE($,*,*,#400,.T.);
#524=ORIENTED_EDGE($,*,*,#400,.F.);
#525=ORIENTED_EDGE($,*,*,#401,.T.);
#526=ORIENTED_EDGE($,*,*,#402,.F.);
#527=ORIENTED_EDGE($,*,*,#403,.T.);
#528=ORIENTED_EDGE($,*,*,#404,.T.);
#529=ORIENTED_EDGE($,*,*,#405,.T.);
#530=ORIENTED_EDGE($,*,*,#406,.T.);
#531=ORIENTED_EDGE($,*,*,#407,.T.);
#532=ORIENTED_EDGE($,*,*,#399,.F.);
#533=ORIENTED_EDGE($,*,*,#349,.F.);
#534=ORIENTED_EDGE($,*,*,#408,.F.);
#535=ORIENTED_EDGE($,*,*,#409,.T.);
#536=ORIENTED_EDGE($,*,*,#410,.F.);
#537=ORIENTED_EDGE($,*,*,#374,.F.);
#538=ORIENTED_EDGE($,*,*,#411,.F.);
#539=ORIENTED_EDGE($,*,*,#401,.F.);
#540=ORIENTED_EDGE($,*,*,#408,.T.);
#541=ORIENTED_EDGE($,*,*,#348,.T.);
#542=ORIENTED_EDGE($,*,*,#412,.T.);
#543=ORIENTED_EDGE($,*,*,#413,.T.);
#544=ORIENTED_EDGE($,*,*,#413,.F.);
#545=ORIENTED_EDGE($,*,*,#414,.F.);
#546=ORIENTED_EDGE($,*,*,#415,.F.);
#547=ORIENTED_EDGE($,*,*,#409,.F.);
#548=ORIENTED_EDGE($,*,*,#410,.T.);
#549=ORIENTED_EDGE($,*,*,#415,.T.);
#550=ORIENTED_EDGE($,*,*,#416,.T.);
#551=ORIENTED_EDGE($,*,*,#375,.T.);
#552=ORIENTED_EDGE($,*,*,#417,.T.);
#553=ORIENTED_EDGE($,*,*,#402,.T.);
#554=ORIENTED_EDGE($,*,*,#411,.T.);
#555=ORIENTED_EDGE($,*,*,#373,.T.);
#556=ORIENTED_EDGE($,*,*,#418,.F.);
#557=ORIENTED_EDGE($,*,*,#405,.F.);
#558=ORIENTED_EDGE($,*,*,#419,.T.);
#559=ORIENTED_EDGE($,*,*,#420,.F.);
#560=ORIENTED_EDGE($,*,*,#421,.F.);
#561=ORIENTED_EDGE($,*,*,#420,.T.);
#562=ORIENTED_EDGE($,*,*,#422,.T.);
#563=ORIENTED_EDGE($,*,*,#423,.F.);
#564=ORIENTED_EDGE($,*,*,#422,.F.);
#565=ORIENTED_EDGE($,*,*,#419,.F.);
#566=ORIENTED_EDGE($,*,*,#404,.F.);
#567=ORIENTED_EDGE($,*,*,#424,.F.);
#568=ORIENTED_EDGE($,*,*,#421,.T.);
#569=ORIENTED_EDGE($,*,*,#425,.F.);
#570=ORIENTED_EDGE($,*,*,#406,.F.);
#571=ORIENTED_EDGE($,*,*,#418,.T.);
#572=ORIENTED_EDGE($,*,*,#426,.T.);
#573=ORIENTED_EDGE($,*,*,#427,.T.);
#574=ORIENTED_EDGE($,*,*,#428,.F.);
#575=ORIENTED_EDGE($,*,*,#392,.F.);
#576=ORIENTED_EDGE($,*,*,#429,.T.);
#577=ORIENTED_EDGE($,*,*,#430,.F.);
#578=ORIENTED_EDGE($,*,*,#431,.F.);
#579=ORIENTED_EDGE($,*,*,#427,.F.);
#580=ORIENTED_EDGE($,*,*,#431,.T.);
#581=ORIENTED_EDGE($,*,*,#432,.F.);
#582=ORIENTED_EDGE($,*,*,#393,.F.);
#583=ORIENTED_EDGE($,*,*,#428,.T.);
#584=ORIENTED_EDGE($,*,*,#429,.F.);
#585=ORIENTED_EDGE($,*,*,#426,.F.);
#586=ORIENTED_EDGE($,*,*,#391,.F.);
#587=ORIENTED_EDGE($,*,*,#433,.F.);
#588=ORIENTED_EDGE($,*,*,#344,.T.);
#589=ORIENTED_EDGE($,*,*,#397,.F.);
#590=ORIENTED_EDGE($,*,*,#434,.T.);
#591=ORIENTED_EDGE($,*,*,#380,.F.);
#592=ORIENTED_EDGE($,*,*,#368,.T.);
#593=ORIENTED_EDGE($,*,*,#366,.F.);
#594=ORIENTED_EDGE($,*,*,#435,.F.);
#595=ORIENTED_EDGE($,*,*,#342,.F.);
#596=ORIENTED_EDGE($,*,*,#376,.T.);
#597=ORIENTED_EDGE($,*,*,#416,.F.);
#598=ORIENTED_EDGE($,*,*,#414,.T.);
#599=ORIENTED_EDGE($,*,*,#412,.F.);
#600=ORIENTED_EDGE($,*,*,#347,.T.);
#601=ORIENTED_EDGE($,*,*,#362,.F.);
#602=ORIENTED_EDGE($,*,*,#364,.F.);
#603=ORIENTED_EDGE($,*,*,#378,.F.);
#604=ORIENTED_EDGE($,*,*,#381,.F.);
#605=ORIENTED_EDGE($,*,*,#434,.F.);
#606=ORIENTED_EDGE($,*,*,#396,.F.);
#607=ORIENTED_EDGE($,*,*,#382,.F.);
#608=ORIENTED_EDGE($,*,*,#387,.F.);
#609=ORIENTED_EDGE($,*,*,#394,.F.);
#610=ORIENTED_EDGE($,*,*,#432,.T.);
#611=ORIENTED_EDGE($,*,*,#430,.T.);
#612=ORIENTED_EDGE($,*,*,#433,.T.);
#613=ORIENTED_EDGE($,*,*,#390,.F.);
#614=ORIENTED_EDGE($,*,*,#395,.F.);
#615=ORIENTED_EDGE($,*,*,#351,.F.);
#616=ORIENTED_EDGE($,*,*,#398,.F.);
#617=ORIENTED_EDGE($,*,*,#407,.F.);
#618=ORIENTED_EDGE($,*,*,#425,.T.);
#619=ORIENTED_EDGE($,*,*,#423,.T.);
#620=ORIENTED_EDGE($,*,*,#424,.T.);
#621=ORIENTED_EDGE($,*,*,#403,.F.);
#622=ORIENTED_EDGE($,*,*,#417,.F.);
#623=ORIENTED_EDGE($,*,*,#372,.F.);
#624=ORIENTED_EDGE($,*,*,#343,.F.);
#625=ORIENTED_EDGE($,*,*,#435,.T.);
#626=ORIENTED_EDGE($,*,*,#365,.F.);
#627=ORIENTED_EDGE($,*,*,#355,.F.);
#628=CYLINDRICAL_SURFACE($,#677,0.81);
#629=CYLINDRICAL_SURFACE($,#685,0.81);
#630=CYLINDRICAL_SURFACE($,#688,0.81);
#631=CYLINDRICAL_SURFACE($,#691,0.81);
#632=CYLINDRICAL_SURFACE($,#693,0.64);
#633=CYLINDRICAL_SURFACE($,#700,0.64);
#634=CYLINDRICAL_SURFACE($,#703,0.64);
#635=CYLINDRICAL_SURFACE($,#705,0.64);
#636=CYLINDRICAL_SURFACE($,#707,0.64);
#637=CYLINDRICAL_SURFACE($,#715,0.64);
#638=CYLINDRICAL_SURFACE($,#718,0.64);
#639=CYLINDRICAL_SURFACE($,#720,0.64);
#640=ADVANCED_FACE($,(#40),#628,.T.);
#641=ADVANCED_FACE($,(#41),#18,.T.);
#642=ADVANCED_FACE($,(#42),#19,.T.);
#643=ADVANCED_FACE($,(#43),#629,.T.);
#644=ADVANCED_FACE($,(#44),#20,.T.);
#645=ADVANCED_FACE($,(#45),#630,.T.);
#646=ADVANCED_FACE($,(#46),#21,.T.);
#647=ADVANCED_FACE($,(#47),#631,.T.);
#648=ADVANCED_FACE($,(#48),#632,.T.);
#649=ADVANCED_FACE($,(#49),#22,.F.);
#650=ADVANCED_FACE($,(#50),#633,.T.);
#651=ADVANCED_FACE($,(#51),#23,.T.);
#652=ADVANCED_FACE($,(#52),#634,.T.);
#653=ADVANCED_FACE($,(#53),#635,.T.);
#654=ADVANCED_FACE($,(#54),#636,.T.);
#655=ADVANCED_FACE($,(#55),#24,.T.);
#656=ADVANCED_FACE($,(#56),#25,.F.);
#657=ADVANCED_FACE($,(#57),#637,.T.);
#658=ADVANCED_FACE($,(#58),#26,.F.);
#659=ADVANCED_FACE($,(#59),#638,.T.);
#660=ADVANCED_FACE($,(#60),#639,.T.);
#661=ADVANCED_FACE($,(#61),#27,.F.);
#662=ADVANCED_FACE($,(#62),#28,.F.);
#663=ADVANCED_FACE($,(#63),#29,.F.);
#664=ADVANCED_FACE($,(#64),#30,.F.);
#665=ADVANCED_FACE($,(#65),#31,.T.);
#666=ADVANCED_FACE($,(#66),#32,.T.);
#667=ADVANCED_FACE($,(#67),#33,.T.);
#668=ADVANCED_FACE($,(#68),#34,.T.);
#669=ADVANCED_FACE($,(#69),#35,.T.);
#670=ADVANCED_FACE($,(#70),#36,.T.);
#671=ADVANCED_FACE($,(#71),#37,.F.);
#672=ADVANCED_FACE($,(#72),#38,.T.);
#673=ADVANCED_FACE($,(#73),#39,.T.);
#674=CLOSED_SHELL($,(#640,#641,#642,#643,#644,#645,#646,#647,#648,#649,
#650,#651,#652,#653,#654,#655,#656,#657,#658,#659,#660,#661,#662,#663,#664,
#665,#666,#667,#668,#669,#670,#671,#672,#673));
#675=MANIFOLD_SOLID_BREP('2BE0',#674);
#676=AXIS2_PLACEMENT_3D('placement',#925,#735,#736);
#677=AXIS2_PLACEMENT_3D($,#926,#737,#738);
#678=AXIS2_PLACEMENT_3D($,#929,#739,#740);
#679=AXIS2_PLACEMENT_3D($,#933,#742,#743);
#680=AXIS2_PLACEMENT_3D($,#935,#745,#746);
#681=AXIS2_PLACEMENT_3D($,#957,#758,#759);
#682=AXIS2_PLACEMENT_3D($,#961,#761,#762);
#683=AXIS2_PLACEMENT_3D($,#965,#764,#765);
#684=AXIS2_PLACEMENT_3D($,#968,#767,#768);
#685=AXIS2_PLACEMENT_3D($,#969,#769,#770);
#686=AXIS2_PLACEMENT_3D($,#972,#772,#773);
#687=AXIS2_PLACEMENT_3D($,#973,#774,#775);
#688=AXIS2_PLACEMENT_3D($,#977,#778,#779);
#689=AXIS2_PLACEMENT_3D($,#981,#781,#782);
#690=AXIS2_PLACEMENT_3D($,#983,#784,#785);
#691=AXIS2_PLACEMENT_3D($,#1003,#796,#797);
#692=AXIS2_PLACEMENT_3D($,#1004,#798,#799);
#693=AXIS2_PLACEMENT_3D($,#1005,#800,#801);
#694=AXIS2_PLACEMENT_3D($,#1007,#802,#803);
#695=AXIS2_PLACEMENT_3D($,#1009,#804,#805);
#696=AXIS2_PLACEMENT_3D($,#1011,#807,#808);
#697=AXIS2_PLACEMENT_3D($,#1014,#810,#811);
#698=AXIS2_PLACEMENT_3D($,#1016,#812,#813);
#699=AXIS2_PLACEMENT_3D($,#1019,#815,#816);
#700=AXIS2_PLACEMENT_3D($,#1020,#817,#818);
#701=AXIS2_PLACEMENT_3D($,#1022,#819,#820);
#702=AXIS2_PLACEMENT_3D($,#1024,#822,#823);
#703=AXIS2_PLACEMENT_3D($,#1036,#830,#831);
#704=AXIS2_PLACEMENT_3D($,#1037,#832,#833);
#705=AXIS2_PLACEMENT_3D($,#1038,#834,#835);
#706=AXIS2_PLACEMENT_3D($,#1041,#837,#838);
#707=AXIS2_PLACEMENT_3D($,#1042,#839,#840);
#708=AXIS2_PLACEMENT_3D($,#1044,#841,#842);
#709=AXIS2_PLACEMENT_3D($,#1046,#843,#844);
#710=AXIS2_PLACEMENT_3D($,#1048,#846,#847);
#711=AXIS2_PLACEMENT_3D($,#1062,#855,#856);
#712=AXIS2_PLACEMENT_3D($,#1064,#857,#858);
#713=AXIS2_PLACEMENT_3D($,#1067,#860,#861);
#714=AXIS2_PLACEMENT_3D($,#1068,#862,#863);
#715=AXIS2_PLACEMENT_3D($,#1069,#864,#865);
#716=AXIS2_PLACEMENT_3D($,#1071,#866,#867);
#717=AXIS2_PLACEMENT_3D($,#1073,#869,#870);
#718=AXIS2_PLACEMENT_3D($,#1077,#873,#874);
#719=AXIS2_PLACEMENT_3D($,#1078,#875,#876);
#720=AXIS2_PLACEMENT_3D($,#1079,#877,#878);
#721=AXIS2_PLACEMENT_3D($,#1080,#879,#880);
#722=AXIS2_PLACEMENT_3D($,#1081,#881,#882);
#723=AXIS2_PLACEMENT_3D($,#1087,#886,#887);
#724=AXIS2_PLACEMENT_3D($,#1093,#891,#892);
#725=AXIS2_PLACEMENT_3D($,#1095,#894,#895);
#726=AXIS2_PLACEMENT_3D($,#1097,#897,#898);
#727=AXIS2_PLACEMENT_3D($,#1103,#902,#903);
#728=AXIS2_PLACEMENT_3D($,#1109,#907,#908);
#729=AXIS2_PLACEMENT_3D($,#1111,#910,#911);
#730=AXIS2_PLACEMENT_3D($,#1113,#913,#914);
#731=AXIS2_PLACEMENT_3D($,#1116,#917,#918);
#732=AXIS2_PLACEMENT_3D($,#1117,#919,#920);
#733=AXIS2_PLACEMENT_3D($,#1118,#921,#922);
#734=AXIS2_PLACEMENT_3D($,#1119,#923,#924);
#735=DIRECTION('axis',(0.,0.,1.));
#736=DIRECTION('refdir',(1.,0.,0.));
#737=DIRECTION('center_axis',(-2.71926214689378E-32,-1.22464679914735E-16,
-1.));
#738=DIRECTION('ref_axis',(0.707106781186547,0.707106781186548,-8.65956056235494E-17));
#739=DIRECTION('center_axis',(2.71926214689378E-32,1.22464679914735E-16,
1.));
#740=DIRECTION('ref_axis',(0.707106781186547,0.707106781186548,-8.65956056235494E-17));
#741=DIRECTION($,(2.71926214689378E-32,1.22464679914735E-16,1.));
#742=DIRECTION('center_axis',(2.71926214689378E-32,1.22464679914735E-16,
1.));
#743=DIRECTION('ref_axis',(0.707106781186547,0.707106781186548,-8.65956056235494E-17));
#744=DIRECTION($,(-2.71926214689378E-32,-1.22464679914735E-16,-1.));
#745=DIRECTION('center_axis',(4.44089209850063E-16,1.,-1.22464679914735E-16));
#746=DIRECTION('ref_axis',(1.,0.,0.));
#747=DIRECTION($,(1.,-4.44089209850063E-16,2.71926214689378E-32));
#748=DIRECTION($,(1.,-4.44089209850063E-16,2.71926214689378E-32));
#749=DIRECTION($,(-2.71926214689378E-32,-1.22464679914735E-16,-1.));
#750=DIRECTION($,(1.,-4.44089209850063E-16,2.71926214689378E-32));
#751=DIRECTION($,(2.71926214689378E-32,1.22464679914735E-16,1.));
#752=DIRECTION($,(-1.,4.44089209850063E-16,-2.71926214689378E-32));
#753=DIRECTION($,(-2.71926214689378E-32,-1.22464679914735E-16,-1.));
#754=DIRECTION($,(1.,-4.44089209850063E-16,2.71926214689378E-32));
#755=DIRECTION($,(2.71926214689378E-32,1.22464679914735E-16,1.));
#756=DIRECTION($,(-1.,4.44089209850063E-16,-2.71926214689378E-32));
#757=DIRECTION($,(-2.71926214689378E-32,-1.22464679914735E-16,-1.));
#758=DIRECTION('center_axis',(-2.71926214689378E-32,-1.22464679914735E-16,
-1.));
#759=DIRECTION('ref_axis',(1.,-4.44089209850063E-16,0.));
#760=DIRECTION($,(-4.44089209850063E-16,-1.,1.22464679914735E-16));
#761=DIRECTION('center_axis',(2.71926214689378E-32,1.22464679914735E-16,
1.));
#762=DIRECTION('ref_axis',(0.707106781186546,-0.707106781186549,8.65956056235494E-17));
#763=DIRECTION($,(-1.,-4.1198637540307E-16,7.76464010619068E-32));
#764=DIRECTION('center_axis',(2.71926214689378E-32,1.22464679914735E-16,
1.));
#765=DIRECTION('ref_axis',(-0.707106781186547,-0.707106781186548,8.65956056235495E-17));
#766=DIRECTION($,(4.44089209850063E-16,1.,-1.22464679914735E-16));
#767=DIRECTION('center_axis',(2.71926214689378E-32,1.22464679914735E-16,
1.));
#768=DIRECTION('ref_axis',(-0.707106781186546,0.707106781186549,-8.65956056235494E-17));
#769=DIRECTION('center_axis',(-2.71926214689378E-32,-1.22464679914735E-16,
-1.));
#770=DIRECTION('ref_axis',(-0.707106781186546,0.707106781186549,-8.65956056235494E-17));
#771=DIRECTION($,(2.71926214689378E-32,1.22464679914735E-16,1.));
#772=DIRECTION('center_axis',(2.71926214689378E-32,1.22464679914735E-16,
1.));
#773=DIRECTION('ref_axis',(-0.707106781186546,0.707106781186549,-8.65956056235494E-17));
#774=DIRECTION('center_axis',(-1.,4.44089209850063E-16,-2.71926214689378E-32));
#775=DIRECTION('ref_axis',(8.88178419700125E-16,1.,-1.22464679914735E-16));
#776=DIRECTION($,(-2.71926214689378E-32,-1.22464679914735E-16,-1.));
#777=DIRECTION($,(4.44089209850063E-16,1.,-1.22464679914735E-16));
#778=DIRECTION('center_axis',(-2.71926214689378E-32,-1.22464679914735E-16,
-1.));
#779=DIRECTION('ref_axis',(0.707106781186546,-0.707106781186549,8.65956056235494E-17));
#780=DIRECTION($,(2.71926214689378E-32,1.22464679914735E-16,1.));
#781=DIRECTION('center_axis',(2.71926214689378E-32,1.22464679914735E-16,
1.));
#782=DIRECTION('ref_axis',(0.707106781186546,-0.707106781186549,8.65956056235494E-17));
#783=DIRECTION($,(-2.71926214689378E-32,-1.22464679914735E-16,-1.));
#784=DIRECTION('center_axis',(4.1198637540307E-16,-1.,1.22464679914735E-16));
#785=DIRECTION('ref_axis',(-1.,0.,0.));
#786=DIRECTION($,(-1.,-4.1198637540307E-16,7.76464010619068E-32));
#787=DIRECTION($,(2.71926214689378E-32,1.22464679914735E-16,1.));
#788=DIRECTION($,(1.,-4.44089209850063E-16,2.71926214689378E-32));
#789=DIRECTION($,(-2.71926214689378E-32,-1.22464679914735E-16,-1.));
#790=DIRECTION($,(-1.,4.44089209850063E-16,-2.71926214689378E-32));
#791=DIRECTION($,(2.71926214689378E-32,1.22464679914735E-16,1.));
#792=DIRECTION($,(1.,-4.44089209850063E-16,2.71926214689378E-32));
#793=DIRECTION($,(-2.71926214689378E-32,-1.22464679914735E-16,-1.));
#794=DIRECTION($,(-1.,-4.1198637540307E-16,7.76464010619068E-32));
#795=DIRECTION($,(2.71926214689378E-32,1.22464679914735E-16,1.));
#796=DIRECTION('center_axis',(-2.71926214689378E-32,-1.22464679914735E-16,
-1.));
#797=DIRECTION('ref_axis',(-0.707106781186547,-0.707106781186548,8.65956056235495E-17));
#798=DIRECTION('center_axis',(2.71926214689378E-32,1.22464679914735E-16,
1.));
#799=DIRECTION('ref_axis',(-0.707106781186547,-0.707106781186548,8.65956056235495E-17));
#800=DIRECTION('center_axis',(-2.71926214689378E-32,-1.22464679914735E-16,
-1.));
#801=DIRECTION('ref_axis',(-0.707106781186548,-0.707106781186547,8.65956056235493E-17));
#802=DIRECTION('center_axis',(2.71926214689378E-32,1.22464679914735E-16,
1.));
#803=DIRECTION('ref_axis',(-0.707106781186548,-0.707106781186547,8.65956056235493E-17));
#804=DIRECTION('center_axis',(2.71926214689378E-32,1.22464679914735E-16,
1.));
#805=DIRECTION('ref_axis',(-0.707106781186548,-0.707106781186547,8.65956056235493E-17));
#806=DIRECTION($,(-2.71926214689378E-32,-1.22464679914735E-16,-1.));
#807=DIRECTION('center_axis',(2.71926214689378E-32,1.22464679914735E-16,
1.));
#808=DIRECTION('ref_axis',(1.,-4.44089209850063E-16,0.));
#809=DIRECTION($,(4.44089209850063E-16,1.,-1.22464679914735E-16));
#810=DIRECTION('center_axis',(2.71926214689378E-32,1.22464679914735E-16,
1.));
#811=DIRECTION('ref_axis',(-0.707106781186547,0.707106781186548,-8.65956056235493E-17));
#812=DIRECTION('center_axis',(2.71926214689378E-32,1.22464679914735E-16,
1.));
#813=DIRECTION('ref_axis',(0.707106781186548,0.707106781186547,-8.65956056235493E-17));
#814=DIRECTION($,(4.44089209850063E-16,1.,-1.22464679914735E-16));
#815=DIRECTION('center_axis',(2.71926214689378E-32,1.22464679914735E-16,
1.));
#816=DIRECTION('ref_axis',(0.707106781186547,-0.707106781186548,8.65956056235493E-17));
#817=DIRECTION('center_axis',(2.71926214689378E-32,1.22464679914735E-16,
1.));
#818=DIRECTION('ref_axis',(0.707106781186547,-0.707106781186548,8.65956056235493E-17));
#819=DIRECTION('center_axis',(-2.71926214689378E-32,-1.22464679914735E-16,
-1.));
#820=DIRECTION('ref_axis',(0.707106781186547,-0.707106781186548,8.65956056235493E-17));
#821=DIRECTION($,(2.71926214689378E-32,1.22464679914735E-16,1.));
#822=DIRECTION('center_axis',(1.,-4.44089209850063E-16,2.71926214689378E-32));
#823=DIRECTION('ref_axis',(0.,-1.22464679914735E-16,-1.));
#824=DIRECTION($,(-2.71926214689378E-32,-1.22464679914735E-16,-1.));
#825=DIRECTION($,(-4.44089209850063E-16,-1.,1.22464679914735E-16));
#826=DIRECTION($,(-2.71926214689378E-32,-1.22464679914735E-16,-1.));
#827=DIRECTION($,(-4.44089209850063E-16,-1.,3.44509284839767E-16));
#828=DIRECTION($,(1.25800234621564E-31,3.44509284839767E-16,1.));
#829=DIRECTION($,(-4.44089209850063E-16,-1.,1.22464679914735E-16));
#830=DIRECTION('center_axis',(2.71926214689378E-32,1.22464679914735E-16,
1.));
#831=DIRECTION('ref_axis',(0.707106781186548,0.707106781186547,-8.65956056235493E-17));
#832=DIRECTION('center_axis',(-2.71926214689378E-32,-1.22464679914735E-16,
-1.));
#833=DIRECTION('ref_axis',(0.707106781186548,0.707106781186547,-8.65956056235493E-17));
#834=DIRECTION('center_axis',(2.71926214689378E-32,1.22464679914735E-16,
1.));
#835=DIRECTION('ref_axis',(-0.707106781186547,0.707106781186548,-8.65956056235493E-17));
#836=DIRECTION($,(2.71926214689378E-32,1.22464679914735E-16,1.));
#837=DIRECTION('center_axis',(2.71926214689378E-32,1.22464679914735E-16,
1.));
#838=DIRECTION('ref_axis',(-0.707106781186547,0.707106781186548,-8.65956056235493E-17));
#839=DIRECTION('center_axis',(2.71926214689378E-32,1.22464679914735E-16,
1.));
#840=DIRECTION('ref_axis',(-0.707106781186547,0.707106781186548,-8.65956056235493E-17));
#841=DIRECTION('center_axis',(-2.71926214689378E-32,-1.22464679914735E-16,
-1.));
#842=DIRECTION('ref_axis',(-0.707106781186547,0.707106781186548,-8.65956056235493E-17));
#843=DIRECTION('center_axis',(2.71926214689378E-32,1.22464679914735E-16,
1.));
#844=DIRECTION('ref_axis',(-0.707106781186547,0.707106781186548,-8.65956056235493E-17));
#845=DIRECTION($,(2.71926214689378E-32,1.22464679914735E-16,1.));
#846=DIRECTION('center_axis',(-1.,4.44089209850063E-16,-2.71926214689378E-32));
#847=DIRECTION('ref_axis',(0.,1.22464679914735E-16,1.));
#848=DIRECTION($,(-4.44089209850063E-16,-1.,1.22464679914735E-16));
#849=DIRECTION($,(-2.71926214689378E-32,-1.22464679914735E-16,-1.));
#850=DIRECTION($,(4.44089209850063E-16,1.,-1.22464679914735E-16));
#851=DIRECTION($,(-1.25800234621564E-31,-3.44509284839767E-16,-1.));
#852=DIRECTION($,(4.44089209850063E-16,1.,-3.44509284839767E-16));
#853=DIRECTION($,(2.71926214689378E-32,1.22464679914735E-16,1.));
#854=DIRECTION($,(4.44089209850063E-16,1.,-1.22464679914735E-16));
#855=DIRECTION('center_axis',(2.71926214689378E-32,1.22464679914735E-16,
1.));
#856=DIRECTION('ref_axis',(1.,-4.44089209850063E-16,0.));
#857=DIRECTION('center_axis',(2.71926214689378E-32,1.22464679914735E-16,
1.));
#858=DIRECTION('ref_axis',(0.707106781186548,0.707106781186547,-8.65956056235493E-17));
#859=DIRECTION($,(-4.44089209850063E-16,-1.,1.22464679914735E-16));
#860=DIRECTION('center_axis',(2.71926214689378E-32,1.22464679914735E-16,
1.));
#861=DIRECTION('ref_axis',(0.707106781186547,-0.707106781186548,8.65956056235493E-17));
#862=DIRECTION('center_axis',(2.71926214689378E-32,1.22464679914735E-16,
1.));
#863=DIRECTION('ref_axis',(-0.707106781186548,-0.707106781186547,8.65956056235493E-17));
#864=DIRECTION('center_axis',(-2.71926214689378E-32,-1.22464679914735E-16,
-1.));
#865=DIRECTION('ref_axis',(0.707106781186548,0.707106781186547,-8.65956056235493E-17));
#866=DIRECTION('center_axis',(2.71926214689378E-32,1.22464679914735E-16,
1.));
#867=DIRECTION('ref_axis',(0.707106781186548,0.707106781186547,-8.65956056235493E-17));
#868=DIRECTION($,(-2.71926214689378E-32,-1.22464679914735E-16,-1.));
#869=DIRECTION('center_axis',(-1.,4.44089209850063E-16,-2.71926214689378E-32));
#870=DIRECTION('ref_axis',(0.,1.,-1.22464679914735E-16));
#871=DIRECTION($,(4.44089209850063E-16,1.,-1.22464679914735E-16));
#872=DIRECTION($,(2.71926214689378E-32,1.22464679914735E-16,1.));
#873=DIRECTION('center_axis',(2.71926214689378E-32,1.22464679914735E-16,
1.));
#874=DIRECTION('ref_axis',(0.707106781186547,-0.707106781186548,8.65956056235493E-17));
#875=DIRECTION('center_axis',(2.71926214689378E-32,1.22464679914735E-16,
1.));
#876=DIRECTION('ref_axis',(0.707106781186547,-0.707106781186548,8.65956056235493E-17));
#877=DIRECTION('center_axis',(2.71926214689378E-32,1.22464679914735E-16,
1.));
#878=DIRECTION('ref_axis',(-0.707106781186548,-0.707106781186547,8.65956056235493E-17));
#879=DIRECTION('center_axis',(-2.71926214689378E-32,-1.22464679914735E-16,
-1.));
#880=DIRECTION('ref_axis',(-0.707106781186548,-0.707106781186547,8.65956056235493E-17));
#881=DIRECTION('center_axis',(-0.0995037190209989,-2.98611022831036E-16,
-0.995037190209989));
#882=DIRECTION('ref_axis',(0.995037190209989,-8.88178419700126E-16,-0.0995037190209992));
#883=DIRECTION($,(0.995037190209989,-4.54070970672013E-16,-0.0995037190209989));
#884=DIRECTION($,(0.995037190209989,-4.54070970672013E-16,-0.0995037190209989));
#885=DIRECTION($,(-4.44089209850063E-16,-1.,3.44509284839767E-16));
#886=DIRECTION('center_axis',(0.866025403784439,-2.1233789485683E-16,0.5));
#887=DIRECTION('ref_axis',(-0.5,0.,0.866025403784439));
#888=DIRECTION($,(-0.5,3.28102128797522E-16,0.866025403784439));
#889=DIRECTION($,(-0.5,3.28102128797522E-16,0.866025403784439));
#890=DIRECTION($,(-3.15891697424492E-16,-1.,1.22464679914735E-16));
#891=DIRECTION('center_axis',(-4.44089209850063E-16,-1.,3.44509284839767E-16));
#892=DIRECTION('ref_axis',(0.,0.,-1.));
#893=DIRECTION($,(-1.,4.44089209850063E-16,-2.71926214689378E-32));
#894=DIRECTION('center_axis',(4.44089209850063E-16,1.,-1.22464679914735E-16));
#895=DIRECTION('ref_axis',(0.,0.,1.));
#896=DIRECTION($,(1.,-4.44089209850063E-16,2.71926214689378E-32));
#897=DIRECTION('center_axis',(-0.0995037190209989,3.86988078745392E-16,
0.995037190209989));
#898=DIRECTION('ref_axis',(-0.995037190209989,0.,-0.0995037190209992));
#899=DIRECTION($,(-0.995037190209989,4.29699588471548E-16,-0.0995037190209989));
#900=DIRECTION($,(-4.44089209850063E-16,-1.,3.44509284839767E-16));
#901=DIRECTION($,(-0.995037190209989,4.29699588471548E-16,-0.0995037190209989));
#902=DIRECTION('center_axis',(0.866025403784439,-5.56847179696596E-16,-0.5));
#903=DIRECTION('ref_axis',(0.5,0.,0.866025403784439));
#904=DIRECTION($,(0.5,-1.1598708105254E-16,0.866025403784439));
#905=DIRECTION($,(5.72286722275633E-16,1.,-1.22464679914735E-16));
#906=DIRECTION($,(0.5,-1.1598708105254E-16,0.866025403784439));
#907=DIRECTION('center_axis',(4.44089209850063E-16,1.,-3.44509284839767E-16));
#908=DIRECTION('ref_axis',(0.,0.,-1.));
#909=DIRECTION($,(-1.,4.44089209850063E-16,-2.71926214689378E-32));
#910=DIRECTION('center_axis',(-4.44089209850063E-16,-1.,1.22464679914735E-16));
#911=DIRECTION('ref_axis',(0.,0.,1.));
#912=DIRECTION($,(1.,-4.44089209850063E-16,2.71926214689378E-32));
#913=DIRECTION('center_axis',(-2.71926214689378E-32,-1.22464679914735E-16,
-1.));
#914=DIRECTION('ref_axis',(1.,-4.44089209850063E-16,0.));
#915=DIRECTION($,(-4.44089209850063E-16,-1.,1.22464679914735E-16));
#916=DIRECTION($,(-4.44089209850063E-16,-1.,1.22464679914735E-16));
#917=DIRECTION('center_axis',(-2.71926214689378E-32,-1.22464679914735E-16,
-1.));
#918=DIRECTION('ref_axis',(1.,-4.44089209850063E-16,0.));
#919=DIRECTION('center_axis',(1.,-4.44089209850063E-16,2.71926214689378E-32));
#920=DIRECTION('ref_axis',(0.,-1.,1.22464679914735E-16));
#921=DIRECTION('center_axis',(2.71926214689378E-32,1.22464679914735E-16,
1.));
#922=DIRECTION('ref_axis',(1.,-4.44089209850063E-16,0.));
#923=DIRECTION('center_axis',(1.,-4.44089209850063E-16,2.71926214689378E-32));
#924=DIRECTION('ref_axis',(-8.88178419700125E-16,-1.,1.22464679914735E-16));
#925=CARTESIAN_POINT('',(0.,0.,0.));
#926=CARTESIAN_POINT('Origin',(3.34000000000001,13.44,-1.77635683940025E-15));
#927=CARTESIAN_POINT('',(4.15000000000001,13.44,-5.4));
#928=CARTESIAN_POINT('',(3.34000000000001,14.25,-5.4));
#929=CARTESIAN_POINT('Origin',(3.34000000000001,13.44,-5.4));
#930=CARTESIAN_POINT('',(3.34000000000001,14.25,0.));
#931=CARTESIAN_POINT($,(3.34000000000001,14.25,-1.77635683940025E-15));
#932=CARTESIAN_POINT('',(4.15000000000001,13.44,-1.77635683940025E-15));
#933=CARTESIAN_POINT('Origin',(3.34000000000001,13.44,0.));
#934=CARTESIAN_POINT($,(4.15000000000001,13.44,-1.77635683940025E-15));
#935=CARTESIAN_POINT('Origin',(-4.14999999999999,14.25,-1.77635683940025E-15));
#936=CARTESIAN_POINT('',(17.99,14.25,0.));
#937=CARTESIAN_POINT($,(-2.07499999999999,14.25,0.));
#938=CARTESIAN_POINT('',(-3.33999999999999,14.25,-5.4));
#939=CARTESIAN_POINT($,(-4.14999999999999,14.25,-5.4));
#940=CARTESIAN_POINT('',(-3.33999999999999,14.25,0.));
#941=CARTESIAN_POINT($,(-3.33999999999999,14.25,-1.77635683940025E-15));
#942=CARTESIAN_POINT('',(-17.99,14.25,0.));
#943=CARTESIAN_POINT($,(-2.07499999999999,14.25,0.));
#944=CARTESIAN_POINT('',(-17.99,14.25,-5.4));
#945=CARTESIAN_POINT($,(-17.99,14.25,-1.77635683940025E-15));
#946=CARTESIAN_POINT('',(-21.41,14.25,-5.4));
#947=CARTESIAN_POINT($,(6.32827124036339E-15,14.25,-5.4));
#948=CARTESIAN_POINT('',(-21.41,14.25,4.23));
#949=CARTESIAN_POINT($,(-21.41,14.25,-0.292500000000001));
#950=CARTESIAN_POINT('',(21.41,14.25,4.23));
#951=CARTESIAN_POINT($,(6.32827124036339E-15,14.25,4.23));
#952=CARTESIAN_POINT('',(21.41,14.25,-5.4));
#953=CARTESIAN_POINT($,(21.41,14.25,-0.292500000000001));
#954=CARTESIAN_POINT('',(17.99,14.25,-5.4));
#955=CARTESIAN_POINT($,(6.32827124036339E-15,14.25,-5.4));
#956=CARTESIAN_POINT($,(17.99,14.25,-1.77635683940025E-15));
#957=CARTESIAN_POINT('Origin',(-8.88178419700126E-16,-6.6130927153957E-16,
-5.4));
#958=CARTESIAN_POINT('',(4.14999999999999,-13.44,-5.4));
#959=CARTESIAN_POINT($,(4.15000000000001,14.25,-5.4));
#960=CARTESIAN_POINT('',(3.34,-14.25,-5.4));
#961=CARTESIAN_POINT('Origin',(3.34,-13.44,-5.4));
#962=CARTESIAN_POINT('',(-3.34000000000001,-14.25,-5.4));
#963=CARTESIAN_POINT($,(4.14999999999999,-14.25,-5.4));
#964=CARTESIAN_POINT('',(-4.15000000000001,-13.44,-5.4));
#965=CARTESIAN_POINT('Origin',(-3.34000000000001,-13.44,-5.4));
#966=CARTESIAN_POINT('',(-4.14999999999999,13.44,-5.4));
#967=CARTESIAN_POINT($,(-4.15000000000001,-14.25,-5.4));
#968=CARTESIAN_POINT('Origin',(-3.33999999999999,13.44,-5.4));
#969=CARTESIAN_POINT('Origin',(-3.33999999999999,13.44,-1.77635683940025E-15));
#970=CARTESIAN_POINT('',(-4.14999999999999,13.44,-1.77635683940025E-15));
#971=CARTESIAN_POINT($,(-4.14999999999999,13.44,-1.77635683940025E-15));
#972=CARTESIAN_POINT('Origin',(-3.33999999999999,13.44,0.));
#973=CARTESIAN_POINT('Origin',(-4.15000000000001,-14.25,1.77635683940025E-15));
#974=CARTESIAN_POINT('',(-4.15000000000001,-13.44,1.77635683940025E-15));
#975=CARTESIAN_POINT($,(-4.15000000000001,-13.44,1.77635683940025E-15));
#976=CARTESIAN_POINT($,(-4.15000000000001,-14.25,1.77635683940025E-15));
#977=CARTESIAN_POINT('Origin',(3.34,-13.44,1.77635683940025E-15));
#978=CARTESIAN_POINT('',(4.14999999999999,-13.44,1.77635683940025E-15));
#979=CARTESIAN_POINT($,(4.14999999999999,-13.44,1.77635683940025E-15));
#980=CARTESIAN_POINT('',(3.34,-14.25,3.5527136788005E-15));
#981=CARTESIAN_POINT('Origin',(3.34,-13.44,3.5527136788005E-15));
#982=CARTESIAN_POINT($,(3.34,-14.25,1.77635683940025E-15));
#983=CARTESIAN_POINT('Origin',(4.14999999999999,-14.25,1.77635683940025E-15));
#984=CARTESIAN_POINT('',(17.99,-14.25,3.5527136788005E-15));
#985=CARTESIAN_POINT($,(2.075,-14.25,3.5527136788005E-15));
#986=CARTESIAN_POINT('',(17.99,-14.25,-5.4));
#987=CARTESIAN_POINT($,(17.99,-14.25,1.77635683940025E-15));
#988=CARTESIAN_POINT('',(21.41,-14.25,-5.4));
#989=CARTESIAN_POINT($,(-6.32827124036339E-15,-14.25,-5.4));
#990=CARTESIAN_POINT('',(21.41,-14.25,4.23));
#991=CARTESIAN_POINT($,(21.41,-14.25,-0.292499999999998));
#992=CARTESIAN_POINT('',(-21.41,-14.25,4.23));
#993=CARTESIAN_POINT($,(-6.32827124036339E-15,-14.25,4.23));
#994=CARTESIAN_POINT('',(-21.41,-14.25,-5.4));
#995=CARTESIAN_POINT($,(-21.41,-14.25,-0.292499999999998));
#996=CARTESIAN_POINT('',(-17.99,-14.25,-5.4));
#997=CARTESIAN_POINT($,(-6.32827124036339E-15,-14.25,-5.4));
#998=CARTESIAN_POINT('',(-17.99,-14.25,3.5527136788005E-15));
#999=CARTESIAN_POINT($,(-17.99,-14.25,1.77635683940025E-15));
#1000=CARTESIAN_POINT('',(-3.34000000000001,-14.25,3.5527136788005E-15));
#1001=CARTESIAN_POINT($,(2.075,-14.25,3.5527136788005E-15));
#1002=CARTESIAN_POINT($,(-3.34000000000001,-14.25,1.77635683940025E-15));
#1003=CARTESIAN_POINT('Origin',(-3.34000000000001,-13.44,1.77635683940025E-15));
#1004=CARTESIAN_POINT('Origin',(-3.34000000000001,-13.44,3.5527136788005E-15));
#1005=CARTESIAN_POINT('Origin',(17.99,-13.61,1.77635683940025E-15));
#1006=CARTESIAN_POINT('',(17.35,-13.61,-5.4));
#1007=CARTESIAN_POINT('Origin',(17.99,-13.61,-5.4));
#1008=CARTESIAN_POINT('',(17.35,-13.61,1.77635683940025E-15));
#1009=CARTESIAN_POINT('Origin',(17.99,-13.61,3.5527136788005E-15));
#1010=CARTESIAN_POINT($,(17.35,-13.61,1.77635683940025E-15));
#1011=CARTESIAN_POINT('Origin',(3.94430452610506E-31,1.11504756786068E-15,
-5.4));
#1012=CARTESIAN_POINT('',(17.35,13.61,-5.4));
#1013=CARTESIAN_POINT($,(17.35,7.12499999999999,-5.4));
#1014=CARTESIAN_POINT('Origin',(17.99,13.61,-5.4));
#1015=CARTESIAN_POINT('',(22.05,13.61,-5.4));
#1016=CARTESIAN_POINT('Origin',(21.41,13.61,-5.4));
#1017=CARTESIAN_POINT('',(22.05,-13.61,-5.4));
#1018=CARTESIAN_POINT($,(22.05,-8.6771195093332E-15,-5.4));
#1019=CARTESIAN_POINT('Origin',(21.41,-13.61,-5.4));
#1020=CARTESIAN_POINT('Origin',(21.41,-13.61,-0.292499999999998));
#1021=CARTESIAN_POINT('',(22.05,-13.61,4.23));
#1022=CARTESIAN_POINT('Origin',(21.41,-13.61,4.23));
#1023=CARTESIAN_POINT($,(22.05,-13.61,-0.292499999999998));
#1024=CARTESIAN_POINT('Origin',(22.05,-8.08745207554375E-15,-0.584999999999999));
#1025=CARTESIAN_POINT('',(22.05,13.61,4.23));
#1026=CARTESIAN_POINT($,(22.05,13.61,-0.292500000000001));
#1027=CARTESIAN_POINT('',(22.05,5.49999999999999,4.23));
#1028=CARTESIAN_POINT($,(22.05,-7.4977846417543E-15,4.23));
#1029=CARTESIAN_POINT('',(22.05,5.49999999999999,3.23));
#1030=CARTESIAN_POINT($,(22.05,5.49999999999999,1.48273734901772));
#1031=CARTESIAN_POINT('',(22.05,-5.50000000000001,3.23));
#1032=CARTESIAN_POINT($,(22.05,2.74999999999999,3.23));
#1033=CARTESIAN_POINT('',(22.05,-5.50000000000001,4.23));
#1034=CARTESIAN_POINT($,(22.05,-5.50000000000001,1.48273734901772));
#1035=CARTESIAN_POINT($,(22.05,-7.4977846417543E-15,4.23));
#1036=CARTESIAN_POINT('Origin',(21.41,13.61,-0.292500000000001));
#1037=CARTESIAN_POINT('Origin',(21.41,13.61,4.23));
#1038=CARTESIAN_POINT('Origin',(17.99,13.61,-1.77635683940025E-15));
#1039=CARTESIAN_POINT('',(17.35,13.61,-1.77635683940025E-15));
#1040=CARTESIAN_POINT($,(17.35,13.61,-1.77635683940025E-15));
#1041=CARTESIAN_POINT('Origin',(17.99,13.61,0.));
#1042=CARTESIAN_POINT('Origin',(-21.41,13.61,-0.292500000000001));
#1043=CARTESIAN_POINT('',(-22.05,13.61,4.23));
#1044=CARTESIAN_POINT('Origin',(-21.41,13.61,4.23));
#1045=CARTESIAN_POINT('',(-22.05,13.61,-5.4));
#1046=CARTESIAN_POINT('Origin',(-21.41,13.61,-5.4));
#1047=CARTESIAN_POINT($,(-22.05,13.61,-0.292500000000001));
#1048=CARTESIAN_POINT('Origin',(-22.05,1.1496882078844E-14,-0.584999999999999));
#1049=CARTESIAN_POINT('',(-22.05,-13.61,-5.4));
#1050=CARTESIAN_POINT($,(-22.05,1.09072146450546E-14,-5.4));
#1051=CARTESIAN_POINT('',(-22.05,-13.61,4.23));
#1052=CARTESIAN_POINT($,(-22.05,-13.61,-0.292499999999998));
#1053=CARTESIAN_POINT('',(-22.05,-5.49999999999999,4.23));
#1054=CARTESIAN_POINT($,(-22.05,1.20865495126335E-14,4.23));
#1055=CARTESIAN_POINT('',(-22.05,-5.49999999999999,3.23));
#1056=CARTESIAN_POINT($,(-22.05,-5.49999999999999,1.48273734901772));
#1057=CARTESIAN_POINT('',(-22.05,5.50000000000001,3.23));
#1058=CARTESIAN_POINT($,(-22.05,2.75000000000001,3.23));
#1059=CARTESIAN_POINT('',(-22.05,5.50000000000001,4.23));
#1060=CARTESIAN_POINT($,(-22.05,5.50000000000001,1.48273734901772));
#1061=CARTESIAN_POINT($,(-22.05,1.20865495126335E-14,4.23));
#1062=CARTESIAN_POINT('Origin',(3.94430452610506E-31,1.11504756786068E-15,
-5.4));
#1063=CARTESIAN_POINT('',(-17.35,13.61,-5.4));
#1064=CARTESIAN_POINT('Origin',(-17.99,13.61,-5.4));
#1065=CARTESIAN_POINT('',(-17.35,-13.61,-5.4));
#1066=CARTESIAN_POINT($,(-17.35,-7.12499999999999,-5.4));
#1067=CARTESIAN_POINT('Origin',(-17.99,-13.61,-5.4));
#1068=CARTESIAN_POINT('Origin',(-21.41,-13.61,-5.4));
#1069=CARTESIAN_POINT('Origin',(-17.99,13.61,-1.77635683940025E-15));
#1070=CARTESIAN_POINT('',(-17.35,13.61,-1.77635683940025E-15));
#1071=CARTESIAN_POINT('Origin',(-17.99,13.61,0.));
#1072=CARTESIAN_POINT($,(-17.35,13.61,-1.77635683940025E-15));
#1073=CARTESIAN_POINT('Origin',(-17.35,-14.25,1.77635683940025E-15));
#1074=CARTESIAN_POINT('',(-17.35,-13.61,1.77635683940025E-15));
#1075=CARTESIAN_POINT($,(-17.35,-14.25,1.77635683940025E-15));
#1076=CARTESIAN_POINT($,(-17.35,-13.61,1.77635683940025E-15));
#1077=CARTESIAN_POINT('Origin',(-17.99,-13.61,1.77635683940025E-15));
#1078=CARTESIAN_POINT('Origin',(-17.99,-13.61,3.5527136788005E-15));
#1079=CARTESIAN_POINT('Origin',(-21.41,-13.61,-0.292499999999998));
#1080=CARTESIAN_POINT('Origin',(-21.41,-13.61,4.23));
#1081=CARTESIAN_POINT('Origin',(-22.05,5.50000000000001,3.23));
#1082=CARTESIAN_POINT('',(-17.05,5.50000000000001,2.73));
#1083=CARTESIAN_POINT($,(-22.05,5.50000000000001,3.23));
#1084=CARTESIAN_POINT('',(-17.05,-5.49999999999999,2.73));
#1085=CARTESIAN_POINT($,(-22.05,-5.49999999999999,3.23));
#1086=CARTESIAN_POINT($,(-17.05,5.50000000000001,2.73));
#1087=CARTESIAN_POINT('Origin',(-17.05,5.50000000000001,2.73));
#1088=CARTESIAN_POINT('',(-17.9160254037844,5.50000000000001,4.23));
#1089=CARTESIAN_POINT($,(-17.05,5.50000000000001,2.73));
#1090=CARTESIAN_POINT('',(-17.9160254037844,-5.49999999999999,4.23));
#1091=CARTESIAN_POINT($,(-17.05,-5.49999999999999,2.73));
#1092=CARTESIAN_POINT($,(-17.9160254037844,2.75000000000001,4.23));
#1093=CARTESIAN_POINT('Origin',(-19.6097038673606,-5.49999999999999,3.55047469803544));
#1094=CARTESIAN_POINT($,(-9.8048519336803,-5.49999999999999,4.23));
#1095=CARTESIAN_POINT('Origin',(-19.6097038673606,5.50000000000001,3.55047469803544));
#1096=CARTESIAN_POINT($,(-9.80485193368029,5.50000000000001,4.23));
#1097=CARTESIAN_POINT('Origin',(22.05,5.49999999999999,3.23));
#1098=CARTESIAN_POINT('',(17.05,5.49999999999999,2.73));
#1099=CARTESIAN_POINT($,(22.05,5.49999999999999,3.23));
#1100=CARTESIAN_POINT('',(17.05,-5.50000000000001,2.73));
#1101=CARTESIAN_POINT($,(17.05,5.49999999999999,2.73));
#1102=CARTESIAN_POINT($,(22.05,-5.50000000000001,3.23));
#1103=CARTESIAN_POINT('Origin',(17.05,5.49999999999999,2.73));
#1104=CARTESIAN_POINT('',(17.9160254037844,5.49999999999999,4.23));
#1105=CARTESIAN_POINT($,(17.05,5.49999999999999,2.73));
#1106=CARTESIAN_POINT('',(17.9160254037844,-5.50000000000001,4.23));
#1107=CARTESIAN_POINT($,(17.9160254037844,2.74999999999999,4.23));
#1108=CARTESIAN_POINT($,(17.05,-5.50000000000001,2.73));
#1109=CARTESIAN_POINT('Origin',(19.6097038673606,-5.50000000000001,3.55047469803544));
#1110=CARTESIAN_POINT($,(9.80485193368029,-5.5,4.23));
#1111=CARTESIAN_POINT('Origin',(19.6097038673606,5.49999999999999,3.55047469803544));
#1112=CARTESIAN_POINT($,(9.80485193368029,5.5,4.23));
#1113=CARTESIAN_POINT('Origin',(-5.53706166711786E-16,1.77635683940025E-15,
1.77635683940025E-15));
#1114=CARTESIAN_POINT($,(17.35,14.25,-1.77635683940025E-15));
#1115=CARTESIAN_POINT($,(4.15000000000001,14.25,-1.77635683940025E-15));
#1116=CARTESIAN_POINT('Origin',(-5.53706166711786E-16,1.77635683940025E-15,
1.77635683940025E-15));
#1117=CARTESIAN_POINT('Origin',(17.35,14.25,-1.77635683940025E-15));
#1118=CARTESIAN_POINT('Origin',(3.94430452610506E-31,2.29438243543958E-15,
4.23));
#1119=CARTESIAN_POINT('Origin',(4.15000000000001,14.25,-1.77635683940025E-15));
#1120=UNCERTAINTY_MEASURE_WITH_UNIT(LENGTH_MEASURE(0.01),#1124,
'DISTANCE_ACCURACY_VALUE',
'Maximum model space distance between geometric entities at asserted c
onnectivities');
#1121=UNCERTAINTY_MEASURE_WITH_UNIT(LENGTH_MEASURE(1.E-6),#1124,
'DISTANCE_ACCURACY_VALUE',
'Maximum model space distance between geometric entities at asserted c
onnectivities');
#1122=(
GEOMETRIC_REPRESENTATION_CONTEXT(3)
GLOBAL_UNCERTAINTY_ASSIGNED_CONTEXT((#1120))
GLOBAL_UNIT_ASSIGNED_CONTEXT((#1124,#1126,#1125))
REPRESENTATION_CONTEXT('','3D')
);
#1123=(
GEOMETRIC_REPRESENTATION_CONTEXT(3)
GLOBAL_UNCERTAINTY_ASSIGNED_CONTEXT((#1121))
GLOBAL_UNIT_ASSIGNED_CONTEXT((#1124,#12,#1125))
REPRESENTATION_CONTEXT('','3D')
);
#1124=(
LENGTH_UNIT()
NAMED_UNIT(*)
SI_UNIT(.MILLI.,.METRE.)
);
#1125=(
NAMED_UNIT(*)
SI_UNIT($,.STERADIAN.)
SOLID_ANGLE_UNIT()
);
#1126=(
NAMED_UNIT(*)
PLANE_ANGLE_UNIT()
SI_UNIT($,.RADIAN.)
);
#1127=SHAPE_DEFINITION_REPRESENTATION(#1128,#1129);
#1128=PRODUCT_DEFINITION_SHAPE('',$,#1131);
#1129=SHAPE_REPRESENTATION('',(#676),#1122);
#1130=PRODUCT_DEFINITION_CONTEXT('part definition',#1135,'design');
#1131=PRODUCT_DEFINITION('Product','Product',#1132,#1130);
#1132=PRODUCT_DEFINITION_FORMATION('',$,#1137);
#1133=PRODUCT_RELATED_PRODUCT_CATEGORY('Product','Product',(#1137));
#1134=APPLICATION_PROTOCOL_DEFINITION('international standard',
'automotive_design',2009,#1135);
#1135=APPLICATION_CONTEXT(
'Core Data for Automotive Mechanical Design Process');
#1136=PRODUCT_CONTEXT('part definition',#1135,'mechanical');
#1137=PRODUCT('Product','Product',$,(#1136));
#1138=PRESENTATION_STYLE_ASSIGNMENT((#1140));
#1139=PRESENTATION_STYLE_ASSIGNMENT((#1141));
#1140=SURFACE_STYLE_USAGE(.BOTH.,#1142);
#1141=SURFACE_STYLE_USAGE(.BOTH.,#1143);
#1142=SURFACE_SIDE_STYLE($,(#1144));
#1143=SURFACE_SIDE_STYLE($,(#1145));
#1144=SURFACE_STYLE_FILL_AREA(#1146);
#1145=SURFACE_STYLE_FILL_AREA(#1147);
#1146=FILL_AREA_STYLE($,(#1148));
#1147=FILL_AREA_STYLE($,(#1149));
#1148=FILL_AREA_STYLE_COLOUR($,#1150);
#1149=FILL_AREA_STYLE_COLOUR($,#1151);
#1150=COLOUR_RGB('',1.,1.,1.);
#1151=COLOUR_RGB('',0.462745098039216,0.462745098039216,0.462745098039216);
ENDSEC;
END-ISO-10303-21;
