ISO-10303-21;
HEADER;
/****************************************************************
 * Generated by software with PDE/Lib inside                    *
 * PDElib Version v51a, created Mon 11/03/2008                  *
 * International Technegroup Inc. (www.iti-oh.com)              *
 ****************************************************************/
FILE_DESCRIPTION((''),'2;1');
FILE_NAME('CORE_FERROXCUBE_E18-4-10-R.stp','2010-03-02T16:37:13',(''),(''),'Mechanical Desktop 2010','Mechanical Desktop 2010',', , ');
FILE_SCHEMA(('AUTOMOTIVE_DESIGN { 1 2 10303 214 1 1 1 1 }'));
ENDSEC;
DATA;
#8=(NAMED_UNIT(*)PLANE_ANGLE_UNIT()SI_UNIT($,.RADIAN.));
#9=DIMENSIONAL_EXPONENTS(0.0,0.0,0.0,0.0,0.0,0.0,0.0);
#10=PLANE_ANGLE_MEASURE_WITH_UNIT(PLANE_ANGLE_MEASURE(0.017453292500000),#8);
#14=(CONVERSION_BASED_UNIT('DEGREE',#10)NAMED_UNIT(#9)PLANE_ANGLE_UNIT());
#18=(NAMED_UNIT(*)SI_UNIT($,.STERADIAN.)SOLID_ANGLE_UNIT());
#22=(LENGTH_UNIT()NAMED_UNIT(*)SI_UNIT(.MILLI.,.METRE.));
#23=UNCERTAINTY_MEASURE_WITH_UNIT(LENGTH_MEASURE(0.000001000000000),#22,'DISTANCE_ACCURACY_VALUE','');
#28=(GEOMETRIC_REPRESENTATION_CONTEXT(3)GLOBAL_UNCERTAINTY_ASSIGNED_CONTEXT((#23))GLOBAL_UNIT_ASSIGNED_CONTEXT((#14,#18,#22))REPRESENTATION_CONTEXT('None','None'));
#29=APPLICATION_CONTEXT('automotive design');
#30=APPLICATION_PROTOCOL_DEFINITION('INTERNATIONAL_STANDARD','automotive_design',1998,#29);
#31=PRODUCT_CONTEXT('3D Mechanical Parts',#29,'mechanical');
#32=PRODUCT('Product','Product','',(#31));
#33=PRODUCT_RELATED_PRODUCT_CATEGORY('part',$,(#32));
#34=PRODUCT_CATEGORY('part',$);
#35=PERSON('1','Design','Joe',$,$,$);
#36=ORGANIZATION($,'None','None');
#37=PERSON_AND_ORGANIZATION(#35,#36);
#38=PERSON_AND_ORGANIZATION_ROLE('design_owner');
#39=APPLIED_PERSON_AND_ORGANIZATION_ASSIGNMENT(#37,#38,(#32));
#40=PRODUCT_DEFINITION_FORMATION_WITH_SPECIFIED_SOURCE('None','',#32,.BOUGHT.);
#41=PERSON('2','Creator','Joe',$,$,$);
#42=ORGANIZATION($,'None','None');
#43=PERSON_AND_ORGANIZATION(#41,#42);
#44=PERSON_AND_ORGANIZATION_ROLE('creator');
#45=APPLIED_PERSON_AND_ORGANIZATION_ASSIGNMENT(#43,#44,(#40));
#46=PERSON('3','Supplier','Joe',$,$,$);
#47=ORGANIZATION($,'None','None');
#48=PERSON_AND_ORGANIZATION(#46,#47);
#49=PERSON_AND_ORGANIZATION_ROLE('design_supplier');
#50=APPLIED_PERSON_AND_ORGANIZATION_ASSIGNMENT(#48,#49,(#40));
#51=PRODUCT_DEFINITION_CONTEXT('part definition',#29,'design');
#52=PRODUCT_DEFINITION('None','',#40,#51);
#53=PERSON('4','Creator','Joe',$,$,$);
#54=ORGANIZATION($,'None','None');
#55=PERSON_AND_ORGANIZATION(#53,#54);
#56=PERSON_AND_ORGANIZATION_ROLE('creator');
#57=APPLIED_PERSON_AND_ORGANIZATION_ASSIGNMENT(#55,#56,(#52));
#58=CARTESIAN_POINT('NONE',(0.0,0.0,0.0));
#59=DIRECTION('NONE',(0.0,0.0,1.0));
#60=DIRECTION('NONE',(1.0,0.0,0.0));
#61=AXIS2_PLACEMENT_3D('NONE',#58,#59,#60);
#62=SHAPE_REPRESENTATION('SR1',(#61),#28);
#63=PRODUCT_DEFINITION_SHAPE('PDS1','Test Part',#52);
#64=SHAPE_DEFINITION_REPRESENTATION(#63,#62);
#65=CARTESIAN_POINT('',(3.552714E-015,5.100000000000000,-1.800000000000001));
#66=DIRECTION('',(0.0,-1.0,0.0));
#67=VECTOR('',#66,10.199999999999999);
#68=LINE('',#65,#67);
#69=CARTESIAN_POINT('',(1.776357E-015,-5.100000000000001,-1.799999999999998));
#70=TRIMMED_CURVE('56D',#68,(PARAMETER_VALUE(0.0),#65),(PARAMETER_VALUE(1.0),#69),.T.,.PARAMETER.);
#71=DRAUGHTING_PRE_DEFINED_COLOUR('white');
#72=CURVE_STYLE('NONE',#73,POSITIVE_LENGTH_MEASURE(0.200000000000000),#71);
#73=DRAUGHTING_PRE_DEFINED_CURVE_FONT('continuous');
#74=PRESENTATION_STYLE_ASSIGNMENT((#72));
#75=STYLED_ITEM('NONE',(#74),#70);
#76=MECHANICAL_DESIGN_GEOMETRIC_PRESENTATION_REPRESENTATION('NONE',(#75,#1323),#28);
#77=PRESENTATION_LAYER_ASSIGNMENT('3D','None',(#70,#1315));
#78=CARTESIAN_POINT('',(1.300000000000002,-5.000000000000002,0.600000000000000));
#79=DIRECTION('',(-1.723319E-016,-0.970142500145332,-0.242535625036333));
#80=DIRECTION('',(0.0,0.242535625036333,-0.970142500145332));
#81=AXIS2_PLACEMENT_3D('',#78,#79,#80);
#82=PLANE('',#81);
#83=CARTESIAN_POINT('',(-1.779150262212916,-4.900000000000001,0.200000000000000));
#84=VERTEX_POINT('',#83);
#85=CARTESIAN_POINT('',(-1.249999999999999,-5.100000000000001,1.000000000000000));
#86=VERTEX_POINT('',#85);
#87=CARTESIAN_POINT('',(-1.249999999999998,-4.300000000000001,-2.200000000000001));
#88=DIRECTION('',(-1.723319E-016,-0.970142500145332,-0.242535625036333));
#89=DIRECTION('',(-6.731716E-017,-0.242535625036333,0.970142500145332));
#90=AXIS2_PLACEMENT_3D('',#87,#88,#89);
#91=ELLIPSE('',#90,3.298484500494126,0.800000000000000);
#92=EDGE_CURVE('',#84,#86,#91,.F.);
#93=ORIENTED_EDGE('',*,*,#92,.T.);
#94=CARTESIAN_POINT('',(-7.649999999999997,-5.100000000000000,1.000000000000000));
#95=VERTEX_POINT('',#94);
#96=CARTESIAN_POINT('',(-1.249999999999999,-5.100000000000001,1.000000000000000));
#97=DIRECTION('',(-1.0,0.0,0.0));
#98=VECTOR('',#97,6.399999999999999);
#99=LINE('',#96,#98);
#100=EDGE_CURVE('',#86,#95,#99,.T.);
#101=ORIENTED_EDGE('',*,*,#100,.T.);
#102=CARTESIAN_POINT('',(-7.120849737787079,-4.900000000000000,0.200000000000000));
#103=VERTEX_POINT('',#102);
#104=CARTESIAN_POINT('',(-7.649999999999998,-4.300000000000000,-2.200000000000000));
#105=DIRECTION('',(-1.723319E-016,-0.970142500145332,-0.242535625036333));
#106=DIRECTION('',(-6.731716E-017,-0.242535625036333,0.970142500145332));
#107=AXIS2_PLACEMENT_3D('',#104,#105,#106);
#108=ELLIPSE('',#107,3.298484500494126,0.800000000000000);
#109=EDGE_CURVE('',#95,#103,#108,.F.);
#110=ORIENTED_EDGE('',*,*,#109,.T.);
#111=CARTESIAN_POINT('',(-7.120849737787079,-4.900000000000000,0.200000000000000));
#112=DIRECTION('',(1.0,0.0,0.0));
#113=VECTOR('',#112,5.341699475574163);
#114=LINE('',#111,#113);
#115=EDGE_CURVE('',#103,#84,#114,.T.);
#116=ORIENTED_EDGE('',*,*,#115,.T.);
#117=EDGE_LOOP('',(#93,#101,#110,#116));
#118=FACE_OUTER_BOUND('',#117,.T.);
#119=ADVANCED_FACE('',(#118),#82,.T.);
#120=CARTESIAN_POINT('',(7.050000000000001,-5.100000000000002,-1.800000000000000));
#121=DIRECTION('',(0.0,-1.0,0.0));
#122=DIRECTION('',(0.0,0.0,-1.0));
#123=AXIS2_PLACEMENT_3D('',#120,#121,#122);
#124=PLANE('',#123);
#125=CARTESIAN_POINT('',(-7.649999999999998,-5.100000000000000,-1.799999999999998));
#126=VERTEX_POINT('',#125);
#127=CARTESIAN_POINT('',(-7.649999999999998,-5.100000000000000,-1.799999999999998));
#128=DIRECTION('',(0.0,0.0,1.0));
#129=VECTOR('',#128,2.799999999999997);
#130=LINE('',#127,#129);
#131=EDGE_CURVE('',#126,#95,#130,.T.);
#132=ORIENTED_EDGE('',*,*,#131,.T.);
#133=ORIENTED_EDGE('',*,*,#100,.F.);
#134=CARTESIAN_POINT('',(-1.249999999999998,-5.100000000000001,-1.799999999999998));
#135=VERTEX_POINT('',#134);
#136=CARTESIAN_POINT('',(-1.249999999999998,-5.100000000000001,1.000000000000000));
#137=DIRECTION('',(0.0,0.0,-1.0));
#138=VECTOR('',#137,2.799999999999997);
#139=LINE('',#136,#138);
#140=EDGE_CURVE('',#86,#135,#139,.T.);
#141=ORIENTED_EDGE('',*,*,#140,.T.);
#142=CARTESIAN_POINT('',(1.250000000000002,-5.100000000000001,-1.799999999999998));
#143=VERTEX_POINT('',#142);
#144=CARTESIAN_POINT('',(-1.249999999999998,-5.100000000000001,-1.799999999999998));
#145=DIRECTION('',(1.0,0.0,0.0));
#146=VECTOR('',#145,2.500000000000000);
#147=LINE('',#144,#146);
#148=EDGE_CURVE('',#135,#143,#147,.T.);
#149=ORIENTED_EDGE('',*,*,#148,.T.);
#150=CARTESIAN_POINT('',(1.250000000000002,-5.100000000000001,1.000000000000000));
#151=VERTEX_POINT('',#150);
#152=CARTESIAN_POINT('',(1.250000000000002,-5.100000000000001,-1.799999999999998));
#153=DIRECTION('',(0.0,0.0,1.0));
#154=VECTOR('',#153,2.799999999999997);
#155=LINE('',#152,#154);
#156=EDGE_CURVE('',#143,#151,#155,.T.);
#157=ORIENTED_EDGE('',*,*,#156,.T.);
#158=CARTESIAN_POINT('',(7.650000000000001,-5.100000000000002,1.000000000000000));
#159=VERTEX_POINT('',#158);
#160=CARTESIAN_POINT('',(7.650000000000001,-5.100000000000002,1.000000000000000));
#161=DIRECTION('',(-1.0,0.0,0.0));
#162=VECTOR('',#161,6.400000000000000);
#163=LINE('',#160,#162);
#164=EDGE_CURVE('',#159,#151,#163,.T.);
#165=ORIENTED_EDGE('',*,*,#164,.F.);
#166=CARTESIAN_POINT('',(7.650000000000000,-5.100000000000002,-1.799999999999998));
#167=VERTEX_POINT('',#166);
#168=CARTESIAN_POINT('',(7.650000000000001,-5.100000000000002,1.000000000000000));
#169=DIRECTION('',(0.0,0.0,-1.0));
#170=VECTOR('',#169,2.799999999999997);
#171=LINE('',#168,#170);
#172=EDGE_CURVE('',#159,#167,#171,.T.);
#173=ORIENTED_EDGE('',*,*,#172,.T.);
#174=CARTESIAN_POINT('',(8.375000000000002,-5.100000000000002,-1.800000000000001));
#175=VERTEX_POINT('',#174);
#176=CARTESIAN_POINT('',(7.650000000000000,-5.100000000000002,-1.799999999999998));
#177=DIRECTION('',(1.0,0.0,0.0));
#178=VECTOR('',#177,0.725000000000001);
#179=LINE('',#176,#178);
#180=EDGE_CURVE('',#167,#175,#179,.T.);
#181=ORIENTED_EDGE('',*,*,#180,.T.);
#182=CARTESIAN_POINT('',(8.375000000000002,-5.100000000000002,2.299999999999998));
#183=VERTEX_POINT('',#182);
#184=CARTESIAN_POINT('',(8.375000000000002,-5.100000000000001,2.299999999999998));
#185=DIRECTION('',(0.0,0.0,-1.0));
#186=VECTOR('',#185,4.099999999999998);
#187=LINE('',#184,#186);
#188=EDGE_CURVE('',#183,#175,#187,.T.);
#189=ORIENTED_EDGE('',*,*,#188,.F.);
#190=CARTESIAN_POINT('',(-8.375000000000000,-5.099999999999999,2.300000000000002));
#191=VERTEX_POINT('',#190);
#192=CARTESIAN_POINT('',(8.375000000000002,-5.100000000000002,2.299999999999998));
#193=DIRECTION('',(-1.0,0.0,0.0));
#194=VECTOR('',#193,16.750000000000000);
#195=LINE('',#192,#194);
#196=EDGE_CURVE('',#183,#191,#195,.T.);
#197=ORIENTED_EDGE('',*,*,#196,.T.);
#198=CARTESIAN_POINT('',(-8.375000000000000,-5.099999999999999,-1.799999999999997));
#199=VERTEX_POINT('',#198);
#200=CARTESIAN_POINT('',(-8.375000000000000,-5.100000000000000,-1.799999999999997));
#201=DIRECTION('',(0.0,0.0,1.0));
#202=VECTOR('',#201,4.099999999999998);
#203=LINE('',#200,#202);
#204=EDGE_CURVE('',#199,#191,#203,.T.);
#205=ORIENTED_EDGE('',*,*,#204,.F.);
#206=CARTESIAN_POINT('',(-8.375000000000000,-5.100000000000000,-1.799999999999998));
#207=DIRECTION('',(1.0,0.0,0.0));
#208=VECTOR('',#207,0.725000000000002);
#209=LINE('',#206,#208);
#210=EDGE_CURVE('',#199,#126,#209,.T.);
#211=ORIENTED_EDGE('',*,*,#210,.T.);
#212=EDGE_LOOP('',(#132,#133,#141,#149,#157,#165,#173,#181,#189,#197,#205,#211));
#213=FACE_OUTER_BOUND('',#212,.T.);
#214=ADVANCED_FACE('',(#213),#124,.T.);
#215=CARTESIAN_POINT('',(5.750000000000002,-5.000000000000002,0.600000000000000));
#216=DIRECTION('',(-1.723319E-016,-0.970142500145332,-0.242535625036333));
#217=DIRECTION('',(0.0,0.242535625036333,-0.970142500145332));
#218=AXIS2_PLACEMENT_3D('',#215,#216,#217);
#219=PLANE('',#218);
#220=CARTESIAN_POINT('',(7.120849737787083,-4.900000000000002,0.200000000000000));
#221=VERTEX_POINT('',#220);
#222=CARTESIAN_POINT('',(7.650000000000001,-4.300000000000003,-2.199999999999997));
#223=DIRECTION('',(-1.723319E-016,-0.970142500145332,-0.242535625036333));
#224=DIRECTION('',(-5.048787E-017,-0.242535625036333,0.970142500145332));
#225=AXIS2_PLACEMENT_3D('',#222,#223,#224);
#226=ELLIPSE('',#225,3.298484500494126,0.800000000000000);
#227=EDGE_CURVE('',#221,#159,#226,.F.);
#228=ORIENTED_EDGE('',*,*,#227,.T.);
#229=ORIENTED_EDGE('',*,*,#164,.T.);
#230=CARTESIAN_POINT('',(1.779150262212919,-4.900000000000002,0.200000000000000));
#231=VERTEX_POINT('',#230);
#232=CARTESIAN_POINT('',(1.250000000000002,-4.300000000000001,-2.199999999999999));
#233=DIRECTION('',(-1.723319E-016,-0.970142500145332,-0.242535625036333));
#234=DIRECTION('',(-1.682929E-017,-0.242535625036333,0.970142500145332));
#235=AXIS2_PLACEMENT_3D('',#232,#233,#234);
#236=ELLIPSE('',#235,3.298484500494127,0.800000000000000);
#237=EDGE_CURVE('',#151,#231,#236,.F.);
#238=ORIENTED_EDGE('',*,*,#237,.T.);
#239=CARTESIAN_POINT('',(1.779150262212919,-4.900000000000001,0.200000000000000));
#240=DIRECTION('',(1.0,0.0,0.0));
#241=VECTOR('',#240,5.341699475574163);
#242=LINE('',#239,#241);
#243=EDGE_CURVE('',#231,#221,#242,.T.);
#244=ORIENTED_EDGE('',*,*,#243,.T.);
#245=EDGE_LOOP('',(#228,#229,#238,#244));
#246=FACE_OUTER_BOUND('',#245,.T.);
#247=ADVANCED_FACE('',(#246),#219,.T.);
#248=CARTESIAN_POINT('',(3.150000000000003,4.999999999999998,0.600000000000000));
#249=DIRECTION('',(1.657038E-016,0.970142500145332,-0.242535625036333));
#250=DIRECTION('',(0.0,0.242535625036333,0.970142500145332));
#251=AXIS2_PLACEMENT_3D('',#248,#249,#250);
#252=PLANE('',#251);
#253=CARTESIAN_POINT('',(1.779150262212922,4.899999999999999,0.200000000000000));
#254=VERTEX_POINT('',#253);
#255=CARTESIAN_POINT('',(1.250000000000003,5.099999999999999,1.000000000000000));
#256=VERTEX_POINT('',#255);
#257=CARTESIAN_POINT('',(1.250000000000003,4.299999999999999,-2.199999999999997));
#258=DIRECTION('',(1.657038E-016,0.970142500145332,-0.242535625036333));
#259=DIRECTION('',(5.048787E-017,0.242535625036333,0.970142500145332));
#260=AXIS2_PLACEMENT_3D('',#257,#258,#259);
#261=ELLIPSE('',#260,3.298484500494126,0.800000000000000);
#262=EDGE_CURVE('',#254,#256,#261,.F.);
#263=ORIENTED_EDGE('',*,*,#262,.T.);
#264=CARTESIAN_POINT('',(7.650000000000002,5.099999999999998,1.000000000000000));
#265=VERTEX_POINT('',#264);
#266=CARTESIAN_POINT('',(1.250000000000003,5.099999999999999,1.000000000000000));
#267=DIRECTION('',(1.0,0.0,0.0));
#268=VECTOR('',#267,6.399999999999999);
#269=LINE('',#266,#268);
#270=EDGE_CURVE('',#256,#265,#269,.T.);
#271=ORIENTED_EDGE('',*,*,#270,.T.);
#272=CARTESIAN_POINT('',(7.120849737787085,4.899999999999999,0.200000000000000));
#273=VERTEX_POINT('',#272);
#274=CARTESIAN_POINT('',(7.650000000000003,4.299999999999998,-2.199999999999996));
#275=DIRECTION('',(1.657038E-016,0.970142500145332,-0.242535625036333));
#276=DIRECTION('',(6.731716E-017,0.242535625036333,0.970142500145332));
#277=AXIS2_PLACEMENT_3D('',#274,#275,#276);
#278=ELLIPSE('',#277,3.298484500494126,0.800000000000000);
#279=EDGE_CURVE('',#265,#273,#278,.F.);
#280=ORIENTED_EDGE('',*,*,#279,.T.);
#281=CARTESIAN_POINT('',(7.120849737787085,4.899999999999998,0.200000000000000));
#282=DIRECTION('',(-1.0,0.0,0.0));
#283=VECTOR('',#282,5.341699475574163);
#284=LINE('',#281,#283);
#285=EDGE_CURVE('',#273,#254,#284,.T.);
#286=ORIENTED_EDGE('',*,*,#285,.T.);
#287=EDGE_LOOP('',(#263,#271,#280,#286));
#288=FACE_OUTER_BOUND('',#287,.T.);
#289=ADVANCED_FACE('',(#288),#252,.T.);
#290=CARTESIAN_POINT('',(1.850000000000001,5.099999999999999,-1.800000000000000));
#291=DIRECTION('',(0.0,1.0,0.0));
#292=DIRECTION('',(0.0,0.0,1.0));
#293=AXIS2_PLACEMENT_3D('',#290,#291,#292);
#294=PLANE('',#293);
#295=CARTESIAN_POINT('',(7.650000000000002,5.099999999999998,-1.800000000000002));
#296=VERTEX_POINT('',#295);
#297=CARTESIAN_POINT('',(7.650000000000003,5.099999999999998,-1.800000000000002));
#298=DIRECTION('',(0.0,0.0,1.0));
#299=VECTOR('',#298,2.800000000000002);
#300=LINE('',#297,#299);
#301=EDGE_CURVE('',#296,#265,#300,.T.);
#302=ORIENTED_EDGE('',*,*,#301,.T.);
#303=ORIENTED_EDGE('',*,*,#270,.F.);
#304=CARTESIAN_POINT('',(1.250000000000004,5.099999999999999,-1.800000000000001));
#305=VERTEX_POINT('',#304);
#306=CARTESIAN_POINT('',(1.250000000000003,5.099999999999999,1.000000000000000));
#307=DIRECTION('',(0.0,0.0,-1.0));
#308=VECTOR('',#307,2.800000000000000);
#309=LINE('',#306,#308);
#310=EDGE_CURVE('',#256,#305,#309,.T.);
#311=ORIENTED_EDGE('',*,*,#310,.T.);
#312=CARTESIAN_POINT('',(-1.249999999999996,5.100000000000000,-1.800000000000000));
#313=VERTEX_POINT('',#312);
#314=CARTESIAN_POINT('',(-1.249999999999996,5.100000000000000,-1.800000000000000));
#315=DIRECTION('',(1.0,0.0,0.0));
#316=VECTOR('',#315,2.500000000000000);
#317=LINE('',#314,#316);
#318=EDGE_CURVE('',#313,#305,#317,.T.);
#319=ORIENTED_EDGE('',*,*,#318,.F.);
#320=CARTESIAN_POINT('',(-1.249999999999996,5.100000000000000,1.000000000000000));
#321=VERTEX_POINT('',#320);
#322=CARTESIAN_POINT('',(-1.249999999999996,5.099999999999999,-1.800000000000000));
#323=DIRECTION('',(0.0,0.0,1.0));
#324=VECTOR('',#323,2.800000000000000);
#325=LINE('',#322,#324);
#326=EDGE_CURVE('',#313,#321,#325,.T.);
#327=ORIENTED_EDGE('',*,*,#326,.T.);
#328=CARTESIAN_POINT('',(-7.649999999999995,5.100000000000001,1.000000000000000));
#329=VERTEX_POINT('',#328);
#330=CARTESIAN_POINT('',(-7.649999999999995,5.100000000000001,1.000000000000000));
#331=DIRECTION('',(1.0,0.0,0.0));
#332=VECTOR('',#331,6.399999999999999);
#333=LINE('',#330,#332);
#334=EDGE_CURVE('',#329,#321,#333,.T.);
#335=ORIENTED_EDGE('',*,*,#334,.F.);
#336=CARTESIAN_POINT('',(-7.649999999999995,5.100000000000001,-1.799999999999999));
#337=VERTEX_POINT('',#336);
#338=CARTESIAN_POINT('',(-7.649999999999995,5.100000000000001,1.000000000000000));
#339=DIRECTION('',(0.0,0.0,-1.0));
#340=VECTOR('',#339,2.799999999999998);
#341=LINE('',#338,#340);
#342=EDGE_CURVE('',#329,#337,#341,.T.);
#343=ORIENTED_EDGE('',*,*,#342,.T.);
#344=CARTESIAN_POINT('',(-8.374999999999998,5.100000000000001,-1.799999999999999));
#345=VERTEX_POINT('',#344);
#346=CARTESIAN_POINT('',(-8.374999999999998,5.100000000000001,-1.799999999999999));
#347=DIRECTION('',(1.0,0.0,0.0));
#348=VECTOR('',#347,0.725000000000003);
#349=LINE('',#346,#348);
#350=EDGE_CURVE('',#345,#337,#349,.T.);
#351=ORIENTED_EDGE('',*,*,#350,.F.);
#352=CARTESIAN_POINT('',(-8.374999999999998,5.100000000000001,2.299999999999998));
#353=VERTEX_POINT('',#352);
#354=CARTESIAN_POINT('',(-8.374999999999998,5.100000000000001,2.299999999999998));
#355=DIRECTION('',(0.0,0.0,-1.0));
#356=VECTOR('',#355,4.099999999999996);
#357=LINE('',#354,#356);
#358=EDGE_CURVE('',#353,#345,#357,.T.);
#359=ORIENTED_EDGE('',*,*,#358,.F.);
#360=CARTESIAN_POINT('',(8.375000000000005,5.099999999999998,2.299999999999994));
#361=VERTEX_POINT('',#360);
#362=CARTESIAN_POINT('',(8.375000000000005,5.099999999999998,2.299999999999994));
#363=DIRECTION('',(-1.0,0.0,0.0));
#364=VECTOR('',#363,16.750000000000004);
#365=LINE('',#362,#364);
#366=EDGE_CURVE('',#361,#353,#365,.T.);
#367=ORIENTED_EDGE('',*,*,#366,.F.);
#368=CARTESIAN_POINT('',(8.375000000000005,5.099999999999998,-1.800000000000003));
#369=VERTEX_POINT('',#368);
#370=CARTESIAN_POINT('',(8.375000000000005,5.099999999999998,-1.800000000000003));
#371=DIRECTION('',(0.0,0.0,1.0));
#372=VECTOR('',#371,4.099999999999996);
#373=LINE('',#370,#372);
#374=EDGE_CURVE('',#369,#361,#373,.T.);
#375=ORIENTED_EDGE('',*,*,#374,.F.);
#376=CARTESIAN_POINT('',(7.650000000000002,5.099999999999998,-1.800000000000002));
#377=DIRECTION('',(1.0,0.0,0.0));
#378=VECTOR('',#377,0.725000000000001);
#379=LINE('',#376,#378);
#380=EDGE_CURVE('',#296,#369,#379,.T.);
#381=ORIENTED_EDGE('',*,*,#380,.F.);
#382=EDGE_LOOP('',(#302,#303,#311,#319,#327,#335,#343,#351,#359,#367,#375,#381));
#383=FACE_OUTER_BOUND('',#382,.T.);
#384=ADVANCED_FACE('',(#383),#294,.T.);
#385=CARTESIAN_POINT('',(-1.299999999999997,5.0,0.600000000000000));
#386=DIRECTION('',(1.657038E-016,0.970142500145332,-0.242535625036332));
#387=DIRECTION('',(0.0,0.242535625036332,0.970142500145332));
#388=AXIS2_PLACEMENT_3D('',#385,#386,#387);
#389=PLANE('',#388);
#390=CARTESIAN_POINT('',(-7.120849737787078,4.900000000000002,0.200000000000000));
#391=VERTEX_POINT('',#390);
#392=CARTESIAN_POINT('',(-7.649999999999995,4.300000000000001,-2.200000000000012));
#393=DIRECTION('',(1.657038E-016,0.970142500145332,-0.242535625036332));
#394=DIRECTION('',(3.365858E-017,0.242535625036332,0.970142500145332));
#395=AXIS2_PLACEMENT_3D('',#392,#393,#394);
#396=ELLIPSE('',#395,3.298484500494140,0.800000000000000);
#397=EDGE_CURVE('',#391,#329,#396,.F.);
#398=ORIENTED_EDGE('',*,*,#397,.T.);
#399=ORIENTED_EDGE('',*,*,#334,.T.);
#400=CARTESIAN_POINT('',(-1.779150262212913,4.900000000000000,0.200000000000000));
#401=VERTEX_POINT('',#400);
#402=CARTESIAN_POINT('',(-1.249999999999996,4.299999999999999,-2.200000000000015));
#403=DIRECTION('',(1.657038E-016,0.970142500145332,-0.242535625036332));
#404=DIRECTION('',(8.414645E-017,0.242535625036332,0.970142500145332));
#405=AXIS2_PLACEMENT_3D('',#402,#403,#404);
#406=ELLIPSE('',#405,3.298484500494140,0.800000000000000);
#407=EDGE_CURVE('',#321,#401,#406,.F.);
#408=ORIENTED_EDGE('',*,*,#407,.T.);
#409=CARTESIAN_POINT('',(-1.779150262212913,4.900000000000000,0.200000000000000));
#410=DIRECTION('',(-1.0,0.0,0.0));
#411=VECTOR('',#410,5.341699475574166);
#412=LINE('',#409,#411);
#413=EDGE_CURVE('',#401,#391,#412,.T.);
#414=ORIENTED_EDGE('',*,*,#413,.T.);
#415=EDGE_LOOP('',(#398,#399,#408,#414));
#416=FACE_OUTER_BOUND('',#415,.T.);
#417=ADVANCED_FACE('',(#416),#389,.T.);
#418=CARTESIAN_POINT('',(-7.649999999999995,4.300000000000001,-1.800000000000000));
#419=DIRECTION('',(0.0,0.0,-1.0));
#420=DIRECTION('',(0.707106781186547,0.707106781186548,0.0));
#421=AXIS2_PLACEMENT_3D('',#418,#419,#420);
#422=CYLINDRICAL_SURFACE('',#421,0.800000000000000);
#423=CARTESIAN_POINT('',(-6.849999999999997,4.300000000000001,-1.799999999999999));
#424=VERTEX_POINT('',#423);
#425=CARTESIAN_POINT('',(-7.649999999999995,4.300000000000001,-1.799999999999997));
#426=DIRECTION('',(0.0,0.0,1.000000000000000));
#427=DIRECTION('',(0.707106781186547,0.707106781186548,0.0));
#428=AXIS2_PLACEMENT_3D('',#425,#426,#427);
#429=CIRCLE('',#428,0.800000000000000);
#430=EDGE_CURVE('',#424,#337,#429,.T.);
#431=ORIENTED_EDGE('',*,*,#430,.T.);
#432=ORIENTED_EDGE('',*,*,#342,.F.);
#433=ORIENTED_EDGE('',*,*,#397,.F.);
#434=CARTESIAN_POINT('',(-6.849999999999996,4.300000000000001,0.200000000000000));
#435=VERTEX_POINT('',#434);
#436=CARTESIAN_POINT('',(-7.649999999999995,4.300000000000001,0.200000000000000));
#437=DIRECTION('',(0.0,0.0,1.000000000000000));
#438=DIRECTION('',(0.707106781186547,0.707106781186548,0.0));
#439=AXIS2_PLACEMENT_3D('',#436,#437,#438);
#440=CIRCLE('',#439,0.800000000000000);
#441=EDGE_CURVE('',#391,#435,#440,.F.);
#442=ORIENTED_EDGE('',*,*,#441,.T.);
#443=CARTESIAN_POINT('',(-6.849999999999996,4.300000000000001,0.200000000000000));
#444=DIRECTION('',(0.0,0.0,-1.0));
#445=VECTOR('',#444,1.999999999999998);
#446=LINE('',#443,#445);
#447=EDGE_CURVE('',#435,#424,#446,.T.);
#448=ORIENTED_EDGE('',*,*,#447,.T.);
#449=EDGE_LOOP('',(#431,#432,#433,#442,#448));
#450=FACE_OUTER_BOUND('',#449,.T.);
#451=ADVANCED_FACE('',(#450),#422,.T.);
#452=CARTESIAN_POINT('',(-6.849999999999998,-5.100000000000000,-1.800000000000001));
#453=DIRECTION('',(-1.0,0.0,0.0));
#454=DIRECTION('',(0.0,0.0,1.0));
#455=AXIS2_PLACEMENT_3D('',#452,#453,#454);
#456=PLANE('',#455);
#457=ORIENTED_EDGE('',*,*,#447,.F.);
#458=CARTESIAN_POINT('',(-6.849999999999998,-4.300000000000000,0.200000000000000));
#459=VERTEX_POINT('',#458);
#460=CARTESIAN_POINT('',(-6.849999999999998,-4.300000000000000,0.200000000000000));
#461=DIRECTION('',(0.0,1.0,0.0));
#462=VECTOR('',#461,8.600000000000001);
#463=LINE('',#460,#462);
#464=EDGE_CURVE('',#459,#435,#463,.T.);
#465=ORIENTED_EDGE('',*,*,#464,.F.);
#466=CARTESIAN_POINT('',(-6.849999999999999,-4.300000000000000,-1.799999999999997));
#467=VERTEX_POINT('',#466);
#468=CARTESIAN_POINT('',(-6.849999999999998,-4.300000000000000,-1.799999999999997));
#469=DIRECTION('',(0.0,0.0,1.0));
#470=VECTOR('',#469,1.999999999999997);
#471=LINE('',#468,#470);
#472=EDGE_CURVE('',#467,#459,#471,.T.);
#473=ORIENTED_EDGE('',*,*,#472,.F.);
#474=CARTESIAN_POINT('',(-6.849999999999997,4.300000000000001,-1.799999999999999));
#475=DIRECTION('',(0.0,-1.0,0.0));
#476=VECTOR('',#475,8.600000000000001);
#477=LINE('',#474,#476);
#478=EDGE_CURVE('',#424,#467,#477,.T.);
#479=ORIENTED_EDGE('',*,*,#478,.F.);
#480=EDGE_LOOP('',(#457,#465,#473,#479));
#481=FACE_OUTER_BOUND('',#480,.T.);
#482=ADVANCED_FACE('',(#481),#456,.F.);
#483=CARTESIAN_POINT('',(-1.249999999999996,4.299999999999999,-1.800000000000000));
#484=DIRECTION('',(0.0,0.0,1.0));
#485=DIRECTION('',(-0.707106781186547,0.707106781186548,0.0));
#486=AXIS2_PLACEMENT_3D('',#483,#484,#485);
#487=CYLINDRICAL_SURFACE('',#486,0.800000000000000);
#488=CARTESIAN_POINT('',(-2.049999999999996,4.299999999999999,-1.800000000000000));
#489=VERTEX_POINT('',#488);
#490=CARTESIAN_POINT('',(-1.249999999999996,4.299999999999999,-1.799999999999997));
#491=DIRECTION('',(0.0,0.0,1.0));
#492=DIRECTION('',(-0.707106781186547,0.707106781186548,0.0));
#493=AXIS2_PLACEMENT_3D('',#490,#491,#492);
#494=CIRCLE('',#493,0.800000000000000);
#495=EDGE_CURVE('',#313,#489,#494,.T.);
#496=ORIENTED_EDGE('',*,*,#495,.T.);
#497=CARTESIAN_POINT('',(-2.049999999999996,4.299999999999998,0.200000000000000));
#498=VERTEX_POINT('',#497);
#499=CARTESIAN_POINT('',(-2.049999999999996,4.299999999999999,-1.800000000000000));
#500=DIRECTION('',(0.0,0.0,1.0));
#501=VECTOR('',#500,1.999999999999999);
#502=LINE('',#499,#501);
#503=EDGE_CURVE('',#489,#498,#502,.T.);
#504=ORIENTED_EDGE('',*,*,#503,.T.);
#505=CARTESIAN_POINT('',(-1.249999999999996,4.299999999999999,0.200000000000000));
#506=DIRECTION('',(0.0,0.0,1.0));
#507=DIRECTION('',(-0.707106781186547,0.707106781186548,0.0));
#508=AXIS2_PLACEMENT_3D('',#505,#506,#507);
#509=CIRCLE('',#508,0.800000000000000);
#510=EDGE_CURVE('',#498,#401,#509,.F.);
#511=ORIENTED_EDGE('',*,*,#510,.T.);
#512=ORIENTED_EDGE('',*,*,#407,.F.);
#513=ORIENTED_EDGE('',*,*,#326,.F.);
#514=EDGE_LOOP('',(#496,#504,#511,#512,#513));
#515=FACE_OUTER_BOUND('',#514,.T.);
#516=ADVANCED_FACE('',(#515),#487,.T.);
#517=CARTESIAN_POINT('',(-9.174999999999999,-5.099999999999999,-1.799999999999997));
#518=DIRECTION('',(0.0,0.0,-1.0));
#519=DIRECTION('',(0.0,1.0,0.0));
#520=AXIS2_PLACEMENT_3D('',#517,#518,#519);
#521=PLANE('',#520);
#522=ORIENTED_EDGE('',*,*,#495,.F.);
#523=ORIENTED_EDGE('',*,*,#318,.T.);
#524=CARTESIAN_POINT('',(2.050000000000004,4.299999999999998,-1.800000000000001));
#525=VERTEX_POINT('',#524);
#526=CARTESIAN_POINT('',(1.250000000000003,4.299999999999999,-1.799999999999997));
#527=DIRECTION('',(0.0,0.0,1.000000000000000));
#528=DIRECTION('',(0.707106781186547,0.707106781186547,0.0));
#529=AXIS2_PLACEMENT_3D('',#526,#527,#528);
#530=CIRCLE('',#529,0.800000000000000);
#531=EDGE_CURVE('',#525,#305,#530,.T.);
#532=ORIENTED_EDGE('',*,*,#531,.F.);
#533=CARTESIAN_POINT('',(2.050000000000002,-4.300000000000001,-1.799999999999999));
#534=VERTEX_POINT('',#533);
#535=CARTESIAN_POINT('',(2.050000000000004,4.299999999999998,-1.800000000000001));
#536=DIRECTION('',(0.0,-1.0,0.0));
#537=VECTOR('',#536,8.599999999999998);
#538=LINE('',#535,#537);
#539=EDGE_CURVE('',#525,#534,#538,.T.);
#540=ORIENTED_EDGE('',*,*,#539,.T.);
#541=CARTESIAN_POINT('',(1.250000000000002,-4.300000000000001,-1.799999999999997));
#542=DIRECTION('',(0.0,0.0,1.0));
#543=DIRECTION('',(0.707106781186547,-0.707106781186548,0.0));
#544=AXIS2_PLACEMENT_3D('',#541,#542,#543);
#545=CIRCLE('',#544,0.800000000000000);
#546=EDGE_CURVE('',#143,#534,#545,.T.);
#547=ORIENTED_EDGE('',*,*,#546,.F.);
#548=ORIENTED_EDGE('',*,*,#148,.F.);
#549=CARTESIAN_POINT('',(-2.049999999999998,-4.300000000000001,-1.799999999999998));
#550=VERTEX_POINT('',#549);
#551=CARTESIAN_POINT('',(-1.249999999999998,-4.300000000000001,-1.799999999999997));
#552=DIRECTION('',(0.0,0.0,1.0));
#553=DIRECTION('',(-0.707106781186547,-0.707106781186548,0.0));
#554=AXIS2_PLACEMENT_3D('',#551,#552,#553);
#555=CIRCLE('',#554,0.800000000000000);
#556=EDGE_CURVE('',#550,#135,#555,.T.);
#557=ORIENTED_EDGE('',*,*,#556,.F.);
#558=CARTESIAN_POINT('',(-2.049999999999998,-4.300000000000001,-1.799999999999998));
#559=DIRECTION('',(0.0,1.0,0.0));
#560=VECTOR('',#559,8.600000000000000);
#561=LINE('',#558,#560);
#562=EDGE_CURVE('',#550,#489,#561,.T.);
#563=ORIENTED_EDGE('',*,*,#562,.T.);
#564=EDGE_LOOP('',(#522,#523,#532,#540,#547,#548,#557,#563));
#565=FACE_OUTER_BOUND('',#564,.T.);
#566=ADVANCED_FACE('',(#565),#521,.T.);
#567=CARTESIAN_POINT('',(1.250000000000003,4.299999999999999,-1.800000000000000));
#568=DIRECTION('',(0.0,0.0,-1.0));
#569=DIRECTION('',(0.707106781186547,0.707106781186547,0.0));
#570=AXIS2_PLACEMENT_3D('',#567,#568,#569);
#571=CYLINDRICAL_SURFACE('',#570,0.800000000000000);
#572=ORIENTED_EDGE('',*,*,#531,.T.);
#573=ORIENTED_EDGE('',*,*,#310,.F.);
#574=ORIENTED_EDGE('',*,*,#262,.F.);
#575=CARTESIAN_POINT('',(2.050000000000003,4.299999999999998,0.200000000000000));
#576=VERTEX_POINT('',#575);
#577=CARTESIAN_POINT('',(1.250000000000003,4.299999999999999,0.200000000000000));
#578=DIRECTION('',(0.0,0.0,1.000000000000000));
#579=DIRECTION('',(0.707106781186547,0.707106781186547,0.0));
#580=AXIS2_PLACEMENT_3D('',#577,#578,#579);
#581=CIRCLE('',#580,0.800000000000000);
#582=EDGE_CURVE('',#254,#576,#581,.F.);
#583=ORIENTED_EDGE('',*,*,#582,.T.);
#584=CARTESIAN_POINT('',(2.050000000000003,4.299999999999999,0.200000000000000));
#585=DIRECTION('',(0.0,0.0,-1.0));
#586=VECTOR('',#585,2.0);
#587=LINE('',#584,#586);
#588=EDGE_CURVE('',#576,#525,#587,.T.);
#589=ORIENTED_EDGE('',*,*,#588,.T.);
#590=EDGE_LOOP('',(#572,#573,#574,#583,#589));
#591=FACE_OUTER_BOUND('',#590,.T.);
#592=ADVANCED_FACE('',(#591),#571,.T.);
#593=CARTESIAN_POINT('',(2.050000000000002,-5.100000000000001,-1.800000000000001));
#594=DIRECTION('',(-1.0,0.0,0.0));
#595=DIRECTION('',(0.0,0.0,1.0));
#596=AXIS2_PLACEMENT_3D('',#593,#594,#595);
#597=PLANE('',#596);
#598=ORIENTED_EDGE('',*,*,#588,.F.);
#599=CARTESIAN_POINT('',(2.050000000000002,-4.300000000000001,0.200000000000000));
#600=VERTEX_POINT('',#599);
#601=CARTESIAN_POINT('',(2.050000000000002,-4.300000000000001,0.200000000000000));
#602=DIRECTION('',(0.0,1.0,0.0));
#603=VECTOR('',#602,8.599999999999998);
#604=LINE('',#601,#603);
#605=EDGE_CURVE('',#600,#576,#604,.T.);
#606=ORIENTED_EDGE('',*,*,#605,.F.);
#607=CARTESIAN_POINT('',(2.050000000000002,-4.300000000000001,-1.799999999999999));
#608=DIRECTION('',(0.0,0.0,1.0));
#609=VECTOR('',#608,1.999999999999999);
#610=LINE('',#607,#609);
#611=EDGE_CURVE('',#534,#600,#610,.T.);
#612=ORIENTED_EDGE('',*,*,#611,.F.);
#613=ORIENTED_EDGE('',*,*,#539,.F.);
#614=EDGE_LOOP('',(#598,#606,#612,#613));
#615=FACE_OUTER_BOUND('',#614,.T.);
#616=ADVANCED_FACE('',(#615),#597,.F.);
#617=CARTESIAN_POINT('',(7.650000000000003,4.299999999999998,-1.800000000000000));
#618=DIRECTION('',(0.0,0.0,1.0));
#619=DIRECTION('',(-0.707106781186548,0.707106781186548,0.0));
#620=AXIS2_PLACEMENT_3D('',#617,#618,#619);
#621=CYLINDRICAL_SURFACE('',#620,0.800000000000000);
#622=CARTESIAN_POINT('',(6.850000000000004,4.299999999999998,-1.800000000000002));
#623=VERTEX_POINT('',#622);
#624=CARTESIAN_POINT('',(7.650000000000003,4.299999999999998,-1.799999999999997));
#625=DIRECTION('',(0.0,0.0,1.000000000000000));
#626=DIRECTION('',(-0.707106781186548,0.707106781186548,0.0));
#627=AXIS2_PLACEMENT_3D('',#624,#625,#626);
#628=CIRCLE('',#627,0.800000000000000);
#629=EDGE_CURVE('',#296,#623,#628,.T.);
#630=ORIENTED_EDGE('',*,*,#629,.T.);
#631=CARTESIAN_POINT('',(6.850000000000003,4.299999999999998,0.200000000000000));
#632=VERTEX_POINT('',#631);
#633=CARTESIAN_POINT('',(6.850000000000003,4.299999999999998,-1.800000000000002));
#634=DIRECTION('',(0.0,0.0,1.0));
#635=VECTOR('',#634,2.000000000000001);
#636=LINE('',#633,#635);
#637=EDGE_CURVE('',#623,#632,#636,.T.);
#638=ORIENTED_EDGE('',*,*,#637,.T.);
#639=CARTESIAN_POINT('',(7.650000000000003,4.299999999999998,0.200000000000000));
#640=DIRECTION('',(0.0,0.0,1.000000000000000));
#641=DIRECTION('',(-0.707106781186548,0.707106781186548,0.0));
#642=AXIS2_PLACEMENT_3D('',#639,#640,#641);
#643=CIRCLE('',#642,0.800000000000000);
#644=EDGE_CURVE('',#632,#273,#643,.F.);
#645=ORIENTED_EDGE('',*,*,#644,.T.);
#646=ORIENTED_EDGE('',*,*,#279,.F.);
#647=ORIENTED_EDGE('',*,*,#301,.F.);
#648=EDGE_LOOP('',(#630,#638,#645,#646,#647));
#649=FACE_OUTER_BOUND('',#648,.T.);
#650=ADVANCED_FACE('',(#649),#621,.T.);
#651=CARTESIAN_POINT('',(7.650000000000001,-4.300000000000003,-1.800000000000000));
#652=DIRECTION('',(0.0,0.0,-1.0));
#653=DIRECTION('',(-0.707106781186547,-0.707106781186548,0.0));
#654=AXIS2_PLACEMENT_3D('',#651,#652,#653);
#655=CYLINDRICAL_SURFACE('',#654,0.800000000000000);
#656=CARTESIAN_POINT('',(6.850000000000002,-4.300000000000003,-1.800000000000000));
#657=VERTEX_POINT('',#656);
#658=CARTESIAN_POINT('',(7.650000000000001,-4.300000000000003,-1.799999999999997));
#659=DIRECTION('',(0.0,0.0,1.000000000000000));
#660=DIRECTION('',(-0.707106781186547,-0.707106781186548,0.0));
#661=AXIS2_PLACEMENT_3D('',#658,#659,#660);
#662=CIRCLE('',#661,0.800000000000000);
#663=EDGE_CURVE('',#657,#167,#662,.T.);
#664=ORIENTED_EDGE('',*,*,#663,.T.);
#665=ORIENTED_EDGE('',*,*,#172,.F.);
#666=ORIENTED_EDGE('',*,*,#227,.F.);
#667=CARTESIAN_POINT('',(6.850000000000001,-4.300000000000003,0.200000000000000));
#668=VERTEX_POINT('',#667);
#669=CARTESIAN_POINT('',(7.650000000000001,-4.300000000000003,0.200000000000000));
#670=DIRECTION('',(0.0,0.0,1.000000000000000));
#671=DIRECTION('',(-0.707106781186547,-0.707106781186548,0.0));
#672=AXIS2_PLACEMENT_3D('',#669,#670,#671);
#673=CIRCLE('',#672,0.800000000000000);
#674=EDGE_CURVE('',#221,#668,#673,.F.);
#675=ORIENTED_EDGE('',*,*,#674,.T.);
#676=CARTESIAN_POINT('',(6.850000000000001,-4.300000000000003,0.200000000000000));
#677=DIRECTION('',(0.0,0.0,-1.0));
#678=VECTOR('',#677,2.000000000000000);
#679=LINE('',#676,#678);
#680=EDGE_CURVE('',#668,#657,#679,.T.);
#681=ORIENTED_EDGE('',*,*,#680,.T.);
#682=EDGE_LOOP('',(#664,#665,#666,#675,#681));
#683=FACE_OUTER_BOUND('',#682,.T.);
#684=ADVANCED_FACE('',(#683),#655,.T.);
#685=CARTESIAN_POINT('',(6.850000000000003,5.099999999999999,-1.800000000000001));
#686=DIRECTION('',(1.0,0.0,0.0));
#687=DIRECTION('',(0.0,0.0,-1.0));
#688=AXIS2_PLACEMENT_3D('',#685,#686,#687);
#689=PLANE('',#688);
#690=ORIENTED_EDGE('',*,*,#637,.F.);
#691=CARTESIAN_POINT('',(6.850000000000002,-4.300000000000003,-1.800000000000000));
#692=DIRECTION('',(0.0,1.0,0.0));
#693=VECTOR('',#692,8.600000000000001);
#694=LINE('',#691,#693);
#695=EDGE_CURVE('',#657,#623,#694,.T.);
#696=ORIENTED_EDGE('',*,*,#695,.F.);
#697=ORIENTED_EDGE('',*,*,#680,.F.);
#698=CARTESIAN_POINT('',(6.850000000000003,4.299999999999998,0.200000000000000));
#699=DIRECTION('',(0.0,-1.0,0.0));
#700=VECTOR('',#699,8.600000000000001);
#701=LINE('',#698,#700);
#702=EDGE_CURVE('',#632,#668,#701,.T.);
#703=ORIENTED_EDGE('',*,*,#702,.F.);
#704=EDGE_LOOP('',(#690,#696,#697,#703));
#705=FACE_OUTER_BOUND('',#704,.T.);
#706=ADVANCED_FACE('',(#705),#689,.F.);
#707=CARTESIAN_POINT('',(1.250000000000002,-4.300000000000001,-1.800000000000000));
#708=DIRECTION('',(0.0,0.0,1.0));
#709=DIRECTION('',(0.707106781186547,-0.707106781186548,0.0));
#710=AXIS2_PLACEMENT_3D('',#707,#708,#709);
#711=CYLINDRICAL_SURFACE('',#710,0.800000000000000);
#712=ORIENTED_EDGE('',*,*,#546,.T.);
#713=ORIENTED_EDGE('',*,*,#611,.T.);
#714=CARTESIAN_POINT('',(1.250000000000002,-4.300000000000001,0.200000000000000));
#715=DIRECTION('',(0.0,0.0,1.0));
#716=DIRECTION('',(0.707106781186547,-0.707106781186548,0.0));
#717=AXIS2_PLACEMENT_3D('',#714,#715,#716);
#718=CIRCLE('',#717,0.800000000000000);
#719=EDGE_CURVE('',#600,#231,#718,.F.);
#720=ORIENTED_EDGE('',*,*,#719,.T.);
#721=ORIENTED_EDGE('',*,*,#237,.F.);
#722=ORIENTED_EDGE('',*,*,#156,.F.);
#723=EDGE_LOOP('',(#712,#713,#720,#721,#722));
#724=FACE_OUTER_BOUND('',#723,.T.);
#725=ADVANCED_FACE('',(#724),#711,.T.);
#726=CARTESIAN_POINT('',(-7.649999999999998,-4.300000000000000,-1.800000000000000));
#727=DIRECTION('',(0.0,0.0,1.0));
#728=DIRECTION('',(0.707106781186548,-0.707106781186548,0.0));
#729=AXIS2_PLACEMENT_3D('',#726,#727,#728);
#730=CYLINDRICAL_SURFACE('',#729,0.800000000000000);
#731=CARTESIAN_POINT('',(-7.649999999999998,-4.300000000000000,-1.799999999999997));
#732=DIRECTION('',(0.0,0.0,1.000000000000000));
#733=DIRECTION('',(0.707106781186548,-0.707106781186548,0.0));
#734=AXIS2_PLACEMENT_3D('',#731,#732,#733);
#735=CIRCLE('',#734,0.800000000000000);
#736=EDGE_CURVE('',#126,#467,#735,.T.);
#737=ORIENTED_EDGE('',*,*,#736,.T.);
#738=ORIENTED_EDGE('',*,*,#472,.T.);
#739=CARTESIAN_POINT('',(-7.649999999999998,-4.300000000000000,0.200000000000000));
#740=DIRECTION('',(0.0,0.0,1.000000000000000));
#741=DIRECTION('',(0.707106781186548,-0.707106781186548,0.0));
#742=AXIS2_PLACEMENT_3D('',#739,#740,#741);
#743=CIRCLE('',#742,0.800000000000000);
#744=EDGE_CURVE('',#459,#103,#743,.F.);
#745=ORIENTED_EDGE('',*,*,#744,.T.);
#746=ORIENTED_EDGE('',*,*,#109,.F.);
#747=ORIENTED_EDGE('',*,*,#131,.F.);
#748=EDGE_LOOP('',(#737,#738,#745,#746,#747));
#749=FACE_OUTER_BOUND('',#748,.T.);
#750=ADVANCED_FACE('',(#749),#730,.T.);
#751=CARTESIAN_POINT('',(-1.249999999999998,-4.300000000000001,-1.800000000000000));
#752=DIRECTION('',(0.0,0.0,-1.0));
#753=DIRECTION('',(-0.707106781186547,-0.707106781186548,0.0));
#754=AXIS2_PLACEMENT_3D('',#751,#752,#753);
#755=CYLINDRICAL_SURFACE('',#754,0.800000000000000);
#756=ORIENTED_EDGE('',*,*,#556,.T.);
#757=ORIENTED_EDGE('',*,*,#140,.F.);
#758=ORIENTED_EDGE('',*,*,#92,.F.);
#759=CARTESIAN_POINT('',(-2.049999999999998,-4.300000000000001,0.200000000000000));
#760=VERTEX_POINT('',#759);
#761=CARTESIAN_POINT('',(-1.249999999999998,-4.300000000000001,0.200000000000000));
#762=DIRECTION('',(0.0,0.0,1.0));
#763=DIRECTION('',(-0.707106781186547,-0.707106781186548,0.0));
#764=AXIS2_PLACEMENT_3D('',#761,#762,#763);
#765=CIRCLE('',#764,0.800000000000000);
#766=EDGE_CURVE('',#84,#760,#765,.F.);
#767=ORIENTED_EDGE('',*,*,#766,.T.);
#768=CARTESIAN_POINT('',(-2.049999999999998,-4.300000000000001,0.200000000000000));
#769=DIRECTION('',(0.0,0.0,-1.0));
#770=VECTOR('',#769,1.999999999999998);
#771=LINE('',#768,#770);
#772=EDGE_CURVE('',#760,#550,#771,.T.);
#773=ORIENTED_EDGE('',*,*,#772,.T.);
#774=EDGE_LOOP('',(#756,#757,#758,#767,#773));
#775=FACE_OUTER_BOUND('',#774,.T.);
#776=ADVANCED_FACE('',(#775),#755,.T.);
#777=CARTESIAN_POINT('',(-2.049999999999996,5.100000000000000,-1.800000000000001));
#778=DIRECTION('',(1.0,0.0,0.0));
#779=DIRECTION('',(0.0,0.0,-1.0));
#780=AXIS2_PLACEMENT_3D('',#777,#778,#779);
#781=PLANE('',#780);
#782=ORIENTED_EDGE('',*,*,#503,.F.);
#783=ORIENTED_EDGE('',*,*,#562,.F.);
#784=ORIENTED_EDGE('',*,*,#772,.F.);
#785=CARTESIAN_POINT('',(-2.049999999999996,4.299999999999998,0.200000000000000));
#786=DIRECTION('',(0.0,-1.0,0.0));
#787=VECTOR('',#786,8.599999999999998);
#788=LINE('',#785,#787);
#789=EDGE_CURVE('',#498,#760,#788,.T.);
#790=ORIENTED_EDGE('',*,*,#789,.F.);
#791=EDGE_LOOP('',(#782,#783,#784,#790));
#792=FACE_OUTER_BOUND('',#791,.T.);
#793=ADVANCED_FACE('',(#792),#781,.F.);
#794=CARTESIAN_POINT('',(-4.449999999999996,0.0,0.200000000000000));
#795=DIRECTION('',(0.0,0.0,1.0));
#796=DIRECTION('',(1.0,0.0,0.0));
#797=AXIS2_PLACEMENT_3D('',#794,#795,#796);
#798=PLANE('',#797);
#799=ORIENTED_EDGE('',*,*,#115,.F.);
#800=ORIENTED_EDGE('',*,*,#744,.F.);
#801=ORIENTED_EDGE('',*,*,#464,.T.);
#802=ORIENTED_EDGE('',*,*,#441,.F.);
#803=ORIENTED_EDGE('',*,*,#413,.F.);
#804=ORIENTED_EDGE('',*,*,#510,.F.);
#805=ORIENTED_EDGE('',*,*,#789,.T.);
#806=ORIENTED_EDGE('',*,*,#766,.F.);
#807=EDGE_LOOP('',(#799,#800,#801,#802,#803,#804,#805,#806));
#808=FACE_OUTER_BOUND('',#807,.T.);
#809=ADVANCED_FACE('',(#808),#798,.F.);
#810=CARTESIAN_POINT('',(4.450000000000003,-6.661338E-016,0.200000000000000));
#811=DIRECTION('',(0.0,0.0,1.0));
#812=DIRECTION('',(1.0,0.0,0.0));
#813=AXIS2_PLACEMENT_3D('',#810,#811,#812);
#814=PLANE('',#813);
#815=ORIENTED_EDGE('',*,*,#243,.F.);
#816=ORIENTED_EDGE('',*,*,#719,.F.);
#817=ORIENTED_EDGE('',*,*,#605,.T.);
#818=ORIENTED_EDGE('',*,*,#582,.F.);
#819=ORIENTED_EDGE('',*,*,#285,.F.);
#820=ORIENTED_EDGE('',*,*,#644,.F.);
#821=ORIENTED_EDGE('',*,*,#702,.T.);
#822=ORIENTED_EDGE('',*,*,#674,.F.);
#823=EDGE_LOOP('',(#815,#816,#817,#818,#819,#820,#821,#822));
#824=FACE_OUTER_BOUND('',#823,.T.);
#825=ADVANCED_FACE('',(#824),#814,.F.);
#826=CARTESIAN_POINT('',(-9.174999999999999,-5.099999999999999,-1.799999999999997));
#827=DIRECTION('',(0.0,0.0,-1.0));
#828=DIRECTION('',(0.0,1.0,0.0));
#829=AXIS2_PLACEMENT_3D('',#826,#827,#828);
#830=PLANE('',#829);
#831=ORIENTED_EDGE('',*,*,#629,.F.);
#832=ORIENTED_EDGE('',*,*,#380,.T.);
#833=CARTESIAN_POINT('',(9.175000000000004,4.299999999999998,-1.800000000000002));
#834=VERTEX_POINT('',#833);
#835=CARTESIAN_POINT('',(8.375000000000005,4.299999999999998,-1.800000000000002));
#836=DIRECTION('',(-1.387779E-016,-1.387779E-016,1.000000000000000));
#837=DIRECTION('',(0.707106781186548,0.707106781186547,1.962616E-016));
#838=AXIS2_PLACEMENT_3D('',#835,#836,#837);
#839=CIRCLE('',#838,0.800000000000000);
#840=EDGE_CURVE('',#834,#369,#839,.T.);
#841=ORIENTED_EDGE('',*,*,#840,.F.);
#842=CARTESIAN_POINT('',(9.175000000000003,-4.300000000000003,-1.800000000000000));
#843=VERTEX_POINT('',#842);
#844=CARTESIAN_POINT('',(9.175000000000003,-4.300000000000003,-1.800000000000000));
#845=DIRECTION('',(0.0,1.0,0.0));
#846=VECTOR('',#845,8.600000000000001);
#847=LINE('',#844,#846);
#848=EDGE_CURVE('',#843,#834,#847,.T.);
#849=ORIENTED_EDGE('',*,*,#848,.F.);
#850=CARTESIAN_POINT('',(8.375000000000002,-4.300000000000003,-1.800000000000000));
#851=DIRECTION('',(-1.387779E-016,1.387779E-016,1.000000000000000));
#852=DIRECTION('',(0.707106781186547,-0.707106781186547,1.962616E-016));
#853=AXIS2_PLACEMENT_3D('',#850,#851,#852);
#854=CIRCLE('',#853,0.800000000000000);
#855=EDGE_CURVE('',#175,#843,#854,.T.);
#856=ORIENTED_EDGE('',*,*,#855,.F.);
#857=ORIENTED_EDGE('',*,*,#180,.F.);
#858=ORIENTED_EDGE('',*,*,#663,.F.);
#859=ORIENTED_EDGE('',*,*,#695,.T.);
#860=EDGE_LOOP('',(#831,#832,#841,#849,#856,#857,#858,#859));
#861=FACE_OUTER_BOUND('',#860,.T.);
#862=ADVANCED_FACE('',(#861),#830,.T.);
#863=CARTESIAN_POINT('',(-9.174999999999999,-5.099999999999999,-1.799999999999997));
#864=DIRECTION('',(0.0,0.0,-1.0));
#865=DIRECTION('',(0.0,1.0,0.0));
#866=AXIS2_PLACEMENT_3D('',#863,#864,#865);
#867=PLANE('',#866);
#868=ORIENTED_EDGE('',*,*,#430,.F.);
#869=ORIENTED_EDGE('',*,*,#478,.T.);
#870=ORIENTED_EDGE('',*,*,#736,.F.);
#871=ORIENTED_EDGE('',*,*,#210,.F.);
#872=CARTESIAN_POINT('',(-9.174999999999999,-4.300000000000000,-1.799999999999997));
#873=VERTEX_POINT('',#872);
#874=CARTESIAN_POINT('',(-8.375000000000000,-4.300000000000000,-1.799999999999997));
#875=DIRECTION('',(0.0,0.0,1.000000000000000));
#876=DIRECTION('',(-0.707106781186547,-0.707106781186547,0.0));
#877=AXIS2_PLACEMENT_3D('',#874,#875,#876);
#878=CIRCLE('',#877,0.800000000000000);
#879=EDGE_CURVE('',#873,#199,#878,.T.);
#880=ORIENTED_EDGE('',*,*,#879,.F.);
#881=CARTESIAN_POINT('',(-9.174999999999997,4.300000000000002,-1.799999999999998));
#882=VERTEX_POINT('',#881);
#883=CARTESIAN_POINT('',(-9.174999999999999,-4.300000000000000,-1.799999999999997));
#884=DIRECTION('',(0.0,1.0,0.0));
#885=VECTOR('',#884,8.600000000000001);
#886=LINE('',#883,#885);
#887=EDGE_CURVE('',#873,#882,#886,.T.);
#888=ORIENTED_EDGE('',*,*,#887,.T.);
#889=CARTESIAN_POINT('',(-8.374999999999998,4.300000000000001,-1.799999999999998));
#890=DIRECTION('',(-2.775558E-016,2.775558E-016,1.000000000000000));
#891=DIRECTION('',(-0.707106781186548,0.707106781186547,-3.925231E-016));
#892=AXIS2_PLACEMENT_3D('',#889,#890,#891);
#893=CIRCLE('',#892,0.800000000000000);
#894=EDGE_CURVE('',#345,#882,#893,.T.);
#895=ORIENTED_EDGE('',*,*,#894,.F.);
#896=ORIENTED_EDGE('',*,*,#350,.T.);
#897=EDGE_LOOP('',(#868,#869,#870,#871,#880,#888,#895,#896));
#898=FACE_OUTER_BOUND('',#897,.T.);
#899=ADVANCED_FACE('',(#898),#867,.T.);
#900=CARTESIAN_POINT('',(8.375000000000005,4.299999999999998,-0.668832391713749));
#901=DIRECTION('',(-2.112132E-016,1.836910E-016,1.0));
#902=DIRECTION('',(0.707106781186548,0.707106781186547,1.962616E-016));
#903=AXIS2_PLACEMENT_3D('',#900,#901,#902);
#904=CYLINDRICAL_SURFACE('',#903,0.800000000000000);
#905=CARTESIAN_POINT('',(9.175000000000003,4.299999999999998,2.299999999999996));
#906=VERTEX_POINT('',#905);
#907=CARTESIAN_POINT('',(8.375000000000005,4.299999999999999,2.299999999999996));
#908=DIRECTION('',(1.387779E-016,1.387779E-016,-1.000000000000000));
#909=DIRECTION('',(0.707106781186548,0.707106781186547,1.962616E-016));
#910=AXIS2_PLACEMENT_3D('',#907,#908,#909);
#911=CIRCLE('',#910,0.800000000000000);
#912=EDGE_CURVE('',#361,#906,#911,.T.);
#913=ORIENTED_EDGE('',*,*,#912,.T.);
#914=CARTESIAN_POINT('',(9.175000000000004,4.299999999999999,2.299999999999996));
#915=DIRECTION('',(0.0,0.0,-1.0));
#916=VECTOR('',#915,4.099999999999998);
#917=LINE('',#914,#916);
#918=EDGE_CURVE('',#906,#834,#917,.T.);
#919=ORIENTED_EDGE('',*,*,#918,.T.);
#920=ORIENTED_EDGE('',*,*,#840,.T.);
#921=ORIENTED_EDGE('',*,*,#374,.T.);
#922=EDGE_LOOP('',(#913,#919,#920,#921));
#923=FACE_OUTER_BOUND('',#922,.T.);
#924=ADVANCED_FACE('',(#923),#904,.T.);
#925=CARTESIAN_POINT('',(9.175000000000003,-5.100000000000002,-1.800000000000000));
#926=DIRECTION('',(1.0,0.0,0.0));
#927=DIRECTION('',(0.0,-1.0,0.0));
#928=AXIS2_PLACEMENT_3D('',#925,#926,#927);
#929=PLANE('',#928);
#930=ORIENTED_EDGE('',*,*,#918,.F.);
#931=CARTESIAN_POINT('',(9.175000000000001,1.349999999999998,2.299999999999996));
#932=VERTEX_POINT('',#931);
#933=CARTESIAN_POINT('',(9.175000000000003,1.349999999999998,2.299999999999996));
#934=DIRECTION('',(0.0,1.0,0.0));
#935=VECTOR('',#934,2.950000000000000);
#936=LINE('',#933,#935);
#937=EDGE_CURVE('',#932,#906,#936,.T.);
#938=ORIENTED_EDGE('',*,*,#937,.F.);
#939=CARTESIAN_POINT('',(9.175000000000001,1.349999999999998,1.499999999999996));
#940=VERTEX_POINT('',#939);
#941=CARTESIAN_POINT('',(9.175000000000004,1.349999999999998,2.299999999999995));
#942=DIRECTION('',(0.0,0.0,-1.0));
#943=VECTOR('',#942,0.800000000000000);
#944=LINE('',#941,#943);
#945=EDGE_CURVE('',#932,#940,#944,.T.);
#946=ORIENTED_EDGE('',*,*,#945,.T.);
#947=CARTESIAN_POINT('',(9.175000000000001,-1.350000000000002,1.499999999999996));
#948=VERTEX_POINT('',#947);
#949=CARTESIAN_POINT('',(9.175000000000003,1.349999999999998,1.499999999999996));
#950=DIRECTION('',(0.0,-1.0,0.0));
#951=VECTOR('',#950,2.700000000000000);
#952=LINE('',#949,#951);
#953=EDGE_CURVE('',#940,#948,#952,.T.);
#954=ORIENTED_EDGE('',*,*,#953,.T.);
#955=CARTESIAN_POINT('',(9.175000000000001,-1.350000000000002,2.299999999999996));
#956=VERTEX_POINT('',#955);
#957=CARTESIAN_POINT('',(9.175000000000003,-1.350000000000002,1.499999999999996));
#958=DIRECTION('',(0.0,0.0,1.0));
#959=VECTOR('',#958,0.800000000000000);
#960=LINE('',#957,#959);
#961=EDGE_CURVE('',#948,#956,#960,.T.);
#962=ORIENTED_EDGE('',*,*,#961,.T.);
#963=CARTESIAN_POINT('',(9.175000000000001,-4.300000000000002,2.299999999999998));
#964=VERTEX_POINT('',#963);
#965=CARTESIAN_POINT('',(9.175000000000001,-4.300000000000002,2.299999999999998));
#966=DIRECTION('',(0.0,1.0,0.0));
#967=VECTOR('',#966,2.949999999999999);
#968=LINE('',#965,#967);
#969=EDGE_CURVE('',#964,#956,#968,.T.);
#970=ORIENTED_EDGE('',*,*,#969,.F.);
#971=CARTESIAN_POINT('',(9.175000000000003,-4.300000000000003,-1.800000000000000));
#972=DIRECTION('',(0.0,0.0,1.0));
#973=VECTOR('',#972,4.099999999999998);
#974=LINE('',#971,#973);
#975=EDGE_CURVE('',#843,#964,#974,.T.);
#976=ORIENTED_EDGE('',*,*,#975,.F.);
#977=ORIENTED_EDGE('',*,*,#848,.T.);
#978=EDGE_LOOP('',(#930,#938,#946,#954,#962,#970,#976,#977));
#979=FACE_OUTER_BOUND('',#978,.T.);
#980=ADVANCED_FACE('',(#979),#929,.T.);
#981=CARTESIAN_POINT('',(9.175000000000001,-5.100000000000002,2.299999999999998));
#982=DIRECTION('',(0.0,0.0,1.0));
#983=DIRECTION('',(0.0,-1.0,0.0));
#984=AXIS2_PLACEMENT_3D('',#981,#982,#983);
#985=PLANE('',#984);
#986=ORIENTED_EDGE('',*,*,#912,.F.);
#987=ORIENTED_EDGE('',*,*,#366,.T.);
#988=CARTESIAN_POINT('',(-9.174999999999999,4.300000000000001,2.300000000000003));
#989=VERTEX_POINT('',#988);
#990=CARTESIAN_POINT('',(-8.374999999999998,4.300000000000002,2.299999999999992));
#991=DIRECTION('',(2.775558E-016,-2.775558E-016,-1.000000000000000));
#992=DIRECTION('',(-0.707106781186548,0.707106781186547,-3.925231E-016));
#993=AXIS2_PLACEMENT_3D('',#990,#991,#992);
#994=CIRCLE('',#993,0.800000000000000);
#995=EDGE_CURVE('',#989,#353,#994,.T.);
#996=ORIENTED_EDGE('',*,*,#995,.F.);
#997=CARTESIAN_POINT('',(-9.175000000000001,1.350000000000001,2.300000000000003));
#998=VERTEX_POINT('',#997);
#999=CARTESIAN_POINT('',(-9.174999999999999,1.350000000000001,2.300000000000003));
#1000=DIRECTION('',(0.0,1.0,0.0));
#1001=VECTOR('',#1000,2.949999999999999);
#1002=LINE('',#999,#1001);
#1003=EDGE_CURVE('',#998,#989,#1002,.T.);
#1004=ORIENTED_EDGE('',*,*,#1003,.F.);
#1005=CARTESIAN_POINT('',(-6.975000000000001,1.350000000000001,2.300000000000003));
#1006=VERTEX_POINT('',#1005);
#1007=CARTESIAN_POINT('',(-9.175000000000001,1.350000000000001,2.300000000000001));
#1008=DIRECTION('',(1.0,0.0,0.0));
#1009=VECTOR('',#1008,2.199999999999999);
#1010=LINE('',#1007,#1009);
#1011=EDGE_CURVE('',#998,#1006,#1010,.T.);
#1012=ORIENTED_EDGE('',*,*,#1011,.T.);
#1013=CARTESIAN_POINT('',(-6.975000000000001,-1.349999999999999,2.300000000000003));
#1014=VERTEX_POINT('',#1013);
#1015=CARTESIAN_POINT('',(-6.975000000000001,1.350000000000001,2.300000000000000));
#1016=DIRECTION('',(0.0,-1.0,0.0));
#1017=VECTOR('',#1016,2.700000000000000);
#1018=LINE('',#1015,#1017);
#1019=EDGE_CURVE('',#1006,#1014,#1018,.T.);
#1020=ORIENTED_EDGE('',*,*,#1019,.T.);
#1021=CARTESIAN_POINT('',(-9.175000000000001,-1.349999999999999,2.300000000000003));
#1022=VERTEX_POINT('',#1021);
#1023=CARTESIAN_POINT('',(-6.975000000000001,-1.349999999999999,2.300000000000001));
#1024=DIRECTION('',(-1.0,0.0,0.0));
#1025=VECTOR('',#1024,2.199999999999999);
#1026=LINE('',#1023,#1025);
#1027=EDGE_CURVE('',#1014,#1022,#1026,.T.);
#1028=ORIENTED_EDGE('',*,*,#1027,.T.);
#1029=CARTESIAN_POINT('',(-9.175000000000001,-4.299999999999999,2.300000000000005));
#1030=VERTEX_POINT('',#1029);
#1031=CARTESIAN_POINT('',(-9.175000000000001,-4.299999999999999,2.300000000000005));
#1032=DIRECTION('',(0.0,1.0,0.0));
#1033=VECTOR('',#1032,2.950000000000000);
#1034=LINE('',#1031,#1033);
#1035=EDGE_CURVE('',#1030,#1022,#1034,.T.);
#1036=ORIENTED_EDGE('',*,*,#1035,.F.);
#1037=CARTESIAN_POINT('',(-8.375000000000000,-4.299999999999999,2.299999999999994));
#1038=DIRECTION('',(0.0,0.0,-1.000000000000000));
#1039=DIRECTION('',(-0.707106781186547,-0.707106781186547,0.0));
#1040=AXIS2_PLACEMENT_3D('',#1037,#1038,#1039);
#1041=CIRCLE('',#1040,0.800000000000000);
#1042=EDGE_CURVE('',#191,#1030,#1041,.T.);
#1043=ORIENTED_EDGE('',*,*,#1042,.F.);
#1044=ORIENTED_EDGE('',*,*,#196,.F.);
#1045=CARTESIAN_POINT('',(8.375000000000002,-4.300000000000002,2.299999999999997));
#1046=DIRECTION('',(1.387779E-016,-1.387779E-016,-1.000000000000000));
#1047=DIRECTION('',(0.707106781186547,-0.707106781186547,1.962616E-016));
#1048=AXIS2_PLACEMENT_3D('',#1045,#1046,#1047);
#1049=CIRCLE('',#1048,0.800000000000000);
#1050=EDGE_CURVE('',#964,#183,#1049,.T.);
#1051=ORIENTED_EDGE('',*,*,#1050,.F.);
#1052=ORIENTED_EDGE('',*,*,#969,.T.);
#1053=CARTESIAN_POINT('',(6.975000000000001,-1.350000000000002,2.299999999999996));
#1054=VERTEX_POINT('',#1053);
#1055=CARTESIAN_POINT('',(9.175000000000001,-1.350000000000002,2.299999999999997));
#1056=DIRECTION('',(-1.0,0.0,0.0));
#1057=VECTOR('',#1056,2.199999999999999);
#1058=LINE('',#1055,#1057);
#1059=EDGE_CURVE('',#956,#1054,#1058,.T.);
#1060=ORIENTED_EDGE('',*,*,#1059,.T.);
#1061=CARTESIAN_POINT('',(6.975000000000001,1.349999999999998,2.299999999999996));
#1062=VERTEX_POINT('',#1061);
#1063=CARTESIAN_POINT('',(6.975000000000001,-1.350000000000002,2.299999999999997));
#1064=DIRECTION('',(0.0,1.0,0.0));
#1065=VECTOR('',#1064,2.700000000000000);
#1066=LINE('',#1063,#1065);
#1067=EDGE_CURVE('',#1054,#1062,#1066,.T.);
#1068=ORIENTED_EDGE('',*,*,#1067,.T.);
#1069=CARTESIAN_POINT('',(6.975000000000001,1.349999999999998,2.299999999999997));
#1070=DIRECTION('',(1.0,0.0,0.0));
#1071=VECTOR('',#1070,2.199999999999999);
#1072=LINE('',#1069,#1071);
#1073=EDGE_CURVE('',#1062,#932,#1072,.T.);
#1074=ORIENTED_EDGE('',*,*,#1073,.T.);
#1075=ORIENTED_EDGE('',*,*,#937,.T.);
#1076=EDGE_LOOP('',(#986,#987,#996,#1004,#1012,#1020,#1028,#1036,#1043,#1044,#1051,#1052,#1060,#1068,#1074,#1075));
#1077=FACE_OUTER_BOUND('',#1076,.T.);
#1078=ADVANCED_FACE('',(#1077),#985,.T.);
#1079=CARTESIAN_POINT('',(8.375000000000002,-4.300000000000003,-0.668832391713745));
#1080=DIRECTION('',(-2.112132E-016,1.836910E-016,1.0));
#1081=DIRECTION('',(0.707106781186547,-0.707106781186547,1.962616E-016));
#1082=AXIS2_PLACEMENT_3D('',#1079,#1080,#1081);
#1083=CYLINDRICAL_SURFACE('',#1082,0.800000000000000);
#1084=ORIENTED_EDGE('',*,*,#1050,.T.);
#1085=ORIENTED_EDGE('',*,*,#188,.T.);
#1086=ORIENTED_EDGE('',*,*,#855,.T.);
#1087=ORIENTED_EDGE('',*,*,#975,.T.);
#1088=EDGE_LOOP('',(#1084,#1085,#1086,#1087));
#1089=FACE_OUTER_BOUND('',#1088,.T.);
#1090=ADVANCED_FACE('',(#1089),#1083,.T.);
#1091=CARTESIAN_POINT('',(-8.375000000000000,-4.299999999999999,1.381167608286256));
#1092=DIRECTION('',(2.112132E-016,-1.836910E-016,-1.0));
#1093=DIRECTION('',(-0.707106781186547,-0.707106781186547,0.0));
#1094=AXIS2_PLACEMENT_3D('',#1091,#1092,#1093);
#1095=CYLINDRICAL_SURFACE('',#1094,0.800000000000000);
#1096=ORIENTED_EDGE('',*,*,#879,.T.);
#1097=ORIENTED_EDGE('',*,*,#204,.T.);
#1098=ORIENTED_EDGE('',*,*,#1042,.T.);
#1099=CARTESIAN_POINT('',(-9.175000000000001,-4.299999999999999,2.300000000000005));
#1100=DIRECTION('',(0.0,0.0,-1.0));
#1101=VECTOR('',#1100,4.100000000000001);
#1102=LINE('',#1099,#1101);
#1103=EDGE_CURVE('',#1030,#873,#1102,.T.);
#1104=ORIENTED_EDGE('',*,*,#1103,.T.);
#1105=EDGE_LOOP('',(#1096,#1097,#1098,#1104));
#1106=FACE_OUTER_BOUND('',#1105,.T.);
#1107=ADVANCED_FACE('',(#1106),#1095,.T.);
#1108=CARTESIAN_POINT('',(-9.175000000000001,-5.099999999999998,2.300000000000005));
#1109=DIRECTION('',(-1.0,0.0,0.0));
#1110=DIRECTION('',(0.0,1.0,0.0));
#1111=AXIS2_PLACEMENT_3D('',#1108,#1109,#1110);
#1112=PLANE('',#1111);
#1113=ORIENTED_EDGE('',*,*,#1103,.F.);
#1114=ORIENTED_EDGE('',*,*,#1035,.T.);
#1115=CARTESIAN_POINT('',(-9.175000000000001,-1.349999999999999,1.500000000000003));
#1116=VERTEX_POINT('',#1115);
#1117=CARTESIAN_POINT('',(-9.175000000000001,-1.349999999999999,2.300000000000003));
#1118=DIRECTION('',(0.0,0.0,-1.0));
#1119=VECTOR('',#1118,0.800000000000000);
#1120=LINE('',#1117,#1119);
#1121=EDGE_CURVE('',#1022,#1116,#1120,.T.);
#1122=ORIENTED_EDGE('',*,*,#1121,.T.);
#1123=CARTESIAN_POINT('',(-9.175000000000001,1.350000000000001,1.500000000000003));
#1124=VERTEX_POINT('',#1123);
#1125=CARTESIAN_POINT('',(-9.175000000000001,-1.349999999999999,1.500000000000003));
#1126=DIRECTION('',(0.0,1.0,0.0));
#1127=VECTOR('',#1126,2.700000000000000);
#1128=LINE('',#1125,#1127);
#1129=EDGE_CURVE('',#1116,#1124,#1128,.T.);
#1130=ORIENTED_EDGE('',*,*,#1129,.T.);
#1131=CARTESIAN_POINT('',(-9.174999999999999,1.350000000000001,1.500000000000003));
#1132=DIRECTION('',(0.0,0.0,1.0));
#1133=VECTOR('',#1132,0.800000000000000);
#1134=LINE('',#1131,#1133);
#1135=EDGE_CURVE('',#1124,#998,#1134,.T.);
#1136=ORIENTED_EDGE('',*,*,#1135,.T.);
#1137=ORIENTED_EDGE('',*,*,#1003,.T.);
#1138=CARTESIAN_POINT('',(-9.174999999999999,4.300000000000001,-1.799999999999999));
#1139=DIRECTION('',(0.0,0.0,1.0));
#1140=VECTOR('',#1139,4.100000000000001);
#1141=LINE('',#1138,#1140);
#1142=EDGE_CURVE('',#882,#989,#1141,.T.);
#1143=ORIENTED_EDGE('',*,*,#1142,.F.);
#1144=ORIENTED_EDGE('',*,*,#887,.F.);
#1145=EDGE_LOOP('',(#1113,#1114,#1122,#1130,#1136,#1137,#1143,#1144));
#1146=FACE_OUTER_BOUND('',#1145,.T.);
#1147=ADVANCED_FACE('',(#1146),#1112,.T.);
#1148=CARTESIAN_POINT('',(-8.374999999999998,4.300000000000002,1.381167608286252));
#1149=DIRECTION('',(2.112132E-016,-1.836910E-016,-1.0));
#1150=DIRECTION('',(-0.707106781186548,0.707106781186547,-3.925231E-016));
#1151=AXIS2_PLACEMENT_3D('',#1148,#1149,#1150);
#1152=CYLINDRICAL_SURFACE('',#1151,0.800000000000000);
#1153=ORIENTED_EDGE('',*,*,#894,.T.);
#1154=ORIENTED_EDGE('',*,*,#1142,.T.);
#1155=ORIENTED_EDGE('',*,*,#995,.T.);
#1156=ORIENTED_EDGE('',*,*,#358,.T.);
#1157=EDGE_LOOP('',(#1153,#1154,#1155,#1156));
#1158=FACE_OUTER_BOUND('',#1157,.T.);
#1159=ADVANCED_FACE('',(#1158),#1152,.T.);
#1160=CARTESIAN_POINT('',(6.975000000000001,-1.350000000000002,1.499999999999996));
#1161=DIRECTION('',(-1.0,0.0,0.0));
#1162=DIRECTION('',(0.0,0.0,1.0));
#1163=AXIS2_PLACEMENT_3D('',#1160,#1161,#1162);
#1164=PLANE('',#1163);
#1165=ORIENTED_EDGE('',*,*,#1067,.F.);
#1166=CARTESIAN_POINT('',(6.975000000000001,-1.350000000000002,1.499999999999996));
#1167=VERTEX_POINT('',#1166);
#1168=CARTESIAN_POINT('',(6.975000000000001,-1.350000000000002,1.499999999999996));
#1169=DIRECTION('',(0.0,0.0,1.0));
#1170=VECTOR('',#1169,0.800000000000000);
#1171=LINE('',#1168,#1170);
#1172=EDGE_CURVE('',#1167,#1054,#1171,.T.);
#1173=ORIENTED_EDGE('',*,*,#1172,.F.);
#1174=CARTESIAN_POINT('',(6.975000000000001,1.349999999999998,1.499999999999996));
#1175=VERTEX_POINT('',#1174);
#1176=CARTESIAN_POINT('',(6.975000000000001,1.349999999999998,1.499999999999996));
#1177=DIRECTION('',(0.0,-1.0,0.0));
#1178=VECTOR('',#1177,2.700000000000000);
#1179=LINE('',#1176,#1178);
#1180=EDGE_CURVE('',#1175,#1167,#1179,.T.);
#1181=ORIENTED_EDGE('',*,*,#1180,.F.);
#1182=CARTESIAN_POINT('',(6.975000000000001,1.349999999999998,1.499999999999996));
#1183=DIRECTION('',(0.0,0.0,1.0));
#1184=VECTOR('',#1183,0.800000000000000);
#1185=LINE('',#1182,#1184);
#1186=EDGE_CURVE('',#1175,#1062,#1185,.T.);
#1187=ORIENTED_EDGE('',*,*,#1186,.T.);
#1188=EDGE_LOOP('',(#1165,#1173,#1181,#1187));
#1189=FACE_OUTER_BOUND('',#1188,.T.);
#1190=ADVANCED_FACE('',(#1189),#1164,.F.);
#1191=CARTESIAN_POINT('',(6.975000000000001,1.349999999999998,1.499999999999996));
#1192=DIRECTION('',(0.0,1.0,0.0));
#1193=DIRECTION('',(0.0,0.0,1.0));
#1194=AXIS2_PLACEMENT_3D('',#1191,#1192,#1193);
#1195=PLANE('',#1194);
#1196=ORIENTED_EDGE('',*,*,#1073,.F.);
#1197=ORIENTED_EDGE('',*,*,#1186,.F.);
#1198=CARTESIAN_POINT('',(9.175000000000001,1.349999999999998,1.499999999999996));
#1199=DIRECTION('',(-1.0,0.0,0.0));
#1200=VECTOR('',#1199,2.199999999999999);
#1201=LINE('',#1198,#1200);
#1202=EDGE_CURVE('',#940,#1175,#1201,.T.);
#1203=ORIENTED_EDGE('',*,*,#1202,.F.);
#1204=ORIENTED_EDGE('',*,*,#945,.F.);
#1205=EDGE_LOOP('',(#1196,#1197,#1203,#1204));
#1206=FACE_OUTER_BOUND('',#1205,.T.);
#1207=ADVANCED_FACE('',(#1206),#1195,.F.);
#1208=CARTESIAN_POINT('',(9.175000000000001,-1.350000000000002,1.499999999999996));
#1209=DIRECTION('',(0.0,-1.0,0.0));
#1210=DIRECTION('',(0.0,0.0,-1.0));
#1211=AXIS2_PLACEMENT_3D('',#1208,#1209,#1210);
#1212=PLANE('',#1211);
#1213=ORIENTED_EDGE('',*,*,#1059,.F.);
#1214=ORIENTED_EDGE('',*,*,#961,.F.);
#1215=CARTESIAN_POINT('',(6.975000000000001,-1.350000000000002,1.499999999999996));
#1216=DIRECTION('',(1.0,0.0,0.0));
#1217=VECTOR('',#1216,2.199999999999999);
#1218=LINE('',#1215,#1217);
#1219=EDGE_CURVE('',#1167,#948,#1218,.T.);
#1220=ORIENTED_EDGE('',*,*,#1219,.F.);
#1221=ORIENTED_EDGE('',*,*,#1172,.T.);
#1222=EDGE_LOOP('',(#1213,#1214,#1220,#1221));
#1223=FACE_OUTER_BOUND('',#1222,.T.);
#1224=ADVANCED_FACE('',(#1223),#1212,.F.);
#1225=CARTESIAN_POINT('',(8.074999999999999,-1.776357E-015,1.499999999999996));
#1226=DIRECTION('',(0.0,0.0,1.0));
#1227=DIRECTION('',(1.0,0.0,0.0));
#1228=AXIS2_PLACEMENT_3D('',#1225,#1226,#1227);
#1229=PLANE('',#1228);
#1230=ORIENTED_EDGE('',*,*,#1219,.T.);
#1231=ORIENTED_EDGE('',*,*,#953,.F.);
#1232=ORIENTED_EDGE('',*,*,#1202,.T.);
#1233=ORIENTED_EDGE('',*,*,#1180,.T.);
#1234=EDGE_LOOP('',(#1230,#1231,#1232,#1233));
#1235=FACE_OUTER_BOUND('',#1234,.T.);
#1236=ADVANCED_FACE('',(#1235),#1229,.T.);
#1237=CARTESIAN_POINT('',(-9.175000000000001,1.350000000000001,1.500000000000003));
#1238=DIRECTION('',(0.0,1.0,0.0));
#1239=DIRECTION('',(0.0,0.0,1.0));
#1240=AXIS2_PLACEMENT_3D('',#1237,#1238,#1239);
#1241=PLANE('',#1240);
#1242=ORIENTED_EDGE('',*,*,#1011,.F.);
#1243=ORIENTED_EDGE('',*,*,#1135,.F.);
#1244=CARTESIAN_POINT('',(-6.975000000000001,1.350000000000001,1.500000000000003));
#1245=VERTEX_POINT('',#1244);
#1246=CARTESIAN_POINT('',(-6.975000000000001,1.350000000000001,1.500000000000003));
#1247=DIRECTION('',(-1.0,0.0,0.0));
#1248=VECTOR('',#1247,2.199999999999999);
#1249=LINE('',#1246,#1248);
#1250=EDGE_CURVE('',#1245,#1124,#1249,.T.);
#1251=ORIENTED_EDGE('',*,*,#1250,.F.);
#1252=CARTESIAN_POINT('',(-6.975000000000001,1.350000000000001,1.500000000000003));
#1253=DIRECTION('',(0.0,0.0,1.0));
#1254=VECTOR('',#1253,0.800000000000000);
#1255=LINE('',#1252,#1254);
#1256=EDGE_CURVE('',#1245,#1006,#1255,.T.);
#1257=ORIENTED_EDGE('',*,*,#1256,.T.);
#1258=EDGE_LOOP('',(#1242,#1243,#1251,#1257));
#1259=FACE_OUTER_BOUND('',#1258,.T.);
#1260=ADVANCED_FACE('',(#1259),#1241,.F.);
#1261=CARTESIAN_POINT('',(-6.975000000000001,1.350000000000001,1.500000000000003));
#1262=DIRECTION('',(1.0,0.0,0.0));
#1263=DIRECTION('',(0.0,0.0,-1.0));
#1264=AXIS2_PLACEMENT_3D('',#1261,#1262,#1263);
#1265=PLANE('',#1264);
#1266=ORIENTED_EDGE('',*,*,#1019,.F.);
#1267=ORIENTED_EDGE('',*,*,#1256,.F.);
#1268=CARTESIAN_POINT('',(-6.975000000000001,-1.349999999999999,1.500000000000003));
#1269=VERTEX_POINT('',#1268);
#1270=CARTESIAN_POINT('',(-6.975000000000001,-1.349999999999999,1.500000000000003));
#1271=DIRECTION('',(0.0,1.0,0.0));
#1272=VECTOR('',#1271,2.700000000000000);
#1273=LINE('',#1270,#1272);
#1274=EDGE_CURVE('',#1269,#1245,#1273,.T.);
#1275=ORIENTED_EDGE('',*,*,#1274,.F.);
#1276=CARTESIAN_POINT('',(-6.975000000000001,-1.349999999999999,1.500000000000003));
#1277=DIRECTION('',(0.0,0.0,1.0));
#1278=VECTOR('',#1277,0.800000000000000);
#1279=LINE('',#1276,#1278);
#1280=EDGE_CURVE('',#1269,#1014,#1279,.T.);
#1281=ORIENTED_EDGE('',*,*,#1280,.T.);
#1282=EDGE_LOOP('',(#1266,#1267,#1275,#1281));
#1283=FACE_OUTER_BOUND('',#1282,.T.);
#1284=ADVANCED_FACE('',(#1283),#1265,.F.);
#1285=CARTESIAN_POINT('',(-6.975000000000001,-1.349999999999999,1.500000000000003));
#1286=DIRECTION('',(0.0,-1.0,0.0));
#1287=DIRECTION('',(0.0,0.0,-1.0));
#1288=AXIS2_PLACEMENT_3D('',#1285,#1286,#1287);
#1289=PLANE('',#1288);
#1290=ORIENTED_EDGE('',*,*,#1027,.F.);
#1291=ORIENTED_EDGE('',*,*,#1280,.F.);
#1292=CARTESIAN_POINT('',(-9.175000000000001,-1.349999999999999,1.500000000000003));
#1293=DIRECTION('',(1.0,0.0,0.0));
#1294=VECTOR('',#1293,2.199999999999999);
#1295=LINE('',#1292,#1294);
#1296=EDGE_CURVE('',#1116,#1269,#1295,.T.);
#1297=ORIENTED_EDGE('',*,*,#1296,.F.);
#1298=ORIENTED_EDGE('',*,*,#1121,.F.);
#1299=EDGE_LOOP('',(#1290,#1291,#1297,#1298));
#1300=FACE_OUTER_BOUND('',#1299,.T.);
#1301=ADVANCED_FACE('',(#1300),#1289,.F.);
#1302=CARTESIAN_POINT('',(-8.075000000000003,1.776357E-015,1.500000000000003));
#1303=DIRECTION('',(0.0,0.0,1.0));
#1304=DIRECTION('',(1.0,0.0,0.0));
#1305=AXIS2_PLACEMENT_3D('',#1302,#1303,#1304);
#1306=PLANE('',#1305);
#1307=ORIENTED_EDGE('',*,*,#1296,.T.);
#1308=ORIENTED_EDGE('',*,*,#1274,.T.);
#1309=ORIENTED_EDGE('',*,*,#1250,.T.);
#1310=ORIENTED_EDGE('',*,*,#1129,.F.);
#1311=EDGE_LOOP('',(#1307,#1308,#1309,#1310));
#1312=FACE_OUTER_BOUND('',#1311,.T.);
#1313=ADVANCED_FACE('',(#1312),#1306,.T.);
#1314=CLOSED_SHELL('',(#119,#214,#247,#289,#384,#417,#451,#482,#516,#566,#592,#616,#650,#684,#706,#725,#750,#776,#793,#809,#825,#862,#899,#924,#980,#1078,#1090,#1107,#1147,#1159,#1190,#1207,#1224,#1236,#1260,#1284,#1301,#1313));
#1315=MANIFOLD_SOLID_BREP('551',#1314);
#1316=COLOUR_RGB('250',0.330000000000000,0.330000000000000,0.330000000000000);
#1317=SURFACE_STYLE_USAGE(.BOTH.,#1318);
#1318=SURFACE_SIDE_STYLE('NONE',(#1319));
#1319=SURFACE_STYLE_FILL_AREA(#1320);
#1320=FILL_AREA_STYLE('NONE',(#1321));
#1321=FILL_AREA_STYLE_COLOUR('NONE',#1316);
#1322=PRESENTATION_STYLE_ASSIGNMENT((#1317));
#1323=STYLED_ITEM('NONE',(#1322),#1315);
#1324=ADVANCED_BREP_SHAPE_REPRESENTATION('ABSR1',(#1315),#28);
#1325=SHAPE_REPRESENTATION_RELATIONSHIP('SRRPL1','',#1324,#62);
#1326=GEOMETRIC_CURVE_SET('GCS1',(#70));
#1327=GEOMETRICALLY_BOUNDED_WIREFRAME_SHAPE_REPRESENTATION('GBWSR1',(#1326),#28);
#1328=SHAPE_REPRESENTATION_RELATIONSHIP('SRRPL2','',#1327,#62);
ENDSEC;
END-ISO-10303-21;
