ISO-10303-21;
HEADER;
/****************************************************************
 * Generated by software with PDElib inside                    *
 * PDElib Version v51a, created Fri 09/10/2010                  *
 * ITI Transcendata (http://www.transcendata.com/)              *
 ****************************************************************/
FILE_DESCRIPTION((''),'2;1');
FILE_NAME('CRYDOM_CNxxxD.stp','2013-07-11T11:33:56',(''),(''),'Mechanical Desktop 2011','Mechanical Desktop 2011',', , ');
FILE_SCHEMA(('AUTOMOTIVE_DESIGN { 1 2 10303 214 1 1 1 1 }'));
ENDSEC;
DATA;
#10=(NAMED_UNIT(*)PLANE_ANGLE_UNIT()SI_UNIT($,.RADIAN.));
#11=DIMENSIONAL_EXPONENTS(0.0,0.0,0.0,0.0,0.0,0.0,0.0);
#12=PLANE_ANGLE_MEASURE_WITH_UNIT(PLANE_ANGLE_MEASURE(0.0174532925),#10);
#16=(CONVERSION_BASED_UNIT('DEGREE',#12)NAMED_UNIT(#11)PLANE_ANGLE_UNIT());
#20=(NAMED_UNIT(*)SI_UNIT($,.STERADIAN.)SOLID_ANGLE_UNIT());
#24=(LENGTH_UNIT()NAMED_UNIT(*)SI_UNIT(.MILLI.,.METRE.));
#26=UNCERTAINTY_MEASURE_WITH_UNIT(LENGTH_MEASURE(0.000001),#24,'DISTANCE_ACCURACY_VALUE','');
#28=(GEOMETRIC_REPRESENTATION_CONTEXT(3)GLOBAL_UNCERTAINTY_ASSIGNED_CONTEXT((#26))GLOBAL_UNIT_ASSIGNED_CONTEXT((#16,#20,#24))REPRESENTATION_CONTEXT('','3D'));
#29=APPLICATION_CONTEXT('automotive design');
#30=APPLICATION_PROTOCOL_DEFINITION('INTERNATIONAL_STANDARD','automotive_design',1998,#29);
#31=PRODUCT_CONTEXT('3D Mechanical Parts',#29,'mechanical');
#32=PRODUCT('Product','Product','',(#31));
#33=PRODUCT_RELATED_PRODUCT_CATEGORY('part',$,(#32));
#34=PRODUCT_CATEGORY('part',$);
#35=PERSON('1','Design','Joe',$,$,$);
#36=ORGANIZATION($,'None','None');
#37=PERSON_AND_ORGANIZATION(#35,#36);
#38=PERSON_AND_ORGANIZATION_ROLE('design_owner');
#39=APPLIED_PERSON_AND_ORGANIZATION_ASSIGNMENT(#37,#38,(#32));
#40=PRODUCT_DEFINITION_FORMATION_WITH_SPECIFIED_SOURCE('None','',#32,.BOUGHT.);
#41=PERSON('2','Creator','Joe',$,$,$);
#42=ORGANIZATION($,'None','None');
#43=PERSON_AND_ORGANIZATION(#41,#42);
#44=PERSON_AND_ORGANIZATION_ROLE('creator');
#45=APPLIED_PERSON_AND_ORGANIZATION_ASSIGNMENT(#43,#44,(#40));
#46=PERSON('3','Supplier','Joe',$,$,$);
#47=ORGANIZATION($,'None','None');
#48=PERSON_AND_ORGANIZATION(#46,#47);
#49=PERSON_AND_ORGANIZATION_ROLE('design_supplier');
#50=APPLIED_PERSON_AND_ORGANIZATION_ASSIGNMENT(#48,#49,(#40));
#51=PRODUCT_DEFINITION_CONTEXT('part definition',#29,'design');
#52=PRODUCT_DEFINITION('None','',#40,#51);
#53=PERSON('4','Creator','Joe',$,$,$);
#54=ORGANIZATION($,'None','None');
#55=PERSON_AND_ORGANIZATION(#53,#54);
#56=PERSON_AND_ORGANIZATION_ROLE('creator');
#57=APPLIED_PERSON_AND_ORGANIZATION_ASSIGNMENT(#55,#56,(#52));
#58=CARTESIAN_POINT('NONE',(0.0,0.0,0.0));
#59=DIRECTION('NONE',(0.0,0.0,1.0));
#60=DIRECTION('NONE',(1.0,0.0,0.0));
#61=AXIS2_PLACEMENT_3D('NONE',#58,#59,#60);
#62=SHAPE_REPRESENTATION('SR1',(#61),#28);
#63=PRODUCT_DEFINITION_SHAPE('PDS1','Test Part',#52);
#64=SHAPE_DEFINITION_REPRESENTATION(#63,#62);
#65=CARTESIAN_POINT('',(11.557000000000002,1.337920000000005,0.508));
#66=DIRECTION('',(-1.0,0.0,0.0));
#67=DIRECTION('',(0.0,0.0,1.0));
#68=AXIS2_PLACEMENT_3D('',#65,#66,#67);
#69=PLANE('',#68);
#70=CARTESIAN_POINT('',(11.557000000000002,1.337920000000005,-3.592));
#71=VERTEX_POINT('',#70);
#72=CARTESIAN_POINT('',(11.557000000000002,0.937920000000004,-3.592));
#73=VERTEX_POINT('',#72);
#74=CARTESIAN_POINT('',(11.557000000000002,1.337920000000005,-3.592));
#75=DIRECTION('',(0.0,-1.0,0.0));
#76=VECTOR('',#75,0.4);
#77=LINE('',#74,#76);
#78=EDGE_CURVE('',#71,#73,#77,.T.);
#79=ORIENTED_EDGE('',*,*,#78,.T.);
#80=CARTESIAN_POINT('',(11.557000000000002,0.937920000000004,0.508));
#81=VERTEX_POINT('',#80);
#82=CARTESIAN_POINT('',(11.557000000000002,0.937920000000004,0.508));
#83=DIRECTION('',(0.0,0.0,-1.0));
#84=VECTOR('',#83,4.1);
#85=LINE('',#82,#84);
#86=EDGE_CURVE('',#81,#73,#85,.T.);
#87=ORIENTED_EDGE('',*,*,#86,.F.);
#88=CARTESIAN_POINT('',(11.557000000000002,1.337920000000005,0.508));
#89=VERTEX_POINT('',#88);
#90=CARTESIAN_POINT('',(11.557000000000002,0.937920000000004,0.508));
#91=DIRECTION('',(0.0,1.0,0.0));
#92=VECTOR('',#91,0.4);
#93=LINE('',#90,#92);
#94=EDGE_CURVE('',#81,#89,#93,.T.);
#95=ORIENTED_EDGE('',*,*,#94,.T.);
#96=CARTESIAN_POINT('',(11.557000000000002,1.337920000000005,0.508));
#97=DIRECTION('',(0.0,0.0,-1.0));
#98=VECTOR('',#97,4.1);
#99=LINE('',#96,#98);
#100=EDGE_CURVE('',#89,#71,#99,.T.);
#101=ORIENTED_EDGE('',*,*,#100,.T.);
#102=EDGE_LOOP('',(#79,#87,#95,#101));
#103=FACE_OUTER_BOUND('',#102,.T.);
#104=ADVANCED_FACE('',(#103),#69,.T.);
#105=CARTESIAN_POINT('',(11.557000000000002,0.937920000000004,0.508));
#106=DIRECTION('',(0.0,-1.0,0.0));
#107=DIRECTION('',(0.0,0.0,-1.0));
#108=AXIS2_PLACEMENT_3D('',#105,#106,#107);
#109=PLANE('',#108);
#110=CARTESIAN_POINT('',(12.573,0.937920000000004,-3.592));
#111=VERTEX_POINT('',#110);
#112=CARTESIAN_POINT('',(11.557000000000002,0.937920000000004,-3.592));
#113=DIRECTION('',(1.0,0.0,0.0));
#114=VECTOR('',#113,1.015999999999998);
#115=LINE('',#112,#114);
#116=EDGE_CURVE('',#73,#111,#115,.T.);
#117=ORIENTED_EDGE('',*,*,#116,.T.);
#118=CARTESIAN_POINT('',(12.573,0.937920000000004,0.508));
#119=VERTEX_POINT('',#118);
#120=CARTESIAN_POINT('',(12.573,0.937920000000004,0.508));
#121=DIRECTION('',(0.0,0.0,-1.0));
#122=VECTOR('',#121,4.1);
#123=LINE('',#120,#122);
#124=EDGE_CURVE('',#119,#111,#123,.T.);
#125=ORIENTED_EDGE('',*,*,#124,.F.);
#126=CARTESIAN_POINT('',(12.573,0.937920000000004,0.508));
#127=DIRECTION('',(-1.0,0.0,0.0));
#128=VECTOR('',#127,1.015999999999998);
#129=LINE('',#126,#128);
#130=EDGE_CURVE('',#119,#81,#129,.T.);
#131=ORIENTED_EDGE('',*,*,#130,.T.);
#132=ORIENTED_EDGE('',*,*,#86,.T.);
#133=EDGE_LOOP('',(#117,#125,#131,#132));
#134=FACE_OUTER_BOUND('',#133,.T.);
#135=ADVANCED_FACE('',(#134),#109,.T.);
#136=CARTESIAN_POINT('',(12.573,0.937920000000004,0.508));
#137=DIRECTION('',(1.0,0.0,0.0));
#138=DIRECTION('',(0.0,0.0,-1.0));
#139=AXIS2_PLACEMENT_3D('',#136,#137,#138);
#140=PLANE('',#139);
#141=CARTESIAN_POINT('',(12.573,1.337920000000005,-3.592));
#142=VERTEX_POINT('',#141);
#143=CARTESIAN_POINT('',(12.573,0.937920000000004,-3.592));
#144=DIRECTION('',(0.0,1.0,0.0));
#145=VECTOR('',#144,0.4);
#146=LINE('',#143,#145);
#147=EDGE_CURVE('',#111,#142,#146,.T.);
#148=ORIENTED_EDGE('',*,*,#147,.T.);
#149=CARTESIAN_POINT('',(12.573,1.337920000000005,0.508));
#150=VERTEX_POINT('',#149);
#151=CARTESIAN_POINT('',(12.573,1.337920000000005,-3.592));
#152=DIRECTION('',(0.0,0.0,1.0));
#153=VECTOR('',#152,4.1);
#154=LINE('',#151,#153);
#155=EDGE_CURVE('',#150,#142,#154,.F.);
#156=ORIENTED_EDGE('',*,*,#155,.F.);
#157=CARTESIAN_POINT('',(12.573,1.337920000000005,0.508));
#158=DIRECTION('',(0.0,-1.0,0.0));
#159=VECTOR('',#158,0.4);
#160=LINE('',#157,#159);
#161=EDGE_CURVE('',#150,#119,#160,.T.);
#162=ORIENTED_EDGE('',*,*,#161,.T.);
#163=ORIENTED_EDGE('',*,*,#124,.T.);
#164=EDGE_LOOP('',(#148,#156,#162,#163));
#165=FACE_OUTER_BOUND('',#164,.T.);
#166=ADVANCED_FACE('',(#165),#140,.T.);
#167=CARTESIAN_POINT('',(12.573,1.337920000000005,0.508));
#168=DIRECTION('',(0.0,1.0,0.0));
#169=DIRECTION('',(0.0,0.0,1.0));
#170=AXIS2_PLACEMENT_3D('',#167,#168,#169);
#171=PLANE('',#170);
#172=CARTESIAN_POINT('',(12.573,1.337920000000005,-3.592));
#173=DIRECTION('',(-1.0,0.0,0.0));
#174=VECTOR('',#173,1.015999999999998);
#175=LINE('',#172,#174);
#176=EDGE_CURVE('',#142,#71,#175,.T.);
#177=ORIENTED_EDGE('',*,*,#176,.T.);
#178=ORIENTED_EDGE('',*,*,#100,.F.);
#179=CARTESIAN_POINT('',(11.557000000000002,1.337920000000005,0.508));
#180=DIRECTION('',(1.0,0.0,0.0));
#181=VECTOR('',#180,1.015999999999998);
#182=LINE('',#179,#181);
#183=EDGE_CURVE('',#89,#150,#182,.T.);
#184=ORIENTED_EDGE('',*,*,#183,.T.);
#185=ORIENTED_EDGE('',*,*,#155,.T.);
#186=EDGE_LOOP('',(#177,#178,#184,#185));
#187=FACE_OUTER_BOUND('',#186,.T.);
#188=ADVANCED_FACE('',(#187),#171,.T.);
#189=CARTESIAN_POINT('',(12.065000000000003,1.083920000000005,0.508));
#190=DIRECTION('',(0.0,0.0,1.0));
#191=DIRECTION('',(1.0,0.0,0.0));
#192=AXIS2_PLACEMENT_3D('',#189,#190,#191);
#193=PLANE('',#192);
#194=ORIENTED_EDGE('',*,*,#183,.F.);
#195=ORIENTED_EDGE('',*,*,#94,.F.);
#196=ORIENTED_EDGE('',*,*,#130,.F.);
#197=ORIENTED_EDGE('',*,*,#161,.F.);
#198=EDGE_LOOP('',(#194,#195,#196,#197));
#199=FACE_OUTER_BOUND('',#198,.T.);
#200=ADVANCED_FACE('',(#199),#193,.T.);
#201=CARTESIAN_POINT('',(12.065000000000001,1.083920000000005,-3.592));
#202=DIRECTION('',(0.0,0.0,1.0));
#203=DIRECTION('',(1.0,0.0,0.0));
#204=AXIS2_PLACEMENT_3D('',#201,#202,#203);
#205=PLANE('',#204);
#206=ORIENTED_EDGE('',*,*,#78,.F.);
#207=ORIENTED_EDGE('',*,*,#176,.F.);
#208=ORIENTED_EDGE('',*,*,#147,.F.);
#209=ORIENTED_EDGE('',*,*,#116,.F.);
#210=EDGE_LOOP('',(#206,#207,#208,#209));
#211=FACE_OUTER_BOUND('',#210,.T.);
#212=ADVANCED_FACE('',(#211),#205,.F.);
#213=CLOSED_SHELL('',(#104,#135,#166,#188,#200,#212));
#214=MANIFOLD_SOLID_BREP('22CC',#213);
#215=COLOUR_RGB('254',0.866,0.866,0.866);
#216=SURFACE_STYLE_USAGE(.BOTH.,#217);
#217=SURFACE_SIDE_STYLE('NONE',(#218));
#218=SURFACE_STYLE_FILL_AREA(#219);
#219=FILL_AREA_STYLE('NONE',(#220));
#220=FILL_AREA_STYLE_COLOUR('NONE',#215);
#221=PRESENTATION_STYLE_ASSIGNMENT((#216));
#222=STYLED_ITEM('NONE',(#221),#214);
#223=MECHANICAL_DESIGN_GEOMETRIC_PRESENTATION_REPRESENTATION('NONE',(#222,#375,#526,#677,#1185,#1336,#1487,#1638,#1789),#28);
#224=PRESENTATION_LAYER_ASSIGNMENT('3D','None',(#214,#374,#525,#676,#1177,#1335,#1486,#1637,#1788));
#225=CARTESIAN_POINT('',(6.527800000000004,1.337920000000003,0.508));
#226=DIRECTION('',(-1.0,0.0,0.0));
#227=DIRECTION('',(0.0,0.0,1.0));
#228=AXIS2_PLACEMENT_3D('',#225,#226,#227);
#229=PLANE('',#228);
#230=CARTESIAN_POINT('',(6.527800000000004,1.337920000000003,-3.592));
#231=VERTEX_POINT('',#230);
#232=CARTESIAN_POINT('',(6.527800000000004,0.937920000000003,-3.592));
#233=VERTEX_POINT('',#232);
#234=CARTESIAN_POINT('',(6.527800000000004,1.337920000000003,-3.592));
#235=DIRECTION('',(0.0,-1.0,0.0));
#236=VECTOR('',#235,0.4);
#237=LINE('',#234,#236);
#238=EDGE_CURVE('',#231,#233,#237,.T.);
#239=ORIENTED_EDGE('',*,*,#238,.T.);
#240=CARTESIAN_POINT('',(6.527800000000004,0.937920000000003,0.508));
#241=VERTEX_POINT('',#240);
#242=CARTESIAN_POINT('',(6.527800000000004,0.937920000000003,0.508));
#243=DIRECTION('',(0.0,0.0,-1.0));
#244=VECTOR('',#243,4.1);
#245=LINE('',#242,#244);
#246=EDGE_CURVE('',#241,#233,#245,.T.);
#247=ORIENTED_EDGE('',*,*,#246,.F.);
#248=CARTESIAN_POINT('',(6.527800000000004,1.337920000000003,0.508));
#249=VERTEX_POINT('',#248);
#250=CARTESIAN_POINT('',(6.527800000000004,0.937920000000003,0.508));
#251=DIRECTION('',(0.0,1.0,0.0));
#252=VECTOR('',#251,0.4);
#253=LINE('',#250,#252);
#254=EDGE_CURVE('',#241,#249,#253,.T.);
#255=ORIENTED_EDGE('',*,*,#254,.T.);
#256=CARTESIAN_POINT('',(6.527800000000004,1.337920000000003,0.508));
#257=DIRECTION('',(0.0,0.0,-1.0));
#258=VECTOR('',#257,4.1);
#259=LINE('',#256,#258);
#260=EDGE_CURVE('',#249,#231,#259,.T.);
#261=ORIENTED_EDGE('',*,*,#260,.T.);
#262=EDGE_LOOP('',(#239,#247,#255,#261));
#263=FACE_OUTER_BOUND('',#262,.T.);
#264=ADVANCED_FACE('',(#263),#229,.T.);
#265=CARTESIAN_POINT('',(6.527800000000004,0.937920000000003,0.508));
#266=DIRECTION('',(0.0,-1.0,0.0));
#267=DIRECTION('',(0.0,0.0,-1.0));
#268=AXIS2_PLACEMENT_3D('',#265,#266,#267);
#269=PLANE('',#268);
#270=CARTESIAN_POINT('',(7.543800000000002,0.937920000000003,-3.592));
#271=VERTEX_POINT('',#270);
#272=CARTESIAN_POINT('',(6.527800000000004,0.937920000000003,-3.592));
#273=DIRECTION('',(1.0,0.0,0.0));
#274=VECTOR('',#273,1.015999999999998);
#275=LINE('',#272,#274);
#276=EDGE_CURVE('',#233,#271,#275,.T.);
#277=ORIENTED_EDGE('',*,*,#276,.T.);
#278=CARTESIAN_POINT('',(7.543800000000002,0.937920000000003,0.508));
#279=VERTEX_POINT('',#278);
#280=CARTESIAN_POINT('',(7.543800000000002,0.937920000000003,0.508));
#281=DIRECTION('',(0.0,0.0,-1.0));
#282=VECTOR('',#281,4.1);
#283=LINE('',#280,#282);
#284=EDGE_CURVE('',#279,#271,#283,.T.);
#285=ORIENTED_EDGE('',*,*,#284,.F.);
#286=CARTESIAN_POINT('',(7.543800000000002,0.937920000000003,0.508));
#287=DIRECTION('',(-1.0,0.0,0.0));
#288=VECTOR('',#287,1.015999999999998);
#289=LINE('',#286,#288);
#290=EDGE_CURVE('',#279,#241,#289,.T.);
#291=ORIENTED_EDGE('',*,*,#290,.T.);
#292=ORIENTED_EDGE('',*,*,#246,.T.);
#293=EDGE_LOOP('',(#277,#285,#291,#292));
#294=FACE_OUTER_BOUND('',#293,.T.);
#295=ADVANCED_FACE('',(#294),#269,.T.);
#296=CARTESIAN_POINT('',(7.543800000000002,0.937920000000003,0.508));
#297=DIRECTION('',(1.0,0.0,0.0));
#298=DIRECTION('',(0.0,0.0,-1.0));
#299=AXIS2_PLACEMENT_3D('',#296,#297,#298);
#300=PLANE('',#299);
#301=CARTESIAN_POINT('',(7.543800000000002,1.337920000000003,-3.592));
#302=VERTEX_POINT('',#301);
#303=CARTESIAN_POINT('',(7.543800000000002,0.937920000000003,-3.592));
#304=DIRECTION('',(0.0,1.0,0.0));
#305=VECTOR('',#304,0.4);
#306=LINE('',#303,#305);
#307=EDGE_CURVE('',#271,#302,#306,.T.);
#308=ORIENTED_EDGE('',*,*,#307,.T.);
#309=CARTESIAN_POINT('',(7.543800000000002,1.337920000000003,0.508));
#310=VERTEX_POINT('',#309);
#311=CARTESIAN_POINT('',(7.543800000000002,1.337920000000003,-3.592));
#312=DIRECTION('',(0.0,0.0,1.0));
#313=VECTOR('',#312,4.1);
#314=LINE('',#311,#313);
#315=EDGE_CURVE('',#310,#302,#314,.F.);
#316=ORIENTED_EDGE('',*,*,#315,.F.);
#317=CARTESIAN_POINT('',(7.543800000000002,1.337920000000003,0.508));
#318=DIRECTION('',(0.0,-1.0,0.0));
#319=VECTOR('',#318,0.4);
#320=LINE('',#317,#319);
#321=EDGE_CURVE('',#310,#279,#320,.T.);
#322=ORIENTED_EDGE('',*,*,#321,.T.);
#323=ORIENTED_EDGE('',*,*,#284,.T.);
#324=EDGE_LOOP('',(#308,#316,#322,#323));
#325=FACE_OUTER_BOUND('',#324,.T.);
#326=ADVANCED_FACE('',(#325),#300,.T.);
#327=CARTESIAN_POINT('',(7.543800000000002,1.337920000000003,0.508));
#328=DIRECTION('',(0.0,1.0,0.0));
#329=DIRECTION('',(0.0,0.0,1.0));
#330=AXIS2_PLACEMENT_3D('',#327,#328,#329);
#331=PLANE('',#330);
#332=CARTESIAN_POINT('',(7.543800000000002,1.337920000000003,-3.592));
#333=DIRECTION('',(-1.0,0.0,0.0));
#334=VECTOR('',#333,1.015999999999998);
#335=LINE('',#332,#334);
#336=EDGE_CURVE('',#302,#231,#335,.T.);
#337=ORIENTED_EDGE('',*,*,#336,.T.);
#338=ORIENTED_EDGE('',*,*,#260,.F.);
#339=CARTESIAN_POINT('',(6.527800000000004,1.337920000000003,0.508));
#340=DIRECTION('',(1.0,0.0,0.0));
#341=VECTOR('',#340,1.015999999999998);
#342=LINE('',#339,#341);
#343=EDGE_CURVE('',#249,#310,#342,.T.);
#344=ORIENTED_EDGE('',*,*,#343,.T.);
#345=ORIENTED_EDGE('',*,*,#315,.T.);
#346=EDGE_LOOP('',(#337,#338,#344,#345));
#347=FACE_OUTER_BOUND('',#346,.T.);
#348=ADVANCED_FACE('',(#347),#331,.T.);
#349=CARTESIAN_POINT('',(7.035800000000003,1.083920000000003,0.508));
#350=DIRECTION('',(0.0,0.0,1.0));
#351=DIRECTION('',(1.0,0.0,0.0));
#352=AXIS2_PLACEMENT_3D('',#349,#350,#351);
#353=PLANE('',#352);
#354=ORIENTED_EDGE('',*,*,#343,.F.);
#355=ORIENTED_EDGE('',*,*,#254,.F.);
#356=ORIENTED_EDGE('',*,*,#290,.F.);
#357=ORIENTED_EDGE('',*,*,#321,.F.);
#358=EDGE_LOOP('',(#354,#355,#356,#357));
#359=FACE_OUTER_BOUND('',#358,.T.);
#360=ADVANCED_FACE('',(#359),#353,.T.);
#361=CARTESIAN_POINT('',(7.035800000000003,1.083920000000003,-3.592));
#362=DIRECTION('',(0.0,0.0,1.0));
#363=DIRECTION('',(1.0,0.0,0.0));
#364=AXIS2_PLACEMENT_3D('',#361,#362,#363);
#365=PLANE('',#364);
#366=ORIENTED_EDGE('',*,*,#238,.F.);
#367=ORIENTED_EDGE('',*,*,#336,.F.);
#368=ORIENTED_EDGE('',*,*,#307,.F.);
#369=ORIENTED_EDGE('',*,*,#276,.F.);
#370=EDGE_LOOP('',(#366,#367,#368,#369));
#371=FACE_OUTER_BOUND('',#370,.T.);
#372=ADVANCED_FACE('',(#371),#365,.F.);
#373=CLOSED_SHELL('',(#264,#295,#326,#348,#360,#372));
#374=MANIFOLD_SOLID_BREP('22C8',#373);
#375=STYLED_ITEM('NONE',(#221),#374);
#376=CARTESIAN_POINT('',(-9.601200000000002,1.341920000000001,0.508));
#377=DIRECTION('',(-1.0,0.0,0.0));
#378=DIRECTION('',(0.0,0.0,1.0));
#379=AXIS2_PLACEMENT_3D('',#376,#377,#378);
#380=PLANE('',#379);
#381=CARTESIAN_POINT('',(-9.601200000000002,1.341920000000001,-3.592));
#382=VERTEX_POINT('',#381);
#383=CARTESIAN_POINT('',(-9.601200000000002,0.93392,-3.592));
#384=VERTEX_POINT('',#383);
#385=CARTESIAN_POINT('',(-9.601200000000002,1.341920000000001,-3.592));
#386=DIRECTION('',(0.0,-1.0,0.0));
#387=VECTOR('',#386,0.408);
#388=LINE('',#385,#387);
#389=EDGE_CURVE('',#382,#384,#388,.T.);
#390=ORIENTED_EDGE('',*,*,#389,.T.);
#391=CARTESIAN_POINT('',(-9.601200000000002,0.93392,0.508));
#392=VERTEX_POINT('',#391);
#393=CARTESIAN_POINT('',(-9.601200000000002,0.93392,0.508));
#394=DIRECTION('',(0.0,0.0,-1.0));
#395=VECTOR('',#394,4.1);
#396=LINE('',#393,#395);
#397=EDGE_CURVE('',#392,#384,#396,.T.);
#398=ORIENTED_EDGE('',*,*,#397,.F.);
#399=CARTESIAN_POINT('',(-9.601200000000002,1.341920000000001,0.508));
#400=VERTEX_POINT('',#399);
#401=CARTESIAN_POINT('',(-9.601200000000002,0.93392,0.508));
#402=DIRECTION('',(0.0,1.0,0.0));
#403=VECTOR('',#402,0.408);
#404=LINE('',#401,#403);
#405=EDGE_CURVE('',#392,#400,#404,.T.);
#406=ORIENTED_EDGE('',*,*,#405,.T.);
#407=CARTESIAN_POINT('',(-9.601200000000002,1.341920000000001,0.508));
#408=DIRECTION('',(0.0,0.0,-1.0));
#409=VECTOR('',#408,4.1);
#410=LINE('',#407,#409);
#411=EDGE_CURVE('',#400,#382,#410,.T.);
#412=ORIENTED_EDGE('',*,*,#411,.T.);
#413=EDGE_LOOP('',(#390,#398,#406,#412));
#414=FACE_OUTER_BOUND('',#413,.T.);
#415=ADVANCED_FACE('',(#414),#380,.T.);
#416=CARTESIAN_POINT('',(-9.601200000000002,0.93392,0.508));
#417=DIRECTION('',(0.0,-1.0,0.0));
#418=DIRECTION('',(0.0,0.0,-1.0));
#419=AXIS2_PLACEMENT_3D('',#416,#417,#418);
#420=PLANE('',#419);
#421=CARTESIAN_POINT('',(-9.093200000000003,0.93392,-3.592));
#422=VERTEX_POINT('',#421);
#423=CARTESIAN_POINT('',(-9.601200000000002,0.93392,-3.592));
#424=DIRECTION('',(1.0,0.0,0.0));
#425=VECTOR('',#424,0.507999999999999);
#426=LINE('',#423,#425);
#427=EDGE_CURVE('',#384,#422,#426,.T.);
#428=ORIENTED_EDGE('',*,*,#427,.T.);
#429=CARTESIAN_POINT('',(-9.093200000000003,0.93392,0.508));
#430=VERTEX_POINT('',#429);
#431=CARTESIAN_POINT('',(-9.093200000000003,0.93392,0.508));
#432=DIRECTION('',(0.0,0.0,-1.0));
#433=VECTOR('',#432,4.1);
#434=LINE('',#431,#433);
#435=EDGE_CURVE('',#430,#422,#434,.T.);
#436=ORIENTED_EDGE('',*,*,#435,.F.);
#437=CARTESIAN_POINT('',(-9.093200000000003,0.93392,0.508));
#438=DIRECTION('',(-1.0,0.0,0.0));
#439=VECTOR('',#438,0.507999999999999);
#440=LINE('',#437,#439);
#441=EDGE_CURVE('',#430,#392,#440,.T.);
#442=ORIENTED_EDGE('',*,*,#441,.T.);
#443=ORIENTED_EDGE('',*,*,#397,.T.);
#444=EDGE_LOOP('',(#428,#436,#442,#443));
#445=FACE_OUTER_BOUND('',#444,.T.);
#446=ADVANCED_FACE('',(#445),#420,.T.);
#447=CARTESIAN_POINT('',(-9.093200000000003,0.93392,0.508));
#448=DIRECTION('',(1.0,0.0,0.0));
#449=DIRECTION('',(0.0,0.0,-1.0));
#450=AXIS2_PLACEMENT_3D('',#447,#448,#449);
#451=PLANE('',#450);
#452=CARTESIAN_POINT('',(-9.093200000000003,1.341920000000001,-3.592));
#453=VERTEX_POINT('',#452);
#454=CARTESIAN_POINT('',(-9.093200000000003,0.93392,-3.592));
#455=DIRECTION('',(0.0,1.0,0.0));
#456=VECTOR('',#455,0.408);
#457=LINE('',#454,#456);
#458=EDGE_CURVE('',#422,#453,#457,.T.);
#459=ORIENTED_EDGE('',*,*,#458,.T.);
#460=CARTESIAN_POINT('',(-9.093200000000003,1.341920000000001,0.508));
#461=VERTEX_POINT('',#460);
#462=CARTESIAN_POINT('',(-9.093200000000003,1.341920000000001,-3.592));
#463=DIRECTION('',(0.0,0.0,1.0));
#464=VECTOR('',#463,4.1);
#465=LINE('',#462,#464);
#466=EDGE_CURVE('',#461,#453,#465,.F.);
#467=ORIENTED_EDGE('',*,*,#466,.F.);
#468=CARTESIAN_POINT('',(-9.093200000000003,1.341920000000001,0.508));
#469=DIRECTION('',(0.0,-1.0,0.0));
#470=VECTOR('',#469,0.408);
#471=LINE('',#468,#470);
#472=EDGE_CURVE('',#461,#430,#471,.T.);
#473=ORIENTED_EDGE('',*,*,#472,.T.);
#474=ORIENTED_EDGE('',*,*,#435,.T.);
#475=EDGE_LOOP('',(#459,#467,#473,#474));
#476=FACE_OUTER_BOUND('',#475,.T.);
#477=ADVANCED_FACE('',(#476),#451,.T.);
#478=CARTESIAN_POINT('',(-9.093200000000003,1.341920000000001,0.508));
#479=DIRECTION('',(0.0,1.0,0.0));
#480=DIRECTION('',(0.0,0.0,1.0));
#481=AXIS2_PLACEMENT_3D('',#478,#479,#480);
#482=PLANE('',#481);
#483=CARTESIAN_POINT('',(-9.093200000000003,1.341920000000001,-3.592));
#484=DIRECTION('',(-1.0,0.0,0.0));
#485=VECTOR('',#484,0.507999999999999);
#486=LINE('',#483,#485);
#487=EDGE_CURVE('',#453,#382,#486,.T.);
#488=ORIENTED_EDGE('',*,*,#487,.T.);
#489=ORIENTED_EDGE('',*,*,#411,.F.);
#490=CARTESIAN_POINT('',(-9.601200000000002,1.341920000000001,0.508));
#491=DIRECTION('',(1.0,0.0,0.0));
#492=VECTOR('',#491,0.507999999999999);
#493=LINE('',#490,#492);
#494=EDGE_CURVE('',#400,#461,#493,.T.);
#495=ORIENTED_EDGE('',*,*,#494,.T.);
#496=ORIENTED_EDGE('',*,*,#466,.T.);
#497=EDGE_LOOP('',(#488,#489,#495,#496));
#498=FACE_OUTER_BOUND('',#497,.T.);
#499=ADVANCED_FACE('',(#498),#482,.T.);
#500=CARTESIAN_POINT('',(-9.347200000000003,1.087920000000001,0.508));
#501=DIRECTION('',(0.0,0.0,1.0));
#502=DIRECTION('',(1.0,0.0,0.0));
#503=AXIS2_PLACEMENT_3D('',#500,#501,#502);
#504=PLANE('',#503);
#505=ORIENTED_EDGE('',*,*,#494,.F.);
#506=ORIENTED_EDGE('',*,*,#405,.F.);
#507=ORIENTED_EDGE('',*,*,#441,.F.);
#508=ORIENTED_EDGE('',*,*,#472,.F.);
#509=EDGE_LOOP('',(#505,#506,#507,#508));
#510=FACE_OUTER_BOUND('',#509,.T.);
#511=ADVANCED_FACE('',(#510),#504,.T.);
#512=CARTESIAN_POINT('',(-9.347200000000003,1.087920000000001,-3.592));
#513=DIRECTION('',(0.0,0.0,1.0));
#514=DIRECTION('',(1.0,0.0,0.0));
#515=AXIS2_PLACEMENT_3D('',#512,#513,#514);
#516=PLANE('',#515);
#517=ORIENTED_EDGE('',*,*,#389,.F.);
#518=ORIENTED_EDGE('',*,*,#487,.F.);
#519=ORIENTED_EDGE('',*,*,#458,.F.);
#520=ORIENTED_EDGE('',*,*,#427,.F.);
#521=EDGE_LOOP('',(#517,#518,#519,#520));
#522=FACE_OUTER_BOUND('',#521,.T.);
#523=ADVANCED_FACE('',(#522),#516,.F.);
#524=CLOSED_SHELL('',(#415,#446,#477,#499,#511,#523));
#525=MANIFOLD_SOLID_BREP('22C4',#524);
#526=STYLED_ITEM('NONE',(#221),#525);
#527=CARTESIAN_POINT('',(-13.361670000050806,1.34192,0.508));
#528=DIRECTION('',(-1.0,0.0,0.0));
#529=DIRECTION('',(0.0,0.0,1.0));
#530=AXIS2_PLACEMENT_3D('',#527,#528,#529);
#531=PLANE('',#530);
#532=CARTESIAN_POINT('',(-13.361670000050806,1.34192,-3.592));
#533=VERTEX_POINT('',#532);
#534=CARTESIAN_POINT('',(-13.361670000050806,0.93392,-3.592));
#535=VERTEX_POINT('',#534);
#536=CARTESIAN_POINT('',(-13.361670000050806,1.34192,-3.592));
#537=DIRECTION('',(0.0,-1.0,0.0));
#538=VECTOR('',#537,0.408);
#539=LINE('',#536,#538);
#540=EDGE_CURVE('',#533,#535,#539,.T.);
#541=ORIENTED_EDGE('',*,*,#540,.T.);
#542=CARTESIAN_POINT('',(-13.361670000050806,0.93392,0.508));
#543=VERTEX_POINT('',#542);
#544=CARTESIAN_POINT('',(-13.361670000050806,0.93392,0.508));
#545=DIRECTION('',(0.0,0.0,-1.0));
#546=VECTOR('',#545,4.1);
#547=LINE('',#544,#546);
#548=EDGE_CURVE('',#543,#535,#547,.T.);
#549=ORIENTED_EDGE('',*,*,#548,.F.);
#550=CARTESIAN_POINT('',(-13.361670000050806,1.34192,0.508));
#551=VERTEX_POINT('',#550);
#552=CARTESIAN_POINT('',(-13.361670000050806,0.93392,0.508));
#553=DIRECTION('',(0.0,1.0,0.0));
#554=VECTOR('',#553,0.408);
#555=LINE('',#552,#554);
#556=EDGE_CURVE('',#543,#551,#555,.T.);
#557=ORIENTED_EDGE('',*,*,#556,.T.);
#558=CARTESIAN_POINT('',(-13.361670000050806,1.34192,0.508));
#559=DIRECTION('',(0.0,0.0,-1.0));
#560=VECTOR('',#559,4.1);
#561=LINE('',#558,#560);
#562=EDGE_CURVE('',#551,#533,#561,.T.);
#563=ORIENTED_EDGE('',*,*,#562,.T.);
#564=EDGE_LOOP('',(#541,#549,#557,#563));
#565=FACE_OUTER_BOUND('',#564,.T.);
#566=ADVANCED_FACE('',(#565),#531,.T.);
#567=CARTESIAN_POINT('',(-13.361670000050806,0.93392,0.508));
#568=DIRECTION('',(0.0,-1.0,0.0));
#569=DIRECTION('',(0.0,0.0,-1.0));
#570=AXIS2_PLACEMENT_3D('',#567,#568,#569);
#571=PLANE('',#570);
#572=CARTESIAN_POINT('',(-12.853670000050807,0.93392,-3.592));
#573=VERTEX_POINT('',#572);
#574=CARTESIAN_POINT('',(-13.361670000050806,0.93392,-3.592));
#575=DIRECTION('',(1.0,0.0,0.0));
#576=VECTOR('',#575,0.507999999999999);
#577=LINE('',#574,#576);
#578=EDGE_CURVE('',#535,#573,#577,.T.);
#579=ORIENTED_EDGE('',*,*,#578,.T.);
#580=CARTESIAN_POINT('',(-12.853670000050807,0.93392,0.508));
#581=VERTEX_POINT('',#580);
#582=CARTESIAN_POINT('',(-12.853670000050807,0.93392,0.508));
#583=DIRECTION('',(0.0,0.0,-1.0));
#584=VECTOR('',#583,4.1);
#585=LINE('',#582,#584);
#586=EDGE_CURVE('',#581,#573,#585,.T.);
#587=ORIENTED_EDGE('',*,*,#586,.F.);
#588=CARTESIAN_POINT('',(-12.853670000050807,0.93392,0.508));
#589=DIRECTION('',(-1.0,0.0,0.0));
#590=VECTOR('',#589,0.507999999999999);
#591=LINE('',#588,#590);
#592=EDGE_CURVE('',#581,#543,#591,.T.);
#593=ORIENTED_EDGE('',*,*,#592,.T.);
#594=ORIENTED_EDGE('',*,*,#548,.T.);
#595=EDGE_LOOP('',(#579,#587,#593,#594));
#596=FACE_OUTER_BOUND('',#595,.T.);
#597=ADVANCED_FACE('',(#596),#571,.T.);
#598=CARTESIAN_POINT('',(-12.853670000050807,0.83392,0.508));
#599=DIRECTION('',(1.0,0.0,0.0));
#600=DIRECTION('',(0.0,0.0,-1.0));
#601=AXIS2_PLACEMENT_3D('',#598,#599,#600);
#602=PLANE('',#601);
#603=CARTESIAN_POINT('',(-12.853670000050807,1.34192,-3.592));
#604=VERTEX_POINT('',#603);
#605=CARTESIAN_POINT('',(-12.853670000050807,0.93392,-3.592));
#606=DIRECTION('',(0.0,1.0,0.0));
#607=VECTOR('',#606,0.408);
#608=LINE('',#605,#607);
#609=EDGE_CURVE('',#573,#604,#608,.T.);
#610=ORIENTED_EDGE('',*,*,#609,.T.);
#611=CARTESIAN_POINT('',(-12.853670000050807,1.34192,0.508));
#612=VERTEX_POINT('',#611);
#613=CARTESIAN_POINT('',(-12.853670000050807,1.34192,0.508));
#614=DIRECTION('',(0.0,0.0,-1.0));
#615=VECTOR('',#614,4.1);
#616=LINE('',#613,#615);
#617=EDGE_CURVE('',#612,#604,#616,.T.);
#618=ORIENTED_EDGE('',*,*,#617,.F.);
#619=CARTESIAN_POINT('',(-12.853670000050807,1.34192,0.508));
#620=DIRECTION('',(0.0,-1.0,0.0));
#621=VECTOR('',#620,0.408);
#622=LINE('',#619,#621);
#623=EDGE_CURVE('',#612,#581,#622,.T.);
#624=ORIENTED_EDGE('',*,*,#623,.T.);
#625=ORIENTED_EDGE('',*,*,#586,.T.);
#626=EDGE_LOOP('',(#610,#618,#624,#625));
#627=FACE_OUTER_BOUND('',#626,.T.);
#628=ADVANCED_FACE('',(#627),#602,.T.);
#629=CARTESIAN_POINT('',(-12.853670000050807,1.34192,0.508));
#630=DIRECTION('',(0.0,1.0,0.0));
#631=DIRECTION('',(0.0,0.0,1.0));
#632=AXIS2_PLACEMENT_3D('',#629,#630,#631);
#633=PLANE('',#632);
#634=CARTESIAN_POINT('',(-12.853670000050807,1.34192,-3.592));
#635=DIRECTION('',(-1.0,0.0,0.0));
#636=VECTOR('',#635,0.507999999999999);
#637=LINE('',#634,#636);
#638=EDGE_CURVE('',#604,#533,#637,.T.);
#639=ORIENTED_EDGE('',*,*,#638,.T.);
#640=ORIENTED_EDGE('',*,*,#562,.F.);
#641=CARTESIAN_POINT('',(-13.361670000050806,1.34192,0.508));
#642=DIRECTION('',(1.0,0.0,0.0));
#643=VECTOR('',#642,0.507999999999999);
#644=LINE('',#641,#643);
#645=EDGE_CURVE('',#551,#612,#644,.T.);
#646=ORIENTED_EDGE('',*,*,#645,.T.);
#647=ORIENTED_EDGE('',*,*,#617,.T.);
#648=EDGE_LOOP('',(#639,#640,#646,#647));
#649=FACE_OUTER_BOUND('',#648,.T.);
#650=ADVANCED_FACE('',(#649),#633,.T.);
#651=CARTESIAN_POINT('',(-13.107670000050804,1.08792,0.508));
#652=DIRECTION('',(0.0,0.0,1.0));
#653=DIRECTION('',(1.0,0.0,0.0));
#654=AXIS2_PLACEMENT_3D('',#651,#652,#653);
#655=PLANE('',#654);
#656=ORIENTED_EDGE('',*,*,#645,.F.);
#657=ORIENTED_EDGE('',*,*,#556,.F.);
#658=ORIENTED_EDGE('',*,*,#592,.F.);
#659=ORIENTED_EDGE('',*,*,#623,.F.);
#660=EDGE_LOOP('',(#656,#657,#658,#659));
#661=FACE_OUTER_BOUND('',#660,.T.);
#662=ADVANCED_FACE('',(#661),#655,.T.);
#663=CARTESIAN_POINT('',(-13.107670000050804,1.08792,-3.592));
#664=DIRECTION('',(0.0,0.0,1.0));
#665=DIRECTION('',(1.0,0.0,0.0));
#666=AXIS2_PLACEMENT_3D('',#663,#664,#665);
#667=PLANE('',#666);
#668=ORIENTED_EDGE('',*,*,#540,.F.);
#669=ORIENTED_EDGE('',*,*,#638,.F.);
#670=ORIENTED_EDGE('',*,*,#609,.F.);
#671=ORIENTED_EDGE('',*,*,#578,.F.);
#672=EDGE_LOOP('',(#668,#669,#670,#671));
#673=FACE_OUTER_BOUND('',#672,.T.);
#674=ADVANCED_FACE('',(#673),#667,.F.);
#675=CLOSED_SHELL('',(#566,#597,#628,#650,#662,#674));
#676=MANIFOLD_SOLID_BREP('22C0',#675);
#677=STYLED_ITEM('NONE',(#221),#676);
#678=CARTESIAN_POINT('',(14.093,2.662999999999999,15.358999999999998));
#679=DIRECTION('',(0.577350269189626,0.577350269189626,0.577350269189626));
#680=DIRECTION('',(-0.707106781186548,0.0,0.707106781186548));
#681=AXIS2_PLACEMENT_3D('',#678,#679,#680);
#682=SPHERICAL_SURFACE('',#681,0.127);
#683=CARTESIAN_POINT('',(14.166323484187082,2.736323484187081,15.43232348418708));
#684=VERTEX_POINT('',#683);
#685=CARTESIAN_POINT('',(14.093,2.719796126628495,15.472592253256989));
#686=VERTEX_POINT('',#685);
#687=CARTESIAN_POINT('',(14.093,2.662999999999999,15.358999999999998));
#688=DIRECTION('',(0.408248290463863,-0.816496580927726,0.408248290463863));
#689=DIRECTION('',(-0.707106781186548,0.0,0.707106781186548));
#690=AXIS2_PLACEMENT_3D('',#687,#688,#689);
#691=CIRCLE('',#690,0.126999999999999);
#692=EDGE_CURVE('',#684,#686,#691,.T.);
#693=ORIENTED_EDGE('',*,*,#692,.F.);
#694=CARTESIAN_POINT('',(14.206592253256989,2.719796126628495,15.359));
#695=VERTEX_POINT('',#694);
#696=CARTESIAN_POINT('',(14.093,2.662999999999999,15.358999999999998));
#697=DIRECTION('',(-0.408248290463863,0.816496580927726,-0.408248290463863));
#698=DIRECTION('',(0.707106781186548,0.0,-0.707106781186548));
#699=AXIS2_PLACEMENT_3D('',#696,#697,#698);
#700=CIRCLE('',#699,0.126999999999999);
#701=EDGE_CURVE('',#684,#695,#700,.T.);
#702=ORIENTED_EDGE('',*,*,#701,.T.);
#703=CARTESIAN_POINT('',(14.092999999999998,2.789999999999999,15.359));
#704=VERTEX_POINT('',#703);
#705=CARTESIAN_POINT('',(14.093,2.662999999999999,15.358999999999998));
#706=DIRECTION('',(0.0,0.0,1.0));
#707=DIRECTION('',(0.707106781186555,0.70710678118654,0.0));
#708=AXIS2_PLACEMENT_3D('',#705,#706,#707);
#709=CIRCLE('',#708,0.127);
#710=EDGE_CURVE('',#695,#704,#709,.T.);
#711=ORIENTED_EDGE('',*,*,#710,.T.);
#712=CARTESIAN_POINT('',(14.092999999999998,2.662999999999999,15.359));
#713=DIRECTION('',(1.0,0.0,0.0));
#714=DIRECTION('',(0.0,0.0,1.0));
#715=AXIS2_PLACEMENT_3D('',#712,#713,#714);
#716=CIRCLE('',#715,0.127000000000001);
#717=EDGE_CURVE('',#686,#704,#716,.F.);
#718=ORIENTED_EDGE('',*,*,#717,.F.);
#719=EDGE_LOOP('',(#693,#702,#711,#718));
#720=FACE_OUTER_BOUND('',#719,.T.);
#721=ADVANCED_FACE('',(#720),#682,.T.);
#722=CARTESIAN_POINT('',(14.093,-2.663000000000001,15.358999999999998));
#723=DIRECTION('',(0.577350269189626,0.577350269189626,0.577350269189626));
#724=DIRECTION('',(-0.707106781186548,0.0,0.707106781186548));
#725=AXIS2_PLACEMENT_3D('',#722,#723,#724);
#726=SPHERICAL_SURFACE('',#725,0.127);
#727=CARTESIAN_POINT('',(14.093,-2.790000000000001,15.359));
#728=VERTEX_POINT('',#727);
#729=CARTESIAN_POINT('',(14.220000000000001,-2.663000000000001,15.359));
#730=VERTEX_POINT('',#729);
#731=CARTESIAN_POINT('',(14.093,-2.663000000000001,15.358999999999998));
#732=DIRECTION('',(0.0,0.0,1.0));
#733=DIRECTION('',(0.707106781186555,-0.70710678118654,0.0));
#734=AXIS2_PLACEMENT_3D('',#731,#732,#733);
#735=CIRCLE('',#734,0.127);
#736=EDGE_CURVE('',#728,#730,#735,.T.);
#737=ORIENTED_EDGE('',*,*,#736,.T.);
#738=CARTESIAN_POINT('',(14.093,-2.663000000000001,15.486000000000001));
#739=VERTEX_POINT('',#738);
#740=CARTESIAN_POINT('',(14.093,-2.663000000000001,15.359));
#741=DIRECTION('',(0.0,-1.0,0.0));
#742=DIRECTION('',(0.0,0.0,1.0));
#743=AXIS2_PLACEMENT_3D('',#740,#741,#742);
#744=CIRCLE('',#743,0.127000000000001);
#745=EDGE_CURVE('',#739,#730,#744,.F.);
#746=ORIENTED_EDGE('',*,*,#745,.F.);
#747=CARTESIAN_POINT('',(14.093,-2.663000000000001,15.359));
#748=DIRECTION('',(1.0,0.0,0.0));
#749=DIRECTION('',(0.0,-1.0,0.0));
#750=AXIS2_PLACEMENT_3D('',#747,#748,#749);
#751=CIRCLE('',#750,0.127);
#752=EDGE_CURVE('',#728,#739,#751,.F.);
#753=ORIENTED_EDGE('',*,*,#752,.F.);
#754=EDGE_LOOP('',(#737,#746,#753));
#755=FACE_OUTER_BOUND('',#754,.T.);
#756=ADVANCED_FACE('',(#755),#726,.T.);
#757=CARTESIAN_POINT('',(14.093,2.662999999999999,15.358999999999998));
#758=DIRECTION('',(0.577350269189626,0.577350269189626,0.577350269189626));
#759=DIRECTION('',(-0.707106781186548,0.0,0.707106781186548));
#760=AXIS2_PLACEMENT_3D('',#757,#758,#759);
#761=SPHERICAL_SURFACE('',#760,0.127);
#762=ORIENTED_EDGE('',*,*,#692,.T.);
#763=CARTESIAN_POINT('',(14.092999999999998,2.662999999999999,15.486000000000001));
#764=VERTEX_POINT('',#763);
#765=CARTESIAN_POINT('',(14.092999999999998,2.662999999999999,15.359));
#766=DIRECTION('',(1.0,0.0,0.0));
#767=DIRECTION('',(0.0,0.0,1.0));
#768=AXIS2_PLACEMENT_3D('',#765,#766,#767);
#769=CIRCLE('',#768,0.127000000000001);
#770=EDGE_CURVE('',#764,#686,#769,.F.);
#771=ORIENTED_EDGE('',*,*,#770,.F.);
#772=CARTESIAN_POINT('',(14.220000000000001,2.662999999999999,15.359));
#773=VERTEX_POINT('',#772);
#774=CARTESIAN_POINT('',(14.093,2.662999999999999,15.359));
#775=DIRECTION('',(0.0,1.0,0.0));
#776=DIRECTION('',(0.707106781186548,0.0,0.707106781186548));
#777=AXIS2_PLACEMENT_3D('',#774,#775,#776);
#778=CIRCLE('',#777,0.127);
#779=EDGE_CURVE('',#764,#773,#778,.T.);
#780=ORIENTED_EDGE('',*,*,#779,.T.);
#781=CARTESIAN_POINT('',(14.093,2.662999999999999,15.358999999999998));
#782=DIRECTION('',(0.0,0.0,1.0));
#783=DIRECTION('',(0.707106781186555,0.70710678118654,0.0));
#784=AXIS2_PLACEMENT_3D('',#781,#782,#783);
#785=CIRCLE('',#784,0.127);
#786=EDGE_CURVE('',#773,#695,#785,.T.);
#787=ORIENTED_EDGE('',*,*,#786,.T.);
#788=ORIENTED_EDGE('',*,*,#701,.F.);
#789=EDGE_LOOP('',(#762,#771,#780,#787,#788));
#790=FACE_OUTER_BOUND('',#789,.T.);
#791=ADVANCED_FACE('',(#790),#761,.T.);
#792=CARTESIAN_POINT('',(-14.093,-2.663000000000001,15.358999999999998));
#793=DIRECTION('',(0.577350269189626,0.577350269189626,0.577350269189626));
#794=DIRECTION('',(-0.707106781186548,0.0,0.707106781186548));
#795=AXIS2_PLACEMENT_3D('',#792,#793,#794);
#796=SPHERICAL_SURFACE('',#795,0.127);
#797=CARTESIAN_POINT('',(-14.093,-2.790000000000001,15.358999999999998));
#798=VERTEX_POINT('',#797);
#799=CARTESIAN_POINT('',(-14.093,-2.663000000000001,15.486000000000001));
#800=VERTEX_POINT('',#799);
#801=CARTESIAN_POINT('',(-14.093000000000002,-2.663000000000001,15.359));
#802=DIRECTION('',(-1.0,-1.398706E-014,1.398706E-014));
#803=DIRECTION('',(1.978069E-014,-0.70710678118655,0.707106781186545));
#804=AXIS2_PLACEMENT_3D('',#801,#802,#803);
#805=CIRCLE('',#804,0.127);
#806=EDGE_CURVE('',#798,#800,#805,.T.);
#807=ORIENTED_EDGE('',*,*,#806,.T.);
#808=CARTESIAN_POINT('',(-14.219999999999999,-2.663000000000001,15.359));
#809=VERTEX_POINT('',#808);
#810=CARTESIAN_POINT('',(-14.093,-2.663000000000001,15.359));
#811=DIRECTION('',(0.0,-1.0,0.0));
#812=DIRECTION('',(-1.0,0.0,0.0));
#813=AXIS2_PLACEMENT_3D('',#810,#811,#812);
#814=CIRCLE('',#813,0.126999999999999);
#815=EDGE_CURVE('',#809,#800,#814,.F.);
#816=ORIENTED_EDGE('',*,*,#815,.F.);
#817=CARTESIAN_POINT('',(-14.093,-2.663000000000001,15.358999999999998));
#818=DIRECTION('',(0.0,0.0,1.0));
#819=DIRECTION('',(-0.707106781186545,-0.70710678118655,0.0));
#820=AXIS2_PLACEMENT_3D('',#817,#818,#819);
#821=CIRCLE('',#820,0.127);
#822=EDGE_CURVE('',#809,#798,#821,.T.);
#823=ORIENTED_EDGE('',*,*,#822,.T.);
#824=EDGE_LOOP('',(#807,#816,#823));
#825=FACE_OUTER_BOUND('',#824,.T.);
#826=ADVANCED_FACE('',(#825),#796,.T.);
#827=CARTESIAN_POINT('',(-14.092999999999996,2.662999999999999,15.358999999999998));
#828=DIRECTION('',(0.577350269189626,0.577350269189626,0.577350269189626));
#829=DIRECTION('',(-0.707106781186548,0.0,0.707106781186548));
#830=AXIS2_PLACEMENT_3D('',#827,#828,#829);
#831=SPHERICAL_SURFACE('',#830,0.127000000000001);
#832=CARTESIAN_POINT('',(-14.092999999999998,2.663,15.486000000000001));
#833=VERTEX_POINT('',#832);
#834=CARTESIAN_POINT('',(-14.092999999999996,2.789999999999999,15.358999999999998));
#835=VERTEX_POINT('',#834);
#836=CARTESIAN_POINT('',(-14.092999999999996,2.662999999999999,15.359));
#837=DIRECTION('',(-1.0,0.0,0.0));
#838=DIRECTION('',(0.0,0.707106781186552,0.707106781186543));
#839=AXIS2_PLACEMENT_3D('',#836,#837,#838);
#840=CIRCLE('',#839,0.127);
#841=EDGE_CURVE('',#833,#835,#840,.T.);
#842=ORIENTED_EDGE('',*,*,#841,.T.);
#843=CARTESIAN_POINT('',(-14.219999999999997,2.662999999999999,15.358999999999998));
#844=VERTEX_POINT('',#843);
#845=CARTESIAN_POINT('',(-14.092999999999996,2.662999999999999,15.358999999999998));
#846=DIRECTION('',(0.0,0.0,1.0));
#847=DIRECTION('',(-1.0,0.0,0.0));
#848=AXIS2_PLACEMENT_3D('',#845,#846,#847);
#849=CIRCLE('',#848,0.127000000000001);
#850=EDGE_CURVE('',#844,#835,#849,.F.);
#851=ORIENTED_EDGE('',*,*,#850,.F.);
#852=CARTESIAN_POINT('',(-14.092999999999998,2.663,15.359));
#853=DIRECTION('',(-3.496765E-015,1.0,3.496765E-015));
#854=DIRECTION('',(-0.707106781186548,-4.945173E-015,0.707106781186548));
#855=AXIS2_PLACEMENT_3D('',#852,#853,#854);
#856=CIRCLE('',#855,0.127);
#857=EDGE_CURVE('',#844,#833,#856,.T.);
#858=ORIENTED_EDGE('',*,*,#857,.T.);
#859=EDGE_LOOP('',(#842,#851,#858));
#860=FACE_OUTER_BOUND('',#859,.T.);
#861=ADVANCED_FACE('',(#860),#831,.T.);
#862=CARTESIAN_POINT('',(-14.092999999999996,2.662999999999999,0.508));
#863=DIRECTION('',(0.0,0.0,1.0));
#864=DIRECTION('',(-0.707106781186555,0.70710678118654,0.0));
#865=AXIS2_PLACEMENT_3D('',#862,#863,#864);
#866=CYLINDRICAL_SURFACE('',#865,0.127);
#867=CARTESIAN_POINT('',(-14.092999999999996,2.789999999999999,0.508));
#868=VERTEX_POINT('',#867);
#869=CARTESIAN_POINT('',(-14.219999999999997,2.662999999999999,0.508));
#870=VERTEX_POINT('',#869);
#871=CARTESIAN_POINT('',(-14.092999999999996,2.662999999999999,0.508));
#872=DIRECTION('',(0.0,0.0,1.0));
#873=DIRECTION('',(-0.707106781186555,0.70710678118654,0.0));
#874=AXIS2_PLACEMENT_3D('',#871,#872,#873);
#875=CIRCLE('',#874,0.127);
#876=EDGE_CURVE('',#868,#870,#875,.T.);
#877=ORIENTED_EDGE('',*,*,#876,.T.);
#878=CARTESIAN_POINT('',(-14.219999999999997,2.662999999999999,0.508));
#879=DIRECTION('',(0.0,0.0,1.0));
#880=VECTOR('',#879,14.850999999999999);
#881=LINE('',#878,#880);
#882=EDGE_CURVE('',#870,#844,#881,.T.);
#883=ORIENTED_EDGE('',*,*,#882,.T.);
#884=ORIENTED_EDGE('',*,*,#850,.T.);
#885=CARTESIAN_POINT('',(-14.092999999999996,2.789999999999999,15.358999999999998));
#886=DIRECTION('',(0.0,0.0,-1.0));
#887=VECTOR('',#886,14.850999999999999);
#888=LINE('',#885,#887);
#889=EDGE_CURVE('',#835,#868,#888,.T.);
#890=ORIENTED_EDGE('',*,*,#889,.T.);
#891=EDGE_LOOP('',(#877,#883,#884,#890));
#892=FACE_OUTER_BOUND('',#891,.T.);
#893=ADVANCED_FACE('',(#892),#866,.T.);
#894=CARTESIAN_POINT('',(-14.093,-1.394999999999997,15.359));
#895=DIRECTION('',(6.366870E-016,1.0,-4.726800E-032));
#896=DIRECTION('',(-0.707106781186548,0.0,0.707106781186548));
#897=AXIS2_PLACEMENT_3D('',#894,#895,#896);
#898=CYLINDRICAL_SURFACE('',#897,0.127);
#899=ORIENTED_EDGE('',*,*,#857,.F.);
#900=CARTESIAN_POINT('',(-14.219999999999997,2.663,15.359));
#901=DIRECTION('',(0.0,-1.0,0.0));
#902=VECTOR('',#901,5.326000000000001);
#903=LINE('',#900,#902);
#904=EDGE_CURVE('',#844,#809,#903,.T.);
#905=ORIENTED_EDGE('',*,*,#904,.T.);
#906=ORIENTED_EDGE('',*,*,#815,.T.);
#907=CARTESIAN_POINT('',(-14.093,-2.663000000000001,15.486000000000001));
#908=DIRECTION('',(0.0,1.0,0.0));
#909=VECTOR('',#908,5.326000000000001);
#910=LINE('',#907,#909);
#911=EDGE_CURVE('',#800,#833,#910,.T.);
#912=ORIENTED_EDGE('',*,*,#911,.T.);
#913=EDGE_LOOP('',(#899,#905,#906,#912));
#914=FACE_OUTER_BOUND('',#913,.T.);
#915=ADVANCED_FACE('',(#914),#898,.T.);
#916=CARTESIAN_POINT('',(-7.109999999999998,2.662999999999999,15.359));
#917=DIRECTION('',(1.0,0.0,-5.822727E-034));
#918=DIRECTION('',(0.0,0.70710678118655,0.707106781186545));
#919=AXIS2_PLACEMENT_3D('',#916,#917,#918);
#920=CYLINDRICAL_SURFACE('',#919,0.127);
#921=ORIENTED_EDGE('',*,*,#770,.T.);
#922=ORIENTED_EDGE('',*,*,#717,.T.);
#923=CARTESIAN_POINT('',(14.092999999999998,2.789999999999999,15.359));
#924=DIRECTION('',(-1.0,0.0,0.0));
#925=VECTOR('',#924,28.185999999999993);
#926=LINE('',#923,#925);
#927=EDGE_CURVE('',#704,#835,#926,.T.);
#928=ORIENTED_EDGE('',*,*,#927,.T.);
#929=ORIENTED_EDGE('',*,*,#841,.F.);
#930=CARTESIAN_POINT('',(-14.092999999999998,2.662999999999999,15.486000000000001));
#931=DIRECTION('',(1.0,0.0,0.0));
#932=VECTOR('',#931,28.185999999999996);
#933=LINE('',#930,#932);
#934=EDGE_CURVE('',#833,#764,#933,.T.);
#935=ORIENTED_EDGE('',*,*,#934,.T.);
#936=EDGE_LOOP('',(#921,#922,#928,#929,#935));
#937=FACE_OUTER_BOUND('',#936,.T.);
#938=ADVANCED_FACE('',(#937),#920,.T.);
#939=CARTESIAN_POINT('',(-14.093,-2.663000000000001,0.508));
#940=DIRECTION('',(0.0,0.0,1.0));
#941=DIRECTION('',(-0.707106781186555,-0.70710678118654,0.0));
#942=AXIS2_PLACEMENT_3D('',#939,#940,#941);
#943=CYLINDRICAL_SURFACE('',#942,0.127);
#944=CARTESIAN_POINT('',(-14.220000000000001,-2.663000000000001,0.508));
#945=VERTEX_POINT('',#944);
#946=CARTESIAN_POINT('',(-14.093000000000002,-2.790000000000001,0.508));
#947=VERTEX_POINT('',#946);
#948=CARTESIAN_POINT('',(-14.093,-2.663000000000001,0.508));
#949=DIRECTION('',(0.0,0.0,1.0));
#950=DIRECTION('',(-0.707106781186555,-0.70710678118654,0.0));
#951=AXIS2_PLACEMENT_3D('',#948,#949,#950);
#952=CIRCLE('',#951,0.127);
#953=EDGE_CURVE('',#945,#947,#952,.T.);
#954=ORIENTED_EDGE('',*,*,#953,.T.);
#955=CARTESIAN_POINT('',(-14.093,-2.790000000000001,0.508));
#956=DIRECTION('',(0.0,0.0,1.0));
#957=VECTOR('',#956,14.850999999999999);
#958=LINE('',#955,#957);
#959=EDGE_CURVE('',#947,#798,#958,.T.);
#960=ORIENTED_EDGE('',*,*,#959,.T.);
#961=ORIENTED_EDGE('',*,*,#822,.F.);
#962=CARTESIAN_POINT('',(-14.220000000000001,-2.663000000000001,15.358999999999998));
#963=DIRECTION('',(0.0,0.0,-1.0));
#964=VECTOR('',#963,14.850999999999999);
#965=LINE('',#962,#964);
#966=EDGE_CURVE('',#809,#945,#965,.T.);
#967=ORIENTED_EDGE('',*,*,#966,.T.);
#968=EDGE_LOOP('',(#954,#960,#961,#967));
#969=FACE_OUTER_BOUND('',#968,.T.);
#970=ADVANCED_FACE('',(#969),#943,.T.);
#971=CARTESIAN_POINT('',(7.110000000000001,-2.663000000000001,15.359));
#972=DIRECTION('',(-1.0,0.0,5.822727E-034));
#973=DIRECTION('',(0.0,-0.70710678118655,0.707106781186545));
#974=AXIS2_PLACEMENT_3D('',#971,#972,#973);
#975=CYLINDRICAL_SURFACE('',#974,0.127);
#976=ORIENTED_EDGE('',*,*,#806,.F.);
#977=CARTESIAN_POINT('',(-14.093000000000002,-2.790000000000001,15.359));
#978=DIRECTION('',(1.0,0.0,0.0));
#979=VECTOR('',#978,28.186);
#980=LINE('',#977,#979);
#981=EDGE_CURVE('',#798,#728,#980,.T.);
#982=ORIENTED_EDGE('',*,*,#981,.T.);
#983=ORIENTED_EDGE('',*,*,#752,.T.);
#984=CARTESIAN_POINT('',(14.093,-2.663000000000001,15.486000000000001));
#985=DIRECTION('',(-1.0,0.0,0.0));
#986=VECTOR('',#985,28.186);
#987=LINE('',#984,#986);
#988=EDGE_CURVE('',#739,#800,#987,.T.);
#989=ORIENTED_EDGE('',*,*,#988,.T.);
#990=EDGE_LOOP('',(#976,#982,#983,#989));
#991=FACE_OUTER_BOUND('',#990,.T.);
#992=ADVANCED_FACE('',(#991),#975,.T.);
#993=CARTESIAN_POINT('',(14.093,2.662999999999999,0.508));
#994=DIRECTION('',(0.0,0.0,1.0));
#995=DIRECTION('',(0.707106781186555,0.70710678118654,0.0));
#996=AXIS2_PLACEMENT_3D('',#993,#994,#995);
#997=CYLINDRICAL_SURFACE('',#996,0.127);
#998=CARTESIAN_POINT('',(14.220000000000001,2.662999999999999,0.508));
#999=VERTEX_POINT('',#998);
#1000=CARTESIAN_POINT('',(14.092999999999998,2.789999999999999,0.508));
#1001=VERTEX_POINT('',#1000);
#1002=CARTESIAN_POINT('',(14.093,2.662999999999999,0.508));
#1003=DIRECTION('',(0.0,0.0,1.0));
#1004=DIRECTION('',(0.707106781186555,0.70710678118654,0.0));
#1005=AXIS2_PLACEMENT_3D('',#1002,#1003,#1004);
#1006=CIRCLE('',#1005,0.127);
#1007=EDGE_CURVE('',#999,#1001,#1006,.T.);
#1008=ORIENTED_EDGE('',*,*,#1007,.T.);
#1009=CARTESIAN_POINT('',(14.093,2.789999999999999,0.508));
#1010=DIRECTION('',(0.0,0.0,1.0));
#1011=VECTOR('',#1010,14.850999999999999);
#1012=LINE('',#1009,#1011);
#1013=EDGE_CURVE('',#1001,#704,#1012,.T.);
#1014=ORIENTED_EDGE('',*,*,#1013,.T.);
#1015=ORIENTED_EDGE('',*,*,#710,.F.);
#1016=ORIENTED_EDGE('',*,*,#786,.F.);
#1017=CARTESIAN_POINT('',(14.220000000000001,2.662999999999999,15.358999999999998));
#1018=DIRECTION('',(0.0,0.0,-1.0));
#1019=VECTOR('',#1018,14.850999999999999);
#1020=LINE('',#1017,#1019);
#1021=EDGE_CURVE('',#773,#999,#1020,.T.);
#1022=ORIENTED_EDGE('',*,*,#1021,.T.);
#1023=EDGE_LOOP('',(#1008,#1014,#1015,#1016,#1022));
#1024=FACE_OUTER_BOUND('',#1023,.T.);
#1025=ADVANCED_FACE('',(#1024),#997,.T.);
#1026=CARTESIAN_POINT('',(14.093,1.394999999999999,15.359));
#1027=DIRECTION('',(0.0,-1.0,4.726800E-032));
#1028=DIRECTION('',(0.707106781186557,0.0,0.707106781186538));
#1029=AXIS2_PLACEMENT_3D('',#1026,#1027,#1028);
#1030=CYLINDRICAL_SURFACE('',#1029,0.127);
#1031=ORIENTED_EDGE('',*,*,#745,.T.);
#1032=CARTESIAN_POINT('',(14.220000000000001,-2.663000000000001,15.359));
#1033=DIRECTION('',(0.0,1.0,0.0));
#1034=VECTOR('',#1033,5.326000000000001);
#1035=LINE('',#1032,#1034);
#1036=EDGE_CURVE('',#730,#773,#1035,.T.);
#1037=ORIENTED_EDGE('',*,*,#1036,.T.);
#1038=ORIENTED_EDGE('',*,*,#779,.F.);
#1039=CARTESIAN_POINT('',(14.093,2.662999999999999,15.486000000000001));
#1040=DIRECTION('',(0.0,-1.0,0.0));
#1041=VECTOR('',#1040,5.326000000000001);
#1042=LINE('',#1039,#1041);
#1043=EDGE_CURVE('',#764,#739,#1042,.T.);
#1044=ORIENTED_EDGE('',*,*,#1043,.T.);
#1045=EDGE_LOOP('',(#1031,#1037,#1038,#1044));
#1046=FACE_OUTER_BOUND('',#1045,.T.);
#1047=ADVANCED_FACE('',(#1046),#1030,.T.);
#1048=CARTESIAN_POINT('',(14.093,-2.663000000000001,0.508));
#1049=DIRECTION('',(0.0,0.0,1.0));
#1050=DIRECTION('',(0.707106781186555,-0.70710678118654,0.0));
#1051=AXIS2_PLACEMENT_3D('',#1048,#1049,#1050);
#1052=CYLINDRICAL_SURFACE('',#1051,0.127);
#1053=CARTESIAN_POINT('',(14.093,-2.790000000000001,0.508));
#1054=VERTEX_POINT('',#1053);
#1055=CARTESIAN_POINT('',(14.220000000000001,-2.663000000000001,0.508));
#1056=VERTEX_POINT('',#1055);
#1057=CARTESIAN_POINT('',(14.093,-2.663000000000001,0.508));
#1058=DIRECTION('',(0.0,0.0,1.0));
#1059=DIRECTION('',(0.707106781186555,-0.70710678118654,0.0));
#1060=AXIS2_PLACEMENT_3D('',#1057,#1058,#1059);
#1061=CIRCLE('',#1060,0.127);
#1062=EDGE_CURVE('',#1054,#1056,#1061,.T.);
#1063=ORIENTED_EDGE('',*,*,#1062,.T.);
#1064=CARTESIAN_POINT('',(14.220000000000001,-2.663000000000001,0.508));
#1065=DIRECTION('',(0.0,0.0,1.0));
#1066=VECTOR('',#1065,14.850999999999999);
#1067=LINE('',#1064,#1066);
#1068=EDGE_CURVE('',#1056,#730,#1067,.T.);
#1069=ORIENTED_EDGE('',*,*,#1068,.T.);
#1070=ORIENTED_EDGE('',*,*,#736,.F.);
#1071=CARTESIAN_POINT('',(14.093,-2.790000000000001,15.358999999999998));
#1072=DIRECTION('',(0.0,0.0,-1.0));
#1073=VECTOR('',#1072,14.850999999999999);
#1074=LINE('',#1071,#1073);
#1075=EDGE_CURVE('',#728,#1054,#1074,.T.);
#1076=ORIENTED_EDGE('',*,*,#1075,.T.);
#1077=EDGE_LOOP('',(#1063,#1069,#1070,#1076));
#1078=FACE_OUTER_BOUND('',#1077,.T.);
#1079=ADVANCED_FACE('',(#1078),#1052,.T.);
#1080=CARTESIAN_POINT('',(-14.220000000000001,-2.790000000000001,0.508));
#1081=DIRECTION('',(-1.0,0.0,0.0));
#1082=DIRECTION('',(0.0,0.0,1.0));
#1083=AXIS2_PLACEMENT_3D('',#1080,#1081,#1082);
#1084=PLANE('',#1083);
#1085=ORIENTED_EDGE('',*,*,#966,.F.);
#1086=ORIENTED_EDGE('',*,*,#904,.F.);
#1087=ORIENTED_EDGE('',*,*,#882,.F.);
#1088=CARTESIAN_POINT('',(-14.220000000000001,-2.663000000000001,0.508));
#1089=DIRECTION('',(0.0,1.0,0.0));
#1090=VECTOR('',#1089,5.326000000000001);
#1091=LINE('',#1088,#1090);
#1092=EDGE_CURVE('',#945,#870,#1091,.T.);
#1093=ORIENTED_EDGE('',*,*,#1092,.F.);
#1094=EDGE_LOOP('',(#1085,#1086,#1087,#1093));
#1095=FACE_OUTER_BOUND('',#1094,.T.);
#1096=ADVANCED_FACE('',(#1095),#1084,.T.);
#1097=CARTESIAN_POINT('',(-14.219999999999997,2.789999999999999,0.508));
#1098=DIRECTION('',(0.0,1.0,0.0));
#1099=DIRECTION('',(0.0,0.0,1.0));
#1100=AXIS2_PLACEMENT_3D('',#1097,#1098,#1099);
#1101=PLANE('',#1100);
#1102=ORIENTED_EDGE('',*,*,#889,.F.);
#1103=ORIENTED_EDGE('',*,*,#927,.F.);
#1104=ORIENTED_EDGE('',*,*,#1013,.F.);
#1105=CARTESIAN_POINT('',(-14.092999999999996,2.789999999999999,0.508));
#1106=DIRECTION('',(1.0,0.0,0.0));
#1107=VECTOR('',#1106,28.185999999999993);
#1108=LINE('',#1105,#1107);
#1109=EDGE_CURVE('',#868,#1001,#1108,.T.);
#1110=ORIENTED_EDGE('',*,*,#1109,.F.);
#1111=EDGE_LOOP('',(#1102,#1103,#1104,#1110));
#1112=FACE_OUTER_BOUND('',#1111,.T.);
#1113=ADVANCED_FACE('',(#1112),#1101,.T.);
#1114=CARTESIAN_POINT('',(1.110223E-015,-7.588393E-016,15.486000000000001));
#1115=DIRECTION('',(0.0,0.0,1.0));
#1116=DIRECTION('',(1.0,0.0,0.0));
#1117=AXIS2_PLACEMENT_3D('',#1114,#1115,#1116);
#1118=PLANE('',#1117);
#1119=ORIENTED_EDGE('',*,*,#911,.F.);
#1120=ORIENTED_EDGE('',*,*,#988,.F.);
#1121=ORIENTED_EDGE('',*,*,#1043,.F.);
#1122=ORIENTED_EDGE('',*,*,#934,.F.);
#1123=EDGE_LOOP('',(#1119,#1120,#1121,#1122));
#1124=FACE_OUTER_BOUND('',#1123,.T.);
#1125=ADVANCED_FACE('',(#1124),#1118,.T.);
#1126=CARTESIAN_POINT('',(14.220000000000001,2.789999999999999,0.508));
#1127=DIRECTION('',(1.0,0.0,0.0));
#1128=DIRECTION('',(0.0,0.0,-1.0));
#1129=AXIS2_PLACEMENT_3D('',#1126,#1127,#1128);
#1130=PLANE('',#1129);
#1131=ORIENTED_EDGE('',*,*,#1068,.F.);
#1132=CARTESIAN_POINT('',(14.220000000000001,2.662999999999999,0.508));
#1133=DIRECTION('',(0.0,-1.0,0.0));
#1134=VECTOR('',#1133,5.326000000000001);
#1135=LINE('',#1132,#1134);
#1136=EDGE_CURVE('',#999,#1056,#1135,.T.);
#1137=ORIENTED_EDGE('',*,*,#1136,.F.);
#1138=ORIENTED_EDGE('',*,*,#1021,.F.);
#1139=ORIENTED_EDGE('',*,*,#1036,.F.);
#1140=EDGE_LOOP('',(#1131,#1137,#1138,#1139));
#1141=FACE_OUTER_BOUND('',#1140,.T.);
#1142=ADVANCED_FACE('',(#1141),#1130,.T.);
#1143=CARTESIAN_POINT('',(14.220000000000001,-2.790000000000001,0.508));
#1144=DIRECTION('',(0.0,-1.0,0.0));
#1145=DIRECTION('',(0.0,0.0,-1.0));
#1146=AXIS2_PLACEMENT_3D('',#1143,#1144,#1145);
#1147=PLANE('',#1146);
#1148=ORIENTED_EDGE('',*,*,#959,.F.);
#1149=CARTESIAN_POINT('',(14.093,-2.790000000000001,0.508));
#1150=DIRECTION('',(-1.0,0.0,0.0));
#1151=VECTOR('',#1150,28.186);
#1152=LINE('',#1149,#1151);
#1153=EDGE_CURVE('',#1054,#947,#1152,.T.);
#1154=ORIENTED_EDGE('',*,*,#1153,.F.);
#1155=ORIENTED_EDGE('',*,*,#1075,.F.);
#1156=ORIENTED_EDGE('',*,*,#981,.F.);
#1157=EDGE_LOOP('',(#1148,#1154,#1155,#1156));
#1158=FACE_OUTER_BOUND('',#1157,.T.);
#1159=ADVANCED_FACE('',(#1158),#1147,.T.);
#1160=CARTESIAN_POINT('',(1.110223E-015,-7.191084E-016,0.508));
#1161=DIRECTION('',(0.0,0.0,1.0));
#1162=DIRECTION('',(1.0,0.0,0.0));
#1163=AXIS2_PLACEMENT_3D('',#1160,#1161,#1162);
#1164=PLANE('',#1163);
#1165=ORIENTED_EDGE('',*,*,#953,.F.);
#1166=ORIENTED_EDGE('',*,*,#1092,.T.);
#1167=ORIENTED_EDGE('',*,*,#876,.F.);
#1168=ORIENTED_EDGE('',*,*,#1109,.T.);
#1169=ORIENTED_EDGE('',*,*,#1007,.F.);
#1170=ORIENTED_EDGE('',*,*,#1136,.T.);
#1171=ORIENTED_EDGE('',*,*,#1062,.F.);
#1172=ORIENTED_EDGE('',*,*,#1153,.T.);
#1173=EDGE_LOOP('',(#1165,#1166,#1167,#1168,#1169,#1170,#1171,#1172));
#1174=FACE_OUTER_BOUND('',#1173,.T.);
#1175=ADVANCED_FACE('',(#1174),#1164,.F.);
#1176=CLOSED_SHELL('',(#721,#756,#791,#826,#861,#893,#915,#938,#970,#992,#1025,#1047,#1079,#1096,#1113,#1125,#1142,#1159,#1175));
#1177=MANIFOLD_SOLID_BREP('22BB',#1176);
#1178=COLOUR_RGB('250',0.33,0.33,0.33);
#1179=SURFACE_STYLE_USAGE(.BOTH.,#1180);
#1180=SURFACE_SIDE_STYLE('NONE',(#1181));
#1181=SURFACE_STYLE_FILL_AREA(#1182);
#1182=FILL_AREA_STYLE('NONE',(#1183));
#1183=FILL_AREA_STYLE_COLOUR('NONE',#1178);
#1184=PRESENTATION_STYLE_ASSIGNMENT((#1179));
#1185=STYLED_ITEM('NONE',(#1184),#1177);
#1186=CARTESIAN_POINT('',(10.151132834599998,-2.224716626072326,2.540003E-009));
#1187=DIRECTION('',(1.0,0.0,0.0));
#1188=DIRECTION('',(0.0,0.0,-1.0));
#1189=AXIS2_PLACEMENT_3D('',#1186,#1187,#1188);
#1190=PLANE('',#1189);
#1191=CARTESIAN_POINT('',(10.151132834599998,-2.282000000000003,0.508));
#1192=VERTEX_POINT('',#1191);
#1193=CARTESIAN_POINT('',(10.151132834599998,-2.790000000000003,0.508000002540003));
#1194=VERTEX_POINT('',#1193);
#1195=CARTESIAN_POINT('',(10.151132834599998,-2.282000000000003,0.508000002540003));
#1196=DIRECTION('',(0.0,-1.0,0.0));
#1197=VECTOR('',#1196,0.508);
#1198=LINE('',#1195,#1197);
#1199=EDGE_CURVE('',#1192,#1194,#1198,.T.);
#1200=ORIENTED_EDGE('',*,*,#1199,.T.);
#1201=CARTESIAN_POINT('',(10.151132834599998,-2.790000000000003,0.0));
#1202=VERTEX_POINT('',#1201);
#1203=CARTESIAN_POINT('',(10.151132834599998,-2.790000000000003,0.508));
#1204=DIRECTION('',(0.0,0.0,-1.0));
#1205=VECTOR('',#1204,0.508);
#1206=LINE('',#1203,#1205);
#1207=EDGE_CURVE('',#1202,#1194,#1206,.F.);
#1208=ORIENTED_EDGE('',*,*,#1207,.F.);
#1209=CARTESIAN_POINT('',(10.151132834599998,-2.282000000000003,0.0));
#1210=VERTEX_POINT('',#1209);
#1211=CARTESIAN_POINT('',(10.151132834599998,-2.282000000000003,2.540003E-009));
#1212=DIRECTION('',(0.0,-1.0,0.0));
#1213=VECTOR('',#1212,0.508);
#1214=LINE('',#1211,#1213);
#1215=EDGE_CURVE('',#1210,#1202,#1214,.T.);
#1216=ORIENTED_EDGE('',*,*,#1215,.F.);
#1217=CARTESIAN_POINT('',(10.151132834599998,-2.282000000000003,0.0));
#1218=DIRECTION('',(0.0,0.0,1.0));
#1219=VECTOR('',#1218,0.508);
#1220=LINE('',#1217,#1219);
#1221=EDGE_CURVE('',#1210,#1192,#1220,.T.);
#1222=ORIENTED_EDGE('',*,*,#1221,.T.);
#1223=EDGE_LOOP('',(#1200,#1208,#1216,#1222));
#1224=FACE_OUTER_BOUND('',#1223,.T.);
#1225=ADVANCED_FACE('',(#1224),#1190,.T.);
#1226=CARTESIAN_POINT('',(10.285437507076985,-2.790000000000003,0.0));
#1227=DIRECTION('',(0.0,-1.0,0.0));
#1228=DIRECTION('',(0.0,0.0,-1.0));
#1229=AXIS2_PLACEMENT_3D('',#1226,#1227,#1228);
#1230=PLANE('',#1229);
#1231=CARTESIAN_POINT('',(8.898867165399999,-2.790000000000003,0.508));
#1232=VERTEX_POINT('',#1231);
#1233=CARTESIAN_POINT('',(10.151132834599998,-2.790000000000003,0.508));
#1234=DIRECTION('',(-1.0,0.0,0.0));
#1235=VECTOR('',#1234,1.2522656692);
#1236=LINE('',#1233,#1235);
#1237=EDGE_CURVE('',#1194,#1232,#1236,.T.);
#1238=ORIENTED_EDGE('',*,*,#1237,.T.);
#1239=CARTESIAN_POINT('',(8.898867165399999,-2.790000000000003,0.0));
#1240=VERTEX_POINT('',#1239);
#1241=CARTESIAN_POINT('',(8.898867165399999,-2.790000000000003,0.0));
#1242=DIRECTION('',(0.0,0.0,1.0));
#1243=VECTOR('',#1242,0.508);
#1244=LINE('',#1241,#1243);
#1245=EDGE_CURVE('',#1240,#1232,#1244,.T.);
#1246=ORIENTED_EDGE('',*,*,#1245,.F.);
#1247=CARTESIAN_POINT('',(10.151132834599998,-2.790000000000003,0.0));
#1248=DIRECTION('',(-1.0,0.0,0.0));
#1249=VECTOR('',#1248,1.2522656692);
#1250=LINE('',#1247,#1249);
#1251=EDGE_CURVE('',#1202,#1240,#1250,.T.);
#1252=ORIENTED_EDGE('',*,*,#1251,.F.);
#1253=ORIENTED_EDGE('',*,*,#1207,.T.);
#1254=EDGE_LOOP('',(#1238,#1246,#1252,#1253));
#1255=FACE_OUTER_BOUND('',#1254,.T.);
#1256=ADVANCED_FACE('',(#1255),#1230,.T.);
#1257=CARTESIAN_POINT('',(8.898867165399999,-2.476499999999998,2.540002E-009));
#1258=DIRECTION('',(-1.0,0.0,0.0));
#1259=DIRECTION('',(0.0,0.0,1.0));
#1260=AXIS2_PLACEMENT_3D('',#1257,#1258,#1259);
#1261=PLANE('',#1260);
#1262=CARTESIAN_POINT('',(8.898867165399999,-2.282000000000003,0.508000002540002));
#1263=VERTEX_POINT('',#1262);
#1264=CARTESIAN_POINT('',(8.898867165399999,-2.790000000000003,0.508000002540002));
#1265=DIRECTION('',(0.0,1.0,0.0));
#1266=VECTOR('',#1265,0.508);
#1267=LINE('',#1264,#1266);
#1268=EDGE_CURVE('',#1232,#1263,#1267,.T.);
#1269=ORIENTED_EDGE('',*,*,#1268,.T.);
#1270=CARTESIAN_POINT('',(8.898867165399999,-2.282000000000003,2.540002E-009));
#1271=VERTEX_POINT('',#1270);
#1272=CARTESIAN_POINT('',(8.898867165399999,-2.282000000000003,0.508000002540002));
#1273=DIRECTION('',(0.0,0.0,-1.0));
#1274=VECTOR('',#1273,0.508);
#1275=LINE('',#1272,#1274);
#1276=EDGE_CURVE('',#1271,#1263,#1275,.F.);
#1277=ORIENTED_EDGE('',*,*,#1276,.F.);
#1278=CARTESIAN_POINT('',(8.898867165399999,-2.790000000000003,2.540002E-009));
#1279=DIRECTION('',(0.0,1.0,0.0));
#1280=VECTOR('',#1279,0.508);
#1281=LINE('',#1278,#1280);
#1282=EDGE_CURVE('',#1240,#1271,#1281,.T.);
#1283=ORIENTED_EDGE('',*,*,#1282,.F.);
#1284=ORIENTED_EDGE('',*,*,#1245,.T.);
#1285=EDGE_LOOP('',(#1269,#1277,#1283,#1284));
#1286=FACE_OUTER_BOUND('',#1285,.T.);
#1287=ADVANCED_FACE('',(#1286),#1261,.T.);
#1288=CARTESIAN_POINT('',(9.015437507076985,-2.282000000000003,0.0));
#1289=DIRECTION('',(0.0,1.0,0.0));
#1290=DIRECTION('',(0.0,0.0,1.0));
#1291=AXIS2_PLACEMENT_3D('',#1288,#1289,#1290);
#1292=PLANE('',#1291);
#1293=CARTESIAN_POINT('',(8.898867165399999,-2.282000000000003,0.508));
#1294=DIRECTION('',(1.0,0.0,0.0));
#1295=VECTOR('',#1294,1.2522656692);
#1296=LINE('',#1293,#1295);
#1297=EDGE_CURVE('',#1263,#1192,#1296,.T.);
#1298=ORIENTED_EDGE('',*,*,#1297,.T.);
#1299=ORIENTED_EDGE('',*,*,#1221,.F.);
#1300=CARTESIAN_POINT('',(8.898867165399999,-2.282000000000003,0.0));
#1301=DIRECTION('',(1.0,0.0,0.0));
#1302=VECTOR('',#1301,1.2522656692);
#1303=LINE('',#1300,#1302);
#1304=EDGE_CURVE('',#1271,#1210,#1303,.T.);
#1305=ORIENTED_EDGE('',*,*,#1304,.F.);
#1306=ORIENTED_EDGE('',*,*,#1276,.T.);
#1307=EDGE_LOOP('',(#1298,#1299,#1305,#1306));
#1308=FACE_OUTER_BOUND('',#1307,.T.);
#1309=ADVANCED_FACE('',(#1308),#1292,.T.);
#1310=CARTESIAN_POINT('',(9.650437507076985,-2.536000000000003,0.508));
#1311=DIRECTION('',(0.0,0.0,1.0));
#1312=DIRECTION('',(1.0,0.0,0.0));
#1313=AXIS2_PLACEMENT_3D('',#1310,#1311,#1312);
#1314=PLANE('',#1313);
#1315=ORIENTED_EDGE('',*,*,#1199,.F.);
#1316=ORIENTED_EDGE('',*,*,#1297,.F.);
#1317=ORIENTED_EDGE('',*,*,#1268,.F.);
#1318=ORIENTED_EDGE('',*,*,#1237,.F.);
#1319=EDGE_LOOP('',(#1315,#1316,#1317,#1318));
#1320=FACE_OUTER_BOUND('',#1319,.T.);
#1321=ADVANCED_FACE('',(#1320),#1314,.T.);
#1322=CARTESIAN_POINT('',(9.650437507076985,-2.536000000000003,0.0));
#1323=DIRECTION('',(0.0,0.0,1.0));
#1324=DIRECTION('',(1.0,0.0,0.0));
#1325=AXIS2_PLACEMENT_3D('',#1322,#1323,#1324);
#1326=PLANE('',#1325);
#1327=ORIENTED_EDGE('',*,*,#1304,.T.);
#1328=ORIENTED_EDGE('',*,*,#1215,.T.);
#1329=ORIENTED_EDGE('',*,*,#1251,.T.);
#1330=ORIENTED_EDGE('',*,*,#1282,.T.);
#1331=EDGE_LOOP('',(#1327,#1328,#1329,#1330));
#1332=FACE_OUTER_BOUND('',#1331,.T.);
#1333=ADVANCED_FACE('',(#1332),#1326,.F.);
#1334=CLOSED_SHELL('',(#1225,#1256,#1287,#1309,#1321,#1333));
#1335=MANIFOLD_SOLID_BREP('22B5',#1334);
#1336=STYLED_ITEM('NONE',(#1184),#1335);
#1337=CARTESIAN_POINT('',(10.151132834599998,2.789999999999999,2.540002E-009));
#1338=DIRECTION('',(1.0,0.0,0.0));
#1339=DIRECTION('',(0.0,0.0,-1.0));
#1340=AXIS2_PLACEMENT_3D('',#1337,#1338,#1339);
#1341=PLANE('',#1340);
#1342=CARTESIAN_POINT('',(10.151132834599998,2.789999999999999,0.508000002540002));
#1343=VERTEX_POINT('',#1342);
#1344=CARTESIAN_POINT('',(10.151132834599998,2.281999999999999,0.508000002540002));
#1345=VERTEX_POINT('',#1344);
#1346=CARTESIAN_POINT('',(10.151132834599998,2.789999999999999,0.508000002540002));
#1347=DIRECTION('',(0.0,-1.0,0.0));
#1348=VECTOR('',#1347,0.508);
#1349=LINE('',#1346,#1348);
#1350=EDGE_CURVE('',#1343,#1345,#1349,.T.);
#1351=ORIENTED_EDGE('',*,*,#1350,.T.);
#1352=CARTESIAN_POINT('',(10.151132834599998,2.281999999999999,2.540002E-009));
#1353=VERTEX_POINT('',#1352);
#1354=CARTESIAN_POINT('',(10.151132834599998,2.281999999999999,2.540002E-009));
#1355=DIRECTION('',(0.0,0.0,1.0));
#1356=VECTOR('',#1355,0.508);
#1357=LINE('',#1354,#1356);
#1358=EDGE_CURVE('',#1353,#1345,#1357,.T.);
#1359=ORIENTED_EDGE('',*,*,#1358,.F.);
#1360=CARTESIAN_POINT('',(10.151132834599998,2.789999999999999,2.540002E-009));
#1361=VERTEX_POINT('',#1360);
#1362=CARTESIAN_POINT('',(10.151132834599998,2.789999999999999,2.540002E-009));
#1363=DIRECTION('',(0.0,-1.0,0.0));
#1364=VECTOR('',#1363,0.508);
#1365=LINE('',#1362,#1364);
#1366=EDGE_CURVE('',#1361,#1353,#1365,.T.);
#1367=ORIENTED_EDGE('',*,*,#1366,.F.);
#1368=CARTESIAN_POINT('',(10.151132834599998,2.789999999999999,2.540002E-009));
#1369=DIRECTION('',(0.0,0.0,1.0));
#1370=VECTOR('',#1369,0.508);
#1371=LINE('',#1368,#1370);
#1372=EDGE_CURVE('',#1361,#1343,#1371,.T.);
#1373=ORIENTED_EDGE('',*,*,#1372,.T.);
#1374=EDGE_LOOP('',(#1351,#1359,#1367,#1373));
#1375=FACE_OUTER_BOUND('',#1374,.T.);
#1376=ADVANCED_FACE('',(#1375),#1341,.T.);
#1377=CARTESIAN_POINT('',(10.285437507076985,2.281999999999999,0.0));
#1378=DIRECTION('',(0.0,-1.0,0.0));
#1379=DIRECTION('',(0.0,0.0,-1.0));
#1380=AXIS2_PLACEMENT_3D('',#1377,#1378,#1379);
#1381=PLANE('',#1380);
#1382=CARTESIAN_POINT('',(8.898867187994251,2.281999999999999,0.508));
#1383=VERTEX_POINT('',#1382);
#1384=CARTESIAN_POINT('',(10.151132834599998,2.281999999999999,0.508));
#1385=DIRECTION('',(-1.0,0.0,0.0));
#1386=VECTOR('',#1385,1.252265646605748);
#1387=LINE('',#1384,#1386);
#1388=EDGE_CURVE('',#1345,#1383,#1387,.T.);
#1389=ORIENTED_EDGE('',*,*,#1388,.T.);
#1390=CARTESIAN_POINT('',(8.898867187994249,2.281999999999999,0.0));
#1391=VERTEX_POINT('',#1390);
#1392=CARTESIAN_POINT('',(8.898867187994249,2.281999999999999,0.0));
#1393=DIRECTION('',(0.0,0.0,1.0));
#1394=VECTOR('',#1393,0.508);
#1395=LINE('',#1392,#1394);
#1396=EDGE_CURVE('',#1391,#1383,#1395,.T.);
#1397=ORIENTED_EDGE('',*,*,#1396,.F.);
#1398=CARTESIAN_POINT('',(10.151132834599998,2.281999999999999,0.0));
#1399=DIRECTION('',(-1.0,0.0,0.0));
#1400=VECTOR('',#1399,1.252265646605748);
#1401=LINE('',#1398,#1400);
#1402=EDGE_CURVE('',#1353,#1391,#1401,.T.);
#1403=ORIENTED_EDGE('',*,*,#1402,.F.);
#1404=ORIENTED_EDGE('',*,*,#1358,.T.);
#1405=EDGE_LOOP('',(#1389,#1397,#1403,#1404));
#1406=FACE_OUTER_BOUND('',#1405,.T.);
#1407=ADVANCED_FACE('',(#1406),#1381,.T.);
#1408=CARTESIAN_POINT('',(8.898867187994251,2.222500005568832,0.0));
#1409=DIRECTION('',(-1.0,0.0,0.0));
#1410=DIRECTION('',(0.0,0.0,1.0));
#1411=AXIS2_PLACEMENT_3D('',#1408,#1409,#1410);
#1412=PLANE('',#1411);
#1413=CARTESIAN_POINT('',(8.898867187994251,2.789999999999999,0.508));
#1414=VERTEX_POINT('',#1413);
#1415=CARTESIAN_POINT('',(8.898867187994251,2.281999999999999,0.508));
#1416=DIRECTION('',(0.0,1.0,0.0));
#1417=VECTOR('',#1416,0.508);
#1418=LINE('',#1415,#1417);
#1419=EDGE_CURVE('',#1383,#1414,#1418,.T.);
#1420=ORIENTED_EDGE('',*,*,#1419,.T.);
#1421=CARTESIAN_POINT('',(8.898867187994251,2.789999999999999,0.0));
#1422=VERTEX_POINT('',#1421);
#1423=CARTESIAN_POINT('',(8.898867187994252,2.789999999999999,0.508));
#1424=DIRECTION('',(0.0,0.0,-1.0));
#1425=VECTOR('',#1424,0.508);
#1426=LINE('',#1423,#1425);
#1427=EDGE_CURVE('',#1422,#1414,#1426,.F.);
#1428=ORIENTED_EDGE('',*,*,#1427,.F.);
#1429=CARTESIAN_POINT('',(8.898867187994251,2.281999999999999,0.0));
#1430=DIRECTION('',(0.0,1.0,0.0));
#1431=VECTOR('',#1430,0.508);
#1432=LINE('',#1429,#1431);
#1433=EDGE_CURVE('',#1391,#1422,#1432,.T.);
#1434=ORIENTED_EDGE('',*,*,#1433,.F.);
#1435=ORIENTED_EDGE('',*,*,#1396,.T.);
#1436=EDGE_LOOP('',(#1420,#1428,#1434,#1435));
#1437=FACE_OUTER_BOUND('',#1436,.T.);
#1438=ADVANCED_FACE('',(#1437),#1412,.T.);
#1439=CARTESIAN_POINT('',(9.015437507076985,2.789999999999999,0.0));
#1440=DIRECTION('',(0.0,1.0,0.0));
#1441=DIRECTION('',(0.0,0.0,1.0));
#1442=AXIS2_PLACEMENT_3D('',#1439,#1440,#1441);
#1443=PLANE('',#1442);
#1444=CARTESIAN_POINT('',(8.898867187994251,2.789999999999999,0.508));
#1445=DIRECTION('',(1.0,0.0,0.0));
#1446=VECTOR('',#1445,1.252265646605748);
#1447=LINE('',#1444,#1446);
#1448=EDGE_CURVE('',#1414,#1343,#1447,.T.);
#1449=ORIENTED_EDGE('',*,*,#1448,.T.);
#1450=ORIENTED_EDGE('',*,*,#1372,.F.);
#1451=CARTESIAN_POINT('',(8.898867187994251,2.789999999999999,0.0));
#1452=DIRECTION('',(1.0,0.0,0.0));
#1453=VECTOR('',#1452,1.252265646605748);
#1454=LINE('',#1451,#1453);
#1455=EDGE_CURVE('',#1422,#1361,#1454,.T.);
#1456=ORIENTED_EDGE('',*,*,#1455,.F.);
#1457=ORIENTED_EDGE('',*,*,#1427,.T.);
#1458=EDGE_LOOP('',(#1449,#1450,#1456,#1457));
#1459=FACE_OUTER_BOUND('',#1458,.T.);
#1460=ADVANCED_FACE('',(#1459),#1443,.T.);
#1461=CARTESIAN_POINT('',(9.650437507076985,2.535999999999999,0.508));
#1462=DIRECTION('',(0.0,0.0,1.0));
#1463=DIRECTION('',(1.0,0.0,0.0));
#1464=AXIS2_PLACEMENT_3D('',#1461,#1462,#1463);
#1465=PLANE('',#1464);
#1466=ORIENTED_EDGE('',*,*,#1350,.F.);
#1467=ORIENTED_EDGE('',*,*,#1448,.F.);
#1468=ORIENTED_EDGE('',*,*,#1419,.F.);
#1469=ORIENTED_EDGE('',*,*,#1388,.F.);
#1470=EDGE_LOOP('',(#1466,#1467,#1468,#1469));
#1471=FACE_OUTER_BOUND('',#1470,.T.);
#1472=ADVANCED_FACE('',(#1471),#1465,.T.);
#1473=CARTESIAN_POINT('',(9.650437507076985,2.535999999999999,0.0));
#1474=DIRECTION('',(0.0,0.0,1.0));
#1475=DIRECTION('',(1.0,0.0,0.0));
#1476=AXIS2_PLACEMENT_3D('',#1473,#1474,#1475);
#1477=PLANE('',#1476);
#1478=ORIENTED_EDGE('',*,*,#1455,.T.);
#1479=ORIENTED_EDGE('',*,*,#1366,.T.);
#1480=ORIENTED_EDGE('',*,*,#1402,.T.);
#1481=ORIENTED_EDGE('',*,*,#1433,.T.);
#1482=EDGE_LOOP('',(#1478,#1479,#1480,#1481));
#1483=FACE_OUTER_BOUND('',#1482,.T.);
#1484=ADVANCED_FACE('',(#1483),#1477,.F.);
#1485=CLOSED_SHELL('',(#1376,#1407,#1438,#1460,#1472,#1484));
#1486=MANIFOLD_SOLID_BREP('22B1',#1485);
#1487=STYLED_ITEM('NONE',(#1184),#1486);
#1488=CARTESIAN_POINT('',(-10.549867165400002,-2.230209910131295,2.539993E-009));
#1489=DIRECTION('',(1.0,0.0,0.0));
#1490=DIRECTION('',(0.0,0.0,-1.0));
#1491=AXIS2_PLACEMENT_3D('',#1488,#1489,#1490);
#1492=PLANE('',#1491);
#1493=CARTESIAN_POINT('',(-10.549867165400002,-2.282000000000003,0.508));
#1494=VERTEX_POINT('',#1493);
#1495=CARTESIAN_POINT('',(-10.549867165400002,-2.790000000000003,0.508000002539993));
#1496=VERTEX_POINT('',#1495);
#1497=CARTESIAN_POINT('',(-10.549867165400002,-2.282000000000003,0.508000002539993));
#1498=DIRECTION('',(0.0,-1.0,0.0));
#1499=VECTOR('',#1498,0.508);
#1500=LINE('',#1497,#1499);
#1501=EDGE_CURVE('',#1494,#1496,#1500,.T.);
#1502=ORIENTED_EDGE('',*,*,#1501,.T.);
#1503=CARTESIAN_POINT('',(-10.549867165400002,-2.790000000000003,0.0));
#1504=VERTEX_POINT('',#1503);
#1505=CARTESIAN_POINT('',(-10.549867165400002,-2.790000000000003,0.508000002539993));
#1506=DIRECTION('',(0.0,0.0,-1.0));
#1507=VECTOR('',#1506,0.508000002539993);
#1508=LINE('',#1505,#1507);
#1509=EDGE_CURVE('',#1504,#1496,#1508,.F.);
#1510=ORIENTED_EDGE('',*,*,#1509,.F.);
#1511=CARTESIAN_POINT('',(-10.549867165400002,-2.282000000000003,0.0));
#1512=VERTEX_POINT('',#1511);
#1513=CARTESIAN_POINT('',(-10.549867165400002,-2.282000000000003,2.539993E-009));
#1514=DIRECTION('',(0.0,-1.0,0.0));
#1515=VECTOR('',#1514,0.508);
#1516=LINE('',#1513,#1515);
#1517=EDGE_CURVE('',#1512,#1504,#1516,.T.);
#1518=ORIENTED_EDGE('',*,*,#1517,.F.);
#1519=CARTESIAN_POINT('',(-10.549867165400002,-2.282000000000003,0.0));
#1520=DIRECTION('',(0.0,0.0,1.0));
#1521=VECTOR('',#1520,0.508);
#1522=LINE('',#1519,#1521);
#1523=EDGE_CURVE('',#1512,#1494,#1522,.T.);
#1524=ORIENTED_EDGE('',*,*,#1523,.T.);
#1525=EDGE_LOOP('',(#1502,#1510,#1518,#1524));
#1526=FACE_OUTER_BOUND('',#1525,.T.);
#1527=ADVANCED_FACE('',(#1526),#1492,.T.);
#1528=CARTESIAN_POINT('',(-10.68818000000001,-2.790000000000003,0.0));
#1529=DIRECTION('',(0.0,-1.0,0.0));
#1530=DIRECTION('',(0.0,0.0,-1.0));
#1531=AXIS2_PLACEMENT_3D('',#1528,#1529,#1530);
#1532=PLANE('',#1531);
#1533=CARTESIAN_POINT('',(-11.802132834600002,-2.790000000000002,0.508000002539993));
#1534=VERTEX_POINT('',#1533);
#1535=CARTESIAN_POINT('',(-10.549867165400002,-2.790000000000003,0.508));
#1536=DIRECTION('',(-1.0,0.0,0.0));
#1537=VECTOR('',#1536,1.2522656692);
#1538=LINE('',#1535,#1537);
#1539=EDGE_CURVE('',#1496,#1534,#1538,.T.);
#1540=ORIENTED_EDGE('',*,*,#1539,.T.);
#1541=CARTESIAN_POINT('',(-11.802132834600002,-2.790000000000002,2.539993E-009));
#1542=VERTEX_POINT('',#1541);
#1543=CARTESIAN_POINT('',(-11.802132834600002,-2.790000000000002,2.539993E-009));
#1544=DIRECTION('',(0.0,0.0,1.0));
#1545=VECTOR('',#1544,0.508);
#1546=LINE('',#1543,#1545);
#1547=EDGE_CURVE('',#1542,#1534,#1546,.T.);
#1548=ORIENTED_EDGE('',*,*,#1547,.F.);
#1549=CARTESIAN_POINT('',(-10.549867165400002,-2.790000000000003,0.0));
#1550=DIRECTION('',(-1.0,0.0,0.0));
#1551=VECTOR('',#1550,1.2522656692);
#1552=LINE('',#1549,#1551);
#1553=EDGE_CURVE('',#1504,#1542,#1552,.T.);
#1554=ORIENTED_EDGE('',*,*,#1553,.F.);
#1555=ORIENTED_EDGE('',*,*,#1509,.T.);
#1556=EDGE_LOOP('',(#1540,#1548,#1554,#1555));
#1557=FACE_OUTER_BOUND('',#1556,.T.);
#1558=ADVANCED_FACE('',(#1557),#1532,.T.);
#1559=CARTESIAN_POINT('',(-11.802132834600002,-2.790000000000002,2.539993E-009));
#1560=DIRECTION('',(-1.0,0.0,0.0));
#1561=DIRECTION('',(0.0,0.0,1.0));
#1562=AXIS2_PLACEMENT_3D('',#1559,#1560,#1561);
#1563=PLANE('',#1562);
#1564=CARTESIAN_POINT('',(-11.802132834600002,-2.282000000000002,0.508000002539993));
#1565=VERTEX_POINT('',#1564);
#1566=CARTESIAN_POINT('',(-11.802132834600002,-2.790000000000002,0.508000002539993));
#1567=DIRECTION('',(0.0,1.0,0.0));
#1568=VECTOR('',#1567,0.508);
#1569=LINE('',#1566,#1568);
#1570=EDGE_CURVE('',#1534,#1565,#1569,.T.);
#1571=ORIENTED_EDGE('',*,*,#1570,.T.);
#1572=CARTESIAN_POINT('',(-11.802132834600002,-2.282000000000002,2.539993E-009));
#1573=VERTEX_POINT('',#1572);
#1574=CARTESIAN_POINT('',(-11.802132834600002,-2.282000000000002,2.539993E-009));
#1575=DIRECTION('',(0.0,0.0,1.0));
#1576=VECTOR('',#1575,0.508);
#1577=LINE('',#1574,#1576);
#1578=EDGE_CURVE('',#1573,#1565,#1577,.T.);
#1579=ORIENTED_EDGE('',*,*,#1578,.F.);
#1580=CARTESIAN_POINT('',(-11.802132834600002,-2.790000000000002,2.539993E-009));
#1581=DIRECTION('',(0.0,1.0,0.0));
#1582=VECTOR('',#1581,0.508);
#1583=LINE('',#1580,#1582);
#1584=EDGE_CURVE('',#1542,#1573,#1583,.T.);
#1585=ORIENTED_EDGE('',*,*,#1584,.F.);
#1586=ORIENTED_EDGE('',*,*,#1547,.T.);
#1587=EDGE_LOOP('',(#1571,#1579,#1585,#1586));
#1588=FACE_OUTER_BOUND('',#1587,.T.);
#1589=ADVANCED_FACE('',(#1588),#1563,.T.);
#1590=CARTESIAN_POINT('',(-11.958180000000009,-2.282000000000003,0.0));
#1591=DIRECTION('',(0.0,1.0,0.0));
#1592=DIRECTION('',(0.0,0.0,1.0));
#1593=AXIS2_PLACEMENT_3D('',#1590,#1591,#1592);
#1594=PLANE('',#1593);
#1595=CARTESIAN_POINT('',(-11.802132834600002,-2.282000000000003,0.508));
#1596=DIRECTION('',(1.0,0.0,0.0));
#1597=VECTOR('',#1596,1.2522656692);
#1598=LINE('',#1595,#1597);
#1599=EDGE_CURVE('',#1565,#1494,#1598,.T.);
#1600=ORIENTED_EDGE('',*,*,#1599,.T.);
#1601=ORIENTED_EDGE('',*,*,#1523,.F.);
#1602=CARTESIAN_POINT('',(-11.802132834600002,-2.282000000000003,0.0));
#1603=DIRECTION('',(1.0,0.0,0.0));
#1604=VECTOR('',#1603,1.2522656692);
#1605=LINE('',#1602,#1604);
#1606=EDGE_CURVE('',#1573,#1512,#1605,.T.);
#1607=ORIENTED_EDGE('',*,*,#1606,.F.);
#1608=ORIENTED_EDGE('',*,*,#1578,.T.);
#1609=EDGE_LOOP('',(#1600,#1601,#1607,#1608));
#1610=FACE_OUTER_BOUND('',#1609,.T.);
#1611=ADVANCED_FACE('',(#1610),#1594,.T.);
#1612=CARTESIAN_POINT('',(-11.32318000000001,-2.536000000000003,0.508));
#1613=DIRECTION('',(0.0,0.0,1.0));
#1614=DIRECTION('',(1.0,0.0,0.0));
#1615=AXIS2_PLACEMENT_3D('',#1612,#1613,#1614);
#1616=PLANE('',#1615);
#1617=ORIENTED_EDGE('',*,*,#1501,.F.);
#1618=ORIENTED_EDGE('',*,*,#1599,.F.);
#1619=ORIENTED_EDGE('',*,*,#1570,.F.);
#1620=ORIENTED_EDGE('',*,*,#1539,.F.);
#1621=EDGE_LOOP('',(#1617,#1618,#1619,#1620));
#1622=FACE_OUTER_BOUND('',#1621,.T.);
#1623=ADVANCED_FACE('',(#1622),#1616,.T.);
#1624=CARTESIAN_POINT('',(-11.323180000000011,-2.536000000000003,0.0));
#1625=DIRECTION('',(0.0,0.0,1.0));
#1626=DIRECTION('',(1.0,0.0,0.0));
#1627=AXIS2_PLACEMENT_3D('',#1624,#1625,#1626);
#1628=PLANE('',#1627);
#1629=ORIENTED_EDGE('',*,*,#1606,.T.);
#1630=ORIENTED_EDGE('',*,*,#1517,.T.);
#1631=ORIENTED_EDGE('',*,*,#1553,.T.);
#1632=ORIENTED_EDGE('',*,*,#1584,.T.);
#1633=EDGE_LOOP('',(#1629,#1630,#1631,#1632));
#1634=FACE_OUTER_BOUND('',#1633,.T.);
#1635=ADVANCED_FACE('',(#1634),#1628,.F.);
#1636=CLOSED_SHELL('',(#1527,#1558,#1589,#1611,#1623,#1635));
#1637=MANIFOLD_SOLID_BREP('22AD',#1636);
#1638=STYLED_ITEM('NONE',(#1184),#1637);
#1639=CARTESIAN_POINT('',(-10.549867165400002,2.789999999999999,2.539993E-009));
#1640=DIRECTION('',(1.0,0.0,0.0));
#1641=DIRECTION('',(0.0,0.0,-1.0));
#1642=AXIS2_PLACEMENT_3D('',#1639,#1640,#1641);
#1643=PLANE('',#1642);
#1644=CARTESIAN_POINT('',(-10.549867165400002,2.789999999999999,0.508000002539993));
#1645=VERTEX_POINT('',#1644);
#1646=CARTESIAN_POINT('',(-10.549867165400002,2.281999999999999,0.508000002539993));
#1647=VERTEX_POINT('',#1646);
#1648=CARTESIAN_POINT('',(-10.549867165400002,2.789999999999999,0.508000002539993));
#1649=DIRECTION('',(0.0,-1.0,0.0));
#1650=VECTOR('',#1649,0.508);
#1651=LINE('',#1648,#1650);
#1652=EDGE_CURVE('',#1645,#1647,#1651,.T.);
#1653=ORIENTED_EDGE('',*,*,#1652,.T.);
#1654=CARTESIAN_POINT('',(-10.549867165400002,2.281999999999999,2.539993E-009));
#1655=VERTEX_POINT('',#1654);
#1656=CARTESIAN_POINT('',(-10.549867165400002,2.281999999999999,2.539993E-009));
#1657=DIRECTION('',(0.0,0.0,1.0));
#1658=VECTOR('',#1657,0.508);
#1659=LINE('',#1656,#1658);
#1660=EDGE_CURVE('',#1655,#1647,#1659,.T.);
#1661=ORIENTED_EDGE('',*,*,#1660,.F.);
#1662=CARTESIAN_POINT('',(-10.549867165400002,2.789999999999999,2.539993E-009));
#1663=VERTEX_POINT('',#1662);
#1664=CARTESIAN_POINT('',(-10.549867165400002,2.789999999999999,2.539993E-009));
#1665=DIRECTION('',(0.0,-1.0,0.0));
#1666=VECTOR('',#1665,0.508);
#1667=LINE('',#1664,#1666);
#1668=EDGE_CURVE('',#1663,#1655,#1667,.T.);
#1669=ORIENTED_EDGE('',*,*,#1668,.F.);
#1670=CARTESIAN_POINT('',(-10.549867165400002,2.789999999999999,2.539993E-009));
#1671=DIRECTION('',(0.0,0.0,1.0));
#1672=VECTOR('',#1671,0.508);
#1673=LINE('',#1670,#1672);
#1674=EDGE_CURVE('',#1663,#1645,#1673,.T.);
#1675=ORIENTED_EDGE('',*,*,#1674,.T.);
#1676=EDGE_LOOP('',(#1653,#1661,#1669,#1675));
#1677=FACE_OUTER_BOUND('',#1676,.T.);
#1678=ADVANCED_FACE('',(#1677),#1643,.T.);
#1679=CARTESIAN_POINT('',(-10.532132826093825,2.281999999999999,1.654361E-023));
#1680=DIRECTION('',(0.0,-1.0,0.0));
#1681=DIRECTION('',(0.0,0.0,-1.0));
#1682=AXIS2_PLACEMENT_3D('',#1679,#1680,#1681);
#1683=PLANE('',#1682);
#1684=CARTESIAN_POINT('',(-11.802132826093825,2.281999999999999,0.508));
#1685=VERTEX_POINT('',#1684);
#1686=CARTESIAN_POINT('',(-10.549867165400002,2.281999999999999,0.508));
#1687=DIRECTION('',(-1.0,0.0,0.0));
#1688=VECTOR('',#1687,1.252265660693823);
#1689=LINE('',#1686,#1688);
#1690=EDGE_CURVE('',#1647,#1685,#1689,.T.);
#1691=ORIENTED_EDGE('',*,*,#1690,.T.);
#1692=CARTESIAN_POINT('',(-11.802132826093825,2.281999999999999,1.654361E-023));
#1693=VERTEX_POINT('',#1692);
#1694=CARTESIAN_POINT('',(-11.802132826093825,2.281999999999999,1.654361E-023));
#1695=DIRECTION('',(0.0,0.0,1.0));
#1696=VECTOR('',#1695,0.508);
#1697=LINE('',#1694,#1696);
#1698=EDGE_CURVE('',#1693,#1685,#1697,.T.);
#1699=ORIENTED_EDGE('',*,*,#1698,.F.);
#1700=CARTESIAN_POINT('',(-10.549867165400002,2.281999999999999,1.654361E-023));
#1701=DIRECTION('',(-1.0,0.0,0.0));
#1702=VECTOR('',#1701,1.252265660693823);
#1703=LINE('',#1700,#1702);
#1704=EDGE_CURVE('',#1655,#1693,#1703,.T.);
#1705=ORIENTED_EDGE('',*,*,#1704,.F.);
#1706=ORIENTED_EDGE('',*,*,#1660,.T.);
#1707=EDGE_LOOP('',(#1691,#1699,#1705,#1706));
#1708=FACE_OUTER_BOUND('',#1707,.T.);
#1709=ADVANCED_FACE('',(#1708),#1683,.T.);
#1710=CARTESIAN_POINT('',(-11.802132826093825,2.281999999999999,1.654361E-023));
#1711=DIRECTION('',(-1.0,0.0,0.0));
#1712=DIRECTION('',(0.0,0.0,1.0));
#1713=AXIS2_PLACEMENT_3D('',#1710,#1711,#1712);
#1714=PLANE('',#1713);
#1715=CARTESIAN_POINT('',(-11.802132826093825,2.789999999999999,0.508));
#1716=VERTEX_POINT('',#1715);
#1717=CARTESIAN_POINT('',(-11.802132826093825,2.281999999999999,0.508));
#1718=DIRECTION('',(0.0,1.0,0.0));
#1719=VECTOR('',#1718,0.508);
#1720=LINE('',#1717,#1719);
#1721=EDGE_CURVE('',#1685,#1716,#1720,.T.);
#1722=ORIENTED_EDGE('',*,*,#1721,.T.);
#1723=CARTESIAN_POINT('',(-11.802132826093825,2.789999999999999,1.654361E-023));
#1724=VERTEX_POINT('',#1723);
#1725=CARTESIAN_POINT('',(-11.802132826093825,2.789999999999999,1.654361E-023));
#1726=DIRECTION('',(0.0,0.0,1.0));
#1727=VECTOR('',#1726,0.508);
#1728=LINE('',#1725,#1727);
#1729=EDGE_CURVE('',#1724,#1716,#1728,.T.);
#1730=ORIENTED_EDGE('',*,*,#1729,.F.);
#1731=CARTESIAN_POINT('',(-11.802132826093825,2.281999999999999,1.654361E-023));
#1732=DIRECTION('',(0.0,1.0,0.0));
#1733=VECTOR('',#1732,0.508);
#1734=LINE('',#1731,#1733);
#1735=EDGE_CURVE('',#1693,#1724,#1734,.T.);
#1736=ORIENTED_EDGE('',*,*,#1735,.F.);
#1737=ORIENTED_EDGE('',*,*,#1698,.T.);
#1738=EDGE_LOOP('',(#1722,#1730,#1736,#1737));
#1739=FACE_OUTER_BOUND('',#1738,.T.);
#1740=ADVANCED_FACE('',(#1739),#1714,.T.);
#1741=CARTESIAN_POINT('',(-11.802132826093825,2.789999999999999,1.654361E-023));
#1742=DIRECTION('',(0.0,1.0,0.0));
#1743=DIRECTION('',(0.0,0.0,1.0));
#1744=AXIS2_PLACEMENT_3D('',#1741,#1742,#1743);
#1745=PLANE('',#1744);
#1746=CARTESIAN_POINT('',(-11.802132826093825,2.789999999999999,0.508));
#1747=DIRECTION('',(1.0,0.0,0.0));
#1748=VECTOR('',#1747,1.252265660693823);
#1749=LINE('',#1746,#1748);
#1750=EDGE_CURVE('',#1716,#1645,#1749,.T.);
#1751=ORIENTED_EDGE('',*,*,#1750,.T.);
#1752=ORIENTED_EDGE('',*,*,#1674,.F.);
#1753=CARTESIAN_POINT('',(-11.802132826093825,2.789999999999999,1.654361E-023));
#1754=DIRECTION('',(1.0,0.0,0.0));
#1755=VECTOR('',#1754,1.252265660693823);
#1756=LINE('',#1753,#1755);
#1757=EDGE_CURVE('',#1724,#1663,#1756,.T.);
#1758=ORIENTED_EDGE('',*,*,#1757,.F.);
#1759=ORIENTED_EDGE('',*,*,#1729,.T.);
#1760=EDGE_LOOP('',(#1751,#1752,#1758,#1759));
#1761=FACE_OUTER_BOUND('',#1760,.T.);
#1762=ADVANCED_FACE('',(#1761),#1745,.T.);
#1763=CARTESIAN_POINT('',(-11.167132826093825,2.535999999999999,0.508));
#1764=DIRECTION('',(0.0,0.0,1.0));
#1765=DIRECTION('',(1.0,0.0,0.0));
#1766=AXIS2_PLACEMENT_3D('',#1763,#1764,#1765);
#1767=PLANE('',#1766);
#1768=ORIENTED_EDGE('',*,*,#1652,.F.);
#1769=ORIENTED_EDGE('',*,*,#1750,.F.);
#1770=ORIENTED_EDGE('',*,*,#1721,.F.);
#1771=ORIENTED_EDGE('',*,*,#1690,.F.);
#1772=EDGE_LOOP('',(#1768,#1769,#1770,#1771));
#1773=FACE_OUTER_BOUND('',#1772,.T.);
#1774=ADVANCED_FACE('',(#1773),#1767,.T.);
#1775=CARTESIAN_POINT('',(-11.167132826093827,2.535999999999999,1.654361E-023));
#1776=DIRECTION('',(0.0,0.0,1.0));
#1777=DIRECTION('',(1.0,0.0,0.0));
#1778=AXIS2_PLACEMENT_3D('',#1775,#1776,#1777);
#1779=PLANE('',#1778);
#1780=ORIENTED_EDGE('',*,*,#1757,.T.);
#1781=ORIENTED_EDGE('',*,*,#1668,.T.);
#1782=ORIENTED_EDGE('',*,*,#1704,.T.);
#1783=ORIENTED_EDGE('',*,*,#1735,.T.);
#1784=EDGE_LOOP('',(#1780,#1781,#1782,#1783));
#1785=FACE_OUTER_BOUND('',#1784,.T.);
#1786=ADVANCED_FACE('',(#1785),#1779,.F.);
#1787=CLOSED_SHELL('',(#1678,#1709,#1740,#1762,#1774,#1786));
#1788=MANIFOLD_SOLID_BREP('22A9',#1787);
#1789=STYLED_ITEM('NONE',(#1184),#1788);
#1790=ADVANCED_BREP_SHAPE_REPRESENTATION('ABSR1',(#214,#374,#525,#676,#1177,#1335,#1486,#1637,#1788),#28);
#1791=SHAPE_REPRESENTATION_RELATIONSHIP('SRRPL1','',#1790,#62);
ENDSEC;
END-ISO-10303-21;
