ISO-10303-21;
HEADER;
/****************************************************************
 * Generated by software with PDElib inside                    *
 * PDElib Version v51a, created Wed 11/30/2011                  *
 * ITI Transcendata (http://www.transcendata.com/)              *
 ****************************************************************/
FILE_DESCRIPTION((''),'2;1');
FILE_NAME('DCDC_TRACO_TSN1.stp','2014-07-18T14:25:28',(''),(''),'Mechanical Desktop 2011','Mechanical Desktop 2011',', , ');
FILE_SCHEMA(('AUTOMOTIVE_DESIGN { 1 2 10303 214 1 1 1 1 }'));
ENDSEC;
DATA;
#10=(NAMED_UNIT(*)PLANE_ANGLE_UNIT()SI_UNIT($,.RADIAN.));
#11=DIMENSIONAL_EXPONENTS(0.0,0.0,0.0,0.0,0.0,0.0,0.0);
#12=PLANE_ANGLE_MEASURE_WITH_UNIT(PLANE_ANGLE_MEASURE(0.0174532925),#10);
#16=(CONVERSION_BASED_UNIT('DEGREE',#12)NAMED_UNIT(#11)PLANE_ANGLE_UNIT());
#20=(NAMED_UNIT(*)SI_UNIT($,.STERADIAN.)SOLID_ANGLE_UNIT());
#24=(LENGTH_UNIT()NAMED_UNIT(*)SI_UNIT(.MILLI.,.METRE.));
#26=UNCERTAINTY_MEASURE_WITH_UNIT(LENGTH_MEASURE(0.000001),#24,'DISTANCE_ACCURACY_VALUE','');
#28=(GEOMETRIC_REPRESENTATION_CONTEXT(3)GLOBAL_UNCERTAINTY_ASSIGNED_CONTEXT((#26))GLOBAL_UNIT_ASSIGNED_CONTEXT((#16,#20,#24))REPRESENTATION_CONTEXT('','3D'));
#29=APPLICATION_CONTEXT('automotive design');
#30=APPLICATION_PROTOCOL_DEFINITION('INTERNATIONAL_STANDARD','automotive_design',1998,#29);
#31=PRODUCT_CONTEXT('3D Mechanical Parts',#29,'mechanical');
#32=PRODUCT('Product','Product','',(#31));
#33=PRODUCT_RELATED_PRODUCT_CATEGORY('part',$,(#32));
#34=PRODUCT_CATEGORY('part',$);
#35=PERSON('1','Design','Joe',$,$,$);
#36=ORGANIZATION($,'None','None');
#37=PERSON_AND_ORGANIZATION(#35,#36);
#38=PERSON_AND_ORGANIZATION_ROLE('design_owner');
#39=APPLIED_PERSON_AND_ORGANIZATION_ASSIGNMENT(#37,#38,(#32));
#40=PRODUCT_DEFINITION_FORMATION_WITH_SPECIFIED_SOURCE('None','',#32,.BOUGHT.);
#41=PERSON('2','Creator','Joe',$,$,$);
#42=ORGANIZATION($,'None','None');
#43=PERSON_AND_ORGANIZATION(#41,#42);
#44=PERSON_AND_ORGANIZATION_ROLE('creator');
#45=APPLIED_PERSON_AND_ORGANIZATION_ASSIGNMENT(#43,#44,(#40));
#46=PERSON('3','Supplier','Joe',$,$,$);
#47=ORGANIZATION($,'None','None');
#48=PERSON_AND_ORGANIZATION(#46,#47);
#49=PERSON_AND_ORGANIZATION_ROLE('design_supplier');
#50=APPLIED_PERSON_AND_ORGANIZATION_ASSIGNMENT(#48,#49,(#40));
#51=PRODUCT_DEFINITION_CONTEXT('part definition',#29,'design');
#52=PRODUCT_DEFINITION('None','',#40,#51);
#53=PERSON('4','Creator','Joe',$,$,$);
#54=ORGANIZATION($,'None','None');
#55=PERSON_AND_ORGANIZATION(#53,#54);
#56=PERSON_AND_ORGANIZATION_ROLE('creator');
#57=APPLIED_PERSON_AND_ORGANIZATION_ASSIGNMENT(#55,#56,(#52));
#58=CARTESIAN_POINT('NONE',(0.0,0.0,0.0));
#59=DIRECTION('NONE',(0.0,0.0,1.0));
#60=DIRECTION('NONE',(1.0,0.0,0.0));
#61=AXIS2_PLACEMENT_3D('NONE',#58,#59,#60);
#62=SHAPE_REPRESENTATION('SR1',(#61),#28);
#63=PRODUCT_DEFINITION_SHAPE('PDS1','Test Part',#52);
#64=SHAPE_DEFINITION_REPRESENTATION(#63,#62);
#65=CARTESIAN_POINT('',(-2.550000000000002,-3.350000000000002,2.000000000000001));
#66=DIRECTION('',(0.0,1.0,0.0));
#67=DIRECTION('',(1.0,0.0,0.0));
#68=AXIS2_PLACEMENT_3D('',#65,#66,#67);
#69=CYLINDRICAL_SURFACE('',#68,0.5);
#70=CARTESIAN_POINT('',(-2.050000000000002,-3.250000000000003,2.000000000000001));
#71=VERTEX_POINT('',#70);
#72=CARTESIAN_POINT('',(-2.050000000000002,-3.350000000000002,2.000000000000001));
#73=VERTEX_POINT('',#72);
#74=CARTESIAN_POINT('',(-2.050000000000002,-3.250000000000003,2.000000000000001));
#75=DIRECTION('',(0.0,-1.0,0.0));
#76=VECTOR('',#75,0.1);
#77=LINE('',#74,#76);
#78=EDGE_CURVE('',#71,#73,#77,.T.);
#79=ORIENTED_EDGE('',*,*,#78,.F.);
#80=CARTESIAN_POINT('',(-3.050000000000002,-3.250000000000003,2.000000000000001));
#81=VERTEX_POINT('',#80);
#82=CARTESIAN_POINT('',(-2.550000000000002,-3.250000000000003,2.000000000000001));
#83=DIRECTION('',(0.0,-1.0,0.0));
#84=DIRECTION('',(1.0,0.0,0.0));
#85=AXIS2_PLACEMENT_3D('',#82,#83,#84);
#86=CIRCLE('',#85,0.5);
#87=EDGE_CURVE('',#71,#81,#86,.T.);
#88=ORIENTED_EDGE('',*,*,#87,.T.);
#89=CARTESIAN_POINT('',(-3.050000000000002,-3.350000000000002,2.000000000000001));
#90=VERTEX_POINT('',#89);
#91=CARTESIAN_POINT('',(-3.050000000000002,-3.250000000000003,2.000000000000001));
#92=DIRECTION('',(0.0,-1.0,0.0));
#93=VECTOR('',#92,0.1);
#94=LINE('',#91,#93);
#95=EDGE_CURVE('',#81,#90,#94,.T.);
#96=ORIENTED_EDGE('',*,*,#95,.T.);
#97=CARTESIAN_POINT('',(-2.550000000000002,-3.350000000000002,2.000000000000001));
#98=DIRECTION('',(0.0,-1.0,0.0));
#99=DIRECTION('',(1.0,0.0,0.0));
#100=AXIS2_PLACEMENT_3D('',#97,#98,#99);
#101=CIRCLE('',#100,0.5);
#102=EDGE_CURVE('',#73,#90,#101,.T.);
#103=ORIENTED_EDGE('',*,*,#102,.F.);
#104=EDGE_LOOP('',(#79,#88,#96,#103));
#105=FACE_OUTER_BOUND('',#104,.T.);
#106=ADVANCED_FACE('',(#105),#69,.T.);
#107=CARTESIAN_POINT('',(-2.550000000000002,-3.350000000000002,2.000000000000001));
#108=DIRECTION('',(0.0,1.0,0.0));
#109=DIRECTION('',(1.0,0.0,0.0));
#110=AXIS2_PLACEMENT_3D('',#107,#108,#109);
#111=CYLINDRICAL_SURFACE('',#110,0.5);
#112=ORIENTED_EDGE('',*,*,#78,.T.);
#113=CARTESIAN_POINT('',(-2.550000000000002,-3.350000000000002,2.000000000000001));
#114=DIRECTION('',(0.0,-1.0,0.0));
#115=DIRECTION('',(1.0,0.0,0.0));
#116=AXIS2_PLACEMENT_3D('',#113,#114,#115);
#117=CIRCLE('',#116,0.5);
#118=EDGE_CURVE('',#90,#73,#117,.T.);
#119=ORIENTED_EDGE('',*,*,#118,.F.);
#120=ORIENTED_EDGE('',*,*,#95,.F.);
#121=CARTESIAN_POINT('',(-2.550000000000002,-3.250000000000003,2.000000000000001));
#122=DIRECTION('',(0.0,-1.0,0.0));
#123=DIRECTION('',(1.0,0.0,0.0));
#124=AXIS2_PLACEMENT_3D('',#121,#122,#123);
#125=CIRCLE('',#124,0.5);
#126=EDGE_CURVE('',#81,#71,#125,.T.);
#127=ORIENTED_EDGE('',*,*,#126,.T.);
#128=EDGE_LOOP('',(#112,#119,#120,#127));
#129=FACE_OUTER_BOUND('',#128,.T.);
#130=ADVANCED_FACE('',(#129),#111,.T.);
#131=CARTESIAN_POINT('',(-2.550000000000002,-3.250000000000003,2.000000000000001));
#132=DIRECTION('',(0.0,-1.0,0.0));
#133=DIRECTION('',(0.0,0.0,-1.0));
#134=AXIS2_PLACEMENT_3D('',#131,#132,#133);
#135=PLANE('',#134);
#136=ORIENTED_EDGE('',*,*,#87,.F.);
#137=ORIENTED_EDGE('',*,*,#126,.F.);
#138=EDGE_LOOP('',(#136,#137));
#139=FACE_OUTER_BOUND('',#138,.T.);
#140=ADVANCED_FACE('',(#139),#135,.F.);
#141=CARTESIAN_POINT('',(-2.550000000000002,-3.350000000000002,2.000000000000001));
#142=DIRECTION('',(0.0,-1.0,0.0));
#143=DIRECTION('',(0.0,0.0,-1.0));
#144=AXIS2_PLACEMENT_3D('',#141,#142,#143);
#145=PLANE('',#144);
#146=ORIENTED_EDGE('',*,*,#102,.T.);
#147=ORIENTED_EDGE('',*,*,#118,.T.);
#148=EDGE_LOOP('',(#146,#147));
#149=FACE_OUTER_BOUND('',#148,.T.);
#150=ADVANCED_FACE('',(#149),#145,.T.);
#151=CLOSED_SHELL('',(#106,#130,#140,#150));
#152=MANIFOLD_SOLID_BREP('1234',#151);
#153=DRAUGHTING_PRE_DEFINED_COLOUR('white');
#154=SURFACE_STYLE_USAGE(.BOTH.,#155);
#155=SURFACE_SIDE_STYLE('NONE',(#156));
#156=SURFACE_STYLE_FILL_AREA(#157);
#157=FILL_AREA_STYLE('NONE',(#158));
#158=FILL_AREA_STYLE_COLOUR('NONE',#153);
#159=PRESENTATION_STYLE_ASSIGNMENT((#154));
#160=STYLED_ITEM('NONE',(#159),#152);
#161=MECHANICAL_DESIGN_GEOMETRIC_PRESENTATION_REPRESENTATION('NONE',(#160,#400,#551,#702,#860,#1011,#1162),#28);
#162=PRESENTATION_LAYER_ASSIGNMENT('3D','None',(#152,#392,#550,#701,#852,#1010,#1161));
#163=CARTESIAN_POINT('',(-2.550000000000002,-3.350000000000002,2.000000000000001));
#164=DIRECTION('',(0.0,1.0,0.0));
#165=DIRECTION('',(1.0,0.0,0.0));
#166=AXIS2_PLACEMENT_3D('',#163,#164,#165);
#167=CYLINDRICAL_SURFACE('',#166,0.5);
#168=CARTESIAN_POINT('',(-2.05,-3.350000000000002,2.000000000000001));
#169=VERTEX_POINT('',#168);
#170=CARTESIAN_POINT('',(-2.050000000000002,-3.250000000000003,2.000000000000001));
#171=VERTEX_POINT('',#170);
#172=CARTESIAN_POINT('',(-2.050000000000002,-3.350000000000002,2.000000000000001));
#173=DIRECTION('',(0.0,1.0,0.0));
#174=VECTOR('',#173,0.1);
#175=LINE('',#172,#174);
#176=EDGE_CURVE('',#169,#171,#175,.T.);
#177=ORIENTED_EDGE('',*,*,#176,.F.);
#178=CARTESIAN_POINT('',(-3.050000000000002,-3.350000000000003,2.000000000000001));
#179=VERTEX_POINT('',#178);
#180=CARTESIAN_POINT('',(-2.55,-3.350000000000003,2.000000000000001));
#181=DIRECTION('',(0.0,1.0,0.0));
#182=DIRECTION('',(1.0,0.0,0.0));
#183=AXIS2_PLACEMENT_3D('',#180,#181,#182);
#184=CIRCLE('',#183,0.5);
#185=EDGE_CURVE('',#179,#169,#184,.T.);
#186=ORIENTED_EDGE('',*,*,#185,.F.);
#187=CARTESIAN_POINT('',(-3.050000000000002,-3.250000000000003,2.000000000000001));
#188=VERTEX_POINT('',#187);
#189=CARTESIAN_POINT('',(-3.050000000000002,-3.350000000000003,2.000000000000001));
#190=DIRECTION('',(0.0,1.0,0.0));
#191=VECTOR('',#190,0.100000000000001);
#192=LINE('',#189,#191);
#193=EDGE_CURVE('',#179,#188,#192,.T.);
#194=ORIENTED_EDGE('',*,*,#193,.T.);
#195=CARTESIAN_POINT('',(-2.550000000000002,-3.250000000000003,2.000000000000001));
#196=DIRECTION('',(0.0,-1.0,0.0));
#197=DIRECTION('',(1.0,0.0,0.0));
#198=AXIS2_PLACEMENT_3D('',#195,#196,#197);
#199=CIRCLE('',#198,0.5);
#200=EDGE_CURVE('',#171,#188,#199,.T.);
#201=ORIENTED_EDGE('',*,*,#200,.F.);
#202=EDGE_LOOP('',(#177,#186,#194,#201));
#203=FACE_OUTER_BOUND('',#202,.T.);
#204=ADVANCED_FACE('',(#203),#167,.F.);
#205=CARTESIAN_POINT('',(-2.550000000000002,-3.350000000000002,2.000000000000001));
#206=DIRECTION('',(0.0,1.0,0.0));
#207=DIRECTION('',(1.0,0.0,0.0));
#208=AXIS2_PLACEMENT_3D('',#205,#206,#207);
#209=CYLINDRICAL_SURFACE('',#208,0.5);
#210=ORIENTED_EDGE('',*,*,#176,.T.);
#211=CARTESIAN_POINT('',(-2.550000000000002,-3.250000000000003,2.000000000000001));
#212=DIRECTION('',(0.0,-1.0,0.0));
#213=DIRECTION('',(1.0,0.0,0.0));
#214=AXIS2_PLACEMENT_3D('',#211,#212,#213);
#215=CIRCLE('',#214,0.5);
#216=EDGE_CURVE('',#188,#171,#215,.T.);
#217=ORIENTED_EDGE('',*,*,#216,.F.);
#218=ORIENTED_EDGE('',*,*,#193,.F.);
#219=CARTESIAN_POINT('',(-2.55,-3.350000000000003,2.000000000000001));
#220=DIRECTION('',(0.0,1.0,0.0));
#221=DIRECTION('',(1.0,0.0,0.0));
#222=AXIS2_PLACEMENT_3D('',#219,#220,#221);
#223=CIRCLE('',#222,0.5);
#224=EDGE_CURVE('',#169,#179,#223,.T.);
#225=ORIENTED_EDGE('',*,*,#224,.F.);
#226=EDGE_LOOP('',(#210,#217,#218,#225));
#227=FACE_OUTER_BOUND('',#226,.T.);
#228=ADVANCED_FACE('',(#227),#209,.F.);
#229=CARTESIAN_POINT('',(-2.550000000000002,-3.250000000000003,2.000000000000001));
#230=DIRECTION('',(0.0,-1.0,0.0));
#231=DIRECTION('',(0.0,0.0,-1.0));
#232=AXIS2_PLACEMENT_3D('',#229,#230,#231);
#233=PLANE('',#232);
#234=ORIENTED_EDGE('',*,*,#200,.T.);
#235=ORIENTED_EDGE('',*,*,#216,.T.);
#236=EDGE_LOOP('',(#234,#235));
#237=FACE_OUTER_BOUND('',#236,.T.);
#238=ADVANCED_FACE('',(#237),#233,.T.);
#239=CARTESIAN_POINT('',(6.1,4.999999999999998,0.5));
#240=DIRECTION('',(1.0,0.0,0.0));
#241=DIRECTION('',(0.0,0.0,-1.0));
#242=AXIS2_PLACEMENT_3D('',#239,#240,#241);
#243=PLANE('',#242);
#244=CARTESIAN_POINT('',(6.100000000000001,4.749999999999997,17.0));
#245=VERTEX_POINT('',#244);
#246=CARTESIAN_POINT('',(6.100000000000001,-3.350000000000003,17.0));
#247=VERTEX_POINT('',#246);
#248=CARTESIAN_POINT('',(6.1,4.749999999999997,17.0));
#249=DIRECTION('',(0.0,-1.0,0.0));
#250=VECTOR('',#249,8.100000000000001);
#251=LINE('',#248,#250);
#252=EDGE_CURVE('',#245,#247,#251,.T.);
#253=ORIENTED_EDGE('',*,*,#252,.T.);
#254=CARTESIAN_POINT('',(6.100000000000001,-3.350000000000003,0.5));
#255=VERTEX_POINT('',#254);
#256=CARTESIAN_POINT('',(6.100000000000001,-3.350000000000003,0.5));
#257=DIRECTION('',(0.0,0.0,1.0));
#258=VECTOR('',#257,16.5);
#259=LINE('',#256,#258);
#260=EDGE_CURVE('',#255,#247,#259,.T.);
#261=ORIENTED_EDGE('',*,*,#260,.F.);
#262=CARTESIAN_POINT('',(6.100000000000001,4.749999999999997,0.5));
#263=VERTEX_POINT('',#262);
#264=CARTESIAN_POINT('',(6.1,4.749999999999997,0.5));
#265=DIRECTION('',(0.0,-1.0,0.0));
#266=VECTOR('',#265,8.100000000000001);
#267=LINE('',#264,#266);
#268=EDGE_CURVE('',#263,#255,#267,.T.);
#269=ORIENTED_EDGE('',*,*,#268,.F.);
#270=CARTESIAN_POINT('',(6.100000000000001,4.749999999999997,0.5));
#271=DIRECTION('',(0.0,0.0,1.0));
#272=VECTOR('',#271,16.5);
#273=LINE('',#270,#272);
#274=EDGE_CURVE('',#263,#245,#273,.T.);
#275=ORIENTED_EDGE('',*,*,#274,.T.);
#276=EDGE_LOOP('',(#253,#261,#269,#275));
#277=FACE_OUTER_BOUND('',#276,.T.);
#278=ADVANCED_FACE('',(#277),#243,.T.);
#279=CARTESIAN_POINT('',(6.100000000000001,-3.350000000000003,0.5));
#280=DIRECTION('',(0.0,-1.0,0.0));
#281=DIRECTION('',(0.0,0.0,-1.0));
#282=AXIS2_PLACEMENT_3D('',#279,#280,#281);
#283=PLANE('',#282);
#284=CARTESIAN_POINT('',(-6.1,-3.350000000000003,17.0));
#285=VERTEX_POINT('',#284);
#286=CARTESIAN_POINT('',(6.100000000000001,-3.350000000000003,17.0));
#287=DIRECTION('',(-1.0,0.0,0.0));
#288=VECTOR('',#287,12.200000000000001);
#289=LINE('',#286,#288);
#290=EDGE_CURVE('',#247,#285,#289,.T.);
#291=ORIENTED_EDGE('',*,*,#290,.T.);
#292=CARTESIAN_POINT('',(-6.1,-3.350000000000003,0.5));
#293=VERTEX_POINT('',#292);
#294=CARTESIAN_POINT('',(-6.1,-3.350000000000003,17.0));
#295=DIRECTION('',(0.0,0.0,-1.0));
#296=VECTOR('',#295,16.5);
#297=LINE('',#294,#296);
#298=EDGE_CURVE('',#293,#285,#297,.F.);
#299=ORIENTED_EDGE('',*,*,#298,.F.);
#300=CARTESIAN_POINT('',(6.100000000000001,-3.350000000000003,0.5));
#301=DIRECTION('',(-1.0,0.0,0.0));
#302=VECTOR('',#301,12.200000000000001);
#303=LINE('',#300,#302);
#304=EDGE_CURVE('',#255,#293,#303,.T.);
#305=ORIENTED_EDGE('',*,*,#304,.F.);
#306=ORIENTED_EDGE('',*,*,#260,.T.);
#307=EDGE_LOOP('',(#291,#299,#305,#306));
#308=FACE_OUTER_BOUND('',#307,.T.);
#309=ORIENTED_EDGE('',*,*,#224,.T.);
#310=ORIENTED_EDGE('',*,*,#185,.T.);
#311=EDGE_LOOP('',(#309,#310));
#312=FACE_BOUND('',#311,.T.);
#313=ADVANCED_FACE('',(#308,#312),#283,.T.);
#314=CARTESIAN_POINT('',(-6.100000000000001,-3.600000000000003,0.5));
#315=DIRECTION('',(-1.0,0.0,0.0));
#316=DIRECTION('',(0.0,0.0,1.0));
#317=AXIS2_PLACEMENT_3D('',#314,#315,#316);
#318=PLANE('',#317);
#319=CARTESIAN_POINT('',(-6.1,4.749999999999997,17.0));
#320=VERTEX_POINT('',#319);
#321=CARTESIAN_POINT('',(-6.100000000000001,-3.350000000000003,17.0));
#322=DIRECTION('',(0.0,1.0,0.0));
#323=VECTOR('',#322,8.100000000000001);
#324=LINE('',#321,#323);
#325=EDGE_CURVE('',#285,#320,#324,.T.);
#326=ORIENTED_EDGE('',*,*,#325,.T.);
#327=CARTESIAN_POINT('',(-6.1,4.749999999999997,0.5));
#328=VERTEX_POINT('',#327);
#329=CARTESIAN_POINT('',(-6.1,4.749999999999997,0.5));
#330=DIRECTION('',(0.0,0.0,1.0));
#331=VECTOR('',#330,16.5);
#332=LINE('',#329,#331);
#333=EDGE_CURVE('',#328,#320,#332,.T.);
#334=ORIENTED_EDGE('',*,*,#333,.F.);
#335=CARTESIAN_POINT('',(-6.100000000000001,-3.350000000000003,0.5));
#336=DIRECTION('',(0.0,1.0,0.0));
#337=VECTOR('',#336,8.100000000000001);
#338=LINE('',#335,#337);
#339=EDGE_CURVE('',#293,#328,#338,.T.);
#340=ORIENTED_EDGE('',*,*,#339,.F.);
#341=ORIENTED_EDGE('',*,*,#298,.T.);
#342=EDGE_LOOP('',(#326,#334,#340,#341));
#343=FACE_OUTER_BOUND('',#342,.T.);
#344=ADVANCED_FACE('',(#343),#318,.T.);
#345=CARTESIAN_POINT('',(-6.35,4.749999999999997,0.5));
#346=DIRECTION('',(0.0,1.0,0.0));
#347=DIRECTION('',(0.0,0.0,1.0));
#348=AXIS2_PLACEMENT_3D('',#345,#346,#347);
#349=PLANE('',#348);
#350=CARTESIAN_POINT('',(-6.099999999999997,4.749999999999997,17.0));
#351=DIRECTION('',(1.0,0.0,0.0));
#352=VECTOR('',#351,12.199999999999999);
#353=LINE('',#350,#352);
#354=EDGE_CURVE('',#320,#245,#353,.T.);
#355=ORIENTED_EDGE('',*,*,#354,.T.);
#356=ORIENTED_EDGE('',*,*,#274,.F.);
#357=CARTESIAN_POINT('',(-6.099999999999997,4.749999999999997,0.5));
#358=DIRECTION('',(1.0,0.0,0.0));
#359=VECTOR('',#358,12.199999999999999);
#360=LINE('',#357,#359);
#361=EDGE_CURVE('',#328,#263,#360,.T.);
#362=ORIENTED_EDGE('',*,*,#361,.F.);
#363=ORIENTED_EDGE('',*,*,#333,.T.);
#364=EDGE_LOOP('',(#355,#356,#362,#363));
#365=FACE_OUTER_BOUND('',#364,.T.);
#366=ADVANCED_FACE('',(#365),#349,.T.);
#367=CARTESIAN_POINT('',(-6.661338E-016,0.699999999999998,17.0));
#368=DIRECTION('',(0.0,0.0,1.0));
#369=DIRECTION('',(1.0,0.0,0.0));
#370=AXIS2_PLACEMENT_3D('',#367,#368,#369);
#371=PLANE('',#370);
#372=ORIENTED_EDGE('',*,*,#252,.F.);
#373=ORIENTED_EDGE('',*,*,#354,.F.);
#374=ORIENTED_EDGE('',*,*,#325,.F.);
#375=ORIENTED_EDGE('',*,*,#290,.F.);
#376=EDGE_LOOP('',(#372,#373,#374,#375));
#377=FACE_OUTER_BOUND('',#376,.T.);
#378=ADVANCED_FACE('',(#377),#371,.T.);
#379=CARTESIAN_POINT('',(-6.661338E-016,0.699999999999998,0.5));
#380=DIRECTION('',(0.0,0.0,1.0));
#381=DIRECTION('',(1.0,0.0,0.0));
#382=AXIS2_PLACEMENT_3D('',#379,#380,#381);
#383=PLANE('',#382);
#384=ORIENTED_EDGE('',*,*,#361,.T.);
#385=ORIENTED_EDGE('',*,*,#268,.T.);
#386=ORIENTED_EDGE('',*,*,#304,.T.);
#387=ORIENTED_EDGE('',*,*,#339,.T.);
#388=EDGE_LOOP('',(#384,#385,#386,#387));
#389=FACE_OUTER_BOUND('',#388,.T.);
#390=ADVANCED_FACE('',(#389),#383,.F.);
#391=CLOSED_SHELL('',(#204,#228,#238,#278,#313,#344,#366,#378,#390));
#392=MANIFOLD_SOLID_BREP('11C6',#391);
#393=COLOUR_RGB('250',0.33,0.33,0.33);
#394=SURFACE_STYLE_USAGE(.BOTH.,#395);
#395=SURFACE_SIDE_STYLE('NONE',(#396));
#396=SURFACE_STYLE_FILL_AREA(#397);
#397=FILL_AREA_STYLE('NONE',(#398));
#398=FILL_AREA_STYLE_COLOUR('NONE',#393);
#399=PRESENTATION_STYLE_ASSIGNMENT((#394));
#400=STYLED_ITEM('NONE',(#399),#392);
#401=CARTESIAN_POINT('',(5.600000000000001,-3.350000000000003,-2.053913E-015));
#402=CARTESIAN_POINT('',(6.100000000000001,-3.350000000000003,-2.053913E-015));
#403=CARTESIAN_POINT('',(5.600000000000001,-3.350000000000003,0.5));
#404=CARTESIAN_POINT('',(6.100000000000001,-3.350000000000003,0.5));
#405=B_SPLINE_SURFACE_WITH_KNOTS('',1,1,((#401,#403),(#402,#404)),.UNSPECIFIED.,.F.,.F.,.U.,(2,2),(2,2),(0.0,0.5),(0.0,0.500000000000002),.UNSPECIFIED.);
#406=CARTESIAN_POINT('',(6.100000000000001,-3.350000000000003,0.5));
#407=VERTEX_POINT('',#406);
#408=CARTESIAN_POINT('',(6.100000000000001,-3.350000000000003,0.0));
#409=VERTEX_POINT('',#408);
#410=CARTESIAN_POINT('',(6.100000000000001,-3.350000000000003,0.499999999999998));
#411=DIRECTION('',(0.0,0.0,-1.0));
#412=VECTOR('',#411,0.5);
#413=LINE('',#410,#412);
#414=EDGE_CURVE('',#407,#409,#413,.T.);
#415=ORIENTED_EDGE('',*,*,#414,.F.);
#416=CARTESIAN_POINT('',(5.600000000000001,-3.350000000000003,0.5));
#417=VERTEX_POINT('',#416);
#418=CARTESIAN_POINT('',(6.100000000000001,-3.350000000000003,0.5));
#419=DIRECTION('',(-1.0,0.0,0.0));
#420=VECTOR('',#419,0.5);
#421=LINE('',#418,#420);
#422=EDGE_CURVE('',#417,#407,#421,.F.);
#423=ORIENTED_EDGE('',*,*,#422,.F.);
#424=CARTESIAN_POINT('',(5.600000000000001,-3.350000000000003,0.0));
#425=VERTEX_POINT('',#424);
#426=CARTESIAN_POINT('',(5.600000000000001,-3.350000000000003,-2.053913E-015));
#427=DIRECTION('',(0.0,0.0,1.0));
#428=VECTOR('',#427,0.5);
#429=LINE('',#426,#428);
#430=EDGE_CURVE('',#425,#417,#429,.T.);
#431=ORIENTED_EDGE('',*,*,#430,.F.);
#432=CARTESIAN_POINT('',(6.100000000000001,-3.350000000000003,0.0));
#433=DIRECTION('',(-1.0,0.0,0.0));
#434=VECTOR('',#433,0.5);
#435=LINE('',#432,#434);
#436=EDGE_CURVE('',#409,#425,#435,.T.);
#437=ORIENTED_EDGE('',*,*,#436,.F.);
#438=EDGE_LOOP('',(#415,#423,#431,#437));
#439=FACE_OUTER_BOUND('',#438,.T.);
#440=ADVANCED_FACE('',(#439),#405,.T.);
#441=CARTESIAN_POINT('',(5.599999999999999,4.749999999999997,-1.665335E-016));
#442=CARTESIAN_POINT('',(6.099999999999999,4.749999999999997,-1.665335E-016));
#443=CARTESIAN_POINT('',(5.599999999999999,4.749999999999997,0.5));
#444=CARTESIAN_POINT('',(6.099999999999999,4.749999999999997,0.5));
#445=B_SPLINE_SURFACE_WITH_KNOTS('',1,1,((#441,#443),(#442,#444)),.UNSPECIFIED.,.F.,.F.,.U.,(2,2),(2,2),(0.0,0.5),(0.0,0.5),.UNSPECIFIED.);
#446=CARTESIAN_POINT('',(6.099999999999999,4.749999999999997,0.0));
#447=VERTEX_POINT('',#446);
#448=CARTESIAN_POINT('',(6.099999999999999,4.749999999999997,0.5));
#449=VERTEX_POINT('',#448);
#450=CARTESIAN_POINT('',(6.099999999999999,4.749999999999997,-1.665335E-016));
#451=DIRECTION('',(0.0,0.0,1.0));
#452=VECTOR('',#451,0.5);
#453=LINE('',#450,#452);
#454=EDGE_CURVE('',#447,#449,#453,.T.);
#455=ORIENTED_EDGE('',*,*,#454,.F.);
#456=CARTESIAN_POINT('',(5.599999999999999,4.749999999999997,0.0));
#457=VERTEX_POINT('',#456);
#458=CARTESIAN_POINT('',(5.599999999999999,4.749999999999997,0.0));
#459=DIRECTION('',(1.0,0.0,0.0));
#460=VECTOR('',#459,0.5);
#461=LINE('',#458,#460);
#462=EDGE_CURVE('',#457,#447,#461,.T.);
#463=ORIENTED_EDGE('',*,*,#462,.F.);
#464=CARTESIAN_POINT('',(5.599999999999999,4.749999999999997,0.5));
#465=VERTEX_POINT('',#464);
#466=CARTESIAN_POINT('',(5.599999999999999,4.749999999999997,0.5));
#467=DIRECTION('',(0.0,0.0,-1.0));
#468=VECTOR('',#467,0.5);
#469=LINE('',#466,#468);
#470=EDGE_CURVE('',#465,#457,#469,.T.);
#471=ORIENTED_EDGE('',*,*,#470,.F.);
#472=CARTESIAN_POINT('',(6.099999999999999,4.749999999999997,0.5));
#473=DIRECTION('',(-1.0,0.0,0.0));
#474=VECTOR('',#473,0.5);
#475=LINE('',#472,#474);
#476=EDGE_CURVE('',#449,#465,#475,.T.);
#477=ORIENTED_EDGE('',*,*,#476,.F.);
#478=EDGE_LOOP('',(#455,#463,#471,#477));
#479=FACE_OUTER_BOUND('',#478,.T.);
#480=ADVANCED_FACE('',(#479),#445,.F.);
#481=CARTESIAN_POINT('',(6.100000000000001,4.749999999999997,0.5));
#482=CARTESIAN_POINT('',(6.100000000000001,-3.350000000000004,0.500000000000002));
#483=CARTESIAN_POINT('',(5.599999999999999,4.749999999999997,0.5));
#484=CARTESIAN_POINT('',(5.599999999999998,-3.350000000000004,0.500000000000002));
#485=B_SPLINE_SURFACE_WITH_KNOTS('',1,1,((#481,#483),(#482,#484)),.UNSPECIFIED.,.F.,.F.,.U.,(2,2),(2,2),(0.0,8.100000000000001),(0.0,0.500000000000003),.UNSPECIFIED.);
#486=CARTESIAN_POINT('',(5.6,-3.350000000000003,0.500000000000002));
#487=DIRECTION('',(0.0,1.0,0.0));
#488=VECTOR('',#487,8.100000000000001);
#489=LINE('',#486,#488);
#490=EDGE_CURVE('',#417,#465,#489,.T.);
#491=ORIENTED_EDGE('',*,*,#490,.F.);
#492=ORIENTED_EDGE('',*,*,#422,.T.);
#493=CARTESIAN_POINT('',(6.1,-3.350000000000003,0.500000000000002));
#494=DIRECTION('',(0.0,1.0,0.0));
#495=VECTOR('',#494,8.100000000000001);
#496=LINE('',#493,#495);
#497=EDGE_CURVE('',#407,#449,#496,.T.);
#498=ORIENTED_EDGE('',*,*,#497,.T.);
#499=ORIENTED_EDGE('',*,*,#476,.T.);
#500=EDGE_LOOP('',(#491,#492,#498,#499));
#501=FACE_OUTER_BOUND('',#500,.T.);
#502=ADVANCED_FACE('',(#501),#485,.F.);
#503=CARTESIAN_POINT('',(5.6,-3.350000000000003,-2.053913E-015));
#504=CARTESIAN_POINT('',(5.6,4.749999999999998,-3.852474E-015));
#505=CARTESIAN_POINT('',(5.6,-3.350000000000003,0.500000000000004));
#506=CARTESIAN_POINT('',(5.6,4.749999999999998,0.500000000000002));
#507=B_SPLINE_SURFACE_WITH_KNOTS('',1,1,((#503,#505),(#504,#506)),.UNSPECIFIED.,.F.,.F.,.U.,(2,2),(2,2),(0.0,8.100000000000001),(0.0,0.500000000000006),.UNSPECIFIED.);
#508=CARTESIAN_POINT('',(5.6,-3.350000000000003,2.009504E-015));
#509=DIRECTION('',(0.0,1.0,0.0));
#510=VECTOR('',#509,8.100000000000001);
#511=LINE('',#508,#510);
#512=EDGE_CURVE('',#425,#457,#511,.T.);
#513=ORIENTED_EDGE('',*,*,#512,.F.);
#514=ORIENTED_EDGE('',*,*,#430,.T.);
#515=ORIENTED_EDGE('',*,*,#490,.T.);
#516=ORIENTED_EDGE('',*,*,#470,.T.);
#517=EDGE_LOOP('',(#513,#514,#515,#516));
#518=FACE_OUTER_BOUND('',#517,.T.);
#519=ADVANCED_FACE('',(#518),#507,.F.);
#520=CARTESIAN_POINT('',(6.100000000000001,-3.350000000000003,2.009504E-015));
#521=CARTESIAN_POINT('',(6.100000000000001,4.749999999999998,2.109424E-016));
#522=CARTESIAN_POINT('',(5.599999999999999,-3.350000000000003,2.009504E-015));
#523=CARTESIAN_POINT('',(5.599999999999998,4.749999999999998,2.109424E-016));
#524=B_SPLINE_SURFACE_WITH_KNOTS('',1,1,((#520,#522),(#521,#523)),.UNSPECIFIED.,.F.,.F.,.U.,(2,2),(2,2),(0.0,8.100000000000001),(0.0,0.500000000000003),.UNSPECIFIED.);
#525=CARTESIAN_POINT('',(6.1,-3.350000000000003,2.009504E-015));
#526=DIRECTION('',(0.0,1.0,0.0));
#527=VECTOR('',#526,8.100000000000001);
#528=LINE('',#525,#527);
#529=EDGE_CURVE('',#409,#447,#528,.T.);
#530=ORIENTED_EDGE('',*,*,#529,.F.);
#531=ORIENTED_EDGE('',*,*,#436,.T.);
#532=ORIENTED_EDGE('',*,*,#512,.T.);
#533=ORIENTED_EDGE('',*,*,#462,.T.);
#534=EDGE_LOOP('',(#530,#531,#532,#533));
#535=FACE_OUTER_BOUND('',#534,.T.);
#536=ADVANCED_FACE('',(#535),#524,.F.);
#537=CARTESIAN_POINT('',(6.1,4.749999999999997,-3.830269E-015));
#538=CARTESIAN_POINT('',(6.1,-3.350000000000004,-2.031708E-015));
#539=CARTESIAN_POINT('',(6.1,4.749999999999997,0.500000000000002));
#540=CARTESIAN_POINT('',(6.1,-3.350000000000004,0.500000000000004));
#541=B_SPLINE_SURFACE_WITH_KNOTS('',1,1,((#537,#539),(#538,#540)),.UNSPECIFIED.,.F.,.F.,.U.,(2,2),(2,2),(0.0,8.100000000000001),(0.0,0.500000000000006),.UNSPECIFIED.);
#542=ORIENTED_EDGE('',*,*,#497,.F.);
#543=ORIENTED_EDGE('',*,*,#414,.T.);
#544=ORIENTED_EDGE('',*,*,#529,.T.);
#545=ORIENTED_EDGE('',*,*,#454,.T.);
#546=EDGE_LOOP('',(#542,#543,#544,#545));
#547=FACE_OUTER_BOUND('',#546,.T.);
#548=ADVANCED_FACE('',(#547),#541,.F.);
#549=CLOSED_SHELL('',(#440,#480,#502,#519,#536,#548));
#550=MANIFOLD_SOLID_BREP('11C2',#549);
#551=STYLED_ITEM('NONE',(#399),#550);
#552=CARTESIAN_POINT('',(-6.100000000000002,-3.350000000000003,-2.275957E-015));
#553=CARTESIAN_POINT('',(-5.600000000000001,-3.350000000000003,-2.275957E-015));
#554=CARTESIAN_POINT('',(-6.100000000000002,-3.350000000000003,0.5));
#555=CARTESIAN_POINT('',(-5.600000000000001,-3.350000000000003,0.5));
#556=B_SPLINE_SURFACE_WITH_KNOTS('',1,1,((#552,#554),(#553,#555)),.UNSPECIFIED.,.F.,.F.,.U.,(2,2),(2,2),(0.0,0.500000000000001),(0.0,0.500000000000002),.UNSPECIFIED.);
#557=CARTESIAN_POINT('',(-5.600000000000001,-3.350000000000003,0.5));
#558=VERTEX_POINT('',#557);
#559=CARTESIAN_POINT('',(-5.600000000000001,-3.350000000000003,-1.110223E-016));
#560=VERTEX_POINT('',#559);
#561=CARTESIAN_POINT('',(-5.600000000000001,-3.350000000000003,0.499999999999998));
#562=DIRECTION('',(0.0,0.0,-1.0));
#563=VECTOR('',#562,0.5);
#564=LINE('',#561,#563);
#565=EDGE_CURVE('',#558,#560,#564,.T.);
#566=ORIENTED_EDGE('',*,*,#565,.F.);
#567=CARTESIAN_POINT('',(-6.100000000000001,-3.350000000000003,0.5));
#568=VERTEX_POINT('',#567);
#569=CARTESIAN_POINT('',(-6.100000000000002,-3.350000000000003,0.5));
#570=DIRECTION('',(1.0,0.0,0.0));
#571=VECTOR('',#570,0.5);
#572=LINE('',#569,#571);
#573=EDGE_CURVE('',#568,#558,#572,.T.);
#574=ORIENTED_EDGE('',*,*,#573,.F.);
#575=CARTESIAN_POINT('',(-6.100000000000001,-3.350000000000003,-1.110223E-016));
#576=VERTEX_POINT('',#575);
#577=CARTESIAN_POINT('',(-6.100000000000001,-3.350000000000003,-2.275957E-015));
#578=DIRECTION('',(0.0,0.0,1.0));
#579=VECTOR('',#578,0.5);
#580=LINE('',#577,#579);
#581=EDGE_CURVE('',#576,#568,#580,.T.);
#582=ORIENTED_EDGE('',*,*,#581,.F.);
#583=CARTESIAN_POINT('',(-5.600000000000002,-3.350000000000003,-1.110223E-016));
#584=DIRECTION('',(-1.0,0.0,0.0));
#585=VECTOR('',#584,0.5);
#586=LINE('',#583,#585);
#587=EDGE_CURVE('',#560,#576,#586,.T.);
#588=ORIENTED_EDGE('',*,*,#587,.F.);
#589=EDGE_LOOP('',(#566,#574,#582,#588));
#590=FACE_OUTER_BOUND('',#589,.T.);
#591=ADVANCED_FACE('',(#590),#556,.T.);
#592=CARTESIAN_POINT('',(-6.099999999999999,4.749999999999997,-5.551115E-017));
#593=CARTESIAN_POINT('',(-5.599999999999996,4.749999999999997,-5.551115E-017));
#594=CARTESIAN_POINT('',(-6.099999999999999,4.749999999999997,0.5));
#595=CARTESIAN_POINT('',(-5.599999999999997,4.749999999999997,0.5));
#596=B_SPLINE_SURFACE_WITH_KNOTS('',1,1,((#592,#594),(#593,#595)),.UNSPECIFIED.,.F.,.F.,.U.,(2,2),(2,2),(0.0,0.500000000000003),(0.0,0.5),.UNSPECIFIED.);
#597=CARTESIAN_POINT('',(-5.599999999999999,4.749999999999997,0.0));
#598=VERTEX_POINT('',#597);
#599=CARTESIAN_POINT('',(-5.599999999999999,4.749999999999997,0.5));
#600=VERTEX_POINT('',#599);
#601=CARTESIAN_POINT('',(-5.599999999999999,4.749999999999997,-5.551115E-017));
#602=DIRECTION('',(0.0,0.0,1.0));
#603=VECTOR('',#602,0.5);
#604=LINE('',#601,#603);
#605=EDGE_CURVE('',#598,#600,#604,.T.);
#606=ORIENTED_EDGE('',*,*,#605,.F.);
#607=CARTESIAN_POINT('',(-6.099999999999999,4.749999999999997,0.0));
#608=VERTEX_POINT('',#607);
#609=CARTESIAN_POINT('',(-6.099999999999996,4.749999999999997,0.0));
#610=DIRECTION('',(1.0,0.0,0.0));
#611=VECTOR('',#610,0.5);
#612=LINE('',#609,#611);
#613=EDGE_CURVE('',#608,#598,#612,.T.);
#614=ORIENTED_EDGE('',*,*,#613,.F.);
#615=CARTESIAN_POINT('',(-6.099999999999998,4.749999999999997,0.5));
#616=VERTEX_POINT('',#615);
#617=CARTESIAN_POINT('',(-6.099999999999999,4.749999999999997,0.5));
#618=DIRECTION('',(0.0,0.0,-1.0));
#619=VECTOR('',#618,0.5);
#620=LINE('',#617,#619);
#621=EDGE_CURVE('',#616,#608,#620,.T.);
#622=ORIENTED_EDGE('',*,*,#621,.F.);
#623=CARTESIAN_POINT('',(-5.599999999999996,4.749999999999997,0.5));
#624=DIRECTION('',(-1.0,0.0,0.0));
#625=VECTOR('',#624,0.499999999999999);
#626=LINE('',#623,#625);
#627=EDGE_CURVE('',#600,#616,#626,.T.);
#628=ORIENTED_EDGE('',*,*,#627,.F.);
#629=EDGE_LOOP('',(#606,#614,#622,#628));
#630=FACE_OUTER_BOUND('',#629,.T.);
#631=ADVANCED_FACE('',(#630),#596,.F.);
#632=CARTESIAN_POINT('',(-5.599999999999996,4.749999999999997,0.5));
#633=CARTESIAN_POINT('',(-5.599999999999996,-3.350000000000004,0.500000000000002));
#634=CARTESIAN_POINT('',(-6.100000000000002,4.749999999999997,0.5));
#635=CARTESIAN_POINT('',(-6.100000000000003,-3.350000000000004,0.500000000000002));
#636=B_SPLINE_SURFACE_WITH_KNOTS('',1,1,((#632,#634),(#633,#635)),.UNSPECIFIED.,.F.,.F.,.U.,(2,2),(2,2),(0.0,8.100000000000001),(0.0,0.500000000000006),.UNSPECIFIED.);
#637=CARTESIAN_POINT('',(-6.100000000000001,-3.350000000000003,0.500000000000002));
#638=DIRECTION('',(0.0,1.0,0.0));
#639=VECTOR('',#638,8.100000000000001);
#640=LINE('',#637,#639);
#641=EDGE_CURVE('',#568,#616,#640,.T.);
#642=ORIENTED_EDGE('',*,*,#641,.F.);
#643=ORIENTED_EDGE('',*,*,#573,.T.);
#644=CARTESIAN_POINT('',(-5.600000000000001,-3.350000000000003,0.500000000000002));
#645=DIRECTION('',(0.0,1.0,0.0));
#646=VECTOR('',#645,8.100000000000001);
#647=LINE('',#644,#646);
#648=EDGE_CURVE('',#558,#600,#647,.T.);
#649=ORIENTED_EDGE('',*,*,#648,.T.);
#650=ORIENTED_EDGE('',*,*,#627,.T.);
#651=EDGE_LOOP('',(#642,#643,#649,#650));
#652=FACE_OUTER_BOUND('',#651,.T.);
#653=ADVANCED_FACE('',(#652),#636,.F.);
#654=CARTESIAN_POINT('',(-6.100000000000001,-3.350000000000003,-2.275957E-015));
#655=CARTESIAN_POINT('',(-6.100000000000001,4.749999999999998,-4.074519E-015));
#656=CARTESIAN_POINT('',(-6.100000000000001,-3.350000000000003,0.500000000000004));
#657=CARTESIAN_POINT('',(-6.100000000000001,4.749999999999998,0.500000000000002));
#658=B_SPLINE_SURFACE_WITH_KNOTS('',1,1,((#654,#656),(#655,#657)),.UNSPECIFIED.,.F.,.F.,.U.,(2,2),(2,2),(0.0,8.100000000000001),(0.0,0.500000000000006),.UNSPECIFIED.);
#659=CARTESIAN_POINT('',(-6.100000000000001,-3.350000000000003,2.009504E-015));
#660=DIRECTION('',(0.0,1.0,0.0));
#661=VECTOR('',#660,8.100000000000001);
#662=LINE('',#659,#661);
#663=EDGE_CURVE('',#576,#608,#662,.T.);
#664=ORIENTED_EDGE('',*,*,#663,.F.);
#665=ORIENTED_EDGE('',*,*,#581,.T.);
#666=ORIENTED_EDGE('',*,*,#641,.T.);
#667=ORIENTED_EDGE('',*,*,#621,.T.);
#668=EDGE_LOOP('',(#664,#665,#666,#667));
#669=FACE_OUTER_BOUND('',#668,.T.);
#670=ADVANCED_FACE('',(#669),#658,.F.);
#671=CARTESIAN_POINT('',(-5.599999999999996,-3.350000000000003,2.009504E-015));
#672=CARTESIAN_POINT('',(-5.599999999999996,4.749999999999998,2.109424E-016));
#673=CARTESIAN_POINT('',(-6.100000000000002,-3.350000000000003,2.009504E-015));
#674=CARTESIAN_POINT('',(-6.100000000000003,4.749999999999998,2.109424E-016));
#675=B_SPLINE_SURFACE_WITH_KNOTS('',1,1,((#671,#673),(#672,#674)),.UNSPECIFIED.,.F.,.F.,.U.,(2,2),(2,2),(0.0,8.100000000000001),(0.0,0.500000000000006),.UNSPECIFIED.);
#676=CARTESIAN_POINT('',(-5.600000000000001,-3.350000000000003,2.009504E-015));
#677=DIRECTION('',(0.0,1.0,0.0));
#678=VECTOR('',#677,8.100000000000001);
#679=LINE('',#676,#678);
#680=EDGE_CURVE('',#560,#598,#679,.T.);
#681=ORIENTED_EDGE('',*,*,#680,.F.);
#682=ORIENTED_EDGE('',*,*,#587,.T.);
#683=ORIENTED_EDGE('',*,*,#663,.T.);
#684=ORIENTED_EDGE('',*,*,#613,.T.);
#685=EDGE_LOOP('',(#681,#682,#683,#684));
#686=FACE_OUTER_BOUND('',#685,.T.);
#687=ADVANCED_FACE('',(#686),#675,.F.);
#688=CARTESIAN_POINT('',(-5.600000000000001,4.749999999999997,-4.052314E-015));
#689=CARTESIAN_POINT('',(-5.600000000000001,-3.350000000000004,-2.253753E-015));
#690=CARTESIAN_POINT('',(-5.600000000000001,4.749999999999997,0.500000000000002));
#691=CARTESIAN_POINT('',(-5.600000000000001,-3.350000000000004,0.500000000000004));
#692=B_SPLINE_SURFACE_WITH_KNOTS('',1,1,((#688,#690),(#689,#691)),.UNSPECIFIED.,.F.,.F.,.U.,(2,2),(2,2),(0.0,8.100000000000001),(0.0,0.500000000000006),.UNSPECIFIED.);
#693=ORIENTED_EDGE('',*,*,#648,.F.);
#694=ORIENTED_EDGE('',*,*,#565,.T.);
#695=ORIENTED_EDGE('',*,*,#680,.T.);
#696=ORIENTED_EDGE('',*,*,#605,.T.);
#697=EDGE_LOOP('',(#693,#694,#695,#696));
#698=FACE_OUTER_BOUND('',#697,.T.);
#699=ADVANCED_FACE('',(#698),#692,.F.);
#700=CLOSED_SHELL('',(#591,#631,#653,#670,#687,#699));
#701=MANIFOLD_SOLID_BREP('11BE',#700);
#702=STYLED_ITEM('NONE',(#399),#701);
#703=CARTESIAN_POINT('',(2.290000000000001,0.149999999999999,0.5));
#704=DIRECTION('',(-1.0,0.0,0.0));
#705=DIRECTION('',(0.0,0.0,1.0));
#706=AXIS2_PLACEMENT_3D('',#703,#704,#705);
#707=PLANE('',#706);
#708=CARTESIAN_POINT('',(2.290000000000001,0.149999999999999,-3.6));
#709=VERTEX_POINT('',#708);
#710=CARTESIAN_POINT('',(2.290000000000001,-0.15,-3.6));
#711=VERTEX_POINT('',#710);
#712=CARTESIAN_POINT('',(2.290000000000001,0.15,-3.6));
#713=DIRECTION('',(0.0,-1.0,0.0));
#714=VECTOR('',#713,0.3);
#715=LINE('',#712,#714);
#716=EDGE_CURVE('',#709,#711,#715,.T.);
#717=ORIENTED_EDGE('',*,*,#716,.T.);
#718=CARTESIAN_POINT('',(2.290000000000001,-0.15,0.5));
#719=VERTEX_POINT('',#718);
#720=CARTESIAN_POINT('',(2.290000000000001,-0.15,0.5));
#721=DIRECTION('',(0.0,0.0,-1.0));
#722=VECTOR('',#721,4.1);
#723=LINE('',#720,#722);
#724=EDGE_CURVE('',#719,#711,#723,.T.);
#725=ORIENTED_EDGE('',*,*,#724,.F.);
#726=CARTESIAN_POINT('',(2.290000000000001,0.149999999999999,0.5));
#727=VERTEX_POINT('',#726);
#728=CARTESIAN_POINT('',(2.290000000000001,-0.15,0.5));
#729=DIRECTION('',(0.0,1.0,0.0));
#730=VECTOR('',#729,0.3);
#731=LINE('',#728,#730);
#732=EDGE_CURVE('',#719,#727,#731,.T.);
#733=ORIENTED_EDGE('',*,*,#732,.T.);
#734=CARTESIAN_POINT('',(2.290000000000001,0.149999999999999,0.5));
#735=DIRECTION('',(0.0,0.0,-1.0));
#736=VECTOR('',#735,4.1);
#737=LINE('',#734,#736);
#738=EDGE_CURVE('',#727,#709,#737,.T.);
#739=ORIENTED_EDGE('',*,*,#738,.T.);
#740=EDGE_LOOP('',(#717,#725,#733,#739));
#741=FACE_OUTER_BOUND('',#740,.T.);
#742=ADVANCED_FACE('',(#741),#707,.T.);
#743=CARTESIAN_POINT('',(2.290000000000001,-0.15,0.5));
#744=DIRECTION('',(0.0,-1.0,0.0));
#745=DIRECTION('',(0.0,0.0,-1.0));
#746=AXIS2_PLACEMENT_3D('',#743,#744,#745);
#747=PLANE('',#746);
#748=CARTESIAN_POINT('',(2.790000000000001,-0.15,-3.6));
#749=VERTEX_POINT('',#748);
#750=CARTESIAN_POINT('',(2.290000000000001,-0.15,-3.6));
#751=DIRECTION('',(1.0,0.0,0.0));
#752=VECTOR('',#751,0.5);
#753=LINE('',#750,#752);
#754=EDGE_CURVE('',#711,#749,#753,.T.);
#755=ORIENTED_EDGE('',*,*,#754,.T.);
#756=CARTESIAN_POINT('',(2.790000000000001,-0.15,0.5));
#757=VERTEX_POINT('',#756);
#758=CARTESIAN_POINT('',(2.790000000000001,-0.15,0.5));
#759=DIRECTION('',(0.0,0.0,-1.0));
#760=VECTOR('',#759,4.1);
#761=LINE('',#758,#760);
#762=EDGE_CURVE('',#757,#749,#761,.T.);
#763=ORIENTED_EDGE('',*,*,#762,.F.);
#764=CARTESIAN_POINT('',(2.790000000000001,-0.15,0.5));
#765=DIRECTION('',(-1.0,0.0,0.0));
#766=VECTOR('',#765,0.5);
#767=LINE('',#764,#766);
#768=EDGE_CURVE('',#757,#719,#767,.T.);
#769=ORIENTED_EDGE('',*,*,#768,.T.);
#770=ORIENTED_EDGE('',*,*,#724,.T.);
#771=EDGE_LOOP('',(#755,#763,#769,#770));
#772=FACE_OUTER_BOUND('',#771,.T.);
#773=ADVANCED_FACE('',(#772),#747,.T.);
#774=CARTESIAN_POINT('',(2.790000000000001,-0.15,0.5));
#775=DIRECTION('',(1.0,0.0,0.0));
#776=DIRECTION('',(0.0,0.0,-1.0));
#777=AXIS2_PLACEMENT_3D('',#774,#775,#776);
#778=PLANE('',#777);
#779=CARTESIAN_POINT('',(2.790000000000001,0.149999999999999,-3.6));
#780=VERTEX_POINT('',#779);
#781=CARTESIAN_POINT('',(2.790000000000001,-0.15,-3.6));
#782=DIRECTION('',(0.0,1.0,0.0));
#783=VECTOR('',#782,0.3);
#784=LINE('',#781,#783);
#785=EDGE_CURVE('',#749,#780,#784,.T.);
#786=ORIENTED_EDGE('',*,*,#785,.T.);
#787=CARTESIAN_POINT('',(2.790000000000001,0.149999999999999,0.5));
#788=VERTEX_POINT('',#787);
#789=CARTESIAN_POINT('',(2.790000000000001,0.149999999999999,0.5));
#790=DIRECTION('',(0.0,0.0,-1.0));
#791=VECTOR('',#790,4.1);
#792=LINE('',#789,#791);
#793=EDGE_CURVE('',#788,#780,#792,.T.);
#794=ORIENTED_EDGE('',*,*,#793,.F.);
#795=CARTESIAN_POINT('',(2.790000000000001,0.149999999999999,0.5));
#796=DIRECTION('',(0.0,-1.0,0.0));
#797=VECTOR('',#796,0.3);
#798=LINE('',#795,#797);
#799=EDGE_CURVE('',#788,#757,#798,.T.);
#800=ORIENTED_EDGE('',*,*,#799,.T.);
#801=ORIENTED_EDGE('',*,*,#762,.T.);
#802=EDGE_LOOP('',(#786,#794,#800,#801));
#803=FACE_OUTER_BOUND('',#802,.T.);
#804=ADVANCED_FACE('',(#803),#778,.T.);
#805=CARTESIAN_POINT('',(2.790000000000001,0.149999999999999,0.5));
#806=DIRECTION('',(0.0,1.0,0.0));
#807=DIRECTION('',(0.0,0.0,1.0));
#808=AXIS2_PLACEMENT_3D('',#805,#806,#807);
#809=PLANE('',#808);
#810=CARTESIAN_POINT('',(2.790000000000001,0.149999999999999,-3.6));
#811=DIRECTION('',(-1.0,0.0,0.0));
#812=VECTOR('',#811,0.5);
#813=LINE('',#810,#812);
#814=EDGE_CURVE('',#780,#709,#813,.T.);
#815=ORIENTED_EDGE('',*,*,#814,.T.);
#816=ORIENTED_EDGE('',*,*,#738,.F.);
#817=CARTESIAN_POINT('',(2.290000000000001,0.149999999999999,0.5));
#818=DIRECTION('',(1.0,0.0,0.0));
#819=VECTOR('',#818,0.5);
#820=LINE('',#817,#819);
#821=EDGE_CURVE('',#727,#788,#820,.T.);
#822=ORIENTED_EDGE('',*,*,#821,.T.);
#823=ORIENTED_EDGE('',*,*,#793,.T.);
#824=EDGE_LOOP('',(#815,#816,#822,#823));
#825=FACE_OUTER_BOUND('',#824,.T.);
#826=ADVANCED_FACE('',(#825),#809,.T.);
#827=CARTESIAN_POINT('',(2.540000000000001,0.0,0.5));
#828=DIRECTION('',(0.0,0.0,1.0));
#829=DIRECTION('',(1.0,0.0,0.0));
#830=AXIS2_PLACEMENT_3D('',#827,#828,#829);
#831=PLANE('',#830);
#832=ORIENTED_EDGE('',*,*,#821,.F.);
#833=ORIENTED_EDGE('',*,*,#732,.F.);
#834=ORIENTED_EDGE('',*,*,#768,.F.);
#835=ORIENTED_EDGE('',*,*,#799,.F.);
#836=EDGE_LOOP('',(#832,#833,#834,#835));
#837=FACE_OUTER_BOUND('',#836,.T.);
#838=ADVANCED_FACE('',(#837),#831,.T.);
#839=CARTESIAN_POINT('',(2.540000000000001,0.0,-3.6));
#840=DIRECTION('',(0.0,0.0,1.0));
#841=DIRECTION('',(1.0,0.0,0.0));
#842=AXIS2_PLACEMENT_3D('',#839,#840,#841);
#843=PLANE('',#842);
#844=ORIENTED_EDGE('',*,*,#716,.F.);
#845=ORIENTED_EDGE('',*,*,#814,.F.);
#846=ORIENTED_EDGE('',*,*,#785,.F.);
#847=ORIENTED_EDGE('',*,*,#754,.F.);
#848=EDGE_LOOP('',(#844,#845,#846,#847));
#849=FACE_OUTER_BOUND('',#848,.T.);
#850=ADVANCED_FACE('',(#849),#843,.F.);
#851=CLOSED_SHELL('',(#742,#773,#804,#826,#838,#850));
#852=MANIFOLD_SOLID_BREP('11B6',#851);
#853=COLOUR_RGB('254',0.866,0.866,0.866);
#854=SURFACE_STYLE_USAGE(.BOTH.,#855);
#855=SURFACE_SIDE_STYLE('NONE',(#856));
#856=SURFACE_STYLE_FILL_AREA(#857);
#857=FILL_AREA_STYLE('NONE',(#858));
#858=FILL_AREA_STYLE_COLOUR('NONE',#853);
#859=PRESENTATION_STYLE_ASSIGNMENT((#854));
#860=STYLED_ITEM('NONE',(#859),#852);
#861=CARTESIAN_POINT('',(-0.25,0.149999999999999,0.5));
#862=DIRECTION('',(-1.0,0.0,0.0));
#863=DIRECTION('',(0.0,0.0,1.0));
#864=AXIS2_PLACEMENT_3D('',#861,#862,#863);
#865=PLANE('',#864);
#866=CARTESIAN_POINT('',(-0.25,0.149999999999999,-3.6));
#867=VERTEX_POINT('',#866);
#868=CARTESIAN_POINT('',(-0.25,-0.15,-3.6));
#869=VERTEX_POINT('',#868);
#870=CARTESIAN_POINT('',(-0.25,0.15,-3.6));
#871=DIRECTION('',(0.0,-1.0,0.0));
#872=VECTOR('',#871,0.3);
#873=LINE('',#870,#872);
#874=EDGE_CURVE('',#867,#869,#873,.T.);
#875=ORIENTED_EDGE('',*,*,#874,.T.);
#876=CARTESIAN_POINT('',(-0.25,-0.15,0.5));
#877=VERTEX_POINT('',#876);
#878=CARTESIAN_POINT('',(-0.25,-0.15,0.5));
#879=DIRECTION('',(0.0,0.0,-1.0));
#880=VECTOR('',#879,4.1);
#881=LINE('',#878,#880);
#882=EDGE_CURVE('',#877,#869,#881,.T.);
#883=ORIENTED_EDGE('',*,*,#882,.F.);
#884=CARTESIAN_POINT('',(-0.25,0.149999999999999,0.5));
#885=VERTEX_POINT('',#884);
#886=CARTESIAN_POINT('',(-0.25,-0.15,0.5));
#887=DIRECTION('',(0.0,1.0,0.0));
#888=VECTOR('',#887,0.3);
#889=LINE('',#886,#888);
#890=EDGE_CURVE('',#877,#885,#889,.T.);
#891=ORIENTED_EDGE('',*,*,#890,.T.);
#892=CARTESIAN_POINT('',(-0.25,0.149999999999999,0.5));
#893=DIRECTION('',(0.0,0.0,-1.0));
#894=VECTOR('',#893,4.1);
#895=LINE('',#892,#894);
#896=EDGE_CURVE('',#885,#867,#895,.T.);
#897=ORIENTED_EDGE('',*,*,#896,.T.);
#898=EDGE_LOOP('',(#875,#883,#891,#897));
#899=FACE_OUTER_BOUND('',#898,.T.);
#900=ADVANCED_FACE('',(#899),#865,.T.);
#901=CARTESIAN_POINT('',(-0.25,-0.15,0.5));
#902=DIRECTION('',(0.0,-1.0,0.0));
#903=DIRECTION('',(0.0,0.0,-1.0));
#904=AXIS2_PLACEMENT_3D('',#901,#902,#903);
#905=PLANE('',#904);
#906=CARTESIAN_POINT('',(0.25,-0.15,-3.6));
#907=VERTEX_POINT('',#906);
#908=CARTESIAN_POINT('',(-0.25,-0.15,-3.6));
#909=DIRECTION('',(1.0,0.0,0.0));
#910=VECTOR('',#909,0.5);
#911=LINE('',#908,#910);
#912=EDGE_CURVE('',#869,#907,#911,.T.);
#913=ORIENTED_EDGE('',*,*,#912,.T.);
#914=CARTESIAN_POINT('',(0.25,-0.15,0.5));
#915=VERTEX_POINT('',#914);
#916=CARTESIAN_POINT('',(0.25,-0.15,0.5));
#917=DIRECTION('',(0.0,0.0,-1.0));
#918=VECTOR('',#917,4.1);
#919=LINE('',#916,#918);
#920=EDGE_CURVE('',#915,#907,#919,.T.);
#921=ORIENTED_EDGE('',*,*,#920,.F.);
#922=CARTESIAN_POINT('',(0.25,-0.15,0.5));
#923=DIRECTION('',(-1.0,0.0,0.0));
#924=VECTOR('',#923,0.5);
#925=LINE('',#922,#924);
#926=EDGE_CURVE('',#915,#877,#925,.T.);
#927=ORIENTED_EDGE('',*,*,#926,.T.);
#928=ORIENTED_EDGE('',*,*,#882,.T.);
#929=EDGE_LOOP('',(#913,#921,#927,#928));
#930=FACE_OUTER_BOUND('',#929,.T.);
#931=ADVANCED_FACE('',(#930),#905,.T.);
#932=CARTESIAN_POINT('',(0.25,-0.15,0.5));
#933=DIRECTION('',(1.0,0.0,0.0));
#934=DIRECTION('',(0.0,0.0,-1.0));
#935=AXIS2_PLACEMENT_3D('',#932,#933,#934);
#936=PLANE('',#935);
#937=CARTESIAN_POINT('',(0.25,0.149999999999999,-3.6));
#938=VERTEX_POINT('',#937);
#939=CARTESIAN_POINT('',(0.25,-0.15,-3.6));
#940=DIRECTION('',(0.0,1.0,0.0));
#941=VECTOR('',#940,0.3);
#942=LINE('',#939,#941);
#943=EDGE_CURVE('',#907,#938,#942,.T.);
#944=ORIENTED_EDGE('',*,*,#943,.T.);
#945=CARTESIAN_POINT('',(0.25,0.149999999999999,0.5));
#946=VERTEX_POINT('',#945);
#947=CARTESIAN_POINT('',(0.25,0.149999999999999,0.5));
#948=DIRECTION('',(0.0,0.0,-1.0));
#949=VECTOR('',#948,4.1);
#950=LINE('',#947,#949);
#951=EDGE_CURVE('',#946,#938,#950,.T.);
#952=ORIENTED_EDGE('',*,*,#951,.F.);
#953=CARTESIAN_POINT('',(0.25,0.149999999999999,0.5));
#954=DIRECTION('',(0.0,-1.0,0.0));
#955=VECTOR('',#954,0.3);
#956=LINE('',#953,#955);
#957=EDGE_CURVE('',#946,#915,#956,.T.);
#958=ORIENTED_EDGE('',*,*,#957,.T.);
#959=ORIENTED_EDGE('',*,*,#920,.T.);
#960=EDGE_LOOP('',(#944,#952,#958,#959));
#961=FACE_OUTER_BOUND('',#960,.T.);
#962=ADVANCED_FACE('',(#961),#936,.T.);
#963=CARTESIAN_POINT('',(0.25,0.149999999999999,0.5));
#964=DIRECTION('',(0.0,1.0,0.0));
#965=DIRECTION('',(0.0,0.0,1.0));
#966=AXIS2_PLACEMENT_3D('',#963,#964,#965);
#967=PLANE('',#966);
#968=CARTESIAN_POINT('',(0.25,0.149999999999999,-3.6));
#969=DIRECTION('',(-1.0,0.0,0.0));
#970=VECTOR('',#969,0.5);
#971=LINE('',#968,#970);
#972=EDGE_CURVE('',#938,#867,#971,.T.);
#973=ORIENTED_EDGE('',*,*,#972,.T.);
#974=ORIENTED_EDGE('',*,*,#896,.F.);
#975=CARTESIAN_POINT('',(-0.25,0.149999999999999,0.5));
#976=DIRECTION('',(1.0,0.0,0.0));
#977=VECTOR('',#976,0.5);
#978=LINE('',#975,#977);
#979=EDGE_CURVE('',#885,#946,#978,.T.);
#980=ORIENTED_EDGE('',*,*,#979,.T.);
#981=ORIENTED_EDGE('',*,*,#951,.T.);
#982=EDGE_LOOP('',(#973,#974,#980,#981));
#983=FACE_OUTER_BOUND('',#982,.T.);
#984=ADVANCED_FACE('',(#983),#967,.T.);
#985=CARTESIAN_POINT('',(0.0,0.0,0.5));
#986=DIRECTION('',(0.0,0.0,1.0));
#987=DIRECTION('',(1.0,0.0,0.0));
#988=AXIS2_PLACEMENT_3D('',#985,#986,#987);
#989=PLANE('',#988);
#990=ORIENTED_EDGE('',*,*,#979,.F.);
#991=ORIENTED_EDGE('',*,*,#890,.F.);
#992=ORIENTED_EDGE('',*,*,#926,.F.);
#993=ORIENTED_EDGE('',*,*,#957,.F.);
#994=EDGE_LOOP('',(#990,#991,#992,#993));
#995=FACE_OUTER_BOUND('',#994,.T.);
#996=ADVANCED_FACE('',(#995),#989,.T.);
#997=CARTESIAN_POINT('',(0.0,0.0,-3.6));
#998=DIRECTION('',(0.0,0.0,1.0));
#999=DIRECTION('',(1.0,0.0,0.0));
#1000=AXIS2_PLACEMENT_3D('',#997,#998,#999);
#1001=PLANE('',#1000);
#1002=ORIENTED_EDGE('',*,*,#874,.F.);
#1003=ORIENTED_EDGE('',*,*,#972,.F.);
#1004=ORIENTED_EDGE('',*,*,#943,.F.);
#1005=ORIENTED_EDGE('',*,*,#912,.F.);
#1006=EDGE_LOOP('',(#1002,#1003,#1004,#1005));
#1007=FACE_OUTER_BOUND('',#1006,.T.);
#1008=ADVANCED_FACE('',(#1007),#1001,.F.);
#1009=CLOSED_SHELL('',(#900,#931,#962,#984,#996,#1008));
#1010=MANIFOLD_SOLID_BREP('11B2',#1009);
#1011=STYLED_ITEM('NONE',(#859),#1010);
#1012=CARTESIAN_POINT('',(-2.79,0.149999999999999,0.5));
#1013=DIRECTION('',(-1.0,0.0,0.0));
#1014=DIRECTION('',(0.0,0.0,1.0));
#1015=AXIS2_PLACEMENT_3D('',#1012,#1013,#1014);
#1016=PLANE('',#1015);
#1017=CARTESIAN_POINT('',(-2.79,0.149999999999999,-3.6));
#1018=VERTEX_POINT('',#1017);
#1019=CARTESIAN_POINT('',(-2.79,-0.15,-3.6));
#1020=VERTEX_POINT('',#1019);
#1021=CARTESIAN_POINT('',(-2.79,0.15,-3.6));
#1022=DIRECTION('',(0.0,-1.0,0.0));
#1023=VECTOR('',#1022,0.3);
#1024=LINE('',#1021,#1023);
#1025=EDGE_CURVE('',#1018,#1020,#1024,.T.);
#1026=ORIENTED_EDGE('',*,*,#1025,.T.);
#1027=CARTESIAN_POINT('',(-2.79,-0.15,0.5));
#1028=VERTEX_POINT('',#1027);
#1029=CARTESIAN_POINT('',(-2.79,-0.15,0.5));
#1030=DIRECTION('',(0.0,0.0,-1.0));
#1031=VECTOR('',#1030,4.1);
#1032=LINE('',#1029,#1031);
#1033=EDGE_CURVE('',#1028,#1020,#1032,.T.);
#1034=ORIENTED_EDGE('',*,*,#1033,.F.);
#1035=CARTESIAN_POINT('',(-2.79,0.149999999999999,0.5));
#1036=VERTEX_POINT('',#1035);
#1037=CARTESIAN_POINT('',(-2.79,-0.15,0.5));
#1038=DIRECTION('',(0.0,1.0,0.0));
#1039=VECTOR('',#1038,0.3);
#1040=LINE('',#1037,#1039);
#1041=EDGE_CURVE('',#1028,#1036,#1040,.T.);
#1042=ORIENTED_EDGE('',*,*,#1041,.T.);
#1043=CARTESIAN_POINT('',(-2.79,0.149999999999999,0.5));
#1044=DIRECTION('',(0.0,0.0,-1.0));
#1045=VECTOR('',#1044,4.1);
#1046=LINE('',#1043,#1045);
#1047=EDGE_CURVE('',#1036,#1018,#1046,.T.);
#1048=ORIENTED_EDGE('',*,*,#1047,.T.);
#1049=EDGE_LOOP('',(#1026,#1034,#1042,#1048));
#1050=FACE_OUTER_BOUND('',#1049,.T.);
#1051=ADVANCED_FACE('',(#1050),#1016,.T.);
#1052=CARTESIAN_POINT('',(-2.79,-0.15,0.5));
#1053=DIRECTION('',(0.0,-1.0,0.0));
#1054=DIRECTION('',(0.0,0.0,-1.0));
#1055=AXIS2_PLACEMENT_3D('',#1052,#1053,#1054);
#1056=PLANE('',#1055);
#1057=CARTESIAN_POINT('',(-2.29,-0.15,-3.6));
#1058=VERTEX_POINT('',#1057);
#1059=CARTESIAN_POINT('',(-2.79,-0.15,-3.6));
#1060=DIRECTION('',(1.0,0.0,0.0));
#1061=VECTOR('',#1060,0.5);
#1062=LINE('',#1059,#1061);
#1063=EDGE_CURVE('',#1020,#1058,#1062,.T.);
#1064=ORIENTED_EDGE('',*,*,#1063,.T.);
#1065=CARTESIAN_POINT('',(-2.29,-0.15,0.5));
#1066=VERTEX_POINT('',#1065);
#1067=CARTESIAN_POINT('',(-2.29,-0.15,0.5));
#1068=DIRECTION('',(0.0,0.0,-1.0));
#1069=VECTOR('',#1068,4.1);
#1070=LINE('',#1067,#1069);
#1071=EDGE_CURVE('',#1066,#1058,#1070,.T.);
#1072=ORIENTED_EDGE('',*,*,#1071,.F.);
#1073=CARTESIAN_POINT('',(-2.29,-0.15,0.5));
#1074=DIRECTION('',(-1.0,0.0,0.0));
#1075=VECTOR('',#1074,0.5);
#1076=LINE('',#1073,#1075);
#1077=EDGE_CURVE('',#1066,#1028,#1076,.T.);
#1078=ORIENTED_EDGE('',*,*,#1077,.T.);
#1079=ORIENTED_EDGE('',*,*,#1033,.T.);
#1080=EDGE_LOOP('',(#1064,#1072,#1078,#1079));
#1081=FACE_OUTER_BOUND('',#1080,.T.);
#1082=ADVANCED_FACE('',(#1081),#1056,.T.);
#1083=CARTESIAN_POINT('',(-2.29,-0.15,0.5));
#1084=DIRECTION('',(1.0,0.0,0.0));
#1085=DIRECTION('',(0.0,0.0,-1.0));
#1086=AXIS2_PLACEMENT_3D('',#1083,#1084,#1085);
#1087=PLANE('',#1086);
#1088=CARTESIAN_POINT('',(-2.29,0.149999999999999,-3.6));
#1089=VERTEX_POINT('',#1088);
#1090=CARTESIAN_POINT('',(-2.29,-0.15,-3.6));
#1091=DIRECTION('',(0.0,1.0,0.0));
#1092=VECTOR('',#1091,0.3);
#1093=LINE('',#1090,#1092);
#1094=EDGE_CURVE('',#1058,#1089,#1093,.T.);
#1095=ORIENTED_EDGE('',*,*,#1094,.T.);
#1096=CARTESIAN_POINT('',(-2.29,0.149999999999999,0.5));
#1097=VERTEX_POINT('',#1096);
#1098=CARTESIAN_POINT('',(-2.29,0.149999999999999,0.5));
#1099=DIRECTION('',(0.0,0.0,-1.0));
#1100=VECTOR('',#1099,4.1);
#1101=LINE('',#1098,#1100);
#1102=EDGE_CURVE('',#1097,#1089,#1101,.T.);
#1103=ORIENTED_EDGE('',*,*,#1102,.F.);
#1104=CARTESIAN_POINT('',(-2.29,0.149999999999999,0.5));
#1105=DIRECTION('',(0.0,-1.0,0.0));
#1106=VECTOR('',#1105,0.3);
#1107=LINE('',#1104,#1106);
#1108=EDGE_CURVE('',#1097,#1066,#1107,.T.);
#1109=ORIENTED_EDGE('',*,*,#1108,.T.);
#1110=ORIENTED_EDGE('',*,*,#1071,.T.);
#1111=EDGE_LOOP('',(#1095,#1103,#1109,#1110));
#1112=FACE_OUTER_BOUND('',#1111,.T.);
#1113=ADVANCED_FACE('',(#1112),#1087,.T.);
#1114=CARTESIAN_POINT('',(-2.29,0.149999999999999,0.5));
#1115=DIRECTION('',(0.0,1.0,0.0));
#1116=DIRECTION('',(0.0,0.0,1.0));
#1117=AXIS2_PLACEMENT_3D('',#1114,#1115,#1116);
#1118=PLANE('',#1117);
#1119=CARTESIAN_POINT('',(-2.29,0.149999999999999,-3.6));
#1120=DIRECTION('',(-1.0,0.0,0.0));
#1121=VECTOR('',#1120,0.5);
#1122=LINE('',#1119,#1121);
#1123=EDGE_CURVE('',#1089,#1018,#1122,.T.);
#1124=ORIENTED_EDGE('',*,*,#1123,.T.);
#1125=ORIENTED_EDGE('',*,*,#1047,.F.);
#1126=CARTESIAN_POINT('',(-2.79,0.149999999999999,0.5));
#1127=DIRECTION('',(1.0,0.0,0.0));
#1128=VECTOR('',#1127,0.5);
#1129=LINE('',#1126,#1128);
#1130=EDGE_CURVE('',#1036,#1097,#1129,.T.);
#1131=ORIENTED_EDGE('',*,*,#1130,.T.);
#1132=ORIENTED_EDGE('',*,*,#1102,.T.);
#1133=EDGE_LOOP('',(#1124,#1125,#1131,#1132));
#1134=FACE_OUTER_BOUND('',#1133,.T.);
#1135=ADVANCED_FACE('',(#1134),#1118,.T.);
#1136=CARTESIAN_POINT('',(-2.54,0.0,0.5));
#1137=DIRECTION('',(0.0,0.0,1.0));
#1138=DIRECTION('',(1.0,0.0,0.0));
#1139=AXIS2_PLACEMENT_3D('',#1136,#1137,#1138);
#1140=PLANE('',#1139);
#1141=ORIENTED_EDGE('',*,*,#1130,.F.);
#1142=ORIENTED_EDGE('',*,*,#1041,.F.);
#1143=ORIENTED_EDGE('',*,*,#1077,.F.);
#1144=ORIENTED_EDGE('',*,*,#1108,.F.);
#1145=EDGE_LOOP('',(#1141,#1142,#1143,#1144));
#1146=FACE_OUTER_BOUND('',#1145,.T.);
#1147=ADVANCED_FACE('',(#1146),#1140,.T.);
#1148=CARTESIAN_POINT('',(-2.54,0.0,-3.6));
#1149=DIRECTION('',(0.0,0.0,1.0));
#1150=DIRECTION('',(1.0,0.0,0.0));
#1151=AXIS2_PLACEMENT_3D('',#1148,#1149,#1150);
#1152=PLANE('',#1151);
#1153=ORIENTED_EDGE('',*,*,#1025,.F.);
#1154=ORIENTED_EDGE('',*,*,#1123,.F.);
#1155=ORIENTED_EDGE('',*,*,#1094,.F.);
#1156=ORIENTED_EDGE('',*,*,#1063,.F.);
#1157=EDGE_LOOP('',(#1153,#1154,#1155,#1156));
#1158=FACE_OUTER_BOUND('',#1157,.T.);
#1159=ADVANCED_FACE('',(#1158),#1152,.F.);
#1160=CLOSED_SHELL('',(#1051,#1082,#1113,#1135,#1147,#1159));
#1161=MANIFOLD_SOLID_BREP('11AE',#1160);
#1162=STYLED_ITEM('NONE',(#859),#1161);
#1163=ADVANCED_BREP_SHAPE_REPRESENTATION('ABSR1',(#152,#392,#550,#701,#852,#1010,#1161),#28);
#1164=SHAPE_REPRESENTATION_RELATIONSHIP('SRRPL1','',#1163,#62);
ENDSEC;
END-ISO-10303-21;
