ISO-10303-21;
HEADER;
/****************************************************************
 * Generated by software with PDElib inside                    *
 * PDElib Version v51a, created Wed 11/30/2011                  *
 * ITI Transcendata (http://www.transcendata.com/)              *
 ****************************************************************/
FILE_DESCRIPTION((''),'2;1');
FILE_NAME('DCDC_MURATA_MEJ2.stp','2014-12-18T11:23:49',(''),(''),'Mechanical Desktop 2011','Mechanical Desktop 2011',', , ');
FILE_SCHEMA(('AUTOMOTIVE_DESIGN { 1 2 10303 214 1 1 1 1 }'));
ENDSEC;
DATA;
#10=(NAMED_UNIT(*)PLANE_ANGLE_UNIT()SI_UNIT($,.RADIAN.));
#11=DIMENSIONAL_EXPONENTS(0.0,0.0,0.0,0.0,0.0,0.0,0.0);
#12=PLANE_ANGLE_MEASURE_WITH_UNIT(PLANE_ANGLE_MEASURE(0.0174532925),#10);
#16=(CONVERSION_BASED_UNIT('DEGREE',#12)NAMED_UNIT(#11)PLANE_ANGLE_UNIT());
#20=(NAMED_UNIT(*)SI_UNIT($,.STERADIAN.)SOLID_ANGLE_UNIT());
#24=(LENGTH_UNIT()NAMED_UNIT(*)SI_UNIT(.MILLI.,.METRE.));
#26=UNCERTAINTY_MEASURE_WITH_UNIT(LENGTH_MEASURE(0.000001),#24,'DISTANCE_ACCURACY_VALUE','');
#28=(GEOMETRIC_REPRESENTATION_CONTEXT(3)GLOBAL_UNCERTAINTY_ASSIGNED_CONTEXT((#26))GLOBAL_UNIT_ASSIGNED_CONTEXT((#16,#20,#24))REPRESENTATION_CONTEXT('','3D'));
#29=APPLICATION_CONTEXT('automotive design');
#30=APPLICATION_PROTOCOL_DEFINITION('INTERNATIONAL_STANDARD','automotive_design',1998,#29);
#31=PRODUCT_CONTEXT('3D Mechanical Parts',#29,'mechanical');
#32=PRODUCT('Product','Product','',(#31));
#33=PRODUCT_RELATED_PRODUCT_CATEGORY('part',$,(#32));
#34=PRODUCT_CATEGORY('part',$);
#35=PERSON('1','Design','Joe',$,$,$);
#36=ORGANIZATION($,'None','None');
#37=PERSON_AND_ORGANIZATION(#35,#36);
#38=PERSON_AND_ORGANIZATION_ROLE('design_owner');
#39=APPLIED_PERSON_AND_ORGANIZATION_ASSIGNMENT(#37,#38,(#32));
#40=PRODUCT_DEFINITION_FORMATION_WITH_SPECIFIED_SOURCE('None','',#32,.BOUGHT.);
#41=PERSON('2','Creator','Joe',$,$,$);
#42=ORGANIZATION($,'None','None');
#43=PERSON_AND_ORGANIZATION(#41,#42);
#44=PERSON_AND_ORGANIZATION_ROLE('creator');
#45=APPLIED_PERSON_AND_ORGANIZATION_ASSIGNMENT(#43,#44,(#40));
#46=PERSON('3','Supplier','Joe',$,$,$);
#47=ORGANIZATION($,'None','None');
#48=PERSON_AND_ORGANIZATION(#46,#47);
#49=PERSON_AND_ORGANIZATION_ROLE('design_supplier');
#50=APPLIED_PERSON_AND_ORGANIZATION_ASSIGNMENT(#48,#49,(#40));
#51=PRODUCT_DEFINITION_CONTEXT('part definition',#29,'design');
#52=PRODUCT_DEFINITION('None','',#40,#51);
#53=PERSON('4','Creator','Joe',$,$,$);
#54=ORGANIZATION($,'None','None');
#55=PERSON_AND_ORGANIZATION(#53,#54);
#56=PERSON_AND_ORGANIZATION_ROLE('creator');
#57=APPLIED_PERSON_AND_ORGANIZATION_ASSIGNMENT(#55,#56,(#52));
#58=CARTESIAN_POINT('NONE',(0.0,0.0,0.0));
#59=DIRECTION('NONE',(0.0,0.0,1.0));
#60=DIRECTION('NONE',(1.0,0.0,0.0));
#61=AXIS2_PLACEMENT_3D('NONE',#58,#59,#60);
#62=SHAPE_REPRESENTATION('SR1',(#61),#28);
#63=PRODUCT_DEFINITION_SHAPE('PDS1','Test Part',#52);
#64=SHAPE_DEFINITION_REPRESENTATION(#63,#62);
#65=CARTESIAN_POINT('',(-6.875,-4.975,2.5));
#66=DIRECTION('',(0.0,1.0,0.0));
#67=DIRECTION('',(1.0,0.0,0.0));
#68=AXIS2_PLACEMENT_3D('',#65,#66,#67);
#69=CYLINDRICAL_SURFACE('',#68,0.75);
#70=CARTESIAN_POINT('',(-6.125,-4.925,2.5));
#71=VERTEX_POINT('',#70);
#72=CARTESIAN_POINT('',(-6.125,-4.975,2.5));
#73=VERTEX_POINT('',#72);
#74=CARTESIAN_POINT('',(-6.125,-4.925,2.5));
#75=DIRECTION('',(0.0,-1.0,0.0));
#76=VECTOR('',#75,0.05);
#77=LINE('',#74,#76);
#78=EDGE_CURVE('',#71,#73,#77,.T.);
#79=ORIENTED_EDGE('',*,*,#78,.F.);
#80=CARTESIAN_POINT('',(-7.625,-4.925,2.5));
#81=VERTEX_POINT('',#80);
#82=CARTESIAN_POINT('',(-6.875,-4.925,2.5));
#83=DIRECTION('',(0.0,-1.0,0.0));
#84=DIRECTION('',(1.0,0.0,0.0));
#85=AXIS2_PLACEMENT_3D('',#82,#83,#84);
#86=CIRCLE('',#85,0.75);
#87=EDGE_CURVE('',#71,#81,#86,.T.);
#88=ORIENTED_EDGE('',*,*,#87,.T.);
#89=CARTESIAN_POINT('',(-7.625,-4.975,2.5));
#90=VERTEX_POINT('',#89);
#91=CARTESIAN_POINT('',(-7.625,-4.925,2.5));
#92=DIRECTION('',(0.0,-1.0,0.0));
#93=VECTOR('',#92,0.05);
#94=LINE('',#91,#93);
#95=EDGE_CURVE('',#81,#90,#94,.T.);
#96=ORIENTED_EDGE('',*,*,#95,.T.);
#97=CARTESIAN_POINT('',(-6.875,-4.975,2.5));
#98=DIRECTION('',(0.0,-1.0,0.0));
#99=DIRECTION('',(1.0,0.0,0.0));
#100=AXIS2_PLACEMENT_3D('',#97,#98,#99);
#101=CIRCLE('',#100,0.75);
#102=EDGE_CURVE('',#73,#90,#101,.T.);
#103=ORIENTED_EDGE('',*,*,#102,.F.);
#104=EDGE_LOOP('',(#79,#88,#96,#103));
#105=FACE_OUTER_BOUND('',#104,.T.);
#106=ADVANCED_FACE('',(#105),#69,.T.);
#107=CARTESIAN_POINT('',(-6.875,-4.975,2.5));
#108=DIRECTION('',(0.0,1.0,0.0));
#109=DIRECTION('',(1.0,0.0,0.0));
#110=AXIS2_PLACEMENT_3D('',#107,#108,#109);
#111=CYLINDRICAL_SURFACE('',#110,0.75);
#112=ORIENTED_EDGE('',*,*,#78,.T.);
#113=CARTESIAN_POINT('',(-6.875,-4.975,2.5));
#114=DIRECTION('',(0.0,-1.0,0.0));
#115=DIRECTION('',(1.0,0.0,0.0));
#116=AXIS2_PLACEMENT_3D('',#113,#114,#115);
#117=CIRCLE('',#116,0.75);
#118=EDGE_CURVE('',#90,#73,#117,.T.);
#119=ORIENTED_EDGE('',*,*,#118,.F.);
#120=ORIENTED_EDGE('',*,*,#95,.F.);
#121=CARTESIAN_POINT('',(-6.875,-4.925,2.5));
#122=DIRECTION('',(0.0,-1.0,0.0));
#123=DIRECTION('',(1.0,0.0,0.0));
#124=AXIS2_PLACEMENT_3D('',#121,#122,#123);
#125=CIRCLE('',#124,0.75);
#126=EDGE_CURVE('',#81,#71,#125,.T.);
#127=ORIENTED_EDGE('',*,*,#126,.T.);
#128=EDGE_LOOP('',(#112,#119,#120,#127));
#129=FACE_OUTER_BOUND('',#128,.T.);
#130=ADVANCED_FACE('',(#129),#111,.T.);
#131=CARTESIAN_POINT('',(-6.875,-4.925,2.5));
#132=DIRECTION('',(0.0,-1.0,0.0));
#133=DIRECTION('',(0.0,0.0,-1.0));
#134=AXIS2_PLACEMENT_3D('',#131,#132,#133);
#135=PLANE('',#134);
#136=ORIENTED_EDGE('',*,*,#87,.F.);
#137=ORIENTED_EDGE('',*,*,#126,.F.);
#138=EDGE_LOOP('',(#136,#137));
#139=FACE_OUTER_BOUND('',#138,.T.);
#140=ADVANCED_FACE('',(#139),#135,.F.);
#141=CARTESIAN_POINT('',(-6.875,-4.975,2.5));
#142=DIRECTION('',(0.0,-1.0,0.0));
#143=DIRECTION('',(0.0,0.0,-1.0));
#144=AXIS2_PLACEMENT_3D('',#141,#142,#143);
#145=PLANE('',#144);
#146=ORIENTED_EDGE('',*,*,#102,.T.);
#147=ORIENTED_EDGE('',*,*,#118,.T.);
#148=EDGE_LOOP('',(#146,#147));
#149=FACE_OUTER_BOUND('',#148,.T.);
#150=ADVANCED_FACE('',(#149),#145,.T.);
#151=CLOSED_SHELL('',(#106,#130,#140,#150));
#152=MANIFOLD_SOLID_BREP('2C6C',#151);
#153=DRAUGHTING_PRE_DEFINED_COLOUR('white');
#154=SURFACE_STYLE_USAGE(.BOTH.,#155);
#155=SURFACE_SIDE_STYLE('NONE',(#156));
#156=SURFACE_STYLE_FILL_AREA(#157);
#157=FILL_AREA_STYLE('NONE',(#158));
#158=FILL_AREA_STYLE_COLOUR('NONE',#153);
#159=PRESENTATION_STYLE_ASSIGNMENT((#154));
#160=STYLED_ITEM('NONE',(#159),#152);
#161=MECHANICAL_DESIGN_GEOMETRIC_PRESENTATION_REPRESENTATION('NONE',(#160,#400,#558,#709,#860,#1011,#1162),#28);
#162=PRESENTATION_LAYER_ASSIGNMENT('3D','None',(#152,#392,#550,#708,#859,#1010,#1161));
#163=CARTESIAN_POINT('',(-6.875,-4.975,2.5));
#164=DIRECTION('',(0.0,1.0,0.0));
#165=DIRECTION('',(1.0,0.0,0.0));
#166=AXIS2_PLACEMENT_3D('',#163,#164,#165);
#167=CYLINDRICAL_SURFACE('',#166,0.75);
#168=CARTESIAN_POINT('',(-6.125,-4.975,2.5));
#169=VERTEX_POINT('',#168);
#170=CARTESIAN_POINT('',(-6.125,-4.925,2.5));
#171=VERTEX_POINT('',#170);
#172=CARTESIAN_POINT('',(-6.125,-4.975,2.5));
#173=DIRECTION('',(0.0,1.0,0.0));
#174=VECTOR('',#173,0.05);
#175=LINE('',#172,#174);
#176=EDGE_CURVE('',#169,#171,#175,.T.);
#177=ORIENTED_EDGE('',*,*,#176,.F.);
#178=CARTESIAN_POINT('',(-7.625,-4.975,2.5));
#179=VERTEX_POINT('',#178);
#180=CARTESIAN_POINT('',(-6.875,-4.975,2.5));
#181=DIRECTION('',(0.0,1.0,0.0));
#182=DIRECTION('',(1.0,0.0,0.0));
#183=AXIS2_PLACEMENT_3D('',#180,#181,#182);
#184=CIRCLE('',#183,0.75);
#185=EDGE_CURVE('',#179,#169,#184,.T.);
#186=ORIENTED_EDGE('',*,*,#185,.F.);
#187=CARTESIAN_POINT('',(-7.625,-4.925,2.5));
#188=VERTEX_POINT('',#187);
#189=CARTESIAN_POINT('',(-7.625,-4.975,2.5));
#190=DIRECTION('',(0.0,1.0,0.0));
#191=VECTOR('',#190,0.05);
#192=LINE('',#189,#191);
#193=EDGE_CURVE('',#179,#188,#192,.T.);
#194=ORIENTED_EDGE('',*,*,#193,.T.);
#195=CARTESIAN_POINT('',(-6.875,-4.925,2.5));
#196=DIRECTION('',(0.0,-1.0,0.0));
#197=DIRECTION('',(1.0,0.0,0.0));
#198=AXIS2_PLACEMENT_3D('',#195,#196,#197);
#199=CIRCLE('',#198,0.75);
#200=EDGE_CURVE('',#171,#188,#199,.T.);
#201=ORIENTED_EDGE('',*,*,#200,.F.);
#202=EDGE_LOOP('',(#177,#186,#194,#201));
#203=FACE_OUTER_BOUND('',#202,.T.);
#204=ADVANCED_FACE('',(#203),#167,.F.);
#205=CARTESIAN_POINT('',(-6.875,-4.975,2.5));
#206=DIRECTION('',(0.0,1.0,0.0));
#207=DIRECTION('',(1.0,0.0,0.0));
#208=AXIS2_PLACEMENT_3D('',#205,#206,#207);
#209=CYLINDRICAL_SURFACE('',#208,0.75);
#210=ORIENTED_EDGE('',*,*,#176,.T.);
#211=CARTESIAN_POINT('',(-6.875,-4.925,2.5));
#212=DIRECTION('',(0.0,-1.0,0.0));
#213=DIRECTION('',(1.0,0.0,0.0));
#214=AXIS2_PLACEMENT_3D('',#211,#212,#213);
#215=CIRCLE('',#214,0.75);
#216=EDGE_CURVE('',#188,#171,#215,.T.);
#217=ORIENTED_EDGE('',*,*,#216,.F.);
#218=ORIENTED_EDGE('',*,*,#193,.F.);
#219=CARTESIAN_POINT('',(-6.875,-4.975,2.5));
#220=DIRECTION('',(0.0,1.0,0.0));
#221=DIRECTION('',(1.0,0.0,0.0));
#222=AXIS2_PLACEMENT_3D('',#219,#220,#221);
#223=CIRCLE('',#222,0.75);
#224=EDGE_CURVE('',#169,#179,#223,.T.);
#225=ORIENTED_EDGE('',*,*,#224,.F.);
#226=EDGE_LOOP('',(#210,#217,#218,#225));
#227=FACE_OUTER_BOUND('',#226,.T.);
#228=ADVANCED_FACE('',(#227),#209,.F.);
#229=CARTESIAN_POINT('',(-6.875,-4.925,2.5));
#230=DIRECTION('',(0.0,-1.0,0.0));
#231=DIRECTION('',(0.0,0.0,-1.0));
#232=AXIS2_PLACEMENT_3D('',#229,#230,#231);
#233=PLANE('',#232);
#234=ORIENTED_EDGE('',*,*,#200,.T.);
#235=ORIENTED_EDGE('',*,*,#216,.T.);
#236=EDGE_LOOP('',(#234,#235));
#237=FACE_OUTER_BOUND('',#236,.T.);
#238=ADVANCED_FACE('',(#237),#233,.T.);
#239=CARTESIAN_POINT('',(9.824999999999999,4.975,0.4));
#240=DIRECTION('',(1.0,0.0,0.0));
#241=DIRECTION('',(0.0,0.0,-1.0));
#242=AXIS2_PLACEMENT_3D('',#239,#240,#241);
#243=PLANE('',#242);
#244=CARTESIAN_POINT('',(9.824999999999999,4.975,12.65));
#245=VERTEX_POINT('',#244);
#246=CARTESIAN_POINT('',(9.824999999999999,-4.975,12.65));
#247=VERTEX_POINT('',#246);
#248=CARTESIAN_POINT('',(9.824999999999999,4.975,12.65));
#249=DIRECTION('',(0.0,-1.0,0.0));
#250=VECTOR('',#249,9.949999999999999);
#251=LINE('',#248,#250);
#252=EDGE_CURVE('',#245,#247,#251,.T.);
#253=ORIENTED_EDGE('',*,*,#252,.T.);
#254=CARTESIAN_POINT('',(9.824999999999999,-4.975,0.4));
#255=VERTEX_POINT('',#254);
#256=CARTESIAN_POINT('',(9.824999999999999,-4.975,0.4));
#257=DIRECTION('',(0.0,0.0,1.0));
#258=VECTOR('',#257,12.25);
#259=LINE('',#256,#258);
#260=EDGE_CURVE('',#255,#247,#259,.T.);
#261=ORIENTED_EDGE('',*,*,#260,.F.);
#262=CARTESIAN_POINT('',(9.824999999999999,4.975,0.4));
#263=VERTEX_POINT('',#262);
#264=CARTESIAN_POINT('',(9.824999999999999,4.975,0.4));
#265=DIRECTION('',(0.0,-1.0,0.0));
#266=VECTOR('',#265,9.949999999999999);
#267=LINE('',#264,#266);
#268=EDGE_CURVE('',#263,#255,#267,.T.);
#269=ORIENTED_EDGE('',*,*,#268,.F.);
#270=CARTESIAN_POINT('',(9.824999999999999,4.975,0.4));
#271=DIRECTION('',(0.0,0.0,1.0));
#272=VECTOR('',#271,12.25);
#273=LINE('',#270,#272);
#274=EDGE_CURVE('',#263,#245,#273,.T.);
#275=ORIENTED_EDGE('',*,*,#274,.T.);
#276=EDGE_LOOP('',(#253,#261,#269,#275));
#277=FACE_OUTER_BOUND('',#276,.T.);
#278=ADVANCED_FACE('',(#277),#243,.T.);
#279=CARTESIAN_POINT('',(9.824999999999999,-4.975,0.4));
#280=DIRECTION('',(0.0,-1.0,0.0));
#281=DIRECTION('',(0.0,0.0,-1.0));
#282=AXIS2_PLACEMENT_3D('',#279,#280,#281);
#283=PLANE('',#282);
#284=CARTESIAN_POINT('',(-9.824999999999999,-4.975,12.65));
#285=VERTEX_POINT('',#284);
#286=CARTESIAN_POINT('',(9.824999999999999,-4.975,12.65));
#287=DIRECTION('',(-1.0,0.0,0.0));
#288=VECTOR('',#287,19.649999999999999);
#289=LINE('',#286,#288);
#290=EDGE_CURVE('',#247,#285,#289,.T.);
#291=ORIENTED_EDGE('',*,*,#290,.T.);
#292=CARTESIAN_POINT('',(-9.824999999999999,-4.975,0.4));
#293=VERTEX_POINT('',#292);
#294=CARTESIAN_POINT('',(-9.824999999999999,-4.975,0.4));
#295=DIRECTION('',(0.0,0.0,1.0));
#296=VECTOR('',#295,12.25);
#297=LINE('',#294,#296);
#298=EDGE_CURVE('',#293,#285,#297,.T.);
#299=ORIENTED_EDGE('',*,*,#298,.F.);
#300=CARTESIAN_POINT('',(9.824999999999999,-4.975,0.4));
#301=DIRECTION('',(-1.0,0.0,0.0));
#302=VECTOR('',#301,19.649999999999999);
#303=LINE('',#300,#302);
#304=EDGE_CURVE('',#255,#293,#303,.T.);
#305=ORIENTED_EDGE('',*,*,#304,.F.);
#306=ORIENTED_EDGE('',*,*,#260,.T.);
#307=EDGE_LOOP('',(#291,#299,#305,#306));
#308=FACE_OUTER_BOUND('',#307,.T.);
#309=ORIENTED_EDGE('',*,*,#224,.T.);
#310=ORIENTED_EDGE('',*,*,#185,.T.);
#311=EDGE_LOOP('',(#309,#310));
#312=FACE_BOUND('',#311,.T.);
#313=ADVANCED_FACE('',(#308,#312),#283,.T.);
#314=CARTESIAN_POINT('',(-9.824999999999999,-4.975,0.4));
#315=DIRECTION('',(-1.0,0.0,0.0));
#316=DIRECTION('',(0.0,0.0,1.0));
#317=AXIS2_PLACEMENT_3D('',#314,#315,#316);
#318=PLANE('',#317);
#319=CARTESIAN_POINT('',(-9.824999999999999,4.975,12.65));
#320=VERTEX_POINT('',#319);
#321=CARTESIAN_POINT('',(-9.824999999999999,-4.975,12.65));
#322=DIRECTION('',(0.0,1.0,0.0));
#323=VECTOR('',#322,9.949999999999999);
#324=LINE('',#321,#323);
#325=EDGE_CURVE('',#285,#320,#324,.T.);
#326=ORIENTED_EDGE('',*,*,#325,.T.);
#327=CARTESIAN_POINT('',(-9.824999999999999,4.975,0.4));
#328=VERTEX_POINT('',#327);
#329=CARTESIAN_POINT('',(-9.824999999999999,4.975,0.4));
#330=DIRECTION('',(0.0,0.0,1.0));
#331=VECTOR('',#330,12.25);
#332=LINE('',#329,#331);
#333=EDGE_CURVE('',#328,#320,#332,.T.);
#334=ORIENTED_EDGE('',*,*,#333,.F.);
#335=CARTESIAN_POINT('',(-9.824999999999999,-4.975,0.4));
#336=DIRECTION('',(0.0,1.0,0.0));
#337=VECTOR('',#336,9.949999999999999);
#338=LINE('',#335,#337);
#339=EDGE_CURVE('',#293,#328,#338,.T.);
#340=ORIENTED_EDGE('',*,*,#339,.F.);
#341=ORIENTED_EDGE('',*,*,#298,.T.);
#342=EDGE_LOOP('',(#326,#334,#340,#341));
#343=FACE_OUTER_BOUND('',#342,.T.);
#344=ADVANCED_FACE('',(#343),#318,.T.);
#345=CARTESIAN_POINT('',(-9.824999999999999,4.975,0.4));
#346=DIRECTION('',(0.0,1.0,0.0));
#347=DIRECTION('',(0.0,0.0,1.0));
#348=AXIS2_PLACEMENT_3D('',#345,#346,#347);
#349=PLANE('',#348);
#350=CARTESIAN_POINT('',(-9.824999999999999,4.975,12.65));
#351=DIRECTION('',(1.0,0.0,0.0));
#352=VECTOR('',#351,19.649999999999999);
#353=LINE('',#350,#352);
#354=EDGE_CURVE('',#320,#245,#353,.T.);
#355=ORIENTED_EDGE('',*,*,#354,.T.);
#356=ORIENTED_EDGE('',*,*,#274,.F.);
#357=CARTESIAN_POINT('',(-9.824999999999999,4.975,0.4));
#358=DIRECTION('',(1.0,0.0,0.0));
#359=VECTOR('',#358,19.649999999999999);
#360=LINE('',#357,#359);
#361=EDGE_CURVE('',#328,#263,#360,.T.);
#362=ORIENTED_EDGE('',*,*,#361,.F.);
#363=ORIENTED_EDGE('',*,*,#333,.T.);
#364=EDGE_LOOP('',(#355,#356,#362,#363));
#365=FACE_OUTER_BOUND('',#364,.T.);
#366=ADVANCED_FACE('',(#365),#349,.T.);
#367=CARTESIAN_POINT('',(0.0,0.0,12.65));
#368=DIRECTION('',(0.0,0.0,1.0));
#369=DIRECTION('',(1.0,0.0,0.0));
#370=AXIS2_PLACEMENT_3D('',#367,#368,#369);
#371=PLANE('',#370);
#372=ORIENTED_EDGE('',*,*,#252,.F.);
#373=ORIENTED_EDGE('',*,*,#354,.F.);
#374=ORIENTED_EDGE('',*,*,#325,.F.);
#375=ORIENTED_EDGE('',*,*,#290,.F.);
#376=EDGE_LOOP('',(#372,#373,#374,#375));
#377=FACE_OUTER_BOUND('',#376,.T.);
#378=ADVANCED_FACE('',(#377),#371,.T.);
#379=CARTESIAN_POINT('',(0.0,0.0,0.4));
#380=DIRECTION('',(0.0,0.0,1.0));
#381=DIRECTION('',(1.0,0.0,0.0));
#382=AXIS2_PLACEMENT_3D('',#379,#380,#381);
#383=PLANE('',#382);
#384=ORIENTED_EDGE('',*,*,#361,.T.);
#385=ORIENTED_EDGE('',*,*,#268,.T.);
#386=ORIENTED_EDGE('',*,*,#304,.T.);
#387=ORIENTED_EDGE('',*,*,#339,.T.);
#388=EDGE_LOOP('',(#384,#385,#386,#387));
#389=FACE_OUTER_BOUND('',#388,.T.);
#390=ADVANCED_FACE('',(#389),#383,.F.);
#391=CLOSED_SHELL('',(#204,#228,#238,#278,#313,#344,#366,#378,#390));
#392=MANIFOLD_SOLID_BREP('2C63',#391);
#393=COLOUR_RGB('250',0.33,0.33,0.33);
#394=SURFACE_STYLE_USAGE(.BOTH.,#395);
#395=SURFACE_SIDE_STYLE('NONE',(#396));
#396=SURFACE_STYLE_FILL_AREA(#397);
#397=FILL_AREA_STYLE('NONE',(#398));
#398=FILL_AREA_STYLE_COLOUR('NONE',#393);
#399=PRESENTATION_STYLE_ASSIGNMENT((#394));
#400=STYLED_ITEM('NONE',(#399),#392);
#401=CARTESIAN_POINT('',(-6.600000000000001,2.325,0.4));
#402=DIRECTION('',(1.0,0.0,0.0));
#403=DIRECTION('',(0.0,0.0,1.0));
#404=AXIS2_PLACEMENT_3D('',#401,#402,#403);
#405=PLANE('',#404);
#406=CARTESIAN_POINT('',(-6.600000000000001,2.325,-3.6));
#407=VERTEX_POINT('',#406);
#408=CARTESIAN_POINT('',(-6.600000000000001,2.625000000000001,-3.6));
#409=VERTEX_POINT('',#408);
#410=CARTESIAN_POINT('',(-6.600000000000001,2.325,-3.6));
#411=DIRECTION('',(0.0,1.0,0.0));
#412=VECTOR('',#411,0.300000000000001);
#413=LINE('',#410,#412);
#414=EDGE_CURVE('',#407,#409,#413,.T.);
#415=ORIENTED_EDGE('',*,*,#414,.T.);
#416=CARTESIAN_POINT('',(-6.600000000000001,2.625000000000001,0.4));
#417=VERTEX_POINT('',#416);
#418=CARTESIAN_POINT('',(-6.600000000000001,2.625000000000001,0.4));
#419=DIRECTION('',(0.0,0.0,-1.0));
#420=VECTOR('',#419,4.0);
#421=LINE('',#418,#420);
#422=EDGE_CURVE('',#417,#409,#421,.T.);
#423=ORIENTED_EDGE('',*,*,#422,.F.);
#424=CARTESIAN_POINT('',(-6.600000000000001,2.325,0.4));
#425=VERTEX_POINT('',#424);
#426=CARTESIAN_POINT('',(-6.600000000000001,2.325,0.4));
#427=DIRECTION('',(0.0,1.0,0.0));
#428=VECTOR('',#427,0.300000000000001);
#429=LINE('',#426,#428);
#430=EDGE_CURVE('',#425,#417,#429,.T.);
#431=ORIENTED_EDGE('',*,*,#430,.F.);
#432=CARTESIAN_POINT('',(-6.600000000000001,2.325,0.4));
#433=DIRECTION('',(0.0,0.0,-1.0));
#434=VECTOR('',#433,4.0);
#435=LINE('',#432,#434);
#436=EDGE_CURVE('',#425,#407,#435,.T.);
#437=ORIENTED_EDGE('',*,*,#436,.T.);
#438=EDGE_LOOP('',(#415,#423,#431,#437));
#439=FACE_OUTER_BOUND('',#438,.T.);
#440=ADVANCED_FACE('',(#439),#405,.T.);
#441=CARTESIAN_POINT('',(-6.600000000000001,2.625000000000001,0.4));
#442=DIRECTION('',(0.0,1.0,0.0));
#443=DIRECTION('',(0.0,0.0,-1.0));
#444=AXIS2_PLACEMENT_3D('',#441,#442,#443);
#445=PLANE('',#444);
#446=CARTESIAN_POINT('',(-7.15,2.625000000000001,-3.6));
#447=VERTEX_POINT('',#446);
#448=CARTESIAN_POINT('',(-6.600000000000001,2.625000000000001,-3.6));
#449=DIRECTION('',(-1.0,0.0,0.0));
#450=VECTOR('',#449,0.549999999999999);
#451=LINE('',#448,#450);
#452=EDGE_CURVE('',#409,#447,#451,.T.);
#453=ORIENTED_EDGE('',*,*,#452,.T.);
#454=CARTESIAN_POINT('',(-7.15,2.625000000000001,0.4));
#455=VERTEX_POINT('',#454);
#456=CARTESIAN_POINT('',(-7.15,2.625000000000001,0.4));
#457=DIRECTION('',(0.0,0.0,-1.0));
#458=VECTOR('',#457,4.0);
#459=LINE('',#456,#458);
#460=EDGE_CURVE('',#455,#447,#459,.T.);
#461=ORIENTED_EDGE('',*,*,#460,.F.);
#462=CARTESIAN_POINT('',(-6.600000000000001,2.625000000000001,0.4));
#463=DIRECTION('',(-1.0,0.0,0.0));
#464=VECTOR('',#463,0.549999999999999);
#465=LINE('',#462,#464);
#466=EDGE_CURVE('',#417,#455,#465,.T.);
#467=ORIENTED_EDGE('',*,*,#466,.F.);
#468=ORIENTED_EDGE('',*,*,#422,.T.);
#469=EDGE_LOOP('',(#453,#461,#467,#468));
#470=FACE_OUTER_BOUND('',#469,.T.);
#471=ADVANCED_FACE('',(#470),#445,.T.);
#472=CARTESIAN_POINT('',(-7.15,2.625000000000001,0.4));
#473=DIRECTION('',(-1.0,0.0,0.0));
#474=DIRECTION('',(0.0,0.0,-1.0));
#475=AXIS2_PLACEMENT_3D('',#472,#473,#474);
#476=PLANE('',#475);
#477=CARTESIAN_POINT('',(-7.15,2.325,-3.6));
#478=VERTEX_POINT('',#477);
#479=CARTESIAN_POINT('',(-7.15,2.625000000000001,-3.6));
#480=DIRECTION('',(0.0,-1.0,0.0));
#481=VECTOR('',#480,0.300000000000001);
#482=LINE('',#479,#481);
#483=EDGE_CURVE('',#447,#478,#482,.T.);
#484=ORIENTED_EDGE('',*,*,#483,.T.);
#485=CARTESIAN_POINT('',(-7.15,2.325,0.4));
#486=VERTEX_POINT('',#485);
#487=CARTESIAN_POINT('',(-7.15,2.325,0.4));
#488=DIRECTION('',(0.0,0.0,-1.0));
#489=VECTOR('',#488,4.0);
#490=LINE('',#487,#489);
#491=EDGE_CURVE('',#486,#478,#490,.T.);
#492=ORIENTED_EDGE('',*,*,#491,.F.);
#493=CARTESIAN_POINT('',(-7.15,2.625000000000001,0.4));
#494=DIRECTION('',(0.0,-1.0,0.0));
#495=VECTOR('',#494,0.300000000000001);
#496=LINE('',#493,#495);
#497=EDGE_CURVE('',#455,#486,#496,.T.);
#498=ORIENTED_EDGE('',*,*,#497,.F.);
#499=ORIENTED_EDGE('',*,*,#460,.T.);
#500=EDGE_LOOP('',(#484,#492,#498,#499));
#501=FACE_OUTER_BOUND('',#500,.T.);
#502=ADVANCED_FACE('',(#501),#476,.T.);
#503=CARTESIAN_POINT('',(-7.15,2.325,0.4));
#504=DIRECTION('',(0.0,-1.0,0.0));
#505=DIRECTION('',(0.0,0.0,1.0));
#506=AXIS2_PLACEMENT_3D('',#503,#504,#505);
#507=PLANE('',#506);
#508=CARTESIAN_POINT('',(-7.15,2.325,-3.6));
#509=DIRECTION('',(1.0,0.0,0.0));
#510=VECTOR('',#509,0.549999999999999);
#511=LINE('',#508,#510);
#512=EDGE_CURVE('',#478,#407,#511,.T.);
#513=ORIENTED_EDGE('',*,*,#512,.T.);
#514=ORIENTED_EDGE('',*,*,#436,.F.);
#515=CARTESIAN_POINT('',(-7.15,2.325,0.4));
#516=DIRECTION('',(1.0,0.0,0.0));
#517=VECTOR('',#516,0.549999999999999);
#518=LINE('',#515,#517);
#519=EDGE_CURVE('',#486,#425,#518,.T.);
#520=ORIENTED_EDGE('',*,*,#519,.F.);
#521=ORIENTED_EDGE('',*,*,#491,.T.);
#522=EDGE_LOOP('',(#513,#514,#520,#521));
#523=FACE_OUTER_BOUND('',#522,.T.);
#524=ADVANCED_FACE('',(#523),#507,.T.);
#525=CARTESIAN_POINT('',(-6.875,2.475000000000001,-3.6));
#526=DIRECTION('',(0.0,0.0,1.0));
#527=DIRECTION('',(-1.0,0.0,0.0));
#528=AXIS2_PLACEMENT_3D('',#525,#526,#527);
#529=PLANE('',#528);
#530=ORIENTED_EDGE('',*,*,#414,.F.);
#531=ORIENTED_EDGE('',*,*,#512,.F.);
#532=ORIENTED_EDGE('',*,*,#483,.F.);
#533=ORIENTED_EDGE('',*,*,#452,.F.);
#534=EDGE_LOOP('',(#530,#531,#532,#533));
#535=FACE_OUTER_BOUND('',#534,.T.);
#536=ADVANCED_FACE('',(#535),#529,.F.);
#537=CARTESIAN_POINT('',(-6.875,2.475000000000001,0.4));
#538=DIRECTION('',(0.0,0.0,1.0));
#539=DIRECTION('',(-1.0,0.0,0.0));
#540=AXIS2_PLACEMENT_3D('',#537,#538,#539);
#541=PLANE('',#540);
#542=ORIENTED_EDGE('',*,*,#519,.T.);
#543=ORIENTED_EDGE('',*,*,#430,.T.);
#544=ORIENTED_EDGE('',*,*,#466,.T.);
#545=ORIENTED_EDGE('',*,*,#497,.T.);
#546=EDGE_LOOP('',(#542,#543,#544,#545));
#547=FACE_OUTER_BOUND('',#546,.T.);
#548=ADVANCED_FACE('',(#547),#541,.T.);
#549=CLOSED_SHELL('',(#440,#471,#502,#524,#536,#548));
#550=MANIFOLD_SOLID_BREP('2C34',#549);
#551=COLOUR_RGB('254',0.866,0.866,0.866);
#552=SURFACE_STYLE_USAGE(.BOTH.,#553);
#553=SURFACE_SIDE_STYLE('NONE',(#554));
#554=SURFACE_STYLE_FILL_AREA(#555);
#555=FILL_AREA_STYLE('NONE',(#556));
#556=FILL_AREA_STYLE_COLOUR('NONE',#551);
#557=PRESENTATION_STYLE_ASSIGNMENT((#552));
#558=STYLED_ITEM('NONE',(#557),#550);
#559=CARTESIAN_POINT('',(-4.060000000000001,2.325000000000002,0.4));
#560=DIRECTION('',(1.0,0.0,0.0));
#561=DIRECTION('',(0.0,0.0,1.0));
#562=AXIS2_PLACEMENT_3D('',#559,#560,#561);
#563=PLANE('',#562);
#564=CARTESIAN_POINT('',(-4.060000000000001,2.325000000000002,-3.6));
#565=VERTEX_POINT('',#564);
#566=CARTESIAN_POINT('',(-4.060000000000001,2.625000000000002,-3.6));
#567=VERTEX_POINT('',#566);
#568=CARTESIAN_POINT('',(-4.060000000000001,2.325000000000002,-3.6));
#569=DIRECTION('',(0.0,1.0,0.0));
#570=VECTOR('',#569,0.300000000000001);
#571=LINE('',#568,#570);
#572=EDGE_CURVE('',#565,#567,#571,.T.);
#573=ORIENTED_EDGE('',*,*,#572,.T.);
#574=CARTESIAN_POINT('',(-4.060000000000001,2.625000000000002,0.4));
#575=VERTEX_POINT('',#574);
#576=CARTESIAN_POINT('',(-4.060000000000001,2.625000000000002,0.4));
#577=DIRECTION('',(0.0,0.0,-1.0));
#578=VECTOR('',#577,4.0);
#579=LINE('',#576,#578);
#580=EDGE_CURVE('',#575,#567,#579,.T.);
#581=ORIENTED_EDGE('',*,*,#580,.F.);
#582=CARTESIAN_POINT('',(-4.060000000000001,2.325000000000002,0.4));
#583=VERTEX_POINT('',#582);
#584=CARTESIAN_POINT('',(-4.060000000000001,2.325000000000002,0.4));
#585=DIRECTION('',(0.0,1.0,0.0));
#586=VECTOR('',#585,0.300000000000001);
#587=LINE('',#584,#586);
#588=EDGE_CURVE('',#583,#575,#587,.T.);
#589=ORIENTED_EDGE('',*,*,#588,.F.);
#590=CARTESIAN_POINT('',(-4.060000000000001,2.325000000000002,0.4));
#591=DIRECTION('',(0.0,0.0,-1.0));
#592=VECTOR('',#591,4.0);
#593=LINE('',#590,#592);
#594=EDGE_CURVE('',#583,#565,#593,.T.);
#595=ORIENTED_EDGE('',*,*,#594,.T.);
#596=EDGE_LOOP('',(#573,#581,#589,#595));
#597=FACE_OUTER_BOUND('',#596,.T.);
#598=ADVANCED_FACE('',(#597),#563,.T.);
#599=CARTESIAN_POINT('',(-4.060000000000001,2.625000000000002,0.4));
#600=DIRECTION('',(0.0,1.0,0.0));
#601=DIRECTION('',(0.0,0.0,-1.0));
#602=AXIS2_PLACEMENT_3D('',#599,#600,#601);
#603=PLANE('',#602);
#604=CARTESIAN_POINT('',(-4.609999999999999,2.625000000000002,-3.6));
#605=VERTEX_POINT('',#604);
#606=CARTESIAN_POINT('',(-4.060000000000001,2.625000000000002,-3.6));
#607=DIRECTION('',(-1.0,0.0,0.0));
#608=VECTOR('',#607,0.549999999999999);
#609=LINE('',#606,#608);
#610=EDGE_CURVE('',#567,#605,#609,.T.);
#611=ORIENTED_EDGE('',*,*,#610,.T.);
#612=CARTESIAN_POINT('',(-4.609999999999999,2.625000000000002,0.4));
#613=VERTEX_POINT('',#612);
#614=CARTESIAN_POINT('',(-4.609999999999999,2.625000000000002,0.4));
#615=DIRECTION('',(0.0,0.0,-1.0));
#616=VECTOR('',#615,4.0);
#617=LINE('',#614,#616);
#618=EDGE_CURVE('',#613,#605,#617,.T.);
#619=ORIENTED_EDGE('',*,*,#618,.F.);
#620=CARTESIAN_POINT('',(-4.060000000000001,2.625000000000002,0.4));
#621=DIRECTION('',(-1.0,0.0,0.0));
#622=VECTOR('',#621,0.549999999999999);
#623=LINE('',#620,#622);
#624=EDGE_CURVE('',#575,#613,#623,.T.);
#625=ORIENTED_EDGE('',*,*,#624,.F.);
#626=ORIENTED_EDGE('',*,*,#580,.T.);
#627=EDGE_LOOP('',(#611,#619,#625,#626));
#628=FACE_OUTER_BOUND('',#627,.T.);
#629=ADVANCED_FACE('',(#628),#603,.T.);
#630=CARTESIAN_POINT('',(-4.609999999999999,2.625000000000002,0.4));
#631=DIRECTION('',(-1.0,0.0,0.0));
#632=DIRECTION('',(0.0,0.0,-1.0));
#633=AXIS2_PLACEMENT_3D('',#630,#631,#632);
#634=PLANE('',#633);
#635=CARTESIAN_POINT('',(-4.609999999999999,2.325000000000002,-3.6));
#636=VERTEX_POINT('',#635);
#637=CARTESIAN_POINT('',(-4.609999999999999,2.625000000000002,-3.6));
#638=DIRECTION('',(0.0,-1.0,0.0));
#639=VECTOR('',#638,0.300000000000001);
#640=LINE('',#637,#639);
#641=EDGE_CURVE('',#605,#636,#640,.T.);
#642=ORIENTED_EDGE('',*,*,#641,.T.);
#643=CARTESIAN_POINT('',(-4.609999999999999,2.325000000000002,0.4));
#644=VERTEX_POINT('',#643);
#645=CARTESIAN_POINT('',(-4.609999999999999,2.325000000000002,0.4));
#646=DIRECTION('',(0.0,0.0,-1.0));
#647=VECTOR('',#646,4.0);
#648=LINE('',#645,#647);
#649=EDGE_CURVE('',#644,#636,#648,.T.);
#650=ORIENTED_EDGE('',*,*,#649,.F.);
#651=CARTESIAN_POINT('',(-4.609999999999999,2.625000000000002,0.4));
#652=DIRECTION('',(0.0,-1.0,0.0));
#653=VECTOR('',#652,0.300000000000001);
#654=LINE('',#651,#653);
#655=EDGE_CURVE('',#613,#644,#654,.T.);
#656=ORIENTED_EDGE('',*,*,#655,.F.);
#657=ORIENTED_EDGE('',*,*,#618,.T.);
#658=EDGE_LOOP('',(#642,#650,#656,#657));
#659=FACE_OUTER_BOUND('',#658,.T.);
#660=ADVANCED_FACE('',(#659),#634,.T.);
#661=CARTESIAN_POINT('',(-4.609999999999999,2.325000000000002,0.4));
#662=DIRECTION('',(0.0,-1.0,0.0));
#663=DIRECTION('',(0.0,0.0,1.0));
#664=AXIS2_PLACEMENT_3D('',#661,#662,#663);
#665=PLANE('',#664);
#666=CARTESIAN_POINT('',(-4.609999999999999,2.325000000000002,-3.6));
#667=DIRECTION('',(1.0,0.0,0.0));
#668=VECTOR('',#667,0.549999999999999);
#669=LINE('',#666,#668);
#670=EDGE_CURVE('',#636,#565,#669,.T.);
#671=ORIENTED_EDGE('',*,*,#670,.T.);
#672=ORIENTED_EDGE('',*,*,#594,.F.);
#673=CARTESIAN_POINT('',(-4.609999999999999,2.325000000000002,0.4));
#674=DIRECTION('',(1.0,0.0,0.0));
#675=VECTOR('',#674,0.549999999999999);
#676=LINE('',#673,#675);
#677=EDGE_CURVE('',#644,#583,#676,.T.);
#678=ORIENTED_EDGE('',*,*,#677,.F.);
#679=ORIENTED_EDGE('',*,*,#649,.T.);
#680=EDGE_LOOP('',(#671,#672,#678,#679));
#681=FACE_OUTER_BOUND('',#680,.T.);
#682=ADVANCED_FACE('',(#681),#665,.T.);
#683=CARTESIAN_POINT('',(-4.334999999999999,2.475000000000002,-3.6));
#684=DIRECTION('',(0.0,0.0,1.0));
#685=DIRECTION('',(-1.0,0.0,0.0));
#686=AXIS2_PLACEMENT_3D('',#683,#684,#685);
#687=PLANE('',#686);
#688=ORIENTED_EDGE('',*,*,#572,.F.);
#689=ORIENTED_EDGE('',*,*,#670,.F.);
#690=ORIENTED_EDGE('',*,*,#641,.F.);
#691=ORIENTED_EDGE('',*,*,#610,.F.);
#692=EDGE_LOOP('',(#688,#689,#690,#691));
#693=FACE_OUTER_BOUND('',#692,.T.);
#694=ADVANCED_FACE('',(#693),#687,.F.);
#695=CARTESIAN_POINT('',(-4.334999999999999,2.475000000000002,0.4));
#696=DIRECTION('',(0.0,0.0,1.0));
#697=DIRECTION('',(-1.0,0.0,0.0));
#698=AXIS2_PLACEMENT_3D('',#695,#696,#697);
#699=PLANE('',#698);
#700=ORIENTED_EDGE('',*,*,#677,.T.);
#701=ORIENTED_EDGE('',*,*,#588,.T.);
#702=ORIENTED_EDGE('',*,*,#624,.T.);
#703=ORIENTED_EDGE('',*,*,#655,.T.);
#704=EDGE_LOOP('',(#700,#701,#702,#703));
#705=FACE_OUTER_BOUND('',#704,.T.);
#706=ADVANCED_FACE('',(#705),#699,.T.);
#707=CLOSED_SHELL('',(#598,#629,#660,#682,#694,#706));
#708=MANIFOLD_SOLID_BREP('2C30',#707);
#709=STYLED_ITEM('NONE',(#557),#708);
#710=CARTESIAN_POINT('',(3.559999999999999,2.325,0.4));
#711=DIRECTION('',(1.0,0.0,0.0));
#712=DIRECTION('',(0.0,0.0,1.0));
#713=AXIS2_PLACEMENT_3D('',#710,#711,#712);
#714=PLANE('',#713);
#715=CARTESIAN_POINT('',(3.559999999999999,2.325,-3.6));
#716=VERTEX_POINT('',#715);
#717=CARTESIAN_POINT('',(3.559999999999999,2.625000000000001,-3.6));
#718=VERTEX_POINT('',#717);
#719=CARTESIAN_POINT('',(3.559999999999999,2.325,-3.6));
#720=DIRECTION('',(0.0,1.0,0.0));
#721=VECTOR('',#720,0.300000000000001);
#722=LINE('',#719,#721);
#723=EDGE_CURVE('',#716,#718,#722,.T.);
#724=ORIENTED_EDGE('',*,*,#723,.T.);
#725=CARTESIAN_POINT('',(3.559999999999999,2.625000000000001,0.4));
#726=VERTEX_POINT('',#725);
#727=CARTESIAN_POINT('',(3.559999999999999,2.625000000000001,0.4));
#728=DIRECTION('',(0.0,0.0,-1.0));
#729=VECTOR('',#728,4.0);
#730=LINE('',#727,#729);
#731=EDGE_CURVE('',#726,#718,#730,.T.);
#732=ORIENTED_EDGE('',*,*,#731,.F.);
#733=CARTESIAN_POINT('',(3.559999999999999,2.325,0.4));
#734=VERTEX_POINT('',#733);
#735=CARTESIAN_POINT('',(3.559999999999999,2.325,0.4));
#736=DIRECTION('',(0.0,1.0,0.0));
#737=VECTOR('',#736,0.300000000000001);
#738=LINE('',#735,#737);
#739=EDGE_CURVE('',#734,#726,#738,.T.);
#740=ORIENTED_EDGE('',*,*,#739,.F.);
#741=CARTESIAN_POINT('',(3.559999999999999,2.325,0.4));
#742=DIRECTION('',(0.0,0.0,-1.0));
#743=VECTOR('',#742,4.0);
#744=LINE('',#741,#743);
#745=EDGE_CURVE('',#734,#716,#744,.T.);
#746=ORIENTED_EDGE('',*,*,#745,.T.);
#747=EDGE_LOOP('',(#724,#732,#740,#746));
#748=FACE_OUTER_BOUND('',#747,.T.);
#749=ADVANCED_FACE('',(#748),#714,.T.);
#750=CARTESIAN_POINT('',(3.559999999999999,2.625000000000001,0.4));
#751=DIRECTION('',(0.0,1.0,0.0));
#752=DIRECTION('',(0.0,0.0,-1.0));
#753=AXIS2_PLACEMENT_3D('',#750,#751,#752);
#754=PLANE('',#753);
#755=CARTESIAN_POINT('',(3.01,2.625000000000001,-3.6));
#756=VERTEX_POINT('',#755);
#757=CARTESIAN_POINT('',(3.559999999999999,2.625000000000001,-3.6));
#758=DIRECTION('',(-1.0,0.0,0.0));
#759=VECTOR('',#758,0.549999999999999);
#760=LINE('',#757,#759);
#761=EDGE_CURVE('',#718,#756,#760,.T.);
#762=ORIENTED_EDGE('',*,*,#761,.T.);
#763=CARTESIAN_POINT('',(3.01,2.625000000000001,0.4));
#764=VERTEX_POINT('',#763);
#765=CARTESIAN_POINT('',(3.01,2.625000000000001,0.4));
#766=DIRECTION('',(0.0,0.0,-1.0));
#767=VECTOR('',#766,4.0);
#768=LINE('',#765,#767);
#769=EDGE_CURVE('',#764,#756,#768,.T.);
#770=ORIENTED_EDGE('',*,*,#769,.F.);
#771=CARTESIAN_POINT('',(3.559999999999999,2.625000000000001,0.4));
#772=DIRECTION('',(-1.0,0.0,0.0));
#773=VECTOR('',#772,0.549999999999999);
#774=LINE('',#771,#773);
#775=EDGE_CURVE('',#726,#764,#774,.T.);
#776=ORIENTED_EDGE('',*,*,#775,.F.);
#777=ORIENTED_EDGE('',*,*,#731,.T.);
#778=EDGE_LOOP('',(#762,#770,#776,#777));
#779=FACE_OUTER_BOUND('',#778,.T.);
#780=ADVANCED_FACE('',(#779),#754,.T.);
#781=CARTESIAN_POINT('',(3.01,2.625000000000001,0.4));
#782=DIRECTION('',(-1.0,0.0,0.0));
#783=DIRECTION('',(0.0,0.0,-1.0));
#784=AXIS2_PLACEMENT_3D('',#781,#782,#783);
#785=PLANE('',#784);
#786=CARTESIAN_POINT('',(3.01,2.325,-3.6));
#787=VERTEX_POINT('',#786);
#788=CARTESIAN_POINT('',(3.01,2.625000000000001,-3.6));
#789=DIRECTION('',(0.0,-1.0,0.0));
#790=VECTOR('',#789,0.300000000000001);
#791=LINE('',#788,#790);
#792=EDGE_CURVE('',#756,#787,#791,.T.);
#793=ORIENTED_EDGE('',*,*,#792,.T.);
#794=CARTESIAN_POINT('',(3.01,2.325,0.4));
#795=VERTEX_POINT('',#794);
#796=CARTESIAN_POINT('',(3.01,2.325,0.4));
#797=DIRECTION('',(0.0,0.0,-1.0));
#798=VECTOR('',#797,4.0);
#799=LINE('',#796,#798);
#800=EDGE_CURVE('',#795,#787,#799,.T.);
#801=ORIENTED_EDGE('',*,*,#800,.F.);
#802=CARTESIAN_POINT('',(3.01,2.625000000000001,0.4));
#803=DIRECTION('',(0.0,-1.0,0.0));
#804=VECTOR('',#803,0.300000000000001);
#805=LINE('',#802,#804);
#806=EDGE_CURVE('',#764,#795,#805,.T.);
#807=ORIENTED_EDGE('',*,*,#806,.F.);
#808=ORIENTED_EDGE('',*,*,#769,.T.);
#809=EDGE_LOOP('',(#793,#801,#807,#808));
#810=FACE_OUTER_BOUND('',#809,.T.);
#811=ADVANCED_FACE('',(#810),#785,.T.);
#812=CARTESIAN_POINT('',(3.01,2.325,0.4));
#813=DIRECTION('',(0.0,-1.0,0.0));
#814=DIRECTION('',(0.0,0.0,1.0));
#815=AXIS2_PLACEMENT_3D('',#812,#813,#814);
#816=PLANE('',#815);
#817=CARTESIAN_POINT('',(3.01,2.325,-3.6));
#818=DIRECTION('',(1.0,0.0,0.0));
#819=VECTOR('',#818,0.549999999999999);
#820=LINE('',#817,#819);
#821=EDGE_CURVE('',#787,#716,#820,.T.);
#822=ORIENTED_EDGE('',*,*,#821,.T.);
#823=ORIENTED_EDGE('',*,*,#745,.F.);
#824=CARTESIAN_POINT('',(3.01,2.325,0.4));
#825=DIRECTION('',(1.0,0.0,0.0));
#826=VECTOR('',#825,0.549999999999999);
#827=LINE('',#824,#826);
#828=EDGE_CURVE('',#795,#734,#827,.T.);
#829=ORIENTED_EDGE('',*,*,#828,.F.);
#830=ORIENTED_EDGE('',*,*,#800,.T.);
#831=EDGE_LOOP('',(#822,#823,#829,#830));
#832=FACE_OUTER_BOUND('',#831,.T.);
#833=ADVANCED_FACE('',(#832),#816,.T.);
#834=CARTESIAN_POINT('',(3.285000000000001,2.475000000000001,-3.6));
#835=DIRECTION('',(0.0,0.0,1.0));
#836=DIRECTION('',(-1.0,0.0,0.0));
#837=AXIS2_PLACEMENT_3D('',#834,#835,#836);
#838=PLANE('',#837);
#839=ORIENTED_EDGE('',*,*,#723,.F.);
#840=ORIENTED_EDGE('',*,*,#821,.F.);
#841=ORIENTED_EDGE('',*,*,#792,.F.);
#842=ORIENTED_EDGE('',*,*,#761,.F.);
#843=EDGE_LOOP('',(#839,#840,#841,#842));
#844=FACE_OUTER_BOUND('',#843,.T.);
#845=ADVANCED_FACE('',(#844),#838,.F.);
#846=CARTESIAN_POINT('',(3.285000000000001,2.475000000000001,0.4));
#847=DIRECTION('',(0.0,0.0,1.0));
#848=DIRECTION('',(-1.0,0.0,0.0));
#849=AXIS2_PLACEMENT_3D('',#846,#847,#848);
#850=PLANE('',#849);
#851=ORIENTED_EDGE('',*,*,#828,.T.);
#852=ORIENTED_EDGE('',*,*,#739,.T.);
#853=ORIENTED_EDGE('',*,*,#775,.T.);
#854=ORIENTED_EDGE('',*,*,#806,.T.);
#855=EDGE_LOOP('',(#851,#852,#853,#854));
#856=FACE_OUTER_BOUND('',#855,.T.);
#857=ADVANCED_FACE('',(#856),#850,.T.);
#858=CLOSED_SHELL('',(#749,#780,#811,#833,#845,#857));
#859=MANIFOLD_SOLID_BREP('2C2C',#858);
#860=STYLED_ITEM('NONE',(#557),#859);
#861=CARTESIAN_POINT('',(6.1,2.325,0.4));
#862=DIRECTION('',(1.0,0.0,0.0));
#863=DIRECTION('',(0.0,0.0,1.0));
#864=AXIS2_PLACEMENT_3D('',#861,#862,#863);
#865=PLANE('',#864);
#866=CARTESIAN_POINT('',(6.1,2.325,-3.6));
#867=VERTEX_POINT('',#866);
#868=CARTESIAN_POINT('',(6.1,2.625000000000001,-3.6));
#869=VERTEX_POINT('',#868);
#870=CARTESIAN_POINT('',(6.1,2.325,-3.6));
#871=DIRECTION('',(0.0,1.0,0.0));
#872=VECTOR('',#871,0.300000000000001);
#873=LINE('',#870,#872);
#874=EDGE_CURVE('',#867,#869,#873,.T.);
#875=ORIENTED_EDGE('',*,*,#874,.T.);
#876=CARTESIAN_POINT('',(6.1,2.625000000000001,0.4));
#877=VERTEX_POINT('',#876);
#878=CARTESIAN_POINT('',(6.1,2.625000000000001,0.4));
#879=DIRECTION('',(0.0,0.0,-1.0));
#880=VECTOR('',#879,4.0);
#881=LINE('',#878,#880);
#882=EDGE_CURVE('',#877,#869,#881,.T.);
#883=ORIENTED_EDGE('',*,*,#882,.F.);
#884=CARTESIAN_POINT('',(6.1,2.325,0.4));
#885=VERTEX_POINT('',#884);
#886=CARTESIAN_POINT('',(6.1,2.325,0.4));
#887=DIRECTION('',(0.0,1.0,0.0));
#888=VECTOR('',#887,0.300000000000001);
#889=LINE('',#886,#888);
#890=EDGE_CURVE('',#885,#877,#889,.T.);
#891=ORIENTED_EDGE('',*,*,#890,.F.);
#892=CARTESIAN_POINT('',(6.1,2.325,0.4));
#893=DIRECTION('',(0.0,0.0,-1.0));
#894=VECTOR('',#893,4.0);
#895=LINE('',#892,#894);
#896=EDGE_CURVE('',#885,#867,#895,.T.);
#897=ORIENTED_EDGE('',*,*,#896,.T.);
#898=EDGE_LOOP('',(#875,#883,#891,#897));
#899=FACE_OUTER_BOUND('',#898,.T.);
#900=ADVANCED_FACE('',(#899),#865,.T.);
#901=CARTESIAN_POINT('',(6.1,2.625000000000001,0.4));
#902=DIRECTION('',(0.0,1.0,0.0));
#903=DIRECTION('',(0.0,0.0,-1.0));
#904=AXIS2_PLACEMENT_3D('',#901,#902,#903);
#905=PLANE('',#904);
#906=CARTESIAN_POINT('',(5.550000000000001,2.625000000000001,-3.6));
#907=VERTEX_POINT('',#906);
#908=CARTESIAN_POINT('',(6.1,2.625000000000001,-3.6));
#909=DIRECTION('',(-1.0,0.0,0.0));
#910=VECTOR('',#909,0.549999999999999);
#911=LINE('',#908,#910);
#912=EDGE_CURVE('',#869,#907,#911,.T.);
#913=ORIENTED_EDGE('',*,*,#912,.T.);
#914=CARTESIAN_POINT('',(5.550000000000001,2.625000000000001,0.4));
#915=VERTEX_POINT('',#914);
#916=CARTESIAN_POINT('',(5.550000000000001,2.625000000000001,0.4));
#917=DIRECTION('',(0.0,0.0,-1.0));
#918=VECTOR('',#917,4.0);
#919=LINE('',#916,#918);
#920=EDGE_CURVE('',#915,#907,#919,.T.);
#921=ORIENTED_EDGE('',*,*,#920,.F.);
#922=CARTESIAN_POINT('',(6.1,2.625000000000001,0.4));
#923=DIRECTION('',(-1.0,0.0,0.0));
#924=VECTOR('',#923,0.549999999999999);
#925=LINE('',#922,#924);
#926=EDGE_CURVE('',#877,#915,#925,.T.);
#927=ORIENTED_EDGE('',*,*,#926,.F.);
#928=ORIENTED_EDGE('',*,*,#882,.T.);
#929=EDGE_LOOP('',(#913,#921,#927,#928));
#930=FACE_OUTER_BOUND('',#929,.T.);
#931=ADVANCED_FACE('',(#930),#905,.T.);
#932=CARTESIAN_POINT('',(5.550000000000001,2.625000000000001,0.4));
#933=DIRECTION('',(-1.0,0.0,0.0));
#934=DIRECTION('',(0.0,0.0,-1.0));
#935=AXIS2_PLACEMENT_3D('',#932,#933,#934);
#936=PLANE('',#935);
#937=CARTESIAN_POINT('',(5.550000000000001,2.325,-3.6));
#938=VERTEX_POINT('',#937);
#939=CARTESIAN_POINT('',(5.550000000000001,2.625000000000001,-3.6));
#940=DIRECTION('',(0.0,-1.0,0.0));
#941=VECTOR('',#940,0.300000000000001);
#942=LINE('',#939,#941);
#943=EDGE_CURVE('',#907,#938,#942,.T.);
#944=ORIENTED_EDGE('',*,*,#943,.T.);
#945=CARTESIAN_POINT('',(5.550000000000001,2.325,0.4));
#946=VERTEX_POINT('',#945);
#947=CARTESIAN_POINT('',(5.550000000000001,2.325,0.4));
#948=DIRECTION('',(0.0,0.0,-1.0));
#949=VECTOR('',#948,4.0);
#950=LINE('',#947,#949);
#951=EDGE_CURVE('',#946,#938,#950,.T.);
#952=ORIENTED_EDGE('',*,*,#951,.F.);
#953=CARTESIAN_POINT('',(5.550000000000001,2.625000000000001,0.4));
#954=DIRECTION('',(0.0,-1.0,0.0));
#955=VECTOR('',#954,0.300000000000001);
#956=LINE('',#953,#955);
#957=EDGE_CURVE('',#915,#946,#956,.T.);
#958=ORIENTED_EDGE('',*,*,#957,.F.);
#959=ORIENTED_EDGE('',*,*,#920,.T.);
#960=EDGE_LOOP('',(#944,#952,#958,#959));
#961=FACE_OUTER_BOUND('',#960,.T.);
#962=ADVANCED_FACE('',(#961),#936,.T.);
#963=CARTESIAN_POINT('',(5.550000000000001,2.325,0.4));
#964=DIRECTION('',(0.0,-1.0,0.0));
#965=DIRECTION('',(0.0,0.0,1.0));
#966=AXIS2_PLACEMENT_3D('',#963,#964,#965);
#967=PLANE('',#966);
#968=CARTESIAN_POINT('',(5.550000000000001,2.325,-3.6));
#969=DIRECTION('',(1.0,0.0,0.0));
#970=VECTOR('',#969,0.549999999999999);
#971=LINE('',#968,#970);
#972=EDGE_CURVE('',#938,#867,#971,.T.);
#973=ORIENTED_EDGE('',*,*,#972,.T.);
#974=ORIENTED_EDGE('',*,*,#896,.F.);
#975=CARTESIAN_POINT('',(5.550000000000001,2.325,0.4));
#976=DIRECTION('',(1.0,0.0,0.0));
#977=VECTOR('',#976,0.549999999999999);
#978=LINE('',#975,#977);
#979=EDGE_CURVE('',#946,#885,#978,.T.);
#980=ORIENTED_EDGE('',*,*,#979,.F.);
#981=ORIENTED_EDGE('',*,*,#951,.T.);
#982=EDGE_LOOP('',(#973,#974,#980,#981));
#983=FACE_OUTER_BOUND('',#982,.T.);
#984=ADVANCED_FACE('',(#983),#967,.T.);
#985=CARTESIAN_POINT('',(5.825000000000001,2.475000000000001,-3.6));
#986=DIRECTION('',(0.0,0.0,1.0));
#987=DIRECTION('',(-1.0,0.0,0.0));
#988=AXIS2_PLACEMENT_3D('',#985,#986,#987);
#989=PLANE('',#988);
#990=ORIENTED_EDGE('',*,*,#874,.F.);
#991=ORIENTED_EDGE('',*,*,#972,.F.);
#992=ORIENTED_EDGE('',*,*,#943,.F.);
#993=ORIENTED_EDGE('',*,*,#912,.F.);
#994=EDGE_LOOP('',(#990,#991,#992,#993));
#995=FACE_OUTER_BOUND('',#994,.T.);
#996=ADVANCED_FACE('',(#995),#989,.F.);
#997=CARTESIAN_POINT('',(5.825000000000001,2.475000000000001,0.4));
#998=DIRECTION('',(0.0,0.0,1.0));
#999=DIRECTION('',(-1.0,0.0,0.0));
#1000=AXIS2_PLACEMENT_3D('',#997,#998,#999);
#1001=PLANE('',#1000);
#1002=ORIENTED_EDGE('',*,*,#979,.T.);
#1003=ORIENTED_EDGE('',*,*,#890,.T.);
#1004=ORIENTED_EDGE('',*,*,#926,.T.);
#1005=ORIENTED_EDGE('',*,*,#957,.T.);
#1006=EDGE_LOOP('',(#1002,#1003,#1004,#1005));
#1007=FACE_OUTER_BOUND('',#1006,.T.);
#1008=ADVANCED_FACE('',(#1007),#1001,.T.);
#1009=CLOSED_SHELL('',(#900,#931,#962,#984,#996,#1008));
#1010=MANIFOLD_SOLID_BREP('2C28',#1009);
#1011=STYLED_ITEM('NONE',(#557),#1010);
#1012=CARTESIAN_POINT('',(8.640000000000001,2.325,0.4));
#1013=DIRECTION('',(1.0,0.0,0.0));
#1014=DIRECTION('',(0.0,0.0,1.0));
#1015=AXIS2_PLACEMENT_3D('',#1012,#1013,#1014);
#1016=PLANE('',#1015);
#1017=CARTESIAN_POINT('',(8.640000000000001,2.325,-3.6));
#1018=VERTEX_POINT('',#1017);
#1019=CARTESIAN_POINT('',(8.640000000000001,2.625000000000001,-3.6));
#1020=VERTEX_POINT('',#1019);
#1021=CARTESIAN_POINT('',(8.640000000000001,2.325,-3.6));
#1022=DIRECTION('',(0.0,1.0,0.0));
#1023=VECTOR('',#1022,0.300000000000001);
#1024=LINE('',#1021,#1023);
#1025=EDGE_CURVE('',#1018,#1020,#1024,.T.);
#1026=ORIENTED_EDGE('',*,*,#1025,.T.);
#1027=CARTESIAN_POINT('',(8.640000000000001,2.625000000000001,0.4));
#1028=VERTEX_POINT('',#1027);
#1029=CARTESIAN_POINT('',(8.640000000000001,2.625000000000001,0.4));
#1030=DIRECTION('',(0.0,0.0,-1.0));
#1031=VECTOR('',#1030,4.0);
#1032=LINE('',#1029,#1031);
#1033=EDGE_CURVE('',#1028,#1020,#1032,.T.);
#1034=ORIENTED_EDGE('',*,*,#1033,.F.);
#1035=CARTESIAN_POINT('',(8.640000000000001,2.325,0.4));
#1036=VERTEX_POINT('',#1035);
#1037=CARTESIAN_POINT('',(8.640000000000001,2.325,0.4));
#1038=DIRECTION('',(0.0,1.0,0.0));
#1039=VECTOR('',#1038,0.300000000000001);
#1040=LINE('',#1037,#1039);
#1041=EDGE_CURVE('',#1036,#1028,#1040,.T.);
#1042=ORIENTED_EDGE('',*,*,#1041,.F.);
#1043=CARTESIAN_POINT('',(8.640000000000001,2.325,0.4));
#1044=DIRECTION('',(0.0,0.0,-1.0));
#1045=VECTOR('',#1044,4.0);
#1046=LINE('',#1043,#1045);
#1047=EDGE_CURVE('',#1036,#1018,#1046,.T.);
#1048=ORIENTED_EDGE('',*,*,#1047,.T.);
#1049=EDGE_LOOP('',(#1026,#1034,#1042,#1048));
#1050=FACE_OUTER_BOUND('',#1049,.T.);
#1051=ADVANCED_FACE('',(#1050),#1016,.T.);
#1052=CARTESIAN_POINT('',(8.640000000000001,2.625000000000001,0.4));
#1053=DIRECTION('',(0.0,1.0,0.0));
#1054=DIRECTION('',(0.0,0.0,-1.0));
#1055=AXIS2_PLACEMENT_3D('',#1052,#1053,#1054);
#1056=PLANE('',#1055);
#1057=CARTESIAN_POINT('',(8.090000000000002,2.625000000000001,-3.6));
#1058=VERTEX_POINT('',#1057);
#1059=CARTESIAN_POINT('',(8.640000000000001,2.625000000000001,-3.6));
#1060=DIRECTION('',(-1.0,0.0,0.0));
#1061=VECTOR('',#1060,0.549999999999999);
#1062=LINE('',#1059,#1061);
#1063=EDGE_CURVE('',#1020,#1058,#1062,.T.);
#1064=ORIENTED_EDGE('',*,*,#1063,.T.);
#1065=CARTESIAN_POINT('',(8.090000000000002,2.625000000000001,0.4));
#1066=VERTEX_POINT('',#1065);
#1067=CARTESIAN_POINT('',(8.090000000000002,2.625000000000001,0.4));
#1068=DIRECTION('',(0.0,0.0,-1.0));
#1069=VECTOR('',#1068,4.0);
#1070=LINE('',#1067,#1069);
#1071=EDGE_CURVE('',#1066,#1058,#1070,.T.);
#1072=ORIENTED_EDGE('',*,*,#1071,.F.);
#1073=CARTESIAN_POINT('',(8.640000000000001,2.625000000000001,0.4));
#1074=DIRECTION('',(-1.0,0.0,0.0));
#1075=VECTOR('',#1074,0.549999999999999);
#1076=LINE('',#1073,#1075);
#1077=EDGE_CURVE('',#1028,#1066,#1076,.T.);
#1078=ORIENTED_EDGE('',*,*,#1077,.F.);
#1079=ORIENTED_EDGE('',*,*,#1033,.T.);
#1080=EDGE_LOOP('',(#1064,#1072,#1078,#1079));
#1081=FACE_OUTER_BOUND('',#1080,.T.);
#1082=ADVANCED_FACE('',(#1081),#1056,.T.);
#1083=CARTESIAN_POINT('',(8.090000000000002,2.625000000000001,0.4));
#1084=DIRECTION('',(-1.0,0.0,0.0));
#1085=DIRECTION('',(0.0,0.0,-1.0));
#1086=AXIS2_PLACEMENT_3D('',#1083,#1084,#1085);
#1087=PLANE('',#1086);
#1088=CARTESIAN_POINT('',(8.090000000000002,2.325,-3.6));
#1089=VERTEX_POINT('',#1088);
#1090=CARTESIAN_POINT('',(8.090000000000002,2.625000000000001,-3.6));
#1091=DIRECTION('',(0.0,-1.0,0.0));
#1092=VECTOR('',#1091,0.300000000000001);
#1093=LINE('',#1090,#1092);
#1094=EDGE_CURVE('',#1058,#1089,#1093,.T.);
#1095=ORIENTED_EDGE('',*,*,#1094,.T.);
#1096=CARTESIAN_POINT('',(8.090000000000002,2.325,0.4));
#1097=VERTEX_POINT('',#1096);
#1098=CARTESIAN_POINT('',(8.090000000000002,2.325,0.4));
#1099=DIRECTION('',(0.0,0.0,-1.0));
#1100=VECTOR('',#1099,4.0);
#1101=LINE('',#1098,#1100);
#1102=EDGE_CURVE('',#1097,#1089,#1101,.T.);
#1103=ORIENTED_EDGE('',*,*,#1102,.F.);
#1104=CARTESIAN_POINT('',(8.090000000000002,2.625000000000001,0.4));
#1105=DIRECTION('',(0.0,-1.0,0.0));
#1106=VECTOR('',#1105,0.300000000000001);
#1107=LINE('',#1104,#1106);
#1108=EDGE_CURVE('',#1066,#1097,#1107,.T.);
#1109=ORIENTED_EDGE('',*,*,#1108,.F.);
#1110=ORIENTED_EDGE('',*,*,#1071,.T.);
#1111=EDGE_LOOP('',(#1095,#1103,#1109,#1110));
#1112=FACE_OUTER_BOUND('',#1111,.T.);
#1113=ADVANCED_FACE('',(#1112),#1087,.T.);
#1114=CARTESIAN_POINT('',(8.090000000000002,2.325,0.4));
#1115=DIRECTION('',(0.0,-1.0,0.0));
#1116=DIRECTION('',(0.0,0.0,1.0));
#1117=AXIS2_PLACEMENT_3D('',#1114,#1115,#1116);
#1118=PLANE('',#1117);
#1119=CARTESIAN_POINT('',(8.090000000000002,2.325,-3.6));
#1120=DIRECTION('',(1.0,0.0,0.0));
#1121=VECTOR('',#1120,0.549999999999999);
#1122=LINE('',#1119,#1121);
#1123=EDGE_CURVE('',#1089,#1018,#1122,.T.);
#1124=ORIENTED_EDGE('',*,*,#1123,.T.);
#1125=ORIENTED_EDGE('',*,*,#1047,.F.);
#1126=CARTESIAN_POINT('',(8.090000000000002,2.325,0.4));
#1127=DIRECTION('',(1.0,0.0,0.0));
#1128=VECTOR('',#1127,0.549999999999999);
#1129=LINE('',#1126,#1128);
#1130=EDGE_CURVE('',#1097,#1036,#1129,.T.);
#1131=ORIENTED_EDGE('',*,*,#1130,.F.);
#1132=ORIENTED_EDGE('',*,*,#1102,.T.);
#1133=EDGE_LOOP('',(#1124,#1125,#1131,#1132));
#1134=FACE_OUTER_BOUND('',#1133,.T.);
#1135=ADVANCED_FACE('',(#1134),#1118,.T.);
#1136=CARTESIAN_POINT('',(8.365000000000002,2.475000000000001,-3.6));
#1137=DIRECTION('',(0.0,0.0,1.0));
#1138=DIRECTION('',(-1.0,0.0,0.0));
#1139=AXIS2_PLACEMENT_3D('',#1136,#1137,#1138);
#1140=PLANE('',#1139);
#1141=ORIENTED_EDGE('',*,*,#1025,.F.);
#1142=ORIENTED_EDGE('',*,*,#1123,.F.);
#1143=ORIENTED_EDGE('',*,*,#1094,.F.);
#1144=ORIENTED_EDGE('',*,*,#1063,.F.);
#1145=EDGE_LOOP('',(#1141,#1142,#1143,#1144));
#1146=FACE_OUTER_BOUND('',#1145,.T.);
#1147=ADVANCED_FACE('',(#1146),#1140,.F.);
#1148=CARTESIAN_POINT('',(8.365000000000002,2.475000000000001,0.4));
#1149=DIRECTION('',(0.0,0.0,1.0));
#1150=DIRECTION('',(-1.0,0.0,0.0));
#1151=AXIS2_PLACEMENT_3D('',#1148,#1149,#1150);
#1152=PLANE('',#1151);
#1153=ORIENTED_EDGE('',*,*,#1130,.T.);
#1154=ORIENTED_EDGE('',*,*,#1041,.T.);
#1155=ORIENTED_EDGE('',*,*,#1077,.T.);
#1156=ORIENTED_EDGE('',*,*,#1108,.T.);
#1157=EDGE_LOOP('',(#1153,#1154,#1155,#1156));
#1158=FACE_OUTER_BOUND('',#1157,.T.);
#1159=ADVANCED_FACE('',(#1158),#1152,.T.);
#1160=CLOSED_SHELL('',(#1051,#1082,#1113,#1135,#1147,#1159));
#1161=MANIFOLD_SOLID_BREP('2C24',#1160);
#1162=STYLED_ITEM('NONE',(#557),#1161);
#1163=ADVANCED_BREP_SHAPE_REPRESENTATION('ABSR1',(#152,#392,#550,#708,#859,#1010,#1161),#28);
#1164=SHAPE_REPRESENTATION_RELATIONSHIP('SRRPL1','',#1163,#62);
ENDSEC;
END-ISO-10303-21;
