ISO-10303-21;
HEADER;
/* Generated by software containing ST-Developer
 * from STEP Tools, Inc. (www.steptools.com) 
 */

FILE_DESCRIPTION(
/* description */ (''),
/* implementation_level */ '2;1');

FILE_NAME(
/* name */ 'G:\\Applications\\Altium\\CernLib\\StepLib\\DCDC_TRACO_TMR
2.stp',
/* time_stamp */ '2017-05-24T10:03:53+02:00',
/* author */ ('jchouvet'),
/* organization */ (''),
/* preprocessor_version */ 'ST-DEVELOPER v16.1',
/* originating_system */ 'AutoCAD Mechanical',
/* authorisation */ '');

FILE_SCHEMA (('AUTOMOTIVE_DESIGN { 1 0 10303 214 3 1 1 }'));
ENDSEC;

DATA;
#10=MECHANICAL_DESIGN_GEOMETRIC_PRESENTATION_REPRESENTATION('',(#62,#54,
#55,#56,#57,#58,#59,#60,#61),#1757);
#11=DIMENSIONAL_EXPONENTS(0.,0.,0.,0.,0.,0.,0.);
#12=(
CONVERSION_BASED_UNIT('degree',#13)
NAMED_UNIT(#11)
PLANE_ANGLE_UNIT()
);
#13=PLANE_ANGLE_MEASURE_WITH_UNIT(PLANE_ANGLE_MEASURE(0.01745329252),#1760);
#14=PRESENTATION_LAYER_ASSIGNMENT('1','3D',(#63,#64,#65,#66,#67,#68,#69,
#70,#71));
#15=SPHERICAL_SURFACE('',#1122,0.2);
#16=SPHERICAL_SURFACE('',#1126,0.199999999999999);
#17=SPHERICAL_SURFACE('',#1133,0.199999999999999);
#18=SPHERICAL_SURFACE('',#1137,0.199999999999999);
#19=FACE_BOUND('',#184,.T.);
#20=FACE_BOUND('',#201,.T.);
#21=FACE_BOUND('',#204,.T.);
#22=CIRCLE('',#1118,0.5);
#23=CIRCLE('',#1119,0.5);
#24=CIRCLE('',#1123,0.199999999999999);
#25=CIRCLE('',#1124,0.2);
#26=CIRCLE('',#1125,0.199999999999999);
#27=CIRCLE('',#1127,0.199999999999999);
#28=CIRCLE('',#1128,0.199999999999999);
#29=CIRCLE('',#1129,0.200000000000001);
#30=CIRCLE('',#1132,0.2);
#31=CIRCLE('',#1134,0.199999999999999);
#32=CIRCLE('',#1135,0.199999999999999);
#33=CIRCLE('',#1136,0.2);
#34=CIRCLE('',#1138,0.199999999999999);
#35=CIRCLE('',#1139,0.199999999999999);
#36=CIRCLE('',#1140,0.2);
#37=CIRCLE('',#1144,0.2);
#38=CIRCLE('',#1146,0.2);
#39=CIRCLE('',#1149,0.2);
#40=CIRCLE('',#1152,0.5);
#41=CIRCLE('',#1155,0.5);
#42=CYLINDRICAL_SURFACE('',#1117,0.5);
#43=CYLINDRICAL_SURFACE('',#1130,0.2);
#44=CYLINDRICAL_SURFACE('',#1131,0.2);
#45=CYLINDRICAL_SURFACE('',#1141,0.2);
#46=CYLINDRICAL_SURFACE('',#1142,0.2);
#47=CYLINDRICAL_SURFACE('',#1143,0.2);
#48=CYLINDRICAL_SURFACE('',#1145,0.2);
#49=CYLINDRICAL_SURFACE('',#1147,0.2);
#50=CYLINDRICAL_SURFACE('',#1148,0.2);
#51=CYLINDRICAL_SURFACE('',#1154,0.5);
#52=SHAPE_REPRESENTATION_RELATIONSHIP('SRR','None',#1763,#53);
#53=ADVANCED_BREP_SHAPE_REPRESENTATION('',(#63,#64,#65,#66,#67,#68,#69,
#70,#71),#1756);
#54=STYLED_ITEM('',(#1773),#63);
#55=STYLED_ITEM('',(#1773),#64);
#56=STYLED_ITEM('',(#1773),#65);
#57=STYLED_ITEM('',(#1773),#66);
#58=STYLED_ITEM('',(#1773),#67);
#59=STYLED_ITEM('',(#1773),#68);
#60=STYLED_ITEM('',(#1773),#69);
#61=STYLED_ITEM('',(#1773),#70);
#62=STYLED_ITEM('',(#1774),#71);
#63=MANIFOLD_SOLID_BREP('2F22',#1065);
#64=MANIFOLD_SOLID_BREP('2F23',#1066);
#65=MANIFOLD_SOLID_BREP('2F24',#1067);
#66=MANIFOLD_SOLID_BREP('2F25',#1068);
#67=MANIFOLD_SOLID_BREP('2F26',#1069);
#68=MANIFOLD_SOLID_BREP('2F27',#1070);
#69=MANIFOLD_SOLID_BREP('2F28',#1071);
#70=MANIFOLD_SOLID_BREP('2F2A',#1072);
#71=MANIFOLD_SOLID_BREP('3269',#1073);
#72=FACE_OUTER_BOUND('',#141,.T.);
#73=FACE_OUTER_BOUND('',#142,.T.);
#74=FACE_OUTER_BOUND('',#143,.T.);
#75=FACE_OUTER_BOUND('',#144,.T.);
#76=FACE_OUTER_BOUND('',#145,.T.);
#77=FACE_OUTER_BOUND('',#146,.T.);
#78=FACE_OUTER_BOUND('',#147,.T.);
#79=FACE_OUTER_BOUND('',#148,.T.);
#80=FACE_OUTER_BOUND('',#149,.T.);
#81=FACE_OUTER_BOUND('',#150,.T.);
#82=FACE_OUTER_BOUND('',#151,.T.);
#83=FACE_OUTER_BOUND('',#152,.T.);
#84=FACE_OUTER_BOUND('',#153,.T.);
#85=FACE_OUTER_BOUND('',#154,.T.);
#86=FACE_OUTER_BOUND('',#155,.T.);
#87=FACE_OUTER_BOUND('',#156,.T.);
#88=FACE_OUTER_BOUND('',#157,.T.);
#89=FACE_OUTER_BOUND('',#158,.T.);
#90=FACE_OUTER_BOUND('',#159,.T.);
#91=FACE_OUTER_BOUND('',#160,.T.);
#92=FACE_OUTER_BOUND('',#161,.T.);
#93=FACE_OUTER_BOUND('',#162,.T.);
#94=FACE_OUTER_BOUND('',#163,.T.);
#95=FACE_OUTER_BOUND('',#164,.T.);
#96=FACE_OUTER_BOUND('',#165,.T.);
#97=FACE_OUTER_BOUND('',#166,.T.);
#98=FACE_OUTER_BOUND('',#167,.T.);
#99=FACE_OUTER_BOUND('',#168,.T.);
#100=FACE_OUTER_BOUND('',#169,.T.);
#101=FACE_OUTER_BOUND('',#170,.T.);
#102=FACE_OUTER_BOUND('',#171,.T.);
#103=FACE_OUTER_BOUND('',#172,.T.);
#104=FACE_OUTER_BOUND('',#173,.T.);
#105=FACE_OUTER_BOUND('',#174,.T.);
#106=FACE_OUTER_BOUND('',#175,.T.);
#107=FACE_OUTER_BOUND('',#176,.T.);
#108=FACE_OUTER_BOUND('',#177,.T.);
#109=FACE_OUTER_BOUND('',#178,.T.);
#110=FACE_OUTER_BOUND('',#179,.T.);
#111=FACE_OUTER_BOUND('',#180,.T.);
#112=FACE_OUTER_BOUND('',#181,.T.);
#113=FACE_OUTER_BOUND('',#182,.T.);
#114=FACE_OUTER_BOUND('',#183,.T.);
#115=FACE_OUTER_BOUND('',#185,.T.);
#116=FACE_OUTER_BOUND('',#186,.T.);
#117=FACE_OUTER_BOUND('',#187,.T.);
#118=FACE_OUTER_BOUND('',#188,.T.);
#119=FACE_OUTER_BOUND('',#189,.T.);
#120=FACE_OUTER_BOUND('',#190,.T.);
#121=FACE_OUTER_BOUND('',#191,.T.);
#122=FACE_OUTER_BOUND('',#192,.T.);
#123=FACE_OUTER_BOUND('',#193,.T.);
#124=FACE_OUTER_BOUND('',#194,.T.);
#125=FACE_OUTER_BOUND('',#195,.T.);
#126=FACE_OUTER_BOUND('',#196,.T.);
#127=FACE_OUTER_BOUND('',#197,.T.);
#128=FACE_OUTER_BOUND('',#198,.T.);
#129=FACE_OUTER_BOUND('',#199,.T.);
#130=FACE_OUTER_BOUND('',#200,.T.);
#131=FACE_OUTER_BOUND('',#202,.T.);
#132=FACE_OUTER_BOUND('',#203,.T.);
#133=FACE_OUTER_BOUND('',#205,.T.);
#134=FACE_OUTER_BOUND('',#206,.T.);
#135=FACE_OUTER_BOUND('',#207,.T.);
#136=FACE_OUTER_BOUND('',#208,.T.);
#137=FACE_OUTER_BOUND('',#209,.T.);
#138=FACE_OUTER_BOUND('',#210,.T.);
#139=FACE_OUTER_BOUND('',#211,.T.);
#140=FACE_OUTER_BOUND('',#212,.T.);
#141=EDGE_LOOP('',(#669,#670,#671,#672));
#142=EDGE_LOOP('',(#673,#674,#675,#676));
#143=EDGE_LOOP('',(#677,#678,#679,#680));
#144=EDGE_LOOP('',(#681,#682,#683,#684));
#145=EDGE_LOOP('',(#685,#686,#687,#688));
#146=EDGE_LOOP('',(#689,#690,#691,#692));
#147=EDGE_LOOP('',(#693,#694,#695,#696));
#148=EDGE_LOOP('',(#697,#698,#699,#700));
#149=EDGE_LOOP('',(#701,#702,#703,#704));
#150=EDGE_LOOP('',(#705,#706,#707,#708));
#151=EDGE_LOOP('',(#709,#710,#711,#712));
#152=EDGE_LOOP('',(#713,#714,#715,#716));
#153=EDGE_LOOP('',(#717,#718,#719,#720));
#154=EDGE_LOOP('',(#721,#722,#723,#724));
#155=EDGE_LOOP('',(#725,#726,#727,#728));
#156=EDGE_LOOP('',(#729,#730,#731,#732));
#157=EDGE_LOOP('',(#733,#734,#735,#736));
#158=EDGE_LOOP('',(#737,#738,#739,#740));
#159=EDGE_LOOP('',(#741,#742,#743,#744));
#160=EDGE_LOOP('',(#745,#746,#747,#748));
#161=EDGE_LOOP('',(#749,#750,#751,#752));
#162=EDGE_LOOP('',(#753,#754,#755,#756));
#163=EDGE_LOOP('',(#757,#758,#759,#760));
#164=EDGE_LOOP('',(#761,#762,#763,#764));
#165=EDGE_LOOP('',(#765,#766,#767,#768));
#166=EDGE_LOOP('',(#769,#770,#771,#772));
#167=EDGE_LOOP('',(#773,#774,#775,#776));
#168=EDGE_LOOP('',(#777,#778,#779,#780));
#169=EDGE_LOOP('',(#781,#782,#783,#784));
#170=EDGE_LOOP('',(#785,#786,#787,#788));
#171=EDGE_LOOP('',(#789,#790,#791,#792));
#172=EDGE_LOOP('',(#793,#794,#795,#796));
#173=EDGE_LOOP('',(#797,#798,#799,#800));
#174=EDGE_LOOP('',(#801,#802,#803,#804));
#175=EDGE_LOOP('',(#805,#806,#807,#808));
#176=EDGE_LOOP('',(#809,#810,#811,#812));
#177=EDGE_LOOP('',(#813,#814,#815,#816));
#178=EDGE_LOOP('',(#817,#818,#819,#820));
#179=EDGE_LOOP('',(#821,#822,#823,#824));
#180=EDGE_LOOP('',(#825,#826,#827,#828));
#181=EDGE_LOOP('',(#829,#830,#831,#832));
#182=EDGE_LOOP('',(#833,#834,#835,#836));
#183=EDGE_LOOP('',(#837));
#184=EDGE_LOOP('',(#838));
#185=EDGE_LOOP('',(#839));
#186=EDGE_LOOP('',(#840));
#187=EDGE_LOOP('',(#841,#842,#843));
#188=EDGE_LOOP('',(#844,#845,#846));
#189=EDGE_LOOP('',(#847,#848,#849,#850));
#190=EDGE_LOOP('',(#851,#852,#853,#854));
#191=EDGE_LOOP('',(#855,#856,#857));
#192=EDGE_LOOP('',(#858,#859,#860));
#193=EDGE_LOOP('',(#861,#862,#863,#864));
#194=EDGE_LOOP('',(#865,#866,#867,#868));
#195=EDGE_LOOP('',(#869,#870,#871,#872));
#196=EDGE_LOOP('',(#873,#874,#875,#876));
#197=EDGE_LOOP('',(#877,#878,#879,#880));
#198=EDGE_LOOP('',(#881,#882,#883,#884));
#199=EDGE_LOOP('',(#885,#886,#887,#888));
#200=EDGE_LOOP('',(#889,#890,#891,#892,#893,#894,#895,#896));
#201=EDGE_LOOP('',(#897));
#202=EDGE_LOOP('',(#898,#899,#900,#901));
#203=EDGE_LOOP('',(#902));
#204=EDGE_LOOP('',(#903));
#205=EDGE_LOOP('',(#904));
#206=EDGE_LOOP('',(#905,#906,#907,#908));
#207=EDGE_LOOP('',(#909,#910,#911,#912,#913,#914));
#208=EDGE_LOOP('',(#915,#916,#917,#918));
#209=EDGE_LOOP('',(#919,#920,#921,#922));
#210=EDGE_LOOP('',(#923,#924,#925,#926));
#211=EDGE_LOOP('',(#927,#928,#929,#930,#931,#932,#933,#934));
#212=EDGE_LOOP('',(#935,#936,#937,#938,#939,#940));
#213=LINE('',#1464,#329);
#214=LINE('',#1466,#330);
#215=LINE('',#1468,#331);
#216=LINE('',#1469,#332);
#217=LINE('',#1472,#333);
#218=LINE('',#1474,#334);
#219=LINE('',#1475,#335);
#220=LINE('',#1478,#336);
#221=LINE('',#1480,#337);
#222=LINE('',#1481,#338);
#223=LINE('',#1483,#339);
#224=LINE('',#1484,#340);
#225=LINE('',#1490,#341);
#226=LINE('',#1492,#342);
#227=LINE('',#1494,#343);
#228=LINE('',#1495,#344);
#229=LINE('',#1498,#345);
#230=LINE('',#1500,#346);
#231=LINE('',#1501,#347);
#232=LINE('',#1504,#348);
#233=LINE('',#1506,#349);
#234=LINE('',#1507,#350);
#235=LINE('',#1509,#351);
#236=LINE('',#1510,#352);
#237=LINE('',#1516,#353);
#238=LINE('',#1518,#354);
#239=LINE('',#1520,#355);
#240=LINE('',#1521,#356);
#241=LINE('',#1524,#357);
#242=LINE('',#1526,#358);
#243=LINE('',#1527,#359);
#244=LINE('',#1530,#360);
#245=LINE('',#1532,#361);
#246=LINE('',#1533,#362);
#247=LINE('',#1535,#363);
#248=LINE('',#1536,#364);
#249=LINE('',#1542,#365);
#250=LINE('',#1544,#366);
#251=LINE('',#1546,#367);
#252=LINE('',#1547,#368);
#253=LINE('',#1550,#369);
#254=LINE('',#1552,#370);
#255=LINE('',#1553,#371);
#256=LINE('',#1556,#372);
#257=LINE('',#1558,#373);
#258=LINE('',#1559,#374);
#259=LINE('',#1561,#375);
#260=LINE('',#1562,#376);
#261=LINE('',#1568,#377);
#262=LINE('',#1570,#378);
#263=LINE('',#1572,#379);
#264=LINE('',#1573,#380);
#265=LINE('',#1576,#381);
#266=LINE('',#1578,#382);
#267=LINE('',#1579,#383);
#268=LINE('',#1582,#384);
#269=LINE('',#1584,#385);
#270=LINE('',#1585,#386);
#271=LINE('',#1587,#387);
#272=LINE('',#1588,#388);
#273=LINE('',#1594,#389);
#274=LINE('',#1596,#390);
#275=LINE('',#1598,#391);
#276=LINE('',#1599,#392);
#277=LINE('',#1602,#393);
#278=LINE('',#1604,#394);
#279=LINE('',#1605,#395);
#280=LINE('',#1608,#396);
#281=LINE('',#1610,#397);
#282=LINE('',#1611,#398);
#283=LINE('',#1613,#399);
#284=LINE('',#1614,#400);
#285=LINE('',#1620,#401);
#286=LINE('',#1622,#402);
#287=LINE('',#1624,#403);
#288=LINE('',#1625,#404);
#289=LINE('',#1628,#405);
#290=LINE('',#1630,#406);
#291=LINE('',#1631,#407);
#292=LINE('',#1634,#408);
#293=LINE('',#1636,#409);
#294=LINE('',#1637,#410);
#295=LINE('',#1639,#411);
#296=LINE('',#1640,#412);
#297=LINE('',#1665,#413);
#298=LINE('',#1666,#414);
#299=LINE('',#1671,#415);
#300=LINE('',#1672,#416);
#301=LINE('',#1688,#417);
#302=LINE('',#1689,#418);
#303=LINE('',#1691,#419);
#304=LINE('',#1692,#420);
#305=LINE('',#1697,#421);
#306=LINE('',#1698,#422);
#307=LINE('',#1703,#423);
#308=LINE('',#1704,#424);
#309=LINE('',#1706,#425);
#310=LINE('',#1707,#426);
#311=LINE('',#1712,#427);
#312=LINE('',#1713,#428);
#313=LINE('',#1715,#429);
#314=LINE('',#1718,#430);
#315=LINE('',#1720,#431);
#316=LINE('',#1722,#432);
#317=LINE('',#1724,#433);
#318=LINE('',#1725,#434);
#319=LINE('',#1735,#435);
#320=LINE('',#1737,#436);
#321=LINE('',#1738,#437);
#322=LINE('',#1740,#438);
#323=LINE('',#1741,#439);
#324=LINE('',#1744,#440);
#325=LINE('',#1745,#441);
#326=LINE('',#1749,#442);
#327=LINE('',#1750,#443);
#328=LINE('',#1752,#444);
#329=VECTOR('',#1168,0.5);
#330=VECTOR('',#1169,4.1);
#331=VECTOR('',#1170,0.5);
#332=VECTOR('',#1171,4.1);
#333=VECTOR('',#1174,0.25);
#334=VECTOR('',#1175,4.1);
#335=VECTOR('',#1176,0.25);
#336=VECTOR('',#1179,0.5);
#337=VECTOR('',#1180,4.1);
#338=VECTOR('',#1181,0.5);
#339=VECTOR('',#1184,0.25);
#340=VECTOR('',#1185,0.25);
#341=VECTOR('',#1192,0.5);
#342=VECTOR('',#1193,4.1);
#343=VECTOR('',#1194,0.5);
#344=VECTOR('',#1195,4.1);
#345=VECTOR('',#1198,0.25);
#346=VECTOR('',#1199,4.1);
#347=VECTOR('',#1200,0.25);
#348=VECTOR('',#1203,0.5);
#349=VECTOR('',#1204,4.1);
#350=VECTOR('',#1205,0.5);
#351=VECTOR('',#1208,0.25);
#352=VECTOR('',#1209,0.25);
#353=VECTOR('',#1216,0.5);
#354=VECTOR('',#1217,4.1);
#355=VECTOR('',#1218,0.5);
#356=VECTOR('',#1219,4.1);
#357=VECTOR('',#1222,0.25);
#358=VECTOR('',#1223,4.1);
#359=VECTOR('',#1224,0.25);
#360=VECTOR('',#1227,0.5);
#361=VECTOR('',#1228,4.1);
#362=VECTOR('',#1229,0.5);
#363=VECTOR('',#1232,0.25);
#364=VECTOR('',#1233,0.25);
#365=VECTOR('',#1240,0.5);
#366=VECTOR('',#1241,4.1);
#367=VECTOR('',#1242,0.5);
#368=VECTOR('',#1243,4.1);
#369=VECTOR('',#1246,0.25);
#370=VECTOR('',#1247,4.1);
#371=VECTOR('',#1248,0.25);
#372=VECTOR('',#1251,0.5);
#373=VECTOR('',#1252,4.1);
#374=VECTOR('',#1253,0.5);
#375=VECTOR('',#1256,0.25);
#376=VECTOR('',#1257,0.25);
#377=VECTOR('',#1264,0.5);
#378=VECTOR('',#1265,4.1);
#379=VECTOR('',#1266,0.5);
#380=VECTOR('',#1267,4.1);
#381=VECTOR('',#1270,0.25);
#382=VECTOR('',#1271,4.1);
#383=VECTOR('',#1272,0.25);
#384=VECTOR('',#1275,0.5);
#385=VECTOR('',#1276,4.1);
#386=VECTOR('',#1277,0.5);
#387=VECTOR('',#1280,0.25);
#388=VECTOR('',#1281,0.25);
#389=VECTOR('',#1288,0.5);
#390=VECTOR('',#1289,4.1);
#391=VECTOR('',#1290,0.5);
#392=VECTOR('',#1291,4.1);
#393=VECTOR('',#1294,0.25);
#394=VECTOR('',#1295,4.1);
#395=VECTOR('',#1296,0.25);
#396=VECTOR('',#1299,0.5);
#397=VECTOR('',#1300,4.1);
#398=VECTOR('',#1301,0.5);
#399=VECTOR('',#1304,0.25);
#400=VECTOR('',#1305,0.25);
#401=VECTOR('',#1312,0.5);
#402=VECTOR('',#1313,4.1);
#403=VECTOR('',#1314,0.5);
#404=VECTOR('',#1315,4.1);
#405=VECTOR('',#1318,0.25);
#406=VECTOR('',#1319,4.1);
#407=VECTOR('',#1320,0.25);
#408=VECTOR('',#1323,0.5);
#409=VECTOR('',#1324,4.1);
#410=VECTOR('',#1325,0.5);
#411=VECTOR('',#1328,0.25);
#412=VECTOR('',#1329,0.25);
#413=VECTOR('',#1362,9.3);
#414=VECTOR('',#1363,9.3);
#415=VECTOR('',#1368,11.4);
#416=VECTOR('',#1369,11.4);
#417=VECTOR('',#1388,9.3);
#418=VECTOR('',#1389,9.3);
#419=VECTOR('',#1392,21.9);
#420=VECTOR('',#1393,21.9);
#421=VECTOR('',#1398,11.4);
#422=VECTOR('',#1399,11.4);
#423=VECTOR('',#1404,11.4);
#424=VECTOR('',#1405,11.4);
#425=VECTOR('',#1408,21.9);
#426=VECTOR('',#1409,21.9);
#427=VECTOR('',#1414,11.4);
#428=VECTOR('',#1415,11.4);
#429=VECTOR('',#1418,9.3);
#430=VECTOR('',#1421,0.299999999999995);
#431=VECTOR('',#1422,0.5);
#432=VECTOR('',#1423,21.3);
#433=VECTOR('',#1424,0.5);
#434=VECTOR('',#1425,0.299999999999995);
#435=VECTOR('',#1438,9.7);
#436=VECTOR('',#1439,0.5);
#437=VECTOR('',#1440,9.7);
#438=VECTOR('',#1443,0.300000000000001);
#439=VECTOR('',#1444,9.3);
#440=VECTOR('',#1447,21.3);
#441=VECTOR('',#1448,9.7);
#442=VECTOR('',#1453,9.7);
#443=VECTOR('',#1454,0.5);
#444=VECTOR('',#1457,0.300000000000001);
#445=VERTEX_POINT('',#1462);
#446=VERTEX_POINT('',#1463);
#447=VERTEX_POINT('',#1465);
#448=VERTEX_POINT('',#1467);
#449=VERTEX_POINT('',#1471);
#450=VERTEX_POINT('',#1473);
#451=VERTEX_POINT('',#1477);
#452=VERTEX_POINT('',#1479);
#453=VERTEX_POINT('',#1488);
#454=VERTEX_POINT('',#1489);
#455=VERTEX_POINT('',#1491);
#456=VERTEX_POINT('',#1493);
#457=VERTEX_POINT('',#1497);
#458=VERTEX_POINT('',#1499);
#459=VERTEX_POINT('',#1503);
#460=VERTEX_POINT('',#1505);
#461=VERTEX_POINT('',#1514);
#462=VERTEX_POINT('',#1515);
#463=VERTEX_POINT('',#1517);
#464=VERTEX_POINT('',#1519);
#465=VERTEX_POINT('',#1523);
#466=VERTEX_POINT('',#1525);
#467=VERTEX_POINT('',#1529);
#468=VERTEX_POINT('',#1531);
#469=VERTEX_POINT('',#1540);
#470=VERTEX_POINT('',#1541);
#471=VERTEX_POINT('',#1543);
#472=VERTEX_POINT('',#1545);
#473=VERTEX_POINT('',#1549);
#474=VERTEX_POINT('',#1551);
#475=VERTEX_POINT('',#1555);
#476=VERTEX_POINT('',#1557);
#477=VERTEX_POINT('',#1566);
#478=VERTEX_POINT('',#1567);
#479=VERTEX_POINT('',#1569);
#480=VERTEX_POINT('',#1571);
#481=VERTEX_POINT('',#1575);
#482=VERTEX_POINT('',#1577);
#483=VERTEX_POINT('',#1581);
#484=VERTEX_POINT('',#1583);
#485=VERTEX_POINT('',#1592);
#486=VERTEX_POINT('',#1593);
#487=VERTEX_POINT('',#1595);
#488=VERTEX_POINT('',#1597);
#489=VERTEX_POINT('',#1601);
#490=VERTEX_POINT('',#1603);
#491=VERTEX_POINT('',#1607);
#492=VERTEX_POINT('',#1609);
#493=VERTEX_POINT('',#1618);
#494=VERTEX_POINT('',#1619);
#495=VERTEX_POINT('',#1621);
#496=VERTEX_POINT('',#1623);
#497=VERTEX_POINT('',#1627);
#498=VERTEX_POINT('',#1629);
#499=VERTEX_POINT('',#1633);
#500=VERTEX_POINT('',#1635);
#501=VERTEX_POINT('',#1644);
#502=VERTEX_POINT('',#1646);
#503=VERTEX_POINT('',#1651);
#504=VERTEX_POINT('',#1652);
#505=VERTEX_POINT('',#1654);
#506=VERTEX_POINT('',#1658);
#507=VERTEX_POINT('',#1659);
#508=VERTEX_POINT('',#1661);
#509=VERTEX_POINT('',#1668);
#510=VERTEX_POINT('',#1669);
#511=VERTEX_POINT('',#1674);
#512=VERTEX_POINT('',#1675);
#513=VERTEX_POINT('',#1677);
#514=VERTEX_POINT('',#1681);
#515=VERTEX_POINT('',#1682);
#516=VERTEX_POINT('',#1684);
#517=VERTEX_POINT('',#1694);
#518=VERTEX_POINT('',#1695);
#519=VERTEX_POINT('',#1700);
#520=VERTEX_POINT('',#1701);
#521=VERTEX_POINT('',#1709);
#522=VERTEX_POINT('',#1710);
#523=VERTEX_POINT('',#1717);
#524=VERTEX_POINT('',#1719);
#525=VERTEX_POINT('',#1721);
#526=VERTEX_POINT('',#1723);
#527=VERTEX_POINT('',#1726);
#528=VERTEX_POINT('',#1730);
#529=VERTEX_POINT('',#1734);
#530=VERTEX_POINT('',#1736);
#531=VERTEX_POINT('',#1743);
#532=VERTEX_POINT('',#1748);
#533=EDGE_CURVE('',#445,#446,#213,.T.);
#534=EDGE_CURVE('',#447,#446,#214,.T.);
#535=EDGE_CURVE('',#448,#447,#215,.T.);
#536=EDGE_CURVE('',#448,#445,#216,.T.);
#537=EDGE_CURVE('',#446,#449,#217,.T.);
#538=EDGE_CURVE('',#450,#449,#218,.T.);
#539=EDGE_CURVE('',#447,#450,#219,.T.);
#540=EDGE_CURVE('',#449,#451,#220,.T.);
#541=EDGE_CURVE('',#452,#451,#221,.T.);
#542=EDGE_CURVE('',#450,#452,#222,.T.);
#543=EDGE_CURVE('',#451,#445,#223,.T.);
#544=EDGE_CURVE('',#452,#448,#224,.T.);
#545=EDGE_CURVE('',#453,#454,#225,.T.);
#546=EDGE_CURVE('',#455,#454,#226,.T.);
#547=EDGE_CURVE('',#456,#455,#227,.T.);
#548=EDGE_CURVE('',#456,#453,#228,.T.);
#549=EDGE_CURVE('',#454,#457,#229,.T.);
#550=EDGE_CURVE('',#458,#457,#230,.T.);
#551=EDGE_CURVE('',#455,#458,#231,.T.);
#552=EDGE_CURVE('',#457,#459,#232,.T.);
#553=EDGE_CURVE('',#460,#459,#233,.T.);
#554=EDGE_CURVE('',#458,#460,#234,.T.);
#555=EDGE_CURVE('',#459,#453,#235,.T.);
#556=EDGE_CURVE('',#460,#456,#236,.T.);
#557=EDGE_CURVE('',#461,#462,#237,.T.);
#558=EDGE_CURVE('',#463,#462,#238,.T.);
#559=EDGE_CURVE('',#464,#463,#239,.T.);
#560=EDGE_CURVE('',#464,#461,#240,.T.);
#561=EDGE_CURVE('',#462,#465,#241,.T.);
#562=EDGE_CURVE('',#466,#465,#242,.T.);
#563=EDGE_CURVE('',#463,#466,#243,.T.);
#564=EDGE_CURVE('',#465,#467,#244,.T.);
#565=EDGE_CURVE('',#468,#467,#245,.T.);
#566=EDGE_CURVE('',#466,#468,#246,.T.);
#567=EDGE_CURVE('',#467,#461,#247,.T.);
#568=EDGE_CURVE('',#468,#464,#248,.T.);
#569=EDGE_CURVE('',#469,#470,#249,.T.);
#570=EDGE_CURVE('',#471,#470,#250,.T.);
#571=EDGE_CURVE('',#472,#471,#251,.T.);
#572=EDGE_CURVE('',#472,#469,#252,.T.);
#573=EDGE_CURVE('',#470,#473,#253,.T.);
#574=EDGE_CURVE('',#474,#473,#254,.T.);
#575=EDGE_CURVE('',#471,#474,#255,.T.);
#576=EDGE_CURVE('',#473,#475,#256,.T.);
#577=EDGE_CURVE('',#476,#475,#257,.T.);
#578=EDGE_CURVE('',#474,#476,#258,.T.);
#579=EDGE_CURVE('',#475,#469,#259,.T.);
#580=EDGE_CURVE('',#476,#472,#260,.T.);
#581=EDGE_CURVE('',#477,#478,#261,.T.);
#582=EDGE_CURVE('',#479,#478,#262,.T.);
#583=EDGE_CURVE('',#480,#479,#263,.T.);
#584=EDGE_CURVE('',#480,#477,#264,.T.);
#585=EDGE_CURVE('',#478,#481,#265,.T.);
#586=EDGE_CURVE('',#482,#481,#266,.T.);
#587=EDGE_CURVE('',#479,#482,#267,.T.);
#588=EDGE_CURVE('',#481,#483,#268,.T.);
#589=EDGE_CURVE('',#484,#483,#269,.T.);
#590=EDGE_CURVE('',#482,#484,#270,.T.);
#591=EDGE_CURVE('',#483,#477,#271,.T.);
#592=EDGE_CURVE('',#484,#480,#272,.T.);
#593=EDGE_CURVE('',#485,#486,#273,.T.);
#594=EDGE_CURVE('',#487,#486,#274,.T.);
#595=EDGE_CURVE('',#488,#487,#275,.T.);
#596=EDGE_CURVE('',#488,#485,#276,.T.);
#597=EDGE_CURVE('',#486,#489,#277,.T.);
#598=EDGE_CURVE('',#490,#489,#278,.T.);
#599=EDGE_CURVE('',#487,#490,#279,.T.);
#600=EDGE_CURVE('',#489,#491,#280,.T.);
#601=EDGE_CURVE('',#492,#491,#281,.T.);
#602=EDGE_CURVE('',#490,#492,#282,.T.);
#603=EDGE_CURVE('',#491,#485,#283,.T.);
#604=EDGE_CURVE('',#492,#488,#284,.T.);
#605=EDGE_CURVE('',#493,#494,#285,.T.);
#606=EDGE_CURVE('',#495,#494,#286,.T.);
#607=EDGE_CURVE('',#496,#495,#287,.T.);
#608=EDGE_CURVE('',#496,#493,#288,.T.);
#609=EDGE_CURVE('',#494,#497,#289,.T.);
#610=EDGE_CURVE('',#498,#497,#290,.T.);
#611=EDGE_CURVE('',#495,#498,#291,.T.);
#612=EDGE_CURVE('',#497,#499,#292,.T.);
#613=EDGE_CURVE('',#500,#499,#293,.T.);
#614=EDGE_CURVE('',#498,#500,#294,.T.);
#615=EDGE_CURVE('',#499,#493,#295,.T.);
#616=EDGE_CURVE('',#500,#496,#296,.T.);
#617=EDGE_CURVE('',#501,#501,#22,.T.);
#618=EDGE_CURVE('',#502,#502,#23,.T.);
#619=EDGE_CURVE('',#503,#504,#24,.F.);
#620=EDGE_CURVE('',#505,#503,#25,.F.);
#621=EDGE_CURVE('',#504,#505,#26,.F.);
#622=EDGE_CURVE('',#506,#507,#27,.F.);
#623=EDGE_CURVE('',#508,#506,#28,.F.);
#624=EDGE_CURVE('',#507,#508,#29,.F.);
#625=EDGE_CURVE('',#506,#503,#297,.T.);
#626=EDGE_CURVE('',#504,#508,#298,.T.);
#627=EDGE_CURVE('',#509,#510,#30,.T.);
#628=EDGE_CURVE('',#510,#507,#299,.T.);
#629=EDGE_CURVE('',#508,#509,#300,.T.);
#630=EDGE_CURVE('',#511,#512,#31,.F.);
#631=EDGE_CURVE('',#513,#511,#32,.F.);
#632=EDGE_CURVE('',#512,#513,#33,.F.);
#633=EDGE_CURVE('',#514,#515,#34,.F.);
#634=EDGE_CURVE('',#516,#514,#35,.F.);
#635=EDGE_CURVE('',#515,#516,#36,.F.);
#636=EDGE_CURVE('',#511,#516,#301,.T.);
#637=EDGE_CURVE('',#514,#513,#302,.T.);
#638=EDGE_CURVE('',#516,#506,#303,.T.);
#639=EDGE_CURVE('',#507,#515,#304,.T.);
#640=EDGE_CURVE('',#517,#518,#37,.T.);
#641=EDGE_CURVE('',#518,#514,#305,.T.);
#642=EDGE_CURVE('',#515,#517,#306,.T.);
#643=EDGE_CURVE('',#519,#520,#38,.T.);
#644=EDGE_CURVE('',#520,#512,#307,.T.);
#645=EDGE_CURVE('',#513,#519,#308,.T.);
#646=EDGE_CURVE('',#503,#511,#309,.T.);
#647=EDGE_CURVE('',#512,#505,#310,.T.);
#648=EDGE_CURVE('',#521,#522,#39,.T.);
#649=EDGE_CURVE('',#522,#504,#311,.T.);
#650=EDGE_CURVE('',#505,#521,#312,.T.);
#651=EDGE_CURVE('',#522,#509,#313,.T.);
#652=EDGE_CURVE('',#520,#523,#314,.T.);
#653=EDGE_CURVE('',#523,#524,#315,.T.);
#654=EDGE_CURVE('',#525,#524,#316,.T.);
#655=EDGE_CURVE('',#526,#525,#317,.T.);
#656=EDGE_CURVE('',#526,#521,#318,.T.);
#657=EDGE_CURVE('',#527,#527,#40,.T.);
#658=EDGE_CURVE('',#528,#528,#41,.T.);
#659=EDGE_CURVE('',#523,#529,#319,.T.);
#660=EDGE_CURVE('',#529,#530,#320,.T.);
#661=EDGE_CURVE('',#524,#530,#321,.T.);
#662=EDGE_CURVE('',#529,#517,#322,.T.);
#663=EDGE_CURVE('',#518,#519,#323,.T.);
#664=EDGE_CURVE('',#530,#531,#324,.T.);
#665=EDGE_CURVE('',#531,#525,#325,.T.);
#666=EDGE_CURVE('',#532,#526,#326,.T.);
#667=EDGE_CURVE('',#532,#531,#327,.T.);
#668=EDGE_CURVE('',#510,#532,#328,.T.);
#669=ORIENTED_EDGE('',*,*,#533,.T.);
#670=ORIENTED_EDGE('',*,*,#534,.F.);
#671=ORIENTED_EDGE('',*,*,#535,.F.);
#672=ORIENTED_EDGE('',*,*,#536,.T.);
#673=ORIENTED_EDGE('',*,*,#537,.T.);
#674=ORIENTED_EDGE('',*,*,#538,.F.);
#675=ORIENTED_EDGE('',*,*,#539,.F.);
#676=ORIENTED_EDGE('',*,*,#534,.T.);
#677=ORIENTED_EDGE('',*,*,#540,.T.);
#678=ORIENTED_EDGE('',*,*,#541,.F.);
#679=ORIENTED_EDGE('',*,*,#542,.F.);
#680=ORIENTED_EDGE('',*,*,#538,.T.);
#681=ORIENTED_EDGE('',*,*,#543,.T.);
#682=ORIENTED_EDGE('',*,*,#536,.F.);
#683=ORIENTED_EDGE('',*,*,#544,.F.);
#684=ORIENTED_EDGE('',*,*,#541,.T.);
#685=ORIENTED_EDGE('',*,*,#533,.F.);
#686=ORIENTED_EDGE('',*,*,#543,.F.);
#687=ORIENTED_EDGE('',*,*,#540,.F.);
#688=ORIENTED_EDGE('',*,*,#537,.F.);
#689=ORIENTED_EDGE('',*,*,#544,.T.);
#690=ORIENTED_EDGE('',*,*,#535,.T.);
#691=ORIENTED_EDGE('',*,*,#539,.T.);
#692=ORIENTED_EDGE('',*,*,#542,.T.);
#693=ORIENTED_EDGE('',*,*,#545,.T.);
#694=ORIENTED_EDGE('',*,*,#546,.F.);
#695=ORIENTED_EDGE('',*,*,#547,.F.);
#696=ORIENTED_EDGE('',*,*,#548,.T.);
#697=ORIENTED_EDGE('',*,*,#549,.T.);
#698=ORIENTED_EDGE('',*,*,#550,.F.);
#699=ORIENTED_EDGE('',*,*,#551,.F.);
#700=ORIENTED_EDGE('',*,*,#546,.T.);
#701=ORIENTED_EDGE('',*,*,#552,.T.);
#702=ORIENTED_EDGE('',*,*,#553,.F.);
#703=ORIENTED_EDGE('',*,*,#554,.F.);
#704=ORIENTED_EDGE('',*,*,#550,.T.);
#705=ORIENTED_EDGE('',*,*,#555,.T.);
#706=ORIENTED_EDGE('',*,*,#548,.F.);
#707=ORIENTED_EDGE('',*,*,#556,.F.);
#708=ORIENTED_EDGE('',*,*,#553,.T.);
#709=ORIENTED_EDGE('',*,*,#545,.F.);
#710=ORIENTED_EDGE('',*,*,#555,.F.);
#711=ORIENTED_EDGE('',*,*,#552,.F.);
#712=ORIENTED_EDGE('',*,*,#549,.F.);
#713=ORIENTED_EDGE('',*,*,#556,.T.);
#714=ORIENTED_EDGE('',*,*,#547,.T.);
#715=ORIENTED_EDGE('',*,*,#551,.T.);
#716=ORIENTED_EDGE('',*,*,#554,.T.);
#717=ORIENTED_EDGE('',*,*,#557,.T.);
#718=ORIENTED_EDGE('',*,*,#558,.F.);
#719=ORIENTED_EDGE('',*,*,#559,.F.);
#720=ORIENTED_EDGE('',*,*,#560,.T.);
#721=ORIENTED_EDGE('',*,*,#561,.T.);
#722=ORIENTED_EDGE('',*,*,#562,.F.);
#723=ORIENTED_EDGE('',*,*,#563,.F.);
#724=ORIENTED_EDGE('',*,*,#558,.T.);
#725=ORIENTED_EDGE('',*,*,#564,.T.);
#726=ORIENTED_EDGE('',*,*,#565,.F.);
#727=ORIENTED_EDGE('',*,*,#566,.F.);
#728=ORIENTED_EDGE('',*,*,#562,.T.);
#729=ORIENTED_EDGE('',*,*,#567,.T.);
#730=ORIENTED_EDGE('',*,*,#560,.F.);
#731=ORIENTED_EDGE('',*,*,#568,.F.);
#732=ORIENTED_EDGE('',*,*,#565,.T.);
#733=ORIENTED_EDGE('',*,*,#557,.F.);
#734=ORIENTED_EDGE('',*,*,#567,.F.);
#735=ORIENTED_EDGE('',*,*,#564,.F.);
#736=ORIENTED_EDGE('',*,*,#561,.F.);
#737=ORIENTED_EDGE('',*,*,#568,.T.);
#738=ORIENTED_EDGE('',*,*,#559,.T.);
#739=ORIENTED_EDGE('',*,*,#563,.T.);
#740=ORIENTED_EDGE('',*,*,#566,.T.);
#741=ORIENTED_EDGE('',*,*,#569,.T.);
#742=ORIENTED_EDGE('',*,*,#570,.F.);
#743=ORIENTED_EDGE('',*,*,#571,.F.);
#744=ORIENTED_EDGE('',*,*,#572,.T.);
#745=ORIENTED_EDGE('',*,*,#573,.T.);
#746=ORIENTED_EDGE('',*,*,#574,.F.);
#747=ORIENTED_EDGE('',*,*,#575,.F.);
#748=ORIENTED_EDGE('',*,*,#570,.T.);
#749=ORIENTED_EDGE('',*,*,#576,.T.);
#750=ORIENTED_EDGE('',*,*,#577,.F.);
#751=ORIENTED_EDGE('',*,*,#578,.F.);
#752=ORIENTED_EDGE('',*,*,#574,.T.);
#753=ORIENTED_EDGE('',*,*,#579,.T.);
#754=ORIENTED_EDGE('',*,*,#572,.F.);
#755=ORIENTED_EDGE('',*,*,#580,.F.);
#756=ORIENTED_EDGE('',*,*,#577,.T.);
#757=ORIENTED_EDGE('',*,*,#569,.F.);
#758=ORIENTED_EDGE('',*,*,#579,.F.);
#759=ORIENTED_EDGE('',*,*,#576,.F.);
#760=ORIENTED_EDGE('',*,*,#573,.F.);
#761=ORIENTED_EDGE('',*,*,#580,.T.);
#762=ORIENTED_EDGE('',*,*,#571,.T.);
#763=ORIENTED_EDGE('',*,*,#575,.T.);
#764=ORIENTED_EDGE('',*,*,#578,.T.);
#765=ORIENTED_EDGE('',*,*,#581,.T.);
#766=ORIENTED_EDGE('',*,*,#582,.F.);
#767=ORIENTED_EDGE('',*,*,#583,.F.);
#768=ORIENTED_EDGE('',*,*,#584,.T.);
#769=ORIENTED_EDGE('',*,*,#585,.T.);
#770=ORIENTED_EDGE('',*,*,#586,.F.);
#771=ORIENTED_EDGE('',*,*,#587,.F.);
#772=ORIENTED_EDGE('',*,*,#582,.T.);
#773=ORIENTED_EDGE('',*,*,#588,.T.);
#774=ORIENTED_EDGE('',*,*,#589,.F.);
#775=ORIENTED_EDGE('',*,*,#590,.F.);
#776=ORIENTED_EDGE('',*,*,#586,.T.);
#777=ORIENTED_EDGE('',*,*,#591,.T.);
#778=ORIENTED_EDGE('',*,*,#584,.F.);
#779=ORIENTED_EDGE('',*,*,#592,.F.);
#780=ORIENTED_EDGE('',*,*,#589,.T.);
#781=ORIENTED_EDGE('',*,*,#581,.F.);
#782=ORIENTED_EDGE('',*,*,#591,.F.);
#783=ORIENTED_EDGE('',*,*,#588,.F.);
#784=ORIENTED_EDGE('',*,*,#585,.F.);
#785=ORIENTED_EDGE('',*,*,#592,.T.);
#786=ORIENTED_EDGE('',*,*,#583,.T.);
#787=ORIENTED_EDGE('',*,*,#587,.T.);
#788=ORIENTED_EDGE('',*,*,#590,.T.);
#789=ORIENTED_EDGE('',*,*,#593,.T.);
#790=ORIENTED_EDGE('',*,*,#594,.F.);
#791=ORIENTED_EDGE('',*,*,#595,.F.);
#792=ORIENTED_EDGE('',*,*,#596,.T.);
#793=ORIENTED_EDGE('',*,*,#597,.T.);
#794=ORIENTED_EDGE('',*,*,#598,.F.);
#795=ORIENTED_EDGE('',*,*,#599,.F.);
#796=ORIENTED_EDGE('',*,*,#594,.T.);
#797=ORIENTED_EDGE('',*,*,#600,.T.);
#798=ORIENTED_EDGE('',*,*,#601,.F.);
#799=ORIENTED_EDGE('',*,*,#602,.F.);
#800=ORIENTED_EDGE('',*,*,#598,.T.);
#801=ORIENTED_EDGE('',*,*,#603,.T.);
#802=ORIENTED_EDGE('',*,*,#596,.F.);
#803=ORIENTED_EDGE('',*,*,#604,.F.);
#804=ORIENTED_EDGE('',*,*,#601,.T.);
#805=ORIENTED_EDGE('',*,*,#593,.F.);
#806=ORIENTED_EDGE('',*,*,#603,.F.);
#807=ORIENTED_EDGE('',*,*,#600,.F.);
#808=ORIENTED_EDGE('',*,*,#597,.F.);
#809=ORIENTED_EDGE('',*,*,#604,.T.);
#810=ORIENTED_EDGE('',*,*,#595,.T.);
#811=ORIENTED_EDGE('',*,*,#599,.T.);
#812=ORIENTED_EDGE('',*,*,#602,.T.);
#813=ORIENTED_EDGE('',*,*,#605,.T.);
#814=ORIENTED_EDGE('',*,*,#606,.F.);
#815=ORIENTED_EDGE('',*,*,#607,.F.);
#816=ORIENTED_EDGE('',*,*,#608,.T.);
#817=ORIENTED_EDGE('',*,*,#609,.T.);
#818=ORIENTED_EDGE('',*,*,#610,.F.);
#819=ORIENTED_EDGE('',*,*,#611,.F.);
#820=ORIENTED_EDGE('',*,*,#606,.T.);
#821=ORIENTED_EDGE('',*,*,#612,.T.);
#822=ORIENTED_EDGE('',*,*,#613,.F.);
#823=ORIENTED_EDGE('',*,*,#614,.F.);
#824=ORIENTED_EDGE('',*,*,#610,.T.);
#825=ORIENTED_EDGE('',*,*,#615,.T.);
#826=ORIENTED_EDGE('',*,*,#608,.F.);
#827=ORIENTED_EDGE('',*,*,#616,.F.);
#828=ORIENTED_EDGE('',*,*,#613,.T.);
#829=ORIENTED_EDGE('',*,*,#605,.F.);
#830=ORIENTED_EDGE('',*,*,#615,.F.);
#831=ORIENTED_EDGE('',*,*,#612,.F.);
#832=ORIENTED_EDGE('',*,*,#609,.F.);
#833=ORIENTED_EDGE('',*,*,#616,.T.);
#834=ORIENTED_EDGE('',*,*,#607,.T.);
#835=ORIENTED_EDGE('',*,*,#611,.T.);
#836=ORIENTED_EDGE('',*,*,#614,.T.);
#837=ORIENTED_EDGE('',*,*,#617,.T.);
#838=ORIENTED_EDGE('',*,*,#618,.F.);
#839=ORIENTED_EDGE('',*,*,#617,.F.);
#840=ORIENTED_EDGE('',*,*,#618,.T.);
#841=ORIENTED_EDGE('',*,*,#619,.F.);
#842=ORIENTED_EDGE('',*,*,#620,.F.);
#843=ORIENTED_EDGE('',*,*,#621,.F.);
#844=ORIENTED_EDGE('',*,*,#622,.F.);
#845=ORIENTED_EDGE('',*,*,#623,.F.);
#846=ORIENTED_EDGE('',*,*,#624,.F.);
#847=ORIENTED_EDGE('',*,*,#623,.T.);
#848=ORIENTED_EDGE('',*,*,#625,.T.);
#849=ORIENTED_EDGE('',*,*,#619,.T.);
#850=ORIENTED_EDGE('',*,*,#626,.T.);
#851=ORIENTED_EDGE('',*,*,#627,.T.);
#852=ORIENTED_EDGE('',*,*,#628,.T.);
#853=ORIENTED_EDGE('',*,*,#624,.T.);
#854=ORIENTED_EDGE('',*,*,#629,.T.);
#855=ORIENTED_EDGE('',*,*,#630,.F.);
#856=ORIENTED_EDGE('',*,*,#631,.F.);
#857=ORIENTED_EDGE('',*,*,#632,.F.);
#858=ORIENTED_EDGE('',*,*,#633,.F.);
#859=ORIENTED_EDGE('',*,*,#634,.F.);
#860=ORIENTED_EDGE('',*,*,#635,.F.);
#861=ORIENTED_EDGE('',*,*,#631,.T.);
#862=ORIENTED_EDGE('',*,*,#636,.T.);
#863=ORIENTED_EDGE('',*,*,#634,.T.);
#864=ORIENTED_EDGE('',*,*,#637,.T.);
#865=ORIENTED_EDGE('',*,*,#635,.T.);
#866=ORIENTED_EDGE('',*,*,#638,.T.);
#867=ORIENTED_EDGE('',*,*,#622,.T.);
#868=ORIENTED_EDGE('',*,*,#639,.T.);
#869=ORIENTED_EDGE('',*,*,#640,.T.);
#870=ORIENTED_EDGE('',*,*,#641,.T.);
#871=ORIENTED_EDGE('',*,*,#633,.T.);
#872=ORIENTED_EDGE('',*,*,#642,.T.);
#873=ORIENTED_EDGE('',*,*,#643,.T.);
#874=ORIENTED_EDGE('',*,*,#644,.T.);
#875=ORIENTED_EDGE('',*,*,#632,.T.);
#876=ORIENTED_EDGE('',*,*,#645,.T.);
#877=ORIENTED_EDGE('',*,*,#620,.T.);
#878=ORIENTED_EDGE('',*,*,#646,.T.);
#879=ORIENTED_EDGE('',*,*,#630,.T.);
#880=ORIENTED_EDGE('',*,*,#647,.T.);
#881=ORIENTED_EDGE('',*,*,#648,.T.);
#882=ORIENTED_EDGE('',*,*,#649,.T.);
#883=ORIENTED_EDGE('',*,*,#621,.T.);
#884=ORIENTED_EDGE('',*,*,#650,.T.);
#885=ORIENTED_EDGE('',*,*,#629,.F.);
#886=ORIENTED_EDGE('',*,*,#626,.F.);
#887=ORIENTED_EDGE('',*,*,#649,.F.);
#888=ORIENTED_EDGE('',*,*,#651,.T.);
#889=ORIENTED_EDGE('',*,*,#650,.F.);
#890=ORIENTED_EDGE('',*,*,#647,.F.);
#891=ORIENTED_EDGE('',*,*,#644,.F.);
#892=ORIENTED_EDGE('',*,*,#652,.T.);
#893=ORIENTED_EDGE('',*,*,#653,.T.);
#894=ORIENTED_EDGE('',*,*,#654,.F.);
#895=ORIENTED_EDGE('',*,*,#655,.F.);
#896=ORIENTED_EDGE('',*,*,#656,.T.);
#897=ORIENTED_EDGE('',*,*,#657,.T.);
#898=ORIENTED_EDGE('',*,*,#636,.F.);
#899=ORIENTED_EDGE('',*,*,#646,.F.);
#900=ORIENTED_EDGE('',*,*,#625,.F.);
#901=ORIENTED_EDGE('',*,*,#638,.F.);
#902=ORIENTED_EDGE('',*,*,#658,.F.);
#903=ORIENTED_EDGE('',*,*,#657,.F.);
#904=ORIENTED_EDGE('',*,*,#658,.T.);
#905=ORIENTED_EDGE('',*,*,#659,.T.);
#906=ORIENTED_EDGE('',*,*,#660,.T.);
#907=ORIENTED_EDGE('',*,*,#661,.F.);
#908=ORIENTED_EDGE('',*,*,#653,.F.);
#909=ORIENTED_EDGE('',*,*,#640,.F.);
#910=ORIENTED_EDGE('',*,*,#662,.F.);
#911=ORIENTED_EDGE('',*,*,#659,.F.);
#912=ORIENTED_EDGE('',*,*,#652,.F.);
#913=ORIENTED_EDGE('',*,*,#643,.F.);
#914=ORIENTED_EDGE('',*,*,#663,.F.);
#915=ORIENTED_EDGE('',*,*,#661,.T.);
#916=ORIENTED_EDGE('',*,*,#664,.T.);
#917=ORIENTED_EDGE('',*,*,#665,.T.);
#918=ORIENTED_EDGE('',*,*,#654,.T.);
#919=ORIENTED_EDGE('',*,*,#641,.F.);
#920=ORIENTED_EDGE('',*,*,#663,.T.);
#921=ORIENTED_EDGE('',*,*,#645,.F.);
#922=ORIENTED_EDGE('',*,*,#637,.F.);
#923=ORIENTED_EDGE('',*,*,#666,.T.);
#924=ORIENTED_EDGE('',*,*,#655,.T.);
#925=ORIENTED_EDGE('',*,*,#665,.F.);
#926=ORIENTED_EDGE('',*,*,#667,.F.);
#927=ORIENTED_EDGE('',*,*,#628,.F.);
#928=ORIENTED_EDGE('',*,*,#668,.T.);
#929=ORIENTED_EDGE('',*,*,#667,.T.);
#930=ORIENTED_EDGE('',*,*,#664,.F.);
#931=ORIENTED_EDGE('',*,*,#660,.F.);
#932=ORIENTED_EDGE('',*,*,#662,.T.);
#933=ORIENTED_EDGE('',*,*,#642,.F.);
#934=ORIENTED_EDGE('',*,*,#639,.F.);
#935=ORIENTED_EDGE('',*,*,#627,.F.);
#936=ORIENTED_EDGE('',*,*,#651,.F.);
#937=ORIENTED_EDGE('',*,*,#648,.F.);
#938=ORIENTED_EDGE('',*,*,#656,.F.);
#939=ORIENTED_EDGE('',*,*,#666,.F.);
#940=ORIENTED_EDGE('',*,*,#668,.F.);
#941=PLANE('',#1075);
#942=PLANE('',#1076);
#943=PLANE('',#1077);
#944=PLANE('',#1078);
#945=PLANE('',#1079);
#946=PLANE('',#1080);
#947=PLANE('',#1081);
#948=PLANE('',#1082);
#949=PLANE('',#1083);
#950=PLANE('',#1084);
#951=PLANE('',#1085);
#952=PLANE('',#1086);
#953=PLANE('',#1087);
#954=PLANE('',#1088);
#955=PLANE('',#1089);
#956=PLANE('',#1090);
#957=PLANE('',#1091);
#958=PLANE('',#1092);
#959=PLANE('',#1093);
#960=PLANE('',#1094);
#961=PLANE('',#1095);
#962=PLANE('',#1096);
#963=PLANE('',#1097);
#964=PLANE('',#1098);
#965=PLANE('',#1099);
#966=PLANE('',#1100);
#967=PLANE('',#1101);
#968=PLANE('',#1102);
#969=PLANE('',#1103);
#970=PLANE('',#1104);
#971=PLANE('',#1105);
#972=PLANE('',#1106);
#973=PLANE('',#1107);
#974=PLANE('',#1108);
#975=PLANE('',#1109);
#976=PLANE('',#1110);
#977=PLANE('',#1111);
#978=PLANE('',#1112);
#979=PLANE('',#1113);
#980=PLANE('',#1114);
#981=PLANE('',#1115);
#982=PLANE('',#1116);
#983=PLANE('',#1120);
#984=PLANE('',#1121);
#985=PLANE('',#1150);
#986=PLANE('',#1151);
#987=PLANE('',#1153);
#988=PLANE('',#1156);
#989=PLANE('',#1157);
#990=PLANE('',#1158);
#991=PLANE('',#1159);
#992=PLANE('',#1160);
#993=PLANE('',#1161);
#994=PLANE('',#1162);
#995=PLANE('',#1163);
#996=ADVANCED_FACE('',(#72),#941,.T.);
#997=ADVANCED_FACE('',(#73),#942,.T.);
#998=ADVANCED_FACE('',(#74),#943,.T.);
#999=ADVANCED_FACE('',(#75),#944,.T.);
#1000=ADVANCED_FACE('',(#76),#945,.F.);
#1001=ADVANCED_FACE('',(#77),#946,.T.);
#1002=ADVANCED_FACE('',(#78),#947,.T.);
#1003=ADVANCED_FACE('',(#79),#948,.T.);
#1004=ADVANCED_FACE('',(#80),#949,.T.);
#1005=ADVANCED_FACE('',(#81),#950,.T.);
#1006=ADVANCED_FACE('',(#82),#951,.F.);
#1007=ADVANCED_FACE('',(#83),#952,.T.);
#1008=ADVANCED_FACE('',(#84),#953,.T.);
#1009=ADVANCED_FACE('',(#85),#954,.T.);
#1010=ADVANCED_FACE('',(#86),#955,.T.);
#1011=ADVANCED_FACE('',(#87),#956,.T.);
#1012=ADVANCED_FACE('',(#88),#957,.F.);
#1013=ADVANCED_FACE('',(#89),#958,.T.);
#1014=ADVANCED_FACE('',(#90),#959,.T.);
#1015=ADVANCED_FACE('',(#91),#960,.T.);
#1016=ADVANCED_FACE('',(#92),#961,.T.);
#1017=ADVANCED_FACE('',(#93),#962,.T.);
#1018=ADVANCED_FACE('',(#94),#963,.F.);
#1019=ADVANCED_FACE('',(#95),#964,.T.);
#1020=ADVANCED_FACE('',(#96),#965,.T.);
#1021=ADVANCED_FACE('',(#97),#966,.T.);
#1022=ADVANCED_FACE('',(#98),#967,.T.);
#1023=ADVANCED_FACE('',(#99),#968,.T.);
#1024=ADVANCED_FACE('',(#100),#969,.F.);
#1025=ADVANCED_FACE('',(#101),#970,.T.);
#1026=ADVANCED_FACE('',(#102),#971,.T.);
#1027=ADVANCED_FACE('',(#103),#972,.T.);
#1028=ADVANCED_FACE('',(#104),#973,.T.);
#1029=ADVANCED_FACE('',(#105),#974,.T.);
#1030=ADVANCED_FACE('',(#106),#975,.F.);
#1031=ADVANCED_FACE('',(#107),#976,.T.);
#1032=ADVANCED_FACE('',(#108),#977,.T.);
#1033=ADVANCED_FACE('',(#109),#978,.T.);
#1034=ADVANCED_FACE('',(#110),#979,.T.);
#1035=ADVANCED_FACE('',(#111),#980,.T.);
#1036=ADVANCED_FACE('',(#112),#981,.F.);
#1037=ADVANCED_FACE('',(#113),#982,.T.);
#1038=ADVANCED_FACE('',(#114,#19),#42,.T.);
#1039=ADVANCED_FACE('',(#115),#983,.F.);
#1040=ADVANCED_FACE('',(#116),#984,.T.);
#1041=ADVANCED_FACE('',(#117),#15,.T.);
#1042=ADVANCED_FACE('',(#118),#16,.T.);
#1043=ADVANCED_FACE('',(#119),#43,.T.);
#1044=ADVANCED_FACE('',(#120),#44,.T.);
#1045=ADVANCED_FACE('',(#121),#17,.T.);
#1046=ADVANCED_FACE('',(#122),#18,.T.);
#1047=ADVANCED_FACE('',(#123),#45,.T.);
#1048=ADVANCED_FACE('',(#124),#46,.T.);
#1049=ADVANCED_FACE('',(#125),#47,.T.);
#1050=ADVANCED_FACE('',(#126),#48,.T.);
#1051=ADVANCED_FACE('',(#127),#49,.T.);
#1052=ADVANCED_FACE('',(#128),#50,.T.);
#1053=ADVANCED_FACE('',(#129),#985,.T.);
#1054=ADVANCED_FACE('',(#130,#20),#986,.T.);
#1055=ADVANCED_FACE('',(#131),#987,.T.);
#1056=ADVANCED_FACE('',(#132,#21),#51,.F.);
#1057=ADVANCED_FACE('',(#133),#988,.T.);
#1058=ADVANCED_FACE('',(#134),#989,.T.);
#1059=ADVANCED_FACE('',(#135),#990,.F.);
#1060=ADVANCED_FACE('',(#136),#991,.F.);
#1061=ADVANCED_FACE('',(#137),#992,.F.);
#1062=ADVANCED_FACE('',(#138),#993,.T.);
#1063=ADVANCED_FACE('',(#139),#994,.T.);
#1064=ADVANCED_FACE('',(#140),#995,.F.);
#1065=CLOSED_SHELL('',(#996,#997,#998,#999,#1000,#1001));
#1066=CLOSED_SHELL('',(#1002,#1003,#1004,#1005,#1006,#1007));
#1067=CLOSED_SHELL('',(#1008,#1009,#1010,#1011,#1012,#1013));
#1068=CLOSED_SHELL('',(#1014,#1015,#1016,#1017,#1018,#1019));
#1069=CLOSED_SHELL('',(#1020,#1021,#1022,#1023,#1024,#1025));
#1070=CLOSED_SHELL('',(#1026,#1027,#1028,#1029,#1030,#1031));
#1071=CLOSED_SHELL('',(#1032,#1033,#1034,#1035,#1036,#1037));
#1072=CLOSED_SHELL('',(#1038,#1039,#1040));
#1073=CLOSED_SHELL('',(#1041,#1042,#1043,#1044,#1045,#1046,#1047,#1048,
#1049,#1050,#1051,#1052,#1053,#1054,#1055,#1056,#1057,#1058,#1059,#1060,
#1061,#1062,#1063,#1064));
#1074=AXIS2_PLACEMENT_3D('placement',#1460,#1164,#1165);
#1075=AXIS2_PLACEMENT_3D('',#1461,#1166,#1167);
#1076=AXIS2_PLACEMENT_3D('',#1470,#1172,#1173);
#1077=AXIS2_PLACEMENT_3D('',#1476,#1177,#1178);
#1078=AXIS2_PLACEMENT_3D('',#1482,#1182,#1183);
#1079=AXIS2_PLACEMENT_3D('',#1485,#1186,#1187);
#1080=AXIS2_PLACEMENT_3D('',#1486,#1188,#1189);
#1081=AXIS2_PLACEMENT_3D('',#1487,#1190,#1191);
#1082=AXIS2_PLACEMENT_3D('',#1496,#1196,#1197);
#1083=AXIS2_PLACEMENT_3D('',#1502,#1201,#1202);
#1084=AXIS2_PLACEMENT_3D('',#1508,#1206,#1207);
#1085=AXIS2_PLACEMENT_3D('',#1511,#1210,#1211);
#1086=AXIS2_PLACEMENT_3D('',#1512,#1212,#1213);
#1087=AXIS2_PLACEMENT_3D('',#1513,#1214,#1215);
#1088=AXIS2_PLACEMENT_3D('',#1522,#1220,#1221);
#1089=AXIS2_PLACEMENT_3D('',#1528,#1225,#1226);
#1090=AXIS2_PLACEMENT_3D('',#1534,#1230,#1231);
#1091=AXIS2_PLACEMENT_3D('',#1537,#1234,#1235);
#1092=AXIS2_PLACEMENT_3D('',#1538,#1236,#1237);
#1093=AXIS2_PLACEMENT_3D('',#1539,#1238,#1239);
#1094=AXIS2_PLACEMENT_3D('',#1548,#1244,#1245);
#1095=AXIS2_PLACEMENT_3D('',#1554,#1249,#1250);
#1096=AXIS2_PLACEMENT_3D('',#1560,#1254,#1255);
#1097=AXIS2_PLACEMENT_3D('',#1563,#1258,#1259);
#1098=AXIS2_PLACEMENT_3D('',#1564,#1260,#1261);
#1099=AXIS2_PLACEMENT_3D('',#1565,#1262,#1263);
#1100=AXIS2_PLACEMENT_3D('',#1574,#1268,#1269);
#1101=AXIS2_PLACEMENT_3D('',#1580,#1273,#1274);
#1102=AXIS2_PLACEMENT_3D('',#1586,#1278,#1279);
#1103=AXIS2_PLACEMENT_3D('',#1589,#1282,#1283);
#1104=AXIS2_PLACEMENT_3D('',#1590,#1284,#1285);
#1105=AXIS2_PLACEMENT_3D('',#1591,#1286,#1287);
#1106=AXIS2_PLACEMENT_3D('',#1600,#1292,#1293);
#1107=AXIS2_PLACEMENT_3D('',#1606,#1297,#1298);
#1108=AXIS2_PLACEMENT_3D('',#1612,#1302,#1303);
#1109=AXIS2_PLACEMENT_3D('',#1615,#1306,#1307);
#1110=AXIS2_PLACEMENT_3D('',#1616,#1308,#1309);
#1111=AXIS2_PLACEMENT_3D('',#1617,#1310,#1311);
#1112=AXIS2_PLACEMENT_3D('',#1626,#1316,#1317);
#1113=AXIS2_PLACEMENT_3D('',#1632,#1321,#1322);
#1114=AXIS2_PLACEMENT_3D('',#1638,#1326,#1327);
#1115=AXIS2_PLACEMENT_3D('',#1641,#1330,#1331);
#1116=AXIS2_PLACEMENT_3D('',#1642,#1332,#1333);
#1117=AXIS2_PLACEMENT_3D('',#1643,#1334,#1335);
#1118=AXIS2_PLACEMENT_3D('',#1645,#1336,#1337);
#1119=AXIS2_PLACEMENT_3D('',#1647,#1338,#1339);
#1120=AXIS2_PLACEMENT_3D('',#1648,#1340,#1341);
#1121=AXIS2_PLACEMENT_3D('',#1649,#1342,#1343);
#1122=AXIS2_PLACEMENT_3D('',#1650,#1344,#1345);
#1123=AXIS2_PLACEMENT_3D('',#1653,#1346,#1347);
#1124=AXIS2_PLACEMENT_3D('',#1655,#1348,#1349);
#1125=AXIS2_PLACEMENT_3D('',#1656,#1350,#1351);
#1126=AXIS2_PLACEMENT_3D('',#1657,#1352,#1353);
#1127=AXIS2_PLACEMENT_3D('',#1660,#1354,#1355);
#1128=AXIS2_PLACEMENT_3D('',#1662,#1356,#1357);
#1129=AXIS2_PLACEMENT_3D('',#1663,#1358,#1359);
#1130=AXIS2_PLACEMENT_3D('',#1664,#1360,#1361);
#1131=AXIS2_PLACEMENT_3D('',#1667,#1364,#1365);
#1132=AXIS2_PLACEMENT_3D('',#1670,#1366,#1367);
#1133=AXIS2_PLACEMENT_3D('',#1673,#1370,#1371);
#1134=AXIS2_PLACEMENT_3D('',#1676,#1372,#1373);
#1135=AXIS2_PLACEMENT_3D('',#1678,#1374,#1375);
#1136=AXIS2_PLACEMENT_3D('',#1679,#1376,#1377);
#1137=AXIS2_PLACEMENT_3D('',#1680,#1378,#1379);
#1138=AXIS2_PLACEMENT_3D('',#1683,#1380,#1381);
#1139=AXIS2_PLACEMENT_3D('',#1685,#1382,#1383);
#1140=AXIS2_PLACEMENT_3D('',#1686,#1384,#1385);
#1141=AXIS2_PLACEMENT_3D('',#1687,#1386,#1387);
#1142=AXIS2_PLACEMENT_3D('',#1690,#1390,#1391);
#1143=AXIS2_PLACEMENT_3D('',#1693,#1394,#1395);
#1144=AXIS2_PLACEMENT_3D('',#1696,#1396,#1397);
#1145=AXIS2_PLACEMENT_3D('',#1699,#1400,#1401);
#1146=AXIS2_PLACEMENT_3D('',#1702,#1402,#1403);
#1147=AXIS2_PLACEMENT_3D('',#1705,#1406,#1407);
#1148=AXIS2_PLACEMENT_3D('',#1708,#1410,#1411);
#1149=AXIS2_PLACEMENT_3D('',#1711,#1412,#1413);
#1150=AXIS2_PLACEMENT_3D('',#1714,#1416,#1417);
#1151=AXIS2_PLACEMENT_3D('',#1716,#1419,#1420);
#1152=AXIS2_PLACEMENT_3D('',#1727,#1426,#1427);
#1153=AXIS2_PLACEMENT_3D('',#1728,#1428,#1429);
#1154=AXIS2_PLACEMENT_3D('',#1729,#1430,#1431);
#1155=AXIS2_PLACEMENT_3D('',#1731,#1432,#1433);
#1156=AXIS2_PLACEMENT_3D('',#1732,#1434,#1435);
#1157=AXIS2_PLACEMENT_3D('',#1733,#1436,#1437);
#1158=AXIS2_PLACEMENT_3D('',#1739,#1441,#1442);
#1159=AXIS2_PLACEMENT_3D('',#1742,#1445,#1446);
#1160=AXIS2_PLACEMENT_3D('',#1746,#1449,#1450);
#1161=AXIS2_PLACEMENT_3D('',#1747,#1451,#1452);
#1162=AXIS2_PLACEMENT_3D('',#1751,#1455,#1456);
#1163=AXIS2_PLACEMENT_3D('',#1753,#1458,#1459);
#1164=DIRECTION('axis',(0.,0.,1.));
#1165=DIRECTION('refdir',(1.,0.,0.));
#1166=DIRECTION('center_axis',(0.,-1.,0.));
#1167=DIRECTION('ref_axis',(0.,0.,-1.));
#1168=DIRECTION('',(1.,0.,0.));
#1169=DIRECTION('',(0.,0.,-1.));
#1170=DIRECTION('',(1.,0.,0.));
#1171=DIRECTION('',(0.,0.,-1.));
#1172=DIRECTION('center_axis',(1.,0.,0.));
#1173=DIRECTION('ref_axis',(0.,0.,-1.));
#1174=DIRECTION('',(0.,1.,0.));
#1175=DIRECTION('',(0.,0.,-1.));
#1176=DIRECTION('',(0.,1.,0.));
#1177=DIRECTION('center_axis',(0.,1.,0.));
#1178=DIRECTION('ref_axis',(0.,0.,1.));
#1179=DIRECTION('',(-1.,0.,0.));
#1180=DIRECTION('',(0.,0.,-1.));
#1181=DIRECTION('',(-1.,0.,0.));
#1182=DIRECTION('center_axis',(-1.,0.,0.));
#1183=DIRECTION('ref_axis',(0.,0.,1.));
#1184=DIRECTION('',(0.,-1.,0.));
#1185=DIRECTION('',(0.,-1.,0.));
#1186=DIRECTION('center_axis',(0.,0.,1.));
#1187=DIRECTION('ref_axis',(1.,0.,0.));
#1188=DIRECTION('center_axis',(0.,0.,1.));
#1189=DIRECTION('ref_axis',(1.,0.,0.));
#1190=DIRECTION('center_axis',(0.,-1.,0.));
#1191=DIRECTION('ref_axis',(0.,0.,-1.));
#1192=DIRECTION('',(1.,0.,0.));
#1193=DIRECTION('',(0.,0.,-1.));
#1194=DIRECTION('',(1.,0.,0.));
#1195=DIRECTION('',(0.,0.,-1.));
#1196=DIRECTION('center_axis',(1.,0.,0.));
#1197=DIRECTION('ref_axis',(0.,0.,-1.));
#1198=DIRECTION('',(0.,1.,0.));
#1199=DIRECTION('',(0.,0.,-1.));
#1200=DIRECTION('',(0.,1.,0.));
#1201=DIRECTION('center_axis',(0.,1.,0.));
#1202=DIRECTION('ref_axis',(0.,0.,1.));
#1203=DIRECTION('',(-1.,0.,0.));
#1204=DIRECTION('',(0.,0.,-1.));
#1205=DIRECTION('',(-1.,0.,0.));
#1206=DIRECTION('center_axis',(-1.,0.,0.));
#1207=DIRECTION('ref_axis',(0.,0.,1.));
#1208=DIRECTION('',(0.,-1.,0.));
#1209=DIRECTION('',(0.,-1.,0.));
#1210=DIRECTION('center_axis',(0.,0.,1.));
#1211=DIRECTION('ref_axis',(1.,0.,0.));
#1212=DIRECTION('center_axis',(0.,0.,1.));
#1213=DIRECTION('ref_axis',(1.,0.,0.));
#1214=DIRECTION('center_axis',(0.,-1.,0.));
#1215=DIRECTION('ref_axis',(0.,0.,-1.));
#1216=DIRECTION('',(1.,0.,0.));
#1217=DIRECTION('',(0.,0.,-1.));
#1218=DIRECTION('',(1.,0.,0.));
#1219=DIRECTION('',(0.,0.,-1.));
#1220=DIRECTION('center_axis',(1.,0.,0.));
#1221=DIRECTION('ref_axis',(0.,0.,-1.));
#1222=DIRECTION('',(0.,1.,0.));
#1223=DIRECTION('',(0.,0.,-1.));
#1224=DIRECTION('',(0.,1.,0.));
#1225=DIRECTION('center_axis',(0.,1.,0.));
#1226=DIRECTION('ref_axis',(0.,0.,1.));
#1227=DIRECTION('',(-1.,0.,0.));
#1228=DIRECTION('',(0.,0.,-1.));
#1229=DIRECTION('',(-1.,0.,0.));
#1230=DIRECTION('center_axis',(-1.,0.,0.));
#1231=DIRECTION('ref_axis',(0.,0.,1.));
#1232=DIRECTION('',(0.,-1.,0.));
#1233=DIRECTION('',(0.,-1.,0.));
#1234=DIRECTION('center_axis',(0.,0.,1.));
#1235=DIRECTION('ref_axis',(1.,0.,0.));
#1236=DIRECTION('center_axis',(0.,0.,1.));
#1237=DIRECTION('ref_axis',(1.,0.,0.));
#1238=DIRECTION('center_axis',(0.,-1.,0.));
#1239=DIRECTION('ref_axis',(0.,0.,-1.));
#1240=DIRECTION('',(1.,0.,0.));
#1241=DIRECTION('',(0.,0.,-1.));
#1242=DIRECTION('',(1.,0.,0.));
#1243=DIRECTION('',(0.,0.,-1.));
#1244=DIRECTION('center_axis',(1.,0.,0.));
#1245=DIRECTION('ref_axis',(0.,0.,-1.));
#1246=DIRECTION('',(0.,1.,0.));
#1247=DIRECTION('',(0.,0.,-1.));
#1248=DIRECTION('',(0.,1.,0.));
#1249=DIRECTION('center_axis',(0.,1.,0.));
#1250=DIRECTION('ref_axis',(0.,0.,1.));
#1251=DIRECTION('',(-1.,0.,0.));
#1252=DIRECTION('',(0.,0.,-1.));
#1253=DIRECTION('',(-1.,0.,0.));
#1254=DIRECTION('center_axis',(-1.,0.,0.));
#1255=DIRECTION('ref_axis',(0.,0.,1.));
#1256=DIRECTION('',(0.,-1.,0.));
#1257=DIRECTION('',(0.,-1.,0.));
#1258=DIRECTION('center_axis',(0.,0.,1.));
#1259=DIRECTION('ref_axis',(1.,0.,0.));
#1260=DIRECTION('center_axis',(0.,0.,1.));
#1261=DIRECTION('ref_axis',(1.,0.,0.));
#1262=DIRECTION('center_axis',(0.,-1.,0.));
#1263=DIRECTION('ref_axis',(0.,0.,-1.));
#1264=DIRECTION('',(1.,0.,0.));
#1265=DIRECTION('',(0.,0.,-1.));
#1266=DIRECTION('',(1.,0.,0.));
#1267=DIRECTION('',(0.,0.,-1.));
#1268=DIRECTION('center_axis',(1.,0.,0.));
#1269=DIRECTION('ref_axis',(0.,0.,-1.));
#1270=DIRECTION('',(0.,1.,0.));
#1271=DIRECTION('',(0.,0.,-1.));
#1272=DIRECTION('',(0.,1.,0.));
#1273=DIRECTION('center_axis',(0.,1.,0.));
#1274=DIRECTION('ref_axis',(0.,0.,1.));
#1275=DIRECTION('',(-1.,0.,0.));
#1276=DIRECTION('',(0.,0.,-1.));
#1277=DIRECTION('',(-1.,0.,0.));
#1278=DIRECTION('center_axis',(-1.,0.,0.));
#1279=DIRECTION('ref_axis',(0.,0.,1.));
#1280=DIRECTION('',(0.,-1.,0.));
#1281=DIRECTION('',(0.,-1.,0.));
#1282=DIRECTION('center_axis',(0.,0.,1.));
#1283=DIRECTION('ref_axis',(1.,0.,0.));
#1284=DIRECTION('center_axis',(0.,0.,1.));
#1285=DIRECTION('ref_axis',(1.,0.,0.));
#1286=DIRECTION('center_axis',(0.,-1.,0.));
#1287=DIRECTION('ref_axis',(0.,0.,-1.));
#1288=DIRECTION('',(1.,0.,0.));
#1289=DIRECTION('',(0.,0.,-1.));
#1290=DIRECTION('',(1.,0.,0.));
#1291=DIRECTION('',(0.,0.,-1.));
#1292=DIRECTION('center_axis',(1.,0.,0.));
#1293=DIRECTION('ref_axis',(0.,0.,-1.));
#1294=DIRECTION('',(0.,1.,0.));
#1295=DIRECTION('',(0.,0.,-1.));
#1296=DIRECTION('',(0.,1.,0.));
#1297=DIRECTION('center_axis',(0.,1.,0.));
#1298=DIRECTION('ref_axis',(0.,0.,1.));
#1299=DIRECTION('',(-1.,0.,0.));
#1300=DIRECTION('',(0.,0.,-1.));
#1301=DIRECTION('',(-1.,0.,0.));
#1302=DIRECTION('center_axis',(-1.,0.,0.));
#1303=DIRECTION('ref_axis',(0.,0.,1.));
#1304=DIRECTION('',(0.,-1.,0.));
#1305=DIRECTION('',(0.,-1.,0.));
#1306=DIRECTION('center_axis',(0.,0.,1.));
#1307=DIRECTION('ref_axis',(1.,0.,0.));
#1308=DIRECTION('center_axis',(0.,0.,1.));
#1309=DIRECTION('ref_axis',(1.,0.,0.));
#1310=DIRECTION('center_axis',(0.,-1.,0.));
#1311=DIRECTION('ref_axis',(0.,0.,-1.));
#1312=DIRECTION('',(1.,0.,0.));
#1313=DIRECTION('',(0.,0.,-1.));
#1314=DIRECTION('',(1.,0.,0.));
#1315=DIRECTION('',(0.,0.,-1.));
#1316=DIRECTION('center_axis',(1.,0.,0.));
#1317=DIRECTION('ref_axis',(0.,0.,-1.));
#1318=DIRECTION('',(0.,1.,0.));
#1319=DIRECTION('',(0.,0.,-1.));
#1320=DIRECTION('',(0.,1.,0.));
#1321=DIRECTION('center_axis',(0.,1.,0.));
#1322=DIRECTION('ref_axis',(0.,0.,1.));
#1323=DIRECTION('',(-1.,0.,0.));
#1324=DIRECTION('',(0.,0.,-1.));
#1325=DIRECTION('',(-1.,0.,0.));
#1326=DIRECTION('center_axis',(-1.,0.,0.));
#1327=DIRECTION('ref_axis',(0.,0.,1.));
#1328=DIRECTION('',(0.,-1.,0.));
#1329=DIRECTION('',(0.,-1.,0.));
#1330=DIRECTION('center_axis',(0.,0.,1.));
#1331=DIRECTION('ref_axis',(1.,0.,0.));
#1332=DIRECTION('center_axis',(0.,0.,1.));
#1333=DIRECTION('ref_axis',(1.,0.,0.));
#1334=DIRECTION('center_axis',(0.,1.,0.));
#1335=DIRECTION('ref_axis',(1.,0.,0.));
#1336=DIRECTION('center_axis',(0.,-1.,2.22044604925031E-16));
#1337=DIRECTION('ref_axis',(1.,0.,0.));
#1338=DIRECTION('center_axis',(0.,-1.,2.22044604925031E-16));
#1339=DIRECTION('ref_axis',(1.,0.,0.));
#1340=DIRECTION('center_axis',(0.,-1.,2.22044604925031E-16));
#1341=DIRECTION('ref_axis',(0.,0.,-1.));
#1342=DIRECTION('center_axis',(0.,-1.,2.22044604925031E-16));
#1343=DIRECTION('ref_axis',(0.,0.,-1.));
#1344=DIRECTION('center_axis',(-0.816496580927728,-0.408248290463864,0.408248290463859));
#1345=DIRECTION('ref_axis',(0.577350269189624,-0.577350269189629,0.577350269189624));
#1346=DIRECTION('center_axis',(0.,-1.,0.));
#1347=DIRECTION('ref_axis',(0.,0.,1.));
#1348=DIRECTION('center_axis',(1.,0.,0.));
#1349=DIRECTION('ref_axis',(0.,-1.,0.));
#1350=DIRECTION('center_axis',(0.,0.,1.));
#1351=DIRECTION('ref_axis',(1.,0.,0.));
#1352=DIRECTION('center_axis',(-0.816496580927728,0.408248290463862,0.40824829046386));
#1353=DIRECTION('ref_axis',(0.577350269189624,0.577350269189629,0.577350269189624));
#1354=DIRECTION('center_axis',(1.,0.,0.));
#1355=DIRECTION('ref_axis',(0.,0.,1.));
#1356=DIRECTION('center_axis',(0.,1.,0.));
#1357=DIRECTION('ref_axis',(1.,0.,0.));
#1358=DIRECTION('center_axis',(0.,0.,1.));
#1359=DIRECTION('ref_axis',(0.,1.,0.));
#1360=DIRECTION('center_axis',(5.49388713216572E-16,1.,0.));
#1361=DIRECTION('ref_axis',(0.707106781186548,0.,0.707106781186548));
#1362=DIRECTION('',(-5.49388713216572E-16,-1.,0.));
#1363=DIRECTION('',(5.49388713216572E-16,1.,0.));
#1364=DIRECTION('center_axis',(0.,0.,1.));
#1365=DIRECTION('ref_axis',(0.707106781186546,0.707106781186549,0.));
#1366=DIRECTION('center_axis',(0.,0.,1.));
#1367=DIRECTION('ref_axis',(0.707106781186546,0.707106781186549,0.));
#1368=DIRECTION('',(0.,0.,1.));
#1369=DIRECTION('',(0.,0.,-1.));
#1370=DIRECTION('center_axis',(0.408248290463862,-0.816496580927728,-0.408248290463862));
#1371=DIRECTION('ref_axis',(-0.577350269189626,-0.577350269189626,0.577350269189626));
#1372=DIRECTION('center_axis',(-1.,0.,0.));
#1373=DIRECTION('ref_axis',(0.,0.,1.));
#1374=DIRECTION('center_axis',(0.,-1.,0.));
#1375=DIRECTION('ref_axis',(-1.,0.,0.));
#1376=DIRECTION('center_axis',(0.,0.,1.));
#1377=DIRECTION('ref_axis',(0.,-1.,0.));
#1378=DIRECTION('center_axis',(-0.408248290463862,-0.816496580927728,0.408248290463862));
#1379=DIRECTION('ref_axis',(-0.577350269189625,0.577350269189627,0.577350269189625));
#1380=DIRECTION('center_axis',(0.,0.,1.));
#1381=DIRECTION('ref_axis',(-1.,0.,0.));
#1382=DIRECTION('center_axis',(0.,1.,0.));
#1383=DIRECTION('ref_axis',(0.,0.,1.));
#1384=DIRECTION('center_axis',(-1.,0.,0.));
#1385=DIRECTION('ref_axis',(0.,1.,0.));
#1386=DIRECTION('center_axis',(0.,-1.,0.));
#1387=DIRECTION('ref_axis',(-0.707106781186548,0.,0.707106781186548));
#1388=DIRECTION('',(0.,1.,0.));
#1389=DIRECTION('',(0.,-1.,0.));
#1390=DIRECTION('center_axis',(-1.,0.,0.));
#1391=DIRECTION('ref_axis',(0.,0.707106781186549,0.707106781186546));
#1392=DIRECTION('',(1.,0.,0.));
#1393=DIRECTION('',(-1.,0.,0.));
#1394=DIRECTION('center_axis',(0.,0.,-1.));
#1395=DIRECTION('ref_axis',(-0.707106781186546,0.707106781186549,0.));
#1396=DIRECTION('center_axis',(0.,0.,1.));
#1397=DIRECTION('ref_axis',(-0.707106781186546,0.707106781186549,0.));
#1398=DIRECTION('',(0.,0.,1.));
#1399=DIRECTION('',(0.,0.,-1.));
#1400=DIRECTION('center_axis',(0.,0.,-1.));
#1401=DIRECTION('ref_axis',(-0.707106781186548,-0.707106781186548,0.));
#1402=DIRECTION('center_axis',(0.,0.,1.));
#1403=DIRECTION('ref_axis',(-0.707106781186548,-0.707106781186548,0.));
#1404=DIRECTION('',(0.,0.,1.));
#1405=DIRECTION('',(0.,0.,-1.));
#1406=DIRECTION('center_axis',(1.,0.,0.));
#1407=DIRECTION('ref_axis',(0.,-0.707106781186548,0.707106781186548));
#1408=DIRECTION('',(-1.,0.,0.));
#1409=DIRECTION('',(1.,0.,0.));
#1410=DIRECTION('center_axis',(0.,0.,1.));
#1411=DIRECTION('ref_axis',(0.707106781186548,-0.707106781186548,0.));
#1412=DIRECTION('center_axis',(0.,0.,1.));
#1413=DIRECTION('ref_axis',(0.707106781186548,-0.707106781186548,0.));
#1414=DIRECTION('',(0.,0.,1.));
#1415=DIRECTION('',(0.,0.,-1.));
#1416=DIRECTION('center_axis',(1.,-5.49388713216572E-16,0.));
#1417=DIRECTION('ref_axis',(0.,1.,0.));
#1418=DIRECTION('',(5.49388713216572E-16,1.,0.));
#1419=DIRECTION('center_axis',(0.,-1.,0.));
#1420=DIRECTION('ref_axis',(1.,0.,0.));
#1421=DIRECTION('',(1.,0.,0.));
#1422=DIRECTION('',(0.,0.,1.));
#1423=DIRECTION('',(-1.,0.,0.));
#1424=DIRECTION('',(0.,0.,1.));
#1425=DIRECTION('',(1.,0.,0.));
#1426=DIRECTION('center_axis',(0.,1.,0.));
#1427=DIRECTION('ref_axis',(1.,0.,0.));
#1428=DIRECTION('center_axis',(0.,0.,1.));
#1429=DIRECTION('ref_axis',(-1.,0.,0.));
#1430=DIRECTION('center_axis',(0.,1.,0.));
#1431=DIRECTION('ref_axis',(1.,0.,0.));
#1432=DIRECTION('center_axis',(0.,-1.,2.22044604925031E-16));
#1433=DIRECTION('ref_axis',(1.,0.,0.));
#1434=DIRECTION('center_axis',(0.,-1.,2.22044604925031E-16));
#1435=DIRECTION('ref_axis',(0.,0.,-1.));
#1436=DIRECTION('center_axis',(1.,-5.49388713216572E-16,0.));
#1437=DIRECTION('ref_axis',(0.,1.,0.));
#1438=DIRECTION('',(5.49388713216572E-16,1.,0.));
#1439=DIRECTION('',(0.,0.,1.));
#1440=DIRECTION('',(5.49388713216572E-16,1.,0.));
#1441=DIRECTION('center_axis',(0.,0.,1.));
#1442=DIRECTION('ref_axis',(1.,0.,0.));
#1443=DIRECTION('',(-1.,0.,0.));
#1444=DIRECTION('',(0.,-1.,0.));
#1445=DIRECTION('center_axis',(0.,0.,1.));
#1446=DIRECTION('ref_axis',(-1.,0.,0.));
#1447=DIRECTION('',(1.,0.,0.));
#1448=DIRECTION('',(0.,-1.,0.));
#1449=DIRECTION('center_axis',(1.,0.,0.));
#1450=DIRECTION('ref_axis',(0.,0.,1.));
#1451=DIRECTION('center_axis',(-1.,0.,0.));
#1452=DIRECTION('ref_axis',(0.,-1.,0.));
#1453=DIRECTION('',(0.,-1.,0.));
#1454=DIRECTION('',(0.,0.,1.));
#1455=DIRECTION('center_axis',(0.,1.,0.));
#1456=DIRECTION('ref_axis',(-1.,0.,0.));
#1457=DIRECTION('',(-1.,0.,0.));
#1458=DIRECTION('center_axis',(0.,0.,1.));
#1459=DIRECTION('ref_axis',(1.,0.,0.));
#1460=CARTESIAN_POINT('',(0.,0.,0.));
#1461=CARTESIAN_POINT('Origin',(8.64,-0.124999999999998,0.));
#1462=CARTESIAN_POINT('',(8.64,-0.124999999999998,-3.6));
#1463=CARTESIAN_POINT('',(9.14,-0.124999999999998,-3.6));
#1464=CARTESIAN_POINT('',(8.64,-0.124999999999998,-3.6));
#1465=CARTESIAN_POINT('',(9.14,-0.124999999999998,0.5));
#1466=CARTESIAN_POINT('',(9.14,-0.124999999999998,0.));
#1467=CARTESIAN_POINT('',(8.64,-0.124999999999998,0.5));
#1468=CARTESIAN_POINT('',(8.64,-0.124999999999998,0.5));
#1469=CARTESIAN_POINT('',(8.64,-0.124999999999998,0.));
#1470=CARTESIAN_POINT('Origin',(9.14,-0.124999999999998,0.));
#1471=CARTESIAN_POINT('',(9.14,0.125000000000002,-3.6));
#1472=CARTESIAN_POINT('',(9.14,-0.124999999999998,-3.6));
#1473=CARTESIAN_POINT('',(9.14,0.125000000000002,0.5));
#1474=CARTESIAN_POINT('',(9.14,0.125000000000002,0.5));
#1475=CARTESIAN_POINT('',(9.14,-0.124999999999998,0.5));
#1476=CARTESIAN_POINT('Origin',(9.14,0.125000000000002,0.5));
#1477=CARTESIAN_POINT('',(8.64,0.125000000000002,-3.6));
#1478=CARTESIAN_POINT('',(9.14,0.125000000000002,-3.6));
#1479=CARTESIAN_POINT('',(8.64,0.125000000000002,0.5));
#1480=CARTESIAN_POINT('',(8.64,0.125000000000002,0.5));
#1481=CARTESIAN_POINT('',(9.14,0.125000000000002,0.5));
#1482=CARTESIAN_POINT('Origin',(8.64,0.125000000000002,0.));
#1483=CARTESIAN_POINT('',(8.64,0.125000000000002,-3.6));
#1484=CARTESIAN_POINT('',(8.64,0.125000000000002,0.5));
#1485=CARTESIAN_POINT('Origin',(8.89,1.55431223447522E-15,-3.6));
#1486=CARTESIAN_POINT('Origin',(8.89,1.55431223447522E-15,0.5));
#1487=CARTESIAN_POINT('Origin',(6.1,-0.124999999999998,0.));
#1488=CARTESIAN_POINT('',(6.1,-0.124999999999998,-3.6));
#1489=CARTESIAN_POINT('',(6.6,-0.124999999999998,-3.6));
#1490=CARTESIAN_POINT('',(6.1,-0.124999999999998,-3.6));
#1491=CARTESIAN_POINT('',(6.6,-0.124999999999998,0.5));
#1492=CARTESIAN_POINT('',(6.6,-0.124999999999998,0.));
#1493=CARTESIAN_POINT('',(6.1,-0.124999999999998,0.5));
#1494=CARTESIAN_POINT('',(6.1,-0.124999999999998,0.5));
#1495=CARTESIAN_POINT('',(6.1,-0.124999999999998,0.));
#1496=CARTESIAN_POINT('Origin',(6.6,-0.124999999999998,0.));
#1497=CARTESIAN_POINT('',(6.6,0.125000000000002,-3.6));
#1498=CARTESIAN_POINT('',(6.6,-0.124999999999998,-3.6));
#1499=CARTESIAN_POINT('',(6.6,0.125000000000002,0.5));
#1500=CARTESIAN_POINT('',(6.6,0.125000000000002,0.5));
#1501=CARTESIAN_POINT('',(6.6,-0.124999999999998,0.5));
#1502=CARTESIAN_POINT('Origin',(6.6,0.125000000000002,0.5));
#1503=CARTESIAN_POINT('',(6.1,0.125000000000002,-3.6));
#1504=CARTESIAN_POINT('',(6.6,0.125000000000002,-3.6));
#1505=CARTESIAN_POINT('',(6.1,0.125000000000002,0.5));
#1506=CARTESIAN_POINT('',(6.1,0.125000000000002,0.5));
#1507=CARTESIAN_POINT('',(6.6,0.125000000000002,0.5));
#1508=CARTESIAN_POINT('Origin',(6.1,0.125000000000002,0.));
#1509=CARTESIAN_POINT('',(6.1,0.125000000000002,-3.6));
#1510=CARTESIAN_POINT('',(6.1,0.125000000000002,0.5));
#1511=CARTESIAN_POINT('Origin',(6.35,1.55431223447522E-15,-3.6));
#1512=CARTESIAN_POINT('Origin',(6.35,1.55431223447522E-15,0.5));
#1513=CARTESIAN_POINT('Origin',(3.56,-0.124999999999998,0.));
#1514=CARTESIAN_POINT('',(3.56,-0.124999999999998,-3.6));
#1515=CARTESIAN_POINT('',(4.06,-0.124999999999998,-3.6));
#1516=CARTESIAN_POINT('',(3.56,-0.124999999999998,-3.6));
#1517=CARTESIAN_POINT('',(4.06,-0.124999999999998,0.5));
#1518=CARTESIAN_POINT('',(4.06,-0.124999999999998,0.));
#1519=CARTESIAN_POINT('',(3.56,-0.124999999999998,0.5));
#1520=CARTESIAN_POINT('',(3.56,-0.124999999999998,0.5));
#1521=CARTESIAN_POINT('',(3.56,-0.124999999999998,0.));
#1522=CARTESIAN_POINT('Origin',(4.06,-0.124999999999998,0.));
#1523=CARTESIAN_POINT('',(4.06,0.125000000000002,-3.6));
#1524=CARTESIAN_POINT('',(4.06,-0.124999999999998,-3.6));
#1525=CARTESIAN_POINT('',(4.06,0.125000000000002,0.5));
#1526=CARTESIAN_POINT('',(4.06,0.125000000000002,0.5));
#1527=CARTESIAN_POINT('',(4.06,-0.124999999999998,0.5));
#1528=CARTESIAN_POINT('Origin',(4.06,0.125000000000002,0.5));
#1529=CARTESIAN_POINT('',(3.56,0.125000000000002,-3.6));
#1530=CARTESIAN_POINT('',(4.06,0.125000000000002,-3.6));
#1531=CARTESIAN_POINT('',(3.56,0.125000000000002,0.5));
#1532=CARTESIAN_POINT('',(3.56,0.125000000000002,0.5));
#1533=CARTESIAN_POINT('',(4.06,0.125000000000002,0.5));
#1534=CARTESIAN_POINT('Origin',(3.56,0.125000000000002,0.));
#1535=CARTESIAN_POINT('',(3.56,0.125000000000002,-3.6));
#1536=CARTESIAN_POINT('',(3.56,0.125000000000002,0.5));
#1537=CARTESIAN_POINT('Origin',(3.81,1.55431223447522E-15,-3.6));
#1538=CARTESIAN_POINT('Origin',(3.81,1.55431223447522E-15,0.5));
#1539=CARTESIAN_POINT('Origin',(1.02,-0.124999999999998,0.));
#1540=CARTESIAN_POINT('',(1.02,-0.124999999999998,-3.6));
#1541=CARTESIAN_POINT('',(1.52,-0.124999999999998,-3.6));
#1542=CARTESIAN_POINT('',(1.02,-0.124999999999998,-3.6));
#1543=CARTESIAN_POINT('',(1.52,-0.124999999999998,0.5));
#1544=CARTESIAN_POINT('',(1.52,-0.124999999999998,0.));
#1545=CARTESIAN_POINT('',(1.02,-0.124999999999998,0.5));
#1546=CARTESIAN_POINT('',(1.02,-0.124999999999998,0.5));
#1547=CARTESIAN_POINT('',(1.02,-0.124999999999998,0.));
#1548=CARTESIAN_POINT('Origin',(1.52,-0.124999999999998,0.));
#1549=CARTESIAN_POINT('',(1.52,0.125000000000002,-3.6));
#1550=CARTESIAN_POINT('',(1.52,-0.124999999999998,-3.6));
#1551=CARTESIAN_POINT('',(1.52,0.125000000000002,0.5));
#1552=CARTESIAN_POINT('',(1.52,0.125000000000002,0.5));
#1553=CARTESIAN_POINT('',(1.52,-0.124999999999998,0.5));
#1554=CARTESIAN_POINT('Origin',(1.52,0.125000000000002,0.5));
#1555=CARTESIAN_POINT('',(1.02,0.125000000000002,-3.6));
#1556=CARTESIAN_POINT('',(1.52,0.125000000000002,-3.6));
#1557=CARTESIAN_POINT('',(1.02,0.125000000000002,0.5));
#1558=CARTESIAN_POINT('',(1.02,0.125000000000002,0.5));
#1559=CARTESIAN_POINT('',(1.52,0.125000000000002,0.5));
#1560=CARTESIAN_POINT('Origin',(1.02,0.125000000000002,0.));
#1561=CARTESIAN_POINT('',(1.02,0.125000000000002,-3.6));
#1562=CARTESIAN_POINT('',(1.02,0.125000000000002,0.5));
#1563=CARTESIAN_POINT('Origin',(1.27,1.55431223447522E-15,-3.6));
#1564=CARTESIAN_POINT('Origin',(1.27,1.55431223447522E-15,0.5));
#1565=CARTESIAN_POINT('Origin',(-4.06,-0.124999999999998,0.));
#1566=CARTESIAN_POINT('',(-4.06,-0.124999999999998,-3.6));
#1567=CARTESIAN_POINT('',(-3.56,-0.124999999999998,-3.6));
#1568=CARTESIAN_POINT('',(-4.06,-0.124999999999998,-3.6));
#1569=CARTESIAN_POINT('',(-3.56,-0.124999999999998,0.5));
#1570=CARTESIAN_POINT('',(-3.56,-0.124999999999998,0.));
#1571=CARTESIAN_POINT('',(-4.06,-0.124999999999998,0.5));
#1572=CARTESIAN_POINT('',(-4.06,-0.124999999999998,0.5));
#1573=CARTESIAN_POINT('',(-4.06,-0.124999999999998,0.));
#1574=CARTESIAN_POINT('Origin',(-3.56,-0.124999999999998,0.));
#1575=CARTESIAN_POINT('',(-3.56,0.125000000000002,-3.6));
#1576=CARTESIAN_POINT('',(-3.56,-0.124999999999998,-3.6));
#1577=CARTESIAN_POINT('',(-3.56,0.125000000000002,0.5));
#1578=CARTESIAN_POINT('',(-3.56,0.125000000000002,0.5));
#1579=CARTESIAN_POINT('',(-3.56,-0.124999999999998,0.5));
#1580=CARTESIAN_POINT('Origin',(-3.56,0.125000000000002,0.5));
#1581=CARTESIAN_POINT('',(-4.06,0.125000000000002,-3.6));
#1582=CARTESIAN_POINT('',(-3.56,0.125000000000002,-3.6));
#1583=CARTESIAN_POINT('',(-4.06,0.125000000000002,0.5));
#1584=CARTESIAN_POINT('',(-4.06,0.125000000000002,0.5));
#1585=CARTESIAN_POINT('',(-3.56,0.125000000000002,0.5));
#1586=CARTESIAN_POINT('Origin',(-4.06,0.125000000000002,0.));
#1587=CARTESIAN_POINT('',(-4.06,0.125000000000002,-3.6));
#1588=CARTESIAN_POINT('',(-4.06,0.125000000000002,0.5));
#1589=CARTESIAN_POINT('Origin',(-3.81,1.55431223447522E-15,-3.6));
#1590=CARTESIAN_POINT('Origin',(-3.81,1.55431223447522E-15,0.5));
#1591=CARTESIAN_POINT('Origin',(-6.6,-0.124999999999998,0.5));
#1592=CARTESIAN_POINT('',(-6.6,-0.124999999999998,-3.6));
#1593=CARTESIAN_POINT('',(-6.1,-0.124999999999998,-3.6));
#1594=CARTESIAN_POINT('',(-6.6,-0.124999999999998,-3.6));
#1595=CARTESIAN_POINT('',(-6.1,-0.124999999999998,0.5));
#1596=CARTESIAN_POINT('',(-6.1,-0.124999999999998,0.5));
#1597=CARTESIAN_POINT('',(-6.6,-0.124999999999998,0.5));
#1598=CARTESIAN_POINT('',(-6.6,-0.124999999999998,0.5));
#1599=CARTESIAN_POINT('',(-6.6,-0.124999999999998,0.5));
#1600=CARTESIAN_POINT('Origin',(-6.1,-0.124999999999998,0.));
#1601=CARTESIAN_POINT('',(-6.1,0.125000000000002,-3.6));
#1602=CARTESIAN_POINT('',(-6.1,-0.124999999999998,-3.6));
#1603=CARTESIAN_POINT('',(-6.1,0.125000000000002,0.5));
#1604=CARTESIAN_POINT('',(-6.1,0.125000000000002,0.));
#1605=CARTESIAN_POINT('',(-6.1,-0.124999999999998,0.5));
#1606=CARTESIAN_POINT('Origin',(-6.1,0.125000000000002,0.));
#1607=CARTESIAN_POINT('',(-6.6,0.125000000000002,-3.6));
#1608=CARTESIAN_POINT('',(-6.1,0.125000000000002,-3.6));
#1609=CARTESIAN_POINT('',(-6.6,0.125000000000002,0.5));
#1610=CARTESIAN_POINT('',(-6.6,0.125000000000002,0.));
#1611=CARTESIAN_POINT('',(-6.1,0.125000000000002,0.5));
#1612=CARTESIAN_POINT('Origin',(-6.6,0.125000000000002,0.));
#1613=CARTESIAN_POINT('',(-6.6,0.125000000000002,-3.6));
#1614=CARTESIAN_POINT('',(-6.6,0.125000000000002,0.5));
#1615=CARTESIAN_POINT('Origin',(-6.35,1.55431223447522E-15,-3.6));
#1616=CARTESIAN_POINT('Origin',(-6.35,1.55431223447522E-15,0.5));
#1617=CARTESIAN_POINT('Origin',(-9.14,-0.124999999999998,0.));
#1618=CARTESIAN_POINT('',(-9.14,-0.124999999999998,-3.6));
#1619=CARTESIAN_POINT('',(-8.64,-0.124999999999998,-3.6));
#1620=CARTESIAN_POINT('',(-9.14,-0.124999999999998,-3.6));
#1621=CARTESIAN_POINT('',(-8.64,-0.124999999999998,0.5));
#1622=CARTESIAN_POINT('',(-8.64,-0.124999999999998,0.));
#1623=CARTESIAN_POINT('',(-9.14,-0.124999999999998,0.5));
#1624=CARTESIAN_POINT('',(-9.14,-0.124999999999998,0.5));
#1625=CARTESIAN_POINT('',(-9.14,-0.124999999999998,0.));
#1626=CARTESIAN_POINT('Origin',(-8.64,-0.124999999999998,0.));
#1627=CARTESIAN_POINT('',(-8.64,0.125000000000002,-3.6));
#1628=CARTESIAN_POINT('',(-8.64,-0.124999999999998,-3.6));
#1629=CARTESIAN_POINT('',(-8.64,0.125000000000002,0.5));
#1630=CARTESIAN_POINT('',(-8.64,0.125000000000002,0.5));
#1631=CARTESIAN_POINT('',(-8.64,-0.124999999999998,0.5));
#1632=CARTESIAN_POINT('Origin',(-8.64,0.125000000000002,0.5));
#1633=CARTESIAN_POINT('',(-9.14,0.125000000000002,-3.6));
#1634=CARTESIAN_POINT('',(-8.64,0.125000000000002,-3.6));
#1635=CARTESIAN_POINT('',(-9.14,0.125000000000002,0.5));
#1636=CARTESIAN_POINT('',(-9.14,0.125000000000002,0.5));
#1637=CARTESIAN_POINT('',(-8.64,0.125000000000002,0.5));
#1638=CARTESIAN_POINT('Origin',(-9.14,0.125000000000002,0.));
#1639=CARTESIAN_POINT('',(-9.14,0.125000000000002,-3.6));
#1640=CARTESIAN_POINT('',(-9.14,0.125000000000002,0.5));
#1641=CARTESIAN_POINT('Origin',(-8.89,1.55431223447522E-15,-3.6));
#1642=CARTESIAN_POINT('Origin',(-8.89,1.55431223447522E-15,0.5));
#1643=CARTESIAN_POINT('Origin',(-8.91,-6.075,3.));
#1644=CARTESIAN_POINT('',(-8.41,-5.975,3.));
#1645=CARTESIAN_POINT('Origin',(-8.91,-5.975,3.));
#1646=CARTESIAN_POINT('',(-8.41,-6.075,3.));
#1647=CARTESIAN_POINT('Origin',(-8.91,-6.075,3.));
#1648=CARTESIAN_POINT('Origin',(-8.91,-5.975,3.));
#1649=CARTESIAN_POINT('Origin',(-8.91,-6.075,3.));
#1650=CARTESIAN_POINT('Origin',(10.95,-5.875,11.4));
#1651=CARTESIAN_POINT('',(10.95,-5.875,11.6));
#1652=CARTESIAN_POINT('',(11.15,-5.875,11.4));
#1653=CARTESIAN_POINT('Origin',(10.95,-5.875,11.4));
#1654=CARTESIAN_POINT('',(10.95,-6.075,11.4));
#1655=CARTESIAN_POINT('Origin',(10.95,-5.875,11.4));
#1656=CARTESIAN_POINT('Origin',(10.95,-5.875,11.4));
#1657=CARTESIAN_POINT('Origin',(10.95,3.425,11.4));
#1658=CARTESIAN_POINT('',(10.95,3.425,11.6));
#1659=CARTESIAN_POINT('',(10.95,3.625,11.4));
#1660=CARTESIAN_POINT('Origin',(10.95,3.425,11.4));
#1661=CARTESIAN_POINT('',(11.15,3.425,11.4));
#1662=CARTESIAN_POINT('Origin',(10.95,3.425,11.4));
#1663=CARTESIAN_POINT('Origin',(10.95,3.425,11.4));
#1664=CARTESIAN_POINT('Origin',(10.95,-3.65,11.4));
#1665=CARTESIAN_POINT('',(10.95,-3.65,11.6));
#1666=CARTESIAN_POINT('',(11.15,-3.65,11.4));
#1667=CARTESIAN_POINT('Origin',(10.95,3.425,0.));
#1668=CARTESIAN_POINT('',(11.15,3.425,0.));
#1669=CARTESIAN_POINT('',(10.95,3.625,0.));
#1670=CARTESIAN_POINT('Origin',(10.95,3.425,0.));
#1671=CARTESIAN_POINT('',(10.95,3.625,0.));
#1672=CARTESIAN_POINT('',(11.15,3.425,0.));
#1673=CARTESIAN_POINT('Origin',(-10.95,-5.875,11.4));
#1674=CARTESIAN_POINT('',(-10.95,-5.875,11.6));
#1675=CARTESIAN_POINT('',(-10.95,-6.075,11.4));
#1676=CARTESIAN_POINT('Origin',(-10.95,-5.875,11.4));
#1677=CARTESIAN_POINT('',(-11.15,-5.875,11.4));
#1678=CARTESIAN_POINT('Origin',(-10.95,-5.875,11.4));
#1679=CARTESIAN_POINT('Origin',(-10.95,-5.875,11.4));
#1680=CARTESIAN_POINT('Origin',(-10.95,3.425,11.4));
#1681=CARTESIAN_POINT('',(-11.15,3.425,11.4));
#1682=CARTESIAN_POINT('',(-10.95,3.625,11.4));
#1683=CARTESIAN_POINT('Origin',(-10.95,3.425,11.4));
#1684=CARTESIAN_POINT('',(-10.95,3.425,11.6));
#1685=CARTESIAN_POINT('Origin',(-10.95,3.425,11.4));
#1686=CARTESIAN_POINT('Origin',(-10.95,3.425,11.4));
#1687=CARTESIAN_POINT('Origin',(-10.95,-1.225,11.4));
#1688=CARTESIAN_POINT('',(-10.95,-1.225,11.6));
#1689=CARTESIAN_POINT('',(-11.15,-1.225,11.4));
#1690=CARTESIAN_POINT('Origin',(5.575,3.425,11.4));
#1691=CARTESIAN_POINT('',(5.575,3.425,11.6));
#1692=CARTESIAN_POINT('',(5.575,3.625,11.4));
#1693=CARTESIAN_POINT('Origin',(-10.95,3.425,3.05));
#1694=CARTESIAN_POINT('',(-10.95,3.625,0.));
#1695=CARTESIAN_POINT('',(-11.15,3.425,0.));
#1696=CARTESIAN_POINT('Origin',(-10.95,3.425,0.));
#1697=CARTESIAN_POINT('',(-11.15,3.425,3.05));
#1698=CARTESIAN_POINT('',(-10.95,3.625,3.05));
#1699=CARTESIAN_POINT('Origin',(-10.95,-5.875,3.05));
#1700=CARTESIAN_POINT('',(-11.15,-5.875,0.));
#1701=CARTESIAN_POINT('',(-10.95,-6.075,0.));
#1702=CARTESIAN_POINT('Origin',(-10.95,-5.875,0.));
#1703=CARTESIAN_POINT('',(-10.95,-6.075,3.05));
#1704=CARTESIAN_POINT('',(-11.15,-5.875,3.05));
#1705=CARTESIAN_POINT('Origin',(5.325,-5.875,11.4));
#1706=CARTESIAN_POINT('',(5.325,-5.875,11.6));
#1707=CARTESIAN_POINT('',(5.325,-6.075,11.4));
#1708=CARTESIAN_POINT('Origin',(10.95,-5.875,0.));
#1709=CARTESIAN_POINT('',(10.95,-6.075,0.));
#1710=CARTESIAN_POINT('',(11.15,-5.875,0.));
#1711=CARTESIAN_POINT('Origin',(10.95,-5.875,0.));
#1712=CARTESIAN_POINT('',(11.15,-5.875,0.));
#1713=CARTESIAN_POINT('',(10.95,-6.075,0.));
#1714=CARTESIAN_POINT('Origin',(11.15,-6.075,0.));
#1715=CARTESIAN_POINT('',(11.15,-6.075,0.));
#1716=CARTESIAN_POINT('Origin',(10.65,-6.075,0.));
#1717=CARTESIAN_POINT('',(-10.65,-6.075,0.));
#1718=CARTESIAN_POINT('',(-11.15,-6.075,0.));
#1719=CARTESIAN_POINT('',(-10.65,-6.075,0.5));
#1720=CARTESIAN_POINT('',(-10.65,-6.075,0.));
#1721=CARTESIAN_POINT('',(10.65,-6.075,0.5));
#1722=CARTESIAN_POINT('',(1.77635683940025E-15,-6.07499999999999,0.5));
#1723=CARTESIAN_POINT('',(10.65,-6.075,0.));
#1724=CARTESIAN_POINT('',(10.65,-6.075,0.));
#1725=CARTESIAN_POINT('',(10.65,-6.075,0.));
#1726=CARTESIAN_POINT('',(-8.41,-6.075,3.));
#1727=CARTESIAN_POINT('Origin',(-8.91,-6.075,3.));
#1728=CARTESIAN_POINT('Origin',(1.77635683940025E-15,-1.225,11.6));
#1729=CARTESIAN_POINT('Origin',(-8.91,-6.075,3.));
#1730=CARTESIAN_POINT('',(-8.41,-5.975,3.));
#1731=CARTESIAN_POINT('Origin',(-8.91,-5.975,3.));
#1732=CARTESIAN_POINT('Origin',(-8.91,-5.975,3.));
#1733=CARTESIAN_POINT('Origin',(-10.65,-6.075,0.));
#1734=CARTESIAN_POINT('',(-10.65,3.625,0.));
#1735=CARTESIAN_POINT('',(-10.65,-6.075,0.));
#1736=CARTESIAN_POINT('',(-10.65,3.625,0.5));
#1737=CARTESIAN_POINT('',(-10.65,3.625,0.));
#1738=CARTESIAN_POINT('',(-10.65,-3.64999999999999,0.5));
#1739=CARTESIAN_POINT('Origin',(-10.9,-1.225,0.));
#1740=CARTESIAN_POINT('',(-10.65,3.625,0.));
#1741=CARTESIAN_POINT('',(-11.15,3.625,0.));
#1742=CARTESIAN_POINT('Origin',(1.77635683940025E-15,-1.225,0.5));
#1743=CARTESIAN_POINT('',(10.65,3.625,0.5));
#1744=CARTESIAN_POINT('',(1.77635683940025E-15,3.625,0.5));
#1745=CARTESIAN_POINT('',(10.65,3.625,0.5));
#1746=CARTESIAN_POINT('Origin',(-11.15,-1.225,6.1));
#1747=CARTESIAN_POINT('Origin',(10.65,3.625,0.));
#1748=CARTESIAN_POINT('',(10.65,3.625,0.));
#1749=CARTESIAN_POINT('',(10.65,3.625,0.));
#1750=CARTESIAN_POINT('',(10.65,3.625,0.));
#1751=CARTESIAN_POINT('Origin',(11.15,3.625,0.));
#1752=CARTESIAN_POINT('',(11.15,3.625,0.));
#1753=CARTESIAN_POINT('Origin',(10.9,-1.225,0.));
#1754=UNCERTAINTY_MEASURE_WITH_UNIT(LENGTH_MEASURE(0.01),#1758,
'DISTANCE_ACCURACY_VALUE',
'Maximum model space distance between geometric entities at asserted c
onnectivities');
#1755=UNCERTAINTY_MEASURE_WITH_UNIT(LENGTH_MEASURE(1.E-6),#1758,
'DISTANCE_ACCURACY_VALUE',
'Maximum model space distance between geometric entities at asserted c
onnectivities');
#1756=(
GEOMETRIC_REPRESENTATION_CONTEXT(3)
GLOBAL_UNCERTAINTY_ASSIGNED_CONTEXT((#1754))
GLOBAL_UNIT_ASSIGNED_CONTEXT((#1758,#1760,#1759))
REPRESENTATION_CONTEXT('','3D')
);
#1757=(
GEOMETRIC_REPRESENTATION_CONTEXT(3)
GLOBAL_UNCERTAINTY_ASSIGNED_CONTEXT((#1755))
GLOBAL_UNIT_ASSIGNED_CONTEXT((#1758,#12,#1759))
REPRESENTATION_CONTEXT('','3D')
);
#1758=(
LENGTH_UNIT()
NAMED_UNIT(*)
SI_UNIT(.MILLI.,.METRE.)
);
#1759=(
NAMED_UNIT(*)
SI_UNIT($,.STERADIAN.)
SOLID_ANGLE_UNIT()
);
#1760=(
NAMED_UNIT(*)
PLANE_ANGLE_UNIT()
SI_UNIT($,.RADIAN.)
);
#1761=SHAPE_DEFINITION_REPRESENTATION(#1762,#1763);
#1762=PRODUCT_DEFINITION_SHAPE('',$,#1765);
#1763=SHAPE_REPRESENTATION('',(#1074),#1756);
#1764=PRODUCT_DEFINITION_CONTEXT('part definition',#1769,'design');
#1765=PRODUCT_DEFINITION('Product','Product',#1766,#1764);
#1766=PRODUCT_DEFINITION_FORMATION('',$,#1771);
#1767=PRODUCT_RELATED_PRODUCT_CATEGORY('Product','Product',(#1771));
#1768=APPLICATION_PROTOCOL_DEFINITION('international standard',
'automotive_design',2009,#1769);
#1769=APPLICATION_CONTEXT(
'Core Data for Automotive Mechanical Design Process');
#1770=PRODUCT_CONTEXT('part definition',#1769,'mechanical');
#1771=PRODUCT('Product','Product',$,(#1770));
#1772=PRESENTATION_STYLE_ASSIGNMENT((#1775));
#1773=PRESENTATION_STYLE_ASSIGNMENT((#1776));
#1774=PRESENTATION_STYLE_ASSIGNMENT((#1777));
#1775=SURFACE_STYLE_USAGE(.BOTH.,#1778);
#1776=SURFACE_STYLE_USAGE(.BOTH.,#1779);
#1777=SURFACE_STYLE_USAGE(.BOTH.,#1780);
#1778=SURFACE_SIDE_STYLE('',(#1781));
#1779=SURFACE_SIDE_STYLE('',(#1782));
#1780=SURFACE_SIDE_STYLE('',(#1783));
#1781=SURFACE_STYLE_FILL_AREA(#1784);
#1782=SURFACE_STYLE_FILL_AREA(#1785);
#1783=SURFACE_STYLE_FILL_AREA(#1786);
#1784=FILL_AREA_STYLE('',(#1787));
#1785=FILL_AREA_STYLE('',(#1788));
#1786=FILL_AREA_STYLE('',(#1789));
#1787=FILL_AREA_STYLE_COLOUR('',#1790);
#1788=FILL_AREA_STYLE_COLOUR('',#1791);
#1789=FILL_AREA_STYLE_COLOUR('',#1792);
#1790=COLOUR_RGB('',1.,1.,1.);
#1791=COLOUR_RGB('',0.866666666666667,0.866666666666667,0.866666666666667);
#1792=COLOUR_RGB('',0.329411764705882,0.329411764705882,0.329411764705882);
ENDSEC;
END-ISO-10303-21;
