ISO-10303-21;
HEADER;
/****************************************************************
 * Generated by software with PDElib inside                    *
 * PDElib Version v51a, created Fri 09/10/2010                  *
 * ITI Transcendata (http://www.transcendata.com/)              *
 ****************************************************************/
FILE_DESCRIPTION((''),'2;1');
FILE_NAME('DCDC_TRACO_TMR1.stp','2014-02-19T17:38:30',(''),(''),'Mechanical Desktop 2011','Mechanical Desktop 2011',', , ');
FILE_SCHEMA(('AUTOMOTIVE_DESIGN { 1 2 10303 214 1 1 1 1 }'));
ENDSEC;
DATA;
#10=(NAMED_UNIT(*)PLANE_ANGLE_UNIT()SI_UNIT($,.RADIAN.));
#11=DIMENSIONAL_EXPONENTS(0.0,0.0,0.0,0.0,0.0,0.0,0.0);
#12=PLANE_ANGLE_MEASURE_WITH_UNIT(PLANE_ANGLE_MEASURE(0.0174532925),#10);
#16=(CONVERSION_BASED_UNIT('DEGREE',#12)NAMED_UNIT(#11)PLANE_ANGLE_UNIT());
#20=(NAMED_UNIT(*)SI_UNIT($,.STERADIAN.)SOLID_ANGLE_UNIT());
#24=(LENGTH_UNIT()NAMED_UNIT(*)SI_UNIT(.MILLI.,.METRE.));
#26=UNCERTAINTY_MEASURE_WITH_UNIT(LENGTH_MEASURE(0.000001),#24,'DISTANCE_ACCURACY_VALUE','');
#28=(GEOMETRIC_REPRESENTATION_CONTEXT(3)GLOBAL_UNCERTAINTY_ASSIGNED_CONTEXT((#26))GLOBAL_UNIT_ASSIGNED_CONTEXT((#16,#20,#24))REPRESENTATION_CONTEXT('','3D'));
#29=APPLICATION_CONTEXT('automotive design');
#30=APPLICATION_PROTOCOL_DEFINITION('INTERNATIONAL_STANDARD','automotive_design',1998,#29);
#31=PRODUCT_CONTEXT('3D Mechanical Parts',#29,'mechanical');
#32=PRODUCT('Product','Product','',(#31));
#33=PRODUCT_RELATED_PRODUCT_CATEGORY('part',$,(#32));
#34=PRODUCT_CATEGORY('part',$);
#35=PERSON('1','Design','Joe',$,$,$);
#36=ORGANIZATION($,'None','None');
#37=PERSON_AND_ORGANIZATION(#35,#36);
#38=PERSON_AND_ORGANIZATION_ROLE('design_owner');
#39=APPLIED_PERSON_AND_ORGANIZATION_ASSIGNMENT(#37,#38,(#32));
#40=PRODUCT_DEFINITION_FORMATION_WITH_SPECIFIED_SOURCE('None','',#32,.BOUGHT.);
#41=PERSON('2','Creator','Joe',$,$,$);
#42=ORGANIZATION($,'None','None');
#43=PERSON_AND_ORGANIZATION(#41,#42);
#44=PERSON_AND_ORGANIZATION_ROLE('creator');
#45=APPLIED_PERSON_AND_ORGANIZATION_ASSIGNMENT(#43,#44,(#40));
#46=PERSON('3','Supplier','Joe',$,$,$);
#47=ORGANIZATION($,'None','None');
#48=PERSON_AND_ORGANIZATION(#46,#47);
#49=PERSON_AND_ORGANIZATION_ROLE('design_supplier');
#50=APPLIED_PERSON_AND_ORGANIZATION_ASSIGNMENT(#48,#49,(#40));
#51=PRODUCT_DEFINITION_CONTEXT('part definition',#29,'design');
#52=PRODUCT_DEFINITION('None','',#40,#51);
#53=PERSON('4','Creator','Joe',$,$,$);
#54=ORGANIZATION($,'None','None');
#55=PERSON_AND_ORGANIZATION(#53,#54);
#56=PERSON_AND_ORGANIZATION_ROLE('creator');
#57=APPLIED_PERSON_AND_ORGANIZATION_ASSIGNMENT(#55,#56,(#52));
#58=CARTESIAN_POINT('NONE',(0.0,0.0,0.0));
#59=DIRECTION('NONE',(0.0,0.0,1.0));
#60=DIRECTION('NONE',(1.0,0.0,0.0));
#61=AXIS2_PLACEMENT_3D('NONE',#58,#59,#60);
#62=SHAPE_REPRESENTATION('SR1',(#61),#28);
#63=PRODUCT_DEFINITION_SHAPE('PDS1','Test Part',#52);
#64=SHAPE_DEFINITION_REPRESENTATION(#63,#62);
#65=CARTESIAN_POINT('',(6.100000000000001,1.309999999999999,0.5));
#66=CARTESIAN_POINT('',(6.600000000000001,1.309999999999999,0.5));
#67=CARTESIAN_POINT('',(6.100000000000001,1.559999999999999,0.5));
#68=CARTESIAN_POINT('',(6.600000000000001,1.559999999999999,0.5));
#69=B_SPLINE_SURFACE_WITH_KNOTS('',1,1,((#65,#67),(#66,#68)),.UNSPECIFIED.,.F.,.F.,.U.,(2,2),(2,2),(0.0,0.5),(0.0,0.25),.UNSPECIFIED.);
#70=CARTESIAN_POINT('',(6.600000000000001,1.559999999999999,0.5));
#71=VERTEX_POINT('',#70);
#72=CARTESIAN_POINT('',(6.600000000000001,1.309999999999999,0.5));
#73=VERTEX_POINT('',#72);
#74=CARTESIAN_POINT('',(6.600000000000001,1.559999999999999,0.5));
#75=DIRECTION('',(0.0,-1.0,0.0));
#76=VECTOR('',#75,0.25);
#77=LINE('',#74,#76);
#78=EDGE_CURVE('',#71,#73,#77,.T.);
#79=ORIENTED_EDGE('',*,*,#78,.F.);
#80=CARTESIAN_POINT('',(6.100000000000001,1.559999999999999,0.5));
#81=VERTEX_POINT('',#80);
#82=CARTESIAN_POINT('',(6.100000000000001,1.559999999999999,0.5));
#83=DIRECTION('',(1.0,0.0,0.0));
#84=VECTOR('',#83,0.5);
#85=LINE('',#82,#84);
#86=EDGE_CURVE('',#81,#71,#85,.T.);
#87=ORIENTED_EDGE('',*,*,#86,.F.);
#88=CARTESIAN_POINT('',(6.100000000000001,1.309999999999999,0.5));
#89=VERTEX_POINT('',#88);
#90=CARTESIAN_POINT('',(6.100000000000001,1.309999999999999,0.5));
#91=DIRECTION('',(0.0,1.0,0.0));
#92=VECTOR('',#91,0.25);
#93=LINE('',#90,#92);
#94=EDGE_CURVE('',#89,#81,#93,.T.);
#95=ORIENTED_EDGE('',*,*,#94,.F.);
#96=CARTESIAN_POINT('',(6.600000000000001,1.309999999999999,0.5));
#97=DIRECTION('',(-1.0,0.0,0.0));
#98=VECTOR('',#97,0.5);
#99=LINE('',#96,#98);
#100=EDGE_CURVE('',#73,#89,#99,.T.);
#101=ORIENTED_EDGE('',*,*,#100,.F.);
#102=EDGE_LOOP('',(#79,#87,#95,#101));
#103=FACE_OUTER_BOUND('',#102,.T.);
#104=ADVANCED_FACE('',(#103),#69,.T.);
#105=CARTESIAN_POINT('',(6.100000000000001,1.309999999999999,-3.2));
#106=CARTESIAN_POINT('',(6.600000000000001,1.309999999999999,-3.2));
#107=CARTESIAN_POINT('',(6.100000000000001,1.559999999999999,-3.2));
#108=CARTESIAN_POINT('',(6.600000000000001,1.559999999999999,-3.2));
#109=B_SPLINE_SURFACE_WITH_KNOTS('',1,1,((#105,#107),(#106,#108)),.UNSPECIFIED.,.F.,.F.,.U.,(2,2),(2,2),(0.0,0.5),(0.0,0.25),.UNSPECIFIED.);
#110=CARTESIAN_POINT('',(6.600000000000001,1.309999999999999,-3.2));
#111=VERTEX_POINT('',#110);
#112=CARTESIAN_POINT('',(6.600000000000001,1.559999999999999,-3.2));
#113=VERTEX_POINT('',#112);
#114=CARTESIAN_POINT('',(6.600000000000001,1.309999999999999,-3.2));
#115=DIRECTION('',(0.0,1.0,0.0));
#116=VECTOR('',#115,0.25);
#117=LINE('',#114,#116);
#118=EDGE_CURVE('',#111,#113,#117,.T.);
#119=ORIENTED_EDGE('',*,*,#118,.F.);
#120=CARTESIAN_POINT('',(6.100000000000001,1.309999999999999,-3.2));
#121=VERTEX_POINT('',#120);
#122=CARTESIAN_POINT('',(6.100000000000001,1.309999999999999,-3.2));
#123=DIRECTION('',(1.0,0.0,0.0));
#124=VECTOR('',#123,0.5);
#125=LINE('',#122,#124);
#126=EDGE_CURVE('',#121,#111,#125,.T.);
#127=ORIENTED_EDGE('',*,*,#126,.F.);
#128=CARTESIAN_POINT('',(6.100000000000001,1.559999999999999,-3.2));
#129=VERTEX_POINT('',#128);
#130=CARTESIAN_POINT('',(6.100000000000001,1.559999999999999,-3.2));
#131=DIRECTION('',(0.0,-1.0,0.0));
#132=VECTOR('',#131,0.25);
#133=LINE('',#130,#132);
#134=EDGE_CURVE('',#129,#121,#133,.T.);
#135=ORIENTED_EDGE('',*,*,#134,.F.);
#136=CARTESIAN_POINT('',(6.600000000000001,1.559999999999999,-3.2));
#137=DIRECTION('',(-1.0,0.0,0.0));
#138=VECTOR('',#137,0.5);
#139=LINE('',#136,#138);
#140=EDGE_CURVE('',#113,#129,#139,.T.);
#141=ORIENTED_EDGE('',*,*,#140,.F.);
#142=EDGE_LOOP('',(#119,#127,#135,#141));
#143=FACE_OUTER_BOUND('',#142,.T.);
#144=ADVANCED_FACE('',(#143),#109,.F.);
#145=CARTESIAN_POINT('',(6.600000000000001,1.559999999999999,-3.2));
#146=CARTESIAN_POINT('',(6.600000000000001,1.559999999999999,0.5));
#147=CARTESIAN_POINT('',(6.100000000000001,1.559999999999999,-3.2));
#148=CARTESIAN_POINT('',(6.100000000000001,1.559999999999999,0.5));
#149=B_SPLINE_SURFACE_WITH_KNOTS('',1,1,((#145,#147),(#146,#148)),.UNSPECIFIED.,.F.,.F.,.U.,(2,2),(2,2),(0.0,3.7),(0.0,0.5),.UNSPECIFIED.);
#150=CARTESIAN_POINT('',(6.100000000000001,1.559999999999999,0.5));
#151=DIRECTION('',(0.0,0.0,-1.0));
#152=VECTOR('',#151,3.7);
#153=LINE('',#150,#152);
#154=EDGE_CURVE('',#81,#129,#153,.T.);
#155=ORIENTED_EDGE('',*,*,#154,.F.);
#156=ORIENTED_EDGE('',*,*,#86,.T.);
#157=CARTESIAN_POINT('',(6.600000000000001,1.559999999999999,0.5));
#158=DIRECTION('',(0.0,0.0,-1.0));
#159=VECTOR('',#158,3.7);
#160=LINE('',#157,#159);
#161=EDGE_CURVE('',#71,#113,#160,.T.);
#162=ORIENTED_EDGE('',*,*,#161,.T.);
#163=ORIENTED_EDGE('',*,*,#140,.T.);
#164=EDGE_LOOP('',(#155,#156,#162,#163));
#165=FACE_OUTER_BOUND('',#164,.T.);
#166=ADVANCED_FACE('',(#165),#149,.F.);
#167=CARTESIAN_POINT('',(6.100000000000001,1.309999999999999,0.5));
#168=CARTESIAN_POINT('',(6.100000000000001,1.309999999999999,-3.2));
#169=CARTESIAN_POINT('',(6.100000000000001,1.559999999999999,0.5));
#170=CARTESIAN_POINT('',(6.100000000000001,1.559999999999999,-3.2));
#171=B_SPLINE_SURFACE_WITH_KNOTS('',1,1,((#167,#169),(#168,#170)),.UNSPECIFIED.,.F.,.F.,.U.,(2,2),(2,2),(0.0,3.7),(0.0,0.25),.UNSPECIFIED.);
#172=CARTESIAN_POINT('',(6.100000000000001,1.309999999999999,0.5));
#173=DIRECTION('',(0.0,0.0,-1.0));
#174=VECTOR('',#173,3.7);
#175=LINE('',#172,#174);
#176=EDGE_CURVE('',#89,#121,#175,.T.);
#177=ORIENTED_EDGE('',*,*,#176,.F.);
#178=ORIENTED_EDGE('',*,*,#94,.T.);
#179=ORIENTED_EDGE('',*,*,#154,.T.);
#180=ORIENTED_EDGE('',*,*,#134,.T.);
#181=EDGE_LOOP('',(#177,#178,#179,#180));
#182=FACE_OUTER_BOUND('',#181,.T.);
#183=ADVANCED_FACE('',(#182),#171,.F.);
#184=CARTESIAN_POINT('',(6.600000000000001,1.309999999999999,0.5));
#185=CARTESIAN_POINT('',(6.600000000000001,1.309999999999999,-3.2));
#186=CARTESIAN_POINT('',(6.100000000000001,1.309999999999999,0.5));
#187=CARTESIAN_POINT('',(6.100000000000001,1.309999999999999,-3.2));
#188=B_SPLINE_SURFACE_WITH_KNOTS('',1,1,((#184,#186),(#185,#187)),.UNSPECIFIED.,.F.,.F.,.U.,(2,2),(2,2),(0.0,3.7),(0.0,0.5),.UNSPECIFIED.);
#189=CARTESIAN_POINT('',(6.600000000000001,1.309999999999999,0.5));
#190=DIRECTION('',(0.0,0.0,-1.0));
#191=VECTOR('',#190,3.7);
#192=LINE('',#189,#191);
#193=EDGE_CURVE('',#73,#111,#192,.T.);
#194=ORIENTED_EDGE('',*,*,#193,.F.);
#195=ORIENTED_EDGE('',*,*,#100,.T.);
#196=ORIENTED_EDGE('',*,*,#176,.T.);
#197=ORIENTED_EDGE('',*,*,#126,.T.);
#198=EDGE_LOOP('',(#194,#195,#196,#197));
#199=FACE_OUTER_BOUND('',#198,.T.);
#200=ADVANCED_FACE('',(#199),#188,.F.);
#201=CARTESIAN_POINT('',(6.600000000000001,1.309999999999999,-3.2));
#202=CARTESIAN_POINT('',(6.600000000000001,1.309999999999999,0.5));
#203=CARTESIAN_POINT('',(6.600000000000001,1.559999999999999,-3.2));
#204=CARTESIAN_POINT('',(6.600000000000001,1.559999999999999,0.5));
#205=B_SPLINE_SURFACE_WITH_KNOTS('',1,1,((#201,#203),(#202,#204)),.UNSPECIFIED.,.F.,.F.,.U.,(2,2),(2,2),(0.0,3.7),(0.0,0.25),.UNSPECIFIED.);
#206=ORIENTED_EDGE('',*,*,#161,.F.);
#207=ORIENTED_EDGE('',*,*,#78,.T.);
#208=ORIENTED_EDGE('',*,*,#193,.T.);
#209=ORIENTED_EDGE('',*,*,#118,.T.);
#210=EDGE_LOOP('',(#206,#207,#208,#209));
#211=FACE_OUTER_BOUND('',#210,.T.);
#212=ADVANCED_FACE('',(#211),#205,.F.);
#213=CLOSED_SHELL('',(#104,#144,#166,#183,#200,#212));
#214=MANIFOLD_SOLID_BREP('1594',#213);
#215=COLOUR_RGB('254',0.866,0.866,0.866);
#216=SURFACE_STYLE_USAGE(.BOTH.,#217);
#217=SURFACE_SIDE_STYLE('NONE',(#218));
#218=SURFACE_STYLE_FILL_AREA(#219);
#219=FILL_AREA_STYLE('NONE',(#220));
#220=FILL_AREA_STYLE_COLOUR('NONE',#215);
#221=PRESENTATION_STYLE_ASSIGNMENT((#216));
#222=STYLED_ITEM('NONE',(#221),#214);
#223=MECHANICAL_DESIGN_GEOMETRIC_PRESENTATION_REPRESENTATION('NONE',(#222,#375,#526,#677,#828,#924,#1294),#28);
#224=PRESENTATION_LAYER_ASSIGNMENT('3D','None',(#214,#374,#525,#676,#827,#916,#1286));
#225=CARTESIAN_POINT('',(3.560000000000002,1.309999999999999,0.5));
#226=CARTESIAN_POINT('',(4.060000000000002,1.309999999999999,0.5));
#227=CARTESIAN_POINT('',(3.560000000000002,1.559999999999999,0.5));
#228=CARTESIAN_POINT('',(4.060000000000002,1.559999999999999,0.5));
#229=B_SPLINE_SURFACE_WITH_KNOTS('',1,1,((#225,#227),(#226,#228)),.UNSPECIFIED.,.F.,.F.,.U.,(2,2),(2,2),(0.0,0.5),(0.0,0.25),.UNSPECIFIED.);
#230=CARTESIAN_POINT('',(4.060000000000002,1.559999999999999,0.5));
#231=VERTEX_POINT('',#230);
#232=CARTESIAN_POINT('',(4.060000000000002,1.309999999999999,0.5));
#233=VERTEX_POINT('',#232);
#234=CARTESIAN_POINT('',(4.060000000000002,1.559999999999999,0.5));
#235=DIRECTION('',(0.0,-1.0,0.0));
#236=VECTOR('',#235,0.25);
#237=LINE('',#234,#236);
#238=EDGE_CURVE('',#231,#233,#237,.T.);
#239=ORIENTED_EDGE('',*,*,#238,.F.);
#240=CARTESIAN_POINT('',(3.560000000000002,1.559999999999999,0.5));
#241=VERTEX_POINT('',#240);
#242=CARTESIAN_POINT('',(3.560000000000002,1.559999999999999,0.5));
#243=DIRECTION('',(1.0,0.0,0.0));
#244=VECTOR('',#243,0.5);
#245=LINE('',#242,#244);
#246=EDGE_CURVE('',#241,#231,#245,.T.);
#247=ORIENTED_EDGE('',*,*,#246,.F.);
#248=CARTESIAN_POINT('',(3.560000000000002,1.309999999999999,0.5));
#249=VERTEX_POINT('',#248);
#250=CARTESIAN_POINT('',(3.560000000000002,1.309999999999999,0.5));
#251=DIRECTION('',(0.0,1.0,0.0));
#252=VECTOR('',#251,0.25);
#253=LINE('',#250,#252);
#254=EDGE_CURVE('',#249,#241,#253,.T.);
#255=ORIENTED_EDGE('',*,*,#254,.F.);
#256=CARTESIAN_POINT('',(4.060000000000002,1.309999999999999,0.5));
#257=DIRECTION('',(-1.0,0.0,0.0));
#258=VECTOR('',#257,0.5);
#259=LINE('',#256,#258);
#260=EDGE_CURVE('',#233,#249,#259,.T.);
#261=ORIENTED_EDGE('',*,*,#260,.F.);
#262=EDGE_LOOP('',(#239,#247,#255,#261));
#263=FACE_OUTER_BOUND('',#262,.T.);
#264=ADVANCED_FACE('',(#263),#229,.T.);
#265=CARTESIAN_POINT('',(3.560000000000002,1.309999999999999,-3.2));
#266=CARTESIAN_POINT('',(4.060000000000002,1.309999999999999,-3.2));
#267=CARTESIAN_POINT('',(3.560000000000002,1.559999999999999,-3.2));
#268=CARTESIAN_POINT('',(4.060000000000002,1.559999999999999,-3.2));
#269=B_SPLINE_SURFACE_WITH_KNOTS('',1,1,((#265,#267),(#266,#268)),.UNSPECIFIED.,.F.,.F.,.U.,(2,2),(2,2),(0.0,0.5),(0.0,0.25),.UNSPECIFIED.);
#270=CARTESIAN_POINT('',(4.060000000000002,1.309999999999999,-3.2));
#271=VERTEX_POINT('',#270);
#272=CARTESIAN_POINT('',(4.060000000000002,1.559999999999999,-3.2));
#273=VERTEX_POINT('',#272);
#274=CARTESIAN_POINT('',(4.060000000000002,1.309999999999999,-3.2));
#275=DIRECTION('',(0.0,1.0,0.0));
#276=VECTOR('',#275,0.25);
#277=LINE('',#274,#276);
#278=EDGE_CURVE('',#271,#273,#277,.T.);
#279=ORIENTED_EDGE('',*,*,#278,.F.);
#280=CARTESIAN_POINT('',(3.560000000000002,1.309999999999999,-3.2));
#281=VERTEX_POINT('',#280);
#282=CARTESIAN_POINT('',(3.560000000000002,1.309999999999999,-3.2));
#283=DIRECTION('',(1.0,0.0,0.0));
#284=VECTOR('',#283,0.5);
#285=LINE('',#282,#284);
#286=EDGE_CURVE('',#281,#271,#285,.T.);
#287=ORIENTED_EDGE('',*,*,#286,.F.);
#288=CARTESIAN_POINT('',(3.560000000000002,1.559999999999999,-3.2));
#289=VERTEX_POINT('',#288);
#290=CARTESIAN_POINT('',(3.560000000000002,1.559999999999999,-3.2));
#291=DIRECTION('',(0.0,-1.0,0.0));
#292=VECTOR('',#291,0.25);
#293=LINE('',#290,#292);
#294=EDGE_CURVE('',#289,#281,#293,.T.);
#295=ORIENTED_EDGE('',*,*,#294,.F.);
#296=CARTESIAN_POINT('',(4.060000000000002,1.559999999999999,-3.2));
#297=DIRECTION('',(-1.0,0.0,0.0));
#298=VECTOR('',#297,0.5);
#299=LINE('',#296,#298);
#300=EDGE_CURVE('',#273,#289,#299,.T.);
#301=ORIENTED_EDGE('',*,*,#300,.F.);
#302=EDGE_LOOP('',(#279,#287,#295,#301));
#303=FACE_OUTER_BOUND('',#302,.T.);
#304=ADVANCED_FACE('',(#303),#269,.F.);
#305=CARTESIAN_POINT('',(4.060000000000002,1.559999999999999,-3.2));
#306=CARTESIAN_POINT('',(4.060000000000002,1.559999999999999,0.5));
#307=CARTESIAN_POINT('',(3.560000000000002,1.559999999999999,-3.2));
#308=CARTESIAN_POINT('',(3.560000000000002,1.559999999999999,0.5));
#309=B_SPLINE_SURFACE_WITH_KNOTS('',1,1,((#305,#307),(#306,#308)),.UNSPECIFIED.,.F.,.F.,.U.,(2,2),(2,2),(0.0,3.7),(0.0,0.5),.UNSPECIFIED.);
#310=CARTESIAN_POINT('',(3.560000000000002,1.559999999999999,0.5));
#311=DIRECTION('',(0.0,0.0,-1.0));
#312=VECTOR('',#311,3.7);
#313=LINE('',#310,#312);
#314=EDGE_CURVE('',#241,#289,#313,.T.);
#315=ORIENTED_EDGE('',*,*,#314,.F.);
#316=ORIENTED_EDGE('',*,*,#246,.T.);
#317=CARTESIAN_POINT('',(4.060000000000002,1.559999999999999,0.5));
#318=DIRECTION('',(0.0,0.0,-1.0));
#319=VECTOR('',#318,3.7);
#320=LINE('',#317,#319);
#321=EDGE_CURVE('',#231,#273,#320,.T.);
#322=ORIENTED_EDGE('',*,*,#321,.T.);
#323=ORIENTED_EDGE('',*,*,#300,.T.);
#324=EDGE_LOOP('',(#315,#316,#322,#323));
#325=FACE_OUTER_BOUND('',#324,.T.);
#326=ADVANCED_FACE('',(#325),#309,.F.);
#327=CARTESIAN_POINT('',(3.560000000000002,1.309999999999999,0.5));
#328=CARTESIAN_POINT('',(3.560000000000002,1.309999999999999,-3.2));
#329=CARTESIAN_POINT('',(3.560000000000002,1.559999999999999,0.5));
#330=CARTESIAN_POINT('',(3.560000000000002,1.559999999999999,-3.2));
#331=B_SPLINE_SURFACE_WITH_KNOTS('',1,1,((#327,#329),(#328,#330)),.UNSPECIFIED.,.F.,.F.,.U.,(2,2),(2,2),(0.0,3.7),(0.0,0.25),.UNSPECIFIED.);
#332=CARTESIAN_POINT('',(3.560000000000002,1.309999999999999,0.5));
#333=DIRECTION('',(0.0,0.0,-1.0));
#334=VECTOR('',#333,3.7);
#335=LINE('',#332,#334);
#336=EDGE_CURVE('',#249,#281,#335,.T.);
#337=ORIENTED_EDGE('',*,*,#336,.F.);
#338=ORIENTED_EDGE('',*,*,#254,.T.);
#339=ORIENTED_EDGE('',*,*,#314,.T.);
#340=ORIENTED_EDGE('',*,*,#294,.T.);
#341=EDGE_LOOP('',(#337,#338,#339,#340));
#342=FACE_OUTER_BOUND('',#341,.T.);
#343=ADVANCED_FACE('',(#342),#331,.F.);
#344=CARTESIAN_POINT('',(4.060000000000002,1.309999999999999,0.5));
#345=CARTESIAN_POINT('',(4.060000000000002,1.309999999999999,-3.2));
#346=CARTESIAN_POINT('',(3.560000000000002,1.309999999999999,0.5));
#347=CARTESIAN_POINT('',(3.560000000000002,1.309999999999999,-3.2));
#348=B_SPLINE_SURFACE_WITH_KNOTS('',1,1,((#344,#346),(#345,#347)),.UNSPECIFIED.,.F.,.F.,.U.,(2,2),(2,2),(0.0,3.7),(0.0,0.5),.UNSPECIFIED.);
#349=CARTESIAN_POINT('',(4.060000000000002,1.309999999999999,0.5));
#350=DIRECTION('',(0.0,0.0,-1.0));
#351=VECTOR('',#350,3.7);
#352=LINE('',#349,#351);
#353=EDGE_CURVE('',#233,#271,#352,.T.);
#354=ORIENTED_EDGE('',*,*,#353,.F.);
#355=ORIENTED_EDGE('',*,*,#260,.T.);
#356=ORIENTED_EDGE('',*,*,#336,.T.);
#357=ORIENTED_EDGE('',*,*,#286,.T.);
#358=EDGE_LOOP('',(#354,#355,#356,#357));
#359=FACE_OUTER_BOUND('',#358,.T.);
#360=ADVANCED_FACE('',(#359),#348,.F.);
#361=CARTESIAN_POINT('',(4.060000000000002,1.309999999999999,-3.2));
#362=CARTESIAN_POINT('',(4.060000000000002,1.309999999999999,0.5));
#363=CARTESIAN_POINT('',(4.060000000000002,1.559999999999999,-3.2));
#364=CARTESIAN_POINT('',(4.060000000000002,1.559999999999999,0.5));
#365=B_SPLINE_SURFACE_WITH_KNOTS('',1,1,((#361,#363),(#362,#364)),.UNSPECIFIED.,.F.,.F.,.U.,(2,2),(2,2),(0.0,3.7),(0.0,0.25),.UNSPECIFIED.);
#366=ORIENTED_EDGE('',*,*,#321,.F.);
#367=ORIENTED_EDGE('',*,*,#238,.T.);
#368=ORIENTED_EDGE('',*,*,#353,.T.);
#369=ORIENTED_EDGE('',*,*,#278,.T.);
#370=EDGE_LOOP('',(#366,#367,#368,#369));
#371=FACE_OUTER_BOUND('',#370,.T.);
#372=ADVANCED_FACE('',(#371),#365,.F.);
#373=CLOSED_SHELL('',(#264,#304,#326,#343,#360,#372));
#374=MANIFOLD_SOLID_BREP('1590',#373);
#375=STYLED_ITEM('NONE',(#221),#374);
#376=CARTESIAN_POINT('',(1.02,1.309999999999999,0.5));
#377=CARTESIAN_POINT('',(1.52,1.309999999999999,0.5));
#378=CARTESIAN_POINT('',(1.02,1.559999999999999,0.5));
#379=CARTESIAN_POINT('',(1.52,1.559999999999999,0.5));
#380=B_SPLINE_SURFACE_WITH_KNOTS('',1,1,((#376,#378),(#377,#379)),.UNSPECIFIED.,.F.,.F.,.U.,(2,2),(2,2),(0.0,0.5),(0.0,0.25),.UNSPECIFIED.);
#381=CARTESIAN_POINT('',(1.52,1.559999999999999,0.5));
#382=VERTEX_POINT('',#381);
#383=CARTESIAN_POINT('',(1.52,1.309999999999999,0.5));
#384=VERTEX_POINT('',#383);
#385=CARTESIAN_POINT('',(1.52,1.559999999999999,0.5));
#386=DIRECTION('',(0.0,-1.0,0.0));
#387=VECTOR('',#386,0.25);
#388=LINE('',#385,#387);
#389=EDGE_CURVE('',#382,#384,#388,.T.);
#390=ORIENTED_EDGE('',*,*,#389,.F.);
#391=CARTESIAN_POINT('',(1.02,1.559999999999999,0.5));
#392=VERTEX_POINT('',#391);
#393=CARTESIAN_POINT('',(1.02,1.559999999999999,0.5));
#394=DIRECTION('',(1.0,0.0,0.0));
#395=VECTOR('',#394,0.5);
#396=LINE('',#393,#395);
#397=EDGE_CURVE('',#392,#382,#396,.T.);
#398=ORIENTED_EDGE('',*,*,#397,.F.);
#399=CARTESIAN_POINT('',(1.02,1.309999999999999,0.5));
#400=VERTEX_POINT('',#399);
#401=CARTESIAN_POINT('',(1.02,1.309999999999999,0.5));
#402=DIRECTION('',(0.0,1.0,0.0));
#403=VECTOR('',#402,0.25);
#404=LINE('',#401,#403);
#405=EDGE_CURVE('',#400,#392,#404,.T.);
#406=ORIENTED_EDGE('',*,*,#405,.F.);
#407=CARTESIAN_POINT('',(1.52,1.309999999999999,0.5));
#408=DIRECTION('',(-1.0,0.0,0.0));
#409=VECTOR('',#408,0.5);
#410=LINE('',#407,#409);
#411=EDGE_CURVE('',#384,#400,#410,.T.);
#412=ORIENTED_EDGE('',*,*,#411,.F.);
#413=EDGE_LOOP('',(#390,#398,#406,#412));
#414=FACE_OUTER_BOUND('',#413,.T.);
#415=ADVANCED_FACE('',(#414),#380,.T.);
#416=CARTESIAN_POINT('',(1.02,1.309999999999999,-3.2));
#417=CARTESIAN_POINT('',(1.52,1.309999999999999,-3.2));
#418=CARTESIAN_POINT('',(1.02,1.559999999999999,-3.2));
#419=CARTESIAN_POINT('',(1.52,1.559999999999999,-3.2));
#420=B_SPLINE_SURFACE_WITH_KNOTS('',1,1,((#416,#418),(#417,#419)),.UNSPECIFIED.,.F.,.F.,.U.,(2,2),(2,2),(0.0,0.5),(0.0,0.25),.UNSPECIFIED.);
#421=CARTESIAN_POINT('',(1.52,1.309999999999999,-3.2));
#422=VERTEX_POINT('',#421);
#423=CARTESIAN_POINT('',(1.52,1.559999999999999,-3.2));
#424=VERTEX_POINT('',#423);
#425=CARTESIAN_POINT('',(1.52,1.309999999999999,-3.2));
#426=DIRECTION('',(0.0,1.0,0.0));
#427=VECTOR('',#426,0.25);
#428=LINE('',#425,#427);
#429=EDGE_CURVE('',#422,#424,#428,.T.);
#430=ORIENTED_EDGE('',*,*,#429,.F.);
#431=CARTESIAN_POINT('',(1.02,1.309999999999999,-3.2));
#432=VERTEX_POINT('',#431);
#433=CARTESIAN_POINT('',(1.02,1.309999999999999,-3.2));
#434=DIRECTION('',(1.0,0.0,0.0));
#435=VECTOR('',#434,0.5);
#436=LINE('',#433,#435);
#437=EDGE_CURVE('',#432,#422,#436,.T.);
#438=ORIENTED_EDGE('',*,*,#437,.F.);
#439=CARTESIAN_POINT('',(1.02,1.559999999999999,-3.2));
#440=VERTEX_POINT('',#439);
#441=CARTESIAN_POINT('',(1.02,1.559999999999999,-3.2));
#442=DIRECTION('',(0.0,-1.0,0.0));
#443=VECTOR('',#442,0.25);
#444=LINE('',#441,#443);
#445=EDGE_CURVE('',#440,#432,#444,.T.);
#446=ORIENTED_EDGE('',*,*,#445,.F.);
#447=CARTESIAN_POINT('',(1.52,1.559999999999999,-3.2));
#448=DIRECTION('',(-1.0,0.0,0.0));
#449=VECTOR('',#448,0.5);
#450=LINE('',#447,#449);
#451=EDGE_CURVE('',#424,#440,#450,.T.);
#452=ORIENTED_EDGE('',*,*,#451,.F.);
#453=EDGE_LOOP('',(#430,#438,#446,#452));
#454=FACE_OUTER_BOUND('',#453,.T.);
#455=ADVANCED_FACE('',(#454),#420,.F.);
#456=CARTESIAN_POINT('',(1.52,1.559999999999999,-3.2));
#457=CARTESIAN_POINT('',(1.52,1.559999999999999,0.5));
#458=CARTESIAN_POINT('',(1.02,1.559999999999999,-3.2));
#459=CARTESIAN_POINT('',(1.02,1.559999999999999,0.5));
#460=B_SPLINE_SURFACE_WITH_KNOTS('',1,1,((#456,#458),(#457,#459)),.UNSPECIFIED.,.F.,.F.,.U.,(2,2),(2,2),(0.0,3.7),(0.0,0.5),.UNSPECIFIED.);
#461=CARTESIAN_POINT('',(1.02,1.559999999999999,0.5));
#462=DIRECTION('',(0.0,0.0,-1.0));
#463=VECTOR('',#462,3.7);
#464=LINE('',#461,#463);
#465=EDGE_CURVE('',#392,#440,#464,.T.);
#466=ORIENTED_EDGE('',*,*,#465,.F.);
#467=ORIENTED_EDGE('',*,*,#397,.T.);
#468=CARTESIAN_POINT('',(1.52,1.559999999999999,0.5));
#469=DIRECTION('',(0.0,0.0,-1.0));
#470=VECTOR('',#469,3.7);
#471=LINE('',#468,#470);
#472=EDGE_CURVE('',#382,#424,#471,.T.);
#473=ORIENTED_EDGE('',*,*,#472,.T.);
#474=ORIENTED_EDGE('',*,*,#451,.T.);
#475=EDGE_LOOP('',(#466,#467,#473,#474));
#476=FACE_OUTER_BOUND('',#475,.T.);
#477=ADVANCED_FACE('',(#476),#460,.F.);
#478=CARTESIAN_POINT('',(1.02,1.309999999999999,0.5));
#479=CARTESIAN_POINT('',(1.02,1.309999999999999,-3.2));
#480=CARTESIAN_POINT('',(1.02,1.559999999999999,0.5));
#481=CARTESIAN_POINT('',(1.02,1.559999999999999,-3.2));
#482=B_SPLINE_SURFACE_WITH_KNOTS('',1,1,((#478,#480),(#479,#481)),.UNSPECIFIED.,.F.,.F.,.U.,(2,2),(2,2),(0.0,3.7),(0.0,0.25),.UNSPECIFIED.);
#483=CARTESIAN_POINT('',(1.02,1.309999999999999,0.5));
#484=DIRECTION('',(0.0,0.0,-1.0));
#485=VECTOR('',#484,3.7);
#486=LINE('',#483,#485);
#487=EDGE_CURVE('',#400,#432,#486,.T.);
#488=ORIENTED_EDGE('',*,*,#487,.F.);
#489=ORIENTED_EDGE('',*,*,#405,.T.);
#490=ORIENTED_EDGE('',*,*,#465,.T.);
#491=ORIENTED_EDGE('',*,*,#445,.T.);
#492=EDGE_LOOP('',(#488,#489,#490,#491));
#493=FACE_OUTER_BOUND('',#492,.T.);
#494=ADVANCED_FACE('',(#493),#482,.F.);
#495=CARTESIAN_POINT('',(1.52,1.309999999999999,0.5));
#496=CARTESIAN_POINT('',(1.52,1.309999999999999,-3.2));
#497=CARTESIAN_POINT('',(1.02,1.309999999999999,0.5));
#498=CARTESIAN_POINT('',(1.02,1.309999999999999,-3.2));
#499=B_SPLINE_SURFACE_WITH_KNOTS('',1,1,((#495,#497),(#496,#498)),.UNSPECIFIED.,.F.,.F.,.U.,(2,2),(2,2),(0.0,3.7),(0.0,0.5),.UNSPECIFIED.);
#500=CARTESIAN_POINT('',(1.52,1.309999999999999,0.5));
#501=DIRECTION('',(0.0,0.0,-1.0));
#502=VECTOR('',#501,3.7);
#503=LINE('',#500,#502);
#504=EDGE_CURVE('',#384,#422,#503,.T.);
#505=ORIENTED_EDGE('',*,*,#504,.F.);
#506=ORIENTED_EDGE('',*,*,#411,.T.);
#507=ORIENTED_EDGE('',*,*,#487,.T.);
#508=ORIENTED_EDGE('',*,*,#437,.T.);
#509=EDGE_LOOP('',(#505,#506,#507,#508));
#510=FACE_OUTER_BOUND('',#509,.T.);
#511=ADVANCED_FACE('',(#510),#499,.F.);
#512=CARTESIAN_POINT('',(1.52,1.309999999999999,-3.2));
#513=CARTESIAN_POINT('',(1.52,1.309999999999999,0.5));
#514=CARTESIAN_POINT('',(1.52,1.559999999999999,-3.2));
#515=CARTESIAN_POINT('',(1.52,1.559999999999999,0.5));
#516=B_SPLINE_SURFACE_WITH_KNOTS('',1,1,((#512,#514),(#513,#515)),.UNSPECIFIED.,.F.,.F.,.U.,(2,2),(2,2),(0.0,3.7),(0.0,0.25),.UNSPECIFIED.);
#517=ORIENTED_EDGE('',*,*,#472,.F.);
#518=ORIENTED_EDGE('',*,*,#389,.T.);
#519=ORIENTED_EDGE('',*,*,#504,.T.);
#520=ORIENTED_EDGE('',*,*,#429,.T.);
#521=EDGE_LOOP('',(#517,#518,#519,#520));
#522=FACE_OUTER_BOUND('',#521,.T.);
#523=ADVANCED_FACE('',(#522),#516,.F.);
#524=CLOSED_SHELL('',(#415,#455,#477,#494,#511,#523));
#525=MANIFOLD_SOLID_BREP('158C',#524);
#526=STYLED_ITEM('NONE',(#221),#525);
#527=CARTESIAN_POINT('',(-4.060000000000001,1.309999999999999,0.5));
#528=CARTESIAN_POINT('',(-3.560000000000001,1.309999999999999,0.5));
#529=CARTESIAN_POINT('',(-4.060000000000001,1.559999999999999,0.5));
#530=CARTESIAN_POINT('',(-3.560000000000001,1.559999999999999,0.5));
#531=B_SPLINE_SURFACE_WITH_KNOTS('',1,1,((#527,#529),(#528,#530)),.UNSPECIFIED.,.F.,.F.,.U.,(2,2),(2,2),(0.0,0.5),(0.0,0.25),.UNSPECIFIED.);
#532=CARTESIAN_POINT('',(-3.560000000000001,1.559999999999999,0.5));
#533=VERTEX_POINT('',#532);
#534=CARTESIAN_POINT('',(-3.560000000000001,1.309999999999999,0.5));
#535=VERTEX_POINT('',#534);
#536=CARTESIAN_POINT('',(-3.560000000000001,1.559999999999999,0.5));
#537=DIRECTION('',(0.0,-1.0,0.0));
#538=VECTOR('',#537,0.25);
#539=LINE('',#536,#538);
#540=EDGE_CURVE('',#533,#535,#539,.T.);
#541=ORIENTED_EDGE('',*,*,#540,.F.);
#542=CARTESIAN_POINT('',(-4.060000000000001,1.559999999999999,0.5));
#543=VERTEX_POINT('',#542);
#544=CARTESIAN_POINT('',(-4.060000000000001,1.559999999999999,0.5));
#545=DIRECTION('',(1.0,0.0,0.0));
#546=VECTOR('',#545,0.5);
#547=LINE('',#544,#546);
#548=EDGE_CURVE('',#543,#533,#547,.T.);
#549=ORIENTED_EDGE('',*,*,#548,.F.);
#550=CARTESIAN_POINT('',(-4.060000000000001,1.309999999999999,0.5));
#551=VERTEX_POINT('',#550);
#552=CARTESIAN_POINT('',(-4.060000000000001,1.309999999999999,0.5));
#553=DIRECTION('',(0.0,1.0,0.0));
#554=VECTOR('',#553,0.25);
#555=LINE('',#552,#554);
#556=EDGE_CURVE('',#551,#543,#555,.T.);
#557=ORIENTED_EDGE('',*,*,#556,.F.);
#558=CARTESIAN_POINT('',(-3.560000000000001,1.309999999999999,0.5));
#559=DIRECTION('',(-1.0,0.0,0.0));
#560=VECTOR('',#559,0.5);
#561=LINE('',#558,#560);
#562=EDGE_CURVE('',#535,#551,#561,.T.);
#563=ORIENTED_EDGE('',*,*,#562,.F.);
#564=EDGE_LOOP('',(#541,#549,#557,#563));
#565=FACE_OUTER_BOUND('',#564,.T.);
#566=ADVANCED_FACE('',(#565),#531,.T.);
#567=CARTESIAN_POINT('',(-4.060000000000001,1.309999999999999,-3.2));
#568=CARTESIAN_POINT('',(-3.560000000000001,1.309999999999999,-3.2));
#569=CARTESIAN_POINT('',(-4.060000000000001,1.559999999999999,-3.2));
#570=CARTESIAN_POINT('',(-3.560000000000001,1.559999999999999,-3.2));
#571=B_SPLINE_SURFACE_WITH_KNOTS('',1,1,((#567,#569),(#568,#570)),.UNSPECIFIED.,.F.,.F.,.U.,(2,2),(2,2),(0.0,0.5),(0.0,0.25),.UNSPECIFIED.);
#572=CARTESIAN_POINT('',(-3.560000000000001,1.309999999999999,-3.2));
#573=VERTEX_POINT('',#572);
#574=CARTESIAN_POINT('',(-3.560000000000001,1.559999999999999,-3.2));
#575=VERTEX_POINT('',#574);
#576=CARTESIAN_POINT('',(-3.560000000000001,1.309999999999999,-3.2));
#577=DIRECTION('',(0.0,1.0,0.0));
#578=VECTOR('',#577,0.25);
#579=LINE('',#576,#578);
#580=EDGE_CURVE('',#573,#575,#579,.T.);
#581=ORIENTED_EDGE('',*,*,#580,.F.);
#582=CARTESIAN_POINT('',(-4.060000000000001,1.309999999999999,-3.2));
#583=VERTEX_POINT('',#582);
#584=CARTESIAN_POINT('',(-4.060000000000001,1.309999999999999,-3.2));
#585=DIRECTION('',(1.0,0.0,0.0));
#586=VECTOR('',#585,0.5);
#587=LINE('',#584,#586);
#588=EDGE_CURVE('',#583,#573,#587,.T.);
#589=ORIENTED_EDGE('',*,*,#588,.F.);
#590=CARTESIAN_POINT('',(-4.060000000000001,1.559999999999999,-3.2));
#591=VERTEX_POINT('',#590);
#592=CARTESIAN_POINT('',(-4.060000000000001,1.559999999999999,-3.2));
#593=DIRECTION('',(0.0,-1.0,0.0));
#594=VECTOR('',#593,0.25);
#595=LINE('',#592,#594);
#596=EDGE_CURVE('',#591,#583,#595,.T.);
#597=ORIENTED_EDGE('',*,*,#596,.F.);
#598=CARTESIAN_POINT('',(-3.560000000000001,1.559999999999999,-3.2));
#599=DIRECTION('',(-1.0,0.0,0.0));
#600=VECTOR('',#599,0.5);
#601=LINE('',#598,#600);
#602=EDGE_CURVE('',#575,#591,#601,.T.);
#603=ORIENTED_EDGE('',*,*,#602,.F.);
#604=EDGE_LOOP('',(#581,#589,#597,#603));
#605=FACE_OUTER_BOUND('',#604,.T.);
#606=ADVANCED_FACE('',(#605),#571,.F.);
#607=CARTESIAN_POINT('',(-3.560000000000001,1.559999999999999,-3.2));
#608=CARTESIAN_POINT('',(-3.560000000000001,1.559999999999999,0.5));
#609=CARTESIAN_POINT('',(-4.060000000000001,1.559999999999999,-3.2));
#610=CARTESIAN_POINT('',(-4.060000000000001,1.559999999999999,0.5));
#611=B_SPLINE_SURFACE_WITH_KNOTS('',1,1,((#607,#609),(#608,#610)),.UNSPECIFIED.,.F.,.F.,.U.,(2,2),(2,2),(0.0,3.7),(0.0,0.5),.UNSPECIFIED.);
#612=CARTESIAN_POINT('',(-4.060000000000001,1.559999999999999,0.5));
#613=DIRECTION('',(0.0,0.0,-1.0));
#614=VECTOR('',#613,3.7);
#615=LINE('',#612,#614);
#616=EDGE_CURVE('',#543,#591,#615,.T.);
#617=ORIENTED_EDGE('',*,*,#616,.F.);
#618=ORIENTED_EDGE('',*,*,#548,.T.);
#619=CARTESIAN_POINT('',(-3.560000000000001,1.559999999999999,0.5));
#620=DIRECTION('',(0.0,0.0,-1.0));
#621=VECTOR('',#620,3.7);
#622=LINE('',#619,#621);
#623=EDGE_CURVE('',#533,#575,#622,.T.);
#624=ORIENTED_EDGE('',*,*,#623,.T.);
#625=ORIENTED_EDGE('',*,*,#602,.T.);
#626=EDGE_LOOP('',(#617,#618,#624,#625));
#627=FACE_OUTER_BOUND('',#626,.T.);
#628=ADVANCED_FACE('',(#627),#611,.F.);
#629=CARTESIAN_POINT('',(-4.060000000000001,1.309999999999999,0.5));
#630=CARTESIAN_POINT('',(-4.060000000000001,1.309999999999999,-3.2));
#631=CARTESIAN_POINT('',(-4.060000000000001,1.559999999999999,0.5));
#632=CARTESIAN_POINT('',(-4.060000000000001,1.559999999999999,-3.2));
#633=B_SPLINE_SURFACE_WITH_KNOTS('',1,1,((#629,#631),(#630,#632)),.UNSPECIFIED.,.F.,.F.,.U.,(2,2),(2,2),(0.0,3.7),(0.0,0.25),.UNSPECIFIED.);
#634=CARTESIAN_POINT('',(-4.060000000000001,1.309999999999999,0.5));
#635=DIRECTION('',(0.0,0.0,-1.0));
#636=VECTOR('',#635,3.7);
#637=LINE('',#634,#636);
#638=EDGE_CURVE('',#551,#583,#637,.T.);
#639=ORIENTED_EDGE('',*,*,#638,.F.);
#640=ORIENTED_EDGE('',*,*,#556,.T.);
#641=ORIENTED_EDGE('',*,*,#616,.T.);
#642=ORIENTED_EDGE('',*,*,#596,.T.);
#643=EDGE_LOOP('',(#639,#640,#641,#642));
#644=FACE_OUTER_BOUND('',#643,.T.);
#645=ADVANCED_FACE('',(#644),#633,.F.);
#646=CARTESIAN_POINT('',(-3.560000000000001,1.309999999999999,0.5));
#647=CARTESIAN_POINT('',(-3.560000000000001,1.309999999999999,-3.2));
#648=CARTESIAN_POINT('',(-4.060000000000001,1.309999999999999,0.5));
#649=CARTESIAN_POINT('',(-4.060000000000001,1.309999999999999,-3.2));
#650=B_SPLINE_SURFACE_WITH_KNOTS('',1,1,((#646,#648),(#647,#649)),.UNSPECIFIED.,.F.,.F.,.U.,(2,2),(2,2),(0.0,3.7),(0.0,0.5),.UNSPECIFIED.);
#651=CARTESIAN_POINT('',(-3.560000000000001,1.309999999999999,0.5));
#652=DIRECTION('',(0.0,0.0,-1.0));
#653=VECTOR('',#652,3.7);
#654=LINE('',#651,#653);
#655=EDGE_CURVE('',#535,#573,#654,.T.);
#656=ORIENTED_EDGE('',*,*,#655,.F.);
#657=ORIENTED_EDGE('',*,*,#562,.T.);
#658=ORIENTED_EDGE('',*,*,#638,.T.);
#659=ORIENTED_EDGE('',*,*,#588,.T.);
#660=EDGE_LOOP('',(#656,#657,#658,#659));
#661=FACE_OUTER_BOUND('',#660,.T.);
#662=ADVANCED_FACE('',(#661),#650,.F.);
#663=CARTESIAN_POINT('',(-3.560000000000001,1.309999999999999,-3.2));
#664=CARTESIAN_POINT('',(-3.560000000000001,1.309999999999999,0.5));
#665=CARTESIAN_POINT('',(-3.560000000000001,1.559999999999999,-3.2));
#666=CARTESIAN_POINT('',(-3.560000000000001,1.559999999999999,0.5));
#667=B_SPLINE_SURFACE_WITH_KNOTS('',1,1,((#663,#665),(#664,#666)),.UNSPECIFIED.,.F.,.F.,.U.,(2,2),(2,2),(0.0,3.7),(0.0,0.25),.UNSPECIFIED.);
#668=ORIENTED_EDGE('',*,*,#623,.F.);
#669=ORIENTED_EDGE('',*,*,#540,.T.);
#670=ORIENTED_EDGE('',*,*,#655,.T.);
#671=ORIENTED_EDGE('',*,*,#580,.T.);
#672=EDGE_LOOP('',(#668,#669,#670,#671));
#673=FACE_OUTER_BOUND('',#672,.T.);
#674=ADVANCED_FACE('',(#673),#667,.F.);
#675=CLOSED_SHELL('',(#566,#606,#628,#645,#662,#674));
#676=MANIFOLD_SOLID_BREP('1588',#675);
#677=STYLED_ITEM('NONE',(#221),#676);
#678=CARTESIAN_POINT('',(-6.6,1.309999999999999,0.5));
#679=CARTESIAN_POINT('',(-6.1,1.309999999999999,0.5));
#680=CARTESIAN_POINT('',(-6.6,1.559999999999999,0.5));
#681=CARTESIAN_POINT('',(-6.1,1.559999999999999,0.5));
#682=B_SPLINE_SURFACE_WITH_KNOTS('',1,1,((#678,#680),(#679,#681)),.UNSPECIFIED.,.F.,.F.,.U.,(2,2),(2,2),(0.0,0.5),(0.0,0.25),.UNSPECIFIED.);
#683=CARTESIAN_POINT('',(-6.1,1.559999999999999,0.5));
#684=VERTEX_POINT('',#683);
#685=CARTESIAN_POINT('',(-6.1,1.309999999999999,0.5));
#686=VERTEX_POINT('',#685);
#687=CARTESIAN_POINT('',(-6.1,1.559999999999999,0.5));
#688=DIRECTION('',(0.0,-1.0,0.0));
#689=VECTOR('',#688,0.25);
#690=LINE('',#687,#689);
#691=EDGE_CURVE('',#684,#686,#690,.T.);
#692=ORIENTED_EDGE('',*,*,#691,.F.);
#693=CARTESIAN_POINT('',(-6.6,1.559999999999999,0.5));
#694=VERTEX_POINT('',#693);
#695=CARTESIAN_POINT('',(-6.6,1.559999999999999,0.5));
#696=DIRECTION('',(1.0,0.0,0.0));
#697=VECTOR('',#696,0.5);
#698=LINE('',#695,#697);
#699=EDGE_CURVE('',#694,#684,#698,.T.);
#700=ORIENTED_EDGE('',*,*,#699,.F.);
#701=CARTESIAN_POINT('',(-6.6,1.309999999999999,0.5));
#702=VERTEX_POINT('',#701);
#703=CARTESIAN_POINT('',(-6.6,1.309999999999999,0.5));
#704=DIRECTION('',(0.0,1.0,0.0));
#705=VECTOR('',#704,0.25);
#706=LINE('',#703,#705);
#707=EDGE_CURVE('',#702,#694,#706,.T.);
#708=ORIENTED_EDGE('',*,*,#707,.F.);
#709=CARTESIAN_POINT('',(-6.1,1.309999999999999,0.5));
#710=DIRECTION('',(-1.0,0.0,0.0));
#711=VECTOR('',#710,0.5);
#712=LINE('',#709,#711);
#713=EDGE_CURVE('',#686,#702,#712,.T.);
#714=ORIENTED_EDGE('',*,*,#713,.F.);
#715=EDGE_LOOP('',(#692,#700,#708,#714));
#716=FACE_OUTER_BOUND('',#715,.T.);
#717=ADVANCED_FACE('',(#716),#682,.T.);
#718=CARTESIAN_POINT('',(-6.6,1.309999999999999,-3.2));
#719=CARTESIAN_POINT('',(-6.1,1.309999999999999,-3.2));
#720=CARTESIAN_POINT('',(-6.6,1.559999999999999,-3.2));
#721=CARTESIAN_POINT('',(-6.1,1.559999999999999,-3.2));
#722=B_SPLINE_SURFACE_WITH_KNOTS('',1,1,((#718,#720),(#719,#721)),.UNSPECIFIED.,.F.,.F.,.U.,(2,2),(2,2),(0.0,0.5),(0.0,0.25),.UNSPECIFIED.);
#723=CARTESIAN_POINT('',(-6.1,1.309999999999999,-3.2));
#724=VERTEX_POINT('',#723);
#725=CARTESIAN_POINT('',(-6.1,1.559999999999999,-3.2));
#726=VERTEX_POINT('',#725);
#727=CARTESIAN_POINT('',(-6.1,1.309999999999999,-3.2));
#728=DIRECTION('',(0.0,1.0,0.0));
#729=VECTOR('',#728,0.25);
#730=LINE('',#727,#729);
#731=EDGE_CURVE('',#724,#726,#730,.T.);
#732=ORIENTED_EDGE('',*,*,#731,.F.);
#733=CARTESIAN_POINT('',(-6.6,1.309999999999999,-3.2));
#734=VERTEX_POINT('',#733);
#735=CARTESIAN_POINT('',(-6.6,1.309999999999999,-3.2));
#736=DIRECTION('',(1.0,0.0,0.0));
#737=VECTOR('',#736,0.5);
#738=LINE('',#735,#737);
#739=EDGE_CURVE('',#734,#724,#738,.T.);
#740=ORIENTED_EDGE('',*,*,#739,.F.);
#741=CARTESIAN_POINT('',(-6.6,1.559999999999999,-3.2));
#742=VERTEX_POINT('',#741);
#743=CARTESIAN_POINT('',(-6.6,1.559999999999999,-3.2));
#744=DIRECTION('',(0.0,-1.0,0.0));
#745=VECTOR('',#744,0.25);
#746=LINE('',#743,#745);
#747=EDGE_CURVE('',#742,#734,#746,.T.);
#748=ORIENTED_EDGE('',*,*,#747,.F.);
#749=CARTESIAN_POINT('',(-6.1,1.559999999999999,-3.2));
#750=DIRECTION('',(-1.0,0.0,0.0));
#751=VECTOR('',#750,0.5);
#752=LINE('',#749,#751);
#753=EDGE_CURVE('',#726,#742,#752,.T.);
#754=ORIENTED_EDGE('',*,*,#753,.F.);
#755=EDGE_LOOP('',(#732,#740,#748,#754));
#756=FACE_OUTER_BOUND('',#755,.T.);
#757=ADVANCED_FACE('',(#756),#722,.F.);
#758=CARTESIAN_POINT('',(-6.1,1.559999999999999,-3.2));
#759=CARTESIAN_POINT('',(-6.1,1.559999999999999,0.5));
#760=CARTESIAN_POINT('',(-6.6,1.559999999999999,-3.2));
#761=CARTESIAN_POINT('',(-6.6,1.559999999999999,0.5));
#762=B_SPLINE_SURFACE_WITH_KNOTS('',1,1,((#758,#760),(#759,#761)),.UNSPECIFIED.,.F.,.F.,.U.,(2,2),(2,2),(0.0,3.7),(0.0,0.5),.UNSPECIFIED.);
#763=CARTESIAN_POINT('',(-6.6,1.559999999999999,0.5));
#764=DIRECTION('',(0.0,0.0,-1.0));
#765=VECTOR('',#764,3.7);
#766=LINE('',#763,#765);
#767=EDGE_CURVE('',#694,#742,#766,.T.);
#768=ORIENTED_EDGE('',*,*,#767,.F.);
#769=ORIENTED_EDGE('',*,*,#699,.T.);
#770=CARTESIAN_POINT('',(-6.1,1.559999999999999,0.5));
#771=DIRECTION('',(0.0,0.0,-1.0));
#772=VECTOR('',#771,3.7);
#773=LINE('',#770,#772);
#774=EDGE_CURVE('',#684,#726,#773,.T.);
#775=ORIENTED_EDGE('',*,*,#774,.T.);
#776=ORIENTED_EDGE('',*,*,#753,.T.);
#777=EDGE_LOOP('',(#768,#769,#775,#776));
#778=FACE_OUTER_BOUND('',#777,.T.);
#779=ADVANCED_FACE('',(#778),#762,.F.);
#780=CARTESIAN_POINT('',(-6.6,1.309999999999999,0.5));
#781=CARTESIAN_POINT('',(-6.6,1.309999999999999,-3.2));
#782=CARTESIAN_POINT('',(-6.6,1.559999999999999,0.5));
#783=CARTESIAN_POINT('',(-6.6,1.559999999999999,-3.2));
#784=B_SPLINE_SURFACE_WITH_KNOTS('',1,1,((#780,#782),(#781,#783)),.UNSPECIFIED.,.F.,.F.,.U.,(2,2),(2,2),(0.0,3.7),(0.0,0.25),.UNSPECIFIED.);
#785=CARTESIAN_POINT('',(-6.6,1.309999999999999,0.5));
#786=DIRECTION('',(0.0,0.0,-1.0));
#787=VECTOR('',#786,3.7);
#788=LINE('',#785,#787);
#789=EDGE_CURVE('',#702,#734,#788,.T.);
#790=ORIENTED_EDGE('',*,*,#789,.F.);
#791=ORIENTED_EDGE('',*,*,#707,.T.);
#792=ORIENTED_EDGE('',*,*,#767,.T.);
#793=ORIENTED_EDGE('',*,*,#747,.T.);
#794=EDGE_LOOP('',(#790,#791,#792,#793));
#795=FACE_OUTER_BOUND('',#794,.T.);
#796=ADVANCED_FACE('',(#795),#784,.F.);
#797=CARTESIAN_POINT('',(-6.1,1.309999999999999,0.5));
#798=CARTESIAN_POINT('',(-6.1,1.309999999999999,-3.2));
#799=CARTESIAN_POINT('',(-6.6,1.309999999999999,0.5));
#800=CARTESIAN_POINT('',(-6.6,1.309999999999999,-3.2));
#801=B_SPLINE_SURFACE_WITH_KNOTS('',1,1,((#797,#799),(#798,#800)),.UNSPECIFIED.,.F.,.F.,.U.,(2,2),(2,2),(0.0,3.7),(0.0,0.5),.UNSPECIFIED.);
#802=CARTESIAN_POINT('',(-6.1,1.309999999999999,0.5));
#803=DIRECTION('',(0.0,0.0,-1.0));
#804=VECTOR('',#803,3.7);
#805=LINE('',#802,#804);
#806=EDGE_CURVE('',#686,#724,#805,.T.);
#807=ORIENTED_EDGE('',*,*,#806,.F.);
#808=ORIENTED_EDGE('',*,*,#713,.T.);
#809=ORIENTED_EDGE('',*,*,#789,.T.);
#810=ORIENTED_EDGE('',*,*,#739,.T.);
#811=EDGE_LOOP('',(#807,#808,#809,#810));
#812=FACE_OUTER_BOUND('',#811,.T.);
#813=ADVANCED_FACE('',(#812),#801,.F.);
#814=CARTESIAN_POINT('',(-6.1,1.309999999999999,-3.2));
#815=CARTESIAN_POINT('',(-6.1,1.309999999999999,0.5));
#816=CARTESIAN_POINT('',(-6.1,1.559999999999999,-3.2));
#817=CARTESIAN_POINT('',(-6.1,1.559999999999999,0.5));
#818=B_SPLINE_SURFACE_WITH_KNOTS('',1,1,((#814,#816),(#815,#817)),.UNSPECIFIED.,.F.,.F.,.U.,(2,2),(2,2),(0.0,3.7),(0.0,0.25),.UNSPECIFIED.);
#819=ORIENTED_EDGE('',*,*,#774,.F.);
#820=ORIENTED_EDGE('',*,*,#691,.T.);
#821=ORIENTED_EDGE('',*,*,#806,.T.);
#822=ORIENTED_EDGE('',*,*,#731,.T.);
#823=EDGE_LOOP('',(#819,#820,#821,#822));
#824=FACE_OUTER_BOUND('',#823,.T.);
#825=ADVANCED_FACE('',(#824),#818,.F.);
#826=CLOSED_SHELL('',(#717,#757,#779,#796,#813,#825));
#827=MANIFOLD_SOLID_BREP('1581',#826);
#828=STYLED_ITEM('NONE',(#221),#827);
#829=CARTESIAN_POINT('',(-6.35,-4.010000000000002,1.5));
#830=DIRECTION('',(2.449294E-016,-1.0,0.0));
#831=DIRECTION('',(1.0,0.0,0.0));
#832=AXIS2_PLACEMENT_3D('',#829,#830,#831);
#833=CYLINDRICAL_SURFACE('',#832,0.5);
#834=CARTESIAN_POINT('',(-5.85,-4.060000000000001,1.5));
#835=VERTEX_POINT('',#834);
#836=CARTESIAN_POINT('',(-5.85,-3.960000000000001,1.5));
#837=VERTEX_POINT('',#836);
#838=CARTESIAN_POINT('',(-5.85,-4.060000000000001,1.5));
#839=DIRECTION('',(0.0,1.0,0.0));
#840=VECTOR('',#839,0.1);
#841=LINE('',#838,#840);
#842=EDGE_CURVE('',#835,#837,#841,.T.);
#843=ORIENTED_EDGE('',*,*,#842,.F.);
#844=CARTESIAN_POINT('',(-6.85,-4.060000000000001,1.5));
#845=VERTEX_POINT('',#844);
#846=CARTESIAN_POINT('',(-6.35,-4.060000000000001,1.5));
#847=DIRECTION('',(0.0,-1.0,0.0));
#848=DIRECTION('',(1.0,0.0,0.0));
#849=AXIS2_PLACEMENT_3D('',#846,#847,#848);
#850=CIRCLE('',#849,0.5);
#851=EDGE_CURVE('',#845,#835,#850,.T.);
#852=ORIENTED_EDGE('',*,*,#851,.F.);
#853=CARTESIAN_POINT('',(-6.85,-3.960000000000001,1.5));
#854=VERTEX_POINT('',#853);
#855=CARTESIAN_POINT('',(-6.85,-4.060000000000001,1.5));
#856=DIRECTION('',(0.0,1.0,0.0));
#857=VECTOR('',#856,0.1);
#858=LINE('',#855,#857);
#859=EDGE_CURVE('',#845,#854,#858,.T.);
#860=ORIENTED_EDGE('',*,*,#859,.T.);
#861=CARTESIAN_POINT('',(-6.35,-3.960000000000001,1.5));
#862=DIRECTION('',(0.0,1.0,0.0));
#863=DIRECTION('',(1.0,0.0,0.0));
#864=AXIS2_PLACEMENT_3D('',#861,#862,#863);
#865=CIRCLE('',#864,0.5);
#866=EDGE_CURVE('',#837,#854,#865,.T.);
#867=ORIENTED_EDGE('',*,*,#866,.F.);
#868=EDGE_LOOP('',(#843,#852,#860,#867));
#869=FACE_OUTER_BOUND('',#868,.T.);
#870=ADVANCED_FACE('',(#869),#833,.T.);
#871=CARTESIAN_POINT('',(-6.35,-4.010000000000002,1.5));
#872=DIRECTION('',(2.449294E-016,-1.0,0.0));
#873=DIRECTION('',(1.0,0.0,0.0));
#874=AXIS2_PLACEMENT_3D('',#871,#872,#873);
#875=CYLINDRICAL_SURFACE('',#874,0.5);
#876=ORIENTED_EDGE('',*,*,#842,.T.);
#877=CARTESIAN_POINT('',(-6.35,-3.960000000000001,1.5));
#878=DIRECTION('',(0.0,1.0,0.0));
#879=DIRECTION('',(1.0,0.0,0.0));
#880=AXIS2_PLACEMENT_3D('',#877,#878,#879);
#881=CIRCLE('',#880,0.5);
#882=EDGE_CURVE('',#854,#837,#881,.T.);
#883=ORIENTED_EDGE('',*,*,#882,.F.);
#884=ORIENTED_EDGE('',*,*,#859,.F.);
#885=CARTESIAN_POINT('',(-6.35,-4.060000000000001,1.5));
#886=DIRECTION('',(0.0,-1.0,0.0));
#887=DIRECTION('',(1.0,0.0,0.0));
#888=AXIS2_PLACEMENT_3D('',#885,#886,#887);
#889=CIRCLE('',#888,0.5);
#890=EDGE_CURVE('',#835,#845,#889,.T.);
#891=ORIENTED_EDGE('',*,*,#890,.F.);
#892=EDGE_LOOP('',(#876,#883,#884,#891));
#893=FACE_OUTER_BOUND('',#892,.T.);
#894=ADVANCED_FACE('',(#893),#875,.T.);
#895=CARTESIAN_POINT('',(-6.35,-3.960000000000001,1.5));
#896=DIRECTION('',(0.0,1.0,0.0));
#897=DIRECTION('',(-1.0,0.0,0.0));
#898=AXIS2_PLACEMENT_3D('',#895,#896,#897);
#899=PLANE('',#898);
#900=ORIENTED_EDGE('',*,*,#866,.T.);
#901=ORIENTED_EDGE('',*,*,#882,.T.);
#902=EDGE_LOOP('',(#900,#901));
#903=FACE_OUTER_BOUND('',#902,.T.);
#904=ADVANCED_FACE('',(#903),#899,.T.);
#905=CARTESIAN_POINT('',(-6.35,-4.060000000000001,1.5));
#906=DIRECTION('',(0.0,-1.0,0.0));
#907=DIRECTION('',(1.0,0.0,0.0));
#908=AXIS2_PLACEMENT_3D('',#905,#906,#907);
#909=PLANE('',#908);
#910=ORIENTED_EDGE('',*,*,#890,.T.);
#911=ORIENTED_EDGE('',*,*,#851,.T.);
#912=EDGE_LOOP('',(#910,#911));
#913=FACE_OUTER_BOUND('',#912,.T.);
#914=ADVANCED_FACE('',(#913),#909,.T.);
#915=CLOSED_SHELL('',(#870,#894,#904,#914));
#916=MANIFOLD_SOLID_BREP('1578',#915);
#917=DRAUGHTING_PRE_DEFINED_COLOUR('white');
#918=SURFACE_STYLE_USAGE(.BOTH.,#919);
#919=SURFACE_SIDE_STYLE('NONE',(#920));
#920=SURFACE_STYLE_FILL_AREA(#921);
#921=FILL_AREA_STYLE('NONE',(#922));
#922=FILL_AREA_STYLE_COLOUR('NONE',#917);
#923=PRESENTATION_STYLE_ASSIGNMENT((#918));
#924=STYLED_ITEM('NONE',(#923),#916);
#925=CARTESIAN_POINT('',(-6.35,-4.010000000000002,1.5));
#926=DIRECTION('',(2.449294E-016,-1.0,0.0));
#927=DIRECTION('',(1.0,0.0,0.0));
#928=AXIS2_PLACEMENT_3D('',#925,#926,#927);
#929=CYLINDRICAL_SURFACE('',#928,0.5);
#930=CARTESIAN_POINT('',(-5.85,-3.960000000000001,1.5));
#931=VERTEX_POINT('',#930);
#932=CARTESIAN_POINT('',(-5.85,-4.060000000000001,1.5));
#933=VERTEX_POINT('',#932);
#934=CARTESIAN_POINT('',(-5.85,-3.960000000000001,1.5));
#935=DIRECTION('',(0.0,-1.0,0.0));
#936=VECTOR('',#935,0.1);
#937=LINE('',#934,#936);
#938=EDGE_CURVE('',#931,#933,#937,.T.);
#939=ORIENTED_EDGE('',*,*,#938,.F.);
#940=CARTESIAN_POINT('',(-6.85,-3.960000000000001,1.5));
#941=VERTEX_POINT('',#940);
#942=CARTESIAN_POINT('',(-6.35,-3.960000000000001,1.5));
#943=DIRECTION('',(0.0,1.0,0.0));
#944=DIRECTION('',(1.0,0.0,0.0));
#945=AXIS2_PLACEMENT_3D('',#942,#943,#944);
#946=CIRCLE('',#945,0.5);
#947=EDGE_CURVE('',#931,#941,#946,.T.);
#948=ORIENTED_EDGE('',*,*,#947,.T.);
#949=CARTESIAN_POINT('',(-6.85,-4.060000000000001,1.5));
#950=VERTEX_POINT('',#949);
#951=CARTESIAN_POINT('',(-6.85,-3.960000000000001,1.5));
#952=DIRECTION('',(0.0,-1.0,0.0));
#953=VECTOR('',#952,0.1);
#954=LINE('',#951,#953);
#955=EDGE_CURVE('',#941,#950,#954,.T.);
#956=ORIENTED_EDGE('',*,*,#955,.T.);
#957=CARTESIAN_POINT('',(-6.35,-4.060000000000001,1.5));
#958=DIRECTION('',(0.0,1.0,0.0));
#959=DIRECTION('',(1.0,0.0,0.0));
#960=AXIS2_PLACEMENT_3D('',#957,#958,#959);
#961=CIRCLE('',#960,0.5);
#962=EDGE_CURVE('',#933,#950,#961,.T.);
#963=ORIENTED_EDGE('',*,*,#962,.F.);
#964=EDGE_LOOP('',(#939,#948,#956,#963));
#965=FACE_OUTER_BOUND('',#964,.T.);
#966=ADVANCED_FACE('',(#965),#929,.F.);
#967=CARTESIAN_POINT('',(-6.35,-4.010000000000002,1.5));
#968=DIRECTION('',(2.449294E-016,-1.0,0.0));
#969=DIRECTION('',(1.0,0.0,0.0));
#970=AXIS2_PLACEMENT_3D('',#967,#968,#969);
#971=CYLINDRICAL_SURFACE('',#970,0.5);
#972=ORIENTED_EDGE('',*,*,#938,.T.);
#973=CARTESIAN_POINT('',(-6.35,-4.060000000000001,1.5));
#974=DIRECTION('',(0.0,1.0,0.0));
#975=DIRECTION('',(1.0,0.0,0.0));
#976=AXIS2_PLACEMENT_3D('',#973,#974,#975);
#977=CIRCLE('',#976,0.5);
#978=EDGE_CURVE('',#950,#933,#977,.T.);
#979=ORIENTED_EDGE('',*,*,#978,.F.);
#980=ORIENTED_EDGE('',*,*,#955,.F.);
#981=CARTESIAN_POINT('',(-6.35,-3.960000000000001,1.5));
#982=DIRECTION('',(0.0,1.0,0.0));
#983=DIRECTION('',(1.0,0.0,0.0));
#984=AXIS2_PLACEMENT_3D('',#981,#982,#983);
#985=CIRCLE('',#984,0.5);
#986=EDGE_CURVE('',#941,#931,#985,.T.);
#987=ORIENTED_EDGE('',*,*,#986,.T.);
#988=EDGE_LOOP('',(#972,#979,#980,#987));
#989=FACE_OUTER_BOUND('',#988,.T.);
#990=ADVANCED_FACE('',(#989),#971,.F.);
#991=CARTESIAN_POINT('',(-6.35,-3.960000000000001,1.5));
#992=DIRECTION('',(0.0,1.0,0.0));
#993=DIRECTION('',(-1.0,0.0,0.0));
#994=AXIS2_PLACEMENT_3D('',#991,#992,#993);
#995=PLANE('',#994);
#996=ORIENTED_EDGE('',*,*,#947,.F.);
#997=ORIENTED_EDGE('',*,*,#986,.F.);
#998=EDGE_LOOP('',(#996,#997));
#999=FACE_OUTER_BOUND('',#998,.T.);
#1000=ADVANCED_FACE('',(#999),#995,.F.);
#1001=CARTESIAN_POINT('',(8.5,0.0,0.0));
#1002=DIRECTION('',(0.0,0.0,1.0));
#1003=DIRECTION('',(1.0,0.0,0.0));
#1004=AXIS2_PLACEMENT_3D('',#1001,#1002,#1003);
#1005=PLANE('',#1004);
#1006=CARTESIAN_POINT('',(8.75,4.060000000000002,0.0));
#1007=VERTEX_POINT('',#1006);
#1008=CARTESIAN_POINT('',(8.75,-4.060000000000001,0.0));
#1009=VERTEX_POINT('',#1008);
#1010=CARTESIAN_POINT('',(8.75,4.060000000000002,0.0));
#1011=DIRECTION('',(0.0,-1.0,0.0));
#1012=VECTOR('',#1011,8.120000000000003);
#1013=LINE('',#1010,#1012);
#1014=EDGE_CURVE('',#1007,#1009,#1013,.T.);
#1015=ORIENTED_EDGE('',*,*,#1014,.T.);
#1016=CARTESIAN_POINT('',(8.25,-4.060000000000001,0.0));
#1017=VERTEX_POINT('',#1016);
#1018=CARTESIAN_POINT('',(8.75,-4.060000000000001,0.0));
#1019=DIRECTION('',(-1.0,0.0,0.0));
#1020=VECTOR('',#1019,0.5);
#1021=LINE('',#1018,#1020);
#1022=EDGE_CURVE('',#1009,#1017,#1021,.T.);
#1023=ORIENTED_EDGE('',*,*,#1022,.T.);
#1024=CARTESIAN_POINT('',(8.25,4.060000000000002,0.0));
#1025=VERTEX_POINT('',#1024);
#1026=CARTESIAN_POINT('',(8.25,-4.060000000000001,0.0));
#1027=DIRECTION('',(0.0,1.0,0.0));
#1028=VECTOR('',#1027,8.120000000000003);
#1029=LINE('',#1026,#1028);
#1030=EDGE_CURVE('',#1017,#1025,#1029,.T.);
#1031=ORIENTED_EDGE('',*,*,#1030,.T.);
#1032=CARTESIAN_POINT('',(8.25,4.060000000000002,0.0));
#1033=DIRECTION('',(1.0,0.0,0.0));
#1034=VECTOR('',#1033,0.5);
#1035=LINE('',#1032,#1034);
#1036=EDGE_CURVE('',#1025,#1007,#1035,.T.);
#1037=ORIENTED_EDGE('',*,*,#1036,.T.);
#1038=EDGE_LOOP('',(#1015,#1023,#1031,#1037));
#1039=FACE_OUTER_BOUND('',#1038,.T.);
#1040=ADVANCED_FACE('',(#1039),#1005,.F.);
#1041=CARTESIAN_POINT('',(8.25,0.0,0.25));
#1042=DIRECTION('',(1.0,0.0,0.0));
#1043=DIRECTION('',(0.0,0.0,-1.0));
#1044=AXIS2_PLACEMENT_3D('',#1041,#1042,#1043);
#1045=PLANE('',#1044);
#1046=CARTESIAN_POINT('',(8.25,4.060000000000002,0.5));
#1047=VERTEX_POINT('',#1046);
#1048=CARTESIAN_POINT('',(8.25,4.060000000000002,0.5));
#1049=DIRECTION('',(0.0,0.0,-1.0));
#1050=VECTOR('',#1049,0.5);
#1051=LINE('',#1048,#1050);
#1052=EDGE_CURVE('',#1047,#1025,#1051,.T.);
#1053=ORIENTED_EDGE('',*,*,#1052,.T.);
#1054=ORIENTED_EDGE('',*,*,#1030,.F.);
#1055=CARTESIAN_POINT('',(8.25,-4.060000000000001,0.5));
#1056=VERTEX_POINT('',#1055);
#1057=CARTESIAN_POINT('',(8.25,-4.060000000000001,0.5));
#1058=DIRECTION('',(0.0,0.0,-1.0));
#1059=VECTOR('',#1058,0.5);
#1060=LINE('',#1057,#1059);
#1061=EDGE_CURVE('',#1056,#1017,#1060,.T.);
#1062=ORIENTED_EDGE('',*,*,#1061,.F.);
#1063=CARTESIAN_POINT('',(8.25,4.060000000000002,0.5));
#1064=DIRECTION('',(0.0,-1.0,0.0));
#1065=VECTOR('',#1064,8.120000000000003);
#1066=LINE('',#1063,#1065);
#1067=EDGE_CURVE('',#1047,#1056,#1066,.T.);
#1068=ORIENTED_EDGE('',*,*,#1067,.F.);
#1069=EDGE_LOOP('',(#1053,#1054,#1062,#1068));
#1070=FACE_OUTER_BOUND('',#1069,.T.);
#1071=ADVANCED_FACE('',(#1070),#1045,.F.);
#1072=CARTESIAN_POINT('',(0.0,0.0,0.5));
#1073=DIRECTION('',(0.0,0.0,1.0));
#1074=DIRECTION('',(1.0,0.0,0.0));
#1075=AXIS2_PLACEMENT_3D('',#1072,#1073,#1074);
#1076=PLANE('',#1075);
#1077=ORIENTED_EDGE('',*,*,#1067,.T.);
#1078=CARTESIAN_POINT('',(-8.25,-4.060000000000001,0.5));
#1079=VERTEX_POINT('',#1078);
#1080=CARTESIAN_POINT('',(8.25,-4.060000000000001,0.5));
#1081=DIRECTION('',(-1.0,0.0,0.0));
#1082=VECTOR('',#1081,16.5);
#1083=LINE('',#1080,#1082);
#1084=EDGE_CURVE('',#1056,#1079,#1083,.T.);
#1085=ORIENTED_EDGE('',*,*,#1084,.T.);
#1086=CARTESIAN_POINT('',(-8.25,4.060000000000002,0.5));
#1087=VERTEX_POINT('',#1086);
#1088=CARTESIAN_POINT('',(-8.25,-4.060000000000001,0.5));
#1089=DIRECTION('',(0.0,1.0,0.0));
#1090=VECTOR('',#1089,8.120000000000003);
#1091=LINE('',#1088,#1090);
#1092=EDGE_CURVE('',#1079,#1087,#1091,.T.);
#1093=ORIENTED_EDGE('',*,*,#1092,.T.);
#1094=CARTESIAN_POINT('',(-8.25,4.060000000000002,0.5));
#1095=DIRECTION('',(1.0,0.0,0.0));
#1096=VECTOR('',#1095,16.5);
#1097=LINE('',#1094,#1096);
#1098=EDGE_CURVE('',#1087,#1047,#1097,.T.);
#1099=ORIENTED_EDGE('',*,*,#1098,.T.);
#1100=EDGE_LOOP('',(#1077,#1085,#1093,#1099));
#1101=FACE_OUTER_BOUND('',#1100,.T.);
#1102=ADVANCED_FACE('',(#1101),#1076,.F.);
#1103=CARTESIAN_POINT('',(0.0,0.0,11.5));
#1104=DIRECTION('',(0.0,0.0,1.0));
#1105=DIRECTION('',(1.0,0.0,0.0));
#1106=AXIS2_PLACEMENT_3D('',#1103,#1104,#1105);
#1107=PLANE('',#1106);
#1108=CARTESIAN_POINT('',(8.75,-4.060000000000001,11.5));
#1109=VERTEX_POINT('',#1108);
#1110=CARTESIAN_POINT('',(8.75,4.060000000000002,11.5));
#1111=VERTEX_POINT('',#1110);
#1112=CARTESIAN_POINT('',(8.75,-4.060000000000001,11.5));
#1113=DIRECTION('',(0.0,1.0,0.0));
#1114=VECTOR('',#1113,8.120000000000003);
#1115=LINE('',#1112,#1114);
#1116=EDGE_CURVE('',#1109,#1111,#1115,.T.);
#1117=ORIENTED_EDGE('',*,*,#1116,.T.);
#1118=CARTESIAN_POINT('',(-8.75,4.060000000000002,11.5));
#1119=VERTEX_POINT('',#1118);
#1120=CARTESIAN_POINT('',(8.75,4.060000000000002,11.5));
#1121=DIRECTION('',(-1.0,0.0,0.0));
#1122=VECTOR('',#1121,17.5);
#1123=LINE('',#1120,#1122);
#1124=EDGE_CURVE('',#1111,#1119,#1123,.T.);
#1125=ORIENTED_EDGE('',*,*,#1124,.T.);
#1126=CARTESIAN_POINT('',(-8.75,-4.060000000000001,11.5));
#1127=VERTEX_POINT('',#1126);
#1128=CARTESIAN_POINT('',(-8.75,4.060000000000002,11.5));
#1129=DIRECTION('',(0.0,-1.0,0.0));
#1130=VECTOR('',#1129,8.120000000000003);
#1131=LINE('',#1128,#1130);
#1132=EDGE_CURVE('',#1119,#1127,#1131,.T.);
#1133=ORIENTED_EDGE('',*,*,#1132,.T.);
#1134=CARTESIAN_POINT('',(-8.75,-4.060000000000001,11.5));
#1135=DIRECTION('',(1.0,0.0,0.0));
#1136=VECTOR('',#1135,17.5);
#1137=LINE('',#1134,#1136);
#1138=EDGE_CURVE('',#1127,#1109,#1137,.T.);
#1139=ORIENTED_EDGE('',*,*,#1138,.T.);
#1140=EDGE_LOOP('',(#1117,#1125,#1133,#1139));
#1141=FACE_OUTER_BOUND('',#1140,.T.);
#1142=ADVANCED_FACE('',(#1141),#1107,.T.);
#1143=CARTESIAN_POINT('',(8.75,0.0,6.0));
#1144=DIRECTION('',(-1.0,0.0,0.0));
#1145=DIRECTION('',(0.0,0.0,1.0));
#1146=AXIS2_PLACEMENT_3D('',#1143,#1144,#1145);
#1147=PLANE('',#1146);
#1148=CARTESIAN_POINT('',(8.75,-4.060000000000001,11.5));
#1149=DIRECTION('',(0.0,0.0,-1.0));
#1150=VECTOR('',#1149,11.5);
#1151=LINE('',#1148,#1150);
#1152=EDGE_CURVE('',#1109,#1009,#1151,.T.);
#1153=ORIENTED_EDGE('',*,*,#1152,.T.);
#1154=ORIENTED_EDGE('',*,*,#1014,.F.);
#1155=CARTESIAN_POINT('',(8.75,4.060000000000002,11.5));
#1156=DIRECTION('',(0.0,0.0,-1.0));
#1157=VECTOR('',#1156,11.5);
#1158=LINE('',#1155,#1157);
#1159=EDGE_CURVE('',#1111,#1007,#1158,.T.);
#1160=ORIENTED_EDGE('',*,*,#1159,.F.);
#1161=ORIENTED_EDGE('',*,*,#1116,.F.);
#1162=EDGE_LOOP('',(#1153,#1154,#1160,#1161));
#1163=FACE_OUTER_BOUND('',#1162,.T.);
#1164=ADVANCED_FACE('',(#1163),#1147,.F.);
#1165=CARTESIAN_POINT('',(-8.5,0.0,0.0));
#1166=DIRECTION('',(0.0,0.0,1.0));
#1167=DIRECTION('',(1.0,0.0,0.0));
#1168=AXIS2_PLACEMENT_3D('',#1165,#1166,#1167);
#1169=PLANE('',#1168);
#1170=CARTESIAN_POINT('',(-8.25,4.060000000000002,0.0));
#1171=VERTEX_POINT('',#1170);
#1172=CARTESIAN_POINT('',(-8.25,-4.060000000000001,0.0));
#1173=VERTEX_POINT('',#1172);
#1174=CARTESIAN_POINT('',(-8.25,4.060000000000002,0.0));
#1175=DIRECTION('',(0.0,-1.0,0.0));
#1176=VECTOR('',#1175,8.120000000000003);
#1177=LINE('',#1174,#1176);
#1178=EDGE_CURVE('',#1171,#1173,#1177,.T.);
#1179=ORIENTED_EDGE('',*,*,#1178,.T.);
#1180=CARTESIAN_POINT('',(-8.75,-4.060000000000001,0.0));
#1181=VERTEX_POINT('',#1180);
#1182=CARTESIAN_POINT('',(-8.25,-4.060000000000001,0.0));
#1183=DIRECTION('',(-1.0,0.0,0.0));
#1184=VECTOR('',#1183,0.5);
#1185=LINE('',#1182,#1184);
#1186=EDGE_CURVE('',#1173,#1181,#1185,.T.);
#1187=ORIENTED_EDGE('',*,*,#1186,.T.);
#1188=CARTESIAN_POINT('',(-8.75,4.060000000000002,0.0));
#1189=VERTEX_POINT('',#1188);
#1190=CARTESIAN_POINT('',(-8.75,-4.060000000000001,0.0));
#1191=DIRECTION('',(0.0,1.0,0.0));
#1192=VECTOR('',#1191,8.120000000000003);
#1193=LINE('',#1190,#1192);
#1194=EDGE_CURVE('',#1181,#1189,#1193,.T.);
#1195=ORIENTED_EDGE('',*,*,#1194,.T.);
#1196=CARTESIAN_POINT('',(-8.75,4.060000000000002,0.0));
#1197=DIRECTION('',(1.0,0.0,0.0));
#1198=VECTOR('',#1197,0.5);
#1199=LINE('',#1196,#1198);
#1200=EDGE_CURVE('',#1189,#1171,#1199,.T.);
#1201=ORIENTED_EDGE('',*,*,#1200,.T.);
#1202=EDGE_LOOP('',(#1179,#1187,#1195,#1201));
#1203=FACE_OUTER_BOUND('',#1202,.T.);
#1204=ADVANCED_FACE('',(#1203),#1169,.F.);
#1205=CARTESIAN_POINT('',(-8.5,-4.060000000000001,0.25));
#1206=DIRECTION('',(0.0,1.0,0.0));
#1207=DIRECTION('',(0.0,0.0,1.0));
#1208=AXIS2_PLACEMENT_3D('',#1205,#1206,#1207);
#1209=PLANE('',#1208);
#1210=CARTESIAN_POINT('',(-8.75,-4.060000000000001,11.5));
#1211=DIRECTION('',(0.0,0.0,-1.0));
#1212=VECTOR('',#1211,11.5);
#1213=LINE('',#1210,#1212);
#1214=EDGE_CURVE('',#1127,#1181,#1213,.T.);
#1215=ORIENTED_EDGE('',*,*,#1214,.T.);
#1216=ORIENTED_EDGE('',*,*,#1186,.F.);
#1217=CARTESIAN_POINT('',(-8.25,-4.060000000000001,0.5));
#1218=DIRECTION('',(0.0,0.0,-1.0));
#1219=VECTOR('',#1218,0.5);
#1220=LINE('',#1217,#1219);
#1221=EDGE_CURVE('',#1079,#1173,#1220,.T.);
#1222=ORIENTED_EDGE('',*,*,#1221,.F.);
#1223=ORIENTED_EDGE('',*,*,#1084,.F.);
#1224=ORIENTED_EDGE('',*,*,#1061,.T.);
#1225=ORIENTED_EDGE('',*,*,#1022,.F.);
#1226=ORIENTED_EDGE('',*,*,#1152,.F.);
#1227=ORIENTED_EDGE('',*,*,#1138,.F.);
#1228=EDGE_LOOP('',(#1215,#1216,#1222,#1223,#1224,#1225,#1226,#1227));
#1229=FACE_OUTER_BOUND('',#1228,.T.);
#1230=ORIENTED_EDGE('',*,*,#962,.T.);
#1231=ORIENTED_EDGE('',*,*,#978,.T.);
#1232=EDGE_LOOP('',(#1230,#1231));
#1233=FACE_BOUND('',#1232,.T.);
#1234=ADVANCED_FACE('',(#1229,#1233),#1209,.F.);
#1235=CARTESIAN_POINT('',(-8.75,0.0,0.25));
#1236=DIRECTION('',(1.0,0.0,0.0));
#1237=DIRECTION('',(0.0,0.0,-1.0));
#1238=AXIS2_PLACEMENT_3D('',#1235,#1236,#1237);
#1239=PLANE('',#1238);
#1240=CARTESIAN_POINT('',(-8.75,4.060000000000002,11.5));
#1241=DIRECTION('',(0.0,0.0,-1.0));
#1242=VECTOR('',#1241,11.5);
#1243=LINE('',#1240,#1242);
#1244=EDGE_CURVE('',#1119,#1189,#1243,.T.);
#1245=ORIENTED_EDGE('',*,*,#1244,.T.);
#1246=ORIENTED_EDGE('',*,*,#1194,.F.);
#1247=ORIENTED_EDGE('',*,*,#1214,.F.);
#1248=ORIENTED_EDGE('',*,*,#1132,.F.);
#1249=EDGE_LOOP('',(#1245,#1246,#1247,#1248));
#1250=FACE_OUTER_BOUND('',#1249,.T.);
#1251=ADVANCED_FACE('',(#1250),#1239,.F.);
#1252=CARTESIAN_POINT('',(-8.5,4.060000000000002,0.25));
#1253=DIRECTION('',(0.0,-1.0,0.0));
#1254=DIRECTION('',(0.0,0.0,-1.0));
#1255=AXIS2_PLACEMENT_3D('',#1252,#1253,#1254);
#1256=PLANE('',#1255);
#1257=CARTESIAN_POINT('',(-8.25,4.060000000000002,0.5));
#1258=DIRECTION('',(0.0,0.0,-1.0));
#1259=VECTOR('',#1258,0.5);
#1260=LINE('',#1257,#1259);
#1261=EDGE_CURVE('',#1087,#1171,#1260,.T.);
#1262=ORIENTED_EDGE('',*,*,#1261,.T.);
#1263=ORIENTED_EDGE('',*,*,#1200,.F.);
#1264=ORIENTED_EDGE('',*,*,#1244,.F.);
#1265=ORIENTED_EDGE('',*,*,#1124,.F.);
#1266=ORIENTED_EDGE('',*,*,#1159,.T.);
#1267=ORIENTED_EDGE('',*,*,#1036,.F.);
#1268=ORIENTED_EDGE('',*,*,#1052,.F.);
#1269=ORIENTED_EDGE('',*,*,#1098,.F.);
#1270=EDGE_LOOP('',(#1262,#1263,#1264,#1265,#1266,#1267,#1268,#1269));
#1271=FACE_OUTER_BOUND('',#1270,.T.);
#1272=ADVANCED_FACE('',(#1271),#1256,.F.);
#1273=CARTESIAN_POINT('',(-8.25,0.0,0.25));
#1274=DIRECTION('',(-1.0,0.0,0.0));
#1275=DIRECTION('',(0.0,0.0,1.0));
#1276=AXIS2_PLACEMENT_3D('',#1273,#1274,#1275);
#1277=PLANE('',#1276);
#1278=ORIENTED_EDGE('',*,*,#1221,.T.);
#1279=ORIENTED_EDGE('',*,*,#1178,.F.);
#1280=ORIENTED_EDGE('',*,*,#1261,.F.);
#1281=ORIENTED_EDGE('',*,*,#1092,.F.);
#1282=EDGE_LOOP('',(#1278,#1279,#1280,#1281));
#1283=FACE_OUTER_BOUND('',#1282,.T.);
#1284=ADVANCED_FACE('',(#1283),#1277,.F.);
#1285=CLOSED_SHELL('',(#966,#990,#1000,#1040,#1071,#1102,#1142,#1164,#1204,#1234,#1251,#1272,#1284));
#1286=MANIFOLD_SOLID_BREP('156C',#1285);
#1287=COLOUR_RGB('250',0.33,0.33,0.33);
#1288=SURFACE_STYLE_USAGE(.BOTH.,#1289);
#1289=SURFACE_SIDE_STYLE('NONE',(#1290));
#1290=SURFACE_STYLE_FILL_AREA(#1291);
#1291=FILL_AREA_STYLE('NONE',(#1292));
#1292=FILL_AREA_STYLE_COLOUR('NONE',#1287);
#1293=PRESENTATION_STYLE_ASSIGNMENT((#1288));
#1294=STYLED_ITEM('NONE',(#1293),#1286);
#1295=ADVANCED_BREP_SHAPE_REPRESENTATION('ABSR1',(#214,#374,#525,#676,#827,#916,#1286),#28);
#1296=SHAPE_REPRESENTATION_RELATIONSHIP('SRRPL1','',#1295,#62);
ENDSEC;
END-ISO-10303-21;
