ISO-10303-21;
HEADER;
/* Generated by software containing ST-Developer
 * from STEP Tools, Inc. (www.steptools.com) 
 */

FILE_DESCRIPTION(
/* description */ (''),
/* implementation_level */ '2;1');

FILE_NAME(
/* name */ 
'G:\\Applications\\Altium\\CernLib\\StepLib\\DCDC_TRACO_THM10.stp',
/* time_stamp */ '2017-05-17T13:37:07+02:00',
/* author */ ('jchouvet'),
/* organization */ (''),
/* preprocessor_version */ 'ST-DEVELOPER v16.1',
/* originating_system */ 'AutoCAD Mechanical',
/* authorisation */ '');

FILE_SCHEMA (('AUTOMOTIVE_DESIGN { 1 0 10303 214 3 1 1 }'));
ENDSEC;

DATA;
#10=MECHANICAL_DESIGN_GEOMETRIC_PRESENTATION_REPRESENTATION('',(#73,#74,
#75,#76,#77,#79,#78,#80,#81,#82),#892);
#11=DIMENSIONAL_EXPONENTS(0.,0.,0.,0.,0.,0.,0.);
#12=(
CONVERSION_BASED_UNIT('degree',#13)
NAMED_UNIT(#11)
PLANE_ANGLE_UNIT()
);
#13=PLANE_ANGLE_MEASURE_WITH_UNIT(PLANE_ANGLE_MEASURE(0.01745329252),#895);
#14=PRESENTATION_LAYER_ASSIGNMENT('1','3D',(#83,#84,#85,#86,#87,#88,#89,
#90,#91,#92));
#15=LINE('',#811,#43);
#16=LINE('',#814,#44);
#17=LINE('',#817,#45);
#18=LINE('',#819,#46);
#19=LINE('',#820,#47);
#20=LINE('',#826,#48);
#21=LINE('',#829,#49);
#22=LINE('',#831,#50);
#23=LINE('',#832,#51);
#24=LINE('',#838,#52);
#25=LINE('',#841,#53);
#26=LINE('',#843,#54);
#27=LINE('',#844,#55);
#28=LINE('',#850,#56);
#29=LINE('',#852,#57);
#30=LINE('',#853,#58);
#31=LINE('',#859,#59);
#32=LINE('',#861,#60);
#33=LINE('',#863,#61);
#34=LINE('',#864,#62);
#35=LINE('',#867,#63);
#36=LINE('',#869,#64);
#37=LINE('',#870,#65);
#38=LINE('',#873,#66);
#39=LINE('',#875,#67);
#40=LINE('',#876,#68);
#41=LINE('',#878,#69);
#42=LINE('',#879,#70);
#43=VECTOR('',#669,0.0500000000000007);
#44=VECTOR('',#672,0.0500000000000007);
#45=VECTOR('',#675,16.8);
#46=VECTOR('',#676,16.8);
#47=VECTOR('',#677,0.0500000000000007);
#48=VECTOR('',#684,0.0500000000000007);
#49=VECTOR('',#687,26.3);
#50=VECTOR('',#688,26.3);
#51=VECTOR('',#689,0.0500000000000007);
#52=VECTOR('',#696,0.0500000000000007);
#53=VECTOR('',#699,16.8);
#54=VECTOR('',#700,16.8);
#55=VECTOR('',#701,0.0500000000000007);
#56=VECTOR('',#708,0.0500000000000007);
#57=VECTOR('',#711,26.3);
#58=VECTOR('',#712,26.3);
#59=VECTOR('',#719,20.8);
#60=VECTOR('',#720,10.65);
#61=VECTOR('',#721,20.8);
#62=VECTOR('',#722,10.65);
#63=VECTOR('',#725,32.3);
#64=VECTOR('',#726,32.3);
#65=VECTOR('',#727,10.65);
#66=VECTOR('',#730,20.8);
#67=VECTOR('',#731,20.8);
#68=VECTOR('',#732,10.65);
#69=VECTOR('',#735,32.3);
#70=VECTOR('',#736,32.3);
#71=SHAPE_REPRESENTATION_RELATIONSHIP('SRR','None',#898,#72);
#72=ADVANCED_BREP_SHAPE_REPRESENTATION('',(#83,#84,#85,#86,#87,#88,#89,
#90,#91,#92),#891);
#73=STYLED_ITEM('',(#908),#83);
#74=STYLED_ITEM('',(#908),#84);
#75=STYLED_ITEM('',(#908),#85);
#76=STYLED_ITEM('',(#908),#86);
#77=STYLED_ITEM('',(#908),#87);
#78=STYLED_ITEM('',(#908),#88);
#79=STYLED_ITEM('',(#908),#89);
#80=STYLED_ITEM('',(#909),#90);
#81=STYLED_ITEM('',(#910),#91);
#82=STYLED_ITEM('',(#907),#92);
#83=MANIFOLD_SOLID_BREP('2FF8',#509);
#84=MANIFOLD_SOLID_BREP('307D',#510);
#85=MANIFOLD_SOLID_BREP('307E',#511);
#86=MANIFOLD_SOLID_BREP('307F',#512);
#87=MANIFOLD_SOLID_BREP('3080',#513);
#88=MANIFOLD_SOLID_BREP('3081',#514);
#89=MANIFOLD_SOLID_BREP('3082',#515);
#90=MANIFOLD_SOLID_BREP('3085',#516);
#91=MANIFOLD_SOLID_BREP('3089',#517);
#92=MANIFOLD_SOLID_BREP('308E',#518);
#93=PLANE('',#523);
#94=PLANE('',#524);
#95=PLANE('',#528);
#96=PLANE('',#529);
#97=PLANE('',#533);
#98=PLANE('',#534);
#99=PLANE('',#538);
#100=PLANE('',#539);
#101=PLANE('',#543);
#102=PLANE('',#544);
#103=PLANE('',#548);
#104=PLANE('',#549);
#105=PLANE('',#553);
#106=PLANE('',#554);
#107=PLANE('',#561);
#108=PLANE('',#565);
#109=PLANE('',#569);
#110=PLANE('',#573);
#111=PLANE('',#574);
#112=PLANE('',#575);
#113=PLANE('',#576);
#114=PLANE('',#577);
#115=PLANE('',#578);
#116=PLANE('',#579);
#117=PLANE('',#580);
#118=PLANE('',#581);
#119=PLANE('',#585);
#120=PLANE('',#586);
#121=FACE_BOUND('',#174,.T.);
#122=FACE_BOUND('',#178,.T.);
#123=FACE_BOUND('',#182,.T.);
#124=FACE_BOUND('',#186,.T.);
#125=FACE_BOUND('',#190,.T.);
#126=FACE_BOUND('',#194,.T.);
#127=FACE_BOUND('',#198,.T.);
#128=FACE_BOUND('',#202,.T.);
#129=FACE_BOUND('',#212,.T.);
#130=FACE_BOUND('',#214,.T.);
#131=FACE_BOUND('',#222,.T.);
#132=FACE_OUTER_BOUND('',#173,.T.);
#133=FACE_OUTER_BOUND('',#175,.T.);
#134=FACE_OUTER_BOUND('',#176,.T.);
#135=FACE_OUTER_BOUND('',#177,.T.);
#136=FACE_OUTER_BOUND('',#179,.T.);
#137=FACE_OUTER_BOUND('',#180,.T.);
#138=FACE_OUTER_BOUND('',#181,.T.);
#139=FACE_OUTER_BOUND('',#183,.T.);
#140=FACE_OUTER_BOUND('',#184,.T.);
#141=FACE_OUTER_BOUND('',#185,.T.);
#142=FACE_OUTER_BOUND('',#187,.T.);
#143=FACE_OUTER_BOUND('',#188,.T.);
#144=FACE_OUTER_BOUND('',#189,.T.);
#145=FACE_OUTER_BOUND('',#191,.T.);
#146=FACE_OUTER_BOUND('',#192,.T.);
#147=FACE_OUTER_BOUND('',#193,.T.);
#148=FACE_OUTER_BOUND('',#195,.T.);
#149=FACE_OUTER_BOUND('',#196,.T.);
#150=FACE_OUTER_BOUND('',#197,.T.);
#151=FACE_OUTER_BOUND('',#199,.T.);
#152=FACE_OUTER_BOUND('',#200,.T.);
#153=FACE_OUTER_BOUND('',#201,.T.);
#154=FACE_OUTER_BOUND('',#203,.T.);
#155=FACE_OUTER_BOUND('',#204,.T.);
#156=FACE_OUTER_BOUND('',#205,.T.);
#157=FACE_OUTER_BOUND('',#206,.T.);
#158=FACE_OUTER_BOUND('',#207,.T.);
#159=FACE_OUTER_BOUND('',#208,.T.);
#160=FACE_OUTER_BOUND('',#209,.T.);
#161=FACE_OUTER_BOUND('',#210,.T.);
#162=FACE_OUTER_BOUND('',#211,.T.);
#163=FACE_OUTER_BOUND('',#213,.T.);
#164=FACE_OUTER_BOUND('',#215,.T.);
#165=FACE_OUTER_BOUND('',#216,.T.);
#166=FACE_OUTER_BOUND('',#217,.T.);
#167=FACE_OUTER_BOUND('',#218,.T.);
#168=FACE_OUTER_BOUND('',#219,.T.);
#169=FACE_OUTER_BOUND('',#220,.T.);
#170=FACE_OUTER_BOUND('',#221,.T.);
#171=FACE_OUTER_BOUND('',#223,.T.);
#172=FACE_OUTER_BOUND('',#224,.T.);
#173=EDGE_LOOP('',(#347));
#174=EDGE_LOOP('',(#348));
#175=EDGE_LOOP('',(#349));
#176=EDGE_LOOP('',(#350));
#177=EDGE_LOOP('',(#351));
#178=EDGE_LOOP('',(#352));
#179=EDGE_LOOP('',(#353));
#180=EDGE_LOOP('',(#354));
#181=EDGE_LOOP('',(#355));
#182=EDGE_LOOP('',(#356));
#183=EDGE_LOOP('',(#357));
#184=EDGE_LOOP('',(#358));
#185=EDGE_LOOP('',(#359));
#186=EDGE_LOOP('',(#360));
#187=EDGE_LOOP('',(#361));
#188=EDGE_LOOP('',(#362));
#189=EDGE_LOOP('',(#363));
#190=EDGE_LOOP('',(#364));
#191=EDGE_LOOP('',(#365));
#192=EDGE_LOOP('',(#366));
#193=EDGE_LOOP('',(#367));
#194=EDGE_LOOP('',(#368));
#195=EDGE_LOOP('',(#369));
#196=EDGE_LOOP('',(#370));
#197=EDGE_LOOP('',(#371));
#198=EDGE_LOOP('',(#372));
#199=EDGE_LOOP('',(#373));
#200=EDGE_LOOP('',(#374));
#201=EDGE_LOOP('',(#375));
#202=EDGE_LOOP('',(#376));
#203=EDGE_LOOP('',(#377,#378,#379,#380));
#204=EDGE_LOOP('',(#381,#382,#383,#384));
#205=EDGE_LOOP('',(#385,#386,#387,#388));
#206=EDGE_LOOP('',(#389,#390,#391,#392));
#207=EDGE_LOOP('',(#393,#394,#395,#396));
#208=EDGE_LOOP('',(#397,#398,#399,#400));
#209=EDGE_LOOP('',(#401,#402,#403,#404));
#210=EDGE_LOOP('',(#405,#406,#407,#408));
#211=EDGE_LOOP('',(#409,#410,#411,#412,#413,#414,#415,#416));
#212=EDGE_LOOP('',(#417));
#213=EDGE_LOOP('',(#418,#419,#420,#421,#422,#423,#424,#425));
#214=EDGE_LOOP('',(#426));
#215=EDGE_LOOP('',(#427,#428,#429,#430));
#216=EDGE_LOOP('',(#431,#432,#433,#434));
#217=EDGE_LOOP('',(#435,#436,#437,#438));
#218=EDGE_LOOP('',(#439,#440,#441,#442));
#219=EDGE_LOOP('',(#443,#444,#445,#446));
#220=EDGE_LOOP('',(#447,#448,#449,#450));
#221=EDGE_LOOP('',(#451));
#222=EDGE_LOOP('',(#452));
#223=EDGE_LOOP('',(#453));
#224=EDGE_LOOP('',(#454));
#225=CIRCLE('',#521,0.3);
#226=CIRCLE('',#522,0.3);
#227=CIRCLE('',#526,0.3);
#228=CIRCLE('',#527,0.3);
#229=CIRCLE('',#531,0.3);
#230=CIRCLE('',#532,0.3);
#231=CIRCLE('',#536,0.3);
#232=CIRCLE('',#537,0.3);
#233=CIRCLE('',#541,0.3);
#234=CIRCLE('',#542,0.3);
#235=CIRCLE('',#546,0.3);
#236=CIRCLE('',#547,0.3);
#237=CIRCLE('',#551,0.3);
#238=CIRCLE('',#552,0.3);
#239=CIRCLE('',#556,0.5);
#240=CIRCLE('',#557,0.5);
#241=CIRCLE('',#559,0.999999999999998);
#242=CIRCLE('',#560,0.999999999999998);
#243=CIRCLE('',#563,1.);
#244=CIRCLE('',#564,1.);
#245=CIRCLE('',#567,0.999999999999998);
#246=CIRCLE('',#568,0.999999999999998);
#247=CIRCLE('',#571,1.);
#248=CIRCLE('',#572,1.);
#249=CIRCLE('',#583,0.5);
#250=CIRCLE('',#584,0.5);
#251=VERTEX_POINT('',#753);
#252=VERTEX_POINT('',#755);
#253=VERTEX_POINT('',#760);
#254=VERTEX_POINT('',#762);
#255=VERTEX_POINT('',#767);
#256=VERTEX_POINT('',#769);
#257=VERTEX_POINT('',#774);
#258=VERTEX_POINT('',#776);
#259=VERTEX_POINT('',#781);
#260=VERTEX_POINT('',#783);
#261=VERTEX_POINT('',#788);
#262=VERTEX_POINT('',#790);
#263=VERTEX_POINT('',#795);
#264=VERTEX_POINT('',#797);
#265=VERTEX_POINT('',#802);
#266=VERTEX_POINT('',#804);
#267=VERTEX_POINT('',#807);
#268=VERTEX_POINT('',#808);
#269=VERTEX_POINT('',#810);
#270=VERTEX_POINT('',#812);
#271=VERTEX_POINT('',#816);
#272=VERTEX_POINT('',#818);
#273=VERTEX_POINT('',#822);
#274=VERTEX_POINT('',#824);
#275=VERTEX_POINT('',#828);
#276=VERTEX_POINT('',#830);
#277=VERTEX_POINT('',#834);
#278=VERTEX_POINT('',#836);
#279=VERTEX_POINT('',#840);
#280=VERTEX_POINT('',#842);
#281=VERTEX_POINT('',#846);
#282=VERTEX_POINT('',#848);
#283=VERTEX_POINT('',#857);
#284=VERTEX_POINT('',#858);
#285=VERTEX_POINT('',#860);
#286=VERTEX_POINT('',#862);
#287=VERTEX_POINT('',#866);
#288=VERTEX_POINT('',#868);
#289=VERTEX_POINT('',#872);
#290=VERTEX_POINT('',#874);
#291=VERTEX_POINT('',#883);
#292=VERTEX_POINT('',#885);
#293=EDGE_CURVE('',#251,#251,#225,.F.);
#294=EDGE_CURVE('',#252,#252,#226,.T.);
#295=EDGE_CURVE('',#253,#253,#227,.F.);
#296=EDGE_CURVE('',#254,#254,#228,.T.);
#297=EDGE_CURVE('',#255,#255,#229,.F.);
#298=EDGE_CURVE('',#256,#256,#230,.T.);
#299=EDGE_CURVE('',#257,#257,#231,.F.);
#300=EDGE_CURVE('',#258,#258,#232,.T.);
#301=EDGE_CURVE('',#259,#259,#233,.F.);
#302=EDGE_CURVE('',#260,#260,#234,.T.);
#303=EDGE_CURVE('',#261,#261,#235,.F.);
#304=EDGE_CURVE('',#262,#262,#236,.T.);
#305=EDGE_CURVE('',#263,#263,#237,.F.);
#306=EDGE_CURVE('',#264,#264,#238,.T.);
#307=EDGE_CURVE('',#265,#265,#239,.T.);
#308=EDGE_CURVE('',#266,#266,#240,.T.);
#309=EDGE_CURVE('',#267,#268,#241,.T.);
#310=EDGE_CURVE('',#268,#269,#15,.T.);
#311=EDGE_CURVE('',#270,#269,#242,.T.);
#312=EDGE_CURVE('',#267,#270,#16,.T.);
#313=EDGE_CURVE('',#271,#267,#17,.T.);
#314=EDGE_CURVE('',#272,#270,#18,.T.);
#315=EDGE_CURVE('',#271,#272,#19,.T.);
#316=EDGE_CURVE('',#273,#271,#243,.T.);
#317=EDGE_CURVE('',#274,#272,#244,.T.);
#318=EDGE_CURVE('',#273,#274,#20,.T.);
#319=EDGE_CURVE('',#275,#273,#21,.T.);
#320=EDGE_CURVE('',#276,#274,#22,.T.);
#321=EDGE_CURVE('',#275,#276,#23,.T.);
#322=EDGE_CURVE('',#277,#275,#245,.T.);
#323=EDGE_CURVE('',#278,#276,#246,.T.);
#324=EDGE_CURVE('',#277,#278,#24,.T.);
#325=EDGE_CURVE('',#279,#277,#25,.T.);
#326=EDGE_CURVE('',#280,#278,#26,.T.);
#327=EDGE_CURVE('',#279,#280,#27,.T.);
#328=EDGE_CURVE('',#281,#279,#247,.T.);
#329=EDGE_CURVE('',#282,#280,#248,.T.);
#330=EDGE_CURVE('',#281,#282,#28,.T.);
#331=EDGE_CURVE('',#268,#281,#29,.T.);
#332=EDGE_CURVE('',#269,#282,#30,.T.);
#333=EDGE_CURVE('',#283,#284,#31,.T.);
#334=EDGE_CURVE('',#284,#285,#32,.T.);
#335=EDGE_CURVE('',#286,#285,#33,.T.);
#336=EDGE_CURVE('',#283,#286,#34,.T.);
#337=EDGE_CURVE('',#287,#283,#35,.T.);
#338=EDGE_CURVE('',#288,#286,#36,.T.);
#339=EDGE_CURVE('',#287,#288,#37,.T.);
#340=EDGE_CURVE('',#289,#287,#38,.T.);
#341=EDGE_CURVE('',#290,#288,#39,.T.);
#342=EDGE_CURVE('',#289,#290,#40,.T.);
#343=EDGE_CURVE('',#284,#289,#41,.T.);
#344=EDGE_CURVE('',#285,#290,#42,.T.);
#345=EDGE_CURVE('',#291,#291,#249,.T.);
#346=EDGE_CURVE('',#292,#292,#250,.T.);
#347=ORIENTED_EDGE('',*,*,#293,.F.);
#348=ORIENTED_EDGE('',*,*,#294,.F.);
#349=ORIENTED_EDGE('',*,*,#293,.T.);
#350=ORIENTED_EDGE('',*,*,#294,.T.);
#351=ORIENTED_EDGE('',*,*,#295,.F.);
#352=ORIENTED_EDGE('',*,*,#296,.F.);
#353=ORIENTED_EDGE('',*,*,#295,.T.);
#354=ORIENTED_EDGE('',*,*,#296,.T.);
#355=ORIENTED_EDGE('',*,*,#297,.F.);
#356=ORIENTED_EDGE('',*,*,#298,.F.);
#357=ORIENTED_EDGE('',*,*,#297,.T.);
#358=ORIENTED_EDGE('',*,*,#298,.T.);
#359=ORIENTED_EDGE('',*,*,#299,.F.);
#360=ORIENTED_EDGE('',*,*,#300,.F.);
#361=ORIENTED_EDGE('',*,*,#299,.T.);
#362=ORIENTED_EDGE('',*,*,#300,.T.);
#363=ORIENTED_EDGE('',*,*,#301,.F.);
#364=ORIENTED_EDGE('',*,*,#302,.F.);
#365=ORIENTED_EDGE('',*,*,#301,.T.);
#366=ORIENTED_EDGE('',*,*,#302,.T.);
#367=ORIENTED_EDGE('',*,*,#303,.F.);
#368=ORIENTED_EDGE('',*,*,#304,.F.);
#369=ORIENTED_EDGE('',*,*,#303,.T.);
#370=ORIENTED_EDGE('',*,*,#304,.T.);
#371=ORIENTED_EDGE('',*,*,#305,.F.);
#372=ORIENTED_EDGE('',*,*,#306,.F.);
#373=ORIENTED_EDGE('',*,*,#305,.T.);
#374=ORIENTED_EDGE('',*,*,#306,.T.);
#375=ORIENTED_EDGE('',*,*,#307,.F.);
#376=ORIENTED_EDGE('',*,*,#308,.F.);
#377=ORIENTED_EDGE('',*,*,#309,.T.);
#378=ORIENTED_EDGE('',*,*,#310,.T.);
#379=ORIENTED_EDGE('',*,*,#311,.F.);
#380=ORIENTED_EDGE('',*,*,#312,.F.);
#381=ORIENTED_EDGE('',*,*,#313,.T.);
#382=ORIENTED_EDGE('',*,*,#312,.T.);
#383=ORIENTED_EDGE('',*,*,#314,.F.);
#384=ORIENTED_EDGE('',*,*,#315,.F.);
#385=ORIENTED_EDGE('',*,*,#316,.T.);
#386=ORIENTED_EDGE('',*,*,#315,.T.);
#387=ORIENTED_EDGE('',*,*,#317,.F.);
#388=ORIENTED_EDGE('',*,*,#318,.F.);
#389=ORIENTED_EDGE('',*,*,#319,.T.);
#390=ORIENTED_EDGE('',*,*,#318,.T.);
#391=ORIENTED_EDGE('',*,*,#320,.F.);
#392=ORIENTED_EDGE('',*,*,#321,.F.);
#393=ORIENTED_EDGE('',*,*,#322,.T.);
#394=ORIENTED_EDGE('',*,*,#321,.T.);
#395=ORIENTED_EDGE('',*,*,#323,.F.);
#396=ORIENTED_EDGE('',*,*,#324,.F.);
#397=ORIENTED_EDGE('',*,*,#325,.T.);
#398=ORIENTED_EDGE('',*,*,#324,.T.);
#399=ORIENTED_EDGE('',*,*,#326,.F.);
#400=ORIENTED_EDGE('',*,*,#327,.F.);
#401=ORIENTED_EDGE('',*,*,#328,.T.);
#402=ORIENTED_EDGE('',*,*,#327,.T.);
#403=ORIENTED_EDGE('',*,*,#329,.F.);
#404=ORIENTED_EDGE('',*,*,#330,.F.);
#405=ORIENTED_EDGE('',*,*,#331,.T.);
#406=ORIENTED_EDGE('',*,*,#330,.T.);
#407=ORIENTED_EDGE('',*,*,#332,.F.);
#408=ORIENTED_EDGE('',*,*,#310,.F.);
#409=ORIENTED_EDGE('',*,*,#332,.T.);
#410=ORIENTED_EDGE('',*,*,#329,.T.);
#411=ORIENTED_EDGE('',*,*,#326,.T.);
#412=ORIENTED_EDGE('',*,*,#323,.T.);
#413=ORIENTED_EDGE('',*,*,#320,.T.);
#414=ORIENTED_EDGE('',*,*,#317,.T.);
#415=ORIENTED_EDGE('',*,*,#314,.T.);
#416=ORIENTED_EDGE('',*,*,#311,.T.);
#417=ORIENTED_EDGE('',*,*,#308,.T.);
#418=ORIENTED_EDGE('',*,*,#331,.F.);
#419=ORIENTED_EDGE('',*,*,#309,.F.);
#420=ORIENTED_EDGE('',*,*,#313,.F.);
#421=ORIENTED_EDGE('',*,*,#316,.F.);
#422=ORIENTED_EDGE('',*,*,#319,.F.);
#423=ORIENTED_EDGE('',*,*,#322,.F.);
#424=ORIENTED_EDGE('',*,*,#325,.F.);
#425=ORIENTED_EDGE('',*,*,#328,.F.);
#426=ORIENTED_EDGE('',*,*,#307,.T.);
#427=ORIENTED_EDGE('',*,*,#333,.T.);
#428=ORIENTED_EDGE('',*,*,#334,.T.);
#429=ORIENTED_EDGE('',*,*,#335,.F.);
#430=ORIENTED_EDGE('',*,*,#336,.F.);
#431=ORIENTED_EDGE('',*,*,#337,.T.);
#432=ORIENTED_EDGE('',*,*,#336,.T.);
#433=ORIENTED_EDGE('',*,*,#338,.F.);
#434=ORIENTED_EDGE('',*,*,#339,.F.);
#435=ORIENTED_EDGE('',*,*,#340,.T.);
#436=ORIENTED_EDGE('',*,*,#339,.T.);
#437=ORIENTED_EDGE('',*,*,#341,.F.);
#438=ORIENTED_EDGE('',*,*,#342,.F.);
#439=ORIENTED_EDGE('',*,*,#343,.T.);
#440=ORIENTED_EDGE('',*,*,#342,.T.);
#441=ORIENTED_EDGE('',*,*,#344,.F.);
#442=ORIENTED_EDGE('',*,*,#334,.F.);
#443=ORIENTED_EDGE('',*,*,#344,.T.);
#444=ORIENTED_EDGE('',*,*,#341,.T.);
#445=ORIENTED_EDGE('',*,*,#338,.T.);
#446=ORIENTED_EDGE('',*,*,#335,.T.);
#447=ORIENTED_EDGE('',*,*,#343,.F.);
#448=ORIENTED_EDGE('',*,*,#333,.F.);
#449=ORIENTED_EDGE('',*,*,#337,.F.);
#450=ORIENTED_EDGE('',*,*,#340,.F.);
#451=ORIENTED_EDGE('',*,*,#345,.F.);
#452=ORIENTED_EDGE('',*,*,#346,.F.);
#453=ORIENTED_EDGE('',*,*,#346,.T.);
#454=ORIENTED_EDGE('',*,*,#345,.T.);
#455=CYLINDRICAL_SURFACE('',#520,0.3);
#456=CYLINDRICAL_SURFACE('',#525,0.3);
#457=CYLINDRICAL_SURFACE('',#530,0.3);
#458=CYLINDRICAL_SURFACE('',#535,0.3);
#459=CYLINDRICAL_SURFACE('',#540,0.3);
#460=CYLINDRICAL_SURFACE('',#545,0.3);
#461=CYLINDRICAL_SURFACE('',#550,0.3);
#462=CYLINDRICAL_SURFACE('',#555,0.5);
#463=CYLINDRICAL_SURFACE('',#558,0.999999999999998);
#464=CYLINDRICAL_SURFACE('',#562,1.);
#465=CYLINDRICAL_SURFACE('',#566,0.999999999999998);
#466=CYLINDRICAL_SURFACE('',#570,1.);
#467=CYLINDRICAL_SURFACE('',#582,0.5);
#468=ADVANCED_FACE('',(#132,#121),#455,.T.);
#469=ADVANCED_FACE('',(#133),#93,.F.);
#470=ADVANCED_FACE('',(#134),#94,.F.);
#471=ADVANCED_FACE('',(#135,#122),#456,.T.);
#472=ADVANCED_FACE('',(#136),#95,.F.);
#473=ADVANCED_FACE('',(#137),#96,.F.);
#474=ADVANCED_FACE('',(#138,#123),#457,.T.);
#475=ADVANCED_FACE('',(#139),#97,.F.);
#476=ADVANCED_FACE('',(#140),#98,.F.);
#477=ADVANCED_FACE('',(#141,#124),#458,.T.);
#478=ADVANCED_FACE('',(#142),#99,.F.);
#479=ADVANCED_FACE('',(#143),#100,.F.);
#480=ADVANCED_FACE('',(#144,#125),#459,.T.);
#481=ADVANCED_FACE('',(#145),#101,.F.);
#482=ADVANCED_FACE('',(#146),#102,.F.);
#483=ADVANCED_FACE('',(#147,#126),#460,.T.);
#484=ADVANCED_FACE('',(#148),#103,.F.);
#485=ADVANCED_FACE('',(#149),#104,.F.);
#486=ADVANCED_FACE('',(#150,#127),#461,.T.);
#487=ADVANCED_FACE('',(#151),#105,.F.);
#488=ADVANCED_FACE('',(#152),#106,.F.);
#489=ADVANCED_FACE('',(#153,#128),#462,.F.);
#490=ADVANCED_FACE('',(#154),#463,.T.);
#491=ADVANCED_FACE('',(#155),#107,.T.);
#492=ADVANCED_FACE('',(#156),#464,.T.);
#493=ADVANCED_FACE('',(#157),#108,.T.);
#494=ADVANCED_FACE('',(#158),#465,.T.);
#495=ADVANCED_FACE('',(#159),#109,.T.);
#496=ADVANCED_FACE('',(#160),#466,.T.);
#497=ADVANCED_FACE('',(#161),#110,.T.);
#498=ADVANCED_FACE('',(#162,#129),#111,.T.);
#499=ADVANCED_FACE('',(#163,#130),#112,.F.);
#500=ADVANCED_FACE('',(#164),#113,.T.);
#501=ADVANCED_FACE('',(#165),#114,.T.);
#502=ADVANCED_FACE('',(#166),#115,.T.);
#503=ADVANCED_FACE('',(#167),#116,.T.);
#504=ADVANCED_FACE('',(#168),#117,.T.);
#505=ADVANCED_FACE('',(#169),#118,.F.);
#506=ADVANCED_FACE('',(#170,#131),#467,.T.);
#507=ADVANCED_FACE('',(#171),#119,.T.);
#508=ADVANCED_FACE('',(#172),#120,.F.);
#509=CLOSED_SHELL('',(#468,#469,#470));
#510=CLOSED_SHELL('',(#471,#472,#473));
#511=CLOSED_SHELL('',(#474,#475,#476));
#512=CLOSED_SHELL('',(#477,#478,#479));
#513=CLOSED_SHELL('',(#480,#481,#482));
#514=CLOSED_SHELL('',(#483,#484,#485));
#515=CLOSED_SHELL('',(#486,#487,#488));
#516=CLOSED_SHELL('',(#489,#490,#491,#492,#493,#494,#495,#496,#497,#498,
#499));
#517=CLOSED_SHELL('',(#500,#501,#502,#503,#504,#505));
#518=CLOSED_SHELL('',(#506,#507,#508));
#519=AXIS2_PLACEMENT_3D('placement',#751,#587,#588);
#520=AXIS2_PLACEMENT_3D('',#752,#589,#590);
#521=AXIS2_PLACEMENT_3D('',#754,#591,#592);
#522=AXIS2_PLACEMENT_3D('',#756,#593,#594);
#523=AXIS2_PLACEMENT_3D('',#757,#595,#596);
#524=AXIS2_PLACEMENT_3D('',#758,#597,#598);
#525=AXIS2_PLACEMENT_3D('',#759,#599,#600);
#526=AXIS2_PLACEMENT_3D('',#761,#601,#602);
#527=AXIS2_PLACEMENT_3D('',#763,#603,#604);
#528=AXIS2_PLACEMENT_3D('',#764,#605,#606);
#529=AXIS2_PLACEMENT_3D('',#765,#607,#608);
#530=AXIS2_PLACEMENT_3D('',#766,#609,#610);
#531=AXIS2_PLACEMENT_3D('',#768,#611,#612);
#532=AXIS2_PLACEMENT_3D('',#770,#613,#614);
#533=AXIS2_PLACEMENT_3D('',#771,#615,#616);
#534=AXIS2_PLACEMENT_3D('',#772,#617,#618);
#535=AXIS2_PLACEMENT_3D('',#773,#619,#620);
#536=AXIS2_PLACEMENT_3D('',#775,#621,#622);
#537=AXIS2_PLACEMENT_3D('',#777,#623,#624);
#538=AXIS2_PLACEMENT_3D('',#778,#625,#626);
#539=AXIS2_PLACEMENT_3D('',#779,#627,#628);
#540=AXIS2_PLACEMENT_3D('',#780,#629,#630);
#541=AXIS2_PLACEMENT_3D('',#782,#631,#632);
#542=AXIS2_PLACEMENT_3D('',#784,#633,#634);
#543=AXIS2_PLACEMENT_3D('',#785,#635,#636);
#544=AXIS2_PLACEMENT_3D('',#786,#637,#638);
#545=AXIS2_PLACEMENT_3D('',#787,#639,#640);
#546=AXIS2_PLACEMENT_3D('',#789,#641,#642);
#547=AXIS2_PLACEMENT_3D('',#791,#643,#644);
#548=AXIS2_PLACEMENT_3D('',#792,#645,#646);
#549=AXIS2_PLACEMENT_3D('',#793,#647,#648);
#550=AXIS2_PLACEMENT_3D('',#794,#649,#650);
#551=AXIS2_PLACEMENT_3D('',#796,#651,#652);
#552=AXIS2_PLACEMENT_3D('',#798,#653,#654);
#553=AXIS2_PLACEMENT_3D('',#799,#655,#656);
#554=AXIS2_PLACEMENT_3D('',#800,#657,#658);
#555=AXIS2_PLACEMENT_3D('',#801,#659,#660);
#556=AXIS2_PLACEMENT_3D('',#803,#661,#662);
#557=AXIS2_PLACEMENT_3D('',#805,#663,#664);
#558=AXIS2_PLACEMENT_3D('',#806,#665,#666);
#559=AXIS2_PLACEMENT_3D('',#809,#667,#668);
#560=AXIS2_PLACEMENT_3D('',#813,#670,#671);
#561=AXIS2_PLACEMENT_3D('',#815,#673,#674);
#562=AXIS2_PLACEMENT_3D('',#821,#678,#679);
#563=AXIS2_PLACEMENT_3D('',#823,#680,#681);
#564=AXIS2_PLACEMENT_3D('',#825,#682,#683);
#565=AXIS2_PLACEMENT_3D('',#827,#685,#686);
#566=AXIS2_PLACEMENT_3D('',#833,#690,#691);
#567=AXIS2_PLACEMENT_3D('',#835,#692,#693);
#568=AXIS2_PLACEMENT_3D('',#837,#694,#695);
#569=AXIS2_PLACEMENT_3D('',#839,#697,#698);
#570=AXIS2_PLACEMENT_3D('',#845,#702,#703);
#571=AXIS2_PLACEMENT_3D('',#847,#704,#705);
#572=AXIS2_PLACEMENT_3D('',#849,#706,#707);
#573=AXIS2_PLACEMENT_3D('',#851,#709,#710);
#574=AXIS2_PLACEMENT_3D('',#854,#713,#714);
#575=AXIS2_PLACEMENT_3D('',#855,#715,#716);
#576=AXIS2_PLACEMENT_3D('',#856,#717,#718);
#577=AXIS2_PLACEMENT_3D('',#865,#723,#724);
#578=AXIS2_PLACEMENT_3D('',#871,#728,#729);
#579=AXIS2_PLACEMENT_3D('',#877,#733,#734);
#580=AXIS2_PLACEMENT_3D('',#880,#737,#738);
#581=AXIS2_PLACEMENT_3D('',#881,#739,#740);
#582=AXIS2_PLACEMENT_3D('',#882,#741,#742);
#583=AXIS2_PLACEMENT_3D('',#884,#743,#744);
#584=AXIS2_PLACEMENT_3D('',#886,#745,#746);
#585=AXIS2_PLACEMENT_3D('',#887,#747,#748);
#586=AXIS2_PLACEMENT_3D('',#888,#749,#750);
#587=DIRECTION('axis',(0.,0.,1.));
#588=DIRECTION('refdir',(1.,0.,0.));
#589=DIRECTION('center_axis',(1.15148291758364E-15,3.09652731640386E-15,
-1.));
#590=DIRECTION('ref_axis',(-0.383049008063238,-0.923728021347068,-3.30142344041106E-15));
#591=DIRECTION('center_axis',(4.40094063554248E-17,4.25839509656586E-16,
-1.));
#592=DIRECTION('ref_axis',(-0.383049008063238,-0.923728021347068,-3.30142344041106E-15));
#593=DIRECTION('center_axis',(1.15148291758364E-15,3.09652731640386E-15,
-1.));
#594=DIRECTION('ref_axis',(-0.383049008063238,-0.923728021347068,-3.30142344041106E-15));
#595=DIRECTION('center_axis',(4.40094063554248E-17,4.25839509656586E-16,
-1.));
#596=DIRECTION('ref_axis',(0.923728021347068,-0.383049008063238,-1.22464679914735E-16));
#597=DIRECTION('center_axis',(-4.40094063554248E-17,-4.25839509656586E-16,
1.));
#598=DIRECTION('ref_axis',(-0.923728021347068,0.383049008063238,0.));
#599=DIRECTION('center_axis',(1.15148291758364E-15,3.09652731640386E-15,
-1.));
#600=DIRECTION('ref_axis',(-0.383049008063238,-0.923728021347068,-3.30142344041106E-15));
#601=DIRECTION('center_axis',(4.40094063554248E-17,4.25839509656586E-16,
-1.));
#602=DIRECTION('ref_axis',(-0.383049008063238,-0.923728021347068,-3.30142344041106E-15));
#603=DIRECTION('center_axis',(1.15148291758364E-15,3.09652731640386E-15,
-1.));
#604=DIRECTION('ref_axis',(-0.383049008063238,-0.923728021347068,-3.30142344041106E-15));
#605=DIRECTION('center_axis',(4.40094063554248E-17,4.25839509656586E-16,
-1.));
#606=DIRECTION('ref_axis',(0.923728021347068,-0.383049008063238,-1.22464679914735E-16));
#607=DIRECTION('center_axis',(-4.40094063554248E-17,-4.25839509656586E-16,
1.));
#608=DIRECTION('ref_axis',(-0.923728021347068,0.383049008063238,0.));
#609=DIRECTION('center_axis',(1.15148291758364E-15,3.09652731640386E-15,
-1.));
#610=DIRECTION('ref_axis',(-0.383049008063238,-0.923728021347068,-3.30142344041106E-15));
#611=DIRECTION('center_axis',(4.40094063554248E-17,4.25839509656586E-16,
-1.));
#612=DIRECTION('ref_axis',(-0.383049008063238,-0.923728021347068,-3.30142344041106E-15));
#613=DIRECTION('center_axis',(1.15148291758364E-15,3.09652731640386E-15,
-1.));
#614=DIRECTION('ref_axis',(-0.383049008063238,-0.923728021347068,-3.30142344041106E-15));
#615=DIRECTION('center_axis',(4.40094063554248E-17,4.25839509656586E-16,
-1.));
#616=DIRECTION('ref_axis',(0.923728021347068,-0.383049008063238,-1.22464679914735E-16));
#617=DIRECTION('center_axis',(-4.40094063554248E-17,-4.25839509656586E-16,
1.));
#618=DIRECTION('ref_axis',(-0.923728021347068,0.383049008063238,0.));
#619=DIRECTION('center_axis',(1.15148291758364E-15,3.09652731640386E-15,
-1.));
#620=DIRECTION('ref_axis',(-0.383049008063238,-0.923728021347068,-3.30142344041106E-15));
#621=DIRECTION('center_axis',(4.40094063554248E-17,4.25839509656586E-16,
-1.));
#622=DIRECTION('ref_axis',(-0.383049008063238,-0.923728021347068,-3.30142344041106E-15));
#623=DIRECTION('center_axis',(1.15148291758364E-15,3.09652731640386E-15,
-1.));
#624=DIRECTION('ref_axis',(-0.383049008063238,-0.923728021347068,-3.30142344041106E-15));
#625=DIRECTION('center_axis',(4.40094063554248E-17,4.25839509656586E-16,
-1.));
#626=DIRECTION('ref_axis',(0.923728021347068,-0.383049008063238,-1.22464679914735E-16));
#627=DIRECTION('center_axis',(-4.40094063554248E-17,-4.25839509656586E-16,
1.));
#628=DIRECTION('ref_axis',(-0.923728021347068,0.383049008063238,0.));
#629=DIRECTION('center_axis',(1.15148291758364E-15,3.09652731640386E-15,
-1.));
#630=DIRECTION('ref_axis',(-0.383049008063238,-0.923728021347068,-3.30142344041106E-15));
#631=DIRECTION('center_axis',(4.40094063554248E-17,4.25839509656586E-16,
-1.));
#632=DIRECTION('ref_axis',(-0.383049008063238,-0.923728021347068,-3.30142344041106E-15));
#633=DIRECTION('center_axis',(1.15148291758364E-15,3.09652731640386E-15,
-1.));
#634=DIRECTION('ref_axis',(-0.383049008063238,-0.923728021347068,-3.30142344041106E-15));
#635=DIRECTION('center_axis',(4.40094063554248E-17,4.25839509656586E-16,
-1.));
#636=DIRECTION('ref_axis',(0.923728021347068,-0.383049008063238,-1.22464679914735E-16));
#637=DIRECTION('center_axis',(-4.40094063554248E-17,-4.25839509656586E-16,
1.));
#638=DIRECTION('ref_axis',(-0.923728021347068,0.383049008063238,0.));
#639=DIRECTION('center_axis',(1.15148291758364E-15,3.09652731640386E-15,
-1.));
#640=DIRECTION('ref_axis',(-0.383049008063238,-0.923728021347068,-3.30142344041106E-15));
#641=DIRECTION('center_axis',(4.40094063554248E-17,4.25839509656586E-16,
-1.));
#642=DIRECTION('ref_axis',(-0.383049008063238,-0.923728021347068,-3.30142344041106E-15));
#643=DIRECTION('center_axis',(1.15148291758364E-15,3.09652731640386E-15,
-1.));
#644=DIRECTION('ref_axis',(-0.383049008063238,-0.923728021347068,-3.30142344041106E-15));
#645=DIRECTION('center_axis',(4.40094063554248E-17,4.25839509656586E-16,
-1.));
#646=DIRECTION('ref_axis',(0.923728021347068,-0.383049008063238,-1.22464679914735E-16));
#647=DIRECTION('center_axis',(-4.40094063554248E-17,-4.25839509656586E-16,
1.));
#648=DIRECTION('ref_axis',(-0.923728021347068,0.383049008063238,0.));
#649=DIRECTION('center_axis',(1.15148291758364E-15,3.09652731640386E-15,
-1.));
#650=DIRECTION('ref_axis',(-0.383049008063238,-0.923728021347068,-3.30142344041106E-15));
#651=DIRECTION('center_axis',(4.40094063554248E-17,4.25839509656586E-16,
-1.));
#652=DIRECTION('ref_axis',(-0.383049008063238,-0.923728021347068,-3.30142344041106E-15));
#653=DIRECTION('center_axis',(1.15148291758364E-15,3.09652731640386E-15,
-1.));
#654=DIRECTION('ref_axis',(-0.383049008063238,-0.923728021347068,-3.30142344041106E-15));
#655=DIRECTION('center_axis',(4.40094063554248E-17,4.25839509656586E-16,
-1.));
#656=DIRECTION('ref_axis',(0.923728021347068,-0.383049008063238,-1.22464679914735E-16));
#657=DIRECTION('center_axis',(-4.40094063554248E-17,-4.25839509656586E-16,
1.));
#658=DIRECTION('ref_axis',(-0.923728021347068,0.383049008063238,0.));
#659=DIRECTION('center_axis',(0.,0.,-1.));
#660=DIRECTION('ref_axis',(-1.,2.44929359829471E-16,0.));
#661=DIRECTION('center_axis',(0.,0.,1.));
#662=DIRECTION('ref_axis',(-1.,2.44929359829471E-16,0.));
#663=DIRECTION('center_axis',(0.,0.,-1.));
#664=DIRECTION('ref_axis',(-1.,2.44929359829471E-16,0.));
#665=DIRECTION('center_axis',(0.,0.,1.));
#666=DIRECTION('ref_axis',(1.,-2.02128619922972E-15,0.));
#667=DIRECTION('center_axis',(0.,0.,1.));
#668=DIRECTION('ref_axis',(1.,-2.02128619922972E-15,0.));
#669=DIRECTION('',(0.,0.,1.));
#670=DIRECTION('center_axis',(0.,0.,1.));
#671=DIRECTION('ref_axis',(1.,-2.02128619922972E-15,0.));
#672=DIRECTION('',(0.,0.,1.));
#673=DIRECTION('center_axis',(1.,-2.44929359829471E-16,0.));
#674=DIRECTION('ref_axis',(0.,1.,0.));
#675=DIRECTION('',(2.44929359829471E-16,1.,0.));
#676=DIRECTION('',(2.44929359829471E-16,1.,0.));
#677=DIRECTION('',(0.,0.,1.));
#678=DIRECTION('center_axis',(0.,0.,1.));
#679=DIRECTION('ref_axis',(-2.02128619922972E-15,-1.,0.));
#680=DIRECTION('center_axis',(0.,0.,1.));
#681=DIRECTION('ref_axis',(-2.02128619922972E-15,-1.,0.));
#682=DIRECTION('center_axis',(0.,0.,1.));
#683=DIRECTION('ref_axis',(-2.02128619922972E-15,-1.,0.));
#684=DIRECTION('',(0.,0.,1.));
#685=DIRECTION('center_axis',(-2.44929359829471E-16,-1.,0.));
#686=DIRECTION('ref_axis',(1.,0.,0.));
#687=DIRECTION('',(1.,-2.44929359829471E-16,0.));
#688=DIRECTION('',(1.,-2.44929359829471E-16,0.));
#689=DIRECTION('',(0.,0.,1.));
#690=DIRECTION('center_axis',(0.,0.,1.));
#691=DIRECTION('ref_axis',(-1.,2.02128619922972E-15,0.));
#692=DIRECTION('center_axis',(0.,0.,1.));
#693=DIRECTION('ref_axis',(-1.,2.02128619922972E-15,0.));
#694=DIRECTION('center_axis',(0.,0.,1.));
#695=DIRECTION('ref_axis',(-1.,2.02128619922972E-15,0.));
#696=DIRECTION('',(0.,0.,1.));
#697=DIRECTION('center_axis',(-1.,2.44929359829471E-16,0.));
#698=DIRECTION('ref_axis',(0.,-1.,0.));
#699=DIRECTION('',(-2.44929359829471E-16,-1.,0.));
#700=DIRECTION('',(-2.44929359829471E-16,-1.,0.));
#701=DIRECTION('',(0.,0.,1.));
#702=DIRECTION('center_axis',(0.,0.,1.));
#703=DIRECTION('ref_axis',(2.02128619922972E-15,1.,0.));
#704=DIRECTION('center_axis',(0.,0.,1.));
#705=DIRECTION('ref_axis',(2.02128619922972E-15,1.,0.));
#706=DIRECTION('center_axis',(0.,0.,1.));
#707=DIRECTION('ref_axis',(2.02128619922972E-15,1.,0.));
#708=DIRECTION('',(0.,0.,1.));
#709=DIRECTION('center_axis',(2.44929359829471E-16,1.,0.));
#710=DIRECTION('ref_axis',(-1.,0.,0.));
#711=DIRECTION('',(-1.,2.44929359829471E-16,0.));
#712=DIRECTION('',(-1.,2.44929359829471E-16,0.));
#713=DIRECTION('center_axis',(0.,0.,1.));
#714=DIRECTION('ref_axis',(1.,-2.44929359829471E-16,0.));
#715=DIRECTION('center_axis',(0.,0.,1.));
#716=DIRECTION('ref_axis',(1.,-2.44929359829471E-16,0.));
#717=DIRECTION('center_axis',(-1.,1.22464679914735E-16,0.));
#718=DIRECTION('ref_axis',(0.,-1.,0.));
#719=DIRECTION('',(-1.22464679914735E-16,-1.,0.));
#720=DIRECTION('',(0.,0.,1.));
#721=DIRECTION('',(-1.22464679914735E-16,-1.,0.));
#722=DIRECTION('',(0.,0.,1.));
#723=DIRECTION('center_axis',(1.22464679914735E-16,1.,0.));
#724=DIRECTION('ref_axis',(-1.,0.,0.));
#725=DIRECTION('',(-1.,1.22464679914735E-16,0.));
#726=DIRECTION('',(-1.,1.22464679914735E-16,0.));
#727=DIRECTION('',(0.,0.,1.));
#728=DIRECTION('center_axis',(1.,-1.22464679914735E-16,0.));
#729=DIRECTION('ref_axis',(0.,1.,0.));
#730=DIRECTION('',(1.22464679914735E-16,1.,0.));
#731=DIRECTION('',(1.22464679914735E-16,1.,0.));
#732=DIRECTION('',(0.,0.,1.));
#733=DIRECTION('center_axis',(-1.22464679914735E-16,-1.,0.));
#734=DIRECTION('ref_axis',(1.,0.,0.));
#735=DIRECTION('',(1.,-1.22464679914735E-16,0.));
#736=DIRECTION('',(1.,-1.22464679914735E-16,0.));
#737=DIRECTION('center_axis',(0.,0.,1.));
#738=DIRECTION('ref_axis',(-1.,1.22464679914735E-16,0.));
#739=DIRECTION('center_axis',(0.,0.,1.));
#740=DIRECTION('ref_axis',(-1.,1.22464679914736E-16,0.));
#741=DIRECTION('center_axis',(0.,0.,-1.));
#742=DIRECTION('ref_axis',(-1.,2.44929359829471E-16,0.));
#743=DIRECTION('center_axis',(0.,0.,-1.));
#744=DIRECTION('ref_axis',(-1.,2.44929359829471E-16,0.));
#745=DIRECTION('center_axis',(0.,0.,1.));
#746=DIRECTION('ref_axis',(-1.,2.44929359829471E-16,0.));
#747=DIRECTION('center_axis',(0.,0.,1.));
#748=DIRECTION('ref_axis',(1.,0.,0.));
#749=DIRECTION('center_axis',(0.,0.,1.));
#750=DIRECTION('ref_axis',(1.,0.,0.));
#751=CARTESIAN_POINT('',(0.,0.,0.));
#752=CARTESIAN_POINT('Origin',(13.977,-7.60999999817944,10.0000000000259));
#753=CARTESIAN_POINT('',(14.091914702419,-7.33288159177529,8.88178419700125E-16));
#754=CARTESIAN_POINT('Origin',(13.977,-7.60999999817941,0.));
#755=CARTESIAN_POINT('',(13.862085297581,-7.88711840458352,-3.7999999999741));
#756=CARTESIAN_POINT('Origin',(13.977,-7.6099999981794,-3.79999999997409));
#757=CARTESIAN_POINT('Origin',(13.805849851567,-7.21326249205047,0.));
#758=CARTESIAN_POINT('Origin',(14.373737506129,-7.44584984974646,-3.79999999997409));
#759=CARTESIAN_POINT('Origin',(11.43,-7.62000000000003,10.0000000000259));
#760=CARTESIAN_POINT('',(11.544914702419,-7.34288159359588,8.88178419700125E-16));
#761=CARTESIAN_POINT('Origin',(11.43,-7.62,0.));
#762=CARTESIAN_POINT('',(11.315085297581,-7.89711840640411,-3.7999999999741));
#763=CARTESIAN_POINT('Origin',(11.43,-7.61999999999999,-3.79999999997409));
#764=CARTESIAN_POINT('Origin',(11.258849851567,-7.22326249387106,0.));
#765=CARTESIAN_POINT('Origin',(11.826737506129,-7.45584985156706,-3.79999999997409));
#766=CARTESIAN_POINT('Origin',(-13.97,-7.62000000000003,10.0000000000259));
#767=CARTESIAN_POINT('',(-13.855085297581,-7.34288159359588,8.88178419700125E-16));
#768=CARTESIAN_POINT('Origin',(-13.97,-7.62,0.));
#769=CARTESIAN_POINT('',(-14.084914702419,-7.89711840640411,-3.7999999999741));
#770=CARTESIAN_POINT('Origin',(-13.97,-7.61999999999999,-3.79999999997409));
#771=CARTESIAN_POINT('Origin',(-14.141150148433,-7.22326249387106,0.));
#772=CARTESIAN_POINT('Origin',(-13.573262493871,-7.45584985156705,-3.79999999997409));
#773=CARTESIAN_POINT('Origin',(-13.97,7.61999999999997,10.0000000000259));
#774=CARTESIAN_POINT('',(-13.855085297581,7.89711840640412,8.88178419700125E-16));
#775=CARTESIAN_POINT('Origin',(-13.97,7.62,0.));
#776=CARTESIAN_POINT('',(-14.084914702419,7.34288159359589,-3.7999999999741));
#777=CARTESIAN_POINT('Origin',(-13.97,7.62000000000001,-3.79999999997409));
#778=CARTESIAN_POINT('Origin',(-14.141150148433,8.01673750612894,0.));
#779=CARTESIAN_POINT('Origin',(-13.573262493871,7.78415014843295,-3.79999999997409));
#780=CARTESIAN_POINT('Origin',(-11.43,7.61999999999997,10.0000000000259));
#781=CARTESIAN_POINT('',(-11.315085297581,7.89711840640412,8.88178419700125E-16));
#782=CARTESIAN_POINT('Origin',(-11.43,7.62,0.));
#783=CARTESIAN_POINT('',(-11.544914702419,7.34288159359589,-3.7999999999741));
#784=CARTESIAN_POINT('Origin',(-11.43,7.62000000000001,-3.79999999997409));
#785=CARTESIAN_POINT('Origin',(-11.601150148433,8.01673750612894,0.));
#786=CARTESIAN_POINT('Origin',(-11.0332624938711,7.78415014843295,-3.79999999997409));
#787=CARTESIAN_POINT('Origin',(8.88999999999999,7.61999999999997,10.0000000000259));
#788=CARTESIAN_POINT('',(9.00491470241897,7.89711840640412,8.88178419700125E-16));
#789=CARTESIAN_POINT('Origin',(8.89,7.62,0.));
#790=CARTESIAN_POINT('',(8.77508529758103,7.34288159359589,-3.7999999999741));
#791=CARTESIAN_POINT('Origin',(8.89000000000001,7.62000000000001,-3.79999999997409));
#792=CARTESIAN_POINT('Origin',(8.71884985156702,8.01673750612894,0.));
#793=CARTESIAN_POINT('Origin',(9.28673750612896,7.78415014843295,-3.79999999997409));
#794=CARTESIAN_POINT('Origin',(13.97,7.61999999999997,10.0000000000259));
#795=CARTESIAN_POINT('',(14.084914702419,7.89711840640412,8.88178419700125E-16));
#796=CARTESIAN_POINT('Origin',(13.97,7.62,0.));
#797=CARTESIAN_POINT('',(13.855085297581,7.34288159359589,-3.7999999999741));
#798=CARTESIAN_POINT('Origin',(13.97,7.62000000000001,-3.79999999997409));
#799=CARTESIAN_POINT('Origin',(13.798849851567,8.01673750612894,0.));
#800=CARTESIAN_POINT('Origin',(14.366737506129,7.78415014843295,-3.79999999997409));
#801=CARTESIAN_POINT('Origin',(-12.15,-7.4,10.7));
#802=CARTESIAN_POINT('',(-11.65,-7.4,10.65));
#803=CARTESIAN_POINT('Origin',(-12.15,-7.4,10.65));
#804=CARTESIAN_POINT('',(-11.65,-7.4,10.7));
#805=CARTESIAN_POINT('Origin',(-12.15,-7.4,10.7));
#806=CARTESIAN_POINT('Origin',(13.15,8.4,10.65));
#807=CARTESIAN_POINT('',(14.15,8.4,10.65));
#808=CARTESIAN_POINT('',(13.15,9.4,10.65));
#809=CARTESIAN_POINT('Origin',(13.15,8.4,10.65));
#810=CARTESIAN_POINT('',(13.15,9.4,10.7));
#811=CARTESIAN_POINT('',(13.15,9.4,10.65));
#812=CARTESIAN_POINT('',(14.15,8.4,10.7));
#813=CARTESIAN_POINT('Origin',(13.15,8.4,10.7));
#814=CARTESIAN_POINT('',(14.15,8.4,10.65));
#815=CARTESIAN_POINT('Origin',(14.15,-8.40000000000001,10.65));
#816=CARTESIAN_POINT('',(14.15,-8.40000000000001,10.65));
#817=CARTESIAN_POINT('',(14.15,-8.40000000000001,10.65));
#818=CARTESIAN_POINT('',(14.15,-8.40000000000001,10.7));
#819=CARTESIAN_POINT('',(14.15,-8.40000000000001,10.7));
#820=CARTESIAN_POINT('',(14.15,-8.40000000000001,10.65));
#821=CARTESIAN_POINT('Origin',(13.15,-8.40000000000001,10.65));
#822=CARTESIAN_POINT('',(13.15,-9.40000000000001,10.65));
#823=CARTESIAN_POINT('Origin',(13.15,-8.40000000000001,10.65));
#824=CARTESIAN_POINT('',(13.15,-9.40000000000001,10.7));
#825=CARTESIAN_POINT('Origin',(13.15,-8.40000000000001,10.7));
#826=CARTESIAN_POINT('',(13.15,-9.40000000000001,10.65));
#827=CARTESIAN_POINT('Origin',(-13.15,-9.4,10.65));
#828=CARTESIAN_POINT('',(-13.15,-9.4,10.65));
#829=CARTESIAN_POINT('',(-13.15,-9.4,10.65));
#830=CARTESIAN_POINT('',(-13.15,-9.4,10.7));
#831=CARTESIAN_POINT('',(-13.15,-9.4,10.7));
#832=CARTESIAN_POINT('',(-13.15,-9.4,10.65));
#833=CARTESIAN_POINT('Origin',(-13.15,-8.4,10.65));
#834=CARTESIAN_POINT('',(-14.15,-8.4,10.65));
#835=CARTESIAN_POINT('Origin',(-13.15,-8.4,10.65));
#836=CARTESIAN_POINT('',(-14.15,-8.4,10.7));
#837=CARTESIAN_POINT('Origin',(-13.15,-8.4,10.7));
#838=CARTESIAN_POINT('',(-14.15,-8.4,10.65));
#839=CARTESIAN_POINT('Origin',(-14.15,8.4,10.65));
#840=CARTESIAN_POINT('',(-14.15,8.4,10.65));
#841=CARTESIAN_POINT('',(-14.15,8.4,10.65));
#842=CARTESIAN_POINT('',(-14.15,8.4,10.7));
#843=CARTESIAN_POINT('',(-14.15,8.4,10.7));
#844=CARTESIAN_POINT('',(-14.15,8.4,10.65));
#845=CARTESIAN_POINT('Origin',(-13.15,8.4,10.65));
#846=CARTESIAN_POINT('',(-13.15,9.4,10.65));
#847=CARTESIAN_POINT('Origin',(-13.15,8.4,10.65));
#848=CARTESIAN_POINT('',(-13.15,9.4,10.7));
#849=CARTESIAN_POINT('Origin',(-13.15,8.4,10.7));
#850=CARTESIAN_POINT('',(-13.15,9.4,10.65));
#851=CARTESIAN_POINT('Origin',(13.15,9.4,10.65));
#852=CARTESIAN_POINT('',(13.15,9.4,10.65));
#853=CARTESIAN_POINT('',(13.15,9.4,10.7));
#854=CARTESIAN_POINT('Origin',(2.9308824561581E-17,-3.223970701774E-15,
10.7));
#855=CARTESIAN_POINT('Origin',(2.9308824561581E-17,-3.223970701774E-15,
10.65));
#856=CARTESIAN_POINT('Origin',(-16.15,10.4,0.));
#857=CARTESIAN_POINT('',(-16.15,10.4,0.));
#858=CARTESIAN_POINT('',(-16.15,-10.4,0.));
#859=CARTESIAN_POINT('',(-16.15,10.4,0.));
#860=CARTESIAN_POINT('',(-16.15,-10.4,10.65));
#861=CARTESIAN_POINT('',(-16.15,-10.4,0.));
#862=CARTESIAN_POINT('',(-16.15,10.4,10.65));
#863=CARTESIAN_POINT('',(-16.15,10.4,10.65));
#864=CARTESIAN_POINT('',(-16.15,10.4,0.));
#865=CARTESIAN_POINT('Origin',(16.15,10.4,0.));
#866=CARTESIAN_POINT('',(16.15,10.4,0.));
#867=CARTESIAN_POINT('',(16.15,10.4,0.));
#868=CARTESIAN_POINT('',(16.15,10.4,10.65));
#869=CARTESIAN_POINT('',(16.15,10.4,10.65));
#870=CARTESIAN_POINT('',(16.15,10.4,0.));
#871=CARTESIAN_POINT('Origin',(16.15,-10.4,0.));
#872=CARTESIAN_POINT('',(16.15,-10.4,0.));
#873=CARTESIAN_POINT('',(16.15,-10.4,0.));
#874=CARTESIAN_POINT('',(16.15,-10.4,10.65));
#875=CARTESIAN_POINT('',(16.15,-10.4,10.65));
#876=CARTESIAN_POINT('',(16.15,-10.4,0.));
#877=CARTESIAN_POINT('Origin',(-16.15,-10.4,0.));
#878=CARTESIAN_POINT('',(-16.15,-10.4,0.));
#879=CARTESIAN_POINT('',(-16.15,-10.4,10.65));
#880=CARTESIAN_POINT('Origin',(4.35081943503005E-31,3.5527136788005E-15,
10.65));
#881=CARTESIAN_POINT('Origin',(4.29346399991666E-31,3.50587941184833E-15,
0.));
#882=CARTESIAN_POINT('Origin',(-12.15,-7.4,10.7));
#883=CARTESIAN_POINT('',(-11.65,-7.4,10.65));
#884=CARTESIAN_POINT('Origin',(-12.15,-7.4,10.65));
#885=CARTESIAN_POINT('',(-11.65,-7.4,10.7));
#886=CARTESIAN_POINT('Origin',(-12.15,-7.4,10.7));
#887=CARTESIAN_POINT('Origin',(-12.15,-7.40000000000001,10.7));
#888=CARTESIAN_POINT('Origin',(-12.15,-7.40000000000001,10.65));
#889=UNCERTAINTY_MEASURE_WITH_UNIT(LENGTH_MEASURE(0.01),#893,
'DISTANCE_ACCURACY_VALUE',
'Maximum model space distance between geometric entities at asserted c
onnectivities');
#890=UNCERTAINTY_MEASURE_WITH_UNIT(LENGTH_MEASURE(1.E-6),#893,
'DISTANCE_ACCURACY_VALUE',
'Maximum model space distance between geometric entities at asserted c
onnectivities');
#891=(
GEOMETRIC_REPRESENTATION_CONTEXT(3)
GLOBAL_UNCERTAINTY_ASSIGNED_CONTEXT((#889))
GLOBAL_UNIT_ASSIGNED_CONTEXT((#893,#895,#894))
REPRESENTATION_CONTEXT('','3D')
);
#892=(
GEOMETRIC_REPRESENTATION_CONTEXT(3)
GLOBAL_UNCERTAINTY_ASSIGNED_CONTEXT((#890))
GLOBAL_UNIT_ASSIGNED_CONTEXT((#893,#12,#894))
REPRESENTATION_CONTEXT('','3D')
);
#893=(
LENGTH_UNIT()
NAMED_UNIT(*)
SI_UNIT(.MILLI.,.METRE.)
);
#894=(
NAMED_UNIT(*)
SI_UNIT($,.STERADIAN.)
SOLID_ANGLE_UNIT()
);
#895=(
NAMED_UNIT(*)
PLANE_ANGLE_UNIT()
SI_UNIT($,.RADIAN.)
);
#896=SHAPE_DEFINITION_REPRESENTATION(#897,#898);
#897=PRODUCT_DEFINITION_SHAPE('',$,#900);
#898=SHAPE_REPRESENTATION('',(#519),#891);
#899=PRODUCT_DEFINITION_CONTEXT('part definition',#904,'design');
#900=PRODUCT_DEFINITION('Product','Product',#901,#899);
#901=PRODUCT_DEFINITION_FORMATION('',$,#906);
#902=PRODUCT_RELATED_PRODUCT_CATEGORY('Product','Product',(#906));
#903=APPLICATION_PROTOCOL_DEFINITION('international standard',
'automotive_design',2009,#904);
#904=APPLICATION_CONTEXT(
'Core Data for Automotive Mechanical Design Process');
#905=PRODUCT_CONTEXT('part definition',#904,'mechanical');
#906=PRODUCT('Product','Product',$,(#905));
#907=PRESENTATION_STYLE_ASSIGNMENT((#911));
#908=PRESENTATION_STYLE_ASSIGNMENT((#912));
#909=PRESENTATION_STYLE_ASSIGNMENT((#913));
#910=PRESENTATION_STYLE_ASSIGNMENT((#914));
#911=SURFACE_STYLE_USAGE(.BOTH.,#915);
#912=SURFACE_STYLE_USAGE(.BOTH.,#916);
#913=SURFACE_STYLE_USAGE(.BOTH.,#917);
#914=SURFACE_STYLE_USAGE(.BOTH.,#918);
#915=SURFACE_SIDE_STYLE('',(#919));
#916=SURFACE_SIDE_STYLE('',(#920));
#917=SURFACE_SIDE_STYLE('',(#921));
#918=SURFACE_SIDE_STYLE('',(#922));
#919=SURFACE_STYLE_FILL_AREA(#923);
#920=SURFACE_STYLE_FILL_AREA(#924);
#921=SURFACE_STYLE_FILL_AREA(#925);
#922=SURFACE_STYLE_FILL_AREA(#926);
#923=FILL_AREA_STYLE('',(#927));
#924=FILL_AREA_STYLE('',(#928));
#925=FILL_AREA_STYLE('',(#929));
#926=FILL_AREA_STYLE('',(#930));
#927=FILL_AREA_STYLE_COLOUR('',#931);
#928=FILL_AREA_STYLE_COLOUR('',#932);
#929=FILL_AREA_STYLE_COLOUR('',#933);
#930=FILL_AREA_STYLE_COLOUR('',#934);
#931=COLOUR_RGB('',1.,1.,1.);
#932=COLOUR_RGB('',0.866666666666667,0.866666666666667,0.866666666666667);
#933=COLOUR_RGB('',1.,0.,0.501960784313725);
#934=COLOUR_RGB('',0.329411764705882,0.329411764705882,0.329411764705882);
ENDSEC;
END-ISO-10303-21;
