ISO-10303-21;
HEADER;
/* Generated by software containing ST-Developer
 * from STEP Tools, Inc. (www.steptools.com) 
 */

FILE_DESCRIPTION(
/* description */ (''),
/* implementation_level */ '2;1');

FILE_NAME(
/* name */ 'S:\\bcivel\\Altium-Lib\\Compo\\DCDC_MURATA_MEJ2S.stp',
/* time_stamp */ '2016-04-06T11:27:39+02:00',
/* author */ ('bcivel'),
/* organization */ (''),
/* preprocessor_version */ 'ST-DEVELOPER v15.5',
/* originating_system */ 'AutoCAD Mechanical',
/* authorisation */ '');

FILE_SCHEMA (('AUTOMOTIVE_DESIGN { 1 0 10303 214 3 1 1 }'));
ENDSEC;

DATA;
#10=MECHANICAL_DESIGN_GEOMETRIC_PRESENTATION_REPRESENTATION('',(#26,#27,
#28,#29,#30,#31),#868);
#11=DIMENSIONAL_EXPONENTS(0.,0.,0.,0.,0.,0.,0.);
#12=(
CONVERSION_BASED_UNIT('degree',#13)
NAMED_UNIT(#11)
PLANE_ANGLE_UNIT()
);
#13=PLANE_ANGLE_MEASURE_WITH_UNIT(PLANE_ANGLE_MEASURE(0.01745329252),#871);
#14=PRESENTATION_LAYER_ASSIGNMENT('3D','',(#535,#536,#537,#538,#539,#540));
#15=FACE_BOUND($,#92,.T.);
#16=FACE_BOUND($,#96,.T.);
#17=FACE_BOUND($,#102,.T.);
#18=CIRCLE($,#567,0.75);
#19=CIRCLE($,#568,0.75);
#20=CIRCLE($,#577,0.75);
#21=CIRCLE($,#578,0.75);
#22=CYLINDRICAL_SURFACE($,#566,0.75);
#23=CYLINDRICAL_SURFACE($,#576,0.75);
#24=SHAPE_REPRESENTATION_RELATIONSHIP('SRR','None',#874,#25);
#25=ADVANCED_BREP_SHAPE_REPRESENTATION($,(#535,#536,#537,#538,#539,#540),
#867);
#26=STYLED_ITEM($,(#884),#535);
#27=STYLED_ITEM($,(#884),#536);
#28=STYLED_ITEM($,(#884),#537);
#29=STYLED_ITEM($,(#884),#538);
#30=STYLED_ITEM($,(#885),#539);
#31=STYLED_ITEM($,(#883),#540);
#32=FACE_OUTER_BOUND($,#67,.T.);
#33=FACE_OUTER_BOUND($,#68,.T.);
#34=FACE_OUTER_BOUND($,#69,.T.);
#35=FACE_OUTER_BOUND($,#70,.T.);
#36=FACE_OUTER_BOUND($,#71,.T.);
#37=FACE_OUTER_BOUND($,#72,.T.);
#38=FACE_OUTER_BOUND($,#73,.T.);
#39=FACE_OUTER_BOUND($,#74,.T.);
#40=FACE_OUTER_BOUND($,#75,.T.);
#41=FACE_OUTER_BOUND($,#76,.T.);
#42=FACE_OUTER_BOUND($,#77,.T.);
#43=FACE_OUTER_BOUND($,#78,.T.);
#44=FACE_OUTER_BOUND($,#79,.T.);
#45=FACE_OUTER_BOUND($,#80,.T.);
#46=FACE_OUTER_BOUND($,#81,.T.);
#47=FACE_OUTER_BOUND($,#82,.T.);
#48=FACE_OUTER_BOUND($,#83,.T.);
#49=FACE_OUTER_BOUND($,#84,.T.);
#50=FACE_OUTER_BOUND($,#85,.T.);
#51=FACE_OUTER_BOUND($,#86,.T.);
#52=FACE_OUTER_BOUND($,#87,.T.);
#53=FACE_OUTER_BOUND($,#88,.T.);
#54=FACE_OUTER_BOUND($,#89,.T.);
#55=FACE_OUTER_BOUND($,#90,.T.);
#56=FACE_OUTER_BOUND($,#91,.T.);
#57=FACE_OUTER_BOUND($,#93,.T.);
#58=FACE_OUTER_BOUND($,#94,.T.);
#59=FACE_OUTER_BOUND($,#95,.T.);
#60=FACE_OUTER_BOUND($,#97,.T.);
#61=FACE_OUTER_BOUND($,#98,.T.);
#62=FACE_OUTER_BOUND($,#99,.T.);
#63=FACE_OUTER_BOUND($,#100,.T.);
#64=FACE_OUTER_BOUND($,#101,.T.);
#65=FACE_OUTER_BOUND($,#103,.T.);
#66=FACE_OUTER_BOUND($,#104,.T.);
#67=EDGE_LOOP($,(#333,#334,#335,#336));
#68=EDGE_LOOP($,(#337,#338,#339,#340));
#69=EDGE_LOOP($,(#341,#342,#343,#344));
#70=EDGE_LOOP($,(#345,#346,#347,#348));
#71=EDGE_LOOP($,(#349,#350,#351,#352));
#72=EDGE_LOOP($,(#353,#354,#355,#356));
#73=EDGE_LOOP($,(#357,#358,#359,#360));
#74=EDGE_LOOP($,(#361,#362,#363,#364));
#75=EDGE_LOOP($,(#365,#366,#367,#368));
#76=EDGE_LOOP($,(#369,#370,#371,#372));
#77=EDGE_LOOP($,(#373,#374,#375,#376));
#78=EDGE_LOOP($,(#377,#378,#379,#380));
#79=EDGE_LOOP($,(#381,#382,#383,#384));
#80=EDGE_LOOP($,(#385,#386,#387,#388));
#81=EDGE_LOOP($,(#389,#390,#391,#392));
#82=EDGE_LOOP($,(#393,#394,#395,#396));
#83=EDGE_LOOP($,(#397,#398,#399,#400));
#84=EDGE_LOOP($,(#401,#402,#403,#404));
#85=EDGE_LOOP($,(#405,#406,#407,#408));
#86=EDGE_LOOP($,(#409,#410,#411,#412));
#87=EDGE_LOOP($,(#413,#414,#415,#416));
#88=EDGE_LOOP($,(#417,#418,#419,#420));
#89=EDGE_LOOP($,(#421,#422,#423,#424));
#90=EDGE_LOOP($,(#425,#426,#427,#428));
#91=EDGE_LOOP($,(#429));
#92=EDGE_LOOP($,(#430));
#93=EDGE_LOOP($,(#431));
#94=EDGE_LOOP($,(#432,#433,#434,#435));
#95=EDGE_LOOP($,(#436,#437,#438,#439));
#96=EDGE_LOOP($,(#440));
#97=EDGE_LOOP($,(#441,#442,#443,#444));
#98=EDGE_LOOP($,(#445,#446,#447,#448));
#99=EDGE_LOOP($,(#449,#450,#451,#452));
#100=EDGE_LOOP($,(#453,#454,#455,#456));
#101=EDGE_LOOP($,(#457));
#102=EDGE_LOOP($,(#458));
#103=EDGE_LOOP($,(#459));
#104=EDGE_LOOP($,(#460));
#105=LINE($,#725,#165);
#106=LINE($,#727,#166);
#107=LINE($,#729,#167);
#108=LINE($,#730,#168);
#109=LINE($,#733,#169);
#110=LINE($,#735,#170);
#111=LINE($,#736,#171);
#112=LINE($,#739,#172);
#113=LINE($,#741,#173);
#114=LINE($,#742,#174);
#115=LINE($,#744,#175);
#116=LINE($,#745,#176);
#117=LINE($,#751,#177);
#118=LINE($,#753,#178);
#119=LINE($,#755,#179);
#120=LINE($,#756,#180);
#121=LINE($,#759,#181);
#122=LINE($,#761,#182);
#123=LINE($,#762,#183);
#124=LINE($,#765,#184);
#125=LINE($,#767,#185);
#126=LINE($,#768,#186);
#127=LINE($,#770,#187);
#128=LINE($,#771,#188);
#129=LINE($,#777,#189);
#130=LINE($,#779,#190);
#131=LINE($,#781,#191);
#132=LINE($,#782,#192);
#133=LINE($,#785,#193);
#134=LINE($,#787,#194);
#135=LINE($,#788,#195);
#136=LINE($,#791,#196);
#137=LINE($,#793,#197);
#138=LINE($,#794,#198);
#139=LINE($,#796,#199);
#140=LINE($,#797,#200);
#141=LINE($,#803,#201);
#142=LINE($,#805,#202);
#143=LINE($,#807,#203);
#144=LINE($,#808,#204);
#145=LINE($,#811,#205);
#146=LINE($,#813,#206);
#147=LINE($,#814,#207);
#148=LINE($,#817,#208);
#149=LINE($,#819,#209);
#150=LINE($,#820,#210);
#151=LINE($,#822,#211);
#152=LINE($,#823,#212);
#153=LINE($,#835,#213);
#154=LINE($,#837,#214);
#155=LINE($,#839,#215);
#156=LINE($,#840,#216);
#157=LINE($,#843,#217);
#158=LINE($,#845,#218);
#159=LINE($,#846,#219);
#160=LINE($,#849,#220);
#161=LINE($,#851,#221);
#162=LINE($,#852,#222);
#163=LINE($,#854,#223);
#164=LINE($,#855,#224);
#165=VECTOR($,#585,0.300000000000001);
#166=VECTOR($,#586,4.);
#167=VECTOR($,#587,0.300000000000001);
#168=VECTOR($,#588,4.);
#169=VECTOR($,#591,0.549999999999999);
#170=VECTOR($,#592,4.);
#171=VECTOR($,#593,0.549999999999999);
#172=VECTOR($,#596,0.300000000000001);
#173=VECTOR($,#597,4.);
#174=VECTOR($,#598,0.300000000000001);
#175=VECTOR($,#601,0.549999999999999);
#176=VECTOR($,#602,0.549999999999999);
#177=VECTOR($,#609,0.300000000000001);
#178=VECTOR($,#610,4.);
#179=VECTOR($,#611,0.300000000000001);
#180=VECTOR($,#612,4.);
#181=VECTOR($,#615,0.549999999999999);
#182=VECTOR($,#616,4.);
#183=VECTOR($,#617,0.549999999999999);
#184=VECTOR($,#620,0.300000000000001);
#185=VECTOR($,#621,4.);
#186=VECTOR($,#622,0.300000000000001);
#187=VECTOR($,#625,0.549999999999999);
#188=VECTOR($,#626,0.549999999999999);
#189=VECTOR($,#633,0.300000000000001);
#190=VECTOR($,#634,4.);
#191=VECTOR($,#635,0.300000000000001);
#192=VECTOR($,#636,4.);
#193=VECTOR($,#639,0.549999999999999);
#194=VECTOR($,#640,4.);
#195=VECTOR($,#641,0.549999999999999);
#196=VECTOR($,#644,0.300000000000001);
#197=VECTOR($,#645,4.);
#198=VECTOR($,#646,0.300000000000001);
#199=VECTOR($,#649,0.549999999999999);
#200=VECTOR($,#650,0.549999999999999);
#201=VECTOR($,#657,0.300000000000001);
#202=VECTOR($,#658,4.);
#203=VECTOR($,#659,0.300000000000001);
#204=VECTOR($,#660,4.);
#205=VECTOR($,#663,0.549999999999999);
#206=VECTOR($,#664,4.);
#207=VECTOR($,#665,0.549999999999999);
#208=VECTOR($,#668,0.300000000000001);
#209=VECTOR($,#669,4.);
#210=VECTOR($,#670,0.300000000000001);
#211=VECTOR($,#673,0.549999999999999);
#212=VECTOR($,#674,0.549999999999999);
#213=VECTOR($,#689,9.95);
#214=VECTOR($,#690,12.25);
#215=VECTOR($,#691,9.95);
#216=VECTOR($,#692,12.25);
#217=VECTOR($,#695,19.65);
#218=VECTOR($,#696,12.25);
#219=VECTOR($,#697,19.65);
#220=VECTOR($,#700,9.95);
#221=VECTOR($,#701,12.25);
#222=VECTOR($,#702,9.95);
#223=VECTOR($,#705,19.65);
#224=VECTOR($,#706,19.65);
#225=VERTEX_POINT($,#723);
#226=VERTEX_POINT($,#724);
#227=VERTEX_POINT($,#726);
#228=VERTEX_POINT($,#728);
#229=VERTEX_POINT($,#732);
#230=VERTEX_POINT($,#734);
#231=VERTEX_POINT($,#738);
#232=VERTEX_POINT($,#740);
#233=VERTEX_POINT($,#749);
#234=VERTEX_POINT($,#750);
#235=VERTEX_POINT($,#752);
#236=VERTEX_POINT($,#754);
#237=VERTEX_POINT($,#758);
#238=VERTEX_POINT($,#760);
#239=VERTEX_POINT($,#764);
#240=VERTEX_POINT($,#766);
#241=VERTEX_POINT($,#775);
#242=VERTEX_POINT($,#776);
#243=VERTEX_POINT($,#778);
#244=VERTEX_POINT($,#780);
#245=VERTEX_POINT($,#784);
#246=VERTEX_POINT($,#786);
#247=VERTEX_POINT($,#790);
#248=VERTEX_POINT($,#792);
#249=VERTEX_POINT($,#801);
#250=VERTEX_POINT($,#802);
#251=VERTEX_POINT($,#804);
#252=VERTEX_POINT($,#806);
#253=VERTEX_POINT($,#810);
#254=VERTEX_POINT($,#812);
#255=VERTEX_POINT($,#816);
#256=VERTEX_POINT($,#818);
#257=VERTEX_POINT($,#827);
#258=VERTEX_POINT($,#829);
#259=VERTEX_POINT($,#833);
#260=VERTEX_POINT($,#834);
#261=VERTEX_POINT($,#836);
#262=VERTEX_POINT($,#838);
#263=VERTEX_POINT($,#842);
#264=VERTEX_POINT($,#844);
#265=VERTEX_POINT($,#848);
#266=VERTEX_POINT($,#850);
#267=VERTEX_POINT($,#859);
#268=VERTEX_POINT($,#861);
#269=EDGE_CURVE($,#225,#226,#105,.T.);
#270=EDGE_CURVE($,#227,#226,#106,.T.);
#271=EDGE_CURVE($,#228,#227,#107,.T.);
#272=EDGE_CURVE($,#228,#225,#108,.T.);
#273=EDGE_CURVE($,#226,#229,#109,.T.);
#274=EDGE_CURVE($,#230,#229,#110,.T.);
#275=EDGE_CURVE($,#227,#230,#111,.T.);
#276=EDGE_CURVE($,#229,#231,#112,.T.);
#277=EDGE_CURVE($,#232,#231,#113,.T.);
#278=EDGE_CURVE($,#230,#232,#114,.T.);
#279=EDGE_CURVE($,#231,#225,#115,.T.);
#280=EDGE_CURVE($,#232,#228,#116,.T.);
#281=EDGE_CURVE($,#233,#234,#117,.T.);
#282=EDGE_CURVE($,#235,#234,#118,.T.);
#283=EDGE_CURVE($,#236,#235,#119,.T.);
#284=EDGE_CURVE($,#236,#233,#120,.T.);
#285=EDGE_CURVE($,#234,#237,#121,.T.);
#286=EDGE_CURVE($,#238,#237,#122,.T.);
#287=EDGE_CURVE($,#235,#238,#123,.T.);
#288=EDGE_CURVE($,#237,#239,#124,.T.);
#289=EDGE_CURVE($,#240,#239,#125,.T.);
#290=EDGE_CURVE($,#238,#240,#126,.T.);
#291=EDGE_CURVE($,#239,#233,#127,.T.);
#292=EDGE_CURVE($,#240,#236,#128,.T.);
#293=EDGE_CURVE($,#241,#242,#129,.T.);
#294=EDGE_CURVE($,#243,#242,#130,.T.);
#295=EDGE_CURVE($,#244,#243,#131,.T.);
#296=EDGE_CURVE($,#244,#241,#132,.T.);
#297=EDGE_CURVE($,#242,#245,#133,.T.);
#298=EDGE_CURVE($,#246,#245,#134,.T.);
#299=EDGE_CURVE($,#243,#246,#135,.T.);
#300=EDGE_CURVE($,#245,#247,#136,.T.);
#301=EDGE_CURVE($,#248,#247,#137,.T.);
#302=EDGE_CURVE($,#246,#248,#138,.T.);
#303=EDGE_CURVE($,#247,#241,#139,.T.);
#304=EDGE_CURVE($,#248,#244,#140,.T.);
#305=EDGE_CURVE($,#249,#250,#141,.T.);
#306=EDGE_CURVE($,#251,#250,#142,.T.);
#307=EDGE_CURVE($,#252,#251,#143,.T.);
#308=EDGE_CURVE($,#252,#249,#144,.T.);
#309=EDGE_CURVE($,#250,#253,#145,.T.);
#310=EDGE_CURVE($,#254,#253,#146,.T.);
#311=EDGE_CURVE($,#251,#254,#147,.T.);
#312=EDGE_CURVE($,#253,#255,#148,.T.);
#313=EDGE_CURVE($,#256,#255,#149,.T.);
#314=EDGE_CURVE($,#254,#256,#150,.T.);
#315=EDGE_CURVE($,#255,#249,#151,.T.);
#316=EDGE_CURVE($,#256,#252,#152,.T.);
#317=EDGE_CURVE($,#257,#257,#18,.T.);
#318=EDGE_CURVE($,#258,#258,#19,.T.);
#319=EDGE_CURVE($,#259,#260,#153,.T.);
#320=EDGE_CURVE($,#261,#260,#154,.T.);
#321=EDGE_CURVE($,#262,#261,#155,.T.);
#322=EDGE_CURVE($,#262,#259,#156,.T.);
#323=EDGE_CURVE($,#260,#263,#157,.T.);
#324=EDGE_CURVE($,#264,#263,#158,.T.);
#325=EDGE_CURVE($,#261,#264,#159,.T.);
#326=EDGE_CURVE($,#263,#265,#160,.T.);
#327=EDGE_CURVE($,#266,#265,#161,.T.);
#328=EDGE_CURVE($,#264,#266,#162,.T.);
#329=EDGE_CURVE($,#265,#259,#163,.T.);
#330=EDGE_CURVE($,#266,#262,#164,.T.);
#331=EDGE_CURVE($,#267,#267,#20,.T.);
#332=EDGE_CURVE($,#268,#268,#21,.T.);
#333=ORIENTED_EDGE($,*,*,#269,.T.);
#334=ORIENTED_EDGE($,*,*,#270,.F.);
#335=ORIENTED_EDGE($,*,*,#271,.F.);
#336=ORIENTED_EDGE($,*,*,#272,.T.);
#337=ORIENTED_EDGE($,*,*,#273,.T.);
#338=ORIENTED_EDGE($,*,*,#274,.F.);
#339=ORIENTED_EDGE($,*,*,#275,.F.);
#340=ORIENTED_EDGE($,*,*,#270,.T.);
#341=ORIENTED_EDGE($,*,*,#276,.T.);
#342=ORIENTED_EDGE($,*,*,#277,.F.);
#343=ORIENTED_EDGE($,*,*,#278,.F.);
#344=ORIENTED_EDGE($,*,*,#274,.T.);
#345=ORIENTED_EDGE($,*,*,#279,.T.);
#346=ORIENTED_EDGE($,*,*,#272,.F.);
#347=ORIENTED_EDGE($,*,*,#280,.F.);
#348=ORIENTED_EDGE($,*,*,#277,.T.);
#349=ORIENTED_EDGE($,*,*,#269,.F.);
#350=ORIENTED_EDGE($,*,*,#279,.F.);
#351=ORIENTED_EDGE($,*,*,#276,.F.);
#352=ORIENTED_EDGE($,*,*,#273,.F.);
#353=ORIENTED_EDGE($,*,*,#280,.T.);
#354=ORIENTED_EDGE($,*,*,#271,.T.);
#355=ORIENTED_EDGE($,*,*,#275,.T.);
#356=ORIENTED_EDGE($,*,*,#278,.T.);
#357=ORIENTED_EDGE($,*,*,#281,.T.);
#358=ORIENTED_EDGE($,*,*,#282,.F.);
#359=ORIENTED_EDGE($,*,*,#283,.F.);
#360=ORIENTED_EDGE($,*,*,#284,.T.);
#361=ORIENTED_EDGE($,*,*,#285,.T.);
#362=ORIENTED_EDGE($,*,*,#286,.F.);
#363=ORIENTED_EDGE($,*,*,#287,.F.);
#364=ORIENTED_EDGE($,*,*,#282,.T.);
#365=ORIENTED_EDGE($,*,*,#288,.T.);
#366=ORIENTED_EDGE($,*,*,#289,.F.);
#367=ORIENTED_EDGE($,*,*,#290,.F.);
#368=ORIENTED_EDGE($,*,*,#286,.T.);
#369=ORIENTED_EDGE($,*,*,#291,.T.);
#370=ORIENTED_EDGE($,*,*,#284,.F.);
#371=ORIENTED_EDGE($,*,*,#292,.F.);
#372=ORIENTED_EDGE($,*,*,#289,.T.);
#373=ORIENTED_EDGE($,*,*,#281,.F.);
#374=ORIENTED_EDGE($,*,*,#291,.F.);
#375=ORIENTED_EDGE($,*,*,#288,.F.);
#376=ORIENTED_EDGE($,*,*,#285,.F.);
#377=ORIENTED_EDGE($,*,*,#292,.T.);
#378=ORIENTED_EDGE($,*,*,#283,.T.);
#379=ORIENTED_EDGE($,*,*,#287,.T.);
#380=ORIENTED_EDGE($,*,*,#290,.T.);
#381=ORIENTED_EDGE($,*,*,#293,.T.);
#382=ORIENTED_EDGE($,*,*,#294,.F.);
#383=ORIENTED_EDGE($,*,*,#295,.F.);
#384=ORIENTED_EDGE($,*,*,#296,.T.);
#385=ORIENTED_EDGE($,*,*,#297,.T.);
#386=ORIENTED_EDGE($,*,*,#298,.F.);
#387=ORIENTED_EDGE($,*,*,#299,.F.);
#388=ORIENTED_EDGE($,*,*,#294,.T.);
#389=ORIENTED_EDGE($,*,*,#300,.T.);
#390=ORIENTED_EDGE($,*,*,#301,.F.);
#391=ORIENTED_EDGE($,*,*,#302,.F.);
#392=ORIENTED_EDGE($,*,*,#298,.T.);
#393=ORIENTED_EDGE($,*,*,#303,.T.);
#394=ORIENTED_EDGE($,*,*,#296,.F.);
#395=ORIENTED_EDGE($,*,*,#304,.F.);
#396=ORIENTED_EDGE($,*,*,#301,.T.);
#397=ORIENTED_EDGE($,*,*,#293,.F.);
#398=ORIENTED_EDGE($,*,*,#303,.F.);
#399=ORIENTED_EDGE($,*,*,#300,.F.);
#400=ORIENTED_EDGE($,*,*,#297,.F.);
#401=ORIENTED_EDGE($,*,*,#304,.T.);
#402=ORIENTED_EDGE($,*,*,#295,.T.);
#403=ORIENTED_EDGE($,*,*,#299,.T.);
#404=ORIENTED_EDGE($,*,*,#302,.T.);
#405=ORIENTED_EDGE($,*,*,#305,.T.);
#406=ORIENTED_EDGE($,*,*,#306,.F.);
#407=ORIENTED_EDGE($,*,*,#307,.F.);
#408=ORIENTED_EDGE($,*,*,#308,.T.);
#409=ORIENTED_EDGE($,*,*,#309,.T.);
#410=ORIENTED_EDGE($,*,*,#310,.F.);
#411=ORIENTED_EDGE($,*,*,#311,.F.);
#412=ORIENTED_EDGE($,*,*,#306,.T.);
#413=ORIENTED_EDGE($,*,*,#312,.T.);
#414=ORIENTED_EDGE($,*,*,#313,.F.);
#415=ORIENTED_EDGE($,*,*,#314,.F.);
#416=ORIENTED_EDGE($,*,*,#310,.T.);
#417=ORIENTED_EDGE($,*,*,#315,.T.);
#418=ORIENTED_EDGE($,*,*,#308,.F.);
#419=ORIENTED_EDGE($,*,*,#316,.F.);
#420=ORIENTED_EDGE($,*,*,#313,.T.);
#421=ORIENTED_EDGE($,*,*,#305,.F.);
#422=ORIENTED_EDGE($,*,*,#315,.F.);
#423=ORIENTED_EDGE($,*,*,#312,.F.);
#424=ORIENTED_EDGE($,*,*,#309,.F.);
#425=ORIENTED_EDGE($,*,*,#316,.T.);
#426=ORIENTED_EDGE($,*,*,#307,.T.);
#427=ORIENTED_EDGE($,*,*,#311,.T.);
#428=ORIENTED_EDGE($,*,*,#314,.T.);
#429=ORIENTED_EDGE($,*,*,#317,.F.);
#430=ORIENTED_EDGE($,*,*,#318,.F.);
#431=ORIENTED_EDGE($,*,*,#317,.T.);
#432=ORIENTED_EDGE($,*,*,#319,.T.);
#433=ORIENTED_EDGE($,*,*,#320,.F.);
#434=ORIENTED_EDGE($,*,*,#321,.F.);
#435=ORIENTED_EDGE($,*,*,#322,.T.);
#436=ORIENTED_EDGE($,*,*,#323,.T.);
#437=ORIENTED_EDGE($,*,*,#324,.F.);
#438=ORIENTED_EDGE($,*,*,#325,.F.);
#439=ORIENTED_EDGE($,*,*,#320,.T.);
#440=ORIENTED_EDGE($,*,*,#318,.T.);
#441=ORIENTED_EDGE($,*,*,#326,.T.);
#442=ORIENTED_EDGE($,*,*,#327,.F.);
#443=ORIENTED_EDGE($,*,*,#328,.F.);
#444=ORIENTED_EDGE($,*,*,#324,.T.);
#445=ORIENTED_EDGE($,*,*,#329,.T.);
#446=ORIENTED_EDGE($,*,*,#322,.F.);
#447=ORIENTED_EDGE($,*,*,#330,.F.);
#448=ORIENTED_EDGE($,*,*,#327,.T.);
#449=ORIENTED_EDGE($,*,*,#319,.F.);
#450=ORIENTED_EDGE($,*,*,#329,.F.);
#451=ORIENTED_EDGE($,*,*,#326,.F.);
#452=ORIENTED_EDGE($,*,*,#323,.F.);
#453=ORIENTED_EDGE($,*,*,#330,.T.);
#454=ORIENTED_EDGE($,*,*,#321,.T.);
#455=ORIENTED_EDGE($,*,*,#325,.T.);
#456=ORIENTED_EDGE($,*,*,#328,.T.);
#457=ORIENTED_EDGE($,*,*,#331,.T.);
#458=ORIENTED_EDGE($,*,*,#332,.F.);
#459=ORIENTED_EDGE($,*,*,#331,.F.);
#460=ORIENTED_EDGE($,*,*,#332,.T.);
#461=PLANE($,#542);
#462=PLANE($,#543);
#463=PLANE($,#544);
#464=PLANE($,#545);
#465=PLANE($,#546);
#466=PLANE($,#547);
#467=PLANE($,#548);
#468=PLANE($,#549);
#469=PLANE($,#550);
#470=PLANE($,#551);
#471=PLANE($,#552);
#472=PLANE($,#553);
#473=PLANE($,#554);
#474=PLANE($,#555);
#475=PLANE($,#556);
#476=PLANE($,#557);
#477=PLANE($,#558);
#478=PLANE($,#559);
#479=PLANE($,#560);
#480=PLANE($,#561);
#481=PLANE($,#562);
#482=PLANE($,#563);
#483=PLANE($,#564);
#484=PLANE($,#565);
#485=PLANE($,#569);
#486=PLANE($,#570);
#487=PLANE($,#571);
#488=PLANE($,#572);
#489=PLANE($,#573);
#490=PLANE($,#574);
#491=PLANE($,#575);
#492=PLANE($,#579);
#493=PLANE($,#580);
#494=ADVANCED_FACE($,(#32),#461,.T.);
#495=ADVANCED_FACE($,(#33),#462,.T.);
#496=ADVANCED_FACE($,(#34),#463,.T.);
#497=ADVANCED_FACE($,(#35),#464,.T.);
#498=ADVANCED_FACE($,(#36),#465,.F.);
#499=ADVANCED_FACE($,(#37),#466,.T.);
#500=ADVANCED_FACE($,(#38),#467,.T.);
#501=ADVANCED_FACE($,(#39),#468,.T.);
#502=ADVANCED_FACE($,(#40),#469,.T.);
#503=ADVANCED_FACE($,(#41),#470,.T.);
#504=ADVANCED_FACE($,(#42),#471,.F.);
#505=ADVANCED_FACE($,(#43),#472,.T.);
#506=ADVANCED_FACE($,(#44),#473,.T.);
#507=ADVANCED_FACE($,(#45),#474,.T.);
#508=ADVANCED_FACE($,(#46),#475,.T.);
#509=ADVANCED_FACE($,(#47),#476,.T.);
#510=ADVANCED_FACE($,(#48),#477,.F.);
#511=ADVANCED_FACE($,(#49),#478,.T.);
#512=ADVANCED_FACE($,(#50),#479,.T.);
#513=ADVANCED_FACE($,(#51),#480,.T.);
#514=ADVANCED_FACE($,(#52),#481,.T.);
#515=ADVANCED_FACE($,(#53),#482,.T.);
#516=ADVANCED_FACE($,(#54),#483,.F.);
#517=ADVANCED_FACE($,(#55),#484,.T.);
#518=ADVANCED_FACE($,(#56,#15),#22,.F.);
#519=ADVANCED_FACE($,(#57),#485,.T.);
#520=ADVANCED_FACE($,(#58),#486,.T.);
#521=ADVANCED_FACE($,(#59,#16),#487,.T.);
#522=ADVANCED_FACE($,(#60),#488,.T.);
#523=ADVANCED_FACE($,(#61),#489,.T.);
#524=ADVANCED_FACE($,(#62),#490,.T.);
#525=ADVANCED_FACE($,(#63),#491,.F.);
#526=ADVANCED_FACE($,(#64,#17),#23,.T.);
#527=ADVANCED_FACE($,(#65),#492,.F.);
#528=ADVANCED_FACE($,(#66),#493,.T.);
#529=CLOSED_SHELL($,(#494,#495,#496,#497,#498,#499));
#530=CLOSED_SHELL($,(#500,#501,#502,#503,#504,#505));
#531=CLOSED_SHELL($,(#506,#507,#508,#509,#510,#511));
#532=CLOSED_SHELL($,(#512,#513,#514,#515,#516,#517));
#533=CLOSED_SHELL($,(#518,#519,#520,#521,#522,#523,#524,#525));
#534=CLOSED_SHELL($,(#526,#527,#528));
#535=MANIFOLD_SOLID_BREP('2C24',#529);
#536=MANIFOLD_SOLID_BREP('2C2C',#530);
#537=MANIFOLD_SOLID_BREP('2C30',#531);
#538=MANIFOLD_SOLID_BREP('2C34',#532);
#539=MANIFOLD_SOLID_BREP('2C63',#533);
#540=MANIFOLD_SOLID_BREP('2C6C',#534);
#541=AXIS2_PLACEMENT_3D('placement',#721,#581,#582);
#542=AXIS2_PLACEMENT_3D($,#722,#583,#584);
#543=AXIS2_PLACEMENT_3D($,#731,#589,#590);
#544=AXIS2_PLACEMENT_3D($,#737,#594,#595);
#545=AXIS2_PLACEMENT_3D($,#743,#599,#600);
#546=AXIS2_PLACEMENT_3D($,#746,#603,#604);
#547=AXIS2_PLACEMENT_3D($,#747,#605,#606);
#548=AXIS2_PLACEMENT_3D($,#748,#607,#608);
#549=AXIS2_PLACEMENT_3D($,#757,#613,#614);
#550=AXIS2_PLACEMENT_3D($,#763,#618,#619);
#551=AXIS2_PLACEMENT_3D($,#769,#623,#624);
#552=AXIS2_PLACEMENT_3D($,#772,#627,#628);
#553=AXIS2_PLACEMENT_3D($,#773,#629,#630);
#554=AXIS2_PLACEMENT_3D($,#774,#631,#632);
#555=AXIS2_PLACEMENT_3D($,#783,#637,#638);
#556=AXIS2_PLACEMENT_3D($,#789,#642,#643);
#557=AXIS2_PLACEMENT_3D($,#795,#647,#648);
#558=AXIS2_PLACEMENT_3D($,#798,#651,#652);
#559=AXIS2_PLACEMENT_3D($,#799,#653,#654);
#560=AXIS2_PLACEMENT_3D($,#800,#655,#656);
#561=AXIS2_PLACEMENT_3D($,#809,#661,#662);
#562=AXIS2_PLACEMENT_3D($,#815,#666,#667);
#563=AXIS2_PLACEMENT_3D($,#821,#671,#672);
#564=AXIS2_PLACEMENT_3D($,#824,#675,#676);
#565=AXIS2_PLACEMENT_3D($,#825,#677,#678);
#566=AXIS2_PLACEMENT_3D($,#826,#679,#680);
#567=AXIS2_PLACEMENT_3D($,#828,#681,#682);
#568=AXIS2_PLACEMENT_3D($,#830,#683,#684);
#569=AXIS2_PLACEMENT_3D($,#831,#685,#686);
#570=AXIS2_PLACEMENT_3D($,#832,#687,#688);
#571=AXIS2_PLACEMENT_3D($,#841,#693,#694);
#572=AXIS2_PLACEMENT_3D($,#847,#698,#699);
#573=AXIS2_PLACEMENT_3D($,#853,#703,#704);
#574=AXIS2_PLACEMENT_3D($,#856,#707,#708);
#575=AXIS2_PLACEMENT_3D($,#857,#709,#710);
#576=AXIS2_PLACEMENT_3D($,#858,#711,#712);
#577=AXIS2_PLACEMENT_3D($,#860,#713,#714);
#578=AXIS2_PLACEMENT_3D($,#862,#715,#716);
#579=AXIS2_PLACEMENT_3D($,#863,#717,#718);
#580=AXIS2_PLACEMENT_3D($,#864,#719,#720);
#581=DIRECTION('axis',(0.,0.,1.));
#582=DIRECTION('refdir',(1.,0.,0.));
#583=DIRECTION('center_axis',(1.,-1.22464679914735E-16,0.));
#584=DIRECTION('ref_axis',(0.,0.,1.));
#585=DIRECTION($,(1.22464679914735E-16,1.,0.));
#586=DIRECTION($,(0.,0.,-1.));
#587=DIRECTION($,(1.22464679914735E-16,1.,0.));
#588=DIRECTION($,(0.,0.,-1.));
#589=DIRECTION('center_axis',(1.22464679914735E-16,1.,0.));
#590=DIRECTION('ref_axis',(0.,0.,-1.));
#591=DIRECTION($,(-1.,1.22464679914735E-16,0.));
#592=DIRECTION($,(0.,0.,-1.));
#593=DIRECTION($,(-1.,1.22464679914735E-16,0.));
#594=DIRECTION('center_axis',(-1.,1.22464679914735E-16,0.));
#595=DIRECTION('ref_axis',(0.,0.,-1.));
#596=DIRECTION($,(-1.22464679914735E-16,-1.,0.));
#597=DIRECTION($,(0.,0.,-1.));
#598=DIRECTION($,(-1.22464679914735E-16,-1.,0.));
#599=DIRECTION('center_axis',(-1.22464679914735E-16,-1.,0.));
#600=DIRECTION('ref_axis',(0.,0.,1.));
#601=DIRECTION($,(1.,-1.22464679914735E-16,0.));
#602=DIRECTION($,(1.,-1.22464679914735E-16,0.));
#603=DIRECTION('center_axis',(8.90351212874341E-30,-7.82999961801827E-46,
1.));
#604=DIRECTION('ref_axis',(-1.,0.,0.));
#605=DIRECTION('center_axis',(2.64186179557796E-29,8.17641900104664E-32,
1.));
#606=DIRECTION('ref_axis',(-1.,0.,0.));
#607=DIRECTION('center_axis',(1.,-1.22464679914735E-16,0.));
#608=DIRECTION('ref_axis',(0.,0.,1.));
#609=DIRECTION($,(1.22464679914735E-16,1.,0.));
#610=DIRECTION($,(0.,0.,-1.));
#611=DIRECTION($,(1.22464679914735E-16,1.,0.));
#612=DIRECTION($,(0.,0.,-1.));
#613=DIRECTION('center_axis',(1.22464679914735E-16,1.,0.));
#614=DIRECTION('ref_axis',(0.,0.,-1.));
#615=DIRECTION($,(-1.,1.22464679914735E-16,0.));
#616=DIRECTION($,(0.,0.,-1.));
#617=DIRECTION($,(-1.,1.22464679914735E-16,0.));
#618=DIRECTION('center_axis',(-1.,1.22464679914735E-16,0.));
#619=DIRECTION('ref_axis',(0.,0.,-1.));
#620=DIRECTION($,(-1.22464679914735E-16,-1.,0.));
#621=DIRECTION($,(0.,0.,-1.));
#622=DIRECTION($,(-1.22464679914735E-16,-1.,0.));
#623=DIRECTION('center_axis',(-1.22464679914735E-16,-1.,0.));
#624=DIRECTION('ref_axis',(0.,0.,1.));
#625=DIRECTION($,(1.,-1.22464679914735E-16,0.));
#626=DIRECTION($,(1.,-1.22464679914735E-16,0.));
#627=DIRECTION('center_axis',(8.90351212874341E-30,-7.82999961801827E-46,
1.));
#628=DIRECTION('ref_axis',(-1.,0.,0.));
#629=DIRECTION('center_axis',(2.64186179557796E-29,8.17641900104664E-32,
1.));
#630=DIRECTION('ref_axis',(-1.,0.,0.));
#631=DIRECTION('center_axis',(1.,-1.22464679914735E-16,0.));
#632=DIRECTION('ref_axis',(0.,0.,1.));
#633=DIRECTION($,(1.22464679914735E-16,1.,0.));
#634=DIRECTION($,(0.,0.,-1.));
#635=DIRECTION($,(1.22464679914735E-16,1.,0.));
#636=DIRECTION($,(0.,0.,-1.));
#637=DIRECTION('center_axis',(1.22464679914735E-16,1.,0.));
#638=DIRECTION('ref_axis',(0.,0.,-1.));
#639=DIRECTION($,(-1.,1.22464679914735E-16,0.));
#640=DIRECTION($,(0.,0.,-1.));
#641=DIRECTION($,(-1.,1.22464679914735E-16,0.));
#642=DIRECTION('center_axis',(-1.,1.22464679914735E-16,0.));
#643=DIRECTION('ref_axis',(0.,0.,-1.));
#644=DIRECTION($,(-1.22464679914735E-16,-1.,0.));
#645=DIRECTION($,(0.,0.,-1.));
#646=DIRECTION($,(-1.22464679914735E-16,-1.,0.));
#647=DIRECTION('center_axis',(-1.22464679914735E-16,-1.,0.));
#648=DIRECTION('ref_axis',(0.,0.,1.));
#649=DIRECTION($,(1.,-1.22464679914735E-16,0.));
#650=DIRECTION($,(1.,-1.22464679914735E-16,0.));
#651=DIRECTION('center_axis',(8.90351212874341E-30,-7.82999961801827E-46,
1.));
#652=DIRECTION('ref_axis',(-1.,0.,0.));
#653=DIRECTION('center_axis',(2.64186179557796E-29,8.17641900104664E-32,
1.));
#654=DIRECTION('ref_axis',(-1.,0.,0.));
#655=DIRECTION('center_axis',(1.,-1.22464679914735E-16,0.));
#656=DIRECTION('ref_axis',(0.,0.,1.));
#657=DIRECTION($,(1.22464679914735E-16,1.,0.));
#658=DIRECTION($,(0.,0.,-1.));
#659=DIRECTION($,(1.22464679914735E-16,1.,0.));
#660=DIRECTION($,(0.,0.,-1.));
#661=DIRECTION('center_axis',(1.22464679914735E-16,1.,0.));
#662=DIRECTION('ref_axis',(0.,0.,-1.));
#663=DIRECTION($,(-1.,1.22464679914735E-16,0.));
#664=DIRECTION($,(0.,0.,-1.));
#665=DIRECTION($,(-1.,1.22464679914735E-16,0.));
#666=DIRECTION('center_axis',(-1.,1.22464679914735E-16,0.));
#667=DIRECTION('ref_axis',(0.,0.,-1.));
#668=DIRECTION($,(-1.22464679914735E-16,-1.,0.));
#669=DIRECTION($,(0.,0.,-1.));
#670=DIRECTION($,(-1.22464679914735E-16,-1.,0.));
#671=DIRECTION('center_axis',(-1.22464679914735E-16,-1.,0.));
#672=DIRECTION('ref_axis',(0.,0.,1.));
#673=DIRECTION($,(1.,-1.22464679914735E-16,0.));
#674=DIRECTION($,(1.,-1.22464679914735E-16,0.));
#675=DIRECTION('center_axis',(8.90351212874341E-30,-7.82999961801827E-46,
1.));
#676=DIRECTION('ref_axis',(-1.,0.,0.));
#677=DIRECTION('center_axis',(2.64186179557796E-29,8.17641900104664E-32,
1.));
#678=DIRECTION('ref_axis',(-1.,0.,0.));
#679=DIRECTION('center_axis',(0.,1.,0.));
#680=DIRECTION('ref_axis',(1.,0.,0.));
#681=DIRECTION('center_axis',(0.,-1.,2.22044604925031E-16));
#682=DIRECTION('ref_axis',(1.,0.,0.));
#683=DIRECTION('center_axis',(0.,1.,0.));
#684=DIRECTION('ref_axis',(1.,0.,0.));
#685=DIRECTION('center_axis',(0.,-1.,2.22044604925031E-16));
#686=DIRECTION('ref_axis',(0.,0.,-1.));
#687=DIRECTION('center_axis',(1.,0.,0.));
#688=DIRECTION('ref_axis',(0.,0.,-1.));
#689=DIRECTION($,(0.,-1.,0.));
#690=DIRECTION($,(0.,0.,1.));
#691=DIRECTION($,(0.,-1.,0.));
#692=DIRECTION($,(0.,0.,1.));
#693=DIRECTION('center_axis',(0.,-1.,0.));
#694=DIRECTION('ref_axis',(0.,0.,-1.));
#695=DIRECTION($,(-1.,0.,0.));
#696=DIRECTION($,(0.,0.,1.));
#697=DIRECTION($,(-1.,0.,0.));
#698=DIRECTION('center_axis',(-1.,0.,0.));
#699=DIRECTION('ref_axis',(0.,0.,1.));
#700=DIRECTION($,(0.,1.,0.));
#701=DIRECTION($,(0.,0.,1.));
#702=DIRECTION($,(0.,1.,0.));
#703=DIRECTION('center_axis',(0.,1.,0.));
#704=DIRECTION('ref_axis',(0.,0.,1.));
#705=DIRECTION($,(1.,0.,0.));
#706=DIRECTION($,(1.,0.,0.));
#707=DIRECTION('center_axis',(-4.57395387273766E-34,1.3379256868964E-33,
1.));
#708=DIRECTION('ref_axis',(1.,0.,0.));
#709=DIRECTION('center_axis',(4.57395387273766E-34,4.90572751862014E-33,
1.));
#710=DIRECTION('ref_axis',(1.,0.,0.));
#711=DIRECTION('center_axis',(0.,1.,0.));
#712=DIRECTION('ref_axis',(1.,0.,0.));
#713=DIRECTION('center_axis',(0.,-1.,2.22044604925031E-16));
#714=DIRECTION('ref_axis',(1.,0.,0.));
#715=DIRECTION('center_axis',(0.,-1.,2.22044604925031E-16));
#716=DIRECTION('ref_axis',(1.,0.,0.));
#717=DIRECTION('center_axis',(0.,-1.,2.22044604925031E-16));
#718=DIRECTION('ref_axis',(0.,0.,-1.));
#719=DIRECTION('center_axis',(0.,-1.,2.22044604925031E-16));
#720=DIRECTION('ref_axis',(0.,0.,-1.));
#721=CARTESIAN_POINT('',(0.,0.,0.));
#722=CARTESIAN_POINT('Origin',(8.64,2.325,0.4));
#723=CARTESIAN_POINT('',(8.64,2.325,-3.6));
#724=CARTESIAN_POINT('',(8.64,2.625,-3.6));
#725=CARTESIAN_POINT($,(8.64,2.325,-3.6));
#726=CARTESIAN_POINT('',(8.64,2.625,0.4));
#727=CARTESIAN_POINT($,(8.64,2.625,0.4));
#728=CARTESIAN_POINT('',(8.64,2.325,0.4));
#729=CARTESIAN_POINT($,(8.64,2.325,0.4));
#730=CARTESIAN_POINT($,(8.64,2.325,0.4));
#731=CARTESIAN_POINT('Origin',(8.64,2.625,0.4));
#732=CARTESIAN_POINT('',(8.09,2.625,-3.6));
#733=CARTESIAN_POINT($,(8.64,2.625,-3.6));
#734=CARTESIAN_POINT('',(8.09,2.625,0.4));
#735=CARTESIAN_POINT($,(8.09,2.625,0.4));
#736=CARTESIAN_POINT($,(8.64,2.625,0.4));
#737=CARTESIAN_POINT('Origin',(8.09,2.625,0.4));
#738=CARTESIAN_POINT('',(8.09,2.325,-3.6));
#739=CARTESIAN_POINT($,(8.09,2.625,-3.6));
#740=CARTESIAN_POINT('',(8.09,2.325,0.4));
#741=CARTESIAN_POINT($,(8.09,2.325,0.4));
#742=CARTESIAN_POINT($,(8.09,2.625,0.4));
#743=CARTESIAN_POINT('Origin',(8.09,2.325,0.4));
#744=CARTESIAN_POINT($,(8.09,2.325,-3.6));
#745=CARTESIAN_POINT($,(8.09,2.325,0.4));
#746=CARTESIAN_POINT('Origin',(8.365,2.475,-3.6));
#747=CARTESIAN_POINT('Origin',(8.365,2.475,0.4));
#748=CARTESIAN_POINT('Origin',(3.56,2.325,0.4));
#749=CARTESIAN_POINT('',(3.56,2.325,-3.6));
#750=CARTESIAN_POINT('',(3.56,2.625,-3.6));
#751=CARTESIAN_POINT($,(3.56,2.325,-3.6));
#752=CARTESIAN_POINT('',(3.56,2.625,0.4));
#753=CARTESIAN_POINT($,(3.56,2.625,0.4));
#754=CARTESIAN_POINT('',(3.56,2.325,0.4));
#755=CARTESIAN_POINT($,(3.56,2.325,0.4));
#756=CARTESIAN_POINT($,(3.56,2.325,0.4));
#757=CARTESIAN_POINT('Origin',(3.56,2.625,0.4));
#758=CARTESIAN_POINT('',(3.01,2.625,-3.6));
#759=CARTESIAN_POINT($,(3.56,2.625,-3.6));
#760=CARTESIAN_POINT('',(3.01,2.625,0.4));
#761=CARTESIAN_POINT($,(3.01,2.625,0.4));
#762=CARTESIAN_POINT($,(3.56,2.625,0.4));
#763=CARTESIAN_POINT('Origin',(3.01,2.625,0.4));
#764=CARTESIAN_POINT('',(3.01,2.325,-3.6));
#765=CARTESIAN_POINT($,(3.01,2.625,-3.6));
#766=CARTESIAN_POINT('',(3.01,2.325,0.4));
#767=CARTESIAN_POINT($,(3.01,2.325,0.4));
#768=CARTESIAN_POINT($,(3.01,2.625,0.4));
#769=CARTESIAN_POINT('Origin',(3.01,2.325,0.4));
#770=CARTESIAN_POINT($,(3.01,2.325,-3.6));
#771=CARTESIAN_POINT($,(3.01,2.325,0.4));
#772=CARTESIAN_POINT('Origin',(3.285,2.475,-3.6));
#773=CARTESIAN_POINT('Origin',(3.285,2.475,0.4));
#774=CARTESIAN_POINT('Origin',(-4.06,2.325,0.4));
#775=CARTESIAN_POINT('',(-4.06,2.325,-3.6));
#776=CARTESIAN_POINT('',(-4.06,2.625,-3.6));
#777=CARTESIAN_POINT($,(-4.06,2.325,-3.6));
#778=CARTESIAN_POINT('',(-4.06,2.625,0.4));
#779=CARTESIAN_POINT($,(-4.06,2.625,0.4));
#780=CARTESIAN_POINT('',(-4.06,2.325,0.4));
#781=CARTESIAN_POINT($,(-4.06,2.325,0.4));
#782=CARTESIAN_POINT($,(-4.06,2.325,0.4));
#783=CARTESIAN_POINT('Origin',(-4.06,2.625,0.4));
#784=CARTESIAN_POINT('',(-4.61,2.625,-3.6));
#785=CARTESIAN_POINT($,(-4.06,2.625,-3.6));
#786=CARTESIAN_POINT('',(-4.61,2.625,0.4));
#787=CARTESIAN_POINT($,(-4.61,2.625,0.4));
#788=CARTESIAN_POINT($,(-4.06,2.625,0.4));
#789=CARTESIAN_POINT('Origin',(-4.61,2.625,0.4));
#790=CARTESIAN_POINT('',(-4.61,2.325,-3.6));
#791=CARTESIAN_POINT($,(-4.61,2.625,-3.6));
#792=CARTESIAN_POINT('',(-4.61,2.325,0.4));
#793=CARTESIAN_POINT($,(-4.61,2.325,0.4));
#794=CARTESIAN_POINT($,(-4.61,2.625,0.4));
#795=CARTESIAN_POINT('Origin',(-4.61,2.325,0.4));
#796=CARTESIAN_POINT($,(-4.61,2.325,-3.6));
#797=CARTESIAN_POINT($,(-4.61,2.325,0.4));
#798=CARTESIAN_POINT('Origin',(-4.335,2.475,-3.6));
#799=CARTESIAN_POINT('Origin',(-4.335,2.475,0.4));
#800=CARTESIAN_POINT('Origin',(-6.6,2.325,0.4));
#801=CARTESIAN_POINT('',(-6.6,2.325,-3.6));
#802=CARTESIAN_POINT('',(-6.6,2.625,-3.6));
#803=CARTESIAN_POINT($,(-6.6,2.325,-3.6));
#804=CARTESIAN_POINT('',(-6.6,2.625,0.4));
#805=CARTESIAN_POINT($,(-6.6,2.625,0.4));
#806=CARTESIAN_POINT('',(-6.6,2.325,0.4));
#807=CARTESIAN_POINT($,(-6.6,2.325,0.4));
#808=CARTESIAN_POINT($,(-6.6,2.325,0.4));
#809=CARTESIAN_POINT('Origin',(-6.6,2.625,0.4));
#810=CARTESIAN_POINT('',(-7.15,2.625,-3.6));
#811=CARTESIAN_POINT($,(-6.6,2.625,-3.6));
#812=CARTESIAN_POINT('',(-7.15,2.625,0.4));
#813=CARTESIAN_POINT($,(-7.15,2.625,0.4));
#814=CARTESIAN_POINT($,(-6.6,2.625,0.4));
#815=CARTESIAN_POINT('Origin',(-7.15,2.625,0.4));
#816=CARTESIAN_POINT('',(-7.15,2.325,-3.6));
#817=CARTESIAN_POINT($,(-7.15,2.625,-3.6));
#818=CARTESIAN_POINT('',(-7.15,2.325,0.4));
#819=CARTESIAN_POINT($,(-7.15,2.325,0.4));
#820=CARTESIAN_POINT($,(-7.15,2.625,0.4));
#821=CARTESIAN_POINT('Origin',(-7.15,2.325,0.4));
#822=CARTESIAN_POINT($,(-7.15,2.325,-3.6));
#823=CARTESIAN_POINT($,(-7.15,2.325,0.4));
#824=CARTESIAN_POINT('Origin',(-6.875,2.475,-3.6));
#825=CARTESIAN_POINT('Origin',(-6.875,2.475,0.4));
#826=CARTESIAN_POINT('Origin',(-6.875,-4.975,2.5));
#827=CARTESIAN_POINT('',(-6.125,-4.925,2.5));
#828=CARTESIAN_POINT('Origin',(-6.875,-4.925,2.5));
#829=CARTESIAN_POINT('',(-6.125,-4.975,2.5));
#830=CARTESIAN_POINT('Origin',(-6.875,-4.975,2.5));
#831=CARTESIAN_POINT('Origin',(-6.875,-4.925,2.5));
#832=CARTESIAN_POINT('Origin',(9.825,4.975,0.4));
#833=CARTESIAN_POINT('',(9.825,4.975,12.65));
#834=CARTESIAN_POINT('',(9.825,-4.975,12.65));
#835=CARTESIAN_POINT($,(9.825,4.975,12.65));
#836=CARTESIAN_POINT('',(9.825,-4.975,0.4));
#837=CARTESIAN_POINT($,(9.825,-4.975,0.4));
#838=CARTESIAN_POINT('',(9.825,4.975,0.4));
#839=CARTESIAN_POINT($,(9.825,4.975,0.4));
#840=CARTESIAN_POINT($,(9.825,4.975,0.4));
#841=CARTESIAN_POINT('Origin',(9.825,-4.975,0.4));
#842=CARTESIAN_POINT('',(-9.825,-4.975,12.65));
#843=CARTESIAN_POINT($,(9.825,-4.975,12.65));
#844=CARTESIAN_POINT('',(-9.825,-4.975,0.4));
#845=CARTESIAN_POINT($,(-9.825,-4.975,0.4));
#846=CARTESIAN_POINT($,(9.825,-4.975,0.4));
#847=CARTESIAN_POINT('Origin',(-9.825,-4.975,0.4));
#848=CARTESIAN_POINT('',(-9.825,4.975,12.65));
#849=CARTESIAN_POINT($,(-9.825,-4.975,12.65));
#850=CARTESIAN_POINT('',(-9.825,4.975,0.4));
#851=CARTESIAN_POINT($,(-9.825,4.975,0.4));
#852=CARTESIAN_POINT($,(-9.825,-4.975,0.4));
#853=CARTESIAN_POINT('Origin',(-9.825,4.975,0.4));
#854=CARTESIAN_POINT($,(-9.825,4.975,12.65));
#855=CARTESIAN_POINT($,(-9.825,4.975,0.4));
#856=CARTESIAN_POINT('Origin',(0.,0.,12.65));
#857=CARTESIAN_POINT('Origin',(0.,0.,0.4));
#858=CARTESIAN_POINT('Origin',(-6.875,-4.975,2.5));
#859=CARTESIAN_POINT('',(-6.125,-4.925,2.5));
#860=CARTESIAN_POINT('Origin',(-6.875,-4.925,2.5));
#861=CARTESIAN_POINT('',(-6.125,-4.975,2.5));
#862=CARTESIAN_POINT('Origin',(-6.875,-4.975,2.5));
#863=CARTESIAN_POINT('Origin',(-6.875,-4.925,2.5));
#864=CARTESIAN_POINT('Origin',(-6.875,-4.975,2.5));
#865=UNCERTAINTY_MEASURE_WITH_UNIT(LENGTH_MEASURE(0.01),#869,
'DISTANCE_ACCURACY_VALUE',
'Maximum model space distance between geometric entities at asserted c
onnectivities');
#866=UNCERTAINTY_MEASURE_WITH_UNIT(LENGTH_MEASURE(1.E-6),#869,
'DISTANCE_ACCURACY_VALUE',
'Maximum model space distance between geometric entities at asserted c
onnectivities');
#867=(
GEOMETRIC_REPRESENTATION_CONTEXT(3)
GLOBAL_UNCERTAINTY_ASSIGNED_CONTEXT((#865))
GLOBAL_UNIT_ASSIGNED_CONTEXT((#869,#871,#870))
REPRESENTATION_CONTEXT('','3D')
);
#868=(
GEOMETRIC_REPRESENTATION_CONTEXT(3)
GLOBAL_UNCERTAINTY_ASSIGNED_CONTEXT((#866))
GLOBAL_UNIT_ASSIGNED_CONTEXT((#869,#12,#870))
REPRESENTATION_CONTEXT('','3D')
);
#869=(
LENGTH_UNIT()
NAMED_UNIT(*)
SI_UNIT(.MILLI.,.METRE.)
);
#870=(
NAMED_UNIT(*)
SI_UNIT($,.STERADIAN.)
SOLID_ANGLE_UNIT()
);
#871=(
NAMED_UNIT(*)
PLANE_ANGLE_UNIT()
SI_UNIT($,.RADIAN.)
);
#872=SHAPE_DEFINITION_REPRESENTATION(#873,#874);
#873=PRODUCT_DEFINITION_SHAPE('',$,#876);
#874=SHAPE_REPRESENTATION('',(#541),#867);
#875=PRODUCT_DEFINITION_CONTEXT('part definition',#880,'design');
#876=PRODUCT_DEFINITION('Product','Product',#877,#875);
#877=PRODUCT_DEFINITION_FORMATION('',$,#882);
#878=PRODUCT_RELATED_PRODUCT_CATEGORY('Product','Product',(#882));
#879=APPLICATION_PROTOCOL_DEFINITION('international standard',
'automotive_design',2009,#880);
#880=APPLICATION_CONTEXT(
'Core Data for Automotive Mechanical Design Process');
#881=PRODUCT_CONTEXT('part definition',#880,'mechanical');
#882=PRODUCT('Product','Product',$,(#881));
#883=PRESENTATION_STYLE_ASSIGNMENT((#886));
#884=PRESENTATION_STYLE_ASSIGNMENT((#887));
#885=PRESENTATION_STYLE_ASSIGNMENT((#888));
#886=SURFACE_STYLE_USAGE(.BOTH.,#889);
#887=SURFACE_STYLE_USAGE(.BOTH.,#890);
#888=SURFACE_STYLE_USAGE(.BOTH.,#891);
#889=SURFACE_SIDE_STYLE($,(#892));
#890=SURFACE_SIDE_STYLE($,(#893));
#891=SURFACE_SIDE_STYLE($,(#894));
#892=SURFACE_STYLE_FILL_AREA(#895);
#893=SURFACE_STYLE_FILL_AREA(#896);
#894=SURFACE_STYLE_FILL_AREA(#897);
#895=FILL_AREA_STYLE($,(#898));
#896=FILL_AREA_STYLE($,(#899));
#897=FILL_AREA_STYLE($,(#900));
#898=FILL_AREA_STYLE_COLOUR($,#901);
#899=FILL_AREA_STYLE_COLOUR($,#902);
#900=FILL_AREA_STYLE_COLOUR($,#903);
#901=COLOUR_RGB('',1.,1.,1.);
#902=COLOUR_RGB('',0.866666666666667,0.866666666666667,0.866666666666667);
#903=COLOUR_RGB('',0.329411764705882,0.329411764705882,0.329411764705882);
ENDSEC;
END-ISO-10303-21;
