ISO-10303-21;
HEADER;
/****************************************************************
 * Generated by software with PDElib inside                    *
 * PDElib Version v51a, created Fri 09/10/2010                  *
 * ITI Transcendata (http://www.transcendata.com/)              *
 ****************************************************************/
FILE_DESCRIPTION((''),'2;1');
FILE_NAME('DCDC_TRACO_THI.stp','2012-05-24T14:41:18',(''),(''),'Mechanical Desktop 2011','Mechanical Desktop 2011',', , ');
FILE_SCHEMA(('AUTOMOTIVE_DESIGN { 1 2 10303 214 1 1 1 1 }'));
ENDSEC;
DATA;
#10=(NAMED_UNIT(*)PLANE_ANGLE_UNIT()SI_UNIT($,.RADIAN.));
#11=DIMENSIONAL_EXPONENTS(0.0,0.0,0.0,0.0,0.0,0.0,0.0);
#12=PLANE_ANGLE_MEASURE_WITH_UNIT(PLANE_ANGLE_MEASURE(0.0174532925),#10);
#16=(CONVERSION_BASED_UNIT('DEGREE',#12)NAMED_UNIT(#11)PLANE_ANGLE_UNIT());
#20=(NAMED_UNIT(*)SI_UNIT($,.STERADIAN.)SOLID_ANGLE_UNIT());
#24=(LENGTH_UNIT()NAMED_UNIT(*)SI_UNIT(.MILLI.,.METRE.));
#26=UNCERTAINTY_MEASURE_WITH_UNIT(LENGTH_MEASURE(0.000001),#24,'DISTANCE_ACCURACY_VALUE','');
#28=(GEOMETRIC_REPRESENTATION_CONTEXT(3)GLOBAL_UNCERTAINTY_ASSIGNED_CONTEXT((#26))GLOBAL_UNIT_ASSIGNED_CONTEXT((#16,#20,#24))REPRESENTATION_CONTEXT('','3D'));
#29=APPLICATION_CONTEXT('automotive design');
#30=APPLICATION_PROTOCOL_DEFINITION('INTERNATIONAL_STANDARD','automotive_design',1998,#29);
#31=PRODUCT_CONTEXT('3D Mechanical Parts',#29,'mechanical');
#32=PRODUCT('Product','Product','',(#31));
#33=PRODUCT_RELATED_PRODUCT_CATEGORY('part',$,(#32));
#34=PRODUCT_CATEGORY('part',$);
#35=PERSON('1','Design','Joe',$,$,$);
#36=ORGANIZATION($,'None','None');
#37=PERSON_AND_ORGANIZATION(#35,#36);
#38=PERSON_AND_ORGANIZATION_ROLE('design_owner');
#39=APPLIED_PERSON_AND_ORGANIZATION_ASSIGNMENT(#37,#38,(#32));
#40=PRODUCT_DEFINITION_FORMATION_WITH_SPECIFIED_SOURCE('None','',#32,.BOUGHT.);
#41=PERSON('2','Creator','Joe',$,$,$);
#42=ORGANIZATION($,'None','None');
#43=PERSON_AND_ORGANIZATION(#41,#42);
#44=PERSON_AND_ORGANIZATION_ROLE('creator');
#45=APPLIED_PERSON_AND_ORGANIZATION_ASSIGNMENT(#43,#44,(#40));
#46=PERSON('3','Supplier','Joe',$,$,$);
#47=ORGANIZATION($,'None','None');
#48=PERSON_AND_ORGANIZATION(#46,#47);
#49=PERSON_AND_ORGANIZATION_ROLE('design_supplier');
#50=APPLIED_PERSON_AND_ORGANIZATION_ASSIGNMENT(#48,#49,(#40));
#51=PRODUCT_DEFINITION_CONTEXT('part definition',#29,'design');
#52=PRODUCT_DEFINITION('None','',#40,#51);
#53=PERSON('4','Creator','Joe',$,$,$);
#54=ORGANIZATION($,'None','None');
#55=PERSON_AND_ORGANIZATION(#53,#54);
#56=PERSON_AND_ORGANIZATION_ROLE('creator');
#57=APPLIED_PERSON_AND_ORGANIZATION_ASSIGNMENT(#55,#56,(#52));
#58=CARTESIAN_POINT('NONE',(0.0,0.0,0.0));
#59=DIRECTION('NONE',(0.0,0.0,1.0));
#60=DIRECTION('NONE',(1.0,0.0,0.0));
#61=AXIS2_PLACEMENT_3D('NONE',#58,#59,#60);
#62=SHAPE_REPRESENTATION('SR1',(#61),#28);
#63=PRODUCT_DEFINITION_SHAPE('PDS1','Test Part',#52);
#64=SHAPE_DEFINITION_REPRESENTATION(#63,#62);
#65=CARTESIAN_POINT('',(13.970000000000002,-7.619999999999997,0.0));
#66=DIRECTION('',(0.0,0.0,-1.0));
#67=DIRECTION('',(1.0,0.0,0.0));
#68=AXIS2_PLACEMENT_3D('',#65,#66,#67);
#69=CYLINDRICAL_SURFACE('',#68,0.25);
#70=CARTESIAN_POINT('',(14.220000000000002,-7.619999999999997,-3.8));
#71=VERTEX_POINT('',#70);
#72=CARTESIAN_POINT('',(14.220000000000002,-7.619999999999997,0.0));
#73=VERTEX_POINT('',#72);
#74=CARTESIAN_POINT('',(14.220000000000002,-7.619999999999997,-3.8));
#75=DIRECTION('',(0.0,0.0,1.0));
#76=VECTOR('',#75,3.8);
#77=LINE('',#74,#76);
#78=EDGE_CURVE('',#71,#73,#77,.T.);
#79=ORIENTED_EDGE('',*,*,#78,.F.);
#80=CARTESIAN_POINT('',(13.720000000000002,-7.619999999999997,-3.8));
#81=VERTEX_POINT('',#80);
#82=CARTESIAN_POINT('',(13.970000000000002,-7.619999999999997,-3.8));
#83=DIRECTION('',(0.0,0.0,1.0));
#84=DIRECTION('',(1.0,0.0,0.0));
#85=AXIS2_PLACEMENT_3D('',#82,#83,#84);
#86=CIRCLE('',#85,0.25);
#87=EDGE_CURVE('',#71,#81,#86,.T.);
#88=ORIENTED_EDGE('',*,*,#87,.T.);
#89=CARTESIAN_POINT('',(13.720000000000002,-7.619999999999997,0.0));
#90=VERTEX_POINT('',#89);
#91=CARTESIAN_POINT('',(13.720000000000002,-7.619999999999997,-3.8));
#92=DIRECTION('',(0.0,0.0,1.0));
#93=VECTOR('',#92,3.8);
#94=LINE('',#91,#93);
#95=EDGE_CURVE('',#81,#90,#94,.T.);
#96=ORIENTED_EDGE('',*,*,#95,.T.);
#97=CARTESIAN_POINT('',(13.970000000000002,-7.619999999999997,0.0));
#98=DIRECTION('',(0.0,0.0,1.0));
#99=DIRECTION('',(1.0,0.0,0.0));
#100=AXIS2_PLACEMENT_3D('',#97,#98,#99);
#101=CIRCLE('',#100,0.25);
#102=EDGE_CURVE('',#73,#90,#101,.T.);
#103=ORIENTED_EDGE('',*,*,#102,.F.);
#104=EDGE_LOOP('',(#79,#88,#96,#103));
#105=FACE_OUTER_BOUND('',#104,.T.);
#106=ADVANCED_FACE('',(#105),#69,.T.);
#107=CARTESIAN_POINT('',(13.970000000000002,-7.619999999999997,0.0));
#108=DIRECTION('',(0.0,0.0,-1.0));
#109=DIRECTION('',(1.0,0.0,0.0));
#110=AXIS2_PLACEMENT_3D('',#107,#108,#109);
#111=CYLINDRICAL_SURFACE('',#110,0.25);
#112=ORIENTED_EDGE('',*,*,#78,.T.);
#113=CARTESIAN_POINT('',(13.970000000000002,-7.619999999999997,0.0));
#114=DIRECTION('',(0.0,0.0,1.0));
#115=DIRECTION('',(1.0,0.0,0.0));
#116=AXIS2_PLACEMENT_3D('',#113,#114,#115);
#117=CIRCLE('',#116,0.25);
#118=EDGE_CURVE('',#90,#73,#117,.T.);
#119=ORIENTED_EDGE('',*,*,#118,.F.);
#120=ORIENTED_EDGE('',*,*,#95,.F.);
#121=CARTESIAN_POINT('',(13.970000000000002,-7.619999999999997,-3.8));
#122=DIRECTION('',(0.0,0.0,1.0));
#123=DIRECTION('',(1.0,0.0,0.0));
#124=AXIS2_PLACEMENT_3D('',#121,#122,#123);
#125=CIRCLE('',#124,0.25);
#126=EDGE_CURVE('',#81,#71,#125,.T.);
#127=ORIENTED_EDGE('',*,*,#126,.T.);
#128=EDGE_LOOP('',(#112,#119,#120,#127));
#129=FACE_OUTER_BOUND('',#128,.T.);
#130=ADVANCED_FACE('',(#129),#111,.T.);
#131=CARTESIAN_POINT('',(13.970000000000002,-7.619999999999997,-3.8));
#132=DIRECTION('',(0.0,0.0,1.0));
#133=DIRECTION('',(1.0,0.0,0.0));
#134=AXIS2_PLACEMENT_3D('',#131,#132,#133);
#135=PLANE('',#134);
#136=ORIENTED_EDGE('',*,*,#87,.F.);
#137=ORIENTED_EDGE('',*,*,#126,.F.);
#138=EDGE_LOOP('',(#136,#137));
#139=FACE_OUTER_BOUND('',#138,.T.);
#140=ADVANCED_FACE('',(#139),#135,.F.);
#141=CARTESIAN_POINT('',(13.970000000000002,-7.619999999999997,0.0));
#142=DIRECTION('',(0.0,0.0,1.0));
#143=DIRECTION('',(1.0,0.0,0.0));
#144=AXIS2_PLACEMENT_3D('',#141,#142,#143);
#145=PLANE('',#144);
#146=ORIENTED_EDGE('',*,*,#102,.T.);
#147=ORIENTED_EDGE('',*,*,#118,.T.);
#148=EDGE_LOOP('',(#146,#147));
#149=FACE_OUTER_BOUND('',#148,.T.);
#150=ADVANCED_FACE('',(#149),#145,.T.);
#151=CLOSED_SHELL('',(#106,#130,#140,#150));
#152=MANIFOLD_SOLID_BREP('C5E',#151);
#153=COLOUR_RGB('253',0.732,0.732,0.732);
#154=SURFACE_STYLE_USAGE(.BOTH.,#155);
#155=SURFACE_SIDE_STYLE('NONE',(#156));
#156=SURFACE_STYLE_FILL_AREA(#157);
#157=FILL_AREA_STYLE('NONE',(#158));
#158=FILL_AREA_STYLE_COLOUR('NONE',#153);
#159=PRESENTATION_STYLE_ASSIGNMENT((#154));
#160=STYLED_ITEM('NONE',(#159),#152);
#161=MECHANICAL_DESIGN_GEOMETRIC_PRESENTATION_REPRESENTATION('NONE',(#160,#251,#340,#429,#518,#607,#1115,#1413,#1502,#1591,#1680),#28);
#162=PRESENTATION_LAYER_ASSIGNMENT('3D','None',(#152,#250,#339,#428,#517,#606,#1107,#1405,#1501,#1590,#1679));
#163=CARTESIAN_POINT('',(13.970000000000002,7.619999999999997,0.0));
#164=DIRECTION('',(0.0,0.0,-1.0));
#165=DIRECTION('',(1.0,0.0,0.0));
#166=AXIS2_PLACEMENT_3D('',#163,#164,#165);
#167=CYLINDRICAL_SURFACE('',#166,0.25);
#168=CARTESIAN_POINT('',(14.220000000000002,7.619999999999997,-3.8));
#169=VERTEX_POINT('',#168);
#170=CARTESIAN_POINT('',(14.220000000000002,7.619999999999997,0.0));
#171=VERTEX_POINT('',#170);
#172=CARTESIAN_POINT('',(14.220000000000002,7.619999999999997,-3.8));
#173=DIRECTION('',(0.0,0.0,1.0));
#174=VECTOR('',#173,3.8);
#175=LINE('',#172,#174);
#176=EDGE_CURVE('',#169,#171,#175,.T.);
#177=ORIENTED_EDGE('',*,*,#176,.F.);
#178=CARTESIAN_POINT('',(13.720000000000002,7.619999999999997,-3.8));
#179=VERTEX_POINT('',#178);
#180=CARTESIAN_POINT('',(13.970000000000002,7.619999999999997,-3.8));
#181=DIRECTION('',(0.0,0.0,1.0));
#182=DIRECTION('',(1.0,0.0,0.0));
#183=AXIS2_PLACEMENT_3D('',#180,#181,#182);
#184=CIRCLE('',#183,0.25);
#185=EDGE_CURVE('',#169,#179,#184,.T.);
#186=ORIENTED_EDGE('',*,*,#185,.T.);
#187=CARTESIAN_POINT('',(13.720000000000002,7.619999999999997,0.0));
#188=VERTEX_POINT('',#187);
#189=CARTESIAN_POINT('',(13.720000000000002,7.619999999999997,-3.8));
#190=DIRECTION('',(0.0,0.0,1.0));
#191=VECTOR('',#190,3.8);
#192=LINE('',#189,#191);
#193=EDGE_CURVE('',#179,#188,#192,.T.);
#194=ORIENTED_EDGE('',*,*,#193,.T.);
#195=CARTESIAN_POINT('',(13.970000000000002,7.619999999999997,0.0));
#196=DIRECTION('',(0.0,0.0,1.0));
#197=DIRECTION('',(1.0,0.0,0.0));
#198=AXIS2_PLACEMENT_3D('',#195,#196,#197);
#199=CIRCLE('',#198,0.25);
#200=EDGE_CURVE('',#171,#188,#199,.T.);
#201=ORIENTED_EDGE('',*,*,#200,.F.);
#202=EDGE_LOOP('',(#177,#186,#194,#201));
#203=FACE_OUTER_BOUND('',#202,.T.);
#204=ADVANCED_FACE('',(#203),#167,.T.);
#205=CARTESIAN_POINT('',(13.970000000000002,7.619999999999997,0.0));
#206=DIRECTION('',(0.0,0.0,-1.0));
#207=DIRECTION('',(1.0,0.0,0.0));
#208=AXIS2_PLACEMENT_3D('',#205,#206,#207);
#209=CYLINDRICAL_SURFACE('',#208,0.25);
#210=ORIENTED_EDGE('',*,*,#176,.T.);
#211=CARTESIAN_POINT('',(13.970000000000002,7.619999999999997,0.0));
#212=DIRECTION('',(0.0,0.0,1.0));
#213=DIRECTION('',(1.0,0.0,0.0));
#214=AXIS2_PLACEMENT_3D('',#211,#212,#213);
#215=CIRCLE('',#214,0.25);
#216=EDGE_CURVE('',#188,#171,#215,.T.);
#217=ORIENTED_EDGE('',*,*,#216,.F.);
#218=ORIENTED_EDGE('',*,*,#193,.F.);
#219=CARTESIAN_POINT('',(13.970000000000002,7.619999999999997,-3.8));
#220=DIRECTION('',(0.0,0.0,1.0));
#221=DIRECTION('',(1.0,0.0,0.0));
#222=AXIS2_PLACEMENT_3D('',#219,#220,#221);
#223=CIRCLE('',#222,0.25);
#224=EDGE_CURVE('',#179,#169,#223,.T.);
#225=ORIENTED_EDGE('',*,*,#224,.T.);
#226=EDGE_LOOP('',(#210,#217,#218,#225));
#227=FACE_OUTER_BOUND('',#226,.T.);
#228=ADVANCED_FACE('',(#227),#209,.T.);
#229=CARTESIAN_POINT('',(13.970000000000002,7.619999999999997,-3.8));
#230=DIRECTION('',(0.0,0.0,1.0));
#231=DIRECTION('',(1.0,0.0,0.0));
#232=AXIS2_PLACEMENT_3D('',#229,#230,#231);
#233=PLANE('',#232);
#234=ORIENTED_EDGE('',*,*,#185,.F.);
#235=ORIENTED_EDGE('',*,*,#224,.F.);
#236=EDGE_LOOP('',(#234,#235));
#237=FACE_OUTER_BOUND('',#236,.T.);
#238=ADVANCED_FACE('',(#237),#233,.F.);
#239=CARTESIAN_POINT('',(13.970000000000002,7.619999999999997,0.0));
#240=DIRECTION('',(0.0,0.0,1.0));
#241=DIRECTION('',(1.0,0.0,0.0));
#242=AXIS2_PLACEMENT_3D('',#239,#240,#241);
#243=PLANE('',#242);
#244=ORIENTED_EDGE('',*,*,#200,.T.);
#245=ORIENTED_EDGE('',*,*,#216,.T.);
#246=EDGE_LOOP('',(#244,#245));
#247=FACE_OUTER_BOUND('',#246,.T.);
#248=ADVANCED_FACE('',(#247),#243,.T.);
#249=CLOSED_SHELL('',(#204,#228,#238,#248));
#250=MANIFOLD_SOLID_BREP('C5D',#249);
#251=STYLED_ITEM('NONE',(#159),#250);
#252=CARTESIAN_POINT('',(8.890000000000001,-7.619999999999997,0.0));
#253=DIRECTION('',(0.0,0.0,-1.0));
#254=DIRECTION('',(1.0,0.0,0.0));
#255=AXIS2_PLACEMENT_3D('',#252,#253,#254);
#256=CYLINDRICAL_SURFACE('',#255,0.25);
#257=CARTESIAN_POINT('',(9.140000000000001,-7.619999999999997,-3.8));
#258=VERTEX_POINT('',#257);
#259=CARTESIAN_POINT('',(9.140000000000001,-7.619999999999997,0.0));
#260=VERTEX_POINT('',#259);
#261=CARTESIAN_POINT('',(9.140000000000001,-7.619999999999997,-3.8));
#262=DIRECTION('',(0.0,0.0,1.0));
#263=VECTOR('',#262,3.8);
#264=LINE('',#261,#263);
#265=EDGE_CURVE('',#258,#260,#264,.T.);
#266=ORIENTED_EDGE('',*,*,#265,.F.);
#267=CARTESIAN_POINT('',(8.640000000000001,-7.619999999999997,-3.8));
#268=VERTEX_POINT('',#267);
#269=CARTESIAN_POINT('',(8.890000000000001,-7.619999999999997,-3.8));
#270=DIRECTION('',(0.0,0.0,1.0));
#271=DIRECTION('',(1.0,0.0,0.0));
#272=AXIS2_PLACEMENT_3D('',#269,#270,#271);
#273=CIRCLE('',#272,0.25);
#274=EDGE_CURVE('',#258,#268,#273,.T.);
#275=ORIENTED_EDGE('',*,*,#274,.T.);
#276=CARTESIAN_POINT('',(8.640000000000001,-7.619999999999997,0.0));
#277=VERTEX_POINT('',#276);
#278=CARTESIAN_POINT('',(8.640000000000001,-7.619999999999997,-3.8));
#279=DIRECTION('',(0.0,0.0,1.0));
#280=VECTOR('',#279,3.8);
#281=LINE('',#278,#280);
#282=EDGE_CURVE('',#268,#277,#281,.T.);
#283=ORIENTED_EDGE('',*,*,#282,.T.);
#284=CARTESIAN_POINT('',(8.890000000000001,-7.619999999999997,0.0));
#285=DIRECTION('',(0.0,0.0,1.0));
#286=DIRECTION('',(1.0,0.0,0.0));
#287=AXIS2_PLACEMENT_3D('',#284,#285,#286);
#288=CIRCLE('',#287,0.25);
#289=EDGE_CURVE('',#260,#277,#288,.T.);
#290=ORIENTED_EDGE('',*,*,#289,.F.);
#291=EDGE_LOOP('',(#266,#275,#283,#290));
#292=FACE_OUTER_BOUND('',#291,.T.);
#293=ADVANCED_FACE('',(#292),#256,.T.);
#294=CARTESIAN_POINT('',(8.890000000000001,-7.619999999999997,0.0));
#295=DIRECTION('',(0.0,0.0,-1.0));
#296=DIRECTION('',(1.0,0.0,0.0));
#297=AXIS2_PLACEMENT_3D('',#294,#295,#296);
#298=CYLINDRICAL_SURFACE('',#297,0.25);
#299=ORIENTED_EDGE('',*,*,#265,.T.);
#300=CARTESIAN_POINT('',(8.890000000000001,-7.619999999999997,0.0));
#301=DIRECTION('',(0.0,0.0,1.0));
#302=DIRECTION('',(1.0,0.0,0.0));
#303=AXIS2_PLACEMENT_3D('',#300,#301,#302);
#304=CIRCLE('',#303,0.25);
#305=EDGE_CURVE('',#277,#260,#304,.T.);
#306=ORIENTED_EDGE('',*,*,#305,.F.);
#307=ORIENTED_EDGE('',*,*,#282,.F.);
#308=CARTESIAN_POINT('',(8.890000000000001,-7.619999999999997,-3.8));
#309=DIRECTION('',(0.0,0.0,1.0));
#310=DIRECTION('',(1.0,0.0,0.0));
#311=AXIS2_PLACEMENT_3D('',#308,#309,#310);
#312=CIRCLE('',#311,0.25);
#313=EDGE_CURVE('',#268,#258,#312,.T.);
#314=ORIENTED_EDGE('',*,*,#313,.T.);
#315=EDGE_LOOP('',(#299,#306,#307,#314));
#316=FACE_OUTER_BOUND('',#315,.T.);
#317=ADVANCED_FACE('',(#316),#298,.T.);
#318=CARTESIAN_POINT('',(8.890000000000001,-7.619999999999997,-3.8));
#319=DIRECTION('',(0.0,0.0,1.0));
#320=DIRECTION('',(1.0,0.0,0.0));
#321=AXIS2_PLACEMENT_3D('',#318,#319,#320);
#322=PLANE('',#321);
#323=ORIENTED_EDGE('',*,*,#274,.F.);
#324=ORIENTED_EDGE('',*,*,#313,.F.);
#325=EDGE_LOOP('',(#323,#324));
#326=FACE_OUTER_BOUND('',#325,.T.);
#327=ADVANCED_FACE('',(#326),#322,.F.);
#328=CARTESIAN_POINT('',(8.890000000000001,-7.619999999999997,0.0));
#329=DIRECTION('',(0.0,0.0,1.0));
#330=DIRECTION('',(1.0,0.0,0.0));
#331=AXIS2_PLACEMENT_3D('',#328,#329,#330);
#332=PLANE('',#331);
#333=ORIENTED_EDGE('',*,*,#289,.T.);
#334=ORIENTED_EDGE('',*,*,#305,.T.);
#335=EDGE_LOOP('',(#333,#334));
#336=FACE_OUTER_BOUND('',#335,.T.);
#337=ADVANCED_FACE('',(#336),#332,.T.);
#338=CLOSED_SHELL('',(#293,#317,#327,#337));
#339=MANIFOLD_SOLID_BREP('C1A',#338);
#340=STYLED_ITEM('NONE',(#159),#339);
#341=CARTESIAN_POINT('',(8.890000000000001,7.619999999999997,0.0));
#342=DIRECTION('',(0.0,0.0,-1.0));
#343=DIRECTION('',(1.0,0.0,0.0));
#344=AXIS2_PLACEMENT_3D('',#341,#342,#343);
#345=CYLINDRICAL_SURFACE('',#344,0.25);
#346=CARTESIAN_POINT('',(9.140000000000001,7.619999999999997,-3.8));
#347=VERTEX_POINT('',#346);
#348=CARTESIAN_POINT('',(9.140000000000001,7.619999999999997,0.0));
#349=VERTEX_POINT('',#348);
#350=CARTESIAN_POINT('',(9.140000000000001,7.619999999999997,-3.8));
#351=DIRECTION('',(0.0,0.0,1.0));
#352=VECTOR('',#351,3.8);
#353=LINE('',#350,#352);
#354=EDGE_CURVE('',#347,#349,#353,.T.);
#355=ORIENTED_EDGE('',*,*,#354,.F.);
#356=CARTESIAN_POINT('',(8.640000000000001,7.619999999999997,-3.8));
#357=VERTEX_POINT('',#356);
#358=CARTESIAN_POINT('',(8.890000000000001,7.619999999999997,-3.8));
#359=DIRECTION('',(0.0,0.0,1.0));
#360=DIRECTION('',(1.0,0.0,0.0));
#361=AXIS2_PLACEMENT_3D('',#358,#359,#360);
#362=CIRCLE('',#361,0.25);
#363=EDGE_CURVE('',#347,#357,#362,.T.);
#364=ORIENTED_EDGE('',*,*,#363,.T.);
#365=CARTESIAN_POINT('',(8.640000000000001,7.619999999999997,0.0));
#366=VERTEX_POINT('',#365);
#367=CARTESIAN_POINT('',(8.640000000000001,7.619999999999997,-3.8));
#368=DIRECTION('',(0.0,0.0,1.0));
#369=VECTOR('',#368,3.8);
#370=LINE('',#367,#369);
#371=EDGE_CURVE('',#357,#366,#370,.T.);
#372=ORIENTED_EDGE('',*,*,#371,.T.);
#373=CARTESIAN_POINT('',(8.890000000000001,7.619999999999997,0.0));
#374=DIRECTION('',(0.0,0.0,1.0));
#375=DIRECTION('',(1.0,0.0,0.0));
#376=AXIS2_PLACEMENT_3D('',#373,#374,#375);
#377=CIRCLE('',#376,0.25);
#378=EDGE_CURVE('',#349,#366,#377,.T.);
#379=ORIENTED_EDGE('',*,*,#378,.F.);
#380=EDGE_LOOP('',(#355,#364,#372,#379));
#381=FACE_OUTER_BOUND('',#380,.T.);
#382=ADVANCED_FACE('',(#381),#345,.T.);
#383=CARTESIAN_POINT('',(8.890000000000001,7.619999999999997,0.0));
#384=DIRECTION('',(0.0,0.0,-1.0));
#385=DIRECTION('',(1.0,0.0,0.0));
#386=AXIS2_PLACEMENT_3D('',#383,#384,#385);
#387=CYLINDRICAL_SURFACE('',#386,0.25);
#388=ORIENTED_EDGE('',*,*,#354,.T.);
#389=CARTESIAN_POINT('',(8.890000000000001,7.619999999999997,0.0));
#390=DIRECTION('',(0.0,0.0,1.0));
#391=DIRECTION('',(1.0,0.0,0.0));
#392=AXIS2_PLACEMENT_3D('',#389,#390,#391);
#393=CIRCLE('',#392,0.25);
#394=EDGE_CURVE('',#366,#349,#393,.T.);
#395=ORIENTED_EDGE('',*,*,#394,.F.);
#396=ORIENTED_EDGE('',*,*,#371,.F.);
#397=CARTESIAN_POINT('',(8.890000000000001,7.619999999999997,-3.8));
#398=DIRECTION('',(0.0,0.0,1.0));
#399=DIRECTION('',(1.0,0.0,0.0));
#400=AXIS2_PLACEMENT_3D('',#397,#398,#399);
#401=CIRCLE('',#400,0.25);
#402=EDGE_CURVE('',#357,#347,#401,.T.);
#403=ORIENTED_EDGE('',*,*,#402,.T.);
#404=EDGE_LOOP('',(#388,#395,#396,#403));
#405=FACE_OUTER_BOUND('',#404,.T.);
#406=ADVANCED_FACE('',(#405),#387,.T.);
#407=CARTESIAN_POINT('',(8.890000000000001,7.619999999999997,-3.8));
#408=DIRECTION('',(0.0,0.0,1.0));
#409=DIRECTION('',(1.0,0.0,0.0));
#410=AXIS2_PLACEMENT_3D('',#407,#408,#409);
#411=PLANE('',#410);
#412=ORIENTED_EDGE('',*,*,#363,.F.);
#413=ORIENTED_EDGE('',*,*,#402,.F.);
#414=EDGE_LOOP('',(#412,#413));
#415=FACE_OUTER_BOUND('',#414,.T.);
#416=ADVANCED_FACE('',(#415),#411,.F.);
#417=CARTESIAN_POINT('',(8.890000000000001,7.619999999999997,0.0));
#418=DIRECTION('',(0.0,0.0,1.0));
#419=DIRECTION('',(1.0,0.0,0.0));
#420=AXIS2_PLACEMENT_3D('',#417,#418,#419);
#421=PLANE('',#420);
#422=ORIENTED_EDGE('',*,*,#378,.T.);
#423=ORIENTED_EDGE('',*,*,#394,.T.);
#424=EDGE_LOOP('',(#422,#423));
#425=FACE_OUTER_BOUND('',#424,.T.);
#426=ADVANCED_FACE('',(#425),#421,.T.);
#427=CLOSED_SHELL('',(#382,#406,#416,#426));
#428=MANIFOLD_SOLID_BREP('C19',#427);
#429=STYLED_ITEM('NONE',(#159),#428);
#430=CARTESIAN_POINT('',(-13.969999999999999,-7.619999999999997,0.0));
#431=DIRECTION('',(0.0,0.0,-1.0));
#432=DIRECTION('',(1.0,0.0,0.0));
#433=AXIS2_PLACEMENT_3D('',#430,#431,#432);
#434=CYLINDRICAL_SURFACE('',#433,0.25);
#435=CARTESIAN_POINT('',(-13.719999999999999,-7.619999999999997,-3.8));
#436=VERTEX_POINT('',#435);
#437=CARTESIAN_POINT('',(-13.719999999999999,-7.619999999999997,0.0));
#438=VERTEX_POINT('',#437);
#439=CARTESIAN_POINT('',(-13.719999999999999,-7.619999999999997,-3.8));
#440=DIRECTION('',(0.0,0.0,1.0));
#441=VECTOR('',#440,3.8);
#442=LINE('',#439,#441);
#443=EDGE_CURVE('',#436,#438,#442,.T.);
#444=ORIENTED_EDGE('',*,*,#443,.F.);
#445=CARTESIAN_POINT('',(-14.219999999999999,-7.619999999999997,-3.8));
#446=VERTEX_POINT('',#445);
#447=CARTESIAN_POINT('',(-13.969999999999999,-7.619999999999997,-3.8));
#448=DIRECTION('',(0.0,0.0,1.0));
#449=DIRECTION('',(1.0,0.0,0.0));
#450=AXIS2_PLACEMENT_3D('',#447,#448,#449);
#451=CIRCLE('',#450,0.25);
#452=EDGE_CURVE('',#436,#446,#451,.T.);
#453=ORIENTED_EDGE('',*,*,#452,.T.);
#454=CARTESIAN_POINT('',(-14.219999999999999,-7.619999999999997,0.0));
#455=VERTEX_POINT('',#454);
#456=CARTESIAN_POINT('',(-14.219999999999999,-7.619999999999997,-3.8));
#457=DIRECTION('',(0.0,0.0,1.0));
#458=VECTOR('',#457,3.8);
#459=LINE('',#456,#458);
#460=EDGE_CURVE('',#446,#455,#459,.T.);
#461=ORIENTED_EDGE('',*,*,#460,.T.);
#462=CARTESIAN_POINT('',(-13.969999999999999,-7.619999999999997,0.0));
#463=DIRECTION('',(0.0,0.0,1.0));
#464=DIRECTION('',(1.0,0.0,0.0));
#465=AXIS2_PLACEMENT_3D('',#462,#463,#464);
#466=CIRCLE('',#465,0.25);
#467=EDGE_CURVE('',#438,#455,#466,.T.);
#468=ORIENTED_EDGE('',*,*,#467,.F.);
#469=EDGE_LOOP('',(#444,#453,#461,#468));
#470=FACE_OUTER_BOUND('',#469,.T.);
#471=ADVANCED_FACE('',(#470),#434,.T.);
#472=CARTESIAN_POINT('',(-13.969999999999999,-7.619999999999997,0.0));
#473=DIRECTION('',(0.0,0.0,-1.0));
#474=DIRECTION('',(1.0,0.0,0.0));
#475=AXIS2_PLACEMENT_3D('',#472,#473,#474);
#476=CYLINDRICAL_SURFACE('',#475,0.25);
#477=ORIENTED_EDGE('',*,*,#443,.T.);
#478=CARTESIAN_POINT('',(-13.969999999999999,-7.619999999999997,0.0));
#479=DIRECTION('',(0.0,0.0,1.0));
#480=DIRECTION('',(1.0,0.0,0.0));
#481=AXIS2_PLACEMENT_3D('',#478,#479,#480);
#482=CIRCLE('',#481,0.25);
#483=EDGE_CURVE('',#455,#438,#482,.T.);
#484=ORIENTED_EDGE('',*,*,#483,.F.);
#485=ORIENTED_EDGE('',*,*,#460,.F.);
#486=CARTESIAN_POINT('',(-13.969999999999999,-7.619999999999997,-3.8));
#487=DIRECTION('',(0.0,0.0,1.0));
#488=DIRECTION('',(1.0,0.0,0.0));
#489=AXIS2_PLACEMENT_3D('',#486,#487,#488);
#490=CIRCLE('',#489,0.25);
#491=EDGE_CURVE('',#446,#436,#490,.T.);
#492=ORIENTED_EDGE('',*,*,#491,.T.);
#493=EDGE_LOOP('',(#477,#484,#485,#492));
#494=FACE_OUTER_BOUND('',#493,.T.);
#495=ADVANCED_FACE('',(#494),#476,.T.);
#496=CARTESIAN_POINT('',(-13.969999999999999,-7.619999999999997,-3.8));
#497=DIRECTION('',(0.0,0.0,1.0));
#498=DIRECTION('',(1.0,0.0,0.0));
#499=AXIS2_PLACEMENT_3D('',#496,#497,#498);
#500=PLANE('',#499);
#501=ORIENTED_EDGE('',*,*,#452,.F.);
#502=ORIENTED_EDGE('',*,*,#491,.F.);
#503=EDGE_LOOP('',(#501,#502));
#504=FACE_OUTER_BOUND('',#503,.T.);
#505=ADVANCED_FACE('',(#504),#500,.F.);
#506=CARTESIAN_POINT('',(-13.969999999999999,-7.619999999999997,0.0));
#507=DIRECTION('',(0.0,0.0,1.0));
#508=DIRECTION('',(1.0,0.0,0.0));
#509=AXIS2_PLACEMENT_3D('',#506,#507,#508);
#510=PLANE('',#509);
#511=ORIENTED_EDGE('',*,*,#467,.T.);
#512=ORIENTED_EDGE('',*,*,#483,.T.);
#513=EDGE_LOOP('',(#511,#512));
#514=FACE_OUTER_BOUND('',#513,.T.);
#515=ADVANCED_FACE('',(#514),#510,.T.);
#516=CLOSED_SHELL('',(#471,#495,#505,#515));
#517=MANIFOLD_SOLID_BREP('C10',#516);
#518=STYLED_ITEM('NONE',(#159),#517);
#519=CARTESIAN_POINT('',(-13.969999999999999,7.619999999999997,0.0));
#520=DIRECTION('',(0.0,0.0,-1.0));
#521=DIRECTION('',(1.0,0.0,0.0));
#522=AXIS2_PLACEMENT_3D('',#519,#520,#521);
#523=CYLINDRICAL_SURFACE('',#522,0.25);
#524=CARTESIAN_POINT('',(-13.719999999999999,7.619999999999997,-3.8));
#525=VERTEX_POINT('',#524);
#526=CARTESIAN_POINT('',(-13.719999999999999,7.619999999999997,0.0));
#527=VERTEX_POINT('',#526);
#528=CARTESIAN_POINT('',(-13.719999999999999,7.619999999999997,-3.8));
#529=DIRECTION('',(0.0,0.0,1.0));
#530=VECTOR('',#529,3.8);
#531=LINE('',#528,#530);
#532=EDGE_CURVE('',#525,#527,#531,.T.);
#533=ORIENTED_EDGE('',*,*,#532,.F.);
#534=CARTESIAN_POINT('',(-14.219999999999999,7.619999999999997,-3.8));
#535=VERTEX_POINT('',#534);
#536=CARTESIAN_POINT('',(-13.969999999999999,7.619999999999997,-3.8));
#537=DIRECTION('',(0.0,0.0,1.0));
#538=DIRECTION('',(1.0,0.0,0.0));
#539=AXIS2_PLACEMENT_3D('',#536,#537,#538);
#540=CIRCLE('',#539,0.25);
#541=EDGE_CURVE('',#525,#535,#540,.T.);
#542=ORIENTED_EDGE('',*,*,#541,.T.);
#543=CARTESIAN_POINT('',(-14.219999999999999,7.619999999999997,0.0));
#544=VERTEX_POINT('',#543);
#545=CARTESIAN_POINT('',(-14.219999999999999,7.619999999999997,-3.8));
#546=DIRECTION('',(0.0,0.0,1.0));
#547=VECTOR('',#546,3.8);
#548=LINE('',#545,#547);
#549=EDGE_CURVE('',#535,#544,#548,.T.);
#550=ORIENTED_EDGE('',*,*,#549,.T.);
#551=CARTESIAN_POINT('',(-13.969999999999999,7.619999999999997,0.0));
#552=DIRECTION('',(0.0,0.0,1.0));
#553=DIRECTION('',(1.0,0.0,0.0));
#554=AXIS2_PLACEMENT_3D('',#551,#552,#553);
#555=CIRCLE('',#554,0.25);
#556=EDGE_CURVE('',#527,#544,#555,.T.);
#557=ORIENTED_EDGE('',*,*,#556,.F.);
#558=EDGE_LOOP('',(#533,#542,#550,#557));
#559=FACE_OUTER_BOUND('',#558,.T.);
#560=ADVANCED_FACE('',(#559),#523,.T.);
#561=CARTESIAN_POINT('',(-13.969999999999999,7.619999999999997,0.0));
#562=DIRECTION('',(0.0,0.0,-1.0));
#563=DIRECTION('',(1.0,0.0,0.0));
#564=AXIS2_PLACEMENT_3D('',#561,#562,#563);
#565=CYLINDRICAL_SURFACE('',#564,0.25);
#566=ORIENTED_EDGE('',*,*,#532,.T.);
#567=CARTESIAN_POINT('',(-13.969999999999999,7.619999999999997,0.0));
#568=DIRECTION('',(0.0,0.0,1.0));
#569=DIRECTION('',(1.0,0.0,0.0));
#570=AXIS2_PLACEMENT_3D('',#567,#568,#569);
#571=CIRCLE('',#570,0.25);
#572=EDGE_CURVE('',#544,#527,#571,.T.);
#573=ORIENTED_EDGE('',*,*,#572,.F.);
#574=ORIENTED_EDGE('',*,*,#549,.F.);
#575=CARTESIAN_POINT('',(-13.969999999999999,7.619999999999997,-3.8));
#576=DIRECTION('',(0.0,0.0,1.0));
#577=DIRECTION('',(1.0,0.0,0.0));
#578=AXIS2_PLACEMENT_3D('',#575,#576,#577);
#579=CIRCLE('',#578,0.25);
#580=EDGE_CURVE('',#535,#525,#579,.T.);
#581=ORIENTED_EDGE('',*,*,#580,.T.);
#582=EDGE_LOOP('',(#566,#573,#574,#581));
#583=FACE_OUTER_BOUND('',#582,.T.);
#584=ADVANCED_FACE('',(#583),#565,.T.);
#585=CARTESIAN_POINT('',(-13.969999999999999,7.619999999999997,-3.8));
#586=DIRECTION('',(0.0,0.0,1.0));
#587=DIRECTION('',(1.0,0.0,0.0));
#588=AXIS2_PLACEMENT_3D('',#585,#586,#587);
#589=PLANE('',#588);
#590=ORIENTED_EDGE('',*,*,#541,.F.);
#591=ORIENTED_EDGE('',*,*,#580,.F.);
#592=EDGE_LOOP('',(#590,#591));
#593=FACE_OUTER_BOUND('',#592,.T.);
#594=ADVANCED_FACE('',(#593),#589,.F.);
#595=CARTESIAN_POINT('',(-13.969999999999999,7.619999999999997,0.0));
#596=DIRECTION('',(0.0,0.0,1.0));
#597=DIRECTION('',(1.0,0.0,0.0));
#598=AXIS2_PLACEMENT_3D('',#595,#596,#597);
#599=PLANE('',#598);
#600=ORIENTED_EDGE('',*,*,#556,.T.);
#601=ORIENTED_EDGE('',*,*,#572,.T.);
#602=EDGE_LOOP('',(#600,#601));
#603=FACE_OUTER_BOUND('',#602,.T.);
#604=ADVANCED_FACE('',(#603),#599,.T.);
#605=CLOSED_SHELL('',(#560,#584,#594,#604));
#606=MANIFOLD_SOLID_BREP('C0F',#605);
#607=STYLED_ITEM('NONE',(#159),#606);
#608=CARTESIAN_POINT('',(15.125,9.125,9.15));
#609=DIRECTION('',(0.577350269189626,0.577350269189626,0.577350269189626));
#610=DIRECTION('',(-0.707106781186548,0.0,0.707106781186548));
#611=AXIS2_PLACEMENT_3D('',#608,#609,#610);
#612=SPHERICAL_SURFACE('',#611,1.0);
#613=CARTESIAN_POINT('',(15.702350269189626,9.702350269189626,9.727350269189627));
#614=VERTEX_POINT('',#613);
#615=CARTESIAN_POINT('',(15.125,9.572213595499958,10.044427190999917));
#616=VERTEX_POINT('',#615);
#617=CARTESIAN_POINT('',(15.125,9.125,9.15));
#618=DIRECTION('',(0.408248290463863,-0.816496580927726,0.408248290463863));
#619=DIRECTION('',(-0.707106781186548,0.0,0.707106781186548));
#620=AXIS2_PLACEMENT_3D('',#617,#618,#619);
#621=CIRCLE('',#620,1.0);
#622=EDGE_CURVE('',#614,#616,#621,.T.);
#623=ORIENTED_EDGE('',*,*,#622,.F.);
#624=CARTESIAN_POINT('',(16.019427190999917,9.572213595499958,9.15));
#625=VERTEX_POINT('',#624);
#626=CARTESIAN_POINT('',(15.125,9.125,9.15));
#627=DIRECTION('',(-0.408248290463863,0.816496580927726,-0.408248290463863));
#628=DIRECTION('',(0.707106781186548,0.0,-0.707106781186548));
#629=AXIS2_PLACEMENT_3D('',#626,#627,#628);
#630=CIRCLE('',#629,1.0);
#631=EDGE_CURVE('',#614,#625,#630,.T.);
#632=ORIENTED_EDGE('',*,*,#631,.T.);
#633=CARTESIAN_POINT('',(15.125,10.125,9.15));
#634=VERTEX_POINT('',#633);
#635=CARTESIAN_POINT('',(15.125,9.125,9.15));
#636=DIRECTION('',(0.0,0.0,1.0));
#637=DIRECTION('',(0.707106781186548,0.707106781186548,0.0));
#638=AXIS2_PLACEMENT_3D('',#635,#636,#637);
#639=CIRCLE('',#638,1.0);
#640=EDGE_CURVE('',#625,#634,#639,.T.);
#641=ORIENTED_EDGE('',*,*,#640,.T.);
#642=CARTESIAN_POINT('',(15.125,9.125,9.15));
#643=DIRECTION('',(-1.0,0.0,0.0));
#644=DIRECTION('',(0.0,0.0,1.0));
#645=AXIS2_PLACEMENT_3D('',#642,#643,#644);
#646=CIRCLE('',#645,1.0);
#647=EDGE_CURVE('',#616,#634,#646,.T.);
#648=ORIENTED_EDGE('',*,*,#647,.F.);
#649=EDGE_LOOP('',(#623,#632,#641,#648));
#650=FACE_OUTER_BOUND('',#649,.T.);
#651=ADVANCED_FACE('',(#650),#612,.T.);
#652=CARTESIAN_POINT('',(-7.625,9.125,9.15));
#653=DIRECTION('',(1.0,0.0,0.0));
#654=DIRECTION('',(0.0,0.707106781186548,0.707106781186548));
#655=AXIS2_PLACEMENT_3D('',#652,#653,#654);
#656=CYLINDRICAL_SURFACE('',#655,1.0);
#657=CARTESIAN_POINT('',(-15.125,10.125,9.15));
#658=VERTEX_POINT('',#657);
#659=CARTESIAN_POINT('',(-15.125,9.125,10.15));
#660=VERTEX_POINT('',#659);
#661=CARTESIAN_POINT('',(-15.125,9.125,9.15));
#662=DIRECTION('',(1.0,0.0,0.0));
#663=DIRECTION('',(0.0,1.0,0.0));
#664=AXIS2_PLACEMENT_3D('',#661,#662,#663);
#665=CIRCLE('',#664,1.0);
#666=EDGE_CURVE('',#658,#660,#665,.T.);
#667=ORIENTED_EDGE('',*,*,#666,.T.);
#668=CARTESIAN_POINT('',(15.125,9.125,10.15));
#669=VERTEX_POINT('',#668);
#670=CARTESIAN_POINT('',(-15.125,9.125,10.15));
#671=DIRECTION('',(1.0,0.0,0.0));
#672=VECTOR('',#671,30.25);
#673=LINE('',#670,#672);
#674=EDGE_CURVE('',#660,#669,#673,.T.);
#675=ORIENTED_EDGE('',*,*,#674,.T.);
#676=CARTESIAN_POINT('',(15.125,9.125,9.15));
#677=DIRECTION('',(-1.0,0.0,0.0));
#678=DIRECTION('',(0.0,0.0,1.0));
#679=AXIS2_PLACEMENT_3D('',#676,#677,#678);
#680=CIRCLE('',#679,1.0);
#681=EDGE_CURVE('',#669,#616,#680,.T.);
#682=ORIENTED_EDGE('',*,*,#681,.T.);
#683=ORIENTED_EDGE('',*,*,#647,.T.);
#684=CARTESIAN_POINT('',(15.125,10.125,9.15));
#685=DIRECTION('',(-1.0,0.0,0.0));
#686=VECTOR('',#685,30.25);
#687=LINE('',#684,#686);
#688=EDGE_CURVE('',#634,#658,#687,.T.);
#689=ORIENTED_EDGE('',*,*,#688,.T.);
#690=EDGE_LOOP('',(#667,#675,#682,#683,#689));
#691=FACE_OUTER_BOUND('',#690,.T.);
#692=ADVANCED_FACE('',(#691),#656,.T.);
#693=CARTESIAN_POINT('',(15.125000000000002,4.625000000000003,9.15));
#694=DIRECTION('',(3.840772E-016,-1.0,0.0));
#695=DIRECTION('',(0.707106781186546,0.0,0.707106781186549));
#696=AXIS2_PLACEMENT_3D('',#693,#694,#695);
#697=CYLINDRICAL_SURFACE('',#696,1.0);
#698=CARTESIAN_POINT('',(16.125,9.125,9.15));
#699=VERTEX_POINT('',#698);
#700=CARTESIAN_POINT('',(15.125,9.125,9.15));
#701=DIRECTION('',(0.0,-1.0,0.0));
#702=DIRECTION('',(1.0,0.0,0.0));
#703=AXIS2_PLACEMENT_3D('',#700,#701,#702);
#704=CIRCLE('',#703,1.0);
#705=EDGE_CURVE('',#699,#669,#704,.T.);
#706=ORIENTED_EDGE('',*,*,#705,.T.);
#707=CARTESIAN_POINT('',(15.125000000000007,-9.124999999999996,10.15));
#708=VERTEX_POINT('',#707);
#709=CARTESIAN_POINT('',(15.125,9.125,10.15));
#710=DIRECTION('',(0.0,-1.0,0.0));
#711=VECTOR('',#710,18.249999999999996);
#712=LINE('',#709,#711);
#713=EDGE_CURVE('',#669,#708,#712,.T.);
#714=ORIENTED_EDGE('',*,*,#713,.T.);
#715=CARTESIAN_POINT('',(16.125000000000007,-9.124999999999996,9.15));
#716=VERTEX_POINT('',#715);
#717=CARTESIAN_POINT('',(15.125000000000007,-9.124999999999996,9.15));
#718=DIRECTION('',(0.0,1.0,0.0));
#719=DIRECTION('',(0.0,0.0,1.0));
#720=AXIS2_PLACEMENT_3D('',#717,#718,#719);
#721=CIRCLE('',#720,1.0);
#722=EDGE_CURVE('',#708,#716,#721,.T.);
#723=ORIENTED_EDGE('',*,*,#722,.T.);
#724=CARTESIAN_POINT('',(16.125000000000007,-9.124999999999996,9.15));
#725=DIRECTION('',(0.0,1.0,0.0));
#726=VECTOR('',#725,18.249999999999996);
#727=LINE('',#724,#726);
#728=EDGE_CURVE('',#716,#699,#727,.T.);
#729=ORIENTED_EDGE('',*,*,#728,.T.);
#730=EDGE_LOOP('',(#706,#714,#723,#729));
#731=FACE_OUTER_BOUND('',#730,.T.);
#732=ADVANCED_FACE('',(#731),#697,.T.);
#733=CARTESIAN_POINT('',(7.625000000000004,-9.124999999999998,9.15));
#734=DIRECTION('',(-1.0,-2.329648E-016,0.0));
#735=DIRECTION('',(0.0,-0.707106781186548,0.707106781186548));
#736=AXIS2_PLACEMENT_3D('',#733,#734,#735);
#737=CYLINDRICAL_SURFACE('',#736,1.0);
#738=CARTESIAN_POINT('',(15.125000000000007,-10.124999999999996,9.15));
#739=VERTEX_POINT('',#738);
#740=CARTESIAN_POINT('',(15.125000000000007,-9.124999999999996,9.15));
#741=DIRECTION('',(-1.0,0.0,0.0));
#742=DIRECTION('',(0.0,-1.0,0.0));
#743=AXIS2_PLACEMENT_3D('',#740,#741,#742);
#744=CIRCLE('',#743,1.0);
#745=EDGE_CURVE('',#739,#708,#744,.T.);
#746=ORIENTED_EDGE('',*,*,#745,.T.);
#747=CARTESIAN_POINT('',(-15.125,-9.125000000000004,10.15));
#748=VERTEX_POINT('',#747);
#749=CARTESIAN_POINT('',(15.125000000000007,-9.124999999999996,10.15));
#750=DIRECTION('',(-1.0,0.0,0.0));
#751=VECTOR('',#750,30.250000000000007);
#752=LINE('',#749,#751);
#753=EDGE_CURVE('',#708,#748,#752,.T.);
#754=ORIENTED_EDGE('',*,*,#753,.T.);
#755=CARTESIAN_POINT('',(-15.125,-10.125000000000004,9.15));
#756=VERTEX_POINT('',#755);
#757=CARTESIAN_POINT('',(-15.125,-9.125000000000004,9.15));
#758=DIRECTION('',(1.0,0.0,0.0));
#759=DIRECTION('',(0.0,0.0,1.0));
#760=AXIS2_PLACEMENT_3D('',#757,#758,#759);
#761=CIRCLE('',#760,1.0);
#762=EDGE_CURVE('',#748,#756,#761,.T.);
#763=ORIENTED_EDGE('',*,*,#762,.T.);
#764=CARTESIAN_POINT('',(-15.125,-10.125000000000004,9.15));
#765=DIRECTION('',(1.0,0.0,0.0));
#766=VECTOR('',#765,30.250000000000007);
#767=LINE('',#764,#766);
#768=EDGE_CURVE('',#756,#739,#767,.T.);
#769=ORIENTED_EDGE('',*,*,#768,.T.);
#770=EDGE_LOOP('',(#746,#754,#763,#769));
#771=FACE_OUTER_BOUND('',#770,.T.);
#772=ADVANCED_FACE('',(#771),#737,.T.);
#773=CARTESIAN_POINT('',(15.125000000000007,-9.124999999999996,9.15));
#774=DIRECTION('',(0.577350269189626,0.577350269189626,0.577350269189626));
#775=DIRECTION('',(-0.707106781186548,0.0,0.707106781186548));
#776=AXIS2_PLACEMENT_3D('',#773,#774,#775);
#777=SPHERICAL_SURFACE('',#776,1.0);
#778=ORIENTED_EDGE('',*,*,#745,.F.);
#779=CARTESIAN_POINT('',(15.125000000000007,-9.124999999999996,9.15));
#780=DIRECTION('',(0.0,0.0,1.0));
#781=DIRECTION('',(0.707106781186548,-0.707106781186548,0.0));
#782=AXIS2_PLACEMENT_3D('',#779,#780,#781);
#783=CIRCLE('',#782,1.0);
#784=EDGE_CURVE('',#739,#716,#783,.T.);
#785=ORIENTED_EDGE('',*,*,#784,.T.);
#786=ORIENTED_EDGE('',*,*,#722,.F.);
#787=EDGE_LOOP('',(#778,#785,#786));
#788=FACE_OUTER_BOUND('',#787,.T.);
#789=ADVANCED_FACE('',(#788),#777,.T.);
#790=CARTESIAN_POINT('',(-15.125,-4.625000000000002,9.15));
#791=DIRECTION('',(0.0,1.0,0.0));
#792=DIRECTION('',(-0.707106781186548,0.0,0.707106781186548));
#793=AXIS2_PLACEMENT_3D('',#790,#791,#792);
#794=CYLINDRICAL_SURFACE('',#793,1.0);
#795=CARTESIAN_POINT('',(-16.125,-9.125000000000004,9.15));
#796=VERTEX_POINT('',#795);
#797=CARTESIAN_POINT('',(-15.125,-9.125000000000004,9.15));
#798=DIRECTION('',(0.0,1.0,0.0));
#799=DIRECTION('',(-1.0,0.0,0.0));
#800=AXIS2_PLACEMENT_3D('',#797,#798,#799);
#801=CIRCLE('',#800,1.0);
#802=EDGE_CURVE('',#796,#748,#801,.T.);
#803=ORIENTED_EDGE('',*,*,#802,.T.);
#804=CARTESIAN_POINT('',(-15.125,-9.125000000000004,10.15));
#805=DIRECTION('',(0.0,1.0,0.0));
#806=VECTOR('',#805,18.250000000000004);
#807=LINE('',#804,#806);
#808=EDGE_CURVE('',#748,#660,#807,.T.);
#809=ORIENTED_EDGE('',*,*,#808,.T.);
#810=CARTESIAN_POINT('',(-16.125,9.125,9.15));
#811=VERTEX_POINT('',#810);
#812=CARTESIAN_POINT('',(-15.125,9.125,9.15));
#813=DIRECTION('',(0.0,-1.0,0.0));
#814=DIRECTION('',(0.0,0.0,1.0));
#815=AXIS2_PLACEMENT_3D('',#812,#813,#814);
#816=CIRCLE('',#815,1.0);
#817=EDGE_CURVE('',#660,#811,#816,.T.);
#818=ORIENTED_EDGE('',*,*,#817,.T.);
#819=CARTESIAN_POINT('',(-16.125,9.125,9.15));
#820=DIRECTION('',(0.0,-1.0,0.0));
#821=VECTOR('',#820,18.250000000000004);
#822=LINE('',#819,#821);
#823=EDGE_CURVE('',#811,#796,#822,.T.);
#824=ORIENTED_EDGE('',*,*,#823,.T.);
#825=EDGE_LOOP('',(#803,#809,#818,#824));
#826=FACE_OUTER_BOUND('',#825,.T.);
#827=ADVANCED_FACE('',(#826),#794,.T.);
#828=CARTESIAN_POINT('',(-15.125,-9.125000000000004,9.15));
#829=DIRECTION('',(0.577350269189626,0.577350269189626,0.577350269189626));
#830=DIRECTION('',(-0.707106781186548,0.0,0.707106781186548));
#831=AXIS2_PLACEMENT_3D('',#828,#829,#830);
#832=SPHERICAL_SURFACE('',#831,1.0);
#833=ORIENTED_EDGE('',*,*,#802,.F.);
#834=CARTESIAN_POINT('',(-15.125,-9.125000000000004,9.15));
#835=DIRECTION('',(0.0,0.0,1.0));
#836=DIRECTION('',(-0.707106781186548,-0.707106781186548,0.0));
#837=AXIS2_PLACEMENT_3D('',#834,#835,#836);
#838=CIRCLE('',#837,1.0);
#839=EDGE_CURVE('',#796,#756,#838,.T.);
#840=ORIENTED_EDGE('',*,*,#839,.T.);
#841=ORIENTED_EDGE('',*,*,#762,.F.);
#842=EDGE_LOOP('',(#833,#840,#841));
#843=FACE_OUTER_BOUND('',#842,.T.);
#844=ADVANCED_FACE('',(#843),#832,.T.);
#845=CARTESIAN_POINT('',(15.125,9.125,9.15));
#846=DIRECTION('',(0.577350269189626,0.577350269189626,0.577350269189626));
#847=DIRECTION('',(-0.707106781186548,0.0,0.707106781186548));
#848=AXIS2_PLACEMENT_3D('',#845,#846,#847);
#849=SPHERICAL_SURFACE('',#848,1.0);
#850=ORIENTED_EDGE('',*,*,#622,.T.);
#851=ORIENTED_EDGE('',*,*,#681,.F.);
#852=ORIENTED_EDGE('',*,*,#705,.F.);
#853=CARTESIAN_POINT('',(15.125,9.125,9.15));
#854=DIRECTION('',(0.0,0.0,1.0));
#855=DIRECTION('',(0.707106781186548,0.707106781186548,0.0));
#856=AXIS2_PLACEMENT_3D('',#853,#854,#855);
#857=CIRCLE('',#856,1.0);
#858=EDGE_CURVE('',#699,#625,#857,.T.);
#859=ORIENTED_EDGE('',*,*,#858,.T.);
#860=ORIENTED_EDGE('',*,*,#631,.F.);
#861=EDGE_LOOP('',(#850,#851,#852,#859,#860));
#862=FACE_OUTER_BOUND('',#861,.T.);
#863=ADVANCED_FACE('',(#862),#849,.T.);
#864=CARTESIAN_POINT('',(-15.125,9.125,9.15));
#865=DIRECTION('',(0.577350269189626,0.577350269189626,0.577350269189626));
#866=DIRECTION('',(-0.707106781186548,0.0,0.707106781186548));
#867=AXIS2_PLACEMENT_3D('',#864,#865,#866);
#868=SPHERICAL_SURFACE('',#867,1.0);
#869=ORIENTED_EDGE('',*,*,#666,.F.);
#870=CARTESIAN_POINT('',(-15.125,9.125,9.15));
#871=DIRECTION('',(0.0,0.0,1.0));
#872=DIRECTION('',(-0.707106781186548,0.707106781186548,0.0));
#873=AXIS2_PLACEMENT_3D('',#870,#871,#872);
#874=CIRCLE('',#873,1.0);
#875=EDGE_CURVE('',#658,#811,#874,.T.);
#876=ORIENTED_EDGE('',*,*,#875,.T.);
#877=ORIENTED_EDGE('',*,*,#817,.F.);
#878=EDGE_LOOP('',(#869,#876,#877));
#879=FACE_OUTER_BOUND('',#878,.T.);
#880=ADVANCED_FACE('',(#879),#868,.T.);
#881=CARTESIAN_POINT('',(8.049117E-016,-8.049117E-016,10.15));
#882=DIRECTION('',(0.0,0.0,1.0));
#883=DIRECTION('',(1.0,0.0,0.0));
#884=AXIS2_PLACEMENT_3D('',#881,#882,#883);
#885=PLANE('',#884);
#886=ORIENTED_EDGE('',*,*,#674,.F.);
#887=ORIENTED_EDGE('',*,*,#808,.F.);
#888=ORIENTED_EDGE('',*,*,#753,.F.);
#889=ORIENTED_EDGE('',*,*,#713,.F.);
#890=EDGE_LOOP('',(#886,#887,#888,#889));
#891=FACE_OUTER_BOUND('',#890,.T.);
#892=ADVANCED_FACE('',(#891),#885,.T.);
#893=CARTESIAN_POINT('',(-15.125000000000007,-9.124999999999998,0.0));
#894=DIRECTION('',(0.0,0.0,1.0));
#895=DIRECTION('',(-0.707106781186548,-0.707106781186548,0.0));
#896=AXIS2_PLACEMENT_3D('',#893,#894,#895);
#897=CYLINDRICAL_SURFACE('',#896,1.0);
#898=CARTESIAN_POINT('',(-16.125000000000007,-9.124999999999998,0.0));
#899=VERTEX_POINT('',#898);
#900=CARTESIAN_POINT('',(-16.125000000000007,-9.124999999999998,0.0));
#901=DIRECTION('',(0.0,0.0,1.0));
#902=VECTOR('',#901,9.15);
#903=LINE('',#900,#902);
#904=EDGE_CURVE('',#899,#796,#903,.T.);
#905=ORIENTED_EDGE('',*,*,#904,.F.);
#906=CARTESIAN_POINT('',(-15.125000000000007,-10.124999999999998,0.0));
#907=VERTEX_POINT('',#906);
#908=CARTESIAN_POINT('',(-15.125000000000007,-9.124999999999998,0.0));
#909=DIRECTION('',(0.0,0.0,1.0));
#910=DIRECTION('',(-0.707106781186548,-0.707106781186548,0.0));
#911=AXIS2_PLACEMENT_3D('',#908,#909,#910);
#912=CIRCLE('',#911,1.0);
#913=EDGE_CURVE('',#899,#907,#912,.T.);
#914=ORIENTED_EDGE('',*,*,#913,.T.);
#915=CARTESIAN_POINT('',(-15.125000000000007,-10.124999999999998,0.0));
#916=DIRECTION('',(0.0,0.0,1.0));
#917=VECTOR('',#916,9.15);
#918=LINE('',#915,#917);
#919=EDGE_CURVE('',#907,#756,#918,.T.);
#920=ORIENTED_EDGE('',*,*,#919,.T.);
#921=ORIENTED_EDGE('',*,*,#839,.F.);
#922=EDGE_LOOP('',(#905,#914,#920,#921));
#923=FACE_OUTER_BOUND('',#922,.T.);
#924=ADVANCED_FACE('',(#923),#897,.T.);
#925=CARTESIAN_POINT('',(-16.125000000000007,-9.249999999999998,0.0));
#926=DIRECTION('',(-1.0,0.0,0.0));
#927=DIRECTION('',(0.0,0.0,1.0));
#928=AXIS2_PLACEMENT_3D('',#925,#926,#927);
#929=PLANE('',#928);
#930=CARTESIAN_POINT('',(-16.125,9.124999999999996,0.0));
#931=VERTEX_POINT('',#930);
#932=CARTESIAN_POINT('',(-16.125,9.124999999999996,0.0));
#933=DIRECTION('',(0.0,0.0,1.0));
#934=VECTOR('',#933,9.15);
#935=LINE('',#932,#934);
#936=EDGE_CURVE('',#931,#811,#935,.T.);
#937=ORIENTED_EDGE('',*,*,#936,.F.);
#938=CARTESIAN_POINT('',(-16.125000000000004,9.124999999999996,0.0));
#939=DIRECTION('',(0.0,-1.0,0.0));
#940=VECTOR('',#939,18.249999999999993);
#941=LINE('',#938,#940);
#942=EDGE_CURVE('',#931,#899,#941,.T.);
#943=ORIENTED_EDGE('',*,*,#942,.T.);
#944=ORIENTED_EDGE('',*,*,#904,.T.);
#945=ORIENTED_EDGE('',*,*,#823,.F.);
#946=EDGE_LOOP('',(#937,#943,#944,#945));
#947=FACE_OUTER_BOUND('',#946,.T.);
#948=ADVANCED_FACE('',(#947),#929,.T.);
#949=CARTESIAN_POINT('',(-15.125,9.124999999999996,0.0));
#950=DIRECTION('',(0.0,0.0,1.0));
#951=DIRECTION('',(-0.707106781186548,0.707106781186548,0.0));
#952=AXIS2_PLACEMENT_3D('',#949,#950,#951);
#953=CYLINDRICAL_SURFACE('',#952,1.0);
#954=CARTESIAN_POINT('',(-15.125,10.124999999999996,0.0));
#955=VERTEX_POINT('',#954);
#956=CARTESIAN_POINT('',(-15.125,10.124999999999996,0.0));
#957=DIRECTION('',(0.0,0.0,1.0));
#958=VECTOR('',#957,9.15);
#959=LINE('',#956,#958);
#960=EDGE_CURVE('',#955,#658,#959,.T.);
#961=ORIENTED_EDGE('',*,*,#960,.F.);
#962=CARTESIAN_POINT('',(-15.125,9.124999999999996,0.0));
#963=DIRECTION('',(0.0,0.0,1.0));
#964=DIRECTION('',(-0.707106781186548,0.707106781186548,0.0));
#965=AXIS2_PLACEMENT_3D('',#962,#963,#964);
#966=CIRCLE('',#965,1.0);
#967=EDGE_CURVE('',#955,#931,#966,.T.);
#968=ORIENTED_EDGE('',*,*,#967,.T.);
#969=ORIENTED_EDGE('',*,*,#936,.T.);
#970=ORIENTED_EDGE('',*,*,#875,.F.);
#971=EDGE_LOOP('',(#961,#968,#969,#970));
#972=FACE_OUTER_BOUND('',#971,.T.);
#973=ADVANCED_FACE('',(#972),#953,.T.);
#974=CARTESIAN_POINT('',(-15.25,10.124999999999996,-0.25));
#975=DIRECTION('',(0.0,1.0,0.0));
#976=DIRECTION('',(0.0,0.0,1.0));
#977=AXIS2_PLACEMENT_3D('',#974,#975,#976);
#978=PLANE('',#977);
#979=CARTESIAN_POINT('',(15.125000000000014,10.124999999999996,0.0));
#980=VERTEX_POINT('',#979);
#981=CARTESIAN_POINT('',(15.125000000000014,10.124999999999996,0.0));
#982=DIRECTION('',(0.0,0.0,1.0));
#983=VECTOR('',#982,9.15);
#984=LINE('',#981,#983);
#985=EDGE_CURVE('',#980,#634,#984,.T.);
#986=ORIENTED_EDGE('',*,*,#985,.F.);
#987=CARTESIAN_POINT('',(-15.125,10.124999999999996,0.0));
#988=DIRECTION('',(1.0,0.0,0.0));
#989=VECTOR('',#988,30.250000000000014);
#990=LINE('',#987,#989);
#991=EDGE_CURVE('',#980,#955,#990,.F.);
#992=ORIENTED_EDGE('',*,*,#991,.T.);
#993=ORIENTED_EDGE('',*,*,#960,.T.);
#994=ORIENTED_EDGE('',*,*,#688,.F.);
#995=EDGE_LOOP('',(#986,#992,#993,#994));
#996=FACE_OUTER_BOUND('',#995,.T.);
#997=ADVANCED_FACE('',(#996),#978,.T.);
#998=CARTESIAN_POINT('',(15.125000000000014,9.124999999999996,0.0));
#999=DIRECTION('',(0.0,0.0,1.0));
#1000=DIRECTION('',(0.707106781186548,0.707106781186548,0.0));
#1001=AXIS2_PLACEMENT_3D('',#998,#999,#1000);
#1002=CYLINDRICAL_SURFACE('',#1001,1.0);
#1003=CARTESIAN_POINT('',(16.125000000000014,9.124999999999996,0.0));
#1004=VERTEX_POINT('',#1003);
#1005=CARTESIAN_POINT('',(16.125000000000014,9.124999999999996,0.0));
#1006=DIRECTION('',(0.0,0.0,1.0));
#1007=VECTOR('',#1006,9.15);
#1008=LINE('',#1005,#1007);
#1009=EDGE_CURVE('',#1004,#699,#1008,.T.);
#1010=ORIENTED_EDGE('',*,*,#1009,.F.);
#1011=CARTESIAN_POINT('',(15.125000000000014,9.124999999999996,0.0));
#1012=DIRECTION('',(0.0,0.0,1.0));
#1013=DIRECTION('',(0.707106781186548,0.707106781186548,0.0));
#1014=AXIS2_PLACEMENT_3D('',#1011,#1012,#1013);
#1015=CIRCLE('',#1014,1.0);
#1016=EDGE_CURVE('',#1004,#980,#1015,.T.);
#1017=ORIENTED_EDGE('',*,*,#1016,.T.);
#1018=ORIENTED_EDGE('',*,*,#985,.T.);
#1019=ORIENTED_EDGE('',*,*,#640,.F.);
#1020=ORIENTED_EDGE('',*,*,#858,.F.);
#1021=EDGE_LOOP('',(#1010,#1017,#1018,#1019,#1020));
#1022=FACE_OUTER_BOUND('',#1021,.T.);
#1023=ADVANCED_FACE('',(#1022),#1002,.T.);
#1024=CARTESIAN_POINT('',(16.125000000000014,9.249999999999996,-0.25));
#1025=DIRECTION('',(1.0,0.0,0.0));
#1026=DIRECTION('',(0.0,0.0,-1.0));
#1027=AXIS2_PLACEMENT_3D('',#1024,#1025,#1026);
#1028=PLANE('',#1027);
#1029=CARTESIAN_POINT('',(16.125000000000014,-9.124999999999998,0.0));
#1030=VERTEX_POINT('',#1029);
#1031=CARTESIAN_POINT('',(16.125000000000014,-9.124999999999998,0.0));
#1032=DIRECTION('',(0.0,0.0,1.0));
#1033=VECTOR('',#1032,9.15);
#1034=LINE('',#1031,#1033);
#1035=EDGE_CURVE('',#1030,#716,#1034,.T.);
#1036=ORIENTED_EDGE('',*,*,#1035,.F.);
#1037=CARTESIAN_POINT('',(16.125000000000014,9.124999999999996,0.0));
#1038=DIRECTION('',(0.0,-1.0,0.0));
#1039=VECTOR('',#1038,18.249999999999993);
#1040=LINE('',#1037,#1039);
#1041=EDGE_CURVE('',#1030,#1004,#1040,.F.);
#1042=ORIENTED_EDGE('',*,*,#1041,.T.);
#1043=ORIENTED_EDGE('',*,*,#1009,.T.);
#1044=ORIENTED_EDGE('',*,*,#728,.F.);
#1045=EDGE_LOOP('',(#1036,#1042,#1043,#1044));
#1046=FACE_OUTER_BOUND('',#1045,.T.);
#1047=ADVANCED_FACE('',(#1046),#1028,.T.);
#1048=CARTESIAN_POINT('',(15.125000000000014,-9.124999999999998,0.0));
#1049=DIRECTION('',(0.0,0.0,1.0));
#1050=DIRECTION('',(0.707106781186548,-0.707106781186548,0.0));
#1051=AXIS2_PLACEMENT_3D('',#1048,#1049,#1050);
#1052=CYLINDRICAL_SURFACE('',#1051,1.0);
#1053=CARTESIAN_POINT('',(15.125000000000014,-10.124999999999998,0.0));
#1054=VERTEX_POINT('',#1053);
#1055=CARTESIAN_POINT('',(15.125000000000014,-10.124999999999998,0.0));
#1056=DIRECTION('',(0.0,0.0,1.0));
#1057=VECTOR('',#1056,9.15);
#1058=LINE('',#1055,#1057);
#1059=EDGE_CURVE('',#1054,#739,#1058,.T.);
#1060=ORIENTED_EDGE('',*,*,#1059,.F.);
#1061=CARTESIAN_POINT('',(15.125000000000014,-9.124999999999998,0.0));
#1062=DIRECTION('',(0.0,0.0,1.0));
#1063=DIRECTION('',(0.707106781186548,-0.707106781186548,0.0));
#1064=AXIS2_PLACEMENT_3D('',#1061,#1062,#1063);
#1065=CIRCLE('',#1064,1.0);
#1066=EDGE_CURVE('',#1054,#1030,#1065,.T.);
#1067=ORIENTED_EDGE('',*,*,#1066,.T.);
#1068=ORIENTED_EDGE('',*,*,#1035,.T.);
#1069=ORIENTED_EDGE('',*,*,#784,.F.);
#1070=EDGE_LOOP('',(#1060,#1067,#1068,#1069));
#1071=FACE_OUTER_BOUND('',#1070,.T.);
#1072=ADVANCED_FACE('',(#1071),#1052,.T.);
#1073=CARTESIAN_POINT('',(15.250000000000014,-10.124999999999998,0.0));
#1074=DIRECTION('',(0.0,-1.0,0.0));
#1075=DIRECTION('',(0.0,0.0,-1.0));
#1076=AXIS2_PLACEMENT_3D('',#1073,#1074,#1075);
#1077=PLANE('',#1076);
#1078=ORIENTED_EDGE('',*,*,#919,.F.);
#1079=CARTESIAN_POINT('',(-15.125000000000007,-10.124999999999998,0.0));
#1080=DIRECTION('',(1.0,0.0,0.0));
#1081=VECTOR('',#1080,30.250000000000021);
#1082=LINE('',#1079,#1081);
#1083=EDGE_CURVE('',#907,#1054,#1082,.T.);
#1084=ORIENTED_EDGE('',*,*,#1083,.T.);
#1085=ORIENTED_EDGE('',*,*,#1059,.T.);
#1086=ORIENTED_EDGE('',*,*,#768,.F.);
#1087=EDGE_LOOP('',(#1078,#1084,#1085,#1086));
#1088=FACE_OUTER_BOUND('',#1087,.T.);
#1089=ADVANCED_FACE('',(#1088),#1077,.T.);
#1090=CARTESIAN_POINT('',(-0.124999999999986,0.125,0.0));
#1091=DIRECTION('',(0.0,0.0,1.0));
#1092=DIRECTION('',(1.0,0.0,0.0));
#1093=AXIS2_PLACEMENT_3D('',#1090,#1091,#1092);
#1094=PLANE('',#1093);
#1095=ORIENTED_EDGE('',*,*,#1083,.F.);
#1096=ORIENTED_EDGE('',*,*,#913,.F.);
#1097=ORIENTED_EDGE('',*,*,#942,.F.);
#1098=ORIENTED_EDGE('',*,*,#967,.F.);
#1099=ORIENTED_EDGE('',*,*,#991,.F.);
#1100=ORIENTED_EDGE('',*,*,#1016,.F.);
#1101=ORIENTED_EDGE('',*,*,#1041,.F.);
#1102=ORIENTED_EDGE('',*,*,#1066,.F.);
#1103=EDGE_LOOP('',(#1095,#1096,#1097,#1098,#1099,#1100,#1101,#1102));
#1104=FACE_OUTER_BOUND('',#1103,.T.);
#1105=ADVANCED_FACE('',(#1104),#1094,.F.);
#1106=CLOSED_SHELL('',(#651,#692,#732,#772,#789,#827,#844,#863,#880,#892,#924,#948,#973,#997,#1023,#1047,#1072,#1089,#1105));
#1107=MANIFOLD_SOLID_BREP('BA4',#1106);
#1108=COLOUR_RGB('250',0.33,0.33,0.33);
#1109=SURFACE_STYLE_USAGE(.BOTH.,#1110);
#1110=SURFACE_SIDE_STYLE('NONE',(#1111));
#1111=SURFACE_STYLE_FILL_AREA(#1112);
#1112=FILL_AREA_STYLE('NONE',(#1113));
#1113=FILL_AREA_STYLE_COLOUR('NONE',#1108);
#1114=PRESENTATION_STYLE_ASSIGNMENT((#1109));
#1115=STYLED_ITEM('NONE',(#1114),#1107);
#1116=CARTESIAN_POINT('',(-14.000000000000007,-8.000000000000004,10.149999999999999));
#1117=DIRECTION('',(0.0,0.0,1.0));
#1118=DIRECTION('',(-0.707106781186548,-0.707106781186548,0.0));
#1119=AXIS2_PLACEMENT_3D('',#1116,#1117,#1118);
#1120=CYLINDRICAL_SURFACE('',#1119,1.0);
#1121=CARTESIAN_POINT('',(-14.000000000000007,-9.000000000000004,10.25));
#1122=VERTEX_POINT('',#1121);
#1123=CARTESIAN_POINT('',(-15.000000000000007,-8.000000000000004,10.25));
#1124=VERTEX_POINT('',#1123);
#1125=CARTESIAN_POINT('',(-14.000000000000007,-8.000000000000004,10.25));
#1126=DIRECTION('',(0.0,0.0,-1.0));
#1127=DIRECTION('',(-0.707106781186548,-0.707106781186548,0.0));
#1128=AXIS2_PLACEMENT_3D('',#1125,#1126,#1127);
#1129=CIRCLE('',#1128,1.0);
#1130=EDGE_CURVE('',#1122,#1124,#1129,.T.);
#1131=ORIENTED_EDGE('',*,*,#1130,.T.);
#1132=CARTESIAN_POINT('',(-15.000000000000007,-8.000000000000004,10.149999999999999));
#1133=VERTEX_POINT('',#1132);
#1134=CARTESIAN_POINT('',(-15.000000000000007,-8.000000000000004,10.149999999999999));
#1135=DIRECTION('',(0.0,0.0,1.0));
#1136=VECTOR('',#1135,0.1);
#1137=LINE('',#1134,#1136);
#1138=EDGE_CURVE('',#1133,#1124,#1137,.T.);
#1139=ORIENTED_EDGE('',*,*,#1138,.F.);
#1140=CARTESIAN_POINT('',(-14.000000000000007,-9.000000000000004,10.149999999999999));
#1141=VERTEX_POINT('',#1140);
#1142=CARTESIAN_POINT('',(-14.000000000000007,-8.000000000000004,10.149999999999999));
#1143=DIRECTION('',(0.0,0.0,-1.0));
#1144=DIRECTION('',(-0.707106781186548,-0.707106781186548,0.0));
#1145=AXIS2_PLACEMENT_3D('',#1142,#1143,#1144);
#1146=CIRCLE('',#1145,1.0);
#1147=EDGE_CURVE('',#1141,#1133,#1146,.T.);
#1148=ORIENTED_EDGE('',*,*,#1147,.F.);
#1149=CARTESIAN_POINT('',(-14.000000000000007,-9.000000000000004,10.149999999999999));
#1150=DIRECTION('',(0.0,0.0,1.0));
#1151=VECTOR('',#1150,0.1);
#1152=LINE('',#1149,#1151);
#1153=EDGE_CURVE('',#1141,#1122,#1152,.T.);
#1154=ORIENTED_EDGE('',*,*,#1153,.T.);
#1155=EDGE_LOOP('',(#1131,#1139,#1148,#1154));
#1156=FACE_OUTER_BOUND('',#1155,.T.);
#1157=ADVANCED_FACE('',(#1156),#1120,.T.);
#1158=CARTESIAN_POINT('',(-15.000000000000007,-8.000000000000004,10.149999999999999));
#1159=DIRECTION('',(-1.0,0.0,0.0));
#1160=DIRECTION('',(0.0,0.0,1.0));
#1161=AXIS2_PLACEMENT_3D('',#1158,#1159,#1160);
#1162=PLANE('',#1161);
#1163=CARTESIAN_POINT('',(-14.999999999999993,8.0,10.25));
#1164=VERTEX_POINT('',#1163);
#1165=CARTESIAN_POINT('',(-15.000000000000007,-8.000000000000004,10.25));
#1166=DIRECTION('',(0.0,1.0,0.0));
#1167=VECTOR('',#1166,16.000000000000004);
#1168=LINE('',#1165,#1167);
#1169=EDGE_CURVE('',#1124,#1164,#1168,.T.);
#1170=ORIENTED_EDGE('',*,*,#1169,.T.);
#1171=CARTESIAN_POINT('',(-14.999999999999993,8.0,10.149999999999999));
#1172=VERTEX_POINT('',#1171);
#1173=CARTESIAN_POINT('',(-14.999999999999993,8.0,10.149999999999999));
#1174=DIRECTION('',(0.0,0.0,1.0));
#1175=VECTOR('',#1174,0.1);
#1176=LINE('',#1173,#1175);
#1177=EDGE_CURVE('',#1172,#1164,#1176,.T.);
#1178=ORIENTED_EDGE('',*,*,#1177,.F.);
#1179=CARTESIAN_POINT('',(-15.000000000000007,-8.000000000000004,10.149999999999999));
#1180=DIRECTION('',(0.0,1.0,0.0));
#1181=VECTOR('',#1180,16.000000000000004);
#1182=LINE('',#1179,#1181);
#1183=EDGE_CURVE('',#1133,#1172,#1182,.T.);
#1184=ORIENTED_EDGE('',*,*,#1183,.F.);
#1185=ORIENTED_EDGE('',*,*,#1138,.T.);
#1186=EDGE_LOOP('',(#1170,#1178,#1184,#1185));
#1187=FACE_OUTER_BOUND('',#1186,.T.);
#1188=ADVANCED_FACE('',(#1187),#1162,.T.);
#1189=CARTESIAN_POINT('',(-13.999999999999993,8.0,10.149999999999999));
#1190=DIRECTION('',(0.0,0.0,1.0));
#1191=DIRECTION('',(-0.707106781186548,0.707106781186548,0.0));
#1192=AXIS2_PLACEMENT_3D('',#1189,#1190,#1191);
#1193=CYLINDRICAL_SURFACE('',#1192,1.0);
#1194=CARTESIAN_POINT('',(-13.999999999999993,9.0,10.25));
#1195=VERTEX_POINT('',#1194);
#1196=CARTESIAN_POINT('',(-13.999999999999993,8.0,10.25));
#1197=DIRECTION('',(0.0,0.0,-1.0));
#1198=DIRECTION('',(-0.707106781186548,0.707106781186548,0.0));
#1199=AXIS2_PLACEMENT_3D('',#1196,#1197,#1198);
#1200=CIRCLE('',#1199,1.0);
#1201=EDGE_CURVE('',#1164,#1195,#1200,.T.);
#1202=ORIENTED_EDGE('',*,*,#1201,.T.);
#1203=CARTESIAN_POINT('',(-13.999999999999993,9.0,10.149999999999999));
#1204=VERTEX_POINT('',#1203);
#1205=CARTESIAN_POINT('',(-13.999999999999993,9.0,10.149999999999999));
#1206=DIRECTION('',(0.0,0.0,1.0));
#1207=VECTOR('',#1206,0.1);
#1208=LINE('',#1205,#1207);
#1209=EDGE_CURVE('',#1204,#1195,#1208,.T.);
#1210=ORIENTED_EDGE('',*,*,#1209,.F.);
#1211=CARTESIAN_POINT('',(-13.999999999999993,8.0,10.149999999999999));
#1212=DIRECTION('',(0.0,0.0,-1.0));
#1213=DIRECTION('',(-0.707106781186548,0.707106781186548,0.0));
#1214=AXIS2_PLACEMENT_3D('',#1211,#1212,#1213);
#1215=CIRCLE('',#1214,1.0);
#1216=EDGE_CURVE('',#1172,#1204,#1215,.T.);
#1217=ORIENTED_EDGE('',*,*,#1216,.F.);
#1218=ORIENTED_EDGE('',*,*,#1177,.T.);
#1219=EDGE_LOOP('',(#1202,#1210,#1217,#1218));
#1220=FACE_OUTER_BOUND('',#1219,.T.);
#1221=ADVANCED_FACE('',(#1220),#1193,.T.);
#1222=CARTESIAN_POINT('',(-13.999999999999993,9.0,10.149999999999999));
#1223=DIRECTION('',(0.0,1.0,0.0));
#1224=DIRECTION('',(0.0,0.0,1.0));
#1225=AXIS2_PLACEMENT_3D('',#1222,#1223,#1224);
#1226=PLANE('',#1225);
#1227=CARTESIAN_POINT('',(14.0,9.0,10.25));
#1228=VERTEX_POINT('',#1227);
#1229=CARTESIAN_POINT('',(-13.999999999999993,9.0,10.25));
#1230=DIRECTION('',(1.0,0.0,0.0));
#1231=VECTOR('',#1230,27.999999999999993);
#1232=LINE('',#1229,#1231);
#1233=EDGE_CURVE('',#1195,#1228,#1232,.T.);
#1234=ORIENTED_EDGE('',*,*,#1233,.T.);
#1235=CARTESIAN_POINT('',(14.0,9.0,10.149999999999999));
#1236=VERTEX_POINT('',#1235);
#1237=CARTESIAN_POINT('',(14.0,9.0,10.149999999999999));
#1238=DIRECTION('',(0.0,0.0,1.0));
#1239=VECTOR('',#1238,0.1);
#1240=LINE('',#1237,#1239);
#1241=EDGE_CURVE('',#1236,#1228,#1240,.T.);
#1242=ORIENTED_EDGE('',*,*,#1241,.F.);
#1243=CARTESIAN_POINT('',(-13.999999999999993,9.0,10.149999999999999));
#1244=DIRECTION('',(1.0,0.0,0.0));
#1245=VECTOR('',#1244,27.999999999999993);
#1246=LINE('',#1243,#1245);
#1247=EDGE_CURVE('',#1204,#1236,#1246,.T.);
#1248=ORIENTED_EDGE('',*,*,#1247,.F.);
#1249=ORIENTED_EDGE('',*,*,#1209,.T.);
#1250=EDGE_LOOP('',(#1234,#1242,#1248,#1249));
#1251=FACE_OUTER_BOUND('',#1250,.T.);
#1252=ADVANCED_FACE('',(#1251),#1226,.T.);
#1253=CARTESIAN_POINT('',(14.0,8.0,10.149999999999999));
#1254=DIRECTION('',(0.0,0.0,1.0));
#1255=DIRECTION('',(0.707106781186548,0.707106781186548,0.0));
#1256=AXIS2_PLACEMENT_3D('',#1253,#1254,#1255);
#1257=CYLINDRICAL_SURFACE('',#1256,1.0);
#1258=CARTESIAN_POINT('',(15.0,8.0,10.25));
#1259=VERTEX_POINT('',#1258);
#1260=CARTESIAN_POINT('',(14.0,8.0,10.25));
#1261=DIRECTION('',(0.0,0.0,-1.0));
#1262=DIRECTION('',(0.707106781186548,0.707106781186548,0.0));
#1263=AXIS2_PLACEMENT_3D('',#1260,#1261,#1262);
#1264=CIRCLE('',#1263,1.0);
#1265=EDGE_CURVE('',#1228,#1259,#1264,.T.);
#1266=ORIENTED_EDGE('',*,*,#1265,.T.);
#1267=CARTESIAN_POINT('',(15.0,8.0,10.149999999999999));
#1268=VERTEX_POINT('',#1267);
#1269=CARTESIAN_POINT('',(15.0,8.0,10.149999999999999));
#1270=DIRECTION('',(0.0,0.0,1.0));
#1271=VECTOR('',#1270,0.1);
#1272=LINE('',#1269,#1271);
#1273=EDGE_CURVE('',#1268,#1259,#1272,.T.);
#1274=ORIENTED_EDGE('',*,*,#1273,.F.);
#1275=CARTESIAN_POINT('',(14.0,8.0,10.149999999999999));
#1276=DIRECTION('',(0.0,0.0,-1.0));
#1277=DIRECTION('',(0.707106781186548,0.707106781186548,0.0));
#1278=AXIS2_PLACEMENT_3D('',#1275,#1276,#1277);
#1279=CIRCLE('',#1278,1.0);
#1280=EDGE_CURVE('',#1236,#1268,#1279,.T.);
#1281=ORIENTED_EDGE('',*,*,#1280,.F.);
#1282=ORIENTED_EDGE('',*,*,#1241,.T.);
#1283=EDGE_LOOP('',(#1266,#1274,#1281,#1282));
#1284=FACE_OUTER_BOUND('',#1283,.T.);
#1285=ADVANCED_FACE('',(#1284),#1257,.T.);
#1286=CARTESIAN_POINT('',(15.0,8.0,10.149999999999999));
#1287=DIRECTION('',(1.0,0.0,0.0));
#1288=DIRECTION('',(0.0,0.0,-1.0));
#1289=AXIS2_PLACEMENT_3D('',#1286,#1287,#1288);
#1290=PLANE('',#1289);
#1291=CARTESIAN_POINT('',(15.000000000000004,-7.999999999999998,10.25));
#1292=VERTEX_POINT('',#1291);
#1293=CARTESIAN_POINT('',(15.0,8.0,10.25));
#1294=DIRECTION('',(0.0,-1.0,0.0));
#1295=VECTOR('',#1294,16.0);
#1296=LINE('',#1293,#1295);
#1297=EDGE_CURVE('',#1259,#1292,#1296,.T.);
#1298=ORIENTED_EDGE('',*,*,#1297,.T.);
#1299=CARTESIAN_POINT('',(15.000000000000004,-7.999999999999998,10.149999999999999));
#1300=VERTEX_POINT('',#1299);
#1301=CARTESIAN_POINT('',(15.000000000000004,-7.999999999999998,10.149999999999999));
#1302=DIRECTION('',(0.0,0.0,1.0));
#1303=VECTOR('',#1302,0.1);
#1304=LINE('',#1301,#1303);
#1305=EDGE_CURVE('',#1300,#1292,#1304,.T.);
#1306=ORIENTED_EDGE('',*,*,#1305,.F.);
#1307=CARTESIAN_POINT('',(15.0,8.0,10.149999999999999));
#1308=DIRECTION('',(0.0,-1.0,0.0));
#1309=VECTOR('',#1308,16.0);
#1310=LINE('',#1307,#1309);
#1311=EDGE_CURVE('',#1268,#1300,#1310,.T.);
#1312=ORIENTED_EDGE('',*,*,#1311,.F.);
#1313=ORIENTED_EDGE('',*,*,#1273,.T.);
#1314=EDGE_LOOP('',(#1298,#1306,#1312,#1313));
#1315=FACE_OUTER_BOUND('',#1314,.T.);
#1316=ADVANCED_FACE('',(#1315),#1290,.T.);
#1317=CARTESIAN_POINT('',(14.000000000000004,-7.999999999999999,10.149999999999999));
#1318=DIRECTION('',(0.0,0.0,1.0));
#1319=DIRECTION('',(0.707106781186548,-0.707106781186547,0.0));
#1320=AXIS2_PLACEMENT_3D('',#1317,#1318,#1319);
#1321=CYLINDRICAL_SURFACE('',#1320,1.0);
#1322=CARTESIAN_POINT('',(14.000000000000004,-9.0,10.25));
#1323=VERTEX_POINT('',#1322);
#1324=CARTESIAN_POINT('',(14.000000000000004,-7.999999999999999,10.25));
#1325=DIRECTION('',(0.0,0.0,-1.0));
#1326=DIRECTION('',(0.707106781186548,-0.707106781186547,0.0));
#1327=AXIS2_PLACEMENT_3D('',#1324,#1325,#1326);
#1328=CIRCLE('',#1327,1.0);
#1329=EDGE_CURVE('',#1292,#1323,#1328,.T.);
#1330=ORIENTED_EDGE('',*,*,#1329,.T.);
#1331=CARTESIAN_POINT('',(14.000000000000004,-9.0,10.149999999999999));
#1332=VERTEX_POINT('',#1331);
#1333=CARTESIAN_POINT('',(14.000000000000004,-9.0,10.149999999999999));
#1334=DIRECTION('',(0.0,0.0,1.0));
#1335=VECTOR('',#1334,0.1);
#1336=LINE('',#1333,#1335);
#1337=EDGE_CURVE('',#1332,#1323,#1336,.T.);
#1338=ORIENTED_EDGE('',*,*,#1337,.F.);
#1339=CARTESIAN_POINT('',(14.000000000000004,-7.999999999999999,10.149999999999999));
#1340=DIRECTION('',(0.0,0.0,-1.0));
#1341=DIRECTION('',(0.707106781186548,-0.707106781186547,0.0));
#1342=AXIS2_PLACEMENT_3D('',#1339,#1340,#1341);
#1343=CIRCLE('',#1342,1.0);
#1344=EDGE_CURVE('',#1300,#1332,#1343,.T.);
#1345=ORIENTED_EDGE('',*,*,#1344,.F.);
#1346=ORIENTED_EDGE('',*,*,#1305,.T.);
#1347=EDGE_LOOP('',(#1330,#1338,#1345,#1346));
#1348=FACE_OUTER_BOUND('',#1347,.T.);
#1349=ADVANCED_FACE('',(#1348),#1321,.T.);
#1350=CARTESIAN_POINT('',(14.000000000000004,-9.0,10.149999999999999));
#1351=DIRECTION('',(0.0,-1.0,0.0));
#1352=DIRECTION('',(0.0,0.0,-1.0));
#1353=AXIS2_PLACEMENT_3D('',#1350,#1351,#1352);
#1354=PLANE('',#1353);
#1355=CARTESIAN_POINT('',(14.000000000000004,-9.0,10.25));
#1356=DIRECTION('',(-1.0,0.0,0.0));
#1357=VECTOR('',#1356,28.000000000000011);
#1358=LINE('',#1355,#1357);
#1359=EDGE_CURVE('',#1323,#1122,#1358,.T.);
#1360=ORIENTED_EDGE('',*,*,#1359,.T.);
#1361=ORIENTED_EDGE('',*,*,#1153,.F.);
#1362=CARTESIAN_POINT('',(14.000000000000004,-9.0,10.149999999999999));
#1363=DIRECTION('',(-1.0,0.0,0.0));
#1364=VECTOR('',#1363,28.000000000000011);
#1365=LINE('',#1362,#1364);
#1366=EDGE_CURVE('',#1332,#1141,#1365,.T.);
#1367=ORIENTED_EDGE('',*,*,#1366,.F.);
#1368=ORIENTED_EDGE('',*,*,#1337,.T.);
#1369=EDGE_LOOP('',(#1360,#1361,#1367,#1368));
#1370=FACE_OUTER_BOUND('',#1369,.T.);
#1371=ADVANCED_FACE('',(#1370),#1354,.T.);
#1372=CARTESIAN_POINT('',(-7.771561E-016,-2.192690E-015,10.25));
#1373=DIRECTION('',(0.0,0.0,1.0));
#1374=DIRECTION('',(1.0,0.0,0.0));
#1375=AXIS2_PLACEMENT_3D('',#1372,#1373,#1374);
#1376=PLANE('',#1375);
#1377=ORIENTED_EDGE('',*,*,#1130,.F.);
#1378=ORIENTED_EDGE('',*,*,#1359,.F.);
#1379=ORIENTED_EDGE('',*,*,#1329,.F.);
#1380=ORIENTED_EDGE('',*,*,#1297,.F.);
#1381=ORIENTED_EDGE('',*,*,#1265,.F.);
#1382=ORIENTED_EDGE('',*,*,#1233,.F.);
#1383=ORIENTED_EDGE('',*,*,#1201,.F.);
#1384=ORIENTED_EDGE('',*,*,#1169,.F.);
#1385=EDGE_LOOP('',(#1377,#1378,#1379,#1380,#1381,#1382,#1383,#1384));
#1386=FACE_OUTER_BOUND('',#1385,.T.);
#1387=ADVANCED_FACE('',(#1386),#1376,.T.);
#1388=CARTESIAN_POINT('',(-7.771561E-016,-2.192690E-015,10.149999999999999));
#1389=DIRECTION('',(0.0,0.0,1.0));
#1390=DIRECTION('',(1.0,0.0,0.0));
#1391=AXIS2_PLACEMENT_3D('',#1388,#1389,#1390);
#1392=PLANE('',#1391);
#1393=ORIENTED_EDGE('',*,*,#1366,.T.);
#1394=ORIENTED_EDGE('',*,*,#1147,.T.);
#1395=ORIENTED_EDGE('',*,*,#1183,.T.);
#1396=ORIENTED_EDGE('',*,*,#1216,.T.);
#1397=ORIENTED_EDGE('',*,*,#1247,.T.);
#1398=ORIENTED_EDGE('',*,*,#1280,.T.);
#1399=ORIENTED_EDGE('',*,*,#1311,.T.);
#1400=ORIENTED_EDGE('',*,*,#1344,.T.);
#1401=EDGE_LOOP('',(#1393,#1394,#1395,#1396,#1397,#1398,#1399,#1400));
#1402=FACE_OUTER_BOUND('',#1401,.T.);
#1403=ADVANCED_FACE('',(#1402),#1392,.F.);
#1404=CLOSED_SHELL('',(#1157,#1188,#1221,#1252,#1285,#1316,#1349,#1371,#1387,#1403));
#1405=MANIFOLD_SOLID_BREP('A81',#1404);
#1406=COLOUR_RGB('230',1.0,0.0,0.5);
#1407=SURFACE_STYLE_USAGE(.BOTH.,#1408);
#1408=SURFACE_SIDE_STYLE('NONE',(#1409));
#1409=SURFACE_STYLE_FILL_AREA(#1410);
#1410=FILL_AREA_STYLE('NONE',(#1411));
#1411=FILL_AREA_STYLE_COLOUR('NONE',#1406);
#1412=PRESENTATION_STYLE_ASSIGNMENT((#1407));
#1413=STYLED_ITEM('NONE',(#1412),#1405);
#1414=CARTESIAN_POINT('',(-11.43,-7.619999999999997,0.0));
#1415=DIRECTION('',(0.0,0.0,-1.0));
#1416=DIRECTION('',(1.0,0.0,0.0));
#1417=AXIS2_PLACEMENT_3D('',#1414,#1415,#1416);
#1418=CYLINDRICAL_SURFACE('',#1417,0.25);
#1419=CARTESIAN_POINT('',(-11.18,-7.619999999999997,-3.8));
#1420=VERTEX_POINT('',#1419);
#1421=CARTESIAN_POINT('',(-11.18,-7.619999999999997,0.0));
#1422=VERTEX_POINT('',#1421);
#1423=CARTESIAN_POINT('',(-11.18,-7.619999999999997,-3.8));
#1424=DIRECTION('',(0.0,0.0,1.0));
#1425=VECTOR('',#1424,3.8);
#1426=LINE('',#1423,#1425);
#1427=EDGE_CURVE('',#1420,#1422,#1426,.T.);
#1428=ORIENTED_EDGE('',*,*,#1427,.F.);
#1429=CARTESIAN_POINT('',(-11.68,-7.619999999999997,-3.8));
#1430=VERTEX_POINT('',#1429);
#1431=CARTESIAN_POINT('',(-11.43,-7.619999999999997,-3.8));
#1432=DIRECTION('',(0.0,0.0,1.0));
#1433=DIRECTION('',(1.0,0.0,0.0));
#1434=AXIS2_PLACEMENT_3D('',#1431,#1432,#1433);
#1435=CIRCLE('',#1434,0.25);
#1436=EDGE_CURVE('',#1420,#1430,#1435,.T.);
#1437=ORIENTED_EDGE('',*,*,#1436,.T.);
#1438=CARTESIAN_POINT('',(-11.68,-7.619999999999997,0.0));
#1439=VERTEX_POINT('',#1438);
#1440=CARTESIAN_POINT('',(-11.68,-7.619999999999997,-3.8));
#1441=DIRECTION('',(0.0,0.0,1.0));
#1442=VECTOR('',#1441,3.8);
#1443=LINE('',#1440,#1442);
#1444=EDGE_CURVE('',#1430,#1439,#1443,.T.);
#1445=ORIENTED_EDGE('',*,*,#1444,.T.);
#1446=CARTESIAN_POINT('',(-11.43,-7.619999999999997,0.0));
#1447=DIRECTION('',(0.0,0.0,1.0));
#1448=DIRECTION('',(1.0,0.0,0.0));
#1449=AXIS2_PLACEMENT_3D('',#1446,#1447,#1448);
#1450=CIRCLE('',#1449,0.25);
#1451=EDGE_CURVE('',#1422,#1439,#1450,.T.);
#1452=ORIENTED_EDGE('',*,*,#1451,.F.);
#1453=EDGE_LOOP('',(#1428,#1437,#1445,#1452));
#1454=FACE_OUTER_BOUND('',#1453,.T.);
#1455=ADVANCED_FACE('',(#1454),#1418,.T.);
#1456=CARTESIAN_POINT('',(-11.43,-7.619999999999997,0.0));
#1457=DIRECTION('',(0.0,0.0,-1.0));
#1458=DIRECTION('',(1.0,0.0,0.0));
#1459=AXIS2_PLACEMENT_3D('',#1456,#1457,#1458);
#1460=CYLINDRICAL_SURFACE('',#1459,0.25);
#1461=ORIENTED_EDGE('',*,*,#1427,.T.);
#1462=CARTESIAN_POINT('',(-11.43,-7.619999999999997,0.0));
#1463=DIRECTION('',(0.0,0.0,1.0));
#1464=DIRECTION('',(1.0,0.0,0.0));
#1465=AXIS2_PLACEMENT_3D('',#1462,#1463,#1464);
#1466=CIRCLE('',#1465,0.25);
#1467=EDGE_CURVE('',#1439,#1422,#1466,.T.);
#1468=ORIENTED_EDGE('',*,*,#1467,.F.);
#1469=ORIENTED_EDGE('',*,*,#1444,.F.);
#1470=CARTESIAN_POINT('',(-11.43,-7.619999999999997,-3.8));
#1471=DIRECTION('',(0.0,0.0,1.0));
#1472=DIRECTION('',(1.0,0.0,0.0));
#1473=AXIS2_PLACEMENT_3D('',#1470,#1471,#1472);
#1474=CIRCLE('',#1473,0.25);
#1475=EDGE_CURVE('',#1430,#1420,#1474,.T.);
#1476=ORIENTED_EDGE('',*,*,#1475,.T.);
#1477=EDGE_LOOP('',(#1461,#1468,#1469,#1476));
#1478=FACE_OUTER_BOUND('',#1477,.T.);
#1479=ADVANCED_FACE('',(#1478),#1460,.T.);
#1480=CARTESIAN_POINT('',(-11.43,-7.619999999999997,-3.8));
#1481=DIRECTION('',(0.0,0.0,1.0));
#1482=DIRECTION('',(1.0,0.0,0.0));
#1483=AXIS2_PLACEMENT_3D('',#1480,#1481,#1482);
#1484=PLANE('',#1483);
#1485=ORIENTED_EDGE('',*,*,#1436,.F.);
#1486=ORIENTED_EDGE('',*,*,#1475,.F.);
#1487=EDGE_LOOP('',(#1485,#1486));
#1488=FACE_OUTER_BOUND('',#1487,.T.);
#1489=ADVANCED_FACE('',(#1488),#1484,.F.);
#1490=CARTESIAN_POINT('',(-11.43,-7.619999999999997,0.0));
#1491=DIRECTION('',(0.0,0.0,1.0));
#1492=DIRECTION('',(1.0,0.0,0.0));
#1493=AXIS2_PLACEMENT_3D('',#1490,#1491,#1492);
#1494=PLANE('',#1493);
#1495=ORIENTED_EDGE('',*,*,#1451,.T.);
#1496=ORIENTED_EDGE('',*,*,#1467,.T.);
#1497=EDGE_LOOP('',(#1495,#1496));
#1498=FACE_OUTER_BOUND('',#1497,.T.);
#1499=ADVANCED_FACE('',(#1498),#1494,.T.);
#1500=CLOSED_SHELL('',(#1455,#1479,#1489,#1499));
#1501=MANIFOLD_SOLID_BREP('A74',#1500);
#1502=STYLED_ITEM('NONE',(#159),#1501);
#1503=CARTESIAN_POINT('',(11.430000000000001,-7.619999999999997,0.0));
#1504=DIRECTION('',(0.0,0.0,-1.0));
#1505=DIRECTION('',(1.0,0.0,0.0));
#1506=AXIS2_PLACEMENT_3D('',#1503,#1504,#1505);
#1507=CYLINDRICAL_SURFACE('',#1506,0.25);
#1508=CARTESIAN_POINT('',(11.680000000000001,-7.619999999999997,-3.8));
#1509=VERTEX_POINT('',#1508);
#1510=CARTESIAN_POINT('',(11.680000000000001,-7.619999999999997,0.0));
#1511=VERTEX_POINT('',#1510);
#1512=CARTESIAN_POINT('',(11.680000000000001,-7.619999999999997,-3.8));
#1513=DIRECTION('',(0.0,0.0,1.0));
#1514=VECTOR('',#1513,3.8);
#1515=LINE('',#1512,#1514);
#1516=EDGE_CURVE('',#1509,#1511,#1515,.T.);
#1517=ORIENTED_EDGE('',*,*,#1516,.F.);
#1518=CARTESIAN_POINT('',(11.180000000000001,-7.619999999999997,-3.8));
#1519=VERTEX_POINT('',#1518);
#1520=CARTESIAN_POINT('',(11.430000000000001,-7.619999999999997,-3.8));
#1521=DIRECTION('',(0.0,0.0,1.0));
#1522=DIRECTION('',(1.0,0.0,0.0));
#1523=AXIS2_PLACEMENT_3D('',#1520,#1521,#1522);
#1524=CIRCLE('',#1523,0.25);
#1525=EDGE_CURVE('',#1509,#1519,#1524,.T.);
#1526=ORIENTED_EDGE('',*,*,#1525,.T.);
#1527=CARTESIAN_POINT('',(11.180000000000001,-7.619999999999997,0.0));
#1528=VERTEX_POINT('',#1527);
#1529=CARTESIAN_POINT('',(11.180000000000001,-7.619999999999997,-3.8));
#1530=DIRECTION('',(0.0,0.0,1.0));
#1531=VECTOR('',#1530,3.8);
#1532=LINE('',#1529,#1531);
#1533=EDGE_CURVE('',#1519,#1528,#1532,.T.);
#1534=ORIENTED_EDGE('',*,*,#1533,.T.);
#1535=CARTESIAN_POINT('',(11.430000000000001,-7.619999999999997,0.0));
#1536=DIRECTION('',(0.0,0.0,1.0));
#1537=DIRECTION('',(1.0,0.0,0.0));
#1538=AXIS2_PLACEMENT_3D('',#1535,#1536,#1537);
#1539=CIRCLE('',#1538,0.25);
#1540=EDGE_CURVE('',#1511,#1528,#1539,.T.);
#1541=ORIENTED_EDGE('',*,*,#1540,.F.);
#1542=EDGE_LOOP('',(#1517,#1526,#1534,#1541));
#1543=FACE_OUTER_BOUND('',#1542,.T.);
#1544=ADVANCED_FACE('',(#1543),#1507,.T.);
#1545=CARTESIAN_POINT('',(11.430000000000001,-7.619999999999997,0.0));
#1546=DIRECTION('',(0.0,0.0,-1.0));
#1547=DIRECTION('',(1.0,0.0,0.0));
#1548=AXIS2_PLACEMENT_3D('',#1545,#1546,#1547);
#1549=CYLINDRICAL_SURFACE('',#1548,0.25);
#1550=ORIENTED_EDGE('',*,*,#1516,.T.);
#1551=CARTESIAN_POINT('',(11.430000000000001,-7.619999999999997,0.0));
#1552=DIRECTION('',(0.0,0.0,1.0));
#1553=DIRECTION('',(1.0,0.0,0.0));
#1554=AXIS2_PLACEMENT_3D('',#1551,#1552,#1553);
#1555=CIRCLE('',#1554,0.25);
#1556=EDGE_CURVE('',#1528,#1511,#1555,.T.);
#1557=ORIENTED_EDGE('',*,*,#1556,.F.);
#1558=ORIENTED_EDGE('',*,*,#1533,.F.);
#1559=CARTESIAN_POINT('',(11.430000000000001,-7.619999999999997,-3.8));
#1560=DIRECTION('',(0.0,0.0,1.0));
#1561=DIRECTION('',(1.0,0.0,0.0));
#1562=AXIS2_PLACEMENT_3D('',#1559,#1560,#1561);
#1563=CIRCLE('',#1562,0.25);
#1564=EDGE_CURVE('',#1519,#1509,#1563,.T.);
#1565=ORIENTED_EDGE('',*,*,#1564,.T.);
#1566=EDGE_LOOP('',(#1550,#1557,#1558,#1565));
#1567=FACE_OUTER_BOUND('',#1566,.T.);
#1568=ADVANCED_FACE('',(#1567),#1549,.T.);
#1569=CARTESIAN_POINT('',(11.430000000000001,-7.619999999999997,-3.8));
#1570=DIRECTION('',(0.0,0.0,1.0));
#1571=DIRECTION('',(1.0,0.0,0.0));
#1572=AXIS2_PLACEMENT_3D('',#1569,#1570,#1571);
#1573=PLANE('',#1572);
#1574=ORIENTED_EDGE('',*,*,#1525,.F.);
#1575=ORIENTED_EDGE('',*,*,#1564,.F.);
#1576=EDGE_LOOP('',(#1574,#1575));
#1577=FACE_OUTER_BOUND('',#1576,.T.);
#1578=ADVANCED_FACE('',(#1577),#1573,.F.);
#1579=CARTESIAN_POINT('',(11.430000000000001,-7.619999999999997,0.0));
#1580=DIRECTION('',(0.0,0.0,1.0));
#1581=DIRECTION('',(1.0,0.0,0.0));
#1582=AXIS2_PLACEMENT_3D('',#1579,#1580,#1581);
#1583=PLANE('',#1582);
#1584=ORIENTED_EDGE('',*,*,#1540,.T.);
#1585=ORIENTED_EDGE('',*,*,#1556,.T.);
#1586=EDGE_LOOP('',(#1584,#1585));
#1587=FACE_OUTER_BOUND('',#1586,.T.);
#1588=ADVANCED_FACE('',(#1587),#1583,.T.);
#1589=CLOSED_SHELL('',(#1544,#1568,#1578,#1588));
#1590=MANIFOLD_SOLID_BREP('A70',#1589);
#1591=STYLED_ITEM('NONE',(#159),#1590);
#1592=CARTESIAN_POINT('',(-11.43,7.619999999999997,0.0));
#1593=DIRECTION('',(0.0,0.0,-1.0));
#1594=DIRECTION('',(1.0,0.0,0.0));
#1595=AXIS2_PLACEMENT_3D('',#1592,#1593,#1594);
#1596=CYLINDRICAL_SURFACE('',#1595,0.25);
#1597=CARTESIAN_POINT('',(-11.18,7.619999999999997,-3.8));
#1598=VERTEX_POINT('',#1597);
#1599=CARTESIAN_POINT('',(-11.18,7.619999999999997,0.0));
#1600=VERTEX_POINT('',#1599);
#1601=CARTESIAN_POINT('',(-11.18,7.619999999999997,-3.8));
#1602=DIRECTION('',(0.0,0.0,1.0));
#1603=VECTOR('',#1602,3.8);
#1604=LINE('',#1601,#1603);
#1605=EDGE_CURVE('',#1598,#1600,#1604,.T.);
#1606=ORIENTED_EDGE('',*,*,#1605,.F.);
#1607=CARTESIAN_POINT('',(-11.68,7.619999999999997,-3.8));
#1608=VERTEX_POINT('',#1607);
#1609=CARTESIAN_POINT('',(-11.43,7.619999999999997,-3.8));
#1610=DIRECTION('',(0.0,0.0,1.0));
#1611=DIRECTION('',(1.0,0.0,0.0));
#1612=AXIS2_PLACEMENT_3D('',#1609,#1610,#1611);
#1613=CIRCLE('',#1612,0.25);
#1614=EDGE_CURVE('',#1598,#1608,#1613,.T.);
#1615=ORIENTED_EDGE('',*,*,#1614,.T.);
#1616=CARTESIAN_POINT('',(-11.68,7.619999999999997,0.0));
#1617=VERTEX_POINT('',#1616);
#1618=CARTESIAN_POINT('',(-11.68,7.619999999999997,-3.8));
#1619=DIRECTION('',(0.0,0.0,1.0));
#1620=VECTOR('',#1619,3.8);
#1621=LINE('',#1618,#1620);
#1622=EDGE_CURVE('',#1608,#1617,#1621,.T.);
#1623=ORIENTED_EDGE('',*,*,#1622,.T.);
#1624=CARTESIAN_POINT('',(-11.43,7.619999999999997,0.0));
#1625=DIRECTION('',(0.0,0.0,1.0));
#1626=DIRECTION('',(1.0,0.0,0.0));
#1627=AXIS2_PLACEMENT_3D('',#1624,#1625,#1626);
#1628=CIRCLE('',#1627,0.25);
#1629=EDGE_CURVE('',#1600,#1617,#1628,.T.);
#1630=ORIENTED_EDGE('',*,*,#1629,.F.);
#1631=EDGE_LOOP('',(#1606,#1615,#1623,#1630));
#1632=FACE_OUTER_BOUND('',#1631,.T.);
#1633=ADVANCED_FACE('',(#1632),#1596,.T.);
#1634=CARTESIAN_POINT('',(-11.43,7.619999999999997,0.0));
#1635=DIRECTION('',(0.0,0.0,-1.0));
#1636=DIRECTION('',(1.0,0.0,0.0));
#1637=AXIS2_PLACEMENT_3D('',#1634,#1635,#1636);
#1638=CYLINDRICAL_SURFACE('',#1637,0.25);
#1639=ORIENTED_EDGE('',*,*,#1605,.T.);
#1640=CARTESIAN_POINT('',(-11.43,7.619999999999997,0.0));
#1641=DIRECTION('',(0.0,0.0,1.0));
#1642=DIRECTION('',(1.0,0.0,0.0));
#1643=AXIS2_PLACEMENT_3D('',#1640,#1641,#1642);
#1644=CIRCLE('',#1643,0.25);
#1645=EDGE_CURVE('',#1617,#1600,#1644,.T.);
#1646=ORIENTED_EDGE('',*,*,#1645,.F.);
#1647=ORIENTED_EDGE('',*,*,#1622,.F.);
#1648=CARTESIAN_POINT('',(-11.43,7.619999999999997,-3.8));
#1649=DIRECTION('',(0.0,0.0,1.0));
#1650=DIRECTION('',(1.0,0.0,0.0));
#1651=AXIS2_PLACEMENT_3D('',#1648,#1649,#1650);
#1652=CIRCLE('',#1651,0.25);
#1653=EDGE_CURVE('',#1608,#1598,#1652,.T.);
#1654=ORIENTED_EDGE('',*,*,#1653,.T.);
#1655=EDGE_LOOP('',(#1639,#1646,#1647,#1654));
#1656=FACE_OUTER_BOUND('',#1655,.T.);
#1657=ADVANCED_FACE('',(#1656),#1638,.T.);
#1658=CARTESIAN_POINT('',(-11.43,7.619999999999997,-3.8));
#1659=DIRECTION('',(0.0,0.0,1.0));
#1660=DIRECTION('',(1.0,0.0,0.0));
#1661=AXIS2_PLACEMENT_3D('',#1658,#1659,#1660);
#1662=PLANE('',#1661);
#1663=ORIENTED_EDGE('',*,*,#1614,.F.);
#1664=ORIENTED_EDGE('',*,*,#1653,.F.);
#1665=EDGE_LOOP('',(#1663,#1664));
#1666=FACE_OUTER_BOUND('',#1665,.T.);
#1667=ADVANCED_FACE('',(#1666),#1662,.F.);
#1668=CARTESIAN_POINT('',(-11.43,7.619999999999997,0.0));
#1669=DIRECTION('',(0.0,0.0,1.0));
#1670=DIRECTION('',(1.0,0.0,0.0));
#1671=AXIS2_PLACEMENT_3D('',#1668,#1669,#1670);
#1672=PLANE('',#1671);
#1673=ORIENTED_EDGE('',*,*,#1629,.T.);
#1674=ORIENTED_EDGE('',*,*,#1645,.T.);
#1675=EDGE_LOOP('',(#1673,#1674));
#1676=FACE_OUTER_BOUND('',#1675,.T.);
#1677=ADVANCED_FACE('',(#1676),#1672,.T.);
#1678=CLOSED_SHELL('',(#1633,#1657,#1667,#1677));
#1679=MANIFOLD_SOLID_BREP('A6E',#1678);
#1680=STYLED_ITEM('NONE',(#159),#1679);
#1681=ADVANCED_BREP_SHAPE_REPRESENTATION('ABSR1',(#152,#250,#339,#428,#517,#606,#1107,#1405,#1501,#1590,#1679),#28);
#1682=SHAPE_REPRESENTATION_RELATIONSHIP('SRRPL1','',#1681,#62);
ENDSEC;
END-ISO-10303-21;
