ISO-10303-21;
HEADER;
/****************************************************************
 * Generated by software with PDElib inside                    *
 * PDElib Version v51a, created Fri 09/10/2010                  *
 * ITI Transcendata (http://www.transcendata.com/)              *
 ****************************************************************/
FILE_DESCRIPTION((''),'2;1');
FILE_NAME('MICROSEMI_D1_FLIP_Part2.stp','2012-07-30T16:20:09',(''),(''),'Mechanical Desktop 2011','Mechanical Desktop 2011',', , ');
FILE_SCHEMA(('AUTOMOTIVE_DESIGN { 1 2 10303 214 1 1 1 1 }'));
ENDSEC;
DATA;
#10=(NAMED_UNIT(*)PLANE_ANGLE_UNIT()SI_UNIT($,.RADIAN.));
#11=DIMENSIONAL_EXPONENTS(0.0,0.0,0.0,0.0,0.0,0.0,0.0);
#12=PLANE_ANGLE_MEASURE_WITH_UNIT(PLANE_ANGLE_MEASURE(0.0174532925),#10);
#16=(CONVERSION_BASED_UNIT('DEGREE',#12)NAMED_UNIT(#11)PLANE_ANGLE_UNIT());
#20=(NAMED_UNIT(*)SI_UNIT($,.STERADIAN.)SOLID_ANGLE_UNIT());
#24=(LENGTH_UNIT()NAMED_UNIT(*)SI_UNIT(.MILLI.,.METRE.));
#26=UNCERTAINTY_MEASURE_WITH_UNIT(LENGTH_MEASURE(0.000001),#24,'DISTANCE_ACCURACY_VALUE','');
#28=(GEOMETRIC_REPRESENTATION_CONTEXT(3)GLOBAL_UNCERTAINTY_ASSIGNED_CONTEXT((#26))GLOBAL_UNIT_ASSIGNED_CONTEXT((#16,#20,#24))REPRESENTATION_CONTEXT('','3D'));
#29=APPLICATION_CONTEXT('automotive design');
#30=APPLICATION_PROTOCOL_DEFINITION('INTERNATIONAL_STANDARD','automotive_design',1998,#29);
#31=PRODUCT_CONTEXT('3D Mechanical Parts',#29,'mechanical');
#32=PRODUCT('Product','Product','',(#31));
#33=PRODUCT_RELATED_PRODUCT_CATEGORY('part',$,(#32));
#34=PRODUCT_CATEGORY('part',$);
#35=PERSON('1','Design','Joe',$,$,$);
#36=ORGANIZATION($,'None','None');
#37=PERSON_AND_ORGANIZATION(#35,#36);
#38=PERSON_AND_ORGANIZATION_ROLE('design_owner');
#39=APPLIED_PERSON_AND_ORGANIZATION_ASSIGNMENT(#37,#38,(#32));
#40=PRODUCT_DEFINITION_FORMATION_WITH_SPECIFIED_SOURCE('None','',#32,.BOUGHT.);
#41=PERSON('2','Creator','Joe',$,$,$);
#42=ORGANIZATION($,'None','None');
#43=PERSON_AND_ORGANIZATION(#41,#42);
#44=PERSON_AND_ORGANIZATION_ROLE('creator');
#45=APPLIED_PERSON_AND_ORGANIZATION_ASSIGNMENT(#43,#44,(#40));
#46=PERSON('3','Supplier','Joe',$,$,$);
#47=ORGANIZATION($,'None','None');
#48=PERSON_AND_ORGANIZATION(#46,#47);
#49=PERSON_AND_ORGANIZATION_ROLE('design_supplier');
#50=APPLIED_PERSON_AND_ORGANIZATION_ASSIGNMENT(#48,#49,(#40));
#51=PRODUCT_DEFINITION_CONTEXT('part definition',#29,'design');
#52=PRODUCT_DEFINITION('None','',#40,#51);
#53=PERSON('4','Creator','Joe',$,$,$);
#54=ORGANIZATION($,'None','None');
#55=PERSON_AND_ORGANIZATION(#53,#54);
#56=PERSON_AND_ORGANIZATION_ROLE('creator');
#57=APPLIED_PERSON_AND_ORGANIZATION_ASSIGNMENT(#55,#56,(#52));
#58=CARTESIAN_POINT('NONE',(0.0,0.0,0.0));
#59=DIRECTION('NONE',(0.0,0.0,1.0));
#60=DIRECTION('NONE',(1.0,0.0,0.0));
#61=AXIS2_PLACEMENT_3D('NONE',#58,#59,#60);
#62=SHAPE_REPRESENTATION('SR1',(#61),#28);
#63=PRODUCT_DEFINITION_SHAPE('PDS1','Test Part',#52);
#64=SHAPE_DEFINITION_REPRESENTATION(#63,#62);
#65=CARTESIAN_POINT('',(-23.0,0.0,2.700000000000003));
#66=DIRECTION('',(0.0,0.0,1.0));
#67=DIRECTION('',(1.0,0.0,0.0));
#68=AXIS2_PLACEMENT_3D('',#65,#66,#67);
#69=SPHERICAL_SURFACE('',#68,8.0);
#70=CARTESIAN_POINT('',(-18.513513513513512,2.565736E-016,-3.923551842219855));
#71=VERTEX_POINT('',#70);
#72=CARTESIAN_POINT('',(-20.783550660081378,0.0,-4.98682979670906));
#73=VERTEX_POINT('',#72);
#74=CARTESIAN_POINT('',(-23.0,0.0,2.700000000000003));
#75=DIRECTION('',(0.0,1.0,0.0));
#76=DIRECTION('',(1.0,0.0,0.0));
#77=AXIS2_PLACEMENT_3D('',#74,#75,#76);
#78=CIRCLE('',#77,8.0);
#79=EDGE_CURVE('',#71,#73,#78,.T.);
#80=ORIENTED_EDGE('',*,*,#79,.F.);
#81=CARTESIAN_POINT('',(-27.486486486486488,-1.186391E-015,-3.923551842219854));
#82=VERTEX_POINT('',#81);
#83=CARTESIAN_POINT('',(-23.0,0.0,-3.923551842219855));
#84=DIRECTION('',(0.0,0.0,-1.0));
#85=DIRECTION('',(-1.0,0.0,0.0));
#86=AXIS2_PLACEMENT_3D('',#83,#84,#85);
#87=CIRCLE('',#86,4.486486486486489);
#88=EDGE_CURVE('',#71,#82,#87,.T.);
#89=ORIENTED_EDGE('',*,*,#88,.T.);
#90=CARTESIAN_POINT('',(-25.216449339918622,-2.714368E-016,-4.98682979670906));
#91=VERTEX_POINT('',#90);
#92=CARTESIAN_POINT('',(-23.0,0.0,2.700000000000003));
#93=DIRECTION('',(0.0,-1.0,0.0));
#94=DIRECTION('',(-1.0,0.0,0.0));
#95=AXIS2_PLACEMENT_3D('',#92,#93,#94);
#96=CIRCLE('',#95,8.0);
#97=EDGE_CURVE('',#82,#91,#96,.T.);
#98=ORIENTED_EDGE('',*,*,#97,.T.);
#99=CARTESIAN_POINT('',(-25.207529183013186,-0.472446498069687,-4.97486867722222));
#100=VERTEX_POINT('',#99);
#101=CARTESIAN_POINT('',(-20.740529813549934,7.105427E-015,1.014971386376226));
#102=DIRECTION('',(-0.801627475093059,5.088392E-017,0.597823879730417));
#103=DIRECTION('',(0.597823879730417,4.396522E-016,0.801627475093059));
#104=AXIS2_PLACEMENT_3D('',#101,#102,#103);
#105=CIRCLE('',#104,7.487020305022048);
#106=EDGE_CURVE('',#91,#100,#105,.T.);
#107=ORIENTED_EDGE('',*,*,#106,.T.);
#108=CARTESIAN_POINT('',(-23.497374351610475,-0.497374351610475,-5.26901734900358));
#109=VERTEX_POINT('',#108);
#110=CARTESIAN_POINT('',(-23.0,0.176697090701659,2.685025670279524));
#111=DIRECTION('',(-2.264222E-016,0.996428304896932,-0.084443076686181));
#112=DIRECTION('',(-4.226351E-017,-0.084443076686181,-0.996428304896931));
#113=AXIS2_PLACEMENT_3D('',#110,#111,#112);
#114=CIRCLE('',#113,7.998034377744759);
#115=EDGE_CURVE('',#109,#100,#114,.T.);
#116=ORIENTED_EDGE('',*,*,#115,.F.);
#117=CARTESIAN_POINT('',(-23.472446498069679,-2.207529183013186,-4.974868677222221));
#118=VERTEX_POINT('',#117);
#119=CARTESIAN_POINT('',(-22.823302909298349,0.0,2.685025670279524));
#120=DIRECTION('',(0.996428304896932,1.889219E-016,-0.084443076686181));
#121=DIRECTION('',(-0.084443076686181,-4.002396E-016,-0.996428304896931));
#122=AXIS2_PLACEMENT_3D('',#119,#120,#121);
#123=CIRCLE('',#122,7.998034377744759);
#124=EDGE_CURVE('',#118,#109,#123,.T.);
#125=ORIENTED_EDGE('',*,*,#124,.F.);
#126=CARTESIAN_POINT('',(-22.527553501930321,-2.207529183013186,-4.974868677222222));
#127=VERTEX_POINT('',#126);
#128=CARTESIAN_POINT('',(-23.0,2.259470186450059,1.014971386376224));
#129=DIRECTION('',(2.146032E-016,-0.801627475093058,0.597823879730417));
#130=DIRECTION('',(-8.365804E-017,0.597823879730417,0.801627475093058));
#131=AXIS2_PLACEMENT_3D('',#128,#129,#130);
#132=CIRCLE('',#131,7.487020305022047);
#133=EDGE_CURVE('',#118,#127,#132,.T.);
#134=ORIENTED_EDGE('',*,*,#133,.T.);
#135=CARTESIAN_POINT('',(-22.502625648389525,-0.497374351610468,-5.269017349003581));
#136=VERTEX_POINT('',#135);
#137=CARTESIAN_POINT('',(-23.176697090701655,0.0,2.685025670279524));
#138=DIRECTION('',(-0.996428304896931,-2.535811E-016,-0.084443076686181));
#139=DIRECTION('',(-0.084443076686181,3.627393E-016,0.996428304896931));
#140=AXIS2_PLACEMENT_3D('',#137,#138,#139);
#141=CIRCLE('',#140,7.998034377744758);
#142=EDGE_CURVE('',#136,#127,#141,.T.);
#143=ORIENTED_EDGE('',*,*,#142,.F.);
#144=CARTESIAN_POINT('',(-20.792470816986814,-0.472446498069672,-4.974868677222221));
#145=VERTEX_POINT('',#144);
#146=CARTESIAN_POINT('',(-23.0,0.176697090701659,2.685025670279524));
#147=DIRECTION('',(-2.264222E-016,0.996428304896932,-0.084443076686181));
#148=DIRECTION('',(-4.226351E-017,-0.084443076686181,-0.996428304896931));
#149=AXIS2_PLACEMENT_3D('',#146,#147,#148);
#150=CIRCLE('',#149,7.998034377744759);
#151=EDGE_CURVE('',#145,#136,#150,.T.);
#152=ORIENTED_EDGE('',*,*,#151,.F.);
#153=CARTESIAN_POINT('',(-25.259470186450066,-1.421085E-014,1.014971386376226));
#154=DIRECTION('',(0.801627475093059,4.068780E-016,0.597823879730417));
#155=DIRECTION('',(0.597823879730417,-1.741650E-016,-0.801627475093059));
#156=AXIS2_PLACEMENT_3D('',#153,#154,#155);
#157=CIRCLE('',#156,7.487020305022048);
#158=EDGE_CURVE('',#145,#73,#157,.T.);
#159=ORIENTED_EDGE('',*,*,#158,.T.);
#160=EDGE_LOOP('',(#80,#89,#98,#107,#116,#125,#134,#143,#152,#159));
#161=FACE_OUTER_BOUND('',#160,.T.);
#162=ADVANCED_FACE('',(#161),#69,.T.);
#163=CARTESIAN_POINT('',(-23.0,0.0,-1.508660727297329));
#164=DIRECTION('',(-6.123234E-017,-3.828569E-016,-1.0));
#165=DIRECTION('',(-1.0,0.0,0.0));
#166=AXIS2_PLACEMENT_3D('',#163,#164,#165);
#167=CYLINDRICAL_SURFACE('',#166,4.749999999999998);
#168=CARTESIAN_POINT('',(-27.75,0.0,-3.426785454053367));
#169=VERTEX_POINT('',#168);
#170=CARTESIAN_POINT('',(-27.75,0.0,-1.599999999999998));
#171=VERTEX_POINT('',#170);
#172=CARTESIAN_POINT('',(-27.75,-1.789079E-015,-3.426785454053367));
#173=DIRECTION('',(0.0,0.0,1.0));
#174=VECTOR('',#173,1.826785454053369);
#175=LINE('',#172,#174);
#176=EDGE_CURVE('',#169,#171,#175,.T.);
#177=ORIENTED_EDGE('',*,*,#176,.F.);
#178=CARTESIAN_POINT('',(-18.25,4.730046E-016,-3.426785454053368));
#179=VERTEX_POINT('',#178);
#180=CARTESIAN_POINT('',(-23.0,0.0,-3.426785454053367));
#181=DIRECTION('',(0.0,0.0,-1.0));
#182=DIRECTION('',(-1.0,0.0,0.0));
#183=AXIS2_PLACEMENT_3D('',#180,#181,#182);
#184=CIRCLE('',#183,4.749999999999998);
#185=EDGE_CURVE('',#179,#169,#184,.T.);
#186=ORIENTED_EDGE('',*,*,#185,.F.);
#187=CARTESIAN_POINT('',(-18.25,4.380348E-016,-1.599999999999999));
#188=VERTEX_POINT('',#187);
#189=CARTESIAN_POINT('',(-18.25,-2.613626E-016,-3.426785454053368));
#190=DIRECTION('',(0.0,0.0,1.0));
#191=VECTOR('',#190,1.826785454053369);
#192=LINE('',#189,#191);
#193=EDGE_CURVE('',#179,#188,#192,.T.);
#194=ORIENTED_EDGE('',*,*,#193,.T.);
#195=CARTESIAN_POINT('',(-23.0,0.0,-1.599999999999998));
#196=DIRECTION('',(0.0,0.0,-1.0));
#197=DIRECTION('',(-1.0,0.0,0.0));
#198=AXIS2_PLACEMENT_3D('',#195,#196,#197);
#199=CIRCLE('',#198,4.75);
#200=EDGE_CURVE('',#188,#171,#199,.T.);
#201=ORIENTED_EDGE('',*,*,#200,.T.);
#202=EDGE_LOOP('',(#177,#186,#194,#201));
#203=FACE_OUTER_BOUND('',#202,.T.);
#204=ADVANCED_FACE('',(#203),#167,.T.);
#205=CARTESIAN_POINT('',(-23.0,0.0,-3.426785454053366));
#206=DIRECTION('',(-6.123234E-017,-3.828569E-016,-1.0));
#207=DIRECTION('',(-1.0,0.0,0.0));
#208=AXIS2_PLACEMENT_3D('',#205,#206,#207);
#209=TOROIDAL_SURFACE('',#208,4.150000000000001,0.599999999999999);
#210=CARTESIAN_POINT('',(-27.150000000000002,-9.214851E-016,-3.426785454053366));
#211=DIRECTION('',(0.0,1.0,0.0));
#212=DIRECTION('',(-1.0,0.0,0.0));
#213=AXIS2_PLACEMENT_3D('',#210,#211,#212);
#214=CIRCLE('',#213,0.599999999999999);
#215=EDGE_CURVE('',#82,#169,#214,.T.);
#216=ORIENTED_EDGE('',*,*,#215,.F.);
#217=ORIENTED_EDGE('',*,*,#88,.F.);
#218=CARTESIAN_POINT('',(-18.849999999999998,4.132567E-016,-3.426785454053367));
#219=DIRECTION('',(0.0,-1.0,0.0));
#220=DIRECTION('',(1.0,0.0,0.0));
#221=AXIS2_PLACEMENT_3D('',#218,#219,#220);
#222=CIRCLE('',#221,0.599999999999999);
#223=EDGE_CURVE('',#71,#179,#222,.T.);
#224=ORIENTED_EDGE('',*,*,#223,.T.);
#225=ORIENTED_EDGE('',*,*,#185,.T.);
#226=EDGE_LOOP('',(#216,#217,#224,#225));
#227=FACE_OUTER_BOUND('',#226,.T.);
#228=ADVANCED_FACE('',(#227),#209,.T.);
#229=CARTESIAN_POINT('',(-23.0,7.105427E-015,4.400000000000002));
#230=DIRECTION('',(0.0,8.881784E-016,1.0));
#231=DIRECTION('',(1.0,0.0,0.0));
#232=AXIS2_PLACEMENT_3D('',#229,#230,#231);
#233=CYLINDRICAL_SURFACE('',#232,2.500000000000001);
#234=CARTESIAN_POINT('',(-20.5,1.421085E-014,10.400000000000002));
#235=VERTEX_POINT('',#234);
#236=CARTESIAN_POINT('',(-20.5,0.0,-1.599999999999998));
#237=VERTEX_POINT('',#236);
#238=CARTESIAN_POINT('',(-20.5,1.243450E-014,10.400000000000002));
#239=DIRECTION('',(0.0,0.0,-1.0));
#240=VECTOR('',#239,12.0);
#241=LINE('',#238,#240);
#242=EDGE_CURVE('',#235,#237,#241,.T.);
#243=ORIENTED_EDGE('',*,*,#242,.F.);
#244=CARTESIAN_POINT('',(-25.5,1.212834E-014,10.400000000000002));
#245=VERTEX_POINT('',#244);
#246=CARTESIAN_POINT('',(-23.0,1.421085E-014,10.400000000000002));
#247=DIRECTION('',(0.0,0.0,1.0));
#248=DIRECTION('',(1.0,0.0,0.0));
#249=AXIS2_PLACEMENT_3D('',#246,#247,#248);
#250=CIRCLE('',#249,2.500000000000001);
#251=EDGE_CURVE('',#245,#235,#250,.T.);
#252=ORIENTED_EDGE('',*,*,#251,.F.);
#253=CARTESIAN_POINT('',(-25.5,1.470195E-015,-1.600000000000001));
#254=VERTEX_POINT('',#253);
#255=CARTESIAN_POINT('',(-25.5,1.212834E-014,10.400000000000002));
#256=DIRECTION('',(0.0,0.0,-1.0));
#257=VECTOR('',#256,12.000000000000004);
#258=LINE('',#255,#257);
#259=EDGE_CURVE('',#245,#254,#258,.T.);
#260=ORIENTED_EDGE('',*,*,#259,.T.);
#261=CARTESIAN_POINT('',(-23.0,0.0,-1.600000000000001));
#262=DIRECTION('',(0.0,0.0,-1.0));
#263=DIRECTION('',(1.0,0.0,0.0));
#264=AXIS2_PLACEMENT_3D('',#261,#262,#263);
#265=CIRCLE('',#264,2.500000000000001);
#266=EDGE_CURVE('',#237,#254,#265,.T.);
#267=ORIENTED_EDGE('',*,*,#266,.F.);
#268=EDGE_LOOP('',(#243,#252,#260,#267));
#269=FACE_OUTER_BOUND('',#268,.T.);
#270=ADVANCED_FACE('',(#269),#233,.T.);
#271=CARTESIAN_POINT('',(-23.0,7.105427E-015,4.400000000000002));
#272=DIRECTION('',(0.0,8.881784E-016,1.0));
#273=DIRECTION('',(1.0,0.0,0.0));
#274=AXIS2_PLACEMENT_3D('',#271,#272,#273);
#275=CYLINDRICAL_SURFACE('',#274,2.500000000000001);
#276=ORIENTED_EDGE('',*,*,#242,.T.);
#277=CARTESIAN_POINT('',(-23.0,0.0,-1.600000000000001));
#278=DIRECTION('',(0.0,0.0,-1.0));
#279=DIRECTION('',(1.0,0.0,0.0));
#280=AXIS2_PLACEMENT_3D('',#277,#278,#279);
#281=CIRCLE('',#280,2.500000000000001);
#282=EDGE_CURVE('',#254,#237,#281,.T.);
#283=ORIENTED_EDGE('',*,*,#282,.F.);
#284=ORIENTED_EDGE('',*,*,#259,.F.);
#285=CARTESIAN_POINT('',(-23.0,1.421085E-014,10.400000000000002));
#286=DIRECTION('',(0.0,0.0,1.0));
#287=DIRECTION('',(1.0,0.0,0.0));
#288=AXIS2_PLACEMENT_3D('',#285,#286,#287);
#289=CIRCLE('',#288,2.500000000000001);
#290=EDGE_CURVE('',#235,#245,#289,.T.);
#291=ORIENTED_EDGE('',*,*,#290,.F.);
#292=EDGE_LOOP('',(#276,#283,#284,#291));
#293=FACE_OUTER_BOUND('',#292,.T.);
#294=ADVANCED_FACE('',(#293),#275,.T.);
#295=CARTESIAN_POINT('',(-23.0,1.421085E-014,10.400000000000002));
#296=DIRECTION('',(0.0,0.0,1.0));
#297=DIRECTION('',(1.0,0.0,0.0));
#298=AXIS2_PLACEMENT_3D('',#295,#296,#297);
#299=PLANE('',#298);
#300=ORIENTED_EDGE('',*,*,#290,.T.);
#301=ORIENTED_EDGE('',*,*,#251,.T.);
#302=EDGE_LOOP('',(#300,#301));
#303=FACE_OUTER_BOUND('',#302,.T.);
#304=ADVANCED_FACE('',(#303),#299,.T.);
#305=CARTESIAN_POINT('',(-23.0,0.0,-3.426785454053366));
#306=DIRECTION('',(-6.123234E-017,-3.828569E-016,-1.0));
#307=DIRECTION('',(-1.0,0.0,0.0));
#308=AXIS2_PLACEMENT_3D('',#305,#306,#307);
#309=TOROIDAL_SURFACE('',#308,4.150000000000001,0.599999999999999);
#310=ORIENTED_EDGE('',*,*,#215,.T.);
#311=CARTESIAN_POINT('',(-23.0,0.0,-3.426785454053367));
#312=DIRECTION('',(0.0,0.0,-1.0));
#313=DIRECTION('',(-1.0,0.0,0.0));
#314=AXIS2_PLACEMENT_3D('',#311,#312,#313);
#315=CIRCLE('',#314,4.749999999999998);
#316=EDGE_CURVE('',#169,#179,#315,.T.);
#317=ORIENTED_EDGE('',*,*,#316,.T.);
#318=ORIENTED_EDGE('',*,*,#223,.F.);
#319=CARTESIAN_POINT('',(-23.0,4.486486486486484,-3.923551842219856));
#320=VERTEX_POINT('',#319);
#321=CARTESIAN_POINT('',(-23.0,0.0,-3.923551842219855));
#322=DIRECTION('',(0.0,0.0,-1.0));
#323=DIRECTION('',(-1.0,0.0,0.0));
#324=AXIS2_PLACEMENT_3D('',#321,#322,#323);
#325=CIRCLE('',#324,4.486486486486489);
#326=EDGE_CURVE('',#320,#71,#325,.T.);
#327=ORIENTED_EDGE('',*,*,#326,.F.);
#328=CARTESIAN_POINT('',(-23.0,0.0,-3.923551842219855));
#329=DIRECTION('',(0.0,0.0,-1.0));
#330=DIRECTION('',(-1.0,0.0,0.0));
#331=AXIS2_PLACEMENT_3D('',#328,#329,#330);
#332=CIRCLE('',#331,4.486486486486489);
#333=EDGE_CURVE('',#82,#320,#332,.T.);
#334=ORIENTED_EDGE('',*,*,#333,.F.);
#335=EDGE_LOOP('',(#310,#317,#318,#327,#334));
#336=FACE_OUTER_BOUND('',#335,.T.);
#337=ADVANCED_FACE('',(#336),#309,.T.);
#338=CARTESIAN_POINT('',(-23.0,0.0,-1.508660727297329));
#339=DIRECTION('',(-6.123234E-017,-3.828569E-016,-1.0));
#340=DIRECTION('',(-1.0,0.0,0.0));
#341=AXIS2_PLACEMENT_3D('',#338,#339,#340);
#342=CYLINDRICAL_SURFACE('',#341,4.749999999999998);
#343=ORIENTED_EDGE('',*,*,#176,.T.);
#344=CARTESIAN_POINT('',(-23.0,0.0,-1.599999999999998));
#345=DIRECTION('',(0.0,0.0,-1.0));
#346=DIRECTION('',(-1.0,0.0,0.0));
#347=AXIS2_PLACEMENT_3D('',#344,#345,#346);
#348=CIRCLE('',#347,4.75);
#349=EDGE_CURVE('',#171,#188,#348,.T.);
#350=ORIENTED_EDGE('',*,*,#349,.T.);
#351=ORIENTED_EDGE('',*,*,#193,.F.);
#352=ORIENTED_EDGE('',*,*,#316,.F.);
#353=EDGE_LOOP('',(#343,#350,#351,#352));
#354=FACE_OUTER_BOUND('',#353,.T.);
#355=ADVANCED_FACE('',(#354),#342,.T.);
#356=CARTESIAN_POINT('',(-23.0,0.0,2.700000000000003));
#357=DIRECTION('',(0.0,0.0,1.0));
#358=DIRECTION('',(1.0,0.0,0.0));
#359=AXIS2_PLACEMENT_3D('',#356,#357,#358);
#360=SPHERICAL_SURFACE('',#359,8.0);
#361=ORIENTED_EDGE('',*,*,#79,.T.);
#362=CARTESIAN_POINT('',(-20.792470816986818,0.472446498069687,-4.97486867722222));
#363=VERTEX_POINT('',#362);
#364=CARTESIAN_POINT('',(-25.259470186450066,-1.421085E-014,1.014971386376226));
#365=DIRECTION('',(0.801627475093059,4.068780E-016,0.597823879730417));
#366=DIRECTION('',(0.597823879730417,-1.741650E-016,-0.801627475093059));
#367=AXIS2_PLACEMENT_3D('',#364,#365,#366);
#368=CIRCLE('',#367,7.487020305022048);
#369=EDGE_CURVE('',#73,#363,#368,.T.);
#370=ORIENTED_EDGE('',*,*,#369,.T.);
#371=CARTESIAN_POINT('',(-22.502625648389529,0.497374351610475,-5.269017349003581));
#372=VERTEX_POINT('',#371);
#373=CARTESIAN_POINT('',(-23.0,-0.176697090701651,2.685025670279524));
#374=DIRECTION('',(2.160809E-016,-0.996428304896932,-0.08444307668618));
#375=DIRECTION('',(7.976377E-017,-0.08444307668618,0.996428304896931));
#376=AXIS2_PLACEMENT_3D('',#373,#374,#375);
#377=CIRCLE('',#376,7.998034377744758);
#378=EDGE_CURVE('',#372,#363,#377,.T.);
#379=ORIENTED_EDGE('',*,*,#378,.F.);
#380=CARTESIAN_POINT('',(-22.527553501930321,2.207529183013179,-4.97486867722222));
#381=VERTEX_POINT('',#380);
#382=CARTESIAN_POINT('',(-23.176697090701655,0.0,2.685025670279524));
#383=DIRECTION('',(-0.996428304896931,-2.535811E-016,-0.084443076686181));
#384=DIRECTION('',(-0.084443076686181,3.627393E-016,0.996428304896931));
#385=AXIS2_PLACEMENT_3D('',#382,#383,#384);
#386=CIRCLE('',#385,7.998034377744758);
#387=EDGE_CURVE('',#381,#372,#386,.T.);
#388=ORIENTED_EDGE('',*,*,#387,.F.);
#389=CARTESIAN_POINT('',(-23.472446498069679,2.207529183013179,-4.97486867722222));
#390=VERTEX_POINT('',#389);
#391=CARTESIAN_POINT('',(-23.0,-2.259470186450066,1.014971386376228));
#392=DIRECTION('',(-1.413909E-016,0.801627475093059,0.597823879730417));
#393=DIRECTION('',(-1.818291E-016,0.597823879730416,-0.801627475093059));
#394=AXIS2_PLACEMENT_3D('',#391,#392,#393);
#395=CIRCLE('',#394,7.487020305022051);
#396=EDGE_CURVE('',#381,#390,#395,.T.);
#397=ORIENTED_EDGE('',*,*,#396,.T.);
#398=CARTESIAN_POINT('',(-23.497374351610475,0.497374351610475,-5.269017349003581));
#399=VERTEX_POINT('',#398);
#400=CARTESIAN_POINT('',(-22.823302909298349,0.0,2.685025670279524));
#401=DIRECTION('',(0.996428304896932,1.889219E-016,-0.084443076686181));
#402=DIRECTION('',(-0.084443076686181,-4.002396E-016,-0.996428304896931));
#403=AXIS2_PLACEMENT_3D('',#400,#401,#402);
#404=CIRCLE('',#403,7.998034377744759);
#405=EDGE_CURVE('',#399,#390,#404,.T.);
#406=ORIENTED_EDGE('',*,*,#405,.F.);
#407=CARTESIAN_POINT('',(-25.20752918301319,0.472446498069672,-4.97486867722222));
#408=VERTEX_POINT('',#407);
#409=CARTESIAN_POINT('',(-23.0,-0.176697090701651,2.685025670279524));
#410=DIRECTION('',(2.160809E-016,-0.996428304896932,-0.08444307668618));
#411=DIRECTION('',(7.976377E-017,-0.08444307668618,0.996428304896931));
#412=AXIS2_PLACEMENT_3D('',#409,#410,#411);
#413=CIRCLE('',#412,7.998034377744758);
#414=EDGE_CURVE('',#408,#399,#413,.T.);
#415=ORIENTED_EDGE('',*,*,#414,.F.);
#416=CARTESIAN_POINT('',(-20.740529813549934,7.105427E-015,1.014971386376226));
#417=DIRECTION('',(-0.801627475093059,5.088392E-017,0.597823879730417));
#418=DIRECTION('',(0.597823879730417,4.396522E-016,0.801627475093059));
#419=AXIS2_PLACEMENT_3D('',#416,#417,#418);
#420=CIRCLE('',#419,7.487020305022048);
#421=EDGE_CURVE('',#408,#91,#420,.T.);
#422=ORIENTED_EDGE('',*,*,#421,.T.);
#423=ORIENTED_EDGE('',*,*,#97,.F.);
#424=ORIENTED_EDGE('',*,*,#333,.T.);
#425=ORIENTED_EDGE('',*,*,#326,.T.);
#426=EDGE_LOOP('',(#361,#370,#379,#388,#397,#406,#415,#422,#423,#424,#425));
#427=FACE_OUTER_BOUND('',#426,.T.);
#428=ADVANCED_FACE('',(#427),#360,.T.);
#429=CARTESIAN_POINT('',(-22.490256930809004,0.152123540849338,-5.414968216453762));
#430=DIRECTION('',(-0.996428304896931,-2.535811E-016,-0.084443076686181));
#431=DIRECTION('',(-0.084443076686181,3.627393E-016,0.996428304896931));
#432=AXIS2_PLACEMENT_3D('',#429,#430,#431);
#433=PLANE('',#432);
#434=ORIENTED_EDGE('',*,*,#387,.T.);
#435=CARTESIAN_POINT('',(-22.75,0.25,-2.349999999999997));
#436=VERTEX_POINT('',#435);
#437=CARTESIAN_POINT('',(-22.502625648389529,0.497374351610475,-5.269017349003581));
#438=DIRECTION('',(-0.084143610969956,-0.084143610969955,0.992894609445471));
#439=VECTOR('',#438,2.939906533115181);
#440=LINE('',#437,#439);
#441=EDGE_CURVE('',#372,#436,#440,.T.);
#442=ORIENTED_EDGE('',*,*,#441,.T.);
#443=CARTESIAN_POINT('',(-22.527553501930321,2.207529183013179,-4.974868677222221));
#444=DIRECTION('',(-0.067778309965116,-0.596449127693018,0.799784057588366));
#445=VECTOR('',#444,3.281971742644057);
#446=LINE('',#443,#445);
#447=EDGE_CURVE('',#381,#436,#446,.T.);
#448=ORIENTED_EDGE('',*,*,#447,.F.);
#449=EDGE_LOOP('',(#434,#442,#448));
#450=FACE_OUTER_BOUND('',#449,.T.);
#451=ADVANCED_FACE('',(#450),#433,.T.);
#452=CARTESIAN_POINT('',(-22.490256930809004,-2.305405642163848,-5.414968216453761));
#453=DIRECTION('',(-0.996428304896931,-2.535811E-016,-0.084443076686181));
#454=DIRECTION('',(-0.084443076686181,3.627393E-016,0.996428304896931));
#455=AXIS2_PLACEMENT_3D('',#452,#453,#454);
#456=PLANE('',#455);
#457=CARTESIAN_POINT('',(-22.75,-0.25,-2.349999999999997));
#458=VERTEX_POINT('',#457);
#459=CARTESIAN_POINT('',(-22.527553501930321,-2.207529183013186,-4.974868677222221));
#460=DIRECTION('',(-0.067778309965116,0.596449127693019,0.799784057588366));
#461=VECTOR('',#460,3.28197174264406);
#462=LINE('',#459,#461);
#463=EDGE_CURVE('',#127,#458,#462,.T.);
#464=ORIENTED_EDGE('',*,*,#463,.T.);
#465=CARTESIAN_POINT('',(-22.75,-0.25,-2.349999999999997));
#466=DIRECTION('',(0.084143610969956,-0.084143610969955,-0.992894609445471));
#467=VECTOR('',#466,2.939906533115181);
#468=LINE('',#465,#467);
#469=EDGE_CURVE('',#458,#136,#468,.T.);
#470=ORIENTED_EDGE('',*,*,#469,.T.);
#471=ORIENTED_EDGE('',*,*,#142,.T.);
#472=EDGE_LOOP('',(#464,#470,#471));
#473=FACE_OUTER_BOUND('',#472,.T.);
#474=ADVANCED_FACE('',(#473),#456,.T.);
#475=CARTESIAN_POINT('',(-23.22159090909091,0.0,-2.014772727272723));
#476=DIRECTION('',(0.996428304896931,2.831333E-016,-0.08444307668618));
#477=DIRECTION('',(-0.08444307668618,-4.002396E-016,-0.996428304896931));
#478=AXIS2_PLACEMENT_3D('',#475,#476,#477);
#479=PLANE('',#478);
#480=CARTESIAN_POINT('',(-23.25,0.25,-2.349999999999997));
#481=VERTEX_POINT('',#480);
#482=CARTESIAN_POINT('',(-23.472446498069679,2.207529183013179,-4.97486867722222));
#483=DIRECTION('',(0.067778309965116,-0.596449127693018,0.799784057588366));
#484=VECTOR('',#483,3.281971742644057);
#485=LINE('',#482,#484);
#486=EDGE_CURVE('',#390,#481,#485,.T.);
#487=ORIENTED_EDGE('',*,*,#486,.T.);
#488=CARTESIAN_POINT('',(-23.25,0.25,-2.349999999999997));
#489=DIRECTION('',(-0.084143610969956,0.084143610969954,-0.992894609445471));
#490=VECTOR('',#489,2.939906533115181);
#491=LINE('',#488,#490);
#492=EDGE_CURVE('',#481,#399,#491,.T.);
#493=ORIENTED_EDGE('',*,*,#492,.T.);
#494=ORIENTED_EDGE('',*,*,#405,.T.);
#495=EDGE_LOOP('',(#487,#493,#494));
#496=FACE_OUTER_BOUND('',#495,.T.);
#497=ADVANCED_FACE('',(#496),#479,.T.);
#498=CARTESIAN_POINT('',(-23.237631282419475,-2.305405642163848,-2.204049132549816));
#499=DIRECTION('',(0.996428304896931,2.831333E-016,-0.08444307668618));
#500=DIRECTION('',(-0.08444307668618,-4.002396E-016,-0.996428304896931));
#501=AXIS2_PLACEMENT_3D('',#498,#499,#500);
#502=PLANE('',#501);
#503=ORIENTED_EDGE('',*,*,#124,.T.);
#504=CARTESIAN_POINT('',(-23.25,-0.25,-2.349999999999997));
#505=VERTEX_POINT('',#504);
#506=CARTESIAN_POINT('',(-23.497374351610475,-0.497374351610475,-5.26901734900358));
#507=DIRECTION('',(0.084143610969954,0.084143610969956,0.992894609445471));
#508=VECTOR('',#507,2.939906533115179);
#509=LINE('',#506,#508);
#510=EDGE_CURVE('',#109,#505,#509,.T.);
#511=ORIENTED_EDGE('',*,*,#510,.T.);
#512=CARTESIAN_POINT('',(-23.472446498069679,-2.207529183013186,-4.974868677222221));
#513=DIRECTION('',(0.067778309965116,0.596449127693019,0.799784057588366));
#514=VECTOR('',#513,3.281971742644059);
#515=LINE('',#512,#514);
#516=EDGE_CURVE('',#118,#505,#515,.T.);
#517=ORIENTED_EDGE('',*,*,#516,.F.);
#518=EDGE_LOOP('',(#503,#511,#517));
#519=FACE_OUTER_BOUND('',#518,.T.);
#520=ADVANCED_FACE('',(#519),#502,.T.);
#521=CARTESIAN_POINT('',(-17.774999999999999,-5.224999999999994,-1.599999999999997));
#522=DIRECTION('',(0.0,0.0,-1.0));
#523=DIRECTION('',(-1.0,0.0,0.0));
#524=AXIS2_PLACEMENT_3D('',#521,#522,#523);
#525=PLANE('',#524);
#526=ORIENTED_EDGE('',*,*,#349,.F.);
#527=ORIENTED_EDGE('',*,*,#200,.F.);
#528=EDGE_LOOP('',(#526,#527));
#529=FACE_OUTER_BOUND('',#528,.T.);
#530=ORIENTED_EDGE('',*,*,#266,.T.);
#531=ORIENTED_EDGE('',*,*,#282,.T.);
#532=EDGE_LOOP('',(#530,#531));
#533=FACE_BOUND('',#532,.T.);
#534=ADVANCED_FACE('',(#529,#533),#525,.F.);
#535=CARTESIAN_POINT('',(-22.480308852123351,0.151677533004069,-2.218158510164543));
#536=DIRECTION('',(-1.413909E-016,0.801627475093059,0.597823879730416));
#537=DIRECTION('',(1.0,0.0,0.0));
#538=AXIS2_PLACEMENT_3D('',#535,#536,#537);
#539=PLANE('',#538);
#540=ORIENTED_EDGE('',*,*,#447,.T.);
#541=CARTESIAN_POINT('',(-23.25,0.25,-2.349999999999997));
#542=DIRECTION('',(1.0,0.0,0.0));
#543=VECTOR('',#542,0.5);
#544=LINE('',#541,#543);
#545=EDGE_CURVE('',#481,#436,#544,.T.);
#546=ORIENTED_EDGE('',*,*,#545,.F.);
#547=ORIENTED_EDGE('',*,*,#486,.F.);
#548=ORIENTED_EDGE('',*,*,#396,.F.);
#549=EDGE_LOOP('',(#540,#546,#547,#548));
#550=FACE_OUTER_BOUND('',#549,.T.);
#551=ADVANCED_FACE('',(#550),#539,.F.);
#552=CARTESIAN_POINT('',(-22.480308852123351,-2.314771806914557,-5.118671286544513));
#553=DIRECTION('',(3.884285E-016,-0.801627475093058,0.597823879730417));
#554=DIRECTION('',(1.0,0.0,0.0));
#555=AXIS2_PLACEMENT_3D('',#552,#553,#554);
#556=PLANE('',#555);
#557=ORIENTED_EDGE('',*,*,#516,.T.);
#558=CARTESIAN_POINT('',(-22.75,-0.25,-2.349999999999997));
#559=DIRECTION('',(-1.0,0.0,0.0));
#560=VECTOR('',#559,0.5);
#561=LINE('',#558,#560);
#562=EDGE_CURVE('',#458,#505,#561,.T.);
#563=ORIENTED_EDGE('',*,*,#562,.F.);
#564=ORIENTED_EDGE('',*,*,#463,.F.);
#565=ORIENTED_EDGE('',*,*,#133,.F.);
#566=EDGE_LOOP('',(#557,#563,#564,#565));
#567=FACE_OUTER_BOUND('',#566,.T.);
#568=ADVANCED_FACE('',(#567),#556,.F.);
#569=CARTESIAN_POINT('',(-22.725000000000001,-0.274999999999999,-2.349999999999997));
#570=DIRECTION('',(0.0,0.0,-1.0));
#571=DIRECTION('',(-1.0,0.0,0.0));
#572=AXIS2_PLACEMENT_3D('',#569,#570,#571);
#573=PLANE('',#572);
#574=CARTESIAN_POINT('',(-22.75,-0.25,-2.349999999999997));
#575=DIRECTION('',(0.0,1.0,0.0));
#576=VECTOR('',#575,0.500000000000001);
#577=LINE('',#574,#576);
#578=EDGE_CURVE('',#458,#436,#577,.T.);
#579=ORIENTED_EDGE('',*,*,#578,.F.);
#580=ORIENTED_EDGE('',*,*,#562,.T.);
#581=CARTESIAN_POINT('',(-23.25,0.25,-2.349999999999997));
#582=DIRECTION('',(0.0,-1.0,0.0));
#583=VECTOR('',#582,0.500000000000001);
#584=LINE('',#581,#583);
#585=EDGE_CURVE('',#481,#505,#584,.T.);
#586=ORIENTED_EDGE('',*,*,#585,.F.);
#587=ORIENTED_EDGE('',*,*,#545,.T.);
#588=EDGE_LOOP('',(#579,#580,#586,#587));
#589=FACE_OUTER_BOUND('',#588,.T.);
#590=ADVANCED_FACE('',(#589),#573,.T.);
#591=CARTESIAN_POINT('',(-20.685343862702453,0.519691147876664,-5.118516184103527));
#592=DIRECTION('',(0.801627475093059,3.379572E-015,0.597823879730417));
#593=DIRECTION('',(0.597823879730417,-1.741650E-016,-0.801627475093059));
#594=AXIS2_PLACEMENT_3D('',#591,#592,#593);
#595=PLANE('',#594);
#596=CARTESIAN_POINT('',(-20.792470816986814,-0.472446498069672,-4.974868677222221));
#597=DIRECTION('',(-0.596449127693019,0.067778309965114,0.799784057588366));
#598=VECTOR('',#597,3.28197174264406);
#599=LINE('',#596,#598);
#600=EDGE_CURVE('',#145,#458,#599,.T.);
#601=ORIENTED_EDGE('',*,*,#600,.T.);
#602=ORIENTED_EDGE('',*,*,#578,.T.);
#603=CARTESIAN_POINT('',(-20.792470816986818,0.472446498069687,-4.97486867722222));
#604=DIRECTION('',(-0.596449127693018,-0.067778309965118,0.799784057588366));
#605=VECTOR('',#604,3.281971742644057);
#606=LINE('',#603,#605);
#607=EDGE_CURVE('',#363,#436,#606,.T.);
#608=ORIENTED_EDGE('',*,*,#607,.F.);
#609=ORIENTED_EDGE('',*,*,#369,.F.);
#610=ORIENTED_EDGE('',*,*,#158,.F.);
#611=EDGE_LOOP('',(#601,#602,#608,#609,#610));
#612=FACE_OUTER_BOUND('',#611,.T.);
#613=ADVANCED_FACE('',(#612),#595,.F.);
#614=CARTESIAN_POINT('',(-20.694594357836152,-0.237631282419471,-2.204049132549815));
#615=DIRECTION('',(-3.799646E-015,0.996428304896931,-0.084443076686181));
#616=DIRECTION('',(-1.0,0.0,0.0));
#617=AXIS2_PLACEMENT_3D('',#614,#615,#616);
#618=PLANE('',#617);
#619=ORIENTED_EDGE('',*,*,#151,.T.);
#620=ORIENTED_EDGE('',*,*,#469,.F.);
#621=ORIENTED_EDGE('',*,*,#600,.F.);
#622=EDGE_LOOP('',(#619,#620,#621));
#623=FACE_OUTER_BOUND('',#622,.T.);
#624=ADVANCED_FACE('',(#623),#618,.T.);
#625=CARTESIAN_POINT('',(-20.694594357836159,0.509743069190996,-5.414968216453762));
#626=DIRECTION('',(3.695094E-015,-0.996428304896931,-0.08444307668618));
#627=DIRECTION('',(1.0,0.0,0.0));
#628=AXIS2_PLACEMENT_3D('',#625,#626,#627);
#629=PLANE('',#628);
#630=ORIENTED_EDGE('',*,*,#378,.T.);
#631=ORIENTED_EDGE('',*,*,#607,.T.);
#632=ORIENTED_EDGE('',*,*,#441,.F.);
#633=EDGE_LOOP('',(#630,#631,#632));
#634=FACE_OUTER_BOUND('',#633,.T.);
#635=ADVANCED_FACE('',(#634),#629,.T.);
#636=CARTESIAN_POINT('',(-23.151683041081068,0.519691147876642,-2.218165895995066));
#637=DIRECTION('',(-0.801627475093059,-2.747985E-015,0.597823879730417));
#638=DIRECTION('',(0.597823879730417,4.396522E-016,0.801627475093059));
#639=AXIS2_PLACEMENT_3D('',#636,#637,#638);
#640=PLANE('',#639);
#641=CARTESIAN_POINT('',(-25.207529183013186,0.472446498069672,-4.974868677222221));
#642=DIRECTION('',(0.596449127693019,-0.067778309965113,0.799784057588366));
#643=VECTOR('',#642,3.28197174264406);
#644=LINE('',#641,#643);
#645=EDGE_CURVE('',#408,#481,#644,.T.);
#646=ORIENTED_EDGE('',*,*,#645,.T.);
#647=ORIENTED_EDGE('',*,*,#585,.T.);
#648=CARTESIAN_POINT('',(-25.207529183013182,-0.472446498069687,-4.97486867722222));
#649=DIRECTION('',(0.596449127693018,0.067778309965118,0.799784057588366));
#650=VECTOR('',#649,3.281971742644059);
#651=LINE('',#648,#650);
#652=EDGE_CURVE('',#100,#505,#651,.T.);
#653=ORIENTED_EDGE('',*,*,#652,.F.);
#654=ORIENTED_EDGE('',*,*,#106,.F.);
#655=ORIENTED_EDGE('',*,*,#421,.F.);
#656=EDGE_LOOP('',(#646,#647,#653,#654,#655));
#657=FACE_OUTER_BOUND('',#656,.T.);
#658=ADVANCED_FACE('',(#657),#640,.F.);
#659=CARTESIAN_POINT('',(-23.152123540849342,0.509743069190996,-5.414968216453761));
#660=DIRECTION('',(3.695094E-015,-0.996428304896931,-0.08444307668618));
#661=DIRECTION('',(1.0,0.0,0.0));
#662=AXIS2_PLACEMENT_3D('',#659,#660,#661);
#663=PLANE('',#662);
#664=ORIENTED_EDGE('',*,*,#414,.T.);
#665=ORIENTED_EDGE('',*,*,#492,.F.);
#666=ORIENTED_EDGE('',*,*,#645,.F.);
#667=EDGE_LOOP('',(#664,#665,#666));
#668=FACE_OUTER_BOUND('',#667,.T.);
#669=ADVANCED_FACE('',(#668),#663,.T.);
#670=CARTESIAN_POINT('',(-23.0,-0.221590909090907,-2.014772727272723));
#671=DIRECTION('',(-3.799646E-015,0.996428304896931,-0.084443076686181));
#672=DIRECTION('',(-1.0,0.0,0.0));
#673=AXIS2_PLACEMENT_3D('',#670,#671,#672);
#674=PLANE('',#673);
#675=ORIENTED_EDGE('',*,*,#115,.T.);
#676=ORIENTED_EDGE('',*,*,#652,.T.);
#677=ORIENTED_EDGE('',*,*,#510,.F.);
#678=EDGE_LOOP('',(#675,#676,#677));
#679=FACE_OUTER_BOUND('',#678,.T.);
#680=ADVANCED_FACE('',(#679),#674,.T.);
#681=CLOSED_SHELL('',(#162,#204,#228,#270,#294,#304,#337,#355,#428,#451,#474,#497,#520,#534,#551,#568,#590,#613,#624,#635,#658,#669,#680));
#682=MANIFOLD_SOLID_BREP('23E0',#681);
#683=COLOUR_RGB('254',0.866,0.866,0.866);
#684=SURFACE_STYLE_USAGE(.BOTH.,#685);
#685=SURFACE_SIDE_STYLE('NONE',(#686));
#686=SURFACE_STYLE_FILL_AREA(#687);
#687=FILL_AREA_STYLE('NONE',(#688));
#688=FILL_AREA_STYLE_COLOUR('NONE',#683);
#689=PRESENTATION_STYLE_ASSIGNMENT((#684));
#690=STYLED_ITEM('NONE',(#689),#682);
#691=MECHANICAL_DESIGN_GEOMETRIC_PRESENTATION_REPRESENTATION('NONE',(#690,#1311,#1930),#28);
#692=PRESENTATION_LAYER_ASSIGNMENT('3D','None',(#682,#1310,#1929));
#693=CARTESIAN_POINT('',(2.220446E-016,0.0,2.700000000000003));
#694=DIRECTION('',(0.0,0.0,1.0));
#695=DIRECTION('',(1.0,0.0,0.0));
#696=AXIS2_PLACEMENT_3D('',#693,#694,#695);
#697=SPHERICAL_SURFACE('',#696,8.0);
#698=CARTESIAN_POINT('',(4.486486486486489,2.565736E-016,-3.923551842219855));
#699=VERTEX_POINT('',#698);
#700=CARTESIAN_POINT('',(2.216449339918623,0.0,-4.98682979670906));
#701=VERTEX_POINT('',#700);
#702=CARTESIAN_POINT('',(2.220446E-016,0.0,2.700000000000003));
#703=DIRECTION('',(0.0,1.0,0.0));
#704=DIRECTION('',(1.0,0.0,0.0));
#705=AXIS2_PLACEMENT_3D('',#702,#703,#704);
#706=CIRCLE('',#705,8.0);
#707=EDGE_CURVE('',#699,#701,#706,.T.);
#708=ORIENTED_EDGE('',*,*,#707,.F.);
#709=CARTESIAN_POINT('',(-4.486486486486489,-1.186391E-015,-3.923551842219854));
#710=VERTEX_POINT('',#709);
#711=CARTESIAN_POINT('',(-2.220446E-016,0.0,-3.923551842219855));
#712=DIRECTION('',(0.0,0.0,-1.0));
#713=DIRECTION('',(-1.0,0.0,0.0));
#714=AXIS2_PLACEMENT_3D('',#711,#712,#713);
#715=CIRCLE('',#714,4.486486486486489);
#716=EDGE_CURVE('',#699,#710,#715,.T.);
#717=ORIENTED_EDGE('',*,*,#716,.T.);
#718=CARTESIAN_POINT('',(-2.216449339918623,-2.714368E-016,-4.98682979670906));
#719=VERTEX_POINT('',#718);
#720=CARTESIAN_POINT('',(2.220446E-016,0.0,2.700000000000003));
#721=DIRECTION('',(0.0,-1.0,0.0));
#722=DIRECTION('',(-1.0,0.0,0.0));
#723=AXIS2_PLACEMENT_3D('',#720,#721,#722);
#724=CIRCLE('',#723,8.0);
#725=EDGE_CURVE('',#710,#719,#724,.T.);
#726=ORIENTED_EDGE('',*,*,#725,.T.);
#727=CARTESIAN_POINT('',(-2.207529183013184,-0.472446498069687,-4.97486867722222));
#728=VERTEX_POINT('',#727);
#729=CARTESIAN_POINT('',(2.259470186450066,7.105427E-015,1.014971386376226));
#730=DIRECTION('',(-0.801627475093059,5.088392E-017,0.597823879730417));
#731=DIRECTION('',(0.597823879730417,4.396522E-016,0.801627475093059));
#732=AXIS2_PLACEMENT_3D('',#729,#730,#731);
#733=CIRCLE('',#732,7.487020305022048);
#734=EDGE_CURVE('',#719,#728,#733,.T.);
#735=ORIENTED_EDGE('',*,*,#734,.T.);
#736=CARTESIAN_POINT('',(-0.497374351610473,-0.497374351610475,-5.26901734900358));
#737=VERTEX_POINT('',#736);
#738=CARTESIAN_POINT('',(-4.440892E-016,0.176697090701659,2.685025670279524));
#739=DIRECTION('',(-2.264222E-016,0.996428304896932,-0.084443076686181));
#740=DIRECTION('',(-4.226351E-017,-0.084443076686181,-0.996428304896931));
#741=AXIS2_PLACEMENT_3D('',#738,#739,#740);
#742=CIRCLE('',#741,7.998034377744759);
#743=EDGE_CURVE('',#737,#728,#742,.T.);
#744=ORIENTED_EDGE('',*,*,#743,.F.);
#745=CARTESIAN_POINT('',(-0.472446498069679,-2.207529183013186,-4.974868677222221));
#746=VERTEX_POINT('',#745);
#747=CARTESIAN_POINT('',(0.176697090701653,0.0,2.685025670279524));
#748=DIRECTION('',(0.996428304896932,1.889219E-016,-0.084443076686181));
#749=DIRECTION('',(-0.084443076686181,-4.002396E-016,-0.996428304896931));
#750=AXIS2_PLACEMENT_3D('',#747,#748,#749);
#751=CIRCLE('',#750,7.998034377744759);
#752=EDGE_CURVE('',#746,#737,#751,.T.);
#753=ORIENTED_EDGE('',*,*,#752,.F.);
#754=CARTESIAN_POINT('',(0.472446498069681,-2.207529183013186,-4.974868677222222));
#755=VERTEX_POINT('',#754);
#756=CARTESIAN_POINT('',(-8.881784E-016,2.259470186450059,1.014971386376224));
#757=DIRECTION('',(2.146032E-016,-0.801627475093058,0.597823879730417));
#758=DIRECTION('',(-8.365804E-017,0.597823879730417,0.801627475093058));
#759=AXIS2_PLACEMENT_3D('',#756,#757,#758);
#760=CIRCLE('',#759,7.487020305022047);
#761=EDGE_CURVE('',#746,#755,#760,.T.);
#762=ORIENTED_EDGE('',*,*,#761,.T.);
#763=CARTESIAN_POINT('',(0.497374351610473,-0.497374351610468,-5.269017349003581));
#764=VERTEX_POINT('',#763);
#765=CARTESIAN_POINT('',(-0.176697090701654,0.0,2.685025670279524));
#766=DIRECTION('',(-0.996428304896931,-2.535811E-016,-0.084443076686181));
#767=DIRECTION('',(-0.084443076686181,3.627393E-016,0.996428304896931));
#768=AXIS2_PLACEMENT_3D('',#765,#766,#767);
#769=CIRCLE('',#768,7.998034377744758);
#770=EDGE_CURVE('',#764,#755,#769,.T.);
#771=ORIENTED_EDGE('',*,*,#770,.F.);
#772=CARTESIAN_POINT('',(2.207529183013186,-0.472446498069672,-4.974868677222221));
#773=VERTEX_POINT('',#772);
#774=CARTESIAN_POINT('',(-4.440892E-016,0.176697090701659,2.685025670279524));
#775=DIRECTION('',(-2.264222E-016,0.996428304896932,-0.084443076686181));
#776=DIRECTION('',(-4.226351E-017,-0.084443076686181,-0.996428304896931));
#777=AXIS2_PLACEMENT_3D('',#774,#775,#776);
#778=CIRCLE('',#777,7.998034377744759);
#779=EDGE_CURVE('',#773,#764,#778,.T.);
#780=ORIENTED_EDGE('',*,*,#779,.F.);
#781=CARTESIAN_POINT('',(-2.259470186450066,-1.421085E-014,1.014971386376226));
#782=DIRECTION('',(0.801627475093059,4.068780E-016,0.597823879730417));
#783=DIRECTION('',(0.597823879730417,-1.741650E-016,-0.801627475093059));
#784=AXIS2_PLACEMENT_3D('',#781,#782,#783);
#785=CIRCLE('',#784,7.487020305022048);
#786=EDGE_CURVE('',#773,#701,#785,.T.);
#787=ORIENTED_EDGE('',*,*,#786,.T.);
#788=EDGE_LOOP('',(#708,#717,#726,#735,#744,#753,#762,#771,#780,#787));
#789=FACE_OUTER_BOUND('',#788,.T.);
#790=ADVANCED_FACE('',(#789),#697,.T.);
#791=CARTESIAN_POINT('',(0.0,0.0,-1.508660727297329));
#792=DIRECTION('',(-6.123234E-017,-3.828569E-016,-1.0));
#793=DIRECTION('',(-1.0,0.0,0.0));
#794=AXIS2_PLACEMENT_3D('',#791,#792,#793);
#795=CYLINDRICAL_SURFACE('',#794,4.749999999999998);
#796=CARTESIAN_POINT('',(-4.749999999999998,0.0,-3.426785454053367));
#797=VERTEX_POINT('',#796);
#798=CARTESIAN_POINT('',(-4.75,0.0,-1.599999999999998));
#799=VERTEX_POINT('',#798);
#800=CARTESIAN_POINT('',(-4.749999999999998,-1.789079E-015,-3.426785454053367));
#801=DIRECTION('',(0.0,0.0,1.0));
#802=VECTOR('',#801,1.826785454053369);
#803=LINE('',#800,#802);
#804=EDGE_CURVE('',#797,#799,#803,.T.);
#805=ORIENTED_EDGE('',*,*,#804,.F.);
#806=CARTESIAN_POINT('',(4.749999999999998,4.730046E-016,-3.426785454053368));
#807=VERTEX_POINT('',#806);
#808=CARTESIAN_POINT('',(0.0,0.0,-3.426785454053367));
#809=DIRECTION('',(0.0,0.0,-1.0));
#810=DIRECTION('',(-1.0,0.0,0.0));
#811=AXIS2_PLACEMENT_3D('',#808,#809,#810);
#812=CIRCLE('',#811,4.749999999999998);
#813=EDGE_CURVE('',#807,#797,#812,.T.);
#814=ORIENTED_EDGE('',*,*,#813,.F.);
#815=CARTESIAN_POINT('',(4.749999999999998,4.380348E-016,-1.599999999999999));
#816=VERTEX_POINT('',#815);
#817=CARTESIAN_POINT('',(4.749999999999998,-2.613626E-016,-3.426785454053368));
#818=DIRECTION('',(0.0,0.0,1.0));
#819=VECTOR('',#818,1.826785454053369);
#820=LINE('',#817,#819);
#821=EDGE_CURVE('',#807,#816,#820,.T.);
#822=ORIENTED_EDGE('',*,*,#821,.T.);
#823=CARTESIAN_POINT('',(0.0,0.0,-1.599999999999998));
#824=DIRECTION('',(0.0,0.0,-1.0));
#825=DIRECTION('',(-1.0,0.0,0.0));
#826=AXIS2_PLACEMENT_3D('',#823,#824,#825);
#827=CIRCLE('',#826,4.75);
#828=EDGE_CURVE('',#816,#799,#827,.T.);
#829=ORIENTED_EDGE('',*,*,#828,.T.);
#830=EDGE_LOOP('',(#805,#814,#822,#829));
#831=FACE_OUTER_BOUND('',#830,.T.);
#832=ADVANCED_FACE('',(#831),#795,.T.);
#833=CARTESIAN_POINT('',(0.0,0.0,-3.426785454053366));
#834=DIRECTION('',(-6.123234E-017,-3.828569E-016,-1.0));
#835=DIRECTION('',(-1.0,0.0,0.0));
#836=AXIS2_PLACEMENT_3D('',#833,#834,#835);
#837=TOROIDAL_SURFACE('',#836,4.150000000000001,0.599999999999999);
#838=CARTESIAN_POINT('',(-4.150000000000001,-9.214851E-016,-3.426785454053366));
#839=DIRECTION('',(0.0,1.0,0.0));
#840=DIRECTION('',(-1.0,0.0,0.0));
#841=AXIS2_PLACEMENT_3D('',#838,#839,#840);
#842=CIRCLE('',#841,0.599999999999999);
#843=EDGE_CURVE('',#710,#797,#842,.T.);
#844=ORIENTED_EDGE('',*,*,#843,.F.);
#845=ORIENTED_EDGE('',*,*,#716,.F.);
#846=CARTESIAN_POINT('',(4.150000000000001,4.132567E-016,-3.426785454053367));
#847=DIRECTION('',(0.0,-1.0,0.0));
#848=DIRECTION('',(1.0,0.0,0.0));
#849=AXIS2_PLACEMENT_3D('',#846,#847,#848);
#850=CIRCLE('',#849,0.599999999999999);
#851=EDGE_CURVE('',#699,#807,#850,.T.);
#852=ORIENTED_EDGE('',*,*,#851,.T.);
#853=ORIENTED_EDGE('',*,*,#813,.T.);
#854=EDGE_LOOP('',(#844,#845,#852,#853));
#855=FACE_OUTER_BOUND('',#854,.T.);
#856=ADVANCED_FACE('',(#855),#837,.T.);
#857=CARTESIAN_POINT('',(0.0,7.105427E-015,4.400000000000002));
#858=DIRECTION('',(0.0,8.881784E-016,1.0));
#859=DIRECTION('',(1.0,0.0,0.0));
#860=AXIS2_PLACEMENT_3D('',#857,#858,#859);
#861=CYLINDRICAL_SURFACE('',#860,2.500000000000001);
#862=CARTESIAN_POINT('',(2.500000000000001,1.421085E-014,10.400000000000002));
#863=VERTEX_POINT('',#862);
#864=CARTESIAN_POINT('',(2.500000000000001,0.0,-1.599999999999998));
#865=VERTEX_POINT('',#864);
#866=CARTESIAN_POINT('',(2.500000000000001,1.243450E-014,10.400000000000002));
#867=DIRECTION('',(0.0,0.0,-1.0));
#868=VECTOR('',#867,12.0);
#869=LINE('',#866,#868);
#870=EDGE_CURVE('',#863,#865,#869,.T.);
#871=ORIENTED_EDGE('',*,*,#870,.F.);
#872=CARTESIAN_POINT('',(-2.500000000000001,1.212834E-014,10.400000000000002));
#873=VERTEX_POINT('',#872);
#874=CARTESIAN_POINT('',(0.0,1.421085E-014,10.400000000000002));
#875=DIRECTION('',(0.0,0.0,1.0));
#876=DIRECTION('',(1.0,0.0,0.0));
#877=AXIS2_PLACEMENT_3D('',#874,#875,#876);
#878=CIRCLE('',#877,2.500000000000001);
#879=EDGE_CURVE('',#873,#863,#878,.T.);
#880=ORIENTED_EDGE('',*,*,#879,.F.);
#881=CARTESIAN_POINT('',(-2.500000000000001,1.470195E-015,-1.600000000000001));
#882=VERTEX_POINT('',#881);
#883=CARTESIAN_POINT('',(-2.500000000000001,1.212834E-014,10.400000000000002));
#884=DIRECTION('',(0.0,0.0,-1.0));
#885=VECTOR('',#884,12.000000000000004);
#886=LINE('',#883,#885);
#887=EDGE_CURVE('',#873,#882,#886,.T.);
#888=ORIENTED_EDGE('',*,*,#887,.T.);
#889=CARTESIAN_POINT('',(0.0,0.0,-1.600000000000001));
#890=DIRECTION('',(0.0,0.0,-1.0));
#891=DIRECTION('',(1.0,0.0,0.0));
#892=AXIS2_PLACEMENT_3D('',#889,#890,#891);
#893=CIRCLE('',#892,2.500000000000001);
#894=EDGE_CURVE('',#865,#882,#893,.T.);
#895=ORIENTED_EDGE('',*,*,#894,.F.);
#896=EDGE_LOOP('',(#871,#880,#888,#895));
#897=FACE_OUTER_BOUND('',#896,.T.);
#898=ADVANCED_FACE('',(#897),#861,.T.);
#899=CARTESIAN_POINT('',(0.0,7.105427E-015,4.400000000000002));
#900=DIRECTION('',(0.0,8.881784E-016,1.0));
#901=DIRECTION('',(1.0,0.0,0.0));
#902=AXIS2_PLACEMENT_3D('',#899,#900,#901);
#903=CYLINDRICAL_SURFACE('',#902,2.500000000000001);
#904=ORIENTED_EDGE('',*,*,#870,.T.);
#905=CARTESIAN_POINT('',(0.0,0.0,-1.600000000000001));
#906=DIRECTION('',(0.0,0.0,-1.0));
#907=DIRECTION('',(1.0,0.0,0.0));
#908=AXIS2_PLACEMENT_3D('',#905,#906,#907);
#909=CIRCLE('',#908,2.500000000000001);
#910=EDGE_CURVE('',#882,#865,#909,.T.);
#911=ORIENTED_EDGE('',*,*,#910,.F.);
#912=ORIENTED_EDGE('',*,*,#887,.F.);
#913=CARTESIAN_POINT('',(0.0,1.421085E-014,10.400000000000002));
#914=DIRECTION('',(0.0,0.0,1.0));
#915=DIRECTION('',(1.0,0.0,0.0));
#916=AXIS2_PLACEMENT_3D('',#913,#914,#915);
#917=CIRCLE('',#916,2.500000000000001);
#918=EDGE_CURVE('',#863,#873,#917,.T.);
#919=ORIENTED_EDGE('',*,*,#918,.F.);
#920=EDGE_LOOP('',(#904,#911,#912,#919));
#921=FACE_OUTER_BOUND('',#920,.T.);
#922=ADVANCED_FACE('',(#921),#903,.T.);
#923=CARTESIAN_POINT('',(0.0,1.421085E-014,10.400000000000002));
#924=DIRECTION('',(0.0,0.0,1.0));
#925=DIRECTION('',(1.0,0.0,0.0));
#926=AXIS2_PLACEMENT_3D('',#923,#924,#925);
#927=PLANE('',#926);
#928=ORIENTED_EDGE('',*,*,#918,.T.);
#929=ORIENTED_EDGE('',*,*,#879,.T.);
#930=EDGE_LOOP('',(#928,#929));
#931=FACE_OUTER_BOUND('',#930,.T.);
#932=ADVANCED_FACE('',(#931),#927,.T.);
#933=CARTESIAN_POINT('',(0.0,0.0,-3.426785454053366));
#934=DIRECTION('',(-6.123234E-017,-3.828569E-016,-1.0));
#935=DIRECTION('',(-1.0,0.0,0.0));
#936=AXIS2_PLACEMENT_3D('',#933,#934,#935);
#937=TOROIDAL_SURFACE('',#936,4.150000000000001,0.599999999999999);
#938=ORIENTED_EDGE('',*,*,#843,.T.);
#939=CARTESIAN_POINT('',(0.0,0.0,-3.426785454053367));
#940=DIRECTION('',(0.0,0.0,-1.0));
#941=DIRECTION('',(-1.0,0.0,0.0));
#942=AXIS2_PLACEMENT_3D('',#939,#940,#941);
#943=CIRCLE('',#942,4.749999999999998);
#944=EDGE_CURVE('',#797,#807,#943,.T.);
#945=ORIENTED_EDGE('',*,*,#944,.T.);
#946=ORIENTED_EDGE('',*,*,#851,.F.);
#947=CARTESIAN_POINT('',(-1.110223E-015,4.486486486486484,-3.923551842219856));
#948=VERTEX_POINT('',#947);
#949=CARTESIAN_POINT('',(-2.220446E-016,0.0,-3.923551842219855));
#950=DIRECTION('',(0.0,0.0,-1.0));
#951=DIRECTION('',(-1.0,0.0,0.0));
#952=AXIS2_PLACEMENT_3D('',#949,#950,#951);
#953=CIRCLE('',#952,4.486486486486489);
#954=EDGE_CURVE('',#948,#699,#953,.T.);
#955=ORIENTED_EDGE('',*,*,#954,.F.);
#956=CARTESIAN_POINT('',(-2.220446E-016,0.0,-3.923551842219855));
#957=DIRECTION('',(0.0,0.0,-1.0));
#958=DIRECTION('',(-1.0,0.0,0.0));
#959=AXIS2_PLACEMENT_3D('',#956,#957,#958);
#960=CIRCLE('',#959,4.486486486486489);
#961=EDGE_CURVE('',#710,#948,#960,.T.);
#962=ORIENTED_EDGE('',*,*,#961,.F.);
#963=EDGE_LOOP('',(#938,#945,#946,#955,#962));
#964=FACE_OUTER_BOUND('',#963,.T.);
#965=ADVANCED_FACE('',(#964),#937,.T.);
#966=CARTESIAN_POINT('',(0.0,0.0,-1.508660727297329));
#967=DIRECTION('',(-6.123234E-017,-3.828569E-016,-1.0));
#968=DIRECTION('',(-1.0,0.0,0.0));
#969=AXIS2_PLACEMENT_3D('',#966,#967,#968);
#970=CYLINDRICAL_SURFACE('',#969,4.749999999999998);
#971=ORIENTED_EDGE('',*,*,#804,.T.);
#972=CARTESIAN_POINT('',(0.0,0.0,-1.599999999999998));
#973=DIRECTION('',(0.0,0.0,-1.0));
#974=DIRECTION('',(-1.0,0.0,0.0));
#975=AXIS2_PLACEMENT_3D('',#972,#973,#974);
#976=CIRCLE('',#975,4.75);
#977=EDGE_CURVE('',#799,#816,#976,.T.);
#978=ORIENTED_EDGE('',*,*,#977,.T.);
#979=ORIENTED_EDGE('',*,*,#821,.F.);
#980=ORIENTED_EDGE('',*,*,#944,.F.);
#981=EDGE_LOOP('',(#971,#978,#979,#980));
#982=FACE_OUTER_BOUND('',#981,.T.);
#983=ADVANCED_FACE('',(#982),#970,.T.);
#984=CARTESIAN_POINT('',(2.220446E-016,0.0,2.700000000000003));
#985=DIRECTION('',(0.0,0.0,1.0));
#986=DIRECTION('',(1.0,0.0,0.0));
#987=AXIS2_PLACEMENT_3D('',#984,#985,#986);
#988=SPHERICAL_SURFACE('',#987,8.0);
#989=ORIENTED_EDGE('',*,*,#707,.T.);
#990=CARTESIAN_POINT('',(2.207529183013183,0.472446498069687,-4.97486867722222));
#991=VERTEX_POINT('',#990);
#992=CARTESIAN_POINT('',(-2.259470186450066,-1.421085E-014,1.014971386376226));
#993=DIRECTION('',(0.801627475093059,4.068780E-016,0.597823879730417));
#994=DIRECTION('',(0.597823879730417,-1.741650E-016,-0.801627475093059));
#995=AXIS2_PLACEMENT_3D('',#992,#993,#994);
#996=CIRCLE('',#995,7.487020305022048);
#997=EDGE_CURVE('',#701,#991,#996,.T.);
#998=ORIENTED_EDGE('',*,*,#997,.T.);
#999=CARTESIAN_POINT('',(0.497374351610473,0.497374351610475,-5.269017349003581));
#1000=VERTEX_POINT('',#999);
#1001=CARTESIAN_POINT('',(8.881784E-016,-0.176697090701651,2.685025670279524));
#1002=DIRECTION('',(2.160809E-016,-0.996428304896932,-0.08444307668618));
#1003=DIRECTION('',(7.976377E-017,-0.08444307668618,0.996428304896931));
#1004=AXIS2_PLACEMENT_3D('',#1001,#1002,#1003);
#1005=CIRCLE('',#1004,7.998034377744758);
#1006=EDGE_CURVE('',#1000,#991,#1005,.T.);
#1007=ORIENTED_EDGE('',*,*,#1006,.F.);
#1008=CARTESIAN_POINT('',(0.472446498069679,2.207529183013179,-4.97486867722222));
#1009=VERTEX_POINT('',#1008);
#1010=CARTESIAN_POINT('',(-0.176697090701654,0.0,2.685025670279524));
#1011=DIRECTION('',(-0.996428304896931,-2.535811E-016,-0.084443076686181));
#1012=DIRECTION('',(-0.084443076686181,3.627393E-016,0.996428304896931));
#1013=AXIS2_PLACEMENT_3D('',#1010,#1011,#1012);
#1014=CIRCLE('',#1013,7.998034377744758);
#1015=EDGE_CURVE('',#1009,#1000,#1014,.T.);
#1016=ORIENTED_EDGE('',*,*,#1015,.F.);
#1017=CARTESIAN_POINT('',(-0.47244649806968,2.207529183013179,-4.97486867722222));
#1018=VERTEX_POINT('',#1017);
#1019=CARTESIAN_POINT('',(6.661338E-016,-2.259470186450066,1.014971386376228));
#1020=DIRECTION('',(-1.413909E-016,0.801627475093059,0.597823879730417));
#1021=DIRECTION('',(-1.818291E-016,0.597823879730416,-0.801627475093059));
#1022=AXIS2_PLACEMENT_3D('',#1019,#1020,#1021);
#1023=CIRCLE('',#1022,7.487020305022051);
#1024=EDGE_CURVE('',#1009,#1018,#1023,.T.);
#1025=ORIENTED_EDGE('',*,*,#1024,.T.);
#1026=CARTESIAN_POINT('',(-0.497374351610473,0.497374351610475,-5.269017349003581));
#1027=VERTEX_POINT('',#1026);
#1028=CARTESIAN_POINT('',(0.176697090701653,0.0,2.685025670279524));
#1029=DIRECTION('',(0.996428304896932,1.889219E-016,-0.084443076686181));
#1030=DIRECTION('',(-0.084443076686181,-4.002396E-016,-0.996428304896931));
#1031=AXIS2_PLACEMENT_3D('',#1028,#1029,#1030);
#1032=CIRCLE('',#1031,7.998034377744759);
#1033=EDGE_CURVE('',#1027,#1018,#1032,.T.);
#1034=ORIENTED_EDGE('',*,*,#1033,.F.);
#1035=CARTESIAN_POINT('',(-2.207529183013188,0.472446498069672,-4.97486867722222));
#1036=VERTEX_POINT('',#1035);
#1037=CARTESIAN_POINT('',(8.881784E-016,-0.176697090701651,2.685025670279524));
#1038=DIRECTION('',(2.160809E-016,-0.996428304896932,-0.08444307668618));
#1039=DIRECTION('',(7.976377E-017,-0.08444307668618,0.996428304896931));
#1040=AXIS2_PLACEMENT_3D('',#1037,#1038,#1039);
#1041=CIRCLE('',#1040,7.998034377744758);
#1042=EDGE_CURVE('',#1036,#1027,#1041,.T.);
#1043=ORIENTED_EDGE('',*,*,#1042,.F.);
#1044=CARTESIAN_POINT('',(2.259470186450066,7.105427E-015,1.014971386376226));
#1045=DIRECTION('',(-0.801627475093059,5.088392E-017,0.597823879730417));
#1046=DIRECTION('',(0.597823879730417,4.396522E-016,0.801627475093059));
#1047=AXIS2_PLACEMENT_3D('',#1044,#1045,#1046);
#1048=CIRCLE('',#1047,7.487020305022048);
#1049=EDGE_CURVE('',#1036,#719,#1048,.T.);
#1050=ORIENTED_EDGE('',*,*,#1049,.T.);
#1051=ORIENTED_EDGE('',*,*,#725,.F.);
#1052=ORIENTED_EDGE('',*,*,#961,.T.);
#1053=ORIENTED_EDGE('',*,*,#954,.T.);
#1054=EDGE_LOOP('',(#989,#998,#1007,#1016,#1025,#1034,#1043,#1050,#1051,#1052,#1053));
#1055=FACE_OUTER_BOUND('',#1054,.T.);
#1056=ADVANCED_FACE('',(#1055),#988,.T.);
#1057=CARTESIAN_POINT('',(0.509743069190997,0.152123540849338,-5.414968216453762));
#1058=DIRECTION('',(-0.996428304896931,-2.535811E-016,-0.084443076686181));
#1059=DIRECTION('',(-0.084443076686181,3.627393E-016,0.996428304896931));
#1060=AXIS2_PLACEMENT_3D('',#1057,#1058,#1059);
#1061=PLANE('',#1060);
#1062=ORIENTED_EDGE('',*,*,#1015,.T.);
#1063=CARTESIAN_POINT('',(0.249999999999999,0.25,-2.349999999999997));
#1064=VERTEX_POINT('',#1063);
#1065=CARTESIAN_POINT('',(0.497374351610473,0.497374351610475,-5.269017349003581));
#1066=DIRECTION('',(-0.084143610969955,-0.084143610969955,0.992894609445471));
#1067=VECTOR('',#1066,2.939906533115181);
#1068=LINE('',#1065,#1067);
#1069=EDGE_CURVE('',#1000,#1064,#1068,.T.);
#1070=ORIENTED_EDGE('',*,*,#1069,.T.);
#1071=CARTESIAN_POINT('',(0.472446498069679,2.207529183013179,-4.974868677222221));
#1072=DIRECTION('',(-0.067778309965116,-0.596449127693018,0.799784057588366));
#1073=VECTOR('',#1072,3.281971742644057);
#1074=LINE('',#1071,#1073);
#1075=EDGE_CURVE('',#1009,#1064,#1074,.T.);
#1076=ORIENTED_EDGE('',*,*,#1075,.F.);
#1077=EDGE_LOOP('',(#1062,#1070,#1076));
#1078=FACE_OUTER_BOUND('',#1077,.T.);
#1079=ADVANCED_FACE('',(#1078),#1061,.T.);
#1080=CARTESIAN_POINT('',(0.509743069190997,-2.305405642163848,-5.414968216453761));
#1081=DIRECTION('',(-0.996428304896931,-2.535811E-016,-0.084443076686181));
#1082=DIRECTION('',(-0.084443076686181,3.627393E-016,0.996428304896931));
#1083=AXIS2_PLACEMENT_3D('',#1080,#1081,#1082);
#1084=PLANE('',#1083);
#1085=CARTESIAN_POINT('',(0.25,-0.25,-2.349999999999997));
#1086=VERTEX_POINT('',#1085);
#1087=CARTESIAN_POINT('',(0.472446498069681,-2.207529183013186,-4.974868677222221));
#1088=DIRECTION('',(-0.067778309965116,0.596449127693019,0.799784057588366));
#1089=VECTOR('',#1088,3.28197174264406);
#1090=LINE('',#1087,#1089);
#1091=EDGE_CURVE('',#755,#1086,#1090,.T.);
#1092=ORIENTED_EDGE('',*,*,#1091,.T.);
#1093=CARTESIAN_POINT('',(0.25,-0.25,-2.349999999999997));
#1094=DIRECTION('',(0.084143610969955,-0.084143610969955,-0.992894609445471));
#1095=VECTOR('',#1094,2.939906533115181);
#1096=LINE('',#1093,#1095);
#1097=EDGE_CURVE('',#1086,#764,#1096,.T.);
#1098=ORIENTED_EDGE('',*,*,#1097,.T.);
#1099=ORIENTED_EDGE('',*,*,#770,.T.);
#1100=EDGE_LOOP('',(#1092,#1098,#1099));
#1101=FACE_OUTER_BOUND('',#1100,.T.);
#1102=ADVANCED_FACE('',(#1101),#1084,.T.);
#1103=CARTESIAN_POINT('',(-0.221590909090909,0.0,-2.014772727272723));
#1104=DIRECTION('',(0.996428304896931,2.831333E-016,-0.08444307668618));
#1105=DIRECTION('',(-0.08444307668618,-4.002396E-016,-0.996428304896931));
#1106=AXIS2_PLACEMENT_3D('',#1103,#1104,#1105);
#1107=PLANE('',#1106);
#1108=CARTESIAN_POINT('',(-0.25,0.25,-2.349999999999997));
#1109=VERTEX_POINT('',#1108);
#1110=CARTESIAN_POINT('',(-0.47244649806968,2.207529183013179,-4.97486867722222));
#1111=DIRECTION('',(0.067778309965116,-0.596449127693018,0.799784057588366));
#1112=VECTOR('',#1111,3.281971742644057);
#1113=LINE('',#1110,#1112);
#1114=EDGE_CURVE('',#1018,#1109,#1113,.T.);
#1115=ORIENTED_EDGE('',*,*,#1114,.T.);
#1116=CARTESIAN_POINT('',(-0.25,0.25,-2.349999999999997));
#1117=DIRECTION('',(-0.084143610969955,0.084143610969954,-0.992894609445471));
#1118=VECTOR('',#1117,2.939906533115181);
#1119=LINE('',#1116,#1118);
#1120=EDGE_CURVE('',#1109,#1027,#1119,.T.);
#1121=ORIENTED_EDGE('',*,*,#1120,.T.);
#1122=ORIENTED_EDGE('',*,*,#1033,.T.);
#1123=EDGE_LOOP('',(#1115,#1121,#1122));
#1124=FACE_OUTER_BOUND('',#1123,.T.);
#1125=ADVANCED_FACE('',(#1124),#1107,.T.);
#1126=CARTESIAN_POINT('',(-0.237631282419476,-2.305405642163848,-2.204049132549816));
#1127=DIRECTION('',(0.996428304896931,2.831333E-016,-0.08444307668618));
#1128=DIRECTION('',(-0.08444307668618,-4.002396E-016,-0.996428304896931));
#1129=AXIS2_PLACEMENT_3D('',#1126,#1127,#1128);
#1130=PLANE('',#1129);
#1131=ORIENTED_EDGE('',*,*,#752,.T.);
#1132=CARTESIAN_POINT('',(-0.25,-0.25,-2.349999999999997));
#1133=VERTEX_POINT('',#1132);
#1134=CARTESIAN_POINT('',(-0.497374351610473,-0.497374351610475,-5.26901734900358));
#1135=DIRECTION('',(0.084143610969955,0.084143610969956,0.992894609445471));
#1136=VECTOR('',#1135,2.939906533115179);
#1137=LINE('',#1134,#1136);
#1138=EDGE_CURVE('',#737,#1133,#1137,.T.);
#1139=ORIENTED_EDGE('',*,*,#1138,.T.);
#1140=CARTESIAN_POINT('',(-0.472446498069679,-2.207529183013186,-4.974868677222221));
#1141=DIRECTION('',(0.067778309965115,0.596449127693019,0.799784057588366));
#1142=VECTOR('',#1141,3.281971742644059);
#1143=LINE('',#1140,#1142);
#1144=EDGE_CURVE('',#746,#1133,#1143,.T.);
#1145=ORIENTED_EDGE('',*,*,#1144,.F.);
#1146=EDGE_LOOP('',(#1131,#1139,#1145));
#1147=FACE_OUTER_BOUND('',#1146,.T.);
#1148=ADVANCED_FACE('',(#1147),#1130,.T.);
#1149=CARTESIAN_POINT('',(5.225000000000001,-5.224999999999994,-1.599999999999997));
#1150=DIRECTION('',(0.0,0.0,-1.0));
#1151=DIRECTION('',(-1.0,0.0,0.0));
#1152=AXIS2_PLACEMENT_3D('',#1149,#1150,#1151);
#1153=PLANE('',#1152);
#1154=ORIENTED_EDGE('',*,*,#977,.F.);
#1155=ORIENTED_EDGE('',*,*,#828,.F.);
#1156=EDGE_LOOP('',(#1154,#1155));
#1157=FACE_OUTER_BOUND('',#1156,.T.);
#1158=ORIENTED_EDGE('',*,*,#894,.T.);
#1159=ORIENTED_EDGE('',*,*,#910,.T.);
#1160=EDGE_LOOP('',(#1158,#1159));
#1161=FACE_BOUND('',#1160,.T.);
#1162=ADVANCED_FACE('',(#1157,#1161),#1153,.F.);
#1163=CARTESIAN_POINT('',(0.519691147876651,0.151677533004069,-2.218158510164543));
#1164=DIRECTION('',(-1.413909E-016,0.801627475093059,0.597823879730416));
#1165=DIRECTION('',(1.0,0.0,0.0));
#1166=AXIS2_PLACEMENT_3D('',#1163,#1164,#1165);
#1167=PLANE('',#1166);
#1168=ORIENTED_EDGE('',*,*,#1075,.T.);
#1169=CARTESIAN_POINT('',(-0.25,0.25,-2.349999999999997));
#1170=DIRECTION('',(1.0,0.0,0.0));
#1171=VECTOR('',#1170,0.499999999999999);
#1172=LINE('',#1169,#1171);
#1173=EDGE_CURVE('',#1109,#1064,#1172,.T.);
#1174=ORIENTED_EDGE('',*,*,#1173,.F.);
#1175=ORIENTED_EDGE('',*,*,#1114,.F.);
#1176=ORIENTED_EDGE('',*,*,#1024,.F.);
#1177=EDGE_LOOP('',(#1168,#1174,#1175,#1176));
#1178=FACE_OUTER_BOUND('',#1177,.T.);
#1179=ADVANCED_FACE('',(#1178),#1167,.F.);
#1180=CARTESIAN_POINT('',(0.519691147876648,-2.314771806914557,-5.118671286544513));
#1181=DIRECTION('',(3.884285E-016,-0.801627475093058,0.597823879730417));
#1182=DIRECTION('',(1.0,0.0,0.0));
#1183=AXIS2_PLACEMENT_3D('',#1180,#1181,#1182);
#1184=PLANE('',#1183);
#1185=ORIENTED_EDGE('',*,*,#1144,.T.);
#1186=CARTESIAN_POINT('',(0.25,-0.25,-2.349999999999997));
#1187=DIRECTION('',(-1.0,0.0,0.0));
#1188=VECTOR('',#1187,0.5);
#1189=LINE('',#1186,#1188);
#1190=EDGE_CURVE('',#1086,#1133,#1189,.T.);
#1191=ORIENTED_EDGE('',*,*,#1190,.F.);
#1192=ORIENTED_EDGE('',*,*,#1091,.F.);
#1193=ORIENTED_EDGE('',*,*,#761,.F.);
#1194=EDGE_LOOP('',(#1185,#1191,#1192,#1193));
#1195=FACE_OUTER_BOUND('',#1194,.T.);
#1196=ADVANCED_FACE('',(#1195),#1184,.F.);
#1197=CARTESIAN_POINT('',(0.275,-0.274999999999999,-2.349999999999997));
#1198=DIRECTION('',(0.0,0.0,-1.0));
#1199=DIRECTION('',(-1.0,0.0,0.0));
#1200=AXIS2_PLACEMENT_3D('',#1197,#1198,#1199);
#1201=PLANE('',#1200);
#1202=CARTESIAN_POINT('',(0.25,-0.25,-2.349999999999997));
#1203=DIRECTION('',(0.0,1.0,0.0));
#1204=VECTOR('',#1203,0.500000000000001);
#1205=LINE('',#1202,#1204);
#1206=EDGE_CURVE('',#1086,#1064,#1205,.T.);
#1207=ORIENTED_EDGE('',*,*,#1206,.F.);
#1208=ORIENTED_EDGE('',*,*,#1190,.T.);
#1209=CARTESIAN_POINT('',(-0.25,0.25,-2.349999999999997));
#1210=DIRECTION('',(0.0,-1.0,0.0));
#1211=VECTOR('',#1210,0.500000000000001);
#1212=LINE('',#1209,#1211);
#1213=EDGE_CURVE('',#1109,#1133,#1212,.T.);
#1214=ORIENTED_EDGE('',*,*,#1213,.F.);
#1215=ORIENTED_EDGE('',*,*,#1173,.T.);
#1216=EDGE_LOOP('',(#1207,#1208,#1214,#1215));
#1217=FACE_OUTER_BOUND('',#1216,.T.);
#1218=ADVANCED_FACE('',(#1217),#1201,.T.);
#1219=CARTESIAN_POINT('',(2.314656137297547,0.519691147876664,-5.118516184103527));
#1220=DIRECTION('',(0.801627475093059,3.379572E-015,0.597823879730417));
#1221=DIRECTION('',(0.597823879730417,-1.741650E-016,-0.801627475093059));
#1222=AXIS2_PLACEMENT_3D('',#1219,#1220,#1221);
#1223=PLANE('',#1222);
#1224=CARTESIAN_POINT('',(2.207529183013187,-0.472446498069672,-4.974868677222221));
#1225=DIRECTION('',(-0.596449127693019,0.067778309965114,0.799784057588366));
#1226=VECTOR('',#1225,3.28197174264406);
#1227=LINE('',#1224,#1226);
#1228=EDGE_CURVE('',#773,#1086,#1227,.T.);
#1229=ORIENTED_EDGE('',*,*,#1228,.T.);
#1230=ORIENTED_EDGE('',*,*,#1206,.T.);
#1231=CARTESIAN_POINT('',(2.207529183013183,0.472446498069687,-4.97486867722222));
#1232=DIRECTION('',(-0.596449127693018,-0.067778309965118,0.799784057588366));
#1233=VECTOR('',#1232,3.281971742644058);
#1234=LINE('',#1231,#1233);
#1235=EDGE_CURVE('',#991,#1064,#1234,.T.);
#1236=ORIENTED_EDGE('',*,*,#1235,.F.);
#1237=ORIENTED_EDGE('',*,*,#997,.F.);
#1238=ORIENTED_EDGE('',*,*,#786,.F.);
#1239=EDGE_LOOP('',(#1229,#1230,#1236,#1237,#1238));
#1240=FACE_OUTER_BOUND('',#1239,.T.);
#1241=ADVANCED_FACE('',(#1240),#1223,.F.);
#1242=CARTESIAN_POINT('',(2.305405642163849,-0.237631282419471,-2.204049132549815));
#1243=DIRECTION('',(-3.799646E-015,0.996428304896931,-0.084443076686181));
#1244=DIRECTION('',(-1.0,0.0,0.0));
#1245=AXIS2_PLACEMENT_3D('',#1242,#1243,#1244);
#1246=PLANE('',#1245);
#1247=ORIENTED_EDGE('',*,*,#779,.T.);
#1248=ORIENTED_EDGE('',*,*,#1097,.F.);
#1249=ORIENTED_EDGE('',*,*,#1228,.F.);
#1250=EDGE_LOOP('',(#1247,#1248,#1249));
#1251=FACE_OUTER_BOUND('',#1250,.T.);
#1252=ADVANCED_FACE('',(#1251),#1246,.T.);
#1253=CARTESIAN_POINT('',(2.305405642163841,0.509743069190996,-5.414968216453762));
#1254=DIRECTION('',(3.695094E-015,-0.996428304896931,-0.08444307668618));
#1255=DIRECTION('',(1.0,0.0,0.0));
#1256=AXIS2_PLACEMENT_3D('',#1253,#1254,#1255);
#1257=PLANE('',#1256);
#1258=ORIENTED_EDGE('',*,*,#1006,.T.);
#1259=ORIENTED_EDGE('',*,*,#1235,.T.);
#1260=ORIENTED_EDGE('',*,*,#1069,.F.);
#1261=EDGE_LOOP('',(#1258,#1259,#1260));
#1262=FACE_OUTER_BOUND('',#1261,.T.);
#1263=ADVANCED_FACE('',(#1262),#1257,.T.);
#1264=CARTESIAN_POINT('',(-0.151683041081068,0.519691147876642,-2.218165895995066));
#1265=DIRECTION('',(-0.801627475093059,-2.747985E-015,0.597823879730417));
#1266=DIRECTION('',(0.597823879730417,4.396522E-016,0.801627475093059));
#1267=AXIS2_PLACEMENT_3D('',#1264,#1265,#1266);
#1268=PLANE('',#1267);
#1269=CARTESIAN_POINT('',(-2.207529183013187,0.472446498069672,-4.974868677222221));
#1270=DIRECTION('',(0.596449127693019,-0.067778309965113,0.799784057588366));
#1271=VECTOR('',#1270,3.28197174264406);
#1272=LINE('',#1269,#1271);
#1273=EDGE_CURVE('',#1036,#1109,#1272,.T.);
#1274=ORIENTED_EDGE('',*,*,#1273,.T.);
#1275=ORIENTED_EDGE('',*,*,#1213,.T.);
#1276=CARTESIAN_POINT('',(-2.207529183013183,-0.472446498069687,-4.97486867722222));
#1277=DIRECTION('',(0.596449127693018,0.067778309965118,0.799784057588366));
#1278=VECTOR('',#1277,3.28197174264406);
#1279=LINE('',#1276,#1278);
#1280=EDGE_CURVE('',#728,#1133,#1279,.T.);
#1281=ORIENTED_EDGE('',*,*,#1280,.F.);
#1282=ORIENTED_EDGE('',*,*,#734,.F.);
#1283=ORIENTED_EDGE('',*,*,#1049,.F.);
#1284=EDGE_LOOP('',(#1274,#1275,#1281,#1282,#1283));
#1285=FACE_OUTER_BOUND('',#1284,.T.);
#1286=ADVANCED_FACE('',(#1285),#1268,.F.);
#1287=CARTESIAN_POINT('',(-0.152123540849342,0.509743069190996,-5.414968216453761));
#1288=DIRECTION('',(3.695094E-015,-0.996428304896931,-0.08444307668618));
#1289=DIRECTION('',(1.0,0.0,0.0));
#1290=AXIS2_PLACEMENT_3D('',#1287,#1288,#1289);
#1291=PLANE('',#1290);
#1292=ORIENTED_EDGE('',*,*,#1042,.T.);
#1293=ORIENTED_EDGE('',*,*,#1120,.F.);
#1294=ORIENTED_EDGE('',*,*,#1273,.F.);
#1295=EDGE_LOOP('',(#1292,#1293,#1294));
#1296=FACE_OUTER_BOUND('',#1295,.T.);
#1297=ADVANCED_FACE('',(#1296),#1291,.T.);
#1298=CARTESIAN_POINT('',(0.0,-0.221590909090907,-2.014772727272723));
#1299=DIRECTION('',(-3.799646E-015,0.996428304896931,-0.084443076686181));
#1300=DIRECTION('',(-1.0,0.0,0.0));
#1301=AXIS2_PLACEMENT_3D('',#1298,#1299,#1300);
#1302=PLANE('',#1301);
#1303=ORIENTED_EDGE('',*,*,#743,.T.);
#1304=ORIENTED_EDGE('',*,*,#1280,.T.);
#1305=ORIENTED_EDGE('',*,*,#1138,.F.);
#1306=EDGE_LOOP('',(#1303,#1304,#1305));
#1307=FACE_OUTER_BOUND('',#1306,.T.);
#1308=ADVANCED_FACE('',(#1307),#1302,.T.);
#1309=CLOSED_SHELL('',(#790,#832,#856,#898,#922,#932,#965,#983,#1056,#1079,#1102,#1125,#1148,#1162,#1179,#1196,#1218,#1241,#1252,#1263,#1286,#1297,#1308));
#1310=MANIFOLD_SOLID_BREP('23D8',#1309);
#1311=STYLED_ITEM('NONE',(#689),#1310);
#1312=CARTESIAN_POINT('',(22.999999999999986,7.105427E-015,2.700000000000003));
#1313=DIRECTION('',(0.0,0.0,1.0));
#1314=DIRECTION('',(1.0,0.0,0.0));
#1315=AXIS2_PLACEMENT_3D('',#1312,#1313,#1314);
#1316=SPHERICAL_SURFACE('',#1315,8.0);
#1317=CARTESIAN_POINT('',(27.486486486486474,7.362001E-015,-3.923551842219855));
#1318=VERTEX_POINT('',#1317);
#1319=CARTESIAN_POINT('',(25.216449339918608,7.105427E-015,-4.98682979670906));
#1320=VERTEX_POINT('',#1319);
#1321=CARTESIAN_POINT('',(22.999999999999986,7.105427E-015,2.700000000000003));
#1322=DIRECTION('',(0.0,1.0,0.0));
#1323=DIRECTION('',(1.0,0.0,0.0));
#1324=AXIS2_PLACEMENT_3D('',#1321,#1322,#1323);
#1325=CIRCLE('',#1324,8.0);
#1326=EDGE_CURVE('',#1318,#1320,#1325,.T.);
#1327=ORIENTED_EDGE('',*,*,#1326,.F.);
#1328=CARTESIAN_POINT('',(18.513513513513498,5.919037E-015,-3.923551842219854));
#1329=VERTEX_POINT('',#1328);
#1330=CARTESIAN_POINT('',(22.999999999999986,7.105427E-015,-3.923551842219855));
#1331=DIRECTION('',(0.0,0.0,-1.0));
#1332=DIRECTION('',(-1.0,0.0,0.0));
#1333=AXIS2_PLACEMENT_3D('',#1330,#1331,#1332);
#1334=CIRCLE('',#1333,4.486486486486489);
#1335=EDGE_CURVE('',#1318,#1329,#1334,.T.);
#1336=ORIENTED_EDGE('',*,*,#1335,.T.);
#1337=CARTESIAN_POINT('',(20.783550660081364,6.833991E-015,-4.98682979670906));
#1338=VERTEX_POINT('',#1337);
#1339=CARTESIAN_POINT('',(22.999999999999986,7.105427E-015,2.700000000000003));
#1340=DIRECTION('',(0.0,-1.0,0.0));
#1341=DIRECTION('',(-1.0,0.0,0.0));
#1342=AXIS2_PLACEMENT_3D('',#1339,#1340,#1341);
#1343=CIRCLE('',#1342,8.0);
#1344=EDGE_CURVE('',#1329,#1338,#1343,.T.);
#1345=ORIENTED_EDGE('',*,*,#1344,.T.);
#1346=CARTESIAN_POINT('',(20.7924708169868,-0.472446498069679,-4.97486867722222));
#1347=VERTEX_POINT('',#1346);
#1348=CARTESIAN_POINT('',(25.259470186450052,1.421085E-014,1.014971386376226));
#1349=DIRECTION('',(-0.801627475093059,5.088392E-017,0.597823879730417));
#1350=DIRECTION('',(0.597823879730417,4.396522E-016,0.801627475093059));
#1351=AXIS2_PLACEMENT_3D('',#1348,#1349,#1350);
#1352=CIRCLE('',#1351,7.487020305022048);
#1353=EDGE_CURVE('',#1338,#1347,#1352,.T.);
#1354=ORIENTED_EDGE('',*,*,#1353,.T.);
#1355=CARTESIAN_POINT('',(22.502625648389511,-0.497374351610468,-5.26901734900358));
#1356=VERTEX_POINT('',#1355);
#1357=CARTESIAN_POINT('',(22.999999999999986,0.176697090701666,2.685025670279524));
#1358=DIRECTION('',(-2.264222E-016,0.996428304896932,-0.084443076686181));
#1359=DIRECTION('',(-4.226351E-017,-0.084443076686181,-0.996428304896931));
#1360=AXIS2_PLACEMENT_3D('',#1357,#1358,#1359);
#1361=CIRCLE('',#1360,7.998034377744759);
#1362=EDGE_CURVE('',#1356,#1347,#1361,.T.);
#1363=ORIENTED_EDGE('',*,*,#1362,.F.);
#1364=CARTESIAN_POINT('',(22.527553501930306,-2.207529183013179,-4.974868677222221));
#1365=VERTEX_POINT('',#1364);
#1366=CARTESIAN_POINT('',(23.176697090701637,7.105427E-015,2.685025670279524));
#1367=DIRECTION('',(0.996428304896932,1.889219E-016,-0.084443076686181));
#1368=DIRECTION('',(-0.084443076686181,-4.002396E-016,-0.996428304896931));
#1369=AXIS2_PLACEMENT_3D('',#1366,#1367,#1368);
#1370=CIRCLE('',#1369,7.998034377744759);
#1371=EDGE_CURVE('',#1365,#1356,#1370,.T.);
#1372=ORIENTED_EDGE('',*,*,#1371,.F.);
#1373=CARTESIAN_POINT('',(23.472446498069665,-2.207529183013179,-4.974868677222222));
#1374=VERTEX_POINT('',#1373);
#1375=CARTESIAN_POINT('',(22.999999999999986,2.259470186450066,1.014971386376224));
#1376=DIRECTION('',(2.146032E-016,-0.801627475093058,0.597823879730417));
#1377=DIRECTION('',(-8.365804E-017,0.597823879730417,0.801627475093058));
#1378=AXIS2_PLACEMENT_3D('',#1375,#1376,#1377);
#1379=CIRCLE('',#1378,7.487020305022047);
#1380=EDGE_CURVE('',#1365,#1374,#1379,.T.);
#1381=ORIENTED_EDGE('',*,*,#1380,.T.);
#1382=CARTESIAN_POINT('',(23.497374351610461,-0.497374351610461,-5.269017349003581));
#1383=VERTEX_POINT('',#1382);
#1384=CARTESIAN_POINT('',(22.823302909298331,7.105427E-015,2.685025670279524));
#1385=DIRECTION('',(-0.996428304896931,-2.535811E-016,-0.084443076686181));
#1386=DIRECTION('',(-0.084443076686181,3.627393E-016,0.996428304896931));
#1387=AXIS2_PLACEMENT_3D('',#1384,#1385,#1386);
#1388=CIRCLE('',#1387,7.998034377744758);
#1389=EDGE_CURVE('',#1383,#1374,#1388,.T.);
#1390=ORIENTED_EDGE('',*,*,#1389,.F.);
#1391=CARTESIAN_POINT('',(25.207529183013172,-0.472446498069665,-4.974868677222221));
#1392=VERTEX_POINT('',#1391);
#1393=CARTESIAN_POINT('',(22.999999999999986,0.176697090701666,2.685025670279524));
#1394=DIRECTION('',(-2.264222E-016,0.996428304896932,-0.084443076686181));
#1395=DIRECTION('',(-4.226351E-017,-0.084443076686181,-0.996428304896931));
#1396=AXIS2_PLACEMENT_3D('',#1393,#1394,#1395);
#1397=CIRCLE('',#1396,7.998034377744759);
#1398=EDGE_CURVE('',#1392,#1383,#1397,.T.);
#1399=ORIENTED_EDGE('',*,*,#1398,.F.);
#1400=CARTESIAN_POINT('',(20.740529813549919,-7.105427E-015,1.014971386376226));
#1401=DIRECTION('',(0.801627475093059,4.068780E-016,0.597823879730417));
#1402=DIRECTION('',(0.597823879730417,-1.741650E-016,-0.801627475093059));
#1403=AXIS2_PLACEMENT_3D('',#1400,#1401,#1402);
#1404=CIRCLE('',#1403,7.487020305022048);
#1405=EDGE_CURVE('',#1392,#1320,#1404,.T.);
#1406=ORIENTED_EDGE('',*,*,#1405,.T.);
#1407=EDGE_LOOP('',(#1327,#1336,#1345,#1354,#1363,#1372,#1381,#1390,#1399,#1406));
#1408=FACE_OUTER_BOUND('',#1407,.T.);
#1409=ADVANCED_FACE('',(#1408),#1316,.T.);
#1410=CARTESIAN_POINT('',(22.999999999999986,7.105427E-015,-1.508660727297329));
#1411=DIRECTION('',(-6.123234E-017,-3.828569E-016,-1.0));
#1412=DIRECTION('',(-1.0,0.0,0.0));
#1413=AXIS2_PLACEMENT_3D('',#1410,#1411,#1412);
#1414=CYLINDRICAL_SURFACE('',#1413,4.749999999999998);
#1415=CARTESIAN_POINT('',(18.249999999999986,7.105427E-015,-3.426785454053367));
#1416=VERTEX_POINT('',#1415);
#1417=CARTESIAN_POINT('',(18.249999999999986,7.105427E-015,-1.599999999999998));
#1418=VERTEX_POINT('',#1417);
#1419=CARTESIAN_POINT('',(18.249999999999986,5.316348E-015,-3.426785454053367));
#1420=DIRECTION('',(0.0,0.0,1.0));
#1421=VECTOR('',#1420,1.826785454053369);
#1422=LINE('',#1419,#1421);
#1423=EDGE_CURVE('',#1416,#1418,#1422,.T.);
#1424=ORIENTED_EDGE('',*,*,#1423,.F.);
#1425=CARTESIAN_POINT('',(27.749999999999986,7.578432E-015,-3.426785454053368));
#1426=VERTEX_POINT('',#1425);
#1427=CARTESIAN_POINT('',(22.999999999999986,7.105427E-015,-3.426785454053367));
#1428=DIRECTION('',(0.0,0.0,-1.0));
#1429=DIRECTION('',(-1.0,0.0,0.0));
#1430=AXIS2_PLACEMENT_3D('',#1427,#1428,#1429);
#1431=CIRCLE('',#1430,4.749999999999998);
#1432=EDGE_CURVE('',#1426,#1416,#1431,.T.);
#1433=ORIENTED_EDGE('',*,*,#1432,.F.);
#1434=CARTESIAN_POINT('',(27.749999999999986,7.543462E-015,-1.599999999999999));
#1435=VERTEX_POINT('',#1434);
#1436=CARTESIAN_POINT('',(27.749999999999986,6.844065E-015,-3.426785454053368));
#1437=DIRECTION('',(0.0,0.0,1.0));
#1438=VECTOR('',#1437,1.826785454053369);
#1439=LINE('',#1436,#1438);
#1440=EDGE_CURVE('',#1426,#1435,#1439,.T.);
#1441=ORIENTED_EDGE('',*,*,#1440,.T.);
#1442=CARTESIAN_POINT('',(22.999999999999986,7.105427E-015,-1.599999999999998));
#1443=DIRECTION('',(0.0,0.0,-1.0));
#1444=DIRECTION('',(-1.0,0.0,0.0));
#1445=AXIS2_PLACEMENT_3D('',#1442,#1443,#1444);
#1446=CIRCLE('',#1445,4.75);
#1447=EDGE_CURVE('',#1435,#1418,#1446,.T.);
#1448=ORIENTED_EDGE('',*,*,#1447,.T.);
#1449=EDGE_LOOP('',(#1424,#1433,#1441,#1448));
#1450=FACE_OUTER_BOUND('',#1449,.T.);
#1451=ADVANCED_FACE('',(#1450),#1414,.T.);
#1452=CARTESIAN_POINT('',(22.999999999999986,7.105427E-015,-3.426785454053366));
#1453=DIRECTION('',(-6.123234E-017,-3.828569E-016,-1.0));
#1454=DIRECTION('',(-1.0,0.0,0.0));
#1455=AXIS2_PLACEMENT_3D('',#1452,#1453,#1454);
#1456=TOROIDAL_SURFACE('',#1455,4.150000000000001,0.599999999999999);
#1457=CARTESIAN_POINT('',(18.849999999999984,6.183942E-015,-3.426785454053366));
#1458=DIRECTION('',(0.0,1.0,0.0));
#1459=DIRECTION('',(-1.0,0.0,0.0));
#1460=AXIS2_PLACEMENT_3D('',#1457,#1458,#1459);
#1461=CIRCLE('',#1460,0.599999999999999);
#1462=EDGE_CURVE('',#1329,#1416,#1461,.T.);
#1463=ORIENTED_EDGE('',*,*,#1462,.F.);
#1464=ORIENTED_EDGE('',*,*,#1335,.F.);
#1465=CARTESIAN_POINT('',(27.149999999999988,7.518684E-015,-3.426785454053367));
#1466=DIRECTION('',(0.0,-1.0,0.0));
#1467=DIRECTION('',(1.0,0.0,0.0));
#1468=AXIS2_PLACEMENT_3D('',#1465,#1466,#1467);
#1469=CIRCLE('',#1468,0.599999999999999);
#1470=EDGE_CURVE('',#1318,#1426,#1469,.T.);
#1471=ORIENTED_EDGE('',*,*,#1470,.T.);
#1472=ORIENTED_EDGE('',*,*,#1432,.T.);
#1473=EDGE_LOOP('',(#1463,#1464,#1471,#1472));
#1474=FACE_OUTER_BOUND('',#1473,.T.);
#1475=ADVANCED_FACE('',(#1474),#1456,.T.);
#1476=CARTESIAN_POINT('',(22.999999999999986,1.421085E-014,4.400000000000002));
#1477=DIRECTION('',(0.0,8.881784E-016,1.0));
#1478=DIRECTION('',(1.0,0.0,0.0));
#1479=AXIS2_PLACEMENT_3D('',#1476,#1477,#1478);
#1480=CYLINDRICAL_SURFACE('',#1479,2.500000000000001);
#1481=CARTESIAN_POINT('',(25.499999999999986,2.131628E-014,10.400000000000002));
#1482=VERTEX_POINT('',#1481);
#1483=CARTESIAN_POINT('',(25.499999999999986,7.105427E-015,-1.599999999999998));
#1484=VERTEX_POINT('',#1483);
#1485=CARTESIAN_POINT('',(25.499999999999986,1.953993E-014,10.400000000000002));
#1486=DIRECTION('',(0.0,0.0,-1.0));
#1487=VECTOR('',#1486,12.0);
#1488=LINE('',#1485,#1487);
#1489=EDGE_CURVE('',#1482,#1484,#1488,.T.);
#1490=ORIENTED_EDGE('',*,*,#1489,.F.);
#1491=CARTESIAN_POINT('',(20.499999999999986,1.923376E-014,10.400000000000002));
#1492=VERTEX_POINT('',#1491);
#1493=CARTESIAN_POINT('',(22.999999999999986,2.131628E-014,10.400000000000002));
#1494=DIRECTION('',(0.0,0.0,1.0));
#1495=DIRECTION('',(1.0,0.0,0.0));
#1496=AXIS2_PLACEMENT_3D('',#1493,#1494,#1495);
#1497=CIRCLE('',#1496,2.500000000000001);
#1498=EDGE_CURVE('',#1492,#1482,#1497,.T.);
#1499=ORIENTED_EDGE('',*,*,#1498,.F.);
#1500=CARTESIAN_POINT('',(20.499999999999986,8.575622E-015,-1.600000000000001));
#1501=VERTEX_POINT('',#1500);
#1502=CARTESIAN_POINT('',(20.499999999999986,1.923376E-014,10.400000000000002));
#1503=DIRECTION('',(0.0,0.0,-1.0));
#1504=VECTOR('',#1503,12.000000000000004);
#1505=LINE('',#1502,#1504);
#1506=EDGE_CURVE('',#1492,#1501,#1505,.T.);
#1507=ORIENTED_EDGE('',*,*,#1506,.T.);
#1508=CARTESIAN_POINT('',(22.999999999999986,7.105427E-015,-1.600000000000001));
#1509=DIRECTION('',(0.0,0.0,-1.0));
#1510=DIRECTION('',(1.0,0.0,0.0));
#1511=AXIS2_PLACEMENT_3D('',#1508,#1509,#1510);
#1512=CIRCLE('',#1511,2.500000000000001);
#1513=EDGE_CURVE('',#1484,#1501,#1512,.T.);
#1514=ORIENTED_EDGE('',*,*,#1513,.F.);
#1515=EDGE_LOOP('',(#1490,#1499,#1507,#1514));
#1516=FACE_OUTER_BOUND('',#1515,.T.);
#1517=ADVANCED_FACE('',(#1516),#1480,.T.);
#1518=CARTESIAN_POINT('',(22.999999999999986,1.421085E-014,4.400000000000002));
#1519=DIRECTION('',(0.0,8.881784E-016,1.0));
#1520=DIRECTION('',(1.0,0.0,0.0));
#1521=AXIS2_PLACEMENT_3D('',#1518,#1519,#1520);
#1522=CYLINDRICAL_SURFACE('',#1521,2.500000000000001);
#1523=ORIENTED_EDGE('',*,*,#1489,.T.);
#1524=CARTESIAN_POINT('',(22.999999999999986,7.105427E-015,-1.600000000000001));
#1525=DIRECTION('',(0.0,0.0,-1.0));
#1526=DIRECTION('',(1.0,0.0,0.0));
#1527=AXIS2_PLACEMENT_3D('',#1524,#1525,#1526);
#1528=CIRCLE('',#1527,2.500000000000001);
#1529=EDGE_CURVE('',#1501,#1484,#1528,.T.);
#1530=ORIENTED_EDGE('',*,*,#1529,.F.);
#1531=ORIENTED_EDGE('',*,*,#1506,.F.);
#1532=CARTESIAN_POINT('',(22.999999999999986,2.131628E-014,10.400000000000002));
#1533=DIRECTION('',(0.0,0.0,1.0));
#1534=DIRECTION('',(1.0,0.0,0.0));
#1535=AXIS2_PLACEMENT_3D('',#1532,#1533,#1534);
#1536=CIRCLE('',#1535,2.500000000000001);
#1537=EDGE_CURVE('',#1482,#1492,#1536,.T.);
#1538=ORIENTED_EDGE('',*,*,#1537,.F.);
#1539=EDGE_LOOP('',(#1523,#1530,#1531,#1538));
#1540=FACE_OUTER_BOUND('',#1539,.T.);
#1541=ADVANCED_FACE('',(#1540),#1522,.T.);
#1542=CARTESIAN_POINT('',(22.999999999999986,2.131628E-014,10.400000000000002));
#1543=DIRECTION('',(0.0,0.0,1.0));
#1544=DIRECTION('',(1.0,0.0,0.0));
#1545=AXIS2_PLACEMENT_3D('',#1542,#1543,#1544);
#1546=PLANE('',#1545);
#1547=ORIENTED_EDGE('',*,*,#1537,.T.);
#1548=ORIENTED_EDGE('',*,*,#1498,.T.);
#1549=EDGE_LOOP('',(#1547,#1548));
#1550=FACE_OUTER_BOUND('',#1549,.T.);
#1551=ADVANCED_FACE('',(#1550),#1546,.T.);
#1552=CARTESIAN_POINT('',(22.999999999999986,7.105427E-015,-3.426785454053366));
#1553=DIRECTION('',(-6.123234E-017,-3.828569E-016,-1.0));
#1554=DIRECTION('',(-1.0,0.0,0.0));
#1555=AXIS2_PLACEMENT_3D('',#1552,#1553,#1554);
#1556=TOROIDAL_SURFACE('',#1555,4.150000000000001,0.599999999999999);
#1557=ORIENTED_EDGE('',*,*,#1462,.T.);
#1558=CARTESIAN_POINT('',(22.999999999999986,7.105427E-015,-3.426785454053367));
#1559=DIRECTION('',(0.0,0.0,-1.0));
#1560=DIRECTION('',(-1.0,0.0,0.0));
#1561=AXIS2_PLACEMENT_3D('',#1558,#1559,#1560);
#1562=CIRCLE('',#1561,4.749999999999998);
#1563=EDGE_CURVE('',#1416,#1426,#1562,.T.);
#1564=ORIENTED_EDGE('',*,*,#1563,.T.);
#1565=ORIENTED_EDGE('',*,*,#1470,.F.);
#1566=CARTESIAN_POINT('',(22.999999999999986,4.486486486486491,-3.923551842219856));
#1567=VERTEX_POINT('',#1566);
#1568=CARTESIAN_POINT('',(22.999999999999986,7.105427E-015,-3.923551842219855));
#1569=DIRECTION('',(0.0,0.0,-1.0));
#1570=DIRECTION('',(-1.0,0.0,0.0));
#1571=AXIS2_PLACEMENT_3D('',#1568,#1569,#1570);
#1572=CIRCLE('',#1571,4.486486486486489);
#1573=EDGE_CURVE('',#1567,#1318,#1572,.T.);
#1574=ORIENTED_EDGE('',*,*,#1573,.F.);
#1575=CARTESIAN_POINT('',(22.999999999999986,7.105427E-015,-3.923551842219855));
#1576=DIRECTION('',(0.0,0.0,-1.0));
#1577=DIRECTION('',(-1.0,0.0,0.0));
#1578=AXIS2_PLACEMENT_3D('',#1575,#1576,#1577);
#1579=CIRCLE('',#1578,4.486486486486489);
#1580=EDGE_CURVE('',#1329,#1567,#1579,.T.);
#1581=ORIENTED_EDGE('',*,*,#1580,.F.);
#1582=EDGE_LOOP('',(#1557,#1564,#1565,#1574,#1581));
#1583=FACE_OUTER_BOUND('',#1582,.T.);
#1584=ADVANCED_FACE('',(#1583),#1556,.T.);
#1585=CARTESIAN_POINT('',(22.999999999999986,7.105427E-015,-1.508660727297329));
#1586=DIRECTION('',(-6.123234E-017,-3.828569E-016,-1.0));
#1587=DIRECTION('',(-1.0,0.0,0.0));
#1588=AXIS2_PLACEMENT_3D('',#1585,#1586,#1587);
#1589=CYLINDRICAL_SURFACE('',#1588,4.749999999999998);
#1590=ORIENTED_EDGE('',*,*,#1423,.T.);
#1591=CARTESIAN_POINT('',(22.999999999999986,7.105427E-015,-1.599999999999998));
#1592=DIRECTION('',(0.0,0.0,-1.0));
#1593=DIRECTION('',(-1.0,0.0,0.0));
#1594=AXIS2_PLACEMENT_3D('',#1591,#1592,#1593);
#1595=CIRCLE('',#1594,4.75);
#1596=EDGE_CURVE('',#1418,#1435,#1595,.T.);
#1597=ORIENTED_EDGE('',*,*,#1596,.T.);
#1598=ORIENTED_EDGE('',*,*,#1440,.F.);
#1599=ORIENTED_EDGE('',*,*,#1563,.F.);
#1600=EDGE_LOOP('',(#1590,#1597,#1598,#1599));
#1601=FACE_OUTER_BOUND('',#1600,.T.);
#1602=ADVANCED_FACE('',(#1601),#1589,.T.);
#1603=CARTESIAN_POINT('',(22.999999999999986,7.105427E-015,2.700000000000003));
#1604=DIRECTION('',(0.0,0.0,1.0));
#1605=DIRECTION('',(1.0,0.0,0.0));
#1606=AXIS2_PLACEMENT_3D('',#1603,#1604,#1605);
#1607=SPHERICAL_SURFACE('',#1606,8.0);
#1608=ORIENTED_EDGE('',*,*,#1326,.T.);
#1609=CARTESIAN_POINT('',(25.207529183013168,0.472446498069694,-4.97486867722222));
#1610=VERTEX_POINT('',#1609);
#1611=CARTESIAN_POINT('',(20.740529813549919,-7.105427E-015,1.014971386376226));
#1612=DIRECTION('',(0.801627475093059,4.068780E-016,0.597823879730417));
#1613=DIRECTION('',(0.597823879730417,-1.741650E-016,-0.801627475093059));
#1614=AXIS2_PLACEMENT_3D('',#1611,#1612,#1613);
#1615=CIRCLE('',#1614,7.487020305022048);
#1616=EDGE_CURVE('',#1320,#1610,#1615,.T.);
#1617=ORIENTED_EDGE('',*,*,#1616,.T.);
#1618=CARTESIAN_POINT('',(23.497374351610457,0.497374351610482,-5.269017349003581));
#1619=VERTEX_POINT('',#1618);
#1620=CARTESIAN_POINT('',(22.999999999999986,-0.176697090701644,2.685025670279524));
#1621=DIRECTION('',(2.160809E-016,-0.996428304896932,-0.08444307668618));
#1622=DIRECTION('',(7.976377E-017,-0.08444307668618,0.996428304896931));
#1623=AXIS2_PLACEMENT_3D('',#1620,#1621,#1622);
#1624=CIRCLE('',#1623,7.998034377744758);
#1625=EDGE_CURVE('',#1619,#1610,#1624,.T.);
#1626=ORIENTED_EDGE('',*,*,#1625,.F.);
#1627=CARTESIAN_POINT('',(23.472446498069665,2.207529183013186,-4.97486867722222));
#1628=VERTEX_POINT('',#1627);
#1629=CARTESIAN_POINT('',(22.823302909298331,7.105427E-015,2.685025670279524));
#1630=DIRECTION('',(-0.996428304896931,-2.535811E-016,-0.084443076686181));
#1631=DIRECTION('',(-0.084443076686181,3.627393E-016,0.996428304896931));
#1632=AXIS2_PLACEMENT_3D('',#1629,#1630,#1631);
#1633=CIRCLE('',#1632,7.998034377744758);
#1634=EDGE_CURVE('',#1628,#1619,#1633,.T.);
#1635=ORIENTED_EDGE('',*,*,#1634,.F.);
#1636=CARTESIAN_POINT('',(22.527553501930306,2.207529183013186,-4.97486867722222));
#1637=VERTEX_POINT('',#1636);
#1638=CARTESIAN_POINT('',(22.999999999999986,-2.259470186450059,1.014971386376228));
#1639=DIRECTION('',(-1.413909E-016,0.801627475093059,0.597823879730417));
#1640=DIRECTION('',(-1.818291E-016,0.597823879730416,-0.801627475093059));
#1641=AXIS2_PLACEMENT_3D('',#1638,#1639,#1640);
#1642=CIRCLE('',#1641,7.487020305022051);
#1643=EDGE_CURVE('',#1628,#1637,#1642,.T.);
#1644=ORIENTED_EDGE('',*,*,#1643,.T.);
#1645=CARTESIAN_POINT('',(22.502625648389511,0.497374351610482,-5.269017349003581));
#1646=VERTEX_POINT('',#1645);
#1647=CARTESIAN_POINT('',(23.176697090701637,7.105427E-015,2.685025670279524));
#1648=DIRECTION('',(0.996428304896932,1.889219E-016,-0.084443076686181));
#1649=DIRECTION('',(-0.084443076686181,-4.002396E-016,-0.996428304896931));
#1650=AXIS2_PLACEMENT_3D('',#1647,#1648,#1649);
#1651=CIRCLE('',#1650,7.998034377744759);
#1652=EDGE_CURVE('',#1646,#1637,#1651,.T.);
#1653=ORIENTED_EDGE('',*,*,#1652,.F.);
#1654=CARTESIAN_POINT('',(20.792470816986796,0.472446498069679,-4.97486867722222));
#1655=VERTEX_POINT('',#1654);
#1656=CARTESIAN_POINT('',(22.999999999999986,-0.176697090701644,2.685025670279524));
#1657=DIRECTION('',(2.160809E-016,-0.996428304896932,-0.08444307668618));
#1658=DIRECTION('',(7.976377E-017,-0.08444307668618,0.996428304896931));
#1659=AXIS2_PLACEMENT_3D('',#1656,#1657,#1658);
#1660=CIRCLE('',#1659,7.998034377744758);
#1661=EDGE_CURVE('',#1655,#1646,#1660,.T.);
#1662=ORIENTED_EDGE('',*,*,#1661,.F.);
#1663=CARTESIAN_POINT('',(25.259470186450052,1.421085E-014,1.014971386376226));
#1664=DIRECTION('',(-0.801627475093059,5.088392E-017,0.597823879730417));
#1665=DIRECTION('',(0.597823879730417,4.396522E-016,0.801627475093059));
#1666=AXIS2_PLACEMENT_3D('',#1663,#1664,#1665);
#1667=CIRCLE('',#1666,7.487020305022048);
#1668=EDGE_CURVE('',#1655,#1338,#1667,.T.);
#1669=ORIENTED_EDGE('',*,*,#1668,.T.);
#1670=ORIENTED_EDGE('',*,*,#1344,.F.);
#1671=ORIENTED_EDGE('',*,*,#1580,.T.);
#1672=ORIENTED_EDGE('',*,*,#1573,.T.);
#1673=EDGE_LOOP('',(#1608,#1617,#1626,#1635,#1644,#1653,#1662,#1669,#1670,#1671,#1672));
#1674=FACE_OUTER_BOUND('',#1673,.T.);
#1675=ADVANCED_FACE('',(#1674),#1607,.T.);
#1676=CARTESIAN_POINT('',(23.509743069190982,0.152123540849345,-5.414968216453762));
#1677=DIRECTION('',(-0.996428304896931,-2.535811E-016,-0.084443076686181));
#1678=DIRECTION('',(-0.084443076686181,3.627393E-016,0.996428304896931));
#1679=AXIS2_PLACEMENT_3D('',#1676,#1677,#1678);
#1680=PLANE('',#1679);
#1681=ORIENTED_EDGE('',*,*,#1634,.T.);
#1682=CARTESIAN_POINT('',(23.249999999999986,0.250000000000007,-2.349999999999997));
#1683=VERTEX_POINT('',#1682);
#1684=CARTESIAN_POINT('',(23.497374351610457,0.497374351610482,-5.269017349003581));
#1685=DIRECTION('',(-0.084143610969956,-0.084143610969955,0.992894609445471));
#1686=VECTOR('',#1685,2.939906533115181);
#1687=LINE('',#1684,#1686);
#1688=EDGE_CURVE('',#1619,#1683,#1687,.T.);
#1689=ORIENTED_EDGE('',*,*,#1688,.T.);
#1690=CARTESIAN_POINT('',(23.472446498069665,2.207529183013186,-4.974868677222221));
#1691=DIRECTION('',(-0.067778309965116,-0.596449127693018,0.799784057588366));
#1692=VECTOR('',#1691,3.281971742644057);
#1693=LINE('',#1690,#1692);
#1694=EDGE_CURVE('',#1628,#1683,#1693,.T.);
#1695=ORIENTED_EDGE('',*,*,#1694,.F.);
#1696=EDGE_LOOP('',(#1681,#1689,#1695));
#1697=FACE_OUTER_BOUND('',#1696,.T.);
#1698=ADVANCED_FACE('',(#1697),#1680,.T.);
#1699=CARTESIAN_POINT('',(23.509743069190982,-2.305405642163841,-5.414968216453761));
#1700=DIRECTION('',(-0.996428304896931,-2.535811E-016,-0.084443076686181));
#1701=DIRECTION('',(-0.084443076686181,3.627393E-016,0.996428304896931));
#1702=AXIS2_PLACEMENT_3D('',#1699,#1700,#1701);
#1703=PLANE('',#1702);
#1704=CARTESIAN_POINT('',(23.249999999999986,-0.249999999999993,-2.349999999999997));
#1705=VERTEX_POINT('',#1704);
#1706=CARTESIAN_POINT('',(23.472446498069665,-2.207529183013179,-4.974868677222221));
#1707=DIRECTION('',(-0.067778309965116,0.596449127693019,0.799784057588366));
#1708=VECTOR('',#1707,3.28197174264406);
#1709=LINE('',#1706,#1708);
#1710=EDGE_CURVE('',#1374,#1705,#1709,.T.);
#1711=ORIENTED_EDGE('',*,*,#1710,.T.);
#1712=CARTESIAN_POINT('',(23.249999999999986,-0.249999999999993,-2.349999999999997));
#1713=DIRECTION('',(0.084143610969956,-0.084143610969955,-0.992894609445471));
#1714=VECTOR('',#1713,2.939906533115181);
#1715=LINE('',#1712,#1714);
#1716=EDGE_CURVE('',#1705,#1383,#1715,.T.);
#1717=ORIENTED_EDGE('',*,*,#1716,.T.);
#1718=ORIENTED_EDGE('',*,*,#1389,.T.);
#1719=EDGE_LOOP('',(#1711,#1717,#1718));
#1720=FACE_OUTER_BOUND('',#1719,.T.);
#1721=ADVANCED_FACE('',(#1720),#1703,.T.);
#1722=CARTESIAN_POINT('',(22.778409090909076,7.105427E-015,-2.014772727272723));
#1723=DIRECTION('',(0.996428304896931,2.831333E-016,-0.08444307668618));
#1724=DIRECTION('',(-0.08444307668618,-4.002396E-016,-0.996428304896931));
#1725=AXIS2_PLACEMENT_3D('',#1722,#1723,#1724);
#1726=PLANE('',#1725);
#1727=CARTESIAN_POINT('',(22.749999999999986,0.250000000000007,-2.349999999999997));
#1728=VERTEX_POINT('',#1727);
#1729=CARTESIAN_POINT('',(22.527553501930306,2.207529183013186,-4.97486867722222));
#1730=DIRECTION('',(0.067778309965116,-0.596449127693018,0.799784057588366));
#1731=VECTOR('',#1730,3.281971742644057);
#1732=LINE('',#1729,#1731);
#1733=EDGE_CURVE('',#1637,#1728,#1732,.T.);
#1734=ORIENTED_EDGE('',*,*,#1733,.T.);
#1735=CARTESIAN_POINT('',(22.749999999999986,0.250000000000007,-2.349999999999997));
#1736=DIRECTION('',(-0.084143610969956,0.084143610969954,-0.992894609445471));
#1737=VECTOR('',#1736,2.939906533115181);
#1738=LINE('',#1735,#1737);
#1739=EDGE_CURVE('',#1728,#1646,#1738,.T.);
#1740=ORIENTED_EDGE('',*,*,#1739,.T.);
#1741=ORIENTED_EDGE('',*,*,#1652,.T.);
#1742=EDGE_LOOP('',(#1734,#1740,#1741));
#1743=FACE_OUTER_BOUND('',#1742,.T.);
#1744=ADVANCED_FACE('',(#1743),#1726,.T.);
#1745=CARTESIAN_POINT('',(22.762368717580511,-2.305405642163841,-2.204049132549816));
#1746=DIRECTION('',(0.996428304896931,2.831333E-016,-0.08444307668618));
#1747=DIRECTION('',(-0.08444307668618,-4.002396E-016,-0.996428304896931));
#1748=AXIS2_PLACEMENT_3D('',#1745,#1746,#1747);
#1749=PLANE('',#1748);
#1750=ORIENTED_EDGE('',*,*,#1371,.T.);
#1751=CARTESIAN_POINT('',(22.749999999999986,-0.249999999999993,-2.349999999999997));
#1752=VERTEX_POINT('',#1751);
#1753=CARTESIAN_POINT('',(22.502625648389511,-0.497374351610468,-5.26901734900358));
#1754=DIRECTION('',(0.084143610969954,0.084143610969956,0.992894609445471));
#1755=VECTOR('',#1754,2.939906533115179);
#1756=LINE('',#1753,#1755);
#1757=EDGE_CURVE('',#1356,#1752,#1756,.T.);
#1758=ORIENTED_EDGE('',*,*,#1757,.T.);
#1759=CARTESIAN_POINT('',(22.527553501930306,-2.207529183013179,-4.974868677222221));
#1760=DIRECTION('',(0.067778309965116,0.596449127693019,0.799784057588366));
#1761=VECTOR('',#1760,3.281971742644059);
#1762=LINE('',#1759,#1761);
#1763=EDGE_CURVE('',#1365,#1752,#1762,.T.);
#1764=ORIENTED_EDGE('',*,*,#1763,.F.);
#1765=EDGE_LOOP('',(#1750,#1758,#1764));
#1766=FACE_OUTER_BOUND('',#1765,.T.);
#1767=ADVANCED_FACE('',(#1766),#1749,.T.);
#1768=CARTESIAN_POINT('',(28.224999999999987,-5.224999999999987,-1.599999999999997));
#1769=DIRECTION('',(0.0,0.0,-1.0));
#1770=DIRECTION('',(-1.0,0.0,0.0));
#1771=AXIS2_PLACEMENT_3D('',#1768,#1769,#1770);
#1772=PLANE('',#1771);
#1773=ORIENTED_EDGE('',*,*,#1596,.F.);
#1774=ORIENTED_EDGE('',*,*,#1447,.F.);
#1775=EDGE_LOOP('',(#1773,#1774));
#1776=FACE_OUTER_BOUND('',#1775,.T.);
#1777=ORIENTED_EDGE('',*,*,#1513,.T.);
#1778=ORIENTED_EDGE('',*,*,#1529,.T.);
#1779=EDGE_LOOP('',(#1777,#1778));
#1780=FACE_BOUND('',#1779,.T.);
#1781=ADVANCED_FACE('',(#1776,#1780),#1772,.F.);
#1782=CARTESIAN_POINT('',(23.519691147876635,0.151677533004076,-2.218158510164543));
#1783=DIRECTION('',(-1.413909E-016,0.801627475093059,0.597823879730416));
#1784=DIRECTION('',(1.0,0.0,0.0));
#1785=AXIS2_PLACEMENT_3D('',#1782,#1783,#1784);
#1786=PLANE('',#1785);
#1787=ORIENTED_EDGE('',*,*,#1694,.T.);
#1788=CARTESIAN_POINT('',(22.749999999999986,0.250000000000007,-2.349999999999997));
#1789=DIRECTION('',(1.0,0.0,0.0));
#1790=VECTOR('',#1789,0.5);
#1791=LINE('',#1788,#1790);
#1792=EDGE_CURVE('',#1728,#1683,#1791,.T.);
#1793=ORIENTED_EDGE('',*,*,#1792,.F.);
#1794=ORIENTED_EDGE('',*,*,#1733,.F.);
#1795=ORIENTED_EDGE('',*,*,#1643,.F.);
#1796=EDGE_LOOP('',(#1787,#1793,#1794,#1795));
#1797=FACE_OUTER_BOUND('',#1796,.T.);
#1798=ADVANCED_FACE('',(#1797),#1786,.F.);
#1799=CARTESIAN_POINT('',(23.519691147876635,-2.31477180691455,-5.118671286544513));
#1800=DIRECTION('',(3.884285E-016,-0.801627475093058,0.597823879730417));
#1801=DIRECTION('',(1.0,0.0,0.0));
#1802=AXIS2_PLACEMENT_3D('',#1799,#1800,#1801);
#1803=PLANE('',#1802);
#1804=ORIENTED_EDGE('',*,*,#1763,.T.);
#1805=CARTESIAN_POINT('',(23.249999999999986,-0.249999999999993,-2.349999999999997));
#1806=DIRECTION('',(-1.0,0.0,0.0));
#1807=VECTOR('',#1806,0.5);
#1808=LINE('',#1805,#1807);
#1809=EDGE_CURVE('',#1705,#1752,#1808,.T.);
#1810=ORIENTED_EDGE('',*,*,#1809,.F.);
#1811=ORIENTED_EDGE('',*,*,#1710,.F.);
#1812=ORIENTED_EDGE('',*,*,#1380,.F.);
#1813=EDGE_LOOP('',(#1804,#1810,#1811,#1812));
#1814=FACE_OUTER_BOUND('',#1813,.T.);
#1815=ADVANCED_FACE('',(#1814),#1803,.F.);
#1816=CARTESIAN_POINT('',(23.274999999999984,-0.274999999999991,-2.349999999999997));
#1817=DIRECTION('',(0.0,0.0,-1.0));
#1818=DIRECTION('',(-1.0,0.0,0.0));
#1819=AXIS2_PLACEMENT_3D('',#1816,#1817,#1818);
#1820=PLANE('',#1819);
#1821=CARTESIAN_POINT('',(23.249999999999986,-0.249999999999993,-2.349999999999997));
#1822=DIRECTION('',(0.0,1.0,0.0));
#1823=VECTOR('',#1822,0.500000000000001);
#1824=LINE('',#1821,#1823);
#1825=EDGE_CURVE('',#1705,#1683,#1824,.T.);
#1826=ORIENTED_EDGE('',*,*,#1825,.F.);
#1827=ORIENTED_EDGE('',*,*,#1809,.T.);
#1828=CARTESIAN_POINT('',(22.749999999999986,0.250000000000007,-2.349999999999997));
#1829=DIRECTION('',(0.0,-1.0,0.0));
#1830=VECTOR('',#1829,0.500000000000001);
#1831=LINE('',#1828,#1830);
#1832=EDGE_CURVE('',#1728,#1752,#1831,.T.);
#1833=ORIENTED_EDGE('',*,*,#1832,.F.);
#1834=ORIENTED_EDGE('',*,*,#1792,.T.);
#1835=EDGE_LOOP('',(#1826,#1827,#1833,#1834));
#1836=FACE_OUTER_BOUND('',#1835,.T.);
#1837=ADVANCED_FACE('',(#1836),#1820,.T.);
#1838=CARTESIAN_POINT('',(25.314656137297533,0.519691147876671,-5.118516184103527));
#1839=DIRECTION('',(0.801627475093059,3.379572E-015,0.597823879730417));
#1840=DIRECTION('',(0.597823879730417,-1.741650E-016,-0.801627475093059));
#1841=AXIS2_PLACEMENT_3D('',#1838,#1839,#1840);
#1842=PLANE('',#1841);
#1843=CARTESIAN_POINT('',(25.207529183013172,-0.472446498069665,-4.974868677222221));
#1844=DIRECTION('',(-0.596449127693019,0.067778309965114,0.799784057588366));
#1845=VECTOR('',#1844,3.28197174264406);
#1846=LINE('',#1843,#1845);
#1847=EDGE_CURVE('',#1392,#1705,#1846,.T.);
#1848=ORIENTED_EDGE('',*,*,#1847,.T.);
#1849=ORIENTED_EDGE('',*,*,#1825,.T.);
#1850=CARTESIAN_POINT('',(25.207529183013168,0.472446498069694,-4.97486867722222));
#1851=DIRECTION('',(-0.596449127693018,-0.067778309965118,0.799784057588366));
#1852=VECTOR('',#1851,3.281971742644057);
#1853=LINE('',#1850,#1852);
#1854=EDGE_CURVE('',#1610,#1683,#1853,.T.);
#1855=ORIENTED_EDGE('',*,*,#1854,.F.);
#1856=ORIENTED_EDGE('',*,*,#1616,.F.);
#1857=ORIENTED_EDGE('',*,*,#1405,.F.);
#1858=EDGE_LOOP('',(#1848,#1849,#1855,#1856,#1857));
#1859=FACE_OUTER_BOUND('',#1858,.T.);
#1860=ADVANCED_FACE('',(#1859),#1842,.F.);
#1861=CARTESIAN_POINT('',(25.305405642163834,-0.237631282419464,-2.204049132549815));
#1862=DIRECTION('',(-3.799646E-015,0.996428304896931,-0.084443076686181));
#1863=DIRECTION('',(-1.0,0.0,0.0));
#1864=AXIS2_PLACEMENT_3D('',#1861,#1862,#1863);
#1865=PLANE('',#1864);
#1866=ORIENTED_EDGE('',*,*,#1398,.T.);
#1867=ORIENTED_EDGE('',*,*,#1716,.F.);
#1868=ORIENTED_EDGE('',*,*,#1847,.F.);
#1869=EDGE_LOOP('',(#1866,#1867,#1868));
#1870=FACE_OUTER_BOUND('',#1869,.T.);
#1871=ADVANCED_FACE('',(#1870),#1865,.T.);
#1872=CARTESIAN_POINT('',(25.305405642163826,0.509743069191003,-5.414968216453762));
#1873=DIRECTION('',(3.695094E-015,-0.996428304896931,-0.08444307668618));
#1874=DIRECTION('',(1.0,0.0,0.0));
#1875=AXIS2_PLACEMENT_3D('',#1872,#1873,#1874);
#1876=PLANE('',#1875);
#1877=ORIENTED_EDGE('',*,*,#1625,.T.);
#1878=ORIENTED_EDGE('',*,*,#1854,.T.);
#1879=ORIENTED_EDGE('',*,*,#1688,.F.);
#1880=EDGE_LOOP('',(#1877,#1878,#1879));
#1881=FACE_OUTER_BOUND('',#1880,.T.);
#1882=ADVANCED_FACE('',(#1881),#1876,.T.);
#1883=CARTESIAN_POINT('',(22.848316958918918,0.51969114787665,-2.218165895995066));
#1884=DIRECTION('',(-0.801627475093059,-2.747985E-015,0.597823879730417));
#1885=DIRECTION('',(0.597823879730417,4.396522E-016,0.801627475093059));
#1886=AXIS2_PLACEMENT_3D('',#1883,#1884,#1885);
#1887=PLANE('',#1886);
#1888=CARTESIAN_POINT('',(20.7924708169868,0.472446498069679,-4.974868677222221));
#1889=DIRECTION('',(0.596449127693019,-0.067778309965113,0.799784057588366));
#1890=VECTOR('',#1889,3.28197174264406);
#1891=LINE('',#1888,#1890);
#1892=EDGE_CURVE('',#1655,#1728,#1891,.T.);
#1893=ORIENTED_EDGE('',*,*,#1892,.T.);
#1894=ORIENTED_EDGE('',*,*,#1832,.T.);
#1895=CARTESIAN_POINT('',(20.792470816986803,-0.472446498069679,-4.97486867722222));
#1896=DIRECTION('',(0.596449127693018,0.067778309965118,0.799784057588366));
#1897=VECTOR('',#1896,3.281971742644059);
#1898=LINE('',#1895,#1897);
#1899=EDGE_CURVE('',#1347,#1752,#1898,.T.);
#1900=ORIENTED_EDGE('',*,*,#1899,.F.);
#1901=ORIENTED_EDGE('',*,*,#1353,.F.);
#1902=ORIENTED_EDGE('',*,*,#1668,.F.);
#1903=EDGE_LOOP('',(#1893,#1894,#1900,#1901,#1902));
#1904=FACE_OUTER_BOUND('',#1903,.T.);
#1905=ADVANCED_FACE('',(#1904),#1887,.F.);
#1906=CARTESIAN_POINT('',(22.847876459150644,0.509743069191003,-5.414968216453761));
#1907=DIRECTION('',(3.695094E-015,-0.996428304896931,-0.08444307668618));
#1908=DIRECTION('',(1.0,0.0,0.0));
#1909=AXIS2_PLACEMENT_3D('',#1906,#1907,#1908);
#1910=PLANE('',#1909);
#1911=ORIENTED_EDGE('',*,*,#1661,.T.);
#1912=ORIENTED_EDGE('',*,*,#1739,.F.);
#1913=ORIENTED_EDGE('',*,*,#1892,.F.);
#1914=EDGE_LOOP('',(#1911,#1912,#1913));
#1915=FACE_OUTER_BOUND('',#1914,.T.);
#1916=ADVANCED_FACE('',(#1915),#1910,.T.);
#1917=CARTESIAN_POINT('',(22.999999999999986,-0.221590909090899,-2.014772727272723));
#1918=DIRECTION('',(-3.799646E-015,0.996428304896931,-0.084443076686181));
#1919=DIRECTION('',(-1.0,0.0,0.0));
#1920=AXIS2_PLACEMENT_3D('',#1917,#1918,#1919);
#1921=PLANE('',#1920);
#1922=ORIENTED_EDGE('',*,*,#1362,.T.);
#1923=ORIENTED_EDGE('',*,*,#1899,.T.);
#1924=ORIENTED_EDGE('',*,*,#1757,.F.);
#1925=EDGE_LOOP('',(#1922,#1923,#1924));
#1926=FACE_OUTER_BOUND('',#1925,.T.);
#1927=ADVANCED_FACE('',(#1926),#1921,.T.);
#1928=CLOSED_SHELL('',(#1409,#1451,#1475,#1517,#1541,#1551,#1584,#1602,#1675,#1698,#1721,#1744,#1767,#1781,#1798,#1815,#1837,#1860,#1871,#1882,#1905,#1916,#1927));
#1929=MANIFOLD_SOLID_BREP('23D0',#1928);
#1930=STYLED_ITEM('NONE',(#689),#1929);
#1931=ADVANCED_BREP_SHAPE_REPRESENTATION('ABSR1',(#682,#1310,#1929),#28);
#1932=SHAPE_REPRESENTATION_RELATIONSHIP('SRRPL1','',#1931,#62);
ENDSEC;
END-ISO-10303-21;
