ISO-10303-21;
HEADER;
/****************************************************************
 * Generated by software with PDElib inside                    *
 * PDElib Version v51a, created Fri 09/10/2010                  *
 * ITI Transcendata (http://www.transcendata.com/)              *
 ****************************************************************/
FILE_DESCRIPTION((''),'2;1');
FILE_NAME('FIL_MURATA_BNX02.stp','2012-10-10T11:53:41',(''),(''),'Mechanical Desktop 2011','Mechanical Desktop 2011',', , ');
FILE_SCHEMA(('AUTOMOTIVE_DESIGN { 1 2 10303 214 1 1 1 1 }'));
ENDSEC;
DATA;
#10=(NAMED_UNIT(*)PLANE_ANGLE_UNIT()SI_UNIT($,.RADIAN.));
#11=DIMENSIONAL_EXPONENTS(0.0,0.0,0.0,0.0,0.0,0.0,0.0);
#12=PLANE_ANGLE_MEASURE_WITH_UNIT(PLANE_ANGLE_MEASURE(0.0174532925),#10);
#16=(CONVERSION_BASED_UNIT('DEGREE',#12)NAMED_UNIT(#11)PLANE_ANGLE_UNIT());
#20=(NAMED_UNIT(*)SI_UNIT($,.STERADIAN.)SOLID_ANGLE_UNIT());
#24=(LENGTH_UNIT()NAMED_UNIT(*)SI_UNIT(.MILLI.,.METRE.));
#26=UNCERTAINTY_MEASURE_WITH_UNIT(LENGTH_MEASURE(0.000001),#24,'DISTANCE_ACCURACY_VALUE','');
#28=(GEOMETRIC_REPRESENTATION_CONTEXT(3)GLOBAL_UNCERTAINTY_ASSIGNED_CONTEXT((#26))GLOBAL_UNIT_ASSIGNED_CONTEXT((#16,#20,#24))REPRESENTATION_CONTEXT('','3D'));
#29=APPLICATION_CONTEXT('automotive design');
#30=APPLICATION_PROTOCOL_DEFINITION('INTERNATIONAL_STANDARD','automotive_design',1998,#29);
#31=PRODUCT_CONTEXT('3D Mechanical Parts',#29,'mechanical');
#32=PRODUCT('Product','Product','',(#31));
#33=PRODUCT_RELATED_PRODUCT_CATEGORY('part',$,(#32));
#34=PRODUCT_CATEGORY('part',$);
#35=PERSON('1','Design','Joe',$,$,$);
#36=ORGANIZATION($,'None','None');
#37=PERSON_AND_ORGANIZATION(#35,#36);
#38=PERSON_AND_ORGANIZATION_ROLE('design_owner');
#39=APPLIED_PERSON_AND_ORGANIZATION_ASSIGNMENT(#37,#38,(#32));
#40=PRODUCT_DEFINITION_FORMATION_WITH_SPECIFIED_SOURCE('None','',#32,.BOUGHT.);
#41=PERSON('2','Creator','Joe',$,$,$);
#42=ORGANIZATION($,'None','None');
#43=PERSON_AND_ORGANIZATION(#41,#42);
#44=PERSON_AND_ORGANIZATION_ROLE('creator');
#45=APPLIED_PERSON_AND_ORGANIZATION_ASSIGNMENT(#43,#44,(#40));
#46=PERSON('3','Supplier','Joe',$,$,$);
#47=ORGANIZATION($,'None','None');
#48=PERSON_AND_ORGANIZATION(#46,#47);
#49=PERSON_AND_ORGANIZATION_ROLE('design_supplier');
#50=APPLIED_PERSON_AND_ORGANIZATION_ASSIGNMENT(#48,#49,(#40));
#51=PRODUCT_DEFINITION_CONTEXT('part definition',#29,'design');
#52=PRODUCT_DEFINITION('None','',#40,#51);
#53=PERSON('4','Creator','Joe',$,$,$);
#54=ORGANIZATION($,'None','None');
#55=PERSON_AND_ORGANIZATION(#53,#54);
#56=PERSON_AND_ORGANIZATION_ROLE('creator');
#57=APPLIED_PERSON_AND_ORGANIZATION_ASSIGNMENT(#55,#56,(#52));
#58=CARTESIAN_POINT('NONE',(0.0,0.0,0.0));
#59=DIRECTION('NONE',(0.0,0.0,1.0));
#60=DIRECTION('NONE',(1.0,0.0,0.0));
#61=AXIS2_PLACEMENT_3D('NONE',#58,#59,#60);
#62=SHAPE_REPRESENTATION('SR1',(#61),#28);
#63=PRODUCT_DEFINITION_SHAPE('PDS1','Test Part',#52);
#64=SHAPE_DEFINITION_REPRESENTATION(#63,#62);
#65=CARTESIAN_POINT('',(4.768230873041017,3.203976716129732,3.05));
#66=DIRECTION('',(0.0,-1.224647E-016,-1.0));
#67=DIRECTION('',(1.0,0.0,0.0));
#68=AXIS2_PLACEMENT_3D('',#65,#66,#67);
#69=CYLINDRICAL_SURFACE('',#68,0.500000000000001);
#70=CARTESIAN_POINT('',(5.268230873041018,3.203976716129732,3.0));
#71=VERTEX_POINT('',#70);
#72=CARTESIAN_POINT('',(5.268230873041018,3.203976716129732,3.1));
#73=VERTEX_POINT('',#72);
#74=CARTESIAN_POINT('',(5.268230873041018,3.203976716129732,3.0));
#75=DIRECTION('',(0.0,0.0,1.0));
#76=VECTOR('',#75,0.1);
#77=LINE('',#74,#76);
#78=EDGE_CURVE('',#71,#73,#77,.T.);
#79=ORIENTED_EDGE('',*,*,#78,.F.);
#80=CARTESIAN_POINT('',(4.268230873041016,3.203976716129732,3.0));
#81=VERTEX_POINT('',#80);
#82=CARTESIAN_POINT('',(4.768230873041017,3.203976716129732,3.0));
#83=DIRECTION('',(0.0,0.0,-1.0));
#84=DIRECTION('',(1.0,0.0,0.0));
#85=AXIS2_PLACEMENT_3D('',#82,#83,#84);
#86=CIRCLE('',#85,0.500000000000001);
#87=EDGE_CURVE('',#81,#71,#86,.T.);
#88=ORIENTED_EDGE('',*,*,#87,.F.);
#89=CARTESIAN_POINT('',(4.268230873041016,3.203976716129732,3.1));
#90=VERTEX_POINT('',#89);
#91=CARTESIAN_POINT('',(4.268230873041016,3.203976716129732,3.0));
#92=DIRECTION('',(0.0,0.0,1.0));
#93=VECTOR('',#92,0.1);
#94=LINE('',#91,#93);
#95=EDGE_CURVE('',#81,#90,#94,.T.);
#96=ORIENTED_EDGE('',*,*,#95,.T.);
#97=CARTESIAN_POINT('',(4.768230873041017,3.203976716129732,3.1));
#98=DIRECTION('',(0.0,0.0,1.0));
#99=DIRECTION('',(1.0,0.0,0.0));
#100=AXIS2_PLACEMENT_3D('',#97,#98,#99);
#101=CIRCLE('',#100,0.500000000000001);
#102=EDGE_CURVE('',#73,#90,#101,.T.);
#103=ORIENTED_EDGE('',*,*,#102,.F.);
#104=EDGE_LOOP('',(#79,#88,#96,#103));
#105=FACE_OUTER_BOUND('',#104,.T.);
#106=ADVANCED_FACE('',(#105),#69,.T.);
#107=CARTESIAN_POINT('',(4.768230873041017,3.203976716129732,3.05));
#108=DIRECTION('',(0.0,-1.224647E-016,-1.0));
#109=DIRECTION('',(1.0,0.0,0.0));
#110=AXIS2_PLACEMENT_3D('',#107,#108,#109);
#111=CYLINDRICAL_SURFACE('',#110,0.500000000000001);
#112=ORIENTED_EDGE('',*,*,#78,.T.);
#113=CARTESIAN_POINT('',(4.768230873041017,3.203976716129732,3.1));
#114=DIRECTION('',(0.0,0.0,1.0));
#115=DIRECTION('',(1.0,0.0,0.0));
#116=AXIS2_PLACEMENT_3D('',#113,#114,#115);
#117=CIRCLE('',#116,0.500000000000001);
#118=EDGE_CURVE('',#90,#73,#117,.T.);
#119=ORIENTED_EDGE('',*,*,#118,.F.);
#120=ORIENTED_EDGE('',*,*,#95,.F.);
#121=CARTESIAN_POINT('',(4.768230873041017,3.203976716129732,3.0));
#122=DIRECTION('',(0.0,0.0,-1.0));
#123=DIRECTION('',(1.0,0.0,0.0));
#124=AXIS2_PLACEMENT_3D('',#121,#122,#123);
#125=CIRCLE('',#124,0.500000000000001);
#126=EDGE_CURVE('',#71,#81,#125,.T.);
#127=ORIENTED_EDGE('',*,*,#126,.F.);
#128=EDGE_LOOP('',(#112,#119,#120,#127));
#129=FACE_OUTER_BOUND('',#128,.T.);
#130=ADVANCED_FACE('',(#129),#111,.T.);
#131=CARTESIAN_POINT('',(4.768230873041017,3.203976716129732,3.1));
#132=DIRECTION('',(0.0,0.0,1.0));
#133=DIRECTION('',(-1.0,0.0,0.0));
#134=AXIS2_PLACEMENT_3D('',#131,#132,#133);
#135=PLANE('',#134);
#136=ORIENTED_EDGE('',*,*,#102,.T.);
#137=ORIENTED_EDGE('',*,*,#118,.T.);
#138=EDGE_LOOP('',(#136,#137));
#139=FACE_OUTER_BOUND('',#138,.T.);
#140=ADVANCED_FACE('',(#139),#135,.T.);
#141=CARTESIAN_POINT('',(4.768230873041017,3.203976716129732,3.0));
#142=DIRECTION('',(0.0,0.0,-1.0));
#143=DIRECTION('',(1.0,0.0,0.0));
#144=AXIS2_PLACEMENT_3D('',#141,#142,#143);
#145=PLANE('',#144);
#146=ORIENTED_EDGE('',*,*,#126,.T.);
#147=ORIENTED_EDGE('',*,*,#87,.T.);
#148=EDGE_LOOP('',(#146,#147));
#149=FACE_OUTER_BOUND('',#148,.T.);
#150=ADVANCED_FACE('',(#149),#145,.T.);
#151=CLOSED_SHELL('',(#106,#130,#140,#150));
#152=MANIFOLD_SOLID_BREP('1CAE',#151);
#153=DRAUGHTING_PRE_DEFINED_COLOUR('white');
#154=SURFACE_STYLE_USAGE(.BOTH.,#155);
#155=SURFACE_SIDE_STYLE('NONE',(#156));
#156=SURFACE_STYLE_FILL_AREA(#157);
#157=FILL_AREA_STYLE('NONE',(#158));
#158=FILL_AREA_STYLE_COLOUR('NONE',#153);
#159=PRESENTATION_STYLE_ASSIGNMENT((#154));
#160=STYLED_ITEM('NONE',(#159),#152);
#161=MECHANICAL_DESIGN_GEOMETRIC_PRESENTATION_REPRESENTATION('NONE',(#160,#540,#764,#981,#1198,#1415,#1632,#1849),#28);
#162=PRESENTATION_LAYER_ASSIGNMENT('3D','None',(#152,#532,#756,#980,#1197,#1414,#1631,#1848));
#163=CARTESIAN_POINT('',(4.768230873041017,3.203976716129732,3.05));
#164=DIRECTION('',(0.0,-1.224647E-016,-1.0));
#165=DIRECTION('',(1.0,0.0,0.0));
#166=AXIS2_PLACEMENT_3D('',#163,#164,#165);
#167=CYLINDRICAL_SURFACE('',#166,0.500000000000001);
#168=CARTESIAN_POINT('',(5.268230873041018,3.203976716129732,3.1));
#169=VERTEX_POINT('',#168);
#170=CARTESIAN_POINT('',(5.268230873041018,3.203976716129732,3.0));
#171=VERTEX_POINT('',#170);
#172=CARTESIAN_POINT('',(5.268230873041018,3.203976716129732,3.1));
#173=DIRECTION('',(0.0,0.0,-1.0));
#174=VECTOR('',#173,0.1);
#175=LINE('',#172,#174);
#176=EDGE_CURVE('',#169,#171,#175,.T.);
#177=ORIENTED_EDGE('',*,*,#176,.F.);
#178=CARTESIAN_POINT('',(4.268230873041016,3.203976716129732,3.1));
#179=VERTEX_POINT('',#178);
#180=CARTESIAN_POINT('',(4.768230873041017,3.203976716129732,3.1));
#181=DIRECTION('',(0.0,0.0,-1.0));
#182=DIRECTION('',(1.0,0.0,0.0));
#183=AXIS2_PLACEMENT_3D('',#180,#181,#182);
#184=CIRCLE('',#183,0.500000000000001);
#185=EDGE_CURVE('',#179,#169,#184,.T.);
#186=ORIENTED_EDGE('',*,*,#185,.F.);
#187=CARTESIAN_POINT('',(4.268230873041016,3.203976716129732,3.0));
#188=VERTEX_POINT('',#187);
#189=CARTESIAN_POINT('',(4.268230873041016,3.203976716129732,3.1));
#190=DIRECTION('',(0.0,0.0,-1.0));
#191=VECTOR('',#190,0.1);
#192=LINE('',#189,#191);
#193=EDGE_CURVE('',#179,#188,#192,.T.);
#194=ORIENTED_EDGE('',*,*,#193,.T.);
#195=CARTESIAN_POINT('',(4.768230873041017,3.203976716129732,3.0));
#196=DIRECTION('',(0.0,0.0,-1.0));
#197=DIRECTION('',(1.0,0.0,0.0));
#198=AXIS2_PLACEMENT_3D('',#195,#196,#197);
#199=CIRCLE('',#198,0.500000000000001);
#200=EDGE_CURVE('',#188,#171,#199,.T.);
#201=ORIENTED_EDGE('',*,*,#200,.T.);
#202=EDGE_LOOP('',(#177,#186,#194,#201));
#203=FACE_OUTER_BOUND('',#202,.T.);
#204=ADVANCED_FACE('',(#203),#167,.F.);
#205=CARTESIAN_POINT('',(4.768230873041017,3.203976716129732,3.05));
#206=DIRECTION('',(0.0,-1.224647E-016,-1.0));
#207=DIRECTION('',(1.0,0.0,0.0));
#208=AXIS2_PLACEMENT_3D('',#205,#206,#207);
#209=CYLINDRICAL_SURFACE('',#208,0.500000000000001);
#210=ORIENTED_EDGE('',*,*,#176,.T.);
#211=CARTESIAN_POINT('',(4.768230873041017,3.203976716129732,3.0));
#212=DIRECTION('',(0.0,0.0,-1.0));
#213=DIRECTION('',(1.0,0.0,0.0));
#214=AXIS2_PLACEMENT_3D('',#211,#212,#213);
#215=CIRCLE('',#214,0.500000000000001);
#216=EDGE_CURVE('',#171,#188,#215,.T.);
#217=ORIENTED_EDGE('',*,*,#216,.T.);
#218=ORIENTED_EDGE('',*,*,#193,.F.);
#219=CARTESIAN_POINT('',(4.768230873041017,3.203976716129732,3.1));
#220=DIRECTION('',(0.0,0.0,-1.0));
#221=DIRECTION('',(1.0,0.0,0.0));
#222=AXIS2_PLACEMENT_3D('',#219,#220,#221);
#223=CIRCLE('',#222,0.500000000000001);
#224=EDGE_CURVE('',#169,#179,#223,.T.);
#225=ORIENTED_EDGE('',*,*,#224,.F.);
#226=EDGE_LOOP('',(#210,#217,#218,#225));
#227=FACE_OUTER_BOUND('',#226,.T.);
#228=ADVANCED_FACE('',(#227),#209,.F.);
#229=CARTESIAN_POINT('',(4.768230873041017,3.203976716129732,3.0));
#230=DIRECTION('',(0.0,0.0,-1.0));
#231=DIRECTION('',(1.0,0.0,0.0));
#232=AXIS2_PLACEMENT_3D('',#229,#230,#231);
#233=PLANE('',#232);
#234=ORIENTED_EDGE('',*,*,#216,.F.);
#235=ORIENTED_EDGE('',*,*,#200,.F.);
#236=EDGE_LOOP('',(#234,#235));
#237=FACE_OUTER_BOUND('',#236,.T.);
#238=ADVANCED_FACE('',(#237),#233,.F.);
#239=CARTESIAN_POINT('',(5.450000000000004,3.95,0.1));
#240=DIRECTION('',(0.0,0.0,1.0));
#241=DIRECTION('',(0.707106781186548,0.707106781186548,0.0));
#242=AXIS2_PLACEMENT_3D('',#239,#240,#241);
#243=CYLINDRICAL_SURFACE('',#242,0.5);
#244=CARTESIAN_POINT('',(5.450000000000004,4.45,3.1));
#245=VERTEX_POINT('',#244);
#246=CARTESIAN_POINT('',(5.950000000000004,3.95,3.1));
#247=VERTEX_POINT('',#246);
#248=CARTESIAN_POINT('',(5.450000000000004,3.95,3.1));
#249=DIRECTION('',(0.0,0.0,-1.0));
#250=DIRECTION('',(0.707106781186548,0.707106781186548,0.0));
#251=AXIS2_PLACEMENT_3D('',#248,#249,#250);
#252=CIRCLE('',#251,0.5);
#253=EDGE_CURVE('',#245,#247,#252,.T.);
#254=ORIENTED_EDGE('',*,*,#253,.T.);
#255=CARTESIAN_POINT('',(5.950000000000004,3.95,0.1));
#256=VERTEX_POINT('',#255);
#257=CARTESIAN_POINT('',(5.950000000000004,3.95,0.1));
#258=DIRECTION('',(0.0,0.0,1.0));
#259=VECTOR('',#258,3.0);
#260=LINE('',#257,#259);
#261=EDGE_CURVE('',#256,#247,#260,.T.);
#262=ORIENTED_EDGE('',*,*,#261,.F.);
#263=CARTESIAN_POINT('',(5.450000000000004,4.45,0.1));
#264=VERTEX_POINT('',#263);
#265=CARTESIAN_POINT('',(5.450000000000004,3.95,0.1));
#266=DIRECTION('',(0.0,0.0,1.0));
#267=DIRECTION('',(0.707106781186548,0.707106781186548,0.0));
#268=AXIS2_PLACEMENT_3D('',#265,#266,#267);
#269=CIRCLE('',#268,0.5);
#270=EDGE_CURVE('',#256,#264,#269,.T.);
#271=ORIENTED_EDGE('',*,*,#270,.T.);
#272=CARTESIAN_POINT('',(5.450000000000004,4.45,0.1));
#273=DIRECTION('',(0.0,0.0,1.0));
#274=VECTOR('',#273,3.0);
#275=LINE('',#272,#274);
#276=EDGE_CURVE('',#264,#245,#275,.T.);
#277=ORIENTED_EDGE('',*,*,#276,.T.);
#278=EDGE_LOOP('',(#254,#262,#271,#277));
#279=FACE_OUTER_BOUND('',#278,.T.);
#280=ADVANCED_FACE('',(#279),#243,.T.);
#281=CARTESIAN_POINT('',(5.950000000000004,3.95,0.1));
#282=DIRECTION('',(1.0,0.0,0.0));
#283=DIRECTION('',(0.0,0.0,-1.0));
#284=AXIS2_PLACEMENT_3D('',#281,#282,#283);
#285=PLANE('',#284);
#286=CARTESIAN_POINT('',(5.950000000000005,-3.950000000000001,3.1));
#287=VERTEX_POINT('',#286);
#288=CARTESIAN_POINT('',(5.950000000000004,3.95,3.1));
#289=DIRECTION('',(0.0,-1.0,0.0));
#290=VECTOR('',#289,7.900000000000001);
#291=LINE('',#288,#290);
#292=EDGE_CURVE('',#247,#287,#291,.T.);
#293=ORIENTED_EDGE('',*,*,#292,.T.);
#294=CARTESIAN_POINT('',(5.950000000000005,-3.950000000000001,0.1));
#295=VERTEX_POINT('',#294);
#296=CARTESIAN_POINT('',(5.950000000000005,-3.950000000000001,0.1));
#297=DIRECTION('',(0.0,0.0,1.0));
#298=VECTOR('',#297,3.0);
#299=LINE('',#296,#298);
#300=EDGE_CURVE('',#295,#287,#299,.T.);
#301=ORIENTED_EDGE('',*,*,#300,.F.);
#302=CARTESIAN_POINT('',(5.950000000000005,-3.950000000000001,0.1));
#303=DIRECTION('',(0.0,1.0,0.0));
#304=VECTOR('',#303,7.900000000000001);
#305=LINE('',#302,#304);
#306=EDGE_CURVE('',#295,#256,#305,.T.);
#307=ORIENTED_EDGE('',*,*,#306,.T.);
#308=ORIENTED_EDGE('',*,*,#261,.T.);
#309=EDGE_LOOP('',(#293,#301,#307,#308));
#310=FACE_OUTER_BOUND('',#309,.T.);
#311=ADVANCED_FACE('',(#310),#285,.T.);
#312=CARTESIAN_POINT('',(5.450000000000007,-3.950000000000001,0.1));
#313=DIRECTION('',(0.0,0.0,1.0));
#314=DIRECTION('',(0.707106781186546,-0.707106781186549,0.0));
#315=AXIS2_PLACEMENT_3D('',#312,#313,#314);
#316=CYLINDRICAL_SURFACE('',#315,0.499999999999997);
#317=CARTESIAN_POINT('',(5.450000000000005,-4.449999999999998,3.1));
#318=VERTEX_POINT('',#317);
#319=CARTESIAN_POINT('',(5.450000000000007,-3.950000000000001,3.1));
#320=DIRECTION('',(0.0,0.0,-1.0));
#321=DIRECTION('',(0.707106781186546,-0.707106781186549,0.0));
#322=AXIS2_PLACEMENT_3D('',#319,#320,#321);
#323=CIRCLE('',#322,0.499999999999997);
#324=EDGE_CURVE('',#287,#318,#323,.T.);
#325=ORIENTED_EDGE('',*,*,#324,.T.);
#326=CARTESIAN_POINT('',(5.450000000000005,-4.449999999999998,0.1));
#327=VERTEX_POINT('',#326);
#328=CARTESIAN_POINT('',(5.450000000000005,-4.449999999999998,0.1));
#329=DIRECTION('',(0.0,0.0,1.0));
#330=VECTOR('',#329,3.0);
#331=LINE('',#328,#330);
#332=EDGE_CURVE('',#327,#318,#331,.T.);
#333=ORIENTED_EDGE('',*,*,#332,.F.);
#334=CARTESIAN_POINT('',(5.450000000000007,-3.950000000000001,0.1));
#335=DIRECTION('',(0.0,0.0,1.0));
#336=DIRECTION('',(0.707106781186546,-0.707106781186549,0.0));
#337=AXIS2_PLACEMENT_3D('',#334,#335,#336);
#338=CIRCLE('',#337,0.499999999999997);
#339=EDGE_CURVE('',#327,#295,#338,.T.);
#340=ORIENTED_EDGE('',*,*,#339,.T.);
#341=ORIENTED_EDGE('',*,*,#300,.T.);
#342=EDGE_LOOP('',(#325,#333,#340,#341));
#343=FACE_OUTER_BOUND('',#342,.T.);
#344=ADVANCED_FACE('',(#343),#316,.T.);
#345=CARTESIAN_POINT('',(5.450000000000005,-4.449999999999998,0.1));
#346=DIRECTION('',(0.0,-1.0,0.0));
#347=DIRECTION('',(0.0,0.0,-1.0));
#348=AXIS2_PLACEMENT_3D('',#345,#346,#347);
#349=PLANE('',#348);
#350=CARTESIAN_POINT('',(-5.449999999999997,-4.45,3.1));
#351=VERTEX_POINT('',#350);
#352=CARTESIAN_POINT('',(5.450000000000006,-4.449999999999998,3.1));
#353=DIRECTION('',(-1.0,0.0,0.0));
#354=VECTOR('',#353,10.900000000000002);
#355=LINE('',#352,#354);
#356=EDGE_CURVE('',#318,#351,#355,.T.);
#357=ORIENTED_EDGE('',*,*,#356,.T.);
#358=CARTESIAN_POINT('',(-5.449999999999997,-4.45,0.1));
#359=VERTEX_POINT('',#358);
#360=CARTESIAN_POINT('',(-5.449999999999997,-4.45,0.1));
#361=DIRECTION('',(0.0,0.0,1.0));
#362=VECTOR('',#361,3.0);
#363=LINE('',#360,#362);
#364=EDGE_CURVE('',#359,#351,#363,.T.);
#365=ORIENTED_EDGE('',*,*,#364,.F.);
#366=CARTESIAN_POINT('',(-5.449999999999997,-4.45,0.1));
#367=DIRECTION('',(1.0,0.0,0.0));
#368=VECTOR('',#367,10.900000000000002);
#369=LINE('',#366,#368);
#370=EDGE_CURVE('',#359,#327,#369,.T.);
#371=ORIENTED_EDGE('',*,*,#370,.T.);
#372=ORIENTED_EDGE('',*,*,#332,.T.);
#373=EDGE_LOOP('',(#357,#365,#371,#372));
#374=FACE_OUTER_BOUND('',#373,.T.);
#375=ADVANCED_FACE('',(#374),#349,.T.);
#376=CARTESIAN_POINT('',(-5.449999999999996,-3.949999999999999,0.1));
#377=DIRECTION('',(0.0,0.0,1.0));
#378=DIRECTION('',(-0.707106781186547,-0.707106781186548,0.0));
#379=AXIS2_PLACEMENT_3D('',#376,#377,#378);
#380=CYLINDRICAL_SURFACE('',#379,0.500000000000001);
#381=CARTESIAN_POINT('',(-5.949999999999997,-3.950000000000002,3.1));
#382=VERTEX_POINT('',#381);
#383=CARTESIAN_POINT('',(-5.449999999999996,-3.949999999999999,3.1));
#384=DIRECTION('',(0.0,0.0,-1.0));
#385=DIRECTION('',(-0.707106781186547,-0.707106781186548,0.0));
#386=AXIS2_PLACEMENT_3D('',#383,#384,#385);
#387=CIRCLE('',#386,0.500000000000001);
#388=EDGE_CURVE('',#351,#382,#387,.T.);
#389=ORIENTED_EDGE('',*,*,#388,.T.);
#390=CARTESIAN_POINT('',(-5.949999999999997,-3.950000000000002,0.1));
#391=VERTEX_POINT('',#390);
#392=CARTESIAN_POINT('',(-5.949999999999997,-3.950000000000002,0.1));
#393=DIRECTION('',(0.0,0.0,1.0));
#394=VECTOR('',#393,3.0);
#395=LINE('',#392,#394);
#396=EDGE_CURVE('',#391,#382,#395,.T.);
#397=ORIENTED_EDGE('',*,*,#396,.F.);
#398=CARTESIAN_POINT('',(-5.449999999999996,-3.949999999999999,0.1));
#399=DIRECTION('',(0.0,0.0,1.0));
#400=DIRECTION('',(-0.707106781186547,-0.707106781186548,0.0));
#401=AXIS2_PLACEMENT_3D('',#398,#399,#400);
#402=CIRCLE('',#401,0.500000000000001);
#403=EDGE_CURVE('',#391,#359,#402,.T.);
#404=ORIENTED_EDGE('',*,*,#403,.T.);
#405=ORIENTED_EDGE('',*,*,#364,.T.);
#406=EDGE_LOOP('',(#389,#397,#404,#405));
#407=FACE_OUTER_BOUND('',#406,.T.);
#408=ADVANCED_FACE('',(#407),#380,.T.);
#409=CARTESIAN_POINT('',(-5.949999999999997,-3.950000000000002,0.1));
#410=DIRECTION('',(-1.0,0.0,0.0));
#411=DIRECTION('',(0.0,0.0,1.0));
#412=AXIS2_PLACEMENT_3D('',#409,#410,#411);
#413=PLANE('',#412);
#414=CARTESIAN_POINT('',(-5.949999999999998,3.95,3.1));
#415=VERTEX_POINT('',#414);
#416=CARTESIAN_POINT('',(-5.949999999999997,-3.950000000000002,3.1));
#417=DIRECTION('',(0.0,1.0,0.0));
#418=VECTOR('',#417,7.900000000000002);
#419=LINE('',#416,#418);
#420=EDGE_CURVE('',#382,#415,#419,.T.);
#421=ORIENTED_EDGE('',*,*,#420,.T.);
#422=CARTESIAN_POINT('',(-5.949999999999998,3.95,0.1));
#423=VERTEX_POINT('',#422);
#424=CARTESIAN_POINT('',(-5.949999999999998,3.95,0.1));
#425=DIRECTION('',(0.0,0.0,1.0));
#426=VECTOR('',#425,3.0);
#427=LINE('',#424,#426);
#428=EDGE_CURVE('',#423,#415,#427,.T.);
#429=ORIENTED_EDGE('',*,*,#428,.F.);
#430=CARTESIAN_POINT('',(-5.949999999999998,3.95,0.1));
#431=DIRECTION('',(0.0,-1.0,0.0));
#432=VECTOR('',#431,7.900000000000002);
#433=LINE('',#430,#432);
#434=EDGE_CURVE('',#423,#391,#433,.T.);
#435=ORIENTED_EDGE('',*,*,#434,.T.);
#436=ORIENTED_EDGE('',*,*,#396,.T.);
#437=EDGE_LOOP('',(#421,#429,#435,#436));
#438=FACE_OUTER_BOUND('',#437,.T.);
#439=ADVANCED_FACE('',(#438),#413,.T.);
#440=CARTESIAN_POINT('',(-5.449999999999996,3.949999999999998,0.1));
#441=DIRECTION('',(0.0,0.0,1.0));
#442=DIRECTION('',(-0.707106781186547,0.707106781186548,0.0));
#443=AXIS2_PLACEMENT_3D('',#440,#441,#442);
#444=CYLINDRICAL_SURFACE('',#443,0.500000000000002);
#445=CARTESIAN_POINT('',(-5.449999999999997,4.45,3.1));
#446=VERTEX_POINT('',#445);
#447=CARTESIAN_POINT('',(-5.449999999999996,3.949999999999998,3.1));
#448=DIRECTION('',(0.0,0.0,-1.0));
#449=DIRECTION('',(-0.707106781186547,0.707106781186548,0.0));
#450=AXIS2_PLACEMENT_3D('',#447,#448,#449);
#451=CIRCLE('',#450,0.500000000000002);
#452=EDGE_CURVE('',#415,#446,#451,.T.);
#453=ORIENTED_EDGE('',*,*,#452,.T.);
#454=CARTESIAN_POINT('',(-5.449999999999997,4.45,0.1));
#455=VERTEX_POINT('',#454);
#456=CARTESIAN_POINT('',(-5.449999999999997,4.45,0.1));
#457=DIRECTION('',(0.0,0.0,1.0));
#458=VECTOR('',#457,3.0);
#459=LINE('',#456,#458);
#460=EDGE_CURVE('',#455,#446,#459,.T.);
#461=ORIENTED_EDGE('',*,*,#460,.F.);
#462=CARTESIAN_POINT('',(-5.449999999999996,3.949999999999998,0.1));
#463=DIRECTION('',(0.0,0.0,1.0));
#464=DIRECTION('',(-0.707106781186547,0.707106781186548,0.0));
#465=AXIS2_PLACEMENT_3D('',#462,#463,#464);
#466=CIRCLE('',#465,0.500000000000002);
#467=EDGE_CURVE('',#455,#423,#466,.T.);
#468=ORIENTED_EDGE('',*,*,#467,.T.);
#469=ORIENTED_EDGE('',*,*,#428,.T.);
#470=EDGE_LOOP('',(#453,#461,#468,#469));
#471=FACE_OUTER_BOUND('',#470,.T.);
#472=ADVANCED_FACE('',(#471),#444,.T.);
#473=CARTESIAN_POINT('',(-5.449999999999997,4.45,0.1));
#474=DIRECTION('',(0.0,1.0,0.0));
#475=DIRECTION('',(0.0,0.0,1.0));
#476=AXIS2_PLACEMENT_3D('',#473,#474,#475);
#477=PLANE('',#476);
#478=CARTESIAN_POINT('',(-5.449999999999997,4.45,3.1));
#479=DIRECTION('',(1.0,0.0,0.0));
#480=VECTOR('',#479,10.9);
#481=LINE('',#478,#480);
#482=EDGE_CURVE('',#446,#245,#481,.T.);
#483=ORIENTED_EDGE('',*,*,#482,.T.);
#484=ORIENTED_EDGE('',*,*,#276,.F.);
#485=CARTESIAN_POINT('',(5.450000000000004,4.45,0.1));
#486=DIRECTION('',(-1.0,0.0,0.0));
#487=VECTOR('',#486,10.9);
#488=LINE('',#485,#487);
#489=EDGE_CURVE('',#264,#455,#488,.T.);
#490=ORIENTED_EDGE('',*,*,#489,.T.);
#491=ORIENTED_EDGE('',*,*,#460,.T.);
#492=EDGE_LOOP('',(#483,#484,#490,#491));
#493=FACE_OUTER_BOUND('',#492,.T.);
#494=ADVANCED_FACE('',(#493),#477,.T.);
#495=CARTESIAN_POINT('',(3.552714E-015,5.273559E-016,0.1));
#496=DIRECTION('',(0.0,0.0,1.0));
#497=DIRECTION('',(1.0,0.0,0.0));
#498=AXIS2_PLACEMENT_3D('',#495,#496,#497);
#499=PLANE('',#498);
#500=ORIENTED_EDGE('',*,*,#489,.F.);
#501=ORIENTED_EDGE('',*,*,#270,.F.);
#502=ORIENTED_EDGE('',*,*,#306,.F.);
#503=ORIENTED_EDGE('',*,*,#339,.F.);
#504=ORIENTED_EDGE('',*,*,#370,.F.);
#505=ORIENTED_EDGE('',*,*,#403,.F.);
#506=ORIENTED_EDGE('',*,*,#434,.F.);
#507=ORIENTED_EDGE('',*,*,#467,.F.);
#508=EDGE_LOOP('',(#500,#501,#502,#503,#504,#505,#506,#507));
#509=FACE_OUTER_BOUND('',#508,.T.);
#510=ADVANCED_FACE('',(#509),#499,.F.);
#511=CARTESIAN_POINT('',(3.469447E-015,5.551115E-016,3.1));
#512=DIRECTION('',(0.0,0.0,1.0));
#513=DIRECTION('',(1.0,0.0,0.0));
#514=AXIS2_PLACEMENT_3D('',#511,#512,#513);
#515=PLANE('',#514);
#516=ORIENTED_EDGE('',*,*,#253,.F.);
#517=ORIENTED_EDGE('',*,*,#482,.F.);
#518=ORIENTED_EDGE('',*,*,#452,.F.);
#519=ORIENTED_EDGE('',*,*,#420,.F.);
#520=ORIENTED_EDGE('',*,*,#388,.F.);
#521=ORIENTED_EDGE('',*,*,#356,.F.);
#522=ORIENTED_EDGE('',*,*,#324,.F.);
#523=ORIENTED_EDGE('',*,*,#292,.F.);
#524=EDGE_LOOP('',(#516,#517,#518,#519,#520,#521,#522,#523));
#525=FACE_OUTER_BOUND('',#524,.T.);
#526=ORIENTED_EDGE('',*,*,#224,.T.);
#527=ORIENTED_EDGE('',*,*,#185,.T.);
#528=EDGE_LOOP('',(#526,#527));
#529=FACE_BOUND('',#528,.T.);
#530=ADVANCED_FACE('',(#525,#529),#515,.T.);
#531=CLOSED_SHELL('',(#204,#228,#238,#280,#311,#344,#375,#408,#439,#472,#494,#510,#530));
#532=MANIFOLD_SOLID_BREP('1CAA',#531);
#533=COLOUR_RGB('250',0.33,0.33,0.33);
#534=SURFACE_STYLE_USAGE(.BOTH.,#535);
#535=SURFACE_SIDE_STYLE('NONE',(#536));
#536=SURFACE_STYLE_FILL_AREA(#537);
#537=FILL_AREA_STYLE('NONE',(#538));
#538=FILL_AREA_STYLE_COLOUR('NONE',#533);
#539=PRESENTATION_STYLE_ASSIGNMENT((#534));
#540=STYLED_ITEM('NONE',(#539),#532);
#541=CARTESIAN_POINT('',(4.500000000000002,4.25,0.0));
#542=DIRECTION('',(0.0,0.0,-1.0));
#543=DIRECTION('',(-1.0,0.0,0.0));
#544=AXIS2_PLACEMENT_3D('',#541,#542,#543);
#545=PLANE('',#544);
#546=CARTESIAN_POINT('',(2.0,4.25,5.551115E-016));
#547=VERTEX_POINT('',#546);
#548=CARTESIAN_POINT('',(2.0,4.55,5.551115E-016));
#549=VERTEX_POINT('',#548);
#550=CARTESIAN_POINT('',(2.000000000000002,4.25,5.551115E-016));
#551=DIRECTION('',(0.0,1.0,0.0));
#552=VECTOR('',#551,0.3);
#553=LINE('',#550,#552);
#554=EDGE_CURVE('',#547,#549,#553,.T.);
#555=ORIENTED_EDGE('',*,*,#554,.T.);
#556=CARTESIAN_POINT('',(4.500000000000002,4.55,0.0));
#557=VERTEX_POINT('',#556);
#558=CARTESIAN_POINT('',(4.500000000000002,4.55,0.0));
#559=DIRECTION('',(-1.0,0.0,0.0));
#560=VECTOR('',#559,2.500000000000001);
#561=LINE('',#558,#560);
#562=EDGE_CURVE('',#557,#549,#561,.T.);
#563=ORIENTED_EDGE('',*,*,#562,.F.);
#564=CARTESIAN_POINT('',(4.500000000000002,4.25,0.0));
#565=VERTEX_POINT('',#564);
#566=CARTESIAN_POINT('',(4.500000000000002,4.25,0.0));
#567=DIRECTION('',(0.0,1.0,0.0));
#568=VECTOR('',#567,0.3);
#569=LINE('',#566,#568);
#570=EDGE_CURVE('',#565,#557,#569,.T.);
#571=ORIENTED_EDGE('',*,*,#570,.F.);
#572=CARTESIAN_POINT('',(4.500000000000002,4.25,0.0));
#573=DIRECTION('',(-1.0,0.0,0.0));
#574=VECTOR('',#573,2.500000000000001);
#575=LINE('',#572,#574);
#576=EDGE_CURVE('',#565,#547,#575,.T.);
#577=ORIENTED_EDGE('',*,*,#576,.T.);
#578=EDGE_LOOP('',(#555,#563,#571,#577));
#579=FACE_OUTER_BOUND('',#578,.T.);
#580=ADVANCED_FACE('',(#579),#545,.T.);
#581=CARTESIAN_POINT('',(4.500000000000002,4.55,0.0));
#582=DIRECTION('',(0.0,1.0,0.0));
#583=DIRECTION('',(0.0,0.0,1.0));
#584=AXIS2_PLACEMENT_3D('',#581,#582,#583);
#585=PLANE('',#584);
#586=CARTESIAN_POINT('',(2.0,4.55,1.600000000000001));
#587=VERTEX_POINT('',#586);
#588=CARTESIAN_POINT('',(2.000000000000002,4.55,5.551115E-016));
#589=DIRECTION('',(0.0,0.0,1.0));
#590=VECTOR('',#589,1.6);
#591=LINE('',#588,#590);
#592=EDGE_CURVE('',#549,#587,#591,.T.);
#593=ORIENTED_EDGE('',*,*,#592,.T.);
#594=CARTESIAN_POINT('',(4.500000000000002,4.55,1.6));
#595=VERTEX_POINT('',#594);
#596=CARTESIAN_POINT('',(4.500000000000002,4.55,1.6));
#597=DIRECTION('',(-1.0,0.0,0.0));
#598=VECTOR('',#597,2.500000000000001);
#599=LINE('',#596,#598);
#600=EDGE_CURVE('',#595,#587,#599,.T.);
#601=ORIENTED_EDGE('',*,*,#600,.F.);
#602=CARTESIAN_POINT('',(4.500000000000002,4.55,0.0));
#603=DIRECTION('',(0.0,0.0,1.0));
#604=VECTOR('',#603,1.6);
#605=LINE('',#602,#604);
#606=EDGE_CURVE('',#557,#595,#605,.T.);
#607=ORIENTED_EDGE('',*,*,#606,.F.);
#608=ORIENTED_EDGE('',*,*,#562,.T.);
#609=EDGE_LOOP('',(#593,#601,#607,#608));
#610=FACE_OUTER_BOUND('',#609,.T.);
#611=ADVANCED_FACE('',(#610),#585,.T.);
#612=CARTESIAN_POINT('',(4.500000000000002,4.55,1.6));
#613=DIRECTION('',(0.0,0.0,1.0));
#614=DIRECTION('',(1.0,0.0,0.0));
#615=AXIS2_PLACEMENT_3D('',#612,#613,#614);
#616=PLANE('',#615);
#617=CARTESIAN_POINT('',(2.0,4.449999999999998,1.600000000000001));
#618=VERTEX_POINT('',#617);
#619=CARTESIAN_POINT('',(2.000000000000002,4.55,1.600000000000001));
#620=DIRECTION('',(0.0,-1.0,0.0));
#621=VECTOR('',#620,0.100000000000001);
#622=LINE('',#619,#621);
#623=EDGE_CURVE('',#587,#618,#622,.T.);
#624=ORIENTED_EDGE('',*,*,#623,.T.);
#625=CARTESIAN_POINT('',(4.500000000000002,4.449999999999998,1.6));
#626=VERTEX_POINT('',#625);
#627=CARTESIAN_POINT('',(4.500000000000002,4.449999999999998,1.6));
#628=DIRECTION('',(-1.0,0.0,0.0));
#629=VECTOR('',#628,2.500000000000001);
#630=LINE('',#627,#629);
#631=EDGE_CURVE('',#626,#618,#630,.T.);
#632=ORIENTED_EDGE('',*,*,#631,.F.);
#633=CARTESIAN_POINT('',(4.500000000000002,4.55,1.6));
#634=DIRECTION('',(0.0,-1.0,0.0));
#635=VECTOR('',#634,0.100000000000001);
#636=LINE('',#633,#635);
#637=EDGE_CURVE('',#595,#626,#636,.T.);
#638=ORIENTED_EDGE('',*,*,#637,.F.);
#639=ORIENTED_EDGE('',*,*,#600,.T.);
#640=EDGE_LOOP('',(#624,#632,#638,#639));
#641=FACE_OUTER_BOUND('',#640,.T.);
#642=ADVANCED_FACE('',(#641),#616,.T.);
#643=CARTESIAN_POINT('',(4.500000000000002,4.449999999999998,1.6));
#644=DIRECTION('',(0.0,-1.0,0.0));
#645=DIRECTION('',(0.0,0.0,-1.0));
#646=AXIS2_PLACEMENT_3D('',#643,#644,#645);
#647=PLANE('',#646);
#648=CARTESIAN_POINT('',(2.0,4.449999999999998,0.100000000000001));
#649=VERTEX_POINT('',#648);
#650=CARTESIAN_POINT('',(2.000000000000002,4.449999999999998,1.600000000000001));
#651=DIRECTION('',(0.0,0.0,-1.0));
#652=VECTOR('',#651,1.5);
#653=LINE('',#650,#652);
#654=EDGE_CURVE('',#618,#649,#653,.T.);
#655=ORIENTED_EDGE('',*,*,#654,.T.);
#656=CARTESIAN_POINT('',(4.500000000000002,4.449999999999998,0.1));
#657=VERTEX_POINT('',#656);
#658=CARTESIAN_POINT('',(4.500000000000002,4.449999999999998,0.1));
#659=DIRECTION('',(-1.0,0.0,0.0));
#660=VECTOR('',#659,2.500000000000001);
#661=LINE('',#658,#660);
#662=EDGE_CURVE('',#657,#649,#661,.T.);
#663=ORIENTED_EDGE('',*,*,#662,.F.);
#664=CARTESIAN_POINT('',(4.500000000000002,4.449999999999998,1.6));
#665=DIRECTION('',(0.0,0.0,-1.0));
#666=VECTOR('',#665,1.5);
#667=LINE('',#664,#666);
#668=EDGE_CURVE('',#626,#657,#667,.T.);
#669=ORIENTED_EDGE('',*,*,#668,.F.);
#670=ORIENTED_EDGE('',*,*,#631,.T.);
#671=EDGE_LOOP('',(#655,#663,#669,#670));
#672=FACE_OUTER_BOUND('',#671,.T.);
#673=ADVANCED_FACE('',(#672),#647,.T.);
#674=CARTESIAN_POINT('',(4.500000000000002,4.449999999999998,0.1));
#675=DIRECTION('',(0.0,0.0,1.0));
#676=DIRECTION('',(1.0,0.0,0.0));
#677=AXIS2_PLACEMENT_3D('',#674,#675,#676);
#678=PLANE('',#677);
#679=CARTESIAN_POINT('',(2.0,4.25,0.100000000000001));
#680=VERTEX_POINT('',#679);
#681=CARTESIAN_POINT('',(2.000000000000002,4.449999999999998,0.100000000000001));
#682=DIRECTION('',(0.0,-1.0,0.0));
#683=VECTOR('',#682,0.199999999999998);
#684=LINE('',#681,#683);
#685=EDGE_CURVE('',#649,#680,#684,.T.);
#686=ORIENTED_EDGE('',*,*,#685,.T.);
#687=CARTESIAN_POINT('',(4.500000000000002,4.25,0.1));
#688=VERTEX_POINT('',#687);
#689=CARTESIAN_POINT('',(4.500000000000002,4.25,0.1));
#690=DIRECTION('',(-1.0,0.0,0.0));
#691=VECTOR('',#690,2.500000000000001);
#692=LINE('',#689,#691);
#693=EDGE_CURVE('',#688,#680,#692,.T.);
#694=ORIENTED_EDGE('',*,*,#693,.F.);
#695=CARTESIAN_POINT('',(4.500000000000002,4.449999999999998,0.1));
#696=DIRECTION('',(0.0,-1.0,0.0));
#697=VECTOR('',#696,0.199999999999998);
#698=LINE('',#695,#697);
#699=EDGE_CURVE('',#657,#688,#698,.T.);
#700=ORIENTED_EDGE('',*,*,#699,.F.);
#701=ORIENTED_EDGE('',*,*,#662,.T.);
#702=EDGE_LOOP('',(#686,#694,#700,#701));
#703=FACE_OUTER_BOUND('',#702,.T.);
#704=ADVANCED_FACE('',(#703),#678,.T.);
#705=CARTESIAN_POINT('',(4.500000000000002,4.25,0.1));
#706=DIRECTION('',(0.0,-1.0,0.0));
#707=DIRECTION('',(0.0,0.0,-1.0));
#708=AXIS2_PLACEMENT_3D('',#705,#706,#707);
#709=PLANE('',#708);
#710=CARTESIAN_POINT('',(2.000000000000002,4.25,0.100000000000001));
#711=DIRECTION('',(0.0,0.0,-1.0));
#712=VECTOR('',#711,0.1);
#713=LINE('',#710,#712);
#714=EDGE_CURVE('',#680,#547,#713,.T.);
#715=ORIENTED_EDGE('',*,*,#714,.T.);
#716=ORIENTED_EDGE('',*,*,#576,.F.);
#717=CARTESIAN_POINT('',(4.500000000000002,4.25,0.1));
#718=DIRECTION('',(0.0,0.0,-1.0));
#719=VECTOR('',#718,0.1);
#720=LINE('',#717,#719);
#721=EDGE_CURVE('',#688,#565,#720,.T.);
#722=ORIENTED_EDGE('',*,*,#721,.F.);
#723=ORIENTED_EDGE('',*,*,#693,.T.);
#724=EDGE_LOOP('',(#715,#716,#722,#723));
#725=FACE_OUTER_BOUND('',#724,.T.);
#726=ADVANCED_FACE('',(#725),#709,.T.);
#727=CARTESIAN_POINT('',(2.0,4.478947368421051,0.721052631578949));
#728=DIRECTION('',(1.0,0.0,0.0));
#729=DIRECTION('',(0.0,0.0,-1.0));
#730=AXIS2_PLACEMENT_3D('',#727,#728,#729);
#731=PLANE('',#730);
#732=ORIENTED_EDGE('',*,*,#554,.F.);
#733=ORIENTED_EDGE('',*,*,#714,.F.);
#734=ORIENTED_EDGE('',*,*,#685,.F.);
#735=ORIENTED_EDGE('',*,*,#654,.F.);
#736=ORIENTED_EDGE('',*,*,#623,.F.);
#737=ORIENTED_EDGE('',*,*,#592,.F.);
#738=EDGE_LOOP('',(#732,#733,#734,#735,#736,#737));
#739=FACE_OUTER_BOUND('',#738,.T.);
#740=ADVANCED_FACE('',(#739),#731,.F.);
#741=CARTESIAN_POINT('',(4.5,4.478947368421051,0.721052631578948));
#742=DIRECTION('',(1.0,0.0,0.0));
#743=DIRECTION('',(0.0,0.0,-1.0));
#744=AXIS2_PLACEMENT_3D('',#741,#742,#743);
#745=PLANE('',#744);
#746=ORIENTED_EDGE('',*,*,#721,.T.);
#747=ORIENTED_EDGE('',*,*,#570,.T.);
#748=ORIENTED_EDGE('',*,*,#606,.T.);
#749=ORIENTED_EDGE('',*,*,#637,.T.);
#750=ORIENTED_EDGE('',*,*,#668,.T.);
#751=ORIENTED_EDGE('',*,*,#699,.T.);
#752=EDGE_LOOP('',(#746,#747,#748,#749,#750,#751));
#753=FACE_OUTER_BOUND('',#752,.T.);
#754=ADVANCED_FACE('',(#753),#745,.T.);
#755=CLOSED_SHELL('',(#580,#611,#642,#673,#704,#726,#740,#754));
#756=MANIFOLD_SOLID_BREP('1C93',#755);
#757=COLOUR_RGB('254',0.866,0.866,0.866);
#758=SURFACE_STYLE_USAGE(.BOTH.,#759);
#759=SURFACE_SIDE_STYLE('NONE',(#760));
#760=SURFACE_STYLE_FILL_AREA(#761);
#761=FILL_AREA_STYLE('NONE',(#762));
#762=FILL_AREA_STYLE_COLOUR('NONE',#757);
#763=PRESENTATION_STYLE_ASSIGNMENT((#758));
#764=STYLED_ITEM('NONE',(#763),#756);
#765=CARTESIAN_POINT('',(4.500000000000002,-4.25,0.1));
#766=DIRECTION('',(0.0,0.0,1.0));
#767=DIRECTION('',(1.0,0.0,0.0));
#768=AXIS2_PLACEMENT_3D('',#765,#766,#767);
#769=PLANE('',#768);
#770=CARTESIAN_POINT('',(-2.499999999999998,-4.25,0.099999999999998));
#771=VERTEX_POINT('',#770);
#772=CARTESIAN_POINT('',(-2.499999999999998,-4.449999999999998,0.099999999999998));
#773=VERTEX_POINT('',#772);
#774=CARTESIAN_POINT('',(-2.499999999999996,-4.25,0.099999999999998));
#775=DIRECTION('',(0.0,-1.0,0.0));
#776=VECTOR('',#775,0.199999999999998);
#777=LINE('',#774,#776);
#778=EDGE_CURVE('',#771,#773,#777,.T.);
#779=ORIENTED_EDGE('',*,*,#778,.T.);
#780=CARTESIAN_POINT('',(4.500000000000002,-4.449999999999998,0.1));
#781=VERTEX_POINT('',#780);
#782=CARTESIAN_POINT('',(4.500000000000002,-4.449999999999998,0.1));
#783=DIRECTION('',(-1.0,0.0,0.0));
#784=VECTOR('',#783,7.0);
#785=LINE('',#782,#784);
#786=EDGE_CURVE('',#781,#773,#785,.T.);
#787=ORIENTED_EDGE('',*,*,#786,.F.);
#788=CARTESIAN_POINT('',(4.500000000000002,-4.25,0.1));
#789=VERTEX_POINT('',#788);
#790=CARTESIAN_POINT('',(4.500000000000002,-4.449999999999998,0.1));
#791=DIRECTION('',(0.0,1.0,0.0));
#792=VECTOR('',#791,0.199999999999998);
#793=LINE('',#790,#792);
#794=EDGE_CURVE('',#781,#789,#793,.T.);
#795=ORIENTED_EDGE('',*,*,#794,.T.);
#796=CARTESIAN_POINT('',(4.500000000000002,-4.25,0.1));
#797=DIRECTION('',(-1.0,0.0,0.0));
#798=VECTOR('',#797,7.0);
#799=LINE('',#796,#798);
#800=EDGE_CURVE('',#789,#771,#799,.T.);
#801=ORIENTED_EDGE('',*,*,#800,.T.);
#802=EDGE_LOOP('',(#779,#787,#795,#801));
#803=FACE_OUTER_BOUND('',#802,.T.);
#804=ADVANCED_FACE('',(#803),#769,.T.);
#805=CARTESIAN_POINT('',(4.500000000000002,-4.449999999999998,0.1));
#806=DIRECTION('',(0.0,1.0,0.0));
#807=DIRECTION('',(0.0,0.0,1.0));
#808=AXIS2_PLACEMENT_3D('',#805,#806,#807);
#809=PLANE('',#808);
#810=CARTESIAN_POINT('',(-2.499999999999998,-4.449999999999998,1.599999999999999));
#811=VERTEX_POINT('',#810);
#812=CARTESIAN_POINT('',(-2.499999999999996,-4.449999999999998,0.099999999999999));
#813=DIRECTION('',(0.0,0.0,1.0));
#814=VECTOR('',#813,1.5);
#815=LINE('',#812,#814);
#816=EDGE_CURVE('',#773,#811,#815,.T.);
#817=ORIENTED_EDGE('',*,*,#816,.T.);
#818=CARTESIAN_POINT('',(4.500000000000002,-4.449999999999998,1.6));
#819=VERTEX_POINT('',#818);
#820=CARTESIAN_POINT('',(4.500000000000002,-4.449999999999998,1.6));
#821=DIRECTION('',(-1.0,0.0,0.0));
#822=VECTOR('',#821,7.0);
#823=LINE('',#820,#822);
#824=EDGE_CURVE('',#819,#811,#823,.T.);
#825=ORIENTED_EDGE('',*,*,#824,.F.);
#826=CARTESIAN_POINT('',(4.500000000000002,-4.449999999999998,1.6));
#827=DIRECTION('',(0.0,0.0,-1.0));
#828=VECTOR('',#827,1.5);
#829=LINE('',#826,#828);
#830=EDGE_CURVE('',#819,#781,#829,.T.);
#831=ORIENTED_EDGE('',*,*,#830,.T.);
#832=ORIENTED_EDGE('',*,*,#786,.T.);
#833=EDGE_LOOP('',(#817,#825,#831,#832));
#834=FACE_OUTER_BOUND('',#833,.T.);
#835=ADVANCED_FACE('',(#834),#809,.T.);
#836=CARTESIAN_POINT('',(4.500000000000002,-4.449999999999998,1.6));
#837=DIRECTION('',(0.0,0.0,1.0));
#838=DIRECTION('',(1.0,0.0,0.0));
#839=AXIS2_PLACEMENT_3D('',#836,#837,#838);
#840=PLANE('',#839);
#841=CARTESIAN_POINT('',(-2.499999999999998,-4.55,1.599999999999999));
#842=VERTEX_POINT('',#841);
#843=CARTESIAN_POINT('',(-2.499999999999996,-4.449999999999998,1.599999999999999));
#844=DIRECTION('',(0.0,-1.0,0.0));
#845=VECTOR('',#844,0.100000000000001);
#846=LINE('',#843,#845);
#847=EDGE_CURVE('',#811,#842,#846,.T.);
#848=ORIENTED_EDGE('',*,*,#847,.T.);
#849=CARTESIAN_POINT('',(4.500000000000002,-4.55,1.6));
#850=VERTEX_POINT('',#849);
#851=CARTESIAN_POINT('',(4.500000000000002,-4.55,1.6));
#852=DIRECTION('',(-1.0,0.0,0.0));
#853=VECTOR('',#852,7.0);
#854=LINE('',#851,#853);
#855=EDGE_CURVE('',#850,#842,#854,.T.);
#856=ORIENTED_EDGE('',*,*,#855,.F.);
#857=CARTESIAN_POINT('',(4.500000000000002,-4.55,1.6));
#858=DIRECTION('',(0.0,1.0,0.0));
#859=VECTOR('',#858,0.100000000000001);
#860=LINE('',#857,#859);
#861=EDGE_CURVE('',#850,#819,#860,.T.);
#862=ORIENTED_EDGE('',*,*,#861,.T.);
#863=ORIENTED_EDGE('',*,*,#824,.T.);
#864=EDGE_LOOP('',(#848,#856,#862,#863));
#865=FACE_OUTER_BOUND('',#864,.T.);
#866=ADVANCED_FACE('',(#865),#840,.T.);
#867=CARTESIAN_POINT('',(4.500000000000002,-4.55,1.6));
#868=DIRECTION('',(0.0,-1.0,0.0));
#869=DIRECTION('',(0.0,0.0,-1.0));
#870=AXIS2_PLACEMENT_3D('',#867,#868,#869);
#871=PLANE('',#870);
#872=CARTESIAN_POINT('',(-2.499999999999998,-4.55,-1.554312E-015));
#873=VERTEX_POINT('',#872);
#874=CARTESIAN_POINT('',(-2.499999999999997,-4.55,1.599999999999999));
#875=DIRECTION('',(0.0,0.0,-1.0));
#876=VECTOR('',#875,1.6);
#877=LINE('',#874,#876);
#878=EDGE_CURVE('',#842,#873,#877,.T.);
#879=ORIENTED_EDGE('',*,*,#878,.T.);
#880=CARTESIAN_POINT('',(4.500000000000002,-4.55,0.0));
#881=VERTEX_POINT('',#880);
#882=CARTESIAN_POINT('',(4.500000000000002,-4.55,0.0));
#883=DIRECTION('',(-1.0,0.0,0.0));
#884=VECTOR('',#883,7.0);
#885=LINE('',#882,#884);
#886=EDGE_CURVE('',#881,#873,#885,.T.);
#887=ORIENTED_EDGE('',*,*,#886,.F.);
#888=CARTESIAN_POINT('',(4.500000000000002,-4.55,0.0));
#889=DIRECTION('',(0.0,0.0,1.0));
#890=VECTOR('',#889,1.6);
#891=LINE('',#888,#890);
#892=EDGE_CURVE('',#881,#850,#891,.T.);
#893=ORIENTED_EDGE('',*,*,#892,.T.);
#894=ORIENTED_EDGE('',*,*,#855,.T.);
#895=EDGE_LOOP('',(#879,#887,#893,#894));
#896=FACE_OUTER_BOUND('',#895,.T.);
#897=ADVANCED_FACE('',(#896),#871,.T.);
#898=CARTESIAN_POINT('',(4.500000000000002,-4.55,0.0));
#899=DIRECTION('',(0.0,0.0,-1.0));
#900=DIRECTION('',(-1.0,0.0,0.0));
#901=AXIS2_PLACEMENT_3D('',#898,#899,#900);
#902=PLANE('',#901);
#903=CARTESIAN_POINT('',(-2.499999999999998,-4.25,-1.554312E-015));
#904=VERTEX_POINT('',#903);
#905=CARTESIAN_POINT('',(-2.499999999999996,-4.55,-1.554312E-015));
#906=DIRECTION('',(0.0,1.0,0.0));
#907=VECTOR('',#906,0.3);
#908=LINE('',#905,#907);
#909=EDGE_CURVE('',#873,#904,#908,.T.);
#910=ORIENTED_EDGE('',*,*,#909,.T.);
#911=CARTESIAN_POINT('',(4.500000000000002,-4.25,0.0));
#912=VERTEX_POINT('',#911);
#913=CARTESIAN_POINT('',(4.500000000000002,-4.25,0.0));
#914=DIRECTION('',(-1.0,0.0,0.0));
#915=VECTOR('',#914,7.0);
#916=LINE('',#913,#915);
#917=EDGE_CURVE('',#912,#904,#916,.T.);
#918=ORIENTED_EDGE('',*,*,#917,.F.);
#919=CARTESIAN_POINT('',(4.500000000000002,-4.25,0.0));
#920=DIRECTION('',(0.0,-1.0,0.0));
#921=VECTOR('',#920,0.3);
#922=LINE('',#919,#921);
#923=EDGE_CURVE('',#912,#881,#922,.T.);
#924=ORIENTED_EDGE('',*,*,#923,.T.);
#925=ORIENTED_EDGE('',*,*,#886,.T.);
#926=EDGE_LOOP('',(#910,#918,#924,#925));
#927=FACE_OUTER_BOUND('',#926,.T.);
#928=ADVANCED_FACE('',(#927),#902,.T.);
#929=CARTESIAN_POINT('',(4.500000000000002,-4.25,0.0));
#930=DIRECTION('',(0.0,1.0,0.0));
#931=DIRECTION('',(0.0,0.0,1.0));
#932=AXIS2_PLACEMENT_3D('',#929,#930,#931);
#933=PLANE('',#932);
#934=CARTESIAN_POINT('',(-2.499999999999996,-4.25,-1.554312E-015));
#935=DIRECTION('',(0.0,0.0,1.0));
#936=VECTOR('',#935,0.1);
#937=LINE('',#934,#936);
#938=EDGE_CURVE('',#904,#771,#937,.T.);
#939=ORIENTED_EDGE('',*,*,#938,.T.);
#940=ORIENTED_EDGE('',*,*,#800,.F.);
#941=CARTESIAN_POINT('',(4.500000000000002,-4.25,0.1));
#942=DIRECTION('',(0.0,0.0,-1.0));
#943=VECTOR('',#942,0.1);
#944=LINE('',#941,#943);
#945=EDGE_CURVE('',#789,#912,#944,.T.);
#946=ORIENTED_EDGE('',*,*,#945,.T.);
#947=ORIENTED_EDGE('',*,*,#917,.T.);
#948=EDGE_LOOP('',(#939,#940,#946,#947));
#949=FACE_OUTER_BOUND('',#948,.T.);
#950=ADVANCED_FACE('',(#949),#933,.T.);
#951=CARTESIAN_POINT('',(4.5,-4.478947368421051,0.721052631578948));
#952=DIRECTION('',(1.0,0.0,0.0));
#953=DIRECTION('',(0.0,0.0,-1.0));
#954=AXIS2_PLACEMENT_3D('',#951,#952,#953);
#955=PLANE('',#954);
#956=ORIENTED_EDGE('',*,*,#945,.F.);
#957=ORIENTED_EDGE('',*,*,#794,.F.);
#958=ORIENTED_EDGE('',*,*,#830,.F.);
#959=ORIENTED_EDGE('',*,*,#861,.F.);
#960=ORIENTED_EDGE('',*,*,#892,.F.);
#961=ORIENTED_EDGE('',*,*,#923,.F.);
#962=EDGE_LOOP('',(#956,#957,#958,#959,#960,#961));
#963=FACE_OUTER_BOUND('',#962,.T.);
#964=ADVANCED_FACE('',(#963),#955,.T.);
#965=CARTESIAN_POINT('',(-2.499999999999998,-4.478947368421051,0.721052631578946));
#966=DIRECTION('',(1.0,0.0,0.0));
#967=DIRECTION('',(0.0,0.0,-1.0));
#968=AXIS2_PLACEMENT_3D('',#965,#966,#967);
#969=PLANE('',#968);
#970=ORIENTED_EDGE('',*,*,#778,.F.);
#971=ORIENTED_EDGE('',*,*,#938,.F.);
#972=ORIENTED_EDGE('',*,*,#909,.F.);
#973=ORIENTED_EDGE('',*,*,#878,.F.);
#974=ORIENTED_EDGE('',*,*,#847,.F.);
#975=ORIENTED_EDGE('',*,*,#816,.F.);
#976=EDGE_LOOP('',(#970,#971,#972,#973,#974,#975));
#977=FACE_OUTER_BOUND('',#976,.T.);
#978=ADVANCED_FACE('',(#977),#969,.F.);
#979=CLOSED_SHELL('',(#804,#835,#866,#897,#928,#950,#964,#978));
#980=MANIFOLD_SOLID_BREP('1C87',#979);
#981=STYLED_ITEM('NONE',(#763),#980);
#982=CARTESIAN_POINT('',(-5.950000000000003,-1.45,1.6));
#983=DIRECTION('',(1.0,0.0,0.0));
#984=DIRECTION('',(0.0,0.0,1.0));
#985=AXIS2_PLACEMENT_3D('',#982,#983,#984);
#986=PLANE('',#985);
#987=CARTESIAN_POINT('',(-5.950000000000003,-2.750000000000001,1.6));
#988=VERTEX_POINT('',#987);
#989=CARTESIAN_POINT('',(-5.950000000000003,-2.750000000000001,0.1));
#990=VERTEX_POINT('',#989);
#991=CARTESIAN_POINT('',(-5.950000000000003,-2.750000000000001,1.6));
#992=DIRECTION('',(0.0,0.0,-1.0));
#993=VECTOR('',#992,1.5);
#994=LINE('',#991,#993);
#995=EDGE_CURVE('',#988,#990,#994,.T.);
#996=ORIENTED_EDGE('',*,*,#995,.T.);
#997=CARTESIAN_POINT('',(-5.950000000000003,-1.449999999999999,0.1));
#998=VERTEX_POINT('',#997);
#999=CARTESIAN_POINT('',(-5.950000000000003,-1.449999999999999,0.1));
#1000=DIRECTION('',(0.0,-1.0,0.0));
#1001=VECTOR('',#1000,1.300000000000002);
#1002=LINE('',#999,#1001);
#1003=EDGE_CURVE('',#998,#990,#1002,.T.);
#1004=ORIENTED_EDGE('',*,*,#1003,.F.);
#1005=CARTESIAN_POINT('',(-5.950000000000003,-1.45,1.6));
#1006=VERTEX_POINT('',#1005);
#1007=CARTESIAN_POINT('',(-5.950000000000003,-1.45,1.6));
#1008=DIRECTION('',(0.0,0.0,-1.0));
#1009=VECTOR('',#1008,1.5);
#1010=LINE('',#1007,#1009);
#1011=EDGE_CURVE('',#1006,#998,#1010,.T.);
#1012=ORIENTED_EDGE('',*,*,#1011,.F.);
#1013=CARTESIAN_POINT('',(-5.950000000000003,-1.45,1.6));
#1014=DIRECTION('',(0.0,-1.0,0.0));
#1015=VECTOR('',#1014,1.300000000000001);
#1016=LINE('',#1013,#1015);
#1017=EDGE_CURVE('',#1006,#988,#1016,.T.);
#1018=ORIENTED_EDGE('',*,*,#1017,.T.);
#1019=EDGE_LOOP('',(#996,#1004,#1012,#1018));
#1020=FACE_OUTER_BOUND('',#1019,.T.);
#1021=ADVANCED_FACE('',(#1020),#986,.T.);
#1022=CARTESIAN_POINT('',(-5.950000000000003,-1.449999999999999,0.1));
#1023=DIRECTION('',(0.0,0.0,1.0));
#1024=DIRECTION('',(-1.0,0.0,0.0));
#1025=AXIS2_PLACEMENT_3D('',#1022,#1023,#1024);
#1026=PLANE('',#1025);
#1027=CARTESIAN_POINT('',(-5.049999999999997,-2.750000000000001,0.1));
#1028=VERTEX_POINT('',#1027);
#1029=CARTESIAN_POINT('',(-5.950000000000003,-2.750000000000001,0.1));
#1030=DIRECTION('',(1.0,0.0,0.0));
#1031=VECTOR('',#1030,0.900000000000007);
#1032=LINE('',#1029,#1031);
#1033=EDGE_CURVE('',#990,#1028,#1032,.T.);
#1034=ORIENTED_EDGE('',*,*,#1033,.T.);
#1035=CARTESIAN_POINT('',(-5.049999999999997,-1.449999999999999,0.1));
#1036=VERTEX_POINT('',#1035);
#1037=CARTESIAN_POINT('',(-5.049999999999997,-1.449999999999999,0.1));
#1038=DIRECTION('',(0.0,-1.0,0.0));
#1039=VECTOR('',#1038,1.300000000000002);
#1040=LINE('',#1037,#1039);
#1041=EDGE_CURVE('',#1036,#1028,#1040,.T.);
#1042=ORIENTED_EDGE('',*,*,#1041,.F.);
#1043=CARTESIAN_POINT('',(-5.950000000000003,-1.449999999999999,0.1));
#1044=DIRECTION('',(1.0,0.0,0.0));
#1045=VECTOR('',#1044,0.900000000000007);
#1046=LINE('',#1043,#1045);
#1047=EDGE_CURVE('',#998,#1036,#1046,.T.);
#1048=ORIENTED_EDGE('',*,*,#1047,.F.);
#1049=ORIENTED_EDGE('',*,*,#1003,.T.);
#1050=EDGE_LOOP('',(#1034,#1042,#1048,#1049));
#1051=FACE_OUTER_BOUND('',#1050,.T.);
#1052=ADVANCED_FACE('',(#1051),#1026,.T.);
#1053=CARTESIAN_POINT('',(-5.049999999999997,-1.449999999999999,0.1));
#1054=DIRECTION('',(1.0,0.0,0.0));
#1055=DIRECTION('',(0.0,0.0,1.0));
#1056=AXIS2_PLACEMENT_3D('',#1053,#1054,#1055);
#1057=PLANE('',#1056);
#1058=CARTESIAN_POINT('',(-5.049999999999997,-2.750000000000001,0.0));
#1059=VERTEX_POINT('',#1058);
#1060=CARTESIAN_POINT('',(-5.049999999999997,-2.750000000000001,0.1));
#1061=DIRECTION('',(0.0,0.0,-1.0));
#1062=VECTOR('',#1061,0.1);
#1063=LINE('',#1060,#1062);
#1064=EDGE_CURVE('',#1028,#1059,#1063,.T.);
#1065=ORIENTED_EDGE('',*,*,#1064,.T.);
#1066=CARTESIAN_POINT('',(-5.049999999999997,-1.449999999999999,2.220446E-016));
#1067=VERTEX_POINT('',#1066);
#1068=CARTESIAN_POINT('',(-5.049999999999997,-1.449999999999999,2.220446E-016));
#1069=DIRECTION('',(0.0,-1.0,0.0));
#1070=VECTOR('',#1069,1.300000000000002);
#1071=LINE('',#1068,#1070);
#1072=EDGE_CURVE('',#1067,#1059,#1071,.T.);
#1073=ORIENTED_EDGE('',*,*,#1072,.F.);
#1074=CARTESIAN_POINT('',(-5.049999999999997,-1.449999999999999,0.1));
#1075=DIRECTION('',(0.0,0.0,-1.0));
#1076=VECTOR('',#1075,0.1);
#1077=LINE('',#1074,#1076);
#1078=EDGE_CURVE('',#1036,#1067,#1077,.T.);
#1079=ORIENTED_EDGE('',*,*,#1078,.F.);
#1080=ORIENTED_EDGE('',*,*,#1041,.T.);
#1081=EDGE_LOOP('',(#1065,#1073,#1079,#1080));
#1082=FACE_OUTER_BOUND('',#1081,.T.);
#1083=ADVANCED_FACE('',(#1082),#1057,.T.);
#1084=CARTESIAN_POINT('',(-5.049999999999997,-1.449999999999999,2.220446E-016));
#1085=DIRECTION('',(0.0,0.0,-1.0));
#1086=DIRECTION('',(1.0,0.0,0.0));
#1087=AXIS2_PLACEMENT_3D('',#1084,#1085,#1086);
#1088=PLANE('',#1087);
#1089=CARTESIAN_POINT('',(-6.049999999999997,-2.750000000000001,0.0));
#1090=VERTEX_POINT('',#1089);
#1091=CARTESIAN_POINT('',(-5.049999999999997,-2.750000000000001,0.0));
#1092=DIRECTION('',(-1.0,0.0,0.0));
#1093=VECTOR('',#1092,1.000000000000001);
#1094=LINE('',#1091,#1093);
#1095=EDGE_CURVE('',#1059,#1090,#1094,.T.);
#1096=ORIENTED_EDGE('',*,*,#1095,.T.);
#1097=CARTESIAN_POINT('',(-6.049999999999997,-1.449999999999999,2.220446E-016));
#1098=VERTEX_POINT('',#1097);
#1099=CARTESIAN_POINT('',(-6.049999999999997,-1.449999999999999,2.220446E-016));
#1100=DIRECTION('',(0.0,-1.0,0.0));
#1101=VECTOR('',#1100,1.300000000000002);
#1102=LINE('',#1099,#1101);
#1103=EDGE_CURVE('',#1098,#1090,#1102,.T.);
#1104=ORIENTED_EDGE('',*,*,#1103,.F.);
#1105=CARTESIAN_POINT('',(-5.049999999999997,-1.449999999999999,2.220446E-016));
#1106=DIRECTION('',(-1.0,0.0,0.0));
#1107=VECTOR('',#1106,1.000000000000001);
#1108=LINE('',#1105,#1107);
#1109=EDGE_CURVE('',#1067,#1098,#1108,.T.);
#1110=ORIENTED_EDGE('',*,*,#1109,.F.);
#1111=ORIENTED_EDGE('',*,*,#1072,.T.);
#1112=EDGE_LOOP('',(#1096,#1104,#1110,#1111));
#1113=FACE_OUTER_BOUND('',#1112,.T.);
#1114=ADVANCED_FACE('',(#1113),#1088,.T.);
#1115=CARTESIAN_POINT('',(-6.049999999999997,-1.449999999999999,2.220446E-016));
#1116=DIRECTION('',(-1.0,0.0,0.0));
#1117=DIRECTION('',(0.0,0.0,-1.0));
#1118=AXIS2_PLACEMENT_3D('',#1115,#1116,#1117);
#1119=PLANE('',#1118);
#1120=CARTESIAN_POINT('',(-6.049999999999997,-2.750000000000001,1.6));
#1121=VERTEX_POINT('',#1120);
#1122=CARTESIAN_POINT('',(-6.049999999999997,-2.750000000000001,9.860761E-032));
#1123=DIRECTION('',(0.0,0.0,1.0));
#1124=VECTOR('',#1123,1.6);
#1125=LINE('',#1122,#1124);
#1126=EDGE_CURVE('',#1090,#1121,#1125,.T.);
#1127=ORIENTED_EDGE('',*,*,#1126,.T.);
#1128=CARTESIAN_POINT('',(-6.049999999999997,-1.45,1.6));
#1129=VERTEX_POINT('',#1128);
#1130=CARTESIAN_POINT('',(-6.049999999999997,-1.45,1.6));
#1131=DIRECTION('',(0.0,-1.0,0.0));
#1132=VECTOR('',#1131,1.300000000000001);
#1133=LINE('',#1130,#1132);
#1134=EDGE_CURVE('',#1129,#1121,#1133,.T.);
#1135=ORIENTED_EDGE('',*,*,#1134,.F.);
#1136=CARTESIAN_POINT('',(-6.049999999999997,-1.449999999999999,2.220446E-016));
#1137=DIRECTION('',(0.0,0.0,1.0));
#1138=VECTOR('',#1137,1.6);
#1139=LINE('',#1136,#1138);
#1140=EDGE_CURVE('',#1098,#1129,#1139,.T.);
#1141=ORIENTED_EDGE('',*,*,#1140,.F.);
#1142=ORIENTED_EDGE('',*,*,#1103,.T.);
#1143=EDGE_LOOP('',(#1127,#1135,#1141,#1142));
#1144=FACE_OUTER_BOUND('',#1143,.T.);
#1145=ADVANCED_FACE('',(#1144),#1119,.T.);
#1146=CARTESIAN_POINT('',(-6.049999999999997,-1.45,1.6));
#1147=DIRECTION('',(0.0,0.0,1.0));
#1148=DIRECTION('',(-1.0,0.0,0.0));
#1149=AXIS2_PLACEMENT_3D('',#1146,#1147,#1148);
#1150=PLANE('',#1149);
#1151=CARTESIAN_POINT('',(-6.049999999999997,-2.750000000000001,1.6));
#1152=DIRECTION('',(1.0,0.0,0.0));
#1153=VECTOR('',#1152,0.099999999999994);
#1154=LINE('',#1151,#1153);
#1155=EDGE_CURVE('',#1121,#988,#1154,.T.);
#1156=ORIENTED_EDGE('',*,*,#1155,.T.);
#1157=ORIENTED_EDGE('',*,*,#1017,.F.);
#1158=CARTESIAN_POINT('',(-6.049999999999997,-1.45,1.6));
#1159=DIRECTION('',(1.0,0.0,0.0));
#1160=VECTOR('',#1159,0.099999999999994);
#1161=LINE('',#1158,#1160);
#1162=EDGE_CURVE('',#1129,#1006,#1161,.T.);
#1163=ORIENTED_EDGE('',*,*,#1162,.F.);
#1164=ORIENTED_EDGE('',*,*,#1134,.T.);
#1165=EDGE_LOOP('',(#1156,#1157,#1163,#1164));
#1166=FACE_OUTER_BOUND('',#1165,.T.);
#1167=ADVANCED_FACE('',(#1166),#1150,.T.);
#1168=CARTESIAN_POINT('',(-5.809615384615384,-2.750000000000001,0.540384615384614));
#1169=DIRECTION('',(0.0,-1.0,0.0));
#1170=DIRECTION('',(0.0,0.0,1.0));
#1171=AXIS2_PLACEMENT_3D('',#1168,#1169,#1170);
#1172=PLANE('',#1171);
#1173=ORIENTED_EDGE('',*,*,#995,.F.);
#1174=ORIENTED_EDGE('',*,*,#1155,.F.);
#1175=ORIENTED_EDGE('',*,*,#1126,.F.);
#1176=ORIENTED_EDGE('',*,*,#1095,.F.);
#1177=ORIENTED_EDGE('',*,*,#1064,.F.);
#1178=ORIENTED_EDGE('',*,*,#1033,.F.);
#1179=EDGE_LOOP('',(#1173,#1174,#1175,#1176,#1177,#1178));
#1180=FACE_OUTER_BOUND('',#1179,.T.);
#1181=ADVANCED_FACE('',(#1180),#1172,.T.);
#1182=CARTESIAN_POINT('',(-5.809615384615384,-1.45,0.540384615384614));
#1183=DIRECTION('',(0.0,-1.0,0.0));
#1184=DIRECTION('',(0.0,0.0,1.0));
#1185=AXIS2_PLACEMENT_3D('',#1182,#1183,#1184);
#1186=PLANE('',#1185);
#1187=ORIENTED_EDGE('',*,*,#1162,.T.);
#1188=ORIENTED_EDGE('',*,*,#1011,.T.);
#1189=ORIENTED_EDGE('',*,*,#1047,.T.);
#1190=ORIENTED_EDGE('',*,*,#1078,.T.);
#1191=ORIENTED_EDGE('',*,*,#1109,.T.);
#1192=ORIENTED_EDGE('',*,*,#1140,.T.);
#1193=EDGE_LOOP('',(#1187,#1188,#1189,#1190,#1191,#1192));
#1194=FACE_OUTER_BOUND('',#1193,.T.);
#1195=ADVANCED_FACE('',(#1194),#1186,.F.);
#1196=CLOSED_SHELL('',(#1021,#1052,#1083,#1114,#1145,#1167,#1181,#1195));
#1197=MANIFOLD_SOLID_BREP('1C71',#1196);
#1198=STYLED_ITEM('NONE',(#763),#1197);
#1199=CARTESIAN_POINT('',(-5.950000000000003,2.750000000000002,1.6));
#1200=DIRECTION('',(1.0,0.0,0.0));
#1201=DIRECTION('',(0.0,0.0,1.0));
#1202=AXIS2_PLACEMENT_3D('',#1199,#1200,#1201);
#1203=PLANE('',#1202);
#1204=CARTESIAN_POINT('',(-5.950000000000003,1.450000000000001,1.6));
#1205=VERTEX_POINT('',#1204);
#1206=CARTESIAN_POINT('',(-5.950000000000003,1.450000000000001,0.1));
#1207=VERTEX_POINT('',#1206);
#1208=CARTESIAN_POINT('',(-5.950000000000003,1.450000000000001,1.6));
#1209=DIRECTION('',(0.0,0.0,-1.0));
#1210=VECTOR('',#1209,1.5);
#1211=LINE('',#1208,#1210);
#1212=EDGE_CURVE('',#1205,#1207,#1211,.T.);
#1213=ORIENTED_EDGE('',*,*,#1212,.T.);
#1214=CARTESIAN_POINT('',(-5.950000000000003,2.750000000000003,0.1));
#1215=VERTEX_POINT('',#1214);
#1216=CARTESIAN_POINT('',(-5.950000000000003,2.750000000000003,0.1));
#1217=DIRECTION('',(0.0,-1.0,0.0));
#1218=VECTOR('',#1217,1.300000000000002);
#1219=LINE('',#1216,#1218);
#1220=EDGE_CURVE('',#1215,#1207,#1219,.T.);
#1221=ORIENTED_EDGE('',*,*,#1220,.F.);
#1222=CARTESIAN_POINT('',(-5.950000000000003,2.750000000000002,1.6));
#1223=VERTEX_POINT('',#1222);
#1224=CARTESIAN_POINT('',(-5.950000000000003,2.750000000000002,1.6));
#1225=DIRECTION('',(0.0,0.0,-1.0));
#1226=VECTOR('',#1225,1.5);
#1227=LINE('',#1224,#1226);
#1228=EDGE_CURVE('',#1223,#1215,#1227,.T.);
#1229=ORIENTED_EDGE('',*,*,#1228,.F.);
#1230=CARTESIAN_POINT('',(-5.950000000000003,2.750000000000002,1.6));
#1231=DIRECTION('',(0.0,-1.0,0.0));
#1232=VECTOR('',#1231,1.300000000000001);
#1233=LINE('',#1230,#1232);
#1234=EDGE_CURVE('',#1223,#1205,#1233,.T.);
#1235=ORIENTED_EDGE('',*,*,#1234,.T.);
#1236=EDGE_LOOP('',(#1213,#1221,#1229,#1235));
#1237=FACE_OUTER_BOUND('',#1236,.T.);
#1238=ADVANCED_FACE('',(#1237),#1203,.T.);
#1239=CARTESIAN_POINT('',(-5.950000000000003,2.750000000000003,0.1));
#1240=DIRECTION('',(0.0,0.0,1.0));
#1241=DIRECTION('',(-1.0,0.0,0.0));
#1242=AXIS2_PLACEMENT_3D('',#1239,#1240,#1241);
#1243=PLANE('',#1242);
#1244=CARTESIAN_POINT('',(-5.049999999999997,1.450000000000001,0.1));
#1245=VERTEX_POINT('',#1244);
#1246=CARTESIAN_POINT('',(-5.950000000000003,1.450000000000001,0.1));
#1247=DIRECTION('',(1.0,0.0,0.0));
#1248=VECTOR('',#1247,0.900000000000007);
#1249=LINE('',#1246,#1248);
#1250=EDGE_CURVE('',#1207,#1245,#1249,.T.);
#1251=ORIENTED_EDGE('',*,*,#1250,.T.);
#1252=CARTESIAN_POINT('',(-5.049999999999997,2.750000000000003,0.1));
#1253=VERTEX_POINT('',#1252);
#1254=CARTESIAN_POINT('',(-5.049999999999997,2.750000000000003,0.1));
#1255=DIRECTION('',(0.0,-1.0,0.0));
#1256=VECTOR('',#1255,1.300000000000002);
#1257=LINE('',#1254,#1256);
#1258=EDGE_CURVE('',#1253,#1245,#1257,.T.);
#1259=ORIENTED_EDGE('',*,*,#1258,.F.);
#1260=CARTESIAN_POINT('',(-5.950000000000003,2.750000000000003,0.1));
#1261=DIRECTION('',(1.0,0.0,0.0));
#1262=VECTOR('',#1261,0.900000000000007);
#1263=LINE('',#1260,#1262);
#1264=EDGE_CURVE('',#1215,#1253,#1263,.T.);
#1265=ORIENTED_EDGE('',*,*,#1264,.F.);
#1266=ORIENTED_EDGE('',*,*,#1220,.T.);
#1267=EDGE_LOOP('',(#1251,#1259,#1265,#1266));
#1268=FACE_OUTER_BOUND('',#1267,.T.);
#1269=ADVANCED_FACE('',(#1268),#1243,.T.);
#1270=CARTESIAN_POINT('',(-5.049999999999997,2.750000000000003,0.1));
#1271=DIRECTION('',(1.0,0.0,0.0));
#1272=DIRECTION('',(0.0,0.0,1.0));
#1273=AXIS2_PLACEMENT_3D('',#1270,#1271,#1272);
#1274=PLANE('',#1273);
#1275=CARTESIAN_POINT('',(-5.049999999999997,1.450000000000001,0.0));
#1276=VERTEX_POINT('',#1275);
#1277=CARTESIAN_POINT('',(-5.049999999999997,1.450000000000001,0.1));
#1278=DIRECTION('',(0.0,0.0,-1.0));
#1279=VECTOR('',#1278,0.1);
#1280=LINE('',#1277,#1279);
#1281=EDGE_CURVE('',#1245,#1276,#1280,.T.);
#1282=ORIENTED_EDGE('',*,*,#1281,.T.);
#1283=CARTESIAN_POINT('',(-5.049999999999997,2.750000000000003,2.220446E-016));
#1284=VERTEX_POINT('',#1283);
#1285=CARTESIAN_POINT('',(-5.049999999999997,2.750000000000003,2.220446E-016));
#1286=DIRECTION('',(0.0,-1.0,0.0));
#1287=VECTOR('',#1286,1.300000000000002);
#1288=LINE('',#1285,#1287);
#1289=EDGE_CURVE('',#1284,#1276,#1288,.T.);
#1290=ORIENTED_EDGE('',*,*,#1289,.F.);
#1291=CARTESIAN_POINT('',(-5.049999999999997,2.750000000000003,0.1));
#1292=DIRECTION('',(0.0,0.0,-1.0));
#1293=VECTOR('',#1292,0.1);
#1294=LINE('',#1291,#1293);
#1295=EDGE_CURVE('',#1253,#1284,#1294,.T.);
#1296=ORIENTED_EDGE('',*,*,#1295,.F.);
#1297=ORIENTED_EDGE('',*,*,#1258,.T.);
#1298=EDGE_LOOP('',(#1282,#1290,#1296,#1297));
#1299=FACE_OUTER_BOUND('',#1298,.T.);
#1300=ADVANCED_FACE('',(#1299),#1274,.T.);
#1301=CARTESIAN_POINT('',(-5.049999999999997,2.750000000000003,2.220446E-016));
#1302=DIRECTION('',(0.0,0.0,-1.0));
#1303=DIRECTION('',(1.0,0.0,0.0));
#1304=AXIS2_PLACEMENT_3D('',#1301,#1302,#1303);
#1305=PLANE('',#1304);
#1306=CARTESIAN_POINT('',(-6.049999999999997,1.450000000000001,0.0));
#1307=VERTEX_POINT('',#1306);
#1308=CARTESIAN_POINT('',(-5.049999999999997,1.450000000000001,0.0));
#1309=DIRECTION('',(-1.0,0.0,0.0));
#1310=VECTOR('',#1309,1.000000000000001);
#1311=LINE('',#1308,#1310);
#1312=EDGE_CURVE('',#1276,#1307,#1311,.T.);
#1313=ORIENTED_EDGE('',*,*,#1312,.T.);
#1314=CARTESIAN_POINT('',(-6.049999999999997,2.750000000000003,2.220446E-016));
#1315=VERTEX_POINT('',#1314);
#1316=CARTESIAN_POINT('',(-6.049999999999997,2.750000000000003,2.220446E-016));
#1317=DIRECTION('',(0.0,-1.0,0.0));
#1318=VECTOR('',#1317,1.300000000000002);
#1319=LINE('',#1316,#1318);
#1320=EDGE_CURVE('',#1315,#1307,#1319,.T.);
#1321=ORIENTED_EDGE('',*,*,#1320,.F.);
#1322=CARTESIAN_POINT('',(-5.049999999999997,2.750000000000003,2.220446E-016));
#1323=DIRECTION('',(-1.0,0.0,0.0));
#1324=VECTOR('',#1323,1.000000000000001);
#1325=LINE('',#1322,#1324);
#1326=EDGE_CURVE('',#1284,#1315,#1325,.T.);
#1327=ORIENTED_EDGE('',*,*,#1326,.F.);
#1328=ORIENTED_EDGE('',*,*,#1289,.T.);
#1329=EDGE_LOOP('',(#1313,#1321,#1327,#1328));
#1330=FACE_OUTER_BOUND('',#1329,.T.);
#1331=ADVANCED_FACE('',(#1330),#1305,.T.);
#1332=CARTESIAN_POINT('',(-6.049999999999997,2.750000000000003,2.220446E-016));
#1333=DIRECTION('',(-1.0,0.0,0.0));
#1334=DIRECTION('',(0.0,0.0,-1.0));
#1335=AXIS2_PLACEMENT_3D('',#1332,#1333,#1334);
#1336=PLANE('',#1335);
#1337=CARTESIAN_POINT('',(-6.049999999999997,1.450000000000001,1.6));
#1338=VERTEX_POINT('',#1337);
#1339=CARTESIAN_POINT('',(-6.049999999999997,1.450000000000001,9.860761E-032));
#1340=DIRECTION('',(0.0,0.0,1.0));
#1341=VECTOR('',#1340,1.6);
#1342=LINE('',#1339,#1341);
#1343=EDGE_CURVE('',#1307,#1338,#1342,.T.);
#1344=ORIENTED_EDGE('',*,*,#1343,.T.);
#1345=CARTESIAN_POINT('',(-6.049999999999997,2.750000000000002,1.6));
#1346=VERTEX_POINT('',#1345);
#1347=CARTESIAN_POINT('',(-6.049999999999997,2.750000000000002,1.6));
#1348=DIRECTION('',(0.0,-1.0,0.0));
#1349=VECTOR('',#1348,1.300000000000001);
#1350=LINE('',#1347,#1349);
#1351=EDGE_CURVE('',#1346,#1338,#1350,.T.);
#1352=ORIENTED_EDGE('',*,*,#1351,.F.);
#1353=CARTESIAN_POINT('',(-6.049999999999997,2.750000000000003,2.220446E-016));
#1354=DIRECTION('',(0.0,0.0,1.0));
#1355=VECTOR('',#1354,1.6);
#1356=LINE('',#1353,#1355);
#1357=EDGE_CURVE('',#1315,#1346,#1356,.T.);
#1358=ORIENTED_EDGE('',*,*,#1357,.F.);
#1359=ORIENTED_EDGE('',*,*,#1320,.T.);
#1360=EDGE_LOOP('',(#1344,#1352,#1358,#1359));
#1361=FACE_OUTER_BOUND('',#1360,.T.);
#1362=ADVANCED_FACE('',(#1361),#1336,.T.);
#1363=CARTESIAN_POINT('',(-6.049999999999997,2.750000000000002,1.6));
#1364=DIRECTION('',(0.0,0.0,1.0));
#1365=DIRECTION('',(-1.0,0.0,0.0));
#1366=AXIS2_PLACEMENT_3D('',#1363,#1364,#1365);
#1367=PLANE('',#1366);
#1368=CARTESIAN_POINT('',(-6.049999999999997,1.450000000000001,1.6));
#1369=DIRECTION('',(1.0,0.0,0.0));
#1370=VECTOR('',#1369,0.099999999999994);
#1371=LINE('',#1368,#1370);
#1372=EDGE_CURVE('',#1338,#1205,#1371,.T.);
#1373=ORIENTED_EDGE('',*,*,#1372,.T.);
#1374=ORIENTED_EDGE('',*,*,#1234,.F.);
#1375=CARTESIAN_POINT('',(-6.049999999999997,2.750000000000002,1.6));
#1376=DIRECTION('',(1.0,0.0,0.0));
#1377=VECTOR('',#1376,0.099999999999994);
#1378=LINE('',#1375,#1377);
#1379=EDGE_CURVE('',#1346,#1223,#1378,.T.);
#1380=ORIENTED_EDGE('',*,*,#1379,.F.);
#1381=ORIENTED_EDGE('',*,*,#1351,.T.);
#1382=EDGE_LOOP('',(#1373,#1374,#1380,#1381));
#1383=FACE_OUTER_BOUND('',#1382,.T.);
#1384=ADVANCED_FACE('',(#1383),#1367,.T.);
#1385=CARTESIAN_POINT('',(-5.809615384615384,1.450000000000001,0.540384615384614));
#1386=DIRECTION('',(0.0,-1.0,0.0));
#1387=DIRECTION('',(0.0,0.0,1.0));
#1388=AXIS2_PLACEMENT_3D('',#1385,#1386,#1387);
#1389=PLANE('',#1388);
#1390=ORIENTED_EDGE('',*,*,#1212,.F.);
#1391=ORIENTED_EDGE('',*,*,#1372,.F.);
#1392=ORIENTED_EDGE('',*,*,#1343,.F.);
#1393=ORIENTED_EDGE('',*,*,#1312,.F.);
#1394=ORIENTED_EDGE('',*,*,#1281,.F.);
#1395=ORIENTED_EDGE('',*,*,#1250,.F.);
#1396=EDGE_LOOP('',(#1390,#1391,#1392,#1393,#1394,#1395));
#1397=FACE_OUTER_BOUND('',#1396,.T.);
#1398=ADVANCED_FACE('',(#1397),#1389,.T.);
#1399=CARTESIAN_POINT('',(-5.809615384615384,2.750000000000002,0.540384615384614));
#1400=DIRECTION('',(0.0,-1.0,0.0));
#1401=DIRECTION('',(0.0,0.0,1.0));
#1402=AXIS2_PLACEMENT_3D('',#1399,#1400,#1401);
#1403=PLANE('',#1402);
#1404=ORIENTED_EDGE('',*,*,#1379,.T.);
#1405=ORIENTED_EDGE('',*,*,#1228,.T.);
#1406=ORIENTED_EDGE('',*,*,#1264,.T.);
#1407=ORIENTED_EDGE('',*,*,#1295,.T.);
#1408=ORIENTED_EDGE('',*,*,#1326,.T.);
#1409=ORIENTED_EDGE('',*,*,#1357,.T.);
#1410=EDGE_LOOP('',(#1404,#1405,#1406,#1407,#1408,#1409));
#1411=FACE_OUTER_BOUND('',#1410,.T.);
#1412=ADVANCED_FACE('',(#1411),#1403,.F.);
#1413=CLOSED_SHELL('',(#1238,#1269,#1300,#1331,#1362,#1384,#1398,#1412));
#1414=MANIFOLD_SOLID_BREP('1C6D',#1413);
#1415=STYLED_ITEM('NONE',(#763),#1414);
#1416=CARTESIAN_POINT('',(5.950000000000004,-2.75,1.6));
#1417=DIRECTION('',(-1.0,0.0,0.0));
#1418=DIRECTION('',(0.0,0.0,1.0));
#1419=AXIS2_PLACEMENT_3D('',#1416,#1417,#1418);
#1420=PLANE('',#1419);
#1421=CARTESIAN_POINT('',(5.950000000000004,-1.449999999999999,1.6));
#1422=VERTEX_POINT('',#1421);
#1423=CARTESIAN_POINT('',(5.950000000000004,-1.449999999999999,0.1));
#1424=VERTEX_POINT('',#1423);
#1425=CARTESIAN_POINT('',(5.950000000000004,-1.449999999999999,1.6));
#1426=DIRECTION('',(0.0,0.0,-1.0));
#1427=VECTOR('',#1426,1.5);
#1428=LINE('',#1425,#1427);
#1429=EDGE_CURVE('',#1422,#1424,#1428,.T.);
#1430=ORIENTED_EDGE('',*,*,#1429,.T.);
#1431=CARTESIAN_POINT('',(5.950000000000004,-2.750000000000001,0.1));
#1432=VERTEX_POINT('',#1431);
#1433=CARTESIAN_POINT('',(5.950000000000004,-2.750000000000001,0.1));
#1434=DIRECTION('',(0.0,1.0,0.0));
#1435=VECTOR('',#1434,1.300000000000002);
#1436=LINE('',#1433,#1435);
#1437=EDGE_CURVE('',#1432,#1424,#1436,.T.);
#1438=ORIENTED_EDGE('',*,*,#1437,.F.);
#1439=CARTESIAN_POINT('',(5.950000000000004,-2.75,1.6));
#1440=VERTEX_POINT('',#1439);
#1441=CARTESIAN_POINT('',(5.950000000000004,-2.75,1.6));
#1442=DIRECTION('',(0.0,0.0,-1.0));
#1443=VECTOR('',#1442,1.5);
#1444=LINE('',#1441,#1443);
#1445=EDGE_CURVE('',#1440,#1432,#1444,.T.);
#1446=ORIENTED_EDGE('',*,*,#1445,.F.);
#1447=CARTESIAN_POINT('',(5.950000000000004,-2.75,1.6));
#1448=DIRECTION('',(0.0,1.0,0.0));
#1449=VECTOR('',#1448,1.300000000000001);
#1450=LINE('',#1447,#1449);
#1451=EDGE_CURVE('',#1440,#1422,#1450,.T.);
#1452=ORIENTED_EDGE('',*,*,#1451,.T.);
#1453=EDGE_LOOP('',(#1430,#1438,#1446,#1452));
#1454=FACE_OUTER_BOUND('',#1453,.T.);
#1455=ADVANCED_FACE('',(#1454),#1420,.T.);
#1456=CARTESIAN_POINT('',(5.950000000000004,-2.750000000000001,0.1));
#1457=DIRECTION('',(0.0,0.0,1.0));
#1458=DIRECTION('',(1.0,0.0,0.0));
#1459=AXIS2_PLACEMENT_3D('',#1456,#1457,#1458);
#1460=PLANE('',#1459);
#1461=CARTESIAN_POINT('',(5.049999999999997,-1.449999999999999,0.1));
#1462=VERTEX_POINT('',#1461);
#1463=CARTESIAN_POINT('',(5.950000000000004,-1.45,0.1));
#1464=DIRECTION('',(-1.0,0.0,0.0));
#1465=VECTOR('',#1464,0.900000000000007);
#1466=LINE('',#1463,#1465);
#1467=EDGE_CURVE('',#1424,#1462,#1466,.T.);
#1468=ORIENTED_EDGE('',*,*,#1467,.T.);
#1469=CARTESIAN_POINT('',(5.049999999999997,-2.750000000000001,0.1));
#1470=VERTEX_POINT('',#1469);
#1471=CARTESIAN_POINT('',(5.049999999999997,-2.750000000000001,0.1));
#1472=DIRECTION('',(0.0,1.0,0.0));
#1473=VECTOR('',#1472,1.300000000000002);
#1474=LINE('',#1471,#1473);
#1475=EDGE_CURVE('',#1470,#1462,#1474,.T.);
#1476=ORIENTED_EDGE('',*,*,#1475,.F.);
#1477=CARTESIAN_POINT('',(5.950000000000004,-2.750000000000001,0.1));
#1478=DIRECTION('',(-1.0,0.0,0.0));
#1479=VECTOR('',#1478,0.900000000000007);
#1480=LINE('',#1477,#1479);
#1481=EDGE_CURVE('',#1432,#1470,#1480,.T.);
#1482=ORIENTED_EDGE('',*,*,#1481,.F.);
#1483=ORIENTED_EDGE('',*,*,#1437,.T.);
#1484=EDGE_LOOP('',(#1468,#1476,#1482,#1483));
#1485=FACE_OUTER_BOUND('',#1484,.T.);
#1486=ADVANCED_FACE('',(#1485),#1460,.T.);
#1487=CARTESIAN_POINT('',(5.049999999999997,-2.750000000000001,0.1));
#1488=DIRECTION('',(-1.0,0.0,0.0));
#1489=DIRECTION('',(0.0,0.0,1.0));
#1490=AXIS2_PLACEMENT_3D('',#1487,#1488,#1489);
#1491=PLANE('',#1490);
#1492=CARTESIAN_POINT('',(5.049999999999997,-1.449999999999999,-2.220446E-016));
#1493=VERTEX_POINT('',#1492);
#1494=CARTESIAN_POINT('',(5.049999999999997,-1.45,0.1));
#1495=DIRECTION('',(0.0,0.0,-1.0));
#1496=VECTOR('',#1495,0.1);
#1497=LINE('',#1494,#1496);
#1498=EDGE_CURVE('',#1462,#1493,#1497,.T.);
#1499=ORIENTED_EDGE('',*,*,#1498,.T.);
#1500=CARTESIAN_POINT('',(5.049999999999997,-2.750000000000001,9.860761E-032));
#1501=VERTEX_POINT('',#1500);
#1502=CARTESIAN_POINT('',(5.049999999999997,-2.750000000000001,9.860761E-032));
#1503=DIRECTION('',(0.0,1.0,0.0));
#1504=VECTOR('',#1503,1.300000000000002);
#1505=LINE('',#1502,#1504);
#1506=EDGE_CURVE('',#1501,#1493,#1505,.T.);
#1507=ORIENTED_EDGE('',*,*,#1506,.F.);
#1508=CARTESIAN_POINT('',(5.049999999999997,-2.750000000000001,0.1));
#1509=DIRECTION('',(0.0,0.0,-1.0));
#1510=VECTOR('',#1509,0.1);
#1511=LINE('',#1508,#1510);
#1512=EDGE_CURVE('',#1470,#1501,#1511,.T.);
#1513=ORIENTED_EDGE('',*,*,#1512,.F.);
#1514=ORIENTED_EDGE('',*,*,#1475,.T.);
#1515=EDGE_LOOP('',(#1499,#1507,#1513,#1514));
#1516=FACE_OUTER_BOUND('',#1515,.T.);
#1517=ADVANCED_FACE('',(#1516),#1491,.T.);
#1518=CARTESIAN_POINT('',(5.049999999999997,-2.750000000000001,9.860761E-032));
#1519=DIRECTION('',(0.0,0.0,-1.0));
#1520=DIRECTION('',(-1.0,0.0,0.0));
#1521=AXIS2_PLACEMENT_3D('',#1518,#1519,#1520);
#1522=PLANE('',#1521);
#1523=CARTESIAN_POINT('',(6.049999999999998,-1.449999999999999,-2.220446E-016));
#1524=VERTEX_POINT('',#1523);
#1525=CARTESIAN_POINT('',(5.049999999999997,-1.45,-2.220446E-016));
#1526=DIRECTION('',(1.0,0.0,0.0));
#1527=VECTOR('',#1526,1.000000000000001);
#1528=LINE('',#1525,#1527);
#1529=EDGE_CURVE('',#1493,#1524,#1528,.T.);
#1530=ORIENTED_EDGE('',*,*,#1529,.T.);
#1531=CARTESIAN_POINT('',(6.049999999999998,-2.750000000000001,9.860761E-032));
#1532=VERTEX_POINT('',#1531);
#1533=CARTESIAN_POINT('',(6.049999999999998,-2.750000000000001,9.860761E-032));
#1534=DIRECTION('',(0.0,1.0,0.0));
#1535=VECTOR('',#1534,1.300000000000002);
#1536=LINE('',#1533,#1535);
#1537=EDGE_CURVE('',#1532,#1524,#1536,.T.);
#1538=ORIENTED_EDGE('',*,*,#1537,.F.);
#1539=CARTESIAN_POINT('',(5.049999999999997,-2.750000000000001,9.860761E-032));
#1540=DIRECTION('',(1.0,0.0,0.0));
#1541=VECTOR('',#1540,1.000000000000001);
#1542=LINE('',#1539,#1541);
#1543=EDGE_CURVE('',#1501,#1532,#1542,.T.);
#1544=ORIENTED_EDGE('',*,*,#1543,.F.);
#1545=ORIENTED_EDGE('',*,*,#1506,.T.);
#1546=EDGE_LOOP('',(#1530,#1538,#1544,#1545));
#1547=FACE_OUTER_BOUND('',#1546,.T.);
#1548=ADVANCED_FACE('',(#1547),#1522,.T.);
#1549=CARTESIAN_POINT('',(6.049999999999998,-2.750000000000001,9.860761E-032));
#1550=DIRECTION('',(1.0,0.0,0.0));
#1551=DIRECTION('',(0.0,0.0,-1.0));
#1552=AXIS2_PLACEMENT_3D('',#1549,#1550,#1551);
#1553=PLANE('',#1552);
#1554=CARTESIAN_POINT('',(6.049999999999998,-1.449999999999999,1.6));
#1555=VERTEX_POINT('',#1554);
#1556=CARTESIAN_POINT('',(6.049999999999998,-1.45,-2.220446E-016));
#1557=DIRECTION('',(0.0,0.0,1.0));
#1558=VECTOR('',#1557,1.6);
#1559=LINE('',#1556,#1558);
#1560=EDGE_CURVE('',#1524,#1555,#1559,.T.);
#1561=ORIENTED_EDGE('',*,*,#1560,.T.);
#1562=CARTESIAN_POINT('',(6.049999999999998,-2.75,1.6));
#1563=VERTEX_POINT('',#1562);
#1564=CARTESIAN_POINT('',(6.049999999999998,-2.75,1.6));
#1565=DIRECTION('',(0.0,1.0,0.0));
#1566=VECTOR('',#1565,1.300000000000001);
#1567=LINE('',#1564,#1566);
#1568=EDGE_CURVE('',#1563,#1555,#1567,.T.);
#1569=ORIENTED_EDGE('',*,*,#1568,.F.);
#1570=CARTESIAN_POINT('',(6.049999999999998,-2.750000000000001,9.860761E-032));
#1571=DIRECTION('',(0.0,0.0,1.0));
#1572=VECTOR('',#1571,1.6);
#1573=LINE('',#1570,#1572);
#1574=EDGE_CURVE('',#1532,#1563,#1573,.T.);
#1575=ORIENTED_EDGE('',*,*,#1574,.F.);
#1576=ORIENTED_EDGE('',*,*,#1537,.T.);
#1577=EDGE_LOOP('',(#1561,#1569,#1575,#1576));
#1578=FACE_OUTER_BOUND('',#1577,.T.);
#1579=ADVANCED_FACE('',(#1578),#1553,.T.);
#1580=CARTESIAN_POINT('',(6.049999999999998,-2.75,1.6));
#1581=DIRECTION('',(0.0,0.0,1.0));
#1582=DIRECTION('',(1.0,0.0,0.0));
#1583=AXIS2_PLACEMENT_3D('',#1580,#1581,#1582);
#1584=PLANE('',#1583);
#1585=CARTESIAN_POINT('',(6.049999999999998,-1.449999999999999,1.6));
#1586=DIRECTION('',(-1.0,0.0,0.0));
#1587=VECTOR('',#1586,0.099999999999994);
#1588=LINE('',#1585,#1587);
#1589=EDGE_CURVE('',#1555,#1422,#1588,.T.);
#1590=ORIENTED_EDGE('',*,*,#1589,.T.);
#1591=ORIENTED_EDGE('',*,*,#1451,.F.);
#1592=CARTESIAN_POINT('',(6.049999999999998,-2.75,1.6));
#1593=DIRECTION('',(-1.0,0.0,0.0));
#1594=VECTOR('',#1593,0.099999999999994);
#1595=LINE('',#1592,#1594);
#1596=EDGE_CURVE('',#1563,#1440,#1595,.T.);
#1597=ORIENTED_EDGE('',*,*,#1596,.F.);
#1598=ORIENTED_EDGE('',*,*,#1568,.T.);
#1599=EDGE_LOOP('',(#1590,#1591,#1597,#1598));
#1600=FACE_OUTER_BOUND('',#1599,.T.);
#1601=ADVANCED_FACE('',(#1600),#1584,.T.);
#1602=CARTESIAN_POINT('',(5.809615384615384,-1.449999999999999,0.540384615384613));
#1603=DIRECTION('',(0.0,1.0,0.0));
#1604=DIRECTION('',(0.0,0.0,1.0));
#1605=AXIS2_PLACEMENT_3D('',#1602,#1603,#1604);
#1606=PLANE('',#1605);
#1607=ORIENTED_EDGE('',*,*,#1429,.F.);
#1608=ORIENTED_EDGE('',*,*,#1589,.F.);
#1609=ORIENTED_EDGE('',*,*,#1560,.F.);
#1610=ORIENTED_EDGE('',*,*,#1529,.F.);
#1611=ORIENTED_EDGE('',*,*,#1498,.F.);
#1612=ORIENTED_EDGE('',*,*,#1467,.F.);
#1613=EDGE_LOOP('',(#1607,#1608,#1609,#1610,#1611,#1612));
#1614=FACE_OUTER_BOUND('',#1613,.T.);
#1615=ADVANCED_FACE('',(#1614),#1606,.T.);
#1616=CARTESIAN_POINT('',(5.809615384615384,-2.75,0.540384615384614));
#1617=DIRECTION('',(0.0,1.0,0.0));
#1618=DIRECTION('',(0.0,0.0,1.0));
#1619=AXIS2_PLACEMENT_3D('',#1616,#1617,#1618);
#1620=PLANE('',#1619);
#1621=ORIENTED_EDGE('',*,*,#1596,.T.);
#1622=ORIENTED_EDGE('',*,*,#1445,.T.);
#1623=ORIENTED_EDGE('',*,*,#1481,.T.);
#1624=ORIENTED_EDGE('',*,*,#1512,.T.);
#1625=ORIENTED_EDGE('',*,*,#1543,.T.);
#1626=ORIENTED_EDGE('',*,*,#1574,.T.);
#1627=EDGE_LOOP('',(#1621,#1622,#1623,#1624,#1625,#1626));
#1628=FACE_OUTER_BOUND('',#1627,.T.);
#1629=ADVANCED_FACE('',(#1628),#1620,.F.);
#1630=CLOSED_SHELL('',(#1455,#1486,#1517,#1548,#1579,#1601,#1615,#1629));
#1631=MANIFOLD_SOLID_BREP('1C65',#1630);
#1632=STYLED_ITEM('NONE',(#763),#1631);
#1633=CARTESIAN_POINT('',(5.950000000000004,1.450000000000001,1.6));
#1634=DIRECTION('',(-1.0,0.0,0.0));
#1635=DIRECTION('',(0.0,0.0,1.0));
#1636=AXIS2_PLACEMENT_3D('',#1633,#1634,#1635);
#1637=PLANE('',#1636);
#1638=CARTESIAN_POINT('',(5.950000000000004,2.750000000000002,1.6));
#1639=VERTEX_POINT('',#1638);
#1640=CARTESIAN_POINT('',(5.950000000000004,2.750000000000002,0.1));
#1641=VERTEX_POINT('',#1640);
#1642=CARTESIAN_POINT('',(5.950000000000004,2.750000000000002,1.6));
#1643=DIRECTION('',(0.0,0.0,-1.0));
#1644=VECTOR('',#1643,1.5);
#1645=LINE('',#1642,#1644);
#1646=EDGE_CURVE('',#1639,#1641,#1645,.T.);
#1647=ORIENTED_EDGE('',*,*,#1646,.T.);
#1648=CARTESIAN_POINT('',(5.950000000000004,1.45,0.1));
#1649=VERTEX_POINT('',#1648);
#1650=CARTESIAN_POINT('',(5.950000000000004,1.45,0.1));
#1651=DIRECTION('',(0.0,1.0,0.0));
#1652=VECTOR('',#1651,1.300000000000002);
#1653=LINE('',#1650,#1652);
#1654=EDGE_CURVE('',#1649,#1641,#1653,.T.);
#1655=ORIENTED_EDGE('',*,*,#1654,.F.);
#1656=CARTESIAN_POINT('',(5.950000000000004,1.450000000000001,1.6));
#1657=VERTEX_POINT('',#1656);
#1658=CARTESIAN_POINT('',(5.950000000000004,1.450000000000001,1.6));
#1659=DIRECTION('',(0.0,0.0,-1.0));
#1660=VECTOR('',#1659,1.5);
#1661=LINE('',#1658,#1660);
#1662=EDGE_CURVE('',#1657,#1649,#1661,.T.);
#1663=ORIENTED_EDGE('',*,*,#1662,.F.);
#1664=CARTESIAN_POINT('',(5.950000000000004,1.450000000000001,1.6));
#1665=DIRECTION('',(0.0,1.0,0.0));
#1666=VECTOR('',#1665,1.300000000000001);
#1667=LINE('',#1664,#1666);
#1668=EDGE_CURVE('',#1657,#1639,#1667,.T.);
#1669=ORIENTED_EDGE('',*,*,#1668,.T.);
#1670=EDGE_LOOP('',(#1647,#1655,#1663,#1669));
#1671=FACE_OUTER_BOUND('',#1670,.T.);
#1672=ADVANCED_FACE('',(#1671),#1637,.T.);
#1673=CARTESIAN_POINT('',(5.950000000000004,1.45,0.1));
#1674=DIRECTION('',(0.0,0.0,1.0));
#1675=DIRECTION('',(1.0,0.0,0.0));
#1676=AXIS2_PLACEMENT_3D('',#1673,#1674,#1675);
#1677=PLANE('',#1676);
#1678=CARTESIAN_POINT('',(5.049999999999997,2.750000000000002,0.1));
#1679=VERTEX_POINT('',#1678);
#1680=CARTESIAN_POINT('',(5.950000000000004,2.750000000000001,0.1));
#1681=DIRECTION('',(-1.0,0.0,0.0));
#1682=VECTOR('',#1681,0.900000000000007);
#1683=LINE('',#1680,#1682);
#1684=EDGE_CURVE('',#1641,#1679,#1683,.T.);
#1685=ORIENTED_EDGE('',*,*,#1684,.T.);
#1686=CARTESIAN_POINT('',(5.049999999999997,1.45,0.1));
#1687=VERTEX_POINT('',#1686);
#1688=CARTESIAN_POINT('',(5.049999999999997,1.45,0.1));
#1689=DIRECTION('',(0.0,1.0,0.0));
#1690=VECTOR('',#1689,1.300000000000002);
#1691=LINE('',#1688,#1690);
#1692=EDGE_CURVE('',#1687,#1679,#1691,.T.);
#1693=ORIENTED_EDGE('',*,*,#1692,.F.);
#1694=CARTESIAN_POINT('',(5.950000000000004,1.45,0.1));
#1695=DIRECTION('',(-1.0,0.0,0.0));
#1696=VECTOR('',#1695,0.900000000000007);
#1697=LINE('',#1694,#1696);
#1698=EDGE_CURVE('',#1649,#1687,#1697,.T.);
#1699=ORIENTED_EDGE('',*,*,#1698,.F.);
#1700=ORIENTED_EDGE('',*,*,#1654,.T.);
#1701=EDGE_LOOP('',(#1685,#1693,#1699,#1700));
#1702=FACE_OUTER_BOUND('',#1701,.T.);
#1703=ADVANCED_FACE('',(#1702),#1677,.T.);
#1704=CARTESIAN_POINT('',(5.049999999999997,1.45,0.1));
#1705=DIRECTION('',(-1.0,0.0,0.0));
#1706=DIRECTION('',(0.0,0.0,1.0));
#1707=AXIS2_PLACEMENT_3D('',#1704,#1705,#1706);
#1708=PLANE('',#1707);
#1709=CARTESIAN_POINT('',(5.049999999999997,2.750000000000002,-2.220446E-016));
#1710=VERTEX_POINT('',#1709);
#1711=CARTESIAN_POINT('',(5.049999999999997,2.750000000000001,0.1));
#1712=DIRECTION('',(0.0,0.0,-1.0));
#1713=VECTOR('',#1712,0.1);
#1714=LINE('',#1711,#1713);
#1715=EDGE_CURVE('',#1679,#1710,#1714,.T.);
#1716=ORIENTED_EDGE('',*,*,#1715,.T.);
#1717=CARTESIAN_POINT('',(5.049999999999997,1.45,9.860761E-032));
#1718=VERTEX_POINT('',#1717);
#1719=CARTESIAN_POINT('',(5.049999999999997,1.45,9.860761E-032));
#1720=DIRECTION('',(0.0,1.0,0.0));
#1721=VECTOR('',#1720,1.300000000000002);
#1722=LINE('',#1719,#1721);
#1723=EDGE_CURVE('',#1718,#1710,#1722,.T.);
#1724=ORIENTED_EDGE('',*,*,#1723,.F.);
#1725=CARTESIAN_POINT('',(5.049999999999997,1.45,0.1));
#1726=DIRECTION('',(0.0,0.0,-1.0));
#1727=VECTOR('',#1726,0.1);
#1728=LINE('',#1725,#1727);
#1729=EDGE_CURVE('',#1687,#1718,#1728,.T.);
#1730=ORIENTED_EDGE('',*,*,#1729,.F.);
#1731=ORIENTED_EDGE('',*,*,#1692,.T.);
#1732=EDGE_LOOP('',(#1716,#1724,#1730,#1731));
#1733=FACE_OUTER_BOUND('',#1732,.T.);
#1734=ADVANCED_FACE('',(#1733),#1708,.T.);
#1735=CARTESIAN_POINT('',(5.049999999999997,1.45,9.860761E-032));
#1736=DIRECTION('',(0.0,0.0,-1.0));
#1737=DIRECTION('',(-1.0,0.0,0.0));
#1738=AXIS2_PLACEMENT_3D('',#1735,#1736,#1737);
#1739=PLANE('',#1738);
#1740=CARTESIAN_POINT('',(6.049999999999998,2.750000000000002,-2.220446E-016));
#1741=VERTEX_POINT('',#1740);
#1742=CARTESIAN_POINT('',(5.049999999999997,2.750000000000001,-2.220446E-016));
#1743=DIRECTION('',(1.0,0.0,0.0));
#1744=VECTOR('',#1743,1.000000000000001);
#1745=LINE('',#1742,#1744);
#1746=EDGE_CURVE('',#1710,#1741,#1745,.T.);
#1747=ORIENTED_EDGE('',*,*,#1746,.T.);
#1748=CARTESIAN_POINT('',(6.049999999999998,1.45,9.860761E-032));
#1749=VERTEX_POINT('',#1748);
#1750=CARTESIAN_POINT('',(6.049999999999998,1.45,9.860761E-032));
#1751=DIRECTION('',(0.0,1.0,0.0));
#1752=VECTOR('',#1751,1.300000000000002);
#1753=LINE('',#1750,#1752);
#1754=EDGE_CURVE('',#1749,#1741,#1753,.T.);
#1755=ORIENTED_EDGE('',*,*,#1754,.F.);
#1756=CARTESIAN_POINT('',(5.049999999999997,1.45,9.860761E-032));
#1757=DIRECTION('',(1.0,0.0,0.0));
#1758=VECTOR('',#1757,1.000000000000001);
#1759=LINE('',#1756,#1758);
#1760=EDGE_CURVE('',#1718,#1749,#1759,.T.);
#1761=ORIENTED_EDGE('',*,*,#1760,.F.);
#1762=ORIENTED_EDGE('',*,*,#1723,.T.);
#1763=EDGE_LOOP('',(#1747,#1755,#1761,#1762));
#1764=FACE_OUTER_BOUND('',#1763,.T.);
#1765=ADVANCED_FACE('',(#1764),#1739,.T.);
#1766=CARTESIAN_POINT('',(6.049999999999998,1.45,9.860761E-032));
#1767=DIRECTION('',(1.0,0.0,0.0));
#1768=DIRECTION('',(0.0,0.0,-1.0));
#1769=AXIS2_PLACEMENT_3D('',#1766,#1767,#1768);
#1770=PLANE('',#1769);
#1771=CARTESIAN_POINT('',(6.049999999999998,2.750000000000002,1.6));
#1772=VERTEX_POINT('',#1771);
#1773=CARTESIAN_POINT('',(6.049999999999998,2.750000000000001,-2.220446E-016));
#1774=DIRECTION('',(0.0,0.0,1.0));
#1775=VECTOR('',#1774,1.6);
#1776=LINE('',#1773,#1775);
#1777=EDGE_CURVE('',#1741,#1772,#1776,.T.);
#1778=ORIENTED_EDGE('',*,*,#1777,.T.);
#1779=CARTESIAN_POINT('',(6.049999999999998,1.450000000000001,1.6));
#1780=VERTEX_POINT('',#1779);
#1781=CARTESIAN_POINT('',(6.049999999999998,1.450000000000001,1.6));
#1782=DIRECTION('',(0.0,1.0,0.0));
#1783=VECTOR('',#1782,1.300000000000001);
#1784=LINE('',#1781,#1783);
#1785=EDGE_CURVE('',#1780,#1772,#1784,.T.);
#1786=ORIENTED_EDGE('',*,*,#1785,.F.);
#1787=CARTESIAN_POINT('',(6.049999999999998,1.45,9.860761E-032));
#1788=DIRECTION('',(0.0,0.0,1.0));
#1789=VECTOR('',#1788,1.6);
#1790=LINE('',#1787,#1789);
#1791=EDGE_CURVE('',#1749,#1780,#1790,.T.);
#1792=ORIENTED_EDGE('',*,*,#1791,.F.);
#1793=ORIENTED_EDGE('',*,*,#1754,.T.);
#1794=EDGE_LOOP('',(#1778,#1786,#1792,#1793));
#1795=FACE_OUTER_BOUND('',#1794,.T.);
#1796=ADVANCED_FACE('',(#1795),#1770,.T.);
#1797=CARTESIAN_POINT('',(6.049999999999998,1.450000000000001,1.6));
#1798=DIRECTION('',(0.0,0.0,1.0));
#1799=DIRECTION('',(1.0,0.0,0.0));
#1800=AXIS2_PLACEMENT_3D('',#1797,#1798,#1799);
#1801=PLANE('',#1800);
#1802=CARTESIAN_POINT('',(6.049999999999998,2.750000000000002,1.6));
#1803=DIRECTION('',(-1.0,0.0,0.0));
#1804=VECTOR('',#1803,0.099999999999994);
#1805=LINE('',#1802,#1804);
#1806=EDGE_CURVE('',#1772,#1639,#1805,.T.);
#1807=ORIENTED_EDGE('',*,*,#1806,.T.);
#1808=ORIENTED_EDGE('',*,*,#1668,.F.);
#1809=CARTESIAN_POINT('',(6.049999999999998,1.450000000000001,1.6));
#1810=DIRECTION('',(-1.0,0.0,0.0));
#1811=VECTOR('',#1810,0.099999999999994);
#1812=LINE('',#1809,#1811);
#1813=EDGE_CURVE('',#1780,#1657,#1812,.T.);
#1814=ORIENTED_EDGE('',*,*,#1813,.F.);
#1815=ORIENTED_EDGE('',*,*,#1785,.T.);
#1816=EDGE_LOOP('',(#1807,#1808,#1814,#1815));
#1817=FACE_OUTER_BOUND('',#1816,.T.);
#1818=ADVANCED_FACE('',(#1817),#1801,.T.);
#1819=CARTESIAN_POINT('',(5.809615384615384,2.750000000000002,0.540384615384613));
#1820=DIRECTION('',(0.0,1.0,0.0));
#1821=DIRECTION('',(0.0,0.0,1.0));
#1822=AXIS2_PLACEMENT_3D('',#1819,#1820,#1821);
#1823=PLANE('',#1822);
#1824=ORIENTED_EDGE('',*,*,#1646,.F.);
#1825=ORIENTED_EDGE('',*,*,#1806,.F.);
#1826=ORIENTED_EDGE('',*,*,#1777,.F.);
#1827=ORIENTED_EDGE('',*,*,#1746,.F.);
#1828=ORIENTED_EDGE('',*,*,#1715,.F.);
#1829=ORIENTED_EDGE('',*,*,#1684,.F.);
#1830=EDGE_LOOP('',(#1824,#1825,#1826,#1827,#1828,#1829));
#1831=FACE_OUTER_BOUND('',#1830,.T.);
#1832=ADVANCED_FACE('',(#1831),#1823,.T.);
#1833=CARTESIAN_POINT('',(5.809615384615384,1.450000000000001,0.540384615384614));
#1834=DIRECTION('',(0.0,1.0,0.0));
#1835=DIRECTION('',(0.0,0.0,1.0));
#1836=AXIS2_PLACEMENT_3D('',#1833,#1834,#1835);
#1837=PLANE('',#1836);
#1838=ORIENTED_EDGE('',*,*,#1813,.T.);
#1839=ORIENTED_EDGE('',*,*,#1662,.T.);
#1840=ORIENTED_EDGE('',*,*,#1698,.T.);
#1841=ORIENTED_EDGE('',*,*,#1729,.T.);
#1842=ORIENTED_EDGE('',*,*,#1760,.T.);
#1843=ORIENTED_EDGE('',*,*,#1791,.T.);
#1844=EDGE_LOOP('',(#1838,#1839,#1840,#1841,#1842,#1843));
#1845=FACE_OUTER_BOUND('',#1844,.T.);
#1846=ADVANCED_FACE('',(#1845),#1837,.F.);
#1847=CLOSED_SHELL('',(#1672,#1703,#1734,#1765,#1796,#1818,#1832,#1846));
#1848=MANIFOLD_SOLID_BREP('1C61',#1847);
#1849=STYLED_ITEM('NONE',(#763),#1848);
#1850=ADVANCED_BREP_SHAPE_REPRESENTATION('ABSR1',(#152,#532,#756,#980,#1197,#1414,#1631,#1848),#28);
#1851=SHAPE_REPRESENTATION_RELATIONSHIP('SRRPL1','',#1850,#62);
ENDSEC;
END-ISO-10303-21;
