ISO-10303-21;
HEADER;
/* Generated by software containing ST-Developer
 * from STEP Tools, Inc. (www.steptools.com) 
 */

FILE_DESCRIPTION(
/* description */ (''),
/* implementation_level */ '2;1');

FILE_NAME(
/* name */ 
'G:\\Applications\\Altium\\CernLib\\StepLib\\FUSE_6.3X32_CERAMIC_H_Par
t1.stp',
/* time_stamp */ '2015-05-18T16:50:20+02:00',
/* author */ ('admchouv'),
/* organization */ (''),
/* preprocessor_version */ 'ST-DEVELOPER v15.5',
/* originating_system */ 'AutoCAD Mechanical',
/* authorisation */ '');

FILE_SCHEMA (('AUTOMOTIVE_DESIGN { 1 0 10303 214 3 1 1 }'));
ENDSEC;

DATA;
#10=MECHANICAL_DESIGN_GEOMETRIC_PRESENTATION_REPRESENTATION('',(#17,#18),
#202);
#11=DIMENSIONAL_EXPONENTS(0.,0.,0.,0.,0.,0.,0.);
#12=(
CONVERSION_BASED_UNIT('degree',#13)
NAMED_UNIT(#11)
PLANE_ANGLE_UNIT()
);
#13=PLANE_ANGLE_MEASURE_WITH_UNIT(PLANE_ANGLE_MEASURE(0.01745329252),#205);
#14=PRESENTATION_LAYER_ASSIGNMENT('3D','',(#113,#114));
#15=SHAPE_REPRESENTATION_RELATIONSHIP('SRR','None',#208,#16);
#16=ADVANCED_BREP_SHAPE_REPRESENTATION($,(#113,#114),#201);
#17=STYLED_ITEM($,(#218),#113);
#18=STYLED_ITEM($,(#218),#114);
#19=PLANE($,#121);
#20=PLANE($,#124);
#21=PLANE($,#130);
#22=PLANE($,#133);
#23=CYLINDRICAL_SURFACE($,#119,3.15);
#24=CYLINDRICAL_SURFACE($,#128,3.15);
#25=FACE_BOUND($,#42,.T.);
#26=FACE_BOUND($,#44,.T.);
#27=FACE_BOUND($,#47,.T.);
#28=FACE_BOUND($,#50,.T.);
#29=FACE_BOUND($,#52,.T.);
#30=FACE_BOUND($,#55,.T.);
#31=FACE_OUTER_BOUND($,#41,.T.);
#32=FACE_OUTER_BOUND($,#43,.T.);
#33=FACE_OUTER_BOUND($,#45,.T.);
#34=FACE_OUTER_BOUND($,#46,.T.);
#35=FACE_OUTER_BOUND($,#48,.T.);
#36=FACE_OUTER_BOUND($,#49,.T.);
#37=FACE_OUTER_BOUND($,#51,.T.);
#38=FACE_OUTER_BOUND($,#53,.T.);
#39=FACE_OUTER_BOUND($,#54,.T.);
#40=FACE_OUTER_BOUND($,#56,.T.);
#41=EDGE_LOOP($,(#81));
#42=EDGE_LOOP($,(#82));
#43=EDGE_LOOP($,(#83));
#44=EDGE_LOOP($,(#84));
#45=EDGE_LOOP($,(#85));
#46=EDGE_LOOP($,(#86));
#47=EDGE_LOOP($,(#87));
#48=EDGE_LOOP($,(#88));
#49=EDGE_LOOP($,(#89));
#50=EDGE_LOOP($,(#90));
#51=EDGE_LOOP($,(#91));
#52=EDGE_LOOP($,(#92));
#53=EDGE_LOOP($,(#93));
#54=EDGE_LOOP($,(#94));
#55=EDGE_LOOP($,(#95));
#56=EDGE_LOOP($,(#96));
#57=CIRCLE($,#117,3.1);
#58=CIRCLE($,#118,3.15);
#59=CIRCLE($,#120,3.15);
#60=CIRCLE($,#123,2.65);
#61=CIRCLE($,#126,3.1);
#62=CIRCLE($,#127,3.15);
#63=CIRCLE($,#129,3.15);
#64=CIRCLE($,#132,2.65);
#65=VERTEX_POINT($,#174);
#66=VERTEX_POINT($,#176);
#67=VERTEX_POINT($,#179);
#68=VERTEX_POINT($,#183);
#69=VERTEX_POINT($,#187);
#70=VERTEX_POINT($,#189);
#71=VERTEX_POINT($,#192);
#72=VERTEX_POINT($,#196);
#73=EDGE_CURVE($,#65,#65,#57,.T.);
#74=EDGE_CURVE($,#66,#66,#58,.T.);
#75=EDGE_CURVE($,#67,#67,#59,.T.);
#76=EDGE_CURVE($,#68,#68,#60,.T.);
#77=EDGE_CURVE($,#69,#69,#61,.T.);
#78=EDGE_CURVE($,#70,#70,#62,.T.);
#79=EDGE_CURVE($,#71,#71,#63,.T.);
#80=EDGE_CURVE($,#72,#72,#64,.T.);
#81=ORIENTED_EDGE($,*,*,#73,.T.);
#82=ORIENTED_EDGE($,*,*,#74,.T.);
#83=ORIENTED_EDGE($,*,*,#75,.F.);
#84=ORIENTED_EDGE($,*,*,#74,.F.);
#85=ORIENTED_EDGE($,*,*,#73,.F.);
#86=ORIENTED_EDGE($,*,*,#76,.T.);
#87=ORIENTED_EDGE($,*,*,#75,.T.);
#88=ORIENTED_EDGE($,*,*,#76,.F.);
#89=ORIENTED_EDGE($,*,*,#77,.F.);
#90=ORIENTED_EDGE($,*,*,#78,.F.);
#91=ORIENTED_EDGE($,*,*,#79,.T.);
#92=ORIENTED_EDGE($,*,*,#78,.T.);
#93=ORIENTED_EDGE($,*,*,#77,.T.);
#94=ORIENTED_EDGE($,*,*,#80,.F.);
#95=ORIENTED_EDGE($,*,*,#79,.F.);
#96=ORIENTED_EDGE($,*,*,#80,.T.);
#97=TOROIDAL_SURFACE($,#116,3.1,0.05);
#98=TOROIDAL_SURFACE($,#122,2.65,0.5);
#99=TOROIDAL_SURFACE($,#125,3.1,0.05);
#100=TOROIDAL_SURFACE($,#131,2.65,0.5);
#101=ADVANCED_FACE($,(#31,#25),#97,.T.);
#102=ADVANCED_FACE($,(#32,#26),#23,.T.);
#103=ADVANCED_FACE($,(#33),#19,.T.);
#104=ADVANCED_FACE($,(#34,#27),#98,.T.);
#105=ADVANCED_FACE($,(#35),#20,.F.);
#106=ADVANCED_FACE($,(#36,#28),#99,.T.);
#107=ADVANCED_FACE($,(#37,#29),#24,.T.);
#108=ADVANCED_FACE($,(#38),#21,.F.);
#109=ADVANCED_FACE($,(#39,#30),#100,.T.);
#110=ADVANCED_FACE($,(#40),#22,.T.);
#111=CLOSED_SHELL($,(#101,#102,#103,#104,#105));
#112=CLOSED_SHELL($,(#106,#107,#108,#109,#110));
#113=MANIFOLD_SOLID_BREP('88E',#111);
#114=MANIFOLD_SOLID_BREP('8A1',#112);
#115=AXIS2_PLACEMENT_3D('placement',#172,#134,#135);
#116=AXIS2_PLACEMENT_3D($,#173,#136,#137);
#117=AXIS2_PLACEMENT_3D($,#175,#138,#139);
#118=AXIS2_PLACEMENT_3D($,#177,#140,#141);
#119=AXIS2_PLACEMENT_3D($,#178,#142,#143);
#120=AXIS2_PLACEMENT_3D($,#180,#144,#145);
#121=AXIS2_PLACEMENT_3D($,#181,#146,#147);
#122=AXIS2_PLACEMENT_3D($,#182,#148,#149);
#123=AXIS2_PLACEMENT_3D($,#184,#150,#151);
#124=AXIS2_PLACEMENT_3D($,#185,#152,#153);
#125=AXIS2_PLACEMENT_3D($,#186,#154,#155);
#126=AXIS2_PLACEMENT_3D($,#188,#156,#157);
#127=AXIS2_PLACEMENT_3D($,#190,#158,#159);
#128=AXIS2_PLACEMENT_3D($,#191,#160,#161);
#129=AXIS2_PLACEMENT_3D($,#193,#162,#163);
#130=AXIS2_PLACEMENT_3D($,#194,#164,#165);
#131=AXIS2_PLACEMENT_3D($,#195,#166,#167);
#132=AXIS2_PLACEMENT_3D($,#197,#168,#169);
#133=AXIS2_PLACEMENT_3D($,#198,#170,#171);
#134=DIRECTION('axis',(0.,0.,1.));
#135=DIRECTION('refdir',(1.,0.,0.));
#136=DIRECTION('center_axis',(-1.,0.,-2.22044604925031E-16));
#137=DIRECTION('ref_axis',(0.,0.,1.));
#138=DIRECTION('center_axis',(-1.,0.,-2.22044604925031E-16));
#139=DIRECTION('ref_axis',(2.71917234023173E-32,-1.,-1.22460635382238E-16));
#140=DIRECTION('center_axis',(1.,0.,2.22044604925031E-16));
#141=DIRECTION('ref_axis',(0.,-1.,-1.22460635382238E-16));
#142=DIRECTION('center_axis',(1.,0.,2.22044604925031E-16));
#143=DIRECTION('ref_axis',(0.,1.,0.));
#144=DIRECTION('center_axis',(-1.,0.,-2.22044604925031E-16));
#145=DIRECTION('ref_axis',(0.,-1.,1.22460635382238E-16));
#146=DIRECTION('center_axis',(1.,0.,2.22044604925031E-16));
#147=DIRECTION('ref_axis',(0.,0.,-1.));
#148=DIRECTION('center_axis',(1.,0.,2.22044604925031E-16));
#149=DIRECTION('ref_axis',(0.,0.,-1.));
#150=DIRECTION('center_axis',(1.,0.,2.22044604925031E-16));
#151=DIRECTION('ref_axis',(-2.71917234023173E-32,-1.,1.22460635382238E-16));
#152=DIRECTION('center_axis',(1.,0.,2.22044604925031E-16));
#153=DIRECTION('ref_axis',(0.,0.,-1.));
#154=DIRECTION('center_axis',(1.,0.,-2.22044604925031E-16));
#155=DIRECTION('ref_axis',(0.,0.,1.));
#156=DIRECTION('center_axis',(-1.,0.,2.22044604925031E-16));
#157=DIRECTION('ref_axis',(-2.71917234023173E-32,-1.,-1.22460635382238E-16));
#158=DIRECTION('center_axis',(1.,0.,-2.22044604925031E-16));
#159=DIRECTION('ref_axis',(0.,-1.,-1.22460635382238E-16));
#160=DIRECTION('center_axis',(1.,0.,-2.22044604925031E-16));
#161=DIRECTION('ref_axis',(0.,1.,0.));
#162=DIRECTION('center_axis',(-1.,0.,2.22044604925031E-16));
#163=DIRECTION('ref_axis',(0.,-1.,1.22460635382238E-16));
#164=DIRECTION('center_axis',(1.,0.,-2.22044604925031E-16));
#165=DIRECTION('ref_axis',(0.,0.,-1.));
#166=DIRECTION('center_axis',(-1.,0.,2.22044604925031E-16));
#167=DIRECTION('ref_axis',(0.,0.,-1.));
#168=DIRECTION('center_axis',(1.,0.,-2.22044604925031E-16));
#169=DIRECTION('ref_axis',(2.71917234023173E-32,-1.,1.22460635382238E-16));
#170=DIRECTION('center_axis',(1.,0.,-2.22044604925031E-16));
#171=DIRECTION('ref_axis',(0.,0.,-1.));
#172=CARTESIAN_POINT('',(0.,0.,0.));
#173=CARTESIAN_POINT('Origin',(-9.75,0.,3.15));
#174=CARTESIAN_POINT('',(-9.7,3.1,3.15));
#175=CARTESIAN_POINT('Origin',(-9.7,0.,3.15));
#176=CARTESIAN_POINT('',(-9.75,3.15,3.15));
#177=CARTESIAN_POINT('Origin',(-9.75,0.,3.15));
#178=CARTESIAN_POINT('Origin',(-16.,0.,3.15));
#179=CARTESIAN_POINT('',(-15.5,3.15,3.15));
#180=CARTESIAN_POINT('Origin',(-15.5,0.,3.15));
#181=CARTESIAN_POINT('Origin',(-9.7,0.,3.15));
#182=CARTESIAN_POINT('Origin',(-15.5,0.,3.15));
#183=CARTESIAN_POINT('',(-16.,2.65,3.15));
#184=CARTESIAN_POINT('Origin',(-16.,0.,3.15));
#185=CARTESIAN_POINT('Origin',(-16.,0.,3.15));
#186=CARTESIAN_POINT('Origin',(9.75,0.,3.15));
#187=CARTESIAN_POINT('',(9.7,3.1,3.15));
#188=CARTESIAN_POINT('Origin',(9.7,0.,3.15));
#189=CARTESIAN_POINT('',(9.75,3.15,3.15));
#190=CARTESIAN_POINT('Origin',(9.75,0.,3.15));
#191=CARTESIAN_POINT('Origin',(16.,0.,3.15));
#192=CARTESIAN_POINT('',(15.5,3.15,3.15));
#193=CARTESIAN_POINT('Origin',(15.5,0.,3.15));
#194=CARTESIAN_POINT('Origin',(9.7,0.,3.15));
#195=CARTESIAN_POINT('Origin',(15.5,0.,3.15));
#196=CARTESIAN_POINT('',(16.,2.65,3.15));
#197=CARTESIAN_POINT('Origin',(16.,0.,3.15));
#198=CARTESIAN_POINT('Origin',(16.,0.,3.15));
#199=UNCERTAINTY_MEASURE_WITH_UNIT(LENGTH_MEASURE(0.01),#203,
'DISTANCE_ACCURACY_VALUE',
'Maximum model space distance between geometric entities at asserted c
onnectivities');
#200=UNCERTAINTY_MEASURE_WITH_UNIT(LENGTH_MEASURE(1.E-6),#203,
'DISTANCE_ACCURACY_VALUE',
'Maximum model space distance between geometric entities at asserted c
onnectivities');
#201=(
GEOMETRIC_REPRESENTATION_CONTEXT(3)
GLOBAL_UNCERTAINTY_ASSIGNED_CONTEXT((#199))
GLOBAL_UNIT_ASSIGNED_CONTEXT((#203,#205,#204))
REPRESENTATION_CONTEXT('','3D')
);
#202=(
GEOMETRIC_REPRESENTATION_CONTEXT(3)
GLOBAL_UNCERTAINTY_ASSIGNED_CONTEXT((#200))
GLOBAL_UNIT_ASSIGNED_CONTEXT((#203,#12,#204))
REPRESENTATION_CONTEXT('','3D')
);
#203=(
LENGTH_UNIT()
NAMED_UNIT(*)
SI_UNIT(.MILLI.,.METRE.)
);
#204=(
NAMED_UNIT(*)
SI_UNIT($,.STERADIAN.)
SOLID_ANGLE_UNIT()
);
#205=(
NAMED_UNIT(*)
PLANE_ANGLE_UNIT()
SI_UNIT($,.RADIAN.)
);
#206=SHAPE_DEFINITION_REPRESENTATION(#207,#208);
#207=PRODUCT_DEFINITION_SHAPE('',$,#210);
#208=SHAPE_REPRESENTATION('',(#115),#201);
#209=PRODUCT_DEFINITION_CONTEXT('part definition',#214,'design');
#210=PRODUCT_DEFINITION('Product','Product',#211,#209);
#211=PRODUCT_DEFINITION_FORMATION('',$,#216);
#212=PRODUCT_RELATED_PRODUCT_CATEGORY('Product','Product',(#216));
#213=APPLICATION_PROTOCOL_DEFINITION('international standard',
'automotive_design',2009,#214);
#214=APPLICATION_CONTEXT(
'Core Data for Automotive Mechanical Design Process');
#215=PRODUCT_CONTEXT('part definition',#214,'mechanical');
#216=PRODUCT('Product','Product',$,(#215));
#217=PRESENTATION_STYLE_ASSIGNMENT((#219));
#218=PRESENTATION_STYLE_ASSIGNMENT((#220));
#219=SURFACE_STYLE_USAGE(.BOTH.,#221);
#220=SURFACE_STYLE_USAGE(.BOTH.,#222);
#221=SURFACE_SIDE_STYLE($,(#223));
#222=SURFACE_SIDE_STYLE($,(#224));
#223=SURFACE_STYLE_FILL_AREA(#225);
#224=SURFACE_STYLE_FILL_AREA(#226);
#225=FILL_AREA_STYLE($,(#227));
#226=FILL_AREA_STYLE($,(#228));
#227=FILL_AREA_STYLE_COLOUR($,#229);
#228=FILL_AREA_STYLE_COLOUR($,#230);
#229=COLOUR_RGB('',1.,1.,1.);
#230=COLOUR_RGB('',0.733333333333333,0.733333333333333,0.733333333333333);
ENDSEC;
END-ISO-10303-21;
