ISO-10303-21;
HEADER;
/****************************************************************
 * Generated by software with PDElib inside                    *
 * PDElib Version v51a, created Fri 09/10/2010                  *
 * ITI Transcendata (http://www.transcendata.com/)              *
 ****************************************************************/
FILE_DESCRIPTION((''),'2;1');
FILE_NAME('FUSE_5X20_GLASS_h_Part2.stp','2013-08-21T11:40:01',(''),(''),'Mechanical Desktop 2011','Mechanical Desktop 2011',', , ');
FILE_SCHEMA(('AUTOMOTIVE_DESIGN { 1 2 10303 214 1 1 1 1 }'));
ENDSEC;
DATA;
#10=(NAMED_UNIT(*)PLANE_ANGLE_UNIT()SI_UNIT($,.RADIAN.));
#11=DIMENSIONAL_EXPONENTS(0.0,0.0,0.0,0.0,0.0,0.0,0.0);
#12=PLANE_ANGLE_MEASURE_WITH_UNIT(PLANE_ANGLE_MEASURE(0.0174532925),#10);
#16=(CONVERSION_BASED_UNIT('DEGREE',#12)NAMED_UNIT(#11)PLANE_ANGLE_UNIT());
#20=(NAMED_UNIT(*)SI_UNIT($,.STERADIAN.)SOLID_ANGLE_UNIT());
#24=(LENGTH_UNIT()NAMED_UNIT(*)SI_UNIT(.MILLI.,.METRE.));
#26=UNCERTAINTY_MEASURE_WITH_UNIT(LENGTH_MEASURE(0.000001),#24,'DISTANCE_ACCURACY_VALUE','');
#28=(GEOMETRIC_REPRESENTATION_CONTEXT(3)GLOBAL_UNCERTAINTY_ASSIGNED_CONTEXT((#26))GLOBAL_UNIT_ASSIGNED_CONTEXT((#16,#20,#24))REPRESENTATION_CONTEXT('','3D'));
#29=APPLICATION_CONTEXT('automotive design');
#30=APPLICATION_PROTOCOL_DEFINITION('INTERNATIONAL_STANDARD','automotive_design',1998,#29);
#31=PRODUCT_CONTEXT('3D Mechanical Parts',#29,'mechanical');
#32=PRODUCT('Product','Product','',(#31));
#33=PRODUCT_RELATED_PRODUCT_CATEGORY('part',$,(#32));
#34=PRODUCT_CATEGORY('part',$);
#35=PERSON('1','Design','Joe',$,$,$);
#36=ORGANIZATION($,'None','None');
#37=PERSON_AND_ORGANIZATION(#35,#36);
#38=PERSON_AND_ORGANIZATION_ROLE('design_owner');
#39=APPLIED_PERSON_AND_ORGANIZATION_ASSIGNMENT(#37,#38,(#32));
#40=PRODUCT_DEFINITION_FORMATION_WITH_SPECIFIED_SOURCE('None','',#32,.BOUGHT.);
#41=PERSON('2','Creator','Joe',$,$,$);
#42=ORGANIZATION($,'None','None');
#43=PERSON_AND_ORGANIZATION(#41,#42);
#44=PERSON_AND_ORGANIZATION_ROLE('creator');
#45=APPLIED_PERSON_AND_ORGANIZATION_ASSIGNMENT(#43,#44,(#40));
#46=PERSON('3','Supplier','Joe',$,$,$);
#47=ORGANIZATION($,'None','None');
#48=PERSON_AND_ORGANIZATION(#46,#47);
#49=PERSON_AND_ORGANIZATION_ROLE('design_supplier');
#50=APPLIED_PERSON_AND_ORGANIZATION_ASSIGNMENT(#48,#49,(#40));
#51=PRODUCT_DEFINITION_CONTEXT('part definition',#29,'design');
#52=PRODUCT_DEFINITION('None','',#40,#51);
#53=PERSON('4','Creator','Joe',$,$,$);
#54=ORGANIZATION($,'None','None');
#55=PERSON_AND_ORGANIZATION(#53,#54);
#56=PERSON_AND_ORGANIZATION_ROLE('creator');
#57=APPLIED_PERSON_AND_ORGANIZATION_ASSIGNMENT(#55,#56,(#52));
#58=CARTESIAN_POINT('NONE',(0.0,0.0,0.0));
#59=DIRECTION('NONE',(0.0,0.0,1.0));
#60=DIRECTION('NONE',(1.0,0.0,0.0));
#61=AXIS2_PLACEMENT_3D('NONE',#58,#59,#60);
#62=SHAPE_REPRESENTATION('SR1',(#61),#28);
#63=PRODUCT_DEFINITION_SHAPE('PDS1','Test Part',#52);
#64=SHAPE_DEFINITION_REPRESENTATION(#63,#62);
#65=CARTESIAN_POINT('',(-10.0,4.592274E-016,2.499999999999999));
#66=DIRECTION('',(1.0,0.0,2.220446E-016));
#67=DIRECTION('',(0.0,1.0,0.0));
#68=AXIS2_PLACEMENT_3D('',#65,#66,#67);
#69=CYLINDRICAL_SURFACE('',#68,2.1);
#70=CARTESIAN_POINT('',(9.5,2.100000000000001,2.500000000000003));
#71=VERTEX_POINT('',#70);
#72=CARTESIAN_POINT('',(-9.5,2.100000000000001,2.499999999999999));
#73=VERTEX_POINT('',#72);
#74=CARTESIAN_POINT('',(9.5,2.100000000000001,2.500000000000003));
#75=DIRECTION('',(-1.0,0.0,0.0));
#76=VECTOR('',#75,19.0);
#77=LINE('',#74,#76);
#78=EDGE_CURVE('',#71,#73,#77,.T.);
#79=ORIENTED_EDGE('',*,*,#78,.F.);
#80=CARTESIAN_POINT('',(9.5,-2.1,2.500000000000003));
#81=VERTEX_POINT('',#80);
#82=CARTESIAN_POINT('',(9.5,4.592274E-016,2.500000000000003));
#83=DIRECTION('',(1.0,0.0,0.0));
#84=DIRECTION('',(0.0,1.0,0.0));
#85=AXIS2_PLACEMENT_3D('',#82,#83,#84);
#86=CIRCLE('',#85,2.1);
#87=EDGE_CURVE('',#71,#81,#86,.F.);
#88=ORIENTED_EDGE('',*,*,#87,.T.);
#89=CARTESIAN_POINT('',(-9.5,-2.1,2.499999999999999));
#90=VERTEX_POINT('',#89);
#91=CARTESIAN_POINT('',(9.5,-2.1,2.500000000000003));
#92=DIRECTION('',(-1.0,0.0,0.0));
#93=VECTOR('',#92,19.0);
#94=LINE('',#91,#93);
#95=EDGE_CURVE('',#81,#90,#94,.T.);
#96=ORIENTED_EDGE('',*,*,#95,.T.);
#97=CARTESIAN_POINT('',(-9.5,4.592274E-016,2.499999999999999));
#98=DIRECTION('',(-1.0,0.0,0.0));
#99=DIRECTION('',(0.0,1.0,0.0));
#100=AXIS2_PLACEMENT_3D('',#97,#98,#99);
#101=CIRCLE('',#100,2.1);
#102=EDGE_CURVE('',#90,#73,#101,.F.);
#103=ORIENTED_EDGE('',*,*,#102,.T.);
#104=EDGE_LOOP('',(#79,#88,#96,#103));
#105=FACE_OUTER_BOUND('',#104,.T.);
#106=ADVANCED_FACE('',(#105),#69,.T.);
#107=CARTESIAN_POINT('',(-9.5,4.592274E-016,2.499999999999996));
#108=DIRECTION('',(1.0,0.0,0.0));
#109=DIRECTION('',(0.0,0.0,-1.0));
#110=AXIS2_PLACEMENT_3D('',#107,#108,#109);
#111=PLANE('',#110);
#112=ORIENTED_EDGE('',*,*,#102,.F.);
#113=CARTESIAN_POINT('',(-9.5,4.592274E-016,2.499999999999999));
#114=DIRECTION('',(-1.0,0.0,0.0));
#115=DIRECTION('',(0.0,1.0,0.0));
#116=AXIS2_PLACEMENT_3D('',#113,#114,#115);
#117=CIRCLE('',#116,2.1);
#118=EDGE_CURVE('',#73,#90,#117,.F.);
#119=ORIENTED_EDGE('',*,*,#118,.F.);
#120=EDGE_LOOP('',(#112,#119));
#121=FACE_OUTER_BOUND('',#120,.T.);
#122=ADVANCED_FACE('',(#121),#111,.F.);
#123=CARTESIAN_POINT('',(9.499999999999998,2.100000000000001,4.600000000000003));
#124=CARTESIAN_POINT('',(9.500000000000002,2.100000000000001,0.400000000000003));
#125=CARTESIAN_POINT('',(9.499999999999998,-2.1,4.600000000000003));
#126=CARTESIAN_POINT('',(9.500000000000002,-2.1,0.400000000000003));
#127=B_SPLINE_SURFACE_WITH_KNOTS('',1,1,((#123,#125),(#124,#126)),.UNSPECIFIED.,.F.,.F.,.U.,(2,2),(2,2),(0.0,4.2),(0.0,4.2),.UNSPECIFIED.);
#128=CARTESIAN_POINT('',(9.5,4.592274E-016,2.500000000000003));
#129=DIRECTION('',(1.0,0.0,0.0));
#130=DIRECTION('',(0.0,1.0,0.0));
#131=AXIS2_PLACEMENT_3D('',#128,#129,#130);
#132=CIRCLE('',#131,2.1);
#133=EDGE_CURVE('',#81,#71,#132,.F.);
#134=ORIENTED_EDGE('',*,*,#133,.F.);
#135=ORIENTED_EDGE('',*,*,#87,.F.);
#136=EDGE_LOOP('',(#134,#135));
#137=FACE_OUTER_BOUND('',#136,.T.);
#138=ADVANCED_FACE('',(#137),#127,.F.);
#139=CARTESIAN_POINT('',(-10.0,4.592274E-016,2.499999999999999));
#140=DIRECTION('',(1.0,0.0,2.220446E-016));
#141=DIRECTION('',(0.0,1.0,0.0));
#142=AXIS2_PLACEMENT_3D('',#139,#140,#141);
#143=CYLINDRICAL_SURFACE('',#142,2.1);
#144=ORIENTED_EDGE('',*,*,#78,.T.);
#145=ORIENTED_EDGE('',*,*,#118,.T.);
#146=ORIENTED_EDGE('',*,*,#95,.F.);
#147=ORIENTED_EDGE('',*,*,#133,.T.);
#148=EDGE_LOOP('',(#144,#145,#146,#147));
#149=FACE_OUTER_BOUND('',#148,.T.);
#150=ADVANCED_FACE('',(#149),#143,.T.);
#151=CLOSED_SHELL('',(#106,#122,#138,#150));
#152=MANIFOLD_SOLID_BREP('719',#151);
#153=DRAUGHTING_PRE_DEFINED_COLOUR('white');
#154=SURFACE_STYLE_USAGE(.BOTH.,#155);
#155=SURFACE_SIDE_STYLE('NONE',(#156));
#156=SURFACE_STYLE_FILL_AREA(#157);
#157=FILL_AREA_STYLE('NONE',(#158));
#158=FILL_AREA_STYLE_COLOUR('NONE',#153);
#159=PRESENTATION_STYLE_ASSIGNMENT((#154));
#160=STYLED_ITEM('NONE',(#159),#152);
#161=MECHANICAL_DESIGN_GEOMETRIC_PRESENTATION_REPRESENTATION('NONE',(#160),#28);
#162=PRESENTATION_LAYER_ASSIGNMENT('3D','None',(#152));
#163=ADVANCED_BREP_SHAPE_REPRESENTATION('ABSR1',(#152),#28);
#164=SHAPE_REPRESENTATION_RELATIONSHIP('SRRPL1','',#163,#62);
ENDSEC;
END-ISO-10303-21;
