ISO-10303-21;
HEADER;
/* Generated by software containing ST-Developer
 * from STEP Tools, Inc. (www.steptools.com) 
 */

FILE_DESCRIPTION(
/* description */ (''),
/* implementation_level */ '2;1');

FILE_NAME(
/* name */ 
'G:\\Applications\\Altium\\CernLib\\StepLib\\HAMAMATSU_S13361-2050NE-0
8_part2.stp',
/* time_stamp */ '2017-03-13T15:19:20+01:00',
/* author */ ('riccim'),
/* organization */ (''),
/* preprocessor_version */ 'ST-DEVELOPER v16.1',
/* originating_system */ 'AutoCAD Mechanical',
/* authorisation */ ', , ');

FILE_SCHEMA (('AUTOMOTIVE_DESIGN { 1 0 10303 214 3 1 1 }'));
ENDSEC;

DATA;
#10=MECHANICAL_DESIGN_GEOMETRIC_PRESENTATION_REPRESENTATION('',(#17),#175);
#11=DIMENSIONAL_EXPONENTS(0.,0.,0.,0.,0.,0.,0.);
#12=(
CONVERSION_BASED_UNIT('degree',#13)
NAMED_UNIT(#11)
PLANE_ANGLE_UNIT()
);
#13=PLANE_ANGLE_MEASURE_WITH_UNIT(PLANE_ANGLE_MEASURE(0.01745329252),#178);
#14=PRESENTATION_LAYER_ASSIGNMENT('1','3D',(#18));
#15=SHAPE_REPRESENTATION_RELATIONSHIP('SRR','None',#181,#16);
#16=ADVANCED_BREP_SHAPE_REPRESENTATION('',(#18),#174);
#17=STYLED_ITEM('',(#191),#18);
#18=MANIFOLD_SOLID_BREP('4627',#111);
#19=FACE_OUTER_BOUND('',#25,.T.);
#20=FACE_OUTER_BOUND('',#26,.T.);
#21=FACE_OUTER_BOUND('',#27,.T.);
#22=FACE_OUTER_BOUND('',#28,.T.);
#23=FACE_OUTER_BOUND('',#29,.T.);
#24=FACE_OUTER_BOUND('',#30,.T.);
#25=EDGE_LOOP('',(#75,#76,#77,#78));
#26=EDGE_LOOP('',(#79,#80,#81,#82));
#27=EDGE_LOOP('',(#83,#84,#85,#86));
#28=EDGE_LOOP('',(#87,#88,#89,#90));
#29=EDGE_LOOP('',(#91,#92,#93,#94));
#30=EDGE_LOOP('',(#95,#96,#97,#98));
#31=LINE('',#149,#43);
#32=LINE('',#151,#44);
#33=LINE('',#153,#45);
#34=LINE('',#154,#46);
#35=LINE('',#157,#47);
#36=LINE('',#159,#48);
#37=LINE('',#160,#49);
#38=LINE('',#163,#50);
#39=LINE('',#165,#51);
#40=LINE('',#166,#52);
#41=LINE('',#168,#53);
#42=LINE('',#169,#54);
#43=VECTOR('',#123,17.8);
#44=VECTOR('',#124,0.4);
#45=VECTOR('',#125,17.8);
#46=VECTOR('',#126,0.4);
#47=VECTOR('',#129,17.8);
#48=VECTOR('',#130,17.8);
#49=VECTOR('',#131,0.4);
#50=VECTOR('',#134,17.8);
#51=VECTOR('',#135,17.8);
#52=VECTOR('',#136,0.4);
#53=VECTOR('',#139,17.8);
#54=VECTOR('',#140,17.8);
#55=VERTEX_POINT('',#147);
#56=VERTEX_POINT('',#148);
#57=VERTEX_POINT('',#150);
#58=VERTEX_POINT('',#152);
#59=VERTEX_POINT('',#156);
#60=VERTEX_POINT('',#158);
#61=VERTEX_POINT('',#162);
#62=VERTEX_POINT('',#164);
#63=EDGE_CURVE('',#55,#56,#31,.T.);
#64=EDGE_CURVE('',#56,#57,#32,.T.);
#65=EDGE_CURVE('',#58,#57,#33,.T.);
#66=EDGE_CURVE('',#55,#58,#34,.T.);
#67=EDGE_CURVE('',#59,#55,#35,.T.);
#68=EDGE_CURVE('',#60,#58,#36,.T.);
#69=EDGE_CURVE('',#59,#60,#37,.T.);
#70=EDGE_CURVE('',#61,#59,#38,.T.);
#71=EDGE_CURVE('',#62,#60,#39,.T.);
#72=EDGE_CURVE('',#61,#62,#40,.T.);
#73=EDGE_CURVE('',#56,#61,#41,.T.);
#74=EDGE_CURVE('',#57,#62,#42,.T.);
#75=ORIENTED_EDGE('',*,*,#63,.T.);
#76=ORIENTED_EDGE('',*,*,#64,.T.);
#77=ORIENTED_EDGE('',*,*,#65,.F.);
#78=ORIENTED_EDGE('',*,*,#66,.F.);
#79=ORIENTED_EDGE('',*,*,#67,.T.);
#80=ORIENTED_EDGE('',*,*,#66,.T.);
#81=ORIENTED_EDGE('',*,*,#68,.F.);
#82=ORIENTED_EDGE('',*,*,#69,.F.);
#83=ORIENTED_EDGE('',*,*,#70,.T.);
#84=ORIENTED_EDGE('',*,*,#69,.T.);
#85=ORIENTED_EDGE('',*,*,#71,.F.);
#86=ORIENTED_EDGE('',*,*,#72,.F.);
#87=ORIENTED_EDGE('',*,*,#73,.T.);
#88=ORIENTED_EDGE('',*,*,#72,.T.);
#89=ORIENTED_EDGE('',*,*,#74,.F.);
#90=ORIENTED_EDGE('',*,*,#64,.F.);
#91=ORIENTED_EDGE('',*,*,#74,.T.);
#92=ORIENTED_EDGE('',*,*,#71,.T.);
#93=ORIENTED_EDGE('',*,*,#68,.T.);
#94=ORIENTED_EDGE('',*,*,#65,.T.);
#95=ORIENTED_EDGE('',*,*,#73,.F.);
#96=ORIENTED_EDGE('',*,*,#63,.F.);
#97=ORIENTED_EDGE('',*,*,#67,.F.);
#98=ORIENTED_EDGE('',*,*,#70,.F.);
#99=PLANE('',#113);
#100=PLANE('',#114);
#101=PLANE('',#115);
#102=PLANE('',#116);
#103=PLANE('',#117);
#104=PLANE('',#118);
#105=ADVANCED_FACE('',(#19),#99,.T.);
#106=ADVANCED_FACE('',(#20),#100,.T.);
#107=ADVANCED_FACE('',(#21),#101,.T.);
#108=ADVANCED_FACE('',(#22),#102,.T.);
#109=ADVANCED_FACE('',(#23),#103,.T.);
#110=ADVANCED_FACE('',(#24),#104,.F.);
#111=CLOSED_SHELL('',(#105,#106,#107,#108,#109,#110));
#112=AXIS2_PLACEMENT_3D('placement',#145,#119,#120);
#113=AXIS2_PLACEMENT_3D('',#146,#121,#122);
#114=AXIS2_PLACEMENT_3D('',#155,#127,#128);
#115=AXIS2_PLACEMENT_3D('',#161,#132,#133);
#116=AXIS2_PLACEMENT_3D('',#167,#137,#138);
#117=AXIS2_PLACEMENT_3D('',#170,#141,#142);
#118=AXIS2_PLACEMENT_3D('',#171,#143,#144);
#119=DIRECTION('axis',(0.,0.,1.));
#120=DIRECTION('refdir',(1.,0.,0.));
#121=DIRECTION('center_axis',(-1.99590656112387E-16,1.,0.));
#122=DIRECTION('ref_axis',(-1.,0.,0.));
#123=DIRECTION('',(-1.,-1.99590656112387E-16,0.));
#124=DIRECTION('',(0.,0.,1.));
#125=DIRECTION('',(-1.,-1.99590656112387E-16,0.));
#126=DIRECTION('',(0.,0.,1.));
#127=DIRECTION('center_axis',(1.,3.99181312224775E-16,0.));
#128=DIRECTION('ref_axis',(0.,1.,0.));
#129=DIRECTION('',(-3.99181312224775E-16,1.,0.));
#130=DIRECTION('',(-3.99181312224775E-16,1.,0.));
#131=DIRECTION('',(0.,0.,1.));
#132=DIRECTION('center_axis',(1.99590656112387E-16,-1.,0.));
#133=DIRECTION('ref_axis',(1.,0.,0.));
#134=DIRECTION('',(1.,1.99590656112387E-16,0.));
#135=DIRECTION('',(1.,1.99590656112387E-16,0.));
#136=DIRECTION('',(0.,0.,1.));
#137=DIRECTION('center_axis',(-1.,0.,0.));
#138=DIRECTION('ref_axis',(0.,-1.,0.));
#139=DIRECTION('',(0.,-1.,0.));
#140=DIRECTION('',(0.,-1.,0.));
#141=DIRECTION('center_axis',(0.,0.,1.));
#142=DIRECTION('ref_axis',(1.,0.,0.));
#143=DIRECTION('center_axis',(0.,0.,1.));
#144=DIRECTION('ref_axis',(1.,0.,0.));
#145=CARTESIAN_POINT('',(0.,0.,0.));
#146=CARTESIAN_POINT('Origin',(8.90000000000001,8.9,1.15));
#147=CARTESIAN_POINT('',(8.90000000000001,8.9,1.15));
#148=CARTESIAN_POINT('',(-8.90000000000001,8.9,1.15));
#149=CARTESIAN_POINT('',(8.90000000000001,8.9,1.15));
#150=CARTESIAN_POINT('',(-8.90000000000001,8.9,1.55));
#151=CARTESIAN_POINT('',(-8.90000000000001,8.9,1.15));
#152=CARTESIAN_POINT('',(8.90000000000001,8.9,1.55));
#153=CARTESIAN_POINT('',(8.90000000000001,8.9,1.55));
#154=CARTESIAN_POINT('',(8.90000000000001,8.9,1.15));
#155=CARTESIAN_POINT('Origin',(8.90000000000002,-8.9,1.15));
#156=CARTESIAN_POINT('',(8.90000000000002,-8.9,1.15));
#157=CARTESIAN_POINT('',(8.90000000000002,-8.9,1.15));
#158=CARTESIAN_POINT('',(8.90000000000002,-8.9,1.55));
#159=CARTESIAN_POINT('',(8.90000000000002,-8.9,1.55));
#160=CARTESIAN_POINT('',(8.90000000000002,-8.9,1.15));
#161=CARTESIAN_POINT('Origin',(-8.90000000000001,-8.9,1.15));
#162=CARTESIAN_POINT('',(-8.90000000000001,-8.9,1.15));
#163=CARTESIAN_POINT('',(-8.90000000000001,-8.9,1.15));
#164=CARTESIAN_POINT('',(-8.90000000000001,-8.9,1.55));
#165=CARTESIAN_POINT('',(-8.90000000000001,-8.9,1.55));
#166=CARTESIAN_POINT('',(-8.90000000000001,-8.9,1.15));
#167=CARTESIAN_POINT('Origin',(-8.90000000000001,8.9,1.15));
#168=CARTESIAN_POINT('',(-8.90000000000001,8.9,1.15));
#169=CARTESIAN_POINT('',(-8.90000000000001,8.9,1.55));
#170=CARTESIAN_POINT('Origin',(1.77635683940025E-15,0.,1.55));
#171=CARTESIAN_POINT('Origin',(1.49692992084291E-15,-5.98771968337163E-16,
1.15));
#172=UNCERTAINTY_MEASURE_WITH_UNIT(LENGTH_MEASURE(0.01),#176,
'DISTANCE_ACCURACY_VALUE',
'Maximum model space distance between geometric entities at asserted c
onnectivities');
#173=UNCERTAINTY_MEASURE_WITH_UNIT(LENGTH_MEASURE(1.E-6),#176,
'DISTANCE_ACCURACY_VALUE',
'Maximum model space distance between geometric entities at asserted c
onnectivities');
#174=(
GEOMETRIC_REPRESENTATION_CONTEXT(3)
GLOBAL_UNCERTAINTY_ASSIGNED_CONTEXT((#172))
GLOBAL_UNIT_ASSIGNED_CONTEXT((#176,#178,#177))
REPRESENTATION_CONTEXT('','3D')
);
#175=(
GEOMETRIC_REPRESENTATION_CONTEXT(3)
GLOBAL_UNCERTAINTY_ASSIGNED_CONTEXT((#173))
GLOBAL_UNIT_ASSIGNED_CONTEXT((#176,#12,#177))
REPRESENTATION_CONTEXT('','3D')
);
#176=(
LENGTH_UNIT()
NAMED_UNIT(*)
SI_UNIT(.MILLI.,.METRE.)
);
#177=(
NAMED_UNIT(*)
SI_UNIT($,.STERADIAN.)
SOLID_ANGLE_UNIT()
);
#178=(
NAMED_UNIT(*)
PLANE_ANGLE_UNIT()
SI_UNIT($,.RADIAN.)
);
#179=SHAPE_DEFINITION_REPRESENTATION(#180,#181);
#180=PRODUCT_DEFINITION_SHAPE('',$,#183);
#181=SHAPE_REPRESENTATION('',(#112),#174);
#182=PRODUCT_DEFINITION_CONTEXT('part definition',#187,'design');
#183=PRODUCT_DEFINITION('Product','Product',#184,#182);
#184=PRODUCT_DEFINITION_FORMATION('',$,#189);
#185=PRODUCT_RELATED_PRODUCT_CATEGORY('Product','Product',(#189));
#186=APPLICATION_PROTOCOL_DEFINITION('international standard',
'automotive_design',2009,#187);
#187=APPLICATION_CONTEXT(
'Core Data for Automotive Mechanical Design Process');
#188=PRODUCT_CONTEXT('part definition',#187,'mechanical');
#189=PRODUCT('Product','Product',$,(#188));
#190=PRESENTATION_STYLE_ASSIGNMENT((#192));
#191=PRESENTATION_STYLE_ASSIGNMENT((#193));
#192=SURFACE_STYLE_USAGE(.BOTH.,#194);
#193=SURFACE_STYLE_USAGE(.BOTH.,#195);
#194=SURFACE_SIDE_STYLE('',(#196));
#195=SURFACE_SIDE_STYLE('',(#197));
#196=SURFACE_STYLE_FILL_AREA(#198);
#197=SURFACE_STYLE_FILL_AREA(#199);
#198=FILL_AREA_STYLE('',(#200));
#199=FILL_AREA_STYLE('',(#201));
#200=FILL_AREA_STYLE_COLOUR('',#202);
#201=FILL_AREA_STYLE_COLOUR('',#203);
#202=COLOUR_RGB('',1.,1.,1.);
#203=COLOUR_RGB('',0.325490196078431,0.650980392156863,0.407843137254902);
ENDSEC;
END-ISO-10303-21;
