ISO-10303-21;
HEADER;
/* Generated by software containing ST-Developer
 * from STEP Tools, Inc. (www.steptools.com) 
 */

FILE_DESCRIPTION(
/* description */ (''),
/* implementation_level */ '2;1');

FILE_NAME(
/* name */ 
'G:\\Applications\\Altium\\CernLib\\StepLib\\HARTING_09 03 000 6140.st
p',
/* time_stamp */ '2015-03-04T09:10:57+01:00',
/* author */ ('admchouv'),
/* organization */ ('SDRC'),
/* preprocessor_version */ 'ST-DEVELOPER v15.5',
/* originating_system */ 'AutoCAD Mechanical',
/* authorisation */ 'Yes');

FILE_SCHEMA (('AUTOMOTIVE_DESIGN { 1 0 10303 214 3 1 1 }'));
ENDSEC;

DATA;
#10=MECHANICAL_DESIGN_GEOMETRIC_PRESENTATION_REPRESENTATION('',(#21,#22,
#24,#23,#25,#26),#955);
#11=DIMENSIONAL_EXPONENTS(0.,0.,0.,0.,0.,0.,0.);
#12=(
CONVERSION_BASED_UNIT('degree',#13)
NAMED_UNIT(#11)
PLANE_ANGLE_UNIT()
);
#13=PLANE_ANGLE_MEASURE_WITH_UNIT(PLANE_ANGLE_MEASURE(0.01745329252),#958);
#14=PRESENTATION_LAYER_ASSIGNMENT('3D','',(#504,#505,#506,#507,#508,#509));
#15=B_SPLINE_CURVE_WITH_KNOTS($,3,(#872,#873,#874,#875,#876,#877,#878,#879,
#880,#881,#882,#883,#884,#885,#886,#887,#888,#889,#890,#891,#892,#893,#894,
#895,#896,#897,#898,#899,#900,#901,#902),.UNSPECIFIED.,.F.,.F.,(4,2,2,2,
2,2,2,3,2,2,2,2,2,2,4),(-1.61328757813113,-1.42329179640755,-0.859176077394693,
-0.661857338075972,-0.464538598757252,-0.285561419762276,-0.142780709881138,
0.,0.142780709881138,0.285561419762276,0.464538598757252,0.661857338075972,
0.859176077394693,1.42329179640755,1.61328757813114),.UNSPECIFIED.);
#16=B_SPLINE_CURVE_WITH_KNOTS($,3,(#906,#907,#908,#909,#910,#911,#912,#913,
#914,#915,#916,#917,#918,#919,#920,#921,#922,#923),.UNSPECIFIED.,.F.,.F.,
(4,2,2,2,2,2,2,2,4),(5.22971777535872,5.46273096458763,5.69574415381653,
5.82376260538067,5.95178105694481,6.21083685410614,6.46989265126747,7.15723465715278,
7.4676582554052),.UNSPECIFIED.);
#17=B_SPLINE_CURVE_WITH_KNOTS($,3,(#925,#926,#927,#928,#929,#930,#931,#932,
#933,#934,#935,#936,#937,#938,#939,#940,#941,#942),.UNSPECIFIED.,.F.,.F.,
(4,2,2,2,2,2,2,2,4),(2.99177729531225,3.30220089356467,3.98954289944997,
4.2485986966113,4.50765449377263,4.63567294533678,4.76369139690092,4.99670458612982,
5.22971777535872),.UNSPECIFIED.);
#18=SPHERICAL_SURFACE($,#554,0.499999999999982);
#19=SHAPE_REPRESENTATION_RELATIONSHIP('SRR','None',#961,#20);
#20=ADVANCED_BREP_SHAPE_REPRESENTATION($,(#504,#505,#506,#507,#508,#509),
#954);
#21=STYLED_ITEM($,(#971),#504);
#22=STYLED_ITEM($,(#971),#505);
#23=STYLED_ITEM($,(#972),#506);
#24=STYLED_ITEM($,(#973),#507);
#25=STYLED_ITEM($,(#973),#508);
#26=STYLED_ITEM($,(#972),#509);
#27=LINE($,#769,#45);
#28=LINE($,#771,#46);
#29=LINE($,#773,#47);
#30=LINE($,#774,#48);
#31=LINE($,#780,#49);
#32=LINE($,#783,#50);
#33=LINE($,#787,#51);
#34=LINE($,#788,#52);
#35=LINE($,#843,#53);
#36=LINE($,#847,#54);
#37=LINE($,#851,#55);
#38=LINE($,#853,#56);
#39=LINE($,#854,#57);
#40=LINE($,#857,#58);
#41=LINE($,#861,#59);
#42=LINE($,#862,#60);
#43=LINE($,#904,#61);
#44=LINE($,#943,#62);
#45=VECTOR($,#608,0.000310311622997772);
#46=VECTOR($,#609,1.66999999999998);
#47=VECTOR($,#610,0.000310311622998216);
#48=VECTOR($,#611,1.66999999999998);
#49=VECTOR($,#618,0.000310311622999951);
#50=VECTOR($,#621,1.66999999999998);
#51=VECTOR($,#626,0.000310311622999465);
#52=VECTOR($,#627,1.66999999999998);
#53=VECTOR($,#702,1.66999999999998);
#54=VECTOR($,#705,1.66999999999998);
#55=VECTOR($,#710,0.779689688376928);
#56=VECTOR($,#711,1.71049700379771);
#57=VECTOR($,#712,1.14968968837699);
#58=VECTOR($,#715,0.779689688376929);
#59=VECTOR($,#720,1.14968968837699);
#60=VECTOR($,#721,1.71049700379772);
#61=VECTOR($,#734,0.299999999999987);
#62=VECTOR($,#735,0.299999999999987);
#63=CONICAL_SURFACE($,#516,1.90499999999996,0.754480183834416);
#64=CONICAL_SURFACE($,#549,2.00000000000004,1.04719755119659);
#65=CONICAL_SURFACE($,#571,2.41499999999992,0.218034830549931);
#66=CYLINDRICAL_SURFACE($,#514,2.375);
#67=CYLINDRICAL_SURFACE($,#518,1.90499999999996);
#68=CYLINDRICAL_SURFACE($,#525,1.450310311623);
#69=CYLINDRICAL_SURFACE($,#528,1.44999999999998);
#70=CYLINDRICAL_SURFACE($,#533,1.44999999999998);
#71=CYLINDRICAL_SURFACE($,#537,2.39999999999997);
#72=CYLINDRICAL_SURFACE($,#541,2.74999999999997);
#73=CYLINDRICAL_SURFACE($,#545,2.39999999999999);
#74=CYLINDRICAL_SURFACE($,#551,2.00000000000003);
#75=CYLINDRICAL_SURFACE($,#556,0.499999999999993);
#76=CYLINDRICAL_SURFACE($,#559,2.59999999999994);
#77=CYLINDRICAL_SURFACE($,#564,1.450310311623);
#78=CYLINDRICAL_SURFACE($,#576,3.32758629918338);
#79=CYLINDRICAL_SURFACE($,#577,0.50000000000001);
#80=CYLINDRICAL_SURFACE($,#581,0.800000000000001);
#81=FACE_BOUND($,#142,.T.);
#82=FACE_BOUND($,#144,.T.);
#83=FACE_BOUND($,#146,.T.);
#84=FACE_BOUND($,#148,.T.);
#85=FACE_BOUND($,#155,.T.);
#86=FACE_BOUND($,#159,.T.);
#87=FACE_BOUND($,#161,.T.);
#88=FACE_BOUND($,#163,.T.);
#89=FACE_BOUND($,#165,.T.);
#90=FACE_BOUND($,#167,.T.);
#91=FACE_BOUND($,#169,.T.);
#92=FACE_BOUND($,#171,.T.);
#93=FACE_BOUND($,#173,.T.);
#94=FACE_BOUND($,#175,.T.);
#95=FACE_BOUND($,#177,.T.);
#96=FACE_BOUND($,#181,.T.);
#97=FACE_BOUND($,#184,.T.);
#98=FACE_BOUND($,#196,.T.);
#99=FACE_BOUND($,#199,.T.);
#100=FACE_OUTER_BOUND($,#141,.T.);
#101=FACE_OUTER_BOUND($,#143,.T.);
#102=FACE_OUTER_BOUND($,#145,.T.);
#103=FACE_OUTER_BOUND($,#147,.T.);
#104=FACE_OUTER_BOUND($,#149,.T.);
#105=FACE_OUTER_BOUND($,#150,.T.);
#106=FACE_OUTER_BOUND($,#151,.T.);
#107=FACE_OUTER_BOUND($,#152,.T.);
#108=FACE_OUTER_BOUND($,#153,.T.);
#109=FACE_OUTER_BOUND($,#154,.T.);
#110=FACE_OUTER_BOUND($,#156,.T.);
#111=FACE_OUTER_BOUND($,#157,.T.);
#112=FACE_OUTER_BOUND($,#158,.T.);
#113=FACE_OUTER_BOUND($,#160,.T.);
#114=FACE_OUTER_BOUND($,#162,.T.);
#115=FACE_OUTER_BOUND($,#164,.T.);
#116=FACE_OUTER_BOUND($,#166,.T.);
#117=FACE_OUTER_BOUND($,#168,.T.);
#118=FACE_OUTER_BOUND($,#170,.T.);
#119=FACE_OUTER_BOUND($,#172,.T.);
#120=FACE_OUTER_BOUND($,#174,.T.);
#121=FACE_OUTER_BOUND($,#176,.T.);
#122=FACE_OUTER_BOUND($,#178,.T.);
#123=FACE_OUTER_BOUND($,#179,.T.);
#124=FACE_OUTER_BOUND($,#180,.T.);
#125=FACE_OUTER_BOUND($,#182,.T.);
#126=FACE_OUTER_BOUND($,#183,.T.);
#127=FACE_OUTER_BOUND($,#185,.T.);
#128=FACE_OUTER_BOUND($,#186,.T.);
#129=FACE_OUTER_BOUND($,#187,.T.);
#130=FACE_OUTER_BOUND($,#188,.T.);
#131=FACE_OUTER_BOUND($,#189,.T.);
#132=FACE_OUTER_BOUND($,#190,.T.);
#133=FACE_OUTER_BOUND($,#191,.T.);
#134=FACE_OUTER_BOUND($,#192,.T.);
#135=FACE_OUTER_BOUND($,#193,.T.);
#136=FACE_OUTER_BOUND($,#194,.T.);
#137=FACE_OUTER_BOUND($,#195,.T.);
#138=FACE_OUTER_BOUND($,#197,.T.);
#139=FACE_OUTER_BOUND($,#198,.T.);
#140=FACE_OUTER_BOUND($,#200,.T.);
#141=EDGE_LOOP($,(#329));
#142=EDGE_LOOP($,(#330));
#143=EDGE_LOOP($,(#331));
#144=EDGE_LOOP($,(#332));
#145=EDGE_LOOP($,(#333));
#146=EDGE_LOOP($,(#334));
#147=EDGE_LOOP($,(#335));
#148=EDGE_LOOP($,(#336));
#149=EDGE_LOOP($,(#337));
#150=EDGE_LOOP($,(#338,#339,#340,#341));
#151=EDGE_LOOP($,(#342,#343,#344,#345));
#152=EDGE_LOOP($,(#346,#347,#348,#349));
#153=EDGE_LOOP($,(#350,#351,#352,#353));
#154=EDGE_LOOP($,(#354));
#155=EDGE_LOOP($,(#355,#356,#357,#358));
#156=EDGE_LOOP($,(#359,#360,#361,#362));
#157=EDGE_LOOP($,(#363));
#158=EDGE_LOOP($,(#364));
#159=EDGE_LOOP($,(#365));
#160=EDGE_LOOP($,(#366));
#161=EDGE_LOOP($,(#367));
#162=EDGE_LOOP($,(#368));
#163=EDGE_LOOP($,(#369));
#164=EDGE_LOOP($,(#370));
#165=EDGE_LOOP($,(#371));
#166=EDGE_LOOP($,(#372));
#167=EDGE_LOOP($,(#373));
#168=EDGE_LOOP($,(#374));
#169=EDGE_LOOP($,(#375));
#170=EDGE_LOOP($,(#376));
#171=EDGE_LOOP($,(#377));
#172=EDGE_LOOP($,(#378));
#173=EDGE_LOOP($,(#379));
#174=EDGE_LOOP($,(#380));
#175=EDGE_LOOP($,(#381));
#176=EDGE_LOOP($,(#382));
#177=EDGE_LOOP($,(#383));
#178=EDGE_LOOP($,(#384));
#179=EDGE_LOOP($,(#385));
#180=EDGE_LOOP($,(#386));
#181=EDGE_LOOP($,(#387));
#182=EDGE_LOOP($,(#388));
#183=EDGE_LOOP($,(#389));
#184=EDGE_LOOP($,(#390));
#185=EDGE_LOOP($,(#391));
#186=EDGE_LOOP($,(#392));
#187=EDGE_LOOP($,(#393,#394,#395,#396));
#188=EDGE_LOOP($,(#397,#398,#399,#400));
#189=EDGE_LOOP($,(#401,#402,#403,#404));
#190=EDGE_LOOP($,(#405,#406,#407,#408));
#191=EDGE_LOOP($,(#409,#410,#411,#412));
#192=EDGE_LOOP($,(#413,#414,#415,#416));
#193=EDGE_LOOP($,(#417));
#194=EDGE_LOOP($,(#418,#419,#420,#421,#422));
#195=EDGE_LOOP($,(#423));
#196=EDGE_LOOP($,(#424,#425));
#197=EDGE_LOOP($,(#426));
#198=EDGE_LOOP($,(#427));
#199=EDGE_LOOP($,(#428,#429,#430));
#200=EDGE_LOOP($,(#431,#432,#433,#434));
#201=CIRCLE($,#512,2.37500000000001);
#202=CIRCLE($,#513,1.44999999999998);
#203=CIRCLE($,#515,2.375);
#204=CIRCLE($,#517,1.90499999999997);
#205=CIRCLE($,#519,1.90499999999998);
#206=CIRCLE($,#523,1.450310311623);
#207=CIRCLE($,#524,1.44999999999998);
#208=CIRCLE($,#526,1.450310311623);
#209=CIRCLE($,#529,1.44999999999998);
#210=CIRCLE($,#532,1.44999999999998);
#211=CIRCLE($,#534,1.44999999999999);
#212=CIRCLE($,#536,2.39999999999997);
#213=CIRCLE($,#538,2.39999999999997);
#214=CIRCLE($,#540,2.74999999999997);
#215=CIRCLE($,#542,2.74999999999996);
#216=CIRCLE($,#544,2.39999999999998);
#217=CIRCLE($,#546,2.39999999999999);
#218=CIRCLE($,#548,2.34641016151382);
#219=CIRCLE($,#550,2.00000000000005);
#220=CIRCLE($,#552,2.00000000000003);
#221=CIRCLE($,#555,0.499999999999993);
#222=CIRCLE($,#557,0.499999999999993);
#223=CIRCLE($,#560,2.59999999999994);
#224=CIRCLE($,#561,2.59999999999994);
#225=CIRCLE($,#565,1.450310311623);
#226=CIRCLE($,#566,1.450310311623);
#227=CIRCLE($,#569,2.22999999999992);
#228=CIRCLE($,#572,2.59999999999992);
#229=CIRCLE($,#575,0.799999999999969);
#230=CIRCLE($,#578,0.50000000000001);
#231=CIRCLE($,#579,0.50000000000001);
#232=CIRCLE($,#582,0.800000000000001);
#233=VERTEX_POINT($,#752);
#234=VERTEX_POINT($,#754);
#235=VERTEX_POINT($,#757);
#236=VERTEX_POINT($,#760);
#237=VERTEX_POINT($,#763);
#238=VERTEX_POINT($,#767);
#239=VERTEX_POINT($,#768);
#240=VERTEX_POINT($,#770);
#241=VERTEX_POINT($,#772);
#242=VERTEX_POINT($,#776);
#243=VERTEX_POINT($,#778);
#244=VERTEX_POINT($,#782);
#245=VERTEX_POINT($,#786);
#246=VERTEX_POINT($,#793);
#247=VERTEX_POINT($,#796);
#248=VERTEX_POINT($,#799);
#249=VERTEX_POINT($,#802);
#250=VERTEX_POINT($,#805);
#251=VERTEX_POINT($,#808);
#252=VERTEX_POINT($,#811);
#253=VERTEX_POINT($,#814);
#254=VERTEX_POINT($,#817);
#255=VERTEX_POINT($,#820);
#256=VERTEX_POINT($,#823);
#257=VERTEX_POINT($,#827);
#258=VERTEX_POINT($,#830);
#259=VERTEX_POINT($,#834);
#260=VERTEX_POINT($,#836);
#261=VERTEX_POINT($,#841);
#262=VERTEX_POINT($,#842);
#263=VERTEX_POINT($,#844);
#264=VERTEX_POINT($,#846);
#265=VERTEX_POINT($,#850);
#266=VERTEX_POINT($,#852);
#267=VERTEX_POINT($,#856);
#268=VERTEX_POINT($,#860);
#269=VERTEX_POINT($,#867);
#270=VERTEX_POINT($,#870);
#271=VERTEX_POINT($,#871);
#272=VERTEX_POINT($,#903);
#273=VERTEX_POINT($,#905);
#274=VERTEX_POINT($,#924);
#275=VERTEX_POINT($,#945);
#276=EDGE_CURVE($,#233,#233,#201,.T.);
#277=EDGE_CURVE($,#234,#234,#202,.T.);
#278=EDGE_CURVE($,#235,#235,#203,.T.);
#279=EDGE_CURVE($,#236,#236,#204,.T.);
#280=EDGE_CURVE($,#237,#237,#205,.T.);
#281=EDGE_CURVE($,#238,#239,#27,.T.);
#282=EDGE_CURVE($,#240,#239,#28,.T.);
#283=EDGE_CURVE($,#241,#240,#29,.T.);
#284=EDGE_CURVE($,#241,#238,#30,.T.);
#285=EDGE_CURVE($,#242,#241,#206,.T.);
#286=EDGE_CURVE($,#240,#243,#207,.T.);
#287=EDGE_CURVE($,#243,#242,#31,.T.);
#288=EDGE_CURVE($,#244,#242,#32,.T.);
#289=EDGE_CURVE($,#244,#238,#208,.T.);
#290=EDGE_CURVE($,#245,#244,#33,.T.);
#291=EDGE_CURVE($,#245,#243,#34,.T.);
#292=EDGE_CURVE($,#239,#245,#209,.T.);
#293=EDGE_CURVE($,#246,#246,#210,.T.);
#294=EDGE_CURVE($,#247,#247,#211,.T.);
#295=EDGE_CURVE($,#248,#248,#212,.T.);
#296=EDGE_CURVE($,#249,#249,#213,.T.);
#297=EDGE_CURVE($,#250,#250,#214,.T.);
#298=EDGE_CURVE($,#251,#251,#215,.T.);
#299=EDGE_CURVE($,#252,#252,#216,.T.);
#300=EDGE_CURVE($,#253,#253,#217,.T.);
#301=EDGE_CURVE($,#254,#254,#218,.T.);
#302=EDGE_CURVE($,#255,#255,#219,.T.);
#303=EDGE_CURVE($,#256,#256,#220,.T.);
#304=EDGE_CURVE($,#257,#257,#221,.T.);
#305=EDGE_CURVE($,#258,#258,#222,.T.);
#306=EDGE_CURVE($,#259,#259,#223,.T.);
#307=EDGE_CURVE($,#260,#260,#224,.T.);
#308=EDGE_CURVE($,#261,#262,#35,.T.);
#309=EDGE_CURVE($,#263,#261,#225,.T.);
#310=EDGE_CURVE($,#264,#263,#36,.T.);
#311=EDGE_CURVE($,#262,#264,#226,.T.);
#312=EDGE_CURVE($,#265,#263,#37,.T.);
#313=EDGE_CURVE($,#266,#265,#38,.T.);
#314=EDGE_CURVE($,#264,#266,#39,.T.);
#315=EDGE_CURVE($,#261,#267,#40,.T.);
#316=EDGE_CURVE($,#265,#267,#227,.T.);
#317=EDGE_CURVE($,#268,#262,#41,.T.);
#318=EDGE_CURVE($,#267,#268,#42,.T.);
#319=EDGE_CURVE($,#268,#266,#228,.T.);
#320=EDGE_CURVE($,#269,#269,#229,.T.);
#321=EDGE_CURVE($,#270,#271,#15,.T.);
#322=EDGE_CURVE($,#272,#270,#43,.T.);
#323=EDGE_CURVE($,#273,#272,#16,.T.);
#324=EDGE_CURVE($,#274,#273,#17,.T.);
#325=EDGE_CURVE($,#271,#274,#44,.T.);
#326=EDGE_CURVE($,#275,#275,#230,.T.);
#327=EDGE_CURVE($,#270,#271,#231,.T.);
#328=EDGE_CURVE($,#274,#272,#232,.T.);
#329=ORIENTED_EDGE($,*,*,#276,.T.);
#330=ORIENTED_EDGE($,*,*,#277,.F.);
#331=ORIENTED_EDGE($,*,*,#278,.T.);
#332=ORIENTED_EDGE($,*,*,#276,.F.);
#333=ORIENTED_EDGE($,*,*,#279,.T.);
#334=ORIENTED_EDGE($,*,*,#278,.F.);
#335=ORIENTED_EDGE($,*,*,#280,.T.);
#336=ORIENTED_EDGE($,*,*,#279,.F.);
#337=ORIENTED_EDGE($,*,*,#280,.F.);
#338=ORIENTED_EDGE($,*,*,#281,.T.);
#339=ORIENTED_EDGE($,*,*,#282,.F.);
#340=ORIENTED_EDGE($,*,*,#283,.F.);
#341=ORIENTED_EDGE($,*,*,#284,.T.);
#342=ORIENTED_EDGE($,*,*,#285,.T.);
#343=ORIENTED_EDGE($,*,*,#283,.T.);
#344=ORIENTED_EDGE($,*,*,#286,.T.);
#345=ORIENTED_EDGE($,*,*,#287,.T.);
#346=ORIENTED_EDGE($,*,*,#288,.F.);
#347=ORIENTED_EDGE($,*,*,#289,.T.);
#348=ORIENTED_EDGE($,*,*,#284,.F.);
#349=ORIENTED_EDGE($,*,*,#285,.F.);
#350=ORIENTED_EDGE($,*,*,#290,.T.);
#351=ORIENTED_EDGE($,*,*,#288,.T.);
#352=ORIENTED_EDGE($,*,*,#287,.F.);
#353=ORIENTED_EDGE($,*,*,#291,.F.);
#354=ORIENTED_EDGE($,*,*,#277,.T.);
#355=ORIENTED_EDGE($,*,*,#292,.T.);
#356=ORIENTED_EDGE($,*,*,#291,.T.);
#357=ORIENTED_EDGE($,*,*,#286,.F.);
#358=ORIENTED_EDGE($,*,*,#282,.T.);
#359=ORIENTED_EDGE($,*,*,#281,.F.);
#360=ORIENTED_EDGE($,*,*,#289,.F.);
#361=ORIENTED_EDGE($,*,*,#290,.F.);
#362=ORIENTED_EDGE($,*,*,#292,.F.);
#363=ORIENTED_EDGE($,*,*,#293,.T.);
#364=ORIENTED_EDGE($,*,*,#294,.F.);
#365=ORIENTED_EDGE($,*,*,#293,.F.);
#366=ORIENTED_EDGE($,*,*,#295,.T.);
#367=ORIENTED_EDGE($,*,*,#294,.T.);
#368=ORIENTED_EDGE($,*,*,#295,.F.);
#369=ORIENTED_EDGE($,*,*,#296,.F.);
#370=ORIENTED_EDGE($,*,*,#297,.F.);
#371=ORIENTED_EDGE($,*,*,#296,.T.);
#372=ORIENTED_EDGE($,*,*,#297,.T.);
#373=ORIENTED_EDGE($,*,*,#298,.T.);
#374=ORIENTED_EDGE($,*,*,#298,.F.);
#375=ORIENTED_EDGE($,*,*,#299,.F.);
#376=ORIENTED_EDGE($,*,*,#299,.T.);
#377=ORIENTED_EDGE($,*,*,#300,.F.);
#378=ORIENTED_EDGE($,*,*,#300,.T.);
#379=ORIENTED_EDGE($,*,*,#301,.F.);
#380=ORIENTED_EDGE($,*,*,#301,.T.);
#381=ORIENTED_EDGE($,*,*,#302,.F.);
#382=ORIENTED_EDGE($,*,*,#302,.T.);
#383=ORIENTED_EDGE($,*,*,#303,.F.);
#384=ORIENTED_EDGE($,*,*,#303,.T.);
#385=ORIENTED_EDGE($,*,*,#304,.T.);
#386=ORIENTED_EDGE($,*,*,#305,.F.);
#387=ORIENTED_EDGE($,*,*,#304,.F.);
#388=ORIENTED_EDGE($,*,*,#305,.T.);
#389=ORIENTED_EDGE($,*,*,#306,.F.);
#390=ORIENTED_EDGE($,*,*,#307,.F.);
#391=ORIENTED_EDGE($,*,*,#306,.T.);
#392=ORIENTED_EDGE($,*,*,#307,.T.);
#393=ORIENTED_EDGE($,*,*,#308,.F.);
#394=ORIENTED_EDGE($,*,*,#309,.F.);
#395=ORIENTED_EDGE($,*,*,#310,.F.);
#396=ORIENTED_EDGE($,*,*,#311,.F.);
#397=ORIENTED_EDGE($,*,*,#310,.T.);
#398=ORIENTED_EDGE($,*,*,#312,.F.);
#399=ORIENTED_EDGE($,*,*,#313,.F.);
#400=ORIENTED_EDGE($,*,*,#314,.F.);
#401=ORIENTED_EDGE($,*,*,#309,.T.);
#402=ORIENTED_EDGE($,*,*,#315,.T.);
#403=ORIENTED_EDGE($,*,*,#316,.F.);
#404=ORIENTED_EDGE($,*,*,#312,.T.);
#405=ORIENTED_EDGE($,*,*,#308,.T.);
#406=ORIENTED_EDGE($,*,*,#317,.F.);
#407=ORIENTED_EDGE($,*,*,#318,.F.);
#408=ORIENTED_EDGE($,*,*,#315,.F.);
#409=ORIENTED_EDGE($,*,*,#313,.T.);
#410=ORIENTED_EDGE($,*,*,#316,.T.);
#411=ORIENTED_EDGE($,*,*,#318,.T.);
#412=ORIENTED_EDGE($,*,*,#319,.T.);
#413=ORIENTED_EDGE($,*,*,#311,.T.);
#414=ORIENTED_EDGE($,*,*,#314,.T.);
#415=ORIENTED_EDGE($,*,*,#319,.F.);
#416=ORIENTED_EDGE($,*,*,#317,.T.);
#417=ORIENTED_EDGE($,*,*,#320,.T.);
#418=ORIENTED_EDGE($,*,*,#321,.F.);
#419=ORIENTED_EDGE($,*,*,#322,.F.);
#420=ORIENTED_EDGE($,*,*,#323,.F.);
#421=ORIENTED_EDGE($,*,*,#324,.F.);
#422=ORIENTED_EDGE($,*,*,#325,.F.);
#423=ORIENTED_EDGE($,*,*,#326,.T.);
#424=ORIENTED_EDGE($,*,*,#321,.T.);
#425=ORIENTED_EDGE($,*,*,#327,.F.);
#426=ORIENTED_EDGE($,*,*,#326,.F.);
#427=ORIENTED_EDGE($,*,*,#320,.F.);
#428=ORIENTED_EDGE($,*,*,#323,.T.);
#429=ORIENTED_EDGE($,*,*,#328,.F.);
#430=ORIENTED_EDGE($,*,*,#324,.T.);
#431=ORIENTED_EDGE($,*,*,#322,.T.);
#432=ORIENTED_EDGE($,*,*,#327,.T.);
#433=ORIENTED_EDGE($,*,*,#325,.T.);
#434=ORIENTED_EDGE($,*,*,#328,.T.);
#435=PLANE($,#511);
#436=PLANE($,#520);
#437=PLANE($,#521);
#438=PLANE($,#522);
#439=PLANE($,#527);
#440=PLANE($,#530);
#441=PLANE($,#531);
#442=PLANE($,#535);
#443=PLANE($,#539);
#444=PLANE($,#543);
#445=PLANE($,#547);
#446=PLANE($,#553);
#447=PLANE($,#558);
#448=PLANE($,#562);
#449=PLANE($,#563);
#450=PLANE($,#567);
#451=PLANE($,#568);
#452=PLANE($,#570);
#453=PLANE($,#573);
#454=PLANE($,#574);
#455=PLANE($,#580);
#456=PLANE($,#583);
#457=ADVANCED_FACE($,(#100,#81),#435,.T.);
#458=ADVANCED_FACE($,(#101,#82),#66,.T.);
#459=ADVANCED_FACE($,(#102,#83),#63,.F.);
#460=ADVANCED_FACE($,(#103,#84),#67,.F.);
#461=ADVANCED_FACE($,(#104),#436,.T.);
#462=ADVANCED_FACE($,(#105),#437,.F.);
#463=ADVANCED_FACE($,(#106),#438,.T.);
#464=ADVANCED_FACE($,(#107),#68,.T.);
#465=ADVANCED_FACE($,(#108),#439,.F.);
#466=ADVANCED_FACE($,(#109,#85),#69,.T.);
#467=ADVANCED_FACE($,(#110),#440,.F.);
#468=ADVANCED_FACE($,(#111),#441,.F.);
#469=ADVANCED_FACE($,(#112,#86),#70,.T.);
#470=ADVANCED_FACE($,(#113,#87),#442,.T.);
#471=ADVANCED_FACE($,(#114,#88),#71,.T.);
#472=ADVANCED_FACE($,(#115,#89),#443,.T.);
#473=ADVANCED_FACE($,(#116,#90),#72,.T.);
#474=ADVANCED_FACE($,(#117,#91),#444,.T.);
#475=ADVANCED_FACE($,(#118,#92),#73,.T.);
#476=ADVANCED_FACE($,(#119,#93),#445,.T.);
#477=ADVANCED_FACE($,(#120,#94),#64,.F.);
#478=ADVANCED_FACE($,(#121,#95),#74,.F.);
#479=ADVANCED_FACE($,(#122),#446,.T.);
#480=ADVANCED_FACE($,(#123),#18,.T.);
#481=ADVANCED_FACE($,(#124,#96),#75,.T.);
#482=ADVANCED_FACE($,(#125),#447,.T.);
#483=ADVANCED_FACE($,(#126,#97),#76,.T.);
#484=ADVANCED_FACE($,(#127),#448,.T.);
#485=ADVANCED_FACE($,(#128),#449,.T.);
#486=ADVANCED_FACE($,(#129),#77,.F.);
#487=ADVANCED_FACE($,(#130),#450,.F.);
#488=ADVANCED_FACE($,(#131),#451,.T.);
#489=ADVANCED_FACE($,(#132),#452,.F.);
#490=ADVANCED_FACE($,(#133),#65,.T.);
#491=ADVANCED_FACE($,(#134),#453,.F.);
#492=ADVANCED_FACE($,(#135),#454,.T.);
#493=ADVANCED_FACE($,(#136),#78,.F.);
#494=ADVANCED_FACE($,(#137,#98),#79,.F.);
#495=ADVANCED_FACE($,(#138),#455,.F.);
#496=ADVANCED_FACE($,(#139,#99),#80,.T.);
#497=ADVANCED_FACE($,(#140),#456,.T.);
#498=CLOSED_SHELL($,(#457,#458,#459,#460,#461,#462,#463,#464,#465,#466,
#467));
#499=CLOSED_SHELL($,(#468,#469,#470,#471,#472,#473,#474,#475,#476,#477,
#478,#479));
#500=CLOSED_SHELL($,(#480,#481,#482));
#501=CLOSED_SHELL($,(#483,#484,#485));
#502=CLOSED_SHELL($,(#486,#487,#488,#489,#490,#491));
#503=CLOSED_SHELL($,(#492,#493,#494,#495,#496,#497));
#504=MANIFOLD_SOLID_BREP('3564',#498);
#505=MANIFOLD_SOLID_BREP('3564',#499);
#506=MANIFOLD_SOLID_BREP('3583',#500);
#507=MANIFOLD_SOLID_BREP('3596',#501);
#508=MANIFOLD_SOLID_BREP('35AB',#502);
#509=MANIFOLD_SOLID_BREP('35EA',#503);
#510=AXIS2_PLACEMENT_3D('placement',#750,#584,#585);
#511=AXIS2_PLACEMENT_3D($,#751,#586,#587);
#512=AXIS2_PLACEMENT_3D($,#753,#588,#589);
#513=AXIS2_PLACEMENT_3D($,#755,#590,#591);
#514=AXIS2_PLACEMENT_3D($,#756,#592,#593);
#515=AXIS2_PLACEMENT_3D($,#758,#594,#595);
#516=AXIS2_PLACEMENT_3D($,#759,#596,#597);
#517=AXIS2_PLACEMENT_3D($,#761,#598,#599);
#518=AXIS2_PLACEMENT_3D($,#762,#600,#601);
#519=AXIS2_PLACEMENT_3D($,#764,#602,#603);
#520=AXIS2_PLACEMENT_3D($,#765,#604,#605);
#521=AXIS2_PLACEMENT_3D($,#766,#606,#607);
#522=AXIS2_PLACEMENT_3D($,#775,#612,#613);
#523=AXIS2_PLACEMENT_3D($,#777,#614,#615);
#524=AXIS2_PLACEMENT_3D($,#779,#616,#617);
#525=AXIS2_PLACEMENT_3D($,#781,#619,#620);
#526=AXIS2_PLACEMENT_3D($,#784,#622,#623);
#527=AXIS2_PLACEMENT_3D($,#785,#624,#625);
#528=AXIS2_PLACEMENT_3D($,#789,#628,#629);
#529=AXIS2_PLACEMENT_3D($,#790,#630,#631);
#530=AXIS2_PLACEMENT_3D($,#791,#632,#633);
#531=AXIS2_PLACEMENT_3D($,#792,#634,#635);
#532=AXIS2_PLACEMENT_3D($,#794,#636,#637);
#533=AXIS2_PLACEMENT_3D($,#795,#638,#639);
#534=AXIS2_PLACEMENT_3D($,#797,#640,#641);
#535=AXIS2_PLACEMENT_3D($,#798,#642,#643);
#536=AXIS2_PLACEMENT_3D($,#800,#644,#645);
#537=AXIS2_PLACEMENT_3D($,#801,#646,#647);
#538=AXIS2_PLACEMENT_3D($,#803,#648,#649);
#539=AXIS2_PLACEMENT_3D($,#804,#650,#651);
#540=AXIS2_PLACEMENT_3D($,#806,#652,#653);
#541=AXIS2_PLACEMENT_3D($,#807,#654,#655);
#542=AXIS2_PLACEMENT_3D($,#809,#656,#657);
#543=AXIS2_PLACEMENT_3D($,#810,#658,#659);
#544=AXIS2_PLACEMENT_3D($,#812,#660,#661);
#545=AXIS2_PLACEMENT_3D($,#813,#662,#663);
#546=AXIS2_PLACEMENT_3D($,#815,#664,#665);
#547=AXIS2_PLACEMENT_3D($,#816,#666,#667);
#548=AXIS2_PLACEMENT_3D($,#818,#668,#669);
#549=AXIS2_PLACEMENT_3D($,#819,#670,#671);
#550=AXIS2_PLACEMENT_3D($,#821,#672,#673);
#551=AXIS2_PLACEMENT_3D($,#822,#674,#675);
#552=AXIS2_PLACEMENT_3D($,#824,#676,#677);
#553=AXIS2_PLACEMENT_3D($,#825,#678,#679);
#554=AXIS2_PLACEMENT_3D($,#826,#680,#681);
#555=AXIS2_PLACEMENT_3D($,#828,#682,#683);
#556=AXIS2_PLACEMENT_3D($,#829,#684,#685);
#557=AXIS2_PLACEMENT_3D($,#831,#686,#687);
#558=AXIS2_PLACEMENT_3D($,#832,#688,#689);
#559=AXIS2_PLACEMENT_3D($,#833,#690,#691);
#560=AXIS2_PLACEMENT_3D($,#835,#692,#693);
#561=AXIS2_PLACEMENT_3D($,#837,#694,#695);
#562=AXIS2_PLACEMENT_3D($,#838,#696,#697);
#563=AXIS2_PLACEMENT_3D($,#839,#698,#699);
#564=AXIS2_PLACEMENT_3D($,#840,#700,#701);
#565=AXIS2_PLACEMENT_3D($,#845,#703,#704);
#566=AXIS2_PLACEMENT_3D($,#848,#706,#707);
#567=AXIS2_PLACEMENT_3D($,#849,#708,#709);
#568=AXIS2_PLACEMENT_3D($,#855,#713,#714);
#569=AXIS2_PLACEMENT_3D($,#858,#716,#717);
#570=AXIS2_PLACEMENT_3D($,#859,#718,#719);
#571=AXIS2_PLACEMENT_3D($,#863,#722,#723);
#572=AXIS2_PLACEMENT_3D($,#864,#724,#725);
#573=AXIS2_PLACEMENT_3D($,#865,#726,#727);
#574=AXIS2_PLACEMENT_3D($,#866,#728,#729);
#575=AXIS2_PLACEMENT_3D($,#868,#730,#731);
#576=AXIS2_PLACEMENT_3D($,#869,#732,#733);
#577=AXIS2_PLACEMENT_3D($,#944,#736,#737);
#578=AXIS2_PLACEMENT_3D($,#946,#738,#739);
#579=AXIS2_PLACEMENT_3D($,#947,#740,#741);
#580=AXIS2_PLACEMENT_3D($,#948,#742,#743);
#581=AXIS2_PLACEMENT_3D($,#949,#744,#745);
#582=AXIS2_PLACEMENT_3D($,#950,#746,#747);
#583=AXIS2_PLACEMENT_3D($,#951,#748,#749);
#584=DIRECTION('axis',(0.,0.,1.));
#585=DIRECTION('refdir',(1.,0.,0.));
#586=DIRECTION('center_axis',(3.21624529935327E-16,-1.83697019872103E-16,
-1.));
#587=DIRECTION('ref_axis',(4.44089209850063E-16,1.,0.));
#588=DIRECTION('center_axis',(3.52538103968229E-16,7.1409373653897E-17,
-1.));
#589=DIRECTION('ref_axis',(1.,-2.22044604925031E-16,3.52538103968229E-16));
#590=DIRECTION('center_axis',(1.88695527944765E-16,4.6542765374975E-17,
-1.));
#591=DIRECTION('ref_axis',(1.,-2.22044604925031E-16,1.88695527944765E-16));
#592=DIRECTION('center_axis',(-6.78023167949592E-16,1.83697019872103E-16,
1.));
#593=DIRECTION('ref_axis',(1.,-2.22044604925031E-16,6.78023167949592E-16));
#594=DIRECTION('center_axis',(7.65586239907411E-16,-1.83697019872104E-16,
-1.));
#595=DIRECTION('ref_axis',(1.,-1.68286437416866E-15,7.65586239907412E-16));
#596=DIRECTION('center_axis',(-3.21624529935327E-16,1.83697019872103E-16,
1.));
#597=DIRECTION('ref_axis',(1.,1.46299012738486E-16,3.21624529935327E-16));
#598=DIRECTION('center_axis',(1.26836188321705E-15,4.47111516846876E-16,
-1.));
#599=DIRECTION('ref_axis',(1.,-2.04327660070123E-15,1.26836188321705E-15));
#600=DIRECTION('center_axis',(-5.03723269176236E-16,4.99101288231594E-16,
1.));
#601=DIRECTION('ref_axis',(1.,-2.22044604925031E-16,5.03723269176236E-16));
#602=DIRECTION('center_axis',(5.57710159017429E-16,-1.05993767238723E-15,
-1.));
#603=DIRECTION('ref_axis',(1.,-2.22044604925031E-16,5.57710159017429E-16));
#604=DIRECTION('center_axis',(-3.21624529935327E-16,1.83697019872103E-16,
1.));
#605=DIRECTION('ref_axis',(4.44089209850063E-16,1.,0.));
#606=DIRECTION('center_axis',(-0.38268343236509,-0.923879532511287,4.66335377946954E-17));
#607=DIRECTION('ref_axis',(0.923879532511287,-0.38268343236509,4.44089209850063E-16));
#608=DIRECTION($,(-0.923879532511287,0.38268343236509,2.2628522245754E-16));
#609=DIRECTION($,(5.05411334402062E-16,1.52489700278441E-16,-1.));
#610=DIRECTION($,(-0.923879532511287,0.38268343236509,-3.67440126440707E-16));
#611=DIRECTION($,(-2.44929359829471E-16,-1.22464679914735E-16,-1.));
#612=DIRECTION('center_axis',(-3.21624529935327E-16,1.83697019872103E-16,
1.));
#613=DIRECTION('ref_axis',(4.44089209850063E-16,1.,0.));
#614=DIRECTION('center_axis',(-3.21624529935327E-16,1.83697019872103E-16,
1.));
#615=DIRECTION('ref_axis',(1.,-3.39953499476527E-32,-2.44929359829471E-16));
#616=DIRECTION('center_axis',(3.21624529935327E-16,-1.83697019872103E-16,
-1.));
#617=DIRECTION('ref_axis',(-2.22044604925031E-16,-1.,1.83697019872103E-16));
#618=DIRECTION($,(0.923879532511287,0.38268343236509,2.26844514280918E-16));
#619=DIRECTION('center_axis',(-2.44929359829471E-16,-1.22464679914735E-16,
-1.));
#620=DIRECTION('ref_axis',(1.,-3.39953499476527E-32,-2.44929359829471E-16));
#621=DIRECTION($,(2.44929359829471E-16,1.22464679914735E-16,1.));
#622=DIRECTION('center_axis',(2.44929359829471E-16,0.,1.));
#623=DIRECTION('ref_axis',(1.,-3.39953499476527E-32,-2.44929359829471E-16));
#624=DIRECTION('center_axis',(-0.38268343236509,0.923879532511287,-2.92794295891615E-16));
#625=DIRECTION('ref_axis',(-0.923879532511287,-0.38268343236509,-2.22044604925031E-16));
#626=DIRECTION($,(0.923879532511287,0.38268343236509,-2.2628522245754E-16));
#627=DIRECTION($,(-5.05411334402062E-16,-1.52489700278441E-16,1.));
#628=DIRECTION('center_axis',(-5.05411334402062E-16,-1.52489700278441E-16,
1.));
#629=DIRECTION('ref_axis',(1.,-2.22044604925031E-16,5.05411334402062E-16));
#630=DIRECTION('center_axis',(2.44929359829471E-16,0.,1.));
#631=DIRECTION('ref_axis',(1.,-2.22044604925031E-16,5.05411334402062E-16));
#632=DIRECTION('center_axis',(2.44929359829471E-16,0.,1.));
#633=DIRECTION('ref_axis',(1.,0.,-4.44089209850063E-16));
#634=DIRECTION('center_axis',(-2.44929359829471E-16,0.,-1.));
#635=DIRECTION('ref_axis',(-1.,0.,2.22044604925031E-16));
#636=DIRECTION('center_axis',(-3.21624529935327E-16,1.83697019872103E-16,
1.));
#637=DIRECTION('ref_axis',(2.22044604925031E-16,1.,-1.83697019872103E-16));
#638=DIRECTION('center_axis',(-5.05411334402062E-16,-1.52489700278441E-16,
1.));
#639=DIRECTION('ref_axis',(1.,-2.22044604925031E-16,5.05411334402062E-16));
#640=DIRECTION('center_axis',(2.73100156591104E-16,-9.96503398344673E-17,
-1.));
#641=DIRECTION('ref_axis',(1.,-2.22044604925031E-16,2.73100156591104E-16));
#642=DIRECTION('center_axis',(-3.21624529935327E-16,1.83697019872103E-16,
1.));
#643=DIRECTION('ref_axis',(4.44089209850063E-16,1.,-2.22044604925031E-16));
#644=DIRECTION('center_axis',(-7.6333652613313E-16,1.08786784318615E-15,
1.));
#645=DIRECTION('ref_axis',(1.,1.22355829172233E-15,7.63336526133129E-16));
#646=DIRECTION('center_axis',(-1.04221288105173E-15,-2.31425433557031E-16,
1.));
#647=DIRECTION('ref_axis',(1.,-2.22044604925031E-16,1.04221288105173E-15));
#648=DIRECTION('center_axis',(8.20838834579087E-16,5.9770995128862E-16,
-1.));
#649=DIRECTION('ref_axis',(1.,-1.66764750157239E-15,8.20838834579087E-16));
#650=DIRECTION('center_axis',(-3.21624529935327E-16,1.83697019872103E-16,
1.));
#651=DIRECTION('ref_axis',(4.44089209850063E-16,1.,-1.66533453693773E-16));
#652=DIRECTION('center_axis',(7.5968601376786E-16,5.14348147217897E-16,
-1.));
#653=DIRECTION('ref_axis',(1.,-1.48366167836272E-15,7.5968601376786E-16));
#654=DIRECTION('center_axis',(-8.80742635562047E-16,8.51331860097838E-17,
1.));
#655=DIRECTION('ref_axis',(1.,-2.22044604925031E-16,8.80742635562047E-16));
#656=DIRECTION('center_axis',(1.51140659901239E-17,8.73643856908338E-16,
1.));
#657=DIRECTION('ref_axis',(1.,1.03957246851267E-15,-1.51140659901248E-17));
#658=DIRECTION('center_axis',(3.21624529935327E-16,-1.83697019872103E-16,
-1.));
#659=DIRECTION('ref_axis',(4.44089209850063E-16,1.,-2.22044604925031E-16));
#660=DIRECTION('center_axis',(3.61780165953309E-16,-2.53248621665491E-16,
-1.));
#661=DIRECTION('ref_axis',(1.,-2.22044604925031E-16,3.61780165953309E-16));
#662=DIRECTION('center_axis',(-6.5469143732287E-16,1.83697019872103E-16,
1.));
#663=DIRECTION('ref_axis',(1.,-2.22044604925031E-16,6.5469143732287E-16));
#664=DIRECTION('center_axis',(2.54074210992963E-16,5.10192370518616E-16,
-1.));
#665=DIRECTION('ref_axis',(1.,-2.22044604925031E-16,2.54074210992963E-16));
#666=DIRECTION('center_axis',(3.21624529935327E-16,-1.83697019872103E-16,
-1.));
#667=DIRECTION('ref_axis',(4.44089209850063E-16,1.,0.));
#668=DIRECTION('center_axis',(4.85915544394588E-16,-4.68257404142577E-16,
-1.));
#669=DIRECTION('ref_axis',(1.,-2.22044604925031E-16,4.85915544394588E-16));
#670=DIRECTION('center_axis',(3.21624529935327E-16,-1.83697019872103E-16,
-1.));
#671=DIRECTION('ref_axis',(1.,-7.74258735306665E-16,3.21624529935327E-16));
#672=DIRECTION('center_axis',(2.61673350561038E-16,-7.72745437325399E-16,
-1.));
#673=DIRECTION('ref_axis',(1.,-1.9567680809018E-15,2.61673350561039E-16));
#674=DIRECTION('center_axis',(-8.19631667514981E-16,2.99665779118615E-18,
1.));
#675=DIRECTION('ref_axis',(1.,-2.22044604925031E-16,8.19631667514981E-16));
#676=DIRECTION('center_axis',(1.09817258114325E-15,-1.26789919235761E-15,
-1.));
#677=DIRECTION('ref_axis',(1.,-2.22044604925031E-16,1.09817258114325E-15));
#678=DIRECTION('center_axis',(3.21624529935327E-16,-1.83697019872103E-16,
-1.));
#679=DIRECTION('ref_axis',(4.44089209850063E-16,1.,-2.22044604925031E-16));
#680=DIRECTION('center_axis',(3.06161699786839E-16,0.,1.));
#681=DIRECTION('ref_axis',(1.,0.,0.));
#682=DIRECTION('center_axis',(2.44929359829471E-16,0.,1.));
#683=DIRECTION('ref_axis',(1.,0.,-2.44929359829471E-16));
#684=DIRECTION('center_axis',(2.44929359829471E-16,0.,1.));
#685=DIRECTION('ref_axis',(1.,0.,-2.44929359829471E-16));
#686=DIRECTION('center_axis',(-2.44929359829471E-16,0.,-1.));
#687=DIRECTION('ref_axis',(1.,0.,-2.44929359829471E-16));
#688=DIRECTION('center_axis',(-2.44929359829471E-16,0.,-1.));
#689=DIRECTION('ref_axis',(-1.,0.,0.));
#690=DIRECTION('center_axis',(2.44929359829471E-16,0.,1.));
#691=DIRECTION('ref_axis',(1.,0.,-2.44929359829471E-16));
#692=DIRECTION('center_axis',(-2.44929359829471E-16,0.,-1.));
#693=DIRECTION('ref_axis',(1.,0.,-2.44929359829471E-16));
#694=DIRECTION('center_axis',(2.44929359829471E-16,0.,1.));
#695=DIRECTION('ref_axis',(1.,0.,-2.44929359829471E-16));
#696=DIRECTION('center_axis',(-2.44929359829471E-16,0.,-1.));
#697=DIRECTION('ref_axis',(-1.,0.,2.22044604925031E-16));
#698=DIRECTION('center_axis',(2.44929359829471E-16,0.,1.));
#699=DIRECTION('ref_axis',(1.,0.,-4.44089209850063E-16));
#700=DIRECTION('center_axis',(-2.44929359829471E-16,-1.22464679914735E-16,
-1.));
#701=DIRECTION('ref_axis',(1.,0.,-2.44929359829471E-16));
#702=DIRECTION($,(-2.44929359829471E-16,-1.22464679914735E-16,-1.));
#703=DIRECTION('center_axis',(-2.44929359829471E-16,0.,-1.));
#704=DIRECTION('ref_axis',(1.,0.,-2.44929359829471E-16));
#705=DIRECTION($,(2.44929359829471E-16,1.22464679914735E-16,1.));
#706=DIRECTION('center_axis',(2.44929359829471E-16,0.,1.));
#707=DIRECTION('ref_axis',(1.,0.,-2.44929359829471E-16));
#708=DIRECTION('center_axis',(-0.382683432365047,-0.923879532511305,9.37304081065154E-17));
#709=DIRECTION('ref_axis',(0.923879532511305,-0.382683432365047,-2.22044604925031E-16));
#710=DIRECTION($,(-0.923879532511305,0.382683432365047,2.26285222457544E-16));
#711=DIRECTION($,(-0.199845674251566,0.0827787886565836,0.976324422838784));
#712=DIRECTION($,(0.923879532511305,-0.382683432365047,-2.26285222457544E-16));
#713=DIRECTION('center_axis',(2.44929359829471E-16,0.,1.));
#714=DIRECTION('ref_axis',(1.,0.,0.));
#715=DIRECTION($,(0.923879532511305,0.382683432365047,-2.26285222457544E-16));
#716=DIRECTION('center_axis',(-2.44929359829471E-16,0.,-1.));
#717=DIRECTION('ref_axis',(-1.,0.,2.44929359829471E-16));
#718=DIRECTION('center_axis',(-0.382683432365047,0.923879532511305,9.37304081065154E-17));
#719=DIRECTION('ref_axis',(-0.923879532511305,-0.382683432365047,2.22044604925031E-16));
#720=DIRECTION($,(-0.923879532511305,-0.382683432365046,2.26285222457544E-16));
#721=DIRECTION($,(0.199845674251566,0.0827787886565836,-0.976324422838784));
#722=DIRECTION('center_axis',(-2.44929359829471E-16,0.,-1.));
#723=DIRECTION('ref_axis',(-1.,0.,2.44929359829471E-16));
#724=DIRECTION('center_axis',(2.44929359829471E-16,0.,1.));
#725=DIRECTION('ref_axis',(-1.,0.,2.44929359829471E-16));
#726=DIRECTION('center_axis',(2.44929359829471E-16,0.,1.));
#727=DIRECTION('ref_axis',(1.,0.,-4.44089209850063E-16));
#728=DIRECTION('center_axis',(2.44929359829471E-16,0.,1.));
#729=DIRECTION('ref_axis',(1.,9.86076131526265E-32,-2.22044604925031E-16));
#730=DIRECTION('center_axis',(2.44929359829471E-16,0.,1.));
#731=DIRECTION('ref_axis',(-1.,-1.23259516440788E-31,2.44929359829471E-16));
#732=DIRECTION('center_axis',(1.,5.2820630471187E-16,-2.28847549044394E-17));
#733=DIRECTION('ref_axis',(-4.73386642046836E-16,0.913811548620252,0.406138466053458));
#734=DIRECTION($,(-1.,-5.2820630471187E-16,2.28847549044394E-17));
#735=DIRECTION($,(-1.,-5.2820630471187E-16,2.28847549044394E-17));
#736=DIRECTION('center_axis',(-2.2884754904439E-17,-7.27366154732462E-16,
-1.));
#737=DIRECTION('ref_axis',(-5.2820630471187E-16,1.,-7.27366154732462E-16));
#738=DIRECTION('center_axis',(2.2884754904439E-17,7.27366154732462E-16,
1.));
#739=DIRECTION('ref_axis',(-5.2820630471187E-16,1.,-7.27366154732462E-16));
#740=DIRECTION('center_axis',(2.2884754904439E-17,7.27366154732462E-16,
1.));
#741=DIRECTION('ref_axis',(-5.2820630471187E-16,1.,-7.27366154732462E-16));
#742=DIRECTION('center_axis',(2.2884754904439E-17,7.27366154732462E-16,
1.));
#743=DIRECTION('ref_axis',(5.28206304711869E-16,-1.,8.88178419700125E-16));
#744=DIRECTION('center_axis',(-2.2884754904439E-17,-7.27366154732462E-16,
-1.));
#745=DIRECTION('ref_axis',(-5.28206304711869E-16,1.,-7.27366154732461E-16));
#746=DIRECTION('center_axis',(-2.2884754904439E-17,-7.27366154732462E-16,
-1.));
#747=DIRECTION('ref_axis',(-5.28206304711869E-16,1.,-7.27366154732461E-16));
#748=DIRECTION('center_axis',(-2.2884754904439E-17,-7.27366154732462E-16,
-1.));
#749=DIRECTION('ref_axis',(-5.28206304711869E-16,1.,-8.88178419700125E-16));
#750=CARTESIAN_POINT('',(0.,0.,0.));
#751=CARTESIAN_POINT('Origin',(-2.61250000000001,-2.6125,4.39999999999999));
#752=CARTESIAN_POINT('',(2.37500000000004,3.5527136788005E-15,4.39999999999999));
#753=CARTESIAN_POINT('Origin',(-3.5527136788005E-15,3.5527136788005E-15,
4.39999999999999));
#754=CARTESIAN_POINT('',(1.44999999999998,3.5527136788005E-15,4.39999999999999));
#755=CARTESIAN_POINT('Origin',(-1.4210854715202E-14,3.5527136788005E-15,
4.39999999999999));
#756=CARTESIAN_POINT('Origin',(7.105427357601E-15,3.5527136788005E-15,4.39999999999999));
#757=CARTESIAN_POINT('',(2.37499999999993,3.5527136788005E-15,11.2));
#758=CARTESIAN_POINT('Origin',(-1.59872115546023E-14,3.5527136788005E-15,
11.2));
#759=CARTESIAN_POINT('Origin',(-5.32907051820075E-15,3.5527136788005E-15,
10.7));
#760=CARTESIAN_POINT('',(1.90499999999994,3.5527136788005E-15,10.7));
#761=CARTESIAN_POINT('Origin',(-1.59872115546023E-14,3.5527136788005E-15,
10.7));
#762=CARTESIAN_POINT('Origin',(7.105427357601E-15,3.5527136788005E-15,5.20000000000121));
#763=CARTESIAN_POINT('',(1.90499999999994,3.5527136788005E-15,5.20000000000121));
#764=CARTESIAN_POINT('Origin',(-1.4210854715202E-14,3.5527136788005E-15,
5.20000000000121));
#765=CARTESIAN_POINT('Origin',(2.09549999999994,-2.09549999999999,5.20000000000121));
#766=CARTESIAN_POINT('Origin',(1.41353568474224,-0.585505651518599,1.89999999999998));
#767=CARTESIAN_POINT('',(1.33991201269853,-0.555009728046386,2.7));
#768=CARTESIAN_POINT('',(1.33962532214135,-0.554890976929393,2.7));
#769=CARTESIAN_POINT($,(0.706767842371109,-0.292752825759305,2.7));
#770=CARTESIAN_POINT('',(1.33962532214134,-0.554890976929393,4.36999999999998));
#771=CARTESIAN_POINT($,(1.33962532214135,-0.554890976929396,1.81999999999999));
#772=CARTESIAN_POINT('',(1.33991201269853,-0.555009728046386,4.36999999999998));
#773=CARTESIAN_POINT($,(2.06025135750014,-0.853384054174096,4.36999999999998));
#774=CARTESIAN_POINT($,(1.33991201269853,-0.555009728046386,3.14999999999999));
#775=CARTESIAN_POINT('Origin',(2.45299999999994,-2.45299999999989,4.36999999999998));
#776=CARTESIAN_POINT('',(1.33991201269854,0.555009728046393,4.36999999999998));
#777=CARTESIAN_POINT('Origin',(-1.59872115546023E-14,7.105427357601E-15,
4.36999999999998));
#778=CARTESIAN_POINT('',(1.33962532214135,0.554890976929403,4.36999999999998));
#779=CARTESIAN_POINT('Origin',(-3.5527136788005E-15,3.5527136788005E-15,
4.36999999999998));
#780=CARTESIAN_POINT($,(1.41353568474224,0.585505651518606,4.36999999999998));
#781=CARTESIAN_POINT('Origin',(-1.4210854715202E-14,7.105427357601E-15,
3.14999999999999));
#782=CARTESIAN_POINT('',(1.33991201269854,0.555009728046397,2.7));
#783=CARTESIAN_POINT($,(1.33991201269856,0.55500972804635,3.14999999999999));
#784=CARTESIAN_POINT('Origin',(-1.4210854715202E-14,7.105427357601E-15,
2.7));
#785=CARTESIAN_POINT('Origin',(2.40208678452934,0.994976924149199,1.89999999999998));
#786=CARTESIAN_POINT('',(1.33962532214135,0.554890976929403,2.7));
#787=CARTESIAN_POINT($,(1.20104339226467,0.497488462074589,2.7));
#788=CARTESIAN_POINT($,(1.33962532214135,0.5548909769294,1.81999999999999));
#789=CARTESIAN_POINT('Origin',(-1.77635683940025E-15,3.5527136788005E-15,
1.81999999999999));
#790=CARTESIAN_POINT('Origin',(-1.77635683940025E-15,3.5527136788005E-15,
2.7));
#791=CARTESIAN_POINT('Origin',(-1.24344978758018E-14,7.105427357601E-15,
2.7));
#792=CARTESIAN_POINT('Origin',(-1.24344978758018E-14,7.105427357601E-15,
1.89999999999998));
#793=CARTESIAN_POINT('',(1.33962532214135,-0.554890976929396,1.89999999999998));
#794=CARTESIAN_POINT('Origin',(-1.77635683940025E-15,3.5527136788005E-15,
1.89999999999998));
#795=CARTESIAN_POINT('Origin',(-1.77635683940025E-15,3.5527136788005E-15,
1.81999999999999));
#796=CARTESIAN_POINT('',(1.44999999999998,0.,1.81999999999999));
#797=CARTESIAN_POINT('Origin',(-1.24344978758018E-14,3.5527136788005E-15,
1.81999999999999));
#798=CARTESIAN_POINT('Origin',(2.63999999999994,-2.6399999999999,1.81999999999999));
#799=CARTESIAN_POINT('',(2.39999999999994,0.,1.81999999999999));
#800=CARTESIAN_POINT('Origin',(-1.77635683940025E-15,3.5527136788005E-15,
1.81999999999999));
#801=CARTESIAN_POINT('Origin',(-1.24344978758018E-14,0.,-0.400000000000009));
#802=CARTESIAN_POINT('',(2.39999999999994,0.,-0.400000000000008));
#803=CARTESIAN_POINT('Origin',(-1.77635683940025E-15,0.,-0.400000000000009));
#804=CARTESIAN_POINT('Origin',(3.02499999999994,-3.025,-0.400000000000008));
#805=CARTESIAN_POINT('',(2.74999999999994,0.,-0.400000000000008));
#806=CARTESIAN_POINT('Origin',(-1.24344978758018E-14,0.,-0.400000000000009));
#807=CARTESIAN_POINT('Origin',(-1.77635683940025E-15,0.,-1.5));
#808=CARTESIAN_POINT('',(2.74999999999994,0.,-1.5));
#809=CARTESIAN_POINT('Origin',(8.88178419700125E-15,0.,-1.5));
#810=CARTESIAN_POINT('Origin',(-3.02499999999996,-3.025,-1.5));
#811=CARTESIAN_POINT('',(2.39999999999994,0.,-1.5));
#812=CARTESIAN_POINT('Origin',(-1.77635683940025E-15,0.,-1.5));
#813=CARTESIAN_POINT('Origin',(0.,0.,-6.50000000000001));
#814=CARTESIAN_POINT('',(2.39999999999994,0.,-6.50000000000001));
#815=CARTESIAN_POINT('Origin',(0.,0.,-6.50000000000001));
#816=CARTESIAN_POINT('Origin',(-2.63999999999998,-2.64,-6.50000000000001));
#817=CARTESIAN_POINT('',(2.34641016151384,0.,-6.5));
#818=CARTESIAN_POINT('Origin',(0.,0.,-6.5));
#819=CARTESIAN_POINT('Origin',(0.,0.,-6.3));
#820=CARTESIAN_POINT('',(2.00000000000004,0.,-6.3));
#821=CARTESIAN_POINT('Origin',(0.,0.,-6.3));
#822=CARTESIAN_POINT('Origin',(1.06581410364015E-14,0.,-6.30000000000001));
#823=CARTESIAN_POINT('',(2.00000000000004,0.,-1.5));
#824=CARTESIAN_POINT('Origin',(-1.77635683940025E-15,0.,-1.5));
#825=CARTESIAN_POINT('Origin',(-2.20000000000003,-2.2,-1.5));
#826=CARTESIAN_POINT('Origin',(-1.13574276731887E-14,3.5527136788005E-15,
10.7));
#827=CARTESIAN_POINT('',(0.499999999999982,3.5527136788005E-15,10.7));
#828=CARTESIAN_POINT('Origin',(-1.13574276731887E-14,3.5527136788005E-15,
10.7));
#829=CARTESIAN_POINT('Origin',(-1.20309834127196E-14,3.5527136788005E-15,
7.95000000000062));
#830=CARTESIAN_POINT('',(0.49999999999998,3.5527136788005E-15,5.20000000000122));
#831=CARTESIAN_POINT('Origin',(-1.27045391522505E-14,3.5527136788005E-15,
5.20000000000122));
#832=CARTESIAN_POINT('Origin',(-1.27045391522505E-14,3.5527136788005E-15,
5.20000000000122));
#833=CARTESIAN_POINT('Origin',(-1.1638477456356E-14,3.5527136788005E-15,
2.29999999999999));
#834=CARTESIAN_POINT('',(2.59999999999993,3.5527136788005E-15,1.89999999999998));
#835=CARTESIAN_POINT('Origin',(-1.17364492002878E-14,3.5527136788005E-15,
1.89999999999998));
#836=CARTESIAN_POINT('',(2.59999999999993,3.5527136788005E-15,2.7));
#837=CARTESIAN_POINT('Origin',(-1.15405057124242E-14,3.5527136788005E-15,
2.7));
#838=CARTESIAN_POINT('Origin',(-1.17364492002878E-14,3.5527136788005E-15,
1.89999999999998));
#839=CARTESIAN_POINT('Origin',(-1.15405057124242E-14,3.5527136788005E-15,
2.7));
#840=CARTESIAN_POINT('Origin',(-1.32066443399012E-14,3.5527136788005E-15,
3.14999999999999));
#841=CARTESIAN_POINT('',(1.33991201269854,0.555009728046392,4.36999999999998));
#842=CARTESIAN_POINT('',(1.33991201269854,0.555009728046392,2.7));
#843=CARTESIAN_POINT($,(1.33991201269854,0.555009728046392,3.14999999999999));
#844=CARTESIAN_POINT('',(1.33991201269854,-0.555009728046388,4.36999999999998));
#845=CARTESIAN_POINT('Origin',(-1.29078305209092E-14,3.70212058829648E-15,
4.36999999999998));
#846=CARTESIAN_POINT('',(1.33991201269854,-0.555009728046388,2.7));
#847=CARTESIAN_POINT($,(1.33991201269854,-0.555009728046388,3.14999999999999));
#848=CARTESIAN_POINT('Origin',(-1.33168625518244E-14,3.49760457283887E-15,
2.7));
#849=CARTESIAN_POINT('Origin',(1.33962532214135,-0.554890976929396,1.89999999999998));
#850=CARTESIAN_POINT('',(2.0602513575001,-0.853384054174105,4.36999999999998));
#851=CARTESIAN_POINT($,(0.669812661070655,-0.277445488464739,4.36999999999998));
#852=CARTESIAN_POINT('',(2.40208678452934,-0.994976924149195,2.69999999999971));
#853=CARTESIAN_POINT($,(2.23116907101469,-0.924180489161639,3.53499999999998));
#854=CARTESIAN_POINT($,(0.669812661070655,-0.277445488464739,2.7));
#855=CARTESIAN_POINT('Origin',(-2.14934821559973E-15,3.50229012271132E-15,
4.36999999999998));
#856=CARTESIAN_POINT('',(2.0602513575001,0.853384054174108,4.36999999999998));
#857=CARTESIAN_POINT($,(1.20104339226465,0.497488462074642,4.36999999999998));
#858=CARTESIAN_POINT('Origin',(-2.10814161119348E-15,3.59177942676494E-15,
4.36999999999998));
#859=CARTESIAN_POINT('Origin',(2.40208678452934,0.994976924149199,1.89999999999998));
#860=CARTESIAN_POINT('',(2.40208678452934,0.994976924149199,2.69999999999971));
#861=CARTESIAN_POINT($,(1.20104339226465,0.497488462074642,2.7));
#862=CARTESIAN_POINT($,(2.23116907101469,0.924180489161642,3.53499999999998));
#863=CARTESIAN_POINT('Origin',(-2.31265762665109E-15,3.59177942676494E-15,
3.53499999999998));
#864=CARTESIAN_POINT('Origin',(-2.51717364210869E-15,3.59177942676494E-15,
2.7));
#865=CARTESIAN_POINT('Origin',(-2.55838024651494E-15,3.50229012271132E-15,
2.7));
#866=CARTESIAN_POINT('Origin',(-1.34711147906206E-16,0.,-1.5));
#867=CARTESIAN_POINT('',(-0.799999999999969,4.44089209850063E-16,-1.5));
#868=CARTESIAN_POINT('Origin',(-1.34711147906206E-16,0.,-1.5));
#869=CARTESIAN_POINT('Origin',(-0.799999999999954,-3.30454545454554,-7.79090909090919));
#870=CARTESIAN_POINT('',(0.500000000000052,-2.04281036531029E-14,-7.39999999999996));
#871=CARTESIAN_POINT('',(-0.499999999999969,-2.08721928629529E-14,-7.39999999999996));
#872=CARTESIAN_POINT('Ctrl Pts',(0.500000000000052,-2.08721928629529E-14,
-7.39999999999996));
#873=CARTESIAN_POINT('Ctrl Pts',(0.500000000000052,-0.00803741711241557,
-7.3320557878987));
#874=CARTESIAN_POINT('Ctrl Pts',(0.499819334264324,-0.0182567082988467,
-7.26375226581133));
#875=CARTESIAN_POINT('Ctrl Pts',(0.496818789202416,-0.0672098480969563,
-6.99439911385803));
#876=CARTESIAN_POINT('Ctrl Pts',(0.489637307808344,-0.123435510044785,-6.79691789646447));
#877=CARTESIAN_POINT('Ctrl Pts',(0.453668413889187,-0.211646858288549,-6.56166214798448));
#878=CARTESIAN_POINT('Ctrl Pts',(0.44071556572974,-0.238538695554097,-6.4958095471191));
#879=CARTESIAN_POINT('Ctrl Pts',(0.404803124435386,-0.295407129957951,-6.36866902995399));
#880=CARTESIAN_POINT('Ctrl Pts',(0.381665360241403,-0.32534386185925,-6.30741367670187));
#881=CARTESIAN_POINT('Ctrl Pts',(0.329234398425137,-0.377958805084528,-6.20634022922082));
#882=CARTESIAN_POINT('Ctrl Pts',(0.292675855690509,-0.407880899320623,-6.15254995011942));
#883=CARTESIAN_POINT('Ctrl Pts',(0.222966311066677,-0.448971492437094,-6.0821562777672));
#884=CARTESIAN_POINT('Ctrl Pts',(0.184156724208434,-0.467086483164004,-6.05244866012491));
#885=CARTESIAN_POINT('Ctrl Pts',(0.0965354910083215,-0.492711349880973,
-6.01130044121849));
#886=CARTESIAN_POINT('Ctrl Pts',(0.0475935699604214,-0.500000000000007,
-6.00000000000007));
#887=CARTESIAN_POINT('Ctrl Pts',(4.20716882327804E-14,-0.500000000000007,
-6.00000000000007));
#888=CARTESIAN_POINT('Ctrl Pts',(-0.0475935699603373,-0.500000000000007,
-6.00000000000007));
#889=CARTESIAN_POINT('Ctrl Pts',(-0.0965354910082374,-0.492711349880973,
-6.01130044121849));
#890=CARTESIAN_POINT('Ctrl Pts',(-0.18415672420835,-0.467086483164004,-6.05244866012491));
#891=CARTESIAN_POINT('Ctrl Pts',(-0.222966311066593,-0.448971492437094,
-6.0821562777672));
#892=CARTESIAN_POINT('Ctrl Pts',(-0.292675855690425,-0.407880899320623,
-6.15254995011942));
#893=CARTESIAN_POINT('Ctrl Pts',(-0.329234398425053,-0.377958805084528,
-6.20634022922082));
#894=CARTESIAN_POINT('Ctrl Pts',(-0.381665360241319,-0.325343861859249,
-6.30741367670187));
#895=CARTESIAN_POINT('Ctrl Pts',(-0.404803124435302,-0.295407129957951,
-6.36866902995399));
#896=CARTESIAN_POINT('Ctrl Pts',(-0.440715565729656,-0.238538695554097,
-6.4958095471191));
#897=CARTESIAN_POINT('Ctrl Pts',(-0.453668413889104,-0.211646858288549,
-6.56166214798448));
#898=CARTESIAN_POINT('Ctrl Pts',(-0.48963730780826,-0.123435510044785,-6.79691789646447));
#899=CARTESIAN_POINT('Ctrl Pts',(-0.496818789202332,-0.0672098480969567,
-6.99439911385803));
#900=CARTESIAN_POINT('Ctrl Pts',(-0.49981933426424,-0.0182567082988476,
-7.26375226581133));
#901=CARTESIAN_POINT('Ctrl Pts',(-0.499999999999968,-0.00803741711241601,
-7.3320557878987));
#902=CARTESIAN_POINT('Ctrl Pts',(-0.499999999999969,-2.1316282072803E-14,
-7.39999999999996));
#903=CARTESIAN_POINT('',(0.800000000000039,-2.04281036531029E-14,-7.39999999999996));
#904=CARTESIAN_POINT($,(-0.799999999999955,-1.46549439250521E-14,-7.40000000000002));
#905=CARTESIAN_POINT('',(4.22393040261558E-14,-0.799999999999995,-5.60000000000008));
#906=CARTESIAN_POINT('Ctrl Pts',(4.22801101603021E-14,-0.799999999999999,
-5.60000000000007));
#907=CARTESIAN_POINT('Ctrl Pts',(0.0776710630763431,-0.799999999999999,
-5.60000000000007));
#908=CARTESIAN_POINT('Ctrl Pts',(0.159353623877216,-0.787818004398854,-5.61372045309287));
#909=CARTESIAN_POINT('Ctrl Pts',(0.308137110299012,-0.742362512226952,-5.66740109453128));
#910=CARTESIAN_POINT('Ctrl Pts',(0.375316955584102,-0.709378163601797,-5.7073869680348));
#911=CARTESIAN_POINT('Ctrl Pts',(0.458836431581543,-0.656277926088595,-5.7758523711391));
#912=CARTESIAN_POINT('Ctrl Pts',(0.488546038993748,-0.634463385414132,-5.80471686736641));
#913=CARTESIAN_POINT('Ctrl Pts',(0.542005122243852,-0.589450134436029,-5.86670660285825));
#914=CARTESIAN_POINT('Ctrl Pts',(0.565814095234526,-0.56629495425205,-5.89981211809933));
#915=CARTESIAN_POINT('Ctrl Pts',(0.625370589825201,-0.502327750187157,-5.99472579866817));
#916=CARTESIAN_POINT('Ctrl Pts',(0.659705682139475,-0.45551655834463,-6.0692705436501));
#917=CARTESIAN_POINT('Ctrl Pts',(0.713147999655488,-0.366233262697317,-6.22651576908512));
#918=CARTESIAN_POINT('Ctrl Pts',(0.732535289758207,-0.323849650474056,-6.30917116980919));
#919=CARTESIAN_POINT('Ctrl Pts',(0.783221076490093,-0.192431051154428,-6.59144560809726));
#920=CARTESIAN_POINT('Ctrl Pts',(0.794246375130214,-0.109949487634398,-6.82698997797599));
#921=CARTESIAN_POINT('Ctrl Pts',(0.799741519487909,-0.0317530068145535,
-7.17914451706762));
#922=CARTESIAN_POINT('Ctrl Pts',(0.800000000000042,-0.012999213136478,-7.2901113029046));
#923=CARTESIAN_POINT('Ctrl Pts',(0.800000000000043,-2.08721928629529E-14,
-7.39999999999996));
#924=CARTESIAN_POINT('',(-0.799999999999955,-2.08721928629529E-14,-7.39999999999996));
#925=CARTESIAN_POINT('Ctrl Pts',(-0.799999999999959,-2.1316282072803E-14,
-7.39999999999996));
#926=CARTESIAN_POINT('Ctrl Pts',(-0.799999999999959,-0.0129992131364784,
-7.2901113029046));
#927=CARTESIAN_POINT('Ctrl Pts',(-0.799741519487825,-0.0317530068145548,
-7.17914451706762));
#928=CARTESIAN_POINT('Ctrl Pts',(-0.794246375130131,-0.109949487634398,
-6.82698997797599));
#929=CARTESIAN_POINT('Ctrl Pts',(-0.783221076490009,-0.192431051154429,
-6.59144560809726));
#930=CARTESIAN_POINT('Ctrl Pts',(-0.732535289758124,-0.323849650474056,
-6.30917116980919));
#931=CARTESIAN_POINT('Ctrl Pts',(-0.713147999655404,-0.366233262697318,
-6.22651576908512));
#932=CARTESIAN_POINT('Ctrl Pts',(-0.659705682139391,-0.455516558344631,
-6.0692705436501));
#933=CARTESIAN_POINT('Ctrl Pts',(-0.625370589825117,-0.502327750187157,
-5.99472579866817));
#934=CARTESIAN_POINT('Ctrl Pts',(-0.565814095234442,-0.56629495425205,-5.89981211809933));
#935=CARTESIAN_POINT('Ctrl Pts',(-0.542005122243768,-0.589450134436029,
-5.86670660285825));
#936=CARTESIAN_POINT('Ctrl Pts',(-0.488546038993664,-0.634463385414132,
-5.80471686736641));
#937=CARTESIAN_POINT('Ctrl Pts',(-0.458836431581459,-0.656277926088595,
-5.7758523711391));
#938=CARTESIAN_POINT('Ctrl Pts',(-0.375316955584018,-0.709378163601797,
-5.7073869680348));
#939=CARTESIAN_POINT('Ctrl Pts',(-0.308137110298928,-0.742362512226952,
-5.66740109453128));
#940=CARTESIAN_POINT('Ctrl Pts',(-0.159353623877132,-0.787818004398854,
-5.61372045309287));
#941=CARTESIAN_POINT('Ctrl Pts',(-0.0776710630762586,-0.799999999999999,
-5.60000000000007));
#942=CARTESIAN_POINT('Ctrl Pts',(4.2210721221263E-14,-0.799999999999999,
-5.60000000000007));
#943=CARTESIAN_POINT($,(-0.799999999999955,-1.46549439250521E-14,-7.40000000000002));
#944=CARTESIAN_POINT('Origin',(4.17620801672828E-14,1.33226762955019E-15,
-7.98843786318473));
#945=CARTESIAN_POINT('',(4.15755205849348E-14,0.500000000000014,-4.60000000000002));
#946=CARTESIAN_POINT('Origin',(4.18396237372907E-14,3.99680288865056E-15,
-4.60000000000002));
#947=CARTESIAN_POINT('Origin',(4.17755464235583E-14,1.77635683940025E-15,
-7.40000000000002));
#948=CARTESIAN_POINT('Origin',(4.18396237372907E-14,3.99680288865056E-15,
-4.60000000000002));
#949=CARTESIAN_POINT('Origin',(4.18419122127811E-14,2.22044604925031E-15,
-4.50000000000002));
#950=CARTESIAN_POINT('Origin',(4.17755464235583E-14,0.,-7.40000000000002));
#951=CARTESIAN_POINT('Origin',(4.17755464235583E-14,0.,-7.40000000000002));
#952=UNCERTAINTY_MEASURE_WITH_UNIT(LENGTH_MEASURE(0.01),#956,
'DISTANCE_ACCURACY_VALUE',
'Maximum model space distance between geometric entities at asserted c
onnectivities');
#953=UNCERTAINTY_MEASURE_WITH_UNIT(LENGTH_MEASURE(1.E-6),#956,
'DISTANCE_ACCURACY_VALUE',
'Maximum model space distance between geometric entities at asserted c
onnectivities');
#954=(
GEOMETRIC_REPRESENTATION_CONTEXT(3)
GLOBAL_UNCERTAINTY_ASSIGNED_CONTEXT((#952))
GLOBAL_UNIT_ASSIGNED_CONTEXT((#956,#958,#957))
REPRESENTATION_CONTEXT('','3D')
);
#955=(
GEOMETRIC_REPRESENTATION_CONTEXT(3)
GLOBAL_UNCERTAINTY_ASSIGNED_CONTEXT((#953))
GLOBAL_UNIT_ASSIGNED_CONTEXT((#956,#12,#957))
REPRESENTATION_CONTEXT('','3D')
);
#956=(
LENGTH_UNIT()
NAMED_UNIT(*)
SI_UNIT(.MILLI.,.METRE.)
);
#957=(
NAMED_UNIT(*)
SI_UNIT($,.STERADIAN.)
SOLID_ANGLE_UNIT()
);
#958=(
NAMED_UNIT(*)
PLANE_ANGLE_UNIT()
SI_UNIT($,.RADIAN.)
);
#959=SHAPE_DEFINITION_REPRESENTATION(#960,#961);
#960=PRODUCT_DEFINITION_SHAPE('',$,#963);
#961=SHAPE_REPRESENTATION('',(#510),#954);
#962=PRODUCT_DEFINITION_CONTEXT('part definition',#967,'design');
#963=PRODUCT_DEFINITION('Product','Product',#964,#962);
#964=PRODUCT_DEFINITION_FORMATION('',$,#969);
#965=PRODUCT_RELATED_PRODUCT_CATEGORY('Product','Product',(#969));
#966=APPLICATION_PROTOCOL_DEFINITION('international standard',
'automotive_design',2009,#967);
#967=APPLICATION_CONTEXT(
'Core Data for Automotive Mechanical Design Process');
#968=PRODUCT_CONTEXT('part definition',#967,'mechanical');
#969=PRODUCT('Product','Product',$,(#968));
#970=PRESENTATION_STYLE_ASSIGNMENT((#974));
#971=PRESENTATION_STYLE_ASSIGNMENT((#975));
#972=PRESENTATION_STYLE_ASSIGNMENT((#976));
#973=PRESENTATION_STYLE_ASSIGNMENT((#977));
#974=SURFACE_STYLE_USAGE(.BOTH.,#978);
#975=SURFACE_STYLE_USAGE(.BOTH.,#979);
#976=SURFACE_STYLE_USAGE(.BOTH.,#980);
#977=SURFACE_STYLE_USAGE(.BOTH.,#981);
#978=SURFACE_SIDE_STYLE($,(#982));
#979=SURFACE_SIDE_STYLE($,(#983));
#980=SURFACE_SIDE_STYLE($,(#984));
#981=SURFACE_SIDE_STYLE($,(#985));
#982=SURFACE_STYLE_FILL_AREA(#986);
#983=SURFACE_STYLE_FILL_AREA(#987);
#984=SURFACE_STYLE_FILL_AREA(#988);
#985=SURFACE_STYLE_FILL_AREA(#989);
#986=FILL_AREA_STYLE($,(#990));
#987=FILL_AREA_STYLE($,(#991));
#988=FILL_AREA_STYLE($,(#992));
#989=FILL_AREA_STYLE($,(#993));
#990=FILL_AREA_STYLE_COLOUR($,#994);
#991=FILL_AREA_STYLE_COLOUR($,#995);
#992=FILL_AREA_STYLE_COLOUR($,#996);
#993=FILL_AREA_STYLE_COLOUR($,#997);
#994=COLOUR_RGB('',1.,1.,1.);
#995=COLOUR_RGB('',0.,0.658823529411765,1.);
#996=COLOUR_RGB('',1.,0.749019607843137,0.);
#997=COLOUR_RGB('',0.866666666666667,0.866666666666667,0.866666666666667);
ENDSEC;
END-ISO-10303-21;
