ISO-10303-21;
HEADER;
/****************************************************************
 * Generated by software with PDE/Lib inside                    *
 * PDE/Lib Version 3.2.2, created Thu Mar 23, 2000 at 18:38:49  *
 * International Technegroup Inc. (www.iti-oh.com)              *
 ****************************************************************/
FILE_DESCRIPTION((''),'2;1');
FILE_NAME('HSINK_FISCHER_SK431-1_V.stp','2009-09-01T10:00:54',(''),(''),'Mechanical Desktop 2006','Mechanical Desktop 2006',', , ');
FILE_SCHEMA(('AUTOMOTIVE_DESIGN { 1 2 10303 214 0 1 1 1 }'));
ENDSEC;
DATA;
#8=(NAMED_UNIT(*)PLANE_ANGLE_UNIT()SI_UNIT($,.RADIAN.));
#9=DIMENSIONAL_EXPONENTS(0.0,0.0,0.0,0.0,0.0,0.0,0.0);
#10=PLANE_ANGLE_MEASURE_WITH_UNIT(PLANE_ANGLE_MEASURE(0.017453292500000),#8);
#14=(CONVERSION_BASED_UNIT('DEGREE',#10)NAMED_UNIT(#9)PLANE_ANGLE_UNIT());
#18=(NAMED_UNIT(*)SI_UNIT($,.STERADIAN.)SOLID_ANGLE_UNIT());
#22=(LENGTH_UNIT()NAMED_UNIT(*)SI_UNIT(.MILLI.,.METRE.));
#23=UNCERTAINTY_MEASURE_WITH_UNIT(LENGTH_MEASURE(0.000001000000000),#22,'DISTANCE_ACCURACY_VALUE','');
#28=(GEOMETRIC_REPRESENTATION_CONTEXT(3)GLOBAL_UNCERTAINTY_ASSIGNED_CONTEXT((#23))GLOBAL_UNIT_ASSIGNED_CONTEXT((#14,#18,#22))REPRESENTATION_CONTEXT('None','None'));
#29=APPLICATION_CONTEXT('automotive design');
#30=APPLICATION_PROTOCOL_DEFINITION('DRAFT_INTERNATIONAL_STANDARD','automotive_design',1998,#29);
#31=PRODUCT_CONTEXT('3D Mechanical Parts',#29,'mechanical');
#32=PRODUCT('Product','Product','',(#31));
#33=PRODUCT_RELATED_PRODUCT_CATEGORY('part',$,(#32));
#34=PRODUCT_CATEGORY('part',$);
#35=PERSON('1','Design','Joe',$,$,$);
#36=ORGANIZATION($,'None','None');
#37=PERSON_AND_ORGANIZATION(#35,#36);
#38=PERSON_AND_ORGANIZATION_ROLE('design_owner');
#39=APPLIED_PERSON_AND_ORGANIZATION_ASSIGNMENT(#37,#38,(#32));
#40=PRODUCT_DEFINITION_FORMATION_WITH_SPECIFIED_SOURCE('None','',#32,.BOUGHT.);
#41=PERSON('2','Creator','Joe',$,$,$);
#42=ORGANIZATION($,'None','None');
#43=PERSON_AND_ORGANIZATION(#41,#42);
#44=PERSON_AND_ORGANIZATION_ROLE('creator');
#45=APPLIED_PERSON_AND_ORGANIZATION_ASSIGNMENT(#43,#44,(#40));
#46=PERSON('3','Supplier','Joe',$,$,$);
#47=ORGANIZATION($,'None','None');
#48=PERSON_AND_ORGANIZATION(#46,#47);
#49=PERSON_AND_ORGANIZATION_ROLE('design_supplier');
#50=APPLIED_PERSON_AND_ORGANIZATION_ASSIGNMENT(#48,#49,(#40));
#51=PRODUCT_DEFINITION_CONTEXT('part definition',#29,'design');
#52=PRODUCT_DEFINITION('None','',#40,#51);
#53=PERSON('4','Creator','Joe',$,$,$);
#54=ORGANIZATION($,'None','None');
#55=PERSON_AND_ORGANIZATION(#53,#54);
#56=PERSON_AND_ORGANIZATION_ROLE('creator');
#57=APPLIED_PERSON_AND_ORGANIZATION_ASSIGNMENT(#55,#56,(#52));
#58=CARTESIAN_POINT('NONE',(0.0,0.0,0.0));
#59=DIRECTION('NONE',(0.0,0.0,1.0));
#60=DIRECTION('NONE',(1.0,0.0,0.0));
#61=AXIS2_PLACEMENT_3D('NONE',#58,#59,#60);
#62=SHAPE_REPRESENTATION('SR1',(#61),#28);
#63=PRODUCT_DEFINITION_SHAPE('PDS1','Test Part',#52);
#64=SHAPE_DEFINITION_REPRESENTATION(#63,#62);
#65=CARTESIAN_POINT('',(5.200000000000001,-1.0,3.699999999999998));
#66=DIRECTION('',(-9.958397E-017,1.0,6.123032E-017));
#67=DIRECTION('',(0.707106781186550,2.712013E-017,0.707106781186545));
#68=AXIS2_PLACEMENT_3D('',#65,#66,#67);
#69=CYLINDRICAL_SURFACE('',#68,0.300000000000000);
#70=CARTESIAN_POINT('',(5.412132034355966,-0.999999999999984,3.912132034355961));
#71=VERTEX_POINT('',#70);
#72=CARTESIAN_POINT('',(5.412132034355965,1.000000000000016,3.912132034355961));
#73=VERTEX_POINT('',#72);
#74=CARTESIAN_POINT('',(5.412132034355966,-0.999999999999984,3.912132034355961));
#75=DIRECTION('',(0.0,1.0,0.0));
#76=VECTOR('',#75,2.0);
#77=LINE('',#74,#76);
#78=EDGE_CURVE('',#71,#73,#77,.T.);
#79=ORIENTED_EDGE('',*,*,#78,.F.);
#80=CARTESIAN_POINT('',(5.200000000000001,-0.999999999999995,3.999999999999996));
#81=VERTEX_POINT('',#80);
#82=CARTESIAN_POINT('',(5.200000000000001,-0.999999999999984,3.699999999999998));
#83=DIRECTION('',(1.917683E-017,-1.0,1.917683E-017));
#84=DIRECTION('',(0.707106781186550,2.712013E-017,0.707106781186545));
#85=AXIS2_PLACEMENT_3D('',#82,#83,#84);
#86=CIRCLE('',#85,0.300000000000000);
#87=EDGE_CURVE('',#71,#81,#86,.T.);
#88=ORIENTED_EDGE('',*,*,#87,.T.);
#89=CARTESIAN_POINT('',(5.199999999999999,1.000000000000005,3.999999999999998));
#90=VERTEX_POINT('',#89);
#91=CARTESIAN_POINT('',(5.200000000000001,-0.999999999999995,3.999999999999996));
#92=DIRECTION('',(0.0,1.0,0.0));
#93=VECTOR('',#92,2.0);
#94=LINE('',#91,#93);
#95=EDGE_CURVE('',#81,#90,#94,.T.);
#96=ORIENTED_EDGE('',*,*,#95,.T.);
#97=CARTESIAN_POINT('',(5.199999999999999,1.000000000000016,3.699999999999998));
#98=DIRECTION('',(-1.917683E-017,1.0,-1.917683E-017));
#99=DIRECTION('',(0.707106781186550,2.712013E-017,0.707106781186545));
#100=AXIS2_PLACEMENT_3D('',#97,#98,#99);
#101=CIRCLE('',#100,0.300000000000000);
#102=EDGE_CURVE('',#90,#73,#101,.T.);
#103=ORIENTED_EDGE('',*,*,#102,.T.);
#104=EDGE_LOOP('',(#79,#88,#96,#103));
#105=FACE_OUTER_BOUND('',#104,.T.);
#106=ADVANCED_FACE('',(#105),#69,.F.);
#107=CARTESIAN_POINT('',(-5.199999999999998,-1.000000000000002,3.699999999999999));
#108=DIRECTION('',(-9.958397E-017,1.0,6.123032E-017));
#109=DIRECTION('',(-0.707106781186547,-1.137129E-016,0.707106781186548));
#110=AXIS2_PLACEMENT_3D('',#107,#108,#109);
#111=CYLINDRICAL_SURFACE('',#110,0.300000000000000);
#112=CARTESIAN_POINT('',(-5.412132034355961,-0.999999999999986,3.912132034355964));
#113=VERTEX_POINT('',#112);
#114=CARTESIAN_POINT('',(-5.412132034355962,1.000000000000014,3.912132034355965));
#115=VERTEX_POINT('',#114);
#116=CARTESIAN_POINT('',(-5.412132034355961,-0.999999999999986,3.912132034355964));
#117=DIRECTION('',(0.0,1.0,0.0));
#118=VECTOR('',#117,2.0);
#119=LINE('',#116,#118);
#120=EDGE_CURVE('',#113,#115,#119,.T.);
#121=ORIENTED_EDGE('',*,*,#120,.F.);
#122=CARTESIAN_POINT('',(-5.499999999999998,-0.999999999999996,3.699999999999999));
#123=VERTEX_POINT('',#122);
#124=CARTESIAN_POINT('',(-5.199999999999998,-0.999999999999986,3.699999999999999));
#125=DIRECTION('',(8.040714E-017,-1.0,-8.040714E-017));
#126=DIRECTION('',(-0.707106781186547,-1.137129E-016,0.707106781186548));
#127=AXIS2_PLACEMENT_3D('',#124,#125,#126);
#128=CIRCLE('',#127,0.300000000000000);
#129=EDGE_CURVE('',#113,#123,#128,.T.);
#130=ORIENTED_EDGE('',*,*,#129,.T.);
#131=CARTESIAN_POINT('',(-5.500000000000000,1.000000000000004,3.699999999999999));
#132=VERTEX_POINT('',#131);
#133=CARTESIAN_POINT('',(-5.499999999999998,-0.999999999999996,3.699999999999999));
#134=DIRECTION('',(0.0,1.0,0.0));
#135=VECTOR('',#134,2.0);
#136=LINE('',#133,#135);
#137=EDGE_CURVE('',#123,#132,#136,.T.);
#138=ORIENTED_EDGE('',*,*,#137,.T.);
#139=CARTESIAN_POINT('',(-5.199999999999999,1.000000000000014,3.699999999999999));
#140=DIRECTION('',(-8.040714E-017,1.0,8.040714E-017));
#141=DIRECTION('',(-0.707106781186547,-1.137129E-016,0.707106781186548));
#142=AXIS2_PLACEMENT_3D('',#139,#140,#141);
#143=CIRCLE('',#142,0.300000000000000);
#144=EDGE_CURVE('',#132,#115,#143,.T.);
#145=ORIENTED_EDGE('',*,*,#144,.T.);
#146=EDGE_LOOP('',(#121,#130,#138,#145));
#147=FACE_OUTER_BOUND('',#146,.T.);
#148=ADVANCED_FACE('',(#147),#111,.F.);
#149=CARTESIAN_POINT('',(2.442491E-015,1.000000000000014,17.0));
#150=DIRECTION('',(9.958397E-017,-1.0,-6.123032E-017));
#151=DIRECTION('',(0.0,0.0,1.0));
#152=AXIS2_PLACEMENT_3D('',#149,#150,#151);
#153=CYLINDRICAL_SURFACE('',#152,1.900000000000000);
#154=CARTESIAN_POINT('',(2.947206E-015,-0.999999999999986,18.900000000000002));
#155=VERTEX_POINT('',#154);
#156=CARTESIAN_POINT('',(2.748038E-015,1.000000000000014,18.900000000000002));
#157=VERTEX_POINT('',#156);
#158=CARTESIAN_POINT('',(2.947206E-015,-0.999999999999986,18.900000000000002));
#159=DIRECTION('',(0.0,1.0,0.0));
#160=VECTOR('',#159,2.0);
#161=LINE('',#158,#160);
#162=EDGE_CURVE('',#155,#157,#161,.T.);
#163=ORIENTED_EDGE('',*,*,#162,.F.);
#164=CARTESIAN_POINT('',(2.103436E-015,-0.999999999999987,15.100000000000000));
#165=VERTEX_POINT('',#164);
#166=CARTESIAN_POINT('',(2.641659E-015,-0.999999999999986,17.0));
#167=DIRECTION('',(0.0,1.0,0.0));
#168=DIRECTION('',(0.0,0.0,1.0));
#169=AXIS2_PLACEMENT_3D('',#166,#167,#168);
#170=CIRCLE('',#169,1.900000000000000);
#171=EDGE_CURVE('',#165,#155,#170,.T.);
#172=ORIENTED_EDGE('',*,*,#171,.F.);
#173=CARTESIAN_POINT('',(1.904268E-015,1.000000000000013,15.100000000000000));
#174=VERTEX_POINT('',#173);
#175=CARTESIAN_POINT('',(1.904268E-015,1.000000000000013,15.100000000000000));
#176=DIRECTION('',(0.0,-1.0,0.0));
#177=VECTOR('',#176,2.0);
#178=LINE('',#175,#177);
#179=EDGE_CURVE('',#174,#165,#178,.T.);
#180=ORIENTED_EDGE('',*,*,#179,.F.);
#181=CARTESIAN_POINT('',(2.442491E-015,1.000000000000014,17.0));
#182=DIRECTION('',(0.0,-1.0,0.0));
#183=DIRECTION('',(0.0,0.0,1.0));
#184=AXIS2_PLACEMENT_3D('',#181,#182,#183);
#185=CIRCLE('',#184,1.900000000000000);
#186=EDGE_CURVE('',#157,#174,#185,.T.);
#187=ORIENTED_EDGE('',*,*,#186,.F.);
#188=EDGE_LOOP('',(#163,#172,#180,#187));
#189=FACE_OUTER_BOUND('',#188,.T.);
#190=ADVANCED_FACE('',(#189),#153,.F.);
#191=CARTESIAN_POINT('',(-5.499999999999998,-1.000000000000004,8.0));
#192=DIRECTION('',(-1.0,0.0,0.0));
#193=DIRECTION('',(0.0,-1.0,0.0));
#194=AXIS2_PLACEMENT_3D('',#191,#192,#193);
#195=PLANE('',#194);
#196=ORIENTED_EDGE('',*,*,#137,.F.);
#197=CARTESIAN_POINT('',(-5.500000000000000,-1.000000000000002,0.0));
#198=VERTEX_POINT('',#197);
#199=CARTESIAN_POINT('',(-5.500000000000000,-1.000000000000002,0.0));
#200=DIRECTION('',(0.0,0.0,1.0));
#201=VECTOR('',#200,3.699999999999999);
#202=LINE('',#199,#201);
#203=EDGE_CURVE('',#198,#123,#202,.T.);
#204=ORIENTED_EDGE('',*,*,#203,.F.);
#205=CARTESIAN_POINT('',(-5.500000000000000,0.999999999999998,0.0));
#206=VERTEX_POINT('',#205);
#207=CARTESIAN_POINT('',(-5.500000000000000,0.999999999999998,0.0));
#208=DIRECTION('',(0.0,-1.0,0.0));
#209=VECTOR('',#208,2.0);
#210=LINE('',#207,#209);
#211=EDGE_CURVE('',#206,#198,#210,.T.);
#212=ORIENTED_EDGE('',*,*,#211,.F.);
#213=CARTESIAN_POINT('',(-5.500000000000000,1.000000000000004,3.699999999999999));
#214=DIRECTION('',(0.0,0.0,-1.0));
#215=VECTOR('',#214,3.699999999999999);
#216=LINE('',#213,#215);
#217=EDGE_CURVE('',#132,#206,#216,.T.);
#218=ORIENTED_EDGE('',*,*,#217,.F.);
#219=EDGE_LOOP('',(#196,#204,#212,#218));
#220=FACE_OUTER_BOUND('',#219,.T.);
#221=ADVANCED_FACE('',(#220),#195,.F.);
#222=CARTESIAN_POINT('',(5.500000000000000,-1.0,0.0));
#223=DIRECTION('',(1.0,0.0,0.0));
#224=DIRECTION('',(0.0,1.0,0.0));
#225=AXIS2_PLACEMENT_3D('',#222,#223,#224);
#226=PLANE('',#225);
#227=CARTESIAN_POINT('',(5.500000000000000,1.000000000000005,3.699999999999998));
#228=VERTEX_POINT('',#227);
#229=CARTESIAN_POINT('',(5.500000000000002,-0.999999999999995,3.699999999999998));
#230=VERTEX_POINT('',#229);
#231=CARTESIAN_POINT('',(5.500000000000000,1.000000000000005,3.699999999999998));
#232=DIRECTION('',(0.0,-1.0,0.0));
#233=VECTOR('',#232,2.0);
#234=LINE('',#231,#233);
#235=EDGE_CURVE('',#228,#230,#234,.T.);
#236=ORIENTED_EDGE('',*,*,#235,.F.);
#237=CARTESIAN_POINT('',(5.500000000000000,1.0,0.0));
#238=VERTEX_POINT('',#237);
#239=CARTESIAN_POINT('',(5.500000000000000,1.0,0.0));
#240=DIRECTION('',(0.0,0.0,1.0));
#241=VECTOR('',#240,3.699999999999998);
#242=LINE('',#239,#241);
#243=EDGE_CURVE('',#238,#228,#242,.T.);
#244=ORIENTED_EDGE('',*,*,#243,.F.);
#245=CARTESIAN_POINT('',(5.500000000000000,-1.0,0.0));
#246=VERTEX_POINT('',#245);
#247=CARTESIAN_POINT('',(5.500000000000000,-1.0,0.0));
#248=DIRECTION('',(0.0,1.0,0.0));
#249=VECTOR('',#248,2.0);
#250=LINE('',#247,#249);
#251=EDGE_CURVE('',#246,#238,#250,.T.);
#252=ORIENTED_EDGE('',*,*,#251,.F.);
#253=CARTESIAN_POINT('',(5.500000000000002,-0.999999999999995,3.699999999999998));
#254=DIRECTION('',(0.0,0.0,-1.0));
#255=VECTOR('',#254,3.699999999999998);
#256=LINE('',#253,#255);
#257=EDGE_CURVE('',#230,#246,#256,.T.);
#258=ORIENTED_EDGE('',*,*,#257,.F.);
#259=EDGE_LOOP('',(#236,#244,#252,#258));
#260=FACE_OUTER_BOUND('',#259,.T.);
#261=ADVANCED_FACE('',(#260),#226,.F.);
#262=CARTESIAN_POINT('',(6.000000000000004,1.000000000000014,25.0));
#263=DIRECTION('',(0.0,1.0,0.0));
#264=DIRECTION('',(0.0,0.0,1.0));
#265=AXIS2_PLACEMENT_3D('',#262,#263,#264);
#266=PLANE('',#265);
#267=ORIENTED_EDGE('',*,*,#217,.T.);
#268=CARTESIAN_POINT('',(-6.0,0.999999999999998,0.0));
#269=VERTEX_POINT('',#268);
#270=CARTESIAN_POINT('',(-5.500000000000000,0.999999999999998,0.0));
#271=DIRECTION('',(-1.0,0.0,0.0));
#272=VECTOR('',#271,0.500000000000000);
#273=LINE('',#270,#272);
#274=EDGE_CURVE('',#206,#269,#273,.T.);
#275=ORIENTED_EDGE('',*,*,#274,.T.);
#276=CARTESIAN_POINT('',(-5.999999999999996,1.000000000000012,25.000000000000004));
#277=VERTEX_POINT('',#276);
#278=CARTESIAN_POINT('',(-5.999999999999996,1.000000000000012,25.000000000000004));
#279=DIRECTION('',(0.0,0.0,-1.0));
#280=VECTOR('',#279,25.000000000000004);
#281=LINE('',#278,#280);
#282=EDGE_CURVE('',#277,#269,#281,.T.);
#283=ORIENTED_EDGE('',*,*,#282,.F.);
#284=CARTESIAN_POINT('',(6.000000000000004,1.000000000000014,25.0));
#285=VERTEX_POINT('',#284);
#286=CARTESIAN_POINT('',(6.000000000000004,1.000000000000014,25.0));
#287=DIRECTION('',(-1.0,0.0,0.0));
#288=VECTOR('',#287,12.0);
#289=LINE('',#286,#288);
#290=EDGE_CURVE('',#285,#277,#289,.T.);
#291=ORIENTED_EDGE('',*,*,#290,.F.);
#292=CARTESIAN_POINT('',(6.0,1.0,0.0));
#293=VERTEX_POINT('',#292);
#294=CARTESIAN_POINT('',(6.000000000000004,1.000000000000014,25.0));
#295=DIRECTION('',(0.0,0.0,-1.0));
#296=VECTOR('',#295,25.0);
#297=LINE('',#294,#296);
#298=EDGE_CURVE('',#285,#293,#297,.T.);
#299=ORIENTED_EDGE('',*,*,#298,.T.);
#300=CARTESIAN_POINT('',(6.0,1.0,0.0));
#301=DIRECTION('',(-1.0,0.0,0.0));
#302=VECTOR('',#301,0.500000000000000);
#303=LINE('',#300,#302);
#304=EDGE_CURVE('',#293,#238,#303,.T.);
#305=ORIENTED_EDGE('',*,*,#304,.T.);
#306=ORIENTED_EDGE('',*,*,#243,.T.);
#307=CARTESIAN_POINT('',(5.199999999999999,1.000000000000016,3.699999999999998));
#308=DIRECTION('',(-1.917683E-017,1.0,-1.917683E-017));
#309=DIRECTION('',(0.707106781186550,2.712013E-017,0.707106781186545));
#310=AXIS2_PLACEMENT_3D('',#307,#308,#309);
#311=CIRCLE('',#310,0.300000000000000);
#312=EDGE_CURVE('',#73,#228,#311,.T.);
#313=ORIENTED_EDGE('',*,*,#312,.F.);
#314=ORIENTED_EDGE('',*,*,#102,.F.);
#315=CARTESIAN_POINT('',(-5.199999999999999,1.000000000000004,4.000000000000002));
#316=VERTEX_POINT('',#315);
#317=CARTESIAN_POINT('',(5.199999999999999,1.000000000000005,3.999999999999998));
#318=DIRECTION('',(-1.0,0.0,0.0));
#319=VECTOR('',#318,10.399999999999999);
#320=LINE('',#317,#319);
#321=EDGE_CURVE('',#90,#316,#320,.T.);
#322=ORIENTED_EDGE('',*,*,#321,.T.);
#323=CARTESIAN_POINT('',(-5.199999999999999,1.000000000000014,3.699999999999999));
#324=DIRECTION('',(-8.040714E-017,1.0,8.040714E-017));
#325=DIRECTION('',(-0.707106781186547,-1.137129E-016,0.707106781186548));
#326=AXIS2_PLACEMENT_3D('',#323,#324,#325);
#327=CIRCLE('',#326,0.300000000000000);
#328=EDGE_CURVE('',#115,#316,#327,.T.);
#329=ORIENTED_EDGE('',*,*,#328,.F.);
#330=ORIENTED_EDGE('',*,*,#144,.F.);
#331=EDGE_LOOP('',(#267,#275,#283,#291,#299,#305,#306,#313,#314,#322,#329,#330));
#332=FACE_OUTER_BOUND('',#331,.T.);
#333=ORIENTED_EDGE('',*,*,#186,.T.);
#334=CARTESIAN_POINT('',(2.442491E-015,1.000000000000014,17.0));
#335=DIRECTION('',(0.0,-1.0,0.0));
#336=DIRECTION('',(0.0,0.0,1.0));
#337=AXIS2_PLACEMENT_3D('',#334,#335,#336);
#338=CIRCLE('',#337,1.900000000000000);
#339=EDGE_CURVE('',#174,#157,#338,.T.);
#340=ORIENTED_EDGE('',*,*,#339,.T.);
#341=EDGE_LOOP('',(#333,#340));
#342=FACE_BOUND('',#341,.T.);
#343=ADVANCED_FACE('',(#332,#342),#266,.T.);
#344=CARTESIAN_POINT('',(-7.999999999999995,-0.999999999999986,25.000000000000004));
#345=DIRECTION('',(0.0,-1.0,0.0));
#346=DIRECTION('',(0.0,0.0,-1.0));
#347=AXIS2_PLACEMENT_3D('',#344,#345,#346);
#348=PLANE('',#347);
#349=ORIENTED_EDGE('',*,*,#203,.T.);
#350=ORIENTED_EDGE('',*,*,#129,.F.);
#351=CARTESIAN_POINT('',(-5.199999999999998,-0.999999999999996,4.0));
#352=VERTEX_POINT('',#351);
#353=CARTESIAN_POINT('',(-5.199999999999998,-0.999999999999986,3.699999999999999));
#354=DIRECTION('',(8.040714E-017,-1.0,-8.040714E-017));
#355=DIRECTION('',(-0.707106781186547,-1.137129E-016,0.707106781186548));
#356=AXIS2_PLACEMENT_3D('',#353,#354,#355);
#357=CIRCLE('',#356,0.300000000000000);
#358=EDGE_CURVE('',#352,#113,#357,.T.);
#359=ORIENTED_EDGE('',*,*,#358,.F.);
#360=CARTESIAN_POINT('',(-5.199999999999998,-0.999999999999996,4.0));
#361=DIRECTION('',(1.0,0.0,0.0));
#362=VECTOR('',#361,10.399999999999999);
#363=LINE('',#360,#362);
#364=EDGE_CURVE('',#352,#81,#363,.T.);
#365=ORIENTED_EDGE('',*,*,#364,.T.);
#366=ORIENTED_EDGE('',*,*,#87,.F.);
#367=CARTESIAN_POINT('',(5.200000000000001,-0.999999999999984,3.699999999999998));
#368=DIRECTION('',(1.917683E-017,-1.0,1.917683E-017));
#369=DIRECTION('',(0.707106781186550,2.712013E-017,0.707106781186545));
#370=AXIS2_PLACEMENT_3D('',#367,#368,#369);
#371=CIRCLE('',#370,0.300000000000000);
#372=EDGE_CURVE('',#230,#71,#371,.T.);
#373=ORIENTED_EDGE('',*,*,#372,.F.);
#374=ORIENTED_EDGE('',*,*,#257,.T.);
#375=CARTESIAN_POINT('',(8.000000000000002,-1.0,0.0));
#376=VERTEX_POINT('',#375);
#377=CARTESIAN_POINT('',(5.500000000000000,-1.0,0.0));
#378=DIRECTION('',(1.0,0.0,0.0));
#379=VECTOR('',#378,2.500000000000002);
#380=LINE('',#377,#379);
#381=EDGE_CURVE('',#246,#376,#380,.T.);
#382=ORIENTED_EDGE('',*,*,#381,.T.);
#383=CARTESIAN_POINT('',(8.000000000000005,-0.999999999999986,25.0));
#384=VERTEX_POINT('',#383);
#385=CARTESIAN_POINT('',(8.000000000000005,-0.999999999999986,25.0));
#386=DIRECTION('',(0.0,0.0,-1.0));
#387=VECTOR('',#386,25.0);
#388=LINE('',#385,#387);
#389=EDGE_CURVE('',#384,#376,#388,.T.);
#390=ORIENTED_EDGE('',*,*,#389,.F.);
#391=CARTESIAN_POINT('',(-7.999999999999995,-0.999999999999986,25.000000000000004));
#392=VERTEX_POINT('',#391);
#393=CARTESIAN_POINT('',(-7.999999999999995,-0.999999999999986,25.000000000000004));
#394=DIRECTION('',(1.0,0.0,0.0));
#395=VECTOR('',#394,16.0);
#396=LINE('',#393,#395);
#397=EDGE_CURVE('',#392,#384,#396,.T.);
#398=ORIENTED_EDGE('',*,*,#397,.F.);
#399=CARTESIAN_POINT('',(-8.0,-1.0,0.0));
#400=VERTEX_POINT('',#399);
#401=CARTESIAN_POINT('',(-7.999999999999995,-0.999999999999986,25.000000000000004));
#402=DIRECTION('',(0.0,0.0,-1.0));
#403=VECTOR('',#402,25.000000000000004);
#404=LINE('',#401,#403);
#405=EDGE_CURVE('',#392,#400,#404,.T.);
#406=ORIENTED_EDGE('',*,*,#405,.T.);
#407=CARTESIAN_POINT('',(-8.0,-1.0,0.0));
#408=DIRECTION('',(1.0,0.0,0.0));
#409=VECTOR('',#408,2.500000000000000);
#410=LINE('',#407,#409);
#411=EDGE_CURVE('',#400,#198,#410,.T.);
#412=ORIENTED_EDGE('',*,*,#411,.T.);
#413=EDGE_LOOP('',(#349,#350,#359,#365,#366,#373,#374,#382,#390,#398,#406,#412));
#414=FACE_OUTER_BOUND('',#413,.T.);
#415=CARTESIAN_POINT('',(2.641659E-015,-0.999999999999986,17.0));
#416=DIRECTION('',(0.0,1.0,0.0));
#417=DIRECTION('',(0.0,0.0,1.0));
#418=AXIS2_PLACEMENT_3D('',#415,#416,#417);
#419=CIRCLE('',#418,1.900000000000000);
#420=EDGE_CURVE('',#155,#165,#419,.T.);
#421=ORIENTED_EDGE('',*,*,#420,.T.);
#422=ORIENTED_EDGE('',*,*,#171,.T.);
#423=EDGE_LOOP('',(#421,#422));
#424=FACE_BOUND('',#423,.T.);
#425=ADVANCED_FACE('',(#414,#424),#348,.T.);
#426=CARTESIAN_POINT('',(2.442491E-015,1.000000000000014,17.0));
#427=DIRECTION('',(9.958397E-017,-1.0,-6.123032E-017));
#428=DIRECTION('',(0.0,0.0,1.0));
#429=AXIS2_PLACEMENT_3D('',#426,#427,#428);
#430=CYLINDRICAL_SURFACE('',#429,1.900000000000000);
#431=ORIENTED_EDGE('',*,*,#162,.T.);
#432=ORIENTED_EDGE('',*,*,#339,.F.);
#433=ORIENTED_EDGE('',*,*,#179,.T.);
#434=ORIENTED_EDGE('',*,*,#420,.F.);
#435=EDGE_LOOP('',(#431,#432,#433,#434));
#436=FACE_OUTER_BOUND('',#435,.T.);
#437=ADVANCED_FACE('',(#436),#430,.F.);
#438=CARTESIAN_POINT('',(-1.625639E-015,3.250000000000000,0.0));
#439=DIRECTION('',(0.0,0.0,1.0));
#440=DIRECTION('',(0.0,-1.0,0.0));
#441=AXIS2_PLACEMENT_3D('',#438,#439,#440);
#442=PLANE('',#441);
#443=ORIENTED_EDGE('',*,*,#251,.T.);
#444=ORIENTED_EDGE('',*,*,#304,.F.);
#445=CARTESIAN_POINT('',(5.999999999999995,10.000000000000004,-7.105427E-015));
#446=VERTEX_POINT('',#445);
#447=CARTESIAN_POINT('',(5.999999999999995,10.000000000000004,-7.105427E-015));
#448=DIRECTION('',(0.0,-1.0,0.0));
#449=VECTOR('',#448,9.000000000000004);
#450=LINE('',#447,#449);
#451=EDGE_CURVE('',#446,#293,#450,.T.);
#452=ORIENTED_EDGE('',*,*,#451,.F.);
#453=CARTESIAN_POINT('',(7.999999999999995,10.000000000000004,-7.105427E-015));
#454=VERTEX_POINT('',#453);
#455=CARTESIAN_POINT('',(7.999999999999995,10.000000000000004,-7.105427E-015));
#456=DIRECTION('',(-1.0,0.0,0.0));
#457=VECTOR('',#456,2.0);
#458=LINE('',#455,#457);
#459=EDGE_CURVE('',#454,#446,#458,.T.);
#460=ORIENTED_EDGE('',*,*,#459,.F.);
#461=CARTESIAN_POINT('',(8.000000000000002,-1.0,0.0));
#462=DIRECTION('',(0.0,1.0,0.0));
#463=VECTOR('',#462,11.000000000000004);
#464=LINE('',#461,#463);
#465=EDGE_CURVE('',#376,#454,#464,.T.);
#466=ORIENTED_EDGE('',*,*,#465,.F.);
#467=ORIENTED_EDGE('',*,*,#381,.F.);
#468=EDGE_LOOP('',(#443,#444,#452,#460,#466,#467));
#469=FACE_OUTER_BOUND('',#468,.T.);
#470=ADVANCED_FACE('',(#469),#442,.F.);
#471=CARTESIAN_POINT('',(8.000000000000005,-0.999999999999986,25.0));
#472=DIRECTION('',(1.0,0.0,0.0));
#473=DIRECTION('',(0.0,1.0,0.0));
#474=AXIS2_PLACEMENT_3D('',#471,#472,#473);
#475=PLANE('',#474);
#476=ORIENTED_EDGE('',*,*,#465,.T.);
#477=CARTESIAN_POINT('',(8.0,10.000000000000018,24.999999999999996));
#478=VERTEX_POINT('',#477);
#479=CARTESIAN_POINT('',(8.0,10.000000000000018,24.999999999999996));
#480=DIRECTION('',(0.0,0.0,-1.0));
#481=VECTOR('',#480,25.000000000000004);
#482=LINE('',#479,#481);
#483=EDGE_CURVE('',#478,#454,#482,.T.);
#484=ORIENTED_EDGE('',*,*,#483,.F.);
#485=CARTESIAN_POINT('',(8.000000000000005,-0.999999999999986,25.0));
#486=DIRECTION('',(0.0,1.0,0.0));
#487=VECTOR('',#486,11.000000000000004);
#488=LINE('',#485,#487);
#489=EDGE_CURVE('',#384,#478,#488,.T.);
#490=ORIENTED_EDGE('',*,*,#489,.F.);
#491=ORIENTED_EDGE('',*,*,#389,.T.);
#492=EDGE_LOOP('',(#476,#484,#490,#491));
#493=FACE_OUTER_BOUND('',#492,.T.);
#494=ADVANCED_FACE('',(#493),#475,.T.);
#495=CARTESIAN_POINT('',(8.0,10.000000000000018,24.999999999999996));
#496=DIRECTION('',(0.0,1.0,0.0));
#497=DIRECTION('',(0.0,0.0,1.0));
#498=AXIS2_PLACEMENT_3D('',#495,#496,#497);
#499=PLANE('',#498);
#500=ORIENTED_EDGE('',*,*,#459,.T.);
#501=CARTESIAN_POINT('',(5.999999999999998,10.000000000000014,24.999999999999996));
#502=VERTEX_POINT('',#501);
#503=CARTESIAN_POINT('',(5.999999999999998,10.000000000000014,24.999999999999996));
#504=DIRECTION('',(0.0,0.0,-1.0));
#505=VECTOR('',#504,25.000000000000004);
#506=LINE('',#503,#505);
#507=EDGE_CURVE('',#502,#446,#506,.T.);
#508=ORIENTED_EDGE('',*,*,#507,.F.);
#509=CARTESIAN_POINT('',(8.0,10.000000000000018,24.999999999999996));
#510=DIRECTION('',(-1.0,0.0,0.0));
#511=VECTOR('',#510,2.000000000000002);
#512=LINE('',#509,#511);
#513=EDGE_CURVE('',#478,#502,#512,.T.);
#514=ORIENTED_EDGE('',*,*,#513,.F.);
#515=ORIENTED_EDGE('',*,*,#483,.T.);
#516=EDGE_LOOP('',(#500,#508,#514,#515));
#517=FACE_OUTER_BOUND('',#516,.T.);
#518=ADVANCED_FACE('',(#517),#499,.T.);
#519=CARTESIAN_POINT('',(5.999999999999998,10.000000000000014,24.999999999999996));
#520=DIRECTION('',(-1.0,0.0,0.0));
#521=DIRECTION('',(0.0,-1.0,0.0));
#522=AXIS2_PLACEMENT_3D('',#519,#520,#521);
#523=PLANE('',#522);
#524=ORIENTED_EDGE('',*,*,#451,.T.);
#525=ORIENTED_EDGE('',*,*,#298,.F.);
#526=CARTESIAN_POINT('',(5.999999999999998,10.000000000000014,24.999999999999996));
#527=DIRECTION('',(0.0,-1.0,0.0));
#528=VECTOR('',#527,9.0);
#529=LINE('',#526,#528);
#530=EDGE_CURVE('',#502,#285,#529,.T.);
#531=ORIENTED_EDGE('',*,*,#530,.F.);
#532=ORIENTED_EDGE('',*,*,#507,.T.);
#533=EDGE_LOOP('',(#524,#525,#531,#532));
#534=FACE_OUTER_BOUND('',#533,.T.);
#535=ADVANCED_FACE('',(#534),#523,.T.);
#536=CARTESIAN_POINT('',(-5.999999999999996,1.000000000000012,25.000000000000004));
#537=DIRECTION('',(1.0,0.0,0.0));
#538=DIRECTION('',(0.0,1.0,0.0));
#539=AXIS2_PLACEMENT_3D('',#536,#537,#538);
#540=PLANE('',#539);
#541=CARTESIAN_POINT('',(-6.000000000000009,10.0,-7.105427E-015));
#542=VERTEX_POINT('',#541);
#543=CARTESIAN_POINT('',(-6.0,0.999999999999998,0.0));
#544=DIRECTION('',(0.0,1.0,0.0));
#545=VECTOR('',#544,9.000000000000002);
#546=LINE('',#543,#545);
#547=EDGE_CURVE('',#269,#542,#546,.T.);
#548=ORIENTED_EDGE('',*,*,#547,.T.);
#549=CARTESIAN_POINT('',(-6.000000000000005,10.000000000000011,24.999999999999996));
#550=VERTEX_POINT('',#549);
#551=CARTESIAN_POINT('',(-6.000000000000005,10.000000000000011,24.999999999999996));
#552=DIRECTION('',(0.0,0.0,-1.0));
#553=VECTOR('',#552,25.000000000000004);
#554=LINE('',#551,#553);
#555=EDGE_CURVE('',#550,#542,#554,.T.);
#556=ORIENTED_EDGE('',*,*,#555,.F.);
#557=CARTESIAN_POINT('',(-5.999999999999996,1.000000000000012,25.000000000000004));
#558=DIRECTION('',(0.0,1.0,0.0));
#559=VECTOR('',#558,8.999999999999998);
#560=LINE('',#557,#559);
#561=EDGE_CURVE('',#277,#550,#560,.T.);
#562=ORIENTED_EDGE('',*,*,#561,.F.);
#563=ORIENTED_EDGE('',*,*,#282,.T.);
#564=EDGE_LOOP('',(#548,#556,#562,#563));
#565=FACE_OUTER_BOUND('',#564,.T.);
#566=ADVANCED_FACE('',(#565),#540,.T.);
#567=CARTESIAN_POINT('',(-6.000000000000005,10.000000000000011,24.999999999999996));
#568=DIRECTION('',(0.0,1.0,0.0));
#569=DIRECTION('',(0.0,0.0,1.0));
#570=AXIS2_PLACEMENT_3D('',#567,#568,#569);
#571=PLANE('',#570);
#572=CARTESIAN_POINT('',(-8.000000000000005,10.0,-3.552714E-015));
#573=VERTEX_POINT('',#572);
#574=CARTESIAN_POINT('',(-6.000000000000009,10.0,-7.105427E-015));
#575=DIRECTION('',(-1.0,0.0,0.0));
#576=VECTOR('',#575,1.999999999999996);
#577=LINE('',#574,#576);
#578=EDGE_CURVE('',#542,#573,#577,.T.);
#579=ORIENTED_EDGE('',*,*,#578,.T.);
#580=CARTESIAN_POINT('',(-8.000000000000002,10.000000000000011,24.999999999999996));
#581=VERTEX_POINT('',#580);
#582=CARTESIAN_POINT('',(-8.000000000000002,10.000000000000011,24.999999999999996));
#583=DIRECTION('',(0.0,0.0,-1.0));
#584=VECTOR('',#583,25.0);
#585=LINE('',#582,#584);
#586=EDGE_CURVE('',#581,#573,#585,.T.);
#587=ORIENTED_EDGE('',*,*,#586,.F.);
#588=CARTESIAN_POINT('',(-6.000000000000005,10.000000000000011,24.999999999999996));
#589=DIRECTION('',(-1.0,0.0,0.0));
#590=VECTOR('',#589,1.999999999999996);
#591=LINE('',#588,#590);
#592=EDGE_CURVE('',#550,#581,#591,.T.);
#593=ORIENTED_EDGE('',*,*,#592,.F.);
#594=ORIENTED_EDGE('',*,*,#555,.T.);
#595=EDGE_LOOP('',(#579,#587,#593,#594));
#596=FACE_OUTER_BOUND('',#595,.T.);
#597=ADVANCED_FACE('',(#596),#571,.T.);
#598=CARTESIAN_POINT('',(-8.000000000000002,10.000000000000011,24.999999999999996));
#599=DIRECTION('',(-1.0,0.0,0.0));
#600=DIRECTION('',(0.0,-1.0,0.0));
#601=AXIS2_PLACEMENT_3D('',#598,#599,#600);
#602=PLANE('',#601);
#603=CARTESIAN_POINT('',(-8.000000000000005,10.0,-3.552714E-015));
#604=DIRECTION('',(0.0,-1.0,0.0));
#605=VECTOR('',#604,11.0);
#606=LINE('',#603,#605);
#607=EDGE_CURVE('',#573,#400,#606,.T.);
#608=ORIENTED_EDGE('',*,*,#607,.T.);
#609=ORIENTED_EDGE('',*,*,#405,.F.);
#610=CARTESIAN_POINT('',(-8.000000000000002,10.000000000000011,24.999999999999996));
#611=DIRECTION('',(0.0,-1.0,0.0));
#612=VECTOR('',#611,10.999999999999996);
#613=LINE('',#610,#612);
#614=EDGE_CURVE('',#581,#392,#613,.T.);
#615=ORIENTED_EDGE('',*,*,#614,.F.);
#616=ORIENTED_EDGE('',*,*,#586,.T.);
#617=EDGE_LOOP('',(#608,#609,#615,#616));
#618=FACE_OUTER_BOUND('',#617,.T.);
#619=ADVANCED_FACE('',(#618),#602,.T.);
#620=CARTESIAN_POINT('',(-1.625639E-015,3.250000000000000,0.0));
#621=DIRECTION('',(0.0,0.0,1.0));
#622=DIRECTION('',(0.0,-1.0,0.0));
#623=AXIS2_PLACEMENT_3D('',#620,#621,#622);
#624=PLANE('',#623);
#625=ORIENTED_EDGE('',*,*,#211,.T.);
#626=ORIENTED_EDGE('',*,*,#411,.F.);
#627=ORIENTED_EDGE('',*,*,#607,.F.);
#628=ORIENTED_EDGE('',*,*,#578,.F.);
#629=ORIENTED_EDGE('',*,*,#547,.F.);
#630=ORIENTED_EDGE('',*,*,#274,.F.);
#631=EDGE_LOOP('',(#625,#626,#627,#628,#629,#630));
#632=FACE_OUTER_BOUND('',#631,.T.);
#633=ADVANCED_FACE('',(#632),#624,.F.);
#634=CARTESIAN_POINT('',(2.394718E-015,3.250000000000014,24.999999999999996));
#635=DIRECTION('',(0.0,0.0,1.0));
#636=DIRECTION('',(0.0,-1.0,0.0));
#637=AXIS2_PLACEMENT_3D('',#634,#635,#636);
#638=PLANE('',#637);
#639=ORIENTED_EDGE('',*,*,#614,.T.);
#640=ORIENTED_EDGE('',*,*,#397,.T.);
#641=ORIENTED_EDGE('',*,*,#489,.T.);
#642=ORIENTED_EDGE('',*,*,#513,.T.);
#643=ORIENTED_EDGE('',*,*,#530,.T.);
#644=ORIENTED_EDGE('',*,*,#290,.T.);
#645=ORIENTED_EDGE('',*,*,#561,.T.);
#646=ORIENTED_EDGE('',*,*,#592,.T.);
#647=EDGE_LOOP('',(#639,#640,#641,#642,#643,#644,#645,#646));
#648=FACE_OUTER_BOUND('',#647,.T.);
#649=ADVANCED_FACE('',(#648),#638,.T.);
#650=CARTESIAN_POINT('',(-5.199999999999998,-1.000000000000002,3.699999999999999));
#651=DIRECTION('',(-9.958397E-017,1.0,6.123032E-017));
#652=DIRECTION('',(-0.707106781186547,-1.137129E-016,0.707106781186548));
#653=AXIS2_PLACEMENT_3D('',#650,#651,#652);
#654=CYLINDRICAL_SURFACE('',#653,0.300000000000000);
#655=ORIENTED_EDGE('',*,*,#120,.T.);
#656=ORIENTED_EDGE('',*,*,#328,.T.);
#657=CARTESIAN_POINT('',(-5.199999999999999,1.000000000000004,4.000000000000002));
#658=DIRECTION('',(0.0,-1.0,0.0));
#659=VECTOR('',#658,2.0);
#660=LINE('',#657,#659);
#661=EDGE_CURVE('',#316,#352,#660,.T.);
#662=ORIENTED_EDGE('',*,*,#661,.T.);
#663=ORIENTED_EDGE('',*,*,#358,.T.);
#664=EDGE_LOOP('',(#655,#656,#662,#663));
#665=FACE_OUTER_BOUND('',#664,.T.);
#666=ADVANCED_FACE('',(#665),#654,.F.);
#667=CARTESIAN_POINT('',(5.500000000000002,-1.0,3.999999999999996));
#668=DIRECTION('',(0.0,0.0,1.0));
#669=DIRECTION('',(0.0,-1.0,0.0));
#670=AXIS2_PLACEMENT_3D('',#667,#668,#669);
#671=PLANE('',#670);
#672=ORIENTED_EDGE('',*,*,#661,.F.);
#673=ORIENTED_EDGE('',*,*,#321,.F.);
#674=ORIENTED_EDGE('',*,*,#95,.F.);
#675=ORIENTED_EDGE('',*,*,#364,.F.);
#676=EDGE_LOOP('',(#672,#673,#674,#675));
#677=FACE_OUTER_BOUND('',#676,.T.);
#678=ADVANCED_FACE('',(#677),#671,.F.);
#679=CARTESIAN_POINT('',(5.200000000000001,-1.0,3.699999999999998));
#680=DIRECTION('',(-9.958397E-017,1.0,6.123032E-017));
#681=DIRECTION('',(0.707106781186550,2.712013E-017,0.707106781186545));
#682=AXIS2_PLACEMENT_3D('',#679,#680,#681);
#683=CYLINDRICAL_SURFACE('',#682,0.300000000000000);
#684=ORIENTED_EDGE('',*,*,#78,.T.);
#685=ORIENTED_EDGE('',*,*,#312,.T.);
#686=ORIENTED_EDGE('',*,*,#235,.T.);
#687=ORIENTED_EDGE('',*,*,#372,.T.);
#688=EDGE_LOOP('',(#684,#685,#686,#687));
#689=FACE_OUTER_BOUND('',#688,.T.);
#690=ADVANCED_FACE('',(#689),#683,.F.);
#691=CLOSED_SHELL('',(#106,#148,#190,#221,#261,#343,#425,#437,#470,#494,#518,#535,#566,#597,#619,#633,#649,#666,#678,#690));
#692=MANIFOLD_SOLID_BREP('777',#691);
#693=COLOUR_RGB('250',0.330000000000000,0.330000000000000,0.330000000000000);
#694=SURFACE_STYLE_USAGE(.BOTH.,#695);
#695=SURFACE_SIDE_STYLE('NONE',(#696));
#696=SURFACE_STYLE_FILL_AREA(#697);
#697=FILL_AREA_STYLE('NONE',(#698));
#698=FILL_AREA_STYLE_COLOUR('NONE',#693);
#699=PRESENTATION_STYLE_ASSIGNMENT((#694));
#700=STYLED_ITEM('NONE',(#699),#692);
#701=MECHANICAL_DESIGN_GEOMETRIC_PRESENTATION_REPRESENTATION('NONE',(#700),#28);
#702=PRESENTATION_LAYER_ASSIGNMENT('3D','None',(#692));
#703=ADVANCED_BREP_SHAPE_REPRESENTATION('ABSR1',(#692),#28);
#704=SHAPE_REPRESENTATION_RELATIONSHIP('SRRPL1','',#703,#62);
ENDSEC;
END-ISO-10303-21;
