ISO-10303-21;
HEADER;
/* Generated by software containing ST-Developer
 * from STEP Tools, Inc. (www.steptools.com) 
 */

FILE_DESCRIPTION(
/* description */ (''),
/* implementation_level */ '2;1');

FILE_NAME(
/* name */ 'S:\\bcivel\\Altium-Lib\\Compo\\IND_BOURNS_SRU6013.stp',
/* time_stamp */ '2015-09-02T15:50:34+02:00',
/* author */ ('bcivel'),
/* organization */ ('Bourns, Inc.'),
/* preprocessor_version */ 'ST-DEVELOPER v15.5',
/* originating_system */ 'AutoCAD Mechanical',
/* authorisation */ '');

FILE_SCHEMA (('AUTOMOTIVE_DESIGN { 1 0 10303 214 3 1 1 }'));
ENDSEC;

DATA;
#10=MECHANICAL_DESIGN_GEOMETRIC_PRESENTATION_REPRESENTATION('',(#36,#34,
#35,#37,#38,#39),#1520);
#11=DIMENSIONAL_EXPONENTS(0.,0.,0.,0.,0.,0.,0.);
#12=(
CONVERSION_BASED_UNIT('degree',#13)
NAMED_UNIT(#11)
PLANE_ANGLE_UNIT()
);
#13=PLANE_ANGLE_MEASURE_WITH_UNIT(PLANE_ANGLE_MEASURE(0.01745329252),#1523);
#14=PRESENTATION_LAYER_ASSIGNMENT('3D','',(#940,#941,#942,#943,#944,#945));
#15=CYLINDRICAL_SURFACE($,#988,2.45);
#16=CYLINDRICAL_SURFACE($,#1006,2.4);
#17=FACE_BOUND($,#134,.T.);
#18=FACE_BOUND($,#136,.T.);
#19=FACE_BOUND($,#138,.T.);
#20=FACE_BOUND($,#150,.T.);
#21=CIRCLE($,#987,2.45);
#22=CIRCLE($,#989,2.45);
#23=CIRCLE($,#994,2.4);
#24=CIRCLE($,#997,2.4);
#25=CIRCLE($,#1000,2.4);
#26=CIRCLE($,#1003,2.4);
#27=CIRCLE($,#1005,2.4);
#28=CIRCLE($,#1007,2.4);
#29=CIRCLE($,#1008,2.4);
#30=CIRCLE($,#1009,2.4);
#31=CIRCLE($,#1010,2.4);
#32=SHAPE_REPRESENTATION_RELATIONSHIP('SRR','None',#1526,#33);
#33=ADVANCED_BREP_SHAPE_REPRESENTATION($,(#940,#941,#942,#943,#944,#945),
#1519);
#34=STYLED_ITEM($,(#1536),#940);
#35=STYLED_ITEM($,(#1536),#941);
#36=STYLED_ITEM($,(#1536),#942);
#37=STYLED_ITEM($,(#1536),#943);
#38=STYLED_ITEM($,(#1537),#944);
#39=STYLED_ITEM($,(#1537),#945);
#40=FACE_OUTER_BOUND($,#94,.T.);
#41=FACE_OUTER_BOUND($,#95,.T.);
#42=FACE_OUTER_BOUND($,#96,.T.);
#43=FACE_OUTER_BOUND($,#97,.T.);
#44=FACE_OUTER_BOUND($,#98,.T.);
#45=FACE_OUTER_BOUND($,#99,.T.);
#46=FACE_OUTER_BOUND($,#100,.T.);
#47=FACE_OUTER_BOUND($,#101,.T.);
#48=FACE_OUTER_BOUND($,#102,.T.);
#49=FACE_OUTER_BOUND($,#103,.T.);
#50=FACE_OUTER_BOUND($,#104,.T.);
#51=FACE_OUTER_BOUND($,#105,.T.);
#52=FACE_OUTER_BOUND($,#106,.T.);
#53=FACE_OUTER_BOUND($,#107,.T.);
#54=FACE_OUTER_BOUND($,#108,.T.);
#55=FACE_OUTER_BOUND($,#109,.T.);
#56=FACE_OUTER_BOUND($,#110,.T.);
#57=FACE_OUTER_BOUND($,#111,.T.);
#58=FACE_OUTER_BOUND($,#112,.T.);
#59=FACE_OUTER_BOUND($,#113,.T.);
#60=FACE_OUTER_BOUND($,#114,.T.);
#61=FACE_OUTER_BOUND($,#115,.T.);
#62=FACE_OUTER_BOUND($,#116,.T.);
#63=FACE_OUTER_BOUND($,#117,.T.);
#64=FACE_OUTER_BOUND($,#118,.T.);
#65=FACE_OUTER_BOUND($,#119,.T.);
#66=FACE_OUTER_BOUND($,#120,.T.);
#67=FACE_OUTER_BOUND($,#121,.T.);
#68=FACE_OUTER_BOUND($,#122,.T.);
#69=FACE_OUTER_BOUND($,#123,.T.);
#70=FACE_OUTER_BOUND($,#124,.T.);
#71=FACE_OUTER_BOUND($,#125,.T.);
#72=FACE_OUTER_BOUND($,#126,.T.);
#73=FACE_OUTER_BOUND($,#127,.T.);
#74=FACE_OUTER_BOUND($,#128,.T.);
#75=FACE_OUTER_BOUND($,#129,.T.);
#76=FACE_OUTER_BOUND($,#130,.T.);
#77=FACE_OUTER_BOUND($,#131,.T.);
#78=FACE_OUTER_BOUND($,#132,.T.);
#79=FACE_OUTER_BOUND($,#133,.T.);
#80=FACE_OUTER_BOUND($,#135,.T.);
#81=FACE_OUTER_BOUND($,#137,.T.);
#82=FACE_OUTER_BOUND($,#139,.T.);
#83=FACE_OUTER_BOUND($,#140,.T.);
#84=FACE_OUTER_BOUND($,#141,.T.);
#85=FACE_OUTER_BOUND($,#142,.T.);
#86=FACE_OUTER_BOUND($,#143,.T.);
#87=FACE_OUTER_BOUND($,#144,.T.);
#88=FACE_OUTER_BOUND($,#145,.T.);
#89=FACE_OUTER_BOUND($,#146,.T.);
#90=FACE_OUTER_BOUND($,#147,.T.);
#91=FACE_OUTER_BOUND($,#148,.T.);
#92=FACE_OUTER_BOUND($,#149,.T.);
#93=FACE_OUTER_BOUND($,#151,.T.);
#94=EDGE_LOOP($,(#582,#583,#584,#585));
#95=EDGE_LOOP($,(#586,#587,#588,#589));
#96=EDGE_LOOP($,(#590,#591,#592,#593));
#97=EDGE_LOOP($,(#594,#595,#596,#597));
#98=EDGE_LOOP($,(#598,#599,#600,#601));
#99=EDGE_LOOP($,(#602,#603,#604,#605));
#100=EDGE_LOOP($,(#606,#607,#608,#609,#610,#611));
#101=EDGE_LOOP($,(#612,#613,#614,#615,#616,#617));
#102=EDGE_LOOP($,(#618,#619,#620,#621));
#103=EDGE_LOOP($,(#622,#623,#624,#625));
#104=EDGE_LOOP($,(#626,#627,#628,#629));
#105=EDGE_LOOP($,(#630,#631,#632,#633));
#106=EDGE_LOOP($,(#634,#635,#636,#637));
#107=EDGE_LOOP($,(#638,#639,#640,#641));
#108=EDGE_LOOP($,(#642,#643,#644,#645,#646,#647));
#109=EDGE_LOOP($,(#648,#649,#650,#651,#652,#653));
#110=EDGE_LOOP($,(#654,#655,#656,#657));
#111=EDGE_LOOP($,(#658,#659,#660,#661));
#112=EDGE_LOOP($,(#662,#663,#664,#665));
#113=EDGE_LOOP($,(#666,#667,#668,#669));
#114=EDGE_LOOP($,(#670,#671,#672,#673));
#115=EDGE_LOOP($,(#674,#675,#676,#677));
#116=EDGE_LOOP($,(#678,#679,#680,#681,#682,#683));
#117=EDGE_LOOP($,(#684,#685,#686,#687,#688,#689));
#118=EDGE_LOOP($,(#690,#691,#692,#693));
#119=EDGE_LOOP($,(#694,#695,#696,#697));
#120=EDGE_LOOP($,(#698,#699,#700,#701));
#121=EDGE_LOOP($,(#702,#703,#704,#705));
#122=EDGE_LOOP($,(#706,#707,#708,#709));
#123=EDGE_LOOP($,(#710,#711,#712,#713));
#124=EDGE_LOOP($,(#714,#715,#716,#717,#718,#719));
#125=EDGE_LOOP($,(#720,#721,#722,#723,#724,#725));
#126=EDGE_LOOP($,(#726,#727,#728,#729));
#127=EDGE_LOOP($,(#730,#731,#732,#733));
#128=EDGE_LOOP($,(#734,#735,#736,#737));
#129=EDGE_LOOP($,(#738,#739,#740,#741));
#130=EDGE_LOOP($,(#742,#743,#744,#745));
#131=EDGE_LOOP($,(#746,#747,#748,#749));
#132=EDGE_LOOP($,(#750,#751,#752,#753));
#133=EDGE_LOOP($,(#754,#755,#756,#757,#758,#759,#760,#761));
#134=EDGE_LOOP($,(#762));
#135=EDGE_LOOP($,(#763));
#136=EDGE_LOOP($,(#764));
#137=EDGE_LOOP($,(#765,#766,#767,#768,#769,#770,#771,#772));
#138=EDGE_LOOP($,(#773));
#139=EDGE_LOOP($,(#774,#775,#776,#777));
#140=EDGE_LOOP($,(#778,#779,#780,#781));
#141=EDGE_LOOP($,(#782,#783));
#142=EDGE_LOOP($,(#784,#785,#786,#787));
#143=EDGE_LOOP($,(#788,#789));
#144=EDGE_LOOP($,(#790,#791,#792,#793));
#145=EDGE_LOOP($,(#794,#795));
#146=EDGE_LOOP($,(#796,#797,#798,#799));
#147=EDGE_LOOP($,(#800,#801));
#148=EDGE_LOOP($,(#802));
#149=EDGE_LOOP($,(#803,#804,#805,#806,#807,#808,#809,#810,#811,#812,#813,
#814,#815,#816,#817,#818));
#150=EDGE_LOOP($,(#819));
#151=EDGE_LOOP($,(#820,#821,#822,#823,#824,#825,#826,#827));
#152=LINE($,#1260,#264);
#153=LINE($,#1262,#265);
#154=LINE($,#1264,#266);
#155=LINE($,#1265,#267);
#156=LINE($,#1268,#268);
#157=LINE($,#1270,#269);
#158=LINE($,#1271,#270);
#159=LINE($,#1274,#271);
#160=LINE($,#1276,#272);
#161=LINE($,#1277,#273);
#162=LINE($,#1280,#274);
#163=LINE($,#1282,#275);
#164=LINE($,#1283,#276);
#165=LINE($,#1286,#277);
#166=LINE($,#1288,#278);
#167=LINE($,#1289,#279);
#168=LINE($,#1291,#280);
#169=LINE($,#1292,#281);
#170=LINE($,#1298,#282);
#171=LINE($,#1300,#283);
#172=LINE($,#1302,#284);
#173=LINE($,#1303,#285);
#174=LINE($,#1306,#286);
#175=LINE($,#1308,#287);
#176=LINE($,#1309,#288);
#177=LINE($,#1312,#289);
#178=LINE($,#1314,#290);
#179=LINE($,#1315,#291);
#180=LINE($,#1318,#292);
#181=LINE($,#1320,#293);
#182=LINE($,#1321,#294);
#183=LINE($,#1324,#295);
#184=LINE($,#1326,#296);
#185=LINE($,#1327,#297);
#186=LINE($,#1329,#298);
#187=LINE($,#1330,#299);
#188=LINE($,#1336,#300);
#189=LINE($,#1338,#301);
#190=LINE($,#1340,#302);
#191=LINE($,#1341,#303);
#192=LINE($,#1344,#304);
#193=LINE($,#1346,#305);
#194=LINE($,#1347,#306);
#195=LINE($,#1350,#307);
#196=LINE($,#1352,#308);
#197=LINE($,#1353,#309);
#198=LINE($,#1356,#310);
#199=LINE($,#1358,#311);
#200=LINE($,#1359,#312);
#201=LINE($,#1362,#313);
#202=LINE($,#1364,#314);
#203=LINE($,#1365,#315);
#204=LINE($,#1367,#316);
#205=LINE($,#1368,#317);
#206=LINE($,#1374,#318);
#207=LINE($,#1376,#319);
#208=LINE($,#1378,#320);
#209=LINE($,#1379,#321);
#210=LINE($,#1382,#322);
#211=LINE($,#1384,#323);
#212=LINE($,#1385,#324);
#213=LINE($,#1388,#325);
#214=LINE($,#1390,#326);
#215=LINE($,#1391,#327);
#216=LINE($,#1394,#328);
#217=LINE($,#1396,#329);
#218=LINE($,#1397,#330);
#219=LINE($,#1400,#331);
#220=LINE($,#1402,#332);
#221=LINE($,#1403,#333);
#222=LINE($,#1405,#334);
#223=LINE($,#1406,#335);
#224=LINE($,#1412,#336);
#225=LINE($,#1414,#337);
#226=LINE($,#1416,#338);
#227=LINE($,#1417,#339);
#228=LINE($,#1420,#340);
#229=LINE($,#1422,#341);
#230=LINE($,#1423,#342);
#231=LINE($,#1426,#343);
#232=LINE($,#1428,#344);
#233=LINE($,#1429,#345);
#234=LINE($,#1432,#346);
#235=LINE($,#1434,#347);
#236=LINE($,#1435,#348);
#237=LINE($,#1438,#349);
#238=LINE($,#1440,#350);
#239=LINE($,#1441,#351);
#240=LINE($,#1444,#352);
#241=LINE($,#1446,#353);
#242=LINE($,#1447,#354);
#243=LINE($,#1450,#355);
#244=LINE($,#1452,#356);
#245=LINE($,#1453,#357);
#246=LINE($,#1455,#358);
#247=LINE($,#1462,#359);
#248=LINE($,#1467,#360);
#249=LINE($,#1469,#361);
#250=LINE($,#1471,#362);
#251=LINE($,#1472,#363);
#252=LINE($,#1478,#364);
#253=LINE($,#1480,#365);
#254=LINE($,#1482,#366);
#255=LINE($,#1483,#367);
#256=LINE($,#1489,#368);
#257=LINE($,#1491,#369);
#258=LINE($,#1493,#370);
#259=LINE($,#1494,#371);
#260=LINE($,#1500,#372);
#261=LINE($,#1502,#373);
#262=LINE($,#1504,#374);
#263=LINE($,#1505,#375);
#264=VECTOR($,#1016,0.1);
#265=VECTOR($,#1017,2.2);
#266=VECTOR($,#1018,0.1);
#267=VECTOR($,#1019,2.2);
#268=VECTOR($,#1022,0.141421356237309);
#269=VECTOR($,#1023,0.141421356237309);
#270=VECTOR($,#1024,2.2);
#271=VECTOR($,#1027,0.550000000000001);
#272=VECTOR($,#1028,0.550000000000001);
#273=VECTOR($,#1029,2.2);
#274=VECTOR($,#1032,0.141421356237311);
#275=VECTOR($,#1033,0.141421356237311);
#276=VECTOR($,#1034,2.2);
#277=VECTOR($,#1037,0.1);
#278=VECTOR($,#1038,0.1);
#279=VECTOR($,#1039,2.2);
#280=VECTOR($,#1042,0.750000000000002);
#281=VECTOR($,#1043,0.750000000000002);
#282=VECTOR($,#1050,0.1);
#283=VECTOR($,#1051,2.2);
#284=VECTOR($,#1052,0.1);
#285=VECTOR($,#1053,2.2);
#286=VECTOR($,#1056,0.141421356237309);
#287=VECTOR($,#1057,2.2);
#288=VECTOR($,#1058,0.141421356237309);
#289=VECTOR($,#1061,0.550000000000001);
#290=VECTOR($,#1062,2.2);
#291=VECTOR($,#1063,0.550000000000001);
#292=VECTOR($,#1066,0.141421356237311);
#293=VECTOR($,#1067,2.2);
#294=VECTOR($,#1068,0.141421356237311);
#295=VECTOR($,#1071,0.1);
#296=VECTOR($,#1072,2.2);
#297=VECTOR($,#1073,0.1);
#298=VECTOR($,#1076,0.750000000000002);
#299=VECTOR($,#1077,0.750000000000002);
#300=VECTOR($,#1084,0.1);
#301=VECTOR($,#1085,2.2);
#302=VECTOR($,#1086,0.1);
#303=VECTOR($,#1087,2.2);
#304=VECTOR($,#1090,0.141421356237309);
#305=VECTOR($,#1091,0.141421356237309);
#306=VECTOR($,#1092,2.2);
#307=VECTOR($,#1095,0.550000000000001);
#308=VECTOR($,#1096,0.550000000000001);
#309=VECTOR($,#1097,2.2);
#310=VECTOR($,#1100,0.141421356237311);
#311=VECTOR($,#1101,0.141421356237311);
#312=VECTOR($,#1102,2.2);
#313=VECTOR($,#1105,0.1);
#314=VECTOR($,#1106,0.1);
#315=VECTOR($,#1107,2.2);
#316=VECTOR($,#1110,0.750000000000002);
#317=VECTOR($,#1111,0.750000000000002);
#318=VECTOR($,#1118,0.1);
#319=VECTOR($,#1119,2.2);
#320=VECTOR($,#1120,0.1);
#321=VECTOR($,#1121,2.2);
#322=VECTOR($,#1124,0.141421356237309);
#323=VECTOR($,#1125,2.2);
#324=VECTOR($,#1126,0.141421356237309);
#325=VECTOR($,#1129,0.550000000000001);
#326=VECTOR($,#1130,2.2);
#327=VECTOR($,#1131,0.550000000000001);
#328=VECTOR($,#1134,0.141421356237311);
#329=VECTOR($,#1135,2.2);
#330=VECTOR($,#1136,0.141421356237311);
#331=VECTOR($,#1139,0.1);
#332=VECTOR($,#1140,2.2);
#333=VECTOR($,#1141,0.1);
#334=VECTOR($,#1144,0.750000000000002);
#335=VECTOR($,#1145,0.750000000000002);
#336=VECTOR($,#1152,2.48025612106853);
#337=VECTOR($,#1153,1.4);
#338=VECTOR($,#1154,2.48025612106853);
#339=VECTOR($,#1155,1.4);
#340=VECTOR($,#1158,2.692388155426);
#341=VECTOR($,#1159,1.4);
#342=VECTOR($,#1160,2.692388155426);
#343=VECTOR($,#1163,2.48025612106853);
#344=VECTOR($,#1164,1.4);
#345=VECTOR($,#1165,2.48025612106853);
#346=VECTOR($,#1168,2.992388155426);
#347=VECTOR($,#1169,1.4);
#348=VECTOR($,#1170,2.992388155426);
#349=VECTOR($,#1173,2.48025612106853);
#350=VECTOR($,#1174,1.4);
#351=VECTOR($,#1175,2.48025612106853);
#352=VECTOR($,#1178,2.692388155426);
#353=VECTOR($,#1179,1.4);
#354=VECTOR($,#1180,2.692388155426);
#355=VECTOR($,#1183,2.48025612106853);
#356=VECTOR($,#1184,1.4);
#357=VECTOR($,#1185,2.48025612106853);
#358=VECTOR($,#1188,2.992388155426);
#359=VECTOR($,#1197,2.992388155426);
#360=VECTOR($,#1202,0.1);
#361=VECTOR($,#1203,0.974679434480899);
#362=VECTOR($,#1204,0.1);
#363=VECTOR($,#1205,0.9746794344808);
#364=VECTOR($,#1212,0.1);
#365=VECTOR($,#1213,0.974679434480901);
#366=VECTOR($,#1214,0.1);
#367=VECTOR($,#1215,0.974679434481);
#368=VECTOR($,#1222,0.1);
#369=VECTOR($,#1223,0.9746794344808);
#370=VECTOR($,#1224,0.1);
#371=VECTOR($,#1225,0.9746794344808);
#372=VECTOR($,#1232,0.1);
#373=VECTOR($,#1233,0.974679434481);
#374=VECTOR($,#1234,0.1);
#375=VECTOR($,#1235,0.974679434481);
#376=VERTEX_POINT($,#1258);
#377=VERTEX_POINT($,#1259);
#378=VERTEX_POINT($,#1261);
#379=VERTEX_POINT($,#1263);
#380=VERTEX_POINT($,#1267);
#381=VERTEX_POINT($,#1269);
#382=VERTEX_POINT($,#1273);
#383=VERTEX_POINT($,#1275);
#384=VERTEX_POINT($,#1279);
#385=VERTEX_POINT($,#1281);
#386=VERTEX_POINT($,#1285);
#387=VERTEX_POINT($,#1287);
#388=VERTEX_POINT($,#1296);
#389=VERTEX_POINT($,#1297);
#390=VERTEX_POINT($,#1299);
#391=VERTEX_POINT($,#1301);
#392=VERTEX_POINT($,#1305);
#393=VERTEX_POINT($,#1307);
#394=VERTEX_POINT($,#1311);
#395=VERTEX_POINT($,#1313);
#396=VERTEX_POINT($,#1317);
#397=VERTEX_POINT($,#1319);
#398=VERTEX_POINT($,#1323);
#399=VERTEX_POINT($,#1325);
#400=VERTEX_POINT($,#1334);
#401=VERTEX_POINT($,#1335);
#402=VERTEX_POINT($,#1337);
#403=VERTEX_POINT($,#1339);
#404=VERTEX_POINT($,#1343);
#405=VERTEX_POINT($,#1345);
#406=VERTEX_POINT($,#1349);
#407=VERTEX_POINT($,#1351);
#408=VERTEX_POINT($,#1355);
#409=VERTEX_POINT($,#1357);
#410=VERTEX_POINT($,#1361);
#411=VERTEX_POINT($,#1363);
#412=VERTEX_POINT($,#1372);
#413=VERTEX_POINT($,#1373);
#414=VERTEX_POINT($,#1375);
#415=VERTEX_POINT($,#1377);
#416=VERTEX_POINT($,#1381);
#417=VERTEX_POINT($,#1383);
#418=VERTEX_POINT($,#1387);
#419=VERTEX_POINT($,#1389);
#420=VERTEX_POINT($,#1393);
#421=VERTEX_POINT($,#1395);
#422=VERTEX_POINT($,#1399);
#423=VERTEX_POINT($,#1401);
#424=VERTEX_POINT($,#1410);
#425=VERTEX_POINT($,#1411);
#426=VERTEX_POINT($,#1413);
#427=VERTEX_POINT($,#1415);
#428=VERTEX_POINT($,#1419);
#429=VERTEX_POINT($,#1421);
#430=VERTEX_POINT($,#1425);
#431=VERTEX_POINT($,#1427);
#432=VERTEX_POINT($,#1431);
#433=VERTEX_POINT($,#1433);
#434=VERTEX_POINT($,#1437);
#435=VERTEX_POINT($,#1439);
#436=VERTEX_POINT($,#1443);
#437=VERTEX_POINT($,#1445);
#438=VERTEX_POINT($,#1449);
#439=VERTEX_POINT($,#1451);
#440=VERTEX_POINT($,#1456);
#441=VERTEX_POINT($,#1459);
#442=VERTEX_POINT($,#1465);
#443=VERTEX_POINT($,#1466);
#444=VERTEX_POINT($,#1468);
#445=VERTEX_POINT($,#1470);
#446=VERTEX_POINT($,#1476);
#447=VERTEX_POINT($,#1477);
#448=VERTEX_POINT($,#1479);
#449=VERTEX_POINT($,#1481);
#450=VERTEX_POINT($,#1487);
#451=VERTEX_POINT($,#1488);
#452=VERTEX_POINT($,#1490);
#453=VERTEX_POINT($,#1492);
#454=VERTEX_POINT($,#1498);
#455=VERTEX_POINT($,#1499);
#456=VERTEX_POINT($,#1501);
#457=VERTEX_POINT($,#1503);
#458=VERTEX_POINT($,#1509);
#459=EDGE_CURVE($,#376,#377,#152,.T.);
#460=EDGE_CURVE($,#377,#378,#153,.T.);
#461=EDGE_CURVE($,#379,#378,#154,.T.);
#462=EDGE_CURVE($,#376,#379,#155,.T.);
#463=EDGE_CURVE($,#380,#376,#156,.T.);
#464=EDGE_CURVE($,#381,#379,#157,.T.);
#465=EDGE_CURVE($,#380,#381,#158,.T.);
#466=EDGE_CURVE($,#382,#380,#159,.T.);
#467=EDGE_CURVE($,#383,#381,#160,.T.);
#468=EDGE_CURVE($,#382,#383,#161,.T.);
#469=EDGE_CURVE($,#384,#382,#162,.T.);
#470=EDGE_CURVE($,#385,#383,#163,.T.);
#471=EDGE_CURVE($,#384,#385,#164,.T.);
#472=EDGE_CURVE($,#386,#384,#165,.T.);
#473=EDGE_CURVE($,#387,#385,#166,.T.);
#474=EDGE_CURVE($,#386,#387,#167,.T.);
#475=EDGE_CURVE($,#377,#386,#168,.T.);
#476=EDGE_CURVE($,#378,#387,#169,.T.);
#477=EDGE_CURVE($,#388,#389,#170,.T.);
#478=EDGE_CURVE($,#388,#390,#171,.T.);
#479=EDGE_CURVE($,#390,#391,#172,.T.);
#480=EDGE_CURVE($,#389,#391,#173,.T.);
#481=EDGE_CURVE($,#392,#388,#174,.T.);
#482=EDGE_CURVE($,#392,#393,#175,.T.);
#483=EDGE_CURVE($,#393,#390,#176,.T.);
#484=EDGE_CURVE($,#394,#392,#177,.T.);
#485=EDGE_CURVE($,#394,#395,#178,.T.);
#486=EDGE_CURVE($,#395,#393,#179,.T.);
#487=EDGE_CURVE($,#396,#394,#180,.T.);
#488=EDGE_CURVE($,#396,#397,#181,.T.);
#489=EDGE_CURVE($,#397,#395,#182,.T.);
#490=EDGE_CURVE($,#398,#396,#183,.T.);
#491=EDGE_CURVE($,#398,#399,#184,.T.);
#492=EDGE_CURVE($,#399,#397,#185,.T.);
#493=EDGE_CURVE($,#389,#398,#186,.T.);
#494=EDGE_CURVE($,#391,#399,#187,.T.);
#495=EDGE_CURVE($,#400,#401,#188,.T.);
#496=EDGE_CURVE($,#401,#402,#189,.T.);
#497=EDGE_CURVE($,#403,#402,#190,.T.);
#498=EDGE_CURVE($,#400,#403,#191,.T.);
#499=EDGE_CURVE($,#404,#400,#192,.T.);
#500=EDGE_CURVE($,#405,#403,#193,.T.);
#501=EDGE_CURVE($,#404,#405,#194,.T.);
#502=EDGE_CURVE($,#406,#404,#195,.T.);
#503=EDGE_CURVE($,#407,#405,#196,.T.);
#504=EDGE_CURVE($,#406,#407,#197,.T.);
#505=EDGE_CURVE($,#408,#406,#198,.T.);
#506=EDGE_CURVE($,#409,#407,#199,.T.);
#507=EDGE_CURVE($,#408,#409,#200,.T.);
#508=EDGE_CURVE($,#410,#408,#201,.T.);
#509=EDGE_CURVE($,#411,#409,#202,.T.);
#510=EDGE_CURVE($,#410,#411,#203,.T.);
#511=EDGE_CURVE($,#401,#410,#204,.T.);
#512=EDGE_CURVE($,#402,#411,#205,.T.);
#513=EDGE_CURVE($,#412,#413,#206,.T.);
#514=EDGE_CURVE($,#412,#414,#207,.T.);
#515=EDGE_CURVE($,#414,#415,#208,.T.);
#516=EDGE_CURVE($,#413,#415,#209,.T.);
#517=EDGE_CURVE($,#416,#412,#210,.T.);
#518=EDGE_CURVE($,#416,#417,#211,.T.);
#519=EDGE_CURVE($,#417,#414,#212,.T.);
#520=EDGE_CURVE($,#418,#416,#213,.T.);
#521=EDGE_CURVE($,#418,#419,#214,.T.);
#522=EDGE_CURVE($,#419,#417,#215,.T.);
#523=EDGE_CURVE($,#420,#418,#216,.T.);
#524=EDGE_CURVE($,#420,#421,#217,.T.);
#525=EDGE_CURVE($,#421,#419,#218,.T.);
#526=EDGE_CURVE($,#422,#420,#219,.T.);
#527=EDGE_CURVE($,#422,#423,#220,.T.);
#528=EDGE_CURVE($,#423,#421,#221,.T.);
#529=EDGE_CURVE($,#413,#422,#222,.T.);
#530=EDGE_CURVE($,#415,#423,#223,.T.);
#531=EDGE_CURVE($,#424,#425,#224,.T.);
#532=EDGE_CURVE($,#425,#426,#225,.T.);
#533=EDGE_CURVE($,#427,#426,#226,.T.);
#534=EDGE_CURVE($,#424,#427,#227,.T.);
#535=EDGE_CURVE($,#425,#428,#228,.T.);
#536=EDGE_CURVE($,#428,#429,#229,.T.);
#537=EDGE_CURVE($,#426,#429,#230,.T.);
#538=EDGE_CURVE($,#428,#430,#231,.T.);
#539=EDGE_CURVE($,#430,#431,#232,.T.);
#540=EDGE_CURVE($,#429,#431,#233,.T.);
#541=EDGE_CURVE($,#430,#432,#234,.T.);
#542=EDGE_CURVE($,#432,#433,#235,.T.);
#543=EDGE_CURVE($,#431,#433,#236,.T.);
#544=EDGE_CURVE($,#432,#434,#237,.T.);
#545=EDGE_CURVE($,#434,#435,#238,.T.);
#546=EDGE_CURVE($,#433,#435,#239,.T.);
#547=EDGE_CURVE($,#434,#436,#240,.T.);
#548=EDGE_CURVE($,#436,#437,#241,.T.);
#549=EDGE_CURVE($,#435,#437,#242,.T.);
#550=EDGE_CURVE($,#436,#438,#243,.T.);
#551=EDGE_CURVE($,#438,#439,#244,.T.);
#552=EDGE_CURVE($,#437,#439,#245,.T.);
#553=EDGE_CURVE($,#438,#424,#246,.T.);
#554=EDGE_CURVE($,#440,#440,#21,.T.);
#555=EDGE_CURVE($,#441,#441,#22,.T.);
#556=EDGE_CURVE($,#439,#427,#247,.T.);
#557=EDGE_CURVE($,#442,#443,#248,.T.);
#558=EDGE_CURVE($,#443,#444,#249,.T.);
#559=EDGE_CURVE($,#445,#444,#250,.T.);
#560=EDGE_CURVE($,#445,#442,#251,.T.);
#561=EDGE_CURVE($,#444,#443,#23,.T.);
#562=EDGE_CURVE($,#446,#447,#252,.T.);
#563=EDGE_CURVE($,#448,#447,#253,.T.);
#564=EDGE_CURVE($,#449,#448,#254,.T.);
#565=EDGE_CURVE($,#449,#446,#255,.T.);
#566=EDGE_CURVE($,#448,#447,#24,.T.);
#567=EDGE_CURVE($,#450,#451,#256,.T.);
#568=EDGE_CURVE($,#450,#452,#257,.T.);
#569=EDGE_CURVE($,#452,#453,#258,.T.);
#570=EDGE_CURVE($,#453,#451,#259,.T.);
#571=EDGE_CURVE($,#451,#453,#25,.T.);
#572=EDGE_CURVE($,#454,#455,#260,.T.);
#573=EDGE_CURVE($,#456,#455,#261,.T.);
#574=EDGE_CURVE($,#457,#456,#262,.T.);
#575=EDGE_CURVE($,#457,#454,#263,.T.);
#576=EDGE_CURVE($,#456,#455,#26,.T.);
#577=EDGE_CURVE($,#458,#458,#27,.T.);
#578=EDGE_CURVE($,#452,#449,#28,.T.);
#579=EDGE_CURVE($,#446,#457,#29,.T.);
#580=EDGE_CURVE($,#454,#445,#30,.T.);
#581=EDGE_CURVE($,#442,#450,#31,.T.);
#582=ORIENTED_EDGE($,*,*,#459,.T.);
#583=ORIENTED_EDGE($,*,*,#460,.T.);
#584=ORIENTED_EDGE($,*,*,#461,.F.);
#585=ORIENTED_EDGE($,*,*,#462,.F.);
#586=ORIENTED_EDGE($,*,*,#463,.T.);
#587=ORIENTED_EDGE($,*,*,#462,.T.);
#588=ORIENTED_EDGE($,*,*,#464,.F.);
#589=ORIENTED_EDGE($,*,*,#465,.F.);
#590=ORIENTED_EDGE($,*,*,#466,.T.);
#591=ORIENTED_EDGE($,*,*,#465,.T.);
#592=ORIENTED_EDGE($,*,*,#467,.F.);
#593=ORIENTED_EDGE($,*,*,#468,.F.);
#594=ORIENTED_EDGE($,*,*,#469,.T.);
#595=ORIENTED_EDGE($,*,*,#468,.T.);
#596=ORIENTED_EDGE($,*,*,#470,.F.);
#597=ORIENTED_EDGE($,*,*,#471,.F.);
#598=ORIENTED_EDGE($,*,*,#472,.T.);
#599=ORIENTED_EDGE($,*,*,#471,.T.);
#600=ORIENTED_EDGE($,*,*,#473,.F.);
#601=ORIENTED_EDGE($,*,*,#474,.F.);
#602=ORIENTED_EDGE($,*,*,#475,.T.);
#603=ORIENTED_EDGE($,*,*,#474,.T.);
#604=ORIENTED_EDGE($,*,*,#476,.F.);
#605=ORIENTED_EDGE($,*,*,#460,.F.);
#606=ORIENTED_EDGE($,*,*,#476,.T.);
#607=ORIENTED_EDGE($,*,*,#473,.T.);
#608=ORIENTED_EDGE($,*,*,#470,.T.);
#609=ORIENTED_EDGE($,*,*,#467,.T.);
#610=ORIENTED_EDGE($,*,*,#464,.T.);
#611=ORIENTED_EDGE($,*,*,#461,.T.);
#612=ORIENTED_EDGE($,*,*,#475,.F.);
#613=ORIENTED_EDGE($,*,*,#459,.F.);
#614=ORIENTED_EDGE($,*,*,#463,.F.);
#615=ORIENTED_EDGE($,*,*,#466,.F.);
#616=ORIENTED_EDGE($,*,*,#469,.F.);
#617=ORIENTED_EDGE($,*,*,#472,.F.);
#618=ORIENTED_EDGE($,*,*,#477,.F.);
#619=ORIENTED_EDGE($,*,*,#478,.T.);
#620=ORIENTED_EDGE($,*,*,#479,.T.);
#621=ORIENTED_EDGE($,*,*,#480,.F.);
#622=ORIENTED_EDGE($,*,*,#481,.F.);
#623=ORIENTED_EDGE($,*,*,#482,.T.);
#624=ORIENTED_EDGE($,*,*,#483,.T.);
#625=ORIENTED_EDGE($,*,*,#478,.F.);
#626=ORIENTED_EDGE($,*,*,#484,.F.);
#627=ORIENTED_EDGE($,*,*,#485,.T.);
#628=ORIENTED_EDGE($,*,*,#486,.T.);
#629=ORIENTED_EDGE($,*,*,#482,.F.);
#630=ORIENTED_EDGE($,*,*,#487,.F.);
#631=ORIENTED_EDGE($,*,*,#488,.T.);
#632=ORIENTED_EDGE($,*,*,#489,.T.);
#633=ORIENTED_EDGE($,*,*,#485,.F.);
#634=ORIENTED_EDGE($,*,*,#490,.F.);
#635=ORIENTED_EDGE($,*,*,#491,.T.);
#636=ORIENTED_EDGE($,*,*,#492,.T.);
#637=ORIENTED_EDGE($,*,*,#488,.F.);
#638=ORIENTED_EDGE($,*,*,#493,.F.);
#639=ORIENTED_EDGE($,*,*,#480,.T.);
#640=ORIENTED_EDGE($,*,*,#494,.T.);
#641=ORIENTED_EDGE($,*,*,#491,.F.);
#642=ORIENTED_EDGE($,*,*,#494,.F.);
#643=ORIENTED_EDGE($,*,*,#479,.F.);
#644=ORIENTED_EDGE($,*,*,#483,.F.);
#645=ORIENTED_EDGE($,*,*,#486,.F.);
#646=ORIENTED_EDGE($,*,*,#489,.F.);
#647=ORIENTED_EDGE($,*,*,#492,.F.);
#648=ORIENTED_EDGE($,*,*,#493,.T.);
#649=ORIENTED_EDGE($,*,*,#490,.T.);
#650=ORIENTED_EDGE($,*,*,#487,.T.);
#651=ORIENTED_EDGE($,*,*,#484,.T.);
#652=ORIENTED_EDGE($,*,*,#481,.T.);
#653=ORIENTED_EDGE($,*,*,#477,.T.);
#654=ORIENTED_EDGE($,*,*,#495,.T.);
#655=ORIENTED_EDGE($,*,*,#496,.T.);
#656=ORIENTED_EDGE($,*,*,#497,.F.);
#657=ORIENTED_EDGE($,*,*,#498,.F.);
#658=ORIENTED_EDGE($,*,*,#499,.T.);
#659=ORIENTED_EDGE($,*,*,#498,.T.);
#660=ORIENTED_EDGE($,*,*,#500,.F.);
#661=ORIENTED_EDGE($,*,*,#501,.F.);
#662=ORIENTED_EDGE($,*,*,#502,.T.);
#663=ORIENTED_EDGE($,*,*,#501,.T.);
#664=ORIENTED_EDGE($,*,*,#503,.F.);
#665=ORIENTED_EDGE($,*,*,#504,.F.);
#666=ORIENTED_EDGE($,*,*,#505,.T.);
#667=ORIENTED_EDGE($,*,*,#504,.T.);
#668=ORIENTED_EDGE($,*,*,#506,.F.);
#669=ORIENTED_EDGE($,*,*,#507,.F.);
#670=ORIENTED_EDGE($,*,*,#508,.T.);
#671=ORIENTED_EDGE($,*,*,#507,.T.);
#672=ORIENTED_EDGE($,*,*,#509,.F.);
#673=ORIENTED_EDGE($,*,*,#510,.F.);
#674=ORIENTED_EDGE($,*,*,#511,.T.);
#675=ORIENTED_EDGE($,*,*,#510,.T.);
#676=ORIENTED_EDGE($,*,*,#512,.F.);
#677=ORIENTED_EDGE($,*,*,#496,.F.);
#678=ORIENTED_EDGE($,*,*,#512,.T.);
#679=ORIENTED_EDGE($,*,*,#509,.T.);
#680=ORIENTED_EDGE($,*,*,#506,.T.);
#681=ORIENTED_EDGE($,*,*,#503,.T.);
#682=ORIENTED_EDGE($,*,*,#500,.T.);
#683=ORIENTED_EDGE($,*,*,#497,.T.);
#684=ORIENTED_EDGE($,*,*,#511,.F.);
#685=ORIENTED_EDGE($,*,*,#495,.F.);
#686=ORIENTED_EDGE($,*,*,#499,.F.);
#687=ORIENTED_EDGE($,*,*,#502,.F.);
#688=ORIENTED_EDGE($,*,*,#505,.F.);
#689=ORIENTED_EDGE($,*,*,#508,.F.);
#690=ORIENTED_EDGE($,*,*,#513,.F.);
#691=ORIENTED_EDGE($,*,*,#514,.T.);
#692=ORIENTED_EDGE($,*,*,#515,.T.);
#693=ORIENTED_EDGE($,*,*,#516,.F.);
#694=ORIENTED_EDGE($,*,*,#517,.F.);
#695=ORIENTED_EDGE($,*,*,#518,.T.);
#696=ORIENTED_EDGE($,*,*,#519,.T.);
#697=ORIENTED_EDGE($,*,*,#514,.F.);
#698=ORIENTED_EDGE($,*,*,#520,.F.);
#699=ORIENTED_EDGE($,*,*,#521,.T.);
#700=ORIENTED_EDGE($,*,*,#522,.T.);
#701=ORIENTED_EDGE($,*,*,#518,.F.);
#702=ORIENTED_EDGE($,*,*,#523,.F.);
#703=ORIENTED_EDGE($,*,*,#524,.T.);
#704=ORIENTED_EDGE($,*,*,#525,.T.);
#705=ORIENTED_EDGE($,*,*,#521,.F.);
#706=ORIENTED_EDGE($,*,*,#526,.F.);
#707=ORIENTED_EDGE($,*,*,#527,.T.);
#708=ORIENTED_EDGE($,*,*,#528,.T.);
#709=ORIENTED_EDGE($,*,*,#524,.F.);
#710=ORIENTED_EDGE($,*,*,#529,.F.);
#711=ORIENTED_EDGE($,*,*,#516,.T.);
#712=ORIENTED_EDGE($,*,*,#530,.T.);
#713=ORIENTED_EDGE($,*,*,#527,.F.);
#714=ORIENTED_EDGE($,*,*,#530,.F.);
#715=ORIENTED_EDGE($,*,*,#515,.F.);
#716=ORIENTED_EDGE($,*,*,#519,.F.);
#717=ORIENTED_EDGE($,*,*,#522,.F.);
#718=ORIENTED_EDGE($,*,*,#525,.F.);
#719=ORIENTED_EDGE($,*,*,#528,.F.);
#720=ORIENTED_EDGE($,*,*,#529,.T.);
#721=ORIENTED_EDGE($,*,*,#526,.T.);
#722=ORIENTED_EDGE($,*,*,#523,.T.);
#723=ORIENTED_EDGE($,*,*,#520,.T.);
#724=ORIENTED_EDGE($,*,*,#517,.T.);
#725=ORIENTED_EDGE($,*,*,#513,.T.);
#726=ORIENTED_EDGE($,*,*,#531,.T.);
#727=ORIENTED_EDGE($,*,*,#532,.T.);
#728=ORIENTED_EDGE($,*,*,#533,.F.);
#729=ORIENTED_EDGE($,*,*,#534,.F.);
#730=ORIENTED_EDGE($,*,*,#535,.T.);
#731=ORIENTED_EDGE($,*,*,#536,.T.);
#732=ORIENTED_EDGE($,*,*,#537,.F.);
#733=ORIENTED_EDGE($,*,*,#532,.F.);
#734=ORIENTED_EDGE($,*,*,#538,.T.);
#735=ORIENTED_EDGE($,*,*,#539,.T.);
#736=ORIENTED_EDGE($,*,*,#540,.F.);
#737=ORIENTED_EDGE($,*,*,#536,.F.);
#738=ORIENTED_EDGE($,*,*,#541,.T.);
#739=ORIENTED_EDGE($,*,*,#542,.T.);
#740=ORIENTED_EDGE($,*,*,#543,.F.);
#741=ORIENTED_EDGE($,*,*,#539,.F.);
#742=ORIENTED_EDGE($,*,*,#544,.T.);
#743=ORIENTED_EDGE($,*,*,#545,.T.);
#744=ORIENTED_EDGE($,*,*,#546,.F.);
#745=ORIENTED_EDGE($,*,*,#542,.F.);
#746=ORIENTED_EDGE($,*,*,#547,.T.);
#747=ORIENTED_EDGE($,*,*,#548,.T.);
#748=ORIENTED_EDGE($,*,*,#549,.F.);
#749=ORIENTED_EDGE($,*,*,#545,.F.);
#750=ORIENTED_EDGE($,*,*,#550,.T.);
#751=ORIENTED_EDGE($,*,*,#551,.T.);
#752=ORIENTED_EDGE($,*,*,#552,.F.);
#753=ORIENTED_EDGE($,*,*,#548,.F.);
#754=ORIENTED_EDGE($,*,*,#553,.F.);
#755=ORIENTED_EDGE($,*,*,#550,.F.);
#756=ORIENTED_EDGE($,*,*,#547,.F.);
#757=ORIENTED_EDGE($,*,*,#544,.F.);
#758=ORIENTED_EDGE($,*,*,#541,.F.);
#759=ORIENTED_EDGE($,*,*,#538,.F.);
#760=ORIENTED_EDGE($,*,*,#535,.F.);
#761=ORIENTED_EDGE($,*,*,#531,.F.);
#762=ORIENTED_EDGE($,*,*,#554,.F.);
#763=ORIENTED_EDGE($,*,*,#554,.T.);
#764=ORIENTED_EDGE($,*,*,#555,.F.);
#765=ORIENTED_EDGE($,*,*,#540,.T.);
#766=ORIENTED_EDGE($,*,*,#543,.T.);
#767=ORIENTED_EDGE($,*,*,#546,.T.);
#768=ORIENTED_EDGE($,*,*,#549,.T.);
#769=ORIENTED_EDGE($,*,*,#552,.T.);
#770=ORIENTED_EDGE($,*,*,#556,.T.);
#771=ORIENTED_EDGE($,*,*,#533,.T.);
#772=ORIENTED_EDGE($,*,*,#537,.T.);
#773=ORIENTED_EDGE($,*,*,#555,.T.);
#774=ORIENTED_EDGE($,*,*,#553,.T.);
#775=ORIENTED_EDGE($,*,*,#534,.T.);
#776=ORIENTED_EDGE($,*,*,#556,.F.);
#777=ORIENTED_EDGE($,*,*,#551,.F.);
#778=ORIENTED_EDGE($,*,*,#557,.T.);
#779=ORIENTED_EDGE($,*,*,#558,.T.);
#780=ORIENTED_EDGE($,*,*,#559,.F.);
#781=ORIENTED_EDGE($,*,*,#560,.T.);
#782=ORIENTED_EDGE($,*,*,#561,.F.);
#783=ORIENTED_EDGE($,*,*,#558,.F.);
#784=ORIENTED_EDGE($,*,*,#562,.T.);
#785=ORIENTED_EDGE($,*,*,#563,.F.);
#786=ORIENTED_EDGE($,*,*,#564,.F.);
#787=ORIENTED_EDGE($,*,*,#565,.T.);
#788=ORIENTED_EDGE($,*,*,#566,.F.);
#789=ORIENTED_EDGE($,*,*,#563,.T.);
#790=ORIENTED_EDGE($,*,*,#567,.F.);
#791=ORIENTED_EDGE($,*,*,#568,.T.);
#792=ORIENTED_EDGE($,*,*,#569,.T.);
#793=ORIENTED_EDGE($,*,*,#570,.T.);
#794=ORIENTED_EDGE($,*,*,#571,.F.);
#795=ORIENTED_EDGE($,*,*,#570,.F.);
#796=ORIENTED_EDGE($,*,*,#572,.T.);
#797=ORIENTED_EDGE($,*,*,#573,.F.);
#798=ORIENTED_EDGE($,*,*,#574,.F.);
#799=ORIENTED_EDGE($,*,*,#575,.T.);
#800=ORIENTED_EDGE($,*,*,#576,.F.);
#801=ORIENTED_EDGE($,*,*,#573,.T.);
#802=ORIENTED_EDGE($,*,*,#577,.T.);
#803=ORIENTED_EDGE($,*,*,#571,.T.);
#804=ORIENTED_EDGE($,*,*,#569,.F.);
#805=ORIENTED_EDGE($,*,*,#578,.T.);
#806=ORIENTED_EDGE($,*,*,#564,.T.);
#807=ORIENTED_EDGE($,*,*,#566,.T.);
#808=ORIENTED_EDGE($,*,*,#562,.F.);
#809=ORIENTED_EDGE($,*,*,#579,.T.);
#810=ORIENTED_EDGE($,*,*,#574,.T.);
#811=ORIENTED_EDGE($,*,*,#576,.T.);
#812=ORIENTED_EDGE($,*,*,#572,.F.);
#813=ORIENTED_EDGE($,*,*,#580,.T.);
#814=ORIENTED_EDGE($,*,*,#559,.T.);
#815=ORIENTED_EDGE($,*,*,#561,.T.);
#816=ORIENTED_EDGE($,*,*,#557,.F.);
#817=ORIENTED_EDGE($,*,*,#581,.T.);
#818=ORIENTED_EDGE($,*,*,#567,.T.);
#819=ORIENTED_EDGE($,*,*,#577,.F.);
#820=ORIENTED_EDGE($,*,*,#568,.F.);
#821=ORIENTED_EDGE($,*,*,#581,.F.);
#822=ORIENTED_EDGE($,*,*,#560,.F.);
#823=ORIENTED_EDGE($,*,*,#580,.F.);
#824=ORIENTED_EDGE($,*,*,#575,.F.);
#825=ORIENTED_EDGE($,*,*,#579,.F.);
#826=ORIENTED_EDGE($,*,*,#565,.F.);
#827=ORIENTED_EDGE($,*,*,#578,.F.);
#828=PLANE($,#947);
#829=PLANE($,#948);
#830=PLANE($,#949);
#831=PLANE($,#950);
#832=PLANE($,#951);
#833=PLANE($,#952);
#834=PLANE($,#953);
#835=PLANE($,#954);
#836=PLANE($,#955);
#837=PLANE($,#956);
#838=PLANE($,#957);
#839=PLANE($,#958);
#840=PLANE($,#959);
#841=PLANE($,#960);
#842=PLANE($,#961);
#843=PLANE($,#962);
#844=PLANE($,#963);
#845=PLANE($,#964);
#846=PLANE($,#965);
#847=PLANE($,#966);
#848=PLANE($,#967);
#849=PLANE($,#968);
#850=PLANE($,#969);
#851=PLANE($,#970);
#852=PLANE($,#971);
#853=PLANE($,#972);
#854=PLANE($,#973);
#855=PLANE($,#974);
#856=PLANE($,#975);
#857=PLANE($,#976);
#858=PLANE($,#977);
#859=PLANE($,#978);
#860=PLANE($,#979);
#861=PLANE($,#980);
#862=PLANE($,#981);
#863=PLANE($,#982);
#864=PLANE($,#983);
#865=PLANE($,#984);
#866=PLANE($,#985);
#867=PLANE($,#986);
#868=PLANE($,#990);
#869=PLANE($,#991);
#870=PLANE($,#992);
#871=PLANE($,#993);
#872=PLANE($,#995);
#873=PLANE($,#996);
#874=PLANE($,#998);
#875=PLANE($,#999);
#876=PLANE($,#1001);
#877=PLANE($,#1002);
#878=PLANE($,#1004);
#879=PLANE($,#1011);
#880=ADVANCED_FACE($,(#40),#828,.T.);
#881=ADVANCED_FACE($,(#41),#829,.T.);
#882=ADVANCED_FACE($,(#42),#830,.T.);
#883=ADVANCED_FACE($,(#43),#831,.T.);
#884=ADVANCED_FACE($,(#44),#832,.T.);
#885=ADVANCED_FACE($,(#45),#833,.T.);
#886=ADVANCED_FACE($,(#46),#834,.T.);
#887=ADVANCED_FACE($,(#47),#835,.T.);
#888=ADVANCED_FACE($,(#48),#836,.F.);
#889=ADVANCED_FACE($,(#49),#837,.F.);
#890=ADVANCED_FACE($,(#50),#838,.F.);
#891=ADVANCED_FACE($,(#51),#839,.F.);
#892=ADVANCED_FACE($,(#52),#840,.F.);
#893=ADVANCED_FACE($,(#53),#841,.F.);
#894=ADVANCED_FACE($,(#54),#842,.F.);
#895=ADVANCED_FACE($,(#55),#843,.F.);
#896=ADVANCED_FACE($,(#56),#844,.T.);
#897=ADVANCED_FACE($,(#57),#845,.T.);
#898=ADVANCED_FACE($,(#58),#846,.T.);
#899=ADVANCED_FACE($,(#59),#847,.T.);
#900=ADVANCED_FACE($,(#60),#848,.T.);
#901=ADVANCED_FACE($,(#61),#849,.T.);
#902=ADVANCED_FACE($,(#62),#850,.T.);
#903=ADVANCED_FACE($,(#63),#851,.T.);
#904=ADVANCED_FACE($,(#64),#852,.F.);
#905=ADVANCED_FACE($,(#65),#853,.F.);
#906=ADVANCED_FACE($,(#66),#854,.F.);
#907=ADVANCED_FACE($,(#67),#855,.F.);
#908=ADVANCED_FACE($,(#68),#856,.F.);
#909=ADVANCED_FACE($,(#69),#857,.F.);
#910=ADVANCED_FACE($,(#70),#858,.F.);
#911=ADVANCED_FACE($,(#71),#859,.F.);
#912=ADVANCED_FACE($,(#72),#860,.T.);
#913=ADVANCED_FACE($,(#73),#861,.T.);
#914=ADVANCED_FACE($,(#74),#862,.T.);
#915=ADVANCED_FACE($,(#75),#863,.T.);
#916=ADVANCED_FACE($,(#76),#864,.T.);
#917=ADVANCED_FACE($,(#77),#865,.T.);
#918=ADVANCED_FACE($,(#78),#866,.T.);
#919=ADVANCED_FACE($,(#79,#17),#867,.F.);
#920=ADVANCED_FACE($,(#80,#18),#15,.F.);
#921=ADVANCED_FACE($,(#81,#19),#868,.T.);
#922=ADVANCED_FACE($,(#82),#869,.T.);
#923=ADVANCED_FACE($,(#83),#870,.T.);
#924=ADVANCED_FACE($,(#84),#871,.T.);
#925=ADVANCED_FACE($,(#85),#872,.F.);
#926=ADVANCED_FACE($,(#86),#873,.F.);
#927=ADVANCED_FACE($,(#87),#874,.T.);
#928=ADVANCED_FACE($,(#88),#875,.T.);
#929=ADVANCED_FACE($,(#89),#876,.F.);
#930=ADVANCED_FACE($,(#90),#877,.F.);
#931=ADVANCED_FACE($,(#91),#878,.T.);
#932=ADVANCED_FACE($,(#92,#20),#16,.T.);
#933=ADVANCED_FACE($,(#93),#879,.F.);
#934=CLOSED_SHELL($,(#880,#881,#882,#883,#884,#885,#886,#887));
#935=CLOSED_SHELL($,(#888,#889,#890,#891,#892,#893,#894,#895));
#936=CLOSED_SHELL($,(#896,#897,#898,#899,#900,#901,#902,#903));
#937=CLOSED_SHELL($,(#904,#905,#906,#907,#908,#909,#910,#911));
#938=CLOSED_SHELL($,(#912,#913,#914,#915,#916,#917,#918,#919,#920,#921,
#922));
#939=CLOSED_SHELL($,(#923,#924,#925,#926,#927,#928,#929,#930,#931,#932,
#933));
#940=MANIFOLD_SOLID_BREP('FB7',#934);
#941=MANIFOLD_SOLID_BREP('FBB',#935);
#942=MANIFOLD_SOLID_BREP('FBF',#936);
#943=MANIFOLD_SOLID_BREP('FC3',#937);
#944=MANIFOLD_SOLID_BREP('FC7',#938);
#945=MANIFOLD_SOLID_BREP('FC7',#939);
#946=AXIS2_PLACEMENT_3D('placement',#1256,#1012,#1013);
#947=AXIS2_PLACEMENT_3D($,#1257,#1014,#1015);
#948=AXIS2_PLACEMENT_3D($,#1266,#1020,#1021);
#949=AXIS2_PLACEMENT_3D($,#1272,#1025,#1026);
#950=AXIS2_PLACEMENT_3D($,#1278,#1030,#1031);
#951=AXIS2_PLACEMENT_3D($,#1284,#1035,#1036);
#952=AXIS2_PLACEMENT_3D($,#1290,#1040,#1041);
#953=AXIS2_PLACEMENT_3D($,#1293,#1044,#1045);
#954=AXIS2_PLACEMENT_3D($,#1294,#1046,#1047);
#955=AXIS2_PLACEMENT_3D($,#1295,#1048,#1049);
#956=AXIS2_PLACEMENT_3D($,#1304,#1054,#1055);
#957=AXIS2_PLACEMENT_3D($,#1310,#1059,#1060);
#958=AXIS2_PLACEMENT_3D($,#1316,#1064,#1065);
#959=AXIS2_PLACEMENT_3D($,#1322,#1069,#1070);
#960=AXIS2_PLACEMENT_3D($,#1328,#1074,#1075);
#961=AXIS2_PLACEMENT_3D($,#1331,#1078,#1079);
#962=AXIS2_PLACEMENT_3D($,#1332,#1080,#1081);
#963=AXIS2_PLACEMENT_3D($,#1333,#1082,#1083);
#964=AXIS2_PLACEMENT_3D($,#1342,#1088,#1089);
#965=AXIS2_PLACEMENT_3D($,#1348,#1093,#1094);
#966=AXIS2_PLACEMENT_3D($,#1354,#1098,#1099);
#967=AXIS2_PLACEMENT_3D($,#1360,#1103,#1104);
#968=AXIS2_PLACEMENT_3D($,#1366,#1108,#1109);
#969=AXIS2_PLACEMENT_3D($,#1369,#1112,#1113);
#970=AXIS2_PLACEMENT_3D($,#1370,#1114,#1115);
#971=AXIS2_PLACEMENT_3D($,#1371,#1116,#1117);
#972=AXIS2_PLACEMENT_3D($,#1380,#1122,#1123);
#973=AXIS2_PLACEMENT_3D($,#1386,#1127,#1128);
#974=AXIS2_PLACEMENT_3D($,#1392,#1132,#1133);
#975=AXIS2_PLACEMENT_3D($,#1398,#1137,#1138);
#976=AXIS2_PLACEMENT_3D($,#1404,#1142,#1143);
#977=AXIS2_PLACEMENT_3D($,#1407,#1146,#1147);
#978=AXIS2_PLACEMENT_3D($,#1408,#1148,#1149);
#979=AXIS2_PLACEMENT_3D($,#1409,#1150,#1151);
#980=AXIS2_PLACEMENT_3D($,#1418,#1156,#1157);
#981=AXIS2_PLACEMENT_3D($,#1424,#1161,#1162);
#982=AXIS2_PLACEMENT_3D($,#1430,#1166,#1167);
#983=AXIS2_PLACEMENT_3D($,#1436,#1171,#1172);
#984=AXIS2_PLACEMENT_3D($,#1442,#1176,#1177);
#985=AXIS2_PLACEMENT_3D($,#1448,#1181,#1182);
#986=AXIS2_PLACEMENT_3D($,#1454,#1186,#1187);
#987=AXIS2_PLACEMENT_3D($,#1457,#1189,#1190);
#988=AXIS2_PLACEMENT_3D($,#1458,#1191,#1192);
#989=AXIS2_PLACEMENT_3D($,#1460,#1193,#1194);
#990=AXIS2_PLACEMENT_3D($,#1461,#1195,#1196);
#991=AXIS2_PLACEMENT_3D($,#1463,#1198,#1199);
#992=AXIS2_PLACEMENT_3D($,#1464,#1200,#1201);
#993=AXIS2_PLACEMENT_3D($,#1473,#1206,#1207);
#994=AXIS2_PLACEMENT_3D($,#1474,#1208,#1209);
#995=AXIS2_PLACEMENT_3D($,#1475,#1210,#1211);
#996=AXIS2_PLACEMENT_3D($,#1484,#1216,#1217);
#997=AXIS2_PLACEMENT_3D($,#1485,#1218,#1219);
#998=AXIS2_PLACEMENT_3D($,#1486,#1220,#1221);
#999=AXIS2_PLACEMENT_3D($,#1495,#1226,#1227);
#1000=AXIS2_PLACEMENT_3D($,#1496,#1228,#1229);
#1001=AXIS2_PLACEMENT_3D($,#1497,#1230,#1231);
#1002=AXIS2_PLACEMENT_3D($,#1506,#1236,#1237);
#1003=AXIS2_PLACEMENT_3D($,#1507,#1238,#1239);
#1004=AXIS2_PLACEMENT_3D($,#1508,#1240,#1241);
#1005=AXIS2_PLACEMENT_3D($,#1510,#1242,#1243);
#1006=AXIS2_PLACEMENT_3D($,#1511,#1244,#1245);
#1007=AXIS2_PLACEMENT_3D($,#1512,#1246,#1247);
#1008=AXIS2_PLACEMENT_3D($,#1513,#1248,#1249);
#1009=AXIS2_PLACEMENT_3D($,#1514,#1250,#1251);
#1010=AXIS2_PLACEMENT_3D($,#1515,#1252,#1253);
#1011=AXIS2_PLACEMENT_3D($,#1516,#1254,#1255);
#1012=DIRECTION('axis',(0.,0.,1.));
#1013=DIRECTION('refdir',(1.,0.,0.));
#1014=DIRECTION('center_axis',(1.,-6.12323399573677E-17,1.83697019872103E-16));
#1015=DIRECTION('ref_axis',(0.,-2.22044604925031E-16,1.));
#1016=DIRECTION($,(-1.83697019872103E-16,-1.83697019872103E-16,1.));
#1017=DIRECTION($,(-6.12323399573677E-17,-1.,-1.83697019872103E-16));
#1018=DIRECTION($,(-1.83697019872103E-16,-1.83697019872103E-16,1.));
#1019=DIRECTION($,(-6.12323399573677E-17,-1.,-1.83697019872103E-16));
#1020=DIRECTION('center_axis',(0.707106781186549,8.6595605623549E-17,-0.707106781186546));
#1021=DIRECTION('ref_axis',(0.707106781186546,-2.22044604925031E-16,0.707106781186549));
#1022=DIRECTION($,(0.707106781186546,-1.73191211247099E-16,0.707106781186549));
#1023=DIRECTION($,(0.707106781186546,-1.73191211247099E-16,0.707106781186549));
#1024=DIRECTION($,(-6.12323399573677E-17,-1.,-1.83697019872103E-16));
#1025=DIRECTION('center_axis',(-1.81617118779253E-17,1.83697019872103E-16,
-1.));
#1026=DIRECTION('ref_axis',(1.,0.,-1.81617118779253E-17));
#1027=DIRECTION($,(1.,-6.12323399573677E-17,-1.81617118779253E-17));
#1028=DIRECTION($,(1.,-6.12323399573677E-17,-1.81617118779253E-17));
#1029=DIRECTION($,(-6.12323399573677E-17,-1.,-1.83697019872103E-16));
#1030=DIRECTION('center_axis',(-0.707106781186543,1.73191211247099E-16,
-0.707106781186553));
#1031=DIRECTION('ref_axis',(0.707106781186552,0.,-0.707106781186543));
#1032=DIRECTION($,(0.707106781186553,8.65956056235481E-17,-0.707106781186543));
#1033=DIRECTION($,(0.707106781186553,8.65956056235481E-17,-0.707106781186543));
#1034=DIRECTION($,(-6.12323399573677E-17,-1.,-1.83697019872103E-16));
#1035=DIRECTION('center_axis',(-1.,6.12323399573677E-17,-1.83697019872103E-16));
#1036=DIRECTION('ref_axis',(0.,2.22044604925031E-16,-1.));
#1037=DIRECTION($,(1.83697019872103E-16,1.83697019872103E-16,-1.));
#1038=DIRECTION($,(1.83697019872103E-16,1.83697019872103E-16,-1.));
#1039=DIRECTION($,(-6.12323399573677E-17,-1.,-1.83697019872103E-16));
#1040=DIRECTION('center_axis',(3.54987407349455E-30,-1.83697019872103E-16,
1.));
#1041=DIRECTION('ref_axis',(-1.,0.,0.));
#1042=DIRECTION($,(-1.,6.12323399573677E-17,3.54987407349455E-30));
#1043=DIRECTION($,(-1.,6.12323399573677E-17,3.54987407349455E-30));
#1044=DIRECTION('center_axis',(-6.12323399573677E-17,-1.,-1.83697019872103E-16));
#1045=DIRECTION('ref_axis',(0.,-2.22044604925031E-16,1.));
#1046=DIRECTION('center_axis',(6.12323399573677E-17,1.,1.83697019872103E-16));
#1047=DIRECTION('ref_axis',(0.,2.22044604925031E-16,-1.));
#1048=DIRECTION('center_axis',(1.,-6.12323399573677E-17,1.83697019872103E-16));
#1049=DIRECTION('ref_axis',(0.,-2.22044604925031E-16,1.));
#1050=DIRECTION($,(-1.83697019872103E-16,-1.83697019872103E-16,1.));
#1051=DIRECTION($,(-6.12323399573677E-17,-1.,-1.83697019872103E-16));
#1052=DIRECTION($,(-1.83697019872103E-16,-1.83697019872103E-16,1.));
#1053=DIRECTION($,(-6.12323399573677E-17,-1.,-1.83697019872103E-16));
#1054=DIRECTION('center_axis',(0.707106781186549,-1.73191211247099E-16,
0.707106781186546));
#1055=DIRECTION('ref_axis',(-0.707106781186546,0.,0.707106781186549));
#1056=DIRECTION($,(-0.707106781186546,-8.65956056235496E-17,0.707106781186549));
#1057=DIRECTION($,(-6.12323399573677E-17,-1.,-1.83697019872103E-16));
#1058=DIRECTION($,(-0.707106781186546,-8.65956056235496E-17,0.707106781186549));
#1059=DIRECTION('center_axis',(-3.85555751622131E-16,-1.83697019872103E-16,
1.));
#1060=DIRECTION('ref_axis',(-1.,0.,-3.85555751622131E-16));
#1061=DIRECTION($,(-1.,6.12323399573677E-17,-3.85555751622131E-16));
#1062=DIRECTION($,(-6.12323399573677E-17,-1.,-1.83697019872103E-16));
#1063=DIRECTION($,(-1.,6.12323399573677E-17,-3.85555751622131E-16));
#1064=DIRECTION('center_axis',(-0.707106781186543,-8.65956056235505E-17,
0.707106781186552));
#1065=DIRECTION('ref_axis',(-0.707106781186552,2.22044604925031E-16,-0.707106781186543));
#1066=DIRECTION($,(-0.707106781186552,1.73191211247098E-16,-0.707106781186543));
#1067=DIRECTION($,(-6.12323399573677E-17,-1.,-1.83697019872103E-16));
#1068=DIRECTION($,(-0.707106781186552,1.73191211247098E-16,-0.707106781186543));
#1069=DIRECTION('center_axis',(-1.,6.12323399573677E-17,-1.83697019872103E-16));
#1070=DIRECTION('ref_axis',(0.,2.22044604925031E-16,-1.));
#1071=DIRECTION($,(1.83697019872103E-16,1.83697019872103E-16,-1.));
#1072=DIRECTION($,(-6.12323399573677E-17,-1.,-1.83697019872103E-16));
#1073=DIRECTION($,(1.83697019872103E-16,1.83697019872103E-16,-1.));
#1074=DIRECTION('center_axis',(3.67394039744209E-16,1.83697019872103E-16,
-1.));
#1075=DIRECTION('ref_axis',(1.,0.,3.60822483003176E-16));
#1076=DIRECTION($,(1.,-6.12323399573677E-17,3.67394039744209E-16));
#1077=DIRECTION($,(1.,-6.12323399573677E-17,3.67394039744209E-16));
#1078=DIRECTION('center_axis',(6.12323399573677E-17,1.,1.83697019872103E-16));
#1079=DIRECTION('ref_axis',(0.,-2.22044604925031E-16,1.));
#1080=DIRECTION('center_axis',(-6.12323399573677E-17,-1.,-1.83697019872103E-16));
#1081=DIRECTION('ref_axis',(0.,2.22044604925031E-16,-1.));
#1082=DIRECTION('center_axis',(1.22464679914735E-16,1.,1.83697019872103E-16));
#1083=DIRECTION('ref_axis',(-2.22044604925031E-16,0.,1.));
#1084=DIRECTION($,(-1.83697019872103E-16,-1.83697019872103E-16,1.));
#1085=DIRECTION($,(1.,-1.22464679914735E-16,1.83697019872103E-16));
#1086=DIRECTION($,(-1.83697019872103E-16,-1.83697019872103E-16,1.));
#1087=DIRECTION($,(1.,-1.22464679914735E-16,1.83697019872103E-16));
#1088=DIRECTION('center_axis',(2.16489014058873E-16,0.707106781186549,-0.707106781186546));
#1089=DIRECTION('ref_axis',(0.,0.707106781186546,0.707106781186549));
#1090=DIRECTION($,(-4.3297802811775E-17,0.707106781186546,0.707106781186549));
#1091=DIRECTION($,(-4.3297802811775E-17,0.707106781186546,0.707106781186549));
#1092=DIRECTION($,(1.,-1.22464679914735E-16,1.83697019872103E-16));
#1093=DIRECTION('center_axis',(1.83697019872103E-16,-1.81617118779252E-17,
-1.));
#1094=DIRECTION('ref_axis',(2.22044604925031E-16,1.,-1.81617118779253E-17));
#1095=DIRECTION($,(1.22464679914735E-16,1.,-1.81617118779252E-17));
#1096=DIRECTION($,(1.22464679914735E-16,1.,-1.81617118779252E-17));
#1097=DIRECTION($,(1.,-1.22464679914735E-16,1.83697019872103E-16));
#1098=DIRECTION('center_axis',(4.32978028117762E-17,-0.707106781186543,
-0.707106781186553));
#1099=DIRECTION('ref_axis',(2.22044604925031E-16,0.707106781186552,-0.707106781186543));
#1100=DIRECTION($,(2.16489014058873E-16,0.707106781186553,-0.707106781186543));
#1101=DIRECTION($,(2.16489014058873E-16,0.707106781186553,-0.707106781186543));
#1102=DIRECTION($,(1.,-1.22464679914735E-16,1.83697019872103E-16));
#1103=DIRECTION('center_axis',(-1.22464679914735E-16,-1.,-1.83697019872103E-16));
#1104=DIRECTION('ref_axis',(2.22044604925031E-16,0.,-1.));
#1105=DIRECTION($,(1.83697019872103E-16,1.83697019872103E-16,-1.));
#1106=DIRECTION($,(1.83697019872103E-16,1.83697019872103E-16,-1.));
#1107=DIRECTION($,(1.,-1.22464679914735E-16,1.83697019872103E-16));
#1108=DIRECTION('center_axis',(-1.83697019872103E-16,3.5252221702064E-30,
1.));
#1109=DIRECTION('ref_axis',(-2.22044604925031E-16,-1.,0.));
#1110=DIRECTION($,(-1.22464679914735E-16,-1.,3.5252221702064E-30));
#1111=DIRECTION($,(-1.22464679914735E-16,-1.,3.5252221702064E-30));
#1112=DIRECTION('center_axis',(1.,-1.22464679914735E-16,1.83697019872103E-16));
#1113=DIRECTION('ref_axis',(-2.22044604925031E-16,0.,1.));
#1114=DIRECTION('center_axis',(-1.,1.22464679914735E-16,-1.83697019872103E-16));
#1115=DIRECTION('ref_axis',(2.22044604925031E-16,0.,-1.));
#1116=DIRECTION('center_axis',(1.22464679914735E-16,1.,1.83697019872103E-16));
#1117=DIRECTION('ref_axis',(-2.22044604925031E-16,0.,1.));
#1118=DIRECTION($,(-1.83697019872103E-16,-1.83697019872103E-16,1.));
#1119=DIRECTION($,(1.,-1.22464679914735E-16,1.83697019872103E-16));
#1120=DIRECTION($,(-1.83697019872103E-16,-1.83697019872103E-16,1.));
#1121=DIRECTION($,(1.,-1.22464679914735E-16,1.83697019872103E-16));
#1122=DIRECTION('center_axis',(-4.32978028117743E-17,0.707106781186549,
0.707106781186546));
#1123=DIRECTION('ref_axis',(-2.22044604925031E-16,-0.707106781186546,0.707106781186549));
#1124=DIRECTION($,(-2.16489014058873E-16,-0.707106781186546,0.707106781186549));
#1125=DIRECTION($,(1.,-1.22464679914735E-16,1.83697019872103E-16));
#1126=DIRECTION($,(-2.16489014058873E-16,-0.707106781186546,0.707106781186549));
#1127=DIRECTION('center_axis',(-1.83697019872103E-16,-3.85555751622131E-16,
1.));
#1128=DIRECTION('ref_axis',(-2.22044604925031E-16,-1.,-3.85555751622131E-16));
#1129=DIRECTION($,(-1.22464679914735E-16,-1.,-3.85555751622131E-16));
#1130=DIRECTION($,(1.,-1.22464679914735E-16,1.83697019872103E-16));
#1131=DIRECTION($,(-1.22464679914735E-16,-1.,-3.85555751622131E-16));
#1132=DIRECTION('center_axis',(-2.16489014058874E-16,-0.707106781186543,
0.707106781186552));
#1133=DIRECTION('ref_axis',(0.,-0.707106781186552,-0.707106781186543));
#1134=DIRECTION($,(4.32978028117732E-17,-0.707106781186552,-0.707106781186543));
#1135=DIRECTION($,(1.,-1.22464679914735E-16,1.83697019872103E-16));
#1136=DIRECTION($,(4.32978028117732E-17,-0.707106781186552,-0.707106781186543));
#1137=DIRECTION('center_axis',(-1.22464679914735E-16,-1.,-1.83697019872103E-16));
#1138=DIRECTION('ref_axis',(2.22044604925031E-16,0.,-1.));
#1139=DIRECTION($,(1.83697019872103E-16,1.83697019872103E-16,-1.));
#1140=DIRECTION($,(1.,-1.22464679914735E-16,1.83697019872103E-16));
#1141=DIRECTION($,(1.83697019872103E-16,1.83697019872103E-16,-1.));
#1142=DIRECTION('center_axis',(1.83697019872103E-16,3.67394039744209E-16,
-1.));
#1143=DIRECTION('ref_axis',(2.22044604925031E-16,1.,3.60822483003176E-16));
#1144=DIRECTION($,(1.22464679914735E-16,1.,3.67394039744209E-16));
#1145=DIRECTION($,(1.22464679914735E-16,1.,3.67394039744209E-16));
#1146=DIRECTION('center_axis',(-1.,1.22464679914735E-16,-1.83697019872103E-16));
#1147=DIRECTION('ref_axis',(-2.22044604925031E-16,0.,1.));
#1148=DIRECTION('center_axis',(1.,-1.22464679914735E-16,1.83697019872103E-16));
#1149=DIRECTION('ref_axis',(2.22044604925031E-16,0.,-1.));
#1150=DIRECTION('center_axis',(-0.707106781186548,0.707106781186548,1.29893408435324E-16));
#1151=DIRECTION('ref_axis',(-0.707106781186548,-0.707106781186547,-1.38777878078145E-16));
#1152=DIRECTION($,(-0.707106781186548,-0.707106781186548,-1.29893408435324E-16));
#1153=DIRECTION($,(2.46519032881566E-32,-1.83697019872103E-16,1.));
#1154=DIRECTION($,(-0.707106781186548,-0.707106781186548,-1.29893408435324E-16));
#1155=DIRECTION($,(2.46519032881566E-32,-1.83697019872103E-16,1.));
#1156=DIRECTION('center_axis',(-1.,6.12323399573677E-17,2.46519032881566E-32));
#1157=DIRECTION('ref_axis',(0.,-1.,-1.94289029309402E-16));
#1158=DIRECTION($,(-6.12323399573677E-17,-1.,-1.83697019872103E-16));
#1159=DIRECTION($,(2.46519032881566E-32,-1.83697019872103E-16,1.));
#1160=DIRECTION($,(-6.12323399573677E-17,-1.,-1.83697019872103E-16));
#1161=DIRECTION('center_axis',(-0.707106781186548,-0.707106781186548,-1.29893408435324E-16));
#1162=DIRECTION('ref_axis',(0.707106781186548,-0.707106781186547,-1.38777878078145E-16));
#1163=DIRECTION($,(0.707106781186548,-0.707106781186548,-1.29893408435324E-16));
#1164=DIRECTION($,(2.46519032881566E-32,-1.83697019872103E-16,1.));
#1165=DIRECTION($,(0.707106781186548,-0.707106781186548,-1.29893408435324E-16));
#1166=DIRECTION('center_axis',(-6.12323399573677E-17,-1.,-1.83697019872103E-16));
#1167=DIRECTION('ref_axis',(1.,0.,0.));
#1168=DIRECTION($,(1.,-6.12323399573677E-17,-2.46519032881566E-32));
#1169=DIRECTION($,(2.46519032881566E-32,-1.83697019872103E-16,1.));
#1170=DIRECTION($,(1.,-6.12323399573677E-17,-2.46519032881566E-32));
#1171=DIRECTION('center_axis',(0.707106781186548,-0.707106781186548,-1.29893408435324E-16));
#1172=DIRECTION('ref_axis',(0.707106781186548,0.707106781186547,1.38777878078145E-16));
#1173=DIRECTION($,(0.707106781186548,0.707106781186548,1.29893408435324E-16));
#1174=DIRECTION($,(2.46519032881566E-32,-1.83697019872103E-16,1.));
#1175=DIRECTION($,(0.707106781186548,0.707106781186548,1.29893408435324E-16));
#1176=DIRECTION('center_axis',(1.,-6.12323399573677E-17,-2.46519032881566E-32));
#1177=DIRECTION('ref_axis',(0.,1.,1.94289029309402E-16));
#1178=DIRECTION($,(6.12323399573677E-17,1.,1.83697019872103E-16));
#1179=DIRECTION($,(2.46519032881566E-32,-1.83697019872103E-16,1.));
#1180=DIRECTION($,(6.12323399573677E-17,1.,1.83697019872103E-16));
#1181=DIRECTION('center_axis',(0.707106781186548,0.707106781186548,1.29893408435324E-16));
#1182=DIRECTION('ref_axis',(-0.707106781186548,0.707106781186547,1.38777878078145E-16));
#1183=DIRECTION($,(-0.707106781186548,0.707106781186548,1.29893408435324E-16));
#1184=DIRECTION($,(2.46519032881566E-32,-1.83697019872103E-16,1.));
#1185=DIRECTION($,(-0.707106781186548,0.707106781186548,1.29893408435324E-16));
#1186=DIRECTION('center_axis',(2.46519032881566E-32,-1.83697019872103E-16,
1.));
#1187=DIRECTION('ref_axis',(6.12323399573677E-17,1.,1.94289029309402E-16));
#1188=DIRECTION($,(-1.,6.12323399573677E-17,-1.83697019872103E-16));
#1189=DIRECTION('center_axis',(-2.46519032881566E-32,1.83697019872103E-16,
-1.));
#1190=DIRECTION('ref_axis',(0.282783805317394,0.95918367346938,1.76199182326301E-16));
#1191=DIRECTION('center_axis',(2.46519032881566E-32,-1.83697019872103E-16,
1.));
#1192=DIRECTION('ref_axis',(6.12323399573677E-17,1.,1.83697019872103E-16));
#1193=DIRECTION('center_axis',(-2.46519032881566E-32,1.83697019872103E-16,
-1.));
#1194=DIRECTION('ref_axis',(6.12323399573677E-17,1.,1.83697019872103E-16));
#1195=DIRECTION('center_axis',(2.46519032881566E-32,-1.83697019872103E-16,
1.));
#1196=DIRECTION('ref_axis',(6.12323399573677E-17,1.,2.22044604925031E-16));
#1197=DIRECTION($,(-1.,6.12323399573677E-17,2.46519032881566E-32));
#1198=DIRECTION('center_axis',(6.12323399573677E-17,1.,1.83697019872103E-16));
#1199=DIRECTION('ref_axis',(-1.,0.,0.));
#1200=DIRECTION('center_axis',(1.,-6.12323399573677E-17,1.83697019872103E-16));
#1201=DIRECTION('ref_axis',(0.,-2.22044604925031E-16,1.));
#1202=DIRECTION($,(8.55633688917002E-30,1.39149292570628E-13,1.));
#1203=DIRECTION($,(-6.12323399573677E-17,-1.,-1.83697019872103E-16));
#1204=DIRECTION($,(2.22044604925E-14,1.21940835688928E-13,1.));
#1205=DIRECTION($,(6.12323399573677E-17,1.,1.83697019872103E-16));
#1206=DIRECTION('center_axis',(3.67394039744209E-16,1.83697019872103E-16,
-1.));
#1207=DIRECTION('ref_axis',(1.,0.,3.60822483003176E-16));
#1208=DIRECTION('center_axis',(2.46519032881566E-32,-1.83697019872103E-16,
1.));
#1209=DIRECTION('ref_axis',(0.979166666666659,-0.203058215516892,-3.73011890510002E-17));
#1210=DIRECTION('center_axis',(1.,-6.12323399573677E-17,1.83697019872103E-16));
#1211=DIRECTION('ref_axis',(0.,-2.22044604925031E-16,1.));
#1212=DIRECTION($,(8.79427232701783E-30,1.43035073156728E-13,1.));
#1213=DIRECTION($,(-6.12323399573677E-17,-1.,-1.83697019872103E-16));
#1214=DIRECTION($,(2.6645352591E-14,1.04177267294928E-13,1.));
#1215=DIRECTION($,(-6.12323399573677E-17,-1.,-1.83697019872103E-16));
#1216=DIRECTION('center_axis',(3.54987407349455E-30,-1.83697019872103E-16,
1.));
#1217=DIRECTION('ref_axis',(-1.,0.,0.));
#1218=DIRECTION('center_axis',(2.46519032881566E-32,-1.83697019872103E-16,
1.));
#1219=DIRECTION('ref_axis',(-0.979166666666659,0.203058215516892,3.73011890510002E-17));
#1220=DIRECTION('center_axis',(1.22464679914735E-16,1.,1.83697019872103E-16));
#1221=DIRECTION('ref_axis',(-2.22044604925031E-16,0.,1.));
#1222=DIRECTION($,(-1.848521336001E-13,3.09025476696279E-14,1.));
#1223=DIRECTION($,(-1.,6.12323399573676E-17,2.46519032881566E-32));
#1224=DIRECTION($,(-1.221245327088E-13,-1.83697019872095E-16,1.));
#1225=DIRECTION($,(1.,-1.22464679914735E-16,1.83697019872103E-16));
#1226=DIRECTION('center_axis',(1.83697019872103E-16,3.67394039744209E-16,
-1.));
#1227=DIRECTION('ref_axis',(2.22044604925031E-16,1.,3.60822483003176E-16));
#1228=DIRECTION('center_axis',(2.46519032881566E-32,-1.83697019872103E-16,
1.));
#1229=DIRECTION('ref_axis',(6.12323399573677E-17,1.,1.83697019872103E-16));
#1230=DIRECTION('center_axis',(1.22464679914735E-16,1.,1.83697019872103E-16));
#1231=DIRECTION('ref_axis',(-2.22044604925031E-16,0.,1.));
#1232=DIRECTION($,(-1.271205363196E-13,-1.83697019872095E-16,1.));
#1233=DIRECTION($,(1.,-1.22464679914735E-16,1.83697019872103E-16));
#1234=DIRECTION($,(-1.887379141863E-13,3.09025476696279E-14,1.));
#1235=DIRECTION($,(1.,-6.12323399573676E-17,-2.46519032881566E-32));
#1236=DIRECTION('center_axis',(-1.83697019872103E-16,3.53647036857636E-30,
1.));
#1237=DIRECTION('ref_axis',(-2.22044604925031E-16,-1.,0.));
#1238=DIRECTION('center_axis',(2.46519032881566E-32,-1.83697019872103E-16,
1.));
#1239=DIRECTION('ref_axis',(-6.12323399573677E-17,-1.,-1.83697019872103E-16));
#1240=DIRECTION('center_axis',(2.46519032881566E-32,-1.83697019872103E-16,
1.));
#1241=DIRECTION('ref_axis',(6.12323399573677E-17,1.,2.22044604925031E-16));
#1242=DIRECTION('center_axis',(2.46519032881566E-32,-1.83697019872103E-16,
1.));
#1243=DIRECTION('ref_axis',(6.12323399573677E-17,1.,1.83697019872103E-16));
#1244=DIRECTION('center_axis',(2.46519032881566E-32,-1.83697019872103E-16,
1.));
#1245=DIRECTION('ref_axis',(6.12323399573677E-17,1.,1.83697019872103E-16));
#1246=DIRECTION('center_axis',(2.46519032881566E-32,-1.83697019872103E-16,
1.));
#1247=DIRECTION('ref_axis',(-0.203058215516796,0.979166666666679,1.7986999862477E-16));
#1248=DIRECTION('center_axis',(2.46519032881566E-32,-1.83697019872103E-16,
1.));
#1249=DIRECTION('ref_axis',(-0.979166666666659,-0.203058215516891,-3.73011890510002E-17));
#1250=DIRECTION('center_axis',(2.46519032881566E-32,-1.83697019872103E-16,
1.));
#1251=DIRECTION('ref_axis',(0.203058215516891,-0.979166666666659,-1.79869998624766E-16));
#1252=DIRECTION('center_axis',(2.46519032881566E-32,-1.83697019872103E-16,
1.));
#1253=DIRECTION('ref_axis',(0.979166666666679,0.203058215516796,3.73011890509825E-17));
#1254=DIRECTION('center_axis',(2.46519032881566E-32,-1.83697019872103E-16,
1.));
#1255=DIRECTION('ref_axis',(-1.,6.12323399573676E-17,0.));
#1256=CARTESIAN_POINT('',(0.,0.,0.));
#1257=CARTESIAN_POINT('Origin',(-2.35,1.1,0.0999999999999998));
#1258=CARTESIAN_POINT('',(-2.35,1.1,0.0999999999999998));
#1259=CARTESIAN_POINT('',(-2.35,1.1,0.2));
#1260=CARTESIAN_POINT($,(-2.35,1.1,0.0999999999999998));
#1261=CARTESIAN_POINT('',(-2.35,-1.1,0.199999999999999));
#1262=CARTESIAN_POINT($,(-2.35,1.1,0.2));
#1263=CARTESIAN_POINT('',(-2.35,-1.1,0.0999999999999994));
#1264=CARTESIAN_POINT($,(-2.35,-1.1,0.0999999999999994));
#1265=CARTESIAN_POINT($,(-2.35,1.1,0.0999999999999998));
#1266=CARTESIAN_POINT('Origin',(-2.45,1.1,-2.4980018054066E-16));
#1267=CARTESIAN_POINT('',(-2.45,1.1,-2.4980018054066E-16));
#1268=CARTESIAN_POINT($,(-2.45,1.1,-2.4980018054066E-16));
#1269=CARTESIAN_POINT('',(-2.45,-1.1,-6.38378239159465E-16));
#1270=CARTESIAN_POINT($,(-2.45,-1.1,-6.38378239159465E-16));
#1271=CARTESIAN_POINT($,(-2.45,1.1,-2.4980018054066E-16));
#1272=CARTESIAN_POINT('Origin',(-3.,1.1,-2.22044604925031E-16));
#1273=CARTESIAN_POINT('',(-3.,1.1,-2.4980018054066E-16));
#1274=CARTESIAN_POINT($,(-3.,1.1,-2.22044604925031E-16));
#1275=CARTESIAN_POINT('',(-3.,-1.1,-6.66133814775094E-16));
#1276=CARTESIAN_POINT($,(-3.,-1.1,-6.38378239159465E-16));
#1277=CARTESIAN_POINT($,(-3.,1.1,-2.4980018054066E-16));
#1278=CARTESIAN_POINT('Origin',(-3.1,1.1,0.0999999999999998));
#1279=CARTESIAN_POINT('',(-3.1,1.1,0.0999999999999998));
#1280=CARTESIAN_POINT($,(-3.1,1.1,0.0999999999999998));
#1281=CARTESIAN_POINT('',(-3.1,-1.1,0.0999999999999994));
#1282=CARTESIAN_POINT($,(-3.1,-1.1,0.0999999999999994));
#1283=CARTESIAN_POINT($,(-3.1,1.1,0.0999999999999998));
#1284=CARTESIAN_POINT('Origin',(-3.1,1.1,0.2));
#1285=CARTESIAN_POINT('',(-3.1,1.1,0.2));
#1286=CARTESIAN_POINT($,(-3.1,1.1,0.2));
#1287=CARTESIAN_POINT('',(-3.1,-1.1,0.199999999999999));
#1288=CARTESIAN_POINT($,(-3.1,-1.1,0.199999999999999));
#1289=CARTESIAN_POINT($,(-3.1,1.1,0.2));
#1290=CARTESIAN_POINT('Origin',(-2.35,1.1,0.2));
#1291=CARTESIAN_POINT($,(-2.35,1.1,0.2));
#1292=CARTESIAN_POINT($,(-2.35,-1.1,0.199999999999999));
#1293=CARTESIAN_POINT('Origin',(-2.725,-1.1,0.108894707460905));
#1294=CARTESIAN_POINT('Origin',(-2.725,1.1,0.108894707460905));
#1295=CARTESIAN_POINT('Origin',(2.35,1.1,0.100000000000001));
#1296=CARTESIAN_POINT('',(2.35,1.1,0.100000000000001));
#1297=CARTESIAN_POINT('',(2.35,1.1,0.200000000000001));
#1298=CARTESIAN_POINT($,(2.35,1.1,0.100000000000001));
#1299=CARTESIAN_POINT('',(2.35,-1.1,0.1));
#1300=CARTESIAN_POINT($,(2.35,1.1,0.100000000000001));
#1301=CARTESIAN_POINT('',(2.35,-1.1,0.2));
#1302=CARTESIAN_POINT($,(2.35,-1.1,0.1));
#1303=CARTESIAN_POINT($,(2.35,1.1,0.200000000000001));
#1304=CARTESIAN_POINT('Origin',(2.45,1.1,6.38378239159465E-16));
#1305=CARTESIAN_POINT('',(2.45,1.1,6.38378239159465E-16));
#1306=CARTESIAN_POINT($,(2.45,1.1,6.38378239159465E-16));
#1307=CARTESIAN_POINT('',(2.45,-1.1,2.4980018054066E-16));
#1308=CARTESIAN_POINT($,(2.45,1.1,6.38378239159465E-16));
#1309=CARTESIAN_POINT($,(2.45,-1.1,2.4980018054066E-16));
#1310=CARTESIAN_POINT('Origin',(3.,1.1,8.60422844084496E-16));
#1311=CARTESIAN_POINT('',(3.,1.1,8.32667268468867E-16));
#1312=CARTESIAN_POINT($,(3.,1.1,8.60422844084496E-16));
#1313=CARTESIAN_POINT('',(3.,-1.1,4.16333634234434E-16));
#1314=CARTESIAN_POINT($,(3.,1.1,8.32667268468867E-16));
#1315=CARTESIAN_POINT($,(3.,-1.1,4.44089209850063E-16));
#1316=CARTESIAN_POINT('Origin',(3.1,1.1,0.100000000000001));
#1317=CARTESIAN_POINT('',(3.1,1.1,0.100000000000001));
#1318=CARTESIAN_POINT($,(3.1,1.1,0.100000000000001));
#1319=CARTESIAN_POINT('',(3.1,-1.1,0.100000000000001));
#1320=CARTESIAN_POINT($,(3.1,1.1,0.100000000000001));
#1321=CARTESIAN_POINT($,(3.1,-1.1,0.100000000000001));
#1322=CARTESIAN_POINT('Origin',(3.1,1.1,0.200000000000001));
#1323=CARTESIAN_POINT('',(3.1,1.1,0.200000000000001));
#1324=CARTESIAN_POINT($,(3.1,1.1,0.200000000000001));
#1325=CARTESIAN_POINT('',(3.1,-1.1,0.200000000000001));
#1326=CARTESIAN_POINT($,(3.1,1.1,0.200000000000001));
#1327=CARTESIAN_POINT($,(3.1,-1.1,0.200000000000001));
#1328=CARTESIAN_POINT('Origin',(2.35,1.1,0.200000000000001));
#1329=CARTESIAN_POINT($,(2.35,1.1,0.200000000000001));
#1330=CARTESIAN_POINT($,(2.35,-1.1,0.2));
#1331=CARTESIAN_POINT('Origin',(2.725,-1.1,0.108894707460906));
#1332=CARTESIAN_POINT('Origin',(2.725,1.1,0.108894707460906));
#1333=CARTESIAN_POINT('Origin',(-1.1,-2.35,0.0999999999999994));
#1334=CARTESIAN_POINT('',(-1.1,-2.35,0.0999999999999994));
#1335=CARTESIAN_POINT('',(-1.1,-2.35,0.199999999999999));
#1336=CARTESIAN_POINT($,(-1.1,-2.35,0.0999999999999994));
#1337=CARTESIAN_POINT('',(1.1,-2.35,0.2));
#1338=CARTESIAN_POINT($,(-1.1,-2.35,0.199999999999999));
#1339=CARTESIAN_POINT('',(1.1,-2.35,0.0999999999999998));
#1340=CARTESIAN_POINT($,(1.1,-2.35,0.0999999999999998));
#1341=CARTESIAN_POINT($,(-1.1,-2.35,0.0999999999999994));
#1342=CARTESIAN_POINT('Origin',(-1.1,-2.45,-6.38378239159465E-16));
#1343=CARTESIAN_POINT('',(-1.1,-2.45,-6.38378239159465E-16));
#1344=CARTESIAN_POINT($,(-1.1,-2.45,-6.38378239159465E-16));
#1345=CARTESIAN_POINT('',(1.1,-2.45,-2.4980018054066E-16));
#1346=CARTESIAN_POINT($,(1.1,-2.45,-2.4980018054066E-16));
#1347=CARTESIAN_POINT($,(-1.1,-2.45,-6.38378239159465E-16));
#1348=CARTESIAN_POINT('Origin',(-1.1,-3.,-6.38378239159465E-16));
#1349=CARTESIAN_POINT('',(-1.1,-3.,-6.66133814775094E-16));
#1350=CARTESIAN_POINT($,(-1.1,-3.,-6.38378239159465E-16));
#1351=CARTESIAN_POINT('',(1.1,-3.,-2.4980018054066E-16));
#1352=CARTESIAN_POINT($,(1.1,-3.,-2.22044604925031E-16));
#1353=CARTESIAN_POINT($,(-1.1,-3.,-6.66133814775094E-16));
#1354=CARTESIAN_POINT('Origin',(-1.1,-3.10000000000001,0.0999999999999994));
#1355=CARTESIAN_POINT('',(-1.1,-3.10000000000001,0.0999999999999994));
#1356=CARTESIAN_POINT($,(-1.1,-3.10000000000001,0.0999999999999994));
#1357=CARTESIAN_POINT('',(1.1,-3.10000000000001,0.0999999999999998));
#1358=CARTESIAN_POINT($,(1.1,-3.10000000000001,0.0999999999999998));
#1359=CARTESIAN_POINT($,(-1.1,-3.10000000000001,0.0999999999999994));
#1360=CARTESIAN_POINT('Origin',(-1.1,-3.10000000000001,0.199999999999999));
#1361=CARTESIAN_POINT('',(-1.1,-3.10000000000001,0.199999999999999));
#1362=CARTESIAN_POINT($,(-1.1,-3.10000000000001,0.199999999999999));
#1363=CARTESIAN_POINT('',(1.1,-3.10000000000001,0.2));
#1364=CARTESIAN_POINT($,(1.1,-3.10000000000001,0.2));
#1365=CARTESIAN_POINT($,(-1.1,-3.10000000000001,0.199999999999999));
#1366=CARTESIAN_POINT('Origin',(-1.1,-2.35,0.199999999999999));
#1367=CARTESIAN_POINT($,(-1.1,-2.35,0.199999999999999));
#1368=CARTESIAN_POINT($,(1.1,-2.35,0.2));
#1369=CARTESIAN_POINT('Origin',(1.1,-2.72500000000001,0.108894707460905));
#1370=CARTESIAN_POINT('Origin',(-1.1,-2.72500000000001,0.108894707460905));
#1371=CARTESIAN_POINT('Origin',(-1.1,2.35,0.1));
#1372=CARTESIAN_POINT('',(-1.1,2.35,0.1));
#1373=CARTESIAN_POINT('',(-1.1,2.35,0.2));
#1374=CARTESIAN_POINT($,(-1.1,2.35,0.1));
#1375=CARTESIAN_POINT('',(1.1,2.35,0.100000000000001));
#1376=CARTESIAN_POINT($,(-1.1,2.35,0.1));
#1377=CARTESIAN_POINT('',(1.1,2.35,0.200000000000001));
#1378=CARTESIAN_POINT($,(1.1,2.35,0.100000000000001));
#1379=CARTESIAN_POINT($,(-1.1,2.35,0.2));
#1380=CARTESIAN_POINT('Origin',(-1.1,2.45,2.4980018054066E-16));
#1381=CARTESIAN_POINT('',(-1.1,2.45,2.4980018054066E-16));
#1382=CARTESIAN_POINT($,(-1.1,2.45,2.4980018054066E-16));
#1383=CARTESIAN_POINT('',(1.1,2.45,6.38378239159465E-16));
#1384=CARTESIAN_POINT($,(-1.1,2.45,2.4980018054066E-16));
#1385=CARTESIAN_POINT($,(1.1,2.45,6.38378239159465E-16));
#1386=CARTESIAN_POINT('Origin',(-1.1,3.,4.44089209850063E-16));
#1387=CARTESIAN_POINT('',(-1.1,3.,4.16333634234434E-16));
#1388=CARTESIAN_POINT($,(-1.1,3.,4.44089209850063E-16));
#1389=CARTESIAN_POINT('',(1.1,3.,8.32667268468867E-16));
#1390=CARTESIAN_POINT($,(-1.1,3.,4.16333634234434E-16));
#1391=CARTESIAN_POINT($,(1.1,3.,8.60422844084496E-16));
#1392=CARTESIAN_POINT('Origin',(-1.1,3.1,0.100000000000001));
#1393=CARTESIAN_POINT('',(-1.1,3.1,0.100000000000001));
#1394=CARTESIAN_POINT($,(-1.1,3.1,0.100000000000001));
#1395=CARTESIAN_POINT('',(1.1,3.1,0.100000000000001));
#1396=CARTESIAN_POINT($,(-1.1,3.1,0.100000000000001));
#1397=CARTESIAN_POINT($,(1.1,3.1,0.100000000000001));
#1398=CARTESIAN_POINT('Origin',(-1.1,3.1,0.200000000000001));
#1399=CARTESIAN_POINT('',(-1.1,3.1,0.200000000000001));
#1400=CARTESIAN_POINT($,(-1.1,3.1,0.200000000000001));
#1401=CARTESIAN_POINT('',(1.1,3.1,0.200000000000001));
#1402=CARTESIAN_POINT($,(-1.1,3.1,0.200000000000001));
#1403=CARTESIAN_POINT($,(1.1,3.1,0.200000000000001));
#1404=CARTESIAN_POINT('Origin',(-1.1,2.35,0.2));
#1405=CARTESIAN_POINT($,(-1.1,2.35,0.2));
#1406=CARTESIAN_POINT($,(1.1,2.35,0.200000000000001));
#1407=CARTESIAN_POINT('Origin',(1.1,2.725,0.108894707460906));
#1408=CARTESIAN_POINT('Origin',(-1.1,2.725,0.108894707460906));
#1409=CARTESIAN_POINT('Origin',(-1.496194077713,3.1,0.2));
#1410=CARTESIAN_POINT('',(-1.496194077713,3.1,0.2));
#1411=CARTESIAN_POINT('',(-3.25,1.346194077713,0.2));
#1412=CARTESIAN_POINT($,(-1.496194077713,3.1,0.2));
#1413=CARTESIAN_POINT('',(-3.25,1.346194077713,1.6));
#1414=CARTESIAN_POINT($,(-3.25,1.346194077713,0.2));
#1415=CARTESIAN_POINT('',(-1.496194077713,3.1,1.6));
#1416=CARTESIAN_POINT($,(-1.496194077713,3.1,1.6));
#1417=CARTESIAN_POINT($,(-1.496194077713,3.1,0.2));
#1418=CARTESIAN_POINT('Origin',(-3.25,1.346194077713,0.2));
#1419=CARTESIAN_POINT('',(-3.25,-1.346194077713,0.199999999999999));
#1420=CARTESIAN_POINT($,(-3.25,1.346194077713,0.2));
#1421=CARTESIAN_POINT('',(-3.25,-1.346194077713,1.6));
#1422=CARTESIAN_POINT($,(-3.25,-1.346194077713,0.199999999999999));
#1423=CARTESIAN_POINT($,(-3.25,1.346194077713,1.6));
#1424=CARTESIAN_POINT('Origin',(-3.25,-1.346194077713,0.199999999999999));
#1425=CARTESIAN_POINT('',(-1.496194077713,-3.1,0.199999999999999));
#1426=CARTESIAN_POINT($,(-3.25,-1.346194077713,0.199999999999999));
#1427=CARTESIAN_POINT('',(-1.496194077713,-3.1,1.6));
#1428=CARTESIAN_POINT($,(-1.496194077713,-3.1,0.199999999999999));
#1429=CARTESIAN_POINT($,(-3.25,-1.346194077713,1.6));
#1430=CARTESIAN_POINT('Origin',(-1.496194077713,-3.1,0.199999999999999));
#1431=CARTESIAN_POINT('',(1.496194077713,-3.1,0.199999999999999));
#1432=CARTESIAN_POINT($,(1.1,-3.1,0.199999999999999));
#1433=CARTESIAN_POINT('',(1.496194077713,-3.1,1.6));
#1434=CARTESIAN_POINT($,(1.496194077713,-3.1,0.199999999999999));
#1435=CARTESIAN_POINT($,(-1.496194077713,-3.1,1.6));
#1436=CARTESIAN_POINT('Origin',(1.496194077713,-3.1,0.199999999999999));
#1437=CARTESIAN_POINT('',(3.25,-1.346194077713,0.199999999999999));
#1438=CARTESIAN_POINT($,(1.496194077713,-3.1,0.199999999999999));
#1439=CARTESIAN_POINT('',(3.25,-1.346194077713,1.6));
#1440=CARTESIAN_POINT($,(3.25,-1.346194077713,0.199999999999999));
#1441=CARTESIAN_POINT($,(1.496194077713,-3.1,1.6));
#1442=CARTESIAN_POINT('Origin',(3.25,-1.346194077713,0.199999999999999));
#1443=CARTESIAN_POINT('',(3.25,1.346194077713,0.2));
#1444=CARTESIAN_POINT($,(3.25,-1.346194077713,0.199999999999999));
#1445=CARTESIAN_POINT('',(3.25,1.346194077713,1.6));
#1446=CARTESIAN_POINT($,(3.25,1.346194077713,0.2));
#1447=CARTESIAN_POINT($,(3.25,-1.346194077713,1.6));
#1448=CARTESIAN_POINT('Origin',(3.25,1.346194077713,0.2));
#1449=CARTESIAN_POINT('',(1.496194077713,3.1,0.2));
#1450=CARTESIAN_POINT($,(3.25,1.346194077713,0.2));
#1451=CARTESIAN_POINT('',(1.496194077713,3.1,1.6));
#1452=CARTESIAN_POINT($,(1.496194077713,3.1,0.2));
#1453=CARTESIAN_POINT($,(3.25,1.346194077713,1.6));
#1454=CARTESIAN_POINT('Origin',(4.44089209850063E-16,-4.93038065763132E-32,
0.2));
#1455=CARTESIAN_POINT($,(0.1980970388565,3.1,0.200000000000001));
#1456=CARTESIAN_POINT('',(0.692820323027601,2.35,0.2));
#1457=CARTESIAN_POINT('Origin',(4.44089209850063E-16,-4.93038065763132E-32,
0.2));
#1458=CARTESIAN_POINT('Origin',(4.44089209850063E-16,-4.93038065763132E-32,
0.2));
#1459=CARTESIAN_POINT('',(5.57369038771193E-16,2.45,1.6));
#1460=CARTESIAN_POINT('Origin',(4.07349805875642E-16,-2.57175827820944E-16,
1.6));
#1461=CARTESIAN_POINT('Origin',(4.07349805875642E-16,-2.57175827820944E-16,
1.6));
#1462=CARTESIAN_POINT($,(1.496194077713,3.1,1.6));
#1463=CARTESIAN_POINT('Origin',(1.496194077713,3.1,0.2));
#1464=CARTESIAN_POINT('Origin',(2.35,1.1,0.100000000000001));
#1465=CARTESIAN_POINT('',(2.35,0.4873397172404,0.0999999999999997));
#1466=CARTESIAN_POINT('',(2.35,0.4873397172405,0.2));
#1467=CARTESIAN_POINT($,(2.35,0.4873397172404,0.0999999999999997));
#1468=CARTESIAN_POINT('',(2.35,-0.4873397172404,0.2));
#1469=CARTESIAN_POINT($,(2.35,1.1,0.200000000000001));
#1470=CARTESIAN_POINT('',(2.35,-0.4873397172404,0.0999999999999995));
#1471=CARTESIAN_POINT($,(2.35,-0.4873397172404,0.0999999999999995));
#1472=CARTESIAN_POINT($,(2.35,-0.4873397172404,0.0999999999999995));
#1473=CARTESIAN_POINT('Origin',(2.35,1.1,0.200000000000001));
#1474=CARTESIAN_POINT('Origin',(4.44089209850063E-16,-4.93038065763132E-32,
0.2));
#1475=CARTESIAN_POINT('Origin',(-2.35,1.1,0.0999999999999998));
#1476=CARTESIAN_POINT('',(-2.35,-0.4873397172405,0.0999999999999995));
#1477=CARTESIAN_POINT('',(-2.35,-0.4873397172404,0.2));
#1478=CARTESIAN_POINT($,(-2.35,-0.4873397172405,0.0999999999999995));
#1479=CARTESIAN_POINT('',(-2.35,0.4873397172405,0.2));
#1480=CARTESIAN_POINT($,(-2.35,1.1,0.2));
#1481=CARTESIAN_POINT('',(-2.35,0.4873397172405,0.0999999999999997));
#1482=CARTESIAN_POINT($,(-2.35,0.4873397172405,0.0999999999999997));
#1483=CARTESIAN_POINT($,(-2.35,0.4873397172405,0.0999999999999997));
#1484=CARTESIAN_POINT('Origin',(-2.35,1.1,0.2));
#1485=CARTESIAN_POINT('Origin',(4.44089209850063E-16,-4.93038065763132E-32,
0.2));
#1486=CARTESIAN_POINT('Origin',(-1.1,2.35,0.1));
#1487=CARTESIAN_POINT('',(0.487339717240401,2.35,0.1));
#1488=CARTESIAN_POINT('',(0.487339717240401,2.35,0.2));
#1489=CARTESIAN_POINT($,(0.487339717240401,2.35,0.1));
#1490=CARTESIAN_POINT('',(-0.487339717240399,2.35,0.1));
#1491=CARTESIAN_POINT($,(0.487339717240401,2.35,0.1));
#1492=CARTESIAN_POINT('',(-0.487339717240399,2.35,0.2));
#1493=CARTESIAN_POINT($,(-0.487339717240399,2.35,0.1));
#1494=CARTESIAN_POINT($,(-1.1,2.35,0.2));
#1495=CARTESIAN_POINT('Origin',(-1.1,2.35,0.2));
#1496=CARTESIAN_POINT('Origin',(4.44089209850063E-16,-4.93038065763132E-32,
0.2));
#1497=CARTESIAN_POINT('Origin',(-1.1,-2.35,0.0999999999999994));
#1498=CARTESIAN_POINT('',(0.4873397172405,-2.35,0.0999999999999992));
#1499=CARTESIAN_POINT('',(0.4873397172405,-2.35,0.199999999999999));
#1500=CARTESIAN_POINT($,(0.4873397172405,-2.35,0.0999999999999992));
#1501=CARTESIAN_POINT('',(-0.4873397172405,-2.35,0.199999999999999));
#1502=CARTESIAN_POINT($,(-1.1,-2.35,0.199999999999999));
#1503=CARTESIAN_POINT('',(-0.4873397172405,-2.35,0.0999999999999992));
#1504=CARTESIAN_POINT($,(-0.4873397172405,-2.35,0.0999999999999992));
#1505=CARTESIAN_POINT($,(-0.4873397172405,-2.35,0.0999999999999992));
#1506=CARTESIAN_POINT('Origin',(-1.1,-2.35,0.199999999999999));
#1507=CARTESIAN_POINT('Origin',(4.44089209850063E-16,-4.93038065763132E-32,
0.2));
#1508=CARTESIAN_POINT('Origin',(4.44089209850063E-16,-2.20436423846524E-16,
1.4));
#1509=CARTESIAN_POINT('',(5.91046825747745E-16,2.4,1.4));
#1510=CARTESIAN_POINT('Origin',(4.44089209850063E-16,-2.20436423846524E-16,
1.4));
#1511=CARTESIAN_POINT('Origin',(4.44089209850063E-16,-4.93038065763132E-32,
0.2));
#1512=CARTESIAN_POINT('Origin',(4.44089209850063E-16,1.83697019872103E-17,
0.0999999999999996));
#1513=CARTESIAN_POINT('Origin',(4.44089209850063E-16,1.83697019872103E-17,
0.0999999999999996));
#1514=CARTESIAN_POINT('Origin',(4.44089209850063E-16,1.83697019872103E-17,
0.0999999999999996));
#1515=CARTESIAN_POINT('Origin',(4.44089209850063E-16,1.83697019872103E-17,
0.0999999999999996));
#1516=CARTESIAN_POINT('Origin',(4.44089209850063E-16,1.83697019872103E-17,
0.0999999999999996));
#1517=UNCERTAINTY_MEASURE_WITH_UNIT(LENGTH_MEASURE(0.01),#1521,
'DISTANCE_ACCURACY_VALUE',
'Maximum model space distance between geometric entities at asserted c
onnectivities');
#1518=UNCERTAINTY_MEASURE_WITH_UNIT(LENGTH_MEASURE(1.E-6),#1521,
'DISTANCE_ACCURACY_VALUE',
'Maximum model space distance between geometric entities at asserted c
onnectivities');
#1519=(
GEOMETRIC_REPRESENTATION_CONTEXT(3)
GLOBAL_UNCERTAINTY_ASSIGNED_CONTEXT((#1517))
GLOBAL_UNIT_ASSIGNED_CONTEXT((#1521,#1523,#1522))
REPRESENTATION_CONTEXT('','3D')
);
#1520=(
GEOMETRIC_REPRESENTATION_CONTEXT(3)
GLOBAL_UNCERTAINTY_ASSIGNED_CONTEXT((#1518))
GLOBAL_UNIT_ASSIGNED_CONTEXT((#1521,#12,#1522))
REPRESENTATION_CONTEXT('','3D')
);
#1521=(
LENGTH_UNIT()
NAMED_UNIT(*)
SI_UNIT(.MILLI.,.METRE.)
);
#1522=(
NAMED_UNIT(*)
SI_UNIT($,.STERADIAN.)
SOLID_ANGLE_UNIT()
);
#1523=(
NAMED_UNIT(*)
PLANE_ANGLE_UNIT()
SI_UNIT($,.RADIAN.)
);
#1524=SHAPE_DEFINITION_REPRESENTATION(#1525,#1526);
#1525=PRODUCT_DEFINITION_SHAPE('',$,#1528);
#1526=SHAPE_REPRESENTATION('',(#946),#1519);
#1527=PRODUCT_DEFINITION_CONTEXT('part definition',#1532,'design');
#1528=PRODUCT_DEFINITION('Product','Product',#1529,#1527);
#1529=PRODUCT_DEFINITION_FORMATION('',$,#1534);
#1530=PRODUCT_RELATED_PRODUCT_CATEGORY('Product','Product',(#1534));
#1531=APPLICATION_PROTOCOL_DEFINITION('international standard',
'automotive_design',2009,#1532);
#1532=APPLICATION_CONTEXT(
'Core Data for Automotive Mechanical Design Process');
#1533=PRODUCT_CONTEXT('part definition',#1532,'mechanical');
#1534=PRODUCT('Product','Product',$,(#1533));
#1535=PRESENTATION_STYLE_ASSIGNMENT((#1538));
#1536=PRESENTATION_STYLE_ASSIGNMENT((#1539));
#1537=PRESENTATION_STYLE_ASSIGNMENT((#1540));
#1538=SURFACE_STYLE_USAGE(.BOTH.,#1541);
#1539=SURFACE_STYLE_USAGE(.BOTH.,#1542);
#1540=SURFACE_STYLE_USAGE(.BOTH.,#1543);
#1541=SURFACE_SIDE_STYLE($,(#1544));
#1542=SURFACE_SIDE_STYLE($,(#1545));
#1543=SURFACE_SIDE_STYLE($,(#1546));
#1544=SURFACE_STYLE_FILL_AREA(#1547);
#1545=SURFACE_STYLE_FILL_AREA(#1548);
#1546=SURFACE_STYLE_FILL_AREA(#1549);
#1547=FILL_AREA_STYLE($,(#1550));
#1548=FILL_AREA_STYLE($,(#1551));
#1549=FILL_AREA_STYLE($,(#1552));
#1550=FILL_AREA_STYLE_COLOUR($,#1553);
#1551=FILL_AREA_STYLE_COLOUR($,#1554);
#1552=FILL_AREA_STYLE_COLOUR($,#1555);
#1553=COLOUR_RGB('',1.,1.,1.);
#1554=COLOUR_RGB('',0.866666666666667,0.866666666666667,0.866666666666667);
#1555=COLOUR_RGB('',0.329411764705882,0.329411764705882,0.329411764705882);
ENDSEC;
END-ISO-10303-21;
