ISO-10303-21;
HEADER;
/****************************************************************
 * Generated by software with PDE/Lib inside                    *
 * PDE/Lib Version 3.2.2, created Thu Mar 23, 2000 at 18:38:49  *
 * International Technegroup Inc. (www.iti-oh.com)              *
 ****************************************************************/
FILE_DESCRIPTION((''),'2;1');
FILE_NAME('IND_EPCOS_B82464-G4.stp','2009-07-08T16:31:06',(''),(''),'Mechanical Desktop 2006','Mechanical Desktop 2006',', , ');
FILE_SCHEMA(('AUTOMOTIVE_DESIGN { 1 2 10303 214 0 1 1 1 }'));
ENDSEC;
DATA;
#8=(NAMED_UNIT(*)PLANE_ANGLE_UNIT()SI_UNIT($,.RADIAN.));
#9=DIMENSIONAL_EXPONENTS(0.0,0.0,0.0,0.0,0.0,0.0,0.0);
#10=PLANE_ANGLE_MEASURE_WITH_UNIT(PLANE_ANGLE_MEASURE(0.017453292500000),#8);
#14=(CONVERSION_BASED_UNIT('DEGREE',#10)NAMED_UNIT(#9)PLANE_ANGLE_UNIT());
#18=(NAMED_UNIT(*)SI_UNIT($,.STERADIAN.)SOLID_ANGLE_UNIT());
#22=(LENGTH_UNIT()NAMED_UNIT(*)SI_UNIT(.MILLI.,.METRE.));
#23=UNCERTAINTY_MEASURE_WITH_UNIT(LENGTH_MEASURE(0.000001000000000),#22,'DISTANCE_ACCURACY_VALUE','');
#28=(GEOMETRIC_REPRESENTATION_CONTEXT(3)GLOBAL_UNCERTAINTY_ASSIGNED_CONTEXT((#23))GLOBAL_UNIT_ASSIGNED_CONTEXT((#14,#18,#22))REPRESENTATION_CONTEXT('None','None'));
#29=APPLICATION_CONTEXT('automotive design');
#30=APPLICATION_PROTOCOL_DEFINITION('DRAFT_INTERNATIONAL_STANDARD','automotive_design',1998,#29);
#31=PRODUCT_CONTEXT('3D Mechanical Parts',#29,'mechanical');
#32=PRODUCT('Product','Product','',(#31));
#33=PRODUCT_RELATED_PRODUCT_CATEGORY('part',$,(#32));
#34=PRODUCT_CATEGORY('part',$);
#35=PERSON('1','Design','Joe',$,$,$);
#36=ORGANIZATION($,'None','None');
#37=PERSON_AND_ORGANIZATION(#35,#36);
#38=PERSON_AND_ORGANIZATION_ROLE('design_owner');
#39=APPLIED_PERSON_AND_ORGANIZATION_ASSIGNMENT(#37,#38,(#32));
#40=PRODUCT_DEFINITION_FORMATION_WITH_SPECIFIED_SOURCE('None','',#32,.BOUGHT.);
#41=PERSON('2','Creator','Joe',$,$,$);
#42=ORGANIZATION($,'None','None');
#43=PERSON_AND_ORGANIZATION(#41,#42);
#44=PERSON_AND_ORGANIZATION_ROLE('creator');
#45=APPLIED_PERSON_AND_ORGANIZATION_ASSIGNMENT(#43,#44,(#40));
#46=PERSON('3','Supplier','Joe',$,$,$);
#47=ORGANIZATION($,'None','None');
#48=PERSON_AND_ORGANIZATION(#46,#47);
#49=PERSON_AND_ORGANIZATION_ROLE('design_supplier');
#50=APPLIED_PERSON_AND_ORGANIZATION_ASSIGNMENT(#48,#49,(#40));
#51=PRODUCT_DEFINITION_CONTEXT('part definition',#29,'design');
#52=PRODUCT_DEFINITION('None','',#40,#51);
#53=PERSON('4','Creator','Joe',$,$,$);
#54=ORGANIZATION($,'None','None');
#55=PERSON_AND_ORGANIZATION(#53,#54);
#56=PERSON_AND_ORGANIZATION_ROLE('creator');
#57=APPLIED_PERSON_AND_ORGANIZATION_ASSIGNMENT(#55,#56,(#52));
#58=CARTESIAN_POINT('NONE',(0.0,0.0,0.0));
#59=DIRECTION('NONE',(0.0,0.0,1.0));
#60=DIRECTION('NONE',(1.0,0.0,0.0));
#61=AXIS2_PLACEMENT_3D('NONE',#58,#59,#60);
#62=SHAPE_REPRESENTATION('SR1',(#61),#28);
#63=PRODUCT_DEFINITION_SHAPE('PDS1','Test Part',#52);
#64=SHAPE_DEFINITION_REPRESENTATION(#63,#62);
#65=CARTESIAN_POINT('',(4.440892E-016,-6.661338E-016,4.900000000000000));
#66=DIRECTION('',(0.0,0.0,-1.0));
#67=DIRECTION('',(1.0,0.0,0.0));
#68=AXIS2_PLACEMENT_3D('',#65,#66,#67);
#69=CYLINDRICAL_SURFACE('',#68,3.796805104498703);
#70=CARTESIAN_POINT('',(3.796805104498704,-6.661338E-016,4.900000000000000));
#71=VERTEX_POINT('',#70);
#72=CARTESIAN_POINT('',(3.796805104498704,-6.661338E-016,4.700000000000000));
#73=VERTEX_POINT('',#72);
#74=CARTESIAN_POINT('',(3.796805104498704,-6.661338E-016,4.900000000000000));
#75=DIRECTION('',(0.0,0.0,-1.0));
#76=VECTOR('',#75,0.200000000000000);
#77=LINE('',#74,#76);
#78=EDGE_CURVE('',#71,#73,#77,.T.);
#79=ORIENTED_EDGE('',*,*,#78,.F.);
#80=CARTESIAN_POINT('',(-3.796805104498703,-1.131093E-015,4.900000000000000));
#81=VERTEX_POINT('',#80);
#82=CARTESIAN_POINT('',(4.440892E-016,-6.661338E-016,4.900000000000000));
#83=DIRECTION('',(0.0,0.0,1.0));
#84=DIRECTION('',(1.0,0.0,0.0));
#85=AXIS2_PLACEMENT_3D('',#82,#83,#84);
#86=CIRCLE('',#85,3.796805104498703);
#87=EDGE_CURVE('',#81,#71,#86,.T.);
#88=ORIENTED_EDGE('',*,*,#87,.F.);
#89=CARTESIAN_POINT('',(-3.796805104498703,-1.131093E-015,4.699999999999999));
#90=VERTEX_POINT('',#89);
#91=CARTESIAN_POINT('',(-3.796805104498703,-1.131093E-015,4.699999999999999));
#92=DIRECTION('',(0.0,0.0,1.0));
#93=VECTOR('',#92,0.200000000000001);
#94=LINE('',#91,#93);
#95=EDGE_CURVE('',#90,#81,#94,.T.);
#96=ORIENTED_EDGE('',*,*,#95,.F.);
#97=CARTESIAN_POINT('',(4.440892E-016,-6.661338E-016,4.700000000000000));
#98=DIRECTION('',(0.0,0.0,-1.0));
#99=DIRECTION('',(1.0,0.0,0.0));
#100=AXIS2_PLACEMENT_3D('',#97,#98,#99);
#101=CIRCLE('',#100,3.796805104498703);
#102=EDGE_CURVE('',#73,#90,#101,.T.);
#103=ORIENTED_EDGE('',*,*,#102,.F.);
#104=EDGE_LOOP('',(#79,#88,#96,#103));
#105=FACE_OUTER_BOUND('',#104,.T.);
#106=ADVANCED_FACE('',(#105),#69,.T.);
#107=CARTESIAN_POINT('',(4.440892E-016,-6.661338E-016,4.900000000000000));
#108=DIRECTION('',(0.0,0.0,-1.0));
#109=DIRECTION('',(1.0,0.0,0.0));
#110=AXIS2_PLACEMENT_3D('',#107,#108,#109);
#111=CYLINDRICAL_SURFACE('',#110,3.796805104498703);
#112=ORIENTED_EDGE('',*,*,#78,.T.);
#113=CARTESIAN_POINT('',(4.440892E-016,-6.661338E-016,4.700000000000000));
#114=DIRECTION('',(0.0,0.0,-1.0));
#115=DIRECTION('',(1.0,0.0,0.0));
#116=AXIS2_PLACEMENT_3D('',#113,#114,#115);
#117=CIRCLE('',#116,3.796805104498703);
#118=EDGE_CURVE('',#90,#73,#117,.T.);
#119=ORIENTED_EDGE('',*,*,#118,.F.);
#120=ORIENTED_EDGE('',*,*,#95,.T.);
#121=CARTESIAN_POINT('',(4.440892E-016,-6.661338E-016,4.900000000000000));
#122=DIRECTION('',(0.0,0.0,1.0));
#123=DIRECTION('',(1.0,0.0,0.0));
#124=AXIS2_PLACEMENT_3D('',#121,#122,#123);
#125=CIRCLE('',#124,3.796805104498703);
#126=EDGE_CURVE('',#71,#81,#125,.T.);
#127=ORIENTED_EDGE('',*,*,#126,.F.);
#128=EDGE_LOOP('',(#112,#119,#120,#127));
#129=FACE_OUTER_BOUND('',#128,.T.);
#130=ADVANCED_FACE('',(#129),#111,.T.);
#131=CARTESIAN_POINT('',(2.220446E-016,-8.049117E-016,4.700000000000000));
#132=DIRECTION('',(0.0,0.0,1.0));
#133=DIRECTION('',(1.0,0.0,0.0));
#134=AXIS2_PLACEMENT_3D('',#131,#132,#133);
#135=PLANE('',#134);
#136=ORIENTED_EDGE('',*,*,#102,.T.);
#137=ORIENTED_EDGE('',*,*,#118,.T.);
#138=EDGE_LOOP('',(#136,#137));
#139=FACE_OUTER_BOUND('',#138,.T.);
#140=ADVANCED_FACE('',(#139),#135,.F.);
#141=CARTESIAN_POINT('',(2.220446E-016,-8.049117E-016,4.900000000000000));
#142=DIRECTION('',(0.0,0.0,1.0));
#143=DIRECTION('',(1.0,0.0,0.0));
#144=AXIS2_PLACEMENT_3D('',#141,#142,#143);
#145=PLANE('',#144);
#146=ORIENTED_EDGE('',*,*,#126,.T.);
#147=ORIENTED_EDGE('',*,*,#87,.T.);
#148=EDGE_LOOP('',(#146,#147));
#149=FACE_OUTER_BOUND('',#148,.T.);
#150=ADVANCED_FACE('',(#149),#145,.T.);
#151=CLOSED_SHELL('',(#106,#130,#140,#150));
#152=CARTESIAN_POINT('',(4.440892E-016,-6.661338E-016,4.900000000000000));
#153=DIRECTION('',(0.0,0.0,-1.0));
#154=DIRECTION('',(1.0,0.0,0.0));
#155=AXIS2_PLACEMENT_3D('',#152,#153,#154);
#156=CYLINDRICAL_SURFACE('',#155,4.296805104498704);
#157=CARTESIAN_POINT('',(4.296805104498704,-6.661338E-016,4.700000000000000));
#158=VERTEX_POINT('',#157);
#159=CARTESIAN_POINT('',(4.296805104498704,-6.661338E-016,4.900000000000000));
#160=VERTEX_POINT('',#159);
#161=CARTESIAN_POINT('',(4.296805104498704,-6.661338E-016,4.700000000000000));
#162=DIRECTION('',(0.0,0.0,1.0));
#163=VECTOR('',#162,0.200000000000000);
#164=LINE('',#161,#163);
#165=EDGE_CURVE('',#158,#160,#164,.T.);
#166=ORIENTED_EDGE('',*,*,#165,.F.);
#167=CARTESIAN_POINT('',(-4.296805104498704,-1.192323E-015,4.699999999999999));
#168=VERTEX_POINT('',#167);
#169=CARTESIAN_POINT('',(4.440892E-016,-6.661338E-016,4.700000000000000));
#170=DIRECTION('',(0.0,0.0,1.0));
#171=DIRECTION('',(1.0,0.0,0.0));
#172=AXIS2_PLACEMENT_3D('',#169,#170,#171);
#173=CIRCLE('',#172,4.296805104498704);
#174=EDGE_CURVE('',#168,#158,#173,.T.);
#175=ORIENTED_EDGE('',*,*,#174,.F.);
#176=CARTESIAN_POINT('',(-4.296805104498704,-1.192323E-015,4.900000000000000));
#177=VERTEX_POINT('',#176);
#178=CARTESIAN_POINT('',(-4.296805104498704,-1.192323E-015,4.900000000000000));
#179=DIRECTION('',(0.0,0.0,-1.0));
#180=VECTOR('',#179,0.200000000000001);
#181=LINE('',#178,#180);
#182=EDGE_CURVE('',#177,#168,#181,.T.);
#183=ORIENTED_EDGE('',*,*,#182,.F.);
#184=CARTESIAN_POINT('',(4.440892E-016,-6.661338E-016,4.900000000000000));
#185=DIRECTION('',(0.0,0.0,-1.0));
#186=DIRECTION('',(1.0,0.0,0.0));
#187=AXIS2_PLACEMENT_3D('',#184,#185,#186);
#188=CIRCLE('',#187,4.296805104498704);
#189=EDGE_CURVE('',#160,#177,#188,.T.);
#190=ORIENTED_EDGE('',*,*,#189,.F.);
#191=EDGE_LOOP('',(#166,#175,#183,#190));
#192=FACE_OUTER_BOUND('',#191,.F.);
#193=ADVANCED_FACE('',(#192),#156,.T.);
#194=CARTESIAN_POINT('',(-4.117157287525385,-2.500000000000000,4.900000000000000));
#195=DIRECTION('',(0.0,0.0,-1.0));
#196=DIRECTION('',(1.0,0.0,0.0));
#197=AXIS2_PLACEMENT_3D('',#194,#195,#196);
#198=CYLINDRICAL_SURFACE('',#197,0.300649623654131);
#199=CARTESIAN_POINT('',(-3.816507663871254,-2.500000000000000,4.800000000000001));
#200=VERTEX_POINT('',#199);
#201=CARTESIAN_POINT('',(-3.816507663871254,-2.500000000000000,4.900000000000000));
#202=VERTEX_POINT('',#201);
#203=CARTESIAN_POINT('',(-3.816507663871254,-2.500000000000000,4.800000000000001));
#204=DIRECTION('',(0.0,0.0,1.0));
#205=VECTOR('',#204,0.100000000000000);
#206=LINE('',#203,#205);
#207=EDGE_CURVE('',#200,#202,#206,.T.);
#208=ORIENTED_EDGE('',*,*,#207,.F.);
#209=CARTESIAN_POINT('',(-4.417806911179516,-2.500000000000000,4.800000000000001));
#210=VERTEX_POINT('',#209);
#211=CARTESIAN_POINT('',(-4.117157287525385,-2.500000000000000,4.800000000000001));
#212=DIRECTION('',(0.0,0.0,1.0));
#213=DIRECTION('',(1.0,0.0,0.0));
#214=AXIS2_PLACEMENT_3D('',#211,#212,#213);
#215=CIRCLE('',#214,0.300649623654131);
#216=EDGE_CURVE('',#210,#200,#215,.T.);
#217=ORIENTED_EDGE('',*,*,#216,.F.);
#218=CARTESIAN_POINT('',(-4.417806911179516,-2.500000000000000,4.900000000000000));
#219=VERTEX_POINT('',#218);
#220=CARTESIAN_POINT('',(-4.417806911179516,-2.500000000000000,4.900000000000000));
#221=DIRECTION('',(0.0,0.0,-1.0));
#222=VECTOR('',#221,0.100000000000000);
#223=LINE('',#220,#222);
#224=EDGE_CURVE('',#219,#210,#223,.T.);
#225=ORIENTED_EDGE('',*,*,#224,.F.);
#226=CARTESIAN_POINT('',(-4.117157287525385,-2.500000000000000,4.900000000000000));
#227=DIRECTION('',(0.0,0.0,-1.0));
#228=DIRECTION('',(1.0,0.0,0.0));
#229=AXIS2_PLACEMENT_3D('',#226,#227,#228);
#230=CIRCLE('',#229,0.300649623654131);
#231=EDGE_CURVE('',#202,#219,#230,.T.);
#232=ORIENTED_EDGE('',*,*,#231,.F.);
#233=EDGE_LOOP('',(#208,#217,#225,#232));
#234=FACE_OUTER_BOUND('',#233,.F.);
#235=ADVANCED_FACE('',(#234),#198,.T.);
#236=CARTESIAN_POINT('',(-4.117157287525385,-2.500000000000000,4.900000000000000));
#237=DIRECTION('',(0.0,0.0,-1.0));
#238=DIRECTION('',(1.0,0.0,0.0));
#239=AXIS2_PLACEMENT_3D('',#236,#237,#238);
#240=CYLINDRICAL_SURFACE('',#239,0.300649623654131);
#241=ORIENTED_EDGE('',*,*,#207,.T.);
#242=CARTESIAN_POINT('',(-4.117157287525385,-2.500000000000000,4.900000000000000));
#243=DIRECTION('',(0.0,0.0,-1.0));
#244=DIRECTION('',(1.0,0.0,0.0));
#245=AXIS2_PLACEMENT_3D('',#242,#243,#244);
#246=CIRCLE('',#245,0.300649623654131);
#247=EDGE_CURVE('',#219,#202,#246,.T.);
#248=ORIENTED_EDGE('',*,*,#247,.F.);
#249=ORIENTED_EDGE('',*,*,#224,.T.);
#250=CARTESIAN_POINT('',(-4.117157287525385,-2.500000000000000,4.800000000000001));
#251=DIRECTION('',(0.0,0.0,1.0));
#252=DIRECTION('',(1.0,0.0,0.0));
#253=AXIS2_PLACEMENT_3D('',#250,#251,#252);
#254=CIRCLE('',#253,0.300649623654131);
#255=EDGE_CURVE('',#200,#210,#254,.T.);
#256=ORIENTED_EDGE('',*,*,#255,.F.);
#257=EDGE_LOOP('',(#241,#248,#249,#256));
#258=FACE_OUTER_BOUND('',#257,.F.);
#259=ADVANCED_FACE('',(#258),#240,.T.);
#260=CARTESIAN_POINT('',(-4.117157287525385,-2.500000000000000,4.800000000000001));
#261=DIRECTION('',(0.0,0.0,1.0));
#262=DIRECTION('',(1.0,0.0,0.0));
#263=AXIS2_PLACEMENT_3D('',#260,#261,#262);
#264=PLANE('',#263);
#265=ORIENTED_EDGE('',*,*,#255,.T.);
#266=ORIENTED_EDGE('',*,*,#216,.T.);
#267=EDGE_LOOP('',(#265,#266));
#268=FACE_OUTER_BOUND('',#267,.F.);
#269=ADVANCED_FACE('',(#268),#264,.F.);
#270=CARTESIAN_POINT('',(4.117157287525382,5.0,4.900000000000000));
#271=DIRECTION('',(0.0,1.0,0.0));
#272=DIRECTION('',(0.0,0.0,1.0));
#273=AXIS2_PLACEMENT_3D('',#270,#271,#272);
#274=PLANE('',#273);
#275=CARTESIAN_POINT('',(4.117157287525382,5.0,4.700000000000000));
#276=VERTEX_POINT('',#275);
#277=CARTESIAN_POINT('',(-4.117157287525381,4.999999999999999,4.700000000000000));
#278=VERTEX_POINT('',#277);
#279=CARTESIAN_POINT('',(4.117157287525382,5.0,4.700000000000000));
#280=DIRECTION('',(-1.0,0.0,0.0));
#281=VECTOR('',#280,8.234314575050764);
#282=LINE('',#279,#281);
#283=EDGE_CURVE('',#276,#278,#282,.T.);
#284=ORIENTED_EDGE('',*,*,#283,.T.);
#285=CARTESIAN_POINT('',(-4.117157287525381,4.999999999999999,4.900000000000000));
#286=VERTEX_POINT('',#285);
#287=CARTESIAN_POINT('',(-4.117157287525381,4.999999999999999,4.900000000000000));
#288=DIRECTION('',(0.0,0.0,-1.0));
#289=VECTOR('',#288,0.200000000000000);
#290=LINE('',#287,#289);
#291=EDGE_CURVE('',#286,#278,#290,.T.);
#292=ORIENTED_EDGE('',*,*,#291,.F.);
#293=CARTESIAN_POINT('',(4.117157287525382,5.0,4.900000000000000));
#294=VERTEX_POINT('',#293);
#295=CARTESIAN_POINT('',(-4.117157287525381,4.999999999999999,4.900000000000000));
#296=DIRECTION('',(1.0,0.0,0.0));
#297=VECTOR('',#296,8.234314575050764);
#298=LINE('',#295,#297);
#299=EDGE_CURVE('',#286,#294,#298,.T.);
#300=ORIENTED_EDGE('',*,*,#299,.T.);
#301=CARTESIAN_POINT('',(4.117157287525382,5.0,4.900000000000000));
#302=DIRECTION('',(0.0,0.0,-1.0));
#303=VECTOR('',#302,0.200000000000000);
#304=LINE('',#301,#303);
#305=EDGE_CURVE('',#294,#276,#304,.T.);
#306=ORIENTED_EDGE('',*,*,#305,.T.);
#307=EDGE_LOOP('',(#284,#292,#300,#306));
#308=FACE_OUTER_BOUND('',#307,.F.);
#309=ADVANCED_FACE('',(#308),#274,.F.);
#310=CARTESIAN_POINT('',(5.0,4.117157287525382,4.900000000000000));
#311=DIRECTION('',(0.707106781186548,0.707106781186548,0.0));
#312=DIRECTION('',(0.0,0.0,-1.0));
#313=AXIS2_PLACEMENT_3D('',#310,#311,#312);
#314=PLANE('',#313);
#315=CARTESIAN_POINT('',(5.0,4.117157287525382,4.700000000000000));
#316=VERTEX_POINT('',#315);
#317=CARTESIAN_POINT('',(5.0,4.117157287525382,4.700000000000000));
#318=DIRECTION('',(-0.707106781186548,0.707106781186548,0.0));
#319=VECTOR('',#318,1.248528137423856);
#320=LINE('',#317,#319);
#321=EDGE_CURVE('',#316,#276,#320,.T.);
#322=ORIENTED_EDGE('',*,*,#321,.T.);
#323=ORIENTED_EDGE('',*,*,#305,.F.);
#324=CARTESIAN_POINT('',(5.0,4.117157287525382,4.900000000000000));
#325=VERTEX_POINT('',#324);
#326=CARTESIAN_POINT('',(4.117157287525382,5.0,4.900000000000000));
#327=DIRECTION('',(0.707106781186548,-0.707106781186548,0.0));
#328=VECTOR('',#327,1.248528137423856);
#329=LINE('',#326,#328);
#330=EDGE_CURVE('',#294,#325,#329,.T.);
#331=ORIENTED_EDGE('',*,*,#330,.T.);
#332=CARTESIAN_POINT('',(5.0,4.117157287525382,4.900000000000000));
#333=DIRECTION('',(0.0,0.0,-1.0));
#334=VECTOR('',#333,0.200000000000000);
#335=LINE('',#332,#334);
#336=EDGE_CURVE('',#325,#316,#335,.T.);
#337=ORIENTED_EDGE('',*,*,#336,.T.);
#338=EDGE_LOOP('',(#322,#323,#331,#337));
#339=FACE_OUTER_BOUND('',#338,.F.);
#340=ADVANCED_FACE('',(#339),#314,.F.);
#341=CARTESIAN_POINT('',(5.0,-4.117157287525383,4.900000000000000));
#342=DIRECTION('',(1.0,0.0,0.0));
#343=DIRECTION('',(0.0,0.0,-1.0));
#344=AXIS2_PLACEMENT_3D('',#341,#342,#343);
#345=PLANE('',#344);
#346=CARTESIAN_POINT('',(5.0,-4.117157287525383,4.700000000000000));
#347=VERTEX_POINT('',#346);
#348=CARTESIAN_POINT('',(5.0,-4.117157287525383,4.700000000000000));
#349=DIRECTION('',(0.0,1.0,0.0));
#350=VECTOR('',#349,8.234314575050764);
#351=LINE('',#348,#350);
#352=EDGE_CURVE('',#347,#316,#351,.T.);
#353=ORIENTED_EDGE('',*,*,#352,.T.);
#354=ORIENTED_EDGE('',*,*,#336,.F.);
#355=CARTESIAN_POINT('',(5.0,-4.117157287525383,4.900000000000000));
#356=VERTEX_POINT('',#355);
#357=CARTESIAN_POINT('',(5.0,4.117157287525382,4.900000000000000));
#358=DIRECTION('',(0.0,-1.0,0.0));
#359=VECTOR('',#358,8.234314575050764);
#360=LINE('',#357,#359);
#361=EDGE_CURVE('',#325,#356,#360,.T.);
#362=ORIENTED_EDGE('',*,*,#361,.T.);
#363=CARTESIAN_POINT('',(5.0,-4.117157287525383,4.900000000000000));
#364=DIRECTION('',(0.0,0.0,-1.0));
#365=VECTOR('',#364,0.200000000000000);
#366=LINE('',#363,#365);
#367=EDGE_CURVE('',#356,#347,#366,.T.);
#368=ORIENTED_EDGE('',*,*,#367,.T.);
#369=EDGE_LOOP('',(#353,#354,#362,#368));
#370=FACE_OUTER_BOUND('',#369,.F.);
#371=ADVANCED_FACE('',(#370),#345,.F.);
#372=CARTESIAN_POINT('',(4.117157287525382,-5.000000000000002,4.900000000000000));
#373=DIRECTION('',(0.707106781186548,-0.707106781186547,0.0));
#374=DIRECTION('',(0.0,0.0,-1.0));
#375=AXIS2_PLACEMENT_3D('',#372,#373,#374);
#376=PLANE('',#375);
#377=CARTESIAN_POINT('',(4.117157287525382,-5.000000000000002,4.700000000000000));
#378=VERTEX_POINT('',#377);
#379=CARTESIAN_POINT('',(4.117157287525382,-5.000000000000002,4.700000000000000));
#380=DIRECTION('',(0.707106781186547,0.707106781186548,0.0));
#381=VECTOR('',#380,1.248528137423856);
#382=LINE('',#379,#381);
#383=EDGE_CURVE('',#378,#347,#382,.T.);
#384=ORIENTED_EDGE('',*,*,#383,.T.);
#385=ORIENTED_EDGE('',*,*,#367,.F.);
#386=CARTESIAN_POINT('',(4.117157287525382,-5.000000000000002,4.900000000000000));
#387=VERTEX_POINT('',#386);
#388=CARTESIAN_POINT('',(5.0,-4.117157287525383,4.900000000000000));
#389=DIRECTION('',(-0.707106781186547,-0.707106781186548,0.0));
#390=VECTOR('',#389,1.248528137423856);
#391=LINE('',#388,#390);
#392=EDGE_CURVE('',#356,#387,#391,.T.);
#393=ORIENTED_EDGE('',*,*,#392,.T.);
#394=CARTESIAN_POINT('',(4.117157287525382,-5.000000000000002,4.900000000000000));
#395=DIRECTION('',(0.0,0.0,-1.0));
#396=VECTOR('',#395,0.200000000000000);
#397=LINE('',#394,#396);
#398=EDGE_CURVE('',#387,#378,#397,.T.);
#399=ORIENTED_EDGE('',*,*,#398,.T.);
#400=EDGE_LOOP('',(#384,#385,#393,#399));
#401=FACE_OUTER_BOUND('',#400,.F.);
#402=ADVANCED_FACE('',(#401),#376,.F.);
#403=CARTESIAN_POINT('',(-4.117157287525385,-5.0,4.900000000000000));
#404=DIRECTION('',(0.0,-1.0,0.0));
#405=DIRECTION('',(0.0,0.0,-1.0));
#406=AXIS2_PLACEMENT_3D('',#403,#404,#405);
#407=PLANE('',#406);
#408=CARTESIAN_POINT('',(-4.117157287525385,-5.0,4.700000000000000));
#409=VERTEX_POINT('',#408);
#410=CARTESIAN_POINT('',(-4.117157287525385,-5.0,4.700000000000000));
#411=DIRECTION('',(1.0,0.0,0.0));
#412=VECTOR('',#411,8.234314575050767);
#413=LINE('',#410,#412);
#414=EDGE_CURVE('',#409,#378,#413,.T.);
#415=ORIENTED_EDGE('',*,*,#414,.T.);
#416=ORIENTED_EDGE('',*,*,#398,.F.);
#417=CARTESIAN_POINT('',(-4.117157287525385,-5.0,4.900000000000000));
#418=VERTEX_POINT('',#417);
#419=CARTESIAN_POINT('',(4.117157287525382,-5.000000000000002,4.900000000000000));
#420=DIRECTION('',(-1.0,0.0,0.0));
#421=VECTOR('',#420,8.234314575050767);
#422=LINE('',#419,#421);
#423=EDGE_CURVE('',#387,#418,#422,.T.);
#424=ORIENTED_EDGE('',*,*,#423,.T.);
#425=CARTESIAN_POINT('',(-4.117157287525385,-5.0,4.900000000000000));
#426=DIRECTION('',(0.0,0.0,-1.0));
#427=VECTOR('',#426,0.200000000000000);
#428=LINE('',#425,#427);
#429=EDGE_CURVE('',#418,#409,#428,.T.);
#430=ORIENTED_EDGE('',*,*,#429,.T.);
#431=EDGE_LOOP('',(#415,#416,#424,#430));
#432=FACE_OUTER_BOUND('',#431,.F.);
#433=ADVANCED_FACE('',(#432),#407,.F.);
#434=CARTESIAN_POINT('',(-5.0,-4.117157287525382,4.900000000000000));
#435=DIRECTION('',(-0.707106781186549,-0.707106781186546,0.0));
#436=DIRECTION('',(0.0,0.0,1.0));
#437=AXIS2_PLACEMENT_3D('',#434,#435,#436);
#438=PLANE('',#437);
#439=CARTESIAN_POINT('',(-5.0,-4.117157287525382,4.700000000000000));
#440=VERTEX_POINT('',#439);
#441=CARTESIAN_POINT('',(-5.0,-4.117157287525382,4.700000000000000));
#442=DIRECTION('',(0.707106781186546,-0.707106781186549,0.0));
#443=VECTOR('',#442,1.248528137423854);
#444=LINE('',#441,#443);
#445=EDGE_CURVE('',#440,#409,#444,.T.);
#446=ORIENTED_EDGE('',*,*,#445,.T.);
#447=ORIENTED_EDGE('',*,*,#429,.F.);
#448=CARTESIAN_POINT('',(-5.0,-4.117157287525382,4.900000000000000));
#449=VERTEX_POINT('',#448);
#450=CARTESIAN_POINT('',(-4.117157287525385,-5.0,4.900000000000000));
#451=DIRECTION('',(-0.707106781186546,0.707106781186549,0.0));
#452=VECTOR('',#451,1.248528137423854);
#453=LINE('',#450,#452);
#454=EDGE_CURVE('',#418,#449,#453,.T.);
#455=ORIENTED_EDGE('',*,*,#454,.T.);
#456=CARTESIAN_POINT('',(-5.0,-4.117157287525382,4.900000000000000));
#457=DIRECTION('',(0.0,0.0,-1.0));
#458=VECTOR('',#457,0.200000000000000);
#459=LINE('',#456,#458);
#460=EDGE_CURVE('',#449,#440,#459,.T.);
#461=ORIENTED_EDGE('',*,*,#460,.T.);
#462=EDGE_LOOP('',(#446,#447,#455,#461));
#463=FACE_OUTER_BOUND('',#462,.F.);
#464=ADVANCED_FACE('',(#463),#438,.F.);
#465=CARTESIAN_POINT('',(-4.999999999999999,4.117157287525383,4.900000000000000));
#466=DIRECTION('',(-1.0,0.0,0.0));
#467=DIRECTION('',(0.0,0.0,1.0));
#468=AXIS2_PLACEMENT_3D('',#465,#466,#467);
#469=PLANE('',#468);
#470=CARTESIAN_POINT('',(-4.999999999999999,4.117157287525383,4.700000000000000));
#471=VERTEX_POINT('',#470);
#472=CARTESIAN_POINT('',(-4.999999999999999,4.117157287525383,4.700000000000000));
#473=DIRECTION('',(0.0,-1.0,0.0));
#474=VECTOR('',#473,8.234314575050764);
#475=LINE('',#472,#474);
#476=EDGE_CURVE('',#471,#440,#475,.T.);
#477=ORIENTED_EDGE('',*,*,#476,.T.);
#478=ORIENTED_EDGE('',*,*,#460,.F.);
#479=CARTESIAN_POINT('',(-4.999999999999999,4.117157287525383,4.900000000000000));
#480=VERTEX_POINT('',#479);
#481=CARTESIAN_POINT('',(-5.0,-4.117157287525382,4.900000000000000));
#482=DIRECTION('',(0.0,1.0,0.0));
#483=VECTOR('',#482,8.234314575050764);
#484=LINE('',#481,#483);
#485=EDGE_CURVE('',#449,#480,#484,.T.);
#486=ORIENTED_EDGE('',*,*,#485,.T.);
#487=CARTESIAN_POINT('',(-4.999999999999999,4.117157287525383,4.900000000000000));
#488=DIRECTION('',(0.0,0.0,-1.0));
#489=VECTOR('',#488,0.200000000000000);
#490=LINE('',#487,#489);
#491=EDGE_CURVE('',#480,#471,#490,.T.);
#492=ORIENTED_EDGE('',*,*,#491,.T.);
#493=EDGE_LOOP('',(#477,#478,#486,#492));
#494=FACE_OUTER_BOUND('',#493,.F.);
#495=ADVANCED_FACE('',(#494),#469,.F.);
#496=CARTESIAN_POINT('',(-4.117157287525381,4.999999999999999,4.900000000000000));
#497=DIRECTION('',(-0.707106781186547,0.707106781186548,0.0));
#498=DIRECTION('',(0.0,0.0,1.0));
#499=AXIS2_PLACEMENT_3D('',#496,#497,#498);
#500=PLANE('',#499);
#501=CARTESIAN_POINT('',(-4.117157287525381,4.999999999999999,4.700000000000000));
#502=DIRECTION('',(-0.707106781186548,-0.707106781186547,0.0));
#503=VECTOR('',#502,1.248528137423855);
#504=LINE('',#501,#503);
#505=EDGE_CURVE('',#278,#471,#504,.T.);
#506=ORIENTED_EDGE('',*,*,#505,.T.);
#507=ORIENTED_EDGE('',*,*,#491,.F.);
#508=CARTESIAN_POINT('',(-4.999999999999999,4.117157287525383,4.900000000000000));
#509=DIRECTION('',(0.707106781186548,0.707106781186547,0.0));
#510=VECTOR('',#509,1.248528137423855);
#511=LINE('',#508,#510);
#512=EDGE_CURVE('',#480,#286,#511,.T.);
#513=ORIENTED_EDGE('',*,*,#512,.T.);
#514=ORIENTED_EDGE('',*,*,#291,.T.);
#515=EDGE_LOOP('',(#506,#507,#513,#514));
#516=FACE_OUTER_BOUND('',#515,.F.);
#517=ADVANCED_FACE('',(#516),#500,.F.);
#518=CARTESIAN_POINT('',(2.220446E-016,-8.049117E-016,4.900000000000000));
#519=DIRECTION('',(0.0,0.0,1.0));
#520=DIRECTION('',(1.0,0.0,0.0));
#521=AXIS2_PLACEMENT_3D('',#518,#519,#520);
#522=PLANE('',#521);
#523=ORIENTED_EDGE('',*,*,#299,.F.);
#524=ORIENTED_EDGE('',*,*,#512,.F.);
#525=ORIENTED_EDGE('',*,*,#485,.F.);
#526=ORIENTED_EDGE('',*,*,#454,.F.);
#527=ORIENTED_EDGE('',*,*,#423,.F.);
#528=ORIENTED_EDGE('',*,*,#392,.F.);
#529=ORIENTED_EDGE('',*,*,#361,.F.);
#530=ORIENTED_EDGE('',*,*,#330,.F.);
#531=EDGE_LOOP('',(#523,#524,#525,#526,#527,#528,#529,#530));
#532=FACE_OUTER_BOUND('',#531,.F.);
#533=ORIENTED_EDGE('',*,*,#231,.T.);
#534=ORIENTED_EDGE('',*,*,#247,.T.);
#535=EDGE_LOOP('',(#533,#534));
#536=FACE_BOUND('',#535,.F.);
#537=ORIENTED_EDGE('',*,*,#189,.T.);
#538=CARTESIAN_POINT('',(4.440892E-016,-6.661338E-016,4.900000000000000));
#539=DIRECTION('',(0.0,0.0,-1.0));
#540=DIRECTION('',(1.0,0.0,0.0));
#541=AXIS2_PLACEMENT_3D('',#538,#539,#540);
#542=CIRCLE('',#541,4.296805104498704);
#543=EDGE_CURVE('',#177,#160,#542,.T.);
#544=ORIENTED_EDGE('',*,*,#543,.T.);
#545=EDGE_LOOP('',(#537,#544));
#546=FACE_BOUND('',#545,.F.);
#547=ADVANCED_FACE('',(#532,#536,#546),#522,.F.);
#548=CARTESIAN_POINT('',(2.220446E-016,-8.049117E-016,4.700000000000000));
#549=DIRECTION('',(0.0,0.0,1.0));
#550=DIRECTION('',(1.0,0.0,0.0));
#551=AXIS2_PLACEMENT_3D('',#548,#549,#550);
#552=PLANE('',#551);
#553=ORIENTED_EDGE('',*,*,#505,.F.);
#554=ORIENTED_EDGE('',*,*,#283,.F.);
#555=ORIENTED_EDGE('',*,*,#321,.F.);
#556=ORIENTED_EDGE('',*,*,#352,.F.);
#557=ORIENTED_EDGE('',*,*,#383,.F.);
#558=ORIENTED_EDGE('',*,*,#414,.F.);
#559=ORIENTED_EDGE('',*,*,#445,.F.);
#560=ORIENTED_EDGE('',*,*,#476,.F.);
#561=EDGE_LOOP('',(#553,#554,#555,#556,#557,#558,#559,#560));
#562=FACE_OUTER_BOUND('',#561,.F.);
#563=CARTESIAN_POINT('',(4.440892E-016,-6.661338E-016,4.700000000000000));
#564=DIRECTION('',(0.0,0.0,1.0));
#565=DIRECTION('',(1.0,0.0,0.0));
#566=AXIS2_PLACEMENT_3D('',#563,#564,#565);
#567=CIRCLE('',#566,4.296805104498704);
#568=EDGE_CURVE('',#158,#168,#567,.T.);
#569=ORIENTED_EDGE('',*,*,#568,.T.);
#570=ORIENTED_EDGE('',*,*,#174,.T.);
#571=EDGE_LOOP('',(#569,#570));
#572=FACE_BOUND('',#571,.F.);
#573=ADVANCED_FACE('',(#562,#572),#552,.T.);
#574=CARTESIAN_POINT('',(4.440892E-016,-6.661338E-016,4.900000000000000));
#575=DIRECTION('',(0.0,0.0,-1.0));
#576=DIRECTION('',(1.0,0.0,0.0));
#577=AXIS2_PLACEMENT_3D('',#574,#575,#576);
#578=CYLINDRICAL_SURFACE('',#577,4.296805104498704);
#579=ORIENTED_EDGE('',*,*,#165,.T.);
#580=ORIENTED_EDGE('',*,*,#543,.F.);
#581=ORIENTED_EDGE('',*,*,#182,.T.);
#582=ORIENTED_EDGE('',*,*,#568,.F.);
#583=EDGE_LOOP('',(#579,#580,#581,#582));
#584=FACE_OUTER_BOUND('',#583,.F.);
#585=ADVANCED_FACE('',(#584),#578,.T.);
#586=CLOSED_SHELL('',(#193,#235,#259,#269,#309,#340,#371,#402,#433,#464,#495,#517,#547,#573,#585));
#587=ORIENTED_CLOSED_SHELL('',*,#586,.F.);
#588=BREP_WITH_VOIDS('9F6',#151,(#587));
#589=COLOUR_RGB('250',0.330000000000000,0.330000000000000,0.330000000000000);
#590=SURFACE_STYLE_USAGE(.BOTH.,#591);
#591=SURFACE_SIDE_STYLE('NONE',(#592));
#592=SURFACE_STYLE_FILL_AREA(#593);
#593=FILL_AREA_STYLE('NONE',(#594));
#594=FILL_AREA_STYLE_COLOUR('NONE',#589);
#595=PRESENTATION_STYLE_ASSIGNMENT((#590));
#596=STYLED_ITEM('NONE',(#595),#588);
#597=MECHANICAL_DESIGN_GEOMETRIC_PRESENTATION_REPRESENTATION('NONE',(#596,#1225,#1383,#1534),#28);
#598=PRESENTATION_LAYER_ASSIGNMENT('3D','None',(#588,#1224,#1375,#1533));
#599=CARTESIAN_POINT('',(4.440892E-016,-6.661338E-016,4.900000000000000));
#600=DIRECTION('',(0.0,0.0,-1.0));
#601=DIRECTION('',(1.0,0.0,0.0));
#602=AXIS2_PLACEMENT_3D('',#599,#600,#601);
#603=CYLINDRICAL_SURFACE('',#602,3.796805104498703);
#604=CARTESIAN_POINT('',(3.796805104498704,-6.661338E-016,4.900000000000000));
#605=VERTEX_POINT('',#604);
#606=CARTESIAN_POINT('',(3.796805104498704,-6.661338E-016,4.700000000000000));
#607=VERTEX_POINT('',#606);
#608=CARTESIAN_POINT('',(3.796805104498704,-6.661338E-016,4.900000000000000));
#609=DIRECTION('',(0.0,0.0,-1.0));
#610=VECTOR('',#609,0.200000000000000);
#611=LINE('',#608,#610);
#612=EDGE_CURVE('',#605,#607,#611,.T.);
#613=ORIENTED_EDGE('',*,*,#612,.F.);
#614=CARTESIAN_POINT('',(-3.796805104498703,-1.131093E-015,4.900000000000000));
#615=VERTEX_POINT('',#614);
#616=CARTESIAN_POINT('',(4.440892E-016,-6.661338E-016,4.900000000000000));
#617=DIRECTION('',(0.0,0.0,1.0));
#618=DIRECTION('',(1.0,0.0,0.0));
#619=AXIS2_PLACEMENT_3D('',#616,#617,#618);
#620=CIRCLE('',#619,3.796805104498703);
#621=EDGE_CURVE('',#615,#605,#620,.T.);
#622=ORIENTED_EDGE('',*,*,#621,.F.);
#623=CARTESIAN_POINT('',(-3.796805104498703,-1.131093E-015,4.699999999999999));
#624=VERTEX_POINT('',#623);
#625=CARTESIAN_POINT('',(-3.796805104498703,-1.131093E-015,4.699999999999999));
#626=DIRECTION('',(0.0,0.0,1.0));
#627=VECTOR('',#626,0.200000000000001);
#628=LINE('',#625,#627);
#629=EDGE_CURVE('',#624,#615,#628,.T.);
#630=ORIENTED_EDGE('',*,*,#629,.F.);
#631=CARTESIAN_POINT('',(4.440892E-016,-6.661338E-016,4.700000000000000));
#632=DIRECTION('',(0.0,0.0,1.0));
#633=DIRECTION('',(1.0,0.0,0.0));
#634=AXIS2_PLACEMENT_3D('',#631,#632,#633);
#635=CIRCLE('',#634,3.796805104498703);
#636=EDGE_CURVE('',#624,#607,#635,.T.);
#637=ORIENTED_EDGE('',*,*,#636,.T.);
#638=EDGE_LOOP('',(#613,#622,#630,#637));
#639=FACE_OUTER_BOUND('',#638,.T.);
#640=ADVANCED_FACE('',(#639),#603,.T.);
#641=CARTESIAN_POINT('',(5.200000000000000,4.200000000000000,0.0));
#642=DIRECTION('',(1.0,0.0,0.0));
#643=DIRECTION('',(0.0,0.0,-1.0));
#644=AXIS2_PLACEMENT_3D('',#641,#642,#643);
#645=PLANE('',#644);
#646=CARTESIAN_POINT('',(5.200000000000000,-1.500000000000000,0.0));
#647=VERTEX_POINT('',#646);
#648=CARTESIAN_POINT('',(5.200000000000000,-1.500000000000000,0.500000000000000));
#649=VERTEX_POINT('',#648);
#650=CARTESIAN_POINT('',(5.200000000000000,-1.500000000000000,0.0));
#651=DIRECTION('',(0.0,0.0,1.0));
#652=VECTOR('',#651,0.500000000000000);
#653=LINE('',#650,#652);
#654=EDGE_CURVE('',#647,#649,#653,.T.);
#655=ORIENTED_EDGE('',*,*,#654,.T.);
#656=CARTESIAN_POINT('',(5.200000000000000,1.500000000000000,0.500000000000000));
#657=VERTEX_POINT('',#656);
#658=CARTESIAN_POINT('',(5.200000000000000,-1.500000000000000,0.500000000000000));
#659=DIRECTION('',(0.0,1.0,0.0));
#660=VECTOR('',#659,3.0);
#661=LINE('',#658,#660);
#662=EDGE_CURVE('',#649,#657,#661,.T.);
#663=ORIENTED_EDGE('',*,*,#662,.T.);
#664=CARTESIAN_POINT('',(5.200000000000000,1.500000000000000,0.0));
#665=VERTEX_POINT('',#664);
#666=CARTESIAN_POINT('',(5.200000000000000,1.500000000000000,0.500000000000000));
#667=DIRECTION('',(0.0,0.0,-1.0));
#668=VECTOR('',#667,0.500000000000000);
#669=LINE('',#666,#668);
#670=EDGE_CURVE('',#657,#665,#669,.T.);
#671=ORIENTED_EDGE('',*,*,#670,.T.);
#672=CARTESIAN_POINT('',(5.200000000000000,4.200000000000000,0.0));
#673=VERTEX_POINT('',#672);
#674=CARTESIAN_POINT('',(5.200000000000000,1.500000000000000,0.0));
#675=DIRECTION('',(0.0,1.0,0.0));
#676=VECTOR('',#675,2.700000000000000);
#677=LINE('',#674,#676);
#678=EDGE_CURVE('',#665,#673,#677,.T.);
#679=ORIENTED_EDGE('',*,*,#678,.T.);
#680=CARTESIAN_POINT('',(5.200000000000000,4.200000000000000,4.700000000000000));
#681=VERTEX_POINT('',#680);
#682=CARTESIAN_POINT('',(5.200000000000000,4.200000000000000,0.0));
#683=DIRECTION('',(0.0,0.0,1.0));
#684=VECTOR('',#683,4.700000000000000);
#685=LINE('',#682,#684);
#686=EDGE_CURVE('',#673,#681,#685,.T.);
#687=ORIENTED_EDGE('',*,*,#686,.T.);
#688=CARTESIAN_POINT('',(5.200000000000000,-4.200000000000002,4.700000000000000));
#689=VERTEX_POINT('',#688);
#690=CARTESIAN_POINT('',(5.200000000000000,4.200000000000000,4.700000000000000));
#691=DIRECTION('',(0.0,-1.0,0.0));
#692=VECTOR('',#691,8.400000000000002);
#693=LINE('',#690,#692);
#694=EDGE_CURVE('',#681,#689,#693,.T.);
#695=ORIENTED_EDGE('',*,*,#694,.T.);
#696=CARTESIAN_POINT('',(5.200000000000000,-4.200000000000002,0.0));
#697=VERTEX_POINT('',#696);
#698=CARTESIAN_POINT('',(5.200000000000000,-4.200000000000002,0.0));
#699=DIRECTION('',(0.0,0.0,1.0));
#700=VECTOR('',#699,4.700000000000000);
#701=LINE('',#698,#700);
#702=EDGE_CURVE('',#697,#689,#701,.T.);
#703=ORIENTED_EDGE('',*,*,#702,.F.);
#704=CARTESIAN_POINT('',(5.200000000000000,-4.200000000000002,0.0));
#705=DIRECTION('',(0.0,1.0,0.0));
#706=VECTOR('',#705,2.700000000000002);
#707=LINE('',#704,#706);
#708=EDGE_CURVE('',#697,#647,#707,.T.);
#709=ORIENTED_EDGE('',*,*,#708,.T.);
#710=EDGE_LOOP('',(#655,#663,#671,#679,#687,#695,#703,#709));
#711=FACE_OUTER_BOUND('',#710,.T.);
#712=ADVANCED_FACE('',(#711),#645,.T.);
#713=CARTESIAN_POINT('',(5.200000000000000,-4.200000000000002,0.0));
#714=DIRECTION('',(0.707106781186548,-0.707106781186548,0.0));
#715=DIRECTION('',(0.0,0.0,-1.0));
#716=AXIS2_PLACEMENT_3D('',#713,#714,#715);
#717=PLANE('',#716);
#718=CARTESIAN_POINT('',(4.200000000000000,-5.200000000000002,4.700000000000000));
#719=VERTEX_POINT('',#718);
#720=CARTESIAN_POINT('',(5.200000000000000,-4.200000000000002,4.700000000000000));
#721=DIRECTION('',(-0.707106781186547,-0.707106781186547,0.0));
#722=VECTOR('',#721,1.414213562373095);
#723=LINE('',#720,#722);
#724=EDGE_CURVE('',#689,#719,#723,.T.);
#725=ORIENTED_EDGE('',*,*,#724,.T.);
#726=CARTESIAN_POINT('',(4.200000000000000,-5.200000000000002,0.0));
#727=VERTEX_POINT('',#726);
#728=CARTESIAN_POINT('',(4.200000000000000,-5.200000000000002,0.0));
#729=DIRECTION('',(0.0,0.0,1.0));
#730=VECTOR('',#729,4.700000000000000);
#731=LINE('',#728,#730);
#732=EDGE_CURVE('',#727,#719,#731,.T.);
#733=ORIENTED_EDGE('',*,*,#732,.F.);
#734=CARTESIAN_POINT('',(4.200000000000000,-5.200000000000002,0.0));
#735=DIRECTION('',(0.707106781186547,0.707106781186547,0.0));
#736=VECTOR('',#735,1.414213562373095);
#737=LINE('',#734,#736);
#738=EDGE_CURVE('',#727,#697,#737,.T.);
#739=ORIENTED_EDGE('',*,*,#738,.T.);
#740=ORIENTED_EDGE('',*,*,#702,.T.);
#741=EDGE_LOOP('',(#725,#733,#739,#740));
#742=FACE_OUTER_BOUND('',#741,.T.);
#743=ADVANCED_FACE('',(#742),#717,.T.);
#744=CARTESIAN_POINT('',(4.200000000000000,-5.200000000000002,0.0));
#745=DIRECTION('',(0.0,-1.0,0.0));
#746=DIRECTION('',(0.0,0.0,-1.0));
#747=AXIS2_PLACEMENT_3D('',#744,#745,#746);
#748=PLANE('',#747);
#749=CARTESIAN_POINT('',(-4.200000000000000,-5.200000000000000,4.700000000000000));
#750=VERTEX_POINT('',#749);
#751=CARTESIAN_POINT('',(4.200000000000000,-5.200000000000002,4.700000000000000));
#752=DIRECTION('',(-1.0,0.0,0.0));
#753=VECTOR('',#752,8.400000000000000);
#754=LINE('',#751,#753);
#755=EDGE_CURVE('',#719,#750,#754,.T.);
#756=ORIENTED_EDGE('',*,*,#755,.T.);
#757=CARTESIAN_POINT('',(-4.200000000000000,-5.200000000000000,0.0));
#758=VERTEX_POINT('',#757);
#759=CARTESIAN_POINT('',(-4.200000000000000,-5.200000000000000,0.0));
#760=DIRECTION('',(0.0,0.0,1.0));
#761=VECTOR('',#760,4.700000000000000);
#762=LINE('',#759,#761);
#763=EDGE_CURVE('',#758,#750,#762,.T.);
#764=ORIENTED_EDGE('',*,*,#763,.F.);
#765=CARTESIAN_POINT('',(-4.200000000000000,-5.200000000000000,0.0));
#766=DIRECTION('',(1.0,0.0,0.0));
#767=VECTOR('',#766,8.400000000000000);
#768=LINE('',#765,#767);
#769=EDGE_CURVE('',#758,#727,#768,.T.);
#770=ORIENTED_EDGE('',*,*,#769,.T.);
#771=ORIENTED_EDGE('',*,*,#732,.T.);
#772=EDGE_LOOP('',(#756,#764,#770,#771));
#773=FACE_OUTER_BOUND('',#772,.T.);
#774=ADVANCED_FACE('',(#773),#748,.T.);
#775=CARTESIAN_POINT('',(-4.200000000000000,-5.200000000000000,0.0));
#776=DIRECTION('',(-0.707106781186548,-0.707106781186548,0.0));
#777=DIRECTION('',(0.0,0.0,1.0));
#778=AXIS2_PLACEMENT_3D('',#775,#776,#777);
#779=PLANE('',#778);
#780=CARTESIAN_POINT('',(-5.200000000000000,-4.200000000000000,4.700000000000000));
#781=VERTEX_POINT('',#780);
#782=CARTESIAN_POINT('',(-4.200000000000000,-5.200000000000000,4.700000000000000));
#783=DIRECTION('',(-0.707106781186547,0.707106781186547,0.0));
#784=VECTOR('',#783,1.414213562373095);
#785=LINE('',#782,#784);
#786=EDGE_CURVE('',#750,#781,#785,.T.);
#787=ORIENTED_EDGE('',*,*,#786,.T.);
#788=CARTESIAN_POINT('',(-5.200000000000000,-4.200000000000000,0.0));
#789=VERTEX_POINT('',#788);
#790=CARTESIAN_POINT('',(-5.200000000000000,-4.200000000000000,0.0));
#791=DIRECTION('',(0.0,0.0,1.0));
#792=VECTOR('',#791,4.700000000000000);
#793=LINE('',#790,#792);
#794=EDGE_CURVE('',#789,#781,#793,.T.);
#795=ORIENTED_EDGE('',*,*,#794,.F.);
#796=CARTESIAN_POINT('',(-5.200000000000000,-4.200000000000000,0.0));
#797=DIRECTION('',(0.707106781186547,-0.707106781186547,0.0));
#798=VECTOR('',#797,1.414213562373095);
#799=LINE('',#796,#798);
#800=EDGE_CURVE('',#789,#758,#799,.T.);
#801=ORIENTED_EDGE('',*,*,#800,.T.);
#802=ORIENTED_EDGE('',*,*,#763,.T.);
#803=EDGE_LOOP('',(#787,#795,#801,#802));
#804=FACE_OUTER_BOUND('',#803,.T.);
#805=ADVANCED_FACE('',(#804),#779,.T.);
#806=CARTESIAN_POINT('',(-5.200000000000000,-4.200000000000000,0.0));
#807=DIRECTION('',(-1.0,0.0,0.0));
#808=DIRECTION('',(0.0,0.0,1.0));
#809=AXIS2_PLACEMENT_3D('',#806,#807,#808);
#810=PLANE('',#809);
#811=CARTESIAN_POINT('',(-5.200000000000000,1.500000000000000,0.0));
#812=VERTEX_POINT('',#811);
#813=CARTESIAN_POINT('',(-5.200000000000000,1.500000000000000,0.500000000000000));
#814=VERTEX_POINT('',#813);
#815=CARTESIAN_POINT('',(-5.200000000000000,1.500000000000000,0.0));
#816=DIRECTION('',(0.0,0.0,1.0));
#817=VECTOR('',#816,0.500000000000000);
#818=LINE('',#815,#817);
#819=EDGE_CURVE('',#812,#814,#818,.T.);
#820=ORIENTED_EDGE('',*,*,#819,.T.);
#821=CARTESIAN_POINT('',(-5.200000000000000,-1.500000000000000,0.500000000000000));
#822=VERTEX_POINT('',#821);
#823=CARTESIAN_POINT('',(-5.200000000000000,1.500000000000000,0.500000000000000));
#824=DIRECTION('',(0.0,-1.0,0.0));
#825=VECTOR('',#824,3.0);
#826=LINE('',#823,#825);
#827=EDGE_CURVE('',#814,#822,#826,.T.);
#828=ORIENTED_EDGE('',*,*,#827,.T.);
#829=CARTESIAN_POINT('',(-5.200000000000000,-1.500000000000000,0.0));
#830=VERTEX_POINT('',#829);
#831=CARTESIAN_POINT('',(-5.200000000000000,-1.500000000000000,0.500000000000000));
#832=DIRECTION('',(0.0,0.0,-1.0));
#833=VECTOR('',#832,0.500000000000000);
#834=LINE('',#831,#833);
#835=EDGE_CURVE('',#822,#830,#834,.T.);
#836=ORIENTED_EDGE('',*,*,#835,.T.);
#837=CARTESIAN_POINT('',(-5.200000000000000,-1.500000000000000,0.0));
#838=DIRECTION('',(0.0,-1.0,0.0));
#839=VECTOR('',#838,2.700000000000000);
#840=LINE('',#837,#839);
#841=EDGE_CURVE('',#830,#789,#840,.T.);
#842=ORIENTED_EDGE('',*,*,#841,.T.);
#843=ORIENTED_EDGE('',*,*,#794,.T.);
#844=CARTESIAN_POINT('',(-5.199999999999999,4.199999999999999,4.700000000000000));
#845=VERTEX_POINT('',#844);
#846=CARTESIAN_POINT('',(-5.200000000000000,-4.200000000000000,4.700000000000000));
#847=DIRECTION('',(0.0,1.0,0.0));
#848=VECTOR('',#847,8.399999999999999);
#849=LINE('',#846,#848);
#850=EDGE_CURVE('',#781,#845,#849,.T.);
#851=ORIENTED_EDGE('',*,*,#850,.T.);
#852=CARTESIAN_POINT('',(-5.199999999999999,4.199999999999999,0.0));
#853=VERTEX_POINT('',#852);
#854=CARTESIAN_POINT('',(-5.199999999999999,4.199999999999999,0.0));
#855=DIRECTION('',(0.0,0.0,1.0));
#856=VECTOR('',#855,4.700000000000000);
#857=LINE('',#854,#856);
#858=EDGE_CURVE('',#853,#845,#857,.T.);
#859=ORIENTED_EDGE('',*,*,#858,.F.);
#860=CARTESIAN_POINT('',(-5.199999999999999,4.199999999999999,0.0));
#861=DIRECTION('',(0.0,-1.0,0.0));
#862=VECTOR('',#861,2.699999999999999);
#863=LINE('',#860,#862);
#864=EDGE_CURVE('',#853,#812,#863,.T.);
#865=ORIENTED_EDGE('',*,*,#864,.T.);
#866=EDGE_LOOP('',(#820,#828,#836,#842,#843,#851,#859,#865));
#867=FACE_OUTER_BOUND('',#866,.T.);
#868=ADVANCED_FACE('',(#867),#810,.T.);
#869=CARTESIAN_POINT('',(-5.199999999999999,4.199999999999999,0.0));
#870=DIRECTION('',(-0.707106781186548,0.707106781186548,0.0));
#871=DIRECTION('',(0.0,0.0,1.0));
#872=AXIS2_PLACEMENT_3D('',#869,#870,#871);
#873=PLANE('',#872);
#874=CARTESIAN_POINT('',(-4.199999999999999,5.199999999999999,4.700000000000000));
#875=VERTEX_POINT('',#874);
#876=CARTESIAN_POINT('',(-5.199999999999999,4.199999999999999,4.700000000000000));
#877=DIRECTION('',(0.707106781186547,0.707106781186547,0.0));
#878=VECTOR('',#877,1.414213562373095);
#879=LINE('',#876,#878);
#880=EDGE_CURVE('',#845,#875,#879,.T.);
#881=ORIENTED_EDGE('',*,*,#880,.T.);
#882=CARTESIAN_POINT('',(-4.199999999999999,5.199999999999999,0.0));
#883=VERTEX_POINT('',#882);
#884=CARTESIAN_POINT('',(-4.199999999999999,5.199999999999999,0.0));
#885=DIRECTION('',(0.0,0.0,1.0));
#886=VECTOR('',#885,4.700000000000000);
#887=LINE('',#884,#886);
#888=EDGE_CURVE('',#883,#875,#887,.T.);
#889=ORIENTED_EDGE('',*,*,#888,.F.);
#890=CARTESIAN_POINT('',(-4.199999999999999,5.199999999999999,0.0));
#891=DIRECTION('',(-0.707106781186547,-0.707106781186547,0.0));
#892=VECTOR('',#891,1.414213562373095);
#893=LINE('',#890,#892);
#894=EDGE_CURVE('',#883,#853,#893,.T.);
#895=ORIENTED_EDGE('',*,*,#894,.T.);
#896=ORIENTED_EDGE('',*,*,#858,.T.);
#897=EDGE_LOOP('',(#881,#889,#895,#896));
#898=FACE_OUTER_BOUND('',#897,.T.);
#899=ADVANCED_FACE('',(#898),#873,.T.);
#900=CARTESIAN_POINT('',(-4.199999999999999,5.199999999999999,0.0));
#901=DIRECTION('',(0.0,1.0,0.0));
#902=DIRECTION('',(0.0,0.0,1.0));
#903=AXIS2_PLACEMENT_3D('',#900,#901,#902);
#904=PLANE('',#903);
#905=CARTESIAN_POINT('',(4.200000000000000,5.200000000000000,4.700000000000000));
#906=VERTEX_POINT('',#905);
#907=CARTESIAN_POINT('',(-4.199999999999999,5.199999999999999,4.700000000000000));
#908=DIRECTION('',(1.0,0.0,0.0));
#909=VECTOR('',#908,8.399999999999999);
#910=LINE('',#907,#909);
#911=EDGE_CURVE('',#875,#906,#910,.T.);
#912=ORIENTED_EDGE('',*,*,#911,.T.);
#913=CARTESIAN_POINT('',(4.200000000000000,5.200000000000000,0.0));
#914=VERTEX_POINT('',#913);
#915=CARTESIAN_POINT('',(4.200000000000000,5.200000000000000,0.0));
#916=DIRECTION('',(0.0,0.0,1.0));
#917=VECTOR('',#916,4.700000000000000);
#918=LINE('',#915,#917);
#919=EDGE_CURVE('',#914,#906,#918,.T.);
#920=ORIENTED_EDGE('',*,*,#919,.F.);
#921=CARTESIAN_POINT('',(4.200000000000000,5.200000000000000,0.0));
#922=DIRECTION('',(-1.0,0.0,0.0));
#923=VECTOR('',#922,8.399999999999999);
#924=LINE('',#921,#923);
#925=EDGE_CURVE('',#914,#883,#924,.T.);
#926=ORIENTED_EDGE('',*,*,#925,.T.);
#927=ORIENTED_EDGE('',*,*,#888,.T.);
#928=EDGE_LOOP('',(#912,#920,#926,#927));
#929=FACE_OUTER_BOUND('',#928,.T.);
#930=ADVANCED_FACE('',(#929),#904,.T.);
#931=CARTESIAN_POINT('',(4.200000000000000,5.200000000000000,0.0));
#932=DIRECTION('',(0.707106781186548,0.707106781186548,0.0));
#933=DIRECTION('',(0.0,0.0,-1.0));
#934=AXIS2_PLACEMENT_3D('',#931,#932,#933);
#935=PLANE('',#934);
#936=CARTESIAN_POINT('',(4.200000000000000,5.200000000000000,4.700000000000000));
#937=DIRECTION('',(0.707106781186547,-0.707106781186547,0.0));
#938=VECTOR('',#937,1.414213562373095);
#939=LINE('',#936,#938);
#940=EDGE_CURVE('',#906,#681,#939,.T.);
#941=ORIENTED_EDGE('',*,*,#940,.T.);
#942=ORIENTED_EDGE('',*,*,#686,.F.);
#943=CARTESIAN_POINT('',(5.200000000000000,4.200000000000000,0.0));
#944=DIRECTION('',(-0.707106781186547,0.707106781186547,0.0));
#945=VECTOR('',#944,1.414213562373095);
#946=LINE('',#943,#945);
#947=EDGE_CURVE('',#673,#914,#946,.T.);
#948=ORIENTED_EDGE('',*,*,#947,.T.);
#949=ORIENTED_EDGE('',*,*,#919,.T.);
#950=EDGE_LOOP('',(#941,#942,#948,#949));
#951=FACE_OUTER_BOUND('',#950,.T.);
#952=ADVANCED_FACE('',(#951),#935,.T.);
#953=CARTESIAN_POINT('',(4.440892E-016,-6.661338E-016,4.900000000000000));
#954=DIRECTION('',(0.0,0.0,-1.0));
#955=DIRECTION('',(1.0,0.0,0.0));
#956=AXIS2_PLACEMENT_3D('',#953,#954,#955);
#957=CYLINDRICAL_SURFACE('',#956,3.796805104498703);
#958=ORIENTED_EDGE('',*,*,#612,.T.);
#959=CARTESIAN_POINT('',(4.440892E-016,-6.661338E-016,4.700000000000000));
#960=DIRECTION('',(0.0,0.0,1.0));
#961=DIRECTION('',(1.0,0.0,0.0));
#962=AXIS2_PLACEMENT_3D('',#959,#960,#961);
#963=CIRCLE('',#962,3.796805104498703);
#964=EDGE_CURVE('',#607,#624,#963,.T.);
#965=ORIENTED_EDGE('',*,*,#964,.T.);
#966=ORIENTED_EDGE('',*,*,#629,.T.);
#967=CARTESIAN_POINT('',(4.440892E-016,-6.661338E-016,4.900000000000000));
#968=DIRECTION('',(0.0,0.0,1.0));
#969=DIRECTION('',(1.0,0.0,0.0));
#970=AXIS2_PLACEMENT_3D('',#967,#968,#969);
#971=CIRCLE('',#970,3.796805104498703);
#972=EDGE_CURVE('',#605,#615,#971,.T.);
#973=ORIENTED_EDGE('',*,*,#972,.F.);
#974=EDGE_LOOP('',(#958,#965,#966,#973));
#975=FACE_OUTER_BOUND('',#974,.T.);
#976=ADVANCED_FACE('',(#975),#957,.T.);
#977=CARTESIAN_POINT('',(4.440892E-016,-6.661338E-016,4.700000000000000));
#978=DIRECTION('',(0.0,0.0,1.0));
#979=DIRECTION('',(1.0,0.0,0.0));
#980=AXIS2_PLACEMENT_3D('',#977,#978,#979);
#981=PLANE('',#980);
#982=ORIENTED_EDGE('',*,*,#940,.F.);
#983=ORIENTED_EDGE('',*,*,#911,.F.);
#984=ORIENTED_EDGE('',*,*,#880,.F.);
#985=ORIENTED_EDGE('',*,*,#850,.F.);
#986=ORIENTED_EDGE('',*,*,#786,.F.);
#987=ORIENTED_EDGE('',*,*,#755,.F.);
#988=ORIENTED_EDGE('',*,*,#724,.F.);
#989=ORIENTED_EDGE('',*,*,#694,.F.);
#990=EDGE_LOOP('',(#982,#983,#984,#985,#986,#987,#988,#989));
#991=FACE_OUTER_BOUND('',#990,.T.);
#992=ORIENTED_EDGE('',*,*,#964,.F.);
#993=ORIENTED_EDGE('',*,*,#636,.F.);
#994=EDGE_LOOP('',(#992,#993));
#995=FACE_BOUND('',#994,.T.);
#996=ADVANCED_FACE('',(#991,#995),#981,.T.);
#997=CARTESIAN_POINT('',(3.200000000000000,-1.500000000000000,0.0));
#998=DIRECTION('',(-1.0,0.0,0.0));
#999=DIRECTION('',(0.0,0.0,1.0));
#1000=AXIS2_PLACEMENT_3D('',#997,#998,#999);
#1001=PLANE('',#1000);
#1002=CARTESIAN_POINT('',(3.200000000000000,-1.500000000000000,0.500000000000000));
#1003=VERTEX_POINT('',#1002);
#1004=CARTESIAN_POINT('',(3.200000000000000,1.500000000000000,0.500000000000000));
#1005=VERTEX_POINT('',#1004);
#1006=CARTESIAN_POINT('',(3.200000000000000,-1.500000000000000,0.500000000000000));
#1007=DIRECTION('',(0.0,1.0,0.0));
#1008=VECTOR('',#1007,3.0);
#1009=LINE('',#1006,#1008);
#1010=EDGE_CURVE('',#1003,#1005,#1009,.T.);
#1011=ORIENTED_EDGE('',*,*,#1010,.F.);
#1012=CARTESIAN_POINT('',(3.200000000000000,-1.500000000000000,0.0));
#1013=VERTEX_POINT('',#1012);
#1014=CARTESIAN_POINT('',(3.200000000000000,-1.500000000000000,0.0));
#1015=DIRECTION('',(0.0,0.0,1.0));
#1016=VECTOR('',#1015,0.500000000000000);
#1017=LINE('',#1014,#1016);
#1018=EDGE_CURVE('',#1013,#1003,#1017,.T.);
#1019=ORIENTED_EDGE('',*,*,#1018,.F.);
#1020=CARTESIAN_POINT('',(3.200000000000000,1.500000000000000,0.0));
#1021=VERTEX_POINT('',#1020);
#1022=CARTESIAN_POINT('',(3.200000000000000,1.500000000000000,0.0));
#1023=DIRECTION('',(0.0,-1.0,0.0));
#1024=VECTOR('',#1023,3.0);
#1025=LINE('',#1022,#1024);
#1026=EDGE_CURVE('',#1021,#1013,#1025,.T.);
#1027=ORIENTED_EDGE('',*,*,#1026,.F.);
#1028=CARTESIAN_POINT('',(3.200000000000000,1.500000000000000,0.0));
#1029=DIRECTION('',(0.0,0.0,1.0));
#1030=VECTOR('',#1029,0.500000000000000);
#1031=LINE('',#1028,#1030);
#1032=EDGE_CURVE('',#1021,#1005,#1031,.T.);
#1033=ORIENTED_EDGE('',*,*,#1032,.T.);
#1034=EDGE_LOOP('',(#1011,#1019,#1027,#1033));
#1035=FACE_OUTER_BOUND('',#1034,.T.);
#1036=ADVANCED_FACE('',(#1035),#1001,.F.);
#1037=CARTESIAN_POINT('',(3.200000000000000,1.500000000000000,0.0));
#1038=DIRECTION('',(0.0,1.0,0.0));
#1039=DIRECTION('',(0.0,0.0,1.0));
#1040=AXIS2_PLACEMENT_3D('',#1037,#1038,#1039);
#1041=PLANE('',#1040);
#1042=CARTESIAN_POINT('',(3.200000000000000,1.500000000000000,0.500000000000000));
#1043=DIRECTION('',(1.0,0.0,0.0));
#1044=VECTOR('',#1043,2.0);
#1045=LINE('',#1042,#1044);
#1046=EDGE_CURVE('',#1005,#657,#1045,.T.);
#1047=ORIENTED_EDGE('',*,*,#1046,.F.);
#1048=ORIENTED_EDGE('',*,*,#1032,.F.);
#1049=CARTESIAN_POINT('',(5.200000000000000,1.500000000000000,0.0));
#1050=DIRECTION('',(-1.0,0.0,0.0));
#1051=VECTOR('',#1050,2.0);
#1052=LINE('',#1049,#1051);
#1053=EDGE_CURVE('',#665,#1021,#1052,.T.);
#1054=ORIENTED_EDGE('',*,*,#1053,.F.);
#1055=ORIENTED_EDGE('',*,*,#670,.F.);
#1056=EDGE_LOOP('',(#1047,#1048,#1054,#1055));
#1057=FACE_OUTER_BOUND('',#1056,.T.);
#1058=ADVANCED_FACE('',(#1057),#1041,.F.);
#1059=CARTESIAN_POINT('',(5.200000000000000,-1.500000000000000,0.0));
#1060=DIRECTION('',(0.0,-1.0,0.0));
#1061=DIRECTION('',(0.0,0.0,-1.0));
#1062=AXIS2_PLACEMENT_3D('',#1059,#1060,#1061);
#1063=PLANE('',#1062);
#1064=CARTESIAN_POINT('',(5.200000000000000,-1.500000000000000,0.500000000000000));
#1065=DIRECTION('',(-1.0,0.0,0.0));
#1066=VECTOR('',#1065,2.000000000000000);
#1067=LINE('',#1064,#1066);
#1068=EDGE_CURVE('',#649,#1003,#1067,.T.);
#1069=ORIENTED_EDGE('',*,*,#1068,.F.);
#1070=ORIENTED_EDGE('',*,*,#654,.F.);
#1071=CARTESIAN_POINT('',(3.200000000000000,-1.500000000000000,0.0));
#1072=DIRECTION('',(1.0,0.0,0.0));
#1073=VECTOR('',#1072,2.000000000000000);
#1074=LINE('',#1071,#1073);
#1075=EDGE_CURVE('',#1013,#647,#1074,.T.);
#1076=ORIENTED_EDGE('',*,*,#1075,.F.);
#1077=ORIENTED_EDGE('',*,*,#1018,.T.);
#1078=EDGE_LOOP('',(#1069,#1070,#1076,#1077));
#1079=FACE_OUTER_BOUND('',#1078,.T.);
#1080=ADVANCED_FACE('',(#1079),#1063,.F.);
#1081=CARTESIAN_POINT('',(4.200000000000000,1.211152E-017,0.500000000000000));
#1082=DIRECTION('',(0.0,0.0,1.0));
#1083=DIRECTION('',(1.0,0.0,0.0));
#1084=AXIS2_PLACEMENT_3D('',#1081,#1082,#1083);
#1085=PLANE('',#1084);
#1086=ORIENTED_EDGE('',*,*,#1010,.T.);
#1087=ORIENTED_EDGE('',*,*,#1046,.T.);
#1088=ORIENTED_EDGE('',*,*,#662,.F.);
#1089=ORIENTED_EDGE('',*,*,#1068,.T.);
#1090=EDGE_LOOP('',(#1086,#1087,#1088,#1089));
#1091=FACE_OUTER_BOUND('',#1090,.T.);
#1092=ADVANCED_FACE('',(#1091),#1085,.F.);
#1093=CARTESIAN_POINT('',(-3.200000000000000,1.500000000000000,0.0));
#1094=DIRECTION('',(1.0,0.0,0.0));
#1095=DIRECTION('',(0.0,0.0,-1.0));
#1096=AXIS2_PLACEMENT_3D('',#1093,#1094,#1095);
#1097=PLANE('',#1096);
#1098=CARTESIAN_POINT('',(-3.200000000000000,1.500000000000000,0.500000000000000));
#1099=VERTEX_POINT('',#1098);
#1100=CARTESIAN_POINT('',(-3.200000000000000,-1.500000000000000,0.500000000000000));
#1101=VERTEX_POINT('',#1100);
#1102=CARTESIAN_POINT('',(-3.200000000000000,1.500000000000000,0.500000000000000));
#1103=DIRECTION('',(0.0,-1.0,0.0));
#1104=VECTOR('',#1103,3.000000000000000);
#1105=LINE('',#1102,#1104);
#1106=EDGE_CURVE('',#1099,#1101,#1105,.T.);
#1107=ORIENTED_EDGE('',*,*,#1106,.F.);
#1108=CARTESIAN_POINT('',(-3.200000000000000,1.500000000000000,0.0));
#1109=VERTEX_POINT('',#1108);
#1110=CARTESIAN_POINT('',(-3.200000000000000,1.500000000000000,0.0));
#1111=DIRECTION('',(0.0,0.0,1.0));
#1112=VECTOR('',#1111,0.500000000000000);
#1113=LINE('',#1110,#1112);
#1114=EDGE_CURVE('',#1109,#1099,#1113,.T.);
#1115=ORIENTED_EDGE('',*,*,#1114,.F.);
#1116=CARTESIAN_POINT('',(-3.200000000000000,-1.500000000000000,0.0));
#1117=VERTEX_POINT('',#1116);
#1118=CARTESIAN_POINT('',(-3.200000000000000,-1.500000000000000,0.0));
#1119=DIRECTION('',(0.0,1.0,0.0));
#1120=VECTOR('',#1119,3.000000000000000);
#1121=LINE('',#1118,#1120);
#1122=EDGE_CURVE('',#1117,#1109,#1121,.T.);
#1123=ORIENTED_EDGE('',*,*,#1122,.F.);
#1124=CARTESIAN_POINT('',(-3.200000000000000,-1.500000000000000,0.0));
#1125=DIRECTION('',(0.0,0.0,1.0));
#1126=VECTOR('',#1125,0.500000000000000);
#1127=LINE('',#1124,#1126);
#1128=EDGE_CURVE('',#1117,#1101,#1127,.T.);
#1129=ORIENTED_EDGE('',*,*,#1128,.T.);
#1130=EDGE_LOOP('',(#1107,#1115,#1123,#1129));
#1131=FACE_OUTER_BOUND('',#1130,.T.);
#1132=ADVANCED_FACE('',(#1131),#1097,.F.);
#1133=CARTESIAN_POINT('',(-3.200000000000000,-1.500000000000000,0.0));
#1134=DIRECTION('',(0.0,-1.0,0.0));
#1135=DIRECTION('',(0.0,0.0,-1.0));
#1136=AXIS2_PLACEMENT_3D('',#1133,#1134,#1135);
#1137=PLANE('',#1136);
#1138=CARTESIAN_POINT('',(-3.200000000000000,-1.500000000000000,0.500000000000000));
#1139=DIRECTION('',(-1.0,0.0,0.0));
#1140=VECTOR('',#1139,2.000000000000000);
#1141=LINE('',#1138,#1140);
#1142=EDGE_CURVE('',#1101,#822,#1141,.T.);
#1143=ORIENTED_EDGE('',*,*,#1142,.F.);
#1144=ORIENTED_EDGE('',*,*,#1128,.F.);
#1145=CARTESIAN_POINT('',(-5.200000000000000,-1.500000000000000,0.0));
#1146=DIRECTION('',(1.0,0.0,0.0));
#1147=VECTOR('',#1146,2.000000000000000);
#1148=LINE('',#1145,#1147);
#1149=EDGE_CURVE('',#830,#1117,#1148,.T.);
#1150=ORIENTED_EDGE('',*,*,#1149,.F.);
#1151=ORIENTED_EDGE('',*,*,#835,.F.);
#1152=EDGE_LOOP('',(#1143,#1144,#1150,#1151));
#1153=FACE_OUTER_BOUND('',#1152,.T.);
#1154=ADVANCED_FACE('',(#1153),#1137,.F.);
#1155=CARTESIAN_POINT('',(-5.200000000000000,1.500000000000000,0.0));
#1156=DIRECTION('',(0.0,1.0,0.0));
#1157=DIRECTION('',(0.0,0.0,1.0));
#1158=AXIS2_PLACEMENT_3D('',#1155,#1156,#1157);
#1159=PLANE('',#1158);
#1160=CARTESIAN_POINT('',(-5.200000000000000,1.500000000000000,0.500000000000000));
#1161=DIRECTION('',(1.0,0.0,0.0));
#1162=VECTOR('',#1161,2.000000000000000);
#1163=LINE('',#1160,#1162);
#1164=EDGE_CURVE('',#814,#1099,#1163,.T.);
#1165=ORIENTED_EDGE('',*,*,#1164,.F.);
#1166=ORIENTED_EDGE('',*,*,#819,.F.);
#1167=CARTESIAN_POINT('',(-3.200000000000000,1.500000000000000,0.0));
#1168=DIRECTION('',(-1.0,0.0,0.0));
#1169=VECTOR('',#1168,2.000000000000000);
#1170=LINE('',#1167,#1169);
#1171=EDGE_CURVE('',#1109,#812,#1170,.T.);
#1172=ORIENTED_EDGE('',*,*,#1171,.F.);
#1173=ORIENTED_EDGE('',*,*,#1114,.T.);
#1174=EDGE_LOOP('',(#1165,#1166,#1172,#1173));
#1175=FACE_OUTER_BOUND('',#1174,.T.);
#1176=ADVANCED_FACE('',(#1175),#1159,.F.);
#1177=CARTESIAN_POINT('',(-4.200000000000001,0.0,0.500000000000000));
#1178=DIRECTION('',(0.0,0.0,1.0));
#1179=DIRECTION('',(1.0,0.0,0.0));
#1180=AXIS2_PLACEMENT_3D('',#1177,#1178,#1179);
#1181=PLANE('',#1180);
#1182=ORIENTED_EDGE('',*,*,#1106,.T.);
#1183=ORIENTED_EDGE('',*,*,#1142,.T.);
#1184=ORIENTED_EDGE('',*,*,#827,.F.);
#1185=ORIENTED_EDGE('',*,*,#1164,.T.);
#1186=EDGE_LOOP('',(#1182,#1183,#1184,#1185));
#1187=FACE_OUTER_BOUND('',#1186,.T.);
#1188=ADVANCED_FACE('',(#1187),#1181,.F.);
#1189=CARTESIAN_POINT('',(5.551115E-016,-9.436896E-016,4.900000000000000));
#1190=DIRECTION('',(0.0,0.0,1.0));
#1191=DIRECTION('',(1.0,0.0,0.0));
#1192=AXIS2_PLACEMENT_3D('',#1189,#1190,#1191);
#1193=PLANE('',#1192);
#1194=ORIENTED_EDGE('',*,*,#972,.T.);
#1195=ORIENTED_EDGE('',*,*,#621,.T.);
#1196=EDGE_LOOP('',(#1194,#1195));
#1197=FACE_OUTER_BOUND('',#1196,.T.);
#1198=ADVANCED_FACE('',(#1197),#1193,.T.);
#1199=CARTESIAN_POINT('',(5.551115E-016,-9.436896E-016,0.0));
#1200=DIRECTION('',(0.0,0.0,1.0));
#1201=DIRECTION('',(1.0,0.0,0.0));
#1202=AXIS2_PLACEMENT_3D('',#1199,#1200,#1201);
#1203=PLANE('',#1202);
#1204=ORIENTED_EDGE('',*,*,#1075,.T.);
#1205=ORIENTED_EDGE('',*,*,#708,.F.);
#1206=ORIENTED_EDGE('',*,*,#738,.F.);
#1207=ORIENTED_EDGE('',*,*,#769,.F.);
#1208=ORIENTED_EDGE('',*,*,#800,.F.);
#1209=ORIENTED_EDGE('',*,*,#841,.F.);
#1210=ORIENTED_EDGE('',*,*,#1149,.T.);
#1211=ORIENTED_EDGE('',*,*,#1122,.T.);
#1212=ORIENTED_EDGE('',*,*,#1171,.T.);
#1213=ORIENTED_EDGE('',*,*,#864,.F.);
#1214=ORIENTED_EDGE('',*,*,#894,.F.);
#1215=ORIENTED_EDGE('',*,*,#925,.F.);
#1216=ORIENTED_EDGE('',*,*,#947,.F.);
#1217=ORIENTED_EDGE('',*,*,#678,.F.);
#1218=ORIENTED_EDGE('',*,*,#1053,.T.);
#1219=ORIENTED_EDGE('',*,*,#1026,.T.);
#1220=EDGE_LOOP('',(#1204,#1205,#1206,#1207,#1208,#1209,#1210,#1211,#1212,#1213,#1214,#1215,#1216,#1217,#1218,#1219));
#1221=FACE_OUTER_BOUND('',#1220,.T.);
#1222=ADVANCED_FACE('',(#1221),#1203,.F.);
#1223=CLOSED_SHELL('',(#640,#712,#743,#774,#805,#868,#899,#930,#952,#976,#996,#1036,#1058,#1080,#1092,#1132,#1154,#1176,#1188,#1198,#1222));
#1224=MANIFOLD_SOLID_BREP('9D3',#1223);
#1225=STYLED_ITEM('NONE',(#595),#1224);
#1226=CARTESIAN_POINT('',(3.200000000000000,-1.500000000000000,0.0));
#1227=DIRECTION('',(-1.0,0.0,0.0));
#1228=DIRECTION('',(0.0,0.0,1.0));
#1229=AXIS2_PLACEMENT_3D('',#1226,#1227,#1228);
#1230=PLANE('',#1229);
#1231=CARTESIAN_POINT('',(3.200000000000000,-1.500000000000000,0.500000000000000));
#1232=VERTEX_POINT('',#1231);
#1233=CARTESIAN_POINT('',(3.200000000000000,1.500000000000000,0.500000000000000));
#1234=VERTEX_POINT('',#1233);
#1235=CARTESIAN_POINT('',(3.200000000000000,-1.500000000000000,0.500000000000000));
#1236=DIRECTION('',(0.0,1.0,0.0));
#1237=VECTOR('',#1236,3.0);
#1238=LINE('',#1235,#1237);
#1239=EDGE_CURVE('',#1232,#1234,#1238,.T.);
#1240=ORIENTED_EDGE('',*,*,#1239,.T.);
#1241=CARTESIAN_POINT('',(3.200000000000000,1.500000000000000,0.0));
#1242=VERTEX_POINT('',#1241);
#1243=CARTESIAN_POINT('',(3.200000000000000,1.500000000000000,0.0));
#1244=DIRECTION('',(0.0,0.0,1.0));
#1245=VECTOR('',#1244,0.500000000000000);
#1246=LINE('',#1243,#1245);
#1247=EDGE_CURVE('',#1242,#1234,#1246,.T.);
#1248=ORIENTED_EDGE('',*,*,#1247,.F.);
#1249=CARTESIAN_POINT('',(3.200000000000000,-1.500000000000000,0.0));
#1250=VERTEX_POINT('',#1249);
#1251=CARTESIAN_POINT('',(3.200000000000000,-1.500000000000000,0.0));
#1252=DIRECTION('',(0.0,1.0,0.0));
#1253=VECTOR('',#1252,3.0);
#1254=LINE('',#1251,#1253);
#1255=EDGE_CURVE('',#1250,#1242,#1254,.T.);
#1256=ORIENTED_EDGE('',*,*,#1255,.F.);
#1257=CARTESIAN_POINT('',(3.200000000000000,-1.500000000000000,0.0));
#1258=DIRECTION('',(0.0,0.0,1.0));
#1259=VECTOR('',#1258,0.500000000000000);
#1260=LINE('',#1257,#1259);
#1261=EDGE_CURVE('',#1250,#1232,#1260,.T.);
#1262=ORIENTED_EDGE('',*,*,#1261,.T.);
#1263=EDGE_LOOP('',(#1240,#1248,#1256,#1262));
#1264=FACE_OUTER_BOUND('',#1263,.T.);
#1265=ADVANCED_FACE('',(#1264),#1230,.T.);
#1266=CARTESIAN_POINT('',(3.200000000000000,1.500000000000000,0.0));
#1267=DIRECTION('',(0.0,1.0,0.0));
#1268=DIRECTION('',(0.0,0.0,1.0));
#1269=AXIS2_PLACEMENT_3D('',#1266,#1267,#1268);
#1270=PLANE('',#1269);
#1271=CARTESIAN_POINT('',(5.200000000000000,1.500000000000000,0.500000000000000));
#1272=VERTEX_POINT('',#1271);
#1273=CARTESIAN_POINT('',(3.200000000000000,1.500000000000000,0.500000000000000));
#1274=DIRECTION('',(1.0,0.0,0.0));
#1275=VECTOR('',#1274,2.0);
#1276=LINE('',#1273,#1275);
#1277=EDGE_CURVE('',#1234,#1272,#1276,.T.);
#1278=ORIENTED_EDGE('',*,*,#1277,.T.);
#1279=CARTESIAN_POINT('',(5.200000000000000,1.500000000000000,0.0));
#1280=VERTEX_POINT('',#1279);
#1281=CARTESIAN_POINT('',(5.200000000000000,1.500000000000000,0.0));
#1282=DIRECTION('',(0.0,0.0,1.0));
#1283=VECTOR('',#1282,0.500000000000000);
#1284=LINE('',#1281,#1283);
#1285=EDGE_CURVE('',#1280,#1272,#1284,.T.);
#1286=ORIENTED_EDGE('',*,*,#1285,.F.);
#1287=CARTESIAN_POINT('',(3.200000000000000,1.500000000000000,0.0));
#1288=DIRECTION('',(1.0,0.0,0.0));
#1289=VECTOR('',#1288,2.0);
#1290=LINE('',#1287,#1289);
#1291=EDGE_CURVE('',#1242,#1280,#1290,.T.);
#1292=ORIENTED_EDGE('',*,*,#1291,.F.);
#1293=ORIENTED_EDGE('',*,*,#1247,.T.);
#1294=EDGE_LOOP('',(#1278,#1286,#1292,#1293));
#1295=FACE_OUTER_BOUND('',#1294,.T.);
#1296=ADVANCED_FACE('',(#1295),#1270,.T.);
#1297=CARTESIAN_POINT('',(5.200000000000000,1.500000000000000,0.0));
#1298=DIRECTION('',(1.0,0.0,0.0));
#1299=DIRECTION('',(0.0,0.0,-1.0));
#1300=AXIS2_PLACEMENT_3D('',#1297,#1298,#1299);
#1301=PLANE('',#1300);
#1302=CARTESIAN_POINT('',(5.200000000000000,-1.500000000000000,0.500000000000000));
#1303=VERTEX_POINT('',#1302);
#1304=CARTESIAN_POINT('',(5.200000000000000,1.500000000000000,0.500000000000000));
#1305=DIRECTION('',(0.0,-1.0,0.0));
#1306=VECTOR('',#1305,3.0);
#1307=LINE('',#1304,#1306);
#1308=EDGE_CURVE('',#1272,#1303,#1307,.T.);
#1309=ORIENTED_EDGE('',*,*,#1308,.T.);
#1310=CARTESIAN_POINT('',(5.200000000000000,-1.500000000000000,0.0));
#1311=VERTEX_POINT('',#1310);
#1312=CARTESIAN_POINT('',(5.200000000000000,-1.500000000000000,0.0));
#1313=DIRECTION('',(0.0,0.0,1.0));
#1314=VECTOR('',#1313,0.500000000000000);
#1315=LINE('',#1312,#1314);
#1316=EDGE_CURVE('',#1311,#1303,#1315,.T.);
#1317=ORIENTED_EDGE('',*,*,#1316,.F.);
#1318=CARTESIAN_POINT('',(5.200000000000000,1.500000000000000,0.0));
#1319=DIRECTION('',(0.0,-1.0,0.0));
#1320=VECTOR('',#1319,3.0);
#1321=LINE('',#1318,#1320);
#1322=EDGE_CURVE('',#1280,#1311,#1321,.T.);
#1323=ORIENTED_EDGE('',*,*,#1322,.F.);
#1324=ORIENTED_EDGE('',*,*,#1285,.T.);
#1325=EDGE_LOOP('',(#1309,#1317,#1323,#1324));
#1326=FACE_OUTER_BOUND('',#1325,.T.);
#1327=ADVANCED_FACE('',(#1326),#1301,.T.);
#1328=CARTESIAN_POINT('',(5.200000000000000,-1.500000000000000,0.0));
#1329=DIRECTION('',(0.0,-1.0,0.0));
#1330=DIRECTION('',(0.0,0.0,-1.0));
#1331=AXIS2_PLACEMENT_3D('',#1328,#1329,#1330);
#1332=PLANE('',#1331);
#1333=CARTESIAN_POINT('',(5.200000000000000,-1.500000000000000,0.500000000000000));
#1334=DIRECTION('',(-1.0,0.0,0.0));
#1335=VECTOR('',#1334,2.000000000000000);
#1336=LINE('',#1333,#1335);
#1337=EDGE_CURVE('',#1303,#1232,#1336,.T.);
#1338=ORIENTED_EDGE('',*,*,#1337,.T.);
#1339=ORIENTED_EDGE('',*,*,#1261,.F.);
#1340=CARTESIAN_POINT('',(5.200000000000000,-1.500000000000000,0.0));
#1341=DIRECTION('',(-1.0,0.0,0.0));
#1342=VECTOR('',#1341,2.000000000000000);
#1343=LINE('',#1340,#1342);
#1344=EDGE_CURVE('',#1311,#1250,#1343,.T.);
#1345=ORIENTED_EDGE('',*,*,#1344,.F.);
#1346=ORIENTED_EDGE('',*,*,#1316,.T.);
#1347=EDGE_LOOP('',(#1338,#1339,#1345,#1346));
#1348=FACE_OUTER_BOUND('',#1347,.T.);
#1349=ADVANCED_FACE('',(#1348),#1332,.T.);
#1350=CARTESIAN_POINT('',(4.200000000000000,1.211152E-017,0.500000000000000));
#1351=DIRECTION('',(0.0,0.0,1.0));
#1352=DIRECTION('',(1.0,0.0,0.0));
#1353=AXIS2_PLACEMENT_3D('',#1350,#1351,#1352);
#1354=PLANE('',#1353);
#1355=ORIENTED_EDGE('',*,*,#1239,.F.);
#1356=ORIENTED_EDGE('',*,*,#1337,.F.);
#1357=ORIENTED_EDGE('',*,*,#1308,.F.);
#1358=ORIENTED_EDGE('',*,*,#1277,.F.);
#1359=EDGE_LOOP('',(#1355,#1356,#1357,#1358));
#1360=FACE_OUTER_BOUND('',#1359,.T.);
#1361=ADVANCED_FACE('',(#1360),#1354,.T.);
#1362=CARTESIAN_POINT('',(4.200000000000000,1.211152E-017,0.0));
#1363=DIRECTION('',(0.0,0.0,1.0));
#1364=DIRECTION('',(1.0,0.0,0.0));
#1365=AXIS2_PLACEMENT_3D('',#1362,#1363,#1364);
#1366=PLANE('',#1365);
#1367=ORIENTED_EDGE('',*,*,#1344,.T.);
#1368=ORIENTED_EDGE('',*,*,#1255,.T.);
#1369=ORIENTED_EDGE('',*,*,#1291,.T.);
#1370=ORIENTED_EDGE('',*,*,#1322,.T.);
#1371=EDGE_LOOP('',(#1367,#1368,#1369,#1370));
#1372=FACE_OUTER_BOUND('',#1371,.T.);
#1373=ADVANCED_FACE('',(#1372),#1366,.F.);
#1374=CLOSED_SHELL('',(#1265,#1296,#1327,#1349,#1361,#1373));
#1375=MANIFOLD_SOLID_BREP('9D2',#1374);
#1376=COLOUR_RGB('253',0.732000000000000,0.732000000000000,0.732000000000000);
#1377=SURFACE_STYLE_USAGE(.BOTH.,#1378);
#1378=SURFACE_SIDE_STYLE('NONE',(#1379));
#1379=SURFACE_STYLE_FILL_AREA(#1380);
#1380=FILL_AREA_STYLE('NONE',(#1381));
#1381=FILL_AREA_STYLE_COLOUR('NONE',#1376);
#1382=PRESENTATION_STYLE_ASSIGNMENT((#1377));
#1383=STYLED_ITEM('NONE',(#1382),#1375);
#1384=CARTESIAN_POINT('',(-3.200000000000000,1.500000000000000,0.0));
#1385=DIRECTION('',(1.0,0.0,0.0));
#1386=DIRECTION('',(0.0,0.0,-1.0));
#1387=AXIS2_PLACEMENT_3D('',#1384,#1385,#1386);
#1388=PLANE('',#1387);
#1389=CARTESIAN_POINT('',(-3.200000000000000,1.500000000000000,0.500000000000000));
#1390=VERTEX_POINT('',#1389);
#1391=CARTESIAN_POINT('',(-3.200000000000000,-1.500000000000000,0.500000000000000));
#1392=VERTEX_POINT('',#1391);
#1393=CARTESIAN_POINT('',(-3.200000000000000,1.500000000000000,0.500000000000000));
#1394=DIRECTION('',(0.0,-1.0,0.0));
#1395=VECTOR('',#1394,3.000000000000000);
#1396=LINE('',#1393,#1395);
#1397=EDGE_CURVE('',#1390,#1392,#1396,.T.);
#1398=ORIENTED_EDGE('',*,*,#1397,.T.);
#1399=CARTESIAN_POINT('',(-3.200000000000000,-1.500000000000000,0.0));
#1400=VERTEX_POINT('',#1399);
#1401=CARTESIAN_POINT('',(-3.200000000000000,-1.500000000000000,0.0));
#1402=DIRECTION('',(0.0,0.0,1.0));
#1403=VECTOR('',#1402,0.500000000000000);
#1404=LINE('',#1401,#1403);
#1405=EDGE_CURVE('',#1400,#1392,#1404,.T.);
#1406=ORIENTED_EDGE('',*,*,#1405,.F.);
#1407=CARTESIAN_POINT('',(-3.200000000000000,1.500000000000000,0.0));
#1408=VERTEX_POINT('',#1407);
#1409=CARTESIAN_POINT('',(-3.200000000000000,-1.500000000000000,0.0));
#1410=DIRECTION('',(0.0,1.0,0.0));
#1411=VECTOR('',#1410,3.000000000000000);
#1412=LINE('',#1409,#1411);
#1413=EDGE_CURVE('',#1400,#1408,#1412,.T.);
#1414=ORIENTED_EDGE('',*,*,#1413,.T.);
#1415=CARTESIAN_POINT('',(-3.200000000000000,1.500000000000000,0.0));
#1416=DIRECTION('',(0.0,0.0,1.0));
#1417=VECTOR('',#1416,0.500000000000000);
#1418=LINE('',#1415,#1417);
#1419=EDGE_CURVE('',#1408,#1390,#1418,.T.);
#1420=ORIENTED_EDGE('',*,*,#1419,.T.);
#1421=EDGE_LOOP('',(#1398,#1406,#1414,#1420));
#1422=FACE_OUTER_BOUND('',#1421,.T.);
#1423=ADVANCED_FACE('',(#1422),#1388,.T.);
#1424=CARTESIAN_POINT('',(-3.200000000000000,-1.500000000000000,0.0));
#1425=DIRECTION('',(0.0,-1.0,0.0));
#1426=DIRECTION('',(0.0,0.0,-1.0));
#1427=AXIS2_PLACEMENT_3D('',#1424,#1425,#1426);
#1428=PLANE('',#1427);
#1429=CARTESIAN_POINT('',(-5.200000000000000,-1.500000000000000,0.500000000000000));
#1430=VERTEX_POINT('',#1429);
#1431=CARTESIAN_POINT('',(-3.200000000000000,-1.500000000000000,0.500000000000000));
#1432=DIRECTION('',(-1.0,0.0,0.0));
#1433=VECTOR('',#1432,2.000000000000000);
#1434=LINE('',#1431,#1433);
#1435=EDGE_CURVE('',#1392,#1430,#1434,.T.);
#1436=ORIENTED_EDGE('',*,*,#1435,.T.);
#1437=CARTESIAN_POINT('',(-5.200000000000000,-1.500000000000000,0.0));
#1438=VERTEX_POINT('',#1437);
#1439=CARTESIAN_POINT('',(-5.200000000000000,-1.500000000000000,0.0));
#1440=DIRECTION('',(0.0,0.0,1.0));
#1441=VECTOR('',#1440,0.500000000000000);
#1442=LINE('',#1439,#1441);
#1443=EDGE_CURVE('',#1438,#1430,#1442,.T.);
#1444=ORIENTED_EDGE('',*,*,#1443,.F.);
#1445=CARTESIAN_POINT('',(-5.200000000000000,-1.500000000000000,0.0));
#1446=DIRECTION('',(1.0,0.0,0.0));
#1447=VECTOR('',#1446,2.000000000000000);
#1448=LINE('',#1445,#1447);
#1449=EDGE_CURVE('',#1438,#1400,#1448,.T.);
#1450=ORIENTED_EDGE('',*,*,#1449,.T.);
#1451=ORIENTED_EDGE('',*,*,#1405,.T.);
#1452=EDGE_LOOP('',(#1436,#1444,#1450,#1451));
#1453=FACE_OUTER_BOUND('',#1452,.T.);
#1454=ADVANCED_FACE('',(#1453),#1428,.T.);
#1455=CARTESIAN_POINT('',(-5.200000000000000,-1.500000000000000,0.0));
#1456=DIRECTION('',(-1.0,0.0,0.0));
#1457=DIRECTION('',(0.0,0.0,1.0));
#1458=AXIS2_PLACEMENT_3D('',#1455,#1456,#1457);
#1459=PLANE('',#1458);
#1460=CARTESIAN_POINT('',(-5.200000000000000,1.500000000000000,0.500000000000000));
#1461=VERTEX_POINT('',#1460);
#1462=CARTESIAN_POINT('',(-5.200000000000000,-1.500000000000000,0.500000000000000));
#1463=DIRECTION('',(0.0,1.0,0.0));
#1464=VECTOR('',#1463,3.0);
#1465=LINE('',#1462,#1464);
#1466=EDGE_CURVE('',#1430,#1461,#1465,.T.);
#1467=ORIENTED_EDGE('',*,*,#1466,.T.);
#1468=CARTESIAN_POINT('',(-5.200000000000000,1.500000000000000,0.0));
#1469=VERTEX_POINT('',#1468);
#1470=CARTESIAN_POINT('',(-5.200000000000000,1.500000000000000,0.0));
#1471=DIRECTION('',(0.0,0.0,1.0));
#1472=VECTOR('',#1471,0.500000000000000);
#1473=LINE('',#1470,#1472);
#1474=EDGE_CURVE('',#1469,#1461,#1473,.T.);
#1475=ORIENTED_EDGE('',*,*,#1474,.F.);
#1476=CARTESIAN_POINT('',(-5.200000000000000,1.500000000000000,0.0));
#1477=DIRECTION('',(0.0,-1.0,0.0));
#1478=VECTOR('',#1477,3.0);
#1479=LINE('',#1476,#1478);
#1480=EDGE_CURVE('',#1469,#1438,#1479,.T.);
#1481=ORIENTED_EDGE('',*,*,#1480,.T.);
#1482=ORIENTED_EDGE('',*,*,#1443,.T.);
#1483=EDGE_LOOP('',(#1467,#1475,#1481,#1482));
#1484=FACE_OUTER_BOUND('',#1483,.T.);
#1485=ADVANCED_FACE('',(#1484),#1459,.T.);
#1486=CARTESIAN_POINT('',(-5.200000000000000,1.500000000000000,0.0));
#1487=DIRECTION('',(0.0,1.0,0.0));
#1488=DIRECTION('',(0.0,0.0,1.0));
#1489=AXIS2_PLACEMENT_3D('',#1486,#1487,#1488);
#1490=PLANE('',#1489);
#1491=CARTESIAN_POINT('',(-5.200000000000000,1.500000000000000,0.500000000000000));
#1492=DIRECTION('',(1.0,0.0,0.0));
#1493=VECTOR('',#1492,2.000000000000000);
#1494=LINE('',#1491,#1493);
#1495=EDGE_CURVE('',#1461,#1390,#1494,.T.);
#1496=ORIENTED_EDGE('',*,*,#1495,.T.);
#1497=ORIENTED_EDGE('',*,*,#1419,.F.);
#1498=CARTESIAN_POINT('',(-3.200000000000000,1.500000000000000,0.0));
#1499=DIRECTION('',(-1.0,0.0,0.0));
#1500=VECTOR('',#1499,2.000000000000000);
#1501=LINE('',#1498,#1500);
#1502=EDGE_CURVE('',#1408,#1469,#1501,.T.);
#1503=ORIENTED_EDGE('',*,*,#1502,.T.);
#1504=ORIENTED_EDGE('',*,*,#1474,.T.);
#1505=EDGE_LOOP('',(#1496,#1497,#1503,#1504));
#1506=FACE_OUTER_BOUND('',#1505,.T.);
#1507=ADVANCED_FACE('',(#1506),#1490,.T.);
#1508=CARTESIAN_POINT('',(-4.200000000000001,0.0,0.500000000000000));
#1509=DIRECTION('',(0.0,0.0,1.0));
#1510=DIRECTION('',(1.0,0.0,0.0));
#1511=AXIS2_PLACEMENT_3D('',#1508,#1509,#1510);
#1512=PLANE('',#1511);
#1513=ORIENTED_EDGE('',*,*,#1397,.F.);
#1514=ORIENTED_EDGE('',*,*,#1495,.F.);
#1515=ORIENTED_EDGE('',*,*,#1466,.F.);
#1516=ORIENTED_EDGE('',*,*,#1435,.F.);
#1517=EDGE_LOOP('',(#1513,#1514,#1515,#1516));
#1518=FACE_OUTER_BOUND('',#1517,.T.);
#1519=ADVANCED_FACE('',(#1518),#1512,.T.);
#1520=CARTESIAN_POINT('',(-4.200000000000001,0.0,0.0));
#1521=DIRECTION('',(0.0,0.0,1.0));
#1522=DIRECTION('',(1.0,0.0,0.0));
#1523=AXIS2_PLACEMENT_3D('',#1520,#1521,#1522);
#1524=PLANE('',#1523);
#1525=ORIENTED_EDGE('',*,*,#1502,.F.);
#1526=ORIENTED_EDGE('',*,*,#1413,.F.);
#1527=ORIENTED_EDGE('',*,*,#1449,.F.);
#1528=ORIENTED_EDGE('',*,*,#1480,.F.);
#1529=EDGE_LOOP('',(#1525,#1526,#1527,#1528));
#1530=FACE_OUTER_BOUND('',#1529,.T.);
#1531=ADVANCED_FACE('',(#1530),#1524,.F.);
#1532=CLOSED_SHELL('',(#1423,#1454,#1485,#1507,#1519,#1531));
#1533=MANIFOLD_SOLID_BREP('9D1',#1532);
#1534=STYLED_ITEM('NONE',(#1382),#1533);
#1535=ADVANCED_BREP_SHAPE_REPRESENTATION('ABSR1',(#588,#1224,#1375,#1533),#28);
#1536=SHAPE_REPRESENTATION_RELATIONSHIP('SRRPL1','',#1535,#62);
ENDSEC;
END-ISO-10303-21;
