ISO-10303-21;
HEADER;
/****************************************************************
 * Generated by software with PDE/Lib inside                    *
 * PDE/Lib Version 3.2.2, created Thu Mar 23, 2000 at 18:38:49  *
 * International Technegroup Inc. (www.iti-oh.com)              *
 ****************************************************************/
FILE_DESCRIPTION((''),'2;1');
FILE_NAME('IND_FERROXCUBE_WBC2.stp','2009-08-27T11:00:03',(''),(''),'Mechanical Desktop 2006','Mechanical Desktop 2006',', , ');
FILE_SCHEMA(('AUTOMOTIVE_DESIGN { 1 2 10303 214 0 1 1 1 }'));
ENDSEC;
DATA;
#8=(NAMED_UNIT(*)PLANE_ANGLE_UNIT()SI_UNIT($,.RADIAN.));
#9=DIMENSIONAL_EXPONENTS(0.0,0.0,0.0,0.0,0.0,0.0,0.0);
#10=PLANE_ANGLE_MEASURE_WITH_UNIT(PLANE_ANGLE_MEASURE(0.017453292500000),#8);
#14=(CONVERSION_BASED_UNIT('DEGREE',#10)NAMED_UNIT(#9)PLANE_ANGLE_UNIT());
#18=(NAMED_UNIT(*)SI_UNIT($,.STERADIAN.)SOLID_ANGLE_UNIT());
#22=(LENGTH_UNIT()NAMED_UNIT(*)SI_UNIT(.MILLI.,.METRE.));
#23=UNCERTAINTY_MEASURE_WITH_UNIT(LENGTH_MEASURE(0.000001000000000),#22,'DISTANCE_ACCURACY_VALUE','');
#28=(GEOMETRIC_REPRESENTATION_CONTEXT(3)GLOBAL_UNCERTAINTY_ASSIGNED_CONTEXT((#23))GLOBAL_UNIT_ASSIGNED_CONTEXT((#14,#18,#22))REPRESENTATION_CONTEXT('None','None'));
#29=APPLICATION_CONTEXT('automotive design');
#30=APPLICATION_PROTOCOL_DEFINITION('DRAFT_INTERNATIONAL_STANDARD','automotive_design',1998,#29);
#31=PRODUCT_CONTEXT('3D Mechanical Parts',#29,'mechanical');
#32=PRODUCT('Product','Product','',(#31));
#33=PRODUCT_RELATED_PRODUCT_CATEGORY('part',$,(#32));
#34=PRODUCT_CATEGORY('part',$);
#35=PERSON('1','Design','Joe',$,$,$);
#36=ORGANIZATION($,'None','None');
#37=PERSON_AND_ORGANIZATION(#35,#36);
#38=PERSON_AND_ORGANIZATION_ROLE('design_owner');
#39=APPLIED_PERSON_AND_ORGANIZATION_ASSIGNMENT(#37,#38,(#32));
#40=PRODUCT_DEFINITION_FORMATION_WITH_SPECIFIED_SOURCE('None','',#32,.BOUGHT.);
#41=PERSON('2','Creator','Joe',$,$,$);
#42=ORGANIZATION($,'None','None');
#43=PERSON_AND_ORGANIZATION(#41,#42);
#44=PERSON_AND_ORGANIZATION_ROLE('creator');
#45=APPLIED_PERSON_AND_ORGANIZATION_ASSIGNMENT(#43,#44,(#40));
#46=PERSON('3','Supplier','Joe',$,$,$);
#47=ORGANIZATION($,'None','None');
#48=PERSON_AND_ORGANIZATION(#46,#47);
#49=PERSON_AND_ORGANIZATION_ROLE('design_supplier');
#50=APPLIED_PERSON_AND_ORGANIZATION_ASSIGNMENT(#48,#49,(#40));
#51=PRODUCT_DEFINITION_CONTEXT('part definition',#29,'design');
#52=PRODUCT_DEFINITION('None','',#40,#51);
#53=PERSON('4','Creator','Joe',$,$,$);
#54=ORGANIZATION($,'None','None');
#55=PERSON_AND_ORGANIZATION(#53,#54);
#56=PERSON_AND_ORGANIZATION_ROLE('creator');
#57=APPLIED_PERSON_AND_ORGANIZATION_ASSIGNMENT(#55,#56,(#52));
#58=CARTESIAN_POINT('NONE',(0.0,0.0,0.0));
#59=DIRECTION('NONE',(0.0,0.0,1.0));
#60=DIRECTION('NONE',(1.0,0.0,0.0));
#61=AXIS2_PLACEMENT_3D('NONE',#58,#59,#60);
#62=SHAPE_REPRESENTATION('SR1',(#61),#28);
#63=PRODUCT_DEFINITION_SHAPE('PDS1','Test Part',#52);
#64=SHAPE_DEFINITION_REPRESENTATION(#63,#62);
#65=CARTESIAN_POINT('',(4.599999999999999,0.000357219311862,2.999543085469183));
#66=DIRECTION('',(-1.295882E-015,1.0,3.415930E-016));
#67=DIRECTION('',(0.0,0.0,1.0));
#68=AXIS2_PLACEMENT_3D('',#65,#66,#67);
#69=TOROIDAL_SURFACE('',#68,1.881760970534474,0.300000000000000);
#70=CARTESIAN_POINT('',(4.599999999999997,0.000357219311862,5.181304056003657));
#71=VERTEX_POINT('',#70);
#72=CARTESIAN_POINT('',(4.600000000000002,0.000357219311863,0.817782114934709));
#73=VERTEX_POINT('',#72);
#74=CARTESIAN_POINT('',(4.599999999999999,0.000357219311862,2.999543085469183));
#75=DIRECTION('',(0.0,1.0,0.0));
#76=DIRECTION('',(0.0,0.0,1.0));
#77=AXIS2_PLACEMENT_3D('',#74,#75,#76);
#78=CIRCLE('',#77,2.181760970534474);
#79=EDGE_CURVE('',#71,#73,#78,.T.);
#80=ORIENTED_EDGE('',*,*,#79,.F.);
#81=CARTESIAN_POINT('',(4.599999999999997,-0.299642780688138,4.881304056003657));
#82=VERTEX_POINT('',#81);
#83=CARTESIAN_POINT('',(4.599999999999997,0.000357219311862,4.881304056003657));
#84=DIRECTION('',(-1.0,0.0,0.0));
#85=DIRECTION('',(0.0,-1.0,0.0));
#86=AXIS2_PLACEMENT_3D('',#83,#84,#85);
#87=CIRCLE('',#86,0.300000000000000);
#88=EDGE_CURVE('',#82,#71,#87,.T.);
#89=ORIENTED_EDGE('',*,*,#88,.F.);
#90=CARTESIAN_POINT('',(4.599999999999997,0.000357219311862,4.581304056003657));
#91=VERTEX_POINT('',#90);
#92=CARTESIAN_POINT('',(4.599999999999997,0.000357219311862,4.881304056003657));
#93=DIRECTION('',(-1.0,0.0,0.0));
#94=DIRECTION('',(0.0,-1.0,0.0));
#95=AXIS2_PLACEMENT_3D('',#92,#93,#94);
#96=CIRCLE('',#95,0.300000000000000);
#97=EDGE_CURVE('',#91,#82,#96,.T.);
#98=ORIENTED_EDGE('',*,*,#97,.F.);
#99=CARTESIAN_POINT('',(4.600000000000001,0.000357219311863,1.417782114934709));
#100=VERTEX_POINT('',#99);
#101=CARTESIAN_POINT('',(4.599999999999999,0.000357219311862,2.999543085469183));
#102=DIRECTION('',(0.0,-1.0,0.0));
#103=DIRECTION('',(0.0,0.0,1.0));
#104=AXIS2_PLACEMENT_3D('',#101,#102,#103);
#105=CIRCLE('',#104,1.581760970534474);
#106=EDGE_CURVE('',#100,#91,#105,.T.);
#107=ORIENTED_EDGE('',*,*,#106,.F.);
#108=CARTESIAN_POINT('',(4.600000000000001,-0.299642780688137,1.117782114934709));
#109=VERTEX_POINT('',#108);
#110=CARTESIAN_POINT('',(4.600000000000001,0.000357219311863,1.117782114934709));
#111=DIRECTION('',(1.0,0.0,0.0));
#112=DIRECTION('',(0.0,-1.0,0.0));
#113=AXIS2_PLACEMENT_3D('',#110,#111,#112);
#114=CIRCLE('',#113,0.300000000000000);
#115=EDGE_CURVE('',#100,#109,#114,.T.);
#116=ORIENTED_EDGE('',*,*,#115,.T.);
#117=CARTESIAN_POINT('',(4.600000000000001,0.000357219311863,1.117782114934709));
#118=DIRECTION('',(1.0,0.0,0.0));
#119=DIRECTION('',(0.0,-1.0,0.0));
#120=AXIS2_PLACEMENT_3D('',#117,#118,#119);
#121=CIRCLE('',#120,0.300000000000000);
#122=EDGE_CURVE('',#109,#73,#121,.T.);
#123=ORIENTED_EDGE('',*,*,#122,.T.);
#124=EDGE_LOOP('',(#80,#89,#98,#107,#116,#123));
#125=FACE_OUTER_BOUND('',#124,.T.);
#126=ADVANCED_FACE('',(#125),#69,.T.);
#127=CARTESIAN_POINT('',(4.599999999999999,0.000357219311862,2.999543085469183));
#128=DIRECTION('',(-1.295882E-015,1.0,3.415930E-016));
#129=DIRECTION('',(0.0,0.0,1.0));
#130=AXIS2_PLACEMENT_3D('',#127,#128,#129);
#131=TOROIDAL_SURFACE('',#130,1.881760970534474,0.300000000000000);
#132=ORIENTED_EDGE('',*,*,#79,.T.);
#133=CARTESIAN_POINT('',(4.600000000000001,0.000357219311863,1.117782114934709));
#134=DIRECTION('',(1.0,0.0,0.0));
#135=DIRECTION('',(0.0,-1.0,0.0));
#136=AXIS2_PLACEMENT_3D('',#133,#134,#135);
#137=CIRCLE('',#136,0.300000000000000);
#138=EDGE_CURVE('',#73,#100,#137,.T.);
#139=ORIENTED_EDGE('',*,*,#138,.T.);
#140=ORIENTED_EDGE('',*,*,#106,.T.);
#141=CARTESIAN_POINT('',(4.599999999999997,0.000357219311862,4.881304056003657));
#142=DIRECTION('',(-1.0,0.0,0.0));
#143=DIRECTION('',(0.0,-1.0,0.0));
#144=AXIS2_PLACEMENT_3D('',#141,#142,#143);
#145=CIRCLE('',#144,0.300000000000000);
#146=EDGE_CURVE('',#71,#91,#145,.T.);
#147=ORIENTED_EDGE('',*,*,#146,.F.);
#148=EDGE_LOOP('',(#132,#139,#140,#147));
#149=FACE_OUTER_BOUND('',#148,.T.);
#150=ADVANCED_FACE('',(#149),#131,.T.);
#151=CARTESIAN_POINT('',(4.600000000000001,0.000357219311863,1.117782114934709));
#152=DIRECTION('',(1.0,0.0,0.0));
#153=DIRECTION('',(0.0,0.0,-1.0));
#154=AXIS2_PLACEMENT_3D('',#151,#152,#153);
#155=PLANE('',#154);
#156=ORIENTED_EDGE('',*,*,#122,.F.);
#157=ORIENTED_EDGE('',*,*,#115,.F.);
#158=ORIENTED_EDGE('',*,*,#138,.F.);
#159=EDGE_LOOP('',(#156,#157,#158));
#160=FACE_OUTER_BOUND('',#159,.T.);
#161=ADVANCED_FACE('',(#160),#155,.F.);
#162=CARTESIAN_POINT('',(4.599999999999997,0.000357219311862,4.881304056003657));
#163=DIRECTION('',(-1.0,0.0,0.0));
#164=DIRECTION('',(0.0,0.0,1.0));
#165=AXIS2_PLACEMENT_3D('',#162,#163,#164);
#166=PLANE('',#165);
#167=ORIENTED_EDGE('',*,*,#88,.T.);
#168=ORIENTED_EDGE('',*,*,#146,.T.);
#169=ORIENTED_EDGE('',*,*,#97,.T.);
#170=EDGE_LOOP('',(#167,#168,#169));
#171=FACE_OUTER_BOUND('',#170,.T.);
#172=ADVANCED_FACE('',(#171),#166,.T.);
#173=CLOSED_SHELL('',(#126,#150,#161,#172));
#174=MANIFOLD_SOLID_BREP('B64',#173);
#175=COLOUR_RGB('253',0.732000000000000,0.732000000000000,0.732000000000000);
#176=SURFACE_STYLE_USAGE(.BOTH.,#177);
#177=SURFACE_SIDE_STYLE('NONE',(#178));
#178=SURFACE_STYLE_FILL_AREA(#179);
#179=FILL_AREA_STYLE('NONE',(#180));
#180=FILL_AREA_STYLE_COLOUR('NONE',#175);
#181=PRESENTATION_STYLE_ASSIGNMENT((#176));
#182=STYLED_ITEM('NONE',(#181),#174);
#183=MECHANICAL_DESIGN_GEOMETRIC_PRESENTATION_REPRESENTATION('NONE',(#182,#295,#308,#317,#428,#539,#740,#941,#1645),#28);
#184=PRESENTATION_LAYER_ASSIGNMENT('3D','None',(#174,#294,#303,#316,#427,#538,#739,#940,#1637));
#185=CARTESIAN_POINT('',(5.000000000000001,-1.269877956941068,2.999344787878444));
#186=DIRECTION('',(1.332856E-016,0.999999945108896,-0.000331333977343));
#187=DIRECTION('',(0.0,0.000331333977343,0.999999945108896));
#188=AXIS2_PLACEMENT_3D('',#185,#186,#187);
#189=TOROIDAL_SURFACE('',#188,1.388973336026104,0.300000000000000);
#190=CARTESIAN_POINT('',(4.999999999999999,-1.269318342688016,4.688318031194937));
#191=VERTEX_POINT('',#190);
#192=CARTESIAN_POINT('',(5.000000000000003,-1.270437571194121,1.310371544561951));
#193=VERTEX_POINT('',#192);
#194=CARTESIAN_POINT('',(5.000000000000001,-1.269877956941068,2.999344787878444));
#195=DIRECTION('',(1.332856E-016,0.999999945108897,-0.000331333977343));
#196=DIRECTION('',(0.0,0.000331333977343,0.999999945108896));
#197=AXIS2_PLACEMENT_3D('',#194,#195,#196);
#198=CIRCLE('',#197,1.688973336026104);
#199=EDGE_CURVE('',#191,#193,#198,.T.);
#200=ORIENTED_EDGE('',*,*,#199,.F.);
#201=CARTESIAN_POINT('',(4.999999999999999,-1.569417742881219,4.388318047662268));
#202=VERTEX_POINT('',#201);
#203=CARTESIAN_POINT('',(4.999999999999999,-1.269417742881219,4.388318047662268));
#204=DIRECTION('',(-1.0,0.0,0.0));
#205=DIRECTION('',(0.0,-1.0,0.0));
#206=AXIS2_PLACEMENT_3D('',#203,#204,#205);
#207=CIRCLE('',#206,0.300000000000000);
#208=EDGE_CURVE('',#202,#191,#207,.T.);
#209=ORIENTED_EDGE('',*,*,#208,.F.);
#210=CARTESIAN_POINT('',(4.999999999999999,-1.269517143074422,4.088318064129599));
#211=VERTEX_POINT('',#210);
#212=CARTESIAN_POINT('',(4.999999999999999,-1.269417742881219,4.388318047662268));
#213=DIRECTION('',(-1.0,0.0,0.0));
#214=DIRECTION('',(0.0,-1.0,0.0));
#215=AXIS2_PLACEMENT_3D('',#212,#213,#214);
#216=CIRCLE('',#215,0.300000000000000);
#217=EDGE_CURVE('',#211,#202,#216,.T.);
#218=ORIENTED_EDGE('',*,*,#217,.F.);
#219=CARTESIAN_POINT('',(5.000000000000003,-1.270238770807715,1.910371511627289));
#220=VERTEX_POINT('',#219);
#221=CARTESIAN_POINT('',(5.000000000000001,-1.269877956941068,2.999344787878444));
#222=DIRECTION('',(-1.332856E-016,-0.999999945108897,0.000331333977343));
#223=DIRECTION('',(0.0,0.000331333977343,0.999999945108896));
#224=AXIS2_PLACEMENT_3D('',#221,#222,#223);
#225=CIRCLE('',#224,1.088973336026104);
#226=EDGE_CURVE('',#220,#211,#225,.T.);
#227=ORIENTED_EDGE('',*,*,#226,.F.);
#228=CARTESIAN_POINT('',(5.000000000000002,-1.570338105131595,1.610570328470114));
#229=VERTEX_POINT('',#228);
#230=CARTESIAN_POINT('',(5.000000000000002,-1.270338171000917,1.610371528094620));
#231=DIRECTION('',(1.0,-1.803459E-015,1.195095E-018));
#232=DIRECTION('',(-1.803459E-015,-0.999999780435591,0.000662667918312));
#233=AXIS2_PLACEMENT_3D('',#230,#231,#232);
#234=CIRCLE('',#233,0.300000000000000);
#235=EDGE_CURVE('',#220,#229,#234,.T.);
#236=ORIENTED_EDGE('',*,*,#235,.T.);
#237=CARTESIAN_POINT('',(5.000000000000002,-1.270338171000917,1.610371528094620));
#238=DIRECTION('',(1.0,-1.803459E-015,1.195095E-018));
#239=DIRECTION('',(-1.803459E-015,-0.999999780435591,0.000662667918312));
#240=AXIS2_PLACEMENT_3D('',#237,#238,#239);
#241=CIRCLE('',#240,0.300000000000000);
#242=EDGE_CURVE('',#229,#193,#241,.T.);
#243=ORIENTED_EDGE('',*,*,#242,.T.);
#244=EDGE_LOOP('',(#200,#209,#218,#227,#236,#243));
#245=FACE_OUTER_BOUND('',#244,.T.);
#246=ADVANCED_FACE('',(#245),#189,.T.);
#247=CARTESIAN_POINT('',(5.000000000000001,-1.269877956941068,2.999344787878444));
#248=DIRECTION('',(1.332856E-016,0.999999945108896,-0.000331333977343));
#249=DIRECTION('',(0.0,0.000331333977343,0.999999945108896));
#250=AXIS2_PLACEMENT_3D('',#247,#248,#249);
#251=TOROIDAL_SURFACE('',#250,1.388973336026104,0.300000000000000);
#252=ORIENTED_EDGE('',*,*,#199,.T.);
#253=CARTESIAN_POINT('',(5.000000000000002,-1.270338171000917,1.610371528094620));
#254=DIRECTION('',(1.0,-1.803459E-015,1.195095E-018));
#255=DIRECTION('',(-1.803459E-015,-0.999999780435591,0.000662667918312));
#256=AXIS2_PLACEMENT_3D('',#253,#254,#255);
#257=CIRCLE('',#256,0.300000000000000);
#258=EDGE_CURVE('',#193,#220,#257,.T.);
#259=ORIENTED_EDGE('',*,*,#258,.T.);
#260=ORIENTED_EDGE('',*,*,#226,.T.);
#261=CARTESIAN_POINT('',(4.999999999999999,-1.269417742881219,4.388318047662268));
#262=DIRECTION('',(-1.0,0.0,0.0));
#263=DIRECTION('',(0.0,-1.0,0.0));
#264=AXIS2_PLACEMENT_3D('',#261,#262,#263);
#265=CIRCLE('',#264,0.300000000000000);
#266=EDGE_CURVE('',#191,#211,#265,.T.);
#267=ORIENTED_EDGE('',*,*,#266,.F.);
#268=EDGE_LOOP('',(#252,#259,#260,#267));
#269=FACE_OUTER_BOUND('',#268,.T.);
#270=ADVANCED_FACE('',(#269),#251,.T.);
#271=CARTESIAN_POINT('',(5.000000000000002,-1.270338171000917,1.610371528094620));
#272=DIRECTION('',(1.0,0.0,0.0));
#273=DIRECTION('',(0.0,-0.000662667918312,-0.999999780435591));
#274=AXIS2_PLACEMENT_3D('',#271,#272,#273);
#275=PLANE('',#274);
#276=ORIENTED_EDGE('',*,*,#242,.F.);
#277=ORIENTED_EDGE('',*,*,#235,.F.);
#278=ORIENTED_EDGE('',*,*,#258,.F.);
#279=EDGE_LOOP('',(#276,#277,#278));
#280=FACE_OUTER_BOUND('',#279,.T.);
#281=ADVANCED_FACE('',(#280),#275,.F.);
#282=CARTESIAN_POINT('',(4.999999999999999,-1.269417742881219,4.388318047662268));
#283=DIRECTION('',(-1.0,0.0,0.0));
#284=DIRECTION('',(0.0,0.0,1.0));
#285=AXIS2_PLACEMENT_3D('',#282,#283,#284);
#286=PLANE('',#285);
#287=ORIENTED_EDGE('',*,*,#208,.T.);
#288=ORIENTED_EDGE('',*,*,#266,.T.);
#289=ORIENTED_EDGE('',*,*,#217,.T.);
#290=EDGE_LOOP('',(#287,#288,#289));
#291=FACE_OUTER_BOUND('',#290,.T.);
#292=ADVANCED_FACE('',(#291),#286,.T.);
#293=CLOSED_SHELL('',(#246,#270,#281,#292));
#294=MANIFOLD_SOLID_BREP('B63',#293);
#295=STYLED_ITEM('NONE',(#181),#294);
#296=CARTESIAN_POINT('',(4.799999999999999,0.000357219311862,2.999543085469183));
#297=DIRECTION('',(1.295882E-015,-1.0,-3.415930E-016));
#298=DIRECTION('',(1.0,1.295882E-015,0.0));
#299=AXIS2_PLACEMENT_3D('',#296,#297,#298);
#300=CIRCLE('',#299,1.881760970534474);
#301=CARTESIAN_POINT('',(4.799999999999999,0.000357219311863,1.117782114934709));
#302=CARTESIAN_POINT('',(4.799999999999999,0.000357219311862,4.881304056003657));
#303=TRIMMED_CURVE('B5D',#300,(PARAMETER_VALUE(270.000000000000110),#301),(PARAMETER_VALUE(90.000000000000043),#302),.T.,.PARAMETER.);
#304=COLOUR_RGB('255',1.0,1.0,1.0);
#305=CURVE_STYLE('NONE',#306,POSITIVE_LENGTH_MEASURE(0.200000000000000),#304);
#306=DRAUGHTING_PRE_DEFINED_CURVE_FONT('continuous');
#307=PRESENTATION_STYLE_ASSIGNMENT((#305));
#308=STYLED_ITEM('NONE',(#307),#303);
#309=CARTESIAN_POINT('',(5.000000000000001,-1.269877956941069,2.999344787878447));
#310=DIRECTION('',(-1.332856E-016,-0.999999945108896,0.000331333977343));
#311=DIRECTION('',(1.0,-1.332856E-016,0.0));
#312=AXIS2_PLACEMENT_3D('',#309,#310,#311);
#313=CIRCLE('',#312,1.388973336026105);
#314=CARTESIAN_POINT('',(5.000000000000001,-1.270338171000919,1.610371528094621));
#315=CARTESIAN_POINT('',(5.000000000000001,-1.269417742881220,4.388318047662272));
#316=TRIMMED_CURVE('B5C',#313,(PARAMETER_VALUE(270.000000000000060),#314),(PARAMETER_VALUE(90.0),#315),.T.,.PARAMETER.);
#317=STYLED_ITEM('NONE',(#307),#316);
#318=CARTESIAN_POINT('',(-4.599999999999999,0.635244700408390,3.246036089639866));
#319=DIRECTION('',(-1.012340E-016,-0.932206735135867,-0.361926239677821));
#320=DIRECTION('',(0.0,0.361926239677821,-0.932206735135867));
#321=AXIS2_PLACEMENT_3D('',#318,#319,#320);
#322=TOROIDAL_SURFACE('',#321,1.754190250648043,0.300000000000000);
#323=CARTESIAN_POINT('',(-4.600000000000001,-0.108220652591498,5.160966076544406));
#324=VERTEX_POINT('',#323);
#325=CARTESIAN_POINT('',(-4.600000000000000,1.378710053408278,1.331106102735326));
#326=VERTEX_POINT('',#325);
#327=CARTESIAN_POINT('',(-4.599999999999999,0.635244700408390,3.246036089639866));
#328=DIRECTION('',(-1.012340E-016,-0.932206735135867,-0.361926239677821));
#329=DIRECTION('',(0.0,0.361926239677821,-0.932206735135867));
#330=AXIS2_PLACEMENT_3D('',#327,#328,#329);
#331=CIRCLE('',#330,2.054190250648043);
#332=EDGE_CURVE('',#324,#326,#331,.T.);
#333=ORIENTED_EDGE('',*,*,#332,.F.);
#334=CARTESIAN_POINT('',(-4.600000000000001,0.108935091215195,4.601642035462885));
#335=VERTEX_POINT('',#334);
#336=CARTESIAN_POINT('',(-4.600000000000000,0.000357219311849,4.881304056003645));
#337=DIRECTION('',(-1.0,0.0,0.0));
#338=DIRECTION('',(0.0,-1.0,0.0));
#339=AXIS2_PLACEMENT_3D('',#336,#337,#338);
#340=CIRCLE('',#339,0.300000000000000);
#341=EDGE_CURVE('',#324,#335,#340,.T.);
#342=ORIENTED_EDGE('',*,*,#341,.T.);
#343=CARTESIAN_POINT('',(-4.600000000000000,1.161554309601585,1.890430143816846));
#344=VERTEX_POINT('',#343);
#345=CARTESIAN_POINT('',(-4.599999999999999,0.635244700408390,3.246036089639866));
#346=DIRECTION('',(1.012340E-016,0.932206735135867,0.361926239677821));
#347=DIRECTION('',(0.0,0.361926239677821,-0.932206735135867));
#348=AXIS2_PLACEMENT_3D('',#345,#346,#347);
#349=CIRCLE('',#348,1.454190250648042);
#350=EDGE_CURVE('',#344,#335,#349,.T.);
#351=ORIENTED_EDGE('',*,*,#350,.F.);
#352=CARTESIAN_POINT('',(-4.600000000000000,1.270132181504931,1.610768123276086));
#353=DIRECTION('',(-1.0,1.232939E-015,1.127292E-015));
#354=DIRECTION('',(-1.670606E-015,-0.738018794065344,-0.674780156500126));
#355=AXIS2_PLACEMENT_3D('',#352,#353,#354);
#356=CIRCLE('',#355,0.300000000000000);
#357=EDGE_CURVE('',#344,#326,#356,.T.);
#358=ORIENTED_EDGE('',*,*,#357,.T.);
#359=EDGE_LOOP('',(#333,#342,#351,#358));
#360=FACE_OUTER_BOUND('',#359,.T.);
#361=ADVANCED_FACE('',(#360),#322,.T.);
#362=CARTESIAN_POINT('',(-4.599999999999999,0.635244700408390,3.246036089639866));
#363=DIRECTION('',(-1.012340E-016,-0.932206735135867,-0.361926239677821));
#364=DIRECTION('',(0.0,0.361926239677821,-0.932206735135867));
#365=AXIS2_PLACEMENT_3D('',#362,#363,#364);
#366=TOROIDAL_SURFACE('',#365,1.754190250648043,0.300000000000000);
#367=ORIENTED_EDGE('',*,*,#332,.T.);
#368=CARTESIAN_POINT('',(-4.600000000000001,1.048726543285327,1.408334076326049));
#369=VERTEX_POINT('',#368);
#370=CARTESIAN_POINT('',(-4.600000000000000,1.270132181504931,1.610768123276086));
#371=DIRECTION('',(-1.0,1.232939E-015,1.127292E-015));
#372=DIRECTION('',(-1.670606E-015,-0.738018794065344,-0.674780156500126));
#373=AXIS2_PLACEMENT_3D('',#370,#371,#372);
#374=CIRCLE('',#373,0.300000000000000);
#375=EDGE_CURVE('',#326,#369,#374,.T.);
#376=ORIENTED_EDGE('',*,*,#375,.T.);
#377=CARTESIAN_POINT('',(-4.600000000000000,1.270132181504931,1.610768123276086));
#378=DIRECTION('',(-1.0,1.232939E-015,1.127292E-015));
#379=DIRECTION('',(-1.670606E-015,-0.738018794065344,-0.674780156500126));
#380=AXIS2_PLACEMENT_3D('',#377,#378,#379);
#381=CIRCLE('',#380,0.300000000000000);
#382=EDGE_CURVE('',#369,#344,#381,.T.);
#383=ORIENTED_EDGE('',*,*,#382,.T.);
#384=ORIENTED_EDGE('',*,*,#350,.T.);
#385=CARTESIAN_POINT('',(-4.600000000000000,-0.299642780688151,4.881304056003645));
#386=VERTEX_POINT('',#385);
#387=CARTESIAN_POINT('',(-4.600000000000000,0.000357219311849,4.881304056003645));
#388=DIRECTION('',(-1.0,0.0,0.0));
#389=DIRECTION('',(0.0,-1.0,0.0));
#390=AXIS2_PLACEMENT_3D('',#387,#388,#389);
#391=CIRCLE('',#390,0.300000000000000);
#392=EDGE_CURVE('',#335,#386,#391,.T.);
#393=ORIENTED_EDGE('',*,*,#392,.T.);
#394=CARTESIAN_POINT('',(-4.600000000000000,0.000357219311849,4.881304056003645));
#395=DIRECTION('',(-1.0,0.0,0.0));
#396=DIRECTION('',(0.0,-1.0,0.0));
#397=AXIS2_PLACEMENT_3D('',#394,#395,#396);
#398=CIRCLE('',#397,0.300000000000000);
#399=EDGE_CURVE('',#386,#324,#398,.T.);
#400=ORIENTED_EDGE('',*,*,#399,.T.);
#401=EDGE_LOOP('',(#367,#376,#383,#384,#393,#400));
#402=FACE_OUTER_BOUND('',#401,.T.);
#403=ADVANCED_FACE('',(#402),#366,.T.);
#404=CARTESIAN_POINT('',(-4.600000000000000,0.000357219311849,4.881304056003645));
#405=DIRECTION('',(-1.0,0.0,0.0));
#406=DIRECTION('',(0.0,0.0,1.0));
#407=AXIS2_PLACEMENT_3D('',#404,#405,#406);
#408=PLANE('',#407);
#409=ORIENTED_EDGE('',*,*,#399,.F.);
#410=ORIENTED_EDGE('',*,*,#392,.F.);
#411=ORIENTED_EDGE('',*,*,#341,.F.);
#412=EDGE_LOOP('',(#409,#410,#411));
#413=FACE_OUTER_BOUND('',#412,.T.);
#414=ADVANCED_FACE('',(#413),#408,.F.);
#415=CARTESIAN_POINT('',(-4.600000000000000,1.270132181504931,1.610768123276086));
#416=DIRECTION('',(1.0,0.0,0.0));
#417=DIRECTION('',(0.0,0.674780156500126,-0.738018794065344));
#418=AXIS2_PLACEMENT_3D('',#415,#416,#417);
#419=PLANE('',#418);
#420=ORIENTED_EDGE('',*,*,#382,.F.);
#421=ORIENTED_EDGE('',*,*,#375,.F.);
#422=ORIENTED_EDGE('',*,*,#357,.F.);
#423=EDGE_LOOP('',(#420,#421,#422));
#424=FACE_OUTER_BOUND('',#423,.T.);
#425=ADVANCED_FACE('',(#424),#419,.T.);
#426=CLOSED_SHELL('',(#361,#403,#414,#425));
#427=MANIFOLD_SOLID_BREP('B52',#426);
#428=STYLED_ITEM('NONE',(#181),#427);
#429=CARTESIAN_POINT('',(-4.599999999999999,-0.634530261784691,2.753050081298477));
#430=DIRECTION('',(-1.012340E-016,-0.932206735135867,-0.361926239677821));
#431=DIRECTION('',(0.0,0.361926239677821,-0.932206735135867));
#432=AXIS2_PLACEMENT_3D('',#429,#430,#431);
#433=TOROIDAL_SURFACE('',#432,1.754190250648043,0.300000000000000);
#434=CARTESIAN_POINT('',(-4.600000000000000,-1.377995614784579,4.667980068203017));
#435=VERTEX_POINT('',#434);
#436=CARTESIAN_POINT('',(-4.600000000000001,0.108935091215196,0.838120094393937));
#437=VERTEX_POINT('',#436);
#438=CARTESIAN_POINT('',(-4.599999999999999,-0.634530261784691,2.753050081298477));
#439=DIRECTION('',(-1.012340E-016,-0.932206735135867,-0.361926239677821));
#440=DIRECTION('',(0.0,0.361926239677821,-0.932206735135867));
#441=AXIS2_PLACEMENT_3D('',#438,#439,#440);
#442=CIRCLE('',#441,2.054190250648043);
#443=EDGE_CURVE('',#435,#437,#442,.T.);
#444=ORIENTED_EDGE('',*,*,#443,.F.);
#445=CARTESIAN_POINT('',(-4.600000000000000,-1.160839870977886,4.108656027121496));
#446=VERTEX_POINT('',#445);
#447=CARTESIAN_POINT('',(-4.599999999999999,-1.269417742881232,4.388318047662256));
#448=DIRECTION('',(-1.0,0.0,0.0));
#449=DIRECTION('',(0.0,-1.0,0.0));
#450=AXIS2_PLACEMENT_3D('',#447,#448,#449);
#451=CIRCLE('',#450,0.300000000000000);
#452=EDGE_CURVE('',#435,#446,#451,.T.);
#453=ORIENTED_EDGE('',*,*,#452,.T.);
#454=CARTESIAN_POINT('',(-4.600000000000001,-0.108220652591496,1.397444135475457));
#455=VERTEX_POINT('',#454);
#456=CARTESIAN_POINT('',(-4.599999999999999,-0.634530261784691,2.753050081298477));
#457=DIRECTION('',(1.012340E-016,0.932206735135867,0.361926239677821));
#458=DIRECTION('',(0.0,0.361926239677821,-0.932206735135867));
#459=AXIS2_PLACEMENT_3D('',#456,#457,#458);
#460=CIRCLE('',#459,1.454190250648042);
#461=EDGE_CURVE('',#455,#446,#460,.T.);
#462=ORIENTED_EDGE('',*,*,#461,.F.);
#463=CARTESIAN_POINT('',(-4.600000000000001,0.000357219311850,1.117782114934697));
#464=DIRECTION('',(-1.0,1.232939E-015,1.127292E-015));
#465=DIRECTION('',(-1.670606E-015,-0.738018794065344,-0.674780156500126));
#466=AXIS2_PLACEMENT_3D('',#463,#464,#465);
#467=CIRCLE('',#466,0.300000000000000);
#468=EDGE_CURVE('',#455,#437,#467,.T.);
#469=ORIENTED_EDGE('',*,*,#468,.T.);
#470=EDGE_LOOP('',(#444,#453,#462,#469));
#471=FACE_OUTER_BOUND('',#470,.T.);
#472=ADVANCED_FACE('',(#471),#433,.T.);
#473=CARTESIAN_POINT('',(-4.599999999999999,-0.634530261784691,2.753050081298477));
#474=DIRECTION('',(-1.012340E-016,-0.932206735135867,-0.361926239677821));
#475=DIRECTION('',(0.0,0.361926239677821,-0.932206735135867));
#476=AXIS2_PLACEMENT_3D('',#473,#474,#475);
#477=TOROIDAL_SURFACE('',#476,1.754190250648043,0.300000000000000);
#478=ORIENTED_EDGE('',*,*,#443,.T.);
#479=CARTESIAN_POINT('',(-4.600000000000002,-0.221048418907753,0.915348067984660));
#480=VERTEX_POINT('',#479);
#481=CARTESIAN_POINT('',(-4.600000000000001,0.000357219311850,1.117782114934697));
#482=DIRECTION('',(-1.0,1.232939E-015,1.127292E-015));
#483=DIRECTION('',(-1.670606E-015,-0.738018794065344,-0.674780156500126));
#484=AXIS2_PLACEMENT_3D('',#481,#482,#483);
#485=CIRCLE('',#484,0.300000000000000);
#486=EDGE_CURVE('',#437,#480,#485,.T.);
#487=ORIENTED_EDGE('',*,*,#486,.T.);
#488=CARTESIAN_POINT('',(-4.600000000000001,0.000357219311850,1.117782114934697));
#489=DIRECTION('',(-1.0,1.232939E-015,1.127292E-015));
#490=DIRECTION('',(-1.670606E-015,-0.738018794065344,-0.674780156500126));
#491=AXIS2_PLACEMENT_3D('',#488,#489,#490);
#492=CIRCLE('',#491,0.300000000000000);
#493=EDGE_CURVE('',#480,#455,#492,.T.);
#494=ORIENTED_EDGE('',*,*,#493,.T.);
#495=ORIENTED_EDGE('',*,*,#461,.T.);
#496=CARTESIAN_POINT('',(-4.599999999999999,-1.569417742881232,4.388318047662256));
#497=VERTEX_POINT('',#496);
#498=CARTESIAN_POINT('',(-4.599999999999999,-1.269417742881232,4.388318047662256));
#499=DIRECTION('',(-1.0,0.0,0.0));
#500=DIRECTION('',(0.0,-1.0,0.0));
#501=AXIS2_PLACEMENT_3D('',#498,#499,#500);
#502=CIRCLE('',#501,0.300000000000000);
#503=EDGE_CURVE('',#446,#497,#502,.T.);
#504=ORIENTED_EDGE('',*,*,#503,.T.);
#505=CARTESIAN_POINT('',(-4.599999999999999,-1.269417742881232,4.388318047662256));
#506=DIRECTION('',(-1.0,0.0,0.0));
#507=DIRECTION('',(0.0,-1.0,0.0));
#508=AXIS2_PLACEMENT_3D('',#505,#506,#507);
#509=CIRCLE('',#508,0.300000000000000);
#510=EDGE_CURVE('',#497,#435,#509,.T.);
#511=ORIENTED_EDGE('',*,*,#510,.T.);
#512=EDGE_LOOP('',(#478,#487,#494,#495,#504,#511));
#513=FACE_OUTER_BOUND('',#512,.T.);
#514=ADVANCED_FACE('',(#513),#477,.T.);
#515=CARTESIAN_POINT('',(-4.599999999999999,-1.269417742881232,4.388318047662256));
#516=DIRECTION('',(-1.0,0.0,0.0));
#517=DIRECTION('',(0.0,0.0,1.0));
#518=AXIS2_PLACEMENT_3D('',#515,#516,#517);
#519=PLANE('',#518);
#520=ORIENTED_EDGE('',*,*,#510,.F.);
#521=ORIENTED_EDGE('',*,*,#503,.F.);
#522=ORIENTED_EDGE('',*,*,#452,.F.);
#523=EDGE_LOOP('',(#520,#521,#522));
#524=FACE_OUTER_BOUND('',#523,.T.);
#525=ADVANCED_FACE('',(#524),#519,.F.);
#526=CARTESIAN_POINT('',(-4.600000000000001,0.000357219311850,1.117782114934697));
#527=DIRECTION('',(1.0,0.0,0.0));
#528=DIRECTION('',(0.0,0.674780156500126,-0.738018794065344));
#529=AXIS2_PLACEMENT_3D('',#526,#527,#528);
#530=PLANE('',#529);
#531=ORIENTED_EDGE('',*,*,#493,.F.);
#532=ORIENTED_EDGE('',*,*,#486,.F.);
#533=ORIENTED_EDGE('',*,*,#468,.F.);
#534=EDGE_LOOP('',(#531,#532,#533));
#535=FACE_OUTER_BOUND('',#534,.T.);
#536=ADVANCED_FACE('',(#535),#530,.T.);
#537=CLOSED_SHELL('',(#472,#514,#525,#536));
#538=MANIFOLD_SOLID_BREP('B51',#537);
#539=STYLED_ITEM('NONE',(#181),#538);
#540=CARTESIAN_POINT('',(-6.819999999999999,-1.270338171000933,0.810371528094607));
#541=DIRECTION('',(-8.881784E-016,1.0,1.665335E-016));
#542=DIRECTION('',(0.0,0.0,1.0));
#543=AXIS2_PLACEMENT_3D('',#540,#541,#542);
#544=TOROIDAL_SURFACE('',#543,0.800000000000000,0.300000000000000);
#545=CARTESIAN_POINT('',(-7.919999999999998,-1.270338171000932,0.810371528094606));
#546=VERTEX_POINT('',#545);
#547=CARTESIAN_POINT('',(-6.819999999999999,-1.270338171000932,1.910371528094607));
#548=VERTEX_POINT('',#547);
#549=CARTESIAN_POINT('',(-6.819999999999999,-1.270338171000933,0.810371528094607));
#550=DIRECTION('',(0.0,1.0,0.0));
#551=DIRECTION('',(0.0,0.0,1.0));
#552=AXIS2_PLACEMENT_3D('',#549,#550,#551);
#553=CIRCLE('',#552,1.100000000000000);
#554=EDGE_CURVE('',#546,#548,#553,.T.);
#555=ORIENTED_EDGE('',*,*,#554,.F.);
#556=CARTESIAN_POINT('',(-7.619999999999997,-1.570338171000934,0.810371528094607));
#557=VERTEX_POINT('',#556);
#558=CARTESIAN_POINT('',(-7.619999999999998,-1.270338171000934,0.810371528094606));
#559=DIRECTION('',(0.0,0.0,-1.0));
#560=DIRECTION('',(-1.0,0.0,0.0));
#561=AXIS2_PLACEMENT_3D('',#558,#559,#560);
#562=CIRCLE('',#561,0.300000000000000);
#563=EDGE_CURVE('',#557,#546,#562,.T.);
#564=ORIENTED_EDGE('',*,*,#563,.F.);
#565=CARTESIAN_POINT('',(-7.319999999999999,-1.270338171000932,0.810371528094607));
#566=VERTEX_POINT('',#565);
#567=CARTESIAN_POINT('',(-7.619999999999998,-1.270338171000934,0.810371528094606));
#568=DIRECTION('',(0.0,0.0,-1.0));
#569=DIRECTION('',(-1.0,0.0,0.0));
#570=AXIS2_PLACEMENT_3D('',#567,#568,#569);
#571=CIRCLE('',#570,0.300000000000000);
#572=EDGE_CURVE('',#566,#557,#571,.T.);
#573=ORIENTED_EDGE('',*,*,#572,.F.);
#574=CARTESIAN_POINT('',(-6.819999999999998,-1.270338171000933,1.310371528094607));
#575=VERTEX_POINT('',#574);
#576=CARTESIAN_POINT('',(-6.819999999999999,-1.270338171000933,0.810371528094607));
#577=DIRECTION('',(0.0,-1.0,0.0));
#578=DIRECTION('',(0.0,0.0,1.0));
#579=AXIS2_PLACEMENT_3D('',#576,#577,#578);
#580=CIRCLE('',#579,0.500000000000000);
#581=EDGE_CURVE('',#575,#566,#580,.T.);
#582=ORIENTED_EDGE('',*,*,#581,.F.);
#583=CARTESIAN_POINT('',(-6.819999999999998,-1.270338171000933,1.610371528094607));
#584=DIRECTION('',(-1.0,0.0,0.0));
#585=DIRECTION('',(0.0,0.0,1.0));
#586=AXIS2_PLACEMENT_3D('',#583,#584,#585);
#587=CIRCLE('',#586,0.300000000000000);
#588=EDGE_CURVE('',#575,#548,#587,.T.);
#589=ORIENTED_EDGE('',*,*,#588,.T.);
#590=EDGE_LOOP('',(#555,#564,#573,#582,#589));
#591=FACE_OUTER_BOUND('',#590,.T.);
#592=ADVANCED_FACE('',(#591),#544,.T.);
#593=CARTESIAN_POINT('',(-6.819999999999998,-1.270338171000933,1.610371528094607));
#594=DIRECTION('',(1.0,8.881784E-016,-4.880101E-016));
#595=DIRECTION('',(0.0,0.0,1.0));
#596=AXIS2_PLACEMENT_3D('',#593,#594,#595);
#597=CYLINDRICAL_SURFACE('',#596,0.300000000000000);
#598=CARTESIAN_POINT('',(-4.999999999999998,-1.270338171000932,1.910371528094606));
#599=VERTEX_POINT('',#598);
#600=CARTESIAN_POINT('',(-6.819999999999999,-1.270338171000932,1.910371528094607));
#601=DIRECTION('',(1.0,0.0,0.0));
#602=VECTOR('',#601,1.820000000000000);
#603=LINE('',#600,#602);
#604=EDGE_CURVE('',#548,#599,#603,.T.);
#605=ORIENTED_EDGE('',*,*,#604,.F.);
#606=ORIENTED_EDGE('',*,*,#588,.F.);
#607=CARTESIAN_POINT('',(-4.999999999999997,-1.270338171000931,1.310371528094606));
#608=VERTEX_POINT('',#607);
#609=CARTESIAN_POINT('',(-4.999999999999997,-1.270338171000931,1.310371528094606));
#610=DIRECTION('',(-1.0,0.0,0.0));
#611=VECTOR('',#610,1.820000000000000);
#612=LINE('',#609,#611);
#613=EDGE_CURVE('',#608,#575,#612,.T.);
#614=ORIENTED_EDGE('',*,*,#613,.F.);
#615=CARTESIAN_POINT('',(-4.999999999999997,-1.270338171000932,1.610371528094606));
#616=DIRECTION('',(-1.0,0.0,0.0));
#617=DIRECTION('',(0.0,0.0,1.0));
#618=AXIS2_PLACEMENT_3D('',#615,#616,#617);
#619=CIRCLE('',#618,0.300000000000000);
#620=EDGE_CURVE('',#608,#599,#619,.T.);
#621=ORIENTED_EDGE('',*,*,#620,.T.);
#622=EDGE_LOOP('',(#605,#606,#614,#621));
#623=FACE_OUTER_BOUND('',#622,.T.);
#624=ADVANCED_FACE('',(#623),#597,.T.);
#625=CARTESIAN_POINT('',(-7.619999999999995,-1.270338171000931,-5.024076370249135));
#626=DIRECTION('',(-4.566902E-016,-1.665335E-016,1.0));
#627=DIRECTION('',(-1.0,0.0,0.0));
#628=AXIS2_PLACEMENT_3D('',#625,#626,#627);
#629=CYLINDRICAL_SURFACE('',#628,0.300000000000000);
#630=CARTESIAN_POINT('',(-7.919999999999995,-1.270338171000932,-3.599976370249136));
#631=VERTEX_POINT('',#630);
#632=CARTESIAN_POINT('',(-7.919999999999995,-1.270338171000932,-3.599976370249136));
#633=DIRECTION('',(0.0,0.0,1.0));
#634=VECTOR('',#633,4.410347898343742);
#635=LINE('',#632,#634);
#636=EDGE_CURVE('',#631,#546,#635,.T.);
#637=ORIENTED_EDGE('',*,*,#636,.F.);
#638=CARTESIAN_POINT('',(-7.319999999999995,-1.270338171000931,-3.599976370249135));
#639=VERTEX_POINT('',#638);
#640=CARTESIAN_POINT('',(-7.619999999999995,-1.270338171000931,-3.599976370249135));
#641=DIRECTION('',(0.0,0.0,-1.0));
#642=DIRECTION('',(-1.0,0.0,0.0));
#643=AXIS2_PLACEMENT_3D('',#640,#641,#642);
#644=CIRCLE('',#643,0.300000000000000);
#645=EDGE_CURVE('',#639,#631,#644,.T.);
#646=ORIENTED_EDGE('',*,*,#645,.F.);
#647=CARTESIAN_POINT('',(-7.319999999999999,-1.270338171000932,0.810371528094607));
#648=DIRECTION('',(0.0,0.0,-1.0));
#649=VECTOR('',#648,4.410347898343741);
#650=LINE('',#647,#649);
#651=EDGE_CURVE('',#566,#639,#650,.T.);
#652=ORIENTED_EDGE('',*,*,#651,.F.);
#653=ORIENTED_EDGE('',*,*,#572,.T.);
#654=ORIENTED_EDGE('',*,*,#563,.T.);
#655=EDGE_LOOP('',(#637,#646,#652,#653,#654));
#656=FACE_OUTER_BOUND('',#655,.T.);
#657=ADVANCED_FACE('',(#656),#629,.T.);
#658=CARTESIAN_POINT('',(-7.619999999999995,-1.270338171000931,-5.024076370249135));
#659=DIRECTION('',(-4.566902E-016,-1.665335E-016,1.0));
#660=DIRECTION('',(-1.0,0.0,0.0));
#661=AXIS2_PLACEMENT_3D('',#658,#659,#660);
#662=CYLINDRICAL_SURFACE('',#661,0.300000000000000);
#663=ORIENTED_EDGE('',*,*,#636,.T.);
#664=CARTESIAN_POINT('',(-7.619999999999998,-1.270338171000934,0.810371528094606));
#665=DIRECTION('',(0.0,0.0,-1.0));
#666=DIRECTION('',(-1.0,0.0,0.0));
#667=AXIS2_PLACEMENT_3D('',#664,#665,#666);
#668=CIRCLE('',#667,0.300000000000000);
#669=EDGE_CURVE('',#546,#566,#668,.T.);
#670=ORIENTED_EDGE('',*,*,#669,.T.);
#671=ORIENTED_EDGE('',*,*,#651,.T.);
#672=CARTESIAN_POINT('',(-7.619999999999995,-1.270338171000931,-3.599976370249135));
#673=DIRECTION('',(0.0,0.0,-1.0));
#674=DIRECTION('',(-1.0,0.0,0.0));
#675=AXIS2_PLACEMENT_3D('',#672,#673,#674);
#676=CIRCLE('',#675,0.300000000000000);
#677=EDGE_CURVE('',#631,#639,#676,.T.);
#678=ORIENTED_EDGE('',*,*,#677,.F.);
#679=EDGE_LOOP('',(#663,#670,#671,#678));
#680=FACE_OUTER_BOUND('',#679,.T.);
#681=ADVANCED_FACE('',(#680),#662,.T.);
#682=CARTESIAN_POINT('',(-6.819999999999998,-1.270338171000933,1.610371528094607));
#683=DIRECTION('',(1.0,8.881784E-016,-4.880101E-016));
#684=DIRECTION('',(0.0,0.0,1.0));
#685=AXIS2_PLACEMENT_3D('',#682,#683,#684);
#686=CYLINDRICAL_SURFACE('',#685,0.300000000000000);
#687=ORIENTED_EDGE('',*,*,#604,.T.);
#688=CARTESIAN_POINT('',(-4.999999999999997,-1.270338171000932,1.610371528094606));
#689=DIRECTION('',(-1.0,0.0,0.0));
#690=DIRECTION('',(0.0,0.0,1.0));
#691=AXIS2_PLACEMENT_3D('',#688,#689,#690);
#692=CIRCLE('',#691,0.300000000000000);
#693=EDGE_CURVE('',#599,#608,#692,.T.);
#694=ORIENTED_EDGE('',*,*,#693,.T.);
#695=ORIENTED_EDGE('',*,*,#613,.T.);
#696=CARTESIAN_POINT('',(-6.819999999999998,-1.270338171000933,1.610371528094607));
#697=DIRECTION('',(-1.0,0.0,0.0));
#698=DIRECTION('',(0.0,0.0,1.0));
#699=AXIS2_PLACEMENT_3D('',#696,#697,#698);
#700=CIRCLE('',#699,0.300000000000000);
#701=EDGE_CURVE('',#548,#575,#700,.T.);
#702=ORIENTED_EDGE('',*,*,#701,.F.);
#703=EDGE_LOOP('',(#687,#694,#695,#702));
#704=FACE_OUTER_BOUND('',#703,.T.);
#705=ADVANCED_FACE('',(#704),#686,.T.);
#706=CARTESIAN_POINT('',(-6.819999999999999,-1.270338171000933,0.810371528094607));
#707=DIRECTION('',(-8.881784E-016,1.0,1.665335E-016));
#708=DIRECTION('',(0.0,0.0,1.0));
#709=AXIS2_PLACEMENT_3D('',#706,#707,#708);
#710=TOROIDAL_SURFACE('',#709,0.800000000000000,0.300000000000000);
#711=ORIENTED_EDGE('',*,*,#554,.T.);
#712=ORIENTED_EDGE('',*,*,#701,.T.);
#713=ORIENTED_EDGE('',*,*,#581,.T.);
#714=ORIENTED_EDGE('',*,*,#669,.F.);
#715=EDGE_LOOP('',(#711,#712,#713,#714));
#716=FACE_OUTER_BOUND('',#715,.T.);
#717=ADVANCED_FACE('',(#716),#710,.T.);
#718=CARTESIAN_POINT('',(-4.999999999999997,-1.270338171000931,1.610371528094606));
#719=DIRECTION('',(-1.0,0.0,0.0));
#720=DIRECTION('',(0.0,0.0,1.0));
#721=AXIS2_PLACEMENT_3D('',#718,#719,#720);
#722=PLANE('',#721);
#723=ORIENTED_EDGE('',*,*,#693,.F.);
#724=ORIENTED_EDGE('',*,*,#620,.F.);
#725=EDGE_LOOP('',(#723,#724));
#726=FACE_OUTER_BOUND('',#725,.T.);
#727=ADVANCED_FACE('',(#726),#722,.F.);
#728=CARTESIAN_POINT('',(-7.619999999999995,-1.270338171000931,-3.599976370249135));
#729=DIRECTION('',(0.0,0.0,-1.0));
#730=DIRECTION('',(-1.0,0.0,0.0));
#731=AXIS2_PLACEMENT_3D('',#728,#729,#730);
#732=PLANE('',#731);
#733=ORIENTED_EDGE('',*,*,#677,.T.);
#734=ORIENTED_EDGE('',*,*,#645,.T.);
#735=EDGE_LOOP('',(#733,#734));
#736=FACE_OUTER_BOUND('',#735,.T.);
#737=ADVANCED_FACE('',(#736),#732,.T.);
#738=CLOSED_SHELL('',(#592,#624,#657,#681,#705,#717,#727,#737));
#739=MANIFOLD_SOLID_BREP('828',#738);
#740=STYLED_ITEM('NONE',(#181),#739);
#741=CARTESIAN_POINT('',(6.820000000000001,1.270132181504941,0.810768123276097));
#742=DIRECTION('',(8.881784E-016,-1.0,-1.665335E-016));
#743=DIRECTION('',(0.0,0.0,-1.0));
#744=AXIS2_PLACEMENT_3D('',#741,#742,#743);
#745=TOROIDAL_SURFACE('',#744,0.800000000000000,0.300000000000000);
#746=CARTESIAN_POINT('',(7.920000000000001,1.270132181504943,0.810768123276098));
#747=VERTEX_POINT('',#746);
#748=CARTESIAN_POINT('',(6.820000000000000,1.270132181504942,1.910768123276097));
#749=VERTEX_POINT('',#748);
#750=CARTESIAN_POINT('',(6.820000000000001,1.270132181504941,0.810768123276097));
#751=DIRECTION('',(0.0,-1.0,0.0));
#752=DIRECTION('',(0.0,0.0,-1.0));
#753=AXIS2_PLACEMENT_3D('',#750,#751,#752);
#754=CIRCLE('',#753,1.100000000000000);
#755=EDGE_CURVE('',#747,#749,#754,.T.);
#756=ORIENTED_EDGE('',*,*,#755,.F.);
#757=CARTESIAN_POINT('',(7.320000000000001,1.270132181504943,0.810768123276097));
#758=VERTEX_POINT('',#757);
#759=CARTESIAN_POINT('',(7.620000000000001,1.270132181504942,0.810768123276097));
#760=DIRECTION('',(0.0,0.0,-1.0));
#761=DIRECTION('',(-1.0,0.0,0.0));
#762=AXIS2_PLACEMENT_3D('',#759,#760,#761);
#763=CIRCLE('',#762,0.300000000000000);
#764=EDGE_CURVE('',#758,#747,#763,.T.);
#765=ORIENTED_EDGE('',*,*,#764,.F.);
#766=CARTESIAN_POINT('',(6.820000000000001,1.270132181504942,1.310768123276098));
#767=VERTEX_POINT('',#766);
#768=CARTESIAN_POINT('',(6.820000000000001,1.270132181504941,0.810768123276097));
#769=DIRECTION('',(0.0,1.0,0.0));
#770=DIRECTION('',(0.0,0.0,-1.0));
#771=AXIS2_PLACEMENT_3D('',#768,#769,#770);
#772=CIRCLE('',#771,0.500000000000000);
#773=EDGE_CURVE('',#767,#758,#772,.T.);
#774=ORIENTED_EDGE('',*,*,#773,.F.);
#775=CARTESIAN_POINT('',(6.820000000000000,1.270132181504942,1.610768123276097));
#776=DIRECTION('',(1.0,0.0,0.0));
#777=DIRECTION('',(0.0,0.0,-1.0));
#778=AXIS2_PLACEMENT_3D('',#775,#776,#777);
#779=CIRCLE('',#778,0.300000000000000);
#780=EDGE_CURVE('',#767,#749,#779,.T.);
#781=ORIENTED_EDGE('',*,*,#780,.T.);
#782=EDGE_LOOP('',(#756,#765,#774,#781));
#783=FACE_OUTER_BOUND('',#782,.T.);
#784=ADVANCED_FACE('',(#783),#745,.T.);
#785=CARTESIAN_POINT('',(6.820000000000000,1.270132181504942,1.610768123276097));
#786=DIRECTION('',(-1.0,-1.132183E-015,-2.440051E-016));
#787=DIRECTION('',(0.0,0.0,-1.0));
#788=AXIS2_PLACEMENT_3D('',#785,#786,#787);
#789=CYLINDRICAL_SURFACE('',#788,0.300000000000000);
#790=CARTESIAN_POINT('',(4.999999999999996,1.270132181504940,1.310768123276097));
#791=VERTEX_POINT('',#790);
#792=CARTESIAN_POINT('',(6.820000000000001,1.270132181504942,1.310768123276098));
#793=DIRECTION('',(-1.0,0.0,0.0));
#794=VECTOR('',#793,1.820000000000006);
#795=LINE('',#792,#794);
#796=EDGE_CURVE('',#767,#791,#795,.T.);
#797=ORIENTED_EDGE('',*,*,#796,.F.);
#798=CARTESIAN_POINT('',(6.820000000000000,1.270132181504942,1.610768123276097));
#799=DIRECTION('',(1.0,0.0,0.0));
#800=DIRECTION('',(0.0,0.0,-1.0));
#801=AXIS2_PLACEMENT_3D('',#798,#799,#800);
#802=CIRCLE('',#801,0.300000000000000);
#803=EDGE_CURVE('',#749,#767,#802,.T.);
#804=ORIENTED_EDGE('',*,*,#803,.F.);
#805=CARTESIAN_POINT('',(4.999999999999995,1.270132181504939,1.910768123276097));
#806=VERTEX_POINT('',#805);
#807=CARTESIAN_POINT('',(4.999999999999995,1.270132181504939,1.910768123276097));
#808=DIRECTION('',(1.0,0.0,0.0));
#809=VECTOR('',#808,1.820000000000006);
#810=LINE('',#807,#809);
#811=EDGE_CURVE('',#806,#749,#810,.T.);
#812=ORIENTED_EDGE('',*,*,#811,.F.);
#813=CARTESIAN_POINT('',(4.999999999999995,1.270132181504940,1.610768123276097));
#814=DIRECTION('',(1.0,0.0,0.0));
#815=DIRECTION('',(0.0,0.0,-1.0));
#816=AXIS2_PLACEMENT_3D('',#813,#814,#815);
#817=CIRCLE('',#816,0.300000000000000);
#818=EDGE_CURVE('',#806,#791,#817,.T.);
#819=ORIENTED_EDGE('',*,*,#818,.T.);
#820=EDGE_LOOP('',(#797,#804,#812,#819));
#821=FACE_OUTER_BOUND('',#820,.T.);
#822=ADVANCED_FACE('',(#821),#789,.T.);
#823=CARTESIAN_POINT('',(7.620000000000005,1.270132181504944,-4.953870149318506));
#824=DIRECTION('',(-6.162943E-016,-1.665335E-016,1.0));
#825=DIRECTION('',(-1.0,0.0,0.0));
#826=AXIS2_PLACEMENT_3D('',#823,#824,#825);
#827=CYLINDRICAL_SURFACE('',#826,0.300000000000000);
#828=CARTESIAN_POINT('',(7.320000000000005,1.270132181504944,-3.599970149318506));
#829=VERTEX_POINT('',#828);
#830=CARTESIAN_POINT('',(7.320000000000005,1.270132181504944,-3.599970149318506));
#831=DIRECTION('',(0.0,0.0,1.0));
#832=VECTOR('',#831,4.410738272594603);
#833=LINE('',#830,#832);
#834=EDGE_CURVE('',#829,#758,#833,.T.);
#835=ORIENTED_EDGE('',*,*,#834,.F.);
#836=CARTESIAN_POINT('',(7.920000000000004,1.270132181504944,-3.599970149318506));
#837=VERTEX_POINT('',#836);
#838=CARTESIAN_POINT('',(7.620000000000005,1.270132181504944,-3.599970149318506));
#839=DIRECTION('',(0.0,0.0,-1.0));
#840=DIRECTION('',(-1.0,0.0,0.0));
#841=AXIS2_PLACEMENT_3D('',#838,#839,#840);
#842=CIRCLE('',#841,0.300000000000000);
#843=EDGE_CURVE('',#837,#829,#842,.T.);
#844=ORIENTED_EDGE('',*,*,#843,.F.);
#845=CARTESIAN_POINT('',(7.920000000000001,1.270132181504943,0.810768123276098));
#846=DIRECTION('',(0.0,0.0,-1.0));
#847=VECTOR('',#846,4.410738272594603);
#848=LINE('',#845,#847);
#849=EDGE_CURVE('',#747,#837,#848,.T.);
#850=ORIENTED_EDGE('',*,*,#849,.F.);
#851=CARTESIAN_POINT('',(7.620000000000001,0.970132181504942,0.810768123276098));
#852=VERTEX_POINT('',#851);
#853=CARTESIAN_POINT('',(7.620000000000001,1.270132181504942,0.810768123276097));
#854=DIRECTION('',(0.0,0.0,-1.0));
#855=DIRECTION('',(-1.0,0.0,0.0));
#856=AXIS2_PLACEMENT_3D('',#853,#854,#855);
#857=CIRCLE('',#856,0.300000000000000);
#858=EDGE_CURVE('',#747,#852,#857,.T.);
#859=ORIENTED_EDGE('',*,*,#858,.T.);
#860=CARTESIAN_POINT('',(7.620000000000001,1.270132181504942,0.810768123276097));
#861=DIRECTION('',(0.0,0.0,-1.0));
#862=DIRECTION('',(-1.0,0.0,0.0));
#863=AXIS2_PLACEMENT_3D('',#860,#861,#862);
#864=CIRCLE('',#863,0.300000000000000);
#865=EDGE_CURVE('',#852,#758,#864,.T.);
#866=ORIENTED_EDGE('',*,*,#865,.T.);
#867=EDGE_LOOP('',(#835,#844,#850,#859,#866));
#868=FACE_OUTER_BOUND('',#867,.T.);
#869=ADVANCED_FACE('',(#868),#827,.T.);
#870=CARTESIAN_POINT('',(7.620000000000005,1.270132181504944,-4.953870149318506));
#871=DIRECTION('',(-6.162943E-016,-1.665335E-016,1.0));
#872=DIRECTION('',(-1.0,0.0,0.0));
#873=AXIS2_PLACEMENT_3D('',#870,#871,#872);
#874=CYLINDRICAL_SURFACE('',#873,0.300000000000000);
#875=ORIENTED_EDGE('',*,*,#834,.T.);
#876=ORIENTED_EDGE('',*,*,#764,.T.);
#877=ORIENTED_EDGE('',*,*,#849,.T.);
#878=CARTESIAN_POINT('',(7.620000000000005,1.270132181504944,-3.599970149318506));
#879=DIRECTION('',(0.0,0.0,-1.0));
#880=DIRECTION('',(-1.0,0.0,0.0));
#881=AXIS2_PLACEMENT_3D('',#878,#879,#880);
#882=CIRCLE('',#881,0.300000000000000);
#883=EDGE_CURVE('',#829,#837,#882,.T.);
#884=ORIENTED_EDGE('',*,*,#883,.F.);
#885=EDGE_LOOP('',(#875,#876,#877,#884));
#886=FACE_OUTER_BOUND('',#885,.T.);
#887=ADVANCED_FACE('',(#886),#874,.T.);
#888=CARTESIAN_POINT('',(6.820000000000000,1.270132181504942,1.610768123276097));
#889=DIRECTION('',(-1.0,-1.132183E-015,-2.440051E-016));
#890=DIRECTION('',(0.0,0.0,-1.0));
#891=AXIS2_PLACEMENT_3D('',#888,#889,#890);
#892=CYLINDRICAL_SURFACE('',#891,0.300000000000000);
#893=ORIENTED_EDGE('',*,*,#796,.T.);
#894=CARTESIAN_POINT('',(4.999999999999995,1.270132181504940,1.610768123276097));
#895=DIRECTION('',(1.0,0.0,0.0));
#896=DIRECTION('',(0.0,0.0,-1.0));
#897=AXIS2_PLACEMENT_3D('',#894,#895,#896);
#898=CIRCLE('',#897,0.300000000000000);
#899=EDGE_CURVE('',#791,#806,#898,.T.);
#900=ORIENTED_EDGE('',*,*,#899,.T.);
#901=ORIENTED_EDGE('',*,*,#811,.T.);
#902=ORIENTED_EDGE('',*,*,#780,.F.);
#903=EDGE_LOOP('',(#893,#900,#901,#902));
#904=FACE_OUTER_BOUND('',#903,.T.);
#905=ADVANCED_FACE('',(#904),#892,.T.);
#906=CARTESIAN_POINT('',(6.820000000000001,1.270132181504941,0.810768123276097));
#907=DIRECTION('',(8.881784E-016,-1.0,-1.665335E-016));
#908=DIRECTION('',(0.0,0.0,-1.0));
#909=AXIS2_PLACEMENT_3D('',#906,#907,#908);
#910=TOROIDAL_SURFACE('',#909,0.800000000000000,0.300000000000000);
#911=ORIENTED_EDGE('',*,*,#755,.T.);
#912=ORIENTED_EDGE('',*,*,#803,.T.);
#913=ORIENTED_EDGE('',*,*,#773,.T.);
#914=ORIENTED_EDGE('',*,*,#865,.F.);
#915=ORIENTED_EDGE('',*,*,#858,.F.);
#916=EDGE_LOOP('',(#911,#912,#913,#914,#915));
#917=FACE_OUTER_BOUND('',#916,.T.);
#918=ADVANCED_FACE('',(#917),#910,.T.);
#919=CARTESIAN_POINT('',(4.999999999999995,1.270132181504940,1.610768123276097));
#920=DIRECTION('',(1.0,0.0,0.0));
#921=DIRECTION('',(0.0,0.0,-1.0));
#922=AXIS2_PLACEMENT_3D('',#919,#920,#921);
#923=PLANE('',#922);
#924=ORIENTED_EDGE('',*,*,#899,.F.);
#925=ORIENTED_EDGE('',*,*,#818,.F.);
#926=EDGE_LOOP('',(#924,#925));
#927=FACE_OUTER_BOUND('',#926,.T.);
#928=ADVANCED_FACE('',(#927),#923,.F.);
#929=CARTESIAN_POINT('',(7.620000000000005,1.270132181504944,-3.599970149318506));
#930=DIRECTION('',(0.0,0.0,-1.0));
#931=DIRECTION('',(-1.0,0.0,0.0));
#932=AXIS2_PLACEMENT_3D('',#929,#930,#931);
#933=PLANE('',#932);
#934=ORIENTED_EDGE('',*,*,#883,.T.);
#935=ORIENTED_EDGE('',*,*,#843,.T.);
#936=EDGE_LOOP('',(#934,#935));
#937=FACE_OUTER_BOUND('',#936,.T.);
#938=ADVANCED_FACE('',(#937),#933,.T.);
#939=CLOSED_SHELL('',(#784,#822,#869,#887,#905,#918,#928,#938));
#940=MANIFOLD_SOLID_BREP('827',#939);
#941=STYLED_ITEM('NONE',(#181),#940);
#942=CARTESIAN_POINT('',(-5.000000000000003,1.270132181504929,1.610768123276086));
#943=DIRECTION('',(1.0,1.332268E-015,1.110223E-015));
#944=DIRECTION('',(0.0,-1.0,0.0));
#945=AXIS2_PLACEMENT_3D('',#942,#943,#944);
#946=CYLINDRICAL_SURFACE('',#945,0.400000000000000);
#947=CARTESIAN_POINT('',(4.999999999999998,0.870132181504942,1.610768123276097));
#948=VERTEX_POINT('',#947);
#949=CARTESIAN_POINT('',(-5.000000000000002,0.870132181504929,1.610768123276086));
#950=VERTEX_POINT('',#949);
#951=CARTESIAN_POINT('',(4.999999999999998,0.870132181504942,1.610768123276097));
#952=DIRECTION('',(-1.0,0.0,0.0));
#953=VECTOR('',#952,10.0);
#954=LINE('',#951,#953);
#955=EDGE_CURVE('',#948,#950,#954,.T.);
#956=ORIENTED_EDGE('',*,*,#955,.F.);
#957=CARTESIAN_POINT('',(4.999999999999997,1.670132181504942,1.610768123276097));
#958=VERTEX_POINT('',#957);
#959=CARTESIAN_POINT('',(4.999999999999997,1.270132181504942,1.610768123276097));
#960=DIRECTION('',(-1.0,0.0,0.0));
#961=DIRECTION('',(0.0,-1.0,0.0));
#962=AXIS2_PLACEMENT_3D('',#959,#960,#961);
#963=CIRCLE('',#962,0.400000000000000);
#964=EDGE_CURVE('',#958,#948,#963,.T.);
#965=ORIENTED_EDGE('',*,*,#964,.F.);
#966=CARTESIAN_POINT('',(-4.999999999999999,1.670132181504929,1.610768123276086));
#967=VERTEX_POINT('',#966);
#968=CARTESIAN_POINT('',(-4.999999999999999,1.670132181504929,1.610768123276086));
#969=DIRECTION('',(1.0,0.0,0.0));
#970=VECTOR('',#969,9.999999999999996);
#971=LINE('',#968,#970);
#972=EDGE_CURVE('',#967,#958,#971,.T.);
#973=ORIENTED_EDGE('',*,*,#972,.F.);
#974=CARTESIAN_POINT('',(-4.999999999999999,1.270132181504929,1.610768123276086));
#975=DIRECTION('',(1.0,0.0,0.0));
#976=DIRECTION('',(0.0,-1.0,0.0));
#977=AXIS2_PLACEMENT_3D('',#974,#975,#976);
#978=CIRCLE('',#977,0.400000000000000);
#979=EDGE_CURVE('',#950,#967,#978,.T.);
#980=ORIENTED_EDGE('',*,*,#979,.F.);
#981=EDGE_LOOP('',(#956,#965,#973,#980));
#982=FACE_OUTER_BOUND('',#981,.T.);
#983=ADVANCED_FACE('',(#982),#946,.F.);
#984=CARTESIAN_POINT('',(-4.999999999999998,-1.270338171000931,1.610371528094606));
#985=DIRECTION('',(1.0,1.332268E-015,1.110223E-015));
#986=DIRECTION('',(0.0,-1.0,0.0));
#987=AXIS2_PLACEMENT_3D('',#984,#985,#986);
#988=CYLINDRICAL_SURFACE('',#987,0.400000000000000);
#989=CARTESIAN_POINT('',(5.000000000000003,-1.670338171000918,1.610371528094617));
#990=VERTEX_POINT('',#989);
#991=CARTESIAN_POINT('',(-4.999999999999997,-1.670338171000931,1.610371528094606));
#992=VERTEX_POINT('',#991);
#993=CARTESIAN_POINT('',(5.000000000000003,-1.670338171000918,1.610371528094617));
#994=DIRECTION('',(-1.0,0.0,0.0));
#995=VECTOR('',#994,10.0);
#996=LINE('',#993,#995);
#997=EDGE_CURVE('',#990,#992,#996,.T.);
#998=ORIENTED_EDGE('',*,*,#997,.F.);
#999=CARTESIAN_POINT('',(5.000000000000002,-0.870338171000918,1.610371528094617));
#1000=VERTEX_POINT('',#999);
#1001=CARTESIAN_POINT('',(5.000000000000002,-1.270338171000918,1.610371528094617));
#1002=DIRECTION('',(-1.0,0.0,0.0));
#1003=DIRECTION('',(0.0,-1.0,0.0));
#1004=AXIS2_PLACEMENT_3D('',#1001,#1002,#1003);
#1005=CIRCLE('',#1004,0.400000000000000);
#1006=EDGE_CURVE('',#1000,#990,#1005,.T.);
#1007=ORIENTED_EDGE('',*,*,#1006,.F.);
#1008=CARTESIAN_POINT('',(-4.999999999999996,-0.870338171000931,1.610371528094606));
#1009=VERTEX_POINT('',#1008);
#1010=CARTESIAN_POINT('',(-4.999999999999996,-0.870338171000931,1.610371528094606));
#1011=DIRECTION('',(1.0,0.0,0.0));
#1012=VECTOR('',#1011,9.999999999999996);
#1013=LINE('',#1010,#1012);
#1014=EDGE_CURVE('',#1009,#1000,#1013,.T.);
#1015=ORIENTED_EDGE('',*,*,#1014,.F.);
#1016=CARTESIAN_POINT('',(-4.999999999999996,-1.270338171000931,1.610371528094606));
#1017=DIRECTION('',(1.0,0.0,0.0));
#1018=DIRECTION('',(0.0,-1.0,0.0));
#1019=AXIS2_PLACEMENT_3D('',#1016,#1017,#1018);
#1020=CIRCLE('',#1019,0.400000000000000);
#1021=EDGE_CURVE('',#992,#1009,#1020,.T.);
#1022=ORIENTED_EDGE('',*,*,#1021,.F.);
#1023=EDGE_LOOP('',(#998,#1007,#1015,#1022));
#1024=FACE_OUTER_BOUND('',#1023,.T.);
#1025=ADVANCED_FACE('',(#1024),#988,.F.);
#1026=CARTESIAN_POINT('',(-5.000000000000002,0.000357219311848,4.881304056003646));
#1027=DIRECTION('',(1.0,1.332268E-015,1.065814E-015));
#1028=DIRECTION('',(0.0,-1.0,0.0));
#1029=AXIS2_PLACEMENT_3D('',#1026,#1027,#1028);
#1030=CYLINDRICAL_SURFACE('',#1029,0.400000000000000);
#1031=CARTESIAN_POINT('',(4.999999999999999,-0.399642780688138,4.881304056003657));
#1032=VERTEX_POINT('',#1031);
#1033=CARTESIAN_POINT('',(-5.000000000000001,-0.399642780688152,4.881304056003646));
#1034=VERTEX_POINT('',#1033);
#1035=CARTESIAN_POINT('',(4.999999999999999,-0.399642780688138,4.881304056003657));
#1036=DIRECTION('',(-1.0,0.0,0.0));
#1037=VECTOR('',#1036,10.0);
#1038=LINE('',#1035,#1037);
#1039=EDGE_CURVE('',#1032,#1034,#1038,.T.);
#1040=ORIENTED_EDGE('',*,*,#1039,.F.);
#1041=CARTESIAN_POINT('',(4.999999999999996,0.400357219311862,4.881304056003657));
#1042=VERTEX_POINT('',#1041);
#1043=CARTESIAN_POINT('',(4.999999999999996,0.000357219311862,4.881304056003657));
#1044=DIRECTION('',(-1.0,0.0,0.0));
#1045=DIRECTION('',(0.0,-1.0,0.0));
#1046=AXIS2_PLACEMENT_3D('',#1043,#1044,#1045);
#1047=CIRCLE('',#1046,0.400000000000000);
#1048=EDGE_CURVE('',#1042,#1032,#1047,.T.);
#1049=ORIENTED_EDGE('',*,*,#1048,.F.);
#1050=CARTESIAN_POINT('',(-5.000000000000001,0.400357219311849,4.881304056003646));
#1051=VERTEX_POINT('',#1050);
#1052=CARTESIAN_POINT('',(-5.000000000000001,0.400357219311849,4.881304056003646));
#1053=DIRECTION('',(1.0,0.0,0.0));
#1054=VECTOR('',#1053,9.999999999999996);
#1055=LINE('',#1052,#1054);
#1056=EDGE_CURVE('',#1051,#1042,#1055,.T.);
#1057=ORIENTED_EDGE('',*,*,#1056,.F.);
#1058=CARTESIAN_POINT('',(-5.000000000000001,0.000357219311848,4.881304056003646));
#1059=DIRECTION('',(1.0,0.0,0.0));
#1060=DIRECTION('',(0.0,-1.0,0.0));
#1061=AXIS2_PLACEMENT_3D('',#1058,#1059,#1060);
#1062=CIRCLE('',#1061,0.400000000000000);
#1063=EDGE_CURVE('',#1034,#1051,#1062,.T.);
#1064=ORIENTED_EDGE('',*,*,#1063,.F.);
#1065=EDGE_LOOP('',(#1040,#1049,#1057,#1064));
#1066=FACE_OUTER_BOUND('',#1065,.T.);
#1067=ADVANCED_FACE('',(#1066),#1030,.F.);
#1068=CARTESIAN_POINT('',(-5.000000000000004,1.271052609624628,4.388714642843739));
#1069=DIRECTION('',(1.0,1.332268E-015,1.065814E-015));
#1070=DIRECTION('',(0.0,-1.0,0.0));
#1071=AXIS2_PLACEMENT_3D('',#1068,#1069,#1070);
#1072=CYLINDRICAL_SURFACE('',#1071,0.400000000000000);
#1073=CARTESIAN_POINT('',(4.999999999999996,0.871052609624641,4.388714642843750));
#1074=VERTEX_POINT('',#1073);
#1075=CARTESIAN_POINT('',(-5.000000000000004,0.871052609624627,4.388714642843739));
#1076=VERTEX_POINT('',#1075);
#1077=CARTESIAN_POINT('',(4.999999999999996,0.871052609624641,4.388714642843750));
#1078=DIRECTION('',(-1.0,0.0,0.0));
#1079=VECTOR('',#1078,10.0);
#1080=LINE('',#1077,#1079);
#1081=EDGE_CURVE('',#1074,#1076,#1080,.T.);
#1082=ORIENTED_EDGE('',*,*,#1081,.F.);
#1083=CARTESIAN_POINT('',(4.999999999999994,1.671052609624641,4.388714642843750));
#1084=VERTEX_POINT('',#1083);
#1085=CARTESIAN_POINT('',(4.999999999999994,1.271052609624641,4.388714642843750));
#1086=DIRECTION('',(-1.0,0.0,0.0));
#1087=DIRECTION('',(0.0,-1.0,0.0));
#1088=AXIS2_PLACEMENT_3D('',#1085,#1086,#1087);
#1089=CIRCLE('',#1088,0.400000000000000);
#1090=EDGE_CURVE('',#1084,#1074,#1089,.T.);
#1091=ORIENTED_EDGE('',*,*,#1090,.F.);
#1092=CARTESIAN_POINT('',(-5.000000000000003,1.671052609624628,4.388714642843739));
#1093=VERTEX_POINT('',#1092);
#1094=CARTESIAN_POINT('',(-5.000000000000003,1.671052609624628,4.388714642843739));
#1095=DIRECTION('',(1.0,0.0,0.0));
#1096=VECTOR('',#1095,9.999999999999996);
#1097=LINE('',#1094,#1096);
#1098=EDGE_CURVE('',#1093,#1084,#1097,.T.);
#1099=ORIENTED_EDGE('',*,*,#1098,.F.);
#1100=CARTESIAN_POINT('',(-5.000000000000003,1.271052609624628,4.388714642843739));
#1101=DIRECTION('',(1.0,0.0,0.0));
#1102=DIRECTION('',(0.0,-1.0,0.0));
#1103=AXIS2_PLACEMENT_3D('',#1100,#1101,#1102);
#1104=CIRCLE('',#1103,0.400000000000000);
#1105=EDGE_CURVE('',#1076,#1093,#1104,.T.);
#1106=ORIENTED_EDGE('',*,*,#1105,.F.);
#1107=EDGE_LOOP('',(#1082,#1091,#1099,#1106));
#1108=FACE_OUTER_BOUND('',#1107,.T.);
#1109=ADVANCED_FACE('',(#1108),#1072,.F.);
#1110=CARTESIAN_POINT('',(-5.000000000000002,-1.269417742881232,4.388318047662257));
#1111=DIRECTION('',(1.0,1.332268E-015,1.065814E-015));
#1112=DIRECTION('',(0.0,-1.0,0.0));
#1113=AXIS2_PLACEMENT_3D('',#1110,#1111,#1112);
#1114=CYLINDRICAL_SURFACE('',#1113,0.400000000000000);
#1115=CARTESIAN_POINT('',(4.999999999999999,-1.669417742881219,4.388318047662268));
#1116=VERTEX_POINT('',#1115);
#1117=CARTESIAN_POINT('',(-5.000000000000001,-1.669417742881232,4.388318047662257));
#1118=VERTEX_POINT('',#1117);
#1119=CARTESIAN_POINT('',(4.999999999999999,-1.669417742881219,4.388318047662268));
#1120=DIRECTION('',(-1.0,0.0,0.0));
#1121=VECTOR('',#1120,10.0);
#1122=LINE('',#1119,#1121);
#1123=EDGE_CURVE('',#1116,#1118,#1122,.T.);
#1124=ORIENTED_EDGE('',*,*,#1123,.F.);
#1125=CARTESIAN_POINT('',(4.999999999999998,-0.869417742881219,4.388318047662268));
#1126=VERTEX_POINT('',#1125);
#1127=CARTESIAN_POINT('',(4.999999999999998,-1.269417742881219,4.388318047662268));
#1128=DIRECTION('',(-1.0,0.0,0.0));
#1129=DIRECTION('',(0.0,-1.0,0.0));
#1130=AXIS2_PLACEMENT_3D('',#1127,#1128,#1129);
#1131=CIRCLE('',#1130,0.400000000000000);
#1132=EDGE_CURVE('',#1126,#1116,#1131,.T.);
#1133=ORIENTED_EDGE('',*,*,#1132,.F.);
#1134=CARTESIAN_POINT('',(-4.999999999999999,-0.869417742881232,4.388318047662257));
#1135=VERTEX_POINT('',#1134);
#1136=CARTESIAN_POINT('',(-4.999999999999999,-0.869417742881232,4.388318047662257));
#1137=DIRECTION('',(1.0,0.0,0.0));
#1138=VECTOR('',#1137,9.999999999999996);
#1139=LINE('',#1136,#1138);
#1140=EDGE_CURVE('',#1135,#1126,#1139,.T.);
#1141=ORIENTED_EDGE('',*,*,#1140,.F.);
#1142=CARTESIAN_POINT('',(-4.999999999999999,-1.269417742881232,4.388318047662257));
#1143=DIRECTION('',(1.0,0.0,0.0));
#1144=DIRECTION('',(0.0,-1.0,0.0));
#1145=AXIS2_PLACEMENT_3D('',#1142,#1143,#1144);
#1146=CIRCLE('',#1145,0.400000000000000);
#1147=EDGE_CURVE('',#1118,#1135,#1146,.T.);
#1148=ORIENTED_EDGE('',*,*,#1147,.F.);
#1149=EDGE_LOOP('',(#1124,#1133,#1141,#1148));
#1150=FACE_OUTER_BOUND('',#1149,.T.);
#1151=ADVANCED_FACE('',(#1150),#1114,.F.);
#1152=CARTESIAN_POINT('',(-4.999999999999997,0.000357219311849,1.117782114934698));
#1153=DIRECTION('',(1.0,1.332268E-015,1.110223E-015));
#1154=DIRECTION('',(0.0,-1.0,0.0));
#1155=AXIS2_PLACEMENT_3D('',#1152,#1153,#1154);
#1156=CYLINDRICAL_SURFACE('',#1155,0.400000000000000);
#1157=CARTESIAN_POINT('',(5.000000000000004,-0.399642780688137,1.117782114934709));
#1158=VERTEX_POINT('',#1157);
#1159=CARTESIAN_POINT('',(-4.999999999999996,-0.399642780688151,1.117782114934698));
#1160=VERTEX_POINT('',#1159);
#1161=CARTESIAN_POINT('',(5.000000000000004,-0.399642780688137,1.117782114934709));
#1162=DIRECTION('',(-1.0,0.0,0.0));
#1163=VECTOR('',#1162,10.0);
#1164=LINE('',#1161,#1163);
#1165=EDGE_CURVE('',#1158,#1160,#1164,.T.);
#1166=ORIENTED_EDGE('',*,*,#1165,.F.);
#1167=CARTESIAN_POINT('',(4.999999999999999,0.400357219311863,1.117782114934709));
#1168=VERTEX_POINT('',#1167);
#1169=CARTESIAN_POINT('',(4.999999999999999,0.000357219311863,1.117782114934709));
#1170=DIRECTION('',(-1.0,0.0,0.0));
#1171=DIRECTION('',(0.0,-1.0,0.0));
#1172=AXIS2_PLACEMENT_3D('',#1169,#1170,#1171);
#1173=CIRCLE('',#1172,0.400000000000000);
#1174=EDGE_CURVE('',#1168,#1158,#1173,.T.);
#1175=ORIENTED_EDGE('',*,*,#1174,.F.);
#1176=CARTESIAN_POINT('',(-4.999999999999997,0.400357219311849,1.117782114934698));
#1177=VERTEX_POINT('',#1176);
#1178=CARTESIAN_POINT('',(-4.999999999999997,0.400357219311849,1.117782114934698));
#1179=DIRECTION('',(1.0,0.0,0.0));
#1180=VECTOR('',#1179,9.999999999999996);
#1181=LINE('',#1178,#1180);
#1182=EDGE_CURVE('',#1177,#1168,#1181,.T.);
#1183=ORIENTED_EDGE('',*,*,#1182,.F.);
#1184=CARTESIAN_POINT('',(-4.999999999999997,0.000357219311849,1.117782114934698));
#1185=DIRECTION('',(1.0,0.0,0.0));
#1186=DIRECTION('',(0.0,-1.0,0.0));
#1187=AXIS2_PLACEMENT_3D('',#1184,#1185,#1186);
#1188=CIRCLE('',#1187,0.400000000000000);
#1189=EDGE_CURVE('',#1160,#1177,#1188,.T.);
#1190=ORIENTED_EDGE('',*,*,#1189,.F.);
#1191=EDGE_LOOP('',(#1166,#1175,#1183,#1190));
#1192=FACE_OUTER_BOUND('',#1191,.T.);
#1193=ADVANCED_FACE('',(#1192),#1156,.F.);
#1194=CARTESIAN_POINT('',(-4.900000000000000,0.000357219311849,2.999543085469172));
#1195=DIRECTION('',(-1.0,2.400101E-016,-2.775745E-016));
#1196=DIRECTION('',(0.0,0.0,1.0));
#1197=AXIS2_PLACEMENT_3D('',#1194,#1195,#1196);
#1198=TOROIDAL_SURFACE('',#1197,2.900000000000000,0.100000000000000);
#1199=CARTESIAN_POINT('',(-4.900000000000000,0.000357219311849,5.999543085469172));
#1200=VERTEX_POINT('',#1199);
#1201=CARTESIAN_POINT('',(-5.000000000000001,0.000357219311849,5.899543085469172));
#1202=VERTEX_POINT('',#1201);
#1203=CARTESIAN_POINT('',(-4.900000000000000,0.000357219311849,5.899543085469172));
#1204=DIRECTION('',(0.0,-1.0,0.0));
#1205=DIRECTION('',(0.0,0.0,1.0));
#1206=AXIS2_PLACEMENT_3D('',#1203,#1204,#1205);
#1207=CIRCLE('',#1206,0.100000000000000);
#1208=EDGE_CURVE('',#1200,#1202,#1207,.T.);
#1209=ORIENTED_EDGE('',*,*,#1208,.F.);
#1210=CARTESIAN_POINT('',(-4.899999999999999,2.084332330688840,0.841523684453217));
#1211=VERTEX_POINT('',#1210);
#1212=CARTESIAN_POINT('',(-4.900000000000000,0.000357219311849,2.999543085469172));
#1213=DIRECTION('',(-1.000000000000000,2.538618E-016,-2.628816E-016));
#1214=DIRECTION('',(3.654484E-016,0.694658370458997,-0.719339800338651));
#1215=AXIS2_PLACEMENT_3D('',#1212,#1213,#1214);
#1216=CIRCLE('',#1215,3.000000000000000);
#1217=EDGE_CURVE('',#1200,#1211,#1216,.T.);
#1218=ORIENTED_EDGE('',*,*,#1217,.T.);
#1219=CARTESIAN_POINT('',(-4.899999999999998,0.000357219311850,-0.000456914530828));
#1220=VERTEX_POINT('',#1219);
#1221=CARTESIAN_POINT('',(-4.900000000000000,0.000357219311849,2.999543085469172));
#1222=DIRECTION('',(-1.000000000000000,2.538618E-016,-2.628816E-016));
#1223=DIRECTION('',(3.654484E-016,0.694658370458997,-0.719339800338651));
#1224=AXIS2_PLACEMENT_3D('',#1221,#1222,#1223);
#1225=CIRCLE('',#1224,3.000000000000000);
#1226=EDGE_CURVE('',#1211,#1220,#1225,.T.);
#1227=ORIENTED_EDGE('',*,*,#1226,.T.);
#1228=CARTESIAN_POINT('',(-4.999999999999999,0.000357219311850,0.099543085469172));
#1229=VERTEX_POINT('',#1228);
#1230=CARTESIAN_POINT('',(-4.899999999999999,0.000357219311850,0.099543085469172));
#1231=DIRECTION('',(0.0,-1.0,0.0));
#1232=DIRECTION('',(0.0,0.0,-1.0));
#1233=AXIS2_PLACEMENT_3D('',#1230,#1231,#1232);
#1234=CIRCLE('',#1233,0.100000000000000);
#1235=EDGE_CURVE('',#1229,#1220,#1234,.T.);
#1236=ORIENTED_EDGE('',*,*,#1235,.F.);
#1237=CARTESIAN_POINT('',(-4.999999999999999,0.000357219311849,2.999543085469172));
#1238=DIRECTION('',(1.000000000000000,-2.545197E-016,2.635628E-016));
#1239=DIRECTION('',(3.663954E-016,0.694658370458997,-0.719339800338651));
#1240=AXIS2_PLACEMENT_3D('',#1237,#1238,#1239);
#1241=CIRCLE('',#1240,2.900000000000000);
#1242=EDGE_CURVE('',#1229,#1202,#1241,.T.);
#1243=ORIENTED_EDGE('',*,*,#1242,.T.);
#1244=EDGE_LOOP('',(#1209,#1218,#1227,#1236,#1243));
#1245=FACE_OUTER_BOUND('',#1244,.T.);
#1246=ADVANCED_FACE('',(#1245),#1198,.T.);
#1247=CARTESIAN_POINT('',(-4.999999999999999,0.000357219311849,2.999543085469172));
#1248=DIRECTION('',(1.0,-2.400101E-016,2.775745E-016));
#1249=DIRECTION('',(-3.663954E-016,-0.694658370458997,0.719339800338651));
#1250=AXIS2_PLACEMENT_3D('',#1247,#1248,#1249);
#1251=CYLINDRICAL_SURFACE('',#1250,3.0);
#1252=CARTESIAN_POINT('',(-4.900000000000000,-2.083617892065142,5.157562486485126));
#1253=VERTEX_POINT('',#1252);
#1254=CARTESIAN_POINT('',(4.899999999999997,-2.083617892065145,5.157562486485128));
#1255=VERTEX_POINT('',#1254);
#1256=CARTESIAN_POINT('',(-4.900000000000000,-2.083617892065142,5.157562486485126));
#1257=DIRECTION('',(1.0,0.0,0.0));
#1258=VECTOR('',#1257,9.799999999999997);
#1259=LINE('',#1256,#1258);
#1260=EDGE_CURVE('',#1253,#1255,#1259,.T.);
#1261=ORIENTED_EDGE('',*,*,#1260,.F.);
#1262=CARTESIAN_POINT('',(-4.900000000000000,0.000357219311849,2.999543085469172));
#1263=DIRECTION('',(-1.000000000000000,2.538618E-016,-2.628816E-016));
#1264=DIRECTION('',(3.654484E-016,0.694658370458997,-0.719339800338651));
#1265=AXIS2_PLACEMENT_3D('',#1262,#1263,#1264);
#1266=CIRCLE('',#1265,3.000000000000000);
#1267=EDGE_CURVE('',#1220,#1253,#1266,.T.);
#1268=ORIENTED_EDGE('',*,*,#1267,.F.);
#1269=ORIENTED_EDGE('',*,*,#1226,.F.);
#1270=CARTESIAN_POINT('',(4.899999999999999,2.084332330688838,0.841523684453219));
#1271=VERTEX_POINT('',#1270);
#1272=CARTESIAN_POINT('',(4.899999999999999,2.084332330688838,0.841523684453219));
#1273=DIRECTION('',(-1.0,0.0,0.0));
#1274=VECTOR('',#1273,9.799999999999997);
#1275=LINE('',#1272,#1274);
#1276=EDGE_CURVE('',#1271,#1211,#1275,.T.);
#1277=ORIENTED_EDGE('',*,*,#1276,.F.);
#1278=CARTESIAN_POINT('',(4.899999999999998,0.000357219311847,-0.000456914530826));
#1279=VERTEX_POINT('',#1278);
#1280=CARTESIAN_POINT('',(4.899999999999998,0.000357219311847,2.999543085469175));
#1281=DIRECTION('',(1.000000000000000,-2.538618E-016,2.628816E-016));
#1282=DIRECTION('',(3.654484E-016,0.694658370458997,-0.719339800338651));
#1283=AXIS2_PLACEMENT_3D('',#1280,#1281,#1282);
#1284=CIRCLE('',#1283,3.000000000000000);
#1285=EDGE_CURVE('',#1279,#1271,#1284,.T.);
#1286=ORIENTED_EDGE('',*,*,#1285,.F.);
#1287=CARTESIAN_POINT('',(4.899999999999998,0.000357219311847,2.999543085469175));
#1288=DIRECTION('',(1.000000000000000,-2.538618E-016,2.628816E-016));
#1289=DIRECTION('',(3.654484E-016,0.694658370458997,-0.719339800338651));
#1290=AXIS2_PLACEMENT_3D('',#1287,#1288,#1289);
#1291=CIRCLE('',#1290,3.000000000000000);
#1292=EDGE_CURVE('',#1255,#1279,#1291,.T.);
#1293=ORIENTED_EDGE('',*,*,#1292,.F.);
#1294=EDGE_LOOP('',(#1261,#1268,#1269,#1277,#1286,#1293));
#1295=FACE_OUTER_BOUND('',#1294,.T.);
#1296=ADVANCED_FACE('',(#1295),#1251,.T.);
#1297=CARTESIAN_POINT('',(4.899999999999998,0.000357219311847,2.999543085469175));
#1298=DIRECTION('',(-1.0,2.400101E-016,-2.775745E-016));
#1299=DIRECTION('',(0.0,0.0,1.0));
#1300=AXIS2_PLACEMENT_3D('',#1297,#1298,#1299);
#1301=TOROIDAL_SURFACE('',#1300,2.900000000000000,0.100000000000000);
#1302=CARTESIAN_POINT('',(4.999999999999997,0.000357219311847,5.899543085469174));
#1303=VERTEX_POINT('',#1302);
#1304=CARTESIAN_POINT('',(4.899999999999996,0.000357219311847,5.999543085469174));
#1305=VERTEX_POINT('',#1304);
#1306=CARTESIAN_POINT('',(4.899999999999997,0.000357219311847,5.899543085469174));
#1307=DIRECTION('',(0.0,-1.0,0.0));
#1308=DIRECTION('',(0.0,0.0,1.0));
#1309=AXIS2_PLACEMENT_3D('',#1306,#1307,#1308);
#1310=CIRCLE('',#1309,0.100000000000000);
#1311=EDGE_CURVE('',#1303,#1305,#1310,.T.);
#1312=ORIENTED_EDGE('',*,*,#1311,.F.);
#1313=CARTESIAN_POINT('',(4.999999999999999,0.000357219311847,0.099543085469175));
#1314=VERTEX_POINT('',#1313);
#1315=CARTESIAN_POINT('',(4.999999999999997,0.000357219311847,2.999543085469175));
#1316=DIRECTION('',(-1.0,2.545197E-016,-2.635628E-016));
#1317=DIRECTION('',(3.663954E-016,0.694658370458997,-0.719339800338651));
#1318=AXIS2_PLACEMENT_3D('',#1315,#1316,#1317);
#1319=CIRCLE('',#1318,2.900000000000000);
#1320=EDGE_CURVE('',#1303,#1314,#1319,.T.);
#1321=ORIENTED_EDGE('',*,*,#1320,.T.);
#1322=CARTESIAN_POINT('',(4.899999999999999,0.000357219311847,0.099543085469175));
#1323=DIRECTION('',(0.0,-1.0,0.0));
#1324=DIRECTION('',(0.0,0.0,-1.0));
#1325=AXIS2_PLACEMENT_3D('',#1322,#1323,#1324);
#1326=CIRCLE('',#1325,0.100000000000000);
#1327=EDGE_CURVE('',#1279,#1314,#1326,.T.);
#1328=ORIENTED_EDGE('',*,*,#1327,.F.);
#1329=ORIENTED_EDGE('',*,*,#1285,.T.);
#1330=CARTESIAN_POINT('',(4.899999999999998,0.000357219311847,2.999543085469175));
#1331=DIRECTION('',(1.000000000000000,-2.538618E-016,2.628816E-016));
#1332=DIRECTION('',(3.654484E-016,0.694658370458997,-0.719339800338651));
#1333=AXIS2_PLACEMENT_3D('',#1330,#1331,#1332);
#1334=CIRCLE('',#1333,3.000000000000000);
#1335=EDGE_CURVE('',#1271,#1305,#1334,.T.);
#1336=ORIENTED_EDGE('',*,*,#1335,.T.);
#1337=EDGE_LOOP('',(#1312,#1321,#1328,#1329,#1336));
#1338=FACE_OUTER_BOUND('',#1337,.T.);
#1339=ADVANCED_FACE('',(#1338),#1301,.T.);
#1340=CARTESIAN_POINT('',(4.899999999999998,0.000357219311847,2.999543085469175));
#1341=DIRECTION('',(-1.0,2.400101E-016,-2.775745E-016));
#1342=DIRECTION('',(0.0,0.0,1.0));
#1343=AXIS2_PLACEMENT_3D('',#1340,#1341,#1342);
#1344=TOROIDAL_SURFACE('',#1343,2.900000000000000,0.100000000000000);
#1345=ORIENTED_EDGE('',*,*,#1311,.T.);
#1346=CARTESIAN_POINT('',(4.899999999999998,0.000357219311847,2.999543085469175));
#1347=DIRECTION('',(1.000000000000000,-2.538618E-016,2.628816E-016));
#1348=DIRECTION('',(3.654484E-016,0.694658370458997,-0.719339800338651));
#1349=AXIS2_PLACEMENT_3D('',#1346,#1347,#1348);
#1350=CIRCLE('',#1349,3.000000000000000);
#1351=EDGE_CURVE('',#1305,#1255,#1350,.T.);
#1352=ORIENTED_EDGE('',*,*,#1351,.T.);
#1353=ORIENTED_EDGE('',*,*,#1292,.T.);
#1354=ORIENTED_EDGE('',*,*,#1327,.T.);
#1355=CARTESIAN_POINT('',(4.999999999999996,-2.014152055019244,5.085628506451263));
#1356=VERTEX_POINT('',#1355);
#1357=CARTESIAN_POINT('',(4.999999999999997,0.000357219311847,2.999543085469175));
#1358=DIRECTION('',(-1.0,2.545197E-016,-2.635628E-016));
#1359=DIRECTION('',(3.663954E-016,0.694658370458997,-0.719339800338651));
#1360=AXIS2_PLACEMENT_3D('',#1357,#1358,#1359);
#1361=CIRCLE('',#1360,2.900000000000000);
#1362=EDGE_CURVE('',#1314,#1356,#1361,.T.);
#1363=ORIENTED_EDGE('',*,*,#1362,.T.);
#1364=CARTESIAN_POINT('',(4.999999999999997,0.000357219311847,2.999543085469175));
#1365=DIRECTION('',(-1.0,2.545197E-016,-2.635628E-016));
#1366=DIRECTION('',(3.663954E-016,0.694658370458997,-0.719339800338651));
#1367=AXIS2_PLACEMENT_3D('',#1364,#1365,#1366);
#1368=CIRCLE('',#1367,2.900000000000000);
#1369=EDGE_CURVE('',#1356,#1303,#1368,.T.);
#1370=ORIENTED_EDGE('',*,*,#1369,.T.);
#1371=EDGE_LOOP('',(#1345,#1352,#1353,#1354,#1363,#1370));
#1372=FACE_OUTER_BOUND('',#1371,.T.);
#1373=ADVANCED_FACE('',(#1372),#1344,.T.);
#1374=CARTESIAN_POINT('',(-4.999999999999999,0.000357219311849,2.999543085469172));
#1375=DIRECTION('',(1.0,-2.400101E-016,2.775745E-016));
#1376=DIRECTION('',(-3.663954E-016,-0.694658370458997,0.719339800338651));
#1377=AXIS2_PLACEMENT_3D('',#1374,#1375,#1376);
#1378=CYLINDRICAL_SURFACE('',#1377,3.0);
#1379=ORIENTED_EDGE('',*,*,#1260,.T.);
#1380=ORIENTED_EDGE('',*,*,#1351,.F.);
#1381=ORIENTED_EDGE('',*,*,#1335,.F.);
#1382=ORIENTED_EDGE('',*,*,#1276,.T.);
#1383=ORIENTED_EDGE('',*,*,#1217,.F.);
#1384=CARTESIAN_POINT('',(-4.900000000000000,0.000357219311849,2.999543085469172));
#1385=DIRECTION('',(-1.000000000000000,2.538618E-016,-2.628816E-016));
#1386=DIRECTION('',(3.654484E-016,0.694658370458997,-0.719339800338651));
#1387=AXIS2_PLACEMENT_3D('',#1384,#1385,#1386);
#1388=CIRCLE('',#1387,3.000000000000000);
#1389=EDGE_CURVE('',#1253,#1200,#1388,.T.);
#1390=ORIENTED_EDGE('',*,*,#1389,.F.);
#1391=EDGE_LOOP('',(#1379,#1380,#1381,#1382,#1383,#1390));
#1392=FACE_OUTER_BOUND('',#1391,.T.);
#1393=ADVANCED_FACE('',(#1392),#1378,.T.);
#1394=CARTESIAN_POINT('',(4.999999999999997,0.000357219311848,2.999543085469173));
#1395=DIRECTION('',(-1.0,0.0,0.0));
#1396=DIRECTION('',(0.0,0.719339800338651,0.694658370458997));
#1397=AXIS2_PLACEMENT_3D('',#1394,#1395,#1396);
#1398=PLANE('',#1397);
#1399=ORIENTED_EDGE('',*,*,#1369,.F.);
#1400=ORIENTED_EDGE('',*,*,#1362,.F.);
#1401=ORIENTED_EDGE('',*,*,#1320,.F.);
#1402=EDGE_LOOP('',(#1399,#1400,#1401));
#1403=FACE_OUTER_BOUND('',#1402,.T.);
#1404=CARTESIAN_POINT('',(4.999999999999997,1.270132181504942,1.610768123276097));
#1405=DIRECTION('',(-1.0,0.0,0.0));
#1406=DIRECTION('',(0.0,-1.0,0.0));
#1407=AXIS2_PLACEMENT_3D('',#1404,#1405,#1406);
#1408=CIRCLE('',#1407,0.400000000000000);
#1409=EDGE_CURVE('',#948,#958,#1408,.T.);
#1410=ORIENTED_EDGE('',*,*,#1409,.T.);
#1411=ORIENTED_EDGE('',*,*,#964,.T.);
#1412=EDGE_LOOP('',(#1410,#1411));
#1413=FACE_BOUND('',#1412,.T.);
#1414=CARTESIAN_POINT('',(5.000000000000002,-1.270338171000918,1.610371528094617));
#1415=DIRECTION('',(-1.0,0.0,0.0));
#1416=DIRECTION('',(0.0,-1.0,0.0));
#1417=AXIS2_PLACEMENT_3D('',#1414,#1415,#1416);
#1418=CIRCLE('',#1417,0.400000000000000);
#1419=EDGE_CURVE('',#990,#1000,#1418,.T.);
#1420=ORIENTED_EDGE('',*,*,#1419,.T.);
#1421=ORIENTED_EDGE('',*,*,#1006,.T.);
#1422=EDGE_LOOP('',(#1420,#1421));
#1423=FACE_BOUND('',#1422,.T.);
#1424=CARTESIAN_POINT('',(4.999999999999996,0.000357219311862,4.881304056003657));
#1425=DIRECTION('',(-1.0,0.0,0.0));
#1426=DIRECTION('',(0.0,-1.0,0.0));
#1427=AXIS2_PLACEMENT_3D('',#1424,#1425,#1426);
#1428=CIRCLE('',#1427,0.400000000000000);
#1429=EDGE_CURVE('',#1032,#1042,#1428,.T.);
#1430=ORIENTED_EDGE('',*,*,#1429,.T.);
#1431=ORIENTED_EDGE('',*,*,#1048,.T.);
#1432=EDGE_LOOP('',(#1430,#1431));
#1433=FACE_BOUND('',#1432,.T.);
#1434=CARTESIAN_POINT('',(4.999999999999994,1.271052609624641,4.388714642843750));
#1435=DIRECTION('',(-1.0,0.0,0.0));
#1436=DIRECTION('',(0.0,-1.0,0.0));
#1437=AXIS2_PLACEMENT_3D('',#1434,#1435,#1436);
#1438=CIRCLE('',#1437,0.400000000000000);
#1439=EDGE_CURVE('',#1074,#1084,#1438,.T.);
#1440=ORIENTED_EDGE('',*,*,#1439,.T.);
#1441=ORIENTED_EDGE('',*,*,#1090,.T.);
#1442=EDGE_LOOP('',(#1440,#1441));
#1443=FACE_BOUND('',#1442,.T.);
#1444=CARTESIAN_POINT('',(4.999999999999998,-1.269417742881219,4.388318047662268));
#1445=DIRECTION('',(-1.0,0.0,0.0));
#1446=DIRECTION('',(0.0,-1.0,0.0));
#1447=AXIS2_PLACEMENT_3D('',#1444,#1445,#1446);
#1448=CIRCLE('',#1447,0.400000000000000);
#1449=EDGE_CURVE('',#1116,#1126,#1448,.T.);
#1450=ORIENTED_EDGE('',*,*,#1449,.T.);
#1451=ORIENTED_EDGE('',*,*,#1132,.T.);
#1452=EDGE_LOOP('',(#1450,#1451));
#1453=FACE_BOUND('',#1452,.T.);
#1454=CARTESIAN_POINT('',(4.999999999999999,0.000357219311863,1.117782114934709));
#1455=DIRECTION('',(-1.0,0.0,0.0));
#1456=DIRECTION('',(0.0,-1.0,0.0));
#1457=AXIS2_PLACEMENT_3D('',#1454,#1455,#1456);
#1458=CIRCLE('',#1457,0.400000000000000);
#1459=EDGE_CURVE('',#1158,#1168,#1458,.T.);
#1460=ORIENTED_EDGE('',*,*,#1459,.T.);
#1461=ORIENTED_EDGE('',*,*,#1174,.T.);
#1462=EDGE_LOOP('',(#1460,#1461));
#1463=FACE_BOUND('',#1462,.T.);
#1464=ADVANCED_FACE('',(#1403,#1413,#1423,#1433,#1443,#1453,#1463),#1398,.F.);
#1465=CARTESIAN_POINT('',(-4.900000000000000,0.000357219311849,2.999543085469172));
#1466=DIRECTION('',(-1.0,2.400101E-016,-2.775745E-016));
#1467=DIRECTION('',(0.0,0.0,1.0));
#1468=AXIS2_PLACEMENT_3D('',#1465,#1466,#1467);
#1469=TOROIDAL_SURFACE('',#1468,2.900000000000000,0.100000000000000);
#1470=ORIENTED_EDGE('',*,*,#1208,.T.);
#1471=CARTESIAN_POINT('',(-5.0,-2.014152055019243,5.085628506451261));
#1472=VERTEX_POINT('',#1471);
#1473=CARTESIAN_POINT('',(-4.999999999999999,0.000357219311849,2.999543085469172));
#1474=DIRECTION('',(1.000000000000000,-2.545197E-016,2.635628E-016));
#1475=DIRECTION('',(3.663954E-016,0.694658370458997,-0.719339800338651));
#1476=AXIS2_PLACEMENT_3D('',#1473,#1474,#1475);
#1477=CIRCLE('',#1476,2.900000000000000);
#1478=EDGE_CURVE('',#1202,#1472,#1477,.T.);
#1479=ORIENTED_EDGE('',*,*,#1478,.T.);
#1480=CARTESIAN_POINT('',(-4.999999999999999,0.000357219311849,2.999543085469172));
#1481=DIRECTION('',(1.000000000000000,-2.545197E-016,2.635628E-016));
#1482=DIRECTION('',(3.663954E-016,0.694658370458997,-0.719339800338651));
#1483=AXIS2_PLACEMENT_3D('',#1480,#1481,#1482);
#1484=CIRCLE('',#1483,2.900000000000000);
#1485=EDGE_CURVE('',#1472,#1229,#1484,.T.);
#1486=ORIENTED_EDGE('',*,*,#1485,.T.);
#1487=ORIENTED_EDGE('',*,*,#1235,.T.);
#1488=ORIENTED_EDGE('',*,*,#1267,.T.);
#1489=ORIENTED_EDGE('',*,*,#1389,.T.);
#1490=EDGE_LOOP('',(#1470,#1479,#1486,#1487,#1488,#1489));
#1491=FACE_OUTER_BOUND('',#1490,.T.);
#1492=ADVANCED_FACE('',(#1491),#1469,.T.);
#1493=CARTESIAN_POINT('',(-4.999999999999999,0.000357219311849,2.999543085469172));
#1494=DIRECTION('',(-1.0,0.0,0.0));
#1495=DIRECTION('',(0.0,0.719339800338651,0.694658370458997));
#1496=AXIS2_PLACEMENT_3D('',#1493,#1494,#1495);
#1497=PLANE('',#1496);
#1498=ORIENTED_EDGE('',*,*,#1485,.F.);
#1499=ORIENTED_EDGE('',*,*,#1478,.F.);
#1500=ORIENTED_EDGE('',*,*,#1242,.F.);
#1501=EDGE_LOOP('',(#1498,#1499,#1500));
#1502=FACE_OUTER_BOUND('',#1501,.T.);
#1503=ORIENTED_EDGE('',*,*,#979,.T.);
#1504=CARTESIAN_POINT('',(-4.999999999999999,1.270132181504929,1.610768123276086));
#1505=DIRECTION('',(1.0,0.0,0.0));
#1506=DIRECTION('',(0.0,-1.0,0.0));
#1507=AXIS2_PLACEMENT_3D('',#1504,#1505,#1506);
#1508=CIRCLE('',#1507,0.400000000000000);
#1509=EDGE_CURVE('',#967,#950,#1508,.T.);
#1510=ORIENTED_EDGE('',*,*,#1509,.T.);
#1511=EDGE_LOOP('',(#1503,#1510));
#1512=FACE_BOUND('',#1511,.T.);
#1513=ORIENTED_EDGE('',*,*,#1021,.T.);
#1514=CARTESIAN_POINT('',(-4.999999999999996,-1.270338171000931,1.610371528094606));
#1515=DIRECTION('',(1.0,0.0,0.0));
#1516=DIRECTION('',(0.0,-1.0,0.0));
#1517=AXIS2_PLACEMENT_3D('',#1514,#1515,#1516);
#1518=CIRCLE('',#1517,0.400000000000000);
#1519=EDGE_CURVE('',#1009,#992,#1518,.T.);
#1520=ORIENTED_EDGE('',*,*,#1519,.T.);
#1521=EDGE_LOOP('',(#1513,#1520));
#1522=FACE_BOUND('',#1521,.T.);
#1523=ORIENTED_EDGE('',*,*,#1063,.T.);
#1524=CARTESIAN_POINT('',(-5.000000000000001,0.000357219311848,4.881304056003646));
#1525=DIRECTION('',(1.0,0.0,0.0));
#1526=DIRECTION('',(0.0,-1.0,0.0));
#1527=AXIS2_PLACEMENT_3D('',#1524,#1525,#1526);
#1528=CIRCLE('',#1527,0.400000000000000);
#1529=EDGE_CURVE('',#1051,#1034,#1528,.T.);
#1530=ORIENTED_EDGE('',*,*,#1529,.T.);
#1531=EDGE_LOOP('',(#1523,#1530));
#1532=FACE_BOUND('',#1531,.T.);
#1533=ORIENTED_EDGE('',*,*,#1105,.T.);
#1534=CARTESIAN_POINT('',(-5.000000000000003,1.271052609624628,4.388714642843739));
#1535=DIRECTION('',(1.0,0.0,0.0));
#1536=DIRECTION('',(0.0,-1.0,0.0));
#1537=AXIS2_PLACEMENT_3D('',#1534,#1535,#1536);
#1538=CIRCLE('',#1537,0.400000000000000);
#1539=EDGE_CURVE('',#1093,#1076,#1538,.T.);
#1540=ORIENTED_EDGE('',*,*,#1539,.T.);
#1541=EDGE_LOOP('',(#1533,#1540));
#1542=FACE_BOUND('',#1541,.T.);
#1543=ORIENTED_EDGE('',*,*,#1147,.T.);
#1544=CARTESIAN_POINT('',(-4.999999999999999,-1.269417742881232,4.388318047662257));
#1545=DIRECTION('',(1.0,0.0,0.0));
#1546=DIRECTION('',(0.0,-1.0,0.0));
#1547=AXIS2_PLACEMENT_3D('',#1544,#1545,#1546);
#1548=CIRCLE('',#1547,0.400000000000000);
#1549=EDGE_CURVE('',#1135,#1118,#1548,.T.);
#1550=ORIENTED_EDGE('',*,*,#1549,.T.);
#1551=EDGE_LOOP('',(#1543,#1550));
#1552=FACE_BOUND('',#1551,.T.);
#1553=ORIENTED_EDGE('',*,*,#1189,.T.);
#1554=CARTESIAN_POINT('',(-4.999999999999997,0.000357219311849,1.117782114934698));
#1555=DIRECTION('',(1.0,0.0,0.0));
#1556=DIRECTION('',(0.0,-1.0,0.0));
#1557=AXIS2_PLACEMENT_3D('',#1554,#1555,#1556);
#1558=CIRCLE('',#1557,0.400000000000000);
#1559=EDGE_CURVE('',#1177,#1160,#1558,.T.);
#1560=ORIENTED_EDGE('',*,*,#1559,.T.);
#1561=EDGE_LOOP('',(#1553,#1560));
#1562=FACE_BOUND('',#1561,.T.);
#1563=ADVANCED_FACE('',(#1502,#1512,#1522,#1532,#1542,#1552,#1562),#1497,.T.);
#1564=CARTESIAN_POINT('',(-4.999999999999997,0.000357219311849,1.117782114934698));
#1565=DIRECTION('',(1.0,1.332268E-015,1.110223E-015));
#1566=DIRECTION('',(0.0,-1.0,0.0));
#1567=AXIS2_PLACEMENT_3D('',#1564,#1565,#1566);
#1568=CYLINDRICAL_SURFACE('',#1567,0.400000000000000);
#1569=ORIENTED_EDGE('',*,*,#1165,.T.);
#1570=ORIENTED_EDGE('',*,*,#1559,.F.);
#1571=ORIENTED_EDGE('',*,*,#1182,.T.);
#1572=ORIENTED_EDGE('',*,*,#1459,.F.);
#1573=EDGE_LOOP('',(#1569,#1570,#1571,#1572));
#1574=FACE_OUTER_BOUND('',#1573,.T.);
#1575=ADVANCED_FACE('',(#1574),#1568,.F.);
#1576=CARTESIAN_POINT('',(-5.000000000000002,-1.269417742881232,4.388318047662257));
#1577=DIRECTION('',(1.0,1.332268E-015,1.065814E-015));
#1578=DIRECTION('',(0.0,-1.0,0.0));
#1579=AXIS2_PLACEMENT_3D('',#1576,#1577,#1578);
#1580=CYLINDRICAL_SURFACE('',#1579,0.400000000000000);
#1581=ORIENTED_EDGE('',*,*,#1123,.T.);
#1582=ORIENTED_EDGE('',*,*,#1549,.F.);
#1583=ORIENTED_EDGE('',*,*,#1140,.T.);
#1584=ORIENTED_EDGE('',*,*,#1449,.F.);
#1585=EDGE_LOOP('',(#1581,#1582,#1583,#1584));
#1586=FACE_OUTER_BOUND('',#1585,.T.);
#1587=ADVANCED_FACE('',(#1586),#1580,.F.);
#1588=CARTESIAN_POINT('',(-5.000000000000004,1.271052609624628,4.388714642843739));
#1589=DIRECTION('',(1.0,1.332268E-015,1.065814E-015));
#1590=DIRECTION('',(0.0,-1.0,0.0));
#1591=AXIS2_PLACEMENT_3D('',#1588,#1589,#1590);
#1592=CYLINDRICAL_SURFACE('',#1591,0.400000000000000);
#1593=ORIENTED_EDGE('',*,*,#1081,.T.);
#1594=ORIENTED_EDGE('',*,*,#1539,.F.);
#1595=ORIENTED_EDGE('',*,*,#1098,.T.);
#1596=ORIENTED_EDGE('',*,*,#1439,.F.);
#1597=EDGE_LOOP('',(#1593,#1594,#1595,#1596));
#1598=FACE_OUTER_BOUND('',#1597,.T.);
#1599=ADVANCED_FACE('',(#1598),#1592,.F.);
#1600=CARTESIAN_POINT('',(-5.000000000000002,0.000357219311848,4.881304056003646));
#1601=DIRECTION('',(1.0,1.332268E-015,1.065814E-015));
#1602=DIRECTION('',(0.0,-1.0,0.0));
#1603=AXIS2_PLACEMENT_3D('',#1600,#1601,#1602);
#1604=CYLINDRICAL_SURFACE('',#1603,0.400000000000000);
#1605=ORIENTED_EDGE('',*,*,#1039,.T.);
#1606=ORIENTED_EDGE('',*,*,#1529,.F.);
#1607=ORIENTED_EDGE('',*,*,#1056,.T.);
#1608=ORIENTED_EDGE('',*,*,#1429,.F.);
#1609=EDGE_LOOP('',(#1605,#1606,#1607,#1608));
#1610=FACE_OUTER_BOUND('',#1609,.T.);
#1611=ADVANCED_FACE('',(#1610),#1604,.F.);
#1612=CARTESIAN_POINT('',(-4.999999999999998,-1.270338171000931,1.610371528094606));
#1613=DIRECTION('',(1.0,1.332268E-015,1.110223E-015));
#1614=DIRECTION('',(0.0,-1.0,0.0));
#1615=AXIS2_PLACEMENT_3D('',#1612,#1613,#1614);
#1616=CYLINDRICAL_SURFACE('',#1615,0.400000000000000);
#1617=ORIENTED_EDGE('',*,*,#997,.T.);
#1618=ORIENTED_EDGE('',*,*,#1519,.F.);
#1619=ORIENTED_EDGE('',*,*,#1014,.T.);
#1620=ORIENTED_EDGE('',*,*,#1419,.F.);
#1621=EDGE_LOOP('',(#1617,#1618,#1619,#1620));
#1622=FACE_OUTER_BOUND('',#1621,.T.);
#1623=ADVANCED_FACE('',(#1622),#1616,.F.);
#1624=CARTESIAN_POINT('',(-5.000000000000003,1.270132181504929,1.610768123276086));
#1625=DIRECTION('',(1.0,1.332268E-015,1.110223E-015));
#1626=DIRECTION('',(0.0,-1.0,0.0));
#1627=AXIS2_PLACEMENT_3D('',#1624,#1625,#1626);
#1628=CYLINDRICAL_SURFACE('',#1627,0.400000000000000);
#1629=ORIENTED_EDGE('',*,*,#955,.T.);
#1630=ORIENTED_EDGE('',*,*,#1509,.F.);
#1631=ORIENTED_EDGE('',*,*,#972,.T.);
#1632=ORIENTED_EDGE('',*,*,#1409,.F.);
#1633=EDGE_LOOP('',(#1629,#1630,#1631,#1632));
#1634=FACE_OUTER_BOUND('',#1633,.T.);
#1635=ADVANCED_FACE('',(#1634),#1628,.F.);
#1636=CLOSED_SHELL('',(#983,#1025,#1067,#1109,#1151,#1193,#1246,#1296,#1339,#1373,#1393,#1464,#1492,#1563,#1575,#1587,#1599,#1611,#1623,#1635));
#1637=MANIFOLD_SOLID_BREP('765',#1636);
#1638=COLOUR_RGB('96',0.0,0.300000000000000,0.0);
#1639=SURFACE_STYLE_USAGE(.BOTH.,#1640);
#1640=SURFACE_SIDE_STYLE('NONE',(#1641));
#1641=SURFACE_STYLE_FILL_AREA(#1642);
#1642=FILL_AREA_STYLE('NONE',(#1643));
#1643=FILL_AREA_STYLE_COLOUR('NONE',#1638);
#1644=PRESENTATION_STYLE_ASSIGNMENT((#1639));
#1645=STYLED_ITEM('NONE',(#1644),#1637);
#1646=ADVANCED_BREP_SHAPE_REPRESENTATION('ABSR1',(#174,#294,#427,#538,#739,#940,#1637),#28);
#1647=SHAPE_REPRESENTATION_RELATIONSHIP('SRRPL1','',#1646,#62);
#1648=GEOMETRIC_CURVE_SET('GCS1',(#303,#316));
#1649=GEOMETRICALLY_BOUNDED_WIREFRAME_SHAPE_REPRESENTATION('GBWSR1',(#1648),#28);
#1650=SHAPE_REPRESENTATION_RELATIONSHIP('SRRPL2','',#1649,#62);
ENDSEC;
END-ISO-10303-21;
