ISO-10303-21;
HEADER;
/****************************************************************
 * Generated by software with PDElib inside                    *
 * PDElib Version v51a, created Fri 09/10/2010                  *
 * ITI Transcendata (http://www.transcendata.com/)              *
 ****************************************************************/
FILE_DESCRIPTION((''),'2;1');
FILE_NAME('IND_BOURNS_SDR6603.stp','2015-07-09T16:54:32',(''),(''),'Mechanical Desktop 2011','Mechanical Desktop 2011',', , ');
FILE_SCHEMA(('AUTOMOTIVE_DESIGN { 1 2 10303 214 1 1 1 1 }'));
ENDSEC;
DATA;
#10=(NAMED_UNIT(*)PLANE_ANGLE_UNIT()SI_UNIT($,.RADIAN.));
#11=DIMENSIONAL_EXPONENTS(0.0,0.0,0.0,0.0,0.0,0.0,0.0);
#12=PLANE_ANGLE_MEASURE_WITH_UNIT(PLANE_ANGLE_MEASURE(0.0174532925),#10);
#16=(CONVERSION_BASED_UNIT('DEGREE',#12)NAMED_UNIT(#11)PLANE_ANGLE_UNIT());
#20=(NAMED_UNIT(*)SI_UNIT($,.STERADIAN.)SOLID_ANGLE_UNIT());
#24=(LENGTH_UNIT()NAMED_UNIT(*)SI_UNIT(.MILLI.,.METRE.));
#26=UNCERTAINTY_MEASURE_WITH_UNIT(LENGTH_MEASURE(0.000001),#24,'DISTANCE_ACCURACY_VALUE','');
#28=(GEOMETRIC_REPRESENTATION_CONTEXT(3)GLOBAL_UNCERTAINTY_ASSIGNED_CONTEXT((#26))GLOBAL_UNIT_ASSIGNED_CONTEXT((#16,#20,#24))REPRESENTATION_CONTEXT('','3D'));
#29=APPLICATION_CONTEXT('automotive design');
#30=APPLICATION_PROTOCOL_DEFINITION('INTERNATIONAL_STANDARD','automotive_design',1998,#29);
#31=PRODUCT_CONTEXT('3D Mechanical Parts',#29,'mechanical');
#32=PRODUCT('Product','Product','',(#31));
#33=PRODUCT_RELATED_PRODUCT_CATEGORY('part',$,(#32));
#34=PRODUCT_CATEGORY('part',$);
#35=PERSON('1','Design','Joe',$,$,$);
#36=ORGANIZATION($,'None','None');
#37=PERSON_AND_ORGANIZATION(#35,#36);
#38=PERSON_AND_ORGANIZATION_ROLE('design_owner');
#39=APPLIED_PERSON_AND_ORGANIZATION_ASSIGNMENT(#37,#38,(#32));
#40=PRODUCT_DEFINITION_FORMATION_WITH_SPECIFIED_SOURCE('None','',#32,.BOUGHT.);
#41=PERSON('2','Creator','Joe',$,$,$);
#42=ORGANIZATION($,'None','None');
#43=PERSON_AND_ORGANIZATION(#41,#42);
#44=PERSON_AND_ORGANIZATION_ROLE('creator');
#45=APPLIED_PERSON_AND_ORGANIZATION_ASSIGNMENT(#43,#44,(#40));
#46=PERSON('3','Supplier','Joe',$,$,$);
#47=ORGANIZATION($,'None','None');
#48=PERSON_AND_ORGANIZATION(#46,#47);
#49=PERSON_AND_ORGANIZATION_ROLE('design_supplier');
#50=APPLIED_PERSON_AND_ORGANIZATION_ASSIGNMENT(#48,#49,(#40));
#51=PRODUCT_DEFINITION_CONTEXT('part definition',#29,'design');
#52=PRODUCT_DEFINITION('None','',#40,#51);
#53=PERSON('4','Creator','Joe',$,$,$);
#54=ORGANIZATION($,'None','None');
#55=PERSON_AND_ORGANIZATION(#53,#54);
#56=PERSON_AND_ORGANIZATION_ROLE('creator');
#57=APPLIED_PERSON_AND_ORGANIZATION_ASSIGNMENT(#55,#56,(#52));
#58=CARTESIAN_POINT('NONE',(0.0,0.0,0.0));
#59=DIRECTION('NONE',(0.0,0.0,1.0));
#60=DIRECTION('NONE',(1.0,0.0,0.0));
#61=AXIS2_PLACEMENT_3D('NONE',#58,#59,#60);
#62=SHAPE_REPRESENTATION('SR1',(#61),#28);
#63=PRODUCT_DEFINITION_SHAPE('PDS1','Test Part',#52);
#64=SHAPE_DEFINITION_REPRESENTATION(#63,#62);
#65=CARTESIAN_POINT('',(0.0,0.0,2.335));
#66=DIRECTION('',(0.0,0.0,1.0));
#67=DIRECTION('',(1.0,0.0,0.0));
#68=AXIS2_PLACEMENT_3D('',#65,#66,#67);
#69=TOROIDAL_SURFACE('',#68,1.5,0.125);
#70=CARTESIAN_POINT('',(1.625,0.0,2.335));
#71=VERTEX_POINT('',#70);
#72=CARTESIAN_POINT('',(-1.625,-1.990051E-016,2.335));
#73=VERTEX_POINT('',#72);
#74=CARTESIAN_POINT('',(0.0,0.0,2.335));
#75=DIRECTION('',(0.0,0.0,-1.0));
#76=DIRECTION('',(1.0,0.0,0.0));
#77=AXIS2_PLACEMENT_3D('',#74,#75,#76);
#78=CIRCLE('',#77,1.625);
#79=EDGE_CURVE('',#71,#73,#78,.T.);
#80=ORIENTED_EDGE('',*,*,#79,.F.);
#81=CARTESIAN_POINT('',(1.375,0.0,2.335));
#82=VERTEX_POINT('',#81);
#83=CARTESIAN_POINT('',(1.5,0.0,2.335));
#84=DIRECTION('',(0.0,1.0,0.0));
#85=DIRECTION('',(1.0,0.0,0.0));
#86=AXIS2_PLACEMENT_3D('',#83,#84,#85);
#87=CIRCLE('',#86,0.125);
#88=EDGE_CURVE('',#82,#71,#87,.T.);
#89=ORIENTED_EDGE('',*,*,#88,.F.);
#90=CARTESIAN_POINT('',(-1.375,-1.683889E-016,2.335));
#91=VERTEX_POINT('',#90);
#92=CARTESIAN_POINT('',(0.0,0.0,2.335));
#93=DIRECTION('',(0.0,0.0,-1.0));
#94=DIRECTION('',(1.0,0.0,0.0));
#95=AXIS2_PLACEMENT_3D('',#92,#93,#94);
#96=CIRCLE('',#95,1.375);
#97=EDGE_CURVE('',#82,#91,#96,.T.);
#98=ORIENTED_EDGE('',*,*,#97,.T.);
#99=CARTESIAN_POINT('',(-1.5,-1.836970E-016,2.335));
#100=DIRECTION('',(0.0,-1.0,0.0));
#101=DIRECTION('',(-1.0,0.0,0.0));
#102=AXIS2_PLACEMENT_3D('',#99,#100,#101);
#103=CIRCLE('',#102,0.125);
#104=EDGE_CURVE('',#91,#73,#103,.T.);
#105=ORIENTED_EDGE('',*,*,#104,.T.);
#106=EDGE_LOOP('',(#80,#89,#98,#105));
#107=FACE_OUTER_BOUND('',#106,.T.);
#108=ADVANCED_FACE('',(#107),#69,.T.);
#109=CARTESIAN_POINT('',(0.0,0.0,2.335));
#110=DIRECTION('',(0.0,0.0,1.0));
#111=DIRECTION('',(1.0,0.0,0.0));
#112=AXIS2_PLACEMENT_3D('',#109,#110,#111);
#113=TOROIDAL_SURFACE('',#112,1.5,0.125);
#114=CARTESIAN_POINT('',(0.0,0.0,2.335));
#115=DIRECTION('',(0.0,0.0,-1.0));
#116=DIRECTION('',(1.0,0.0,0.0));
#117=AXIS2_PLACEMENT_3D('',#114,#115,#116);
#118=CIRCLE('',#117,1.625);
#119=EDGE_CURVE('',#73,#71,#118,.T.);
#120=ORIENTED_EDGE('',*,*,#119,.F.);
#121=ORIENTED_EDGE('',*,*,#104,.F.);
#122=CARTESIAN_POINT('',(0.0,0.0,2.335));
#123=DIRECTION('',(0.0,0.0,-1.0));
#124=DIRECTION('',(1.0,0.0,0.0));
#125=AXIS2_PLACEMENT_3D('',#122,#123,#124);
#126=CIRCLE('',#125,1.375);
#127=EDGE_CURVE('',#91,#82,#126,.T.);
#128=ORIENTED_EDGE('',*,*,#127,.T.);
#129=ORIENTED_EDGE('',*,*,#88,.T.);
#130=EDGE_LOOP('',(#120,#121,#128,#129));
#131=FACE_OUTER_BOUND('',#130,.T.);
#132=ADVANCED_FACE('',(#131),#113,.T.);
#133=CARTESIAN_POINT('',(0.0,0.0,2.335));
#134=DIRECTION('',(0.0,0.0,1.0));
#135=DIRECTION('',(1.0,0.0,0.0));
#136=AXIS2_PLACEMENT_3D('',#133,#134,#135);
#137=TOROIDAL_SURFACE('',#136,1.5,0.125);
#138=ORIENTED_EDGE('',*,*,#119,.T.);
#139=CARTESIAN_POINT('',(1.5,0.0,2.335));
#140=DIRECTION('',(0.0,1.0,0.0));
#141=DIRECTION('',(1.0,0.0,0.0));
#142=AXIS2_PLACEMENT_3D('',#139,#140,#141);
#143=CIRCLE('',#142,0.125);
#144=EDGE_CURVE('',#71,#82,#143,.T.);
#145=ORIENTED_EDGE('',*,*,#144,.T.);
#146=ORIENTED_EDGE('',*,*,#127,.F.);
#147=CARTESIAN_POINT('',(-1.5,-1.836970E-016,2.335));
#148=DIRECTION('',(0.0,-1.0,0.0));
#149=DIRECTION('',(-1.0,0.0,0.0));
#150=AXIS2_PLACEMENT_3D('',#147,#148,#149);
#151=CIRCLE('',#150,0.125);
#152=EDGE_CURVE('',#73,#91,#151,.T.);
#153=ORIENTED_EDGE('',*,*,#152,.F.);
#154=EDGE_LOOP('',(#138,#145,#146,#153));
#155=FACE_OUTER_BOUND('',#154,.T.);
#156=ADVANCED_FACE('',(#155),#137,.T.);
#157=CARTESIAN_POINT('',(0.0,0.0,2.335));
#158=DIRECTION('',(0.0,0.0,1.0));
#159=DIRECTION('',(1.0,0.0,0.0));
#160=AXIS2_PLACEMENT_3D('',#157,#158,#159);
#161=TOROIDAL_SURFACE('',#160,1.5,0.125);
#162=ORIENTED_EDGE('',*,*,#79,.T.);
#163=ORIENTED_EDGE('',*,*,#152,.T.);
#164=ORIENTED_EDGE('',*,*,#97,.F.);
#165=ORIENTED_EDGE('',*,*,#144,.F.);
#166=EDGE_LOOP('',(#162,#163,#164,#165));
#167=FACE_OUTER_BOUND('',#166,.T.);
#168=ADVANCED_FACE('',(#167),#161,.T.);
#169=CLOSED_SHELL('',(#108,#132,#156,#168));
#170=MANIFOLD_SOLID_BREP('A7D',#169);
#171=COLOUR_RGB('40',1.0,0.75,0.0);
#172=SURFACE_STYLE_USAGE(.BOTH.,#173);
#173=SURFACE_SIDE_STYLE('NONE',(#174));
#174=SURFACE_STYLE_FILL_AREA(#175);
#175=FILL_AREA_STYLE('NONE',(#176));
#176=FILL_AREA_STYLE_COLOUR('NONE',#171);
#177=PRESENTATION_STYLE_ASSIGNMENT((#172));
#178=STYLED_ITEM('NONE',(#177),#170);
#179=MECHANICAL_DESIGN_GEOMETRIC_PRESENTATION_REPRESENTATION('NONE',(#178,#287,#394,#501,#608,#715,#822,#929,#1091,#1232,#1779),#28);
#180=PRESENTATION_LAYER_ASSIGNMENT('3D','None',(#170,#286,#393,#500,#607,#714,#821,#928,#1083,#1231,#1778));
#181=CARTESIAN_POINT('',(0.0,0.0,2.085));
#182=DIRECTION('',(0.0,0.0,1.0));
#183=DIRECTION('',(1.0,0.0,0.0));
#184=AXIS2_PLACEMENT_3D('',#181,#182,#183);
#185=TOROIDAL_SURFACE('',#184,1.5,0.125);
#186=CARTESIAN_POINT('',(1.625,0.0,2.085));
#187=VERTEX_POINT('',#186);
#188=CARTESIAN_POINT('',(-1.625,-1.990051E-016,2.085));
#189=VERTEX_POINT('',#188);
#190=CARTESIAN_POINT('',(0.0,0.0,2.085));
#191=DIRECTION('',(0.0,0.0,-1.0));
#192=DIRECTION('',(1.0,0.0,0.0));
#193=AXIS2_PLACEMENT_3D('',#190,#191,#192);
#194=CIRCLE('',#193,1.625);
#195=EDGE_CURVE('',#187,#189,#194,.T.);
#196=ORIENTED_EDGE('',*,*,#195,.F.);
#197=CARTESIAN_POINT('',(1.375,0.0,2.085));
#198=VERTEX_POINT('',#197);
#199=CARTESIAN_POINT('',(1.5,0.0,2.085));
#200=DIRECTION('',(0.0,1.0,0.0));
#201=DIRECTION('',(1.0,0.0,0.0));
#202=AXIS2_PLACEMENT_3D('',#199,#200,#201);
#203=CIRCLE('',#202,0.125);
#204=EDGE_CURVE('',#198,#187,#203,.T.);
#205=ORIENTED_EDGE('',*,*,#204,.F.);
#206=CARTESIAN_POINT('',(-1.375,-1.683889E-016,2.085));
#207=VERTEX_POINT('',#206);
#208=CARTESIAN_POINT('',(0.0,0.0,2.085));
#209=DIRECTION('',(0.0,0.0,-1.0));
#210=DIRECTION('',(1.0,0.0,0.0));
#211=AXIS2_PLACEMENT_3D('',#208,#209,#210);
#212=CIRCLE('',#211,1.375);
#213=EDGE_CURVE('',#198,#207,#212,.T.);
#214=ORIENTED_EDGE('',*,*,#213,.T.);
#215=CARTESIAN_POINT('',(-1.5,-1.836970E-016,2.085));
#216=DIRECTION('',(0.0,-1.0,0.0));
#217=DIRECTION('',(-1.0,0.0,0.0));
#218=AXIS2_PLACEMENT_3D('',#215,#216,#217);
#219=CIRCLE('',#218,0.125);
#220=EDGE_CURVE('',#207,#189,#219,.T.);
#221=ORIENTED_EDGE('',*,*,#220,.T.);
#222=EDGE_LOOP('',(#196,#205,#214,#221));
#223=FACE_OUTER_BOUND('',#222,.T.);
#224=ADVANCED_FACE('',(#223),#185,.T.);
#225=CARTESIAN_POINT('',(0.0,0.0,2.085));
#226=DIRECTION('',(0.0,0.0,1.0));
#227=DIRECTION('',(1.0,0.0,0.0));
#228=AXIS2_PLACEMENT_3D('',#225,#226,#227);
#229=TOROIDAL_SURFACE('',#228,1.5,0.125);
#230=CARTESIAN_POINT('',(0.0,0.0,2.085));
#231=DIRECTION('',(0.0,0.0,-1.0));
#232=DIRECTION('',(1.0,0.0,0.0));
#233=AXIS2_PLACEMENT_3D('',#230,#231,#232);
#234=CIRCLE('',#233,1.625);
#235=EDGE_CURVE('',#189,#187,#234,.T.);
#236=ORIENTED_EDGE('',*,*,#235,.F.);
#237=ORIENTED_EDGE('',*,*,#220,.F.);
#238=CARTESIAN_POINT('',(0.0,0.0,2.085));
#239=DIRECTION('',(0.0,0.0,-1.0));
#240=DIRECTION('',(1.0,0.0,0.0));
#241=AXIS2_PLACEMENT_3D('',#238,#239,#240);
#242=CIRCLE('',#241,1.375);
#243=EDGE_CURVE('',#207,#198,#242,.T.);
#244=ORIENTED_EDGE('',*,*,#243,.T.);
#245=ORIENTED_EDGE('',*,*,#204,.T.);
#246=EDGE_LOOP('',(#236,#237,#244,#245));
#247=FACE_OUTER_BOUND('',#246,.T.);
#248=ADVANCED_FACE('',(#247),#229,.T.);
#249=CARTESIAN_POINT('',(0.0,0.0,2.085));
#250=DIRECTION('',(0.0,0.0,1.0));
#251=DIRECTION('',(1.0,0.0,0.0));
#252=AXIS2_PLACEMENT_3D('',#249,#250,#251);
#253=TOROIDAL_SURFACE('',#252,1.5,0.125);
#254=ORIENTED_EDGE('',*,*,#235,.T.);
#255=CARTESIAN_POINT('',(1.5,0.0,2.085));
#256=DIRECTION('',(0.0,1.0,0.0));
#257=DIRECTION('',(1.0,0.0,0.0));
#258=AXIS2_PLACEMENT_3D('',#255,#256,#257);
#259=CIRCLE('',#258,0.125);
#260=EDGE_CURVE('',#187,#198,#259,.T.);
#261=ORIENTED_EDGE('',*,*,#260,.T.);
#262=ORIENTED_EDGE('',*,*,#243,.F.);
#263=CARTESIAN_POINT('',(-1.5,-1.836970E-016,2.085));
#264=DIRECTION('',(0.0,-1.0,0.0));
#265=DIRECTION('',(-1.0,0.0,0.0));
#266=AXIS2_PLACEMENT_3D('',#263,#264,#265);
#267=CIRCLE('',#266,0.125);
#268=EDGE_CURVE('',#189,#207,#267,.T.);
#269=ORIENTED_EDGE('',*,*,#268,.F.);
#270=EDGE_LOOP('',(#254,#261,#262,#269));
#271=FACE_OUTER_BOUND('',#270,.T.);
#272=ADVANCED_FACE('',(#271),#253,.T.);
#273=CARTESIAN_POINT('',(0.0,0.0,2.085));
#274=DIRECTION('',(0.0,0.0,1.0));
#275=DIRECTION('',(1.0,0.0,0.0));
#276=AXIS2_PLACEMENT_3D('',#273,#274,#275);
#277=TOROIDAL_SURFACE('',#276,1.5,0.125);
#278=ORIENTED_EDGE('',*,*,#195,.T.);
#279=ORIENTED_EDGE('',*,*,#268,.T.);
#280=ORIENTED_EDGE('',*,*,#213,.F.);
#281=ORIENTED_EDGE('',*,*,#260,.F.);
#282=EDGE_LOOP('',(#278,#279,#280,#281));
#283=FACE_OUTER_BOUND('',#282,.T.);
#284=ADVANCED_FACE('',(#283),#277,.T.);
#285=CLOSED_SHELL('',(#224,#248,#272,#284));
#286=MANIFOLD_SOLID_BREP('A79',#285);
#287=STYLED_ITEM('NONE',(#177),#286);
#288=CARTESIAN_POINT('',(0.0,0.0,1.835));
#289=DIRECTION('',(0.0,0.0,1.0));
#290=DIRECTION('',(1.0,0.0,0.0));
#291=AXIS2_PLACEMENT_3D('',#288,#289,#290);
#292=TOROIDAL_SURFACE('',#291,1.5,0.125);
#293=CARTESIAN_POINT('',(1.625,0.0,1.835));
#294=VERTEX_POINT('',#293);
#295=CARTESIAN_POINT('',(-1.625,-1.990051E-016,1.835));
#296=VERTEX_POINT('',#295);
#297=CARTESIAN_POINT('',(0.0,0.0,1.835));
#298=DIRECTION('',(0.0,0.0,-1.0));
#299=DIRECTION('',(1.0,0.0,0.0));
#300=AXIS2_PLACEMENT_3D('',#297,#298,#299);
#301=CIRCLE('',#300,1.625);
#302=EDGE_CURVE('',#294,#296,#301,.T.);
#303=ORIENTED_EDGE('',*,*,#302,.F.);
#304=CARTESIAN_POINT('',(1.375,0.0,1.835));
#305=VERTEX_POINT('',#304);
#306=CARTESIAN_POINT('',(1.5,0.0,1.835));
#307=DIRECTION('',(0.0,1.0,0.0));
#308=DIRECTION('',(1.0,0.0,0.0));
#309=AXIS2_PLACEMENT_3D('',#306,#307,#308);
#310=CIRCLE('',#309,0.125);
#311=EDGE_CURVE('',#305,#294,#310,.T.);
#312=ORIENTED_EDGE('',*,*,#311,.F.);
#313=CARTESIAN_POINT('',(-1.375,-1.683889E-016,1.835));
#314=VERTEX_POINT('',#313);
#315=CARTESIAN_POINT('',(0.0,0.0,1.835));
#316=DIRECTION('',(0.0,0.0,-1.0));
#317=DIRECTION('',(1.0,0.0,0.0));
#318=AXIS2_PLACEMENT_3D('',#315,#316,#317);
#319=CIRCLE('',#318,1.375);
#320=EDGE_CURVE('',#305,#314,#319,.T.);
#321=ORIENTED_EDGE('',*,*,#320,.T.);
#322=CARTESIAN_POINT('',(-1.5,-1.836970E-016,1.835));
#323=DIRECTION('',(0.0,-1.0,0.0));
#324=DIRECTION('',(-1.0,0.0,0.0));
#325=AXIS2_PLACEMENT_3D('',#322,#323,#324);
#326=CIRCLE('',#325,0.125);
#327=EDGE_CURVE('',#314,#296,#326,.T.);
#328=ORIENTED_EDGE('',*,*,#327,.T.);
#329=EDGE_LOOP('',(#303,#312,#321,#328));
#330=FACE_OUTER_BOUND('',#329,.T.);
#331=ADVANCED_FACE('',(#330),#292,.T.);
#332=CARTESIAN_POINT('',(0.0,0.0,1.835));
#333=DIRECTION('',(0.0,0.0,1.0));
#334=DIRECTION('',(1.0,0.0,0.0));
#335=AXIS2_PLACEMENT_3D('',#332,#333,#334);
#336=TOROIDAL_SURFACE('',#335,1.5,0.125);
#337=CARTESIAN_POINT('',(0.0,0.0,1.835));
#338=DIRECTION('',(0.0,0.0,-1.0));
#339=DIRECTION('',(1.0,0.0,0.0));
#340=AXIS2_PLACEMENT_3D('',#337,#338,#339);
#341=CIRCLE('',#340,1.625);
#342=EDGE_CURVE('',#296,#294,#341,.T.);
#343=ORIENTED_EDGE('',*,*,#342,.F.);
#344=ORIENTED_EDGE('',*,*,#327,.F.);
#345=CARTESIAN_POINT('',(0.0,0.0,1.835));
#346=DIRECTION('',(0.0,0.0,-1.0));
#347=DIRECTION('',(1.0,0.0,0.0));
#348=AXIS2_PLACEMENT_3D('',#345,#346,#347);
#349=CIRCLE('',#348,1.375);
#350=EDGE_CURVE('',#314,#305,#349,.T.);
#351=ORIENTED_EDGE('',*,*,#350,.T.);
#352=ORIENTED_EDGE('',*,*,#311,.T.);
#353=EDGE_LOOP('',(#343,#344,#351,#352));
#354=FACE_OUTER_BOUND('',#353,.T.);
#355=ADVANCED_FACE('',(#354),#336,.T.);
#356=CARTESIAN_POINT('',(0.0,0.0,1.835));
#357=DIRECTION('',(0.0,0.0,1.0));
#358=DIRECTION('',(1.0,0.0,0.0));
#359=AXIS2_PLACEMENT_3D('',#356,#357,#358);
#360=TOROIDAL_SURFACE('',#359,1.5,0.125);
#361=ORIENTED_EDGE('',*,*,#342,.T.);
#362=CARTESIAN_POINT('',(1.5,0.0,1.835));
#363=DIRECTION('',(0.0,1.0,0.0));
#364=DIRECTION('',(1.0,0.0,0.0));
#365=AXIS2_PLACEMENT_3D('',#362,#363,#364);
#366=CIRCLE('',#365,0.125);
#367=EDGE_CURVE('',#294,#305,#366,.T.);
#368=ORIENTED_EDGE('',*,*,#367,.T.);
#369=ORIENTED_EDGE('',*,*,#350,.F.);
#370=CARTESIAN_POINT('',(-1.5,-1.836970E-016,1.835));
#371=DIRECTION('',(0.0,-1.0,0.0));
#372=DIRECTION('',(-1.0,0.0,0.0));
#373=AXIS2_PLACEMENT_3D('',#370,#371,#372);
#374=CIRCLE('',#373,0.125);
#375=EDGE_CURVE('',#296,#314,#374,.T.);
#376=ORIENTED_EDGE('',*,*,#375,.F.);
#377=EDGE_LOOP('',(#361,#368,#369,#376));
#378=FACE_OUTER_BOUND('',#377,.T.);
#379=ADVANCED_FACE('',(#378),#360,.T.);
#380=CARTESIAN_POINT('',(0.0,0.0,1.835));
#381=DIRECTION('',(0.0,0.0,1.0));
#382=DIRECTION('',(1.0,0.0,0.0));
#383=AXIS2_PLACEMENT_3D('',#380,#381,#382);
#384=TOROIDAL_SURFACE('',#383,1.5,0.125);
#385=ORIENTED_EDGE('',*,*,#302,.T.);
#386=ORIENTED_EDGE('',*,*,#375,.T.);
#387=ORIENTED_EDGE('',*,*,#320,.F.);
#388=ORIENTED_EDGE('',*,*,#367,.F.);
#389=EDGE_LOOP('',(#385,#386,#387,#388));
#390=FACE_OUTER_BOUND('',#389,.T.);
#391=ADVANCED_FACE('',(#390),#384,.T.);
#392=CLOSED_SHELL('',(#331,#355,#379,#391));
#393=MANIFOLD_SOLID_BREP('A75',#392);
#394=STYLED_ITEM('NONE',(#177),#393);
#395=CARTESIAN_POINT('',(0.0,0.0,1.585));
#396=DIRECTION('',(0.0,0.0,1.0));
#397=DIRECTION('',(1.0,0.0,0.0));
#398=AXIS2_PLACEMENT_3D('',#395,#396,#397);
#399=TOROIDAL_SURFACE('',#398,1.5,0.125);
#400=CARTESIAN_POINT('',(1.625,0.0,1.585));
#401=VERTEX_POINT('',#400);
#402=CARTESIAN_POINT('',(-1.625,-1.990051E-016,1.585));
#403=VERTEX_POINT('',#402);
#404=CARTESIAN_POINT('',(0.0,0.0,1.585));
#405=DIRECTION('',(0.0,0.0,-1.0));
#406=DIRECTION('',(1.0,0.0,0.0));
#407=AXIS2_PLACEMENT_3D('',#404,#405,#406);
#408=CIRCLE('',#407,1.625);
#409=EDGE_CURVE('',#401,#403,#408,.T.);
#410=ORIENTED_EDGE('',*,*,#409,.F.);
#411=CARTESIAN_POINT('',(1.375,0.0,1.585));
#412=VERTEX_POINT('',#411);
#413=CARTESIAN_POINT('',(1.5,0.0,1.585));
#414=DIRECTION('',(0.0,1.0,0.0));
#415=DIRECTION('',(1.0,0.0,0.0));
#416=AXIS2_PLACEMENT_3D('',#413,#414,#415);
#417=CIRCLE('',#416,0.125);
#418=EDGE_CURVE('',#412,#401,#417,.T.);
#419=ORIENTED_EDGE('',*,*,#418,.F.);
#420=CARTESIAN_POINT('',(-1.375,-1.683889E-016,1.585));
#421=VERTEX_POINT('',#420);
#422=CARTESIAN_POINT('',(0.0,0.0,1.585));
#423=DIRECTION('',(0.0,0.0,-1.0));
#424=DIRECTION('',(1.0,0.0,0.0));
#425=AXIS2_PLACEMENT_3D('',#422,#423,#424);
#426=CIRCLE('',#425,1.375);
#427=EDGE_CURVE('',#412,#421,#426,.T.);
#428=ORIENTED_EDGE('',*,*,#427,.T.);
#429=CARTESIAN_POINT('',(-1.5,-1.836970E-016,1.585));
#430=DIRECTION('',(0.0,-1.0,0.0));
#431=DIRECTION('',(-1.0,0.0,0.0));
#432=AXIS2_PLACEMENT_3D('',#429,#430,#431);
#433=CIRCLE('',#432,0.125);
#434=EDGE_CURVE('',#421,#403,#433,.T.);
#435=ORIENTED_EDGE('',*,*,#434,.T.);
#436=EDGE_LOOP('',(#410,#419,#428,#435));
#437=FACE_OUTER_BOUND('',#436,.T.);
#438=ADVANCED_FACE('',(#437),#399,.T.);
#439=CARTESIAN_POINT('',(0.0,0.0,1.585));
#440=DIRECTION('',(0.0,0.0,1.0));
#441=DIRECTION('',(1.0,0.0,0.0));
#442=AXIS2_PLACEMENT_3D('',#439,#440,#441);
#443=TOROIDAL_SURFACE('',#442,1.5,0.125);
#444=CARTESIAN_POINT('',(0.0,0.0,1.585));
#445=DIRECTION('',(0.0,0.0,-1.0));
#446=DIRECTION('',(1.0,0.0,0.0));
#447=AXIS2_PLACEMENT_3D('',#444,#445,#446);
#448=CIRCLE('',#447,1.625);
#449=EDGE_CURVE('',#403,#401,#448,.T.);
#450=ORIENTED_EDGE('',*,*,#449,.F.);
#451=ORIENTED_EDGE('',*,*,#434,.F.);
#452=CARTESIAN_POINT('',(0.0,0.0,1.585));
#453=DIRECTION('',(0.0,0.0,-1.0));
#454=DIRECTION('',(1.0,0.0,0.0));
#455=AXIS2_PLACEMENT_3D('',#452,#453,#454);
#456=CIRCLE('',#455,1.375);
#457=EDGE_CURVE('',#421,#412,#456,.T.);
#458=ORIENTED_EDGE('',*,*,#457,.T.);
#459=ORIENTED_EDGE('',*,*,#418,.T.);
#460=EDGE_LOOP('',(#450,#451,#458,#459));
#461=FACE_OUTER_BOUND('',#460,.T.);
#462=ADVANCED_FACE('',(#461),#443,.T.);
#463=CARTESIAN_POINT('',(0.0,0.0,1.585));
#464=DIRECTION('',(0.0,0.0,1.0));
#465=DIRECTION('',(1.0,0.0,0.0));
#466=AXIS2_PLACEMENT_3D('',#463,#464,#465);
#467=TOROIDAL_SURFACE('',#466,1.5,0.125);
#468=ORIENTED_EDGE('',*,*,#449,.T.);
#469=CARTESIAN_POINT('',(1.5,0.0,1.585));
#470=DIRECTION('',(0.0,1.0,0.0));
#471=DIRECTION('',(1.0,0.0,0.0));
#472=AXIS2_PLACEMENT_3D('',#469,#470,#471);
#473=CIRCLE('',#472,0.125);
#474=EDGE_CURVE('',#401,#412,#473,.T.);
#475=ORIENTED_EDGE('',*,*,#474,.T.);
#476=ORIENTED_EDGE('',*,*,#457,.F.);
#477=CARTESIAN_POINT('',(-1.5,-1.836970E-016,1.585));
#478=DIRECTION('',(0.0,-1.0,0.0));
#479=DIRECTION('',(-1.0,0.0,0.0));
#480=AXIS2_PLACEMENT_3D('',#477,#478,#479);
#481=CIRCLE('',#480,0.125);
#482=EDGE_CURVE('',#403,#421,#481,.T.);
#483=ORIENTED_EDGE('',*,*,#482,.F.);
#484=EDGE_LOOP('',(#468,#475,#476,#483));
#485=FACE_OUTER_BOUND('',#484,.T.);
#486=ADVANCED_FACE('',(#485),#467,.T.);
#487=CARTESIAN_POINT('',(0.0,0.0,1.585));
#488=DIRECTION('',(0.0,0.0,1.0));
#489=DIRECTION('',(1.0,0.0,0.0));
#490=AXIS2_PLACEMENT_3D('',#487,#488,#489);
#491=TOROIDAL_SURFACE('',#490,1.5,0.125);
#492=ORIENTED_EDGE('',*,*,#409,.T.);
#493=ORIENTED_EDGE('',*,*,#482,.T.);
#494=ORIENTED_EDGE('',*,*,#427,.F.);
#495=ORIENTED_EDGE('',*,*,#474,.F.);
#496=EDGE_LOOP('',(#492,#493,#494,#495));
#497=FACE_OUTER_BOUND('',#496,.T.);
#498=ADVANCED_FACE('',(#497),#491,.T.);
#499=CLOSED_SHELL('',(#438,#462,#486,#498));
#500=MANIFOLD_SOLID_BREP('A71',#499);
#501=STYLED_ITEM('NONE',(#177),#500);
#502=CARTESIAN_POINT('',(0.0,0.0,1.335));
#503=DIRECTION('',(0.0,0.0,1.0));
#504=DIRECTION('',(1.0,0.0,0.0));
#505=AXIS2_PLACEMENT_3D('',#502,#503,#504);
#506=TOROIDAL_SURFACE('',#505,1.5,0.125);
#507=CARTESIAN_POINT('',(1.625,0.0,1.335));
#508=VERTEX_POINT('',#507);
#509=CARTESIAN_POINT('',(-1.625,-1.990051E-016,1.335));
#510=VERTEX_POINT('',#509);
#511=CARTESIAN_POINT('',(0.0,0.0,1.335));
#512=DIRECTION('',(0.0,0.0,-1.0));
#513=DIRECTION('',(1.0,0.0,0.0));
#514=AXIS2_PLACEMENT_3D('',#511,#512,#513);
#515=CIRCLE('',#514,1.625);
#516=EDGE_CURVE('',#508,#510,#515,.T.);
#517=ORIENTED_EDGE('',*,*,#516,.F.);
#518=CARTESIAN_POINT('',(1.375,0.0,1.335));
#519=VERTEX_POINT('',#518);
#520=CARTESIAN_POINT('',(1.5,0.0,1.335));
#521=DIRECTION('',(0.0,1.0,0.0));
#522=DIRECTION('',(1.0,0.0,0.0));
#523=AXIS2_PLACEMENT_3D('',#520,#521,#522);
#524=CIRCLE('',#523,0.125);
#525=EDGE_CURVE('',#519,#508,#524,.T.);
#526=ORIENTED_EDGE('',*,*,#525,.F.);
#527=CARTESIAN_POINT('',(-1.375,-1.683889E-016,1.335));
#528=VERTEX_POINT('',#527);
#529=CARTESIAN_POINT('',(0.0,0.0,1.335));
#530=DIRECTION('',(0.0,0.0,-1.0));
#531=DIRECTION('',(1.0,0.0,0.0));
#532=AXIS2_PLACEMENT_3D('',#529,#530,#531);
#533=CIRCLE('',#532,1.375);
#534=EDGE_CURVE('',#519,#528,#533,.T.);
#535=ORIENTED_EDGE('',*,*,#534,.T.);
#536=CARTESIAN_POINT('',(-1.5,-1.836970E-016,1.335));
#537=DIRECTION('',(0.0,-1.0,0.0));
#538=DIRECTION('',(-1.0,0.0,0.0));
#539=AXIS2_PLACEMENT_3D('',#536,#537,#538);
#540=CIRCLE('',#539,0.125);
#541=EDGE_CURVE('',#528,#510,#540,.T.);
#542=ORIENTED_EDGE('',*,*,#541,.T.);
#543=EDGE_LOOP('',(#517,#526,#535,#542));
#544=FACE_OUTER_BOUND('',#543,.T.);
#545=ADVANCED_FACE('',(#544),#506,.T.);
#546=CARTESIAN_POINT('',(0.0,0.0,1.335));
#547=DIRECTION('',(0.0,0.0,1.0));
#548=DIRECTION('',(1.0,0.0,0.0));
#549=AXIS2_PLACEMENT_3D('',#546,#547,#548);
#550=TOROIDAL_SURFACE('',#549,1.5,0.125);
#551=CARTESIAN_POINT('',(0.0,0.0,1.335));
#552=DIRECTION('',(0.0,0.0,-1.0));
#553=DIRECTION('',(1.0,0.0,0.0));
#554=AXIS2_PLACEMENT_3D('',#551,#552,#553);
#555=CIRCLE('',#554,1.625);
#556=EDGE_CURVE('',#510,#508,#555,.T.);
#557=ORIENTED_EDGE('',*,*,#556,.F.);
#558=ORIENTED_EDGE('',*,*,#541,.F.);
#559=CARTESIAN_POINT('',(0.0,0.0,1.335));
#560=DIRECTION('',(0.0,0.0,-1.0));
#561=DIRECTION('',(1.0,0.0,0.0));
#562=AXIS2_PLACEMENT_3D('',#559,#560,#561);
#563=CIRCLE('',#562,1.375);
#564=EDGE_CURVE('',#528,#519,#563,.T.);
#565=ORIENTED_EDGE('',*,*,#564,.T.);
#566=ORIENTED_EDGE('',*,*,#525,.T.);
#567=EDGE_LOOP('',(#557,#558,#565,#566));
#568=FACE_OUTER_BOUND('',#567,.T.);
#569=ADVANCED_FACE('',(#568),#550,.T.);
#570=CARTESIAN_POINT('',(0.0,0.0,1.335));
#571=DIRECTION('',(0.0,0.0,1.0));
#572=DIRECTION('',(1.0,0.0,0.0));
#573=AXIS2_PLACEMENT_3D('',#570,#571,#572);
#574=TOROIDAL_SURFACE('',#573,1.5,0.125);
#575=ORIENTED_EDGE('',*,*,#556,.T.);
#576=CARTESIAN_POINT('',(1.5,0.0,1.335));
#577=DIRECTION('',(0.0,1.0,0.0));
#578=DIRECTION('',(1.0,0.0,0.0));
#579=AXIS2_PLACEMENT_3D('',#576,#577,#578);
#580=CIRCLE('',#579,0.125);
#581=EDGE_CURVE('',#508,#519,#580,.T.);
#582=ORIENTED_EDGE('',*,*,#581,.T.);
#583=ORIENTED_EDGE('',*,*,#564,.F.);
#584=CARTESIAN_POINT('',(-1.5,-1.836970E-016,1.335));
#585=DIRECTION('',(0.0,-1.0,0.0));
#586=DIRECTION('',(-1.0,0.0,0.0));
#587=AXIS2_PLACEMENT_3D('',#584,#585,#586);
#588=CIRCLE('',#587,0.125);
#589=EDGE_CURVE('',#510,#528,#588,.T.);
#590=ORIENTED_EDGE('',*,*,#589,.F.);
#591=EDGE_LOOP('',(#575,#582,#583,#590));
#592=FACE_OUTER_BOUND('',#591,.T.);
#593=ADVANCED_FACE('',(#592),#574,.T.);
#594=CARTESIAN_POINT('',(0.0,0.0,1.335));
#595=DIRECTION('',(0.0,0.0,1.0));
#596=DIRECTION('',(1.0,0.0,0.0));
#597=AXIS2_PLACEMENT_3D('',#594,#595,#596);
#598=TOROIDAL_SURFACE('',#597,1.5,0.125);
#599=ORIENTED_EDGE('',*,*,#516,.T.);
#600=ORIENTED_EDGE('',*,*,#589,.T.);
#601=ORIENTED_EDGE('',*,*,#534,.F.);
#602=ORIENTED_EDGE('',*,*,#581,.F.);
#603=EDGE_LOOP('',(#599,#600,#601,#602));
#604=FACE_OUTER_BOUND('',#603,.T.);
#605=ADVANCED_FACE('',(#604),#598,.T.);
#606=CLOSED_SHELL('',(#545,#569,#593,#605));
#607=MANIFOLD_SOLID_BREP('A6D',#606);
#608=STYLED_ITEM('NONE',(#177),#607);
#609=CARTESIAN_POINT('',(0.0,0.0,1.085));
#610=DIRECTION('',(0.0,0.0,1.0));
#611=DIRECTION('',(1.0,0.0,0.0));
#612=AXIS2_PLACEMENT_3D('',#609,#610,#611);
#613=TOROIDAL_SURFACE('',#612,1.5,0.125);
#614=CARTESIAN_POINT('',(1.625,0.0,1.085));
#615=VERTEX_POINT('',#614);
#616=CARTESIAN_POINT('',(-1.625,-1.990051E-016,1.085));
#617=VERTEX_POINT('',#616);
#618=CARTESIAN_POINT('',(0.0,0.0,1.085));
#619=DIRECTION('',(0.0,0.0,-1.0));
#620=DIRECTION('',(1.0,0.0,0.0));
#621=AXIS2_PLACEMENT_3D('',#618,#619,#620);
#622=CIRCLE('',#621,1.625);
#623=EDGE_CURVE('',#615,#617,#622,.T.);
#624=ORIENTED_EDGE('',*,*,#623,.F.);
#625=CARTESIAN_POINT('',(1.375,0.0,1.085));
#626=VERTEX_POINT('',#625);
#627=CARTESIAN_POINT('',(1.5,0.0,1.085));
#628=DIRECTION('',(0.0,1.0,0.0));
#629=DIRECTION('',(1.0,0.0,0.0));
#630=AXIS2_PLACEMENT_3D('',#627,#628,#629);
#631=CIRCLE('',#630,0.125);
#632=EDGE_CURVE('',#626,#615,#631,.T.);
#633=ORIENTED_EDGE('',*,*,#632,.F.);
#634=CARTESIAN_POINT('',(-1.375,-1.683889E-016,1.085));
#635=VERTEX_POINT('',#634);
#636=CARTESIAN_POINT('',(0.0,0.0,1.085));
#637=DIRECTION('',(0.0,0.0,-1.0));
#638=DIRECTION('',(1.0,0.0,0.0));
#639=AXIS2_PLACEMENT_3D('',#636,#637,#638);
#640=CIRCLE('',#639,1.375);
#641=EDGE_CURVE('',#626,#635,#640,.T.);
#642=ORIENTED_EDGE('',*,*,#641,.T.);
#643=CARTESIAN_POINT('',(-1.5,-1.836970E-016,1.085));
#644=DIRECTION('',(0.0,-1.0,0.0));
#645=DIRECTION('',(-1.0,0.0,0.0));
#646=AXIS2_PLACEMENT_3D('',#643,#644,#645);
#647=CIRCLE('',#646,0.125);
#648=EDGE_CURVE('',#635,#617,#647,.T.);
#649=ORIENTED_EDGE('',*,*,#648,.T.);
#650=EDGE_LOOP('',(#624,#633,#642,#649));
#651=FACE_OUTER_BOUND('',#650,.T.);
#652=ADVANCED_FACE('',(#651),#613,.T.);
#653=CARTESIAN_POINT('',(0.0,0.0,1.085));
#654=DIRECTION('',(0.0,0.0,1.0));
#655=DIRECTION('',(1.0,0.0,0.0));
#656=AXIS2_PLACEMENT_3D('',#653,#654,#655);
#657=TOROIDAL_SURFACE('',#656,1.5,0.125);
#658=CARTESIAN_POINT('',(0.0,0.0,1.085));
#659=DIRECTION('',(0.0,0.0,-1.0));
#660=DIRECTION('',(1.0,0.0,0.0));
#661=AXIS2_PLACEMENT_3D('',#658,#659,#660);
#662=CIRCLE('',#661,1.625);
#663=EDGE_CURVE('',#617,#615,#662,.T.);
#664=ORIENTED_EDGE('',*,*,#663,.F.);
#665=ORIENTED_EDGE('',*,*,#648,.F.);
#666=CARTESIAN_POINT('',(0.0,0.0,1.085));
#667=DIRECTION('',(0.0,0.0,-1.0));
#668=DIRECTION('',(1.0,0.0,0.0));
#669=AXIS2_PLACEMENT_3D('',#666,#667,#668);
#670=CIRCLE('',#669,1.375);
#671=EDGE_CURVE('',#635,#626,#670,.T.);
#672=ORIENTED_EDGE('',*,*,#671,.T.);
#673=ORIENTED_EDGE('',*,*,#632,.T.);
#674=EDGE_LOOP('',(#664,#665,#672,#673));
#675=FACE_OUTER_BOUND('',#674,.T.);
#676=ADVANCED_FACE('',(#675),#657,.T.);
#677=CARTESIAN_POINT('',(0.0,0.0,1.085));
#678=DIRECTION('',(0.0,0.0,1.0));
#679=DIRECTION('',(1.0,0.0,0.0));
#680=AXIS2_PLACEMENT_3D('',#677,#678,#679);
#681=TOROIDAL_SURFACE('',#680,1.5,0.125);
#682=ORIENTED_EDGE('',*,*,#663,.T.);
#683=CARTESIAN_POINT('',(1.5,0.0,1.085));
#684=DIRECTION('',(0.0,1.0,0.0));
#685=DIRECTION('',(1.0,0.0,0.0));
#686=AXIS2_PLACEMENT_3D('',#683,#684,#685);
#687=CIRCLE('',#686,0.125);
#688=EDGE_CURVE('',#615,#626,#687,.T.);
#689=ORIENTED_EDGE('',*,*,#688,.T.);
#690=ORIENTED_EDGE('',*,*,#671,.F.);
#691=CARTESIAN_POINT('',(-1.5,-1.836970E-016,1.085));
#692=DIRECTION('',(0.0,-1.0,0.0));
#693=DIRECTION('',(-1.0,0.0,0.0));
#694=AXIS2_PLACEMENT_3D('',#691,#692,#693);
#695=CIRCLE('',#694,0.125);
#696=EDGE_CURVE('',#617,#635,#695,.T.);
#697=ORIENTED_EDGE('',*,*,#696,.F.);
#698=EDGE_LOOP('',(#682,#689,#690,#697));
#699=FACE_OUTER_BOUND('',#698,.T.);
#700=ADVANCED_FACE('',(#699),#681,.T.);
#701=CARTESIAN_POINT('',(0.0,0.0,1.085));
#702=DIRECTION('',(0.0,0.0,1.0));
#703=DIRECTION('',(1.0,0.0,0.0));
#704=AXIS2_PLACEMENT_3D('',#701,#702,#703);
#705=TOROIDAL_SURFACE('',#704,1.5,0.125);
#706=ORIENTED_EDGE('',*,*,#623,.T.);
#707=ORIENTED_EDGE('',*,*,#696,.T.);
#708=ORIENTED_EDGE('',*,*,#641,.F.);
#709=ORIENTED_EDGE('',*,*,#688,.F.);
#710=EDGE_LOOP('',(#706,#707,#708,#709));
#711=FACE_OUTER_BOUND('',#710,.T.);
#712=ADVANCED_FACE('',(#711),#705,.T.);
#713=CLOSED_SHELL('',(#652,#676,#700,#712));
#714=MANIFOLD_SOLID_BREP('A69',#713);
#715=STYLED_ITEM('NONE',(#177),#714);
#716=CARTESIAN_POINT('',(0.0,0.0,0.835));
#717=DIRECTION('',(0.0,0.0,1.0));
#718=DIRECTION('',(1.0,0.0,0.0));
#719=AXIS2_PLACEMENT_3D('',#716,#717,#718);
#720=TOROIDAL_SURFACE('',#719,1.5,0.125);
#721=CARTESIAN_POINT('',(1.625,0.0,0.835));
#722=VERTEX_POINT('',#721);
#723=CARTESIAN_POINT('',(-1.625,-1.990051E-016,0.835));
#724=VERTEX_POINT('',#723);
#725=CARTESIAN_POINT('',(0.0,0.0,0.835));
#726=DIRECTION('',(0.0,0.0,-1.0));
#727=DIRECTION('',(1.0,0.0,0.0));
#728=AXIS2_PLACEMENT_3D('',#725,#726,#727);
#729=CIRCLE('',#728,1.625);
#730=EDGE_CURVE('',#722,#724,#729,.T.);
#731=ORIENTED_EDGE('',*,*,#730,.F.);
#732=CARTESIAN_POINT('',(1.375,0.0,0.835));
#733=VERTEX_POINT('',#732);
#734=CARTESIAN_POINT('',(1.5,0.0,0.835));
#735=DIRECTION('',(0.0,1.0,0.0));
#736=DIRECTION('',(1.0,0.0,0.0));
#737=AXIS2_PLACEMENT_3D('',#734,#735,#736);
#738=CIRCLE('',#737,0.125);
#739=EDGE_CURVE('',#733,#722,#738,.T.);
#740=ORIENTED_EDGE('',*,*,#739,.F.);
#741=CARTESIAN_POINT('',(-1.375,-1.683889E-016,0.835));
#742=VERTEX_POINT('',#741);
#743=CARTESIAN_POINT('',(0.0,0.0,0.835));
#744=DIRECTION('',(0.0,0.0,-1.0));
#745=DIRECTION('',(1.0,0.0,0.0));
#746=AXIS2_PLACEMENT_3D('',#743,#744,#745);
#747=CIRCLE('',#746,1.375);
#748=EDGE_CURVE('',#733,#742,#747,.T.);
#749=ORIENTED_EDGE('',*,*,#748,.T.);
#750=CARTESIAN_POINT('',(-1.5,-1.836970E-016,0.835));
#751=DIRECTION('',(0.0,-1.0,0.0));
#752=DIRECTION('',(-1.0,0.0,0.0));
#753=AXIS2_PLACEMENT_3D('',#750,#751,#752);
#754=CIRCLE('',#753,0.125);
#755=EDGE_CURVE('',#742,#724,#754,.T.);
#756=ORIENTED_EDGE('',*,*,#755,.T.);
#757=EDGE_LOOP('',(#731,#740,#749,#756));
#758=FACE_OUTER_BOUND('',#757,.T.);
#759=ADVANCED_FACE('',(#758),#720,.T.);
#760=CARTESIAN_POINT('',(0.0,0.0,0.835));
#761=DIRECTION('',(0.0,0.0,1.0));
#762=DIRECTION('',(1.0,0.0,0.0));
#763=AXIS2_PLACEMENT_3D('',#760,#761,#762);
#764=TOROIDAL_SURFACE('',#763,1.5,0.125);
#765=CARTESIAN_POINT('',(0.0,0.0,0.835));
#766=DIRECTION('',(0.0,0.0,-1.0));
#767=DIRECTION('',(1.0,0.0,0.0));
#768=AXIS2_PLACEMENT_3D('',#765,#766,#767);
#769=CIRCLE('',#768,1.625);
#770=EDGE_CURVE('',#724,#722,#769,.T.);
#771=ORIENTED_EDGE('',*,*,#770,.F.);
#772=ORIENTED_EDGE('',*,*,#755,.F.);
#773=CARTESIAN_POINT('',(0.0,0.0,0.835));
#774=DIRECTION('',(0.0,0.0,-1.0));
#775=DIRECTION('',(1.0,0.0,0.0));
#776=AXIS2_PLACEMENT_3D('',#773,#774,#775);
#777=CIRCLE('',#776,1.375);
#778=EDGE_CURVE('',#742,#733,#777,.T.);
#779=ORIENTED_EDGE('',*,*,#778,.T.);
#780=ORIENTED_EDGE('',*,*,#739,.T.);
#781=EDGE_LOOP('',(#771,#772,#779,#780));
#782=FACE_OUTER_BOUND('',#781,.T.);
#783=ADVANCED_FACE('',(#782),#764,.T.);
#784=CARTESIAN_POINT('',(0.0,0.0,0.835));
#785=DIRECTION('',(0.0,0.0,1.0));
#786=DIRECTION('',(1.0,0.0,0.0));
#787=AXIS2_PLACEMENT_3D('',#784,#785,#786);
#788=TOROIDAL_SURFACE('',#787,1.5,0.125);
#789=ORIENTED_EDGE('',*,*,#770,.T.);
#790=CARTESIAN_POINT('',(1.5,0.0,0.835));
#791=DIRECTION('',(0.0,1.0,0.0));
#792=DIRECTION('',(1.0,0.0,0.0));
#793=AXIS2_PLACEMENT_3D('',#790,#791,#792);
#794=CIRCLE('',#793,0.125);
#795=EDGE_CURVE('',#722,#733,#794,.T.);
#796=ORIENTED_EDGE('',*,*,#795,.T.);
#797=ORIENTED_EDGE('',*,*,#778,.F.);
#798=CARTESIAN_POINT('',(-1.5,-1.836970E-016,0.835));
#799=DIRECTION('',(0.0,-1.0,0.0));
#800=DIRECTION('',(-1.0,0.0,0.0));
#801=AXIS2_PLACEMENT_3D('',#798,#799,#800);
#802=CIRCLE('',#801,0.125);
#803=EDGE_CURVE('',#724,#742,#802,.T.);
#804=ORIENTED_EDGE('',*,*,#803,.F.);
#805=EDGE_LOOP('',(#789,#796,#797,#804));
#806=FACE_OUTER_BOUND('',#805,.T.);
#807=ADVANCED_FACE('',(#806),#788,.T.);
#808=CARTESIAN_POINT('',(0.0,0.0,0.835));
#809=DIRECTION('',(0.0,0.0,1.0));
#810=DIRECTION('',(1.0,0.0,0.0));
#811=AXIS2_PLACEMENT_3D('',#808,#809,#810);
#812=TOROIDAL_SURFACE('',#811,1.5,0.125);
#813=ORIENTED_EDGE('',*,*,#730,.T.);
#814=ORIENTED_EDGE('',*,*,#803,.T.);
#815=ORIENTED_EDGE('',*,*,#748,.F.);
#816=ORIENTED_EDGE('',*,*,#795,.F.);
#817=EDGE_LOOP('',(#813,#814,#815,#816));
#818=FACE_OUTER_BOUND('',#817,.T.);
#819=ADVANCED_FACE('',(#818),#812,.T.);
#820=CLOSED_SHELL('',(#759,#783,#807,#819));
#821=MANIFOLD_SOLID_BREP('A65',#820);
#822=STYLED_ITEM('NONE',(#177),#821);
#823=CARTESIAN_POINT('',(0.0,0.0,0.585));
#824=DIRECTION('',(0.0,0.0,1.0));
#825=DIRECTION('',(1.0,0.0,0.0));
#826=AXIS2_PLACEMENT_3D('',#823,#824,#825);
#827=TOROIDAL_SURFACE('',#826,1.5,0.125);
#828=CARTESIAN_POINT('',(1.625,0.0,0.585));
#829=VERTEX_POINT('',#828);
#830=CARTESIAN_POINT('',(-1.625,-1.990051E-016,0.585));
#831=VERTEX_POINT('',#830);
#832=CARTESIAN_POINT('',(0.0,0.0,0.585));
#833=DIRECTION('',(0.0,0.0,-1.0));
#834=DIRECTION('',(1.0,0.0,0.0));
#835=AXIS2_PLACEMENT_3D('',#832,#833,#834);
#836=CIRCLE('',#835,1.625);
#837=EDGE_CURVE('',#829,#831,#836,.T.);
#838=ORIENTED_EDGE('',*,*,#837,.F.);
#839=CARTESIAN_POINT('',(1.375,0.0,0.585));
#840=VERTEX_POINT('',#839);
#841=CARTESIAN_POINT('',(1.5,0.0,0.585));
#842=DIRECTION('',(0.0,1.0,0.0));
#843=DIRECTION('',(1.0,0.0,0.0));
#844=AXIS2_PLACEMENT_3D('',#841,#842,#843);
#845=CIRCLE('',#844,0.125);
#846=EDGE_CURVE('',#840,#829,#845,.T.);
#847=ORIENTED_EDGE('',*,*,#846,.F.);
#848=CARTESIAN_POINT('',(-1.375,-1.683889E-016,0.585));
#849=VERTEX_POINT('',#848);
#850=CARTESIAN_POINT('',(0.0,0.0,0.585));
#851=DIRECTION('',(0.0,0.0,-1.0));
#852=DIRECTION('',(1.0,0.0,0.0));
#853=AXIS2_PLACEMENT_3D('',#850,#851,#852);
#854=CIRCLE('',#853,1.375);
#855=EDGE_CURVE('',#840,#849,#854,.T.);
#856=ORIENTED_EDGE('',*,*,#855,.T.);
#857=CARTESIAN_POINT('',(-1.5,-1.836970E-016,0.585));
#858=DIRECTION('',(0.0,-1.0,0.0));
#859=DIRECTION('',(-1.0,0.0,0.0));
#860=AXIS2_PLACEMENT_3D('',#857,#858,#859);
#861=CIRCLE('',#860,0.125);
#862=EDGE_CURVE('',#849,#831,#861,.T.);
#863=ORIENTED_EDGE('',*,*,#862,.T.);
#864=EDGE_LOOP('',(#838,#847,#856,#863));
#865=FACE_OUTER_BOUND('',#864,.T.);
#866=ADVANCED_FACE('',(#865),#827,.T.);
#867=CARTESIAN_POINT('',(0.0,0.0,0.585));
#868=DIRECTION('',(0.0,0.0,1.0));
#869=DIRECTION('',(1.0,0.0,0.0));
#870=AXIS2_PLACEMENT_3D('',#867,#868,#869);
#871=TOROIDAL_SURFACE('',#870,1.5,0.125);
#872=CARTESIAN_POINT('',(0.0,0.0,0.585));
#873=DIRECTION('',(0.0,0.0,-1.0));
#874=DIRECTION('',(1.0,0.0,0.0));
#875=AXIS2_PLACEMENT_3D('',#872,#873,#874);
#876=CIRCLE('',#875,1.625);
#877=EDGE_CURVE('',#831,#829,#876,.T.);
#878=ORIENTED_EDGE('',*,*,#877,.F.);
#879=ORIENTED_EDGE('',*,*,#862,.F.);
#880=CARTESIAN_POINT('',(0.0,0.0,0.585));
#881=DIRECTION('',(0.0,0.0,-1.0));
#882=DIRECTION('',(1.0,0.0,0.0));
#883=AXIS2_PLACEMENT_3D('',#880,#881,#882);
#884=CIRCLE('',#883,1.375);
#885=EDGE_CURVE('',#849,#840,#884,.T.);
#886=ORIENTED_EDGE('',*,*,#885,.T.);
#887=ORIENTED_EDGE('',*,*,#846,.T.);
#888=EDGE_LOOP('',(#878,#879,#886,#887));
#889=FACE_OUTER_BOUND('',#888,.T.);
#890=ADVANCED_FACE('',(#889),#871,.T.);
#891=CARTESIAN_POINT('',(0.0,0.0,0.585));
#892=DIRECTION('',(0.0,0.0,1.0));
#893=DIRECTION('',(1.0,0.0,0.0));
#894=AXIS2_PLACEMENT_3D('',#891,#892,#893);
#895=TOROIDAL_SURFACE('',#894,1.5,0.125);
#896=ORIENTED_EDGE('',*,*,#877,.T.);
#897=CARTESIAN_POINT('',(1.5,0.0,0.585));
#898=DIRECTION('',(0.0,1.0,0.0));
#899=DIRECTION('',(1.0,0.0,0.0));
#900=AXIS2_PLACEMENT_3D('',#897,#898,#899);
#901=CIRCLE('',#900,0.125);
#902=EDGE_CURVE('',#829,#840,#901,.T.);
#903=ORIENTED_EDGE('',*,*,#902,.T.);
#904=ORIENTED_EDGE('',*,*,#885,.F.);
#905=CARTESIAN_POINT('',(-1.5,-1.836970E-016,0.585));
#906=DIRECTION('',(0.0,-1.0,0.0));
#907=DIRECTION('',(-1.0,0.0,0.0));
#908=AXIS2_PLACEMENT_3D('',#905,#906,#907);
#909=CIRCLE('',#908,0.125);
#910=EDGE_CURVE('',#831,#849,#909,.T.);
#911=ORIENTED_EDGE('',*,*,#910,.F.);
#912=EDGE_LOOP('',(#896,#903,#904,#911));
#913=FACE_OUTER_BOUND('',#912,.T.);
#914=ADVANCED_FACE('',(#913),#895,.T.);
#915=CARTESIAN_POINT('',(0.0,0.0,0.585));
#916=DIRECTION('',(0.0,0.0,1.0));
#917=DIRECTION('',(1.0,0.0,0.0));
#918=AXIS2_PLACEMENT_3D('',#915,#916,#917);
#919=TOROIDAL_SURFACE('',#918,1.5,0.125);
#920=ORIENTED_EDGE('',*,*,#837,.T.);
#921=ORIENTED_EDGE('',*,*,#910,.T.);
#922=ORIENTED_EDGE('',*,*,#855,.F.);
#923=ORIENTED_EDGE('',*,*,#902,.F.);
#924=EDGE_LOOP('',(#920,#921,#922,#923));
#925=FACE_OUTER_BOUND('',#924,.T.);
#926=ADVANCED_FACE('',(#925),#919,.T.);
#927=CLOSED_SHELL('',(#866,#890,#914,#926));
#928=MANIFOLD_SOLID_BREP('A61',#927);
#929=STYLED_ITEM('NONE',(#177),#928);
#930=CARTESIAN_POINT('',(-1.776357E-015,-0.149999999999999,0.5));
#931=DIRECTION('',(-1.0,0.0,0.0));
#932=DIRECTION('',(0.0,-0.707106781186548,0.707106781186548));
#933=AXIS2_PLACEMENT_3D('',#930,#931,#932);
#934=CYLINDRICAL_SURFACE('',#933,0.5);
#935=CARTESIAN_POINT('',(-2.700000000000001,-0.149999999999999,1.0));
#936=VERTEX_POINT('',#935);
#937=CARTESIAN_POINT('',(-3.200000000000001,-0.649999999999999,0.5));
#938=VERTEX_POINT('',#937);
#939=CARTESIAN_POINT('',(-2.700000000000001,-0.149999999999999,0.5));
#940=DIRECTION('',(0.707106781186547,-0.707106781186547,0.0));
#941=DIRECTION('',(-0.707106781186547,-0.707106781186547,7.850462E-017));
#942=AXIS2_PLACEMENT_3D('',#939,#940,#941);
#943=ELLIPSE('',#942,0.707106781186547,0.5);
#944=EDGE_CURVE('',#936,#938,#943,.T.);
#945=ORIENTED_EDGE('',*,*,#944,.T.);
#946=CARTESIAN_POINT('',(3.199999999999998,-0.649999999999999,0.5));
#947=VERTEX_POINT('',#946);
#948=CARTESIAN_POINT('',(-3.200000000000001,-0.649999999999999,0.5));
#949=DIRECTION('',(1.0,0.0,0.0));
#950=VECTOR('',#949,6.399999999999999);
#951=LINE('',#948,#950);
#952=EDGE_CURVE('',#938,#947,#951,.T.);
#953=ORIENTED_EDGE('',*,*,#952,.T.);
#954=CARTESIAN_POINT('',(2.699999999999998,-0.149999999999999,1.0));
#955=VERTEX_POINT('',#954);
#956=CARTESIAN_POINT('',(2.699999999999998,-0.149999999999999,0.5));
#957=DIRECTION('',(-0.707106781186547,-0.707106781186547,0.0));
#958=DIRECTION('',(0.707106781186547,-0.707106781186547,7.850462E-017));
#959=AXIS2_PLACEMENT_3D('',#956,#957,#958);
#960=ELLIPSE('',#959,0.707106781186547,0.5);
#961=EDGE_CURVE('',#947,#955,#960,.T.);
#962=ORIENTED_EDGE('',*,*,#961,.T.);
#963=CARTESIAN_POINT('',(2.699999999999998,-0.149999999999999,1.0));
#964=DIRECTION('',(-1.0,0.0,0.0));
#965=VECTOR('',#964,5.399999999999999);
#966=LINE('',#963,#965);
#967=EDGE_CURVE('',#955,#936,#966,.T.);
#968=ORIENTED_EDGE('',*,*,#967,.T.);
#969=EDGE_LOOP('',(#945,#953,#962,#968));
#970=FACE_OUTER_BOUND('',#969,.T.);
#971=ADVANCED_FACE('',(#970),#934,.T.);
#972=CARTESIAN_POINT('',(-2.700000000000001,-0.149999999999999,1.0));
#973=CARTESIAN_POINT('',(2.699999999999998,-0.149999999999999,1.0));
#974=CARTESIAN_POINT('',(-2.700000000000001,0.149999999999999,1.0));
#975=CARTESIAN_POINT('',(2.699999999999998,0.149999999999999,1.0));
#976=B_SPLINE_SURFACE_WITH_KNOTS('',1,1,((#972,#974),(#973,#975)),.UNSPECIFIED.,.F.,.F.,.U.,(2,2),(2,2),(0.0,5.399999999999999),(0.0,0.299999999999999),.UNSPECIFIED.);
#977=ORIENTED_EDGE('',*,*,#967,.F.);
#978=CARTESIAN_POINT('',(2.699999999999998,0.149999999999999,1.0));
#979=VERTEX_POINT('',#978);
#980=CARTESIAN_POINT('',(2.699999999999998,0.149999999999999,1.0));
#981=DIRECTION('',(0.0,-1.0,0.0));
#982=VECTOR('',#981,0.299999999999999);
#983=LINE('',#980,#982);
#984=EDGE_CURVE('',#979,#955,#983,.T.);
#985=ORIENTED_EDGE('',*,*,#984,.F.);
#986=CARTESIAN_POINT('',(-2.700000000000001,0.149999999999999,1.0));
#987=VERTEX_POINT('',#986);
#988=CARTESIAN_POINT('',(-2.700000000000001,0.149999999999999,1.0));
#989=DIRECTION('',(1.0,0.0,0.0));
#990=VECTOR('',#989,5.399999999999999);
#991=LINE('',#988,#990);
#992=EDGE_CURVE('',#987,#979,#991,.T.);
#993=ORIENTED_EDGE('',*,*,#992,.F.);
#994=CARTESIAN_POINT('',(-2.700000000000001,-0.149999999999999,1.0));
#995=DIRECTION('',(0.0,1.0,0.0));
#996=VECTOR('',#995,0.299999999999999);
#997=LINE('',#994,#996);
#998=EDGE_CURVE('',#936,#987,#997,.T.);
#999=ORIENTED_EDGE('',*,*,#998,.F.);
#1000=EDGE_LOOP('',(#977,#985,#993,#999));
#1001=FACE_OUTER_BOUND('',#1000,.T.);
#1002=ADVANCED_FACE('',(#1001),#976,.T.);
#1003=CARTESIAN_POINT('',(2.699999999999998,0.0,0.5));
#1004=DIRECTION('',(0.0,-1.0,0.0));
#1005=DIRECTION('',(0.707106781186548,0.0,0.707106781186548));
#1006=AXIS2_PLACEMENT_3D('',#1003,#1004,#1005);
#1007=CYLINDRICAL_SURFACE('',#1006,0.5);
#1008=ORIENTED_EDGE('',*,*,#961,.F.);
#1009=CARTESIAN_POINT('',(3.199999999999998,0.649999999999999,0.5));
#1010=VERTEX_POINT('',#1009);
#1011=CARTESIAN_POINT('',(3.199999999999998,-0.649999999999999,0.5));
#1012=DIRECTION('',(0.0,1.0,0.0));
#1013=VECTOR('',#1012,1.299999999999999);
#1014=LINE('',#1011,#1013);
#1015=EDGE_CURVE('',#947,#1010,#1014,.T.);
#1016=ORIENTED_EDGE('',*,*,#1015,.T.);
#1017=CARTESIAN_POINT('',(2.699999999999998,0.149999999999999,0.5));
#1018=DIRECTION('',(-0.707106781186547,0.707106781186547,0.0));
#1019=DIRECTION('',(0.707106781186547,0.707106781186547,7.850462E-017));
#1020=AXIS2_PLACEMENT_3D('',#1017,#1018,#1019);
#1021=ELLIPSE('',#1020,0.707106781186547,0.5);
#1022=EDGE_CURVE('',#979,#1010,#1021,.T.);
#1023=ORIENTED_EDGE('',*,*,#1022,.F.);
#1024=ORIENTED_EDGE('',*,*,#984,.T.);
#1025=EDGE_LOOP('',(#1008,#1016,#1023,#1024));
#1026=FACE_OUTER_BOUND('',#1025,.T.);
#1027=ADVANCED_FACE('',(#1026),#1007,.T.);
#1028=CARTESIAN_POINT('',(-1.776357E-015,0.149999999999999,0.5));
#1029=DIRECTION('',(1.0,0.0,0.0));
#1030=DIRECTION('',(0.0,0.707106781186548,0.707106781186548));
#1031=AXIS2_PLACEMENT_3D('',#1028,#1029,#1030);
#1032=CYLINDRICAL_SURFACE('',#1031,0.5);
#1033=ORIENTED_EDGE('',*,*,#1022,.T.);
#1034=CARTESIAN_POINT('',(-3.200000000000001,0.649999999999999,0.5));
#1035=VERTEX_POINT('',#1034);
#1036=CARTESIAN_POINT('',(3.199999999999998,0.649999999999999,0.5));
#1037=DIRECTION('',(-1.0,0.0,0.0));
#1038=VECTOR('',#1037,6.399999999999999);
#1039=LINE('',#1036,#1038);
#1040=EDGE_CURVE('',#1010,#1035,#1039,.T.);
#1041=ORIENTED_EDGE('',*,*,#1040,.T.);
#1042=CARTESIAN_POINT('',(-2.700000000000001,0.149999999999999,0.5));
#1043=DIRECTION('',(0.707106781186547,0.707106781186547,0.0));
#1044=DIRECTION('',(-0.707106781186547,0.707106781186547,7.850462E-017));
#1045=AXIS2_PLACEMENT_3D('',#1042,#1043,#1044);
#1046=ELLIPSE('',#1045,0.707106781186547,0.5);
#1047=EDGE_CURVE('',#1035,#987,#1046,.T.);
#1048=ORIENTED_EDGE('',*,*,#1047,.T.);
#1049=ORIENTED_EDGE('',*,*,#992,.T.);
#1050=EDGE_LOOP('',(#1033,#1041,#1048,#1049));
#1051=FACE_OUTER_BOUND('',#1050,.T.);
#1052=ADVANCED_FACE('',(#1051),#1032,.T.);
#1053=CARTESIAN_POINT('',(-2.700000000000001,0.0,0.5));
#1054=DIRECTION('',(0.0,1.0,0.0));
#1055=DIRECTION('',(-0.707106781186548,0.0,0.707106781186548));
#1056=AXIS2_PLACEMENT_3D('',#1053,#1054,#1055);
#1057=CYLINDRICAL_SURFACE('',#1056,0.5);
#1058=ORIENTED_EDGE('',*,*,#944,.F.);
#1059=ORIENTED_EDGE('',*,*,#998,.T.);
#1060=ORIENTED_EDGE('',*,*,#1047,.F.);
#1061=CARTESIAN_POINT('',(-3.200000000000001,0.649999999999999,0.5));
#1062=DIRECTION('',(0.0,-1.0,0.0));
#1063=VECTOR('',#1062,1.299999999999999);
#1064=LINE('',#1061,#1063);
#1065=EDGE_CURVE('',#1035,#938,#1064,.T.);
#1066=ORIENTED_EDGE('',*,*,#1065,.T.);
#1067=EDGE_LOOP('',(#1058,#1059,#1060,#1066));
#1068=FACE_OUTER_BOUND('',#1067,.T.);
#1069=ADVANCED_FACE('',(#1068),#1057,.T.);
#1070=CARTESIAN_POINT('',(-3.200000000000001,-0.649999999999999,0.5));
#1071=CARTESIAN_POINT('',(3.199999999999998,-0.649999999999999,0.5));
#1072=CARTESIAN_POINT('',(-3.200000000000001,0.649999999999999,0.5));
#1073=CARTESIAN_POINT('',(3.199999999999998,0.649999999999999,0.5));
#1074=B_SPLINE_SURFACE_WITH_KNOTS('',1,1,((#1070,#1072),(#1071,#1073)),.UNSPECIFIED.,.F.,.F.,.U.,(2,2),(2,2),(0.0,6.399999999999999),(0.0,1.299999999999999),.UNSPECIFIED.);
#1075=ORIENTED_EDGE('',*,*,#1015,.F.);
#1076=ORIENTED_EDGE('',*,*,#952,.F.);
#1077=ORIENTED_EDGE('',*,*,#1065,.F.);
#1078=ORIENTED_EDGE('',*,*,#1040,.F.);
#1079=EDGE_LOOP('',(#1075,#1076,#1077,#1078));
#1080=FACE_OUTER_BOUND('',#1079,.T.);
#1081=ADVANCED_FACE('',(#1080),#1074,.F.);
#1082=CLOSED_SHELL('',(#971,#1002,#1027,#1052,#1069,#1081));
#1083=MANIFOLD_SOLID_BREP('A40',#1082);
#1084=COLOUR_RGB('250',0.33,0.33,0.33);
#1085=SURFACE_STYLE_USAGE(.BOTH.,#1086);
#1086=SURFACE_SIDE_STYLE('NONE',(#1087));
#1087=SURFACE_STYLE_FILL_AREA(#1088);
#1088=FILL_AREA_STYLE('NONE',(#1089));
#1089=FILL_AREA_STYLE_COLOUR('NONE',#1084);
#1090=PRESENTATION_STYLE_ASSIGNMENT((#1085));
#1091=STYLED_ITEM('NONE',(#1090),#1083);
#1092=CARTESIAN_POINT('',(0.0,0.0,2.67));
#1093=DIRECTION('',(0.0,0.0,1.0));
#1094=DIRECTION('',(1.0,0.0,0.0));
#1095=AXIS2_PLACEMENT_3D('',#1092,#1093,#1094);
#1096=CYLINDRICAL_SURFACE('',#1095,1.949999999999999);
#1097=CARTESIAN_POINT('',(1.949999999999999,0.0,2.67));
#1098=VERTEX_POINT('',#1097);
#1099=CARTESIAN_POINT('',(1.949999999999999,0.0,2.42));
#1100=VERTEX_POINT('',#1099);
#1101=CARTESIAN_POINT('',(1.949999999999999,0.0,2.67));
#1102=DIRECTION('',(0.0,0.0,-1.0));
#1103=VECTOR('',#1102,0.25);
#1104=LINE('',#1101,#1103);
#1105=EDGE_CURVE('',#1098,#1100,#1104,.T.);
#1106=ORIENTED_EDGE('',*,*,#1105,.F.);
#1107=CARTESIAN_POINT('',(-1.949999999999999,-2.388061E-016,2.67));
#1108=VERTEX_POINT('',#1107);
#1109=CARTESIAN_POINT('',(0.0,0.0,2.67));
#1110=DIRECTION('',(0.0,0.0,1.0));
#1111=DIRECTION('',(-1.0,0.0,0.0));
#1112=AXIS2_PLACEMENT_3D('',#1109,#1110,#1111);
#1113=CIRCLE('',#1112,1.949999999999999);
#1114=EDGE_CURVE('',#1108,#1098,#1113,.T.);
#1115=ORIENTED_EDGE('',*,*,#1114,.F.);
#1116=CARTESIAN_POINT('',(-1.949999999999999,-2.388061E-016,2.42));
#1117=VERTEX_POINT('',#1116);
#1118=CARTESIAN_POINT('',(-1.949999999999999,-2.388061E-016,2.67));
#1119=DIRECTION('',(0.0,0.0,-1.0));
#1120=VECTOR('',#1119,0.25);
#1121=LINE('',#1118,#1120);
#1122=EDGE_CURVE('',#1108,#1117,#1121,.T.);
#1123=ORIENTED_EDGE('',*,*,#1122,.T.);
#1124=CARTESIAN_POINT('',(0.0,0.0,2.42));
#1125=DIRECTION('',(0.0,0.0,-1.0));
#1126=DIRECTION('',(1.0,0.0,0.0));
#1127=AXIS2_PLACEMENT_3D('',#1124,#1125,#1126);
#1128=CIRCLE('',#1127,1.949999999999999);
#1129=EDGE_CURVE('',#1100,#1117,#1128,.T.);
#1130=ORIENTED_EDGE('',*,*,#1129,.F.);
#1131=EDGE_LOOP('',(#1106,#1115,#1123,#1130));
#1132=FACE_OUTER_BOUND('',#1131,.T.);
#1133=ADVANCED_FACE('',(#1132),#1096,.T.);
#1134=CARTESIAN_POINT('',(0.0,0.0,2.67));
#1135=DIRECTION('',(0.0,0.0,1.0));
#1136=DIRECTION('',(1.0,0.0,0.0));
#1137=AXIS2_PLACEMENT_3D('',#1134,#1135,#1136);
#1138=TOROIDAL_SURFACE('',#1137,1.699999999999999,0.25);
#1139=CARTESIAN_POINT('',(1.699999999999999,-4.163799E-016,2.92));
#1140=VERTEX_POINT('',#1139);
#1141=CARTESIAN_POINT('',(1.699999999999999,0.0,2.67));
#1142=DIRECTION('',(0.0,1.0,0.0));
#1143=DIRECTION('',(1.0,0.0,0.0));
#1144=AXIS2_PLACEMENT_3D('',#1141,#1142,#1143);
#1145=CIRCLE('',#1144,0.25);
#1146=EDGE_CURVE('',#1140,#1098,#1145,.T.);
#1147=ORIENTED_EDGE('',*,*,#1146,.F.);
#1148=CARTESIAN_POINT('',(-1.699999999999999,-2.081900E-016,2.92));
#1149=VERTEX_POINT('',#1148);
#1150=CARTESIAN_POINT('',(0.0,0.0,2.92));
#1151=DIRECTION('',(0.0,0.0,-1.0));
#1152=DIRECTION('',(-1.0,0.0,0.0));
#1153=AXIS2_PLACEMENT_3D('',#1150,#1151,#1152);
#1154=CIRCLE('',#1153,1.699999999999999);
#1155=EDGE_CURVE('',#1140,#1149,#1154,.T.);
#1156=ORIENTED_EDGE('',*,*,#1155,.T.);
#1157=CARTESIAN_POINT('',(-1.699999999999999,-2.081900E-016,2.67));
#1158=DIRECTION('',(0.0,-1.0,0.0));
#1159=DIRECTION('',(-1.0,0.0,0.0));
#1160=AXIS2_PLACEMENT_3D('',#1157,#1158,#1159);
#1161=CIRCLE('',#1160,0.25);
#1162=EDGE_CURVE('',#1149,#1108,#1161,.T.);
#1163=ORIENTED_EDGE('',*,*,#1162,.T.);
#1164=ORIENTED_EDGE('',*,*,#1114,.T.);
#1165=EDGE_LOOP('',(#1147,#1156,#1163,#1164));
#1166=FACE_OUTER_BOUND('',#1165,.T.);
#1167=ADVANCED_FACE('',(#1166),#1138,.T.);
#1168=CARTESIAN_POINT('',(0.0,0.0,2.67));
#1169=DIRECTION('',(0.0,0.0,1.0));
#1170=DIRECTION('',(1.0,0.0,0.0));
#1171=AXIS2_PLACEMENT_3D('',#1168,#1169,#1170);
#1172=TOROIDAL_SURFACE('',#1171,1.699999999999999,0.25);
#1173=ORIENTED_EDGE('',*,*,#1146,.T.);
#1174=CARTESIAN_POINT('',(0.0,0.0,2.67));
#1175=DIRECTION('',(0.0,0.0,1.0));
#1176=DIRECTION('',(-1.0,0.0,0.0));
#1177=AXIS2_PLACEMENT_3D('',#1174,#1175,#1176);
#1178=CIRCLE('',#1177,1.949999999999999);
#1179=EDGE_CURVE('',#1098,#1108,#1178,.T.);
#1180=ORIENTED_EDGE('',*,*,#1179,.T.);
#1181=ORIENTED_EDGE('',*,*,#1162,.F.);
#1182=CARTESIAN_POINT('',(0.0,0.0,2.92));
#1183=DIRECTION('',(0.0,0.0,-1.0));
#1184=DIRECTION('',(-1.0,0.0,0.0));
#1185=AXIS2_PLACEMENT_3D('',#1182,#1183,#1184);
#1186=CIRCLE('',#1185,1.699999999999999);
#1187=EDGE_CURVE('',#1149,#1140,#1186,.T.);
#1188=ORIENTED_EDGE('',*,*,#1187,.T.);
#1189=EDGE_LOOP('',(#1173,#1180,#1181,#1188));
#1190=FACE_OUTER_BOUND('',#1189,.T.);
#1191=ADVANCED_FACE('',(#1190),#1172,.T.);
#1192=CARTESIAN_POINT('',(0.0,0.0,2.67));
#1193=DIRECTION('',(0.0,0.0,1.0));
#1194=DIRECTION('',(1.0,0.0,0.0));
#1195=AXIS2_PLACEMENT_3D('',#1192,#1193,#1194);
#1196=CYLINDRICAL_SURFACE('',#1195,1.949999999999999);
#1197=ORIENTED_EDGE('',*,*,#1105,.T.);
#1198=CARTESIAN_POINT('',(0.0,0.0,2.42));
#1199=DIRECTION('',(0.0,0.0,-1.0));
#1200=DIRECTION('',(1.0,0.0,0.0));
#1201=AXIS2_PLACEMENT_3D('',#1198,#1199,#1200);
#1202=CIRCLE('',#1201,1.949999999999999);
#1203=EDGE_CURVE('',#1117,#1100,#1202,.T.);
#1204=ORIENTED_EDGE('',*,*,#1203,.F.);
#1205=ORIENTED_EDGE('',*,*,#1122,.F.);
#1206=ORIENTED_EDGE('',*,*,#1179,.F.);
#1207=EDGE_LOOP('',(#1197,#1204,#1205,#1206));
#1208=FACE_OUTER_BOUND('',#1207,.T.);
#1209=ADVANCED_FACE('',(#1208),#1196,.T.);
#1210=CARTESIAN_POINT('',(0.0,0.0,2.92));
#1211=DIRECTION('',(0.0,0.0,1.0));
#1212=DIRECTION('',(1.0,0.0,0.0));
#1213=AXIS2_PLACEMENT_3D('',#1210,#1211,#1212);
#1214=PLANE('',#1213);
#1215=ORIENTED_EDGE('',*,*,#1155,.F.);
#1216=ORIENTED_EDGE('',*,*,#1187,.F.);
#1217=EDGE_LOOP('',(#1215,#1216));
#1218=FACE_OUTER_BOUND('',#1217,.T.);
#1219=ADVANCED_FACE('',(#1218),#1214,.T.);
#1220=CARTESIAN_POINT('',(0.0,0.0,2.42));
#1221=DIRECTION('',(0.0,0.0,-1.0));
#1222=DIRECTION('',(-1.0,0.0,0.0));
#1223=AXIS2_PLACEMENT_3D('',#1220,#1221,#1222);
#1224=PLANE('',#1223);
#1225=ORIENTED_EDGE('',*,*,#1129,.T.);
#1226=ORIENTED_EDGE('',*,*,#1203,.T.);
#1227=EDGE_LOOP('',(#1225,#1226));
#1228=FACE_OUTER_BOUND('',#1227,.T.);
#1229=ADVANCED_FACE('',(#1228),#1224,.T.);
#1230=CLOSED_SHELL('',(#1133,#1167,#1191,#1209,#1219,#1229));
#1231=MANIFOLD_SOLID_BREP('A34',#1230);
#1232=STYLED_ITEM('NONE',(#1090),#1231);
#1233=CARTESIAN_POINT('',(2.159999999999997,-1.315150093808633,0.0));
#1234=CARTESIAN_POINT('',(2.159999999999997,-1.315150093808633,0.1));
#1235=CARTESIAN_POINT('',(2.159999999999997,1.315150093808633,0.0));
#1236=CARTESIAN_POINT('',(2.159999999999997,1.315150093808633,0.1));
#1237=B_SPLINE_SURFACE_WITH_KNOTS('',1,1,((#1233,#1235),(#1234,#1236)),.UNSPECIFIED.,.F.,.F.,.U.,(2,2),(2,2),(0.0,0.1),(0.0,2.630300187617266),.UNSPECIFIED.);
#1238=CARTESIAN_POINT('',(2.159999999999997,-1.315150093808633,0.1));
#1239=VERTEX_POINT('',#1238);
#1240=CARTESIAN_POINT('',(2.159999999999997,-1.315150093808633,0.0));
#1241=VERTEX_POINT('',#1240);
#1242=CARTESIAN_POINT('',(2.159999999999997,-1.315150093808633,0.1));
#1243=DIRECTION('',(0.0,0.0,-1.0));
#1244=VECTOR('',#1243,0.1);
#1245=LINE('',#1242,#1244);
#1246=EDGE_CURVE('',#1239,#1241,#1245,.T.);
#1247=ORIENTED_EDGE('',*,*,#1246,.F.);
#1248=CARTESIAN_POINT('',(2.159999999999997,1.315150093808632,0.1));
#1249=VERTEX_POINT('',#1248);
#1250=CARTESIAN_POINT('',(2.159999999999997,1.315150093808632,0.1));
#1251=DIRECTION('',(0.0,-1.0,0.0));
#1252=VECTOR('',#1251,2.630300187617265);
#1253=LINE('',#1250,#1252);
#1254=EDGE_CURVE('',#1249,#1239,#1253,.T.);
#1255=ORIENTED_EDGE('',*,*,#1254,.F.);
#1256=CARTESIAN_POINT('',(2.159999999999997,1.315150093808632,0.0));
#1257=VERTEX_POINT('',#1256);
#1258=CARTESIAN_POINT('',(2.159999999999997,1.315150093808632,0.0));
#1259=DIRECTION('',(0.0,0.0,1.0));
#1260=VECTOR('',#1259,0.1);
#1261=LINE('',#1258,#1260);
#1262=EDGE_CURVE('',#1257,#1249,#1261,.T.);
#1263=ORIENTED_EDGE('',*,*,#1262,.F.);
#1264=CARTESIAN_POINT('',(2.159999999999997,-1.315150093808633,0.0));
#1265=DIRECTION('',(0.0,1.0,0.0));
#1266=VECTOR('',#1265,2.630300187617265);
#1267=LINE('',#1264,#1266);
#1268=EDGE_CURVE('',#1241,#1257,#1267,.T.);
#1269=ORIENTED_EDGE('',*,*,#1268,.F.);
#1270=EDGE_LOOP('',(#1247,#1255,#1263,#1269));
#1271=FACE_OUTER_BOUND('',#1270,.T.);
#1272=ADVANCED_FACE('',(#1271),#1237,.T.);
#1273=CARTESIAN_POINT('',(2.159999999999997,-1.374812382739212,0.1));
#1274=CARTESIAN_POINT('',(2.060000000000002,-1.374812382739212,0.1));
#1275=CARTESIAN_POINT('',(2.159999999999997,1.374812382739211,0.1));
#1276=CARTESIAN_POINT('',(2.060000000000002,1.374812382739211,0.1));
#1277=B_SPLINE_SURFACE_WITH_KNOTS('',1,1,((#1273,#1275),(#1274,#1276)),.UNSPECIFIED.,.F.,.F.,.U.,(2,2),(2,2),(0.0,0.099999999999995),(0.0,2.749624765478422),.UNSPECIFIED.);
#1278=CARTESIAN_POINT('',(2.060000000000002,-1.374812382739211,0.1));
#1279=VERTEX_POINT('',#1278);
#1280=CARTESIAN_POINT('',(2.060000000000002,-1.374812382739212,0.1));
#1281=DIRECTION('',(0.85876975670887,0.512361693496097,0.0));
#1282=VECTOR('',#1281,0.116445647065207);
#1283=LINE('',#1280,#1282);
#1284=EDGE_CURVE('',#1279,#1239,#1283,.T.);
#1285=ORIENTED_EDGE('',*,*,#1284,.F.);
#1286=CARTESIAN_POINT('',(2.060000000000002,1.374812382739211,0.1));
#1287=VERTEX_POINT('',#1286);
#1288=CARTESIAN_POINT('',(2.060000000000002,-1.374812382739211,0.1));
#1289=DIRECTION('',(0.0,1.0,0.0));
#1290=VECTOR('',#1289,2.749624765478422);
#1291=LINE('',#1288,#1290);
#1292=EDGE_CURVE('',#1279,#1287,#1291,.T.);
#1293=ORIENTED_EDGE('',*,*,#1292,.T.);
#1294=CARTESIAN_POINT('',(2.159999999999996,1.315150093808632,0.1));
#1295=DIRECTION('',(-0.858769756708868,0.5123616934961,0.0));
#1296=VECTOR('',#1295,0.116445647065207);
#1297=LINE('',#1294,#1296);
#1298=EDGE_CURVE('',#1249,#1287,#1297,.T.);
#1299=ORIENTED_EDGE('',*,*,#1298,.F.);
#1300=ORIENTED_EDGE('',*,*,#1254,.T.);
#1301=EDGE_LOOP('',(#1285,#1293,#1299,#1300));
#1302=FACE_OUTER_BOUND('',#1301,.T.);
#1303=ADVANCED_FACE('',(#1302),#1277,.T.);
#1304=CARTESIAN_POINT('',(2.060000000000002,-1.374812382739211,0.1));
#1305=CARTESIAN_POINT('',(2.060000000000002,-1.374812382739211,0.0));
#1306=CARTESIAN_POINT('',(2.060000000000002,1.374812382739211,0.1));
#1307=CARTESIAN_POINT('',(2.060000000000002,1.374812382739211,0.0));
#1308=B_SPLINE_SURFACE_WITH_KNOTS('',1,1,((#1304,#1306),(#1305,#1307)),.UNSPECIFIED.,.F.,.F.,.U.,(2,2),(2,2),(0.0,0.1),(0.0,2.749624765478422),.UNSPECIFIED.);
#1309=CARTESIAN_POINT('',(2.060000000000002,-1.374812382739211,0.0));
#1310=VERTEX_POINT('',#1309);
#1311=CARTESIAN_POINT('',(2.060000000000002,-1.374812382739211,0.0));
#1312=DIRECTION('',(0.0,0.0,1.0));
#1313=VECTOR('',#1312,0.1);
#1314=LINE('',#1311,#1313);
#1315=EDGE_CURVE('',#1310,#1279,#1314,.T.);
#1316=ORIENTED_EDGE('',*,*,#1315,.F.);
#1317=CARTESIAN_POINT('',(2.060000000000002,1.374812382739211,0.0));
#1318=VERTEX_POINT('',#1317);
#1319=CARTESIAN_POINT('',(2.060000000000002,1.374812382739211,0.0));
#1320=DIRECTION('',(0.0,-1.0,0.0));
#1321=VECTOR('',#1320,2.749624765478422);
#1322=LINE('',#1319,#1321);
#1323=EDGE_CURVE('',#1318,#1310,#1322,.T.);
#1324=ORIENTED_EDGE('',*,*,#1323,.F.);
#1325=CARTESIAN_POINT('',(2.060000000000002,1.374812382739211,0.1));
#1326=DIRECTION('',(0.0,0.0,-1.0));
#1327=VECTOR('',#1326,0.1);
#1328=LINE('',#1325,#1327);
#1329=EDGE_CURVE('',#1287,#1318,#1328,.T.);
#1330=ORIENTED_EDGE('',*,*,#1329,.F.);
#1331=ORIENTED_EDGE('',*,*,#1292,.F.);
#1332=EDGE_LOOP('',(#1316,#1324,#1330,#1331));
#1333=FACE_OUTER_BOUND('',#1332,.T.);
#1334=ADVANCED_FACE('',(#1333),#1308,.T.);
#1335=CARTESIAN_POINT('',(-2.060000000000002,-0.029831144465001,-0.307158997586883));
#1336=DIRECTION('',(-1.0,0.0,0.0));
#1337=DIRECTION('',(0.0,0.0,-1.0));
#1338=AXIS2_PLACEMENT_3D('',#1335,#1336,#1337);
#1339=PLANE('',#1338);
#1340=CARTESIAN_POINT('',(-2.060000000000002,-1.374812382739211,0.1));
#1341=VERTEX_POINT('',#1340);
#1342=CARTESIAN_POINT('',(-2.060000000000002,-1.374812382739211,0.0));
#1343=VERTEX_POINT('',#1342);
#1344=CARTESIAN_POINT('',(-2.060000000000002,-1.374812382739211,0.1));
#1345=DIRECTION('',(0.0,0.0,-1.0));
#1346=VECTOR('',#1345,0.1);
#1347=LINE('',#1344,#1346);
#1348=EDGE_CURVE('',#1341,#1343,#1347,.T.);
#1349=ORIENTED_EDGE('',*,*,#1348,.F.);
#1350=CARTESIAN_POINT('',(-2.060000000000002,1.374812382739211,0.1));
#1351=VERTEX_POINT('',#1350);
#1352=CARTESIAN_POINT('',(-2.060000000000002,-1.374812382739211,0.1));
#1353=DIRECTION('',(0.0,1.0,0.0));
#1354=VECTOR('',#1353,2.749624765478422);
#1355=LINE('',#1352,#1354);
#1356=EDGE_CURVE('',#1341,#1351,#1355,.T.);
#1357=ORIENTED_EDGE('',*,*,#1356,.T.);
#1358=CARTESIAN_POINT('',(-2.060000000000002,1.37481238273921,0.0));
#1359=VERTEX_POINT('',#1358);
#1360=CARTESIAN_POINT('',(-2.060000000000002,1.37481238273921,0.0));
#1361=DIRECTION('',(0.0,0.0,1.0));
#1362=VECTOR('',#1361,0.1);
#1363=LINE('',#1360,#1362);
#1364=EDGE_CURVE('',#1359,#1351,#1363,.T.);
#1365=ORIENTED_EDGE('',*,*,#1364,.F.);
#1366=CARTESIAN_POINT('',(-2.060000000000002,-1.374812382739211,0.0));
#1367=DIRECTION('',(0.0,1.0,0.0));
#1368=VECTOR('',#1367,2.749624765478422);
#1369=LINE('',#1366,#1368);
#1370=EDGE_CURVE('',#1343,#1359,#1369,.T.);
#1371=ORIENTED_EDGE('',*,*,#1370,.F.);
#1372=EDGE_LOOP('',(#1349,#1357,#1365,#1371));
#1373=FACE_OUTER_BOUND('',#1372,.T.);
#1374=ADVANCED_FACE('',(#1373),#1339,.T.);
#1375=CARTESIAN_POINT('',(-2.109999999999999,-0.173963823093225,0.1));
#1376=DIRECTION('',(0.0,0.0,-1.0));
#1377=DIRECTION('',(1.0,0.0,0.0));
#1378=AXIS2_PLACEMENT_3D('',#1375,#1376,#1377);
#1379=PLANE('',#1378);
#1380=CARTESIAN_POINT('',(-2.159999999999997,-1.315150093808633,0.1));
#1381=VERTEX_POINT('',#1380);
#1382=CARTESIAN_POINT('',(-2.159999999999997,-1.315150093808633,0.1));
#1383=DIRECTION('',(0.858769756708869,-0.512361693496098,0.0));
#1384=VECTOR('',#1383,0.116445647065207);
#1385=LINE('',#1382,#1384);
#1386=EDGE_CURVE('',#1381,#1341,#1385,.T.);
#1387=ORIENTED_EDGE('',*,*,#1386,.F.);
#1388=CARTESIAN_POINT('',(-2.159999999999997,1.315150093808632,0.1));
#1389=VERTEX_POINT('',#1388);
#1390=CARTESIAN_POINT('',(-2.159999999999997,1.315150093808632,0.1));
#1391=DIRECTION('',(0.0,-1.0,0.0));
#1392=VECTOR('',#1391,2.630300187617265);
#1393=LINE('',#1390,#1392);
#1394=EDGE_CURVE('',#1389,#1381,#1393,.T.);
#1395=ORIENTED_EDGE('',*,*,#1394,.F.);
#1396=CARTESIAN_POINT('',(-2.060000000000002,1.37481238273921,0.1));
#1397=DIRECTION('',(-0.858769756708869,-0.512361693496098,0.0));
#1398=VECTOR('',#1397,0.116445647065207);
#1399=LINE('',#1396,#1398);
#1400=EDGE_CURVE('',#1351,#1389,#1399,.T.);
#1401=ORIENTED_EDGE('',*,*,#1400,.F.);
#1402=ORIENTED_EDGE('',*,*,#1356,.F.);
#1403=EDGE_LOOP('',(#1387,#1395,#1401,#1402));
#1404=FACE_OUTER_BOUND('',#1403,.T.);
#1405=ADVANCED_FACE('',(#1404),#1379,.T.);
#1406=CARTESIAN_POINT('',(-2.159999999999997,-0.029831144465001,-0.307158997586883));
#1407=DIRECTION('',(1.0,0.0,0.0));
#1408=DIRECTION('',(0.0,0.0,1.0));
#1409=AXIS2_PLACEMENT_3D('',#1406,#1407,#1408);
#1410=PLANE('',#1409);
#1411=CARTESIAN_POINT('',(-2.159999999999997,-1.315150093808633,0.0));
#1412=VERTEX_POINT('',#1411);
#1413=CARTESIAN_POINT('',(-2.159999999999997,-1.315150093808633,0.0));
#1414=DIRECTION('',(0.0,0.0,1.0));
#1415=VECTOR('',#1414,0.1);
#1416=LINE('',#1413,#1415);
#1417=EDGE_CURVE('',#1412,#1381,#1416,.T.);
#1418=ORIENTED_EDGE('',*,*,#1417,.F.);
#1419=CARTESIAN_POINT('',(-2.159999999999997,1.315150093808632,0.0));
#1420=VERTEX_POINT('',#1419);
#1421=CARTESIAN_POINT('',(-2.159999999999997,1.315150093808632,0.0));
#1422=DIRECTION('',(0.0,-1.0,0.0));
#1423=VECTOR('',#1422,2.630300187617265);
#1424=LINE('',#1421,#1423);
#1425=EDGE_CURVE('',#1420,#1412,#1424,.T.);
#1426=ORIENTED_EDGE('',*,*,#1425,.F.);
#1427=CARTESIAN_POINT('',(-2.159999999999997,1.315150093808632,0.1));
#1428=DIRECTION('',(0.0,0.0,-1.0));
#1429=VECTOR('',#1428,0.1);
#1430=LINE('',#1427,#1429);
#1431=EDGE_CURVE('',#1389,#1420,#1430,.T.);
#1432=ORIENTED_EDGE('',*,*,#1431,.F.);
#1433=ORIENTED_EDGE('',*,*,#1394,.T.);
#1434=EDGE_LOOP('',(#1418,#1426,#1432,#1433));
#1435=FACE_OUTER_BOUND('',#1434,.T.);
#1436=ADVANCED_FACE('',(#1435),#1410,.T.);
#1437=CARTESIAN_POINT('',(0.635,-2.225000000000001,0.0));
#1438=DIRECTION('',(0.512361693496098,-0.858769756708869,0.0));
#1439=DIRECTION('',(0.858769756708869,0.512361693496098,0.0));
#1440=AXIS2_PLACEMENT_3D('',#1437,#1438,#1439);
#1441=PLANE('',#1440);
#1442=ORIENTED_EDGE('',*,*,#1315,.T.);
#1443=ORIENTED_EDGE('',*,*,#1284,.T.);
#1444=ORIENTED_EDGE('',*,*,#1246,.T.);
#1445=CARTESIAN_POINT('',(3.300000000000001,-0.635000000000001,0.0));
#1446=VERTEX_POINT('',#1445);
#1447=CARTESIAN_POINT('',(2.159999999999997,-1.315150093808633,0.0));
#1448=DIRECTION('',(0.858769756708869,0.512361693496098,0.0));
#1449=VECTOR('',#1448,1.327480376543435);
#1450=LINE('',#1447,#1449);
#1451=EDGE_CURVE('',#1241,#1446,#1450,.T.);
#1452=ORIENTED_EDGE('',*,*,#1451,.T.);
#1453=CARTESIAN_POINT('',(3.300000000000001,-0.635000000000001,0.5));
#1454=VERTEX_POINT('',#1453);
#1455=CARTESIAN_POINT('',(3.300000000000001,-0.635000000000001,0.0));
#1456=DIRECTION('',(0.0,0.0,1.0));
#1457=VECTOR('',#1456,0.5);
#1458=LINE('',#1455,#1457);
#1459=EDGE_CURVE('',#1446,#1454,#1458,.T.);
#1460=ORIENTED_EDGE('',*,*,#1459,.T.);
#1461=CARTESIAN_POINT('',(0.635,-2.225000000000001,0.5));
#1462=VERTEX_POINT('',#1461);
#1463=CARTESIAN_POINT('',(0.635,-2.225000000000001,0.5));
#1464=DIRECTION('',(0.858769756708869,0.512361693496098,0.0));
#1465=VECTOR('',#1464,3.103276494287933);
#1466=LINE('',#1463,#1465);
#1467=EDGE_CURVE('',#1462,#1454,#1466,.T.);
#1468=ORIENTED_EDGE('',*,*,#1467,.F.);
#1469=CARTESIAN_POINT('',(0.635,-2.225000000000001,0.0));
#1470=VERTEX_POINT('',#1469);
#1471=CARTESIAN_POINT('',(0.635,-2.225000000000001,0.0));
#1472=DIRECTION('',(0.0,0.0,1.0));
#1473=VECTOR('',#1472,0.5);
#1474=LINE('',#1471,#1473);
#1475=EDGE_CURVE('',#1470,#1462,#1474,.T.);
#1476=ORIENTED_EDGE('',*,*,#1475,.F.);
#1477=CARTESIAN_POINT('',(0.635,-2.225000000000001,0.0));
#1478=DIRECTION('',(0.858769756708869,0.512361693496098,0.0));
#1479=VECTOR('',#1478,1.659350470679291);
#1480=LINE('',#1477,#1479);
#1481=EDGE_CURVE('',#1470,#1310,#1480,.T.);
#1482=ORIENTED_EDGE('',*,*,#1481,.T.);
#1483=EDGE_LOOP('',(#1442,#1443,#1444,#1452,#1460,#1468,#1476,#1482));
#1484=FACE_OUTER_BOUND('',#1483,.T.);
#1485=ADVANCED_FACE('',(#1484),#1441,.T.);
#1486=CARTESIAN_POINT('',(-3.300000000000001,-0.635000000000001,0.0));
#1487=DIRECTION('',(-0.512361693496098,-0.858769756708869,0.0));
#1488=DIRECTION('',(0.858769756708869,-0.512361693496098,0.0));
#1489=AXIS2_PLACEMENT_3D('',#1486,#1487,#1488);
#1490=PLANE('',#1489);
#1491=ORIENTED_EDGE('',*,*,#1417,.T.);
#1492=ORIENTED_EDGE('',*,*,#1386,.T.);
#1493=ORIENTED_EDGE('',*,*,#1348,.T.);
#1494=CARTESIAN_POINT('',(-0.635,-2.225000000000001,0.0));
#1495=VERTEX_POINT('',#1494);
#1496=CARTESIAN_POINT('',(-2.060000000000002,-1.374812382739212,0.0));
#1497=DIRECTION('',(0.858769756708869,-0.512361693496098,0.0));
#1498=VECTOR('',#1497,1.659350470679291);
#1499=LINE('',#1496,#1498);
#1500=EDGE_CURVE('',#1343,#1495,#1499,.T.);
#1501=ORIENTED_EDGE('',*,*,#1500,.T.);
#1502=CARTESIAN_POINT('',(-0.635,-2.225000000000001,0.5));
#1503=VERTEX_POINT('',#1502);
#1504=CARTESIAN_POINT('',(-0.635,-2.225000000000001,0.0));
#1505=DIRECTION('',(0.0,0.0,1.0));
#1506=VECTOR('',#1505,0.5);
#1507=LINE('',#1504,#1506);
#1508=EDGE_CURVE('',#1495,#1503,#1507,.T.);
#1509=ORIENTED_EDGE('',*,*,#1508,.T.);
#1510=CARTESIAN_POINT('',(-3.300000000000001,-0.635000000000001,0.5));
#1511=VERTEX_POINT('',#1510);
#1512=CARTESIAN_POINT('',(-3.300000000000001,-0.635000000000001,0.5));
#1513=DIRECTION('',(0.858769756708869,-0.512361693496098,0.0));
#1514=VECTOR('',#1513,3.103276494287933);
#1515=LINE('',#1512,#1514);
#1516=EDGE_CURVE('',#1511,#1503,#1515,.T.);
#1517=ORIENTED_EDGE('',*,*,#1516,.F.);
#1518=CARTESIAN_POINT('',(-3.300000000000001,-0.635000000000001,0.0));
#1519=VERTEX_POINT('',#1518);
#1520=CARTESIAN_POINT('',(-3.300000000000001,-0.635000000000001,0.0));
#1521=DIRECTION('',(0.0,0.0,1.0));
#1522=VECTOR('',#1521,0.5);
#1523=LINE('',#1520,#1522);
#1524=EDGE_CURVE('',#1519,#1511,#1523,.T.);
#1525=ORIENTED_EDGE('',*,*,#1524,.F.);
#1526=CARTESIAN_POINT('',(-3.300000000000001,-0.635000000000001,0.0));
#1527=DIRECTION('',(0.858769756708869,-0.512361693496098,0.0));
#1528=VECTOR('',#1527,1.327480376543436);
#1529=LINE('',#1526,#1528);
#1530=EDGE_CURVE('',#1519,#1412,#1529,.T.);
#1531=ORIENTED_EDGE('',*,*,#1530,.T.);
#1532=EDGE_LOOP('',(#1491,#1492,#1493,#1501,#1509,#1517,#1525,#1531));
#1533=FACE_OUTER_BOUND('',#1532,.T.);
#1534=ADVANCED_FACE('',(#1533),#1490,.T.);
#1535=CARTESIAN_POINT('',(-1.776357E-015,-4.440892E-016,0.0));
#1536=DIRECTION('',(0.0,0.0,1.0));
#1537=DIRECTION('',(1.0,0.0,0.0));
#1538=AXIS2_PLACEMENT_3D('',#1535,#1536,#1537);
#1539=PLANE('',#1538);
#1540=ORIENTED_EDGE('',*,*,#1268,.T.);
#1541=CARTESIAN_POINT('',(3.300000000000001,0.635,0.0));
#1542=VERTEX_POINT('',#1541);
#1543=CARTESIAN_POINT('',(3.300000000000001,0.635,0.0));
#1544=DIRECTION('',(-0.858769756708869,0.512361693496098,0.0));
#1545=VECTOR('',#1544,1.327480376543436);
#1546=LINE('',#1543,#1545);
#1547=EDGE_CURVE('',#1542,#1257,#1546,.T.);
#1548=ORIENTED_EDGE('',*,*,#1547,.F.);
#1549=CARTESIAN_POINT('',(3.300000000000001,-0.635000000000001,0.0));
#1550=DIRECTION('',(0.0,1.0,0.0));
#1551=VECTOR('',#1550,1.27);
#1552=LINE('',#1549,#1551);
#1553=EDGE_CURVE('',#1446,#1542,#1552,.T.);
#1554=ORIENTED_EDGE('',*,*,#1553,.F.);
#1555=ORIENTED_EDGE('',*,*,#1451,.F.);
#1556=EDGE_LOOP('',(#1540,#1548,#1554,#1555));
#1557=FACE_OUTER_BOUND('',#1556,.T.);
#1558=ADVANCED_FACE('',(#1557),#1539,.F.);
#1559=CARTESIAN_POINT('',(-1.776357E-015,-4.440892E-016,0.0));
#1560=DIRECTION('',(0.0,0.0,1.0));
#1561=DIRECTION('',(1.0,0.0,0.0));
#1562=AXIS2_PLACEMENT_3D('',#1559,#1560,#1561);
#1563=PLANE('',#1562);
#1564=ORIENTED_EDGE('',*,*,#1425,.T.);
#1565=ORIENTED_EDGE('',*,*,#1530,.F.);
#1566=CARTESIAN_POINT('',(-3.300000000000001,0.635,0.0));
#1567=VERTEX_POINT('',#1566);
#1568=CARTESIAN_POINT('',(-3.300000000000001,0.635,0.0));
#1569=DIRECTION('',(0.0,-1.0,0.0));
#1570=VECTOR('',#1569,1.27);
#1571=LINE('',#1568,#1570);
#1572=EDGE_CURVE('',#1567,#1519,#1571,.T.);
#1573=ORIENTED_EDGE('',*,*,#1572,.F.);
#1574=CARTESIAN_POINT('',(-2.159999999999997,1.315150093808632,0.0));
#1575=DIRECTION('',(-0.858769756708869,-0.512361693496098,0.0));
#1576=VECTOR('',#1575,1.327480376543436);
#1577=LINE('',#1574,#1576);
#1578=EDGE_CURVE('',#1420,#1567,#1577,.T.);
#1579=ORIENTED_EDGE('',*,*,#1578,.F.);
#1580=EDGE_LOOP('',(#1564,#1565,#1573,#1579));
#1581=FACE_OUTER_BOUND('',#1580,.T.);
#1582=ADVANCED_FACE('',(#1581),#1563,.F.);
#1583=CARTESIAN_POINT('',(-0.635,-2.225000000000001,0.0));
#1584=DIRECTION('',(0.0,-1.0,0.0));
#1585=DIRECTION('',(1.0,0.0,0.0));
#1586=AXIS2_PLACEMENT_3D('',#1583,#1584,#1585);
#1587=PLANE('',#1586);
#1588=CARTESIAN_POINT('',(-0.635,-2.225000000000001,0.0));
#1589=DIRECTION('',(1.0,0.0,0.0));
#1590=VECTOR('',#1589,1.27);
#1591=LINE('',#1588,#1590);
#1592=EDGE_CURVE('',#1495,#1470,#1591,.T.);
#1593=ORIENTED_EDGE('',*,*,#1592,.T.);
#1594=ORIENTED_EDGE('',*,*,#1475,.T.);
#1595=CARTESIAN_POINT('',(-0.635,-2.225000000000001,0.5));
#1596=DIRECTION('',(1.0,0.0,0.0));
#1597=VECTOR('',#1596,1.27);
#1598=LINE('',#1595,#1597);
#1599=EDGE_CURVE('',#1503,#1462,#1598,.T.);
#1600=ORIENTED_EDGE('',*,*,#1599,.F.);
#1601=ORIENTED_EDGE('',*,*,#1508,.F.);
#1602=EDGE_LOOP('',(#1593,#1594,#1600,#1601));
#1603=FACE_OUTER_BOUND('',#1602,.T.);
#1604=ADVANCED_FACE('',(#1603),#1587,.T.);
#1605=CARTESIAN_POINT('',(-3.300000000000001,0.635,0.0));
#1606=DIRECTION('',(-1.0,0.0,0.0));
#1607=DIRECTION('',(0.0,-1.0,0.0));
#1608=AXIS2_PLACEMENT_3D('',#1605,#1606,#1607);
#1609=PLANE('',#1608);
#1610=ORIENTED_EDGE('',*,*,#1572,.T.);
#1611=ORIENTED_EDGE('',*,*,#1524,.T.);
#1612=CARTESIAN_POINT('',(-3.300000000000001,0.635,0.5));
#1613=VERTEX_POINT('',#1612);
#1614=CARTESIAN_POINT('',(-3.300000000000001,0.635,0.5));
#1615=DIRECTION('',(0.0,-1.0,0.0));
#1616=VECTOR('',#1615,1.27);
#1617=LINE('',#1614,#1616);
#1618=EDGE_CURVE('',#1613,#1511,#1617,.T.);
#1619=ORIENTED_EDGE('',*,*,#1618,.F.);
#1620=CARTESIAN_POINT('',(-3.300000000000001,0.635,0.0));
#1621=DIRECTION('',(0.0,0.0,1.0));
#1622=VECTOR('',#1621,0.5);
#1623=LINE('',#1620,#1622);
#1624=EDGE_CURVE('',#1567,#1613,#1623,.T.);
#1625=ORIENTED_EDGE('',*,*,#1624,.F.);
#1626=EDGE_LOOP('',(#1610,#1611,#1619,#1625));
#1627=FACE_OUTER_BOUND('',#1626,.T.);
#1628=ADVANCED_FACE('',(#1627),#1609,.T.);
#1629=CARTESIAN_POINT('',(-0.635,2.225,0.0));
#1630=DIRECTION('',(-0.512361693496098,0.858769756708869,0.0));
#1631=DIRECTION('',(-0.858769756708869,-0.512361693496098,0.0));
#1632=AXIS2_PLACEMENT_3D('',#1629,#1630,#1631);
#1633=PLANE('',#1632);
#1634=ORIENTED_EDGE('',*,*,#1431,.T.);
#1635=ORIENTED_EDGE('',*,*,#1578,.T.);
#1636=ORIENTED_EDGE('',*,*,#1624,.T.);
#1637=CARTESIAN_POINT('',(-0.635,2.225,0.5));
#1638=VERTEX_POINT('',#1637);
#1639=CARTESIAN_POINT('',(-0.635,2.225,0.5));
#1640=DIRECTION('',(-0.858769756708869,-0.512361693496098,0.0));
#1641=VECTOR('',#1640,3.103276494287933);
#1642=LINE('',#1639,#1641);
#1643=EDGE_CURVE('',#1638,#1613,#1642,.T.);
#1644=ORIENTED_EDGE('',*,*,#1643,.F.);
#1645=CARTESIAN_POINT('',(-0.635,2.225,0.0));
#1646=VERTEX_POINT('',#1645);
#1647=CARTESIAN_POINT('',(-0.635,2.225,0.0));
#1648=DIRECTION('',(0.0,0.0,1.0));
#1649=VECTOR('',#1648,0.5);
#1650=LINE('',#1647,#1649);
#1651=EDGE_CURVE('',#1646,#1638,#1650,.T.);
#1652=ORIENTED_EDGE('',*,*,#1651,.F.);
#1653=CARTESIAN_POINT('',(-0.635,2.225,0.0));
#1654=DIRECTION('',(-0.858769756708869,-0.512361693496098,0.0));
#1655=VECTOR('',#1654,1.659350470679291);
#1656=LINE('',#1653,#1655);
#1657=EDGE_CURVE('',#1646,#1359,#1656,.T.);
#1658=ORIENTED_EDGE('',*,*,#1657,.T.);
#1659=ORIENTED_EDGE('',*,*,#1364,.T.);
#1660=ORIENTED_EDGE('',*,*,#1400,.T.);
#1661=EDGE_LOOP('',(#1634,#1635,#1636,#1644,#1652,#1658,#1659,#1660));
#1662=FACE_OUTER_BOUND('',#1661,.T.);
#1663=ADVANCED_FACE('',(#1662),#1633,.T.);
#1664=CARTESIAN_POINT('',(0.635,2.225,0.0));
#1665=DIRECTION('',(0.0,1.0,0.0));
#1666=DIRECTION('',(-1.0,0.0,0.0));
#1667=AXIS2_PLACEMENT_3D('',#1664,#1665,#1666);
#1668=PLANE('',#1667);
#1669=CARTESIAN_POINT('',(0.635,2.225,0.0));
#1670=VERTEX_POINT('',#1669);
#1671=CARTESIAN_POINT('',(0.635,2.225,0.0));
#1672=DIRECTION('',(-1.0,0.0,0.0));
#1673=VECTOR('',#1672,1.27);
#1674=LINE('',#1671,#1673);
#1675=EDGE_CURVE('',#1670,#1646,#1674,.T.);
#1676=ORIENTED_EDGE('',*,*,#1675,.T.);
#1677=ORIENTED_EDGE('',*,*,#1651,.T.);
#1678=CARTESIAN_POINT('',(0.635,2.225,0.5));
#1679=VERTEX_POINT('',#1678);
#1680=CARTESIAN_POINT('',(0.635,2.225,0.5));
#1681=DIRECTION('',(-1.0,0.0,0.0));
#1682=VECTOR('',#1681,1.27);
#1683=LINE('',#1680,#1682);
#1684=EDGE_CURVE('',#1679,#1638,#1683,.T.);
#1685=ORIENTED_EDGE('',*,*,#1684,.F.);
#1686=CARTESIAN_POINT('',(0.635,2.225,0.0));
#1687=DIRECTION('',(0.0,0.0,1.0));
#1688=VECTOR('',#1687,0.5);
#1689=LINE('',#1686,#1688);
#1690=EDGE_CURVE('',#1670,#1679,#1689,.T.);
#1691=ORIENTED_EDGE('',*,*,#1690,.F.);
#1692=EDGE_LOOP('',(#1676,#1677,#1685,#1691));
#1693=FACE_OUTER_BOUND('',#1692,.T.);
#1694=ADVANCED_FACE('',(#1693),#1668,.T.);
#1695=CARTESIAN_POINT('',(3.300000000000001,0.635,0.0));
#1696=DIRECTION('',(0.512361693496098,0.858769756708869,0.0));
#1697=DIRECTION('',(-0.858769756708869,0.512361693496098,0.0));
#1698=AXIS2_PLACEMENT_3D('',#1695,#1696,#1697);
#1699=PLANE('',#1698);
#1700=ORIENTED_EDGE('',*,*,#1329,.T.);
#1701=CARTESIAN_POINT('',(2.060000000000002,1.374812382739211,0.0));
#1702=DIRECTION('',(-0.858769756708869,0.512361693496098,0.0));
#1703=VECTOR('',#1702,1.659350470679291);
#1704=LINE('',#1701,#1703);
#1705=EDGE_CURVE('',#1318,#1670,#1704,.T.);
#1706=ORIENTED_EDGE('',*,*,#1705,.T.);
#1707=ORIENTED_EDGE('',*,*,#1690,.T.);
#1708=CARTESIAN_POINT('',(3.300000000000001,0.635,0.5));
#1709=VERTEX_POINT('',#1708);
#1710=CARTESIAN_POINT('',(3.300000000000001,0.635,0.5));
#1711=DIRECTION('',(-0.858769756708869,0.512361693496098,0.0));
#1712=VECTOR('',#1711,3.103276494287933);
#1713=LINE('',#1710,#1712);
#1714=EDGE_CURVE('',#1709,#1679,#1713,.T.);
#1715=ORIENTED_EDGE('',*,*,#1714,.F.);
#1716=CARTESIAN_POINT('',(3.300000000000001,0.635,0.0));
#1717=DIRECTION('',(0.0,0.0,1.0));
#1718=VECTOR('',#1717,0.5);
#1719=LINE('',#1716,#1718);
#1720=EDGE_CURVE('',#1542,#1709,#1719,.T.);
#1721=ORIENTED_EDGE('',*,*,#1720,.F.);
#1722=ORIENTED_EDGE('',*,*,#1547,.T.);
#1723=ORIENTED_EDGE('',*,*,#1262,.T.);
#1724=ORIENTED_EDGE('',*,*,#1298,.T.);
#1725=EDGE_LOOP('',(#1700,#1706,#1707,#1715,#1721,#1722,#1723,#1724));
#1726=FACE_OUTER_BOUND('',#1725,.T.);
#1727=ADVANCED_FACE('',(#1726),#1699,.T.);
#1728=CARTESIAN_POINT('',(3.300000000000001,-0.635000000000001,0.0));
#1729=DIRECTION('',(1.0,0.0,0.0));
#1730=DIRECTION('',(0.0,1.0,0.0));
#1731=AXIS2_PLACEMENT_3D('',#1728,#1729,#1730);
#1732=PLANE('',#1731);
#1733=ORIENTED_EDGE('',*,*,#1553,.T.);
#1734=ORIENTED_EDGE('',*,*,#1720,.T.);
#1735=CARTESIAN_POINT('',(3.300000000000001,-0.635000000000001,0.5));
#1736=DIRECTION('',(0.0,1.0,0.0));
#1737=VECTOR('',#1736,1.27);
#1738=LINE('',#1735,#1737);
#1739=EDGE_CURVE('',#1454,#1709,#1738,.T.);
#1740=ORIENTED_EDGE('',*,*,#1739,.F.);
#1741=ORIENTED_EDGE('',*,*,#1459,.F.);
#1742=EDGE_LOOP('',(#1733,#1734,#1740,#1741));
#1743=FACE_OUTER_BOUND('',#1742,.T.);
#1744=ADVANCED_FACE('',(#1743),#1732,.T.);
#1745=CARTESIAN_POINT('',(-1.776357E-015,-4.440892E-016,0.5));
#1746=DIRECTION('',(0.0,0.0,1.0));
#1747=DIRECTION('',(1.0,0.0,0.0));
#1748=AXIS2_PLACEMENT_3D('',#1745,#1746,#1747);
#1749=PLANE('',#1748);
#1750=ORIENTED_EDGE('',*,*,#1739,.T.);
#1751=ORIENTED_EDGE('',*,*,#1714,.T.);
#1752=ORIENTED_EDGE('',*,*,#1684,.T.);
#1753=ORIENTED_EDGE('',*,*,#1643,.T.);
#1754=ORIENTED_EDGE('',*,*,#1618,.T.);
#1755=ORIENTED_EDGE('',*,*,#1516,.T.);
#1756=ORIENTED_EDGE('',*,*,#1599,.T.);
#1757=ORIENTED_EDGE('',*,*,#1467,.T.);
#1758=EDGE_LOOP('',(#1750,#1751,#1752,#1753,#1754,#1755,#1756,#1757));
#1759=FACE_OUTER_BOUND('',#1758,.T.);
#1760=ADVANCED_FACE('',(#1759),#1749,.T.);
#1761=CARTESIAN_POINT('',(-1.776357E-015,-4.440892E-016,0.0));
#1762=DIRECTION('',(0.0,0.0,1.0));
#1763=DIRECTION('',(1.0,0.0,0.0));
#1764=AXIS2_PLACEMENT_3D('',#1761,#1762,#1763);
#1765=PLANE('',#1764);
#1766=ORIENTED_EDGE('',*,*,#1323,.T.);
#1767=ORIENTED_EDGE('',*,*,#1481,.F.);
#1768=ORIENTED_EDGE('',*,*,#1592,.F.);
#1769=ORIENTED_EDGE('',*,*,#1500,.F.);
#1770=ORIENTED_EDGE('',*,*,#1370,.T.);
#1771=ORIENTED_EDGE('',*,*,#1657,.F.);
#1772=ORIENTED_EDGE('',*,*,#1675,.F.);
#1773=ORIENTED_EDGE('',*,*,#1705,.F.);
#1774=EDGE_LOOP('',(#1766,#1767,#1768,#1769,#1770,#1771,#1772,#1773));
#1775=FACE_OUTER_BOUND('',#1774,.T.);
#1776=ADVANCED_FACE('',(#1775),#1765,.F.);
#1777=CLOSED_SHELL('',(#1272,#1303,#1334,#1374,#1405,#1436,#1485,#1534,#1558,#1582,#1604,#1628,#1663,#1694,#1727,#1744,#1760,#1776));
#1778=MANIFOLD_SOLID_BREP('A20',#1777);
#1779=STYLED_ITEM('NONE',(#1090),#1778);
#1780=ADVANCED_BREP_SHAPE_REPRESENTATION('ABSR1',(#170,#286,#393,#500,#607,#714,#821,#928,#1083,#1231,#1778),#28);
#1781=SHAPE_REPRESENTATION_RELATIONSHIP('SRRPL1','',#1780,#62);
ENDSEC;
END-ISO-10303-21;
