ISO-10303-21;
HEADER;
/* Generated by software containing ST-Developer
 * from STEP Tools, Inc. (www.steptools.com) 
 */

FILE_DESCRIPTION(
/* description */ (''),
/* implementation_level */ '2;1');

FILE_NAME(
/* name */ 
'\\\\cern.ch\\dfs\\Applications\\Altium\\CernLib\\StepLib\\IND_TOKO_DG
6045C.stp',
/* time_stamp */ '2016-09-12T14:43:04+02:00',
/* author */ ('jchouvet'),
/* organization */ (''),
/* preprocessor_version */ 'ST-DEVELOPER v16.1',
/* originating_system */ 'AutoCAD Mechanical',
/* authorisation */ '');

FILE_SCHEMA (('AUTOMOTIVE_DESIGN { 1 0 10303 214 3 1 1 }'));
ENDSEC;

DATA;
#10=MECHANICAL_DESIGN_GEOMETRIC_PRESENTATION_REPRESENTATION('',(#57,#58,
#59,#60,#61,#63,#62),#1971);
#11=DIMENSIONAL_EXPONENTS(0.,0.,0.,0.,0.,0.,0.);
#12=(
CONVERSION_BASED_UNIT('degree',#13)
NAMED_UNIT(#11)
PLANE_ANGLE_UNIT()
);
#13=PLANE_ANGLE_MEASURE_WITH_UNIT(PLANE_ANGLE_MEASURE(0.01745329252),#1974);
#14=PRESENTATION_LAYER_ASSIGNMENT('1','3D',(#64,#65,#66,#67,#68,#69,#70));
#15=CYLINDRICAL_SURFACE('',#1241,2.85);
#16=CYLINDRICAL_SURFACE('',#1246,2.8080946181775);
#17=CYLINDRICAL_SURFACE('',#1250,2.8080946181775);
#18=CYLINDRICAL_SURFACE('',#1254,2.8080946181775);
#19=CYLINDRICAL_SURFACE('',#1258,2.8080946181775);
#20=CYLINDRICAL_SURFACE('',#1264,2.8080946181775);
#21=CYLINDRICAL_SURFACE('',#1268,2.8080946181775);
#22=CYLINDRICAL_SURFACE('',#1272,2.8080946181775);
#23=CYLINDRICAL_SURFACE('',#1276,2.8080946181775);
#24=FACE_BOUND('',#185,.T.);
#25=FACE_BOUND('',#187,.T.);
#26=FACE_BOUND('',#189,.T.);
#27=TOROIDAL_SURFACE('',#1239,3.15,0.3);
#28=TOROIDAL_SURFACE('',#1243,3.15,0.3);
#29=B_SPLINE_CURVE_WITH_KNOTS('',3,(#1818,#1819,#1820,#1821,#1822,#1823,
#1824,#1825,#1826,#1827),.UNSPECIFIED.,.F.,.F.,(4,2,2,2,4),(2.51563499244212,
2.73785178519393,3.25408378674423,3.77031578829453,3.99253258104634),
 .UNSPECIFIED.);
#30=B_SPLINE_CURVE_WITH_KNOTS('',3,(#1829,#1830,#1831,#1832,#1833,#1834,
#1835,#1836,#1837,#1838),.UNSPECIFIED.,.F.,.F.,(4,2,2,2,4),(2.51563499244212,
2.73785178519393,3.25408378674423,3.77031578829453,3.99253258104634),
 .UNSPECIFIED.);
#31=B_SPLINE_CURVE_WITH_KNOTS('',3,(#1842,#1843,#1844,#1845,#1846,#1847,
#1848,#1849,#1850,#1851),.UNSPECIFIED.,.F.,.F.,(4,2,2,2,4),(2.51563499244212,
2.73785178519393,3.25408378674423,3.77031578829453,3.99253258104634),
 .UNSPECIFIED.);
#32=B_SPLINE_CURVE_WITH_KNOTS('',3,(#1856,#1857,#1858,#1859,#1860,#1861,
#1862,#1863,#1864,#1865),.UNSPECIFIED.,.F.,.F.,(4,2,2,2,4),(2.51563499244212,
2.73785178519393,3.25408378674423,3.77031578829453,3.99253258104634),
 .UNSPECIFIED.);
#33=CIRCLE('',#1232,3.15);
#34=CIRCLE('',#1233,3.15);
#35=CIRCLE('',#1235,3.15);
#36=CIRCLE('',#1236,3.15);
#37=CIRCLE('',#1240,2.85);
#38=CIRCLE('',#1242,2.85);
#39=CIRCLE('',#1247,2.8080946181775);
#40=CIRCLE('',#1248,2.8080946181775);
#41=CIRCLE('',#1251,2.8080946181775);
#42=CIRCLE('',#1252,2.8080946181775);
#43=CIRCLE('',#1255,2.8080946181775);
#44=CIRCLE('',#1256,2.8080946181775);
#45=CIRCLE('',#1259,2.8080946181775);
#46=CIRCLE('',#1260,2.8080946181775);
#47=CIRCLE('',#1265,2.8080946181775);
#48=CIRCLE('',#1266,2.8080946181775);
#49=CIRCLE('',#1269,2.8080946181775);
#50=CIRCLE('',#1270,2.8080946181775);
#51=CIRCLE('',#1273,2.8080946181775);
#52=CIRCLE('',#1274,2.8080946181775);
#53=CIRCLE('',#1277,2.8080946181775);
#54=CIRCLE('',#1278,2.8080946181775);
#55=SHAPE_REPRESENTATION_RELATIONSHIP('SRR','None',#1977,#56);
#56=ADVANCED_BREP_SHAPE_REPRESENTATION('',(#64,#65,#66,#67,#68,#69,#70),
#1970);
#57=STYLED_ITEM('',(#1987),#64);
#58=STYLED_ITEM('',(#1987),#65);
#59=STYLED_ITEM('',(#1987),#66);
#60=STYLED_ITEM('',(#1987),#67);
#61=STYLED_ITEM('',(#1988),#68);
#62=STYLED_ITEM('',(#1989),#69);
#63=STYLED_ITEM('',(#1989),#70);
#64=MANIFOLD_SOLID_BREP('2E10',#1183);
#65=MANIFOLD_SOLID_BREP('2E14',#1184);
#66=MANIFOLD_SOLID_BREP('2E18',#1185);
#67=MANIFOLD_SOLID_BREP('2E1C',#1186);
#68=MANIFOLD_SOLID_BREP('2E35',#1187);
#69=MANIFOLD_SOLID_BREP('2E39',#1188);
#70=MANIFOLD_SOLID_BREP('2E3D',#1189);
#71=FACE_OUTER_BOUND('',#140,.T.);
#72=FACE_OUTER_BOUND('',#141,.T.);
#73=FACE_OUTER_BOUND('',#142,.T.);
#74=FACE_OUTER_BOUND('',#143,.T.);
#75=FACE_OUTER_BOUND('',#144,.T.);
#76=FACE_OUTER_BOUND('',#145,.T.);
#77=FACE_OUTER_BOUND('',#146,.T.);
#78=FACE_OUTER_BOUND('',#147,.T.);
#79=FACE_OUTER_BOUND('',#148,.T.);
#80=FACE_OUTER_BOUND('',#149,.T.);
#81=FACE_OUTER_BOUND('',#150,.T.);
#82=FACE_OUTER_BOUND('',#151,.T.);
#83=FACE_OUTER_BOUND('',#152,.T.);
#84=FACE_OUTER_BOUND('',#153,.T.);
#85=FACE_OUTER_BOUND('',#154,.T.);
#86=FACE_OUTER_BOUND('',#155,.T.);
#87=FACE_OUTER_BOUND('',#156,.T.);
#88=FACE_OUTER_BOUND('',#157,.T.);
#89=FACE_OUTER_BOUND('',#158,.T.);
#90=FACE_OUTER_BOUND('',#159,.T.);
#91=FACE_OUTER_BOUND('',#160,.T.);
#92=FACE_OUTER_BOUND('',#161,.T.);
#93=FACE_OUTER_BOUND('',#162,.T.);
#94=FACE_OUTER_BOUND('',#163,.T.);
#95=FACE_OUTER_BOUND('',#164,.T.);
#96=FACE_OUTER_BOUND('',#165,.T.);
#97=FACE_OUTER_BOUND('',#166,.T.);
#98=FACE_OUTER_BOUND('',#167,.T.);
#99=FACE_OUTER_BOUND('',#168,.T.);
#100=FACE_OUTER_BOUND('',#169,.T.);
#101=FACE_OUTER_BOUND('',#170,.T.);
#102=FACE_OUTER_BOUND('',#171,.T.);
#103=FACE_OUTER_BOUND('',#172,.T.);
#104=FACE_OUTER_BOUND('',#173,.T.);
#105=FACE_OUTER_BOUND('',#174,.T.);
#106=FACE_OUTER_BOUND('',#175,.T.);
#107=FACE_OUTER_BOUND('',#176,.T.);
#108=FACE_OUTER_BOUND('',#177,.T.);
#109=FACE_OUTER_BOUND('',#178,.T.);
#110=FACE_OUTER_BOUND('',#179,.T.);
#111=FACE_OUTER_BOUND('',#180,.T.);
#112=FACE_OUTER_BOUND('',#181,.T.);
#113=FACE_OUTER_BOUND('',#182,.T.);
#114=FACE_OUTER_BOUND('',#183,.T.);
#115=FACE_OUTER_BOUND('',#184,.T.);
#116=FACE_OUTER_BOUND('',#186,.T.);
#117=FACE_OUTER_BOUND('',#188,.T.);
#118=FACE_OUTER_BOUND('',#190,.T.);
#119=FACE_OUTER_BOUND('',#191,.T.);
#120=FACE_OUTER_BOUND('',#192,.T.);
#121=FACE_OUTER_BOUND('',#193,.T.);
#122=FACE_OUTER_BOUND('',#194,.T.);
#123=FACE_OUTER_BOUND('',#195,.T.);
#124=FACE_OUTER_BOUND('',#196,.T.);
#125=FACE_OUTER_BOUND('',#197,.T.);
#126=FACE_OUTER_BOUND('',#198,.T.);
#127=FACE_OUTER_BOUND('',#199,.T.);
#128=FACE_OUTER_BOUND('',#200,.T.);
#129=FACE_OUTER_BOUND('',#201,.T.);
#130=FACE_OUTER_BOUND('',#202,.T.);
#131=FACE_OUTER_BOUND('',#203,.T.);
#132=FACE_OUTER_BOUND('',#204,.T.);
#133=FACE_OUTER_BOUND('',#205,.T.);
#134=FACE_OUTER_BOUND('',#206,.T.);
#135=FACE_OUTER_BOUND('',#207,.T.);
#136=FACE_OUTER_BOUND('',#208,.T.);
#137=FACE_OUTER_BOUND('',#209,.T.);
#138=FACE_OUTER_BOUND('',#210,.T.);
#139=FACE_OUTER_BOUND('',#211,.T.);
#140=EDGE_LOOP('',(#740,#741,#742,#743));
#141=EDGE_LOOP('',(#744,#745,#746,#747));
#142=EDGE_LOOP('',(#748,#749,#750,#751));
#143=EDGE_LOOP('',(#752,#753,#754,#755));
#144=EDGE_LOOP('',(#756,#757,#758,#759));
#145=EDGE_LOOP('',(#760,#761,#762,#763));
#146=EDGE_LOOP('',(#764,#765,#766,#767));
#147=EDGE_LOOP('',(#768,#769,#770,#771));
#148=EDGE_LOOP('',(#772,#773,#774,#775));
#149=EDGE_LOOP('',(#776,#777,#778,#779));
#150=EDGE_LOOP('',(#780,#781,#782,#783));
#151=EDGE_LOOP('',(#784,#785,#786,#787));
#152=EDGE_LOOP('',(#788,#789,#790,#791,#792,#793,#794,#795,#796,#797,#798,
#799));
#153=EDGE_LOOP('',(#800,#801,#802,#803,#804,#805,#806,#807,#808,#809,#810,
#811));
#154=EDGE_LOOP('',(#812,#813,#814,#815));
#155=EDGE_LOOP('',(#816,#817,#818,#819));
#156=EDGE_LOOP('',(#820,#821,#822,#823));
#157=EDGE_LOOP('',(#824,#825,#826,#827));
#158=EDGE_LOOP('',(#828,#829,#830,#831));
#159=EDGE_LOOP('',(#832,#833,#834,#835));
#160=EDGE_LOOP('',(#836,#837,#838,#839));
#161=EDGE_LOOP('',(#840,#841,#842,#843));
#162=EDGE_LOOP('',(#844,#845,#846,#847));
#163=EDGE_LOOP('',(#848,#849,#850,#851));
#164=EDGE_LOOP('',(#852,#853,#854,#855));
#165=EDGE_LOOP('',(#856,#857,#858,#859));
#166=EDGE_LOOP('',(#860,#861,#862,#863,#864,#865,#866,#867,#868,#869,#870,
#871));
#167=EDGE_LOOP('',(#872,#873,#874,#875,#876,#877,#878,#879,#880,#881,#882,
#883));
#168=EDGE_LOOP('',(#884,#885,#886,#887));
#169=EDGE_LOOP('',(#888,#889,#890,#891));
#170=EDGE_LOOP('',(#892,#893,#894,#895));
#171=EDGE_LOOP('',(#896,#897,#898,#899));
#172=EDGE_LOOP('',(#900,#901,#902,#903));
#173=EDGE_LOOP('',(#904,#905,#906,#907));
#174=EDGE_LOOP('',(#908,#909,#910,#911));
#175=EDGE_LOOP('',(#912,#913,#914,#915));
#176=EDGE_LOOP('',(#916,#917,#918,#919));
#177=EDGE_LOOP('',(#920,#921,#922,#923));
#178=EDGE_LOOP('',(#924,#925,#926,#927));
#179=EDGE_LOOP('',(#928,#929,#930,#931));
#180=EDGE_LOOP('',(#932,#933,#934,#935));
#181=EDGE_LOOP('',(#936,#937,#938,#939));
#182=EDGE_LOOP('',(#940,#941));
#183=EDGE_LOOP('',(#942,#943));
#184=EDGE_LOOP('',(#944));
#185=EDGE_LOOP('',(#945,#946,#947,#948));
#186=EDGE_LOOP('',(#949));
#187=EDGE_LOOP('',(#950));
#188=EDGE_LOOP('',(#951));
#189=EDGE_LOOP('',(#952,#953,#954,#955));
#190=EDGE_LOOP('',(#956,#957));
#191=EDGE_LOOP('',(#958,#959));
#192=EDGE_LOOP('',(#960,#961,#962,#963));
#193=EDGE_LOOP('',(#964,#965,#966,#967));
#194=EDGE_LOOP('',(#968,#969,#970,#971));
#195=EDGE_LOOP('',(#972,#973,#974,#975));
#196=EDGE_LOOP('',(#976,#977,#978,#979));
#197=EDGE_LOOP('',(#980,#981,#982,#983));
#198=EDGE_LOOP('',(#984,#985,#986,#987));
#199=EDGE_LOOP('',(#988,#989,#990,#991));
#200=EDGE_LOOP('',(#992,#993,#994,#995,#996,#997,#998,#999));
#201=EDGE_LOOP('',(#1000,#1001,#1002,#1003,#1004,#1005,#1006,#1007));
#202=EDGE_LOOP('',(#1008,#1009,#1010,#1011));
#203=EDGE_LOOP('',(#1012,#1013,#1014,#1015));
#204=EDGE_LOOP('',(#1016,#1017,#1018,#1019));
#205=EDGE_LOOP('',(#1020,#1021,#1022,#1023));
#206=EDGE_LOOP('',(#1024,#1025,#1026,#1027));
#207=EDGE_LOOP('',(#1028,#1029,#1030,#1031));
#208=EDGE_LOOP('',(#1032,#1033,#1034,#1035));
#209=EDGE_LOOP('',(#1036,#1037,#1038,#1039));
#210=EDGE_LOOP('',(#1040,#1041,#1042,#1043,#1044,#1045,#1046,#1047));
#211=EDGE_LOOP('',(#1048,#1049,#1050,#1051,#1052,#1053,#1054,#1055));
#212=LINE('',#1602,#344);
#213=LINE('',#1604,#345);
#214=LINE('',#1606,#346);
#215=LINE('',#1607,#347);
#216=LINE('',#1610,#348);
#217=LINE('',#1612,#349);
#218=LINE('',#1613,#350);
#219=LINE('',#1616,#351);
#220=LINE('',#1618,#352);
#221=LINE('',#1619,#353);
#222=LINE('',#1622,#354);
#223=LINE('',#1624,#355);
#224=LINE('',#1625,#356);
#225=LINE('',#1628,#357);
#226=LINE('',#1630,#358);
#227=LINE('',#1631,#359);
#228=LINE('',#1634,#360);
#229=LINE('',#1636,#361);
#230=LINE('',#1637,#362);
#231=LINE('',#1640,#363);
#232=LINE('',#1642,#364);
#233=LINE('',#1643,#365);
#234=LINE('',#1646,#366);
#235=LINE('',#1648,#367);
#236=LINE('',#1649,#368);
#237=LINE('',#1652,#369);
#238=LINE('',#1654,#370);
#239=LINE('',#1655,#371);
#240=LINE('',#1658,#372);
#241=LINE('',#1660,#373);
#242=LINE('',#1661,#374);
#243=LINE('',#1664,#375);
#244=LINE('',#1666,#376);
#245=LINE('',#1667,#377);
#246=LINE('',#1669,#378);
#247=LINE('',#1670,#379);
#248=LINE('',#1676,#380);
#249=LINE('',#1678,#381);
#250=LINE('',#1680,#382);
#251=LINE('',#1681,#383);
#252=LINE('',#1684,#384);
#253=LINE('',#1686,#385);
#254=LINE('',#1687,#386);
#255=LINE('',#1690,#387);
#256=LINE('',#1692,#388);
#257=LINE('',#1693,#389);
#258=LINE('',#1696,#390);
#259=LINE('',#1698,#391);
#260=LINE('',#1699,#392);
#261=LINE('',#1702,#393);
#262=LINE('',#1704,#394);
#263=LINE('',#1705,#395);
#264=LINE('',#1708,#396);
#265=LINE('',#1710,#397);
#266=LINE('',#1711,#398);
#267=LINE('',#1714,#399);
#268=LINE('',#1716,#400);
#269=LINE('',#1717,#401);
#270=LINE('',#1720,#402);
#271=LINE('',#1722,#403);
#272=LINE('',#1723,#404);
#273=LINE('',#1726,#405);
#274=LINE('',#1728,#406);
#275=LINE('',#1729,#407);
#276=LINE('',#1732,#408);
#277=LINE('',#1734,#409);
#278=LINE('',#1735,#410);
#279=LINE('',#1738,#411);
#280=LINE('',#1740,#412);
#281=LINE('',#1741,#413);
#282=LINE('',#1743,#414);
#283=LINE('',#1744,#415);
#284=LINE('',#1750,#416);
#285=LINE('',#1752,#417);
#286=LINE('',#1754,#418);
#287=LINE('',#1755,#419);
#288=LINE('',#1758,#420);
#289=LINE('',#1760,#421);
#290=LINE('',#1761,#422);
#291=LINE('',#1764,#423);
#292=LINE('',#1766,#424);
#293=LINE('',#1767,#425);
#294=LINE('',#1769,#426);
#295=LINE('',#1770,#427);
#296=LINE('',#1776,#428);
#297=LINE('',#1778,#429);
#298=LINE('',#1780,#430);
#299=LINE('',#1781,#431);
#300=LINE('',#1784,#432);
#301=LINE('',#1786,#433);
#302=LINE('',#1787,#434);
#303=LINE('',#1790,#435);
#304=LINE('',#1792,#436);
#305=LINE('',#1793,#437);
#306=LINE('',#1795,#438);
#307=LINE('',#1796,#439);
#308=LINE('',#1804,#440);
#309=LINE('',#1807,#441);
#310=LINE('',#1813,#442);
#311=LINE('',#1816,#443);
#312=LINE('',#1873,#444);
#313=LINE('',#1876,#445);
#314=LINE('',#1879,#446);
#315=LINE('',#1881,#447);
#316=LINE('',#1882,#448);
#317=LINE('',#1888,#449);
#318=LINE('',#1891,#450);
#319=LINE('',#1893,#451);
#320=LINE('',#1894,#452);
#321=LINE('',#1900,#453);
#322=LINE('',#1903,#454);
#323=LINE('',#1905,#455);
#324=LINE('',#1906,#456);
#325=LINE('',#1912,#457);
#326=LINE('',#1914,#458);
#327=LINE('',#1915,#459);
#328=LINE('',#1923,#460);
#329=LINE('',#1926,#461);
#330=LINE('',#1929,#462);
#331=LINE('',#1931,#463);
#332=LINE('',#1932,#464);
#333=LINE('',#1938,#465);
#334=LINE('',#1941,#466);
#335=LINE('',#1943,#467);
#336=LINE('',#1944,#468);
#337=LINE('',#1950,#469);
#338=LINE('',#1953,#470);
#339=LINE('',#1955,#471);
#340=LINE('',#1956,#472);
#341=LINE('',#1962,#473);
#342=LINE('',#1964,#474);
#343=LINE('',#1965,#475);
#344=VECTOR('',#1286,5.3);
#345=VECTOR('',#1287,0.1);
#346=VECTOR('',#1288,5.3);
#347=VECTOR('',#1289,0.1);
#348=VECTOR('',#1292,0.4);
#349=VECTOR('',#1293,0.4);
#350=VECTOR('',#1294,0.1);
#351=VECTOR('',#1297,0.484936490538904);
#352=VECTOR('',#1298,0.484936490538904);
#353=VECTOR('',#1299,0.1);
#354=VECTOR('',#1302,1.22438536976076);
#355=VECTOR('',#1303,1.22438536976076);
#356=VECTOR('',#1304,0.1);
#357=VECTOR('',#1307,0.484936490538904);
#358=VECTOR('',#1308,0.484936490538904);
#359=VECTOR('',#1309,0.1);
#360=VECTOR('',#1312,0.925614630239237);
#361=VECTOR('',#1313,0.925614630239237);
#362=VECTOR('',#1314,0.1);
#363=VECTOR('',#1317,5.3);
#364=VECTOR('',#1318,5.3);
#365=VECTOR('',#1319,0.1);
#366=VECTOR('',#1322,0.925614630239235);
#367=VECTOR('',#1323,0.925614630239235);
#368=VECTOR('',#1324,0.1);
#369=VECTOR('',#1327,0.484936490538903);
#370=VECTOR('',#1328,0.484936490538903);
#371=VECTOR('',#1329,0.1);
#372=VECTOR('',#1332,1.22438536976077);
#373=VECTOR('',#1333,1.22438536976077);
#374=VECTOR('',#1334,0.1);
#375=VECTOR('',#1337,0.484936490538903);
#376=VECTOR('',#1338,0.484936490538903);
#377=VECTOR('',#1339,0.1);
#378=VECTOR('',#1342,0.4);
#379=VECTOR('',#1343,0.4);
#380=VECTOR('',#1350,5.3);
#381=VECTOR('',#1351,0.1);
#382=VECTOR('',#1352,5.3);
#383=VECTOR('',#1353,0.1);
#384=VECTOR('',#1356,0.4);
#385=VECTOR('',#1357,0.4);
#386=VECTOR('',#1358,0.1);
#387=VECTOR('',#1361,0.484936490538903);
#388=VECTOR('',#1362,0.484936490538903);
#389=VECTOR('',#1363,0.1);
#390=VECTOR('',#1366,1.22438536976076);
#391=VECTOR('',#1367,1.22438536976076);
#392=VECTOR('',#1368,0.1);
#393=VECTOR('',#1371,0.484936490538904);
#394=VECTOR('',#1372,0.484936490538904);
#395=VECTOR('',#1373,0.1);
#396=VECTOR('',#1376,0.925614630239236);
#397=VECTOR('',#1377,0.925614630239236);
#398=VECTOR('',#1378,0.1);
#399=VECTOR('',#1381,5.3);
#400=VECTOR('',#1382,5.3);
#401=VECTOR('',#1383,0.1);
#402=VECTOR('',#1386,0.925614630239235);
#403=VECTOR('',#1387,0.925614630239235);
#404=VECTOR('',#1388,0.1);
#405=VECTOR('',#1391,0.484936490538903);
#406=VECTOR('',#1392,0.484936490538903);
#407=VECTOR('',#1393,0.1);
#408=VECTOR('',#1396,1.22438536976077);
#409=VECTOR('',#1397,1.22438536976077);
#410=VECTOR('',#1398,0.1);
#411=VECTOR('',#1401,0.484936490538903);
#412=VECTOR('',#1402,0.484936490538903);
#413=VECTOR('',#1403,0.1);
#414=VECTOR('',#1406,0.4);
#415=VECTOR('',#1407,0.4);
#416=VECTOR('',#1414,5.3);
#417=VECTOR('',#1415,0.5);
#418=VECTOR('',#1416,5.3);
#419=VECTOR('',#1417,0.5);
#420=VECTOR('',#1420,0.100000000000001);
#421=VECTOR('',#1421,0.100000000000001);
#422=VECTOR('',#1422,0.5);
#423=VECTOR('',#1425,5.3);
#424=VECTOR('',#1426,5.3);
#425=VECTOR('',#1427,0.5);
#426=VECTOR('',#1430,0.1);
#427=VECTOR('',#1431,0.1);
#428=VECTOR('',#1438,5.3);
#429=VECTOR('',#1439,0.5);
#430=VECTOR('',#1440,5.3);
#431=VECTOR('',#1441,0.5);
#432=VECTOR('',#1444,0.100000000000001);
#433=VECTOR('',#1445,0.100000000000001);
#434=VECTOR('',#1446,0.5);
#435=VECTOR('',#1449,5.3);
#436=VECTOR('',#1450,5.3);
#437=VECTOR('',#1451,0.5);
#438=VECTOR('',#1454,0.1);
#439=VECTOR('',#1455,0.1);
#440=VECTOR('',#1464,1.57480157480237);
#441=VECTOR('',#1467,1.57480157480237);
#442=VECTOR('',#1472,1.57480157480237);
#443=VECTOR('',#1475,1.57480157480237);
#444=VECTOR('',#1498,0.6);
#445=VECTOR('',#1501,0.6);
#446=VECTOR('',#1504,3.05122926047847);
#447=VECTOR('',#1505,3.05122926047847);
#448=VECTOR('',#1506,0.6);
#449=VECTOR('',#1513,0.6);
#450=VECTOR('',#1516,3.05122926047847);
#451=VECTOR('',#1517,3.05122926047847);
#452=VECTOR('',#1518,0.6);
#453=VECTOR('',#1525,0.6);
#454=VECTOR('',#1528,3.05122926047847);
#455=VECTOR('',#1529,3.05122926047847);
#456=VECTOR('',#1530,0.6);
#457=VECTOR('',#1537,0.6);
#458=VECTOR('',#1540,3.05122926047847);
#459=VECTOR('',#1541,3.05122926047847);
#460=VECTOR('',#1550,0.6);
#461=VECTOR('',#1553,0.6);
#462=VECTOR('',#1556,3.05122926047847);
#463=VECTOR('',#1557,3.05122926047847);
#464=VECTOR('',#1558,0.6);
#465=VECTOR('',#1565,0.6);
#466=VECTOR('',#1568,3.05122926047847);
#467=VECTOR('',#1569,3.05122926047847);
#468=VECTOR('',#1570,0.6);
#469=VECTOR('',#1577,0.6);
#470=VECTOR('',#1580,3.05122926047847);
#471=VECTOR('',#1581,3.05122926047847);
#472=VECTOR('',#1582,0.6);
#473=VECTOR('',#1589,0.6);
#474=VECTOR('',#1592,3.05122926047847);
#475=VECTOR('',#1593,3.05122926047847);
#476=VERTEX_POINT('',#1600);
#477=VERTEX_POINT('',#1601);
#478=VERTEX_POINT('',#1603);
#479=VERTEX_POINT('',#1605);
#480=VERTEX_POINT('',#1609);
#481=VERTEX_POINT('',#1611);
#482=VERTEX_POINT('',#1615);
#483=VERTEX_POINT('',#1617);
#484=VERTEX_POINT('',#1621);
#485=VERTEX_POINT('',#1623);
#486=VERTEX_POINT('',#1627);
#487=VERTEX_POINT('',#1629);
#488=VERTEX_POINT('',#1633);
#489=VERTEX_POINT('',#1635);
#490=VERTEX_POINT('',#1639);
#491=VERTEX_POINT('',#1641);
#492=VERTEX_POINT('',#1645);
#493=VERTEX_POINT('',#1647);
#494=VERTEX_POINT('',#1651);
#495=VERTEX_POINT('',#1653);
#496=VERTEX_POINT('',#1657);
#497=VERTEX_POINT('',#1659);
#498=VERTEX_POINT('',#1663);
#499=VERTEX_POINT('',#1665);
#500=VERTEX_POINT('',#1674);
#501=VERTEX_POINT('',#1675);
#502=VERTEX_POINT('',#1677);
#503=VERTEX_POINT('',#1679);
#504=VERTEX_POINT('',#1683);
#505=VERTEX_POINT('',#1685);
#506=VERTEX_POINT('',#1689);
#507=VERTEX_POINT('',#1691);
#508=VERTEX_POINT('',#1695);
#509=VERTEX_POINT('',#1697);
#510=VERTEX_POINT('',#1701);
#511=VERTEX_POINT('',#1703);
#512=VERTEX_POINT('',#1707);
#513=VERTEX_POINT('',#1709);
#514=VERTEX_POINT('',#1713);
#515=VERTEX_POINT('',#1715);
#516=VERTEX_POINT('',#1719);
#517=VERTEX_POINT('',#1721);
#518=VERTEX_POINT('',#1725);
#519=VERTEX_POINT('',#1727);
#520=VERTEX_POINT('',#1731);
#521=VERTEX_POINT('',#1733);
#522=VERTEX_POINT('',#1737);
#523=VERTEX_POINT('',#1739);
#524=VERTEX_POINT('',#1748);
#525=VERTEX_POINT('',#1749);
#526=VERTEX_POINT('',#1751);
#527=VERTEX_POINT('',#1753);
#528=VERTEX_POINT('',#1757);
#529=VERTEX_POINT('',#1759);
#530=VERTEX_POINT('',#1763);
#531=VERTEX_POINT('',#1765);
#532=VERTEX_POINT('',#1774);
#533=VERTEX_POINT('',#1775);
#534=VERTEX_POINT('',#1777);
#535=VERTEX_POINT('',#1779);
#536=VERTEX_POINT('',#1783);
#537=VERTEX_POINT('',#1785);
#538=VERTEX_POINT('',#1789);
#539=VERTEX_POINT('',#1791);
#540=VERTEX_POINT('',#1800);
#541=VERTEX_POINT('',#1801);
#542=VERTEX_POINT('',#1803);
#543=VERTEX_POINT('',#1805);
#544=VERTEX_POINT('',#1809);
#545=VERTEX_POINT('',#1810);
#546=VERTEX_POINT('',#1812);
#547=VERTEX_POINT('',#1814);
#548=VERTEX_POINT('',#1840);
#549=VERTEX_POINT('',#1853);
#550=VERTEX_POINT('',#1869);
#551=VERTEX_POINT('',#1870);
#552=VERTEX_POINT('',#1872);
#553=VERTEX_POINT('',#1874);
#554=VERTEX_POINT('',#1878);
#555=VERTEX_POINT('',#1880);
#556=VERTEX_POINT('',#1884);
#557=VERTEX_POINT('',#1886);
#558=VERTEX_POINT('',#1890);
#559=VERTEX_POINT('',#1892);
#560=VERTEX_POINT('',#1896);
#561=VERTEX_POINT('',#1898);
#562=VERTEX_POINT('',#1902);
#563=VERTEX_POINT('',#1904);
#564=VERTEX_POINT('',#1908);
#565=VERTEX_POINT('',#1910);
#566=VERTEX_POINT('',#1919);
#567=VERTEX_POINT('',#1920);
#568=VERTEX_POINT('',#1922);
#569=VERTEX_POINT('',#1924);
#570=VERTEX_POINT('',#1928);
#571=VERTEX_POINT('',#1930);
#572=VERTEX_POINT('',#1934);
#573=VERTEX_POINT('',#1936);
#574=VERTEX_POINT('',#1940);
#575=VERTEX_POINT('',#1942);
#576=VERTEX_POINT('',#1946);
#577=VERTEX_POINT('',#1948);
#578=VERTEX_POINT('',#1952);
#579=VERTEX_POINT('',#1954);
#580=VERTEX_POINT('',#1958);
#581=VERTEX_POINT('',#1960);
#582=EDGE_CURVE('',#476,#477,#212,.T.);
#583=EDGE_CURVE('',#476,#478,#213,.T.);
#584=EDGE_CURVE('',#479,#478,#214,.T.);
#585=EDGE_CURVE('',#477,#479,#215,.T.);
#586=EDGE_CURVE('',#477,#480,#216,.T.);
#587=EDGE_CURVE('',#481,#479,#217,.T.);
#588=EDGE_CURVE('',#480,#481,#218,.T.);
#589=EDGE_CURVE('',#480,#482,#219,.T.);
#590=EDGE_CURVE('',#483,#481,#220,.T.);
#591=EDGE_CURVE('',#482,#483,#221,.T.);
#592=EDGE_CURVE('',#482,#484,#222,.T.);
#593=EDGE_CURVE('',#485,#483,#223,.T.);
#594=EDGE_CURVE('',#484,#485,#224,.T.);
#595=EDGE_CURVE('',#484,#486,#225,.T.);
#596=EDGE_CURVE('',#487,#485,#226,.T.);
#597=EDGE_CURVE('',#486,#487,#227,.T.);
#598=EDGE_CURVE('',#486,#488,#228,.T.);
#599=EDGE_CURVE('',#489,#487,#229,.T.);
#600=EDGE_CURVE('',#488,#489,#230,.T.);
#601=EDGE_CURVE('',#488,#490,#231,.T.);
#602=EDGE_CURVE('',#491,#489,#232,.T.);
#603=EDGE_CURVE('',#490,#491,#233,.T.);
#604=EDGE_CURVE('',#490,#492,#234,.T.);
#605=EDGE_CURVE('',#493,#491,#235,.T.);
#606=EDGE_CURVE('',#492,#493,#236,.T.);
#607=EDGE_CURVE('',#492,#494,#237,.T.);
#608=EDGE_CURVE('',#495,#493,#238,.T.);
#609=EDGE_CURVE('',#494,#495,#239,.T.);
#610=EDGE_CURVE('',#494,#496,#240,.T.);
#611=EDGE_CURVE('',#497,#495,#241,.T.);
#612=EDGE_CURVE('',#496,#497,#242,.T.);
#613=EDGE_CURVE('',#496,#498,#243,.T.);
#614=EDGE_CURVE('',#499,#497,#244,.T.);
#615=EDGE_CURVE('',#498,#499,#245,.T.);
#616=EDGE_CURVE('',#498,#476,#246,.T.);
#617=EDGE_CURVE('',#478,#499,#247,.T.);
#618=EDGE_CURVE('',#500,#501,#248,.T.);
#619=EDGE_CURVE('',#500,#502,#249,.T.);
#620=EDGE_CURVE('',#503,#502,#250,.T.);
#621=EDGE_CURVE('',#501,#503,#251,.T.);
#622=EDGE_CURVE('',#501,#504,#252,.T.);
#623=EDGE_CURVE('',#505,#503,#253,.T.);
#624=EDGE_CURVE('',#504,#505,#254,.T.);
#625=EDGE_CURVE('',#504,#506,#255,.T.);
#626=EDGE_CURVE('',#507,#505,#256,.T.);
#627=EDGE_CURVE('',#506,#507,#257,.T.);
#628=EDGE_CURVE('',#506,#508,#258,.T.);
#629=EDGE_CURVE('',#509,#507,#259,.T.);
#630=EDGE_CURVE('',#508,#509,#260,.T.);
#631=EDGE_CURVE('',#508,#510,#261,.T.);
#632=EDGE_CURVE('',#511,#509,#262,.T.);
#633=EDGE_CURVE('',#510,#511,#263,.T.);
#634=EDGE_CURVE('',#510,#512,#264,.T.);
#635=EDGE_CURVE('',#513,#511,#265,.T.);
#636=EDGE_CURVE('',#512,#513,#266,.T.);
#637=EDGE_CURVE('',#512,#514,#267,.T.);
#638=EDGE_CURVE('',#515,#513,#268,.T.);
#639=EDGE_CURVE('',#514,#515,#269,.T.);
#640=EDGE_CURVE('',#514,#516,#270,.T.);
#641=EDGE_CURVE('',#517,#515,#271,.T.);
#642=EDGE_CURVE('',#516,#517,#272,.T.);
#643=EDGE_CURVE('',#516,#518,#273,.T.);
#644=EDGE_CURVE('',#519,#517,#274,.T.);
#645=EDGE_CURVE('',#518,#519,#275,.T.);
#646=EDGE_CURVE('',#518,#520,#276,.T.);
#647=EDGE_CURVE('',#521,#519,#277,.T.);
#648=EDGE_CURVE('',#520,#521,#278,.T.);
#649=EDGE_CURVE('',#520,#522,#279,.T.);
#650=EDGE_CURVE('',#523,#521,#280,.T.);
#651=EDGE_CURVE('',#522,#523,#281,.T.);
#652=EDGE_CURVE('',#522,#500,#282,.T.);
#653=EDGE_CURVE('',#502,#523,#283,.T.);
#654=EDGE_CURVE('',#524,#525,#284,.T.);
#655=EDGE_CURVE('',#524,#526,#285,.T.);
#656=EDGE_CURVE('',#527,#526,#286,.T.);
#657=EDGE_CURVE('',#525,#527,#287,.T.);
#658=EDGE_CURVE('',#525,#528,#288,.T.);
#659=EDGE_CURVE('',#529,#527,#289,.T.);
#660=EDGE_CURVE('',#528,#529,#290,.T.);
#661=EDGE_CURVE('',#528,#530,#291,.T.);
#662=EDGE_CURVE('',#531,#529,#292,.T.);
#663=EDGE_CURVE('',#530,#531,#293,.T.);
#664=EDGE_CURVE('',#530,#524,#294,.T.);
#665=EDGE_CURVE('',#526,#531,#295,.T.);
#666=EDGE_CURVE('',#532,#533,#296,.T.);
#667=EDGE_CURVE('',#532,#534,#297,.T.);
#668=EDGE_CURVE('',#535,#534,#298,.T.);
#669=EDGE_CURVE('',#533,#535,#299,.T.);
#670=EDGE_CURVE('',#533,#536,#300,.T.);
#671=EDGE_CURVE('',#537,#535,#301,.T.);
#672=EDGE_CURVE('',#536,#537,#302,.T.);
#673=EDGE_CURVE('',#536,#538,#303,.T.);
#674=EDGE_CURVE('',#539,#537,#304,.T.);
#675=EDGE_CURVE('',#538,#539,#305,.T.);
#676=EDGE_CURVE('',#538,#532,#306,.T.);
#677=EDGE_CURVE('',#534,#539,#307,.T.);
#678=EDGE_CURVE('',#540,#541,#33,.T.);
#679=EDGE_CURVE('',#542,#540,#308,.T.);
#680=EDGE_CURVE('',#543,#542,#34,.T.);
#681=EDGE_CURVE('',#541,#543,#309,.T.);
#682=EDGE_CURVE('',#544,#545,#35,.T.);
#683=EDGE_CURVE('',#546,#544,#310,.T.);
#684=EDGE_CURVE('',#547,#546,#36,.T.);
#685=EDGE_CURVE('',#545,#547,#311,.T.);
#686=EDGE_CURVE('',#543,#541,#29,.F.);
#687=EDGE_CURVE('',#547,#545,#30,.F.);
#688=EDGE_CURVE('',#548,#548,#37,.T.);
#689=EDGE_CURVE('',#540,#542,#31,.F.);
#690=EDGE_CURVE('',#549,#549,#38,.T.);
#691=EDGE_CURVE('',#544,#546,#32,.F.);
#692=EDGE_CURVE('',#550,#551,#39,.T.);
#693=EDGE_CURVE('',#550,#552,#312,.T.);
#694=EDGE_CURVE('',#553,#552,#40,.T.);
#695=EDGE_CURVE('',#551,#553,#313,.T.);
#696=EDGE_CURVE('',#551,#554,#314,.T.);
#697=EDGE_CURVE('',#555,#553,#315,.T.);
#698=EDGE_CURVE('',#554,#555,#316,.T.);
#699=EDGE_CURVE('',#554,#556,#41,.T.);
#700=EDGE_CURVE('',#557,#555,#42,.T.);
#701=EDGE_CURVE('',#556,#557,#317,.T.);
#702=EDGE_CURVE('',#556,#558,#318,.T.);
#703=EDGE_CURVE('',#559,#557,#319,.T.);
#704=EDGE_CURVE('',#558,#559,#320,.T.);
#705=EDGE_CURVE('',#558,#560,#43,.T.);
#706=EDGE_CURVE('',#561,#559,#44,.T.);
#707=EDGE_CURVE('',#560,#561,#321,.T.);
#708=EDGE_CURVE('',#560,#562,#322,.T.);
#709=EDGE_CURVE('',#563,#561,#323,.T.);
#710=EDGE_CURVE('',#562,#563,#324,.T.);
#711=EDGE_CURVE('',#562,#564,#45,.T.);
#712=EDGE_CURVE('',#565,#563,#46,.T.);
#713=EDGE_CURVE('',#564,#565,#325,.T.);
#714=EDGE_CURVE('',#564,#550,#326,.T.);
#715=EDGE_CURVE('',#552,#565,#327,.T.);
#716=EDGE_CURVE('',#566,#567,#47,.T.);
#717=EDGE_CURVE('',#567,#568,#328,.T.);
#718=EDGE_CURVE('',#569,#568,#48,.T.);
#719=EDGE_CURVE('',#566,#569,#329,.T.);
#720=EDGE_CURVE('',#570,#566,#330,.T.);
#721=EDGE_CURVE('',#571,#569,#331,.T.);
#722=EDGE_CURVE('',#570,#571,#332,.T.);
#723=EDGE_CURVE('',#572,#570,#49,.T.);
#724=EDGE_CURVE('',#573,#571,#50,.T.);
#725=EDGE_CURVE('',#572,#573,#333,.T.);
#726=EDGE_CURVE('',#574,#572,#334,.T.);
#727=EDGE_CURVE('',#575,#573,#335,.T.);
#728=EDGE_CURVE('',#574,#575,#336,.T.);
#729=EDGE_CURVE('',#576,#574,#51,.T.);
#730=EDGE_CURVE('',#577,#575,#52,.T.);
#731=EDGE_CURVE('',#576,#577,#337,.T.);
#732=EDGE_CURVE('',#578,#576,#338,.T.);
#733=EDGE_CURVE('',#579,#577,#339,.T.);
#734=EDGE_CURVE('',#578,#579,#340,.T.);
#735=EDGE_CURVE('',#580,#578,#53,.T.);
#736=EDGE_CURVE('',#581,#579,#54,.T.);
#737=EDGE_CURVE('',#580,#581,#341,.T.);
#738=EDGE_CURVE('',#567,#580,#342,.T.);
#739=EDGE_CURVE('',#568,#581,#343,.T.);
#740=ORIENTED_EDGE('',*,*,#582,.F.);
#741=ORIENTED_EDGE('',*,*,#583,.T.);
#742=ORIENTED_EDGE('',*,*,#584,.F.);
#743=ORIENTED_EDGE('',*,*,#585,.F.);
#744=ORIENTED_EDGE('',*,*,#586,.F.);
#745=ORIENTED_EDGE('',*,*,#585,.T.);
#746=ORIENTED_EDGE('',*,*,#587,.F.);
#747=ORIENTED_EDGE('',*,*,#588,.F.);
#748=ORIENTED_EDGE('',*,*,#589,.F.);
#749=ORIENTED_EDGE('',*,*,#588,.T.);
#750=ORIENTED_EDGE('',*,*,#590,.F.);
#751=ORIENTED_EDGE('',*,*,#591,.F.);
#752=ORIENTED_EDGE('',*,*,#592,.F.);
#753=ORIENTED_EDGE('',*,*,#591,.T.);
#754=ORIENTED_EDGE('',*,*,#593,.F.);
#755=ORIENTED_EDGE('',*,*,#594,.F.);
#756=ORIENTED_EDGE('',*,*,#595,.F.);
#757=ORIENTED_EDGE('',*,*,#594,.T.);
#758=ORIENTED_EDGE('',*,*,#596,.F.);
#759=ORIENTED_EDGE('',*,*,#597,.F.);
#760=ORIENTED_EDGE('',*,*,#598,.F.);
#761=ORIENTED_EDGE('',*,*,#597,.T.);
#762=ORIENTED_EDGE('',*,*,#599,.F.);
#763=ORIENTED_EDGE('',*,*,#600,.F.);
#764=ORIENTED_EDGE('',*,*,#601,.F.);
#765=ORIENTED_EDGE('',*,*,#600,.T.);
#766=ORIENTED_EDGE('',*,*,#602,.F.);
#767=ORIENTED_EDGE('',*,*,#603,.F.);
#768=ORIENTED_EDGE('',*,*,#604,.F.);
#769=ORIENTED_EDGE('',*,*,#603,.T.);
#770=ORIENTED_EDGE('',*,*,#605,.F.);
#771=ORIENTED_EDGE('',*,*,#606,.F.);
#772=ORIENTED_EDGE('',*,*,#607,.F.);
#773=ORIENTED_EDGE('',*,*,#606,.T.);
#774=ORIENTED_EDGE('',*,*,#608,.F.);
#775=ORIENTED_EDGE('',*,*,#609,.F.);
#776=ORIENTED_EDGE('',*,*,#610,.F.);
#777=ORIENTED_EDGE('',*,*,#609,.T.);
#778=ORIENTED_EDGE('',*,*,#611,.F.);
#779=ORIENTED_EDGE('',*,*,#612,.F.);
#780=ORIENTED_EDGE('',*,*,#613,.F.);
#781=ORIENTED_EDGE('',*,*,#612,.T.);
#782=ORIENTED_EDGE('',*,*,#614,.F.);
#783=ORIENTED_EDGE('',*,*,#615,.F.);
#784=ORIENTED_EDGE('',*,*,#616,.F.);
#785=ORIENTED_EDGE('',*,*,#615,.T.);
#786=ORIENTED_EDGE('',*,*,#617,.F.);
#787=ORIENTED_EDGE('',*,*,#583,.F.);
#788=ORIENTED_EDGE('',*,*,#616,.T.);
#789=ORIENTED_EDGE('',*,*,#582,.T.);
#790=ORIENTED_EDGE('',*,*,#586,.T.);
#791=ORIENTED_EDGE('',*,*,#589,.T.);
#792=ORIENTED_EDGE('',*,*,#592,.T.);
#793=ORIENTED_EDGE('',*,*,#595,.T.);
#794=ORIENTED_EDGE('',*,*,#598,.T.);
#795=ORIENTED_EDGE('',*,*,#601,.T.);
#796=ORIENTED_EDGE('',*,*,#604,.T.);
#797=ORIENTED_EDGE('',*,*,#607,.T.);
#798=ORIENTED_EDGE('',*,*,#610,.T.);
#799=ORIENTED_EDGE('',*,*,#613,.T.);
#800=ORIENTED_EDGE('',*,*,#617,.T.);
#801=ORIENTED_EDGE('',*,*,#614,.T.);
#802=ORIENTED_EDGE('',*,*,#611,.T.);
#803=ORIENTED_EDGE('',*,*,#608,.T.);
#804=ORIENTED_EDGE('',*,*,#605,.T.);
#805=ORIENTED_EDGE('',*,*,#602,.T.);
#806=ORIENTED_EDGE('',*,*,#599,.T.);
#807=ORIENTED_EDGE('',*,*,#596,.T.);
#808=ORIENTED_EDGE('',*,*,#593,.T.);
#809=ORIENTED_EDGE('',*,*,#590,.T.);
#810=ORIENTED_EDGE('',*,*,#587,.T.);
#811=ORIENTED_EDGE('',*,*,#584,.T.);
#812=ORIENTED_EDGE('',*,*,#618,.F.);
#813=ORIENTED_EDGE('',*,*,#619,.T.);
#814=ORIENTED_EDGE('',*,*,#620,.F.);
#815=ORIENTED_EDGE('',*,*,#621,.F.);
#816=ORIENTED_EDGE('',*,*,#622,.F.);
#817=ORIENTED_EDGE('',*,*,#621,.T.);
#818=ORIENTED_EDGE('',*,*,#623,.F.);
#819=ORIENTED_EDGE('',*,*,#624,.F.);
#820=ORIENTED_EDGE('',*,*,#625,.F.);
#821=ORIENTED_EDGE('',*,*,#624,.T.);
#822=ORIENTED_EDGE('',*,*,#626,.F.);
#823=ORIENTED_EDGE('',*,*,#627,.F.);
#824=ORIENTED_EDGE('',*,*,#628,.F.);
#825=ORIENTED_EDGE('',*,*,#627,.T.);
#826=ORIENTED_EDGE('',*,*,#629,.F.);
#827=ORIENTED_EDGE('',*,*,#630,.F.);
#828=ORIENTED_EDGE('',*,*,#631,.F.);
#829=ORIENTED_EDGE('',*,*,#630,.T.);
#830=ORIENTED_EDGE('',*,*,#632,.F.);
#831=ORIENTED_EDGE('',*,*,#633,.F.);
#832=ORIENTED_EDGE('',*,*,#634,.F.);
#833=ORIENTED_EDGE('',*,*,#633,.T.);
#834=ORIENTED_EDGE('',*,*,#635,.F.);
#835=ORIENTED_EDGE('',*,*,#636,.F.);
#836=ORIENTED_EDGE('',*,*,#637,.F.);
#837=ORIENTED_EDGE('',*,*,#636,.T.);
#838=ORIENTED_EDGE('',*,*,#638,.F.);
#839=ORIENTED_EDGE('',*,*,#639,.F.);
#840=ORIENTED_EDGE('',*,*,#640,.F.);
#841=ORIENTED_EDGE('',*,*,#639,.T.);
#842=ORIENTED_EDGE('',*,*,#641,.F.);
#843=ORIENTED_EDGE('',*,*,#642,.F.);
#844=ORIENTED_EDGE('',*,*,#643,.F.);
#845=ORIENTED_EDGE('',*,*,#642,.T.);
#846=ORIENTED_EDGE('',*,*,#644,.F.);
#847=ORIENTED_EDGE('',*,*,#645,.F.);
#848=ORIENTED_EDGE('',*,*,#646,.F.);
#849=ORIENTED_EDGE('',*,*,#645,.T.);
#850=ORIENTED_EDGE('',*,*,#647,.F.);
#851=ORIENTED_EDGE('',*,*,#648,.F.);
#852=ORIENTED_EDGE('',*,*,#649,.F.);
#853=ORIENTED_EDGE('',*,*,#648,.T.);
#854=ORIENTED_EDGE('',*,*,#650,.F.);
#855=ORIENTED_EDGE('',*,*,#651,.F.);
#856=ORIENTED_EDGE('',*,*,#652,.F.);
#857=ORIENTED_EDGE('',*,*,#651,.T.);
#858=ORIENTED_EDGE('',*,*,#653,.F.);
#859=ORIENTED_EDGE('',*,*,#619,.F.);
#860=ORIENTED_EDGE('',*,*,#652,.T.);
#861=ORIENTED_EDGE('',*,*,#618,.T.);
#862=ORIENTED_EDGE('',*,*,#622,.T.);
#863=ORIENTED_EDGE('',*,*,#625,.T.);
#864=ORIENTED_EDGE('',*,*,#628,.T.);
#865=ORIENTED_EDGE('',*,*,#631,.T.);
#866=ORIENTED_EDGE('',*,*,#634,.T.);
#867=ORIENTED_EDGE('',*,*,#637,.T.);
#868=ORIENTED_EDGE('',*,*,#640,.T.);
#869=ORIENTED_EDGE('',*,*,#643,.T.);
#870=ORIENTED_EDGE('',*,*,#646,.T.);
#871=ORIENTED_EDGE('',*,*,#649,.T.);
#872=ORIENTED_EDGE('',*,*,#653,.T.);
#873=ORIENTED_EDGE('',*,*,#650,.T.);
#874=ORIENTED_EDGE('',*,*,#647,.T.);
#875=ORIENTED_EDGE('',*,*,#644,.T.);
#876=ORIENTED_EDGE('',*,*,#641,.T.);
#877=ORIENTED_EDGE('',*,*,#638,.T.);
#878=ORIENTED_EDGE('',*,*,#635,.T.);
#879=ORIENTED_EDGE('',*,*,#632,.T.);
#880=ORIENTED_EDGE('',*,*,#629,.T.);
#881=ORIENTED_EDGE('',*,*,#626,.T.);
#882=ORIENTED_EDGE('',*,*,#623,.T.);
#883=ORIENTED_EDGE('',*,*,#620,.T.);
#884=ORIENTED_EDGE('',*,*,#654,.F.);
#885=ORIENTED_EDGE('',*,*,#655,.T.);
#886=ORIENTED_EDGE('',*,*,#656,.F.);
#887=ORIENTED_EDGE('',*,*,#657,.F.);
#888=ORIENTED_EDGE('',*,*,#658,.F.);
#889=ORIENTED_EDGE('',*,*,#657,.T.);
#890=ORIENTED_EDGE('',*,*,#659,.F.);
#891=ORIENTED_EDGE('',*,*,#660,.F.);
#892=ORIENTED_EDGE('',*,*,#661,.F.);
#893=ORIENTED_EDGE('',*,*,#660,.T.);
#894=ORIENTED_EDGE('',*,*,#662,.F.);
#895=ORIENTED_EDGE('',*,*,#663,.F.);
#896=ORIENTED_EDGE('',*,*,#664,.F.);
#897=ORIENTED_EDGE('',*,*,#663,.T.);
#898=ORIENTED_EDGE('',*,*,#665,.F.);
#899=ORIENTED_EDGE('',*,*,#655,.F.);
#900=ORIENTED_EDGE('',*,*,#664,.T.);
#901=ORIENTED_EDGE('',*,*,#654,.T.);
#902=ORIENTED_EDGE('',*,*,#658,.T.);
#903=ORIENTED_EDGE('',*,*,#661,.T.);
#904=ORIENTED_EDGE('',*,*,#665,.T.);
#905=ORIENTED_EDGE('',*,*,#662,.T.);
#906=ORIENTED_EDGE('',*,*,#659,.T.);
#907=ORIENTED_EDGE('',*,*,#656,.T.);
#908=ORIENTED_EDGE('',*,*,#666,.F.);
#909=ORIENTED_EDGE('',*,*,#667,.T.);
#910=ORIENTED_EDGE('',*,*,#668,.F.);
#911=ORIENTED_EDGE('',*,*,#669,.F.);
#912=ORIENTED_EDGE('',*,*,#670,.F.);
#913=ORIENTED_EDGE('',*,*,#669,.T.);
#914=ORIENTED_EDGE('',*,*,#671,.F.);
#915=ORIENTED_EDGE('',*,*,#672,.F.);
#916=ORIENTED_EDGE('',*,*,#673,.F.);
#917=ORIENTED_EDGE('',*,*,#672,.T.);
#918=ORIENTED_EDGE('',*,*,#674,.F.);
#919=ORIENTED_EDGE('',*,*,#675,.F.);
#920=ORIENTED_EDGE('',*,*,#676,.F.);
#921=ORIENTED_EDGE('',*,*,#675,.T.);
#922=ORIENTED_EDGE('',*,*,#677,.F.);
#923=ORIENTED_EDGE('',*,*,#667,.F.);
#924=ORIENTED_EDGE('',*,*,#676,.T.);
#925=ORIENTED_EDGE('',*,*,#666,.T.);
#926=ORIENTED_EDGE('',*,*,#670,.T.);
#927=ORIENTED_EDGE('',*,*,#673,.T.);
#928=ORIENTED_EDGE('',*,*,#677,.T.);
#929=ORIENTED_EDGE('',*,*,#674,.T.);
#930=ORIENTED_EDGE('',*,*,#671,.T.);
#931=ORIENTED_EDGE('',*,*,#668,.T.);
#932=ORIENTED_EDGE('',*,*,#678,.F.);
#933=ORIENTED_EDGE('',*,*,#679,.F.);
#934=ORIENTED_EDGE('',*,*,#680,.F.);
#935=ORIENTED_EDGE('',*,*,#681,.F.);
#936=ORIENTED_EDGE('',*,*,#682,.F.);
#937=ORIENTED_EDGE('',*,*,#683,.F.);
#938=ORIENTED_EDGE('',*,*,#684,.F.);
#939=ORIENTED_EDGE('',*,*,#685,.F.);
#940=ORIENTED_EDGE('',*,*,#681,.T.);
#941=ORIENTED_EDGE('',*,*,#686,.T.);
#942=ORIENTED_EDGE('',*,*,#685,.T.);
#943=ORIENTED_EDGE('',*,*,#687,.T.);
#944=ORIENTED_EDGE('',*,*,#688,.T.);
#945=ORIENTED_EDGE('',*,*,#686,.F.);
#946=ORIENTED_EDGE('',*,*,#680,.T.);
#947=ORIENTED_EDGE('',*,*,#689,.F.);
#948=ORIENTED_EDGE('',*,*,#678,.T.);
#949=ORIENTED_EDGE('',*,*,#690,.F.);
#950=ORIENTED_EDGE('',*,*,#688,.F.);
#951=ORIENTED_EDGE('',*,*,#690,.T.);
#952=ORIENTED_EDGE('',*,*,#687,.F.);
#953=ORIENTED_EDGE('',*,*,#684,.T.);
#954=ORIENTED_EDGE('',*,*,#691,.F.);
#955=ORIENTED_EDGE('',*,*,#682,.T.);
#956=ORIENTED_EDGE('',*,*,#683,.T.);
#957=ORIENTED_EDGE('',*,*,#691,.T.);
#958=ORIENTED_EDGE('',*,*,#679,.T.);
#959=ORIENTED_EDGE('',*,*,#689,.T.);
#960=ORIENTED_EDGE('',*,*,#692,.F.);
#961=ORIENTED_EDGE('',*,*,#693,.T.);
#962=ORIENTED_EDGE('',*,*,#694,.F.);
#963=ORIENTED_EDGE('',*,*,#695,.F.);
#964=ORIENTED_EDGE('',*,*,#696,.F.);
#965=ORIENTED_EDGE('',*,*,#695,.T.);
#966=ORIENTED_EDGE('',*,*,#697,.F.);
#967=ORIENTED_EDGE('',*,*,#698,.F.);
#968=ORIENTED_EDGE('',*,*,#699,.F.);
#969=ORIENTED_EDGE('',*,*,#698,.T.);
#970=ORIENTED_EDGE('',*,*,#700,.F.);
#971=ORIENTED_EDGE('',*,*,#701,.F.);
#972=ORIENTED_EDGE('',*,*,#702,.F.);
#973=ORIENTED_EDGE('',*,*,#701,.T.);
#974=ORIENTED_EDGE('',*,*,#703,.F.);
#975=ORIENTED_EDGE('',*,*,#704,.F.);
#976=ORIENTED_EDGE('',*,*,#705,.F.);
#977=ORIENTED_EDGE('',*,*,#704,.T.);
#978=ORIENTED_EDGE('',*,*,#706,.F.);
#979=ORIENTED_EDGE('',*,*,#707,.F.);
#980=ORIENTED_EDGE('',*,*,#708,.F.);
#981=ORIENTED_EDGE('',*,*,#707,.T.);
#982=ORIENTED_EDGE('',*,*,#709,.F.);
#983=ORIENTED_EDGE('',*,*,#710,.F.);
#984=ORIENTED_EDGE('',*,*,#711,.F.);
#985=ORIENTED_EDGE('',*,*,#710,.T.);
#986=ORIENTED_EDGE('',*,*,#712,.F.);
#987=ORIENTED_EDGE('',*,*,#713,.F.);
#988=ORIENTED_EDGE('',*,*,#714,.F.);
#989=ORIENTED_EDGE('',*,*,#713,.T.);
#990=ORIENTED_EDGE('',*,*,#715,.F.);
#991=ORIENTED_EDGE('',*,*,#693,.F.);
#992=ORIENTED_EDGE('',*,*,#714,.T.);
#993=ORIENTED_EDGE('',*,*,#692,.T.);
#994=ORIENTED_EDGE('',*,*,#696,.T.);
#995=ORIENTED_EDGE('',*,*,#699,.T.);
#996=ORIENTED_EDGE('',*,*,#702,.T.);
#997=ORIENTED_EDGE('',*,*,#705,.T.);
#998=ORIENTED_EDGE('',*,*,#708,.T.);
#999=ORIENTED_EDGE('',*,*,#711,.T.);
#1000=ORIENTED_EDGE('',*,*,#715,.T.);
#1001=ORIENTED_EDGE('',*,*,#712,.T.);
#1002=ORIENTED_EDGE('',*,*,#709,.T.);
#1003=ORIENTED_EDGE('',*,*,#706,.T.);
#1004=ORIENTED_EDGE('',*,*,#703,.T.);
#1005=ORIENTED_EDGE('',*,*,#700,.T.);
#1006=ORIENTED_EDGE('',*,*,#697,.T.);
#1007=ORIENTED_EDGE('',*,*,#694,.T.);
#1008=ORIENTED_EDGE('',*,*,#716,.T.);
#1009=ORIENTED_EDGE('',*,*,#717,.T.);
#1010=ORIENTED_EDGE('',*,*,#718,.F.);
#1011=ORIENTED_EDGE('',*,*,#719,.F.);
#1012=ORIENTED_EDGE('',*,*,#720,.T.);
#1013=ORIENTED_EDGE('',*,*,#719,.T.);
#1014=ORIENTED_EDGE('',*,*,#721,.F.);
#1015=ORIENTED_EDGE('',*,*,#722,.F.);
#1016=ORIENTED_EDGE('',*,*,#723,.T.);
#1017=ORIENTED_EDGE('',*,*,#722,.T.);
#1018=ORIENTED_EDGE('',*,*,#724,.F.);
#1019=ORIENTED_EDGE('',*,*,#725,.F.);
#1020=ORIENTED_EDGE('',*,*,#726,.T.);
#1021=ORIENTED_EDGE('',*,*,#725,.T.);
#1022=ORIENTED_EDGE('',*,*,#727,.F.);
#1023=ORIENTED_EDGE('',*,*,#728,.F.);
#1024=ORIENTED_EDGE('',*,*,#729,.T.);
#1025=ORIENTED_EDGE('',*,*,#728,.T.);
#1026=ORIENTED_EDGE('',*,*,#730,.F.);
#1027=ORIENTED_EDGE('',*,*,#731,.F.);
#1028=ORIENTED_EDGE('',*,*,#732,.T.);
#1029=ORIENTED_EDGE('',*,*,#731,.T.);
#1030=ORIENTED_EDGE('',*,*,#733,.F.);
#1031=ORIENTED_EDGE('',*,*,#734,.F.);
#1032=ORIENTED_EDGE('',*,*,#735,.T.);
#1033=ORIENTED_EDGE('',*,*,#734,.T.);
#1034=ORIENTED_EDGE('',*,*,#736,.F.);
#1035=ORIENTED_EDGE('',*,*,#737,.F.);
#1036=ORIENTED_EDGE('',*,*,#738,.T.);
#1037=ORIENTED_EDGE('',*,*,#737,.T.);
#1038=ORIENTED_EDGE('',*,*,#739,.F.);
#1039=ORIENTED_EDGE('',*,*,#717,.F.);
#1040=ORIENTED_EDGE('',*,*,#739,.T.);
#1041=ORIENTED_EDGE('',*,*,#736,.T.);
#1042=ORIENTED_EDGE('',*,*,#733,.T.);
#1043=ORIENTED_EDGE('',*,*,#730,.T.);
#1044=ORIENTED_EDGE('',*,*,#727,.T.);
#1045=ORIENTED_EDGE('',*,*,#724,.T.);
#1046=ORIENTED_EDGE('',*,*,#721,.T.);
#1047=ORIENTED_EDGE('',*,*,#718,.T.);
#1048=ORIENTED_EDGE('',*,*,#738,.F.);
#1049=ORIENTED_EDGE('',*,*,#716,.F.);
#1050=ORIENTED_EDGE('',*,*,#720,.F.);
#1051=ORIENTED_EDGE('',*,*,#723,.F.);
#1052=ORIENTED_EDGE('',*,*,#726,.F.);
#1053=ORIENTED_EDGE('',*,*,#729,.F.);
#1054=ORIENTED_EDGE('',*,*,#732,.F.);
#1055=ORIENTED_EDGE('',*,*,#735,.F.);
#1056=PLANE('',#1191);
#1057=PLANE('',#1192);
#1058=PLANE('',#1193);
#1059=PLANE('',#1194);
#1060=PLANE('',#1195);
#1061=PLANE('',#1196);
#1062=PLANE('',#1197);
#1063=PLANE('',#1198);
#1064=PLANE('',#1199);
#1065=PLANE('',#1200);
#1066=PLANE('',#1201);
#1067=PLANE('',#1202);
#1068=PLANE('',#1203);
#1069=PLANE('',#1204);
#1070=PLANE('',#1205);
#1071=PLANE('',#1206);
#1072=PLANE('',#1207);
#1073=PLANE('',#1208);
#1074=PLANE('',#1209);
#1075=PLANE('',#1210);
#1076=PLANE('',#1211);
#1077=PLANE('',#1212);
#1078=PLANE('',#1213);
#1079=PLANE('',#1214);
#1080=PLANE('',#1215);
#1081=PLANE('',#1216);
#1082=PLANE('',#1217);
#1083=PLANE('',#1218);
#1084=PLANE('',#1219);
#1085=PLANE('',#1220);
#1086=PLANE('',#1221);
#1087=PLANE('',#1222);
#1088=PLANE('',#1223);
#1089=PLANE('',#1224);
#1090=PLANE('',#1225);
#1091=PLANE('',#1226);
#1092=PLANE('',#1227);
#1093=PLANE('',#1228);
#1094=PLANE('',#1229);
#1095=PLANE('',#1230);
#1096=PLANE('',#1231);
#1097=PLANE('',#1234);
#1098=PLANE('',#1237);
#1099=PLANE('',#1238);
#1100=PLANE('',#1244);
#1101=PLANE('',#1245);
#1102=PLANE('',#1249);
#1103=PLANE('',#1253);
#1104=PLANE('',#1257);
#1105=PLANE('',#1261);
#1106=PLANE('',#1262);
#1107=PLANE('',#1263);
#1108=PLANE('',#1267);
#1109=PLANE('',#1271);
#1110=PLANE('',#1275);
#1111=PLANE('',#1279);
#1112=PLANE('',#1280);
#1113=PLANE('',#1281);
#1114=ADVANCED_FACE('',(#71),#1056,.T.);
#1115=ADVANCED_FACE('',(#72),#1057,.T.);
#1116=ADVANCED_FACE('',(#73),#1058,.T.);
#1117=ADVANCED_FACE('',(#74),#1059,.T.);
#1118=ADVANCED_FACE('',(#75),#1060,.T.);
#1119=ADVANCED_FACE('',(#76),#1061,.T.);
#1120=ADVANCED_FACE('',(#77),#1062,.T.);
#1121=ADVANCED_FACE('',(#78),#1063,.T.);
#1122=ADVANCED_FACE('',(#79),#1064,.T.);
#1123=ADVANCED_FACE('',(#80),#1065,.T.);
#1124=ADVANCED_FACE('',(#81),#1066,.T.);
#1125=ADVANCED_FACE('',(#82),#1067,.T.);
#1126=ADVANCED_FACE('',(#83),#1068,.F.);
#1127=ADVANCED_FACE('',(#84),#1069,.T.);
#1128=ADVANCED_FACE('',(#85),#1070,.T.);
#1129=ADVANCED_FACE('',(#86),#1071,.T.);
#1130=ADVANCED_FACE('',(#87),#1072,.T.);
#1131=ADVANCED_FACE('',(#88),#1073,.T.);
#1132=ADVANCED_FACE('',(#89),#1074,.T.);
#1133=ADVANCED_FACE('',(#90),#1075,.T.);
#1134=ADVANCED_FACE('',(#91),#1076,.T.);
#1135=ADVANCED_FACE('',(#92),#1077,.T.);
#1136=ADVANCED_FACE('',(#93),#1078,.T.);
#1137=ADVANCED_FACE('',(#94),#1079,.T.);
#1138=ADVANCED_FACE('',(#95),#1080,.T.);
#1139=ADVANCED_FACE('',(#96),#1081,.T.);
#1140=ADVANCED_FACE('',(#97),#1082,.F.);
#1141=ADVANCED_FACE('',(#98),#1083,.T.);
#1142=ADVANCED_FACE('',(#99),#1084,.T.);
#1143=ADVANCED_FACE('',(#100),#1085,.T.);
#1144=ADVANCED_FACE('',(#101),#1086,.T.);
#1145=ADVANCED_FACE('',(#102),#1087,.T.);
#1146=ADVANCED_FACE('',(#103),#1088,.F.);
#1147=ADVANCED_FACE('',(#104),#1089,.T.);
#1148=ADVANCED_FACE('',(#105),#1090,.T.);
#1149=ADVANCED_FACE('',(#106),#1091,.T.);
#1150=ADVANCED_FACE('',(#107),#1092,.T.);
#1151=ADVANCED_FACE('',(#108),#1093,.T.);
#1152=ADVANCED_FACE('',(#109),#1094,.F.);
#1153=ADVANCED_FACE('',(#110),#1095,.T.);
#1154=ADVANCED_FACE('',(#111),#1096,.T.);
#1155=ADVANCED_FACE('',(#112),#1097,.F.);
#1156=ADVANCED_FACE('',(#113),#1098,.T.);
#1157=ADVANCED_FACE('',(#114),#1099,.T.);
#1158=ADVANCED_FACE('',(#115,#24),#27,.F.);
#1159=ADVANCED_FACE('',(#116,#25),#15,.T.);
#1160=ADVANCED_FACE('',(#117,#26),#28,.F.);
#1161=ADVANCED_FACE('',(#118),#1100,.T.);
#1162=ADVANCED_FACE('',(#119),#1101,.T.);
#1163=ADVANCED_FACE('',(#120),#16,.T.);
#1164=ADVANCED_FACE('',(#121),#1102,.T.);
#1165=ADVANCED_FACE('',(#122),#17,.T.);
#1166=ADVANCED_FACE('',(#123),#1103,.T.);
#1167=ADVANCED_FACE('',(#124),#18,.T.);
#1168=ADVANCED_FACE('',(#125),#1104,.T.);
#1169=ADVANCED_FACE('',(#126),#19,.T.);
#1170=ADVANCED_FACE('',(#127),#1105,.T.);
#1171=ADVANCED_FACE('',(#128),#1106,.F.);
#1172=ADVANCED_FACE('',(#129),#1107,.T.);
#1173=ADVANCED_FACE('',(#130),#20,.T.);
#1174=ADVANCED_FACE('',(#131),#1108,.T.);
#1175=ADVANCED_FACE('',(#132),#21,.T.);
#1176=ADVANCED_FACE('',(#133),#1109,.T.);
#1177=ADVANCED_FACE('',(#134),#22,.T.);
#1178=ADVANCED_FACE('',(#135),#1110,.T.);
#1179=ADVANCED_FACE('',(#136),#23,.T.);
#1180=ADVANCED_FACE('',(#137),#1111,.T.);
#1181=ADVANCED_FACE('',(#138),#1112,.F.);
#1182=ADVANCED_FACE('',(#139),#1113,.T.);
#1183=CLOSED_SHELL('',(#1114,#1115,#1116,#1117,#1118,#1119,#1120,#1121,
#1122,#1123,#1124,#1125,#1126,#1127));
#1184=CLOSED_SHELL('',(#1128,#1129,#1130,#1131,#1132,#1133,#1134,#1135,
#1136,#1137,#1138,#1139,#1140,#1141));
#1185=CLOSED_SHELL('',(#1142,#1143,#1144,#1145,#1146,#1147));
#1186=CLOSED_SHELL('',(#1148,#1149,#1150,#1151,#1152,#1153));
#1187=CLOSED_SHELL('',(#1154,#1155,#1156,#1157,#1158,#1159,#1160,#1161,
#1162));
#1188=CLOSED_SHELL('',(#1163,#1164,#1165,#1166,#1167,#1168,#1169,#1170,
#1171,#1172));
#1189=CLOSED_SHELL('',(#1173,#1174,#1175,#1176,#1177,#1178,#1179,#1180,
#1181,#1182));
#1190=AXIS2_PLACEMENT_3D('placement',#1598,#1282,#1283);
#1191=AXIS2_PLACEMENT_3D('',#1599,#1284,#1285);
#1192=AXIS2_PLACEMENT_3D('',#1608,#1290,#1291);
#1193=AXIS2_PLACEMENT_3D('',#1614,#1295,#1296);
#1194=AXIS2_PLACEMENT_3D('',#1620,#1300,#1301);
#1195=AXIS2_PLACEMENT_3D('',#1626,#1305,#1306);
#1196=AXIS2_PLACEMENT_3D('',#1632,#1310,#1311);
#1197=AXIS2_PLACEMENT_3D('',#1638,#1315,#1316);
#1198=AXIS2_PLACEMENT_3D('',#1644,#1320,#1321);
#1199=AXIS2_PLACEMENT_3D('',#1650,#1325,#1326);
#1200=AXIS2_PLACEMENT_3D('',#1656,#1330,#1331);
#1201=AXIS2_PLACEMENT_3D('',#1662,#1335,#1336);
#1202=AXIS2_PLACEMENT_3D('',#1668,#1340,#1341);
#1203=AXIS2_PLACEMENT_3D('',#1671,#1344,#1345);
#1204=AXIS2_PLACEMENT_3D('',#1672,#1346,#1347);
#1205=AXIS2_PLACEMENT_3D('',#1673,#1348,#1349);
#1206=AXIS2_PLACEMENT_3D('',#1682,#1354,#1355);
#1207=AXIS2_PLACEMENT_3D('',#1688,#1359,#1360);
#1208=AXIS2_PLACEMENT_3D('',#1694,#1364,#1365);
#1209=AXIS2_PLACEMENT_3D('',#1700,#1369,#1370);
#1210=AXIS2_PLACEMENT_3D('',#1706,#1374,#1375);
#1211=AXIS2_PLACEMENT_3D('',#1712,#1379,#1380);
#1212=AXIS2_PLACEMENT_3D('',#1718,#1384,#1385);
#1213=AXIS2_PLACEMENT_3D('',#1724,#1389,#1390);
#1214=AXIS2_PLACEMENT_3D('',#1730,#1394,#1395);
#1215=AXIS2_PLACEMENT_3D('',#1736,#1399,#1400);
#1216=AXIS2_PLACEMENT_3D('',#1742,#1404,#1405);
#1217=AXIS2_PLACEMENT_3D('',#1745,#1408,#1409);
#1218=AXIS2_PLACEMENT_3D('',#1746,#1410,#1411);
#1219=AXIS2_PLACEMENT_3D('',#1747,#1412,#1413);
#1220=AXIS2_PLACEMENT_3D('',#1756,#1418,#1419);
#1221=AXIS2_PLACEMENT_3D('',#1762,#1423,#1424);
#1222=AXIS2_PLACEMENT_3D('',#1768,#1428,#1429);
#1223=AXIS2_PLACEMENT_3D('',#1771,#1432,#1433);
#1224=AXIS2_PLACEMENT_3D('',#1772,#1434,#1435);
#1225=AXIS2_PLACEMENT_3D('',#1773,#1436,#1437);
#1226=AXIS2_PLACEMENT_3D('',#1782,#1442,#1443);
#1227=AXIS2_PLACEMENT_3D('',#1788,#1447,#1448);
#1228=AXIS2_PLACEMENT_3D('',#1794,#1452,#1453);
#1229=AXIS2_PLACEMENT_3D('',#1797,#1456,#1457);
#1230=AXIS2_PLACEMENT_3D('',#1798,#1458,#1459);
#1231=AXIS2_PLACEMENT_3D('',#1799,#1460,#1461);
#1232=AXIS2_PLACEMENT_3D('',#1802,#1462,#1463);
#1233=AXIS2_PLACEMENT_3D('',#1806,#1465,#1466);
#1234=AXIS2_PLACEMENT_3D('',#1808,#1468,#1469);
#1235=AXIS2_PLACEMENT_3D('',#1811,#1470,#1471);
#1236=AXIS2_PLACEMENT_3D('',#1815,#1473,#1474);
#1237=AXIS2_PLACEMENT_3D('',#1817,#1476,#1477);
#1238=AXIS2_PLACEMENT_3D('',#1828,#1478,#1479);
#1239=AXIS2_PLACEMENT_3D('',#1839,#1480,#1481);
#1240=AXIS2_PLACEMENT_3D('',#1841,#1482,#1483);
#1241=AXIS2_PLACEMENT_3D('',#1852,#1484,#1485);
#1242=AXIS2_PLACEMENT_3D('',#1854,#1486,#1487);
#1243=AXIS2_PLACEMENT_3D('',#1855,#1488,#1489);
#1244=AXIS2_PLACEMENT_3D('',#1866,#1490,#1491);
#1245=AXIS2_PLACEMENT_3D('',#1867,#1492,#1493);
#1246=AXIS2_PLACEMENT_3D('',#1868,#1494,#1495);
#1247=AXIS2_PLACEMENT_3D('',#1871,#1496,#1497);
#1248=AXIS2_PLACEMENT_3D('',#1875,#1499,#1500);
#1249=AXIS2_PLACEMENT_3D('',#1877,#1502,#1503);
#1250=AXIS2_PLACEMENT_3D('',#1883,#1507,#1508);
#1251=AXIS2_PLACEMENT_3D('',#1885,#1509,#1510);
#1252=AXIS2_PLACEMENT_3D('',#1887,#1511,#1512);
#1253=AXIS2_PLACEMENT_3D('',#1889,#1514,#1515);
#1254=AXIS2_PLACEMENT_3D('',#1895,#1519,#1520);
#1255=AXIS2_PLACEMENT_3D('',#1897,#1521,#1522);
#1256=AXIS2_PLACEMENT_3D('',#1899,#1523,#1524);
#1257=AXIS2_PLACEMENT_3D('',#1901,#1526,#1527);
#1258=AXIS2_PLACEMENT_3D('',#1907,#1531,#1532);
#1259=AXIS2_PLACEMENT_3D('',#1909,#1533,#1534);
#1260=AXIS2_PLACEMENT_3D('',#1911,#1535,#1536);
#1261=AXIS2_PLACEMENT_3D('',#1913,#1538,#1539);
#1262=AXIS2_PLACEMENT_3D('',#1916,#1542,#1543);
#1263=AXIS2_PLACEMENT_3D('',#1917,#1544,#1545);
#1264=AXIS2_PLACEMENT_3D('',#1918,#1546,#1547);
#1265=AXIS2_PLACEMENT_3D('',#1921,#1548,#1549);
#1266=AXIS2_PLACEMENT_3D('',#1925,#1551,#1552);
#1267=AXIS2_PLACEMENT_3D('',#1927,#1554,#1555);
#1268=AXIS2_PLACEMENT_3D('',#1933,#1559,#1560);
#1269=AXIS2_PLACEMENT_3D('',#1935,#1561,#1562);
#1270=AXIS2_PLACEMENT_3D('',#1937,#1563,#1564);
#1271=AXIS2_PLACEMENT_3D('',#1939,#1566,#1567);
#1272=AXIS2_PLACEMENT_3D('',#1945,#1571,#1572);
#1273=AXIS2_PLACEMENT_3D('',#1947,#1573,#1574);
#1274=AXIS2_PLACEMENT_3D('',#1949,#1575,#1576);
#1275=AXIS2_PLACEMENT_3D('',#1951,#1578,#1579);
#1276=AXIS2_PLACEMENT_3D('',#1957,#1583,#1584);
#1277=AXIS2_PLACEMENT_3D('',#1959,#1585,#1586);
#1278=AXIS2_PLACEMENT_3D('',#1961,#1587,#1588);
#1279=AXIS2_PLACEMENT_3D('',#1963,#1590,#1591);
#1280=AXIS2_PLACEMENT_3D('',#1966,#1594,#1595);
#1281=AXIS2_PLACEMENT_3D('',#1967,#1596,#1597);
#1282=DIRECTION('axis',(0.,0.,1.));
#1283=DIRECTION('refdir',(1.,0.,0.));
#1284=DIRECTION('center_axis',(-1.,0.,0.));
#1285=DIRECTION('ref_axis',(0.,-1.,0.));
#1286=DIRECTION('',(0.,1.,0.));
#1287=DIRECTION('',(0.,0.,1.));
#1288=DIRECTION('',(0.,-1.,0.));
#1289=DIRECTION('',(0.,0.,1.));
#1290=DIRECTION('center_axis',(0.,1.,0.));
#1291=DIRECTION('ref_axis',(-1.,0.,0.));
#1292=DIRECTION('',(1.,0.,0.));
#1293=DIRECTION('',(-1.,0.,0.));
#1294=DIRECTION('',(0.,0.,1.));
#1295=DIRECTION('center_axis',(1.,0.,0.));
#1296=DIRECTION('ref_axis',(0.,1.,0.));
#1297=DIRECTION('',(0.,-1.,0.));
#1298=DIRECTION('',(0.,1.,0.));
#1299=DIRECTION('',(0.,0.,1.));
#1300=DIRECTION('center_axis',(3.62703786583822E-16,1.,0.));
#1301=DIRECTION('ref_axis',(-1.,4.44089209850063E-16,0.));
#1302=DIRECTION('',(1.,-3.62703786583822E-16,0.));
#1303=DIRECTION('',(-1.,3.62703786583822E-16,0.));
#1304=DIRECTION('',(0.,0.,1.));
#1305=DIRECTION('center_axis',(-1.,-4.57883886358554E-16,0.));
#1306=DIRECTION('ref_axis',(4.44089209850063E-16,-1.,0.));
#1307=DIRECTION('',(-4.57883886358554E-16,1.,0.));
#1308=DIRECTION('',(4.57883886358554E-16,-1.,0.));
#1309=DIRECTION('',(0.,0.,1.));
#1310=DIRECTION('center_axis',(0.,1.,0.));
#1311=DIRECTION('ref_axis',(-1.,0.,0.));
#1312=DIRECTION('',(1.,0.,0.));
#1313=DIRECTION('',(-1.,0.,0.));
#1314=DIRECTION('',(0.,0.,1.));
#1315=DIRECTION('center_axis',(1.,0.,0.));
#1316=DIRECTION('ref_axis',(0.,1.,0.));
#1317=DIRECTION('',(0.,-1.,0.));
#1318=DIRECTION('',(0.,1.,0.));
#1319=DIRECTION('',(0.,0.,1.));
#1320=DIRECTION('center_axis',(0.,-1.,0.));
#1321=DIRECTION('ref_axis',(1.,0.,0.));
#1322=DIRECTION('',(-1.,0.,0.));
#1323=DIRECTION('',(1.,0.,0.));
#1324=DIRECTION('',(0.,0.,1.));
#1325=DIRECTION('center_axis',(-1.,-4.57883886358554E-16,0.));
#1326=DIRECTION('ref_axis',(4.44089209850063E-16,-1.,0.));
#1327=DIRECTION('',(-4.57883886358554E-16,1.,0.));
#1328=DIRECTION('',(4.57883886358554E-16,-1.,0.));
#1329=DIRECTION('',(0.,0.,1.));
#1330=DIRECTION('center_axis',(0.,-1.,0.));
#1331=DIRECTION('ref_axis',(1.,0.,0.));
#1332=DIRECTION('',(-1.,0.,0.));
#1333=DIRECTION('',(1.,0.,0.));
#1334=DIRECTION('',(0.,0.,1.));
#1335=DIRECTION('center_axis',(1.,0.,0.));
#1336=DIRECTION('ref_axis',(0.,1.,0.));
#1337=DIRECTION('',(0.,-1.,0.));
#1338=DIRECTION('',(0.,1.,0.));
#1339=DIRECTION('',(0.,0.,1.));
#1340=DIRECTION('center_axis',(0.,-1.,0.));
#1341=DIRECTION('ref_axis',(1.,0.,0.));
#1342=DIRECTION('',(-1.,0.,0.));
#1343=DIRECTION('',(1.,0.,0.));
#1344=DIRECTION('center_axis',(0.,0.,1.));
#1345=DIRECTION('ref_axis',(1.,0.,0.));
#1346=DIRECTION('center_axis',(0.,0.,1.));
#1347=DIRECTION('ref_axis',(1.,0.,0.));
#1348=DIRECTION('center_axis',(1.,0.,0.));
#1349=DIRECTION('ref_axis',(0.,1.,0.));
#1350=DIRECTION('',(0.,-1.,0.));
#1351=DIRECTION('',(0.,0.,1.));
#1352=DIRECTION('',(0.,1.,0.));
#1353=DIRECTION('',(0.,0.,1.));
#1354=DIRECTION('center_axis',(0.,-1.,0.));
#1355=DIRECTION('ref_axis',(1.,0.,0.));
#1356=DIRECTION('',(-1.,0.,0.));
#1357=DIRECTION('',(1.,0.,0.));
#1358=DIRECTION('',(0.,0.,1.));
#1359=DIRECTION('center_axis',(-1.,0.,0.));
#1360=DIRECTION('ref_axis',(0.,-1.,0.));
#1361=DIRECTION('',(0.,1.,0.));
#1362=DIRECTION('',(0.,-1.,0.));
#1363=DIRECTION('',(0.,0.,1.));
#1364=DIRECTION('center_axis',(-7.25407573167645E-16,-1.,0.));
#1365=DIRECTION('ref_axis',(1.,-8.88178419700125E-16,0.));
#1366=DIRECTION('',(-1.,7.25407573167645E-16,0.));
#1367=DIRECTION('',(1.,-7.25407573167645E-16,0.));
#1368=DIRECTION('',(0.,0.,1.));
#1369=DIRECTION('center_axis',(1.,0.,0.));
#1370=DIRECTION('ref_axis',(0.,1.,0.));
#1371=DIRECTION('',(0.,-1.,0.));
#1372=DIRECTION('',(0.,1.,0.));
#1373=DIRECTION('',(0.,0.,1.));
#1374=DIRECTION('center_axis',(0.,-1.,0.));
#1375=DIRECTION('ref_axis',(1.,0.,0.));
#1376=DIRECTION('',(-1.,0.,0.));
#1377=DIRECTION('',(1.,0.,0.));
#1378=DIRECTION('',(0.,0.,1.));
#1379=DIRECTION('center_axis',(-1.,0.,0.));
#1380=DIRECTION('ref_axis',(0.,-1.,0.));
#1381=DIRECTION('',(0.,1.,0.));
#1382=DIRECTION('',(0.,-1.,0.));
#1383=DIRECTION('',(0.,0.,1.));
#1384=DIRECTION('center_axis',(0.,1.,0.));
#1385=DIRECTION('ref_axis',(-1.,0.,0.));
#1386=DIRECTION('',(1.,0.,0.));
#1387=DIRECTION('',(-1.,0.,0.));
#1388=DIRECTION('',(0.,0.,1.));
#1389=DIRECTION('center_axis',(1.,0.,0.));
#1390=DIRECTION('ref_axis',(0.,1.,0.));
#1391=DIRECTION('',(0.,-1.,0.));
#1392=DIRECTION('',(0.,1.,0.));
#1393=DIRECTION('',(0.,0.,1.));
#1394=DIRECTION('center_axis',(0.,1.,0.));
#1395=DIRECTION('ref_axis',(-1.,0.,0.));
#1396=DIRECTION('',(1.,0.,0.));
#1397=DIRECTION('',(-1.,0.,0.));
#1398=DIRECTION('',(0.,0.,1.));
#1399=DIRECTION('center_axis',(-1.,0.,0.));
#1400=DIRECTION('ref_axis',(0.,-1.,0.));
#1401=DIRECTION('',(0.,1.,0.));
#1402=DIRECTION('',(0.,-1.,0.));
#1403=DIRECTION('',(0.,0.,1.));
#1404=DIRECTION('center_axis',(0.,1.,0.));
#1405=DIRECTION('ref_axis',(-1.,0.,0.));
#1406=DIRECTION('',(1.,0.,0.));
#1407=DIRECTION('',(-1.,0.,0.));
#1408=DIRECTION('center_axis',(0.,0.,1.));
#1409=DIRECTION('ref_axis',(1.,0.,0.));
#1410=DIRECTION('center_axis',(0.,0.,1.));
#1411=DIRECTION('ref_axis',(1.,0.,0.));
#1412=DIRECTION('center_axis',(1.,0.,0.));
#1413=DIRECTION('ref_axis',(0.,1.,0.));
#1414=DIRECTION('',(0.,-1.,0.));
#1415=DIRECTION('',(0.,0.,1.));
#1416=DIRECTION('',(0.,1.,0.));
#1417=DIRECTION('',(0.,0.,1.));
#1418=DIRECTION('center_axis',(0.,-1.,0.));
#1419=DIRECTION('ref_axis',(1.,0.,0.));
#1420=DIRECTION('',(-1.,0.,0.));
#1421=DIRECTION('',(1.,0.,0.));
#1422=DIRECTION('',(0.,0.,1.));
#1423=DIRECTION('center_axis',(-1.,8.3790416952842E-17,0.));
#1424=DIRECTION('ref_axis',(0.,-1.,0.));
#1425=DIRECTION('',(8.3790416952842E-17,1.,0.));
#1426=DIRECTION('',(-8.3790416952842E-17,-1.,0.));
#1427=DIRECTION('',(0.,0.,1.));
#1428=DIRECTION('center_axis',(0.,1.,0.));
#1429=DIRECTION('ref_axis',(-1.,0.,0.));
#1430=DIRECTION('',(1.,0.,0.));
#1431=DIRECTION('',(-1.,0.,0.));
#1432=DIRECTION('center_axis',(0.,0.,1.));
#1433=DIRECTION('ref_axis',(1.,0.,0.));
#1434=DIRECTION('center_axis',(0.,0.,1.));
#1435=DIRECTION('ref_axis',(1.,0.,0.));
#1436=DIRECTION('center_axis',(1.,0.,0.));
#1437=DIRECTION('ref_axis',(0.,1.,0.));
#1438=DIRECTION('',(0.,-1.,0.));
#1439=DIRECTION('',(0.,0.,1.));
#1440=DIRECTION('',(0.,1.,0.));
#1441=DIRECTION('',(0.,0.,1.));
#1442=DIRECTION('center_axis',(0.,-1.,0.));
#1443=DIRECTION('ref_axis',(1.,0.,0.));
#1444=DIRECTION('',(-1.,0.,0.));
#1445=DIRECTION('',(1.,0.,0.));
#1446=DIRECTION('',(0.,0.,1.));
#1447=DIRECTION('center_axis',(-1.,8.3790416952842E-17,0.));
#1448=DIRECTION('ref_axis',(0.,-1.,0.));
#1449=DIRECTION('',(8.3790416952842E-17,1.,0.));
#1450=DIRECTION('',(-8.3790416952842E-17,-1.,0.));
#1451=DIRECTION('',(0.,0.,1.));
#1452=DIRECTION('center_axis',(0.,1.,0.));
#1453=DIRECTION('ref_axis',(-1.,0.,0.));
#1454=DIRECTION('',(1.,0.,0.));
#1455=DIRECTION('',(-1.,0.,0.));
#1456=DIRECTION('center_axis',(0.,0.,1.));
#1457=DIRECTION('ref_axis',(1.,0.,0.));
#1458=DIRECTION('center_axis',(0.,0.,1.));
#1459=DIRECTION('ref_axis',(1.,0.,0.));
#1460=DIRECTION('center_axis',(0.,0.,1.));
#1461=DIRECTION('ref_axis',(1.,0.,0.));
#1462=DIRECTION('center_axis',(0.,0.,-1.));
#1463=DIRECTION('ref_axis',(1.22464679914735E-16,1.,0.));
#1464=DIRECTION('',(0.,1.,0.));
#1465=DIRECTION('center_axis',(0.,0.,-1.));
#1466=DIRECTION('ref_axis',(1.22464679914735E-16,1.,0.));
#1467=DIRECTION('',(0.,-1.,0.));
#1468=DIRECTION('center_axis',(0.,0.,1.));
#1469=DIRECTION('ref_axis',(1.,0.,0.));
#1470=DIRECTION('center_axis',(0.,0.,1.));
#1471=DIRECTION('ref_axis',(-1.22464679914735E-16,1.,0.));
#1472=DIRECTION('',(0.,1.,0.));
#1473=DIRECTION('center_axis',(0.,0.,1.));
#1474=DIRECTION('ref_axis',(-1.22464679914735E-16,1.,0.));
#1475=DIRECTION('',(0.,-1.,0.));
#1476=DIRECTION('center_axis',(1.,0.,0.));
#1477=DIRECTION('ref_axis',(0.,-1.,0.));
#1478=DIRECTION('center_axis',(-1.,0.,0.));
#1479=DIRECTION('ref_axis',(0.,-1.,0.));
#1480=DIRECTION('center_axis',(0.,0.,1.));
#1481=DIRECTION('ref_axis',(0.,-1.,0.));
#1482=DIRECTION('center_axis',(0.,0.,1.));
#1483=DIRECTION('ref_axis',(1.22464679914735E-16,1.,0.));
#1484=DIRECTION('center_axis',(0.,0.,1.));
#1485=DIRECTION('ref_axis',(0.,-1.,0.));
#1486=DIRECTION('center_axis',(0.,0.,-1.));
#1487=DIRECTION('ref_axis',(-1.22464679914735E-16,1.,0.));
#1488=DIRECTION('center_axis',(0.,0.,-1.));
#1489=DIRECTION('ref_axis',(0.,1.,0.));
#1490=DIRECTION('center_axis',(1.,0.,0.));
#1491=DIRECTION('ref_axis',(0.,1.,0.));
#1492=DIRECTION('center_axis',(-1.,0.,0.));
#1493=DIRECTION('ref_axis',(0.,1.,0.));
#1494=DIRECTION('center_axis',(0.,0.,1.));
#1495=DIRECTION('ref_axis',(-0.397953981782729,-0.917405378435984,0.));
#1496=DIRECTION('center_axis',(0.,0.,-1.));
#1497=DIRECTION('ref_axis',(-0.397953981782729,-0.917405378435984,0.));
#1498=DIRECTION('',(0.,0.,1.));
#1499=DIRECTION('center_axis',(0.,0.,1.));
#1500=DIRECTION('ref_axis',(-0.397953981782729,-0.917405378435984,0.));
#1501=DIRECTION('',(0.,0.,1.));
#1502=DIRECTION('center_axis',(-1.,0.,0.));
#1503=DIRECTION('ref_axis',(0.,-1.,0.));
#1504=DIRECTION('',(0.,1.,0.));
#1505=DIRECTION('',(0.,-1.,0.));
#1506=DIRECTION('',(0.,0.,1.));
#1507=DIRECTION('center_axis',(0.,0.,1.));
#1508=DIRECTION('ref_axis',(-0.940807972489821,0.338940052073507,0.));
#1509=DIRECTION('center_axis',(0.,0.,-1.));
#1510=DIRECTION('ref_axis',(-0.940807972489821,0.338940052073507,0.));
#1511=DIRECTION('center_axis',(0.,0.,1.));
#1512=DIRECTION('ref_axis',(-0.940807972489821,0.338940052073507,0.));
#1513=DIRECTION('',(0.,0.,1.));
#1514=DIRECTION('center_axis',(0.,1.,0.));
#1515=DIRECTION('ref_axis',(-1.,0.,0.));
#1516=DIRECTION('',(1.,0.,0.));
#1517=DIRECTION('',(-1.,0.,0.));
#1518=DIRECTION('',(0.,0.,1.));
#1519=DIRECTION('center_axis',(0.,0.,1.));
#1520=DIRECTION('ref_axis',(0.397953981782729,0.917405378435984,0.));
#1521=DIRECTION('center_axis',(0.,0.,-1.));
#1522=DIRECTION('ref_axis',(0.397953981782729,0.917405378435984,0.));
#1523=DIRECTION('center_axis',(0.,0.,1.));
#1524=DIRECTION('ref_axis',(0.397953981782729,0.917405378435984,0.));
#1525=DIRECTION('',(0.,0.,1.));
#1526=DIRECTION('center_axis',(1.,0.,0.));
#1527=DIRECTION('ref_axis',(0.,1.,0.));
#1528=DIRECTION('',(0.,-1.,0.));
#1529=DIRECTION('',(0.,1.,0.));
#1530=DIRECTION('',(0.,0.,1.));
#1531=DIRECTION('center_axis',(0.,0.,1.));
#1532=DIRECTION('ref_axis',(0.940807972489821,-0.338940052073507,0.));
#1533=DIRECTION('center_axis',(0.,0.,-1.));
#1534=DIRECTION('ref_axis',(0.940807972489821,-0.338940052073507,0.));
#1535=DIRECTION('center_axis',(0.,0.,1.));
#1536=DIRECTION('ref_axis',(0.940807972489821,-0.338940052073507,0.));
#1537=DIRECTION('',(0.,0.,1.));
#1538=DIRECTION('center_axis',(1.45544359973929E-16,-1.,0.));
#1539=DIRECTION('ref_axis',(1.,0.,0.));
#1540=DIRECTION('',(-1.,-1.45544359973929E-16,0.));
#1541=DIRECTION('',(1.,1.45544359973929E-16,0.));
#1542=DIRECTION('center_axis',(0.,0.,1.));
#1543=DIRECTION('ref_axis',(1.,0.,0.));
#1544=DIRECTION('center_axis',(0.,0.,1.));
#1545=DIRECTION('ref_axis',(1.,0.,0.));
#1546=DIRECTION('center_axis',(0.,0.,-1.));
#1547=DIRECTION('ref_axis',(0.940807972489821,-0.338940052073507,0.));
#1548=DIRECTION('center_axis',(0.,0.,-1.));
#1549=DIRECTION('ref_axis',(0.940807972489821,-0.338940052073507,0.));
#1550=DIRECTION('',(0.,0.,-1.));
#1551=DIRECTION('center_axis',(0.,0.,-1.));
#1552=DIRECTION('ref_axis',(0.940807972489821,-0.338940052073507,0.));
#1553=DIRECTION('',(0.,0.,-1.));
#1554=DIRECTION('center_axis',(1.,0.,0.));
#1555=DIRECTION('ref_axis',(0.,-1.,0.));
#1556=DIRECTION('',(0.,-1.,0.));
#1557=DIRECTION('',(0.,-1.,0.));
#1558=DIRECTION('',(0.,0.,-1.));
#1559=DIRECTION('center_axis',(0.,0.,-1.));
#1560=DIRECTION('ref_axis',(0.397953981782729,0.917405378435984,0.));
#1561=DIRECTION('center_axis',(0.,0.,-1.));
#1562=DIRECTION('ref_axis',(0.397953981782729,0.917405378435984,0.));
#1563=DIRECTION('center_axis',(0.,0.,-1.));
#1564=DIRECTION('ref_axis',(0.397953981782729,0.917405378435984,0.));
#1565=DIRECTION('',(0.,0.,-1.));
#1566=DIRECTION('center_axis',(0.,1.,0.));
#1567=DIRECTION('ref_axis',(1.,0.,0.));
#1568=DIRECTION('',(1.,0.,0.));
#1569=DIRECTION('',(1.,0.,0.));
#1570=DIRECTION('',(0.,0.,-1.));
#1571=DIRECTION('center_axis',(0.,0.,-1.));
#1572=DIRECTION('ref_axis',(-0.940807972489821,0.338940052073507,0.));
#1573=DIRECTION('center_axis',(0.,0.,-1.));
#1574=DIRECTION('ref_axis',(-0.940807972489821,0.338940052073507,0.));
#1575=DIRECTION('center_axis',(0.,0.,-1.));
#1576=DIRECTION('ref_axis',(-0.940807972489821,0.338940052073507,0.));
#1577=DIRECTION('',(0.,0.,-1.));
#1578=DIRECTION('center_axis',(-1.,0.,0.));
#1579=DIRECTION('ref_axis',(0.,1.,0.));
#1580=DIRECTION('',(0.,1.,0.));
#1581=DIRECTION('',(0.,1.,0.));
#1582=DIRECTION('',(0.,0.,-1.));
#1583=DIRECTION('center_axis',(0.,0.,-1.));
#1584=DIRECTION('ref_axis',(-0.397953981782729,-0.917405378435984,0.));
#1585=DIRECTION('center_axis',(0.,0.,-1.));
#1586=DIRECTION('ref_axis',(-0.397953981782729,-0.917405378435984,0.));
#1587=DIRECTION('center_axis',(0.,0.,-1.));
#1588=DIRECTION('ref_axis',(-0.397953981782729,-0.917405378435984,0.));
#1589=DIRECTION('',(0.,0.,-1.));
#1590=DIRECTION('center_axis',(1.45544359973929E-16,-1.,0.));
#1591=DIRECTION('ref_axis',(-1.,0.,0.));
#1592=DIRECTION('',(-1.,-1.45544359973929E-16,0.));
#1593=DIRECTION('',(-1.,-1.45544359973929E-16,0.));
#1594=DIRECTION('center_axis',(0.,0.,1.));
#1595=DIRECTION('ref_axis',(1.,0.,0.));
#1596=DIRECTION('center_axis',(0.,0.,1.));
#1597=DIRECTION('ref_axis',(1.,0.,0.));
#1598=CARTESIAN_POINT('',(0.,0.,0.));
#1599=CARTESIAN_POINT('Origin',(-3.15,2.65,0.));
#1600=CARTESIAN_POINT('',(-3.15,-2.65,0.));
#1601=CARTESIAN_POINT('',(-3.15,2.65,0.));
#1602=CARTESIAN_POINT('',(-3.15,-2.65,0.));
#1603=CARTESIAN_POINT('',(-3.15,-2.65,0.1));
#1604=CARTESIAN_POINT('',(-3.15,-2.65,0.));
#1605=CARTESIAN_POINT('',(-3.15,2.65,0.1));
#1606=CARTESIAN_POINT('',(-3.15,-2.65,0.1));
#1607=CARTESIAN_POINT('',(-3.15,2.65,0.));
#1608=CARTESIAN_POINT('Origin',(-2.75,2.65,0.));
#1609=CARTESIAN_POINT('',(-2.75,2.65,0.));
#1610=CARTESIAN_POINT('',(-3.15,2.65,0.));
#1611=CARTESIAN_POINT('',(-2.75,2.65,0.1));
#1612=CARTESIAN_POINT('',(-3.15,2.65,0.1));
#1613=CARTESIAN_POINT('',(-2.75,2.65,0.));
#1614=CARTESIAN_POINT('Origin',(-2.75,2.16506350946109,0.));
#1615=CARTESIAN_POINT('',(-2.75,2.16506350946109,0.));
#1616=CARTESIAN_POINT('',(-2.75,2.65,0.));
#1617=CARTESIAN_POINT('',(-2.75,2.1650635094611,0.1));
#1618=CARTESIAN_POINT('',(-2.75,2.65,0.1));
#1619=CARTESIAN_POINT('',(-2.75,2.16506350946109,0.));
#1620=CARTESIAN_POINT('Origin',(-1.52561463023924,2.16506350946109,0.));
#1621=CARTESIAN_POINT('',(-1.52561463023924,2.16506350946109,0.));
#1622=CARTESIAN_POINT('',(-2.75,2.16506350946109,0.));
#1623=CARTESIAN_POINT('',(-1.52561463023924,2.16506350946109,0.1));
#1624=CARTESIAN_POINT('',(-2.75,2.16506350946109,0.1));
#1625=CARTESIAN_POINT('',(-1.52561463023924,2.16506350946109,0.));
#1626=CARTESIAN_POINT('Origin',(-1.52561463023924,2.65,0.));
#1627=CARTESIAN_POINT('',(-1.52561463023924,2.65,0.));
#1628=CARTESIAN_POINT('',(-1.52561463023924,2.16506350946109,0.));
#1629=CARTESIAN_POINT('',(-1.52561463023924,2.65,0.1));
#1630=CARTESIAN_POINT('',(-1.52561463023924,2.16506350946109,0.1));
#1631=CARTESIAN_POINT('',(-1.52561463023924,2.65,0.));
#1632=CARTESIAN_POINT('Origin',(-0.6,2.65,0.));
#1633=CARTESIAN_POINT('',(-0.6,2.65,0.));
#1634=CARTESIAN_POINT('',(-1.52561463023924,2.65,0.));
#1635=CARTESIAN_POINT('',(-0.6,2.65,0.1));
#1636=CARTESIAN_POINT('',(-1.52561463023924,2.65,0.1));
#1637=CARTESIAN_POINT('',(-0.6,2.65,0.));
#1638=CARTESIAN_POINT('Origin',(-0.6,-2.65,0.));
#1639=CARTESIAN_POINT('',(-0.6,-2.65,0.));
#1640=CARTESIAN_POINT('',(-0.6,2.65,0.));
#1641=CARTESIAN_POINT('',(-0.6,-2.65,0.1));
#1642=CARTESIAN_POINT('',(-0.6,2.65,0.1));
#1643=CARTESIAN_POINT('',(-0.6,-2.65,0.));
#1644=CARTESIAN_POINT('Origin',(-1.52561463023923,-2.65,0.));
#1645=CARTESIAN_POINT('',(-1.52561463023923,-2.65,0.));
#1646=CARTESIAN_POINT('',(-0.6,-2.65,0.));
#1647=CARTESIAN_POINT('',(-1.52561463023923,-2.65,0.1));
#1648=CARTESIAN_POINT('',(-0.6,-2.65,0.1));
#1649=CARTESIAN_POINT('',(-1.52561463023923,-2.65,0.));
#1650=CARTESIAN_POINT('Origin',(-1.52561463023923,-2.1650635094611,0.));
#1651=CARTESIAN_POINT('',(-1.52561463023923,-2.1650635094611,0.));
#1652=CARTESIAN_POINT('',(-1.52561463023923,-2.65,0.));
#1653=CARTESIAN_POINT('',(-1.52561463023923,-2.1650635094611,0.1));
#1654=CARTESIAN_POINT('',(-1.52561463023923,-2.65,0.1));
#1655=CARTESIAN_POINT('',(-1.52561463023923,-2.1650635094611,0.));
#1656=CARTESIAN_POINT('Origin',(-2.75,-2.1650635094611,0.));
#1657=CARTESIAN_POINT('',(-2.75,-2.1650635094611,0.));
#1658=CARTESIAN_POINT('',(-1.52561463023923,-2.1650635094611,0.));
#1659=CARTESIAN_POINT('',(-2.75,-2.1650635094611,0.1));
#1660=CARTESIAN_POINT('',(-1.52561463023923,-2.1650635094611,0.1));
#1661=CARTESIAN_POINT('',(-2.75,-2.1650635094611,0.));
#1662=CARTESIAN_POINT('Origin',(-2.75,-2.65,0.));
#1663=CARTESIAN_POINT('',(-2.75,-2.65,0.));
#1664=CARTESIAN_POINT('',(-2.75,-2.1650635094611,0.));
#1665=CARTESIAN_POINT('',(-2.75,-2.65,0.1));
#1666=CARTESIAN_POINT('',(-2.75,-2.1650635094611,0.1));
#1667=CARTESIAN_POINT('',(-2.75,-2.65,0.));
#1668=CARTESIAN_POINT('Origin',(-3.15,-2.65,0.));
#1669=CARTESIAN_POINT('',(-2.75,-2.65,0.));
#1670=CARTESIAN_POINT('',(-2.75,-2.65,0.1));
#1671=CARTESIAN_POINT('Origin',(-1.90389947675108,-1.06681129692963E-15,
0.));
#1672=CARTESIAN_POINT('Origin',(-1.90389947675108,-8.88178419700125E-16,
0.1));
#1673=CARTESIAN_POINT('Origin',(3.15,-2.65,0.));
#1674=CARTESIAN_POINT('',(3.15,2.65,0.));
#1675=CARTESIAN_POINT('',(3.15,-2.65,0.));
#1676=CARTESIAN_POINT('',(3.15,2.65,0.));
#1677=CARTESIAN_POINT('',(3.15,2.65,0.1));
#1678=CARTESIAN_POINT('',(3.15,2.65,0.));
#1679=CARTESIAN_POINT('',(3.15,-2.65,0.1));
#1680=CARTESIAN_POINT('',(3.15,2.65,0.1));
#1681=CARTESIAN_POINT('',(3.15,-2.65,0.));
#1682=CARTESIAN_POINT('Origin',(2.75,-2.65,0.));
#1683=CARTESIAN_POINT('',(2.75,-2.65,0.));
#1684=CARTESIAN_POINT('',(3.15,-2.65,0.));
#1685=CARTESIAN_POINT('',(2.75,-2.65,0.1));
#1686=CARTESIAN_POINT('',(3.15,-2.65,0.1));
#1687=CARTESIAN_POINT('',(2.75,-2.65,0.));
#1688=CARTESIAN_POINT('Origin',(2.75,-2.1650635094611,0.));
#1689=CARTESIAN_POINT('',(2.75,-2.1650635094611,0.));
#1690=CARTESIAN_POINT('',(2.75,-2.65,0.));
#1691=CARTESIAN_POINT('',(2.75,-2.1650635094611,0.1));
#1692=CARTESIAN_POINT('',(2.75,-2.65,0.1));
#1693=CARTESIAN_POINT('',(2.75,-2.1650635094611,0.));
#1694=CARTESIAN_POINT('Origin',(1.52561463023923,-2.1650635094611,0.));
#1695=CARTESIAN_POINT('',(1.52561463023923,-2.1650635094611,0.));
#1696=CARTESIAN_POINT('',(2.75,-2.1650635094611,0.));
#1697=CARTESIAN_POINT('',(1.52561463023923,-2.1650635094611,0.1));
#1698=CARTESIAN_POINT('',(2.75,-2.1650635094611,0.1));
#1699=CARTESIAN_POINT('',(1.52561463023923,-2.1650635094611,0.));
#1700=CARTESIAN_POINT('Origin',(1.52561463023923,-2.65,0.));
#1701=CARTESIAN_POINT('',(1.52561463023923,-2.65,0.));
#1702=CARTESIAN_POINT('',(1.52561463023923,-2.1650635094611,0.));
#1703=CARTESIAN_POINT('',(1.52561463023923,-2.65,0.1));
#1704=CARTESIAN_POINT('',(1.52561463023923,-2.1650635094611,0.1));
#1705=CARTESIAN_POINT('',(1.52561463023923,-2.65,0.));
#1706=CARTESIAN_POINT('Origin',(0.599999999999998,-2.65,0.));
#1707=CARTESIAN_POINT('',(0.599999999999998,-2.65,0.));
#1708=CARTESIAN_POINT('',(1.52561463023923,-2.65,0.));
#1709=CARTESIAN_POINT('',(0.599999999999998,-2.65,0.1));
#1710=CARTESIAN_POINT('',(1.52561463023923,-2.65,0.1));
#1711=CARTESIAN_POINT('',(0.599999999999998,-2.65,0.));
#1712=CARTESIAN_POINT('Origin',(0.599999999999998,2.65,0.));
#1713=CARTESIAN_POINT('',(0.599999999999998,2.65,0.));
#1714=CARTESIAN_POINT('',(0.599999999999998,-2.65,0.));
#1715=CARTESIAN_POINT('',(0.599999999999998,2.65,0.1));
#1716=CARTESIAN_POINT('',(0.599999999999998,-2.65,0.1));
#1717=CARTESIAN_POINT('',(0.599999999999998,2.65,0.));
#1718=CARTESIAN_POINT('Origin',(1.52561463023923,2.65,0.));
#1719=CARTESIAN_POINT('',(1.52561463023923,2.65,0.));
#1720=CARTESIAN_POINT('',(0.599999999999998,2.65,0.));
#1721=CARTESIAN_POINT('',(1.52561463023923,2.65,0.1));
#1722=CARTESIAN_POINT('',(0.599999999999998,2.65,0.1));
#1723=CARTESIAN_POINT('',(1.52561463023923,2.65,0.));
#1724=CARTESIAN_POINT('Origin',(1.52561463023923,2.16506350946109,0.));
#1725=CARTESIAN_POINT('',(1.52561463023923,2.16506350946109,0.));
#1726=CARTESIAN_POINT('',(1.52561463023923,2.65,0.));
#1727=CARTESIAN_POINT('',(1.52561463023923,2.16506350946109,0.1));
#1728=CARTESIAN_POINT('',(1.52561463023923,2.65,0.1));
#1729=CARTESIAN_POINT('',(1.52561463023923,2.16506350946109,0.));
#1730=CARTESIAN_POINT('Origin',(2.75,2.16506350946109,0.));
#1731=CARTESIAN_POINT('',(2.75,2.16506350946109,0.));
#1732=CARTESIAN_POINT('',(1.52561463023923,2.16506350946109,0.));
#1733=CARTESIAN_POINT('',(2.75,2.16506350946109,0.1));
#1734=CARTESIAN_POINT('',(1.52561463023923,2.16506350946109,0.1));
#1735=CARTESIAN_POINT('',(2.75,2.16506350946109,0.));
#1736=CARTESIAN_POINT('Origin',(2.75,2.65,0.));
#1737=CARTESIAN_POINT('',(2.75,2.65,0.));
#1738=CARTESIAN_POINT('',(2.75,2.16506350946109,0.));
#1739=CARTESIAN_POINT('',(2.75,2.65,0.1));
#1740=CARTESIAN_POINT('',(2.75,2.16506350946109,0.1));
#1741=CARTESIAN_POINT('',(2.75,2.65,0.));
#1742=CARTESIAN_POINT('Origin',(3.15,2.65,0.));
#1743=CARTESIAN_POINT('',(2.75,2.65,0.));
#1744=CARTESIAN_POINT('',(2.75,2.65,0.1));
#1745=CARTESIAN_POINT('Origin',(1.90389947675108,-1.93536562717322E-15,
0.));
#1746=CARTESIAN_POINT('Origin',(1.90389947675108,-1.77635683940025E-15,
0.1));
#1747=CARTESIAN_POINT('Origin',(-3.05,-2.65,0.));
#1748=CARTESIAN_POINT('',(-3.05,2.65,0.));
#1749=CARTESIAN_POINT('',(-3.05,-2.65,0.));
#1750=CARTESIAN_POINT('',(-3.05,2.65,0.));
#1751=CARTESIAN_POINT('',(-3.05,2.65,0.5));
#1752=CARTESIAN_POINT('',(-3.05,2.65,0.));
#1753=CARTESIAN_POINT('',(-3.05,-2.65,0.5));
#1754=CARTESIAN_POINT('',(-3.05,2.65,0.5));
#1755=CARTESIAN_POINT('',(-3.05,-2.65,0.));
#1756=CARTESIAN_POINT('Origin',(-3.15,-2.65,0.));
#1757=CARTESIAN_POINT('',(-3.15,-2.65,0.));
#1758=CARTESIAN_POINT('',(-3.05,-2.65,0.));
#1759=CARTESIAN_POINT('',(-3.15,-2.65,0.5));
#1760=CARTESIAN_POINT('',(-3.05,-2.65,0.5));
#1761=CARTESIAN_POINT('',(-3.15,-2.65,0.));
#1762=CARTESIAN_POINT('Origin',(-3.15,2.65,0.));
#1763=CARTESIAN_POINT('',(-3.15,2.65,0.));
#1764=CARTESIAN_POINT('',(-3.15,-2.65,0.));
#1765=CARTESIAN_POINT('',(-3.15,2.65,0.5));
#1766=CARTESIAN_POINT('',(-3.15,-2.65,0.5));
#1767=CARTESIAN_POINT('',(-3.15,2.65,0.));
#1768=CARTESIAN_POINT('Origin',(-3.05,2.65,0.));
#1769=CARTESIAN_POINT('',(-3.15,2.65,0.));
#1770=CARTESIAN_POINT('',(-3.15,2.65,0.5));
#1771=CARTESIAN_POINT('Origin',(-3.1,-1.44020597916652E-15,0.));
#1772=CARTESIAN_POINT('Origin',(-3.1,-1.33226762955019E-15,0.5));
#1773=CARTESIAN_POINT('Origin',(3.15,-2.65,0.));
#1774=CARTESIAN_POINT('',(3.15,2.65,0.));
#1775=CARTESIAN_POINT('',(3.15,-2.65,0.));
#1776=CARTESIAN_POINT('',(3.15,2.65,0.));
#1777=CARTESIAN_POINT('',(3.15,2.65,0.5));
#1778=CARTESIAN_POINT('',(3.15,2.65,0.));
#1779=CARTESIAN_POINT('',(3.15,-2.65,0.5));
#1780=CARTESIAN_POINT('',(3.15,2.65,0.5));
#1781=CARTESIAN_POINT('',(3.15,-2.65,0.));
#1782=CARTESIAN_POINT('Origin',(3.05,-2.65,0.));
#1783=CARTESIAN_POINT('',(3.05,-2.65,0.));
#1784=CARTESIAN_POINT('',(3.15,-2.65,0.));
#1785=CARTESIAN_POINT('',(3.05,-2.65,0.5));
#1786=CARTESIAN_POINT('',(3.15,-2.65,0.5));
#1787=CARTESIAN_POINT('',(3.05,-2.65,0.));
#1788=CARTESIAN_POINT('Origin',(3.05,2.65,0.));
#1789=CARTESIAN_POINT('',(3.05,2.65,0.));
#1790=CARTESIAN_POINT('',(3.05,-2.65,0.));
#1791=CARTESIAN_POINT('',(3.05,2.65,0.5));
#1792=CARTESIAN_POINT('',(3.05,-2.65,0.5));
#1793=CARTESIAN_POINT('',(3.05,2.65,0.));
#1794=CARTESIAN_POINT('Origin',(3.15,2.65,0.));
#1795=CARTESIAN_POINT('',(3.05,2.65,0.));
#1796=CARTESIAN_POINT('',(3.05,2.65,0.5));
#1797=CARTESIAN_POINT('Origin',(3.1,-1.88429518901659E-15,0.));
#1798=CARTESIAN_POINT('Origin',(3.1,-1.77635683940025E-15,0.5));
#1799=CARTESIAN_POINT('Origin',(3.02893518398808E-15,-2.26970681085384E-15,
3.9));
#1800=CARTESIAN_POINT('',(-3.05,0.787400787401181,3.9));
#1801=CARTESIAN_POINT('',(3.05,0.787400787401181,3.9));
#1802=CARTESIAN_POINT('Origin',(-4.44089209850063E-16,-2.22044604925031E-15,
3.9));
#1803=CARTESIAN_POINT('',(-3.05,-0.787400787401185,3.9));
#1804=CARTESIAN_POINT('',(-3.05,-0.76280731511962,3.9));
#1805=CARTESIAN_POINT('',(3.05,-0.787400787401185,3.9));
#1806=CARTESIAN_POINT('Origin',(-4.44089209850063E-16,-2.22044604925031E-15,
3.9));
#1807=CARTESIAN_POINT('',(3.05,0.762807315119617,3.9));
#1808=CARTESIAN_POINT('Origin',(3.02893518398808E-15,-2.26970681085384E-15,
0.7));
#1809=CARTESIAN_POINT('',(3.05,0.787400787401181,0.7));
#1810=CARTESIAN_POINT('',(-3.05,0.787400787401181,0.7));
#1811=CARTESIAN_POINT('Origin',(-4.44089209850063E-16,-2.22044604925031E-15,
0.7));
#1812=CARTESIAN_POINT('',(3.05,-0.787400787401185,0.7));
#1813=CARTESIAN_POINT('',(3.05,-0.762807315119621,0.7));
#1814=CARTESIAN_POINT('',(-3.05,-0.787400787401185,0.7));
#1815=CARTESIAN_POINT('Origin',(-4.44089209850063E-16,-2.22044604925031E-15,
0.7));
#1816=CARTESIAN_POINT('',(-3.05,0.762807315119616,0.7));
#1817=CARTESIAN_POINT('Origin',(3.05,1.52561463023924,4.5));
#1818=CARTESIAN_POINT('Ctrl Pts',(3.05,0.787400787401181,3.9));
#1819=CARTESIAN_POINT('Ctrl Pts',(3.05,0.713328523150578,3.9));
#1820=CARTESIAN_POINT('Ctrl Pts',(3.05,0.624465782373883,3.89793559243415));
#1821=CARTESIAN_POINT('Ctrl Pts',(3.05,0.378430379061586,3.89043859556255));
#1822=CARTESIAN_POINT('Ctrl Pts',(3.05,0.172077333850097,3.88284271247462));
#1823=CARTESIAN_POINT('Ctrl Pts',(3.05,-0.172077333850102,3.88284271247462));
#1824=CARTESIAN_POINT('Ctrl Pts',(3.05,-0.37843037906159,3.89043859556255));
#1825=CARTESIAN_POINT('Ctrl Pts',(3.05,-0.624465782373887,3.89793559243415));
#1826=CARTESIAN_POINT('Ctrl Pts',(3.05,-0.713328523150582,3.9));
#1827=CARTESIAN_POINT('Ctrl Pts',(3.05,-0.787400787401185,3.9));
#1828=CARTESIAN_POINT('Origin',(-3.05,1.52561463023924,0.1));
#1829=CARTESIAN_POINT('Ctrl Pts',(-3.05,0.787400787401181,0.7));
#1830=CARTESIAN_POINT('Ctrl Pts',(-3.05,0.713328523150578,0.7));
#1831=CARTESIAN_POINT('Ctrl Pts',(-3.05,0.624465782373883,0.702064407565851));
#1832=CARTESIAN_POINT('Ctrl Pts',(-3.05,0.378430379061586,0.709561404437452));
#1833=CARTESIAN_POINT('Ctrl Pts',(-3.05,0.172077333850097,0.717157287525381));
#1834=CARTESIAN_POINT('Ctrl Pts',(-3.05,-0.172077333850102,0.717157287525381));
#1835=CARTESIAN_POINT('Ctrl Pts',(-3.05,-0.37843037906159,0.709561404437452));
#1836=CARTESIAN_POINT('Ctrl Pts',(-3.05,-0.624465782373887,0.702064407565851));
#1837=CARTESIAN_POINT('Ctrl Pts',(-3.05,-0.713328523150582,0.7));
#1838=CARTESIAN_POINT('Ctrl Pts',(-3.05,-0.787400787401185,0.7));
#1839=CARTESIAN_POINT('Origin',(-4.44089209850063E-16,-2.22044604925031E-15,
3.6));
#1840=CARTESIAN_POINT('',(-4.44089209850063E-16,-2.85,3.6));
#1841=CARTESIAN_POINT('Origin',(-4.44089209850063E-16,-2.22044604925031E-15,
3.6));
#1842=CARTESIAN_POINT('Ctrl Pts',(-3.05,-0.787400787401185,3.9));
#1843=CARTESIAN_POINT('Ctrl Pts',(-3.05,-0.713328523150582,3.9));
#1844=CARTESIAN_POINT('Ctrl Pts',(-3.05,-0.624465782373887,3.89793559243415));
#1845=CARTESIAN_POINT('Ctrl Pts',(-3.05,-0.37843037906159,3.89043859556255));
#1846=CARTESIAN_POINT('Ctrl Pts',(-3.05,-0.172077333850102,3.88284271247462));
#1847=CARTESIAN_POINT('Ctrl Pts',(-3.05,0.172077333850097,3.88284271247462));
#1848=CARTESIAN_POINT('Ctrl Pts',(-3.05,0.378430379061586,3.89043859556255));
#1849=CARTESIAN_POINT('Ctrl Pts',(-3.05,0.624465782373883,3.89793559243415));
#1850=CARTESIAN_POINT('Ctrl Pts',(-3.05,0.713328523150578,3.9));
#1851=CARTESIAN_POINT('Ctrl Pts',(-3.05,0.787400787401181,3.9));
#1852=CARTESIAN_POINT('Origin',(-4.44089209850063E-16,-2.22044604925031E-15,
2.3));
#1853=CARTESIAN_POINT('',(-4.44089209850063E-16,-2.85,1.));
#1854=CARTESIAN_POINT('Origin',(-4.44089209850063E-16,-2.22044604925031E-15,
1.));
#1855=CARTESIAN_POINT('Origin',(-4.44089209850063E-16,-2.22044604925031E-15,
1.));
#1856=CARTESIAN_POINT('Ctrl Pts',(3.05,-0.787400787401185,0.7));
#1857=CARTESIAN_POINT('Ctrl Pts',(3.05,-0.713328523150582,0.7));
#1858=CARTESIAN_POINT('Ctrl Pts',(3.05,-0.624465782373887,0.702064407565851));
#1859=CARTESIAN_POINT('Ctrl Pts',(3.05,-0.37843037906159,0.709561404437452));
#1860=CARTESIAN_POINT('Ctrl Pts',(3.05,-0.172077333850102,0.717157287525381));
#1861=CARTESIAN_POINT('Ctrl Pts',(3.05,0.172077333850097,0.717157287525381));
#1862=CARTESIAN_POINT('Ctrl Pts',(3.05,0.378430379061586,0.709561404437452));
#1863=CARTESIAN_POINT('Ctrl Pts',(3.05,0.624465782373883,0.702064407565851));
#1864=CARTESIAN_POINT('Ctrl Pts',(3.05,0.713328523150578,0.7));
#1865=CARTESIAN_POINT('Ctrl Pts',(3.05,0.787400787401181,0.7));
#1866=CARTESIAN_POINT('Origin',(3.05,-1.52561463023924,0.1));
#1867=CARTESIAN_POINT('Origin',(-3.05,-1.52561463023924,4.5));
#1868=CARTESIAN_POINT('Origin',(-0.408122195712839,-0.573838894126819,0.1));
#1869=CARTESIAN_POINT('',(-1.52561463023923,-3.15,0.1));
#1870=CARTESIAN_POINT('',(-3.05,-1.52561463023924,0.1));
#1871=CARTESIAN_POINT('Origin',(-0.408122195712839,-0.573838894126819,0.1));
#1872=CARTESIAN_POINT('',(-1.52561463023923,-3.15,0.7));
#1873=CARTESIAN_POINT('',(-1.52561463023923,-3.15,0.1));
#1874=CARTESIAN_POINT('',(-3.05,-1.52561463023924,0.7));
#1875=CARTESIAN_POINT('Origin',(-0.408122195712839,-0.573838894126819,0.7));
#1876=CARTESIAN_POINT('',(-3.05,-1.52561463023924,0.1));
#1877=CARTESIAN_POINT('Origin',(-3.05,1.52561463023924,0.1));
#1878=CARTESIAN_POINT('',(-3.05,1.52561463023924,0.1));
#1879=CARTESIAN_POINT('',(-3.05,-1.52561463023924,0.1));
#1880=CARTESIAN_POINT('',(-3.05,1.52561463023924,0.7));
#1881=CARTESIAN_POINT('',(-3.05,-1.52561463023924,0.7));
#1882=CARTESIAN_POINT('',(-3.05,1.52561463023924,0.1));
#1883=CARTESIAN_POINT('Origin',(-0.408122195712841,0.573838894126817,0.1));
#1884=CARTESIAN_POINT('',(-1.52561463023923,3.15,0.1));
#1885=CARTESIAN_POINT('Origin',(-0.408122195712841,0.573838894126817,0.1));
#1886=CARTESIAN_POINT('',(-1.52561463023923,3.15,0.7));
#1887=CARTESIAN_POINT('Origin',(-0.408122195712841,0.573838894126817,0.7));
#1888=CARTESIAN_POINT('',(-1.52561463023923,3.15,0.1));
#1889=CARTESIAN_POINT('Origin',(1.52561463023924,3.15,0.1));
#1890=CARTESIAN_POINT('',(1.52561463023924,3.15,0.1));
#1891=CARTESIAN_POINT('',(-1.52561463023923,3.15,0.1));
#1892=CARTESIAN_POINT('',(1.52561463023924,3.15,0.7));
#1893=CARTESIAN_POINT('',(-1.52561463023923,3.15,0.7));
#1894=CARTESIAN_POINT('',(1.52561463023924,3.15,0.1));
#1895=CARTESIAN_POINT('Origin',(0.40812219571285,0.57383889412682,0.1));
#1896=CARTESIAN_POINT('',(3.05,1.52561463023923,0.1));
#1897=CARTESIAN_POINT('Origin',(0.40812219571285,0.57383889412682,0.1));
#1898=CARTESIAN_POINT('',(3.05,1.52561463023924,0.7));
#1899=CARTESIAN_POINT('Origin',(0.40812219571285,0.57383889412682,0.7));
#1900=CARTESIAN_POINT('',(3.05,1.52561463023923,0.1));
#1901=CARTESIAN_POINT('Origin',(3.05,-1.52561463023924,0.1));
#1902=CARTESIAN_POINT('',(3.05,-1.52561463023924,0.1));
#1903=CARTESIAN_POINT('',(3.05,1.52561463023924,0.1));
#1904=CARTESIAN_POINT('',(3.05,-1.52561463023924,0.7));
#1905=CARTESIAN_POINT('',(3.05,1.52561463023924,0.7));
#1906=CARTESIAN_POINT('',(3.05,-1.52561463023924,0.1));
#1907=CARTESIAN_POINT('Origin',(0.408122195712846,-0.57383889412682,0.1));
#1908=CARTESIAN_POINT('',(1.52561463023924,-3.15,0.1));
#1909=CARTESIAN_POINT('Origin',(0.408122195712846,-0.57383889412682,0.1));
#1910=CARTESIAN_POINT('',(1.52561463023924,-3.15,0.7));
#1911=CARTESIAN_POINT('Origin',(0.408122195712846,-0.57383889412682,0.7));
#1912=CARTESIAN_POINT('',(1.52561463023924,-3.15,0.1));
#1913=CARTESIAN_POINT('Origin',(-1.52561463023923,-3.15,0.1));
#1914=CARTESIAN_POINT('',(1.52561463023924,-3.15,0.1));
#1915=CARTESIAN_POINT('',(1.52561463023924,-3.15,0.7));
#1916=CARTESIAN_POINT('Origin',(3.02893518398808E-15,-2.26970681085384E-15,
0.1));
#1917=CARTESIAN_POINT('Origin',(3.02893518398808E-15,-2.26970681085384E-15,
0.7));
#1918=CARTESIAN_POINT('Origin',(0.408122195712846,-0.57383889412682,4.5));
#1919=CARTESIAN_POINT('',(3.05,-1.52561463023924,4.5));
#1920=CARTESIAN_POINT('',(1.52561463023924,-3.15,4.5));
#1921=CARTESIAN_POINT('Origin',(0.408122195712846,-0.57383889412682,4.5));
#1922=CARTESIAN_POINT('',(1.52561463023924,-3.15,3.9));
#1923=CARTESIAN_POINT('',(1.52561463023924,-3.15,4.5));
#1924=CARTESIAN_POINT('',(3.05,-1.52561463023924,3.9));
#1925=CARTESIAN_POINT('Origin',(0.408122195712846,-0.57383889412682,3.9));
#1926=CARTESIAN_POINT('',(3.05,-1.52561463023924,4.5));
#1927=CARTESIAN_POINT('Origin',(3.05,1.52561463023924,4.5));
#1928=CARTESIAN_POINT('',(3.05,1.52561463023923,4.5));
#1929=CARTESIAN_POINT('',(3.05,1.52561463023924,4.5));
#1930=CARTESIAN_POINT('',(3.05,1.52561463023924,3.9));
#1931=CARTESIAN_POINT('',(3.05,1.52561463023924,3.9));
#1932=CARTESIAN_POINT('',(3.05,1.52561463023923,4.5));
#1933=CARTESIAN_POINT('Origin',(0.40812219571285,0.57383889412682,4.5));
#1934=CARTESIAN_POINT('',(1.52561463023924,3.15,4.5));
#1935=CARTESIAN_POINT('Origin',(0.40812219571285,0.57383889412682,4.5));
#1936=CARTESIAN_POINT('',(1.52561463023924,3.15,3.9));
#1937=CARTESIAN_POINT('Origin',(0.40812219571285,0.57383889412682,3.9));
#1938=CARTESIAN_POINT('',(1.52561463023924,3.15,4.5));
#1939=CARTESIAN_POINT('Origin',(-1.52561463023923,3.15,4.5));
#1940=CARTESIAN_POINT('',(-1.52561463023923,3.15,4.5));
#1941=CARTESIAN_POINT('',(-1.52561463023923,3.15,4.5));
#1942=CARTESIAN_POINT('',(-1.52561463023923,3.15,3.9));
#1943=CARTESIAN_POINT('',(-1.52561463023923,3.15,3.9));
#1944=CARTESIAN_POINT('',(-1.52561463023923,3.15,4.5));
#1945=CARTESIAN_POINT('Origin',(-0.408122195712841,0.573838894126817,4.5));
#1946=CARTESIAN_POINT('',(-3.05,1.52561463023924,4.5));
#1947=CARTESIAN_POINT('Origin',(-0.408122195712841,0.573838894126817,4.5));
#1948=CARTESIAN_POINT('',(-3.05,1.52561463023924,3.9));
#1949=CARTESIAN_POINT('Origin',(-0.408122195712841,0.573838894126817,3.9));
#1950=CARTESIAN_POINT('',(-3.05,1.52561463023924,4.5));
#1951=CARTESIAN_POINT('Origin',(-3.05,-1.52561463023924,4.5));
#1952=CARTESIAN_POINT('',(-3.05,-1.52561463023924,4.5));
#1953=CARTESIAN_POINT('',(-3.05,-1.52561463023924,4.5));
#1954=CARTESIAN_POINT('',(-3.05,-1.52561463023924,3.9));
#1955=CARTESIAN_POINT('',(-3.05,-1.52561463023924,3.9));
#1956=CARTESIAN_POINT('',(-3.05,-1.52561463023924,4.5));
#1957=CARTESIAN_POINT('Origin',(-0.408122195712839,-0.573838894126819,4.5));
#1958=CARTESIAN_POINT('',(-1.52561463023923,-3.15,4.5));
#1959=CARTESIAN_POINT('Origin',(-0.408122195712839,-0.573838894126819,4.5));
#1960=CARTESIAN_POINT('',(-1.52561463023923,-3.15,3.9));
#1961=CARTESIAN_POINT('Origin',(-0.408122195712839,-0.573838894126819,3.9));
#1962=CARTESIAN_POINT('',(-1.52561463023923,-3.15,4.5));
#1963=CARTESIAN_POINT('Origin',(1.52561463023924,-3.15,4.5));
#1964=CARTESIAN_POINT('',(1.52561463023924,-3.15,4.5));
#1965=CARTESIAN_POINT('',(1.52561463023924,-3.15,3.9));
#1966=CARTESIAN_POINT('Origin',(3.02893518398808E-15,-2.26970681085384E-15,
3.9));
#1967=CARTESIAN_POINT('Origin',(3.02893518398808E-15,-2.26970681085384E-15,
4.5));
#1968=UNCERTAINTY_MEASURE_WITH_UNIT(LENGTH_MEASURE(0.01),#1972,
'DISTANCE_ACCURACY_VALUE',
'Maximum model space distance between geometric entities at asserted c
onnectivities');
#1969=UNCERTAINTY_MEASURE_WITH_UNIT(LENGTH_MEASURE(1.E-6),#1972,
'DISTANCE_ACCURACY_VALUE',
'Maximum model space distance between geometric entities at asserted c
onnectivities');
#1970=(
GEOMETRIC_REPRESENTATION_CONTEXT(3)
GLOBAL_UNCERTAINTY_ASSIGNED_CONTEXT((#1968))
GLOBAL_UNIT_ASSIGNED_CONTEXT((#1972,#1974,#1973))
REPRESENTATION_CONTEXT('','3D')
);
#1971=(
GEOMETRIC_REPRESENTATION_CONTEXT(3)
GLOBAL_UNCERTAINTY_ASSIGNED_CONTEXT((#1969))
GLOBAL_UNIT_ASSIGNED_CONTEXT((#1972,#12,#1973))
REPRESENTATION_CONTEXT('','3D')
);
#1972=(
LENGTH_UNIT()
NAMED_UNIT(*)
SI_UNIT(.MILLI.,.METRE.)
);
#1973=(
NAMED_UNIT(*)
SI_UNIT($,.STERADIAN.)
SOLID_ANGLE_UNIT()
);
#1974=(
NAMED_UNIT(*)
PLANE_ANGLE_UNIT()
SI_UNIT($,.RADIAN.)
);
#1975=SHAPE_DEFINITION_REPRESENTATION(#1976,#1977);
#1976=PRODUCT_DEFINITION_SHAPE('',$,#1979);
#1977=SHAPE_REPRESENTATION('',(#1190),#1970);
#1978=PRODUCT_DEFINITION_CONTEXT('part definition',#1983,'design');
#1979=PRODUCT_DEFINITION('Product','Product',#1980,#1978);
#1980=PRODUCT_DEFINITION_FORMATION('',$,#1985);
#1981=PRODUCT_RELATED_PRODUCT_CATEGORY('Product','Product',(#1985));
#1982=APPLICATION_PROTOCOL_DEFINITION('international standard',
'automotive_design',2009,#1983);
#1983=APPLICATION_CONTEXT(
'Core Data for Automotive Mechanical Design Process');
#1984=PRODUCT_CONTEXT('part definition',#1983,'mechanical');
#1985=PRODUCT('Product','Product',$,(#1984));
#1986=PRESENTATION_STYLE_ASSIGNMENT((#1990));
#1987=PRESENTATION_STYLE_ASSIGNMENT((#1991));
#1988=PRESENTATION_STYLE_ASSIGNMENT((#1992));
#1989=PRESENTATION_STYLE_ASSIGNMENT((#1993));
#1990=SURFACE_STYLE_USAGE(.BOTH.,#1994);
#1991=SURFACE_STYLE_USAGE(.BOTH.,#1995);
#1992=SURFACE_STYLE_USAGE(.BOTH.,#1996);
#1993=SURFACE_STYLE_USAGE(.BOTH.,#1997);
#1994=SURFACE_SIDE_STYLE('',(#1998));
#1995=SURFACE_SIDE_STYLE('',(#1999));
#1996=SURFACE_SIDE_STYLE('',(#2000));
#1997=SURFACE_SIDE_STYLE('',(#2001));
#1998=SURFACE_STYLE_FILL_AREA(#2002);
#1999=SURFACE_STYLE_FILL_AREA(#2003);
#2000=SURFACE_STYLE_FILL_AREA(#2004);
#2001=SURFACE_STYLE_FILL_AREA(#2005);
#2002=FILL_AREA_STYLE('',(#2006));
#2003=FILL_AREA_STYLE('',(#2007));
#2004=FILL_AREA_STYLE('',(#2008));
#2005=FILL_AREA_STYLE('',(#2009));
#2006=FILL_AREA_STYLE_COLOUR('',#2010);
#2007=FILL_AREA_STYLE_COLOUR('',#2011);
#2008=FILL_AREA_STYLE_COLOUR('',#2012);
#2009=FILL_AREA_STYLE_COLOUR('',#2013);
#2010=COLOUR_RGB('',1.,1.,1.);
#2011=COLOUR_RGB('',0.733333333333333,0.733333333333333,0.733333333333333);
#2012=COLOUR_RGB('',0.329411764705882,0.329411764705882,0.329411764705882);
#2013=COLOUR_RGB('',0.596078431372549,0.596078431372549,0.596078431372549);
ENDSEC;
END-ISO-10303-21;
