ISO-10303-21;
HEADER;
/****************************************************************
 * Generated by software with PDElib inside                    *
 * PDElib Version v51a, created Fri 09/10/2010                  *
 * ITI Transcendata (http://www.transcendata.com/)              *
 ****************************************************************/
FILE_DESCRIPTION((''),'2;1');
FILE_NAME('IND_MURATA_BLM31PG.stp','2013-12-05T15:40:24',(''),(''),'Mechanical Desktop 2011','Mechanical Desktop 2011',', , ');
FILE_SCHEMA(('AUTOMOTIVE_DESIGN { 1 2 10303 214 1 1 1 1 }'));
ENDSEC;
DATA;
#10=(NAMED_UNIT(*)PLANE_ANGLE_UNIT()SI_UNIT($,.RADIAN.));
#11=DIMENSIONAL_EXPONENTS(0.0,0.0,0.0,0.0,0.0,0.0,0.0);
#12=PLANE_ANGLE_MEASURE_WITH_UNIT(PLANE_ANGLE_MEASURE(0.0174532925),#10);
#16=(CONVERSION_BASED_UNIT('DEGREE',#12)NAMED_UNIT(#11)PLANE_ANGLE_UNIT());
#20=(NAMED_UNIT(*)SI_UNIT($,.STERADIAN.)SOLID_ANGLE_UNIT());
#24=(LENGTH_UNIT()NAMED_UNIT(*)SI_UNIT(.MILLI.,.METRE.));
#26=UNCERTAINTY_MEASURE_WITH_UNIT(LENGTH_MEASURE(0.000001),#24,'DISTANCE_ACCURACY_VALUE','');
#28=(GEOMETRIC_REPRESENTATION_CONTEXT(3)GLOBAL_UNCERTAINTY_ASSIGNED_CONTEXT((#26))GLOBAL_UNIT_ASSIGNED_CONTEXT((#16,#20,#24))REPRESENTATION_CONTEXT('','3D'));
#29=APPLICATION_CONTEXT('automotive design');
#30=APPLICATION_PROTOCOL_DEFINITION('INTERNATIONAL_STANDARD','automotive_design',1998,#29);
#31=PRODUCT_CONTEXT('3D Mechanical Parts',#29,'mechanical');
#32=PRODUCT('Product','Product','',(#31));
#33=PRODUCT_RELATED_PRODUCT_CATEGORY('part',$,(#32));
#34=PRODUCT_CATEGORY('part',$);
#35=PERSON('1','Design','Joe',$,$,$);
#36=ORGANIZATION($,'None','None');
#37=PERSON_AND_ORGANIZATION(#35,#36);
#38=PERSON_AND_ORGANIZATION_ROLE('design_owner');
#39=APPLIED_PERSON_AND_ORGANIZATION_ASSIGNMENT(#37,#38,(#32));
#40=PRODUCT_DEFINITION_FORMATION_WITH_SPECIFIED_SOURCE('None','',#32,.BOUGHT.);
#41=PERSON('2','Creator','Joe',$,$,$);
#42=ORGANIZATION($,'None','None');
#43=PERSON_AND_ORGANIZATION(#41,#42);
#44=PERSON_AND_ORGANIZATION_ROLE('creator');
#45=APPLIED_PERSON_AND_ORGANIZATION_ASSIGNMENT(#43,#44,(#40));
#46=PERSON('3','Supplier','Joe',$,$,$);
#47=ORGANIZATION($,'None','None');
#48=PERSON_AND_ORGANIZATION(#46,#47);
#49=PERSON_AND_ORGANIZATION_ROLE('design_supplier');
#50=APPLIED_PERSON_AND_ORGANIZATION_ASSIGNMENT(#48,#49,(#40));
#51=PRODUCT_DEFINITION_CONTEXT('part definition',#29,'design');
#52=PRODUCT_DEFINITION('None','',#40,#51);
#53=PERSON('4','Creator','Joe',$,$,$);
#54=ORGANIZATION($,'None','None');
#55=PERSON_AND_ORGANIZATION(#53,#54);
#56=PERSON_AND_ORGANIZATION_ROLE('creator');
#57=APPLIED_PERSON_AND_ORGANIZATION_ASSIGNMENT(#55,#56,(#52));
#58=CARTESIAN_POINT('NONE',(0.0,0.0,0.0));
#59=DIRECTION('NONE',(0.0,0.0,1.0));
#60=DIRECTION('NONE',(1.0,0.0,0.0));
#61=AXIS2_PLACEMENT_3D('NONE',#58,#59,#60);
#62=SHAPE_REPRESENTATION('SR1',(#61),#28);
#63=PRODUCT_DEFINITION_SHAPE('PDS1','Test Part',#52);
#64=SHAPE_DEFINITION_REPRESENTATION(#63,#62);
#65=CARTESIAN_POINT('',(0.449999999999999,-0.7,0.1));
#66=DIRECTION('',(-1.0,0.0,0.0));
#67=DIRECTION('',(0.0,-0.707106781186547,-0.707106781186548));
#68=AXIS2_PLACEMENT_3D('',#65,#66,#67);
#69=CYLINDRICAL_SURFACE('',#68,0.1);
#70=CARTESIAN_POINT('',(-0.9,-0.8,0.1));
#71=VERTEX_POINT('',#70);
#72=CARTESIAN_POINT('',(-0.9,-0.7,0.0));
#73=VERTEX_POINT('',#72);
#74=CARTESIAN_POINT('',(-0.9,-0.7,0.1));
#75=DIRECTION('',(1.0,0.0,0.0));
#76=DIRECTION('',(0.0,-0.707106781186547,-0.707106781186548));
#77=AXIS2_PLACEMENT_3D('',#74,#75,#76);
#78=CIRCLE('',#77,0.1);
#79=EDGE_CURVE('',#71,#73,#78,.T.);
#80=ORIENTED_EDGE('',*,*,#79,.T.);
#81=CARTESIAN_POINT('',(0.899999999999999,-0.7,0.0));
#82=VERTEX_POINT('',#81);
#83=CARTESIAN_POINT('',(-0.9,-0.7,0.0));
#84=DIRECTION('',(1.0,0.0,0.0));
#85=VECTOR('',#84,1.8);
#86=LINE('',#83,#85);
#87=EDGE_CURVE('',#73,#82,#86,.T.);
#88=ORIENTED_EDGE('',*,*,#87,.T.);
#89=CARTESIAN_POINT('',(0.899999999999999,-0.8,0.1));
#90=VERTEX_POINT('',#89);
#91=CARTESIAN_POINT('',(0.899999999999999,-0.7,0.1));
#92=DIRECTION('',(-1.0,0.0,0.0));
#93=DIRECTION('',(0.0,-0.707106781186547,-0.707106781186548));
#94=AXIS2_PLACEMENT_3D('',#91,#92,#93);
#95=CIRCLE('',#94,0.1);
#96=EDGE_CURVE('',#82,#90,#95,.T.);
#97=ORIENTED_EDGE('',*,*,#96,.T.);
#98=CARTESIAN_POINT('',(0.899999999999999,-0.8,0.1));
#99=DIRECTION('',(-1.0,0.0,0.0));
#100=VECTOR('',#99,1.8);
#101=LINE('',#98,#100);
#102=EDGE_CURVE('',#90,#71,#101,.T.);
#103=ORIENTED_EDGE('',*,*,#102,.T.);
#104=EDGE_LOOP('',(#80,#88,#97,#103));
#105=FACE_OUTER_BOUND('',#104,.T.);
#106=ADVANCED_FACE('',(#105),#69,.T.);
#107=CARTESIAN_POINT('',(0.899999999999999,-0.8,0.0));
#108=DIRECTION('',(0.0,-1.0,0.0));
#109=DIRECTION('',(0.0,0.0,-1.0));
#110=AXIS2_PLACEMENT_3D('',#107,#108,#109);
#111=PLANE('',#110);
#112=ORIENTED_EDGE('',*,*,#102,.F.);
#113=CARTESIAN_POINT('',(0.899999999999999,-0.8,1.2));
#114=VERTEX_POINT('',#113);
#115=CARTESIAN_POINT('',(0.899999999999999,-0.8,0.1));
#116=DIRECTION('',(0.0,0.0,1.0));
#117=VECTOR('',#116,1.1);
#118=LINE('',#115,#117);
#119=EDGE_CURVE('',#90,#114,#118,.T.);
#120=ORIENTED_EDGE('',*,*,#119,.T.);
#121=CARTESIAN_POINT('',(-0.9,-0.8,1.2));
#122=VERTEX_POINT('',#121);
#123=CARTESIAN_POINT('',(-0.9,-0.8,1.2));
#124=DIRECTION('',(1.0,0.0,0.0));
#125=VECTOR('',#124,1.8);
#126=LINE('',#123,#125);
#127=EDGE_CURVE('',#122,#114,#126,.T.);
#128=ORIENTED_EDGE('',*,*,#127,.F.);
#129=CARTESIAN_POINT('',(-0.9,-0.8,0.1));
#130=DIRECTION('',(0.0,0.0,1.0));
#131=VECTOR('',#130,1.1);
#132=LINE('',#129,#131);
#133=EDGE_CURVE('',#71,#122,#132,.T.);
#134=ORIENTED_EDGE('',*,*,#133,.F.);
#135=EDGE_LOOP('',(#112,#120,#128,#134));
#136=FACE_OUTER_BOUND('',#135,.T.);
#137=ADVANCED_FACE('',(#136),#111,.T.);
#138=CARTESIAN_POINT('',(0.899999999999999,0.8,0.0));
#139=DIRECTION('',(1.0,0.0,0.0));
#140=DIRECTION('',(0.0,0.0,-1.0));
#141=AXIS2_PLACEMENT_3D('',#138,#139,#140);
#142=PLANE('',#141);
#143=ORIENTED_EDGE('',*,*,#96,.F.);
#144=CARTESIAN_POINT('',(0.899999999999999,0.7,0.0));
#145=VERTEX_POINT('',#144);
#146=CARTESIAN_POINT('',(0.899999999999999,0.7,0.0));
#147=DIRECTION('',(0.0,-1.0,0.0));
#148=VECTOR('',#147,1.4);
#149=LINE('',#146,#148);
#150=EDGE_CURVE('',#145,#82,#149,.T.);
#151=ORIENTED_EDGE('',*,*,#150,.F.);
#152=CARTESIAN_POINT('',(0.899999999999999,0.8,0.1));
#153=VERTEX_POINT('',#152);
#154=CARTESIAN_POINT('',(0.899999999999999,0.7,0.1));
#155=DIRECTION('',(-1.0,0.0,0.0));
#156=DIRECTION('',(0.0,0.707106781186547,-0.707106781186548));
#157=AXIS2_PLACEMENT_3D('',#154,#155,#156);
#158=CIRCLE('',#157,0.1);
#159=EDGE_CURVE('',#153,#145,#158,.T.);
#160=ORIENTED_EDGE('',*,*,#159,.F.);
#161=CARTESIAN_POINT('',(0.899999999999999,0.8,1.2));
#162=VERTEX_POINT('',#161);
#163=CARTESIAN_POINT('',(0.899999999999999,0.8,0.1));
#164=DIRECTION('',(0.0,0.0,1.0));
#165=VECTOR('',#164,1.1);
#166=LINE('',#163,#165);
#167=EDGE_CURVE('',#153,#162,#166,.T.);
#168=ORIENTED_EDGE('',*,*,#167,.T.);
#169=CARTESIAN_POINT('',(0.899999999999999,0.7,1.3));
#170=VERTEX_POINT('',#169);
#171=CARTESIAN_POINT('',(0.899999999999999,0.7,1.2));
#172=DIRECTION('',(-1.0,0.0,0.0));
#173=DIRECTION('',(0.0,0.707106781186547,0.707106781186548));
#174=AXIS2_PLACEMENT_3D('',#171,#172,#173);
#175=CIRCLE('',#174,0.1);
#176=EDGE_CURVE('',#170,#162,#175,.T.);
#177=ORIENTED_EDGE('',*,*,#176,.F.);
#178=CARTESIAN_POINT('',(0.899999999999999,-0.7,1.3));
#179=VERTEX_POINT('',#178);
#180=CARTESIAN_POINT('',(0.899999999999999,0.7,1.3));
#181=DIRECTION('',(0.0,-1.0,0.0));
#182=VECTOR('',#181,1.4);
#183=LINE('',#180,#182);
#184=EDGE_CURVE('',#170,#179,#183,.T.);
#185=ORIENTED_EDGE('',*,*,#184,.T.);
#186=CARTESIAN_POINT('',(0.899999999999999,-0.7,1.2));
#187=DIRECTION('',(-1.0,0.0,0.0));
#188=DIRECTION('',(0.0,-0.707106781186547,0.707106781186548));
#189=AXIS2_PLACEMENT_3D('',#186,#187,#188);
#190=CIRCLE('',#189,0.1);
#191=EDGE_CURVE('',#114,#179,#190,.T.);
#192=ORIENTED_EDGE('',*,*,#191,.F.);
#193=ORIENTED_EDGE('',*,*,#119,.F.);
#194=EDGE_LOOP('',(#143,#151,#160,#168,#177,#185,#192,#193));
#195=FACE_OUTER_BOUND('',#194,.T.);
#196=ADVANCED_FACE('',(#195),#142,.T.);
#197=CARTESIAN_POINT('',(0.449999999999999,-0.7,1.2));
#198=DIRECTION('',(-1.0,0.0,0.0));
#199=DIRECTION('',(0.0,-0.707106781186547,0.707106781186548));
#200=AXIS2_PLACEMENT_3D('',#197,#198,#199);
#201=CYLINDRICAL_SURFACE('',#200,0.1);
#202=CARTESIAN_POINT('',(-0.9,-0.7,1.3));
#203=VERTEX_POINT('',#202);
#204=CARTESIAN_POINT('',(-0.9,-0.7,1.2));
#205=DIRECTION('',(1.0,0.0,0.0));
#206=DIRECTION('',(0.0,-0.707106781186547,0.707106781186548));
#207=AXIS2_PLACEMENT_3D('',#204,#205,#206);
#208=CIRCLE('',#207,0.1);
#209=EDGE_CURVE('',#203,#122,#208,.T.);
#210=ORIENTED_EDGE('',*,*,#209,.T.);
#211=ORIENTED_EDGE('',*,*,#127,.T.);
#212=ORIENTED_EDGE('',*,*,#191,.T.);
#213=CARTESIAN_POINT('',(0.899999999999999,-0.7,1.3));
#214=DIRECTION('',(-1.0,0.0,0.0));
#215=VECTOR('',#214,1.8);
#216=LINE('',#213,#215);
#217=EDGE_CURVE('',#179,#203,#216,.T.);
#218=ORIENTED_EDGE('',*,*,#217,.T.);
#219=EDGE_LOOP('',(#210,#211,#212,#218));
#220=FACE_OUTER_BOUND('',#219,.T.);
#221=ADVANCED_FACE('',(#220),#201,.T.);
#222=CARTESIAN_POINT('',(-5.273559E-016,-3.575571E-016,1.3));
#223=DIRECTION('',(0.0,0.0,1.0));
#224=DIRECTION('',(1.0,0.0,0.0));
#225=AXIS2_PLACEMENT_3D('',#222,#223,#224);
#226=PLANE('',#225);
#227=ORIENTED_EDGE('',*,*,#217,.F.);
#228=ORIENTED_EDGE('',*,*,#184,.F.);
#229=CARTESIAN_POINT('',(-0.9,0.7,1.3));
#230=VERTEX_POINT('',#229);
#231=CARTESIAN_POINT('',(-0.9,0.7,1.3));
#232=DIRECTION('',(1.0,0.0,0.0));
#233=VECTOR('',#232,1.8);
#234=LINE('',#231,#233);
#235=EDGE_CURVE('',#230,#170,#234,.T.);
#236=ORIENTED_EDGE('',*,*,#235,.F.);
#237=CARTESIAN_POINT('',(-0.9,-0.7,1.3));
#238=DIRECTION('',(0.0,1.0,0.0));
#239=VECTOR('',#238,1.4);
#240=LINE('',#237,#239);
#241=EDGE_CURVE('',#203,#230,#240,.T.);
#242=ORIENTED_EDGE('',*,*,#241,.F.);
#243=EDGE_LOOP('',(#227,#228,#236,#242));
#244=FACE_OUTER_BOUND('',#243,.T.);
#245=ADVANCED_FACE('',(#244),#226,.T.);
#246=CARTESIAN_POINT('',(-0.45,0.7,0.1));
#247=DIRECTION('',(1.0,0.0,0.0));
#248=DIRECTION('',(0.0,0.707106781186547,-0.707106781186548));
#249=AXIS2_PLACEMENT_3D('',#246,#247,#248);
#250=CYLINDRICAL_SURFACE('',#249,0.1);
#251=ORIENTED_EDGE('',*,*,#159,.T.);
#252=CARTESIAN_POINT('',(-0.9,0.7,0.0));
#253=VERTEX_POINT('',#252);
#254=CARTESIAN_POINT('',(0.899999999999999,0.7,0.0));
#255=DIRECTION('',(-1.0,0.0,0.0));
#256=VECTOR('',#255,1.8);
#257=LINE('',#254,#256);
#258=EDGE_CURVE('',#145,#253,#257,.T.);
#259=ORIENTED_EDGE('',*,*,#258,.T.);
#260=CARTESIAN_POINT('',(-0.9,0.8,0.1));
#261=VERTEX_POINT('',#260);
#262=CARTESIAN_POINT('',(-0.9,0.7,0.1));
#263=DIRECTION('',(1.0,0.0,0.0));
#264=DIRECTION('',(0.0,0.707106781186547,-0.707106781186548));
#265=AXIS2_PLACEMENT_3D('',#262,#263,#264);
#266=CIRCLE('',#265,0.1);
#267=EDGE_CURVE('',#253,#261,#266,.T.);
#268=ORIENTED_EDGE('',*,*,#267,.T.);
#269=CARTESIAN_POINT('',(-0.9,0.8,0.1));
#270=DIRECTION('',(1.0,0.0,0.0));
#271=VECTOR('',#270,1.8);
#272=LINE('',#269,#271);
#273=EDGE_CURVE('',#261,#153,#272,.T.);
#274=ORIENTED_EDGE('',*,*,#273,.T.);
#275=EDGE_LOOP('',(#251,#259,#268,#274));
#276=FACE_OUTER_BOUND('',#275,.T.);
#277=ADVANCED_FACE('',(#276),#250,.T.);
#278=CARTESIAN_POINT('',(-5.273559E-016,-3.575571E-016,0.0));
#279=DIRECTION('',(0.0,0.0,1.0));
#280=DIRECTION('',(1.0,0.0,0.0));
#281=AXIS2_PLACEMENT_3D('',#278,#279,#280);
#282=PLANE('',#281);
#283=ORIENTED_EDGE('',*,*,#87,.F.);
#284=CARTESIAN_POINT('',(-0.9,-0.7,0.0));
#285=DIRECTION('',(0.0,1.0,0.0));
#286=VECTOR('',#285,1.4);
#287=LINE('',#284,#286);
#288=EDGE_CURVE('',#73,#253,#287,.T.);
#289=ORIENTED_EDGE('',*,*,#288,.T.);
#290=ORIENTED_EDGE('',*,*,#258,.F.);
#291=ORIENTED_EDGE('',*,*,#150,.T.);
#292=EDGE_LOOP('',(#283,#289,#290,#291));
#293=FACE_OUTER_BOUND('',#292,.T.);
#294=ADVANCED_FACE('',(#293),#282,.F.);
#295=CARTESIAN_POINT('',(-0.45,0.7,1.2));
#296=DIRECTION('',(1.0,0.0,0.0));
#297=DIRECTION('',(0.0,0.707106781186547,0.707106781186548));
#298=AXIS2_PLACEMENT_3D('',#295,#296,#297);
#299=CYLINDRICAL_SURFACE('',#298,0.1);
#300=ORIENTED_EDGE('',*,*,#176,.T.);
#301=CARTESIAN_POINT('',(-0.9,0.8,1.2));
#302=VERTEX_POINT('',#301);
#303=CARTESIAN_POINT('',(0.899999999999999,0.8,1.2));
#304=DIRECTION('',(-1.0,0.0,0.0));
#305=VECTOR('',#304,1.8);
#306=LINE('',#303,#305);
#307=EDGE_CURVE('',#162,#302,#306,.T.);
#308=ORIENTED_EDGE('',*,*,#307,.T.);
#309=CARTESIAN_POINT('',(-0.9,0.7,1.2));
#310=DIRECTION('',(1.0,0.0,0.0));
#311=DIRECTION('',(0.0,0.707106781186547,0.707106781186548));
#312=AXIS2_PLACEMENT_3D('',#309,#310,#311);
#313=CIRCLE('',#312,0.1);
#314=EDGE_CURVE('',#302,#230,#313,.T.);
#315=ORIENTED_EDGE('',*,*,#314,.T.);
#316=ORIENTED_EDGE('',*,*,#235,.T.);
#317=EDGE_LOOP('',(#300,#308,#315,#316));
#318=FACE_OUTER_BOUND('',#317,.T.);
#319=ADVANCED_FACE('',(#318),#299,.T.);
#320=CARTESIAN_POINT('',(-0.9,-0.8,0.0));
#321=DIRECTION('',(-1.0,0.0,0.0));
#322=DIRECTION('',(0.0,0.0,1.0));
#323=AXIS2_PLACEMENT_3D('',#320,#321,#322);
#324=PLANE('',#323);
#325=ORIENTED_EDGE('',*,*,#79,.F.);
#326=ORIENTED_EDGE('',*,*,#133,.T.);
#327=ORIENTED_EDGE('',*,*,#209,.F.);
#328=ORIENTED_EDGE('',*,*,#241,.T.);
#329=ORIENTED_EDGE('',*,*,#314,.F.);
#330=CARTESIAN_POINT('',(-0.9,0.8,0.1));
#331=DIRECTION('',(0.0,0.0,1.0));
#332=VECTOR('',#331,1.1);
#333=LINE('',#330,#332);
#334=EDGE_CURVE('',#261,#302,#333,.T.);
#335=ORIENTED_EDGE('',*,*,#334,.F.);
#336=ORIENTED_EDGE('',*,*,#267,.F.);
#337=ORIENTED_EDGE('',*,*,#288,.F.);
#338=EDGE_LOOP('',(#325,#326,#327,#328,#329,#335,#336,#337));
#339=FACE_OUTER_BOUND('',#338,.T.);
#340=ADVANCED_FACE('',(#339),#324,.T.);
#341=CARTESIAN_POINT('',(-0.9,0.8,0.0));
#342=DIRECTION('',(0.0,1.0,0.0));
#343=DIRECTION('',(0.0,0.0,1.0));
#344=AXIS2_PLACEMENT_3D('',#341,#342,#343);
#345=PLANE('',#344);
#346=ORIENTED_EDGE('',*,*,#273,.F.);
#347=ORIENTED_EDGE('',*,*,#334,.T.);
#348=ORIENTED_EDGE('',*,*,#307,.F.);
#349=ORIENTED_EDGE('',*,*,#167,.F.);
#350=EDGE_LOOP('',(#346,#347,#348,#349));
#351=FACE_OUTER_BOUND('',#350,.T.);
#352=ADVANCED_FACE('',(#351),#345,.T.);
#353=CLOSED_SHELL('',(#106,#137,#196,#221,#245,#277,#294,#319,#340,#352));
#354=MANIFOLD_SOLID_BREP('21DB',#353);
#355=COLOUR_RGB('251',0.464,0.464,0.464);
#356=SURFACE_STYLE_USAGE(.BOTH.,#357);
#357=SURFACE_SIDE_STYLE('NONE',(#358));
#358=SURFACE_STYLE_FILL_AREA(#359);
#359=FILL_AREA_STYLE('NONE',(#360));
#360=FILL_AREA_STYLE_COLOUR('NONE',#355);
#361=PRESENTATION_STYLE_ASSIGNMENT((#356));
#362=STYLED_ITEM('NONE',(#361),#354);
#363=MECHANICAL_DESIGN_GEOMETRIC_PRESENTATION_REPRESENTATION('NONE',(#362,#826,#1281),#28);
#364=PRESENTATION_LAYER_ASSIGNMENT('3D','None',(#354,#818,#1280));
#365=CARTESIAN_POINT('',(1.5,-0.7,0.1));
#366=DIRECTION('',(0.0,0.0,1.0));
#367=DIRECTION('',(1.0,0.0,0.0));
#368=AXIS2_PLACEMENT_3D('',#365,#366,#367);
#369=SPHERICAL_SURFACE('',#368,0.1);
#370=CARTESIAN_POINT('',(1.5,-0.8,0.1));
#371=VERTEX_POINT('',#370);
#372=CARTESIAN_POINT('',(1.5,-0.7,0.0));
#373=VERTEX_POINT('',#372);
#374=CARTESIAN_POINT('',(1.5,-0.7,0.1));
#375=DIRECTION('',(1.0,0.0,0.0));
#376=DIRECTION('',(0.0,-0.707106781186547,-0.707106781186548));
#377=AXIS2_PLACEMENT_3D('',#374,#375,#376);
#378=CIRCLE('',#377,0.1);
#379=EDGE_CURVE('',#371,#373,#378,.T.);
#380=ORIENTED_EDGE('',*,*,#379,.T.);
#381=CARTESIAN_POINT('',(1.6,-0.7,0.1));
#382=VERTEX_POINT('',#381);
#383=CARTESIAN_POINT('',(1.5,-0.7,0.1));
#384=DIRECTION('',(0.0,-1.0,0.0));
#385=DIRECTION('',(1.0,0.0,0.0));
#386=AXIS2_PLACEMENT_3D('',#383,#384,#385);
#387=CIRCLE('',#386,0.1);
#388=EDGE_CURVE('',#382,#373,#387,.F.);
#389=ORIENTED_EDGE('',*,*,#388,.F.);
#390=CARTESIAN_POINT('',(1.5,-0.7,0.1));
#391=DIRECTION('',(0.0,0.0,-1.0));
#392=DIRECTION('',(0.0,-1.0,0.0));
#393=AXIS2_PLACEMENT_3D('',#390,#391,#392);
#394=CIRCLE('',#393,0.1);
#395=EDGE_CURVE('',#371,#382,#394,.F.);
#396=ORIENTED_EDGE('',*,*,#395,.F.);
#397=EDGE_LOOP('',(#380,#389,#396));
#398=FACE_OUTER_BOUND('',#397,.T.);
#399=ADVANCED_FACE('',(#398),#369,.T.);
#400=CARTESIAN_POINT('',(1.5,-0.7,1.2));
#401=DIRECTION('',(0.0,0.0,1.0));
#402=DIRECTION('',(1.0,0.0,0.0));
#403=AXIS2_PLACEMENT_3D('',#400,#401,#402);
#404=SPHERICAL_SURFACE('',#403,0.1);
#405=CARTESIAN_POINT('',(1.5,-0.8,1.2));
#406=VERTEX_POINT('',#405);
#407=CARTESIAN_POINT('',(1.6,-0.7,1.2));
#408=VERTEX_POINT('',#407);
#409=CARTESIAN_POINT('',(1.5,-0.7,1.2));
#410=DIRECTION('',(0.0,0.0,1.0));
#411=DIRECTION('',(0.707106781186547,-0.707106781186547,0.0));
#412=AXIS2_PLACEMENT_3D('',#409,#410,#411);
#413=CIRCLE('',#412,0.1);
#414=EDGE_CURVE('',#406,#408,#413,.T.);
#415=ORIENTED_EDGE('',*,*,#414,.T.);
#416=CARTESIAN_POINT('',(1.5,-0.7,1.3));
#417=VERTEX_POINT('',#416);
#418=CARTESIAN_POINT('',(1.5,-0.7,1.2));
#419=DIRECTION('',(0.0,-1.0,0.0));
#420=DIRECTION('',(0.0,0.0,1.0));
#421=AXIS2_PLACEMENT_3D('',#418,#419,#420);
#422=CIRCLE('',#421,0.1);
#423=EDGE_CURVE('',#417,#408,#422,.F.);
#424=ORIENTED_EDGE('',*,*,#423,.F.);
#425=CARTESIAN_POINT('',(1.5,-0.7,1.2));
#426=DIRECTION('',(1.0,0.0,0.0));
#427=DIRECTION('',(0.0,-0.707106781186547,0.707106781186547));
#428=AXIS2_PLACEMENT_3D('',#425,#426,#427);
#429=CIRCLE('',#428,0.1);
#430=EDGE_CURVE('',#417,#406,#429,.T.);
#431=ORIENTED_EDGE('',*,*,#430,.T.);
#432=EDGE_LOOP('',(#415,#424,#431));
#433=FACE_OUTER_BOUND('',#432,.T.);
#434=ADVANCED_FACE('',(#433),#404,.T.);
#435=CARTESIAN_POINT('',(1.5,0.7,0.1));
#436=DIRECTION('',(0.0,0.0,1.0));
#437=DIRECTION('',(1.0,0.0,0.0));
#438=AXIS2_PLACEMENT_3D('',#435,#436,#437);
#439=SPHERICAL_SURFACE('',#438,0.1);
#440=CARTESIAN_POINT('',(1.5,0.7,0.0));
#441=VERTEX_POINT('',#440);
#442=CARTESIAN_POINT('',(1.5,0.8,0.1));
#443=VERTEX_POINT('',#442);
#444=CARTESIAN_POINT('',(1.5,0.7,0.1));
#445=DIRECTION('',(1.0,0.0,0.0));
#446=DIRECTION('',(0.0,0.707106781186547,-0.707106781186548));
#447=AXIS2_PLACEMENT_3D('',#444,#445,#446);
#448=CIRCLE('',#447,0.1);
#449=EDGE_CURVE('',#441,#443,#448,.T.);
#450=ORIENTED_EDGE('',*,*,#449,.T.);
#451=CARTESIAN_POINT('',(1.6,0.7,0.1));
#452=VERTEX_POINT('',#451);
#453=CARTESIAN_POINT('',(1.5,0.7,0.1));
#454=DIRECTION('',(0.0,0.0,-1.0));
#455=DIRECTION('',(1.0,0.0,0.0));
#456=AXIS2_PLACEMENT_3D('',#453,#454,#455);
#457=CIRCLE('',#456,0.1);
#458=EDGE_CURVE('',#452,#443,#457,.F.);
#459=ORIENTED_EDGE('',*,*,#458,.F.);
#460=CARTESIAN_POINT('',(1.5,0.7,0.1));
#461=DIRECTION('',(0.0,1.0,0.0));
#462=DIRECTION('',(0.707106781186548,0.0,-0.707106781186547));
#463=AXIS2_PLACEMENT_3D('',#460,#461,#462);
#464=CIRCLE('',#463,0.1);
#465=EDGE_CURVE('',#452,#441,#464,.T.);
#466=ORIENTED_EDGE('',*,*,#465,.T.);
#467=EDGE_LOOP('',(#450,#459,#466));
#468=FACE_OUTER_BOUND('',#467,.T.);
#469=ADVANCED_FACE('',(#468),#439,.T.);
#470=CARTESIAN_POINT('',(1.5,0.7,1.2));
#471=DIRECTION('',(0.0,0.0,1.0));
#472=DIRECTION('',(1.0,0.0,0.0));
#473=AXIS2_PLACEMENT_3D('',#470,#471,#472);
#474=SPHERICAL_SURFACE('',#473,0.1);
#475=CARTESIAN_POINT('',(1.6,0.7,1.2));
#476=VERTEX_POINT('',#475);
#477=CARTESIAN_POINT('',(1.5,0.8,1.2));
#478=VERTEX_POINT('',#477);
#479=CARTESIAN_POINT('',(1.5,0.7,1.2));
#480=DIRECTION('',(0.0,0.0,1.0));
#481=DIRECTION('',(0.707106781186548,0.707106781186547,0.0));
#482=AXIS2_PLACEMENT_3D('',#479,#480,#481);
#483=CIRCLE('',#482,0.1);
#484=EDGE_CURVE('',#476,#478,#483,.T.);
#485=ORIENTED_EDGE('',*,*,#484,.T.);
#486=CARTESIAN_POINT('',(1.5,0.7,1.3));
#487=VERTEX_POINT('',#486);
#488=CARTESIAN_POINT('',(1.5,0.7,1.2));
#489=DIRECTION('',(1.0,0.0,0.0));
#490=DIRECTION('',(0.0,0.0,1.0));
#491=AXIS2_PLACEMENT_3D('',#488,#489,#490);
#492=CIRCLE('',#491,0.1);
#493=EDGE_CURVE('',#487,#478,#492,.F.);
#494=ORIENTED_EDGE('',*,*,#493,.F.);
#495=CARTESIAN_POINT('',(1.5,0.7,1.2));
#496=DIRECTION('',(0.0,1.0,0.0));
#497=DIRECTION('',(0.707106781186547,0.0,0.707106781186547));
#498=AXIS2_PLACEMENT_3D('',#495,#496,#497);
#499=CIRCLE('',#498,0.1);
#500=EDGE_CURVE('',#487,#476,#499,.T.);
#501=ORIENTED_EDGE('',*,*,#500,.T.);
#502=EDGE_LOOP('',(#485,#494,#501));
#503=FACE_OUTER_BOUND('',#502,.T.);
#504=ADVANCED_FACE('',(#503),#474,.T.);
#505=CARTESIAN_POINT('',(1.074999999999999,0.7,1.2));
#506=DIRECTION('',(1.0,0.0,0.0));
#507=DIRECTION('',(0.0,0.707106781186547,0.707106781186548));
#508=AXIS2_PLACEMENT_3D('',#505,#506,#507);
#509=CYLINDRICAL_SURFACE('',#508,0.1);
#510=CARTESIAN_POINT('',(0.899999999999999,0.8,1.2));
#511=VERTEX_POINT('',#510);
#512=CARTESIAN_POINT('',(0.899999999999999,0.7,1.3));
#513=VERTEX_POINT('',#512);
#514=CARTESIAN_POINT('',(0.899999999999999,0.7,1.2));
#515=DIRECTION('',(1.0,0.0,0.0));
#516=DIRECTION('',(0.0,0.707106781186547,0.707106781186548));
#517=AXIS2_PLACEMENT_3D('',#514,#515,#516);
#518=CIRCLE('',#517,0.1);
#519=EDGE_CURVE('',#511,#513,#518,.T.);
#520=ORIENTED_EDGE('',*,*,#519,.T.);
#521=CARTESIAN_POINT('',(0.899999999999999,0.7,1.3));
#522=DIRECTION('',(1.0,0.0,0.0));
#523=VECTOR('',#522,0.6);
#524=LINE('',#521,#523);
#525=EDGE_CURVE('',#513,#487,#524,.T.);
#526=ORIENTED_EDGE('',*,*,#525,.T.);
#527=ORIENTED_EDGE('',*,*,#493,.T.);
#528=CARTESIAN_POINT('',(1.5,0.8,1.2));
#529=DIRECTION('',(-1.0,0.0,0.0));
#530=VECTOR('',#529,0.6);
#531=LINE('',#528,#530);
#532=EDGE_CURVE('',#478,#511,#531,.T.);
#533=ORIENTED_EDGE('',*,*,#532,.T.);
#534=EDGE_LOOP('',(#520,#526,#527,#533));
#535=FACE_OUTER_BOUND('',#534,.T.);
#536=ADVANCED_FACE('',(#535),#509,.T.);
#537=CARTESIAN_POINT('',(1.5,0.7,0.0));
#538=DIRECTION('',(0.0,0.0,1.0));
#539=DIRECTION('',(0.707106781186548,0.707106781186547,0.0));
#540=AXIS2_PLACEMENT_3D('',#537,#538,#539);
#541=CYLINDRICAL_SURFACE('',#540,0.1);
#542=ORIENTED_EDGE('',*,*,#484,.F.);
#543=CARTESIAN_POINT('',(1.6,0.7,1.2));
#544=DIRECTION('',(0.0,0.0,-1.0));
#545=VECTOR('',#544,1.1);
#546=LINE('',#543,#545);
#547=EDGE_CURVE('',#476,#452,#546,.T.);
#548=ORIENTED_EDGE('',*,*,#547,.T.);
#549=ORIENTED_EDGE('',*,*,#458,.T.);
#550=CARTESIAN_POINT('',(1.5,0.8,0.1));
#551=DIRECTION('',(0.0,0.0,1.0));
#552=VECTOR('',#551,1.1);
#553=LINE('',#550,#552);
#554=EDGE_CURVE('',#443,#478,#553,.T.);
#555=ORIENTED_EDGE('',*,*,#554,.T.);
#556=EDGE_LOOP('',(#542,#548,#549,#555));
#557=FACE_OUTER_BOUND('',#556,.T.);
#558=ADVANCED_FACE('',(#557),#541,.T.);
#559=CARTESIAN_POINT('',(1.5,0.4,1.2));
#560=DIRECTION('',(0.0,-1.0,0.0));
#561=DIRECTION('',(0.707106781186547,0.0,0.707106781186547));
#562=AXIS2_PLACEMENT_3D('',#559,#560,#561);
#563=CYLINDRICAL_SURFACE('',#562,0.1);
#564=ORIENTED_EDGE('',*,*,#423,.T.);
#565=CARTESIAN_POINT('',(1.6,-0.7,1.2));
#566=DIRECTION('',(0.0,1.0,0.0));
#567=VECTOR('',#566,1.4);
#568=LINE('',#565,#567);
#569=EDGE_CURVE('',#408,#476,#568,.T.);
#570=ORIENTED_EDGE('',*,*,#569,.T.);
#571=ORIENTED_EDGE('',*,*,#500,.F.);
#572=CARTESIAN_POINT('',(1.5,0.7,1.3));
#573=DIRECTION('',(0.0,-1.0,0.0));
#574=VECTOR('',#573,1.4);
#575=LINE('',#572,#574);
#576=EDGE_CURVE('',#487,#417,#575,.T.);
#577=ORIENTED_EDGE('',*,*,#576,.T.);
#578=EDGE_LOOP('',(#564,#570,#571,#577));
#579=FACE_OUTER_BOUND('',#578,.T.);
#580=ADVANCED_FACE('',(#579),#563,.T.);
#581=CARTESIAN_POINT('',(1.5,0.4,0.1));
#582=DIRECTION('',(0.0,1.0,0.0));
#583=DIRECTION('',(0.707106781186548,0.0,-0.707106781186547));
#584=AXIS2_PLACEMENT_3D('',#581,#582,#583);
#585=CYLINDRICAL_SURFACE('',#584,0.1);
#586=ORIENTED_EDGE('',*,*,#465,.F.);
#587=CARTESIAN_POINT('',(1.6,0.7,0.1));
#588=DIRECTION('',(0.0,-1.0,0.0));
#589=VECTOR('',#588,1.4);
#590=LINE('',#587,#589);
#591=EDGE_CURVE('',#452,#382,#590,.T.);
#592=ORIENTED_EDGE('',*,*,#591,.T.);
#593=ORIENTED_EDGE('',*,*,#388,.T.);
#594=CARTESIAN_POINT('',(1.5,-0.7,0.0));
#595=DIRECTION('',(0.0,1.0,0.0));
#596=VECTOR('',#595,1.4);
#597=LINE('',#594,#596);
#598=EDGE_CURVE('',#373,#441,#597,.T.);
#599=ORIENTED_EDGE('',*,*,#598,.T.);
#600=EDGE_LOOP('',(#586,#592,#593,#599));
#601=FACE_OUTER_BOUND('',#600,.T.);
#602=ADVANCED_FACE('',(#601),#585,.T.);
#603=CARTESIAN_POINT('',(1.074999999999999,0.7,0.1));
#604=DIRECTION('',(-1.0,0.0,0.0));
#605=DIRECTION('',(0.0,0.707106781186547,-0.707106781186548));
#606=AXIS2_PLACEMENT_3D('',#603,#604,#605);
#607=CYLINDRICAL_SURFACE('',#606,0.1);
#608=CARTESIAN_POINT('',(0.899999999999999,0.7,0.0));
#609=VERTEX_POINT('',#608);
#610=CARTESIAN_POINT('',(0.899999999999999,0.8,0.1));
#611=VERTEX_POINT('',#610);
#612=CARTESIAN_POINT('',(0.899999999999999,0.7,0.1));
#613=DIRECTION('',(1.0,0.0,0.0));
#614=DIRECTION('',(0.0,0.707106781186547,-0.707106781186548));
#615=AXIS2_PLACEMENT_3D('',#612,#613,#614);
#616=CIRCLE('',#615,0.1);
#617=EDGE_CURVE('',#609,#611,#616,.T.);
#618=ORIENTED_EDGE('',*,*,#617,.T.);
#619=CARTESIAN_POINT('',(0.899999999999999,0.8,0.1));
#620=DIRECTION('',(1.0,0.0,0.0));
#621=VECTOR('',#620,0.6);
#622=LINE('',#619,#621);
#623=EDGE_CURVE('',#611,#443,#622,.T.);
#624=ORIENTED_EDGE('',*,*,#623,.T.);
#625=ORIENTED_EDGE('',*,*,#449,.F.);
#626=CARTESIAN_POINT('',(1.5,0.7,0.0));
#627=DIRECTION('',(-1.0,0.0,0.0));
#628=VECTOR('',#627,0.6);
#629=LINE('',#626,#628);
#630=EDGE_CURVE('',#441,#609,#629,.T.);
#631=ORIENTED_EDGE('',*,*,#630,.T.);
#632=EDGE_LOOP('',(#618,#624,#625,#631));
#633=FACE_OUTER_BOUND('',#632,.T.);
#634=ADVANCED_FACE('',(#633),#607,.T.);
#635=CARTESIAN_POINT('',(1.5,-0.7,0.0));
#636=DIRECTION('',(0.0,0.0,1.0));
#637=DIRECTION('',(0.707106781186547,-0.707106781186547,0.0));
#638=AXIS2_PLACEMENT_3D('',#635,#636,#637);
#639=CYLINDRICAL_SURFACE('',#638,0.1);
#640=ORIENTED_EDGE('',*,*,#414,.F.);
#641=CARTESIAN_POINT('',(1.5,-0.8,1.2));
#642=DIRECTION('',(0.0,0.0,-1.0));
#643=VECTOR('',#642,1.1);
#644=LINE('',#641,#643);
#645=EDGE_CURVE('',#406,#371,#644,.T.);
#646=ORIENTED_EDGE('',*,*,#645,.T.);
#647=ORIENTED_EDGE('',*,*,#395,.T.);
#648=CARTESIAN_POINT('',(1.6,-0.7,0.1));
#649=DIRECTION('',(0.0,0.0,1.0));
#650=VECTOR('',#649,1.1);
#651=LINE('',#648,#650);
#652=EDGE_CURVE('',#382,#408,#651,.T.);
#653=ORIENTED_EDGE('',*,*,#652,.T.);
#654=EDGE_LOOP('',(#640,#646,#647,#653));
#655=FACE_OUTER_BOUND('',#654,.T.);
#656=ADVANCED_FACE('',(#655),#639,.T.);
#657=CARTESIAN_POINT('',(1.424999999999999,-0.7,1.2));
#658=DIRECTION('',(-1.0,0.0,0.0));
#659=DIRECTION('',(0.0,-0.707106781186547,0.707106781186548));
#660=AXIS2_PLACEMENT_3D('',#657,#658,#659);
#661=CYLINDRICAL_SURFACE('',#660,0.1);
#662=CARTESIAN_POINT('',(0.899999999999999,-0.7,1.3));
#663=VERTEX_POINT('',#662);
#664=CARTESIAN_POINT('',(0.899999999999999,-0.8,1.2));
#665=VERTEX_POINT('',#664);
#666=CARTESIAN_POINT('',(0.899999999999999,-0.7,1.2));
#667=DIRECTION('',(1.0,0.0,0.0));
#668=DIRECTION('',(0.0,-0.707106781186547,0.707106781186548));
#669=AXIS2_PLACEMENT_3D('',#666,#667,#668);
#670=CIRCLE('',#669,0.1);
#671=EDGE_CURVE('',#663,#665,#670,.T.);
#672=ORIENTED_EDGE('',*,*,#671,.T.);
#673=CARTESIAN_POINT('',(0.899999999999999,-0.8,1.2));
#674=DIRECTION('',(1.0,0.0,0.0));
#675=VECTOR('',#674,0.6);
#676=LINE('',#673,#675);
#677=EDGE_CURVE('',#665,#406,#676,.T.);
#678=ORIENTED_EDGE('',*,*,#677,.T.);
#679=ORIENTED_EDGE('',*,*,#430,.F.);
#680=CARTESIAN_POINT('',(1.5,-0.7,1.3));
#681=DIRECTION('',(-1.0,0.0,0.0));
#682=VECTOR('',#681,0.6);
#683=LINE('',#680,#682);
#684=EDGE_CURVE('',#417,#663,#683,.T.);
#685=ORIENTED_EDGE('',*,*,#684,.T.);
#686=EDGE_LOOP('',(#672,#678,#679,#685));
#687=FACE_OUTER_BOUND('',#686,.T.);
#688=ADVANCED_FACE('',(#687),#661,.T.);
#689=CARTESIAN_POINT('',(1.424999999999999,-0.7,0.1));
#690=DIRECTION('',(1.0,0.0,0.0));
#691=DIRECTION('',(0.0,-0.707106781186547,-0.707106781186548));
#692=AXIS2_PLACEMENT_3D('',#689,#690,#691);
#693=CYLINDRICAL_SURFACE('',#692,0.1);
#694=CARTESIAN_POINT('',(0.899999999999999,-0.8,0.1));
#695=VERTEX_POINT('',#694);
#696=CARTESIAN_POINT('',(0.899999999999999,-0.7,0.0));
#697=VERTEX_POINT('',#696);
#698=CARTESIAN_POINT('',(0.899999999999999,-0.7,0.1));
#699=DIRECTION('',(1.0,0.0,0.0));
#700=DIRECTION('',(0.0,-0.707106781186547,-0.707106781186548));
#701=AXIS2_PLACEMENT_3D('',#698,#699,#700);
#702=CIRCLE('',#701,0.1);
#703=EDGE_CURVE('',#695,#697,#702,.T.);
#704=ORIENTED_EDGE('',*,*,#703,.T.);
#705=CARTESIAN_POINT('',(0.899999999999999,-0.7,0.0));
#706=DIRECTION('',(1.0,0.0,0.0));
#707=VECTOR('',#706,0.6);
#708=LINE('',#705,#707);
#709=EDGE_CURVE('',#697,#373,#708,.T.);
#710=ORIENTED_EDGE('',*,*,#709,.T.);
#711=ORIENTED_EDGE('',*,*,#379,.F.);
#712=CARTESIAN_POINT('',(1.5,-0.8,0.1));
#713=DIRECTION('',(-1.0,0.0,0.0));
#714=VECTOR('',#713,0.6);
#715=LINE('',#712,#714);
#716=EDGE_CURVE('',#371,#695,#715,.T.);
#717=ORIENTED_EDGE('',*,*,#716,.T.);
#718=EDGE_LOOP('',(#704,#710,#711,#717));
#719=FACE_OUTER_BOUND('',#718,.T.);
#720=ADVANCED_FACE('',(#719),#693,.T.);
#721=CARTESIAN_POINT('',(1.249999999999999,-3.053113E-016,0.0));
#722=DIRECTION('',(0.0,0.0,1.0));
#723=DIRECTION('',(1.0,0.0,0.0));
#724=AXIS2_PLACEMENT_3D('',#721,#722,#723);
#725=PLANE('',#724);
#726=ORIENTED_EDGE('',*,*,#630,.F.);
#727=ORIENTED_EDGE('',*,*,#598,.F.);
#728=ORIENTED_EDGE('',*,*,#709,.F.);
#729=CARTESIAN_POINT('',(0.899999999999999,0.7,0.0));
#730=DIRECTION('',(0.0,-1.0,0.0));
#731=VECTOR('',#730,1.4);
#732=LINE('',#729,#731);
#733=EDGE_CURVE('',#609,#697,#732,.T.);
#734=ORIENTED_EDGE('',*,*,#733,.F.);
#735=EDGE_LOOP('',(#726,#727,#728,#734));
#736=FACE_OUTER_BOUND('',#735,.T.);
#737=ADVANCED_FACE('',(#736),#725,.F.);
#738=CARTESIAN_POINT('',(0.899999999999999,-0.8,0.0));
#739=DIRECTION('',(-1.0,0.0,0.0));
#740=DIRECTION('',(0.0,0.0,1.0));
#741=AXIS2_PLACEMENT_3D('',#738,#739,#740);
#742=PLANE('',#741);
#743=ORIENTED_EDGE('',*,*,#617,.F.);
#744=ORIENTED_EDGE('',*,*,#733,.T.);
#745=ORIENTED_EDGE('',*,*,#703,.F.);
#746=CARTESIAN_POINT('',(0.899999999999999,-0.8,0.1));
#747=DIRECTION('',(0.0,0.0,1.0));
#748=VECTOR('',#747,1.1);
#749=LINE('',#746,#748);
#750=EDGE_CURVE('',#695,#665,#749,.T.);
#751=ORIENTED_EDGE('',*,*,#750,.T.);
#752=ORIENTED_EDGE('',*,*,#671,.F.);
#753=CARTESIAN_POINT('',(0.899999999999999,-0.7,1.3));
#754=DIRECTION('',(0.0,1.0,0.0));
#755=VECTOR('',#754,1.4);
#756=LINE('',#753,#755);
#757=EDGE_CURVE('',#663,#513,#756,.T.);
#758=ORIENTED_EDGE('',*,*,#757,.T.);
#759=ORIENTED_EDGE('',*,*,#519,.F.);
#760=CARTESIAN_POINT('',(0.899999999999999,0.8,0.1));
#761=DIRECTION('',(0.0,0.0,1.0));
#762=VECTOR('',#761,1.1);
#763=LINE('',#760,#762);
#764=EDGE_CURVE('',#611,#511,#763,.T.);
#765=ORIENTED_EDGE('',*,*,#764,.F.);
#766=EDGE_LOOP('',(#743,#744,#745,#751,#752,#758,#759,#765));
#767=FACE_OUTER_BOUND('',#766,.T.);
#768=ADVANCED_FACE('',(#767),#742,.T.);
#769=CARTESIAN_POINT('',(1.6,-0.8,0.0));
#770=DIRECTION('',(0.0,-1.0,0.0));
#771=DIRECTION('',(0.0,0.0,-1.0));
#772=AXIS2_PLACEMENT_3D('',#769,#770,#771);
#773=PLANE('',#772);
#774=ORIENTED_EDGE('',*,*,#716,.F.);
#775=ORIENTED_EDGE('',*,*,#645,.F.);
#776=ORIENTED_EDGE('',*,*,#677,.F.);
#777=ORIENTED_EDGE('',*,*,#750,.F.);
#778=EDGE_LOOP('',(#774,#775,#776,#777));
#779=FACE_OUTER_BOUND('',#778,.T.);
#780=ADVANCED_FACE('',(#779),#773,.T.);
#781=CARTESIAN_POINT('',(1.6,0.8,0.0));
#782=DIRECTION('',(1.0,0.0,0.0));
#783=DIRECTION('',(0.0,0.0,-1.0));
#784=AXIS2_PLACEMENT_3D('',#781,#782,#783);
#785=PLANE('',#784);
#786=ORIENTED_EDGE('',*,*,#547,.F.);
#787=ORIENTED_EDGE('',*,*,#569,.F.);
#788=ORIENTED_EDGE('',*,*,#652,.F.);
#789=ORIENTED_EDGE('',*,*,#591,.F.);
#790=EDGE_LOOP('',(#786,#787,#788,#789));
#791=FACE_OUTER_BOUND('',#790,.T.);
#792=ADVANCED_FACE('',(#791),#785,.T.);
#793=CARTESIAN_POINT('',(0.899999999999999,0.8,0.0));
#794=DIRECTION('',(0.0,1.0,0.0));
#795=DIRECTION('',(0.0,0.0,1.0));
#796=AXIS2_PLACEMENT_3D('',#793,#794,#795);
#797=PLANE('',#796);
#798=ORIENTED_EDGE('',*,*,#623,.F.);
#799=ORIENTED_EDGE('',*,*,#764,.T.);
#800=ORIENTED_EDGE('',*,*,#532,.F.);
#801=ORIENTED_EDGE('',*,*,#554,.F.);
#802=EDGE_LOOP('',(#798,#799,#800,#801));
#803=FACE_OUTER_BOUND('',#802,.T.);
#804=ADVANCED_FACE('',(#803),#797,.T.);
#805=CARTESIAN_POINT('',(1.249999999999999,-3.053113E-016,1.3));
#806=DIRECTION('',(0.0,0.0,1.0));
#807=DIRECTION('',(1.0,0.0,0.0));
#808=AXIS2_PLACEMENT_3D('',#805,#806,#807);
#809=PLANE('',#808);
#810=ORIENTED_EDGE('',*,*,#525,.F.);
#811=ORIENTED_EDGE('',*,*,#757,.F.);
#812=ORIENTED_EDGE('',*,*,#684,.F.);
#813=ORIENTED_EDGE('',*,*,#576,.F.);
#814=EDGE_LOOP('',(#810,#811,#812,#813));
#815=FACE_OUTER_BOUND('',#814,.T.);
#816=ADVANCED_FACE('',(#815),#809,.T.);
#817=CLOSED_SHELL('',(#399,#434,#469,#504,#536,#558,#580,#602,#634,#656,#688,#720,#737,#768,#780,#792,#804,#816));
#818=MANIFOLD_SOLID_BREP('21D7',#817);
#819=COLOUR_RGB('254',0.866,0.866,0.866);
#820=SURFACE_STYLE_USAGE(.BOTH.,#821);
#821=SURFACE_SIDE_STYLE('NONE',(#822));
#822=SURFACE_STYLE_FILL_AREA(#823);
#823=FILL_AREA_STYLE('NONE',(#824));
#824=FILL_AREA_STYLE_COLOUR('NONE',#819);
#825=PRESENTATION_STYLE_ASSIGNMENT((#820));
#826=STYLED_ITEM('NONE',(#825),#818);
#827=CARTESIAN_POINT('',(-1.5,-0.7,0.1));
#828=DIRECTION('',(0.0,0.0,1.0));
#829=DIRECTION('',(1.0,0.0,0.0));
#830=AXIS2_PLACEMENT_3D('',#827,#828,#829);
#831=SPHERICAL_SURFACE('',#830,0.1);
#832=CARTESIAN_POINT('',(-1.600000000000001,-0.7,0.1));
#833=VERTEX_POINT('',#832);
#834=CARTESIAN_POINT('',(-1.5,-0.8,0.1));
#835=VERTEX_POINT('',#834);
#836=CARTESIAN_POINT('',(-1.5,-0.7,0.1));
#837=DIRECTION('',(0.0,0.0,-1.0));
#838=DIRECTION('',(-1.0,0.0,0.0));
#839=AXIS2_PLACEMENT_3D('',#836,#837,#838);
#840=CIRCLE('',#839,0.1);
#841=EDGE_CURVE('',#833,#835,#840,.F.);
#842=ORIENTED_EDGE('',*,*,#841,.F.);
#843=CARTESIAN_POINT('',(-1.5,-0.7,0.0));
#844=VERTEX_POINT('',#843);
#845=CARTESIAN_POINT('',(-1.5,-0.7,0.1));
#846=DIRECTION('',(0.0,-1.0,0.0));
#847=DIRECTION('',(0.0,0.0,-1.0));
#848=AXIS2_PLACEMENT_3D('',#845,#846,#847);
#849=CIRCLE('',#848,0.1);
#850=EDGE_CURVE('',#844,#833,#849,.F.);
#851=ORIENTED_EDGE('',*,*,#850,.F.);
#852=CARTESIAN_POINT('',(-1.5,-0.7,0.1));
#853=DIRECTION('',(-1.0,0.0,0.0));
#854=DIRECTION('',(0.0,-0.707106781186547,-0.707106781186548));
#855=AXIS2_PLACEMENT_3D('',#852,#853,#854);
#856=CIRCLE('',#855,0.1);
#857=EDGE_CURVE('',#844,#835,#856,.T.);
#858=ORIENTED_EDGE('',*,*,#857,.T.);
#859=EDGE_LOOP('',(#842,#851,#858));
#860=FACE_OUTER_BOUND('',#859,.T.);
#861=ADVANCED_FACE('',(#860),#831,.T.);
#862=CARTESIAN_POINT('',(-1.5,-0.7,1.2));
#863=DIRECTION('',(0.0,0.0,1.0));
#864=DIRECTION('',(1.0,0.0,0.0));
#865=AXIS2_PLACEMENT_3D('',#862,#863,#864);
#866=SPHERICAL_SURFACE('',#865,0.1);
#867=CARTESIAN_POINT('',(-1.5,-0.8,1.2));
#868=VERTEX_POINT('',#867);
#869=CARTESIAN_POINT('',(-1.5,-0.7,1.3));
#870=VERTEX_POINT('',#869);
#871=CARTESIAN_POINT('',(-1.5,-0.7,1.2));
#872=DIRECTION('',(-1.0,0.0,0.0));
#873=DIRECTION('',(0.0,-0.707106781186547,0.707106781186548));
#874=AXIS2_PLACEMENT_3D('',#871,#872,#873);
#875=CIRCLE('',#874,0.1);
#876=EDGE_CURVE('',#868,#870,#875,.T.);
#877=ORIENTED_EDGE('',*,*,#876,.T.);
#878=CARTESIAN_POINT('',(-1.600000000000001,-0.7,1.2));
#879=VERTEX_POINT('',#878);
#880=CARTESIAN_POINT('',(-1.5,-0.7,1.2));
#881=DIRECTION('',(0.0,-1.0,0.0));
#882=DIRECTION('',(-1.0,0.0,0.0));
#883=AXIS2_PLACEMENT_3D('',#880,#881,#882);
#884=CIRCLE('',#883,0.1);
#885=EDGE_CURVE('',#879,#870,#884,.F.);
#886=ORIENTED_EDGE('',*,*,#885,.F.);
#887=CARTESIAN_POINT('',(-1.5,-0.7,1.2));
#888=DIRECTION('',(0.0,0.0,1.0));
#889=DIRECTION('',(-0.707106781186548,-0.707106781186547,0.0));
#890=AXIS2_PLACEMENT_3D('',#887,#888,#889);
#891=CIRCLE('',#890,0.1);
#892=EDGE_CURVE('',#879,#868,#891,.T.);
#893=ORIENTED_EDGE('',*,*,#892,.T.);
#894=EDGE_LOOP('',(#877,#886,#893));
#895=FACE_OUTER_BOUND('',#894,.T.);
#896=ADVANCED_FACE('',(#895),#866,.T.);
#897=CARTESIAN_POINT('',(-1.5,0.7,0.1));
#898=DIRECTION('',(0.0,0.0,1.0));
#899=DIRECTION('',(1.0,0.0,0.0));
#900=AXIS2_PLACEMENT_3D('',#897,#898,#899);
#901=SPHERICAL_SURFACE('',#900,0.1);
#902=CARTESIAN_POINT('',(-1.5,0.7,0.0));
#903=VERTEX_POINT('',#902);
#904=CARTESIAN_POINT('',(-1.600000000000001,0.7,0.1));
#905=VERTEX_POINT('',#904);
#906=CARTESIAN_POINT('',(-1.5,0.7,0.1));
#907=DIRECTION('',(0.0,1.0,0.0));
#908=DIRECTION('',(-0.707106781186548,0.0,-0.707106781186547));
#909=AXIS2_PLACEMENT_3D('',#906,#907,#908);
#910=CIRCLE('',#909,0.1);
#911=EDGE_CURVE('',#903,#905,#910,.T.);
#912=ORIENTED_EDGE('',*,*,#911,.T.);
#913=CARTESIAN_POINT('',(-1.5,0.8,0.1));
#914=VERTEX_POINT('',#913);
#915=CARTESIAN_POINT('',(-1.5,0.7,0.1));
#916=DIRECTION('',(0.0,0.0,-1.0));
#917=DIRECTION('',(0.0,1.0,0.0));
#918=AXIS2_PLACEMENT_3D('',#915,#916,#917);
#919=CIRCLE('',#918,0.1);
#920=EDGE_CURVE('',#914,#905,#919,.F.);
#921=ORIENTED_EDGE('',*,*,#920,.F.);
#922=CARTESIAN_POINT('',(-1.5,0.7,0.1));
#923=DIRECTION('',(-1.0,0.0,0.0));
#924=DIRECTION('',(0.0,0.707106781186547,-0.707106781186548));
#925=AXIS2_PLACEMENT_3D('',#922,#923,#924);
#926=CIRCLE('',#925,0.1);
#927=EDGE_CURVE('',#914,#903,#926,.T.);
#928=ORIENTED_EDGE('',*,*,#927,.T.);
#929=EDGE_LOOP('',(#912,#921,#928));
#930=FACE_OUTER_BOUND('',#929,.T.);
#931=ADVANCED_FACE('',(#930),#901,.T.);
#932=CARTESIAN_POINT('',(-1.5,0.7,1.2));
#933=DIRECTION('',(0.0,0.0,1.0));
#934=DIRECTION('',(1.0,0.0,0.0));
#935=AXIS2_PLACEMENT_3D('',#932,#933,#934);
#936=SPHERICAL_SURFACE('',#935,0.1);
#937=CARTESIAN_POINT('',(-1.600000000000001,0.7,1.2));
#938=VERTEX_POINT('',#937);
#939=CARTESIAN_POINT('',(-1.5,0.7,1.3));
#940=VERTEX_POINT('',#939);
#941=CARTESIAN_POINT('',(-1.5,0.7,1.2));
#942=DIRECTION('',(0.0,1.0,0.0));
#943=DIRECTION('',(-0.707106781186547,0.0,0.707106781186547));
#944=AXIS2_PLACEMENT_3D('',#941,#942,#943);
#945=CIRCLE('',#944,0.1);
#946=EDGE_CURVE('',#938,#940,#945,.T.);
#947=ORIENTED_EDGE('',*,*,#946,.T.);
#948=CARTESIAN_POINT('',(-1.5,0.8,1.2));
#949=VERTEX_POINT('',#948);
#950=CARTESIAN_POINT('',(-1.5,0.7,1.2));
#951=DIRECTION('',(-1.0,0.0,0.0));
#952=DIRECTION('',(0.0,1.0,0.0));
#953=AXIS2_PLACEMENT_3D('',#950,#951,#952);
#954=CIRCLE('',#953,0.1);
#955=EDGE_CURVE('',#949,#940,#954,.F.);
#956=ORIENTED_EDGE('',*,*,#955,.F.);
#957=CARTESIAN_POINT('',(-1.5,0.7,1.2));
#958=DIRECTION('',(0.0,0.0,1.0));
#959=DIRECTION('',(-0.707106781186547,0.707106781186547,0.0));
#960=AXIS2_PLACEMENT_3D('',#957,#958,#959);
#961=CIRCLE('',#960,0.1);
#962=EDGE_CURVE('',#949,#938,#961,.T.);
#963=ORIENTED_EDGE('',*,*,#962,.T.);
#964=EDGE_LOOP('',(#947,#956,#963));
#965=FACE_OUTER_BOUND('',#964,.T.);
#966=ADVANCED_FACE('',(#965),#936,.T.);
#967=CARTESIAN_POINT('',(-1.425000000000001,0.7,1.2));
#968=DIRECTION('',(1.0,0.0,0.0));
#969=DIRECTION('',(0.0,0.707106781186547,0.707106781186548));
#970=AXIS2_PLACEMENT_3D('',#967,#968,#969);
#971=CYLINDRICAL_SURFACE('',#970,0.1);
#972=CARTESIAN_POINT('',(-0.9,0.7,1.3));
#973=VERTEX_POINT('',#972);
#974=CARTESIAN_POINT('',(-0.9,0.8,1.2));
#975=VERTEX_POINT('',#974);
#976=CARTESIAN_POINT('',(-0.9,0.7,1.2));
#977=DIRECTION('',(-1.0,0.0,0.0));
#978=DIRECTION('',(0.0,0.707106781186547,0.707106781186548));
#979=AXIS2_PLACEMENT_3D('',#976,#977,#978);
#980=CIRCLE('',#979,0.1);
#981=EDGE_CURVE('',#973,#975,#980,.T.);
#982=ORIENTED_EDGE('',*,*,#981,.T.);
#983=CARTESIAN_POINT('',(-0.9,0.8,1.2));
#984=DIRECTION('',(-1.0,0.0,0.0));
#985=VECTOR('',#984,0.6);
#986=LINE('',#983,#985);
#987=EDGE_CURVE('',#975,#949,#986,.T.);
#988=ORIENTED_EDGE('',*,*,#987,.T.);
#989=ORIENTED_EDGE('',*,*,#955,.T.);
#990=CARTESIAN_POINT('',(-1.5,0.7,1.3));
#991=DIRECTION('',(1.0,0.0,0.0));
#992=VECTOR('',#991,0.6);
#993=LINE('',#990,#992);
#994=EDGE_CURVE('',#940,#973,#993,.T.);
#995=ORIENTED_EDGE('',*,*,#994,.T.);
#996=EDGE_LOOP('',(#982,#988,#989,#995));
#997=FACE_OUTER_BOUND('',#996,.T.);
#998=ADVANCED_FACE('',(#997),#971,.T.);
#999=CARTESIAN_POINT('',(-1.5,0.7,0.0));
#1000=DIRECTION('',(0.0,0.0,1.0));
#1001=DIRECTION('',(-0.707106781186547,0.707106781186547,0.0));
#1002=AXIS2_PLACEMENT_3D('',#999,#1000,#1001);
#1003=CYLINDRICAL_SURFACE('',#1002,0.1);
#1004=ORIENTED_EDGE('',*,*,#962,.F.);
#1005=CARTESIAN_POINT('',(-1.5,0.8,1.2));
#1006=DIRECTION('',(0.0,0.0,-1.0));
#1007=VECTOR('',#1006,1.1);
#1008=LINE('',#1005,#1007);
#1009=EDGE_CURVE('',#949,#914,#1008,.T.);
#1010=ORIENTED_EDGE('',*,*,#1009,.T.);
#1011=ORIENTED_EDGE('',*,*,#920,.T.);
#1012=CARTESIAN_POINT('',(-1.600000000000001,0.7,0.1));
#1013=DIRECTION('',(0.0,0.0,1.0));
#1014=VECTOR('',#1013,1.1);
#1015=LINE('',#1012,#1014);
#1016=EDGE_CURVE('',#905,#938,#1015,.T.);
#1017=ORIENTED_EDGE('',*,*,#1016,.T.);
#1018=EDGE_LOOP('',(#1004,#1010,#1011,#1017));
#1019=FACE_OUTER_BOUND('',#1018,.T.);
#1020=ADVANCED_FACE('',(#1019),#1003,.T.);
#1021=CARTESIAN_POINT('',(-1.5,-0.4,1.2));
#1022=DIRECTION('',(0.0,1.0,0.0));
#1023=DIRECTION('',(-0.707106781186547,0.0,0.707106781186547));
#1024=AXIS2_PLACEMENT_3D('',#1021,#1022,#1023);
#1025=CYLINDRICAL_SURFACE('',#1024,0.1);
#1026=ORIENTED_EDGE('',*,*,#946,.F.);
#1027=CARTESIAN_POINT('',(-1.600000000000001,0.7,1.2));
#1028=DIRECTION('',(0.0,-1.0,0.0));
#1029=VECTOR('',#1028,1.4);
#1030=LINE('',#1027,#1029);
#1031=EDGE_CURVE('',#938,#879,#1030,.T.);
#1032=ORIENTED_EDGE('',*,*,#1031,.T.);
#1033=ORIENTED_EDGE('',*,*,#885,.T.);
#1034=CARTESIAN_POINT('',(-1.5,-0.7,1.3));
#1035=DIRECTION('',(0.0,1.0,0.0));
#1036=VECTOR('',#1035,1.4);
#1037=LINE('',#1034,#1036);
#1038=EDGE_CURVE('',#870,#940,#1037,.T.);
#1039=ORIENTED_EDGE('',*,*,#1038,.T.);
#1040=EDGE_LOOP('',(#1026,#1032,#1033,#1039));
#1041=FACE_OUTER_BOUND('',#1040,.T.);
#1042=ADVANCED_FACE('',(#1041),#1025,.T.);
#1043=CARTESIAN_POINT('',(-1.5,-0.4,0.1));
#1044=DIRECTION('',(0.0,-1.0,0.0));
#1045=DIRECTION('',(-0.707106781186548,0.0,-0.707106781186547));
#1046=AXIS2_PLACEMENT_3D('',#1043,#1044,#1045);
#1047=CYLINDRICAL_SURFACE('',#1046,0.1);
#1048=ORIENTED_EDGE('',*,*,#850,.T.);
#1049=CARTESIAN_POINT('',(-1.600000000000001,-0.7,0.1));
#1050=DIRECTION('',(0.0,1.0,0.0));
#1051=VECTOR('',#1050,1.4);
#1052=LINE('',#1049,#1051);
#1053=EDGE_CURVE('',#833,#905,#1052,.T.);
#1054=ORIENTED_EDGE('',*,*,#1053,.T.);
#1055=ORIENTED_EDGE('',*,*,#911,.F.);
#1056=CARTESIAN_POINT('',(-1.5,0.7,0.0));
#1057=DIRECTION('',(0.0,-1.0,0.0));
#1058=VECTOR('',#1057,1.4);
#1059=LINE('',#1056,#1058);
#1060=EDGE_CURVE('',#903,#844,#1059,.T.);
#1061=ORIENTED_EDGE('',*,*,#1060,.T.);
#1062=EDGE_LOOP('',(#1048,#1054,#1055,#1061));
#1063=FACE_OUTER_BOUND('',#1062,.T.);
#1064=ADVANCED_FACE('',(#1063),#1047,.T.);
#1065=CARTESIAN_POINT('',(-1.425000000000001,0.7,0.1));
#1066=DIRECTION('',(-1.0,0.0,0.0));
#1067=DIRECTION('',(0.0,0.707106781186547,-0.707106781186548));
#1068=AXIS2_PLACEMENT_3D('',#1065,#1066,#1067);
#1069=CYLINDRICAL_SURFACE('',#1068,0.1);
#1070=CARTESIAN_POINT('',(-0.9,0.8,0.1));
#1071=VERTEX_POINT('',#1070);
#1072=CARTESIAN_POINT('',(-0.9,0.7,0.0));
#1073=VERTEX_POINT('',#1072);
#1074=CARTESIAN_POINT('',(-0.9,0.7,0.1));
#1075=DIRECTION('',(-1.0,0.0,0.0));
#1076=DIRECTION('',(0.0,0.707106781186547,-0.707106781186548));
#1077=AXIS2_PLACEMENT_3D('',#1074,#1075,#1076);
#1078=CIRCLE('',#1077,0.1);
#1079=EDGE_CURVE('',#1071,#1073,#1078,.T.);
#1080=ORIENTED_EDGE('',*,*,#1079,.T.);
#1081=CARTESIAN_POINT('',(-0.9,0.7,0.0));
#1082=DIRECTION('',(-1.0,0.0,0.0));
#1083=VECTOR('',#1082,0.6);
#1084=LINE('',#1081,#1083);
#1085=EDGE_CURVE('',#1073,#903,#1084,.T.);
#1086=ORIENTED_EDGE('',*,*,#1085,.T.);
#1087=ORIENTED_EDGE('',*,*,#927,.F.);
#1088=CARTESIAN_POINT('',(-1.5,0.8,0.1));
#1089=DIRECTION('',(1.0,0.0,0.0));
#1090=VECTOR('',#1089,0.6);
#1091=LINE('',#1088,#1090);
#1092=EDGE_CURVE('',#914,#1071,#1091,.T.);
#1093=ORIENTED_EDGE('',*,*,#1092,.T.);
#1094=EDGE_LOOP('',(#1080,#1086,#1087,#1093));
#1095=FACE_OUTER_BOUND('',#1094,.T.);
#1096=ADVANCED_FACE('',(#1095),#1069,.T.);
#1097=CARTESIAN_POINT('',(-1.5,-0.7,0.0));
#1098=DIRECTION('',(0.0,0.0,1.0));
#1099=DIRECTION('',(-0.707106781186548,-0.707106781186547,0.0));
#1100=AXIS2_PLACEMENT_3D('',#1097,#1098,#1099);
#1101=CYLINDRICAL_SURFACE('',#1100,0.1);
#1102=ORIENTED_EDGE('',*,*,#892,.F.);
#1103=CARTESIAN_POINT('',(-1.600000000000001,-0.7,1.2));
#1104=DIRECTION('',(0.0,0.0,-1.0));
#1105=VECTOR('',#1104,1.1);
#1106=LINE('',#1103,#1105);
#1107=EDGE_CURVE('',#879,#833,#1106,.T.);
#1108=ORIENTED_EDGE('',*,*,#1107,.T.);
#1109=ORIENTED_EDGE('',*,*,#841,.T.);
#1110=CARTESIAN_POINT('',(-1.5,-0.8,0.1));
#1111=DIRECTION('',(0.0,0.0,1.0));
#1112=VECTOR('',#1111,1.1);
#1113=LINE('',#1110,#1112);
#1114=EDGE_CURVE('',#835,#868,#1113,.T.);
#1115=ORIENTED_EDGE('',*,*,#1114,.T.);
#1116=EDGE_LOOP('',(#1102,#1108,#1109,#1115));
#1117=FACE_OUTER_BOUND('',#1116,.T.);
#1118=ADVANCED_FACE('',(#1117),#1101,.T.);
#1119=CARTESIAN_POINT('',(-1.075000000000001,-0.7,1.2));
#1120=DIRECTION('',(-1.0,0.0,0.0));
#1121=DIRECTION('',(0.0,-0.707106781186547,0.707106781186548));
#1122=AXIS2_PLACEMENT_3D('',#1119,#1120,#1121);
#1123=CYLINDRICAL_SURFACE('',#1122,0.1);
#1124=CARTESIAN_POINT('',(-0.9,-0.8,1.2));
#1125=VERTEX_POINT('',#1124);
#1126=CARTESIAN_POINT('',(-0.9,-0.7,1.3));
#1127=VERTEX_POINT('',#1126);
#1128=CARTESIAN_POINT('',(-0.9,-0.7,1.2));
#1129=DIRECTION('',(-1.0,0.0,0.0));
#1130=DIRECTION('',(0.0,-0.707106781186547,0.707106781186548));
#1131=AXIS2_PLACEMENT_3D('',#1128,#1129,#1130);
#1132=CIRCLE('',#1131,0.1);
#1133=EDGE_CURVE('',#1125,#1127,#1132,.T.);
#1134=ORIENTED_EDGE('',*,*,#1133,.T.);
#1135=CARTESIAN_POINT('',(-0.9,-0.7,1.3));
#1136=DIRECTION('',(-1.0,0.0,0.0));
#1137=VECTOR('',#1136,0.6);
#1138=LINE('',#1135,#1137);
#1139=EDGE_CURVE('',#1127,#870,#1138,.T.);
#1140=ORIENTED_EDGE('',*,*,#1139,.T.);
#1141=ORIENTED_EDGE('',*,*,#876,.F.);
#1142=CARTESIAN_POINT('',(-1.5,-0.8,1.2));
#1143=DIRECTION('',(1.0,0.0,0.0));
#1144=VECTOR('',#1143,0.6);
#1145=LINE('',#1142,#1144);
#1146=EDGE_CURVE('',#868,#1125,#1145,.T.);
#1147=ORIENTED_EDGE('',*,*,#1146,.T.);
#1148=EDGE_LOOP('',(#1134,#1140,#1141,#1147));
#1149=FACE_OUTER_BOUND('',#1148,.T.);
#1150=ADVANCED_FACE('',(#1149),#1123,.T.);
#1151=CARTESIAN_POINT('',(-1.075000000000001,-0.7,0.1));
#1152=DIRECTION('',(1.0,0.0,0.0));
#1153=DIRECTION('',(0.0,-0.707106781186547,-0.707106781186548));
#1154=AXIS2_PLACEMENT_3D('',#1151,#1152,#1153);
#1155=CYLINDRICAL_SURFACE('',#1154,0.1);
#1156=CARTESIAN_POINT('',(-0.9,-0.7,0.0));
#1157=VERTEX_POINT('',#1156);
#1158=CARTESIAN_POINT('',(-0.9,-0.8,0.1));
#1159=VERTEX_POINT('',#1158);
#1160=CARTESIAN_POINT('',(-0.9,-0.7,0.1));
#1161=DIRECTION('',(-1.0,0.0,0.0));
#1162=DIRECTION('',(0.0,-0.707106781186547,-0.707106781186548));
#1163=AXIS2_PLACEMENT_3D('',#1160,#1161,#1162);
#1164=CIRCLE('',#1163,0.1);
#1165=EDGE_CURVE('',#1157,#1159,#1164,.T.);
#1166=ORIENTED_EDGE('',*,*,#1165,.T.);
#1167=CARTESIAN_POINT('',(-0.9,-0.8,0.1));
#1168=DIRECTION('',(-1.0,0.0,0.0));
#1169=VECTOR('',#1168,0.6);
#1170=LINE('',#1167,#1169);
#1171=EDGE_CURVE('',#1159,#835,#1170,.T.);
#1172=ORIENTED_EDGE('',*,*,#1171,.T.);
#1173=ORIENTED_EDGE('',*,*,#857,.F.);
#1174=CARTESIAN_POINT('',(-1.5,-0.7,0.0));
#1175=DIRECTION('',(1.0,0.0,0.0));
#1176=VECTOR('',#1175,0.6);
#1177=LINE('',#1174,#1176);
#1178=EDGE_CURVE('',#844,#1157,#1177,.T.);
#1179=ORIENTED_EDGE('',*,*,#1178,.T.);
#1180=EDGE_LOOP('',(#1166,#1172,#1173,#1179));
#1181=FACE_OUTER_BOUND('',#1180,.T.);
#1182=ADVANCED_FACE('',(#1181),#1155,.T.);
#1183=CARTESIAN_POINT('',(-1.250000000000001,-3.053113E-016,1.3));
#1184=DIRECTION('',(0.0,0.0,1.0));
#1185=DIRECTION('',(1.0,0.0,0.0));
#1186=AXIS2_PLACEMENT_3D('',#1183,#1184,#1185);
#1187=PLANE('',#1186);
#1188=ORIENTED_EDGE('',*,*,#994,.F.);
#1189=ORIENTED_EDGE('',*,*,#1038,.F.);
#1190=ORIENTED_EDGE('',*,*,#1139,.F.);
#1191=CARTESIAN_POINT('',(-0.9,0.7,1.3));
#1192=DIRECTION('',(0.0,-1.0,0.0));
#1193=VECTOR('',#1192,1.4);
#1194=LINE('',#1191,#1193);
#1195=EDGE_CURVE('',#973,#1127,#1194,.T.);
#1196=ORIENTED_EDGE('',*,*,#1195,.F.);
#1197=EDGE_LOOP('',(#1188,#1189,#1190,#1196));
#1198=FACE_OUTER_BOUND('',#1197,.T.);
#1199=ADVANCED_FACE('',(#1198),#1187,.T.);
#1200=CARTESIAN_POINT('',(-0.9,-0.8,0.0));
#1201=DIRECTION('',(0.0,-1.0,0.0));
#1202=DIRECTION('',(0.0,0.0,-1.0));
#1203=AXIS2_PLACEMENT_3D('',#1200,#1201,#1202);
#1204=PLANE('',#1203);
#1205=ORIENTED_EDGE('',*,*,#1146,.F.);
#1206=ORIENTED_EDGE('',*,*,#1114,.F.);
#1207=ORIENTED_EDGE('',*,*,#1171,.F.);
#1208=CARTESIAN_POINT('',(-0.9,-0.8,0.1));
#1209=DIRECTION('',(0.0,0.0,1.0));
#1210=VECTOR('',#1209,1.1);
#1211=LINE('',#1208,#1210);
#1212=EDGE_CURVE('',#1159,#1125,#1211,.T.);
#1213=ORIENTED_EDGE('',*,*,#1212,.T.);
#1214=EDGE_LOOP('',(#1205,#1206,#1207,#1213));
#1215=FACE_OUTER_BOUND('',#1214,.T.);
#1216=ADVANCED_FACE('',(#1215),#1204,.T.);
#1217=CARTESIAN_POINT('',(-1.600000000000001,-0.8,0.0));
#1218=DIRECTION('',(-1.0,0.0,0.0));
#1219=DIRECTION('',(0.0,0.0,1.0));
#1220=AXIS2_PLACEMENT_3D('',#1217,#1218,#1219);
#1221=PLANE('',#1220);
#1222=ORIENTED_EDGE('',*,*,#1016,.F.);
#1223=ORIENTED_EDGE('',*,*,#1053,.F.);
#1224=ORIENTED_EDGE('',*,*,#1107,.F.);
#1225=ORIENTED_EDGE('',*,*,#1031,.F.);
#1226=EDGE_LOOP('',(#1222,#1223,#1224,#1225));
#1227=FACE_OUTER_BOUND('',#1226,.T.);
#1228=ADVANCED_FACE('',(#1227),#1221,.T.);
#1229=CARTESIAN_POINT('',(-1.600000000000001,0.8,0.0));
#1230=DIRECTION('',(0.0,1.0,0.0));
#1231=DIRECTION('',(0.0,0.0,1.0));
#1232=AXIS2_PLACEMENT_3D('',#1229,#1230,#1231);
#1233=PLANE('',#1232);
#1234=ORIENTED_EDGE('',*,*,#987,.F.);
#1235=CARTESIAN_POINT('',(-0.9,0.8,0.1));
#1236=DIRECTION('',(0.0,0.0,1.0));
#1237=VECTOR('',#1236,1.1);
#1238=LINE('',#1235,#1237);
#1239=EDGE_CURVE('',#1071,#975,#1238,.T.);
#1240=ORIENTED_EDGE('',*,*,#1239,.F.);
#1241=ORIENTED_EDGE('',*,*,#1092,.F.);
#1242=ORIENTED_EDGE('',*,*,#1009,.F.);
#1243=EDGE_LOOP('',(#1234,#1240,#1241,#1242));
#1244=FACE_OUTER_BOUND('',#1243,.T.);
#1245=ADVANCED_FACE('',(#1244),#1233,.T.);
#1246=CARTESIAN_POINT('',(-0.9,0.8,0.0));
#1247=DIRECTION('',(1.0,0.0,0.0));
#1248=DIRECTION('',(0.0,0.0,-1.0));
#1249=AXIS2_PLACEMENT_3D('',#1246,#1247,#1248);
#1250=PLANE('',#1249);
#1251=ORIENTED_EDGE('',*,*,#981,.F.);
#1252=ORIENTED_EDGE('',*,*,#1195,.T.);
#1253=ORIENTED_EDGE('',*,*,#1133,.F.);
#1254=ORIENTED_EDGE('',*,*,#1212,.F.);
#1255=ORIENTED_EDGE('',*,*,#1165,.F.);
#1256=CARTESIAN_POINT('',(-0.9,-0.7,0.0));
#1257=DIRECTION('',(0.0,1.0,0.0));
#1258=VECTOR('',#1257,1.4);
#1259=LINE('',#1256,#1258);
#1260=EDGE_CURVE('',#1157,#1073,#1259,.T.);
#1261=ORIENTED_EDGE('',*,*,#1260,.T.);
#1262=ORIENTED_EDGE('',*,*,#1079,.F.);
#1263=ORIENTED_EDGE('',*,*,#1239,.T.);
#1264=EDGE_LOOP('',(#1251,#1252,#1253,#1254,#1255,#1261,#1262,#1263));
#1265=FACE_OUTER_BOUND('',#1264,.T.);
#1266=ADVANCED_FACE('',(#1265),#1250,.T.);
#1267=CARTESIAN_POINT('',(-1.250000000000001,-3.053113E-016,0.0));
#1268=DIRECTION('',(0.0,0.0,1.0));
#1269=DIRECTION('',(1.0,0.0,0.0));
#1270=AXIS2_PLACEMENT_3D('',#1267,#1268,#1269);
#1271=PLANE('',#1270);
#1272=ORIENTED_EDGE('',*,*,#1085,.F.);
#1273=ORIENTED_EDGE('',*,*,#1260,.F.);
#1274=ORIENTED_EDGE('',*,*,#1178,.F.);
#1275=ORIENTED_EDGE('',*,*,#1060,.F.);
#1276=EDGE_LOOP('',(#1272,#1273,#1274,#1275));
#1277=FACE_OUTER_BOUND('',#1276,.T.);
#1278=ADVANCED_FACE('',(#1277),#1271,.F.);
#1279=CLOSED_SHELL('',(#861,#896,#931,#966,#998,#1020,#1042,#1064,#1096,#1118,#1150,#1182,#1199,#1216,#1228,#1245,#1266,#1278));
#1280=MANIFOLD_SOLID_BREP('21D3',#1279);
#1281=STYLED_ITEM('NONE',(#825),#1280);
#1282=ADVANCED_BREP_SHAPE_REPRESENTATION('ABSR1',(#354,#818,#1280),#28);
#1283=SHAPE_REPRESENTATION_RELATIONSHIP('SRRPL1','',#1282,#62);
ENDSEC;
END-ISO-10303-21;
