ISO-10303-21;
HEADER;
/****************************************************************
 * Generated by software with PDE/Lib inside                    *
 * PDE/Lib Version 3.2.2, created Thu Mar 23, 2000 at 18:38:49  *
 * International Technegroup Inc. (www.iti-oh.com)              *
 ****************************************************************/
FILE_DESCRIPTION((''),'2;1');
FILE_NAME('IND_MURATA-PS_2200R.stp','2009-08-24T12:39:04',(''),(''),'Mechanical Desktop 2006','Mechanical Desktop 2006',', , ');
FILE_SCHEMA(('AUTOMOTIVE_DESIGN { 1 2 10303 214 0 1 1 1 }'));
ENDSEC;
DATA;
#8=(NAMED_UNIT(*)PLANE_ANGLE_UNIT()SI_UNIT($,.RADIAN.));
#9=DIMENSIONAL_EXPONENTS(0.0,0.0,0.0,0.0,0.0,0.0,0.0);
#10=PLANE_ANGLE_MEASURE_WITH_UNIT(PLANE_ANGLE_MEASURE(0.017453292500000),#8);
#14=(CONVERSION_BASED_UNIT('DEGREE',#10)NAMED_UNIT(#9)PLANE_ANGLE_UNIT());
#18=(NAMED_UNIT(*)SI_UNIT($,.STERADIAN.)SOLID_ANGLE_UNIT());
#22=(LENGTH_UNIT()NAMED_UNIT(*)SI_UNIT(.MILLI.,.METRE.));
#23=UNCERTAINTY_MEASURE_WITH_UNIT(LENGTH_MEASURE(0.000001000000000),#22,'DISTANCE_ACCURACY_VALUE','');
#28=(GEOMETRIC_REPRESENTATION_CONTEXT(3)GLOBAL_UNCERTAINTY_ASSIGNED_CONTEXT((#23))GLOBAL_UNIT_ASSIGNED_CONTEXT((#14,#18,#22))REPRESENTATION_CONTEXT('None','None'));
#29=APPLICATION_CONTEXT('automotive design');
#30=APPLICATION_PROTOCOL_DEFINITION('DRAFT_INTERNATIONAL_STANDARD','automotive_design',1998,#29);
#31=PRODUCT_CONTEXT('3D Mechanical Parts',#29,'mechanical');
#32=PRODUCT('Product','Product','',(#31));
#33=PRODUCT_RELATED_PRODUCT_CATEGORY('part',$,(#32));
#34=PRODUCT_CATEGORY('part',$);
#35=PERSON('1','Design','Joe',$,$,$);
#36=ORGANIZATION($,'None','None');
#37=PERSON_AND_ORGANIZATION(#35,#36);
#38=PERSON_AND_ORGANIZATION_ROLE('design_owner');
#39=APPLIED_PERSON_AND_ORGANIZATION_ASSIGNMENT(#37,#38,(#32));
#40=PRODUCT_DEFINITION_FORMATION_WITH_SPECIFIED_SOURCE('None','',#32,.BOUGHT.);
#41=PERSON('2','Creator','Joe',$,$,$);
#42=ORGANIZATION($,'None','None');
#43=PERSON_AND_ORGANIZATION(#41,#42);
#44=PERSON_AND_ORGANIZATION_ROLE('creator');
#45=APPLIED_PERSON_AND_ORGANIZATION_ASSIGNMENT(#43,#44,(#40));
#46=PERSON('3','Supplier','Joe',$,$,$);
#47=ORGANIZATION($,'None','None');
#48=PERSON_AND_ORGANIZATION(#46,#47);
#49=PERSON_AND_ORGANIZATION_ROLE('design_supplier');
#50=APPLIED_PERSON_AND_ORGANIZATION_ASSIGNMENT(#48,#49,(#40));
#51=PRODUCT_DEFINITION_CONTEXT('part definition',#29,'design');
#52=PRODUCT_DEFINITION('None','',#40,#51);
#53=PERSON('4','Creator','Joe',$,$,$);
#54=ORGANIZATION($,'None','None');
#55=PERSON_AND_ORGANIZATION(#53,#54);
#56=PERSON_AND_ORGANIZATION_ROLE('creator');
#57=APPLIED_PERSON_AND_ORGANIZATION_ASSIGNMENT(#55,#56,(#52));
#58=CARTESIAN_POINT('NONE',(0.0,0.0,0.0));
#59=DIRECTION('NONE',(0.0,0.0,1.0));
#60=DIRECTION('NONE',(1.0,0.0,0.0));
#61=AXIS2_PLACEMENT_3D('NONE',#58,#59,#60);
#62=SHAPE_REPRESENTATION('SR1',(#61),#28);
#63=PRODUCT_DEFINITION_SHAPE('PDS1','Test Part',#52);
#64=SHAPE_DEFINITION_REPRESENTATION(#63,#62);
#65=CARTESIAN_POINT('',(1.500000000000000,6.156403E-016,1.386298772369392));
#66=DIRECTION('',(1.224606E-016,4.440892E-016,1.0));
#67=DIRECTION('',(-1.0,0.0,0.0));
#68=AXIS2_PLACEMENT_3D('',#65,#66,#67);
#69=CYLINDRICAL_SURFACE('',#68,0.750000000000000);
#70=CARTESIAN_POINT('',(0.750000000000000,6.156403E-016,1.386298772369392));
#71=VERTEX_POINT('',#70);
#72=CARTESIAN_POINT('',(0.750000000000000,6.662665E-016,1.500298772369392));
#73=VERTEX_POINT('',#72);
#74=CARTESIAN_POINT('',(0.750000000000000,6.156403E-016,1.386298772369392));
#75=DIRECTION('',(0.0,0.0,1.0));
#76=VECTOR('',#75,0.114000000000000);
#77=LINE('',#74,#76);
#78=EDGE_CURVE('',#71,#73,#77,.T.);
#79=ORIENTED_EDGE('',*,*,#78,.F.);
#80=CARTESIAN_POINT('',(2.250000000000000,5.237948E-016,1.386298772369392));
#81=VERTEX_POINT('',#80);
#82=CARTESIAN_POINT('',(1.500000000000000,6.156403E-016,1.386298772369392));
#83=DIRECTION('',(0.0,0.0,-1.0));
#84=DIRECTION('',(-1.0,0.0,0.0));
#85=AXIS2_PLACEMENT_3D('',#82,#83,#84);
#86=CIRCLE('',#85,0.750000000000000);
#87=EDGE_CURVE('',#81,#71,#86,.T.);
#88=ORIENTED_EDGE('',*,*,#87,.F.);
#89=CARTESIAN_POINT('',(2.250000000000000,5.744210E-016,1.500298772369392));
#90=VERTEX_POINT('',#89);
#91=CARTESIAN_POINT('',(2.250000000000000,5.744210E-016,1.500298772369392));
#92=DIRECTION('',(0.0,0.0,-1.0));
#93=VECTOR('',#92,0.114000000000000);
#94=LINE('',#91,#93);
#95=EDGE_CURVE('',#90,#81,#94,.T.);
#96=ORIENTED_EDGE('',*,*,#95,.F.);
#97=CARTESIAN_POINT('',(1.500000000000000,6.662665E-016,1.500298772369392));
#98=DIRECTION('',(0.0,0.0,-1.0));
#99=DIRECTION('',(-1.0,0.0,0.0));
#100=AXIS2_PLACEMENT_3D('',#97,#98,#99);
#101=CIRCLE('',#100,0.750000000000000);
#102=EDGE_CURVE('',#90,#73,#101,.T.);
#103=ORIENTED_EDGE('',*,*,#102,.T.);
#104=EDGE_LOOP('',(#79,#88,#96,#103));
#105=FACE_OUTER_BOUND('',#104,.T.);
#106=ADVANCED_FACE('',(#105),#69,.T.);
#107=CARTESIAN_POINT('',(1.500000000000000,6.156403E-016,1.386298772369392));
#108=DIRECTION('',(1.224606E-016,4.440892E-016,1.0));
#109=DIRECTION('',(-1.0,0.0,0.0));
#110=AXIS2_PLACEMENT_3D('',#107,#108,#109);
#111=CYLINDRICAL_SURFACE('',#110,0.750000000000000);
#112=ORIENTED_EDGE('',*,*,#78,.T.);
#113=CARTESIAN_POINT('',(1.500000000000000,6.662665E-016,1.500298772369392));
#114=DIRECTION('',(0.0,0.0,-1.0));
#115=DIRECTION('',(-1.0,0.0,0.0));
#116=AXIS2_PLACEMENT_3D('',#113,#114,#115);
#117=CIRCLE('',#116,0.750000000000000);
#118=EDGE_CURVE('',#73,#90,#117,.T.);
#119=ORIENTED_EDGE('',*,*,#118,.T.);
#120=ORIENTED_EDGE('',*,*,#95,.T.);
#121=CARTESIAN_POINT('',(1.500000000000000,6.156403E-016,1.386298772369392));
#122=DIRECTION('',(0.0,0.0,-1.0));
#123=DIRECTION('',(-1.0,0.0,0.0));
#124=AXIS2_PLACEMENT_3D('',#121,#122,#123);
#125=CIRCLE('',#124,0.750000000000000);
#126=EDGE_CURVE('',#71,#81,#125,.T.);
#127=ORIENTED_EDGE('',*,*,#126,.F.);
#128=EDGE_LOOP('',(#112,#119,#120,#127));
#129=FACE_OUTER_BOUND('',#128,.T.);
#130=ADVANCED_FACE('',(#129),#111,.T.);
#131=CARTESIAN_POINT('',(1.500000000000000,6.662665E-016,1.500298772369392));
#132=DIRECTION('',(0.0,0.0,-1.0));
#133=DIRECTION('',(-1.0,0.0,0.0));
#134=AXIS2_PLACEMENT_3D('',#131,#132,#133);
#135=PLANE('',#134);
#136=ORIENTED_EDGE('',*,*,#118,.F.);
#137=ORIENTED_EDGE('',*,*,#102,.F.);
#138=EDGE_LOOP('',(#136,#137));
#139=FACE_OUTER_BOUND('',#138,.T.);
#140=ADVANCED_FACE('',(#139),#135,.F.);
#141=CARTESIAN_POINT('',(1.500000000000000,6.156403E-016,1.386298772369392));
#142=DIRECTION('',(0.0,0.0,-1.0));
#143=DIRECTION('',(-1.0,0.0,0.0));
#144=AXIS2_PLACEMENT_3D('',#141,#142,#143);
#145=PLANE('',#144);
#146=ORIENTED_EDGE('',*,*,#126,.T.);
#147=ORIENTED_EDGE('',*,*,#87,.T.);
#148=EDGE_LOOP('',(#146,#147));
#149=FACE_OUTER_BOUND('',#148,.T.);
#150=ADVANCED_FACE('',(#149),#145,.T.);
#151=CLOSED_SHELL('',(#106,#130,#140,#150));
#152=MANIFOLD_SOLID_BREP('79A',#151);
#153=COLOUR_RGB('250',0.330000000000000,0.330000000000000,0.330000000000000);
#154=SURFACE_STYLE_USAGE(.BOTH.,#155);
#155=SURFACE_SIDE_STYLE('NONE',(#156));
#156=SURFACE_STYLE_FILL_AREA(#157);
#157=FILL_AREA_STYLE('NONE',(#158));
#158=FILL_AREA_STYLE_COLOUR('NONE',#153);
#159=PRESENTATION_STYLE_ASSIGNMENT((#154));
#160=STYLED_ITEM('NONE',(#159),#152);
#161=MECHANICAL_DESIGN_GEOMETRIC_PRESENTATION_REPRESENTATION('NONE',(#160,#251,#410,#569,#665,#804,#893,#1034,#1173),#28);
#162=PRESENTATION_LAYER_ASSIGNMENT('3D','None',(#152,#250,#409,#568,#657,#803,#892,#1033,#1172));
#163=CARTESIAN_POINT('',(-1.500000000000000,6.156403E-016,1.386298772369393));
#164=DIRECTION('',(1.224606E-016,4.440892E-016,1.0));
#165=DIRECTION('',(-1.0,0.0,0.0));
#166=AXIS2_PLACEMENT_3D('',#163,#164,#165);
#167=CYLINDRICAL_SURFACE('',#166,0.750000000000000);
#168=CARTESIAN_POINT('',(-2.250000000000000,6.156403E-016,1.386298772369393));
#169=VERTEX_POINT('',#168);
#170=CARTESIAN_POINT('',(-2.250000000000000,6.662665E-016,1.500298772369393));
#171=VERTEX_POINT('',#170);
#172=CARTESIAN_POINT('',(-2.250000000000000,6.156403E-016,1.386298772369393));
#173=DIRECTION('',(0.0,0.0,1.0));
#174=VECTOR('',#173,0.114000000000000);
#175=LINE('',#172,#174);
#176=EDGE_CURVE('',#169,#171,#175,.T.);
#177=ORIENTED_EDGE('',*,*,#176,.F.);
#178=CARTESIAN_POINT('',(-0.750000000000000,5.237948E-016,1.386298772369393));
#179=VERTEX_POINT('',#178);
#180=CARTESIAN_POINT('',(-1.500000000000000,6.156403E-016,1.386298772369393));
#181=DIRECTION('',(0.0,0.0,-1.0));
#182=DIRECTION('',(-1.0,0.0,0.0));
#183=AXIS2_PLACEMENT_3D('',#180,#181,#182);
#184=CIRCLE('',#183,0.750000000000000);
#185=EDGE_CURVE('',#179,#169,#184,.T.);
#186=ORIENTED_EDGE('',*,*,#185,.F.);
#187=CARTESIAN_POINT('',(-0.750000000000000,5.744210E-016,1.500298772369393));
#188=VERTEX_POINT('',#187);
#189=CARTESIAN_POINT('',(-0.750000000000000,5.744210E-016,1.500298772369393));
#190=DIRECTION('',(0.0,0.0,-1.0));
#191=VECTOR('',#190,0.114000000000000);
#192=LINE('',#189,#191);
#193=EDGE_CURVE('',#188,#179,#192,.T.);
#194=ORIENTED_EDGE('',*,*,#193,.F.);
#195=CARTESIAN_POINT('',(-1.500000000000000,6.662665E-016,1.500298772369393));
#196=DIRECTION('',(0.0,0.0,-1.0));
#197=DIRECTION('',(-1.0,0.0,0.0));
#198=AXIS2_PLACEMENT_3D('',#195,#196,#197);
#199=CIRCLE('',#198,0.750000000000000);
#200=EDGE_CURVE('',#188,#171,#199,.T.);
#201=ORIENTED_EDGE('',*,*,#200,.T.);
#202=EDGE_LOOP('',(#177,#186,#194,#201));
#203=FACE_OUTER_BOUND('',#202,.T.);
#204=ADVANCED_FACE('',(#203),#167,.T.);
#205=CARTESIAN_POINT('',(-1.500000000000000,6.156403E-016,1.386298772369393));
#206=DIRECTION('',(1.224606E-016,4.440892E-016,1.0));
#207=DIRECTION('',(-1.0,0.0,0.0));
#208=AXIS2_PLACEMENT_3D('',#205,#206,#207);
#209=CYLINDRICAL_SURFACE('',#208,0.750000000000000);
#210=ORIENTED_EDGE('',*,*,#176,.T.);
#211=CARTESIAN_POINT('',(-1.500000000000000,6.662665E-016,1.500298772369393));
#212=DIRECTION('',(0.0,0.0,-1.0));
#213=DIRECTION('',(-1.0,0.0,0.0));
#214=AXIS2_PLACEMENT_3D('',#211,#212,#213);
#215=CIRCLE('',#214,0.750000000000000);
#216=EDGE_CURVE('',#171,#188,#215,.T.);
#217=ORIENTED_EDGE('',*,*,#216,.T.);
#218=ORIENTED_EDGE('',*,*,#193,.T.);
#219=CARTESIAN_POINT('',(-1.500000000000000,6.156403E-016,1.386298772369393));
#220=DIRECTION('',(0.0,0.0,-1.0));
#221=DIRECTION('',(-1.0,0.0,0.0));
#222=AXIS2_PLACEMENT_3D('',#219,#220,#221);
#223=CIRCLE('',#222,0.750000000000000);
#224=EDGE_CURVE('',#169,#179,#223,.T.);
#225=ORIENTED_EDGE('',*,*,#224,.F.);
#226=EDGE_LOOP('',(#210,#217,#218,#225));
#227=FACE_OUTER_BOUND('',#226,.T.);
#228=ADVANCED_FACE('',(#227),#209,.T.);
#229=CARTESIAN_POINT('',(-1.500000000000000,6.662665E-016,1.500298772369393));
#230=DIRECTION('',(0.0,0.0,-1.0));
#231=DIRECTION('',(-1.0,0.0,0.0));
#232=AXIS2_PLACEMENT_3D('',#229,#230,#231);
#233=PLANE('',#232);
#234=ORIENTED_EDGE('',*,*,#216,.F.);
#235=ORIENTED_EDGE('',*,*,#200,.F.);
#236=EDGE_LOOP('',(#234,#235));
#237=FACE_OUTER_BOUND('',#236,.T.);
#238=ADVANCED_FACE('',(#237),#233,.F.);
#239=CARTESIAN_POINT('',(-1.500000000000000,6.156403E-016,1.386298772369393));
#240=DIRECTION('',(0.0,0.0,-1.0));
#241=DIRECTION('',(-1.0,0.0,0.0));
#242=AXIS2_PLACEMENT_3D('',#239,#240,#241);
#243=PLANE('',#242);
#244=ORIENTED_EDGE('',*,*,#224,.T.);
#245=ORIENTED_EDGE('',*,*,#185,.T.);
#246=EDGE_LOOP('',(#244,#245));
#247=FACE_OUTER_BOUND('',#246,.T.);
#248=ADVANCED_FACE('',(#247),#243,.T.);
#249=CLOSED_SHELL('',(#204,#228,#238,#248));
#250=MANIFOLD_SOLID_BREP('799',#249);
#251=STYLED_ITEM('NONE',(#159),#250);
#252=CARTESIAN_POINT('',(6.277802E-016,1.110223E-015,1.500000000000000));
#253=DIRECTION('',(1.224606E-016,4.440892E-016,1.0));
#254=DIRECTION('',(1.0,0.0,0.0));
#255=AXIS2_PLACEMENT_3D('',#252,#253,#254);
#256=CYLINDRICAL_SURFACE('',#255,3.600000000000000);
#257=CARTESIAN_POINT('',(3.600000000000001,6.693647E-016,1.500000000000000));
#258=VERTEX_POINT('',#257);
#259=CARTESIAN_POINT('',(3.600000000000001,2.001632E-015,4.500000000000000));
#260=VERTEX_POINT('',#259);
#261=CARTESIAN_POINT('',(3.600000000000001,6.693647E-016,1.500000000000000));
#262=DIRECTION('',(0.0,0.0,1.0));
#263=VECTOR('',#262,3.000000000000000);
#264=LINE('',#261,#263);
#265=EDGE_CURVE('',#258,#260,#264,.T.);
#266=ORIENTED_EDGE('',*,*,#265,.F.);
#267=CARTESIAN_POINT('',(3.591319444444445,-0.249849250459645,1.500000000000000));
#268=VERTEX_POINT('',#267);
#269=CARTESIAN_POINT('',(6.277802E-016,1.110223E-015,1.500000000000000));
#270=DIRECTION('',(0.0,0.0,-1.0));
#271=DIRECTION('',(1.0,0.0,0.0));
#272=AXIS2_PLACEMENT_3D('',#269,#270,#271);
#273=CIRCLE('',#272,3.600000000000000);
#274=EDGE_CURVE('',#258,#268,#273,.T.);
#275=ORIENTED_EDGE('',*,*,#274,.T.);
#276=CARTESIAN_POINT('',(3.591319444444445,-0.249849250459643,4.500000000000000));
#277=VERTEX_POINT('',#276);
#278=CARTESIAN_POINT('',(3.591319444444445,-0.249849250459645,1.500000000000000));
#279=DIRECTION('',(0.0,0.0,1.0));
#280=VECTOR('',#279,3.0);
#281=LINE('',#278,#280);
#282=EDGE_CURVE('',#268,#277,#281,.T.);
#283=ORIENTED_EDGE('',*,*,#282,.T.);
#284=CARTESIAN_POINT('',(9.951621E-016,2.442491E-015,4.500000000000000));
#285=DIRECTION('',(0.0,0.0,1.0));
#286=DIRECTION('',(1.0,0.0,0.0));
#287=AXIS2_PLACEMENT_3D('',#284,#285,#286);
#288=CIRCLE('',#287,3.600000000000000);
#289=EDGE_CURVE('',#277,#260,#288,.T.);
#290=ORIENTED_EDGE('',*,*,#289,.T.);
#291=EDGE_LOOP('',(#266,#275,#283,#290));
#292=FACE_OUTER_BOUND('',#291,.T.);
#293=ADVANCED_FACE('',(#292),#256,.F.);
#294=CARTESIAN_POINT('',(3.600000000000000,1.110223E-015,1.500000000000000));
#295=DIRECTION('',(1.224606E-016,4.440892E-016,1.0));
#296=DIRECTION('',(1.0,0.0,0.0));
#297=AXIS2_PLACEMENT_3D('',#294,#295,#296);
#298=CYLINDRICAL_SURFACE('',#297,0.250000000000000);
#299=CARTESIAN_POINT('',(3.850000000000000,1.079608E-015,1.500000000000000));
#300=VERTEX_POINT('',#299);
#301=CARTESIAN_POINT('',(3.850000000000000,2.411875E-015,4.500000000000000));
#302=VERTEX_POINT('',#301);
#303=CARTESIAN_POINT('',(3.850000000000000,1.079608E-015,1.500000000000000));
#304=DIRECTION('',(0.0,0.0,1.0));
#305=VECTOR('',#304,3.0);
#306=LINE('',#303,#305);
#307=EDGE_CURVE('',#300,#302,#306,.T.);
#308=ORIENTED_EDGE('',*,*,#307,.F.);
#309=CARTESIAN_POINT('',(3.591319444444445,0.249849250459647,1.500000000000000));
#310=VERTEX_POINT('',#309);
#311=CARTESIAN_POINT('',(3.600000000000000,1.110223E-015,1.500000000000000));
#312=DIRECTION('',(0.0,0.0,1.0));
#313=DIRECTION('',(1.0,0.0,0.0));
#314=AXIS2_PLACEMENT_3D('',#311,#312,#313);
#315=CIRCLE('',#314,0.250000000000000);
#316=EDGE_CURVE('',#300,#310,#315,.T.);
#317=ORIENTED_EDGE('',*,*,#316,.T.);
#318=CARTESIAN_POINT('',(3.591319444444445,0.249849250459648,4.499999999999999));
#319=VERTEX_POINT('',#318);
#320=CARTESIAN_POINT('',(3.591319444444445,0.249849250459647,1.500000000000000));
#321=DIRECTION('',(0.0,0.0,1.0));
#322=VECTOR('',#321,3.000000000000000);
#323=LINE('',#320,#322);
#324=EDGE_CURVE('',#310,#319,#323,.T.);
#325=ORIENTED_EDGE('',*,*,#324,.T.);
#326=CARTESIAN_POINT('',(3.600000000000001,2.442491E-015,4.500000000000000));
#327=DIRECTION('',(0.0,0.0,-1.0));
#328=DIRECTION('',(1.0,0.0,0.0));
#329=AXIS2_PLACEMENT_3D('',#326,#327,#328);
#330=CIRCLE('',#329,0.250000000000000);
#331=EDGE_CURVE('',#319,#302,#330,.T.);
#332=ORIENTED_EDGE('',*,*,#331,.T.);
#333=EDGE_LOOP('',(#308,#317,#325,#332));
#334=FACE_OUTER_BOUND('',#333,.T.);
#335=ADVANCED_FACE('',(#334),#298,.T.);
#336=CARTESIAN_POINT('',(3.600000000000000,1.110223E-015,1.500000000000000));
#337=DIRECTION('',(1.224606E-016,4.440892E-016,1.0));
#338=DIRECTION('',(1.0,0.0,0.0));
#339=AXIS2_PLACEMENT_3D('',#336,#337,#338);
#340=CYLINDRICAL_SURFACE('',#339,0.250000000000000);
#341=ORIENTED_EDGE('',*,*,#307,.T.);
#342=CARTESIAN_POINT('',(3.600000000000001,2.442491E-015,4.500000000000000));
#343=DIRECTION('',(0.0,0.0,-1.0));
#344=DIRECTION('',(1.0,0.0,0.0));
#345=AXIS2_PLACEMENT_3D('',#342,#343,#344);
#346=CIRCLE('',#345,0.250000000000000);
#347=EDGE_CURVE('',#302,#277,#346,.T.);
#348=ORIENTED_EDGE('',*,*,#347,.T.);
#349=ORIENTED_EDGE('',*,*,#282,.F.);
#350=CARTESIAN_POINT('',(3.600000000000000,1.110223E-015,1.500000000000000));
#351=DIRECTION('',(0.0,0.0,1.0));
#352=DIRECTION('',(1.0,0.0,0.0));
#353=AXIS2_PLACEMENT_3D('',#350,#351,#352);
#354=CIRCLE('',#353,0.250000000000000);
#355=EDGE_CURVE('',#268,#300,#354,.T.);
#356=ORIENTED_EDGE('',*,*,#355,.T.);
#357=EDGE_LOOP('',(#341,#348,#349,#356));
#358=FACE_OUTER_BOUND('',#357,.T.);
#359=ADVANCED_FACE('',(#358),#340,.T.);
#360=CARTESIAN_POINT('',(6.277802E-016,1.110223E-015,1.500000000000000));
#361=DIRECTION('',(1.224606E-016,4.440892E-016,1.0));
#362=DIRECTION('',(1.0,0.0,0.0));
#363=AXIS2_PLACEMENT_3D('',#360,#361,#362);
#364=CYLINDRICAL_SURFACE('',#363,3.600000000000000);
#365=ORIENTED_EDGE('',*,*,#265,.T.);
#366=CARTESIAN_POINT('',(9.951621E-016,2.442491E-015,4.500000000000000));
#367=DIRECTION('',(0.0,0.0,1.0));
#368=DIRECTION('',(1.0,0.0,0.0));
#369=AXIS2_PLACEMENT_3D('',#366,#367,#368);
#370=CIRCLE('',#369,3.600000000000000);
#371=EDGE_CURVE('',#260,#319,#370,.T.);
#372=ORIENTED_EDGE('',*,*,#371,.T.);
#373=ORIENTED_EDGE('',*,*,#324,.F.);
#374=CARTESIAN_POINT('',(6.277802E-016,1.110223E-015,1.500000000000000));
#375=DIRECTION('',(0.0,0.0,-1.0));
#376=DIRECTION('',(1.0,0.0,0.0));
#377=AXIS2_PLACEMENT_3D('',#374,#375,#376);
#378=CIRCLE('',#377,3.600000000000000);
#379=EDGE_CURVE('',#310,#258,#378,.T.);
#380=ORIENTED_EDGE('',*,*,#379,.T.);
#381=EDGE_LOOP('',(#365,#372,#373,#380));
#382=FACE_OUTER_BOUND('',#381,.T.);
#383=ADVANCED_FACE('',(#382),#364,.F.);
#384=CARTESIAN_POINT('',(3.684598429511372,2.447537E-015,4.499999999999999));
#385=DIRECTION('',(0.0,0.0,-1.0));
#386=DIRECTION('',(-1.0,0.0,0.0));
#387=AXIS2_PLACEMENT_3D('',#384,#385,#386);
#388=PLANE('',#387);
#389=ORIENTED_EDGE('',*,*,#331,.F.);
#390=ORIENTED_EDGE('',*,*,#371,.F.);
#391=ORIENTED_EDGE('',*,*,#289,.F.);
#392=ORIENTED_EDGE('',*,*,#347,.F.);
#393=EDGE_LOOP('',(#389,#390,#391,#392));
#394=FACE_OUTER_BOUND('',#393,.T.);
#395=ADVANCED_FACE('',(#394),#388,.F.);
#396=CARTESIAN_POINT('',(3.684598429511372,1.115269E-015,1.500000000000000));
#397=DIRECTION('',(0.0,0.0,-1.0));
#398=DIRECTION('',(-1.0,0.0,0.0));
#399=AXIS2_PLACEMENT_3D('',#396,#397,#398);
#400=PLANE('',#399);
#401=ORIENTED_EDGE('',*,*,#379,.F.);
#402=ORIENTED_EDGE('',*,*,#316,.F.);
#403=ORIENTED_EDGE('',*,*,#355,.F.);
#404=ORIENTED_EDGE('',*,*,#274,.F.);
#405=EDGE_LOOP('',(#401,#402,#403,#404));
#406=FACE_OUTER_BOUND('',#405,.T.);
#407=ADVANCED_FACE('',(#406),#400,.T.);
#408=CLOSED_SHELL('',(#293,#335,#359,#383,#395,#407));
#409=MANIFOLD_SOLID_BREP('795',#408);
#410=STYLED_ITEM('NONE',(#159),#409);
#411=CARTESIAN_POINT('',(-2.036755E-015,2.816957E-015,1.500000000000000));
#412=DIRECTION('',(1.224606E-016,4.440892E-016,1.0));
#413=DIRECTION('',(-1.0,0.0,0.0));
#414=AXIS2_PLACEMENT_3D('',#411,#412,#413);
#415=CYLINDRICAL_SURFACE('',#414,3.599999999999998);
#416=CARTESIAN_POINT('',(-3.600000000000000,5.844348E-017,1.500000000000000));
#417=VERTEX_POINT('',#416);
#418=CARTESIAN_POINT('',(-3.600000000000000,1.390711E-015,4.500000000000000));
#419=VERTEX_POINT('',#418);
#420=CARTESIAN_POINT('',(-3.600000000000000,5.844348E-017,1.500000000000000));
#421=DIRECTION('',(0.0,0.0,1.0));
#422=VECTOR('',#421,3.000000000000000);
#423=LINE('',#420,#422);
#424=EDGE_CURVE('',#417,#419,#423,.T.);
#425=ORIENTED_EDGE('',*,*,#424,.F.);
#426=CARTESIAN_POINT('',(-3.591319444444445,0.249849250459647,1.500000000000000));
#427=VERTEX_POINT('',#426);
#428=CARTESIAN_POINT('',(-2.036755E-015,2.816957E-015,1.500000000000000));
#429=DIRECTION('',(0.0,0.0,-1.0));
#430=DIRECTION('',(-1.0,0.0,0.0));
#431=AXIS2_PLACEMENT_3D('',#428,#429,#430);
#432=CIRCLE('',#431,3.599999999999998);
#433=EDGE_CURVE('',#417,#427,#432,.T.);
#434=ORIENTED_EDGE('',*,*,#433,.T.);
#435=CARTESIAN_POINT('',(-3.591319444444444,0.249849250459648,4.500000000000000));
#436=VERTEX_POINT('',#435);
#437=CARTESIAN_POINT('',(-3.591319444444445,0.249849250459647,1.500000000000000));
#438=DIRECTION('',(0.0,0.0,1.0));
#439=VECTOR('',#438,3.0);
#440=LINE('',#437,#439);
#441=EDGE_CURVE('',#427,#436,#440,.T.);
#442=ORIENTED_EDGE('',*,*,#441,.T.);
#443=CARTESIAN_POINT('',(-1.669373E-015,4.149224E-015,4.500000000000000));
#444=DIRECTION('',(0.0,0.0,1.0));
#445=DIRECTION('',(-1.0,0.0,0.0));
#446=AXIS2_PLACEMENT_3D('',#443,#444,#445);
#447=CIRCLE('',#446,3.599999999999998);
#448=EDGE_CURVE('',#436,#419,#447,.T.);
#449=ORIENTED_EDGE('',*,*,#448,.T.);
#450=EDGE_LOOP('',(#425,#434,#442,#449));
#451=FACE_OUTER_BOUND('',#450,.T.);
#452=ADVANCED_FACE('',(#451),#415,.F.);
#453=CARTESIAN_POINT('',(-3.600000000000000,-3.824148E-016,1.500000000000000));
#454=DIRECTION('',(1.224606E-016,4.440892E-016,1.0));
#455=DIRECTION('',(-1.0,0.0,0.0));
#456=AXIS2_PLACEMENT_3D('',#453,#454,#455);
#457=CYLINDRICAL_SURFACE('',#456,0.250000000000001);
#458=CARTESIAN_POINT('',(-3.850000000000001,-5.739782E-016,1.500000000000000));
#459=VERTEX_POINT('',#458);
#460=CARTESIAN_POINT('',(-3.850000000000000,7.582894E-016,4.500000000000000));
#461=VERTEX_POINT('',#460);
#462=CARTESIAN_POINT('',(-3.850000000000001,-5.739782E-016,1.500000000000000));
#463=DIRECTION('',(0.0,0.0,1.0));
#464=VECTOR('',#463,3.0);
#465=LINE('',#462,#464);
#466=EDGE_CURVE('',#459,#461,#465,.T.);
#467=ORIENTED_EDGE('',*,*,#466,.F.);
#468=CARTESIAN_POINT('',(-3.591319444444444,-0.249849250459647,1.500000000000000));
#469=VERTEX_POINT('',#468);
#470=CARTESIAN_POINT('',(-3.600000000000000,-3.824148E-016,1.500000000000000));
#471=DIRECTION('',(0.0,0.0,1.0));
#472=DIRECTION('',(-1.0,0.0,0.0));
#473=AXIS2_PLACEMENT_3D('',#470,#471,#472);
#474=CIRCLE('',#473,0.250000000000001);
#475=EDGE_CURVE('',#459,#469,#474,.T.);
#476=ORIENTED_EDGE('',*,*,#475,.T.);
#477=CARTESIAN_POINT('',(-3.591319444444444,-0.249849250459646,4.500000000000001));
#478=VERTEX_POINT('',#477);
#479=CARTESIAN_POINT('',(-3.591319444444444,-0.249849250459647,1.500000000000000));
#480=DIRECTION('',(0.0,0.0,1.0));
#481=VECTOR('',#480,3.000000000000000);
#482=LINE('',#479,#481);
#483=EDGE_CURVE('',#469,#478,#482,.T.);
#484=ORIENTED_EDGE('',*,*,#483,.T.);
#485=CARTESIAN_POINT('',(-3.599999999999999,9.498528E-016,4.500000000000000));
#486=DIRECTION('',(0.0,0.0,-1.0));
#487=DIRECTION('',(-1.0,0.0,0.0));
#488=AXIS2_PLACEMENT_3D('',#485,#486,#487);
#489=CIRCLE('',#488,0.250000000000001);
#490=EDGE_CURVE('',#478,#461,#489,.T.);
#491=ORIENTED_EDGE('',*,*,#490,.T.);
#492=EDGE_LOOP('',(#467,#476,#484,#491));
#493=FACE_OUTER_BOUND('',#492,.T.);
#494=ADVANCED_FACE('',(#493),#457,.T.);
#495=CARTESIAN_POINT('',(-3.600000000000000,-3.824148E-016,1.500000000000000));
#496=DIRECTION('',(1.224606E-016,4.440892E-016,1.0));
#497=DIRECTION('',(-1.0,0.0,0.0));
#498=AXIS2_PLACEMENT_3D('',#495,#496,#497);
#499=CYLINDRICAL_SURFACE('',#498,0.250000000000001);
#500=ORIENTED_EDGE('',*,*,#466,.T.);
#501=CARTESIAN_POINT('',(-3.599999999999999,9.498528E-016,4.500000000000000));
#502=DIRECTION('',(0.0,0.0,-1.0));
#503=DIRECTION('',(-1.0,0.0,0.0));
#504=AXIS2_PLACEMENT_3D('',#501,#502,#503);
#505=CIRCLE('',#504,0.250000000000001);
#506=EDGE_CURVE('',#461,#436,#505,.T.);
#507=ORIENTED_EDGE('',*,*,#506,.T.);
#508=ORIENTED_EDGE('',*,*,#441,.F.);
#509=CARTESIAN_POINT('',(-3.600000000000000,-3.824148E-016,1.500000000000000));
#510=DIRECTION('',(0.0,0.0,1.0));
#511=DIRECTION('',(-1.0,0.0,0.0));
#512=AXIS2_PLACEMENT_3D('',#509,#510,#511);
#513=CIRCLE('',#512,0.250000000000001);
#514=EDGE_CURVE('',#427,#459,#513,.T.);
#515=ORIENTED_EDGE('',*,*,#514,.T.);
#516=EDGE_LOOP('',(#500,#507,#508,#515));
#517=FACE_OUTER_BOUND('',#516,.T.);
#518=ADVANCED_FACE('',(#517),#499,.T.);
#519=CARTESIAN_POINT('',(-2.036755E-015,2.816957E-015,1.500000000000000));
#520=DIRECTION('',(1.224606E-016,4.440892E-016,1.0));
#521=DIRECTION('',(-1.0,0.0,0.0));
#522=AXIS2_PLACEMENT_3D('',#519,#520,#521);
#523=CYLINDRICAL_SURFACE('',#522,3.599999999999998);
#524=ORIENTED_EDGE('',*,*,#424,.T.);
#525=CARTESIAN_POINT('',(-1.669373E-015,4.149224E-015,4.500000000000000));
#526=DIRECTION('',(0.0,0.0,1.0));
#527=DIRECTION('',(-1.0,0.0,0.0));
#528=AXIS2_PLACEMENT_3D('',#525,#526,#527);
#529=CIRCLE('',#528,3.599999999999998);
#530=EDGE_CURVE('',#419,#478,#529,.T.);
#531=ORIENTED_EDGE('',*,*,#530,.T.);
#532=ORIENTED_EDGE('',*,*,#483,.F.);
#533=CARTESIAN_POINT('',(-2.036755E-015,2.816957E-015,1.500000000000000));
#534=DIRECTION('',(0.0,0.0,-1.0));
#535=DIRECTION('',(-1.0,0.0,0.0));
#536=AXIS2_PLACEMENT_3D('',#533,#534,#535);
#537=CIRCLE('',#536,3.599999999999998);
#538=EDGE_CURVE('',#469,#417,#537,.T.);
#539=ORIENTED_EDGE('',*,*,#538,.T.);
#540=EDGE_LOOP('',(#524,#531,#532,#539));
#541=FACE_OUTER_BOUND('',#540,.T.);
#542=ADVANCED_FACE('',(#541),#523,.F.);
#543=CARTESIAN_POINT('',(-3.684598429511371,8.700326E-016,4.500000000000001));
#544=DIRECTION('',(0.0,0.0,-1.0));
#545=DIRECTION('',(-1.0,0.0,0.0));
#546=AXIS2_PLACEMENT_3D('',#543,#544,#545);
#547=PLANE('',#546);
#548=ORIENTED_EDGE('',*,*,#490,.F.);
#549=ORIENTED_EDGE('',*,*,#530,.F.);
#550=ORIENTED_EDGE('',*,*,#448,.F.);
#551=ORIENTED_EDGE('',*,*,#506,.F.);
#552=EDGE_LOOP('',(#548,#549,#550,#551));
#553=FACE_OUTER_BOUND('',#552,.T.);
#554=ADVANCED_FACE('',(#553),#547,.F.);
#555=CARTESIAN_POINT('',(-3.684598429511372,-4.622350E-016,1.500000000000000));
#556=DIRECTION('',(0.0,0.0,-1.0));
#557=DIRECTION('',(-1.0,0.0,0.0));
#558=AXIS2_PLACEMENT_3D('',#555,#556,#557);
#559=PLANE('',#558);
#560=ORIENTED_EDGE('',*,*,#538,.F.);
#561=ORIENTED_EDGE('',*,*,#475,.F.);
#562=ORIENTED_EDGE('',*,*,#514,.F.);
#563=ORIENTED_EDGE('',*,*,#433,.F.);
#564=EDGE_LOOP('',(#560,#561,#562,#563));
#565=FACE_OUTER_BOUND('',#564,.T.);
#566=ADVANCED_FACE('',(#565),#559,.T.);
#567=CLOSED_SHELL('',(#452,#494,#518,#542,#554,#566));
#568=MANIFOLD_SOLID_BREP('794',#567);
#569=STYLED_ITEM('NONE',(#159),#568);
#570=CARTESIAN_POINT('',(-1.500000000000000,2.220446E-016,0.500000000000000));
#571=DIRECTION('',(-1.224606E-016,-4.440892E-016,-1.0));
#572=DIRECTION('',(-1.0,0.0,0.0));
#573=AXIS2_PLACEMENT_3D('',#570,#571,#572);
#574=CYLINDRICAL_SURFACE('',#573,0.300000000000000);
#575=CARTESIAN_POINT('',(-1.800000000000000,2.220446E-016,0.500000000000000));
#576=VERTEX_POINT('',#575);
#577=CARTESIAN_POINT('',(-1.800000000000001,-1.465494E-015,-3.300000000000000));
#578=VERTEX_POINT('',#577);
#579=CARTESIAN_POINT('',(-1.800000000000000,2.220446E-016,0.500000000000000));
#580=DIRECTION('',(0.0,0.0,-1.0));
#581=VECTOR('',#580,3.800000000000000);
#582=LINE('',#579,#581);
#583=EDGE_CURVE('',#576,#578,#582,.T.);
#584=ORIENTED_EDGE('',*,*,#583,.F.);
#585=CARTESIAN_POINT('',(-1.200000000000000,2.587828E-016,0.500000000000000));
#586=VERTEX_POINT('',#585);
#587=CARTESIAN_POINT('',(-1.500000000000000,2.220446E-016,0.500000000000000));
#588=DIRECTION('',(0.0,0.0,-1.0));
#589=DIRECTION('',(-1.0,0.0,0.0));
#590=AXIS2_PLACEMENT_3D('',#587,#588,#589);
#591=CIRCLE('',#590,0.300000000000000);
#592=EDGE_CURVE('',#576,#586,#591,.T.);
#593=ORIENTED_EDGE('',*,*,#592,.T.);
#594=CARTESIAN_POINT('',(-1.200000000000000,-1.428756E-015,-3.300000000000000));
#595=VERTEX_POINT('',#594);
#596=CARTESIAN_POINT('',(-1.200000000000000,-1.428756E-015,-3.300000000000000));
#597=DIRECTION('',(0.0,0.0,1.0));
#598=VECTOR('',#597,3.800000000000000);
#599=LINE('',#596,#598);
#600=EDGE_CURVE('',#595,#586,#599,.T.);
#601=ORIENTED_EDGE('',*,*,#600,.F.);
#602=CARTESIAN_POINT('',(-1.500000000000000,-1.465494E-015,-3.300000000000000));
#603=DIRECTION('',(0.0,0.0,1.0));
#604=DIRECTION('',(-1.0,0.0,0.0));
#605=AXIS2_PLACEMENT_3D('',#602,#603,#604);
#606=CIRCLE('',#605,0.300000000000000);
#607=EDGE_CURVE('',#595,#578,#606,.T.);
#608=ORIENTED_EDGE('',*,*,#607,.T.);
#609=EDGE_LOOP('',(#584,#593,#601,#608));
#610=FACE_OUTER_BOUND('',#609,.T.);
#611=ADVANCED_FACE('',(#610),#574,.T.);
#612=CARTESIAN_POINT('',(-1.500000000000000,2.220446E-016,0.500000000000000));
#613=DIRECTION('',(-1.224606E-016,-4.440892E-016,-1.0));
#614=DIRECTION('',(-1.0,0.0,0.0));
#615=AXIS2_PLACEMENT_3D('',#612,#613,#614);
#616=CYLINDRICAL_SURFACE('',#615,0.300000000000000);
#617=ORIENTED_EDGE('',*,*,#583,.T.);
#618=CARTESIAN_POINT('',(-1.500000000000000,-1.465494E-015,-3.300000000000000));
#619=DIRECTION('',(0.0,0.0,1.0));
#620=DIRECTION('',(-1.0,0.0,0.0));
#621=AXIS2_PLACEMENT_3D('',#618,#619,#620);
#622=CIRCLE('',#621,0.300000000000000);
#623=EDGE_CURVE('',#578,#595,#622,.T.);
#624=ORIENTED_EDGE('',*,*,#623,.T.);
#625=ORIENTED_EDGE('',*,*,#600,.T.);
#626=CARTESIAN_POINT('',(-1.500000000000000,2.220446E-016,0.500000000000000));
#627=DIRECTION('',(0.0,0.0,-1.0));
#628=DIRECTION('',(-1.0,0.0,0.0));
#629=AXIS2_PLACEMENT_3D('',#626,#627,#628);
#630=CIRCLE('',#629,0.300000000000000);
#631=EDGE_CURVE('',#586,#576,#630,.T.);
#632=ORIENTED_EDGE('',*,*,#631,.T.);
#633=EDGE_LOOP('',(#617,#624,#625,#632));
#634=FACE_OUTER_BOUND('',#633,.T.);
#635=ADVANCED_FACE('',(#634),#616,.T.);
#636=CARTESIAN_POINT('',(-1.500000000000000,-1.465494E-015,-3.300000000000000));
#637=DIRECTION('',(0.0,0.0,-1.0));
#638=DIRECTION('',(-1.0,0.0,0.0));
#639=AXIS2_PLACEMENT_3D('',#636,#637,#638);
#640=PLANE('',#639);
#641=ORIENTED_EDGE('',*,*,#623,.F.);
#642=ORIENTED_EDGE('',*,*,#607,.F.);
#643=EDGE_LOOP('',(#641,#642));
#644=FACE_OUTER_BOUND('',#643,.T.);
#645=ADVANCED_FACE('',(#644),#640,.T.);
#646=CARTESIAN_POINT('',(-1.500000000000000,2.220446E-016,0.500000000000000));
#647=DIRECTION('',(0.0,0.0,-1.0));
#648=DIRECTION('',(-1.0,0.0,0.0));
#649=AXIS2_PLACEMENT_3D('',#646,#647,#648);
#650=PLANE('',#649);
#651=ORIENTED_EDGE('',*,*,#592,.F.);
#652=ORIENTED_EDGE('',*,*,#631,.F.);
#653=EDGE_LOOP('',(#651,#652));
#654=FACE_OUTER_BOUND('',#653,.T.);
#655=ADVANCED_FACE('',(#654),#650,.F.);
#656=CLOSED_SHELL('',(#611,#635,#645,#655));
#657=MANIFOLD_SOLID_BREP('792',#656);
#658=COLOUR_RGB('254',0.866000000000000,0.866000000000000,0.866000000000000);
#659=SURFACE_STYLE_USAGE(.BOTH.,#660);
#660=SURFACE_SIDE_STYLE('NONE',(#661));
#661=SURFACE_STYLE_FILL_AREA(#662);
#662=FILL_AREA_STYLE('NONE',(#663));
#663=FILL_AREA_STYLE_COLOUR('NONE',#658);
#664=PRESENTATION_STYLE_ASSIGNMENT((#659));
#665=STYLED_ITEM('NONE',(#664),#657);
#666=CARTESIAN_POINT('',(-1.500000000000000,2.825734E-016,0.636298772369392));
#667=DIRECTION('',(1.224606E-016,4.440892E-016,1.0));
#668=DIRECTION('',(-1.0,0.0,0.0));
#669=AXIS2_PLACEMENT_3D('',#666,#667,#668);
#670=CONICAL_SURFACE('',#669,0.375000000000000,26.565051177077990);
#671=CARTESIAN_POINT('',(-2.250000000000000,6.156403E-016,1.386298772369393));
#672=VERTEX_POINT('',#671);
#673=CARTESIAN_POINT('',(-1.800000000000000,1.792218E-016,0.486298772369392));
#674=VERTEX_POINT('',#673);
#675=CARTESIAN_POINT('',(-2.250000000000000,6.156403E-016,1.386298772369393));
#676=DIRECTION('',(0.447213595499958,-4.337162E-016,-0.894427190999916));
#677=VECTOR('',#676,1.006230589874906);
#678=LINE('',#675,#677);
#679=EDGE_CURVE('',#672,#674,#678,.T.);
#680=ORIENTED_EDGE('',*,*,#679,.F.);
#681=CARTESIAN_POINT('',(-0.750000000000000,7.074858E-016,1.386298772369393));
#682=VERTEX_POINT('',#681);
#683=CARTESIAN_POINT('',(-1.500000000000000,6.156403E-016,1.386298772369393));
#684=DIRECTION('',(0.0,0.0,1.0));
#685=DIRECTION('',(-1.0,0.0,0.0));
#686=AXIS2_PLACEMENT_3D('',#683,#684,#685);
#687=CIRCLE('',#686,0.750000000000000);
#688=EDGE_CURVE('',#682,#672,#687,.T.);
#689=ORIENTED_EDGE('',*,*,#688,.F.);
#690=CARTESIAN_POINT('',(-1.200000000000000,2.526982E-016,0.486298772369392));
#691=VERTEX_POINT('',#690);
#692=CARTESIAN_POINT('',(-1.200000000000000,2.526982E-016,0.486298772369392));
#693=DIRECTION('',(0.447213595499958,4.519715E-016,0.894427190999916));
#694=VECTOR('',#693,1.006230589874906);
#695=LINE('',#692,#694);
#696=EDGE_CURVE('',#691,#682,#695,.T.);
#697=ORIENTED_EDGE('',*,*,#696,.F.);
#698=CARTESIAN_POINT('',(-1.500000000000000,2.159600E-016,0.486298772369392));
#699=DIRECTION('',(0.0,0.0,1.0));
#700=DIRECTION('',(-1.0,0.0,0.0));
#701=AXIS2_PLACEMENT_3D('',#698,#699,#700);
#702=CIRCLE('',#701,0.300000000000000);
#703=EDGE_CURVE('',#691,#674,#702,.T.);
#704=ORIENTED_EDGE('',*,*,#703,.T.);
#705=EDGE_LOOP('',(#680,#689,#697,#704));
#706=FACE_OUTER_BOUND('',#705,.T.);
#707=ADVANCED_FACE('',(#706),#670,.T.);
#708=CARTESIAN_POINT('',(-1.500000000000000,2.220446E-016,0.500000000000000));
#709=DIRECTION('',(-1.224606E-016,-4.440892E-016,-1.0));
#710=DIRECTION('',(-1.0,0.0,0.0));
#711=AXIS2_PLACEMENT_3D('',#708,#709,#710);
#712=CYLINDRICAL_SURFACE('',#711,0.300000000000000);
#713=CARTESIAN_POINT('',(-1.800000000000000,2.220446E-016,0.500000000000000));
#714=VERTEX_POINT('',#713);
#715=CARTESIAN_POINT('',(-1.800000000000000,1.792218E-016,0.486298772369392));
#716=DIRECTION('',(0.0,0.0,1.0));
#717=VECTOR('',#716,0.013701227630608);
#718=LINE('',#715,#717);
#719=EDGE_CURVE('',#674,#714,#718,.T.);
#720=ORIENTED_EDGE('',*,*,#719,.F.);
#721=ORIENTED_EDGE('',*,*,#703,.F.);
#722=CARTESIAN_POINT('',(-1.200000000000000,2.587828E-016,0.500000000000000));
#723=VERTEX_POINT('',#722);
#724=CARTESIAN_POINT('',(-1.200000000000000,2.587828E-016,0.500000000000000));
#725=DIRECTION('',(0.0,0.0,-1.0));
#726=VECTOR('',#725,0.013701227630608);
#727=LINE('',#724,#726);
#728=EDGE_CURVE('',#723,#691,#727,.T.);
#729=ORIENTED_EDGE('',*,*,#728,.F.);
#730=CARTESIAN_POINT('',(-1.500000000000000,2.220446E-016,0.500000000000000));
#731=DIRECTION('',(0.0,0.0,-1.0));
#732=DIRECTION('',(-1.0,0.0,0.0));
#733=AXIS2_PLACEMENT_3D('',#730,#731,#732);
#734=CIRCLE('',#733,0.300000000000000);
#735=EDGE_CURVE('',#714,#723,#734,.T.);
#736=ORIENTED_EDGE('',*,*,#735,.F.);
#737=EDGE_LOOP('',(#720,#721,#729,#736));
#738=FACE_OUTER_BOUND('',#737,.T.);
#739=ADVANCED_FACE('',(#738),#712,.F.);
#740=CARTESIAN_POINT('',(-1.500000000000000,2.220446E-016,0.500000000000000));
#741=DIRECTION('',(-1.224606E-016,-4.440892E-016,-1.0));
#742=DIRECTION('',(-1.0,0.0,0.0));
#743=AXIS2_PLACEMENT_3D('',#740,#741,#742);
#744=CYLINDRICAL_SURFACE('',#743,0.300000000000000);
#745=ORIENTED_EDGE('',*,*,#719,.T.);
#746=CARTESIAN_POINT('',(-1.500000000000000,2.220446E-016,0.500000000000000));
#747=DIRECTION('',(0.0,0.0,-1.0));
#748=DIRECTION('',(-1.0,0.0,0.0));
#749=AXIS2_PLACEMENT_3D('',#746,#747,#748);
#750=CIRCLE('',#749,0.300000000000000);
#751=EDGE_CURVE('',#723,#714,#750,.T.);
#752=ORIENTED_EDGE('',*,*,#751,.F.);
#753=ORIENTED_EDGE('',*,*,#728,.T.);
#754=CARTESIAN_POINT('',(-1.500000000000000,2.159600E-016,0.486298772369392));
#755=DIRECTION('',(0.0,0.0,1.0));
#756=DIRECTION('',(-1.0,0.0,0.0));
#757=AXIS2_PLACEMENT_3D('',#754,#755,#756);
#758=CIRCLE('',#757,0.300000000000000);
#759=EDGE_CURVE('',#674,#691,#758,.T.);
#760=ORIENTED_EDGE('',*,*,#759,.F.);
#761=EDGE_LOOP('',(#745,#752,#753,#760));
#762=FACE_OUTER_BOUND('',#761,.T.);
#763=ADVANCED_FACE('',(#762),#744,.F.);
#764=CARTESIAN_POINT('',(-1.500000000000000,2.220446E-016,0.500000000000000));
#765=DIRECTION('',(0.0,0.0,-1.0));
#766=DIRECTION('',(-1.0,0.0,0.0));
#767=AXIS2_PLACEMENT_3D('',#764,#765,#766);
#768=PLANE('',#767);
#769=ORIENTED_EDGE('',*,*,#735,.T.);
#770=ORIENTED_EDGE('',*,*,#751,.T.);
#771=EDGE_LOOP('',(#769,#770));
#772=FACE_OUTER_BOUND('',#771,.T.);
#773=ADVANCED_FACE('',(#772),#768,.T.);
#774=CARTESIAN_POINT('',(-1.500000000000000,2.825734E-016,0.636298772369392));
#775=DIRECTION('',(1.224606E-016,4.440892E-016,1.0));
#776=DIRECTION('',(-1.0,0.0,0.0));
#777=AXIS2_PLACEMENT_3D('',#774,#775,#776);
#778=CONICAL_SURFACE('',#777,0.375000000000000,26.565051177077990);
#779=ORIENTED_EDGE('',*,*,#679,.T.);
#780=ORIENTED_EDGE('',*,*,#759,.T.);
#781=ORIENTED_EDGE('',*,*,#696,.T.);
#782=CARTESIAN_POINT('',(-1.500000000000000,6.156403E-016,1.386298772369393));
#783=DIRECTION('',(0.0,0.0,1.0));
#784=DIRECTION('',(-1.0,0.0,0.0));
#785=AXIS2_PLACEMENT_3D('',#782,#783,#784);
#786=CIRCLE('',#785,0.750000000000000);
#787=EDGE_CURVE('',#672,#682,#786,.T.);
#788=ORIENTED_EDGE('',*,*,#787,.F.);
#789=EDGE_LOOP('',(#779,#780,#781,#788));
#790=FACE_OUTER_BOUND('',#789,.T.);
#791=ADVANCED_FACE('',(#790),#778,.T.);
#792=CARTESIAN_POINT('',(-1.500000000000000,6.156403E-016,1.386298772369393));
#793=DIRECTION('',(0.0,0.0,1.0));
#794=DIRECTION('',(1.0,0.0,0.0));
#795=AXIS2_PLACEMENT_3D('',#792,#793,#794);
#796=PLANE('',#795);
#797=ORIENTED_EDGE('',*,*,#787,.T.);
#798=ORIENTED_EDGE('',*,*,#688,.T.);
#799=EDGE_LOOP('',(#797,#798));
#800=FACE_OUTER_BOUND('',#799,.T.);
#801=ADVANCED_FACE('',(#800),#796,.T.);
#802=CLOSED_SHELL('',(#707,#739,#763,#773,#791,#801));
#803=MANIFOLD_SOLID_BREP('791',#802);
#804=STYLED_ITEM('NONE',(#664),#803);
#805=CARTESIAN_POINT('',(1.500000000000000,2.220446E-016,0.500000000000000));
#806=DIRECTION('',(-1.224606E-016,-4.440892E-016,-1.0));
#807=DIRECTION('',(-1.0,0.0,0.0));
#808=AXIS2_PLACEMENT_3D('',#805,#806,#807);
#809=CYLINDRICAL_SURFACE('',#808,0.300000000000000);
#810=CARTESIAN_POINT('',(1.200000000000000,2.220446E-016,0.500000000000000));
#811=VERTEX_POINT('',#810);
#812=CARTESIAN_POINT('',(1.199999999999999,-1.465494E-015,-3.300000000000000));
#813=VERTEX_POINT('',#812);
#814=CARTESIAN_POINT('',(1.200000000000000,2.220446E-016,0.500000000000000));
#815=DIRECTION('',(0.0,0.0,-1.0));
#816=VECTOR('',#815,3.800000000000000);
#817=LINE('',#814,#816);
#818=EDGE_CURVE('',#811,#813,#817,.T.);
#819=ORIENTED_EDGE('',*,*,#818,.F.);
#820=CARTESIAN_POINT('',(1.800000000000000,2.587828E-016,0.500000000000000));
#821=VERTEX_POINT('',#820);
#822=CARTESIAN_POINT('',(1.500000000000000,2.220446E-016,0.500000000000000));
#823=DIRECTION('',(0.0,0.0,-1.0));
#824=DIRECTION('',(-1.0,0.0,0.0));
#825=AXIS2_PLACEMENT_3D('',#822,#823,#824);
#826=CIRCLE('',#825,0.300000000000000);
#827=EDGE_CURVE('',#811,#821,#826,.T.);
#828=ORIENTED_EDGE('',*,*,#827,.T.);
#829=CARTESIAN_POINT('',(1.799999999999999,-1.428756E-015,-3.300000000000000));
#830=VERTEX_POINT('',#829);
#831=CARTESIAN_POINT('',(1.799999999999999,-1.428756E-015,-3.300000000000000));
#832=DIRECTION('',(0.0,0.0,1.0));
#833=VECTOR('',#832,3.799999999999999);
#834=LINE('',#831,#833);
#835=EDGE_CURVE('',#830,#821,#834,.T.);
#836=ORIENTED_EDGE('',*,*,#835,.F.);
#837=CARTESIAN_POINT('',(1.499999999999999,-1.465494E-015,-3.300000000000000));
#838=DIRECTION('',(0.0,0.0,1.0));
#839=DIRECTION('',(-1.0,0.0,0.0));
#840=AXIS2_PLACEMENT_3D('',#837,#838,#839);
#841=CIRCLE('',#840,0.300000000000000);
#842=EDGE_CURVE('',#830,#813,#841,.T.);
#843=ORIENTED_EDGE('',*,*,#842,.T.);
#844=EDGE_LOOP('',(#819,#828,#836,#843));
#845=FACE_OUTER_BOUND('',#844,.T.);
#846=ADVANCED_FACE('',(#845),#809,.T.);
#847=CARTESIAN_POINT('',(1.500000000000000,2.220446E-016,0.500000000000000));
#848=DIRECTION('',(-1.224606E-016,-4.440892E-016,-1.0));
#849=DIRECTION('',(-1.0,0.0,0.0));
#850=AXIS2_PLACEMENT_3D('',#847,#848,#849);
#851=CYLINDRICAL_SURFACE('',#850,0.300000000000000);
#852=ORIENTED_EDGE('',*,*,#818,.T.);
#853=CARTESIAN_POINT('',(1.499999999999999,-1.465494E-015,-3.300000000000000));
#854=DIRECTION('',(0.0,0.0,1.0));
#855=DIRECTION('',(-1.0,0.0,0.0));
#856=AXIS2_PLACEMENT_3D('',#853,#854,#855);
#857=CIRCLE('',#856,0.300000000000000);
#858=EDGE_CURVE('',#813,#830,#857,.T.);
#859=ORIENTED_EDGE('',*,*,#858,.T.);
#860=ORIENTED_EDGE('',*,*,#835,.T.);
#861=CARTESIAN_POINT('',(1.500000000000000,2.220446E-016,0.500000000000000));
#862=DIRECTION('',(0.0,0.0,-1.0));
#863=DIRECTION('',(-1.0,0.0,0.0));
#864=AXIS2_PLACEMENT_3D('',#861,#862,#863);
#865=CIRCLE('',#864,0.300000000000000);
#866=EDGE_CURVE('',#821,#811,#865,.T.);
#867=ORIENTED_EDGE('',*,*,#866,.T.);
#868=EDGE_LOOP('',(#852,#859,#860,#867));
#869=FACE_OUTER_BOUND('',#868,.T.);
#870=ADVANCED_FACE('',(#869),#851,.T.);
#871=CARTESIAN_POINT('',(1.499999999999999,-1.465494E-015,-3.300000000000000));
#872=DIRECTION('',(0.0,0.0,-1.0));
#873=DIRECTION('',(-1.0,0.0,0.0));
#874=AXIS2_PLACEMENT_3D('',#871,#872,#873);
#875=PLANE('',#874);
#876=ORIENTED_EDGE('',*,*,#858,.F.);
#877=ORIENTED_EDGE('',*,*,#842,.F.);
#878=EDGE_LOOP('',(#876,#877));
#879=FACE_OUTER_BOUND('',#878,.T.);
#880=ADVANCED_FACE('',(#879),#875,.T.);
#881=CARTESIAN_POINT('',(1.500000000000000,2.220446E-016,0.500000000000000));
#882=DIRECTION('',(0.0,0.0,-1.0));
#883=DIRECTION('',(-1.0,0.0,0.0));
#884=AXIS2_PLACEMENT_3D('',#881,#882,#883);
#885=PLANE('',#884);
#886=ORIENTED_EDGE('',*,*,#827,.F.);
#887=ORIENTED_EDGE('',*,*,#866,.F.);
#888=EDGE_LOOP('',(#886,#887));
#889=FACE_OUTER_BOUND('',#888,.T.);
#890=ADVANCED_FACE('',(#889),#885,.F.);
#891=CLOSED_SHELL('',(#846,#870,#880,#890));
#892=MANIFOLD_SOLID_BREP('78F',#891);
#893=STYLED_ITEM('NONE',(#664),#892);
#894=CARTESIAN_POINT('',(1.836910E-016,6.661338E-016,1.500000000000000));
#895=DIRECTION('',(1.224606E-016,4.440892E-016,1.0));
#896=DIRECTION('',(-1.0,0.0,0.0));
#897=AXIS2_PLACEMENT_3D('',#894,#895,#896);
#898=CYLINDRICAL_SURFACE('',#897,3.600000000000001);
#899=CARTESIAN_POINT('',(-3.600000000000001,6.661338E-016,1.500000000000000));
#900=VERTEX_POINT('',#899);
#901=CARTESIAN_POINT('',(-3.599999999999999,3.559176E-015,10.0));
#902=VERTEX_POINT('',#901);
#903=CARTESIAN_POINT('',(-3.600000000000001,6.661338E-016,1.500000000000000));
#904=DIRECTION('',(0.0,0.0,1.0));
#905=VECTOR('',#904,8.500000000000000);
#906=LINE('',#903,#905);
#907=EDGE_CURVE('',#900,#902,#906,.T.);
#908=ORIENTED_EDGE('',*,*,#907,.F.);
#909=CARTESIAN_POINT('',(3.600000000000001,2.252755E-016,1.500000000000000));
#910=VERTEX_POINT('',#909);
#911=CARTESIAN_POINT('',(1.836910E-016,6.661338E-016,1.500000000000000));
#912=DIRECTION('',(0.0,0.0,-1.0));
#913=DIRECTION('',(-1.0,0.0,0.0));
#914=AXIS2_PLACEMENT_3D('',#911,#912,#913);
#915=CIRCLE('',#914,3.600000000000001);
#916=EDGE_CURVE('',#910,#900,#915,.T.);
#917=ORIENTED_EDGE('',*,*,#916,.F.);
#918=CARTESIAN_POINT('',(3.600000000000002,4.881750E-015,10.0));
#919=VERTEX_POINT('',#918);
#920=CARTESIAN_POINT('',(3.600000000000002,4.881750E-015,10.0));
#921=DIRECTION('',(0.0,0.0,-1.0));
#922=VECTOR('',#921,8.500000000000000);
#923=LINE('',#920,#922);
#924=EDGE_CURVE('',#919,#910,#923,.T.);
#925=ORIENTED_EDGE('',*,*,#924,.F.);
#926=CARTESIAN_POINT('',(1.224606E-015,4.440892E-015,10.0));
#927=DIRECTION('',(0.0,0.0,1.0));
#928=DIRECTION('',(1.0,0.0,0.0));
#929=AXIS2_PLACEMENT_3D('',#926,#927,#928);
#930=CIRCLE('',#929,3.600000000000001);
#931=EDGE_CURVE('',#902,#919,#930,.T.);
#932=ORIENTED_EDGE('',*,*,#931,.F.);
#933=EDGE_LOOP('',(#908,#917,#925,#932));
#934=FACE_OUTER_BOUND('',#933,.T.);
#935=ADVANCED_FACE('',(#934),#898,.T.);
#936=CARTESIAN_POINT('',(1.224606E-015,4.440892E-015,10.0));
#937=DIRECTION('',(-1.224606E-016,-4.440892E-016,-1.0));
#938=DIRECTION('',(-1.0,0.0,0.0));
#939=AXIS2_PLACEMENT_3D('',#936,#937,#938);
#940=TOROIDAL_SURFACE('',#939,3.100000000000001,0.500000000000000);
#941=CARTESIAN_POINT('',(-3.099999999999999,4.662937E-015,10.500000000000000));
#942=VERTEX_POINT('',#941);
#943=CARTESIAN_POINT('',(-3.099999999999999,4.061264E-015,10.0));
#944=DIRECTION('',(0.0,-1.0,0.0));
#945=DIRECTION('',(-1.0,0.0,0.0));
#946=AXIS2_PLACEMENT_3D('',#943,#944,#945);
#947=CIRCLE('',#946,0.500000000000000);
#948=EDGE_CURVE('',#942,#902,#947,.T.);
#949=ORIENTED_EDGE('',*,*,#948,.F.);
#950=CARTESIAN_POINT('',(3.100000000000002,5.042565E-015,10.500000000000000));
#951=VERTEX_POINT('',#950);
#952=CARTESIAN_POINT('',(1.285837E-015,4.662937E-015,10.500000000000000));
#953=DIRECTION('',(0.0,0.0,-1.0));
#954=DIRECTION('',(1.0,0.0,0.0));
#955=AXIS2_PLACEMENT_3D('',#952,#953,#954);
#956=CIRCLE('',#955,3.100000000000001);
#957=EDGE_CURVE('',#942,#951,#956,.T.);
#958=ORIENTED_EDGE('',*,*,#957,.T.);
#959=CARTESIAN_POINT('',(3.100000000000002,4.820520E-015,10.0));
#960=DIRECTION('',(0.0,-1.0,0.0));
#961=DIRECTION('',(1.0,0.0,0.0));
#962=AXIS2_PLACEMENT_3D('',#959,#960,#961);
#963=CIRCLE('',#962,0.500000000000000);
#964=EDGE_CURVE('',#919,#951,#963,.T.);
#965=ORIENTED_EDGE('',*,*,#964,.F.);
#966=CARTESIAN_POINT('',(1.224606E-015,4.440892E-015,10.0));
#967=DIRECTION('',(0.0,0.0,1.0));
#968=DIRECTION('',(1.0,0.0,0.0));
#969=AXIS2_PLACEMENT_3D('',#966,#967,#968);
#970=CIRCLE('',#969,3.600000000000001);
#971=EDGE_CURVE('',#919,#902,#970,.T.);
#972=ORIENTED_EDGE('',*,*,#971,.T.);
#973=EDGE_LOOP('',(#949,#958,#965,#972));
#974=FACE_OUTER_BOUND('',#973,.T.);
#975=ADVANCED_FACE('',(#974),#940,.T.);
#976=CARTESIAN_POINT('',(1.224606E-015,4.440892E-015,10.0));
#977=DIRECTION('',(-1.224606E-016,-4.440892E-016,-1.0));
#978=DIRECTION('',(-1.0,0.0,0.0));
#979=AXIS2_PLACEMENT_3D('',#976,#977,#978);
#980=TOROIDAL_SURFACE('',#979,3.100000000000001,0.500000000000000);
#981=ORIENTED_EDGE('',*,*,#948,.T.);
#982=ORIENTED_EDGE('',*,*,#931,.T.);
#983=ORIENTED_EDGE('',*,*,#964,.T.);
#984=CARTESIAN_POINT('',(1.285837E-015,4.662937E-015,10.500000000000000));
#985=DIRECTION('',(0.0,0.0,-1.0));
#986=DIRECTION('',(1.0,0.0,0.0));
#987=AXIS2_PLACEMENT_3D('',#984,#985,#986);
#988=CIRCLE('',#987,3.100000000000001);
#989=EDGE_CURVE('',#951,#942,#988,.T.);
#990=ORIENTED_EDGE('',*,*,#989,.T.);
#991=EDGE_LOOP('',(#981,#982,#983,#990));
#992=FACE_OUTER_BOUND('',#991,.T.);
#993=ADVANCED_FACE('',(#992),#980,.T.);
#994=CARTESIAN_POINT('',(1.836910E-016,6.661338E-016,1.500000000000000));
#995=DIRECTION('',(1.224606E-016,4.440892E-016,1.0));
#996=DIRECTION('',(-1.0,0.0,0.0));
#997=AXIS2_PLACEMENT_3D('',#994,#995,#996);
#998=CYLINDRICAL_SURFACE('',#997,3.600000000000001);
#999=ORIENTED_EDGE('',*,*,#907,.T.);
#1000=ORIENTED_EDGE('',*,*,#971,.F.);
#1001=ORIENTED_EDGE('',*,*,#924,.T.);
#1002=CARTESIAN_POINT('',(1.836910E-016,6.661338E-016,1.500000000000000));
#1003=DIRECTION('',(0.0,0.0,-1.0));
#1004=DIRECTION('',(-1.0,0.0,0.0));
#1005=AXIS2_PLACEMENT_3D('',#1002,#1003,#1004);
#1006=CIRCLE('',#1005,3.600000000000001);
#1007=EDGE_CURVE('',#900,#910,#1006,.T.);
#1008=ORIENTED_EDGE('',*,*,#1007,.F.);
#1009=EDGE_LOOP('',(#999,#1000,#1001,#1008));
#1010=FACE_OUTER_BOUND('',#1009,.T.);
#1011=ADVANCED_FACE('',(#1010),#998,.T.);
#1012=CARTESIAN_POINT('',(1.285837E-015,4.662937E-015,10.500000000000000));
#1013=DIRECTION('',(0.0,0.0,-1.0));
#1014=DIRECTION('',(-1.0,0.0,0.0));
#1015=AXIS2_PLACEMENT_3D('',#1012,#1013,#1014);
#1016=PLANE('',#1015);
#1017=ORIENTED_EDGE('',*,*,#957,.F.);
#1018=ORIENTED_EDGE('',*,*,#989,.F.);
#1019=EDGE_LOOP('',(#1017,#1018));
#1020=FACE_OUTER_BOUND('',#1019,.T.);
#1021=ADVANCED_FACE('',(#1020),#1016,.F.);
#1022=CARTESIAN_POINT('',(1.836910E-016,6.661338E-016,1.500000000000000));
#1023=DIRECTION('',(0.0,0.0,-1.0));
#1024=DIRECTION('',(-1.0,0.0,0.0));
#1025=AXIS2_PLACEMENT_3D('',#1022,#1023,#1024);
#1026=PLANE('',#1025);
#1027=ORIENTED_EDGE('',*,*,#1007,.T.);
#1028=ORIENTED_EDGE('',*,*,#916,.T.);
#1029=EDGE_LOOP('',(#1027,#1028));
#1030=FACE_OUTER_BOUND('',#1029,.T.);
#1031=ADVANCED_FACE('',(#1030),#1026,.T.);
#1032=CLOSED_SHELL('',(#935,#975,#993,#1011,#1021,#1031));
#1033=MANIFOLD_SOLID_BREP('78A',#1032);
#1034=STYLED_ITEM('NONE',(#159),#1033);
#1035=CARTESIAN_POINT('',(1.500000000000000,2.825734E-016,0.636298772369392));
#1036=DIRECTION('',(1.224606E-016,4.440892E-016,1.0));
#1037=DIRECTION('',(-1.0,0.0,0.0));
#1038=AXIS2_PLACEMENT_3D('',#1035,#1036,#1037);
#1039=CONICAL_SURFACE('',#1038,0.375000000000000,26.565051177077990);
#1040=CARTESIAN_POINT('',(0.750000000000000,6.156403E-016,1.386298772369392));
#1041=VERTEX_POINT('',#1040);
#1042=CARTESIAN_POINT('',(1.200000000000000,1.792218E-016,0.486298772369392));
#1043=VERTEX_POINT('',#1042);
#1044=CARTESIAN_POINT('',(0.750000000000000,6.156403E-016,1.386298772369392));
#1045=DIRECTION('',(0.447213595499958,-4.337162E-016,-0.894427190999916));
#1046=VECTOR('',#1045,1.006230589874905);
#1047=LINE('',#1044,#1046);
#1048=EDGE_CURVE('',#1041,#1043,#1047,.T.);
#1049=ORIENTED_EDGE('',*,*,#1048,.F.);
#1050=CARTESIAN_POINT('',(2.250000000000000,7.074858E-016,1.386298772369392));
#1051=VERTEX_POINT('',#1050);
#1052=CARTESIAN_POINT('',(1.500000000000000,6.156403E-016,1.386298772369392));
#1053=DIRECTION('',(0.0,0.0,1.0));
#1054=DIRECTION('',(-1.0,0.0,0.0));
#1055=AXIS2_PLACEMENT_3D('',#1052,#1053,#1054);
#1056=CIRCLE('',#1055,0.750000000000000);
#1057=EDGE_CURVE('',#1051,#1041,#1056,.T.);
#1058=ORIENTED_EDGE('',*,*,#1057,.F.);
#1059=CARTESIAN_POINT('',(1.800000000000000,2.526982E-016,0.486298772369392));
#1060=VERTEX_POINT('',#1059);
#1061=CARTESIAN_POINT('',(1.800000000000000,2.526982E-016,0.486298772369392));
#1062=DIRECTION('',(0.447213595499958,4.519715E-016,0.894427190999916));
#1063=VECTOR('',#1062,1.006230589874906);
#1064=LINE('',#1061,#1063);
#1065=EDGE_CURVE('',#1060,#1051,#1064,.T.);
#1066=ORIENTED_EDGE('',*,*,#1065,.F.);
#1067=CARTESIAN_POINT('',(1.500000000000000,2.159600E-016,0.486298772369392));
#1068=DIRECTION('',(0.0,0.0,1.0));
#1069=DIRECTION('',(-1.0,0.0,0.0));
#1070=AXIS2_PLACEMENT_3D('',#1067,#1068,#1069);
#1071=CIRCLE('',#1070,0.300000000000000);
#1072=EDGE_CURVE('',#1060,#1043,#1071,.T.);
#1073=ORIENTED_EDGE('',*,*,#1072,.T.);
#1074=EDGE_LOOP('',(#1049,#1058,#1066,#1073));
#1075=FACE_OUTER_BOUND('',#1074,.T.);
#1076=ADVANCED_FACE('',(#1075),#1039,.T.);
#1077=CARTESIAN_POINT('',(1.500000000000000,2.220446E-016,0.500000000000000));
#1078=DIRECTION('',(-1.224606E-016,-4.440892E-016,-1.0));
#1079=DIRECTION('',(-1.0,0.0,0.0));
#1080=AXIS2_PLACEMENT_3D('',#1077,#1078,#1079);
#1081=CYLINDRICAL_SURFACE('',#1080,0.300000000000000);
#1082=CARTESIAN_POINT('',(1.200000000000000,2.220446E-016,0.500000000000000));
#1083=VERTEX_POINT('',#1082);
#1084=CARTESIAN_POINT('',(1.200000000000000,1.792218E-016,0.486298772369392));
#1085=DIRECTION('',(0.0,0.0,1.0));
#1086=VECTOR('',#1085,0.013701227630608);
#1087=LINE('',#1084,#1086);
#1088=EDGE_CURVE('',#1043,#1083,#1087,.T.);
#1089=ORIENTED_EDGE('',*,*,#1088,.F.);
#1090=ORIENTED_EDGE('',*,*,#1072,.F.);
#1091=CARTESIAN_POINT('',(1.800000000000000,2.587828E-016,0.500000000000000));
#1092=VERTEX_POINT('',#1091);
#1093=CARTESIAN_POINT('',(1.800000000000000,2.587828E-016,0.500000000000000));
#1094=DIRECTION('',(0.0,0.0,-1.0));
#1095=VECTOR('',#1094,0.013701227630608);
#1096=LINE('',#1093,#1095);
#1097=EDGE_CURVE('',#1092,#1060,#1096,.T.);
#1098=ORIENTED_EDGE('',*,*,#1097,.F.);
#1099=CARTESIAN_POINT('',(1.500000000000000,2.220446E-016,0.500000000000000));
#1100=DIRECTION('',(0.0,0.0,-1.0));
#1101=DIRECTION('',(-1.0,0.0,0.0));
#1102=AXIS2_PLACEMENT_3D('',#1099,#1100,#1101);
#1103=CIRCLE('',#1102,0.300000000000000);
#1104=EDGE_CURVE('',#1083,#1092,#1103,.T.);
#1105=ORIENTED_EDGE('',*,*,#1104,.F.);
#1106=EDGE_LOOP('',(#1089,#1090,#1098,#1105));
#1107=FACE_OUTER_BOUND('',#1106,.T.);
#1108=ADVANCED_FACE('',(#1107),#1081,.F.);
#1109=CARTESIAN_POINT('',(1.500000000000000,2.220446E-016,0.500000000000000));
#1110=DIRECTION('',(-1.224606E-016,-4.440892E-016,-1.0));
#1111=DIRECTION('',(-1.0,0.0,0.0));
#1112=AXIS2_PLACEMENT_3D('',#1109,#1110,#1111);
#1113=CYLINDRICAL_SURFACE('',#1112,0.300000000000000);
#1114=ORIENTED_EDGE('',*,*,#1088,.T.);
#1115=CARTESIAN_POINT('',(1.500000000000000,2.220446E-016,0.500000000000000));
#1116=DIRECTION('',(0.0,0.0,-1.0));
#1117=DIRECTION('',(-1.0,0.0,0.0));
#1118=AXIS2_PLACEMENT_3D('',#1115,#1116,#1117);
#1119=CIRCLE('',#1118,0.300000000000000);
#1120=EDGE_CURVE('',#1092,#1083,#1119,.T.);
#1121=ORIENTED_EDGE('',*,*,#1120,.F.);
#1122=ORIENTED_EDGE('',*,*,#1097,.T.);
#1123=CARTESIAN_POINT('',(1.500000000000000,2.159600E-016,0.486298772369392));
#1124=DIRECTION('',(0.0,0.0,1.0));
#1125=DIRECTION('',(-1.0,0.0,0.0));
#1126=AXIS2_PLACEMENT_3D('',#1123,#1124,#1125);
#1127=CIRCLE('',#1126,0.300000000000000);
#1128=EDGE_CURVE('',#1043,#1060,#1127,.T.);
#1129=ORIENTED_EDGE('',*,*,#1128,.F.);
#1130=EDGE_LOOP('',(#1114,#1121,#1122,#1129));
#1131=FACE_OUTER_BOUND('',#1130,.T.);
#1132=ADVANCED_FACE('',(#1131),#1113,.F.);
#1133=CARTESIAN_POINT('',(1.500000000000000,2.220446E-016,0.500000000000000));
#1134=DIRECTION('',(0.0,0.0,-1.0));
#1135=DIRECTION('',(-1.0,0.0,0.0));
#1136=AXIS2_PLACEMENT_3D('',#1133,#1134,#1135);
#1137=PLANE('',#1136);
#1138=ORIENTED_EDGE('',*,*,#1104,.T.);
#1139=ORIENTED_EDGE('',*,*,#1120,.T.);
#1140=EDGE_LOOP('',(#1138,#1139));
#1141=FACE_OUTER_BOUND('',#1140,.T.);
#1142=ADVANCED_FACE('',(#1141),#1137,.T.);
#1143=CARTESIAN_POINT('',(1.500000000000000,2.825734E-016,0.636298772369392));
#1144=DIRECTION('',(1.224606E-016,4.440892E-016,1.0));
#1145=DIRECTION('',(-1.0,0.0,0.0));
#1146=AXIS2_PLACEMENT_3D('',#1143,#1144,#1145);
#1147=CONICAL_SURFACE('',#1146,0.375000000000000,26.565051177077990);
#1148=ORIENTED_EDGE('',*,*,#1048,.T.);
#1149=ORIENTED_EDGE('',*,*,#1128,.T.);
#1150=ORIENTED_EDGE('',*,*,#1065,.T.);
#1151=CARTESIAN_POINT('',(1.500000000000000,6.156403E-016,1.386298772369392));
#1152=DIRECTION('',(0.0,0.0,1.0));
#1153=DIRECTION('',(-1.0,0.0,0.0));
#1154=AXIS2_PLACEMENT_3D('',#1151,#1152,#1153);
#1155=CIRCLE('',#1154,0.750000000000000);
#1156=EDGE_CURVE('',#1041,#1051,#1155,.T.);
#1157=ORIENTED_EDGE('',*,*,#1156,.F.);
#1158=EDGE_LOOP('',(#1148,#1149,#1150,#1157));
#1159=FACE_OUTER_BOUND('',#1158,.T.);
#1160=ADVANCED_FACE('',(#1159),#1147,.T.);
#1161=CARTESIAN_POINT('',(1.500000000000000,6.156403E-016,1.386298772369392));
#1162=DIRECTION('',(0.0,0.0,1.0));
#1163=DIRECTION('',(1.0,0.0,0.0));
#1164=AXIS2_PLACEMENT_3D('',#1161,#1162,#1163);
#1165=PLANE('',#1164);
#1166=ORIENTED_EDGE('',*,*,#1156,.T.);
#1167=ORIENTED_EDGE('',*,*,#1057,.T.);
#1168=EDGE_LOOP('',(#1166,#1167));
#1169=FACE_OUTER_BOUND('',#1168,.T.);
#1170=ADVANCED_FACE('',(#1169),#1165,.T.);
#1171=CLOSED_SHELL('',(#1076,#1108,#1132,#1142,#1160,#1170));
#1172=MANIFOLD_SOLID_BREP('784',#1171);
#1173=STYLED_ITEM('NONE',(#664),#1172);
#1174=ADVANCED_BREP_SHAPE_REPRESENTATION('ABSR1',(#152,#250,#409,#568,#657,#803,#892,#1033,#1172),#28);
#1175=SHAPE_REPRESENTATION_RELATIONSHIP('SRRPL1','',#1174,#62);
ENDSEC;
END-ISO-10303-21;
