ISO-10303-21;
HEADER;
/****************************************************************
 * Generated by software with PDElib inside                    *
 * PDElib Version v51a, created Wed 11/30/2011                  *
 * ITI Transcendata (http://www.transcendata.com/)              *
 ****************************************************************/
FILE_DESCRIPTION((''),'2;1');
FILE_NAME('IST_TO92.stp','2014-09-24T14:23:24',(''),(''),'Mechanical Desktop 2011','Mechanical Desktop 2011',', , ');
FILE_SCHEMA(('AUTOMOTIVE_DESIGN { 1 2 10303 214 1 1 1 1 }'));
ENDSEC;
DATA;
#10=(NAMED_UNIT(*)PLANE_ANGLE_UNIT()SI_UNIT($,.RADIAN.));
#11=DIMENSIONAL_EXPONENTS(0.0,0.0,0.0,0.0,0.0,0.0,0.0);
#12=PLANE_ANGLE_MEASURE_WITH_UNIT(PLANE_ANGLE_MEASURE(0.0174532925),#10);
#16=(CONVERSION_BASED_UNIT('DEGREE',#12)NAMED_UNIT(#11)PLANE_ANGLE_UNIT());
#20=(NAMED_UNIT(*)SI_UNIT($,.STERADIAN.)SOLID_ANGLE_UNIT());
#24=(LENGTH_UNIT()NAMED_UNIT(*)SI_UNIT(.MILLI.,.METRE.));
#26=UNCERTAINTY_MEASURE_WITH_UNIT(LENGTH_MEASURE(0.000001),#24,'DISTANCE_ACCURACY_VALUE','');
#28=(GEOMETRIC_REPRESENTATION_CONTEXT(3)GLOBAL_UNCERTAINTY_ASSIGNED_CONTEXT((#26))GLOBAL_UNIT_ASSIGNED_CONTEXT((#16,#20,#24))REPRESENTATION_CONTEXT('','3D'));
#29=APPLICATION_CONTEXT('automotive design');
#30=APPLICATION_PROTOCOL_DEFINITION('INTERNATIONAL_STANDARD','automotive_design',1998,#29);
#31=PRODUCT_CONTEXT('3D Mechanical Parts',#29,'mechanical');
#32=PRODUCT('Product','Product','',(#31));
#33=PRODUCT_RELATED_PRODUCT_CATEGORY('part',$,(#32));
#34=PRODUCT_CATEGORY('part',$);
#35=PERSON('1','Design','Joe',$,$,$);
#36=ORGANIZATION($,'None','None');
#37=PERSON_AND_ORGANIZATION(#35,#36);
#38=PERSON_AND_ORGANIZATION_ROLE('design_owner');
#39=APPLIED_PERSON_AND_ORGANIZATION_ASSIGNMENT(#37,#38,(#32));
#40=PRODUCT_DEFINITION_FORMATION_WITH_SPECIFIED_SOURCE('None','',#32,.BOUGHT.);
#41=PERSON('2','Creator','Joe',$,$,$);
#42=ORGANIZATION($,'None','None');
#43=PERSON_AND_ORGANIZATION(#41,#42);
#44=PERSON_AND_ORGANIZATION_ROLE('creator');
#45=APPLIED_PERSON_AND_ORGANIZATION_ASSIGNMENT(#43,#44,(#40));
#46=PERSON('3','Supplier','Joe',$,$,$);
#47=ORGANIZATION($,'None','None');
#48=PERSON_AND_ORGANIZATION(#46,#47);
#49=PERSON_AND_ORGANIZATION_ROLE('design_supplier');
#50=APPLIED_PERSON_AND_ORGANIZATION_ASSIGNMENT(#48,#49,(#40));
#51=PRODUCT_DEFINITION_CONTEXT('part definition',#29,'design');
#52=PRODUCT_DEFINITION('None','',#40,#51);
#53=PERSON('4','Creator','Joe',$,$,$);
#54=ORGANIZATION($,'None','None');
#55=PERSON_AND_ORGANIZATION(#53,#54);
#56=PERSON_AND_ORGANIZATION_ROLE('creator');
#57=APPLIED_PERSON_AND_ORGANIZATION_ASSIGNMENT(#55,#56,(#52));
#58=CARTESIAN_POINT('NONE',(0.0,0.0,0.0));
#59=DIRECTION('NONE',(0.0,0.0,1.0));
#60=DIRECTION('NONE',(1.0,0.0,0.0));
#61=AXIS2_PLACEMENT_3D('NONE',#58,#59,#60);
#62=SHAPE_REPRESENTATION('SR1',(#61),#28);
#63=PRODUCT_DEFINITION_SHAPE('PDS1','Test Part',#52);
#64=SHAPE_DEFINITION_REPRESENTATION(#63,#62);
#65=CARTESIAN_POINT('',(1.517499999999999,0.247499999999993,1.897482143312658));
#66=DIRECTION('',(1.0,0.0,0.0));
#67=DIRECTION('',(0.0,0.0,1.0));
#68=AXIS2_PLACEMENT_3D('',#65,#66,#67);
#69=PLANE('',#68);
#70=CARTESIAN_POINT('',(1.5175,0.247499999999993,3.999999999999999));
#71=VERTEX_POINT('',#70);
#72=CARTESIAN_POINT('',(1.5175,-0.247500000000008,3.999999999999999));
#73=VERTEX_POINT('',#72);
#74=CARTESIAN_POINT('',(1.517499999999999,0.247499999999992,3.999999999999999));
#75=DIRECTION('',(0.0,-1.0,0.0));
#76=VECTOR('',#75,0.495);
#77=LINE('',#74,#76);
#78=EDGE_CURVE('',#71,#73,#77,.T.);
#79=ORIENTED_EDGE('',*,*,#78,.T.);
#80=CARTESIAN_POINT('',(1.5175,-0.247500000000008,2.10251785668734));
#81=VERTEX_POINT('',#80);
#82=CARTESIAN_POINT('',(1.5175,-0.247500000000008,2.10251785668734));
#83=DIRECTION('',(0.0,0.0,1.0));
#84=VECTOR('',#83,1.897482143312659);
#85=LINE('',#82,#84);
#86=EDGE_CURVE('',#81,#73,#85,.T.);
#87=ORIENTED_EDGE('',*,*,#86,.F.);
#88=CARTESIAN_POINT('',(1.5175,0.247499999999993,2.10251785668734));
#89=VERTEX_POINT('',#88);
#90=CARTESIAN_POINT('',(1.517499999999999,0.247499999999992,2.10251785668734));
#91=DIRECTION('',(0.0,-1.0,0.0));
#92=VECTOR('',#91,0.495);
#93=LINE('',#90,#92);
#94=EDGE_CURVE('',#89,#81,#93,.T.);
#95=ORIENTED_EDGE('',*,*,#94,.F.);
#96=CARTESIAN_POINT('',(1.5175,0.247499999999993,2.10251785668734));
#97=DIRECTION('',(0.0,0.0,1.0));
#98=VECTOR('',#97,1.897482143312659);
#99=LINE('',#96,#98);
#100=EDGE_CURVE('',#89,#71,#99,.T.);
#101=ORIENTED_EDGE('',*,*,#100,.T.);
#102=EDGE_LOOP('',(#79,#87,#95,#101));
#103=FACE_OUTER_BOUND('',#102,.T.);
#104=ADVANCED_FACE('',(#103),#69,.T.);
#105=CARTESIAN_POINT('',(1.0225,-0.247500000000008,1.897482143312658));
#106=DIRECTION('',(-1.0,0.0,0.0));
#107=DIRECTION('',(0.0,0.0,-1.0));
#108=AXIS2_PLACEMENT_3D('',#105,#106,#107);
#109=PLANE('',#108);
#110=CARTESIAN_POINT('',(1.0225,-0.247500000000008,4.0));
#111=VERTEX_POINT('',#110);
#112=CARTESIAN_POINT('',(1.0225,0.247499999999993,4.0));
#113=VERTEX_POINT('',#112);
#114=CARTESIAN_POINT('',(1.0225,-0.247500000000008,3.999999999999999));
#115=DIRECTION('',(0.0,1.0,0.0));
#116=VECTOR('',#115,0.495);
#117=LINE('',#114,#116);
#118=EDGE_CURVE('',#111,#113,#117,.T.);
#119=ORIENTED_EDGE('',*,*,#118,.T.);
#120=CARTESIAN_POINT('',(1.0225,0.247499999999993,1.897482143312658));
#121=VERTEX_POINT('',#120);
#122=CARTESIAN_POINT('',(1.0225,0.247499999999993,1.897482143312658));
#123=DIRECTION('',(0.0,0.0,1.0));
#124=VECTOR('',#123,2.102517856687341);
#125=LINE('',#122,#124);
#126=EDGE_CURVE('',#121,#113,#125,.T.);
#127=ORIENTED_EDGE('',*,*,#126,.F.);
#128=CARTESIAN_POINT('',(1.0225,-0.247500000000008,1.897482143312658));
#129=VERTEX_POINT('',#128);
#130=CARTESIAN_POINT('',(1.0225,-0.247500000000008,1.897482143312658));
#131=DIRECTION('',(0.0,1.0,0.0));
#132=VECTOR('',#131,0.495);
#133=LINE('',#130,#132);
#134=EDGE_CURVE('',#129,#121,#133,.T.);
#135=ORIENTED_EDGE('',*,*,#134,.F.);
#136=CARTESIAN_POINT('',(1.0225,-0.247500000000008,1.897482143312658));
#137=DIRECTION('',(0.0,0.0,1.0));
#138=VECTOR('',#137,2.102517856687341);
#139=LINE('',#136,#138);
#140=EDGE_CURVE('',#129,#111,#139,.T.);
#141=ORIENTED_EDGE('',*,*,#140,.T.);
#142=EDGE_LOOP('',(#119,#127,#135,#141));
#143=FACE_OUTER_BOUND('',#142,.T.);
#144=ADVANCED_FACE('',(#143),#109,.T.);
#145=CARTESIAN_POINT('',(2.787499999999999,0.247499999999993,0.832517856687338));
#146=DIRECTION('',(0.707106781186548,-8.659561E-017,0.707106781186547));
#147=DIRECTION('',(-0.707106781186547,8.659561E-017,0.707106781186548));
#148=AXIS2_PLACEMENT_3D('',#145,#146,#147);
#149=PLANE('',#148);
#150=ORIENTED_EDGE('',*,*,#94,.T.);
#151=CARTESIAN_POINT('',(2.787499999999999,-0.247500000000008,0.832517856687339));
#152=VERTEX_POINT('',#151);
#153=CARTESIAN_POINT('',(2.787499999999999,-0.247500000000008,0.832517856687339));
#154=DIRECTION('',(-0.707106781186547,9.272200E-017,0.707106781186548));
#155=VECTOR('',#154,1.796051224213831);
#156=LINE('',#153,#155);
#157=EDGE_CURVE('',#152,#81,#156,.T.);
#158=ORIENTED_EDGE('',*,*,#157,.F.);
#159=CARTESIAN_POINT('',(2.787499999999999,0.247499999999993,0.832517856687339));
#160=VERTEX_POINT('',#159);
#161=CARTESIAN_POINT('',(2.787499999999999,0.247499999999992,0.832517856687339));
#162=DIRECTION('',(0.0,-1.0,0.0));
#163=VECTOR('',#162,0.495);
#164=LINE('',#161,#163);
#165=EDGE_CURVE('',#160,#152,#164,.T.);
#166=ORIENTED_EDGE('',*,*,#165,.F.);
#167=CARTESIAN_POINT('',(2.787499999999999,0.247499999999993,0.832517856687339));
#168=DIRECTION('',(-0.707106781186547,9.272200E-017,0.707106781186548));
#169=VECTOR('',#168,1.796051224213831);
#170=LINE('',#167,#169);
#171=EDGE_CURVE('',#160,#89,#170,.T.);
#172=ORIENTED_EDGE('',*,*,#171,.T.);
#173=EDGE_LOOP('',(#150,#158,#166,#172));
#174=FACE_OUTER_BOUND('',#173,.T.);
#175=ADVANCED_FACE('',(#174),#149,.T.);
#176=CARTESIAN_POINT('',(2.292499999999999,-0.247500000000008,0.627482143312657));
#177=DIRECTION('',(-0.707106781186548,8.659561E-017,-0.707106781186547));
#178=DIRECTION('',(0.707106781186547,-8.659561E-017,-0.707106781186548));
#179=AXIS2_PLACEMENT_3D('',#176,#177,#178);
#180=PLANE('',#179);
#181=ORIENTED_EDGE('',*,*,#134,.T.);
#182=CARTESIAN_POINT('',(2.292499999999999,0.247499999999993,0.627482143312657));
#183=VERTEX_POINT('',#182);
#184=CARTESIAN_POINT('',(2.292499999999999,0.247499999999993,0.627482143312657));
#185=DIRECTION('',(-0.707106781186547,9.272200E-017,0.707106781186548));
#186=VECTOR('',#185,1.796051224213831);
#187=LINE('',#184,#186);
#188=EDGE_CURVE('',#183,#121,#187,.T.);
#189=ORIENTED_EDGE('',*,*,#188,.F.);
#190=CARTESIAN_POINT('',(2.292499999999999,-0.247500000000008,0.627482143312657));
#191=VERTEX_POINT('',#190);
#192=CARTESIAN_POINT('',(2.292499999999999,-0.247500000000008,0.627482143312657));
#193=DIRECTION('',(0.0,1.0,0.0));
#194=VECTOR('',#193,0.495);
#195=LINE('',#192,#194);
#196=EDGE_CURVE('',#191,#183,#195,.T.);
#197=ORIENTED_EDGE('',*,*,#196,.F.);
#198=CARTESIAN_POINT('',(2.292499999999999,-0.247500000000008,0.627482143312657));
#199=DIRECTION('',(-0.707106781186547,9.272200E-017,0.707106781186548));
#200=VECTOR('',#199,1.796051224213831);
#201=LINE('',#198,#200);
#202=EDGE_CURVE('',#191,#129,#201,.T.);
#203=ORIENTED_EDGE('',*,*,#202,.T.);
#204=EDGE_LOOP('',(#181,#189,#197,#203));
#205=FACE_OUTER_BOUND('',#204,.T.);
#206=ADVANCED_FACE('',(#205),#180,.T.);
#207=CARTESIAN_POINT('',(2.292499999999999,-0.247500000000008,-3.200000000000001));
#208=DIRECTION('',(-1.0,0.0,0.0));
#209=DIRECTION('',(0.0,0.0,-1.0));
#210=AXIS2_PLACEMENT_3D('',#207,#208,#209);
#211=PLANE('',#210);
#212=ORIENTED_EDGE('',*,*,#196,.T.);
#213=CARTESIAN_POINT('',(2.292499999999999,0.247499999999993,-3.200000000000001));
#214=VERTEX_POINT('',#213);
#215=CARTESIAN_POINT('',(2.292499999999999,0.247499999999993,-3.200000000000001));
#216=DIRECTION('',(0.0,0.0,1.0));
#217=VECTOR('',#216,3.827482143312658);
#218=LINE('',#215,#217);
#219=EDGE_CURVE('',#214,#183,#218,.T.);
#220=ORIENTED_EDGE('',*,*,#219,.F.);
#221=CARTESIAN_POINT('',(2.292499999999999,-0.247500000000008,-3.200000000000001));
#222=VERTEX_POINT('',#221);
#223=CARTESIAN_POINT('',(2.292499999999999,-0.247500000000008,-3.200000000000001));
#224=DIRECTION('',(0.0,1.0,0.0));
#225=VECTOR('',#224,0.495);
#226=LINE('',#223,#225);
#227=EDGE_CURVE('',#222,#214,#226,.T.);
#228=ORIENTED_EDGE('',*,*,#227,.F.);
#229=CARTESIAN_POINT('',(2.292499999999999,-0.247500000000008,-3.200000000000001));
#230=DIRECTION('',(0.0,0.0,1.0));
#231=VECTOR('',#230,3.827482143312658);
#232=LINE('',#229,#231);
#233=EDGE_CURVE('',#222,#191,#232,.T.);
#234=ORIENTED_EDGE('',*,*,#233,.T.);
#235=EDGE_LOOP('',(#212,#220,#228,#234));
#236=FACE_OUTER_BOUND('',#235,.T.);
#237=ADVANCED_FACE('',(#236),#211,.T.);
#238=CARTESIAN_POINT('',(2.292499999999999,0.247499999999993,-3.200000000000001));
#239=DIRECTION('',(0.0,1.0,0.0));
#240=DIRECTION('',(0.0,0.0,-1.0));
#241=AXIS2_PLACEMENT_3D('',#238,#239,#240);
#242=PLANE('',#241);
#243=CARTESIAN_POINT('',(2.787499999999999,0.247499999999993,-3.200000000000001));
#244=VERTEX_POINT('',#243);
#245=CARTESIAN_POINT('',(2.787499999999999,0.247499999999993,-3.200000000000001));
#246=DIRECTION('',(0.0,0.0,1.0));
#247=VECTOR('',#246,4.032517856687339);
#248=LINE('',#245,#247);
#249=EDGE_CURVE('',#244,#160,#248,.T.);
#250=ORIENTED_EDGE('',*,*,#249,.F.);
#251=CARTESIAN_POINT('',(2.292499999999999,0.247499999999993,-3.200000000000001));
#252=DIRECTION('',(1.0,0.0,0.0));
#253=VECTOR('',#252,0.495);
#254=LINE('',#251,#253);
#255=EDGE_CURVE('',#214,#244,#254,.T.);
#256=ORIENTED_EDGE('',*,*,#255,.F.);
#257=ORIENTED_EDGE('',*,*,#219,.T.);
#258=ORIENTED_EDGE('',*,*,#188,.T.);
#259=ORIENTED_EDGE('',*,*,#126,.T.);
#260=CARTESIAN_POINT('',(1.0225,0.247499999999993,3.999999999999999));
#261=DIRECTION('',(1.0,0.0,0.0));
#262=VECTOR('',#261,0.495);
#263=LINE('',#260,#262);
#264=EDGE_CURVE('',#113,#71,#263,.T.);
#265=ORIENTED_EDGE('',*,*,#264,.T.);
#266=ORIENTED_EDGE('',*,*,#100,.F.);
#267=ORIENTED_EDGE('',*,*,#171,.F.);
#268=EDGE_LOOP('',(#250,#256,#257,#258,#259,#265,#266,#267));
#269=FACE_OUTER_BOUND('',#268,.T.);
#270=ADVANCED_FACE('',(#269),#242,.T.);
#271=CARTESIAN_POINT('',(2.787499999999999,0.247499999999993,-3.200000000000001));
#272=DIRECTION('',(1.0,0.0,0.0));
#273=DIRECTION('',(0.0,0.0,1.0));
#274=AXIS2_PLACEMENT_3D('',#271,#272,#273);
#275=PLANE('',#274);
#276=ORIENTED_EDGE('',*,*,#165,.T.);
#277=CARTESIAN_POINT('',(2.787499999999999,-0.247500000000008,-3.200000000000001));
#278=VERTEX_POINT('',#277);
#279=CARTESIAN_POINT('',(2.787499999999999,-0.247500000000008,-3.200000000000001));
#280=DIRECTION('',(0.0,0.0,1.0));
#281=VECTOR('',#280,4.032517856687339);
#282=LINE('',#279,#281);
#283=EDGE_CURVE('',#278,#152,#282,.T.);
#284=ORIENTED_EDGE('',*,*,#283,.F.);
#285=CARTESIAN_POINT('',(2.787499999999999,0.247499999999993,-3.200000000000001));
#286=DIRECTION('',(0.0,-1.0,0.0));
#287=VECTOR('',#286,0.495);
#288=LINE('',#285,#287);
#289=EDGE_CURVE('',#244,#278,#288,.T.);
#290=ORIENTED_EDGE('',*,*,#289,.F.);
#291=ORIENTED_EDGE('',*,*,#249,.T.);
#292=EDGE_LOOP('',(#276,#284,#290,#291));
#293=FACE_OUTER_BOUND('',#292,.T.);
#294=ADVANCED_FACE('',(#293),#275,.T.);
#295=CARTESIAN_POINT('',(2.787499999999999,-0.247500000000008,-3.200000000000001));
#296=DIRECTION('',(0.0,-1.0,0.0));
#297=DIRECTION('',(0.0,0.0,1.0));
#298=AXIS2_PLACEMENT_3D('',#295,#296,#297);
#299=PLANE('',#298);
#300=ORIENTED_EDGE('',*,*,#233,.F.);
#301=CARTESIAN_POINT('',(2.787499999999999,-0.247500000000008,-3.200000000000001));
#302=DIRECTION('',(-1.0,0.0,0.0));
#303=VECTOR('',#302,0.495);
#304=LINE('',#301,#303);
#305=EDGE_CURVE('',#278,#222,#304,.T.);
#306=ORIENTED_EDGE('',*,*,#305,.F.);
#307=ORIENTED_EDGE('',*,*,#283,.T.);
#308=ORIENTED_EDGE('',*,*,#157,.T.);
#309=ORIENTED_EDGE('',*,*,#86,.T.);
#310=CARTESIAN_POINT('',(1.5175,-0.247500000000008,3.999999999999999));
#311=DIRECTION('',(-1.0,0.0,0.0));
#312=VECTOR('',#311,0.495);
#313=LINE('',#310,#312);
#314=EDGE_CURVE('',#73,#111,#313,.T.);
#315=ORIENTED_EDGE('',*,*,#314,.T.);
#316=ORIENTED_EDGE('',*,*,#140,.F.);
#317=ORIENTED_EDGE('',*,*,#202,.F.);
#318=EDGE_LOOP('',(#300,#306,#307,#308,#309,#315,#316,#317));
#319=FACE_OUTER_BOUND('',#318,.T.);
#320=ADVANCED_FACE('',(#319),#299,.T.);
#321=CARTESIAN_POINT('',(1.27,-7.993606E-015,3.999999999999999));
#322=DIRECTION('',(0.0,0.0,1.0));
#323=DIRECTION('',(-1.0,0.0,0.0));
#324=AXIS2_PLACEMENT_3D('',#321,#322,#323);
#325=PLANE('',#324);
#326=ORIENTED_EDGE('',*,*,#78,.F.);
#327=ORIENTED_EDGE('',*,*,#264,.F.);
#328=ORIENTED_EDGE('',*,*,#118,.F.);
#329=ORIENTED_EDGE('',*,*,#314,.F.);
#330=EDGE_LOOP('',(#326,#327,#328,#329));
#331=FACE_OUTER_BOUND('',#330,.T.);
#332=ADVANCED_FACE('',(#331),#325,.T.);
#333=CARTESIAN_POINT('',(2.539999999999999,-7.993606E-015,-3.2));
#334=DIRECTION('',(0.0,0.0,1.0));
#335=DIRECTION('',(-1.0,0.0,0.0));
#336=AXIS2_PLACEMENT_3D('',#333,#334,#335);
#337=PLANE('',#336);
#338=ORIENTED_EDGE('',*,*,#305,.T.);
#339=ORIENTED_EDGE('',*,*,#227,.T.);
#340=ORIENTED_EDGE('',*,*,#255,.T.);
#341=ORIENTED_EDGE('',*,*,#289,.T.);
#342=EDGE_LOOP('',(#338,#339,#340,#341));
#343=FACE_OUTER_BOUND('',#342,.T.);
#344=ADVANCED_FACE('',(#343),#337,.F.);
#345=CLOSED_SHELL('',(#104,#144,#175,#206,#237,#270,#294,#320,#332,#344));
#346=MANIFOLD_SOLID_BREP('2BE0',#345);
#347=COLOUR_RGB('254',0.866,0.866,0.866);
#348=SURFACE_STYLE_USAGE(.BOTH.,#349);
#349=SURFACE_SIDE_STYLE('NONE',(#350));
#350=SURFACE_STYLE_FILL_AREA(#351);
#351=FILL_AREA_STYLE('NONE',(#352));
#352=FILL_AREA_STYLE_COLOUR('NONE',#347);
#353=PRESENTATION_STYLE_ASSIGNMENT((#348));
#354=STYLED_ITEM('NONE',(#353),#346);
#355=MECHANICAL_DESIGN_GEOMETRIC_PRESENTATION_REPRESENTATION('NONE',(#354,#507,#790,#1018),#28);
#356=PRESENTATION_LAYER_ASSIGNMENT('3D','None',(#346,#506,#789,#1010));
#357=CARTESIAN_POINT('',(0.247500000000001,0.247499999999997,-3.2));
#358=DIRECTION('',(1.0,0.0,0.0));
#359=DIRECTION('',(0.0,0.0,-1.0));
#360=AXIS2_PLACEMENT_3D('',#357,#358,#359);
#361=PLANE('',#360);
#362=CARTESIAN_POINT('',(0.247500000000001,0.247499999999997,4.0));
#363=VERTEX_POINT('',#362);
#364=CARTESIAN_POINT('',(0.247500000000001,-0.247500000000003,4.0));
#365=VERTEX_POINT('',#364);
#366=CARTESIAN_POINT('',(0.247500000000001,0.247499999999997,4.0));
#367=DIRECTION('',(0.0,-1.0,0.0));
#368=VECTOR('',#367,0.495);
#369=LINE('',#366,#368);
#370=EDGE_CURVE('',#363,#365,#369,.T.);
#371=ORIENTED_EDGE('',*,*,#370,.T.);
#372=CARTESIAN_POINT('',(0.247500000000001,-0.247500000000003,-3.2));
#373=VERTEX_POINT('',#372);
#374=CARTESIAN_POINT('',(0.247500000000001,-0.247500000000003,-3.2));
#375=DIRECTION('',(0.0,0.0,1.0));
#376=VECTOR('',#375,7.199999999999999);
#377=LINE('',#374,#376);
#378=EDGE_CURVE('',#373,#365,#377,.T.);
#379=ORIENTED_EDGE('',*,*,#378,.F.);
#380=CARTESIAN_POINT('',(0.247500000000001,0.247499999999997,-3.2));
#381=VERTEX_POINT('',#380);
#382=CARTESIAN_POINT('',(0.247500000000001,0.247499999999997,-3.2));
#383=DIRECTION('',(0.0,-1.0,0.0));
#384=VECTOR('',#383,0.495);
#385=LINE('',#382,#384);
#386=EDGE_CURVE('',#381,#373,#385,.T.);
#387=ORIENTED_EDGE('',*,*,#386,.F.);
#388=CARTESIAN_POINT('',(0.247500000000001,0.247499999999997,-3.2));
#389=DIRECTION('',(0.0,0.0,1.0));
#390=VECTOR('',#389,7.199999999999999);
#391=LINE('',#388,#390);
#392=EDGE_CURVE('',#381,#363,#391,.T.);
#393=ORIENTED_EDGE('',*,*,#392,.T.);
#394=EDGE_LOOP('',(#371,#379,#387,#393));
#395=FACE_OUTER_BOUND('',#394,.T.);
#396=ADVANCED_FACE('',(#395),#361,.T.);
#397=CARTESIAN_POINT('',(0.247500000000001,-0.247500000000003,-3.2));
#398=DIRECTION('',(0.0,-1.0,0.0));
#399=DIRECTION('',(0.0,0.0,-1.0));
#400=AXIS2_PLACEMENT_3D('',#397,#398,#399);
#401=PLANE('',#400);
#402=CARTESIAN_POINT('',(-0.2475,-0.247500000000003,4.0));
#403=VERTEX_POINT('',#402);
#404=CARTESIAN_POINT('',(0.247500000000001,-0.247500000000003,4.0));
#405=DIRECTION('',(-1.0,0.0,0.0));
#406=VECTOR('',#405,0.495);
#407=LINE('',#404,#406);
#408=EDGE_CURVE('',#365,#403,#407,.T.);
#409=ORIENTED_EDGE('',*,*,#408,.T.);
#410=CARTESIAN_POINT('',(-0.2475,-0.247500000000003,-3.2));
#411=VERTEX_POINT('',#410);
#412=CARTESIAN_POINT('',(-0.2475,-0.247500000000003,-3.2));
#413=DIRECTION('',(0.0,0.0,1.0));
#414=VECTOR('',#413,7.199999999999999);
#415=LINE('',#412,#414);
#416=EDGE_CURVE('',#411,#403,#415,.T.);
#417=ORIENTED_EDGE('',*,*,#416,.F.);
#418=CARTESIAN_POINT('',(0.247500000000001,-0.247500000000003,-3.2));
#419=DIRECTION('',(-1.0,0.0,0.0));
#420=VECTOR('',#419,0.495);
#421=LINE('',#418,#420);
#422=EDGE_CURVE('',#373,#411,#421,.T.);
#423=ORIENTED_EDGE('',*,*,#422,.F.);
#424=ORIENTED_EDGE('',*,*,#378,.T.);
#425=EDGE_LOOP('',(#409,#417,#423,#424));
#426=FACE_OUTER_BOUND('',#425,.T.);
#427=ADVANCED_FACE('',(#426),#401,.T.);
#428=CARTESIAN_POINT('',(-0.2475,-0.247500000000003,-3.2));
#429=DIRECTION('',(-1.0,0.0,0.0));
#430=DIRECTION('',(0.0,0.0,1.0));
#431=AXIS2_PLACEMENT_3D('',#428,#429,#430);
#432=PLANE('',#431);
#433=CARTESIAN_POINT('',(-0.2475,0.247499999999997,4.0));
#434=VERTEX_POINT('',#433);
#435=CARTESIAN_POINT('',(-0.2475,-0.247500000000003,4.0));
#436=DIRECTION('',(0.0,1.0,0.0));
#437=VECTOR('',#436,0.495);
#438=LINE('',#435,#437);
#439=EDGE_CURVE('',#403,#434,#438,.T.);
#440=ORIENTED_EDGE('',*,*,#439,.T.);
#441=CARTESIAN_POINT('',(-0.2475,0.247499999999997,-3.2));
#442=VERTEX_POINT('',#441);
#443=CARTESIAN_POINT('',(-0.2475,0.247499999999997,-3.2));
#444=DIRECTION('',(0.0,0.0,1.0));
#445=VECTOR('',#444,7.199999999999999);
#446=LINE('',#443,#445);
#447=EDGE_CURVE('',#442,#434,#446,.T.);
#448=ORIENTED_EDGE('',*,*,#447,.F.);
#449=CARTESIAN_POINT('',(-0.2475,-0.247500000000003,-3.2));
#450=DIRECTION('',(0.0,1.0,0.0));
#451=VECTOR('',#450,0.495);
#452=LINE('',#449,#451);
#453=EDGE_CURVE('',#411,#442,#452,.T.);
#454=ORIENTED_EDGE('',*,*,#453,.F.);
#455=ORIENTED_EDGE('',*,*,#416,.T.);
#456=EDGE_LOOP('',(#440,#448,#454,#455));
#457=FACE_OUTER_BOUND('',#456,.T.);
#458=ADVANCED_FACE('',(#457),#432,.T.);
#459=CARTESIAN_POINT('',(-0.2475,0.247499999999997,-3.2));
#460=DIRECTION('',(0.0,1.0,0.0));
#461=DIRECTION('',(0.0,0.0,1.0));
#462=AXIS2_PLACEMENT_3D('',#459,#460,#461);
#463=PLANE('',#462);
#464=CARTESIAN_POINT('',(-0.2475,0.247499999999997,4.0));
#465=DIRECTION('',(1.0,0.0,0.0));
#466=VECTOR('',#465,0.495);
#467=LINE('',#464,#466);
#468=EDGE_CURVE('',#434,#363,#467,.T.);
#469=ORIENTED_EDGE('',*,*,#468,.T.);
#470=ORIENTED_EDGE('',*,*,#392,.F.);
#471=CARTESIAN_POINT('',(-0.2475,0.247499999999997,-3.2));
#472=DIRECTION('',(1.0,0.0,0.0));
#473=VECTOR('',#472,0.495);
#474=LINE('',#471,#473);
#475=EDGE_CURVE('',#442,#381,#474,.T.);
#476=ORIENTED_EDGE('',*,*,#475,.F.);
#477=ORIENTED_EDGE('',*,*,#447,.T.);
#478=EDGE_LOOP('',(#469,#470,#476,#477));
#479=FACE_OUTER_BOUND('',#478,.T.);
#480=ADVANCED_FACE('',(#479),#463,.T.);
#481=CARTESIAN_POINT('',(4.440892E-016,-2.986248E-015,4.0));
#482=DIRECTION('',(0.0,0.0,1.0));
#483=DIRECTION('',(1.0,0.0,0.0));
#484=AXIS2_PLACEMENT_3D('',#481,#482,#483);
#485=PLANE('',#484);
#486=ORIENTED_EDGE('',*,*,#370,.F.);
#487=ORIENTED_EDGE('',*,*,#468,.F.);
#488=ORIENTED_EDGE('',*,*,#439,.F.);
#489=ORIENTED_EDGE('',*,*,#408,.F.);
#490=EDGE_LOOP('',(#486,#487,#488,#489));
#491=FACE_OUTER_BOUND('',#490,.T.);
#492=ADVANCED_FACE('',(#491),#485,.T.);
#493=CARTESIAN_POINT('',(4.440892E-016,-2.985617E-015,-3.199999999999999));
#494=DIRECTION('',(0.0,0.0,1.0));
#495=DIRECTION('',(1.0,0.0,0.0));
#496=AXIS2_PLACEMENT_3D('',#493,#494,#495);
#497=PLANE('',#496);
#498=ORIENTED_EDGE('',*,*,#475,.T.);
#499=ORIENTED_EDGE('',*,*,#386,.T.);
#500=ORIENTED_EDGE('',*,*,#422,.T.);
#501=ORIENTED_EDGE('',*,*,#453,.T.);
#502=EDGE_LOOP('',(#498,#499,#500,#501));
#503=FACE_OUTER_BOUND('',#502,.T.);
#504=ADVANCED_FACE('',(#503),#497,.F.);
#505=CLOSED_SHELL('',(#396,#427,#458,#480,#492,#504));
#506=MANIFOLD_SOLID_BREP('2BDC',#505);
#507=STYLED_ITEM('NONE',(#353),#506);
#508=CARTESIAN_POINT('',(-1.517499999999999,-0.2475,1.897482143312659));
#509=DIRECTION('',(-1.0,0.0,0.0));
#510=DIRECTION('',(0.0,0.0,1.0));
#511=AXIS2_PLACEMENT_3D('',#508,#509,#510);
#512=PLANE('',#511);
#513=CARTESIAN_POINT('',(-1.5175,-0.2475,4.0));
#514=VERTEX_POINT('',#513);
#515=CARTESIAN_POINT('',(-1.5175,0.2475,4.0));
#516=VERTEX_POINT('',#515);
#517=CARTESIAN_POINT('',(-1.517499999999999,-0.2475,4.0));
#518=DIRECTION('',(0.0,1.0,0.0));
#519=VECTOR('',#518,0.495);
#520=LINE('',#517,#519);
#521=EDGE_CURVE('',#514,#516,#520,.T.);
#522=ORIENTED_EDGE('',*,*,#521,.T.);
#523=CARTESIAN_POINT('',(-1.5175,0.2475,2.10251785668734));
#524=VERTEX_POINT('',#523);
#525=CARTESIAN_POINT('',(-1.5175,0.2475,2.10251785668734));
#526=DIRECTION('',(0.0,0.0,1.0));
#527=VECTOR('',#526,1.897482143312659);
#528=LINE('',#525,#527);
#529=EDGE_CURVE('',#524,#516,#528,.T.);
#530=ORIENTED_EDGE('',*,*,#529,.F.);
#531=CARTESIAN_POINT('',(-1.5175,-0.2475,2.10251785668734));
#532=VERTEX_POINT('',#531);
#533=CARTESIAN_POINT('',(-1.5175,-0.2475,2.10251785668734));
#534=DIRECTION('',(0.0,1.0,0.0));
#535=VECTOR('',#534,0.495);
#536=LINE('',#533,#535);
#537=EDGE_CURVE('',#532,#524,#536,.T.);
#538=ORIENTED_EDGE('',*,*,#537,.F.);
#539=CARTESIAN_POINT('',(-1.5175,-0.2475,2.10251785668734));
#540=DIRECTION('',(0.0,0.0,1.0));
#541=VECTOR('',#540,1.897482143312659);
#542=LINE('',#539,#541);
#543=EDGE_CURVE('',#532,#514,#542,.T.);
#544=ORIENTED_EDGE('',*,*,#543,.T.);
#545=EDGE_LOOP('',(#522,#530,#538,#544));
#546=FACE_OUTER_BOUND('',#545,.T.);
#547=ADVANCED_FACE('',(#546),#512,.T.);
#548=CARTESIAN_POINT('',(-1.0225,0.2475,1.897482143312659));
#549=DIRECTION('',(1.0,0.0,0.0));
#550=DIRECTION('',(0.0,0.0,-1.0));
#551=AXIS2_PLACEMENT_3D('',#548,#549,#550);
#552=PLANE('',#551);
#553=CARTESIAN_POINT('',(-1.0225,0.2475,4.0));
#554=VERTEX_POINT('',#553);
#555=CARTESIAN_POINT('',(-1.0225,-0.2475,4.0));
#556=VERTEX_POINT('',#555);
#557=CARTESIAN_POINT('',(-1.0225,0.2475,4.0));
#558=DIRECTION('',(0.0,-1.0,0.0));
#559=VECTOR('',#558,0.495);
#560=LINE('',#557,#559);
#561=EDGE_CURVE('',#554,#556,#560,.T.);
#562=ORIENTED_EDGE('',*,*,#561,.T.);
#563=CARTESIAN_POINT('',(-1.0225,-0.2475,1.897482143312659));
#564=VERTEX_POINT('',#563);
#565=CARTESIAN_POINT('',(-1.0225,-0.2475,1.897482143312659));
#566=DIRECTION('',(0.0,0.0,1.0));
#567=VECTOR('',#566,2.102517856687341);
#568=LINE('',#565,#567);
#569=EDGE_CURVE('',#564,#556,#568,.T.);
#570=ORIENTED_EDGE('',*,*,#569,.F.);
#571=CARTESIAN_POINT('',(-1.0225,0.2475,1.897482143312659));
#572=VERTEX_POINT('',#571);
#573=CARTESIAN_POINT('',(-1.0225,0.2475,1.897482143312659));
#574=DIRECTION('',(0.0,-1.0,0.0));
#575=VECTOR('',#574,0.495);
#576=LINE('',#573,#575);
#577=EDGE_CURVE('',#572,#564,#576,.T.);
#578=ORIENTED_EDGE('',*,*,#577,.F.);
#579=CARTESIAN_POINT('',(-1.0225,0.2475,1.897482143312659));
#580=DIRECTION('',(0.0,0.0,1.0));
#581=VECTOR('',#580,2.102517856687341);
#582=LINE('',#579,#581);
#583=EDGE_CURVE('',#572,#554,#582,.T.);
#584=ORIENTED_EDGE('',*,*,#583,.T.);
#585=EDGE_LOOP('',(#562,#570,#578,#584));
#586=FACE_OUTER_BOUND('',#585,.T.);
#587=ADVANCED_FACE('',(#586),#552,.T.);
#588=CARTESIAN_POINT('',(-2.787499999999999,-0.2475,0.832517856687339));
#589=DIRECTION('',(-0.707106781186548,0.0,0.707106781186547));
#590=DIRECTION('',(0.707106781186547,0.0,0.707106781186548));
#591=AXIS2_PLACEMENT_3D('',#588,#589,#590);
#592=PLANE('',#591);
#593=ORIENTED_EDGE('',*,*,#537,.T.);
#594=CARTESIAN_POINT('',(-2.7875,0.2475,0.832517856687339));
#595=VERTEX_POINT('',#594);
#596=CARTESIAN_POINT('',(-2.7875,0.2475,0.832517856687339));
#597=DIRECTION('',(0.707106781186547,0.0,0.707106781186548));
#598=VECTOR('',#597,1.796051224213832);
#599=LINE('',#596,#598);
#600=EDGE_CURVE('',#595,#524,#599,.T.);
#601=ORIENTED_EDGE('',*,*,#600,.F.);
#602=CARTESIAN_POINT('',(-2.7875,-0.2475,0.832517856687339));
#603=VERTEX_POINT('',#602);
#604=CARTESIAN_POINT('',(-2.7875,-0.2475,0.832517856687339));
#605=DIRECTION('',(0.0,1.0,0.0));
#606=VECTOR('',#605,0.495);
#607=LINE('',#604,#606);
#608=EDGE_CURVE('',#603,#595,#607,.T.);
#609=ORIENTED_EDGE('',*,*,#608,.F.);
#610=CARTESIAN_POINT('',(-2.7875,-0.2475,0.832517856687339));
#611=DIRECTION('',(0.707106781186547,0.0,0.707106781186548));
#612=VECTOR('',#611,1.796051224213832);
#613=LINE('',#610,#612);
#614=EDGE_CURVE('',#603,#532,#613,.T.);
#615=ORIENTED_EDGE('',*,*,#614,.T.);
#616=EDGE_LOOP('',(#593,#601,#609,#615));
#617=FACE_OUTER_BOUND('',#616,.T.);
#618=ADVANCED_FACE('',(#617),#592,.T.);
#619=CARTESIAN_POINT('',(-2.2925,0.2475,0.627482143312657));
#620=DIRECTION('',(0.707106781186548,0.0,-0.707106781186547));
#621=DIRECTION('',(-0.707106781186547,0.0,-0.707106781186548));
#622=AXIS2_PLACEMENT_3D('',#619,#620,#621);
#623=PLANE('',#622);
#624=ORIENTED_EDGE('',*,*,#577,.T.);
#625=CARTESIAN_POINT('',(-2.2925,-0.2475,0.627482143312657));
#626=VERTEX_POINT('',#625);
#627=CARTESIAN_POINT('',(-2.2925,-0.2475,0.627482143312657));
#628=DIRECTION('',(0.707106781186547,0.0,0.707106781186548));
#629=VECTOR('',#628,1.796051224213831);
#630=LINE('',#627,#629);
#631=EDGE_CURVE('',#626,#564,#630,.T.);
#632=ORIENTED_EDGE('',*,*,#631,.F.);
#633=CARTESIAN_POINT('',(-2.2925,0.2475,0.627482143312657));
#634=VERTEX_POINT('',#633);
#635=CARTESIAN_POINT('',(-2.2925,0.2475,0.627482143312657));
#636=DIRECTION('',(0.0,-1.0,0.0));
#637=VECTOR('',#636,0.495);
#638=LINE('',#635,#637);
#639=EDGE_CURVE('',#634,#626,#638,.T.);
#640=ORIENTED_EDGE('',*,*,#639,.F.);
#641=CARTESIAN_POINT('',(-2.2925,0.2475,0.627482143312657));
#642=DIRECTION('',(0.707106781186547,0.0,0.707106781186548));
#643=VECTOR('',#642,1.796051224213831);
#644=LINE('',#641,#643);
#645=EDGE_CURVE('',#634,#572,#644,.T.);
#646=ORIENTED_EDGE('',*,*,#645,.T.);
#647=EDGE_LOOP('',(#624,#632,#640,#646));
#648=FACE_OUTER_BOUND('',#647,.T.);
#649=ADVANCED_FACE('',(#648),#623,.T.);
#650=CARTESIAN_POINT('',(-2.2925,0.2475,-3.2));
#651=DIRECTION('',(1.0,0.0,0.0));
#652=DIRECTION('',(0.0,0.0,-1.0));
#653=AXIS2_PLACEMENT_3D('',#650,#651,#652);
#654=PLANE('',#653);
#655=ORIENTED_EDGE('',*,*,#639,.T.);
#656=CARTESIAN_POINT('',(-2.2925,-0.2475,-3.2));
#657=VERTEX_POINT('',#656);
#658=CARTESIAN_POINT('',(-2.2925,-0.2475,-3.2));
#659=DIRECTION('',(0.0,0.0,1.0));
#660=VECTOR('',#659,3.827482143312658);
#661=LINE('',#658,#660);
#662=EDGE_CURVE('',#657,#626,#661,.T.);
#663=ORIENTED_EDGE('',*,*,#662,.F.);
#664=CARTESIAN_POINT('',(-2.2925,0.2475,-3.2));
#665=VERTEX_POINT('',#664);
#666=CARTESIAN_POINT('',(-2.2925,0.2475,-3.2));
#667=DIRECTION('',(0.0,-1.0,0.0));
#668=VECTOR('',#667,0.495);
#669=LINE('',#666,#668);
#670=EDGE_CURVE('',#665,#657,#669,.T.);
#671=ORIENTED_EDGE('',*,*,#670,.F.);
#672=CARTESIAN_POINT('',(-2.2925,0.2475,-3.2));
#673=DIRECTION('',(0.0,0.0,1.0));
#674=VECTOR('',#673,3.827482143312658);
#675=LINE('',#672,#674);
#676=EDGE_CURVE('',#665,#634,#675,.T.);
#677=ORIENTED_EDGE('',*,*,#676,.T.);
#678=EDGE_LOOP('',(#655,#663,#671,#677));
#679=FACE_OUTER_BOUND('',#678,.T.);
#680=ADVANCED_FACE('',(#679),#654,.T.);
#681=CARTESIAN_POINT('',(-2.2925,-0.2475,-3.2));
#682=DIRECTION('',(0.0,-1.0,0.0));
#683=DIRECTION('',(0.0,0.0,-1.0));
#684=AXIS2_PLACEMENT_3D('',#681,#682,#683);
#685=PLANE('',#684);
#686=CARTESIAN_POINT('',(-2.7875,-0.2475,-3.2));
#687=VERTEX_POINT('',#686);
#688=CARTESIAN_POINT('',(-2.7875,-0.2475,-3.2));
#689=DIRECTION('',(0.0,0.0,1.0));
#690=VECTOR('',#689,4.032517856687339);
#691=LINE('',#688,#690);
#692=EDGE_CURVE('',#687,#603,#691,.T.);
#693=ORIENTED_EDGE('',*,*,#692,.F.);
#694=CARTESIAN_POINT('',(-2.2925,-0.2475,-3.2));
#695=DIRECTION('',(-1.0,0.0,0.0));
#696=VECTOR('',#695,0.495);
#697=LINE('',#694,#696);
#698=EDGE_CURVE('',#657,#687,#697,.T.);
#699=ORIENTED_EDGE('',*,*,#698,.F.);
#700=ORIENTED_EDGE('',*,*,#662,.T.);
#701=ORIENTED_EDGE('',*,*,#631,.T.);
#702=ORIENTED_EDGE('',*,*,#569,.T.);
#703=CARTESIAN_POINT('',(-1.0225,-0.2475,4.0));
#704=DIRECTION('',(-1.0,0.0,0.0));
#705=VECTOR('',#704,0.495);
#706=LINE('',#703,#705);
#707=EDGE_CURVE('',#556,#514,#706,.T.);
#708=ORIENTED_EDGE('',*,*,#707,.T.);
#709=ORIENTED_EDGE('',*,*,#543,.F.);
#710=ORIENTED_EDGE('',*,*,#614,.F.);
#711=EDGE_LOOP('',(#693,#699,#700,#701,#702,#708,#709,#710));
#712=FACE_OUTER_BOUND('',#711,.T.);
#713=ADVANCED_FACE('',(#712),#685,.T.);
#714=CARTESIAN_POINT('',(-2.7875,-0.2475,-3.2));
#715=DIRECTION('',(-1.0,0.0,0.0));
#716=DIRECTION('',(0.0,0.0,1.0));
#717=AXIS2_PLACEMENT_3D('',#714,#715,#716);
#718=PLANE('',#717);
#719=ORIENTED_EDGE('',*,*,#608,.T.);
#720=CARTESIAN_POINT('',(-2.7875,0.2475,-3.2));
#721=VERTEX_POINT('',#720);
#722=CARTESIAN_POINT('',(-2.7875,0.2475,-3.2));
#723=DIRECTION('',(0.0,0.0,1.0));
#724=VECTOR('',#723,4.032517856687339);
#725=LINE('',#722,#724);
#726=EDGE_CURVE('',#721,#595,#725,.T.);
#727=ORIENTED_EDGE('',*,*,#726,.F.);
#728=CARTESIAN_POINT('',(-2.7875,-0.2475,-3.2));
#729=DIRECTION('',(0.0,1.0,0.0));
#730=VECTOR('',#729,0.495);
#731=LINE('',#728,#730);
#732=EDGE_CURVE('',#687,#721,#731,.T.);
#733=ORIENTED_EDGE('',*,*,#732,.F.);
#734=ORIENTED_EDGE('',*,*,#692,.T.);
#735=EDGE_LOOP('',(#719,#727,#733,#734));
#736=FACE_OUTER_BOUND('',#735,.T.);
#737=ADVANCED_FACE('',(#736),#718,.T.);
#738=CARTESIAN_POINT('',(-2.7875,0.2475,-3.2));
#739=DIRECTION('',(0.0,1.0,0.0));
#740=DIRECTION('',(0.0,0.0,1.0));
#741=AXIS2_PLACEMENT_3D('',#738,#739,#740);
#742=PLANE('',#741);
#743=ORIENTED_EDGE('',*,*,#676,.F.);
#744=CARTESIAN_POINT('',(-2.7875,0.2475,-3.2));
#745=DIRECTION('',(1.0,0.0,0.0));
#746=VECTOR('',#745,0.495);
#747=LINE('',#744,#746);
#748=EDGE_CURVE('',#721,#665,#747,.T.);
#749=ORIENTED_EDGE('',*,*,#748,.F.);
#750=ORIENTED_EDGE('',*,*,#726,.T.);
#751=ORIENTED_EDGE('',*,*,#600,.T.);
#752=ORIENTED_EDGE('',*,*,#529,.T.);
#753=CARTESIAN_POINT('',(-1.5175,0.2475,4.0));
#754=DIRECTION('',(1.0,0.0,0.0));
#755=VECTOR('',#754,0.495);
#756=LINE('',#753,#755);
#757=EDGE_CURVE('',#516,#554,#756,.T.);
#758=ORIENTED_EDGE('',*,*,#757,.T.);
#759=ORIENTED_EDGE('',*,*,#583,.F.);
#760=ORIENTED_EDGE('',*,*,#645,.F.);
#761=EDGE_LOOP('',(#743,#749,#750,#751,#752,#758,#759,#760));
#762=FACE_OUTER_BOUND('',#761,.T.);
#763=ADVANCED_FACE('',(#762),#742,.T.);
#764=CARTESIAN_POINT('',(-1.27,0.0,4.0));
#765=DIRECTION('',(0.0,0.0,1.0));
#766=DIRECTION('',(1.0,0.0,0.0));
#767=AXIS2_PLACEMENT_3D('',#764,#765,#766);
#768=PLANE('',#767);
#769=ORIENTED_EDGE('',*,*,#521,.F.);
#770=ORIENTED_EDGE('',*,*,#707,.F.);
#771=ORIENTED_EDGE('',*,*,#561,.F.);
#772=ORIENTED_EDGE('',*,*,#757,.F.);
#773=EDGE_LOOP('',(#769,#770,#771,#772));
#774=FACE_OUTER_BOUND('',#773,.T.);
#775=ADVANCED_FACE('',(#774),#768,.T.);
#776=CARTESIAN_POINT('',(-2.54,-2.523234E-017,-3.199999999999999));
#777=DIRECTION('',(0.0,0.0,1.0));
#778=DIRECTION('',(1.0,0.0,0.0));
#779=AXIS2_PLACEMENT_3D('',#776,#777,#778);
#780=PLANE('',#779);
#781=ORIENTED_EDGE('',*,*,#748,.T.);
#782=ORIENTED_EDGE('',*,*,#670,.T.);
#783=ORIENTED_EDGE('',*,*,#698,.T.);
#784=ORIENTED_EDGE('',*,*,#732,.T.);
#785=EDGE_LOOP('',(#781,#782,#783,#784));
#786=FACE_OUTER_BOUND('',#785,.T.);
#787=ADVANCED_FACE('',(#786),#780,.F.);
#788=CLOSED_SHELL('',(#547,#587,#618,#649,#680,#713,#737,#763,#775,#787));
#789=MANIFOLD_SOLID_BREP('2BD8',#788);
#790=STYLED_ITEM('NONE',(#353),#789);
#791=CARTESIAN_POINT('',(1.385,-0.205000000000004,4.0));
#792=DIRECTION('',(0.0,0.0,1.0));
#793=DIRECTION('',(0.707106781186548,-0.707106781186548,0.0));
#794=AXIS2_PLACEMENT_3D('',#791,#792,#793);
#795=CYLINDRICAL_SURFACE('',#794,1.0);
#796=CARTESIAN_POINT('',(2.385,-0.205000000000004,8.01));
#797=VERTEX_POINT('',#796);
#798=CARTESIAN_POINT('',(1.385,-1.205000000000004,8.01));
#799=VERTEX_POINT('',#798);
#800=CARTESIAN_POINT('',(1.385,-0.205000000000004,8.01));
#801=DIRECTION('',(0.0,0.0,-1.0));
#802=DIRECTION('',(0.707106781186548,-0.707106781186548,0.0));
#803=AXIS2_PLACEMENT_3D('',#800,#801,#802);
#804=CIRCLE('',#803,1.0);
#805=EDGE_CURVE('',#797,#799,#804,.T.);
#806=ORIENTED_EDGE('',*,*,#805,.T.);
#807=CARTESIAN_POINT('',(1.385,-1.205000000000004,4.0));
#808=VERTEX_POINT('',#807);
#809=CARTESIAN_POINT('',(1.385,-1.205000000000004,8.01));
#810=DIRECTION('',(0.0,0.0,-1.0));
#811=VECTOR('',#810,4.01);
#812=LINE('',#809,#811);
#813=EDGE_CURVE('',#799,#808,#812,.T.);
#814=ORIENTED_EDGE('',*,*,#813,.T.);
#815=CARTESIAN_POINT('',(2.385,-0.205000000000004,4.0));
#816=VERTEX_POINT('',#815);
#817=CARTESIAN_POINT('',(1.385,-0.205000000000004,4.0));
#818=DIRECTION('',(0.0,0.0,1.0));
#819=DIRECTION('',(0.707106781186548,-0.707106781186548,0.0));
#820=AXIS2_PLACEMENT_3D('',#817,#818,#819);
#821=CIRCLE('',#820,1.0);
#822=EDGE_CURVE('',#808,#816,#821,.T.);
#823=ORIENTED_EDGE('',*,*,#822,.T.);
#824=CARTESIAN_POINT('',(2.385,-0.205000000000004,4.0));
#825=DIRECTION('',(0.0,0.0,1.0));
#826=VECTOR('',#825,4.01);
#827=LINE('',#824,#826);
#828=EDGE_CURVE('',#816,#797,#827,.T.);
#829=ORIENTED_EDGE('',*,*,#828,.T.);
#830=EDGE_LOOP('',(#806,#814,#823,#829));
#831=FACE_OUTER_BOUND('',#830,.T.);
#832=ADVANCED_FACE('',(#831),#795,.T.);
#833=CARTESIAN_POINT('',(2.385,-1.205000000000004,4.0));
#834=DIRECTION('',(0.0,-1.0,0.0));
#835=DIRECTION('',(0.0,0.0,-1.0));
#836=AXIS2_PLACEMENT_3D('',#833,#834,#835);
#837=PLANE('',#836);
#838=ORIENTED_EDGE('',*,*,#813,.F.);
#839=CARTESIAN_POINT('',(-1.385,-1.205000000000004,8.01));
#840=VERTEX_POINT('',#839);
#841=CARTESIAN_POINT('',(1.385,-1.205000000000004,8.01));
#842=DIRECTION('',(-1.0,0.0,0.0));
#843=VECTOR('',#842,2.77);
#844=LINE('',#841,#843);
#845=EDGE_CURVE('',#799,#840,#844,.T.);
#846=ORIENTED_EDGE('',*,*,#845,.T.);
#847=CARTESIAN_POINT('',(-1.385,-1.205000000000004,4.0));
#848=VERTEX_POINT('',#847);
#849=CARTESIAN_POINT('',(-1.385,-1.205000000000004,4.0));
#850=DIRECTION('',(0.0,0.0,1.0));
#851=VECTOR('',#850,4.01);
#852=LINE('',#849,#851);
#853=EDGE_CURVE('',#848,#840,#852,.T.);
#854=ORIENTED_EDGE('',*,*,#853,.F.);
#855=CARTESIAN_POINT('',(-1.385,-1.205000000000004,4.0));
#856=DIRECTION('',(1.0,0.0,0.0));
#857=VECTOR('',#856,2.77);
#858=LINE('',#855,#857);
#859=EDGE_CURVE('',#848,#808,#858,.T.);
#860=ORIENTED_EDGE('',*,*,#859,.T.);
#861=EDGE_LOOP('',(#838,#846,#854,#860));
#862=FACE_OUTER_BOUND('',#861,.T.);
#863=ADVANCED_FACE('',(#862),#837,.T.);
#864=CARTESIAN_POINT('',(-2.220446E-016,-4.170439E-015,8.01));
#865=DIRECTION('',(0.0,0.0,1.0));
#866=DIRECTION('',(1.0,0.0,0.0));
#867=AXIS2_PLACEMENT_3D('',#864,#865,#866);
#868=PLANE('',#867);
#869=ORIENTED_EDGE('',*,*,#805,.F.);
#870=CARTESIAN_POINT('',(2.385,1.204999999999996,8.01));
#871=VERTEX_POINT('',#870);
#872=CARTESIAN_POINT('',(2.385,1.204999999999996,8.01));
#873=DIRECTION('',(0.0,-1.0,0.0));
#874=VECTOR('',#873,1.41);
#875=LINE('',#872,#874);
#876=EDGE_CURVE('',#871,#797,#875,.T.);
#877=ORIENTED_EDGE('',*,*,#876,.F.);
#878=CARTESIAN_POINT('',(-2.385,1.204999999999996,8.01));
#879=VERTEX_POINT('',#878);
#880=CARTESIAN_POINT('',(-2.385,1.204999999999996,8.01));
#881=DIRECTION('',(1.0,0.0,0.0));
#882=VECTOR('',#881,4.77);
#883=LINE('',#880,#882);
#884=EDGE_CURVE('',#879,#871,#883,.T.);
#885=ORIENTED_EDGE('',*,*,#884,.F.);
#886=CARTESIAN_POINT('',(-2.385,-0.205000000000004,8.01));
#887=VERTEX_POINT('',#886);
#888=CARTESIAN_POINT('',(-2.385,-0.205000000000004,8.01));
#889=DIRECTION('',(0.0,1.0,0.0));
#890=VECTOR('',#889,1.41);
#891=LINE('',#888,#890);
#892=EDGE_CURVE('',#887,#879,#891,.T.);
#893=ORIENTED_EDGE('',*,*,#892,.F.);
#894=CARTESIAN_POINT('',(-1.385,-0.205000000000004,8.01));
#895=DIRECTION('',(0.0,0.0,-1.0));
#896=DIRECTION('',(-0.707106781186548,-0.707106781186548,0.0));
#897=AXIS2_PLACEMENT_3D('',#894,#895,#896);
#898=CIRCLE('',#897,1.0);
#899=EDGE_CURVE('',#840,#887,#898,.T.);
#900=ORIENTED_EDGE('',*,*,#899,.F.);
#901=ORIENTED_EDGE('',*,*,#845,.F.);
#902=EDGE_LOOP('',(#869,#877,#885,#893,#900,#901));
#903=FACE_OUTER_BOUND('',#902,.T.);
#904=ADVANCED_FACE('',(#903),#868,.T.);
#905=CARTESIAN_POINT('',(-1.385,-0.205000000000004,4.0));
#906=DIRECTION('',(0.0,0.0,1.0));
#907=DIRECTION('',(-0.707106781186548,-0.707106781186548,0.0));
#908=AXIS2_PLACEMENT_3D('',#905,#906,#907);
#909=CYLINDRICAL_SURFACE('',#908,1.0);
#910=ORIENTED_EDGE('',*,*,#899,.T.);
#911=CARTESIAN_POINT('',(-2.385,-0.205000000000004,4.0));
#912=VERTEX_POINT('',#911);
#913=CARTESIAN_POINT('',(-2.385,-0.205000000000004,8.01));
#914=DIRECTION('',(0.0,0.0,-1.0));
#915=VECTOR('',#914,4.01);
#916=LINE('',#913,#915);
#917=EDGE_CURVE('',#887,#912,#916,.T.);
#918=ORIENTED_EDGE('',*,*,#917,.T.);
#919=CARTESIAN_POINT('',(-1.385,-0.205000000000004,4.0));
#920=DIRECTION('',(0.0,0.0,1.0));
#921=DIRECTION('',(-0.707106781186548,-0.707106781186548,0.0));
#922=AXIS2_PLACEMENT_3D('',#919,#920,#921);
#923=CIRCLE('',#922,1.0);
#924=EDGE_CURVE('',#912,#848,#923,.T.);
#925=ORIENTED_EDGE('',*,*,#924,.T.);
#926=ORIENTED_EDGE('',*,*,#853,.T.);
#927=EDGE_LOOP('',(#910,#918,#925,#926));
#928=FACE_OUTER_BOUND('',#927,.T.);
#929=ADVANCED_FACE('',(#928),#909,.T.);
#930=CARTESIAN_POINT('',(-2.385,-1.205000000000004,4.0));
#931=DIRECTION('',(-1.0,0.0,0.0));
#932=DIRECTION('',(0.0,0.0,1.0));
#933=AXIS2_PLACEMENT_3D('',#930,#931,#932);
#934=PLANE('',#933);
#935=ORIENTED_EDGE('',*,*,#917,.F.);
#936=ORIENTED_EDGE('',*,*,#892,.T.);
#937=CARTESIAN_POINT('',(-2.385,1.204999999999996,4.0));
#938=VERTEX_POINT('',#937);
#939=CARTESIAN_POINT('',(-2.385,1.204999999999996,4.0));
#940=DIRECTION('',(0.0,0.0,1.0));
#941=VECTOR('',#940,4.01);
#942=LINE('',#939,#941);
#943=EDGE_CURVE('',#938,#879,#942,.T.);
#944=ORIENTED_EDGE('',*,*,#943,.F.);
#945=CARTESIAN_POINT('',(-2.385,1.204999999999996,4.0));
#946=DIRECTION('',(0.0,-1.0,0.0));
#947=VECTOR('',#946,1.41);
#948=LINE('',#945,#947);
#949=EDGE_CURVE('',#938,#912,#948,.T.);
#950=ORIENTED_EDGE('',*,*,#949,.T.);
#951=EDGE_LOOP('',(#935,#936,#944,#950));
#952=FACE_OUTER_BOUND('',#951,.T.);
#953=ADVANCED_FACE('',(#952),#934,.T.);
#954=CARTESIAN_POINT('',(-2.385,1.204999999999996,4.0));
#955=DIRECTION('',(0.0,1.0,0.0));
#956=DIRECTION('',(0.0,0.0,1.0));
#957=AXIS2_PLACEMENT_3D('',#954,#955,#956);
#958=PLANE('',#957);
#959=ORIENTED_EDGE('',*,*,#884,.T.);
#960=CARTESIAN_POINT('',(2.385,1.204999999999996,4.0));
#961=VERTEX_POINT('',#960);
#962=CARTESIAN_POINT('',(2.385,1.204999999999996,4.0));
#963=DIRECTION('',(0.0,0.0,1.0));
#964=VECTOR('',#963,4.01);
#965=LINE('',#962,#964);
#966=EDGE_CURVE('',#961,#871,#965,.T.);
#967=ORIENTED_EDGE('',*,*,#966,.F.);
#968=CARTESIAN_POINT('',(2.385,1.204999999999996,4.0));
#969=DIRECTION('',(-1.0,0.0,0.0));
#970=VECTOR('',#969,4.77);
#971=LINE('',#968,#970);
#972=EDGE_CURVE('',#961,#938,#971,.T.);
#973=ORIENTED_EDGE('',*,*,#972,.T.);
#974=ORIENTED_EDGE('',*,*,#943,.T.);
#975=EDGE_LOOP('',(#959,#967,#973,#974));
#976=FACE_OUTER_BOUND('',#975,.T.);
#977=ADVANCED_FACE('',(#976),#958,.T.);
#978=CARTESIAN_POINT('',(2.385,1.204999999999996,4.0));
#979=DIRECTION('',(1.0,0.0,0.0));
#980=DIRECTION('',(0.0,0.0,-1.0));
#981=AXIS2_PLACEMENT_3D('',#978,#979,#980);
#982=PLANE('',#981);
#983=ORIENTED_EDGE('',*,*,#828,.F.);
#984=CARTESIAN_POINT('',(2.385,-0.205000000000004,4.0));
#985=DIRECTION('',(0.0,1.0,0.0));
#986=VECTOR('',#985,1.41);
#987=LINE('',#984,#986);
#988=EDGE_CURVE('',#816,#961,#987,.T.);
#989=ORIENTED_EDGE('',*,*,#988,.T.);
#990=ORIENTED_EDGE('',*,*,#966,.T.);
#991=ORIENTED_EDGE('',*,*,#876,.T.);
#992=EDGE_LOOP('',(#983,#989,#990,#991));
#993=FACE_OUTER_BOUND('',#992,.T.);
#994=ADVANCED_FACE('',(#993),#982,.T.);
#995=CARTESIAN_POINT('',(-2.220446E-016,-4.183990E-015,4.0));
#996=DIRECTION('',(0.0,0.0,1.0));
#997=DIRECTION('',(1.0,0.0,0.0));
#998=AXIS2_PLACEMENT_3D('',#995,#996,#997);
#999=PLANE('',#998);
#1000=ORIENTED_EDGE('',*,*,#822,.F.);
#1001=ORIENTED_EDGE('',*,*,#859,.F.);
#1002=ORIENTED_EDGE('',*,*,#924,.F.);
#1003=ORIENTED_EDGE('',*,*,#949,.F.);
#1004=ORIENTED_EDGE('',*,*,#972,.F.);
#1005=ORIENTED_EDGE('',*,*,#988,.F.);
#1006=EDGE_LOOP('',(#1000,#1001,#1002,#1003,#1004,#1005));
#1007=FACE_OUTER_BOUND('',#1006,.T.);
#1008=ADVANCED_FACE('',(#1007),#999,.F.);
#1009=CLOSED_SHELL('',(#832,#863,#904,#929,#953,#977,#994,#1008));
#1010=MANIFOLD_SOLID_BREP('2BBF',#1009);
#1011=COLOUR_RGB('250',0.33,0.33,0.33);
#1012=SURFACE_STYLE_USAGE(.BOTH.,#1013);
#1013=SURFACE_SIDE_STYLE('NONE',(#1014));
#1014=SURFACE_STYLE_FILL_AREA(#1015);
#1015=FILL_AREA_STYLE('NONE',(#1016));
#1016=FILL_AREA_STYLE_COLOUR('NONE',#1011);
#1017=PRESENTATION_STYLE_ASSIGNMENT((#1012));
#1018=STYLED_ITEM('NONE',(#1017),#1010);
#1019=ADVANCED_BREP_SHAPE_REPRESENTATION('ABSR1',(#346,#506,#789,#1010),#28);
#1020=SHAPE_REPRESENTATION_RELATIONSHIP('SRRPL1','',#1019,#62);
ENDSEC;
END-ISO-10303-21;
