ISO-10303-21;
HEADER;
/****************************************************************
 * Generated by software with PDElib inside                    *
 * PDElib Version v51a, created Wed 11/30/2011                  *
 * ITI Transcendata (http://www.transcendata.com/)              *
 ****************************************************************/
FILE_DESCRIPTION((''),'2;1');
FILE_NAME('JST_B4B-ZR(LF)(SN).stp','2014-08-26T16:32:53',(''),(''),'Mechanical Desktop 2011','Mechanical Desktop 2011',', , ');
FILE_SCHEMA(('AUTOMOTIVE_DESIGN { 1 2 10303 214 1 1 1 1 }'));
ENDSEC;
DATA;
#10=(NAMED_UNIT(*)PLANE_ANGLE_UNIT()SI_UNIT($,.RADIAN.));
#11=DIMENSIONAL_EXPONENTS(0.0,0.0,0.0,0.0,0.0,0.0,0.0);
#12=PLANE_ANGLE_MEASURE_WITH_UNIT(PLANE_ANGLE_MEASURE(0.0174532925),#10);
#16=(CONVERSION_BASED_UNIT('DEGREE',#12)NAMED_UNIT(#11)PLANE_ANGLE_UNIT());
#20=(NAMED_UNIT(*)SI_UNIT($,.STERADIAN.)SOLID_ANGLE_UNIT());
#24=(LENGTH_UNIT()NAMED_UNIT(*)SI_UNIT(.MILLI.,.METRE.));
#26=UNCERTAINTY_MEASURE_WITH_UNIT(LENGTH_MEASURE(0.000001),#24,'DISTANCE_ACCURACY_VALUE','');
#28=(GEOMETRIC_REPRESENTATION_CONTEXT(3)GLOBAL_UNCERTAINTY_ASSIGNED_CONTEXT((#26))GLOBAL_UNIT_ASSIGNED_CONTEXT((#16,#20,#24))REPRESENTATION_CONTEXT('','3D'));
#29=APPLICATION_CONTEXT('automotive design');
#30=APPLICATION_PROTOCOL_DEFINITION('INTERNATIONAL_STANDARD','automotive_design',1998,#29);
#31=PRODUCT_CONTEXT('3D Mechanical Parts',#29,'mechanical');
#32=PRODUCT('Product','Product','',(#31));
#33=PRODUCT_RELATED_PRODUCT_CATEGORY('part',$,(#32));
#34=PRODUCT_CATEGORY('part',$);
#35=PERSON('1','Design','Joe',$,$,$);
#36=ORGANIZATION($,'None','None');
#37=PERSON_AND_ORGANIZATION(#35,#36);
#38=PERSON_AND_ORGANIZATION_ROLE('design_owner');
#39=APPLIED_PERSON_AND_ORGANIZATION_ASSIGNMENT(#37,#38,(#32));
#40=PRODUCT_DEFINITION_FORMATION_WITH_SPECIFIED_SOURCE('None','',#32,.BOUGHT.);
#41=PERSON('2','Creator','Joe',$,$,$);
#42=ORGANIZATION($,'None','None');
#43=PERSON_AND_ORGANIZATION(#41,#42);
#44=PERSON_AND_ORGANIZATION_ROLE('creator');
#45=APPLIED_PERSON_AND_ORGANIZATION_ASSIGNMENT(#43,#44,(#40));
#46=PERSON('3','Supplier','Joe',$,$,$);
#47=ORGANIZATION($,'None','None');
#48=PERSON_AND_ORGANIZATION(#46,#47);
#49=PERSON_AND_ORGANIZATION_ROLE('design_supplier');
#50=APPLIED_PERSON_AND_ORGANIZATION_ASSIGNMENT(#48,#49,(#40));
#51=PRODUCT_DEFINITION_CONTEXT('part definition',#29,'design');
#52=PRODUCT_DEFINITION('None','',#40,#51);
#53=PERSON('4','Creator','Joe',$,$,$);
#54=ORGANIZATION($,'None','None');
#55=PERSON_AND_ORGANIZATION(#53,#54);
#56=PERSON_AND_ORGANIZATION_ROLE('creator');
#57=APPLIED_PERSON_AND_ORGANIZATION_ASSIGNMENT(#55,#56,(#52));
#58=CARTESIAN_POINT('NONE',(0.0,0.0,0.0));
#59=DIRECTION('NONE',(0.0,0.0,1.0));
#60=DIRECTION('NONE',(1.0,0.0,0.0));
#61=AXIS2_PLACEMENT_3D('NONE',#58,#59,#60);
#62=SHAPE_REPRESENTATION('SR1',(#61),#28);
#63=PRODUCT_DEFINITION_SHAPE('PDS1','Test Part',#52);
#64=SHAPE_DEFINITION_REPRESENTATION(#63,#62);
#65=CARTESIAN_POINT('',(-4.125000000000001,2.375000000000002,2.882541E-016));
#66=DIRECTION('',(0.0,0.0,1.0));
#67=DIRECTION('',(0.0,-1.0,0.0));
#68=AXIS2_PLACEMENT_3D('',#65,#66,#67);
#69=PLANE('',#68);
#70=CARTESIAN_POINT('',(-3.75,-1.300000000000001,5.132829E-016));
#71=VERTEX_POINT('',#70);
#72=CARTESIAN_POINT('',(-3.750000000000001,2.200000000000002,2.989697E-016));
#73=VERTEX_POINT('',#72);
#74=CARTESIAN_POINT('',(-3.75,-1.300000000000001,5.132829E-016));
#75=DIRECTION('',(0.0,1.0,0.0));
#76=VECTOR('',#75,3.500000000000003);
#77=LINE('',#74,#76);
#78=EDGE_CURVE('',#71,#73,#77,.T.);
#79=ORIENTED_EDGE('',*,*,#78,.T.);
#80=CARTESIAN_POINT('',(3.749999999999999,2.200000000000004,2.989697E-016));
#81=VERTEX_POINT('',#80);
#82=CARTESIAN_POINT('',(3.749999999999999,2.200000000000004,2.989697E-016));
#83=DIRECTION('',(-1.0,0.0,0.0));
#84=VECTOR('',#83,7.5);
#85=LINE('',#82,#84);
#86=EDGE_CURVE('',#81,#73,#85,.T.);
#87=ORIENTED_EDGE('',*,*,#86,.F.);
#88=CARTESIAN_POINT('',(3.75,-1.299999999999999,5.132829E-016));
#89=VERTEX_POINT('',#88);
#90=CARTESIAN_POINT('',(3.75,-1.299999999999999,5.132829E-016));
#91=DIRECTION('',(0.0,1.0,0.0));
#92=VECTOR('',#91,3.500000000000003);
#93=LINE('',#90,#92);
#94=EDGE_CURVE('',#89,#81,#93,.T.);
#95=ORIENTED_EDGE('',*,*,#94,.F.);
#96=CARTESIAN_POINT('',(3.75,-1.299999999999999,5.132829E-016));
#97=DIRECTION('',(-1.0,0.0,0.0));
#98=VECTOR('',#97,7.5);
#99=LINE('',#96,#98);
#100=EDGE_CURVE('',#89,#71,#99,.T.);
#101=ORIENTED_EDGE('',*,*,#100,.T.);
#102=EDGE_LOOP('',(#79,#87,#95,#101));
#103=FACE_OUTER_BOUND('',#102,.T.);
#104=ADVANCED_FACE('',(#103),#69,.F.);
#105=CARTESIAN_POINT('',(3.749999999999999,2.375000000000004,-0.224999999999999));
#106=DIRECTION('',(-1.0,0.0,0.0));
#107=DIRECTION('',(0.0,-1.0,0.0));
#108=AXIS2_PLACEMENT_3D('',#105,#106,#107);
#109=PLANE('',#108);
#110=CARTESIAN_POINT('',(3.75,-0.349999999999999,2.699999999999998));
#111=VERTEX_POINT('',#110);
#112=CARTESIAN_POINT('',(3.75,0.450000000000002,2.699999999999998));
#113=VERTEX_POINT('',#112);
#114=CARTESIAN_POINT('',(3.75,-0.349999999999999,2.699999999999998));
#115=DIRECTION('',(0.0,1.0,0.0));
#116=VECTOR('',#115,0.800000000000001);
#117=LINE('',#114,#116);
#118=EDGE_CURVE('',#111,#113,#117,.T.);
#119=ORIENTED_EDGE('',*,*,#118,.F.);
#120=CARTESIAN_POINT('',(3.75,-0.349999999999999,4.499999999999998));
#121=VERTEX_POINT('',#120);
#122=CARTESIAN_POINT('',(3.75,-0.349999999999999,4.499999999999998));
#123=DIRECTION('',(0.0,0.0,-1.0));
#124=VECTOR('',#123,1.8);
#125=LINE('',#122,#124);
#126=EDGE_CURVE('',#121,#111,#125,.T.);
#127=ORIENTED_EDGE('',*,*,#126,.F.);
#128=CARTESIAN_POINT('',(3.75,-1.299999999999999,4.499999999999998));
#129=VERTEX_POINT('',#128);
#130=CARTESIAN_POINT('',(3.75,-0.349999999999999,4.499999999999998));
#131=DIRECTION('',(0.0,-1.0,0.0));
#132=VECTOR('',#131,0.95);
#133=LINE('',#130,#132);
#134=EDGE_CURVE('',#121,#129,#133,.T.);
#135=ORIENTED_EDGE('',*,*,#134,.T.);
#136=CARTESIAN_POINT('',(3.75,-1.299999999999999,4.499999999999998));
#137=DIRECTION('',(0.0,0.0,-1.0));
#138=VECTOR('',#137,4.499999999999997);
#139=LINE('',#136,#138);
#140=EDGE_CURVE('',#129,#89,#139,.T.);
#141=ORIENTED_EDGE('',*,*,#140,.T.);
#142=ORIENTED_EDGE('',*,*,#94,.T.);
#143=CARTESIAN_POINT('',(3.749999999999999,2.200000000000001,4.499999999999998));
#144=VERTEX_POINT('',#143);
#145=CARTESIAN_POINT('',(3.749999999999999,2.200000000000004,2.989697E-016));
#146=DIRECTION('',(0.0,0.0,1.0));
#147=VECTOR('',#146,4.499999999999997);
#148=LINE('',#145,#147);
#149=EDGE_CURVE('',#81,#144,#148,.T.);
#150=ORIENTED_EDGE('',*,*,#149,.T.);
#151=CARTESIAN_POINT('',(3.75,0.450000000000001,4.499999999999998));
#152=VERTEX_POINT('',#151);
#153=CARTESIAN_POINT('',(3.749999999999999,2.200000000000001,4.499999999999998));
#154=DIRECTION('',(0.0,-1.0,0.0));
#155=VECTOR('',#154,1.75);
#156=LINE('',#153,#155);
#157=EDGE_CURVE('',#144,#152,#156,.T.);
#158=ORIENTED_EDGE('',*,*,#157,.T.);
#159=CARTESIAN_POINT('',(3.75,0.450000000000001,2.699999999999998));
#160=DIRECTION('',(0.0,0.0,1.0));
#161=VECTOR('',#160,1.800000000000001);
#162=LINE('',#159,#161);
#163=EDGE_CURVE('',#113,#152,#162,.T.);
#164=ORIENTED_EDGE('',*,*,#163,.F.);
#165=EDGE_LOOP('',(#119,#127,#135,#141,#142,#150,#158,#164));
#166=FACE_OUTER_BOUND('',#165,.T.);
#167=ADVANCED_FACE('',(#166),#109,.F.);
#168=CARTESIAN_POINT('',(4.125,-1.299999999999999,-0.224999999999999));
#169=DIRECTION('',(0.0,1.0,0.0));
#170=DIRECTION('',(-1.0,0.0,0.0));
#171=AXIS2_PLACEMENT_3D('',#168,#169,#170);
#172=PLANE('',#171);
#173=CARTESIAN_POINT('',(-3.75,-1.300000000000001,4.499999999999998));
#174=VERTEX_POINT('',#173);
#175=CARTESIAN_POINT('',(-3.75,-1.300000000000001,4.499999999999998));
#176=DIRECTION('',(0.0,0.0,-1.0));
#177=VECTOR('',#176,4.499999999999997);
#178=LINE('',#175,#177);
#179=EDGE_CURVE('',#174,#71,#178,.T.);
#180=ORIENTED_EDGE('',*,*,#179,.T.);
#181=ORIENTED_EDGE('',*,*,#100,.F.);
#182=ORIENTED_EDGE('',*,*,#140,.F.);
#183=CARTESIAN_POINT('',(3.75,-1.299999999999999,4.499999999999998));
#184=DIRECTION('',(-1.0,0.0,0.0));
#185=VECTOR('',#184,7.5);
#186=LINE('',#183,#185);
#187=EDGE_CURVE('',#129,#174,#186,.T.);
#188=ORIENTED_EDGE('',*,*,#187,.T.);
#189=EDGE_LOOP('',(#180,#181,#182,#188));
#190=FACE_OUTER_BOUND('',#189,.T.);
#191=CARTESIAN_POINT('',(-2.55,-1.300000000000001,1.699999999999998));
#192=VERTEX_POINT('',#191);
#193=CARTESIAN_POINT('',(-2.55,-1.300000000000001,2.699999999999998));
#194=VERTEX_POINT('',#193);
#195=CARTESIAN_POINT('',(-2.55,-1.300000000000001,1.699999999999998));
#196=DIRECTION('',(0.0,0.0,1.0));
#197=VECTOR('',#196,1.0);
#198=LINE('',#195,#197);
#199=EDGE_CURVE('',#192,#194,#198,.T.);
#200=ORIENTED_EDGE('',*,*,#199,.F.);
#201=CARTESIAN_POINT('',(-3.25,-1.300000000000001,1.699999999999998));
#202=VERTEX_POINT('',#201);
#203=CARTESIAN_POINT('',(-3.25,-1.300000000000001,1.699999999999998));
#204=DIRECTION('',(1.0,0.0,0.0));
#205=VECTOR('',#204,0.7);
#206=LINE('',#203,#205);
#207=EDGE_CURVE('',#202,#192,#206,.T.);
#208=ORIENTED_EDGE('',*,*,#207,.F.);
#209=CARTESIAN_POINT('',(-3.25,-1.300000000000001,2.699999999999998));
#210=VERTEX_POINT('',#209);
#211=CARTESIAN_POINT('',(-3.25,-1.300000000000001,2.699999999999998));
#212=DIRECTION('',(0.0,0.0,-1.0));
#213=VECTOR('',#212,1.0);
#214=LINE('',#211,#213);
#215=EDGE_CURVE('',#210,#202,#214,.T.);
#216=ORIENTED_EDGE('',*,*,#215,.F.);
#217=CARTESIAN_POINT('',(-2.55,-1.300000000000001,2.699999999999998));
#218=DIRECTION('',(-1.0,0.0,0.0));
#219=VECTOR('',#218,0.7);
#220=LINE('',#217,#219);
#221=EDGE_CURVE('',#194,#210,#220,.T.);
#222=ORIENTED_EDGE('',*,*,#221,.F.);
#223=EDGE_LOOP('',(#200,#208,#216,#222));
#224=FACE_BOUND('',#223,.T.);
#225=CARTESIAN_POINT('',(2.55,-1.299999999999999,2.699999999999998));
#226=VERTEX_POINT('',#225);
#227=CARTESIAN_POINT('',(2.55,-1.299999999999999,1.699999999999998));
#228=VERTEX_POINT('',#227);
#229=CARTESIAN_POINT('',(2.55,-1.299999999999999,2.699999999999998));
#230=DIRECTION('',(0.0,0.0,-1.0));
#231=VECTOR('',#230,1.0);
#232=LINE('',#229,#231);
#233=EDGE_CURVE('',#226,#228,#232,.T.);
#234=ORIENTED_EDGE('',*,*,#233,.F.);
#235=CARTESIAN_POINT('',(3.25,-1.299999999999999,2.699999999999998));
#236=VERTEX_POINT('',#235);
#237=CARTESIAN_POINT('',(3.25,-1.299999999999999,2.699999999999998));
#238=DIRECTION('',(-1.0,0.0,0.0));
#239=VECTOR('',#238,0.7);
#240=LINE('',#237,#239);
#241=EDGE_CURVE('',#236,#226,#240,.T.);
#242=ORIENTED_EDGE('',*,*,#241,.F.);
#243=CARTESIAN_POINT('',(3.25,-1.299999999999999,1.699999999999998));
#244=VERTEX_POINT('',#243);
#245=CARTESIAN_POINT('',(3.25,-1.299999999999999,1.699999999999998));
#246=DIRECTION('',(0.0,0.0,1.0));
#247=VECTOR('',#246,1.0);
#248=LINE('',#245,#247);
#249=EDGE_CURVE('',#244,#236,#248,.T.);
#250=ORIENTED_EDGE('',*,*,#249,.F.);
#251=CARTESIAN_POINT('',(2.55,-1.299999999999999,1.699999999999998));
#252=DIRECTION('',(1.0,0.0,0.0));
#253=VECTOR('',#252,0.7);
#254=LINE('',#251,#253);
#255=EDGE_CURVE('',#228,#244,#254,.T.);
#256=ORIENTED_EDGE('',*,*,#255,.F.);
#257=EDGE_LOOP('',(#234,#242,#250,#256));
#258=FACE_BOUND('',#257,.T.);
#259=ADVANCED_FACE('',(#190,#224,#258),#172,.F.);
#260=CARTESIAN_POINT('',(-4.125000000000001,2.200000000000002,4.724999999999998));
#261=DIRECTION('',(0.0,-1.0,0.0));
#262=DIRECTION('',(1.0,0.0,0.0));
#263=AXIS2_PLACEMENT_3D('',#260,#261,#262);
#264=PLANE('',#263);
#265=CARTESIAN_POINT('',(-3.750000000000001,2.199999999999999,4.499999999999998));
#266=VERTEX_POINT('',#265);
#267=CARTESIAN_POINT('',(-3.750000000000001,2.200000000000002,2.989697E-016));
#268=DIRECTION('',(0.0,0.0,1.0));
#269=VECTOR('',#268,4.499999999999997);
#270=LINE('',#267,#269);
#271=EDGE_CURVE('',#73,#266,#270,.T.);
#272=ORIENTED_EDGE('',*,*,#271,.T.);
#273=CARTESIAN_POINT('',(3.749999999999999,2.200000000000001,4.499999999999998));
#274=DIRECTION('',(-1.0,0.0,0.0));
#275=VECTOR('',#274,7.5);
#276=LINE('',#273,#275);
#277=EDGE_CURVE('',#144,#266,#276,.T.);
#278=ORIENTED_EDGE('',*,*,#277,.F.);
#279=ORIENTED_EDGE('',*,*,#149,.F.);
#280=ORIENTED_EDGE('',*,*,#86,.T.);
#281=EDGE_LOOP('',(#272,#278,#279,#280));
#282=FACE_OUTER_BOUND('',#281,.T.);
#283=ADVANCED_FACE('',(#282),#264,.F.);
#284=CARTESIAN_POINT('',(-3.750000000000001,2.375000000000002,-0.224999999999999));
#285=DIRECTION('',(-1.0,0.0,0.0));
#286=DIRECTION('',(0.0,-1.0,0.0));
#287=AXIS2_PLACEMENT_3D('',#284,#285,#286);
#288=PLANE('',#287);
#289=CARTESIAN_POINT('',(-3.75,-0.350000000000001,4.499999999999998));
#290=VERTEX_POINT('',#289);
#291=CARTESIAN_POINT('',(-3.75,-0.350000000000001,2.699999999999998));
#292=VERTEX_POINT('',#291);
#293=CARTESIAN_POINT('',(-3.75,-0.350000000000001,4.499999999999998));
#294=DIRECTION('',(0.0,0.0,-1.0));
#295=VECTOR('',#294,1.8);
#296=LINE('',#293,#295);
#297=EDGE_CURVE('',#290,#292,#296,.T.);
#298=ORIENTED_EDGE('',*,*,#297,.T.);
#299=CARTESIAN_POINT('',(-3.75,0.45,2.699999999999998));
#300=VERTEX_POINT('',#299);
#301=CARTESIAN_POINT('',(-3.75,-0.350000000000001,2.699999999999998));
#302=DIRECTION('',(0.0,1.0,0.0));
#303=VECTOR('',#302,0.800000000000001);
#304=LINE('',#301,#303);
#305=EDGE_CURVE('',#292,#300,#304,.T.);
#306=ORIENTED_EDGE('',*,*,#305,.T.);
#307=CARTESIAN_POINT('',(-3.75,0.449999999999999,4.499999999999998));
#308=VERTEX_POINT('',#307);
#309=CARTESIAN_POINT('',(-3.75,0.449999999999999,2.699999999999998));
#310=DIRECTION('',(0.0,0.0,1.0));
#311=VECTOR('',#310,1.800000000000001);
#312=LINE('',#309,#311);
#313=EDGE_CURVE('',#300,#308,#312,.T.);
#314=ORIENTED_EDGE('',*,*,#313,.T.);
#315=CARTESIAN_POINT('',(-3.750000000000001,2.199999999999999,4.499999999999998));
#316=DIRECTION('',(0.0,-1.0,0.0));
#317=VECTOR('',#316,1.75);
#318=LINE('',#315,#317);
#319=EDGE_CURVE('',#266,#308,#318,.T.);
#320=ORIENTED_EDGE('',*,*,#319,.F.);
#321=ORIENTED_EDGE('',*,*,#271,.F.);
#322=ORIENTED_EDGE('',*,*,#78,.F.);
#323=ORIENTED_EDGE('',*,*,#179,.F.);
#324=CARTESIAN_POINT('',(-3.75,-0.350000000000001,4.499999999999998));
#325=DIRECTION('',(0.0,-1.0,0.0));
#326=VECTOR('',#325,0.95);
#327=LINE('',#324,#326);
#328=EDGE_CURVE('',#290,#174,#327,.T.);
#329=ORIENTED_EDGE('',*,*,#328,.F.);
#330=EDGE_LOOP('',(#298,#306,#314,#320,#321,#322,#323,#329));
#331=FACE_OUTER_BOUND('',#330,.T.);
#332=ADVANCED_FACE('',(#331),#288,.T.);
#333=CARTESIAN_POINT('',(3.224999999999999,0.450000000000001,2.609999999999997));
#334=DIRECTION('',(0.0,1.0,0.0));
#335=DIRECTION('',(-1.0,0.0,0.0));
#336=AXIS2_PLACEMENT_3D('',#333,#334,#335);
#337=PLANE('',#336);
#338=CARTESIAN_POINT('',(3.25,0.450000000000002,2.699999999999998));
#339=VERTEX_POINT('',#338);
#340=CARTESIAN_POINT('',(3.25,0.450000000000002,2.699999999999998));
#341=DIRECTION('',(1.0,0.0,0.0));
#342=VECTOR('',#341,0.5);
#343=LINE('',#340,#342);
#344=EDGE_CURVE('',#339,#113,#343,.T.);
#345=ORIENTED_EDGE('',*,*,#344,.T.);
#346=ORIENTED_EDGE('',*,*,#163,.T.);
#347=CARTESIAN_POINT('',(3.25,0.450000000000001,4.499999999999998));
#348=VERTEX_POINT('',#347);
#349=CARTESIAN_POINT('',(3.25,0.450000000000001,4.499999999999998));
#350=DIRECTION('',(1.0,0.0,0.0));
#351=VECTOR('',#350,0.5);
#352=LINE('',#349,#351);
#353=EDGE_CURVE('',#348,#152,#352,.T.);
#354=ORIENTED_EDGE('',*,*,#353,.F.);
#355=CARTESIAN_POINT('',(3.25,0.450000000000002,2.699999999999998));
#356=DIRECTION('',(0.0,0.0,1.0));
#357=VECTOR('',#356,1.800000000000001);
#358=LINE('',#355,#357);
#359=EDGE_CURVE('',#339,#348,#358,.T.);
#360=ORIENTED_EDGE('',*,*,#359,.F.);
#361=EDGE_LOOP('',(#345,#346,#354,#360));
#362=FACE_OUTER_BOUND('',#361,.T.);
#363=ADVANCED_FACE('',(#362),#337,.F.);
#364=CARTESIAN_POINT('',(3.225,-0.389999999999999,2.699999999999998));
#365=DIRECTION('',(0.0,0.0,-1.0));
#366=DIRECTION('',(0.0,1.0,0.0));
#367=AXIS2_PLACEMENT_3D('',#364,#365,#366);
#368=PLANE('',#367);
#369=CARTESIAN_POINT('',(3.25,-0.349999999999999,2.699999999999998));
#370=VERTEX_POINT('',#369);
#371=CARTESIAN_POINT('',(3.25,-0.349999999999999,2.699999999999998));
#372=DIRECTION('',(1.0,0.0,0.0));
#373=VECTOR('',#372,0.5);
#374=LINE('',#371,#373);
#375=EDGE_CURVE('',#370,#111,#374,.T.);
#376=ORIENTED_EDGE('',*,*,#375,.T.);
#377=ORIENTED_EDGE('',*,*,#118,.T.);
#378=ORIENTED_EDGE('',*,*,#344,.F.);
#379=CARTESIAN_POINT('',(3.25,-0.349999999999999,2.699999999999998));
#380=DIRECTION('',(0.0,1.0,0.0));
#381=VECTOR('',#380,0.800000000000001);
#382=LINE('',#379,#381);
#383=EDGE_CURVE('',#370,#339,#382,.T.);
#384=ORIENTED_EDGE('',*,*,#383,.F.);
#385=EDGE_LOOP('',(#376,#377,#378,#384));
#386=FACE_OUTER_BOUND('',#385,.T.);
#387=ADVANCED_FACE('',(#386),#368,.F.);
#388=CARTESIAN_POINT('',(-4.125,-1.347500000000001,4.499999999999998));
#389=DIRECTION('',(0.0,0.0,-1.0));
#390=DIRECTION('',(0.0,1.0,0.0));
#391=AXIS2_PLACEMENT_3D('',#388,#389,#390);
#392=PLANE('',#391);
#393=ORIENTED_EDGE('',*,*,#134,.F.);
#394=CARTESIAN_POINT('',(3.25,-0.349999999999999,4.499999999999998));
#395=VERTEX_POINT('',#394);
#396=CARTESIAN_POINT('',(3.25,-0.349999999999999,4.499999999999998));
#397=DIRECTION('',(1.0,0.0,0.0));
#398=VECTOR('',#397,0.5);
#399=LINE('',#396,#398);
#400=EDGE_CURVE('',#395,#121,#399,.T.);
#401=ORIENTED_EDGE('',*,*,#400,.F.);
#402=CARTESIAN_POINT('',(3.25,-0.899999999999998,4.499999999999998));
#403=VERTEX_POINT('',#402);
#404=CARTESIAN_POINT('',(3.25,-0.899999999999998,4.499999999999998));
#405=DIRECTION('',(0.0,1.0,0.0));
#406=VECTOR('',#405,0.549999999999999);
#407=LINE('',#404,#406);
#408=EDGE_CURVE('',#403,#395,#407,.T.);
#409=ORIENTED_EDGE('',*,*,#408,.F.);
#410=CARTESIAN_POINT('',(-3.250000000000001,-0.900000000000001,4.499999999999998));
#411=VERTEX_POINT('',#410);
#412=CARTESIAN_POINT('',(-3.250000000000001,-0.900000000000001,4.499999999999998));
#413=DIRECTION('',(1.0,0.0,0.0));
#414=VECTOR('',#413,6.500000000000002);
#415=LINE('',#412,#414);
#416=EDGE_CURVE('',#411,#403,#415,.T.);
#417=ORIENTED_EDGE('',*,*,#416,.F.);
#418=CARTESIAN_POINT('',(-3.25,-0.350000000000001,4.499999999999998));
#419=VERTEX_POINT('',#418);
#420=CARTESIAN_POINT('',(-3.25,-0.350000000000001,4.499999999999998));
#421=DIRECTION('',(0.0,-1.0,0.0));
#422=VECTOR('',#421,0.55);
#423=LINE('',#420,#422);
#424=EDGE_CURVE('',#419,#411,#423,.T.);
#425=ORIENTED_EDGE('',*,*,#424,.F.);
#426=CARTESIAN_POINT('',(-3.75,-0.350000000000001,4.499999999999998));
#427=DIRECTION('',(1.0,0.0,0.0));
#428=VECTOR('',#427,0.5);
#429=LINE('',#426,#428);
#430=EDGE_CURVE('',#290,#419,#429,.T.);
#431=ORIENTED_EDGE('',*,*,#430,.F.);
#432=ORIENTED_EDGE('',*,*,#328,.T.);
#433=ORIENTED_EDGE('',*,*,#187,.F.);
#434=EDGE_LOOP('',(#393,#401,#409,#417,#425,#431,#432,#433));
#435=FACE_OUTER_BOUND('',#434,.T.);
#436=ADVANCED_FACE('',(#435),#392,.F.);
#437=CARTESIAN_POINT('',(-4.125,0.362499999999999,4.499999999999998));
#438=DIRECTION('',(0.0,0.0,-1.0));
#439=DIRECTION('',(0.0,1.0,0.0));
#440=AXIS2_PLACEMENT_3D('',#437,#438,#439);
#441=PLANE('',#440);
#442=ORIENTED_EDGE('',*,*,#319,.T.);
#443=CARTESIAN_POINT('',(-3.25,0.45,4.499999999999998));
#444=VERTEX_POINT('',#443);
#445=CARTESIAN_POINT('',(-3.75,0.449999999999999,4.499999999999998));
#446=DIRECTION('',(1.0,0.0,0.0));
#447=VECTOR('',#446,0.5);
#448=LINE('',#445,#447);
#449=EDGE_CURVE('',#308,#444,#448,.T.);
#450=ORIENTED_EDGE('',*,*,#449,.T.);
#451=CARTESIAN_POINT('',(-3.250000000000001,1.800000000000001,4.499999999999998));
#452=VERTEX_POINT('',#451);
#453=CARTESIAN_POINT('',(-3.250000000000001,1.800000000000001,4.499999999999998));
#454=DIRECTION('',(0.0,-1.0,0.0));
#455=VECTOR('',#454,1.350000000000001);
#456=LINE('',#453,#455);
#457=EDGE_CURVE('',#452,#444,#456,.T.);
#458=ORIENTED_EDGE('',*,*,#457,.F.);
#459=CARTESIAN_POINT('',(3.249999999999999,1.800000000000002,4.499999999999998));
#460=VERTEX_POINT('',#459);
#461=CARTESIAN_POINT('',(3.249999999999999,1.800000000000002,4.499999999999998));
#462=DIRECTION('',(-1.0,0.0,0.0));
#463=VECTOR('',#462,6.5);
#464=LINE('',#461,#463);
#465=EDGE_CURVE('',#460,#452,#464,.T.);
#466=ORIENTED_EDGE('',*,*,#465,.F.);
#467=CARTESIAN_POINT('',(3.25,0.450000000000001,4.499999999999998));
#468=DIRECTION('',(0.0,1.0,0.0));
#469=VECTOR('',#468,1.350000000000001);
#470=LINE('',#467,#469);
#471=EDGE_CURVE('',#348,#460,#470,.T.);
#472=ORIENTED_EDGE('',*,*,#471,.F.);
#473=ORIENTED_EDGE('',*,*,#353,.T.);
#474=ORIENTED_EDGE('',*,*,#157,.F.);
#475=ORIENTED_EDGE('',*,*,#277,.T.);
#476=EDGE_LOOP('',(#442,#450,#458,#466,#472,#473,#474,#475));
#477=FACE_OUTER_BOUND('',#476,.T.);
#478=ADVANCED_FACE('',(#477),#441,.F.);
#479=CARTESIAN_POINT('',(3.225,-0.349999999999999,4.589999999999998));
#480=DIRECTION('',(0.0,-1.0,0.0));
#481=DIRECTION('',(1.0,0.0,0.0));
#482=AXIS2_PLACEMENT_3D('',#479,#480,#481);
#483=PLANE('',#482);
#484=ORIENTED_EDGE('',*,*,#400,.T.);
#485=ORIENTED_EDGE('',*,*,#126,.T.);
#486=ORIENTED_EDGE('',*,*,#375,.F.);
#487=CARTESIAN_POINT('',(3.25,-0.349999999999999,4.499999999999998));
#488=DIRECTION('',(0.0,0.0,-1.0));
#489=VECTOR('',#488,1.8);
#490=LINE('',#487,#489);
#491=EDGE_CURVE('',#395,#370,#490,.T.);
#492=ORIENTED_EDGE('',*,*,#491,.F.);
#493=EDGE_LOOP('',(#484,#485,#486,#492));
#494=FACE_OUTER_BOUND('',#493,.T.);
#495=ADVANCED_FACE('',(#494),#483,.F.);
#496=CARTESIAN_POINT('',(-3.285,-0.880000000000001,2.699999999999998));
#497=DIRECTION('',(0.0,0.0,1.0));
#498=DIRECTION('',(0.0,-1.0,0.0));
#499=AXIS2_PLACEMENT_3D('',#496,#497,#498);
#500=PLANE('',#499);
#501=CARTESIAN_POINT('',(-3.25,-0.900000000000001,2.699999999999998));
#502=VERTEX_POINT('',#501);
#503=CARTESIAN_POINT('',(-2.55,-0.900000000000001,2.699999999999998));
#504=VERTEX_POINT('',#503);
#505=CARTESIAN_POINT('',(-3.25,-0.900000000000001,2.699999999999998));
#506=DIRECTION('',(1.0,0.0,0.0));
#507=VECTOR('',#506,0.7);
#508=LINE('',#505,#507);
#509=EDGE_CURVE('',#502,#504,#508,.T.);
#510=ORIENTED_EDGE('',*,*,#509,.T.);
#511=CARTESIAN_POINT('',(-2.55,-0.900000000000001,2.699999999999998));
#512=DIRECTION('',(0.0,-1.0,0.0));
#513=VECTOR('',#512,0.4);
#514=LINE('',#511,#513);
#515=EDGE_CURVE('',#504,#194,#514,.T.);
#516=ORIENTED_EDGE('',*,*,#515,.T.);
#517=ORIENTED_EDGE('',*,*,#221,.T.);
#518=CARTESIAN_POINT('',(-3.25,-0.900000000000001,2.699999999999998));
#519=DIRECTION('',(0.0,-1.0,0.0));
#520=VECTOR('',#519,0.4);
#521=LINE('',#518,#520);
#522=EDGE_CURVE('',#502,#210,#521,.T.);
#523=ORIENTED_EDGE('',*,*,#522,.F.);
#524=EDGE_LOOP('',(#510,#516,#517,#523));
#525=FACE_OUTER_BOUND('',#524,.T.);
#526=ADVANCED_FACE('',(#525),#500,.F.);
#527=CARTESIAN_POINT('',(-3.285,-1.320000000000001,1.699999999999998));
#528=DIRECTION('',(0.0,0.0,-1.0));
#529=DIRECTION('',(0.0,1.0,0.0));
#530=AXIS2_PLACEMENT_3D('',#527,#528,#529);
#531=PLANE('',#530);
#532=CARTESIAN_POINT('',(-2.55,-0.900000000000001,1.699999999999998));
#533=VERTEX_POINT('',#532);
#534=CARTESIAN_POINT('',(-3.25,-0.900000000000001,1.699999999999998));
#535=VERTEX_POINT('',#534);
#536=CARTESIAN_POINT('',(-2.55,-0.900000000000001,1.699999999999998));
#537=DIRECTION('',(-1.0,0.0,0.0));
#538=VECTOR('',#537,0.7);
#539=LINE('',#536,#538);
#540=EDGE_CURVE('',#533,#535,#539,.T.);
#541=ORIENTED_EDGE('',*,*,#540,.T.);
#542=CARTESIAN_POINT('',(-3.25,-0.900000000000001,1.699999999999998));
#543=DIRECTION('',(0.0,-1.0,0.0));
#544=VECTOR('',#543,0.4);
#545=LINE('',#542,#544);
#546=EDGE_CURVE('',#535,#202,#545,.T.);
#547=ORIENTED_EDGE('',*,*,#546,.T.);
#548=ORIENTED_EDGE('',*,*,#207,.T.);
#549=CARTESIAN_POINT('',(-2.55,-0.900000000000001,1.699999999999998));
#550=DIRECTION('',(0.0,-1.0,0.0));
#551=VECTOR('',#550,0.4);
#552=LINE('',#549,#551);
#553=EDGE_CURVE('',#533,#192,#552,.T.);
#554=ORIENTED_EDGE('',*,*,#553,.F.);
#555=EDGE_LOOP('',(#541,#547,#548,#554));
#556=FACE_OUTER_BOUND('',#555,.T.);
#557=ADVANCED_FACE('',(#556),#531,.F.);
#558=CARTESIAN_POINT('',(2.515,-1.319999999999999,1.699999999999998));
#559=DIRECTION('',(0.0,0.0,-1.0));
#560=DIRECTION('',(0.0,1.0,0.0));
#561=AXIS2_PLACEMENT_3D('',#558,#559,#560);
#562=PLANE('',#561);
#563=CARTESIAN_POINT('',(3.25,-0.899999999999998,1.699999999999998));
#564=VERTEX_POINT('',#563);
#565=CARTESIAN_POINT('',(2.55,-0.899999999999999,1.699999999999998));
#566=VERTEX_POINT('',#565);
#567=CARTESIAN_POINT('',(3.25,-0.899999999999998,1.699999999999998));
#568=DIRECTION('',(-1.0,0.0,0.0));
#569=VECTOR('',#568,0.7);
#570=LINE('',#567,#569);
#571=EDGE_CURVE('',#564,#566,#570,.T.);
#572=ORIENTED_EDGE('',*,*,#571,.T.);
#573=CARTESIAN_POINT('',(2.55,-0.899999999999999,1.699999999999998));
#574=DIRECTION('',(0.0,-1.0,0.0));
#575=VECTOR('',#574,0.400000000000001);
#576=LINE('',#573,#575);
#577=EDGE_CURVE('',#566,#228,#576,.T.);
#578=ORIENTED_EDGE('',*,*,#577,.T.);
#579=ORIENTED_EDGE('',*,*,#255,.T.);
#580=CARTESIAN_POINT('',(3.25,-0.899999999999998,1.699999999999998));
#581=DIRECTION('',(0.0,-1.0,0.0));
#582=VECTOR('',#581,0.400000000000001);
#583=LINE('',#580,#582);
#584=EDGE_CURVE('',#564,#244,#583,.T.);
#585=ORIENTED_EDGE('',*,*,#584,.F.);
#586=EDGE_LOOP('',(#572,#578,#579,#585));
#587=FACE_OUTER_BOUND('',#586,.T.);
#588=ADVANCED_FACE('',(#587),#562,.F.);
#589=CARTESIAN_POINT('',(2.55,-0.879999999999999,1.649999999999998));
#590=DIRECTION('',(-1.0,0.0,0.0));
#591=DIRECTION('',(0.0,-1.0,0.0));
#592=AXIS2_PLACEMENT_3D('',#589,#590,#591);
#593=PLANE('',#592);
#594=CARTESIAN_POINT('',(2.55,-0.899999999999998,2.699999999999998));
#595=VERTEX_POINT('',#594);
#596=CARTESIAN_POINT('',(2.55,-0.899999999999999,1.699999999999998));
#597=DIRECTION('',(0.0,0.0,1.0));
#598=VECTOR('',#597,1.0);
#599=LINE('',#596,#598);
#600=EDGE_CURVE('',#566,#595,#599,.T.);
#601=ORIENTED_EDGE('',*,*,#600,.T.);
#602=CARTESIAN_POINT('',(2.55,-0.899999999999998,2.699999999999998));
#603=DIRECTION('',(0.0,-1.0,0.0));
#604=VECTOR('',#603,0.400000000000001);
#605=LINE('',#602,#604);
#606=EDGE_CURVE('',#595,#226,#605,.T.);
#607=ORIENTED_EDGE('',*,*,#606,.T.);
#608=ORIENTED_EDGE('',*,*,#233,.T.);
#609=ORIENTED_EDGE('',*,*,#577,.F.);
#610=EDGE_LOOP('',(#601,#607,#608,#609));
#611=FACE_OUTER_BOUND('',#610,.T.);
#612=ADVANCED_FACE('',(#611),#593,.F.);
#613=CARTESIAN_POINT('',(-3.250000000000001,1.955000000000001,0.929999999999998));
#614=DIRECTION('',(-1.0,0.0,0.0));
#615=DIRECTION('',(0.0,-1.0,0.0));
#616=AXIS2_PLACEMENT_3D('',#613,#614,#615);
#617=PLANE('',#616);
#618=CARTESIAN_POINT('',(-3.25,0.45,2.699999999999998));
#619=VERTEX_POINT('',#618);
#620=CARTESIAN_POINT('',(-3.25,-0.35,2.699999999999998));
#621=VERTEX_POINT('',#620);
#622=CARTESIAN_POINT('',(-3.25,0.45,2.699999999999998));
#623=DIRECTION('',(0.0,-1.0,0.0));
#624=VECTOR('',#623,0.8);
#625=LINE('',#622,#624);
#626=EDGE_CURVE('',#619,#621,#625,.T.);
#627=ORIENTED_EDGE('',*,*,#626,.T.);
#628=CARTESIAN_POINT('',(-3.25,-0.35,2.699999999999998));
#629=DIRECTION('',(0.0,0.0,1.0));
#630=VECTOR('',#629,1.800000000000001);
#631=LINE('',#628,#630);
#632=EDGE_CURVE('',#621,#419,#631,.T.);
#633=ORIENTED_EDGE('',*,*,#632,.T.);
#634=ORIENTED_EDGE('',*,*,#424,.T.);
#635=CARTESIAN_POINT('',(-3.25,-0.900000000000001,2.699999999999998));
#636=DIRECTION('',(0.0,0.0,1.0));
#637=VECTOR('',#636,1.800000000000001);
#638=LINE('',#635,#637);
#639=EDGE_CURVE('',#502,#411,#638,.T.);
#640=ORIENTED_EDGE('',*,*,#639,.F.);
#641=ORIENTED_EDGE('',*,*,#522,.T.);
#642=ORIENTED_EDGE('',*,*,#215,.T.);
#643=ORIENTED_EDGE('',*,*,#546,.F.);
#644=CARTESIAN_POINT('',(-3.25,-0.900000000000001,1.399999999999998));
#645=VERTEX_POINT('',#644);
#646=CARTESIAN_POINT('',(-3.25,-0.900000000000001,1.399999999999998));
#647=DIRECTION('',(0.0,0.0,1.0));
#648=VECTOR('',#647,0.3);
#649=LINE('',#646,#648);
#650=EDGE_CURVE('',#645,#535,#649,.T.);
#651=ORIENTED_EDGE('',*,*,#650,.F.);
#652=CARTESIAN_POINT('',(-3.25,0.450000000000001,1.399999999999998));
#653=VERTEX_POINT('',#652);
#654=CARTESIAN_POINT('',(-3.25,0.450000000000001,1.399999999999998));
#655=DIRECTION('',(0.0,-1.0,0.0));
#656=VECTOR('',#655,1.350000000000001);
#657=LINE('',#654,#656);
#658=EDGE_CURVE('',#653,#645,#657,.T.);
#659=ORIENTED_EDGE('',*,*,#658,.F.);
#660=CARTESIAN_POINT('',(-3.25,0.750000000000004,1.099999999999998));
#661=VERTEX_POINT('',#660);
#662=CARTESIAN_POINT('',(-3.25,0.45,1.399999999999998));
#663=DIRECTION('',(0.0,0.707106781186552,-0.707106781186543));
#664=VECTOR('',#663,0.424264068711931);
#665=LINE('',#662,#664);
#666=EDGE_CURVE('',#653,#661,#665,.T.);
#667=ORIENTED_EDGE('',*,*,#666,.T.);
#668=CARTESIAN_POINT('',(-3.250000000000001,1.800000000000001,1.099999999999998));
#669=VERTEX_POINT('',#668);
#670=CARTESIAN_POINT('',(-3.25,0.750000000000004,1.099999999999998));
#671=DIRECTION('',(0.0,1.0,0.0));
#672=VECTOR('',#671,1.049999999999996);
#673=LINE('',#670,#672);
#674=EDGE_CURVE('',#661,#669,#673,.T.);
#675=ORIENTED_EDGE('',*,*,#674,.T.);
#676=CARTESIAN_POINT('',(-3.250000000000001,1.800000000000001,1.099999999999998));
#677=DIRECTION('',(0.0,0.0,1.0));
#678=VECTOR('',#677,3.4);
#679=LINE('',#676,#678);
#680=EDGE_CURVE('',#669,#452,#679,.T.);
#681=ORIENTED_EDGE('',*,*,#680,.T.);
#682=ORIENTED_EDGE('',*,*,#457,.T.);
#683=CARTESIAN_POINT('',(-3.25,0.45,4.499999999999998));
#684=DIRECTION('',(0.0,0.0,-1.0));
#685=VECTOR('',#684,1.8);
#686=LINE('',#683,#685);
#687=EDGE_CURVE('',#444,#619,#686,.T.);
#688=ORIENTED_EDGE('',*,*,#687,.T.);
#689=EDGE_LOOP('',(#627,#633,#634,#640,#641,#642,#643,#651,#659,#667,#675,#681,#682,#688));
#690=FACE_OUTER_BOUND('',#689,.T.);
#691=ADVANCED_FACE('',(#690),#617,.F.);
#692=CARTESIAN_POINT('',(3.25,-1.455,0.929999999999998));
#693=DIRECTION('',(1.0,0.0,0.0));
#694=DIRECTION('',(0.0,1.0,0.0));
#695=AXIS2_PLACEMENT_3D('',#692,#693,#694);
#696=PLANE('',#695);
#697=ORIENTED_EDGE('',*,*,#408,.T.);
#698=ORIENTED_EDGE('',*,*,#491,.T.);
#699=ORIENTED_EDGE('',*,*,#383,.T.);
#700=ORIENTED_EDGE('',*,*,#359,.T.);
#701=ORIENTED_EDGE('',*,*,#471,.T.);
#702=CARTESIAN_POINT('',(3.249999999999999,1.800000000000002,1.099999999999998));
#703=VERTEX_POINT('',#702);
#704=CARTESIAN_POINT('',(3.249999999999999,1.800000000000002,1.099999999999998));
#705=DIRECTION('',(0.0,0.0,1.0));
#706=VECTOR('',#705,3.4);
#707=LINE('',#704,#706);
#708=EDGE_CURVE('',#703,#460,#707,.T.);
#709=ORIENTED_EDGE('',*,*,#708,.F.);
#710=CARTESIAN_POINT('',(3.25,0.750000000000006,1.099999999999998));
#711=VERTEX_POINT('',#710);
#712=CARTESIAN_POINT('',(3.25,0.750000000000006,1.099999999999998));
#713=DIRECTION('',(0.0,1.0,0.0));
#714=VECTOR('',#713,1.049999999999996);
#715=LINE('',#712,#714);
#716=EDGE_CURVE('',#711,#703,#715,.T.);
#717=ORIENTED_EDGE('',*,*,#716,.F.);
#718=CARTESIAN_POINT('',(3.25,0.450000000000002,1.399999999999998));
#719=VERTEX_POINT('',#718);
#720=CARTESIAN_POINT('',(3.25,0.450000000000002,1.399999999999998));
#721=DIRECTION('',(0.0,0.707106781186552,-0.707106781186543));
#722=VECTOR('',#721,0.424264068711931);
#723=LINE('',#720,#722);
#724=EDGE_CURVE('',#719,#711,#723,.T.);
#725=ORIENTED_EDGE('',*,*,#724,.F.);
#726=CARTESIAN_POINT('',(3.25,-0.899999999999998,1.399999999999998));
#727=VERTEX_POINT('',#726);
#728=CARTESIAN_POINT('',(3.25,-0.899999999999998,1.399999999999998));
#729=DIRECTION('',(0.0,1.0,0.0));
#730=VECTOR('',#729,1.35);
#731=LINE('',#728,#730);
#732=EDGE_CURVE('',#727,#719,#731,.T.);
#733=ORIENTED_EDGE('',*,*,#732,.F.);
#734=CARTESIAN_POINT('',(3.25,-0.899999999999998,1.399999999999998));
#735=DIRECTION('',(0.0,0.0,1.0));
#736=VECTOR('',#735,0.3);
#737=LINE('',#734,#736);
#738=EDGE_CURVE('',#727,#564,#737,.T.);
#739=ORIENTED_EDGE('',*,*,#738,.T.);
#740=ORIENTED_EDGE('',*,*,#584,.T.);
#741=ORIENTED_EDGE('',*,*,#249,.T.);
#742=CARTESIAN_POINT('',(3.25,-0.899999999999998,2.699999999999998));
#743=VERTEX_POINT('',#742);
#744=CARTESIAN_POINT('',(3.25,-0.899999999999998,2.699999999999998));
#745=DIRECTION('',(0.0,-1.0,0.0));
#746=VECTOR('',#745,0.400000000000001);
#747=LINE('',#744,#746);
#748=EDGE_CURVE('',#743,#236,#747,.T.);
#749=ORIENTED_EDGE('',*,*,#748,.F.);
#750=CARTESIAN_POINT('',(3.25,-0.899999999999998,2.699999999999998));
#751=DIRECTION('',(0.0,0.0,1.0));
#752=VECTOR('',#751,1.800000000000001);
#753=LINE('',#750,#752);
#754=EDGE_CURVE('',#743,#403,#753,.T.);
#755=ORIENTED_EDGE('',*,*,#754,.T.);
#756=EDGE_LOOP('',(#697,#698,#699,#700,#701,#709,#717,#725,#733,#739,#740,#741,#749,#755));
#757=FACE_OUTER_BOUND('',#756,.T.);
#758=ADVANCED_FACE('',(#757),#696,.F.);
#759=CARTESIAN_POINT('',(2.515,-0.879999999999999,2.699999999999998));
#760=DIRECTION('',(0.0,0.0,1.0));
#761=DIRECTION('',(0.0,-1.0,0.0));
#762=AXIS2_PLACEMENT_3D('',#759,#760,#761);
#763=PLANE('',#762);
#764=CARTESIAN_POINT('',(2.55,-0.899999999999998,2.699999999999998));
#765=DIRECTION('',(1.0,0.0,0.0));
#766=VECTOR('',#765,0.7);
#767=LINE('',#764,#766);
#768=EDGE_CURVE('',#595,#743,#767,.T.);
#769=ORIENTED_EDGE('',*,*,#768,.T.);
#770=ORIENTED_EDGE('',*,*,#748,.T.);
#771=ORIENTED_EDGE('',*,*,#241,.T.);
#772=ORIENTED_EDGE('',*,*,#606,.F.);
#773=EDGE_LOOP('',(#769,#770,#771,#772));
#774=FACE_OUTER_BOUND('',#773,.T.);
#775=ADVANCED_FACE('',(#774),#763,.F.);
#776=CARTESIAN_POINT('',(-2.55,-1.320000000000001,1.649999999999998));
#777=DIRECTION('',(1.0,0.0,0.0));
#778=DIRECTION('',(0.0,1.0,0.0));
#779=AXIS2_PLACEMENT_3D('',#776,#777,#778);
#780=PLANE('',#779);
#781=CARTESIAN_POINT('',(-2.55,-0.900000000000001,2.699999999999998));
#782=DIRECTION('',(0.0,0.0,-1.0));
#783=VECTOR('',#782,1.0);
#784=LINE('',#781,#783);
#785=EDGE_CURVE('',#504,#533,#784,.T.);
#786=ORIENTED_EDGE('',*,*,#785,.T.);
#787=ORIENTED_EDGE('',*,*,#553,.T.);
#788=ORIENTED_EDGE('',*,*,#199,.T.);
#789=ORIENTED_EDGE('',*,*,#515,.F.);
#790=EDGE_LOOP('',(#786,#787,#788,#789));
#791=FACE_OUTER_BOUND('',#790,.T.);
#792=ADVANCED_FACE('',(#791),#780,.F.);
#793=CARTESIAN_POINT('',(-3.775,-0.350000000000001,4.589999999999998));
#794=DIRECTION('',(0.0,-1.0,0.0));
#795=DIRECTION('',(1.0,0.0,0.0));
#796=AXIS2_PLACEMENT_3D('',#793,#794,#795);
#797=PLANE('',#796);
#798=CARTESIAN_POINT('',(-3.75,-0.350000000000001,2.699999999999998));
#799=DIRECTION('',(1.0,0.0,0.0));
#800=VECTOR('',#799,0.5);
#801=LINE('',#798,#800);
#802=EDGE_CURVE('',#292,#621,#801,.T.);
#803=ORIENTED_EDGE('',*,*,#802,.F.);
#804=ORIENTED_EDGE('',*,*,#297,.F.);
#805=ORIENTED_EDGE('',*,*,#430,.T.);
#806=ORIENTED_EDGE('',*,*,#632,.F.);
#807=EDGE_LOOP('',(#803,#804,#805,#806));
#808=FACE_OUTER_BOUND('',#807,.T.);
#809=ADVANCED_FACE('',(#808),#797,.F.);
#810=CARTESIAN_POINT('',(-3.775,0.449999999999999,2.609999999999997));
#811=DIRECTION('',(0.0,1.0,0.0));
#812=DIRECTION('',(-1.0,0.0,0.0));
#813=AXIS2_PLACEMENT_3D('',#810,#811,#812);
#814=PLANE('',#813);
#815=ORIENTED_EDGE('',*,*,#449,.F.);
#816=ORIENTED_EDGE('',*,*,#313,.F.);
#817=CARTESIAN_POINT('',(-3.75,0.45,2.699999999999998));
#818=DIRECTION('',(1.0,0.0,0.0));
#819=VECTOR('',#818,0.5);
#820=LINE('',#817,#819);
#821=EDGE_CURVE('',#300,#619,#820,.T.);
#822=ORIENTED_EDGE('',*,*,#821,.T.);
#823=ORIENTED_EDGE('',*,*,#687,.F.);
#824=EDGE_LOOP('',(#815,#816,#822,#823));
#825=FACE_OUTER_BOUND('',#824,.T.);
#826=ADVANCED_FACE('',(#825),#814,.F.);
#827=CARTESIAN_POINT('',(-3.775,-0.390000000000001,2.699999999999998));
#828=DIRECTION('',(0.0,0.0,-1.0));
#829=DIRECTION('',(0.0,1.0,0.0));
#830=AXIS2_PLACEMENT_3D('',#827,#828,#829);
#831=PLANE('',#830);
#832=ORIENTED_EDGE('',*,*,#821,.F.);
#833=ORIENTED_EDGE('',*,*,#305,.F.);
#834=ORIENTED_EDGE('',*,*,#802,.T.);
#835=ORIENTED_EDGE('',*,*,#626,.F.);
#836=EDGE_LOOP('',(#832,#833,#834,#835));
#837=FACE_OUTER_BOUND('',#836,.T.);
#838=ADVANCED_FACE('',(#837),#831,.F.);
#839=CARTESIAN_POINT('',(-3.575000000000002,-0.900000000000001,1.244999999999998));
#840=DIRECTION('',(0.0,-1.0,0.0));
#841=DIRECTION('',(1.0,0.0,0.0));
#842=AXIS2_PLACEMENT_3D('',#839,#840,#841);
#843=PLANE('',#842);
#844=ORIENTED_EDGE('',*,*,#754,.F.);
#845=ORIENTED_EDGE('',*,*,#768,.F.);
#846=ORIENTED_EDGE('',*,*,#600,.F.);
#847=ORIENTED_EDGE('',*,*,#571,.F.);
#848=ORIENTED_EDGE('',*,*,#738,.F.);
#849=CARTESIAN_POINT('',(-3.25,-0.900000000000001,1.399999999999998));
#850=DIRECTION('',(1.0,0.0,0.0));
#851=VECTOR('',#850,6.5);
#852=LINE('',#849,#851);
#853=EDGE_CURVE('',#645,#727,#852,.T.);
#854=ORIENTED_EDGE('',*,*,#853,.F.);
#855=ORIENTED_EDGE('',*,*,#650,.T.);
#856=ORIENTED_EDGE('',*,*,#540,.F.);
#857=ORIENTED_EDGE('',*,*,#785,.F.);
#858=ORIENTED_EDGE('',*,*,#509,.F.);
#859=ORIENTED_EDGE('',*,*,#639,.T.);
#860=ORIENTED_EDGE('',*,*,#416,.T.);
#861=EDGE_LOOP('',(#844,#845,#846,#847,#848,#854,#855,#856,#857,#858,#859,#860));
#862=FACE_OUTER_BOUND('',#861,.T.);
#863=ADVANCED_FACE('',(#862),#843,.F.);
#864=CARTESIAN_POINT('',(3.574999999999999,1.800000000000002,0.929999999999998));
#865=DIRECTION('',(0.0,1.0,0.0));
#866=DIRECTION('',(-1.0,0.0,0.0));
#867=AXIS2_PLACEMENT_3D('',#864,#865,#866);
#868=PLANE('',#867);
#869=ORIENTED_EDGE('',*,*,#465,.T.);
#870=ORIENTED_EDGE('',*,*,#680,.F.);
#871=CARTESIAN_POINT('',(3.249999999999999,1.800000000000002,1.099999999999998));
#872=DIRECTION('',(-1.0,0.0,0.0));
#873=VECTOR('',#872,6.5);
#874=LINE('',#871,#873);
#875=EDGE_CURVE('',#703,#669,#874,.T.);
#876=ORIENTED_EDGE('',*,*,#875,.F.);
#877=ORIENTED_EDGE('',*,*,#708,.T.);
#878=EDGE_LOOP('',(#869,#870,#876,#877));
#879=FACE_OUTER_BOUND('',#878,.T.);
#880=ADVANCED_FACE('',(#879),#868,.F.);
#881=CARTESIAN_POINT('',(-3.575000000000001,1.8525,1.099999999999998));
#882=DIRECTION('',(0.0,0.0,1.0));
#883=DIRECTION('',(0.0,-1.0,0.0));
#884=AXIS2_PLACEMENT_3D('',#881,#882,#883);
#885=PLANE('',#884);
#886=ORIENTED_EDGE('',*,*,#674,.F.);
#887=CARTESIAN_POINT('',(3.25,0.750000000000006,1.099999999999998));
#888=DIRECTION('',(-1.0,0.0,0.0));
#889=VECTOR('',#888,6.5);
#890=LINE('',#887,#889);
#891=EDGE_CURVE('',#711,#661,#890,.T.);
#892=ORIENTED_EDGE('',*,*,#891,.F.);
#893=ORIENTED_EDGE('',*,*,#716,.T.);
#894=ORIENTED_EDGE('',*,*,#875,.T.);
#895=EDGE_LOOP('',(#886,#892,#893,#894));
#896=FACE_OUTER_BOUND('',#895,.T.);
#897=ADVANCED_FACE('',(#896),#885,.T.);
#898=CARTESIAN_POINT('',(-3.575000000000001,0.765000000000004,1.084999999999998));
#899=DIRECTION('',(-1.570092E-016,0.707106781186543,0.707106781186552));
#900=DIRECTION('',(-1.0,0.0,0.0));
#901=AXIS2_PLACEMENT_3D('',#898,#899,#900);
#902=PLANE('',#901);
#903=ORIENTED_EDGE('',*,*,#666,.F.);
#904=CARTESIAN_POINT('',(3.25,0.450000000000002,1.399999999999998));
#905=DIRECTION('',(-1.0,0.0,0.0));
#906=VECTOR('',#905,6.5);
#907=LINE('',#904,#906);
#908=EDGE_CURVE('',#719,#653,#907,.T.);
#909=ORIENTED_EDGE('',*,*,#908,.F.);
#910=ORIENTED_EDGE('',*,*,#724,.T.);
#911=ORIENTED_EDGE('',*,*,#891,.T.);
#912=EDGE_LOOP('',(#903,#909,#910,#911));
#913=FACE_OUTER_BOUND('',#912,.T.);
#914=ADVANCED_FACE('',(#913),#902,.T.);
#915=CARTESIAN_POINT('',(-3.575000000000001,0.517500000000001,1.399999999999998));
#916=DIRECTION('',(0.0,0.0,1.0));
#917=DIRECTION('',(0.0,-1.0,0.0));
#918=AXIS2_PLACEMENT_3D('',#915,#916,#917);
#919=PLANE('',#918);
#920=ORIENTED_EDGE('',*,*,#732,.T.);
#921=ORIENTED_EDGE('',*,*,#908,.T.);
#922=ORIENTED_EDGE('',*,*,#658,.T.);
#923=ORIENTED_EDGE('',*,*,#853,.T.);
#924=EDGE_LOOP('',(#920,#921,#922,#923));
#925=FACE_OUTER_BOUND('',#924,.T.);
#926=ADVANCED_FACE('',(#925),#919,.T.);
#927=CLOSED_SHELL('',(#104,#167,#259,#283,#332,#363,#387,#436,#478,#495,#526,#557,#588,#612,#691,#758,#775,#792,#809,#826,#838,#863,#880,#897,#914,#926));
#928=MANIFOLD_SOLID_BREP('2C43',#927);
#929=DRAUGHTING_PRE_DEFINED_COLOUR('white');
#930=SURFACE_STYLE_USAGE(.BOTH.,#931);
#931=SURFACE_SIDE_STYLE('NONE',(#932));
#932=SURFACE_STYLE_FILL_AREA(#933);
#933=FILL_AREA_STYLE('NONE',(#934));
#934=FILL_AREA_STYLE_COLOUR('NONE',#929);
#935=PRESENTATION_STYLE_ASSIGNMENT((#930));
#936=STYLED_ITEM('NONE',(#935),#928);
#937=MECHANICAL_DESIGN_GEOMETRIC_PRESENTATION_REPRESENTATION('NONE',(#936,#1034,#1123,#1212,#1301,#1390,#1479,#1568,#1657),#28);
#938=PRESENTATION_LAYER_ASSIGNMENT('3D','None',(#928,#1026,#1122,#1211,#1300,#1389,#1478,#1567,#1656));
#939=CARTESIAN_POINT('',(2.25,-8.881784E-016,-1.350000000000001));
#940=DIRECTION('',(0.0,0.0,1.0));
#941=DIRECTION('',(1.0,0.0,0.0));
#942=AXIS2_PLACEMENT_3D('',#939,#940,#941);
#943=CYLINDRICAL_SURFACE('',#942,0.25);
#944=CARTESIAN_POINT('',(2.5,-8.881784E-016,0.0));
#945=VERTEX_POINT('',#944);
#946=CARTESIAN_POINT('',(2.5,-8.881784E-016,-2.700000000000002));
#947=VERTEX_POINT('',#946);
#948=CARTESIAN_POINT('',(2.5,-8.881784E-016,0.0));
#949=DIRECTION('',(0.0,0.0,-1.0));
#950=VECTOR('',#949,2.700000000000002);
#951=LINE('',#948,#950);
#952=EDGE_CURVE('',#945,#947,#951,.T.);
#953=ORIENTED_EDGE('',*,*,#952,.F.);
#954=CARTESIAN_POINT('',(2.0,-9.187946E-016,0.0));
#955=VERTEX_POINT('',#954);
#956=CARTESIAN_POINT('',(2.25,-8.881784E-016,0.0));
#957=DIRECTION('',(0.0,0.0,1.0));
#958=DIRECTION('',(1.0,0.0,0.0));
#959=AXIS2_PLACEMENT_3D('',#956,#957,#958);
#960=CIRCLE('',#959,0.25);
#961=EDGE_CURVE('',#955,#945,#960,.T.);
#962=ORIENTED_EDGE('',*,*,#961,.F.);
#963=CARTESIAN_POINT('',(2.0,-9.187946E-016,-2.700000000000002));
#964=VERTEX_POINT('',#963);
#965=CARTESIAN_POINT('',(2.0,-9.187946E-016,0.0));
#966=DIRECTION('',(0.0,0.0,-1.0));
#967=VECTOR('',#966,2.700000000000002);
#968=LINE('',#965,#967);
#969=EDGE_CURVE('',#955,#964,#968,.T.);
#970=ORIENTED_EDGE('',*,*,#969,.T.);
#971=CARTESIAN_POINT('',(2.25,-8.881784E-016,-2.700000000000002));
#972=DIRECTION('',(0.0,0.0,-1.0));
#973=DIRECTION('',(1.0,0.0,0.0));
#974=AXIS2_PLACEMENT_3D('',#971,#972,#973);
#975=CIRCLE('',#974,0.25);
#976=EDGE_CURVE('',#947,#964,#975,.T.);
#977=ORIENTED_EDGE('',*,*,#976,.F.);
#978=EDGE_LOOP('',(#953,#962,#970,#977));
#979=FACE_OUTER_BOUND('',#978,.T.);
#980=ADVANCED_FACE('',(#979),#943,.T.);
#981=CARTESIAN_POINT('',(2.25,-8.881784E-016,-1.350000000000001));
#982=DIRECTION('',(0.0,0.0,1.0));
#983=DIRECTION('',(1.0,0.0,0.0));
#984=AXIS2_PLACEMENT_3D('',#981,#982,#983);
#985=CYLINDRICAL_SURFACE('',#984,0.25);
#986=ORIENTED_EDGE('',*,*,#952,.T.);
#987=CARTESIAN_POINT('',(2.25,-8.881784E-016,-2.700000000000002));
#988=DIRECTION('',(0.0,0.0,-1.0));
#989=DIRECTION('',(1.0,0.0,0.0));
#990=AXIS2_PLACEMENT_3D('',#987,#988,#989);
#991=CIRCLE('',#990,0.25);
#992=EDGE_CURVE('',#964,#947,#991,.T.);
#993=ORIENTED_EDGE('',*,*,#992,.F.);
#994=ORIENTED_EDGE('',*,*,#969,.F.);
#995=CARTESIAN_POINT('',(2.25,-8.881784E-016,0.0));
#996=DIRECTION('',(0.0,0.0,1.0));
#997=DIRECTION('',(1.0,0.0,0.0));
#998=AXIS2_PLACEMENT_3D('',#995,#996,#997);
#999=CIRCLE('',#998,0.25);
#1000=EDGE_CURVE('',#945,#955,#999,.T.);
#1001=ORIENTED_EDGE('',*,*,#1000,.F.);
#1002=EDGE_LOOP('',(#986,#993,#994,#1001));
#1003=FACE_OUTER_BOUND('',#1002,.T.);
#1004=ADVANCED_FACE('',(#1003),#985,.T.);
#1005=CARTESIAN_POINT('',(2.25,-8.881784E-016,-2.700000000000002));
#1006=DIRECTION('',(0.0,0.0,-1.0));
#1007=DIRECTION('',(-1.0,0.0,0.0));
#1008=AXIS2_PLACEMENT_3D('',#1005,#1006,#1007);
#1009=PLANE('',#1008);
#1010=ORIENTED_EDGE('',*,*,#976,.T.);
#1011=ORIENTED_EDGE('',*,*,#992,.T.);
#1012=EDGE_LOOP('',(#1010,#1011));
#1013=FACE_OUTER_BOUND('',#1012,.T.);
#1014=ADVANCED_FACE('',(#1013),#1009,.T.);
#1015=CARTESIAN_POINT('',(2.25,-8.881784E-016,0.0));
#1016=DIRECTION('',(0.0,0.0,1.0));
#1017=DIRECTION('',(1.0,0.0,0.0));
#1018=AXIS2_PLACEMENT_3D('',#1015,#1016,#1017);
#1019=PLANE('',#1018);
#1020=ORIENTED_EDGE('',*,*,#1000,.T.);
#1021=ORIENTED_EDGE('',*,*,#961,.T.);
#1022=EDGE_LOOP('',(#1020,#1021));
#1023=FACE_OUTER_BOUND('',#1022,.T.);
#1024=ADVANCED_FACE('',(#1023),#1019,.T.);
#1025=CLOSED_SHELL('',(#980,#1004,#1014,#1024));
#1026=MANIFOLD_SOLID_BREP('2C3F',#1025);
#1027=COLOUR_RGB('253',0.732,0.732,0.732);
#1028=SURFACE_STYLE_USAGE(.BOTH.,#1029);
#1029=SURFACE_SIDE_STYLE('NONE',(#1030));
#1030=SURFACE_STYLE_FILL_AREA(#1031);
#1031=FILL_AREA_STYLE('NONE',(#1032));
#1032=FILL_AREA_STYLE_COLOUR('NONE',#1027);
#1033=PRESENTATION_STYLE_ASSIGNMENT((#1028));
#1034=STYLED_ITEM('NONE',(#1033),#1026);
#1035=CARTESIAN_POINT('',(2.25,0.0,2.599999999999998));
#1036=DIRECTION('',(0.0,0.0,1.0));
#1037=DIRECTION('',(1.0,0.0,0.0));
#1038=AXIS2_PLACEMENT_3D('',#1035,#1036,#1037);
#1039=CYLINDRICAL_SURFACE('',#1038,0.25);
#1040=CARTESIAN_POINT('',(2.5,0.0,3.799999999999998));
#1041=VERTEX_POINT('',#1040);
#1042=CARTESIAN_POINT('',(2.5,0.0,1.399999999999998));
#1043=VERTEX_POINT('',#1042);
#1044=CARTESIAN_POINT('',(2.5,0.0,3.799999999999998));
#1045=DIRECTION('',(0.0,0.0,-1.0));
#1046=VECTOR('',#1045,2.4);
#1047=LINE('',#1044,#1046);
#1048=EDGE_CURVE('',#1041,#1043,#1047,.T.);
#1049=ORIENTED_EDGE('',*,*,#1048,.F.);
#1050=CARTESIAN_POINT('',(2.0,-3.061617E-017,3.799999999999998));
#1051=VERTEX_POINT('',#1050);
#1052=CARTESIAN_POINT('',(2.25,0.0,3.799999999999998));
#1053=DIRECTION('',(0.0,0.0,1.0));
#1054=DIRECTION('',(1.0,0.0,0.0));
#1055=AXIS2_PLACEMENT_3D('',#1052,#1053,#1054);
#1056=CIRCLE('',#1055,0.25);
#1057=EDGE_CURVE('',#1051,#1041,#1056,.T.);
#1058=ORIENTED_EDGE('',*,*,#1057,.F.);
#1059=CARTESIAN_POINT('',(2.0,-3.061617E-017,1.399999999999998));
#1060=VERTEX_POINT('',#1059);
#1061=CARTESIAN_POINT('',(2.0,-3.061617E-017,3.799999999999998));
#1062=DIRECTION('',(0.0,0.0,-1.0));
#1063=VECTOR('',#1062,2.4);
#1064=LINE('',#1061,#1063);
#1065=EDGE_CURVE('',#1051,#1060,#1064,.T.);
#1066=ORIENTED_EDGE('',*,*,#1065,.T.);
#1067=CARTESIAN_POINT('',(2.25,0.0,1.399999999999998));
#1068=DIRECTION('',(0.0,0.0,-1.0));
#1069=DIRECTION('',(1.0,0.0,0.0));
#1070=AXIS2_PLACEMENT_3D('',#1067,#1068,#1069);
#1071=CIRCLE('',#1070,0.25);
#1072=EDGE_CURVE('',#1043,#1060,#1071,.T.);
#1073=ORIENTED_EDGE('',*,*,#1072,.F.);
#1074=EDGE_LOOP('',(#1049,#1058,#1066,#1073));
#1075=FACE_OUTER_BOUND('',#1074,.T.);
#1076=ADVANCED_FACE('',(#1075),#1039,.T.);
#1077=CARTESIAN_POINT('',(2.25,0.0,2.599999999999998));
#1078=DIRECTION('',(0.0,0.0,1.0));
#1079=DIRECTION('',(1.0,0.0,0.0));
#1080=AXIS2_PLACEMENT_3D('',#1077,#1078,#1079);
#1081=CYLINDRICAL_SURFACE('',#1080,0.25);
#1082=ORIENTED_EDGE('',*,*,#1048,.T.);
#1083=CARTESIAN_POINT('',(2.25,0.0,1.399999999999998));
#1084=DIRECTION('',(0.0,0.0,-1.0));
#1085=DIRECTION('',(1.0,0.0,0.0));
#1086=AXIS2_PLACEMENT_3D('',#1083,#1084,#1085);
#1087=CIRCLE('',#1086,0.25);
#1088=EDGE_CURVE('',#1060,#1043,#1087,.T.);
#1089=ORIENTED_EDGE('',*,*,#1088,.F.);
#1090=ORIENTED_EDGE('',*,*,#1065,.F.);
#1091=CARTESIAN_POINT('',(2.25,0.0,3.799999999999998));
#1092=DIRECTION('',(0.0,0.0,1.0));
#1093=DIRECTION('',(1.0,0.0,0.0));
#1094=AXIS2_PLACEMENT_3D('',#1091,#1092,#1093);
#1095=CIRCLE('',#1094,0.25);
#1096=EDGE_CURVE('',#1041,#1051,#1095,.T.);
#1097=ORIENTED_EDGE('',*,*,#1096,.F.);
#1098=EDGE_LOOP('',(#1082,#1089,#1090,#1097));
#1099=FACE_OUTER_BOUND('',#1098,.T.);
#1100=ADVANCED_FACE('',(#1099),#1081,.T.);
#1101=CARTESIAN_POINT('',(2.25,0.0,1.399999999999998));
#1102=DIRECTION('',(0.0,0.0,-1.0));
#1103=DIRECTION('',(-1.0,0.0,0.0));
#1104=AXIS2_PLACEMENT_3D('',#1101,#1102,#1103);
#1105=PLANE('',#1104);
#1106=ORIENTED_EDGE('',*,*,#1072,.T.);
#1107=ORIENTED_EDGE('',*,*,#1088,.T.);
#1108=EDGE_LOOP('',(#1106,#1107));
#1109=FACE_OUTER_BOUND('',#1108,.T.);
#1110=ADVANCED_FACE('',(#1109),#1105,.T.);
#1111=CARTESIAN_POINT('',(2.25,0.0,3.799999999999998));
#1112=DIRECTION('',(0.0,0.0,1.0));
#1113=DIRECTION('',(1.0,0.0,0.0));
#1114=AXIS2_PLACEMENT_3D('',#1111,#1112,#1113);
#1115=PLANE('',#1114);
#1116=ORIENTED_EDGE('',*,*,#1096,.T.);
#1117=ORIENTED_EDGE('',*,*,#1057,.T.);
#1118=EDGE_LOOP('',(#1116,#1117));
#1119=FACE_OUTER_BOUND('',#1118,.T.);
#1120=ADVANCED_FACE('',(#1119),#1115,.T.);
#1121=CLOSED_SHELL('',(#1076,#1100,#1110,#1120));
#1122=MANIFOLD_SOLID_BREP('2C3B',#1121);
#1123=STYLED_ITEM('NONE',(#1033),#1122);
#1124=CARTESIAN_POINT('',(0.75,-8.881784E-016,-1.350000000000001));
#1125=DIRECTION('',(0.0,0.0,1.0));
#1126=DIRECTION('',(1.0,0.0,0.0));
#1127=AXIS2_PLACEMENT_3D('',#1124,#1125,#1126);
#1128=CYLINDRICAL_SURFACE('',#1127,0.25);
#1129=CARTESIAN_POINT('',(1.0,-8.881784E-016,0.0));
#1130=VERTEX_POINT('',#1129);
#1131=CARTESIAN_POINT('',(1.0,-8.881784E-016,-2.700000000000002));
#1132=VERTEX_POINT('',#1131);
#1133=CARTESIAN_POINT('',(0.999999999999999,-8.881784E-016,0.0));
#1134=DIRECTION('',(0.0,0.0,-1.0));
#1135=VECTOR('',#1134,2.700000000000002);
#1136=LINE('',#1133,#1135);
#1137=EDGE_CURVE('',#1130,#1132,#1136,.T.);
#1138=ORIENTED_EDGE('',*,*,#1137,.F.);
#1139=CARTESIAN_POINT('',(0.5,-9.187946E-016,0.0));
#1140=VERTEX_POINT('',#1139);
#1141=CARTESIAN_POINT('',(0.75,-8.881784E-016,0.0));
#1142=DIRECTION('',(0.0,0.0,1.0));
#1143=DIRECTION('',(1.0,0.0,0.0));
#1144=AXIS2_PLACEMENT_3D('',#1141,#1142,#1143);
#1145=CIRCLE('',#1144,0.25);
#1146=EDGE_CURVE('',#1140,#1130,#1145,.T.);
#1147=ORIENTED_EDGE('',*,*,#1146,.F.);
#1148=CARTESIAN_POINT('',(0.5,-9.187946E-016,-2.700000000000002));
#1149=VERTEX_POINT('',#1148);
#1150=CARTESIAN_POINT('',(0.5,-9.187946E-016,0.0));
#1151=DIRECTION('',(0.0,0.0,-1.0));
#1152=VECTOR('',#1151,2.700000000000002);
#1153=LINE('',#1150,#1152);
#1154=EDGE_CURVE('',#1140,#1149,#1153,.T.);
#1155=ORIENTED_EDGE('',*,*,#1154,.T.);
#1156=CARTESIAN_POINT('',(0.75,-8.881784E-016,-2.700000000000002));
#1157=DIRECTION('',(0.0,0.0,-1.0));
#1158=DIRECTION('',(1.0,0.0,0.0));
#1159=AXIS2_PLACEMENT_3D('',#1156,#1157,#1158);
#1160=CIRCLE('',#1159,0.25);
#1161=EDGE_CURVE('',#1132,#1149,#1160,.T.);
#1162=ORIENTED_EDGE('',*,*,#1161,.F.);
#1163=EDGE_LOOP('',(#1138,#1147,#1155,#1162));
#1164=FACE_OUTER_BOUND('',#1163,.T.);
#1165=ADVANCED_FACE('',(#1164),#1128,.T.);
#1166=CARTESIAN_POINT('',(0.75,-8.881784E-016,-1.350000000000001));
#1167=DIRECTION('',(0.0,0.0,1.0));
#1168=DIRECTION('',(1.0,0.0,0.0));
#1169=AXIS2_PLACEMENT_3D('',#1166,#1167,#1168);
#1170=CYLINDRICAL_SURFACE('',#1169,0.25);
#1171=ORIENTED_EDGE('',*,*,#1137,.T.);
#1172=CARTESIAN_POINT('',(0.75,-8.881784E-016,-2.700000000000002));
#1173=DIRECTION('',(0.0,0.0,-1.0));
#1174=DIRECTION('',(1.0,0.0,0.0));
#1175=AXIS2_PLACEMENT_3D('',#1172,#1173,#1174);
#1176=CIRCLE('',#1175,0.25);
#1177=EDGE_CURVE('',#1149,#1132,#1176,.T.);
#1178=ORIENTED_EDGE('',*,*,#1177,.F.);
#1179=ORIENTED_EDGE('',*,*,#1154,.F.);
#1180=CARTESIAN_POINT('',(0.75,-8.881784E-016,0.0));
#1181=DIRECTION('',(0.0,0.0,1.0));
#1182=DIRECTION('',(1.0,0.0,0.0));
#1183=AXIS2_PLACEMENT_3D('',#1180,#1181,#1182);
#1184=CIRCLE('',#1183,0.25);
#1185=EDGE_CURVE('',#1130,#1140,#1184,.T.);
#1186=ORIENTED_EDGE('',*,*,#1185,.F.);
#1187=EDGE_LOOP('',(#1171,#1178,#1179,#1186));
#1188=FACE_OUTER_BOUND('',#1187,.T.);
#1189=ADVANCED_FACE('',(#1188),#1170,.T.);
#1190=CARTESIAN_POINT('',(0.75,-8.881784E-016,-2.700000000000002));
#1191=DIRECTION('',(0.0,0.0,-1.0));
#1192=DIRECTION('',(-1.0,0.0,0.0));
#1193=AXIS2_PLACEMENT_3D('',#1190,#1191,#1192);
#1194=PLANE('',#1193);
#1195=ORIENTED_EDGE('',*,*,#1161,.T.);
#1196=ORIENTED_EDGE('',*,*,#1177,.T.);
#1197=EDGE_LOOP('',(#1195,#1196));
#1198=FACE_OUTER_BOUND('',#1197,.T.);
#1199=ADVANCED_FACE('',(#1198),#1194,.T.);
#1200=CARTESIAN_POINT('',(0.75,-8.881784E-016,0.0));
#1201=DIRECTION('',(0.0,0.0,1.0));
#1202=DIRECTION('',(1.0,0.0,0.0));
#1203=AXIS2_PLACEMENT_3D('',#1200,#1201,#1202);
#1204=PLANE('',#1203);
#1205=ORIENTED_EDGE('',*,*,#1185,.T.);
#1206=ORIENTED_EDGE('',*,*,#1146,.T.);
#1207=EDGE_LOOP('',(#1205,#1206));
#1208=FACE_OUTER_BOUND('',#1207,.T.);
#1209=ADVANCED_FACE('',(#1208),#1204,.T.);
#1210=CLOSED_SHELL('',(#1165,#1189,#1199,#1209));
#1211=MANIFOLD_SOLID_BREP('2C37',#1210);
#1212=STYLED_ITEM('NONE',(#1033),#1211);
#1213=CARTESIAN_POINT('',(0.75,0.0,2.599999999999998));
#1214=DIRECTION('',(0.0,0.0,1.0));
#1215=DIRECTION('',(1.0,0.0,0.0));
#1216=AXIS2_PLACEMENT_3D('',#1213,#1214,#1215);
#1217=CYLINDRICAL_SURFACE('',#1216,0.25);
#1218=CARTESIAN_POINT('',(1.0,0.0,3.799999999999998));
#1219=VERTEX_POINT('',#1218);
#1220=CARTESIAN_POINT('',(1.0,0.0,1.399999999999998));
#1221=VERTEX_POINT('',#1220);
#1222=CARTESIAN_POINT('',(1.0,0.0,3.799999999999998));
#1223=DIRECTION('',(0.0,0.0,-1.0));
#1224=VECTOR('',#1223,2.4);
#1225=LINE('',#1222,#1224);
#1226=EDGE_CURVE('',#1219,#1221,#1225,.T.);
#1227=ORIENTED_EDGE('',*,*,#1226,.F.);
#1228=CARTESIAN_POINT('',(0.5,-3.061617E-017,3.799999999999998));
#1229=VERTEX_POINT('',#1228);
#1230=CARTESIAN_POINT('',(0.75,0.0,3.799999999999998));
#1231=DIRECTION('',(0.0,0.0,1.0));
#1232=DIRECTION('',(1.0,0.0,0.0));
#1233=AXIS2_PLACEMENT_3D('',#1230,#1231,#1232);
#1234=CIRCLE('',#1233,0.25);
#1235=EDGE_CURVE('',#1229,#1219,#1234,.T.);
#1236=ORIENTED_EDGE('',*,*,#1235,.F.);
#1237=CARTESIAN_POINT('',(0.5,-3.061617E-017,1.399999999999998));
#1238=VERTEX_POINT('',#1237);
#1239=CARTESIAN_POINT('',(0.5,-3.061617E-017,3.799999999999998));
#1240=DIRECTION('',(0.0,0.0,-1.0));
#1241=VECTOR('',#1240,2.4);
#1242=LINE('',#1239,#1241);
#1243=EDGE_CURVE('',#1229,#1238,#1242,.T.);
#1244=ORIENTED_EDGE('',*,*,#1243,.T.);
#1245=CARTESIAN_POINT('',(0.75,0.0,1.399999999999998));
#1246=DIRECTION('',(0.0,0.0,-1.0));
#1247=DIRECTION('',(1.0,0.0,0.0));
#1248=AXIS2_PLACEMENT_3D('',#1245,#1246,#1247);
#1249=CIRCLE('',#1248,0.25);
#1250=EDGE_CURVE('',#1221,#1238,#1249,.T.);
#1251=ORIENTED_EDGE('',*,*,#1250,.F.);
#1252=EDGE_LOOP('',(#1227,#1236,#1244,#1251));
#1253=FACE_OUTER_BOUND('',#1252,.T.);
#1254=ADVANCED_FACE('',(#1253),#1217,.T.);
#1255=CARTESIAN_POINT('',(0.75,0.0,2.599999999999998));
#1256=DIRECTION('',(0.0,0.0,1.0));
#1257=DIRECTION('',(1.0,0.0,0.0));
#1258=AXIS2_PLACEMENT_3D('',#1255,#1256,#1257);
#1259=CYLINDRICAL_SURFACE('',#1258,0.25);
#1260=ORIENTED_EDGE('',*,*,#1226,.T.);
#1261=CARTESIAN_POINT('',(0.75,0.0,1.399999999999998));
#1262=DIRECTION('',(0.0,0.0,-1.0));
#1263=DIRECTION('',(1.0,0.0,0.0));
#1264=AXIS2_PLACEMENT_3D('',#1261,#1262,#1263);
#1265=CIRCLE('',#1264,0.25);
#1266=EDGE_CURVE('',#1238,#1221,#1265,.T.);
#1267=ORIENTED_EDGE('',*,*,#1266,.F.);
#1268=ORIENTED_EDGE('',*,*,#1243,.F.);
#1269=CARTESIAN_POINT('',(0.75,0.0,3.799999999999998));
#1270=DIRECTION('',(0.0,0.0,1.0));
#1271=DIRECTION('',(1.0,0.0,0.0));
#1272=AXIS2_PLACEMENT_3D('',#1269,#1270,#1271);
#1273=CIRCLE('',#1272,0.25);
#1274=EDGE_CURVE('',#1219,#1229,#1273,.T.);
#1275=ORIENTED_EDGE('',*,*,#1274,.F.);
#1276=EDGE_LOOP('',(#1260,#1267,#1268,#1275));
#1277=FACE_OUTER_BOUND('',#1276,.T.);
#1278=ADVANCED_FACE('',(#1277),#1259,.T.);
#1279=CARTESIAN_POINT('',(0.75,0.0,1.399999999999998));
#1280=DIRECTION('',(0.0,0.0,-1.0));
#1281=DIRECTION('',(-1.0,0.0,0.0));
#1282=AXIS2_PLACEMENT_3D('',#1279,#1280,#1281);
#1283=PLANE('',#1282);
#1284=ORIENTED_EDGE('',*,*,#1250,.T.);
#1285=ORIENTED_EDGE('',*,*,#1266,.T.);
#1286=EDGE_LOOP('',(#1284,#1285));
#1287=FACE_OUTER_BOUND('',#1286,.T.);
#1288=ADVANCED_FACE('',(#1287),#1283,.T.);
#1289=CARTESIAN_POINT('',(0.75,0.0,3.799999999999998));
#1290=DIRECTION('',(0.0,0.0,1.0));
#1291=DIRECTION('',(1.0,0.0,0.0));
#1292=AXIS2_PLACEMENT_3D('',#1289,#1290,#1291);
#1293=PLANE('',#1292);
#1294=ORIENTED_EDGE('',*,*,#1274,.T.);
#1295=ORIENTED_EDGE('',*,*,#1235,.T.);
#1296=EDGE_LOOP('',(#1294,#1295));
#1297=FACE_OUTER_BOUND('',#1296,.T.);
#1298=ADVANCED_FACE('',(#1297),#1293,.T.);
#1299=CLOSED_SHELL('',(#1254,#1278,#1288,#1298));
#1300=MANIFOLD_SOLID_BREP('2C33',#1299);
#1301=STYLED_ITEM('NONE',(#1033),#1300);
#1302=CARTESIAN_POINT('',(-0.75,-8.881784E-016,-1.350000000000001));
#1303=DIRECTION('',(0.0,0.0,1.0));
#1304=DIRECTION('',(1.0,0.0,0.0));
#1305=AXIS2_PLACEMENT_3D('',#1302,#1303,#1304);
#1306=CYLINDRICAL_SURFACE('',#1305,0.25);
#1307=CARTESIAN_POINT('',(-0.5,-8.881784E-016,0.0));
#1308=VERTEX_POINT('',#1307);
#1309=CARTESIAN_POINT('',(-0.5,-8.881784E-016,-2.700000000000002));
#1310=VERTEX_POINT('',#1309);
#1311=CARTESIAN_POINT('',(-0.500000000000001,-8.881784E-016,0.0));
#1312=DIRECTION('',(0.0,0.0,-1.0));
#1313=VECTOR('',#1312,2.700000000000002);
#1314=LINE('',#1311,#1313);
#1315=EDGE_CURVE('',#1308,#1310,#1314,.T.);
#1316=ORIENTED_EDGE('',*,*,#1315,.F.);
#1317=CARTESIAN_POINT('',(-1.0,-9.187946E-016,0.0));
#1318=VERTEX_POINT('',#1317);
#1319=CARTESIAN_POINT('',(-0.75,-8.881784E-016,0.0));
#1320=DIRECTION('',(0.0,0.0,1.0));
#1321=DIRECTION('',(1.0,0.0,0.0));
#1322=AXIS2_PLACEMENT_3D('',#1319,#1320,#1321);
#1323=CIRCLE('',#1322,0.25);
#1324=EDGE_CURVE('',#1318,#1308,#1323,.T.);
#1325=ORIENTED_EDGE('',*,*,#1324,.F.);
#1326=CARTESIAN_POINT('',(-1.0,-9.187946E-016,-2.700000000000002));
#1327=VERTEX_POINT('',#1326);
#1328=CARTESIAN_POINT('',(-1.0,-9.187946E-016,0.0));
#1329=DIRECTION('',(0.0,0.0,-1.0));
#1330=VECTOR('',#1329,2.700000000000002);
#1331=LINE('',#1328,#1330);
#1332=EDGE_CURVE('',#1318,#1327,#1331,.T.);
#1333=ORIENTED_EDGE('',*,*,#1332,.T.);
#1334=CARTESIAN_POINT('',(-0.75,-8.881784E-016,-2.700000000000002));
#1335=DIRECTION('',(0.0,0.0,-1.0));
#1336=DIRECTION('',(1.0,0.0,0.0));
#1337=AXIS2_PLACEMENT_3D('',#1334,#1335,#1336);
#1338=CIRCLE('',#1337,0.25);
#1339=EDGE_CURVE('',#1310,#1327,#1338,.T.);
#1340=ORIENTED_EDGE('',*,*,#1339,.F.);
#1341=EDGE_LOOP('',(#1316,#1325,#1333,#1340));
#1342=FACE_OUTER_BOUND('',#1341,.T.);
#1343=ADVANCED_FACE('',(#1342),#1306,.T.);
#1344=CARTESIAN_POINT('',(-0.75,-8.881784E-016,-1.350000000000001));
#1345=DIRECTION('',(0.0,0.0,1.0));
#1346=DIRECTION('',(1.0,0.0,0.0));
#1347=AXIS2_PLACEMENT_3D('',#1344,#1345,#1346);
#1348=CYLINDRICAL_SURFACE('',#1347,0.25);
#1349=ORIENTED_EDGE('',*,*,#1315,.T.);
#1350=CARTESIAN_POINT('',(-0.75,-8.881784E-016,-2.700000000000002));
#1351=DIRECTION('',(0.0,0.0,-1.0));
#1352=DIRECTION('',(1.0,0.0,0.0));
#1353=AXIS2_PLACEMENT_3D('',#1350,#1351,#1352);
#1354=CIRCLE('',#1353,0.25);
#1355=EDGE_CURVE('',#1327,#1310,#1354,.T.);
#1356=ORIENTED_EDGE('',*,*,#1355,.F.);
#1357=ORIENTED_EDGE('',*,*,#1332,.F.);
#1358=CARTESIAN_POINT('',(-0.75,-8.881784E-016,0.0));
#1359=DIRECTION('',(0.0,0.0,1.0));
#1360=DIRECTION('',(1.0,0.0,0.0));
#1361=AXIS2_PLACEMENT_3D('',#1358,#1359,#1360);
#1362=CIRCLE('',#1361,0.25);
#1363=EDGE_CURVE('',#1308,#1318,#1362,.T.);
#1364=ORIENTED_EDGE('',*,*,#1363,.F.);
#1365=EDGE_LOOP('',(#1349,#1356,#1357,#1364));
#1366=FACE_OUTER_BOUND('',#1365,.T.);
#1367=ADVANCED_FACE('',(#1366),#1348,.T.);
#1368=CARTESIAN_POINT('',(-0.75,-8.881784E-016,-2.700000000000002));
#1369=DIRECTION('',(0.0,0.0,-1.0));
#1370=DIRECTION('',(-1.0,0.0,0.0));
#1371=AXIS2_PLACEMENT_3D('',#1368,#1369,#1370);
#1372=PLANE('',#1371);
#1373=ORIENTED_EDGE('',*,*,#1339,.T.);
#1374=ORIENTED_EDGE('',*,*,#1355,.T.);
#1375=EDGE_LOOP('',(#1373,#1374));
#1376=FACE_OUTER_BOUND('',#1375,.T.);
#1377=ADVANCED_FACE('',(#1376),#1372,.T.);
#1378=CARTESIAN_POINT('',(-0.75,-8.881784E-016,0.0));
#1379=DIRECTION('',(0.0,0.0,1.0));
#1380=DIRECTION('',(1.0,0.0,0.0));
#1381=AXIS2_PLACEMENT_3D('',#1378,#1379,#1380);
#1382=PLANE('',#1381);
#1383=ORIENTED_EDGE('',*,*,#1363,.T.);
#1384=ORIENTED_EDGE('',*,*,#1324,.T.);
#1385=EDGE_LOOP('',(#1383,#1384));
#1386=FACE_OUTER_BOUND('',#1385,.T.);
#1387=ADVANCED_FACE('',(#1386),#1382,.T.);
#1388=CLOSED_SHELL('',(#1343,#1367,#1377,#1387));
#1389=MANIFOLD_SOLID_BREP('2C2F',#1388);
#1390=STYLED_ITEM('NONE',(#1033),#1389);
#1391=CARTESIAN_POINT('',(-0.75,0.0,2.599999999999998));
#1392=DIRECTION('',(0.0,0.0,1.0));
#1393=DIRECTION('',(1.0,0.0,0.0));
#1394=AXIS2_PLACEMENT_3D('',#1391,#1392,#1393);
#1395=CYLINDRICAL_SURFACE('',#1394,0.25);
#1396=CARTESIAN_POINT('',(-0.5,0.0,3.799999999999998));
#1397=VERTEX_POINT('',#1396);
#1398=CARTESIAN_POINT('',(-0.5,0.0,1.399999999999998));
#1399=VERTEX_POINT('',#1398);
#1400=CARTESIAN_POINT('',(-0.5,0.0,3.799999999999998));
#1401=DIRECTION('',(0.0,0.0,-1.0));
#1402=VECTOR('',#1401,2.4);
#1403=LINE('',#1400,#1402);
#1404=EDGE_CURVE('',#1397,#1399,#1403,.T.);
#1405=ORIENTED_EDGE('',*,*,#1404,.F.);
#1406=CARTESIAN_POINT('',(-1.0,-3.061617E-017,3.799999999999998));
#1407=VERTEX_POINT('',#1406);
#1408=CARTESIAN_POINT('',(-0.75,0.0,3.799999999999998));
#1409=DIRECTION('',(0.0,0.0,1.0));
#1410=DIRECTION('',(1.0,0.0,0.0));
#1411=AXIS2_PLACEMENT_3D('',#1408,#1409,#1410);
#1412=CIRCLE('',#1411,0.25);
#1413=EDGE_CURVE('',#1407,#1397,#1412,.T.);
#1414=ORIENTED_EDGE('',*,*,#1413,.F.);
#1415=CARTESIAN_POINT('',(-1.0,-3.061617E-017,1.399999999999998));
#1416=VERTEX_POINT('',#1415);
#1417=CARTESIAN_POINT('',(-1.0,-3.061617E-017,3.799999999999998));
#1418=DIRECTION('',(0.0,0.0,-1.0));
#1419=VECTOR('',#1418,2.4);
#1420=LINE('',#1417,#1419);
#1421=EDGE_CURVE('',#1407,#1416,#1420,.T.);
#1422=ORIENTED_EDGE('',*,*,#1421,.T.);
#1423=CARTESIAN_POINT('',(-0.75,0.0,1.399999999999998));
#1424=DIRECTION('',(0.0,0.0,-1.0));
#1425=DIRECTION('',(1.0,0.0,0.0));
#1426=AXIS2_PLACEMENT_3D('',#1423,#1424,#1425);
#1427=CIRCLE('',#1426,0.25);
#1428=EDGE_CURVE('',#1399,#1416,#1427,.T.);
#1429=ORIENTED_EDGE('',*,*,#1428,.F.);
#1430=EDGE_LOOP('',(#1405,#1414,#1422,#1429));
#1431=FACE_OUTER_BOUND('',#1430,.T.);
#1432=ADVANCED_FACE('',(#1431),#1395,.T.);
#1433=CARTESIAN_POINT('',(-0.75,0.0,2.599999999999998));
#1434=DIRECTION('',(0.0,0.0,1.0));
#1435=DIRECTION('',(1.0,0.0,0.0));
#1436=AXIS2_PLACEMENT_3D('',#1433,#1434,#1435);
#1437=CYLINDRICAL_SURFACE('',#1436,0.25);
#1438=ORIENTED_EDGE('',*,*,#1404,.T.);
#1439=CARTESIAN_POINT('',(-0.75,0.0,1.399999999999998));
#1440=DIRECTION('',(0.0,0.0,-1.0));
#1441=DIRECTION('',(1.0,0.0,0.0));
#1442=AXIS2_PLACEMENT_3D('',#1439,#1440,#1441);
#1443=CIRCLE('',#1442,0.25);
#1444=EDGE_CURVE('',#1416,#1399,#1443,.T.);
#1445=ORIENTED_EDGE('',*,*,#1444,.F.);
#1446=ORIENTED_EDGE('',*,*,#1421,.F.);
#1447=CARTESIAN_POINT('',(-0.75,0.0,3.799999999999998));
#1448=DIRECTION('',(0.0,0.0,1.0));
#1449=DIRECTION('',(1.0,0.0,0.0));
#1450=AXIS2_PLACEMENT_3D('',#1447,#1448,#1449);
#1451=CIRCLE('',#1450,0.25);
#1452=EDGE_CURVE('',#1397,#1407,#1451,.T.);
#1453=ORIENTED_EDGE('',*,*,#1452,.F.);
#1454=EDGE_LOOP('',(#1438,#1445,#1446,#1453));
#1455=FACE_OUTER_BOUND('',#1454,.T.);
#1456=ADVANCED_FACE('',(#1455),#1437,.T.);
#1457=CARTESIAN_POINT('',(-0.75,0.0,1.399999999999998));
#1458=DIRECTION('',(0.0,0.0,-1.0));
#1459=DIRECTION('',(-1.0,0.0,0.0));
#1460=AXIS2_PLACEMENT_3D('',#1457,#1458,#1459);
#1461=PLANE('',#1460);
#1462=ORIENTED_EDGE('',*,*,#1428,.T.);
#1463=ORIENTED_EDGE('',*,*,#1444,.T.);
#1464=EDGE_LOOP('',(#1462,#1463));
#1465=FACE_OUTER_BOUND('',#1464,.T.);
#1466=ADVANCED_FACE('',(#1465),#1461,.T.);
#1467=CARTESIAN_POINT('',(-0.75,0.0,3.799999999999998));
#1468=DIRECTION('',(0.0,0.0,1.0));
#1469=DIRECTION('',(1.0,0.0,0.0));
#1470=AXIS2_PLACEMENT_3D('',#1467,#1468,#1469);
#1471=PLANE('',#1470);
#1472=ORIENTED_EDGE('',*,*,#1452,.T.);
#1473=ORIENTED_EDGE('',*,*,#1413,.T.);
#1474=EDGE_LOOP('',(#1472,#1473));
#1475=FACE_OUTER_BOUND('',#1474,.T.);
#1476=ADVANCED_FACE('',(#1475),#1471,.T.);
#1477=CLOSED_SHELL('',(#1432,#1456,#1466,#1476));
#1478=MANIFOLD_SOLID_BREP('2C2B',#1477);
#1479=STYLED_ITEM('NONE',(#1033),#1478);
#1480=CARTESIAN_POINT('',(-2.25,-8.881784E-016,-1.350000000000001));
#1481=DIRECTION('',(0.0,0.0,1.0));
#1482=DIRECTION('',(1.0,0.0,0.0));
#1483=AXIS2_PLACEMENT_3D('',#1480,#1481,#1482);
#1484=CYLINDRICAL_SURFACE('',#1483,0.25);
#1485=CARTESIAN_POINT('',(-2.0,-8.881784E-016,0.0));
#1486=VERTEX_POINT('',#1485);
#1487=CARTESIAN_POINT('',(-2.0,-8.881784E-016,-2.700000000000002));
#1488=VERTEX_POINT('',#1487);
#1489=CARTESIAN_POINT('',(-2.0,-8.881784E-016,0.0));
#1490=DIRECTION('',(0.0,0.0,-1.0));
#1491=VECTOR('',#1490,2.700000000000002);
#1492=LINE('',#1489,#1491);
#1493=EDGE_CURVE('',#1486,#1488,#1492,.T.);
#1494=ORIENTED_EDGE('',*,*,#1493,.F.);
#1495=CARTESIAN_POINT('',(-2.5,-9.187946E-016,0.0));
#1496=VERTEX_POINT('',#1495);
#1497=CARTESIAN_POINT('',(-2.25,-8.881784E-016,0.0));
#1498=DIRECTION('',(0.0,0.0,1.0));
#1499=DIRECTION('',(1.0,0.0,0.0));
#1500=AXIS2_PLACEMENT_3D('',#1497,#1498,#1499);
#1501=CIRCLE('',#1500,0.25);
#1502=EDGE_CURVE('',#1496,#1486,#1501,.T.);
#1503=ORIENTED_EDGE('',*,*,#1502,.F.);
#1504=CARTESIAN_POINT('',(-2.5,-9.187946E-016,-2.700000000000002));
#1505=VERTEX_POINT('',#1504);
#1506=CARTESIAN_POINT('',(-2.5,-9.187946E-016,0.0));
#1507=DIRECTION('',(0.0,0.0,-1.0));
#1508=VECTOR('',#1507,2.700000000000002);
#1509=LINE('',#1506,#1508);
#1510=EDGE_CURVE('',#1496,#1505,#1509,.T.);
#1511=ORIENTED_EDGE('',*,*,#1510,.T.);
#1512=CARTESIAN_POINT('',(-2.25,-8.881784E-016,-2.700000000000002));
#1513=DIRECTION('',(0.0,0.0,-1.0));
#1514=DIRECTION('',(1.0,0.0,0.0));
#1515=AXIS2_PLACEMENT_3D('',#1512,#1513,#1514);
#1516=CIRCLE('',#1515,0.25);
#1517=EDGE_CURVE('',#1488,#1505,#1516,.T.);
#1518=ORIENTED_EDGE('',*,*,#1517,.F.);
#1519=EDGE_LOOP('',(#1494,#1503,#1511,#1518));
#1520=FACE_OUTER_BOUND('',#1519,.T.);
#1521=ADVANCED_FACE('',(#1520),#1484,.T.);
#1522=CARTESIAN_POINT('',(-2.25,-8.881784E-016,-1.350000000000001));
#1523=DIRECTION('',(0.0,0.0,1.0));
#1524=DIRECTION('',(1.0,0.0,0.0));
#1525=AXIS2_PLACEMENT_3D('',#1522,#1523,#1524);
#1526=CYLINDRICAL_SURFACE('',#1525,0.25);
#1527=ORIENTED_EDGE('',*,*,#1493,.T.);
#1528=CARTESIAN_POINT('',(-2.25,-8.881784E-016,-2.700000000000002));
#1529=DIRECTION('',(0.0,0.0,-1.0));
#1530=DIRECTION('',(1.0,0.0,0.0));
#1531=AXIS2_PLACEMENT_3D('',#1528,#1529,#1530);
#1532=CIRCLE('',#1531,0.25);
#1533=EDGE_CURVE('',#1505,#1488,#1532,.T.);
#1534=ORIENTED_EDGE('',*,*,#1533,.F.);
#1535=ORIENTED_EDGE('',*,*,#1510,.F.);
#1536=CARTESIAN_POINT('',(-2.25,-8.881784E-016,0.0));
#1537=DIRECTION('',(0.0,0.0,1.0));
#1538=DIRECTION('',(1.0,0.0,0.0));
#1539=AXIS2_PLACEMENT_3D('',#1536,#1537,#1538);
#1540=CIRCLE('',#1539,0.25);
#1541=EDGE_CURVE('',#1486,#1496,#1540,.T.);
#1542=ORIENTED_EDGE('',*,*,#1541,.F.);
#1543=EDGE_LOOP('',(#1527,#1534,#1535,#1542));
#1544=FACE_OUTER_BOUND('',#1543,.T.);
#1545=ADVANCED_FACE('',(#1544),#1526,.T.);
#1546=CARTESIAN_POINT('',(-2.25,-8.881784E-016,-2.700000000000002));
#1547=DIRECTION('',(0.0,0.0,-1.0));
#1548=DIRECTION('',(-1.0,0.0,0.0));
#1549=AXIS2_PLACEMENT_3D('',#1546,#1547,#1548);
#1550=PLANE('',#1549);
#1551=ORIENTED_EDGE('',*,*,#1517,.T.);
#1552=ORIENTED_EDGE('',*,*,#1533,.T.);
#1553=EDGE_LOOP('',(#1551,#1552));
#1554=FACE_OUTER_BOUND('',#1553,.T.);
#1555=ADVANCED_FACE('',(#1554),#1550,.T.);
#1556=CARTESIAN_POINT('',(-2.25,-8.881784E-016,0.0));
#1557=DIRECTION('',(0.0,0.0,1.0));
#1558=DIRECTION('',(1.0,0.0,0.0));
#1559=AXIS2_PLACEMENT_3D('',#1556,#1557,#1558);
#1560=PLANE('',#1559);
#1561=ORIENTED_EDGE('',*,*,#1541,.T.);
#1562=ORIENTED_EDGE('',*,*,#1502,.T.);
#1563=EDGE_LOOP('',(#1561,#1562));
#1564=FACE_OUTER_BOUND('',#1563,.T.);
#1565=ADVANCED_FACE('',(#1564),#1560,.T.);
#1566=CLOSED_SHELL('',(#1521,#1545,#1555,#1565));
#1567=MANIFOLD_SOLID_BREP('2C27',#1566);
#1568=STYLED_ITEM('NONE',(#1033),#1567);
#1569=CARTESIAN_POINT('',(-2.25,0.0,2.599999999999998));
#1570=DIRECTION('',(0.0,0.0,1.0));
#1571=DIRECTION('',(1.0,0.0,0.0));
#1572=AXIS2_PLACEMENT_3D('',#1569,#1570,#1571);
#1573=CYLINDRICAL_SURFACE('',#1572,0.25);
#1574=CARTESIAN_POINT('',(-2.0,0.0,3.799999999999998));
#1575=VERTEX_POINT('',#1574);
#1576=CARTESIAN_POINT('',(-2.0,0.0,1.399999999999998));
#1577=VERTEX_POINT('',#1576);
#1578=CARTESIAN_POINT('',(-2.0,0.0,3.799999999999998));
#1579=DIRECTION('',(0.0,0.0,-1.0));
#1580=VECTOR('',#1579,2.4);
#1581=LINE('',#1578,#1580);
#1582=EDGE_CURVE('',#1575,#1577,#1581,.T.);
#1583=ORIENTED_EDGE('',*,*,#1582,.F.);
#1584=CARTESIAN_POINT('',(-2.5,-3.061617E-017,3.799999999999998));
#1585=VERTEX_POINT('',#1584);
#1586=CARTESIAN_POINT('',(-2.25,0.0,3.799999999999998));
#1587=DIRECTION('',(0.0,0.0,1.0));
#1588=DIRECTION('',(1.0,0.0,0.0));
#1589=AXIS2_PLACEMENT_3D('',#1586,#1587,#1588);
#1590=CIRCLE('',#1589,0.25);
#1591=EDGE_CURVE('',#1585,#1575,#1590,.T.);
#1592=ORIENTED_EDGE('',*,*,#1591,.F.);
#1593=CARTESIAN_POINT('',(-2.5,-3.061617E-017,1.399999999999998));
#1594=VERTEX_POINT('',#1593);
#1595=CARTESIAN_POINT('',(-2.5,-3.061617E-017,3.799999999999998));
#1596=DIRECTION('',(0.0,0.0,-1.0));
#1597=VECTOR('',#1596,2.4);
#1598=LINE('',#1595,#1597);
#1599=EDGE_CURVE('',#1585,#1594,#1598,.T.);
#1600=ORIENTED_EDGE('',*,*,#1599,.T.);
#1601=CARTESIAN_POINT('',(-2.25,0.0,1.399999999999998));
#1602=DIRECTION('',(0.0,0.0,-1.0));
#1603=DIRECTION('',(1.0,0.0,0.0));
#1604=AXIS2_PLACEMENT_3D('',#1601,#1602,#1603);
#1605=CIRCLE('',#1604,0.25);
#1606=EDGE_CURVE('',#1577,#1594,#1605,.T.);
#1607=ORIENTED_EDGE('',*,*,#1606,.F.);
#1608=EDGE_LOOP('',(#1583,#1592,#1600,#1607));
#1609=FACE_OUTER_BOUND('',#1608,.T.);
#1610=ADVANCED_FACE('',(#1609),#1573,.T.);
#1611=CARTESIAN_POINT('',(-2.25,0.0,2.599999999999998));
#1612=DIRECTION('',(0.0,0.0,1.0));
#1613=DIRECTION('',(1.0,0.0,0.0));
#1614=AXIS2_PLACEMENT_3D('',#1611,#1612,#1613);
#1615=CYLINDRICAL_SURFACE('',#1614,0.25);
#1616=ORIENTED_EDGE('',*,*,#1582,.T.);
#1617=CARTESIAN_POINT('',(-2.25,0.0,1.399999999999998));
#1618=DIRECTION('',(0.0,0.0,-1.0));
#1619=DIRECTION('',(1.0,0.0,0.0));
#1620=AXIS2_PLACEMENT_3D('',#1617,#1618,#1619);
#1621=CIRCLE('',#1620,0.25);
#1622=EDGE_CURVE('',#1594,#1577,#1621,.T.);
#1623=ORIENTED_EDGE('',*,*,#1622,.F.);
#1624=ORIENTED_EDGE('',*,*,#1599,.F.);
#1625=CARTESIAN_POINT('',(-2.25,0.0,3.799999999999998));
#1626=DIRECTION('',(0.0,0.0,1.0));
#1627=DIRECTION('',(1.0,0.0,0.0));
#1628=AXIS2_PLACEMENT_3D('',#1625,#1626,#1627);
#1629=CIRCLE('',#1628,0.25);
#1630=EDGE_CURVE('',#1575,#1585,#1629,.T.);
#1631=ORIENTED_EDGE('',*,*,#1630,.F.);
#1632=EDGE_LOOP('',(#1616,#1623,#1624,#1631));
#1633=FACE_OUTER_BOUND('',#1632,.T.);
#1634=ADVANCED_FACE('',(#1633),#1615,.T.);
#1635=CARTESIAN_POINT('',(-2.25,0.0,1.399999999999998));
#1636=DIRECTION('',(0.0,0.0,-1.0));
#1637=DIRECTION('',(-1.0,0.0,0.0));
#1638=AXIS2_PLACEMENT_3D('',#1635,#1636,#1637);
#1639=PLANE('',#1638);
#1640=ORIENTED_EDGE('',*,*,#1606,.T.);
#1641=ORIENTED_EDGE('',*,*,#1622,.T.);
#1642=EDGE_LOOP('',(#1640,#1641));
#1643=FACE_OUTER_BOUND('',#1642,.T.);
#1644=ADVANCED_FACE('',(#1643),#1639,.T.);
#1645=CARTESIAN_POINT('',(-2.25,0.0,3.799999999999998));
#1646=DIRECTION('',(0.0,0.0,1.0));
#1647=DIRECTION('',(1.0,0.0,0.0));
#1648=AXIS2_PLACEMENT_3D('',#1645,#1646,#1647);
#1649=PLANE('',#1648);
#1650=ORIENTED_EDGE('',*,*,#1630,.T.);
#1651=ORIENTED_EDGE('',*,*,#1591,.T.);
#1652=EDGE_LOOP('',(#1650,#1651));
#1653=FACE_OUTER_BOUND('',#1652,.T.);
#1654=ADVANCED_FACE('',(#1653),#1649,.T.);
#1655=CLOSED_SHELL('',(#1610,#1634,#1644,#1654));
#1656=MANIFOLD_SOLID_BREP('2C23',#1655);
#1657=STYLED_ITEM('NONE',(#1033),#1656);
#1658=ADVANCED_BREP_SHAPE_REPRESENTATION('ABSR1',(#928,#1026,#1122,#1211,#1300,#1389,#1478,#1567,#1656),#28);
#1659=SHAPE_REPRESENTATION_RELATIONSHIP('SRRPL1','',#1658,#62);
ENDSEC;
END-ISO-10303-21;
