ISO-10303-21;
HEADER;
/* Generated by software containing ST-Developer
 * from STEP Tools, Inc. (www.steptools.com) 
 */

FILE_DESCRIPTION(
/* description */ (''),
/* implementation_level */ '2;1');

FILE_NAME(
/* name */ 
'G:\\Applications\\Altium\\CernLib\\StepLib\\LAKESHORE_HGT-2101.stp',
/* time_stamp */ '2016-10-14T17:00:12+02:00',
/* author */ ('riccim'),
/* organization */ ('SolidWorks'),
/* preprocessor_version */ 'ST-DEVELOPER v15.5',
/* originating_system */ 'AutoCAD Mechanical',
/* authorisation */ ' ');

FILE_SCHEMA (('AUTOMOTIVE_DESIGN { 1 0 10303 214 3 1 1 }'));
ENDSEC;

DATA;
#10=MECHANICAL_DESIGN_GEOMETRIC_PRESENTATION_REPRESENTATION('',(#17,#18,
#19,#20,#21),#779);
#11=DIMENSIONAL_EXPONENTS(0.,0.,0.,0.,0.,0.,0.);
#12=(
CONVERSION_BASED_UNIT('degree',#13)
NAMED_UNIT(#11)
PLANE_ANGLE_UNIT()
);
#13=PLANE_ANGLE_MEASURE_WITH_UNIT(PLANE_ANGLE_MEASURE(0.01745329252),#782);
#14=PRESENTATION_LAYER_ASSIGNMENT('3D','',(#487,#488,#489,#490,#491));
#15=SHAPE_REPRESENTATION_RELATIONSHIP('SRR','None',#785,#16);
#16=ADVANCED_BREP_SHAPE_REPRESENTATION($,(#487,#488,#489,#490,#491),#778);
#17=STYLED_ITEM($,(#795),#487);
#18=STYLED_ITEM($,(#796),#488);
#19=STYLED_ITEM($,(#796),#489);
#20=STYLED_ITEM($,(#796),#490);
#21=STYLED_ITEM($,(#796),#491);
#22=FACE_OUTER_BOUND($,#52,.T.);
#23=FACE_OUTER_BOUND($,#53,.T.);
#24=FACE_OUTER_BOUND($,#54,.T.);
#25=FACE_OUTER_BOUND($,#55,.T.);
#26=FACE_OUTER_BOUND($,#56,.T.);
#27=FACE_OUTER_BOUND($,#57,.T.);
#28=FACE_OUTER_BOUND($,#58,.T.);
#29=FACE_OUTER_BOUND($,#59,.T.);
#30=FACE_OUTER_BOUND($,#60,.T.);
#31=FACE_OUTER_BOUND($,#61,.T.);
#32=FACE_OUTER_BOUND($,#62,.T.);
#33=FACE_OUTER_BOUND($,#63,.T.);
#34=FACE_OUTER_BOUND($,#64,.T.);
#35=FACE_OUTER_BOUND($,#65,.T.);
#36=FACE_OUTER_BOUND($,#66,.T.);
#37=FACE_OUTER_BOUND($,#67,.T.);
#38=FACE_OUTER_BOUND($,#68,.T.);
#39=FACE_OUTER_BOUND($,#69,.T.);
#40=FACE_OUTER_BOUND($,#70,.T.);
#41=FACE_OUTER_BOUND($,#71,.T.);
#42=FACE_OUTER_BOUND($,#72,.T.);
#43=FACE_OUTER_BOUND($,#73,.T.);
#44=FACE_OUTER_BOUND($,#74,.T.);
#45=FACE_OUTER_BOUND($,#75,.T.);
#46=FACE_OUTER_BOUND($,#76,.T.);
#47=FACE_OUTER_BOUND($,#77,.T.);
#48=FACE_OUTER_BOUND($,#78,.T.);
#49=FACE_OUTER_BOUND($,#79,.T.);
#50=FACE_OUTER_BOUND($,#80,.T.);
#51=FACE_OUTER_BOUND($,#81,.T.);
#52=EDGE_LOOP($,(#302,#303,#304,#305));
#53=EDGE_LOOP($,(#306,#307,#308,#309));
#54=EDGE_LOOP($,(#310,#311,#312,#313));
#55=EDGE_LOOP($,(#314,#315,#316,#317));
#56=EDGE_LOOP($,(#318,#319,#320,#321));
#57=EDGE_LOOP($,(#322,#323,#324,#325));
#58=EDGE_LOOP($,(#326,#327,#328,#329));
#59=EDGE_LOOP($,(#330,#331,#332,#333));
#60=EDGE_LOOP($,(#334,#335,#336,#337));
#61=EDGE_LOOP($,(#338,#339,#340,#341));
#62=EDGE_LOOP($,(#342,#343,#344,#345));
#63=EDGE_LOOP($,(#346,#347,#348,#349));
#64=EDGE_LOOP($,(#350,#351,#352,#353));
#65=EDGE_LOOP($,(#354,#355,#356,#357));
#66=EDGE_LOOP($,(#358,#359,#360,#361));
#67=EDGE_LOOP($,(#362,#363,#364,#365));
#68=EDGE_LOOP($,(#366,#367,#368,#369));
#69=EDGE_LOOP($,(#370,#371,#372,#373));
#70=EDGE_LOOP($,(#374,#375,#376,#377));
#71=EDGE_LOOP($,(#378,#379,#380,#381));
#72=EDGE_LOOP($,(#382,#383,#384,#385));
#73=EDGE_LOOP($,(#386,#387,#388,#389));
#74=EDGE_LOOP($,(#390,#391,#392,#393));
#75=EDGE_LOOP($,(#394,#395,#396,#397));
#76=EDGE_LOOP($,(#398,#399,#400,#401));
#77=EDGE_LOOP($,(#402,#403,#404,#405));
#78=EDGE_LOOP($,(#406,#407,#408,#409));
#79=EDGE_LOOP($,(#410,#411,#412,#413));
#80=EDGE_LOOP($,(#414,#415,#416,#417));
#81=EDGE_LOOP($,(#418,#419,#420,#421));
#82=LINE($,#649,#142);
#83=LINE($,#651,#143);
#84=LINE($,#653,#144);
#85=LINE($,#654,#145);
#86=LINE($,#657,#146);
#87=LINE($,#659,#147);
#88=LINE($,#660,#148);
#89=LINE($,#663,#149);
#90=LINE($,#665,#150);
#91=LINE($,#666,#151);
#92=LINE($,#668,#152);
#93=LINE($,#669,#153);
#94=LINE($,#675,#154);
#95=LINE($,#677,#155);
#96=LINE($,#679,#156);
#97=LINE($,#680,#157);
#98=LINE($,#683,#158);
#99=LINE($,#685,#159);
#100=LINE($,#686,#160);
#101=LINE($,#689,#161);
#102=LINE($,#691,#162);
#103=LINE($,#692,#163);
#104=LINE($,#694,#164);
#105=LINE($,#695,#165);
#106=LINE($,#701,#166);
#107=LINE($,#703,#167);
#108=LINE($,#705,#168);
#109=LINE($,#706,#169);
#110=LINE($,#709,#170);
#111=LINE($,#711,#171);
#112=LINE($,#712,#172);
#113=LINE($,#715,#173);
#114=LINE($,#717,#174);
#115=LINE($,#718,#175);
#116=LINE($,#720,#176);
#117=LINE($,#721,#177);
#118=LINE($,#727,#178);
#119=LINE($,#729,#179);
#120=LINE($,#731,#180);
#121=LINE($,#732,#181);
#122=LINE($,#735,#182);
#123=LINE($,#737,#183);
#124=LINE($,#738,#184);
#125=LINE($,#741,#185);
#126=LINE($,#743,#186);
#127=LINE($,#744,#187);
#128=LINE($,#746,#188);
#129=LINE($,#747,#189);
#130=LINE($,#753,#190);
#131=LINE($,#755,#191);
#132=LINE($,#757,#192);
#133=LINE($,#758,#193);
#134=LINE($,#761,#194);
#135=LINE($,#763,#195);
#136=LINE($,#764,#196);
#137=LINE($,#767,#197);
#138=LINE($,#769,#198);
#139=LINE($,#770,#199);
#140=LINE($,#772,#200);
#141=LINE($,#773,#201);
#142=VECTOR($,#527,1.65);
#143=VECTOR($,#528,0.7);
#144=VECTOR($,#529,1.65);
#145=VECTOR($,#530,0.7);
#146=VECTOR($,#533,1.65);
#147=VECTOR($,#534,1.65);
#148=VECTOR($,#535,0.7);
#149=VECTOR($,#538,1.65);
#150=VECTOR($,#539,1.65);
#151=VECTOR($,#540,0.7);
#152=VECTOR($,#543,1.65);
#153=VECTOR($,#544,1.65);
#154=VECTOR($,#551,0.1);
#155=VECTOR($,#552,0.3);
#156=VECTOR($,#553,0.1);
#157=VECTOR($,#554,0.3);
#158=VECTOR($,#557,0.550567888638631);
#159=VECTOR($,#558,0.550567888638631);
#160=VECTOR($,#559,0.3);
#161=VECTOR($,#562,0.1);
#162=VECTOR($,#563,0.1);
#163=VECTOR($,#564,0.3);
#164=VECTOR($,#567,0.550567888638631);
#165=VECTOR($,#568,0.550567888638631);
#166=VECTOR($,#575,0.1);
#167=VECTOR($,#576,0.3);
#168=VECTOR($,#577,0.1);
#169=VECTOR($,#578,0.3);
#170=VECTOR($,#581,0.550567888638631);
#171=VECTOR($,#582,0.550567888638631);
#172=VECTOR($,#583,0.3);
#173=VECTOR($,#586,0.1);
#174=VECTOR($,#587,0.1);
#175=VECTOR($,#588,0.3);
#176=VECTOR($,#591,0.550567888638631);
#177=VECTOR($,#592,0.550567888638631);
#178=VECTOR($,#599,0.1);
#179=VECTOR($,#600,0.3);
#180=VECTOR($,#601,0.1);
#181=VECTOR($,#602,0.3);
#182=VECTOR($,#605,0.550567888638631);
#183=VECTOR($,#606,0.3);
#184=VECTOR($,#607,0.550567888638631);
#185=VECTOR($,#610,0.1);
#186=VECTOR($,#611,0.3);
#187=VECTOR($,#612,0.1);
#188=VECTOR($,#615,0.550567888638631);
#189=VECTOR($,#616,0.550567888638631);
#190=VECTOR($,#623,0.1);
#191=VECTOR($,#624,0.3);
#192=VECTOR($,#625,0.1);
#193=VECTOR($,#626,0.3);
#194=VECTOR($,#629,0.550567888638631);
#195=VECTOR($,#630,0.3);
#196=VECTOR($,#631,0.550567888638631);
#197=VECTOR($,#634,0.1);
#198=VECTOR($,#635,0.3);
#199=VECTOR($,#636,0.1);
#200=VECTOR($,#639,0.550567888638631);
#201=VECTOR($,#640,0.550567888638631);
#202=VERTEX_POINT($,#647);
#203=VERTEX_POINT($,#648);
#204=VERTEX_POINT($,#650);
#205=VERTEX_POINT($,#652);
#206=VERTEX_POINT($,#656);
#207=VERTEX_POINT($,#658);
#208=VERTEX_POINT($,#662);
#209=VERTEX_POINT($,#664);
#210=VERTEX_POINT($,#673);
#211=VERTEX_POINT($,#674);
#212=VERTEX_POINT($,#676);
#213=VERTEX_POINT($,#678);
#214=VERTEX_POINT($,#682);
#215=VERTEX_POINT($,#684);
#216=VERTEX_POINT($,#688);
#217=VERTEX_POINT($,#690);
#218=VERTEX_POINT($,#699);
#219=VERTEX_POINT($,#700);
#220=VERTEX_POINT($,#702);
#221=VERTEX_POINT($,#704);
#222=VERTEX_POINT($,#708);
#223=VERTEX_POINT($,#710);
#224=VERTEX_POINT($,#714);
#225=VERTEX_POINT($,#716);
#226=VERTEX_POINT($,#725);
#227=VERTEX_POINT($,#726);
#228=VERTEX_POINT($,#728);
#229=VERTEX_POINT($,#730);
#230=VERTEX_POINT($,#734);
#231=VERTEX_POINT($,#736);
#232=VERTEX_POINT($,#740);
#233=VERTEX_POINT($,#742);
#234=VERTEX_POINT($,#751);
#235=VERTEX_POINT($,#752);
#236=VERTEX_POINT($,#754);
#237=VERTEX_POINT($,#756);
#238=VERTEX_POINT($,#760);
#239=VERTEX_POINT($,#762);
#240=VERTEX_POINT($,#766);
#241=VERTEX_POINT($,#768);
#242=EDGE_CURVE($,#202,#203,#82,.T.);
#243=EDGE_CURVE($,#203,#204,#83,.T.);
#244=EDGE_CURVE($,#205,#204,#84,.T.);
#245=EDGE_CURVE($,#202,#205,#85,.T.);
#246=EDGE_CURVE($,#206,#202,#86,.T.);
#247=EDGE_CURVE($,#207,#205,#87,.T.);
#248=EDGE_CURVE($,#206,#207,#88,.T.);
#249=EDGE_CURVE($,#208,#206,#89,.T.);
#250=EDGE_CURVE($,#209,#207,#90,.T.);
#251=EDGE_CURVE($,#208,#209,#91,.T.);
#252=EDGE_CURVE($,#203,#208,#92,.T.);
#253=EDGE_CURVE($,#204,#209,#93,.T.);
#254=EDGE_CURVE($,#210,#211,#94,.T.);
#255=EDGE_CURVE($,#210,#212,#95,.T.);
#256=EDGE_CURVE($,#213,#212,#96,.T.);
#257=EDGE_CURVE($,#211,#213,#97,.T.);
#258=EDGE_CURVE($,#211,#214,#98,.T.);
#259=EDGE_CURVE($,#215,#213,#99,.T.);
#260=EDGE_CURVE($,#214,#215,#100,.T.);
#261=EDGE_CURVE($,#214,#216,#101,.T.);
#262=EDGE_CURVE($,#217,#215,#102,.T.);
#263=EDGE_CURVE($,#216,#217,#103,.T.);
#264=EDGE_CURVE($,#216,#210,#104,.T.);
#265=EDGE_CURVE($,#212,#217,#105,.T.);
#266=EDGE_CURVE($,#218,#219,#106,.T.);
#267=EDGE_CURVE($,#218,#220,#107,.T.);
#268=EDGE_CURVE($,#221,#220,#108,.T.);
#269=EDGE_CURVE($,#219,#221,#109,.T.);
#270=EDGE_CURVE($,#219,#222,#110,.T.);
#271=EDGE_CURVE($,#223,#221,#111,.T.);
#272=EDGE_CURVE($,#222,#223,#112,.T.);
#273=EDGE_CURVE($,#222,#224,#113,.T.);
#274=EDGE_CURVE($,#225,#223,#114,.T.);
#275=EDGE_CURVE($,#224,#225,#115,.T.);
#276=EDGE_CURVE($,#224,#218,#116,.T.);
#277=EDGE_CURVE($,#220,#225,#117,.T.);
#278=EDGE_CURVE($,#226,#227,#118,.T.);
#279=EDGE_CURVE($,#227,#228,#119,.T.);
#280=EDGE_CURVE($,#228,#229,#120,.T.);
#281=EDGE_CURVE($,#226,#229,#121,.T.);
#282=EDGE_CURVE($,#227,#230,#122,.T.);
#283=EDGE_CURVE($,#230,#231,#123,.T.);
#284=EDGE_CURVE($,#231,#228,#124,.T.);
#285=EDGE_CURVE($,#230,#232,#125,.T.);
#286=EDGE_CURVE($,#232,#233,#126,.T.);
#287=EDGE_CURVE($,#233,#231,#127,.T.);
#288=EDGE_CURVE($,#232,#226,#128,.T.);
#289=EDGE_CURVE($,#229,#233,#129,.T.);
#290=EDGE_CURVE($,#234,#235,#130,.T.);
#291=EDGE_CURVE($,#235,#236,#131,.T.);
#292=EDGE_CURVE($,#236,#237,#132,.T.);
#293=EDGE_CURVE($,#234,#237,#133,.T.);
#294=EDGE_CURVE($,#235,#238,#134,.T.);
#295=EDGE_CURVE($,#238,#239,#135,.T.);
#296=EDGE_CURVE($,#239,#236,#136,.T.);
#297=EDGE_CURVE($,#238,#240,#137,.T.);
#298=EDGE_CURVE($,#240,#241,#138,.T.);
#299=EDGE_CURVE($,#241,#239,#139,.T.);
#300=EDGE_CURVE($,#240,#234,#140,.T.);
#301=EDGE_CURVE($,#237,#241,#141,.T.);
#302=ORIENTED_EDGE($,*,*,#242,.T.);
#303=ORIENTED_EDGE($,*,*,#243,.T.);
#304=ORIENTED_EDGE($,*,*,#244,.F.);
#305=ORIENTED_EDGE($,*,*,#245,.F.);
#306=ORIENTED_EDGE($,*,*,#246,.T.);
#307=ORIENTED_EDGE($,*,*,#245,.T.);
#308=ORIENTED_EDGE($,*,*,#247,.F.);
#309=ORIENTED_EDGE($,*,*,#248,.F.);
#310=ORIENTED_EDGE($,*,*,#249,.T.);
#311=ORIENTED_EDGE($,*,*,#248,.T.);
#312=ORIENTED_EDGE($,*,*,#250,.F.);
#313=ORIENTED_EDGE($,*,*,#251,.F.);
#314=ORIENTED_EDGE($,*,*,#252,.T.);
#315=ORIENTED_EDGE($,*,*,#251,.T.);
#316=ORIENTED_EDGE($,*,*,#253,.F.);
#317=ORIENTED_EDGE($,*,*,#243,.F.);
#318=ORIENTED_EDGE($,*,*,#253,.T.);
#319=ORIENTED_EDGE($,*,*,#250,.T.);
#320=ORIENTED_EDGE($,*,*,#247,.T.);
#321=ORIENTED_EDGE($,*,*,#244,.T.);
#322=ORIENTED_EDGE($,*,*,#252,.F.);
#323=ORIENTED_EDGE($,*,*,#242,.F.);
#324=ORIENTED_EDGE($,*,*,#246,.F.);
#325=ORIENTED_EDGE($,*,*,#249,.F.);
#326=ORIENTED_EDGE($,*,*,#254,.F.);
#327=ORIENTED_EDGE($,*,*,#255,.T.);
#328=ORIENTED_EDGE($,*,*,#256,.F.);
#329=ORIENTED_EDGE($,*,*,#257,.F.);
#330=ORIENTED_EDGE($,*,*,#258,.F.);
#331=ORIENTED_EDGE($,*,*,#257,.T.);
#332=ORIENTED_EDGE($,*,*,#259,.F.);
#333=ORIENTED_EDGE($,*,*,#260,.F.);
#334=ORIENTED_EDGE($,*,*,#261,.F.);
#335=ORIENTED_EDGE($,*,*,#260,.T.);
#336=ORIENTED_EDGE($,*,*,#262,.F.);
#337=ORIENTED_EDGE($,*,*,#263,.F.);
#338=ORIENTED_EDGE($,*,*,#264,.F.);
#339=ORIENTED_EDGE($,*,*,#263,.T.);
#340=ORIENTED_EDGE($,*,*,#265,.F.);
#341=ORIENTED_EDGE($,*,*,#255,.F.);
#342=ORIENTED_EDGE($,*,*,#264,.T.);
#343=ORIENTED_EDGE($,*,*,#254,.T.);
#344=ORIENTED_EDGE($,*,*,#258,.T.);
#345=ORIENTED_EDGE($,*,*,#261,.T.);
#346=ORIENTED_EDGE($,*,*,#265,.T.);
#347=ORIENTED_EDGE($,*,*,#262,.T.);
#348=ORIENTED_EDGE($,*,*,#259,.T.);
#349=ORIENTED_EDGE($,*,*,#256,.T.);
#350=ORIENTED_EDGE($,*,*,#266,.F.);
#351=ORIENTED_EDGE($,*,*,#267,.T.);
#352=ORIENTED_EDGE($,*,*,#268,.F.);
#353=ORIENTED_EDGE($,*,*,#269,.F.);
#354=ORIENTED_EDGE($,*,*,#270,.F.);
#355=ORIENTED_EDGE($,*,*,#269,.T.);
#356=ORIENTED_EDGE($,*,*,#271,.F.);
#357=ORIENTED_EDGE($,*,*,#272,.F.);
#358=ORIENTED_EDGE($,*,*,#273,.F.);
#359=ORIENTED_EDGE($,*,*,#272,.T.);
#360=ORIENTED_EDGE($,*,*,#274,.F.);
#361=ORIENTED_EDGE($,*,*,#275,.F.);
#362=ORIENTED_EDGE($,*,*,#276,.F.);
#363=ORIENTED_EDGE($,*,*,#275,.T.);
#364=ORIENTED_EDGE($,*,*,#277,.F.);
#365=ORIENTED_EDGE($,*,*,#267,.F.);
#366=ORIENTED_EDGE($,*,*,#276,.T.);
#367=ORIENTED_EDGE($,*,*,#266,.T.);
#368=ORIENTED_EDGE($,*,*,#270,.T.);
#369=ORIENTED_EDGE($,*,*,#273,.T.);
#370=ORIENTED_EDGE($,*,*,#277,.T.);
#371=ORIENTED_EDGE($,*,*,#274,.T.);
#372=ORIENTED_EDGE($,*,*,#271,.T.);
#373=ORIENTED_EDGE($,*,*,#268,.T.);
#374=ORIENTED_EDGE($,*,*,#278,.T.);
#375=ORIENTED_EDGE($,*,*,#279,.T.);
#376=ORIENTED_EDGE($,*,*,#280,.T.);
#377=ORIENTED_EDGE($,*,*,#281,.F.);
#378=ORIENTED_EDGE($,*,*,#282,.T.);
#379=ORIENTED_EDGE($,*,*,#283,.T.);
#380=ORIENTED_EDGE($,*,*,#284,.T.);
#381=ORIENTED_EDGE($,*,*,#279,.F.);
#382=ORIENTED_EDGE($,*,*,#285,.T.);
#383=ORIENTED_EDGE($,*,*,#286,.T.);
#384=ORIENTED_EDGE($,*,*,#287,.T.);
#385=ORIENTED_EDGE($,*,*,#283,.F.);
#386=ORIENTED_EDGE($,*,*,#288,.T.);
#387=ORIENTED_EDGE($,*,*,#281,.T.);
#388=ORIENTED_EDGE($,*,*,#289,.T.);
#389=ORIENTED_EDGE($,*,*,#286,.F.);
#390=ORIENTED_EDGE($,*,*,#288,.F.);
#391=ORIENTED_EDGE($,*,*,#285,.F.);
#392=ORIENTED_EDGE($,*,*,#282,.F.);
#393=ORIENTED_EDGE($,*,*,#278,.F.);
#394=ORIENTED_EDGE($,*,*,#289,.F.);
#395=ORIENTED_EDGE($,*,*,#280,.F.);
#396=ORIENTED_EDGE($,*,*,#284,.F.);
#397=ORIENTED_EDGE($,*,*,#287,.F.);
#398=ORIENTED_EDGE($,*,*,#290,.T.);
#399=ORIENTED_EDGE($,*,*,#291,.T.);
#400=ORIENTED_EDGE($,*,*,#292,.T.);
#401=ORIENTED_EDGE($,*,*,#293,.F.);
#402=ORIENTED_EDGE($,*,*,#294,.T.);
#403=ORIENTED_EDGE($,*,*,#295,.T.);
#404=ORIENTED_EDGE($,*,*,#296,.T.);
#405=ORIENTED_EDGE($,*,*,#291,.F.);
#406=ORIENTED_EDGE($,*,*,#297,.T.);
#407=ORIENTED_EDGE($,*,*,#298,.T.);
#408=ORIENTED_EDGE($,*,*,#299,.T.);
#409=ORIENTED_EDGE($,*,*,#295,.F.);
#410=ORIENTED_EDGE($,*,*,#300,.T.);
#411=ORIENTED_EDGE($,*,*,#293,.T.);
#412=ORIENTED_EDGE($,*,*,#301,.T.);
#413=ORIENTED_EDGE($,*,*,#298,.F.);
#414=ORIENTED_EDGE($,*,*,#300,.F.);
#415=ORIENTED_EDGE($,*,*,#297,.F.);
#416=ORIENTED_EDGE($,*,*,#294,.F.);
#417=ORIENTED_EDGE($,*,*,#290,.F.);
#418=ORIENTED_EDGE($,*,*,#301,.F.);
#419=ORIENTED_EDGE($,*,*,#292,.F.);
#420=ORIENTED_EDGE($,*,*,#296,.F.);
#421=ORIENTED_EDGE($,*,*,#299,.F.);
#422=PLANE($,#493);
#423=PLANE($,#494);
#424=PLANE($,#495);
#425=PLANE($,#496);
#426=PLANE($,#497);
#427=PLANE($,#498);
#428=PLANE($,#499);
#429=PLANE($,#500);
#430=PLANE($,#501);
#431=PLANE($,#502);
#432=PLANE($,#503);
#433=PLANE($,#504);
#434=PLANE($,#505);
#435=PLANE($,#506);
#436=PLANE($,#507);
#437=PLANE($,#508);
#438=PLANE($,#509);
#439=PLANE($,#510);
#440=PLANE($,#511);
#441=PLANE($,#512);
#442=PLANE($,#513);
#443=PLANE($,#514);
#444=PLANE($,#515);
#445=PLANE($,#516);
#446=PLANE($,#517);
#447=PLANE($,#518);
#448=PLANE($,#519);
#449=PLANE($,#520);
#450=PLANE($,#521);
#451=PLANE($,#522);
#452=ADVANCED_FACE($,(#22),#422,.T.);
#453=ADVANCED_FACE($,(#23),#423,.T.);
#454=ADVANCED_FACE($,(#24),#424,.T.);
#455=ADVANCED_FACE($,(#25),#425,.T.);
#456=ADVANCED_FACE($,(#26),#426,.T.);
#457=ADVANCED_FACE($,(#27),#427,.F.);
#458=ADVANCED_FACE($,(#28),#428,.T.);
#459=ADVANCED_FACE($,(#29),#429,.T.);
#460=ADVANCED_FACE($,(#30),#430,.T.);
#461=ADVANCED_FACE($,(#31),#431,.T.);
#462=ADVANCED_FACE($,(#32),#432,.F.);
#463=ADVANCED_FACE($,(#33),#433,.T.);
#464=ADVANCED_FACE($,(#34),#434,.T.);
#465=ADVANCED_FACE($,(#35),#435,.T.);
#466=ADVANCED_FACE($,(#36),#436,.T.);
#467=ADVANCED_FACE($,(#37),#437,.T.);
#468=ADVANCED_FACE($,(#38),#438,.F.);
#469=ADVANCED_FACE($,(#39),#439,.T.);
#470=ADVANCED_FACE($,(#40),#440,.F.);
#471=ADVANCED_FACE($,(#41),#441,.F.);
#472=ADVANCED_FACE($,(#42),#442,.F.);
#473=ADVANCED_FACE($,(#43),#443,.F.);
#474=ADVANCED_FACE($,(#44),#444,.T.);
#475=ADVANCED_FACE($,(#45),#445,.F.);
#476=ADVANCED_FACE($,(#46),#446,.F.);
#477=ADVANCED_FACE($,(#47),#447,.F.);
#478=ADVANCED_FACE($,(#48),#448,.F.);
#479=ADVANCED_FACE($,(#49),#449,.F.);
#480=ADVANCED_FACE($,(#50),#450,.T.);
#481=ADVANCED_FACE($,(#51),#451,.F.);
#482=CLOSED_SHELL($,(#452,#453,#454,#455,#456,#457));
#483=CLOSED_SHELL($,(#458,#459,#460,#461,#462,#463));
#484=CLOSED_SHELL($,(#464,#465,#466,#467,#468,#469));
#485=CLOSED_SHELL($,(#470,#471,#472,#473,#474,#475));
#486=CLOSED_SHELL($,(#476,#477,#478,#479,#480,#481));
#487=MANIFOLD_SOLID_BREP('16D6',#482);
#488=MANIFOLD_SOLID_BREP('16E8',#483);
#489=MANIFOLD_SOLID_BREP('16EE',#484);
#490=MANIFOLD_SOLID_BREP('16F2',#485);
#491=MANIFOLD_SOLID_BREP('16F6',#486);
#492=AXIS2_PLACEMENT_3D('placement',#645,#523,#524);
#493=AXIS2_PLACEMENT_3D($,#646,#525,#526);
#494=AXIS2_PLACEMENT_3D($,#655,#531,#532);
#495=AXIS2_PLACEMENT_3D($,#661,#536,#537);
#496=AXIS2_PLACEMENT_3D($,#667,#541,#542);
#497=AXIS2_PLACEMENT_3D($,#670,#545,#546);
#498=AXIS2_PLACEMENT_3D($,#671,#547,#548);
#499=AXIS2_PLACEMENT_3D($,#672,#549,#550);
#500=AXIS2_PLACEMENT_3D($,#681,#555,#556);
#501=AXIS2_PLACEMENT_3D($,#687,#560,#561);
#502=AXIS2_PLACEMENT_3D($,#693,#565,#566);
#503=AXIS2_PLACEMENT_3D($,#696,#569,#570);
#504=AXIS2_PLACEMENT_3D($,#697,#571,#572);
#505=AXIS2_PLACEMENT_3D($,#698,#573,#574);
#506=AXIS2_PLACEMENT_3D($,#707,#579,#580);
#507=AXIS2_PLACEMENT_3D($,#713,#584,#585);
#508=AXIS2_PLACEMENT_3D($,#719,#589,#590);
#509=AXIS2_PLACEMENT_3D($,#722,#593,#594);
#510=AXIS2_PLACEMENT_3D($,#723,#595,#596);
#511=AXIS2_PLACEMENT_3D($,#724,#597,#598);
#512=AXIS2_PLACEMENT_3D($,#733,#603,#604);
#513=AXIS2_PLACEMENT_3D($,#739,#608,#609);
#514=AXIS2_PLACEMENT_3D($,#745,#613,#614);
#515=AXIS2_PLACEMENT_3D($,#748,#617,#618);
#516=AXIS2_PLACEMENT_3D($,#749,#619,#620);
#517=AXIS2_PLACEMENT_3D($,#750,#621,#622);
#518=AXIS2_PLACEMENT_3D($,#759,#627,#628);
#519=AXIS2_PLACEMENT_3D($,#765,#632,#633);
#520=AXIS2_PLACEMENT_3D($,#771,#637,#638);
#521=AXIS2_PLACEMENT_3D($,#774,#641,#642);
#522=AXIS2_PLACEMENT_3D($,#775,#643,#644);
#523=DIRECTION('axis',(0.,0.,1.));
#524=DIRECTION('refdir',(1.,0.,0.));
#525=DIRECTION('center_axis',(0.,-1.,0.));
#526=DIRECTION('ref_axis',(1.,0.,0.));
#527=DIRECTION($,(1.,0.,0.));
#528=DIRECTION($,(0.,0.,1.));
#529=DIRECTION($,(1.,0.,0.));
#530=DIRECTION($,(0.,0.,1.));
#531=DIRECTION('center_axis',(-1.,0.,0.));
#532=DIRECTION('ref_axis',(0.,-1.,0.));
#533=DIRECTION($,(0.,-1.,0.));
#534=DIRECTION($,(0.,-1.,0.));
#535=DIRECTION($,(0.,0.,1.));
#536=DIRECTION('center_axis',(0.,1.,0.));
#537=DIRECTION('ref_axis',(-1.,0.,0.));
#538=DIRECTION($,(-1.,0.,0.));
#539=DIRECTION($,(-1.,0.,0.));
#540=DIRECTION($,(0.,0.,1.));
#541=DIRECTION('center_axis',(1.,0.,0.));
#542=DIRECTION('ref_axis',(0.,1.,0.));
#543=DIRECTION($,(0.,1.,0.));
#544=DIRECTION($,(0.,1.,0.));
#545=DIRECTION('center_axis',(0.,0.,1.));
#546=DIRECTION('ref_axis',(1.,0.,0.));
#547=DIRECTION('center_axis',(0.,0.,1.));
#548=DIRECTION('ref_axis',(1.,0.,0.));
#549=DIRECTION('center_axis',(-1.,0.,0.));
#550=DIRECTION('ref_axis',(0.,0.,-1.));
#551=DIRECTION($,(0.,0.,1.));
#552=DIRECTION($,(0.,-1.,0.));
#553=DIRECTION($,(0.,0.,-1.));
#554=DIRECTION($,(0.,-1.,0.));
#555=DIRECTION('center_axis',(-0.6357072528611,0.,0.77193023561705));
#556=DIRECTION('ref_axis',(-0.77193023561705,0.,-0.6357072528611));
#557=DIRECTION($,(0.77193023561705,0.,0.6357072528611));
#558=DIRECTION($,(-0.77193023561705,0.,-0.6357072528611));
#559=DIRECTION($,(0.,-1.,0.));
#560=DIRECTION('center_axis',(1.,0.,0.));
#561=DIRECTION('ref_axis',(0.,0.,1.));
#562=DIRECTION($,(0.,0.,-1.));
#563=DIRECTION($,(0.,0.,1.));
#564=DIRECTION($,(0.,-1.,0.));
#565=DIRECTION('center_axis',(0.6357072528611,0.,-0.77193023561705));
#566=DIRECTION('ref_axis',(0.77193023561705,0.,0.6357072528611));
#567=DIRECTION($,(-0.77193023561705,0.,-0.6357072528611));
#568=DIRECTION($,(0.77193023561705,0.,0.6357072528611));
#569=DIRECTION('center_axis',(0.,-1.,0.));
#570=DIRECTION('ref_axis',(0.,0.,-1.));
#571=DIRECTION('center_axis',(0.,-1.,0.));
#572=DIRECTION('ref_axis',(0.,0.,-1.));
#573=DIRECTION('center_axis',(-1.,0.,0.));
#574=DIRECTION('ref_axis',(0.,0.,-1.));
#575=DIRECTION($,(0.,0.,1.));
#576=DIRECTION($,(0.,-1.,0.));
#577=DIRECTION($,(0.,0.,-1.));
#578=DIRECTION($,(0.,-1.,0.));
#579=DIRECTION('center_axis',(-0.6357072528611,0.,0.77193023561705));
#580=DIRECTION('ref_axis',(-0.77193023561705,0.,-0.6357072528611));
#581=DIRECTION($,(0.77193023561705,0.,0.6357072528611));
#582=DIRECTION($,(-0.77193023561705,0.,-0.6357072528611));
#583=DIRECTION($,(0.,-1.,0.));
#584=DIRECTION('center_axis',(1.,0.,0.));
#585=DIRECTION('ref_axis',(0.,0.,1.));
#586=DIRECTION($,(0.,0.,-1.));
#587=DIRECTION($,(0.,0.,1.));
#588=DIRECTION($,(0.,-1.,0.));
#589=DIRECTION('center_axis',(0.6357072528611,0.,-0.77193023561705));
#590=DIRECTION('ref_axis',(0.77193023561705,0.,0.6357072528611));
#591=DIRECTION($,(-0.77193023561705,0.,-0.6357072528611));
#592=DIRECTION($,(0.77193023561705,0.,0.6357072528611));
#593=DIRECTION('center_axis',(0.,-1.,0.));
#594=DIRECTION('ref_axis',(0.,0.,-1.));
#595=DIRECTION('center_axis',(0.,-1.,0.));
#596=DIRECTION('ref_axis',(0.,0.,-1.));
#597=DIRECTION('center_axis',(-1.,0.,0.));
#598=DIRECTION('ref_axis',(0.,0.,-1.));
#599=DIRECTION($,(0.,0.,1.));
#600=DIRECTION($,(0.,-1.,0.));
#601=DIRECTION($,(0.,0.,-1.));
#602=DIRECTION($,(0.,-1.,0.));
#603=DIRECTION('center_axis',(-0.6357072528611,0.,-0.77193023561705));
#604=DIRECTION('ref_axis',(0.77193023561705,0.,-0.6357072528611));
#605=DIRECTION($,(-0.77193023561705,0.,0.6357072528611));
#606=DIRECTION($,(0.,-1.,0.));
#607=DIRECTION($,(0.77193023561705,0.,-0.6357072528611));
#608=DIRECTION('center_axis',(1.,0.,0.));
#609=DIRECTION('ref_axis',(0.,0.,1.));
#610=DIRECTION($,(0.,0.,-1.));
#611=DIRECTION($,(0.,-1.,0.));
#612=DIRECTION($,(0.,0.,1.));
#613=DIRECTION('center_axis',(0.6357072528611,0.,0.77193023561705));
#614=DIRECTION('ref_axis',(-0.77193023561705,0.,0.6357072528611));
#615=DIRECTION($,(0.77193023561705,0.,-0.6357072528611));
#616=DIRECTION($,(-0.77193023561705,0.,0.6357072528611));
#617=DIRECTION('center_axis',(0.,1.,0.));
#618=DIRECTION('ref_axis',(0.,0.,-1.));
#619=DIRECTION('center_axis',(0.,1.,0.));
#620=DIRECTION('ref_axis',(0.,0.,-1.));
#621=DIRECTION('center_axis',(-1.,0.,0.));
#622=DIRECTION('ref_axis',(0.,0.,-1.));
#623=DIRECTION($,(0.,0.,1.));
#624=DIRECTION($,(0.,-1.,0.));
#625=DIRECTION($,(0.,0.,-1.));
#626=DIRECTION($,(0.,-1.,0.));
#627=DIRECTION('center_axis',(-0.6357072528611,0.,-0.77193023561705));
#628=DIRECTION('ref_axis',(0.77193023561705,0.,-0.6357072528611));
#629=DIRECTION($,(-0.77193023561705,0.,0.6357072528611));
#630=DIRECTION($,(0.,-1.,0.));
#631=DIRECTION($,(0.77193023561705,0.,-0.6357072528611));
#632=DIRECTION('center_axis',(1.,0.,0.));
#633=DIRECTION('ref_axis',(0.,0.,1.));
#634=DIRECTION($,(0.,0.,-1.));
#635=DIRECTION($,(0.,-1.,0.));
#636=DIRECTION($,(0.,0.,1.));
#637=DIRECTION('center_axis',(0.6357072528611,0.,0.77193023561705));
#638=DIRECTION('ref_axis',(-0.77193023561705,0.,0.6357072528611));
#639=DIRECTION($,(0.77193023561705,0.,-0.6357072528611));
#640=DIRECTION($,(-0.77193023561705,0.,0.6357072528611));
#641=DIRECTION('center_axis',(0.,1.,0.));
#642=DIRECTION('ref_axis',(0.,0.,-1.));
#643=DIRECTION('center_axis',(0.,1.,0.));
#644=DIRECTION('ref_axis',(0.,0.,-1.));
#645=CARTESIAN_POINT('',(0.,0.,0.));
#646=CARTESIAN_POINT('Origin',(-0.825,-0.825,0.));
#647=CARTESIAN_POINT('',(-0.825,-0.825,0.));
#648=CARTESIAN_POINT('',(0.825,-0.825,0.));
#649=CARTESIAN_POINT($,(-0.825,-0.825,0.));
#650=CARTESIAN_POINT('',(0.825,-0.825,0.7));
#651=CARTESIAN_POINT($,(0.825,-0.825,0.));
#652=CARTESIAN_POINT('',(-0.825,-0.825,0.7));
#653=CARTESIAN_POINT($,(-0.825,-0.825,0.7));
#654=CARTESIAN_POINT($,(-0.825,-0.825,0.));
#655=CARTESIAN_POINT('Origin',(-0.825,0.825,0.));
#656=CARTESIAN_POINT('',(-0.825,0.825,0.));
#657=CARTESIAN_POINT($,(-0.825,0.825,0.));
#658=CARTESIAN_POINT('',(-0.825,0.825,0.7));
#659=CARTESIAN_POINT($,(-0.825,0.825,0.7));
#660=CARTESIAN_POINT($,(-0.825,0.825,0.));
#661=CARTESIAN_POINT('Origin',(0.825,0.825,0.));
#662=CARTESIAN_POINT('',(0.825,0.825,0.));
#663=CARTESIAN_POINT($,(0.825,0.825,0.));
#664=CARTESIAN_POINT('',(0.825,0.825,0.7));
#665=CARTESIAN_POINT($,(0.825,0.825,0.7));
#666=CARTESIAN_POINT($,(0.825,0.825,0.));
#667=CARTESIAN_POINT('Origin',(0.825,-0.825,0.));
#668=CARTESIAN_POINT($,(0.825,-0.825,0.));
#669=CARTESIAN_POINT($,(0.825,-0.825,0.7));
#670=CARTESIAN_POINT('Origin',(0.,2.22044604925031E-16,0.7));
#671=CARTESIAN_POINT('Origin',(0.,2.01858731750029E-16,0.));
#672=CARTESIAN_POINT('Origin',(-1.25,0.6,0.05));
#673=CARTESIAN_POINT('',(-1.25,0.6,-0.05));
#674=CARTESIAN_POINT('',(-1.25,0.6,0.05));
#675=CARTESIAN_POINT($,(-1.25,0.6,-0.05));
#676=CARTESIAN_POINT('',(-1.25,0.3,-0.05));
#677=CARTESIAN_POINT($,(-1.25,0.6,-0.05));
#678=CARTESIAN_POINT('',(-1.25,0.3,0.05));
#679=CARTESIAN_POINT($,(-1.25,0.3,-0.05));
#680=CARTESIAN_POINT($,(-1.25,0.6,0.05));
#681=CARTESIAN_POINT('Origin',(-0.825,0.6,0.4));
#682=CARTESIAN_POINT('',(-0.825,0.6,0.4));
#683=CARTESIAN_POINT($,(-1.25,0.6,0.05));
#684=CARTESIAN_POINT('',(-0.825,0.3,0.4));
#685=CARTESIAN_POINT($,(-1.25,0.3,0.05));
#686=CARTESIAN_POINT($,(-0.825,0.6,0.4));
#687=CARTESIAN_POINT('Origin',(-0.825,0.6,0.3));
#688=CARTESIAN_POINT('',(-0.825,0.6,0.3));
#689=CARTESIAN_POINT($,(-0.825,0.6,0.4));
#690=CARTESIAN_POINT('',(-0.825,0.3,0.3));
#691=CARTESIAN_POINT($,(-0.825,0.3,0.4));
#692=CARTESIAN_POINT($,(-0.825,0.6,0.3));
#693=CARTESIAN_POINT('Origin',(-1.25,0.6,-0.05));
#694=CARTESIAN_POINT($,(-0.825,0.6,0.3));
#695=CARTESIAN_POINT($,(-0.825,0.3,0.3));
#696=CARTESIAN_POINT('Origin',(-1.0375,0.6,0.175));
#697=CARTESIAN_POINT('Origin',(-1.0375,0.3,0.175));
#698=CARTESIAN_POINT('Origin',(-1.25,-0.3,0.05));
#699=CARTESIAN_POINT('',(-1.25,-0.3,-0.05));
#700=CARTESIAN_POINT('',(-1.25,-0.3,0.05));
#701=CARTESIAN_POINT($,(-1.25,-0.3,-0.05));
#702=CARTESIAN_POINT('',(-1.25,-0.6,-0.05));
#703=CARTESIAN_POINT($,(-1.25,-0.3,-0.05));
#704=CARTESIAN_POINT('',(-1.25,-0.6,0.05));
#705=CARTESIAN_POINT($,(-1.25,-0.6,-0.05));
#706=CARTESIAN_POINT($,(-1.25,-0.3,0.05));
#707=CARTESIAN_POINT('Origin',(-0.825,-0.3,0.4));
#708=CARTESIAN_POINT('',(-0.825,-0.3,0.4));
#709=CARTESIAN_POINT($,(-1.25,-0.3,0.05));
#710=CARTESIAN_POINT('',(-0.825,-0.6,0.4));
#711=CARTESIAN_POINT($,(-1.25,-0.6,0.05));
#712=CARTESIAN_POINT($,(-0.825,-0.3,0.4));
#713=CARTESIAN_POINT('Origin',(-0.825,-0.3,0.3));
#714=CARTESIAN_POINT('',(-0.825,-0.3,0.3));
#715=CARTESIAN_POINT($,(-0.825,-0.3,0.4));
#716=CARTESIAN_POINT('',(-0.825,-0.6,0.3));
#717=CARTESIAN_POINT($,(-0.825,-0.6,0.4));
#718=CARTESIAN_POINT($,(-0.825,-0.3,0.3));
#719=CARTESIAN_POINT('Origin',(-1.25,-0.3,-0.05));
#720=CARTESIAN_POINT($,(-0.825,-0.3,0.3));
#721=CARTESIAN_POINT($,(-0.825,-0.6,0.3));
#722=CARTESIAN_POINT('Origin',(-1.0375,-0.3,0.175));
#723=CARTESIAN_POINT('Origin',(-1.0375,-0.6,0.175));
#724=CARTESIAN_POINT('Origin',(1.25,0.6,0.05));
#725=CARTESIAN_POINT('',(1.25,0.6,-0.05));
#726=CARTESIAN_POINT('',(1.25,0.6,0.05));
#727=CARTESIAN_POINT($,(1.25,0.6,-0.05));
#728=CARTESIAN_POINT('',(1.25,0.3,0.05));
#729=CARTESIAN_POINT($,(1.25,0.6,0.05));
#730=CARTESIAN_POINT('',(1.25,0.3,-0.05));
#731=CARTESIAN_POINT($,(1.25,0.3,-0.05));
#732=CARTESIAN_POINT($,(1.25,0.6,-0.05));
#733=CARTESIAN_POINT('Origin',(0.825,0.6,0.4));
#734=CARTESIAN_POINT('',(0.825,0.6,0.4));
#735=CARTESIAN_POINT($,(1.25,0.6,0.05));
#736=CARTESIAN_POINT('',(0.825,0.3,0.4));
#737=CARTESIAN_POINT($,(0.825,0.6,0.4));
#738=CARTESIAN_POINT($,(1.25,0.3,0.05));
#739=CARTESIAN_POINT('Origin',(0.825,0.6,0.3));
#740=CARTESIAN_POINT('',(0.825,0.6,0.3));
#741=CARTESIAN_POINT($,(0.825,0.6,0.4));
#742=CARTESIAN_POINT('',(0.825,0.3,0.3));
#743=CARTESIAN_POINT($,(0.825,0.6,0.3));
#744=CARTESIAN_POINT($,(0.825,0.3,0.4));
#745=CARTESIAN_POINT('Origin',(1.25,0.6,-0.05));
#746=CARTESIAN_POINT($,(0.825,0.6,0.3));
#747=CARTESIAN_POINT($,(0.825,0.3,0.3));
#748=CARTESIAN_POINT('Origin',(1.0375,0.6,0.175));
#749=CARTESIAN_POINT('Origin',(1.0375,0.3,0.175));
#750=CARTESIAN_POINT('Origin',(1.25,-0.3,0.05));
#751=CARTESIAN_POINT('',(1.25,-0.3,-0.05));
#752=CARTESIAN_POINT('',(1.25,-0.3,0.05));
#753=CARTESIAN_POINT($,(1.25,-0.3,-0.05));
#754=CARTESIAN_POINT('',(1.25,-0.6,0.05));
#755=CARTESIAN_POINT($,(1.25,-0.3,0.05));
#756=CARTESIAN_POINT('',(1.25,-0.6,-0.05));
#757=CARTESIAN_POINT($,(1.25,-0.6,-0.05));
#758=CARTESIAN_POINT($,(1.25,-0.3,-0.05));
#759=CARTESIAN_POINT('Origin',(0.825,-0.3,0.4));
#760=CARTESIAN_POINT('',(0.825,-0.3,0.4));
#761=CARTESIAN_POINT($,(1.25,-0.3,0.05));
#762=CARTESIAN_POINT('',(0.825,-0.6,0.4));
#763=CARTESIAN_POINT($,(0.825,-0.3,0.4));
#764=CARTESIAN_POINT($,(1.25,-0.6,0.05));
#765=CARTESIAN_POINT('Origin',(0.825,-0.3,0.3));
#766=CARTESIAN_POINT('',(0.825,-0.3,0.3));
#767=CARTESIAN_POINT($,(0.825,-0.3,0.4));
#768=CARTESIAN_POINT('',(0.825,-0.6,0.3));
#769=CARTESIAN_POINT($,(0.825,-0.3,0.3));
#770=CARTESIAN_POINT($,(0.825,-0.6,0.4));
#771=CARTESIAN_POINT('Origin',(1.25,-0.3,-0.05));
#772=CARTESIAN_POINT($,(0.825,-0.3,0.3));
#773=CARTESIAN_POINT($,(0.825,-0.6,0.3));
#774=CARTESIAN_POINT('Origin',(1.0375,-0.3,0.175));
#775=CARTESIAN_POINT('Origin',(1.0375,-0.6,0.175));
#776=UNCERTAINTY_MEASURE_WITH_UNIT(LENGTH_MEASURE(0.01),#780,
'DISTANCE_ACCURACY_VALUE',
'Maximum model space distance between geometric entities at asserted c
onnectivities');
#777=UNCERTAINTY_MEASURE_WITH_UNIT(LENGTH_MEASURE(1.E-6),#780,
'DISTANCE_ACCURACY_VALUE',
'Maximum model space distance between geometric entities at asserted c
onnectivities');
#778=(
GEOMETRIC_REPRESENTATION_CONTEXT(3)
GLOBAL_UNCERTAINTY_ASSIGNED_CONTEXT((#776))
GLOBAL_UNIT_ASSIGNED_CONTEXT((#780,#782,#781))
REPRESENTATION_CONTEXT('','3D')
);
#779=(
GEOMETRIC_REPRESENTATION_CONTEXT(3)
GLOBAL_UNCERTAINTY_ASSIGNED_CONTEXT((#777))
GLOBAL_UNIT_ASSIGNED_CONTEXT((#780,#12,#781))
REPRESENTATION_CONTEXT('','3D')
);
#780=(
LENGTH_UNIT()
NAMED_UNIT(*)
SI_UNIT(.MILLI.,.METRE.)
);
#781=(
NAMED_UNIT(*)
SI_UNIT($,.STERADIAN.)
SOLID_ANGLE_UNIT()
);
#782=(
NAMED_UNIT(*)
PLANE_ANGLE_UNIT()
SI_UNIT($,.RADIAN.)
);
#783=SHAPE_DEFINITION_REPRESENTATION(#784,#785);
#784=PRODUCT_DEFINITION_SHAPE('',$,#787);
#785=SHAPE_REPRESENTATION('',(#492),#778);
#786=PRODUCT_DEFINITION_CONTEXT('part definition',#791,'design');
#787=PRODUCT_DEFINITION('Product','Product',#788,#786);
#788=PRODUCT_DEFINITION_FORMATION('',$,#793);
#789=PRODUCT_RELATED_PRODUCT_CATEGORY('Product','Product',(#793));
#790=APPLICATION_PROTOCOL_DEFINITION('international standard',
'automotive_design',2009,#791);
#791=APPLICATION_CONTEXT(
'Core Data for Automotive Mechanical Design Process');
#792=PRODUCT_CONTEXT('part definition',#791,'mechanical');
#793=PRODUCT('Product','Product',$,(#792));
#794=PRESENTATION_STYLE_ASSIGNMENT((#797));
#795=PRESENTATION_STYLE_ASSIGNMENT((#798));
#796=PRESENTATION_STYLE_ASSIGNMENT((#799));
#797=SURFACE_STYLE_USAGE(.BOTH.,#800);
#798=SURFACE_STYLE_USAGE(.BOTH.,#801);
#799=SURFACE_STYLE_USAGE(.BOTH.,#802);
#800=SURFACE_SIDE_STYLE($,(#803));
#801=SURFACE_SIDE_STYLE($,(#804));
#802=SURFACE_SIDE_STYLE($,(#805));
#803=SURFACE_STYLE_FILL_AREA(#806);
#804=SURFACE_STYLE_FILL_AREA(#807);
#805=SURFACE_STYLE_FILL_AREA(#808);
#806=FILL_AREA_STYLE($,(#809));
#807=FILL_AREA_STYLE($,(#810));
#808=FILL_AREA_STYLE($,(#811));
#809=FILL_AREA_STYLE_COLOUR($,#812);
#810=FILL_AREA_STYLE_COLOUR($,#813);
#811=FILL_AREA_STYLE_COLOUR($,#814);
#812=COLOUR_RGB('',1.,1.,1.);
#813=COLOUR_RGB('',0.329411764705882,0.329411764705882,0.329411764705882);
#814=COLOUR_RGB('',0.749019607843137,0.749019607843137,0.749019607843137);
ENDSEC;
END-ISO-10303-21;
