ISO-10303-21;
HEADER;
/* Generated by software containing ST-Developer
 * from STEP Tools, Inc. (www.steptools.com) 
 */

FILE_DESCRIPTION(
/* description */ (''),
/* implementation_level */ '2;1');

FILE_NAME(
/* name */ 
'G:\\Applications\\Altium\\CernLib\\StepLib\\LED_DIALIGHT_564-0700-111
F.stp',
/* time_stamp */ '2016-12-08T12:51:38+01:00',
/* author */ ('riccim'),
/* organization */ ('SolidWorks'),
/* preprocessor_version */ 'ST-DEVELOPER v15.5',
/* originating_system */ 'AutoCAD Mechanical',
/* authorisation */ ' ');

FILE_SCHEMA (('AUTOMOTIVE_DESIGN { 1 0 10303 214 3 1 1 }'));
ENDSEC;

DATA;
#10=MECHANICAL_DESIGN_GEOMETRIC_PRESENTATION_REPRESENTATION('',(#27,#25,
#26,#24,#19,#20,#21,#22,#23,#18,#28,#29,#17),#1741);
#11=DIMENSIONAL_EXPONENTS(0.,0.,0.,0.,0.,0.,0.);
#12=(
CONVERSION_BASED_UNIT('degree',#13)
NAMED_UNIT(#11)
PLANE_ANGLE_UNIT()
);
#13=PLANE_ANGLE_MEASURE_WITH_UNIT(PLANE_ANGLE_MEASURE(0.01745329252),#1744);
#14=PRESENTATION_LAYER_ASSIGNMENT('3D','',(#1053,#1054,#1055,#1056,#1057,
#1058,#1059,#1060,#1061,#1062,#1063,#1064,#1065));
#15=SHAPE_REPRESENTATION_RELATIONSHIP('SRR','None',#1747,#16);
#16=ADVANCED_BREP_SHAPE_REPRESENTATION($,(#1053,#1054,#1055,#1056,#1057,
#1058,#1059,#1060,#1061,#1062,#1063,#1064,#1065),#1740);
#17=STYLED_ITEM($,(#1757),#1053);
#18=STYLED_ITEM($,(#1758),#1054);
#19=STYLED_ITEM($,(#1758),#1055);
#20=STYLED_ITEM($,(#1758),#1056);
#21=STYLED_ITEM($,(#1758),#1057);
#22=STYLED_ITEM($,(#1758),#1058);
#23=STYLED_ITEM($,(#1758),#1059);
#24=STYLED_ITEM($,(#1757),#1060);
#25=STYLED_ITEM($,(#1759),#1061);
#26=STYLED_ITEM($,(#1757),#1062);
#27=STYLED_ITEM($,(#1760),#1063);
#28=STYLED_ITEM($,(#1760),#1064);
#29=STYLED_ITEM($,(#1760),#1065);
#30=SPHERICAL_SURFACE($,#1073,1.4986);
#31=SPHERICAL_SURFACE($,#1116,1.4986);
#32=SPHERICAL_SURFACE($,#1133,1.4986);
#33=SPHERICAL_SURFACE($,#1136,1.4986);
#34=SPHERICAL_SURFACE($,#1143,1.4986);
#35=SPHERICAL_SURFACE($,#1150,1.4986);
#36=CYLINDRICAL_SURFACE($,#1069,1.4986);
#37=CYLINDRICAL_SURFACE($,#1112,1.4986);
#38=CYLINDRICAL_SURFACE($,#1129,1.4986);
#39=CYLINDRICAL_SURFACE($,#1140,1.4986);
#40=CYLINDRICAL_SURFACE($,#1147,1.4986);
#41=CYLINDRICAL_SURFACE($,#1154,1.4986);
#42=FACE_OUTER_BOUND($,#112,.T.);
#43=FACE_OUTER_BOUND($,#113,.T.);
#44=FACE_OUTER_BOUND($,#114,.T.);
#45=FACE_OUTER_BOUND($,#115,.T.);
#46=FACE_OUTER_BOUND($,#116,.T.);
#47=FACE_OUTER_BOUND($,#117,.T.);
#48=FACE_OUTER_BOUND($,#118,.T.);
#49=FACE_OUTER_BOUND($,#119,.T.);
#50=FACE_OUTER_BOUND($,#120,.T.);
#51=FACE_OUTER_BOUND($,#121,.T.);
#52=FACE_OUTER_BOUND($,#122,.T.);
#53=FACE_OUTER_BOUND($,#123,.T.);
#54=FACE_OUTER_BOUND($,#124,.T.);
#55=FACE_OUTER_BOUND($,#125,.T.);
#56=FACE_OUTER_BOUND($,#126,.T.);
#57=FACE_OUTER_BOUND($,#127,.T.);
#58=FACE_OUTER_BOUND($,#128,.T.);
#59=FACE_OUTER_BOUND($,#129,.T.);
#60=FACE_OUTER_BOUND($,#130,.T.);
#61=FACE_OUTER_BOUND($,#131,.T.);
#62=FACE_OUTER_BOUND($,#132,.T.);
#63=FACE_OUTER_BOUND($,#133,.T.);
#64=FACE_OUTER_BOUND($,#134,.T.);
#65=FACE_OUTER_BOUND($,#135,.T.);
#66=FACE_OUTER_BOUND($,#136,.T.);
#67=FACE_OUTER_BOUND($,#137,.T.);
#68=FACE_OUTER_BOUND($,#138,.T.);
#69=FACE_OUTER_BOUND($,#139,.T.);
#70=FACE_OUTER_BOUND($,#140,.T.);
#71=FACE_OUTER_BOUND($,#141,.T.);
#72=FACE_OUTER_BOUND($,#142,.T.);
#73=FACE_OUTER_BOUND($,#143,.T.);
#74=FACE_OUTER_BOUND($,#144,.T.);
#75=FACE_OUTER_BOUND($,#145,.T.);
#76=FACE_OUTER_BOUND($,#146,.T.);
#77=FACE_OUTER_BOUND($,#147,.T.);
#78=FACE_OUTER_BOUND($,#148,.T.);
#79=FACE_OUTER_BOUND($,#149,.T.);
#80=FACE_OUTER_BOUND($,#150,.T.);
#81=FACE_OUTER_BOUND($,#151,.T.);
#82=FACE_OUTER_BOUND($,#152,.T.);
#83=FACE_OUTER_BOUND($,#153,.T.);
#84=FACE_OUTER_BOUND($,#154,.T.);
#85=FACE_OUTER_BOUND($,#155,.T.);
#86=FACE_OUTER_BOUND($,#156,.T.);
#87=FACE_OUTER_BOUND($,#157,.T.);
#88=FACE_OUTER_BOUND($,#158,.T.);
#89=FACE_OUTER_BOUND($,#159,.T.);
#90=FACE_OUTER_BOUND($,#160,.T.);
#91=FACE_OUTER_BOUND($,#161,.T.);
#92=FACE_OUTER_BOUND($,#162,.T.);
#93=FACE_OUTER_BOUND($,#163,.T.);
#94=FACE_OUTER_BOUND($,#164,.T.);
#95=FACE_OUTER_BOUND($,#165,.T.);
#96=FACE_OUTER_BOUND($,#166,.T.);
#97=FACE_OUTER_BOUND($,#167,.T.);
#98=FACE_OUTER_BOUND($,#168,.T.);
#99=FACE_OUTER_BOUND($,#169,.T.);
#100=FACE_OUTER_BOUND($,#170,.T.);
#101=FACE_OUTER_BOUND($,#171,.T.);
#102=FACE_OUTER_BOUND($,#172,.T.);
#103=FACE_OUTER_BOUND($,#173,.T.);
#104=FACE_OUTER_BOUND($,#174,.T.);
#105=FACE_OUTER_BOUND($,#175,.T.);
#106=FACE_OUTER_BOUND($,#176,.T.);
#107=FACE_OUTER_BOUND($,#177,.T.);
#108=FACE_OUTER_BOUND($,#178,.T.);
#109=FACE_OUTER_BOUND($,#179,.T.);
#110=FACE_OUTER_BOUND($,#180,.T.);
#111=FACE_OUTER_BOUND($,#181,.T.);
#112=EDGE_LOOP($,(#648,#649,#650,#651));
#113=EDGE_LOOP($,(#652,#653,#654,#655));
#114=EDGE_LOOP($,(#656,#657));
#115=EDGE_LOOP($,(#658,#659));
#116=EDGE_LOOP($,(#660,#661,#662,#663));
#117=EDGE_LOOP($,(#664,#665,#666,#667));
#118=EDGE_LOOP($,(#668,#669,#670,#671));
#119=EDGE_LOOP($,(#672,#673,#674,#675));
#120=EDGE_LOOP($,(#676,#677,#678,#679));
#121=EDGE_LOOP($,(#680,#681,#682,#683));
#122=EDGE_LOOP($,(#684,#685,#686,#687));
#123=EDGE_LOOP($,(#688,#689,#690,#691));
#124=EDGE_LOOP($,(#692,#693,#694,#695));
#125=EDGE_LOOP($,(#696,#697,#698,#699));
#126=EDGE_LOOP($,(#700,#701,#702,#703));
#127=EDGE_LOOP($,(#704,#705,#706,#707));
#128=EDGE_LOOP($,(#708,#709,#710,#711));
#129=EDGE_LOOP($,(#712,#713,#714,#715));
#130=EDGE_LOOP($,(#716,#717,#718,#719));
#131=EDGE_LOOP($,(#720,#721,#722,#723));
#132=EDGE_LOOP($,(#724,#725,#726,#727));
#133=EDGE_LOOP($,(#728,#729,#730,#731));
#134=EDGE_LOOP($,(#732,#733,#734,#735));
#135=EDGE_LOOP($,(#736,#737,#738,#739));
#136=EDGE_LOOP($,(#740,#741,#742,#743));
#137=EDGE_LOOP($,(#744,#745,#746,#747));
#138=EDGE_LOOP($,(#748,#749,#750,#751));
#139=EDGE_LOOP($,(#752,#753,#754,#755));
#140=EDGE_LOOP($,(#756,#757,#758,#759));
#141=EDGE_LOOP($,(#760,#761,#762,#763));
#142=EDGE_LOOP($,(#764,#765,#766,#767));
#143=EDGE_LOOP($,(#768,#769,#770,#771));
#144=EDGE_LOOP($,(#772,#773,#774,#775));
#145=EDGE_LOOP($,(#776,#777,#778,#779));
#146=EDGE_LOOP($,(#780,#781,#782,#783));
#147=EDGE_LOOP($,(#784,#785,#786,#787));
#148=EDGE_LOOP($,(#788,#789,#790,#791));
#149=EDGE_LOOP($,(#792,#793,#794,#795));
#150=EDGE_LOOP($,(#796,#797,#798,#799));
#151=EDGE_LOOP($,(#800,#801,#802,#803));
#152=EDGE_LOOP($,(#804,#805,#806,#807));
#153=EDGE_LOOP($,(#808,#809,#810,#811));
#154=EDGE_LOOP($,(#812,#813));
#155=EDGE_LOOP($,(#814,#815));
#156=EDGE_LOOP($,(#816,#817,#818,#819,#820,#821,#822,#823));
#157=EDGE_LOOP($,(#824,#825,#826,#827));
#158=EDGE_LOOP($,(#828,#829,#830,#831));
#159=EDGE_LOOP($,(#832,#833,#834,#835));
#160=EDGE_LOOP($,(#836,#837,#838,#839));
#161=EDGE_LOOP($,(#840,#841,#842,#843));
#162=EDGE_LOOP($,(#844,#845,#846,#847));
#163=EDGE_LOOP($,(#848,#849,#850,#851,#852,#853,#854,#855));
#164=EDGE_LOOP($,(#856,#857,#858,#859));
#165=EDGE_LOOP($,(#860,#861,#862,#863));
#166=EDGE_LOOP($,(#864,#865,#866,#867));
#167=EDGE_LOOP($,(#868,#869,#870,#871));
#168=EDGE_LOOP($,(#872,#873));
#169=EDGE_LOOP($,(#874,#875));
#170=EDGE_LOOP($,(#876,#877,#878,#879));
#171=EDGE_LOOP($,(#880,#881));
#172=EDGE_LOOP($,(#882,#883));
#173=EDGE_LOOP($,(#884,#885,#886,#887));
#174=EDGE_LOOP($,(#888,#889,#890,#891));
#175=EDGE_LOOP($,(#892,#893));
#176=EDGE_LOOP($,(#894,#895));
#177=EDGE_LOOP($,(#896,#897,#898,#899));
#178=EDGE_LOOP($,(#900,#901,#902,#903));
#179=EDGE_LOOP($,(#904,#905));
#180=EDGE_LOOP($,(#906,#907));
#181=EDGE_LOOP($,(#908,#909,#910,#911));
#182=CIRCLE($,#1068,1.4986);
#183=CIRCLE($,#1070,1.4986);
#184=CIRCLE($,#1071,1.4986);
#185=CIRCLE($,#1111,1.4986);
#186=CIRCLE($,#1113,1.4986);
#187=CIRCLE($,#1114,1.4986);
#188=CIRCLE($,#1128,1.4986);
#189=CIRCLE($,#1130,1.4986);
#190=CIRCLE($,#1131,1.4986);
#191=CIRCLE($,#1135,1.4986);
#192=CIRCLE($,#1137,1.4986);
#193=CIRCLE($,#1139,1.4986);
#194=CIRCLE($,#1142,1.4986);
#195=CIRCLE($,#1144,1.4986);
#196=CIRCLE($,#1146,1.4986);
#197=CIRCLE($,#1149,1.4986);
#198=CIRCLE($,#1151,1.4986);
#199=CIRCLE($,#1153,1.4986);
#200=LINE($,#1451,#314);
#201=LINE($,#1455,#315);
#202=LINE($,#1456,#316);
#203=LINE($,#1465,#317);
#204=LINE($,#1467,#318);
#205=LINE($,#1469,#319);
#206=LINE($,#1470,#320);
#207=LINE($,#1473,#321);
#208=LINE($,#1475,#322);
#209=LINE($,#1476,#323);
#210=LINE($,#1479,#324);
#211=LINE($,#1480,#325);
#212=LINE($,#1483,#326);
#213=LINE($,#1484,#327);
#214=LINE($,#1486,#328);
#215=LINE($,#1491,#329);
#216=LINE($,#1493,#330);
#217=LINE($,#1495,#331);
#218=LINE($,#1496,#332);
#219=LINE($,#1500,#333);
#220=LINE($,#1501,#334);
#221=LINE($,#1502,#335);
#222=LINE($,#1505,#336);
#223=LINE($,#1506,#337);
#224=LINE($,#1509,#338);
#225=LINE($,#1510,#339);
#226=LINE($,#1512,#340);
#227=LINE($,#1517,#341);
#228=LINE($,#1519,#342);
#229=LINE($,#1521,#343);
#230=LINE($,#1522,#344);
#231=LINE($,#1525,#345);
#232=LINE($,#1527,#346);
#233=LINE($,#1528,#347);
#234=LINE($,#1531,#348);
#235=LINE($,#1532,#349);
#236=LINE($,#1535,#350);
#237=LINE($,#1536,#351);
#238=LINE($,#1538,#352);
#239=LINE($,#1543,#353);
#240=LINE($,#1545,#354);
#241=LINE($,#1547,#355);
#242=LINE($,#1548,#356);
#243=LINE($,#1552,#357);
#244=LINE($,#1553,#358);
#245=LINE($,#1554,#359);
#246=LINE($,#1557,#360);
#247=LINE($,#1558,#361);
#248=LINE($,#1561,#362);
#249=LINE($,#1562,#363);
#250=LINE($,#1564,#364);
#251=LINE($,#1569,#365);
#252=LINE($,#1571,#366);
#253=LINE($,#1573,#367);
#254=LINE($,#1574,#368);
#255=LINE($,#1577,#369);
#256=LINE($,#1579,#370);
#257=LINE($,#1580,#371);
#258=LINE($,#1583,#372);
#259=LINE($,#1584,#373);
#260=LINE($,#1587,#374);
#261=LINE($,#1588,#375);
#262=LINE($,#1590,#376);
#263=LINE($,#1595,#377);
#264=LINE($,#1597,#378);
#265=LINE($,#1599,#379);
#266=LINE($,#1600,#380);
#267=LINE($,#1604,#381);
#268=LINE($,#1605,#382);
#269=LINE($,#1606,#383);
#270=LINE($,#1609,#384);
#271=LINE($,#1610,#385);
#272=LINE($,#1613,#386);
#273=LINE($,#1614,#387);
#274=LINE($,#1616,#388);
#275=LINE($,#1621,#389);
#276=LINE($,#1625,#390);
#277=LINE($,#1626,#391);
#278=LINE($,#1635,#392);
#279=LINE($,#1637,#393);
#280=LINE($,#1639,#394);
#281=LINE($,#1641,#395);
#282=LINE($,#1643,#396);
#283=LINE($,#1645,#397);
#284=LINE($,#1647,#398);
#285=LINE($,#1648,#399);
#286=LINE($,#1651,#400);
#287=LINE($,#1653,#401);
#288=LINE($,#1654,#402);
#289=LINE($,#1657,#403);
#290=LINE($,#1658,#404);
#291=LINE($,#1661,#405);
#292=LINE($,#1663,#406);
#293=LINE($,#1664,#407);
#294=LINE($,#1667,#408);
#295=LINE($,#1668,#409);
#296=LINE($,#1671,#410);
#297=LINE($,#1672,#411);
#298=LINE($,#1674,#412);
#299=LINE($,#1677,#413);
#300=LINE($,#1678,#414);
#301=LINE($,#1680,#415);
#302=LINE($,#1685,#416);
#303=LINE($,#1689,#417);
#304=LINE($,#1690,#418);
#305=LINE($,#1699,#419);
#306=LINE($,#1701,#420);
#307=LINE($,#1703,#421);
#308=LINE($,#1713,#422);
#309=LINE($,#1715,#423);
#310=LINE($,#1717,#424);
#311=LINE($,#1727,#425);
#312=LINE($,#1729,#426);
#313=LINE($,#1731,#427);
#314=VECTOR($,#1159,1.26999999999998);
#315=VECTOR($,#1162,1.26999999999993);
#316=VECTOR($,#1163,2.9972);
#317=VECTOR($,#1176,0.508);
#318=VECTOR($,#1177,0.507999999999981);
#319=VECTOR($,#1178,0.508);
#320=VECTOR($,#1179,0.507999999999981);
#321=VECTOR($,#1182,4.191);
#322=VECTOR($,#1183,0.507999999999999);
#323=VECTOR($,#1184,4.191);
#324=VECTOR($,#1187,4.191);
#325=VECTOR($,#1188,0.508);
#326=VECTOR($,#1191,4.191);
#327=VECTOR($,#1192,0.507999999999999);
#328=VECTOR($,#1195,0.508);
#329=VECTOR($,#1200,0.508);
#330=VECTOR($,#1201,0.507999999999999);
#331=VECTOR($,#1202,0.508);
#332=VECTOR($,#1203,0.507999999999999);
#333=VECTOR($,#1206,0.508);
#334=VECTOR($,#1207,4.191);
#335=VECTOR($,#1208,4.191);
#336=VECTOR($,#1211,0.507999999999981);
#337=VECTOR($,#1212,4.191);
#338=VECTOR($,#1215,0.508);
#339=VECTOR($,#1216,4.191);
#340=VECTOR($,#1219,0.507999999999981);
#341=VECTOR($,#1224,0.508);
#342=VECTOR($,#1225,0.507999999999981);
#343=VECTOR($,#1226,0.508);
#344=VECTOR($,#1227,0.507999999999981);
#345=VECTOR($,#1230,4.191);
#346=VECTOR($,#1231,0.507999999999999);
#347=VECTOR($,#1232,4.191);
#348=VECTOR($,#1235,4.191);
#349=VECTOR($,#1236,0.508);
#350=VECTOR($,#1239,4.191);
#351=VECTOR($,#1240,0.507999999999999);
#352=VECTOR($,#1243,0.508);
#353=VECTOR($,#1248,0.508);
#354=VECTOR($,#1249,0.507999999999999);
#355=VECTOR($,#1250,0.508);
#356=VECTOR($,#1251,0.507999999999999);
#357=VECTOR($,#1254,0.508);
#358=VECTOR($,#1255,4.191);
#359=VECTOR($,#1256,4.191);
#360=VECTOR($,#1259,0.507999999999981);
#361=VECTOR($,#1260,4.191);
#362=VECTOR($,#1263,0.508);
#363=VECTOR($,#1264,4.191);
#364=VECTOR($,#1267,0.507999999999981);
#365=VECTOR($,#1272,0.508);
#366=VECTOR($,#1273,0.508000000000038);
#367=VECTOR($,#1274,0.508);
#368=VECTOR($,#1275,0.508000000000038);
#369=VECTOR($,#1278,4.191);
#370=VECTOR($,#1279,0.507999999999999);
#371=VECTOR($,#1280,4.191);
#372=VECTOR($,#1283,4.191);
#373=VECTOR($,#1284,0.508);
#374=VECTOR($,#1287,4.191);
#375=VECTOR($,#1288,0.507999999999999);
#376=VECTOR($,#1291,0.508);
#377=VECTOR($,#1296,0.508);
#378=VECTOR($,#1297,0.507999999999999);
#379=VECTOR($,#1298,0.508);
#380=VECTOR($,#1299,0.507999999999999);
#381=VECTOR($,#1302,0.508);
#382=VECTOR($,#1303,4.191);
#383=VECTOR($,#1304,4.191);
#384=VECTOR($,#1307,0.508000000000038);
#385=VECTOR($,#1308,4.191);
#386=VECTOR($,#1311,0.508);
#387=VECTOR($,#1312,4.191);
#388=VECTOR($,#1315,0.508000000000038);
#389=VECTOR($,#1320,1.26999999999998);
#390=VECTOR($,#1323,1.26999999999993);
#391=VECTOR($,#1324,2.9972);
#392=VECTOR($,#1337,15.24);
#393=VECTOR($,#1338,4.318);
#394=VECTOR($,#1339,15.24);
#395=VECTOR($,#1340,0.507999999999746);
#396=VECTOR($,#1341,0.508000000000002);
#397=VECTOR($,#1342,3.302);
#398=VECTOR($,#1343,0.508000000000002);
#399=VECTOR($,#1344,0.508000000000254);
#400=VECTOR($,#1347,11.557);
#401=VECTOR($,#1348,0.508000000000002);
#402=VECTOR($,#1349,11.557);
#403=VECTOR($,#1352,0.508000000000254);
#404=VECTOR($,#1353,11.557);
#405=VECTOR($,#1356,11.557);
#406=VECTOR($,#1357,11.557);
#407=VECTOR($,#1358,0.507999999999746);
#408=VECTOR($,#1361,15.24);
#409=VECTOR($,#1362,11.557);
#410=VECTOR($,#1365,4.318);
#411=VECTOR($,#1366,11.557);
#412=VECTOR($,#1369,15.24);
#413=VECTOR($,#1372,3.302);
#414=VECTOR($,#1373,0.508000000000002);
#415=VECTOR($,#1376,11.557);
#416=VECTOR($,#1381,1.26999999999998);
#417=VECTOR($,#1384,1.26999999999993);
#418=VECTOR($,#1385,2.9972);
#419=VECTOR($,#1398,1.26999999999998);
#420=VECTOR($,#1399,2.9972);
#421=VECTOR($,#1400,1.26999999999993);
#422=VECTOR($,#1415,1.26999999999998);
#423=VECTOR($,#1416,2.9972);
#424=VECTOR($,#1417,1.26999999999993);
#425=VECTOR($,#1432,1.26999999999998);
#426=VECTOR($,#1433,2.9972);
#427=VECTOR($,#1434,1.26999999999993);
#428=VERTEX_POINT($,#1449);
#429=VERTEX_POINT($,#1450);
#430=VERTEX_POINT($,#1452);
#431=VERTEX_POINT($,#1454);
#432=VERTEX_POINT($,#1463);
#433=VERTEX_POINT($,#1464);
#434=VERTEX_POINT($,#1466);
#435=VERTEX_POINT($,#1468);
#436=VERTEX_POINT($,#1472);
#437=VERTEX_POINT($,#1474);
#438=VERTEX_POINT($,#1478);
#439=VERTEX_POINT($,#1482);
#440=VERTEX_POINT($,#1489);
#441=VERTEX_POINT($,#1490);
#442=VERTEX_POINT($,#1492);
#443=VERTEX_POINT($,#1494);
#444=VERTEX_POINT($,#1498);
#445=VERTEX_POINT($,#1499);
#446=VERTEX_POINT($,#1504);
#447=VERTEX_POINT($,#1508);
#448=VERTEX_POINT($,#1515);
#449=VERTEX_POINT($,#1516);
#450=VERTEX_POINT($,#1518);
#451=VERTEX_POINT($,#1520);
#452=VERTEX_POINT($,#1524);
#453=VERTEX_POINT($,#1526);
#454=VERTEX_POINT($,#1530);
#455=VERTEX_POINT($,#1534);
#456=VERTEX_POINT($,#1541);
#457=VERTEX_POINT($,#1542);
#458=VERTEX_POINT($,#1544);
#459=VERTEX_POINT($,#1546);
#460=VERTEX_POINT($,#1550);
#461=VERTEX_POINT($,#1551);
#462=VERTEX_POINT($,#1556);
#463=VERTEX_POINT($,#1560);
#464=VERTEX_POINT($,#1567);
#465=VERTEX_POINT($,#1568);
#466=VERTEX_POINT($,#1570);
#467=VERTEX_POINT($,#1572);
#468=VERTEX_POINT($,#1576);
#469=VERTEX_POINT($,#1578);
#470=VERTEX_POINT($,#1582);
#471=VERTEX_POINT($,#1586);
#472=VERTEX_POINT($,#1593);
#473=VERTEX_POINT($,#1594);
#474=VERTEX_POINT($,#1596);
#475=VERTEX_POINT($,#1598);
#476=VERTEX_POINT($,#1602);
#477=VERTEX_POINT($,#1603);
#478=VERTEX_POINT($,#1608);
#479=VERTEX_POINT($,#1612);
#480=VERTEX_POINT($,#1619);
#481=VERTEX_POINT($,#1620);
#482=VERTEX_POINT($,#1622);
#483=VERTEX_POINT($,#1624);
#484=VERTEX_POINT($,#1633);
#485=VERTEX_POINT($,#1634);
#486=VERTEX_POINT($,#1636);
#487=VERTEX_POINT($,#1638);
#488=VERTEX_POINT($,#1640);
#489=VERTEX_POINT($,#1642);
#490=VERTEX_POINT($,#1644);
#491=VERTEX_POINT($,#1646);
#492=VERTEX_POINT($,#1650);
#493=VERTEX_POINT($,#1652);
#494=VERTEX_POINT($,#1656);
#495=VERTEX_POINT($,#1660);
#496=VERTEX_POINT($,#1662);
#497=VERTEX_POINT($,#1666);
#498=VERTEX_POINT($,#1670);
#499=VERTEX_POINT($,#1676);
#500=VERTEX_POINT($,#1683);
#501=VERTEX_POINT($,#1684);
#502=VERTEX_POINT($,#1686);
#503=VERTEX_POINT($,#1688);
#504=VERTEX_POINT($,#1697);
#505=VERTEX_POINT($,#1698);
#506=VERTEX_POINT($,#1700);
#507=VERTEX_POINT($,#1702);
#508=VERTEX_POINT($,#1711);
#509=VERTEX_POINT($,#1712);
#510=VERTEX_POINT($,#1714);
#511=VERTEX_POINT($,#1716);
#512=VERTEX_POINT($,#1725);
#513=VERTEX_POINT($,#1726);
#514=VERTEX_POINT($,#1728);
#515=VERTEX_POINT($,#1730);
#516=EDGE_CURVE($,#428,#429,#200,.T.);
#517=EDGE_CURVE($,#429,#430,#182,.T.);
#518=EDGE_CURVE($,#430,#431,#201,.T.);
#519=EDGE_CURVE($,#431,#428,#202,.T.);
#520=EDGE_CURVE($,#428,#431,#183,.T.);
#521=EDGE_CURVE($,#429,#430,#184,.T.);
#522=EDGE_CURVE($,#432,#433,#203,.T.);
#523=EDGE_CURVE($,#433,#434,#204,.T.);
#524=EDGE_CURVE($,#434,#435,#205,.T.);
#525=EDGE_CURVE($,#435,#432,#206,.T.);
#526=EDGE_CURVE($,#436,#435,#207,.T.);
#527=EDGE_CURVE($,#437,#436,#208,.T.);
#528=EDGE_CURVE($,#437,#432,#209,.T.);
#529=EDGE_CURVE($,#438,#434,#210,.T.);
#530=EDGE_CURVE($,#436,#438,#211,.T.);
#531=EDGE_CURVE($,#439,#433,#212,.T.);
#532=EDGE_CURVE($,#438,#439,#213,.T.);
#533=EDGE_CURVE($,#439,#437,#214,.T.);
#534=EDGE_CURVE($,#440,#441,#215,.T.);
#535=EDGE_CURVE($,#441,#442,#216,.T.);
#536=EDGE_CURVE($,#442,#443,#217,.T.);
#537=EDGE_CURVE($,#443,#440,#218,.T.);
#538=EDGE_CURVE($,#444,#445,#219,.T.);
#539=EDGE_CURVE($,#443,#444,#220,.T.);
#540=EDGE_CURVE($,#442,#445,#221,.T.);
#541=EDGE_CURVE($,#445,#446,#222,.T.);
#542=EDGE_CURVE($,#441,#446,#223,.T.);
#543=EDGE_CURVE($,#446,#447,#224,.T.);
#544=EDGE_CURVE($,#440,#447,#225,.T.);
#545=EDGE_CURVE($,#447,#444,#226,.T.);
#546=EDGE_CURVE($,#448,#449,#227,.T.);
#547=EDGE_CURVE($,#449,#450,#228,.T.);
#548=EDGE_CURVE($,#450,#451,#229,.T.);
#549=EDGE_CURVE($,#451,#448,#230,.T.);
#550=EDGE_CURVE($,#452,#451,#231,.T.);
#551=EDGE_CURVE($,#453,#452,#232,.T.);
#552=EDGE_CURVE($,#453,#448,#233,.T.);
#553=EDGE_CURVE($,#454,#450,#234,.T.);
#554=EDGE_CURVE($,#452,#454,#235,.T.);
#555=EDGE_CURVE($,#455,#449,#236,.T.);
#556=EDGE_CURVE($,#454,#455,#237,.T.);
#557=EDGE_CURVE($,#455,#453,#238,.T.);
#558=EDGE_CURVE($,#456,#457,#239,.T.);
#559=EDGE_CURVE($,#457,#458,#240,.T.);
#560=EDGE_CURVE($,#458,#459,#241,.T.);
#561=EDGE_CURVE($,#459,#456,#242,.T.);
#562=EDGE_CURVE($,#460,#461,#243,.T.);
#563=EDGE_CURVE($,#459,#460,#244,.T.);
#564=EDGE_CURVE($,#458,#461,#245,.T.);
#565=EDGE_CURVE($,#461,#462,#246,.T.);
#566=EDGE_CURVE($,#457,#462,#247,.T.);
#567=EDGE_CURVE($,#462,#463,#248,.T.);
#568=EDGE_CURVE($,#456,#463,#249,.T.);
#569=EDGE_CURVE($,#463,#460,#250,.T.);
#570=EDGE_CURVE($,#464,#465,#251,.T.);
#571=EDGE_CURVE($,#465,#466,#252,.T.);
#572=EDGE_CURVE($,#466,#467,#253,.T.);
#573=EDGE_CURVE($,#467,#464,#254,.T.);
#574=EDGE_CURVE($,#468,#467,#255,.T.);
#575=EDGE_CURVE($,#469,#468,#256,.T.);
#576=EDGE_CURVE($,#469,#464,#257,.T.);
#577=EDGE_CURVE($,#470,#466,#258,.T.);
#578=EDGE_CURVE($,#468,#470,#259,.T.);
#579=EDGE_CURVE($,#471,#465,#260,.T.);
#580=EDGE_CURVE($,#470,#471,#261,.T.);
#581=EDGE_CURVE($,#471,#469,#262,.T.);
#582=EDGE_CURVE($,#472,#473,#263,.T.);
#583=EDGE_CURVE($,#473,#474,#264,.T.);
#584=EDGE_CURVE($,#474,#475,#265,.T.);
#585=EDGE_CURVE($,#475,#472,#266,.T.);
#586=EDGE_CURVE($,#476,#477,#267,.T.);
#587=EDGE_CURVE($,#475,#476,#268,.T.);
#588=EDGE_CURVE($,#474,#477,#269,.T.);
#589=EDGE_CURVE($,#477,#478,#270,.T.);
#590=EDGE_CURVE($,#473,#478,#271,.T.);
#591=EDGE_CURVE($,#478,#479,#272,.T.);
#592=EDGE_CURVE($,#472,#479,#273,.T.);
#593=EDGE_CURVE($,#479,#476,#274,.T.);
#594=EDGE_CURVE($,#480,#481,#275,.T.);
#595=EDGE_CURVE($,#481,#482,#185,.T.);
#596=EDGE_CURVE($,#482,#483,#276,.T.);
#597=EDGE_CURVE($,#483,#480,#277,.T.);
#598=EDGE_CURVE($,#480,#483,#186,.T.);
#599=EDGE_CURVE($,#481,#482,#187,.T.);
#600=EDGE_CURVE($,#484,#485,#278,.T.);
#601=EDGE_CURVE($,#485,#486,#279,.T.);
#602=EDGE_CURVE($,#486,#487,#280,.T.);
#603=EDGE_CURVE($,#487,#488,#281,.T.);
#604=EDGE_CURVE($,#488,#489,#282,.T.);
#605=EDGE_CURVE($,#490,#489,#283,.T.);
#606=EDGE_CURVE($,#491,#490,#284,.T.);
#607=EDGE_CURVE($,#491,#484,#285,.T.);
#608=EDGE_CURVE($,#490,#492,#286,.T.);
#609=EDGE_CURVE($,#493,#492,#287,.T.);
#610=EDGE_CURVE($,#493,#491,#288,.T.);
#611=EDGE_CURVE($,#493,#494,#289,.T.);
#612=EDGE_CURVE($,#484,#494,#290,.T.);
#613=EDGE_CURVE($,#495,#488,#291,.T.);
#614=EDGE_CURVE($,#487,#496,#292,.T.);
#615=EDGE_CURVE($,#496,#495,#293,.T.);
#616=EDGE_CURVE($,#494,#497,#294,.T.);
#617=EDGE_CURVE($,#485,#497,#295,.T.);
#618=EDGE_CURVE($,#497,#498,#296,.T.);
#619=EDGE_CURVE($,#486,#498,#297,.T.);
#620=EDGE_CURVE($,#498,#496,#298,.T.);
#621=EDGE_CURVE($,#492,#499,#299,.T.);
#622=EDGE_CURVE($,#495,#499,#300,.T.);
#623=EDGE_CURVE($,#489,#499,#301,.T.);
#624=EDGE_CURVE($,#500,#501,#302,.T.);
#625=EDGE_CURVE($,#501,#502,#188,.T.);
#626=EDGE_CURVE($,#502,#503,#303,.T.);
#627=EDGE_CURVE($,#503,#500,#304,.T.);
#628=EDGE_CURVE($,#500,#503,#189,.T.);
#629=EDGE_CURVE($,#501,#502,#190,.T.);
#630=EDGE_CURVE($,#504,#505,#305,.T.);
#631=EDGE_CURVE($,#506,#504,#306,.T.);
#632=EDGE_CURVE($,#507,#506,#307,.T.);
#633=EDGE_CURVE($,#505,#507,#191,.T.);
#634=EDGE_CURVE($,#507,#505,#192,.T.);
#635=EDGE_CURVE($,#506,#504,#193,.T.);
#636=EDGE_CURVE($,#508,#509,#308,.T.);
#637=EDGE_CURVE($,#510,#508,#309,.T.);
#638=EDGE_CURVE($,#511,#510,#310,.T.);
#639=EDGE_CURVE($,#509,#511,#194,.T.);
#640=EDGE_CURVE($,#511,#509,#195,.T.);
#641=EDGE_CURVE($,#510,#508,#196,.T.);
#642=EDGE_CURVE($,#512,#513,#311,.T.);
#643=EDGE_CURVE($,#514,#512,#312,.T.);
#644=EDGE_CURVE($,#515,#514,#313,.T.);
#645=EDGE_CURVE($,#513,#515,#197,.T.);
#646=EDGE_CURVE($,#515,#513,#198,.T.);
#647=EDGE_CURVE($,#514,#512,#199,.T.);
#648=ORIENTED_EDGE($,*,*,#516,.T.);
#649=ORIENTED_EDGE($,*,*,#517,.T.);
#650=ORIENTED_EDGE($,*,*,#518,.T.);
#651=ORIENTED_EDGE($,*,*,#519,.T.);
#652=ORIENTED_EDGE($,*,*,#516,.F.);
#653=ORIENTED_EDGE($,*,*,#520,.T.);
#654=ORIENTED_EDGE($,*,*,#518,.F.);
#655=ORIENTED_EDGE($,*,*,#521,.F.);
#656=ORIENTED_EDGE($,*,*,#519,.F.);
#657=ORIENTED_EDGE($,*,*,#520,.F.);
#658=ORIENTED_EDGE($,*,*,#517,.F.);
#659=ORIENTED_EDGE($,*,*,#521,.T.);
#660=ORIENTED_EDGE($,*,*,#522,.T.);
#661=ORIENTED_EDGE($,*,*,#523,.T.);
#662=ORIENTED_EDGE($,*,*,#524,.T.);
#663=ORIENTED_EDGE($,*,*,#525,.T.);
#664=ORIENTED_EDGE($,*,*,#525,.F.);
#665=ORIENTED_EDGE($,*,*,#526,.F.);
#666=ORIENTED_EDGE($,*,*,#527,.F.);
#667=ORIENTED_EDGE($,*,*,#528,.T.);
#668=ORIENTED_EDGE($,*,*,#524,.F.);
#669=ORIENTED_EDGE($,*,*,#529,.F.);
#670=ORIENTED_EDGE($,*,*,#530,.F.);
#671=ORIENTED_EDGE($,*,*,#526,.T.);
#672=ORIENTED_EDGE($,*,*,#523,.F.);
#673=ORIENTED_EDGE($,*,*,#531,.F.);
#674=ORIENTED_EDGE($,*,*,#532,.F.);
#675=ORIENTED_EDGE($,*,*,#529,.T.);
#676=ORIENTED_EDGE($,*,*,#522,.F.);
#677=ORIENTED_EDGE($,*,*,#528,.F.);
#678=ORIENTED_EDGE($,*,*,#533,.F.);
#679=ORIENTED_EDGE($,*,*,#531,.T.);
#680=ORIENTED_EDGE($,*,*,#530,.T.);
#681=ORIENTED_EDGE($,*,*,#532,.T.);
#682=ORIENTED_EDGE($,*,*,#533,.T.);
#683=ORIENTED_EDGE($,*,*,#527,.T.);
#684=ORIENTED_EDGE($,*,*,#534,.T.);
#685=ORIENTED_EDGE($,*,*,#535,.T.);
#686=ORIENTED_EDGE($,*,*,#536,.T.);
#687=ORIENTED_EDGE($,*,*,#537,.T.);
#688=ORIENTED_EDGE($,*,*,#538,.F.);
#689=ORIENTED_EDGE($,*,*,#539,.F.);
#690=ORIENTED_EDGE($,*,*,#536,.F.);
#691=ORIENTED_EDGE($,*,*,#540,.T.);
#692=ORIENTED_EDGE($,*,*,#541,.F.);
#693=ORIENTED_EDGE($,*,*,#540,.F.);
#694=ORIENTED_EDGE($,*,*,#535,.F.);
#695=ORIENTED_EDGE($,*,*,#542,.T.);
#696=ORIENTED_EDGE($,*,*,#543,.F.);
#697=ORIENTED_EDGE($,*,*,#542,.F.);
#698=ORIENTED_EDGE($,*,*,#534,.F.);
#699=ORIENTED_EDGE($,*,*,#544,.T.);
#700=ORIENTED_EDGE($,*,*,#545,.F.);
#701=ORIENTED_EDGE($,*,*,#544,.F.);
#702=ORIENTED_EDGE($,*,*,#537,.F.);
#703=ORIENTED_EDGE($,*,*,#539,.T.);
#704=ORIENTED_EDGE($,*,*,#538,.T.);
#705=ORIENTED_EDGE($,*,*,#541,.T.);
#706=ORIENTED_EDGE($,*,*,#543,.T.);
#707=ORIENTED_EDGE($,*,*,#545,.T.);
#708=ORIENTED_EDGE($,*,*,#546,.T.);
#709=ORIENTED_EDGE($,*,*,#547,.T.);
#710=ORIENTED_EDGE($,*,*,#548,.T.);
#711=ORIENTED_EDGE($,*,*,#549,.T.);
#712=ORIENTED_EDGE($,*,*,#549,.F.);
#713=ORIENTED_EDGE($,*,*,#550,.F.);
#714=ORIENTED_EDGE($,*,*,#551,.F.);
#715=ORIENTED_EDGE($,*,*,#552,.T.);
#716=ORIENTED_EDGE($,*,*,#548,.F.);
#717=ORIENTED_EDGE($,*,*,#553,.F.);
#718=ORIENTED_EDGE($,*,*,#554,.F.);
#719=ORIENTED_EDGE($,*,*,#550,.T.);
#720=ORIENTED_EDGE($,*,*,#547,.F.);
#721=ORIENTED_EDGE($,*,*,#555,.F.);
#722=ORIENTED_EDGE($,*,*,#556,.F.);
#723=ORIENTED_EDGE($,*,*,#553,.T.);
#724=ORIENTED_EDGE($,*,*,#546,.F.);
#725=ORIENTED_EDGE($,*,*,#552,.F.);
#726=ORIENTED_EDGE($,*,*,#557,.F.);
#727=ORIENTED_EDGE($,*,*,#555,.T.);
#728=ORIENTED_EDGE($,*,*,#554,.T.);
#729=ORIENTED_EDGE($,*,*,#556,.T.);
#730=ORIENTED_EDGE($,*,*,#557,.T.);
#731=ORIENTED_EDGE($,*,*,#551,.T.);
#732=ORIENTED_EDGE($,*,*,#558,.T.);
#733=ORIENTED_EDGE($,*,*,#559,.T.);
#734=ORIENTED_EDGE($,*,*,#560,.T.);
#735=ORIENTED_EDGE($,*,*,#561,.T.);
#736=ORIENTED_EDGE($,*,*,#562,.F.);
#737=ORIENTED_EDGE($,*,*,#563,.F.);
#738=ORIENTED_EDGE($,*,*,#560,.F.);
#739=ORIENTED_EDGE($,*,*,#564,.T.);
#740=ORIENTED_EDGE($,*,*,#565,.F.);
#741=ORIENTED_EDGE($,*,*,#564,.F.);
#742=ORIENTED_EDGE($,*,*,#559,.F.);
#743=ORIENTED_EDGE($,*,*,#566,.T.);
#744=ORIENTED_EDGE($,*,*,#567,.F.);
#745=ORIENTED_EDGE($,*,*,#566,.F.);
#746=ORIENTED_EDGE($,*,*,#558,.F.);
#747=ORIENTED_EDGE($,*,*,#568,.T.);
#748=ORIENTED_EDGE($,*,*,#569,.F.);
#749=ORIENTED_EDGE($,*,*,#568,.F.);
#750=ORIENTED_EDGE($,*,*,#561,.F.);
#751=ORIENTED_EDGE($,*,*,#563,.T.);
#752=ORIENTED_EDGE($,*,*,#562,.T.);
#753=ORIENTED_EDGE($,*,*,#565,.T.);
#754=ORIENTED_EDGE($,*,*,#567,.T.);
#755=ORIENTED_EDGE($,*,*,#569,.T.);
#756=ORIENTED_EDGE($,*,*,#570,.T.);
#757=ORIENTED_EDGE($,*,*,#571,.T.);
#758=ORIENTED_EDGE($,*,*,#572,.T.);
#759=ORIENTED_EDGE($,*,*,#573,.T.);
#760=ORIENTED_EDGE($,*,*,#573,.F.);
#761=ORIENTED_EDGE($,*,*,#574,.F.);
#762=ORIENTED_EDGE($,*,*,#575,.F.);
#763=ORIENTED_EDGE($,*,*,#576,.T.);
#764=ORIENTED_EDGE($,*,*,#572,.F.);
#765=ORIENTED_EDGE($,*,*,#577,.F.);
#766=ORIENTED_EDGE($,*,*,#578,.F.);
#767=ORIENTED_EDGE($,*,*,#574,.T.);
#768=ORIENTED_EDGE($,*,*,#571,.F.);
#769=ORIENTED_EDGE($,*,*,#579,.F.);
#770=ORIENTED_EDGE($,*,*,#580,.F.);
#771=ORIENTED_EDGE($,*,*,#577,.T.);
#772=ORIENTED_EDGE($,*,*,#570,.F.);
#773=ORIENTED_EDGE($,*,*,#576,.F.);
#774=ORIENTED_EDGE($,*,*,#581,.F.);
#775=ORIENTED_EDGE($,*,*,#579,.T.);
#776=ORIENTED_EDGE($,*,*,#578,.T.);
#777=ORIENTED_EDGE($,*,*,#580,.T.);
#778=ORIENTED_EDGE($,*,*,#581,.T.);
#779=ORIENTED_EDGE($,*,*,#575,.T.);
#780=ORIENTED_EDGE($,*,*,#582,.T.);
#781=ORIENTED_EDGE($,*,*,#583,.T.);
#782=ORIENTED_EDGE($,*,*,#584,.T.);
#783=ORIENTED_EDGE($,*,*,#585,.T.);
#784=ORIENTED_EDGE($,*,*,#586,.F.);
#785=ORIENTED_EDGE($,*,*,#587,.F.);
#786=ORIENTED_EDGE($,*,*,#584,.F.);
#787=ORIENTED_EDGE($,*,*,#588,.T.);
#788=ORIENTED_EDGE($,*,*,#589,.F.);
#789=ORIENTED_EDGE($,*,*,#588,.F.);
#790=ORIENTED_EDGE($,*,*,#583,.F.);
#791=ORIENTED_EDGE($,*,*,#590,.T.);
#792=ORIENTED_EDGE($,*,*,#591,.F.);
#793=ORIENTED_EDGE($,*,*,#590,.F.);
#794=ORIENTED_EDGE($,*,*,#582,.F.);
#795=ORIENTED_EDGE($,*,*,#592,.T.);
#796=ORIENTED_EDGE($,*,*,#593,.F.);
#797=ORIENTED_EDGE($,*,*,#592,.F.);
#798=ORIENTED_EDGE($,*,*,#585,.F.);
#799=ORIENTED_EDGE($,*,*,#587,.T.);
#800=ORIENTED_EDGE($,*,*,#586,.T.);
#801=ORIENTED_EDGE($,*,*,#589,.T.);
#802=ORIENTED_EDGE($,*,*,#591,.T.);
#803=ORIENTED_EDGE($,*,*,#593,.T.);
#804=ORIENTED_EDGE($,*,*,#594,.T.);
#805=ORIENTED_EDGE($,*,*,#595,.T.);
#806=ORIENTED_EDGE($,*,*,#596,.T.);
#807=ORIENTED_EDGE($,*,*,#597,.T.);
#808=ORIENTED_EDGE($,*,*,#594,.F.);
#809=ORIENTED_EDGE($,*,*,#598,.T.);
#810=ORIENTED_EDGE($,*,*,#596,.F.);
#811=ORIENTED_EDGE($,*,*,#599,.F.);
#812=ORIENTED_EDGE($,*,*,#597,.F.);
#813=ORIENTED_EDGE($,*,*,#598,.F.);
#814=ORIENTED_EDGE($,*,*,#595,.F.);
#815=ORIENTED_EDGE($,*,*,#599,.T.);
#816=ORIENTED_EDGE($,*,*,#600,.T.);
#817=ORIENTED_EDGE($,*,*,#601,.T.);
#818=ORIENTED_EDGE($,*,*,#602,.T.);
#819=ORIENTED_EDGE($,*,*,#603,.T.);
#820=ORIENTED_EDGE($,*,*,#604,.T.);
#821=ORIENTED_EDGE($,*,*,#605,.F.);
#822=ORIENTED_EDGE($,*,*,#606,.F.);
#823=ORIENTED_EDGE($,*,*,#607,.T.);
#824=ORIENTED_EDGE($,*,*,#606,.T.);
#825=ORIENTED_EDGE($,*,*,#608,.T.);
#826=ORIENTED_EDGE($,*,*,#609,.F.);
#827=ORIENTED_EDGE($,*,*,#610,.T.);
#828=ORIENTED_EDGE($,*,*,#610,.F.);
#829=ORIENTED_EDGE($,*,*,#611,.T.);
#830=ORIENTED_EDGE($,*,*,#612,.F.);
#831=ORIENTED_EDGE($,*,*,#607,.F.);
#832=ORIENTED_EDGE($,*,*,#613,.T.);
#833=ORIENTED_EDGE($,*,*,#603,.F.);
#834=ORIENTED_EDGE($,*,*,#614,.T.);
#835=ORIENTED_EDGE($,*,*,#615,.T.);
#836=ORIENTED_EDGE($,*,*,#600,.F.);
#837=ORIENTED_EDGE($,*,*,#612,.T.);
#838=ORIENTED_EDGE($,*,*,#616,.T.);
#839=ORIENTED_EDGE($,*,*,#617,.F.);
#840=ORIENTED_EDGE($,*,*,#601,.F.);
#841=ORIENTED_EDGE($,*,*,#617,.T.);
#842=ORIENTED_EDGE($,*,*,#618,.T.);
#843=ORIENTED_EDGE($,*,*,#619,.F.);
#844=ORIENTED_EDGE($,*,*,#602,.F.);
#845=ORIENTED_EDGE($,*,*,#619,.T.);
#846=ORIENTED_EDGE($,*,*,#620,.T.);
#847=ORIENTED_EDGE($,*,*,#614,.F.);
#848=ORIENTED_EDGE($,*,*,#609,.T.);
#849=ORIENTED_EDGE($,*,*,#621,.T.);
#850=ORIENTED_EDGE($,*,*,#622,.F.);
#851=ORIENTED_EDGE($,*,*,#615,.F.);
#852=ORIENTED_EDGE($,*,*,#620,.F.);
#853=ORIENTED_EDGE($,*,*,#618,.F.);
#854=ORIENTED_EDGE($,*,*,#616,.F.);
#855=ORIENTED_EDGE($,*,*,#611,.F.);
#856=ORIENTED_EDGE($,*,*,#604,.F.);
#857=ORIENTED_EDGE($,*,*,#613,.F.);
#858=ORIENTED_EDGE($,*,*,#622,.T.);
#859=ORIENTED_EDGE($,*,*,#623,.F.);
#860=ORIENTED_EDGE($,*,*,#605,.T.);
#861=ORIENTED_EDGE($,*,*,#623,.T.);
#862=ORIENTED_EDGE($,*,*,#621,.F.);
#863=ORIENTED_EDGE($,*,*,#608,.F.);
#864=ORIENTED_EDGE($,*,*,#624,.T.);
#865=ORIENTED_EDGE($,*,*,#625,.T.);
#866=ORIENTED_EDGE($,*,*,#626,.T.);
#867=ORIENTED_EDGE($,*,*,#627,.T.);
#868=ORIENTED_EDGE($,*,*,#624,.F.);
#869=ORIENTED_EDGE($,*,*,#628,.T.);
#870=ORIENTED_EDGE($,*,*,#626,.F.);
#871=ORIENTED_EDGE($,*,*,#629,.F.);
#872=ORIENTED_EDGE($,*,*,#627,.F.);
#873=ORIENTED_EDGE($,*,*,#628,.F.);
#874=ORIENTED_EDGE($,*,*,#625,.F.);
#875=ORIENTED_EDGE($,*,*,#629,.T.);
#876=ORIENTED_EDGE($,*,*,#630,.F.);
#877=ORIENTED_EDGE($,*,*,#631,.F.);
#878=ORIENTED_EDGE($,*,*,#632,.F.);
#879=ORIENTED_EDGE($,*,*,#633,.F.);
#880=ORIENTED_EDGE($,*,*,#633,.T.);
#881=ORIENTED_EDGE($,*,*,#634,.T.);
#882=ORIENTED_EDGE($,*,*,#631,.T.);
#883=ORIENTED_EDGE($,*,*,#635,.F.);
#884=ORIENTED_EDGE($,*,*,#630,.T.);
#885=ORIENTED_EDGE($,*,*,#634,.F.);
#886=ORIENTED_EDGE($,*,*,#632,.T.);
#887=ORIENTED_EDGE($,*,*,#635,.T.);
#888=ORIENTED_EDGE($,*,*,#636,.F.);
#889=ORIENTED_EDGE($,*,*,#637,.F.);
#890=ORIENTED_EDGE($,*,*,#638,.F.);
#891=ORIENTED_EDGE($,*,*,#639,.F.);
#892=ORIENTED_EDGE($,*,*,#639,.T.);
#893=ORIENTED_EDGE($,*,*,#640,.T.);
#894=ORIENTED_EDGE($,*,*,#637,.T.);
#895=ORIENTED_EDGE($,*,*,#641,.F.);
#896=ORIENTED_EDGE($,*,*,#636,.T.);
#897=ORIENTED_EDGE($,*,*,#640,.F.);
#898=ORIENTED_EDGE($,*,*,#638,.T.);
#899=ORIENTED_EDGE($,*,*,#641,.T.);
#900=ORIENTED_EDGE($,*,*,#642,.F.);
#901=ORIENTED_EDGE($,*,*,#643,.F.);
#902=ORIENTED_EDGE($,*,*,#644,.F.);
#903=ORIENTED_EDGE($,*,*,#645,.F.);
#904=ORIENTED_EDGE($,*,*,#645,.T.);
#905=ORIENTED_EDGE($,*,*,#646,.T.);
#906=ORIENTED_EDGE($,*,*,#643,.T.);
#907=ORIENTED_EDGE($,*,*,#647,.F.);
#908=ORIENTED_EDGE($,*,*,#642,.T.);
#909=ORIENTED_EDGE($,*,*,#646,.F.);
#910=ORIENTED_EDGE($,*,*,#644,.T.);
#911=ORIENTED_EDGE($,*,*,#647,.T.);
#912=PLANE($,#1067);
#913=PLANE($,#1072);
#914=PLANE($,#1074);
#915=PLANE($,#1075);
#916=PLANE($,#1076);
#917=PLANE($,#1077);
#918=PLANE($,#1078);
#919=PLANE($,#1079);
#920=PLANE($,#1080);
#921=PLANE($,#1081);
#922=PLANE($,#1082);
#923=PLANE($,#1083);
#924=PLANE($,#1084);
#925=PLANE($,#1085);
#926=PLANE($,#1086);
#927=PLANE($,#1087);
#928=PLANE($,#1088);
#929=PLANE($,#1089);
#930=PLANE($,#1090);
#931=PLANE($,#1091);
#932=PLANE($,#1092);
#933=PLANE($,#1093);
#934=PLANE($,#1094);
#935=PLANE($,#1095);
#936=PLANE($,#1096);
#937=PLANE($,#1097);
#938=PLANE($,#1098);
#939=PLANE($,#1099);
#940=PLANE($,#1100);
#941=PLANE($,#1101);
#942=PLANE($,#1102);
#943=PLANE($,#1103);
#944=PLANE($,#1104);
#945=PLANE($,#1105);
#946=PLANE($,#1106);
#947=PLANE($,#1107);
#948=PLANE($,#1108);
#949=PLANE($,#1109);
#950=PLANE($,#1110);
#951=PLANE($,#1115);
#952=PLANE($,#1117);
#953=PLANE($,#1118);
#954=PLANE($,#1119);
#955=PLANE($,#1120);
#956=PLANE($,#1121);
#957=PLANE($,#1122);
#958=PLANE($,#1123);
#959=PLANE($,#1124);
#960=PLANE($,#1125);
#961=PLANE($,#1126);
#962=PLANE($,#1127);
#963=PLANE($,#1132);
#964=PLANE($,#1134);
#965=PLANE($,#1138);
#966=PLANE($,#1141);
#967=PLANE($,#1145);
#968=PLANE($,#1148);
#969=PLANE($,#1152);
#970=ADVANCED_FACE($,(#42),#912,.T.);
#971=ADVANCED_FACE($,(#43),#36,.T.);
#972=ADVANCED_FACE($,(#44),#913,.F.);
#973=ADVANCED_FACE($,(#45),#30,.T.);
#974=ADVANCED_FACE($,(#46),#914,.T.);
#975=ADVANCED_FACE($,(#47),#915,.T.);
#976=ADVANCED_FACE($,(#48),#916,.T.);
#977=ADVANCED_FACE($,(#49),#917,.T.);
#978=ADVANCED_FACE($,(#50),#918,.T.);
#979=ADVANCED_FACE($,(#51),#919,.T.);
#980=ADVANCED_FACE($,(#52),#920,.T.);
#981=ADVANCED_FACE($,(#53),#921,.T.);
#982=ADVANCED_FACE($,(#54),#922,.T.);
#983=ADVANCED_FACE($,(#55),#923,.T.);
#984=ADVANCED_FACE($,(#56),#924,.T.);
#985=ADVANCED_FACE($,(#57),#925,.F.);
#986=ADVANCED_FACE($,(#58),#926,.F.);
#987=ADVANCED_FACE($,(#59),#927,.T.);
#988=ADVANCED_FACE($,(#60),#928,.T.);
#989=ADVANCED_FACE($,(#61),#929,.T.);
#990=ADVANCED_FACE($,(#62),#930,.T.);
#991=ADVANCED_FACE($,(#63),#931,.T.);
#992=ADVANCED_FACE($,(#64),#932,.T.);
#993=ADVANCED_FACE($,(#65),#933,.T.);
#994=ADVANCED_FACE($,(#66),#934,.T.);
#995=ADVANCED_FACE($,(#67),#935,.T.);
#996=ADVANCED_FACE($,(#68),#936,.T.);
#997=ADVANCED_FACE($,(#69),#937,.T.);
#998=ADVANCED_FACE($,(#70),#938,.T.);
#999=ADVANCED_FACE($,(#71),#939,.T.);
#1000=ADVANCED_FACE($,(#72),#940,.T.);
#1001=ADVANCED_FACE($,(#73),#941,.T.);
#1002=ADVANCED_FACE($,(#74),#942,.T.);
#1003=ADVANCED_FACE($,(#75),#943,.T.);
#1004=ADVANCED_FACE($,(#76),#944,.T.);
#1005=ADVANCED_FACE($,(#77),#945,.T.);
#1006=ADVANCED_FACE($,(#78),#946,.T.);
#1007=ADVANCED_FACE($,(#79),#947,.T.);
#1008=ADVANCED_FACE($,(#80),#948,.T.);
#1009=ADVANCED_FACE($,(#81),#949,.F.);
#1010=ADVANCED_FACE($,(#82),#950,.T.);
#1011=ADVANCED_FACE($,(#83),#37,.T.);
#1012=ADVANCED_FACE($,(#84),#951,.F.);
#1013=ADVANCED_FACE($,(#85),#31,.T.);
#1014=ADVANCED_FACE($,(#86),#952,.T.);
#1015=ADVANCED_FACE($,(#87),#953,.F.);
#1016=ADVANCED_FACE($,(#88),#954,.T.);
#1017=ADVANCED_FACE($,(#89),#955,.T.);
#1018=ADVANCED_FACE($,(#90),#956,.T.);
#1019=ADVANCED_FACE($,(#91),#957,.T.);
#1020=ADVANCED_FACE($,(#92),#958,.T.);
#1021=ADVANCED_FACE($,(#93),#959,.F.);
#1022=ADVANCED_FACE($,(#94),#960,.F.);
#1023=ADVANCED_FACE($,(#95),#961,.F.);
#1024=ADVANCED_FACE($,(#96),#962,.T.);
#1025=ADVANCED_FACE($,(#97),#38,.T.);
#1026=ADVANCED_FACE($,(#98),#963,.F.);
#1027=ADVANCED_FACE($,(#99),#32,.T.);
#1028=ADVANCED_FACE($,(#100),#964,.F.);
#1029=ADVANCED_FACE($,(#101),#33,.T.);
#1030=ADVANCED_FACE($,(#102),#965,.F.);
#1031=ADVANCED_FACE($,(#103),#39,.T.);
#1032=ADVANCED_FACE($,(#104),#966,.F.);
#1033=ADVANCED_FACE($,(#105),#34,.T.);
#1034=ADVANCED_FACE($,(#106),#967,.F.);
#1035=ADVANCED_FACE($,(#107),#40,.T.);
#1036=ADVANCED_FACE($,(#108),#968,.F.);
#1037=ADVANCED_FACE($,(#109),#35,.T.);
#1038=ADVANCED_FACE($,(#110),#969,.F.);
#1039=ADVANCED_FACE($,(#111),#41,.T.);
#1040=CLOSED_SHELL($,(#970,#971,#972,#973));
#1041=CLOSED_SHELL($,(#974,#975,#976,#977,#978,#979));
#1042=CLOSED_SHELL($,(#980,#981,#982,#983,#984,#985));
#1043=CLOSED_SHELL($,(#986,#987,#988,#989,#990,#991));
#1044=CLOSED_SHELL($,(#992,#993,#994,#995,#996,#997));
#1045=CLOSED_SHELL($,(#998,#999,#1000,#1001,#1002,#1003));
#1046=CLOSED_SHELL($,(#1004,#1005,#1006,#1007,#1008,#1009));
#1047=CLOSED_SHELL($,(#1010,#1011,#1012,#1013));
#1048=CLOSED_SHELL($,(#1014,#1015,#1016,#1017,#1018,#1019,#1020,#1021,#1022,
#1023));
#1049=CLOSED_SHELL($,(#1024,#1025,#1026,#1027));
#1050=CLOSED_SHELL($,(#1028,#1029,#1030,#1031));
#1051=CLOSED_SHELL($,(#1032,#1033,#1034,#1035));
#1052=CLOSED_SHELL($,(#1036,#1037,#1038,#1039));
#1053=MANIFOLD_SOLID_BREP('16B4',#1040);
#1054=MANIFOLD_SOLID_BREP('16B5',#1041);
#1055=MANIFOLD_SOLID_BREP('16B5',#1042);
#1056=MANIFOLD_SOLID_BREP('16B5',#1043);
#1057=MANIFOLD_SOLID_BREP('16B5',#1044);
#1058=MANIFOLD_SOLID_BREP('16B5',#1045);
#1059=MANIFOLD_SOLID_BREP('16B5',#1046);
#1060=MANIFOLD_SOLID_BREP('16D1',#1047);
#1061=MANIFOLD_SOLID_BREP('16D2',#1048);
#1062=MANIFOLD_SOLID_BREP('16D3',#1049);
#1063=MANIFOLD_SOLID_BREP('16E5',#1050);
#1064=MANIFOLD_SOLID_BREP('16E6',#1051);
#1065=MANIFOLD_SOLID_BREP('16E7',#1052);
#1066=AXIS2_PLACEMENT_3D('placement',#1447,#1155,#1156);
#1067=AXIS2_PLACEMENT_3D($,#1448,#1157,#1158);
#1068=AXIS2_PLACEMENT_3D($,#1453,#1160,#1161);
#1069=AXIS2_PLACEMENT_3D($,#1457,#1164,#1165);
#1070=AXIS2_PLACEMENT_3D($,#1458,#1166,#1167);
#1071=AXIS2_PLACEMENT_3D($,#1459,#1168,#1169);
#1072=AXIS2_PLACEMENT_3D($,#1460,#1170,#1171);
#1073=AXIS2_PLACEMENT_3D($,#1461,#1172,#1173);
#1074=AXIS2_PLACEMENT_3D($,#1462,#1174,#1175);
#1075=AXIS2_PLACEMENT_3D($,#1471,#1180,#1181);
#1076=AXIS2_PLACEMENT_3D($,#1477,#1185,#1186);
#1077=AXIS2_PLACEMENT_3D($,#1481,#1189,#1190);
#1078=AXIS2_PLACEMENT_3D($,#1485,#1193,#1194);
#1079=AXIS2_PLACEMENT_3D($,#1487,#1196,#1197);
#1080=AXIS2_PLACEMENT_3D($,#1488,#1198,#1199);
#1081=AXIS2_PLACEMENT_3D($,#1497,#1204,#1205);
#1082=AXIS2_PLACEMENT_3D($,#1503,#1209,#1210);
#1083=AXIS2_PLACEMENT_3D($,#1507,#1213,#1214);
#1084=AXIS2_PLACEMENT_3D($,#1511,#1217,#1218);
#1085=AXIS2_PLACEMENT_3D($,#1513,#1220,#1221);
#1086=AXIS2_PLACEMENT_3D($,#1514,#1222,#1223);
#1087=AXIS2_PLACEMENT_3D($,#1523,#1228,#1229);
#1088=AXIS2_PLACEMENT_3D($,#1529,#1233,#1234);
#1089=AXIS2_PLACEMENT_3D($,#1533,#1237,#1238);
#1090=AXIS2_PLACEMENT_3D($,#1537,#1241,#1242);
#1091=AXIS2_PLACEMENT_3D($,#1539,#1244,#1245);
#1092=AXIS2_PLACEMENT_3D($,#1540,#1246,#1247);
#1093=AXIS2_PLACEMENT_3D($,#1549,#1252,#1253);
#1094=AXIS2_PLACEMENT_3D($,#1555,#1257,#1258);
#1095=AXIS2_PLACEMENT_3D($,#1559,#1261,#1262);
#1096=AXIS2_PLACEMENT_3D($,#1563,#1265,#1266);
#1097=AXIS2_PLACEMENT_3D($,#1565,#1268,#1269);
#1098=AXIS2_PLACEMENT_3D($,#1566,#1270,#1271);
#1099=AXIS2_PLACEMENT_3D($,#1575,#1276,#1277);
#1100=AXIS2_PLACEMENT_3D($,#1581,#1281,#1282);
#1101=AXIS2_PLACEMENT_3D($,#1585,#1285,#1286);
#1102=AXIS2_PLACEMENT_3D($,#1589,#1289,#1290);
#1103=AXIS2_PLACEMENT_3D($,#1591,#1292,#1293);
#1104=AXIS2_PLACEMENT_3D($,#1592,#1294,#1295);
#1105=AXIS2_PLACEMENT_3D($,#1601,#1300,#1301);
#1106=AXIS2_PLACEMENT_3D($,#1607,#1305,#1306);
#1107=AXIS2_PLACEMENT_3D($,#1611,#1309,#1310);
#1108=AXIS2_PLACEMENT_3D($,#1615,#1313,#1314);
#1109=AXIS2_PLACEMENT_3D($,#1617,#1316,#1317);
#1110=AXIS2_PLACEMENT_3D($,#1618,#1318,#1319);
#1111=AXIS2_PLACEMENT_3D($,#1623,#1321,#1322);
#1112=AXIS2_PLACEMENT_3D($,#1627,#1325,#1326);
#1113=AXIS2_PLACEMENT_3D($,#1628,#1327,#1328);
#1114=AXIS2_PLACEMENT_3D($,#1629,#1329,#1330);
#1115=AXIS2_PLACEMENT_3D($,#1630,#1331,#1332);
#1116=AXIS2_PLACEMENT_3D($,#1631,#1333,#1334);
#1117=AXIS2_PLACEMENT_3D($,#1632,#1335,#1336);
#1118=AXIS2_PLACEMENT_3D($,#1649,#1345,#1346);
#1119=AXIS2_PLACEMENT_3D($,#1655,#1350,#1351);
#1120=AXIS2_PLACEMENT_3D($,#1659,#1354,#1355);
#1121=AXIS2_PLACEMENT_3D($,#1665,#1359,#1360);
#1122=AXIS2_PLACEMENT_3D($,#1669,#1363,#1364);
#1123=AXIS2_PLACEMENT_3D($,#1673,#1367,#1368);
#1124=AXIS2_PLACEMENT_3D($,#1675,#1370,#1371);
#1125=AXIS2_PLACEMENT_3D($,#1679,#1374,#1375);
#1126=AXIS2_PLACEMENT_3D($,#1681,#1377,#1378);
#1127=AXIS2_PLACEMENT_3D($,#1682,#1379,#1380);
#1128=AXIS2_PLACEMENT_3D($,#1687,#1382,#1383);
#1129=AXIS2_PLACEMENT_3D($,#1691,#1386,#1387);
#1130=AXIS2_PLACEMENT_3D($,#1692,#1388,#1389);
#1131=AXIS2_PLACEMENT_3D($,#1693,#1390,#1391);
#1132=AXIS2_PLACEMENT_3D($,#1694,#1392,#1393);
#1133=AXIS2_PLACEMENT_3D($,#1695,#1394,#1395);
#1134=AXIS2_PLACEMENT_3D($,#1696,#1396,#1397);
#1135=AXIS2_PLACEMENT_3D($,#1704,#1401,#1402);
#1136=AXIS2_PLACEMENT_3D($,#1705,#1403,#1404);
#1137=AXIS2_PLACEMENT_3D($,#1706,#1405,#1406);
#1138=AXIS2_PLACEMENT_3D($,#1707,#1407,#1408);
#1139=AXIS2_PLACEMENT_3D($,#1708,#1409,#1410);
#1140=AXIS2_PLACEMENT_3D($,#1709,#1411,#1412);
#1141=AXIS2_PLACEMENT_3D($,#1710,#1413,#1414);
#1142=AXIS2_PLACEMENT_3D($,#1718,#1418,#1419);
#1143=AXIS2_PLACEMENT_3D($,#1719,#1420,#1421);
#1144=AXIS2_PLACEMENT_3D($,#1720,#1422,#1423);
#1145=AXIS2_PLACEMENT_3D($,#1721,#1424,#1425);
#1146=AXIS2_PLACEMENT_3D($,#1722,#1426,#1427);
#1147=AXIS2_PLACEMENT_3D($,#1723,#1428,#1429);
#1148=AXIS2_PLACEMENT_3D($,#1724,#1430,#1431);
#1149=AXIS2_PLACEMENT_3D($,#1732,#1435,#1436);
#1150=AXIS2_PLACEMENT_3D($,#1733,#1437,#1438);
#1151=AXIS2_PLACEMENT_3D($,#1734,#1439,#1440);
#1152=AXIS2_PLACEMENT_3D($,#1735,#1441,#1442);
#1153=AXIS2_PLACEMENT_3D($,#1736,#1443,#1444);
#1154=AXIS2_PLACEMENT_3D($,#1737,#1445,#1446);
#1155=DIRECTION('axis',(0.,0.,1.));
#1156=DIRECTION('refdir',(1.,0.,0.));
#1157=DIRECTION('center_axis',(1.,0.,0.));
#1158=DIRECTION('ref_axis',(0.,0.,1.));
#1159=DIRECTION($,(0.,-1.,-3.44509284839767E-16));
#1160=DIRECTION('center_axis',(1.,0.,0.));
#1161=DIRECTION('ref_axis',(0.,0.,1.));
#1162=DIRECTION($,(0.,1.,3.44509284839767E-16));
#1163=DIRECTION($,(0.,-3.44509284839767E-16,1.));
#1164=DIRECTION('center_axis',(0.,-1.,-3.44509284839767E-16));
#1165=DIRECTION('ref_axis',(0.,-3.44509284839767E-16,1.));
#1166=DIRECTION('center_axis',(0.,-1.,-3.44509284839767E-16));
#1167=DIRECTION('ref_axis',(0.,-3.44509284839767E-16,1.));
#1168=DIRECTION('center_axis',(0.,-1.,-3.44509284839767E-16));
#1169=DIRECTION('ref_axis',(0.,-3.44509284839767E-16,1.));
#1170=DIRECTION('center_axis',(0.,-1.,-3.44509284839767E-16));
#1171=DIRECTION('ref_axis',(0.,0.,-1.));
#1172=DIRECTION('center_axis',(0.577350269189626,0.577350269189626,0.577350269189626));
#1173=DIRECTION('ref_axis',(-0.707106781186548,0.,0.707106781186547));
#1174=DIRECTION('center_axis',(0.,3.44509284839767E-16,-1.));
#1175=DIRECTION('ref_axis',(0.,1.,3.49676543189026E-16));
#1176=DIRECTION($,(-1.,0.,0.));
#1177=DIRECTION($,(0.,1.,3.44509284839767E-16));
#1178=DIRECTION($,(1.,0.,0.));
#1179=DIRECTION($,(0.,-1.,-3.44509284839767E-16));
#1180=DIRECTION('center_axis',(1.,0.,0.));
#1181=DIRECTION('ref_axis',(0.,-1.,0.));
#1182=DIRECTION($,(0.,0.,-1.));
#1183=DIRECTION($,(0.,1.,0.));
#1184=DIRECTION($,(0.,0.,-1.));
#1185=DIRECTION('center_axis',(0.,1.,0.));
#1186=DIRECTION('ref_axis',(1.,0.,0.));
#1187=DIRECTION($,(0.,0.,-1.));
#1188=DIRECTION($,(-1.,0.,0.));
#1189=DIRECTION('center_axis',(-1.,0.,0.));
#1190=DIRECTION('ref_axis',(0.,1.,0.));
#1191=DIRECTION($,(0.,0.,-1.));
#1192=DIRECTION($,(0.,-1.,0.));
#1193=DIRECTION('center_axis',(0.,-1.,0.));
#1194=DIRECTION('ref_axis',(-1.,0.,0.));
#1195=DIRECTION($,(1.,0.,0.));
#1196=DIRECTION('center_axis',(0.,0.,1.));
#1197=DIRECTION('ref_axis',(1.,0.,0.));
#1198=DIRECTION('center_axis',(0.,0.,1.));
#1199=DIRECTION('ref_axis',(1.,0.,0.));
#1200=DIRECTION($,(-1.,0.,0.));
#1201=DIRECTION($,(0.,-1.,0.));
#1202=DIRECTION($,(1.,0.,0.));
#1203=DIRECTION($,(0.,1.,0.));
#1204=DIRECTION('center_axis',(0.,-1.,0.));
#1205=DIRECTION('ref_axis',(-1.,0.,0.));
#1206=DIRECTION($,(-1.,0.,0.));
#1207=DIRECTION($,(0.,0.,-1.));
#1208=DIRECTION($,(0.,0.,-1.));
#1209=DIRECTION('center_axis',(-1.,0.,0.));
#1210=DIRECTION('ref_axis',(0.,1.,0.));
#1211=DIRECTION($,(0.,1.,3.44509284839767E-16));
#1212=DIRECTION($,(0.,0.,-1.));
#1213=DIRECTION('center_axis',(0.,1.,0.));
#1214=DIRECTION('ref_axis',(1.,0.,0.));
#1215=DIRECTION($,(1.,0.,0.));
#1216=DIRECTION($,(0.,0.,-1.));
#1217=DIRECTION('center_axis',(1.,0.,0.));
#1218=DIRECTION('ref_axis',(0.,-1.,0.));
#1219=DIRECTION($,(0.,-1.,-3.44509284839767E-16));
#1220=DIRECTION('center_axis',(0.,-3.44509284839767E-16,1.));
#1221=DIRECTION('ref_axis',(0.,1.,3.49676543189026E-16));
#1222=DIRECTION('center_axis',(0.,-3.44509284839767E-16,1.));
#1223=DIRECTION('ref_axis',(0.,1.,3.49676543189026E-16));
#1224=DIRECTION($,(-1.,0.,0.));
#1225=DIRECTION($,(0.,1.,3.44509284839767E-16));
#1226=DIRECTION($,(1.,0.,0.));
#1227=DIRECTION($,(0.,-1.,-3.44509284839767E-16));
#1228=DIRECTION('center_axis',(1.,0.,0.));
#1229=DIRECTION('ref_axis',(0.,-1.,0.));
#1230=DIRECTION($,(0.,0.,-1.));
#1231=DIRECTION($,(0.,1.,0.));
#1232=DIRECTION($,(0.,0.,-1.));
#1233=DIRECTION('center_axis',(0.,1.,0.));
#1234=DIRECTION('ref_axis',(1.,0.,0.));
#1235=DIRECTION($,(0.,0.,-1.));
#1236=DIRECTION($,(-1.,0.,0.));
#1237=DIRECTION('center_axis',(-1.,0.,0.));
#1238=DIRECTION('ref_axis',(0.,1.,0.));
#1239=DIRECTION($,(0.,0.,-1.));
#1240=DIRECTION($,(0.,-1.,0.));
#1241=DIRECTION('center_axis',(0.,-1.,0.));
#1242=DIRECTION('ref_axis',(-1.,0.,0.));
#1243=DIRECTION($,(1.,0.,0.));
#1244=DIRECTION('center_axis',(0.,0.,1.));
#1245=DIRECTION('ref_axis',(1.,0.,0.));
#1246=DIRECTION('center_axis',(0.,0.,1.));
#1247=DIRECTION('ref_axis',(1.,0.,0.));
#1248=DIRECTION($,(-1.,0.,0.));
#1249=DIRECTION($,(0.,-1.,0.));
#1250=DIRECTION($,(1.,0.,0.));
#1251=DIRECTION($,(0.,1.,0.));
#1252=DIRECTION('center_axis',(0.,-1.,0.));
#1253=DIRECTION('ref_axis',(-1.,0.,0.));
#1254=DIRECTION($,(-1.,0.,0.));
#1255=DIRECTION($,(0.,0.,-1.));
#1256=DIRECTION($,(0.,0.,-1.));
#1257=DIRECTION('center_axis',(-1.,0.,0.));
#1258=DIRECTION('ref_axis',(0.,1.,0.));
#1259=DIRECTION($,(0.,1.,3.44509284839767E-16));
#1260=DIRECTION($,(0.,0.,-1.));
#1261=DIRECTION('center_axis',(0.,1.,0.));
#1262=DIRECTION('ref_axis',(1.,0.,0.));
#1263=DIRECTION($,(1.,0.,0.));
#1264=DIRECTION($,(0.,0.,-1.));
#1265=DIRECTION('center_axis',(1.,0.,0.));
#1266=DIRECTION('ref_axis',(0.,-1.,0.));
#1267=DIRECTION($,(0.,-1.,-3.44509284839767E-16));
#1268=DIRECTION('center_axis',(0.,3.44509284839767E-16,-1.));
#1269=DIRECTION('ref_axis',(0.,1.,3.49676543189026E-16));
#1270=DIRECTION('center_axis',(0.,3.44509284839767E-16,-1.));
#1271=DIRECTION('ref_axis',(0.,1.,3.49676543189026E-16));
#1272=DIRECTION($,(-1.,0.,0.));
#1273=DIRECTION($,(0.,1.,3.44509284839767E-16));
#1274=DIRECTION($,(1.,0.,0.));
#1275=DIRECTION($,(0.,-1.,-3.44509284839767E-16));
#1276=DIRECTION('center_axis',(1.,0.,0.));
#1277=DIRECTION('ref_axis',(0.,-1.,0.));
#1278=DIRECTION($,(0.,0.,-1.));
#1279=DIRECTION($,(0.,1.,0.));
#1280=DIRECTION($,(0.,0.,-1.));
#1281=DIRECTION('center_axis',(0.,1.,0.));
#1282=DIRECTION('ref_axis',(1.,0.,0.));
#1283=DIRECTION($,(0.,0.,-1.));
#1284=DIRECTION($,(-1.,0.,0.));
#1285=DIRECTION('center_axis',(-1.,0.,0.));
#1286=DIRECTION('ref_axis',(0.,1.,0.));
#1287=DIRECTION($,(0.,0.,-1.));
#1288=DIRECTION($,(0.,-1.,0.));
#1289=DIRECTION('center_axis',(0.,-1.,0.));
#1290=DIRECTION('ref_axis',(-1.,0.,0.));
#1291=DIRECTION($,(1.,0.,0.));
#1292=DIRECTION('center_axis',(0.,0.,1.));
#1293=DIRECTION('ref_axis',(1.,0.,0.));
#1294=DIRECTION('center_axis',(0.,0.,1.));
#1295=DIRECTION('ref_axis',(1.,0.,0.));
#1296=DIRECTION($,(-1.,0.,0.));
#1297=DIRECTION($,(0.,-1.,0.));
#1298=DIRECTION($,(1.,0.,0.));
#1299=DIRECTION($,(0.,1.,0.));
#1300=DIRECTION('center_axis',(0.,-1.,0.));
#1301=DIRECTION('ref_axis',(-1.,0.,0.));
#1302=DIRECTION($,(-1.,0.,0.));
#1303=DIRECTION($,(0.,0.,-1.));
#1304=DIRECTION($,(0.,0.,-1.));
#1305=DIRECTION('center_axis',(-1.,0.,0.));
#1306=DIRECTION('ref_axis',(0.,1.,0.));
#1307=DIRECTION($,(0.,1.,3.44509284839767E-16));
#1308=DIRECTION($,(0.,0.,-1.));
#1309=DIRECTION('center_axis',(0.,1.,0.));
#1310=DIRECTION('ref_axis',(1.,0.,0.));
#1311=DIRECTION($,(1.,0.,0.));
#1312=DIRECTION($,(0.,0.,-1.));
#1313=DIRECTION('center_axis',(1.,0.,0.));
#1314=DIRECTION('ref_axis',(0.,-1.,0.));
#1315=DIRECTION($,(0.,-1.,-3.44509284839767E-16));
#1316=DIRECTION('center_axis',(0.,-3.44509284839767E-16,1.));
#1317=DIRECTION('ref_axis',(0.,1.,3.49676543189026E-16));
#1318=DIRECTION('center_axis',(1.,0.,0.));
#1319=DIRECTION('ref_axis',(0.,0.,1.));
#1320=DIRECTION($,(0.,-1.,-3.44509284839767E-16));
#1321=DIRECTION('center_axis',(1.,0.,0.));
#1322=DIRECTION('ref_axis',(0.,0.,1.));
#1323=DIRECTION($,(0.,1.,3.44509284839767E-16));
#1324=DIRECTION($,(0.,-3.44509284839767E-16,1.));
#1325=DIRECTION('center_axis',(0.,-1.,-3.44509284839767E-16));
#1326=DIRECTION('ref_axis',(0.,-3.44509284839767E-16,1.));
#1327=DIRECTION('center_axis',(0.,-1.,-3.44509284839767E-16));
#1328=DIRECTION('ref_axis',(0.,-3.44509284839767E-16,1.));
#1329=DIRECTION('center_axis',(0.,-1.,-3.44509284839767E-16));
#1330=DIRECTION('ref_axis',(0.,-3.44509284839767E-16,1.));
#1331=DIRECTION('center_axis',(0.,-1.,-3.44509284839767E-16));
#1332=DIRECTION('ref_axis',(0.,0.,-1.));
#1333=DIRECTION('center_axis',(0.577350269189626,0.577350269189626,0.577350269189626));
#1334=DIRECTION('ref_axis',(-0.707106781186547,0.,0.707106781186548));
#1335=DIRECTION('center_axis',(0.,-1.,-3.44509284839767E-16));
#1336=DIRECTION('ref_axis',(1.,0.,0.));
#1337=DIRECTION($,(0.,-3.44509284839767E-16,1.));
#1338=DIRECTION($,(-1.,0.,0.));
#1339=DIRECTION($,(0.,3.44509284839767E-16,-1.));
#1340=DIRECTION($,(1.,0.,0.));
#1341=DIRECTION($,(0.,-3.44509284839767E-16,1.));
#1342=DIRECTION($,(-1.,0.,0.));
#1343=DIRECTION($,(0.,-3.44509284839767E-16,1.));
#1344=DIRECTION($,(1.,0.,0.));
#1345=DIRECTION('center_axis',(1.,0.,0.));
#1346=DIRECTION('ref_axis',(0.,-3.49676543189026E-16,1.));
#1347=DIRECTION($,(0.,1.,3.44509284839767E-16));
#1348=DIRECTION($,(0.,-3.44509284839767E-16,1.));
#1349=DIRECTION($,(0.,-1.,-3.44509284839767E-16));
#1350=DIRECTION('center_axis',(0.,3.44509284839767E-16,-1.));
#1351=DIRECTION('ref_axis',(1.,0.,0.));
#1352=DIRECTION($,(1.,0.,0.));
#1353=DIRECTION($,(0.,1.,3.44509284839767E-16));
#1354=DIRECTION('center_axis',(0.,3.44509284839767E-16,-1.));
#1355=DIRECTION('ref_axis',(1.,0.,0.));
#1356=DIRECTION($,(0.,-1.,-3.44509284839767E-16));
#1357=DIRECTION($,(0.,1.,3.44509284839767E-16));
#1358=DIRECTION($,(1.,0.,0.));
#1359=DIRECTION('center_axis',(1.,0.,0.));
#1360=DIRECTION('ref_axis',(0.,-3.49676543189026E-16,1.));
#1361=DIRECTION($,(0.,-3.44509284839767E-16,1.));
#1362=DIRECTION($,(0.,1.,3.44509284839767E-16));
#1363=DIRECTION('center_axis',(0.,-3.44509284839767E-16,1.));
#1364=DIRECTION('ref_axis',(-1.,0.,0.));
#1365=DIRECTION($,(-1.,0.,0.));
#1366=DIRECTION($,(0.,1.,3.44509284839767E-16));
#1367=DIRECTION('center_axis',(-1.,0.,0.));
#1368=DIRECTION('ref_axis',(0.,3.49676543189026E-16,-1.));
#1369=DIRECTION($,(0.,3.44509284839767E-16,-1.));
#1370=DIRECTION('center_axis',(0.,-1.,-3.44509284839767E-16));
#1371=DIRECTION('ref_axis',(1.,0.,0.));
#1372=DIRECTION($,(-1.,0.,0.));
#1373=DIRECTION($,(0.,-3.44509284839767E-16,1.));
#1374=DIRECTION('center_axis',(-1.,0.,0.));
#1375=DIRECTION('ref_axis',(0.,3.49676543189026E-16,-1.));
#1376=DIRECTION($,(0.,1.,3.44509284839767E-16));
#1377=DIRECTION('center_axis',(0.,-3.44509284839767E-16,1.));
#1378=DIRECTION('ref_axis',(-1.,0.,0.));
#1379=DIRECTION('center_axis',(1.,0.,0.));
#1380=DIRECTION('ref_axis',(0.,0.,1.));
#1381=DIRECTION($,(0.,-1.,-3.44509284839767E-16));
#1382=DIRECTION('center_axis',(1.,0.,0.));
#1383=DIRECTION('ref_axis',(0.,0.,1.));
#1384=DIRECTION($,(0.,1.,3.44509284839767E-16));
#1385=DIRECTION($,(0.,-3.44509284839767E-16,1.));
#1386=DIRECTION('center_axis',(0.,-1.,-3.44509284839767E-16));
#1387=DIRECTION('ref_axis',(0.,-3.44509284839767E-16,1.));
#1388=DIRECTION('center_axis',(0.,-1.,-3.44509284839767E-16));
#1389=DIRECTION('ref_axis',(0.,-3.44509284839767E-16,1.));
#1390=DIRECTION('center_axis',(0.,-1.,-3.44509284839767E-16));
#1391=DIRECTION('ref_axis',(0.,-3.44509284839767E-16,1.));
#1392=DIRECTION('center_axis',(0.,-1.,-3.44509284839767E-16));
#1393=DIRECTION('ref_axis',(0.,0.,-1.));
#1394=DIRECTION('center_axis',(0.577350269189626,0.577350269189626,0.577350269189626));
#1395=DIRECTION('ref_axis',(-0.707106781186548,0.,0.707106781186547));
#1396=DIRECTION('center_axis',(1.,0.,0.));
#1397=DIRECTION('ref_axis',(0.,0.,1.));
#1398=DIRECTION($,(0.,-1.,-3.44509284839767E-16));
#1399=DIRECTION($,(0.,-3.44509284839767E-16,1.));
#1400=DIRECTION($,(0.,1.,3.44509284839767E-16));
#1401=DIRECTION('center_axis',(1.,0.,0.));
#1402=DIRECTION('ref_axis',(0.,0.,1.));
#1403=DIRECTION('center_axis',(0.577350269189626,0.577350269189626,0.577350269189626));
#1404=DIRECTION('ref_axis',(-0.707106781186548,0.,0.707106781186547));
#1405=DIRECTION('center_axis',(0.,-1.,-3.44509284839767E-16));
#1406=DIRECTION('ref_axis',(0.,-3.44509284839767E-16,1.));
#1407=DIRECTION('center_axis',(0.,-1.,-3.44509284839767E-16));
#1408=DIRECTION('ref_axis',(0.,0.,-1.));
#1409=DIRECTION('center_axis',(0.,-1.,-3.44509284839767E-16));
#1410=DIRECTION('ref_axis',(0.,-3.44509284839767E-16,1.));
#1411=DIRECTION('center_axis',(0.,-1.,-3.44509284839767E-16));
#1412=DIRECTION('ref_axis',(0.,-3.44509284839767E-16,1.));
#1413=DIRECTION('center_axis',(1.,0.,0.));
#1414=DIRECTION('ref_axis',(0.,0.,1.));
#1415=DIRECTION($,(0.,-1.,-3.44509284839767E-16));
#1416=DIRECTION($,(0.,-3.44509284839767E-16,1.));
#1417=DIRECTION($,(0.,1.,3.44509284839767E-16));
#1418=DIRECTION('center_axis',(1.,0.,0.));
#1419=DIRECTION('ref_axis',(0.,0.,1.));
#1420=DIRECTION('center_axis',(0.577350269189626,0.577350269189626,0.577350269189626));
#1421=DIRECTION('ref_axis',(-0.707106781186547,0.,0.707106781186548));
#1422=DIRECTION('center_axis',(0.,-1.,-3.44509284839767E-16));
#1423=DIRECTION('ref_axis',(0.,-3.44509284839767E-16,1.));
#1424=DIRECTION('center_axis',(0.,-1.,-3.44509284839767E-16));
#1425=DIRECTION('ref_axis',(0.,0.,-1.));
#1426=DIRECTION('center_axis',(0.,-1.,-3.44509284839767E-16));
#1427=DIRECTION('ref_axis',(0.,-3.44509284839767E-16,1.));
#1428=DIRECTION('center_axis',(0.,-1.,-3.44509284839767E-16));
#1429=DIRECTION('ref_axis',(0.,-3.44509284839767E-16,1.));
#1430=DIRECTION('center_axis',(1.,0.,0.));
#1431=DIRECTION('ref_axis',(0.,0.,1.));
#1432=DIRECTION($,(0.,-1.,-3.44509284839767E-16));
#1433=DIRECTION($,(0.,-3.44509284839767E-16,1.));
#1434=DIRECTION($,(0.,1.,3.44509284839767E-16));
#1435=DIRECTION('center_axis',(1.,0.,0.));
#1436=DIRECTION('ref_axis',(0.,0.,1.));
#1437=DIRECTION('center_axis',(0.577350269189626,0.577350269189626,0.577350269189626));
#1438=DIRECTION('ref_axis',(-0.707106781186548,0.,0.707106781186547));
#1439=DIRECTION('center_axis',(0.,-1.,-3.44509284839767E-16));
#1440=DIRECTION('ref_axis',(0.,-3.44509284839767E-16,1.));
#1441=DIRECTION('center_axis',(0.,-1.,-3.44509284839767E-16));
#1442=DIRECTION('ref_axis',(0.,0.,-1.));
#1443=DIRECTION('center_axis',(0.,-1.,-3.44509284839767E-16));
#1444=DIRECTION('ref_axis',(0.,-3.44509284839767E-16,1.));
#1445=DIRECTION('center_axis',(0.,-1.,-3.44509284839767E-16));
#1446=DIRECTION('ref_axis',(0.,-3.44509284839767E-16,1.));
#1447=CARTESIAN_POINT('',(0.,0.,0.));
#1448=CARTESIAN_POINT('Origin',(0.,-6.98500000000001,0.507999999999999));
#1449=CARTESIAN_POINT('',(0.,-6.98500000000001,14.1986));
#1450=CARTESIAN_POINT('',(0.,-8.255,14.1986));
#1451=CARTESIAN_POINT($,(0.,-6.85419000000002,14.1986));
#1452=CARTESIAN_POINT('',(0.,-8.25499999999994,11.2014));
#1453=CARTESIAN_POINT('Origin',(0.,-8.255,12.7));
#1454=CARTESIAN_POINT('',(0.,-6.98500000000001,11.2014));
#1455=CARTESIAN_POINT($,(0.,-6.85419000000002,11.2014));
#1456=CARTESIAN_POINT($,(0.,-6.98500000000001,6.52848887711774));
#1457=CARTESIAN_POINT('Origin',(0.,-6.85419000000002,12.7));
#1458=CARTESIAN_POINT('Origin',(0.,-6.98500000000001,12.7));
#1459=CARTESIAN_POINT('Origin',(0.,-8.255,12.7));
#1460=CARTESIAN_POINT('Origin',(-0.756068386850015,-6.98500000000001,12.5489777542355));
#1461=CARTESIAN_POINT('Origin',(0.,-8.255,12.7));
#1462=CARTESIAN_POINT('Origin',(0.,-6.98500000000001,-3.683));
#1463=CARTESIAN_POINT('',(1.524,-2.79399999999998,-3.68299999999999));
#1464=CARTESIAN_POINT('',(1.016,-2.79399999999998,-3.68299999999999));
#1465=CARTESIAN_POINT($,(0.762,-2.794,-3.683));
#1466=CARTESIAN_POINT('',(1.016,-2.28599999999999,-3.68299999999999));
#1467=CARTESIAN_POINT($,(1.016,-4.8895,-3.683));
#1468=CARTESIAN_POINT('',(1.524,-2.28599999999999,-3.68299999999999));
#1469=CARTESIAN_POINT($,(0.508,-2.286,-3.683));
#1470=CARTESIAN_POINT($,(1.524,-4.6355,-3.683));
#1471=CARTESIAN_POINT('Origin',(1.524,-2.286,0.508000000000003));
#1472=CARTESIAN_POINT('',(1.524,-2.286,0.508000000000003));
#1473=CARTESIAN_POINT($,(1.524,-2.286,0.508000000000003));
#1474=CARTESIAN_POINT('',(1.524,-2.794,0.508000000000003));
#1475=CARTESIAN_POINT($,(1.524,-2.794,0.508000000000003));
#1476=CARTESIAN_POINT($,(1.524,-2.794,0.508000000000003));
#1477=CARTESIAN_POINT('Origin',(1.016,-2.286,0.508000000000003));
#1478=CARTESIAN_POINT('',(1.016,-2.286,0.508000000000003));
#1479=CARTESIAN_POINT($,(1.016,-2.286,0.508000000000003));
#1480=CARTESIAN_POINT($,(1.524,-2.286,0.508000000000003));
#1481=CARTESIAN_POINT('Origin',(1.016,-2.794,0.508000000000003));
#1482=CARTESIAN_POINT('',(1.016,-2.794,0.508000000000003));
#1483=CARTESIAN_POINT($,(1.016,-2.794,0.508000000000003));
#1484=CARTESIAN_POINT($,(1.016,-2.286,0.508000000000003));
#1485=CARTESIAN_POINT('Origin',(1.524,-2.794,0.508000000000003));
#1486=CARTESIAN_POINT($,(1.016,-2.794,0.508000000000003));
#1487=CARTESIAN_POINT('Origin',(1.27,-2.54,0.508000000000003));
#1488=CARTESIAN_POINT('Origin',(-1.27,2.54,0.508000000000006));
#1489=CARTESIAN_POINT('',(-1.016,2.794,0.508000000000006));
#1490=CARTESIAN_POINT('',(-1.524,2.794,0.508000000000006));
#1491=CARTESIAN_POINT($,(-1.016,2.794,0.508000000000006));
#1492=CARTESIAN_POINT('',(-1.524,2.286,0.508000000000006));
#1493=CARTESIAN_POINT($,(-1.524,2.794,0.508000000000006));
#1494=CARTESIAN_POINT('',(-1.016,2.286,0.508000000000006));
#1495=CARTESIAN_POINT($,(-1.524,2.286,0.508000000000006));
#1496=CARTESIAN_POINT($,(-1.016,2.286,0.508000000000006));
#1497=CARTESIAN_POINT('Origin',(-1.016,2.286,0.508000000000006));
#1498=CARTESIAN_POINT('',(-1.016,2.28600000000001,-3.68299999999999));
#1499=CARTESIAN_POINT('',(-1.524,2.28600000000001,-3.68299999999999));
#1500=CARTESIAN_POINT($,(-0.508,2.286,-3.68299999999999));
#1501=CARTESIAN_POINT($,(-1.016,2.286,0.508000000000006));
#1502=CARTESIAN_POINT($,(-1.524,2.286,0.508000000000006));
#1503=CARTESIAN_POINT('Origin',(-1.524,2.286,0.508000000000006));
#1504=CARTESIAN_POINT('',(-1.524,2.79399999999999,-3.68299999999999));
#1505=CARTESIAN_POINT($,(-1.524,0.19049999999999,-3.68299999999999));
#1506=CARTESIAN_POINT($,(-1.524,2.794,0.508000000000006));
#1507=CARTESIAN_POINT('Origin',(-1.524,2.794,0.508000000000006));
#1508=CARTESIAN_POINT('',(-1.016,2.79399999999999,-3.68299999999999));
#1509=CARTESIAN_POINT($,(-0.762,2.794,-3.68299999999999));
#1510=CARTESIAN_POINT($,(-1.016,2.794,0.508000000000006));
#1511=CARTESIAN_POINT('Origin',(-1.016,2.794,0.508000000000006));
#1512=CARTESIAN_POINT($,(-1.016,0.44449999999999,-3.68299999999999));
#1513=CARTESIAN_POINT('Origin',(0.,-1.90500000000002,-3.68299999999999));
#1514=CARTESIAN_POINT('Origin',(0.,-6.98500000000001,-3.683));
#1515=CARTESIAN_POINT('',(-1.016,-2.79399999999998,-3.68299999999999));
#1516=CARTESIAN_POINT('',(-1.524,-2.79399999999998,-3.68299999999999));
#1517=CARTESIAN_POINT($,(-0.508,-2.794,-3.683));
#1518=CARTESIAN_POINT('',(-1.524,-2.28599999999999,-3.68299999999999));
#1519=CARTESIAN_POINT($,(-1.524,-4.8895,-3.683));
#1520=CARTESIAN_POINT('',(-1.016,-2.28599999999999,-3.68299999999999));
#1521=CARTESIAN_POINT($,(-0.762,-2.286,-3.683));
#1522=CARTESIAN_POINT($,(-1.016,-4.6355,-3.683));
#1523=CARTESIAN_POINT('Origin',(-1.016,-2.286,0.508000000000003));
#1524=CARTESIAN_POINT('',(-1.016,-2.286,0.508000000000003));
#1525=CARTESIAN_POINT($,(-1.016,-2.286,0.508000000000003));
#1526=CARTESIAN_POINT('',(-1.016,-2.794,0.508000000000003));
#1527=CARTESIAN_POINT($,(-1.016,-2.794,0.508000000000003));
#1528=CARTESIAN_POINT($,(-1.016,-2.794,0.508000000000003));
#1529=CARTESIAN_POINT('Origin',(-1.524,-2.286,0.508000000000003));
#1530=CARTESIAN_POINT('',(-1.524,-2.286,0.508000000000003));
#1531=CARTESIAN_POINT($,(-1.524,-2.286,0.508000000000003));
#1532=CARTESIAN_POINT($,(-1.016,-2.286,0.508000000000003));
#1533=CARTESIAN_POINT('Origin',(-1.524,-2.794,0.508000000000003));
#1534=CARTESIAN_POINT('',(-1.524,-2.794,0.508000000000003));
#1535=CARTESIAN_POINT($,(-1.524,-2.794,0.508000000000003));
#1536=CARTESIAN_POINT($,(-1.524,-2.286,0.508000000000003));
#1537=CARTESIAN_POINT('Origin',(-1.016,-2.794,0.508000000000003));
#1538=CARTESIAN_POINT($,(-1.524,-2.794,0.508000000000003));
#1539=CARTESIAN_POINT('Origin',(-1.27,-2.54,0.508000000000003));
#1540=CARTESIAN_POINT('Origin',(1.27,2.54,0.508000000000006));
#1541=CARTESIAN_POINT('',(1.524,2.794,0.508000000000006));
#1542=CARTESIAN_POINT('',(1.016,2.794,0.508000000000006));
#1543=CARTESIAN_POINT($,(1.524,2.794,0.508000000000006));
#1544=CARTESIAN_POINT('',(1.016,2.286,0.508000000000006));
#1545=CARTESIAN_POINT($,(1.016,2.794,0.508000000000006));
#1546=CARTESIAN_POINT('',(1.524,2.286,0.508000000000006));
#1547=CARTESIAN_POINT($,(1.016,2.286,0.508000000000006));
#1548=CARTESIAN_POINT($,(1.524,2.286,0.508000000000006));
#1549=CARTESIAN_POINT('Origin',(1.524,2.286,0.508000000000006));
#1550=CARTESIAN_POINT('',(1.524,2.28600000000001,-3.68299999999999));
#1551=CARTESIAN_POINT('',(1.016,2.28600000000001,-3.68299999999999));
#1552=CARTESIAN_POINT($,(0.762,2.286,-3.68299999999999));
#1553=CARTESIAN_POINT($,(1.524,2.286,0.508000000000006));
#1554=CARTESIAN_POINT($,(1.016,2.286,0.508000000000006));
#1555=CARTESIAN_POINT('Origin',(1.016,2.286,0.508000000000006));
#1556=CARTESIAN_POINT('',(1.016,2.79399999999999,-3.68299999999999));
#1557=CARTESIAN_POINT($,(1.016,0.19049999999999,-3.68299999999999));
#1558=CARTESIAN_POINT($,(1.016,2.794,0.508000000000006));
#1559=CARTESIAN_POINT('Origin',(1.016,2.794,0.508000000000006));
#1560=CARTESIAN_POINT('',(1.524,2.79399999999999,-3.68299999999999));
#1561=CARTESIAN_POINT($,(0.508,2.794,-3.68299999999999));
#1562=CARTESIAN_POINT($,(1.524,2.794,0.508000000000006));
#1563=CARTESIAN_POINT('Origin',(1.524,2.794,0.508000000000006));
#1564=CARTESIAN_POINT($,(1.524,0.44449999999999,-3.68299999999999));
#1565=CARTESIAN_POINT('Origin',(0.,-1.90500000000002,-3.68299999999999));
#1566=CARTESIAN_POINT('Origin',(0.,-4.44499999999999,-3.683));
#1567=CARTESIAN_POINT('',(1.524,-0.254000000000011,-3.68299999999999));
#1568=CARTESIAN_POINT('',(1.016,-0.254000000000011,-3.68299999999999));
#1569=CARTESIAN_POINT($,(0.762,-0.254,-3.683));
#1570=CARTESIAN_POINT('',(1.016,0.254000000000027,-3.68299999999999));
#1571=CARTESIAN_POINT($,(1.016,-2.34949999999999,-3.683));
#1572=CARTESIAN_POINT('',(1.524,0.254000000000027,-3.68299999999999));
#1573=CARTESIAN_POINT($,(0.508,0.254,-3.683));
#1574=CARTESIAN_POINT($,(1.524,-2.09549999999999,-3.683));
#1575=CARTESIAN_POINT('Origin',(1.524,0.254,0.508000000000006));
#1576=CARTESIAN_POINT('',(1.524,0.254,0.508000000000006));
#1577=CARTESIAN_POINT($,(1.524,0.254,0.508000000000006));
#1578=CARTESIAN_POINT('',(1.524,-0.254,0.508000000000006));
#1579=CARTESIAN_POINT($,(1.524,-0.254,0.508000000000006));
#1580=CARTESIAN_POINT($,(1.524,-0.254,0.508000000000006));
#1581=CARTESIAN_POINT('Origin',(1.016,0.254,0.508000000000006));
#1582=CARTESIAN_POINT('',(1.016,0.254,0.508000000000006));
#1583=CARTESIAN_POINT($,(1.016,0.254,0.508000000000006));
#1584=CARTESIAN_POINT($,(1.524,0.254,0.508000000000006));
#1585=CARTESIAN_POINT('Origin',(1.016,-0.254,0.508000000000006));
#1586=CARTESIAN_POINT('',(1.016,-0.254,0.508000000000006));
#1587=CARTESIAN_POINT($,(1.016,-0.254,0.508000000000006));
#1588=CARTESIAN_POINT($,(1.016,0.254,0.508000000000006));
#1589=CARTESIAN_POINT('Origin',(1.524,-0.254,0.508000000000006));
#1590=CARTESIAN_POINT($,(1.016,-0.254,0.508000000000006));
#1591=CARTESIAN_POINT('Origin',(1.27,8.88178419700125E-16,0.508000000000006));
#1592=CARTESIAN_POINT('Origin',(-1.27,8.88178419700125E-16,0.508000000000006));
#1593=CARTESIAN_POINT('',(-1.016,0.254,0.508000000000006));
#1594=CARTESIAN_POINT('',(-1.524,0.254,0.508000000000006));
#1595=CARTESIAN_POINT($,(-1.016,0.254,0.508000000000006));
#1596=CARTESIAN_POINT('',(-1.524,-0.254,0.508000000000006));
#1597=CARTESIAN_POINT($,(-1.524,0.254,0.508000000000006));
#1598=CARTESIAN_POINT('',(-1.016,-0.254,0.508000000000006));
#1599=CARTESIAN_POINT($,(-1.524,-0.254,0.508000000000006));
#1600=CARTESIAN_POINT($,(-1.016,-0.254,0.508000000000006));
#1601=CARTESIAN_POINT('Origin',(-1.016,-0.254,0.508000000000006));
#1602=CARTESIAN_POINT('',(-1.016,-0.254000000000011,-3.68299999999999));
#1603=CARTESIAN_POINT('',(-1.524,-0.254000000000011,-3.68299999999999));
#1604=CARTESIAN_POINT($,(-0.508,-0.254,-3.683));
#1605=CARTESIAN_POINT($,(-1.016,-0.254,0.508000000000006));
#1606=CARTESIAN_POINT($,(-1.524,-0.254,0.508000000000006));
#1607=CARTESIAN_POINT('Origin',(-1.524,-0.254,0.508000000000006));
#1608=CARTESIAN_POINT('',(-1.524,0.254000000000027,-3.68299999999999));
#1609=CARTESIAN_POINT($,(-1.524,-2.34949999999999,-3.683));
#1610=CARTESIAN_POINT($,(-1.524,0.254,0.508000000000006));
#1611=CARTESIAN_POINT('Origin',(-1.524,0.254,0.508000000000006));
#1612=CARTESIAN_POINT('',(-1.016,0.254000000000027,-3.68299999999999));
#1613=CARTESIAN_POINT($,(-0.762,0.254,-3.683));
#1614=CARTESIAN_POINT($,(-1.016,0.254,0.508000000000006));
#1615=CARTESIAN_POINT('Origin',(-1.016,0.254,0.508000000000006));
#1616=CARTESIAN_POINT($,(-1.016,-2.09549999999999,-3.683));
#1617=CARTESIAN_POINT('Origin',(0.,-4.44499999999999,-3.683));
#1618=CARTESIAN_POINT('Origin',(0.,-6.98500000000001,0.507999999999999));
#1619=CARTESIAN_POINT('',(0.,-6.98500000000001,9.1186));
#1620=CARTESIAN_POINT('',(0.,-8.255,9.11859999999999));
#1621=CARTESIAN_POINT($,(0.,-6.85419000000002,9.1186));
#1622=CARTESIAN_POINT('',(0.,-8.25499999999994,6.1214));
#1623=CARTESIAN_POINT('Origin',(0.,-8.255,7.62));
#1624=CARTESIAN_POINT('',(0.,-6.98500000000001,6.1214));
#1625=CARTESIAN_POINT($,(0.,-6.85419000000002,6.1214));
#1626=CARTESIAN_POINT($,(0.,-6.98500000000001,4.01869332627064));
#1627=CARTESIAN_POINT('Origin',(0.,-6.85419000000002,7.62));
#1628=CARTESIAN_POINT('Origin',(0.,-6.98500000000001,7.62));
#1629=CARTESIAN_POINT('Origin',(0.,-8.255,7.62));
#1630=CARTESIAN_POINT('Origin',(-0.756068386850015,-6.98500000000001,7.52938665254129));
#1631=CARTESIAN_POINT('Origin',(0.,-8.255,7.62));
#1632=CARTESIAN_POINT('Origin',(0.,-6.98500000000001,15.24));
#1633=CARTESIAN_POINT('',(2.15900000000025,-6.98500000000001,-3.5527136788005E-15));
#1634=CARTESIAN_POINT('',(2.15900000000025,-6.98500000000001,15.24));
#1635=CARTESIAN_POINT($,(2.15900000000025,-6.98500000000001,-3.5527136788005E-15));
#1636=CARTESIAN_POINT('',(-2.15899999999975,-6.98500000000001,15.24));
#1637=CARTESIAN_POINT($,(2.15900000000025,-6.98500000000001,15.24));
#1638=CARTESIAN_POINT('',(-2.15899999999975,-6.98500000000001,-3.5527136788005E-15));
#1639=CARTESIAN_POINT($,(-2.15899999999975,-6.98500000000001,15.24));
#1640=CARTESIAN_POINT('',(-1.651,-6.98500000000001,-3.5527136788005E-15));
#1641=CARTESIAN_POINT($,(-2.15899999999975,-6.98500000000001,-3.5527136788005E-15));
#1642=CARTESIAN_POINT('',(-1.651,-6.98500000000001,0.507999999999999));
#1643=CARTESIAN_POINT($,(-1.651,-6.98500000000001,-3.5527136788005E-15));
#1644=CARTESIAN_POINT('',(1.651,-6.98500000000001,0.507999999999999));
#1645=CARTESIAN_POINT($,(1.651,-6.98500000000001,0.507999999999999));
#1646=CARTESIAN_POINT('',(1.651,-6.98500000000001,-3.5527136788005E-15));
#1647=CARTESIAN_POINT($,(1.651,-6.98500000000001,-3.5527136788005E-15));
#1648=CARTESIAN_POINT($,(1.651,-6.98500000000001,-3.5527136788005E-15));
#1649=CARTESIAN_POINT('Origin',(1.651,-6.98500000000001,-3.5527136788005E-15));
#1650=CARTESIAN_POINT('',(1.651,4.572,0.508000000000001));
#1651=CARTESIAN_POINT($,(1.651,-6.98500000000001,0.507999999999999));
#1652=CARTESIAN_POINT('',(1.651,4.572,-1.77635683940025E-15));
#1653=CARTESIAN_POINT($,(1.651,4.572,-1.77635683940025E-15));
#1654=CARTESIAN_POINT($,(1.651,4.572,-1.77635683940025E-15));
#1655=CARTESIAN_POINT('Origin',(-2.15899999999975,-6.98500000000001,-3.5527136788005E-15));
#1656=CARTESIAN_POINT('',(2.15900000000025,4.572,-1.77635683940025E-15));
#1657=CARTESIAN_POINT($,(1.651,4.572,-1.77635683940025E-15));
#1658=CARTESIAN_POINT($,(2.15900000000025,-6.98500000000001,-3.5527136788005E-15));
#1659=CARTESIAN_POINT('Origin',(-2.15899999999975,-6.98500000000001,-3.5527136788005E-15));
#1660=CARTESIAN_POINT('',(-1.651,4.572,-1.77635683940025E-15));
#1661=CARTESIAN_POINT($,(-1.651,4.572,-1.77635683940025E-15));
#1662=CARTESIAN_POINT('',(-2.15899999999975,4.572,-1.77635683940025E-15));
#1663=CARTESIAN_POINT($,(-2.15899999999975,-6.98500000000001,-3.5527136788005E-15));
#1664=CARTESIAN_POINT($,(-2.15899999999975,4.572,-1.77635683940025E-15));
#1665=CARTESIAN_POINT('Origin',(2.15900000000025,-6.98500000000001,-3.5527136788005E-15));
#1666=CARTESIAN_POINT('',(2.15900000000025,4.572,15.24));
#1667=CARTESIAN_POINT($,(2.15900000000025,4.572,-1.77635683940025E-15));
#1668=CARTESIAN_POINT($,(2.15900000000025,-6.98500000000001,15.24));
#1669=CARTESIAN_POINT('Origin',(2.15900000000025,-6.98500000000001,15.24));
#1670=CARTESIAN_POINT('',(-2.15899999999975,4.572,15.24));
#1671=CARTESIAN_POINT($,(2.15900000000025,4.572,15.24));
#1672=CARTESIAN_POINT($,(-2.15899999999975,-6.98500000000001,15.24));
#1673=CARTESIAN_POINT('Origin',(-2.15899999999975,-6.98500000000001,15.24));
#1674=CARTESIAN_POINT($,(-2.15899999999975,4.572,15.24));
#1675=CARTESIAN_POINT('Origin',(0.,4.572,15.24));
#1676=CARTESIAN_POINT('',(-1.651,4.572,0.508000000000001));
#1677=CARTESIAN_POINT($,(1.651,4.572,0.508000000000001));
#1678=CARTESIAN_POINT($,(-1.651,4.572,-1.77635683940025E-15));
#1679=CARTESIAN_POINT('Origin',(-1.651,-6.98500000000001,0.507999999999999));
#1680=CARTESIAN_POINT($,(-1.651,-6.98500000000001,0.507999999999999));
#1681=CARTESIAN_POINT('Origin',(1.651,-6.98500000000001,0.507999999999999));
#1682=CARTESIAN_POINT('Origin',(0.,-6.98500000000001,0.507999999999999));
#1683=CARTESIAN_POINT('',(0.,-6.98500000000001,4.0386));
#1684=CARTESIAN_POINT('',(0.,-8.255,4.0386));
#1685=CARTESIAN_POINT($,(0.,-6.85419000000002,4.0386));
#1686=CARTESIAN_POINT('',(0.,-8.25499999999994,1.0414));
#1687=CARTESIAN_POINT('Origin',(0.,-8.255,2.54));
#1688=CARTESIAN_POINT('',(0.,-6.98500000000001,1.0414));
#1689=CARTESIAN_POINT($,(0.,-6.85419000000002,1.0414));
#1690=CARTESIAN_POINT($,(0.,-6.98500000000001,1.50889777542355));
#1691=CARTESIAN_POINT('Origin',(0.,-6.85419000000002,2.54));
#1692=CARTESIAN_POINT('Origin',(0.,-6.98500000000001,2.54));
#1693=CARTESIAN_POINT('Origin',(0.,-8.255,2.54));
#1694=CARTESIAN_POINT('Origin',(-0.756068386850015,-6.98500000000001,2.50979555084709));
#1695=CARTESIAN_POINT('Origin',(0.,-8.255,2.54));
#1696=CARTESIAN_POINT('Origin',(0.,-6.98500000000001,0.507999999999999));
#1697=CARTESIAN_POINT('',(0.,-6.98500000000001,14.1986));
#1698=CARTESIAN_POINT('',(0.,-8.255,14.1986));
#1699=CARTESIAN_POINT($,(0.,-6.85419000000002,14.1986));
#1700=CARTESIAN_POINT('',(0.,-6.98500000000001,11.2014));
#1701=CARTESIAN_POINT($,(0.,-6.98500000000001,6.52848887711774));
#1702=CARTESIAN_POINT('',(0.,-8.25499999999994,11.2014));
#1703=CARTESIAN_POINT($,(0.,-6.85419000000002,11.2014));
#1704=CARTESIAN_POINT('Origin',(0.,-8.255,12.7));
#1705=CARTESIAN_POINT('Origin',(0.,-8.255,12.7));
#1706=CARTESIAN_POINT('Origin',(0.,-8.255,12.7));
#1707=CARTESIAN_POINT('Origin',(-0.756068386850015,-6.98500000000001,12.5489777542355));
#1708=CARTESIAN_POINT('Origin',(0.,-6.98500000000001,12.7));
#1709=CARTESIAN_POINT('Origin',(0.,-6.85419000000002,12.7));
#1710=CARTESIAN_POINT('Origin',(0.,-6.98500000000001,0.507999999999999));
#1711=CARTESIAN_POINT('',(0.,-6.98500000000001,9.1186));
#1712=CARTESIAN_POINT('',(0.,-8.255,9.11859999999999));
#1713=CARTESIAN_POINT($,(0.,-6.85419000000002,9.1186));
#1714=CARTESIAN_POINT('',(0.,-6.98500000000001,6.1214));
#1715=CARTESIAN_POINT($,(0.,-6.98500000000001,4.01869332627064));
#1716=CARTESIAN_POINT('',(0.,-8.25499999999994,6.1214));
#1717=CARTESIAN_POINT($,(0.,-6.85419000000002,6.1214));
#1718=CARTESIAN_POINT('Origin',(0.,-8.255,7.62));
#1719=CARTESIAN_POINT('Origin',(0.,-8.255,7.62));
#1720=CARTESIAN_POINT('Origin',(0.,-8.255,7.62));
#1721=CARTESIAN_POINT('Origin',(-0.756068386850015,-6.98500000000001,7.52938665254129));
#1722=CARTESIAN_POINT('Origin',(0.,-6.98500000000001,7.62));
#1723=CARTESIAN_POINT('Origin',(0.,-6.85419000000002,7.62));
#1724=CARTESIAN_POINT('Origin',(0.,-6.98500000000001,0.507999999999999));
#1725=CARTESIAN_POINT('',(0.,-6.98500000000001,4.0386));
#1726=CARTESIAN_POINT('',(0.,-8.255,4.0386));
#1727=CARTESIAN_POINT($,(0.,-6.85419000000002,4.0386));
#1728=CARTESIAN_POINT('',(0.,-6.98500000000001,1.0414));
#1729=CARTESIAN_POINT($,(0.,-6.98500000000001,1.50889777542355));
#1730=CARTESIAN_POINT('',(0.,-8.25499999999994,1.0414));
#1731=CARTESIAN_POINT($,(0.,-6.85419000000002,1.0414));
#1732=CARTESIAN_POINT('Origin',(0.,-8.255,2.54));
#1733=CARTESIAN_POINT('Origin',(0.,-8.255,2.54));
#1734=CARTESIAN_POINT('Origin',(0.,-8.255,2.54));
#1735=CARTESIAN_POINT('Origin',(-0.756068386850015,-6.98500000000001,2.50979555084709));
#1736=CARTESIAN_POINT('Origin',(0.,-6.98500000000001,2.54));
#1737=CARTESIAN_POINT('Origin',(0.,-6.85419000000002,2.54));
#1738=UNCERTAINTY_MEASURE_WITH_UNIT(LENGTH_MEASURE(0.01),#1742,
'DISTANCE_ACCURACY_VALUE',
'Maximum model space distance between geometric entities at asserted c
onnectivities');
#1739=UNCERTAINTY_MEASURE_WITH_UNIT(LENGTH_MEASURE(1.E-6),#1742,
'DISTANCE_ACCURACY_VALUE',
'Maximum model space distance between geometric entities at asserted c
onnectivities');
#1740=(
GEOMETRIC_REPRESENTATION_CONTEXT(3)
GLOBAL_UNCERTAINTY_ASSIGNED_CONTEXT((#1738))
GLOBAL_UNIT_ASSIGNED_CONTEXT((#1742,#1744,#1743))
REPRESENTATION_CONTEXT('','3D')
);
#1741=(
GEOMETRIC_REPRESENTATION_CONTEXT(3)
GLOBAL_UNCERTAINTY_ASSIGNED_CONTEXT((#1739))
GLOBAL_UNIT_ASSIGNED_CONTEXT((#1742,#12,#1743))
REPRESENTATION_CONTEXT('','3D')
);
#1742=(
LENGTH_UNIT()
NAMED_UNIT(*)
SI_UNIT(.MILLI.,.METRE.)
);
#1743=(
NAMED_UNIT(*)
SI_UNIT($,.STERADIAN.)
SOLID_ANGLE_UNIT()
);
#1744=(
NAMED_UNIT(*)
PLANE_ANGLE_UNIT()
SI_UNIT($,.RADIAN.)
);
#1745=SHAPE_DEFINITION_REPRESENTATION(#1746,#1747);
#1746=PRODUCT_DEFINITION_SHAPE('',$,#1749);
#1747=SHAPE_REPRESENTATION('',(#1066),#1740);
#1748=PRODUCT_DEFINITION_CONTEXT('part definition',#1753,'design');
#1749=PRODUCT_DEFINITION('Product','Product',#1750,#1748);
#1750=PRODUCT_DEFINITION_FORMATION('',$,#1755);
#1751=PRODUCT_RELATED_PRODUCT_CATEGORY('Product','Product',(#1755));
#1752=APPLICATION_PROTOCOL_DEFINITION('international standard',
'automotive_design',2009,#1753);
#1753=APPLICATION_CONTEXT(
'Core Data for Automotive Mechanical Design Process');
#1754=PRODUCT_CONTEXT('part definition',#1753,'mechanical');
#1755=PRODUCT('Product','Product',$,(#1754));
#1756=PRESENTATION_STYLE_ASSIGNMENT((#1761));
#1757=PRESENTATION_STYLE_ASSIGNMENT((#1762));
#1758=PRESENTATION_STYLE_ASSIGNMENT((#1763));
#1759=PRESENTATION_STYLE_ASSIGNMENT((#1764));
#1760=PRESENTATION_STYLE_ASSIGNMENT((#1765));
#1761=SURFACE_STYLE_USAGE(.BOTH.,#1766);
#1762=SURFACE_STYLE_USAGE(.BOTH.,#1767);
#1763=SURFACE_STYLE_USAGE(.BOTH.,#1768);
#1764=SURFACE_STYLE_USAGE(.BOTH.,#1769);
#1765=SURFACE_STYLE_USAGE(.BOTH.,#1770);
#1766=SURFACE_SIDE_STYLE($,(#1771));
#1767=SURFACE_SIDE_STYLE($,(#1772));
#1768=SURFACE_SIDE_STYLE($,(#1773));
#1769=SURFACE_SIDE_STYLE($,(#1774));
#1770=SURFACE_SIDE_STYLE($,(#1775));
#1771=SURFACE_STYLE_FILL_AREA(#1776);
#1772=SURFACE_STYLE_FILL_AREA(#1777);
#1773=SURFACE_STYLE_FILL_AREA(#1778);
#1774=SURFACE_STYLE_FILL_AREA(#1779);
#1775=SURFACE_STYLE_FILL_AREA(#1780);
#1776=FILL_AREA_STYLE($,(#1781));
#1777=FILL_AREA_STYLE($,(#1782));
#1778=FILL_AREA_STYLE($,(#1783));
#1779=FILL_AREA_STYLE($,(#1784));
#1780=FILL_AREA_STYLE($,(#1785));
#1781=FILL_AREA_STYLE_COLOUR($,#1786);
#1782=FILL_AREA_STYLE_COLOUR($,#1787);
#1783=FILL_AREA_STYLE_COLOUR($,#1788);
#1784=FILL_AREA_STYLE_COLOUR($,#1789);
#1785=FILL_AREA_STYLE_COLOUR($,#1790);
#1786=COLOUR_RGB('',1.,1.,1.);
#1787=COLOUR_RGB('',1.,0.,0.);
#1788=COLOUR_RGB('',0.749019607843137,0.749019607843137,0.749019607843137);
#1789=COLOUR_RGB('',0.329411764705882,0.329411764705882,0.329411764705882);
#1790=COLOUR_RGB('',0.,1.,0.);
ENDSEC;
END-ISO-10303-21;
