ISO-10303-21;
HEADER;
/****************************************************************
 * Generated by software with PDElib inside                    *
 * PDElib Version v51a, created Fri 09/10/2010                  *
 * ITI Transcendata (http://www.transcendata.com/)              *
 ****************************************************************/
FILE_DESCRIPTION((''),'2;1');
FILE_NAME('LED_DIALIGHT_597-3401-507F.stp','2012-10-11T10:28:38',(''),(''),'Mechanical Desktop 2011','Mechanical Desktop 2011',', , ');
FILE_SCHEMA(('AUTOMOTIVE_DESIGN { 1 2 10303 214 1 1 1 1 }'));
ENDSEC;
DATA;
#10=(NAMED_UNIT(*)PLANE_ANGLE_UNIT()SI_UNIT($,.RADIAN.));
#11=DIMENSIONAL_EXPONENTS(0.0,0.0,0.0,0.0,0.0,0.0,0.0);
#12=PLANE_ANGLE_MEASURE_WITH_UNIT(PLANE_ANGLE_MEASURE(0.0174532925),#10);
#16=(CONVERSION_BASED_UNIT('DEGREE',#12)NAMED_UNIT(#11)PLANE_ANGLE_UNIT());
#20=(NAMED_UNIT(*)SI_UNIT($,.STERADIAN.)SOLID_ANGLE_UNIT());
#24=(LENGTH_UNIT()NAMED_UNIT(*)SI_UNIT(.MILLI.,.METRE.));
#26=UNCERTAINTY_MEASURE_WITH_UNIT(LENGTH_MEASURE(0.000001),#24,'DISTANCE_ACCURACY_VALUE','');
#28=(GEOMETRIC_REPRESENTATION_CONTEXT(3)GLOBAL_UNCERTAINTY_ASSIGNED_CONTEXT((#26))GLOBAL_UNIT_ASSIGNED_CONTEXT((#16,#20,#24))REPRESENTATION_CONTEXT('','3D'));
#29=APPLICATION_CONTEXT('automotive design');
#30=APPLICATION_PROTOCOL_DEFINITION('INTERNATIONAL_STANDARD','automotive_design',1998,#29);
#31=PRODUCT_CONTEXT('3D Mechanical Parts',#29,'mechanical');
#32=PRODUCT('Product','Product','',(#31));
#33=PRODUCT_RELATED_PRODUCT_CATEGORY('part',$,(#32));
#34=PRODUCT_CATEGORY('part',$);
#35=PERSON('1','Design','Joe',$,$,$);
#36=ORGANIZATION($,'None','None');
#37=PERSON_AND_ORGANIZATION(#35,#36);
#38=PERSON_AND_ORGANIZATION_ROLE('design_owner');
#39=APPLIED_PERSON_AND_ORGANIZATION_ASSIGNMENT(#37,#38,(#32));
#40=PRODUCT_DEFINITION_FORMATION_WITH_SPECIFIED_SOURCE('None','',#32,.BOUGHT.);
#41=PERSON('2','Creator','Joe',$,$,$);
#42=ORGANIZATION($,'None','None');
#43=PERSON_AND_ORGANIZATION(#41,#42);
#44=PERSON_AND_ORGANIZATION_ROLE('creator');
#45=APPLIED_PERSON_AND_ORGANIZATION_ASSIGNMENT(#43,#44,(#40));
#46=PERSON('3','Supplier','Joe',$,$,$);
#47=ORGANIZATION($,'None','None');
#48=PERSON_AND_ORGANIZATION(#46,#47);
#49=PERSON_AND_ORGANIZATION_ROLE('design_supplier');
#50=APPLIED_PERSON_AND_ORGANIZATION_ASSIGNMENT(#48,#49,(#40));
#51=PRODUCT_DEFINITION_CONTEXT('part definition',#29,'design');
#52=PRODUCT_DEFINITION('None','',#40,#51);
#53=PERSON('4','Creator','Joe',$,$,$);
#54=ORGANIZATION($,'None','None');
#55=PERSON_AND_ORGANIZATION(#53,#54);
#56=PERSON_AND_ORGANIZATION_ROLE('creator');
#57=APPLIED_PERSON_AND_ORGANIZATION_ASSIGNMENT(#55,#56,(#52));
#58=CARTESIAN_POINT('NONE',(0.0,0.0,0.0));
#59=DIRECTION('NONE',(0.0,0.0,1.0));
#60=DIRECTION('NONE',(1.0,0.0,0.0));
#61=AXIS2_PLACEMENT_3D('NONE',#58,#59,#60);
#62=SHAPE_REPRESENTATION('SR1',(#61),#28);
#63=PRODUCT_DEFINITION_SHAPE('PDS1','Test Part',#52);
#64=SHAPE_DEFINITION_REPRESENTATION(#63,#62);
#65=CARTESIAN_POINT('',(4.440892E-016,0.0,0.7));
#66=DIRECTION('',(0.0,0.0,1.0));
#67=DIRECTION('',(1.0,0.0,0.0));
#68=AXIS2_PLACEMENT_3D('',#65,#66,#67);
#69=SPHERICAL_SURFACE('',#68,0.1);
#70=CARTESIAN_POINT('',(4.379660E-016,-7.498799E-034,0.8));
#71=VERTEX_POINT('',#70);
#72=CARTESIAN_POINT('',(4.379660E-016,-7.498799E-034,0.6));
#73=VERTEX_POINT('',#72);
#74=CARTESIAN_POINT('',(4.440892E-016,0.0,0.7));
#75=DIRECTION('',(0.0,1.0,0.0));
#76=DIRECTION('',(1.0,0.0,0.0));
#77=AXIS2_PLACEMENT_3D('',#74,#75,#76);
#78=CIRCLE('',#77,0.1);
#79=EDGE_CURVE('',#71,#73,#78,.T.);
#80=ORIENTED_EDGE('',*,*,#79,.F.);
#81=CARTESIAN_POINT('',(4.440892E-016,0.0,0.7));
#82=DIRECTION('',(0.0,-1.0,0.0));
#83=DIRECTION('',(-1.0,0.0,0.0));
#84=AXIS2_PLACEMENT_3D('',#81,#82,#83);
#85=CIRCLE('',#84,0.1);
#86=EDGE_CURVE('',#71,#73,#85,.T.);
#87=ORIENTED_EDGE('',*,*,#86,.T.);
#88=EDGE_LOOP('',(#80,#87));
#89=FACE_OUTER_BOUND('',#88,.T.);
#90=ADVANCED_FACE('',(#89),#69,.T.);
#91=CARTESIAN_POINT('',(4.440892E-016,0.0,0.7));
#92=DIRECTION('',(0.0,0.0,1.0));
#93=DIRECTION('',(1.0,0.0,0.0));
#94=AXIS2_PLACEMENT_3D('',#91,#92,#93);
#95=SPHERICAL_SURFACE('',#94,0.1);
#96=ORIENTED_EDGE('',*,*,#79,.T.);
#97=ORIENTED_EDGE('',*,*,#86,.F.);
#98=EDGE_LOOP('',(#96,#97));
#99=FACE_OUTER_BOUND('',#98,.T.);
#100=ADVANCED_FACE('',(#99),#95,.T.);
#101=CLOSED_SHELL('',(#90,#100));
#102=MANIFOLD_SOLID_BREP('E7E',#101);
#103=DRAUGHTING_PRE_DEFINED_COLOUR('yellow');
#104=SURFACE_STYLE_USAGE(.BOTH.,#105);
#105=SURFACE_SIDE_STYLE('NONE',(#106));
#106=SURFACE_STYLE_FILL_AREA(#107);
#107=FILL_AREA_STYLE('NONE',(#108));
#108=FILL_AREA_STYLE_COLOUR('NONE',#103);
#109=PRESENTATION_STYLE_ASSIGNMENT((#104));
#110=STYLED_ITEM('NONE',(#109),#102);
#111=MECHANICAL_DESIGN_GEOMETRIC_PRESENTATION_REPRESENTATION('NONE',(#110,#270,#428,#786,#1137,#1823,#2336),#28);
#112=PRESENTATION_LAYER_ASSIGNMENT('3D','None',(#102,#262,#420,#778,#1136,#1815,#2328));
#113=CARTESIAN_POINT('',(-0.15,0.15,0.6));
#114=DIRECTION('',(0.0,1.0,0.0));
#115=DIRECTION('',(0.0,0.0,1.0));
#116=AXIS2_PLACEMENT_3D('',#113,#114,#115);
#117=PLANE('',#116);
#118=CARTESIAN_POINT('',(-0.15,0.15,0.7));
#119=VERTEX_POINT('',#118);
#120=CARTESIAN_POINT('',(0.15,0.15,0.7));
#121=VERTEX_POINT('',#120);
#122=CARTESIAN_POINT('',(-0.15,0.15,0.7));
#123=DIRECTION('',(1.0,0.0,0.0));
#124=VECTOR('',#123,0.3);
#125=LINE('',#122,#124);
#126=EDGE_CURVE('',#119,#121,#125,.T.);
#127=ORIENTED_EDGE('',*,*,#126,.T.);
#128=CARTESIAN_POINT('',(0.15,0.15,0.6));
#129=VERTEX_POINT('',#128);
#130=CARTESIAN_POINT('',(0.15,0.15,0.6));
#131=DIRECTION('',(0.0,0.0,1.0));
#132=VECTOR('',#131,0.1);
#133=LINE('',#130,#132);
#134=EDGE_CURVE('',#129,#121,#133,.T.);
#135=ORIENTED_EDGE('',*,*,#134,.F.);
#136=CARTESIAN_POINT('',(-0.15,0.15,0.6));
#137=VERTEX_POINT('',#136);
#138=CARTESIAN_POINT('',(0.15,0.15,0.6));
#139=DIRECTION('',(-1.0,0.0,0.0));
#140=VECTOR('',#139,0.3);
#141=LINE('',#138,#140);
#142=EDGE_CURVE('',#129,#137,#141,.T.);
#143=ORIENTED_EDGE('',*,*,#142,.T.);
#144=CARTESIAN_POINT('',(-0.15,0.15,0.6));
#145=DIRECTION('',(0.0,0.0,1.0));
#146=VECTOR('',#145,0.1);
#147=LINE('',#144,#146);
#148=EDGE_CURVE('',#137,#119,#147,.T.);
#149=ORIENTED_EDGE('',*,*,#148,.T.);
#150=EDGE_LOOP('',(#127,#135,#143,#149));
#151=FACE_OUTER_BOUND('',#150,.T.);
#152=ADVANCED_FACE('',(#151),#117,.T.);
#153=CARTESIAN_POINT('',(0.15,0.15,0.6));
#154=DIRECTION('',(1.0,0.0,0.0));
#155=DIRECTION('',(0.0,0.0,-1.0));
#156=AXIS2_PLACEMENT_3D('',#153,#154,#155);
#157=PLANE('',#156);
#158=CARTESIAN_POINT('',(0.15,-0.15,0.7));
#159=VERTEX_POINT('',#158);
#160=CARTESIAN_POINT('',(0.15,0.15,0.7));
#161=DIRECTION('',(0.0,-1.0,0.0));
#162=VECTOR('',#161,0.300000000000001);
#163=LINE('',#160,#162);
#164=EDGE_CURVE('',#121,#159,#163,.T.);
#165=ORIENTED_EDGE('',*,*,#164,.T.);
#166=CARTESIAN_POINT('',(0.15,-0.15,0.6));
#167=VERTEX_POINT('',#166);
#168=CARTESIAN_POINT('',(0.15,-0.15,0.6));
#169=DIRECTION('',(0.0,0.0,1.0));
#170=VECTOR('',#169,0.1);
#171=LINE('',#168,#170);
#172=EDGE_CURVE('',#167,#159,#171,.T.);
#173=ORIENTED_EDGE('',*,*,#172,.F.);
#174=CARTESIAN_POINT('',(0.15,-0.15,0.6));
#175=DIRECTION('',(0.0,1.0,0.0));
#176=VECTOR('',#175,0.300000000000001);
#177=LINE('',#174,#176);
#178=EDGE_CURVE('',#167,#129,#177,.T.);
#179=ORIENTED_EDGE('',*,*,#178,.T.);
#180=ORIENTED_EDGE('',*,*,#134,.T.);
#181=EDGE_LOOP('',(#165,#173,#179,#180));
#182=FACE_OUTER_BOUND('',#181,.T.);
#183=ADVANCED_FACE('',(#182),#157,.T.);
#184=CARTESIAN_POINT('',(0.15,-0.15,0.6));
#185=DIRECTION('',(0.0,-1.0,0.0));
#186=DIRECTION('',(0.0,0.0,-1.0));
#187=AXIS2_PLACEMENT_3D('',#184,#185,#186);
#188=PLANE('',#187);
#189=CARTESIAN_POINT('',(-0.15,-0.15,0.7));
#190=VERTEX_POINT('',#189);
#191=CARTESIAN_POINT('',(0.15,-0.15,0.7));
#192=DIRECTION('',(-1.0,0.0,0.0));
#193=VECTOR('',#192,0.3);
#194=LINE('',#191,#193);
#195=EDGE_CURVE('',#159,#190,#194,.T.);
#196=ORIENTED_EDGE('',*,*,#195,.T.);
#197=CARTESIAN_POINT('',(-0.15,-0.15,0.6));
#198=VERTEX_POINT('',#197);
#199=CARTESIAN_POINT('',(-0.15,-0.15,0.6));
#200=DIRECTION('',(0.0,0.0,1.0));
#201=VECTOR('',#200,0.1);
#202=LINE('',#199,#201);
#203=EDGE_CURVE('',#198,#190,#202,.T.);
#204=ORIENTED_EDGE('',*,*,#203,.F.);
#205=CARTESIAN_POINT('',(-0.15,-0.15,0.6));
#206=DIRECTION('',(1.0,0.0,0.0));
#207=VECTOR('',#206,0.3);
#208=LINE('',#205,#207);
#209=EDGE_CURVE('',#198,#167,#208,.T.);
#210=ORIENTED_EDGE('',*,*,#209,.T.);
#211=ORIENTED_EDGE('',*,*,#172,.T.);
#212=EDGE_LOOP('',(#196,#204,#210,#211));
#213=FACE_OUTER_BOUND('',#212,.T.);
#214=ADVANCED_FACE('',(#213),#188,.T.);
#215=CARTESIAN_POINT('',(-0.15,-0.15,0.6));
#216=DIRECTION('',(-1.0,0.0,0.0));
#217=DIRECTION('',(0.0,0.0,1.0));
#218=AXIS2_PLACEMENT_3D('',#215,#216,#217);
#219=PLANE('',#218);
#220=CARTESIAN_POINT('',(-0.15,-0.15,0.7));
#221=DIRECTION('',(0.0,1.0,0.0));
#222=VECTOR('',#221,0.300000000000001);
#223=LINE('',#220,#222);
#224=EDGE_CURVE('',#190,#119,#223,.T.);
#225=ORIENTED_EDGE('',*,*,#224,.T.);
#226=ORIENTED_EDGE('',*,*,#148,.F.);
#227=CARTESIAN_POINT('',(-0.15,0.15,0.6));
#228=DIRECTION('',(0.0,-1.0,0.0));
#229=VECTOR('',#228,0.300000000000001);
#230=LINE('',#227,#229);
#231=EDGE_CURVE('',#137,#198,#230,.T.);
#232=ORIENTED_EDGE('',*,*,#231,.T.);
#233=ORIENTED_EDGE('',*,*,#203,.T.);
#234=EDGE_LOOP('',(#225,#226,#232,#233));
#235=FACE_OUTER_BOUND('',#234,.T.);
#236=ADVANCED_FACE('',(#235),#219,.T.);
#237=CARTESIAN_POINT('',(4.440892E-016,0.0,0.6));
#238=DIRECTION('',(0.0,0.0,1.0));
#239=DIRECTION('',(1.0,0.0,0.0));
#240=AXIS2_PLACEMENT_3D('',#237,#238,#239);
#241=PLANE('',#240);
#242=ORIENTED_EDGE('',*,*,#231,.F.);
#243=ORIENTED_EDGE('',*,*,#142,.F.);
#244=ORIENTED_EDGE('',*,*,#178,.F.);
#245=ORIENTED_EDGE('',*,*,#209,.F.);
#246=EDGE_LOOP('',(#242,#243,#244,#245));
#247=FACE_OUTER_BOUND('',#246,.T.);
#248=ADVANCED_FACE('',(#247),#241,.F.);
#249=CARTESIAN_POINT('',(4.440892E-016,0.0,0.7));
#250=DIRECTION('',(0.0,0.0,1.0));
#251=DIRECTION('',(1.0,0.0,0.0));
#252=AXIS2_PLACEMENT_3D('',#249,#250,#251);
#253=PLANE('',#252);
#254=ORIENTED_EDGE('',*,*,#126,.F.);
#255=ORIENTED_EDGE('',*,*,#224,.F.);
#256=ORIENTED_EDGE('',*,*,#195,.F.);
#257=ORIENTED_EDGE('',*,*,#164,.F.);
#258=EDGE_LOOP('',(#254,#255,#256,#257));
#259=FACE_OUTER_BOUND('',#258,.T.);
#260=ADVANCED_FACE('',(#259),#253,.T.);
#261=CLOSED_SHELL('',(#152,#183,#214,#236,#248,#260));
#262=MANIFOLD_SOLID_BREP('E6B',#261);
#263=COLOUR_RGB('34',0.5,0.25,0.0);
#264=SURFACE_STYLE_USAGE(.BOTH.,#265);
#265=SURFACE_SIDE_STYLE('NONE',(#266));
#266=SURFACE_STYLE_FILL_AREA(#267);
#267=FILL_AREA_STYLE('NONE',(#268));
#268=FILL_AREA_STYLE_COLOUR('NONE',#263);
#269=PRESENTATION_STYLE_ASSIGNMENT((#264));
#270=STYLED_ITEM('NONE',(#269),#262);
#271=CARTESIAN_POINT('',(-1.4,0.999999999999998,1.5));
#272=DIRECTION('',(-1.0,0.0,0.0));
#273=DIRECTION('',(0.0,0.0,1.0));
#274=AXIS2_PLACEMENT_3D('',#271,#272,#273);
#275=PLANE('',#274);
#276=CARTESIAN_POINT('',(-1.4,0.999999999999998,1.45));
#277=VERTEX_POINT('',#276);
#278=CARTESIAN_POINT('',(-1.4,-1.000000000000002,1.45));
#279=VERTEX_POINT('',#278);
#280=CARTESIAN_POINT('',(-1.4,0.999999999999998,1.45));
#281=DIRECTION('',(0.0,-1.0,0.0));
#282=VECTOR('',#281,2.0);
#283=LINE('',#280,#282);
#284=EDGE_CURVE('',#277,#279,#283,.T.);
#285=ORIENTED_EDGE('',*,*,#284,.T.);
#286=CARTESIAN_POINT('',(-1.4,-1.000000000000002,1.5));
#287=VERTEX_POINT('',#286);
#288=CARTESIAN_POINT('',(-1.4,-1.000000000000002,1.5));
#289=DIRECTION('',(0.0,0.0,-1.0));
#290=VECTOR('',#289,0.05);
#291=LINE('',#288,#290);
#292=EDGE_CURVE('',#287,#279,#291,.T.);
#293=ORIENTED_EDGE('',*,*,#292,.F.);
#294=CARTESIAN_POINT('',(-1.4,0.999999999999998,1.5));
#295=VERTEX_POINT('',#294);
#296=CARTESIAN_POINT('',(-1.4,0.999999999999998,1.5));
#297=DIRECTION('',(0.0,-1.0,0.0));
#298=VECTOR('',#297,2.0);
#299=LINE('',#296,#298);
#300=EDGE_CURVE('',#295,#287,#299,.T.);
#301=ORIENTED_EDGE('',*,*,#300,.F.);
#302=CARTESIAN_POINT('',(-1.4,0.999999999999998,1.5));
#303=DIRECTION('',(0.0,0.0,-1.0));
#304=VECTOR('',#303,0.05);
#305=LINE('',#302,#304);
#306=EDGE_CURVE('',#295,#277,#305,.T.);
#307=ORIENTED_EDGE('',*,*,#306,.T.);
#308=EDGE_LOOP('',(#285,#293,#301,#307));
#309=FACE_OUTER_BOUND('',#308,.T.);
#310=ADVANCED_FACE('',(#309),#275,.T.);
#311=CARTESIAN_POINT('',(-1.4,-1.000000000000002,1.5));
#312=DIRECTION('',(0.0,-1.0,0.0));
#313=DIRECTION('',(0.0,0.0,-1.0));
#314=AXIS2_PLACEMENT_3D('',#311,#312,#313);
#315=PLANE('',#314);
#316=CARTESIAN_POINT('',(-1.299999999999999,-1.000000000000002,1.45));
#317=VERTEX_POINT('',#316);
#318=CARTESIAN_POINT('',(-1.4,-1.000000000000002,1.45));
#319=DIRECTION('',(1.0,0.0,0.0));
#320=VECTOR('',#319,0.1);
#321=LINE('',#318,#320);
#322=EDGE_CURVE('',#279,#317,#321,.T.);
#323=ORIENTED_EDGE('',*,*,#322,.T.);
#324=CARTESIAN_POINT('',(-1.299999999999999,-1.000000000000002,1.5));
#325=VERTEX_POINT('',#324);
#326=CARTESIAN_POINT('',(-1.299999999999999,-1.000000000000002,1.5));
#327=DIRECTION('',(0.0,0.0,-1.0));
#328=VECTOR('',#327,0.05);
#329=LINE('',#326,#328);
#330=EDGE_CURVE('',#325,#317,#329,.T.);
#331=ORIENTED_EDGE('',*,*,#330,.F.);
#332=CARTESIAN_POINT('',(-1.4,-1.000000000000002,1.5));
#333=DIRECTION('',(1.0,0.0,0.0));
#334=VECTOR('',#333,0.1);
#335=LINE('',#332,#334);
#336=EDGE_CURVE('',#287,#325,#335,.T.);
#337=ORIENTED_EDGE('',*,*,#336,.F.);
#338=ORIENTED_EDGE('',*,*,#292,.T.);
#339=EDGE_LOOP('',(#323,#331,#337,#338));
#340=FACE_OUTER_BOUND('',#339,.T.);
#341=ADVANCED_FACE('',(#340),#315,.T.);
#342=CARTESIAN_POINT('',(-1.299999999999999,-1.000000000000002,1.5));
#343=DIRECTION('',(1.0,0.0,0.0));
#344=DIRECTION('',(0.0,0.0,-1.0));
#345=AXIS2_PLACEMENT_3D('',#342,#343,#344);
#346=PLANE('',#345);
#347=CARTESIAN_POINT('',(-1.299999999999999,0.999999999999998,1.45));
#348=VERTEX_POINT('',#347);
#349=CARTESIAN_POINT('',(-1.299999999999999,-1.000000000000002,1.45));
#350=DIRECTION('',(0.0,1.0,0.0));
#351=VECTOR('',#350,2.0);
#352=LINE('',#349,#351);
#353=EDGE_CURVE('',#317,#348,#352,.T.);
#354=ORIENTED_EDGE('',*,*,#353,.T.);
#355=CARTESIAN_POINT('',(-1.299999999999999,0.999999999999998,1.5));
#356=VERTEX_POINT('',#355);
#357=CARTESIAN_POINT('',(-1.299999999999999,0.999999999999998,1.5));
#358=DIRECTION('',(0.0,0.0,-1.0));
#359=VECTOR('',#358,0.05);
#360=LINE('',#357,#359);
#361=EDGE_CURVE('',#356,#348,#360,.T.);
#362=ORIENTED_EDGE('',*,*,#361,.F.);
#363=CARTESIAN_POINT('',(-1.299999999999999,-1.000000000000002,1.5));
#364=DIRECTION('',(0.0,1.0,0.0));
#365=VECTOR('',#364,2.0);
#366=LINE('',#363,#365);
#367=EDGE_CURVE('',#325,#356,#366,.T.);
#368=ORIENTED_EDGE('',*,*,#367,.F.);
#369=ORIENTED_EDGE('',*,*,#330,.T.);
#370=EDGE_LOOP('',(#354,#362,#368,#369));
#371=FACE_OUTER_BOUND('',#370,.T.);
#372=ADVANCED_FACE('',(#371),#346,.T.);
#373=CARTESIAN_POINT('',(-1.299999999999999,0.999999999999998,1.5));
#374=DIRECTION('',(0.0,1.0,0.0));
#375=DIRECTION('',(0.0,0.0,1.0));
#376=AXIS2_PLACEMENT_3D('',#373,#374,#375);
#377=PLANE('',#376);
#378=CARTESIAN_POINT('',(-1.299999999999999,0.999999999999998,1.45));
#379=DIRECTION('',(-1.0,0.0,0.0));
#380=VECTOR('',#379,0.1);
#381=LINE('',#378,#380);
#382=EDGE_CURVE('',#348,#277,#381,.T.);
#383=ORIENTED_EDGE('',*,*,#382,.T.);
#384=ORIENTED_EDGE('',*,*,#306,.F.);
#385=CARTESIAN_POINT('',(-1.299999999999999,0.999999999999998,1.5));
#386=DIRECTION('',(-1.0,0.0,0.0));
#387=VECTOR('',#386,0.1);
#388=LINE('',#385,#387);
#389=EDGE_CURVE('',#356,#295,#388,.T.);
#390=ORIENTED_EDGE('',*,*,#389,.F.);
#391=ORIENTED_EDGE('',*,*,#361,.T.);
#392=EDGE_LOOP('',(#383,#384,#390,#391));
#393=FACE_OUTER_BOUND('',#392,.T.);
#394=ADVANCED_FACE('',(#393),#377,.T.);
#395=CARTESIAN_POINT('',(-1.35,-1.776357E-015,1.45));
#396=DIRECTION('',(0.0,0.0,1.0));
#397=DIRECTION('',(1.0,0.0,0.0));
#398=AXIS2_PLACEMENT_3D('',#395,#396,#397);
#399=PLANE('',#398);
#400=ORIENTED_EDGE('',*,*,#284,.F.);
#401=ORIENTED_EDGE('',*,*,#382,.F.);
#402=ORIENTED_EDGE('',*,*,#353,.F.);
#403=ORIENTED_EDGE('',*,*,#322,.F.);
#404=EDGE_LOOP('',(#400,#401,#402,#403));
#405=FACE_OUTER_BOUND('',#404,.T.);
#406=ADVANCED_FACE('',(#405),#399,.F.);
#407=CARTESIAN_POINT('',(-1.35,-1.776357E-015,1.5));
#408=DIRECTION('',(0.0,0.0,1.0));
#409=DIRECTION('',(1.0,0.0,0.0));
#410=AXIS2_PLACEMENT_3D('',#407,#408,#409);
#411=PLANE('',#410);
#412=ORIENTED_EDGE('',*,*,#389,.T.);
#413=ORIENTED_EDGE('',*,*,#300,.T.);
#414=ORIENTED_EDGE('',*,*,#336,.T.);
#415=ORIENTED_EDGE('',*,*,#367,.T.);
#416=EDGE_LOOP('',(#412,#413,#414,#415));
#417=FACE_OUTER_BOUND('',#416,.T.);
#418=ADVANCED_FACE('',(#417),#411,.T.);
#419=CLOSED_SHELL('',(#310,#341,#372,#394,#406,#418));
#420=MANIFOLD_SOLID_BREP('E41',#419);
#421=COLOUR_RGB('46',0.3,0.225,0.0);
#422=SURFACE_STYLE_USAGE(.BOTH.,#423);
#423=SURFACE_SIDE_STYLE('NONE',(#424));
#424=SURFACE_STYLE_FILL_AREA(#425);
#425=FILL_AREA_STYLE('NONE',(#426));
#426=FILL_AREA_STYLE_COLOUR('NONE',#421);
#427=PRESENTATION_STYLE_ASSIGNMENT((#422));
#428=STYLED_ITEM('NONE',(#427),#420);
#429=CARTESIAN_POINT('',(1.5,0.349999999999996,0.0));
#430=DIRECTION('',(1.0,0.0,0.0));
#431=DIRECTION('',(0.0,0.0,-1.0));
#432=AXIS2_PLACEMENT_3D('',#429,#430,#431);
#433=PLANE('',#432);
#434=CARTESIAN_POINT('',(1.5,0.349999999999996,0.5));
#435=VERTEX_POINT('',#434);
#436=CARTESIAN_POINT('',(1.5,0.249999999999998,0.5));
#437=VERTEX_POINT('',#436);
#438=CARTESIAN_POINT('',(1.5,0.349999999999996,0.5));
#439=DIRECTION('',(0.0,-1.0,0.0));
#440=VECTOR('',#439,0.099999999999998);
#441=LINE('',#438,#440);
#442=EDGE_CURVE('',#435,#437,#441,.T.);
#443=ORIENTED_EDGE('',*,*,#442,.T.);
#444=CARTESIAN_POINT('',(1.5,0.249999999999998,0.0));
#445=VERTEX_POINT('',#444);
#446=CARTESIAN_POINT('',(1.5,0.249999999999998,0.0));
#447=DIRECTION('',(0.0,0.0,1.0));
#448=VECTOR('',#447,0.5);
#449=LINE('',#446,#448);
#450=EDGE_CURVE('',#445,#437,#449,.T.);
#451=ORIENTED_EDGE('',*,*,#450,.F.);
#452=CARTESIAN_POINT('',(1.5,0.349999999999996,0.0));
#453=VERTEX_POINT('',#452);
#454=CARTESIAN_POINT('',(1.5,0.349999999999996,0.0));
#455=DIRECTION('',(0.0,-1.0,0.0));
#456=VECTOR('',#455,0.099999999999998);
#457=LINE('',#454,#456);
#458=EDGE_CURVE('',#453,#445,#457,.T.);
#459=ORIENTED_EDGE('',*,*,#458,.F.);
#460=CARTESIAN_POINT('',(1.5,0.349999999999996,0.0));
#461=DIRECTION('',(0.0,0.0,1.0));
#462=VECTOR('',#461,0.5);
#463=LINE('',#460,#462);
#464=EDGE_CURVE('',#453,#435,#463,.T.);
#465=ORIENTED_EDGE('',*,*,#464,.T.);
#466=EDGE_LOOP('',(#443,#451,#459,#465));
#467=FACE_OUTER_BOUND('',#466,.T.);
#468=ADVANCED_FACE('',(#467),#433,.T.);
#469=CARTESIAN_POINT('',(1.5,-1.776357E-015,0.0));
#470=DIRECTION('',(0.0,0.0,1.0));
#471=DIRECTION('',(-1.0,0.0,0.0));
#472=AXIS2_PLACEMENT_3D('',#469,#470,#471);
#473=CYLINDRICAL_SURFACE('',#472,0.25);
#474=CARTESIAN_POINT('',(1.5,-0.250000000000002,0.5));
#475=VERTEX_POINT('',#474);
#476=CARTESIAN_POINT('',(1.5,-1.776357E-015,0.5));
#477=DIRECTION('',(0.0,0.0,1.0));
#478=DIRECTION('',(-1.0,0.0,0.0));
#479=AXIS2_PLACEMENT_3D('',#476,#477,#478);
#480=CIRCLE('',#479,0.25);
#481=EDGE_CURVE('',#437,#475,#480,.T.);
#482=ORIENTED_EDGE('',*,*,#481,.T.);
#483=CARTESIAN_POINT('',(1.5,-0.250000000000002,0.0));
#484=VERTEX_POINT('',#483);
#485=CARTESIAN_POINT('',(1.5,-0.250000000000002,0.0));
#486=DIRECTION('',(0.0,0.0,1.0));
#487=VECTOR('',#486,0.5);
#488=LINE('',#485,#487);
#489=EDGE_CURVE('',#484,#475,#488,.T.);
#490=ORIENTED_EDGE('',*,*,#489,.F.);
#491=CARTESIAN_POINT('',(1.5,-1.776357E-015,0.0));
#492=DIRECTION('',(0.0,0.0,1.0));
#493=DIRECTION('',(-1.0,0.0,0.0));
#494=AXIS2_PLACEMENT_3D('',#491,#492,#493);
#495=CIRCLE('',#494,0.25);
#496=EDGE_CURVE('',#445,#484,#495,.T.);
#497=ORIENTED_EDGE('',*,*,#496,.F.);
#498=ORIENTED_EDGE('',*,*,#450,.T.);
#499=EDGE_LOOP('',(#482,#490,#497,#498));
#500=FACE_OUTER_BOUND('',#499,.T.);
#501=ADVANCED_FACE('',(#500),#473,.F.);
#502=CARTESIAN_POINT('',(1.5,-0.250000000000002,0.0));
#503=DIRECTION('',(1.0,0.0,0.0));
#504=DIRECTION('',(0.0,0.0,-1.0));
#505=AXIS2_PLACEMENT_3D('',#502,#503,#504);
#506=PLANE('',#505);
#507=CARTESIAN_POINT('',(1.5,-0.350000000000001,0.5));
#508=VERTEX_POINT('',#507);
#509=CARTESIAN_POINT('',(1.5,-0.250000000000002,0.5));
#510=DIRECTION('',(0.0,-1.0,0.0));
#511=VECTOR('',#510,0.1);
#512=LINE('',#509,#511);
#513=EDGE_CURVE('',#475,#508,#512,.T.);
#514=ORIENTED_EDGE('',*,*,#513,.T.);
#515=CARTESIAN_POINT('',(1.5,-0.350000000000001,0.0));
#516=VERTEX_POINT('',#515);
#517=CARTESIAN_POINT('',(1.5,-0.350000000000001,0.0));
#518=DIRECTION('',(0.0,0.0,1.0));
#519=VECTOR('',#518,0.5);
#520=LINE('',#517,#519);
#521=EDGE_CURVE('',#516,#508,#520,.T.);
#522=ORIENTED_EDGE('',*,*,#521,.F.);
#523=CARTESIAN_POINT('',(1.5,-0.250000000000002,0.0));
#524=DIRECTION('',(0.0,-1.0,0.0));
#525=VECTOR('',#524,0.1);
#526=LINE('',#523,#525);
#527=EDGE_CURVE('',#484,#516,#526,.T.);
#528=ORIENTED_EDGE('',*,*,#527,.F.);
#529=ORIENTED_EDGE('',*,*,#489,.T.);
#530=EDGE_LOOP('',(#514,#522,#528,#529));
#531=FACE_OUTER_BOUND('',#530,.T.);
#532=ADVANCED_FACE('',(#531),#506,.T.);
#533=CARTESIAN_POINT('',(1.5,-0.350000000000001,0.0));
#534=DIRECTION('',(0.0,-1.0,0.0));
#535=DIRECTION('',(0.0,0.0,-1.0));
#536=AXIS2_PLACEMENT_3D('',#533,#534,#535);
#537=PLANE('',#536);
#538=CARTESIAN_POINT('',(1.400000000000001,-0.350000000000001,0.5));
#539=VERTEX_POINT('',#538);
#540=CARTESIAN_POINT('',(1.5,-0.350000000000001,0.5));
#541=DIRECTION('',(-1.0,0.0,0.0));
#542=VECTOR('',#541,0.099999999999999);
#543=LINE('',#540,#542);
#544=EDGE_CURVE('',#508,#539,#543,.T.);
#545=ORIENTED_EDGE('',*,*,#544,.T.);
#546=CARTESIAN_POINT('',(1.400000000000001,-0.350000000000001,0.0));
#547=VERTEX_POINT('',#546);
#548=CARTESIAN_POINT('',(1.400000000000001,-0.350000000000001,0.0));
#549=DIRECTION('',(0.0,0.0,1.0));
#550=VECTOR('',#549,0.5);
#551=LINE('',#548,#550);
#552=EDGE_CURVE('',#547,#539,#551,.T.);
#553=ORIENTED_EDGE('',*,*,#552,.F.);
#554=CARTESIAN_POINT('',(1.5,-0.350000000000001,0.0));
#555=DIRECTION('',(-1.0,0.0,0.0));
#556=VECTOR('',#555,0.099999999999999);
#557=LINE('',#554,#556);
#558=EDGE_CURVE('',#516,#547,#557,.T.);
#559=ORIENTED_EDGE('',*,*,#558,.F.);
#560=ORIENTED_EDGE('',*,*,#521,.T.);
#561=EDGE_LOOP('',(#545,#553,#559,#560));
#562=FACE_OUTER_BOUND('',#561,.T.);
#563=ADVANCED_FACE('',(#562),#537,.T.);
#564=CARTESIAN_POINT('',(1.400000000000001,-0.350000000000001,0.0));
#565=DIRECTION('',(1.0,0.0,0.0));
#566=DIRECTION('',(0.0,0.0,-1.0));
#567=AXIS2_PLACEMENT_3D('',#564,#565,#566);
#568=PLANE('',#567);
#569=CARTESIAN_POINT('',(1.400000000000001,-0.850000000000003,0.5));
#570=VERTEX_POINT('',#569);
#571=CARTESIAN_POINT('',(1.400000000000001,-0.350000000000001,0.5));
#572=DIRECTION('',(0.0,-1.0,0.0));
#573=VECTOR('',#572,0.500000000000002);
#574=LINE('',#571,#573);
#575=EDGE_CURVE('',#539,#570,#574,.T.);
#576=ORIENTED_EDGE('',*,*,#575,.T.);
#577=CARTESIAN_POINT('',(1.400000000000001,-0.850000000000003,0.0));
#578=VERTEX_POINT('',#577);
#579=CARTESIAN_POINT('',(1.400000000000001,-0.850000000000003,0.0));
#580=DIRECTION('',(0.0,0.0,1.0));
#581=VECTOR('',#580,0.5);
#582=LINE('',#579,#581);
#583=EDGE_CURVE('',#578,#570,#582,.T.);
#584=ORIENTED_EDGE('',*,*,#583,.F.);
#585=CARTESIAN_POINT('',(1.400000000000001,-0.350000000000001,0.0));
#586=DIRECTION('',(0.0,-1.0,0.0));
#587=VECTOR('',#586,0.500000000000002);
#588=LINE('',#585,#587);
#589=EDGE_CURVE('',#547,#578,#588,.T.);
#590=ORIENTED_EDGE('',*,*,#589,.F.);
#591=ORIENTED_EDGE('',*,*,#552,.T.);
#592=EDGE_LOOP('',(#576,#584,#590,#591));
#593=FACE_OUTER_BOUND('',#592,.T.);
#594=ADVANCED_FACE('',(#593),#568,.T.);
#595=CARTESIAN_POINT('',(1.400000000000001,-0.850000000000003,0.0));
#596=DIRECTION('',(0.0,-1.0,0.0));
#597=DIRECTION('',(0.0,0.0,-1.0));
#598=AXIS2_PLACEMENT_3D('',#595,#596,#597);
#599=PLANE('',#598);
#600=CARTESIAN_POINT('',(0.800000000000001,-0.85,0.5));
#601=VERTEX_POINT('',#600);
#602=CARTESIAN_POINT('',(1.400000000000001,-0.850000000000003,0.5));
#603=DIRECTION('',(-1.0,0.0,0.0));
#604=VECTOR('',#603,0.6);
#605=LINE('',#602,#604);
#606=EDGE_CURVE('',#570,#601,#605,.T.);
#607=ORIENTED_EDGE('',*,*,#606,.T.);
#608=CARTESIAN_POINT('',(0.800000000000001,-0.85,0.0));
#609=VERTEX_POINT('',#608);
#610=CARTESIAN_POINT('',(0.800000000000001,-0.85,0.0));
#611=DIRECTION('',(0.0,0.0,1.0));
#612=VECTOR('',#611,0.5);
#613=LINE('',#610,#612);
#614=EDGE_CURVE('',#609,#601,#613,.T.);
#615=ORIENTED_EDGE('',*,*,#614,.F.);
#616=CARTESIAN_POINT('',(1.400000000000001,-0.850000000000003,0.0));
#617=DIRECTION('',(-1.0,0.0,0.0));
#618=VECTOR('',#617,0.6);
#619=LINE('',#616,#618);
#620=EDGE_CURVE('',#578,#609,#619,.T.);
#621=ORIENTED_EDGE('',*,*,#620,.F.);
#622=ORIENTED_EDGE('',*,*,#583,.T.);
#623=EDGE_LOOP('',(#607,#615,#621,#622));
#624=FACE_OUTER_BOUND('',#623,.T.);
#625=ADVANCED_FACE('',(#624),#599,.T.);
#626=CARTESIAN_POINT('',(0.800000000000001,-0.85,0.0));
#627=DIRECTION('',(-1.0,0.0,0.0));
#628=DIRECTION('',(0.0,0.0,1.0));
#629=AXIS2_PLACEMENT_3D('',#626,#627,#628);
#630=PLANE('',#629);
#631=CARTESIAN_POINT('',(0.800000000000001,0.85,0.5));
#632=VERTEX_POINT('',#631);
#633=CARTESIAN_POINT('',(0.800000000000001,-0.85,0.5));
#634=DIRECTION('',(0.0,1.0,0.0));
#635=VECTOR('',#634,1.699999999999999);
#636=LINE('',#633,#635);
#637=EDGE_CURVE('',#601,#632,#636,.T.);
#638=ORIENTED_EDGE('',*,*,#637,.T.);
#639=CARTESIAN_POINT('',(0.800000000000001,0.85,0.0));
#640=VERTEX_POINT('',#639);
#641=CARTESIAN_POINT('',(0.800000000000001,0.85,0.0));
#642=DIRECTION('',(0.0,0.0,1.0));
#643=VECTOR('',#642,0.5);
#644=LINE('',#641,#643);
#645=EDGE_CURVE('',#640,#632,#644,.T.);
#646=ORIENTED_EDGE('',*,*,#645,.F.);
#647=CARTESIAN_POINT('',(0.800000000000001,-0.85,0.0));
#648=DIRECTION('',(0.0,1.0,0.0));
#649=VECTOR('',#648,1.699999999999999);
#650=LINE('',#647,#649);
#651=EDGE_CURVE('',#609,#640,#650,.T.);
#652=ORIENTED_EDGE('',*,*,#651,.F.);
#653=ORIENTED_EDGE('',*,*,#614,.T.);
#654=EDGE_LOOP('',(#638,#646,#652,#653));
#655=FACE_OUTER_BOUND('',#654,.T.);
#656=ADVANCED_FACE('',(#655),#630,.T.);
#657=CARTESIAN_POINT('',(0.800000000000001,0.85,0.0));
#658=DIRECTION('',(0.0,1.0,0.0));
#659=DIRECTION('',(0.0,0.0,1.0));
#660=AXIS2_PLACEMENT_3D('',#657,#658,#659);
#661=PLANE('',#660);
#662=CARTESIAN_POINT('',(1.400000000000001,0.85,0.5));
#663=VERTEX_POINT('',#662);
#664=CARTESIAN_POINT('',(0.800000000000001,0.85,0.5));
#665=DIRECTION('',(1.0,0.0,0.0));
#666=VECTOR('',#665,0.6);
#667=LINE('',#664,#666);
#668=EDGE_CURVE('',#632,#663,#667,.T.);
#669=ORIENTED_EDGE('',*,*,#668,.T.);
#670=CARTESIAN_POINT('',(1.400000000000001,0.85,0.0));
#671=VERTEX_POINT('',#670);
#672=CARTESIAN_POINT('',(1.400000000000001,0.85,0.0));
#673=DIRECTION('',(0.0,0.0,1.0));
#674=VECTOR('',#673,0.5);
#675=LINE('',#672,#674);
#676=EDGE_CURVE('',#671,#663,#675,.T.);
#677=ORIENTED_EDGE('',*,*,#676,.F.);
#678=CARTESIAN_POINT('',(0.800000000000001,0.85,0.0));
#679=DIRECTION('',(1.0,0.0,0.0));
#680=VECTOR('',#679,0.6);
#681=LINE('',#678,#680);
#682=EDGE_CURVE('',#640,#671,#681,.T.);
#683=ORIENTED_EDGE('',*,*,#682,.F.);
#684=ORIENTED_EDGE('',*,*,#645,.T.);
#685=EDGE_LOOP('',(#669,#677,#683,#684));
#686=FACE_OUTER_BOUND('',#685,.T.);
#687=ADVANCED_FACE('',(#686),#661,.T.);
#688=CARTESIAN_POINT('',(1.400000000000001,0.85,0.0));
#689=DIRECTION('',(1.0,0.0,0.0));
#690=DIRECTION('',(0.0,0.0,-1.0));
#691=AXIS2_PLACEMENT_3D('',#688,#689,#690);
#692=PLANE('',#691);
#693=CARTESIAN_POINT('',(1.400000000000001,0.349999999999998,0.5));
#694=VERTEX_POINT('',#693);
#695=CARTESIAN_POINT('',(1.400000000000001,0.85,0.5));
#696=DIRECTION('',(0.0,-1.0,0.0));
#697=VECTOR('',#696,0.500000000000002);
#698=LINE('',#695,#697);
#699=EDGE_CURVE('',#663,#694,#698,.T.);
#700=ORIENTED_EDGE('',*,*,#699,.T.);
#701=CARTESIAN_POINT('',(1.400000000000001,0.349999999999998,0.0));
#702=VERTEX_POINT('',#701);
#703=CARTESIAN_POINT('',(1.400000000000001,0.349999999999998,0.0));
#704=DIRECTION('',(0.0,0.0,1.0));
#705=VECTOR('',#704,0.5);
#706=LINE('',#703,#705);
#707=EDGE_CURVE('',#702,#694,#706,.T.);
#708=ORIENTED_EDGE('',*,*,#707,.F.);
#709=CARTESIAN_POINT('',(1.400000000000001,0.85,0.0));
#710=DIRECTION('',(0.0,-1.0,0.0));
#711=VECTOR('',#710,0.500000000000002);
#712=LINE('',#709,#711);
#713=EDGE_CURVE('',#671,#702,#712,.T.);
#714=ORIENTED_EDGE('',*,*,#713,.F.);
#715=ORIENTED_EDGE('',*,*,#676,.T.);
#716=EDGE_LOOP('',(#700,#708,#714,#715));
#717=FACE_OUTER_BOUND('',#716,.T.);
#718=ADVANCED_FACE('',(#717),#692,.T.);
#719=CARTESIAN_POINT('',(1.400000000000001,0.349999999999998,0.0));
#720=DIRECTION('',(0.0,1.0,0.0));
#721=DIRECTION('',(0.0,0.0,1.0));
#722=AXIS2_PLACEMENT_3D('',#719,#720,#721);
#723=PLANE('',#722);
#724=CARTESIAN_POINT('',(1.400000000000001,0.349999999999998,0.5));
#725=DIRECTION('',(1.0,0.0,0.0));
#726=VECTOR('',#725,0.099999999999999);
#727=LINE('',#724,#726);
#728=EDGE_CURVE('',#694,#435,#727,.T.);
#729=ORIENTED_EDGE('',*,*,#728,.T.);
#730=ORIENTED_EDGE('',*,*,#464,.F.);
#731=CARTESIAN_POINT('',(1.400000000000001,0.349999999999998,0.0));
#732=DIRECTION('',(1.0,0.0,0.0));
#733=VECTOR('',#732,0.099999999999999);
#734=LINE('',#731,#733);
#735=EDGE_CURVE('',#702,#453,#734,.T.);
#736=ORIENTED_EDGE('',*,*,#735,.F.);
#737=ORIENTED_EDGE('',*,*,#707,.T.);
#738=EDGE_LOOP('',(#729,#730,#736,#737));
#739=FACE_OUTER_BOUND('',#738,.T.);
#740=ADVANCED_FACE('',(#739),#723,.T.);
#741=CARTESIAN_POINT('',(1.127816713621814,-3.552714E-015,0.5));
#742=DIRECTION('',(0.0,0.0,1.0));
#743=DIRECTION('',(1.0,0.0,0.0));
#744=AXIS2_PLACEMENT_3D('',#741,#742,#743);
#745=PLANE('',#744);
#746=ORIENTED_EDGE('',*,*,#442,.F.);
#747=ORIENTED_EDGE('',*,*,#728,.F.);
#748=ORIENTED_EDGE('',*,*,#699,.F.);
#749=ORIENTED_EDGE('',*,*,#668,.F.);
#750=ORIENTED_EDGE('',*,*,#637,.F.);
#751=ORIENTED_EDGE('',*,*,#606,.F.);
#752=ORIENTED_EDGE('',*,*,#575,.F.);
#753=ORIENTED_EDGE('',*,*,#544,.F.);
#754=ORIENTED_EDGE('',*,*,#513,.F.);
#755=ORIENTED_EDGE('',*,*,#481,.F.);
#756=EDGE_LOOP('',(#746,#747,#748,#749,#750,#751,#752,#753,#754,#755));
#757=FACE_OUTER_BOUND('',#756,.T.);
#758=ADVANCED_FACE('',(#757),#745,.T.);
#759=CARTESIAN_POINT('',(1.127816713621814,0.0,0.0));
#760=DIRECTION('',(0.0,0.0,1.0));
#761=DIRECTION('',(1.0,0.0,0.0));
#762=AXIS2_PLACEMENT_3D('',#759,#760,#761);
#763=PLANE('',#762);
#764=ORIENTED_EDGE('',*,*,#735,.T.);
#765=ORIENTED_EDGE('',*,*,#458,.T.);
#766=ORIENTED_EDGE('',*,*,#496,.T.);
#767=ORIENTED_EDGE('',*,*,#527,.T.);
#768=ORIENTED_EDGE('',*,*,#558,.T.);
#769=ORIENTED_EDGE('',*,*,#589,.T.);
#770=ORIENTED_EDGE('',*,*,#620,.T.);
#771=ORIENTED_EDGE('',*,*,#651,.T.);
#772=ORIENTED_EDGE('',*,*,#682,.T.);
#773=ORIENTED_EDGE('',*,*,#713,.T.);
#774=EDGE_LOOP('',(#764,#765,#766,#767,#768,#769,#770,#771,#772,#773));
#775=FACE_OUTER_BOUND('',#774,.T.);
#776=ADVANCED_FACE('',(#775),#763,.F.);
#777=CLOSED_SHELL('',(#468,#501,#532,#563,#594,#625,#656,#687,#718,#740,#758,#776));
#778=MANIFOLD_SOLID_BREP('E1F',#777);
#779=COLOUR_RGB('40',1.0,0.75,0.0);
#780=SURFACE_STYLE_USAGE(.BOTH.,#781);
#781=SURFACE_SIDE_STYLE('NONE',(#782));
#782=SURFACE_STYLE_FILL_AREA(#783);
#783=FILL_AREA_STYLE('NONE',(#784));
#784=FILL_AREA_STYLE_COLOUR('NONE',#779);
#785=PRESENTATION_STYLE_ASSIGNMENT((#780));
#786=STYLED_ITEM('NONE',(#785),#778);
#787=CARTESIAN_POINT('',(-1.4,0.349999999999998,0.0));
#788=DIRECTION('',(-1.0,0.0,0.0));
#789=DIRECTION('',(0.0,0.0,1.0));
#790=AXIS2_PLACEMENT_3D('',#787,#788,#789);
#791=PLANE('',#790);
#792=CARTESIAN_POINT('',(-1.4,0.349999999999998,0.5));
#793=VERTEX_POINT('',#792);
#794=CARTESIAN_POINT('',(-1.4,0.85,0.5));
#795=VERTEX_POINT('',#794);
#796=CARTESIAN_POINT('',(-1.4,0.349999999999998,0.5));
#797=DIRECTION('',(0.0,1.0,0.0));
#798=VECTOR('',#797,0.500000000000002);
#799=LINE('',#796,#798);
#800=EDGE_CURVE('',#793,#795,#799,.T.);
#801=ORIENTED_EDGE('',*,*,#800,.T.);
#802=CARTESIAN_POINT('',(-1.4,0.85,0.0));
#803=VERTEX_POINT('',#802);
#804=CARTESIAN_POINT('',(-1.4,0.85,0.0));
#805=DIRECTION('',(0.0,0.0,1.0));
#806=VECTOR('',#805,0.5);
#807=LINE('',#804,#806);
#808=EDGE_CURVE('',#803,#795,#807,.T.);
#809=ORIENTED_EDGE('',*,*,#808,.F.);
#810=CARTESIAN_POINT('',(-1.4,0.349999999999998,0.0));
#811=VERTEX_POINT('',#810);
#812=CARTESIAN_POINT('',(-1.4,0.85,0.0));
#813=DIRECTION('',(0.0,-1.0,0.0));
#814=VECTOR('',#813,0.500000000000002);
#815=LINE('',#812,#814);
#816=EDGE_CURVE('',#803,#811,#815,.T.);
#817=ORIENTED_EDGE('',*,*,#816,.T.);
#818=CARTESIAN_POINT('',(-1.4,0.349999999999998,0.0));
#819=DIRECTION('',(0.0,0.0,1.0));
#820=VECTOR('',#819,0.5);
#821=LINE('',#818,#820);
#822=EDGE_CURVE('',#811,#793,#821,.T.);
#823=ORIENTED_EDGE('',*,*,#822,.T.);
#824=EDGE_LOOP('',(#801,#809,#817,#823));
#825=FACE_OUTER_BOUND('',#824,.T.);
#826=ADVANCED_FACE('',(#825),#791,.T.);
#827=CARTESIAN_POINT('',(-1.4,0.85,0.0));
#828=DIRECTION('',(0.0,1.0,0.0));
#829=DIRECTION('',(0.0,0.0,1.0));
#830=AXIS2_PLACEMENT_3D('',#827,#828,#829);
#831=PLANE('',#830);
#832=CARTESIAN_POINT('',(-0.8,0.85,0.5));
#833=VERTEX_POINT('',#832);
#834=CARTESIAN_POINT('',(-1.4,0.85,0.5));
#835=DIRECTION('',(1.0,0.0,0.0));
#836=VECTOR('',#835,0.6);
#837=LINE('',#834,#836);
#838=EDGE_CURVE('',#795,#833,#837,.T.);
#839=ORIENTED_EDGE('',*,*,#838,.T.);
#840=CARTESIAN_POINT('',(-0.8,0.85,0.0));
#841=VERTEX_POINT('',#840);
#842=CARTESIAN_POINT('',(-0.8,0.85,0.0));
#843=DIRECTION('',(0.0,0.0,1.0));
#844=VECTOR('',#843,0.5);
#845=LINE('',#842,#844);
#846=EDGE_CURVE('',#841,#833,#845,.T.);
#847=ORIENTED_EDGE('',*,*,#846,.F.);
#848=CARTESIAN_POINT('',(-0.8,0.85,0.0));
#849=DIRECTION('',(-1.0,0.0,0.0));
#850=VECTOR('',#849,0.6);
#851=LINE('',#848,#850);
#852=EDGE_CURVE('',#841,#803,#851,.T.);
#853=ORIENTED_EDGE('',*,*,#852,.T.);
#854=ORIENTED_EDGE('',*,*,#808,.T.);
#855=EDGE_LOOP('',(#839,#847,#853,#854));
#856=FACE_OUTER_BOUND('',#855,.T.);
#857=ADVANCED_FACE('',(#856),#831,.T.);
#858=CARTESIAN_POINT('',(-0.8,0.85,0.0));
#859=DIRECTION('',(1.0,0.0,0.0));
#860=DIRECTION('',(0.0,0.0,-1.0));
#861=AXIS2_PLACEMENT_3D('',#858,#859,#860);
#862=PLANE('',#861);
#863=CARTESIAN_POINT('',(-0.8,-0.85,0.5));
#864=VERTEX_POINT('',#863);
#865=CARTESIAN_POINT('',(-0.8,0.85,0.5));
#866=DIRECTION('',(0.0,-1.0,0.0));
#867=VECTOR('',#866,1.699999999999999);
#868=LINE('',#865,#867);
#869=EDGE_CURVE('',#833,#864,#868,.T.);
#870=ORIENTED_EDGE('',*,*,#869,.T.);
#871=CARTESIAN_POINT('',(-0.8,-0.85,0.0));
#872=VERTEX_POINT('',#871);
#873=CARTESIAN_POINT('',(-0.8,-0.85,0.0));
#874=DIRECTION('',(0.0,0.0,1.0));
#875=VECTOR('',#874,0.5);
#876=LINE('',#873,#875);
#877=EDGE_CURVE('',#872,#864,#876,.T.);
#878=ORIENTED_EDGE('',*,*,#877,.F.);
#879=CARTESIAN_POINT('',(-0.8,-0.85,0.0));
#880=DIRECTION('',(0.0,1.0,0.0));
#881=VECTOR('',#880,1.699999999999999);
#882=LINE('',#879,#881);
#883=EDGE_CURVE('',#872,#841,#882,.T.);
#884=ORIENTED_EDGE('',*,*,#883,.T.);
#885=ORIENTED_EDGE('',*,*,#846,.T.);
#886=EDGE_LOOP('',(#870,#878,#884,#885));
#887=FACE_OUTER_BOUND('',#886,.T.);
#888=ADVANCED_FACE('',(#887),#862,.T.);
#889=CARTESIAN_POINT('',(-0.8,-0.85,0.0));
#890=DIRECTION('',(0.0,-1.0,0.0));
#891=DIRECTION('',(0.0,0.0,-1.0));
#892=AXIS2_PLACEMENT_3D('',#889,#890,#891);
#893=PLANE('',#892);
#894=CARTESIAN_POINT('',(-1.4,-0.850000000000003,0.5));
#895=VERTEX_POINT('',#894);
#896=CARTESIAN_POINT('',(-0.8,-0.85,0.5));
#897=DIRECTION('',(-1.0,0.0,0.0));
#898=VECTOR('',#897,0.6);
#899=LINE('',#896,#898);
#900=EDGE_CURVE('',#864,#895,#899,.T.);
#901=ORIENTED_EDGE('',*,*,#900,.T.);
#902=CARTESIAN_POINT('',(-1.4,-0.850000000000003,0.0));
#903=VERTEX_POINT('',#902);
#904=CARTESIAN_POINT('',(-1.4,-0.850000000000003,0.0));
#905=DIRECTION('',(0.0,0.0,1.0));
#906=VECTOR('',#905,0.5);
#907=LINE('',#904,#906);
#908=EDGE_CURVE('',#903,#895,#907,.T.);
#909=ORIENTED_EDGE('',*,*,#908,.F.);
#910=CARTESIAN_POINT('',(-1.4,-0.850000000000003,0.0));
#911=DIRECTION('',(1.0,0.0,0.0));
#912=VECTOR('',#911,0.6);
#913=LINE('',#910,#912);
#914=EDGE_CURVE('',#903,#872,#913,.T.);
#915=ORIENTED_EDGE('',*,*,#914,.T.);
#916=ORIENTED_EDGE('',*,*,#877,.T.);
#917=EDGE_LOOP('',(#901,#909,#915,#916));
#918=FACE_OUTER_BOUND('',#917,.T.);
#919=ADVANCED_FACE('',(#918),#893,.T.);
#920=CARTESIAN_POINT('',(-1.4,-0.850000000000003,0.0));
#921=DIRECTION('',(-1.0,0.0,0.0));
#922=DIRECTION('',(0.0,0.0,1.0));
#923=AXIS2_PLACEMENT_3D('',#920,#921,#922);
#924=PLANE('',#923);
#925=CARTESIAN_POINT('',(-1.4,-0.350000000000001,0.5));
#926=VERTEX_POINT('',#925);
#927=CARTESIAN_POINT('',(-1.4,-0.850000000000003,0.5));
#928=DIRECTION('',(0.0,1.0,0.0));
#929=VECTOR('',#928,0.500000000000002);
#930=LINE('',#927,#929);
#931=EDGE_CURVE('',#895,#926,#930,.T.);
#932=ORIENTED_EDGE('',*,*,#931,.T.);
#933=CARTESIAN_POINT('',(-1.4,-0.350000000000001,0.0));
#934=VERTEX_POINT('',#933);
#935=CARTESIAN_POINT('',(-1.4,-0.350000000000001,0.0));
#936=DIRECTION('',(0.0,0.0,1.0));
#937=VECTOR('',#936,0.5);
#938=LINE('',#935,#937);
#939=EDGE_CURVE('',#934,#926,#938,.T.);
#940=ORIENTED_EDGE('',*,*,#939,.F.);
#941=CARTESIAN_POINT('',(-1.4,-0.350000000000001,0.0));
#942=DIRECTION('',(0.0,-1.0,0.0));
#943=VECTOR('',#942,0.500000000000002);
#944=LINE('',#941,#943);
#945=EDGE_CURVE('',#934,#903,#944,.T.);
#946=ORIENTED_EDGE('',*,*,#945,.T.);
#947=ORIENTED_EDGE('',*,*,#908,.T.);
#948=EDGE_LOOP('',(#932,#940,#946,#947));
#949=FACE_OUTER_BOUND('',#948,.T.);
#950=ADVANCED_FACE('',(#949),#924,.T.);
#951=CARTESIAN_POINT('',(-1.4,-0.350000000000001,0.0));
#952=DIRECTION('',(0.0,-1.0,0.0));
#953=DIRECTION('',(0.0,0.0,-1.0));
#954=AXIS2_PLACEMENT_3D('',#951,#952,#953);
#955=PLANE('',#954);
#956=CARTESIAN_POINT('',(-1.5,-0.350000000000001,0.5));
#957=VERTEX_POINT('',#956);
#958=CARTESIAN_POINT('',(-1.4,-0.350000000000001,0.5));
#959=DIRECTION('',(-1.0,0.0,0.0));
#960=VECTOR('',#959,0.099999999999999);
#961=LINE('',#958,#960);
#962=EDGE_CURVE('',#926,#957,#961,.T.);
#963=ORIENTED_EDGE('',*,*,#962,.T.);
#964=CARTESIAN_POINT('',(-1.5,-0.350000000000001,0.0));
#965=VERTEX_POINT('',#964);
#966=CARTESIAN_POINT('',(-1.5,-0.350000000000001,0.0));
#967=DIRECTION('',(0.0,0.0,1.0));
#968=VECTOR('',#967,0.5);
#969=LINE('',#966,#968);
#970=EDGE_CURVE('',#965,#957,#969,.T.);
#971=ORIENTED_EDGE('',*,*,#970,.F.);
#972=CARTESIAN_POINT('',(-1.5,-0.350000000000001,0.0));
#973=DIRECTION('',(1.0,0.0,0.0));
#974=VECTOR('',#973,0.099999999999999);
#975=LINE('',#972,#974);
#976=EDGE_CURVE('',#965,#934,#975,.T.);
#977=ORIENTED_EDGE('',*,*,#976,.T.);
#978=ORIENTED_EDGE('',*,*,#939,.T.);
#979=EDGE_LOOP('',(#963,#971,#977,#978));
#980=FACE_OUTER_BOUND('',#979,.T.);
#981=ADVANCED_FACE('',(#980),#955,.T.);
#982=CARTESIAN_POINT('',(-1.5,-0.350000000000001,0.0));
#983=DIRECTION('',(-1.0,0.0,0.0));
#984=DIRECTION('',(0.0,0.0,1.0));
#985=AXIS2_PLACEMENT_3D('',#982,#983,#984);
#986=PLANE('',#985);
#987=CARTESIAN_POINT('',(-1.5,-0.250000000000002,0.5));
#988=VERTEX_POINT('',#987);
#989=CARTESIAN_POINT('',(-1.5,-0.350000000000001,0.5));
#990=DIRECTION('',(0.0,1.0,0.0));
#991=VECTOR('',#990,0.1);
#992=LINE('',#989,#991);
#993=EDGE_CURVE('',#957,#988,#992,.T.);
#994=ORIENTED_EDGE('',*,*,#993,.T.);
#995=CARTESIAN_POINT('',(-1.5,-0.250000000000002,0.0));
#996=VERTEX_POINT('',#995);
#997=CARTESIAN_POINT('',(-1.5,-0.250000000000002,0.0));
#998=DIRECTION('',(0.0,0.0,1.0));
#999=VECTOR('',#998,0.5);
#1000=LINE('',#997,#999);
#1001=EDGE_CURVE('',#996,#988,#1000,.T.);
#1002=ORIENTED_EDGE('',*,*,#1001,.F.);
#1003=CARTESIAN_POINT('',(-1.5,-0.250000000000002,0.0));
#1004=DIRECTION('',(0.0,-1.0,0.0));
#1005=VECTOR('',#1004,0.1);
#1006=LINE('',#1003,#1005);
#1007=EDGE_CURVE('',#996,#965,#1006,.T.);
#1008=ORIENTED_EDGE('',*,*,#1007,.T.);
#1009=ORIENTED_EDGE('',*,*,#970,.T.);
#1010=EDGE_LOOP('',(#994,#1002,#1008,#1009));
#1011=FACE_OUTER_BOUND('',#1010,.T.);
#1012=ADVANCED_FACE('',(#1011),#986,.T.);
#1013=CARTESIAN_POINT('',(-1.5,-1.776357E-015,0.0));
#1014=DIRECTION('',(0.0,0.0,1.0));
#1015=DIRECTION('',(1.0,0.0,0.0));
#1016=AXIS2_PLACEMENT_3D('',#1013,#1014,#1015);
#1017=CYLINDRICAL_SURFACE('',#1016,0.25);
#1018=CARTESIAN_POINT('',(-1.5,0.249999999999998,0.5));
#1019=VERTEX_POINT('',#1018);
#1020=CARTESIAN_POINT('',(-1.5,-1.776357E-015,0.5));
#1021=DIRECTION('',(0.0,0.0,1.0));
#1022=DIRECTION('',(1.0,0.0,0.0));
#1023=AXIS2_PLACEMENT_3D('',#1020,#1021,#1022);
#1024=CIRCLE('',#1023,0.25);
#1025=EDGE_CURVE('',#988,#1019,#1024,.T.);
#1026=ORIENTED_EDGE('',*,*,#1025,.T.);
#1027=CARTESIAN_POINT('',(-1.5,0.249999999999998,0.0));
#1028=VERTEX_POINT('',#1027);
#1029=CARTESIAN_POINT('',(-1.5,0.249999999999998,0.0));
#1030=DIRECTION('',(0.0,0.0,1.0));
#1031=VECTOR('',#1030,0.5);
#1032=LINE('',#1029,#1031);
#1033=EDGE_CURVE('',#1028,#1019,#1032,.T.);
#1034=ORIENTED_EDGE('',*,*,#1033,.F.);
#1035=CARTESIAN_POINT('',(-1.5,-1.776357E-015,0.0));
#1036=DIRECTION('',(0.0,0.0,-1.0));
#1037=DIRECTION('',(1.0,0.0,0.0));
#1038=AXIS2_PLACEMENT_3D('',#1035,#1036,#1037);
#1039=CIRCLE('',#1038,0.25);
#1040=EDGE_CURVE('',#1028,#996,#1039,.T.);
#1041=ORIENTED_EDGE('',*,*,#1040,.T.);
#1042=ORIENTED_EDGE('',*,*,#1001,.T.);
#1043=EDGE_LOOP('',(#1026,#1034,#1041,#1042));
#1044=FACE_OUTER_BOUND('',#1043,.T.);
#1045=ADVANCED_FACE('',(#1044),#1017,.F.);
#1046=CARTESIAN_POINT('',(-1.5,0.249999999999998,0.0));
#1047=DIRECTION('',(-1.0,0.0,0.0));
#1048=DIRECTION('',(0.0,0.0,1.0));
#1049=AXIS2_PLACEMENT_3D('',#1046,#1047,#1048);
#1050=PLANE('',#1049);
#1051=CARTESIAN_POINT('',(-1.5,0.349999999999996,0.5));
#1052=VERTEX_POINT('',#1051);
#1053=CARTESIAN_POINT('',(-1.5,0.249999999999998,0.5));
#1054=DIRECTION('',(0.0,1.0,0.0));
#1055=VECTOR('',#1054,0.099999999999998);
#1056=LINE('',#1053,#1055);
#1057=EDGE_CURVE('',#1019,#1052,#1056,.T.);
#1058=ORIENTED_EDGE('',*,*,#1057,.T.);
#1059=CARTESIAN_POINT('',(-1.5,0.349999999999996,0.0));
#1060=VERTEX_POINT('',#1059);
#1061=CARTESIAN_POINT('',(-1.5,0.349999999999996,0.0));
#1062=DIRECTION('',(0.0,0.0,1.0));
#1063=VECTOR('',#1062,0.5);
#1064=LINE('',#1061,#1063);
#1065=EDGE_CURVE('',#1060,#1052,#1064,.T.);
#1066=ORIENTED_EDGE('',*,*,#1065,.F.);
#1067=CARTESIAN_POINT('',(-1.5,0.349999999999996,0.0));
#1068=DIRECTION('',(0.0,-1.0,0.0));
#1069=VECTOR('',#1068,0.099999999999998);
#1070=LINE('',#1067,#1069);
#1071=EDGE_CURVE('',#1060,#1028,#1070,.T.);
#1072=ORIENTED_EDGE('',*,*,#1071,.T.);
#1073=ORIENTED_EDGE('',*,*,#1033,.T.);
#1074=EDGE_LOOP('',(#1058,#1066,#1072,#1073));
#1075=FACE_OUTER_BOUND('',#1074,.T.);
#1076=ADVANCED_FACE('',(#1075),#1050,.T.);
#1077=CARTESIAN_POINT('',(-1.5,0.349999999999996,0.0));
#1078=DIRECTION('',(0.0,1.0,0.0));
#1079=DIRECTION('',(0.0,0.0,1.0));
#1080=AXIS2_PLACEMENT_3D('',#1077,#1078,#1079);
#1081=PLANE('',#1080);
#1082=CARTESIAN_POINT('',(-1.5,0.349999999999996,0.5));
#1083=DIRECTION('',(1.0,0.0,0.0));
#1084=VECTOR('',#1083,0.099999999999999);
#1085=LINE('',#1082,#1084);
#1086=EDGE_CURVE('',#1052,#793,#1085,.T.);
#1087=ORIENTED_EDGE('',*,*,#1086,.T.);
#1088=ORIENTED_EDGE('',*,*,#822,.F.);
#1089=CARTESIAN_POINT('',(-1.4,0.349999999999998,0.0));
#1090=DIRECTION('',(-1.0,0.0,0.0));
#1091=VECTOR('',#1090,0.099999999999999);
#1092=LINE('',#1089,#1091);
#1093=EDGE_CURVE('',#811,#1060,#1092,.T.);
#1094=ORIENTED_EDGE('',*,*,#1093,.T.);
#1095=ORIENTED_EDGE('',*,*,#1065,.T.);
#1096=EDGE_LOOP('',(#1087,#1088,#1094,#1095));
#1097=FACE_OUTER_BOUND('',#1096,.T.);
#1098=ADVANCED_FACE('',(#1097),#1081,.T.);
#1099=CARTESIAN_POINT('',(-1.127816713621814,-3.552714E-015,0.0));
#1100=DIRECTION('',(0.0,0.0,1.0));
#1101=DIRECTION('',(1.0,0.0,0.0));
#1102=AXIS2_PLACEMENT_3D('',#1099,#1100,#1101);
#1103=PLANE('',#1102);
#1104=ORIENTED_EDGE('',*,*,#1093,.F.);
#1105=ORIENTED_EDGE('',*,*,#816,.F.);
#1106=ORIENTED_EDGE('',*,*,#852,.F.);
#1107=ORIENTED_EDGE('',*,*,#883,.F.);
#1108=ORIENTED_EDGE('',*,*,#914,.F.);
#1109=ORIENTED_EDGE('',*,*,#945,.F.);
#1110=ORIENTED_EDGE('',*,*,#976,.F.);
#1111=ORIENTED_EDGE('',*,*,#1007,.F.);
#1112=ORIENTED_EDGE('',*,*,#1040,.F.);
#1113=ORIENTED_EDGE('',*,*,#1071,.F.);
#1114=EDGE_LOOP('',(#1104,#1105,#1106,#1107,#1108,#1109,#1110,#1111,#1112,#1113));
#1115=FACE_OUTER_BOUND('',#1114,.T.);
#1116=ADVANCED_FACE('',(#1115),#1103,.F.);
#1117=CARTESIAN_POINT('',(-1.127816713621813,0.0,0.5));
#1118=DIRECTION('',(0.0,0.0,1.0));
#1119=DIRECTION('',(1.0,0.0,0.0));
#1120=AXIS2_PLACEMENT_3D('',#1117,#1118,#1119);
#1121=PLANE('',#1120);
#1122=ORIENTED_EDGE('',*,*,#800,.F.);
#1123=ORIENTED_EDGE('',*,*,#1086,.F.);
#1124=ORIENTED_EDGE('',*,*,#1057,.F.);
#1125=ORIENTED_EDGE('',*,*,#1025,.F.);
#1126=ORIENTED_EDGE('',*,*,#993,.F.);
#1127=ORIENTED_EDGE('',*,*,#962,.F.);
#1128=ORIENTED_EDGE('',*,*,#931,.F.);
#1129=ORIENTED_EDGE('',*,*,#900,.F.);
#1130=ORIENTED_EDGE('',*,*,#869,.F.);
#1131=ORIENTED_EDGE('',*,*,#838,.F.);
#1132=EDGE_LOOP('',(#1122,#1123,#1124,#1125,#1126,#1127,#1128,#1129,#1130,#1131));
#1133=FACE_OUTER_BOUND('',#1132,.T.);
#1134=ADVANCED_FACE('',(#1133),#1121,.T.);
#1135=CLOSED_SHELL('',(#826,#857,#888,#919,#950,#981,#1012,#1045,#1076,#1098,#1116,#1134));
#1136=MANIFOLD_SOLID_BREP('E1B',#1135);
#1137=STYLED_ITEM('NONE',(#785),#1136);
#1138=CARTESIAN_POINT('',(4.440892E-016,-1.776357E-015,0.5));
#1139=DIRECTION('',(0.0,0.0,1.0));
#1140=DIRECTION('',(1.0,0.0,0.0));
#1141=AXIS2_PLACEMENT_3D('',#1138,#1139,#1140);
#1142=PLANE('',#1141);
#1143=CARTESIAN_POINT('',(1.400000000000001,0.349999999999998,0.5));
#1144=VERTEX_POINT('',#1143);
#1145=CARTESIAN_POINT('',(1.5,0.349999999999996,0.5));
#1146=VERTEX_POINT('',#1145);
#1147=CARTESIAN_POINT('',(1.400000000000001,0.349999999999996,0.5));
#1148=DIRECTION('',(1.0,0.0,0.0));
#1149=VECTOR('',#1148,0.099999999999999);
#1150=LINE('',#1147,#1149);
#1151=EDGE_CURVE('',#1144,#1146,#1150,.T.);
#1152=ORIENTED_EDGE('',*,*,#1151,.T.);
#1153=CARTESIAN_POINT('',(1.5,0.999999999999998,0.5));
#1154=VERTEX_POINT('',#1153);
#1155=CARTESIAN_POINT('',(1.5,0.999999999999998,0.5));
#1156=DIRECTION('',(0.0,-1.0,0.0));
#1157=VECTOR('',#1156,0.650000000000002);
#1158=LINE('',#1155,#1157);
#1159=EDGE_CURVE('',#1154,#1146,#1158,.T.);
#1160=ORIENTED_EDGE('',*,*,#1159,.F.);
#1161=CARTESIAN_POINT('',(-1.5,0.999999999999998,0.5));
#1162=VERTEX_POINT('',#1161);
#1163=CARTESIAN_POINT('',(-1.5,0.999999999999998,0.5));
#1164=DIRECTION('',(1.0,0.0,0.0));
#1165=VECTOR('',#1164,3.0);
#1166=LINE('',#1163,#1165);
#1167=EDGE_CURVE('',#1162,#1154,#1166,.T.);
#1168=ORIENTED_EDGE('',*,*,#1167,.F.);
#1169=CARTESIAN_POINT('',(-1.5,0.349999999999996,0.5));
#1170=VERTEX_POINT('',#1169);
#1171=CARTESIAN_POINT('',(-1.5,0.349999999999996,0.5));
#1172=DIRECTION('',(0.0,1.0,0.0));
#1173=VECTOR('',#1172,0.650000000000002);
#1174=LINE('',#1171,#1173);
#1175=EDGE_CURVE('',#1170,#1162,#1174,.T.);
#1176=ORIENTED_EDGE('',*,*,#1175,.F.);
#1177=CARTESIAN_POINT('',(-1.4,0.349999999999998,0.5));
#1178=VERTEX_POINT('',#1177);
#1179=CARTESIAN_POINT('',(-1.5,0.349999999999995,0.5));
#1180=DIRECTION('',(1.0,0.0,0.0));
#1181=VECTOR('',#1180,0.099999999999999);
#1182=LINE('',#1179,#1181);
#1183=EDGE_CURVE('',#1170,#1178,#1182,.T.);
#1184=ORIENTED_EDGE('',*,*,#1183,.T.);
#1185=CARTESIAN_POINT('',(-1.4,0.85,0.5));
#1186=VERTEX_POINT('',#1185);
#1187=CARTESIAN_POINT('',(-1.4,0.349999999999998,0.5));
#1188=DIRECTION('',(0.0,1.0,0.0));
#1189=VECTOR('',#1188,0.500000000000002);
#1190=LINE('',#1187,#1189);
#1191=EDGE_CURVE('',#1178,#1186,#1190,.T.);
#1192=ORIENTED_EDGE('',*,*,#1191,.T.);
#1193=CARTESIAN_POINT('',(-0.8,0.85,0.5));
#1194=VERTEX_POINT('',#1193);
#1195=CARTESIAN_POINT('',(-1.4,0.85,0.5));
#1196=DIRECTION('',(1.0,0.0,0.0));
#1197=VECTOR('',#1196,0.6);
#1198=LINE('',#1195,#1197);
#1199=EDGE_CURVE('',#1186,#1194,#1198,.T.);
#1200=ORIENTED_EDGE('',*,*,#1199,.T.);
#1201=CARTESIAN_POINT('',(-0.8,-0.85,0.5));
#1202=VERTEX_POINT('',#1201);
#1203=CARTESIAN_POINT('',(-0.8,0.85,0.5));
#1204=DIRECTION('',(0.0,-1.0,0.0));
#1205=VECTOR('',#1204,1.699999999999999);
#1206=LINE('',#1203,#1205);
#1207=EDGE_CURVE('',#1194,#1202,#1206,.T.);
#1208=ORIENTED_EDGE('',*,*,#1207,.T.);
#1209=CARTESIAN_POINT('',(-1.4,-0.850000000000003,0.5));
#1210=VERTEX_POINT('',#1209);
#1211=CARTESIAN_POINT('',(-0.8,-0.85,0.5));
#1212=DIRECTION('',(-1.0,0.0,0.0));
#1213=VECTOR('',#1212,0.6);
#1214=LINE('',#1211,#1213);
#1215=EDGE_CURVE('',#1202,#1210,#1214,.T.);
#1216=ORIENTED_EDGE('',*,*,#1215,.T.);
#1217=CARTESIAN_POINT('',(-1.4,-0.350000000000001,0.5));
#1218=VERTEX_POINT('',#1217);
#1219=CARTESIAN_POINT('',(-1.4,-0.850000000000003,0.5));
#1220=DIRECTION('',(0.0,1.0,0.0));
#1221=VECTOR('',#1220,0.500000000000002);
#1222=LINE('',#1219,#1221);
#1223=EDGE_CURVE('',#1210,#1218,#1222,.T.);
#1224=ORIENTED_EDGE('',*,*,#1223,.T.);
#1225=CARTESIAN_POINT('',(-1.5,-0.350000000000001,0.5));
#1226=VERTEX_POINT('',#1225);
#1227=CARTESIAN_POINT('',(-1.4,-0.350000000000001,0.5));
#1228=DIRECTION('',(-1.0,0.0,0.0));
#1229=VECTOR('',#1228,0.099999999999999);
#1230=LINE('',#1227,#1229);
#1231=EDGE_CURVE('',#1218,#1226,#1230,.T.);
#1232=ORIENTED_EDGE('',*,*,#1231,.T.);
#1233=CARTESIAN_POINT('',(-1.5,-1.000000000000002,0.5));
#1234=VERTEX_POINT('',#1233);
#1235=CARTESIAN_POINT('',(-1.5,-1.000000000000002,0.5));
#1236=DIRECTION('',(0.0,1.0,0.0));
#1237=VECTOR('',#1236,0.65);
#1238=LINE('',#1235,#1237);
#1239=EDGE_CURVE('',#1234,#1226,#1238,.T.);
#1240=ORIENTED_EDGE('',*,*,#1239,.F.);
#1241=CARTESIAN_POINT('',(1.5,-1.000000000000002,0.5));
#1242=VERTEX_POINT('',#1241);
#1243=CARTESIAN_POINT('',(1.5,-1.000000000000002,0.5));
#1244=DIRECTION('',(-1.0,0.0,0.0));
#1245=VECTOR('',#1244,3.0);
#1246=LINE('',#1243,#1245);
#1247=EDGE_CURVE('',#1242,#1234,#1246,.T.);
#1248=ORIENTED_EDGE('',*,*,#1247,.F.);
#1249=CARTESIAN_POINT('',(1.5,-0.350000000000001,0.5));
#1250=VERTEX_POINT('',#1249);
#1251=CARTESIAN_POINT('',(1.5,-0.350000000000001,0.5));
#1252=DIRECTION('',(0.0,-1.0,0.0));
#1253=VECTOR('',#1252,0.65);
#1254=LINE('',#1251,#1253);
#1255=EDGE_CURVE('',#1250,#1242,#1254,.T.);
#1256=ORIENTED_EDGE('',*,*,#1255,.F.);
#1257=CARTESIAN_POINT('',(1.400000000000001,-0.350000000000001,0.5));
#1258=VERTEX_POINT('',#1257);
#1259=CARTESIAN_POINT('',(1.5,-0.350000000000001,0.5));
#1260=DIRECTION('',(-1.0,0.0,0.0));
#1261=VECTOR('',#1260,0.099999999999999);
#1262=LINE('',#1259,#1261);
#1263=EDGE_CURVE('',#1250,#1258,#1262,.T.);
#1264=ORIENTED_EDGE('',*,*,#1263,.T.);
#1265=CARTESIAN_POINT('',(1.400000000000001,-0.850000000000003,0.5));
#1266=VERTEX_POINT('',#1265);
#1267=CARTESIAN_POINT('',(1.400000000000001,-0.350000000000001,0.5));
#1268=DIRECTION('',(0.0,-1.0,0.0));
#1269=VECTOR('',#1268,0.500000000000002);
#1270=LINE('',#1267,#1269);
#1271=EDGE_CURVE('',#1258,#1266,#1270,.T.);
#1272=ORIENTED_EDGE('',*,*,#1271,.T.);
#1273=CARTESIAN_POINT('',(0.800000000000001,-0.85,0.5));
#1274=VERTEX_POINT('',#1273);
#1275=CARTESIAN_POINT('',(1.400000000000001,-0.850000000000004,0.5));
#1276=DIRECTION('',(-1.0,0.0,0.0));
#1277=VECTOR('',#1276,0.6);
#1278=LINE('',#1275,#1277);
#1279=EDGE_CURVE('',#1266,#1274,#1278,.T.);
#1280=ORIENTED_EDGE('',*,*,#1279,.T.);
#1281=CARTESIAN_POINT('',(0.800000000000001,0.85,0.5));
#1282=VERTEX_POINT('',#1281);
#1283=CARTESIAN_POINT('',(0.800000000000001,-0.85,0.5));
#1284=DIRECTION('',(0.0,1.0,0.0));
#1285=VECTOR('',#1284,1.699999999999999);
#1286=LINE('',#1283,#1285);
#1287=EDGE_CURVE('',#1274,#1282,#1286,.T.);
#1288=ORIENTED_EDGE('',*,*,#1287,.T.);
#1289=CARTESIAN_POINT('',(1.400000000000001,0.85,0.5));
#1290=VERTEX_POINT('',#1289);
#1291=CARTESIAN_POINT('',(0.800000000000001,0.85,0.5));
#1292=DIRECTION('',(1.0,0.0,0.0));
#1293=VECTOR('',#1292,0.6);
#1294=LINE('',#1291,#1293);
#1295=EDGE_CURVE('',#1282,#1290,#1294,.T.);
#1296=ORIENTED_EDGE('',*,*,#1295,.T.);
#1297=CARTESIAN_POINT('',(1.400000000000001,0.85,0.5));
#1298=DIRECTION('',(0.0,-1.0,0.0));
#1299=VECTOR('',#1298,0.500000000000002);
#1300=LINE('',#1297,#1299);
#1301=EDGE_CURVE('',#1290,#1144,#1300,.T.);
#1302=ORIENTED_EDGE('',*,*,#1301,.T.);
#1303=EDGE_LOOP('',(#1152,#1160,#1168,#1176,#1184,#1192,#1200,#1208,#1216,#1224,#1232,#1240,#1248,#1256,#1264,#1272,#1280,#1288,#1296,#1302));
#1304=FACE_OUTER_BOUND('',#1303,.T.);
#1305=ADVANCED_FACE('',(#1304),#1142,.T.);
#1306=CARTESIAN_POINT('',(1.5,-1.000000000000002,0.0));
#1307=DIRECTION('',(0.0,-1.0,0.0));
#1308=DIRECTION('',(0.0,0.0,-1.0));
#1309=AXIS2_PLACEMENT_3D('',#1306,#1307,#1308);
#1310=PLANE('',#1309);
#1311=ORIENTED_EDGE('',*,*,#1247,.T.);
#1312=CARTESIAN_POINT('',(-1.5,-1.000000000000002,0.0));
#1313=VERTEX_POINT('',#1312);
#1314=CARTESIAN_POINT('',(-1.5,-1.000000000000002,0.0));
#1315=DIRECTION('',(0.0,0.0,1.0));
#1316=VECTOR('',#1315,0.5);
#1317=LINE('',#1314,#1316);
#1318=EDGE_CURVE('',#1313,#1234,#1317,.T.);
#1319=ORIENTED_EDGE('',*,*,#1318,.F.);
#1320=CARTESIAN_POINT('',(1.5,-1.000000000000002,0.0));
#1321=VERTEX_POINT('',#1320);
#1322=CARTESIAN_POINT('',(1.5,-1.000000000000002,0.0));
#1323=DIRECTION('',(-1.0,0.0,0.0));
#1324=VECTOR('',#1323,3.0);
#1325=LINE('',#1322,#1324);
#1326=EDGE_CURVE('',#1321,#1313,#1325,.T.);
#1327=ORIENTED_EDGE('',*,*,#1326,.F.);
#1328=CARTESIAN_POINT('',(1.5,-1.000000000000002,0.0));
#1329=DIRECTION('',(0.0,0.0,1.0));
#1330=VECTOR('',#1329,0.5);
#1331=LINE('',#1328,#1330);
#1332=EDGE_CURVE('',#1321,#1242,#1331,.T.);
#1333=ORIENTED_EDGE('',*,*,#1332,.T.);
#1334=EDGE_LOOP('',(#1311,#1319,#1327,#1333));
#1335=FACE_OUTER_BOUND('',#1334,.T.);
#1336=ADVANCED_FACE('',(#1335),#1310,.T.);
#1337=CARTESIAN_POINT('',(1.5,0.999999999999998,0.0));
#1338=DIRECTION('',(1.0,0.0,0.0));
#1339=DIRECTION('',(0.0,0.0,-1.0));
#1340=AXIS2_PLACEMENT_3D('',#1337,#1338,#1339);
#1341=PLANE('',#1340);
#1342=CARTESIAN_POINT('',(1.5,0.349999999999996,0.0));
#1343=VERTEX_POINT('',#1342);
#1344=CARTESIAN_POINT('',(1.5,0.349999999999994,0.5));
#1345=DIRECTION('',(0.0,0.0,-1.0));
#1346=VECTOR('',#1345,0.5);
#1347=LINE('',#1344,#1346);
#1348=EDGE_CURVE('',#1146,#1343,#1347,.T.);
#1349=ORIENTED_EDGE('',*,*,#1348,.T.);
#1350=CARTESIAN_POINT('',(1.5,0.999999999999998,0.0));
#1351=VERTEX_POINT('',#1350);
#1352=CARTESIAN_POINT('',(1.5,0.999999999999998,0.0));
#1353=DIRECTION('',(0.0,-1.0,0.0));
#1354=VECTOR('',#1353,0.650000000000002);
#1355=LINE('',#1352,#1354);
#1356=EDGE_CURVE('',#1351,#1343,#1355,.T.);
#1357=ORIENTED_EDGE('',*,*,#1356,.F.);
#1358=CARTESIAN_POINT('',(1.5,0.999999999999998,0.0));
#1359=DIRECTION('',(0.0,0.0,1.0));
#1360=VECTOR('',#1359,0.5);
#1361=LINE('',#1358,#1360);
#1362=EDGE_CURVE('',#1351,#1154,#1361,.T.);
#1363=ORIENTED_EDGE('',*,*,#1362,.T.);
#1364=ORIENTED_EDGE('',*,*,#1159,.T.);
#1365=EDGE_LOOP('',(#1349,#1357,#1363,#1364));
#1366=FACE_OUTER_BOUND('',#1365,.T.);
#1367=ADVANCED_FACE('',(#1366),#1341,.T.);
#1368=CARTESIAN_POINT('',(-1.5,0.999999999999998,0.0));
#1369=DIRECTION('',(0.0,1.0,0.0));
#1370=DIRECTION('',(0.0,0.0,1.0));
#1371=AXIS2_PLACEMENT_3D('',#1368,#1369,#1370);
#1372=PLANE('',#1371);
#1373=ORIENTED_EDGE('',*,*,#1167,.T.);
#1374=ORIENTED_EDGE('',*,*,#1362,.F.);
#1375=CARTESIAN_POINT('',(-1.5,0.999999999999998,0.0));
#1376=VERTEX_POINT('',#1375);
#1377=CARTESIAN_POINT('',(-1.5,0.999999999999998,0.0));
#1378=DIRECTION('',(1.0,0.0,0.0));
#1379=VECTOR('',#1378,3.0);
#1380=LINE('',#1377,#1379);
#1381=EDGE_CURVE('',#1376,#1351,#1380,.T.);
#1382=ORIENTED_EDGE('',*,*,#1381,.F.);
#1383=CARTESIAN_POINT('',(-1.5,0.999999999999998,0.0));
#1384=DIRECTION('',(0.0,0.0,1.0));
#1385=VECTOR('',#1384,0.5);
#1386=LINE('',#1383,#1385);
#1387=EDGE_CURVE('',#1376,#1162,#1386,.T.);
#1388=ORIENTED_EDGE('',*,*,#1387,.T.);
#1389=EDGE_LOOP('',(#1373,#1374,#1382,#1388));
#1390=FACE_OUTER_BOUND('',#1389,.T.);
#1391=ADVANCED_FACE('',(#1390),#1372,.T.);
#1392=CARTESIAN_POINT('',(-1.5,-1.000000000000002,0.0));
#1393=DIRECTION('',(-1.0,0.0,0.0));
#1394=DIRECTION('',(0.0,0.0,1.0));
#1395=AXIS2_PLACEMENT_3D('',#1392,#1393,#1394);
#1396=PLANE('',#1395);
#1397=CARTESIAN_POINT('',(-1.5,-0.350000000000001,0.0));
#1398=VERTEX_POINT('',#1397);
#1399=CARTESIAN_POINT('',(-1.5,-0.350000000000001,0.5));
#1400=DIRECTION('',(0.0,0.0,-1.0));
#1401=VECTOR('',#1400,0.5);
#1402=LINE('',#1399,#1401);
#1403=EDGE_CURVE('',#1226,#1398,#1402,.T.);
#1404=ORIENTED_EDGE('',*,*,#1403,.T.);
#1405=CARTESIAN_POINT('',(-1.5,-1.000000000000002,0.0));
#1406=DIRECTION('',(0.0,1.0,0.0));
#1407=VECTOR('',#1406,0.65);
#1408=LINE('',#1405,#1407);
#1409=EDGE_CURVE('',#1313,#1398,#1408,.T.);
#1410=ORIENTED_EDGE('',*,*,#1409,.F.);
#1411=ORIENTED_EDGE('',*,*,#1318,.T.);
#1412=ORIENTED_EDGE('',*,*,#1239,.T.);
#1413=EDGE_LOOP('',(#1404,#1410,#1411,#1412));
#1414=FACE_OUTER_BOUND('',#1413,.T.);
#1415=ADVANCED_FACE('',(#1414),#1396,.T.);
#1416=CARTESIAN_POINT('',(-1.5,-1.000000000000002,0.0));
#1417=DIRECTION('',(-1.0,0.0,0.0));
#1418=DIRECTION('',(0.0,0.0,1.0));
#1419=AXIS2_PLACEMENT_3D('',#1416,#1417,#1418);
#1420=PLANE('',#1419);
#1421=CARTESIAN_POINT('',(-1.5,0.349999999999996,0.0));
#1422=VERTEX_POINT('',#1421);
#1423=CARTESIAN_POINT('',(-1.5,0.349999999999996,0.0));
#1424=DIRECTION('',(0.0,0.0,1.0));
#1425=VECTOR('',#1424,0.5);
#1426=LINE('',#1423,#1425);
#1427=EDGE_CURVE('',#1422,#1170,#1426,.T.);
#1428=ORIENTED_EDGE('',*,*,#1427,.T.);
#1429=ORIENTED_EDGE('',*,*,#1175,.T.);
#1430=ORIENTED_EDGE('',*,*,#1387,.F.);
#1431=CARTESIAN_POINT('',(-1.5,0.349999999999996,0.0));
#1432=DIRECTION('',(0.0,1.0,0.0));
#1433=VECTOR('',#1432,0.650000000000002);
#1434=LINE('',#1431,#1433);
#1435=EDGE_CURVE('',#1422,#1376,#1434,.T.);
#1436=ORIENTED_EDGE('',*,*,#1435,.F.);
#1437=EDGE_LOOP('',(#1428,#1429,#1430,#1436));
#1438=FACE_OUTER_BOUND('',#1437,.T.);
#1439=ADVANCED_FACE('',(#1438),#1420,.T.);
#1440=CARTESIAN_POINT('',(4.440892E-016,-1.776357E-015,0.0));
#1441=DIRECTION('',(0.0,0.0,1.0));
#1442=DIRECTION('',(1.0,0.0,0.0));
#1443=AXIS2_PLACEMENT_3D('',#1440,#1441,#1442);
#1444=PLANE('',#1443);
#1445=CARTESIAN_POINT('',(1.400000000000001,0.349999999999998,0.0));
#1446=VERTEX_POINT('',#1445);
#1447=CARTESIAN_POINT('',(1.5,0.349999999999994,0.0));
#1448=DIRECTION('',(-1.0,0.0,0.0));
#1449=VECTOR('',#1448,0.099999999999999);
#1450=LINE('',#1447,#1449);
#1451=EDGE_CURVE('',#1343,#1446,#1450,.T.);
#1452=ORIENTED_EDGE('',*,*,#1451,.T.);
#1453=CARTESIAN_POINT('',(1.400000000000001,0.85,0.0));
#1454=VERTEX_POINT('',#1453);
#1455=CARTESIAN_POINT('',(1.400000000000001,0.349999999999998,0.0));
#1456=DIRECTION('',(0.0,1.0,0.0));
#1457=VECTOR('',#1456,0.500000000000002);
#1458=LINE('',#1455,#1457);
#1459=EDGE_CURVE('',#1446,#1454,#1458,.T.);
#1460=ORIENTED_EDGE('',*,*,#1459,.T.);
#1461=CARTESIAN_POINT('',(0.800000000000001,0.85,0.0));
#1462=VERTEX_POINT('',#1461);
#1463=CARTESIAN_POINT('',(1.400000000000001,0.85,0.0));
#1464=DIRECTION('',(-1.0,0.0,0.0));
#1465=VECTOR('',#1464,0.6);
#1466=LINE('',#1463,#1465);
#1467=EDGE_CURVE('',#1454,#1462,#1466,.T.);
#1468=ORIENTED_EDGE('',*,*,#1467,.T.);
#1469=CARTESIAN_POINT('',(0.800000000000001,-0.85,0.0));
#1470=VERTEX_POINT('',#1469);
#1471=CARTESIAN_POINT('',(0.800000000000001,0.85,0.0));
#1472=DIRECTION('',(0.0,-1.0,0.0));
#1473=VECTOR('',#1472,1.699999999999999);
#1474=LINE('',#1471,#1473);
#1475=EDGE_CURVE('',#1462,#1470,#1474,.T.);
#1476=ORIENTED_EDGE('',*,*,#1475,.T.);
#1477=CARTESIAN_POINT('',(1.400000000000001,-0.850000000000003,0.0));
#1478=VERTEX_POINT('',#1477);
#1479=CARTESIAN_POINT('',(0.800000000000001,-0.85,0.0));
#1480=DIRECTION('',(1.0,0.0,0.0));
#1481=VECTOR('',#1480,0.6);
#1482=LINE('',#1479,#1481);
#1483=EDGE_CURVE('',#1470,#1478,#1482,.T.);
#1484=ORIENTED_EDGE('',*,*,#1483,.T.);
#1485=CARTESIAN_POINT('',(1.400000000000001,-0.350000000000001,0.0));
#1486=VERTEX_POINT('',#1485);
#1487=CARTESIAN_POINT('',(1.400000000000001,-0.850000000000003,0.0));
#1488=DIRECTION('',(0.0,1.0,0.0));
#1489=VECTOR('',#1488,0.500000000000002);
#1490=LINE('',#1487,#1489);
#1491=EDGE_CURVE('',#1478,#1486,#1490,.T.);
#1492=ORIENTED_EDGE('',*,*,#1491,.T.);
#1493=CARTESIAN_POINT('',(1.5,-0.350000000000001,0.0));
#1494=VERTEX_POINT('',#1493);
#1495=CARTESIAN_POINT('',(1.400000000000001,-0.350000000000001,0.0));
#1496=DIRECTION('',(1.0,0.0,0.0));
#1497=VECTOR('',#1496,0.099999999999999);
#1498=LINE('',#1495,#1497);
#1499=EDGE_CURVE('',#1486,#1494,#1498,.T.);
#1500=ORIENTED_EDGE('',*,*,#1499,.T.);
#1501=CARTESIAN_POINT('',(1.5,-0.350000000000001,0.0));
#1502=DIRECTION('',(0.0,-1.0,0.0));
#1503=VECTOR('',#1502,0.65);
#1504=LINE('',#1501,#1503);
#1505=EDGE_CURVE('',#1494,#1321,#1504,.T.);
#1506=ORIENTED_EDGE('',*,*,#1505,.T.);
#1507=ORIENTED_EDGE('',*,*,#1326,.T.);
#1508=ORIENTED_EDGE('',*,*,#1409,.T.);
#1509=CARTESIAN_POINT('',(-1.4,-0.350000000000001,0.0));
#1510=VERTEX_POINT('',#1509);
#1511=CARTESIAN_POINT('',(-1.5,-0.350000000000001,0.0));
#1512=DIRECTION('',(1.0,0.0,0.0));
#1513=VECTOR('',#1512,0.099999999999999);
#1514=LINE('',#1511,#1513);
#1515=EDGE_CURVE('',#1398,#1510,#1514,.T.);
#1516=ORIENTED_EDGE('',*,*,#1515,.T.);
#1517=CARTESIAN_POINT('',(-1.4,-0.850000000000003,0.0));
#1518=VERTEX_POINT('',#1517);
#1519=CARTESIAN_POINT('',(-1.4,-0.350000000000001,0.0));
#1520=DIRECTION('',(0.0,-1.0,0.0));
#1521=VECTOR('',#1520,0.500000000000002);
#1522=LINE('',#1519,#1521);
#1523=EDGE_CURVE('',#1510,#1518,#1522,.T.);
#1524=ORIENTED_EDGE('',*,*,#1523,.T.);
#1525=CARTESIAN_POINT('',(-0.8,-0.85,0.0));
#1526=VERTEX_POINT('',#1525);
#1527=CARTESIAN_POINT('',(-1.4,-0.850000000000004,0.0));
#1528=DIRECTION('',(1.0,0.0,0.0));
#1529=VECTOR('',#1528,0.6);
#1530=LINE('',#1527,#1529);
#1531=EDGE_CURVE('',#1518,#1526,#1530,.T.);
#1532=ORIENTED_EDGE('',*,*,#1531,.T.);
#1533=CARTESIAN_POINT('',(-0.8,0.85,0.0));
#1534=VERTEX_POINT('',#1533);
#1535=CARTESIAN_POINT('',(-0.8,-0.85,0.0));
#1536=DIRECTION('',(0.0,1.0,0.0));
#1537=VECTOR('',#1536,1.699999999999999);
#1538=LINE('',#1535,#1537);
#1539=EDGE_CURVE('',#1526,#1534,#1538,.T.);
#1540=ORIENTED_EDGE('',*,*,#1539,.T.);
#1541=CARTESIAN_POINT('',(-1.4,0.85,0.0));
#1542=VERTEX_POINT('',#1541);
#1543=CARTESIAN_POINT('',(-0.8,0.85,0.0));
#1544=DIRECTION('',(-1.0,0.0,0.0));
#1545=VECTOR('',#1544,0.6);
#1546=LINE('',#1543,#1545);
#1547=EDGE_CURVE('',#1534,#1542,#1546,.T.);
#1548=ORIENTED_EDGE('',*,*,#1547,.T.);
#1549=CARTESIAN_POINT('',(-1.4,0.349999999999998,0.0));
#1550=VERTEX_POINT('',#1549);
#1551=CARTESIAN_POINT('',(-1.4,0.85,0.0));
#1552=DIRECTION('',(0.0,-1.0,0.0));
#1553=VECTOR('',#1552,0.500000000000002);
#1554=LINE('',#1551,#1553);
#1555=EDGE_CURVE('',#1542,#1550,#1554,.T.);
#1556=ORIENTED_EDGE('',*,*,#1555,.T.);
#1557=CARTESIAN_POINT('',(-1.4,0.349999999999997,0.0));
#1558=DIRECTION('',(-1.0,0.0,0.0));
#1559=VECTOR('',#1558,0.099999999999999);
#1560=LINE('',#1557,#1559);
#1561=EDGE_CURVE('',#1550,#1422,#1560,.T.);
#1562=ORIENTED_EDGE('',*,*,#1561,.T.);
#1563=ORIENTED_EDGE('',*,*,#1435,.T.);
#1564=ORIENTED_EDGE('',*,*,#1381,.T.);
#1565=ORIENTED_EDGE('',*,*,#1356,.T.);
#1566=EDGE_LOOP('',(#1452,#1460,#1468,#1476,#1484,#1492,#1500,#1506,#1507,#1508,#1516,#1524,#1532,#1540,#1548,#1556,#1562,#1563,#1564,#1565));
#1567=FACE_OUTER_BOUND('',#1566,.T.);
#1568=ADVANCED_FACE('',(#1567),#1444,.F.);
#1569=CARTESIAN_POINT('',(1.5,0.999999999999998,0.0));
#1570=DIRECTION('',(1.0,0.0,0.0));
#1571=DIRECTION('',(0.0,0.0,-1.0));
#1572=AXIS2_PLACEMENT_3D('',#1569,#1570,#1571);
#1573=PLANE('',#1572);
#1574=CARTESIAN_POINT('',(1.5,-0.350000000000001,0.0));
#1575=DIRECTION('',(0.0,0.0,1.0));
#1576=VECTOR('',#1575,0.5);
#1577=LINE('',#1574,#1576);
#1578=EDGE_CURVE('',#1494,#1250,#1577,.T.);
#1579=ORIENTED_EDGE('',*,*,#1578,.T.);
#1580=ORIENTED_EDGE('',*,*,#1255,.T.);
#1581=ORIENTED_EDGE('',*,*,#1332,.F.);
#1582=ORIENTED_EDGE('',*,*,#1505,.F.);
#1583=EDGE_LOOP('',(#1579,#1580,#1581,#1582));
#1584=FACE_OUTER_BOUND('',#1583,.T.);
#1585=ADVANCED_FACE('',(#1584),#1573,.T.);
#1586=CARTESIAN_POINT('',(-1.5,0.349999999999996,0.0));
#1587=DIRECTION('',(0.0,1.0,0.0));
#1588=DIRECTION('',(0.0,0.0,1.0));
#1589=AXIS2_PLACEMENT_3D('',#1586,#1587,#1588);
#1590=PLANE('',#1589);
#1591=ORIENTED_EDGE('',*,*,#1183,.F.);
#1592=ORIENTED_EDGE('',*,*,#1427,.F.);
#1593=ORIENTED_EDGE('',*,*,#1561,.F.);
#1594=CARTESIAN_POINT('',(-1.4,0.349999999999998,0.0));
#1595=DIRECTION('',(0.0,0.0,1.0));
#1596=VECTOR('',#1595,0.5);
#1597=LINE('',#1594,#1596);
#1598=EDGE_CURVE('',#1550,#1178,#1597,.T.);
#1599=ORIENTED_EDGE('',*,*,#1598,.T.);
#1600=EDGE_LOOP('',(#1591,#1592,#1593,#1599));
#1601=FACE_OUTER_BOUND('',#1600,.T.);
#1602=ADVANCED_FACE('',(#1601),#1590,.F.);
#1603=CARTESIAN_POINT('',(-1.4,-0.350000000000001,0.0));
#1604=DIRECTION('',(0.0,-1.0,0.0));
#1605=DIRECTION('',(0.0,0.0,-1.0));
#1606=AXIS2_PLACEMENT_3D('',#1603,#1604,#1605);
#1607=PLANE('',#1606);
#1608=ORIENTED_EDGE('',*,*,#1231,.F.);
#1609=CARTESIAN_POINT('',(-1.4,-0.350000000000001,0.0));
#1610=DIRECTION('',(0.0,0.0,1.0));
#1611=VECTOR('',#1610,0.5);
#1612=LINE('',#1609,#1611);
#1613=EDGE_CURVE('',#1510,#1218,#1612,.T.);
#1614=ORIENTED_EDGE('',*,*,#1613,.F.);
#1615=ORIENTED_EDGE('',*,*,#1515,.F.);
#1616=ORIENTED_EDGE('',*,*,#1403,.F.);
#1617=EDGE_LOOP('',(#1608,#1614,#1615,#1616));
#1618=FACE_OUTER_BOUND('',#1617,.T.);
#1619=ADVANCED_FACE('',(#1618),#1607,.F.);
#1620=CARTESIAN_POINT('',(-1.4,-0.850000000000003,0.0));
#1621=DIRECTION('',(-1.0,0.0,0.0));
#1622=DIRECTION('',(0.0,0.0,1.0));
#1623=AXIS2_PLACEMENT_3D('',#1620,#1621,#1622);
#1624=PLANE('',#1623);
#1625=ORIENTED_EDGE('',*,*,#1223,.F.);
#1626=CARTESIAN_POINT('',(-1.4,-0.850000000000003,0.0));
#1627=DIRECTION('',(0.0,0.0,1.0));
#1628=VECTOR('',#1627,0.5);
#1629=LINE('',#1626,#1628);
#1630=EDGE_CURVE('',#1518,#1210,#1629,.T.);
#1631=ORIENTED_EDGE('',*,*,#1630,.F.);
#1632=ORIENTED_EDGE('',*,*,#1523,.F.);
#1633=ORIENTED_EDGE('',*,*,#1613,.T.);
#1634=EDGE_LOOP('',(#1625,#1631,#1632,#1633));
#1635=FACE_OUTER_BOUND('',#1634,.T.);
#1636=ADVANCED_FACE('',(#1635),#1624,.F.);
#1637=CARTESIAN_POINT('',(-0.8,-0.85,0.0));
#1638=DIRECTION('',(0.0,-1.0,0.0));
#1639=DIRECTION('',(0.0,0.0,-1.0));
#1640=AXIS2_PLACEMENT_3D('',#1637,#1638,#1639);
#1641=PLANE('',#1640);
#1642=ORIENTED_EDGE('',*,*,#1215,.F.);
#1643=CARTESIAN_POINT('',(-0.8,-0.85,0.0));
#1644=DIRECTION('',(0.0,0.0,1.0));
#1645=VECTOR('',#1644,0.5);
#1646=LINE('',#1643,#1645);
#1647=EDGE_CURVE('',#1526,#1202,#1646,.T.);
#1648=ORIENTED_EDGE('',*,*,#1647,.F.);
#1649=ORIENTED_EDGE('',*,*,#1531,.F.);
#1650=ORIENTED_EDGE('',*,*,#1630,.T.);
#1651=EDGE_LOOP('',(#1642,#1648,#1649,#1650));
#1652=FACE_OUTER_BOUND('',#1651,.T.);
#1653=ADVANCED_FACE('',(#1652),#1641,.F.);
#1654=CARTESIAN_POINT('',(-0.8,0.85,0.0));
#1655=DIRECTION('',(1.0,0.0,0.0));
#1656=DIRECTION('',(0.0,0.0,-1.0));
#1657=AXIS2_PLACEMENT_3D('',#1654,#1655,#1656);
#1658=PLANE('',#1657);
#1659=ORIENTED_EDGE('',*,*,#1207,.F.);
#1660=CARTESIAN_POINT('',(-0.8,0.85,0.0));
#1661=DIRECTION('',(0.0,0.0,1.0));
#1662=VECTOR('',#1661,0.5);
#1663=LINE('',#1660,#1662);
#1664=EDGE_CURVE('',#1534,#1194,#1663,.T.);
#1665=ORIENTED_EDGE('',*,*,#1664,.F.);
#1666=ORIENTED_EDGE('',*,*,#1539,.F.);
#1667=ORIENTED_EDGE('',*,*,#1647,.T.);
#1668=EDGE_LOOP('',(#1659,#1665,#1666,#1667));
#1669=FACE_OUTER_BOUND('',#1668,.T.);
#1670=ADVANCED_FACE('',(#1669),#1658,.F.);
#1671=CARTESIAN_POINT('',(-1.4,0.85,0.0));
#1672=DIRECTION('',(0.0,1.0,0.0));
#1673=DIRECTION('',(0.0,0.0,1.0));
#1674=AXIS2_PLACEMENT_3D('',#1671,#1672,#1673);
#1675=PLANE('',#1674);
#1676=ORIENTED_EDGE('',*,*,#1199,.F.);
#1677=CARTESIAN_POINT('',(-1.4,0.85,0.0));
#1678=DIRECTION('',(0.0,0.0,1.0));
#1679=VECTOR('',#1678,0.5);
#1680=LINE('',#1677,#1679);
#1681=EDGE_CURVE('',#1542,#1186,#1680,.T.);
#1682=ORIENTED_EDGE('',*,*,#1681,.F.);
#1683=ORIENTED_EDGE('',*,*,#1547,.F.);
#1684=ORIENTED_EDGE('',*,*,#1664,.T.);
#1685=EDGE_LOOP('',(#1676,#1682,#1683,#1684));
#1686=FACE_OUTER_BOUND('',#1685,.T.);
#1687=ADVANCED_FACE('',(#1686),#1675,.F.);
#1688=CARTESIAN_POINT('',(-1.4,0.349999999999998,0.0));
#1689=DIRECTION('',(-1.0,0.0,0.0));
#1690=DIRECTION('',(0.0,0.0,1.0));
#1691=AXIS2_PLACEMENT_3D('',#1688,#1689,#1690);
#1692=PLANE('',#1691);
#1693=ORIENTED_EDGE('',*,*,#1191,.F.);
#1694=ORIENTED_EDGE('',*,*,#1598,.F.);
#1695=ORIENTED_EDGE('',*,*,#1555,.F.);
#1696=ORIENTED_EDGE('',*,*,#1681,.T.);
#1697=EDGE_LOOP('',(#1693,#1694,#1695,#1696));
#1698=FACE_OUTER_BOUND('',#1697,.T.);
#1699=ADVANCED_FACE('',(#1698),#1692,.F.);
#1700=CARTESIAN_POINT('',(1.400000000000001,0.349999999999998,0.0));
#1701=DIRECTION('',(0.0,1.0,0.0));
#1702=DIRECTION('',(0.0,0.0,1.0));
#1703=AXIS2_PLACEMENT_3D('',#1700,#1701,#1702);
#1704=PLANE('',#1703);
#1705=ORIENTED_EDGE('',*,*,#1151,.F.);
#1706=CARTESIAN_POINT('',(1.400000000000001,0.349999999999998,0.0));
#1707=DIRECTION('',(0.0,0.0,1.0));
#1708=VECTOR('',#1707,0.5);
#1709=LINE('',#1706,#1708);
#1710=EDGE_CURVE('',#1446,#1144,#1709,.T.);
#1711=ORIENTED_EDGE('',*,*,#1710,.F.);
#1712=ORIENTED_EDGE('',*,*,#1451,.F.);
#1713=ORIENTED_EDGE('',*,*,#1348,.F.);
#1714=EDGE_LOOP('',(#1705,#1711,#1712,#1713));
#1715=FACE_OUTER_BOUND('',#1714,.T.);
#1716=ADVANCED_FACE('',(#1715),#1704,.F.);
#1717=CARTESIAN_POINT('',(1.400000000000001,0.85,0.0));
#1718=DIRECTION('',(1.0,0.0,0.0));
#1719=DIRECTION('',(0.0,0.0,-1.0));
#1720=AXIS2_PLACEMENT_3D('',#1717,#1718,#1719);
#1721=PLANE('',#1720);
#1722=ORIENTED_EDGE('',*,*,#1301,.F.);
#1723=CARTESIAN_POINT('',(1.400000000000001,0.85,0.0));
#1724=DIRECTION('',(0.0,0.0,1.0));
#1725=VECTOR('',#1724,0.5);
#1726=LINE('',#1723,#1725);
#1727=EDGE_CURVE('',#1454,#1290,#1726,.T.);
#1728=ORIENTED_EDGE('',*,*,#1727,.F.);
#1729=ORIENTED_EDGE('',*,*,#1459,.F.);
#1730=ORIENTED_EDGE('',*,*,#1710,.T.);
#1731=EDGE_LOOP('',(#1722,#1728,#1729,#1730));
#1732=FACE_OUTER_BOUND('',#1731,.T.);
#1733=ADVANCED_FACE('',(#1732),#1721,.F.);
#1734=CARTESIAN_POINT('',(0.800000000000001,0.85,0.0));
#1735=DIRECTION('',(0.0,1.0,0.0));
#1736=DIRECTION('',(0.0,0.0,1.0));
#1737=AXIS2_PLACEMENT_3D('',#1734,#1735,#1736);
#1738=PLANE('',#1737);
#1739=ORIENTED_EDGE('',*,*,#1295,.F.);
#1740=CARTESIAN_POINT('',(0.800000000000001,0.85,0.0));
#1741=DIRECTION('',(0.0,0.0,1.0));
#1742=VECTOR('',#1741,0.5);
#1743=LINE('',#1740,#1742);
#1744=EDGE_CURVE('',#1462,#1282,#1743,.T.);
#1745=ORIENTED_EDGE('',*,*,#1744,.F.);
#1746=ORIENTED_EDGE('',*,*,#1467,.F.);
#1747=ORIENTED_EDGE('',*,*,#1727,.T.);
#1748=EDGE_LOOP('',(#1739,#1745,#1746,#1747));
#1749=FACE_OUTER_BOUND('',#1748,.T.);
#1750=ADVANCED_FACE('',(#1749),#1738,.F.);
#1751=CARTESIAN_POINT('',(0.800000000000001,-0.85,0.0));
#1752=DIRECTION('',(-1.0,0.0,0.0));
#1753=DIRECTION('',(0.0,0.0,1.0));
#1754=AXIS2_PLACEMENT_3D('',#1751,#1752,#1753);
#1755=PLANE('',#1754);
#1756=ORIENTED_EDGE('',*,*,#1287,.F.);
#1757=CARTESIAN_POINT('',(0.800000000000001,-0.85,0.0));
#1758=DIRECTION('',(0.0,0.0,1.0));
#1759=VECTOR('',#1758,0.5);
#1760=LINE('',#1757,#1759);
#1761=EDGE_CURVE('',#1470,#1274,#1760,.T.);
#1762=ORIENTED_EDGE('',*,*,#1761,.F.);
#1763=ORIENTED_EDGE('',*,*,#1475,.F.);
#1764=ORIENTED_EDGE('',*,*,#1744,.T.);
#1765=EDGE_LOOP('',(#1756,#1762,#1763,#1764));
#1766=FACE_OUTER_BOUND('',#1765,.T.);
#1767=ADVANCED_FACE('',(#1766),#1755,.F.);
#1768=CARTESIAN_POINT('',(1.400000000000001,-0.850000000000003,0.0));
#1769=DIRECTION('',(0.0,-1.0,0.0));
#1770=DIRECTION('',(0.0,0.0,-1.0));
#1771=AXIS2_PLACEMENT_3D('',#1768,#1769,#1770);
#1772=PLANE('',#1771);
#1773=ORIENTED_EDGE('',*,*,#1279,.F.);
#1774=CARTESIAN_POINT('',(1.400000000000001,-0.850000000000003,0.0));
#1775=DIRECTION('',(0.0,0.0,1.0));
#1776=VECTOR('',#1775,0.5);
#1777=LINE('',#1774,#1776);
#1778=EDGE_CURVE('',#1478,#1266,#1777,.T.);
#1779=ORIENTED_EDGE('',*,*,#1778,.F.);
#1780=ORIENTED_EDGE('',*,*,#1483,.F.);
#1781=ORIENTED_EDGE('',*,*,#1761,.T.);
#1782=EDGE_LOOP('',(#1773,#1779,#1780,#1781));
#1783=FACE_OUTER_BOUND('',#1782,.T.);
#1784=ADVANCED_FACE('',(#1783),#1772,.F.);
#1785=CARTESIAN_POINT('',(1.400000000000001,-0.350000000000001,0.0));
#1786=DIRECTION('',(1.0,0.0,0.0));
#1787=DIRECTION('',(0.0,0.0,-1.0));
#1788=AXIS2_PLACEMENT_3D('',#1785,#1786,#1787);
#1789=PLANE('',#1788);
#1790=ORIENTED_EDGE('',*,*,#1271,.F.);
#1791=CARTESIAN_POINT('',(1.400000000000001,-0.350000000000001,0.0));
#1792=DIRECTION('',(0.0,0.0,1.0));
#1793=VECTOR('',#1792,0.5);
#1794=LINE('',#1791,#1793);
#1795=EDGE_CURVE('',#1486,#1258,#1794,.T.);
#1796=ORIENTED_EDGE('',*,*,#1795,.F.);
#1797=ORIENTED_EDGE('',*,*,#1491,.F.);
#1798=ORIENTED_EDGE('',*,*,#1778,.T.);
#1799=EDGE_LOOP('',(#1790,#1796,#1797,#1798));
#1800=FACE_OUTER_BOUND('',#1799,.T.);
#1801=ADVANCED_FACE('',(#1800),#1789,.F.);
#1802=CARTESIAN_POINT('',(1.5,-0.350000000000001,0.0));
#1803=DIRECTION('',(0.0,-1.0,0.0));
#1804=DIRECTION('',(0.0,0.0,-1.0));
#1805=AXIS2_PLACEMENT_3D('',#1802,#1803,#1804);
#1806=PLANE('',#1805);
#1807=ORIENTED_EDGE('',*,*,#1263,.F.);
#1808=ORIENTED_EDGE('',*,*,#1578,.F.);
#1809=ORIENTED_EDGE('',*,*,#1499,.F.);
#1810=ORIENTED_EDGE('',*,*,#1795,.T.);
#1811=EDGE_LOOP('',(#1807,#1808,#1809,#1810));
#1812=FACE_OUTER_BOUND('',#1811,.T.);
#1813=ADVANCED_FACE('',(#1812),#1806,.F.);
#1814=CLOSED_SHELL('',(#1305,#1336,#1367,#1391,#1415,#1439,#1568,#1585,#1602,#1619,#1636,#1653,#1670,#1687,#1699,#1716,#1733,#1750,#1767,#1784,#1801,#1813));
#1815=MANIFOLD_SOLID_BREP('E05',#1814);
#1816=COLOUR_RGB('43',0.65,0.56875,0.325);
#1817=SURFACE_STYLE_USAGE(.BOTH.,#1818);
#1818=SURFACE_SIDE_STYLE('NONE',(#1819));
#1819=SURFACE_STYLE_FILL_AREA(#1820);
#1820=FILL_AREA_STYLE('NONE',(#1821));
#1821=FILL_AREA_STYLE_COLOUR('NONE',#1816);
#1822=PRESENTATION_STYLE_ASSIGNMENT((#1817));
#1823=STYLED_ITEM('NONE',(#1822),#1815);
#1824=CARTESIAN_POINT('',(-0.574999999999999,-0.875,1.4));
#1825=DIRECTION('',(0.0,0.8,0.600000000000001));
#1826=DIRECTION('',(1.0,0.0,0.0));
#1827=AXIS2_PLACEMENT_3D('',#1824,#1825,#1826);
#1828=PLANE('',#1827);
#1829=CARTESIAN_POINT('',(1.400000000000001,-0.950000000000001,1.5));
#1830=VERTEX_POINT('',#1829);
#1831=CARTESIAN_POINT('',(1.15,-0.800000000000001,1.3));
#1832=VERTEX_POINT('',#1831);
#1833=CARTESIAN_POINT('',(1.15,-0.8,1.3));
#1834=DIRECTION('',(0.707106781186547,-0.424264068711929,0.565685424949238));
#1835=VECTOR('',#1834,0.353553390593274);
#1836=LINE('',#1833,#1835);
#1837=EDGE_CURVE('',#1830,#1832,#1836,.F.);
#1838=ORIENTED_EDGE('',*,*,#1837,.T.);
#1839=CARTESIAN_POINT('',(-1.149999999999999,-0.800000000000001,1.3));
#1840=VERTEX_POINT('',#1839);
#1841=CARTESIAN_POINT('',(1.15,-0.800000000000001,1.3));
#1842=DIRECTION('',(-1.0,0.0,0.0));
#1843=VECTOR('',#1842,2.299999999999999);
#1844=LINE('',#1841,#1843);
#1845=EDGE_CURVE('',#1832,#1840,#1844,.T.);
#1846=ORIENTED_EDGE('',*,*,#1845,.T.);
#1847=CARTESIAN_POINT('',(-1.149999999999999,-0.950000000000001,1.5));
#1848=VERTEX_POINT('',#1847);
#1849=CARTESIAN_POINT('',(-1.149999999999999,-0.950000000000001,1.5));
#1850=DIRECTION('',(0.0,0.600000000000001,-0.8));
#1851=VECTOR('',#1850,0.25);
#1852=LINE('',#1849,#1851);
#1853=EDGE_CURVE('',#1840,#1848,#1852,.F.);
#1854=ORIENTED_EDGE('',*,*,#1853,.T.);
#1855=CARTESIAN_POINT('',(-1.149999999999999,-0.950000000000001,1.5));
#1856=DIRECTION('',(1.0,0.0,0.0));
#1857=VECTOR('',#1856,2.55);
#1858=LINE('',#1855,#1857);
#1859=EDGE_CURVE('',#1848,#1830,#1858,.T.);
#1860=ORIENTED_EDGE('',*,*,#1859,.T.);
#1861=EDGE_LOOP('',(#1838,#1846,#1854,#1860));
#1862=FACE_OUTER_BOUND('',#1861,.T.);
#1863=ADVANCED_FACE('',(#1862),#1828,.T.);
#1864=CARTESIAN_POINT('',(-1.149999999999999,-0.800000000000001,1.5));
#1865=DIRECTION('',(0.0,-1.0,0.0));
#1866=DIRECTION('',(0.0,0.0,-1.0));
#1867=AXIS2_PLACEMENT_3D('',#1864,#1865,#1866);
#1868=PLANE('',#1867);
#1869=ORIENTED_EDGE('',*,*,#1845,.F.);
#1870=CARTESIAN_POINT('',(1.15,-0.800000000000001,0.6));
#1871=VERTEX_POINT('',#1870);
#1872=CARTESIAN_POINT('',(1.15,-0.800000000000001,1.3));
#1873=DIRECTION('',(0.0,0.0,-1.0));
#1874=VECTOR('',#1873,0.7);
#1875=LINE('',#1872,#1874);
#1876=EDGE_CURVE('',#1832,#1871,#1875,.T.);
#1877=ORIENTED_EDGE('',*,*,#1876,.T.);
#1878=CARTESIAN_POINT('',(-1.149999999999999,-0.800000000000001,0.6));
#1879=VERTEX_POINT('',#1878);
#1880=CARTESIAN_POINT('',(-1.149999999999999,-0.800000000000001,0.6));
#1881=DIRECTION('',(1.0,0.0,0.0));
#1882=VECTOR('',#1881,2.299999999999999);
#1883=LINE('',#1880,#1882);
#1884=EDGE_CURVE('',#1879,#1871,#1883,.T.);
#1885=ORIENTED_EDGE('',*,*,#1884,.F.);
#1886=CARTESIAN_POINT('',(-1.149999999999999,-0.800000000000001,1.3));
#1887=DIRECTION('',(0.0,0.0,-1.0));
#1888=VECTOR('',#1887,0.7);
#1889=LINE('',#1886,#1888);
#1890=EDGE_CURVE('',#1840,#1879,#1889,.T.);
#1891=ORIENTED_EDGE('',*,*,#1890,.F.);
#1892=EDGE_LOOP('',(#1869,#1877,#1885,#1891));
#1893=FACE_OUTER_BOUND('',#1892,.T.);
#1894=ADVANCED_FACE('',(#1893),#1868,.F.);
#1895=CARTESIAN_POINT('',(0.575,0.875,1.4));
#1896=DIRECTION('',(0.0,-0.799999999999999,0.600000000000001));
#1897=DIRECTION('',(1.0,0.0,0.0));
#1898=AXIS2_PLACEMENT_3D('',#1895,#1896,#1897);
#1899=PLANE('',#1898);
#1900=CARTESIAN_POINT('',(1.15,0.799999999999999,1.3));
#1901=VERTEX_POINT('',#1900);
#1902=CARTESIAN_POINT('',(1.4,0.949999999999999,1.5));
#1903=VERTEX_POINT('',#1902);
#1904=CARTESIAN_POINT('',(1.4,0.95,1.5));
#1905=DIRECTION('',(-0.707106781186547,-0.42426406871193,-0.565685424949238));
#1906=VECTOR('',#1905,0.353553390593274);
#1907=LINE('',#1904,#1906);
#1908=EDGE_CURVE('',#1901,#1903,#1907,.F.);
#1909=ORIENTED_EDGE('',*,*,#1908,.T.);
#1910=CARTESIAN_POINT('',(-1.15,0.949999999999999,1.5));
#1911=VERTEX_POINT('',#1910);
#1912=CARTESIAN_POINT('',(1.4,0.949999999999999,1.5));
#1913=DIRECTION('',(-1.0,0.0,0.0));
#1914=VECTOR('',#1913,2.55);
#1915=LINE('',#1912,#1914);
#1916=EDGE_CURVE('',#1903,#1911,#1915,.T.);
#1917=ORIENTED_EDGE('',*,*,#1916,.T.);
#1918=CARTESIAN_POINT('',(-1.15,0.799999999999999,1.3));
#1919=VERTEX_POINT('',#1918);
#1920=CARTESIAN_POINT('',(-1.15,0.799999999999999,1.3));
#1921=DIRECTION('',(0.0,0.600000000000001,0.799999999999999));
#1922=VECTOR('',#1921,0.25);
#1923=LINE('',#1920,#1922);
#1924=EDGE_CURVE('',#1911,#1919,#1923,.F.);
#1925=ORIENTED_EDGE('',*,*,#1924,.T.);
#1926=CARTESIAN_POINT('',(-1.15,0.799999999999999,1.3));
#1927=DIRECTION('',(1.0,0.0,0.0));
#1928=VECTOR('',#1927,2.3);
#1929=LINE('',#1926,#1928);
#1930=EDGE_CURVE('',#1919,#1901,#1929,.T.);
#1931=ORIENTED_EDGE('',*,*,#1930,.T.);
#1932=EDGE_LOOP('',(#1909,#1917,#1925,#1931));
#1933=FACE_OUTER_BOUND('',#1932,.T.);
#1934=ADVANCED_FACE('',(#1933),#1899,.T.);
#1935=CARTESIAN_POINT('',(4.440892E-016,-1.776357E-015,1.5));
#1936=DIRECTION('',(0.0,0.0,1.0));
#1937=DIRECTION('',(1.0,0.0,0.0));
#1938=AXIS2_PLACEMENT_3D('',#1935,#1936,#1937);
#1939=PLANE('',#1938);
#1940=CARTESIAN_POINT('',(-1.299999999999999,0.999999999999998,1.5));
#1941=VERTEX_POINT('',#1940);
#1942=CARTESIAN_POINT('',(-1.299999999999999,-1.000000000000002,1.5));
#1943=VERTEX_POINT('',#1942);
#1944=CARTESIAN_POINT('',(-1.299999999999999,0.999999999999998,1.5));
#1945=DIRECTION('',(0.0,-1.0,0.0));
#1946=VECTOR('',#1945,2.0);
#1947=LINE('',#1944,#1946);
#1948=EDGE_CURVE('',#1941,#1943,#1947,.T.);
#1949=ORIENTED_EDGE('',*,*,#1948,.T.);
#1950=CARTESIAN_POINT('',(1.5,-1.000000000000002,1.5));
#1951=VERTEX_POINT('',#1950);
#1952=CARTESIAN_POINT('',(1.5,-1.000000000000002,1.5));
#1953=DIRECTION('',(-1.0,0.0,0.0));
#1954=VECTOR('',#1953,2.8);
#1955=LINE('',#1952,#1954);
#1956=EDGE_CURVE('',#1951,#1943,#1955,.T.);
#1957=ORIENTED_EDGE('',*,*,#1956,.F.);
#1958=CARTESIAN_POINT('',(1.5,0.999999999999998,1.5));
#1959=VERTEX_POINT('',#1958);
#1960=CARTESIAN_POINT('',(1.5,0.999999999999998,1.5));
#1961=DIRECTION('',(0.0,-1.0,0.0));
#1962=VECTOR('',#1961,2.0);
#1963=LINE('',#1960,#1962);
#1964=EDGE_CURVE('',#1959,#1951,#1963,.T.);
#1965=ORIENTED_EDGE('',*,*,#1964,.F.);
#1966=CARTESIAN_POINT('',(-1.299999999999999,0.999999999999998,1.5));
#1967=DIRECTION('',(1.0,0.0,0.0));
#1968=VECTOR('',#1967,2.8);
#1969=LINE('',#1966,#1968);
#1970=EDGE_CURVE('',#1941,#1959,#1969,.T.);
#1971=ORIENTED_EDGE('',*,*,#1970,.F.);
#1972=EDGE_LOOP('',(#1949,#1957,#1965,#1971));
#1973=FACE_OUTER_BOUND('',#1972,.T.);
#1974=CARTESIAN_POINT('',(-1.15,0.949999999999999,1.5));
#1975=DIRECTION('',(0.0,-1.0,0.0));
#1976=VECTOR('',#1975,1.9);
#1977=LINE('',#1974,#1976);
#1978=EDGE_CURVE('',#1911,#1848,#1977,.T.);
#1979=ORIENTED_EDGE('',*,*,#1978,.F.);
#1980=ORIENTED_EDGE('',*,*,#1916,.F.);
#1981=CARTESIAN_POINT('',(1.4,-0.950000000000001,1.5));
#1982=DIRECTION('',(0.0,1.0,0.0));
#1983=VECTOR('',#1982,1.9);
#1984=LINE('',#1981,#1983);
#1985=EDGE_CURVE('',#1830,#1903,#1984,.T.);
#1986=ORIENTED_EDGE('',*,*,#1985,.F.);
#1987=ORIENTED_EDGE('',*,*,#1859,.F.);
#1988=EDGE_LOOP('',(#1979,#1980,#1986,#1987));
#1989=FACE_BOUND('',#1988,.T.);
#1990=ADVANCED_FACE('',(#1973,#1989),#1939,.T.);
#1991=CARTESIAN_POINT('',(1.275,-0.400000000000002,1.4));
#1992=DIRECTION('',(-0.624695047554425,0.0,0.78086880944303));
#1993=DIRECTION('',(0.78086880944303,0.0,0.624695047554425));
#1994=AXIS2_PLACEMENT_3D('',#1991,#1992,#1993);
#1995=PLANE('',#1994);
#1996=CARTESIAN_POINT('',(1.15,0.799999999999999,1.3));
#1997=DIRECTION('',(0.0,-1.0,0.0));
#1998=VECTOR('',#1997,1.6);
#1999=LINE('',#1996,#1998);
#2000=EDGE_CURVE('',#1901,#1832,#1999,.T.);
#2001=ORIENTED_EDGE('',*,*,#2000,.T.);
#2002=ORIENTED_EDGE('',*,*,#1837,.F.);
#2003=ORIENTED_EDGE('',*,*,#1985,.T.);
#2004=ORIENTED_EDGE('',*,*,#1908,.F.);
#2005=EDGE_LOOP('',(#2001,#2002,#2003,#2004));
#2006=FACE_OUTER_BOUND('',#2005,.T.);
#2007=ADVANCED_FACE('',(#2006),#1995,.T.);
#2008=CARTESIAN_POINT('',(1.15,-0.800000000000001,1.5));
#2009=DIRECTION('',(1.0,0.0,0.0));
#2010=DIRECTION('',(0.0,0.0,-1.0));
#2011=AXIS2_PLACEMENT_3D('',#2008,#2009,#2010);
#2012=PLANE('',#2011);
#2013=ORIENTED_EDGE('',*,*,#2000,.F.);
#2014=CARTESIAN_POINT('',(1.15,0.799999999999999,0.6));
#2015=VERTEX_POINT('',#2014);
#2016=CARTESIAN_POINT('',(1.15,0.799999999999999,1.3));
#2017=DIRECTION('',(0.0,0.0,-1.0));
#2018=VECTOR('',#2017,0.7);
#2019=LINE('',#2016,#2018);
#2020=EDGE_CURVE('',#1901,#2015,#2019,.T.);
#2021=ORIENTED_EDGE('',*,*,#2020,.T.);
#2022=CARTESIAN_POINT('',(1.15,-0.800000000000001,0.6));
#2023=DIRECTION('',(0.0,1.0,0.0));
#2024=VECTOR('',#2023,1.6);
#2025=LINE('',#2022,#2024);
#2026=EDGE_CURVE('',#1871,#2015,#2025,.T.);
#2027=ORIENTED_EDGE('',*,*,#2026,.F.);
#2028=ORIENTED_EDGE('',*,*,#1876,.F.);
#2029=EDGE_LOOP('',(#2013,#2021,#2027,#2028));
#2030=FACE_OUTER_BOUND('',#2029,.T.);
#2031=ADVANCED_FACE('',(#2030),#2012,.F.);
#2032=CARTESIAN_POINT('',(-1.4,0.999999999999998,1.5));
#2033=DIRECTION('',(-1.0,0.0,0.0));
#2034=DIRECTION('',(0.0,0.0,1.0));
#2035=AXIS2_PLACEMENT_3D('',#2032,#2033,#2034);
#2036=PLANE('',#2035);
#2037=CARTESIAN_POINT('',(-1.4,0.999999999999998,1.45));
#2038=VERTEX_POINT('',#2037);
#2039=CARTESIAN_POINT('',(-1.4,-1.000000000000002,1.45));
#2040=VERTEX_POINT('',#2039);
#2041=CARTESIAN_POINT('',(-1.4,0.999999999999998,1.45));
#2042=DIRECTION('',(0.0,-1.0,0.0));
#2043=VECTOR('',#2042,2.0);
#2044=LINE('',#2041,#2043);
#2045=EDGE_CURVE('',#2038,#2040,#2044,.T.);
#2046=ORIENTED_EDGE('',*,*,#2045,.F.);
#2047=CARTESIAN_POINT('',(-1.4,0.999999999999998,1.5));
#2048=VERTEX_POINT('',#2047);
#2049=CARTESIAN_POINT('',(-1.4,0.999999999999998,1.5));
#2050=DIRECTION('',(0.0,0.0,-1.0));
#2051=VECTOR('',#2050,0.05);
#2052=LINE('',#2049,#2051);
#2053=EDGE_CURVE('',#2048,#2038,#2052,.T.);
#2054=ORIENTED_EDGE('',*,*,#2053,.F.);
#2055=CARTESIAN_POINT('',(-1.4,-1.000000000000002,1.5));
#2056=VERTEX_POINT('',#2055);
#2057=CARTESIAN_POINT('',(-1.4,-1.000000000000002,1.5));
#2058=DIRECTION('',(0.0,1.0,0.0));
#2059=VECTOR('',#2058,2.0);
#2060=LINE('',#2057,#2059);
#2061=EDGE_CURVE('',#2056,#2048,#2060,.T.);
#2062=ORIENTED_EDGE('',*,*,#2061,.F.);
#2063=CARTESIAN_POINT('',(-1.4,-1.000000000000002,1.45));
#2064=DIRECTION('',(0.0,0.0,1.0));
#2065=VECTOR('',#2064,0.05);
#2066=LINE('',#2063,#2065);
#2067=EDGE_CURVE('',#2040,#2056,#2066,.T.);
#2068=ORIENTED_EDGE('',*,*,#2067,.F.);
#2069=EDGE_LOOP('',(#2046,#2054,#2062,#2068));
#2070=FACE_OUTER_BOUND('',#2069,.T.);
#2071=ADVANCED_FACE('',(#2070),#2036,.F.);
#2072=CARTESIAN_POINT('',(-1.299999999999999,-1.000000000000002,1.5));
#2073=DIRECTION('',(1.0,0.0,0.0));
#2074=DIRECTION('',(0.0,0.0,-1.0));
#2075=AXIS2_PLACEMENT_3D('',#2072,#2073,#2074);
#2076=PLANE('',#2075);
#2077=CARTESIAN_POINT('',(-1.299999999999999,-1.000000000000002,1.45));
#2078=VERTEX_POINT('',#2077);
#2079=CARTESIAN_POINT('',(-1.299999999999999,0.999999999999998,1.45));
#2080=VERTEX_POINT('',#2079);
#2081=CARTESIAN_POINT('',(-1.299999999999999,-1.000000000000002,1.45));
#2082=DIRECTION('',(0.0,1.0,0.0));
#2083=VECTOR('',#2082,2.0);
#2084=LINE('',#2081,#2083);
#2085=EDGE_CURVE('',#2078,#2080,#2084,.T.);
#2086=ORIENTED_EDGE('',*,*,#2085,.F.);
#2087=CARTESIAN_POINT('',(-1.299999999999999,-1.000000000000002,1.5));
#2088=DIRECTION('',(0.0,0.0,-1.0));
#2089=VECTOR('',#2088,0.05);
#2090=LINE('',#2087,#2089);
#2091=EDGE_CURVE('',#1943,#2078,#2090,.T.);
#2092=ORIENTED_EDGE('',*,*,#2091,.F.);
#2093=ORIENTED_EDGE('',*,*,#1948,.F.);
#2094=CARTESIAN_POINT('',(-1.299999999999999,0.999999999999998,1.45));
#2095=DIRECTION('',(0.0,0.0,1.0));
#2096=VECTOR('',#2095,0.05);
#2097=LINE('',#2094,#2096);
#2098=EDGE_CURVE('',#2080,#1941,#2097,.T.);
#2099=ORIENTED_EDGE('',*,*,#2098,.F.);
#2100=EDGE_LOOP('',(#2086,#2092,#2093,#2099));
#2101=FACE_OUTER_BOUND('',#2100,.T.);
#2102=ADVANCED_FACE('',(#2101),#2076,.F.);
#2103=CARTESIAN_POINT('',(-1.35,-1.776357E-015,1.45));
#2104=DIRECTION('',(0.0,0.0,1.0));
#2105=DIRECTION('',(1.0,0.0,0.0));
#2106=AXIS2_PLACEMENT_3D('',#2103,#2104,#2105);
#2107=PLANE('',#2106);
#2108=ORIENTED_EDGE('',*,*,#2045,.T.);
#2109=CARTESIAN_POINT('',(-1.299999999999999,-1.000000000000002,1.45));
#2110=DIRECTION('',(-1.0,0.0,0.0));
#2111=VECTOR('',#2110,0.1);
#2112=LINE('',#2109,#2111);
#2113=EDGE_CURVE('',#2078,#2040,#2112,.T.);
#2114=ORIENTED_EDGE('',*,*,#2113,.F.);
#2115=ORIENTED_EDGE('',*,*,#2085,.T.);
#2116=CARTESIAN_POINT('',(-1.4,0.999999999999998,1.45));
#2117=DIRECTION('',(1.0,0.0,0.0));
#2118=VECTOR('',#2117,0.1);
#2119=LINE('',#2116,#2118);
#2120=EDGE_CURVE('',#2038,#2080,#2119,.T.);
#2121=ORIENTED_EDGE('',*,*,#2120,.F.);
#2122=EDGE_LOOP('',(#2108,#2114,#2115,#2121));
#2123=FACE_OUTER_BOUND('',#2122,.T.);
#2124=ADVANCED_FACE('',(#2123),#2107,.T.);
#2125=CARTESIAN_POINT('',(4.440892E-016,-1.776357E-015,1.5));
#2126=DIRECTION('',(0.0,0.0,1.0));
#2127=DIRECTION('',(1.0,0.0,0.0));
#2128=AXIS2_PLACEMENT_3D('',#2125,#2126,#2127);
#2129=PLANE('',#2128);
#2130=ORIENTED_EDGE('',*,*,#2061,.T.);
#2131=CARTESIAN_POINT('',(-1.5,0.999999999999998,1.5));
#2132=VERTEX_POINT('',#2131);
#2133=CARTESIAN_POINT('',(-1.5,0.999999999999998,1.5));
#2134=DIRECTION('',(1.0,0.0,0.0));
#2135=VECTOR('',#2134,0.1);
#2136=LINE('',#2133,#2135);
#2137=EDGE_CURVE('',#2132,#2048,#2136,.T.);
#2138=ORIENTED_EDGE('',*,*,#2137,.F.);
#2139=CARTESIAN_POINT('',(-1.5,-1.000000000000002,1.5));
#2140=VERTEX_POINT('',#2139);
#2141=CARTESIAN_POINT('',(-1.5,-1.000000000000002,1.5));
#2142=DIRECTION('',(0.0,1.0,0.0));
#2143=VECTOR('',#2142,2.0);
#2144=LINE('',#2141,#2143);
#2145=EDGE_CURVE('',#2140,#2132,#2144,.T.);
#2146=ORIENTED_EDGE('',*,*,#2145,.F.);
#2147=CARTESIAN_POINT('',(-1.4,-1.000000000000002,1.5));
#2148=DIRECTION('',(-1.0,0.0,0.0));
#2149=VECTOR('',#2148,0.1);
#2150=LINE('',#2147,#2149);
#2151=EDGE_CURVE('',#2056,#2140,#2150,.T.);
#2152=ORIENTED_EDGE('',*,*,#2151,.F.);
#2153=EDGE_LOOP('',(#2130,#2138,#2146,#2152));
#2154=FACE_OUTER_BOUND('',#2153,.T.);
#2155=ADVANCED_FACE('',(#2154),#2129,.T.);
#2156=CARTESIAN_POINT('',(-1.5,0.999999999999998,0.5));
#2157=DIRECTION('',(0.0,1.0,0.0));
#2158=DIRECTION('',(0.0,0.0,1.0));
#2159=AXIS2_PLACEMENT_3D('',#2156,#2157,#2158);
#2160=PLANE('',#2159);
#2161=ORIENTED_EDGE('',*,*,#2053,.T.);
#2162=ORIENTED_EDGE('',*,*,#2120,.T.);
#2163=ORIENTED_EDGE('',*,*,#2098,.T.);
#2164=ORIENTED_EDGE('',*,*,#1970,.T.);
#2165=CARTESIAN_POINT('',(1.5,0.999999999999998,0.5));
#2166=VERTEX_POINT('',#2165);
#2167=CARTESIAN_POINT('',(1.5,0.999999999999998,0.5));
#2168=DIRECTION('',(0.0,0.0,1.0));
#2169=VECTOR('',#2168,1.0);
#2170=LINE('',#2167,#2169);
#2171=EDGE_CURVE('',#2166,#1959,#2170,.T.);
#2172=ORIENTED_EDGE('',*,*,#2171,.F.);
#2173=CARTESIAN_POINT('',(-1.5,0.999999999999998,0.5));
#2174=VERTEX_POINT('',#2173);
#2175=CARTESIAN_POINT('',(-1.5,0.999999999999998,0.5));
#2176=DIRECTION('',(1.0,0.0,0.0));
#2177=VECTOR('',#2176,3.0);
#2178=LINE('',#2175,#2177);
#2179=EDGE_CURVE('',#2174,#2166,#2178,.T.);
#2180=ORIENTED_EDGE('',*,*,#2179,.F.);
#2181=CARTESIAN_POINT('',(-1.5,0.999999999999998,0.5));
#2182=DIRECTION('',(0.0,0.0,1.0));
#2183=VECTOR('',#2182,1.0);
#2184=LINE('',#2181,#2183);
#2185=EDGE_CURVE('',#2174,#2132,#2184,.T.);
#2186=ORIENTED_EDGE('',*,*,#2185,.T.);
#2187=ORIENTED_EDGE('',*,*,#2137,.T.);
#2188=EDGE_LOOP('',(#2161,#2162,#2163,#2164,#2172,#2180,#2186,#2187));
#2189=FACE_OUTER_BOUND('',#2188,.T.);
#2190=ADVANCED_FACE('',(#2189),#2160,.T.);
#2191=CARTESIAN_POINT('',(1.15,0.799999999999999,1.5));
#2192=DIRECTION('',(0.0,1.0,0.0));
#2193=DIRECTION('',(0.0,0.0,1.0));
#2194=AXIS2_PLACEMENT_3D('',#2191,#2192,#2193);
#2195=PLANE('',#2194);
#2196=ORIENTED_EDGE('',*,*,#1930,.F.);
#2197=CARTESIAN_POINT('',(-1.15,0.799999999999999,0.6));
#2198=VERTEX_POINT('',#2197);
#2199=CARTESIAN_POINT('',(-1.15,0.799999999999999,1.3));
#2200=DIRECTION('',(0.0,0.0,-1.0));
#2201=VECTOR('',#2200,0.7);
#2202=LINE('',#2199,#2201);
#2203=EDGE_CURVE('',#1919,#2198,#2202,.T.);
#2204=ORIENTED_EDGE('',*,*,#2203,.T.);
#2205=CARTESIAN_POINT('',(1.15,0.799999999999999,0.6));
#2206=DIRECTION('',(-1.0,0.0,0.0));
#2207=VECTOR('',#2206,2.3);
#2208=LINE('',#2205,#2207);
#2209=EDGE_CURVE('',#2015,#2198,#2208,.T.);
#2210=ORIENTED_EDGE('',*,*,#2209,.F.);
#2211=ORIENTED_EDGE('',*,*,#2020,.F.);
#2212=EDGE_LOOP('',(#2196,#2204,#2210,#2211));
#2213=FACE_OUTER_BOUND('',#2212,.T.);
#2214=ADVANCED_FACE('',(#2213),#2195,.F.);
#2215=CARTESIAN_POINT('',(-1.15,0.799999999999999,1.5));
#2216=DIRECTION('',(-1.0,0.0,0.0));
#2217=DIRECTION('',(0.0,0.0,1.0));
#2218=AXIS2_PLACEMENT_3D('',#2215,#2216,#2217);
#2219=PLANE('',#2218);
#2220=CARTESIAN_POINT('',(-1.15,0.799999999999999,0.6));
#2221=DIRECTION('',(0.0,-1.0,0.0));
#2222=VECTOR('',#2221,1.6);
#2223=LINE('',#2220,#2222);
#2224=EDGE_CURVE('',#2198,#1879,#2223,.T.);
#2225=ORIENTED_EDGE('',*,*,#2224,.F.);
#2226=ORIENTED_EDGE('',*,*,#2203,.F.);
#2227=ORIENTED_EDGE('',*,*,#1924,.F.);
#2228=ORIENTED_EDGE('',*,*,#1978,.T.);
#2229=ORIENTED_EDGE('',*,*,#1853,.F.);
#2230=ORIENTED_EDGE('',*,*,#1890,.T.);
#2231=EDGE_LOOP('',(#2225,#2226,#2227,#2228,#2229,#2230));
#2232=FACE_OUTER_BOUND('',#2231,.T.);
#2233=ADVANCED_FACE('',(#2232),#2219,.F.);
#2234=CARTESIAN_POINT('',(6.661338E-016,0.0,0.6));
#2235=DIRECTION('',(0.0,0.0,1.0));
#2236=DIRECTION('',(1.0,0.0,0.0));
#2237=AXIS2_PLACEMENT_3D('',#2234,#2235,#2236);
#2238=PLANE('',#2237);
#2239=ORIENTED_EDGE('',*,*,#1884,.T.);
#2240=ORIENTED_EDGE('',*,*,#2026,.T.);
#2241=ORIENTED_EDGE('',*,*,#2209,.T.);
#2242=ORIENTED_EDGE('',*,*,#2224,.T.);
#2243=EDGE_LOOP('',(#2239,#2240,#2241,#2242));
#2244=FACE_OUTER_BOUND('',#2243,.T.);
#2245=ADVANCED_FACE('',(#2244),#2238,.T.);
#2246=CARTESIAN_POINT('',(-1.5,-1.000000000000002,0.5));
#2247=DIRECTION('',(-1.0,0.0,0.0));
#2248=DIRECTION('',(0.0,0.0,1.0));
#2249=AXIS2_PLACEMENT_3D('',#2246,#2247,#2248);
#2250=PLANE('',#2249);
#2251=ORIENTED_EDGE('',*,*,#2145,.T.);
#2252=ORIENTED_EDGE('',*,*,#2185,.F.);
#2253=CARTESIAN_POINT('',(-1.5,-1.000000000000002,0.5));
#2254=VERTEX_POINT('',#2253);
#2255=CARTESIAN_POINT('',(-1.5,-1.000000000000002,0.5));
#2256=DIRECTION('',(0.0,1.0,0.0));
#2257=VECTOR('',#2256,2.0);
#2258=LINE('',#2255,#2257);
#2259=EDGE_CURVE('',#2254,#2174,#2258,.T.);
#2260=ORIENTED_EDGE('',*,*,#2259,.F.);
#2261=CARTESIAN_POINT('',(-1.5,-1.000000000000002,0.5));
#2262=DIRECTION('',(0.0,0.0,1.0));
#2263=VECTOR('',#2262,1.0);
#2264=LINE('',#2261,#2263);
#2265=EDGE_CURVE('',#2254,#2140,#2264,.T.);
#2266=ORIENTED_EDGE('',*,*,#2265,.T.);
#2267=EDGE_LOOP('',(#2251,#2252,#2260,#2266));
#2268=FACE_OUTER_BOUND('',#2267,.T.);
#2269=ADVANCED_FACE('',(#2268),#2250,.T.);
#2270=CARTESIAN_POINT('',(1.5,0.999999999999998,0.5));
#2271=DIRECTION('',(1.0,0.0,0.0));
#2272=DIRECTION('',(0.0,0.0,-1.0));
#2273=AXIS2_PLACEMENT_3D('',#2270,#2271,#2272);
#2274=PLANE('',#2273);
#2275=ORIENTED_EDGE('',*,*,#1964,.T.);
#2276=CARTESIAN_POINT('',(1.5,-1.000000000000002,0.5));
#2277=VERTEX_POINT('',#2276);
#2278=CARTESIAN_POINT('',(1.5,-1.000000000000002,0.5));
#2279=DIRECTION('',(0.0,0.0,1.0));
#2280=VECTOR('',#2279,1.0);
#2281=LINE('',#2278,#2280);
#2282=EDGE_CURVE('',#2277,#1951,#2281,.T.);
#2283=ORIENTED_EDGE('',*,*,#2282,.F.);
#2284=CARTESIAN_POINT('',(1.5,0.999999999999998,0.5));
#2285=DIRECTION('',(0.0,-1.0,0.0));
#2286=VECTOR('',#2285,2.0);
#2287=LINE('',#2284,#2286);
#2288=EDGE_CURVE('',#2166,#2277,#2287,.T.);
#2289=ORIENTED_EDGE('',*,*,#2288,.F.);
#2290=ORIENTED_EDGE('',*,*,#2171,.T.);
#2291=EDGE_LOOP('',(#2275,#2283,#2289,#2290));
#2292=FACE_OUTER_BOUND('',#2291,.T.);
#2293=ADVANCED_FACE('',(#2292),#2274,.T.);
#2294=CARTESIAN_POINT('',(1.5,-1.000000000000002,0.5));
#2295=DIRECTION('',(0.0,-1.0,0.0));
#2296=DIRECTION('',(0.0,0.0,-1.0));
#2297=AXIS2_PLACEMENT_3D('',#2294,#2295,#2296);
#2298=PLANE('',#2297);
#2299=ORIENTED_EDGE('',*,*,#2067,.T.);
#2300=ORIENTED_EDGE('',*,*,#2151,.T.);
#2301=ORIENTED_EDGE('',*,*,#2265,.F.);
#2302=CARTESIAN_POINT('',(1.5,-1.000000000000002,0.5));
#2303=DIRECTION('',(-1.0,0.0,0.0));
#2304=VECTOR('',#2303,3.0);
#2305=LINE('',#2302,#2304);
#2306=EDGE_CURVE('',#2277,#2254,#2305,.T.);
#2307=ORIENTED_EDGE('',*,*,#2306,.F.);
#2308=ORIENTED_EDGE('',*,*,#2282,.T.);
#2309=ORIENTED_EDGE('',*,*,#1956,.T.);
#2310=ORIENTED_EDGE('',*,*,#2091,.T.);
#2311=ORIENTED_EDGE('',*,*,#2113,.T.);
#2312=EDGE_LOOP('',(#2299,#2300,#2301,#2307,#2308,#2309,#2310,#2311));
#2313=FACE_OUTER_BOUND('',#2312,.T.);
#2314=ADVANCED_FACE('',(#2313),#2298,.T.);
#2315=CARTESIAN_POINT('',(4.440892E-016,-1.776357E-015,0.5));
#2316=DIRECTION('',(0.0,0.0,1.0));
#2317=DIRECTION('',(1.0,0.0,0.0));
#2318=AXIS2_PLACEMENT_3D('',#2315,#2316,#2317);
#2319=PLANE('',#2318);
#2320=ORIENTED_EDGE('',*,*,#2306,.T.);
#2321=ORIENTED_EDGE('',*,*,#2259,.T.);
#2322=ORIENTED_EDGE('',*,*,#2179,.T.);
#2323=ORIENTED_EDGE('',*,*,#2288,.T.);
#2324=EDGE_LOOP('',(#2320,#2321,#2322,#2323));
#2325=FACE_OUTER_BOUND('',#2324,.T.);
#2326=ADVANCED_FACE('',(#2325),#2319,.F.);
#2327=CLOSED_SHELL('',(#1863,#1894,#1934,#1990,#2007,#2031,#2071,#2102,#2124,#2155,#2190,#2214,#2233,#2245,#2269,#2293,#2314,#2326));
#2328=MANIFOLD_SOLID_BREP('E01',#2327);
#2329=COLOUR_RGB('254',0.866,0.866,0.866);
#2330=SURFACE_STYLE_USAGE(.BOTH.,#2331);
#2331=SURFACE_SIDE_STYLE('NONE',(#2332));
#2332=SURFACE_STYLE_FILL_AREA(#2333);
#2333=FILL_AREA_STYLE('NONE',(#2334));
#2334=FILL_AREA_STYLE_COLOUR('NONE',#2329);
#2335=PRESENTATION_STYLE_ASSIGNMENT((#2330));
#2336=STYLED_ITEM('NONE',(#2335),#2328);
#2337=ADVANCED_BREP_SHAPE_REPRESENTATION('ABSR1',(#102,#262,#420,#778,#1136,#1815,#2328),#28);
#2338=SHAPE_REPRESENTATION_RELATIONSHIP('SRRPL1','',#2337,#62);
ENDSEC;
END-ISO-10303-21;
