ISO-10303-21;
HEADER;
/****************************************************************
 * Generated by software with PDE/Lib inside                    *
 * PDE/Lib Version 3.2.2, created Thu Mar 23, 2000 at 18:38:49  *
 * International Technegroup Inc. (www.iti-oh.com)              *
 ****************************************************************/
FILE_DESCRIPTION((''),'2;1');
FILE_NAME('LED_DIALIGHT_551-1107.stp','2009-01-13T16:13:43',(''),(''),'Mechanical Desktop 2006','Mechanical Desktop 2006',', , ');
FILE_SCHEMA(('AUTOMOTIVE_DESIGN { 1 2 10303 214 0 1 1 1 }'));
ENDSEC;
DATA;
#8=(NAMED_UNIT(*)PLANE_ANGLE_UNIT()SI_UNIT($,.RADIAN.));
#9=DIMENSIONAL_EXPONENTS(0.0,0.0,0.0,0.0,0.0,0.0,0.0);
#10=PLANE_ANGLE_MEASURE_WITH_UNIT(PLANE_ANGLE_MEASURE(0.017453292500000),#8);
#14=(CONVERSION_BASED_UNIT('DEGREE',#10)NAMED_UNIT(#9)PLANE_ANGLE_UNIT());
#18=(NAMED_UNIT(*)SI_UNIT($,.STERADIAN.)SOLID_ANGLE_UNIT());
#22=(LENGTH_UNIT()NAMED_UNIT(*)SI_UNIT(.MILLI.,.METRE.));
#23=UNCERTAINTY_MEASURE_WITH_UNIT(LENGTH_MEASURE(0.000001000000000),#22,'DISTANCE_ACCURACY_VALUE','');
#28=(GEOMETRIC_REPRESENTATION_CONTEXT(3)GLOBAL_UNCERTAINTY_ASSIGNED_CONTEXT((#23))GLOBAL_UNIT_ASSIGNED_CONTEXT((#14,#18,#22))REPRESENTATION_CONTEXT('None','None'));
#29=APPLICATION_CONTEXT('automotive design');
#30=APPLICATION_PROTOCOL_DEFINITION('DRAFT_INTERNATIONAL_STANDARD','automotive_design',1998,#29);
#31=PRODUCT_CONTEXT('3D Mechanical Parts',#29,'mechanical');
#32=PRODUCT('Product','Product','',(#31));
#33=PRODUCT_RELATED_PRODUCT_CATEGORY('part',$,(#32));
#34=PRODUCT_CATEGORY('part',$);
#35=PERSON('1','Design','Joe',$,$,$);
#36=ORGANIZATION($,'None','None');
#37=PERSON_AND_ORGANIZATION(#35,#36);
#38=PERSON_AND_ORGANIZATION_ROLE('design_owner');
#39=APPLIED_PERSON_AND_ORGANIZATION_ASSIGNMENT(#37,#38,(#32));
#40=PRODUCT_DEFINITION_FORMATION_WITH_SPECIFIED_SOURCE('None','',#32,.BOUGHT.);
#41=PERSON('2','Creator','Joe',$,$,$);
#42=ORGANIZATION($,'None','None');
#43=PERSON_AND_ORGANIZATION(#41,#42);
#44=PERSON_AND_ORGANIZATION_ROLE('creator');
#45=APPLIED_PERSON_AND_ORGANIZATION_ASSIGNMENT(#43,#44,(#40));
#46=PERSON('3','Supplier','Joe',$,$,$);
#47=ORGANIZATION($,'None','None');
#48=PERSON_AND_ORGANIZATION(#46,#47);
#49=PERSON_AND_ORGANIZATION_ROLE('design_supplier');
#50=APPLIED_PERSON_AND_ORGANIZATION_ASSIGNMENT(#48,#49,(#40));
#51=PRODUCT_DEFINITION_CONTEXT('part definition',#29,'design');
#52=PRODUCT_DEFINITION('None','',#40,#51);
#53=PERSON('4','Creator','Joe',$,$,$);
#54=ORGANIZATION($,'None','None');
#55=PERSON_AND_ORGANIZATION(#53,#54);
#56=PERSON_AND_ORGANIZATION_ROLE('creator');
#57=APPLIED_PERSON_AND_ORGANIZATION_ASSIGNMENT(#55,#56,(#52));
#58=CARTESIAN_POINT('NONE',(0.0,0.0,0.0));
#59=DIRECTION('NONE',(0.0,0.0,1.0));
#60=DIRECTION('NONE',(1.0,0.0,0.0));
#61=AXIS2_PLACEMENT_3D('NONE',#58,#59,#60);
#62=SHAPE_REPRESENTATION('SR1',(#61),#28);
#63=PRODUCT_DEFINITION_SHAPE('PDS1','Test Part',#52);
#64=SHAPE_DEFINITION_REPRESENTATION(#63,#62);
#65=CARTESIAN_POINT('',(-8.881784E-016,-1.270000000000000,2.720046E-016));
#66=DIRECTION('',(2.111837E-016,0.0,-1.0));
#67=DIRECTION('',(-1.0,0.0,0.0));
#68=AXIS2_PLACEMENT_3D('',#65,#66,#67);
#69=CYLINDRICAL_SURFACE('',#68,0.250000000000000);
#70=CARTESIAN_POINT('',(-0.250000000000001,-1.270000000000000,0.500000000000000));
#71=VERTEX_POINT('',#70);
#72=CARTESIAN_POINT('',(-0.250000000000000,-1.270000000000000,-3.680000000000000));
#73=VERTEX_POINT('',#72);
#74=CARTESIAN_POINT('',(-0.250000000000001,-1.270000000000000,0.500000000000000));
#75=DIRECTION('',(0.0,0.0,-1.0));
#76=VECTOR('',#75,4.180000000000000);
#77=LINE('',#74,#76);
#78=EDGE_CURVE('',#71,#73,#77,.T.);
#79=ORIENTED_EDGE('',*,*,#78,.F.);
#80=CARTESIAN_POINT('',(0.249999999999999,-1.270000000000000,0.500000000000000));
#81=VERTEX_POINT('',#80);
#82=CARTESIAN_POINT('',(-8.881784E-016,-1.270000000000000,0.500000000000000));
#83=DIRECTION('',(0.0,0.0,-1.0));
#84=DIRECTION('',(-1.0,0.0,0.0));
#85=AXIS2_PLACEMENT_3D('',#82,#83,#84);
#86=CIRCLE('',#85,0.250000000000000);
#87=EDGE_CURVE('',#71,#81,#86,.T.);
#88=ORIENTED_EDGE('',*,*,#87,.T.);
#89=CARTESIAN_POINT('',(0.250000000000000,-1.270000000000000,-3.680000000000000));
#90=VERTEX_POINT('',#89);
#91=CARTESIAN_POINT('',(0.250000000000000,-1.270000000000000,-3.680000000000000));
#92=DIRECTION('',(0.0,0.0,1.0));
#93=VECTOR('',#92,4.180000000000000);
#94=LINE('',#91,#93);
#95=EDGE_CURVE('',#90,#81,#94,.T.);
#96=ORIENTED_EDGE('',*,*,#95,.F.);
#97=CARTESIAN_POINT('',(0.0,-1.270000000000000,-3.680000000000000));
#98=DIRECTION('',(0.0,0.0,1.0));
#99=DIRECTION('',(-1.0,0.0,0.0));
#100=AXIS2_PLACEMENT_3D('',#97,#98,#99);
#101=CIRCLE('',#100,0.250000000000000);
#102=EDGE_CURVE('',#90,#73,#101,.T.);
#103=ORIENTED_EDGE('',*,*,#102,.T.);
#104=EDGE_LOOP('',(#79,#88,#96,#103));
#105=FACE_OUTER_BOUND('',#104,.T.);
#106=ADVANCED_FACE('',(#105),#69,.T.);
#107=CARTESIAN_POINT('',(-8.881784E-016,-1.270000000000000,2.720046E-016));
#108=DIRECTION('',(2.111837E-016,0.0,-1.0));
#109=DIRECTION('',(-1.0,0.0,0.0));
#110=AXIS2_PLACEMENT_3D('',#107,#108,#109);
#111=CYLINDRICAL_SURFACE('',#110,0.250000000000000);
#112=ORIENTED_EDGE('',*,*,#78,.T.);
#113=CARTESIAN_POINT('',(0.0,-1.270000000000000,-3.680000000000000));
#114=DIRECTION('',(0.0,0.0,1.0));
#115=DIRECTION('',(-1.0,0.0,0.0));
#116=AXIS2_PLACEMENT_3D('',#113,#114,#115);
#117=CIRCLE('',#116,0.250000000000000);
#118=EDGE_CURVE('',#73,#90,#117,.T.);
#119=ORIENTED_EDGE('',*,*,#118,.T.);
#120=ORIENTED_EDGE('',*,*,#95,.T.);
#121=CARTESIAN_POINT('',(-8.881784E-016,-1.270000000000000,0.500000000000000));
#122=DIRECTION('',(0.0,0.0,-1.0));
#123=DIRECTION('',(-1.0,0.0,0.0));
#124=AXIS2_PLACEMENT_3D('',#121,#122,#123);
#125=CIRCLE('',#124,0.250000000000000);
#126=EDGE_CURVE('',#81,#71,#125,.T.);
#127=ORIENTED_EDGE('',*,*,#126,.T.);
#128=EDGE_LOOP('',(#112,#119,#120,#127));
#129=FACE_OUTER_BOUND('',#128,.T.);
#130=ADVANCED_FACE('',(#129),#111,.T.);
#131=CARTESIAN_POINT('',(0.0,-1.270000000000000,-3.680000000000000));
#132=DIRECTION('',(0.0,0.0,-1.0));
#133=DIRECTION('',(-1.0,0.0,0.0));
#134=AXIS2_PLACEMENT_3D('',#131,#132,#133);
#135=PLANE('',#134);
#136=ORIENTED_EDGE('',*,*,#118,.F.);
#137=ORIENTED_EDGE('',*,*,#102,.F.);
#138=EDGE_LOOP('',(#136,#137));
#139=FACE_OUTER_BOUND('',#138,.T.);
#140=ADVANCED_FACE('',(#139),#135,.T.);
#141=CARTESIAN_POINT('',(-8.881784E-016,-1.270000000000000,0.500000000000000));
#142=DIRECTION('',(0.0,0.0,-1.0));
#143=DIRECTION('',(-1.0,0.0,0.0));
#144=AXIS2_PLACEMENT_3D('',#141,#142,#143);
#145=PLANE('',#144);
#146=ORIENTED_EDGE('',*,*,#87,.F.);
#147=ORIENTED_EDGE('',*,*,#126,.F.);
#148=EDGE_LOOP('',(#146,#147));
#149=FACE_OUTER_BOUND('',#148,.T.);
#150=ADVANCED_FACE('',(#149),#145,.F.);
#151=CLOSED_SHELL('',(#106,#130,#140,#150));
#152=MANIFOLD_SOLID_BREP('340',#151);
#153=COLOUR_RGB('254',0.866000000000000,0.866000000000000,0.866000000000000);
#154=SURFACE_STYLE_USAGE(.BOTH.,#155);
#155=SURFACE_SIDE_STYLE('NONE',(#156));
#156=SURFACE_STYLE_FILL_AREA(#157);
#157=FILL_AREA_STYLE('NONE',(#158));
#158=FILL_AREA_STYLE_COLOUR('NONE',#153);
#159=PRESENTATION_STYLE_ASSIGNMENT((#154));
#160=STYLED_ITEM('NONE',(#159),#152);
#161=MECHANICAL_DESIGN_GEOMETRIC_PRESENTATION_REPRESENTATION('NONE',(#160,#251,#525,#895),#28);
#162=PRESENTATION_LAYER_ASSIGNMENT('0','None',(#152,#250,#517,#887));
#163=CARTESIAN_POINT('',(-8.881784E-016,1.270000000000000,2.720046E-016));
#164=DIRECTION('',(2.111837E-016,0.0,-1.0));
#165=DIRECTION('',(-1.0,0.0,0.0));
#166=AXIS2_PLACEMENT_3D('',#163,#164,#165);
#167=CYLINDRICAL_SURFACE('',#166,0.250000000000000);
#168=CARTESIAN_POINT('',(-0.250000000000001,1.270000000000000,0.500000000000000));
#169=VERTEX_POINT('',#168);
#170=CARTESIAN_POINT('',(-0.250000000000000,1.270000000000000,-3.680000000000000));
#171=VERTEX_POINT('',#170);
#172=CARTESIAN_POINT('',(-0.250000000000001,1.270000000000000,0.500000000000000));
#173=DIRECTION('',(0.0,0.0,-1.0));
#174=VECTOR('',#173,4.180000000000000);
#175=LINE('',#172,#174);
#176=EDGE_CURVE('',#169,#171,#175,.T.);
#177=ORIENTED_EDGE('',*,*,#176,.F.);
#178=CARTESIAN_POINT('',(0.249999999999999,1.270000000000000,0.500000000000000));
#179=VERTEX_POINT('',#178);
#180=CARTESIAN_POINT('',(-8.881784E-016,1.270000000000000,0.500000000000000));
#181=DIRECTION('',(0.0,0.0,-1.0));
#182=DIRECTION('',(-1.0,0.0,0.0));
#183=AXIS2_PLACEMENT_3D('',#180,#181,#182);
#184=CIRCLE('',#183,0.250000000000000);
#185=EDGE_CURVE('',#169,#179,#184,.T.);
#186=ORIENTED_EDGE('',*,*,#185,.T.);
#187=CARTESIAN_POINT('',(0.250000000000000,1.270000000000000,-3.680000000000000));
#188=VERTEX_POINT('',#187);
#189=CARTESIAN_POINT('',(0.250000000000000,1.270000000000000,-3.680000000000000));
#190=DIRECTION('',(0.0,0.0,1.0));
#191=VECTOR('',#190,4.180000000000000);
#192=LINE('',#189,#191);
#193=EDGE_CURVE('',#188,#179,#192,.T.);
#194=ORIENTED_EDGE('',*,*,#193,.F.);
#195=CARTESIAN_POINT('',(0.0,1.270000000000000,-3.680000000000000));
#196=DIRECTION('',(0.0,0.0,1.0));
#197=DIRECTION('',(-1.0,0.0,0.0));
#198=AXIS2_PLACEMENT_3D('',#195,#196,#197);
#199=CIRCLE('',#198,0.250000000000000);
#200=EDGE_CURVE('',#188,#171,#199,.T.);
#201=ORIENTED_EDGE('',*,*,#200,.T.);
#202=EDGE_LOOP('',(#177,#186,#194,#201));
#203=FACE_OUTER_BOUND('',#202,.T.);
#204=ADVANCED_FACE('',(#203),#167,.T.);
#205=CARTESIAN_POINT('',(-8.881784E-016,1.270000000000000,2.720046E-016));
#206=DIRECTION('',(2.111837E-016,0.0,-1.0));
#207=DIRECTION('',(-1.0,0.0,0.0));
#208=AXIS2_PLACEMENT_3D('',#205,#206,#207);
#209=CYLINDRICAL_SURFACE('',#208,0.250000000000000);
#210=ORIENTED_EDGE('',*,*,#176,.T.);
#211=CARTESIAN_POINT('',(0.0,1.270000000000000,-3.680000000000000));
#212=DIRECTION('',(0.0,0.0,1.0));
#213=DIRECTION('',(-1.0,0.0,0.0));
#214=AXIS2_PLACEMENT_3D('',#211,#212,#213);
#215=CIRCLE('',#214,0.250000000000000);
#216=EDGE_CURVE('',#171,#188,#215,.T.);
#217=ORIENTED_EDGE('',*,*,#216,.T.);
#218=ORIENTED_EDGE('',*,*,#193,.T.);
#219=CARTESIAN_POINT('',(-8.881784E-016,1.270000000000000,0.500000000000000));
#220=DIRECTION('',(0.0,0.0,-1.0));
#221=DIRECTION('',(-1.0,0.0,0.0));
#222=AXIS2_PLACEMENT_3D('',#219,#220,#221);
#223=CIRCLE('',#222,0.250000000000000);
#224=EDGE_CURVE('',#179,#169,#223,.T.);
#225=ORIENTED_EDGE('',*,*,#224,.T.);
#226=EDGE_LOOP('',(#210,#217,#218,#225));
#227=FACE_OUTER_BOUND('',#226,.T.);
#228=ADVANCED_FACE('',(#227),#209,.T.);
#229=CARTESIAN_POINT('',(0.0,1.270000000000000,-3.680000000000000));
#230=DIRECTION('',(0.0,0.0,-1.0));
#231=DIRECTION('',(-1.0,0.0,0.0));
#232=AXIS2_PLACEMENT_3D('',#229,#230,#231);
#233=PLANE('',#232);
#234=ORIENTED_EDGE('',*,*,#216,.F.);
#235=ORIENTED_EDGE('',*,*,#200,.F.);
#236=EDGE_LOOP('',(#234,#235));
#237=FACE_OUTER_BOUND('',#236,.T.);
#238=ADVANCED_FACE('',(#237),#233,.T.);
#239=CARTESIAN_POINT('',(-8.881784E-016,1.270000000000000,0.500000000000000));
#240=DIRECTION('',(0.0,0.0,-1.0));
#241=DIRECTION('',(-1.0,0.0,0.0));
#242=AXIS2_PLACEMENT_3D('',#239,#240,#241);
#243=PLANE('',#242);
#244=ORIENTED_EDGE('',*,*,#185,.F.);
#245=ORIENTED_EDGE('',*,*,#224,.F.);
#246=EDGE_LOOP('',(#244,#245));
#247=FACE_OUTER_BOUND('',#246,.T.);
#248=ADVANCED_FACE('',(#247),#243,.F.);
#249=CLOSED_SHELL('',(#204,#228,#238,#248));
#250=MANIFOLD_SOLID_BREP('33F',#249);
#251=STYLED_ITEM('NONE',(#159),#250);
#252=CARTESIAN_POINT('',(-4.400000000000002,-1.483813E-014,5.079999999999999));
#253=DIRECTION('',(-1.0,2.622574E-016,0.0));
#254=DIRECTION('',(0.0,1.0,0.0));
#255=AXIS2_PLACEMENT_3D('',#252,#253,#254);
#256=CYLINDRICAL_SURFACE('',#255,1.445000000000000);
#257=CARTESIAN_POINT('',(-4.400000000000001,1.444999999999985,5.079999999999999));
#258=VERTEX_POINT('',#257);
#259=CARTESIAN_POINT('',(-5.670000000000003,1.444999999999986,5.079999999999999));
#260=VERTEX_POINT('',#259);
#261=CARTESIAN_POINT('',(-4.400000000000001,1.444999999999985,5.079999999999999));
#262=DIRECTION('',(-1.0,0.0,0.0));
#263=VECTOR('',#262,1.270000000000001);
#264=LINE('',#261,#263);
#265=EDGE_CURVE('',#258,#260,#264,.T.);
#266=ORIENTED_EDGE('',*,*,#265,.F.);
#267=CARTESIAN_POINT('',(-4.400000000000002,-1.445000000000015,5.079999999999999));
#268=VERTEX_POINT('',#267);
#269=CARTESIAN_POINT('',(-4.400000000000002,-1.483813E-014,5.079999999999999));
#270=DIRECTION('',(1.0,0.0,0.0));
#271=DIRECTION('',(0.0,1.0,0.0));
#272=AXIS2_PLACEMENT_3D('',#269,#270,#271);
#273=CIRCLE('',#272,1.445000000000000);
#274=EDGE_CURVE('',#268,#258,#273,.T.);
#275=ORIENTED_EDGE('',*,*,#274,.F.);
#276=CARTESIAN_POINT('',(-5.670000000000004,-1.445000000000015,5.079999999999999));
#277=VERTEX_POINT('',#276);
#278=CARTESIAN_POINT('',(-5.670000000000004,-1.445000000000015,5.079999999999999));
#279=DIRECTION('',(1.0,0.0,0.0));
#280=VECTOR('',#279,1.270000000000001);
#281=LINE('',#278,#280);
#282=EDGE_CURVE('',#277,#268,#281,.T.);
#283=ORIENTED_EDGE('',*,*,#282,.F.);
#284=CARTESIAN_POINT('',(-5.670000000000003,-1.468202E-014,3.634999999999999));
#285=VERTEX_POINT('',#284);
#286=CARTESIAN_POINT('',(-5.670000000000003,-1.450506E-014,5.079999999999999));
#287=DIRECTION('',(-1.0,0.0,0.0));
#288=DIRECTION('',(0.0,-1.0,0.0));
#289=AXIS2_PLACEMENT_3D('',#286,#287,#288);
#290=CIRCLE('',#289,1.445000000000000);
#291=EDGE_CURVE('',#285,#277,#290,.T.);
#292=ORIENTED_EDGE('',*,*,#291,.F.);
#293=CARTESIAN_POINT('',(-5.670000000000003,-1.450506E-014,5.079999999999999));
#294=DIRECTION('',(-1.0,0.0,0.0));
#295=DIRECTION('',(0.0,-1.0,0.0));
#296=AXIS2_PLACEMENT_3D('',#293,#294,#295);
#297=CIRCLE('',#296,1.445000000000000);
#298=EDGE_CURVE('',#260,#285,#297,.T.);
#299=ORIENTED_EDGE('',*,*,#298,.F.);
#300=EDGE_LOOP('',(#266,#275,#283,#292,#299));
#301=FACE_OUTER_BOUND('',#300,.T.);
#302=ADVANCED_FACE('',(#301),#256,.T.);
#303=CARTESIAN_POINT('',(-6.927885129890646,-1.422576E-014,5.079999999999999));
#304=CARTESIAN_POINT('',(-7.007563728810562,-1.413793E-014,5.652722998582198));
#305=CARTESIAN_POINT('',(-6.627901351914698,-1.416882E-014,6.088861499291099));
#306=CARTESIAN_POINT('',(-6.248238975018833,-1.419971E-014,6.525000000000000));
#307=CARTESIAN_POINT('',(-5.670000000000003,-1.432811E-014,6.525000000000000));
#308=CARTESIAN_POINT('',(-6.927885129890646,-1.422576E-014,5.079999999999999));
#309=CARTESIAN_POINT('',(-7.007563728810564,0.572722998582186,5.652722998582199));
#310=CARTESIAN_POINT('',(-6.627901351914697,1.008861499291085,6.088861499291099));
#311=CARTESIAN_POINT('',(-6.248238975018833,1.444999999999986,6.524999999999999));
#312=CARTESIAN_POINT('',(-5.670000000000003,1.444999999999986,6.525000000000000));
#313=CARTESIAN_POINT('',(-6.927885129890646,-1.422576E-014,5.079999999999999));
#314=CARTESIAN_POINT('',(-7.007563728810562,0.572722998582186,5.079999999999998));
#315=CARTESIAN_POINT('',(-6.627901351914698,1.008861499291085,5.079999999999999));
#316=CARTESIAN_POINT('',(-6.248238975018833,1.444999999999986,5.079999999999999));
#317=CARTESIAN_POINT('',(-5.670000000000003,1.444999999999986,5.079999999999999));
#318=CARTESIAN_POINT('',(-6.927885129890646,-1.422576E-014,5.079999999999999));
#319=CARTESIAN_POINT('',(-7.007563728810564,0.572722998582185,4.507277001417799));
#320=CARTESIAN_POINT('',(-6.627901351914697,1.008861499291085,4.071138500708900));
#321=CARTESIAN_POINT('',(-6.248238975018833,1.444999999999985,3.634999999999999));
#322=CARTESIAN_POINT('',(-5.670000000000003,1.444999999999986,3.634999999999999));
#323=CARTESIAN_POINT('',(-6.927885129890646,-1.422576E-014,5.079999999999999));
#324=CARTESIAN_POINT('',(-7.007563728810562,-1.427820E-014,4.507277001417799));
#325=CARTESIAN_POINT('',(-6.627901351914698,-1.441591E-014,4.071138500708900));
#326=CARTESIAN_POINT('',(-6.248238975018833,-1.455362E-014,3.634999999999999));
#327=CARTESIAN_POINT('',(-5.670000000000003,-1.468202E-014,3.634999999999999));
#328=CARTESIAN_POINT('',(-6.927885129890646,-1.422576E-014,5.079999999999999));
#329=CARTESIAN_POINT('',(-7.007563728810564,-0.572722998582214,4.507277001417799));
#330=CARTESIAN_POINT('',(-6.627901351914697,-1.008861499291114,4.071138500708900));
#331=CARTESIAN_POINT('',(-6.248238975018833,-1.445000000000015,3.634999999999999));
#332=CARTESIAN_POINT('',(-5.670000000000003,-1.445000000000015,3.634999999999999));
#333=CARTESIAN_POINT('',(-6.927885129890646,-1.422576E-014,5.079999999999999));
#334=CARTESIAN_POINT('',(-7.007563728810562,-0.572722998582214,5.079999999999998));
#335=CARTESIAN_POINT('',(-6.627901351914698,-1.008861499291114,5.079999999999999));
#336=CARTESIAN_POINT('',(-6.248238975018833,-1.445000000000015,5.079999999999999));
#337=CARTESIAN_POINT('',(-5.670000000000003,-1.445000000000015,5.079999999999999));
#338=CARTESIAN_POINT('',(-6.927885129890646,-1.422576E-014,5.079999999999999));
#339=CARTESIAN_POINT('',(-7.007563728810564,-0.572722998582214,5.652722998582199));
#340=CARTESIAN_POINT('',(-6.627901351914697,-1.008861499291113,6.088861499291099));
#341=CARTESIAN_POINT('',(-6.248238975018833,-1.445000000000014,6.524999999999999));
#342=CARTESIAN_POINT('',(-5.670000000000003,-1.445000000000014,6.525000000000000));
#343=CARTESIAN_POINT('',(-6.927885129890646,-1.422576E-014,5.079999999999999));
#344=CARTESIAN_POINT('',(-7.007563728810562,-1.413793E-014,5.652722998582198));
#345=CARTESIAN_POINT('',(-6.627901351914698,-1.416882E-014,6.088861499291099));
#346=CARTESIAN_POINT('',(-6.248238975018833,-1.419971E-014,6.525000000000000));
#347=CARTESIAN_POINT('',(-5.670000000000003,-1.432811E-014,6.525000000000000));
#355=(BOUNDED_SURFACE()B_SPLINE_SURFACE(2,2,((#303,#308,#313,#318,#323,#328,#333,#338,#343),(#304,#309,#314,#319,#324,#329,#334,#339,#344),(#305,#310,#315,#320,#325,#330,#335,#340,#345),(#306,#311,#316,#321,#326,#331,#336,#341,#346),(#307,#312,#317,#322,#327,#332,#337,#342,#347)),.UNSPECIFIED.,.F.,.T.,.U.)B_SPLINE_SURFACE_WITH_KNOTS((3,2,3),(3,2,2,2,3),(-1.709031436467335,-0.854515718233667,3.093861E-032),(0.0,1.570796326794897,3.141592653589793,4.712388980384690,6.283185307179586),.UNSPECIFIED.)GEOMETRIC_REPRESENTATION_ITEM()RATIONAL_B_SPLINE_SURFACE(((1.0,0.707106781186548,1.0,0.707106781186548,1.0,0.707106781186548,1.0,0.707106781186548,1.0),(0.910105449305054,0.643541734798433,0.910105449305054,0.643541734798433,0.910105449305054,0.643541734798433,0.910105449305054,0.643541734798433,0.910105449305054),(1.0,0.707106781186548,1.0,0.707106781186548,1.0,0.707106781186548,1.0,0.707106781186548,1.0),(0.910105449305055,0.643541734798434,0.910105449305055,0.643541734798434,0.910105449305055,0.643541734798434,0.910105449305055,0.643541734798434,0.910105449305055),(1.0,0.707106781186548,1.0,0.707106781186548,1.0,0.707106781186548,1.0,0.707106781186548,1.0)))REPRESENTATION_ITEM('')SURFACE());
#356=CARTESIAN_POINT('',(-6.940000000000002,-1.424450E-014,4.904999999999999));
#357=VERTEX_POINT('',#356);
#358=CARTESIAN_POINT('',(-5.670000000000003,-1.452649E-014,4.904999999999999));
#359=DIRECTION('',(0.0,-1.0,0.0));
#360=DIRECTION('',(0.0,0.0,-1.0));
#361=AXIS2_PLACEMENT_3D('',#358,#359,#360);
#362=CIRCLE('',#361,1.270000000000000);
#363=EDGE_CURVE('',#357,#285,#362,.T.);
#364=ORIENTED_EDGE('',*,*,#363,.F.);
#365=CARTESIAN_POINT('',(-6.940000000000002,0.174999999999986,5.079999999999999));
#366=VERTEX_POINT('',#365);
#367=CARTESIAN_POINT('',(-6.940000000000002,-1.422307E-014,5.079999999999999));
#368=DIRECTION('',(1.0,0.0,0.0));
#369=DIRECTION('',(0.0,-1.0,0.0));
#370=AXIS2_PLACEMENT_3D('',#367,#368,#369);
#371=CIRCLE('',#370,0.175000000000000);
#372=EDGE_CURVE('',#357,#366,#371,.T.);
#373=ORIENTED_EDGE('',*,*,#372,.T.);
#374=CARTESIAN_POINT('',(-6.940000000000002,-1.420164E-014,5.254999999999999));
#375=VERTEX_POINT('',#374);
#376=CARTESIAN_POINT('',(-6.940000000000002,-1.422307E-014,5.079999999999999));
#377=DIRECTION('',(1.0,0.0,0.0));
#378=DIRECTION('',(0.0,-1.0,0.0));
#379=AXIS2_PLACEMENT_3D('',#376,#377,#378);
#380=CIRCLE('',#379,0.175000000000000);
#381=EDGE_CURVE('',#366,#375,#380,.T.);
#382=ORIENTED_EDGE('',*,*,#381,.T.);
#383=CARTESIAN_POINT('',(-5.670000000000003,-1.432811E-014,6.525000000000000));
#384=VERTEX_POINT('',#383);
#385=CARTESIAN_POINT('',(-5.670000000000003,-1.448363E-014,5.254999999999999));
#386=DIRECTION('',(0.0,-1.0,0.0));
#387=DIRECTION('',(0.0,0.0,1.0));
#388=AXIS2_PLACEMENT_3D('',#385,#386,#387);
#389=CIRCLE('',#388,1.270000000000000);
#390=EDGE_CURVE('',#384,#375,#389,.T.);
#391=ORIENTED_EDGE('',*,*,#390,.F.);
#392=CARTESIAN_POINT('',(-5.670000000000003,-1.450506E-014,5.079999999999999));
#393=DIRECTION('',(-1.0,0.0,0.0));
#394=DIRECTION('',(0.0,-1.0,0.0));
#395=AXIS2_PLACEMENT_3D('',#392,#393,#394);
#396=CIRCLE('',#395,1.445000000000000);
#397=EDGE_CURVE('',#384,#260,#396,.T.);
#398=ORIENTED_EDGE('',*,*,#397,.T.);
#399=ORIENTED_EDGE('',*,*,#298,.T.);
#400=EDGE_LOOP('',(#364,#373,#382,#391,#398,#399));
#401=FACE_OUTER_BOUND('',#400,.T.);
#402=ADVANCED_FACE('',(#401),#355,.T.);
#403=CARTESIAN_POINT('',(-6.927885129890646,-1.422576E-014,5.079999999999999));
#404=CARTESIAN_POINT('',(-7.007563728810562,-1.413793E-014,5.652722998582198));
#405=CARTESIAN_POINT('',(-6.627901351914698,-1.416882E-014,6.088861499291099));
#406=CARTESIAN_POINT('',(-6.248238975018833,-1.419971E-014,6.525000000000000));
#407=CARTESIAN_POINT('',(-5.670000000000003,-1.432811E-014,6.525000000000000));
#408=CARTESIAN_POINT('',(-6.927885129890646,-1.422576E-014,5.079999999999999));
#409=CARTESIAN_POINT('',(-7.007563728810564,0.572722998582186,5.652722998582199));
#410=CARTESIAN_POINT('',(-6.627901351914697,1.008861499291085,6.088861499291099));
#411=CARTESIAN_POINT('',(-6.248238975018833,1.444999999999986,6.524999999999999));
#412=CARTESIAN_POINT('',(-5.670000000000003,1.444999999999986,6.525000000000000));
#413=CARTESIAN_POINT('',(-6.927885129890646,-1.422576E-014,5.079999999999999));
#414=CARTESIAN_POINT('',(-7.007563728810562,0.572722998582186,5.079999999999998));
#415=CARTESIAN_POINT('',(-6.627901351914698,1.008861499291085,5.079999999999999));
#416=CARTESIAN_POINT('',(-6.248238975018833,1.444999999999986,5.079999999999999));
#417=CARTESIAN_POINT('',(-5.670000000000003,1.444999999999986,5.079999999999999));
#418=CARTESIAN_POINT('',(-6.927885129890646,-1.422576E-014,5.079999999999999));
#419=CARTESIAN_POINT('',(-7.007563728810564,0.572722998582185,4.507277001417799));
#420=CARTESIAN_POINT('',(-6.627901351914697,1.008861499291085,4.071138500708900));
#421=CARTESIAN_POINT('',(-6.248238975018833,1.444999999999985,3.634999999999999));
#422=CARTESIAN_POINT('',(-5.670000000000003,1.444999999999986,3.634999999999999));
#423=CARTESIAN_POINT('',(-6.927885129890646,-1.422576E-014,5.079999999999999));
#424=CARTESIAN_POINT('',(-7.007563728810562,-1.427820E-014,4.507277001417799));
#425=CARTESIAN_POINT('',(-6.627901351914698,-1.441591E-014,4.071138500708900));
#426=CARTESIAN_POINT('',(-6.248238975018833,-1.455362E-014,3.634999999999999));
#427=CARTESIAN_POINT('',(-5.670000000000003,-1.468202E-014,3.634999999999999));
#428=CARTESIAN_POINT('',(-6.927885129890646,-1.422576E-014,5.079999999999999));
#429=CARTESIAN_POINT('',(-7.007563728810564,-0.572722998582214,4.507277001417799));
#430=CARTESIAN_POINT('',(-6.627901351914697,-1.008861499291114,4.071138500708900));
#431=CARTESIAN_POINT('',(-6.248238975018833,-1.445000000000015,3.634999999999999));
#432=CARTESIAN_POINT('',(-5.670000000000003,-1.445000000000015,3.634999999999999));
#433=CARTESIAN_POINT('',(-6.927885129890646,-1.422576E-014,5.079999999999999));
#434=CARTESIAN_POINT('',(-7.007563728810562,-0.572722998582214,5.079999999999998));
#435=CARTESIAN_POINT('',(-6.627901351914698,-1.008861499291114,5.079999999999999));
#436=CARTESIAN_POINT('',(-6.248238975018833,-1.445000000000015,5.079999999999999));
#437=CARTESIAN_POINT('',(-5.670000000000003,-1.445000000000015,5.079999999999999));
#438=CARTESIAN_POINT('',(-6.927885129890646,-1.422576E-014,5.079999999999999));
#439=CARTESIAN_POINT('',(-7.007563728810564,-0.572722998582214,5.652722998582199));
#440=CARTESIAN_POINT('',(-6.627901351914697,-1.008861499291113,6.088861499291099));
#441=CARTESIAN_POINT('',(-6.248238975018833,-1.445000000000014,6.524999999999999));
#442=CARTESIAN_POINT('',(-5.670000000000003,-1.445000000000014,6.525000000000000));
#443=CARTESIAN_POINT('',(-6.927885129890646,-1.422576E-014,5.079999999999999));
#444=CARTESIAN_POINT('',(-7.007563728810562,-1.413793E-014,5.652722998582198));
#445=CARTESIAN_POINT('',(-6.627901351914698,-1.416882E-014,6.088861499291099));
#446=CARTESIAN_POINT('',(-6.248238975018833,-1.419971E-014,6.525000000000000));
#447=CARTESIAN_POINT('',(-5.670000000000003,-1.432811E-014,6.525000000000000));
#455=(BOUNDED_SURFACE()B_SPLINE_SURFACE(2,2,((#403,#408,#413,#418,#423,#428,#433,#438,#443),(#404,#409,#414,#419,#424,#429,#434,#439,#444),(#405,#410,#415,#420,#425,#430,#435,#440,#445),(#406,#411,#416,#421,#426,#431,#436,#441,#446),(#407,#412,#417,#422,#427,#432,#437,#442,#447)),.UNSPECIFIED.,.F.,.T.,.U.)B_SPLINE_SURFACE_WITH_KNOTS((3,2,3),(3,2,2,2,3),(-1.709031436467335,-0.854515718233667,2.526413E-016),(0.0,1.570796326794897,3.141592653589793,4.712388980384690,6.283185307179586),.UNSPECIFIED.)GEOMETRIC_REPRESENTATION_ITEM()RATIONAL_B_SPLINE_SURFACE(((1.0,0.707106781186548,1.0,0.707106781186548,1.0,0.707106781186548,1.0,0.707106781186548,1.0),(0.910105449305054,0.643541734798433,0.910105449305054,0.643541734798433,0.910105449305054,0.643541734798433,0.910105449305054,0.643541734798433,0.910105449305054),(1.0,0.707106781186548,1.0,0.707106781186548,1.0,0.707106781186548,1.0,0.707106781186548,1.0),(0.910105449305055,0.643541734798434,0.910105449305055,0.643541734798434,0.910105449305055,0.643541734798434,0.910105449305055,0.643541734798434,0.910105449305055),(1.0,0.707106781186548,1.0,0.707106781186548,1.0,0.707106781186548,1.0,0.707106781186548,1.0)))REPRESENTATION_ITEM('')SURFACE());
#456=ORIENTED_EDGE('',*,*,#363,.T.);
#457=ORIENTED_EDGE('',*,*,#291,.T.);
#458=CARTESIAN_POINT('',(-5.670000000000003,-1.450506E-014,5.079999999999999));
#459=DIRECTION('',(-1.0,0.0,0.0));
#460=DIRECTION('',(0.0,-1.0,0.0));
#461=AXIS2_PLACEMENT_3D('',#458,#459,#460);
#462=CIRCLE('',#461,1.445000000000000);
#463=EDGE_CURVE('',#277,#384,#462,.T.);
#464=ORIENTED_EDGE('',*,*,#463,.T.);
#465=ORIENTED_EDGE('',*,*,#390,.T.);
#466=CARTESIAN_POINT('',(-6.940000000000002,-1.422307E-014,5.079999999999999));
#467=DIRECTION('',(1.0,0.0,0.0));
#468=DIRECTION('',(0.0,-1.0,0.0));
#469=AXIS2_PLACEMENT_3D('',#466,#467,#468);
#470=CIRCLE('',#469,0.175000000000000);
#471=EDGE_CURVE('',#375,#357,#470,.T.);
#472=ORIENTED_EDGE('',*,*,#471,.T.);
#473=EDGE_LOOP('',(#456,#457,#464,#465,#472));
#474=FACE_OUTER_BOUND('',#473,.T.);
#475=ADVANCED_FACE('',(#474),#455,.T.);
#476=CARTESIAN_POINT('',(-4.400000000000002,-1.483813E-014,5.079999999999999));
#477=DIRECTION('',(-1.0,2.622574E-016,0.0));
#478=DIRECTION('',(0.0,1.0,0.0));
#479=AXIS2_PLACEMENT_3D('',#476,#477,#478);
#480=CYLINDRICAL_SURFACE('',#479,1.445000000000000);
#481=ORIENTED_EDGE('',*,*,#265,.T.);
#482=ORIENTED_EDGE('',*,*,#397,.F.);
#483=ORIENTED_EDGE('',*,*,#463,.F.);
#484=ORIENTED_EDGE('',*,*,#282,.T.);
#485=CARTESIAN_POINT('',(-4.400000000000002,-1.483813E-014,5.079999999999999));
#486=DIRECTION('',(1.0,0.0,0.0));
#487=DIRECTION('',(0.0,1.0,0.0));
#488=AXIS2_PLACEMENT_3D('',#485,#486,#487);
#489=CIRCLE('',#488,1.445000000000000);
#490=EDGE_CURVE('',#258,#268,#489,.T.);
#491=ORIENTED_EDGE('',*,*,#490,.F.);
#492=EDGE_LOOP('',(#481,#482,#483,#484,#491));
#493=FACE_OUTER_BOUND('',#492,.T.);
#494=ADVANCED_FACE('',(#493),#480,.T.);
#495=CARTESIAN_POINT('',(-6.940000000000002,-1.417200E-014,5.079999999999999));
#496=DIRECTION('',(1.0,0.0,0.0));
#497=DIRECTION('',(0.0,0.0,-1.0));
#498=AXIS2_PLACEMENT_3D('',#495,#496,#497);
#499=PLANE('',#498);
#500=ORIENTED_EDGE('',*,*,#381,.F.);
#501=ORIENTED_EDGE('',*,*,#372,.F.);
#502=ORIENTED_EDGE('',*,*,#471,.F.);
#503=EDGE_LOOP('',(#500,#501,#502));
#504=FACE_OUTER_BOUND('',#503,.T.);
#505=ADVANCED_FACE('',(#504),#499,.F.);
#506=CARTESIAN_POINT('',(-4.400000000000002,-1.483813E-014,5.079999999999999));
#507=DIRECTION('',(1.0,0.0,0.0));
#508=DIRECTION('',(0.0,0.0,-1.0));
#509=AXIS2_PLACEMENT_3D('',#506,#507,#508);
#510=PLANE('',#509);
#511=ORIENTED_EDGE('',*,*,#490,.T.);
#512=ORIENTED_EDGE('',*,*,#274,.T.);
#513=EDGE_LOOP('',(#511,#512));
#514=FACE_OUTER_BOUND('',#513,.T.);
#515=ADVANCED_FACE('',(#514),#510,.T.);
#516=CLOSED_SHELL('',(#302,#402,#475,#494,#505,#515));
#517=MANIFOLD_SOLID_BREP('33E',#516);
#518=DRAUGHTING_PRE_DEFINED_COLOUR('red');
#519=SURFACE_STYLE_USAGE(.BOTH.,#520);
#520=SURFACE_SIDE_STYLE('NONE',(#521));
#521=SURFACE_STYLE_FILL_AREA(#522);
#522=FILL_AREA_STYLE('NONE',(#523));
#523=FILL_AREA_STYLE_COLOUR('NONE',#518);
#524=PRESENTATION_STYLE_ASSIGNMENT((#519));
#525=STYLED_ITEM('NONE',(#524),#517);
#526=CARTESIAN_POINT('',(-4.400000000000003,-1.269999999999997,1.500000000000000));
#527=DIRECTION('',(1.0,0.0,0.0));
#528=DIRECTION('',(0.0,-1.0,0.0));
#529=AXIS2_PLACEMENT_3D('',#526,#527,#528);
#530=CYLINDRICAL_SURFACE('',#529,0.300000000000000);
#531=CARTESIAN_POINT('',(-4.200000000000003,-1.569999999999997,1.500000000000000));
#532=VERTEX_POINT('',#531);
#533=CARTESIAN_POINT('',(-4.400000000000003,-1.569999999999997,1.500000000000000));
#534=VERTEX_POINT('',#533);
#535=CARTESIAN_POINT('',(-4.200000000000003,-1.569999999999997,1.500000000000000));
#536=DIRECTION('',(-1.0,0.0,0.0));
#537=VECTOR('',#536,0.200000000000000);
#538=LINE('',#535,#537);
#539=EDGE_CURVE('',#532,#534,#538,.T.);
#540=ORIENTED_EDGE('',*,*,#539,.F.);
#541=CARTESIAN_POINT('',(-4.200000000000003,-0.969999999999996,1.500000000000000));
#542=VERTEX_POINT('',#541);
#543=CARTESIAN_POINT('',(-4.200000000000003,-1.269999999999997,1.500000000000000));
#544=DIRECTION('',(-1.0,0.0,0.0));
#545=DIRECTION('',(0.0,-1.0,0.0));
#546=AXIS2_PLACEMENT_3D('',#543,#544,#545);
#547=CIRCLE('',#546,0.300000000000000);
#548=EDGE_CURVE('',#542,#532,#547,.T.);
#549=ORIENTED_EDGE('',*,*,#548,.F.);
#550=CARTESIAN_POINT('',(-4.400000000000000,-0.969999999999996,1.500000000000000));
#551=VERTEX_POINT('',#550);
#552=CARTESIAN_POINT('',(-4.400000000000000,-0.969999999999996,1.500000000000000));
#553=DIRECTION('',(1.0,0.0,0.0));
#554=VECTOR('',#553,0.199999999999998);
#555=LINE('',#552,#554);
#556=EDGE_CURVE('',#551,#542,#555,.T.);
#557=ORIENTED_EDGE('',*,*,#556,.F.);
#558=CARTESIAN_POINT('',(-4.400000000000001,-1.269999999999997,1.500000000000000));
#559=DIRECTION('',(1.0,0.0,0.0));
#560=DIRECTION('',(0.0,-1.0,0.0));
#561=AXIS2_PLACEMENT_3D('',#558,#559,#560);
#562=CIRCLE('',#561,0.300000000000000);
#563=EDGE_CURVE('',#534,#551,#562,.T.);
#564=ORIENTED_EDGE('',*,*,#563,.F.);
#565=EDGE_LOOP('',(#540,#549,#557,#564));
#566=FACE_OUTER_BOUND('',#565,.T.);
#567=ADVANCED_FACE('',(#566),#530,.F.);
#568=CARTESIAN_POINT('',(-4.400000000000003,-1.269999999999997,1.500000000000000));
#569=DIRECTION('',(1.0,0.0,0.0));
#570=DIRECTION('',(0.0,-1.0,0.0));
#571=AXIS2_PLACEMENT_3D('',#568,#569,#570);
#572=CYLINDRICAL_SURFACE('',#571,0.300000000000000);
#573=ORIENTED_EDGE('',*,*,#539,.T.);
#574=CARTESIAN_POINT('',(-4.400000000000001,-1.269999999999997,1.500000000000000));
#575=DIRECTION('',(1.0,0.0,0.0));
#576=DIRECTION('',(0.0,-1.0,0.0));
#577=AXIS2_PLACEMENT_3D('',#574,#575,#576);
#578=CIRCLE('',#577,0.300000000000000);
#579=EDGE_CURVE('',#551,#534,#578,.T.);
#580=ORIENTED_EDGE('',*,*,#579,.F.);
#581=ORIENTED_EDGE('',*,*,#556,.T.);
#582=CARTESIAN_POINT('',(-4.200000000000003,-1.269999999999997,1.500000000000000));
#583=DIRECTION('',(-1.0,0.0,0.0));
#584=DIRECTION('',(0.0,-1.0,0.0));
#585=AXIS2_PLACEMENT_3D('',#582,#583,#584);
#586=CIRCLE('',#585,0.300000000000000);
#587=EDGE_CURVE('',#532,#542,#586,.T.);
#588=ORIENTED_EDGE('',*,*,#587,.F.);
#589=EDGE_LOOP('',(#573,#580,#581,#588));
#590=FACE_OUTER_BOUND('',#589,.T.);
#591=ADVANCED_FACE('',(#590),#572,.F.);
#592=CARTESIAN_POINT('',(-4.200000000000003,-1.269999999999997,1.500000000000000));
#593=DIRECTION('',(-1.0,0.0,0.0));
#594=DIRECTION('',(0.0,0.0,1.0));
#595=AXIS2_PLACEMENT_3D('',#592,#593,#594);
#596=PLANE('',#595);
#597=ORIENTED_EDGE('',*,*,#587,.T.);
#598=ORIENTED_EDGE('',*,*,#548,.T.);
#599=EDGE_LOOP('',(#597,#598));
#600=FACE_OUTER_BOUND('',#599,.T.);
#601=ADVANCED_FACE('',(#600),#596,.T.);
#602=CARTESIAN_POINT('',(1.949999999999998,-1.659999999999997,0.0));
#603=DIRECTION('',(0.0,-1.0,0.0));
#604=DIRECTION('',(0.0,0.0,-1.0));
#605=AXIS2_PLACEMENT_3D('',#602,#603,#604);
#606=PLANE('',#605);
#607=CARTESIAN_POINT('',(1.949999999999998,-1.659999999999997,0.500000000000000));
#608=VERTEX_POINT('',#607);
#609=CARTESIAN_POINT('',(-4.400000000000001,-1.659999999999997,0.500000000000000));
#610=VERTEX_POINT('',#609);
#611=CARTESIAN_POINT('',(1.949999999999998,-1.659999999999997,0.500000000000000));
#612=DIRECTION('',(-1.0,0.0,0.0));
#613=VECTOR('',#612,6.350000000000000);
#614=LINE('',#611,#613);
#615=EDGE_CURVE('',#608,#610,#614,.T.);
#616=ORIENTED_EDGE('',*,*,#615,.F.);
#617=CARTESIAN_POINT('',(1.949999999999998,-1.659999999999997,0.0));
#618=VERTEX_POINT('',#617);
#619=CARTESIAN_POINT('',(1.949999999999998,-1.659999999999997,0.0));
#620=DIRECTION('',(0.0,0.0,1.0));
#621=VECTOR('',#620,0.500000000000000);
#622=LINE('',#619,#621);
#623=EDGE_CURVE('',#618,#608,#622,.T.);
#624=ORIENTED_EDGE('',*,*,#623,.F.);
#625=CARTESIAN_POINT('',(-4.400000000000001,-1.659999999999997,0.0));
#626=VERTEX_POINT('',#625);
#627=CARTESIAN_POINT('',(-4.400000000000001,-1.659999999999997,0.0));
#628=DIRECTION('',(1.0,0.0,0.0));
#629=VECTOR('',#628,6.350000000000000);
#630=LINE('',#627,#629);
#631=EDGE_CURVE('',#626,#618,#630,.T.);
#632=ORIENTED_EDGE('',*,*,#631,.F.);
#633=CARTESIAN_POINT('',(-4.400000000000001,-1.659999999999997,0.500000000000000));
#634=DIRECTION('',(0.0,0.0,-1.0));
#635=VECTOR('',#634,0.500000000000000);
#636=LINE('',#633,#635);
#637=EDGE_CURVE('',#610,#626,#636,.T.);
#638=ORIENTED_EDGE('',*,*,#637,.F.);
#639=EDGE_LOOP('',(#616,#624,#632,#638));
#640=FACE_OUTER_BOUND('',#639,.T.);
#641=ADVANCED_FACE('',(#640),#606,.F.);
#642=CARTESIAN_POINT('',(-4.400000000000001,1.659999999999968,0.0));
#643=DIRECTION('',(0.0,1.0,0.0));
#644=DIRECTION('',(0.0,0.0,1.0));
#645=AXIS2_PLACEMENT_3D('',#642,#643,#644);
#646=PLANE('',#645);
#647=CARTESIAN_POINT('',(-4.400000000000001,1.659999999999968,0.500000000000000));
#648=VERTEX_POINT('',#647);
#649=CARTESIAN_POINT('',(1.949999999999998,1.659999999999968,0.500000000000000));
#650=VERTEX_POINT('',#649);
#651=CARTESIAN_POINT('',(-4.400000000000001,1.659999999999968,0.500000000000000));
#652=DIRECTION('',(1.0,0.0,0.0));
#653=VECTOR('',#652,6.350000000000000);
#654=LINE('',#651,#653);
#655=EDGE_CURVE('',#648,#650,#654,.T.);
#656=ORIENTED_EDGE('',*,*,#655,.F.);
#657=CARTESIAN_POINT('',(-4.400000000000001,1.659999999999968,0.0));
#658=VERTEX_POINT('',#657);
#659=CARTESIAN_POINT('',(-4.400000000000001,1.659999999999968,0.0));
#660=DIRECTION('',(0.0,0.0,1.0));
#661=VECTOR('',#660,0.500000000000000);
#662=LINE('',#659,#661);
#663=EDGE_CURVE('',#658,#648,#662,.T.);
#664=ORIENTED_EDGE('',*,*,#663,.F.);
#665=CARTESIAN_POINT('',(1.949999999999998,1.659999999999968,0.0));
#666=VERTEX_POINT('',#665);
#667=CARTESIAN_POINT('',(1.949999999999998,1.659999999999968,0.0));
#668=DIRECTION('',(-1.0,0.0,0.0));
#669=VECTOR('',#668,6.350000000000000);
#670=LINE('',#667,#669);
#671=EDGE_CURVE('',#666,#658,#670,.T.);
#672=ORIENTED_EDGE('',*,*,#671,.F.);
#673=CARTESIAN_POINT('',(1.949999999999998,1.659999999999968,0.500000000000000));
#674=DIRECTION('',(0.0,0.0,-1.0));
#675=VECTOR('',#674,0.500000000000000);
#676=LINE('',#673,#675);
#677=EDGE_CURVE('',#650,#666,#676,.T.);
#678=ORIENTED_EDGE('',*,*,#677,.F.);
#679=EDGE_LOOP('',(#656,#664,#672,#678));
#680=FACE_OUTER_BOUND('',#679,.T.);
#681=ADVANCED_FACE('',(#680),#646,.F.);
#682=CARTESIAN_POINT('',(-1.225000000000001,-1.421480E-014,0.500000000000000));
#683=DIRECTION('',(0.0,0.0,1.0));
#684=DIRECTION('',(1.0,0.0,0.0));
#685=AXIS2_PLACEMENT_3D('',#682,#683,#684);
#686=PLANE('',#685);
#687=CARTESIAN_POINT('',(1.949999999999998,-1.659999999999997,0.500000000000000));
#688=DIRECTION('',(0.0,1.0,0.0));
#689=VECTOR('',#688,3.319999999999965);
#690=LINE('',#687,#689);
#691=EDGE_CURVE('',#608,#650,#690,.T.);
#692=ORIENTED_EDGE('',*,*,#691,.F.);
#693=ORIENTED_EDGE('',*,*,#615,.T.);
#694=CARTESIAN_POINT('',(-4.400000000000001,1.659999999999968,0.500000000000000));
#695=DIRECTION('',(0.0,-1.0,0.0));
#696=VECTOR('',#695,3.319999999999965);
#697=LINE('',#694,#696);
#698=EDGE_CURVE('',#648,#610,#697,.T.);
#699=ORIENTED_EDGE('',*,*,#698,.F.);
#700=ORIENTED_EDGE('',*,*,#655,.T.);
#701=EDGE_LOOP('',(#692,#693,#699,#700));
#702=FACE_OUTER_BOUND('',#701,.T.);
#703=ADVANCED_FACE('',(#702),#686,.F.);
#704=CARTESIAN_POINT('',(-1.224999999999990,-2.842171E-014,0.0));
#705=DIRECTION('',(0.0,0.0,1.0));
#706=DIRECTION('',(1.0,0.0,0.0));
#707=AXIS2_PLACEMENT_3D('',#704,#705,#706);
#708=PLANE('',#707);
#709=ORIENTED_EDGE('',*,*,#631,.T.);
#710=CARTESIAN_POINT('',(1.950000000000022,-2.159999999999997,0.0));
#711=VERTEX_POINT('',#710);
#712=CARTESIAN_POINT('',(1.950000000000022,-2.159999999999997,0.0));
#713=DIRECTION('',(0.0,1.0,0.0));
#714=VECTOR('',#713,0.500000000000000);
#715=LINE('',#712,#714);
#716=EDGE_CURVE('',#711,#618,#715,.T.);
#717=ORIENTED_EDGE('',*,*,#716,.F.);
#718=CARTESIAN_POINT('',(-4.400000000000001,-2.159999999999997,0.0));
#719=VERTEX_POINT('',#718);
#720=CARTESIAN_POINT('',(-4.400000000000001,-2.159999999999997,0.0));
#721=DIRECTION('',(1.0,0.0,0.0));
#722=VECTOR('',#721,6.350000000000023);
#723=LINE('',#720,#722);
#724=EDGE_CURVE('',#719,#711,#723,.T.);
#725=ORIENTED_EDGE('',*,*,#724,.F.);
#726=CARTESIAN_POINT('',(-4.400000000000001,-1.659999999999997,0.0));
#727=DIRECTION('',(0.0,-1.0,0.0));
#728=VECTOR('',#727,0.500000000000000);
#729=LINE('',#726,#728);
#730=EDGE_CURVE('',#626,#719,#729,.T.);
#731=ORIENTED_EDGE('',*,*,#730,.F.);
#732=EDGE_LOOP('',(#709,#717,#725,#731));
#733=FACE_OUTER_BOUND('',#732,.T.);
#734=ADVANCED_FACE('',(#733),#708,.F.);
#735=CARTESIAN_POINT('',(-1.224999999999990,-2.842171E-014,0.0));
#736=DIRECTION('',(0.0,0.0,1.0));
#737=DIRECTION('',(1.0,0.0,0.0));
#738=AXIS2_PLACEMENT_3D('',#735,#736,#737);
#739=PLANE('',#738);
#740=ORIENTED_EDGE('',*,*,#671,.T.);
#741=CARTESIAN_POINT('',(-4.400000000000001,2.159999999999968,0.0));
#742=VERTEX_POINT('',#741);
#743=CARTESIAN_POINT('',(-4.400000000000001,2.159999999999968,0.0));
#744=DIRECTION('',(0.0,-1.0,0.0));
#745=VECTOR('',#744,0.500000000000000);
#746=LINE('',#743,#745);
#747=EDGE_CURVE('',#742,#658,#746,.T.);
#748=ORIENTED_EDGE('',*,*,#747,.F.);
#749=CARTESIAN_POINT('',(1.950000000000022,2.159999999999997,0.0));
#750=VERTEX_POINT('',#749);
#751=CARTESIAN_POINT('',(1.950000000000022,2.159999999999997,0.0));
#752=DIRECTION('',(-1.0,0.0,0.0));
#753=VECTOR('',#752,6.350000000000023);
#754=LINE('',#751,#753);
#755=EDGE_CURVE('',#750,#742,#754,.T.);
#756=ORIENTED_EDGE('',*,*,#755,.F.);
#757=CARTESIAN_POINT('',(1.949999999999998,1.659999999999968,0.0));
#758=DIRECTION('',(0.0,1.0,0.0));
#759=VECTOR('',#758,0.500000000000028);
#760=LINE('',#757,#759);
#761=EDGE_CURVE('',#666,#750,#760,.T.);
#762=ORIENTED_EDGE('',*,*,#761,.F.);
#763=EDGE_LOOP('',(#740,#748,#756,#762));
#764=FACE_OUTER_BOUND('',#763,.T.);
#765=ADVANCED_FACE('',(#764),#739,.F.);
#766=CARTESIAN_POINT('',(-4.400000000000001,-2.159999999999997,0.0));
#767=DIRECTION('',(-1.0,0.0,0.0));
#768=DIRECTION('',(0.0,0.0,1.0));
#769=AXIS2_PLACEMENT_3D('',#766,#767,#768);
#770=PLANE('',#769);
#771=ORIENTED_EDGE('',*,*,#663,.T.);
#772=ORIENTED_EDGE('',*,*,#698,.T.);
#773=ORIENTED_EDGE('',*,*,#637,.T.);
#774=ORIENTED_EDGE('',*,*,#730,.T.);
#775=CARTESIAN_POINT('',(-4.400000000000001,-2.159999999999997,7.110000000000000));
#776=VERTEX_POINT('',#775);
#777=CARTESIAN_POINT('',(-4.400000000000001,-2.159999999999997,0.0));
#778=DIRECTION('',(0.0,0.0,1.0));
#779=VECTOR('',#778,7.110000000000000);
#780=LINE('',#777,#779);
#781=EDGE_CURVE('',#719,#776,#780,.T.);
#782=ORIENTED_EDGE('',*,*,#781,.T.);
#783=CARTESIAN_POINT('',(-4.400000000000001,2.159999999999968,7.110000000000000));
#784=VERTEX_POINT('',#783);
#785=CARTESIAN_POINT('',(-4.400000000000001,-2.159999999999997,7.110000000000000));
#786=DIRECTION('',(0.0,1.0,0.0));
#787=VECTOR('',#786,4.319999999999965);
#788=LINE('',#785,#787);
#789=EDGE_CURVE('',#776,#784,#788,.T.);
#790=ORIENTED_EDGE('',*,*,#789,.T.);
#791=CARTESIAN_POINT('',(-4.400000000000001,2.159999999999968,0.0));
#792=DIRECTION('',(0.0,0.0,1.0));
#793=VECTOR('',#792,7.110000000000000);
#794=LINE('',#791,#793);
#795=EDGE_CURVE('',#742,#784,#794,.T.);
#796=ORIENTED_EDGE('',*,*,#795,.F.);
#797=ORIENTED_EDGE('',*,*,#747,.T.);
#798=EDGE_LOOP('',(#771,#772,#773,#774,#782,#790,#796,#797));
#799=FACE_OUTER_BOUND('',#798,.T.);
#800=ORIENTED_EDGE('',*,*,#563,.T.);
#801=ORIENTED_EDGE('',*,*,#579,.T.);
#802=EDGE_LOOP('',(#800,#801));
#803=FACE_BOUND('',#802,.T.);
#804=ADVANCED_FACE('',(#799,#803),#770,.T.);
#805=CARTESIAN_POINT('',(1.950000000000022,-2.159999999999997,0.0));
#806=DIRECTION('',(0.0,-1.0,0.0));
#807=DIRECTION('',(0.0,0.0,-1.0));
#808=AXIS2_PLACEMENT_3D('',#805,#806,#807);
#809=PLANE('',#808);
#810=CARTESIAN_POINT('',(1.950000000000022,-2.159999999999997,7.110000000000000));
#811=VERTEX_POINT('',#810);
#812=CARTESIAN_POINT('',(1.950000000000022,-2.159999999999997,7.110000000000000));
#813=DIRECTION('',(-1.0,0.0,0.0));
#814=VECTOR('',#813,6.350000000000023);
#815=LINE('',#812,#814);
#816=EDGE_CURVE('',#811,#776,#815,.T.);
#817=ORIENTED_EDGE('',*,*,#816,.T.);
#818=ORIENTED_EDGE('',*,*,#781,.F.);
#819=ORIENTED_EDGE('',*,*,#724,.T.);
#820=CARTESIAN_POINT('',(1.950000000000022,-2.159999999999997,0.0));
#821=DIRECTION('',(0.0,0.0,1.0));
#822=VECTOR('',#821,7.110000000000000);
#823=LINE('',#820,#822);
#824=EDGE_CURVE('',#711,#811,#823,.T.);
#825=ORIENTED_EDGE('',*,*,#824,.T.);
#826=EDGE_LOOP('',(#817,#818,#819,#825));
#827=FACE_OUTER_BOUND('',#826,.T.);
#828=ADVANCED_FACE('',(#827),#809,.T.);
#829=CARTESIAN_POINT('',(-4.400000000000001,2.159999999999968,0.0));
#830=DIRECTION('',(0.0,1.0,0.0));
#831=DIRECTION('',(0.0,0.0,1.0));
#832=AXIS2_PLACEMENT_3D('',#829,#830,#831);
#833=PLANE('',#832);
#834=CARTESIAN_POINT('',(1.950000000000022,2.159999999999997,7.110000000000000));
#835=VERTEX_POINT('',#834);
#836=CARTESIAN_POINT('',(-4.400000000000001,2.159999999999968,7.110000000000000));
#837=DIRECTION('',(1.0,0.0,0.0));
#838=VECTOR('',#837,6.350000000000023);
#839=LINE('',#836,#838);
#840=EDGE_CURVE('',#784,#835,#839,.T.);
#841=ORIENTED_EDGE('',*,*,#840,.T.);
#842=CARTESIAN_POINT('',(1.950000000000022,2.159999999999997,0.0));
#843=DIRECTION('',(0.0,0.0,1.0));
#844=VECTOR('',#843,7.110000000000000);
#845=LINE('',#842,#844);
#846=EDGE_CURVE('',#750,#835,#845,.T.);
#847=ORIENTED_EDGE('',*,*,#846,.F.);
#848=ORIENTED_EDGE('',*,*,#755,.T.);
#849=ORIENTED_EDGE('',*,*,#795,.T.);
#850=EDGE_LOOP('',(#841,#847,#848,#849));
#851=FACE_OUTER_BOUND('',#850,.T.);
#852=ADVANCED_FACE('',(#851),#833,.T.);
#853=CARTESIAN_POINT('',(1.950000000000022,2.159999999999997,0.0));
#854=DIRECTION('',(1.0,0.0,0.0));
#855=DIRECTION('',(0.0,0.0,-1.0));
#856=AXIS2_PLACEMENT_3D('',#853,#854,#855);
#857=PLANE('',#856);
#858=ORIENTED_EDGE('',*,*,#677,.T.);
#859=ORIENTED_EDGE('',*,*,#761,.T.);
#860=ORIENTED_EDGE('',*,*,#846,.T.);
#861=CARTESIAN_POINT('',(1.950000000000022,2.159999999999997,7.110000000000000));
#862=DIRECTION('',(0.0,-1.0,0.0));
#863=VECTOR('',#862,4.319999999999993);
#864=LINE('',#861,#863);
#865=EDGE_CURVE('',#835,#811,#864,.T.);
#866=ORIENTED_EDGE('',*,*,#865,.T.);
#867=ORIENTED_EDGE('',*,*,#824,.F.);
#868=ORIENTED_EDGE('',*,*,#716,.T.);
#869=ORIENTED_EDGE('',*,*,#623,.T.);
#870=ORIENTED_EDGE('',*,*,#691,.T.);
#871=EDGE_LOOP('',(#858,#859,#860,#866,#867,#868,#869,#870));
#872=FACE_OUTER_BOUND('',#871,.T.);
#873=ADVANCED_FACE('',(#872),#857,.T.);
#874=CARTESIAN_POINT('',(-1.224999999999990,-2.842171E-014,7.110000000000000));
#875=DIRECTION('',(0.0,0.0,1.0));
#876=DIRECTION('',(1.0,0.0,0.0));
#877=AXIS2_PLACEMENT_3D('',#874,#875,#876);
#878=PLANE('',#877);
#879=ORIENTED_EDGE('',*,*,#816,.F.);
#880=ORIENTED_EDGE('',*,*,#865,.F.);
#881=ORIENTED_EDGE('',*,*,#840,.F.);
#882=ORIENTED_EDGE('',*,*,#789,.F.);
#883=EDGE_LOOP('',(#879,#880,#881,#882));
#884=FACE_OUTER_BOUND('',#883,.T.);
#885=ADVANCED_FACE('',(#884),#878,.T.);
#886=CLOSED_SHELL('',(#567,#591,#601,#641,#681,#703,#734,#765,#804,#828,#852,#873,#885));
#887=MANIFOLD_SOLID_BREP('33D',#886);
#888=COLOUR_RGB('251',0.464000000000000,0.464000000000000,0.464000000000000);
#889=SURFACE_STYLE_USAGE(.BOTH.,#890);
#890=SURFACE_SIDE_STYLE('NONE',(#891));
#891=SURFACE_STYLE_FILL_AREA(#892);
#892=FILL_AREA_STYLE('NONE',(#893));
#893=FILL_AREA_STYLE_COLOUR('NONE',#888);
#894=PRESENTATION_STYLE_ASSIGNMENT((#889));
#895=STYLED_ITEM('NONE',(#894),#887);
#896=ADVANCED_BREP_SHAPE_REPRESENTATION('ABSR1',(#152,#250,#517,#887),#28);
#897=SHAPE_REPRESENTATION_RELATIONSHIP('SRRPL1','',#896,#62);
ENDSEC;
END-ISO-10303-21;
