ISO-10303-21;
HEADER;
/****************************************************************
 * Generated by software with PDElib inside                    *
 * PDElib Version v51a, created Wed 11/30/2011                  *
 * ITI Transcendata (http://www.transcendata.com/)              *
 ****************************************************************/
FILE_DESCRIPTION((''),'2;1');
FILE_NAME('LED_VISHAY_VLMS3000.stp','2014-12-10T12:53:05',(''),(''),'Mechanical Desktop 2011','Mechanical Desktop 2011',', , ');
FILE_SCHEMA(('AUTOMOTIVE_DESIGN { 1 2 10303 214 1 1 1 1 }'));
ENDSEC;
DATA;
#10=(NAMED_UNIT(*)PLANE_ANGLE_UNIT()SI_UNIT($,.RADIAN.));
#11=DIMENSIONAL_EXPONENTS(0.0,0.0,0.0,0.0,0.0,0.0,0.0);
#12=PLANE_ANGLE_MEASURE_WITH_UNIT(PLANE_ANGLE_MEASURE(0.0174532925),#10);
#16=(CONVERSION_BASED_UNIT('DEGREE',#12)NAMED_UNIT(#11)PLANE_ANGLE_UNIT());
#20=(NAMED_UNIT(*)SI_UNIT($,.STERADIAN.)SOLID_ANGLE_UNIT());
#24=(LENGTH_UNIT()NAMED_UNIT(*)SI_UNIT(.MILLI.,.METRE.));
#26=UNCERTAINTY_MEASURE_WITH_UNIT(LENGTH_MEASURE(0.000001),#24,'DISTANCE_ACCURACY_VALUE','');
#28=(GEOMETRIC_REPRESENTATION_CONTEXT(3)GLOBAL_UNCERTAINTY_ASSIGNED_CONTEXT((#26))GLOBAL_UNIT_ASSIGNED_CONTEXT((#16,#20,#24))REPRESENTATION_CONTEXT('','3D'));
#29=APPLICATION_CONTEXT('automotive design');
#30=APPLICATION_PROTOCOL_DEFINITION('INTERNATIONAL_STANDARD','automotive_design',1998,#29);
#31=PRODUCT_CONTEXT('3D Mechanical Parts',#29,'mechanical');
#32=PRODUCT('Product','Product','',(#31));
#33=PRODUCT_RELATED_PRODUCT_CATEGORY('part',$,(#32));
#34=PRODUCT_CATEGORY('part',$);
#35=PERSON('1','Design','Joe',$,$,$);
#36=ORGANIZATION($,'None','None');
#37=PERSON_AND_ORGANIZATION(#35,#36);
#38=PERSON_AND_ORGANIZATION_ROLE('design_owner');
#39=APPLIED_PERSON_AND_ORGANIZATION_ASSIGNMENT(#37,#38,(#32));
#40=PRODUCT_DEFINITION_FORMATION_WITH_SPECIFIED_SOURCE('None','',#32,.BOUGHT.);
#41=PERSON('2','Creator','Joe',$,$,$);
#42=ORGANIZATION($,'None','None');
#43=PERSON_AND_ORGANIZATION(#41,#42);
#44=PERSON_AND_ORGANIZATION_ROLE('creator');
#45=APPLIED_PERSON_AND_ORGANIZATION_ASSIGNMENT(#43,#44,(#40));
#46=PERSON('3','Supplier','Joe',$,$,$);
#47=ORGANIZATION($,'None','None');
#48=PERSON_AND_ORGANIZATION(#46,#47);
#49=PERSON_AND_ORGANIZATION_ROLE('design_supplier');
#50=APPLIED_PERSON_AND_ORGANIZATION_ASSIGNMENT(#48,#49,(#40));
#51=PRODUCT_DEFINITION_CONTEXT('part definition',#29,'design');
#52=PRODUCT_DEFINITION('None','',#40,#51);
#53=PERSON('4','Creator','Joe',$,$,$);
#54=ORGANIZATION($,'None','None');
#55=PERSON_AND_ORGANIZATION(#53,#54);
#56=PERSON_AND_ORGANIZATION_ROLE('creator');
#57=APPLIED_PERSON_AND_ORGANIZATION_ASSIGNMENT(#55,#56,(#52));
#58=CARTESIAN_POINT('NONE',(0.0,0.0,0.0));
#59=DIRECTION('NONE',(0.0,0.0,1.0));
#60=DIRECTION('NONE',(1.0,0.0,0.0));
#61=AXIS2_PLACEMENT_3D('NONE',#58,#59,#60);
#62=SHAPE_REPRESENTATION('SR1',(#61),#28);
#63=PRODUCT_DEFINITION_SHAPE('PDS1','Test Part',#52);
#64=SHAPE_DEFINITION_REPRESENTATION(#63,#62);
#65=CARTESIAN_POINT('',(1.110223E-016,0.0,1.65));
#66=DIRECTION('',(0.0,0.0,-1.0));
#67=DIRECTION('',(1.0,0.0,0.0));
#68=AXIS2_PLACEMENT_3D('',#65,#66,#67);
#69=CYLINDRICAL_SURFACE('',#68,1.2);
#70=CARTESIAN_POINT('',(1.2,0.0,1.55));
#71=VERTEX_POINT('',#70);
#72=CARTESIAN_POINT('',(1.2,0.0,1.65));
#73=VERTEX_POINT('',#72);
#74=CARTESIAN_POINT('',(1.2,0.0,1.55));
#75=DIRECTION('',(0.0,0.0,1.0));
#76=VECTOR('',#75,0.1);
#77=LINE('',#74,#76);
#78=EDGE_CURVE('',#71,#73,#77,.T.);
#79=ORIENTED_EDGE('',*,*,#78,.F.);
#80=CARTESIAN_POINT('',(-1.2,1.469576E-016,1.55));
#81=VERTEX_POINT('',#80);
#82=CARTESIAN_POINT('',(1.110223E-016,0.0,1.55));
#83=DIRECTION('',(0.0,0.0,1.0));
#84=DIRECTION('',(1.0,0.0,0.0));
#85=AXIS2_PLACEMENT_3D('',#82,#83,#84);
#86=CIRCLE('',#85,1.2);
#87=EDGE_CURVE('',#71,#81,#86,.T.);
#88=ORIENTED_EDGE('',*,*,#87,.T.);
#89=CARTESIAN_POINT('',(-1.2,1.469576E-016,1.65));
#90=VERTEX_POINT('',#89);
#91=CARTESIAN_POINT('',(-1.2,1.469576E-016,1.55));
#92=DIRECTION('',(0.0,0.0,1.0));
#93=VECTOR('',#92,0.1);
#94=LINE('',#91,#93);
#95=EDGE_CURVE('',#81,#90,#94,.T.);
#96=ORIENTED_EDGE('',*,*,#95,.T.);
#97=CARTESIAN_POINT('',(1.110223E-016,0.0,1.65));
#98=DIRECTION('',(0.0,0.0,1.0));
#99=DIRECTION('',(1.0,0.0,0.0));
#100=AXIS2_PLACEMENT_3D('',#97,#98,#99);
#101=CIRCLE('',#100,1.2);
#102=EDGE_CURVE('',#73,#90,#101,.T.);
#103=ORIENTED_EDGE('',*,*,#102,.F.);
#104=EDGE_LOOP('',(#79,#88,#96,#103));
#105=FACE_OUTER_BOUND('',#104,.T.);
#106=ADVANCED_FACE('',(#105),#69,.T.);
#107=CARTESIAN_POINT('',(1.110223E-016,0.0,1.65));
#108=DIRECTION('',(0.0,0.0,-1.0));
#109=DIRECTION('',(1.0,0.0,0.0));
#110=AXIS2_PLACEMENT_3D('',#107,#108,#109);
#111=CYLINDRICAL_SURFACE('',#110,1.2);
#112=ORIENTED_EDGE('',*,*,#78,.T.);
#113=CARTESIAN_POINT('',(1.110223E-016,0.0,1.65));
#114=DIRECTION('',(0.0,0.0,1.0));
#115=DIRECTION('',(1.0,0.0,0.0));
#116=AXIS2_PLACEMENT_3D('',#113,#114,#115);
#117=CIRCLE('',#116,1.2);
#118=EDGE_CURVE('',#90,#73,#117,.T.);
#119=ORIENTED_EDGE('',*,*,#118,.F.);
#120=ORIENTED_EDGE('',*,*,#95,.F.);
#121=CARTESIAN_POINT('',(1.110223E-016,0.0,1.55));
#122=DIRECTION('',(0.0,0.0,1.0));
#123=DIRECTION('',(1.0,0.0,0.0));
#124=AXIS2_PLACEMENT_3D('',#121,#122,#123);
#125=CIRCLE('',#124,1.2);
#126=EDGE_CURVE('',#81,#71,#125,.T.);
#127=ORIENTED_EDGE('',*,*,#126,.T.);
#128=EDGE_LOOP('',(#112,#119,#120,#127));
#129=FACE_OUTER_BOUND('',#128,.T.);
#130=ADVANCED_FACE('',(#129),#111,.T.);
#131=CARTESIAN_POINT('',(1.110223E-016,0.0,1.55));
#132=DIRECTION('',(0.0,0.0,1.0));
#133=DIRECTION('',(1.0,0.0,0.0));
#134=AXIS2_PLACEMENT_3D('',#131,#132,#133);
#135=PLANE('',#134);
#136=ORIENTED_EDGE('',*,*,#87,.F.);
#137=ORIENTED_EDGE('',*,*,#126,.F.);
#138=EDGE_LOOP('',(#136,#137));
#139=FACE_OUTER_BOUND('',#138,.T.);
#140=ADVANCED_FACE('',(#139),#135,.F.);
#141=CARTESIAN_POINT('',(1.110223E-016,0.0,1.65));
#142=DIRECTION('',(0.0,0.0,1.0));
#143=DIRECTION('',(1.0,0.0,0.0));
#144=AXIS2_PLACEMENT_3D('',#141,#142,#143);
#145=PLANE('',#144);
#146=ORIENTED_EDGE('',*,*,#102,.T.);
#147=ORIENTED_EDGE('',*,*,#118,.T.);
#148=EDGE_LOOP('',(#146,#147));
#149=FACE_OUTER_BOUND('',#148,.T.);
#150=ADVANCED_FACE('',(#149),#145,.T.);
#151=CLOSED_SHELL('',(#106,#130,#140,#150));
#152=MANIFOLD_SOLID_BREP('2236',#151);
#153=DRAUGHTING_PRE_DEFINED_COLOUR('red');
#154=SURFACE_STYLE_USAGE(.BOTH.,#155);
#155=SURFACE_SIDE_STYLE('NONE',(#156));
#156=SURFACE_STYLE_FILL_AREA(#157);
#157=FILL_AREA_STYLE('NONE',(#158));
#158=FILL_AREA_STYLE_COLOUR('NONE',#153);
#159=PRESENTATION_STYLE_ASSIGNMENT((#154));
#160=STYLED_ITEM('NONE',(#159),#152);
#161=MECHANICAL_DESIGN_GEOMETRIC_PRESENTATION_REPRESENTATION('NONE',(#160,#466,#749,#1758,#1909,#2060),#28);
#162=PRESENTATION_LAYER_ASSIGNMENT('3D','None',(#152,#458,#748,#1750,#1908,#2059));
#163=CARTESIAN_POINT('',(1.110223E-016,0.0,1.75));
#164=DIRECTION('',(0.0,0.0,-1.0));
#165=DIRECTION('',(1.0,0.0,0.0));
#166=AXIS2_PLACEMENT_3D('',#163,#164,#165);
#167=CYLINDRICAL_SURFACE('',#166,1.2);
#168=CARTESIAN_POINT('',(1.2,0.0,1.75));
#169=VERTEX_POINT('',#168);
#170=CARTESIAN_POINT('',(1.2,0.0,1.55));
#171=VERTEX_POINT('',#170);
#172=CARTESIAN_POINT('',(1.2,0.0,1.75));
#173=DIRECTION('',(0.0,0.0,-1.0));
#174=VECTOR('',#173,0.2);
#175=LINE('',#172,#174);
#176=EDGE_CURVE('',#169,#171,#175,.T.);
#177=ORIENTED_EDGE('',*,*,#176,.F.);
#178=CARTESIAN_POINT('',(-1.2,1.469576E-016,1.75));
#179=VERTEX_POINT('',#178);
#180=CARTESIAN_POINT('',(1.110223E-016,0.0,1.75));
#181=DIRECTION('',(0.0,0.0,-1.0));
#182=DIRECTION('',(1.0,0.0,0.0));
#183=AXIS2_PLACEMENT_3D('',#180,#181,#182);
#184=CIRCLE('',#183,1.2);
#185=EDGE_CURVE('',#179,#169,#184,.T.);
#186=ORIENTED_EDGE('',*,*,#185,.F.);
#187=CARTESIAN_POINT('',(-1.2,1.469576E-016,1.55));
#188=VERTEX_POINT('',#187);
#189=CARTESIAN_POINT('',(-1.2,1.469576E-016,1.75));
#190=DIRECTION('',(0.0,0.0,-1.0));
#191=VECTOR('',#190,0.2);
#192=LINE('',#189,#191);
#193=EDGE_CURVE('',#179,#188,#192,.T.);
#194=ORIENTED_EDGE('',*,*,#193,.T.);
#195=CARTESIAN_POINT('',(1.110223E-016,0.0,1.55));
#196=DIRECTION('',(0.0,0.0,1.0));
#197=DIRECTION('',(1.0,0.0,0.0));
#198=AXIS2_PLACEMENT_3D('',#195,#196,#197);
#199=CIRCLE('',#198,1.2);
#200=EDGE_CURVE('',#171,#188,#199,.T.);
#201=ORIENTED_EDGE('',*,*,#200,.F.);
#202=EDGE_LOOP('',(#177,#186,#194,#201));
#203=FACE_OUTER_BOUND('',#202,.T.);
#204=ADVANCED_FACE('',(#203),#167,.F.);
#205=CARTESIAN_POINT('',(-1.398223304703363,1.248223304703363,1.2875));
#206=DIRECTION('',(0.0,0.0,1.0));
#207=DIRECTION('',(1.0,0.0,0.0));
#208=AXIS2_PLACEMENT_3D('',#205,#206,#207);
#209=PLANE('',#208);
#210=CARTESIAN_POINT('',(-1.55,0.95,1.2875));
#211=VERTEX_POINT('',#210);
#212=CARTESIAN_POINT('',(-1.55,1.4,1.2875));
#213=VERTEX_POINT('',#212);
#214=CARTESIAN_POINT('',(-1.55,0.95,1.2875));
#215=DIRECTION('',(0.0,1.0,0.0));
#216=VECTOR('',#215,0.45);
#217=LINE('',#214,#216);
#218=EDGE_CURVE('',#211,#213,#217,.T.);
#219=ORIENTED_EDGE('',*,*,#218,.F.);
#220=CARTESIAN_POINT('',(-1.099999999999999,1.4,1.2875));
#221=VERTEX_POINT('',#220);
#222=CARTESIAN_POINT('',(-1.099999999999999,1.4,1.2875));
#223=DIRECTION('',(-0.707106781186548,-0.707106781186547,0.0));
#224=VECTOR('',#223,0.636396103067893);
#225=LINE('',#222,#224);
#226=EDGE_CURVE('',#221,#211,#225,.T.);
#227=ORIENTED_EDGE('',*,*,#226,.F.);
#228=CARTESIAN_POINT('',(-1.55,1.4,1.2875));
#229=DIRECTION('',(1.0,0.0,0.0));
#230=VECTOR('',#229,0.45);
#231=LINE('',#228,#230);
#232=EDGE_CURVE('',#213,#221,#231,.T.);
#233=ORIENTED_EDGE('',*,*,#232,.F.);
#234=EDGE_LOOP('',(#219,#227,#233));
#235=FACE_OUTER_BOUND('',#234,.T.);
#236=ADVANCED_FACE('',(#235),#209,.T.);
#237=CARTESIAN_POINT('',(-1.075,1.424999999999999,1.2875));
#238=DIRECTION('',(0.707106781186547,-0.707106781186548,0.0));
#239=DIRECTION('',(0.0,0.0,-1.0));
#240=AXIS2_PLACEMENT_3D('',#237,#238,#239);
#241=PLANE('',#240);
#242=CARTESIAN_POINT('',(-1.525,0.975,1.75));
#243=VERTEX_POINT('',#242);
#244=CARTESIAN_POINT('',(-1.525,0.975,1.75));
#245=DIRECTION('',(-0.05389680556363,-0.05389680556363,-0.997090902927147));
#246=VECTOR('',#245,0.463849382881987);
#247=LINE('',#244,#246);
#248=EDGE_CURVE('',#243,#211,#247,.T.);
#249=ORIENTED_EDGE('',*,*,#248,.F.);
#250=CARTESIAN_POINT('',(-1.125,1.375,1.75));
#251=VERTEX_POINT('',#250);
#252=CARTESIAN_POINT('',(-1.125,1.375,1.75));
#253=DIRECTION('',(-0.707106781186548,-0.707106781186547,0.0));
#254=VECTOR('',#253,0.565685424949238);
#255=LINE('',#252,#254);
#256=EDGE_CURVE('',#251,#243,#255,.T.);
#257=ORIENTED_EDGE('',*,*,#256,.F.);
#258=CARTESIAN_POINT('',(-1.099999999999999,1.4,1.2875));
#259=DIRECTION('',(-0.05389680556363,-0.05389680556363,0.997090902927147));
#260=VECTOR('',#259,0.463849382881987);
#261=LINE('',#258,#260);
#262=EDGE_CURVE('',#221,#251,#261,.T.);
#263=ORIENTED_EDGE('',*,*,#262,.F.);
#264=ORIENTED_EDGE('',*,*,#226,.T.);
#265=EDGE_LOOP('',(#249,#257,#263,#264));
#266=FACE_OUTER_BOUND('',#265,.T.);
#267=ADVANCED_FACE('',(#266),#241,.F.);
#268=CARTESIAN_POINT('',(-1.55,-0.7125,1.287500000000001));
#269=DIRECTION('',(-0.998542273277508,-1.555936E-016,0.053975258015001));
#270=DIRECTION('',(0.053975258015001,0.0,0.998542273277508));
#271=AXIS2_PLACEMENT_3D('',#268,#269,#270);
#272=PLANE('',#271);
#273=ORIENTED_EDGE('',*,*,#248,.T.);
#274=ORIENTED_EDGE('',*,*,#218,.T.);
#275=CARTESIAN_POINT('',(-1.575,1.425,0.825));
#276=VERTEX_POINT('',#275);
#277=CARTESIAN_POINT('',(-1.55,1.4,1.2875));
#278=DIRECTION('',(-0.05389680556363,0.053896805563629,-0.997090902927147));
#279=VECTOR('',#278,0.463849382881987);
#280=LINE('',#277,#279);
#281=EDGE_CURVE('',#213,#276,#280,.T.);
#282=ORIENTED_EDGE('',*,*,#281,.T.);
#283=CARTESIAN_POINT('',(-1.575,-1.425,0.825));
#284=VERTEX_POINT('',#283);
#285=CARTESIAN_POINT('',(-1.575,-1.425,0.825));
#286=DIRECTION('',(0.0,1.0,0.0));
#287=VECTOR('',#286,2.85);
#288=LINE('',#285,#287);
#289=EDGE_CURVE('',#284,#276,#288,.T.);
#290=ORIENTED_EDGE('',*,*,#289,.F.);
#291=CARTESIAN_POINT('',(-1.525,-1.375,1.75));
#292=VERTEX_POINT('',#291);
#293=CARTESIAN_POINT('',(-1.525,-1.375,1.75));
#294=DIRECTION('',(-0.05389680556363,-0.05389680556363,-0.997090902927147));
#295=VECTOR('',#294,0.927698765763974);
#296=LINE('',#293,#295);
#297=EDGE_CURVE('',#292,#284,#296,.T.);
#298=ORIENTED_EDGE('',*,*,#297,.F.);
#299=CARTESIAN_POINT('',(-1.525,-1.375,1.75));
#300=DIRECTION('',(0.0,1.0,0.0));
#301=VECTOR('',#300,2.35);
#302=LINE('',#299,#301);
#303=EDGE_CURVE('',#292,#243,#302,.T.);
#304=ORIENTED_EDGE('',*,*,#303,.T.);
#305=EDGE_LOOP('',(#273,#274,#282,#290,#298,#304));
#306=FACE_OUTER_BOUND('',#305,.T.);
#307=ADVANCED_FACE('',(#306),#272,.T.);
#308=CARTESIAN_POINT('',(-0.7875,1.4,1.287500000000001));
#309=DIRECTION('',(1.601177E-034,0.998542273277508,0.053975258015));
#310=DIRECTION('',(0.0,-0.053975258015,0.998542273277508));
#311=AXIS2_PLACEMENT_3D('',#308,#309,#310);
#312=PLANE('',#311);
#313=ORIENTED_EDGE('',*,*,#232,.T.);
#314=ORIENTED_EDGE('',*,*,#262,.T.);
#315=CARTESIAN_POINT('',(1.525,1.375,1.75));
#316=VERTEX_POINT('',#315);
#317=CARTESIAN_POINT('',(-1.125,1.375,1.75));
#318=DIRECTION('',(1.0,0.0,0.0));
#319=VECTOR('',#318,2.65);
#320=LINE('',#317,#319);
#321=EDGE_CURVE('',#251,#316,#320,.T.);
#322=ORIENTED_EDGE('',*,*,#321,.T.);
#323=CARTESIAN_POINT('',(1.575,1.425,0.825));
#324=VERTEX_POINT('',#323);
#325=CARTESIAN_POINT('',(1.525,1.375,1.75));
#326=DIRECTION('',(0.05389680556363,0.05389680556363,-0.997090902927147));
#327=VECTOR('',#326,0.927698765763974);
#328=LINE('',#325,#327);
#329=EDGE_CURVE('',#316,#324,#328,.T.);
#330=ORIENTED_EDGE('',*,*,#329,.T.);
#331=CARTESIAN_POINT('',(-1.575,1.425,0.825));
#332=DIRECTION('',(1.0,0.0,0.0));
#333=VECTOR('',#332,3.15);
#334=LINE('',#331,#333);
#335=EDGE_CURVE('',#276,#324,#334,.T.);
#336=ORIENTED_EDGE('',*,*,#335,.F.);
#337=ORIENTED_EDGE('',*,*,#281,.F.);
#338=EDGE_LOOP('',(#313,#314,#322,#330,#336,#337));
#339=FACE_OUTER_BOUND('',#338,.T.);
#340=ADVANCED_FACE('',(#339),#312,.T.);
#341=CARTESIAN_POINT('',(1.110223E-016,0.0,1.55));
#342=DIRECTION('',(0.0,0.0,1.0));
#343=DIRECTION('',(1.0,0.0,0.0));
#344=AXIS2_PLACEMENT_3D('',#341,#342,#343);
#345=PLANE('',#344);
#346=ORIENTED_EDGE('',*,*,#200,.T.);
#347=CARTESIAN_POINT('',(1.110223E-016,0.0,1.55));
#348=DIRECTION('',(0.0,0.0,1.0));
#349=DIRECTION('',(1.0,0.0,0.0));
#350=AXIS2_PLACEMENT_3D('',#347,#348,#349);
#351=CIRCLE('',#350,1.2);
#352=EDGE_CURVE('',#188,#171,#351,.T.);
#353=ORIENTED_EDGE('',*,*,#352,.T.);
#354=EDGE_LOOP('',(#346,#353));
#355=FACE_OUTER_BOUND('',#354,.T.);
#356=ADVANCED_FACE('',(#355),#345,.T.);
#357=CARTESIAN_POINT('',(1.110223E-016,0.0,1.75));
#358=DIRECTION('',(0.0,0.0,-1.0));
#359=DIRECTION('',(1.0,0.0,0.0));
#360=AXIS2_PLACEMENT_3D('',#357,#358,#359);
#361=CYLINDRICAL_SURFACE('',#360,1.2);
#362=ORIENTED_EDGE('',*,*,#176,.T.);
#363=ORIENTED_EDGE('',*,*,#352,.F.);
#364=ORIENTED_EDGE('',*,*,#193,.F.);
#365=CARTESIAN_POINT('',(1.110223E-016,0.0,1.75));
#366=DIRECTION('',(0.0,0.0,-1.0));
#367=DIRECTION('',(1.0,0.0,0.0));
#368=AXIS2_PLACEMENT_3D('',#365,#366,#367);
#369=CIRCLE('',#368,1.2);
#370=EDGE_CURVE('',#169,#179,#369,.T.);
#371=ORIENTED_EDGE('',*,*,#370,.F.);
#372=EDGE_LOOP('',(#362,#363,#364,#371));
#373=FACE_OUTER_BOUND('',#372,.T.);
#374=ADVANCED_FACE('',(#373),#361,.F.);
#375=CARTESIAN_POINT('',(1.55,0.7125,1.287500000000001));
#376=DIRECTION('',(0.998542273277508,7.824032E-034,0.053975258015));
#377=DIRECTION('',(0.053975258015,0.0,-0.998542273277508));
#378=AXIS2_PLACEMENT_3D('',#375,#376,#377);
#379=PLANE('',#378);
#380=CARTESIAN_POINT('',(1.525,-1.375,1.75));
#381=VERTEX_POINT('',#380);
#382=CARTESIAN_POINT('',(1.525,1.375,1.75));
#383=DIRECTION('',(0.0,-1.0,0.0));
#384=VECTOR('',#383,2.749999999999999);
#385=LINE('',#382,#384);
#386=EDGE_CURVE('',#316,#381,#385,.T.);
#387=ORIENTED_EDGE('',*,*,#386,.T.);
#388=CARTESIAN_POINT('',(1.575,-1.425,0.825));
#389=VERTEX_POINT('',#388);
#390=CARTESIAN_POINT('',(1.525,-1.375,1.75));
#391=DIRECTION('',(0.05389680556363,-0.05389680556363,-0.997090902927147));
#392=VECTOR('',#391,0.927698765763974);
#393=LINE('',#390,#392);
#394=EDGE_CURVE('',#381,#389,#393,.T.);
#395=ORIENTED_EDGE('',*,*,#394,.T.);
#396=CARTESIAN_POINT('',(1.575,1.425,0.825));
#397=DIRECTION('',(0.0,-1.0,0.0));
#398=VECTOR('',#397,2.85);
#399=LINE('',#396,#398);
#400=EDGE_CURVE('',#324,#389,#399,.T.);
#401=ORIENTED_EDGE('',*,*,#400,.F.);
#402=ORIENTED_EDGE('',*,*,#329,.F.);
#403=EDGE_LOOP('',(#387,#395,#401,#402));
#404=FACE_OUTER_BOUND('',#403,.T.);
#405=ADVANCED_FACE('',(#404),#379,.T.);
#406=CARTESIAN_POINT('',(0.7875,-1.4,1.287500000000001));
#407=DIRECTION('',(1.601177E-034,-0.998542273277508,0.053975258015));
#408=DIRECTION('',(0.0,-0.053975258015,-0.998542273277508));
#409=AXIS2_PLACEMENT_3D('',#406,#407,#408);
#410=PLANE('',#409);
#411=CARTESIAN_POINT('',(1.525,-1.375,1.75));
#412=DIRECTION('',(-1.0,0.0,0.0));
#413=VECTOR('',#412,3.049999999999999);
#414=LINE('',#411,#413);
#415=EDGE_CURVE('',#381,#292,#414,.T.);
#416=ORIENTED_EDGE('',*,*,#415,.T.);
#417=ORIENTED_EDGE('',*,*,#297,.T.);
#418=CARTESIAN_POINT('',(1.575,-1.425,0.825));
#419=DIRECTION('',(-1.0,0.0,0.0));
#420=VECTOR('',#419,3.15);
#421=LINE('',#418,#420);
#422=EDGE_CURVE('',#389,#284,#421,.T.);
#423=ORIENTED_EDGE('',*,*,#422,.F.);
#424=ORIENTED_EDGE('',*,*,#394,.F.);
#425=EDGE_LOOP('',(#416,#417,#423,#424));
#426=FACE_OUTER_BOUND('',#425,.T.);
#427=ADVANCED_FACE('',(#426),#410,.T.);
#428=CARTESIAN_POINT('',(5.551115E-017,-1.917658E-017,1.75));
#429=DIRECTION('',(0.0,0.0,1.0));
#430=DIRECTION('',(1.0,0.0,0.0));
#431=AXIS2_PLACEMENT_3D('',#428,#429,#430);
#432=PLANE('',#431);
#433=ORIENTED_EDGE('',*,*,#256,.T.);
#434=ORIENTED_EDGE('',*,*,#303,.F.);
#435=ORIENTED_EDGE('',*,*,#415,.F.);
#436=ORIENTED_EDGE('',*,*,#386,.F.);
#437=ORIENTED_EDGE('',*,*,#321,.F.);
#438=EDGE_LOOP('',(#433,#434,#435,#436,#437));
#439=FACE_OUTER_BOUND('',#438,.T.);
#440=ORIENTED_EDGE('',*,*,#370,.T.);
#441=ORIENTED_EDGE('',*,*,#185,.T.);
#442=EDGE_LOOP('',(#440,#441));
#443=FACE_BOUND('',#442,.T.);
#444=ADVANCED_FACE('',(#439,#443),#432,.T.);
#445=CARTESIAN_POINT('',(5.551115E-017,1.917658E-017,0.825));
#446=DIRECTION('',(0.0,0.0,1.0));
#447=DIRECTION('',(1.0,0.0,0.0));
#448=AXIS2_PLACEMENT_3D('',#445,#446,#447);
#449=PLANE('',#448);
#450=ORIENTED_EDGE('',*,*,#335,.T.);
#451=ORIENTED_EDGE('',*,*,#400,.T.);
#452=ORIENTED_EDGE('',*,*,#422,.T.);
#453=ORIENTED_EDGE('',*,*,#289,.T.);
#454=EDGE_LOOP('',(#450,#451,#452,#453));
#455=FACE_OUTER_BOUND('',#454,.T.);
#456=ADVANCED_FACE('',(#455),#449,.F.);
#457=CLOSED_SHELL('',(#204,#236,#267,#307,#340,#356,#374,#405,#427,#444,#456));
#458=MANIFOLD_SOLID_BREP('2225',#457);
#459=COLOUR_RGB('255',1.0,1.0,1.0);
#460=SURFACE_STYLE_USAGE(.BOTH.,#461);
#461=SURFACE_SIDE_STYLE('NONE',(#462));
#462=SURFACE_STYLE_FILL_AREA(#463);
#463=FILL_AREA_STYLE('NONE',(#464));
#464=FILL_AREA_STYLE_COLOUR('NONE',#459);
#465=PRESENTATION_STYLE_ASSIGNMENT((#460));
#466=STYLED_ITEM('NONE',(#465),#458);
#467=CARTESIAN_POINT('',(0.75,-1.384090909090909,0.15));
#468=CARTESIAN_POINT('',(0.75,-1.384090909090909,-2.775558E-017));
#469=CARTESIAN_POINT('',(0.75,1.384090909090909,0.15));
#470=CARTESIAN_POINT('',(0.75,1.384090909090909,-2.775558E-017));
#471=B_SPLINE_SURFACE_WITH_KNOTS('',1,1,((#467,#469),(#468,#470)),.UNSPECIFIED.,.F.,.F.,.U.,(2,2),(2,2),(0.0,0.15),(0.0,2.768181818181818),.UNSPECIFIED.);
#472=CARTESIAN_POINT('',(0.75,-1.375,0.0));
#473=VERTEX_POINT('',#472);
#474=CARTESIAN_POINT('',(0.75,-1.384090909090909,0.15));
#475=VERTEX_POINT('',#474);
#476=CARTESIAN_POINT('',(0.75,-1.375,-2.775558E-017));
#477=DIRECTION('',(0.0,-0.06049506040189,0.998168496631191));
#478=VECTOR('',#477,0.150275229589241);
#479=LINE('',#476,#478);
#480=EDGE_CURVE('',#473,#475,#479,.T.);
#481=ORIENTED_EDGE('',*,*,#480,.F.);
#482=CARTESIAN_POINT('',(0.75,1.375,0.0));
#483=VERTEX_POINT('',#482);
#484=CARTESIAN_POINT('',(0.75,1.375,0.0));
#485=DIRECTION('',(0.0,-1.0,0.0));
#486=VECTOR('',#485,2.75);
#487=LINE('',#484,#486);
#488=EDGE_CURVE('',#483,#473,#487,.T.);
#489=ORIENTED_EDGE('',*,*,#488,.F.);
#490=CARTESIAN_POINT('',(0.75,1.384090909090909,0.15));
#491=VERTEX_POINT('',#490);
#492=CARTESIAN_POINT('',(0.75,1.384090909090909,0.15));
#493=DIRECTION('',(0.0,-0.06049506040189,-0.998168496631191));
#494=VECTOR('',#493,0.150275229589241);
#495=LINE('',#492,#494);
#496=EDGE_CURVE('',#491,#483,#495,.T.);
#497=ORIENTED_EDGE('',*,*,#496,.F.);
#498=CARTESIAN_POINT('',(0.75,-1.384090909090909,0.15));
#499=DIRECTION('',(0.0,1.0,0.0));
#500=VECTOR('',#499,2.768181818181818);
#501=LINE('',#498,#500);
#502=EDGE_CURVE('',#475,#491,#501,.T.);
#503=ORIENTED_EDGE('',*,*,#502,.F.);
#504=EDGE_LOOP('',(#481,#489,#497,#503));
#505=FACE_OUTER_BOUND('',#504,.T.);
#506=ADVANCED_FACE('',(#505),#471,.T.);
#507=CARTESIAN_POINT('',(1.575,-1.384090909090909,0.15));
#508=CARTESIAN_POINT('',(0.75,-1.384090909090909,0.15));
#509=CARTESIAN_POINT('',(1.575,1.384090909090909,0.15));
#510=CARTESIAN_POINT('',(0.749999999999999,1.384090909090909,0.15));
#511=B_SPLINE_SURFACE_WITH_KNOTS('',1,1,((#507,#509),(#508,#510)),.UNSPECIFIED.,.F.,.F.,.U.,(2,2),(2,2),(0.0,0.825),(0.0,2.768181818181818),.UNSPECIFIED.);
#512=CARTESIAN_POINT('',(1.574999999999999,-1.384090909090909,0.15));
#513=VERTEX_POINT('',#512);
#514=CARTESIAN_POINT('',(0.75,-1.384090909090909,0.15));
#515=DIRECTION('',(1.0,0.0,0.0));
#516=VECTOR('',#515,0.824999999999999);
#517=LINE('',#514,#516);
#518=EDGE_CURVE('',#475,#513,#517,.T.);
#519=ORIENTED_EDGE('',*,*,#518,.F.);
#520=ORIENTED_EDGE('',*,*,#502,.T.);
#521=CARTESIAN_POINT('',(1.574999999999999,1.384090909090909,0.15));
#522=VERTEX_POINT('',#521);
#523=CARTESIAN_POINT('',(1.574999999999999,1.384090909090909,0.15));
#524=DIRECTION('',(-1.0,0.0,0.0));
#525=VECTOR('',#524,0.824999999999999);
#526=LINE('',#523,#525);
#527=EDGE_CURVE('',#522,#491,#526,.T.);
#528=ORIENTED_EDGE('',*,*,#527,.F.);
#529=CARTESIAN_POINT('',(1.575,-1.384090909090909,0.15));
#530=DIRECTION('',(0.0,1.0,0.0));
#531=VECTOR('',#530,2.768181818181818);
#532=LINE('',#529,#531);
#533=EDGE_CURVE('',#513,#522,#532,.T.);
#534=ORIENTED_EDGE('',*,*,#533,.F.);
#535=EDGE_LOOP('',(#519,#520,#528,#534));
#536=FACE_OUTER_BOUND('',#535,.T.);
#537=ADVANCED_FACE('',(#536),#511,.T.);
#538=CARTESIAN_POINT('',(-0.75,-2.220446E-016,0.075));
#539=DIRECTION('',(-1.0,0.0,0.0));
#540=DIRECTION('',(0.0,0.0,-1.0));
#541=AXIS2_PLACEMENT_3D('',#538,#539,#540);
#542=PLANE('',#541);
#543=CARTESIAN_POINT('',(-0.75,1.375,0.0));
#544=VERTEX_POINT('',#543);
#545=CARTESIAN_POINT('',(-0.75,1.384090909090909,0.15));
#546=VERTEX_POINT('',#545);
#547=CARTESIAN_POINT('',(-0.75,1.375,-2.775558E-017));
#548=DIRECTION('',(0.0,0.06049506040189,0.998168496631191));
#549=VECTOR('',#548,0.150275229589241);
#550=LINE('',#547,#549);
#551=EDGE_CURVE('',#544,#546,#550,.T.);
#552=ORIENTED_EDGE('',*,*,#551,.F.);
#553=CARTESIAN_POINT('',(-0.75,-1.375,0.0));
#554=VERTEX_POINT('',#553);
#555=CARTESIAN_POINT('',(-0.75,-1.375,0.0));
#556=DIRECTION('',(0.0,1.0,0.0));
#557=VECTOR('',#556,2.75);
#558=LINE('',#555,#557);
#559=EDGE_CURVE('',#554,#544,#558,.T.);
#560=ORIENTED_EDGE('',*,*,#559,.F.);
#561=CARTESIAN_POINT('',(-0.75,-1.384090909090909,0.15));
#562=VERTEX_POINT('',#561);
#563=CARTESIAN_POINT('',(-0.75,-1.384090909090909,0.15));
#564=DIRECTION('',(0.0,0.06049506040189,-0.998168496631191));
#565=VECTOR('',#564,0.150275229589241);
#566=LINE('',#563,#565);
#567=EDGE_CURVE('',#562,#554,#566,.T.);
#568=ORIENTED_EDGE('',*,*,#567,.F.);
#569=CARTESIAN_POINT('',(-0.75,-1.384090909090909,0.15));
#570=DIRECTION('',(0.0,1.0,0.0));
#571=VECTOR('',#570,2.768181818181818);
#572=LINE('',#569,#571);
#573=EDGE_CURVE('',#562,#546,#572,.T.);
#574=ORIENTED_EDGE('',*,*,#573,.T.);
#575=EDGE_LOOP('',(#552,#560,#568,#574));
#576=FACE_OUTER_BOUND('',#575,.T.);
#577=ADVANCED_FACE('',(#576),#542,.T.);
#578=CARTESIAN_POINT('',(-1.162499999999999,-2.220446E-016,0.15));
#579=DIRECTION('',(0.0,0.0,-1.0));
#580=DIRECTION('',(1.0,0.0,0.0));
#581=AXIS2_PLACEMENT_3D('',#578,#579,#580);
#582=PLANE('',#581);
#583=CARTESIAN_POINT('',(-1.575,1.384090909090909,0.15));
#584=VERTEX_POINT('',#583);
#585=CARTESIAN_POINT('',(-0.75,1.384090909090909,0.15));
#586=DIRECTION('',(-1.0,0.0,0.0));
#587=VECTOR('',#586,0.825);
#588=LINE('',#585,#587);
#589=EDGE_CURVE('',#546,#584,#588,.T.);
#590=ORIENTED_EDGE('',*,*,#589,.F.);
#591=ORIENTED_EDGE('',*,*,#573,.F.);
#592=CARTESIAN_POINT('',(-1.574999999999999,-1.384090909090909,0.15));
#593=VERTEX_POINT('',#592);
#594=CARTESIAN_POINT('',(-1.574999999999999,-1.384090909090909,0.15));
#595=DIRECTION('',(1.0,0.0,0.0));
#596=VECTOR('',#595,0.824999999999999);
#597=LINE('',#594,#596);
#598=EDGE_CURVE('',#593,#562,#597,.T.);
#599=ORIENTED_EDGE('',*,*,#598,.F.);
#600=CARTESIAN_POINT('',(-1.575,1.384090909090909,0.15));
#601=DIRECTION('',(0.0,-1.0,0.0));
#602=VECTOR('',#601,2.768181818181818);
#603=LINE('',#600,#602);
#604=EDGE_CURVE('',#584,#593,#603,.T.);
#605=ORIENTED_EDGE('',*,*,#604,.F.);
#606=EDGE_LOOP('',(#590,#591,#599,#605));
#607=FACE_OUTER_BOUND('',#606,.T.);
#608=ADVANCED_FACE('',(#607),#582,.T.);
#609=CARTESIAN_POINT('',(1.575,1.425,0.0));
#610=DIRECTION('',(1.0,0.0,0.0));
#611=DIRECTION('',(0.0,0.0,-1.0));
#612=AXIS2_PLACEMENT_3D('',#609,#610,#611);
#613=PLANE('',#612);
#614=ORIENTED_EDGE('',*,*,#533,.T.);
#615=CARTESIAN_POINT('',(1.575,1.425,0.825));
#616=VERTEX_POINT('',#615);
#617=CARTESIAN_POINT('',(1.575,1.425,0.825));
#618=DIRECTION('',(0.0,-0.06049506040189,-0.998168496631191));
#619=VECTOR('',#618,0.676238533151586);
#620=LINE('',#617,#619);
#621=EDGE_CURVE('',#616,#522,#620,.T.);
#622=ORIENTED_EDGE('',*,*,#621,.F.);
#623=CARTESIAN_POINT('',(1.575,-1.425,0.825));
#624=VERTEX_POINT('',#623);
#625=CARTESIAN_POINT('',(1.575,1.425,0.825));
#626=DIRECTION('',(0.0,-1.0,0.0));
#627=VECTOR('',#626,2.85);
#628=LINE('',#625,#627);
#629=EDGE_CURVE('',#616,#624,#628,.T.);
#630=ORIENTED_EDGE('',*,*,#629,.T.);
#631=CARTESIAN_POINT('',(1.575,-1.384090909090909,0.15));
#632=DIRECTION('',(0.0,-0.06049506040189,0.998168496631191));
#633=VECTOR('',#632,0.676238533151586);
#634=LINE('',#631,#633);
#635=EDGE_CURVE('',#513,#624,#634,.T.);
#636=ORIENTED_EDGE('',*,*,#635,.F.);
#637=EDGE_LOOP('',(#614,#622,#630,#636));
#638=FACE_OUTER_BOUND('',#637,.T.);
#639=ADVANCED_FACE('',(#638),#613,.T.);
#640=CARTESIAN_POINT('',(0.7875,-1.4,0.4125));
#641=DIRECTION('',(0.0,-0.998168496631191,-0.06049506040189));
#642=DIRECTION('',(0.0,0.06049506040189,-0.998168496631191));
#643=AXIS2_PLACEMENT_3D('',#640,#641,#642);
#644=PLANE('',#643);
#645=ORIENTED_EDGE('',*,*,#480,.T.);
#646=ORIENTED_EDGE('',*,*,#518,.T.);
#647=ORIENTED_EDGE('',*,*,#635,.T.);
#648=CARTESIAN_POINT('',(-1.575,-1.425,0.825));
#649=VERTEX_POINT('',#648);
#650=CARTESIAN_POINT('',(1.575,-1.425,0.825));
#651=DIRECTION('',(-1.0,0.0,0.0));
#652=VECTOR('',#651,3.15);
#653=LINE('',#650,#652);
#654=EDGE_CURVE('',#624,#649,#653,.T.);
#655=ORIENTED_EDGE('',*,*,#654,.T.);
#656=CARTESIAN_POINT('',(-1.575,-1.425,0.825));
#657=DIRECTION('',(0.0,0.06049506040189,-0.998168496631191));
#658=VECTOR('',#657,0.676238533151586);
#659=LINE('',#656,#658);
#660=EDGE_CURVE('',#649,#593,#659,.T.);
#661=ORIENTED_EDGE('',*,*,#660,.T.);
#662=ORIENTED_EDGE('',*,*,#598,.T.);
#663=ORIENTED_EDGE('',*,*,#567,.T.);
#664=CARTESIAN_POINT('',(-0.75,-1.375,0.0));
#665=DIRECTION('',(1.0,0.0,0.0));
#666=VECTOR('',#665,1.499999999999999);
#667=LINE('',#664,#666);
#668=EDGE_CURVE('',#554,#473,#667,.T.);
#669=ORIENTED_EDGE('',*,*,#668,.T.);
#670=EDGE_LOOP('',(#645,#646,#647,#655,#661,#662,#663,#669));
#671=FACE_OUTER_BOUND('',#670,.T.);
#672=ADVANCED_FACE('',(#671),#644,.T.);
#673=CARTESIAN_POINT('',(-1.575,-1.425,0.0));
#674=DIRECTION('',(-1.0,0.0,0.0));
#675=DIRECTION('',(0.0,0.0,1.0));
#676=AXIS2_PLACEMENT_3D('',#673,#674,#675);
#677=PLANE('',#676);
#678=ORIENTED_EDGE('',*,*,#604,.T.);
#679=ORIENTED_EDGE('',*,*,#660,.F.);
#680=CARTESIAN_POINT('',(-1.575,1.425,0.825));
#681=VERTEX_POINT('',#680);
#682=CARTESIAN_POINT('',(-1.575,-1.425,0.825));
#683=DIRECTION('',(0.0,1.0,0.0));
#684=VECTOR('',#683,2.85);
#685=LINE('',#682,#684);
#686=EDGE_CURVE('',#649,#681,#685,.T.);
#687=ORIENTED_EDGE('',*,*,#686,.T.);
#688=CARTESIAN_POINT('',(-1.575,1.384090909090909,0.15));
#689=DIRECTION('',(0.0,0.06049506040189,0.998168496631191));
#690=VECTOR('',#689,0.676238533151586);
#691=LINE('',#688,#690);
#692=EDGE_CURVE('',#584,#681,#691,.T.);
#693=ORIENTED_EDGE('',*,*,#692,.F.);
#694=EDGE_LOOP('',(#678,#679,#687,#693));
#695=FACE_OUTER_BOUND('',#694,.T.);
#696=ADVANCED_FACE('',(#695),#677,.T.);
#697=CARTESIAN_POINT('',(5.551115E-017,1.917658E-017,0.0));
#698=DIRECTION('',(0.0,0.0,1.0));
#699=DIRECTION('',(1.0,0.0,0.0));
#700=AXIS2_PLACEMENT_3D('',#697,#698,#699);
#701=PLANE('',#700);
#702=ORIENTED_EDGE('',*,*,#488,.T.);
#703=ORIENTED_EDGE('',*,*,#668,.F.);
#704=ORIENTED_EDGE('',*,*,#559,.T.);
#705=CARTESIAN_POINT('',(0.75,1.375,0.0));
#706=DIRECTION('',(-1.0,0.0,0.0));
#707=VECTOR('',#706,1.499999999999999);
#708=LINE('',#705,#707);
#709=EDGE_CURVE('',#483,#544,#708,.T.);
#710=ORIENTED_EDGE('',*,*,#709,.F.);
#711=EDGE_LOOP('',(#702,#703,#704,#710));
#712=FACE_OUTER_BOUND('',#711,.T.);
#713=ADVANCED_FACE('',(#712),#701,.F.);
#714=CARTESIAN_POINT('',(-0.7875,1.4,0.4125));
#715=DIRECTION('',(0.0,0.998168496631191,-0.06049506040189));
#716=DIRECTION('',(0.0,0.06049506040189,0.998168496631191));
#717=AXIS2_PLACEMENT_3D('',#714,#715,#716);
#718=PLANE('',#717);
#719=ORIENTED_EDGE('',*,*,#496,.T.);
#720=ORIENTED_EDGE('',*,*,#709,.T.);
#721=ORIENTED_EDGE('',*,*,#551,.T.);
#722=ORIENTED_EDGE('',*,*,#589,.T.);
#723=ORIENTED_EDGE('',*,*,#692,.T.);
#724=CARTESIAN_POINT('',(-1.575,1.425,0.825));
#725=DIRECTION('',(1.0,0.0,0.0));
#726=VECTOR('',#725,3.15);
#727=LINE('',#724,#726);
#728=EDGE_CURVE('',#681,#616,#727,.T.);
#729=ORIENTED_EDGE('',*,*,#728,.T.);
#730=ORIENTED_EDGE('',*,*,#621,.T.);
#731=ORIENTED_EDGE('',*,*,#527,.T.);
#732=EDGE_LOOP('',(#719,#720,#721,#722,#723,#729,#730,#731));
#733=FACE_OUTER_BOUND('',#732,.T.);
#734=ADVANCED_FACE('',(#733),#718,.T.);
#735=CARTESIAN_POINT('',(5.551115E-017,-1.917658E-017,0.825));
#736=DIRECTION('',(0.0,0.0,1.0));
#737=DIRECTION('',(1.0,0.0,0.0));
#738=AXIS2_PLACEMENT_3D('',#735,#736,#737);
#739=PLANE('',#738);
#740=ORIENTED_EDGE('',*,*,#629,.F.);
#741=ORIENTED_EDGE('',*,*,#728,.F.);
#742=ORIENTED_EDGE('',*,*,#686,.F.);
#743=ORIENTED_EDGE('',*,*,#654,.F.);
#744=EDGE_LOOP('',(#740,#741,#742,#743));
#745=FACE_OUTER_BOUND('',#744,.T.);
#746=ADVANCED_FACE('',(#745),#739,.T.);
#747=CLOSED_SHELL('',(#506,#537,#577,#608,#639,#672,#696,#713,#734,#746));
#748=MANIFOLD_SOLID_BREP('2205',#747);
#749=STYLED_ITEM('NONE',(#465),#748);
#750=CARTESIAN_POINT('',(-1.85,0.349999999999999,0.748965517241378));
#751=CARTESIAN_POINT('',(1.850000000000001,0.349999999999997,0.748965517241378));
#752=CARTESIAN_POINT('',(-1.85,0.349999999999999,0.9));
#753=CARTESIAN_POINT('',(1.850000000000001,0.349999999999997,0.9));
#754=B_SPLINE_SURFACE_WITH_KNOTS('',1,1,((#750,#752),(#751,#753)),.UNSPECIFIED.,.F.,.F.,.U.,(2,2),(2,2),(0.0,3.700000000000001),(0.0,0.151034482758622),.UNSPECIFIED.);
#755=CARTESIAN_POINT('',(1.7,0.349999999999997,0.748965517241378));
#756=VERTEX_POINT('',#755);
#757=CARTESIAN_POINT('',(1.7,0.349999999999997,0.75));
#758=VERTEX_POINT('',#757);
#759=CARTESIAN_POINT('',(1.7,0.349999999999997,0.748965517241378));
#760=DIRECTION('',(0.0,0.0,1.0));
#761=VECTOR('',#760,0.001034482758622);
#762=LINE('',#759,#761);
#763=EDGE_CURVE('',#756,#758,#762,.T.);
#764=ORIENTED_EDGE('',*,*,#763,.F.);
#765=CARTESIAN_POINT('',(1.85,0.349999999999997,0.748965517241378));
#766=VERTEX_POINT('',#765);
#767=CARTESIAN_POINT('',(1.7,0.349999999999997,0.748965517241378));
#768=DIRECTION('',(1.0,0.0,0.0));
#769=VECTOR('',#768,0.15);
#770=LINE('',#767,#769);
#771=EDGE_CURVE('',#756,#766,#770,.T.);
#772=ORIENTED_EDGE('',*,*,#771,.T.);
#773=CARTESIAN_POINT('',(1.85,0.349999999999997,0.8));
#774=VERTEX_POINT('',#773);
#775=CARTESIAN_POINT('',(1.85,0.349999999999997,0.8));
#776=DIRECTION('',(0.0,0.0,-1.0));
#777=VECTOR('',#776,0.051034482758622);
#778=LINE('',#775,#777);
#779=EDGE_CURVE('',#774,#766,#778,.T.);
#780=ORIENTED_EDGE('',*,*,#779,.F.);
#781=CARTESIAN_POINT('',(1.75,0.349999999999997,0.9));
#782=VERTEX_POINT('',#781);
#783=CARTESIAN_POINT('',(1.75,0.349999999999999,0.8));
#784=DIRECTION('',(0.0,1.0,0.0));
#785=DIRECTION('',(0.707106781186547,0.0,0.707106781186547));
#786=AXIS2_PLACEMENT_3D('',#783,#784,#785);
#787=CIRCLE('',#786,0.1);
#788=EDGE_CURVE('',#782,#774,#787,.T.);
#789=ORIENTED_EDGE('',*,*,#788,.F.);
#790=CARTESIAN_POINT('',(-1.674913793103448,0.349999999999999,0.9));
#791=VERTEX_POINT('',#790);
#792=CARTESIAN_POINT('',(-1.674913793103448,0.349999999999999,0.9));
#793=DIRECTION('',(1.0,0.0,0.0));
#794=VECTOR('',#793,3.424913793103448);
#795=LINE('',#792,#794);
#796=EDGE_CURVE('',#791,#782,#795,.T.);
#797=ORIENTED_EDGE('',*,*,#796,.F.);
#798=CARTESIAN_POINT('',(-1.674913793103448,0.349999999999999,0.898965517241378));
#799=VERTEX_POINT('',#798);
#800=CARTESIAN_POINT('',(-1.674913793103448,0.349999999999999,0.898965517241378));
#801=DIRECTION('',(0.0,0.0,1.0));
#802=VECTOR('',#801,0.001034482758622);
#803=LINE('',#800,#802);
#804=EDGE_CURVE('',#799,#791,#803,.T.);
#805=ORIENTED_EDGE('',*,*,#804,.F.);
#806=CARTESIAN_POINT('',(-1.675,0.349999999999999,0.9));
#807=VERTEX_POINT('',#806);
#808=CARTESIAN_POINT('',(-1.675,0.349999999999999,0.9));
#809=DIRECTION('',(0.083045479853616,0.0,-0.99654575824489));
#810=VECTOR('',#809,0.001038068498173);
#811=LINE('',#808,#810);
#812=EDGE_CURVE('',#807,#799,#811,.T.);
#813=ORIENTED_EDGE('',*,*,#812,.F.);
#814=CARTESIAN_POINT('',(-1.75,0.349999999999999,0.9));
#815=VERTEX_POINT('',#814);
#816=CARTESIAN_POINT('',(-1.75,0.349999999999999,0.9));
#817=DIRECTION('',(1.0,0.0,0.0));
#818=VECTOR('',#817,0.075);
#819=LINE('',#816,#818);
#820=EDGE_CURVE('',#815,#807,#819,.T.);
#821=ORIENTED_EDGE('',*,*,#820,.F.);
#822=CARTESIAN_POINT('',(-1.85,0.349999999999999,0.8));
#823=VERTEX_POINT('',#822);
#824=CARTESIAN_POINT('',(-1.75,0.349999999999999,0.8));
#825=DIRECTION('',(0.0,1.0,0.0));
#826=DIRECTION('',(-0.707106781186547,0.0,0.707106781186547));
#827=AXIS2_PLACEMENT_3D('',#824,#825,#826);
#828=CIRCLE('',#827,0.1);
#829=EDGE_CURVE('',#823,#815,#828,.T.);
#830=ORIENTED_EDGE('',*,*,#829,.F.);
#831=CARTESIAN_POINT('',(-1.85,0.349999999999999,0.748965517241378));
#832=VERTEX_POINT('',#831);
#833=CARTESIAN_POINT('',(-1.85,0.349999999999999,0.748965517241378));
#834=DIRECTION('',(0.0,0.0,1.0));
#835=VECTOR('',#834,0.051034482758622);
#836=LINE('',#833,#835);
#837=EDGE_CURVE('',#832,#823,#836,.T.);
#838=ORIENTED_EDGE('',*,*,#837,.F.);
#839=CARTESIAN_POINT('',(-1.7,0.349999999999999,0.748965517241378));
#840=VERTEX_POINT('',#839);
#841=CARTESIAN_POINT('',(-1.85,0.349999999999999,0.748965517241378));
#842=DIRECTION('',(1.0,0.0,0.0));
#843=VECTOR('',#842,0.15);
#844=LINE('',#841,#843);
#845=EDGE_CURVE('',#832,#840,#844,.T.);
#846=ORIENTED_EDGE('',*,*,#845,.T.);
#847=CARTESIAN_POINT('',(-1.7,0.349999999999999,0.75));
#848=VERTEX_POINT('',#847);
#849=CARTESIAN_POINT('',(-1.7,0.349999999999999,0.75));
#850=DIRECTION('',(0.0,0.0,-1.0));
#851=VECTOR('',#850,0.001034482758622);
#852=LINE('',#849,#851);
#853=EDGE_CURVE('',#848,#840,#852,.T.);
#854=ORIENTED_EDGE('',*,*,#853,.F.);
#855=CARTESIAN_POINT('',(1.7,0.349999999999997,0.75));
#856=DIRECTION('',(-1.0,0.0,0.0));
#857=VECTOR('',#856,3.4);
#858=LINE('',#855,#857);
#859=EDGE_CURVE('',#758,#848,#858,.T.);
#860=ORIENTED_EDGE('',*,*,#859,.F.);
#861=EDGE_LOOP('',(#764,#772,#780,#789,#797,#805,#813,#821,#830,#838,#846,#854,#860));
#862=FACE_OUTER_BOUND('',#861,.T.);
#863=ADVANCED_FACE('',(#862),#754,.T.);
#864=CARTESIAN_POINT('',(-1.850000000000001,-0.350000000000001,0.748965517241378));
#865=CARTESIAN_POINT('',(-1.7,-0.350000000000001,0.748965517241378));
#866=CARTESIAN_POINT('',(-1.85,0.349999999999999,0.748965517241378));
#867=CARTESIAN_POINT('',(-1.7,0.349999999999999,0.748965517241378));
#868=B_SPLINE_SURFACE_WITH_KNOTS('',1,1,((#864,#866),(#865,#867)),.UNSPECIFIED.,.F.,.F.,.U.,(2,2),(2,2),(0.0,0.150000000000001),(0.0,0.7),.UNSPECIFIED.);
#869=CARTESIAN_POINT('',(-1.7,-0.350000000000001,0.748965517241378));
#870=VERTEX_POINT('',#869);
#871=CARTESIAN_POINT('',(-1.7,0.349999999999999,0.748965517241378));
#872=DIRECTION('',(0.0,-1.0,0.0));
#873=VECTOR('',#872,0.7);
#874=LINE('',#871,#873);
#875=EDGE_CURVE('',#840,#870,#874,.T.);
#876=ORIENTED_EDGE('',*,*,#875,.F.);
#877=ORIENTED_EDGE('',*,*,#845,.F.);
#878=CARTESIAN_POINT('',(-1.85,-0.350000000000001,0.748965517241378));
#879=VERTEX_POINT('',#878);
#880=CARTESIAN_POINT('',(-1.85,-0.350000000000001,0.748965517241378));
#881=DIRECTION('',(0.0,1.0,0.0));
#882=VECTOR('',#881,0.7);
#883=LINE('',#880,#882);
#884=EDGE_CURVE('',#879,#832,#883,.T.);
#885=ORIENTED_EDGE('',*,*,#884,.F.);
#886=CARTESIAN_POINT('',(-1.85,-0.350000000000001,0.748965517241378));
#887=DIRECTION('',(1.0,0.0,0.0));
#888=VECTOR('',#887,0.15);
#889=LINE('',#886,#888);
#890=EDGE_CURVE('',#879,#870,#889,.T.);
#891=ORIENTED_EDGE('',*,*,#890,.T.);
#892=EDGE_LOOP('',(#876,#877,#885,#891));
#893=FACE_OUTER_BOUND('',#892,.T.);
#894=ADVANCED_FACE('',(#893),#868,.T.);
#895=CARTESIAN_POINT('',(1.7,-0.350000000000003,0.748965517241378));
#896=CARTESIAN_POINT('',(1.85,-0.350000000000003,0.748965517241378));
#897=CARTESIAN_POINT('',(1.7,0.349999999999997,0.748965517241378));
#898=CARTESIAN_POINT('',(1.850000000000001,0.349999999999997,0.748965517241378));
#899=B_SPLINE_SURFACE_WITH_KNOTS('',1,1,((#895,#897),(#896,#898)),.UNSPECIFIED.,.F.,.F.,.U.,(2,2),(2,2),(0.0,0.15),(0.0,0.7),.UNSPECIFIED.);
#900=CARTESIAN_POINT('',(1.7,-0.350000000000003,0.748965517241378));
#901=VERTEX_POINT('',#900);
#902=CARTESIAN_POINT('',(1.7,-0.350000000000003,0.748965517241378));
#903=DIRECTION('',(0.0,1.0,0.0));
#904=VECTOR('',#903,0.7);
#905=LINE('',#902,#904);
#906=EDGE_CURVE('',#901,#756,#905,.T.);
#907=ORIENTED_EDGE('',*,*,#906,.F.);
#908=CARTESIAN_POINT('',(1.85,-0.350000000000003,0.748965517241378));
#909=VERTEX_POINT('',#908);
#910=CARTESIAN_POINT('',(1.7,-0.350000000000003,0.748965517241378));
#911=DIRECTION('',(1.0,0.0,0.0));
#912=VECTOR('',#911,0.15);
#913=LINE('',#910,#912);
#914=EDGE_CURVE('',#901,#909,#913,.T.);
#915=ORIENTED_EDGE('',*,*,#914,.T.);
#916=CARTESIAN_POINT('',(1.85,0.349999999999997,0.748965517241378));
#917=DIRECTION('',(0.0,-1.0,0.0));
#918=VECTOR('',#917,0.7);
#919=LINE('',#916,#918);
#920=EDGE_CURVE('',#766,#909,#919,.T.);
#921=ORIENTED_EDGE('',*,*,#920,.F.);
#922=ORIENTED_EDGE('',*,*,#771,.F.);
#923=EDGE_LOOP('',(#907,#915,#921,#922));
#924=FACE_OUTER_BOUND('',#923,.T.);
#925=ADVANCED_FACE('',(#924),#899,.T.);
#926=CARTESIAN_POINT('',(1.85,-0.350000000000003,0.748965517241378));
#927=CARTESIAN_POINT('',(-1.85,-0.350000000000001,0.748965517241378));
#928=CARTESIAN_POINT('',(1.85,-0.350000000000003,0.9));
#929=CARTESIAN_POINT('',(-1.85,-0.350000000000001,0.9));
#930=B_SPLINE_SURFACE_WITH_KNOTS('',1,1,((#926,#928),(#927,#929)),.UNSPECIFIED.,.F.,.F.,.U.,(2,2),(2,2),(0.0,3.7),(0.0,0.151034482758622),.UNSPECIFIED.);
#931=CARTESIAN_POINT('',(1.7,-0.350000000000003,0.75));
#932=VERTEX_POINT('',#931);
#933=CARTESIAN_POINT('',(1.7,-0.350000000000003,0.75));
#934=DIRECTION('',(0.0,0.0,-1.0));
#935=VECTOR('',#934,0.001034482758622);
#936=LINE('',#933,#935);
#937=EDGE_CURVE('',#932,#901,#936,.T.);
#938=ORIENTED_EDGE('',*,*,#937,.F.);
#939=CARTESIAN_POINT('',(-1.7,-0.350000000000001,0.75));
#940=VERTEX_POINT('',#939);
#941=CARTESIAN_POINT('',(-1.7,-0.350000000000001,0.75));
#942=DIRECTION('',(1.0,0.0,0.0));
#943=VECTOR('',#942,3.4);
#944=LINE('',#941,#943);
#945=EDGE_CURVE('',#940,#932,#944,.T.);
#946=ORIENTED_EDGE('',*,*,#945,.F.);
#947=CARTESIAN_POINT('',(-1.7,-0.350000000000001,0.748965517241378));
#948=DIRECTION('',(0.0,0.0,1.0));
#949=VECTOR('',#948,0.001034482758622);
#950=LINE('',#947,#949);
#951=EDGE_CURVE('',#870,#940,#950,.T.);
#952=ORIENTED_EDGE('',*,*,#951,.F.);
#953=ORIENTED_EDGE('',*,*,#890,.F.);
#954=CARTESIAN_POINT('',(-1.85,-0.350000000000001,0.8));
#955=VERTEX_POINT('',#954);
#956=CARTESIAN_POINT('',(-1.85,-0.350000000000001,0.8));
#957=DIRECTION('',(0.0,0.0,-1.0));
#958=VECTOR('',#957,0.051034482758622);
#959=LINE('',#956,#958);
#960=EDGE_CURVE('',#955,#879,#959,.T.);
#961=ORIENTED_EDGE('',*,*,#960,.F.);
#962=CARTESIAN_POINT('',(-1.75,-0.350000000000001,0.9));
#963=VERTEX_POINT('',#962);
#964=CARTESIAN_POINT('',(-1.75,-0.350000000000001,0.8));
#965=DIRECTION('',(0.0,-1.0,0.0));
#966=DIRECTION('',(-0.707106781186547,0.0,0.707106781186547));
#967=AXIS2_PLACEMENT_3D('',#964,#965,#966);
#968=CIRCLE('',#967,0.1);
#969=EDGE_CURVE('',#963,#955,#968,.T.);
#970=ORIENTED_EDGE('',*,*,#969,.F.);
#971=CARTESIAN_POINT('',(-1.675,-0.350000000000001,0.9));
#972=VERTEX_POINT('',#971);
#973=CARTESIAN_POINT('',(-1.675,-0.350000000000001,0.9));
#974=DIRECTION('',(-1.0,0.0,0.0));
#975=VECTOR('',#974,0.075);
#976=LINE('',#973,#975);
#977=EDGE_CURVE('',#972,#963,#976,.T.);
#978=ORIENTED_EDGE('',*,*,#977,.F.);
#979=CARTESIAN_POINT('',(-1.674913793103448,-0.350000000000001,0.898965517241378));
#980=VERTEX_POINT('',#979);
#981=CARTESIAN_POINT('',(-1.674913793103448,-0.350000000000001,0.898965517241378));
#982=DIRECTION('',(-0.083045479853616,0.0,0.99654575824489));
#983=VECTOR('',#982,0.001038068498173);
#984=LINE('',#981,#983);
#985=EDGE_CURVE('',#980,#972,#984,.T.);
#986=ORIENTED_EDGE('',*,*,#985,.F.);
#987=CARTESIAN_POINT('',(-1.674913793103448,-0.350000000000001,0.9));
#988=VERTEX_POINT('',#987);
#989=CARTESIAN_POINT('',(-1.674913793103448,-0.350000000000001,0.9));
#990=DIRECTION('',(0.0,0.0,-1.0));
#991=VECTOR('',#990,0.001034482758622);
#992=LINE('',#989,#991);
#993=EDGE_CURVE('',#988,#980,#992,.T.);
#994=ORIENTED_EDGE('',*,*,#993,.F.);
#995=CARTESIAN_POINT('',(1.75,-0.350000000000003,0.9));
#996=VERTEX_POINT('',#995);
#997=CARTESIAN_POINT('',(1.75,-0.350000000000003,0.9));
#998=DIRECTION('',(-1.0,0.0,0.0));
#999=VECTOR('',#998,3.424913793103448);
#1000=LINE('',#997,#999);
#1001=EDGE_CURVE('',#996,#988,#1000,.T.);
#1002=ORIENTED_EDGE('',*,*,#1001,.F.);
#1003=CARTESIAN_POINT('',(1.85,-0.350000000000003,0.8));
#1004=VERTEX_POINT('',#1003);
#1005=CARTESIAN_POINT('',(1.75,-0.350000000000001,0.8));
#1006=DIRECTION('',(0.0,-1.0,0.0));
#1007=DIRECTION('',(0.707106781186547,0.0,0.707106781186547));
#1008=AXIS2_PLACEMENT_3D('',#1005,#1006,#1007);
#1009=CIRCLE('',#1008,0.1);
#1010=EDGE_CURVE('',#1004,#996,#1009,.T.);
#1011=ORIENTED_EDGE('',*,*,#1010,.F.);
#1012=CARTESIAN_POINT('',(1.85,-0.350000000000003,0.748965517241378));
#1013=DIRECTION('',(0.0,0.0,1.0));
#1014=VECTOR('',#1013,0.051034482758622);
#1015=LINE('',#1012,#1014);
#1016=EDGE_CURVE('',#909,#1004,#1015,.T.);
#1017=ORIENTED_EDGE('',*,*,#1016,.F.);
#1018=ORIENTED_EDGE('',*,*,#914,.F.);
#1019=EDGE_LOOP('',(#938,#946,#952,#953,#961,#970,#978,#986,#994,#1002,#1011,#1017,#1018));
#1020=FACE_OUTER_BOUND('',#1019,.T.);
#1021=ADVANCED_FACE('',(#1020),#930,.T.);
#1022=CARTESIAN_POINT('',(1.7,1.1,0.75));
#1023=CARTESIAN_POINT('',(1.7,1.1,0.0));
#1024=CARTESIAN_POINT('',(1.7,-1.1,0.75));
#1025=CARTESIAN_POINT('',(1.7,-1.1,0.0));
#1026=B_SPLINE_SURFACE_WITH_KNOTS('',1,1,((#1022,#1024),(#1023,#1025)),.UNSPECIFIED.,.F.,.F.,.U.,(2,2),(2,2),(0.0,0.75),(0.0,2.2),.UNSPECIFIED.);
#1027=ORIENTED_EDGE('',*,*,#937,.T.);
#1028=ORIENTED_EDGE('',*,*,#906,.T.);
#1029=ORIENTED_EDGE('',*,*,#763,.T.);
#1030=CARTESIAN_POINT('',(1.7,1.1,0.75));
#1031=VERTEX_POINT('',#1030);
#1032=CARTESIAN_POINT('',(1.7,0.349999999999997,0.75));
#1033=DIRECTION('',(0.0,1.0,0.0));
#1034=VECTOR('',#1033,0.750000000000003);
#1035=LINE('',#1032,#1034);
#1036=EDGE_CURVE('',#758,#1031,#1035,.T.);
#1037=ORIENTED_EDGE('',*,*,#1036,.T.);
#1038=CARTESIAN_POINT('',(1.7,1.1,0.0));
#1039=VERTEX_POINT('',#1038);
#1040=CARTESIAN_POINT('',(1.7,1.1,0.0));
#1041=DIRECTION('',(0.0,0.0,1.0));
#1042=VECTOR('',#1041,0.75);
#1043=LINE('',#1040,#1042);
#1044=EDGE_CURVE('',#1039,#1031,#1043,.T.);
#1045=ORIENTED_EDGE('',*,*,#1044,.F.);
#1046=CARTESIAN_POINT('',(1.7,-1.1,0.0));
#1047=VERTEX_POINT('',#1046);
#1048=CARTESIAN_POINT('',(1.7,1.1,0.0));
#1049=DIRECTION('',(0.0,-1.0,0.0));
#1050=VECTOR('',#1049,2.2);
#1051=LINE('',#1048,#1050);
#1052=EDGE_CURVE('',#1039,#1047,#1051,.T.);
#1053=ORIENTED_EDGE('',*,*,#1052,.T.);
#1054=CARTESIAN_POINT('',(1.7,-1.1,0.75));
#1055=VERTEX_POINT('',#1054);
#1056=CARTESIAN_POINT('',(1.7,-1.1,0.0));
#1057=DIRECTION('',(0.0,0.0,1.0));
#1058=VECTOR('',#1057,0.75);
#1059=LINE('',#1056,#1058);
#1060=EDGE_CURVE('',#1047,#1055,#1059,.T.);
#1061=ORIENTED_EDGE('',*,*,#1060,.T.);
#1062=CARTESIAN_POINT('',(1.7,-1.1,0.75));
#1063=DIRECTION('',(0.0,1.0,0.0));
#1064=VECTOR('',#1063,0.749999999999997);
#1065=LINE('',#1062,#1064);
#1066=EDGE_CURVE('',#1055,#932,#1065,.T.);
#1067=ORIENTED_EDGE('',*,*,#1066,.T.);
#1068=EDGE_LOOP('',(#1027,#1028,#1029,#1037,#1045,#1053,#1061,#1067));
#1069=FACE_OUTER_BOUND('',#1068,.T.);
#1070=ADVANCED_FACE('',(#1069),#1026,.T.);
#1071=CARTESIAN_POINT('',(-1.7,1.1,0.75));
#1072=CARTESIAN_POINT('',(1.7,1.1,0.75));
#1073=CARTESIAN_POINT('',(-1.7,0.349999999999997,0.75));
#1074=CARTESIAN_POINT('',(1.7,0.349999999999997,0.75));
#1075=B_SPLINE_SURFACE_WITH_KNOTS('',1,1,((#1071,#1073),(#1072,#1074)),.UNSPECIFIED.,.F.,.F.,.U.,(2,2),(2,2),(0.0,3.4),(0.0,0.750000000000003),.UNSPECIFIED.);
#1076=ORIENTED_EDGE('',*,*,#859,.T.);
#1077=CARTESIAN_POINT('',(-1.7,1.1,0.75));
#1078=VERTEX_POINT('',#1077);
#1079=CARTESIAN_POINT('',(-1.7,1.1,0.75));
#1080=DIRECTION('',(0.0,-1.0,0.0));
#1081=VECTOR('',#1080,0.750000000000001);
#1082=LINE('',#1079,#1081);
#1083=EDGE_CURVE('',#1078,#848,#1082,.T.);
#1084=ORIENTED_EDGE('',*,*,#1083,.F.);
#1085=CARTESIAN_POINT('',(1.7,1.1,0.75));
#1086=DIRECTION('',(-1.0,0.0,0.0));
#1087=VECTOR('',#1086,3.4);
#1088=LINE('',#1085,#1087);
#1089=EDGE_CURVE('',#1031,#1078,#1088,.T.);
#1090=ORIENTED_EDGE('',*,*,#1089,.F.);
#1091=ORIENTED_EDGE('',*,*,#1036,.F.);
#1092=EDGE_LOOP('',(#1076,#1084,#1090,#1091));
#1093=FACE_OUTER_BOUND('',#1092,.T.);
#1094=ADVANCED_FACE('',(#1093),#1075,.T.);
#1095=CARTESIAN_POINT('',(1.85,1.1,0.1));
#1096=CARTESIAN_POINT('',(1.85,1.1,0.8));
#1097=CARTESIAN_POINT('',(1.85,-1.1,0.1));
#1098=CARTESIAN_POINT('',(1.85,-1.1,0.8));
#1099=B_SPLINE_SURFACE_WITH_KNOTS('',1,1,((#1095,#1097),(#1096,#1098)),.UNSPECIFIED.,.F.,.F.,.U.,(2,2),(2,2),(0.0,0.7),(0.0,2.2),.UNSPECIFIED.);
#1100=ORIENTED_EDGE('',*,*,#779,.T.);
#1101=ORIENTED_EDGE('',*,*,#920,.T.);
#1102=ORIENTED_EDGE('',*,*,#1016,.T.);
#1103=CARTESIAN_POINT('',(1.85,-1.1,0.8));
#1104=VERTEX_POINT('',#1103);
#1105=CARTESIAN_POINT('',(1.85,-0.350000000000003,0.8));
#1106=DIRECTION('',(0.0,-1.0,0.0));
#1107=VECTOR('',#1106,0.749999999999997);
#1108=LINE('',#1105,#1107);
#1109=EDGE_CURVE('',#1004,#1104,#1108,.T.);
#1110=ORIENTED_EDGE('',*,*,#1109,.T.);
#1111=CARTESIAN_POINT('',(1.85,-1.1,0.1));
#1112=VERTEX_POINT('',#1111);
#1113=CARTESIAN_POINT('',(1.85,-1.1,0.1));
#1114=DIRECTION('',(0.0,0.0,1.0));
#1115=VECTOR('',#1114,0.7);
#1116=LINE('',#1113,#1115);
#1117=EDGE_CURVE('',#1112,#1104,#1116,.T.);
#1118=ORIENTED_EDGE('',*,*,#1117,.F.);
#1119=CARTESIAN_POINT('',(1.85,1.1,0.1));
#1120=VERTEX_POINT('',#1119);
#1121=CARTESIAN_POINT('',(1.85,-1.1,0.1));
#1122=DIRECTION('',(0.0,1.0,0.0));
#1123=VECTOR('',#1122,2.2);
#1124=LINE('',#1121,#1123);
#1125=EDGE_CURVE('',#1112,#1120,#1124,.T.);
#1126=ORIENTED_EDGE('',*,*,#1125,.T.);
#1127=CARTESIAN_POINT('',(1.85,1.1,0.8));
#1128=VERTEX_POINT('',#1127);
#1129=CARTESIAN_POINT('',(1.85,1.1,0.1));
#1130=DIRECTION('',(0.0,0.0,1.0));
#1131=VECTOR('',#1130,0.7);
#1132=LINE('',#1129,#1131);
#1133=EDGE_CURVE('',#1120,#1128,#1132,.T.);
#1134=ORIENTED_EDGE('',*,*,#1133,.T.);
#1135=CARTESIAN_POINT('',(1.85,1.1,0.8));
#1136=DIRECTION('',(0.0,-1.0,0.0));
#1137=VECTOR('',#1136,0.750000000000003);
#1138=LINE('',#1135,#1137);
#1139=EDGE_CURVE('',#1128,#774,#1138,.T.);
#1140=ORIENTED_EDGE('',*,*,#1139,.T.);
#1141=EDGE_LOOP('',(#1100,#1101,#1102,#1110,#1118,#1126,#1134,#1140));
#1142=FACE_OUTER_BOUND('',#1141,.T.);
#1143=ADVANCED_FACE('',(#1142),#1099,.T.);
#1144=CARTESIAN_POINT('',(-1.75,-0.55,0.8));
#1145=DIRECTION('',(-1.009294E-016,1.0,0.0));
#1146=DIRECTION('',(-0.707106781186547,0.0,0.707106781186547));
#1147=AXIS2_PLACEMENT_3D('',#1144,#1145,#1146);
#1148=CYLINDRICAL_SURFACE('',#1147,0.1);
#1149=ORIENTED_EDGE('',*,*,#969,.T.);
#1150=CARTESIAN_POINT('',(-1.85,-1.1,0.8));
#1151=VERTEX_POINT('',#1150);
#1152=CARTESIAN_POINT('',(-1.85,-0.350000000000001,0.8));
#1153=DIRECTION('',(0.0,-1.0,0.0));
#1154=VECTOR('',#1153,0.75);
#1155=LINE('',#1152,#1154);
#1156=EDGE_CURVE('',#955,#1151,#1155,.T.);
#1157=ORIENTED_EDGE('',*,*,#1156,.T.);
#1158=CARTESIAN_POINT('',(-1.75,-1.1,0.9));
#1159=VERTEX_POINT('',#1158);
#1160=CARTESIAN_POINT('',(-1.75,-1.1,0.8));
#1161=DIRECTION('',(0.0,1.0,0.0));
#1162=DIRECTION('',(-0.707106781186547,0.0,0.707106781186547));
#1163=AXIS2_PLACEMENT_3D('',#1160,#1161,#1162);
#1164=CIRCLE('',#1163,0.1);
#1165=EDGE_CURVE('',#1151,#1159,#1164,.T.);
#1166=ORIENTED_EDGE('',*,*,#1165,.T.);
#1167=CARTESIAN_POINT('',(-1.75,-1.1,0.9));
#1168=DIRECTION('',(0.0,1.0,0.0));
#1169=VECTOR('',#1168,0.749999999999999);
#1170=LINE('',#1167,#1169);
#1171=EDGE_CURVE('',#1159,#963,#1170,.T.);
#1172=ORIENTED_EDGE('',*,*,#1171,.T.);
#1173=EDGE_LOOP('',(#1149,#1157,#1166,#1172));
#1174=FACE_OUTER_BOUND('',#1173,.T.);
#1175=ADVANCED_FACE('',(#1174),#1148,.T.);
#1176=CARTESIAN_POINT('',(-1.75,-0.350000000000001,0.9));
#1177=CARTESIAN_POINT('',(-1.675,-0.350000000000001,0.9));
#1178=CARTESIAN_POINT('',(-1.75,-1.1,0.9));
#1179=CARTESIAN_POINT('',(-1.675,-1.1,0.9));
#1180=B_SPLINE_SURFACE_WITH_KNOTS('',1,1,((#1176,#1178),(#1177,#1179)),.UNSPECIFIED.,.F.,.F.,.U.,(2,2),(2,2),(0.0,0.075),(0.0,0.749999999999999),.UNSPECIFIED.);
#1181=ORIENTED_EDGE('',*,*,#977,.T.);
#1182=ORIENTED_EDGE('',*,*,#1171,.F.);
#1183=CARTESIAN_POINT('',(-1.675,-1.1,0.9));
#1184=VERTEX_POINT('',#1183);
#1185=CARTESIAN_POINT('',(-1.675,-1.1,0.9));
#1186=DIRECTION('',(-1.0,0.0,0.0));
#1187=VECTOR('',#1186,0.075);
#1188=LINE('',#1185,#1187);
#1189=EDGE_CURVE('',#1184,#1159,#1188,.T.);
#1190=ORIENTED_EDGE('',*,*,#1189,.F.);
#1191=CARTESIAN_POINT('',(-1.675,-1.1,0.9));
#1192=DIRECTION('',(0.0,1.0,0.0));
#1193=VECTOR('',#1192,0.749999999999999);
#1194=LINE('',#1191,#1193);
#1195=EDGE_CURVE('',#1184,#972,#1194,.T.);
#1196=ORIENTED_EDGE('',*,*,#1195,.T.);
#1197=EDGE_LOOP('',(#1181,#1182,#1190,#1196));
#1198=FACE_OUTER_BOUND('',#1197,.T.);
#1199=ADVANCED_FACE('',(#1198),#1180,.F.);
#1200=CARTESIAN_POINT('',(1.679289321881345,-1.1,0.729289321881345));
#1201=CARTESIAN_POINT('',(1.679289321881345,-0.350000000000001,0.729289321881345));
#1202=CARTESIAN_POINT('',(1.75,-1.1,0.65857864376269));
#1203=CARTESIAN_POINT('',(1.75,-0.350000000000001,0.65857864376269));
#1204=CARTESIAN_POINT('',(1.820710678118655,-1.1,0.729289321881345));
#1205=CARTESIAN_POINT('',(1.820710678118655,-0.350000000000001,0.729289321881345));
#1206=CARTESIAN_POINT('',(1.891421356237309,-1.1,0.8));
#1207=CARTESIAN_POINT('',(1.891421356237309,-0.350000000000001,0.8));
#1208=CARTESIAN_POINT('',(1.820710678118655,-1.1,0.870710678118655));
#1209=CARTESIAN_POINT('',(1.820710678118655,-0.350000000000001,0.870710678118655));
#1210=CARTESIAN_POINT('',(1.75,-1.1,0.941421356237309));
#1211=CARTESIAN_POINT('',(1.75,-0.350000000000001,0.941421356237309));
#1212=CARTESIAN_POINT('',(1.679289321881345,-1.1,0.870710678118655));
#1213=CARTESIAN_POINT('',(1.679289321881345,-0.350000000000001,0.870710678118655));
#1214=CARTESIAN_POINT('',(1.608578643762691,-1.1,0.8));
#1215=CARTESIAN_POINT('',(1.608578643762691,-0.350000000000001,0.8));
#1216=CARTESIAN_POINT('',(1.679289321881345,-1.1,0.729289321881345));
#1217=CARTESIAN_POINT('',(1.679289321881345,-0.350000000000001,0.729289321881345));
#1225=(BOUNDED_SURFACE()B_SPLINE_SURFACE(1,2,((#1200,#1202,#1204,#1206,#1208,#1210,#1212,#1214,#1216),(#1201,#1203,#1205,#1207,#1209,#1211,#1213,#1215,#1217)),.UNSPECIFIED.,.F.,.T.,.U.)B_SPLINE_SURFACE_WITH_KNOTS((2,2),(3,2,2,2,3),(-5.5,1.999999999999989),(0.0,0.15707963267949,0.314159265358979,0.471238898038469,0.628318530717959),.UNSPECIFIED.)GEOMETRIC_REPRESENTATION_ITEM()RATIONAL_B_SPLINE_SURFACE(((1.0,0.707106781186548,1.0,0.707106781186548,1.0,0.707106781186548,1.0,0.707106781186548,1.0),(1.0,0.707106781186548,1.0,0.707106781186548,1.0,0.707106781186548,1.0,0.707106781186548,1.0)))REPRESENTATION_ITEM('')SURFACE());
#1226=ORIENTED_EDGE('',*,*,#1010,.T.);
#1227=CARTESIAN_POINT('',(1.75,-1.1,0.9));
#1228=VERTEX_POINT('',#1227);
#1229=CARTESIAN_POINT('',(1.75,-1.1,0.9));
#1230=DIRECTION('',(0.0,1.0,0.0));
#1231=VECTOR('',#1230,0.749999999999997);
#1232=LINE('',#1229,#1231);
#1233=EDGE_CURVE('',#1228,#996,#1232,.T.);
#1234=ORIENTED_EDGE('',*,*,#1233,.F.);
#1235=CARTESIAN_POINT('',(1.75,-1.1,0.8));
#1236=DIRECTION('',(0.0,-1.0,0.0));
#1237=DIRECTION('',(0.707106781186547,0.0,0.707106781186547));
#1238=AXIS2_PLACEMENT_3D('',#1235,#1236,#1237);
#1239=CIRCLE('',#1238,0.1);
#1240=EDGE_CURVE('',#1104,#1228,#1239,.T.);
#1241=ORIENTED_EDGE('',*,*,#1240,.F.);
#1242=ORIENTED_EDGE('',*,*,#1109,.F.);
#1243=EDGE_LOOP('',(#1226,#1234,#1241,#1242));
#1244=FACE_OUTER_BOUND('',#1243,.T.);
#1245=ADVANCED_FACE('',(#1244),#1225,.T.);
#1246=CARTESIAN_POINT('',(1.679289321881345,0.349999999999997,0.729289321881345));
#1247=CARTESIAN_POINT('',(1.679289321881345,1.1,0.729289321881345));
#1248=CARTESIAN_POINT('',(1.75,0.349999999999997,0.65857864376269));
#1249=CARTESIAN_POINT('',(1.75,1.1,0.65857864376269));
#1250=CARTESIAN_POINT('',(1.820710678118655,0.349999999999997,0.729289321881345));
#1251=CARTESIAN_POINT('',(1.820710678118655,1.1,0.729289321881345));
#1252=CARTESIAN_POINT('',(1.891421356237309,0.349999999999997,0.8));
#1253=CARTESIAN_POINT('',(1.89142135623731,1.1,0.8));
#1254=CARTESIAN_POINT('',(1.820710678118655,0.349999999999997,0.870710678118655));
#1255=CARTESIAN_POINT('',(1.820710678118655,1.1,0.870710678118655));
#1256=CARTESIAN_POINT('',(1.75,0.349999999999997,0.941421356237309));
#1257=CARTESIAN_POINT('',(1.75,1.1,0.941421356237309));
#1258=CARTESIAN_POINT('',(1.679289321881345,0.349999999999997,0.870710678118655));
#1259=CARTESIAN_POINT('',(1.679289321881345,1.1,0.870710678118655));
#1260=CARTESIAN_POINT('',(1.608578643762691,0.349999999999997,0.8));
#1261=CARTESIAN_POINT('',(1.608578643762691,1.1,0.8));
#1262=CARTESIAN_POINT('',(1.679289321881345,0.349999999999997,0.729289321881345));
#1263=CARTESIAN_POINT('',(1.679289321881345,1.1,0.729289321881345));
#1271=(BOUNDED_SURFACE()B_SPLINE_SURFACE(1,2,((#1246,#1248,#1250,#1252,#1254,#1256,#1258,#1260,#1262),(#1247,#1249,#1251,#1253,#1255,#1257,#1259,#1261,#1263)),.UNSPECIFIED.,.F.,.T.,.U.)B_SPLINE_SURFACE_WITH_KNOTS((2,2),(3,2,2,2,3),(8.999999999999968,16.5),(0.0,0.15707963267949,0.314159265358979,0.471238898038469,0.628318530717959),.UNSPECIFIED.)GEOMETRIC_REPRESENTATION_ITEM()RATIONAL_B_SPLINE_SURFACE(((1.0,0.707106781186548,1.0,0.707106781186548,1.0,0.707106781186548,1.0,0.707106781186548,1.0),(1.0,0.707106781186548,1.0,0.707106781186548,1.0,0.707106781186548,1.0,0.707106781186548,1.0)))REPRESENTATION_ITEM('')SURFACE());
#1272=ORIENTED_EDGE('',*,*,#788,.T.);
#1273=ORIENTED_EDGE('',*,*,#1139,.F.);
#1274=CARTESIAN_POINT('',(1.75,1.1,0.9));
#1275=VERTEX_POINT('',#1274);
#1276=CARTESIAN_POINT('',(1.75,1.1,0.8));
#1277=DIRECTION('',(0.0,1.0,0.0));
#1278=DIRECTION('',(0.707106781186547,0.0,0.707106781186547));
#1279=AXIS2_PLACEMENT_3D('',#1276,#1277,#1278);
#1280=CIRCLE('',#1279,0.1);
#1281=EDGE_CURVE('',#1275,#1128,#1280,.T.);
#1282=ORIENTED_EDGE('',*,*,#1281,.F.);
#1283=CARTESIAN_POINT('',(1.75,0.349999999999997,0.9));
#1284=DIRECTION('',(0.0,1.0,0.0));
#1285=VECTOR('',#1284,0.750000000000003);
#1286=LINE('',#1283,#1285);
#1287=EDGE_CURVE('',#782,#1275,#1286,.T.);
#1288=ORIENTED_EDGE('',*,*,#1287,.F.);
#1289=EDGE_LOOP('',(#1272,#1273,#1282,#1288));
#1290=FACE_OUTER_BOUND('',#1289,.T.);
#1291=ADVANCED_FACE('',(#1290),#1271,.T.);
#1292=CARTESIAN_POINT('',(-1.65,-0.75,0.6));
#1293=DIRECTION('',(-0.99654575824488,0.0,-0.08304547985374));
#1294=DIRECTION('',(-0.08304547985374,0.0,0.99654575824488));
#1295=AXIS2_PLACEMENT_3D('',#1292,#1293,#1294);
#1296=PLANE('',#1295);
#1297=ORIENTED_EDGE('',*,*,#985,.T.);
#1298=ORIENTED_EDGE('',*,*,#1195,.F.);
#1299=CARTESIAN_POINT('',(-1.674913793103448,-1.1,0.898965517241378));
#1300=VERTEX_POINT('',#1299);
#1301=CARTESIAN_POINT('',(-1.674913793103448,-1.1,0.898965517241378));
#1302=DIRECTION('',(-0.083045479853828,0.0,0.996545758244872));
#1303=VECTOR('',#1302,0.001038068498173);
#1304=LINE('',#1301,#1303);
#1305=EDGE_CURVE('',#1300,#1184,#1304,.T.);
#1306=ORIENTED_EDGE('',*,*,#1305,.F.);
#1307=CARTESIAN_POINT('',(-1.674913793103448,-1.1,0.898965517241378));
#1308=DIRECTION('',(0.0,1.0,0.0));
#1309=VECTOR('',#1308,0.749999999999999);
#1310=LINE('',#1307,#1309);
#1311=EDGE_CURVE('',#1300,#980,#1310,.T.);
#1312=ORIENTED_EDGE('',*,*,#1311,.T.);
#1313=EDGE_LOOP('',(#1297,#1298,#1306,#1312));
#1314=FACE_OUTER_BOUND('',#1313,.T.);
#1315=ADVANCED_FACE('',(#1314),#1296,.F.);
#1316=CARTESIAN_POINT('',(-1.65,-0.75,0.6));
#1317=DIRECTION('',(-0.99654575824488,0.0,-0.08304547985374));
#1318=DIRECTION('',(-0.08304547985374,0.0,0.99654575824488));
#1319=AXIS2_PLACEMENT_3D('',#1316,#1317,#1318);
#1320=PLANE('',#1319);
#1321=ORIENTED_EDGE('',*,*,#812,.T.);
#1322=CARTESIAN_POINT('',(-1.674913793103448,1.1,0.898965517241378));
#1323=VERTEX_POINT('',#1322);
#1324=CARTESIAN_POINT('',(-1.674913793103448,0.349999999999999,0.898965517241378));
#1325=DIRECTION('',(0.0,1.0,0.0));
#1326=VECTOR('',#1325,0.750000000000001);
#1327=LINE('',#1324,#1326);
#1328=EDGE_CURVE('',#799,#1323,#1327,.T.);
#1329=ORIENTED_EDGE('',*,*,#1328,.T.);
#1330=CARTESIAN_POINT('',(-1.675,1.1,0.9));
#1331=VERTEX_POINT('',#1330);
#1332=CARTESIAN_POINT('',(-1.675,1.1,0.9));
#1333=DIRECTION('',(0.083045479853828,0.0,-0.996545758244872));
#1334=VECTOR('',#1333,0.001038068498173);
#1335=LINE('',#1332,#1334);
#1336=EDGE_CURVE('',#1331,#1323,#1335,.T.);
#1337=ORIENTED_EDGE('',*,*,#1336,.F.);
#1338=CARTESIAN_POINT('',(-1.675,0.349999999999999,0.9));
#1339=DIRECTION('',(0.0,1.0,0.0));
#1340=VECTOR('',#1339,0.750000000000001);
#1341=LINE('',#1338,#1340);
#1342=EDGE_CURVE('',#807,#1331,#1341,.T.);
#1343=ORIENTED_EDGE('',*,*,#1342,.F.);
#1344=EDGE_LOOP('',(#1321,#1329,#1337,#1343));
#1345=FACE_OUTER_BOUND('',#1344,.T.);
#1346=ADVANCED_FACE('',(#1345),#1320,.F.);
#1347=CARTESIAN_POINT('',(-1.674913793103448,-0.350000000000001,0.9));
#1348=CARTESIAN_POINT('',(1.75,-0.350000000000001,0.9));
#1349=CARTESIAN_POINT('',(-1.674913793103448,-1.1,0.9));
#1350=CARTESIAN_POINT('',(1.75,-1.1,0.9));
#1351=B_SPLINE_SURFACE_WITH_KNOTS('',1,1,((#1347,#1349),(#1348,#1350)),.UNSPECIFIED.,.F.,.F.,.U.,(2,2),(2,2),(0.0,3.424913793103448),(0.0,0.749999999999999),.UNSPECIFIED.);
#1352=ORIENTED_EDGE('',*,*,#1001,.T.);
#1353=CARTESIAN_POINT('',(-1.674913793103448,-1.1,0.9));
#1354=VERTEX_POINT('',#1353);
#1355=CARTESIAN_POINT('',(-1.674913793103448,-1.1,0.9));
#1356=DIRECTION('',(0.0,1.0,0.0));
#1357=VECTOR('',#1356,0.749999999999999);
#1358=LINE('',#1355,#1357);
#1359=EDGE_CURVE('',#1354,#988,#1358,.T.);
#1360=ORIENTED_EDGE('',*,*,#1359,.F.);
#1361=CARTESIAN_POINT('',(1.75,-1.1,0.9));
#1362=DIRECTION('',(-1.0,0.0,0.0));
#1363=VECTOR('',#1362,3.424913793103448);
#1364=LINE('',#1361,#1363);
#1365=EDGE_CURVE('',#1228,#1354,#1364,.T.);
#1366=ORIENTED_EDGE('',*,*,#1365,.F.);
#1367=ORIENTED_EDGE('',*,*,#1233,.T.);
#1368=EDGE_LOOP('',(#1352,#1360,#1366,#1367));
#1369=FACE_OUTER_BOUND('',#1368,.T.);
#1370=ADVANCED_FACE('',(#1369),#1351,.F.);
#1371=CARTESIAN_POINT('',(-1.674913793103448,1.1,0.9));
#1372=CARTESIAN_POINT('',(1.75,1.1,0.9));
#1373=CARTESIAN_POINT('',(-1.674913793103448,0.349999999999997,0.9));
#1374=CARTESIAN_POINT('',(1.75,0.349999999999997,0.9));
#1375=B_SPLINE_SURFACE_WITH_KNOTS('',1,1,((#1371,#1373),(#1372,#1374)),.UNSPECIFIED.,.F.,.F.,.U.,(2,2),(2,2),(0.0,3.424913793103449),(0.0,0.750000000000003),.UNSPECIFIED.);
#1376=ORIENTED_EDGE('',*,*,#796,.T.);
#1377=ORIENTED_EDGE('',*,*,#1287,.T.);
#1378=CARTESIAN_POINT('',(-1.674913793103448,1.1,0.9));
#1379=VERTEX_POINT('',#1378);
#1380=CARTESIAN_POINT('',(-1.674913793103448,1.1,0.9));
#1381=DIRECTION('',(1.0,0.0,0.0));
#1382=VECTOR('',#1381,3.424913793103449);
#1383=LINE('',#1380,#1382);
#1384=EDGE_CURVE('',#1379,#1275,#1383,.T.);
#1385=ORIENTED_EDGE('',*,*,#1384,.F.);
#1386=CARTESIAN_POINT('',(-1.674913793103448,0.349999999999999,0.9));
#1387=DIRECTION('',(0.0,1.0,0.0));
#1388=VECTOR('',#1387,0.750000000000001);
#1389=LINE('',#1386,#1388);
#1390=EDGE_CURVE('',#791,#1379,#1389,.T.);
#1391=ORIENTED_EDGE('',*,*,#1390,.F.);
#1392=EDGE_LOOP('',(#1376,#1377,#1385,#1391));
#1393=FACE_OUTER_BOUND('',#1392,.T.);
#1394=ADVANCED_FACE('',(#1393),#1375,.F.);
#1395=CARTESIAN_POINT('',(-1.674913793103448,-1.1,0.898965517241378));
#1396=CARTESIAN_POINT('',(-1.674913793103448,-0.350000000000001,0.898965517241378));
#1397=CARTESIAN_POINT('',(-1.674913793103448,-1.1,0.9));
#1398=CARTESIAN_POINT('',(-1.674913793103448,-0.350000000000001,0.9));
#1399=B_SPLINE_SURFACE_WITH_KNOTS('',1,1,((#1395,#1397),(#1396,#1398)),.UNSPECIFIED.,.F.,.F.,.U.,(2,2),(2,2),(0.0,0.749999999999999),(0.0,0.001034482758622),.UNSPECIFIED.);
#1400=ORIENTED_EDGE('',*,*,#993,.T.);
#1401=ORIENTED_EDGE('',*,*,#1311,.F.);
#1402=CARTESIAN_POINT('',(-1.674913793103448,-1.1,0.898965517241378));
#1403=DIRECTION('',(0.0,0.0,1.0));
#1404=VECTOR('',#1403,0.001034482758622);
#1405=LINE('',#1402,#1404);
#1406=EDGE_CURVE('',#1300,#1354,#1405,.T.);
#1407=ORIENTED_EDGE('',*,*,#1406,.T.);
#1408=ORIENTED_EDGE('',*,*,#1359,.T.);
#1409=EDGE_LOOP('',(#1400,#1401,#1407,#1408));
#1410=FACE_OUTER_BOUND('',#1409,.T.);
#1411=ADVANCED_FACE('',(#1410),#1399,.F.);
#1412=CARTESIAN_POINT('',(-1.674913793103448,0.349999999999999,0.898965517241378));
#1413=CARTESIAN_POINT('',(-1.674913793103448,1.1,0.898965517241378));
#1414=CARTESIAN_POINT('',(-1.674913793103448,0.349999999999999,0.9));
#1415=CARTESIAN_POINT('',(-1.674913793103448,1.1,0.9));
#1416=B_SPLINE_SURFACE_WITH_KNOTS('',1,1,((#1412,#1414),(#1413,#1415)),.UNSPECIFIED.,.F.,.F.,.U.,(2,2),(2,2),(0.0,0.750000000000001),(0.0,0.001034482758622),.UNSPECIFIED.);
#1417=ORIENTED_EDGE('',*,*,#804,.T.);
#1418=ORIENTED_EDGE('',*,*,#1390,.T.);
#1419=CARTESIAN_POINT('',(-1.674913793103448,1.1,0.9));
#1420=DIRECTION('',(0.0,0.0,-1.0));
#1421=VECTOR('',#1420,0.001034482758622);
#1422=LINE('',#1419,#1421);
#1423=EDGE_CURVE('',#1379,#1323,#1422,.T.);
#1424=ORIENTED_EDGE('',*,*,#1423,.T.);
#1425=ORIENTED_EDGE('',*,*,#1328,.F.);
#1426=EDGE_LOOP('',(#1417,#1418,#1424,#1425));
#1427=FACE_OUTER_BOUND('',#1426,.T.);
#1428=ADVANCED_FACE('',(#1427),#1416,.F.);
#1429=CARTESIAN_POINT('',(1.85,-1.1,0.9));
#1430=CARTESIAN_POINT('',(1.85,-1.1,0.0));
#1431=CARTESIAN_POINT('',(-1.85,-1.1,0.9));
#1432=CARTESIAN_POINT('',(-1.85,-1.1,0.0));
#1433=B_SPLINE_SURFACE_WITH_KNOTS('',1,1,((#1429,#1431),(#1430,#1432)),.UNSPECIFIED.,.F.,.F.,.U.,(2,2),(2,2),(0.0,0.9),(0.0,3.7),.UNSPECIFIED.);
#1434=ORIENTED_EDGE('',*,*,#1305,.T.);
#1435=ORIENTED_EDGE('',*,*,#1189,.T.);
#1436=ORIENTED_EDGE('',*,*,#1165,.F.);
#1437=CARTESIAN_POINT('',(-1.85,-1.1,0.1));
#1438=VERTEX_POINT('',#1437);
#1439=CARTESIAN_POINT('',(-1.85,-1.1,0.1));
#1440=DIRECTION('',(0.0,0.0,1.0));
#1441=VECTOR('',#1440,0.7);
#1442=LINE('',#1439,#1441);
#1443=EDGE_CURVE('',#1438,#1151,#1442,.T.);
#1444=ORIENTED_EDGE('',*,*,#1443,.F.);
#1445=CARTESIAN_POINT('',(-1.75,-1.1,0.0));
#1446=VERTEX_POINT('',#1445);
#1447=CARTESIAN_POINT('',(-1.75,-1.1,0.1));
#1448=DIRECTION('',(0.0,1.0,0.0));
#1449=DIRECTION('',(-0.707106781186548,0.0,-0.707106781186547));
#1450=AXIS2_PLACEMENT_3D('',#1447,#1448,#1449);
#1451=CIRCLE('',#1450,0.1);
#1452=EDGE_CURVE('',#1446,#1438,#1451,.T.);
#1453=ORIENTED_EDGE('',*,*,#1452,.F.);
#1454=CARTESIAN_POINT('',(-1.7,-1.1,0.0));
#1455=VERTEX_POINT('',#1454);
#1456=CARTESIAN_POINT('',(-1.7,-1.1,0.0));
#1457=DIRECTION('',(-1.0,0.0,0.0));
#1458=VECTOR('',#1457,0.05);
#1459=LINE('',#1456,#1458);
#1460=EDGE_CURVE('',#1455,#1446,#1459,.T.);
#1461=ORIENTED_EDGE('',*,*,#1460,.F.);
#1462=CARTESIAN_POINT('',(-1.7,-1.1,0.75));
#1463=VERTEX_POINT('',#1462);
#1464=CARTESIAN_POINT('',(-1.7,-1.1,0.0));
#1465=DIRECTION('',(0.0,0.0,1.0));
#1466=VECTOR('',#1465,0.75);
#1467=LINE('',#1464,#1466);
#1468=EDGE_CURVE('',#1455,#1463,#1467,.T.);
#1469=ORIENTED_EDGE('',*,*,#1468,.T.);
#1470=CARTESIAN_POINT('',(-1.7,-1.1,0.75));
#1471=DIRECTION('',(1.0,0.0,0.0));
#1472=VECTOR('',#1471,3.4);
#1473=LINE('',#1470,#1472);
#1474=EDGE_CURVE('',#1463,#1055,#1473,.T.);
#1475=ORIENTED_EDGE('',*,*,#1474,.T.);
#1476=ORIENTED_EDGE('',*,*,#1060,.F.);
#1477=CARTESIAN_POINT('',(1.75,-1.1,0.0));
#1478=VERTEX_POINT('',#1477);
#1479=CARTESIAN_POINT('',(1.7,-1.1,0.0));
#1480=DIRECTION('',(1.0,0.0,0.0));
#1481=VECTOR('',#1480,0.05);
#1482=LINE('',#1479,#1481);
#1483=EDGE_CURVE('',#1047,#1478,#1482,.T.);
#1484=ORIENTED_EDGE('',*,*,#1483,.T.);
#1485=CARTESIAN_POINT('',(1.75,-1.1,0.1));
#1486=DIRECTION('',(0.0,-1.0,0.0));
#1487=DIRECTION('',(0.707106781186548,0.0,-0.707106781186547));
#1488=AXIS2_PLACEMENT_3D('',#1485,#1486,#1487);
#1489=CIRCLE('',#1488,0.1);
#1490=EDGE_CURVE('',#1478,#1112,#1489,.T.);
#1491=ORIENTED_EDGE('',*,*,#1490,.T.);
#1492=ORIENTED_EDGE('',*,*,#1117,.T.);
#1493=ORIENTED_EDGE('',*,*,#1240,.T.);
#1494=ORIENTED_EDGE('',*,*,#1365,.T.);
#1495=ORIENTED_EDGE('',*,*,#1406,.F.);
#1496=EDGE_LOOP('',(#1434,#1435,#1436,#1444,#1453,#1461,#1469,#1475,#1476,#1484,#1491,#1492,#1493,#1494,#1495));
#1497=FACE_OUTER_BOUND('',#1496,.T.);
#1498=ADVANCED_FACE('',(#1497),#1433,.F.);
#1499=CARTESIAN_POINT('',(1.85,1.1,0.0));
#1500=CARTESIAN_POINT('',(1.85,1.1,0.9));
#1501=CARTESIAN_POINT('',(-1.85,1.1,0.0));
#1502=CARTESIAN_POINT('',(-1.85,1.1,0.9));
#1503=B_SPLINE_SURFACE_WITH_KNOTS('',1,1,((#1499,#1501),(#1500,#1502)),.UNSPECIFIED.,.F.,.F.,.U.,(2,2),(2,2),(0.0,0.9),(0.0,3.700000000000001),.UNSPECIFIED.);
#1504=ORIENTED_EDGE('',*,*,#1089,.T.);
#1505=CARTESIAN_POINT('',(-1.7,1.1,0.0));
#1506=VERTEX_POINT('',#1505);
#1507=CARTESIAN_POINT('',(-1.7,1.1,0.0));
#1508=DIRECTION('',(0.0,0.0,1.0));
#1509=VECTOR('',#1508,0.75);
#1510=LINE('',#1507,#1509);
#1511=EDGE_CURVE('',#1506,#1078,#1510,.T.);
#1512=ORIENTED_EDGE('',*,*,#1511,.F.);
#1513=CARTESIAN_POINT('',(-1.75,1.1,0.0));
#1514=VERTEX_POINT('',#1513);
#1515=CARTESIAN_POINT('',(-1.75,1.1,0.0));
#1516=DIRECTION('',(1.0,0.0,0.0));
#1517=VECTOR('',#1516,0.05);
#1518=LINE('',#1515,#1517);
#1519=EDGE_CURVE('',#1514,#1506,#1518,.T.);
#1520=ORIENTED_EDGE('',*,*,#1519,.F.);
#1521=CARTESIAN_POINT('',(-1.85,1.1,0.1));
#1522=VERTEX_POINT('',#1521);
#1523=CARTESIAN_POINT('',(-1.75,1.1,0.1));
#1524=DIRECTION('',(0.0,-1.0,0.0));
#1525=DIRECTION('',(-0.707106781186548,0.0,-0.707106781186547));
#1526=AXIS2_PLACEMENT_3D('',#1523,#1524,#1525);
#1527=CIRCLE('',#1526,0.1);
#1528=EDGE_CURVE('',#1522,#1514,#1527,.T.);
#1529=ORIENTED_EDGE('',*,*,#1528,.F.);
#1530=CARTESIAN_POINT('',(-1.85,1.1,0.8));
#1531=VERTEX_POINT('',#1530);
#1532=CARTESIAN_POINT('',(-1.85,1.1,0.1));
#1533=DIRECTION('',(0.0,0.0,1.0));
#1534=VECTOR('',#1533,0.7);
#1535=LINE('',#1532,#1534);
#1536=EDGE_CURVE('',#1522,#1531,#1535,.T.);
#1537=ORIENTED_EDGE('',*,*,#1536,.T.);
#1538=CARTESIAN_POINT('',(-1.75,1.1,0.9));
#1539=VERTEX_POINT('',#1538);
#1540=CARTESIAN_POINT('',(-1.75,1.1,0.8));
#1541=DIRECTION('',(0.0,-1.0,0.0));
#1542=DIRECTION('',(-0.707106781186547,0.0,0.707106781186547));
#1543=AXIS2_PLACEMENT_3D('',#1540,#1541,#1542);
#1544=CIRCLE('',#1543,0.1);
#1545=EDGE_CURVE('',#1539,#1531,#1544,.T.);
#1546=ORIENTED_EDGE('',*,*,#1545,.F.);
#1547=CARTESIAN_POINT('',(-1.75,1.1,0.9));
#1548=DIRECTION('',(1.0,0.0,0.0));
#1549=VECTOR('',#1548,0.075);
#1550=LINE('',#1547,#1549);
#1551=EDGE_CURVE('',#1539,#1331,#1550,.T.);
#1552=ORIENTED_EDGE('',*,*,#1551,.T.);
#1553=ORIENTED_EDGE('',*,*,#1336,.T.);
#1554=ORIENTED_EDGE('',*,*,#1423,.F.);
#1555=ORIENTED_EDGE('',*,*,#1384,.T.);
#1556=ORIENTED_EDGE('',*,*,#1281,.T.);
#1557=ORIENTED_EDGE('',*,*,#1133,.F.);
#1558=CARTESIAN_POINT('',(1.75,1.1,0.0));
#1559=VERTEX_POINT('',#1558);
#1560=CARTESIAN_POINT('',(1.75,1.1,0.1));
#1561=DIRECTION('',(0.0,1.0,0.0));
#1562=DIRECTION('',(0.707106781186548,0.0,-0.707106781186547));
#1563=AXIS2_PLACEMENT_3D('',#1560,#1561,#1562);
#1564=CIRCLE('',#1563,0.1);
#1565=EDGE_CURVE('',#1120,#1559,#1564,.T.);
#1566=ORIENTED_EDGE('',*,*,#1565,.T.);
#1567=CARTESIAN_POINT('',(1.75,1.1,0.0));
#1568=DIRECTION('',(-1.0,0.0,0.0));
#1569=VECTOR('',#1568,0.05);
#1570=LINE('',#1567,#1569);
#1571=EDGE_CURVE('',#1559,#1039,#1570,.T.);
#1572=ORIENTED_EDGE('',*,*,#1571,.T.);
#1573=ORIENTED_EDGE('',*,*,#1044,.T.);
#1574=EDGE_LOOP('',(#1504,#1512,#1520,#1529,#1537,#1546,#1552,#1553,#1554,#1555,#1556,#1557,#1566,#1572,#1573));
#1575=FACE_OUTER_BOUND('',#1574,.T.);
#1576=ADVANCED_FACE('',(#1575),#1503,.F.);
#1577=CARTESIAN_POINT('',(-1.7,1.1,0.0));
#1578=DIRECTION('',(1.0,0.0,0.0));
#1579=DIRECTION('',(0.0,0.0,-1.0));
#1580=AXIS2_PLACEMENT_3D('',#1577,#1578,#1579);
#1581=PLANE('',#1580);
#1582=ORIENTED_EDGE('',*,*,#951,.T.);
#1583=CARTESIAN_POINT('',(-1.7,-0.350000000000001,0.75));
#1584=DIRECTION('',(0.0,-1.0,0.0));
#1585=VECTOR('',#1584,0.749999999999999);
#1586=LINE('',#1583,#1585);
#1587=EDGE_CURVE('',#940,#1463,#1586,.T.);
#1588=ORIENTED_EDGE('',*,*,#1587,.T.);
#1589=ORIENTED_EDGE('',*,*,#1468,.F.);
#1590=CARTESIAN_POINT('',(-1.7,1.1,0.0));
#1591=DIRECTION('',(0.0,-1.0,0.0));
#1592=VECTOR('',#1591,2.2);
#1593=LINE('',#1590,#1592);
#1594=EDGE_CURVE('',#1506,#1455,#1593,.T.);
#1595=ORIENTED_EDGE('',*,*,#1594,.F.);
#1596=ORIENTED_EDGE('',*,*,#1511,.T.);
#1597=ORIENTED_EDGE('',*,*,#1083,.T.);
#1598=ORIENTED_EDGE('',*,*,#853,.T.);
#1599=ORIENTED_EDGE('',*,*,#875,.T.);
#1600=EDGE_LOOP('',(#1582,#1588,#1589,#1595,#1596,#1597,#1598,#1599));
#1601=FACE_OUTER_BOUND('',#1600,.T.);
#1602=ADVANCED_FACE('',(#1601),#1581,.T.);
#1603=CARTESIAN_POINT('',(-1.75,-0.55,0.1));
#1604=DIRECTION('',(-1.009294E-016,1.0,0.0));
#1605=DIRECTION('',(-0.707106781186548,0.0,-0.707106781186547));
#1606=AXIS2_PLACEMENT_3D('',#1603,#1604,#1605);
#1607=CYLINDRICAL_SURFACE('',#1606,0.1);
#1608=ORIENTED_EDGE('',*,*,#1528,.T.);
#1609=CARTESIAN_POINT('',(-1.75,1.1,0.0));
#1610=DIRECTION('',(0.0,-1.0,0.0));
#1611=VECTOR('',#1610,2.2);
#1612=LINE('',#1609,#1611);
#1613=EDGE_CURVE('',#1514,#1446,#1612,.T.);
#1614=ORIENTED_EDGE('',*,*,#1613,.T.);
#1615=ORIENTED_EDGE('',*,*,#1452,.T.);
#1616=CARTESIAN_POINT('',(-1.85,-1.1,0.1));
#1617=DIRECTION('',(0.0,1.0,0.0));
#1618=VECTOR('',#1617,2.2);
#1619=LINE('',#1616,#1618);
#1620=EDGE_CURVE('',#1438,#1522,#1619,.T.);
#1621=ORIENTED_EDGE('',*,*,#1620,.T.);
#1622=EDGE_LOOP('',(#1608,#1614,#1615,#1621));
#1623=FACE_OUTER_BOUND('',#1622,.T.);
#1624=ADVANCED_FACE('',(#1623),#1607,.T.);
#1625=CARTESIAN_POINT('',(-1.85,-1.1,0.0));
#1626=DIRECTION('',(-1.0,0.0,0.0));
#1627=DIRECTION('',(0.0,0.0,1.0));
#1628=AXIS2_PLACEMENT_3D('',#1625,#1626,#1627);
#1629=PLANE('',#1628);
#1630=ORIENTED_EDGE('',*,*,#837,.T.);
#1631=CARTESIAN_POINT('',(-1.85,1.1,0.8));
#1632=DIRECTION('',(0.0,-1.0,0.0));
#1633=VECTOR('',#1632,0.750000000000001);
#1634=LINE('',#1631,#1633);
#1635=EDGE_CURVE('',#1531,#823,#1634,.T.);
#1636=ORIENTED_EDGE('',*,*,#1635,.F.);
#1637=ORIENTED_EDGE('',*,*,#1536,.F.);
#1638=ORIENTED_EDGE('',*,*,#1620,.F.);
#1639=ORIENTED_EDGE('',*,*,#1443,.T.);
#1640=ORIENTED_EDGE('',*,*,#1156,.F.);
#1641=ORIENTED_EDGE('',*,*,#960,.T.);
#1642=ORIENTED_EDGE('',*,*,#884,.T.);
#1643=EDGE_LOOP('',(#1630,#1636,#1637,#1638,#1639,#1640,#1641,#1642));
#1644=FACE_OUTER_BOUND('',#1643,.T.);
#1645=ADVANCED_FACE('',(#1644),#1629,.T.);
#1646=CARTESIAN_POINT('',(-1.75,-0.55,0.8));
#1647=DIRECTION('',(-1.009294E-016,1.0,0.0));
#1648=DIRECTION('',(-0.707106781186547,0.0,0.707106781186547));
#1649=AXIS2_PLACEMENT_3D('',#1646,#1647,#1648);
#1650=CYLINDRICAL_SURFACE('',#1649,0.1);
#1651=ORIENTED_EDGE('',*,*,#829,.T.);
#1652=CARTESIAN_POINT('',(-1.75,0.349999999999999,0.9));
#1653=DIRECTION('',(0.0,1.0,0.0));
#1654=VECTOR('',#1653,0.750000000000001);
#1655=LINE('',#1652,#1654);
#1656=EDGE_CURVE('',#815,#1539,#1655,.T.);
#1657=ORIENTED_EDGE('',*,*,#1656,.T.);
#1658=ORIENTED_EDGE('',*,*,#1545,.T.);
#1659=ORIENTED_EDGE('',*,*,#1635,.T.);
#1660=EDGE_LOOP('',(#1651,#1657,#1658,#1659));
#1661=FACE_OUTER_BOUND('',#1660,.T.);
#1662=ADVANCED_FACE('',(#1661),#1650,.T.);
#1663=CARTESIAN_POINT('',(-1.775,4.857226E-017,0.0));
#1664=DIRECTION('',(0.0,0.0,1.0));
#1665=DIRECTION('',(1.0,0.0,0.0));
#1666=AXIS2_PLACEMENT_3D('',#1663,#1664,#1665);
#1667=PLANE('',#1666);
#1668=ORIENTED_EDGE('',*,*,#1613,.F.);
#1669=ORIENTED_EDGE('',*,*,#1519,.T.);
#1670=ORIENTED_EDGE('',*,*,#1594,.T.);
#1671=ORIENTED_EDGE('',*,*,#1460,.T.);
#1672=EDGE_LOOP('',(#1668,#1669,#1670,#1671));
#1673=FACE_OUTER_BOUND('',#1672,.T.);
#1674=ADVANCED_FACE('',(#1673),#1667,.F.);
#1675=CARTESIAN_POINT('',(-1.75,1.1,0.9));
#1676=CARTESIAN_POINT('',(-1.675,1.1,0.9));
#1677=CARTESIAN_POINT('',(-1.75,0.349999999999999,0.9));
#1678=CARTESIAN_POINT('',(-1.675000000000001,0.349999999999999,0.9));
#1679=B_SPLINE_SURFACE_WITH_KNOTS('',1,1,((#1675,#1677),(#1676,#1678)),.UNSPECIFIED.,.F.,.F.,.U.,(2,2),(2,2),(0.0,0.075),(0.0,0.750000000000001),.UNSPECIFIED.);
#1680=ORIENTED_EDGE('',*,*,#820,.T.);
#1681=ORIENTED_EDGE('',*,*,#1342,.T.);
#1682=ORIENTED_EDGE('',*,*,#1551,.F.);
#1683=ORIENTED_EDGE('',*,*,#1656,.F.);
#1684=EDGE_LOOP('',(#1680,#1681,#1682,#1683));
#1685=FACE_OUTER_BOUND('',#1684,.T.);
#1686=ADVANCED_FACE('',(#1685),#1679,.F.);
#1687=CARTESIAN_POINT('',(-1.7,-0.350000000000001,0.75));
#1688=CARTESIAN_POINT('',(1.7,-0.350000000000001,0.75));
#1689=CARTESIAN_POINT('',(-1.7,-1.1,0.75));
#1690=CARTESIAN_POINT('',(1.7,-1.1,0.75));
#1691=B_SPLINE_SURFACE_WITH_KNOTS('',1,1,((#1687,#1689),(#1688,#1690)),.UNSPECIFIED.,.F.,.F.,.U.,(2,2),(2,2),(0.0,3.4),(0.0,0.749999999999999),.UNSPECIFIED.);
#1692=ORIENTED_EDGE('',*,*,#945,.T.);
#1693=ORIENTED_EDGE('',*,*,#1066,.F.);
#1694=ORIENTED_EDGE('',*,*,#1474,.F.);
#1695=ORIENTED_EDGE('',*,*,#1587,.F.);
#1696=EDGE_LOOP('',(#1692,#1693,#1694,#1695));
#1697=FACE_OUTER_BOUND('',#1696,.T.);
#1698=ADVANCED_FACE('',(#1697),#1691,.T.);
#1699=CARTESIAN_POINT('',(1.679289321881345,-1.1,0.170710678118655));
#1700=CARTESIAN_POINT('',(1.679289321881345,1.1,0.170710678118655));
#1701=CARTESIAN_POINT('',(1.608578643762691,-1.1,0.1));
#1702=CARTESIAN_POINT('',(1.608578643762691,1.1,0.1));
#1703=CARTESIAN_POINT('',(1.679289321881345,-1.1,0.029289321881345));
#1704=CARTESIAN_POINT('',(1.679289321881346,1.1,0.029289321881345));
#1705=CARTESIAN_POINT('',(1.75,-1.1,-0.041421356237309));
#1706=CARTESIAN_POINT('',(1.75,1.1,-0.041421356237309));
#1707=CARTESIAN_POINT('',(1.820710678118655,-1.1,0.029289321881345));
#1708=CARTESIAN_POINT('',(1.820710678118655,1.1,0.029289321881345));
#1709=CARTESIAN_POINT('',(1.891421356237309,-1.1,0.1));
#1710=CARTESIAN_POINT('',(1.89142135623731,1.1,0.1));
#1711=CARTESIAN_POINT('',(1.820710678118655,-1.1,0.170710678118655));
#1712=CARTESIAN_POINT('',(1.820710678118655,1.1,0.170710678118655));
#1713=CARTESIAN_POINT('',(1.75,-1.1,0.24142135623731));
#1714=CARTESIAN_POINT('',(1.75,1.1,0.24142135623731));
#1715=CARTESIAN_POINT('',(1.679289321881345,-1.1,0.170710678118655));
#1716=CARTESIAN_POINT('',(1.679289321881345,1.1,0.170710678118655));
#1724=(BOUNDED_SURFACE()B_SPLINE_SURFACE(1,2,((#1699,#1701,#1703,#1705,#1707,#1709,#1711,#1713,#1715),(#1700,#1702,#1704,#1706,#1708,#1710,#1712,#1714,#1716)),.UNSPECIFIED.,.F.,.T.,.U.)B_SPLINE_SURFACE_WITH_KNOTS((2,2),(3,2,2,2,3),(-5.5,16.5),(0.0,0.15707963267949,0.314159265358979,0.471238898038469,0.628318530717959),.UNSPECIFIED.)GEOMETRIC_REPRESENTATION_ITEM()RATIONAL_B_SPLINE_SURFACE(((1.0,0.707106781186548,1.0,0.707106781186548,1.0,0.707106781186548,1.0,0.707106781186548,1.0),(1.0,0.707106781186548,1.0,0.707106781186548,1.0,0.707106781186548,1.0,0.707106781186548,1.0)))REPRESENTATION_ITEM('')SURFACE());
#1725=ORIENTED_EDGE('',*,*,#1565,.F.);
#1726=ORIENTED_EDGE('',*,*,#1125,.F.);
#1727=ORIENTED_EDGE('',*,*,#1490,.F.);
#1728=CARTESIAN_POINT('',(1.75,1.1,0.0));
#1729=DIRECTION('',(0.0,-1.0,0.0));
#1730=VECTOR('',#1729,2.2);
#1731=LINE('',#1728,#1730);
#1732=EDGE_CURVE('',#1559,#1478,#1731,.T.);
#1733=ORIENTED_EDGE('',*,*,#1732,.F.);
#1734=EDGE_LOOP('',(#1725,#1726,#1727,#1733));
#1735=FACE_OUTER_BOUND('',#1734,.T.);
#1736=ADVANCED_FACE('',(#1735),#1724,.T.);
#1737=CARTESIAN_POINT('',(1.75,1.1,0.0));
#1738=CARTESIAN_POINT('',(1.7,1.1,0.0));
#1739=CARTESIAN_POINT('',(1.75,-1.1,0.0));
#1740=CARTESIAN_POINT('',(1.7,-1.1,0.0));
#1741=B_SPLINE_SURFACE_WITH_KNOTS('',1,1,((#1737,#1739),(#1738,#1740)),.UNSPECIFIED.,.F.,.F.,.U.,(2,2),(2,2),(0.0,0.05),(0.0,2.2),.UNSPECIFIED.);
#1742=ORIENTED_EDGE('',*,*,#1732,.T.);
#1743=ORIENTED_EDGE('',*,*,#1483,.F.);
#1744=ORIENTED_EDGE('',*,*,#1052,.F.);
#1745=ORIENTED_EDGE('',*,*,#1571,.F.);
#1746=EDGE_LOOP('',(#1742,#1743,#1744,#1745));
#1747=FACE_OUTER_BOUND('',#1746,.T.);
#1748=ADVANCED_FACE('',(#1747),#1741,.F.);
#1749=CLOSED_SHELL('',(#863,#894,#925,#1021,#1070,#1094,#1143,#1175,#1199,#1245,#1291,#1315,#1346,#1370,#1394,#1411,#1428,#1498,#1576,#1602,#1624,#1645,#1662,#1674,#1686,#1698,#1736,#1748));
#1750=MANIFOLD_SOLID_BREP('21D2',#1749);
#1751=COLOUR_RGB('253',0.732,0.732,0.732);
#1752=SURFACE_STYLE_USAGE(.BOTH.,#1753);
#1753=SURFACE_SIDE_STYLE('NONE',(#1754));
#1754=SURFACE_STYLE_FILL_AREA(#1755);
#1755=FILL_AREA_STYLE('NONE',(#1756));
#1756=FILL_AREA_STYLE_COLOUR('NONE',#1751);
#1757=PRESENTATION_STYLE_ASSIGNMENT((#1752));
#1758=STYLED_ITEM('NONE',(#1757),#1750);
#1759=CARTESIAN_POINT('',(1.05,-1.1,0.15));
#1760=CARTESIAN_POINT('',(1.05,-1.1,0.0));
#1761=CARTESIAN_POINT('',(1.7,-1.1,0.15));
#1762=CARTESIAN_POINT('',(1.7,-1.1,0.0));
#1763=B_SPLINE_SURFACE_WITH_KNOTS('',1,1,((#1759,#1761),(#1760,#1762)),.UNSPECIFIED.,.F.,.F.,.U.,(2,2),(2,2),(0.0,0.15),(0.0,0.65),.UNSPECIFIED.);
#1764=CARTESIAN_POINT('',(1.05,-1.1,0.15));
#1765=VERTEX_POINT('',#1764);
#1766=CARTESIAN_POINT('',(1.7,-1.1,0.15));
#1767=VERTEX_POINT('',#1766);
#1768=CARTESIAN_POINT('',(1.05,-1.1,0.15));
#1769=DIRECTION('',(1.0,0.0,0.0));
#1770=VECTOR('',#1769,0.65);
#1771=LINE('',#1768,#1770);
#1772=EDGE_CURVE('',#1765,#1767,#1771,.T.);
#1773=ORIENTED_EDGE('',*,*,#1772,.F.);
#1774=CARTESIAN_POINT('',(1.05,-1.1,0.0));
#1775=VERTEX_POINT('',#1774);
#1776=CARTESIAN_POINT('',(1.05,-1.1,0.0));
#1777=DIRECTION('',(0.0,0.0,1.0));
#1778=VECTOR('',#1777,0.15);
#1779=LINE('',#1776,#1778);
#1780=EDGE_CURVE('',#1775,#1765,#1779,.T.);
#1781=ORIENTED_EDGE('',*,*,#1780,.F.);
#1782=CARTESIAN_POINT('',(1.7,-1.1,0.0));
#1783=VERTEX_POINT('',#1782);
#1784=CARTESIAN_POINT('',(1.7,-1.1,0.0));
#1785=DIRECTION('',(-1.0,0.0,0.0));
#1786=VECTOR('',#1785,0.65);
#1787=LINE('',#1784,#1786);
#1788=EDGE_CURVE('',#1783,#1775,#1787,.T.);
#1789=ORIENTED_EDGE('',*,*,#1788,.F.);
#1790=CARTESIAN_POINT('',(1.7,-1.1,0.0));
#1791=DIRECTION('',(0.0,0.0,1.0));
#1792=VECTOR('',#1791,0.15);
#1793=LINE('',#1790,#1792);
#1794=EDGE_CURVE('',#1783,#1767,#1793,.T.);
#1795=ORIENTED_EDGE('',*,*,#1794,.T.);
#1796=EDGE_LOOP('',(#1773,#1781,#1789,#1795));
#1797=FACE_OUTER_BOUND('',#1796,.T.);
#1798=ADVANCED_FACE('',(#1797),#1763,.T.);
#1799=CARTESIAN_POINT('',(1.7,1.1,0.0));
#1800=CARTESIAN_POINT('',(1.7,1.1,0.15));
#1801=CARTESIAN_POINT('',(1.7,-1.1,0.0));
#1802=CARTESIAN_POINT('',(1.7,-1.1,0.15));
#1803=B_SPLINE_SURFACE_WITH_KNOTS('',1,1,((#1799,#1801),(#1800,#1802)),.UNSPECIFIED.,.F.,.F.,.U.,(2,2),(2,2),(0.0,0.15),(0.0,2.2),.UNSPECIFIED.);
#1804=CARTESIAN_POINT('',(1.7,1.1,0.15));
#1805=VERTEX_POINT('',#1804);
#1806=CARTESIAN_POINT('',(1.7,-1.1,0.15));
#1807=DIRECTION('',(0.0,1.0,0.0));
#1808=VECTOR('',#1807,2.2);
#1809=LINE('',#1806,#1808);
#1810=EDGE_CURVE('',#1767,#1805,#1809,.T.);
#1811=ORIENTED_EDGE('',*,*,#1810,.F.);
#1812=ORIENTED_EDGE('',*,*,#1794,.F.);
#1813=CARTESIAN_POINT('',(1.7,1.1,0.0));
#1814=VERTEX_POINT('',#1813);
#1815=CARTESIAN_POINT('',(1.7,1.1,0.0));
#1816=DIRECTION('',(0.0,-1.0,0.0));
#1817=VECTOR('',#1816,2.2);
#1818=LINE('',#1815,#1817);
#1819=EDGE_CURVE('',#1814,#1783,#1818,.T.);
#1820=ORIENTED_EDGE('',*,*,#1819,.F.);
#1821=CARTESIAN_POINT('',(1.7,1.1,0.0));
#1822=DIRECTION('',(0.0,0.0,1.0));
#1823=VECTOR('',#1822,0.15);
#1824=LINE('',#1821,#1823);
#1825=EDGE_CURVE('',#1814,#1805,#1824,.T.);
#1826=ORIENTED_EDGE('',*,*,#1825,.T.);
#1827=EDGE_LOOP('',(#1811,#1812,#1820,#1826));
#1828=FACE_OUTER_BOUND('',#1827,.T.);
#1829=ADVANCED_FACE('',(#1828),#1803,.T.);
#1830=CARTESIAN_POINT('',(1.05,1.1,0.0));
#1831=CARTESIAN_POINT('',(1.05,1.1,0.15));
#1832=CARTESIAN_POINT('',(1.7,1.1,0.0));
#1833=CARTESIAN_POINT('',(1.7,1.1,0.15));
#1834=B_SPLINE_SURFACE_WITH_KNOTS('',1,1,((#1830,#1832),(#1831,#1833)),.UNSPECIFIED.,.F.,.F.,.U.,(2,2),(2,2),(0.0,0.15),(0.0,0.65),.UNSPECIFIED.);
#1835=CARTESIAN_POINT('',(1.05,1.1,0.15));
#1836=VERTEX_POINT('',#1835);
#1837=CARTESIAN_POINT('',(1.7,1.1,0.15));
#1838=DIRECTION('',(-1.0,0.0,0.0));
#1839=VECTOR('',#1838,0.65);
#1840=LINE('',#1837,#1839);
#1841=EDGE_CURVE('',#1805,#1836,#1840,.T.);
#1842=ORIENTED_EDGE('',*,*,#1841,.F.);
#1843=ORIENTED_EDGE('',*,*,#1825,.F.);
#1844=CARTESIAN_POINT('',(1.05,1.1,0.0));
#1845=VERTEX_POINT('',#1844);
#1846=CARTESIAN_POINT('',(1.05,1.1,0.0));
#1847=DIRECTION('',(1.0,0.0,0.0));
#1848=VECTOR('',#1847,0.65);
#1849=LINE('',#1846,#1848);
#1850=EDGE_CURVE('',#1845,#1814,#1849,.T.);
#1851=ORIENTED_EDGE('',*,*,#1850,.F.);
#1852=CARTESIAN_POINT('',(1.05,1.1,0.0));
#1853=DIRECTION('',(0.0,0.0,1.0));
#1854=VECTOR('',#1853,0.15);
#1855=LINE('',#1852,#1854);
#1856=EDGE_CURVE('',#1845,#1836,#1855,.T.);
#1857=ORIENTED_EDGE('',*,*,#1856,.T.);
#1858=EDGE_LOOP('',(#1842,#1843,#1851,#1857));
#1859=FACE_OUTER_BOUND('',#1858,.T.);
#1860=ADVANCED_FACE('',(#1859),#1834,.T.);
#1861=CARTESIAN_POINT('',(1.05,1.1,0.15));
#1862=CARTESIAN_POINT('',(1.05,1.1,0.0));
#1863=CARTESIAN_POINT('',(1.05,-1.1,0.15));
#1864=CARTESIAN_POINT('',(1.05,-1.1,0.0));
#1865=B_SPLINE_SURFACE_WITH_KNOTS('',1,1,((#1861,#1863),(#1862,#1864)),.UNSPECIFIED.,.F.,.F.,.U.,(2,2),(2,2),(0.0,0.15),(0.0,2.2),.UNSPECIFIED.);
#1866=CARTESIAN_POINT('',(1.05,1.1,0.15));
#1867=DIRECTION('',(0.0,-1.0,0.0));
#1868=VECTOR('',#1867,2.2);
#1869=LINE('',#1866,#1868);
#1870=EDGE_CURVE('',#1836,#1765,#1869,.T.);
#1871=ORIENTED_EDGE('',*,*,#1870,.F.);
#1872=ORIENTED_EDGE('',*,*,#1856,.F.);
#1873=CARTESIAN_POINT('',(1.05,-1.1,0.0));
#1874=DIRECTION('',(0.0,1.0,0.0));
#1875=VECTOR('',#1874,2.2);
#1876=LINE('',#1873,#1875);
#1877=EDGE_CURVE('',#1775,#1845,#1876,.T.);
#1878=ORIENTED_EDGE('',*,*,#1877,.F.);
#1879=ORIENTED_EDGE('',*,*,#1780,.T.);
#1880=EDGE_LOOP('',(#1871,#1872,#1878,#1879));
#1881=FACE_OUTER_BOUND('',#1880,.T.);
#1882=ADVANCED_FACE('',(#1881),#1865,.T.);
#1883=CARTESIAN_POINT('',(1.7,1.1,0.15));
#1884=CARTESIAN_POINT('',(1.05,1.1,0.15));
#1885=CARTESIAN_POINT('',(1.7,-1.1,0.15));
#1886=CARTESIAN_POINT('',(1.05,-1.1,0.15));
#1887=B_SPLINE_SURFACE_WITH_KNOTS('',1,1,((#1883,#1885),(#1884,#1886)),.UNSPECIFIED.,.F.,.F.,.U.,(2,2),(2,2),(0.0,0.65),(0.0,2.2),.UNSPECIFIED.);
#1888=ORIENTED_EDGE('',*,*,#1772,.T.);
#1889=ORIENTED_EDGE('',*,*,#1810,.T.);
#1890=ORIENTED_EDGE('',*,*,#1841,.T.);
#1891=ORIENTED_EDGE('',*,*,#1870,.T.);
#1892=EDGE_LOOP('',(#1888,#1889,#1890,#1891));
#1893=FACE_OUTER_BOUND('',#1892,.T.);
#1894=ADVANCED_FACE('',(#1893),#1887,.T.);
#1895=CARTESIAN_POINT('',(1.7,1.1,0.0));
#1896=CARTESIAN_POINT('',(1.05,1.1,0.0));
#1897=CARTESIAN_POINT('',(1.7,-1.1,0.0));
#1898=CARTESIAN_POINT('',(1.05,-1.1,0.0));
#1899=B_SPLINE_SURFACE_WITH_KNOTS('',1,1,((#1895,#1897),(#1896,#1898)),.UNSPECIFIED.,.F.,.F.,.U.,(2,2),(2,2),(0.0,0.65),(0.0,2.2),.UNSPECIFIED.);
#1900=ORIENTED_EDGE('',*,*,#1877,.T.);
#1901=ORIENTED_EDGE('',*,*,#1850,.T.);
#1902=ORIENTED_EDGE('',*,*,#1819,.T.);
#1903=ORIENTED_EDGE('',*,*,#1788,.T.);
#1904=EDGE_LOOP('',(#1900,#1901,#1902,#1903));
#1905=FACE_OUTER_BOUND('',#1904,.T.);
#1906=ADVANCED_FACE('',(#1905),#1899,.F.);
#1907=CLOSED_SHELL('',(#1798,#1829,#1860,#1882,#1894,#1906));
#1908=MANIFOLD_SOLID_BREP('21C3',#1907);
#1909=STYLED_ITEM('NONE',(#1757),#1908);
#1910=CARTESIAN_POINT('',(-1.05,-1.1,0.0));
#1911=DIRECTION('',(0.0,-1.0,0.0));
#1912=DIRECTION('',(0.0,0.0,-1.0));
#1913=AXIS2_PLACEMENT_3D('',#1910,#1911,#1912);
#1914=PLANE('',#1913);
#1915=CARTESIAN_POINT('',(-1.05,-1.1,0.15));
#1916=VERTEX_POINT('',#1915);
#1917=CARTESIAN_POINT('',(-1.7,-1.1,0.15));
#1918=VERTEX_POINT('',#1917);
#1919=CARTESIAN_POINT('',(-1.05,-1.1,0.15));
#1920=DIRECTION('',(-1.0,0.0,0.0));
#1921=VECTOR('',#1920,0.65);
#1922=LINE('',#1919,#1921);
#1923=EDGE_CURVE('',#1916,#1918,#1922,.T.);
#1924=ORIENTED_EDGE('',*,*,#1923,.T.);
#1925=CARTESIAN_POINT('',(-1.7,-1.1,0.0));
#1926=VERTEX_POINT('',#1925);
#1927=CARTESIAN_POINT('',(-1.7,-1.1,0.0));
#1928=DIRECTION('',(0.0,0.0,1.0));
#1929=VECTOR('',#1928,0.15);
#1930=LINE('',#1927,#1929);
#1931=EDGE_CURVE('',#1926,#1918,#1930,.T.);
#1932=ORIENTED_EDGE('',*,*,#1931,.F.);
#1933=CARTESIAN_POINT('',(-1.05,-1.1,0.0));
#1934=VERTEX_POINT('',#1933);
#1935=CARTESIAN_POINT('',(-1.7,-1.1,0.0));
#1936=DIRECTION('',(1.0,0.0,0.0));
#1937=VECTOR('',#1936,0.65);
#1938=LINE('',#1935,#1937);
#1939=EDGE_CURVE('',#1926,#1934,#1938,.T.);
#1940=ORIENTED_EDGE('',*,*,#1939,.T.);
#1941=CARTESIAN_POINT('',(-1.05,-1.1,0.0));
#1942=DIRECTION('',(0.0,0.0,1.0));
#1943=VECTOR('',#1942,0.15);
#1944=LINE('',#1941,#1943);
#1945=EDGE_CURVE('',#1934,#1916,#1944,.T.);
#1946=ORIENTED_EDGE('',*,*,#1945,.T.);
#1947=EDGE_LOOP('',(#1924,#1932,#1940,#1946));
#1948=FACE_OUTER_BOUND('',#1947,.T.);
#1949=ADVANCED_FACE('',(#1948),#1914,.T.);
#1950=CARTESIAN_POINT('',(-1.7,-1.1,0.0));
#1951=DIRECTION('',(-1.0,0.0,0.0));
#1952=DIRECTION('',(0.0,0.0,1.0));
#1953=AXIS2_PLACEMENT_3D('',#1950,#1951,#1952);
#1954=PLANE('',#1953);
#1955=CARTESIAN_POINT('',(-1.7,1.1,0.15));
#1956=VERTEX_POINT('',#1955);
#1957=CARTESIAN_POINT('',(-1.7,-1.1,0.15));
#1958=DIRECTION('',(0.0,1.0,0.0));
#1959=VECTOR('',#1958,2.2);
#1960=LINE('',#1957,#1959);
#1961=EDGE_CURVE('',#1918,#1956,#1960,.T.);
#1962=ORIENTED_EDGE('',*,*,#1961,.T.);
#1963=CARTESIAN_POINT('',(-1.7,1.1,0.0));
#1964=VERTEX_POINT('',#1963);
#1965=CARTESIAN_POINT('',(-1.7,1.1,0.0));
#1966=DIRECTION('',(0.0,0.0,1.0));
#1967=VECTOR('',#1966,0.15);
#1968=LINE('',#1965,#1967);
#1969=EDGE_CURVE('',#1964,#1956,#1968,.T.);
#1970=ORIENTED_EDGE('',*,*,#1969,.F.);
#1971=CARTESIAN_POINT('',(-1.7,1.1,0.0));
#1972=DIRECTION('',(0.0,-1.0,0.0));
#1973=VECTOR('',#1972,2.2);
#1974=LINE('',#1971,#1973);
#1975=EDGE_CURVE('',#1964,#1926,#1974,.T.);
#1976=ORIENTED_EDGE('',*,*,#1975,.T.);
#1977=ORIENTED_EDGE('',*,*,#1931,.T.);
#1978=EDGE_LOOP('',(#1962,#1970,#1976,#1977));
#1979=FACE_OUTER_BOUND('',#1978,.T.);
#1980=ADVANCED_FACE('',(#1979),#1954,.T.);
#1981=CARTESIAN_POINT('',(-1.7,1.1,0.0));
#1982=DIRECTION('',(0.0,1.0,0.0));
#1983=DIRECTION('',(0.0,0.0,1.0));
#1984=AXIS2_PLACEMENT_3D('',#1981,#1982,#1983);
#1985=PLANE('',#1984);
#1986=CARTESIAN_POINT('',(-1.05,1.1,0.15));
#1987=VERTEX_POINT('',#1986);
#1988=CARTESIAN_POINT('',(-1.7,1.1,0.15));
#1989=DIRECTION('',(1.0,0.0,0.0));
#1990=VECTOR('',#1989,0.65);
#1991=LINE('',#1988,#1990);
#1992=EDGE_CURVE('',#1956,#1987,#1991,.T.);
#1993=ORIENTED_EDGE('',*,*,#1992,.T.);
#1994=CARTESIAN_POINT('',(-1.05,1.1,0.0));
#1995=VERTEX_POINT('',#1994);
#1996=CARTESIAN_POINT('',(-1.05,1.1,0.0));
#1997=DIRECTION('',(0.0,0.0,1.0));
#1998=VECTOR('',#1997,0.15);
#1999=LINE('',#1996,#1998);
#2000=EDGE_CURVE('',#1995,#1987,#1999,.T.);
#2001=ORIENTED_EDGE('',*,*,#2000,.F.);
#2002=CARTESIAN_POINT('',(-1.05,1.1,0.0));
#2003=DIRECTION('',(-1.0,0.0,0.0));
#2004=VECTOR('',#2003,0.65);
#2005=LINE('',#2002,#2004);
#2006=EDGE_CURVE('',#1995,#1964,#2005,.T.);
#2007=ORIENTED_EDGE('',*,*,#2006,.T.);
#2008=ORIENTED_EDGE('',*,*,#1969,.T.);
#2009=EDGE_LOOP('',(#1993,#2001,#2007,#2008));
#2010=FACE_OUTER_BOUND('',#2009,.T.);
#2011=ADVANCED_FACE('',(#2010),#1985,.T.);
#2012=CARTESIAN_POINT('',(-1.05,1.1,0.0));
#2013=DIRECTION('',(1.0,0.0,0.0));
#2014=DIRECTION('',(0.0,0.0,-1.0));
#2015=AXIS2_PLACEMENT_3D('',#2012,#2013,#2014);
#2016=PLANE('',#2015);
#2017=CARTESIAN_POINT('',(-1.05,1.1,0.15));
#2018=DIRECTION('',(0.0,-1.0,0.0));
#2019=VECTOR('',#2018,2.2);
#2020=LINE('',#2017,#2019);
#2021=EDGE_CURVE('',#1987,#1916,#2020,.T.);
#2022=ORIENTED_EDGE('',*,*,#2021,.T.);
#2023=ORIENTED_EDGE('',*,*,#1945,.F.);
#2024=CARTESIAN_POINT('',(-1.05,-1.1,0.0));
#2025=DIRECTION('',(0.0,1.0,0.0));
#2026=VECTOR('',#2025,2.2);
#2027=LINE('',#2024,#2026);
#2028=EDGE_CURVE('',#1934,#1995,#2027,.T.);
#2029=ORIENTED_EDGE('',*,*,#2028,.T.);
#2030=ORIENTED_EDGE('',*,*,#2000,.T.);
#2031=EDGE_LOOP('',(#2022,#2023,#2029,#2030));
#2032=FACE_OUTER_BOUND('',#2031,.T.);
#2033=ADVANCED_FACE('',(#2032),#2016,.T.);
#2034=CARTESIAN_POINT('',(-1.375,0.0,0.15));
#2035=DIRECTION('',(0.0,0.0,1.0));
#2036=DIRECTION('',(1.0,0.0,0.0));
#2037=AXIS2_PLACEMENT_3D('',#2034,#2035,#2036);
#2038=PLANE('',#2037);
#2039=ORIENTED_EDGE('',*,*,#1923,.F.);
#2040=ORIENTED_EDGE('',*,*,#2021,.F.);
#2041=ORIENTED_EDGE('',*,*,#1992,.F.);
#2042=ORIENTED_EDGE('',*,*,#1961,.F.);
#2043=EDGE_LOOP('',(#2039,#2040,#2041,#2042));
#2044=FACE_OUTER_BOUND('',#2043,.T.);
#2045=ADVANCED_FACE('',(#2044),#2038,.T.);
#2046=CARTESIAN_POINT('',(-1.375,0.0,0.0));
#2047=DIRECTION('',(0.0,0.0,1.0));
#2048=DIRECTION('',(1.0,0.0,0.0));
#2049=AXIS2_PLACEMENT_3D('',#2046,#2047,#2048);
#2050=PLANE('',#2049);
#2051=ORIENTED_EDGE('',*,*,#2028,.F.);
#2052=ORIENTED_EDGE('',*,*,#1939,.F.);
#2053=ORIENTED_EDGE('',*,*,#1975,.F.);
#2054=ORIENTED_EDGE('',*,*,#2006,.F.);
#2055=EDGE_LOOP('',(#2051,#2052,#2053,#2054));
#2056=FACE_OUTER_BOUND('',#2055,.T.);
#2057=ADVANCED_FACE('',(#2056),#2050,.F.);
#2058=CLOSED_SHELL('',(#1949,#1980,#2011,#2033,#2045,#2057));
#2059=MANIFOLD_SOLID_BREP('21C1',#2058);
#2060=STYLED_ITEM('NONE',(#1757),#2059);
#2061=ADVANCED_BREP_SHAPE_REPRESENTATION('ABSR1',(#152,#458,#748,#1750,#1908,#2059),#28);
#2062=SHAPE_REPRESENTATION_RELATIONSHIP('SRRPL1','',#2061,#62);
ENDSEC;
END-ISO-10303-21;
