ISO-10303-21;
HEADER;
/****************************************************************
 * Generated by software with PDE/Lib inside                    *
 * PDElib Version v51a, created Mon 11/23/2009                  *
 * ITI Transcendata (http://www.transcendata.com/)              *
 ****************************************************************/
FILE_DESCRIPTION((''),'2;1');
FILE_NAME('LED_KINGBRIGHT_L-819EGW.stp','2010-12-07T11:55:47',(''),(''),'Mechanical Desktop 2011','Mechanical Desktop 2011',', , ');
FILE_SCHEMA(('AUTOMOTIVE_DESIGN { 1 2 10303 214 1 1 1 1 }'));
ENDSEC;
DATA;
#10=(NAMED_UNIT(*)PLANE_ANGLE_UNIT()SI_UNIT($,.RADIAN.));
#11=DIMENSIONAL_EXPONENTS(0.0,0.0,0.0,0.0,0.0,0.0,0.0);
#12=PLANE_ANGLE_MEASURE_WITH_UNIT(PLANE_ANGLE_MEASURE(0.017453292500000),#10);
#16=(CONVERSION_BASED_UNIT('DEGREE',#12)NAMED_UNIT(#11)PLANE_ANGLE_UNIT());
#20=(NAMED_UNIT(*)SI_UNIT($,.STERADIAN.)SOLID_ANGLE_UNIT());
#24=(LENGTH_UNIT()NAMED_UNIT(*)SI_UNIT(.MILLI.,.METRE.));
#26=UNCERTAINTY_MEASURE_WITH_UNIT(LENGTH_MEASURE(0.000001000000000),#24,'DISTANCE_ACCURACY_VALUE','');
#28=(GEOMETRIC_REPRESENTATION_CONTEXT(3)GLOBAL_UNCERTAINTY_ASSIGNED_CONTEXT((#26))GLOBAL_UNIT_ASSIGNED_CONTEXT((#16,#20,#24))REPRESENTATION_CONTEXT('','3D'));
#29=APPLICATION_CONTEXT('automotive design');
#30=APPLICATION_PROTOCOL_DEFINITION('INTERNATIONAL_STANDARD','automotive_design',1998,#29);
#31=PRODUCT_CONTEXT('3D Mechanical Parts',#29,'mechanical');
#32=PRODUCT('Product','Product','',(#31));
#33=PRODUCT_RELATED_PRODUCT_CATEGORY('part',$,(#32));
#34=PRODUCT_CATEGORY('part',$);
#35=PERSON('1','Design','Joe',$,$,$);
#36=ORGANIZATION($,'None','None');
#37=PERSON_AND_ORGANIZATION(#35,#36);
#38=PERSON_AND_ORGANIZATION_ROLE('design_owner');
#39=APPLIED_PERSON_AND_ORGANIZATION_ASSIGNMENT(#37,#38,(#32));
#40=PRODUCT_DEFINITION_FORMATION_WITH_SPECIFIED_SOURCE('None','',#32,.BOUGHT.);
#41=PERSON('2','Creator','Joe',$,$,$);
#42=ORGANIZATION($,'None','None');
#43=PERSON_AND_ORGANIZATION(#41,#42);
#44=PERSON_AND_ORGANIZATION_ROLE('creator');
#45=APPLIED_PERSON_AND_ORGANIZATION_ASSIGNMENT(#43,#44,(#40));
#46=PERSON('3','Supplier','Joe',$,$,$);
#47=ORGANIZATION($,'None','None');
#48=PERSON_AND_ORGANIZATION(#46,#47);
#49=PERSON_AND_ORGANIZATION_ROLE('design_supplier');
#50=APPLIED_PERSON_AND_ORGANIZATION_ASSIGNMENT(#48,#49,(#40));
#51=PRODUCT_DEFINITION_CONTEXT('part definition',#29,'design');
#52=PRODUCT_DEFINITION('None','',#40,#51);
#53=PERSON('4','Creator','Joe',$,$,$);
#54=ORGANIZATION($,'None','None');
#55=PERSON_AND_ORGANIZATION(#53,#54);
#56=PERSON_AND_ORGANIZATION_ROLE('creator');
#57=APPLIED_PERSON_AND_ORGANIZATION_ASSIGNMENT(#55,#56,(#52));
#58=CARTESIAN_POINT('NONE',(0.0,0.0,0.0));
#59=DIRECTION('NONE',(0.0,0.0,1.0));
#60=DIRECTION('NONE',(1.0,0.0,0.0));
#61=AXIS2_PLACEMENT_3D('NONE',#58,#59,#60);
#62=SHAPE_REPRESENTATION('SR1',(#61),#28);
#63=PRODUCT_DEFINITION_SHAPE('PDS1','Test Part',#52);
#64=SHAPE_DEFINITION_REPRESENTATION(#63,#62);
#65=CARTESIAN_POINT('',(-2.890000000000000,-0.250000000000000,-2.664535E-015));
#66=DIRECTION('',(0.0,0.0,-1.0));
#67=DIRECTION('',(0.0,-1.0,0.0));
#68=AXIS2_PLACEMENT_3D('',#65,#66,#67);
#69=PLANE('',#68);
#70=CARTESIAN_POINT('',(-2.890000000000000,0.250000000000000,-2.664535E-015));
#71=VERTEX_POINT('',#70);
#72=CARTESIAN_POINT('',(-2.789999999999991,0.250000000000000,0.0));
#73=VERTEX_POINT('',#72);
#74=CARTESIAN_POINT('',(-2.890000000000000,0.250000000000000,-2.642331E-015));
#75=DIRECTION('',(1.0,0.0,0.0));
#76=VECTOR('',#75,0.100000000000009);
#77=LINE('',#74,#76);
#78=EDGE_CURVE('',#71,#73,#77,.T.);
#79=ORIENTED_EDGE('',*,*,#78,.T.);
#80=CARTESIAN_POINT('',(-2.789999999999991,-0.250000000000000,0.0));
#81=VERTEX_POINT('',#80);
#82=CARTESIAN_POINT('',(-2.789999999999991,-0.250000000000000,0.0));
#83=DIRECTION('',(0.0,1.0,0.0));
#84=VECTOR('',#83,0.500000000000000);
#85=LINE('',#82,#84);
#86=EDGE_CURVE('',#81,#73,#85,.T.);
#87=ORIENTED_EDGE('',*,*,#86,.F.);
#88=CARTESIAN_POINT('',(-2.890000000000000,-0.250000000000000,-2.664535E-015));
#89=VERTEX_POINT('',#88);
#90=CARTESIAN_POINT('',(-2.789999999999991,-0.250000000000000,0.0));
#91=DIRECTION('',(-1.0,0.0,0.0));
#92=VECTOR('',#91,0.100000000000009);
#93=LINE('',#90,#92);
#94=EDGE_CURVE('',#81,#89,#93,.T.);
#95=ORIENTED_EDGE('',*,*,#94,.T.);
#96=CARTESIAN_POINT('',(-2.890000000000000,-0.250000000000000,-2.664535E-015));
#97=DIRECTION('',(0.0,1.0,0.0));
#98=VECTOR('',#97,0.500000000000000);
#99=LINE('',#96,#98);
#100=EDGE_CURVE('',#89,#71,#99,.T.);
#101=ORIENTED_EDGE('',*,*,#100,.T.);
#102=EDGE_LOOP('',(#79,#87,#95,#101));
#103=FACE_OUTER_BOUND('',#102,.T.);
#104=ADVANCED_FACE('',(#103),#69,.T.);
#105=CARTESIAN_POINT('',(-2.789999999999991,-0.250000000000000,0.0));
#106=DIRECTION('',(-1.0,0.0,0.0));
#107=DIRECTION('',(0.0,-1.0,0.0));
#108=AXIS2_PLACEMENT_3D('',#105,#106,#107);
#109=PLANE('',#108);
#110=CARTESIAN_POINT('',(-2.789999999999998,0.250000000000000,-3.799999999999997));
#111=VERTEX_POINT('',#110);
#112=CARTESIAN_POINT('',(-2.789999999999994,0.250000000000000,8.881784E-016));
#113=DIRECTION('',(0.0,0.0,-1.0));
#114=VECTOR('',#113,3.799999999999998);
#115=LINE('',#112,#114);
#116=EDGE_CURVE('',#73,#111,#115,.T.);
#117=ORIENTED_EDGE('',*,*,#116,.T.);
#118=CARTESIAN_POINT('',(-2.789999999999998,-0.250000000000000,-3.799999999999997));
#119=VERTEX_POINT('',#118);
#120=CARTESIAN_POINT('',(-2.789999999999998,-0.250000000000000,-3.799999999999997));
#121=DIRECTION('',(0.0,1.0,0.0));
#122=VECTOR('',#121,0.500000000000000);
#123=LINE('',#120,#122);
#124=EDGE_CURVE('',#119,#111,#123,.T.);
#125=ORIENTED_EDGE('',*,*,#124,.F.);
#126=CARTESIAN_POINT('',(-2.789999999999998,-0.250000000000000,-3.799999999999997));
#127=DIRECTION('',(0.0,0.0,1.0));
#128=VECTOR('',#127,3.799999999999998);
#129=LINE('',#126,#128);
#130=EDGE_CURVE('',#119,#81,#129,.T.);
#131=ORIENTED_EDGE('',*,*,#130,.T.);
#132=ORIENTED_EDGE('',*,*,#86,.T.);
#133=EDGE_LOOP('',(#117,#125,#131,#132));
#134=FACE_OUTER_BOUND('',#133,.T.);
#135=ADVANCED_FACE('',(#134),#109,.T.);
#136=CARTESIAN_POINT('',(-2.789999999999998,-0.250000000000000,-3.799999999999997));
#137=DIRECTION('',(0.0,0.0,-1.0));
#138=DIRECTION('',(0.0,-1.0,0.0));
#139=AXIS2_PLACEMENT_3D('',#136,#137,#138);
#140=PLANE('',#139);
#141=CARTESIAN_POINT('',(-2.289999999999998,0.250000000000000,-3.799999999999997));
#142=VERTEX_POINT('',#141);
#143=CARTESIAN_POINT('',(-2.789999999999998,0.250000000000000,-3.799999999999997));
#144=DIRECTION('',(1.0,0.0,0.0));
#145=VECTOR('',#144,0.500000000000000);
#146=LINE('',#143,#145);
#147=EDGE_CURVE('',#111,#142,#146,.T.);
#148=ORIENTED_EDGE('',*,*,#147,.T.);
#149=CARTESIAN_POINT('',(-2.289999999999998,-0.250000000000000,-3.799999999999997));
#150=VERTEX_POINT('',#149);
#151=CARTESIAN_POINT('',(-2.289999999999998,-0.250000000000000,-3.799999999999997));
#152=DIRECTION('',(0.0,1.0,0.0));
#153=VECTOR('',#152,0.500000000000000);
#154=LINE('',#151,#153);
#155=EDGE_CURVE('',#150,#142,#154,.T.);
#156=ORIENTED_EDGE('',*,*,#155,.F.);
#157=CARTESIAN_POINT('',(-2.289999999999998,-0.250000000000000,-3.799999999999997));
#158=DIRECTION('',(-1.0,0.0,0.0));
#159=VECTOR('',#158,0.500000000000000);
#160=LINE('',#157,#159);
#161=EDGE_CURVE('',#150,#119,#160,.T.);
#162=ORIENTED_EDGE('',*,*,#161,.T.);
#163=ORIENTED_EDGE('',*,*,#124,.T.);
#164=EDGE_LOOP('',(#148,#156,#162,#163));
#165=FACE_OUTER_BOUND('',#164,.T.);
#166=ADVANCED_FACE('',(#165),#140,.T.);
#167=CARTESIAN_POINT('',(-2.289999999999998,-0.250000000000000,-3.799999999999997));
#168=DIRECTION('',(1.0,0.0,0.0));
#169=DIRECTION('',(0.0,1.0,0.0));
#170=AXIS2_PLACEMENT_3D('',#167,#168,#169);
#171=PLANE('',#170);
#172=CARTESIAN_POINT('',(-2.290000000000002,0.250000000000000,-8.881784E-016));
#173=VERTEX_POINT('',#172);
#174=CARTESIAN_POINT('',(-2.289999999999996,0.250000000000001,-3.799999999999998));
#175=DIRECTION('',(0.0,0.0,1.0));
#176=VECTOR('',#175,3.799999999999997);
#177=LINE('',#174,#176);
#178=EDGE_CURVE('',#142,#173,#177,.T.);
#179=ORIENTED_EDGE('',*,*,#178,.T.);
#180=CARTESIAN_POINT('',(-2.290000000000002,-0.250000000000000,-8.881784E-016));
#181=VERTEX_POINT('',#180);
#182=CARTESIAN_POINT('',(-2.290000000000002,-0.250000000000000,-8.881784E-016));
#183=DIRECTION('',(0.0,1.0,0.0));
#184=VECTOR('',#183,0.500000000000000);
#185=LINE('',#182,#184);
#186=EDGE_CURVE('',#181,#173,#185,.T.);
#187=ORIENTED_EDGE('',*,*,#186,.F.);
#188=CARTESIAN_POINT('',(-2.290000000000002,-0.250000000000000,-8.881784E-016));
#189=DIRECTION('',(0.0,0.0,-1.0));
#190=VECTOR('',#189,3.799999999999997);
#191=LINE('',#188,#190);
#192=EDGE_CURVE('',#181,#150,#191,.T.);
#193=ORIENTED_EDGE('',*,*,#192,.T.);
#194=ORIENTED_EDGE('',*,*,#155,.T.);
#195=EDGE_LOOP('',(#179,#187,#193,#194));
#196=FACE_OUTER_BOUND('',#195,.T.);
#197=ADVANCED_FACE('',(#196),#171,.T.);
#198=CARTESIAN_POINT('',(-2.290000000000002,-0.250000000000000,-8.881784E-016));
#199=DIRECTION('',(0.0,0.0,-1.0));
#200=DIRECTION('',(0.0,-1.0,0.0));
#201=AXIS2_PLACEMENT_3D('',#198,#199,#200);
#202=PLANE('',#201);
#203=CARTESIAN_POINT('',(-2.189999999999997,0.250000000000000,-8.881784E-016));
#204=VERTEX_POINT('',#203);
#205=CARTESIAN_POINT('',(-2.290000000000002,0.250000000000000,-8.659740E-016));
#206=DIRECTION('',(1.0,0.0,0.0));
#207=VECTOR('',#206,0.100000000000005);
#208=LINE('',#205,#207);
#209=EDGE_CURVE('',#173,#204,#208,.T.);
#210=ORIENTED_EDGE('',*,*,#209,.T.);
#211=CARTESIAN_POINT('',(-2.189999999999997,-0.250000000000000,-8.881784E-016));
#212=VERTEX_POINT('',#211);
#213=CARTESIAN_POINT('',(-2.189999999999997,-0.250000000000000,-8.881784E-016));
#214=DIRECTION('',(0.0,1.0,0.0));
#215=VECTOR('',#214,0.500000000000000);
#216=LINE('',#213,#215);
#217=EDGE_CURVE('',#212,#204,#216,.T.);
#218=ORIENTED_EDGE('',*,*,#217,.F.);
#219=CARTESIAN_POINT('',(-2.189999999999997,-0.250000000000000,-8.881784E-016));
#220=DIRECTION('',(-1.0,0.0,0.0));
#221=VECTOR('',#220,0.100000000000005);
#222=LINE('',#219,#221);
#223=EDGE_CURVE('',#212,#181,#222,.T.);
#224=ORIENTED_EDGE('',*,*,#223,.T.);
#225=ORIENTED_EDGE('',*,*,#186,.T.);
#226=EDGE_LOOP('',(#210,#218,#224,#225));
#227=FACE_OUTER_BOUND('',#226,.T.);
#228=ADVANCED_FACE('',(#227),#202,.T.);
#229=CARTESIAN_POINT('',(-2.189999999999997,-0.250000000000000,-8.881784E-016));
#230=DIRECTION('',(1.0,0.0,0.0));
#231=DIRECTION('',(0.0,1.0,0.0));
#232=AXIS2_PLACEMENT_3D('',#229,#230,#231);
#233=PLANE('',#232);
#234=CARTESIAN_POINT('',(-2.189999999999993,0.250000000000000,1.199999999999998));
#235=VERTEX_POINT('',#234);
#236=CARTESIAN_POINT('',(-2.189999999999997,0.250000000000000,-8.881784E-016));
#237=DIRECTION('',(0.0,0.0,1.0));
#238=VECTOR('',#237,1.199999999999999);
#239=LINE('',#236,#238);
#240=EDGE_CURVE('',#204,#235,#239,.T.);
#241=ORIENTED_EDGE('',*,*,#240,.T.);
#242=CARTESIAN_POINT('',(-2.189999999999993,-0.250000000000000,1.199999999999998));
#243=VERTEX_POINT('',#242);
#244=CARTESIAN_POINT('',(-2.189999999999993,-0.250000000000000,1.199999999999998));
#245=DIRECTION('',(0.0,1.0,0.0));
#246=VECTOR('',#245,0.500000000000000);
#247=LINE('',#244,#246);
#248=EDGE_CURVE('',#243,#235,#247,.T.);
#249=ORIENTED_EDGE('',*,*,#248,.F.);
#250=CARTESIAN_POINT('',(-2.189999999999993,-0.250000000000000,1.199999999999998));
#251=DIRECTION('',(0.0,0.0,-1.0));
#252=VECTOR('',#251,1.199999999999999);
#253=LINE('',#250,#252);
#254=EDGE_CURVE('',#243,#212,#253,.T.);
#255=ORIENTED_EDGE('',*,*,#254,.T.);
#256=ORIENTED_EDGE('',*,*,#217,.T.);
#257=EDGE_LOOP('',(#241,#249,#255,#256));
#258=FACE_OUTER_BOUND('',#257,.T.);
#259=ADVANCED_FACE('',(#258),#233,.T.);
#260=CARTESIAN_POINT('',(-2.189999999999993,-0.250000000000000,1.199999999999998));
#261=DIRECTION('',(0.0,0.0,1.0));
#262=DIRECTION('',(0.0,1.0,0.0));
#263=AXIS2_PLACEMENT_3D('',#260,#261,#262);
#264=PLANE('',#263);
#265=CARTESIAN_POINT('',(-2.289999999999995,0.250000000000000,1.199999999999998));
#266=VERTEX_POINT('',#265);
#267=CARTESIAN_POINT('',(-2.189999999999993,0.250000000000000,1.199999999999998));
#268=DIRECTION('',(-1.0,0.0,0.0));
#269=VECTOR('',#268,0.100000000000001);
#270=LINE('',#267,#269);
#271=EDGE_CURVE('',#235,#266,#270,.T.);
#272=ORIENTED_EDGE('',*,*,#271,.T.);
#273=CARTESIAN_POINT('',(-2.289999999999995,-0.250000000000000,1.199999999999998));
#274=VERTEX_POINT('',#273);
#275=CARTESIAN_POINT('',(-2.289999999999995,-0.250000000000000,1.199999999999998));
#276=DIRECTION('',(0.0,1.0,0.0));
#277=VECTOR('',#276,0.500000000000000);
#278=LINE('',#275,#277);
#279=EDGE_CURVE('',#274,#266,#278,.T.);
#280=ORIENTED_EDGE('',*,*,#279,.F.);
#281=CARTESIAN_POINT('',(-2.289999999999995,-0.250000000000000,1.199999999999998));
#282=DIRECTION('',(1.0,0.0,0.0));
#283=VECTOR('',#282,0.100000000000001);
#284=LINE('',#281,#283);
#285=EDGE_CURVE('',#274,#243,#284,.T.);
#286=ORIENTED_EDGE('',*,*,#285,.T.);
#287=ORIENTED_EDGE('',*,*,#248,.T.);
#288=EDGE_LOOP('',(#272,#280,#286,#287));
#289=FACE_OUTER_BOUND('',#288,.T.);
#290=ADVANCED_FACE('',(#289),#264,.T.);
#291=CARTESIAN_POINT('',(-2.289999999999995,-0.250000000000000,1.199999999999998));
#292=DIRECTION('',(1.0,0.0,0.0));
#293=DIRECTION('',(0.0,1.0,0.0));
#294=AXIS2_PLACEMENT_3D('',#291,#292,#293);
#295=PLANE('',#294);
#296=CARTESIAN_POINT('',(-2.289999999999988,0.250000000000000,3.700000000000000));
#297=VERTEX_POINT('',#296);
#298=CARTESIAN_POINT('',(-2.289999999999995,0.250000000000000,1.199999999999998));
#299=DIRECTION('',(0.0,0.0,1.0));
#300=VECTOR('',#299,2.500000000000003);
#301=LINE('',#298,#300);
#302=EDGE_CURVE('',#266,#297,#301,.T.);
#303=ORIENTED_EDGE('',*,*,#302,.T.);
#304=CARTESIAN_POINT('',(-2.289999999999988,-0.250000000000000,3.700000000000000));
#305=VERTEX_POINT('',#304);
#306=CARTESIAN_POINT('',(-2.289999999999988,-0.250000000000000,3.700000000000000));
#307=DIRECTION('',(0.0,1.0,0.0));
#308=VECTOR('',#307,0.500000000000000);
#309=LINE('',#306,#308);
#310=EDGE_CURVE('',#305,#297,#309,.T.);
#311=ORIENTED_EDGE('',*,*,#310,.F.);
#312=CARTESIAN_POINT('',(-2.289999999999988,-0.250000000000000,3.700000000000000));
#313=DIRECTION('',(0.0,0.0,-1.0));
#314=VECTOR('',#313,2.500000000000003);
#315=LINE('',#312,#314);
#316=EDGE_CURVE('',#305,#274,#315,.T.);
#317=ORIENTED_EDGE('',*,*,#316,.T.);
#318=ORIENTED_EDGE('',*,*,#279,.T.);
#319=EDGE_LOOP('',(#303,#311,#317,#318));
#320=FACE_OUTER_BOUND('',#319,.T.);
#321=ADVANCED_FACE('',(#320),#295,.T.);
#322=CARTESIAN_POINT('',(-2.289999999999988,-0.250000000000000,3.700000000000000));
#323=DIRECTION('',(0.0,0.0,-1.0));
#324=DIRECTION('',(0.0,-1.0,0.0));
#325=AXIS2_PLACEMENT_3D('',#322,#323,#324);
#326=PLANE('',#325);
#327=CARTESIAN_POINT('',(-1.349999999999993,0.250000000000000,3.700000000000000));
#328=VERTEX_POINT('',#327);
#329=CARTESIAN_POINT('',(-2.289999999999988,0.250000000000000,3.700000000000000));
#330=DIRECTION('',(1.0,0.0,0.0));
#331=VECTOR('',#330,0.939999999999994);
#332=LINE('',#329,#331);
#333=EDGE_CURVE('',#297,#328,#332,.T.);
#334=ORIENTED_EDGE('',*,*,#333,.T.);
#335=CARTESIAN_POINT('',(-1.349999999999993,-0.250000000000000,3.700000000000000));
#336=VERTEX_POINT('',#335);
#337=CARTESIAN_POINT('',(-1.349999999999993,-0.250000000000000,3.700000000000000));
#338=DIRECTION('',(0.0,1.0,0.0));
#339=VECTOR('',#338,0.500000000000000);
#340=LINE('',#337,#339);
#341=EDGE_CURVE('',#336,#328,#340,.T.);
#342=ORIENTED_EDGE('',*,*,#341,.F.);
#343=CARTESIAN_POINT('',(-1.349999999999993,-0.250000000000000,3.700000000000000));
#344=DIRECTION('',(-1.0,0.0,0.0));
#345=VECTOR('',#344,0.939999999999994);
#346=LINE('',#343,#345);
#347=EDGE_CURVE('',#336,#305,#346,.T.);
#348=ORIENTED_EDGE('',*,*,#347,.T.);
#349=ORIENTED_EDGE('',*,*,#310,.T.);
#350=EDGE_LOOP('',(#334,#342,#348,#349));
#351=FACE_OUTER_BOUND('',#350,.T.);
#352=ADVANCED_FACE('',(#351),#326,.T.);
#353=CARTESIAN_POINT('',(-1.349999999999993,-0.250000000000000,3.700000000000000));
#354=DIRECTION('',(1.0,0.0,0.0));
#355=DIRECTION('',(0.0,1.0,0.0));
#356=AXIS2_PLACEMENT_3D('',#353,#354,#355);
#357=PLANE('',#356);
#358=CARTESIAN_POINT('',(-1.349999999999993,0.250000000000000,4.699999999999999));
#359=VERTEX_POINT('',#358);
#360=CARTESIAN_POINT('',(-1.349999999999993,0.250000000000000,3.699999999999999));
#361=DIRECTION('',(0.0,0.0,1.0));
#362=VECTOR('',#361,1.0);
#363=LINE('',#360,#362);
#364=EDGE_CURVE('',#328,#359,#363,.T.);
#365=ORIENTED_EDGE('',*,*,#364,.T.);
#366=CARTESIAN_POINT('',(-1.349999999999993,-0.250000000000000,4.699999999999999));
#367=VERTEX_POINT('',#366);
#368=CARTESIAN_POINT('',(-1.349999999999993,-0.250000000000000,4.699999999999999));
#369=DIRECTION('',(0.0,1.0,0.0));
#370=VECTOR('',#369,0.500000000000000);
#371=LINE('',#368,#370);
#372=EDGE_CURVE('',#367,#359,#371,.T.);
#373=ORIENTED_EDGE('',*,*,#372,.F.);
#374=CARTESIAN_POINT('',(-1.349999999999993,-0.250000000000000,4.699999999999999));
#375=DIRECTION('',(0.0,0.0,-1.0));
#376=VECTOR('',#375,1.0);
#377=LINE('',#374,#376);
#378=EDGE_CURVE('',#367,#336,#377,.T.);
#379=ORIENTED_EDGE('',*,*,#378,.T.);
#380=ORIENTED_EDGE('',*,*,#341,.T.);
#381=EDGE_LOOP('',(#365,#373,#379,#380));
#382=FACE_OUTER_BOUND('',#381,.T.);
#383=ADVANCED_FACE('',(#382),#357,.T.);
#384=CARTESIAN_POINT('',(-1.349999999999993,-0.250000000000000,4.699999999999999));
#385=DIRECTION('',(0.0,0.0,1.0));
#386=DIRECTION('',(0.0,1.0,0.0));
#387=AXIS2_PLACEMENT_3D('',#384,#385,#386);
#388=PLANE('',#387);
#389=CARTESIAN_POINT('',(-1.849999999999993,0.250000000000000,4.699999999999999));
#390=VERTEX_POINT('',#389);
#391=CARTESIAN_POINT('',(-1.349999999999993,0.250000000000000,4.699999999999999));
#392=DIRECTION('',(-1.0,0.0,0.0));
#393=VECTOR('',#392,0.500000000000000);
#394=LINE('',#391,#393);
#395=EDGE_CURVE('',#359,#390,#394,.T.);
#396=ORIENTED_EDGE('',*,*,#395,.T.);
#397=CARTESIAN_POINT('',(-1.849999999999993,-0.250000000000000,4.699999999999999));
#398=VERTEX_POINT('',#397);
#399=CARTESIAN_POINT('',(-1.849999999999993,-0.250000000000000,4.699999999999999));
#400=DIRECTION('',(0.0,1.0,0.0));
#401=VECTOR('',#400,0.500000000000000);
#402=LINE('',#399,#401);
#403=EDGE_CURVE('',#398,#390,#402,.T.);
#404=ORIENTED_EDGE('',*,*,#403,.F.);
#405=CARTESIAN_POINT('',(-1.849999999999993,-0.250000000000000,4.699999999999999));
#406=DIRECTION('',(1.0,0.0,0.0));
#407=VECTOR('',#406,0.500000000000000);
#408=LINE('',#405,#407);
#409=EDGE_CURVE('',#398,#367,#408,.T.);
#410=ORIENTED_EDGE('',*,*,#409,.T.);
#411=ORIENTED_EDGE('',*,*,#372,.T.);
#412=EDGE_LOOP('',(#396,#404,#410,#411));
#413=FACE_OUTER_BOUND('',#412,.T.);
#414=ADVANCED_FACE('',(#413),#388,.T.);
#415=CARTESIAN_POINT('',(-1.849999999999993,-0.250000000000000,4.699999999999999));
#416=DIRECTION('',(-1.0,0.0,0.0));
#417=DIRECTION('',(0.0,-1.0,0.0));
#418=AXIS2_PLACEMENT_3D('',#415,#416,#417);
#419=PLANE('',#418);
#420=CARTESIAN_POINT('',(-1.849999999999993,0.250000000000000,4.200000000000000));
#421=VERTEX_POINT('',#420);
#422=CARTESIAN_POINT('',(-1.849999999999993,0.250000000000000,4.700000000000000));
#423=DIRECTION('',(0.0,0.0,-1.0));
#424=VECTOR('',#423,0.500000000000000);
#425=LINE('',#422,#424);
#426=EDGE_CURVE('',#390,#421,#425,.T.);
#427=ORIENTED_EDGE('',*,*,#426,.T.);
#428=CARTESIAN_POINT('',(-1.849999999999993,-0.250000000000000,4.200000000000000));
#429=VERTEX_POINT('',#428);
#430=CARTESIAN_POINT('',(-1.849999999999993,-0.250000000000000,4.200000000000000));
#431=DIRECTION('',(0.0,1.0,0.0));
#432=VECTOR('',#431,0.500000000000000);
#433=LINE('',#430,#432);
#434=EDGE_CURVE('',#429,#421,#433,.T.);
#435=ORIENTED_EDGE('',*,*,#434,.F.);
#436=CARTESIAN_POINT('',(-1.849999999999993,-0.250000000000000,4.200000000000000));
#437=DIRECTION('',(0.0,0.0,1.0));
#438=VECTOR('',#437,0.500000000000000);
#439=LINE('',#436,#438);
#440=EDGE_CURVE('',#429,#398,#439,.T.);
#441=ORIENTED_EDGE('',*,*,#440,.T.);
#442=ORIENTED_EDGE('',*,*,#403,.T.);
#443=EDGE_LOOP('',(#427,#435,#441,#442));
#444=FACE_OUTER_BOUND('',#443,.T.);
#445=ADVANCED_FACE('',(#444),#419,.T.);
#446=CARTESIAN_POINT('',(-1.849999999999993,-0.250000000000000,4.200000000000000));
#447=DIRECTION('',(0.0,0.0,1.0));
#448=DIRECTION('',(0.0,1.0,0.0));
#449=AXIS2_PLACEMENT_3D('',#446,#447,#448);
#450=PLANE('',#449);
#451=CARTESIAN_POINT('',(-2.789999999999988,0.250000000000000,4.200000000000000));
#452=VERTEX_POINT('',#451);
#453=CARTESIAN_POINT('',(-1.849999999999993,0.250000000000000,4.200000000000000));
#454=DIRECTION('',(-1.0,0.0,0.0));
#455=VECTOR('',#454,0.939999999999994);
#456=LINE('',#453,#455);
#457=EDGE_CURVE('',#421,#452,#456,.T.);
#458=ORIENTED_EDGE('',*,*,#457,.T.);
#459=CARTESIAN_POINT('',(-2.789999999999988,-0.250000000000000,4.200000000000000));
#460=VERTEX_POINT('',#459);
#461=CARTESIAN_POINT('',(-2.789999999999988,-0.250000000000000,4.200000000000000));
#462=DIRECTION('',(0.0,1.0,0.0));
#463=VECTOR('',#462,0.500000000000000);
#464=LINE('',#461,#463);
#465=EDGE_CURVE('',#460,#452,#464,.T.);
#466=ORIENTED_EDGE('',*,*,#465,.F.);
#467=CARTESIAN_POINT('',(-2.789999999999988,-0.250000000000000,4.200000000000000));
#468=DIRECTION('',(1.0,0.0,0.0));
#469=VECTOR('',#468,0.939999999999994);
#470=LINE('',#467,#469);
#471=EDGE_CURVE('',#460,#429,#470,.T.);
#472=ORIENTED_EDGE('',*,*,#471,.T.);
#473=ORIENTED_EDGE('',*,*,#434,.T.);
#474=EDGE_LOOP('',(#458,#466,#472,#473));
#475=FACE_OUTER_BOUND('',#474,.T.);
#476=ADVANCED_FACE('',(#475),#450,.T.);
#477=CARTESIAN_POINT('',(-2.789999999999988,-0.250000000000000,4.200000000000000));
#478=DIRECTION('',(-1.0,0.0,0.0));
#479=DIRECTION('',(0.0,-1.0,0.0));
#480=AXIS2_PLACEMENT_3D('',#477,#478,#479);
#481=PLANE('',#480);
#482=CARTESIAN_POINT('',(-2.789999999999991,0.250000000000000,1.199999999999998));
#483=VERTEX_POINT('',#482);
#484=CARTESIAN_POINT('',(-2.789999999999987,0.250000000000000,4.200000000000000));
#485=DIRECTION('',(0.0,0.0,-1.0));
#486=VECTOR('',#485,3.000000000000002);
#487=LINE('',#484,#486);
#488=EDGE_CURVE('',#452,#483,#487,.T.);
#489=ORIENTED_EDGE('',*,*,#488,.T.);
#490=CARTESIAN_POINT('',(-2.789999999999991,-0.250000000000000,1.199999999999998));
#491=VERTEX_POINT('',#490);
#492=CARTESIAN_POINT('',(-2.789999999999991,-0.250000000000000,1.199999999999998));
#493=DIRECTION('',(0.0,1.0,0.0));
#494=VECTOR('',#493,0.500000000000000);
#495=LINE('',#492,#494);
#496=EDGE_CURVE('',#491,#483,#495,.T.);
#497=ORIENTED_EDGE('',*,*,#496,.F.);
#498=CARTESIAN_POINT('',(-2.789999999999991,-0.250000000000000,1.199999999999998));
#499=DIRECTION('',(0.0,0.0,1.0));
#500=VECTOR('',#499,3.000000000000002);
#501=LINE('',#498,#500);
#502=EDGE_CURVE('',#491,#460,#501,.T.);
#503=ORIENTED_EDGE('',*,*,#502,.T.);
#504=ORIENTED_EDGE('',*,*,#465,.T.);
#505=EDGE_LOOP('',(#489,#497,#503,#504));
#506=FACE_OUTER_BOUND('',#505,.T.);
#507=ADVANCED_FACE('',(#506),#481,.T.);
#508=CARTESIAN_POINT('',(-2.789999999999991,-0.250000000000000,1.199999999999998));
#509=DIRECTION('',(0.0,0.0,1.0));
#510=DIRECTION('',(0.0,1.0,0.0));
#511=AXIS2_PLACEMENT_3D('',#508,#509,#510);
#512=PLANE('',#511);
#513=CARTESIAN_POINT('',(-2.890000000000000,0.250000000000000,1.199999999999998));
#514=VERTEX_POINT('',#513);
#515=CARTESIAN_POINT('',(-2.789999999999991,0.250000000000000,1.199999999999998));
#516=DIRECTION('',(-1.0,0.0,0.0));
#517=VECTOR('',#516,0.100000000000009);
#518=LINE('',#515,#517);
#519=EDGE_CURVE('',#483,#514,#518,.T.);
#520=ORIENTED_EDGE('',*,*,#519,.T.);
#521=CARTESIAN_POINT('',(-2.890000000000000,-0.250000000000000,1.199999999999998));
#522=VERTEX_POINT('',#521);
#523=CARTESIAN_POINT('',(-2.890000000000000,-0.250000000000000,1.199999999999998));
#524=DIRECTION('',(0.0,1.0,0.0));
#525=VECTOR('',#524,0.500000000000000);
#526=LINE('',#523,#525);
#527=EDGE_CURVE('',#522,#514,#526,.T.);
#528=ORIENTED_EDGE('',*,*,#527,.F.);
#529=CARTESIAN_POINT('',(-2.890000000000000,-0.250000000000000,1.199999999999998));
#530=DIRECTION('',(1.0,0.0,0.0));
#531=VECTOR('',#530,0.100000000000009);
#532=LINE('',#529,#531);
#533=EDGE_CURVE('',#522,#491,#532,.T.);
#534=ORIENTED_EDGE('',*,*,#533,.T.);
#535=ORIENTED_EDGE('',*,*,#496,.T.);
#536=EDGE_LOOP('',(#520,#528,#534,#535));
#537=FACE_OUTER_BOUND('',#536,.T.);
#538=ADVANCED_FACE('',(#537),#512,.T.);
#539=CARTESIAN_POINT('',(-2.890000000000000,-0.250000000000000,1.199999999999998));
#540=DIRECTION('',(-1.0,0.0,0.0));
#541=DIRECTION('',(0.0,-1.0,0.0));
#542=AXIS2_PLACEMENT_3D('',#539,#540,#541);
#543=PLANE('',#542);
#544=CARTESIAN_POINT('',(-2.889999999999999,0.250000000000000,1.199999999999998));
#545=DIRECTION('',(0.0,0.0,-1.0));
#546=VECTOR('',#545,1.200000000000001);
#547=LINE('',#544,#546);
#548=EDGE_CURVE('',#514,#71,#547,.T.);
#549=ORIENTED_EDGE('',*,*,#548,.T.);
#550=ORIENTED_EDGE('',*,*,#100,.F.);
#551=CARTESIAN_POINT('',(-2.890000000000000,-0.250000000000000,-2.664535E-015));
#552=DIRECTION('',(0.0,0.0,1.0));
#553=VECTOR('',#552,1.200000000000001);
#554=LINE('',#551,#553);
#555=EDGE_CURVE('',#89,#522,#554,.T.);
#556=ORIENTED_EDGE('',*,*,#555,.T.);
#557=ORIENTED_EDGE('',*,*,#527,.T.);
#558=EDGE_LOOP('',(#549,#550,#556,#557));
#559=FACE_OUTER_BOUND('',#558,.T.);
#560=ADVANCED_FACE('',(#559),#543,.T.);
#561=CARTESIAN_POINT('',(-2.403727810650877,-0.250000000000000,0.777416173570018));
#562=DIRECTION('',(0.0,1.0,0.0));
#563=DIRECTION('',(-1.0,0.0,0.0));
#564=AXIS2_PLACEMENT_3D('',#561,#562,#563);
#565=PLANE('',#564);
#566=ORIENTED_EDGE('',*,*,#555,.F.);
#567=ORIENTED_EDGE('',*,*,#94,.F.);
#568=ORIENTED_EDGE('',*,*,#130,.F.);
#569=ORIENTED_EDGE('',*,*,#161,.F.);
#570=ORIENTED_EDGE('',*,*,#192,.F.);
#571=ORIENTED_EDGE('',*,*,#223,.F.);
#572=ORIENTED_EDGE('',*,*,#254,.F.);
#573=ORIENTED_EDGE('',*,*,#285,.F.);
#574=ORIENTED_EDGE('',*,*,#316,.F.);
#575=ORIENTED_EDGE('',*,*,#347,.F.);
#576=ORIENTED_EDGE('',*,*,#378,.F.);
#577=ORIENTED_EDGE('',*,*,#409,.F.);
#578=ORIENTED_EDGE('',*,*,#440,.F.);
#579=ORIENTED_EDGE('',*,*,#471,.F.);
#580=ORIENTED_EDGE('',*,*,#502,.F.);
#581=ORIENTED_EDGE('',*,*,#533,.F.);
#582=EDGE_LOOP('',(#566,#567,#568,#569,#570,#571,#572,#573,#574,#575,#576,#577,#578,#579,#580,#581));
#583=FACE_OUTER_BOUND('',#582,.T.);
#584=ADVANCED_FACE('',(#583),#565,.F.);
#585=CARTESIAN_POINT('',(-2.403727810650877,0.250000000000000,0.777416173570018));
#586=DIRECTION('',(0.0,1.0,0.0));
#587=DIRECTION('',(-1.0,0.0,0.0));
#588=AXIS2_PLACEMENT_3D('',#585,#586,#587);
#589=PLANE('',#588);
#590=ORIENTED_EDGE('',*,*,#78,.F.);
#591=ORIENTED_EDGE('',*,*,#548,.F.);
#592=ORIENTED_EDGE('',*,*,#519,.F.);
#593=ORIENTED_EDGE('',*,*,#488,.F.);
#594=ORIENTED_EDGE('',*,*,#457,.F.);
#595=ORIENTED_EDGE('',*,*,#426,.F.);
#596=ORIENTED_EDGE('',*,*,#395,.F.);
#597=ORIENTED_EDGE('',*,*,#364,.F.);
#598=ORIENTED_EDGE('',*,*,#333,.F.);
#599=ORIENTED_EDGE('',*,*,#302,.F.);
#600=ORIENTED_EDGE('',*,*,#271,.F.);
#601=ORIENTED_EDGE('',*,*,#240,.F.);
#602=ORIENTED_EDGE('',*,*,#209,.F.);
#603=ORIENTED_EDGE('',*,*,#178,.F.);
#604=ORIENTED_EDGE('',*,*,#147,.F.);
#605=ORIENTED_EDGE('',*,*,#116,.F.);
#606=EDGE_LOOP('',(#590,#591,#592,#593,#594,#595,#596,#597,#598,#599,#600,#601,#602,#603,#604,#605));
#607=FACE_OUTER_BOUND('',#606,.T.);
#608=ADVANCED_FACE('',(#607),#589,.T.);
#609=CLOSED_SHELL('',(#104,#135,#166,#197,#228,#259,#290,#321,#352,#383,#414,#445,#476,#507,#538,#560,#584,#608));
#610=MANIFOLD_SOLID_BREP('8BB',#609);
#611=COLOUR_RGB('252',0.598000000000000,0.598000000000000,0.598000000000000);
#612=SURFACE_STYLE_USAGE(.BOTH.,#613);
#613=SURFACE_SIDE_STYLE('NONE',(#614));
#614=SURFACE_STYLE_FILL_AREA(#615);
#615=FILL_AREA_STYLE('NONE',(#616));
#616=FILL_AREA_STYLE_COLOUR('NONE',#611);
#617=PRESENTATION_STYLE_ASSIGNMENT((#612));
#618=STYLED_ITEM('NONE',(#617),#610);
#619=MECHANICAL_DESIGN_GEOMETRIC_PRESENTATION_REPRESENTATION('NONE',(#618,#1035,#1582,#1678,#1753,#1842),#28);
#620=PRESENTATION_LAYER_ASSIGNMENT('3D','None',(#610,#1034,#1581,#1670,#1752,#1841));
#621=CARTESIAN_POINT('',(0.250000000000005,-0.250000000000000,4.699999999999999));
#622=DIRECTION('',(0.0,0.0,1.0));
#623=DIRECTION('',(0.0,1.0,0.0));
#624=AXIS2_PLACEMENT_3D('',#621,#622,#623);
#625=PLANE('',#624);
#626=CARTESIAN_POINT('',(0.250000000000005,0.250000000000000,4.699999999999999));
#627=VERTEX_POINT('',#626);
#628=CARTESIAN_POINT('',(-0.249999999999999,0.250000000000000,4.699999999999999));
#629=VERTEX_POINT('',#628);
#630=CARTESIAN_POINT('',(0.250000000000005,0.250000000000000,4.699999999999999));
#631=DIRECTION('',(-1.0,0.0,0.0));
#632=VECTOR('',#631,0.500000000000004);
#633=LINE('',#630,#632);
#634=EDGE_CURVE('',#627,#629,#633,.T.);
#635=ORIENTED_EDGE('',*,*,#634,.T.);
#636=CARTESIAN_POINT('',(-0.249999999999999,-0.250000000000000,4.699999999999999));
#637=VERTEX_POINT('',#636);
#638=CARTESIAN_POINT('',(-0.249999999999999,-0.250000000000000,4.699999999999999));
#639=DIRECTION('',(0.0,1.0,0.0));
#640=VECTOR('',#639,0.500000000000000);
#641=LINE('',#638,#640);
#642=EDGE_CURVE('',#637,#629,#641,.T.);
#643=ORIENTED_EDGE('',*,*,#642,.F.);
#644=CARTESIAN_POINT('',(0.250000000000005,-0.250000000000000,4.699999999999999));
#645=VERTEX_POINT('',#644);
#646=CARTESIAN_POINT('',(-0.249999999999999,-0.250000000000000,4.699999999999999));
#647=DIRECTION('',(1.0,0.0,0.0));
#648=VECTOR('',#647,0.500000000000004);
#649=LINE('',#646,#648);
#650=EDGE_CURVE('',#637,#645,#649,.T.);
#651=ORIENTED_EDGE('',*,*,#650,.T.);
#652=CARTESIAN_POINT('',(0.250000000000005,-0.250000000000000,4.699999999999999));
#653=DIRECTION('',(0.0,1.0,0.0));
#654=VECTOR('',#653,0.500000000000000);
#655=LINE('',#652,#654);
#656=EDGE_CURVE('',#645,#627,#655,.T.);
#657=ORIENTED_EDGE('',*,*,#656,.T.);
#658=EDGE_LOOP('',(#635,#643,#651,#657));
#659=FACE_OUTER_BOUND('',#658,.T.);
#660=ADVANCED_FACE('',(#659),#625,.T.);
#661=CARTESIAN_POINT('',(-0.249999999999999,-0.250000000000000,4.699999999999999));
#662=DIRECTION('',(-1.0,0.0,0.0));
#663=DIRECTION('',(0.0,-1.0,0.0));
#664=AXIS2_PLACEMENT_3D('',#661,#662,#663);
#665=PLANE('',#664);
#666=CARTESIAN_POINT('',(-0.249999999999995,0.250000000000000,1.200000000000000));
#667=VERTEX_POINT('',#666);
#668=CARTESIAN_POINT('',(-0.249999999999998,0.250000000000000,4.699999999999999));
#669=DIRECTION('',(0.0,0.0,-1.0));
#670=VECTOR('',#669,3.499999999999999);
#671=LINE('',#668,#670);
#672=EDGE_CURVE('',#629,#667,#671,.T.);
#673=ORIENTED_EDGE('',*,*,#672,.T.);
#674=CARTESIAN_POINT('',(-0.249999999999995,-0.250000000000000,1.200000000000000));
#675=VERTEX_POINT('',#674);
#676=CARTESIAN_POINT('',(-0.249999999999995,-0.250000000000000,1.200000000000000));
#677=DIRECTION('',(0.0,1.0,0.0));
#678=VECTOR('',#677,0.500000000000000);
#679=LINE('',#676,#678);
#680=EDGE_CURVE('',#675,#667,#679,.T.);
#681=ORIENTED_EDGE('',*,*,#680,.F.);
#682=CARTESIAN_POINT('',(-0.249999999999995,-0.250000000000000,1.200000000000000));
#683=DIRECTION('',(0.0,0.0,1.0));
#684=VECTOR('',#683,3.499999999999999);
#685=LINE('',#682,#684);
#686=EDGE_CURVE('',#675,#637,#685,.T.);
#687=ORIENTED_EDGE('',*,*,#686,.T.);
#688=ORIENTED_EDGE('',*,*,#642,.T.);
#689=EDGE_LOOP('',(#673,#681,#687,#688));
#690=FACE_OUTER_BOUND('',#689,.T.);
#691=ADVANCED_FACE('',(#690),#665,.T.);
#692=CARTESIAN_POINT('',(-0.249999999999995,-0.250000000000000,1.200000000000000));
#693=DIRECTION('',(0.0,0.0,1.0));
#694=DIRECTION('',(0.0,1.0,0.0));
#695=AXIS2_PLACEMENT_3D('',#692,#693,#694);
#696=PLANE('',#695);
#697=CARTESIAN_POINT('',(-0.349999999999997,0.250000000000000,1.200000000000000));
#698=VERTEX_POINT('',#697);
#699=CARTESIAN_POINT('',(-0.249999999999995,0.250000000000000,1.200000000000000));
#700=DIRECTION('',(-1.0,0.0,0.0));
#701=VECTOR('',#700,0.100000000000001);
#702=LINE('',#699,#701);
#703=EDGE_CURVE('',#667,#698,#702,.T.);
#704=ORIENTED_EDGE('',*,*,#703,.T.);
#705=CARTESIAN_POINT('',(-0.349999999999997,-0.250000000000000,1.200000000000000));
#706=VERTEX_POINT('',#705);
#707=CARTESIAN_POINT('',(-0.349999999999997,-0.250000000000000,1.200000000000000));
#708=DIRECTION('',(0.0,1.0,0.0));
#709=VECTOR('',#708,0.500000000000000);
#710=LINE('',#707,#709);
#711=EDGE_CURVE('',#706,#698,#710,.T.);
#712=ORIENTED_EDGE('',*,*,#711,.F.);
#713=CARTESIAN_POINT('',(-0.349999999999997,-0.250000000000000,1.200000000000000));
#714=DIRECTION('',(1.0,0.0,0.0));
#715=VECTOR('',#714,0.100000000000001);
#716=LINE('',#713,#715);
#717=EDGE_CURVE('',#706,#675,#716,.T.);
#718=ORIENTED_EDGE('',*,*,#717,.T.);
#719=ORIENTED_EDGE('',*,*,#680,.T.);
#720=EDGE_LOOP('',(#704,#712,#718,#719));
#721=FACE_OUTER_BOUND('',#720,.T.);
#722=ADVANCED_FACE('',(#721),#696,.T.);
#723=CARTESIAN_POINT('',(-0.349999999999997,-0.250000000000000,1.200000000000000));
#724=DIRECTION('',(-1.0,0.0,0.0));
#725=DIRECTION('',(0.0,-1.0,0.0));
#726=AXIS2_PLACEMENT_3D('',#723,#724,#725);
#727=PLANE('',#726);
#728=CARTESIAN_POINT('',(-0.349999999999997,0.250000000000000,8.881784E-016));
#729=VERTEX_POINT('',#728);
#730=CARTESIAN_POINT('',(-0.349999999999996,0.250000000000000,1.200000000000000));
#731=DIRECTION('',(0.0,0.0,-1.0));
#732=VECTOR('',#731,1.199999999999999);
#733=LINE('',#730,#732);
#734=EDGE_CURVE('',#698,#729,#733,.T.);
#735=ORIENTED_EDGE('',*,*,#734,.T.);
#736=CARTESIAN_POINT('',(-0.349999999999997,-0.250000000000000,8.881784E-016));
#737=VERTEX_POINT('',#736);
#738=CARTESIAN_POINT('',(-0.349999999999997,-0.250000000000000,8.881784E-016));
#739=DIRECTION('',(0.0,1.0,0.0));
#740=VECTOR('',#739,0.500000000000000);
#741=LINE('',#738,#740);
#742=EDGE_CURVE('',#737,#729,#741,.T.);
#743=ORIENTED_EDGE('',*,*,#742,.F.);
#744=CARTESIAN_POINT('',(-0.349999999999997,-0.250000000000000,8.881784E-016));
#745=DIRECTION('',(0.0,0.0,1.0));
#746=VECTOR('',#745,1.199999999999999);
#747=LINE('',#744,#746);
#748=EDGE_CURVE('',#737,#706,#747,.T.);
#749=ORIENTED_EDGE('',*,*,#748,.T.);
#750=ORIENTED_EDGE('',*,*,#711,.T.);
#751=EDGE_LOOP('',(#735,#743,#749,#750));
#752=FACE_OUTER_BOUND('',#751,.T.);
#753=ADVANCED_FACE('',(#752),#727,.T.);
#754=CARTESIAN_POINT('',(-0.349999999999997,-0.250000000000000,8.881784E-016));
#755=DIRECTION('',(0.0,0.0,-1.0));
#756=DIRECTION('',(0.0,-1.0,0.0));
#757=AXIS2_PLACEMENT_3D('',#754,#755,#756);
#758=PLANE('',#757);
#759=CARTESIAN_POINT('',(-0.249999999999999,0.250000000000001,8.881784E-016));
#760=VERTEX_POINT('',#759);
#761=CARTESIAN_POINT('',(-0.349999999999997,0.250000000000001,9.103829E-016));
#762=DIRECTION('',(1.0,0.0,0.0));
#763=VECTOR('',#762,0.099999999999998);
#764=LINE('',#761,#763);
#765=EDGE_CURVE('',#729,#760,#764,.T.);
#766=ORIENTED_EDGE('',*,*,#765,.T.);
#767=CARTESIAN_POINT('',(-0.249999999999999,-0.250000000000000,8.881784E-016));
#768=VERTEX_POINT('',#767);
#769=CARTESIAN_POINT('',(-0.249999999999999,-0.250000000000000,8.881784E-016));
#770=DIRECTION('',(0.0,1.0,0.0));
#771=VECTOR('',#770,0.500000000000000);
#772=LINE('',#769,#771);
#773=EDGE_CURVE('',#768,#760,#772,.T.);
#774=ORIENTED_EDGE('',*,*,#773,.F.);
#775=CARTESIAN_POINT('',(-0.249999999999999,-0.250000000000000,8.881784E-016));
#776=DIRECTION('',(-1.0,0.0,0.0));
#777=VECTOR('',#776,0.099999999999998);
#778=LINE('',#775,#777);
#779=EDGE_CURVE('',#768,#737,#778,.T.);
#780=ORIENTED_EDGE('',*,*,#779,.T.);
#781=ORIENTED_EDGE('',*,*,#742,.T.);
#782=EDGE_LOOP('',(#766,#774,#780,#781));
#783=FACE_OUTER_BOUND('',#782,.T.);
#784=ADVANCED_FACE('',(#783),#758,.T.);
#785=CARTESIAN_POINT('',(-0.249999999999999,-0.250000000000000,8.881784E-016));
#786=DIRECTION('',(-1.0,0.0,0.0));
#787=DIRECTION('',(0.0,-1.0,0.0));
#788=AXIS2_PLACEMENT_3D('',#785,#786,#787);
#789=PLANE('',#788);
#790=CARTESIAN_POINT('',(-0.250000000000002,0.250000000000001,-3.799999999999997));
#791=VERTEX_POINT('',#790);
#792=CARTESIAN_POINT('',(-0.250000000000002,0.250000000000000,0.0));
#793=DIRECTION('',(0.0,0.0,-1.0));
#794=VECTOR('',#793,3.799999999999997);
#795=LINE('',#792,#794);
#796=EDGE_CURVE('',#760,#791,#795,.T.);
#797=ORIENTED_EDGE('',*,*,#796,.T.);
#798=CARTESIAN_POINT('',(-0.250000000000003,-0.250000000000000,-3.799999999999997));
#799=VERTEX_POINT('',#798);
#800=CARTESIAN_POINT('',(-0.250000000000003,-0.250000000000000,-3.799999999999997));
#801=DIRECTION('',(0.0,1.0,0.0));
#802=VECTOR('',#801,0.500000000000000);
#803=LINE('',#800,#802);
#804=EDGE_CURVE('',#799,#791,#803,.T.);
#805=ORIENTED_EDGE('',*,*,#804,.F.);
#806=CARTESIAN_POINT('',(-0.250000000000003,-0.250000000000000,-3.799999999999997));
#807=DIRECTION('',(0.0,0.0,1.0));
#808=VECTOR('',#807,3.799999999999997);
#809=LINE('',#806,#808);
#810=EDGE_CURVE('',#799,#768,#809,.T.);
#811=ORIENTED_EDGE('',*,*,#810,.T.);
#812=ORIENTED_EDGE('',*,*,#773,.T.);
#813=EDGE_LOOP('',(#797,#805,#811,#812));
#814=FACE_OUTER_BOUND('',#813,.T.);
#815=ADVANCED_FACE('',(#814),#789,.T.);
#816=CARTESIAN_POINT('',(-0.250000000000003,-0.250000000000000,-3.799999999999997));
#817=DIRECTION('',(0.0,0.0,-1.0));
#818=DIRECTION('',(0.0,-1.0,0.0));
#819=AXIS2_PLACEMENT_3D('',#816,#817,#818);
#820=PLANE('',#819);
#821=CARTESIAN_POINT('',(0.249999999999998,0.250000000000000,-3.800000000000001));
#822=VERTEX_POINT('',#821);
#823=CARTESIAN_POINT('',(-0.250000000000002,0.250000000000000,-3.799999999999997));
#824=DIRECTION('',(1.0,0.0,0.0));
#825=VECTOR('',#824,0.500000000000000);
#826=LINE('',#823,#825);
#827=EDGE_CURVE('',#791,#822,#826,.T.);
#828=ORIENTED_EDGE('',*,*,#827,.T.);
#829=CARTESIAN_POINT('',(0.249999999999997,-0.249999999999999,-3.800000000000001));
#830=VERTEX_POINT('',#829);
#831=CARTESIAN_POINT('',(0.249999999999997,-0.249999999999999,-3.800000000000001));
#832=DIRECTION('',(0.0,1.0,0.0));
#833=VECTOR('',#832,0.500000000000000);
#834=LINE('',#831,#833);
#835=EDGE_CURVE('',#830,#822,#834,.T.);
#836=ORIENTED_EDGE('',*,*,#835,.F.);
#837=CARTESIAN_POINT('',(0.249999999999997,-0.249999999999999,-3.800000000000001));
#838=DIRECTION('',(-1.0,0.0,0.0));
#839=VECTOR('',#838,0.500000000000000);
#840=LINE('',#837,#839);
#841=EDGE_CURVE('',#830,#799,#840,.T.);
#842=ORIENTED_EDGE('',*,*,#841,.T.);
#843=ORIENTED_EDGE('',*,*,#804,.T.);
#844=EDGE_LOOP('',(#828,#836,#842,#843));
#845=FACE_OUTER_BOUND('',#844,.T.);
#846=ADVANCED_FACE('',(#845),#820,.T.);
#847=CARTESIAN_POINT('',(0.249999999999997,-0.249999999999999,-3.800000000000001));
#848=DIRECTION('',(1.0,0.0,0.0));
#849=DIRECTION('',(0.0,1.0,0.0));
#850=AXIS2_PLACEMENT_3D('',#847,#848,#849);
#851=PLANE('',#850);
#852=CARTESIAN_POINT('',(0.250000000000001,0.250000000000000,8.881784E-016));
#853=VERTEX_POINT('',#852);
#854=CARTESIAN_POINT('',(0.250000000000000,0.250000000000001,-3.800000000000000));
#855=DIRECTION('',(0.0,0.0,1.0));
#856=VECTOR('',#855,3.800000000000001);
#857=LINE('',#854,#856);
#858=EDGE_CURVE('',#822,#853,#857,.T.);
#859=ORIENTED_EDGE('',*,*,#858,.T.);
#860=CARTESIAN_POINT('',(0.250000000000001,-0.250000000000000,8.881784E-016));
#861=VERTEX_POINT('',#860);
#862=CARTESIAN_POINT('',(0.250000000000001,-0.250000000000000,8.881784E-016));
#863=DIRECTION('',(0.0,1.0,0.0));
#864=VECTOR('',#863,0.500000000000000);
#865=LINE('',#862,#864);
#866=EDGE_CURVE('',#861,#853,#865,.T.);
#867=ORIENTED_EDGE('',*,*,#866,.F.);
#868=CARTESIAN_POINT('',(0.250000000000001,-0.250000000000000,8.881784E-016));
#869=DIRECTION('',(0.0,0.0,-1.0));
#870=VECTOR('',#869,3.800000000000001);
#871=LINE('',#868,#870);
#872=EDGE_CURVE('',#861,#830,#871,.T.);
#873=ORIENTED_EDGE('',*,*,#872,.T.);
#874=ORIENTED_EDGE('',*,*,#835,.T.);
#875=EDGE_LOOP('',(#859,#867,#873,#874));
#876=FACE_OUTER_BOUND('',#875,.T.);
#877=ADVANCED_FACE('',(#876),#851,.T.);
#878=CARTESIAN_POINT('',(0.250000000000001,-0.250000000000000,8.881784E-016));
#879=DIRECTION('',(0.0,0.0,-1.0));
#880=DIRECTION('',(0.0,-1.0,0.0));
#881=AXIS2_PLACEMENT_3D('',#878,#879,#880);
#882=PLANE('',#881);
#883=CARTESIAN_POINT('',(0.350000000000006,0.250000000000000,8.881784E-016));
#884=VERTEX_POINT('',#883);
#885=CARTESIAN_POINT('',(0.250000000000001,0.250000000000000,9.103829E-016));
#886=DIRECTION('',(1.0,0.0,0.0));
#887=VECTOR('',#886,0.100000000000005);
#888=LINE('',#885,#887);
#889=EDGE_CURVE('',#853,#884,#888,.T.);
#890=ORIENTED_EDGE('',*,*,#889,.T.);
#891=CARTESIAN_POINT('',(0.350000000000006,-0.250000000000000,8.881784E-016));
#892=VERTEX_POINT('',#891);
#893=CARTESIAN_POINT('',(0.350000000000006,-0.250000000000000,8.881784E-016));
#894=DIRECTION('',(0.0,1.0,0.0));
#895=VECTOR('',#894,0.500000000000000);
#896=LINE('',#893,#895);
#897=EDGE_CURVE('',#892,#884,#896,.T.);
#898=ORIENTED_EDGE('',*,*,#897,.F.);
#899=CARTESIAN_POINT('',(0.350000000000006,-0.250000000000000,8.881784E-016));
#900=DIRECTION('',(-1.0,0.0,0.0));
#901=VECTOR('',#900,0.100000000000005);
#902=LINE('',#899,#901);
#903=EDGE_CURVE('',#892,#861,#902,.T.);
#904=ORIENTED_EDGE('',*,*,#903,.T.);
#905=ORIENTED_EDGE('',*,*,#866,.T.);
#906=EDGE_LOOP('',(#890,#898,#904,#905));
#907=FACE_OUTER_BOUND('',#906,.T.);
#908=ADVANCED_FACE('',(#907),#882,.T.);
#909=CARTESIAN_POINT('',(0.350000000000006,-0.250000000000000,8.881784E-016));
#910=DIRECTION('',(1.0,0.0,0.0));
#911=DIRECTION('',(0.0,1.0,0.0));
#912=AXIS2_PLACEMENT_3D('',#909,#910,#911);
#913=PLANE('',#912);
#914=CARTESIAN_POINT('',(0.350000000000010,0.250000000000000,1.200000000000000));
#915=VERTEX_POINT('',#914);
#916=CARTESIAN_POINT('',(0.350000000000006,0.250000000000000,8.881784E-016));
#917=DIRECTION('',(0.0,0.0,1.0));
#918=VECTOR('',#917,1.199999999999999);
#919=LINE('',#916,#918);
#920=EDGE_CURVE('',#884,#915,#919,.T.);
#921=ORIENTED_EDGE('',*,*,#920,.T.);
#922=CARTESIAN_POINT('',(0.350000000000010,-0.250000000000000,1.200000000000000));
#923=VERTEX_POINT('',#922);
#924=CARTESIAN_POINT('',(0.350000000000010,-0.250000000000000,1.200000000000000));
#925=DIRECTION('',(0.0,1.0,0.0));
#926=VECTOR('',#925,0.500000000000000);
#927=LINE('',#924,#926);
#928=EDGE_CURVE('',#923,#915,#927,.T.);
#929=ORIENTED_EDGE('',*,*,#928,.F.);
#930=CARTESIAN_POINT('',(0.350000000000010,-0.250000000000000,1.200000000000000));
#931=DIRECTION('',(0.0,0.0,-1.0));
#932=VECTOR('',#931,1.199999999999999);
#933=LINE('',#930,#932);
#934=EDGE_CURVE('',#923,#892,#933,.T.);
#935=ORIENTED_EDGE('',*,*,#934,.T.);
#936=ORIENTED_EDGE('',*,*,#897,.T.);
#937=EDGE_LOOP('',(#921,#929,#935,#936));
#938=FACE_OUTER_BOUND('',#937,.T.);
#939=ADVANCED_FACE('',(#938),#913,.T.);
#940=CARTESIAN_POINT('',(0.350000000000010,-0.250000000000000,1.200000000000000));
#941=DIRECTION('',(0.0,0.0,1.0));
#942=DIRECTION('',(0.0,1.0,0.0));
#943=AXIS2_PLACEMENT_3D('',#940,#941,#942);
#944=PLANE('',#943);
#945=CARTESIAN_POINT('',(0.250000000000005,0.250000000000000,1.200000000000000));
#946=VERTEX_POINT('',#945);
#947=CARTESIAN_POINT('',(0.350000000000010,0.250000000000000,1.200000000000000));
#948=DIRECTION('',(-1.0,0.0,0.0));
#949=VECTOR('',#948,0.100000000000005);
#950=LINE('',#947,#949);
#951=EDGE_CURVE('',#915,#946,#950,.T.);
#952=ORIENTED_EDGE('',*,*,#951,.T.);
#953=CARTESIAN_POINT('',(0.250000000000005,-0.250000000000000,1.200000000000000));
#954=VERTEX_POINT('',#953);
#955=CARTESIAN_POINT('',(0.250000000000005,-0.250000000000000,1.200000000000000));
#956=DIRECTION('',(0.0,1.0,0.0));
#957=VECTOR('',#956,0.500000000000000);
#958=LINE('',#955,#957);
#959=EDGE_CURVE('',#954,#946,#958,.T.);
#960=ORIENTED_EDGE('',*,*,#959,.F.);
#961=CARTESIAN_POINT('',(0.250000000000005,-0.250000000000000,1.200000000000000));
#962=DIRECTION('',(1.0,0.0,0.0));
#963=VECTOR('',#962,0.100000000000005);
#964=LINE('',#961,#963);
#965=EDGE_CURVE('',#954,#923,#964,.T.);
#966=ORIENTED_EDGE('',*,*,#965,.T.);
#967=ORIENTED_EDGE('',*,*,#928,.T.);
#968=EDGE_LOOP('',(#952,#960,#966,#967));
#969=FACE_OUTER_BOUND('',#968,.T.);
#970=ADVANCED_FACE('',(#969),#944,.T.);
#971=CARTESIAN_POINT('',(0.250000000000005,-0.250000000000000,1.200000000000000));
#972=DIRECTION('',(1.0,0.0,0.0));
#973=DIRECTION('',(0.0,1.0,0.0));
#974=AXIS2_PLACEMENT_3D('',#971,#972,#973);
#975=PLANE('',#974);
#976=CARTESIAN_POINT('',(0.250000000000004,0.250000000000000,1.199999999999999));
#977=DIRECTION('',(0.0,0.0,1.0));
#978=VECTOR('',#977,3.500000000000000);
#979=LINE('',#976,#978);
#980=EDGE_CURVE('',#946,#627,#979,.T.);
#981=ORIENTED_EDGE('',*,*,#980,.T.);
#982=ORIENTED_EDGE('',*,*,#656,.F.);
#983=CARTESIAN_POINT('',(0.250000000000005,-0.250000000000000,4.699999999999999));
#984=DIRECTION('',(0.0,0.0,-1.0));
#985=VECTOR('',#984,3.500000000000000);
#986=LINE('',#983,#985);
#987=EDGE_CURVE('',#645,#954,#986,.T.);
#988=ORIENTED_EDGE('',*,*,#987,.T.);
#989=ORIENTED_EDGE('',*,*,#959,.T.);
#990=EDGE_LOOP('',(#981,#982,#988,#989));
#991=FACE_OUTER_BOUND('',#990,.T.);
#992=ADVANCED_FACE('',(#991),#975,.T.);
#993=CARTESIAN_POINT('',(1.012994E-015,-0.250000000000000,0.453260869565218));
#994=DIRECTION('',(0.0,1.0,0.0));
#995=DIRECTION('',(-1.0,0.0,0.0));
#996=AXIS2_PLACEMENT_3D('',#993,#994,#995);
#997=PLANE('',#996);
#998=ORIENTED_EDGE('',*,*,#987,.F.);
#999=ORIENTED_EDGE('',*,*,#650,.F.);
#1000=ORIENTED_EDGE('',*,*,#686,.F.);
#1001=ORIENTED_EDGE('',*,*,#717,.F.);
#1002=ORIENTED_EDGE('',*,*,#748,.F.);
#1003=ORIENTED_EDGE('',*,*,#779,.F.);
#1004=ORIENTED_EDGE('',*,*,#810,.F.);
#1005=ORIENTED_EDGE('',*,*,#841,.F.);
#1006=ORIENTED_EDGE('',*,*,#872,.F.);
#1007=ORIENTED_EDGE('',*,*,#903,.F.);
#1008=ORIENTED_EDGE('',*,*,#934,.F.);
#1009=ORIENTED_EDGE('',*,*,#965,.F.);
#1010=EDGE_LOOP('',(#998,#999,#1000,#1001,#1002,#1003,#1004,#1005,#1006,#1007,#1008,#1009));
#1011=FACE_OUTER_BOUND('',#1010,.T.);
#1012=ADVANCED_FACE('',(#1011),#997,.F.);
#1013=CARTESIAN_POINT('',(1.074225E-015,0.250000000000000,0.453260869565217));
#1014=DIRECTION('',(0.0,1.0,0.0));
#1015=DIRECTION('',(-1.0,0.0,0.0));
#1016=AXIS2_PLACEMENT_3D('',#1013,#1014,#1015);
#1017=PLANE('',#1016);
#1018=ORIENTED_EDGE('',*,*,#634,.F.);
#1019=ORIENTED_EDGE('',*,*,#980,.F.);
#1020=ORIENTED_EDGE('',*,*,#951,.F.);
#1021=ORIENTED_EDGE('',*,*,#920,.F.);
#1022=ORIENTED_EDGE('',*,*,#889,.F.);
#1023=ORIENTED_EDGE('',*,*,#858,.F.);
#1024=ORIENTED_EDGE('',*,*,#827,.F.);
#1025=ORIENTED_EDGE('',*,*,#796,.F.);
#1026=ORIENTED_EDGE('',*,*,#765,.F.);
#1027=ORIENTED_EDGE('',*,*,#734,.F.);
#1028=ORIENTED_EDGE('',*,*,#703,.F.);
#1029=ORIENTED_EDGE('',*,*,#672,.F.);
#1030=EDGE_LOOP('',(#1018,#1019,#1020,#1021,#1022,#1023,#1024,#1025,#1026,#1027,#1028,#1029));
#1031=FACE_OUTER_BOUND('',#1030,.T.);
#1032=ADVANCED_FACE('',(#1031),#1017,.T.);
#1033=CLOSED_SHELL('',(#660,#691,#722,#753,#784,#815,#846,#877,#908,#939,#970,#992,#1012,#1032));
#1034=MANIFOLD_SOLID_BREP('8B7',#1033);
#1035=STYLED_ITEM('NONE',(#617),#1034);
#1036=CARTESIAN_POINT('',(2.290000000000000,-0.249999999999999,-3.799999999999997));
#1037=DIRECTION('',(0.0,0.0,-1.0));
#1038=DIRECTION('',(0.0,-1.0,0.0));
#1039=AXIS2_PLACEMENT_3D('',#1036,#1037,#1038);
#1040=PLANE('',#1039);
#1041=CARTESIAN_POINT('',(2.290000000000000,0.250000000000001,-3.799999999999997));
#1042=VERTEX_POINT('',#1041);
#1043=CARTESIAN_POINT('',(2.790000000000000,0.250000000000001,-3.800000000000001));
#1044=VERTEX_POINT('',#1043);
#1045=CARTESIAN_POINT('',(2.290000000000000,0.250000000000001,-3.800000000000001));
#1046=DIRECTION('',(1.0,0.0,0.0));
#1047=VECTOR('',#1046,0.500000000000000);
#1048=LINE('',#1045,#1047);
#1049=EDGE_CURVE('',#1042,#1044,#1048,.T.);
#1050=ORIENTED_EDGE('',*,*,#1049,.T.);
#1051=CARTESIAN_POINT('',(2.790000000000000,-0.249999999999999,-3.800000000000001));
#1052=VERTEX_POINT('',#1051);
#1053=CARTESIAN_POINT('',(2.790000000000000,-0.249999999999999,-3.800000000000001));
#1054=DIRECTION('',(0.0,1.0,0.0));
#1055=VECTOR('',#1054,0.500000000000000);
#1056=LINE('',#1053,#1055);
#1057=EDGE_CURVE('',#1052,#1044,#1056,.T.);
#1058=ORIENTED_EDGE('',*,*,#1057,.F.);
#1059=CARTESIAN_POINT('',(2.290000000000000,-0.249999999999999,-3.799999999999997));
#1060=VERTEX_POINT('',#1059);
#1061=CARTESIAN_POINT('',(2.790000000000000,-0.249999999999999,-3.800000000000001));
#1062=DIRECTION('',(-1.0,0.0,0.0));
#1063=VECTOR('',#1062,0.500000000000000);
#1064=LINE('',#1061,#1063);
#1065=EDGE_CURVE('',#1052,#1060,#1064,.T.);
#1066=ORIENTED_EDGE('',*,*,#1065,.T.);
#1067=CARTESIAN_POINT('',(2.290000000000000,-0.249999999999999,-3.799999999999997));
#1068=DIRECTION('',(0.0,1.0,0.0));
#1069=VECTOR('',#1068,0.500000000000000);
#1070=LINE('',#1067,#1069);
#1071=EDGE_CURVE('',#1060,#1042,#1070,.T.);
#1072=ORIENTED_EDGE('',*,*,#1071,.T.);
#1073=EDGE_LOOP('',(#1050,#1058,#1066,#1072));
#1074=FACE_OUTER_BOUND('',#1073,.T.);
#1075=ADVANCED_FACE('',(#1074),#1040,.T.);
#1076=CARTESIAN_POINT('',(2.790000000000000,-0.249999999999999,-3.800000000000001));
#1077=DIRECTION('',(1.0,0.0,0.0));
#1078=DIRECTION('',(0.0,1.0,0.0));
#1079=AXIS2_PLACEMENT_3D('',#1076,#1077,#1078);
#1080=PLANE('',#1079);
#1081=CARTESIAN_POINT('',(2.790000000000007,0.250000000000001,-8.881784E-016));
#1082=VERTEX_POINT('',#1081);
#1083=CARTESIAN_POINT('',(2.790000000000003,0.250000000000001,-3.799999999999999));
#1084=DIRECTION('',(0.0,0.0,1.0));
#1085=VECTOR('',#1084,3.799999999999998);
#1086=LINE('',#1083,#1085);
#1087=EDGE_CURVE('',#1044,#1082,#1086,.T.);
#1088=ORIENTED_EDGE('',*,*,#1087,.T.);
#1089=CARTESIAN_POINT('',(2.790000000000007,-0.249999999999999,-8.881784E-016));
#1090=VERTEX_POINT('',#1089);
#1091=CARTESIAN_POINT('',(2.790000000000007,-0.249999999999999,-8.881784E-016));
#1092=DIRECTION('',(0.0,1.0,0.0));
#1093=VECTOR('',#1092,0.500000000000000);
#1094=LINE('',#1091,#1093);
#1095=EDGE_CURVE('',#1090,#1082,#1094,.T.);
#1096=ORIENTED_EDGE('',*,*,#1095,.F.);
#1097=CARTESIAN_POINT('',(2.790000000000007,-0.249999999999999,-8.881784E-016));
#1098=DIRECTION('',(0.0,0.0,-1.0));
#1099=VECTOR('',#1098,3.799999999999998);
#1100=LINE('',#1097,#1099);
#1101=EDGE_CURVE('',#1090,#1052,#1100,.T.);
#1102=ORIENTED_EDGE('',*,*,#1101,.T.);
#1103=ORIENTED_EDGE('',*,*,#1057,.T.);
#1104=EDGE_LOOP('',(#1088,#1096,#1102,#1103));
#1105=FACE_OUTER_BOUND('',#1104,.T.);
#1106=ADVANCED_FACE('',(#1105),#1080,.T.);
#1107=CARTESIAN_POINT('',(2.790000000000007,-0.249999999999999,-8.881784E-016));
#1108=DIRECTION('',(0.0,0.0,-1.0));
#1109=DIRECTION('',(0.0,-1.0,0.0));
#1110=AXIS2_PLACEMENT_3D('',#1107,#1108,#1109);
#1111=PLANE('',#1110);
#1112=CARTESIAN_POINT('',(2.890000000000009,0.250000000000001,-8.881784E-016));
#1113=VERTEX_POINT('',#1112);
#1114=CARTESIAN_POINT('',(2.790000000000007,0.250000000000001,-8.659740E-016));
#1115=DIRECTION('',(1.0,0.0,0.0));
#1116=VECTOR('',#1115,0.100000000000001);
#1117=LINE('',#1114,#1116);
#1118=EDGE_CURVE('',#1082,#1113,#1117,.T.);
#1119=ORIENTED_EDGE('',*,*,#1118,.T.);
#1120=CARTESIAN_POINT('',(2.890000000000009,-0.249999999999999,-8.881784E-016));
#1121=VERTEX_POINT('',#1120);
#1122=CARTESIAN_POINT('',(2.890000000000009,-0.249999999999999,-8.881784E-016));
#1123=DIRECTION('',(0.0,1.0,0.0));
#1124=VECTOR('',#1123,0.500000000000000);
#1125=LINE('',#1122,#1124);
#1126=EDGE_CURVE('',#1121,#1113,#1125,.T.);
#1127=ORIENTED_EDGE('',*,*,#1126,.F.);
#1128=CARTESIAN_POINT('',(2.890000000000009,-0.249999999999999,-8.881784E-016));
#1129=DIRECTION('',(-1.0,0.0,0.0));
#1130=VECTOR('',#1129,0.100000000000001);
#1131=LINE('',#1128,#1130);
#1132=EDGE_CURVE('',#1121,#1090,#1131,.T.);
#1133=ORIENTED_EDGE('',*,*,#1132,.T.);
#1134=ORIENTED_EDGE('',*,*,#1095,.T.);
#1135=EDGE_LOOP('',(#1119,#1127,#1133,#1134));
#1136=FACE_OUTER_BOUND('',#1135,.T.);
#1137=ADVANCED_FACE('',(#1136),#1111,.T.);
#1138=CARTESIAN_POINT('',(2.890000000000009,-0.249999999999999,-8.881784E-016));
#1139=DIRECTION('',(1.0,0.0,0.0));
#1140=DIRECTION('',(0.0,1.0,0.0));
#1141=AXIS2_PLACEMENT_3D('',#1138,#1139,#1140);
#1142=PLANE('',#1141);
#1143=CARTESIAN_POINT('',(2.890000000000012,0.250000000000001,1.199999999999999));
#1144=VERTEX_POINT('',#1143);
#1145=CARTESIAN_POINT('',(2.890000000000008,0.250000000000001,-8.881784E-016));
#1146=DIRECTION('',(0.0,0.0,1.0));
#1147=VECTOR('',#1146,1.200000000000000);
#1148=LINE('',#1145,#1147);
#1149=EDGE_CURVE('',#1113,#1144,#1148,.T.);
#1150=ORIENTED_EDGE('',*,*,#1149,.T.);
#1151=CARTESIAN_POINT('',(2.890000000000012,-0.249999999999999,1.199999999999999));
#1152=VERTEX_POINT('',#1151);
#1153=CARTESIAN_POINT('',(2.890000000000012,-0.249999999999999,1.199999999999999));
#1154=DIRECTION('',(0.0,1.0,0.0));
#1155=VECTOR('',#1154,0.500000000000000);
#1156=LINE('',#1153,#1155);
#1157=EDGE_CURVE('',#1152,#1144,#1156,.T.);
#1158=ORIENTED_EDGE('',*,*,#1157,.F.);
#1159=CARTESIAN_POINT('',(2.890000000000012,-0.249999999999999,1.199999999999999));
#1160=DIRECTION('',(0.0,0.0,-1.0));
#1161=VECTOR('',#1160,1.200000000000000);
#1162=LINE('',#1159,#1161);
#1163=EDGE_CURVE('',#1152,#1121,#1162,.T.);
#1164=ORIENTED_EDGE('',*,*,#1163,.T.);
#1165=ORIENTED_EDGE('',*,*,#1126,.T.);
#1166=EDGE_LOOP('',(#1150,#1158,#1164,#1165));
#1167=FACE_OUTER_BOUND('',#1166,.T.);
#1168=ADVANCED_FACE('',(#1167),#1142,.T.);
#1169=CARTESIAN_POINT('',(2.890000000000012,-0.249999999999999,1.199999999999999));
#1170=DIRECTION('',(0.0,0.0,1.0));
#1171=DIRECTION('',(0.0,1.0,0.0));
#1172=AXIS2_PLACEMENT_3D('',#1169,#1170,#1171);
#1173=PLANE('',#1172);
#1174=CARTESIAN_POINT('',(2.790000000000007,0.250000000000001,1.199999999999999));
#1175=VERTEX_POINT('',#1174);
#1176=CARTESIAN_POINT('',(2.890000000000012,0.250000000000001,1.199999999999999));
#1177=DIRECTION('',(-1.0,0.0,0.0));
#1178=VECTOR('',#1177,0.100000000000005);
#1179=LINE('',#1176,#1178);
#1180=EDGE_CURVE('',#1144,#1175,#1179,.T.);
#1181=ORIENTED_EDGE('',*,*,#1180,.T.);
#1182=CARTESIAN_POINT('',(2.790000000000007,-0.249999999999999,1.199999999999999));
#1183=VERTEX_POINT('',#1182);
#1184=CARTESIAN_POINT('',(2.790000000000007,-0.249999999999999,1.199999999999999));
#1185=DIRECTION('',(0.0,1.0,0.0));
#1186=VECTOR('',#1185,0.500000000000000);
#1187=LINE('',#1184,#1186);
#1188=EDGE_CURVE('',#1183,#1175,#1187,.T.);
#1189=ORIENTED_EDGE('',*,*,#1188,.F.);
#1190=CARTESIAN_POINT('',(2.790000000000007,-0.249999999999999,1.199999999999999));
#1191=DIRECTION('',(1.0,0.0,0.0));
#1192=VECTOR('',#1191,0.100000000000005);
#1193=LINE('',#1190,#1192);
#1194=EDGE_CURVE('',#1183,#1152,#1193,.T.);
#1195=ORIENTED_EDGE('',*,*,#1194,.T.);
#1196=ORIENTED_EDGE('',*,*,#1157,.T.);
#1197=EDGE_LOOP('',(#1181,#1189,#1195,#1196));
#1198=FACE_OUTER_BOUND('',#1197,.T.);
#1199=ADVANCED_FACE('',(#1198),#1173,.T.);
#1200=CARTESIAN_POINT('',(2.790000000000007,-0.249999999999999,1.199999999999999));
#1201=DIRECTION('',(1.0,0.0,0.0));
#1202=DIRECTION('',(0.0,1.0,0.0));
#1203=AXIS2_PLACEMENT_3D('',#1200,#1201,#1202);
#1204=PLANE('',#1203);
#1205=CARTESIAN_POINT('',(2.790000000000011,0.250000000000001,3.299054009878676));
#1206=VERTEX_POINT('',#1205);
#1207=CARTESIAN_POINT('',(2.790000000000007,0.250000000000001,1.199999999999999));
#1208=DIRECTION('',(0.0,0.0,1.0));
#1209=VECTOR('',#1208,2.099054009878676);
#1210=LINE('',#1207,#1209);
#1211=EDGE_CURVE('',#1175,#1206,#1210,.T.);
#1212=ORIENTED_EDGE('',*,*,#1211,.T.);
#1213=CARTESIAN_POINT('',(2.790000000000011,-0.250000000000000,3.299054009878676));
#1214=VERTEX_POINT('',#1213);
#1215=CARTESIAN_POINT('',(2.790000000000011,-0.250000000000000,3.299054009878676));
#1216=DIRECTION('',(0.0,1.0,0.0));
#1217=VECTOR('',#1216,0.500000000000000);
#1218=LINE('',#1215,#1217);
#1219=EDGE_CURVE('',#1214,#1206,#1218,.T.);
#1220=ORIENTED_EDGE('',*,*,#1219,.F.);
#1221=CARTESIAN_POINT('',(2.790000000000011,-0.250000000000000,3.299054009878676));
#1222=DIRECTION('',(0.0,0.0,-1.0));
#1223=VECTOR('',#1222,2.099054009878676);
#1224=LINE('',#1221,#1223);
#1225=EDGE_CURVE('',#1214,#1183,#1224,.T.);
#1226=ORIENTED_EDGE('',*,*,#1225,.T.);
#1227=ORIENTED_EDGE('',*,*,#1188,.T.);
#1228=EDGE_LOOP('',(#1212,#1220,#1226,#1227));
#1229=FACE_OUTER_BOUND('',#1228,.T.);
#1230=ADVANCED_FACE('',(#1229),#1204,.T.);
#1231=CARTESIAN_POINT('',(2.790000000000011,-0.250000000000000,3.299054009878676));
#1232=DIRECTION('',(0.728627668902006,3.062238E-017,0.684910008767889));
#1233=DIRECTION('',(0.0,1.0,0.0));
#1234=AXIS2_PLACEMENT_3D('',#1231,#1232,#1233);
#1235=PLANE('',#1234);
#1236=CARTESIAN_POINT('',(1.850000000000010,0.250000000000000,4.299054009878671));
#1237=VERTEX_POINT('',#1236);
#1238=CARTESIAN_POINT('',(2.790000000000011,0.250000000000000,3.299054009878675));
#1239=DIRECTION('',(-0.684910008767889,-1.213409E-016,0.728627668902006));
#1240=VECTOR('',#1239,1.372443077143819);
#1241=LINE('',#1238,#1240);
#1242=EDGE_CURVE('',#1206,#1237,#1241,.T.);
#1243=ORIENTED_EDGE('',*,*,#1242,.T.);
#1244=CARTESIAN_POINT('',(1.850000000000010,-0.250000000000000,4.299054009878671));
#1245=VERTEX_POINT('',#1244);
#1246=CARTESIAN_POINT('',(1.850000000000010,-0.250000000000000,4.299054009878671));
#1247=DIRECTION('',(0.0,1.0,0.0));
#1248=VECTOR('',#1247,0.500000000000000);
#1249=LINE('',#1246,#1248);
#1250=EDGE_CURVE('',#1245,#1237,#1249,.T.);
#1251=ORIENTED_EDGE('',*,*,#1250,.F.);
#1252=CARTESIAN_POINT('',(1.850000000000010,-0.250000000000000,4.299054009878671));
#1253=DIRECTION('',(0.684910008767889,1.213409E-016,-0.728627668902006));
#1254=VECTOR('',#1253,1.372443077143819);
#1255=LINE('',#1252,#1254);
#1256=EDGE_CURVE('',#1245,#1214,#1255,.T.);
#1257=ORIENTED_EDGE('',*,*,#1256,.T.);
#1258=ORIENTED_EDGE('',*,*,#1219,.T.);
#1259=EDGE_LOOP('',(#1243,#1251,#1257,#1258));
#1260=FACE_OUTER_BOUND('',#1259,.T.);
#1261=ADVANCED_FACE('',(#1260),#1235,.T.);
#1262=CARTESIAN_POINT('',(1.850000000000010,-0.250000000000000,4.299054009878671));
#1263=DIRECTION('',(1.0,0.0,0.0));
#1264=DIRECTION('',(0.0,1.0,0.0));
#1265=AXIS2_PLACEMENT_3D('',#1262,#1263,#1264);
#1266=PLANE('',#1265);
#1267=CARTESIAN_POINT('',(1.850000000000010,0.250000000000000,4.699999999999999));
#1268=VERTEX_POINT('',#1267);
#1269=CARTESIAN_POINT('',(1.850000000000010,0.250000000000000,4.299054009878672));
#1270=DIRECTION('',(0.0,0.0,1.0));
#1271=VECTOR('',#1270,0.400945990121327);
#1272=LINE('',#1269,#1271);
#1273=EDGE_CURVE('',#1237,#1268,#1272,.T.);
#1274=ORIENTED_EDGE('',*,*,#1273,.T.);
#1275=CARTESIAN_POINT('',(1.850000000000010,-0.250000000000000,4.699999999999999));
#1276=VERTEX_POINT('',#1275);
#1277=CARTESIAN_POINT('',(1.850000000000010,-0.250000000000000,4.699999999999999));
#1278=DIRECTION('',(0.0,1.0,0.0));
#1279=VECTOR('',#1278,0.500000000000000);
#1280=LINE('',#1277,#1279);
#1281=EDGE_CURVE('',#1276,#1268,#1280,.T.);
#1282=ORIENTED_EDGE('',*,*,#1281,.F.);
#1283=CARTESIAN_POINT('',(1.850000000000010,-0.250000000000000,4.699999999999999));
#1284=DIRECTION('',(0.0,0.0,-1.0));
#1285=VECTOR('',#1284,0.400945990121327);
#1286=LINE('',#1283,#1285);
#1287=EDGE_CURVE('',#1276,#1245,#1286,.T.);
#1288=ORIENTED_EDGE('',*,*,#1287,.T.);
#1289=ORIENTED_EDGE('',*,*,#1250,.T.);
#1290=EDGE_LOOP('',(#1274,#1282,#1288,#1289));
#1291=FACE_OUTER_BOUND('',#1290,.T.);
#1292=ADVANCED_FACE('',(#1291),#1266,.T.);
#1293=CARTESIAN_POINT('',(1.850000000000010,-0.250000000000000,4.699999999999999));
#1294=DIRECTION('',(0.0,0.0,1.0));
#1295=DIRECTION('',(0.0,1.0,0.0));
#1296=AXIS2_PLACEMENT_3D('',#1293,#1294,#1295);
#1297=PLANE('',#1296);
#1298=CARTESIAN_POINT('',(1.350000000000010,0.250000000000000,4.699999999999999));
#1299=VERTEX_POINT('',#1298);
#1300=CARTESIAN_POINT('',(1.850000000000010,0.250000000000000,4.699999999999999));
#1301=DIRECTION('',(-1.0,0.0,0.0));
#1302=VECTOR('',#1301,0.500000000000000);
#1303=LINE('',#1300,#1302);
#1304=EDGE_CURVE('',#1268,#1299,#1303,.T.);
#1305=ORIENTED_EDGE('',*,*,#1304,.T.);
#1306=CARTESIAN_POINT('',(1.350000000000010,-0.250000000000000,4.699999999999999));
#1307=VERTEX_POINT('',#1306);
#1308=CARTESIAN_POINT('',(1.350000000000010,-0.250000000000000,4.699999999999999));
#1309=DIRECTION('',(0.0,1.0,0.0));
#1310=VECTOR('',#1309,0.500000000000000);
#1311=LINE('',#1308,#1310);
#1312=EDGE_CURVE('',#1307,#1299,#1311,.T.);
#1313=ORIENTED_EDGE('',*,*,#1312,.F.);
#1314=CARTESIAN_POINT('',(1.350000000000010,-0.250000000000000,4.699999999999999));
#1315=DIRECTION('',(1.0,0.0,0.0));
#1316=VECTOR('',#1315,0.500000000000000);
#1317=LINE('',#1314,#1316);
#1318=EDGE_CURVE('',#1307,#1276,#1317,.T.);
#1319=ORIENTED_EDGE('',*,*,#1318,.T.);
#1320=ORIENTED_EDGE('',*,*,#1281,.T.);
#1321=EDGE_LOOP('',(#1305,#1313,#1319,#1320));
#1322=FACE_OUTER_BOUND('',#1321,.T.);
#1323=ADVANCED_FACE('',(#1322),#1297,.T.);
#1324=CARTESIAN_POINT('',(1.350000000000010,-0.250000000000000,4.699999999999999));
#1325=DIRECTION('',(-1.0,0.0,0.0));
#1326=DIRECTION('',(0.0,-1.0,0.0));
#1327=AXIS2_PLACEMENT_3D('',#1324,#1325,#1326);
#1328=PLANE('',#1327);
#1329=CARTESIAN_POINT('',(1.350000000000010,0.250000000000000,4.100945990121319));
#1330=VERTEX_POINT('',#1329);
#1331=CARTESIAN_POINT('',(1.350000000000010,0.250000000000000,4.699999999999999));
#1332=DIRECTION('',(0.0,0.0,-1.0));
#1333=VECTOR('',#1332,0.599054009878680);
#1334=LINE('',#1331,#1333);
#1335=EDGE_CURVE('',#1299,#1330,#1334,.T.);
#1336=ORIENTED_EDGE('',*,*,#1335,.T.);
#1337=CARTESIAN_POINT('',(1.350000000000010,-0.250000000000000,4.100945990121319));
#1338=VERTEX_POINT('',#1337);
#1339=CARTESIAN_POINT('',(1.350000000000010,-0.250000000000000,4.100945990121319));
#1340=DIRECTION('',(0.0,1.0,0.0));
#1341=VECTOR('',#1340,0.500000000000000);
#1342=LINE('',#1339,#1341);
#1343=EDGE_CURVE('',#1338,#1330,#1342,.T.);
#1344=ORIENTED_EDGE('',*,*,#1343,.F.);
#1345=CARTESIAN_POINT('',(1.350000000000010,-0.250000000000000,4.100945990121319));
#1346=DIRECTION('',(0.0,0.0,1.0));
#1347=VECTOR('',#1346,0.599054009878680);
#1348=LINE('',#1345,#1347);
#1349=EDGE_CURVE('',#1338,#1307,#1348,.T.);
#1350=ORIENTED_EDGE('',*,*,#1349,.T.);
#1351=ORIENTED_EDGE('',*,*,#1312,.T.);
#1352=EDGE_LOOP('',(#1336,#1344,#1350,#1351));
#1353=FACE_OUTER_BOUND('',#1352,.T.);
#1354=ADVANCED_FACE('',(#1353),#1328,.T.);
#1355=CARTESIAN_POINT('',(1.350000000000010,-0.250000000000000,4.100945990121319));
#1356=DIRECTION('',(-0.728627668902006,-3.062238E-017,-0.684910008767889));
#1357=DIRECTION('',(0.0,-1.0,0.0));
#1358=AXIS2_PLACEMENT_3D('',#1355,#1356,#1357);
#1359=PLANE('',#1358);
#1360=CARTESIAN_POINT('',(2.290000000000011,0.250000000000000,3.100945990121323));
#1361=VERTEX_POINT('',#1360);
#1362=CARTESIAN_POINT('',(1.350000000000009,0.250000000000000,4.100945990121319));
#1363=DIRECTION('',(0.684910008767889,1.213409E-016,-0.728627668902006));
#1364=VECTOR('',#1363,1.372443077143819);
#1365=LINE('',#1362,#1364);
#1366=EDGE_CURVE('',#1330,#1361,#1365,.T.);
#1367=ORIENTED_EDGE('',*,*,#1366,.T.);
#1368=CARTESIAN_POINT('',(2.290000000000011,-0.250000000000000,3.100945990121323));
#1369=VERTEX_POINT('',#1368);
#1370=CARTESIAN_POINT('',(2.290000000000011,-0.250000000000000,3.100945990121323));
#1371=DIRECTION('',(0.0,1.0,0.0));
#1372=VECTOR('',#1371,0.500000000000000);
#1373=LINE('',#1370,#1372);
#1374=EDGE_CURVE('',#1369,#1361,#1373,.T.);
#1375=ORIENTED_EDGE('',*,*,#1374,.F.);
#1376=CARTESIAN_POINT('',(2.290000000000011,-0.250000000000000,3.100945990121323));
#1377=DIRECTION('',(-0.684910008767889,-1.213409E-016,0.728627668902005));
#1378=VECTOR('',#1377,1.372443077143818);
#1379=LINE('',#1376,#1378);
#1380=EDGE_CURVE('',#1369,#1338,#1379,.T.);
#1381=ORIENTED_EDGE('',*,*,#1380,.T.);
#1382=ORIENTED_EDGE('',*,*,#1343,.T.);
#1383=EDGE_LOOP('',(#1367,#1375,#1381,#1382));
#1384=FACE_OUTER_BOUND('',#1383,.T.);
#1385=ADVANCED_FACE('',(#1384),#1359,.T.);
#1386=CARTESIAN_POINT('',(2.290000000000011,-0.250000000000000,3.100945990121323));
#1387=DIRECTION('',(-1.0,0.0,0.0));
#1388=DIRECTION('',(0.0,-1.0,0.0));
#1389=AXIS2_PLACEMENT_3D('',#1386,#1387,#1388);
#1390=PLANE('',#1389);
#1391=CARTESIAN_POINT('',(2.290000000000007,0.250000000000001,1.199999999999999));
#1392=VERTEX_POINT('',#1391);
#1393=CARTESIAN_POINT('',(2.290000000000011,0.250000000000001,3.100945990121323));
#1394=DIRECTION('',(0.0,0.0,-1.0));
#1395=VECTOR('',#1394,1.900945990121324);
#1396=LINE('',#1393,#1395);
#1397=EDGE_CURVE('',#1361,#1392,#1396,.T.);
#1398=ORIENTED_EDGE('',*,*,#1397,.T.);
#1399=CARTESIAN_POINT('',(2.290000000000007,-0.250000000000000,1.199999999999999));
#1400=VERTEX_POINT('',#1399);
#1401=CARTESIAN_POINT('',(2.290000000000007,-0.250000000000000,1.199999999999999));
#1402=DIRECTION('',(0.0,1.0,0.0));
#1403=VECTOR('',#1402,0.500000000000000);
#1404=LINE('',#1401,#1403);
#1405=EDGE_CURVE('',#1400,#1392,#1404,.T.);
#1406=ORIENTED_EDGE('',*,*,#1405,.F.);
#1407=CARTESIAN_POINT('',(2.290000000000007,-0.250000000000000,1.199999999999999));
#1408=DIRECTION('',(0.0,0.0,1.0));
#1409=VECTOR('',#1408,1.900945990121324);
#1410=LINE('',#1407,#1409);
#1411=EDGE_CURVE('',#1400,#1369,#1410,.T.);
#1412=ORIENTED_EDGE('',*,*,#1411,.T.);
#1413=ORIENTED_EDGE('',*,*,#1374,.T.);
#1414=EDGE_LOOP('',(#1398,#1406,#1412,#1413));
#1415=FACE_OUTER_BOUND('',#1414,.T.);
#1416=ADVANCED_FACE('',(#1415),#1390,.T.);
#1417=CARTESIAN_POINT('',(2.290000000000007,-0.250000000000000,1.199999999999999));
#1418=DIRECTION('',(0.0,0.0,1.0));
#1419=DIRECTION('',(0.0,1.0,0.0));
#1420=AXIS2_PLACEMENT_3D('',#1417,#1418,#1419);
#1421=PLANE('',#1420);
#1422=CARTESIAN_POINT('',(2.190000000000006,0.250000000000001,1.199999999999999));
#1423=VERTEX_POINT('',#1422);
#1424=CARTESIAN_POINT('',(2.290000000000007,0.250000000000001,1.199999999999999));
#1425=DIRECTION('',(-1.0,0.0,0.0));
#1426=VECTOR('',#1425,0.100000000000001);
#1427=LINE('',#1424,#1426);
#1428=EDGE_CURVE('',#1392,#1423,#1427,.T.);
#1429=ORIENTED_EDGE('',*,*,#1428,.T.);
#1430=CARTESIAN_POINT('',(2.190000000000006,-0.250000000000000,1.199999999999999));
#1431=VERTEX_POINT('',#1430);
#1432=CARTESIAN_POINT('',(2.190000000000006,-0.250000000000000,1.199999999999999));
#1433=DIRECTION('',(0.0,1.0,0.0));
#1434=VECTOR('',#1433,0.500000000000000);
#1435=LINE('',#1432,#1434);
#1436=EDGE_CURVE('',#1431,#1423,#1435,.T.);
#1437=ORIENTED_EDGE('',*,*,#1436,.F.);
#1438=CARTESIAN_POINT('',(2.190000000000006,-0.250000000000000,1.199999999999999));
#1439=DIRECTION('',(1.0,0.0,0.0));
#1440=VECTOR('',#1439,0.100000000000001);
#1441=LINE('',#1438,#1440);
#1442=EDGE_CURVE('',#1431,#1400,#1441,.T.);
#1443=ORIENTED_EDGE('',*,*,#1442,.T.);
#1444=ORIENTED_EDGE('',*,*,#1405,.T.);
#1445=EDGE_LOOP('',(#1429,#1437,#1443,#1444));
#1446=FACE_OUTER_BOUND('',#1445,.T.);
#1447=ADVANCED_FACE('',(#1446),#1421,.T.);
#1448=CARTESIAN_POINT('',(2.190000000000006,-0.250000000000000,1.199999999999999));
#1449=DIRECTION('',(-1.0,0.0,0.0));
#1450=DIRECTION('',(0.0,-1.0,0.0));
#1451=AXIS2_PLACEMENT_3D('',#1448,#1449,#1450);
#1452=PLANE('',#1451);
#1453=CARTESIAN_POINT('',(2.190000000000006,0.250000000000001,-1.776357E-015));
#1454=VERTEX_POINT('',#1453);
#1455=CARTESIAN_POINT('',(2.190000000000006,0.250000000000001,1.199999999999999));
#1456=DIRECTION('',(0.0,0.0,-1.0));
#1457=VECTOR('',#1456,1.200000000000001);
#1458=LINE('',#1455,#1457);
#1459=EDGE_CURVE('',#1423,#1454,#1458,.T.);
#1460=ORIENTED_EDGE('',*,*,#1459,.T.);
#1461=CARTESIAN_POINT('',(2.190000000000006,-0.249999999999999,-1.776357E-015));
#1462=VERTEX_POINT('',#1461);
#1463=CARTESIAN_POINT('',(2.190000000000006,-0.249999999999999,-1.776357E-015));
#1464=DIRECTION('',(0.0,1.0,0.0));
#1465=VECTOR('',#1464,0.500000000000000);
#1466=LINE('',#1463,#1465);
#1467=EDGE_CURVE('',#1462,#1454,#1466,.T.);
#1468=ORIENTED_EDGE('',*,*,#1467,.F.);
#1469=CARTESIAN_POINT('',(2.190000000000006,-0.249999999999999,-1.776357E-015));
#1470=DIRECTION('',(0.0,0.0,1.0));
#1471=VECTOR('',#1470,1.200000000000001);
#1472=LINE('',#1469,#1471);
#1473=EDGE_CURVE('',#1462,#1431,#1472,.T.);
#1474=ORIENTED_EDGE('',*,*,#1473,.T.);
#1475=ORIENTED_EDGE('',*,*,#1436,.T.);
#1476=EDGE_LOOP('',(#1460,#1468,#1474,#1475));
#1477=FACE_OUTER_BOUND('',#1476,.T.);
#1478=ADVANCED_FACE('',(#1477),#1452,.T.);
#1479=CARTESIAN_POINT('',(2.190000000000006,-0.249999999999999,-1.776357E-015));
#1480=DIRECTION('',(0.0,0.0,-1.0));
#1481=DIRECTION('',(0.0,-1.0,0.0));
#1482=AXIS2_PLACEMENT_3D('',#1479,#1480,#1481);
#1483=PLANE('',#1482);
#1484=CARTESIAN_POINT('',(2.290000000000004,0.250000000000001,0.0));
#1485=VERTEX_POINT('',#1484);
#1486=CARTESIAN_POINT('',(2.190000000000006,0.250000000000001,-1.754152E-015));
#1487=DIRECTION('',(1.0,0.0,0.0));
#1488=VECTOR('',#1487,0.099999999999998);
#1489=LINE('',#1486,#1488);
#1490=EDGE_CURVE('',#1454,#1485,#1489,.T.);
#1491=ORIENTED_EDGE('',*,*,#1490,.T.);
#1492=CARTESIAN_POINT('',(2.290000000000004,-0.249999999999999,0.0));
#1493=VERTEX_POINT('',#1492);
#1494=CARTESIAN_POINT('',(2.290000000000004,-0.249999999999999,0.0));
#1495=DIRECTION('',(0.0,1.0,0.0));
#1496=VECTOR('',#1495,0.500000000000000);
#1497=LINE('',#1494,#1496);
#1498=EDGE_CURVE('',#1493,#1485,#1497,.T.);
#1499=ORIENTED_EDGE('',*,*,#1498,.F.);
#1500=CARTESIAN_POINT('',(2.290000000000004,-0.249999999999999,0.0));
#1501=DIRECTION('',(-1.0,0.0,0.0));
#1502=VECTOR('',#1501,0.099999999999998);
#1503=LINE('',#1500,#1502);
#1504=EDGE_CURVE('',#1493,#1462,#1503,.T.);
#1505=ORIENTED_EDGE('',*,*,#1504,.T.);
#1506=ORIENTED_EDGE('',*,*,#1467,.T.);
#1507=EDGE_LOOP('',(#1491,#1499,#1505,#1506));
#1508=FACE_OUTER_BOUND('',#1507,.T.);
#1509=ADVANCED_FACE('',(#1508),#1483,.T.);
#1510=CARTESIAN_POINT('',(2.290000000000004,-0.249999999999999,0.0));
#1511=DIRECTION('',(-1.0,0.0,0.0));
#1512=DIRECTION('',(0.0,-1.0,0.0));
#1513=AXIS2_PLACEMENT_3D('',#1510,#1511,#1512);
#1514=PLANE('',#1513);
#1515=CARTESIAN_POINT('',(2.290000000000001,0.250000000000000,1.776357E-015));
#1516=DIRECTION('',(0.0,0.0,-1.0));
#1517=VECTOR('',#1516,3.799999999999999);
#1518=LINE('',#1515,#1517);
#1519=EDGE_CURVE('',#1485,#1042,#1518,.T.);
#1520=ORIENTED_EDGE('',*,*,#1519,.T.);
#1521=ORIENTED_EDGE('',*,*,#1071,.F.);
#1522=CARTESIAN_POINT('',(2.290000000000000,-0.249999999999999,-3.799999999999997));
#1523=DIRECTION('',(0.0,0.0,1.0));
#1524=VECTOR('',#1523,3.799999999999999);
#1525=LINE('',#1522,#1524);
#1526=EDGE_CURVE('',#1060,#1493,#1525,.T.);
#1527=ORIENTED_EDGE('',*,*,#1526,.T.);
#1528=ORIENTED_EDGE('',*,*,#1498,.T.);
#1529=EDGE_LOOP('',(#1520,#1521,#1527,#1528));
#1530=FACE_OUTER_BOUND('',#1529,.T.);
#1531=ADVANCED_FACE('',(#1530),#1514,.T.);
#1532=CARTESIAN_POINT('',(2.398965131954552,-0.249999999999999,0.579584473965610));
#1533=DIRECTION('',(0.0,1.0,0.0));
#1534=DIRECTION('',(-1.0,0.0,0.0));
#1535=AXIS2_PLACEMENT_3D('',#1532,#1533,#1534);
#1536=PLANE('',#1535);
#1537=ORIENTED_EDGE('',*,*,#1526,.F.);
#1538=ORIENTED_EDGE('',*,*,#1065,.F.);
#1539=ORIENTED_EDGE('',*,*,#1101,.F.);
#1540=ORIENTED_EDGE('',*,*,#1132,.F.);
#1541=ORIENTED_EDGE('',*,*,#1163,.F.);
#1542=ORIENTED_EDGE('',*,*,#1194,.F.);
#1543=ORIENTED_EDGE('',*,*,#1225,.F.);
#1544=ORIENTED_EDGE('',*,*,#1256,.F.);
#1545=ORIENTED_EDGE('',*,*,#1287,.F.);
#1546=ORIENTED_EDGE('',*,*,#1318,.F.);
#1547=ORIENTED_EDGE('',*,*,#1349,.F.);
#1548=ORIENTED_EDGE('',*,*,#1380,.F.);
#1549=ORIENTED_EDGE('',*,*,#1411,.F.);
#1550=ORIENTED_EDGE('',*,*,#1442,.F.);
#1551=ORIENTED_EDGE('',*,*,#1473,.F.);
#1552=ORIENTED_EDGE('',*,*,#1504,.F.);
#1553=EDGE_LOOP('',(#1537,#1538,#1539,#1540,#1541,#1542,#1543,#1544,#1545,#1546,#1547,#1548,#1549,#1550,#1551,#1552));
#1554=FACE_OUTER_BOUND('',#1553,.T.);
#1555=ADVANCED_FACE('',(#1554),#1536,.F.);
#1556=CARTESIAN_POINT('',(2.398965131954552,0.250000000000001,0.579584473965610));
#1557=DIRECTION('',(0.0,1.0,0.0));
#1558=DIRECTION('',(-1.0,0.0,0.0));
#1559=AXIS2_PLACEMENT_3D('',#1556,#1557,#1558);
#1560=PLANE('',#1559);
#1561=ORIENTED_EDGE('',*,*,#1049,.F.);
#1562=ORIENTED_EDGE('',*,*,#1519,.F.);
#1563=ORIENTED_EDGE('',*,*,#1490,.F.);
#1564=ORIENTED_EDGE('',*,*,#1459,.F.);
#1565=ORIENTED_EDGE('',*,*,#1428,.F.);
#1566=ORIENTED_EDGE('',*,*,#1397,.F.);
#1567=ORIENTED_EDGE('',*,*,#1366,.F.);
#1568=ORIENTED_EDGE('',*,*,#1335,.F.);
#1569=ORIENTED_EDGE('',*,*,#1304,.F.);
#1570=ORIENTED_EDGE('',*,*,#1273,.F.);
#1571=ORIENTED_EDGE('',*,*,#1242,.F.);
#1572=ORIENTED_EDGE('',*,*,#1211,.F.);
#1573=ORIENTED_EDGE('',*,*,#1180,.F.);
#1574=ORIENTED_EDGE('',*,*,#1149,.F.);
#1575=ORIENTED_EDGE('',*,*,#1118,.F.);
#1576=ORIENTED_EDGE('',*,*,#1087,.F.);
#1577=EDGE_LOOP('',(#1561,#1562,#1563,#1564,#1565,#1566,#1567,#1568,#1569,#1570,#1571,#1572,#1573,#1574,#1575,#1576));
#1578=FACE_OUTER_BOUND('',#1577,.T.);
#1579=ADVANCED_FACE('',(#1578),#1560,.T.);
#1580=CLOSED_SHELL('',(#1075,#1106,#1137,#1168,#1199,#1230,#1261,#1292,#1323,#1354,#1385,#1416,#1447,#1478,#1509,#1531,#1555,#1579));
#1581=MANIFOLD_SOLID_BREP('8B3',#1580);
#1582=STYLED_ITEM('NONE',(#617),#1581);
#1583=CARTESIAN_POINT('',(1.043610E-015,-1.278011E-031,6.699999999999999));
#1584=DIRECTION('',(0.0,0.0,1.0));
#1585=DIRECTION('',(-1.0,0.0,0.0));
#1586=AXIS2_PLACEMENT_3D('',#1583,#1584,#1585);
#1587=CYLINDRICAL_SURFACE('',#1586,5.0);
#1588=CARTESIAN_POINT('',(-4.999999999999999,6.123032E-016,13.199999999999998));
#1589=VERTEX_POINT('',#1588);
#1590=CARTESIAN_POINT('',(-4.999999999999999,6.123032E-016,6.699999999999999));
#1591=VERTEX_POINT('',#1590);
#1592=CARTESIAN_POINT('',(-4.999999999999999,6.123032E-016,13.199999999999998));
#1593=DIRECTION('',(0.0,0.0,-1.0));
#1594=VECTOR('',#1593,6.499999999999998);
#1595=LINE('',#1592,#1594);
#1596=EDGE_CURVE('',#1589,#1591,#1595,.T.);
#1597=ORIENTED_EDGE('',*,*,#1596,.F.);
#1598=CARTESIAN_POINT('',(5.000000000000001,-1.278011E-031,13.199999999999998));
#1599=VERTEX_POINT('',#1598);
#1600=CARTESIAN_POINT('',(1.043610E-015,-1.278011E-031,13.199999999999998));
#1601=DIRECTION('',(0.0,0.0,-1.0));
#1602=DIRECTION('',(-1.0,0.0,0.0));
#1603=AXIS2_PLACEMENT_3D('',#1600,#1601,#1602);
#1604=CIRCLE('',#1603,5.0);
#1605=EDGE_CURVE('',#1589,#1599,#1604,.T.);
#1606=ORIENTED_EDGE('',*,*,#1605,.T.);
#1607=CARTESIAN_POINT('',(5.000000000000001,-1.278011E-031,6.699999999999999));
#1608=VERTEX_POINT('',#1607);
#1609=CARTESIAN_POINT('',(5.000000000000001,-1.278011E-031,13.199999999999998));
#1610=DIRECTION('',(0.0,0.0,-1.0));
#1611=VECTOR('',#1610,6.499999999999998);
#1612=LINE('',#1609,#1611);
#1613=EDGE_CURVE('',#1599,#1608,#1612,.T.);
#1614=ORIENTED_EDGE('',*,*,#1613,.T.);
#1615=CARTESIAN_POINT('',(1.043610E-015,-1.278011E-031,6.699999999999999));
#1616=DIRECTION('',(0.0,0.0,1.0));
#1617=DIRECTION('',(-1.0,0.0,0.0));
#1618=AXIS2_PLACEMENT_3D('',#1615,#1616,#1617);
#1619=CIRCLE('',#1618,5.0);
#1620=EDGE_CURVE('',#1608,#1591,#1619,.T.);
#1621=ORIENTED_EDGE('',*,*,#1620,.T.);
#1622=EDGE_LOOP('',(#1597,#1606,#1614,#1621));
#1623=FACE_OUTER_BOUND('',#1622,.T.);
#1624=ADVANCED_FACE('',(#1623),#1587,.T.);
#1625=CARTESIAN_POINT('',(1.043610E-015,-1.278011E-031,6.699999999999999));
#1626=DIRECTION('',(0.0,0.0,1.0));
#1627=DIRECTION('',(-1.0,0.0,0.0));
#1628=AXIS2_PLACEMENT_3D('',#1625,#1626,#1627);
#1629=CYLINDRICAL_SURFACE('',#1628,5.0);
#1630=ORIENTED_EDGE('',*,*,#1596,.T.);
#1631=CARTESIAN_POINT('',(1.043610E-015,-1.278011E-031,6.699999999999999));
#1632=DIRECTION('',(0.0,0.0,1.0));
#1633=DIRECTION('',(-1.0,0.0,0.0));
#1634=AXIS2_PLACEMENT_3D('',#1631,#1632,#1633);
#1635=CIRCLE('',#1634,5.0);
#1636=EDGE_CURVE('',#1591,#1608,#1635,.T.);
#1637=ORIENTED_EDGE('',*,*,#1636,.T.);
#1638=ORIENTED_EDGE('',*,*,#1613,.F.);
#1639=CARTESIAN_POINT('',(1.043610E-015,-1.278011E-031,13.199999999999998));
#1640=DIRECTION('',(0.0,0.0,-1.0));
#1641=DIRECTION('',(-1.0,0.0,0.0));
#1642=AXIS2_PLACEMENT_3D('',#1639,#1640,#1641);
#1643=CIRCLE('',#1642,5.0);
#1644=EDGE_CURVE('',#1599,#1589,#1643,.T.);
#1645=ORIENTED_EDGE('',*,*,#1644,.T.);
#1646=EDGE_LOOP('',(#1630,#1637,#1638,#1645));
#1647=FACE_OUTER_BOUND('',#1646,.T.);
#1648=ADVANCED_FACE('',(#1647),#1629,.T.);
#1649=CARTESIAN_POINT('',(1.043610E-015,-1.278011E-031,6.699999999999999));
#1650=DIRECTION('',(0.0,0.0,1.0));
#1651=DIRECTION('',(-1.0,0.0,0.0));
#1652=AXIS2_PLACEMENT_3D('',#1649,#1650,#1651);
#1653=PLANE('',#1652);
#1654=ORIENTED_EDGE('',*,*,#1636,.F.);
#1655=ORIENTED_EDGE('',*,*,#1620,.F.);
#1656=EDGE_LOOP('',(#1654,#1655));
#1657=FACE_OUTER_BOUND('',#1656,.T.);
#1658=ADVANCED_FACE('',(#1657),#1653,.F.);
#1659=CARTESIAN_POINT('',(1.043610E-015,-1.278011E-031,13.199999999999998));
#1660=DIRECTION('',(0.0,0.0,1.0));
#1661=DIRECTION('',(-1.0,0.0,0.0));
#1662=AXIS2_PLACEMENT_3D('',#1659,#1660,#1661);
#1663=PLANE('',#1662);
#1664=ORIENTED_EDGE('',*,*,#1605,.F.);
#1665=ORIENTED_EDGE('',*,*,#1644,.F.);
#1666=EDGE_LOOP('',(#1664,#1665));
#1667=FACE_OUTER_BOUND('',#1666,.T.);
#1668=ADVANCED_FACE('',(#1667),#1663,.T.);
#1669=CLOSED_SHELL('',(#1624,#1648,#1658,#1668));
#1670=MANIFOLD_SOLID_BREP('85A',#1669);
#1671=COLOUR_RGB('255',1.0,1.0,1.0);
#1672=SURFACE_STYLE_USAGE(.BOTH.,#1673);
#1673=SURFACE_SIDE_STYLE('NONE',(#1674));
#1674=SURFACE_STYLE_FILL_AREA(#1675);
#1675=FILL_AREA_STYLE('NONE',(#1676));
#1676=FILL_AREA_STYLE_COLOUR('NONE',#1671);
#1677=PRESENTATION_STYLE_ASSIGNMENT((#1672));
#1678=STYLED_ITEM('NONE',(#1677),#1670);
#1679=CARTESIAN_POINT('',(-1.043610E-015,0.0,13.199999999999998));
#1680=DIRECTION('',(0.0,0.0,1.0));
#1681=DIRECTION('',(1.0,0.0,0.0));
#1682=AXIS2_PLACEMENT_3D('',#1679,#1680,#1681);
#1683=SPHERICAL_SURFACE('',#1682,5.0);
#1684=CARTESIAN_POINT('',(-1.349761E-015,-3.749152E-032,18.199999999999996));
#1685=VERTEX_POINT('',#1684);
#1686=CARTESIAN_POINT('',(4.999999999999999,0.0,13.199999999999998));
#1687=VERTEX_POINT('',#1686);
#1688=CARTESIAN_POINT('',(-1.043610E-015,0.0,13.199999999999998));
#1689=DIRECTION('',(0.0,1.0,0.0));
#1690=DIRECTION('',(1.0,0.0,0.0));
#1691=AXIS2_PLACEMENT_3D('',#1688,#1689,#1690);
#1692=CIRCLE('',#1691,5.0);
#1693=EDGE_CURVE('',#1685,#1687,#1692,.T.);
#1694=ORIENTED_EDGE('',*,*,#1693,.F.);
#1695=CARTESIAN_POINT('',(-5.000000000000001,-6.123032E-016,13.199999999999998));
#1696=VERTEX_POINT('',#1695);
#1697=CARTESIAN_POINT('',(-1.043610E-015,0.0,13.199999999999998));
#1698=DIRECTION('',(0.0,-1.0,0.0));
#1699=DIRECTION('',(-1.0,0.0,0.0));
#1700=AXIS2_PLACEMENT_3D('',#1697,#1698,#1699);
#1701=CIRCLE('',#1700,5.0);
#1702=EDGE_CURVE('',#1685,#1696,#1701,.T.);
#1703=ORIENTED_EDGE('',*,*,#1702,.T.);
#1704=CARTESIAN_POINT('',(-1.043610E-015,-5.0,13.199999999999998));
#1705=VERTEX_POINT('',#1704);
#1706=CARTESIAN_POINT('',(-1.043610E-015,0.0,13.199999999999998));
#1707=DIRECTION('',(0.0,0.0,1.0));
#1708=DIRECTION('',(0.0,1.0,0.0));
#1709=AXIS2_PLACEMENT_3D('',#1706,#1707,#1708);
#1710=CIRCLE('',#1709,5.0);
#1711=EDGE_CURVE('',#1696,#1705,#1710,.T.);
#1712=ORIENTED_EDGE('',*,*,#1711,.T.);
#1713=CARTESIAN_POINT('',(-1.043610E-015,0.0,13.199999999999998));
#1714=DIRECTION('',(0.0,0.0,1.0));
#1715=DIRECTION('',(0.0,1.0,0.0));
#1716=AXIS2_PLACEMENT_3D('',#1713,#1714,#1715);
#1717=CIRCLE('',#1716,5.0);
#1718=EDGE_CURVE('',#1705,#1687,#1717,.T.);
#1719=ORIENTED_EDGE('',*,*,#1718,.T.);
#1720=EDGE_LOOP('',(#1694,#1703,#1712,#1719));
#1721=FACE_OUTER_BOUND('',#1720,.T.);
#1722=ADVANCED_FACE('',(#1721),#1683,.T.);
#1723=CARTESIAN_POINT('',(-1.043610E-015,0.0,13.199999999999998));
#1724=DIRECTION('',(0.0,0.0,1.0));
#1725=DIRECTION('',(1.0,0.0,0.0));
#1726=AXIS2_PLACEMENT_3D('',#1723,#1724,#1725);
#1727=PLANE('',#1726);
#1728=ORIENTED_EDGE('',*,*,#1718,.F.);
#1729=ORIENTED_EDGE('',*,*,#1711,.F.);
#1730=CARTESIAN_POINT('',(-1.043610E-015,0.0,13.199999999999998));
#1731=DIRECTION('',(0.0,0.0,1.0));
#1732=DIRECTION('',(0.0,1.0,0.0));
#1733=AXIS2_PLACEMENT_3D('',#1730,#1731,#1732);
#1734=CIRCLE('',#1733,5.0);
#1735=EDGE_CURVE('',#1687,#1696,#1734,.T.);
#1736=ORIENTED_EDGE('',*,*,#1735,.F.);
#1737=EDGE_LOOP('',(#1728,#1729,#1736));
#1738=FACE_OUTER_BOUND('',#1737,.T.);
#1739=ADVANCED_FACE('',(#1738),#1727,.F.);
#1740=CARTESIAN_POINT('',(-1.043610E-015,0.0,13.199999999999998));
#1741=DIRECTION('',(0.0,0.0,1.0));
#1742=DIRECTION('',(1.0,0.0,0.0));
#1743=AXIS2_PLACEMENT_3D('',#1740,#1741,#1742);
#1744=SPHERICAL_SURFACE('',#1743,5.0);
#1745=ORIENTED_EDGE('',*,*,#1693,.T.);
#1746=ORIENTED_EDGE('',*,*,#1735,.T.);
#1747=ORIENTED_EDGE('',*,*,#1702,.F.);
#1748=EDGE_LOOP('',(#1745,#1746,#1747));
#1749=FACE_OUTER_BOUND('',#1748,.T.);
#1750=ADVANCED_FACE('',(#1749),#1744,.T.);
#1751=CLOSED_SHELL('',(#1722,#1739,#1750));
#1752=MANIFOLD_SOLID_BREP('84D',#1751);
#1753=STYLED_ITEM('NONE',(#1677),#1752);
#1754=CARTESIAN_POINT('',(1.043610E-015,-1.278011E-031,4.699999999999999));
#1755=DIRECTION('',(0.0,0.0,1.0));
#1756=DIRECTION('',(-1.0,0.0,0.0));
#1757=AXIS2_PLACEMENT_3D('',#1754,#1755,#1756);
#1758=CYLINDRICAL_SURFACE('',#1757,5.500000000000000);
#1759=CARTESIAN_POINT('',(-5.499999999999999,6.735335E-016,6.699999999999999));
#1760=VERTEX_POINT('',#1759);
#1761=CARTESIAN_POINT('',(-5.499999999999999,6.735335E-016,4.699999999999999));
#1762=VERTEX_POINT('',#1761);
#1763=CARTESIAN_POINT('',(-5.499999999999999,6.735335E-016,6.699999999999999));
#1764=DIRECTION('',(0.0,0.0,-1.0));
#1765=VECTOR('',#1764,2.0);
#1766=LINE('',#1763,#1765);
#1767=EDGE_CURVE('',#1760,#1762,#1766,.T.);
#1768=ORIENTED_EDGE('',*,*,#1767,.F.);
#1769=CARTESIAN_POINT('',(5.500000000000001,-1.278011E-031,6.699999999999999));
#1770=VERTEX_POINT('',#1769);
#1771=CARTESIAN_POINT('',(1.043610E-015,-1.278011E-031,6.699999999999999));
#1772=DIRECTION('',(0.0,0.0,-1.0));
#1773=DIRECTION('',(-1.0,0.0,0.0));
#1774=AXIS2_PLACEMENT_3D('',#1771,#1772,#1773);
#1775=CIRCLE('',#1774,5.500000000000000);
#1776=EDGE_CURVE('',#1760,#1770,#1775,.T.);
#1777=ORIENTED_EDGE('',*,*,#1776,.T.);
#1778=CARTESIAN_POINT('',(5.500000000000001,-1.278011E-031,4.699999999999999));
#1779=VERTEX_POINT('',#1778);
#1780=CARTESIAN_POINT('',(5.500000000000001,-1.278011E-031,6.699999999999999));
#1781=DIRECTION('',(0.0,0.0,-1.0));
#1782=VECTOR('',#1781,2.0);
#1783=LINE('',#1780,#1782);
#1784=EDGE_CURVE('',#1770,#1779,#1783,.T.);
#1785=ORIENTED_EDGE('',*,*,#1784,.T.);
#1786=CARTESIAN_POINT('',(1.043610E-015,-1.278011E-031,4.699999999999999));
#1787=DIRECTION('',(0.0,0.0,1.0));
#1788=DIRECTION('',(-1.0,0.0,0.0));
#1789=AXIS2_PLACEMENT_3D('',#1786,#1787,#1788);
#1790=CIRCLE('',#1789,5.500000000000000);
#1791=EDGE_CURVE('',#1779,#1762,#1790,.T.);
#1792=ORIENTED_EDGE('',*,*,#1791,.T.);
#1793=EDGE_LOOP('',(#1768,#1777,#1785,#1792));
#1794=FACE_OUTER_BOUND('',#1793,.T.);
#1795=ADVANCED_FACE('',(#1794),#1758,.T.);
#1796=CARTESIAN_POINT('',(1.043610E-015,-1.278011E-031,4.699999999999999));
#1797=DIRECTION('',(0.0,0.0,1.0));
#1798=DIRECTION('',(-1.0,0.0,0.0));
#1799=AXIS2_PLACEMENT_3D('',#1796,#1797,#1798);
#1800=CYLINDRICAL_SURFACE('',#1799,5.500000000000000);
#1801=ORIENTED_EDGE('',*,*,#1767,.T.);
#1802=CARTESIAN_POINT('',(1.043610E-015,-1.278011E-031,4.699999999999999));
#1803=DIRECTION('',(0.0,0.0,1.0));
#1804=DIRECTION('',(-1.0,0.0,0.0));
#1805=AXIS2_PLACEMENT_3D('',#1802,#1803,#1804);
#1806=CIRCLE('',#1805,5.500000000000000);
#1807=EDGE_CURVE('',#1762,#1779,#1806,.T.);
#1808=ORIENTED_EDGE('',*,*,#1807,.T.);
#1809=ORIENTED_EDGE('',*,*,#1784,.F.);
#1810=CARTESIAN_POINT('',(1.043610E-015,-1.278011E-031,6.699999999999999));
#1811=DIRECTION('',(0.0,0.0,-1.0));
#1812=DIRECTION('',(-1.0,0.0,0.0));
#1813=AXIS2_PLACEMENT_3D('',#1810,#1811,#1812);
#1814=CIRCLE('',#1813,5.500000000000000);
#1815=EDGE_CURVE('',#1770,#1760,#1814,.T.);
#1816=ORIENTED_EDGE('',*,*,#1815,.T.);
#1817=EDGE_LOOP('',(#1801,#1808,#1809,#1816));
#1818=FACE_OUTER_BOUND('',#1817,.T.);
#1819=ADVANCED_FACE('',(#1818),#1800,.T.);
#1820=CARTESIAN_POINT('',(1.043610E-015,-1.278011E-031,4.699999999999999));
#1821=DIRECTION('',(0.0,0.0,1.0));
#1822=DIRECTION('',(-1.0,0.0,0.0));
#1823=AXIS2_PLACEMENT_3D('',#1820,#1821,#1822);
#1824=PLANE('',#1823);
#1825=ORIENTED_EDGE('',*,*,#1807,.F.);
#1826=ORIENTED_EDGE('',*,*,#1791,.F.);
#1827=EDGE_LOOP('',(#1825,#1826));
#1828=FACE_OUTER_BOUND('',#1827,.T.);
#1829=ADVANCED_FACE('',(#1828),#1824,.F.);
#1830=CARTESIAN_POINT('',(1.043610E-015,-1.278011E-031,6.699999999999999));
#1831=DIRECTION('',(0.0,0.0,1.0));
#1832=DIRECTION('',(-1.0,0.0,0.0));
#1833=AXIS2_PLACEMENT_3D('',#1830,#1831,#1832);
#1834=PLANE('',#1833);
#1835=ORIENTED_EDGE('',*,*,#1776,.F.);
#1836=ORIENTED_EDGE('',*,*,#1815,.F.);
#1837=EDGE_LOOP('',(#1835,#1836));
#1838=FACE_OUTER_BOUND('',#1837,.T.);
#1839=ADVANCED_FACE('',(#1838),#1834,.T.);
#1840=CLOSED_SHELL('',(#1795,#1819,#1829,#1839));
#1841=MANIFOLD_SOLID_BREP('83F',#1840);
#1842=STYLED_ITEM('NONE',(#1677),#1841);
#1843=ADVANCED_BREP_SHAPE_REPRESENTATION('ABSR1',(#610,#1034,#1581,#1670,#1752,#1841),#28);
#1844=SHAPE_REPRESENTATION_RELATIONSHIP('SRRPL1','',#1843,#62);
ENDSEC;
END-ISO-10303-21;
