ISO-10303-21;
HEADER;
/* Generated by software containing ST-Developer
 * from STEP Tools, Inc. (www.steptools.com) 
 */

FILE_DESCRIPTION(
/* description */ (''),
/* implementation_level */ '2;1');

FILE_NAME(
/* name */ 
'\\\\cern.ch\\dfs\\Applications\\Altium\\CernLib\\StepLib\\LED_KINGBRI
GHT_KPH-1608CGCK_Part2.stp',
/* time_stamp */ '2017-07-03T13:34:44+02:00',
/* author */ ('jchouvet'),
/* organization */ (''),
/* preprocessor_version */ 'ST-DEVELOPER v16.1',
/* originating_system */ 'AutoCAD Mechanical',
/* authorisation */ '');

FILE_SCHEMA (('AUTOMOTIVE_DESIGN { 1 0 10303 214 3 1 1 }'));
ENDSEC;

DATA;
#10=MECHANICAL_DESIGN_GEOMETRIC_PRESENTATION_REPRESENTATION('',(#17),#377);
#11=DIMENSIONAL_EXPONENTS(0.,0.,0.,0.,0.,0.,0.);
#12=(
CONVERSION_BASED_UNIT('degree',#13)
NAMED_UNIT(#11)
PLANE_ANGLE_UNIT()
);
#13=PLANE_ANGLE_MEASURE_WITH_UNIT(PLANE_ANGLE_MEASURE(0.01745329252),#380);
#14=PRESENTATION_LAYER_ASSIGNMENT('1','3D',(#18));
#15=SHAPE_REPRESENTATION_RELATIONSHIP('SRR','None',#383,#16);
#16=ADVANCED_BREP_SHAPE_REPRESENTATION('',(#18),#376);
#17=STYLED_ITEM('',(#392),#18);
#18=MANIFOLD_SOLID_BREP('2E59',#233);
#19=PLANE('',#238);
#20=PLANE('',#239);
#21=PLANE('',#243);
#22=PLANE('',#244);
#23=PLANE('',#245);
#24=PLANE('',#246);
#25=PLANE('',#247);
#26=PLANE('',#248);
#27=PLANE('',#249);
#28=PLANE('',#250);
#29=FACE_OUTER_BOUND('',#41,.T.);
#30=FACE_OUTER_BOUND('',#42,.T.);
#31=FACE_OUTER_BOUND('',#43,.T.);
#32=FACE_OUTER_BOUND('',#44,.T.);
#33=FACE_OUTER_BOUND('',#45,.T.);
#34=FACE_OUTER_BOUND('',#46,.T.);
#35=FACE_OUTER_BOUND('',#47,.T.);
#36=FACE_OUTER_BOUND('',#48,.T.);
#37=FACE_OUTER_BOUND('',#49,.T.);
#38=FACE_OUTER_BOUND('',#50,.T.);
#39=FACE_OUTER_BOUND('',#51,.T.);
#40=FACE_OUTER_BOUND('',#52,.T.);
#41=EDGE_LOOP('',(#159,#160,#161,#162));
#42=EDGE_LOOP('',(#163,#164,#165,#166));
#43=EDGE_LOOP('',(#167,#168,#169,#170,#171,#172,#173,#174,#175,#176));
#44=EDGE_LOOP('',(#177,#178,#179,#180));
#45=EDGE_LOOP('',(#181,#182,#183,#184));
#46=EDGE_LOOP('',(#185,#186,#187,#188));
#47=EDGE_LOOP('',(#189,#190,#191,#192));
#48=EDGE_LOOP('',(#193,#194,#195,#196));
#49=EDGE_LOOP('',(#197,#198,#199,#200));
#50=EDGE_LOOP('',(#201,#202,#203,#204));
#51=EDGE_LOOP('',(#205,#206,#207,#208));
#52=EDGE_LOOP('',(#209,#210,#211,#212,#213,#214,#215,#216,#217,#218));
#53=LINE('',#317,#79);
#54=LINE('',#320,#80);
#55=LINE('',#323,#81);
#56=LINE('',#325,#82);
#57=LINE('',#326,#83);
#58=LINE('',#329,#84);
#59=LINE('',#333,#85);
#60=LINE('',#335,#86);
#61=LINE('',#337,#87);
#62=LINE('',#339,#88);
#63=LINE('',#341,#89);
#64=LINE('',#342,#90);
#65=LINE('',#347,#91);
#66=LINE('',#348,#92);
#67=LINE('',#351,#93);
#68=LINE('',#352,#94);
#69=LINE('',#355,#95);
#70=LINE('',#357,#96);
#71=LINE('',#358,#97);
#72=LINE('',#361,#98);
#73=LINE('',#362,#99);
#74=LINE('',#365,#100);
#75=LINE('',#366,#101);
#76=LINE('',#368,#102);
#77=LINE('',#370,#103);
#78=LINE('',#372,#104);
#79=VECTOR('',#257,0.8);
#80=VECTOR('',#260,0.8);
#81=VECTOR('',#263,0.321496268633627);
#82=VECTOR('',#264,0.8);
#83=VECTOR('',#265,0.321496268633627);
#84=VECTOR('',#268,0.738004975155164);
#85=VECTOR('',#271,0.321496268633627);
#86=VECTOR('',#272,0.1);
#87=VECTOR('',#273,0.03);
#88=VECTOR('',#274,1.);
#89=VECTOR('',#275,0.03);
#90=VECTOR('',#276,0.1);
#91=VECTOR('',#281,0.8);
#92=VECTOR('',#282,0.8);
#93=VECTOR('',#285,0.321496268633627);
#94=VECTOR('',#286,0.8);
#95=VECTOR('',#289,0.8);
#96=VECTOR('',#290,0.8);
#97=VECTOR('',#291,1.);
#98=VECTOR('',#294,0.8);
#99=VECTOR('',#295,0.03);
#100=VECTOR('',#298,0.03);
#101=VECTOR('',#299,0.8);
#102=VECTOR('',#302,0.1);
#103=VECTOR('',#305,0.738004975155165);
#104=VECTOR('',#308,0.1);
#105=CIRCLE('',#236,0.2);
#106=CIRCLE('',#237,0.2);
#107=CIRCLE('',#240,0.2);
#108=CIRCLE('',#242,0.2);
#109=VERTEX_POINT('',#313);
#110=VERTEX_POINT('',#314);
#111=VERTEX_POINT('',#316);
#112=VERTEX_POINT('',#318);
#113=VERTEX_POINT('',#322);
#114=VERTEX_POINT('',#324);
#115=VERTEX_POINT('',#328);
#116=VERTEX_POINT('',#330);
#117=VERTEX_POINT('',#332);
#118=VERTEX_POINT('',#334);
#119=VERTEX_POINT('',#336);
#120=VERTEX_POINT('',#338);
#121=VERTEX_POINT('',#340);
#122=VERTEX_POINT('',#344);
#123=VERTEX_POINT('',#345);
#124=VERTEX_POINT('',#350);
#125=VERTEX_POINT('',#354);
#126=VERTEX_POINT('',#356);
#127=VERTEX_POINT('',#360);
#128=VERTEX_POINT('',#364);
#129=EDGE_CURVE('',#109,#110,#105,.T.);
#130=EDGE_CURVE('',#110,#111,#53,.T.);
#131=EDGE_CURVE('',#111,#112,#106,.T.);
#132=EDGE_CURVE('',#112,#109,#54,.T.);
#133=EDGE_CURVE('',#113,#110,#55,.T.);
#134=EDGE_CURVE('',#114,#113,#56,.T.);
#135=EDGE_CURVE('',#114,#111,#57,.T.);
#136=EDGE_CURVE('',#109,#115,#58,.T.);
#137=EDGE_CURVE('',#116,#115,#107,.T.);
#138=EDGE_CURVE('',#117,#116,#59,.T.);
#139=EDGE_CURVE('',#118,#117,#60,.T.);
#140=EDGE_CURVE('',#119,#118,#61,.T.);
#141=EDGE_CURVE('',#120,#119,#62,.T.);
#142=EDGE_CURVE('',#120,#121,#63,.T.);
#143=EDGE_CURVE('',#113,#121,#64,.T.);
#144=EDGE_CURVE('',#122,#123,#108,.T.);
#145=EDGE_CURVE('',#123,#116,#65,.T.);
#146=EDGE_CURVE('',#115,#122,#66,.T.);
#147=EDGE_CURVE('',#124,#123,#67,.T.);
#148=EDGE_CURVE('',#117,#124,#68,.T.);
#149=EDGE_CURVE('',#125,#120,#69,.T.);
#150=EDGE_CURVE('',#119,#126,#70,.T.);
#151=EDGE_CURVE('',#126,#125,#71,.T.);
#152=EDGE_CURVE('',#127,#118,#72,.T.);
#153=EDGE_CURVE('',#126,#127,#73,.T.);
#154=EDGE_CURVE('',#125,#128,#74,.T.);
#155=EDGE_CURVE('',#121,#128,#75,.T.);
#156=EDGE_CURVE('',#124,#127,#76,.T.);
#157=EDGE_CURVE('',#122,#112,#77,.T.);
#158=EDGE_CURVE('',#128,#114,#78,.T.);
#159=ORIENTED_EDGE('',*,*,#129,.T.);
#160=ORIENTED_EDGE('',*,*,#130,.T.);
#161=ORIENTED_EDGE('',*,*,#131,.T.);
#162=ORIENTED_EDGE('',*,*,#132,.T.);
#163=ORIENTED_EDGE('',*,*,#130,.F.);
#164=ORIENTED_EDGE('',*,*,#133,.F.);
#165=ORIENTED_EDGE('',*,*,#134,.F.);
#166=ORIENTED_EDGE('',*,*,#135,.T.);
#167=ORIENTED_EDGE('',*,*,#129,.F.);
#168=ORIENTED_EDGE('',*,*,#136,.T.);
#169=ORIENTED_EDGE('',*,*,#137,.F.);
#170=ORIENTED_EDGE('',*,*,#138,.F.);
#171=ORIENTED_EDGE('',*,*,#139,.F.);
#172=ORIENTED_EDGE('',*,*,#140,.F.);
#173=ORIENTED_EDGE('',*,*,#141,.F.);
#174=ORIENTED_EDGE('',*,*,#142,.T.);
#175=ORIENTED_EDGE('',*,*,#143,.F.);
#176=ORIENTED_EDGE('',*,*,#133,.T.);
#177=ORIENTED_EDGE('',*,*,#144,.T.);
#178=ORIENTED_EDGE('',*,*,#145,.T.);
#179=ORIENTED_EDGE('',*,*,#137,.T.);
#180=ORIENTED_EDGE('',*,*,#146,.T.);
#181=ORIENTED_EDGE('',*,*,#145,.F.);
#182=ORIENTED_EDGE('',*,*,#147,.F.);
#183=ORIENTED_EDGE('',*,*,#148,.F.);
#184=ORIENTED_EDGE('',*,*,#138,.T.);
#185=ORIENTED_EDGE('',*,*,#149,.T.);
#186=ORIENTED_EDGE('',*,*,#141,.T.);
#187=ORIENTED_EDGE('',*,*,#150,.T.);
#188=ORIENTED_EDGE('',*,*,#151,.T.);
#189=ORIENTED_EDGE('',*,*,#140,.T.);
#190=ORIENTED_EDGE('',*,*,#152,.F.);
#191=ORIENTED_EDGE('',*,*,#153,.F.);
#192=ORIENTED_EDGE('',*,*,#150,.F.);
#193=ORIENTED_EDGE('',*,*,#154,.T.);
#194=ORIENTED_EDGE('',*,*,#155,.F.);
#195=ORIENTED_EDGE('',*,*,#142,.F.);
#196=ORIENTED_EDGE('',*,*,#149,.F.);
#197=ORIENTED_EDGE('',*,*,#152,.T.);
#198=ORIENTED_EDGE('',*,*,#139,.T.);
#199=ORIENTED_EDGE('',*,*,#148,.T.);
#200=ORIENTED_EDGE('',*,*,#156,.T.);
#201=ORIENTED_EDGE('',*,*,#132,.F.);
#202=ORIENTED_EDGE('',*,*,#157,.F.);
#203=ORIENTED_EDGE('',*,*,#146,.F.);
#204=ORIENTED_EDGE('',*,*,#136,.F.);
#205=ORIENTED_EDGE('',*,*,#155,.T.);
#206=ORIENTED_EDGE('',*,*,#158,.T.);
#207=ORIENTED_EDGE('',*,*,#134,.T.);
#208=ORIENTED_EDGE('',*,*,#143,.T.);
#209=ORIENTED_EDGE('',*,*,#131,.F.);
#210=ORIENTED_EDGE('',*,*,#135,.F.);
#211=ORIENTED_EDGE('',*,*,#158,.F.);
#212=ORIENTED_EDGE('',*,*,#154,.F.);
#213=ORIENTED_EDGE('',*,*,#151,.F.);
#214=ORIENTED_EDGE('',*,*,#153,.T.);
#215=ORIENTED_EDGE('',*,*,#156,.F.);
#216=ORIENTED_EDGE('',*,*,#147,.T.);
#217=ORIENTED_EDGE('',*,*,#144,.F.);
#218=ORIENTED_EDGE('',*,*,#157,.T.);
#219=CYLINDRICAL_SURFACE('',#235,0.2);
#220=CYLINDRICAL_SURFACE('',#241,0.2);
#221=ADVANCED_FACE('',(#29),#219,.T.);
#222=ADVANCED_FACE('',(#30),#19,.F.);
#223=ADVANCED_FACE('',(#31),#20,.F.);
#224=ADVANCED_FACE('',(#32),#220,.T.);
#225=ADVANCED_FACE('',(#33),#21,.F.);
#226=ADVANCED_FACE('',(#34),#22,.T.);
#227=ADVANCED_FACE('',(#35),#23,.F.);
#228=ADVANCED_FACE('',(#36),#24,.F.);
#229=ADVANCED_FACE('',(#37),#25,.F.);
#230=ADVANCED_FACE('',(#38),#26,.T.);
#231=ADVANCED_FACE('',(#39),#27,.F.);
#232=ADVANCED_FACE('',(#40),#28,.F.);
#233=CLOSED_SHELL('',(#221,#222,#223,#224,#225,#226,#227,#228,#229,#230,
#231,#232));
#234=AXIS2_PLACEMENT_3D('placement',#311,#251,#252);
#235=AXIS2_PLACEMENT_3D('',#312,#253,#254);
#236=AXIS2_PLACEMENT_3D('',#315,#255,#256);
#237=AXIS2_PLACEMENT_3D('',#319,#258,#259);
#238=AXIS2_PLACEMENT_3D('',#321,#261,#262);
#239=AXIS2_PLACEMENT_3D('',#327,#266,#267);
#240=AXIS2_PLACEMENT_3D('',#331,#269,#270);
#241=AXIS2_PLACEMENT_3D('',#343,#277,#278);
#242=AXIS2_PLACEMENT_3D('',#346,#279,#280);
#243=AXIS2_PLACEMENT_3D('',#349,#283,#284);
#244=AXIS2_PLACEMENT_3D('',#353,#287,#288);
#245=AXIS2_PLACEMENT_3D('',#359,#292,#293);
#246=AXIS2_PLACEMENT_3D('',#363,#296,#297);
#247=AXIS2_PLACEMENT_3D('',#367,#300,#301);
#248=AXIS2_PLACEMENT_3D('',#369,#303,#304);
#249=AXIS2_PLACEMENT_3D('',#371,#306,#307);
#250=AXIS2_PLACEMENT_3D('',#373,#309,#310);
#251=DIRECTION('axis',(0.,0.,1.));
#252=DIRECTION('refdir',(1.,0.,0.));
#253=DIRECTION('center_axis',(2.29961784404445E-33,-1.,-2.29961784404446E-32));
#254=DIRECTION('ref_axis',(0.671005320760947,0.,0.741452533551878));
#255=DIRECTION('center_axis',(0.,1.,-4.46304132367498E-16));
#256=DIRECTION('ref_axis',(0.671005320760947,0.,0.741452533551878));
#257=DIRECTION('',(-2.29961784404445E-33,1.,2.29961784404446E-32));
#258=DIRECTION('center_axis',(0.,-1.,8.92608264734997E-16));
#259=DIRECTION('ref_axis',(0.671005320760947,0.,0.741452533551878));
#260=DIRECTION('',(2.29961784404445E-33,-1.,-2.29961784404446E-32));
#261=DIRECTION('center_axis',(-0.995037190209989,0.,-0.0995037190209985));
#262=DIRECTION('ref_axis',(-0.0995037190209985,0.,0.995037190209989));
#263=DIRECTION('',(-0.0995037190209986,4.41885279571781E-16,0.995037190209989));
#264=DIRECTION('',(0.,-1.,0.));
#265=DIRECTION('',(-0.0995037190209986,8.83770559143561E-16,0.995037190209989));
#266=DIRECTION('center_axis',(0.,1.,-4.46304132367498E-16));
#267=DIRECTION('ref_axis',(0.,4.44089209850063E-16,1.));
#268=DIRECTION('',(-1.,0.,0.));
#269=DIRECTION('center_axis',(0.,1.,-4.46304132367498E-16));
#270=DIRECTION('ref_axis',(-0.671005320760946,0.,0.741452533551879));
#271=DIRECTION('',(0.0995037190209985,4.41885279571781E-16,0.995037190209989));
#272=DIRECTION('',(-1.,0.,0.));
#273=DIRECTION('',(0.,0.,1.));
#274=DIRECTION('',(-1.,0.,0.));
#275=DIRECTION('',(0.,0.,1.));
#276=DIRECTION('',(-1.,0.,0.));
#277=DIRECTION('center_axis',(2.29961784404446E-33,1.,2.29961784404446E-32));
#278=DIRECTION('ref_axis',(-0.671005320760946,0.,0.741452533551879));
#279=DIRECTION('center_axis',(0.,-1.,8.92608264734997E-16));
#280=DIRECTION('ref_axis',(-0.671005320760946,0.,0.741452533551879));
#281=DIRECTION('',(-2.29961784404446E-33,-1.,-2.29961784404446E-32));
#282=DIRECTION('',(2.29961784404446E-33,1.,2.29961784404446E-32));
#283=DIRECTION('center_axis',(0.995037190209989,0.,-0.099503719020999));
#284=DIRECTION('ref_axis',(-0.099503719020999,0.,-0.995037190209989));
#285=DIRECTION('',(0.099503719020999,8.83770559143561E-16,0.995037190209989));
#286=DIRECTION('',(0.,1.,0.));
#287=DIRECTION('center_axis',(0.,0.,-1.));
#288=DIRECTION('ref_axis',(1.,0.,0.));
#289=DIRECTION('',(0.,-1.,0.));
#290=DIRECTION('',(0.,1.,0.));
#291=DIRECTION('',(1.,0.,0.));
#292=DIRECTION('center_axis',(1.,0.,0.));
#293=DIRECTION('ref_axis',(0.,0.,1.));
#294=DIRECTION('',(0.,-1.,4.31178345758336E-33));
#295=DIRECTION('',(0.,0.,1.));
#296=DIRECTION('center_axis',(-1.,0.,0.));
#297=DIRECTION('ref_axis',(0.,0.,-1.));
#298=DIRECTION('',(0.,0.,1.));
#299=DIRECTION('',(0.,1.,-4.31178345758336E-33));
#300=DIRECTION('center_axis',(-2.55513093782718E-33,4.31178345758336E-33,
1.));
#301=DIRECTION('ref_axis',(1.,0.,0.));
#302=DIRECTION('',(1.,0.,0.));
#303=DIRECTION('center_axis',(1.21632679354418E-32,-2.29961784404446E-32,
1.));
#304=DIRECTION('ref_axis',(1.,0.,0.));
#305=DIRECTION('',(1.,0.,0.));
#306=DIRECTION('center_axis',(-2.55513093782718E-33,4.31178345758336E-33,
1.));
#307=DIRECTION('ref_axis',(1.,0.,0.));
#308=DIRECTION('',(1.,0.,0.));
#309=DIRECTION('center_axis',(0.,-1.,8.92608264734997E-16));
#310=DIRECTION('ref_axis',(0.,-8.88178419700125E-16,-1.));
#311=CARTESIAN_POINT('',(0.,0.,0.));
#312=CARTESIAN_POINT('Origin',(0.369002487577582,0.2,0.45));
#313=CARTESIAN_POINT('',(0.369002487577582,-0.4,0.65));
#314=CARTESIAN_POINT('',(0.56800992561958,-0.4,0.4699007438042));
#315=CARTESIAN_POINT('Origin',(0.369002487577582,-0.4,0.45));
#316=CARTESIAN_POINT('',(0.56800992561958,0.4,0.4699007438042));
#317=CARTESIAN_POINT('',(0.56800992561958,0.2,0.4699007438042));
#318=CARTESIAN_POINT('',(0.369002487577582,0.4,0.65));
#319=CARTESIAN_POINT('Origin',(0.369002487577582,0.4,0.45));
#320=CARTESIAN_POINT('',(0.369002487577582,0.2,0.65));
#321=CARTESIAN_POINT('Origin',(0.6,0.4,0.15));
#322=CARTESIAN_POINT('',(0.6,-0.4,0.15));
#323=CARTESIAN_POINT('',(0.6,-0.4,0.15));
#324=CARTESIAN_POINT('',(0.6,0.4,0.15));
#325=CARTESIAN_POINT('',(0.6,0.4,0.15));
#326=CARTESIAN_POINT('',(0.6,0.4,0.15));
#327=CARTESIAN_POINT('Origin',(0.6,-0.4,0.15));
#328=CARTESIAN_POINT('',(-0.369002487577582,-0.4,0.65));
#329=CARTESIAN_POINT('',(-0.55,-0.4,0.65));
#330=CARTESIAN_POINT('',(-0.56800992561958,-0.4,0.4699007438042));
#331=CARTESIAN_POINT('Origin',(-0.369002487577582,-0.4,0.45));
#332=CARTESIAN_POINT('',(-0.6,-0.4,0.15));
#333=CARTESIAN_POINT('',(-0.6,-0.4,0.15));
#334=CARTESIAN_POINT('',(-0.5,-0.4,0.15));
#335=CARTESIAN_POINT('',(0.6,-0.4,0.15));
#336=CARTESIAN_POINT('',(-0.5,-0.4,0.12));
#337=CARTESIAN_POINT('',(-0.5,-0.4,0.135));
#338=CARTESIAN_POINT('',(0.5,-0.4,0.12));
#339=CARTESIAN_POINT('',(-1.11022302462516E-16,-0.4,0.12));
#340=CARTESIAN_POINT('',(0.5,-0.4,0.15));
#341=CARTESIAN_POINT('',(0.5,-0.4,0.135));
#342=CARTESIAN_POINT('',(0.6,-0.4,0.15));
#343=CARTESIAN_POINT('Origin',(-0.369002487577582,-0.2,0.45));
#344=CARTESIAN_POINT('',(-0.369002487577582,0.4,0.65));
#345=CARTESIAN_POINT('',(-0.56800992561958,0.4,0.4699007438042));
#346=CARTESIAN_POINT('Origin',(-0.369002487577582,0.4,0.45));
#347=CARTESIAN_POINT('',(-0.56800992561958,-0.2,0.4699007438042));
#348=CARTESIAN_POINT('',(-0.369002487577582,-0.2,0.65));
#349=CARTESIAN_POINT('Origin',(-0.6,-0.4,0.15));
#350=CARTESIAN_POINT('',(-0.6,0.4,0.15));
#351=CARTESIAN_POINT('',(-0.6,0.4,0.15));
#352=CARTESIAN_POINT('',(-0.6,-0.4,0.15));
#353=CARTESIAN_POINT('Origin',(-1.11022302462516E-16,0.,0.12));
#354=CARTESIAN_POINT('',(0.5,0.4,0.12));
#355=CARTESIAN_POINT('',(0.5,0.,0.12));
#356=CARTESIAN_POINT('',(-0.5,0.4,0.12));
#357=CARTESIAN_POINT('',(-0.5,0.,0.12));
#358=CARTESIAN_POINT('',(-1.11022302462516E-16,0.4,0.12));
#359=CARTESIAN_POINT('Origin',(-0.5,0.,0.135));
#360=CARTESIAN_POINT('',(-0.5,0.4,0.15));
#361=CARTESIAN_POINT('',(-0.5,-1.11022302462516E-16,0.15));
#362=CARTESIAN_POINT('',(-0.5,0.4,0.135));
#363=CARTESIAN_POINT('Origin',(0.5,0.,0.135));
#364=CARTESIAN_POINT('',(0.5,0.4,0.15));
#365=CARTESIAN_POINT('',(0.5,0.4,0.135));
#366=CARTESIAN_POINT('',(0.5,-1.11022302462516E-16,0.15));
#367=CARTESIAN_POINT('Origin',(-1.01434012704389E-16,-2.22044604925031E-16,
0.15));
#368=CARTESIAN_POINT('',(-0.6,0.4,0.15));
#369=CARTESIAN_POINT('Origin',(2.92163953848725E-18,1.38777878078145E-16,
0.65));
#370=CARTESIAN_POINT('',(0.55,0.4,0.65));
#371=CARTESIAN_POINT('Origin',(-1.01434012704389E-16,-2.22044604925031E-16,
0.15));
#372=CARTESIAN_POINT('',(-0.6,0.4,0.15));
#373=CARTESIAN_POINT('Origin',(-0.6,0.4,0.15));
#374=UNCERTAINTY_MEASURE_WITH_UNIT(LENGTH_MEASURE(0.01),#378,
'DISTANCE_ACCURACY_VALUE',
'Maximum model space distance between geometric entities at asserted c
onnectivities');
#375=UNCERTAINTY_MEASURE_WITH_UNIT(LENGTH_MEASURE(1.E-6),#378,
'DISTANCE_ACCURACY_VALUE',
'Maximum model space distance between geometric entities at asserted c
onnectivities');
#376=(
GEOMETRIC_REPRESENTATION_CONTEXT(3)
GLOBAL_UNCERTAINTY_ASSIGNED_CONTEXT((#374))
GLOBAL_UNIT_ASSIGNED_CONTEXT((#378,#380,#379))
REPRESENTATION_CONTEXT('','3D')
);
#377=(
GEOMETRIC_REPRESENTATION_CONTEXT(3)
GLOBAL_UNCERTAINTY_ASSIGNED_CONTEXT((#375))
GLOBAL_UNIT_ASSIGNED_CONTEXT((#378,#12,#379))
REPRESENTATION_CONTEXT('','3D')
);
#378=(
LENGTH_UNIT()
NAMED_UNIT(*)
SI_UNIT(.MILLI.,.METRE.)
);
#379=(
NAMED_UNIT(*)
SI_UNIT($,.STERADIAN.)
SOLID_ANGLE_UNIT()
);
#380=(
NAMED_UNIT(*)
PLANE_ANGLE_UNIT()
SI_UNIT($,.RADIAN.)
);
#381=SHAPE_DEFINITION_REPRESENTATION(#382,#383);
#382=PRODUCT_DEFINITION_SHAPE('',$,#385);
#383=SHAPE_REPRESENTATION('',(#234),#376);
#384=PRODUCT_DEFINITION_CONTEXT('part definition',#389,'design');
#385=PRODUCT_DEFINITION('Product','Product',#386,#384);
#386=PRODUCT_DEFINITION_FORMATION('',$,#391);
#387=PRODUCT_RELATED_PRODUCT_CATEGORY('Product','Product',(#391));
#388=APPLICATION_PROTOCOL_DEFINITION('international standard',
'automotive_design',2009,#389);
#389=APPLICATION_CONTEXT(
'Core Data for Automotive Mechanical Design Process');
#390=PRODUCT_CONTEXT('part definition',#389,'mechanical');
#391=PRODUCT('Product','Product',$,(#390));
#392=PRESENTATION_STYLE_ASSIGNMENT((#393));
#393=SURFACE_STYLE_USAGE(.BOTH.,#394);
#394=SURFACE_SIDE_STYLE('',(#395));
#395=SURFACE_STYLE_FILL_AREA(#396);
#396=FILL_AREA_STYLE('',(#397));
#397=FILL_AREA_STYLE_COLOUR('',#398);
#398=COLOUR_RGB('',1.,1.,1.);
ENDSEC;
END-ISO-10303-21;
