ISO-10303-21;
HEADER;
/****************************************************************
 * Generated by software with PDE/Lib inside                    *
 * PDE/Lib Version 3.2.2, created Thu Mar 23, 2000 at 18:38:49  *
 * International Technegroup Inc. (www.iti-oh.com)              *
 ****************************************************************/
FILE_DESCRIPTION((''),'2;1');
FILE_NAME('LED_MARL_122-311-01.stp','2009-05-06T15:29:38',(''),(''),'Mechanical Desktop 2006','Mechanical Desktop 2006',', , ');
FILE_SCHEMA(('AUTOMOTIVE_DESIGN { 1 2 10303 214 0 1 1 1 }'));
ENDSEC;
DATA;
#8=(NAMED_UNIT(*)PLANE_ANGLE_UNIT()SI_UNIT($,.RADIAN.));
#9=DIMENSIONAL_EXPONENTS(0.0,0.0,0.0,0.0,0.0,0.0,0.0);
#10=PLANE_ANGLE_MEASURE_WITH_UNIT(PLANE_ANGLE_MEASURE(0.017453292500000),#8);
#14=(CONVERSION_BASED_UNIT('DEGREE',#10)NAMED_UNIT(#9)PLANE_ANGLE_UNIT());
#18=(NAMED_UNIT(*)SI_UNIT($,.STERADIAN.)SOLID_ANGLE_UNIT());
#22=(LENGTH_UNIT()NAMED_UNIT(*)SI_UNIT(.MILLI.,.METRE.));
#23=UNCERTAINTY_MEASURE_WITH_UNIT(LENGTH_MEASURE(0.000001000000000),#22,'DISTANCE_ACCURACY_VALUE','');
#28=(GEOMETRIC_REPRESENTATION_CONTEXT(3)GLOBAL_UNCERTAINTY_ASSIGNED_CONTEXT((#23))GLOBAL_UNIT_ASSIGNED_CONTEXT((#14,#18,#22))REPRESENTATION_CONTEXT('None','None'));
#29=APPLICATION_CONTEXT('automotive design');
#30=APPLICATION_PROTOCOL_DEFINITION('DRAFT_INTERNATIONAL_STANDARD','automotive_design',1998,#29);
#31=PRODUCT_CONTEXT('3D Mechanical Parts',#29,'mechanical');
#32=PRODUCT('Product','Product','',(#31));
#33=PRODUCT_RELATED_PRODUCT_CATEGORY('part',$,(#32));
#34=PRODUCT_CATEGORY('part',$);
#35=PERSON('1','Design','Joe',$,$,$);
#36=ORGANIZATION($,'None','None');
#37=PERSON_AND_ORGANIZATION(#35,#36);
#38=PERSON_AND_ORGANIZATION_ROLE('design_owner');
#39=APPLIED_PERSON_AND_ORGANIZATION_ASSIGNMENT(#37,#38,(#32));
#40=PRODUCT_DEFINITION_FORMATION_WITH_SPECIFIED_SOURCE('None','',#32,.BOUGHT.);
#41=PERSON('2','Creator','Joe',$,$,$);
#42=ORGANIZATION($,'None','None');
#43=PERSON_AND_ORGANIZATION(#41,#42);
#44=PERSON_AND_ORGANIZATION_ROLE('creator');
#45=APPLIED_PERSON_AND_ORGANIZATION_ASSIGNMENT(#43,#44,(#40));
#46=PERSON('3','Supplier','Joe',$,$,$);
#47=ORGANIZATION($,'None','None');
#48=PERSON_AND_ORGANIZATION(#46,#47);
#49=PERSON_AND_ORGANIZATION_ROLE('design_supplier');
#50=APPLIED_PERSON_AND_ORGANIZATION_ASSIGNMENT(#48,#49,(#40));
#51=PRODUCT_DEFINITION_CONTEXT('part definition',#29,'design');
#52=PRODUCT_DEFINITION('None','',#40,#51);
#53=PERSON('4','Creator','Joe',$,$,$);
#54=ORGANIZATION($,'None','None');
#55=PERSON_AND_ORGANIZATION(#53,#54);
#56=PERSON_AND_ORGANIZATION_ROLE('creator');
#57=APPLIED_PERSON_AND_ORGANIZATION_ASSIGNMENT(#55,#56,(#52));
#58=CARTESIAN_POINT('NONE',(0.0,0.0,0.0));
#59=DIRECTION('NONE',(0.0,0.0,1.0));
#60=DIRECTION('NONE',(1.0,0.0,0.0));
#61=AXIS2_PLACEMENT_3D('NONE',#58,#59,#60);
#62=SHAPE_REPRESENTATION('SR1',(#61),#28);
#63=PRODUCT_DEFINITION_SHAPE('PDS1','Test Part',#52);
#64=SHAPE_DEFINITION_REPRESENTATION(#63,#62);
#65=CARTESIAN_POINT('',(-1.770000000000003,3.040000000000002,0.0));
#66=DIRECTION('',(0.0,1.0,0.0));
#67=DIRECTION('',(0.0,0.0,1.0));
#68=AXIS2_PLACEMENT_3D('',#65,#66,#67);
#69=PLANE('',#68);
#70=CARTESIAN_POINT('',(-1.770000000000003,3.040000000000002,5.080000000000000));
#71=VERTEX_POINT('',#70);
#72=CARTESIAN_POINT('',(-0.770000000000005,3.040000000000002,5.080000000000000));
#73=VERTEX_POINT('',#72);
#74=CARTESIAN_POINT('',(-1.770000000000003,3.040000000000002,5.080000000000000));
#75=DIRECTION('',(1.0,0.0,0.0));
#76=VECTOR('',#75,0.999999999999998);
#77=LINE('',#74,#76);
#78=EDGE_CURVE('',#71,#73,#77,.T.);
#79=ORIENTED_EDGE('',*,*,#78,.T.);
#80=CARTESIAN_POINT('',(-0.770000000000005,3.040000000000002,0.0));
#81=VERTEX_POINT('',#80);
#82=CARTESIAN_POINT('',(-0.770000000000005,3.040000000000002,0.0));
#83=DIRECTION('',(0.0,0.0,1.0));
#84=VECTOR('',#83,5.080000000000000);
#85=LINE('',#82,#84);
#86=EDGE_CURVE('',#81,#73,#85,.T.);
#87=ORIENTED_EDGE('',*,*,#86,.F.);
#88=CARTESIAN_POINT('',(-1.770000000000003,3.040000000000002,0.0));
#89=VERTEX_POINT('',#88);
#90=CARTESIAN_POINT('',(-1.770000000000003,3.040000000000002,0.0));
#91=DIRECTION('',(1.0,0.0,0.0));
#92=VECTOR('',#91,0.999999999999998);
#93=LINE('',#90,#92);
#94=EDGE_CURVE('',#89,#81,#93,.T.);
#95=ORIENTED_EDGE('',*,*,#94,.F.);
#96=CARTESIAN_POINT('',(-1.770000000000003,3.040000000000002,0.0));
#97=DIRECTION('',(0.0,0.0,1.0));
#98=VECTOR('',#97,5.080000000000000);
#99=LINE('',#96,#98);
#100=EDGE_CURVE('',#89,#71,#99,.T.);
#101=ORIENTED_EDGE('',*,*,#100,.T.);
#102=EDGE_LOOP('',(#79,#87,#95,#101));
#103=FACE_OUTER_BOUND('',#102,.T.);
#104=ADVANCED_FACE('',(#103),#69,.T.);
#105=CARTESIAN_POINT('',(-0.770000000000005,3.040000000000002,0.0));
#106=DIRECTION('',(1.0,0.0,0.0));
#107=DIRECTION('',(0.0,0.0,-1.0));
#108=AXIS2_PLACEMENT_3D('',#105,#106,#107);
#109=PLANE('',#108);
#110=CARTESIAN_POINT('',(-0.770000000000003,2.540000000000002,5.080000000000000));
#111=VERTEX_POINT('',#110);
#112=CARTESIAN_POINT('',(-0.770000000000005,3.040000000000002,5.080000000000000));
#113=DIRECTION('',(0.0,-1.0,0.0));
#114=VECTOR('',#113,0.500000000000000);
#115=LINE('',#112,#114);
#116=EDGE_CURVE('',#73,#111,#115,.T.);
#117=ORIENTED_EDGE('',*,*,#116,.T.);
#118=CARTESIAN_POINT('',(-0.770000000000003,2.540000000000002,0.0));
#119=VERTEX_POINT('',#118);
#120=CARTESIAN_POINT('',(-0.770000000000003,2.540000000000002,0.0));
#121=DIRECTION('',(0.0,0.0,1.0));
#122=VECTOR('',#121,5.080000000000000);
#123=LINE('',#120,#122);
#124=EDGE_CURVE('',#119,#111,#123,.T.);
#125=ORIENTED_EDGE('',*,*,#124,.F.);
#126=CARTESIAN_POINT('',(-0.770000000000005,3.040000000000002,0.0));
#127=DIRECTION('',(0.0,-1.0,0.0));
#128=VECTOR('',#127,0.500000000000000);
#129=LINE('',#126,#128);
#130=EDGE_CURVE('',#81,#119,#129,.T.);
#131=ORIENTED_EDGE('',*,*,#130,.F.);
#132=ORIENTED_EDGE('',*,*,#86,.T.);
#133=EDGE_LOOP('',(#117,#125,#131,#132));
#134=FACE_OUTER_BOUND('',#133,.T.);
#135=ADVANCED_FACE('',(#134),#109,.T.);
#136=CARTESIAN_POINT('',(-0.770000000000003,2.540000000000002,0.0));
#137=DIRECTION('',(0.0,-1.0,0.0));
#138=DIRECTION('',(0.0,0.0,-1.0));
#139=AXIS2_PLACEMENT_3D('',#136,#137,#138);
#140=PLANE('',#139);
#141=CARTESIAN_POINT('',(-1.770000000000003,2.540000000000002,5.080000000000000));
#142=VERTEX_POINT('',#141);
#143=CARTESIAN_POINT('',(-0.770000000000003,2.540000000000002,5.080000000000000));
#144=DIRECTION('',(-1.0,0.0,0.0));
#145=VECTOR('',#144,1.0);
#146=LINE('',#143,#145);
#147=EDGE_CURVE('',#111,#142,#146,.T.);
#148=ORIENTED_EDGE('',*,*,#147,.T.);
#149=CARTESIAN_POINT('',(-1.770000000000003,2.540000000000002,0.0));
#150=VERTEX_POINT('',#149);
#151=CARTESIAN_POINT('',(-1.770000000000003,2.540000000000002,0.0));
#152=DIRECTION('',(0.0,0.0,1.0));
#153=VECTOR('',#152,5.080000000000000);
#154=LINE('',#151,#153);
#155=EDGE_CURVE('',#150,#142,#154,.T.);
#156=ORIENTED_EDGE('',*,*,#155,.F.);
#157=CARTESIAN_POINT('',(-0.770000000000003,2.540000000000002,0.0));
#158=DIRECTION('',(-1.0,0.0,0.0));
#159=VECTOR('',#158,1.0);
#160=LINE('',#157,#159);
#161=EDGE_CURVE('',#119,#150,#160,.T.);
#162=ORIENTED_EDGE('',*,*,#161,.F.);
#163=ORIENTED_EDGE('',*,*,#124,.T.);
#164=EDGE_LOOP('',(#148,#156,#162,#163));
#165=FACE_OUTER_BOUND('',#164,.T.);
#166=ADVANCED_FACE('',(#165),#140,.T.);
#167=CARTESIAN_POINT('',(-1.770000000000003,2.540000000000002,0.0));
#168=DIRECTION('',(-1.0,0.0,0.0));
#169=DIRECTION('',(0.0,0.0,1.0));
#170=AXIS2_PLACEMENT_3D('',#167,#168,#169);
#171=PLANE('',#170);
#172=CARTESIAN_POINT('',(-1.770000000000003,2.540000000000002,5.080000000000000));
#173=DIRECTION('',(0.0,1.0,0.0));
#174=VECTOR('',#173,0.500000000000000);
#175=LINE('',#172,#174);
#176=EDGE_CURVE('',#142,#71,#175,.T.);
#177=ORIENTED_EDGE('',*,*,#176,.T.);
#178=ORIENTED_EDGE('',*,*,#100,.F.);
#179=CARTESIAN_POINT('',(-1.770000000000003,2.540000000000002,0.0));
#180=DIRECTION('',(0.0,1.0,0.0));
#181=VECTOR('',#180,0.500000000000000);
#182=LINE('',#179,#181);
#183=EDGE_CURVE('',#150,#89,#182,.T.);
#184=ORIENTED_EDGE('',*,*,#183,.F.);
#185=ORIENTED_EDGE('',*,*,#155,.T.);
#186=EDGE_LOOP('',(#177,#178,#184,#185));
#187=FACE_OUTER_BOUND('',#186,.T.);
#188=ADVANCED_FACE('',(#187),#171,.T.);
#189=CARTESIAN_POINT('',(-1.270000000000003,2.790000000000001,5.080000000000000));
#190=DIRECTION('',(0.0,0.0,1.0));
#191=DIRECTION('',(1.0,0.0,0.0));
#192=AXIS2_PLACEMENT_3D('',#189,#190,#191);
#193=PLANE('',#192);
#194=ORIENTED_EDGE('',*,*,#78,.F.);
#195=ORIENTED_EDGE('',*,*,#176,.F.);
#196=ORIENTED_EDGE('',*,*,#147,.F.);
#197=ORIENTED_EDGE('',*,*,#116,.F.);
#198=EDGE_LOOP('',(#194,#195,#196,#197));
#199=FACE_OUTER_BOUND('',#198,.T.);
#200=ADVANCED_FACE('',(#199),#193,.T.);
#201=CARTESIAN_POINT('',(-1.270000000000003,2.790000000000001,0.0));
#202=DIRECTION('',(0.0,0.0,1.0));
#203=DIRECTION('',(1.0,0.0,0.0));
#204=AXIS2_PLACEMENT_3D('',#201,#202,#203);
#205=PLANE('',#204);
#206=ORIENTED_EDGE('',*,*,#183,.T.);
#207=ORIENTED_EDGE('',*,*,#94,.T.);
#208=ORIENTED_EDGE('',*,*,#130,.T.);
#209=ORIENTED_EDGE('',*,*,#161,.T.);
#210=EDGE_LOOP('',(#206,#207,#208,#209));
#211=FACE_OUTER_BOUND('',#210,.T.);
#212=ADVANCED_FACE('',(#211),#205,.F.);
#213=CLOSED_SHELL('',(#104,#135,#166,#188,#200,#212));
#214=MANIFOLD_SOLID_BREP('3BC',#213);
#215=COLOUR_RGB('250',0.330000000000000,0.330000000000000,0.330000000000000);
#216=SURFACE_STYLE_USAGE(.BOTH.,#217);
#217=SURFACE_SIDE_STYLE('NONE',(#218));
#218=SURFACE_STYLE_FILL_AREA(#219);
#219=FILL_AREA_STYLE('NONE',(#220));
#220=FILL_AREA_STYLE_COLOUR('NONE',#215);
#221=PRESENTATION_STYLE_ASSIGNMENT((#216));
#222=STYLED_ITEM('NONE',(#221),#214);
#223=MECHANICAL_DESIGN_GEOMETRIC_PRESENTATION_REPRESENTATION('NONE',(#222,#336,#441,#790,#948,#1099,#1250,#1401),#28);
#224=PRESENTATION_LAYER_ASSIGNMENT('3D','None',(#214,#328,#440,#789,#940,#1098,#1249,#1400));
#225=CARTESIAN_POINT('',(-8.110000000000001,0.0,7.620000000000001));
#226=DIRECTION('',(-1.0,8.074349E-016,0.0));
#227=DIRECTION('',(0.0,-1.0,0.0));
#228=AXIS2_PLACEMENT_3D('',#225,#226,#227);
#229=CYLINDRICAL_SURFACE('',#228,1.500000000000000);
#230=CARTESIAN_POINT('',(-8.110000000000003,-1.500000000000000,7.620000000000001));
#231=VERTEX_POINT('',#230);
#232=CARTESIAN_POINT('',(-10.310000000000002,-1.499999999999998,7.620000000000001));
#233=VERTEX_POINT('',#232);
#234=CARTESIAN_POINT('',(-8.110000000000003,-1.500000000000000,7.620000000000001));
#235=DIRECTION('',(-1.0,0.0,0.0));
#236=VECTOR('',#235,2.199999999999999);
#237=LINE('',#234,#236);
#238=EDGE_CURVE('',#231,#233,#237,.T.);
#239=ORIENTED_EDGE('',*,*,#238,.F.);
#240=CARTESIAN_POINT('',(-8.109999999999998,1.500000000000000,7.620000000000001));
#241=VERTEX_POINT('',#240);
#242=CARTESIAN_POINT('',(-8.110000000000001,0.0,7.620000000000001));
#243=DIRECTION('',(-1.0,0.0,0.0));
#244=DIRECTION('',(0.0,-1.0,0.0));
#245=AXIS2_PLACEMENT_3D('',#242,#243,#244);
#246=CIRCLE('',#245,1.500000000000000);
#247=EDGE_CURVE('',#231,#241,#246,.T.);
#248=ORIENTED_EDGE('',*,*,#247,.T.);
#249=CARTESIAN_POINT('',(-10.310000000000000,1.500000000000002,7.620000000000001));
#250=VERTEX_POINT('',#249);
#251=CARTESIAN_POINT('',(-10.310000000000000,1.500000000000002,7.620000000000001));
#252=DIRECTION('',(1.0,0.0,0.0));
#253=VECTOR('',#252,2.200000000000003);
#254=LINE('',#251,#253);
#255=EDGE_CURVE('',#250,#241,#254,.T.);
#256=ORIENTED_EDGE('',*,*,#255,.F.);
#257=CARTESIAN_POINT('',(-10.310000000000002,1.776357E-015,7.620000000000001));
#258=DIRECTION('',(1.0,0.0,0.0));
#259=DIRECTION('',(0.0,-1.0,0.0));
#260=AXIS2_PLACEMENT_3D('',#257,#258,#259);
#261=CIRCLE('',#260,1.500000000000000);
#262=EDGE_CURVE('',#250,#233,#261,.T.);
#263=ORIENTED_EDGE('',*,*,#262,.T.);
#264=EDGE_LOOP('',(#239,#248,#256,#263));
#265=FACE_OUTER_BOUND('',#264,.T.);
#266=ADVANCED_FACE('',(#265),#229,.T.);
#267=CARTESIAN_POINT('',(-10.310000000000002,1.776357E-015,7.620000000000001));
#268=DIRECTION('',(-1.0,0.0,0.0));
#269=DIRECTION('',(0.0,-1.0,0.0));
#270=AXIS2_PLACEMENT_3D('',#267,#268,#269);
#271=SPHERICAL_SURFACE('',#270,1.500000000000000);
#272=CARTESIAN_POINT('',(-10.310000000000002,1.776357E-015,7.620000000000001));
#273=DIRECTION('',(0.0,0.0,-1.0));
#274=DIRECTION('',(0.0,-1.0,0.0));
#275=AXIS2_PLACEMENT_3D('',#272,#273,#274);
#276=CIRCLE('',#275,1.500000000000000);
#277=EDGE_CURVE('',#233,#250,#276,.T.);
#278=ORIENTED_EDGE('',*,*,#277,.F.);
#279=ORIENTED_EDGE('',*,*,#262,.F.);
#280=EDGE_LOOP('',(#278,#279));
#281=FACE_OUTER_BOUND('',#280,.T.);
#282=ADVANCED_FACE('',(#281),#271,.T.);
#283=CARTESIAN_POINT('',(-10.310000000000002,1.776357E-015,7.620000000000001));
#284=DIRECTION('',(-1.0,0.0,0.0));
#285=DIRECTION('',(0.0,-1.0,0.0));
#286=AXIS2_PLACEMENT_3D('',#283,#284,#285);
#287=SPHERICAL_SURFACE('',#286,1.500000000000000);
#288=ORIENTED_EDGE('',*,*,#277,.T.);
#289=CARTESIAN_POINT('',(-10.310000000000002,1.776357E-015,7.620000000000001));
#290=DIRECTION('',(1.0,0.0,0.0));
#291=DIRECTION('',(0.0,-1.0,0.0));
#292=AXIS2_PLACEMENT_3D('',#289,#290,#291);
#293=CIRCLE('',#292,1.500000000000000);
#294=EDGE_CURVE('',#233,#250,#293,.T.);
#295=ORIENTED_EDGE('',*,*,#294,.F.);
#296=EDGE_LOOP('',(#288,#295));
#297=FACE_OUTER_BOUND('',#296,.T.);
#298=ADVANCED_FACE('',(#297),#287,.T.);
#299=CARTESIAN_POINT('',(-8.110000000000001,0.0,7.620000000000001));
#300=DIRECTION('',(-1.0,8.074349E-016,0.0));
#301=DIRECTION('',(0.0,-1.0,0.0));
#302=AXIS2_PLACEMENT_3D('',#299,#300,#301);
#303=CYLINDRICAL_SURFACE('',#302,1.500000000000000);
#304=ORIENTED_EDGE('',*,*,#238,.T.);
#305=ORIENTED_EDGE('',*,*,#294,.T.);
#306=ORIENTED_EDGE('',*,*,#255,.T.);
#307=CARTESIAN_POINT('',(-8.110000000000001,0.0,7.620000000000001));
#308=DIRECTION('',(-1.0,0.0,0.0));
#309=DIRECTION('',(0.0,-1.0,0.0));
#310=AXIS2_PLACEMENT_3D('',#307,#308,#309);
#311=CIRCLE('',#310,1.500000000000000);
#312=EDGE_CURVE('',#241,#231,#311,.T.);
#313=ORIENTED_EDGE('',*,*,#312,.T.);
#314=EDGE_LOOP('',(#304,#305,#306,#313));
#315=FACE_OUTER_BOUND('',#314,.T.);
#316=ADVANCED_FACE('',(#315),#303,.T.);
#317=CARTESIAN_POINT('',(-8.110000000000001,0.0,7.620000000000001));
#318=DIRECTION('',(-1.0,0.0,0.0));
#319=DIRECTION('',(0.0,0.0,1.0));
#320=AXIS2_PLACEMENT_3D('',#317,#318,#319);
#321=PLANE('',#320);
#322=ORIENTED_EDGE('',*,*,#247,.F.);
#323=ORIENTED_EDGE('',*,*,#312,.F.);
#324=EDGE_LOOP('',(#322,#323));
#325=FACE_OUTER_BOUND('',#324,.T.);
#326=ADVANCED_FACE('',(#325),#321,.F.);
#327=CLOSED_SHELL('',(#266,#282,#298,#316,#326));
#328=MANIFOLD_SOLID_BREP('3A5',#327);
#329=DRAUGHTING_PRE_DEFINED_COLOUR('yellow');
#330=SURFACE_STYLE_USAGE(.BOTH.,#331);
#331=SURFACE_SIDE_STYLE('NONE',(#332));
#332=SURFACE_STYLE_FILL_AREA(#333);
#333=FILL_AREA_STYLE('NONE',(#334));
#334=FILL_AREA_STYLE_COLOUR('NONE',#329);
#335=PRESENTATION_STYLE_ASSIGNMENT((#330));
#336=STYLED_ITEM('NONE',(#335),#328);
#337=CARTESIAN_POINT('',(-8.110000000000001,-1.776357E-015,2.540000000000000));
#338=DIRECTION('',(-1.0,8.074349E-016,0.0));
#339=DIRECTION('',(0.0,-1.0,0.0));
#340=AXIS2_PLACEMENT_3D('',#337,#338,#339);
#341=CYLINDRICAL_SURFACE('',#340,1.500000000000000);
#342=CARTESIAN_POINT('',(-8.110000000000003,-1.500000000000002,2.540000000000000));
#343=VERTEX_POINT('',#342);
#344=CARTESIAN_POINT('',(-10.310000000000002,-1.500000000000000,2.540000000000000));
#345=VERTEX_POINT('',#344);
#346=CARTESIAN_POINT('',(-8.110000000000003,-1.500000000000002,2.540000000000000));
#347=DIRECTION('',(-1.0,0.0,0.0));
#348=VECTOR('',#347,2.199999999999999);
#349=LINE('',#346,#348);
#350=EDGE_CURVE('',#343,#345,#349,.T.);
#351=ORIENTED_EDGE('',*,*,#350,.F.);
#352=CARTESIAN_POINT('',(-8.109999999999998,1.499999999999998,2.540000000000000));
#353=VERTEX_POINT('',#352);
#354=CARTESIAN_POINT('',(-8.110000000000001,-1.776357E-015,2.540000000000000));
#355=DIRECTION('',(-1.0,0.0,0.0));
#356=DIRECTION('',(0.0,-1.0,0.0));
#357=AXIS2_PLACEMENT_3D('',#354,#355,#356);
#358=CIRCLE('',#357,1.500000000000000);
#359=EDGE_CURVE('',#343,#353,#358,.T.);
#360=ORIENTED_EDGE('',*,*,#359,.T.);
#361=CARTESIAN_POINT('',(-10.310000000000000,1.500000000000000,2.540000000000000));
#362=VERTEX_POINT('',#361);
#363=CARTESIAN_POINT('',(-10.310000000000000,1.500000000000000,2.540000000000000));
#364=DIRECTION('',(1.0,0.0,0.0));
#365=VECTOR('',#364,2.200000000000003);
#366=LINE('',#363,#365);
#367=EDGE_CURVE('',#362,#353,#366,.T.);
#368=ORIENTED_EDGE('',*,*,#367,.F.);
#369=CARTESIAN_POINT('',(-10.310000000000002,0.0,2.540000000000000));
#370=DIRECTION('',(1.0,0.0,0.0));
#371=DIRECTION('',(0.0,-1.0,0.0));
#372=AXIS2_PLACEMENT_3D('',#369,#370,#371);
#373=CIRCLE('',#372,1.500000000000000);
#374=EDGE_CURVE('',#362,#345,#373,.T.);
#375=ORIENTED_EDGE('',*,*,#374,.T.);
#376=EDGE_LOOP('',(#351,#360,#368,#375));
#377=FACE_OUTER_BOUND('',#376,.T.);
#378=ADVANCED_FACE('',(#377),#341,.T.);
#379=CARTESIAN_POINT('',(-10.310000000000002,0.0,2.540000000000000));
#380=DIRECTION('',(-1.0,0.0,0.0));
#381=DIRECTION('',(0.0,-1.0,0.0));
#382=AXIS2_PLACEMENT_3D('',#379,#380,#381);
#383=SPHERICAL_SURFACE('',#382,1.500000000000000);
#384=CARTESIAN_POINT('',(-10.310000000000002,1.943138E-077,2.540000000000000));
#385=DIRECTION('',(0.0,0.0,-1.0));
#386=DIRECTION('',(0.0,-1.0,0.0));
#387=AXIS2_PLACEMENT_3D('',#384,#385,#386);
#388=CIRCLE('',#387,1.500000000000000);
#389=EDGE_CURVE('',#345,#362,#388,.T.);
#390=ORIENTED_EDGE('',*,*,#389,.F.);
#391=ORIENTED_EDGE('',*,*,#374,.F.);
#392=EDGE_LOOP('',(#390,#391));
#393=FACE_OUTER_BOUND('',#392,.T.);
#394=ADVANCED_FACE('',(#393),#383,.T.);
#395=CARTESIAN_POINT('',(-10.310000000000002,0.0,2.540000000000000));
#396=DIRECTION('',(-1.0,0.0,0.0));
#397=DIRECTION('',(0.0,-1.0,0.0));
#398=AXIS2_PLACEMENT_3D('',#395,#396,#397);
#399=SPHERICAL_SURFACE('',#398,1.500000000000000);
#400=ORIENTED_EDGE('',*,*,#389,.T.);
#401=CARTESIAN_POINT('',(-10.310000000000002,0.0,2.540000000000000));
#402=DIRECTION('',(1.0,0.0,0.0));
#403=DIRECTION('',(0.0,-1.0,0.0));
#404=AXIS2_PLACEMENT_3D('',#401,#402,#403);
#405=CIRCLE('',#404,1.500000000000000);
#406=EDGE_CURVE('',#345,#362,#405,.T.);
#407=ORIENTED_EDGE('',*,*,#406,.F.);
#408=EDGE_LOOP('',(#400,#407));
#409=FACE_OUTER_BOUND('',#408,.T.);
#410=ADVANCED_FACE('',(#409),#399,.T.);
#411=CARTESIAN_POINT('',(-8.110000000000001,-1.776357E-015,2.540000000000000));
#412=DIRECTION('',(-1.0,8.074349E-016,0.0));
#413=DIRECTION('',(0.0,-1.0,0.0));
#414=AXIS2_PLACEMENT_3D('',#411,#412,#413);
#415=CYLINDRICAL_SURFACE('',#414,1.500000000000000);
#416=ORIENTED_EDGE('',*,*,#350,.T.);
#417=ORIENTED_EDGE('',*,*,#406,.T.);
#418=ORIENTED_EDGE('',*,*,#367,.T.);
#419=CARTESIAN_POINT('',(-8.110000000000001,-1.776357E-015,2.540000000000000));
#420=DIRECTION('',(-1.0,0.0,0.0));
#421=DIRECTION('',(0.0,-1.0,0.0));
#422=AXIS2_PLACEMENT_3D('',#419,#420,#421);
#423=CIRCLE('',#422,1.500000000000000);
#424=EDGE_CURVE('',#353,#343,#423,.T.);
#425=ORIENTED_EDGE('',*,*,#424,.T.);
#426=EDGE_LOOP('',(#416,#417,#418,#425));
#427=FACE_OUTER_BOUND('',#426,.T.);
#428=ADVANCED_FACE('',(#427),#415,.T.);
#429=CARTESIAN_POINT('',(-8.110000000000001,-1.776357E-015,2.540000000000000));
#430=DIRECTION('',(-1.0,0.0,0.0));
#431=DIRECTION('',(0.0,0.0,1.0));
#432=AXIS2_PLACEMENT_3D('',#429,#430,#431);
#433=PLANE('',#432);
#434=ORIENTED_EDGE('',*,*,#359,.F.);
#435=ORIENTED_EDGE('',*,*,#424,.F.);
#436=EDGE_LOOP('',(#434,#435));
#437=FACE_OUTER_BOUND('',#436,.T.);
#438=ADVANCED_FACE('',(#437),#433,.F.);
#439=CLOSED_SHELL('',(#378,#394,#410,#428,#438));
#440=MANIFOLD_SOLID_BREP('3A2',#439);
#441=STYLED_ITEM('NONE',(#335),#440);
#442=CARTESIAN_POINT('',(-1.770000000000003,-2.039999999999997,0.0));
#443=DIRECTION('',(0.0,1.0,0.0));
#444=DIRECTION('',(0.0,0.0,1.0));
#445=AXIS2_PLACEMENT_3D('',#442,#443,#444);
#446=PLANE('',#445);
#447=CARTESIAN_POINT('',(-0.770000000000003,-2.039999999999996,9.660000000000000));
#448=VERTEX_POINT('',#447);
#449=CARTESIAN_POINT('',(-1.770000000000003,-2.039999999999997,9.660000000000000));
#450=VERTEX_POINT('',#449);
#451=CARTESIAN_POINT('',(-0.770000000000003,-2.039999999999996,9.660000000000000));
#452=DIRECTION('',(-1.0,0.0,0.0));
#453=VECTOR('',#452,1.0);
#454=LINE('',#451,#453);
#455=EDGE_CURVE('',#448,#450,#454,.T.);
#456=ORIENTED_EDGE('',*,*,#455,.T.);
#457=CARTESIAN_POINT('',(-1.770000000000003,-2.039999999999997,0.0));
#458=VERTEX_POINT('',#457);
#459=CARTESIAN_POINT('',(-1.770000000000003,-2.039999999999997,0.0));
#460=DIRECTION('',(0.0,0.0,1.0));
#461=VECTOR('',#460,9.660000000000000);
#462=LINE('',#459,#461);
#463=EDGE_CURVE('',#458,#450,#462,.T.);
#464=ORIENTED_EDGE('',*,*,#463,.F.);
#465=CARTESIAN_POINT('',(-0.770000000000005,-2.039999999999996,0.0));
#466=VERTEX_POINT('',#465);
#467=CARTESIAN_POINT('',(-0.770000000000005,-2.039999999999996,0.0));
#468=DIRECTION('',(-1.0,0.0,0.0));
#469=VECTOR('',#468,0.999999999999998);
#470=LINE('',#467,#469);
#471=EDGE_CURVE('',#466,#458,#470,.T.);
#472=ORIENTED_EDGE('',*,*,#471,.F.);
#473=CARTESIAN_POINT('',(-0.770000000000005,-2.039999999999996,0.0));
#474=DIRECTION('',(0.0,0.0,1.0));
#475=VECTOR('',#474,9.660000000000000);
#476=LINE('',#473,#475);
#477=EDGE_CURVE('',#466,#448,#476,.T.);
#478=ORIENTED_EDGE('',*,*,#477,.T.);
#479=EDGE_LOOP('',(#456,#464,#472,#478));
#480=FACE_OUTER_BOUND('',#479,.T.);
#481=ADVANCED_FACE('',(#480),#446,.F.);
#482=CARTESIAN_POINT('',(-1.770000000000003,-2.539999999999997,10.160000000000000));
#483=DIRECTION('',(-1.0,0.0,0.0));
#484=DIRECTION('',(0.0,0.0,1.0));
#485=AXIS2_PLACEMENT_3D('',#482,#483,#484);
#486=PLANE('',#485);
#487=CARTESIAN_POINT('',(-1.770000000000003,-2.539999999999997,10.160000000000000));
#488=VERTEX_POINT('',#487);
#489=CARTESIAN_POINT('',(-1.770000000000003,2.540000000000005,10.160000000000000));
#490=VERTEX_POINT('',#489);
#491=CARTESIAN_POINT('',(-1.770000000000003,-2.539999999999997,10.160000000000000));
#492=DIRECTION('',(0.0,1.0,0.0));
#493=VECTOR('',#492,5.080000000000002);
#494=LINE('',#491,#493);
#495=EDGE_CURVE('',#488,#490,#494,.T.);
#496=ORIENTED_EDGE('',*,*,#495,.F.);
#497=CARTESIAN_POINT('',(-1.770000000000003,-2.539999999999997,0.0));
#498=VERTEX_POINT('',#497);
#499=CARTESIAN_POINT('',(-1.770000000000003,-2.539999999999997,0.0));
#500=DIRECTION('',(0.0,0.0,1.0));
#501=VECTOR('',#500,10.160000000000000);
#502=LINE('',#499,#501);
#503=EDGE_CURVE('',#498,#488,#502,.T.);
#504=ORIENTED_EDGE('',*,*,#503,.F.);
#505=CARTESIAN_POINT('',(-1.770000000000003,-2.039999999999997,0.0));
#506=DIRECTION('',(0.0,-1.0,0.0));
#507=VECTOR('',#506,0.500000000000000);
#508=LINE('',#505,#507);
#509=EDGE_CURVE('',#458,#498,#508,.T.);
#510=ORIENTED_EDGE('',*,*,#509,.F.);
#511=ORIENTED_EDGE('',*,*,#463,.T.);
#512=CARTESIAN_POINT('',(-1.770000000000003,2.540000000000005,9.660000000000000));
#513=VERTEX_POINT('',#512);
#514=CARTESIAN_POINT('',(-1.770000000000003,-2.039999999999997,9.660000000000000));
#515=DIRECTION('',(0.0,1.0,0.0));
#516=VECTOR('',#515,4.580000000000002);
#517=LINE('',#514,#516);
#518=EDGE_CURVE('',#450,#513,#517,.T.);
#519=ORIENTED_EDGE('',*,*,#518,.T.);
#520=CARTESIAN_POINT('',(-1.770000000000003,2.540000000000005,10.160000000000000));
#521=DIRECTION('',(0.0,0.0,-1.0));
#522=VECTOR('',#521,0.500000000000000);
#523=LINE('',#520,#522);
#524=EDGE_CURVE('',#490,#513,#523,.T.);
#525=ORIENTED_EDGE('',*,*,#524,.F.);
#526=EDGE_LOOP('',(#496,#504,#510,#511,#519,#525));
#527=FACE_OUTER_BOUND('',#526,.T.);
#528=ADVANCED_FACE('',(#527),#486,.F.);
#529=CARTESIAN_POINT('',(-0.770000000000003,-2.539999999999997,9.660000000000000));
#530=DIRECTION('',(1.0,0.0,0.0));
#531=DIRECTION('',(0.0,0.0,-1.0));
#532=AXIS2_PLACEMENT_3D('',#529,#530,#531);
#533=PLANE('',#532);
#534=CARTESIAN_POINT('',(-0.770000000000003,2.540000000000005,9.660000000000000));
#535=VERTEX_POINT('',#534);
#536=CARTESIAN_POINT('',(-0.770000000000003,-2.039999999999996,9.660000000000000));
#537=DIRECTION('',(0.0,1.0,0.0));
#538=VECTOR('',#537,4.580000000000000);
#539=LINE('',#536,#538);
#540=EDGE_CURVE('',#448,#535,#539,.T.);
#541=ORIENTED_EDGE('',*,*,#540,.F.);
#542=ORIENTED_EDGE('',*,*,#477,.F.);
#543=CARTESIAN_POINT('',(-0.770000000000003,-2.539999999999997,0.0));
#544=VERTEX_POINT('',#543);
#545=CARTESIAN_POINT('',(-0.770000000000003,-2.539999999999997,0.0));
#546=DIRECTION('',(0.0,1.0,0.0));
#547=VECTOR('',#546,0.500000000000002);
#548=LINE('',#545,#547);
#549=EDGE_CURVE('',#544,#466,#548,.T.);
#550=ORIENTED_EDGE('',*,*,#549,.F.);
#551=CARTESIAN_POINT('',(-0.770000000000003,-2.539999999999997,10.160000000000000));
#552=VERTEX_POINT('',#551);
#553=CARTESIAN_POINT('',(-0.770000000000003,-2.539999999999997,10.160000000000000));
#554=DIRECTION('',(0.0,0.0,-1.0));
#555=VECTOR('',#554,10.160000000000000);
#556=LINE('',#553,#555);
#557=EDGE_CURVE('',#552,#544,#556,.T.);
#558=ORIENTED_EDGE('',*,*,#557,.F.);
#559=CARTESIAN_POINT('',(-0.770000000000003,2.540000000000005,10.160000000000000));
#560=VERTEX_POINT('',#559);
#561=CARTESIAN_POINT('',(-0.770000000000003,2.540000000000005,10.160000000000000));
#562=DIRECTION('',(0.0,-1.0,0.0));
#563=VECTOR('',#562,5.080000000000002);
#564=LINE('',#561,#563);
#565=EDGE_CURVE('',#560,#552,#564,.T.);
#566=ORIENTED_EDGE('',*,*,#565,.F.);
#567=CARTESIAN_POINT('',(-0.770000000000003,2.540000000000005,9.660000000000000));
#568=DIRECTION('',(0.0,0.0,1.0));
#569=VECTOR('',#568,0.500000000000000);
#570=LINE('',#567,#569);
#571=EDGE_CURVE('',#535,#560,#570,.T.);
#572=ORIENTED_EDGE('',*,*,#571,.F.);
#573=EDGE_LOOP('',(#541,#542,#550,#558,#566,#572));
#574=FACE_OUTER_BOUND('',#573,.T.);
#575=ADVANCED_FACE('',(#574),#533,.F.);
#576=CARTESIAN_POINT('',(-1.770000000000003,-2.539999999999997,9.660000000000000));
#577=DIRECTION('',(0.0,0.0,-1.0));
#578=DIRECTION('',(-1.0,0.0,0.0));
#579=AXIS2_PLACEMENT_3D('',#576,#577,#578);
#580=PLANE('',#579);
#581=ORIENTED_EDGE('',*,*,#455,.F.);
#582=ORIENTED_EDGE('',*,*,#540,.T.);
#583=CARTESIAN_POINT('',(-1.770000000000003,2.540000000000005,9.660000000000000));
#584=DIRECTION('',(1.0,0.0,0.0));
#585=VECTOR('',#584,1.0);
#586=LINE('',#583,#585);
#587=EDGE_CURVE('',#513,#535,#586,.T.);
#588=ORIENTED_EDGE('',*,*,#587,.F.);
#589=ORIENTED_EDGE('',*,*,#518,.F.);
#590=EDGE_LOOP('',(#581,#582,#588,#589));
#591=FACE_OUTER_BOUND('',#590,.T.);
#592=ADVANCED_FACE('',(#591),#580,.F.);
#593=CARTESIAN_POINT('',(-3.110000000000003,0.0,0.0));
#594=DIRECTION('',(0.0,0.0,1.0));
#595=DIRECTION('',(1.0,0.0,0.0));
#596=AXIS2_PLACEMENT_3D('',#593,#594,#595);
#597=PLANE('',#596);
#598=ORIENTED_EDGE('',*,*,#549,.T.);
#599=ORIENTED_EDGE('',*,*,#471,.T.);
#600=ORIENTED_EDGE('',*,*,#509,.T.);
#601=CARTESIAN_POINT('',(-8.110000000000001,-2.539999999999999,0.0));
#602=VERTEX_POINT('',#601);
#603=CARTESIAN_POINT('',(-1.770000000000003,-2.539999999999997,0.0));
#604=DIRECTION('',(-1.0,0.0,0.0));
#605=VECTOR('',#604,6.339999999999998);
#606=LINE('',#603,#605);
#607=EDGE_CURVE('',#498,#602,#606,.T.);
#608=ORIENTED_EDGE('',*,*,#607,.T.);
#609=CARTESIAN_POINT('',(-8.110000000000001,2.540000000000000,0.0));
#610=VERTEX_POINT('',#609);
#611=CARTESIAN_POINT('',(-8.110000000000001,-2.539999999999999,0.0));
#612=DIRECTION('',(0.0,1.0,0.0));
#613=VECTOR('',#612,5.079999999999999);
#614=LINE('',#611,#613);
#615=EDGE_CURVE('',#602,#610,#614,.T.);
#616=ORIENTED_EDGE('',*,*,#615,.T.);
#617=CARTESIAN_POINT('',(1.889999999999997,2.540000000000001,0.0));
#618=VERTEX_POINT('',#617);
#619=CARTESIAN_POINT('',(-8.110000000000001,2.540000000000000,0.0));
#620=DIRECTION('',(1.0,0.0,0.0));
#621=VECTOR('',#620,9.999999999999998);
#622=LINE('',#619,#621);
#623=EDGE_CURVE('',#610,#618,#622,.T.);
#624=ORIENTED_EDGE('',*,*,#623,.T.);
#625=CARTESIAN_POINT('',(1.889999999999997,-2.539999999999999,0.0));
#626=VERTEX_POINT('',#625);
#627=CARTESIAN_POINT('',(1.889999999999997,2.540000000000001,0.0));
#628=DIRECTION('',(0.0,-1.0,0.0));
#629=VECTOR('',#628,5.080000000000000);
#630=LINE('',#627,#629);
#631=EDGE_CURVE('',#618,#626,#630,.T.);
#632=ORIENTED_EDGE('',*,*,#631,.T.);
#633=CARTESIAN_POINT('',(1.889999999999997,-2.539999999999999,0.0));
#634=DIRECTION('',(-1.0,0.0,0.0));
#635=VECTOR('',#634,2.660000000000000);
#636=LINE('',#633,#635);
#637=EDGE_CURVE('',#626,#544,#636,.T.);
#638=ORIENTED_EDGE('',*,*,#637,.T.);
#639=EDGE_LOOP('',(#598,#599,#600,#608,#616,#624,#632,#638));
#640=FACE_OUTER_BOUND('',#639,.T.);
#641=ADVANCED_FACE('',(#640),#597,.F.);
#642=CARTESIAN_POINT('',(1.889999999999997,-2.539999999999999,0.0));
#643=DIRECTION('',(0.0,-1.0,0.0));
#644=DIRECTION('',(0.0,0.0,-1.0));
#645=AXIS2_PLACEMENT_3D('',#642,#643,#644);
#646=PLANE('',#645);
#647=ORIENTED_EDGE('',*,*,#503,.T.);
#648=CARTESIAN_POINT('',(-8.110000000000001,-2.539999999999999,10.160000000000000));
#649=VERTEX_POINT('',#648);
#650=CARTESIAN_POINT('',(-1.770000000000003,-2.539999999999997,10.160000000000000));
#651=DIRECTION('',(-1.0,0.0,0.0));
#652=VECTOR('',#651,6.339999999999998);
#653=LINE('',#650,#652);
#654=EDGE_CURVE('',#488,#649,#653,.T.);
#655=ORIENTED_EDGE('',*,*,#654,.T.);
#656=CARTESIAN_POINT('',(-8.110000000000001,-2.539999999999999,0.0));
#657=DIRECTION('',(0.0,0.0,1.0));
#658=VECTOR('',#657,10.160000000000000);
#659=LINE('',#656,#658);
#660=EDGE_CURVE('',#602,#649,#659,.T.);
#661=ORIENTED_EDGE('',*,*,#660,.F.);
#662=ORIENTED_EDGE('',*,*,#607,.F.);
#663=EDGE_LOOP('',(#647,#655,#661,#662));
#664=FACE_OUTER_BOUND('',#663,.T.);
#665=ADVANCED_FACE('',(#664),#646,.T.);
#666=CARTESIAN_POINT('',(-3.110000000000003,0.0,10.160000000000000));
#667=DIRECTION('',(0.0,0.0,1.0));
#668=DIRECTION('',(1.0,0.0,0.0));
#669=AXIS2_PLACEMENT_3D('',#666,#667,#668);
#670=PLANE('',#669);
#671=ORIENTED_EDGE('',*,*,#495,.T.);
#672=CARTESIAN_POINT('',(-8.110000000000001,2.540000000000000,10.160000000000000));
#673=VERTEX_POINT('',#672);
#674=CARTESIAN_POINT('',(-8.110000000000001,2.540000000000000,10.160000000000000));
#675=DIRECTION('',(1.0,0.0,0.0));
#676=VECTOR('',#675,6.339999999999998);
#677=LINE('',#674,#676);
#678=EDGE_CURVE('',#673,#490,#677,.T.);
#679=ORIENTED_EDGE('',*,*,#678,.F.);
#680=CARTESIAN_POINT('',(-8.110000000000001,-2.539999999999999,10.160000000000000));
#681=DIRECTION('',(0.0,1.0,0.0));
#682=VECTOR('',#681,5.079999999999999);
#683=LINE('',#680,#682);
#684=EDGE_CURVE('',#649,#673,#683,.T.);
#685=ORIENTED_EDGE('',*,*,#684,.F.);
#686=ORIENTED_EDGE('',*,*,#654,.F.);
#687=EDGE_LOOP('',(#671,#679,#685,#686));
#688=FACE_OUTER_BOUND('',#687,.T.);
#689=ADVANCED_FACE('',(#688),#670,.T.);
#690=CARTESIAN_POINT('',(-8.110000000000001,-2.539999999999999,0.0));
#691=DIRECTION('',(-1.0,0.0,0.0));
#692=DIRECTION('',(0.0,0.0,1.0));
#693=AXIS2_PLACEMENT_3D('',#690,#691,#692);
#694=PLANE('',#693);
#695=ORIENTED_EDGE('',*,*,#684,.T.);
#696=CARTESIAN_POINT('',(-8.110000000000001,2.540000000000000,0.0));
#697=DIRECTION('',(0.0,0.0,1.0));
#698=VECTOR('',#697,10.160000000000000);
#699=LINE('',#696,#698);
#700=EDGE_CURVE('',#610,#673,#699,.T.);
#701=ORIENTED_EDGE('',*,*,#700,.F.);
#702=ORIENTED_EDGE('',*,*,#615,.F.);
#703=ORIENTED_EDGE('',*,*,#660,.T.);
#704=EDGE_LOOP('',(#695,#701,#702,#703));
#705=FACE_OUTER_BOUND('',#704,.T.);
#706=ADVANCED_FACE('',(#705),#694,.T.);
#707=CARTESIAN_POINT('',(-8.110000000000001,2.540000000000000,0.0));
#708=DIRECTION('',(0.0,1.0,0.0));
#709=DIRECTION('',(0.0,0.0,1.0));
#710=AXIS2_PLACEMENT_3D('',#707,#708,#709);
#711=PLANE('',#710);
#712=ORIENTED_EDGE('',*,*,#571,.T.);
#713=CARTESIAN_POINT('',(1.889999999999997,2.540000000000001,10.160000000000000));
#714=VERTEX_POINT('',#713);
#715=CARTESIAN_POINT('',(-0.770000000000003,2.540000000000005,10.160000000000000));
#716=DIRECTION('',(1.0,0.0,0.0));
#717=VECTOR('',#716,2.660000000000000);
#718=LINE('',#715,#717);
#719=EDGE_CURVE('',#560,#714,#718,.T.);
#720=ORIENTED_EDGE('',*,*,#719,.T.);
#721=CARTESIAN_POINT('',(1.889999999999997,2.540000000000001,0.0));
#722=DIRECTION('',(0.0,0.0,1.0));
#723=VECTOR('',#722,10.160000000000000);
#724=LINE('',#721,#723);
#725=EDGE_CURVE('',#618,#714,#724,.T.);
#726=ORIENTED_EDGE('',*,*,#725,.F.);
#727=ORIENTED_EDGE('',*,*,#623,.F.);
#728=ORIENTED_EDGE('',*,*,#700,.T.);
#729=ORIENTED_EDGE('',*,*,#678,.T.);
#730=ORIENTED_EDGE('',*,*,#524,.T.);
#731=ORIENTED_EDGE('',*,*,#587,.T.);
#732=EDGE_LOOP('',(#712,#720,#726,#727,#728,#729,#730,#731));
#733=FACE_OUTER_BOUND('',#732,.T.);
#734=ADVANCED_FACE('',(#733),#711,.T.);
#735=CARTESIAN_POINT('',(1.889999999999997,2.540000000000001,0.0));
#736=DIRECTION('',(1.0,0.0,0.0));
#737=DIRECTION('',(0.0,0.0,-1.0));
#738=AXIS2_PLACEMENT_3D('',#735,#736,#737);
#739=PLANE('',#738);
#740=CARTESIAN_POINT('',(1.889999999999997,-2.539999999999999,10.160000000000000));
#741=VERTEX_POINT('',#740);
#742=CARTESIAN_POINT('',(1.889999999999997,2.540000000000001,10.160000000000000));
#743=DIRECTION('',(0.0,-1.0,0.0));
#744=VECTOR('',#743,5.080000000000000);
#745=LINE('',#742,#744);
#746=EDGE_CURVE('',#714,#741,#745,.T.);
#747=ORIENTED_EDGE('',*,*,#746,.T.);
#748=CARTESIAN_POINT('',(1.889999999999997,-2.539999999999999,0.0));
#749=DIRECTION('',(0.0,0.0,1.0));
#750=VECTOR('',#749,10.160000000000000);
#751=LINE('',#748,#750);
#752=EDGE_CURVE('',#626,#741,#751,.T.);
#753=ORIENTED_EDGE('',*,*,#752,.F.);
#754=ORIENTED_EDGE('',*,*,#631,.F.);
#755=ORIENTED_EDGE('',*,*,#725,.T.);
#756=EDGE_LOOP('',(#747,#753,#754,#755));
#757=FACE_OUTER_BOUND('',#756,.T.);
#758=ADVANCED_FACE('',(#757),#739,.T.);
#759=CARTESIAN_POINT('',(1.889999999999997,-2.539999999999999,0.0));
#760=DIRECTION('',(0.0,-1.0,0.0));
#761=DIRECTION('',(0.0,0.0,-1.0));
#762=AXIS2_PLACEMENT_3D('',#759,#760,#761);
#763=PLANE('',#762);
#764=ORIENTED_EDGE('',*,*,#557,.T.);
#765=ORIENTED_EDGE('',*,*,#637,.F.);
#766=ORIENTED_EDGE('',*,*,#752,.T.);
#767=CARTESIAN_POINT('',(1.889999999999997,-2.539999999999999,10.160000000000000));
#768=DIRECTION('',(-1.0,0.0,0.0));
#769=VECTOR('',#768,2.660000000000000);
#770=LINE('',#767,#769);
#771=EDGE_CURVE('',#741,#552,#770,.T.);
#772=ORIENTED_EDGE('',*,*,#771,.T.);
#773=EDGE_LOOP('',(#764,#765,#766,#772));
#774=FACE_OUTER_BOUND('',#773,.T.);
#775=ADVANCED_FACE('',(#774),#763,.T.);
#776=CARTESIAN_POINT('',(-3.110000000000003,0.0,10.160000000000000));
#777=DIRECTION('',(0.0,0.0,1.0));
#778=DIRECTION('',(1.0,0.0,0.0));
#779=AXIS2_PLACEMENT_3D('',#776,#777,#778);
#780=PLANE('',#779);
#781=ORIENTED_EDGE('',*,*,#565,.T.);
#782=ORIENTED_EDGE('',*,*,#771,.F.);
#783=ORIENTED_EDGE('',*,*,#746,.F.);
#784=ORIENTED_EDGE('',*,*,#719,.F.);
#785=EDGE_LOOP('',(#781,#782,#783,#784));
#786=FACE_OUTER_BOUND('',#785,.T.);
#787=ADVANCED_FACE('',(#786),#780,.T.);
#788=CLOSED_SHELL('',(#481,#528,#575,#592,#641,#665,#689,#706,#734,#758,#775,#787));
#789=MANIFOLD_SOLID_BREP('398',#788);
#790=STYLED_ITEM('NONE',(#221),#789);
#791=CARTESIAN_POINT('',(-1.520000000000003,-1.520000000000000,0.0));
#792=DIRECTION('',(0.0,-1.0,0.0));
#793=DIRECTION('',(0.0,0.0,-1.0));
#794=AXIS2_PLACEMENT_3D('',#791,#792,#793);
#795=PLANE('',#794);
#796=CARTESIAN_POINT('',(-1.520000000000003,-1.520000000000000,-3.750000000000000));
#797=VERTEX_POINT('',#796);
#798=CARTESIAN_POINT('',(-1.020000000000003,-1.520000000000000,-3.750000000000000));
#799=VERTEX_POINT('',#798);
#800=CARTESIAN_POINT('',(-1.520000000000003,-1.520000000000000,-3.750000000000000));
#801=DIRECTION('',(1.0,0.0,0.0));
#802=VECTOR('',#801,0.500000000000000);
#803=LINE('',#800,#802);
#804=EDGE_CURVE('',#797,#799,#803,.T.);
#805=ORIENTED_EDGE('',*,*,#804,.T.);
#806=CARTESIAN_POINT('',(-1.020000000000003,-1.520000000000000,0.0));
#807=VERTEX_POINT('',#806);
#808=CARTESIAN_POINT('',(-1.020000000000003,-1.520000000000000,0.0));
#809=DIRECTION('',(0.0,0.0,-1.0));
#810=VECTOR('',#809,3.750000000000000);
#811=LINE('',#808,#810);
#812=EDGE_CURVE('',#807,#799,#811,.T.);
#813=ORIENTED_EDGE('',*,*,#812,.F.);
#814=CARTESIAN_POINT('',(-1.520000000000003,-1.520000000000000,0.0));
#815=VERTEX_POINT('',#814);
#816=CARTESIAN_POINT('',(-1.020000000000003,-1.520000000000000,0.0));
#817=DIRECTION('',(-1.0,0.0,0.0));
#818=VECTOR('',#817,0.500000000000000);
#819=LINE('',#816,#818);
#820=EDGE_CURVE('',#807,#815,#819,.T.);
#821=ORIENTED_EDGE('',*,*,#820,.T.);
#822=CARTESIAN_POINT('',(-1.520000000000003,-1.520000000000000,0.0));
#823=DIRECTION('',(0.0,0.0,-1.0));
#824=VECTOR('',#823,3.750000000000000);
#825=LINE('',#822,#824);
#826=EDGE_CURVE('',#815,#797,#825,.T.);
#827=ORIENTED_EDGE('',*,*,#826,.T.);
#828=EDGE_LOOP('',(#805,#813,#821,#827));
#829=FACE_OUTER_BOUND('',#828,.T.);
#830=ADVANCED_FACE('',(#829),#795,.T.);
#831=CARTESIAN_POINT('',(-1.020000000000003,-1.520000000000000,0.0));
#832=DIRECTION('',(1.0,0.0,0.0));
#833=DIRECTION('',(0.0,0.0,-1.0));
#834=AXIS2_PLACEMENT_3D('',#831,#832,#833);
#835=PLANE('',#834);
#836=CARTESIAN_POINT('',(-1.020000000000000,-1.020000000000000,-3.750000000000000));
#837=VERTEX_POINT('',#836);
#838=CARTESIAN_POINT('',(-1.020000000000003,-1.520000000000000,-3.750000000000000));
#839=DIRECTION('',(0.0,1.0,0.0));
#840=VECTOR('',#839,0.500000000000000);
#841=LINE('',#838,#840);
#842=EDGE_CURVE('',#799,#837,#841,.T.);
#843=ORIENTED_EDGE('',*,*,#842,.T.);
#844=CARTESIAN_POINT('',(-1.020000000000000,-1.020000000000000,0.0));
#845=VERTEX_POINT('',#844);
#846=CARTESIAN_POINT('',(-1.020000000000000,-1.020000000000000,0.0));
#847=DIRECTION('',(0.0,0.0,-1.0));
#848=VECTOR('',#847,3.750000000000000);
#849=LINE('',#846,#848);
#850=EDGE_CURVE('',#845,#837,#849,.T.);
#851=ORIENTED_EDGE('',*,*,#850,.F.);
#852=CARTESIAN_POINT('',(-1.020000000000000,-1.020000000000000,0.0));
#853=DIRECTION('',(0.0,-1.0,0.0));
#854=VECTOR('',#853,0.500000000000000);
#855=LINE('',#852,#854);
#856=EDGE_CURVE('',#845,#807,#855,.T.);
#857=ORIENTED_EDGE('',*,*,#856,.T.);
#858=ORIENTED_EDGE('',*,*,#812,.T.);
#859=EDGE_LOOP('',(#843,#851,#857,#858));
#860=FACE_OUTER_BOUND('',#859,.T.);
#861=ADVANCED_FACE('',(#860),#835,.T.);
#862=CARTESIAN_POINT('',(-1.020000000000000,-1.020000000000000,0.0));
#863=DIRECTION('',(0.0,1.0,0.0));
#864=DIRECTION('',(0.0,0.0,1.0));
#865=AXIS2_PLACEMENT_3D('',#862,#863,#864);
#866=PLANE('',#865);
#867=CARTESIAN_POINT('',(-1.520000000000003,-1.020000000000000,-3.750000000000000));
#868=VERTEX_POINT('',#867);
#869=CARTESIAN_POINT('',(-1.020000000000000,-1.020000000000000,-3.750000000000000));
#870=DIRECTION('',(-1.0,0.0,0.0));
#871=VECTOR('',#870,0.500000000000004);
#872=LINE('',#869,#871);
#873=EDGE_CURVE('',#837,#868,#872,.T.);
#874=ORIENTED_EDGE('',*,*,#873,.T.);
#875=CARTESIAN_POINT('',(-1.520000000000003,-1.020000000000000,0.0));
#876=VERTEX_POINT('',#875);
#877=CARTESIAN_POINT('',(-1.520000000000003,-1.020000000000000,0.0));
#878=DIRECTION('',(0.0,0.0,-1.0));
#879=VECTOR('',#878,3.750000000000000);
#880=LINE('',#877,#879);
#881=EDGE_CURVE('',#876,#868,#880,.T.);
#882=ORIENTED_EDGE('',*,*,#881,.F.);
#883=CARTESIAN_POINT('',(-1.520000000000003,-1.020000000000000,0.0));
#884=DIRECTION('',(1.0,0.0,0.0));
#885=VECTOR('',#884,0.500000000000004);
#886=LINE('',#883,#885);
#887=EDGE_CURVE('',#876,#845,#886,.T.);
#888=ORIENTED_EDGE('',*,*,#887,.T.);
#889=ORIENTED_EDGE('',*,*,#850,.T.);
#890=EDGE_LOOP('',(#874,#882,#888,#889));
#891=FACE_OUTER_BOUND('',#890,.T.);
#892=ADVANCED_FACE('',(#891),#866,.T.);
#893=CARTESIAN_POINT('',(-1.520000000000003,-1.020000000000000,0.0));
#894=DIRECTION('',(-1.0,0.0,0.0));
#895=DIRECTION('',(0.0,0.0,1.0));
#896=AXIS2_PLACEMENT_3D('',#893,#894,#895);
#897=PLANE('',#896);
#898=CARTESIAN_POINT('',(-1.520000000000003,-1.020000000000000,-3.750000000000000));
#899=DIRECTION('',(0.0,-1.0,0.0));
#900=VECTOR('',#899,0.500000000000000);
#901=LINE('',#898,#900);
#902=EDGE_CURVE('',#868,#797,#901,.T.);
#903=ORIENTED_EDGE('',*,*,#902,.T.);
#904=ORIENTED_EDGE('',*,*,#826,.F.);
#905=CARTESIAN_POINT('',(-1.520000000000003,-1.520000000000000,0.0));
#906=DIRECTION('',(0.0,1.0,0.0));
#907=VECTOR('',#906,0.500000000000000);
#908=LINE('',#905,#907);
#909=EDGE_CURVE('',#815,#876,#908,.T.);
#910=ORIENTED_EDGE('',*,*,#909,.T.);
#911=ORIENTED_EDGE('',*,*,#881,.T.);
#912=EDGE_LOOP('',(#903,#904,#910,#911));
#913=FACE_OUTER_BOUND('',#912,.T.);
#914=ADVANCED_FACE('',(#913),#897,.T.);
#915=CARTESIAN_POINT('',(-1.270000000000003,-1.270000000000000,-3.750000000000000));
#916=DIRECTION('',(0.0,0.0,1.0));
#917=DIRECTION('',(1.0,0.0,0.0));
#918=AXIS2_PLACEMENT_3D('',#915,#916,#917);
#919=PLANE('',#918);
#920=ORIENTED_EDGE('',*,*,#804,.F.);
#921=ORIENTED_EDGE('',*,*,#902,.F.);
#922=ORIENTED_EDGE('',*,*,#873,.F.);
#923=ORIENTED_EDGE('',*,*,#842,.F.);
#924=EDGE_LOOP('',(#920,#921,#922,#923));
#925=FACE_OUTER_BOUND('',#924,.T.);
#926=ADVANCED_FACE('',(#925),#919,.F.);
#927=CARTESIAN_POINT('',(-1.270000000000003,-1.270000000000000,0.0));
#928=DIRECTION('',(0.0,0.0,1.0));
#929=DIRECTION('',(1.0,0.0,0.0));
#930=AXIS2_PLACEMENT_3D('',#927,#928,#929);
#931=PLANE('',#930);
#932=ORIENTED_EDGE('',*,*,#909,.F.);
#933=ORIENTED_EDGE('',*,*,#820,.F.);
#934=ORIENTED_EDGE('',*,*,#856,.F.);
#935=ORIENTED_EDGE('',*,*,#887,.F.);
#936=EDGE_LOOP('',(#932,#933,#934,#935));
#937=FACE_OUTER_BOUND('',#936,.T.);
#938=ADVANCED_FACE('',(#937),#931,.T.);
#939=CLOSED_SHELL('',(#830,#861,#892,#914,#926,#938));
#940=MANIFOLD_SOLID_BREP('38B',#939);
#941=COLOUR_RGB('254',0.866000000000000,0.866000000000000,0.866000000000000);
#942=SURFACE_STYLE_USAGE(.BOTH.,#943);
#943=SURFACE_SIDE_STYLE('NONE',(#944));
#944=SURFACE_STYLE_FILL_AREA(#945);
#945=FILL_AREA_STYLE('NONE',(#946));
#946=FILL_AREA_STYLE_COLOUR('NONE',#941);
#947=PRESENTATION_STYLE_ASSIGNMENT((#942));
#948=STYLED_ITEM('NONE',(#947),#940);
#949=CARTESIAN_POINT('',(1.019999999999998,-1.520000000000000,0.0));
#950=DIRECTION('',(0.0,-1.0,0.0));
#951=DIRECTION('',(0.0,0.0,-1.0));
#952=AXIS2_PLACEMENT_3D('',#949,#950,#951);
#953=PLANE('',#952);
#954=CARTESIAN_POINT('',(1.019999999999998,-1.520000000000000,-3.750000000000000));
#955=VERTEX_POINT('',#954);
#956=CARTESIAN_POINT('',(1.519999999999996,-1.520000000000000,-3.750000000000000));
#957=VERTEX_POINT('',#956);
#958=CARTESIAN_POINT('',(1.019999999999998,-1.520000000000000,-3.750000000000000));
#959=DIRECTION('',(1.0,0.0,0.0));
#960=VECTOR('',#959,0.499999999999998);
#961=LINE('',#958,#960);
#962=EDGE_CURVE('',#955,#957,#961,.T.);
#963=ORIENTED_EDGE('',*,*,#962,.T.);
#964=CARTESIAN_POINT('',(1.519999999999996,-1.520000000000000,0.0));
#965=VERTEX_POINT('',#964);
#966=CARTESIAN_POINT('',(1.519999999999996,-1.520000000000000,0.0));
#967=DIRECTION('',(0.0,0.0,-1.0));
#968=VECTOR('',#967,3.750000000000000);
#969=LINE('',#966,#968);
#970=EDGE_CURVE('',#965,#957,#969,.T.);
#971=ORIENTED_EDGE('',*,*,#970,.F.);
#972=CARTESIAN_POINT('',(1.019999999999998,-1.520000000000000,0.0));
#973=VERTEX_POINT('',#972);
#974=CARTESIAN_POINT('',(1.519999999999996,-1.520000000000000,0.0));
#975=DIRECTION('',(-1.0,0.0,0.0));
#976=VECTOR('',#975,0.499999999999998);
#977=LINE('',#974,#976);
#978=EDGE_CURVE('',#965,#973,#977,.T.);
#979=ORIENTED_EDGE('',*,*,#978,.T.);
#980=CARTESIAN_POINT('',(1.019999999999998,-1.520000000000000,0.0));
#981=DIRECTION('',(0.0,0.0,-1.0));
#982=VECTOR('',#981,3.750000000000000);
#983=LINE('',#980,#982);
#984=EDGE_CURVE('',#973,#955,#983,.T.);
#985=ORIENTED_EDGE('',*,*,#984,.T.);
#986=EDGE_LOOP('',(#963,#971,#979,#985));
#987=FACE_OUTER_BOUND('',#986,.T.);
#988=ADVANCED_FACE('',(#987),#953,.T.);
#989=CARTESIAN_POINT('',(1.519999999999996,-1.520000000000000,0.0));
#990=DIRECTION('',(1.0,0.0,0.0));
#991=DIRECTION('',(0.0,0.0,-1.0));
#992=AXIS2_PLACEMENT_3D('',#989,#990,#991);
#993=PLANE('',#992);
#994=CARTESIAN_POINT('',(1.520000000000003,-1.020000000000000,-3.750000000000000));
#995=VERTEX_POINT('',#994);
#996=CARTESIAN_POINT('',(1.519999999999996,-1.520000000000000,-3.750000000000000));
#997=DIRECTION('',(0.0,1.0,0.0));
#998=VECTOR('',#997,0.500000000000000);
#999=LINE('',#996,#998);
#1000=EDGE_CURVE('',#957,#995,#999,.T.);
#1001=ORIENTED_EDGE('',*,*,#1000,.T.);
#1002=CARTESIAN_POINT('',(1.520000000000003,-1.020000000000000,0.0));
#1003=VERTEX_POINT('',#1002);
#1004=CARTESIAN_POINT('',(1.520000000000003,-1.020000000000000,0.0));
#1005=DIRECTION('',(0.0,0.0,-1.0));
#1006=VECTOR('',#1005,3.750000000000000);
#1007=LINE('',#1004,#1006);
#1008=EDGE_CURVE('',#1003,#995,#1007,.T.);
#1009=ORIENTED_EDGE('',*,*,#1008,.F.);
#1010=CARTESIAN_POINT('',(1.520000000000003,-1.020000000000000,0.0));
#1011=DIRECTION('',(0.0,-1.0,0.0));
#1012=VECTOR('',#1011,0.500000000000000);
#1013=LINE('',#1010,#1012);
#1014=EDGE_CURVE('',#1003,#965,#1013,.T.);
#1015=ORIENTED_EDGE('',*,*,#1014,.T.);
#1016=ORIENTED_EDGE('',*,*,#970,.T.);
#1017=EDGE_LOOP('',(#1001,#1009,#1015,#1016));
#1018=FACE_OUTER_BOUND('',#1017,.T.);
#1019=ADVANCED_FACE('',(#1018),#993,.T.);
#1020=CARTESIAN_POINT('',(1.520000000000003,-1.020000000000000,0.0));
#1021=DIRECTION('',(0.0,1.0,0.0));
#1022=DIRECTION('',(0.0,0.0,1.0));
#1023=AXIS2_PLACEMENT_3D('',#1020,#1021,#1022);
#1024=PLANE('',#1023);
#1025=CARTESIAN_POINT('',(1.019999999999998,-1.020000000000000,-3.750000000000000));
#1026=VERTEX_POINT('',#1025);
#1027=CARTESIAN_POINT('',(1.520000000000003,-1.020000000000000,-3.750000000000000));
#1028=DIRECTION('',(-1.0,0.0,0.0));
#1029=VECTOR('',#1028,0.500000000000005);
#1030=LINE('',#1027,#1029);
#1031=EDGE_CURVE('',#995,#1026,#1030,.T.);
#1032=ORIENTED_EDGE('',*,*,#1031,.T.);
#1033=CARTESIAN_POINT('',(1.019999999999998,-1.020000000000000,0.0));
#1034=VERTEX_POINT('',#1033);
#1035=CARTESIAN_POINT('',(1.019999999999998,-1.020000000000000,0.0));
#1036=DIRECTION('',(0.0,0.0,-1.0));
#1037=VECTOR('',#1036,3.750000000000000);
#1038=LINE('',#1035,#1037);
#1039=EDGE_CURVE('',#1034,#1026,#1038,.T.);
#1040=ORIENTED_EDGE('',*,*,#1039,.F.);
#1041=CARTESIAN_POINT('',(1.019999999999998,-1.020000000000000,0.0));
#1042=DIRECTION('',(1.0,0.0,0.0));
#1043=VECTOR('',#1042,0.500000000000005);
#1044=LINE('',#1041,#1043);
#1045=EDGE_CURVE('',#1034,#1003,#1044,.T.);
#1046=ORIENTED_EDGE('',*,*,#1045,.T.);
#1047=ORIENTED_EDGE('',*,*,#1008,.T.);
#1048=EDGE_LOOP('',(#1032,#1040,#1046,#1047));
#1049=FACE_OUTER_BOUND('',#1048,.T.);
#1050=ADVANCED_FACE('',(#1049),#1024,.T.);
#1051=CARTESIAN_POINT('',(1.019999999999998,-1.020000000000000,0.0));
#1052=DIRECTION('',(-1.0,0.0,0.0));
#1053=DIRECTION('',(0.0,0.0,1.0));
#1054=AXIS2_PLACEMENT_3D('',#1051,#1052,#1053);
#1055=PLANE('',#1054);
#1056=CARTESIAN_POINT('',(1.019999999999998,-1.020000000000000,-3.750000000000000));
#1057=DIRECTION('',(0.0,-1.0,0.0));
#1058=VECTOR('',#1057,0.500000000000000);
#1059=LINE('',#1056,#1058);
#1060=EDGE_CURVE('',#1026,#955,#1059,.T.);
#1061=ORIENTED_EDGE('',*,*,#1060,.T.);
#1062=ORIENTED_EDGE('',*,*,#984,.F.);
#1063=CARTESIAN_POINT('',(1.019999999999998,-1.520000000000000,0.0));
#1064=DIRECTION('',(0.0,1.0,0.0));
#1065=VECTOR('',#1064,0.500000000000000);
#1066=LINE('',#1063,#1065);
#1067=EDGE_CURVE('',#973,#1034,#1066,.T.);
#1068=ORIENTED_EDGE('',*,*,#1067,.T.);
#1069=ORIENTED_EDGE('',*,*,#1039,.T.);
#1070=EDGE_LOOP('',(#1061,#1062,#1068,#1069));
#1071=FACE_OUTER_BOUND('',#1070,.T.);
#1072=ADVANCED_FACE('',(#1071),#1055,.T.);
#1073=CARTESIAN_POINT('',(1.269999999999996,-1.270000000000000,-3.750000000000000));
#1074=DIRECTION('',(0.0,0.0,1.0));
#1075=DIRECTION('',(1.0,0.0,0.0));
#1076=AXIS2_PLACEMENT_3D('',#1073,#1074,#1075);
#1077=PLANE('',#1076);
#1078=ORIENTED_EDGE('',*,*,#962,.F.);
#1079=ORIENTED_EDGE('',*,*,#1060,.F.);
#1080=ORIENTED_EDGE('',*,*,#1031,.F.);
#1081=ORIENTED_EDGE('',*,*,#1000,.F.);
#1082=EDGE_LOOP('',(#1078,#1079,#1080,#1081));
#1083=FACE_OUTER_BOUND('',#1082,.T.);
#1084=ADVANCED_FACE('',(#1083),#1077,.F.);
#1085=CARTESIAN_POINT('',(1.269999999999996,-1.270000000000000,0.0));
#1086=DIRECTION('',(0.0,0.0,1.0));
#1087=DIRECTION('',(1.0,0.0,0.0));
#1088=AXIS2_PLACEMENT_3D('',#1085,#1086,#1087);
#1089=PLANE('',#1088);
#1090=ORIENTED_EDGE('',*,*,#1067,.F.);
#1091=ORIENTED_EDGE('',*,*,#978,.F.);
#1092=ORIENTED_EDGE('',*,*,#1014,.F.);
#1093=ORIENTED_EDGE('',*,*,#1045,.F.);
#1094=EDGE_LOOP('',(#1090,#1091,#1092,#1093));
#1095=FACE_OUTER_BOUND('',#1094,.T.);
#1096=ADVANCED_FACE('',(#1095),#1089,.T.);
#1097=CLOSED_SHELL('',(#988,#1019,#1050,#1072,#1084,#1096));
#1098=MANIFOLD_SOLID_BREP('38A',#1097);
#1099=STYLED_ITEM('NONE',(#947),#1098);
#1100=CARTESIAN_POINT('',(1.019999999999998,1.020000000000000,0.0));
#1101=DIRECTION('',(0.0,-1.0,0.0));
#1102=DIRECTION('',(0.0,0.0,-1.0));
#1103=AXIS2_PLACEMENT_3D('',#1100,#1101,#1102);
#1104=PLANE('',#1103);
#1105=CARTESIAN_POINT('',(1.019999999999998,1.020000000000000,-3.750000000000000));
#1106=VERTEX_POINT('',#1105);
#1107=CARTESIAN_POINT('',(1.519999999999996,1.020000000000000,-3.750000000000000));
#1108=VERTEX_POINT('',#1107);
#1109=CARTESIAN_POINT('',(1.019999999999998,1.020000000000000,-3.750000000000000));
#1110=DIRECTION('',(1.0,0.0,0.0));
#1111=VECTOR('',#1110,0.499999999999998);
#1112=LINE('',#1109,#1111);
#1113=EDGE_CURVE('',#1106,#1108,#1112,.T.);
#1114=ORIENTED_EDGE('',*,*,#1113,.T.);
#1115=CARTESIAN_POINT('',(1.519999999999996,1.020000000000000,0.0));
#1116=VERTEX_POINT('',#1115);
#1117=CARTESIAN_POINT('',(1.519999999999996,1.020000000000000,0.0));
#1118=DIRECTION('',(0.0,0.0,-1.0));
#1119=VECTOR('',#1118,3.750000000000000);
#1120=LINE('',#1117,#1119);
#1121=EDGE_CURVE('',#1116,#1108,#1120,.T.);
#1122=ORIENTED_EDGE('',*,*,#1121,.F.);
#1123=CARTESIAN_POINT('',(1.019999999999998,1.020000000000000,0.0));
#1124=VERTEX_POINT('',#1123);
#1125=CARTESIAN_POINT('',(1.519999999999996,1.020000000000000,0.0));
#1126=DIRECTION('',(-1.0,0.0,0.0));
#1127=VECTOR('',#1126,0.499999999999998);
#1128=LINE('',#1125,#1127);
#1129=EDGE_CURVE('',#1116,#1124,#1128,.T.);
#1130=ORIENTED_EDGE('',*,*,#1129,.T.);
#1131=CARTESIAN_POINT('',(1.019999999999998,1.020000000000000,0.0));
#1132=DIRECTION('',(0.0,0.0,-1.0));
#1133=VECTOR('',#1132,3.750000000000000);
#1134=LINE('',#1131,#1133);
#1135=EDGE_CURVE('',#1124,#1106,#1134,.T.);
#1136=ORIENTED_EDGE('',*,*,#1135,.T.);
#1137=EDGE_LOOP('',(#1114,#1122,#1130,#1136));
#1138=FACE_OUTER_BOUND('',#1137,.T.);
#1139=ADVANCED_FACE('',(#1138),#1104,.T.);
#1140=CARTESIAN_POINT('',(1.519999999999996,1.020000000000000,0.0));
#1141=DIRECTION('',(1.0,0.0,0.0));
#1142=DIRECTION('',(0.0,0.0,-1.0));
#1143=AXIS2_PLACEMENT_3D('',#1140,#1141,#1142);
#1144=PLANE('',#1143);
#1145=CARTESIAN_POINT('',(1.520000000000003,1.519999999999999,-3.750000000000000));
#1146=VERTEX_POINT('',#1145);
#1147=CARTESIAN_POINT('',(1.519999999999996,1.020000000000000,-3.750000000000000));
#1148=DIRECTION('',(0.0,1.0,0.0));
#1149=VECTOR('',#1148,0.499999999999999);
#1150=LINE('',#1147,#1149);
#1151=EDGE_CURVE('',#1108,#1146,#1150,.T.);
#1152=ORIENTED_EDGE('',*,*,#1151,.T.);
#1153=CARTESIAN_POINT('',(1.520000000000003,1.519999999999999,0.0));
#1154=VERTEX_POINT('',#1153);
#1155=CARTESIAN_POINT('',(1.520000000000003,1.519999999999999,0.0));
#1156=DIRECTION('',(0.0,0.0,-1.0));
#1157=VECTOR('',#1156,3.750000000000000);
#1158=LINE('',#1155,#1157);
#1159=EDGE_CURVE('',#1154,#1146,#1158,.T.);
#1160=ORIENTED_EDGE('',*,*,#1159,.F.);
#1161=CARTESIAN_POINT('',(1.520000000000003,1.519999999999999,0.0));
#1162=DIRECTION('',(0.0,-1.0,0.0));
#1163=VECTOR('',#1162,0.499999999999999);
#1164=LINE('',#1161,#1163);
#1165=EDGE_CURVE('',#1154,#1116,#1164,.T.);
#1166=ORIENTED_EDGE('',*,*,#1165,.T.);
#1167=ORIENTED_EDGE('',*,*,#1121,.T.);
#1168=EDGE_LOOP('',(#1152,#1160,#1166,#1167));
#1169=FACE_OUTER_BOUND('',#1168,.T.);
#1170=ADVANCED_FACE('',(#1169),#1144,.T.);
#1171=CARTESIAN_POINT('',(1.520000000000003,1.519999999999999,0.0));
#1172=DIRECTION('',(0.0,1.0,0.0));
#1173=DIRECTION('',(0.0,0.0,1.0));
#1174=AXIS2_PLACEMENT_3D('',#1171,#1172,#1173);
#1175=PLANE('',#1174);
#1176=CARTESIAN_POINT('',(1.019999999999998,1.520000000000000,-3.750000000000000));
#1177=VERTEX_POINT('',#1176);
#1178=CARTESIAN_POINT('',(1.520000000000003,1.519999999999999,-3.750000000000000));
#1179=DIRECTION('',(-1.0,0.0,0.0));
#1180=VECTOR('',#1179,0.500000000000005);
#1181=LINE('',#1178,#1180);
#1182=EDGE_CURVE('',#1146,#1177,#1181,.T.);
#1183=ORIENTED_EDGE('',*,*,#1182,.T.);
#1184=CARTESIAN_POINT('',(1.019999999999998,1.520000000000000,0.0));
#1185=VERTEX_POINT('',#1184);
#1186=CARTESIAN_POINT('',(1.019999999999998,1.520000000000000,0.0));
#1187=DIRECTION('',(0.0,0.0,-1.0));
#1188=VECTOR('',#1187,3.750000000000000);
#1189=LINE('',#1186,#1188);
#1190=EDGE_CURVE('',#1185,#1177,#1189,.T.);
#1191=ORIENTED_EDGE('',*,*,#1190,.F.);
#1192=CARTESIAN_POINT('',(1.019999999999998,1.520000000000000,0.0));
#1193=DIRECTION('',(1.0,0.0,0.0));
#1194=VECTOR('',#1193,0.500000000000005);
#1195=LINE('',#1192,#1194);
#1196=EDGE_CURVE('',#1185,#1154,#1195,.T.);
#1197=ORIENTED_EDGE('',*,*,#1196,.T.);
#1198=ORIENTED_EDGE('',*,*,#1159,.T.);
#1199=EDGE_LOOP('',(#1183,#1191,#1197,#1198));
#1200=FACE_OUTER_BOUND('',#1199,.T.);
#1201=ADVANCED_FACE('',(#1200),#1175,.T.);
#1202=CARTESIAN_POINT('',(1.019999999999998,1.520000000000000,0.0));
#1203=DIRECTION('',(-1.0,0.0,0.0));
#1204=DIRECTION('',(0.0,0.0,1.0));
#1205=AXIS2_PLACEMENT_3D('',#1202,#1203,#1204);
#1206=PLANE('',#1205);
#1207=CARTESIAN_POINT('',(1.019999999999998,1.520000000000000,-3.750000000000000));
#1208=DIRECTION('',(0.0,-1.0,0.0));
#1209=VECTOR('',#1208,0.500000000000000);
#1210=LINE('',#1207,#1209);
#1211=EDGE_CURVE('',#1177,#1106,#1210,.T.);
#1212=ORIENTED_EDGE('',*,*,#1211,.T.);
#1213=ORIENTED_EDGE('',*,*,#1135,.F.);
#1214=CARTESIAN_POINT('',(1.019999999999998,1.020000000000000,0.0));
#1215=DIRECTION('',(0.0,1.0,0.0));
#1216=VECTOR('',#1215,0.500000000000000);
#1217=LINE('',#1214,#1216);
#1218=EDGE_CURVE('',#1124,#1185,#1217,.T.);
#1219=ORIENTED_EDGE('',*,*,#1218,.T.);
#1220=ORIENTED_EDGE('',*,*,#1190,.T.);
#1221=EDGE_LOOP('',(#1212,#1213,#1219,#1220));
#1222=FACE_OUTER_BOUND('',#1221,.T.);
#1223=ADVANCED_FACE('',(#1222),#1206,.T.);
#1224=CARTESIAN_POINT('',(1.269999999999996,1.270000000000001,-3.750000000000000));
#1225=DIRECTION('',(0.0,0.0,1.0));
#1226=DIRECTION('',(1.0,0.0,0.0));
#1227=AXIS2_PLACEMENT_3D('',#1224,#1225,#1226);
#1228=PLANE('',#1227);
#1229=ORIENTED_EDGE('',*,*,#1113,.F.);
#1230=ORIENTED_EDGE('',*,*,#1211,.F.);
#1231=ORIENTED_EDGE('',*,*,#1182,.F.);
#1232=ORIENTED_EDGE('',*,*,#1151,.F.);
#1233=EDGE_LOOP('',(#1229,#1230,#1231,#1232));
#1234=FACE_OUTER_BOUND('',#1233,.T.);
#1235=ADVANCED_FACE('',(#1234),#1228,.F.);
#1236=CARTESIAN_POINT('',(1.269999999999996,1.270000000000001,0.0));
#1237=DIRECTION('',(0.0,0.0,1.0));
#1238=DIRECTION('',(1.0,0.0,0.0));
#1239=AXIS2_PLACEMENT_3D('',#1236,#1237,#1238);
#1240=PLANE('',#1239);
#1241=ORIENTED_EDGE('',*,*,#1218,.F.);
#1242=ORIENTED_EDGE('',*,*,#1129,.F.);
#1243=ORIENTED_EDGE('',*,*,#1165,.F.);
#1244=ORIENTED_EDGE('',*,*,#1196,.F.);
#1245=EDGE_LOOP('',(#1241,#1242,#1243,#1244));
#1246=FACE_OUTER_BOUND('',#1245,.T.);
#1247=ADVANCED_FACE('',(#1246),#1240,.T.);
#1248=CLOSED_SHELL('',(#1139,#1170,#1201,#1223,#1235,#1247));
#1249=MANIFOLD_SOLID_BREP('389',#1248);
#1250=STYLED_ITEM('NONE',(#947),#1249);
#1251=CARTESIAN_POINT('',(-1.520000000000003,1.020000000000001,0.0));
#1252=DIRECTION('',(0.0,-1.0,0.0));
#1253=DIRECTION('',(0.0,0.0,-1.0));
#1254=AXIS2_PLACEMENT_3D('',#1251,#1252,#1253);
#1255=PLANE('',#1254);
#1256=CARTESIAN_POINT('',(-1.520000000000003,1.020000000000001,-3.750000000000000));
#1257=VERTEX_POINT('',#1256);
#1258=CARTESIAN_POINT('',(-1.020000000000003,1.020000000000001,-3.750000000000000));
#1259=VERTEX_POINT('',#1258);
#1260=CARTESIAN_POINT('',(-1.520000000000003,1.020000000000001,-3.750000000000000));
#1261=DIRECTION('',(1.0,0.0,0.0));
#1262=VECTOR('',#1261,0.500000000000000);
#1263=LINE('',#1260,#1262);
#1264=EDGE_CURVE('',#1257,#1259,#1263,.T.);
#1265=ORIENTED_EDGE('',*,*,#1264,.T.);
#1266=CARTESIAN_POINT('',(-1.020000000000003,1.020000000000001,0.0));
#1267=VERTEX_POINT('',#1266);
#1268=CARTESIAN_POINT('',(-1.020000000000003,1.020000000000001,0.0));
#1269=DIRECTION('',(0.0,0.0,-1.0));
#1270=VECTOR('',#1269,3.750000000000000);
#1271=LINE('',#1268,#1270);
#1272=EDGE_CURVE('',#1267,#1259,#1271,.T.);
#1273=ORIENTED_EDGE('',*,*,#1272,.F.);
#1274=CARTESIAN_POINT('',(-1.520000000000003,1.020000000000001,0.0));
#1275=VERTEX_POINT('',#1274);
#1276=CARTESIAN_POINT('',(-1.020000000000003,1.020000000000001,0.0));
#1277=DIRECTION('',(-1.0,0.0,0.0));
#1278=VECTOR('',#1277,0.500000000000000);
#1279=LINE('',#1276,#1278);
#1280=EDGE_CURVE('',#1267,#1275,#1279,.T.);
#1281=ORIENTED_EDGE('',*,*,#1280,.T.);
#1282=CARTESIAN_POINT('',(-1.520000000000003,1.020000000000001,0.0));
#1283=DIRECTION('',(0.0,0.0,-1.0));
#1284=VECTOR('',#1283,3.750000000000000);
#1285=LINE('',#1282,#1284);
#1286=EDGE_CURVE('',#1275,#1257,#1285,.T.);
#1287=ORIENTED_EDGE('',*,*,#1286,.T.);
#1288=EDGE_LOOP('',(#1265,#1273,#1281,#1287));
#1289=FACE_OUTER_BOUND('',#1288,.T.);
#1290=ADVANCED_FACE('',(#1289),#1255,.T.);
#1291=CARTESIAN_POINT('',(-1.020000000000003,1.020000000000001,0.0));
#1292=DIRECTION('',(1.0,0.0,0.0));
#1293=DIRECTION('',(0.0,0.0,-1.0));
#1294=AXIS2_PLACEMENT_3D('',#1291,#1292,#1293);
#1295=PLANE('',#1294);
#1296=CARTESIAN_POINT('',(-1.020000000000000,1.520000000000000,-3.750000000000000));
#1297=VERTEX_POINT('',#1296);
#1298=CARTESIAN_POINT('',(-1.020000000000003,1.020000000000001,-3.750000000000000));
#1299=DIRECTION('',(0.0,1.0,0.0));
#1300=VECTOR('',#1299,0.499999999999999);
#1301=LINE('',#1298,#1300);
#1302=EDGE_CURVE('',#1259,#1297,#1301,.T.);
#1303=ORIENTED_EDGE('',*,*,#1302,.T.);
#1304=CARTESIAN_POINT('',(-1.020000000000000,1.520000000000000,0.0));
#1305=VERTEX_POINT('',#1304);
#1306=CARTESIAN_POINT('',(-1.020000000000000,1.520000000000000,0.0));
#1307=DIRECTION('',(0.0,0.0,-1.0));
#1308=VECTOR('',#1307,3.750000000000000);
#1309=LINE('',#1306,#1308);
#1310=EDGE_CURVE('',#1305,#1297,#1309,.T.);
#1311=ORIENTED_EDGE('',*,*,#1310,.F.);
#1312=CARTESIAN_POINT('',(-1.020000000000000,1.520000000000000,0.0));
#1313=DIRECTION('',(0.0,-1.0,0.0));
#1314=VECTOR('',#1313,0.499999999999999);
#1315=LINE('',#1312,#1314);
#1316=EDGE_CURVE('',#1305,#1267,#1315,.T.);
#1317=ORIENTED_EDGE('',*,*,#1316,.T.);
#1318=ORIENTED_EDGE('',*,*,#1272,.T.);
#1319=EDGE_LOOP('',(#1303,#1311,#1317,#1318));
#1320=FACE_OUTER_BOUND('',#1319,.T.);
#1321=ADVANCED_FACE('',(#1320),#1295,.T.);
#1322=CARTESIAN_POINT('',(-1.020000000000000,1.520000000000000,0.0));
#1323=DIRECTION('',(0.0,1.0,0.0));
#1324=DIRECTION('',(0.0,0.0,1.0));
#1325=AXIS2_PLACEMENT_3D('',#1322,#1323,#1324);
#1326=PLANE('',#1325);
#1327=CARTESIAN_POINT('',(-1.520000000000003,1.520000000000001,-3.750000000000000));
#1328=VERTEX_POINT('',#1327);
#1329=CARTESIAN_POINT('',(-1.020000000000000,1.520000000000000,-3.750000000000000));
#1330=DIRECTION('',(-1.0,0.0,0.0));
#1331=VECTOR('',#1330,0.500000000000004);
#1332=LINE('',#1329,#1331);
#1333=EDGE_CURVE('',#1297,#1328,#1332,.T.);
#1334=ORIENTED_EDGE('',*,*,#1333,.T.);
#1335=CARTESIAN_POINT('',(-1.520000000000003,1.520000000000001,0.0));
#1336=VERTEX_POINT('',#1335);
#1337=CARTESIAN_POINT('',(-1.520000000000003,1.520000000000001,0.0));
#1338=DIRECTION('',(0.0,0.0,-1.0));
#1339=VECTOR('',#1338,3.750000000000000);
#1340=LINE('',#1337,#1339);
#1341=EDGE_CURVE('',#1336,#1328,#1340,.T.);
#1342=ORIENTED_EDGE('',*,*,#1341,.F.);
#1343=CARTESIAN_POINT('',(-1.520000000000003,1.520000000000001,0.0));
#1344=DIRECTION('',(1.0,0.0,0.0));
#1345=VECTOR('',#1344,0.500000000000004);
#1346=LINE('',#1343,#1345);
#1347=EDGE_CURVE('',#1336,#1305,#1346,.T.);
#1348=ORIENTED_EDGE('',*,*,#1347,.T.);
#1349=ORIENTED_EDGE('',*,*,#1310,.T.);
#1350=EDGE_LOOP('',(#1334,#1342,#1348,#1349));
#1351=FACE_OUTER_BOUND('',#1350,.T.);
#1352=ADVANCED_FACE('',(#1351),#1326,.T.);
#1353=CARTESIAN_POINT('',(-1.520000000000003,1.520000000000001,0.0));
#1354=DIRECTION('',(-1.0,0.0,0.0));
#1355=DIRECTION('',(0.0,0.0,1.0));
#1356=AXIS2_PLACEMENT_3D('',#1353,#1354,#1355);
#1357=PLANE('',#1356);
#1358=CARTESIAN_POINT('',(-1.520000000000003,1.520000000000001,-3.750000000000000));
#1359=DIRECTION('',(0.0,-1.0,0.0));
#1360=VECTOR('',#1359,0.500000000000000);
#1361=LINE('',#1358,#1360);
#1362=EDGE_CURVE('',#1328,#1257,#1361,.T.);
#1363=ORIENTED_EDGE('',*,*,#1362,.T.);
#1364=ORIENTED_EDGE('',*,*,#1286,.F.);
#1365=CARTESIAN_POINT('',(-1.520000000000003,1.020000000000001,0.0));
#1366=DIRECTION('',(0.0,1.0,0.0));
#1367=VECTOR('',#1366,0.500000000000000);
#1368=LINE('',#1365,#1367);
#1369=EDGE_CURVE('',#1275,#1336,#1368,.T.);
#1370=ORIENTED_EDGE('',*,*,#1369,.T.);
#1371=ORIENTED_EDGE('',*,*,#1341,.T.);
#1372=EDGE_LOOP('',(#1363,#1364,#1370,#1371));
#1373=FACE_OUTER_BOUND('',#1372,.T.);
#1374=ADVANCED_FACE('',(#1373),#1357,.T.);
#1375=CARTESIAN_POINT('',(-1.270000000000003,1.270000000000001,-3.750000000000000));
#1376=DIRECTION('',(0.0,0.0,1.0));
#1377=DIRECTION('',(1.0,0.0,0.0));
#1378=AXIS2_PLACEMENT_3D('',#1375,#1376,#1377);
#1379=PLANE('',#1378);
#1380=ORIENTED_EDGE('',*,*,#1264,.F.);
#1381=ORIENTED_EDGE('',*,*,#1362,.F.);
#1382=ORIENTED_EDGE('',*,*,#1333,.F.);
#1383=ORIENTED_EDGE('',*,*,#1302,.F.);
#1384=EDGE_LOOP('',(#1380,#1381,#1382,#1383));
#1385=FACE_OUTER_BOUND('',#1384,.T.);
#1386=ADVANCED_FACE('',(#1385),#1379,.F.);
#1387=CARTESIAN_POINT('',(-1.270000000000003,1.270000000000001,0.0));
#1388=DIRECTION('',(0.0,0.0,1.0));
#1389=DIRECTION('',(1.0,0.0,0.0));
#1390=AXIS2_PLACEMENT_3D('',#1387,#1388,#1389);
#1391=PLANE('',#1390);
#1392=ORIENTED_EDGE('',*,*,#1369,.F.);
#1393=ORIENTED_EDGE('',*,*,#1280,.F.);
#1394=ORIENTED_EDGE('',*,*,#1316,.F.);
#1395=ORIENTED_EDGE('',*,*,#1347,.F.);
#1396=EDGE_LOOP('',(#1392,#1393,#1394,#1395));
#1397=FACE_OUTER_BOUND('',#1396,.T.);
#1398=ADVANCED_FACE('',(#1397),#1391,.T.);
#1399=CLOSED_SHELL('',(#1290,#1321,#1352,#1374,#1386,#1398));
#1400=MANIFOLD_SOLID_BREP('387',#1399);
#1401=STYLED_ITEM('NONE',(#947),#1400);
#1402=ADVANCED_BREP_SHAPE_REPRESENTATION('ABSR1',(#214,#328,#440,#789,#940,#1098,#1249,#1400),#28);
#1403=SHAPE_REPRESENTATION_RELATIONSHIP('SRRPL1','',#1402,#62);
ENDSEC;
END-ISO-10303-21;
