ISO-10303-21;
HEADER;
/****************************************************************
 * Generated by software with PDE/Lib inside                    *
 * PDElib Version v51a, created Thu 12/14/2006                  *
 * International Technegroup Inc. (www.iti-oh.com)              *
 ****************************************************************/
FILE_DESCRIPTION((''),'2;1');
FILE_NAME('SENS_LEM_HX 10-P-SP2.stp','2009-07-29T11:07:45',(''),(''),'Mechanical Desktop 2009','Mechanical Desktop 2009',', , ');
FILE_SCHEMA(('AUTOMOTIVE_DESIGN { 1 2 10303 214 1 1 1 1 }'));
ENDSEC;
DATA;
#8=(NAMED_UNIT(*)PLANE_ANGLE_UNIT()SI_UNIT($,.RADIAN.));
#9=DIMENSIONAL_EXPONENTS(0.0,0.0,0.0,0.0,0.0,0.0,0.0);
#10=PLANE_ANGLE_MEASURE_WITH_UNIT(PLANE_ANGLE_MEASURE(0.017453292500000),#8);
#14=(CONVERSION_BASED_UNIT('DEGREE',#10)NAMED_UNIT(#9)PLANE_ANGLE_UNIT());
#18=(NAMED_UNIT(*)SI_UNIT($,.STERADIAN.)SOLID_ANGLE_UNIT());
#22=(LENGTH_UNIT()NAMED_UNIT(*)SI_UNIT(.MILLI.,.METRE.));
#23=UNCERTAINTY_MEASURE_WITH_UNIT(LENGTH_MEASURE(0.000001000000000),#22,'DISTANCE_ACCURACY_VALUE','');
#28=(GEOMETRIC_REPRESENTATION_CONTEXT(3)GLOBAL_UNCERTAINTY_ASSIGNED_CONTEXT((#23))GLOBAL_UNIT_ASSIGNED_CONTEXT((#14,#18,#22))REPRESENTATION_CONTEXT('None','None'));
#29=APPLICATION_CONTEXT('automotive design');
#30=APPLICATION_PROTOCOL_DEFINITION('INTERNATIONAL_STANDARD','automotive_design',1998,#29);
#31=PRODUCT_CONTEXT('3D Mechanical Parts',#29,'mechanical');
#32=PRODUCT('Product','Product','',(#31));
#33=PRODUCT_RELATED_PRODUCT_CATEGORY('part',$,(#32));
#34=PRODUCT_CATEGORY('part',$);
#35=PERSON('1','Design','Joe',$,$,$);
#36=ORGANIZATION($,'None','None');
#37=PERSON_AND_ORGANIZATION(#35,#36);
#38=PERSON_AND_ORGANIZATION_ROLE('design_owner');
#39=APPLIED_PERSON_AND_ORGANIZATION_ASSIGNMENT(#37,#38,(#32));
#40=PRODUCT_DEFINITION_FORMATION_WITH_SPECIFIED_SOURCE('None','',#32,.BOUGHT.);
#41=PERSON('2','Creator','Joe',$,$,$);
#42=ORGANIZATION($,'None','None');
#43=PERSON_AND_ORGANIZATION(#41,#42);
#44=PERSON_AND_ORGANIZATION_ROLE('creator');
#45=APPLIED_PERSON_AND_ORGANIZATION_ASSIGNMENT(#43,#44,(#40));
#46=PERSON('3','Supplier','Joe',$,$,$);
#47=ORGANIZATION($,'None','None');
#48=PERSON_AND_ORGANIZATION(#46,#47);
#49=PERSON_AND_ORGANIZATION_ROLE('design_supplier');
#50=APPLIED_PERSON_AND_ORGANIZATION_ASSIGNMENT(#48,#49,(#40));
#51=PRODUCT_DEFINITION_CONTEXT('part definition',#29,'design');
#52=PRODUCT_DEFINITION('None','',#40,#51);
#53=PERSON('4','Creator','Joe',$,$,$);
#54=ORGANIZATION($,'None','None');
#55=PERSON_AND_ORGANIZATION(#53,#54);
#56=PERSON_AND_ORGANIZATION_ROLE('creator');
#57=APPLIED_PERSON_AND_ORGANIZATION_ASSIGNMENT(#55,#56,(#52));
#58=CARTESIAN_POINT('NONE',(0.0,0.0,0.0));
#59=DIRECTION('NONE',(0.0,0.0,1.0));
#60=DIRECTION('NONE',(1.0,0.0,0.0));
#61=AXIS2_PLACEMENT_3D('NONE',#58,#59,#60);
#62=SHAPE_REPRESENTATION('SR1',(#61),#28);
#63=PRODUCT_DEFINITION_SHAPE('PDS1','Test Part',#52);
#64=SHAPE_DEFINITION_REPRESENTATION(#63,#62);
#65=CARTESIAN_POINT('',(4.349999999999909,3.200000000000046,-2.0));
#66=DIRECTION('',(0.0,-1.224647E-016,-1.0));
#67=DIRECTION('',(1.0,0.0,0.0));
#68=AXIS2_PLACEMENT_3D('',#65,#66,#67);
#69=CYLINDRICAL_SURFACE('',#68,0.550000000000000);
#70=CARTESIAN_POINT('',(4.899999999999909,3.200000000000046,-4.0));
#71=VERTEX_POINT('',#70);
#72=CARTESIAN_POINT('',(4.899999999999909,3.200000000000047,0.0));
#73=VERTEX_POINT('',#72);
#74=CARTESIAN_POINT('',(4.899999999999909,3.200000000000046,-4.0));
#75=DIRECTION('',(0.0,0.0,1.0));
#76=VECTOR('',#75,4.0);
#77=LINE('',#74,#76);
#78=EDGE_CURVE('',#71,#73,#77,.T.);
#79=ORIENTED_EDGE('',*,*,#78,.F.);
#80=CARTESIAN_POINT('',(3.799999999999909,3.200000000000046,-4.0));
#81=VERTEX_POINT('',#80);
#82=CARTESIAN_POINT('',(4.349999999999909,3.200000000000046,-4.0));
#83=DIRECTION('',(0.0,0.0,-1.0));
#84=DIRECTION('',(1.0,0.0,0.0));
#85=AXIS2_PLACEMENT_3D('',#82,#83,#84);
#86=CIRCLE('',#85,0.550000000000000);
#87=EDGE_CURVE('',#81,#71,#86,.T.);
#88=ORIENTED_EDGE('',*,*,#87,.F.);
#89=CARTESIAN_POINT('',(3.799999999999909,3.200000000000047,0.0));
#90=VERTEX_POINT('',#89);
#91=CARTESIAN_POINT('',(3.799999999999909,3.200000000000046,-4.0));
#92=DIRECTION('',(0.0,0.0,1.0));
#93=VECTOR('',#92,4.0);
#94=LINE('',#91,#93);
#95=EDGE_CURVE('',#81,#90,#94,.T.);
#96=ORIENTED_EDGE('',*,*,#95,.T.);
#97=CARTESIAN_POINT('',(4.349999999999909,3.200000000000047,0.0));
#98=DIRECTION('',(0.0,0.0,1.0));
#99=DIRECTION('',(1.0,0.0,0.0));
#100=AXIS2_PLACEMENT_3D('',#97,#98,#99);
#101=CIRCLE('',#100,0.550000000000000);
#102=EDGE_CURVE('',#73,#90,#101,.T.);
#103=ORIENTED_EDGE('',*,*,#102,.F.);
#104=EDGE_LOOP('',(#79,#88,#96,#103));
#105=FACE_OUTER_BOUND('',#104,.T.);
#106=ADVANCED_FACE('',(#105),#69,.T.);
#107=CARTESIAN_POINT('',(4.349999999999909,3.200000000000046,-2.0));
#108=DIRECTION('',(0.0,-1.224647E-016,-1.0));
#109=DIRECTION('',(1.0,0.0,0.0));
#110=AXIS2_PLACEMENT_3D('',#107,#108,#109);
#111=CYLINDRICAL_SURFACE('',#110,0.550000000000000);
#112=ORIENTED_EDGE('',*,*,#78,.T.);
#113=CARTESIAN_POINT('',(4.349999999999909,3.200000000000047,0.0));
#114=DIRECTION('',(0.0,0.0,1.0));
#115=DIRECTION('',(1.0,0.0,0.0));
#116=AXIS2_PLACEMENT_3D('',#113,#114,#115);
#117=CIRCLE('',#116,0.550000000000000);
#118=EDGE_CURVE('',#90,#73,#117,.T.);
#119=ORIENTED_EDGE('',*,*,#118,.F.);
#120=ORIENTED_EDGE('',*,*,#95,.F.);
#121=CARTESIAN_POINT('',(4.349999999999909,3.200000000000046,-4.0));
#122=DIRECTION('',(0.0,0.0,-1.0));
#123=DIRECTION('',(1.0,0.0,0.0));
#124=AXIS2_PLACEMENT_3D('',#121,#122,#123);
#125=CIRCLE('',#124,0.550000000000000);
#126=EDGE_CURVE('',#71,#81,#125,.T.);
#127=ORIENTED_EDGE('',*,*,#126,.F.);
#128=EDGE_LOOP('',(#112,#119,#120,#127));
#129=FACE_OUTER_BOUND('',#128,.T.);
#130=ADVANCED_FACE('',(#129),#111,.T.);
#131=CARTESIAN_POINT('',(4.349999999999909,3.200000000000047,0.0));
#132=DIRECTION('',(0.0,0.0,1.0));
#133=DIRECTION('',(-1.0,0.0,0.0));
#134=AXIS2_PLACEMENT_3D('',#131,#132,#133);
#135=PLANE('',#134);
#136=ORIENTED_EDGE('',*,*,#102,.T.);
#137=ORIENTED_EDGE('',*,*,#118,.T.);
#138=EDGE_LOOP('',(#136,#137));
#139=FACE_OUTER_BOUND('',#138,.T.);
#140=ADVANCED_FACE('',(#139),#135,.T.);
#141=CARTESIAN_POINT('',(4.349999999999909,3.200000000000046,-4.0));
#142=DIRECTION('',(0.0,0.0,-1.0));
#143=DIRECTION('',(1.0,0.0,0.0));
#144=AXIS2_PLACEMENT_3D('',#141,#142,#143);
#145=PLANE('',#144);
#146=ORIENTED_EDGE('',*,*,#126,.T.);
#147=ORIENTED_EDGE('',*,*,#87,.T.);
#148=EDGE_LOOP('',(#146,#147));
#149=FACE_OUTER_BOUND('',#148,.T.);
#150=ADVANCED_FACE('',(#149),#145,.T.);
#151=CLOSED_SHELL('',(#106,#130,#140,#150));
#152=MANIFOLD_SOLID_BREP('204',#151);
#153=COLOUR_RGB('9',0.750000000000000,0.750000000000000,0.750000000000000);
#154=SURFACE_STYLE_USAGE(.BOTH.,#155);
#155=SURFACE_SIDE_STYLE('NONE',(#156));
#156=SURFACE_STYLE_FILL_AREA(#157);
#157=FILL_AREA_STYLE('NONE',(#158));
#158=FILL_AREA_STYLE_COLOUR('NONE',#153);
#159=PRESENTATION_STYLE_ASSIGNMENT((#154));
#160=STYLED_ITEM('NONE',(#159),#152);
#161=MECHANICAL_DESIGN_GEOMETRIC_PRESENTATION_REPRESENTATION('NONE',(#160,#251,#1013,#1164,#1315,#1466,#1617),#28);
#162=PRESENTATION_LAYER_ASSIGNMENT('0','None',(#152,#250,#1005,#1163,#1314,#1465,#1616));
#163=CARTESIAN_POINT('',(4.349999999999909,-2.799999999999955,-2.0));
#164=DIRECTION('',(0.0,-1.224647E-016,-1.0));
#165=DIRECTION('',(1.0,0.0,0.0));
#166=AXIS2_PLACEMENT_3D('',#163,#164,#165);
#167=CYLINDRICAL_SURFACE('',#166,0.550000000000000);
#168=CARTESIAN_POINT('',(4.899999999999909,-2.799999999999956,-4.0));
#169=VERTEX_POINT('',#168);
#170=CARTESIAN_POINT('',(4.899999999999909,-2.799999999999955,0.0));
#171=VERTEX_POINT('',#170);
#172=CARTESIAN_POINT('',(4.899999999999909,-2.799999999999956,-4.0));
#173=DIRECTION('',(0.0,0.0,1.0));
#174=VECTOR('',#173,4.0);
#175=LINE('',#172,#174);
#176=EDGE_CURVE('',#169,#171,#175,.T.);
#177=ORIENTED_EDGE('',*,*,#176,.F.);
#178=CARTESIAN_POINT('',(3.799999999999909,-2.799999999999956,-4.0));
#179=VERTEX_POINT('',#178);
#180=CARTESIAN_POINT('',(4.349999999999909,-2.799999999999956,-4.0));
#181=DIRECTION('',(0.0,0.0,-1.0));
#182=DIRECTION('',(1.0,0.0,0.0));
#183=AXIS2_PLACEMENT_3D('',#180,#181,#182);
#184=CIRCLE('',#183,0.550000000000000);
#185=EDGE_CURVE('',#179,#169,#184,.T.);
#186=ORIENTED_EDGE('',*,*,#185,.F.);
#187=CARTESIAN_POINT('',(3.799999999999909,-2.799999999999955,0.0));
#188=VERTEX_POINT('',#187);
#189=CARTESIAN_POINT('',(3.799999999999909,-2.799999999999956,-4.0));
#190=DIRECTION('',(0.0,0.0,1.0));
#191=VECTOR('',#190,4.0);
#192=LINE('',#189,#191);
#193=EDGE_CURVE('',#179,#188,#192,.T.);
#194=ORIENTED_EDGE('',*,*,#193,.T.);
#195=CARTESIAN_POINT('',(4.349999999999909,-2.799999999999955,0.0));
#196=DIRECTION('',(0.0,0.0,1.0));
#197=DIRECTION('',(1.0,0.0,0.0));
#198=AXIS2_PLACEMENT_3D('',#195,#196,#197);
#199=CIRCLE('',#198,0.550000000000000);
#200=EDGE_CURVE('',#171,#188,#199,.T.);
#201=ORIENTED_EDGE('',*,*,#200,.F.);
#202=EDGE_LOOP('',(#177,#186,#194,#201));
#203=FACE_OUTER_BOUND('',#202,.T.);
#204=ADVANCED_FACE('',(#203),#167,.T.);
#205=CARTESIAN_POINT('',(4.349999999999909,-2.799999999999955,-2.0));
#206=DIRECTION('',(0.0,-1.224647E-016,-1.0));
#207=DIRECTION('',(1.0,0.0,0.0));
#208=AXIS2_PLACEMENT_3D('',#205,#206,#207);
#209=CYLINDRICAL_SURFACE('',#208,0.550000000000000);
#210=ORIENTED_EDGE('',*,*,#176,.T.);
#211=CARTESIAN_POINT('',(4.349999999999909,-2.799999999999955,0.0));
#212=DIRECTION('',(0.0,0.0,1.0));
#213=DIRECTION('',(1.0,0.0,0.0));
#214=AXIS2_PLACEMENT_3D('',#211,#212,#213);
#215=CIRCLE('',#214,0.550000000000000);
#216=EDGE_CURVE('',#188,#171,#215,.T.);
#217=ORIENTED_EDGE('',*,*,#216,.F.);
#218=ORIENTED_EDGE('',*,*,#193,.F.);
#219=CARTESIAN_POINT('',(4.349999999999909,-2.799999999999956,-4.0));
#220=DIRECTION('',(0.0,0.0,-1.0));
#221=DIRECTION('',(1.0,0.0,0.0));
#222=AXIS2_PLACEMENT_3D('',#219,#220,#221);
#223=CIRCLE('',#222,0.550000000000000);
#224=EDGE_CURVE('',#169,#179,#223,.T.);
#225=ORIENTED_EDGE('',*,*,#224,.F.);
#226=EDGE_LOOP('',(#210,#217,#218,#225));
#227=FACE_OUTER_BOUND('',#226,.T.);
#228=ADVANCED_FACE('',(#227),#209,.T.);
#229=CARTESIAN_POINT('',(4.349999999999909,-2.799999999999955,0.0));
#230=DIRECTION('',(0.0,0.0,1.0));
#231=DIRECTION('',(-1.0,0.0,0.0));
#232=AXIS2_PLACEMENT_3D('',#229,#230,#231);
#233=PLANE('',#232);
#234=ORIENTED_EDGE('',*,*,#200,.T.);
#235=ORIENTED_EDGE('',*,*,#216,.T.);
#236=EDGE_LOOP('',(#234,#235));
#237=FACE_OUTER_BOUND('',#236,.T.);
#238=ADVANCED_FACE('',(#237),#233,.T.);
#239=CARTESIAN_POINT('',(4.349999999999909,-2.799999999999956,-4.0));
#240=DIRECTION('',(0.0,0.0,-1.0));
#241=DIRECTION('',(1.0,0.0,0.0));
#242=AXIS2_PLACEMENT_3D('',#239,#240,#241);
#243=PLANE('',#242);
#244=ORIENTED_EDGE('',*,*,#224,.T.);
#245=ORIENTED_EDGE('',*,*,#185,.T.);
#246=EDGE_LOOP('',(#244,#245));
#247=FACE_OUTER_BOUND('',#246,.T.);
#248=ADVANCED_FACE('',(#247),#243,.T.);
#249=CLOSED_SHELL('',(#204,#228,#238,#248));
#250=MANIFOLD_SOLID_BREP('200',#249);
#251=STYLED_ITEM('NONE',(#159),#250);
#252=CARTESIAN_POINT('',(-7.500000000000000,5.700000000000047,0.0));
#253=CARTESIAN_POINT('',(-8.0,5.700000000000047,4.306366E-017));
#254=CARTESIAN_POINT('',(-8.0,5.700000000000047,0.500000000000000));
#255=CARTESIAN_POINT('',(-7.500000000000000,5.700000000000046,0.0));
#256=CARTESIAN_POINT('',(-8.0,6.200000000000047,4.306366E-017));
#257=CARTESIAN_POINT('',(-8.0,6.200000000000047,0.500000000000000));
#258=CARTESIAN_POINT('',(-7.500000000000000,5.700000000000047,0.0));
#259=CARTESIAN_POINT('',(-7.500000000000002,6.200000000000047,5.551115E-017));
#260=CARTESIAN_POINT('',(-7.500000000000000,6.200000000000047,0.500000000000000));
#261=CARTESIAN_POINT('',(-7.500000000000000,5.700000000000046,0.0));
#262=CARTESIAN_POINT('',(-7.0,6.200000000000047,6.795864E-017));
#263=CARTESIAN_POINT('',(-6.999999999999997,6.200000000000047,0.500000000000000));
#264=CARTESIAN_POINT('',(-7.500000000000000,5.700000000000047,0.0));
#265=CARTESIAN_POINT('',(-7.0,5.700000000000047,6.795864E-017));
#266=CARTESIAN_POINT('',(-7.0,5.700000000000047,0.500000000000000));
#267=CARTESIAN_POINT('',(-7.500000000000000,5.700000000000046,0.0));
#268=CARTESIAN_POINT('',(-7.0,5.200000000000046,6.795864E-017));
#269=CARTESIAN_POINT('',(-6.999999999999997,5.200000000000046,0.500000000000000));
#270=CARTESIAN_POINT('',(-7.500000000000000,5.700000000000047,0.0));
#271=CARTESIAN_POINT('',(-7.500000000000002,5.200000000000046,5.551115E-017));
#272=CARTESIAN_POINT('',(-7.500000000000000,5.200000000000046,0.500000000000000));
#273=CARTESIAN_POINT('',(-7.500000000000000,5.700000000000046,0.0));
#274=CARTESIAN_POINT('',(-8.0,5.200000000000046,4.306366E-017));
#275=CARTESIAN_POINT('',(-8.0,5.200000000000046,0.500000000000000));
#276=CARTESIAN_POINT('',(-7.500000000000000,5.700000000000047,0.0));
#277=CARTESIAN_POINT('',(-8.0,5.700000000000047,4.306366E-017));
#278=CARTESIAN_POINT('',(-8.0,5.700000000000047,0.500000000000000));
#286=(BOUNDED_SURFACE()B_SPLINE_SURFACE(2,2,((#252,#255,#258,#261,#264,#267,#270,#273,#276),(#253,#256,#259,#262,#265,#268,#271,#274,#277),(#254,#257,#260,#263,#266,#269,#272,#275,#278)),.UNSPECIFIED.,.F.,.T.,.U.)B_SPLINE_SURFACE_WITH_KNOTS((3,3),(3,2,2,2,3),(-1.570796326794897,0.0),(0.0,1.570796326794897,3.141592653589793,4.712388980384691,6.283185307179585),.UNSPECIFIED.)GEOMETRIC_REPRESENTATION_ITEM()RATIONAL_B_SPLINE_SURFACE(((1.0,0.707106781186548,1.0,0.707106781186548,1.0,0.707106781186548,1.0,0.707106781186548,1.0),(0.707106781186549,0.500000000000001,0.707106781186549,0.500000000000001,0.707106781186549,0.500000000000001,0.707106781186549,0.500000000000001,0.707106781186549),(1.0,0.707106781186548,1.0,0.707106781186548,1.0,0.707106781186548,1.0,0.707106781186548,1.0)))REPRESENTATION_ITEM('')SURFACE());
#287=CARTESIAN_POINT('',(-7.0,5.700000000000047,0.500000000000000));
#288=VERTEX_POINT('',#287);
#289=CARTESIAN_POINT('',(-7.500000000000000,5.700000000000047,0.0));
#290=VERTEX_POINT('',#289);
#291=CARTESIAN_POINT('',(-7.500000000000000,5.700000000000047,0.500000000000000));
#292=DIRECTION('',(0.0,1.0,0.0));
#293=DIRECTION('',(1.0,0.0,0.0));
#294=AXIS2_PLACEMENT_3D('',#291,#292,#293);
#295=CIRCLE('',#294,0.500000000000000);
#296=EDGE_CURVE('',#288,#290,#295,.T.);
#297=ORIENTED_EDGE('',*,*,#296,.F.);
#298=CARTESIAN_POINT('',(-8.0,5.700000000000047,0.500000000000000));
#299=VERTEX_POINT('',#298);
#300=CARTESIAN_POINT('',(-7.500000000000000,5.700000000000047,0.500000000000000));
#301=DIRECTION('',(0.0,0.0,1.0));
#302=DIRECTION('',(0.0,-1.0,0.0));
#303=AXIS2_PLACEMENT_3D('',#300,#301,#302);
#304=CIRCLE('',#303,0.500000000000000);
#305=EDGE_CURVE('',#299,#288,#304,.T.);
#306=ORIENTED_EDGE('',*,*,#305,.F.);
#307=CARTESIAN_POINT('',(-7.500000000000000,5.700000000000047,0.500000000000000));
#308=DIRECTION('',(0.0,-1.0,0.0));
#309=DIRECTION('',(-1.0,0.0,0.0));
#310=AXIS2_PLACEMENT_3D('',#307,#308,#309);
#311=CIRCLE('',#310,0.500000000000000);
#312=EDGE_CURVE('',#299,#290,#311,.T.);
#313=ORIENTED_EDGE('',*,*,#312,.T.);
#314=EDGE_LOOP('',(#297,#306,#313));
#315=FACE_OUTER_BOUND('',#314,.T.);
#316=ADVANCED_FACE('',(#315),#286,.T.);
#317=CARTESIAN_POINT('',(-7.500000000000000,-5.700000000000047,0.0));
#318=CARTESIAN_POINT('',(-8.0,-5.700000000000047,4.306366E-017));
#319=CARTESIAN_POINT('',(-8.0,-5.700000000000047,0.500000000000000));
#320=CARTESIAN_POINT('',(-7.500000000000000,-5.700000000000046,0.0));
#321=CARTESIAN_POINT('',(-8.0,-5.200000000000046,4.306366E-017));
#322=CARTESIAN_POINT('',(-8.0,-5.200000000000046,0.500000000000000));
#323=CARTESIAN_POINT('',(-7.500000000000000,-5.700000000000047,0.0));
#324=CARTESIAN_POINT('',(-7.500000000000002,-5.200000000000046,5.551115E-017));
#325=CARTESIAN_POINT('',(-7.500000000000000,-5.200000000000046,0.500000000000000));
#326=CARTESIAN_POINT('',(-7.500000000000000,-5.700000000000046,0.0));
#327=CARTESIAN_POINT('',(-7.0,-5.200000000000046,6.795864E-017));
#328=CARTESIAN_POINT('',(-6.999999999999997,-5.200000000000046,0.500000000000000));
#329=CARTESIAN_POINT('',(-7.500000000000000,-5.700000000000047,0.0));
#330=CARTESIAN_POINT('',(-7.0,-5.700000000000047,6.795864E-017));
#331=CARTESIAN_POINT('',(-7.0,-5.700000000000047,0.500000000000000));
#332=CARTESIAN_POINT('',(-7.500000000000000,-5.700000000000046,0.0));
#333=CARTESIAN_POINT('',(-7.0,-6.200000000000047,6.795864E-017));
#334=CARTESIAN_POINT('',(-6.999999999999997,-6.200000000000047,0.500000000000000));
#335=CARTESIAN_POINT('',(-7.500000000000000,-5.700000000000047,0.0));
#336=CARTESIAN_POINT('',(-7.500000000000002,-6.200000000000047,5.551115E-017));
#337=CARTESIAN_POINT('',(-7.500000000000000,-6.200000000000047,0.500000000000000));
#338=CARTESIAN_POINT('',(-7.500000000000000,-5.700000000000046,0.0));
#339=CARTESIAN_POINT('',(-8.0,-6.200000000000047,4.306366E-017));
#340=CARTESIAN_POINT('',(-8.0,-6.200000000000047,0.500000000000000));
#341=CARTESIAN_POINT('',(-7.500000000000000,-5.700000000000047,0.0));
#342=CARTESIAN_POINT('',(-8.0,-5.700000000000047,4.306366E-017));
#343=CARTESIAN_POINT('',(-8.0,-5.700000000000047,0.500000000000000));
#351=(BOUNDED_SURFACE()B_SPLINE_SURFACE(2,2,((#317,#320,#323,#326,#329,#332,#335,#338,#341),(#318,#321,#324,#327,#330,#333,#336,#339,#342),(#319,#322,#325,#328,#331,#334,#337,#340,#343)),.UNSPECIFIED.,.F.,.T.,.U.)B_SPLINE_SURFACE_WITH_KNOTS((3,3),(3,2,2,2,3),(-1.570796326794897,0.0),(0.0,1.570796326794897,3.141592653589793,4.712388980384691,6.283185307179585),.UNSPECIFIED.)GEOMETRIC_REPRESENTATION_ITEM()RATIONAL_B_SPLINE_SURFACE(((1.0,0.707106781186548,1.0,0.707106781186548,1.0,0.707106781186548,1.0,0.707106781186548,1.0),(0.707106781186549,0.500000000000001,0.707106781186549,0.500000000000001,0.707106781186549,0.500000000000001,0.707106781186549,0.500000000000001,0.707106781186549),(1.0,0.707106781186548,1.0,0.707106781186548,1.0,0.707106781186548,1.0,0.707106781186548,1.0)))REPRESENTATION_ITEM('')SURFACE());
#352=CARTESIAN_POINT('',(-7.0,-5.700000000000047,0.500000000000000));
#353=VERTEX_POINT('',#352);
#354=CARTESIAN_POINT('',(-7.500000000000000,-5.700000000000047,0.0));
#355=VERTEX_POINT('',#354);
#356=CARTESIAN_POINT('',(-7.500000000000000,-5.700000000000047,0.500000000000000));
#357=DIRECTION('',(0.0,1.0,0.0));
#358=DIRECTION('',(1.0,0.0,0.0));
#359=AXIS2_PLACEMENT_3D('',#356,#357,#358);
#360=CIRCLE('',#359,0.500000000000000);
#361=EDGE_CURVE('',#353,#355,#360,.T.);
#362=ORIENTED_EDGE('',*,*,#361,.F.);
#363=CARTESIAN_POINT('',(-8.0,-5.700000000000047,0.500000000000000));
#364=VERTEX_POINT('',#363);
#365=CARTESIAN_POINT('',(-7.500000000000000,-5.700000000000047,0.500000000000000));
#366=DIRECTION('',(0.0,0.0,1.0));
#367=DIRECTION('',(0.0,-1.0,0.0));
#368=AXIS2_PLACEMENT_3D('',#365,#366,#367);
#369=CIRCLE('',#368,0.500000000000000);
#370=EDGE_CURVE('',#364,#353,#369,.T.);
#371=ORIENTED_EDGE('',*,*,#370,.F.);
#372=CARTESIAN_POINT('',(-7.500000000000000,-5.700000000000047,0.500000000000000));
#373=DIRECTION('',(0.0,-1.0,0.0));
#374=DIRECTION('',(-1.0,0.0,0.0));
#375=AXIS2_PLACEMENT_3D('',#372,#373,#374);
#376=CIRCLE('',#375,0.500000000000000);
#377=EDGE_CURVE('',#364,#355,#376,.T.);
#378=ORIENTED_EDGE('',*,*,#377,.T.);
#379=EDGE_LOOP('',(#362,#371,#378));
#380=FACE_OUTER_BOUND('',#379,.T.);
#381=ADVANCED_FACE('',(#380),#351,.T.);
#382=CARTESIAN_POINT('',(7.500000000000000,5.700000000000047,0.0));
#383=CARTESIAN_POINT('',(7.0,5.700000000000047,4.306366E-017));
#384=CARTESIAN_POINT('',(7.0,5.700000000000047,0.500000000000000));
#385=CARTESIAN_POINT('',(7.500000000000000,5.700000000000046,0.0));
#386=CARTESIAN_POINT('',(7.0,6.200000000000047,4.306366E-017));
#387=CARTESIAN_POINT('',(6.999999999999997,6.200000000000047,0.500000000000000));
#388=CARTESIAN_POINT('',(7.500000000000000,5.700000000000047,0.0));
#389=CARTESIAN_POINT('',(7.500000000000002,6.200000000000047,5.551115E-017));
#390=CARTESIAN_POINT('',(7.500000000000000,6.200000000000047,0.500000000000000));
#391=CARTESIAN_POINT('',(7.500000000000000,5.700000000000046,0.0));
#392=CARTESIAN_POINT('',(8.0,6.200000000000047,6.795864E-017));
#393=CARTESIAN_POINT('',(8.0,6.200000000000047,0.500000000000000));
#394=CARTESIAN_POINT('',(7.500000000000000,5.700000000000047,0.0));
#395=CARTESIAN_POINT('',(8.0,5.700000000000047,6.795864E-017));
#396=CARTESIAN_POINT('',(8.0,5.700000000000047,0.500000000000000));
#397=CARTESIAN_POINT('',(7.500000000000000,5.700000000000046,0.0));
#398=CARTESIAN_POINT('',(8.0,5.200000000000046,6.795864E-017));
#399=CARTESIAN_POINT('',(8.0,5.200000000000046,0.500000000000000));
#400=CARTESIAN_POINT('',(7.500000000000000,5.700000000000047,0.0));
#401=CARTESIAN_POINT('',(7.500000000000002,5.200000000000046,5.551115E-017));
#402=CARTESIAN_POINT('',(7.500000000000000,5.200000000000046,0.500000000000000));
#403=CARTESIAN_POINT('',(7.500000000000000,5.700000000000046,0.0));
#404=CARTESIAN_POINT('',(7.0,5.200000000000046,4.306366E-017));
#405=CARTESIAN_POINT('',(6.999999999999997,5.200000000000046,0.500000000000000));
#406=CARTESIAN_POINT('',(7.500000000000000,5.700000000000047,0.0));
#407=CARTESIAN_POINT('',(7.0,5.700000000000047,4.306366E-017));
#408=CARTESIAN_POINT('',(7.0,5.700000000000047,0.500000000000000));
#416=(BOUNDED_SURFACE()B_SPLINE_SURFACE(2,2,((#382,#385,#388,#391,#394,#397,#400,#403,#406),(#383,#386,#389,#392,#395,#398,#401,#404,#407),(#384,#387,#390,#393,#396,#399,#402,#405,#408)),.UNSPECIFIED.,.F.,.T.,.U.)B_SPLINE_SURFACE_WITH_KNOTS((3,3),(3,2,2,2,3),(-1.570796326794897,0.0),(0.0,1.570796326794897,3.141592653589793,4.712388980384691,6.283185307179585),.UNSPECIFIED.)GEOMETRIC_REPRESENTATION_ITEM()RATIONAL_B_SPLINE_SURFACE(((1.0,0.707106781186548,1.0,0.707106781186548,1.0,0.707106781186548,1.0,0.707106781186548,1.0),(0.707106781186549,0.500000000000001,0.707106781186549,0.500000000000001,0.707106781186549,0.500000000000001,0.707106781186549,0.500000000000001,0.707106781186549),(1.0,0.707106781186548,1.0,0.707106781186548,1.0,0.707106781186548,1.0,0.707106781186548,1.0)))REPRESENTATION_ITEM('')SURFACE());
#417=CARTESIAN_POINT('',(8.0,5.700000000000047,0.500000000000000));
#418=VERTEX_POINT('',#417);
#419=CARTESIAN_POINT('',(7.500000000000000,5.700000000000047,0.0));
#420=VERTEX_POINT('',#419);
#421=CARTESIAN_POINT('',(7.500000000000000,5.700000000000047,0.500000000000000));
#422=DIRECTION('',(0.0,1.0,0.0));
#423=DIRECTION('',(1.0,0.0,0.0));
#424=AXIS2_PLACEMENT_3D('',#421,#422,#423);
#425=CIRCLE('',#424,0.500000000000000);
#426=EDGE_CURVE('',#418,#420,#425,.T.);
#427=ORIENTED_EDGE('',*,*,#426,.F.);
#428=CARTESIAN_POINT('',(7.0,5.700000000000047,0.500000000000000));
#429=VERTEX_POINT('',#428);
#430=CARTESIAN_POINT('',(7.500000000000000,5.700000000000047,0.500000000000000));
#431=DIRECTION('',(0.0,0.0,1.0));
#432=DIRECTION('',(0.0,-1.0,0.0));
#433=AXIS2_PLACEMENT_3D('',#430,#431,#432);
#434=CIRCLE('',#433,0.500000000000000);
#435=EDGE_CURVE('',#429,#418,#434,.T.);
#436=ORIENTED_EDGE('',*,*,#435,.F.);
#437=CARTESIAN_POINT('',(7.500000000000000,5.700000000000047,0.500000000000000));
#438=DIRECTION('',(0.0,-1.0,0.0));
#439=DIRECTION('',(-1.0,0.0,0.0));
#440=AXIS2_PLACEMENT_3D('',#437,#438,#439);
#441=CIRCLE('',#440,0.500000000000000);
#442=EDGE_CURVE('',#429,#420,#441,.T.);
#443=ORIENTED_EDGE('',*,*,#442,.T.);
#444=EDGE_LOOP('',(#427,#436,#443));
#445=FACE_OUTER_BOUND('',#444,.T.);
#446=ADVANCED_FACE('',(#445),#416,.T.);
#447=CARTESIAN_POINT('',(7.500000000000000,-5.700000000000047,0.0));
#448=CARTESIAN_POINT('',(7.0,-5.700000000000047,4.306366E-017));
#449=CARTESIAN_POINT('',(7.0,-5.700000000000047,0.500000000000000));
#450=CARTESIAN_POINT('',(7.500000000000000,-5.700000000000046,0.0));
#451=CARTESIAN_POINT('',(7.0,-5.200000000000046,4.306366E-017));
#452=CARTESIAN_POINT('',(6.999999999999997,-5.200000000000046,0.500000000000000));
#453=CARTESIAN_POINT('',(7.500000000000000,-5.700000000000047,0.0));
#454=CARTESIAN_POINT('',(7.500000000000002,-5.200000000000046,5.551115E-017));
#455=CARTESIAN_POINT('',(7.500000000000000,-5.200000000000046,0.500000000000000));
#456=CARTESIAN_POINT('',(7.500000000000000,-5.700000000000046,0.0));
#457=CARTESIAN_POINT('',(8.0,-5.200000000000046,6.795864E-017));
#458=CARTESIAN_POINT('',(8.0,-5.200000000000046,0.500000000000000));
#459=CARTESIAN_POINT('',(7.500000000000000,-5.700000000000047,0.0));
#460=CARTESIAN_POINT('',(8.0,-5.700000000000047,6.795864E-017));
#461=CARTESIAN_POINT('',(8.0,-5.700000000000047,0.500000000000000));
#462=CARTESIAN_POINT('',(7.500000000000000,-5.700000000000046,0.0));
#463=CARTESIAN_POINT('',(8.0,-6.200000000000047,6.795864E-017));
#464=CARTESIAN_POINT('',(8.0,-6.200000000000047,0.500000000000000));
#465=CARTESIAN_POINT('',(7.500000000000000,-5.700000000000047,0.0));
#466=CARTESIAN_POINT('',(7.500000000000002,-6.200000000000047,5.551115E-017));
#467=CARTESIAN_POINT('',(7.500000000000000,-6.200000000000047,0.500000000000000));
#468=CARTESIAN_POINT('',(7.500000000000000,-5.700000000000046,0.0));
#469=CARTESIAN_POINT('',(7.0,-6.200000000000047,4.306366E-017));
#470=CARTESIAN_POINT('',(6.999999999999997,-6.200000000000047,0.500000000000000));
#471=CARTESIAN_POINT('',(7.500000000000000,-5.700000000000047,0.0));
#472=CARTESIAN_POINT('',(7.0,-5.700000000000047,4.306366E-017));
#473=CARTESIAN_POINT('',(7.0,-5.700000000000047,0.500000000000000));
#481=(BOUNDED_SURFACE()B_SPLINE_SURFACE(2,2,((#447,#450,#453,#456,#459,#462,#465,#468,#471),(#448,#451,#454,#457,#460,#463,#466,#469,#472),(#449,#452,#455,#458,#461,#464,#467,#470,#473)),.UNSPECIFIED.,.F.,.T.,.U.)B_SPLINE_SURFACE_WITH_KNOTS((3,3),(3,2,2,2,3),(-1.570796326794897,0.0),(0.0,1.570796326794897,3.141592653589793,4.712388980384691,6.283185307179585),.UNSPECIFIED.)GEOMETRIC_REPRESENTATION_ITEM()RATIONAL_B_SPLINE_SURFACE(((1.0,0.707106781186548,1.0,0.707106781186548,1.0,0.707106781186548,1.0,0.707106781186548,1.0),(0.707106781186549,0.500000000000001,0.707106781186549,0.500000000000001,0.707106781186549,0.500000000000001,0.707106781186549,0.500000000000001,0.707106781186549),(1.0,0.707106781186548,1.0,0.707106781186548,1.0,0.707106781186548,1.0,0.707106781186548,1.0)))REPRESENTATION_ITEM('')SURFACE());
#482=CARTESIAN_POINT('',(8.0,-5.700000000000047,0.500000000000000));
#483=VERTEX_POINT('',#482);
#484=CARTESIAN_POINT('',(7.500000000000000,-5.700000000000047,0.0));
#485=VERTEX_POINT('',#484);
#486=CARTESIAN_POINT('',(7.500000000000000,-5.700000000000047,0.500000000000000));
#487=DIRECTION('',(0.0,1.0,0.0));
#488=DIRECTION('',(1.0,0.0,0.0));
#489=AXIS2_PLACEMENT_3D('',#486,#487,#488);
#490=CIRCLE('',#489,0.500000000000000);
#491=EDGE_CURVE('',#483,#485,#490,.T.);
#492=ORIENTED_EDGE('',*,*,#491,.F.);
#493=CARTESIAN_POINT('',(7.0,-5.700000000000047,0.500000000000000));
#494=VERTEX_POINT('',#493);
#495=CARTESIAN_POINT('',(7.500000000000000,-5.700000000000047,0.500000000000000));
#496=DIRECTION('',(0.0,0.0,1.0));
#497=DIRECTION('',(0.0,-1.0,0.0));
#498=AXIS2_PLACEMENT_3D('',#495,#496,#497);
#499=CIRCLE('',#498,0.500000000000000);
#500=EDGE_CURVE('',#494,#483,#499,.T.);
#501=ORIENTED_EDGE('',*,*,#500,.F.);
#502=CARTESIAN_POINT('',(7.500000000000000,-5.700000000000047,0.500000000000000));
#503=DIRECTION('',(0.0,-1.0,0.0));
#504=DIRECTION('',(-1.0,0.0,0.0));
#505=AXIS2_PLACEMENT_3D('',#502,#503,#504);
#506=CIRCLE('',#505,0.500000000000000);
#507=EDGE_CURVE('',#494,#485,#506,.T.);
#508=ORIENTED_EDGE('',*,*,#507,.T.);
#509=EDGE_LOOP('',(#492,#501,#508));
#510=FACE_OUTER_BOUND('',#509,.T.);
#511=ADVANCED_FACE('',(#510),#481,.T.);
#512=CARTESIAN_POINT('',(-9.0,8.470000000000052,19.500000000000000));
#513=DIRECTION('',(0.0,-1.0,0.0));
#514=DIRECTION('',(-0.707106781186548,0.0,0.707106781186548));
#515=AXIS2_PLACEMENT_3D('',#512,#513,#514);
#516=CYLINDRICAL_SURFACE('',#515,0.500000000000000);
#517=CARTESIAN_POINT('',(-9.500000000000000,7.700000000000047,19.500000000000000));
#518=VERTEX_POINT('',#517);
#519=CARTESIAN_POINT('',(-9.500000000000000,-7.700000000000047,19.500000000000000));
#520=VERTEX_POINT('',#519);
#521=CARTESIAN_POINT('',(-9.500000000000000,7.700000000000047,19.500000000000000));
#522=DIRECTION('',(0.0,-1.0,0.0));
#523=VECTOR('',#522,15.400000000000095);
#524=LINE('',#521,#523);
#525=EDGE_CURVE('',#518,#520,#524,.T.);
#526=ORIENTED_EDGE('',*,*,#525,.T.);
#527=CARTESIAN_POINT('',(-9.0,-7.200000000000047,20.0));
#528=VERTEX_POINT('',#527);
#529=CARTESIAN_POINT('',(-9.0,-7.200000000000047,19.500000000000000));
#530=DIRECTION('',(-0.707106781186547,0.707106781186547,0.0));
#531=DIRECTION('',(0.707106781186547,0.707106781186547,0.0));
#532=AXIS2_PLACEMENT_3D('',#529,#530,#531);
#533=ELLIPSE('',#532,0.707106781186547,0.500000000000000);
#534=EDGE_CURVE('',#520,#528,#533,.T.);
#535=ORIENTED_EDGE('',*,*,#534,.T.);
#536=CARTESIAN_POINT('',(-9.0,7.200000000000047,20.0));
#537=VERTEX_POINT('',#536);
#538=CARTESIAN_POINT('',(-9.0,-7.200000000000047,20.0));
#539=DIRECTION('',(0.0,1.0,0.0));
#540=VECTOR('',#539,14.400000000000095);
#541=LINE('',#538,#540);
#542=EDGE_CURVE('',#528,#537,#541,.T.);
#543=ORIENTED_EDGE('',*,*,#542,.T.);
#544=CARTESIAN_POINT('',(-9.0,7.200000000000047,19.500000000000000));
#545=DIRECTION('',(-0.707106781186547,-0.707106781186547,0.0));
#546=DIRECTION('',(-0.707106781186547,0.707106781186547,0.0));
#547=AXIS2_PLACEMENT_3D('',#544,#545,#546);
#548=ELLIPSE('',#547,0.707106781186547,0.500000000000000);
#549=EDGE_CURVE('',#537,#518,#548,.T.);
#550=ORIENTED_EDGE('',*,*,#549,.T.);
#551=EDGE_LOOP('',(#526,#535,#543,#550));
#552=FACE_OUTER_BOUND('',#551,.T.);
#553=ADVANCED_FACE('',(#552),#516,.T.);
#554=CARTESIAN_POINT('',(9.0,-8.470000000000052,19.500000000000000));
#555=DIRECTION('',(0.0,1.0,0.0));
#556=DIRECTION('',(0.707106781186548,0.0,0.707106781186548));
#557=AXIS2_PLACEMENT_3D('',#554,#555,#556);
#558=CYLINDRICAL_SURFACE('',#557,0.500000000000000);
#559=CARTESIAN_POINT('',(9.500000000000000,-7.700000000000047,19.500000000000000));
#560=VERTEX_POINT('',#559);
#561=CARTESIAN_POINT('',(9.500000000000000,7.700000000000047,19.500000000000000));
#562=VERTEX_POINT('',#561);
#563=CARTESIAN_POINT('',(9.500000000000000,-7.700000000000047,19.500000000000000));
#564=DIRECTION('',(0.0,1.0,0.0));
#565=VECTOR('',#564,15.400000000000095);
#566=LINE('',#563,#565);
#567=EDGE_CURVE('',#560,#562,#566,.T.);
#568=ORIENTED_EDGE('',*,*,#567,.T.);
#569=CARTESIAN_POINT('',(9.0,7.200000000000047,20.0));
#570=VERTEX_POINT('',#569);
#571=CARTESIAN_POINT('',(9.0,7.200000000000047,19.500000000000000));
#572=DIRECTION('',(0.707106781186547,-0.707106781186547,0.0));
#573=DIRECTION('',(-0.707106781186547,-0.707106781186547,0.0));
#574=AXIS2_PLACEMENT_3D('',#571,#572,#573);
#575=ELLIPSE('',#574,0.707106781186547,0.500000000000000);
#576=EDGE_CURVE('',#562,#570,#575,.T.);
#577=ORIENTED_EDGE('',*,*,#576,.T.);
#578=CARTESIAN_POINT('',(9.0,-7.200000000000047,20.0));
#579=VERTEX_POINT('',#578);
#580=CARTESIAN_POINT('',(9.0,7.200000000000047,20.0));
#581=DIRECTION('',(0.0,-1.0,0.0));
#582=VECTOR('',#581,14.400000000000095);
#583=LINE('',#580,#582);
#584=EDGE_CURVE('',#570,#579,#583,.T.);
#585=ORIENTED_EDGE('',*,*,#584,.T.);
#586=CARTESIAN_POINT('',(9.0,-7.200000000000047,19.500000000000000));
#587=DIRECTION('',(-0.707106781186547,-0.707106781186547,0.0));
#588=DIRECTION('',(-0.707106781186547,0.707106781186547,0.0));
#589=AXIS2_PLACEMENT_3D('',#586,#587,#588);
#590=ELLIPSE('',#589,0.707106781186547,0.500000000000000);
#591=EDGE_CURVE('',#560,#579,#590,.T.);
#592=ORIENTED_EDGE('',*,*,#591,.F.);
#593=EDGE_LOOP('',(#568,#577,#585,#592));
#594=FACE_OUTER_BOUND('',#593,.T.);
#595=ADVANCED_FACE('',(#594),#558,.T.);
#596=CARTESIAN_POINT('',(10.449999999999999,7.200000000000047,19.500000000000000));
#597=DIRECTION('',(-1.0,0.0,0.0));
#598=DIRECTION('',(0.0,0.707106781186548,0.707106781186548));
#599=AXIS2_PLACEMENT_3D('',#596,#597,#598);
#600=CYLINDRICAL_SURFACE('',#599,0.500000000000000);
#601=CARTESIAN_POINT('',(9.500000000000000,7.700000000000047,19.500000000000000));
#602=DIRECTION('',(-1.0,0.0,0.0));
#603=VECTOR('',#602,19.0);
#604=LINE('',#601,#603);
#605=EDGE_CURVE('',#562,#518,#604,.T.);
#606=ORIENTED_EDGE('',*,*,#605,.T.);
#607=ORIENTED_EDGE('',*,*,#549,.F.);
#608=CARTESIAN_POINT('',(-9.0,7.200000000000047,20.0));
#609=DIRECTION('',(1.0,0.0,0.0));
#610=VECTOR('',#609,18.0);
#611=LINE('',#608,#610);
#612=EDGE_CURVE('',#537,#570,#611,.T.);
#613=ORIENTED_EDGE('',*,*,#612,.T.);
#614=ORIENTED_EDGE('',*,*,#576,.F.);
#615=EDGE_LOOP('',(#606,#607,#613,#614));
#616=FACE_OUTER_BOUND('',#615,.T.);
#617=ADVANCED_FACE('',(#616),#600,.T.);
#618=CARTESIAN_POINT('',(-10.449999999999999,-7.200000000000047,19.500000000000000));
#619=DIRECTION('',(1.0,0.0,0.0));
#620=DIRECTION('',(0.0,-0.707106781186548,0.707106781186548));
#621=AXIS2_PLACEMENT_3D('',#618,#619,#620);
#622=CYLINDRICAL_SURFACE('',#621,0.500000000000000);
#623=CARTESIAN_POINT('',(-9.500000000000000,-7.700000000000047,19.500000000000000));
#624=DIRECTION('',(1.0,0.0,0.0));
#625=VECTOR('',#624,19.0);
#626=LINE('',#623,#625);
#627=EDGE_CURVE('',#520,#560,#626,.T.);
#628=ORIENTED_EDGE('',*,*,#627,.T.);
#629=ORIENTED_EDGE('',*,*,#591,.T.);
#630=CARTESIAN_POINT('',(9.0,-7.200000000000047,20.0));
#631=DIRECTION('',(-1.0,0.0,0.0));
#632=VECTOR('',#631,18.0);
#633=LINE('',#630,#632);
#634=EDGE_CURVE('',#579,#528,#633,.T.);
#635=ORIENTED_EDGE('',*,*,#634,.T.);
#636=ORIENTED_EDGE('',*,*,#534,.F.);
#637=EDGE_LOOP('',(#628,#629,#635,#636));
#638=FACE_OUTER_BOUND('',#637,.T.);
#639=ADVANCED_FACE('',(#638),#622,.T.);
#640=CARTESIAN_POINT('',(10.449999999999999,7.700000000000047,-0.449999999999999));
#641=DIRECTION('',(0.0,-1.0,0.0));
#642=DIRECTION('',(0.0,0.0,-1.0));
#643=AXIS2_PLACEMENT_3D('',#640,#641,#642);
#644=PLANE('',#643);
#645=ORIENTED_EDGE('',*,*,#605,.F.);
#646=CARTESIAN_POINT('',(9.500000000000000,7.700000000000047,0.500000000000000));
#647=VERTEX_POINT('',#646);
#648=CARTESIAN_POINT('',(9.500000000000000,7.700000000000047,19.500000000000000));
#649=DIRECTION('',(0.0,0.0,-1.0));
#650=VECTOR('',#649,19.0);
#651=LINE('',#648,#650);
#652=EDGE_CURVE('',#562,#647,#651,.T.);
#653=ORIENTED_EDGE('',*,*,#652,.T.);
#654=CARTESIAN_POINT('',(-9.500000000000000,7.700000000000047,0.500000000000000));
#655=VERTEX_POINT('',#654);
#656=CARTESIAN_POINT('',(-9.500000000000000,7.700000000000047,0.500000000000000));
#657=DIRECTION('',(1.0,0.0,0.0));
#658=VECTOR('',#657,19.0);
#659=LINE('',#656,#658);
#660=EDGE_CURVE('',#655,#647,#659,.T.);
#661=ORIENTED_EDGE('',*,*,#660,.F.);
#662=CARTESIAN_POINT('',(-9.500000000000000,7.700000000000047,19.500000000000000));
#663=DIRECTION('',(0.0,0.0,-1.0));
#664=VECTOR('',#663,19.0);
#665=LINE('',#662,#664);
#666=EDGE_CURVE('',#518,#655,#665,.T.);
#667=ORIENTED_EDGE('',*,*,#666,.F.);
#668=EDGE_LOOP('',(#645,#653,#661,#667));
#669=FACE_OUTER_BOUND('',#668,.T.);
#670=ADVANCED_FACE('',(#669),#644,.F.);
#671=CARTESIAN_POINT('',(9.500000000000000,8.470000000000052,20.449999999999999));
#672=DIRECTION('',(-1.0,0.0,0.0));
#673=DIRECTION('',(0.0,0.0,1.0));
#674=AXIS2_PLACEMENT_3D('',#671,#672,#673);
#675=PLANE('',#674);
#676=ORIENTED_EDGE('',*,*,#567,.F.);
#677=CARTESIAN_POINT('',(9.500000000000000,-7.700000000000047,0.500000000000000));
#678=VERTEX_POINT('',#677);
#679=CARTESIAN_POINT('',(9.500000000000000,-7.700000000000047,19.500000000000000));
#680=DIRECTION('',(0.0,0.0,-1.0));
#681=VECTOR('',#680,19.0);
#682=LINE('',#679,#681);
#683=EDGE_CURVE('',#560,#678,#682,.T.);
#684=ORIENTED_EDGE('',*,*,#683,.T.);
#685=CARTESIAN_POINT('',(9.500000000000000,7.700000000000047,0.500000000000000));
#686=DIRECTION('',(0.0,-1.0,0.0));
#687=VECTOR('',#686,15.400000000000095);
#688=LINE('',#685,#687);
#689=EDGE_CURVE('',#647,#678,#688,.T.);
#690=ORIENTED_EDGE('',*,*,#689,.F.);
#691=ORIENTED_EDGE('',*,*,#652,.F.);
#692=EDGE_LOOP('',(#676,#684,#690,#691));
#693=FACE_OUTER_BOUND('',#692,.T.);
#694=ADVANCED_FACE('',(#693),#675,.F.);
#695=CARTESIAN_POINT('',(9.900000000000000,7.920000000000052,20.0));
#696=DIRECTION('',(0.0,0.0,1.0));
#697=DIRECTION('',(1.0,0.0,0.0));
#698=AXIS2_PLACEMENT_3D('',#695,#696,#697);
#699=PLANE('',#698);
#700=ORIENTED_EDGE('',*,*,#584,.F.);
#701=ORIENTED_EDGE('',*,*,#612,.F.);
#702=ORIENTED_EDGE('',*,*,#542,.F.);
#703=ORIENTED_EDGE('',*,*,#634,.F.);
#704=EDGE_LOOP('',(#700,#701,#702,#703));
#705=FACE_OUTER_BOUND('',#704,.T.);
#706=ADVANCED_FACE('',(#705),#699,.T.);
#707=CARTESIAN_POINT('',(7.500000000000000,-5.700000000000047,0.0));
#708=CARTESIAN_POINT('',(7.0,-5.700000000000047,4.306366E-017));
#709=CARTESIAN_POINT('',(7.0,-5.700000000000047,0.500000000000000));
#710=CARTESIAN_POINT('',(7.500000000000000,-5.700000000000046,0.0));
#711=CARTESIAN_POINT('',(7.0,-5.200000000000046,4.306366E-017));
#712=CARTESIAN_POINT('',(6.999999999999997,-5.200000000000046,0.500000000000000));
#713=CARTESIAN_POINT('',(7.500000000000000,-5.700000000000047,0.0));
#714=CARTESIAN_POINT('',(7.500000000000002,-5.200000000000046,5.551115E-017));
#715=CARTESIAN_POINT('',(7.500000000000000,-5.200000000000046,0.500000000000000));
#716=CARTESIAN_POINT('',(7.500000000000000,-5.700000000000046,0.0));
#717=CARTESIAN_POINT('',(8.0,-5.200000000000046,6.795864E-017));
#718=CARTESIAN_POINT('',(8.0,-5.200000000000046,0.500000000000000));
#719=CARTESIAN_POINT('',(7.500000000000000,-5.700000000000047,0.0));
#720=CARTESIAN_POINT('',(8.0,-5.700000000000047,6.795864E-017));
#721=CARTESIAN_POINT('',(8.0,-5.700000000000047,0.500000000000000));
#722=CARTESIAN_POINT('',(7.500000000000000,-5.700000000000046,0.0));
#723=CARTESIAN_POINT('',(8.0,-6.200000000000047,6.795864E-017));
#724=CARTESIAN_POINT('',(8.0,-6.200000000000047,0.500000000000000));
#725=CARTESIAN_POINT('',(7.500000000000000,-5.700000000000047,0.0));
#726=CARTESIAN_POINT('',(7.500000000000002,-6.200000000000047,5.551115E-017));
#727=CARTESIAN_POINT('',(7.500000000000000,-6.200000000000047,0.500000000000000));
#728=CARTESIAN_POINT('',(7.500000000000000,-5.700000000000046,0.0));
#729=CARTESIAN_POINT('',(7.0,-6.200000000000047,4.306366E-017));
#730=CARTESIAN_POINT('',(6.999999999999997,-6.200000000000047,0.500000000000000));
#731=CARTESIAN_POINT('',(7.500000000000000,-5.700000000000047,0.0));
#732=CARTESIAN_POINT('',(7.0,-5.700000000000047,4.306366E-017));
#733=CARTESIAN_POINT('',(7.0,-5.700000000000047,0.500000000000000));
#741=(BOUNDED_SURFACE()B_SPLINE_SURFACE(2,2,((#707,#710,#713,#716,#719,#722,#725,#728,#731),(#708,#711,#714,#717,#720,#723,#726,#729,#732),(#709,#712,#715,#718,#721,#724,#727,#730,#733)),.UNSPECIFIED.,.F.,.T.,.U.)B_SPLINE_SURFACE_WITH_KNOTS((3,3),(3,2,2,2,3),(-1.570796326794897,0.0),(0.0,1.570796326794897,3.141592653589793,4.712388980384691,6.283185307179585),.UNSPECIFIED.)GEOMETRIC_REPRESENTATION_ITEM()RATIONAL_B_SPLINE_SURFACE(((1.0,0.707106781186548,1.0,0.707106781186548,1.0,0.707106781186548,1.0,0.707106781186548,1.0),(0.707106781186549,0.500000000000001,0.707106781186549,0.500000000000001,0.707106781186549,0.500000000000001,0.707106781186549,0.500000000000001,0.707106781186549),(1.0,0.707106781186548,1.0,0.707106781186548,1.0,0.707106781186548,1.0,0.707106781186548,1.0)))REPRESENTATION_ITEM('')SURFACE());
#742=ORIENTED_EDGE('',*,*,#491,.T.);
#743=ORIENTED_EDGE('',*,*,#507,.F.);
#744=CARTESIAN_POINT('',(7.500000000000000,-5.200000000000046,0.500000000000000));
#745=VERTEX_POINT('',#744);
#746=CARTESIAN_POINT('',(7.500000000000000,-5.700000000000047,0.500000000000000));
#747=DIRECTION('',(0.0,0.0,1.0));
#748=DIRECTION('',(0.0,-1.0,0.0));
#749=AXIS2_PLACEMENT_3D('',#746,#747,#748);
#750=CIRCLE('',#749,0.500000000000000);
#751=EDGE_CURVE('',#745,#494,#750,.T.);
#752=ORIENTED_EDGE('',*,*,#751,.F.);
#753=CARTESIAN_POINT('',(7.500000000000000,-5.700000000000047,0.500000000000000));
#754=DIRECTION('',(0.0,0.0,1.0));
#755=DIRECTION('',(0.0,-1.0,0.0));
#756=AXIS2_PLACEMENT_3D('',#753,#754,#755);
#757=CIRCLE('',#756,0.500000000000000);
#758=EDGE_CURVE('',#483,#745,#757,.T.);
#759=ORIENTED_EDGE('',*,*,#758,.F.);
#760=EDGE_LOOP('',(#742,#743,#752,#759));
#761=FACE_OUTER_BOUND('',#760,.T.);
#762=ADVANCED_FACE('',(#761),#741,.T.);
#763=CARTESIAN_POINT('',(7.500000000000000,5.700000000000047,0.0));
#764=CARTESIAN_POINT('',(7.0,5.700000000000047,4.306366E-017));
#765=CARTESIAN_POINT('',(7.0,5.700000000000047,0.500000000000000));
#766=CARTESIAN_POINT('',(7.500000000000000,5.700000000000046,0.0));
#767=CARTESIAN_POINT('',(7.0,6.200000000000047,4.306366E-017));
#768=CARTESIAN_POINT('',(6.999999999999997,6.200000000000047,0.500000000000000));
#769=CARTESIAN_POINT('',(7.500000000000000,5.700000000000047,0.0));
#770=CARTESIAN_POINT('',(7.500000000000002,6.200000000000047,5.551115E-017));
#771=CARTESIAN_POINT('',(7.500000000000000,6.200000000000047,0.500000000000000));
#772=CARTESIAN_POINT('',(7.500000000000000,5.700000000000046,0.0));
#773=CARTESIAN_POINT('',(8.0,6.200000000000047,6.795864E-017));
#774=CARTESIAN_POINT('',(8.0,6.200000000000047,0.500000000000000));
#775=CARTESIAN_POINT('',(7.500000000000000,5.700000000000047,0.0));
#776=CARTESIAN_POINT('',(8.0,5.700000000000047,6.795864E-017));
#777=CARTESIAN_POINT('',(8.0,5.700000000000047,0.500000000000000));
#778=CARTESIAN_POINT('',(7.500000000000000,5.700000000000046,0.0));
#779=CARTESIAN_POINT('',(8.0,5.200000000000046,6.795864E-017));
#780=CARTESIAN_POINT('',(8.0,5.200000000000046,0.500000000000000));
#781=CARTESIAN_POINT('',(7.500000000000000,5.700000000000047,0.0));
#782=CARTESIAN_POINT('',(7.500000000000002,5.200000000000046,5.551115E-017));
#783=CARTESIAN_POINT('',(7.500000000000000,5.200000000000046,0.500000000000000));
#784=CARTESIAN_POINT('',(7.500000000000000,5.700000000000046,0.0));
#785=CARTESIAN_POINT('',(7.0,5.200000000000046,4.306366E-017));
#786=CARTESIAN_POINT('',(6.999999999999997,5.200000000000046,0.500000000000000));
#787=CARTESIAN_POINT('',(7.500000000000000,5.700000000000047,0.0));
#788=CARTESIAN_POINT('',(7.0,5.700000000000047,4.306366E-017));
#789=CARTESIAN_POINT('',(7.0,5.700000000000047,0.500000000000000));
#797=(BOUNDED_SURFACE()B_SPLINE_SURFACE(2,2,((#763,#766,#769,#772,#775,#778,#781,#784,#787),(#764,#767,#770,#773,#776,#779,#782,#785,#788),(#765,#768,#771,#774,#777,#780,#783,#786,#789)),.UNSPECIFIED.,.F.,.T.,.U.)B_SPLINE_SURFACE_WITH_KNOTS((3,3),(3,2,2,2,3),(-1.570796326794897,0.0),(0.0,1.570796326794897,3.141592653589793,4.712388980384691,6.283185307179585),.UNSPECIFIED.)GEOMETRIC_REPRESENTATION_ITEM()RATIONAL_B_SPLINE_SURFACE(((1.0,0.707106781186548,1.0,0.707106781186548,1.0,0.707106781186548,1.0,0.707106781186548,1.0),(0.707106781186549,0.500000000000001,0.707106781186549,0.500000000000001,0.707106781186549,0.500000000000001,0.707106781186549,0.500000000000001,0.707106781186549),(1.0,0.707106781186548,1.0,0.707106781186548,1.0,0.707106781186548,1.0,0.707106781186548,1.0)))REPRESENTATION_ITEM('')SURFACE());
#798=ORIENTED_EDGE('',*,*,#426,.T.);
#799=ORIENTED_EDGE('',*,*,#442,.F.);
#800=CARTESIAN_POINT('',(7.500000000000000,6.200000000000047,0.500000000000000));
#801=VERTEX_POINT('',#800);
#802=CARTESIAN_POINT('',(7.500000000000000,5.700000000000047,0.500000000000000));
#803=DIRECTION('',(0.0,0.0,1.0));
#804=DIRECTION('',(0.0,-1.0,0.0));
#805=AXIS2_PLACEMENT_3D('',#802,#803,#804);
#806=CIRCLE('',#805,0.500000000000000);
#807=EDGE_CURVE('',#801,#429,#806,.T.);
#808=ORIENTED_EDGE('',*,*,#807,.F.);
#809=CARTESIAN_POINT('',(7.500000000000000,5.700000000000047,0.500000000000000));
#810=DIRECTION('',(0.0,0.0,1.0));
#811=DIRECTION('',(0.0,-1.0,0.0));
#812=AXIS2_PLACEMENT_3D('',#809,#810,#811);
#813=CIRCLE('',#812,0.500000000000000);
#814=EDGE_CURVE('',#418,#801,#813,.T.);
#815=ORIENTED_EDGE('',*,*,#814,.F.);
#816=EDGE_LOOP('',(#798,#799,#808,#815));
#817=FACE_OUTER_BOUND('',#816,.T.);
#818=ADVANCED_FACE('',(#817),#797,.T.);
#819=CARTESIAN_POINT('',(-7.500000000000000,-5.700000000000047,0.0));
#820=CARTESIAN_POINT('',(-8.0,-5.700000000000047,4.306366E-017));
#821=CARTESIAN_POINT('',(-8.0,-5.700000000000047,0.500000000000000));
#822=CARTESIAN_POINT('',(-7.500000000000000,-5.700000000000046,0.0));
#823=CARTESIAN_POINT('',(-8.0,-5.200000000000046,4.306366E-017));
#824=CARTESIAN_POINT('',(-8.0,-5.200000000000046,0.500000000000000));
#825=CARTESIAN_POINT('',(-7.500000000000000,-5.700000000000047,0.0));
#826=CARTESIAN_POINT('',(-7.500000000000002,-5.200000000000046,5.551115E-017));
#827=CARTESIAN_POINT('',(-7.500000000000000,-5.200000000000046,0.500000000000000));
#828=CARTESIAN_POINT('',(-7.500000000000000,-5.700000000000046,0.0));
#829=CARTESIAN_POINT('',(-7.0,-5.200000000000046,6.795864E-017));
#830=CARTESIAN_POINT('',(-6.999999999999997,-5.200000000000046,0.500000000000000));
#831=CARTESIAN_POINT('',(-7.500000000000000,-5.700000000000047,0.0));
#832=CARTESIAN_POINT('',(-7.0,-5.700000000000047,6.795864E-017));
#833=CARTESIAN_POINT('',(-7.0,-5.700000000000047,0.500000000000000));
#834=CARTESIAN_POINT('',(-7.500000000000000,-5.700000000000046,0.0));
#835=CARTESIAN_POINT('',(-7.0,-6.200000000000047,6.795864E-017));
#836=CARTESIAN_POINT('',(-6.999999999999997,-6.200000000000047,0.500000000000000));
#837=CARTESIAN_POINT('',(-7.500000000000000,-5.700000000000047,0.0));
#838=CARTESIAN_POINT('',(-7.500000000000002,-6.200000000000047,5.551115E-017));
#839=CARTESIAN_POINT('',(-7.500000000000000,-6.200000000000047,0.500000000000000));
#840=CARTESIAN_POINT('',(-7.500000000000000,-5.700000000000046,0.0));
#841=CARTESIAN_POINT('',(-8.0,-6.200000000000047,4.306366E-017));
#842=CARTESIAN_POINT('',(-8.0,-6.200000000000047,0.500000000000000));
#843=CARTESIAN_POINT('',(-7.500000000000000,-5.700000000000047,0.0));
#844=CARTESIAN_POINT('',(-8.0,-5.700000000000047,4.306366E-017));
#845=CARTESIAN_POINT('',(-8.0,-5.700000000000047,0.500000000000000));
#853=(BOUNDED_SURFACE()B_SPLINE_SURFACE(2,2,((#819,#822,#825,#828,#831,#834,#837,#840,#843),(#820,#823,#826,#829,#832,#835,#838,#841,#844),(#821,#824,#827,#830,#833,#836,#839,#842,#845)),.UNSPECIFIED.,.F.,.T.,.U.)B_SPLINE_SURFACE_WITH_KNOTS((3,3),(3,2,2,2,3),(-1.570796326794897,0.0),(0.0,1.570796326794897,3.141592653589793,4.712388980384691,6.283185307179585),.UNSPECIFIED.)GEOMETRIC_REPRESENTATION_ITEM()RATIONAL_B_SPLINE_SURFACE(((1.0,0.707106781186548,1.0,0.707106781186548,1.0,0.707106781186548,1.0,0.707106781186548,1.0),(0.707106781186549,0.500000000000001,0.707106781186549,0.500000000000001,0.707106781186549,0.500000000000001,0.707106781186549,0.500000000000001,0.707106781186549),(1.0,0.707106781186548,1.0,0.707106781186548,1.0,0.707106781186548,1.0,0.707106781186548,1.0)))REPRESENTATION_ITEM('')SURFACE());
#854=ORIENTED_EDGE('',*,*,#361,.T.);
#855=ORIENTED_EDGE('',*,*,#377,.F.);
#856=CARTESIAN_POINT('',(-7.500000000000000,-5.200000000000046,0.500000000000000));
#857=VERTEX_POINT('',#856);
#858=CARTESIAN_POINT('',(-7.500000000000000,-5.700000000000047,0.500000000000000));
#859=DIRECTION('',(0.0,0.0,1.0));
#860=DIRECTION('',(0.0,-1.0,0.0));
#861=AXIS2_PLACEMENT_3D('',#858,#859,#860);
#862=CIRCLE('',#861,0.500000000000000);
#863=EDGE_CURVE('',#857,#364,#862,.T.);
#864=ORIENTED_EDGE('',*,*,#863,.F.);
#865=CARTESIAN_POINT('',(-7.500000000000000,-5.700000000000047,0.500000000000000));
#866=DIRECTION('',(0.0,0.0,1.0));
#867=DIRECTION('',(0.0,-1.0,0.0));
#868=AXIS2_PLACEMENT_3D('',#865,#866,#867);
#869=CIRCLE('',#868,0.500000000000000);
#870=EDGE_CURVE('',#353,#857,#869,.T.);
#871=ORIENTED_EDGE('',*,*,#870,.F.);
#872=EDGE_LOOP('',(#854,#855,#864,#871));
#873=FACE_OUTER_BOUND('',#872,.T.);
#874=ADVANCED_FACE('',(#873),#853,.T.);
#875=CARTESIAN_POINT('',(-7.500000000000000,5.700000000000047,0.0));
#876=CARTESIAN_POINT('',(-8.0,5.700000000000047,4.306366E-017));
#877=CARTESIAN_POINT('',(-8.0,5.700000000000047,0.500000000000000));
#878=CARTESIAN_POINT('',(-7.500000000000000,5.700000000000046,0.0));
#879=CARTESIAN_POINT('',(-8.0,6.200000000000047,4.306366E-017));
#880=CARTESIAN_POINT('',(-8.0,6.200000000000047,0.500000000000000));
#881=CARTESIAN_POINT('',(-7.500000000000000,5.700000000000047,0.0));
#882=CARTESIAN_POINT('',(-7.500000000000002,6.200000000000047,5.551115E-017));
#883=CARTESIAN_POINT('',(-7.500000000000000,6.200000000000047,0.500000000000000));
#884=CARTESIAN_POINT('',(-7.500000000000000,5.700000000000046,0.0));
#885=CARTESIAN_POINT('',(-7.0,6.200000000000047,6.795864E-017));
#886=CARTESIAN_POINT('',(-6.999999999999997,6.200000000000047,0.500000000000000));
#887=CARTESIAN_POINT('',(-7.500000000000000,5.700000000000047,0.0));
#888=CARTESIAN_POINT('',(-7.0,5.700000000000047,6.795864E-017));
#889=CARTESIAN_POINT('',(-7.0,5.700000000000047,0.500000000000000));
#890=CARTESIAN_POINT('',(-7.500000000000000,5.700000000000046,0.0));
#891=CARTESIAN_POINT('',(-7.0,5.200000000000046,6.795864E-017));
#892=CARTESIAN_POINT('',(-6.999999999999997,5.200000000000046,0.500000000000000));
#893=CARTESIAN_POINT('',(-7.500000000000000,5.700000000000047,0.0));
#894=CARTESIAN_POINT('',(-7.500000000000002,5.200000000000046,5.551115E-017));
#895=CARTESIAN_POINT('',(-7.500000000000000,5.200000000000046,0.500000000000000));
#896=CARTESIAN_POINT('',(-7.500000000000000,5.700000000000046,0.0));
#897=CARTESIAN_POINT('',(-8.0,5.200000000000046,4.306366E-017));
#898=CARTESIAN_POINT('',(-8.0,5.200000000000046,0.500000000000000));
#899=CARTESIAN_POINT('',(-7.500000000000000,5.700000000000047,0.0));
#900=CARTESIAN_POINT('',(-8.0,5.700000000000047,4.306366E-017));
#901=CARTESIAN_POINT('',(-8.0,5.700000000000047,0.500000000000000));
#909=(BOUNDED_SURFACE()B_SPLINE_SURFACE(2,2,((#875,#878,#881,#884,#887,#890,#893,#896,#899),(#876,#879,#882,#885,#888,#891,#894,#897,#900),(#877,#880,#883,#886,#889,#892,#895,#898,#901)),.UNSPECIFIED.,.F.,.T.,.U.)B_SPLINE_SURFACE_WITH_KNOTS((3,3),(3,2,2,2,3),(-1.570796326794897,0.0),(0.0,1.570796326794897,3.141592653589793,4.712388980384691,6.283185307179585),.UNSPECIFIED.)GEOMETRIC_REPRESENTATION_ITEM()RATIONAL_B_SPLINE_SURFACE(((1.0,0.707106781186548,1.0,0.707106781186548,1.0,0.707106781186548,1.0,0.707106781186548,1.0),(0.707106781186549,0.500000000000001,0.707106781186549,0.500000000000001,0.707106781186549,0.500000000000001,0.707106781186549,0.500000000000001,0.707106781186549),(1.0,0.707106781186548,1.0,0.707106781186548,1.0,0.707106781186548,1.0,0.707106781186548,1.0)))REPRESENTATION_ITEM('')SURFACE());
#910=ORIENTED_EDGE('',*,*,#296,.T.);
#911=ORIENTED_EDGE('',*,*,#312,.F.);
#912=CARTESIAN_POINT('',(-7.500000000000000,6.200000000000047,0.500000000000000));
#913=VERTEX_POINT('',#912);
#914=CARTESIAN_POINT('',(-7.500000000000000,5.700000000000047,0.500000000000000));
#915=DIRECTION('',(0.0,0.0,1.0));
#916=DIRECTION('',(0.0,-1.0,0.0));
#917=AXIS2_PLACEMENT_3D('',#914,#915,#916);
#918=CIRCLE('',#917,0.500000000000000);
#919=EDGE_CURVE('',#913,#299,#918,.T.);
#920=ORIENTED_EDGE('',*,*,#919,.F.);
#921=CARTESIAN_POINT('',(-7.500000000000000,5.700000000000047,0.500000000000000));
#922=DIRECTION('',(0.0,0.0,1.0));
#923=DIRECTION('',(0.0,-1.0,0.0));
#924=AXIS2_PLACEMENT_3D('',#921,#922,#923);
#925=CIRCLE('',#924,0.500000000000000);
#926=EDGE_CURVE('',#288,#913,#925,.T.);
#927=ORIENTED_EDGE('',*,*,#926,.F.);
#928=EDGE_LOOP('',(#910,#911,#920,#927));
#929=FACE_OUTER_BOUND('',#928,.T.);
#930=ADVANCED_FACE('',(#929),#909,.T.);
#931=CARTESIAN_POINT('',(10.449999999999999,8.470000000000052,0.500000000000000));
#932=DIRECTION('',(0.0,0.0,1.0));
#933=DIRECTION('',(1.0,0.0,0.0));
#934=AXIS2_PLACEMENT_3D('',#931,#932,#933);
#935=PLANE('',#934);
#936=CARTESIAN_POINT('',(-9.500000000000000,-7.700000000000047,0.500000000000000));
#937=VERTEX_POINT('',#936);
#938=CARTESIAN_POINT('',(-9.500000000000000,-7.700000000000047,0.500000000000000));
#939=DIRECTION('',(0.0,1.0,0.0));
#940=VECTOR('',#939,15.400000000000095);
#941=LINE('',#938,#940);
#942=EDGE_CURVE('',#937,#655,#941,.T.);
#943=ORIENTED_EDGE('',*,*,#942,.T.);
#944=ORIENTED_EDGE('',*,*,#660,.T.);
#945=ORIENTED_EDGE('',*,*,#689,.T.);
#946=CARTESIAN_POINT('',(9.500000000000000,-7.700000000000047,0.500000000000000));
#947=DIRECTION('',(-1.0,0.0,0.0));
#948=VECTOR('',#947,19.0);
#949=LINE('',#946,#948);
#950=EDGE_CURVE('',#678,#937,#949,.T.);
#951=ORIENTED_EDGE('',*,*,#950,.T.);
#952=EDGE_LOOP('',(#943,#944,#945,#951));
#953=FACE_OUTER_BOUND('',#952,.T.);
#954=ORIENTED_EDGE('',*,*,#751,.T.);
#955=ORIENTED_EDGE('',*,*,#500,.T.);
#956=ORIENTED_EDGE('',*,*,#758,.T.);
#957=EDGE_LOOP('',(#954,#955,#956));
#958=FACE_BOUND('',#957,.T.);
#959=ORIENTED_EDGE('',*,*,#807,.T.);
#960=ORIENTED_EDGE('',*,*,#435,.T.);
#961=ORIENTED_EDGE('',*,*,#814,.T.);
#962=EDGE_LOOP('',(#959,#960,#961));
#963=FACE_BOUND('',#962,.T.);
#964=ORIENTED_EDGE('',*,*,#863,.T.);
#965=ORIENTED_EDGE('',*,*,#370,.T.);
#966=ORIENTED_EDGE('',*,*,#870,.T.);
#967=EDGE_LOOP('',(#964,#965,#966));
#968=FACE_BOUND('',#967,.T.);
#969=ORIENTED_EDGE('',*,*,#919,.T.);
#970=ORIENTED_EDGE('',*,*,#305,.T.);
#971=ORIENTED_EDGE('',*,*,#926,.T.);
#972=EDGE_LOOP('',(#969,#970,#971));
#973=FACE_BOUND('',#972,.T.);
#974=ADVANCED_FACE('',(#953,#958,#963,#968,#973),#935,.F.);
#975=CARTESIAN_POINT('',(10.449999999999999,-7.700000000000047,20.449999999999999));
#976=DIRECTION('',(0.0,1.0,0.0));
#977=DIRECTION('',(0.0,0.0,1.0));
#978=AXIS2_PLACEMENT_3D('',#975,#976,#977);
#979=PLANE('',#978);
#980=ORIENTED_EDGE('',*,*,#627,.F.);
#981=CARTESIAN_POINT('',(-9.500000000000000,-7.700000000000047,19.500000000000000));
#982=DIRECTION('',(0.0,0.0,-1.0));
#983=VECTOR('',#982,19.0);
#984=LINE('',#981,#983);
#985=EDGE_CURVE('',#520,#937,#984,.T.);
#986=ORIENTED_EDGE('',*,*,#985,.T.);
#987=ORIENTED_EDGE('',*,*,#950,.F.);
#988=ORIENTED_EDGE('',*,*,#683,.F.);
#989=EDGE_LOOP('',(#980,#986,#987,#988));
#990=FACE_OUTER_BOUND('',#989,.T.);
#991=ADVANCED_FACE('',(#990),#979,.F.);
#992=CARTESIAN_POINT('',(-9.500000000000000,8.470000000000052,-0.449999999999999));
#993=DIRECTION('',(1.0,0.0,0.0));
#994=DIRECTION('',(0.0,0.0,-1.0));
#995=AXIS2_PLACEMENT_3D('',#992,#993,#994);
#996=PLANE('',#995);
#997=ORIENTED_EDGE('',*,*,#525,.F.);
#998=ORIENTED_EDGE('',*,*,#666,.T.);
#999=ORIENTED_EDGE('',*,*,#942,.F.);
#1000=ORIENTED_EDGE('',*,*,#985,.F.);
#1001=EDGE_LOOP('',(#997,#998,#999,#1000));
#1002=FACE_OUTER_BOUND('',#1001,.T.);
#1003=ADVANCED_FACE('',(#1002),#996,.F.);
#1004=CLOSED_SHELL('',(#316,#381,#446,#511,#553,#595,#617,#639,#670,#694,#706,#762,#818,#874,#930,#974,#991,#1003));
#1005=MANIFOLD_SOLID_BREP('1FE',#1004);
#1006=COLOUR_RGB('116',0.0,0.300000000000000,0.150000000000000);
#1007=SURFACE_STYLE_USAGE(.BOTH.,#1008);
#1008=SURFACE_SIDE_STYLE('NONE',(#1009));
#1009=SURFACE_STYLE_FILL_AREA(#1010);
#1010=FILL_AREA_STYLE('NONE',(#1011));
#1011=FILL_AREA_STYLE_COLOUR('NONE',#1006);
#1012=PRESENTATION_STYLE_ASSIGNMENT((#1007));
#1013=STYLED_ITEM('NONE',(#1012),#1005);
#1014=CARTESIAN_POINT('',(-6.637500000000000,-3.144999999999845,-4.0));
#1015=DIRECTION('',(0.0,0.0,-1.0));
#1016=DIRECTION('',(-1.0,0.0,0.0));
#1017=AXIS2_PLACEMENT_3D('',#1014,#1015,#1016);
#1018=PLANE('',#1017);
#1019=CARTESIAN_POINT('',(-6.375000000000000,-3.169999999999845,-4.0));
#1020=VERTEX_POINT('',#1019);
#1021=CARTESIAN_POINT('',(-6.375000000000000,-3.669999999999845,-4.0));
#1022=VERTEX_POINT('',#1021);
#1023=CARTESIAN_POINT('',(-6.375000000000000,-3.169999999999845,-4.0));
#1024=DIRECTION('',(0.0,-1.0,0.0));
#1025=VECTOR('',#1024,0.500000000000000);
#1026=LINE('',#1023,#1025);
#1027=EDGE_CURVE('',#1020,#1022,#1026,.T.);
#1028=ORIENTED_EDGE('',*,*,#1027,.T.);
#1029=CARTESIAN_POINT('',(-6.625000000000000,-3.669999999999845,-4.0));
#1030=VERTEX_POINT('',#1029);
#1031=CARTESIAN_POINT('',(-6.375000000000000,-3.669999999999845,-4.0));
#1032=DIRECTION('',(-1.0,0.0,0.0));
#1033=VECTOR('',#1032,0.250000000000000);
#1034=LINE('',#1031,#1033);
#1035=EDGE_CURVE('',#1022,#1030,#1034,.T.);
#1036=ORIENTED_EDGE('',*,*,#1035,.T.);
#1037=CARTESIAN_POINT('',(-6.625000000000000,-3.169999999999845,-4.0));
#1038=VERTEX_POINT('',#1037);
#1039=CARTESIAN_POINT('',(-6.625000000000000,-3.669999999999845,-4.0));
#1040=DIRECTION('',(0.0,1.0,0.0));
#1041=VECTOR('',#1040,0.500000000000000);
#1042=LINE('',#1039,#1041);
#1043=EDGE_CURVE('',#1030,#1038,#1042,.T.);
#1044=ORIENTED_EDGE('',*,*,#1043,.T.);
#1045=CARTESIAN_POINT('',(-6.625000000000000,-3.169999999999845,-4.0));
#1046=DIRECTION('',(1.0,0.0,0.0));
#1047=VECTOR('',#1046,0.250000000000000);
#1048=LINE('',#1045,#1047);
#1049=EDGE_CURVE('',#1038,#1020,#1048,.T.);
#1050=ORIENTED_EDGE('',*,*,#1049,.T.);
#1051=EDGE_LOOP('',(#1028,#1036,#1044,#1050));
#1052=FACE_OUTER_BOUND('',#1051,.T.);
#1053=ADVANCED_FACE('',(#1052),#1018,.T.);
#1054=CARTESIAN_POINT('',(-6.637500000000000,-3.144999999999845,0.0));
#1055=DIRECTION('',(0.0,0.0,-1.0));
#1056=DIRECTION('',(-1.0,0.0,0.0));
#1057=AXIS2_PLACEMENT_3D('',#1054,#1055,#1056);
#1058=PLANE('',#1057);
#1059=CARTESIAN_POINT('',(-6.375000000000000,-3.669999999999845,0.0));
#1060=VERTEX_POINT('',#1059);
#1061=CARTESIAN_POINT('',(-6.375000000000000,-3.169999999999845,0.0));
#1062=VERTEX_POINT('',#1061);
#1063=CARTESIAN_POINT('',(-6.375000000000000,-3.669999999999845,0.0));
#1064=DIRECTION('',(0.0,1.0,0.0));
#1065=VECTOR('',#1064,0.500000000000000);
#1066=LINE('',#1063,#1065);
#1067=EDGE_CURVE('',#1060,#1062,#1066,.T.);
#1068=ORIENTED_EDGE('',*,*,#1067,.T.);
#1069=CARTESIAN_POINT('',(-6.625000000000000,-3.169999999999845,0.0));
#1070=VERTEX_POINT('',#1069);
#1071=CARTESIAN_POINT('',(-6.375000000000000,-3.169999999999845,0.0));
#1072=DIRECTION('',(-1.0,0.0,0.0));
#1073=VECTOR('',#1072,0.250000000000000);
#1074=LINE('',#1071,#1073);
#1075=EDGE_CURVE('',#1062,#1070,#1074,.T.);
#1076=ORIENTED_EDGE('',*,*,#1075,.T.);
#1077=CARTESIAN_POINT('',(-6.625000000000000,-3.669999999999845,0.0));
#1078=VERTEX_POINT('',#1077);
#1079=CARTESIAN_POINT('',(-6.625000000000000,-3.169999999999845,0.0));
#1080=DIRECTION('',(0.0,-1.0,0.0));
#1081=VECTOR('',#1080,0.500000000000000);
#1082=LINE('',#1079,#1081);
#1083=EDGE_CURVE('',#1070,#1078,#1082,.T.);
#1084=ORIENTED_EDGE('',*,*,#1083,.T.);
#1085=CARTESIAN_POINT('',(-6.625000000000000,-3.669999999999845,0.0));
#1086=DIRECTION('',(1.0,0.0,0.0));
#1087=VECTOR('',#1086,0.250000000000000);
#1088=LINE('',#1085,#1087);
#1089=EDGE_CURVE('',#1078,#1060,#1088,.T.);
#1090=ORIENTED_EDGE('',*,*,#1089,.T.);
#1091=EDGE_LOOP('',(#1068,#1076,#1084,#1090));
#1092=FACE_OUTER_BOUND('',#1091,.T.);
#1093=ADVANCED_FACE('',(#1092),#1058,.F.);
#1094=CARTESIAN_POINT('',(-6.637500000000000,-3.169999999999845,0.200000000000000));
#1095=DIRECTION('',(0.0,-1.0,0.0));
#1096=DIRECTION('',(0.0,0.0,-1.0));
#1097=AXIS2_PLACEMENT_3D('',#1094,#1095,#1096);
#1098=PLANE('',#1097);
#1099=CARTESIAN_POINT('',(-6.625000000000000,-3.169999999999845,-4.0));
#1100=DIRECTION('',(0.0,0.0,1.0));
#1101=VECTOR('',#1100,4.0);
#1102=LINE('',#1099,#1101);
#1103=EDGE_CURVE('',#1038,#1070,#1102,.T.);
#1104=ORIENTED_EDGE('',*,*,#1103,.T.);
#1105=ORIENTED_EDGE('',*,*,#1075,.F.);
#1106=CARTESIAN_POINT('',(-6.375000000000000,-3.169999999999845,-4.0));
#1107=DIRECTION('',(0.0,0.0,1.0));
#1108=VECTOR('',#1107,4.0);
#1109=LINE('',#1106,#1108);
#1110=EDGE_CURVE('',#1020,#1062,#1109,.T.);
#1111=ORIENTED_EDGE('',*,*,#1110,.F.);
#1112=ORIENTED_EDGE('',*,*,#1049,.F.);
#1113=EDGE_LOOP('',(#1104,#1105,#1111,#1112));
#1114=FACE_OUTER_BOUND('',#1113,.T.);
#1115=ADVANCED_FACE('',(#1114),#1098,.F.);
#1116=CARTESIAN_POINT('',(-6.625000000000000,-3.144999999999845,-4.200000000000000));
#1117=DIRECTION('',(1.0,0.0,0.0));
#1118=DIRECTION('',(0.0,0.0,-1.0));
#1119=AXIS2_PLACEMENT_3D('',#1116,#1117,#1118);
#1120=PLANE('',#1119);
#1121=CARTESIAN_POINT('',(-6.625000000000000,-3.669999999999845,-4.0));
#1122=DIRECTION('',(0.0,0.0,1.0));
#1123=VECTOR('',#1122,4.0);
#1124=LINE('',#1121,#1123);
#1125=EDGE_CURVE('',#1030,#1078,#1124,.T.);
#1126=ORIENTED_EDGE('',*,*,#1125,.T.);
#1127=ORIENTED_EDGE('',*,*,#1083,.F.);
#1128=ORIENTED_EDGE('',*,*,#1103,.F.);
#1129=ORIENTED_EDGE('',*,*,#1043,.F.);
#1130=EDGE_LOOP('',(#1126,#1127,#1128,#1129));
#1131=FACE_OUTER_BOUND('',#1130,.T.);
#1132=ADVANCED_FACE('',(#1131),#1120,.F.);
#1133=CARTESIAN_POINT('',(-6.637500000000000,-3.669999999999845,-4.200000000000000));
#1134=DIRECTION('',(0.0,1.0,0.0));
#1135=DIRECTION('',(0.0,0.0,1.0));
#1136=AXIS2_PLACEMENT_3D('',#1133,#1134,#1135);
#1137=PLANE('',#1136);
#1138=CARTESIAN_POINT('',(-6.375000000000000,-3.669999999999845,-4.0));
#1139=DIRECTION('',(0.0,0.0,1.0));
#1140=VECTOR('',#1139,4.0);
#1141=LINE('',#1138,#1140);
#1142=EDGE_CURVE('',#1022,#1060,#1141,.T.);
#1143=ORIENTED_EDGE('',*,*,#1142,.T.);
#1144=ORIENTED_EDGE('',*,*,#1089,.F.);
#1145=ORIENTED_EDGE('',*,*,#1125,.F.);
#1146=ORIENTED_EDGE('',*,*,#1035,.F.);
#1147=EDGE_LOOP('',(#1143,#1144,#1145,#1146));
#1148=FACE_OUTER_BOUND('',#1147,.T.);
#1149=ADVANCED_FACE('',(#1148),#1137,.F.);
#1150=CARTESIAN_POINT('',(-6.375000000000000,-3.144999999999845,0.200000000000000));
#1151=DIRECTION('',(-1.0,0.0,0.0));
#1152=DIRECTION('',(0.0,0.0,1.0));
#1153=AXIS2_PLACEMENT_3D('',#1150,#1151,#1152);
#1154=PLANE('',#1153);
#1155=ORIENTED_EDGE('',*,*,#1110,.T.);
#1156=ORIENTED_EDGE('',*,*,#1067,.F.);
#1157=ORIENTED_EDGE('',*,*,#1142,.F.);
#1158=ORIENTED_EDGE('',*,*,#1027,.F.);
#1159=EDGE_LOOP('',(#1155,#1156,#1157,#1158));
#1160=FACE_OUTER_BOUND('',#1159,.T.);
#1161=ADVANCED_FACE('',(#1160),#1154,.F.);
#1162=CLOSED_SHELL('',(#1053,#1093,#1115,#1132,#1149,#1161));
#1163=MANIFOLD_SOLID_BREP('1FD',#1162);
#1164=STYLED_ITEM('NONE',(#159),#1163);
#1165=CARTESIAN_POINT('',(-6.637500000000000,-0.604999999999882,-4.0));
#1166=DIRECTION('',(0.0,0.0,-1.0));
#1167=DIRECTION('',(-1.0,0.0,0.0));
#1168=AXIS2_PLACEMENT_3D('',#1165,#1166,#1167);
#1169=PLANE('',#1168);
#1170=CARTESIAN_POINT('',(-6.375000000000000,-0.629999999999882,-4.0));
#1171=VERTEX_POINT('',#1170);
#1172=CARTESIAN_POINT('',(-6.375000000000000,-1.129999999999882,-4.0));
#1173=VERTEX_POINT('',#1172);
#1174=CARTESIAN_POINT('',(-6.375000000000000,-0.629999999999882,-4.0));
#1175=DIRECTION('',(0.0,-1.0,0.0));
#1176=VECTOR('',#1175,0.500000000000000);
#1177=LINE('',#1174,#1176);
#1178=EDGE_CURVE('',#1171,#1173,#1177,.T.);
#1179=ORIENTED_EDGE('',*,*,#1178,.T.);
#1180=CARTESIAN_POINT('',(-6.625000000000000,-1.129999999999882,-4.0));
#1181=VERTEX_POINT('',#1180);
#1182=CARTESIAN_POINT('',(-6.375000000000000,-1.129999999999882,-4.0));
#1183=DIRECTION('',(-1.0,0.0,0.0));
#1184=VECTOR('',#1183,0.250000000000000);
#1185=LINE('',#1182,#1184);
#1186=EDGE_CURVE('',#1173,#1181,#1185,.T.);
#1187=ORIENTED_EDGE('',*,*,#1186,.T.);
#1188=CARTESIAN_POINT('',(-6.625000000000000,-0.629999999999882,-4.0));
#1189=VERTEX_POINT('',#1188);
#1190=CARTESIAN_POINT('',(-6.625000000000000,-1.129999999999882,-4.0));
#1191=DIRECTION('',(0.0,1.0,0.0));
#1192=VECTOR('',#1191,0.500000000000000);
#1193=LINE('',#1190,#1192);
#1194=EDGE_CURVE('',#1181,#1189,#1193,.T.);
#1195=ORIENTED_EDGE('',*,*,#1194,.T.);
#1196=CARTESIAN_POINT('',(-6.625000000000000,-0.629999999999882,-4.0));
#1197=DIRECTION('',(1.0,0.0,0.0));
#1198=VECTOR('',#1197,0.250000000000000);
#1199=LINE('',#1196,#1198);
#1200=EDGE_CURVE('',#1189,#1171,#1199,.T.);
#1201=ORIENTED_EDGE('',*,*,#1200,.T.);
#1202=EDGE_LOOP('',(#1179,#1187,#1195,#1201));
#1203=FACE_OUTER_BOUND('',#1202,.T.);
#1204=ADVANCED_FACE('',(#1203),#1169,.T.);
#1205=CARTESIAN_POINT('',(-6.637500000000000,-0.604999999999882,0.0));
#1206=DIRECTION('',(0.0,0.0,-1.0));
#1207=DIRECTION('',(-1.0,0.0,0.0));
#1208=AXIS2_PLACEMENT_3D('',#1205,#1206,#1207);
#1209=PLANE('',#1208);
#1210=CARTESIAN_POINT('',(-6.375000000000000,-1.129999999999882,0.0));
#1211=VERTEX_POINT('',#1210);
#1212=CARTESIAN_POINT('',(-6.375000000000000,-0.629999999999882,0.0));
#1213=VERTEX_POINT('',#1212);
#1214=CARTESIAN_POINT('',(-6.375000000000000,-1.129999999999882,0.0));
#1215=DIRECTION('',(0.0,1.0,0.0));
#1216=VECTOR('',#1215,0.500000000000000);
#1217=LINE('',#1214,#1216);
#1218=EDGE_CURVE('',#1211,#1213,#1217,.T.);
#1219=ORIENTED_EDGE('',*,*,#1218,.T.);
#1220=CARTESIAN_POINT('',(-6.625000000000000,-0.629999999999882,0.0));
#1221=VERTEX_POINT('',#1220);
#1222=CARTESIAN_POINT('',(-6.375000000000000,-0.629999999999882,0.0));
#1223=DIRECTION('',(-1.0,0.0,0.0));
#1224=VECTOR('',#1223,0.250000000000000);
#1225=LINE('',#1222,#1224);
#1226=EDGE_CURVE('',#1213,#1221,#1225,.T.);
#1227=ORIENTED_EDGE('',*,*,#1226,.T.);
#1228=CARTESIAN_POINT('',(-6.625000000000000,-1.129999999999882,0.0));
#1229=VERTEX_POINT('',#1228);
#1230=CARTESIAN_POINT('',(-6.625000000000000,-0.629999999999882,0.0));
#1231=DIRECTION('',(0.0,-1.0,0.0));
#1232=VECTOR('',#1231,0.500000000000000);
#1233=LINE('',#1230,#1232);
#1234=EDGE_CURVE('',#1221,#1229,#1233,.T.);
#1235=ORIENTED_EDGE('',*,*,#1234,.T.);
#1236=CARTESIAN_POINT('',(-6.625000000000000,-1.129999999999882,0.0));
#1237=DIRECTION('',(1.0,0.0,0.0));
#1238=VECTOR('',#1237,0.250000000000000);
#1239=LINE('',#1236,#1238);
#1240=EDGE_CURVE('',#1229,#1211,#1239,.T.);
#1241=ORIENTED_EDGE('',*,*,#1240,.T.);
#1242=EDGE_LOOP('',(#1219,#1227,#1235,#1241));
#1243=FACE_OUTER_BOUND('',#1242,.T.);
#1244=ADVANCED_FACE('',(#1243),#1209,.F.);
#1245=CARTESIAN_POINT('',(-6.637500000000000,-0.629999999999882,0.200000000000000));
#1246=DIRECTION('',(0.0,-1.0,0.0));
#1247=DIRECTION('',(0.0,0.0,-1.0));
#1248=AXIS2_PLACEMENT_3D('',#1245,#1246,#1247);
#1249=PLANE('',#1248);
#1250=CARTESIAN_POINT('',(-6.625000000000000,-0.629999999999882,-4.0));
#1251=DIRECTION('',(0.0,0.0,1.0));
#1252=VECTOR('',#1251,4.0);
#1253=LINE('',#1250,#1252);
#1254=EDGE_CURVE('',#1189,#1221,#1253,.T.);
#1255=ORIENTED_EDGE('',*,*,#1254,.T.);
#1256=ORIENTED_EDGE('',*,*,#1226,.F.);
#1257=CARTESIAN_POINT('',(-6.375000000000000,-0.629999999999882,-4.0));
#1258=DIRECTION('',(0.0,0.0,1.0));
#1259=VECTOR('',#1258,4.0);
#1260=LINE('',#1257,#1259);
#1261=EDGE_CURVE('',#1171,#1213,#1260,.T.);
#1262=ORIENTED_EDGE('',*,*,#1261,.F.);
#1263=ORIENTED_EDGE('',*,*,#1200,.F.);
#1264=EDGE_LOOP('',(#1255,#1256,#1262,#1263));
#1265=FACE_OUTER_BOUND('',#1264,.T.);
#1266=ADVANCED_FACE('',(#1265),#1249,.F.);
#1267=CARTESIAN_POINT('',(-6.625000000000000,-0.604999999999882,-4.200000000000000));
#1268=DIRECTION('',(1.0,0.0,0.0));
#1269=DIRECTION('',(0.0,0.0,-1.0));
#1270=AXIS2_PLACEMENT_3D('',#1267,#1268,#1269);
#1271=PLANE('',#1270);
#1272=CARTESIAN_POINT('',(-6.625000000000000,-1.129999999999882,-4.0));
#1273=DIRECTION('',(0.0,0.0,1.0));
#1274=VECTOR('',#1273,4.0);
#1275=LINE('',#1272,#1274);
#1276=EDGE_CURVE('',#1181,#1229,#1275,.T.);
#1277=ORIENTED_EDGE('',*,*,#1276,.T.);
#1278=ORIENTED_EDGE('',*,*,#1234,.F.);
#1279=ORIENTED_EDGE('',*,*,#1254,.F.);
#1280=ORIENTED_EDGE('',*,*,#1194,.F.);
#1281=EDGE_LOOP('',(#1277,#1278,#1279,#1280));
#1282=FACE_OUTER_BOUND('',#1281,.T.);
#1283=ADVANCED_FACE('',(#1282),#1271,.F.);
#1284=CARTESIAN_POINT('',(-6.637500000000000,-1.129999999999882,-4.200000000000000));
#1285=DIRECTION('',(0.0,1.0,0.0));
#1286=DIRECTION('',(0.0,0.0,1.0));
#1287=AXIS2_PLACEMENT_3D('',#1284,#1285,#1286);
#1288=PLANE('',#1287);
#1289=CARTESIAN_POINT('',(-6.375000000000000,-1.129999999999882,-4.0));
#1290=DIRECTION('',(0.0,0.0,1.0));
#1291=VECTOR('',#1290,4.0);
#1292=LINE('',#1289,#1291);
#1293=EDGE_CURVE('',#1173,#1211,#1292,.T.);
#1294=ORIENTED_EDGE('',*,*,#1293,.T.);
#1295=ORIENTED_EDGE('',*,*,#1240,.F.);
#1296=ORIENTED_EDGE('',*,*,#1276,.F.);
#1297=ORIENTED_EDGE('',*,*,#1186,.F.);
#1298=EDGE_LOOP('',(#1294,#1295,#1296,#1297));
#1299=FACE_OUTER_BOUND('',#1298,.T.);
#1300=ADVANCED_FACE('',(#1299),#1288,.F.);
#1301=CARTESIAN_POINT('',(-6.375000000000000,-0.604999999999882,0.200000000000000));
#1302=DIRECTION('',(-1.0,0.0,0.0));
#1303=DIRECTION('',(0.0,0.0,1.0));
#1304=AXIS2_PLACEMENT_3D('',#1301,#1302,#1303);
#1305=PLANE('',#1304);
#1306=ORIENTED_EDGE('',*,*,#1261,.T.);
#1307=ORIENTED_EDGE('',*,*,#1218,.F.);
#1308=ORIENTED_EDGE('',*,*,#1293,.F.);
#1309=ORIENTED_EDGE('',*,*,#1178,.F.);
#1310=EDGE_LOOP('',(#1306,#1307,#1308,#1309));
#1311=FACE_OUTER_BOUND('',#1310,.T.);
#1312=ADVANCED_FACE('',(#1311),#1305,.F.);
#1313=CLOSED_SHELL('',(#1204,#1244,#1266,#1283,#1300,#1312));
#1314=MANIFOLD_SOLID_BREP('1FB',#1313);
#1315=STYLED_ITEM('NONE',(#159),#1314);
#1316=CARTESIAN_POINT('',(-6.637500000000000,1.935000000000083,-4.0));
#1317=DIRECTION('',(0.0,0.0,-1.0));
#1318=DIRECTION('',(-1.0,0.0,0.0));
#1319=AXIS2_PLACEMENT_3D('',#1316,#1317,#1318);
#1320=PLANE('',#1319);
#1321=CARTESIAN_POINT('',(-6.375000000000000,1.910000000000083,-4.0));
#1322=VERTEX_POINT('',#1321);
#1323=CARTESIAN_POINT('',(-6.375000000000000,1.410000000000082,-4.0));
#1324=VERTEX_POINT('',#1323);
#1325=CARTESIAN_POINT('',(-6.375000000000000,1.910000000000083,-4.0));
#1326=DIRECTION('',(0.0,-1.0,0.0));
#1327=VECTOR('',#1326,0.500000000000000);
#1328=LINE('',#1325,#1327);
#1329=EDGE_CURVE('',#1322,#1324,#1328,.T.);
#1330=ORIENTED_EDGE('',*,*,#1329,.T.);
#1331=CARTESIAN_POINT('',(-6.625000000000000,1.410000000000082,-4.0));
#1332=VERTEX_POINT('',#1331);
#1333=CARTESIAN_POINT('',(-6.375000000000000,1.410000000000082,-4.0));
#1334=DIRECTION('',(-1.0,0.0,0.0));
#1335=VECTOR('',#1334,0.250000000000000);
#1336=LINE('',#1333,#1335);
#1337=EDGE_CURVE('',#1324,#1332,#1336,.T.);
#1338=ORIENTED_EDGE('',*,*,#1337,.T.);
#1339=CARTESIAN_POINT('',(-6.625000000000000,1.910000000000083,-4.0));
#1340=VERTEX_POINT('',#1339);
#1341=CARTESIAN_POINT('',(-6.625000000000000,1.410000000000082,-4.0));
#1342=DIRECTION('',(0.0,1.0,0.0));
#1343=VECTOR('',#1342,0.500000000000000);
#1344=LINE('',#1341,#1343);
#1345=EDGE_CURVE('',#1332,#1340,#1344,.T.);
#1346=ORIENTED_EDGE('',*,*,#1345,.T.);
#1347=CARTESIAN_POINT('',(-6.625000000000000,1.910000000000083,-4.0));
#1348=DIRECTION('',(1.0,0.0,0.0));
#1349=VECTOR('',#1348,0.250000000000000);
#1350=LINE('',#1347,#1349);
#1351=EDGE_CURVE('',#1340,#1322,#1350,.T.);
#1352=ORIENTED_EDGE('',*,*,#1351,.T.);
#1353=EDGE_LOOP('',(#1330,#1338,#1346,#1352));
#1354=FACE_OUTER_BOUND('',#1353,.T.);
#1355=ADVANCED_FACE('',(#1354),#1320,.T.);
#1356=CARTESIAN_POINT('',(-6.637500000000000,1.935000000000083,0.0));
#1357=DIRECTION('',(0.0,0.0,-1.0));
#1358=DIRECTION('',(-1.0,0.0,0.0));
#1359=AXIS2_PLACEMENT_3D('',#1356,#1357,#1358);
#1360=PLANE('',#1359);
#1361=CARTESIAN_POINT('',(-6.375000000000000,1.410000000000082,0.0));
#1362=VERTEX_POINT('',#1361);
#1363=CARTESIAN_POINT('',(-6.375000000000000,1.910000000000083,0.0));
#1364=VERTEX_POINT('',#1363);
#1365=CARTESIAN_POINT('',(-6.375000000000000,1.410000000000082,0.0));
#1366=DIRECTION('',(0.0,1.0,0.0));
#1367=VECTOR('',#1366,0.500000000000000);
#1368=LINE('',#1365,#1367);
#1369=EDGE_CURVE('',#1362,#1364,#1368,.T.);
#1370=ORIENTED_EDGE('',*,*,#1369,.T.);
#1371=CARTESIAN_POINT('',(-6.625000000000000,1.910000000000083,0.0));
#1372=VERTEX_POINT('',#1371);
#1373=CARTESIAN_POINT('',(-6.375000000000000,1.910000000000083,0.0));
#1374=DIRECTION('',(-1.0,0.0,0.0));
#1375=VECTOR('',#1374,0.250000000000000);
#1376=LINE('',#1373,#1375);
#1377=EDGE_CURVE('',#1364,#1372,#1376,.T.);
#1378=ORIENTED_EDGE('',*,*,#1377,.T.);
#1379=CARTESIAN_POINT('',(-6.625000000000000,1.410000000000082,0.0));
#1380=VERTEX_POINT('',#1379);
#1381=CARTESIAN_POINT('',(-6.625000000000000,1.910000000000083,0.0));
#1382=DIRECTION('',(0.0,-1.0,0.0));
#1383=VECTOR('',#1382,0.500000000000000);
#1384=LINE('',#1381,#1383);
#1385=EDGE_CURVE('',#1372,#1380,#1384,.T.);
#1386=ORIENTED_EDGE('',*,*,#1385,.T.);
#1387=CARTESIAN_POINT('',(-6.625000000000000,1.410000000000082,0.0));
#1388=DIRECTION('',(1.0,0.0,0.0));
#1389=VECTOR('',#1388,0.250000000000000);
#1390=LINE('',#1387,#1389);
#1391=EDGE_CURVE('',#1380,#1362,#1390,.T.);
#1392=ORIENTED_EDGE('',*,*,#1391,.T.);
#1393=EDGE_LOOP('',(#1370,#1378,#1386,#1392));
#1394=FACE_OUTER_BOUND('',#1393,.T.);
#1395=ADVANCED_FACE('',(#1394),#1360,.F.);
#1396=CARTESIAN_POINT('',(-6.637500000000000,1.910000000000083,0.200000000000000));
#1397=DIRECTION('',(0.0,-1.0,0.0));
#1398=DIRECTION('',(0.0,0.0,-1.0));
#1399=AXIS2_PLACEMENT_3D('',#1396,#1397,#1398);
#1400=PLANE('',#1399);
#1401=CARTESIAN_POINT('',(-6.625000000000000,1.910000000000083,-4.0));
#1402=DIRECTION('',(0.0,0.0,1.0));
#1403=VECTOR('',#1402,4.0);
#1404=LINE('',#1401,#1403);
#1405=EDGE_CURVE('',#1340,#1372,#1404,.T.);
#1406=ORIENTED_EDGE('',*,*,#1405,.T.);
#1407=ORIENTED_EDGE('',*,*,#1377,.F.);
#1408=CARTESIAN_POINT('',(-6.375000000000000,1.910000000000083,-4.0));
#1409=DIRECTION('',(0.0,0.0,1.0));
#1410=VECTOR('',#1409,4.0);
#1411=LINE('',#1408,#1410);
#1412=EDGE_CURVE('',#1322,#1364,#1411,.T.);
#1413=ORIENTED_EDGE('',*,*,#1412,.F.);
#1414=ORIENTED_EDGE('',*,*,#1351,.F.);
#1415=EDGE_LOOP('',(#1406,#1407,#1413,#1414));
#1416=FACE_OUTER_BOUND('',#1415,.T.);
#1417=ADVANCED_FACE('',(#1416),#1400,.F.);
#1418=CARTESIAN_POINT('',(-6.625000000000000,1.935000000000083,-4.200000000000000));
#1419=DIRECTION('',(1.0,0.0,0.0));
#1420=DIRECTION('',(0.0,0.0,-1.0));
#1421=AXIS2_PLACEMENT_3D('',#1418,#1419,#1420);
#1422=PLANE('',#1421);
#1423=CARTESIAN_POINT('',(-6.625000000000000,1.410000000000082,-4.0));
#1424=DIRECTION('',(0.0,0.0,1.0));
#1425=VECTOR('',#1424,4.0);
#1426=LINE('',#1423,#1425);
#1427=EDGE_CURVE('',#1332,#1380,#1426,.T.);
#1428=ORIENTED_EDGE('',*,*,#1427,.T.);
#1429=ORIENTED_EDGE('',*,*,#1385,.F.);
#1430=ORIENTED_EDGE('',*,*,#1405,.F.);
#1431=ORIENTED_EDGE('',*,*,#1345,.F.);
#1432=EDGE_LOOP('',(#1428,#1429,#1430,#1431));
#1433=FACE_OUTER_BOUND('',#1432,.T.);
#1434=ADVANCED_FACE('',(#1433),#1422,.F.);
#1435=CARTESIAN_POINT('',(-6.637500000000000,1.410000000000082,-4.200000000000000));
#1436=DIRECTION('',(0.0,1.0,0.0));
#1437=DIRECTION('',(0.0,0.0,1.0));
#1438=AXIS2_PLACEMENT_3D('',#1435,#1436,#1437);
#1439=PLANE('',#1438);
#1440=CARTESIAN_POINT('',(-6.375000000000000,1.410000000000082,-4.0));
#1441=DIRECTION('',(0.0,0.0,1.0));
#1442=VECTOR('',#1441,4.0);
#1443=LINE('',#1440,#1442);
#1444=EDGE_CURVE('',#1324,#1362,#1443,.T.);
#1445=ORIENTED_EDGE('',*,*,#1444,.T.);
#1446=ORIENTED_EDGE('',*,*,#1391,.F.);
#1447=ORIENTED_EDGE('',*,*,#1427,.F.);
#1448=ORIENTED_EDGE('',*,*,#1337,.F.);
#1449=EDGE_LOOP('',(#1445,#1446,#1447,#1448));
#1450=FACE_OUTER_BOUND('',#1449,.T.);
#1451=ADVANCED_FACE('',(#1450),#1439,.F.);
#1452=CARTESIAN_POINT('',(-6.375000000000000,1.935000000000083,0.200000000000000));
#1453=DIRECTION('',(-1.0,0.0,0.0));
#1454=DIRECTION('',(0.0,0.0,1.0));
#1455=AXIS2_PLACEMENT_3D('',#1452,#1453,#1454);
#1456=PLANE('',#1455);
#1457=ORIENTED_EDGE('',*,*,#1412,.T.);
#1458=ORIENTED_EDGE('',*,*,#1369,.F.);
#1459=ORIENTED_EDGE('',*,*,#1444,.F.);
#1460=ORIENTED_EDGE('',*,*,#1329,.F.);
#1461=EDGE_LOOP('',(#1457,#1458,#1459,#1460));
#1462=FACE_OUTER_BOUND('',#1461,.T.);
#1463=ADVANCED_FACE('',(#1462),#1456,.F.);
#1464=CLOSED_SHELL('',(#1355,#1395,#1417,#1434,#1451,#1463));
#1465=MANIFOLD_SOLID_BREP('1FA',#1464);
#1466=STYLED_ITEM('NONE',(#159),#1465);
#1467=CARTESIAN_POINT('',(-6.637500000000000,4.475000000000046,-4.0));
#1468=DIRECTION('',(0.0,0.0,-1.0));
#1469=DIRECTION('',(-1.0,0.0,0.0));
#1470=AXIS2_PLACEMENT_3D('',#1467,#1468,#1469);
#1471=PLANE('',#1470);
#1472=CARTESIAN_POINT('',(-6.375000000000000,4.450000000000046,-4.0));
#1473=VERTEX_POINT('',#1472);
#1474=CARTESIAN_POINT('',(-6.375000000000000,3.950000000000046,-4.0));
#1475=VERTEX_POINT('',#1474);
#1476=CARTESIAN_POINT('',(-6.375000000000000,4.450000000000046,-4.0));
#1477=DIRECTION('',(0.0,-1.0,0.0));
#1478=VECTOR('',#1477,0.499999999999999);
#1479=LINE('',#1476,#1478);
#1480=EDGE_CURVE('',#1473,#1475,#1479,.T.);
#1481=ORIENTED_EDGE('',*,*,#1480,.T.);
#1482=CARTESIAN_POINT('',(-6.625000000000000,3.950000000000046,-4.0));
#1483=VERTEX_POINT('',#1482);
#1484=CARTESIAN_POINT('',(-6.375000000000000,3.950000000000046,-4.0));
#1485=DIRECTION('',(-1.0,0.0,0.0));
#1486=VECTOR('',#1485,0.250000000000000);
#1487=LINE('',#1484,#1486);
#1488=EDGE_CURVE('',#1475,#1483,#1487,.T.);
#1489=ORIENTED_EDGE('',*,*,#1488,.T.);
#1490=CARTESIAN_POINT('',(-6.625000000000000,4.450000000000046,-4.0));
#1491=VERTEX_POINT('',#1490);
#1492=CARTESIAN_POINT('',(-6.625000000000000,3.950000000000046,-4.0));
#1493=DIRECTION('',(0.0,1.0,0.0));
#1494=VECTOR('',#1493,0.499999999999999);
#1495=LINE('',#1492,#1494);
#1496=EDGE_CURVE('',#1483,#1491,#1495,.T.);
#1497=ORIENTED_EDGE('',*,*,#1496,.T.);
#1498=CARTESIAN_POINT('',(-6.625000000000000,4.450000000000046,-4.0));
#1499=DIRECTION('',(1.0,0.0,0.0));
#1500=VECTOR('',#1499,0.250000000000000);
#1501=LINE('',#1498,#1500);
#1502=EDGE_CURVE('',#1491,#1473,#1501,.T.);
#1503=ORIENTED_EDGE('',*,*,#1502,.T.);
#1504=EDGE_LOOP('',(#1481,#1489,#1497,#1503));
#1505=FACE_OUTER_BOUND('',#1504,.T.);
#1506=ADVANCED_FACE('',(#1505),#1471,.T.);
#1507=CARTESIAN_POINT('',(-6.637500000000000,4.475000000000046,0.0));
#1508=DIRECTION('',(0.0,0.0,-1.0));
#1509=DIRECTION('',(-1.0,0.0,0.0));
#1510=AXIS2_PLACEMENT_3D('',#1507,#1508,#1509);
#1511=PLANE('',#1510);
#1512=CARTESIAN_POINT('',(-6.375000000000000,3.950000000000046,0.0));
#1513=VERTEX_POINT('',#1512);
#1514=CARTESIAN_POINT('',(-6.375000000000000,4.450000000000046,0.0));
#1515=VERTEX_POINT('',#1514);
#1516=CARTESIAN_POINT('',(-6.375000000000000,3.950000000000046,0.0));
#1517=DIRECTION('',(0.0,1.0,0.0));
#1518=VECTOR('',#1517,0.499999999999999);
#1519=LINE('',#1516,#1518);
#1520=EDGE_CURVE('',#1513,#1515,#1519,.T.);
#1521=ORIENTED_EDGE('',*,*,#1520,.T.);
#1522=CARTESIAN_POINT('',(-6.625000000000000,4.450000000000046,0.0));
#1523=VERTEX_POINT('',#1522);
#1524=CARTESIAN_POINT('',(-6.375000000000000,4.450000000000046,0.0));
#1525=DIRECTION('',(-1.0,0.0,0.0));
#1526=VECTOR('',#1525,0.250000000000000);
#1527=LINE('',#1524,#1526);
#1528=EDGE_CURVE('',#1515,#1523,#1527,.T.);
#1529=ORIENTED_EDGE('',*,*,#1528,.T.);
#1530=CARTESIAN_POINT('',(-6.625000000000000,3.950000000000046,0.0));
#1531=VERTEX_POINT('',#1530);
#1532=CARTESIAN_POINT('',(-6.625000000000000,4.450000000000046,0.0));
#1533=DIRECTION('',(0.0,-1.0,0.0));
#1534=VECTOR('',#1533,0.499999999999999);
#1535=LINE('',#1532,#1534);
#1536=EDGE_CURVE('',#1523,#1531,#1535,.T.);
#1537=ORIENTED_EDGE('',*,*,#1536,.T.);
#1538=CARTESIAN_POINT('',(-6.625000000000000,3.950000000000046,0.0));
#1539=DIRECTION('',(1.0,0.0,0.0));
#1540=VECTOR('',#1539,0.250000000000000);
#1541=LINE('',#1538,#1540);
#1542=EDGE_CURVE('',#1531,#1513,#1541,.T.);
#1543=ORIENTED_EDGE('',*,*,#1542,.T.);
#1544=EDGE_LOOP('',(#1521,#1529,#1537,#1543));
#1545=FACE_OUTER_BOUND('',#1544,.T.);
#1546=ADVANCED_FACE('',(#1545),#1511,.F.);
#1547=CARTESIAN_POINT('',(-6.637500000000000,4.450000000000046,0.200000000000000));
#1548=DIRECTION('',(0.0,-1.0,0.0));
#1549=DIRECTION('',(0.0,0.0,-1.0));
#1550=AXIS2_PLACEMENT_3D('',#1547,#1548,#1549);
#1551=PLANE('',#1550);
#1552=CARTESIAN_POINT('',(-6.625000000000000,4.450000000000046,-4.0));
#1553=DIRECTION('',(0.0,0.0,1.0));
#1554=VECTOR('',#1553,4.0);
#1555=LINE('',#1552,#1554);
#1556=EDGE_CURVE('',#1491,#1523,#1555,.T.);
#1557=ORIENTED_EDGE('',*,*,#1556,.T.);
#1558=ORIENTED_EDGE('',*,*,#1528,.F.);
#1559=CARTESIAN_POINT('',(-6.375000000000000,4.450000000000046,-4.0));
#1560=DIRECTION('',(0.0,0.0,1.0));
#1561=VECTOR('',#1560,4.0);
#1562=LINE('',#1559,#1561);
#1563=EDGE_CURVE('',#1473,#1515,#1562,.T.);
#1564=ORIENTED_EDGE('',*,*,#1563,.F.);
#1565=ORIENTED_EDGE('',*,*,#1502,.F.);
#1566=EDGE_LOOP('',(#1557,#1558,#1564,#1565));
#1567=FACE_OUTER_BOUND('',#1566,.T.);
#1568=ADVANCED_FACE('',(#1567),#1551,.F.);
#1569=CARTESIAN_POINT('',(-6.625000000000000,4.475000000000046,-4.200000000000000));
#1570=DIRECTION('',(1.0,0.0,0.0));
#1571=DIRECTION('',(0.0,0.0,-1.0));
#1572=AXIS2_PLACEMENT_3D('',#1569,#1570,#1571);
#1573=PLANE('',#1572);
#1574=CARTESIAN_POINT('',(-6.625000000000000,3.950000000000046,-4.0));
#1575=DIRECTION('',(0.0,0.0,1.0));
#1576=VECTOR('',#1575,4.0);
#1577=LINE('',#1574,#1576);
#1578=EDGE_CURVE('',#1483,#1531,#1577,.T.);
#1579=ORIENTED_EDGE('',*,*,#1578,.T.);
#1580=ORIENTED_EDGE('',*,*,#1536,.F.);
#1581=ORIENTED_EDGE('',*,*,#1556,.F.);
#1582=ORIENTED_EDGE('',*,*,#1496,.F.);
#1583=EDGE_LOOP('',(#1579,#1580,#1581,#1582));
#1584=FACE_OUTER_BOUND('',#1583,.T.);
#1585=ADVANCED_FACE('',(#1584),#1573,.F.);
#1586=CARTESIAN_POINT('',(-6.637500000000000,3.950000000000046,-4.200000000000000));
#1587=DIRECTION('',(0.0,1.0,0.0));
#1588=DIRECTION('',(0.0,0.0,1.0));
#1589=AXIS2_PLACEMENT_3D('',#1586,#1587,#1588);
#1590=PLANE('',#1589);
#1591=CARTESIAN_POINT('',(-6.375000000000000,3.950000000000046,-4.0));
#1592=DIRECTION('',(0.0,0.0,1.0));
#1593=VECTOR('',#1592,4.0);
#1594=LINE('',#1591,#1593);
#1595=EDGE_CURVE('',#1475,#1513,#1594,.T.);
#1596=ORIENTED_EDGE('',*,*,#1595,.T.);
#1597=ORIENTED_EDGE('',*,*,#1542,.F.);
#1598=ORIENTED_EDGE('',*,*,#1578,.F.);
#1599=ORIENTED_EDGE('',*,*,#1488,.F.);
#1600=EDGE_LOOP('',(#1596,#1597,#1598,#1599));
#1601=FACE_OUTER_BOUND('',#1600,.T.);
#1602=ADVANCED_FACE('',(#1601),#1590,.F.);
#1603=CARTESIAN_POINT('',(-6.375000000000000,4.475000000000046,0.200000000000000));
#1604=DIRECTION('',(-1.0,0.0,0.0));
#1605=DIRECTION('',(0.0,0.0,1.0));
#1606=AXIS2_PLACEMENT_3D('',#1603,#1604,#1605);
#1607=PLANE('',#1606);
#1608=ORIENTED_EDGE('',*,*,#1563,.T.);
#1609=ORIENTED_EDGE('',*,*,#1520,.F.);
#1610=ORIENTED_EDGE('',*,*,#1595,.F.);
#1611=ORIENTED_EDGE('',*,*,#1480,.F.);
#1612=EDGE_LOOP('',(#1608,#1609,#1610,#1611));
#1613=FACE_OUTER_BOUND('',#1612,.T.);
#1614=ADVANCED_FACE('',(#1613),#1607,.F.);
#1615=CLOSED_SHELL('',(#1506,#1546,#1568,#1585,#1602,#1614));
#1616=MANIFOLD_SOLID_BREP('1F9',#1615);
#1617=STYLED_ITEM('NONE',(#159),#1616);
#1618=ADVANCED_BREP_SHAPE_REPRESENTATION('ABSR1',(#152,#250,#1005,#1163,#1314,#1465,#1616),#28);
#1619=SHAPE_REPRESENTATION_RELATIONSHIP('SRRPL1','',#1618,#62);
ENDSEC;
END-ISO-10303-21;
