ISO-10303-21;
HEADER;
/****************************************************************
 * Generated by software with PDElib inside                    *
 * PDElib Version v51a, created Fri 09/10/2010                  *
 * ITI Transcendata (http://www.transcendata.com/)              *
 ****************************************************************/
FILE_DESCRIPTION((''),'2;1');
FILE_NAME('SENS_LEM_LV 25-P.stp','2012-08-28T11:27:12',(''),(''),'Mechanical Desktop 2011','Mechanical Desktop 2011',', , ');
FILE_SCHEMA(('AUTOMOTIVE_DESIGN { 1 2 10303 214 1 1 1 1 }'));
ENDSEC;
DATA;
#10=(NAMED_UNIT(*)PLANE_ANGLE_UNIT()SI_UNIT($,.RADIAN.));
#11=DIMENSIONAL_EXPONENTS(0.0,0.0,0.0,0.0,0.0,0.0,0.0);
#12=PLANE_ANGLE_MEASURE_WITH_UNIT(PLANE_ANGLE_MEASURE(0.0174532925),#10);
#16=(CONVERSION_BASED_UNIT('DEGREE',#12)NAMED_UNIT(#11)PLANE_ANGLE_UNIT());
#20=(NAMED_UNIT(*)SI_UNIT($,.STERADIAN.)SOLID_ANGLE_UNIT());
#24=(LENGTH_UNIT()NAMED_UNIT(*)SI_UNIT(.MILLI.,.METRE.));
#26=UNCERTAINTY_MEASURE_WITH_UNIT(LENGTH_MEASURE(0.000001),#24,'DISTANCE_ACCURACY_VALUE','');
#28=(GEOMETRIC_REPRESENTATION_CONTEXT(3)GLOBAL_UNCERTAINTY_ASSIGNED_CONTEXT((#26))GLOBAL_UNIT_ASSIGNED_CONTEXT((#16,#20,#24))REPRESENTATION_CONTEXT('','3D'));
#29=APPLICATION_CONTEXT('automotive design');
#30=APPLICATION_PROTOCOL_DEFINITION('INTERNATIONAL_STANDARD','automotive_design',1998,#29);
#31=PRODUCT_CONTEXT('3D Mechanical Parts',#29,'mechanical');
#32=PRODUCT('Product','Product','',(#31));
#33=PRODUCT_RELATED_PRODUCT_CATEGORY('part',$,(#32));
#34=PRODUCT_CATEGORY('part',$);
#35=PERSON('1','Design','Joe',$,$,$);
#36=ORGANIZATION($,'None','None');
#37=PERSON_AND_ORGANIZATION(#35,#36);
#38=PERSON_AND_ORGANIZATION_ROLE('design_owner');
#39=APPLIED_PERSON_AND_ORGANIZATION_ASSIGNMENT(#37,#38,(#32));
#40=PRODUCT_DEFINITION_FORMATION_WITH_SPECIFIED_SOURCE('None','',#32,.BOUGHT.);
#41=PERSON('2','Creator','Joe',$,$,$);
#42=ORGANIZATION($,'None','None');
#43=PERSON_AND_ORGANIZATION(#41,#42);
#44=PERSON_AND_ORGANIZATION_ROLE('creator');
#45=APPLIED_PERSON_AND_ORGANIZATION_ASSIGNMENT(#43,#44,(#40));
#46=PERSON('3','Supplier','Joe',$,$,$);
#47=ORGANIZATION($,'None','None');
#48=PERSON_AND_ORGANIZATION(#46,#47);
#49=PERSON_AND_ORGANIZATION_ROLE('design_supplier');
#50=APPLIED_PERSON_AND_ORGANIZATION_ASSIGNMENT(#48,#49,(#40));
#51=PRODUCT_DEFINITION_CONTEXT('part definition',#29,'design');
#52=PRODUCT_DEFINITION('None','',#40,#51);
#53=PERSON('4','Creator','Joe',$,$,$);
#54=ORGANIZATION($,'None','None');
#55=PERSON_AND_ORGANIZATION(#53,#54);
#56=PERSON_AND_ORGANIZATION_ROLE('creator');
#57=APPLIED_PERSON_AND_ORGANIZATION_ASSIGNMENT(#55,#56,(#52));
#58=CARTESIAN_POINT('NONE',(0.0,0.0,0.0));
#59=DIRECTION('NONE',(0.0,0.0,1.0));
#60=DIRECTION('NONE',(1.0,0.0,0.0));
#61=AXIS2_PLACEMENT_3D('NONE',#58,#59,#60);
#62=SHAPE_REPRESENTATION('SR1',(#61),#28);
#63=PRODUCT_DEFINITION_SHAPE('PDS1','Test Part',#52);
#64=SHAPE_DEFINITION_REPRESENTATION(#63,#62);
#65=CARTESIAN_POINT('',(10.842499999999996,-7.302499999999997,1.2));
#66=DIRECTION('',(-1.0,0.0,0.0));
#67=DIRECTION('',(0.0,0.0,-1.0));
#68=AXIS2_PLACEMENT_3D('',#65,#66,#67);
#69=PLANE('',#68);
#70=CARTESIAN_POINT('',(10.842499999999996,-7.302499999999997,-3.2));
#71=VERTEX_POINT('',#70);
#72=CARTESIAN_POINT('',(10.842499999999996,-7.937499999999998,-3.2));
#73=VERTEX_POINT('',#72);
#74=CARTESIAN_POINT('',(10.842499999999996,-7.302499999999997,-3.2));
#75=DIRECTION('',(0.0,-1.0,0.0));
#76=VECTOR('',#75,0.635000000000002);
#77=LINE('',#74,#76);
#78=EDGE_CURVE('',#71,#73,#77,.T.);
#79=ORIENTED_EDGE('',*,*,#78,.T.);
#80=CARTESIAN_POINT('',(10.842499999999996,-7.937499999999998,1.2));
#81=VERTEX_POINT('',#80);
#82=CARTESIAN_POINT('',(10.842499999999996,-7.937499999999998,1.2));
#83=DIRECTION('',(0.0,0.0,-1.0));
#84=VECTOR('',#83,4.4);
#85=LINE('',#82,#84);
#86=EDGE_CURVE('',#81,#73,#85,.T.);
#87=ORIENTED_EDGE('',*,*,#86,.F.);
#88=CARTESIAN_POINT('',(10.842499999999996,-7.302499999999997,1.2));
#89=VERTEX_POINT('',#88);
#90=CARTESIAN_POINT('',(10.842499999999996,-7.302499999999997,1.2));
#91=DIRECTION('',(0.0,-1.0,0.0));
#92=VECTOR('',#91,0.635000000000002);
#93=LINE('',#90,#92);
#94=EDGE_CURVE('',#89,#81,#93,.T.);
#95=ORIENTED_EDGE('',*,*,#94,.F.);
#96=CARTESIAN_POINT('',(10.842499999999996,-7.302499999999997,1.2));
#97=DIRECTION('',(0.0,0.0,-1.0));
#98=VECTOR('',#97,4.4);
#99=LINE('',#96,#98);
#100=EDGE_CURVE('',#89,#71,#99,.T.);
#101=ORIENTED_EDGE('',*,*,#100,.T.);
#102=EDGE_LOOP('',(#79,#87,#95,#101));
#103=FACE_OUTER_BOUND('',#102,.T.);
#104=ADVANCED_FACE('',(#103),#69,.T.);
#105=CARTESIAN_POINT('',(10.842499999999996,-7.937499999999998,1.2));
#106=DIRECTION('',(0.0,-1.0,0.0));
#107=DIRECTION('',(0.0,0.0,-1.0));
#108=AXIS2_PLACEMENT_3D('',#105,#106,#107);
#109=PLANE('',#108);
#110=CARTESIAN_POINT('',(11.477499999999997,-7.937499999999998,-3.2));
#111=VERTEX_POINT('',#110);
#112=CARTESIAN_POINT('',(10.842499999999996,-7.937499999999998,-3.2));
#113=DIRECTION('',(1.0,0.0,0.0));
#114=VECTOR('',#113,0.635000000000002);
#115=LINE('',#112,#114);
#116=EDGE_CURVE('',#73,#111,#115,.T.);
#117=ORIENTED_EDGE('',*,*,#116,.T.);
#118=CARTESIAN_POINT('',(11.477499999999997,-7.937499999999998,1.2));
#119=VERTEX_POINT('',#118);
#120=CARTESIAN_POINT('',(11.477499999999997,-7.937499999999998,1.2));
#121=DIRECTION('',(0.0,0.0,-1.0));
#122=VECTOR('',#121,4.4);
#123=LINE('',#120,#122);
#124=EDGE_CURVE('',#119,#111,#123,.T.);
#125=ORIENTED_EDGE('',*,*,#124,.F.);
#126=CARTESIAN_POINT('',(10.842499999999996,-7.937499999999998,1.2));
#127=DIRECTION('',(1.0,0.0,0.0));
#128=VECTOR('',#127,0.635000000000002);
#129=LINE('',#126,#128);
#130=EDGE_CURVE('',#81,#119,#129,.T.);
#131=ORIENTED_EDGE('',*,*,#130,.F.);
#132=ORIENTED_EDGE('',*,*,#86,.T.);
#133=EDGE_LOOP('',(#117,#125,#131,#132));
#134=FACE_OUTER_BOUND('',#133,.T.);
#135=ADVANCED_FACE('',(#134),#109,.T.);
#136=CARTESIAN_POINT('',(11.477499999999997,-7.937499999999998,1.2));
#137=DIRECTION('',(1.0,0.0,0.0));
#138=DIRECTION('',(0.0,0.0,1.0));
#139=AXIS2_PLACEMENT_3D('',#136,#137,#138);
#140=PLANE('',#139);
#141=CARTESIAN_POINT('',(11.477499999999997,-7.302499999999997,-3.2));
#142=VERTEX_POINT('',#141);
#143=CARTESIAN_POINT('',(11.477499999999997,-7.937499999999998,-3.2));
#144=DIRECTION('',(0.0,1.0,0.0));
#145=VECTOR('',#144,0.635000000000002);
#146=LINE('',#143,#145);
#147=EDGE_CURVE('',#111,#142,#146,.T.);
#148=ORIENTED_EDGE('',*,*,#147,.T.);
#149=CARTESIAN_POINT('',(11.477499999999997,-7.302499999999997,1.2));
#150=VERTEX_POINT('',#149);
#151=CARTESIAN_POINT('',(11.477499999999997,-7.302499999999997,1.2));
#152=DIRECTION('',(0.0,0.0,-1.0));
#153=VECTOR('',#152,4.4);
#154=LINE('',#151,#153);
#155=EDGE_CURVE('',#150,#142,#154,.T.);
#156=ORIENTED_EDGE('',*,*,#155,.F.);
#157=CARTESIAN_POINT('',(11.477499999999997,-7.937499999999998,1.2));
#158=DIRECTION('',(0.0,1.0,0.0));
#159=VECTOR('',#158,0.635000000000002);
#160=LINE('',#157,#159);
#161=EDGE_CURVE('',#119,#150,#160,.T.);
#162=ORIENTED_EDGE('',*,*,#161,.F.);
#163=ORIENTED_EDGE('',*,*,#124,.T.);
#164=EDGE_LOOP('',(#148,#156,#162,#163));
#165=FACE_OUTER_BOUND('',#164,.T.);
#166=ADVANCED_FACE('',(#165),#140,.T.);
#167=CARTESIAN_POINT('',(11.477499999999997,-7.302499999999997,1.2));
#168=DIRECTION('',(0.0,1.0,0.0));
#169=DIRECTION('',(0.0,0.0,1.0));
#170=AXIS2_PLACEMENT_3D('',#167,#168,#169);
#171=PLANE('',#170);
#172=CARTESIAN_POINT('',(11.477499999999997,-7.302499999999997,-3.2));
#173=DIRECTION('',(-1.0,0.0,0.0));
#174=VECTOR('',#173,0.635000000000002);
#175=LINE('',#172,#174);
#176=EDGE_CURVE('',#142,#71,#175,.T.);
#177=ORIENTED_EDGE('',*,*,#176,.T.);
#178=ORIENTED_EDGE('',*,*,#100,.F.);
#179=CARTESIAN_POINT('',(11.477499999999997,-7.302499999999997,1.2));
#180=DIRECTION('',(-1.0,0.0,0.0));
#181=VECTOR('',#180,0.635000000000002);
#182=LINE('',#179,#181);
#183=EDGE_CURVE('',#150,#89,#182,.T.);
#184=ORIENTED_EDGE('',*,*,#183,.F.);
#185=ORIENTED_EDGE('',*,*,#155,.T.);
#186=EDGE_LOOP('',(#177,#178,#184,#185));
#187=FACE_OUTER_BOUND('',#186,.T.);
#188=ADVANCED_FACE('',(#187),#171,.T.);
#189=CARTESIAN_POINT('',(11.159999999999997,-7.619999999999997,-3.200000000000001));
#190=DIRECTION('',(0.0,0.0,1.0));
#191=DIRECTION('',(0.0,-1.0,0.0));
#192=AXIS2_PLACEMENT_3D('',#189,#190,#191);
#193=PLANE('',#192);
#194=ORIENTED_EDGE('',*,*,#78,.F.);
#195=ORIENTED_EDGE('',*,*,#176,.F.);
#196=ORIENTED_EDGE('',*,*,#147,.F.);
#197=ORIENTED_EDGE('',*,*,#116,.F.);
#198=EDGE_LOOP('',(#194,#195,#196,#197));
#199=FACE_OUTER_BOUND('',#198,.T.);
#200=ADVANCED_FACE('',(#199),#193,.F.);
#201=CARTESIAN_POINT('',(11.159999999999997,-7.619999999999997,1.2));
#202=DIRECTION('',(0.0,0.0,1.0));
#203=DIRECTION('',(0.0,-1.0,0.0));
#204=AXIS2_PLACEMENT_3D('',#201,#202,#203);
#205=PLANE('',#204);
#206=ORIENTED_EDGE('',*,*,#183,.T.);
#207=ORIENTED_EDGE('',*,*,#94,.T.);
#208=ORIENTED_EDGE('',*,*,#130,.T.);
#209=ORIENTED_EDGE('',*,*,#161,.T.);
#210=EDGE_LOOP('',(#206,#207,#208,#209));
#211=FACE_OUTER_BOUND('',#210,.T.);
#212=ADVANCED_FACE('',(#211),#205,.T.);
#213=CLOSED_SHELL('',(#104,#135,#166,#188,#200,#212));
#214=MANIFOLD_SOLID_BREP('14F1',#213);
#215=COLOUR_RGB('254',0.866,0.866,0.866);
#216=SURFACE_STYLE_USAGE(.BOTH.,#217);
#217=SURFACE_SIDE_STYLE('NONE',(#218));
#218=SURFACE_STYLE_FILL_AREA(#219);
#219=FILL_AREA_STYLE('NONE',(#220));
#220=FILL_AREA_STYLE_COLOUR('NONE',#215);
#221=PRESENTATION_STYLE_ASSIGNMENT((#216));
#222=STYLED_ITEM('NONE',(#221),#214);
#223=MECHANICAL_DESIGN_GEOMETRIC_PRESENTATION_REPRESENTATION('NONE',(#222,#375,#464,#553,#642,#800,#958,#1109,#1260,#1411,#2054),#28);
#224=PRESENTATION_LAYER_ASSIGNMENT('3D','None',(#214,#374,#463,#552,#641,#792,#950,#1108,#1259,#1410,#2053));
#225=CARTESIAN_POINT('',(10.842499999999999,7.937499999999998,1.2));
#226=DIRECTION('',(-1.0,0.0,0.0));
#227=DIRECTION('',(0.0,0.0,-1.0));
#228=AXIS2_PLACEMENT_3D('',#225,#226,#227);
#229=PLANE('',#228);
#230=CARTESIAN_POINT('',(10.842499999999999,7.937499999999998,-3.2));
#231=VERTEX_POINT('',#230);
#232=CARTESIAN_POINT('',(10.842499999999999,7.302499999999997,-3.2));
#233=VERTEX_POINT('',#232);
#234=CARTESIAN_POINT('',(10.842499999999999,7.937499999999998,-3.2));
#235=DIRECTION('',(0.0,-1.0,0.0));
#236=VECTOR('',#235,0.635000000000002);
#237=LINE('',#234,#236);
#238=EDGE_CURVE('',#231,#233,#237,.T.);
#239=ORIENTED_EDGE('',*,*,#238,.T.);
#240=CARTESIAN_POINT('',(10.842499999999999,7.302499999999997,1.2));
#241=VERTEX_POINT('',#240);
#242=CARTESIAN_POINT('',(10.842499999999999,7.302499999999997,1.2));
#243=DIRECTION('',(0.0,0.0,-1.0));
#244=VECTOR('',#243,4.4);
#245=LINE('',#242,#244);
#246=EDGE_CURVE('',#241,#233,#245,.T.);
#247=ORIENTED_EDGE('',*,*,#246,.F.);
#248=CARTESIAN_POINT('',(10.842499999999999,7.937499999999998,1.2));
#249=VERTEX_POINT('',#248);
#250=CARTESIAN_POINT('',(10.842499999999999,7.937499999999998,1.2));
#251=DIRECTION('',(0.0,-1.0,0.0));
#252=VECTOR('',#251,0.635000000000002);
#253=LINE('',#250,#252);
#254=EDGE_CURVE('',#249,#241,#253,.T.);
#255=ORIENTED_EDGE('',*,*,#254,.F.);
#256=CARTESIAN_POINT('',(10.842499999999999,7.937499999999998,1.2));
#257=DIRECTION('',(0.0,0.0,-1.0));
#258=VECTOR('',#257,4.4);
#259=LINE('',#256,#258);
#260=EDGE_CURVE('',#249,#231,#259,.T.);
#261=ORIENTED_EDGE('',*,*,#260,.T.);
#262=EDGE_LOOP('',(#239,#247,#255,#261));
#263=FACE_OUTER_BOUND('',#262,.T.);
#264=ADVANCED_FACE('',(#263),#229,.T.);
#265=CARTESIAN_POINT('',(10.842499999999999,7.302499999999997,1.2));
#266=DIRECTION('',(0.0,-1.0,0.0));
#267=DIRECTION('',(0.0,0.0,-1.0));
#268=AXIS2_PLACEMENT_3D('',#265,#266,#267);
#269=PLANE('',#268);
#270=CARTESIAN_POINT('',(11.477500000000001,7.302499999999997,-3.2));
#271=VERTEX_POINT('',#270);
#272=CARTESIAN_POINT('',(10.842499999999999,7.302499999999997,-3.2));
#273=DIRECTION('',(1.0,0.0,0.0));
#274=VECTOR('',#273,0.635000000000002);
#275=LINE('',#272,#274);
#276=EDGE_CURVE('',#233,#271,#275,.T.);
#277=ORIENTED_EDGE('',*,*,#276,.T.);
#278=CARTESIAN_POINT('',(11.477500000000001,7.302499999999997,1.2));
#279=VERTEX_POINT('',#278);
#280=CARTESIAN_POINT('',(11.477500000000001,7.302499999999997,1.2));
#281=DIRECTION('',(0.0,0.0,-1.0));
#282=VECTOR('',#281,4.4);
#283=LINE('',#280,#282);
#284=EDGE_CURVE('',#279,#271,#283,.T.);
#285=ORIENTED_EDGE('',*,*,#284,.F.);
#286=CARTESIAN_POINT('',(10.842499999999999,7.302499999999997,1.2));
#287=DIRECTION('',(1.0,0.0,0.0));
#288=VECTOR('',#287,0.635000000000002);
#289=LINE('',#286,#288);
#290=EDGE_CURVE('',#241,#279,#289,.T.);
#291=ORIENTED_EDGE('',*,*,#290,.F.);
#292=ORIENTED_EDGE('',*,*,#246,.T.);
#293=EDGE_LOOP('',(#277,#285,#291,#292));
#294=FACE_OUTER_BOUND('',#293,.T.);
#295=ADVANCED_FACE('',(#294),#269,.T.);
#296=CARTESIAN_POINT('',(11.477500000000001,7.302499999999997,1.2));
#297=DIRECTION('',(1.0,0.0,0.0));
#298=DIRECTION('',(0.0,0.0,1.0));
#299=AXIS2_PLACEMENT_3D('',#296,#297,#298);
#300=PLANE('',#299);
#301=CARTESIAN_POINT('',(11.477500000000001,7.937499999999998,-3.2));
#302=VERTEX_POINT('',#301);
#303=CARTESIAN_POINT('',(11.477500000000001,7.302499999999997,-3.2));
#304=DIRECTION('',(0.0,1.0,0.0));
#305=VECTOR('',#304,0.635000000000002);
#306=LINE('',#303,#305);
#307=EDGE_CURVE('',#271,#302,#306,.T.);
#308=ORIENTED_EDGE('',*,*,#307,.T.);
#309=CARTESIAN_POINT('',(11.477500000000001,7.937499999999998,1.2));
#310=VERTEX_POINT('',#309);
#311=CARTESIAN_POINT('',(11.477500000000001,7.937499999999998,1.2));
#312=DIRECTION('',(0.0,0.0,-1.0));
#313=VECTOR('',#312,4.4);
#314=LINE('',#311,#313);
#315=EDGE_CURVE('',#310,#302,#314,.T.);
#316=ORIENTED_EDGE('',*,*,#315,.F.);
#317=CARTESIAN_POINT('',(11.477500000000001,7.302499999999997,1.2));
#318=DIRECTION('',(0.0,1.0,0.0));
#319=VECTOR('',#318,0.635000000000002);
#320=LINE('',#317,#319);
#321=EDGE_CURVE('',#279,#310,#320,.T.);
#322=ORIENTED_EDGE('',*,*,#321,.F.);
#323=ORIENTED_EDGE('',*,*,#284,.T.);
#324=EDGE_LOOP('',(#308,#316,#322,#323));
#325=FACE_OUTER_BOUND('',#324,.T.);
#326=ADVANCED_FACE('',(#325),#300,.T.);
#327=CARTESIAN_POINT('',(11.477500000000001,7.937499999999998,1.2));
#328=DIRECTION('',(0.0,1.0,0.0));
#329=DIRECTION('',(0.0,0.0,1.0));
#330=AXIS2_PLACEMENT_3D('',#327,#328,#329);
#331=PLANE('',#330);
#332=CARTESIAN_POINT('',(11.477500000000001,7.937499999999998,-3.2));
#333=DIRECTION('',(-1.0,0.0,0.0));
#334=VECTOR('',#333,0.635000000000002);
#335=LINE('',#332,#334);
#336=EDGE_CURVE('',#302,#231,#335,.T.);
#337=ORIENTED_EDGE('',*,*,#336,.T.);
#338=ORIENTED_EDGE('',*,*,#260,.F.);
#339=CARTESIAN_POINT('',(11.477500000000001,7.937499999999998,1.2));
#340=DIRECTION('',(-1.0,0.0,0.0));
#341=VECTOR('',#340,0.635000000000002);
#342=LINE('',#339,#341);
#343=EDGE_CURVE('',#310,#249,#342,.T.);
#344=ORIENTED_EDGE('',*,*,#343,.F.);
#345=ORIENTED_EDGE('',*,*,#315,.T.);
#346=EDGE_LOOP('',(#337,#338,#344,#345));
#347=FACE_OUTER_BOUND('',#346,.T.);
#348=ADVANCED_FACE('',(#347),#331,.T.);
#349=CARTESIAN_POINT('',(11.16,7.619999999999997,-3.200000000000001));
#350=DIRECTION('',(0.0,0.0,1.0));
#351=DIRECTION('',(0.0,-1.0,0.0));
#352=AXIS2_PLACEMENT_3D('',#349,#350,#351);
#353=PLANE('',#352);
#354=ORIENTED_EDGE('',*,*,#238,.F.);
#355=ORIENTED_EDGE('',*,*,#336,.F.);
#356=ORIENTED_EDGE('',*,*,#307,.F.);
#357=ORIENTED_EDGE('',*,*,#276,.F.);
#358=EDGE_LOOP('',(#354,#355,#356,#357));
#359=FACE_OUTER_BOUND('',#358,.T.);
#360=ADVANCED_FACE('',(#359),#353,.F.);
#361=CARTESIAN_POINT('',(11.16,7.619999999999997,1.2));
#362=DIRECTION('',(0.0,0.0,1.0));
#363=DIRECTION('',(0.0,-1.0,0.0));
#364=AXIS2_PLACEMENT_3D('',#361,#362,#363);
#365=PLANE('',#364);
#366=ORIENTED_EDGE('',*,*,#343,.T.);
#367=ORIENTED_EDGE('',*,*,#254,.T.);
#368=ORIENTED_EDGE('',*,*,#290,.T.);
#369=ORIENTED_EDGE('',*,*,#321,.T.);
#370=EDGE_LOOP('',(#366,#367,#368,#369));
#371=FACE_OUTER_BOUND('',#370,.T.);
#372=ADVANCED_FACE('',(#371),#365,.T.);
#373=CLOSED_SHELL('',(#264,#295,#326,#348,#360,#372));
#374=MANIFOLD_SOLID_BREP('14ED',#373);
#375=STYLED_ITEM('NONE',(#221),#374);
#376=CARTESIAN_POINT('',(-9.160000000000002,-7.619999999999996,-3.200000000000001));
#377=DIRECTION('',(0.0,0.0,1.0));
#378=DIRECTION('',(0.0,-1.0,0.0));
#379=AXIS2_PLACEMENT_3D('',#376,#377,#378);
#380=CYLINDRICAL_SURFACE('',#379,0.5);
#381=CARTESIAN_POINT('',(-9.160000000000002,-8.119999999999996,1.199999999999999));
#382=VERTEX_POINT('',#381);
#383=CARTESIAN_POINT('',(-9.160000000000002,-8.119999999999996,-3.200000000000001));
#384=VERTEX_POINT('',#383);
#385=CARTESIAN_POINT('',(-9.160000000000002,-8.119999999999996,1.199999999999999));
#386=DIRECTION('',(0.0,0.0,-1.0));
#387=VECTOR('',#386,4.4);
#388=LINE('',#385,#387);
#389=EDGE_CURVE('',#382,#384,#388,.T.);
#390=ORIENTED_EDGE('',*,*,#389,.F.);
#391=CARTESIAN_POINT('',(-9.160000000000002,-7.119999999999996,1.199999999999999));
#392=VERTEX_POINT('',#391);
#393=CARTESIAN_POINT('',(-9.160000000000002,-7.619999999999996,1.199999999999999));
#394=DIRECTION('',(0.0,0.0,-1.0));
#395=DIRECTION('',(0.0,-1.0,0.0));
#396=AXIS2_PLACEMENT_3D('',#393,#394,#395);
#397=CIRCLE('',#396,0.5);
#398=EDGE_CURVE('',#382,#392,#397,.T.);
#399=ORIENTED_EDGE('',*,*,#398,.T.);
#400=CARTESIAN_POINT('',(-9.160000000000002,-7.119999999999996,-3.200000000000001));
#401=VERTEX_POINT('',#400);
#402=CARTESIAN_POINT('',(-9.160000000000002,-7.119999999999996,1.199999999999999));
#403=DIRECTION('',(0.0,0.0,-1.0));
#404=VECTOR('',#403,4.4);
#405=LINE('',#402,#404);
#406=EDGE_CURVE('',#392,#401,#405,.T.);
#407=ORIENTED_EDGE('',*,*,#406,.T.);
#408=CARTESIAN_POINT('',(-9.160000000000002,-7.619999999999996,-3.200000000000001));
#409=DIRECTION('',(0.0,0.0,1.0));
#410=DIRECTION('',(0.0,-1.0,0.0));
#411=AXIS2_PLACEMENT_3D('',#408,#409,#410);
#412=CIRCLE('',#411,0.5);
#413=EDGE_CURVE('',#401,#384,#412,.T.);
#414=ORIENTED_EDGE('',*,*,#413,.T.);
#415=EDGE_LOOP('',(#390,#399,#407,#414));
#416=FACE_OUTER_BOUND('',#415,.T.);
#417=ADVANCED_FACE('',(#416),#380,.T.);
#418=CARTESIAN_POINT('',(-9.160000000000002,-7.619999999999996,-3.200000000000001));
#419=DIRECTION('',(0.0,0.0,1.0));
#420=DIRECTION('',(0.0,-1.0,0.0));
#421=AXIS2_PLACEMENT_3D('',#418,#419,#420);
#422=CYLINDRICAL_SURFACE('',#421,0.5);
#423=ORIENTED_EDGE('',*,*,#389,.T.);
#424=CARTESIAN_POINT('',(-9.160000000000002,-7.619999999999996,-3.200000000000001));
#425=DIRECTION('',(0.0,0.0,1.0));
#426=DIRECTION('',(0.0,-1.0,0.0));
#427=AXIS2_PLACEMENT_3D('',#424,#425,#426);
#428=CIRCLE('',#427,0.5);
#429=EDGE_CURVE('',#384,#401,#428,.T.);
#430=ORIENTED_EDGE('',*,*,#429,.T.);
#431=ORIENTED_EDGE('',*,*,#406,.F.);
#432=CARTESIAN_POINT('',(-9.160000000000002,-7.619999999999996,1.199999999999999));
#433=DIRECTION('',(0.0,0.0,-1.0));
#434=DIRECTION('',(0.0,-1.0,0.0));
#435=AXIS2_PLACEMENT_3D('',#432,#433,#434);
#436=CIRCLE('',#435,0.5);
#437=EDGE_CURVE('',#392,#382,#436,.T.);
#438=ORIENTED_EDGE('',*,*,#437,.T.);
#439=EDGE_LOOP('',(#423,#430,#431,#438));
#440=FACE_OUTER_BOUND('',#439,.T.);
#441=ADVANCED_FACE('',(#440),#422,.T.);
#442=CARTESIAN_POINT('',(-9.160000000000002,-7.619999999999996,-3.200000000000001));
#443=DIRECTION('',(0.0,0.0,1.0));
#444=DIRECTION('',(0.0,-1.0,0.0));
#445=AXIS2_PLACEMENT_3D('',#442,#443,#444);
#446=PLANE('',#445);
#447=ORIENTED_EDGE('',*,*,#429,.F.);
#448=ORIENTED_EDGE('',*,*,#413,.F.);
#449=EDGE_LOOP('',(#447,#448));
#450=FACE_OUTER_BOUND('',#449,.T.);
#451=ADVANCED_FACE('',(#450),#446,.F.);
#452=CARTESIAN_POINT('',(-9.160000000000002,-7.619999999999996,1.199999999999999));
#453=DIRECTION('',(0.0,0.0,1.0));
#454=DIRECTION('',(0.0,-1.0,0.0));
#455=AXIS2_PLACEMENT_3D('',#452,#453,#454);
#456=PLANE('',#455);
#457=ORIENTED_EDGE('',*,*,#398,.F.);
#458=ORIENTED_EDGE('',*,*,#437,.F.);
#459=EDGE_LOOP('',(#457,#458));
#460=FACE_OUTER_BOUND('',#459,.T.);
#461=ADVANCED_FACE('',(#460),#456,.T.);
#462=CLOSED_SHELL('',(#417,#441,#451,#461));
#463=MANIFOLD_SOLID_BREP('14E7',#462);
#464=STYLED_ITEM('NONE',(#221),#463);
#465=CARTESIAN_POINT('',(-9.16,5.419075E-015,-3.200000000000001));
#466=DIRECTION('',(0.0,0.0,1.0));
#467=DIRECTION('',(0.0,-1.0,0.0));
#468=AXIS2_PLACEMENT_3D('',#465,#466,#467);
#469=CYLINDRICAL_SURFACE('',#468,0.5);
#470=CARTESIAN_POINT('',(-9.16,-0.499999999999995,1.199999999999999));
#471=VERTEX_POINT('',#470);
#472=CARTESIAN_POINT('',(-9.16,-0.499999999999995,-3.200000000000001));
#473=VERTEX_POINT('',#472);
#474=CARTESIAN_POINT('',(-9.16,-0.499999999999995,1.199999999999999));
#475=DIRECTION('',(0.0,0.0,-1.0));
#476=VECTOR('',#475,4.4);
#477=LINE('',#474,#476);
#478=EDGE_CURVE('',#471,#473,#477,.T.);
#479=ORIENTED_EDGE('',*,*,#478,.F.);
#480=CARTESIAN_POINT('',(-9.16,0.500000000000005,1.199999999999999));
#481=VERTEX_POINT('',#480);
#482=CARTESIAN_POINT('',(-9.16,5.419075E-015,1.199999999999999));
#483=DIRECTION('',(0.0,0.0,-1.0));
#484=DIRECTION('',(0.0,-1.0,0.0));
#485=AXIS2_PLACEMENT_3D('',#482,#483,#484);
#486=CIRCLE('',#485,0.5);
#487=EDGE_CURVE('',#471,#481,#486,.T.);
#488=ORIENTED_EDGE('',*,*,#487,.T.);
#489=CARTESIAN_POINT('',(-9.16,0.500000000000005,-3.200000000000001));
#490=VERTEX_POINT('',#489);
#491=CARTESIAN_POINT('',(-9.16,0.500000000000005,1.199999999999999));
#492=DIRECTION('',(0.0,0.0,-1.0));
#493=VECTOR('',#492,4.4);
#494=LINE('',#491,#493);
#495=EDGE_CURVE('',#481,#490,#494,.T.);
#496=ORIENTED_EDGE('',*,*,#495,.T.);
#497=CARTESIAN_POINT('',(-9.16,5.419075E-015,-3.200000000000001));
#498=DIRECTION('',(0.0,0.0,1.0));
#499=DIRECTION('',(0.0,-1.0,0.0));
#500=AXIS2_PLACEMENT_3D('',#497,#498,#499);
#501=CIRCLE('',#500,0.5);
#502=EDGE_CURVE('',#490,#473,#501,.T.);
#503=ORIENTED_EDGE('',*,*,#502,.T.);
#504=EDGE_LOOP('',(#479,#488,#496,#503));
#505=FACE_OUTER_BOUND('',#504,.T.);
#506=ADVANCED_FACE('',(#505),#469,.T.);
#507=CARTESIAN_POINT('',(-9.16,5.419075E-015,-3.200000000000001));
#508=DIRECTION('',(0.0,0.0,1.0));
#509=DIRECTION('',(0.0,-1.0,0.0));
#510=AXIS2_PLACEMENT_3D('',#507,#508,#509);
#511=CYLINDRICAL_SURFACE('',#510,0.5);
#512=ORIENTED_EDGE('',*,*,#478,.T.);
#513=CARTESIAN_POINT('',(-9.16,5.419075E-015,-3.200000000000001));
#514=DIRECTION('',(0.0,0.0,1.0));
#515=DIRECTION('',(0.0,-1.0,0.0));
#516=AXIS2_PLACEMENT_3D('',#513,#514,#515);
#517=CIRCLE('',#516,0.5);
#518=EDGE_CURVE('',#473,#490,#517,.T.);
#519=ORIENTED_EDGE('',*,*,#518,.T.);
#520=ORIENTED_EDGE('',*,*,#495,.F.);
#521=CARTESIAN_POINT('',(-9.16,5.419075E-015,1.199999999999999));
#522=DIRECTION('',(0.0,0.0,-1.0));
#523=DIRECTION('',(0.0,-1.0,0.0));
#524=AXIS2_PLACEMENT_3D('',#521,#522,#523);
#525=CIRCLE('',#524,0.5);
#526=EDGE_CURVE('',#481,#471,#525,.T.);
#527=ORIENTED_EDGE('',*,*,#526,.T.);
#528=EDGE_LOOP('',(#512,#519,#520,#527));
#529=FACE_OUTER_BOUND('',#528,.T.);
#530=ADVANCED_FACE('',(#529),#511,.T.);
#531=CARTESIAN_POINT('',(-9.16,5.419075E-015,-3.200000000000001));
#532=DIRECTION('',(0.0,0.0,1.0));
#533=DIRECTION('',(0.0,-1.0,0.0));
#534=AXIS2_PLACEMENT_3D('',#531,#532,#533);
#535=PLANE('',#534);
#536=ORIENTED_EDGE('',*,*,#518,.F.);
#537=ORIENTED_EDGE('',*,*,#502,.F.);
#538=EDGE_LOOP('',(#536,#537));
#539=FACE_OUTER_BOUND('',#538,.T.);
#540=ADVANCED_FACE('',(#539),#535,.F.);
#541=CARTESIAN_POINT('',(-9.16,5.419075E-015,1.199999999999999));
#542=DIRECTION('',(0.0,0.0,1.0));
#543=DIRECTION('',(0.0,-1.0,0.0));
#544=AXIS2_PLACEMENT_3D('',#541,#542,#543);
#545=PLANE('',#544);
#546=ORIENTED_EDGE('',*,*,#487,.F.);
#547=ORIENTED_EDGE('',*,*,#526,.F.);
#548=EDGE_LOOP('',(#546,#547));
#549=FACE_OUTER_BOUND('',#548,.T.);
#550=ADVANCED_FACE('',(#549),#545,.T.);
#551=CLOSED_SHELL('',(#506,#530,#540,#550));
#552=MANIFOLD_SOLID_BREP('14E3',#551);
#553=STYLED_ITEM('NONE',(#221),#552);
#554=CARTESIAN_POINT('',(-9.159999999999998,7.619999999999999,-3.200000000000001));
#555=DIRECTION('',(0.0,0.0,1.0));
#556=DIRECTION('',(0.0,-1.0,0.0));
#557=AXIS2_PLACEMENT_3D('',#554,#555,#556);
#558=CYLINDRICAL_SURFACE('',#557,0.5);
#559=CARTESIAN_POINT('',(-9.159999999999998,7.119999999999999,1.199999999999999));
#560=VERTEX_POINT('',#559);
#561=CARTESIAN_POINT('',(-9.159999999999998,7.119999999999999,-3.200000000000001));
#562=VERTEX_POINT('',#561);
#563=CARTESIAN_POINT('',(-9.159999999999998,7.119999999999999,1.199999999999999));
#564=DIRECTION('',(0.0,0.0,-1.0));
#565=VECTOR('',#564,4.4);
#566=LINE('',#563,#565);
#567=EDGE_CURVE('',#560,#562,#566,.T.);
#568=ORIENTED_EDGE('',*,*,#567,.F.);
#569=CARTESIAN_POINT('',(-9.159999999999998,8.119999999999999,1.199999999999999));
#570=VERTEX_POINT('',#569);
#571=CARTESIAN_POINT('',(-9.159999999999998,7.619999999999999,1.199999999999999));
#572=DIRECTION('',(0.0,0.0,-1.0));
#573=DIRECTION('',(0.0,-1.0,0.0));
#574=AXIS2_PLACEMENT_3D('',#571,#572,#573);
#575=CIRCLE('',#574,0.5);
#576=EDGE_CURVE('',#560,#570,#575,.T.);
#577=ORIENTED_EDGE('',*,*,#576,.T.);
#578=CARTESIAN_POINT('',(-9.159999999999998,8.119999999999999,-3.200000000000001));
#579=VERTEX_POINT('',#578);
#580=CARTESIAN_POINT('',(-9.159999999999998,8.119999999999999,1.199999999999999));
#581=DIRECTION('',(0.0,0.0,-1.0));
#582=VECTOR('',#581,4.4);
#583=LINE('',#580,#582);
#584=EDGE_CURVE('',#570,#579,#583,.T.);
#585=ORIENTED_EDGE('',*,*,#584,.T.);
#586=CARTESIAN_POINT('',(-9.159999999999998,7.619999999999999,-3.200000000000001));
#587=DIRECTION('',(0.0,0.0,1.0));
#588=DIRECTION('',(0.0,-1.0,0.0));
#589=AXIS2_PLACEMENT_3D('',#586,#587,#588);
#590=CIRCLE('',#589,0.5);
#591=EDGE_CURVE('',#579,#562,#590,.T.);
#592=ORIENTED_EDGE('',*,*,#591,.T.);
#593=EDGE_LOOP('',(#568,#577,#585,#592));
#594=FACE_OUTER_BOUND('',#593,.T.);
#595=ADVANCED_FACE('',(#594),#558,.T.);
#596=CARTESIAN_POINT('',(-9.159999999999998,7.619999999999999,-3.200000000000001));
#597=DIRECTION('',(0.0,0.0,1.0));
#598=DIRECTION('',(0.0,-1.0,0.0));
#599=AXIS2_PLACEMENT_3D('',#596,#597,#598);
#600=CYLINDRICAL_SURFACE('',#599,0.5);
#601=ORIENTED_EDGE('',*,*,#567,.T.);
#602=CARTESIAN_POINT('',(-9.159999999999998,7.619999999999999,-3.200000000000001));
#603=DIRECTION('',(0.0,0.0,1.0));
#604=DIRECTION('',(0.0,-1.0,0.0));
#605=AXIS2_PLACEMENT_3D('',#602,#603,#604);
#606=CIRCLE('',#605,0.5);
#607=EDGE_CURVE('',#562,#579,#606,.T.);
#608=ORIENTED_EDGE('',*,*,#607,.T.);
#609=ORIENTED_EDGE('',*,*,#584,.F.);
#610=CARTESIAN_POINT('',(-9.159999999999998,7.619999999999999,1.199999999999999));
#611=DIRECTION('',(0.0,0.0,-1.0));
#612=DIRECTION('',(0.0,-1.0,0.0));
#613=AXIS2_PLACEMENT_3D('',#610,#611,#612);
#614=CIRCLE('',#613,0.5);
#615=EDGE_CURVE('',#570,#560,#614,.T.);
#616=ORIENTED_EDGE('',*,*,#615,.T.);
#617=EDGE_LOOP('',(#601,#608,#609,#616));
#618=FACE_OUTER_BOUND('',#617,.T.);
#619=ADVANCED_FACE('',(#618),#600,.T.);
#620=CARTESIAN_POINT('',(-9.159999999999998,7.619999999999999,-3.200000000000001));
#621=DIRECTION('',(0.0,0.0,1.0));
#622=DIRECTION('',(0.0,-1.0,0.0));
#623=AXIS2_PLACEMENT_3D('',#620,#621,#622);
#624=PLANE('',#623);
#625=ORIENTED_EDGE('',*,*,#607,.F.);
#626=ORIENTED_EDGE('',*,*,#591,.F.);
#627=EDGE_LOOP('',(#625,#626));
#628=FACE_OUTER_BOUND('',#627,.T.);
#629=ADVANCED_FACE('',(#628),#624,.F.);
#630=CARTESIAN_POINT('',(-9.159999999999998,7.619999999999999,1.199999999999999));
#631=DIRECTION('',(0.0,0.0,1.0));
#632=DIRECTION('',(0.0,-1.0,0.0));
#633=AXIS2_PLACEMENT_3D('',#630,#631,#632);
#634=PLANE('',#633);
#635=ORIENTED_EDGE('',*,*,#576,.F.);
#636=ORIENTED_EDGE('',*,*,#615,.F.);
#637=EDGE_LOOP('',(#635,#636));
#638=FACE_OUTER_BOUND('',#637,.T.);
#639=ADVANCED_FACE('',(#638),#634,.T.);
#640=CLOSED_SHELL('',(#595,#619,#629,#639));
#641=MANIFOLD_SOLID_BREP('14DF',#640);
#642=STYLED_ITEM('NONE',(#221),#641);
#643=CARTESIAN_POINT('',(13.899999999999999,12.299999999999997,1.2));
#644=DIRECTION('',(1.0,0.0,0.0));
#645=DIRECTION('',(0.0,0.0,1.0));
#646=AXIS2_PLACEMENT_3D('',#643,#644,#645);
#647=PLANE('',#646);
#648=CARTESIAN_POINT('',(13.899999999999999,12.299999999999997,15.849999999999998));
#649=VERTEX_POINT('',#648);
#650=CARTESIAN_POINT('',(13.900000000000002,-12.300000000000001,15.849999999999998));
#651=VERTEX_POINT('',#650);
#652=CARTESIAN_POINT('',(13.9,12.299999999999997,15.849999999999998));
#653=DIRECTION('',(0.0,-1.0,0.0));
#654=VECTOR('',#653,24.599999999999998);
#655=LINE('',#652,#654);
#656=EDGE_CURVE('',#649,#651,#655,.T.);
#657=ORIENTED_EDGE('',*,*,#656,.T.);
#658=CARTESIAN_POINT('',(13.900000000000002,-12.300000000000001,1.2));
#659=VERTEX_POINT('',#658);
#660=CARTESIAN_POINT('',(13.900000000000002,-12.300000000000001,1.2));
#661=DIRECTION('',(0.0,0.0,1.0));
#662=VECTOR('',#661,14.649999999999999);
#663=LINE('',#660,#662);
#664=EDGE_CURVE('',#659,#651,#663,.T.);
#665=ORIENTED_EDGE('',*,*,#664,.F.);
#666=CARTESIAN_POINT('',(13.899999999999999,12.299999999999997,1.2));
#667=VERTEX_POINT('',#666);
#668=CARTESIAN_POINT('',(13.900000000000002,-12.300000000000001,1.2));
#669=DIRECTION('',(0.0,1.0,0.0));
#670=VECTOR('',#669,24.599999999999998);
#671=LINE('',#668,#670);
#672=EDGE_CURVE('',#659,#667,#671,.T.);
#673=ORIENTED_EDGE('',*,*,#672,.T.);
#674=CARTESIAN_POINT('',(13.899999999999999,12.299999999999997,1.2));
#675=DIRECTION('',(0.0,0.0,1.0));
#676=VECTOR('',#675,14.649999999999999);
#677=LINE('',#674,#676);
#678=EDGE_CURVE('',#667,#649,#677,.T.);
#679=ORIENTED_EDGE('',*,*,#678,.T.);
#680=EDGE_LOOP('',(#657,#665,#673,#679));
#681=FACE_OUTER_BOUND('',#680,.T.);
#682=ADVANCED_FACE('',(#681),#647,.T.);
#683=CARTESIAN_POINT('',(13.900000000000002,-12.300000000000001,1.2));
#684=DIRECTION('',(0.0,-1.0,0.0));
#685=DIRECTION('',(0.0,0.0,-1.0));
#686=AXIS2_PLACEMENT_3D('',#683,#684,#685);
#687=PLANE('',#686);
#688=CARTESIAN_POINT('',(-13.899999999999999,-12.299999999999997,15.849999999999998));
#689=VERTEX_POINT('',#688);
#690=CARTESIAN_POINT('',(13.900000000000002,-12.300000000000002,15.849999999999998));
#691=DIRECTION('',(-1.0,0.0,0.0));
#692=VECTOR('',#691,27.800000000000001);
#693=LINE('',#690,#692);
#694=EDGE_CURVE('',#651,#689,#693,.T.);
#695=ORIENTED_EDGE('',*,*,#694,.T.);
#696=CARTESIAN_POINT('',(-13.899999999999999,-12.299999999999997,1.2));
#697=VERTEX_POINT('',#696);
#698=CARTESIAN_POINT('',(-13.899999999999999,-12.299999999999997,1.2));
#699=DIRECTION('',(0.0,0.0,1.0));
#700=VECTOR('',#699,14.649999999999999);
#701=LINE('',#698,#700);
#702=EDGE_CURVE('',#697,#689,#701,.T.);
#703=ORIENTED_EDGE('',*,*,#702,.F.);
#704=CARTESIAN_POINT('',(-13.899999999999999,-12.299999999999997,1.2));
#705=DIRECTION('',(1.0,0.0,0.0));
#706=VECTOR('',#705,27.800000000000001);
#707=LINE('',#704,#706);
#708=EDGE_CURVE('',#697,#659,#707,.T.);
#709=ORIENTED_EDGE('',*,*,#708,.T.);
#710=ORIENTED_EDGE('',*,*,#664,.T.);
#711=EDGE_LOOP('',(#695,#703,#709,#710));
#712=FACE_OUTER_BOUND('',#711,.T.);
#713=ADVANCED_FACE('',(#712),#687,.T.);
#714=CARTESIAN_POINT('',(-13.899999999999999,-12.299999999999997,1.2));
#715=DIRECTION('',(-1.0,0.0,0.0));
#716=DIRECTION('',(0.0,0.0,-1.0));
#717=AXIS2_PLACEMENT_3D('',#714,#715,#716);
#718=PLANE('',#717);
#719=CARTESIAN_POINT('',(-13.900000000000002,12.300000000000001,15.849999999999998));
#720=VERTEX_POINT('',#719);
#721=CARTESIAN_POINT('',(-13.9,-12.299999999999997,15.849999999999998));
#722=DIRECTION('',(0.0,1.0,0.0));
#723=VECTOR('',#722,24.599999999999998);
#724=LINE('',#721,#723);
#725=EDGE_CURVE('',#689,#720,#724,.T.);
#726=ORIENTED_EDGE('',*,*,#725,.T.);
#727=CARTESIAN_POINT('',(-13.900000000000002,12.300000000000001,1.2));
#728=VERTEX_POINT('',#727);
#729=CARTESIAN_POINT('',(-13.900000000000002,12.300000000000001,1.2));
#730=DIRECTION('',(0.0,0.0,1.0));
#731=VECTOR('',#730,14.649999999999999);
#732=LINE('',#729,#731);
#733=EDGE_CURVE('',#728,#720,#732,.T.);
#734=ORIENTED_EDGE('',*,*,#733,.F.);
#735=CARTESIAN_POINT('',(-13.900000000000002,12.300000000000001,1.2));
#736=DIRECTION('',(0.0,-1.0,0.0));
#737=VECTOR('',#736,24.599999999999998);
#738=LINE('',#735,#737);
#739=EDGE_CURVE('',#728,#697,#738,.T.);
#740=ORIENTED_EDGE('',*,*,#739,.T.);
#741=ORIENTED_EDGE('',*,*,#702,.T.);
#742=EDGE_LOOP('',(#726,#734,#740,#741));
#743=FACE_OUTER_BOUND('',#742,.T.);
#744=ADVANCED_FACE('',(#743),#718,.T.);
#745=CARTESIAN_POINT('',(-13.900000000000002,12.300000000000001,1.2));
#746=DIRECTION('',(0.0,1.0,0.0));
#747=DIRECTION('',(0.0,0.0,1.0));
#748=AXIS2_PLACEMENT_3D('',#745,#746,#747);
#749=PLANE('',#748);
#750=CARTESIAN_POINT('',(-13.900000000000002,12.300000000000002,15.849999999999998));
#751=DIRECTION('',(1.0,0.0,0.0));
#752=VECTOR('',#751,27.800000000000001);
#753=LINE('',#750,#752);
#754=EDGE_CURVE('',#720,#649,#753,.T.);
#755=ORIENTED_EDGE('',*,*,#754,.T.);
#756=ORIENTED_EDGE('',*,*,#678,.F.);
#757=CARTESIAN_POINT('',(13.899999999999999,12.299999999999997,1.2));
#758=DIRECTION('',(-1.0,0.0,0.0));
#759=VECTOR('',#758,27.800000000000001);
#760=LINE('',#757,#759);
#761=EDGE_CURVE('',#667,#728,#760,.T.);
#762=ORIENTED_EDGE('',*,*,#761,.T.);
#763=ORIENTED_EDGE('',*,*,#733,.T.);
#764=EDGE_LOOP('',(#755,#756,#762,#763));
#765=FACE_OUTER_BOUND('',#764,.T.);
#766=ADVANCED_FACE('',(#765),#749,.T.);
#767=CARTESIAN_POINT('',(-2.785309E-032,-1.516252E-016,1.2));
#768=DIRECTION('',(0.0,0.0,1.0));
#769=DIRECTION('',(0.0,-1.0,0.0));
#770=AXIS2_PLACEMENT_3D('',#767,#768,#769);
#771=PLANE('',#770);
#772=ORIENTED_EDGE('',*,*,#761,.F.);
#773=ORIENTED_EDGE('',*,*,#672,.F.);
#774=ORIENTED_EDGE('',*,*,#708,.F.);
#775=ORIENTED_EDGE('',*,*,#739,.F.);
#776=EDGE_LOOP('',(#772,#773,#774,#775));
#777=FACE_OUTER_BOUND('',#776,.T.);
#778=ADVANCED_FACE('',(#777),#771,.F.);
#779=CARTESIAN_POINT('',(2.785309E-032,1.516252E-016,15.849999999999998));
#780=DIRECTION('',(0.0,0.0,1.0));
#781=DIRECTION('',(0.0,-1.0,0.0));
#782=AXIS2_PLACEMENT_3D('',#779,#780,#781);
#783=PLANE('',#782);
#784=ORIENTED_EDGE('',*,*,#656,.F.);
#785=ORIENTED_EDGE('',*,*,#754,.F.);
#786=ORIENTED_EDGE('',*,*,#725,.F.);
#787=ORIENTED_EDGE('',*,*,#694,.F.);
#788=EDGE_LOOP('',(#784,#785,#786,#787));
#789=FACE_OUTER_BOUND('',#788,.T.);
#790=ADVANCED_FACE('',(#789),#783,.T.);
#791=CLOSED_SHELL('',(#682,#713,#744,#766,#778,#790));
#792=MANIFOLD_SOLID_BREP('14D4',#791);
#793=COLOUR_RGB('250',0.33,0.33,0.33);
#794=SURFACE_STYLE_USAGE(.BOTH.,#795);
#795=SURFACE_SIDE_STYLE('NONE',(#796));
#796=SURFACE_STYLE_FILL_AREA(#797);
#797=FILL_AREA_STYLE('NONE',(#798));
#798=FILL_AREA_STYLE_COLOUR('NONE',#793);
#799=PRESENTATION_STYLE_ASSIGNMENT((#794));
#800=STYLED_ITEM('NONE',(#799),#792);
#801=CARTESIAN_POINT('',(-12.1,12.1,0.0));
#802=DIRECTION('',(-1.0,0.0,0.0));
#803=DIRECTION('',(0.0,0.0,-1.0));
#804=AXIS2_PLACEMENT_3D('',#801,#802,#803);
#805=PLANE('',#804);
#806=CARTESIAN_POINT('',(-12.1,12.299999999999999,1.2));
#807=VERTEX_POINT('',#806);
#808=CARTESIAN_POINT('',(-12.1,13.1,1.2));
#809=VERTEX_POINT('',#808);
#810=CARTESIAN_POINT('',(-12.1,12.299999999999999,1.2));
#811=DIRECTION('',(0.0,1.0,0.0));
#812=VECTOR('',#811,0.800000000000001);
#813=LINE('',#810,#812);
#814=EDGE_CURVE('',#807,#809,#813,.T.);
#815=ORIENTED_EDGE('',*,*,#814,.T.);
#816=CARTESIAN_POINT('',(-12.1,13.1,0.0));
#817=VERTEX_POINT('',#816);
#818=CARTESIAN_POINT('',(-12.1,13.1,0.0));
#819=DIRECTION('',(0.0,0.0,1.0));
#820=VECTOR('',#819,1.2);
#821=LINE('',#818,#820);
#822=EDGE_CURVE('',#817,#809,#821,.T.);
#823=ORIENTED_EDGE('',*,*,#822,.F.);
#824=CARTESIAN_POINT('',(-12.1,12.299999999999999,0.0));
#825=VERTEX_POINT('',#824);
#826=CARTESIAN_POINT('',(-12.1,13.1,0.0));
#827=DIRECTION('',(0.0,-1.0,0.0));
#828=VECTOR('',#827,0.800000000000001);
#829=LINE('',#826,#828);
#830=EDGE_CURVE('',#817,#825,#829,.T.);
#831=ORIENTED_EDGE('',*,*,#830,.T.);
#832=CARTESIAN_POINT('',(-12.1,12.299999999999999,0.0));
#833=DIRECTION('',(0.0,0.0,1.0));
#834=VECTOR('',#833,1.2);
#835=LINE('',#832,#834);
#836=EDGE_CURVE('',#825,#807,#835,.T.);
#837=ORIENTED_EDGE('',*,*,#836,.T.);
#838=EDGE_LOOP('',(#815,#823,#831,#837));
#839=FACE_OUTER_BOUND('',#838,.T.);
#840=ADVANCED_FACE('',(#839),#805,.T.);
#841=CARTESIAN_POINT('',(-12.1,13.1,0.0));
#842=DIRECTION('',(0.0,1.0,0.0));
#843=DIRECTION('',(0.0,0.0,1.0));
#844=AXIS2_PLACEMENT_3D('',#841,#842,#843);
#845=PLANE('',#844);
#846=CARTESIAN_POINT('',(-9.1,13.1,1.2));
#847=VERTEX_POINT('',#846);
#848=CARTESIAN_POINT('',(-9.1,13.1,1.2));
#849=DIRECTION('',(-1.0,0.0,0.0));
#850=VECTOR('',#849,3.0);
#851=LINE('',#848,#850);
#852=EDGE_CURVE('',#809,#847,#851,.F.);
#853=ORIENTED_EDGE('',*,*,#852,.T.);
#854=CARTESIAN_POINT('',(-9.1,13.1,0.0));
#855=VERTEX_POINT('',#854);
#856=CARTESIAN_POINT('',(-9.1,13.1,0.0));
#857=DIRECTION('',(0.0,0.0,1.0));
#858=VECTOR('',#857,1.2);
#859=LINE('',#856,#858);
#860=EDGE_CURVE('',#855,#847,#859,.T.);
#861=ORIENTED_EDGE('',*,*,#860,.F.);
#862=CARTESIAN_POINT('',(-9.1,13.1,0.0));
#863=DIRECTION('',(-1.0,0.0,0.0));
#864=VECTOR('',#863,3.0);
#865=LINE('',#862,#864);
#866=EDGE_CURVE('',#855,#817,#865,.T.);
#867=ORIENTED_EDGE('',*,*,#866,.T.);
#868=ORIENTED_EDGE('',*,*,#822,.T.);
#869=EDGE_LOOP('',(#853,#861,#867,#868));
#870=FACE_OUTER_BOUND('',#869,.T.);
#871=ADVANCED_FACE('',(#870),#845,.T.);
#872=CARTESIAN_POINT('',(-9.1,13.1,0.0));
#873=DIRECTION('',(1.0,0.0,0.0));
#874=DIRECTION('',(0.0,0.0,1.0));
#875=AXIS2_PLACEMENT_3D('',#872,#873,#874);
#876=PLANE('',#875);
#877=CARTESIAN_POINT('',(-9.1,12.299999999999999,1.2));
#878=VERTEX_POINT('',#877);
#879=CARTESIAN_POINT('',(-9.1,13.1,1.2));
#880=DIRECTION('',(0.0,-1.0,0.0));
#881=VECTOR('',#880,0.800000000000001);
#882=LINE('',#879,#881);
#883=EDGE_CURVE('',#847,#878,#882,.T.);
#884=ORIENTED_EDGE('',*,*,#883,.T.);
#885=CARTESIAN_POINT('',(-9.1,12.299999999999999,0.0));
#886=VERTEX_POINT('',#885);
#887=CARTESIAN_POINT('',(-9.1,12.299999999999999,0.0));
#888=DIRECTION('',(0.0,0.0,1.0));
#889=VECTOR('',#888,1.2);
#890=LINE('',#887,#889);
#891=EDGE_CURVE('',#886,#878,#890,.T.);
#892=ORIENTED_EDGE('',*,*,#891,.F.);
#893=CARTESIAN_POINT('',(-9.1,12.299999999999999,0.0));
#894=DIRECTION('',(0.0,1.0,0.0));
#895=VECTOR('',#894,0.800000000000001);
#896=LINE('',#893,#895);
#897=EDGE_CURVE('',#886,#855,#896,.T.);
#898=ORIENTED_EDGE('',*,*,#897,.T.);
#899=ORIENTED_EDGE('',*,*,#860,.T.);
#900=EDGE_LOOP('',(#884,#892,#898,#899));
#901=FACE_OUTER_BOUND('',#900,.T.);
#902=ADVANCED_FACE('',(#901),#876,.T.);
#903=CARTESIAN_POINT('',(-9.1,12.299999999999999,0.0));
#904=DIRECTION('',(0.0,-1.0,0.0));
#905=DIRECTION('',(0.0,0.0,-1.0));
#906=AXIS2_PLACEMENT_3D('',#903,#904,#905);
#907=PLANE('',#906);
#908=CARTESIAN_POINT('',(-9.1,12.299999999999999,1.2));
#909=DIRECTION('',(-1.0,0.0,0.0));
#910=VECTOR('',#909,3.0);
#911=LINE('',#908,#910);
#912=EDGE_CURVE('',#878,#807,#911,.T.);
#913=ORIENTED_EDGE('',*,*,#912,.T.);
#914=ORIENTED_EDGE('',*,*,#836,.F.);
#915=CARTESIAN_POINT('',(-12.1,12.299999999999999,0.0));
#916=DIRECTION('',(1.0,0.0,0.0));
#917=VECTOR('',#916,3.0);
#918=LINE('',#915,#917);
#919=EDGE_CURVE('',#825,#886,#918,.T.);
#920=ORIENTED_EDGE('',*,*,#919,.T.);
#921=ORIENTED_EDGE('',*,*,#891,.T.);
#922=EDGE_LOOP('',(#913,#914,#920,#921));
#923=FACE_OUTER_BOUND('',#922,.T.);
#924=ADVANCED_FACE('',(#923),#907,.T.);
#925=CARTESIAN_POINT('',(-10.599999999999998,12.599999999999998,0.0));
#926=DIRECTION('',(0.0,0.0,1.0));
#927=DIRECTION('',(0.0,-1.0,0.0));
#928=AXIS2_PLACEMENT_3D('',#925,#926,#927);
#929=PLANE('',#928);
#930=ORIENTED_EDGE('',*,*,#919,.F.);
#931=ORIENTED_EDGE('',*,*,#830,.F.);
#932=ORIENTED_EDGE('',*,*,#866,.F.);
#933=ORIENTED_EDGE('',*,*,#897,.F.);
#934=EDGE_LOOP('',(#930,#931,#932,#933));
#935=FACE_OUTER_BOUND('',#934,.T.);
#936=ADVANCED_FACE('',(#935),#929,.F.);
#937=CARTESIAN_POINT('',(-10.599999999999998,12.799999999999999,1.2));
#938=DIRECTION('',(0.0,0.0,1.0));
#939=DIRECTION('',(0.0,-1.0,0.0));
#940=AXIS2_PLACEMENT_3D('',#937,#938,#939);
#941=PLANE('',#940);
#942=ORIENTED_EDGE('',*,*,#814,.F.);
#943=ORIENTED_EDGE('',*,*,#912,.F.);
#944=ORIENTED_EDGE('',*,*,#883,.F.);
#945=ORIENTED_EDGE('',*,*,#852,.F.);
#946=EDGE_LOOP('',(#942,#943,#944,#945));
#947=FACE_OUTER_BOUND('',#946,.T.);
#948=ADVANCED_FACE('',(#947),#941,.T.);
#949=CLOSED_SHELL('',(#840,#871,#902,#924,#936,#948));
#950=MANIFOLD_SOLID_BREP('14CD',#949);
#951=COLOUR_RGB('140',0.0,0.75,1.0);
#952=SURFACE_STYLE_USAGE(.BOTH.,#953);
#953=SURFACE_SIDE_STYLE('NONE',(#954));
#954=SURFACE_STYLE_FILL_AREA(#955);
#955=FILL_AREA_STYLE('NONE',(#956));
#956=FILL_AREA_STYLE_COLOUR('NONE',#951);
#957=PRESENTATION_STYLE_ASSIGNMENT((#952));
#958=STYLED_ITEM('NONE',(#957),#950);
#959=CARTESIAN_POINT('',(-9.100000000000003,-12.099999999999994,0.0));
#960=DIRECTION('',(1.0,0.0,0.0));
#961=DIRECTION('',(0.0,0.0,1.0));
#962=AXIS2_PLACEMENT_3D('',#959,#960,#961);
#963=PLANE('',#962);
#964=CARTESIAN_POINT('',(-9.100000000000003,-12.299999999999994,1.2));
#965=VERTEX_POINT('',#964);
#966=CARTESIAN_POINT('',(-9.100000000000003,-13.099999999999994,1.2));
#967=VERTEX_POINT('',#966);
#968=CARTESIAN_POINT('',(-9.100000000000003,-12.299999999999994,1.2));
#969=DIRECTION('',(0.0,-1.0,0.0));
#970=VECTOR('',#969,0.800000000000001);
#971=LINE('',#968,#970);
#972=EDGE_CURVE('',#965,#967,#971,.T.);
#973=ORIENTED_EDGE('',*,*,#972,.T.);
#974=CARTESIAN_POINT('',(-9.100000000000003,-13.099999999999994,0.0));
#975=VERTEX_POINT('',#974);
#976=CARTESIAN_POINT('',(-9.100000000000003,-13.099999999999994,0.0));
#977=DIRECTION('',(0.0,0.0,1.0));
#978=VECTOR('',#977,1.2);
#979=LINE('',#976,#978);
#980=EDGE_CURVE('',#975,#967,#979,.T.);
#981=ORIENTED_EDGE('',*,*,#980,.F.);
#982=CARTESIAN_POINT('',(-9.100000000000003,-12.299999999999994,0.0));
#983=VERTEX_POINT('',#982);
#984=CARTESIAN_POINT('',(-9.100000000000003,-12.299999999999994,0.0));
#985=DIRECTION('',(0.0,-1.0,0.0));
#986=VECTOR('',#985,0.800000000000001);
#987=LINE('',#984,#986);
#988=EDGE_CURVE('',#983,#975,#987,.T.);
#989=ORIENTED_EDGE('',*,*,#988,.F.);
#990=CARTESIAN_POINT('',(-9.100000000000003,-12.299999999999994,0.0));
#991=DIRECTION('',(0.0,0.0,1.0));
#992=VECTOR('',#991,1.2);
#993=LINE('',#990,#992);
#994=EDGE_CURVE('',#983,#965,#993,.T.);
#995=ORIENTED_EDGE('',*,*,#994,.T.);
#996=EDGE_LOOP('',(#973,#981,#989,#995));
#997=FACE_OUTER_BOUND('',#996,.T.);
#998=ADVANCED_FACE('',(#997),#963,.T.);
#999=CARTESIAN_POINT('',(-9.100000000000003,-13.099999999999994,0.0));
#1000=DIRECTION('',(0.0,-1.0,0.0));
#1001=DIRECTION('',(0.0,0.0,-1.0));
#1002=AXIS2_PLACEMENT_3D('',#999,#1000,#1001);
#1003=PLANE('',#1002);
#1004=CARTESIAN_POINT('',(-12.100000000000003,-13.099999999999994,1.2));
#1005=VERTEX_POINT('',#1004);
#1006=CARTESIAN_POINT('',(-12.100000000000003,-13.099999999999994,1.2));
#1007=DIRECTION('',(1.0,0.0,0.0));
#1008=VECTOR('',#1007,3.0);
#1009=LINE('',#1006,#1008);
#1010=EDGE_CURVE('',#967,#1005,#1009,.F.);
#1011=ORIENTED_EDGE('',*,*,#1010,.T.);
#1012=CARTESIAN_POINT('',(-12.100000000000003,-13.099999999999994,0.0));
#1013=VERTEX_POINT('',#1012);
#1014=CARTESIAN_POINT('',(-12.100000000000003,-13.099999999999994,0.0));
#1015=DIRECTION('',(0.0,0.0,1.0));
#1016=VECTOR('',#1015,1.2);
#1017=LINE('',#1014,#1016);
#1018=EDGE_CURVE('',#1013,#1005,#1017,.T.);
#1019=ORIENTED_EDGE('',*,*,#1018,.F.);
#1020=CARTESIAN_POINT('',(-9.100000000000003,-13.099999999999994,0.0));
#1021=DIRECTION('',(-1.0,0.0,0.0));
#1022=VECTOR('',#1021,3.0);
#1023=LINE('',#1020,#1022);
#1024=EDGE_CURVE('',#975,#1013,#1023,.T.);
#1025=ORIENTED_EDGE('',*,*,#1024,.F.);
#1026=ORIENTED_EDGE('',*,*,#980,.T.);
#1027=EDGE_LOOP('',(#1011,#1019,#1025,#1026));
#1028=FACE_OUTER_BOUND('',#1027,.T.);
#1029=ADVANCED_FACE('',(#1028),#1003,.T.);
#1030=CARTESIAN_POINT('',(-12.100000000000003,-13.099999999999994,0.0));
#1031=DIRECTION('',(-1.0,0.0,0.0));
#1032=DIRECTION('',(0.0,0.0,-1.0));
#1033=AXIS2_PLACEMENT_3D('',#1030,#1031,#1032);
#1034=PLANE('',#1033);
#1035=CARTESIAN_POINT('',(-12.100000000000003,-12.299999999999994,1.2));
#1036=VERTEX_POINT('',#1035);
#1037=CARTESIAN_POINT('',(-12.100000000000003,-13.099999999999994,1.2));
#1038=DIRECTION('',(0.0,1.0,0.0));
#1039=VECTOR('',#1038,0.800000000000001);
#1040=LINE('',#1037,#1039);
#1041=EDGE_CURVE('',#1005,#1036,#1040,.T.);
#1042=ORIENTED_EDGE('',*,*,#1041,.T.);
#1043=CARTESIAN_POINT('',(-12.100000000000003,-12.299999999999994,0.0));
#1044=VERTEX_POINT('',#1043);
#1045=CARTESIAN_POINT('',(-12.100000000000003,-12.299999999999994,0.0));
#1046=DIRECTION('',(0.0,0.0,1.0));
#1047=VECTOR('',#1046,1.2);
#1048=LINE('',#1045,#1047);
#1049=EDGE_CURVE('',#1044,#1036,#1048,.T.);
#1050=ORIENTED_EDGE('',*,*,#1049,.F.);
#1051=CARTESIAN_POINT('',(-12.100000000000003,-13.099999999999994,0.0));
#1052=DIRECTION('',(0.0,1.0,0.0));
#1053=VECTOR('',#1052,0.800000000000001);
#1054=LINE('',#1051,#1053);
#1055=EDGE_CURVE('',#1013,#1044,#1054,.T.);
#1056=ORIENTED_EDGE('',*,*,#1055,.F.);
#1057=ORIENTED_EDGE('',*,*,#1018,.T.);
#1058=EDGE_LOOP('',(#1042,#1050,#1056,#1057));
#1059=FACE_OUTER_BOUND('',#1058,.T.);
#1060=ADVANCED_FACE('',(#1059),#1034,.T.);
#1061=CARTESIAN_POINT('',(-12.100000000000003,-12.299999999999994,0.0));
#1062=DIRECTION('',(0.0,1.0,0.0));
#1063=DIRECTION('',(0.0,0.0,1.0));
#1064=AXIS2_PLACEMENT_3D('',#1061,#1062,#1063);
#1065=PLANE('',#1064);
#1066=CARTESIAN_POINT('',(-12.100000000000003,-12.299999999999994,1.2));
#1067=DIRECTION('',(1.0,0.0,0.0));
#1068=VECTOR('',#1067,3.0);
#1069=LINE('',#1066,#1068);
#1070=EDGE_CURVE('',#1036,#965,#1069,.T.);
#1071=ORIENTED_EDGE('',*,*,#1070,.T.);
#1072=ORIENTED_EDGE('',*,*,#994,.F.);
#1073=CARTESIAN_POINT('',(-12.100000000000003,-12.299999999999994,0.0));
#1074=DIRECTION('',(1.0,0.0,0.0));
#1075=VECTOR('',#1074,3.0);
#1076=LINE('',#1073,#1075);
#1077=EDGE_CURVE('',#1044,#983,#1076,.T.);
#1078=ORIENTED_EDGE('',*,*,#1077,.F.);
#1079=ORIENTED_EDGE('',*,*,#1049,.T.);
#1080=EDGE_LOOP('',(#1071,#1072,#1078,#1079));
#1081=FACE_OUTER_BOUND('',#1080,.T.);
#1082=ADVANCED_FACE('',(#1081),#1065,.T.);
#1083=CARTESIAN_POINT('',(-10.600000000000001,-12.799999999999994,1.2));
#1084=DIRECTION('',(0.0,0.0,1.0));
#1085=DIRECTION('',(0.0,-1.0,0.0));
#1086=AXIS2_PLACEMENT_3D('',#1083,#1084,#1085);
#1087=PLANE('',#1086);
#1088=ORIENTED_EDGE('',*,*,#972,.F.);
#1089=ORIENTED_EDGE('',*,*,#1070,.F.);
#1090=ORIENTED_EDGE('',*,*,#1041,.F.);
#1091=ORIENTED_EDGE('',*,*,#1010,.F.);
#1092=EDGE_LOOP('',(#1088,#1089,#1090,#1091));
#1093=FACE_OUTER_BOUND('',#1092,.T.);
#1094=ADVANCED_FACE('',(#1093),#1087,.T.);
#1095=CARTESIAN_POINT('',(-10.600000000000001,-12.599999999999994,0.0));
#1096=DIRECTION('',(0.0,0.0,1.0));
#1097=DIRECTION('',(0.0,-1.0,0.0));
#1098=AXIS2_PLACEMENT_3D('',#1095,#1096,#1097);
#1099=PLANE('',#1098);
#1100=ORIENTED_EDGE('',*,*,#1077,.T.);
#1101=ORIENTED_EDGE('',*,*,#988,.T.);
#1102=ORIENTED_EDGE('',*,*,#1024,.T.);
#1103=ORIENTED_EDGE('',*,*,#1055,.T.);
#1104=EDGE_LOOP('',(#1100,#1101,#1102,#1103));
#1105=FACE_OUTER_BOUND('',#1104,.T.);
#1106=ADVANCED_FACE('',(#1105),#1099,.F.);
#1107=CLOSED_SHELL('',(#998,#1029,#1060,#1082,#1094,#1106));
#1108=MANIFOLD_SOLID_BREP('14C9',#1107);
#1109=STYLED_ITEM('NONE',(#957),#1108);
#1110=CARTESIAN_POINT('',(12.1,-12.099999999999998,0.0));
#1111=DIRECTION('',(1.0,0.0,0.0));
#1112=DIRECTION('',(0.0,0.0,1.0));
#1113=AXIS2_PLACEMENT_3D('',#1110,#1111,#1112);
#1114=PLANE('',#1113);
#1115=CARTESIAN_POINT('',(12.1,-12.299999999999997,1.2));
#1116=VERTEX_POINT('',#1115);
#1117=CARTESIAN_POINT('',(12.1,-13.099999999999998,1.2));
#1118=VERTEX_POINT('',#1117);
#1119=CARTESIAN_POINT('',(12.1,-12.299999999999997,1.2));
#1120=DIRECTION('',(0.0,-1.0,0.0));
#1121=VECTOR('',#1120,0.800000000000001);
#1122=LINE('',#1119,#1121);
#1123=EDGE_CURVE('',#1116,#1118,#1122,.T.);
#1124=ORIENTED_EDGE('',*,*,#1123,.T.);
#1125=CARTESIAN_POINT('',(12.1,-13.099999999999998,0.0));
#1126=VERTEX_POINT('',#1125);
#1127=CARTESIAN_POINT('',(12.1,-13.099999999999998,0.0));
#1128=DIRECTION('',(0.0,0.0,1.0));
#1129=VECTOR('',#1128,1.2);
#1130=LINE('',#1127,#1129);
#1131=EDGE_CURVE('',#1126,#1118,#1130,.T.);
#1132=ORIENTED_EDGE('',*,*,#1131,.F.);
#1133=CARTESIAN_POINT('',(12.1,-12.299999999999997,0.0));
#1134=VERTEX_POINT('',#1133);
#1135=CARTESIAN_POINT('',(12.1,-12.299999999999997,0.0));
#1136=DIRECTION('',(0.0,-1.0,0.0));
#1137=VECTOR('',#1136,0.800000000000001);
#1138=LINE('',#1135,#1137);
#1139=EDGE_CURVE('',#1134,#1126,#1138,.T.);
#1140=ORIENTED_EDGE('',*,*,#1139,.F.);
#1141=CARTESIAN_POINT('',(12.1,-12.299999999999997,0.0));
#1142=DIRECTION('',(0.0,0.0,1.0));
#1143=VECTOR('',#1142,1.2);
#1144=LINE('',#1141,#1143);
#1145=EDGE_CURVE('',#1134,#1116,#1144,.T.);
#1146=ORIENTED_EDGE('',*,*,#1145,.T.);
#1147=EDGE_LOOP('',(#1124,#1132,#1140,#1146));
#1148=FACE_OUTER_BOUND('',#1147,.T.);
#1149=ADVANCED_FACE('',(#1148),#1114,.T.);
#1150=CARTESIAN_POINT('',(12.1,-13.099999999999998,0.0));
#1151=DIRECTION('',(0.0,-1.0,0.0));
#1152=DIRECTION('',(0.0,0.0,-1.0));
#1153=AXIS2_PLACEMENT_3D('',#1150,#1151,#1152);
#1154=PLANE('',#1153);
#1155=CARTESIAN_POINT('',(9.1,-13.099999999999998,1.2));
#1156=VERTEX_POINT('',#1155);
#1157=CARTESIAN_POINT('',(9.1,-13.099999999999998,1.2));
#1158=DIRECTION('',(1.0,0.0,0.0));
#1159=VECTOR('',#1158,3.0);
#1160=LINE('',#1157,#1159);
#1161=EDGE_CURVE('',#1118,#1156,#1160,.F.);
#1162=ORIENTED_EDGE('',*,*,#1161,.T.);
#1163=CARTESIAN_POINT('',(9.1,-13.099999999999998,0.0));
#1164=VERTEX_POINT('',#1163);
#1165=CARTESIAN_POINT('',(9.1,-13.099999999999998,0.0));
#1166=DIRECTION('',(0.0,0.0,1.0));
#1167=VECTOR('',#1166,1.2);
#1168=LINE('',#1165,#1167);
#1169=EDGE_CURVE('',#1164,#1156,#1168,.T.);
#1170=ORIENTED_EDGE('',*,*,#1169,.F.);
#1171=CARTESIAN_POINT('',(12.1,-13.099999999999998,0.0));
#1172=DIRECTION('',(-1.0,0.0,0.0));
#1173=VECTOR('',#1172,3.0);
#1174=LINE('',#1171,#1173);
#1175=EDGE_CURVE('',#1126,#1164,#1174,.T.);
#1176=ORIENTED_EDGE('',*,*,#1175,.F.);
#1177=ORIENTED_EDGE('',*,*,#1131,.T.);
#1178=EDGE_LOOP('',(#1162,#1170,#1176,#1177));
#1179=FACE_OUTER_BOUND('',#1178,.T.);
#1180=ADVANCED_FACE('',(#1179),#1154,.T.);
#1181=CARTESIAN_POINT('',(9.1,-13.099999999999998,0.0));
#1182=DIRECTION('',(-1.0,0.0,0.0));
#1183=DIRECTION('',(0.0,0.0,-1.0));
#1184=AXIS2_PLACEMENT_3D('',#1181,#1182,#1183);
#1185=PLANE('',#1184);
#1186=CARTESIAN_POINT('',(9.1,-12.299999999999997,1.2));
#1187=VERTEX_POINT('',#1186);
#1188=CARTESIAN_POINT('',(9.1,-13.099999999999998,1.2));
#1189=DIRECTION('',(0.0,1.0,0.0));
#1190=VECTOR('',#1189,0.800000000000001);
#1191=LINE('',#1188,#1190);
#1192=EDGE_CURVE('',#1156,#1187,#1191,.T.);
#1193=ORIENTED_EDGE('',*,*,#1192,.T.);
#1194=CARTESIAN_POINT('',(9.1,-12.299999999999997,0.0));
#1195=VERTEX_POINT('',#1194);
#1196=CARTESIAN_POINT('',(9.1,-12.299999999999997,0.0));
#1197=DIRECTION('',(0.0,0.0,1.0));
#1198=VECTOR('',#1197,1.2);
#1199=LINE('',#1196,#1198);
#1200=EDGE_CURVE('',#1195,#1187,#1199,.T.);
#1201=ORIENTED_EDGE('',*,*,#1200,.F.);
#1202=CARTESIAN_POINT('',(9.1,-13.099999999999998,0.0));
#1203=DIRECTION('',(0.0,1.0,0.0));
#1204=VECTOR('',#1203,0.800000000000001);
#1205=LINE('',#1202,#1204);
#1206=EDGE_CURVE('',#1164,#1195,#1205,.T.);
#1207=ORIENTED_EDGE('',*,*,#1206,.F.);
#1208=ORIENTED_EDGE('',*,*,#1169,.T.);
#1209=EDGE_LOOP('',(#1193,#1201,#1207,#1208));
#1210=FACE_OUTER_BOUND('',#1209,.T.);
#1211=ADVANCED_FACE('',(#1210),#1185,.T.);
#1212=CARTESIAN_POINT('',(9.1,-12.299999999999997,0.0));
#1213=DIRECTION('',(0.0,1.0,0.0));
#1214=DIRECTION('',(0.0,0.0,1.0));
#1215=AXIS2_PLACEMENT_3D('',#1212,#1213,#1214);
#1216=PLANE('',#1215);
#1217=CARTESIAN_POINT('',(9.1,-12.299999999999997,1.2));
#1218=DIRECTION('',(1.0,0.0,0.0));
#1219=VECTOR('',#1218,3.0);
#1220=LINE('',#1217,#1219);
#1221=EDGE_CURVE('',#1187,#1116,#1220,.T.);
#1222=ORIENTED_EDGE('',*,*,#1221,.T.);
#1223=ORIENTED_EDGE('',*,*,#1145,.F.);
#1224=CARTESIAN_POINT('',(9.1,-12.299999999999997,0.0));
#1225=DIRECTION('',(1.0,0.0,0.0));
#1226=VECTOR('',#1225,3.0);
#1227=LINE('',#1224,#1226);
#1228=EDGE_CURVE('',#1195,#1134,#1227,.T.);
#1229=ORIENTED_EDGE('',*,*,#1228,.F.);
#1230=ORIENTED_EDGE('',*,*,#1200,.T.);
#1231=EDGE_LOOP('',(#1222,#1223,#1229,#1230));
#1232=FACE_OUTER_BOUND('',#1231,.T.);
#1233=ADVANCED_FACE('',(#1232),#1216,.T.);
#1234=CARTESIAN_POINT('',(10.599999999999998,-12.799999999999997,1.2));
#1235=DIRECTION('',(0.0,0.0,1.0));
#1236=DIRECTION('',(0.0,-1.0,0.0));
#1237=AXIS2_PLACEMENT_3D('',#1234,#1235,#1236);
#1238=PLANE('',#1237);
#1239=ORIENTED_EDGE('',*,*,#1123,.F.);
#1240=ORIENTED_EDGE('',*,*,#1221,.F.);
#1241=ORIENTED_EDGE('',*,*,#1192,.F.);
#1242=ORIENTED_EDGE('',*,*,#1161,.F.);
#1243=EDGE_LOOP('',(#1239,#1240,#1241,#1242));
#1244=FACE_OUTER_BOUND('',#1243,.T.);
#1245=ADVANCED_FACE('',(#1244),#1238,.T.);
#1246=CARTESIAN_POINT('',(10.599999999999998,-12.599999999999998,0.0));
#1247=DIRECTION('',(0.0,0.0,1.0));
#1248=DIRECTION('',(0.0,-1.0,0.0));
#1249=AXIS2_PLACEMENT_3D('',#1246,#1247,#1248);
#1250=PLANE('',#1249);
#1251=ORIENTED_EDGE('',*,*,#1228,.T.);
#1252=ORIENTED_EDGE('',*,*,#1139,.T.);
#1253=ORIENTED_EDGE('',*,*,#1175,.T.);
#1254=ORIENTED_EDGE('',*,*,#1206,.T.);
#1255=EDGE_LOOP('',(#1251,#1252,#1253,#1254));
#1256=FACE_OUTER_BOUND('',#1255,.T.);
#1257=ADVANCED_FACE('',(#1256),#1250,.F.);
#1258=CLOSED_SHELL('',(#1149,#1180,#1211,#1233,#1245,#1257));
#1259=MANIFOLD_SOLID_BREP('14C5',#1258);
#1260=STYLED_ITEM('NONE',(#957),#1259);
#1261=CARTESIAN_POINT('',(9.100000000000003,12.099999999999996,0.0));
#1262=DIRECTION('',(-1.0,0.0,0.0));
#1263=DIRECTION('',(0.0,0.0,-1.0));
#1264=AXIS2_PLACEMENT_3D('',#1261,#1262,#1263);
#1265=PLANE('',#1264);
#1266=CARTESIAN_POINT('',(9.100000000000003,12.299999999999995,1.2));
#1267=VERTEX_POINT('',#1266);
#1268=CARTESIAN_POINT('',(9.100000000000003,13.099999999999996,1.2));
#1269=VERTEX_POINT('',#1268);
#1270=CARTESIAN_POINT('',(9.100000000000003,12.299999999999995,1.2));
#1271=DIRECTION('',(0.0,1.0,0.0));
#1272=VECTOR('',#1271,0.800000000000001);
#1273=LINE('',#1270,#1272);
#1274=EDGE_CURVE('',#1267,#1269,#1273,.T.);
#1275=ORIENTED_EDGE('',*,*,#1274,.T.);
#1276=CARTESIAN_POINT('',(9.100000000000003,13.099999999999996,0.0));
#1277=VERTEX_POINT('',#1276);
#1278=CARTESIAN_POINT('',(9.100000000000003,13.099999999999996,0.0));
#1279=DIRECTION('',(0.0,0.0,1.0));
#1280=VECTOR('',#1279,1.2);
#1281=LINE('',#1278,#1280);
#1282=EDGE_CURVE('',#1277,#1269,#1281,.T.);
#1283=ORIENTED_EDGE('',*,*,#1282,.F.);
#1284=CARTESIAN_POINT('',(9.100000000000003,12.299999999999995,0.0));
#1285=VERTEX_POINT('',#1284);
#1286=CARTESIAN_POINT('',(9.100000000000003,13.099999999999996,0.0));
#1287=DIRECTION('',(0.0,-1.0,0.0));
#1288=VECTOR('',#1287,0.800000000000001);
#1289=LINE('',#1286,#1288);
#1290=EDGE_CURVE('',#1277,#1285,#1289,.T.);
#1291=ORIENTED_EDGE('',*,*,#1290,.T.);
#1292=CARTESIAN_POINT('',(9.100000000000003,12.299999999999995,0.0));
#1293=DIRECTION('',(0.0,0.0,1.0));
#1294=VECTOR('',#1293,1.2);
#1295=LINE('',#1292,#1294);
#1296=EDGE_CURVE('',#1285,#1267,#1295,.T.);
#1297=ORIENTED_EDGE('',*,*,#1296,.T.);
#1298=EDGE_LOOP('',(#1275,#1283,#1291,#1297));
#1299=FACE_OUTER_BOUND('',#1298,.T.);
#1300=ADVANCED_FACE('',(#1299),#1265,.T.);
#1301=CARTESIAN_POINT('',(9.100000000000003,13.099999999999996,0.0));
#1302=DIRECTION('',(0.0,1.0,0.0));
#1303=DIRECTION('',(0.0,0.0,1.0));
#1304=AXIS2_PLACEMENT_3D('',#1301,#1302,#1303);
#1305=PLANE('',#1304);
#1306=CARTESIAN_POINT('',(12.100000000000003,13.099999999999996,1.2));
#1307=VERTEX_POINT('',#1306);
#1308=CARTESIAN_POINT('',(12.100000000000003,13.099999999999996,1.2));
#1309=DIRECTION('',(-1.0,0.0,0.0));
#1310=VECTOR('',#1309,3.0);
#1311=LINE('',#1308,#1310);
#1312=EDGE_CURVE('',#1269,#1307,#1311,.F.);
#1313=ORIENTED_EDGE('',*,*,#1312,.T.);
#1314=CARTESIAN_POINT('',(12.100000000000003,13.099999999999996,0.0));
#1315=VERTEX_POINT('',#1314);
#1316=CARTESIAN_POINT('',(12.100000000000003,13.099999999999996,0.0));
#1317=DIRECTION('',(0.0,0.0,1.0));
#1318=VECTOR('',#1317,1.2);
#1319=LINE('',#1316,#1318);
#1320=EDGE_CURVE('',#1315,#1307,#1319,.T.);
#1321=ORIENTED_EDGE('',*,*,#1320,.F.);
#1322=CARTESIAN_POINT('',(12.100000000000003,13.099999999999996,0.0));
#1323=DIRECTION('',(-1.0,0.0,0.0));
#1324=VECTOR('',#1323,3.0);
#1325=LINE('',#1322,#1324);
#1326=EDGE_CURVE('',#1315,#1277,#1325,.T.);
#1327=ORIENTED_EDGE('',*,*,#1326,.T.);
#1328=ORIENTED_EDGE('',*,*,#1282,.T.);
#1329=EDGE_LOOP('',(#1313,#1321,#1327,#1328));
#1330=FACE_OUTER_BOUND('',#1329,.T.);
#1331=ADVANCED_FACE('',(#1330),#1305,.T.);
#1332=CARTESIAN_POINT('',(12.100000000000003,13.099999999999996,0.0));
#1333=DIRECTION('',(1.0,0.0,0.0));
#1334=DIRECTION('',(0.0,0.0,1.0));
#1335=AXIS2_PLACEMENT_3D('',#1332,#1333,#1334);
#1336=PLANE('',#1335);
#1337=CARTESIAN_POINT('',(12.100000000000003,12.299999999999995,1.2));
#1338=VERTEX_POINT('',#1337);
#1339=CARTESIAN_POINT('',(12.100000000000003,13.099999999999996,1.2));
#1340=DIRECTION('',(0.0,-1.0,0.0));
#1341=VECTOR('',#1340,0.800000000000001);
#1342=LINE('',#1339,#1341);
#1343=EDGE_CURVE('',#1307,#1338,#1342,.T.);
#1344=ORIENTED_EDGE('',*,*,#1343,.T.);
#1345=CARTESIAN_POINT('',(12.100000000000003,12.299999999999995,0.0));
#1346=VERTEX_POINT('',#1345);
#1347=CARTESIAN_POINT('',(12.100000000000003,12.299999999999995,0.0));
#1348=DIRECTION('',(0.0,0.0,1.0));
#1349=VECTOR('',#1348,1.2);
#1350=LINE('',#1347,#1349);
#1351=EDGE_CURVE('',#1346,#1338,#1350,.T.);
#1352=ORIENTED_EDGE('',*,*,#1351,.F.);
#1353=CARTESIAN_POINT('',(12.100000000000003,12.299999999999995,0.0));
#1354=DIRECTION('',(0.0,1.0,0.0));
#1355=VECTOR('',#1354,0.800000000000001);
#1356=LINE('',#1353,#1355);
#1357=EDGE_CURVE('',#1346,#1315,#1356,.T.);
#1358=ORIENTED_EDGE('',*,*,#1357,.T.);
#1359=ORIENTED_EDGE('',*,*,#1320,.T.);
#1360=EDGE_LOOP('',(#1344,#1352,#1358,#1359));
#1361=FACE_OUTER_BOUND('',#1360,.T.);
#1362=ADVANCED_FACE('',(#1361),#1336,.T.);
#1363=CARTESIAN_POINT('',(12.100000000000003,12.299999999999995,0.0));
#1364=DIRECTION('',(0.0,-1.0,0.0));
#1365=DIRECTION('',(0.0,0.0,-1.0));
#1366=AXIS2_PLACEMENT_3D('',#1363,#1364,#1365);
#1367=PLANE('',#1366);
#1368=CARTESIAN_POINT('',(12.100000000000003,12.299999999999995,1.2));
#1369=DIRECTION('',(-1.0,0.0,0.0));
#1370=VECTOR('',#1369,3.0);
#1371=LINE('',#1368,#1370);
#1372=EDGE_CURVE('',#1338,#1267,#1371,.T.);
#1373=ORIENTED_EDGE('',*,*,#1372,.T.);
#1374=ORIENTED_EDGE('',*,*,#1296,.F.);
#1375=CARTESIAN_POINT('',(9.100000000000003,12.299999999999995,0.0));
#1376=DIRECTION('',(1.0,0.0,0.0));
#1377=VECTOR('',#1376,3.0);
#1378=LINE('',#1375,#1377);
#1379=EDGE_CURVE('',#1285,#1346,#1378,.T.);
#1380=ORIENTED_EDGE('',*,*,#1379,.T.);
#1381=ORIENTED_EDGE('',*,*,#1351,.T.);
#1382=EDGE_LOOP('',(#1373,#1374,#1380,#1381));
#1383=FACE_OUTER_BOUND('',#1382,.T.);
#1384=ADVANCED_FACE('',(#1383),#1367,.T.);
#1385=CARTESIAN_POINT('',(10.600000000000001,12.599999999999994,0.0));
#1386=DIRECTION('',(0.0,0.0,1.0));
#1387=DIRECTION('',(0.0,-1.0,0.0));
#1388=AXIS2_PLACEMENT_3D('',#1385,#1386,#1387);
#1389=PLANE('',#1388);
#1390=ORIENTED_EDGE('',*,*,#1379,.F.);
#1391=ORIENTED_EDGE('',*,*,#1290,.F.);
#1392=ORIENTED_EDGE('',*,*,#1326,.F.);
#1393=ORIENTED_EDGE('',*,*,#1357,.F.);
#1394=EDGE_LOOP('',(#1390,#1391,#1392,#1393));
#1395=FACE_OUTER_BOUND('',#1394,.T.);
#1396=ADVANCED_FACE('',(#1395),#1389,.F.);
#1397=CARTESIAN_POINT('',(10.600000000000001,12.799999999999995,1.2));
#1398=DIRECTION('',(0.0,0.0,1.0));
#1399=DIRECTION('',(0.0,-1.0,0.0));
#1400=AXIS2_PLACEMENT_3D('',#1397,#1398,#1399);
#1401=PLANE('',#1400);
#1402=ORIENTED_EDGE('',*,*,#1274,.F.);
#1403=ORIENTED_EDGE('',*,*,#1372,.F.);
#1404=ORIENTED_EDGE('',*,*,#1343,.F.);
#1405=ORIENTED_EDGE('',*,*,#1312,.F.);
#1406=EDGE_LOOP('',(#1402,#1403,#1404,#1405));
#1407=FACE_OUTER_BOUND('',#1406,.T.);
#1408=ADVANCED_FACE('',(#1407),#1401,.T.);
#1409=CLOSED_SHELL('',(#1300,#1331,#1362,#1384,#1396,#1408));
#1410=MANIFOLD_SOLID_BREP('14C1',#1409);
#1411=STYLED_ITEM('NONE',(#957),#1410);
#1412=CARTESIAN_POINT('',(13.699999999999998,12.099999999999998,15.649999999999999));
#1413=DIRECTION('',(0.577350269189626,0.577350269189626,0.577350269189626));
#1414=DIRECTION('',(-0.707106781186548,0.0,0.707106781186548));
#1415=AXIS2_PLACEMENT_3D('',#1412,#1413,#1414);
#1416=SPHERICAL_SURFACE('',#1415,1.0);
#1417=CARTESIAN_POINT('',(14.277350269189624,12.677350269189624,16.227350269189625));
#1418=VERTEX_POINT('',#1417);
#1419=CARTESIAN_POINT('',(13.699999999999999,12.547213595499958,16.544427190999915));
#1420=VERTEX_POINT('',#1419);
#1421=CARTESIAN_POINT('',(13.699999999999998,12.099999999999998,15.649999999999999));
#1422=DIRECTION('',(0.408248290463863,-0.816496580927726,0.408248290463864));
#1423=DIRECTION('',(-0.707106781186548,0.0,0.707106781186547));
#1424=AXIS2_PLACEMENT_3D('',#1421,#1422,#1423);
#1425=CIRCLE('',#1424,0.999999999999999);
#1426=EDGE_CURVE('',#1418,#1420,#1425,.T.);
#1427=ORIENTED_EDGE('',*,*,#1426,.F.);
#1428=CARTESIAN_POINT('',(14.594427190999914,12.547213595499956,15.649999999999999));
#1429=VERTEX_POINT('',#1428);
#1430=CARTESIAN_POINT('',(13.699999999999998,12.099999999999998,15.649999999999999));
#1431=DIRECTION('',(-0.408248290463863,0.816496580927726,-0.408248290463863));
#1432=DIRECTION('',(0.707106781186548,0.0,-0.707106781186548));
#1433=AXIS2_PLACEMENT_3D('',#1430,#1431,#1432);
#1434=CIRCLE('',#1433,1.0);
#1435=EDGE_CURVE('',#1418,#1429,#1434,.T.);
#1436=ORIENTED_EDGE('',*,*,#1435,.T.);
#1437=CARTESIAN_POINT('',(13.699999999999998,13.099999999999998,15.649999999999999));
#1438=VERTEX_POINT('',#1437);
#1439=CARTESIAN_POINT('',(13.699999999999998,12.099999999999998,15.649999999999999));
#1440=DIRECTION('',(0.0,0.0,1.0));
#1441=DIRECTION('',(0.707106781186548,0.707106781186547,0.0));
#1442=AXIS2_PLACEMENT_3D('',#1439,#1440,#1441);
#1443=CIRCLE('',#1442,1.0);
#1444=EDGE_CURVE('',#1429,#1438,#1443,.T.);
#1445=ORIENTED_EDGE('',*,*,#1444,.T.);
#1446=CARTESIAN_POINT('',(13.700000000000001,12.099999999999998,15.649999999999999));
#1447=DIRECTION('',(1.0,0.0,0.0));
#1448=DIRECTION('',(0.0,0.0,1.0));
#1449=AXIS2_PLACEMENT_3D('',#1446,#1447,#1448);
#1450=CIRCLE('',#1449,1.0);
#1451=EDGE_CURVE('',#1420,#1438,#1450,.F.);
#1452=ORIENTED_EDGE('',*,*,#1451,.F.);
#1453=EDGE_LOOP('',(#1427,#1436,#1445,#1452));
#1454=FACE_OUTER_BOUND('',#1453,.T.);
#1455=ADVANCED_FACE('',(#1454),#1416,.T.);
#1456=CARTESIAN_POINT('',(13.699999999999998,-12.100000000000001,15.649999999999999));
#1457=DIRECTION('',(0.577350269189626,0.577350269189626,0.577350269189626));
#1458=DIRECTION('',(-0.707106781186548,0.0,0.707106781186548));
#1459=AXIS2_PLACEMENT_3D('',#1456,#1457,#1458);
#1460=SPHERICAL_SURFACE('',#1459,1.0);
#1461=CARTESIAN_POINT('',(13.699999999999998,-13.100000000000001,15.649999999999999));
#1462=VERTEX_POINT('',#1461);
#1463=CARTESIAN_POINT('',(14.699999999999998,-12.100000000000001,15.649999999999999));
#1464=VERTEX_POINT('',#1463);
#1465=CARTESIAN_POINT('',(13.699999999999998,-12.100000000000001,15.649999999999999));
#1466=DIRECTION('',(0.0,0.0,1.0));
#1467=DIRECTION('',(0.707106781186547,-0.707106781186548,0.0));
#1468=AXIS2_PLACEMENT_3D('',#1465,#1466,#1467);
#1469=CIRCLE('',#1468,1.0);
#1470=EDGE_CURVE('',#1462,#1464,#1469,.T.);
#1471=ORIENTED_EDGE('',*,*,#1470,.T.);
#1472=CARTESIAN_POINT('',(13.699999999999999,-12.100000000000003,16.649999999999999));
#1473=VERTEX_POINT('',#1472);
#1474=CARTESIAN_POINT('',(13.699999999999999,-12.100000000000003,15.649999999999999));
#1475=DIRECTION('',(0.0,-1.0,0.0));
#1476=DIRECTION('',(0.0,0.0,1.0));
#1477=AXIS2_PLACEMENT_3D('',#1474,#1475,#1476);
#1478=CIRCLE('',#1477,1.0);
#1479=EDGE_CURVE('',#1473,#1464,#1478,.F.);
#1480=ORIENTED_EDGE('',*,*,#1479,.F.);
#1481=CARTESIAN_POINT('',(13.699999999999998,-12.100000000000003,15.649999999999999));
#1482=DIRECTION('',(1.0,-9.184851E-017,9.184851E-017));
#1483=DIRECTION('',(-1.298934E-016,-0.707106781186548,0.707106781186548));
#1484=AXIS2_PLACEMENT_3D('',#1481,#1482,#1483);
#1485=CIRCLE('',#1484,1.0);
#1486=EDGE_CURVE('',#1473,#1462,#1485,.T.);
#1487=ORIENTED_EDGE('',*,*,#1486,.T.);
#1488=EDGE_LOOP('',(#1471,#1480,#1487));
#1489=FACE_OUTER_BOUND('',#1488,.T.);
#1490=ADVANCED_FACE('',(#1489),#1460,.T.);
#1491=CARTESIAN_POINT('',(-13.700000000000001,-12.1,15.649999999999999));
#1492=DIRECTION('',(0.577350269189626,0.577350269189626,0.577350269189626));
#1493=DIRECTION('',(-0.707106781186548,0.0,0.707106781186548));
#1494=AXIS2_PLACEMENT_3D('',#1491,#1492,#1493);
#1495=SPHERICAL_SURFACE('',#1494,1.0);
#1496=CARTESIAN_POINT('',(-13.700000000000001,-13.1,15.649999999999999));
#1497=VERTEX_POINT('',#1496);
#1498=CARTESIAN_POINT('',(-13.699999999999999,-12.100000000000001,16.649999999999999));
#1499=VERTEX_POINT('',#1498);
#1500=CARTESIAN_POINT('',(-13.699999999999999,-12.100000000000001,15.649999999999999));
#1501=DIRECTION('',(-1.0,1.868205E-015,-1.868205E-015));
#1502=DIRECTION('',(-2.642041E-015,-0.707106781186546,0.707106781186549));
#1503=AXIS2_PLACEMENT_3D('',#1500,#1501,#1502);
#1504=CIRCLE('',#1503,1.0);
#1505=EDGE_CURVE('',#1497,#1499,#1504,.T.);
#1506=ORIENTED_EDGE('',*,*,#1505,.T.);
#1507=CARTESIAN_POINT('',(-14.699999999999999,-12.099999999999998,15.649999999999999));
#1508=VERTEX_POINT('',#1507);
#1509=CARTESIAN_POINT('',(-13.699999999999999,-12.1,15.649999999999999));
#1510=DIRECTION('',(0.0,-1.0,0.0));
#1511=DIRECTION('',(-1.0,0.0,0.0));
#1512=AXIS2_PLACEMENT_3D('',#1509,#1510,#1511);
#1513=CIRCLE('',#1512,1.0);
#1514=EDGE_CURVE('',#1508,#1499,#1513,.F.);
#1515=ORIENTED_EDGE('',*,*,#1514,.F.);
#1516=CARTESIAN_POINT('',(-13.700000000000001,-12.1,15.649999999999999));
#1517=DIRECTION('',(0.0,0.0,1.0));
#1518=DIRECTION('',(-0.707106781186548,-0.707106781186547,0.0));
#1519=AXIS2_PLACEMENT_3D('',#1516,#1517,#1518);
#1520=CIRCLE('',#1519,1.0);
#1521=EDGE_CURVE('',#1508,#1497,#1520,.T.);
#1522=ORIENTED_EDGE('',*,*,#1521,.T.);
#1523=EDGE_LOOP('',(#1506,#1515,#1522));
#1524=FACE_OUTER_BOUND('',#1523,.T.);
#1525=ADVANCED_FACE('',(#1524),#1495,.T.);
#1526=CARTESIAN_POINT('',(13.699999999999998,12.099999999999998,15.649999999999999));
#1527=DIRECTION('',(0.577350269189626,0.577350269189626,0.577350269189626));
#1528=DIRECTION('',(-0.707106781186548,0.0,0.707106781186548));
#1529=AXIS2_PLACEMENT_3D('',#1526,#1527,#1528);
#1530=SPHERICAL_SURFACE('',#1529,1.0);
#1531=ORIENTED_EDGE('',*,*,#1426,.T.);
#1532=CARTESIAN_POINT('',(13.700000000000001,12.099999999999998,16.649999999999999));
#1533=VERTEX_POINT('',#1532);
#1534=CARTESIAN_POINT('',(13.700000000000001,12.099999999999998,15.649999999999999));
#1535=DIRECTION('',(1.0,0.0,0.0));
#1536=DIRECTION('',(0.0,0.0,1.0));
#1537=AXIS2_PLACEMENT_3D('',#1534,#1535,#1536);
#1538=CIRCLE('',#1537,1.0);
#1539=EDGE_CURVE('',#1533,#1420,#1538,.F.);
#1540=ORIENTED_EDGE('',*,*,#1539,.F.);
#1541=CARTESIAN_POINT('',(14.699999999999999,12.099999999999996,15.649999999999999));
#1542=VERTEX_POINT('',#1541);
#1543=CARTESIAN_POINT('',(13.700000000000001,12.099999999999998,15.649999999999999));
#1544=DIRECTION('',(9.184851E-017,1.0,9.184851E-017));
#1545=DIRECTION('',(0.707106781186548,-1.298934E-016,0.707106781186548));
#1546=AXIS2_PLACEMENT_3D('',#1543,#1544,#1545);
#1547=CIRCLE('',#1546,1.0);
#1548=EDGE_CURVE('',#1533,#1542,#1547,.T.);
#1549=ORIENTED_EDGE('',*,*,#1548,.T.);
#1550=CARTESIAN_POINT('',(13.699999999999998,12.099999999999998,15.649999999999999));
#1551=DIRECTION('',(0.0,0.0,1.0));
#1552=DIRECTION('',(0.707106781186548,0.707106781186547,0.0));
#1553=AXIS2_PLACEMENT_3D('',#1550,#1551,#1552);
#1554=CIRCLE('',#1553,1.0);
#1555=EDGE_CURVE('',#1542,#1429,#1554,.T.);
#1556=ORIENTED_EDGE('',*,*,#1555,.T.);
#1557=ORIENTED_EDGE('',*,*,#1435,.F.);
#1558=EDGE_LOOP('',(#1531,#1540,#1549,#1556,#1557));
#1559=FACE_OUTER_BOUND('',#1558,.T.);
#1560=ADVANCED_FACE('',(#1559),#1530,.T.);
#1561=CARTESIAN_POINT('',(-13.700000000000001,12.100000000000003,15.649999999999999));
#1562=DIRECTION('',(0.577350269189626,0.577350269189626,0.577350269189626));
#1563=DIRECTION('',(-0.707106781186548,0.0,0.707106781186548));
#1564=AXIS2_PLACEMENT_3D('',#1561,#1562,#1563);
#1565=SPHERICAL_SURFACE('',#1564,1.0);
#1566=CARTESIAN_POINT('',(-14.700000000000001,12.100000000000005,15.649999999999999));
#1567=VERTEX_POINT('',#1566);
#1568=CARTESIAN_POINT('',(-13.700000000000001,12.100000000000001,16.649999999999999));
#1569=VERTEX_POINT('',#1568);
#1570=CARTESIAN_POINT('',(-13.700000000000001,12.100000000000005,15.649999999999999));
#1571=DIRECTION('',(-1.684508E-015,1.0,1.684508E-015));
#1572=DIRECTION('',(-0.707106781186548,-2.382255E-015,0.707106781186548));
#1573=AXIS2_PLACEMENT_3D('',#1570,#1571,#1572);
#1574=CIRCLE('',#1573,1.0);
#1575=EDGE_CURVE('',#1567,#1569,#1574,.T.);
#1576=ORIENTED_EDGE('',*,*,#1575,.T.);
#1577=CARTESIAN_POINT('',(-13.700000000000001,13.100000000000001,15.649999999999999));
#1578=VERTEX_POINT('',#1577);
#1579=CARTESIAN_POINT('',(-13.700000000000001,12.100000000000001,15.649999999999999));
#1580=DIRECTION('',(-1.0,0.0,0.0));
#1581=DIRECTION('',(0.0,1.0,0.0));
#1582=AXIS2_PLACEMENT_3D('',#1579,#1580,#1581);
#1583=CIRCLE('',#1582,1.0);
#1584=EDGE_CURVE('',#1578,#1569,#1583,.F.);
#1585=ORIENTED_EDGE('',*,*,#1584,.F.);
#1586=CARTESIAN_POINT('',(-13.700000000000001,12.100000000000003,15.649999999999999));
#1587=DIRECTION('',(0.0,0.0,1.0));
#1588=DIRECTION('',(-0.707106781186547,0.707106781186548,0.0));
#1589=AXIS2_PLACEMENT_3D('',#1586,#1587,#1588);
#1590=CIRCLE('',#1589,1.0);
#1591=EDGE_CURVE('',#1578,#1567,#1590,.T.);
#1592=ORIENTED_EDGE('',*,*,#1591,.T.);
#1593=EDGE_LOOP('',(#1576,#1585,#1592));
#1594=FACE_OUTER_BOUND('',#1593,.T.);
#1595=ADVANCED_FACE('',(#1594),#1565,.T.);
#1596=CARTESIAN_POINT('',(-7.349999999999999,12.100000000000001,15.649999999999999));
#1597=DIRECTION('',(1.0,-1.836970E-016,-2.724338E-034));
#1598=DIRECTION('',(1.298934E-016,0.707106781186548,0.707106781186548));
#1599=AXIS2_PLACEMENT_3D('',#1596,#1597,#1598);
#1600=CYLINDRICAL_SURFACE('',#1599,1.0);
#1601=ORIENTED_EDGE('',*,*,#1539,.T.);
#1602=ORIENTED_EDGE('',*,*,#1451,.T.);
#1603=CARTESIAN_POINT('',(13.699999999999999,13.099999999999998,15.649999999999999));
#1604=DIRECTION('',(-1.0,0.0,0.0));
#1605=VECTOR('',#1604,27.399999999999999);
#1606=LINE('',#1603,#1605);
#1607=EDGE_CURVE('',#1438,#1578,#1606,.T.);
#1608=ORIENTED_EDGE('',*,*,#1607,.T.);
#1609=ORIENTED_EDGE('',*,*,#1584,.T.);
#1610=CARTESIAN_POINT('',(-13.699999999999999,12.100000000000003,16.649999999999999));
#1611=DIRECTION('',(1.0,0.0,0.0));
#1612=VECTOR('',#1611,27.400000000000002);
#1613=LINE('',#1610,#1612);
#1614=EDGE_CURVE('',#1569,#1533,#1613,.T.);
#1615=ORIENTED_EDGE('',*,*,#1614,.T.);
#1616=EDGE_LOOP('',(#1601,#1602,#1608,#1609,#1615));
#1617=FACE_OUTER_BOUND('',#1616,.T.);
#1618=ADVANCED_FACE('',(#1617),#1600,.T.);
#1619=CARTESIAN_POINT('',(-13.700000000000001,12.100000000000003,1.2));
#1620=DIRECTION('',(0.0,0.0,1.0));
#1621=DIRECTION('',(-0.707106781186547,0.707106781186548,0.0));
#1622=AXIS2_PLACEMENT_3D('',#1619,#1620,#1621);
#1623=CYLINDRICAL_SURFACE('',#1622,1.0);
#1624=CARTESIAN_POINT('',(-13.699999999999999,13.100000000000001,1.2));
#1625=VERTEX_POINT('',#1624);
#1626=CARTESIAN_POINT('',(-14.700000000000001,12.100000000000005,1.2));
#1627=VERTEX_POINT('',#1626);
#1628=CARTESIAN_POINT('',(-13.700000000000001,12.100000000000003,1.2));
#1629=DIRECTION('',(0.0,0.0,1.0));
#1630=DIRECTION('',(-0.707106781186547,0.707106781186548,0.0));
#1631=AXIS2_PLACEMENT_3D('',#1628,#1629,#1630);
#1632=CIRCLE('',#1631,1.0);
#1633=EDGE_CURVE('',#1625,#1627,#1632,.T.);
#1634=ORIENTED_EDGE('',*,*,#1633,.T.);
#1635=CARTESIAN_POINT('',(-14.700000000000001,12.100000000000005,1.2));
#1636=DIRECTION('',(0.0,0.0,1.0));
#1637=VECTOR('',#1636,14.449999999999999);
#1638=LINE('',#1635,#1637);
#1639=EDGE_CURVE('',#1627,#1567,#1638,.T.);
#1640=ORIENTED_EDGE('',*,*,#1639,.T.);
#1641=ORIENTED_EDGE('',*,*,#1591,.F.);
#1642=CARTESIAN_POINT('',(-13.700000000000001,13.100000000000001,15.649999999999999));
#1643=DIRECTION('',(0.0,0.0,-1.0));
#1644=VECTOR('',#1643,14.449999999999999);
#1645=LINE('',#1642,#1644);
#1646=EDGE_CURVE('',#1578,#1625,#1645,.T.);
#1647=ORIENTED_EDGE('',*,*,#1646,.T.);
#1648=EDGE_LOOP('',(#1634,#1640,#1641,#1647));
#1649=FACE_OUTER_BOUND('',#1648,.T.);
#1650=ADVANCED_FACE('',(#1649),#1623,.T.);
#1651=CARTESIAN_POINT('',(-13.700000000000001,-6.55,15.649999999999999));
#1652=DIRECTION('',(-1.970262E-017,1.0,-1.200663E-033));
#1653=DIRECTION('',(-0.707106781186548,1.298934E-016,0.707106781186548));
#1654=AXIS2_PLACEMENT_3D('',#1651,#1652,#1653);
#1655=CYLINDRICAL_SURFACE('',#1654,1.0);
#1656=ORIENTED_EDGE('',*,*,#1575,.F.);
#1657=CARTESIAN_POINT('',(-14.700000000000001,12.100000000000005,15.649999999999999));
#1658=DIRECTION('',(0.0,-1.0,0.0));
#1659=VECTOR('',#1658,24.200000000000003);
#1660=LINE('',#1657,#1659);
#1661=EDGE_CURVE('',#1567,#1508,#1660,.T.);
#1662=ORIENTED_EDGE('',*,*,#1661,.T.);
#1663=ORIENTED_EDGE('',*,*,#1514,.T.);
#1664=CARTESIAN_POINT('',(-13.700000000000001,-12.100000000000001,16.649999999999999));
#1665=DIRECTION('',(0.0,1.0,0.0));
#1666=VECTOR('',#1665,24.200000000000003);
#1667=LINE('',#1664,#1666);
#1668=EDGE_CURVE('',#1499,#1569,#1667,.T.);
#1669=ORIENTED_EDGE('',*,*,#1668,.T.);
#1670=EDGE_LOOP('',(#1656,#1662,#1663,#1669));
#1671=FACE_OUTER_BOUND('',#1670,.T.);
#1672=ADVANCED_FACE('',(#1671),#1655,.T.);
#1673=CARTESIAN_POINT('',(13.699999999999998,12.099999999999998,1.2));
#1674=DIRECTION('',(0.0,0.0,1.0));
#1675=DIRECTION('',(0.707106781186548,0.707106781186547,0.0));
#1676=AXIS2_PLACEMENT_3D('',#1673,#1674,#1675);
#1677=CYLINDRICAL_SURFACE('',#1676,1.0);
#1678=CARTESIAN_POINT('',(14.699999999999999,12.099999999999996,1.2));
#1679=VERTEX_POINT('',#1678);
#1680=CARTESIAN_POINT('',(13.699999999999998,13.099999999999998,1.2));
#1681=VERTEX_POINT('',#1680);
#1682=CARTESIAN_POINT('',(13.699999999999998,12.099999999999998,1.2));
#1683=DIRECTION('',(0.0,0.0,1.0));
#1684=DIRECTION('',(0.707106781186548,0.707106781186547,0.0));
#1685=AXIS2_PLACEMENT_3D('',#1682,#1683,#1684);
#1686=CIRCLE('',#1685,1.0);
#1687=EDGE_CURVE('',#1679,#1681,#1686,.T.);
#1688=ORIENTED_EDGE('',*,*,#1687,.T.);
#1689=CARTESIAN_POINT('',(13.699999999999998,13.099999999999998,1.2));
#1690=DIRECTION('',(0.0,0.0,1.0));
#1691=VECTOR('',#1690,14.449999999999999);
#1692=LINE('',#1689,#1691);
#1693=EDGE_CURVE('',#1681,#1438,#1692,.T.);
#1694=ORIENTED_EDGE('',*,*,#1693,.T.);
#1695=ORIENTED_EDGE('',*,*,#1444,.F.);
#1696=ORIENTED_EDGE('',*,*,#1555,.F.);
#1697=CARTESIAN_POINT('',(14.699999999999999,12.099999999999996,15.649999999999999));
#1698=DIRECTION('',(0.0,0.0,-1.0));
#1699=VECTOR('',#1698,14.449999999999999);
#1700=LINE('',#1697,#1699);
#1701=EDGE_CURVE('',#1542,#1679,#1700,.T.);
#1702=ORIENTED_EDGE('',*,*,#1701,.T.);
#1703=EDGE_LOOP('',(#1688,#1694,#1695,#1696,#1702));
#1704=FACE_OUTER_BOUND('',#1703,.T.);
#1705=ADVANCED_FACE('',(#1704),#1677,.T.);
#1706=CARTESIAN_POINT('',(13.700000000000001,6.549999999999998,15.649999999999999));
#1707=DIRECTION('',(-1.158971E-016,-1.0,1.200663E-033));
#1708=DIRECTION('',(0.707106781186548,-1.298934E-016,0.707106781186548));
#1709=AXIS2_PLACEMENT_3D('',#1706,#1707,#1708);
#1710=CYLINDRICAL_SURFACE('',#1709,1.0);
#1711=ORIENTED_EDGE('',*,*,#1479,.T.);
#1712=CARTESIAN_POINT('',(14.699999999999998,-12.100000000000001,15.649999999999999));
#1713=DIRECTION('',(0.0,1.0,0.0));
#1714=VECTOR('',#1713,24.199999999999999);
#1715=LINE('',#1712,#1714);
#1716=EDGE_CURVE('',#1464,#1542,#1715,.T.);
#1717=ORIENTED_EDGE('',*,*,#1716,.T.);
#1718=ORIENTED_EDGE('',*,*,#1548,.F.);
#1719=CARTESIAN_POINT('',(13.700000000000001,12.099999999999998,16.649999999999999));
#1720=DIRECTION('',(0.0,-1.0,0.0));
#1721=VECTOR('',#1720,24.200000000000003);
#1722=LINE('',#1719,#1721);
#1723=EDGE_CURVE('',#1533,#1473,#1722,.T.);
#1724=ORIENTED_EDGE('',*,*,#1723,.T.);
#1725=EDGE_LOOP('',(#1711,#1717,#1718,#1724));
#1726=FACE_OUTER_BOUND('',#1725,.T.);
#1727=ADVANCED_FACE('',(#1726),#1710,.T.);
#1728=CARTESIAN_POINT('',(-13.700000000000001,-12.1,1.2));
#1729=DIRECTION('',(0.0,0.0,1.0));
#1730=DIRECTION('',(-0.707106781186548,-0.707106781186547,0.0));
#1731=AXIS2_PLACEMENT_3D('',#1728,#1729,#1730);
#1732=CYLINDRICAL_SURFACE('',#1731,1.0);
#1733=CARTESIAN_POINT('',(-14.699999999999999,-12.1,1.2));
#1734=VERTEX_POINT('',#1733);
#1735=CARTESIAN_POINT('',(-13.700000000000001,-13.1,1.2));
#1736=VERTEX_POINT('',#1735);
#1737=CARTESIAN_POINT('',(-13.700000000000001,-12.1,1.2));
#1738=DIRECTION('',(0.0,0.0,1.0));
#1739=DIRECTION('',(-0.707106781186548,-0.707106781186547,0.0));
#1740=AXIS2_PLACEMENT_3D('',#1737,#1738,#1739);
#1741=CIRCLE('',#1740,1.0);
#1742=EDGE_CURVE('',#1734,#1736,#1741,.T.);
#1743=ORIENTED_EDGE('',*,*,#1742,.T.);
#1744=CARTESIAN_POINT('',(-13.700000000000001,-13.1,1.2));
#1745=DIRECTION('',(0.0,0.0,1.0));
#1746=VECTOR('',#1745,14.449999999999999);
#1747=LINE('',#1744,#1746);
#1748=EDGE_CURVE('',#1736,#1497,#1747,.T.);
#1749=ORIENTED_EDGE('',*,*,#1748,.T.);
#1750=ORIENTED_EDGE('',*,*,#1521,.F.);
#1751=CARTESIAN_POINT('',(-14.699999999999999,-12.099999999999998,15.649999999999999));
#1752=DIRECTION('',(0.0,0.0,-1.0));
#1753=VECTOR('',#1752,14.449999999999999);
#1754=LINE('',#1751,#1753);
#1755=EDGE_CURVE('',#1508,#1734,#1754,.T.);
#1756=ORIENTED_EDGE('',*,*,#1755,.T.);
#1757=EDGE_LOOP('',(#1743,#1749,#1750,#1756));
#1758=FACE_OUTER_BOUND('',#1757,.T.);
#1759=ADVANCED_FACE('',(#1758),#1732,.T.);
#1760=CARTESIAN_POINT('',(7.349999999999997,-12.100000000000003,15.649999999999999));
#1761=DIRECTION('',(-1.0,1.232767E-016,2.724338E-034));
#1762=DIRECTION('',(-1.298934E-016,-0.707106781186548,0.707106781186548));
#1763=AXIS2_PLACEMENT_3D('',#1760,#1761,#1762);
#1764=CYLINDRICAL_SURFACE('',#1763,1.0);
#1765=ORIENTED_EDGE('',*,*,#1505,.F.);
#1766=CARTESIAN_POINT('',(-13.699999999999999,-13.1,15.649999999999999));
#1767=DIRECTION('',(1.0,0.0,0.0));
#1768=VECTOR('',#1767,27.399999999999995);
#1769=LINE('',#1766,#1768);
#1770=EDGE_CURVE('',#1497,#1462,#1769,.T.);
#1771=ORIENTED_EDGE('',*,*,#1770,.T.);
#1772=ORIENTED_EDGE('',*,*,#1486,.F.);
#1773=CARTESIAN_POINT('',(13.699999999999999,-12.100000000000003,16.649999999999999));
#1774=DIRECTION('',(-1.0,0.0,0.0));
#1775=VECTOR('',#1774,27.399999999999999);
#1776=LINE('',#1773,#1775);
#1777=EDGE_CURVE('',#1473,#1499,#1776,.T.);
#1778=ORIENTED_EDGE('',*,*,#1777,.T.);
#1779=EDGE_LOOP('',(#1765,#1771,#1772,#1778));
#1780=FACE_OUTER_BOUND('',#1779,.T.);
#1781=ADVANCED_FACE('',(#1780),#1764,.T.);
#1782=CARTESIAN_POINT('',(13.699999999999998,-12.100000000000001,1.2));
#1783=DIRECTION('',(0.0,0.0,1.0));
#1784=DIRECTION('',(0.707106781186547,-0.707106781186548,0.0));
#1785=AXIS2_PLACEMENT_3D('',#1782,#1783,#1784);
#1786=CYLINDRICAL_SURFACE('',#1785,1.0);
#1787=CARTESIAN_POINT('',(13.699999999999999,-13.100000000000001,1.2));
#1788=VERTEX_POINT('',#1787);
#1789=CARTESIAN_POINT('',(14.699999999999998,-12.100000000000003,1.2));
#1790=VERTEX_POINT('',#1789);
#1791=CARTESIAN_POINT('',(13.699999999999998,-12.100000000000001,1.2));
#1792=DIRECTION('',(0.0,0.0,1.0));
#1793=DIRECTION('',(0.707106781186547,-0.707106781186548,0.0));
#1794=AXIS2_PLACEMENT_3D('',#1791,#1792,#1793);
#1795=CIRCLE('',#1794,1.0);
#1796=EDGE_CURVE('',#1788,#1790,#1795,.T.);
#1797=ORIENTED_EDGE('',*,*,#1796,.T.);
#1798=CARTESIAN_POINT('',(14.699999999999998,-12.100000000000003,1.2));
#1799=DIRECTION('',(0.0,0.0,1.0));
#1800=VECTOR('',#1799,14.449999999999999);
#1801=LINE('',#1798,#1800);
#1802=EDGE_CURVE('',#1790,#1464,#1801,.T.);
#1803=ORIENTED_EDGE('',*,*,#1802,.T.);
#1804=ORIENTED_EDGE('',*,*,#1470,.F.);
#1805=CARTESIAN_POINT('',(13.699999999999998,-13.100000000000001,15.649999999999999));
#1806=DIRECTION('',(0.0,0.0,-1.0));
#1807=VECTOR('',#1806,14.449999999999999);
#1808=LINE('',#1805,#1807);
#1809=EDGE_CURVE('',#1462,#1788,#1808,.T.);
#1810=ORIENTED_EDGE('',*,*,#1809,.T.);
#1811=EDGE_LOOP('',(#1797,#1803,#1804,#1810));
#1812=FACE_OUTER_BOUND('',#1811,.T.);
#1813=ADVANCED_FACE('',(#1812),#1786,.T.);
#1814=CARTESIAN_POINT('',(14.699999999999999,13.099999999999996,1.2));
#1815=DIRECTION('',(1.0,0.0,0.0));
#1816=DIRECTION('',(0.0,0.0,1.0));
#1817=AXIS2_PLACEMENT_3D('',#1814,#1815,#1816);
#1818=PLANE('',#1817);
#1819=ORIENTED_EDGE('',*,*,#1701,.F.);
#1820=ORIENTED_EDGE('',*,*,#1716,.F.);
#1821=ORIENTED_EDGE('',*,*,#1802,.F.);
#1822=CARTESIAN_POINT('',(14.699999999999998,-12.100000000000003,1.2));
#1823=DIRECTION('',(0.0,1.0,0.0));
#1824=VECTOR('',#1823,24.199999999999999);
#1825=LINE('',#1822,#1824);
#1826=EDGE_CURVE('',#1790,#1679,#1825,.T.);
#1827=ORIENTED_EDGE('',*,*,#1826,.T.);
#1828=EDGE_LOOP('',(#1819,#1820,#1821,#1827));
#1829=FACE_OUTER_BOUND('',#1828,.T.);
#1830=ADVANCED_FACE('',(#1829),#1818,.T.);
#1831=CARTESIAN_POINT('',(14.699999999999998,-13.100000000000003,1.2));
#1832=DIRECTION('',(0.0,-1.0,0.0));
#1833=DIRECTION('',(0.0,0.0,-1.0));
#1834=AXIS2_PLACEMENT_3D('',#1831,#1832,#1833);
#1835=PLANE('',#1834);
#1836=ORIENTED_EDGE('',*,*,#1809,.F.);
#1837=ORIENTED_EDGE('',*,*,#1770,.F.);
#1838=ORIENTED_EDGE('',*,*,#1748,.F.);
#1839=CARTESIAN_POINT('',(-13.700000000000001,-13.099999999999998,1.2));
#1840=DIRECTION('',(1.0,0.0,0.0));
#1841=VECTOR('',#1840,27.399999999999999);
#1842=LINE('',#1839,#1841);
#1843=EDGE_CURVE('',#1736,#1788,#1842,.T.);
#1844=ORIENTED_EDGE('',*,*,#1843,.T.);
#1845=EDGE_LOOP('',(#1836,#1837,#1838,#1844));
#1846=FACE_OUTER_BOUND('',#1845,.T.);
#1847=ADVANCED_FACE('',(#1846),#1835,.T.);
#1848=CARTESIAN_POINT('',(-4.440892E-016,1.397037E-016,1.2));
#1849=DIRECTION('',(0.0,0.0,1.0));
#1850=DIRECTION('',(0.0,-1.0,0.0));
#1851=AXIS2_PLACEMENT_3D('',#1848,#1849,#1850);
#1852=PLANE('',#1851);
#1853=ORIENTED_EDGE('',*,*,#1687,.F.);
#1854=ORIENTED_EDGE('',*,*,#1826,.F.);
#1855=ORIENTED_EDGE('',*,*,#1796,.F.);
#1856=ORIENTED_EDGE('',*,*,#1843,.F.);
#1857=ORIENTED_EDGE('',*,*,#1742,.F.);
#1858=CARTESIAN_POINT('',(-14.700000000000001,12.100000000000005,1.2));
#1859=DIRECTION('',(0.0,-1.0,0.0));
#1860=VECTOR('',#1859,24.200000000000003);
#1861=LINE('',#1858,#1860);
#1862=EDGE_CURVE('',#1627,#1734,#1861,.T.);
#1863=ORIENTED_EDGE('',*,*,#1862,.F.);
#1864=ORIENTED_EDGE('',*,*,#1633,.F.);
#1865=CARTESIAN_POINT('',(13.699999999999998,13.099999999999996,1.2));
#1866=DIRECTION('',(-1.0,0.0,0.0));
#1867=VECTOR('',#1866,27.399999999999999);
#1868=LINE('',#1865,#1867);
#1869=EDGE_CURVE('',#1681,#1625,#1868,.T.);
#1870=ORIENTED_EDGE('',*,*,#1869,.F.);
#1871=EDGE_LOOP('',(#1853,#1854,#1855,#1856,#1857,#1863,#1864,#1870));
#1872=FACE_OUTER_BOUND('',#1871,.T.);
#1873=CARTESIAN_POINT('',(13.900000000000002,-12.300000000000001,1.2));
#1874=VERTEX_POINT('',#1873);
#1875=CARTESIAN_POINT('',(13.899999999999999,12.299999999999997,1.2));
#1876=VERTEX_POINT('',#1875);
#1877=CARTESIAN_POINT('',(13.900000000000002,-12.300000000000001,1.2));
#1878=DIRECTION('',(0.0,1.0,0.0));
#1879=VECTOR('',#1878,24.599999999999998);
#1880=LINE('',#1877,#1879);
#1881=EDGE_CURVE('',#1874,#1876,#1880,.T.);
#1882=ORIENTED_EDGE('',*,*,#1881,.T.);
#1883=CARTESIAN_POINT('',(-13.900000000000002,12.300000000000001,1.2));
#1884=VERTEX_POINT('',#1883);
#1885=CARTESIAN_POINT('',(13.899999999999999,12.299999999999997,1.2));
#1886=DIRECTION('',(-1.0,0.0,0.0));
#1887=VECTOR('',#1886,27.800000000000001);
#1888=LINE('',#1885,#1887);
#1889=EDGE_CURVE('',#1876,#1884,#1888,.T.);
#1890=ORIENTED_EDGE('',*,*,#1889,.T.);
#1891=CARTESIAN_POINT('',(-13.899999999999999,-12.299999999999997,1.2));
#1892=VERTEX_POINT('',#1891);
#1893=CARTESIAN_POINT('',(-13.900000000000002,12.300000000000001,1.2));
#1894=DIRECTION('',(0.0,-1.0,0.0));
#1895=VECTOR('',#1894,24.599999999999998);
#1896=LINE('',#1893,#1895);
#1897=EDGE_CURVE('',#1884,#1892,#1896,.T.);
#1898=ORIENTED_EDGE('',*,*,#1897,.T.);
#1899=CARTESIAN_POINT('',(-13.899999999999999,-12.299999999999997,1.2));
#1900=DIRECTION('',(1.0,0.0,0.0));
#1901=VECTOR('',#1900,27.800000000000001);
#1902=LINE('',#1899,#1901);
#1903=EDGE_CURVE('',#1892,#1874,#1902,.T.);
#1904=ORIENTED_EDGE('',*,*,#1903,.T.);
#1905=EDGE_LOOP('',(#1882,#1890,#1898,#1904));
#1906=FACE_BOUND('',#1905,.T.);
#1907=ADVANCED_FACE('',(#1872,#1906),#1852,.F.);
#1908=CARTESIAN_POINT('',(-4.440892E-016,-2.158001E-016,16.649999999999999));
#1909=DIRECTION('',(0.0,0.0,1.0));
#1910=DIRECTION('',(0.0,-1.0,0.0));
#1911=AXIS2_PLACEMENT_3D('',#1908,#1909,#1910);
#1912=PLANE('',#1911);
#1913=ORIENTED_EDGE('',*,*,#1614,.F.);
#1914=ORIENTED_EDGE('',*,*,#1668,.F.);
#1915=ORIENTED_EDGE('',*,*,#1777,.F.);
#1916=ORIENTED_EDGE('',*,*,#1723,.F.);
#1917=EDGE_LOOP('',(#1913,#1914,#1915,#1916));
#1918=FACE_OUTER_BOUND('',#1917,.T.);
#1919=ADVANCED_FACE('',(#1918),#1912,.T.);
#1920=CARTESIAN_POINT('',(13.899999999999999,12.299999999999997,1.2));
#1921=DIRECTION('',(1.0,0.0,0.0));
#1922=DIRECTION('',(0.0,0.0,1.0));
#1923=AXIS2_PLACEMENT_3D('',#1920,#1921,#1922);
#1924=PLANE('',#1923);
#1925=CARTESIAN_POINT('',(13.899999999999999,12.299999999999997,15.849999999999998));
#1926=VERTEX_POINT('',#1925);
#1927=CARTESIAN_POINT('',(13.900000000000002,-12.300000000000001,15.849999999999998));
#1928=VERTEX_POINT('',#1927);
#1929=CARTESIAN_POINT('',(13.9,12.299999999999997,15.849999999999998));
#1930=DIRECTION('',(0.0,-1.0,0.0));
#1931=VECTOR('',#1930,24.599999999999998);
#1932=LINE('',#1929,#1931);
#1933=EDGE_CURVE('',#1926,#1928,#1932,.T.);
#1934=ORIENTED_EDGE('',*,*,#1933,.F.);
#1935=CARTESIAN_POINT('',(13.899999999999999,12.299999999999997,1.2));
#1936=DIRECTION('',(0.0,0.0,1.0));
#1937=VECTOR('',#1936,14.649999999999999);
#1938=LINE('',#1935,#1937);
#1939=EDGE_CURVE('',#1876,#1926,#1938,.T.);
#1940=ORIENTED_EDGE('',*,*,#1939,.F.);
#1941=ORIENTED_EDGE('',*,*,#1881,.F.);
#1942=CARTESIAN_POINT('',(13.900000000000002,-12.300000000000001,1.2));
#1943=DIRECTION('',(0.0,0.0,1.0));
#1944=VECTOR('',#1943,14.649999999999999);
#1945=LINE('',#1942,#1944);
#1946=EDGE_CURVE('',#1874,#1928,#1945,.T.);
#1947=ORIENTED_EDGE('',*,*,#1946,.T.);
#1948=EDGE_LOOP('',(#1934,#1940,#1941,#1947));
#1949=FACE_OUTER_BOUND('',#1948,.T.);
#1950=ADVANCED_FACE('',(#1949),#1924,.F.);
#1951=CARTESIAN_POINT('',(13.900000000000002,-12.300000000000001,1.2));
#1952=DIRECTION('',(0.0,-1.0,0.0));
#1953=DIRECTION('',(0.0,0.0,-1.0));
#1954=AXIS2_PLACEMENT_3D('',#1951,#1952,#1953);
#1955=PLANE('',#1954);
#1956=CARTESIAN_POINT('',(-13.899999999999999,-12.299999999999997,15.849999999999998));
#1957=VERTEX_POINT('',#1956);
#1958=CARTESIAN_POINT('',(13.900000000000002,-12.300000000000002,15.849999999999998));
#1959=DIRECTION('',(-1.0,0.0,0.0));
#1960=VECTOR('',#1959,27.800000000000001);
#1961=LINE('',#1958,#1960);
#1962=EDGE_CURVE('',#1928,#1957,#1961,.T.);
#1963=ORIENTED_EDGE('',*,*,#1962,.F.);
#1964=ORIENTED_EDGE('',*,*,#1946,.F.);
#1965=ORIENTED_EDGE('',*,*,#1903,.F.);
#1966=CARTESIAN_POINT('',(-13.899999999999999,-12.299999999999997,1.2));
#1967=DIRECTION('',(0.0,0.0,1.0));
#1968=VECTOR('',#1967,14.649999999999999);
#1969=LINE('',#1966,#1968);
#1970=EDGE_CURVE('',#1892,#1957,#1969,.T.);
#1971=ORIENTED_EDGE('',*,*,#1970,.T.);
#1972=EDGE_LOOP('',(#1963,#1964,#1965,#1971));
#1973=FACE_OUTER_BOUND('',#1972,.T.);
#1974=ADVANCED_FACE('',(#1973),#1955,.F.);
#1975=CARTESIAN_POINT('',(-13.899999999999999,-12.299999999999997,1.2));
#1976=DIRECTION('',(-1.0,0.0,0.0));
#1977=DIRECTION('',(0.0,0.0,-1.0));
#1978=AXIS2_PLACEMENT_3D('',#1975,#1976,#1977);
#1979=PLANE('',#1978);
#1980=CARTESIAN_POINT('',(-13.900000000000002,12.300000000000001,15.849999999999998));
#1981=VERTEX_POINT('',#1980);
#1982=CARTESIAN_POINT('',(-13.9,-12.299999999999997,15.849999999999998));
#1983=DIRECTION('',(0.0,1.0,0.0));
#1984=VECTOR('',#1983,24.599999999999998);
#1985=LINE('',#1982,#1984);
#1986=EDGE_CURVE('',#1957,#1981,#1985,.T.);
#1987=ORIENTED_EDGE('',*,*,#1986,.F.);
#1988=ORIENTED_EDGE('',*,*,#1970,.F.);
#1989=ORIENTED_EDGE('',*,*,#1897,.F.);
#1990=CARTESIAN_POINT('',(-13.900000000000002,12.300000000000001,1.2));
#1991=DIRECTION('',(0.0,0.0,1.0));
#1992=VECTOR('',#1991,14.649999999999999);
#1993=LINE('',#1990,#1992);
#1994=EDGE_CURVE('',#1884,#1981,#1993,.T.);
#1995=ORIENTED_EDGE('',*,*,#1994,.T.);
#1996=EDGE_LOOP('',(#1987,#1988,#1989,#1995));
#1997=FACE_OUTER_BOUND('',#1996,.T.);
#1998=ADVANCED_FACE('',(#1997),#1979,.F.);
#1999=CARTESIAN_POINT('',(-13.900000000000002,12.300000000000001,1.2));
#2000=DIRECTION('',(0.0,1.0,0.0));
#2001=DIRECTION('',(0.0,0.0,1.0));
#2002=AXIS2_PLACEMENT_3D('',#1999,#2000,#2001);
#2003=PLANE('',#2002);
#2004=CARTESIAN_POINT('',(-13.900000000000002,12.300000000000002,15.849999999999998));
#2005=DIRECTION('',(1.0,0.0,0.0));
#2006=VECTOR('',#2005,27.800000000000001);
#2007=LINE('',#2004,#2006);
#2008=EDGE_CURVE('',#1981,#1926,#2007,.T.);
#2009=ORIENTED_EDGE('',*,*,#2008,.F.);
#2010=ORIENTED_EDGE('',*,*,#1994,.F.);
#2011=ORIENTED_EDGE('',*,*,#1889,.F.);
#2012=ORIENTED_EDGE('',*,*,#1939,.T.);
#2013=EDGE_LOOP('',(#2009,#2010,#2011,#2012));
#2014=FACE_OUTER_BOUND('',#2013,.T.);
#2015=ADVANCED_FACE('',(#2014),#2003,.F.);
#2016=CARTESIAN_POINT('',(2.785309E-032,1.516252E-016,15.849999999999998));
#2017=DIRECTION('',(0.0,0.0,1.0));
#2018=DIRECTION('',(0.0,-1.0,0.0));
#2019=AXIS2_PLACEMENT_3D('',#2016,#2017,#2018);
#2020=PLANE('',#2019);
#2021=ORIENTED_EDGE('',*,*,#1933,.T.);
#2022=ORIENTED_EDGE('',*,*,#1962,.T.);
#2023=ORIENTED_EDGE('',*,*,#1986,.T.);
#2024=ORIENTED_EDGE('',*,*,#2008,.T.);
#2025=EDGE_LOOP('',(#2021,#2022,#2023,#2024));
#2026=FACE_OUTER_BOUND('',#2025,.T.);
#2027=ADVANCED_FACE('',(#2026),#2020,.F.);
#2028=CARTESIAN_POINT('',(-14.699999999999999,-13.099999999999998,1.2));
#2029=DIRECTION('',(-1.0,0.0,0.0));
#2030=DIRECTION('',(0.0,0.0,-1.0));
#2031=AXIS2_PLACEMENT_3D('',#2028,#2029,#2030);
#2032=PLANE('',#2031);
#2033=ORIENTED_EDGE('',*,*,#1639,.F.);
#2034=ORIENTED_EDGE('',*,*,#1862,.T.);
#2035=ORIENTED_EDGE('',*,*,#1755,.F.);
#2036=ORIENTED_EDGE('',*,*,#1661,.F.);
#2037=EDGE_LOOP('',(#2033,#2034,#2035,#2036));
#2038=FACE_OUTER_BOUND('',#2037,.T.);
#2039=ADVANCED_FACE('',(#2038),#2032,.T.);
#2040=CARTESIAN_POINT('',(-14.700000000000001,13.100000000000003,1.2));
#2041=DIRECTION('',(0.0,1.0,0.0));
#2042=DIRECTION('',(0.0,0.0,1.0));
#2043=AXIS2_PLACEMENT_3D('',#2040,#2041,#2042);
#2044=PLANE('',#2043);
#2045=ORIENTED_EDGE('',*,*,#1693,.F.);
#2046=ORIENTED_EDGE('',*,*,#1869,.T.);
#2047=ORIENTED_EDGE('',*,*,#1646,.F.);
#2048=ORIENTED_EDGE('',*,*,#1607,.F.);
#2049=EDGE_LOOP('',(#2045,#2046,#2047,#2048));
#2050=FACE_OUTER_BOUND('',#2049,.T.);
#2051=ADVANCED_FACE('',(#2050),#2044,.T.);
#2052=CLOSED_SHELL('',(#1455,#1490,#1525,#1560,#1595,#1618,#1650,#1672,#1705,#1727,#1759,#1781,#1813,#1830,#1847,#1907,#1919,#1950,#1974,#1998,#2015,#2027,#2039,#2051));
#2053=MANIFOLD_SOLID_BREP('14B7',#2052);
#2054=STYLED_ITEM('NONE',(#957),#2053);
#2055=ADVANCED_BREP_SHAPE_REPRESENTATION('ABSR1',(#214,#374,#463,#552,#641,#792,#950,#1108,#1259,#1410,#2053),#28);
#2056=SHAPE_REPRESENTATION_RELATIONSHIP('SRRPL1','',#2055,#62);
ENDSEC;
END-ISO-10303-21;
