ISO-10303-21;
HEADER;
/****************************************************************
 * Generated by software with PDElib inside                    *
 * PDElib Version v51a, created Fri 09/10/2010                  *
 * ITI Transcendata (http://www.transcendata.com/)              *
 ****************************************************************/
FILE_DESCRIPTION((''),'2;1');
FILE_NAME('LEMO_ECP.1S.302.CLN_Part3.stp','2013-03-20T12:59:39',(''),(''),'Mechanical Desktop 2011','Mechanical Desktop 2011',', , ');
FILE_SCHEMA(('AUTOMOTIVE_DESIGN { 1 2 10303 214 1 1 1 1 }'));
ENDSEC;
DATA;
#10=(NAMED_UNIT(*)PLANE_ANGLE_UNIT()SI_UNIT($,.RADIAN.));
#11=DIMENSIONAL_EXPONENTS(0.0,0.0,0.0,0.0,0.0,0.0,0.0);
#12=PLANE_ANGLE_MEASURE_WITH_UNIT(PLANE_ANGLE_MEASURE(0.0174532925),#10);
#16=(CONVERSION_BASED_UNIT('DEGREE',#12)NAMED_UNIT(#11)PLANE_ANGLE_UNIT());
#20=(NAMED_UNIT(*)SI_UNIT($,.STERADIAN.)SOLID_ANGLE_UNIT());
#24=(LENGTH_UNIT()NAMED_UNIT(*)SI_UNIT(.MILLI.,.METRE.));
#26=UNCERTAINTY_MEASURE_WITH_UNIT(LENGTH_MEASURE(0.000001),#24,'DISTANCE_ACCURACY_VALUE','');
#28=(GEOMETRIC_REPRESENTATION_CONTEXT(3)GLOBAL_UNCERTAINTY_ASSIGNED_CONTEXT((#26))GLOBAL_UNIT_ASSIGNED_CONTEXT((#16,#20,#24))REPRESENTATION_CONTEXT('','3D'));
#29=APPLICATION_CONTEXT('automotive design');
#30=APPLICATION_PROTOCOL_DEFINITION('INTERNATIONAL_STANDARD','automotive_design',1998,#29);
#31=PRODUCT_CONTEXT('3D Mechanical Parts',#29,'mechanical');
#32=PRODUCT('Product','Product','',(#31));
#33=PRODUCT_RELATED_PRODUCT_CATEGORY('part',$,(#32));
#34=PRODUCT_CATEGORY('part',$);
#35=PERSON('1','Design','Joe',$,$,$);
#36=ORGANIZATION($,'None','None');
#37=PERSON_AND_ORGANIZATION(#35,#36);
#38=PERSON_AND_ORGANIZATION_ROLE('design_owner');
#39=APPLIED_PERSON_AND_ORGANIZATION_ASSIGNMENT(#37,#38,(#32));
#40=PRODUCT_DEFINITION_FORMATION_WITH_SPECIFIED_SOURCE('None','',#32,.BOUGHT.);
#41=PERSON('2','Creator','Joe',$,$,$);
#42=ORGANIZATION($,'None','None');
#43=PERSON_AND_ORGANIZATION(#41,#42);
#44=PERSON_AND_ORGANIZATION_ROLE('creator');
#45=APPLIED_PERSON_AND_ORGANIZATION_ASSIGNMENT(#43,#44,(#40));
#46=PERSON('3','Supplier','Joe',$,$,$);
#47=ORGANIZATION($,'None','None');
#48=PERSON_AND_ORGANIZATION(#46,#47);
#49=PERSON_AND_ORGANIZATION_ROLE('design_supplier');
#50=APPLIED_PERSON_AND_ORGANIZATION_ASSIGNMENT(#48,#49,(#40));
#51=PRODUCT_DEFINITION_CONTEXT('part definition',#29,'design');
#52=PRODUCT_DEFINITION('None','',#40,#51);
#53=PERSON('4','Creator','Joe',$,$,$);
#54=ORGANIZATION($,'None','None');
#55=PERSON_AND_ORGANIZATION(#53,#54);
#56=PERSON_AND_ORGANIZATION_ROLE('creator');
#57=APPLIED_PERSON_AND_ORGANIZATION_ASSIGNMENT(#55,#56,(#52));
#58=CARTESIAN_POINT('NONE',(0.0,0.0,0.0));
#59=DIRECTION('NONE',(0.0,0.0,1.0));
#60=DIRECTION('NONE',(1.0,0.0,0.0));
#61=AXIS2_PLACEMENT_3D('NONE',#58,#59,#60);
#62=SHAPE_REPRESENTATION('SR1',(#61),#28);
#63=PRODUCT_DEFINITION_SHAPE('PDS1','Test Part',#52);
#64=SHAPE_DEFINITION_REPRESENTATION(#63,#62);
#65=CARTESIAN_POINT('',(0.0,0.0,11.87542648987068));
#66=DIRECTION('',(0.0,0.0,-1.0));
#67=DIRECTION('',(1.0,0.0,0.0));
#68=AXIS2_PLACEMENT_3D('',#65,#66,#67);
#69=CONICAL_SURFACE('',#68,1.732050802782486,59.999999931439994);
#70=CARTESIAN_POINT('',(5.5,0.0,9.699999999999999));
#71=VERTEX_POINT('',#70);
#72=CARTESIAN_POINT('',(6.192820322788232,0.0,9.29999999958549));
#73=VERTEX_POINT('',#72);
#74=CARTESIAN_POINT('',(5.500000000239322,0.0,9.700000000414516));
#75=DIRECTION('',(0.86602540318614,0.0,-0.500000001036284));
#76=VECTOR('',#75,0.799999999999997);
#77=LINE('',#74,#76);
#78=EDGE_CURVE('',#71,#73,#77,.T.);
#79=ORIENTED_EDGE('',*,*,#78,.F.);
#80=CARTESIAN_POINT('',(-5.500000000048612,1.683889E-016,9.700000000187826));
#81=VERTEX_POINT('',#80);
#82=CARTESIAN_POINT('',(0.0,0.0,9.699999999999999));
#83=DIRECTION('',(0.0,0.0,1.0));
#84=DIRECTION('',(1.0,0.0,0.0));
#85=AXIS2_PLACEMENT_3D('',#82,#83,#84);
#86=CIRCLE('',#85,5.5);
#87=EDGE_CURVE('',#71,#81,#86,.T.);
#88=ORIENTED_EDGE('',*,*,#87,.T.);
#89=CARTESIAN_POINT('',(-6.192820322934481,7.583934E-016,9.299999999869504));
#90=VERTEX_POINT('',#89);
#91=CARTESIAN_POINT('',(-5.500000000239322,6.735557E-016,9.700000000414516));
#92=DIRECTION('',(-0.86602540318614,1.060575E-016,-0.500000001036284));
#93=VECTOR('',#92,0.799999999984647);
#94=LINE('',#91,#93);
#95=EDGE_CURVE('',#81,#90,#94,.T.);
#96=ORIENTED_EDGE('',*,*,#95,.T.);
#97=CARTESIAN_POINT('',(0.0,0.0,9.300000000000001));
#98=DIRECTION('',(0.0,0.0,-1.0));
#99=DIRECTION('',(1.0,0.0,0.0));
#100=AXIS2_PLACEMENT_3D('',#97,#98,#99);
#101=CIRCLE('',#100,6.192820323027551);
#102=EDGE_CURVE('',#90,#73,#101,.T.);
#103=ORIENTED_EDGE('',*,*,#102,.T.);
#104=EDGE_LOOP('',(#79,#88,#96,#103));
#105=FACE_OUTER_BOUND('',#104,.T.);
#106=ADVANCED_FACE('',(#105),#69,.F.);
#107=CARTESIAN_POINT('',(0.0,0.0,9.300000000000001));
#108=DIRECTION('',(0.0,0.0,1.0));
#109=DIRECTION('',(1.0,0.0,0.0));
#110=AXIS2_PLACEMENT_3D('',#107,#108,#109);
#111=CYLINDRICAL_SURFACE('',#110,5.5);
#112=CARTESIAN_POINT('',(5.50000000023932,0.0,11.399999999585486));
#113=VERTEX_POINT('',#112);
#114=CARTESIAN_POINT('',(5.5,0.0,9.699999999999999));
#115=DIRECTION('',(0.0,0.0,1.0));
#116=VECTOR('',#115,1.699999999585486);
#117=LINE('',#114,#116);
#118=EDGE_CURVE('',#71,#113,#117,.T.);
#119=ORIENTED_EDGE('',*,*,#118,.F.);
#120=CARTESIAN_POINT('',(0.0,0.0,9.699999999999999));
#121=DIRECTION('',(0.0,0.0,1.0));
#122=DIRECTION('',(1.0,0.0,0.0));
#123=AXIS2_PLACEMENT_3D('',#120,#121,#122);
#124=CIRCLE('',#123,5.5);
#125=EDGE_CURVE('',#81,#71,#124,.T.);
#126=ORIENTED_EDGE('',*,*,#125,.F.);
#127=CARTESIAN_POINT('',(-5.500000000048611,-5.051557E-016,11.399999999812174));
#128=VERTEX_POINT('',#127);
#129=CARTESIAN_POINT('',(-5.5,-6.735557E-016,9.700000000187826));
#130=DIRECTION('',(0.0,0.0,1.0));
#131=VECTOR('',#130,1.699999999624348);
#132=LINE('',#129,#131);
#133=EDGE_CURVE('',#81,#128,#132,.T.);
#134=ORIENTED_EDGE('',*,*,#133,.T.);
#135=CARTESIAN_POINT('',(0.0,0.0,11.4));
#136=DIRECTION('',(0.0,0.0,-1.0));
#137=DIRECTION('',(1.0,0.0,0.0));
#138=AXIS2_PLACEMENT_3D('',#135,#136,#137);
#139=CIRCLE('',#138,5.5);
#140=EDGE_CURVE('',#113,#128,#139,.T.);
#141=ORIENTED_EDGE('',*,*,#140,.F.);
#142=EDGE_LOOP('',(#119,#126,#134,#141));
#143=FACE_OUTER_BOUND('',#142,.T.);
#144=ADVANCED_FACE('',(#143),#111,.F.);
#145=CARTESIAN_POINT('',(0.0,0.0,9.224573510129321));
#146=DIRECTION('',(0.0,0.0,1.0));
#147=DIRECTION('',(1.0,0.0,0.0));
#148=AXIS2_PLACEMENT_3D('',#145,#146,#147);
#149=CONICAL_SURFACE('',#148,1.732050802782486,59.999999931439994);
#150=CARTESIAN_POINT('',(6.192820322788232,0.0,11.800000000414512));
#151=VERTEX_POINT('',#150);
#152=CARTESIAN_POINT('',(5.50000000023932,0.0,11.399999999585486));
#153=DIRECTION('',(0.86602540318614,0.0,0.500000001036283));
#154=VECTOR('',#153,0.799999999999999);
#155=LINE('',#152,#154);
#156=EDGE_CURVE('',#113,#151,#155,.T.);
#157=ORIENTED_EDGE('',*,*,#156,.F.);
#158=ORIENTED_EDGE('',*,*,#140,.T.);
#159=CARTESIAN_POINT('',(-6.192820322934481,-7.583934E-016,11.800000000130495));
#160=VERTEX_POINT('',#159);
#161=CARTESIAN_POINT('',(-5.50000000023932,-6.735557E-016,11.399999999585486));
#162=DIRECTION('',(-0.86602540318614,-1.060575E-016,0.500000001036284));
#163=VECTOR('',#162,0.799999999984647);
#164=LINE('',#161,#163);
#165=EDGE_CURVE('',#128,#160,#164,.T.);
#166=ORIENTED_EDGE('',*,*,#165,.T.);
#167=CARTESIAN_POINT('',(0.0,0.0,11.800000000000001));
#168=DIRECTION('',(0.0,0.0,1.0));
#169=DIRECTION('',(1.0,0.0,0.0));
#170=AXIS2_PLACEMENT_3D('',#167,#168,#169);
#171=CIRCLE('',#170,6.192820323027551);
#172=EDGE_CURVE('',#160,#151,#171,.T.);
#173=ORIENTED_EDGE('',*,*,#172,.T.);
#174=EDGE_LOOP('',(#157,#158,#166,#173));
#175=FACE_OUTER_BOUND('',#174,.T.);
#176=ADVANCED_FACE('',(#175),#149,.F.);
#177=CARTESIAN_POINT('',(0.0,0.0,7.752208348213781));
#178=DIRECTION('',(0.0,0.0,1.0));
#179=DIRECTION('',(0.0,1.0,0.0));
#180=AXIS2_PLACEMENT_3D('',#177,#178,#179);
#181=CONICAL_SURFACE('',#180,2.747477407520469,69.999999920013352);
#182=CARTESIAN_POINT('',(-3.5,6.06217782649107,9.300000000000001));
#183=VERTEX_POINT('',#182);
#184=CARTESIAN_POINT('',(3.5,6.06217782649107,9.300000000000001));
#185=VERTEX_POINT('',#184);
#186=CARTESIAN_POINT('',(0.0,0.0,9.300000000000001));
#187=DIRECTION('',(0.0,0.0,-1.0));
#188=DIRECTION('',(0.0,1.0,0.0));
#189=AXIS2_PLACEMENT_3D('',#186,#187,#188);
#190=CIRCLE('',#189,7.0);
#191=EDGE_CURVE('',#183,#185,#190,.T.);
#192=ORIENTED_EDGE('',*,*,#191,.F.);
#193=CARTESIAN_POINT('',(-0.328643823221953,7.893161168851052,9.627573210879149));
#194=VERTEX_POINT('',#193);
#195=CARTESIAN_POINT('',(-0.328643823220108,7.893161168851131,9.627573210839582));
#196=CARTESIAN_POINT('',(-2.01010112500274,6.92237134303606,9.300000000000001));
#197=CARTESIAN_POINT('',(-3.5,6.06217782649107,9.300000000000001));
#205=(BOUNDED_CURVE()B_SPLINE_CURVE(2,(#195,#196,#197),.UNSPECIFIED.,.F.,.U.)B_SPLINE_CURVE_WITH_KNOTS((3,3),(0.034814802862293,0.406486568118261),.UNSPECIFIED.)CURVE()GEOMETRIC_REPRESENTATION_ITEM()RATIONAL_B_SPLINE_CURVE((1.00594467859421,1.03470408851494,1.0))REPRESENTATION_ITEM(''));
#206=EDGE_CURVE('',#194,#183,#205,.T.);
#207=ORIENTED_EDGE('',*,*,#206,.F.);
#208=CARTESIAN_POINT('',(0.328643823221949,7.893161168851054,9.627573210879149));
#209=VERTEX_POINT('',#208);
#210=CARTESIAN_POINT('',(0.0,0.0,9.627573210839582));
#211=DIRECTION('',(0.0,0.0,-1.0));
#212=DIRECTION('',(1.0,0.0,0.0));
#213=AXIS2_PLACEMENT_3D('',#210,#211,#212);
#214=CIRCLE('',#213,7.9);
#215=EDGE_CURVE('',#194,#209,#214,.T.);
#216=ORIENTED_EDGE('',*,*,#215,.T.);
#217=CARTESIAN_POINT('',(3.5,6.06217782649107,9.300000000000001));
#218=CARTESIAN_POINT('',(2.01010112500273,6.92237134303606,9.300000000000001));
#219=CARTESIAN_POINT('',(0.328643823220102,7.893161168851131,9.627573210839582));
#227=(BOUNDED_CURVE()B_SPLINE_CURVE(2,(#217,#218,#219),.UNSPECIFIED.,.F.,.U.)B_SPLINE_CURVE_WITH_KNOTS((3,3),(0.406486568118261,0.778158333374229),.UNSPECIFIED.)CURVE()GEOMETRIC_REPRESENTATION_ITEM()RATIONAL_B_SPLINE_CURVE((1.0,1.03470408851495,1.00594467859421))REPRESENTATION_ITEM(''));
#228=EDGE_CURVE('',#185,#209,#227,.T.);
#229=ORIENTED_EDGE('',*,*,#228,.F.);
#230=EDGE_LOOP('',(#192,#207,#216,#229));
#231=FACE_OUTER_BOUND('',#230,.T.);
#232=ADVANCED_FACE('',(#231),#181,.T.);
#233=CARTESIAN_POINT('',(0.0,0.0,7.752208348213781));
#234=DIRECTION('',(0.0,0.0,1.0));
#235=DIRECTION('',(0.0,1.0,0.0));
#236=AXIS2_PLACEMENT_3D('',#233,#234,#235);
#237=CONICAL_SURFACE('',#236,2.747477407520469,69.999999920013352);
#238=CARTESIAN_POINT('',(0.32864382322195,-7.893161168851052,9.627573210879149));
#239=VERTEX_POINT('',#238);
#240=CARTESIAN_POINT('',(-0.328643823221951,-7.893161168851052,9.627573210879149));
#241=VERTEX_POINT('',#240);
#242=CARTESIAN_POINT('',(0.0,0.0,9.627573210839582));
#243=DIRECTION('',(0.0,0.0,-1.0));
#244=DIRECTION('',(1.0,0.0,0.0));
#245=AXIS2_PLACEMENT_3D('',#242,#243,#244);
#246=CIRCLE('',#245,7.9);
#247=EDGE_CURVE('',#239,#241,#246,.T.);
#248=ORIENTED_EDGE('',*,*,#247,.T.);
#249=CARTESIAN_POINT('',(-3.5,-6.06217782649107,9.300000000000001));
#250=VERTEX_POINT('',#249);
#251=CARTESIAN_POINT('',(-3.5,-6.06217782649107,9.300000000000001));
#252=CARTESIAN_POINT('',(-2.01010112500274,-6.92237134303606,9.300000000000001));
#253=CARTESIAN_POINT('',(-0.328643823220107,-7.893161168851131,9.627573210839582));
#261=(BOUNDED_CURVE()B_SPLINE_CURVE(2,(#251,#252,#253),.UNSPECIFIED.,.F.,.U.)B_SPLINE_CURVE_WITH_KNOTS((3,3),(0.40648656811826,0.778158333374228),.UNSPECIFIED.)CURVE()GEOMETRIC_REPRESENTATION_ITEM()RATIONAL_B_SPLINE_CURVE((1.0,1.03470408851495,1.00594467859421))REPRESENTATION_ITEM(''));
#262=EDGE_CURVE('',#250,#241,#261,.T.);
#263=ORIENTED_EDGE('',*,*,#262,.F.);
#264=CARTESIAN_POINT('',(3.5,-6.06217782649107,9.300000000000001));
#265=VERTEX_POINT('',#264);
#266=CARTESIAN_POINT('',(0.0,0.0,9.300000000000001));
#267=DIRECTION('',(0.0,0.0,-1.0));
#268=DIRECTION('',(0.0,1.0,0.0));
#269=AXIS2_PLACEMENT_3D('',#266,#267,#268);
#270=CIRCLE('',#269,7.0);
#271=EDGE_CURVE('',#265,#250,#270,.T.);
#272=ORIENTED_EDGE('',*,*,#271,.F.);
#273=CARTESIAN_POINT('',(0.328643823220105,-7.893161168851131,9.627573210839582));
#274=CARTESIAN_POINT('',(2.01010112500273,-6.922371343036071,9.300000000000001));
#275=CARTESIAN_POINT('',(3.5,-6.06217782649107,9.300000000000001));
#283=(BOUNDED_CURVE()B_SPLINE_CURVE(2,(#273,#274,#275),.UNSPECIFIED.,.F.,.U.)B_SPLINE_CURVE_WITH_KNOTS((3,3),(0.034814802862293,0.406486568118261),.UNSPECIFIED.)CURVE()GEOMETRIC_REPRESENTATION_ITEM()RATIONAL_B_SPLINE_CURVE((1.00594467859421,1.03470408851495,1.0))REPRESENTATION_ITEM(''));
#284=EDGE_CURVE('',#239,#265,#283,.T.);
#285=ORIENTED_EDGE('',*,*,#284,.F.);
#286=EDGE_LOOP('',(#248,#263,#272,#285));
#287=FACE_OUTER_BOUND('',#286,.T.);
#288=ADVANCED_FACE('',(#287),#237,.T.);
#289=CARTESIAN_POINT('',(0.0,0.0,13.347791651786221));
#290=DIRECTION('',(0.0,0.0,-1.0));
#291=DIRECTION('',(0.0,1.0,0.0));
#292=AXIS2_PLACEMENT_3D('',#289,#290,#291);
#293=CONICAL_SURFACE('',#292,2.747477407520469,69.999999920013352);
#294=CARTESIAN_POINT('',(3.5,6.06217782649107,11.800000000000001));
#295=VERTEX_POINT('',#294);
#296=CARTESIAN_POINT('',(-3.5,6.06217782649107,11.800000000000001));
#297=VERTEX_POINT('',#296);
#298=CARTESIAN_POINT('',(0.0,0.0,11.800000000000001));
#299=DIRECTION('',(0.0,0.0,1.0));
#300=DIRECTION('',(0.0,1.0,0.0));
#301=AXIS2_PLACEMENT_3D('',#298,#299,#300);
#302=CIRCLE('',#301,7.0);
#303=EDGE_CURVE('',#295,#297,#302,.T.);
#304=ORIENTED_EDGE('',*,*,#303,.F.);
#305=CARTESIAN_POINT('',(0.32864382322195,7.893161168851054,11.472426789120853));
#306=VERTEX_POINT('',#305);
#307=CARTESIAN_POINT('',(0.328643823220104,7.893161168851131,11.472426789160419));
#308=CARTESIAN_POINT('',(2.01010112500273,6.922371343036071,11.800000000000001));
#309=CARTESIAN_POINT('',(3.5,6.06217782649107,11.800000000000001));
#317=(BOUNDED_CURVE()B_SPLINE_CURVE(2,(#307,#308,#309),.UNSPECIFIED.,.F.,.U.)B_SPLINE_CURVE_WITH_KNOTS((3,3),(0.034814802862293,0.40648656811826),.UNSPECIFIED.)CURVE()GEOMETRIC_REPRESENTATION_ITEM()RATIONAL_B_SPLINE_CURVE((1.00594467859421,1.03470408851495,1.0))REPRESENTATION_ITEM(''));
#318=EDGE_CURVE('',#306,#295,#317,.T.);
#319=ORIENTED_EDGE('',*,*,#318,.F.);
#320=CARTESIAN_POINT('',(-0.328643823221953,7.893161168851052,11.472426789120853));
#321=VERTEX_POINT('',#320);
#322=CARTESIAN_POINT('',(0.0,0.0,11.472426789160419));
#323=DIRECTION('',(0.0,0.0,1.0));
#324=DIRECTION('',(1.0,0.0,0.0));
#325=AXIS2_PLACEMENT_3D('',#322,#323,#324);
#326=CIRCLE('',#325,7.9);
#327=EDGE_CURVE('',#306,#321,#326,.T.);
#328=ORIENTED_EDGE('',*,*,#327,.T.);
#329=CARTESIAN_POINT('',(-3.5,6.06217782649107,11.800000000000001));
#330=CARTESIAN_POINT('',(-2.01010112500273,6.922371343036071,11.800000000000001));
#331=CARTESIAN_POINT('',(-0.328643823220107,7.893161168851131,11.472426789160419));
#339=(BOUNDED_CURVE()B_SPLINE_CURVE(2,(#329,#330,#331),.UNSPECIFIED.,.F.,.U.)B_SPLINE_CURVE_WITH_KNOTS((3,3),(0.406486568118261,0.778158333374228),.UNSPECIFIED.)CURVE()GEOMETRIC_REPRESENTATION_ITEM()RATIONAL_B_SPLINE_CURVE((1.0,1.03470408851494,1.00594467859421))REPRESENTATION_ITEM(''));
#340=EDGE_CURVE('',#297,#321,#339,.T.);
#341=ORIENTED_EDGE('',*,*,#340,.F.);
#342=EDGE_LOOP('',(#304,#319,#328,#341));
#343=FACE_OUTER_BOUND('',#342,.T.);
#344=ADVANCED_FACE('',(#343),#293,.T.);
#345=CARTESIAN_POINT('',(0.0,0.0,13.347791651786221));
#346=DIRECTION('',(0.0,0.0,-1.0));
#347=DIRECTION('',(0.0,1.0,0.0));
#348=AXIS2_PLACEMENT_3D('',#345,#346,#347);
#349=CONICAL_SURFACE('',#348,2.747477407520469,69.999999920013352);
#350=CARTESIAN_POINT('',(-0.328643823221951,-7.893161168851052,11.472426789120853));
#351=VERTEX_POINT('',#350);
#352=CARTESIAN_POINT('',(0.328643823221949,-7.893161168851052,11.472426789120853));
#353=VERTEX_POINT('',#352);
#354=CARTESIAN_POINT('',(0.0,0.0,11.472426789160419));
#355=DIRECTION('',(0.0,0.0,1.0));
#356=DIRECTION('',(1.0,0.0,0.0));
#357=AXIS2_PLACEMENT_3D('',#354,#355,#356);
#358=CIRCLE('',#357,7.9);
#359=EDGE_CURVE('',#351,#353,#358,.T.);
#360=ORIENTED_EDGE('',*,*,#359,.T.);
#361=CARTESIAN_POINT('',(3.5,-6.06217782649107,11.800000000000001));
#362=VERTEX_POINT('',#361);
#363=CARTESIAN_POINT('',(3.5,-6.06217782649107,11.800000000000001));
#364=CARTESIAN_POINT('',(2.01010112500273,-6.92237134303606,11.800000000000001));
#365=CARTESIAN_POINT('',(0.328643823220103,-7.893161168851131,11.472426789160419));
#373=(BOUNDED_CURVE()B_SPLINE_CURVE(2,(#363,#364,#365),.UNSPECIFIED.,.F.,.U.)B_SPLINE_CURVE_WITH_KNOTS((3,3),(0.406486568118261,0.778158333374229),.UNSPECIFIED.)CURVE()GEOMETRIC_REPRESENTATION_ITEM()RATIONAL_B_SPLINE_CURVE((1.0,1.03470408851496,1.00594467859421))REPRESENTATION_ITEM(''));
#374=EDGE_CURVE('',#362,#353,#373,.T.);
#375=ORIENTED_EDGE('',*,*,#374,.F.);
#376=CARTESIAN_POINT('',(-3.5,-6.06217782649107,11.800000000000001));
#377=VERTEX_POINT('',#376);
#378=CARTESIAN_POINT('',(0.0,0.0,11.800000000000001));
#379=DIRECTION('',(0.0,0.0,1.0));
#380=DIRECTION('',(0.0,1.0,0.0));
#381=AXIS2_PLACEMENT_3D('',#378,#379,#380);
#382=CIRCLE('',#381,7.0);
#383=EDGE_CURVE('',#377,#362,#382,.T.);
#384=ORIENTED_EDGE('',*,*,#383,.F.);
#385=CARTESIAN_POINT('',(-0.328643823220107,-7.893161168851131,11.472426789160419));
#386=CARTESIAN_POINT('',(-2.01010112500273,-6.922371343036071,11.800000000000001));
#387=CARTESIAN_POINT('',(-3.5,-6.06217782649107,11.800000000000001));
#395=(BOUNDED_CURVE()B_SPLINE_CURVE(2,(#385,#386,#387),.UNSPECIFIED.,.F.,.U.)B_SPLINE_CURVE_WITH_KNOTS((3,3),(0.034814802862293,0.406486568118261),.UNSPECIFIED.)CURVE()GEOMETRIC_REPRESENTATION_ITEM()RATIONAL_B_SPLINE_CURVE((1.00594467859421,1.03470408851495,1.0))REPRESENTATION_ITEM(''));
#396=EDGE_CURVE('',#351,#377,#395,.T.);
#397=ORIENTED_EDGE('',*,*,#396,.F.);
#398=EDGE_LOOP('',(#360,#375,#384,#397));
#399=FACE_OUTER_BOUND('',#398,.T.);
#400=ADVANCED_FACE('',(#399),#349,.T.);
#401=CARTESIAN_POINT('',(0.0,0.0,9.224573510129321));
#402=DIRECTION('',(0.0,0.0,1.0));
#403=DIRECTION('',(1.0,0.0,0.0));
#404=AXIS2_PLACEMENT_3D('',#401,#402,#403);
#405=CONICAL_SURFACE('',#404,1.732050802782486,59.999999931439994);
#406=ORIENTED_EDGE('',*,*,#156,.T.);
#407=CARTESIAN_POINT('',(0.0,0.0,11.800000000000001));
#408=DIRECTION('',(0.0,0.0,1.0));
#409=DIRECTION('',(1.0,0.0,0.0));
#410=AXIS2_PLACEMENT_3D('',#407,#408,#409);
#411=CIRCLE('',#410,6.192820323027551);
#412=EDGE_CURVE('',#151,#160,#411,.T.);
#413=ORIENTED_EDGE('',*,*,#412,.T.);
#414=ORIENTED_EDGE('',*,*,#165,.F.);
#415=CARTESIAN_POINT('',(0.0,0.0,11.4));
#416=DIRECTION('',(0.0,0.0,-1.0));
#417=DIRECTION('',(1.0,0.0,0.0));
#418=AXIS2_PLACEMENT_3D('',#415,#416,#417);
#419=CIRCLE('',#418,5.5);
#420=EDGE_CURVE('',#128,#113,#419,.T.);
#421=ORIENTED_EDGE('',*,*,#420,.T.);
#422=EDGE_LOOP('',(#406,#413,#414,#421));
#423=FACE_OUTER_BOUND('',#422,.T.);
#424=ADVANCED_FACE('',(#423),#405,.F.);
#425=CARTESIAN_POINT('',(0.0,0.0,9.300000000000001));
#426=DIRECTION('',(0.0,0.0,1.0));
#427=DIRECTION('',(1.0,0.0,0.0));
#428=AXIS2_PLACEMENT_3D('',#425,#426,#427);
#429=CYLINDRICAL_SURFACE('',#428,5.5);
#430=ORIENTED_EDGE('',*,*,#118,.T.);
#431=ORIENTED_EDGE('',*,*,#420,.F.);
#432=ORIENTED_EDGE('',*,*,#133,.F.);
#433=ORIENTED_EDGE('',*,*,#87,.F.);
#434=EDGE_LOOP('',(#430,#431,#432,#433));
#435=FACE_OUTER_BOUND('',#434,.T.);
#436=ADVANCED_FACE('',(#435),#429,.F.);
#437=CARTESIAN_POINT('',(0.0,0.0,11.87542648987068));
#438=DIRECTION('',(0.0,0.0,-1.0));
#439=DIRECTION('',(1.0,0.0,0.0));
#440=AXIS2_PLACEMENT_3D('',#437,#438,#439);
#441=CONICAL_SURFACE('',#440,1.732050802782486,59.999999931439994);
#442=ORIENTED_EDGE('',*,*,#78,.T.);
#443=CARTESIAN_POINT('',(0.0,0.0,9.300000000000001));
#444=DIRECTION('',(0.0,0.0,-1.0));
#445=DIRECTION('',(1.0,0.0,0.0));
#446=AXIS2_PLACEMENT_3D('',#443,#444,#445);
#447=CIRCLE('',#446,6.192820323027551);
#448=EDGE_CURVE('',#73,#90,#447,.T.);
#449=ORIENTED_EDGE('',*,*,#448,.T.);
#450=ORIENTED_EDGE('',*,*,#95,.F.);
#451=ORIENTED_EDGE('',*,*,#125,.T.);
#452=EDGE_LOOP('',(#442,#449,#450,#451));
#453=FACE_OUTER_BOUND('',#452,.T.);
#454=ADVANCED_FACE('',(#453),#441,.F.);
#455=CARTESIAN_POINT('',(7.7,7.7,9.300000000000001));
#456=DIRECTION('',(0.0,0.0,1.0));
#457=DIRECTION('',(1.0,0.0,0.0));
#458=AXIS2_PLACEMENT_3D('',#455,#456,#457);
#459=PLANE('',#458);
#460=ORIENTED_EDGE('',*,*,#271,.T.);
#461=CARTESIAN_POINT('',(-7.0,-9.059219E-016,9.300000000000001));
#462=VERTEX_POINT('',#461);
#463=CARTESIAN_POINT('',(0.0,0.0,9.300000000000001));
#464=DIRECTION('',(0.0,0.0,-1.0));
#465=DIRECTION('',(0.0,1.0,0.0));
#466=AXIS2_PLACEMENT_3D('',#463,#464,#465);
#467=CIRCLE('',#466,7.0);
#468=EDGE_CURVE('',#250,#462,#467,.T.);
#469=ORIENTED_EDGE('',*,*,#468,.T.);
#470=CARTESIAN_POINT('',(0.0,0.0,9.300000000000001));
#471=DIRECTION('',(0.0,0.0,-1.0));
#472=DIRECTION('',(0.0,1.0,0.0));
#473=AXIS2_PLACEMENT_3D('',#470,#471,#472);
#474=CIRCLE('',#473,7.0);
#475=EDGE_CURVE('',#462,#183,#474,.T.);
#476=ORIENTED_EDGE('',*,*,#475,.T.);
#477=ORIENTED_EDGE('',*,*,#191,.T.);
#478=CARTESIAN_POINT('',(7.0,2.965981E-015,9.300000000000001));
#479=VERTEX_POINT('',#478);
#480=CARTESIAN_POINT('',(0.0,0.0,9.300000000000001));
#481=DIRECTION('',(0.0,0.0,-1.0));
#482=DIRECTION('',(0.0,1.0,0.0));
#483=AXIS2_PLACEMENT_3D('',#480,#481,#482);
#484=CIRCLE('',#483,7.0);
#485=EDGE_CURVE('',#185,#479,#484,.T.);
#486=ORIENTED_EDGE('',*,*,#485,.T.);
#487=CARTESIAN_POINT('',(0.0,0.0,9.300000000000001));
#488=DIRECTION('',(0.0,0.0,-1.0));
#489=DIRECTION('',(0.0,1.0,0.0));
#490=AXIS2_PLACEMENT_3D('',#487,#488,#489);
#491=CIRCLE('',#490,7.0);
#492=EDGE_CURVE('',#479,#265,#491,.T.);
#493=ORIENTED_EDGE('',*,*,#492,.T.);
#494=EDGE_LOOP('',(#460,#469,#476,#477,#486,#493));
#495=FACE_OUTER_BOUND('',#494,.T.);
#496=ORIENTED_EDGE('',*,*,#102,.F.);
#497=ORIENTED_EDGE('',*,*,#448,.F.);
#498=EDGE_LOOP('',(#496,#497));
#499=FACE_BOUND('',#498,.T.);
#500=ADVANCED_FACE('',(#495,#499),#459,.F.);
#501=CARTESIAN_POINT('',(7.7,7.7,11.800000000000001));
#502=DIRECTION('',(0.0,0.0,1.0));
#503=DIRECTION('',(1.0,0.0,0.0));
#504=AXIS2_PLACEMENT_3D('',#501,#502,#503);
#505=PLANE('',#504);
#506=CARTESIAN_POINT('',(-7.0,-9.059219E-016,11.800000000000001));
#507=VERTEX_POINT('',#506);
#508=CARTESIAN_POINT('',(0.0,0.0,11.800000000000001));
#509=DIRECTION('',(0.0,0.0,1.0));
#510=DIRECTION('',(0.0,1.0,0.0));
#511=AXIS2_PLACEMENT_3D('',#508,#509,#510);
#512=CIRCLE('',#511,7.0);
#513=EDGE_CURVE('',#507,#377,#512,.T.);
#514=ORIENTED_EDGE('',*,*,#513,.T.);
#515=ORIENTED_EDGE('',*,*,#383,.T.);
#516=CARTESIAN_POINT('',(7.0,2.965981E-015,11.800000000000001));
#517=VERTEX_POINT('',#516);
#518=CARTESIAN_POINT('',(0.0,0.0,11.800000000000001));
#519=DIRECTION('',(0.0,0.0,1.0));
#520=DIRECTION('',(0.0,1.0,0.0));
#521=AXIS2_PLACEMENT_3D('',#518,#519,#520);
#522=CIRCLE('',#521,7.0);
#523=EDGE_CURVE('',#362,#517,#522,.T.);
#524=ORIENTED_EDGE('',*,*,#523,.T.);
#525=CARTESIAN_POINT('',(0.0,0.0,11.800000000000001));
#526=DIRECTION('',(0.0,0.0,1.0));
#527=DIRECTION('',(0.0,1.0,0.0));
#528=AXIS2_PLACEMENT_3D('',#525,#526,#527);
#529=CIRCLE('',#528,7.0);
#530=EDGE_CURVE('',#517,#295,#529,.T.);
#531=ORIENTED_EDGE('',*,*,#530,.T.);
#532=ORIENTED_EDGE('',*,*,#303,.T.);
#533=CARTESIAN_POINT('',(0.0,0.0,11.800000000000001));
#534=DIRECTION('',(0.0,0.0,1.0));
#535=DIRECTION('',(0.0,1.0,0.0));
#536=AXIS2_PLACEMENT_3D('',#533,#534,#535);
#537=CIRCLE('',#536,7.0);
#538=EDGE_CURVE('',#297,#507,#537,.T.);
#539=ORIENTED_EDGE('',*,*,#538,.T.);
#540=EDGE_LOOP('',(#514,#515,#524,#531,#532,#539));
#541=FACE_OUTER_BOUND('',#540,.T.);
#542=ORIENTED_EDGE('',*,*,#172,.F.);
#543=ORIENTED_EDGE('',*,*,#412,.F.);
#544=EDGE_LOOP('',(#542,#543));
#545=FACE_BOUND('',#544,.T.);
#546=ADVANCED_FACE('',(#541,#545),#505,.T.);
#547=CARTESIAN_POINT('',(0.0,0.0,11.800000000000001));
#548=DIRECTION('',(0.0,0.0,-1.0));
#549=DIRECTION('',(1.0,0.0,0.0));
#550=AXIS2_PLACEMENT_3D('',#547,#548,#549);
#551=CYLINDRICAL_SURFACE('',#550,7.9);
#552=ORIENTED_EDGE('',*,*,#215,.F.);
#553=CARTESIAN_POINT('',(-0.328643823220108,7.893161168851131,11.472426789120853));
#554=DIRECTION('',(0.0,0.0,-1.0));
#555=VECTOR('',#554,1.844853578241704);
#556=LINE('',#553,#555);
#557=EDGE_CURVE('',#321,#194,#556,.T.);
#558=ORIENTED_EDGE('',*,*,#557,.F.);
#559=ORIENTED_EDGE('',*,*,#327,.F.);
#560=CARTESIAN_POINT('',(0.328643823220104,7.893161168851131,9.627573210879149));
#561=DIRECTION('',(0.0,0.0,1.0));
#562=VECTOR('',#561,1.844853578241704);
#563=LINE('',#560,#562);
#564=EDGE_CURVE('',#209,#306,#563,.T.);
#565=ORIENTED_EDGE('',*,*,#564,.F.);
#566=EDGE_LOOP('',(#552,#558,#559,#565));
#567=FACE_OUTER_BOUND('',#566,.T.);
#568=ADVANCED_FACE('',(#567),#551,.T.);
#569=CARTESIAN_POINT('',(0.0,0.0,11.800000000000001));
#570=DIRECTION('',(0.0,0.0,-1.0));
#571=DIRECTION('',(1.0,0.0,0.0));
#572=AXIS2_PLACEMENT_3D('',#569,#570,#571);
#573=CYLINDRICAL_SURFACE('',#572,7.9);
#574=CARTESIAN_POINT('',(-7.000000000000856,3.661966684718473,9.627573210879149));
#575=VERTEX_POINT('',#574);
#576=CARTESIAN_POINT('',(-6.67135617677891,4.231194484132574,9.627573210879149));
#577=VERTEX_POINT('',#576);
#578=CARTESIAN_POINT('',(0.0,0.0,9.627573210839582));
#579=DIRECTION('',(0.0,0.0,-1.0));
#580=DIRECTION('',(1.0,0.0,0.0));
#581=AXIS2_PLACEMENT_3D('',#578,#579,#580);
#582=CIRCLE('',#581,7.9);
#583=EDGE_CURVE('',#575,#577,#582,.T.);
#584=ORIENTED_EDGE('',*,*,#583,.F.);
#585=CARTESIAN_POINT('',(-7.000000000000856,3.661966684718473,11.472426789120853));
#586=VERTEX_POINT('',#585);
#587=CARTESIAN_POINT('',(-7.0,3.66196668472011,11.472426789120853));
#588=DIRECTION('',(0.0,0.0,-1.0));
#589=VECTOR('',#588,1.844853578241704);
#590=LINE('',#587,#589);
#591=EDGE_CURVE('',#586,#575,#590,.T.);
#592=ORIENTED_EDGE('',*,*,#591,.F.);
#593=CARTESIAN_POINT('',(-6.67135617677891,4.231194484132574,11.472426789120853));
#594=VERTEX_POINT('',#593);
#595=CARTESIAN_POINT('',(0.0,0.0,11.472426789160419));
#596=DIRECTION('',(0.0,0.0,1.0));
#597=DIRECTION('',(1.0,0.0,0.0));
#598=AXIS2_PLACEMENT_3D('',#595,#596,#597);
#599=CIRCLE('',#598,7.9);
#600=EDGE_CURVE('',#594,#586,#599,.T.);
#601=ORIENTED_EDGE('',*,*,#600,.F.);
#602=CARTESIAN_POINT('',(-6.6713561767799,4.231194484131019,9.627573210879149));
#603=DIRECTION('',(0.0,0.0,1.0));
#604=VECTOR('',#603,1.844853578241704);
#605=LINE('',#602,#604);
#606=EDGE_CURVE('',#577,#594,#605,.T.);
#607=ORIENTED_EDGE('',*,*,#606,.F.);
#608=EDGE_LOOP('',(#584,#592,#601,#607));
#609=FACE_OUTER_BOUND('',#608,.T.);
#610=ADVANCED_FACE('',(#609),#573,.T.);
#611=CARTESIAN_POINT('',(0.0,0.0,11.800000000000001));
#612=DIRECTION('',(0.0,0.0,-1.0));
#613=DIRECTION('',(1.0,0.0,0.0));
#614=AXIS2_PLACEMENT_3D('',#611,#612,#613);
#615=CYLINDRICAL_SURFACE('',#614,7.9);
#616=CARTESIAN_POINT('',(6.671356176778905,4.231194484132579,9.627573210879149));
#617=VERTEX_POINT('',#616);
#618=CARTESIAN_POINT('',(7.000000000000856,3.661966684718473,9.627573210879149));
#619=VERTEX_POINT('',#618);
#620=CARTESIAN_POINT('',(0.0,0.0,9.627573210839582));
#621=DIRECTION('',(0.0,0.0,-1.0));
#622=DIRECTION('',(1.0,0.0,0.0));
#623=AXIS2_PLACEMENT_3D('',#620,#621,#622);
#624=CIRCLE('',#623,7.9);
#625=EDGE_CURVE('',#617,#619,#624,.T.);
#626=ORIENTED_EDGE('',*,*,#625,.F.);
#627=CARTESIAN_POINT('',(6.671356176778901,4.231194484132581,11.472426789120853));
#628=VERTEX_POINT('',#627);
#629=CARTESIAN_POINT('',(6.671356176779891,4.231194484131019,11.472426789120853));
#630=DIRECTION('',(0.0,0.0,-1.0));
#631=VECTOR('',#630,1.844853578241704);
#632=LINE('',#629,#631);
#633=EDGE_CURVE('',#628,#617,#632,.T.);
#634=ORIENTED_EDGE('',*,*,#633,.F.);
#635=CARTESIAN_POINT('',(7.000000000000856,3.661966684718473,11.472426789120853));
#636=VERTEX_POINT('',#635);
#637=CARTESIAN_POINT('',(0.0,0.0,11.472426789160419));
#638=DIRECTION('',(0.0,0.0,1.0));
#639=DIRECTION('',(1.0,0.0,0.0));
#640=AXIS2_PLACEMENT_3D('',#637,#638,#639);
#641=CIRCLE('',#640,7.9);
#642=EDGE_CURVE('',#636,#628,#641,.T.);
#643=ORIENTED_EDGE('',*,*,#642,.F.);
#644=CARTESIAN_POINT('',(7.0,3.66196668472011,9.627573210879149));
#645=DIRECTION('',(0.0,0.0,1.0));
#646=VECTOR('',#645,1.844853578241704);
#647=LINE('',#644,#646);
#648=EDGE_CURVE('',#619,#636,#647,.T.);
#649=ORIENTED_EDGE('',*,*,#648,.F.);
#650=EDGE_LOOP('',(#626,#634,#643,#649));
#651=FACE_OUTER_BOUND('',#650,.T.);
#652=ADVANCED_FACE('',(#651),#615,.T.);
#653=CARTESIAN_POINT('',(0.0,0.0,11.800000000000001));
#654=DIRECTION('',(0.0,0.0,-1.0));
#655=DIRECTION('',(1.0,0.0,0.0));
#656=AXIS2_PLACEMENT_3D('',#653,#654,#655);
#657=CYLINDRICAL_SURFACE('',#656,7.9);
#658=CARTESIAN_POINT('',(7.000000000000856,-3.661966684718473,9.627573210879149));
#659=VERTEX_POINT('',#658);
#660=CARTESIAN_POINT('',(6.67135617677891,-4.23119448413257,9.627573210879149));
#661=VERTEX_POINT('',#660);
#662=CARTESIAN_POINT('',(0.0,0.0,9.627573210839582));
#663=DIRECTION('',(0.0,0.0,-1.0));
#664=DIRECTION('',(1.0,0.0,0.0));
#665=AXIS2_PLACEMENT_3D('',#662,#663,#664);
#666=CIRCLE('',#665,7.9);
#667=EDGE_CURVE('',#659,#661,#666,.T.);
#668=ORIENTED_EDGE('',*,*,#667,.F.);
#669=CARTESIAN_POINT('',(7.000000000000856,-3.661966684718473,11.472426789120853));
#670=VERTEX_POINT('',#669);
#671=CARTESIAN_POINT('',(7.0,-3.66196668472011,11.472426789120853));
#672=DIRECTION('',(0.0,0.0,-1.0));
#673=VECTOR('',#672,1.844853578241704);
#674=LINE('',#671,#673);
#675=EDGE_CURVE('',#670,#659,#674,.T.);
#676=ORIENTED_EDGE('',*,*,#675,.F.);
#677=CARTESIAN_POINT('',(6.67135617677891,-4.23119448413257,11.472426789120853));
#678=VERTEX_POINT('',#677);
#679=CARTESIAN_POINT('',(0.0,0.0,11.472426789160419));
#680=DIRECTION('',(0.0,0.0,1.0));
#681=DIRECTION('',(1.0,0.0,0.0));
#682=AXIS2_PLACEMENT_3D('',#679,#680,#681);
#683=CIRCLE('',#682,7.9);
#684=EDGE_CURVE('',#678,#670,#683,.T.);
#685=ORIENTED_EDGE('',*,*,#684,.F.);
#686=CARTESIAN_POINT('',(6.6713561767799,-4.231194484131009,9.627573210879149));
#687=DIRECTION('',(0.0,0.0,1.0));
#688=VECTOR('',#687,1.844853578241704);
#689=LINE('',#686,#688);
#690=EDGE_CURVE('',#661,#678,#689,.T.);
#691=ORIENTED_EDGE('',*,*,#690,.F.);
#692=EDGE_LOOP('',(#668,#676,#685,#691));
#693=FACE_OUTER_BOUND('',#692,.T.);
#694=ADVANCED_FACE('',(#693),#657,.T.);
#695=CARTESIAN_POINT('',(0.0,0.0,11.800000000000001));
#696=DIRECTION('',(0.0,0.0,-1.0));
#697=DIRECTION('',(1.0,0.0,0.0));
#698=AXIS2_PLACEMENT_3D('',#695,#696,#697);
#699=CYLINDRICAL_SURFACE('',#698,7.9);
#700=CARTESIAN_POINT('',(-6.67135617677891,-4.231194484132575,9.627573210879149));
#701=VERTEX_POINT('',#700);
#702=CARTESIAN_POINT('',(-7.000000000000856,-3.661966684718473,9.627573210879149));
#703=VERTEX_POINT('',#702);
#704=CARTESIAN_POINT('',(0.0,0.0,9.627573210839582));
#705=DIRECTION('',(0.0,0.0,-1.0));
#706=DIRECTION('',(1.0,0.0,0.0));
#707=AXIS2_PLACEMENT_3D('',#704,#705,#706);
#708=CIRCLE('',#707,7.9);
#709=EDGE_CURVE('',#701,#703,#708,.T.);
#710=ORIENTED_EDGE('',*,*,#709,.F.);
#711=CARTESIAN_POINT('',(-6.67135617677891,-4.231194484132575,11.472426789120853));
#712=VERTEX_POINT('',#711);
#713=CARTESIAN_POINT('',(-6.6713561767799,-4.231194484131009,11.472426789120853));
#714=DIRECTION('',(0.0,0.0,-1.0));
#715=VECTOR('',#714,1.844853578241704);
#716=LINE('',#713,#715);
#717=EDGE_CURVE('',#712,#701,#716,.T.);
#718=ORIENTED_EDGE('',*,*,#717,.F.);
#719=CARTESIAN_POINT('',(-7.000000000000856,-3.661966684718473,11.472426789120853));
#720=VERTEX_POINT('',#719);
#721=CARTESIAN_POINT('',(0.0,0.0,11.472426789160419));
#722=DIRECTION('',(0.0,0.0,1.0));
#723=DIRECTION('',(1.0,0.0,0.0));
#724=AXIS2_PLACEMENT_3D('',#721,#722,#723);
#725=CIRCLE('',#724,7.9);
#726=EDGE_CURVE('',#720,#712,#725,.T.);
#727=ORIENTED_EDGE('',*,*,#726,.F.);
#728=CARTESIAN_POINT('',(-7.0,-3.66196668472011,9.627573210879149));
#729=DIRECTION('',(0.0,0.0,1.0));
#730=VECTOR('',#729,1.844853578241704);
#731=LINE('',#728,#730);
#732=EDGE_CURVE('',#703,#720,#731,.T.);
#733=ORIENTED_EDGE('',*,*,#732,.F.);
#734=EDGE_LOOP('',(#710,#718,#727,#733));
#735=FACE_OUTER_BOUND('',#734,.T.);
#736=ADVANCED_FACE('',(#735),#699,.T.);
#737=CARTESIAN_POINT('',(0.0,0.0,11.800000000000001));
#738=DIRECTION('',(0.0,0.0,-1.0));
#739=DIRECTION('',(1.0,0.0,0.0));
#740=AXIS2_PLACEMENT_3D('',#737,#738,#739);
#741=CYLINDRICAL_SURFACE('',#740,7.9);
#742=ORIENTED_EDGE('',*,*,#247,.F.);
#743=CARTESIAN_POINT('',(0.328643823220104,-7.893161168851131,11.472426789120853));
#744=DIRECTION('',(0.0,0.0,-1.0));
#745=VECTOR('',#744,1.844853578241704);
#746=LINE('',#743,#745);
#747=EDGE_CURVE('',#353,#239,#746,.T.);
#748=ORIENTED_EDGE('',*,*,#747,.F.);
#749=ORIENTED_EDGE('',*,*,#359,.F.);
#750=CARTESIAN_POINT('',(-0.328643823220104,-7.893161168851131,9.627573210879149));
#751=DIRECTION('',(0.0,0.0,1.0));
#752=VECTOR('',#751,1.844853578241704);
#753=LINE('',#750,#752);
#754=EDGE_CURVE('',#241,#351,#753,.T.);
#755=ORIENTED_EDGE('',*,*,#754,.F.);
#756=EDGE_LOOP('',(#742,#748,#749,#755));
#757=FACE_OUTER_BOUND('',#756,.T.);
#758=ADVANCED_FACE('',(#757),#741,.T.);
#759=CARTESIAN_POINT('',(0.0,0.0,13.347791651786221));
#760=DIRECTION('',(0.0,0.0,-1.0));
#761=DIRECTION('',(0.0,1.0,0.0));
#762=AXIS2_PLACEMENT_3D('',#759,#760,#761);
#763=CONICAL_SURFACE('',#762,2.747477407520469,69.999999920013352);
#764=ORIENTED_EDGE('',*,*,#726,.T.);
#765=CARTESIAN_POINT('',(-3.5,-6.06217782649107,11.800000000000001));
#766=CARTESIAN_POINT('',(-4.98989887499727,-5.20198430994608,11.800000000000001));
#767=CARTESIAN_POINT('',(-6.6713561767799,-4.231194484131019,11.472426789160419));
#775=(BOUNDED_CURVE()B_SPLINE_CURVE(2,(#765,#766,#767),.UNSPECIFIED.,.F.,.U.)B_SPLINE_CURVE_WITH_KNOTS((3,3),(0.406486568118261,0.778158333374228),.UNSPECIFIED.)CURVE()GEOMETRIC_REPRESENTATION_ITEM()RATIONAL_B_SPLINE_CURVE((1.0,1.03470408851494,1.00594467859421))REPRESENTATION_ITEM(''));
#776=EDGE_CURVE('',#377,#712,#775,.T.);
#777=ORIENTED_EDGE('',*,*,#776,.F.);
#778=ORIENTED_EDGE('',*,*,#513,.F.);
#779=CARTESIAN_POINT('',(-7.0,-3.66196668472011,11.472426789160419));
#780=CARTESIAN_POINT('',(-7.0,-1.72038703308999,11.800000000000001));
#781=CARTESIAN_POINT('',(-7.0,-8.326673E-016,11.800000000000001));
#789=(BOUNDED_CURVE()B_SPLINE_CURVE(2,(#779,#780,#781),.UNSPECIFIED.,.F.,.U.)B_SPLINE_CURVE_WITH_KNOTS((3,3),(0.034814802862293,0.406486568118261),.UNSPECIFIED.)CURVE()GEOMETRIC_REPRESENTATION_ITEM()RATIONAL_B_SPLINE_CURVE((1.00594467859421,1.03470408851496,1.0))REPRESENTATION_ITEM(''));
#790=EDGE_CURVE('',#720,#507,#789,.T.);
#791=ORIENTED_EDGE('',*,*,#790,.F.);
#792=EDGE_LOOP('',(#764,#777,#778,#791));
#793=FACE_OUTER_BOUND('',#792,.T.);
#794=ADVANCED_FACE('',(#793),#763,.T.);
#795=CARTESIAN_POINT('',(6.988491794457891,-4.048096149895006,9.175000000000001));
#796=DIRECTION('',(0.5,-0.866025403784438,0.0));
#797=DIRECTION('',(0.0,0.0,-1.0));
#798=AXIS2_PLACEMENT_3D('',#795,#796,#797);
#799=PLANE('',#798);
#800=ORIENTED_EDGE('',*,*,#747,.T.);
#801=ORIENTED_EDGE('',*,*,#284,.T.);
#802=CARTESIAN_POINT('',(3.5,-6.06217782649107,9.300000000000001));
#803=CARTESIAN_POINT('',(4.98989887499727,-5.201984309946069,9.300000000000001));
#804=CARTESIAN_POINT('',(6.6713561767799,-4.231194484131009,9.627573210839582));
#812=(BOUNDED_CURVE()B_SPLINE_CURVE(2,(#802,#803,#804),.UNSPECIFIED.,.F.,.U.)B_SPLINE_CURVE_WITH_KNOTS((3,3),(0.406486568118261,0.77815833337423),.UNSPECIFIED.)CURVE()GEOMETRIC_REPRESENTATION_ITEM()RATIONAL_B_SPLINE_CURVE((1.0,1.03470408851496,1.00594467859421))REPRESENTATION_ITEM(''));
#813=EDGE_CURVE('',#265,#661,#812,.T.);
#814=ORIENTED_EDGE('',*,*,#813,.T.);
#815=ORIENTED_EDGE('',*,*,#690,.T.);
#816=CARTESIAN_POINT('',(6.6713561767799,-4.231194484131009,11.472426789160419));
#817=CARTESIAN_POINT('',(4.98989887499727,-5.201984309946069,11.800000000000001));
#818=CARTESIAN_POINT('',(3.5,-6.06217782649107,11.800000000000001));
#826=(BOUNDED_CURVE()B_SPLINE_CURVE(2,(#816,#817,#818),.UNSPECIFIED.,.F.,.U.)B_SPLINE_CURVE_WITH_KNOTS((3,3),(0.034814802862292,0.406486568118261),.UNSPECIFIED.)CURVE()GEOMETRIC_REPRESENTATION_ITEM()RATIONAL_B_SPLINE_CURVE((1.00594467859421,1.03470408851496,1.0))REPRESENTATION_ITEM(''));
#827=EDGE_CURVE('',#678,#362,#826,.T.);
#828=ORIENTED_EDGE('',*,*,#827,.T.);
#829=ORIENTED_EDGE('',*,*,#374,.T.);
#830=EDGE_LOOP('',(#800,#801,#814,#815,#828,#829));
#831=FACE_OUTER_BOUND('',#830,.T.);
#832=ADVANCED_FACE('',(#831),#799,.T.);
#833=CARTESIAN_POINT('',(0.0,0.0,13.347791651786221));
#834=DIRECTION('',(0.0,0.0,-1.0));
#835=DIRECTION('',(0.0,1.0,0.0));
#836=AXIS2_PLACEMENT_3D('',#833,#834,#835);
#837=CONICAL_SURFACE('',#836,2.747477407520469,69.999999920013352);
#838=ORIENTED_EDGE('',*,*,#684,.T.);
#839=CARTESIAN_POINT('',(7.0,2.775558E-015,11.800000000000001));
#840=CARTESIAN_POINT('',(7.0,-1.72038703308998,11.800000000000001));
#841=CARTESIAN_POINT('',(7.0,-3.66196668472011,11.472426789160419));
#849=(BOUNDED_CURVE()B_SPLINE_CURVE(2,(#839,#840,#841),.UNSPECIFIED.,.F.,.U.)B_SPLINE_CURVE_WITH_KNOTS((3,3),(0.40648656811826,0.778158333374229),.UNSPECIFIED.)CURVE()GEOMETRIC_REPRESENTATION_ITEM()RATIONAL_B_SPLINE_CURVE((1.0,1.03470408851496,1.00594467859421))REPRESENTATION_ITEM(''));
#850=EDGE_CURVE('',#517,#670,#849,.T.);
#851=ORIENTED_EDGE('',*,*,#850,.F.);
#852=ORIENTED_EDGE('',*,*,#523,.F.);
#853=ORIENTED_EDGE('',*,*,#827,.F.);
#854=EDGE_LOOP('',(#838,#851,#852,#853));
#855=FACE_OUTER_BOUND('',#854,.T.);
#856=ADVANCED_FACE('',(#855),#837,.T.);
#857=CARTESIAN_POINT('',(7.0,4.028163353192122,9.175000000000001));
#858=DIRECTION('',(1.0,0.0,0.0));
#859=DIRECTION('',(0.0,0.0,-1.0));
#860=AXIS2_PLACEMENT_3D('',#857,#858,#859);
#861=PLANE('',#860);
#862=ORIENTED_EDGE('',*,*,#675,.T.);
#863=CARTESIAN_POINT('',(7.0,-3.66196668472011,9.627573210839582));
#864=CARTESIAN_POINT('',(7.0,-1.72038703308999,9.300000000000001));
#865=CARTESIAN_POINT('',(7.0,2.775558E-015,9.300000000000001));
#873=(BOUNDED_CURVE()B_SPLINE_CURVE(2,(#863,#864,#865),.UNSPECIFIED.,.F.,.U.)B_SPLINE_CURVE_WITH_KNOTS((3,3),(0.034814802862293,0.406486568118261),.UNSPECIFIED.)CURVE()GEOMETRIC_REPRESENTATION_ITEM()RATIONAL_B_SPLINE_CURVE((1.00594467859421,1.03470408851495,1.0))REPRESENTATION_ITEM(''));
#874=EDGE_CURVE('',#659,#479,#873,.T.);
#875=ORIENTED_EDGE('',*,*,#874,.T.);
#876=CARTESIAN_POINT('',(7.0,2.775558E-015,9.300000000000001));
#877=CARTESIAN_POINT('',(7.0,1.72038703308999,9.300000000000001));
#878=CARTESIAN_POINT('',(7.0,3.66196668472011,9.627573210839582));
#886=(BOUNDED_CURVE()B_SPLINE_CURVE(2,(#876,#877,#878),.UNSPECIFIED.,.F.,.U.)B_SPLINE_CURVE_WITH_KNOTS((3,3),(0.406486568118261,0.778158333374229),.UNSPECIFIED.)CURVE()GEOMETRIC_REPRESENTATION_ITEM()RATIONAL_B_SPLINE_CURVE((1.0,1.03470408851495,1.00594467859421))REPRESENTATION_ITEM(''));
#887=EDGE_CURVE('',#479,#619,#886,.T.);
#888=ORIENTED_EDGE('',*,*,#887,.T.);
#889=ORIENTED_EDGE('',*,*,#648,.T.);
#890=CARTESIAN_POINT('',(7.0,3.66196668472011,11.472426789160419));
#891=CARTESIAN_POINT('',(7.0,1.72038703308999,11.800000000000001));
#892=CARTESIAN_POINT('',(7.0,2.775558E-015,11.800000000000001));
#900=(BOUNDED_CURVE()B_SPLINE_CURVE(2,(#890,#891,#892),.UNSPECIFIED.,.F.,.U.)B_SPLINE_CURVE_WITH_KNOTS((3,3),(0.034814802862292,0.40648656811826),.UNSPECIFIED.)CURVE()GEOMETRIC_REPRESENTATION_ITEM()RATIONAL_B_SPLINE_CURVE((1.00594467859421,1.03470408851495,1.0))REPRESENTATION_ITEM(''));
#901=EDGE_CURVE('',#636,#517,#900,.T.);
#902=ORIENTED_EDGE('',*,*,#901,.T.);
#903=ORIENTED_EDGE('',*,*,#850,.T.);
#904=EDGE_LOOP('',(#862,#875,#888,#889,#902,#903));
#905=FACE_OUTER_BOUND('',#904,.T.);
#906=ADVANCED_FACE('',(#905),#861,.T.);
#907=CARTESIAN_POINT('',(0.0,0.0,13.347791651786221));
#908=DIRECTION('',(0.0,0.0,-1.0));
#909=DIRECTION('',(0.0,1.0,0.0));
#910=AXIS2_PLACEMENT_3D('',#907,#908,#909);
#911=CONICAL_SURFACE('',#910,2.747477407520469,69.999999920013352);
#912=ORIENTED_EDGE('',*,*,#642,.T.);
#913=CARTESIAN_POINT('',(3.5,6.06217782649107,11.800000000000001));
#914=CARTESIAN_POINT('',(4.98989887499727,5.20198430994608,11.800000000000001));
#915=CARTESIAN_POINT('',(6.671356176779891,4.231194484131019,11.472426789160419));
#923=(BOUNDED_CURVE()B_SPLINE_CURVE(2,(#913,#914,#915),.UNSPECIFIED.,.F.,.U.)B_SPLINE_CURVE_WITH_KNOTS((3,3),(0.40648656811826,0.778158333374228),.UNSPECIFIED.)CURVE()GEOMETRIC_REPRESENTATION_ITEM()RATIONAL_B_SPLINE_CURVE((1.0,1.03470408851494,1.00594467859421))REPRESENTATION_ITEM(''));
#924=EDGE_CURVE('',#295,#628,#923,.T.);
#925=ORIENTED_EDGE('',*,*,#924,.F.);
#926=ORIENTED_EDGE('',*,*,#530,.F.);
#927=ORIENTED_EDGE('',*,*,#901,.F.);
#928=EDGE_LOOP('',(#912,#925,#926,#927));
#929=FACE_OUTER_BOUND('',#928,.T.);
#930=ADVANCED_FACE('',(#929),#911,.T.);
#931=CARTESIAN_POINT('',(0.0,0.0,13.347791651786221));
#932=DIRECTION('',(0.0,0.0,-1.0));
#933=DIRECTION('',(0.0,1.0,0.0));
#934=AXIS2_PLACEMENT_3D('',#931,#932,#933);
#935=CONICAL_SURFACE('',#934,2.747477407520469,69.999999920013352);
#936=ORIENTED_EDGE('',*,*,#600,.T.);
#937=CARTESIAN_POINT('',(-7.0,-8.326673E-016,11.800000000000001));
#938=CARTESIAN_POINT('',(-7.0,1.72038703308999,11.800000000000001));
#939=CARTESIAN_POINT('',(-7.0,3.66196668472011,11.472426789160419));
#947=(BOUNDED_CURVE()B_SPLINE_CURVE(2,(#937,#938,#939),.UNSPECIFIED.,.F.,.U.)B_SPLINE_CURVE_WITH_KNOTS((3,3),(0.406486568118261,0.778158333374229),.UNSPECIFIED.)CURVE()GEOMETRIC_REPRESENTATION_ITEM()RATIONAL_B_SPLINE_CURVE((1.0,1.03470408851496,1.00594467859421))REPRESENTATION_ITEM(''));
#948=EDGE_CURVE('',#507,#586,#947,.T.);
#949=ORIENTED_EDGE('',*,*,#948,.F.);
#950=ORIENTED_EDGE('',*,*,#538,.F.);
#951=CARTESIAN_POINT('',(-6.6713561767799,4.231194484131009,11.472426789160419));
#952=CARTESIAN_POINT('',(-4.989898874997261,5.20198430994608,11.800000000000001));
#953=CARTESIAN_POINT('',(-3.5,6.06217782649107,11.800000000000001));
#961=(BOUNDED_CURVE()B_SPLINE_CURVE(2,(#951,#952,#953),.UNSPECIFIED.,.F.,.U.)B_SPLINE_CURVE_WITH_KNOTS((3,3),(0.034814802862293,0.406486568118261),.UNSPECIFIED.)CURVE()GEOMETRIC_REPRESENTATION_ITEM()RATIONAL_B_SPLINE_CURVE((1.00594467859421,1.03470408851494,1.0))REPRESENTATION_ITEM(''));
#962=EDGE_CURVE('',#594,#297,#961,.T.);
#963=ORIENTED_EDGE('',*,*,#962,.F.);
#964=EDGE_LOOP('',(#936,#949,#950,#963));
#965=FACE_OUTER_BOUND('',#964,.T.);
#966=ADVANCED_FACE('',(#965),#935,.T.);
#967=CARTESIAN_POINT('',(0.011508205542108,8.076259503087133,11.925000000000001));
#968=DIRECTION('',(0.5,0.866025403784439,0.0));
#969=DIRECTION('',(0.0,0.0,1.0));
#970=AXIS2_PLACEMENT_3D('',#967,#968,#969);
#971=PLANE('',#970);
#972=ORIENTED_EDGE('',*,*,#633,.T.);
#973=CARTESIAN_POINT('',(6.6713561767799,4.231194484131019,9.627573210839582));
#974=CARTESIAN_POINT('',(4.989898874997261,5.20198430994608,9.300000000000001));
#975=CARTESIAN_POINT('',(3.5,6.06217782649107,9.300000000000001));
#983=(BOUNDED_CURVE()B_SPLINE_CURVE(2,(#973,#974,#975),.UNSPECIFIED.,.F.,.U.)B_SPLINE_CURVE_WITH_KNOTS((3,3),(0.034814802862293,0.406486568118261),.UNSPECIFIED.)CURVE()GEOMETRIC_REPRESENTATION_ITEM()RATIONAL_B_SPLINE_CURVE((1.00594467859421,1.03470408851495,1.0))REPRESENTATION_ITEM(''));
#984=EDGE_CURVE('',#617,#185,#983,.T.);
#985=ORIENTED_EDGE('',*,*,#984,.T.);
#986=ORIENTED_EDGE('',*,*,#228,.T.);
#987=ORIENTED_EDGE('',*,*,#564,.T.);
#988=ORIENTED_EDGE('',*,*,#318,.T.);
#989=ORIENTED_EDGE('',*,*,#924,.T.);
#990=EDGE_LOOP('',(#972,#985,#986,#987,#988,#989));
#991=FACE_OUTER_BOUND('',#990,.T.);
#992=ADVANCED_FACE('',(#991),#971,.T.);
#993=CARTESIAN_POINT('',(0.0,0.0,7.752208348213781));
#994=DIRECTION('',(0.0,0.0,1.0));
#995=DIRECTION('',(0.0,1.0,0.0));
#996=AXIS2_PLACEMENT_3D('',#993,#994,#995);
#997=CONICAL_SURFACE('',#996,2.747477407520469,69.999999920013352);
#998=ORIENTED_EDGE('',*,*,#709,.T.);
#999=CARTESIAN_POINT('',(-7.0,-8.326673E-016,9.300000000000001));
#1000=CARTESIAN_POINT('',(-7.0,-1.72038703308999,9.300000000000001));
#1001=CARTESIAN_POINT('',(-7.0,-3.66196668472011,9.627573210839582));
#1009=(BOUNDED_CURVE()B_SPLINE_CURVE(2,(#999,#1000,#1001),.UNSPECIFIED.,.F.,.U.)B_SPLINE_CURVE_WITH_KNOTS((3,3),(0.406486568118261,0.778158333374229),.UNSPECIFIED.)CURVE()GEOMETRIC_REPRESENTATION_ITEM()RATIONAL_B_SPLINE_CURVE((1.0,1.03470408851495,1.00594467859421))REPRESENTATION_ITEM(''));
#1010=EDGE_CURVE('',#462,#703,#1009,.T.);
#1011=ORIENTED_EDGE('',*,*,#1010,.F.);
#1012=ORIENTED_EDGE('',*,*,#468,.F.);
#1013=CARTESIAN_POINT('',(-6.6713561767799,-4.231194484131019,9.627573210839582));
#1014=CARTESIAN_POINT('',(-4.98989887499727,-5.20198430994608,9.300000000000001));
#1015=CARTESIAN_POINT('',(-3.5,-6.06217782649107,9.300000000000001));
#1023=(BOUNDED_CURVE()B_SPLINE_CURVE(2,(#1013,#1014,#1015),.UNSPECIFIED.,.F.,.U.)B_SPLINE_CURVE_WITH_KNOTS((3,3),(0.034814802862293,0.40648656811826),.UNSPECIFIED.)CURVE()GEOMETRIC_REPRESENTATION_ITEM()RATIONAL_B_SPLINE_CURVE((1.00594467859421,1.03470408851494,1.0))REPRESENTATION_ITEM(''));
#1024=EDGE_CURVE('',#701,#250,#1023,.T.);
#1025=ORIENTED_EDGE('',*,*,#1024,.F.);
#1026=EDGE_LOOP('',(#998,#1011,#1012,#1025));
#1027=FACE_OUTER_BOUND('',#1026,.T.);
#1028=ADVANCED_FACE('',(#1027),#997,.T.);
#1029=CARTESIAN_POINT('',(0.0,0.0,7.752208348213781));
#1030=DIRECTION('',(0.0,0.0,1.0));
#1031=DIRECTION('',(0.0,1.0,0.0));
#1032=AXIS2_PLACEMENT_3D('',#1029,#1030,#1031);
#1033=CONICAL_SURFACE('',#1032,2.747477407520469,69.999999920013352);
#1034=ORIENTED_EDGE('',*,*,#667,.T.);
#1035=ORIENTED_EDGE('',*,*,#813,.F.);
#1036=ORIENTED_EDGE('',*,*,#492,.F.);
#1037=ORIENTED_EDGE('',*,*,#874,.F.);
#1038=EDGE_LOOP('',(#1034,#1035,#1036,#1037));
#1039=FACE_OUTER_BOUND('',#1038,.T.);
#1040=ADVANCED_FACE('',(#1039),#1033,.T.);
#1041=CARTESIAN_POINT('',(0.0,0.0,7.752208348213781));
#1042=DIRECTION('',(0.0,0.0,1.0));
#1043=DIRECTION('',(0.0,1.0,0.0));
#1044=AXIS2_PLACEMENT_3D('',#1041,#1042,#1043);
#1045=CONICAL_SURFACE('',#1044,2.747477407520469,69.999999920013352);
#1046=ORIENTED_EDGE('',*,*,#625,.T.);
#1047=ORIENTED_EDGE('',*,*,#887,.F.);
#1048=ORIENTED_EDGE('',*,*,#485,.F.);
#1049=ORIENTED_EDGE('',*,*,#984,.F.);
#1050=EDGE_LOOP('',(#1046,#1047,#1048,#1049));
#1051=FACE_OUTER_BOUND('',#1050,.T.);
#1052=ADVANCED_FACE('',(#1051),#1045,.T.);
#1053=CARTESIAN_POINT('',(0.0,0.0,7.752208348213781));
#1054=DIRECTION('',(0.0,0.0,1.0));
#1055=DIRECTION('',(0.0,1.0,0.0));
#1056=AXIS2_PLACEMENT_3D('',#1053,#1054,#1055);
#1057=CONICAL_SURFACE('',#1056,2.747477407520469,69.999999920013352);
#1058=ORIENTED_EDGE('',*,*,#583,.T.);
#1059=CARTESIAN_POINT('',(-3.5,6.06217782649107,9.300000000000001));
#1060=CARTESIAN_POINT('',(-4.989898874997261,5.20198430994608,9.300000000000001));
#1061=CARTESIAN_POINT('',(-6.6713561767799,4.231194484131009,9.627573210839582));
#1069=(BOUNDED_CURVE()B_SPLINE_CURVE(2,(#1059,#1060,#1061),.UNSPECIFIED.,.F.,.U.)B_SPLINE_CURVE_WITH_KNOTS((3,3),(0.406486568118261,0.778158333374229),.UNSPECIFIED.)CURVE()GEOMETRIC_REPRESENTATION_ITEM()RATIONAL_B_SPLINE_CURVE((1.0,1.03470408851494,1.00594467859421))REPRESENTATION_ITEM(''));
#1070=EDGE_CURVE('',#183,#577,#1069,.T.);
#1071=ORIENTED_EDGE('',*,*,#1070,.F.);
#1072=ORIENTED_EDGE('',*,*,#475,.F.);
#1073=CARTESIAN_POINT('',(-7.0,3.66196668472011,9.627573210839582));
#1074=CARTESIAN_POINT('',(-7.0,1.72038703308999,9.300000000000001));
#1075=CARTESIAN_POINT('',(-7.0,-8.326673E-016,9.300000000000001));
#1083=(BOUNDED_CURVE()B_SPLINE_CURVE(2,(#1073,#1074,#1075),.UNSPECIFIED.,.F.,.U.)B_SPLINE_CURVE_WITH_KNOTS((3,3),(0.034814802862293,0.406486568118261),.UNSPECIFIED.)CURVE()GEOMETRIC_REPRESENTATION_ITEM()RATIONAL_B_SPLINE_CURVE((1.00594467859421,1.03470408851495,1.0))REPRESENTATION_ITEM(''));
#1084=EDGE_CURVE('',#575,#462,#1083,.T.);
#1085=ORIENTED_EDGE('',*,*,#1084,.F.);
#1086=EDGE_LOOP('',(#1058,#1071,#1072,#1085));
#1087=FACE_OUTER_BOUND('',#1086,.T.);
#1088=ADVANCED_FACE('',(#1087),#1057,.T.);
#1089=CARTESIAN_POINT('',(-6.988491794457891,-4.048096149895007,11.925000000000001));
#1090=DIRECTION('',(-0.5,-0.866025403784439,0.0));
#1091=DIRECTION('',(0.0,0.0,-1.0));
#1092=AXIS2_PLACEMENT_3D('',#1089,#1090,#1091);
#1093=PLANE('',#1092);
#1094=ORIENTED_EDGE('',*,*,#754,.T.);
#1095=ORIENTED_EDGE('',*,*,#396,.T.);
#1096=ORIENTED_EDGE('',*,*,#776,.T.);
#1097=ORIENTED_EDGE('',*,*,#717,.T.);
#1098=ORIENTED_EDGE('',*,*,#1024,.T.);
#1099=ORIENTED_EDGE('',*,*,#262,.T.);
#1100=EDGE_LOOP('',(#1094,#1095,#1096,#1097,#1098,#1099));
#1101=FACE_OUTER_BOUND('',#1100,.T.);
#1102=ADVANCED_FACE('',(#1101),#1093,.T.);
#1103=CARTESIAN_POINT('',(-7.0,4.028163353192122,9.175000000000001));
#1104=DIRECTION('',(-1.0,0.0,0.0));
#1105=DIRECTION('',(0.0,0.0,1.0));
#1106=AXIS2_PLACEMENT_3D('',#1103,#1104,#1105);
#1107=PLANE('',#1106);
#1108=ORIENTED_EDGE('',*,*,#732,.T.);
#1109=ORIENTED_EDGE('',*,*,#790,.T.);
#1110=ORIENTED_EDGE('',*,*,#948,.T.);
#1111=ORIENTED_EDGE('',*,*,#591,.T.);
#1112=ORIENTED_EDGE('',*,*,#1084,.T.);
#1113=ORIENTED_EDGE('',*,*,#1010,.T.);
#1114=EDGE_LOOP('',(#1108,#1109,#1110,#1111,#1112,#1113));
#1115=FACE_OUTER_BOUND('',#1114,.T.);
#1116=ADVANCED_FACE('',(#1115),#1107,.T.);
#1117=CARTESIAN_POINT('',(-0.011508205542113,8.07625950308713,11.925000000000001));
#1118=DIRECTION('',(-0.5,0.866025403784439,0.0));
#1119=DIRECTION('',(0.0,0.0,1.0));
#1120=AXIS2_PLACEMENT_3D('',#1117,#1118,#1119);
#1121=PLANE('',#1120);
#1122=ORIENTED_EDGE('',*,*,#606,.T.);
#1123=ORIENTED_EDGE('',*,*,#962,.T.);
#1124=ORIENTED_EDGE('',*,*,#340,.T.);
#1125=ORIENTED_EDGE('',*,*,#557,.T.);
#1126=ORIENTED_EDGE('',*,*,#206,.T.);
#1127=ORIENTED_EDGE('',*,*,#1070,.T.);
#1128=EDGE_LOOP('',(#1122,#1123,#1124,#1125,#1126,#1127));
#1129=FACE_OUTER_BOUND('',#1128,.T.);
#1130=ADVANCED_FACE('',(#1129),#1121,.T.);
#1131=CLOSED_SHELL('',(#106,#144,#176,#232,#288,#344,#400,#424,#436,#454,#500,#546,#568,#610,#652,#694,#736,#758,#794,#832,#856,#906,#930,#966,#992,#1028,#1040,#1052,#1088,#1102,#1116,#1130));
#1132=MANIFOLD_SOLID_BREP('1C4D',#1131);
#1133=COLOUR_RGB('254',0.866,0.866,0.866);
#1134=SURFACE_STYLE_USAGE(.BOTH.,#1135);
#1135=SURFACE_SIDE_STYLE('NONE',(#1136));
#1136=SURFACE_STYLE_FILL_AREA(#1137);
#1137=FILL_AREA_STYLE('NONE',(#1138));
#1138=FILL_AREA_STYLE_COLOUR('NONE',#1133);
#1139=PRESENTATION_STYLE_ASSIGNMENT((#1134));
#1140=STYLED_ITEM('NONE',(#1139),#1132);
#1141=MECHANICAL_DESIGN_GEOMETRIC_PRESENTATION_REPRESENTATION('NONE',(#1140),#28);
#1142=PRESENTATION_LAYER_ASSIGNMENT('3D','None',(#1132));
#1143=ADVANCED_BREP_SHAPE_REPRESENTATION('ABSR1',(#1132),#28);
#1144=SHAPE_REPRESENTATION_RELATIONSHIP('SRRPL1','',#1143,#62);
ENDSEC;
END-ISO-10303-21;
