ISO-10303-21;
HEADER;
/****************************************************************
 * Generated by software with PDElib inside                    *
 * PDElib Version v51a, created Fri 09/10/2010                  *
 * ITI Transcendata (http://www.transcendata.com/)              *
 ****************************************************************/
FILE_DESCRIPTION((''),'2;1');
FILE_NAME('LEMO_ECG.0B.304.CLV_Part9.stp','2013-01-08T11:25:17',(''),(''),'Mechanical Desktop 2011','Mechanical Desktop 2011',', , ');
FILE_SCHEMA(('AUTOMOTIVE_DESIGN { 1 2 10303 214 1 1 1 1 }'));
ENDSEC;
DATA;
#10=(NAMED_UNIT(*)PLANE_ANGLE_UNIT()SI_UNIT($,.RADIAN.));
#11=DIMENSIONAL_EXPONENTS(0.0,0.0,0.0,0.0,0.0,0.0,0.0);
#12=PLANE_ANGLE_MEASURE_WITH_UNIT(PLANE_ANGLE_MEASURE(0.0174532925),#10);
#16=(CONVERSION_BASED_UNIT('DEGREE',#12)NAMED_UNIT(#11)PLANE_ANGLE_UNIT());
#20=(NAMED_UNIT(*)SI_UNIT($,.STERADIAN.)SOLID_ANGLE_UNIT());
#24=(LENGTH_UNIT()NAMED_UNIT(*)SI_UNIT(.MILLI.,.METRE.));
#26=UNCERTAINTY_MEASURE_WITH_UNIT(LENGTH_MEASURE(0.000001),#24,'DISTANCE_ACCURACY_VALUE','');
#28=(GEOMETRIC_REPRESENTATION_CONTEXT(3)GLOBAL_UNCERTAINTY_ASSIGNED_CONTEXT((#26))GLOBAL_UNIT_ASSIGNED_CONTEXT((#16,#20,#24))REPRESENTATION_CONTEXT('','3D'));
#29=APPLICATION_CONTEXT('automotive design');
#30=APPLICATION_PROTOCOL_DEFINITION('INTERNATIONAL_STANDARD','automotive_design',1998,#29);
#31=PRODUCT_CONTEXT('3D Mechanical Parts',#29,'mechanical');
#32=PRODUCT('Product','Product','',(#31));
#33=PRODUCT_RELATED_PRODUCT_CATEGORY('part',$,(#32));
#34=PRODUCT_CATEGORY('part',$);
#35=PERSON('1','Design','Joe',$,$,$);
#36=ORGANIZATION($,'None','None');
#37=PERSON_AND_ORGANIZATION(#35,#36);
#38=PERSON_AND_ORGANIZATION_ROLE('design_owner');
#39=APPLIED_PERSON_AND_ORGANIZATION_ASSIGNMENT(#37,#38,(#32));
#40=PRODUCT_DEFINITION_FORMATION_WITH_SPECIFIED_SOURCE('None','',#32,.BOUGHT.);
#41=PERSON('2','Creator','Joe',$,$,$);
#42=ORGANIZATION($,'None','None');
#43=PERSON_AND_ORGANIZATION(#41,#42);
#44=PERSON_AND_ORGANIZATION_ROLE('creator');
#45=APPLIED_PERSON_AND_ORGANIZATION_ASSIGNMENT(#43,#44,(#40));
#46=PERSON('3','Supplier','Joe',$,$,$);
#47=ORGANIZATION($,'None','None');
#48=PERSON_AND_ORGANIZATION(#46,#47);
#49=PERSON_AND_ORGANIZATION_ROLE('design_supplier');
#50=APPLIED_PERSON_AND_ORGANIZATION_ASSIGNMENT(#48,#49,(#40));
#51=PRODUCT_DEFINITION_CONTEXT('part definition',#29,'design');
#52=PRODUCT_DEFINITION('None','',#40,#51);
#53=PERSON('4','Creator','Joe',$,$,$);
#54=ORGANIZATION($,'None','None');
#55=PERSON_AND_ORGANIZATION(#53,#54);
#56=PERSON_AND_ORGANIZATION_ROLE('creator');
#57=APPLIED_PERSON_AND_ORGANIZATION_ASSIGNMENT(#55,#56,(#52));
#58=CARTESIAN_POINT('NONE',(0.0,0.0,0.0));
#59=DIRECTION('NONE',(0.0,0.0,1.0));
#60=DIRECTION('NONE',(1.0,0.0,0.0));
#61=AXIS2_PLACEMENT_3D('NONE',#58,#59,#60);
#62=SHAPE_REPRESENTATION('SR1',(#61),#28);
#63=PRODUCT_DEFINITION_SHAPE('PDS1','Test Part',#52);
#64=SHAPE_DEFINITION_REPRESENTATION(#63,#62);
#65=CARTESIAN_POINT('',(1.27,-1.270000000000002,-21.199999999999999));
#66=DIRECTION('',(0.0,-1.224647E-016,-1.0));
#67=DIRECTION('',(1.0,0.0,0.0));
#68=AXIS2_PLACEMENT_3D('',#65,#66,#67);
#69=CYLINDRICAL_SURFACE('',#68,0.25);
#70=CARTESIAN_POINT('',(1.52,-1.270000000000002,-23.699999999999999));
#71=VERTEX_POINT('',#70);
#72=CARTESIAN_POINT('',(1.52,-1.270000000000001,-18.699999999999999));
#73=VERTEX_POINT('',#72);
#74=CARTESIAN_POINT('',(1.52,-1.270000000000002,-23.699999999999999));
#75=DIRECTION('',(0.0,0.0,1.0));
#76=VECTOR('',#75,5.0);
#77=LINE('',#74,#76);
#78=EDGE_CURVE('',#71,#73,#77,.T.);
#79=ORIENTED_EDGE('',*,*,#78,.F.);
#80=CARTESIAN_POINT('',(1.02,-1.270000000000002,-23.699999999999999));
#81=VERTEX_POINT('',#80);
#82=CARTESIAN_POINT('',(1.27,-1.270000000000002,-23.699999999999999));
#83=DIRECTION('',(0.0,0.0,-1.0));
#84=DIRECTION('',(1.0,0.0,0.0));
#85=AXIS2_PLACEMENT_3D('',#82,#83,#84);
#86=CIRCLE('',#85,0.25);
#87=EDGE_CURVE('',#81,#71,#86,.T.);
#88=ORIENTED_EDGE('',*,*,#87,.F.);
#89=CARTESIAN_POINT('',(1.02,-1.270000000000001,-18.699999999999999));
#90=VERTEX_POINT('',#89);
#91=CARTESIAN_POINT('',(1.02,-1.270000000000002,-23.699999999999999));
#92=DIRECTION('',(0.0,0.0,1.0));
#93=VECTOR('',#92,5.0);
#94=LINE('',#91,#93);
#95=EDGE_CURVE('',#81,#90,#94,.T.);
#96=ORIENTED_EDGE('',*,*,#95,.T.);
#97=CARTESIAN_POINT('',(1.27,-1.270000000000001,-18.699999999999999));
#98=DIRECTION('',(0.0,0.0,1.0));
#99=DIRECTION('',(1.0,0.0,0.0));
#100=AXIS2_PLACEMENT_3D('',#97,#98,#99);
#101=CIRCLE('',#100,0.25);
#102=EDGE_CURVE('',#73,#90,#101,.T.);
#103=ORIENTED_EDGE('',*,*,#102,.F.);
#104=EDGE_LOOP('',(#79,#88,#96,#103));
#105=FACE_OUTER_BOUND('',#104,.T.);
#106=ADVANCED_FACE('',(#105),#69,.T.);
#107=CARTESIAN_POINT('',(1.27,-1.270000000000002,-21.199999999999999));
#108=DIRECTION('',(0.0,-1.224647E-016,-1.0));
#109=DIRECTION('',(1.0,0.0,0.0));
#110=AXIS2_PLACEMENT_3D('',#107,#108,#109);
#111=CYLINDRICAL_SURFACE('',#110,0.25);
#112=ORIENTED_EDGE('',*,*,#78,.T.);
#113=CARTESIAN_POINT('',(1.27,-1.270000000000001,-18.699999999999999));
#114=DIRECTION('',(0.0,0.0,1.0));
#115=DIRECTION('',(1.0,0.0,0.0));
#116=AXIS2_PLACEMENT_3D('',#113,#114,#115);
#117=CIRCLE('',#116,0.25);
#118=EDGE_CURVE('',#90,#73,#117,.T.);
#119=ORIENTED_EDGE('',*,*,#118,.F.);
#120=ORIENTED_EDGE('',*,*,#95,.F.);
#121=CARTESIAN_POINT('',(1.27,-1.270000000000002,-23.699999999999999));
#122=DIRECTION('',(0.0,0.0,-1.0));
#123=DIRECTION('',(1.0,0.0,0.0));
#124=AXIS2_PLACEMENT_3D('',#121,#122,#123);
#125=CIRCLE('',#124,0.25);
#126=EDGE_CURVE('',#71,#81,#125,.T.);
#127=ORIENTED_EDGE('',*,*,#126,.F.);
#128=EDGE_LOOP('',(#112,#119,#120,#127));
#129=FACE_OUTER_BOUND('',#128,.T.);
#130=ADVANCED_FACE('',(#129),#111,.T.);
#131=CARTESIAN_POINT('',(1.27,-1.270000000000001,-18.699999999999999));
#132=DIRECTION('',(0.0,0.0,1.0));
#133=DIRECTION('',(-1.0,0.0,0.0));
#134=AXIS2_PLACEMENT_3D('',#131,#132,#133);
#135=PLANE('',#134);
#136=ORIENTED_EDGE('',*,*,#102,.T.);
#137=ORIENTED_EDGE('',*,*,#118,.T.);
#138=EDGE_LOOP('',(#136,#137));
#139=FACE_OUTER_BOUND('',#138,.T.);
#140=ADVANCED_FACE('',(#139),#135,.T.);
#141=CARTESIAN_POINT('',(1.27,-1.270000000000002,-23.699999999999999));
#142=DIRECTION('',(0.0,0.0,-1.0));
#143=DIRECTION('',(1.0,0.0,0.0));
#144=AXIS2_PLACEMENT_3D('',#141,#142,#143);
#145=PLANE('',#144);
#146=ORIENTED_EDGE('',*,*,#126,.T.);
#147=ORIENTED_EDGE('',*,*,#87,.T.);
#148=EDGE_LOOP('',(#146,#147));
#149=FACE_OUTER_BOUND('',#148,.T.);
#150=ADVANCED_FACE('',(#149),#145,.T.);
#151=CLOSED_SHELL('',(#106,#130,#140,#150));
#152=MANIFOLD_SOLID_BREP('2005',#151);
#153=COLOUR_RGB('253',0.732,0.732,0.732);
#154=SURFACE_STYLE_USAGE(.BOTH.,#155);
#155=SURFACE_SIDE_STYLE('NONE',(#156));
#156=SURFACE_STYLE_FILL_AREA(#157);
#157=FILL_AREA_STYLE('NONE',(#158));
#158=FILL_AREA_STYLE_COLOUR('NONE',#153);
#159=PRESENTATION_STYLE_ASSIGNMENT((#154));
#160=STYLED_ITEM('NONE',(#159),#152);
#161=MECHANICAL_DESIGN_GEOMETRIC_PRESENTATION_REPRESENTATION('NONE',(#160,#251,#340,#429),#28);
#162=PRESENTATION_LAYER_ASSIGNMENT('3D','None',(#152,#250,#339,#428));
#163=CARTESIAN_POINT('',(-1.27,-1.270000000000002,-21.199999999999999));
#164=DIRECTION('',(0.0,-1.224647E-016,-1.0));
#165=DIRECTION('',(1.0,0.0,0.0));
#166=AXIS2_PLACEMENT_3D('',#163,#164,#165);
#167=CYLINDRICAL_SURFACE('',#166,0.25);
#168=CARTESIAN_POINT('',(-1.02,-1.270000000000002,-23.699999999999999));
#169=VERTEX_POINT('',#168);
#170=CARTESIAN_POINT('',(-1.02,-1.270000000000001,-18.699999999999999));
#171=VERTEX_POINT('',#170);
#172=CARTESIAN_POINT('',(-1.02,-1.270000000000002,-23.699999999999999));
#173=DIRECTION('',(0.0,0.0,1.0));
#174=VECTOR('',#173,5.0);
#175=LINE('',#172,#174);
#176=EDGE_CURVE('',#169,#171,#175,.T.);
#177=ORIENTED_EDGE('',*,*,#176,.F.);
#178=CARTESIAN_POINT('',(-1.52,-1.270000000000002,-23.699999999999999));
#179=VERTEX_POINT('',#178);
#180=CARTESIAN_POINT('',(-1.27,-1.270000000000002,-23.699999999999999));
#181=DIRECTION('',(0.0,0.0,-1.0));
#182=DIRECTION('',(1.0,0.0,0.0));
#183=AXIS2_PLACEMENT_3D('',#180,#181,#182);
#184=CIRCLE('',#183,0.25);
#185=EDGE_CURVE('',#179,#169,#184,.T.);
#186=ORIENTED_EDGE('',*,*,#185,.F.);
#187=CARTESIAN_POINT('',(-1.52,-1.270000000000001,-18.699999999999999));
#188=VERTEX_POINT('',#187);
#189=CARTESIAN_POINT('',(-1.52,-1.270000000000002,-23.699999999999999));
#190=DIRECTION('',(0.0,0.0,1.0));
#191=VECTOR('',#190,5.0);
#192=LINE('',#189,#191);
#193=EDGE_CURVE('',#179,#188,#192,.T.);
#194=ORIENTED_EDGE('',*,*,#193,.T.);
#195=CARTESIAN_POINT('',(-1.27,-1.270000000000001,-18.699999999999999));
#196=DIRECTION('',(0.0,0.0,1.0));
#197=DIRECTION('',(1.0,0.0,0.0));
#198=AXIS2_PLACEMENT_3D('',#195,#196,#197);
#199=CIRCLE('',#198,0.25);
#200=EDGE_CURVE('',#171,#188,#199,.T.);
#201=ORIENTED_EDGE('',*,*,#200,.F.);
#202=EDGE_LOOP('',(#177,#186,#194,#201));
#203=FACE_OUTER_BOUND('',#202,.T.);
#204=ADVANCED_FACE('',(#203),#167,.T.);
#205=CARTESIAN_POINT('',(-1.27,-1.270000000000002,-21.199999999999999));
#206=DIRECTION('',(0.0,-1.224647E-016,-1.0));
#207=DIRECTION('',(1.0,0.0,0.0));
#208=AXIS2_PLACEMENT_3D('',#205,#206,#207);
#209=CYLINDRICAL_SURFACE('',#208,0.25);
#210=ORIENTED_EDGE('',*,*,#176,.T.);
#211=CARTESIAN_POINT('',(-1.27,-1.270000000000001,-18.699999999999999));
#212=DIRECTION('',(0.0,0.0,1.0));
#213=DIRECTION('',(1.0,0.0,0.0));
#214=AXIS2_PLACEMENT_3D('',#211,#212,#213);
#215=CIRCLE('',#214,0.25);
#216=EDGE_CURVE('',#188,#171,#215,.T.);
#217=ORIENTED_EDGE('',*,*,#216,.F.);
#218=ORIENTED_EDGE('',*,*,#193,.F.);
#219=CARTESIAN_POINT('',(-1.27,-1.270000000000002,-23.699999999999999));
#220=DIRECTION('',(0.0,0.0,-1.0));
#221=DIRECTION('',(1.0,0.0,0.0));
#222=AXIS2_PLACEMENT_3D('',#219,#220,#221);
#223=CIRCLE('',#222,0.25);
#224=EDGE_CURVE('',#169,#179,#223,.T.);
#225=ORIENTED_EDGE('',*,*,#224,.F.);
#226=EDGE_LOOP('',(#210,#217,#218,#225));
#227=FACE_OUTER_BOUND('',#226,.T.);
#228=ADVANCED_FACE('',(#227),#209,.T.);
#229=CARTESIAN_POINT('',(-1.27,-1.270000000000001,-18.699999999999999));
#230=DIRECTION('',(0.0,0.0,1.0));
#231=DIRECTION('',(-1.0,0.0,0.0));
#232=AXIS2_PLACEMENT_3D('',#229,#230,#231);
#233=PLANE('',#232);
#234=ORIENTED_EDGE('',*,*,#200,.T.);
#235=ORIENTED_EDGE('',*,*,#216,.T.);
#236=EDGE_LOOP('',(#234,#235));
#237=FACE_OUTER_BOUND('',#236,.T.);
#238=ADVANCED_FACE('',(#237),#233,.T.);
#239=CARTESIAN_POINT('',(-1.27,-1.270000000000002,-23.699999999999999));
#240=DIRECTION('',(0.0,0.0,-1.0));
#241=DIRECTION('',(1.0,0.0,0.0));
#242=AXIS2_PLACEMENT_3D('',#239,#240,#241);
#243=PLANE('',#242);
#244=ORIENTED_EDGE('',*,*,#224,.T.);
#245=ORIENTED_EDGE('',*,*,#185,.T.);
#246=EDGE_LOOP('',(#244,#245));
#247=FACE_OUTER_BOUND('',#246,.T.);
#248=ADVANCED_FACE('',(#247),#243,.T.);
#249=CLOSED_SHELL('',(#204,#228,#238,#248));
#250=MANIFOLD_SOLID_BREP('1FD7',#249);
#251=STYLED_ITEM('NONE',(#159),#250);
#252=CARTESIAN_POINT('',(1.27,1.269999999999998,-21.199999999999999));
#253=DIRECTION('',(0.0,-1.224647E-016,-1.0));
#254=DIRECTION('',(1.0,0.0,0.0));
#255=AXIS2_PLACEMENT_3D('',#252,#253,#254);
#256=CYLINDRICAL_SURFACE('',#255,0.25);
#257=CARTESIAN_POINT('',(1.52,1.269999999999998,-23.699999999999999));
#258=VERTEX_POINT('',#257);
#259=CARTESIAN_POINT('',(1.52,1.269999999999999,-18.699999999999999));
#260=VERTEX_POINT('',#259);
#261=CARTESIAN_POINT('',(1.52,1.269999999999998,-23.699999999999999));
#262=DIRECTION('',(0.0,0.0,1.0));
#263=VECTOR('',#262,5.0);
#264=LINE('',#261,#263);
#265=EDGE_CURVE('',#258,#260,#264,.T.);
#266=ORIENTED_EDGE('',*,*,#265,.F.);
#267=CARTESIAN_POINT('',(1.02,1.269999999999998,-23.699999999999999));
#268=VERTEX_POINT('',#267);
#269=CARTESIAN_POINT('',(1.27,1.269999999999998,-23.699999999999999));
#270=DIRECTION('',(0.0,0.0,-1.0));
#271=DIRECTION('',(1.0,0.0,0.0));
#272=AXIS2_PLACEMENT_3D('',#269,#270,#271);
#273=CIRCLE('',#272,0.25);
#274=EDGE_CURVE('',#268,#258,#273,.T.);
#275=ORIENTED_EDGE('',*,*,#274,.F.);
#276=CARTESIAN_POINT('',(1.02,1.269999999999999,-18.699999999999999));
#277=VERTEX_POINT('',#276);
#278=CARTESIAN_POINT('',(1.02,1.269999999999998,-23.699999999999999));
#279=DIRECTION('',(0.0,0.0,1.0));
#280=VECTOR('',#279,5.0);
#281=LINE('',#278,#280);
#282=EDGE_CURVE('',#268,#277,#281,.T.);
#283=ORIENTED_EDGE('',*,*,#282,.T.);
#284=CARTESIAN_POINT('',(1.27,1.269999999999999,-18.699999999999999));
#285=DIRECTION('',(0.0,0.0,1.0));
#286=DIRECTION('',(1.0,0.0,0.0));
#287=AXIS2_PLACEMENT_3D('',#284,#285,#286);
#288=CIRCLE('',#287,0.25);
#289=EDGE_CURVE('',#260,#277,#288,.T.);
#290=ORIENTED_EDGE('',*,*,#289,.F.);
#291=EDGE_LOOP('',(#266,#275,#283,#290));
#292=FACE_OUTER_BOUND('',#291,.T.);
#293=ADVANCED_FACE('',(#292),#256,.T.);
#294=CARTESIAN_POINT('',(1.27,1.269999999999998,-21.199999999999999));
#295=DIRECTION('',(0.0,-1.224647E-016,-1.0));
#296=DIRECTION('',(1.0,0.0,0.0));
#297=AXIS2_PLACEMENT_3D('',#294,#295,#296);
#298=CYLINDRICAL_SURFACE('',#297,0.25);
#299=ORIENTED_EDGE('',*,*,#265,.T.);
#300=CARTESIAN_POINT('',(1.27,1.269999999999999,-18.699999999999999));
#301=DIRECTION('',(0.0,0.0,1.0));
#302=DIRECTION('',(1.0,0.0,0.0));
#303=AXIS2_PLACEMENT_3D('',#300,#301,#302);
#304=CIRCLE('',#303,0.25);
#305=EDGE_CURVE('',#277,#260,#304,.T.);
#306=ORIENTED_EDGE('',*,*,#305,.F.);
#307=ORIENTED_EDGE('',*,*,#282,.F.);
#308=CARTESIAN_POINT('',(1.27,1.269999999999998,-23.699999999999999));
#309=DIRECTION('',(0.0,0.0,-1.0));
#310=DIRECTION('',(1.0,0.0,0.0));
#311=AXIS2_PLACEMENT_3D('',#308,#309,#310);
#312=CIRCLE('',#311,0.25);
#313=EDGE_CURVE('',#258,#268,#312,.T.);
#314=ORIENTED_EDGE('',*,*,#313,.F.);
#315=EDGE_LOOP('',(#299,#306,#307,#314));
#316=FACE_OUTER_BOUND('',#315,.T.);
#317=ADVANCED_FACE('',(#316),#298,.T.);
#318=CARTESIAN_POINT('',(1.27,1.269999999999999,-18.699999999999999));
#319=DIRECTION('',(0.0,0.0,1.0));
#320=DIRECTION('',(-1.0,0.0,0.0));
#321=AXIS2_PLACEMENT_3D('',#318,#319,#320);
#322=PLANE('',#321);
#323=ORIENTED_EDGE('',*,*,#289,.T.);
#324=ORIENTED_EDGE('',*,*,#305,.T.);
#325=EDGE_LOOP('',(#323,#324));
#326=FACE_OUTER_BOUND('',#325,.T.);
#327=ADVANCED_FACE('',(#326),#322,.T.);
#328=CARTESIAN_POINT('',(1.27,1.269999999999998,-23.699999999999999));
#329=DIRECTION('',(0.0,0.0,-1.0));
#330=DIRECTION('',(1.0,0.0,0.0));
#331=AXIS2_PLACEMENT_3D('',#328,#329,#330);
#332=PLANE('',#331);
#333=ORIENTED_EDGE('',*,*,#313,.T.);
#334=ORIENTED_EDGE('',*,*,#274,.T.);
#335=EDGE_LOOP('',(#333,#334));
#336=FACE_OUTER_BOUND('',#335,.T.);
#337=ADVANCED_FACE('',(#336),#332,.T.);
#338=CLOSED_SHELL('',(#293,#317,#327,#337));
#339=MANIFOLD_SOLID_BREP('1FA9',#338);
#340=STYLED_ITEM('NONE',(#159),#339);
#341=CARTESIAN_POINT('',(-1.27,1.269999999999999,-21.199999999999999));
#342=DIRECTION('',(0.0,-1.224647E-016,-1.0));
#343=DIRECTION('',(1.0,0.0,0.0));
#344=AXIS2_PLACEMENT_3D('',#341,#342,#343);
#345=CYLINDRICAL_SURFACE('',#344,0.25);
#346=CARTESIAN_POINT('',(-1.02,1.269999999999998,-23.699999999999999));
#347=VERTEX_POINT('',#346);
#348=CARTESIAN_POINT('',(-1.02,1.269999999999999,-18.699999999999999));
#349=VERTEX_POINT('',#348);
#350=CARTESIAN_POINT('',(-1.02,1.269999999999998,-23.699999999999999));
#351=DIRECTION('',(0.0,0.0,1.0));
#352=VECTOR('',#351,5.0);
#353=LINE('',#350,#352);
#354=EDGE_CURVE('',#347,#349,#353,.T.);
#355=ORIENTED_EDGE('',*,*,#354,.F.);
#356=CARTESIAN_POINT('',(-1.52,1.269999999999998,-23.699999999999999));
#357=VERTEX_POINT('',#356);
#358=CARTESIAN_POINT('',(-1.27,1.269999999999998,-23.699999999999999));
#359=DIRECTION('',(0.0,0.0,-1.0));
#360=DIRECTION('',(1.0,0.0,0.0));
#361=AXIS2_PLACEMENT_3D('',#358,#359,#360);
#362=CIRCLE('',#361,0.25);
#363=EDGE_CURVE('',#357,#347,#362,.T.);
#364=ORIENTED_EDGE('',*,*,#363,.F.);
#365=CARTESIAN_POINT('',(-1.52,1.269999999999999,-18.699999999999999));
#366=VERTEX_POINT('',#365);
#367=CARTESIAN_POINT('',(-1.52,1.269999999999998,-23.699999999999999));
#368=DIRECTION('',(0.0,0.0,1.0));
#369=VECTOR('',#368,5.0);
#370=LINE('',#367,#369);
#371=EDGE_CURVE('',#357,#366,#370,.T.);
#372=ORIENTED_EDGE('',*,*,#371,.T.);
#373=CARTESIAN_POINT('',(-1.27,1.269999999999999,-18.699999999999999));
#374=DIRECTION('',(0.0,0.0,1.0));
#375=DIRECTION('',(1.0,0.0,0.0));
#376=AXIS2_PLACEMENT_3D('',#373,#374,#375);
#377=CIRCLE('',#376,0.25);
#378=EDGE_CURVE('',#349,#366,#377,.T.);
#379=ORIENTED_EDGE('',*,*,#378,.F.);
#380=EDGE_LOOP('',(#355,#364,#372,#379));
#381=FACE_OUTER_BOUND('',#380,.T.);
#382=ADVANCED_FACE('',(#381),#345,.T.);
#383=CARTESIAN_POINT('',(-1.27,1.269999999999999,-21.199999999999999));
#384=DIRECTION('',(0.0,-1.224647E-016,-1.0));
#385=DIRECTION('',(1.0,0.0,0.0));
#386=AXIS2_PLACEMENT_3D('',#383,#384,#385);
#387=CYLINDRICAL_SURFACE('',#386,0.25);
#388=ORIENTED_EDGE('',*,*,#354,.T.);
#389=CARTESIAN_POINT('',(-1.27,1.269999999999999,-18.699999999999999));
#390=DIRECTION('',(0.0,0.0,1.0));
#391=DIRECTION('',(1.0,0.0,0.0));
#392=AXIS2_PLACEMENT_3D('',#389,#390,#391);
#393=CIRCLE('',#392,0.25);
#394=EDGE_CURVE('',#366,#349,#393,.T.);
#395=ORIENTED_EDGE('',*,*,#394,.F.);
#396=ORIENTED_EDGE('',*,*,#371,.F.);
#397=CARTESIAN_POINT('',(-1.27,1.269999999999998,-23.699999999999999));
#398=DIRECTION('',(0.0,0.0,-1.0));
#399=DIRECTION('',(1.0,0.0,0.0));
#400=AXIS2_PLACEMENT_3D('',#397,#398,#399);
#401=CIRCLE('',#400,0.25);
#402=EDGE_CURVE('',#347,#357,#401,.T.);
#403=ORIENTED_EDGE('',*,*,#402,.F.);
#404=EDGE_LOOP('',(#388,#395,#396,#403));
#405=FACE_OUTER_BOUND('',#404,.T.);
#406=ADVANCED_FACE('',(#405),#387,.T.);
#407=CARTESIAN_POINT('',(-1.27,1.269999999999999,-18.699999999999999));
#408=DIRECTION('',(0.0,0.0,1.0));
#409=DIRECTION('',(-1.0,0.0,0.0));
#410=AXIS2_PLACEMENT_3D('',#407,#408,#409);
#411=PLANE('',#410);
#412=ORIENTED_EDGE('',*,*,#378,.T.);
#413=ORIENTED_EDGE('',*,*,#394,.T.);
#414=EDGE_LOOP('',(#412,#413));
#415=FACE_OUTER_BOUND('',#414,.T.);
#416=ADVANCED_FACE('',(#415),#411,.T.);
#417=CARTESIAN_POINT('',(-1.27,1.269999999999998,-23.699999999999999));
#418=DIRECTION('',(0.0,0.0,-1.0));
#419=DIRECTION('',(1.0,0.0,0.0));
#420=AXIS2_PLACEMENT_3D('',#417,#418,#419);
#421=PLANE('',#420);
#422=ORIENTED_EDGE('',*,*,#402,.T.);
#423=ORIENTED_EDGE('',*,*,#363,.T.);
#424=EDGE_LOOP('',(#422,#423));
#425=FACE_OUTER_BOUND('',#424,.T.);
#426=ADVANCED_FACE('',(#425),#421,.T.);
#427=CLOSED_SHELL('',(#382,#406,#416,#426));
#428=MANIFOLD_SOLID_BREP('1F7B',#427);
#429=STYLED_ITEM('NONE',(#159),#428);
#430=ADVANCED_BREP_SHAPE_REPRESENTATION('ABSR1',(#152,#250,#339,#428),#28);
#431=SHAPE_REPRESENTATION_RELATIONSHIP('SRRPL1','',#430,#62);
ENDSEC;
END-ISO-10303-21;
