ISO-10303-21;
HEADER;
/****************************************************************
 * Generated by software with PDElib inside                    *
 * PDElib Version v51a, created Fri 09/10/2010                  *
 * ITI Transcendata (http://www.transcendata.com/)              *
 ****************************************************************/
FILE_DESCRIPTION((''),'2;1');
FILE_NAME('LEMO_ECP.0S.302.CLN_Part2.stp','2013-03-20T13:11:41',(''),(''),'Mechanical Desktop 2011','Mechanical Desktop 2011',', , ');
FILE_SCHEMA(('AUTOMOTIVE_DESIGN { 1 2 10303 214 1 1 1 1 }'));
ENDSEC;
DATA;
#10=(NAMED_UNIT(*)PLANE_ANGLE_UNIT()SI_UNIT($,.RADIAN.));
#11=DIMENSIONAL_EXPONENTS(0.0,0.0,0.0,0.0,0.0,0.0,0.0);
#12=PLANE_ANGLE_MEASURE_WITH_UNIT(PLANE_ANGLE_MEASURE(0.0174532925),#10);
#16=(CONVERSION_BASED_UNIT('DEGREE',#12)NAMED_UNIT(#11)PLANE_ANGLE_UNIT());
#20=(NAMED_UNIT(*)SI_UNIT($,.STERADIAN.)SOLID_ANGLE_UNIT());
#24=(LENGTH_UNIT()NAMED_UNIT(*)SI_UNIT(.MILLI.,.METRE.));
#26=UNCERTAINTY_MEASURE_WITH_UNIT(LENGTH_MEASURE(0.000001),#24,'DISTANCE_ACCURACY_VALUE','');
#28=(GEOMETRIC_REPRESENTATION_CONTEXT(3)GLOBAL_UNCERTAINTY_ASSIGNED_CONTEXT((#26))GLOBAL_UNIT_ASSIGNED_CONTEXT((#16,#20,#24))REPRESENTATION_CONTEXT('','3D'));
#29=APPLICATION_CONTEXT('automotive design');
#30=APPLICATION_PROTOCOL_DEFINITION('INTERNATIONAL_STANDARD','automotive_design',1998,#29);
#31=PRODUCT_CONTEXT('3D Mechanical Parts',#29,'mechanical');
#32=PRODUCT('Product','Product','',(#31));
#33=PRODUCT_RELATED_PRODUCT_CATEGORY('part',$,(#32));
#34=PRODUCT_CATEGORY('part',$);
#35=PERSON('1','Design','Joe',$,$,$);
#36=ORGANIZATION($,'None','None');
#37=PERSON_AND_ORGANIZATION(#35,#36);
#38=PERSON_AND_ORGANIZATION_ROLE('design_owner');
#39=APPLIED_PERSON_AND_ORGANIZATION_ASSIGNMENT(#37,#38,(#32));
#40=PRODUCT_DEFINITION_FORMATION_WITH_SPECIFIED_SOURCE('None','',#32,.BOUGHT.);
#41=PERSON('2','Creator','Joe',$,$,$);
#42=ORGANIZATION($,'None','None');
#43=PERSON_AND_ORGANIZATION(#41,#42);
#44=PERSON_AND_ORGANIZATION_ROLE('creator');
#45=APPLIED_PERSON_AND_ORGANIZATION_ASSIGNMENT(#43,#44,(#40));
#46=PERSON('3','Supplier','Joe',$,$,$);
#47=ORGANIZATION($,'None','None');
#48=PERSON_AND_ORGANIZATION(#46,#47);
#49=PERSON_AND_ORGANIZATION_ROLE('design_supplier');
#50=APPLIED_PERSON_AND_ORGANIZATION_ASSIGNMENT(#48,#49,(#40));
#51=PRODUCT_DEFINITION_CONTEXT('part definition',#29,'design');
#52=PRODUCT_DEFINITION('None','',#40,#51);
#53=PERSON('4','Creator','Joe',$,$,$);
#54=ORGANIZATION($,'None','None');
#55=PERSON_AND_ORGANIZATION(#53,#54);
#56=PERSON_AND_ORGANIZATION_ROLE('creator');
#57=APPLIED_PERSON_AND_ORGANIZATION_ASSIGNMENT(#55,#56,(#52));
#58=CARTESIAN_POINT('NONE',(0.0,0.0,0.0));
#59=DIRECTION('NONE',(0.0,0.0,1.0));
#60=DIRECTION('NONE',(1.0,0.0,0.0));
#61=AXIS2_PLACEMENT_3D('NONE',#58,#59,#60);
#62=SHAPE_REPRESENTATION('SR1',(#61),#28);
#63=PRODUCT_DEFINITION_SHAPE('PDS1','Test Part',#52);
#64=SHAPE_DEFINITION_REPRESENTATION(#63,#62);
#65=CARTESIAN_POINT('',(4.200000000179489,-6.031695E-016,14.199999999820513));
#66=CARTESIAN_POINT('',(4.599999999820512,-4.745197E-016,14.600000000179495));
#67=CARTESIAN_POINT('',(4.200000000179487,-4.200000000179489,14.199999999820513));
#68=CARTESIAN_POINT('',(4.59999999982051,-4.599999999820512,14.600000000179495));
#69=CARTESIAN_POINT('',(-5.388446E-016,-4.200000000179489,14.199999999820514));
#70=CARTESIAN_POINT('',(-5.388446E-016,-4.599999999820512,14.600000000179497));
#71=CARTESIAN_POINT('',(-4.200000000179489,-4.200000000179487,14.199999999820513));
#72=CARTESIAN_POINT('',(-4.599999999820512,-4.59999999982051,14.600000000179495));
#73=CARTESIAN_POINT('',(-4.200000000179489,4.255338E-016,14.199999999820513));
#74=CARTESIAN_POINT('',(-4.599999999820512,6.521554E-016,14.600000000179495));
#75=CARTESIAN_POINT('',(-4.200000000179487,4.200000000179489,14.199999999820511));
#76=CARTESIAN_POINT('',(-4.59999999982051,4.599999999820512,14.600000000179493));
#77=CARTESIAN_POINT('',(4.898587E-016,4.200000000179489,14.199999999820511));
#78=CARTESIAN_POINT('',(5.878305E-016,4.599999999820512,14.600000000179493));
#79=CARTESIAN_POINT('',(4.200000000179489,4.200000000179487,14.199999999820511));
#80=CARTESIAN_POINT('',(4.599999999820512,4.59999999982051,14.600000000179493));
#81=CARTESIAN_POINT('',(4.200000000179489,-6.031695E-016,14.199999999820513));
#82=CARTESIAN_POINT('',(4.599999999820512,-4.745197E-016,14.600000000179495));
#90=(BOUNDED_SURFACE()B_SPLINE_SURFACE(1,2,((#65,#67,#69,#71,#73,#75,#77,#79,#81),(#66,#68,#70,#72,#74,#76,#78,#80,#82)),.UNSPECIFIED.,.F.,.T.,.U.)B_SPLINE_SURFACE_WITH_KNOTS((2,2),(3,2,2,2,3),(-0.064282434653323,0.064282434653323),(0.0,6.911503837897546,13.823007675795091,20.734511513692635,27.646015351590183),.UNSPECIFIED.)GEOMETRIC_REPRESENTATION_ITEM()RATIONAL_B_SPLINE_SURFACE(((1.0,0.707106781186548,1.0,0.707106781186548,1.0,0.707106781186548,1.0,0.707106781186548,1.0),(1.0,0.707106781186548,1.0,0.707106781186548,1.0,0.707106781186548,1.0,0.707106781186548,1.0)))REPRESENTATION_ITEM('')SURFACE());
#91=CARTESIAN_POINT('',(-4.2,-1.776357E-016,14.200000000000001));
#92=VERTEX_POINT('',#91);
#93=CARTESIAN_POINT('',(-4.599999999820511,8.881784E-017,14.600000000179493));
#94=VERTEX_POINT('',#93);
#95=CARTESIAN_POINT('',(-4.200000000179489,-8.881784E-017,14.199999999820513));
#96=DIRECTION('',(-0.707106780551956,3.140185E-016,0.707106781821139));
#97=VECTOR('',#96,0.56568542494924);
#98=LINE('',#95,#97);
#99=EDGE_CURVE('',#92,#94,#98,.T.);
#100=ORIENTED_EDGE('',*,*,#99,.F.);
#101=CARTESIAN_POINT('',(4.200000000000046,0.0,14.200000000000001));
#102=VERTEX_POINT('',#101);
#103=CARTESIAN_POINT('',(0.0,0.0,14.200000000000001));
#104=DIRECTION('',(0.0,0.0,-1.0));
#105=DIRECTION('',(-1.0,0.0,0.0));
#106=AXIS2_PLACEMENT_3D('',#103,#104,#105);
#107=CIRCLE('',#106,4.2);
#108=EDGE_CURVE('',#92,#102,#107,.T.);
#109=ORIENTED_EDGE('',*,*,#108,.T.);
#110=CARTESIAN_POINT('',(4.600000000000023,0.0,14.600000000000003));
#111=VERTEX_POINT('',#110);
#112=CARTESIAN_POINT('',(4.200000000179511,-6.031695E-016,14.199999999820536));
#113=DIRECTION('',(0.707106780551957,2.274229E-016,0.707106781821138));
#114=VECTOR('',#113,0.565685424949208);
#115=LINE('',#112,#114);
#116=EDGE_CURVE('',#102,#111,#115,.T.);
#117=ORIENTED_EDGE('',*,*,#116,.T.);
#118=CARTESIAN_POINT('',(0.0,0.0,14.600000000000003));
#119=DIRECTION('',(0.0,0.0,1.0));
#120=DIRECTION('',(-1.0,0.0,0.0));
#121=AXIS2_PLACEMENT_3D('',#118,#119,#120);
#122=CIRCLE('',#121,4.600000000000001);
#123=EDGE_CURVE('',#111,#94,#122,.T.);
#124=ORIENTED_EDGE('',*,*,#123,.T.);
#125=EDGE_LOOP('',(#100,#109,#117,#124));
#126=FACE_OUTER_BOUND('',#125,.T.);
#127=ADVANCED_FACE('',(#126),#90,.F.);
#128=CARTESIAN_POINT('',(4.2,3.367160E-016,14.200000000000003));
#129=CARTESIAN_POINT('',(4.2,-4.182357E-016,12.5));
#130=CARTESIAN_POINT('',(4.199999999999998,4.2,14.200000000000001));
#131=CARTESIAN_POINT('',(4.199999999999998,4.199999999999999,12.499999999999996));
#132=CARTESIAN_POINT('',(-5.633375E-016,4.2,14.200000000000001));
#133=CARTESIAN_POINT('',(-7.715275E-016,4.199999999999999,12.499999999999998));
#134=CARTESIAN_POINT('',(-4.2,4.199999999999998,14.200000000000001));
#135=CARTESIAN_POINT('',(-4.2,4.199999999999998,12.499999999999996));
#136=CARTESIAN_POINT('',(-4.2,-6.919873E-016,14.200000000000003));
#137=CARTESIAN_POINT('',(-4.2,-1.446939E-015,12.5));
#138=CARTESIAN_POINT('',(-4.199999999999998,-4.2,14.200000000000003));
#139=CARTESIAN_POINT('',(-4.199999999999999,-4.200000000000001,12.500000000000002));
#140=CARTESIAN_POINT('',(4.653658E-016,-4.2,14.200000000000005));
#141=CARTESIAN_POINT('',(2.571758E-016,-4.200000000000001,12.500000000000002));
#142=CARTESIAN_POINT('',(4.2,-4.199999999999998,14.200000000000003));
#143=CARTESIAN_POINT('',(4.199999999999999,-4.199999999999999,12.500000000000002));
#144=CARTESIAN_POINT('',(4.2,3.367160E-016,14.200000000000003));
#145=CARTESIAN_POINT('',(4.2,-4.182357E-016,12.5));
#153=(BOUNDED_SURFACE()B_SPLINE_SURFACE(1,2,((#128,#130,#132,#134,#136,#138,#140,#142,#144),(#129,#131,#133,#135,#137,#139,#141,#143,#145)),.UNSPECIFIED.,.F.,.T.,.U.)B_SPLINE_SURFACE_WITH_KNOTS((2,2),(3,2,2,2,3),(0.095238095238095,0.500000000000001),(0.0,6.597344572538566,13.194689145077131,19.792033717615698,26.389378290154262),.UNSPECIFIED.)GEOMETRIC_REPRESENTATION_ITEM()RATIONAL_B_SPLINE_SURFACE(((1.0,0.707106781186548,1.0,0.707106781186548,1.0,0.707106781186548,1.0,0.707106781186548,1.0),(1.0,0.707106781186548,1.0,0.707106781186548,1.0,0.707106781186548,1.0,0.707106781186548,1.0)))REPRESENTATION_ITEM('')SURFACE());
#154=CARTESIAN_POINT('',(-4.20000000017949,8.881784E-017,12.500000000179492));
#155=VERTEX_POINT('',#154);
#156=CARTESIAN_POINT('',(-4.2,-1.776357E-016,14.200000000000001));
#157=DIRECTION('',(0.0,0.0,-1.0));
#158=VECTOR('',#157,1.699999999820509);
#159=LINE('',#156,#158);
#160=EDGE_CURVE('',#92,#155,#159,.T.);
#161=ORIENTED_EDGE('',*,*,#160,.F.);
#162=CARTESIAN_POINT('',(0.0,0.0,14.200000000000001));
#163=DIRECTION('',(0.0,0.0,-1.0));
#164=DIRECTION('',(-1.0,0.0,0.0));
#165=AXIS2_PLACEMENT_3D('',#162,#163,#164);
#166=CIRCLE('',#165,4.2);
#167=EDGE_CURVE('',#102,#92,#166,.T.);
#168=ORIENTED_EDGE('',*,*,#167,.F.);
#169=CARTESIAN_POINT('',(4.200000000000046,0.0,12.500000000000002));
#170=VERTEX_POINT('',#169);
#171=CARTESIAN_POINT('',(4.2,3.367160E-016,14.200000000000001));
#172=DIRECTION('',(0.0,0.0,-1.0));
#173=VECTOR('',#172,1.699999999999999);
#174=LINE('',#171,#173);
#175=EDGE_CURVE('',#102,#170,#174,.T.);
#176=ORIENTED_EDGE('',*,*,#175,.T.);
#177=CARTESIAN_POINT('',(0.0,0.0,12.500000000000002));
#178=DIRECTION('',(0.0,0.0,1.0));
#179=DIRECTION('',(-1.0,0.0,0.0));
#180=AXIS2_PLACEMENT_3D('',#177,#178,#179);
#181=CIRCLE('',#180,4.2);
#182=EDGE_CURVE('',#155,#170,#181,.T.);
#183=ORIENTED_EDGE('',*,*,#182,.F.);
#184=EDGE_LOOP('',(#161,#168,#176,#183));
#185=FACE_OUTER_BOUND('',#184,.T.);
#186=ADVANCED_FACE('',(#185),#153,.F.);
#187=CARTESIAN_POINT('',(4.20000000017949,6.031695E-016,12.500000000179492));
#188=CARTESIAN_POINT('',(4.599999999820512,4.745197E-016,12.099999999820511));
#189=CARTESIAN_POINT('',(4.200000000179489,4.20000000017949,12.50000000017949));
#190=CARTESIAN_POINT('',(4.59999999982051,4.599999999820512,12.099999999820509));
#191=CARTESIAN_POINT('',(-4.898587E-016,4.20000000017949,12.50000000017949));
#192=CARTESIAN_POINT('',(-5.878305E-016,4.599999999820512,12.099999999820509));
#193=CARTESIAN_POINT('',(-4.20000000017949,4.200000000179489,12.50000000017949));
#194=CARTESIAN_POINT('',(-4.599999999820512,4.59999999982051,12.099999999820509));
#195=CARTESIAN_POINT('',(-4.20000000017949,-4.255338E-016,12.500000000179492));
#196=CARTESIAN_POINT('',(-4.599999999820512,-6.521554E-016,12.099999999820511));
#197=CARTESIAN_POINT('',(-4.200000000179489,-4.20000000017949,12.500000000179492));
#198=CARTESIAN_POINT('',(-4.59999999982051,-4.599999999820512,12.099999999820513));
#199=CARTESIAN_POINT('',(5.388446E-016,-4.20000000017949,12.500000000179494));
#200=CARTESIAN_POINT('',(5.388446E-016,-4.599999999820512,12.099999999820513));
#201=CARTESIAN_POINT('',(4.20000000017949,-4.200000000179489,12.500000000179492));
#202=CARTESIAN_POINT('',(4.599999999820512,-4.59999999982051,12.099999999820513));
#203=CARTESIAN_POINT('',(4.20000000017949,6.031695E-016,12.500000000179492));
#204=CARTESIAN_POINT('',(4.599999999820512,4.745197E-016,12.099999999820511));
#212=(BOUNDED_SURFACE()B_SPLINE_SURFACE(1,2,((#187,#189,#191,#193,#195,#197,#199,#201,#203),(#188,#190,#192,#194,#196,#198,#200,#202,#204)),.UNSPECIFIED.,.F.,.T.,.U.)B_SPLINE_SURFACE_WITH_KNOTS((2,2),(3,2,2,2,3),(-0.064282434653322,0.064282434653323),(0.0,6.911503837897546,13.823007675795091,20.734511513692635,27.646015351590183),.UNSPECIFIED.)GEOMETRIC_REPRESENTATION_ITEM()RATIONAL_B_SPLINE_SURFACE(((1.0,0.707106781186548,1.0,0.707106781186548,1.0,0.707106781186548,1.0,0.707106781186548,1.0),(1.0,0.707106781186548,1.0,0.707106781186548,1.0,0.707106781186548,1.0,0.707106781186548,1.0)))REPRESENTATION_ITEM('')SURFACE());
#213=CARTESIAN_POINT('',(-4.59999999982051,-8.881784E-017,12.099999999820513));
#214=VERTEX_POINT('',#213);
#215=CARTESIAN_POINT('',(-4.20000000017949,8.881784E-017,12.500000000179492));
#216=DIRECTION('',(-0.707106780551955,-3.140185E-016,-0.70710678182114));
#217=VECTOR('',#216,0.565685424949237);
#218=LINE('',#215,#217);
#219=EDGE_CURVE('',#155,#214,#218,.T.);
#220=ORIENTED_EDGE('',*,*,#219,.F.);
#221=ORIENTED_EDGE('',*,*,#182,.T.);
#222=CARTESIAN_POINT('',(4.600000000000023,0.0,12.100000000000003));
#223=VERTEX_POINT('',#222);
#224=CARTESIAN_POINT('',(4.200000000179513,6.031695E-016,12.500000000179469));
#225=DIRECTION('',(0.707106780551956,-2.274229E-016,-0.707106781821139));
#226=VECTOR('',#225,0.565685424949205);
#227=LINE('',#224,#226);
#228=EDGE_CURVE('',#170,#223,#227,.T.);
#229=ORIENTED_EDGE('',*,*,#228,.T.);
#230=CARTESIAN_POINT('',(0.0,0.0,12.100000000000003));
#231=DIRECTION('',(0.0,0.0,-1.0));
#232=DIRECTION('',(-1.0,0.0,0.0));
#233=AXIS2_PLACEMENT_3D('',#230,#231,#232);
#234=CIRCLE('',#233,4.600000000000001);
#235=EDGE_CURVE('',#223,#214,#234,.T.);
#236=ORIENTED_EDGE('',*,*,#235,.T.);
#237=EDGE_LOOP('',(#220,#221,#229,#236));
#238=FACE_OUTER_BOUND('',#237,.T.);
#239=ADVANCED_FACE('',(#238),#212,.F.);
#240=CARTESIAN_POINT('',(4.200000000179489,6.031695E-016,12.500000000179494));
#241=CARTESIAN_POINT('',(4.59999999982051,4.745197E-016,12.099999999820513));
#242=CARTESIAN_POINT('',(4.200000000179487,4.200000000179489,12.500000000179492));
#243=CARTESIAN_POINT('',(4.599999999820509,4.59999999982051,12.099999999820509));
#244=CARTESIAN_POINT('',(-4.898587E-016,4.200000000179489,12.500000000179492));
#245=CARTESIAN_POINT('',(-5.878305E-016,4.59999999982051,12.099999999820511));
#246=CARTESIAN_POINT('',(-4.200000000179489,4.200000000179487,12.500000000179492));
#247=CARTESIAN_POINT('',(-4.59999999982051,4.599999999820509,12.099999999820509));
#248=CARTESIAN_POINT('',(-4.200000000179489,-4.255338E-016,12.500000000179494));
#249=CARTESIAN_POINT('',(-4.59999999982051,-6.521554E-016,12.099999999820513));
#250=CARTESIAN_POINT('',(-4.200000000179487,-4.200000000179489,12.500000000179496));
#251=CARTESIAN_POINT('',(-4.599999999820509,-4.59999999982051,12.099999999820515));
#252=CARTESIAN_POINT('',(5.388446E-016,-4.200000000179489,12.500000000179496));
#253=CARTESIAN_POINT('',(5.388446E-016,-4.59999999982051,12.099999999820515));
#254=CARTESIAN_POINT('',(4.200000000179489,-4.200000000179487,12.500000000179496));
#255=CARTESIAN_POINT('',(4.59999999982051,-4.599999999820509,12.099999999820515));
#256=CARTESIAN_POINT('',(4.200000000179489,6.031695E-016,12.500000000179494));
#257=CARTESIAN_POINT('',(4.59999999982051,4.745197E-016,12.099999999820513));
#265=(BOUNDED_SURFACE()B_SPLINE_SURFACE(1,2,((#240,#242,#244,#246,#248,#250,#252,#254,#256),(#241,#243,#245,#247,#249,#251,#253,#255,#257)),.UNSPECIFIED.,.F.,.T.,.U.)B_SPLINE_SURFACE_WITH_KNOTS((2,2),(3,2,2,2,3),(-0.064282434653323,0.064282434653322),(0.0,6.911503837897546,13.823007675795091,20.734511513692635,27.646015351590183),.UNSPECIFIED.)GEOMETRIC_REPRESENTATION_ITEM()RATIONAL_B_SPLINE_SURFACE(((1.0,0.707106781186548,1.0,0.707106781186548,1.0,0.707106781186548,1.0,0.707106781186548,1.0),(1.0,0.707106781186548,1.0,0.707106781186548,1.0,0.707106781186548,1.0,0.707106781186548,1.0)))REPRESENTATION_ITEM('')SURFACE());
#266=ORIENTED_EDGE('',*,*,#219,.T.);
#267=CARTESIAN_POINT('',(0.0,0.0,12.100000000000003));
#268=DIRECTION('',(0.0,0.0,-1.0));
#269=DIRECTION('',(-1.0,0.0,0.0));
#270=AXIS2_PLACEMENT_3D('',#267,#268,#269);
#271=CIRCLE('',#270,4.600000000000001);
#272=EDGE_CURVE('',#214,#223,#271,.T.);
#273=ORIENTED_EDGE('',*,*,#272,.T.);
#274=ORIENTED_EDGE('',*,*,#228,.F.);
#275=CARTESIAN_POINT('',(0.0,0.0,12.500000000000002));
#276=DIRECTION('',(0.0,0.0,1.0));
#277=DIRECTION('',(-1.0,0.0,0.0));
#278=AXIS2_PLACEMENT_3D('',#275,#276,#277);
#279=CIRCLE('',#278,4.2);
#280=EDGE_CURVE('',#170,#155,#279,.T.);
#281=ORIENTED_EDGE('',*,*,#280,.T.);
#282=EDGE_LOOP('',(#266,#273,#274,#281));
#283=FACE_OUTER_BOUND('',#282,.T.);
#284=ADVANCED_FACE('',(#283),#265,.F.);
#285=CARTESIAN_POINT('',(4.2,3.367160E-016,14.200000000000003));
#286=CARTESIAN_POINT('',(4.2,-4.182357E-016,12.5));
#287=CARTESIAN_POINT('',(4.199999999999998,4.2,14.200000000000001));
#288=CARTESIAN_POINT('',(4.199999999999998,4.199999999999999,12.499999999999996));
#289=CARTESIAN_POINT('',(-5.633375E-016,4.2,14.200000000000001));
#290=CARTESIAN_POINT('',(-7.715275E-016,4.199999999999999,12.499999999999998));
#291=CARTESIAN_POINT('',(-4.2,4.199999999999998,14.200000000000001));
#292=CARTESIAN_POINT('',(-4.2,4.199999999999998,12.499999999999996));
#293=CARTESIAN_POINT('',(-4.2,-6.919873E-016,14.200000000000003));
#294=CARTESIAN_POINT('',(-4.2,-1.446939E-015,12.5));
#295=CARTESIAN_POINT('',(-4.199999999999998,-4.2,14.200000000000003));
#296=CARTESIAN_POINT('',(-4.199999999999999,-4.200000000000001,12.500000000000002));
#297=CARTESIAN_POINT('',(4.653658E-016,-4.2,14.200000000000005));
#298=CARTESIAN_POINT('',(2.571758E-016,-4.200000000000001,12.500000000000002));
#299=CARTESIAN_POINT('',(4.2,-4.199999999999998,14.200000000000003));
#300=CARTESIAN_POINT('',(4.199999999999999,-4.199999999999999,12.500000000000002));
#301=CARTESIAN_POINT('',(4.2,3.367160E-016,14.200000000000003));
#302=CARTESIAN_POINT('',(4.2,-4.182357E-016,12.5));
#310=(BOUNDED_SURFACE()B_SPLINE_SURFACE(1,2,((#285,#287,#289,#291,#293,#295,#297,#299,#301),(#286,#288,#290,#292,#294,#296,#298,#300,#302)),.UNSPECIFIED.,.F.,.T.,.U.)B_SPLINE_SURFACE_WITH_KNOTS((2,2),(3,2,2,2,3),(0.095238095238095,0.500000000000001),(0.0,6.597344572538566,13.194689145077131,19.792033717615698,26.389378290154262),.UNSPECIFIED.)GEOMETRIC_REPRESENTATION_ITEM()RATIONAL_B_SPLINE_SURFACE(((1.0,0.707106781186548,1.0,0.707106781186548,1.0,0.707106781186548,1.0,0.707106781186548,1.0),(1.0,0.707106781186548,1.0,0.707106781186548,1.0,0.707106781186548,1.0,0.707106781186548,1.0)))REPRESENTATION_ITEM('')SURFACE());
#311=ORIENTED_EDGE('',*,*,#160,.T.);
#312=ORIENTED_EDGE('',*,*,#280,.F.);
#313=ORIENTED_EDGE('',*,*,#175,.F.);
#314=ORIENTED_EDGE('',*,*,#108,.F.);
#315=EDGE_LOOP('',(#311,#312,#313,#314));
#316=FACE_OUTER_BOUND('',#315,.T.);
#317=ADVANCED_FACE('',(#316),#310,.F.);
#318=CARTESIAN_POINT('',(0.0,0.0,12.100000000000003));
#319=DIRECTION('',(0.0,0.0,-1.0));
#320=DIRECTION('',(0.0,-1.0,0.0));
#321=AXIS2_PLACEMENT_3D('',#318,#319,#320);
#322=PLANE('',#321);
#323=CARTESIAN_POINT('',(5.952940449895436,0.75,12.100000000000003));
#324=VERTEX_POINT('',#323);
#325=CARTESIAN_POINT('',(5.196152422706632,0.75,12.100000000000003));
#326=VERTEX_POINT('',#325);
#327=CARTESIAN_POINT('',(5.952940449895436,0.75,12.100000000000003));
#328=DIRECTION('',(-1.0,0.0,0.0));
#329=VECTOR('',#328,0.756788027188696);
#330=LINE('',#327,#329);
#331=EDGE_CURVE('',#324,#326,#330,.T.);
#332=ORIENTED_EDGE('',*,*,#331,.T.);
#333=CARTESIAN_POINT('',(5.196152422706632,-0.75,12.100000000000003));
#334=VERTEX_POINT('',#333);
#335=CARTESIAN_POINT('',(0.0,0.0,12.100000000000003));
#336=DIRECTION('',(-5.717478E-017,8.252469E-018,-1.0));
#337=DIRECTION('',(-0.989743318610787,0.142857142857145,5.776728E-017));
#338=AXIS2_PLACEMENT_3D('',#335,#336,#337);
#339=CIRCLE('',#338,5.249999999999999);
#340=EDGE_CURVE('',#326,#334,#339,.T.);
#341=ORIENTED_EDGE('',*,*,#340,.T.);
#342=CARTESIAN_POINT('',(5.952940449895436,-0.75,12.100000000000003));
#343=VERTEX_POINT('',#342);
#344=CARTESIAN_POINT('',(5.196152422706632,-0.75,12.100000000000003));
#345=DIRECTION('',(1.0,0.0,0.0));
#346=VECTOR('',#345,0.756788027188697);
#347=LINE('',#344,#346);
#348=EDGE_CURVE('',#334,#343,#347,.T.);
#349=ORIENTED_EDGE('',*,*,#348,.T.);
#350=CARTESIAN_POINT('',(0.75,-5.952940449895323,12.100000000000007));
#351=VERTEX_POINT('',#350);
#352=CARTESIAN_POINT('',(0.0,0.0,12.100000000000003));
#353=DIRECTION('',(0.0,0.0,-1.0));
#354=DIRECTION('',(-1.0,0.0,0.0));
#355=AXIS2_PLACEMENT_3D('',#352,#353,#354);
#356=CIRCLE('',#355,6.000000000000001);
#357=EDGE_CURVE('',#343,#351,#356,.T.);
#358=ORIENTED_EDGE('',*,*,#357,.T.);
#359=CARTESIAN_POINT('',(0.75,-5.196152422706632,12.100000000000007));
#360=VERTEX_POINT('',#359);
#361=CARTESIAN_POINT('',(0.75,-5.952940449895323,12.100000000000007));
#362=DIRECTION('',(0.0,1.0,0.0));
#363=VECTOR('',#362,0.756788027188696);
#364=LINE('',#361,#363);
#365=EDGE_CURVE('',#351,#360,#364,.T.);
#366=ORIENTED_EDGE('',*,*,#365,.T.);
#367=CARTESIAN_POINT('',(-0.75,-5.196152422706632,12.100000000000007));
#368=VERTEX_POINT('',#367);
#369=CARTESIAN_POINT('',(0.0,0.0,12.100000000000003));
#370=DIRECTION('',(-6.528990E-017,-4.523417E-016,-1.0));
#371=DIRECTION('',(0.142857142857144,0.989743318610787,-4.570293E-016));
#372=AXIS2_PLACEMENT_3D('',#369,#370,#371);
#373=CIRCLE('',#372,5.250000000000001);
#374=EDGE_CURVE('',#360,#368,#373,.T.);
#375=ORIENTED_EDGE('',*,*,#374,.T.);
#376=CARTESIAN_POINT('',(-0.75,-5.952940449895323,12.100000000000007));
#377=VERTEX_POINT('',#376);
#378=CARTESIAN_POINT('',(-0.75,-5.196152422706632,12.100000000000007));
#379=DIRECTION('',(0.0,-1.0,0.0));
#380=VECTOR('',#379,0.756788027188697);
#381=LINE('',#378,#380);
#382=EDGE_CURVE('',#368,#377,#381,.T.);
#383=ORIENTED_EDGE('',*,*,#382,.T.);
#384=CARTESIAN_POINT('',(-5.952940449895323,-0.75,12.100000000000003));
#385=VERTEX_POINT('',#384);
#386=CARTESIAN_POINT('',(0.0,0.0,12.100000000000003));
#387=DIRECTION('',(0.0,0.0,-1.0));
#388=DIRECTION('',(-1.0,0.0,0.0));
#389=AXIS2_PLACEMENT_3D('',#386,#387,#388);
#390=CIRCLE('',#389,6.000000000000001);
#391=EDGE_CURVE('',#377,#385,#390,.T.);
#392=ORIENTED_EDGE('',*,*,#391,.T.);
#393=CARTESIAN_POINT('',(-5.196152422706632,-0.75,12.100000000000003));
#394=VERTEX_POINT('',#393);
#395=CARTESIAN_POINT('',(-5.952940449895323,-0.75,12.100000000000003));
#396=DIRECTION('',(1.0,0.0,0.0));
#397=VECTOR('',#396,0.756788027188696);
#398=LINE('',#395,#397);
#399=EDGE_CURVE('',#385,#394,#398,.T.);
#400=ORIENTED_EDGE('',*,*,#399,.T.);
#401=CARTESIAN_POINT('',(-5.196152422706632,0.75,12.100000000000003));
#402=VERTEX_POINT('',#401);
#403=CARTESIAN_POINT('',(0.0,0.0,12.100000000000003));
#404=DIRECTION('',(-5.717478E-017,8.252469E-018,-1.0));
#405=DIRECTION('',(0.989743318610787,-0.142857142857145,-5.776728E-017));
#406=AXIS2_PLACEMENT_3D('',#403,#404,#405);
#407=CIRCLE('',#406,5.249999999999999);
#408=EDGE_CURVE('',#394,#402,#407,.T.);
#409=ORIENTED_EDGE('',*,*,#408,.T.);
#410=CARTESIAN_POINT('',(-5.952940449895323,0.75,12.100000000000003));
#411=VERTEX_POINT('',#410);
#412=CARTESIAN_POINT('',(-5.196152422706632,0.75,12.100000000000003));
#413=DIRECTION('',(-1.0,0.0,0.0));
#414=VECTOR('',#413,0.756788027188697);
#415=LINE('',#412,#414);
#416=EDGE_CURVE('',#402,#411,#415,.T.);
#417=ORIENTED_EDGE('',*,*,#416,.T.);
#418=CARTESIAN_POINT('',(-0.749999999999886,5.952940449895323,12.1));
#419=VERTEX_POINT('',#418);
#420=CARTESIAN_POINT('',(0.0,0.0,12.100000000000003));
#421=DIRECTION('',(0.0,0.0,-1.0));
#422=DIRECTION('',(-1.0,0.0,0.0));
#423=AXIS2_PLACEMENT_3D('',#420,#421,#422);
#424=CIRCLE('',#423,6.000000000000001);
#425=EDGE_CURVE('',#411,#419,#424,.T.);
#426=ORIENTED_EDGE('',*,*,#425,.T.);
#427=CARTESIAN_POINT('',(-0.749999999999886,5.196152422706632,12.1));
#428=VERTEX_POINT('',#427);
#429=CARTESIAN_POINT('',(-0.749999999999886,5.952940449895323,12.1));
#430=DIRECTION('',(0.0,-1.0,0.0));
#431=VECTOR('',#430,0.756788027188696);
#432=LINE('',#429,#431);
#433=EDGE_CURVE('',#419,#428,#432,.T.);
#434=ORIENTED_EDGE('',*,*,#433,.T.);
#435=CARTESIAN_POINT('',(0.750000000000114,5.196152422706632,12.1));
#436=VERTEX_POINT('',#435);
#437=CARTESIAN_POINT('',(0.0,0.0,12.100000000000003));
#438=DIRECTION('',(-6.528990E-017,-4.523417E-016,-1.0));
#439=DIRECTION('',(-0.142857142857144,-0.989743318610787,4.570293E-016));
#440=AXIS2_PLACEMENT_3D('',#437,#438,#439);
#441=CIRCLE('',#440,5.250000000000001);
#442=EDGE_CURVE('',#428,#436,#441,.T.);
#443=ORIENTED_EDGE('',*,*,#442,.T.);
#444=CARTESIAN_POINT('',(0.750000000000114,5.952940449895323,12.1));
#445=VERTEX_POINT('',#444);
#446=CARTESIAN_POINT('',(0.750000000000114,5.196152422706632,12.1));
#447=DIRECTION('',(0.0,1.0,0.0));
#448=VECTOR('',#447,0.756788027188697);
#449=LINE('',#446,#448);
#450=EDGE_CURVE('',#436,#445,#449,.T.);
#451=ORIENTED_EDGE('',*,*,#450,.T.);
#452=CARTESIAN_POINT('',(0.0,0.0,12.100000000000003));
#453=DIRECTION('',(0.0,0.0,-1.0));
#454=DIRECTION('',(-1.0,0.0,0.0));
#455=AXIS2_PLACEMENT_3D('',#452,#453,#454);
#456=CIRCLE('',#455,6.000000000000001);
#457=EDGE_CURVE('',#445,#324,#456,.T.);
#458=ORIENTED_EDGE('',*,*,#457,.T.);
#459=EDGE_LOOP('',(#332,#341,#349,#358,#366,#375,#383,#392,#400,#409,#417,#426,#434,#443,#451,#458));
#460=FACE_OUTER_BOUND('',#459,.T.);
#461=ORIENTED_EDGE('',*,*,#235,.F.);
#462=ORIENTED_EDGE('',*,*,#272,.F.);
#463=EDGE_LOOP('',(#461,#462));
#464=FACE_BOUND('',#463,.T.);
#465=ADVANCED_FACE('',(#460,#464),#322,.T.);
#466=CARTESIAN_POINT('',(4.200000000179487,-6.031695E-016,14.199999999820511));
#467=CARTESIAN_POINT('',(4.59999999982051,-4.745197E-016,14.600000000179493));
#468=CARTESIAN_POINT('',(4.200000000179485,-4.200000000179487,14.199999999820513));
#469=CARTESIAN_POINT('',(4.599999999820509,-4.59999999982051,14.600000000179495));
#470=CARTESIAN_POINT('',(-5.388446E-016,-4.200000000179487,14.199999999820513));
#471=CARTESIAN_POINT('',(-5.388446E-016,-4.59999999982051,14.600000000179495));
#472=CARTESIAN_POINT('',(-4.200000000179487,-4.200000000179485,14.199999999820513));
#473=CARTESIAN_POINT('',(-4.59999999982051,-4.599999999820509,14.600000000179495));
#474=CARTESIAN_POINT('',(-4.200000000179487,4.255338E-016,14.199999999820511));
#475=CARTESIAN_POINT('',(-4.59999999982051,6.521554E-016,14.600000000179493));
#476=CARTESIAN_POINT('',(-4.200000000179485,4.200000000179487,14.199999999820507));
#477=CARTESIAN_POINT('',(-4.599999999820509,4.59999999982051,14.600000000179492));
#478=CARTESIAN_POINT('',(4.898587E-016,4.200000000179487,14.199999999820509));
#479=CARTESIAN_POINT('',(5.878305E-016,4.59999999982051,14.600000000179492));
#480=CARTESIAN_POINT('',(4.200000000179487,4.200000000179485,14.199999999820507));
#481=CARTESIAN_POINT('',(4.59999999982051,4.599999999820509,14.600000000179492));
#482=CARTESIAN_POINT('',(4.200000000179487,-6.031695E-016,14.199999999820511));
#483=CARTESIAN_POINT('',(4.59999999982051,-4.745197E-016,14.600000000179493));
#491=(BOUNDED_SURFACE()B_SPLINE_SURFACE(1,2,((#466,#468,#470,#472,#474,#476,#478,#480,#482),(#467,#469,#471,#473,#475,#477,#479,#481,#483)),.UNSPECIFIED.,.F.,.T.,.U.)B_SPLINE_SURFACE_WITH_KNOTS((2,2),(3,2,2,2,3),(-0.064282434653324,0.064282434653322),(0.0,6.911503837897546,13.823007675795091,20.734511513692635,27.646015351590183),.UNSPECIFIED.)GEOMETRIC_REPRESENTATION_ITEM()RATIONAL_B_SPLINE_SURFACE(((1.0,0.707106781186548,1.0,0.707106781186548,1.0,0.707106781186548,1.0,0.707106781186548,1.0),(1.0,0.707106781186548,1.0,0.707106781186548,1.0,0.707106781186548,1.0,0.707106781186548,1.0)))REPRESENTATION_ITEM('')SURFACE());
#492=ORIENTED_EDGE('',*,*,#99,.T.);
#493=CARTESIAN_POINT('',(0.0,0.0,14.600000000000003));
#494=DIRECTION('',(0.0,0.0,1.0));
#495=DIRECTION('',(-1.0,0.0,0.0));
#496=AXIS2_PLACEMENT_3D('',#493,#494,#495);
#497=CIRCLE('',#496,4.600000000000001);
#498=EDGE_CURVE('',#94,#111,#497,.T.);
#499=ORIENTED_EDGE('',*,*,#498,.T.);
#500=ORIENTED_EDGE('',*,*,#116,.F.);
#501=ORIENTED_EDGE('',*,*,#167,.T.);
#502=EDGE_LOOP('',(#492,#499,#500,#501));
#503=FACE_OUTER_BOUND('',#502,.T.);
#504=ADVANCED_FACE('',(#503),#491,.F.);
#505=CARTESIAN_POINT('',(0.0,0.0,14.600000000000003));
#506=DIRECTION('',(0.0,0.0,-1.0));
#507=DIRECTION('',(0.0,-1.0,0.0));
#508=AXIS2_PLACEMENT_3D('',#505,#506,#507);
#509=PLANE('',#508);
#510=CARTESIAN_POINT('',(5.196152422706632,0.75,14.600000000000003));
#511=VERTEX_POINT('',#510);
#512=CARTESIAN_POINT('',(5.283076718969483,0.75,14.600000000000003));
#513=VERTEX_POINT('',#512);
#514=CARTESIAN_POINT('',(5.196152422706632,0.75,14.600000000000003));
#515=DIRECTION('',(1.0,0.0,0.0));
#516=VECTOR('',#515,0.086924296262769);
#517=LINE('',#514,#516);
#518=EDGE_CURVE('',#511,#513,#517,.T.);
#519=ORIENTED_EDGE('',*,*,#518,.T.);
#520=CARTESIAN_POINT('',(0.750000000000114,5.283076718969369,14.6));
#521=VERTEX_POINT('',#520);
#522=CARTESIAN_POINT('',(0.0,0.0,14.600000000000003));
#523=DIRECTION('',(0.0,0.0,1.0));
#524=DIRECTION('',(0.0,-1.0,0.0));
#525=AXIS2_PLACEMENT_3D('',#522,#523,#524);
#526=CIRCLE('',#525,5.33604719043193);
#527=EDGE_CURVE('',#513,#521,#526,.T.);
#528=ORIENTED_EDGE('',*,*,#527,.T.);
#529=CARTESIAN_POINT('',(0.750000000000114,5.196152422706632,14.6));
#530=VERTEX_POINT('',#529);
#531=CARTESIAN_POINT('',(0.750000000000114,5.283076718969369,14.6));
#532=DIRECTION('',(0.0,-1.0,0.0));
#533=VECTOR('',#532,0.08692429626277);
#534=LINE('',#531,#533);
#535=EDGE_CURVE('',#521,#530,#534,.T.);
#536=ORIENTED_EDGE('',*,*,#535,.T.);
#537=CARTESIAN_POINT('',(-0.749999999999886,5.196152422706632,14.6));
#538=VERTEX_POINT('',#537);
#539=CARTESIAN_POINT('',(0.0,0.0,14.600000000000003));
#540=DIRECTION('',(6.528990E-017,4.523417E-016,1.0));
#541=DIRECTION('',(-0.142857142857144,-0.989743318610787,4.570293E-016));
#542=AXIS2_PLACEMENT_3D('',#539,#540,#541);
#543=CIRCLE('',#542,5.250000000000001);
#544=EDGE_CURVE('',#530,#538,#543,.T.);
#545=ORIENTED_EDGE('',*,*,#544,.T.);
#546=CARTESIAN_POINT('',(-0.749999999999886,5.283076718969369,14.6));
#547=VERTEX_POINT('',#546);
#548=CARTESIAN_POINT('',(-0.749999999999886,5.196152422706632,14.6));
#549=DIRECTION('',(0.0,1.0,0.0));
#550=VECTOR('',#549,0.086924296262769);
#551=LINE('',#548,#550);
#552=EDGE_CURVE('',#538,#547,#551,.T.);
#553=ORIENTED_EDGE('',*,*,#552,.T.);
#554=CARTESIAN_POINT('',(-5.283076718969369,0.75,14.600000000000003));
#555=VERTEX_POINT('',#554);
#556=CARTESIAN_POINT('',(0.0,0.0,14.600000000000003));
#557=DIRECTION('',(0.0,0.0,1.0));
#558=DIRECTION('',(0.0,-1.0,0.0));
#559=AXIS2_PLACEMENT_3D('',#556,#557,#558);
#560=CIRCLE('',#559,5.33604719043193);
#561=EDGE_CURVE('',#547,#555,#560,.T.);
#562=ORIENTED_EDGE('',*,*,#561,.T.);
#563=CARTESIAN_POINT('',(-5.196152422706632,0.75,14.600000000000003));
#564=VERTEX_POINT('',#563);
#565=CARTESIAN_POINT('',(-5.283076718969369,0.75,14.600000000000003));
#566=DIRECTION('',(1.0,0.0,0.0));
#567=VECTOR('',#566,0.08692429626277);
#568=LINE('',#565,#567);
#569=EDGE_CURVE('',#555,#564,#568,.T.);
#570=ORIENTED_EDGE('',*,*,#569,.T.);
#571=CARTESIAN_POINT('',(-5.196152422706632,-0.75,14.600000000000003));
#572=VERTEX_POINT('',#571);
#573=CARTESIAN_POINT('',(0.0,0.0,14.600000000000003));
#574=DIRECTION('',(5.717478E-017,-8.252469E-018,1.0));
#575=DIRECTION('',(0.989743318610787,-0.142857142857145,-5.776728E-017));
#576=AXIS2_PLACEMENT_3D('',#573,#574,#575);
#577=CIRCLE('',#576,5.249999999999999);
#578=EDGE_CURVE('',#564,#572,#577,.T.);
#579=ORIENTED_EDGE('',*,*,#578,.T.);
#580=CARTESIAN_POINT('',(-5.283076718969369,-0.75,14.600000000000003));
#581=VERTEX_POINT('',#580);
#582=CARTESIAN_POINT('',(-5.196152422706632,-0.75,14.600000000000003));
#583=DIRECTION('',(-1.0,0.0,0.0));
#584=VECTOR('',#583,0.086924296262769);
#585=LINE('',#582,#584);
#586=EDGE_CURVE('',#572,#581,#585,.T.);
#587=ORIENTED_EDGE('',*,*,#586,.T.);
#588=CARTESIAN_POINT('',(-0.75,-5.283076718969426,14.600000000000007));
#589=VERTEX_POINT('',#588);
#590=CARTESIAN_POINT('',(0.0,0.0,14.600000000000003));
#591=DIRECTION('',(0.0,0.0,1.0));
#592=DIRECTION('',(0.0,-1.0,0.0));
#593=AXIS2_PLACEMENT_3D('',#590,#591,#592);
#594=CIRCLE('',#593,5.33604719043193);
#595=EDGE_CURVE('',#581,#589,#594,.T.);
#596=ORIENTED_EDGE('',*,*,#595,.T.);
#597=CARTESIAN_POINT('',(-0.75,-5.196152422706632,14.600000000000007));
#598=VERTEX_POINT('',#597);
#599=CARTESIAN_POINT('',(-0.75,-5.283076718969426,14.600000000000007));
#600=DIRECTION('',(0.0,1.0,0.0));
#601=VECTOR('',#600,0.08692429626277);
#602=LINE('',#599,#601);
#603=EDGE_CURVE('',#589,#598,#602,.T.);
#604=ORIENTED_EDGE('',*,*,#603,.T.);
#605=CARTESIAN_POINT('',(0.75,-5.196152422706632,14.600000000000003));
#606=VERTEX_POINT('',#605);
#607=CARTESIAN_POINT('',(0.0,0.0,14.600000000000003));
#608=DIRECTION('',(6.528990E-017,4.523417E-016,1.0));
#609=DIRECTION('',(0.142857142857144,0.989743318610787,-4.570293E-016));
#610=AXIS2_PLACEMENT_3D('',#607,#608,#609);
#611=CIRCLE('',#610,5.250000000000001);
#612=EDGE_CURVE('',#598,#606,#611,.T.);
#613=ORIENTED_EDGE('',*,*,#612,.T.);
#614=CARTESIAN_POINT('',(0.75,-5.283076718969426,14.600000000000003));
#615=VERTEX_POINT('',#614);
#616=CARTESIAN_POINT('',(0.75,-5.196152422706632,14.600000000000003));
#617=DIRECTION('',(0.0,-1.0,0.0));
#618=VECTOR('',#617,0.086924296262769);
#619=LINE('',#616,#618);
#620=EDGE_CURVE('',#606,#615,#619,.T.);
#621=ORIENTED_EDGE('',*,*,#620,.T.);
#622=CARTESIAN_POINT('',(5.283076718969483,-0.75,14.600000000000003));
#623=VERTEX_POINT('',#622);
#624=CARTESIAN_POINT('',(0.0,0.0,14.600000000000003));
#625=DIRECTION('',(0.0,0.0,1.0));
#626=DIRECTION('',(0.0,-1.0,0.0));
#627=AXIS2_PLACEMENT_3D('',#624,#625,#626);
#628=CIRCLE('',#627,5.33604719043193);
#629=EDGE_CURVE('',#615,#623,#628,.T.);
#630=ORIENTED_EDGE('',*,*,#629,.T.);
#631=CARTESIAN_POINT('',(5.196152422706632,-0.75,14.600000000000003));
#632=VERTEX_POINT('',#631);
#633=CARTESIAN_POINT('',(5.283076718969483,-0.75,14.600000000000003));
#634=DIRECTION('',(-1.0,0.0,0.0));
#635=VECTOR('',#634,0.08692429626277);
#636=LINE('',#633,#635);
#637=EDGE_CURVE('',#623,#632,#636,.T.);
#638=ORIENTED_EDGE('',*,*,#637,.T.);
#639=CARTESIAN_POINT('',(0.0,0.0,14.600000000000003));
#640=DIRECTION('',(5.717478E-017,-8.252469E-018,1.0));
#641=DIRECTION('',(-0.989743318610787,0.142857142857145,5.776728E-017));
#642=AXIS2_PLACEMENT_3D('',#639,#640,#641);
#643=CIRCLE('',#642,5.249999999999999);
#644=EDGE_CURVE('',#632,#511,#643,.T.);
#645=ORIENTED_EDGE('',*,*,#644,.T.);
#646=EDGE_LOOP('',(#519,#528,#536,#545,#553,#562,#570,#579,#587,#596,#604,#613,#621,#630,#638,#645));
#647=FACE_OUTER_BOUND('',#646,.T.);
#648=ORIENTED_EDGE('',*,*,#123,.F.);
#649=ORIENTED_EDGE('',*,*,#498,.F.);
#650=EDGE_LOOP('',(#648,#649));
#651=FACE_BOUND('',#650,.T.);
#652=ADVANCED_FACE('',(#647,#651),#509,.F.);
#653=CARTESIAN_POINT('',(5.196152422706631,-0.750000000000011,14.600000000000005));
#654=CARTESIAN_POINT('',(5.196152422706631,-0.750000000000012,12.100000000000003));
#655=CARTESIAN_POINT('',(5.946152422706642,4.44615242270662,14.600000000000003));
#656=CARTESIAN_POINT('',(5.94615242270664,4.446152422706619,12.1));
#657=CARTESIAN_POINT('',(0.750000000000011,5.196152422706631,14.600000000000003));
#658=CARTESIAN_POINT('',(0.75000000000001,5.19615242270663,12.100000000000001));
#659=CARTESIAN_POINT('',(-4.44615242270662,5.946152422706642,14.600000000000003));
#660=CARTESIAN_POINT('',(-4.446152422706621,5.94615242270664,12.1));
#661=CARTESIAN_POINT('',(-5.196152422706631,0.750000000000011,14.600000000000005));
#662=CARTESIAN_POINT('',(-5.196152422706631,0.750000000000009,12.100000000000003));
#663=CARTESIAN_POINT('',(-5.946152422706642,-4.44615242270662,14.600000000000009));
#664=CARTESIAN_POINT('',(-5.946152422706642,-4.446152422706621,12.100000000000005));
#665=CARTESIAN_POINT('',(-0.750000000000011,-5.196152422706631,14.600000000000007));
#666=CARTESIAN_POINT('',(-0.750000000000011,-5.196152422706632,12.100000000000005));
#667=CARTESIAN_POINT('',(4.44615242270662,-5.946152422706642,14.600000000000009));
#668=CARTESIAN_POINT('',(4.44615242270662,-5.946152422706642,12.100000000000005));
#669=CARTESIAN_POINT('',(5.196152422706631,-0.750000000000011,14.600000000000005));
#670=CARTESIAN_POINT('',(5.196152422706631,-0.750000000000012,12.100000000000003));
#678=(BOUNDED_SURFACE()B_SPLINE_SURFACE(1,2,((#653,#655,#657,#659,#661,#663,#665,#667,#669),(#654,#656,#658,#660,#662,#664,#666,#668,#670)),.UNSPECIFIED.,.F.,.T.,.U.)B_SPLINE_SURFACE_WITH_KNOTS((2,2),(3,2,2,2,3),(-3.383537E-016,0.476190476190476),(0.0,8.246680715673209,16.493361431346418,24.740042147019626,32.986722862692837),.UNSPECIFIED.)GEOMETRIC_REPRESENTATION_ITEM()RATIONAL_B_SPLINE_SURFACE(((1.0,0.707106781186548,1.0,0.707106781186548,1.0,0.707106781186548,1.0,0.707106781186548,1.0),(1.0,0.707106781186548,1.0,0.707106781186548,1.0,0.707106781186548,1.0,0.707106781186548,1.0)))REPRESENTATION_ITEM('')SURFACE());
#679=ORIENTED_EDGE('',*,*,#340,.F.);
#680=CARTESIAN_POINT('',(5.196152422706632,0.75,14.600000000000003));
#681=DIRECTION('',(0.0,0.0,-1.0));
#682=VECTOR('',#681,2.5);
#683=LINE('',#680,#682);
#684=EDGE_CURVE('',#511,#326,#683,.T.);
#685=ORIENTED_EDGE('',*,*,#684,.F.);
#686=ORIENTED_EDGE('',*,*,#644,.F.);
#687=CARTESIAN_POINT('',(5.196152422706632,-0.75,14.600000000000003));
#688=DIRECTION('',(0.0,0.0,-1.0));
#689=VECTOR('',#688,2.5);
#690=LINE('',#687,#689);
#691=EDGE_CURVE('',#632,#334,#690,.T.);
#692=ORIENTED_EDGE('',*,*,#691,.T.);
#693=EDGE_LOOP('',(#679,#685,#686,#692));
#694=FACE_OUTER_BOUND('',#693,.T.);
#695=ADVANCED_FACE('',(#694),#678,.T.);
#696=CARTESIAN_POINT('',(5.196152422706632,-0.75,14.600000000000003));
#697=DIRECTION('',(0.0,-1.0,0.0));
#698=DIRECTION('',(0.0,0.0,-1.0));
#699=AXIS2_PLACEMENT_3D('',#696,#697,#698);
#700=PLANE('',#699);
#701=CARTESIAN_POINT('',(5.952940449895436,-0.75,13.450000000000005));
#702=VERTEX_POINT('',#701);
#703=CARTESIAN_POINT('',(5.952940449895436,-0.75,13.450000000000001));
#704=CARTESIAN_POINT('',(5.59839160953311,-0.75,14.059280086944566));
#705=CARTESIAN_POINT('',(5.283076718969483,-0.75,14.600000000000003));
#713=(BOUNDED_CURVE()B_SPLINE_CURVE(2,(#703,#704,#705),.UNSPECIFIED.,.F.,.U.)B_SPLINE_CURVE_WITH_KNOTS((3,3),(0.0,0.133087095924347),.UNSPECIFIED.)CURVE()GEOMETRIC_REPRESENTATION_ITEM()RATIONAL_B_SPLINE_CURVE((1.0,1.001750486689921,1.0))REPRESENTATION_ITEM(''));
#714=EDGE_CURVE('',#702,#623,#713,.T.);
#715=ORIENTED_EDGE('',*,*,#714,.F.);
#716=CARTESIAN_POINT('',(5.952940449895436,-0.75,12.100000000000003));
#717=DIRECTION('',(0.0,0.0,1.0));
#718=VECTOR('',#717,1.350000000000001);
#719=LINE('',#716,#718);
#720=EDGE_CURVE('',#343,#702,#719,.T.);
#721=ORIENTED_EDGE('',*,*,#720,.F.);
#722=ORIENTED_EDGE('',*,*,#348,.F.);
#723=ORIENTED_EDGE('',*,*,#691,.F.);
#724=ORIENTED_EDGE('',*,*,#637,.F.);
#725=EDGE_LOOP('',(#715,#721,#722,#723,#724));
#726=FACE_OUTER_BOUND('',#725,.T.);
#727=ADVANCED_FACE('',(#726),#700,.F.);
#728=CARTESIAN_POINT('',(5.952940449895436,0.75,14.600000000000003));
#729=DIRECTION('',(0.0,1.0,0.0));
#730=DIRECTION('',(1.0,0.0,0.0));
#731=AXIS2_PLACEMENT_3D('',#728,#729,#730);
#732=PLANE('',#731);
#733=CARTESIAN_POINT('',(5.952940449895436,0.75,13.450000000000005));
#734=VERTEX_POINT('',#733);
#735=CARTESIAN_POINT('',(5.283076718969483,0.75,14.600000000000003));
#736=CARTESIAN_POINT('',(5.598391609659529,0.75,14.059280086727652));
#737=CARTESIAN_POINT('',(5.952940449895436,0.75,13.450000000000001));
#745=(BOUNDED_CURVE()B_SPLINE_CURVE(2,(#735,#736,#737),.UNSPECIFIED.,.F.,.U.)B_SPLINE_CURVE_WITH_KNOTS((3,3),(0.0,0.133087095924347),.UNSPECIFIED.)CURVE()GEOMETRIC_REPRESENTATION_ITEM()RATIONAL_B_SPLINE_CURVE((1.0,1.001750486672139,1.0))REPRESENTATION_ITEM(''));
#746=EDGE_CURVE('',#513,#734,#745,.T.);
#747=ORIENTED_EDGE('',*,*,#746,.F.);
#748=ORIENTED_EDGE('',*,*,#518,.F.);
#749=ORIENTED_EDGE('',*,*,#684,.T.);
#750=ORIENTED_EDGE('',*,*,#331,.F.);
#751=CARTESIAN_POINT('',(5.952940449895436,0.75,13.450000000000005));
#752=DIRECTION('',(0.0,0.0,-1.0));
#753=VECTOR('',#752,1.350000000000001);
#754=LINE('',#751,#753);
#755=EDGE_CURVE('',#734,#324,#754,.T.);
#756=ORIENTED_EDGE('',*,*,#755,.F.);
#757=EDGE_LOOP('',(#747,#748,#749,#750,#756));
#758=FACE_OUTER_BOUND('',#757,.T.);
#759=ADVANCED_FACE('',(#758),#732,.F.);
#760=CARTESIAN_POINT('',(-0.750000000000006,-5.196152422706633,14.600000000000007));
#761=CARTESIAN_POINT('',(-0.750000000000006,-5.196152422706634,12.100000000000003));
#762=CARTESIAN_POINT('',(4.446152422706627,-5.946152422706637,14.600000000000009));
#763=CARTESIAN_POINT('',(4.446152422706627,-5.946152422706637,12.100000000000003));
#764=CARTESIAN_POINT('',(5.196152422706633,-0.750000000000006,14.600000000000005));
#765=CARTESIAN_POINT('',(5.196152422706633,-0.750000000000007,12.100000000000001));
#766=CARTESIAN_POINT('',(5.946152422706637,4.446152422706627,14.600000000000003));
#767=CARTESIAN_POINT('',(5.946152422706637,4.446152422706626,12.1));
#768=CARTESIAN_POINT('',(0.750000000000006,5.196152422706633,14.600000000000003));
#769=CARTESIAN_POINT('',(0.750000000000005,5.196152422706632,12.1));
#770=CARTESIAN_POINT('',(-4.446152422706627,5.946152422706637,14.600000000000003));
#771=CARTESIAN_POINT('',(-4.446152422706627,5.946152422706637,12.1));
#772=CARTESIAN_POINT('',(-5.196152422706633,0.750000000000006,14.600000000000005));
#773=CARTESIAN_POINT('',(-5.196152422706633,0.750000000000004,12.100000000000001));
#774=CARTESIAN_POINT('',(-5.946152422706637,-4.446152422706627,14.600000000000009));
#775=CARTESIAN_POINT('',(-5.946152422706637,-4.446152422706628,12.100000000000003));
#776=CARTESIAN_POINT('',(-0.750000000000006,-5.196152422706633,14.600000000000007));
#777=CARTESIAN_POINT('',(-0.750000000000006,-5.196152422706634,12.100000000000003));
#785=(BOUNDED_SURFACE()B_SPLINE_SURFACE(1,2,((#760,#762,#764,#766,#768,#770,#772,#774,#776),(#761,#763,#765,#767,#769,#771,#773,#775,#777)),.UNSPECIFIED.,.F.,.T.,.U.)B_SPLINE_SURFACE_WITH_KNOTS((2,2),(3,2,2,2,3),(-3.383537E-016,0.476190476190476),(0.0,8.246680715673209,16.493361431346418,24.740042147019629,32.986722862692837),.UNSPECIFIED.)GEOMETRIC_REPRESENTATION_ITEM()RATIONAL_B_SPLINE_SURFACE(((1.0,0.707106781186548,1.0,0.707106781186548,1.0,0.707106781186548,1.0,0.707106781186548,1.0),(1.0,0.707106781186548,1.0,0.707106781186548,1.0,0.707106781186548,1.0,0.707106781186548,1.0)))REPRESENTATION_ITEM('')SURFACE());
#786=ORIENTED_EDGE('',*,*,#374,.F.);
#787=CARTESIAN_POINT('',(0.75,-5.196152422706632,14.600000000000003));
#788=DIRECTION('',(0.0,0.0,-1.0));
#789=VECTOR('',#788,2.5);
#790=LINE('',#787,#789);
#791=EDGE_CURVE('',#606,#360,#790,.T.);
#792=ORIENTED_EDGE('',*,*,#791,.F.);
#793=ORIENTED_EDGE('',*,*,#612,.F.);
#794=CARTESIAN_POINT('',(-0.75,-5.196152422706632,14.600000000000007));
#795=DIRECTION('',(0.0,0.0,-1.0));
#796=VECTOR('',#795,2.5);
#797=LINE('',#794,#796);
#798=EDGE_CURVE('',#598,#368,#797,.T.);
#799=ORIENTED_EDGE('',*,*,#798,.T.);
#800=EDGE_LOOP('',(#786,#792,#793,#799));
#801=FACE_OUTER_BOUND('',#800,.T.);
#802=ADVANCED_FACE('',(#801),#785,.T.);
#803=CARTESIAN_POINT('',(-0.75,-5.196152422706632,14.600000000000007));
#804=DIRECTION('',(-1.0,0.0,0.0));
#805=DIRECTION('',(0.0,0.0,1.0));
#806=AXIS2_PLACEMENT_3D('',#803,#804,#805);
#807=PLANE('',#806);
#808=CARTESIAN_POINT('',(-0.75,-5.952940449895323,13.450000000000008));
#809=VERTEX_POINT('',#808);
#810=CARTESIAN_POINT('',(-0.75,-5.952940449895323,13.450000000000005));
#811=CARTESIAN_POINT('',(-0.75,-5.59839160953311,14.05928008694457));
#812=CARTESIAN_POINT('',(-0.75,-5.283076718969426,14.600000000000007));
#820=(BOUNDED_CURVE()B_SPLINE_CURVE(2,(#810,#811,#812),.UNSPECIFIED.,.F.,.U.)B_SPLINE_CURVE_WITH_KNOTS((3,3),(0.0,0.133087095924347),.UNSPECIFIED.)CURVE()GEOMETRIC_REPRESENTATION_ITEM()RATIONAL_B_SPLINE_CURVE((1.0,1.001750486702464,1.0))REPRESENTATION_ITEM(''));
#821=EDGE_CURVE('',#809,#589,#820,.T.);
#822=ORIENTED_EDGE('',*,*,#821,.F.);
#823=CARTESIAN_POINT('',(-0.75,-5.952940449895323,12.100000000000007));
#824=DIRECTION('',(0.0,0.0,1.0));
#825=VECTOR('',#824,1.350000000000001);
#826=LINE('',#823,#825);
#827=EDGE_CURVE('',#377,#809,#826,.T.);
#828=ORIENTED_EDGE('',*,*,#827,.F.);
#829=ORIENTED_EDGE('',*,*,#382,.F.);
#830=ORIENTED_EDGE('',*,*,#798,.F.);
#831=ORIENTED_EDGE('',*,*,#603,.F.);
#832=EDGE_LOOP('',(#822,#828,#829,#830,#831));
#833=FACE_OUTER_BOUND('',#832,.T.);
#834=ADVANCED_FACE('',(#833),#807,.F.);
#835=CARTESIAN_POINT('',(0.75,-5.952940449895323,14.600000000000007));
#836=DIRECTION('',(1.0,0.0,0.0));
#837=DIRECTION('',(0.0,1.0,0.0));
#838=AXIS2_PLACEMENT_3D('',#835,#836,#837);
#839=PLANE('',#838);
#840=CARTESIAN_POINT('',(0.75,-5.952940449895323,13.450000000000008));
#841=VERTEX_POINT('',#840);
#842=CARTESIAN_POINT('',(0.75,-5.283076718969426,14.600000000000003));
#843=CARTESIAN_POINT('',(0.75,-5.598391609659416,14.059280086727656));
#844=CARTESIAN_POINT('',(0.75,-5.952940449895323,13.450000000000005));
#852=(BOUNDED_CURVE()B_SPLINE_CURVE(2,(#842,#843,#844),.UNSPECIFIED.,.F.,.U.)B_SPLINE_CURVE_WITH_KNOTS((3,3),(0.0,0.133087095924347),.UNSPECIFIED.)CURVE()GEOMETRIC_REPRESENTATION_ITEM()RATIONAL_B_SPLINE_CURVE((1.0,1.001750486659394,1.0))REPRESENTATION_ITEM(''));
#853=EDGE_CURVE('',#615,#841,#852,.T.);
#854=ORIENTED_EDGE('',*,*,#853,.F.);
#855=ORIENTED_EDGE('',*,*,#620,.F.);
#856=ORIENTED_EDGE('',*,*,#791,.T.);
#857=ORIENTED_EDGE('',*,*,#365,.F.);
#858=CARTESIAN_POINT('',(0.75,-5.952940449895323,13.450000000000008));
#859=DIRECTION('',(0.0,0.0,-1.0));
#860=VECTOR('',#859,1.350000000000001);
#861=LINE('',#858,#860);
#862=EDGE_CURVE('',#841,#351,#861,.T.);
#863=ORIENTED_EDGE('',*,*,#862,.F.);
#864=EDGE_LOOP('',(#854,#855,#856,#857,#863));
#865=FACE_OUTER_BOUND('',#864,.T.);
#866=ADVANCED_FACE('',(#865),#839,.F.);
#867=CARTESIAN_POINT('',(-5.196152422706631,0.750000000000011,14.600000000000003));
#868=CARTESIAN_POINT('',(-5.196152422706631,0.750000000000009,12.100000000000001));
#869=CARTESIAN_POINT('',(-5.946152422706642,-4.44615242270662,14.600000000000005));
#870=CARTESIAN_POINT('',(-5.946152422706642,-4.446152422706621,12.100000000000003));
#871=CARTESIAN_POINT('',(-0.750000000000011,-5.196152422706631,14.600000000000005));
#872=CARTESIAN_POINT('',(-0.750000000000011,-5.196152422706632,12.100000000000003));
#873=CARTESIAN_POINT('',(4.44615242270662,-5.946152422706642,14.600000000000005));
#874=CARTESIAN_POINT('',(4.44615242270662,-5.946152422706642,12.100000000000003));
#875=CARTESIAN_POINT('',(5.196152422706631,-0.750000000000011,14.600000000000003));
#876=CARTESIAN_POINT('',(5.196152422706631,-0.750000000000012,12.100000000000001));
#877=CARTESIAN_POINT('',(5.946152422706642,4.44615242270662,14.6));
#878=CARTESIAN_POINT('',(5.94615242270664,4.446152422706619,12.1));
#879=CARTESIAN_POINT('',(0.750000000000011,5.196152422706631,14.600000000000001));
#880=CARTESIAN_POINT('',(0.75000000000001,5.19615242270663,12.1));
#881=CARTESIAN_POINT('',(-4.44615242270662,5.946152422706642,14.6));
#882=CARTESIAN_POINT('',(-4.446152422706621,5.94615242270664,12.1));
#883=CARTESIAN_POINT('',(-5.196152422706631,0.750000000000011,14.600000000000003));
#884=CARTESIAN_POINT('',(-5.196152422706631,0.750000000000009,12.100000000000001));
#892=(BOUNDED_SURFACE()B_SPLINE_SURFACE(1,2,((#867,#869,#871,#873,#875,#877,#879,#881,#883),(#868,#870,#872,#874,#876,#878,#880,#882,#884)),.UNSPECIFIED.,.F.,.T.,.U.)B_SPLINE_SURFACE_WITH_KNOTS((2,2),(3,2,2,2,3),(0.0,0.476190476190476),(0.0,8.246680715673209,16.493361431346418,24.740042147019626,32.986722862692837),.UNSPECIFIED.)GEOMETRIC_REPRESENTATION_ITEM()RATIONAL_B_SPLINE_SURFACE(((1.0,0.707106781186548,1.0,0.707106781186548,1.0,0.707106781186548,1.0,0.707106781186548,1.0),(1.0,0.707106781186548,1.0,0.707106781186548,1.0,0.707106781186548,1.0,0.707106781186548,1.0)))REPRESENTATION_ITEM('')SURFACE());
#893=ORIENTED_EDGE('',*,*,#408,.F.);
#894=CARTESIAN_POINT('',(-5.196152422706632,-0.75,14.600000000000003));
#895=DIRECTION('',(0.0,0.0,-1.0));
#896=VECTOR('',#895,2.5);
#897=LINE('',#894,#896);
#898=EDGE_CURVE('',#572,#394,#897,.T.);
#899=ORIENTED_EDGE('',*,*,#898,.F.);
#900=ORIENTED_EDGE('',*,*,#578,.F.);
#901=CARTESIAN_POINT('',(-5.196152422706632,0.75,14.600000000000003));
#902=DIRECTION('',(0.0,0.0,-1.0));
#903=VECTOR('',#902,2.5);
#904=LINE('',#901,#903);
#905=EDGE_CURVE('',#564,#402,#904,.T.);
#906=ORIENTED_EDGE('',*,*,#905,.T.);
#907=EDGE_LOOP('',(#893,#899,#900,#906));
#908=FACE_OUTER_BOUND('',#907,.T.);
#909=ADVANCED_FACE('',(#908),#892,.T.);
#910=CARTESIAN_POINT('',(-5.196152422706632,0.75,14.600000000000003));
#911=DIRECTION('',(0.0,1.0,0.0));
#912=DIRECTION('',(1.0,0.0,0.0));
#913=AXIS2_PLACEMENT_3D('',#910,#911,#912);
#914=PLANE('',#913);
#915=CARTESIAN_POINT('',(-5.952940449895323,0.75,13.450000000000005));
#916=VERTEX_POINT('',#915);
#917=CARTESIAN_POINT('',(-5.952940449895323,0.75,13.450000000000001));
#918=CARTESIAN_POINT('',(-5.598391609532996,0.75,14.05928008694457));
#919=CARTESIAN_POINT('',(-5.283076718969369,0.75,14.600000000000003));
#927=(BOUNDED_CURVE()B_SPLINE_CURVE(2,(#917,#918,#919),.UNSPECIFIED.,.F.,.U.)B_SPLINE_CURVE_WITH_KNOTS((3,3),(0.0,0.133087095924347),.UNSPECIFIED.)CURVE()GEOMETRIC_REPRESENTATION_ITEM()RATIONAL_B_SPLINE_CURVE((1.0,1.001750486689921,1.0))REPRESENTATION_ITEM(''));
#928=EDGE_CURVE('',#916,#555,#927,.T.);
#929=ORIENTED_EDGE('',*,*,#928,.F.);
#930=CARTESIAN_POINT('',(-5.952940449895323,0.75,12.100000000000003));
#931=DIRECTION('',(0.0,0.0,1.0));
#932=VECTOR('',#931,1.350000000000001);
#933=LINE('',#930,#932);
#934=EDGE_CURVE('',#411,#916,#933,.T.);
#935=ORIENTED_EDGE('',*,*,#934,.F.);
#936=ORIENTED_EDGE('',*,*,#416,.F.);
#937=ORIENTED_EDGE('',*,*,#905,.F.);
#938=ORIENTED_EDGE('',*,*,#569,.F.);
#939=EDGE_LOOP('',(#929,#935,#936,#937,#938));
#940=FACE_OUTER_BOUND('',#939,.T.);
#941=ADVANCED_FACE('',(#940),#914,.F.);
#942=CARTESIAN_POINT('',(-5.952940449895323,-0.75,14.600000000000003));
#943=DIRECTION('',(0.0,-1.0,0.0));
#944=DIRECTION('',(0.0,0.0,-1.0));
#945=AXIS2_PLACEMENT_3D('',#942,#943,#944);
#946=PLANE('',#945);
#947=CARTESIAN_POINT('',(-5.952940449895323,-0.75,13.450000000000005));
#948=VERTEX_POINT('',#947);
#949=CARTESIAN_POINT('',(-5.283076718969369,-0.75,14.600000000000003));
#950=CARTESIAN_POINT('',(-5.598391609659416,-0.75,14.059280086727652));
#951=CARTESIAN_POINT('',(-5.952940449895323,-0.75,13.450000000000005));
#959=(BOUNDED_CURVE()B_SPLINE_CURVE(2,(#949,#950,#951),.UNSPECIFIED.,.F.,.U.)B_SPLINE_CURVE_WITH_KNOTS((3,3),(0.0,0.133087095924347),.UNSPECIFIED.)CURVE()GEOMETRIC_REPRESENTATION_ITEM()RATIONAL_B_SPLINE_CURVE((1.0,1.001750486672139,1.0))REPRESENTATION_ITEM(''));
#960=EDGE_CURVE('',#581,#948,#959,.T.);
#961=ORIENTED_EDGE('',*,*,#960,.F.);
#962=ORIENTED_EDGE('',*,*,#586,.F.);
#963=ORIENTED_EDGE('',*,*,#898,.T.);
#964=ORIENTED_EDGE('',*,*,#399,.F.);
#965=CARTESIAN_POINT('',(-5.952940449895323,-0.75,13.450000000000005));
#966=DIRECTION('',(0.0,0.0,-1.0));
#967=VECTOR('',#966,1.350000000000001);
#968=LINE('',#965,#967);
#969=EDGE_CURVE('',#948,#385,#968,.T.);
#970=ORIENTED_EDGE('',*,*,#969,.F.);
#971=EDGE_LOOP('',(#961,#962,#963,#964,#970));
#972=FACE_OUTER_BOUND('',#971,.T.);
#973=ADVANCED_FACE('',(#972),#946,.F.);
#974=CARTESIAN_POINT('',(6.000000000000001,-7.347881E-016,12.1));
#975=CARTESIAN_POINT('',(6.000000000000001,-1.352676E-016,13.450000000000006));
#976=CARTESIAN_POINT('',(5.999999999999998,-6.0,12.1));
#977=CARTESIAN_POINT('',(5.999999999999998,-5.999999999999999,13.450000000000008));
#978=CARTESIAN_POINT('',(-7.347881E-016,-6.000000000000001,12.100000000000003));
#979=CARTESIAN_POINT('',(-5.694608E-016,-6.0,13.45000000000001));
#980=CARTESIAN_POINT('',(-6.0,-5.999999999999998,12.1));
#981=CARTESIAN_POINT('',(-6.0,-5.999999999999998,13.450000000000008));
#982=CARTESIAN_POINT('',(-6.000000000000001,7.347881E-016,12.1));
#983=CARTESIAN_POINT('',(-6.000000000000001,1.334309E-015,13.450000000000006));
#984=CARTESIAN_POINT('',(-5.999999999999998,6.0,12.099999999999998));
#985=CARTESIAN_POINT('',(-5.999999999999998,6.0,13.450000000000005));
#986=CARTESIAN_POINT('',(7.347881E-016,6.000000000000001,12.099999999999996));
#987=CARTESIAN_POINT('',(9.001154E-016,6.000000000000002,13.450000000000003));
#988=CARTESIAN_POINT('',(6.0,5.999999999999998,12.099999999999998));
#989=CARTESIAN_POINT('',(6.0,5.999999999999999,13.450000000000005));
#990=CARTESIAN_POINT('',(6.000000000000001,-7.347881E-016,12.1));
#991=CARTESIAN_POINT('',(6.000000000000001,-1.352676E-016,13.450000000000006));
#999=(BOUNDED_SURFACE()B_SPLINE_SURFACE(1,2,((#974,#976,#978,#980,#982,#984,#986,#988,#990),(#975,#977,#979,#981,#983,#985,#987,#989,#991)),.UNSPECIFIED.,.F.,.T.,.U.)B_SPLINE_SURFACE_WITH_KNOTS((2,2),(3,2,2,2,3),(-5.921189E-016,0.225000000000001),(0.0,9.424777960769381,18.849555921538762,28.274333882308142,37.699111843077524),.UNSPECIFIED.)GEOMETRIC_REPRESENTATION_ITEM()RATIONAL_B_SPLINE_SURFACE(((1.0,0.707106781186548,1.0,0.707106781186548,1.0,0.707106781186548,1.0,0.707106781186548,1.0),(1.0,0.707106781186548,1.0,0.707106781186548,1.0,0.707106781186548,1.0,0.707106781186548,1.0)))REPRESENTATION_ITEM('')SURFACE());
#1000=ORIENTED_EDGE('',*,*,#934,.T.);
#1001=CARTESIAN_POINT('',(-0.749999999999886,5.952940449895323,13.450000000000001));
#1002=VERTEX_POINT('',#1001);
#1003=CARTESIAN_POINT('',(0.0,0.0,13.450000000000001));
#1004=DIRECTION('',(0.0,0.0,-1.0));
#1005=DIRECTION('',(-1.0,0.0,0.0));
#1006=AXIS2_PLACEMENT_3D('',#1003,#1004,#1005);
#1007=CIRCLE('',#1006,6.000000000000001);
#1008=EDGE_CURVE('',#916,#1002,#1007,.T.);
#1009=ORIENTED_EDGE('',*,*,#1008,.T.);
#1010=CARTESIAN_POINT('',(-0.749999999999886,5.952940449895323,13.450000000000001));
#1011=DIRECTION('',(0.0,0.0,-1.0));
#1012=VECTOR('',#1011,1.350000000000001);
#1013=LINE('',#1010,#1012);
#1014=EDGE_CURVE('',#1002,#419,#1013,.T.);
#1015=ORIENTED_EDGE('',*,*,#1014,.T.);
#1016=ORIENTED_EDGE('',*,*,#425,.F.);
#1017=EDGE_LOOP('',(#1000,#1009,#1015,#1016));
#1018=FACE_OUTER_BOUND('',#1017,.T.);
#1019=ADVANCED_FACE('',(#1018),#999,.T.);
#1020=CARTESIAN_POINT('',(6.000000000000001,-7.347881E-016,12.1));
#1021=CARTESIAN_POINT('',(6.000000000000001,-1.352676E-016,13.450000000000008));
#1022=CARTESIAN_POINT('',(5.999999999999998,-6.0,12.1));
#1023=CARTESIAN_POINT('',(5.999999999999998,-5.999999999999999,13.45000000000001));
#1024=CARTESIAN_POINT('',(-7.347881E-016,-6.000000000000001,12.100000000000003));
#1025=CARTESIAN_POINT('',(-5.694608E-016,-6.0,13.450000000000012));
#1026=CARTESIAN_POINT('',(-6.0,-5.999999999999998,12.1));
#1027=CARTESIAN_POINT('',(-6.0,-5.999999999999998,13.45000000000001));
#1028=CARTESIAN_POINT('',(-6.000000000000001,7.347881E-016,12.1));
#1029=CARTESIAN_POINT('',(-6.000000000000001,1.334309E-015,13.450000000000008));
#1030=CARTESIAN_POINT('',(-5.999999999999998,6.0,12.099999999999998));
#1031=CARTESIAN_POINT('',(-5.999999999999998,6.0,13.450000000000005));
#1032=CARTESIAN_POINT('',(7.347881E-016,6.000000000000001,12.099999999999996));
#1033=CARTESIAN_POINT('',(9.001154E-016,6.000000000000002,13.450000000000005));
#1034=CARTESIAN_POINT('',(6.0,5.999999999999998,12.099999999999998));
#1035=CARTESIAN_POINT('',(6.0,5.999999999999999,13.450000000000005));
#1036=CARTESIAN_POINT('',(6.000000000000001,-7.347881E-016,12.1));
#1037=CARTESIAN_POINT('',(6.000000000000001,-1.352676E-016,13.450000000000008));
#1045=(BOUNDED_SURFACE()B_SPLINE_SURFACE(1,2,((#1020,#1022,#1024,#1026,#1028,#1030,#1032,#1034,#1036),(#1021,#1023,#1025,#1027,#1029,#1031,#1033,#1035,#1037)),.UNSPECIFIED.,.F.,.T.,.U.)B_SPLINE_SURFACE_WITH_KNOTS((2,2),(3,2,2,2,3),(-5.921189E-016,0.225000000000001),(0.0,9.424777960769381,18.849555921538762,28.274333882308142,37.699111843077524),.UNSPECIFIED.)GEOMETRIC_REPRESENTATION_ITEM()RATIONAL_B_SPLINE_SURFACE(((1.0,0.707106781186548,1.0,0.707106781186548,1.0,0.707106781186548,1.0,0.707106781186548,1.0),(1.0,0.707106781186548,1.0,0.707106781186548,1.0,0.707106781186548,1.0,0.707106781186548,1.0)))REPRESENTATION_ITEM('')SURFACE());
#1046=ORIENTED_EDGE('',*,*,#827,.T.);
#1047=CARTESIAN_POINT('',(0.0,0.0,13.450000000000001));
#1048=DIRECTION('',(0.0,0.0,-1.0));
#1049=DIRECTION('',(-1.0,0.0,0.0));
#1050=AXIS2_PLACEMENT_3D('',#1047,#1048,#1049);
#1051=CIRCLE('',#1050,6.000000000000001);
#1052=EDGE_CURVE('',#809,#948,#1051,.T.);
#1053=ORIENTED_EDGE('',*,*,#1052,.T.);
#1054=ORIENTED_EDGE('',*,*,#969,.T.);
#1055=ORIENTED_EDGE('',*,*,#391,.F.);
#1056=EDGE_LOOP('',(#1046,#1053,#1054,#1055));
#1057=FACE_OUTER_BOUND('',#1056,.T.);
#1058=ADVANCED_FACE('',(#1057),#1045,.T.);
#1059=CARTESIAN_POINT('',(6.000000000000001,-7.347881E-016,12.100000000000001));
#1060=CARTESIAN_POINT('',(6.000000000000001,-1.352676E-016,13.450000000000008));
#1061=CARTESIAN_POINT('',(5.999999999999998,-6.0,12.100000000000003));
#1062=CARTESIAN_POINT('',(5.999999999999998,-5.999999999999999,13.45000000000001));
#1063=CARTESIAN_POINT('',(-7.347881E-016,-6.000000000000001,12.100000000000005));
#1064=CARTESIAN_POINT('',(-5.694608E-016,-6.0,13.450000000000012));
#1065=CARTESIAN_POINT('',(-6.0,-5.999999999999998,12.100000000000003));
#1066=CARTESIAN_POINT('',(-6.0,-5.999999999999998,13.45000000000001));
#1067=CARTESIAN_POINT('',(-6.000000000000001,7.347881E-016,12.100000000000001));
#1068=CARTESIAN_POINT('',(-6.000000000000001,1.334309E-015,13.450000000000008));
#1069=CARTESIAN_POINT('',(-5.999999999999998,6.0,12.1));
#1070=CARTESIAN_POINT('',(-5.999999999999998,6.0,13.450000000000005));
#1071=CARTESIAN_POINT('',(7.347881E-016,6.000000000000001,12.099999999999998));
#1072=CARTESIAN_POINT('',(9.001154E-016,6.000000000000002,13.450000000000005));
#1073=CARTESIAN_POINT('',(6.0,5.999999999999998,12.1));
#1074=CARTESIAN_POINT('',(6.0,5.999999999999999,13.450000000000005));
#1075=CARTESIAN_POINT('',(6.000000000000001,-7.347881E-016,12.100000000000001));
#1076=CARTESIAN_POINT('',(6.000000000000001,-1.352676E-016,13.450000000000008));
#1084=(BOUNDED_SURFACE()B_SPLINE_SURFACE(1,2,((#1059,#1061,#1063,#1065,#1067,#1069,#1071,#1073,#1075),(#1060,#1062,#1064,#1066,#1068,#1070,#1072,#1074,#1076)),.UNSPECIFIED.,.F.,.T.,.U.)B_SPLINE_SURFACE_WITH_KNOTS((2,2),(3,2,2,2,3),(-2.960595E-016,0.225000000000001),(0.0,9.424777960769381,18.849555921538762,28.274333882308142,37.699111843077524),.UNSPECIFIED.)GEOMETRIC_REPRESENTATION_ITEM()RATIONAL_B_SPLINE_SURFACE(((1.0,0.707106781186548,1.0,0.707106781186548,1.0,0.707106781186548,1.0,0.707106781186548,1.0),(1.0,0.707106781186548,1.0,0.707106781186548,1.0,0.707106781186548,1.0,0.707106781186548,1.0)))REPRESENTATION_ITEM('')SURFACE());
#1085=ORIENTED_EDGE('',*,*,#720,.T.);
#1086=CARTESIAN_POINT('',(0.0,0.0,13.450000000000001));
#1087=DIRECTION('',(0.0,0.0,-1.0));
#1088=DIRECTION('',(-1.0,0.0,0.0));
#1089=AXIS2_PLACEMENT_3D('',#1086,#1087,#1088);
#1090=CIRCLE('',#1089,6.000000000000001);
#1091=EDGE_CURVE('',#702,#841,#1090,.T.);
#1092=ORIENTED_EDGE('',*,*,#1091,.T.);
#1093=ORIENTED_EDGE('',*,*,#862,.T.);
#1094=ORIENTED_EDGE('',*,*,#357,.F.);
#1095=EDGE_LOOP('',(#1085,#1092,#1093,#1094));
#1096=FACE_OUTER_BOUND('',#1095,.T.);
#1097=ADVANCED_FACE('',(#1096),#1084,.T.);
#1098=CARTESIAN_POINT('',(-5.828670E-016,5.335469840622234,14.601000000000003));
#1099=CARTESIAN_POINT('',(-8.053984E-016,6.000577349809698,13.449));
#1100=CARTESIAN_POINT('',(-5.335469840622234,5.335469840622233,14.601000000000003));
#1101=CARTESIAN_POINT('',(-6.000577349809697,6.000577349809694,13.449));
#1102=CARTESIAN_POINT('',(-5.335469840622234,-3.976112E-016,14.601000000000004));
#1103=CARTESIAN_POINT('',(-6.000577349809698,-9.906542E-016,13.449000000000002));
#1104=CARTESIAN_POINT('',(-5.335469840622232,-5.335469840622233,14.601000000000006));
#1105=CARTESIAN_POINT('',(-6.000577349809694,-6.000577349809697,13.449000000000002));
#1106=CARTESIAN_POINT('',(7.239463E-016,-5.335469840622234,14.601000000000006));
#1107=CARTESIAN_POINT('',(6.643191E-016,-6.000577349809698,13.449000000000003));
#1108=CARTESIAN_POINT('',(5.335469840622234,-5.335469840622232,14.601000000000006));
#1109=CARTESIAN_POINT('',(6.000577349809697,-6.000577349809694,13.449000000000002));
#1110=CARTESIAN_POINT('',(5.335469840622234,9.092020E-016,14.601000000000004));
#1111=CARTESIAN_POINT('',(6.000577349809698,4.790634E-016,13.449000000000002));
#1112=CARTESIAN_POINT('',(5.335469840622232,5.335469840622234,14.601000000000003));
#1113=CARTESIAN_POINT('',(6.000577349809694,6.000577349809697,13.449));
#1114=CARTESIAN_POINT('',(-5.828670E-016,5.335469840622234,14.601000000000003));
#1115=CARTESIAN_POINT('',(-8.053984E-016,6.000577349809698,13.449));
#1123=(BOUNDED_SURFACE()B_SPLINE_SURFACE(1,2,((#1098,#1100,#1102,#1104,#1106,#1108,#1110,#1112,#1114),(#1099,#1101,#1103,#1105,#1107,#1109,#1111,#1113,#1115)),.UNSPECIFIED.,.F.,.T.,.U.)B_SPLINE_SURFACE_WITH_KNOTS((2,2),(3,2,2,2,3),(-0.117343814594929,0.117343814594929),(0.0,8.903310643552041,17.806621287104083,26.709931930656126,35.613242574208165),.UNSPECIFIED.)GEOMETRIC_REPRESENTATION_ITEM()RATIONAL_B_SPLINE_SURFACE(((1.0,0.707106781186548,1.0,0.707106781186548,1.0,0.707106781186548,1.0,0.707106781186548,1.0),(1.0,0.707106781186548,1.0,0.707106781186548,1.0,0.707106781186548,1.0,0.707106781186548,1.0)))REPRESENTATION_ITEM('')SURFACE());
#1124=ORIENTED_EDGE('',*,*,#928,.T.);
#1125=ORIENTED_EDGE('',*,*,#561,.F.);
#1126=CARTESIAN_POINT('',(-0.749999999999886,5.283076718969369,14.6));
#1127=CARTESIAN_POINT('',(-0.749999999999886,5.598391609659132,14.059280086728142));
#1128=CARTESIAN_POINT('',(-0.749999999999886,5.952940449895323,13.450000000000001));
#1136=(BOUNDED_CURVE()B_SPLINE_CURVE(2,(#1126,#1127,#1128),.UNSPECIFIED.,.F.,.U.)B_SPLINE_CURVE_WITH_KNOTS((3,3),(0.0,0.133087095924347),.UNSPECIFIED.)CURVE()GEOMETRIC_REPRESENTATION_ITEM()RATIONAL_B_SPLINE_CURVE((1.0,1.001750486669386,1.0))REPRESENTATION_ITEM(''));
#1137=EDGE_CURVE('',#547,#1002,#1136,.T.);
#1138=ORIENTED_EDGE('',*,*,#1137,.T.);
#1139=ORIENTED_EDGE('',*,*,#1008,.F.);
#1140=EDGE_LOOP('',(#1124,#1125,#1138,#1139));
#1141=FACE_OUTER_BOUND('',#1140,.T.);
#1142=ADVANCED_FACE('',(#1141),#1123,.T.);
#1143=CARTESIAN_POINT('',(-5.828670E-016,5.335469840622233,14.601000000000004));
#1144=CARTESIAN_POINT('',(-8.053984E-016,6.000577349809698,13.449));
#1145=CARTESIAN_POINT('',(-5.335469840622233,5.335469840622232,14.601000000000003));
#1146=CARTESIAN_POINT('',(-6.000577349809697,6.000577349809694,13.449));
#1147=CARTESIAN_POINT('',(-5.335469840622233,-3.976112E-016,14.601000000000006));
#1148=CARTESIAN_POINT('',(-6.000577349809698,-9.906542E-016,13.449000000000002));
#1149=CARTESIAN_POINT('',(-5.335469840622231,-5.335469840622232,14.601000000000008));
#1150=CARTESIAN_POINT('',(-6.000577349809694,-6.000577349809697,13.449000000000002));
#1151=CARTESIAN_POINT('',(7.239463E-016,-5.335469840622233,14.601000000000008));
#1152=CARTESIAN_POINT('',(6.643191E-016,-6.000577349809698,13.449000000000003));
#1153=CARTESIAN_POINT('',(5.335469840622233,-5.335469840622231,14.601000000000008));
#1154=CARTESIAN_POINT('',(6.000577349809697,-6.000577349809694,13.449000000000002));
#1155=CARTESIAN_POINT('',(5.335469840622233,9.092020E-016,14.601000000000006));
#1156=CARTESIAN_POINT('',(6.000577349809698,4.790634E-016,13.449000000000002));
#1157=CARTESIAN_POINT('',(5.335469840622231,5.335469840622233,14.601000000000003));
#1158=CARTESIAN_POINT('',(6.000577349809694,6.000577349809697,13.449));
#1159=CARTESIAN_POINT('',(-5.828670E-016,5.335469840622233,14.601000000000004));
#1160=CARTESIAN_POINT('',(-8.053984E-016,6.000577349809698,13.449));
#1168=(BOUNDED_SURFACE()B_SPLINE_SURFACE(1,2,((#1143,#1145,#1147,#1149,#1151,#1153,#1155,#1157,#1159),(#1144,#1146,#1148,#1150,#1152,#1154,#1156,#1158,#1160)),.UNSPECIFIED.,.F.,.T.,.U.)B_SPLINE_SURFACE_WITH_KNOTS((2,2),(3,2,2,2,3),(-0.117343814594929,0.117343814594929),(0.0,8.903310643552041,17.806621287104083,26.709931930656126,35.613242574208165),.UNSPECIFIED.)GEOMETRIC_REPRESENTATION_ITEM()RATIONAL_B_SPLINE_SURFACE(((1.0,0.707106781186548,1.0,0.707106781186548,1.0,0.707106781186548,1.0,0.707106781186548,1.0),(1.0,0.707106781186548,1.0,0.707106781186548,1.0,0.707106781186548,1.0,0.707106781186548,1.0)))REPRESENTATION_ITEM('')SURFACE());
#1169=ORIENTED_EDGE('',*,*,#821,.T.);
#1170=ORIENTED_EDGE('',*,*,#595,.F.);
#1171=ORIENTED_EDGE('',*,*,#960,.T.);
#1172=ORIENTED_EDGE('',*,*,#1052,.F.);
#1173=EDGE_LOOP('',(#1169,#1170,#1171,#1172));
#1174=FACE_OUTER_BOUND('',#1173,.T.);
#1175=ADVANCED_FACE('',(#1174),#1168,.T.);
#1176=CARTESIAN_POINT('',(-5.828670E-016,5.335469840622235,14.601000000000001));
#1177=CARTESIAN_POINT('',(-8.053984E-016,6.000577349809698,13.448999999999998));
#1178=CARTESIAN_POINT('',(-5.335469840622235,5.335469840622234,14.601000000000001));
#1179=CARTESIAN_POINT('',(-6.000577349809698,6.000577349809696,13.448999999999998));
#1180=CARTESIAN_POINT('',(-5.335469840622235,-3.976112E-016,14.601000000000003));
#1181=CARTESIAN_POINT('',(-6.000577349809698,-9.906542E-016,13.449000000000002));
#1182=CARTESIAN_POINT('',(-5.335469840622233,-5.335469840622234,14.601000000000003));
#1183=CARTESIAN_POINT('',(-6.000577349809696,-6.000577349809698,13.449000000000005));
#1184=CARTESIAN_POINT('',(7.239463E-016,-5.335469840622235,14.601000000000004));
#1185=CARTESIAN_POINT('',(6.643191E-016,-6.000577349809698,13.449000000000005));
#1186=CARTESIAN_POINT('',(5.335469840622235,-5.335469840622233,14.601000000000003));
#1187=CARTESIAN_POINT('',(6.000577349809698,-6.000577349809696,13.449000000000005));
#1188=CARTESIAN_POINT('',(5.335469840622235,9.092020E-016,14.601000000000003));
#1189=CARTESIAN_POINT('',(6.000577349809698,4.790634E-016,13.449000000000002));
#1190=CARTESIAN_POINT('',(5.335469840622233,5.335469840622235,14.601000000000001));
#1191=CARTESIAN_POINT('',(6.000577349809696,6.000577349809698,13.448999999999998));
#1192=CARTESIAN_POINT('',(-5.828670E-016,5.335469840622235,14.601000000000001));
#1193=CARTESIAN_POINT('',(-8.053984E-016,6.000577349809698,13.448999999999998));
#1201=(BOUNDED_SURFACE()B_SPLINE_SURFACE(1,2,((#1176,#1178,#1180,#1182,#1184,#1186,#1188,#1190,#1192),(#1177,#1179,#1181,#1183,#1185,#1187,#1189,#1191,#1193)),.UNSPECIFIED.,.F.,.T.,.U.)B_SPLINE_SURFACE_WITH_KNOTS((2,2),(3,2,2,2,3),(-0.117343814594928,0.117343814594929),(0.0,8.903310643552041,17.806621287104083,26.709931930656126,35.613242574208165),.UNSPECIFIED.)GEOMETRIC_REPRESENTATION_ITEM()RATIONAL_B_SPLINE_SURFACE(((1.0,0.707106781186548,1.0,0.707106781186548,1.0,0.707106781186548,1.0,0.707106781186548,1.0),(1.0,0.707106781186548,1.0,0.707106781186548,1.0,0.707106781186548,1.0,0.707106781186548,1.0)))REPRESENTATION_ITEM('')SURFACE());
#1202=ORIENTED_EDGE('',*,*,#714,.T.);
#1203=ORIENTED_EDGE('',*,*,#629,.F.);
#1204=ORIENTED_EDGE('',*,*,#853,.T.);
#1205=ORIENTED_EDGE('',*,*,#1091,.F.);
#1206=EDGE_LOOP('',(#1202,#1203,#1204,#1205));
#1207=FACE_OUTER_BOUND('',#1206,.T.);
#1208=ADVANCED_FACE('',(#1207),#1201,.T.);
#1209=CARTESIAN_POINT('',(0.750000000000005,5.196152422706632,14.600000000000001));
#1210=CARTESIAN_POINT('',(0.750000000000005,5.196152422706631,12.1));
#1211=CARTESIAN_POINT('',(-4.446152422706626,5.946152422706637,14.6));
#1212=CARTESIAN_POINT('',(-4.446152422706626,5.946152422706636,12.1));
#1213=CARTESIAN_POINT('',(-5.196152422706632,0.750000000000005,14.600000000000003));
#1214=CARTESIAN_POINT('',(-5.196152422706632,0.750000000000004,12.100000000000001));
#1215=CARTESIAN_POINT('',(-5.946152422706637,-4.446152422706626,14.600000000000005));
#1216=CARTESIAN_POINT('',(-5.946152422706637,-4.446152422706628,12.100000000000003));
#1217=CARTESIAN_POINT('',(-0.750000000000005,-5.196152422706632,14.600000000000005));
#1218=CARTESIAN_POINT('',(-0.750000000000006,-5.196152422706633,12.100000000000003));
#1219=CARTESIAN_POINT('',(4.446152422706626,-5.946152422706637,14.600000000000005));
#1220=CARTESIAN_POINT('',(4.446152422706626,-5.946152422706637,12.100000000000003));
#1221=CARTESIAN_POINT('',(5.196152422706632,-0.750000000000005,14.600000000000003));
#1222=CARTESIAN_POINT('',(5.196152422706632,-0.750000000000006,12.100000000000001));
#1223=CARTESIAN_POINT('',(5.946152422706637,4.446152422706626,14.6));
#1224=CARTESIAN_POINT('',(5.946152422706637,4.446152422706625,12.1));
#1225=CARTESIAN_POINT('',(0.750000000000005,5.196152422706632,14.600000000000001));
#1226=CARTESIAN_POINT('',(0.750000000000005,5.196152422706631,12.1));
#1234=(BOUNDED_SURFACE()B_SPLINE_SURFACE(1,2,((#1209,#1211,#1213,#1215,#1217,#1219,#1221,#1223,#1225),(#1210,#1212,#1214,#1216,#1218,#1220,#1222,#1224,#1226)),.UNSPECIFIED.,.F.,.T.,.U.)B_SPLINE_SURFACE_WITH_KNOTS((2,2),(3,2,2,2,3),(0.0,0.476190476190476),(0.0,8.246680715673209,16.493361431346418,24.740042147019626,32.986722862692837),.UNSPECIFIED.)GEOMETRIC_REPRESENTATION_ITEM()RATIONAL_B_SPLINE_SURFACE(((1.0,0.707106781186548,1.0,0.707106781186548,1.0,0.707106781186548,1.0,0.707106781186548,1.0),(1.0,0.707106781186548,1.0,0.707106781186548,1.0,0.707106781186548,1.0,0.707106781186548,1.0)))REPRESENTATION_ITEM('')SURFACE());
#1235=ORIENTED_EDGE('',*,*,#442,.F.);
#1236=CARTESIAN_POINT('',(-0.749999999999886,5.196152422706632,14.6));
#1237=DIRECTION('',(0.0,0.0,-1.0));
#1238=VECTOR('',#1237,2.5);
#1239=LINE('',#1236,#1238);
#1240=EDGE_CURVE('',#538,#428,#1239,.T.);
#1241=ORIENTED_EDGE('',*,*,#1240,.F.);
#1242=ORIENTED_EDGE('',*,*,#544,.F.);
#1243=CARTESIAN_POINT('',(0.750000000000114,5.196152422706632,14.6));
#1244=DIRECTION('',(0.0,0.0,-1.0));
#1245=VECTOR('',#1244,2.5);
#1246=LINE('',#1243,#1245);
#1247=EDGE_CURVE('',#530,#436,#1246,.T.);
#1248=ORIENTED_EDGE('',*,*,#1247,.T.);
#1249=EDGE_LOOP('',(#1235,#1241,#1242,#1248));
#1250=FACE_OUTER_BOUND('',#1249,.T.);
#1251=ADVANCED_FACE('',(#1250),#1234,.T.);
#1252=CARTESIAN_POINT('',(0.750000000000114,5.196152422706632,14.6));
#1253=DIRECTION('',(1.0,0.0,0.0));
#1254=DIRECTION('',(0.0,1.0,0.0));
#1255=AXIS2_PLACEMENT_3D('',#1252,#1253,#1254);
#1256=PLANE('',#1255);
#1257=CARTESIAN_POINT('',(0.750000000000114,5.952940449895323,13.450000000000001));
#1258=VERTEX_POINT('',#1257);
#1259=CARTESIAN_POINT('',(0.750000000000114,5.952940449895323,13.450000000000001));
#1260=CARTESIAN_POINT('',(0.750000000000114,5.598391609532769,14.059280086945057));
#1261=CARTESIAN_POINT('',(0.750000000000114,5.283076718969369,14.6));
#1269=(BOUNDED_CURVE()B_SPLINE_CURVE(2,(#1259,#1260,#1261),.UNSPECIFIED.,.F.,.U.)B_SPLINE_CURVE_WITH_KNOTS((3,3),(0.0,0.133087095924347),.UNSPECIFIED.)CURVE()GEOMETRIC_REPRESENTATION_ITEM()RATIONAL_B_SPLINE_CURVE((1.0,1.001750486712241,1.0))REPRESENTATION_ITEM(''));
#1270=EDGE_CURVE('',#1258,#521,#1269,.T.);
#1271=ORIENTED_EDGE('',*,*,#1270,.F.);
#1272=CARTESIAN_POINT('',(0.750000000000114,5.952940449895323,12.1));
#1273=DIRECTION('',(0.0,0.0,1.0));
#1274=VECTOR('',#1273,1.350000000000001);
#1275=LINE('',#1272,#1274);
#1276=EDGE_CURVE('',#445,#1258,#1275,.T.);
#1277=ORIENTED_EDGE('',*,*,#1276,.F.);
#1278=ORIENTED_EDGE('',*,*,#450,.F.);
#1279=ORIENTED_EDGE('',*,*,#1247,.F.);
#1280=ORIENTED_EDGE('',*,*,#535,.F.);
#1281=EDGE_LOOP('',(#1271,#1277,#1278,#1279,#1280));
#1282=FACE_OUTER_BOUND('',#1281,.T.);
#1283=ADVANCED_FACE('',(#1282),#1256,.F.);
#1284=CARTESIAN_POINT('',(-0.749999999999886,5.952940449895323,14.6));
#1285=DIRECTION('',(-1.0,0.0,0.0));
#1286=DIRECTION('',(0.0,0.0,1.0));
#1287=AXIS2_PLACEMENT_3D('',#1284,#1285,#1286);
#1288=PLANE('',#1287);
#1289=ORIENTED_EDGE('',*,*,#1137,.F.);
#1290=ORIENTED_EDGE('',*,*,#552,.F.);
#1291=ORIENTED_EDGE('',*,*,#1240,.T.);
#1292=ORIENTED_EDGE('',*,*,#433,.F.);
#1293=ORIENTED_EDGE('',*,*,#1014,.F.);
#1294=EDGE_LOOP('',(#1289,#1290,#1291,#1292,#1293));
#1295=FACE_OUTER_BOUND('',#1294,.T.);
#1296=ADVANCED_FACE('',(#1295),#1288,.F.);
#1297=CARTESIAN_POINT('',(-5.828670E-016,5.335469840622233,14.601000000000004));
#1298=CARTESIAN_POINT('',(-8.053984E-016,6.000577349809698,13.449));
#1299=CARTESIAN_POINT('',(-5.335469840622233,5.335469840622232,14.601000000000003));
#1300=CARTESIAN_POINT('',(-6.000577349809697,6.000577349809694,13.449));
#1301=CARTESIAN_POINT('',(-5.335469840622233,-3.976112E-016,14.601000000000006));
#1302=CARTESIAN_POINT('',(-6.000577349809698,-9.906542E-016,13.449000000000002));
#1303=CARTESIAN_POINT('',(-5.335469840622231,-5.335469840622232,14.601000000000008));
#1304=CARTESIAN_POINT('',(-6.000577349809694,-6.000577349809697,13.449000000000002));
#1305=CARTESIAN_POINT('',(7.239463E-016,-5.335469840622233,14.601000000000008));
#1306=CARTESIAN_POINT('',(6.643191E-016,-6.000577349809698,13.449000000000003));
#1307=CARTESIAN_POINT('',(5.335469840622233,-5.335469840622231,14.601000000000008));
#1308=CARTESIAN_POINT('',(6.000577349809697,-6.000577349809694,13.449000000000002));
#1309=CARTESIAN_POINT('',(5.335469840622233,9.092020E-016,14.601000000000006));
#1310=CARTESIAN_POINT('',(6.000577349809698,4.790634E-016,13.449000000000002));
#1311=CARTESIAN_POINT('',(5.335469840622231,5.335469840622233,14.601000000000003));
#1312=CARTESIAN_POINT('',(6.000577349809694,6.000577349809697,13.449));
#1313=CARTESIAN_POINT('',(-5.828670E-016,5.335469840622233,14.601000000000004));
#1314=CARTESIAN_POINT('',(-8.053984E-016,6.000577349809698,13.449));
#1322=(BOUNDED_SURFACE()B_SPLINE_SURFACE(1,2,((#1297,#1299,#1301,#1303,#1305,#1307,#1309,#1311,#1313),(#1298,#1300,#1302,#1304,#1306,#1308,#1310,#1312,#1314)),.UNSPECIFIED.,.F.,.T.,.U.)B_SPLINE_SURFACE_WITH_KNOTS((2,2),(3,2,2,2,3),(-0.117343814594929,0.117343814594929),(0.0,8.903310643552041,17.806621287104083,26.709931930656126,35.613242574208165),.UNSPECIFIED.)GEOMETRIC_REPRESENTATION_ITEM()RATIONAL_B_SPLINE_SURFACE(((1.0,0.707106781186548,1.0,0.707106781186548,1.0,0.707106781186548,1.0,0.707106781186548,1.0),(1.0,0.707106781186548,1.0,0.707106781186548,1.0,0.707106781186548,1.0,0.707106781186548,1.0)))REPRESENTATION_ITEM('')SURFACE());
#1323=ORIENTED_EDGE('',*,*,#746,.T.);
#1324=CARTESIAN_POINT('',(0.0,0.0,13.450000000000001));
#1325=DIRECTION('',(0.0,0.0,-1.0));
#1326=DIRECTION('',(-1.0,0.0,0.0));
#1327=AXIS2_PLACEMENT_3D('',#1324,#1325,#1326);
#1328=CIRCLE('',#1327,6.000000000000001);
#1329=EDGE_CURVE('',#1258,#734,#1328,.T.);
#1330=ORIENTED_EDGE('',*,*,#1329,.F.);
#1331=ORIENTED_EDGE('',*,*,#1270,.T.);
#1332=ORIENTED_EDGE('',*,*,#527,.F.);
#1333=EDGE_LOOP('',(#1323,#1330,#1331,#1332));
#1334=FACE_OUTER_BOUND('',#1333,.T.);
#1335=ADVANCED_FACE('',(#1334),#1322,.T.);
#1336=CARTESIAN_POINT('',(6.000000000000001,-7.347881E-016,12.1));
#1337=CARTESIAN_POINT('',(6.000000000000001,-1.352676E-016,13.450000000000008));
#1338=CARTESIAN_POINT('',(5.999999999999998,-6.0,12.1));
#1339=CARTESIAN_POINT('',(5.999999999999998,-5.999999999999999,13.45000000000001));
#1340=CARTESIAN_POINT('',(-7.347881E-016,-6.000000000000001,12.100000000000003));
#1341=CARTESIAN_POINT('',(-5.694608E-016,-6.0,13.450000000000012));
#1342=CARTESIAN_POINT('',(-6.0,-5.999999999999998,12.1));
#1343=CARTESIAN_POINT('',(-6.0,-5.999999999999998,13.45000000000001));
#1344=CARTESIAN_POINT('',(-6.000000000000001,7.347881E-016,12.1));
#1345=CARTESIAN_POINT('',(-6.000000000000001,1.334309E-015,13.450000000000008));
#1346=CARTESIAN_POINT('',(-5.999999999999998,6.0,12.099999999999998));
#1347=CARTESIAN_POINT('',(-5.999999999999998,6.0,13.450000000000005));
#1348=CARTESIAN_POINT('',(7.347881E-016,6.000000000000001,12.099999999999996));
#1349=CARTESIAN_POINT('',(9.001154E-016,6.000000000000002,13.450000000000005));
#1350=CARTESIAN_POINT('',(6.0,5.999999999999998,12.099999999999998));
#1351=CARTESIAN_POINT('',(6.0,5.999999999999999,13.450000000000005));
#1352=CARTESIAN_POINT('',(6.000000000000001,-7.347881E-016,12.1));
#1353=CARTESIAN_POINT('',(6.000000000000001,-1.352676E-016,13.450000000000008));
#1361=(BOUNDED_SURFACE()B_SPLINE_SURFACE(1,2,((#1336,#1338,#1340,#1342,#1344,#1346,#1348,#1350,#1352),(#1337,#1339,#1341,#1343,#1345,#1347,#1349,#1351,#1353)),.UNSPECIFIED.,.F.,.T.,.U.)B_SPLINE_SURFACE_WITH_KNOTS((2,2),(3,2,2,2,3),(-5.921189E-016,0.225000000000001),(0.0,9.424777960769381,18.849555921538762,28.274333882308142,37.699111843077524),.UNSPECIFIED.)GEOMETRIC_REPRESENTATION_ITEM()RATIONAL_B_SPLINE_SURFACE(((1.0,0.707106781186548,1.0,0.707106781186548,1.0,0.707106781186548,1.0,0.707106781186548,1.0),(1.0,0.707106781186548,1.0,0.707106781186548,1.0,0.707106781186548,1.0,0.707106781186548,1.0)))REPRESENTATION_ITEM('')SURFACE());
#1362=ORIENTED_EDGE('',*,*,#755,.T.);
#1363=ORIENTED_EDGE('',*,*,#457,.F.);
#1364=ORIENTED_EDGE('',*,*,#1276,.T.);
#1365=ORIENTED_EDGE('',*,*,#1329,.T.);
#1366=EDGE_LOOP('',(#1362,#1363,#1364,#1365));
#1367=FACE_OUTER_BOUND('',#1366,.T.);
#1368=ADVANCED_FACE('',(#1367),#1361,.T.);
#1369=CLOSED_SHELL('',(#127,#186,#239,#284,#317,#465,#504,#652,#695,#727,#759,#802,#834,#866,#909,#941,#973,#1019,#1058,#1097,#1142,#1175,#1208,#1251,#1283,#1296,#1335,#1368));
#1370=MANIFOLD_SOLID_BREP('C6F4',#1369);
#1371=COLOUR_RGB('254',0.866,0.866,0.866);
#1372=SURFACE_STYLE_USAGE(.BOTH.,#1373);
#1373=SURFACE_SIDE_STYLE('NONE',(#1374));
#1374=SURFACE_STYLE_FILL_AREA(#1375);
#1375=FILL_AREA_STYLE('NONE',(#1376));
#1376=FILL_AREA_STYLE_COLOUR('NONE',#1371);
#1377=PRESENTATION_STYLE_ASSIGNMENT((#1372));
#1378=STYLED_ITEM('NONE',(#1377),#1370);
#1379=MECHANICAL_DESIGN_GEOMETRIC_PRESENTATION_REPRESENTATION('NONE',(#1378),#28);
#1380=PRESENTATION_LAYER_ASSIGNMENT('3D','None',(#1370));
#1381=ADVANCED_BREP_SHAPE_REPRESENTATION('ABSR1',(#1370),#28);
#1382=SHAPE_REPRESENTATION_RELATIONSHIP('SRRPL1','',#1381,#62);
ENDSEC;
END-ISO-10303-21;
