ISO-10303-21;
HEADER;
/* Generated by software containing ST-Developer
 * from STEP Tools, Inc. (www.steptools.com) 
 */

FILE_DESCRIPTION(
/* description */ (''),
/* implementation_level */ '2;1');

FILE_NAME(
/* name */ 
'G:\\Applications\\Altium\\CernLib\\StepLib\\MOLEX_22-27-2031.stp',
/* time_stamp */ '2016-12-21T17:50:14+01:00',
/* author */ ('riccim'),
/* organization */ (''),
/* preprocessor_version */ 'ST-DEVELOPER v15.5',
/* originating_system */ 'AutoCAD Mechanical',
/* authorisation */ '');

FILE_SCHEMA (('AUTOMOTIVE_DESIGN { 1 0 10303 214 3 1 1 }'));
ENDSEC;

DATA;
#10=MECHANICAL_DESIGN_GEOMETRIC_PRESENTATION_REPRESENTATION('',(#17,#18,
#19,#20),#1797);
#11=DIMENSIONAL_EXPONENTS(0.,0.,0.,0.,0.,0.,0.);
#12=(
CONVERSION_BASED_UNIT('degree',#13)
NAMED_UNIT(#11)
PLANE_ANGLE_UNIT()
);
#13=PLANE_ANGLE_MEASURE_WITH_UNIT(PLANE_ANGLE_MEASURE(0.01745329252),#1800);
#14=PRESENTATION_LAYER_ASSIGNMENT('3D','',(#1138,#1139,#1140,#1141));
#15=SHAPE_REPRESENTATION_RELATIONSHIP('SRR','None',#1803,#16);
#16=ADVANCED_BREP_SHAPE_REPRESENTATION($,(#1138,#1139,#1140,#1141),#1796);
#17=STYLED_ITEM($,(#1813),#1138);
#18=STYLED_ITEM($,(#1814),#1139);
#19=STYLED_ITEM($,(#1814),#1140);
#20=STYLED_ITEM($,(#1814),#1141);
#21=CYLINDRICAL_SURFACE($,#1175,0.25);
#22=CIRCLE($,#1169,0.25);
#23=CIRCLE($,#1174,0.25);
#24=FACE_BOUND($,#110,.T.);
#25=FACE_BOUND($,#113,.T.);
#26=FACE_BOUND($,#116,.T.);
#27=FACE_BOUND($,#117,.T.);
#28=FACE_BOUND($,#118,.T.);
#29=FACE_BOUND($,#132,.T.);
#30=FACE_OUTER_BOUND($,#89,.T.);
#31=FACE_OUTER_BOUND($,#90,.T.);
#32=FACE_OUTER_BOUND($,#91,.T.);
#33=FACE_OUTER_BOUND($,#92,.T.);
#34=FACE_OUTER_BOUND($,#93,.T.);
#35=FACE_OUTER_BOUND($,#94,.T.);
#36=FACE_OUTER_BOUND($,#95,.T.);
#37=FACE_OUTER_BOUND($,#96,.T.);
#38=FACE_OUTER_BOUND($,#97,.T.);
#39=FACE_OUTER_BOUND($,#98,.T.);
#40=FACE_OUTER_BOUND($,#99,.T.);
#41=FACE_OUTER_BOUND($,#100,.T.);
#42=FACE_OUTER_BOUND($,#101,.T.);
#43=FACE_OUTER_BOUND($,#102,.T.);
#44=FACE_OUTER_BOUND($,#103,.T.);
#45=FACE_OUTER_BOUND($,#104,.T.);
#46=FACE_OUTER_BOUND($,#105,.T.);
#47=FACE_OUTER_BOUND($,#106,.T.);
#48=FACE_OUTER_BOUND($,#107,.T.);
#49=FACE_OUTER_BOUND($,#108,.T.);
#50=FACE_OUTER_BOUND($,#109,.T.);
#51=FACE_OUTER_BOUND($,#111,.T.);
#52=FACE_OUTER_BOUND($,#112,.T.);
#53=FACE_OUTER_BOUND($,#114,.T.);
#54=FACE_OUTER_BOUND($,#115,.T.);
#55=FACE_OUTER_BOUND($,#119,.T.);
#56=FACE_OUTER_BOUND($,#120,.T.);
#57=FACE_OUTER_BOUND($,#121,.T.);
#58=FACE_OUTER_BOUND($,#122,.T.);
#59=FACE_OUTER_BOUND($,#123,.T.);
#60=FACE_OUTER_BOUND($,#124,.T.);
#61=FACE_OUTER_BOUND($,#125,.T.);
#62=FACE_OUTER_BOUND($,#126,.T.);
#63=FACE_OUTER_BOUND($,#127,.T.);
#64=FACE_OUTER_BOUND($,#128,.T.);
#65=FACE_OUTER_BOUND($,#129,.T.);
#66=FACE_OUTER_BOUND($,#130,.T.);
#67=FACE_OUTER_BOUND($,#131,.T.);
#68=FACE_OUTER_BOUND($,#133,.T.);
#69=FACE_OUTER_BOUND($,#134,.T.);
#70=FACE_OUTER_BOUND($,#135,.T.);
#71=FACE_OUTER_BOUND($,#136,.T.);
#72=FACE_OUTER_BOUND($,#137,.T.);
#73=FACE_OUTER_BOUND($,#138,.T.);
#74=FACE_OUTER_BOUND($,#139,.T.);
#75=FACE_OUTER_BOUND($,#140,.T.);
#76=FACE_OUTER_BOUND($,#141,.T.);
#77=FACE_OUTER_BOUND($,#142,.T.);
#78=FACE_OUTER_BOUND($,#143,.T.);
#79=FACE_OUTER_BOUND($,#144,.T.);
#80=FACE_OUTER_BOUND($,#145,.T.);
#81=FACE_OUTER_BOUND($,#146,.T.);
#82=FACE_OUTER_BOUND($,#147,.T.);
#83=FACE_OUTER_BOUND($,#148,.T.);
#84=FACE_OUTER_BOUND($,#149,.T.);
#85=FACE_OUTER_BOUND($,#150,.T.);
#86=FACE_OUTER_BOUND($,#151,.T.);
#87=FACE_OUTER_BOUND($,#152,.T.);
#88=FACE_OUTER_BOUND($,#153,.T.);
#89=EDGE_LOOP($,(#711,#712,#713,#714));
#90=EDGE_LOOP($,(#715,#716,#717,#718));
#91=EDGE_LOOP($,(#719,#720,#721,#722));
#92=EDGE_LOOP($,(#723,#724,#725,#726));
#93=EDGE_LOOP($,(#727,#728,#729,#730));
#94=EDGE_LOOP($,(#731,#732,#733,#734));
#95=EDGE_LOOP($,(#735,#736,#737,#738));
#96=EDGE_LOOP($,(#739,#740,#741,#742));
#97=EDGE_LOOP($,(#743,#744,#745,#746));
#98=EDGE_LOOP($,(#747,#748,#749,#750));
#99=EDGE_LOOP($,(#751,#752,#753,#754));
#100=EDGE_LOOP($,(#755,#756,#757,#758));
#101=EDGE_LOOP($,(#759,#760,#761,#762));
#102=EDGE_LOOP($,(#763,#764,#765,#766,#767,#768,#769,#770,#771,#772,#773,
#774,#775,#776,#777,#778));
#103=EDGE_LOOP($,(#779,#780,#781,#782));
#104=EDGE_LOOP($,(#783,#784,#785,#786));
#105=EDGE_LOOP($,(#787,#788,#789,#790));
#106=EDGE_LOOP($,(#791,#792,#793,#794));
#107=EDGE_LOOP($,(#795,#796,#797,#798));
#108=EDGE_LOOP($,(#799,#800,#801,#802));
#109=EDGE_LOOP($,(#803,#804,#805,#806));
#110=EDGE_LOOP($,(#807,#808,#809,#810));
#111=EDGE_LOOP($,(#811,#812,#813,#814,#815,#816,#817,#818,#819,#820,#821,
#822,#823,#824,#825,#826,#827,#828,#829,#830,#831,#832));
#112=EDGE_LOOP($,(#833,#834,#835,#836));
#113=EDGE_LOOP($,(#837,#838,#839,#840));
#114=EDGE_LOOP($,(#841,#842,#843,#844));
#115=EDGE_LOOP($,(#845,#846,#847,#848,#849,#850,#851,#852));
#116=EDGE_LOOP($,(#853,#854,#855,#856));
#117=EDGE_LOOP($,(#857,#858,#859,#860));
#118=EDGE_LOOP($,(#861,#862,#863,#864));
#119=EDGE_LOOP($,(#865,#866,#867,#868,#869,#870,#871,#872,#873));
#120=EDGE_LOOP($,(#874,#875,#876,#877));
#121=EDGE_LOOP($,(#878,#879,#880,#881));
#122=EDGE_LOOP($,(#882,#883,#884,#885));
#123=EDGE_LOOP($,(#886,#887,#888,#889,#890,#891,#892,#893,#894));
#124=EDGE_LOOP($,(#895,#896,#897,#898));
#125=EDGE_LOOP($,(#899,#900,#901,#902));
#126=EDGE_LOOP($,(#903,#904,#905,#906));
#127=EDGE_LOOP($,(#907,#908,#909,#910));
#128=EDGE_LOOP($,(#911,#912,#913,#914));
#129=EDGE_LOOP($,(#915,#916,#917,#918,#919,#920));
#130=EDGE_LOOP($,(#921,#922,#923,#924));
#131=EDGE_LOOP($,(#925,#926,#927,#928));
#132=EDGE_LOOP($,(#929,#930,#931,#932));
#133=EDGE_LOOP($,(#933,#934,#935,#936));
#134=EDGE_LOOP($,(#937,#938,#939,#940));
#135=EDGE_LOOP($,(#941,#942,#943,#944));
#136=EDGE_LOOP($,(#945,#946,#947,#948));
#137=EDGE_LOOP($,(#949,#950,#951,#952));
#138=EDGE_LOOP($,(#953,#954,#955,#956));
#139=EDGE_LOOP($,(#957,#958,#959,#960));
#140=EDGE_LOOP($,(#961,#962,#963,#964));
#141=EDGE_LOOP($,(#965,#966,#967,#968));
#142=EDGE_LOOP($,(#969,#970,#971,#972));
#143=EDGE_LOOP($,(#973,#974,#975,#976));
#144=EDGE_LOOP($,(#977,#978,#979,#980));
#145=EDGE_LOOP($,(#981,#982,#983,#984));
#146=EDGE_LOOP($,(#985,#986,#987,#988));
#147=EDGE_LOOP($,(#989,#990,#991,#992));
#148=EDGE_LOOP($,(#993,#994,#995,#996));
#149=EDGE_LOOP($,(#997,#998,#999,#1000));
#150=EDGE_LOOP($,(#1001,#1002,#1003,#1004));
#151=EDGE_LOOP($,(#1005,#1006,#1007,#1008));
#152=EDGE_LOOP($,(#1009,#1010,#1011,#1012));
#153=EDGE_LOOP($,(#1013,#1014,#1015,#1016));
#154=LINE($,#1483,#305);
#155=LINE($,#1485,#306);
#156=LINE($,#1487,#307);
#157=LINE($,#1488,#308);
#158=LINE($,#1491,#309);
#159=LINE($,#1493,#310);
#160=LINE($,#1494,#311);
#161=LINE($,#1497,#312);
#162=LINE($,#1499,#313);
#163=LINE($,#1500,#314);
#164=LINE($,#1502,#315);
#165=LINE($,#1503,#316);
#166=LINE($,#1507,#317);
#167=LINE($,#1509,#318);
#168=LINE($,#1511,#319);
#169=LINE($,#1512,#320);
#170=LINE($,#1515,#321);
#171=LINE($,#1517,#322);
#172=LINE($,#1518,#323);
#173=LINE($,#1521,#324);
#174=LINE($,#1523,#325);
#175=LINE($,#1524,#326);
#176=LINE($,#1526,#327);
#177=LINE($,#1527,#328);
#178=LINE($,#1531,#329);
#179=LINE($,#1533,#330);
#180=LINE($,#1535,#331);
#181=LINE($,#1536,#332);
#182=LINE($,#1539,#333);
#183=LINE($,#1541,#334);
#184=LINE($,#1542,#335);
#185=LINE($,#1545,#336);
#186=LINE($,#1547,#337);
#187=LINE($,#1548,#338);
#188=LINE($,#1550,#339);
#189=LINE($,#1551,#340);
#190=LINE($,#1555,#341);
#191=LINE($,#1557,#342);
#192=LINE($,#1559,#343);
#193=LINE($,#1560,#344);
#194=LINE($,#1564,#345);
#195=LINE($,#1566,#346);
#196=LINE($,#1568,#347);
#197=LINE($,#1570,#348);
#198=LINE($,#1571,#349);
#199=LINE($,#1573,#350);
#200=LINE($,#1575,#351);
#201=LINE($,#1577,#352);
#202=LINE($,#1579,#353);
#203=LINE($,#1581,#354);
#204=LINE($,#1583,#355);
#205=LINE($,#1585,#356);
#206=LINE($,#1587,#357);
#207=LINE($,#1589,#358);
#208=LINE($,#1590,#359);
#209=LINE($,#1594,#360);
#210=LINE($,#1595,#361);
#211=LINE($,#1596,#362);
#212=LINE($,#1599,#363);
#213=LINE($,#1600,#364);
#214=LINE($,#1603,#365);
#215=LINE($,#1605,#366);
#216=LINE($,#1606,#367);
#217=LINE($,#1609,#368);
#218=LINE($,#1610,#369);
#219=LINE($,#1614,#370);
#220=LINE($,#1615,#371);
#221=LINE($,#1616,#372);
#222=LINE($,#1619,#373);
#223=LINE($,#1620,#374);
#224=LINE($,#1623,#375);
#225=LINE($,#1624,#376);
#226=LINE($,#1627,#377);
#227=LINE($,#1629,#378);
#228=LINE($,#1630,#379);
#229=LINE($,#1631,#380);
#230=LINE($,#1633,#381);
#231=LINE($,#1635,#382);
#232=LINE($,#1637,#383);
#233=LINE($,#1639,#384);
#234=LINE($,#1641,#385);
#235=LINE($,#1643,#386);
#236=LINE($,#1645,#387);
#237=LINE($,#1646,#388);
#238=LINE($,#1648,#389);
#239=LINE($,#1649,#390);
#240=LINE($,#1651,#391);
#241=LINE($,#1654,#392);
#242=LINE($,#1656,#393);
#243=LINE($,#1658,#394);
#244=LINE($,#1659,#395);
#245=LINE($,#1664,#396);
#246=LINE($,#1666,#397);
#247=LINE($,#1668,#398);
#248=LINE($,#1670,#399);
#249=LINE($,#1672,#400);
#250=LINE($,#1673,#401);
#251=LINE($,#1676,#402);
#252=LINE($,#1677,#403);
#253=LINE($,#1680,#404);
#254=LINE($,#1681,#405);
#255=LINE($,#1684,#406);
#256=LINE($,#1685,#407);
#257=LINE($,#1688,#408);
#258=LINE($,#1690,#409);
#259=LINE($,#1692,#410);
#260=LINE($,#1694,#411);
#261=LINE($,#1696,#412);
#262=LINE($,#1699,#413);
#263=LINE($,#1701,#414);
#264=LINE($,#1703,#415);
#265=LINE($,#1705,#416);
#266=LINE($,#1707,#417);
#267=LINE($,#1711,#418);
#268=LINE($,#1712,#419);
#269=LINE($,#1719,#420);
#270=LINE($,#1721,#421);
#271=LINE($,#1723,#422);
#272=LINE($,#1724,#423);
#273=LINE($,#1727,#424);
#274=LINE($,#1729,#425);
#275=LINE($,#1730,#426);
#276=LINE($,#1733,#427);
#277=LINE($,#1735,#428);
#278=LINE($,#1736,#429);
#279=LINE($,#1738,#430);
#280=LINE($,#1739,#431);
#281=LINE($,#1745,#432);
#282=LINE($,#1747,#433);
#283=LINE($,#1749,#434);
#284=LINE($,#1750,#435);
#285=LINE($,#1753,#436);
#286=LINE($,#1755,#437);
#287=LINE($,#1756,#438);
#288=LINE($,#1759,#439);
#289=LINE($,#1761,#440);
#290=LINE($,#1762,#441);
#291=LINE($,#1764,#442);
#292=LINE($,#1765,#443);
#293=LINE($,#1771,#444);
#294=LINE($,#1773,#445);
#295=LINE($,#1775,#446);
#296=LINE($,#1776,#447);
#297=LINE($,#1779,#448);
#298=LINE($,#1781,#449);
#299=LINE($,#1782,#450);
#300=LINE($,#1785,#451);
#301=LINE($,#1787,#452);
#302=LINE($,#1788,#453);
#303=LINE($,#1790,#454);
#304=LINE($,#1791,#455);
#305=VECTOR($,#1208,0.64);
#306=VECTOR($,#1209,2.52);
#307=VECTOR($,#1210,0.64);
#308=VECTOR($,#1211,2.52);
#309=VECTOR($,#1214,0.64);
#310=VECTOR($,#1215,0.64);
#311=VECTOR($,#1216,2.52);
#312=VECTOR($,#1219,0.64);
#313=VECTOR($,#1220,2.52);
#314=VECTOR($,#1221,0.64);
#315=VECTOR($,#1224,0.64);
#316=VECTOR($,#1225,0.64);
#317=VECTOR($,#1228,0.64);
#318=VECTOR($,#1229,2.52);
#319=VECTOR($,#1230,0.64);
#320=VECTOR($,#1231,2.52);
#321=VECTOR($,#1234,0.64);
#322=VECTOR($,#1235,0.64);
#323=VECTOR($,#1236,2.52);
#324=VECTOR($,#1239,0.64);
#325=VECTOR($,#1240,0.64);
#326=VECTOR($,#1241,2.52);
#327=VECTOR($,#1244,0.64);
#328=VECTOR($,#1245,0.64);
#329=VECTOR($,#1248,0.64);
#330=VECTOR($,#1249,2.52);
#331=VECTOR($,#1250,0.64);
#332=VECTOR($,#1251,2.52);
#333=VECTOR($,#1254,0.640000000000001);
#334=VECTOR($,#1255,2.52);
#335=VECTOR($,#1256,0.64);
#336=VECTOR($,#1259,0.640000000000001);
#337=VECTOR($,#1260,0.64);
#338=VECTOR($,#1261,2.52);
#339=VECTOR($,#1264,0.64);
#340=VECTOR($,#1265,0.64);
#341=VECTOR($,#1268,5.8);
#342=VECTOR($,#1269,3.16);
#343=VECTOR($,#1270,5.8);
#344=VECTOR($,#1271,3.16);
#345=VECTOR($,#1274,1.68);
#346=VECTOR($,#1275,0.64);
#347=VECTOR($,#1276,0.43);
#348=VECTOR($,#1277,3.16);
#349=VECTOR($,#1278,7.62);
#350=VECTOR($,#1279,0.43);
#351=VECTOR($,#1280,0.64);
#352=VECTOR($,#1281,1.68);
#353=VECTOR($,#1282,0.64);
#354=VECTOR($,#1283,0.86);
#355=VECTOR($,#1284,0.64);
#356=VECTOR($,#1285,1.68);
#357=VECTOR($,#1286,0.64);
#358=VECTOR($,#1287,0.86);
#359=VECTOR($,#1288,0.64);
#360=VECTOR($,#1291,0.64);
#361=VECTOR($,#1292,5.8);
#362=VECTOR($,#1293,5.8);
#363=VECTOR($,#1296,0.43);
#364=VECTOR($,#1297,5.8);
#365=VECTOR($,#1300,5.8);
#366=VECTOR($,#1301,0.86);
#367=VECTOR($,#1302,5.8);
#368=VECTOR($,#1305,5.8);
#369=VECTOR($,#1306,0.86);
#370=VECTOR($,#1309,0.43);
#371=VECTOR($,#1310,5.8);
#372=VECTOR($,#1311,5.8);
#373=VECTOR($,#1314,0.64);
#374=VECTOR($,#1315,5.8);
#375=VECTOR($,#1318,5.8);
#376=VECTOR($,#1319,1.68);
#377=VECTOR($,#1322,0.64);
#378=VECTOR($,#1323,1.68);
#379=VECTOR($,#1324,0.64);
#380=VECTOR($,#1325,0.64);
#381=VECTOR($,#1326,1.27);
#382=VECTOR($,#1327,7.79);
#383=VECTOR($,#1328,0.798133329357054);
#384=VECTOR($,#1329,4.5340446486);
#385=VECTOR($,#1330,0.798133329357053);
#386=VECTOR($,#1331,7.79);
#387=VECTOR($,#1332,1.27);
#388=VECTOR($,#1333,3.16);
#389=VECTOR($,#1334,0.64);
#390=VECTOR($,#1335,1.68);
#391=VECTOR($,#1338,5.8);
#392=VECTOR($,#1343,5.8);
#393=VECTOR($,#1344,1.25);
#394=VECTOR($,#1345,5.08);
#395=VECTOR($,#1346,1.25);
#396=VECTOR($,#1351,2.04);
#397=VECTOR($,#1352,0.749533188057741);
#398=VECTOR($,#1353,1.);
#399=VECTOR($,#1354,1.06000000000043);
#400=VECTOR($,#1355,3.052013071988);
#401=VECTOR($,#1356,1.);
#402=VECTOR($,#1359,0.798133329357054);
#403=VECTOR($,#1360,1.);
#404=VECTOR($,#1363,4.5340446486);
#405=VECTOR($,#1364,1.);
#406=VECTOR($,#1367,0.798133329357053);
#407=VECTOR($,#1368,1.);
#408=VECTOR($,#1371,3.052013071988);
#409=VECTOR($,#1372,1.06000000000043);
#410=VECTOR($,#1373,1.);
#411=VECTOR($,#1374,0.749533188057741);
#412=VECTOR($,#1375,2.04);
#413=VECTOR($,#1380,5.08);
#414=VECTOR($,#1383,5.08);
#415=VECTOR($,#1386,5.08);
#416=VECTOR($,#1389,5.08);
#417=VECTOR($,#1392,5.08);
#418=VECTOR($,#1399,5.8);
#419=VECTOR($,#1400,5.8);
#420=VECTOR($,#1409,0.64);
#421=VECTOR($,#1410,14.22);
#422=VECTOR($,#1411,0.64);
#423=VECTOR($,#1412,14.22);
#424=VECTOR($,#1415,0.64);
#425=VECTOR($,#1416,0.64);
#426=VECTOR($,#1417,14.22);
#427=VECTOR($,#1420,0.64);
#428=VECTOR($,#1421,0.64);
#429=VECTOR($,#1422,14.22);
#430=VECTOR($,#1425,0.64);
#431=VECTOR($,#1426,0.64);
#432=VECTOR($,#1433,0.64);
#433=VECTOR($,#1434,14.22);
#434=VECTOR($,#1435,0.64);
#435=VECTOR($,#1436,14.22);
#436=VECTOR($,#1439,0.64);
#437=VECTOR($,#1440,0.64);
#438=VECTOR($,#1441,14.22);
#439=VECTOR($,#1444,0.64);
#440=VECTOR($,#1445,0.64);
#441=VECTOR($,#1446,14.22);
#442=VECTOR($,#1449,0.64);
#443=VECTOR($,#1450,0.64);
#444=VECTOR($,#1457,0.64);
#445=VECTOR($,#1458,14.22);
#446=VECTOR($,#1459,0.64);
#447=VECTOR($,#1460,14.22);
#448=VECTOR($,#1463,0.64);
#449=VECTOR($,#1464,0.64);
#450=VECTOR($,#1465,14.22);
#451=VECTOR($,#1468,0.64);
#452=VECTOR($,#1469,0.64);
#453=VECTOR($,#1470,14.22);
#454=VECTOR($,#1473,0.64);
#455=VECTOR($,#1474,0.64);
#456=VERTEX_POINT($,#1481);
#457=VERTEX_POINT($,#1482);
#458=VERTEX_POINT($,#1484);
#459=VERTEX_POINT($,#1486);
#460=VERTEX_POINT($,#1490);
#461=VERTEX_POINT($,#1492);
#462=VERTEX_POINT($,#1496);
#463=VERTEX_POINT($,#1498);
#464=VERTEX_POINT($,#1505);
#465=VERTEX_POINT($,#1506);
#466=VERTEX_POINT($,#1508);
#467=VERTEX_POINT($,#1510);
#468=VERTEX_POINT($,#1514);
#469=VERTEX_POINT($,#1516);
#470=VERTEX_POINT($,#1520);
#471=VERTEX_POINT($,#1522);
#472=VERTEX_POINT($,#1529);
#473=VERTEX_POINT($,#1530);
#474=VERTEX_POINT($,#1532);
#475=VERTEX_POINT($,#1534);
#476=VERTEX_POINT($,#1538);
#477=VERTEX_POINT($,#1540);
#478=VERTEX_POINT($,#1544);
#479=VERTEX_POINT($,#1546);
#480=VERTEX_POINT($,#1553);
#481=VERTEX_POINT($,#1554);
#482=VERTEX_POINT($,#1556);
#483=VERTEX_POINT($,#1558);
#484=VERTEX_POINT($,#1562);
#485=VERTEX_POINT($,#1563);
#486=VERTEX_POINT($,#1565);
#487=VERTEX_POINT($,#1567);
#488=VERTEX_POINT($,#1569);
#489=VERTEX_POINT($,#1572);
#490=VERTEX_POINT($,#1574);
#491=VERTEX_POINT($,#1576);
#492=VERTEX_POINT($,#1578);
#493=VERTEX_POINT($,#1580);
#494=VERTEX_POINT($,#1582);
#495=VERTEX_POINT($,#1584);
#496=VERTEX_POINT($,#1586);
#497=VERTEX_POINT($,#1588);
#498=VERTEX_POINT($,#1592);
#499=VERTEX_POINT($,#1593);
#500=VERTEX_POINT($,#1598);
#501=VERTEX_POINT($,#1602);
#502=VERTEX_POINT($,#1604);
#503=VERTEX_POINT($,#1608);
#504=VERTEX_POINT($,#1612);
#505=VERTEX_POINT($,#1613);
#506=VERTEX_POINT($,#1618);
#507=VERTEX_POINT($,#1622);
#508=VERTEX_POINT($,#1626);
#509=VERTEX_POINT($,#1628);
#510=VERTEX_POINT($,#1632);
#511=VERTEX_POINT($,#1634);
#512=VERTEX_POINT($,#1636);
#513=VERTEX_POINT($,#1638);
#514=VERTEX_POINT($,#1640);
#515=VERTEX_POINT($,#1642);
#516=VERTEX_POINT($,#1644);
#517=VERTEX_POINT($,#1647);
#518=VERTEX_POINT($,#1655);
#519=VERTEX_POINT($,#1657);
#520=VERTEX_POINT($,#1661);
#521=VERTEX_POINT($,#1663);
#522=VERTEX_POINT($,#1665);
#523=VERTEX_POINT($,#1667);
#524=VERTEX_POINT($,#1669);
#525=VERTEX_POINT($,#1671);
#526=VERTEX_POINT($,#1675);
#527=VERTEX_POINT($,#1679);
#528=VERTEX_POINT($,#1683);
#529=VERTEX_POINT($,#1687);
#530=VERTEX_POINT($,#1689);
#531=VERTEX_POINT($,#1691);
#532=VERTEX_POINT($,#1693);
#533=VERTEX_POINT($,#1695);
#534=VERTEX_POINT($,#1717);
#535=VERTEX_POINT($,#1718);
#536=VERTEX_POINT($,#1720);
#537=VERTEX_POINT($,#1722);
#538=VERTEX_POINT($,#1726);
#539=VERTEX_POINT($,#1728);
#540=VERTEX_POINT($,#1732);
#541=VERTEX_POINT($,#1734);
#542=VERTEX_POINT($,#1743);
#543=VERTEX_POINT($,#1744);
#544=VERTEX_POINT($,#1746);
#545=VERTEX_POINT($,#1748);
#546=VERTEX_POINT($,#1752);
#547=VERTEX_POINT($,#1754);
#548=VERTEX_POINT($,#1758);
#549=VERTEX_POINT($,#1760);
#550=VERTEX_POINT($,#1769);
#551=VERTEX_POINT($,#1770);
#552=VERTEX_POINT($,#1772);
#553=VERTEX_POINT($,#1774);
#554=VERTEX_POINT($,#1778);
#555=VERTEX_POINT($,#1780);
#556=VERTEX_POINT($,#1784);
#557=VERTEX_POINT($,#1786);
#558=EDGE_CURVE($,#456,#457,#154,.T.);
#559=EDGE_CURVE($,#456,#458,#155,.T.);
#560=EDGE_CURVE($,#458,#459,#156,.T.);
#561=EDGE_CURVE($,#457,#459,#157,.T.);
#562=EDGE_CURVE($,#460,#457,#158,.T.);
#563=EDGE_CURVE($,#461,#459,#159,.T.);
#564=EDGE_CURVE($,#460,#461,#160,.T.);
#565=EDGE_CURVE($,#462,#456,#161,.T.);
#566=EDGE_CURVE($,#462,#463,#162,.T.);
#567=EDGE_CURVE($,#463,#458,#163,.T.);
#568=EDGE_CURVE($,#462,#460,#164,.T.);
#569=EDGE_CURVE($,#463,#461,#165,.T.);
#570=EDGE_CURVE($,#464,#465,#166,.T.);
#571=EDGE_CURVE($,#466,#465,#167,.T.);
#572=EDGE_CURVE($,#467,#466,#168,.T.);
#573=EDGE_CURVE($,#467,#464,#169,.T.);
#574=EDGE_CURVE($,#468,#464,#170,.T.);
#575=EDGE_CURVE($,#469,#467,#171,.T.);
#576=EDGE_CURVE($,#469,#468,#172,.T.);
#577=EDGE_CURVE($,#468,#470,#173,.T.);
#578=EDGE_CURVE($,#469,#471,#174,.T.);
#579=EDGE_CURVE($,#471,#470,#175,.T.);
#580=EDGE_CURVE($,#470,#465,#176,.T.);
#581=EDGE_CURVE($,#471,#466,#177,.T.);
#582=EDGE_CURVE($,#472,#473,#178,.T.);
#583=EDGE_CURVE($,#474,#472,#179,.T.);
#584=EDGE_CURVE($,#474,#475,#180,.T.);
#585=EDGE_CURVE($,#475,#473,#181,.T.);
#586=EDGE_CURVE($,#476,#472,#182,.T.);
#587=EDGE_CURVE($,#477,#476,#183,.T.);
#588=EDGE_CURVE($,#474,#477,#184,.T.);
#589=EDGE_CURVE($,#473,#478,#185,.T.);
#590=EDGE_CURVE($,#475,#479,#186,.T.);
#591=EDGE_CURVE($,#479,#478,#187,.T.);
#592=EDGE_CURVE($,#478,#476,#188,.T.);
#593=EDGE_CURVE($,#477,#479,#189,.T.);
#594=EDGE_CURVE($,#480,#481,#190,.T.);
#595=EDGE_CURVE($,#482,#480,#191,.T.);
#596=EDGE_CURVE($,#483,#482,#192,.T.);
#597=EDGE_CURVE($,#481,#483,#193,.T.);
#598=EDGE_CURVE($,#484,#485,#194,.T.);
#599=EDGE_CURVE($,#486,#484,#195,.T.);
#600=EDGE_CURVE($,#486,#487,#196,.T.);
#601=EDGE_CURVE($,#488,#487,#197,.T.);
#602=EDGE_CURVE($,#481,#488,#198,.T.);
#603=EDGE_CURVE($,#483,#489,#199,.T.);
#604=EDGE_CURVE($,#489,#490,#200,.T.);
#605=EDGE_CURVE($,#491,#490,#201,.T.);
#606=EDGE_CURVE($,#492,#491,#202,.T.);
#607=EDGE_CURVE($,#492,#493,#203,.T.);
#608=EDGE_CURVE($,#493,#494,#204,.T.);
#609=EDGE_CURVE($,#495,#494,#205,.T.);
#610=EDGE_CURVE($,#496,#495,#206,.T.);
#611=EDGE_CURVE($,#496,#497,#207,.T.);
#612=EDGE_CURVE($,#497,#485,#208,.T.);
#613=EDGE_CURVE($,#498,#499,#209,.T.);
#614=EDGE_CURVE($,#485,#499,#210,.T.);
#615=EDGE_CURVE($,#497,#498,#211,.T.);
#616=EDGE_CURVE($,#482,#500,#212,.T.);
#617=EDGE_CURVE($,#489,#500,#213,.T.);
#618=EDGE_CURVE($,#492,#501,#214,.T.);
#619=EDGE_CURVE($,#501,#502,#215,.T.);
#620=EDGE_CURVE($,#493,#502,#216,.T.);
#621=EDGE_CURVE($,#496,#503,#217,.T.);
#622=EDGE_CURVE($,#503,#498,#218,.T.);
#623=EDGE_CURVE($,#504,#505,#219,.T.);
#624=EDGE_CURVE($,#487,#505,#220,.T.);
#625=EDGE_CURVE($,#486,#504,#221,.T.);
#626=EDGE_CURVE($,#500,#506,#222,.T.);
#627=EDGE_CURVE($,#490,#506,#223,.T.);
#628=EDGE_CURVE($,#491,#507,#224,.T.);
#629=EDGE_CURVE($,#507,#506,#225,.T.);
#630=EDGE_CURVE($,#503,#508,#226,.T.);
#631=EDGE_CURVE($,#508,#509,#227,.T.);
#632=EDGE_CURVE($,#502,#509,#228,.T.);
#633=EDGE_CURVE($,#501,#507,#229,.T.);
#634=EDGE_CURVE($,#480,#510,#230,.T.);
#635=EDGE_CURVE($,#510,#511,#231,.T.);
#636=EDGE_CURVE($,#511,#512,#232,.T.);
#637=EDGE_CURVE($,#512,#513,#233,.T.);
#638=EDGE_CURVE($,#513,#514,#234,.T.);
#639=EDGE_CURVE($,#515,#514,#235,.T.);
#640=EDGE_CURVE($,#515,#516,#236,.T.);
#641=EDGE_CURVE($,#505,#516,#237,.T.);
#642=EDGE_CURVE($,#504,#517,#238,.T.);
#643=EDGE_CURVE($,#517,#499,#239,.T.);
#644=EDGE_CURVE($,#484,#517,#240,.T.);
#645=EDGE_CURVE($,#516,#488,#241,.T.);
#646=EDGE_CURVE($,#515,#518,#242,.T.);
#647=EDGE_CURVE($,#519,#518,#243,.T.);
#648=EDGE_CURVE($,#510,#519,#244,.T.);
#649=EDGE_CURVE($,#520,#519,#22,.T.);
#650=EDGE_CURVE($,#521,#520,#245,.T.);
#651=EDGE_CURVE($,#522,#521,#246,.T.);
#652=EDGE_CURVE($,#523,#522,#247,.T.);
#653=EDGE_CURVE($,#524,#523,#248,.T.);
#654=EDGE_CURVE($,#525,#524,#249,.T.);
#655=EDGE_CURVE($,#511,#525,#250,.T.);
#656=EDGE_CURVE($,#525,#526,#251,.T.);
#657=EDGE_CURVE($,#512,#526,#252,.T.);
#658=EDGE_CURVE($,#526,#527,#253,.T.);
#659=EDGE_CURVE($,#513,#527,#254,.T.);
#660=EDGE_CURVE($,#527,#528,#255,.T.);
#661=EDGE_CURVE($,#514,#528,#256,.T.);
#662=EDGE_CURVE($,#528,#529,#257,.T.);
#663=EDGE_CURVE($,#529,#530,#258,.T.);
#664=EDGE_CURVE($,#530,#531,#259,.T.);
#665=EDGE_CURVE($,#531,#532,#260,.T.);
#666=EDGE_CURVE($,#532,#533,#261,.T.);
#667=EDGE_CURVE($,#533,#518,#23,.T.);
#668=EDGE_CURVE($,#520,#533,#262,.T.);
#669=EDGE_CURVE($,#521,#532,#263,.T.);
#670=EDGE_CURVE($,#522,#531,#264,.T.);
#671=EDGE_CURVE($,#523,#530,#265,.T.);
#672=EDGE_CURVE($,#524,#529,#266,.T.);
#673=EDGE_CURVE($,#495,#508,#267,.T.);
#674=EDGE_CURVE($,#494,#509,#268,.T.);
#675=EDGE_CURVE($,#534,#535,#269,.T.);
#676=EDGE_CURVE($,#534,#536,#270,.T.);
#677=EDGE_CURVE($,#537,#536,#271,.T.);
#678=EDGE_CURVE($,#535,#537,#272,.T.);
#679=EDGE_CURVE($,#535,#538,#273,.T.);
#680=EDGE_CURVE($,#539,#537,#274,.T.);
#681=EDGE_CURVE($,#538,#539,#275,.T.);
#682=EDGE_CURVE($,#538,#540,#276,.T.);
#683=EDGE_CURVE($,#541,#539,#277,.T.);
#684=EDGE_CURVE($,#540,#541,#278,.T.);
#685=EDGE_CURVE($,#540,#534,#279,.T.);
#686=EDGE_CURVE($,#536,#541,#280,.T.);
#687=EDGE_CURVE($,#542,#543,#281,.T.);
#688=EDGE_CURVE($,#542,#544,#282,.T.);
#689=EDGE_CURVE($,#545,#544,#283,.T.);
#690=EDGE_CURVE($,#543,#545,#284,.T.);
#691=EDGE_CURVE($,#543,#546,#285,.T.);
#692=EDGE_CURVE($,#547,#545,#286,.T.);
#693=EDGE_CURVE($,#546,#547,#287,.T.);
#694=EDGE_CURVE($,#546,#548,#288,.T.);
#695=EDGE_CURVE($,#549,#547,#289,.T.);
#696=EDGE_CURVE($,#548,#549,#290,.T.);
#697=EDGE_CURVE($,#548,#542,#291,.T.);
#698=EDGE_CURVE($,#544,#549,#292,.T.);
#699=EDGE_CURVE($,#550,#551,#293,.T.);
#700=EDGE_CURVE($,#550,#552,#294,.T.);
#701=EDGE_CURVE($,#553,#552,#295,.T.);
#702=EDGE_CURVE($,#551,#553,#296,.T.);
#703=EDGE_CURVE($,#551,#554,#297,.T.);
#704=EDGE_CURVE($,#555,#553,#298,.T.);
#705=EDGE_CURVE($,#554,#555,#299,.T.);
#706=EDGE_CURVE($,#554,#556,#300,.T.);
#707=EDGE_CURVE($,#557,#555,#301,.T.);
#708=EDGE_CURVE($,#556,#557,#302,.T.);
#709=EDGE_CURVE($,#556,#550,#303,.T.);
#710=EDGE_CURVE($,#552,#557,#304,.T.);
#711=ORIENTED_EDGE($,*,*,#558,.F.);
#712=ORIENTED_EDGE($,*,*,#559,.T.);
#713=ORIENTED_EDGE($,*,*,#560,.T.);
#714=ORIENTED_EDGE($,*,*,#561,.F.);
#715=ORIENTED_EDGE($,*,*,#562,.T.);
#716=ORIENTED_EDGE($,*,*,#561,.T.);
#717=ORIENTED_EDGE($,*,*,#563,.F.);
#718=ORIENTED_EDGE($,*,*,#564,.F.);
#719=ORIENTED_EDGE($,*,*,#565,.F.);
#720=ORIENTED_EDGE($,*,*,#566,.T.);
#721=ORIENTED_EDGE($,*,*,#567,.T.);
#722=ORIENTED_EDGE($,*,*,#559,.F.);
#723=ORIENTED_EDGE($,*,*,#568,.T.);
#724=ORIENTED_EDGE($,*,*,#564,.T.);
#725=ORIENTED_EDGE($,*,*,#569,.F.);
#726=ORIENTED_EDGE($,*,*,#566,.F.);
#727=ORIENTED_EDGE($,*,*,#570,.T.);
#728=ORIENTED_EDGE($,*,*,#571,.F.);
#729=ORIENTED_EDGE($,*,*,#572,.F.);
#730=ORIENTED_EDGE($,*,*,#573,.T.);
#731=ORIENTED_EDGE($,*,*,#574,.T.);
#732=ORIENTED_EDGE($,*,*,#573,.F.);
#733=ORIENTED_EDGE($,*,*,#575,.F.);
#734=ORIENTED_EDGE($,*,*,#576,.T.);
#735=ORIENTED_EDGE($,*,*,#577,.F.);
#736=ORIENTED_EDGE($,*,*,#576,.F.);
#737=ORIENTED_EDGE($,*,*,#578,.T.);
#738=ORIENTED_EDGE($,*,*,#579,.T.);
#739=ORIENTED_EDGE($,*,*,#580,.F.);
#740=ORIENTED_EDGE($,*,*,#579,.F.);
#741=ORIENTED_EDGE($,*,*,#581,.T.);
#742=ORIENTED_EDGE($,*,*,#571,.T.);
#743=ORIENTED_EDGE($,*,*,#582,.F.);
#744=ORIENTED_EDGE($,*,*,#583,.F.);
#745=ORIENTED_EDGE($,*,*,#584,.T.);
#746=ORIENTED_EDGE($,*,*,#585,.T.);
#747=ORIENTED_EDGE($,*,*,#586,.F.);
#748=ORIENTED_EDGE($,*,*,#587,.F.);
#749=ORIENTED_EDGE($,*,*,#588,.F.);
#750=ORIENTED_EDGE($,*,*,#583,.T.);
#751=ORIENTED_EDGE($,*,*,#589,.F.);
#752=ORIENTED_EDGE($,*,*,#585,.F.);
#753=ORIENTED_EDGE($,*,*,#590,.T.);
#754=ORIENTED_EDGE($,*,*,#591,.T.);
#755=ORIENTED_EDGE($,*,*,#592,.F.);
#756=ORIENTED_EDGE($,*,*,#591,.F.);
#757=ORIENTED_EDGE($,*,*,#593,.F.);
#758=ORIENTED_EDGE($,*,*,#587,.T.);
#759=ORIENTED_EDGE($,*,*,#594,.F.);
#760=ORIENTED_EDGE($,*,*,#595,.F.);
#761=ORIENTED_EDGE($,*,*,#596,.F.);
#762=ORIENTED_EDGE($,*,*,#597,.F.);
#763=ORIENTED_EDGE($,*,*,#598,.F.);
#764=ORIENTED_EDGE($,*,*,#599,.F.);
#765=ORIENTED_EDGE($,*,*,#600,.T.);
#766=ORIENTED_EDGE($,*,*,#601,.F.);
#767=ORIENTED_EDGE($,*,*,#602,.F.);
#768=ORIENTED_EDGE($,*,*,#597,.T.);
#769=ORIENTED_EDGE($,*,*,#603,.T.);
#770=ORIENTED_EDGE($,*,*,#604,.T.);
#771=ORIENTED_EDGE($,*,*,#605,.F.);
#772=ORIENTED_EDGE($,*,*,#606,.F.);
#773=ORIENTED_EDGE($,*,*,#607,.T.);
#774=ORIENTED_EDGE($,*,*,#608,.T.);
#775=ORIENTED_EDGE($,*,*,#609,.F.);
#776=ORIENTED_EDGE($,*,*,#610,.F.);
#777=ORIENTED_EDGE($,*,*,#611,.T.);
#778=ORIENTED_EDGE($,*,*,#612,.T.);
#779=ORIENTED_EDGE($,*,*,#613,.T.);
#780=ORIENTED_EDGE($,*,*,#614,.F.);
#781=ORIENTED_EDGE($,*,*,#612,.F.);
#782=ORIENTED_EDGE($,*,*,#615,.T.);
#783=ORIENTED_EDGE($,*,*,#603,.F.);
#784=ORIENTED_EDGE($,*,*,#596,.T.);
#785=ORIENTED_EDGE($,*,*,#616,.T.);
#786=ORIENTED_EDGE($,*,*,#617,.F.);
#787=ORIENTED_EDGE($,*,*,#607,.F.);
#788=ORIENTED_EDGE($,*,*,#618,.T.);
#789=ORIENTED_EDGE($,*,*,#619,.T.);
#790=ORIENTED_EDGE($,*,*,#620,.F.);
#791=ORIENTED_EDGE($,*,*,#611,.F.);
#792=ORIENTED_EDGE($,*,*,#621,.T.);
#793=ORIENTED_EDGE($,*,*,#622,.T.);
#794=ORIENTED_EDGE($,*,*,#615,.F.);
#795=ORIENTED_EDGE($,*,*,#623,.T.);
#796=ORIENTED_EDGE($,*,*,#624,.F.);
#797=ORIENTED_EDGE($,*,*,#600,.F.);
#798=ORIENTED_EDGE($,*,*,#625,.T.);
#799=ORIENTED_EDGE($,*,*,#626,.T.);
#800=ORIENTED_EDGE($,*,*,#627,.F.);
#801=ORIENTED_EDGE($,*,*,#604,.F.);
#802=ORIENTED_EDGE($,*,*,#617,.T.);
#803=ORIENTED_EDGE($,*,*,#628,.F.);
#804=ORIENTED_EDGE($,*,*,#605,.T.);
#805=ORIENTED_EDGE($,*,*,#627,.T.);
#806=ORIENTED_EDGE($,*,*,#629,.F.);
#807=ORIENTED_EDGE($,*,*,#577,.T.);
#808=ORIENTED_EDGE($,*,*,#580,.T.);
#809=ORIENTED_EDGE($,*,*,#570,.F.);
#810=ORIENTED_EDGE($,*,*,#574,.F.);
#811=ORIENTED_EDGE($,*,*,#622,.F.);
#812=ORIENTED_EDGE($,*,*,#630,.T.);
#813=ORIENTED_EDGE($,*,*,#631,.T.);
#814=ORIENTED_EDGE($,*,*,#632,.F.);
#815=ORIENTED_EDGE($,*,*,#619,.F.);
#816=ORIENTED_EDGE($,*,*,#633,.T.);
#817=ORIENTED_EDGE($,*,*,#629,.T.);
#818=ORIENTED_EDGE($,*,*,#626,.F.);
#819=ORIENTED_EDGE($,*,*,#616,.F.);
#820=ORIENTED_EDGE($,*,*,#595,.T.);
#821=ORIENTED_EDGE($,*,*,#634,.T.);
#822=ORIENTED_EDGE($,*,*,#635,.T.);
#823=ORIENTED_EDGE($,*,*,#636,.T.);
#824=ORIENTED_EDGE($,*,*,#637,.T.);
#825=ORIENTED_EDGE($,*,*,#638,.T.);
#826=ORIENTED_EDGE($,*,*,#639,.F.);
#827=ORIENTED_EDGE($,*,*,#640,.T.);
#828=ORIENTED_EDGE($,*,*,#641,.F.);
#829=ORIENTED_EDGE($,*,*,#623,.F.);
#830=ORIENTED_EDGE($,*,*,#642,.T.);
#831=ORIENTED_EDGE($,*,*,#643,.T.);
#832=ORIENTED_EDGE($,*,*,#613,.F.);
#833=ORIENTED_EDGE($,*,*,#644,.F.);
#834=ORIENTED_EDGE($,*,*,#598,.T.);
#835=ORIENTED_EDGE($,*,*,#614,.T.);
#836=ORIENTED_EDGE($,*,*,#643,.F.);
#837=ORIENTED_EDGE($,*,*,#586,.T.);
#838=ORIENTED_EDGE($,*,*,#582,.T.);
#839=ORIENTED_EDGE($,*,*,#589,.T.);
#840=ORIENTED_EDGE($,*,*,#592,.T.);
#841=ORIENTED_EDGE($,*,*,#599,.T.);
#842=ORIENTED_EDGE($,*,*,#644,.T.);
#843=ORIENTED_EDGE($,*,*,#642,.F.);
#844=ORIENTED_EDGE($,*,*,#625,.F.);
#845=ORIENTED_EDGE($,*,*,#634,.F.);
#846=ORIENTED_EDGE($,*,*,#594,.T.);
#847=ORIENTED_EDGE($,*,*,#602,.T.);
#848=ORIENTED_EDGE($,*,*,#645,.F.);
#849=ORIENTED_EDGE($,*,*,#640,.F.);
#850=ORIENTED_EDGE($,*,*,#646,.T.);
#851=ORIENTED_EDGE($,*,*,#647,.F.);
#852=ORIENTED_EDGE($,*,*,#648,.F.);
#853=ORIENTED_EDGE($,*,*,#558,.T.);
#854=ORIENTED_EDGE($,*,*,#562,.F.);
#855=ORIENTED_EDGE($,*,*,#568,.F.);
#856=ORIENTED_EDGE($,*,*,#565,.T.);
#857=ORIENTED_EDGE($,*,*,#593,.T.);
#858=ORIENTED_EDGE($,*,*,#590,.F.);
#859=ORIENTED_EDGE($,*,*,#584,.F.);
#860=ORIENTED_EDGE($,*,*,#588,.T.);
#861=ORIENTED_EDGE($,*,*,#572,.T.);
#862=ORIENTED_EDGE($,*,*,#581,.F.);
#863=ORIENTED_EDGE($,*,*,#578,.F.);
#864=ORIENTED_EDGE($,*,*,#575,.T.);
#865=ORIENTED_EDGE($,*,*,#635,.F.);
#866=ORIENTED_EDGE($,*,*,#648,.T.);
#867=ORIENTED_EDGE($,*,*,#649,.F.);
#868=ORIENTED_EDGE($,*,*,#650,.F.);
#869=ORIENTED_EDGE($,*,*,#651,.F.);
#870=ORIENTED_EDGE($,*,*,#652,.F.);
#871=ORIENTED_EDGE($,*,*,#653,.F.);
#872=ORIENTED_EDGE($,*,*,#654,.F.);
#873=ORIENTED_EDGE($,*,*,#655,.F.);
#874=ORIENTED_EDGE($,*,*,#655,.T.);
#875=ORIENTED_EDGE($,*,*,#656,.T.);
#876=ORIENTED_EDGE($,*,*,#657,.F.);
#877=ORIENTED_EDGE($,*,*,#636,.F.);
#878=ORIENTED_EDGE($,*,*,#658,.T.);
#879=ORIENTED_EDGE($,*,*,#659,.F.);
#880=ORIENTED_EDGE($,*,*,#637,.F.);
#881=ORIENTED_EDGE($,*,*,#657,.T.);
#882=ORIENTED_EDGE($,*,*,#659,.T.);
#883=ORIENTED_EDGE($,*,*,#660,.T.);
#884=ORIENTED_EDGE($,*,*,#661,.F.);
#885=ORIENTED_EDGE($,*,*,#638,.F.);
#886=ORIENTED_EDGE($,*,*,#662,.T.);
#887=ORIENTED_EDGE($,*,*,#663,.T.);
#888=ORIENTED_EDGE($,*,*,#664,.T.);
#889=ORIENTED_EDGE($,*,*,#665,.T.);
#890=ORIENTED_EDGE($,*,*,#666,.T.);
#891=ORIENTED_EDGE($,*,*,#667,.T.);
#892=ORIENTED_EDGE($,*,*,#646,.F.);
#893=ORIENTED_EDGE($,*,*,#639,.T.);
#894=ORIENTED_EDGE($,*,*,#661,.T.);
#895=ORIENTED_EDGE($,*,*,#667,.F.);
#896=ORIENTED_EDGE($,*,*,#668,.F.);
#897=ORIENTED_EDGE($,*,*,#649,.T.);
#898=ORIENTED_EDGE($,*,*,#647,.T.);
#899=ORIENTED_EDGE($,*,*,#668,.T.);
#900=ORIENTED_EDGE($,*,*,#666,.F.);
#901=ORIENTED_EDGE($,*,*,#669,.F.);
#902=ORIENTED_EDGE($,*,*,#650,.T.);
#903=ORIENTED_EDGE($,*,*,#669,.T.);
#904=ORIENTED_EDGE($,*,*,#665,.F.);
#905=ORIENTED_EDGE($,*,*,#670,.F.);
#906=ORIENTED_EDGE($,*,*,#651,.T.);
#907=ORIENTED_EDGE($,*,*,#670,.T.);
#908=ORIENTED_EDGE($,*,*,#664,.F.);
#909=ORIENTED_EDGE($,*,*,#671,.F.);
#910=ORIENTED_EDGE($,*,*,#652,.T.);
#911=ORIENTED_EDGE($,*,*,#671,.T.);
#912=ORIENTED_EDGE($,*,*,#663,.F.);
#913=ORIENTED_EDGE($,*,*,#672,.F.);
#914=ORIENTED_EDGE($,*,*,#653,.T.);
#915=ORIENTED_EDGE($,*,*,#654,.T.);
#916=ORIENTED_EDGE($,*,*,#672,.T.);
#917=ORIENTED_EDGE($,*,*,#662,.F.);
#918=ORIENTED_EDGE($,*,*,#660,.F.);
#919=ORIENTED_EDGE($,*,*,#658,.F.);
#920=ORIENTED_EDGE($,*,*,#656,.F.);
#921=ORIENTED_EDGE($,*,*,#624,.T.);
#922=ORIENTED_EDGE($,*,*,#641,.T.);
#923=ORIENTED_EDGE($,*,*,#645,.T.);
#924=ORIENTED_EDGE($,*,*,#601,.T.);
#925=ORIENTED_EDGE($,*,*,#673,.F.);
#926=ORIENTED_EDGE($,*,*,#609,.T.);
#927=ORIENTED_EDGE($,*,*,#674,.T.);
#928=ORIENTED_EDGE($,*,*,#631,.F.);
#929=ORIENTED_EDGE($,*,*,#569,.T.);
#930=ORIENTED_EDGE($,*,*,#563,.T.);
#931=ORIENTED_EDGE($,*,*,#560,.F.);
#932=ORIENTED_EDGE($,*,*,#567,.F.);
#933=ORIENTED_EDGE($,*,*,#632,.T.);
#934=ORIENTED_EDGE($,*,*,#674,.F.);
#935=ORIENTED_EDGE($,*,*,#608,.F.);
#936=ORIENTED_EDGE($,*,*,#620,.T.);
#937=ORIENTED_EDGE($,*,*,#610,.T.);
#938=ORIENTED_EDGE($,*,*,#673,.T.);
#939=ORIENTED_EDGE($,*,*,#630,.F.);
#940=ORIENTED_EDGE($,*,*,#621,.F.);
#941=ORIENTED_EDGE($,*,*,#606,.T.);
#942=ORIENTED_EDGE($,*,*,#628,.T.);
#943=ORIENTED_EDGE($,*,*,#633,.F.);
#944=ORIENTED_EDGE($,*,*,#618,.F.);
#945=ORIENTED_EDGE($,*,*,#675,.F.);
#946=ORIENTED_EDGE($,*,*,#676,.T.);
#947=ORIENTED_EDGE($,*,*,#677,.F.);
#948=ORIENTED_EDGE($,*,*,#678,.F.);
#949=ORIENTED_EDGE($,*,*,#679,.F.);
#950=ORIENTED_EDGE($,*,*,#678,.T.);
#951=ORIENTED_EDGE($,*,*,#680,.F.);
#952=ORIENTED_EDGE($,*,*,#681,.F.);
#953=ORIENTED_EDGE($,*,*,#682,.F.);
#954=ORIENTED_EDGE($,*,*,#681,.T.);
#955=ORIENTED_EDGE($,*,*,#683,.F.);
#956=ORIENTED_EDGE($,*,*,#684,.F.);
#957=ORIENTED_EDGE($,*,*,#685,.F.);
#958=ORIENTED_EDGE($,*,*,#684,.T.);
#959=ORIENTED_EDGE($,*,*,#686,.F.);
#960=ORIENTED_EDGE($,*,*,#676,.F.);
#961=ORIENTED_EDGE($,*,*,#685,.T.);
#962=ORIENTED_EDGE($,*,*,#675,.T.);
#963=ORIENTED_EDGE($,*,*,#679,.T.);
#964=ORIENTED_EDGE($,*,*,#682,.T.);
#965=ORIENTED_EDGE($,*,*,#686,.T.);
#966=ORIENTED_EDGE($,*,*,#683,.T.);
#967=ORIENTED_EDGE($,*,*,#680,.T.);
#968=ORIENTED_EDGE($,*,*,#677,.T.);
#969=ORIENTED_EDGE($,*,*,#687,.F.);
#970=ORIENTED_EDGE($,*,*,#688,.T.);
#971=ORIENTED_EDGE($,*,*,#689,.F.);
#972=ORIENTED_EDGE($,*,*,#690,.F.);
#973=ORIENTED_EDGE($,*,*,#691,.F.);
#974=ORIENTED_EDGE($,*,*,#690,.T.);
#975=ORIENTED_EDGE($,*,*,#692,.F.);
#976=ORIENTED_EDGE($,*,*,#693,.F.);
#977=ORIENTED_EDGE($,*,*,#694,.F.);
#978=ORIENTED_EDGE($,*,*,#693,.T.);
#979=ORIENTED_EDGE($,*,*,#695,.F.);
#980=ORIENTED_EDGE($,*,*,#696,.F.);
#981=ORIENTED_EDGE($,*,*,#697,.F.);
#982=ORIENTED_EDGE($,*,*,#696,.T.);
#983=ORIENTED_EDGE($,*,*,#698,.F.);
#984=ORIENTED_EDGE($,*,*,#688,.F.);
#985=ORIENTED_EDGE($,*,*,#697,.T.);
#986=ORIENTED_EDGE($,*,*,#687,.T.);
#987=ORIENTED_EDGE($,*,*,#691,.T.);
#988=ORIENTED_EDGE($,*,*,#694,.T.);
#989=ORIENTED_EDGE($,*,*,#698,.T.);
#990=ORIENTED_EDGE($,*,*,#695,.T.);
#991=ORIENTED_EDGE($,*,*,#692,.T.);
#992=ORIENTED_EDGE($,*,*,#689,.T.);
#993=ORIENTED_EDGE($,*,*,#699,.F.);
#994=ORIENTED_EDGE($,*,*,#700,.T.);
#995=ORIENTED_EDGE($,*,*,#701,.F.);
#996=ORIENTED_EDGE($,*,*,#702,.F.);
#997=ORIENTED_EDGE($,*,*,#703,.F.);
#998=ORIENTED_EDGE($,*,*,#702,.T.);
#999=ORIENTED_EDGE($,*,*,#704,.F.);
#1000=ORIENTED_EDGE($,*,*,#705,.F.);
#1001=ORIENTED_EDGE($,*,*,#706,.F.);
#1002=ORIENTED_EDGE($,*,*,#705,.T.);
#1003=ORIENTED_EDGE($,*,*,#707,.F.);
#1004=ORIENTED_EDGE($,*,*,#708,.F.);
#1005=ORIENTED_EDGE($,*,*,#709,.F.);
#1006=ORIENTED_EDGE($,*,*,#708,.T.);
#1007=ORIENTED_EDGE($,*,*,#710,.F.);
#1008=ORIENTED_EDGE($,*,*,#700,.F.);
#1009=ORIENTED_EDGE($,*,*,#709,.T.);
#1010=ORIENTED_EDGE($,*,*,#699,.T.);
#1011=ORIENTED_EDGE($,*,*,#703,.T.);
#1012=ORIENTED_EDGE($,*,*,#706,.T.);
#1013=ORIENTED_EDGE($,*,*,#710,.T.);
#1014=ORIENTED_EDGE($,*,*,#707,.T.);
#1015=ORIENTED_EDGE($,*,*,#704,.T.);
#1016=ORIENTED_EDGE($,*,*,#701,.T.);
#1017=PLANE($,#1143);
#1018=PLANE($,#1144);
#1019=PLANE($,#1145);
#1020=PLANE($,#1146);
#1021=PLANE($,#1147);
#1022=PLANE($,#1148);
#1023=PLANE($,#1149);
#1024=PLANE($,#1150);
#1025=PLANE($,#1151);
#1026=PLANE($,#1152);
#1027=PLANE($,#1153);
#1028=PLANE($,#1154);
#1029=PLANE($,#1155);
#1030=PLANE($,#1156);
#1031=PLANE($,#1157);
#1032=PLANE($,#1158);
#1033=PLANE($,#1159);
#1034=PLANE($,#1160);
#1035=PLANE($,#1161);
#1036=PLANE($,#1162);
#1037=PLANE($,#1163);
#1038=PLANE($,#1164);
#1039=PLANE($,#1165);
#1040=PLANE($,#1166);
#1041=PLANE($,#1167);
#1042=PLANE($,#1168);
#1043=PLANE($,#1170);
#1044=PLANE($,#1171);
#1045=PLANE($,#1172);
#1046=PLANE($,#1173);
#1047=PLANE($,#1176);
#1048=PLANE($,#1177);
#1049=PLANE($,#1178);
#1050=PLANE($,#1179);
#1051=PLANE($,#1180);
#1052=PLANE($,#1181);
#1053=PLANE($,#1182);
#1054=PLANE($,#1183);
#1055=PLANE($,#1184);
#1056=PLANE($,#1185);
#1057=PLANE($,#1186);
#1058=PLANE($,#1187);
#1059=PLANE($,#1188);
#1060=PLANE($,#1189);
#1061=PLANE($,#1190);
#1062=PLANE($,#1191);
#1063=PLANE($,#1192);
#1064=PLANE($,#1193);
#1065=PLANE($,#1194);
#1066=PLANE($,#1195);
#1067=PLANE($,#1196);
#1068=PLANE($,#1197);
#1069=PLANE($,#1198);
#1070=PLANE($,#1199);
#1071=PLANE($,#1200);
#1072=PLANE($,#1201);
#1073=PLANE($,#1202);
#1074=PLANE($,#1203);
#1075=ADVANCED_FACE($,(#30),#1017,.F.);
#1076=ADVANCED_FACE($,(#31),#1018,.F.);
#1077=ADVANCED_FACE($,(#32),#1019,.F.);
#1078=ADVANCED_FACE($,(#33),#1020,.F.);
#1079=ADVANCED_FACE($,(#34),#1021,.F.);
#1080=ADVANCED_FACE($,(#35),#1022,.F.);
#1081=ADVANCED_FACE($,(#36),#1023,.F.);
#1082=ADVANCED_FACE($,(#37),#1024,.F.);
#1083=ADVANCED_FACE($,(#38),#1025,.F.);
#1084=ADVANCED_FACE($,(#39),#1026,.F.);
#1085=ADVANCED_FACE($,(#40),#1027,.F.);
#1086=ADVANCED_FACE($,(#41),#1028,.F.);
#1087=ADVANCED_FACE($,(#42),#1029,.F.);
#1088=ADVANCED_FACE($,(#43),#1030,.T.);
#1089=ADVANCED_FACE($,(#44),#1031,.F.);
#1090=ADVANCED_FACE($,(#45),#1032,.T.);
#1091=ADVANCED_FACE($,(#46),#1033,.T.);
#1092=ADVANCED_FACE($,(#47),#1034,.T.);
#1093=ADVANCED_FACE($,(#48),#1035,.T.);
#1094=ADVANCED_FACE($,(#49),#1036,.F.);
#1095=ADVANCED_FACE($,(#50,#24),#1037,.F.);
#1096=ADVANCED_FACE($,(#51),#1038,.T.);
#1097=ADVANCED_FACE($,(#52,#25),#1039,.F.);
#1098=ADVANCED_FACE($,(#53),#1040,.F.);
#1099=ADVANCED_FACE($,(#54,#26,#27,#28),#1041,.T.);
#1100=ADVANCED_FACE($,(#55),#1042,.F.);
#1101=ADVANCED_FACE($,(#56),#1043,.F.);
#1102=ADVANCED_FACE($,(#57),#1044,.T.);
#1103=ADVANCED_FACE($,(#58),#1045,.F.);
#1104=ADVANCED_FACE($,(#59),#1046,.T.);
#1105=ADVANCED_FACE($,(#60),#21,.F.);
#1106=ADVANCED_FACE($,(#61),#1047,.T.);
#1107=ADVANCED_FACE($,(#62),#1048,.T.);
#1108=ADVANCED_FACE($,(#63),#1049,.T.);
#1109=ADVANCED_FACE($,(#64),#1050,.T.);
#1110=ADVANCED_FACE($,(#65),#1051,.T.);
#1111=ADVANCED_FACE($,(#66),#1052,.T.);
#1112=ADVANCED_FACE($,(#67,#29),#1053,.F.);
#1113=ADVANCED_FACE($,(#68),#1054,.F.);
#1114=ADVANCED_FACE($,(#69),#1055,.F.);
#1115=ADVANCED_FACE($,(#70),#1056,.F.);
#1116=ADVANCED_FACE($,(#71),#1057,.T.);
#1117=ADVANCED_FACE($,(#72),#1058,.T.);
#1118=ADVANCED_FACE($,(#73),#1059,.T.);
#1119=ADVANCED_FACE($,(#74),#1060,.T.);
#1120=ADVANCED_FACE($,(#75),#1061,.T.);
#1121=ADVANCED_FACE($,(#76),#1062,.T.);
#1122=ADVANCED_FACE($,(#77),#1063,.T.);
#1123=ADVANCED_FACE($,(#78),#1064,.T.);
#1124=ADVANCED_FACE($,(#79),#1065,.T.);
#1125=ADVANCED_FACE($,(#80),#1066,.T.);
#1126=ADVANCED_FACE($,(#81),#1067,.T.);
#1127=ADVANCED_FACE($,(#82),#1068,.T.);
#1128=ADVANCED_FACE($,(#83),#1069,.T.);
#1129=ADVANCED_FACE($,(#84),#1070,.T.);
#1130=ADVANCED_FACE($,(#85),#1071,.T.);
#1131=ADVANCED_FACE($,(#86),#1072,.T.);
#1132=ADVANCED_FACE($,(#87),#1073,.T.);
#1133=ADVANCED_FACE($,(#88),#1074,.T.);
#1134=CLOSED_SHELL($,(#1075,#1076,#1077,#1078,#1079,#1080,#1081,#1082,#1083,
#1084,#1085,#1086,#1087,#1088,#1089,#1090,#1091,#1092,#1093,#1094,#1095,
#1096,#1097,#1098,#1099,#1100,#1101,#1102,#1103,#1104,#1105,#1106,#1107,
#1108,#1109,#1110,#1111,#1112,#1113,#1114,#1115));
#1135=CLOSED_SHELL($,(#1116,#1117,#1118,#1119,#1120,#1121));
#1136=CLOSED_SHELL($,(#1122,#1123,#1124,#1125,#1126,#1127));
#1137=CLOSED_SHELL($,(#1128,#1129,#1130,#1131,#1132,#1133));
#1138=MANIFOLD_SOLID_BREP('5DD',#1134);
#1139=MANIFOLD_SOLID_BREP('779',#1135);
#1140=MANIFOLD_SOLID_BREP('77D',#1136);
#1141=MANIFOLD_SOLID_BREP('781',#1137);
#1142=AXIS2_PLACEMENT_3D('placement',#1479,#1204,#1205);
#1143=AXIS2_PLACEMENT_3D($,#1480,#1206,#1207);
#1144=AXIS2_PLACEMENT_3D($,#1489,#1212,#1213);
#1145=AXIS2_PLACEMENT_3D($,#1495,#1217,#1218);
#1146=AXIS2_PLACEMENT_3D($,#1501,#1222,#1223);
#1147=AXIS2_PLACEMENT_3D($,#1504,#1226,#1227);
#1148=AXIS2_PLACEMENT_3D($,#1513,#1232,#1233);
#1149=AXIS2_PLACEMENT_3D($,#1519,#1237,#1238);
#1150=AXIS2_PLACEMENT_3D($,#1525,#1242,#1243);
#1151=AXIS2_PLACEMENT_3D($,#1528,#1246,#1247);
#1152=AXIS2_PLACEMENT_3D($,#1537,#1252,#1253);
#1153=AXIS2_PLACEMENT_3D($,#1543,#1257,#1258);
#1154=AXIS2_PLACEMENT_3D($,#1549,#1262,#1263);
#1155=AXIS2_PLACEMENT_3D($,#1552,#1266,#1267);
#1156=AXIS2_PLACEMENT_3D($,#1561,#1272,#1273);
#1157=AXIS2_PLACEMENT_3D($,#1591,#1289,#1290);
#1158=AXIS2_PLACEMENT_3D($,#1597,#1294,#1295);
#1159=AXIS2_PLACEMENT_3D($,#1601,#1298,#1299);
#1160=AXIS2_PLACEMENT_3D($,#1607,#1303,#1304);
#1161=AXIS2_PLACEMENT_3D($,#1611,#1307,#1308);
#1162=AXIS2_PLACEMENT_3D($,#1617,#1312,#1313);
#1163=AXIS2_PLACEMENT_3D($,#1621,#1316,#1317);
#1164=AXIS2_PLACEMENT_3D($,#1625,#1320,#1321);
#1165=AXIS2_PLACEMENT_3D($,#1650,#1336,#1337);
#1166=AXIS2_PLACEMENT_3D($,#1652,#1339,#1340);
#1167=AXIS2_PLACEMENT_3D($,#1653,#1341,#1342);
#1168=AXIS2_PLACEMENT_3D($,#1660,#1347,#1348);
#1169=AXIS2_PLACEMENT_3D($,#1662,#1349,#1350);
#1170=AXIS2_PLACEMENT_3D($,#1674,#1357,#1358);
#1171=AXIS2_PLACEMENT_3D($,#1678,#1361,#1362);
#1172=AXIS2_PLACEMENT_3D($,#1682,#1365,#1366);
#1173=AXIS2_PLACEMENT_3D($,#1686,#1369,#1370);
#1174=AXIS2_PLACEMENT_3D($,#1697,#1376,#1377);
#1175=AXIS2_PLACEMENT_3D($,#1698,#1378,#1379);
#1176=AXIS2_PLACEMENT_3D($,#1700,#1381,#1382);
#1177=AXIS2_PLACEMENT_3D($,#1702,#1384,#1385);
#1178=AXIS2_PLACEMENT_3D($,#1704,#1387,#1388);
#1179=AXIS2_PLACEMENT_3D($,#1706,#1390,#1391);
#1180=AXIS2_PLACEMENT_3D($,#1708,#1393,#1394);
#1181=AXIS2_PLACEMENT_3D($,#1709,#1395,#1396);
#1182=AXIS2_PLACEMENT_3D($,#1710,#1397,#1398);
#1183=AXIS2_PLACEMENT_3D($,#1713,#1401,#1402);
#1184=AXIS2_PLACEMENT_3D($,#1714,#1403,#1404);
#1185=AXIS2_PLACEMENT_3D($,#1715,#1405,#1406);
#1186=AXIS2_PLACEMENT_3D($,#1716,#1407,#1408);
#1187=AXIS2_PLACEMENT_3D($,#1725,#1413,#1414);
#1188=AXIS2_PLACEMENT_3D($,#1731,#1418,#1419);
#1189=AXIS2_PLACEMENT_3D($,#1737,#1423,#1424);
#1190=AXIS2_PLACEMENT_3D($,#1740,#1427,#1428);
#1191=AXIS2_PLACEMENT_3D($,#1741,#1429,#1430);
#1192=AXIS2_PLACEMENT_3D($,#1742,#1431,#1432);
#1193=AXIS2_PLACEMENT_3D($,#1751,#1437,#1438);
#1194=AXIS2_PLACEMENT_3D($,#1757,#1442,#1443);
#1195=AXIS2_PLACEMENT_3D($,#1763,#1447,#1448);
#1196=AXIS2_PLACEMENT_3D($,#1766,#1451,#1452);
#1197=AXIS2_PLACEMENT_3D($,#1767,#1453,#1454);
#1198=AXIS2_PLACEMENT_3D($,#1768,#1455,#1456);
#1199=AXIS2_PLACEMENT_3D($,#1777,#1461,#1462);
#1200=AXIS2_PLACEMENT_3D($,#1783,#1466,#1467);
#1201=AXIS2_PLACEMENT_3D($,#1789,#1471,#1472);
#1202=AXIS2_PLACEMENT_3D($,#1792,#1475,#1476);
#1203=AXIS2_PLACEMENT_3D($,#1793,#1477,#1478);
#1204=DIRECTION('axis',(0.,0.,1.));
#1205=DIRECTION('refdir',(1.,0.,0.));
#1206=DIRECTION('center_axis',(-8.67361737988404E-17,-1.,0.));
#1207=DIRECTION('ref_axis',(-1.,1.11022302462516E-16,0.));
#1208=DIRECTION($,(-1.,-9.95839695427936E-17,2.22044604925031E-16));
#1209=DIRECTION($,(0.,0.,-1.));
#1210=DIRECTION($,(-1.,-9.95839695427936E-17,2.22044604925031E-16));
#1211=DIRECTION($,(0.,0.,-1.));
#1212=DIRECTION('center_axis',(-1.,0.,0.));
#1213=DIRECTION('ref_axis',(0.,1.,0.));
#1214=DIRECTION($,(9.95839695427936E-17,-1.,-6.12303176911189E-17));
#1215=DIRECTION($,(9.95839695427936E-17,-1.,-6.12303176911189E-17));
#1216=DIRECTION($,(0.,0.,-1.));
#1217=DIRECTION('center_axis',(1.,0.,0.));
#1218=DIRECTION('ref_axis',(0.,-1.,0.));
#1219=DIRECTION($,(9.95839695427936E-17,-1.,-6.12303176911189E-17));
#1220=DIRECTION($,(0.,0.,-1.));
#1221=DIRECTION($,(9.95839695427936E-17,-1.,-6.12303176911189E-17));
#1222=DIRECTION('center_axis',(8.67361737988404E-17,1.,0.));
#1223=DIRECTION('ref_axis',(1.,-1.11022302462516E-16,0.));
#1224=DIRECTION($,(-1.,-9.95839695427936E-17,2.22044604925031E-16));
#1225=DIRECTION($,(-1.,-9.95839695427936E-17,2.22044604925031E-16));
#1226=DIRECTION('center_axis',(8.67361737988404E-17,1.,0.));
#1227=DIRECTION('ref_axis',(1.,-1.11022302462516E-16,0.));
#1228=DIRECTION($,(1.,9.95839695427936E-17,-2.22044604925031E-16));
#1229=DIRECTION($,(0.,0.,-1.));
#1230=DIRECTION($,(1.,9.95839695427936E-17,-2.22044604925031E-16));
#1231=DIRECTION($,(0.,0.,-1.));
#1232=DIRECTION('center_axis',(-1.,0.,0.));
#1233=DIRECTION('ref_axis',(0.,1.,0.));
#1234=DIRECTION($,(-9.95839695427936E-17,1.,6.12303176911189E-17));
#1235=DIRECTION($,(-9.95839695427936E-17,1.,6.12303176911189E-17));
#1236=DIRECTION($,(0.,0.,-1.));
#1237=DIRECTION('center_axis',(-8.67361737988404E-17,-1.,0.));
#1238=DIRECTION('ref_axis',(-1.,1.11022302462516E-16,0.));
#1239=DIRECTION($,(1.,9.95839695427936E-17,-2.22044604925031E-16));
#1240=DIRECTION($,(1.,9.95839695427936E-17,-2.22044604925031E-16));
#1241=DIRECTION($,(0.,0.,-1.));
#1242=DIRECTION('center_axis',(1.,0.,0.));
#1243=DIRECTION('ref_axis',(0.,-1.,0.));
#1244=DIRECTION($,(-9.95839695427936E-17,1.,6.12303176911189E-17));
#1245=DIRECTION($,(-9.95839695427936E-17,1.,6.12303176911189E-17));
#1246=DIRECTION('center_axis',(8.67361737988404E-17,1.,0.));
#1247=DIRECTION('ref_axis',(1.,-1.11022302462516E-16,0.));
#1248=DIRECTION($,(-1.,-9.95839695427936E-17,2.22044604925031E-16));
#1249=DIRECTION($,(0.,0.,-1.));
#1250=DIRECTION($,(-1.,-9.95839695427936E-17,2.22044604925031E-16));
#1251=DIRECTION($,(0.,0.,-1.));
#1252=DIRECTION('center_axis',(1.,0.,0.));
#1253=DIRECTION('ref_axis',(0.,-1.,0.));
#1254=DIRECTION($,(0.,1.,6.12303176911189E-17));
#1255=DIRECTION($,(0.,0.,-1.));
#1256=DIRECTION($,(9.95839695427936E-17,-1.,-6.12303176911189E-17));
#1257=DIRECTION('center_axis',(-1.,0.,0.));
#1258=DIRECTION('ref_axis',(0.,1.,0.));
#1259=DIRECTION($,(9.95839695427936E-17,-1.,-6.12303176911189E-17));
#1260=DIRECTION($,(9.95839695427936E-17,-1.,-6.12303176911189E-17));
#1261=DIRECTION($,(0.,0.,-1.));
#1262=DIRECTION('center_axis',(-8.67361737988404E-17,-1.,0.));
#1263=DIRECTION('ref_axis',(-1.,1.11022302462516E-16,0.));
#1264=DIRECTION($,(1.,-8.67361737988404E-17,-2.22044604925031E-16));
#1265=DIRECTION($,(-1.,-9.95839695427936E-17,2.22044604925031E-16));
#1266=DIRECTION('center_axis',(-1.,-9.95839695427936E-17,2.22044604925031E-16));
#1267=DIRECTION('ref_axis',(0.,-1.,-5.55111512312578E-17));
#1268=DIRECTION($,(-9.95839695427936E-17,1.,6.12303176911189E-17));
#1269=DIRECTION($,(2.22044604925031E-16,-6.12303176911189E-17,1.));
#1270=DIRECTION($,(9.95839695427936E-17,-1.,-6.12303176911189E-17));
#1271=DIRECTION($,(-2.22044604925031E-16,6.12303176911189E-17,-1.));
#1272=DIRECTION('center_axis',(-9.95839695427936E-17,1.,6.12303176911189E-17));
#1273=DIRECTION('ref_axis',(-1.,0.,4.44089209850063E-16));
#1274=DIRECTION($,(1.,9.95839695427936E-17,-2.22044604925031E-16));
#1275=DIRECTION($,(2.22044604925031E-16,-6.12303176911189E-17,1.));
#1276=DIRECTION($,(-1.,-9.95839695427936E-17,2.22044604925031E-16));
#1277=DIRECTION($,(-2.22044604925031E-16,6.12303176911189E-17,-1.));
#1278=DIRECTION($,(-1.,-9.95839695427936E-17,2.22044604925031E-16));
#1279=DIRECTION($,(-1.,-9.95839695427936E-17,2.22044604925031E-16));
#1280=DIRECTION($,(2.22044604925031E-16,-6.12303176911189E-17,1.));
#1281=DIRECTION($,(1.,9.95839695427936E-17,-2.22044604925031E-16));
#1282=DIRECTION($,(2.22044604925031E-16,-6.12303176911189E-17,1.));
#1283=DIRECTION($,(-1.,-9.95839695427936E-17,2.22044604925031E-16));
#1284=DIRECTION($,(2.22044604925031E-16,-6.12303176911189E-17,1.));
#1285=DIRECTION($,(1.,9.95839695427936E-17,-2.22044604925031E-16));
#1286=DIRECTION($,(2.22044604925031E-16,-6.12303176911189E-17,1.));
#1287=DIRECTION($,(-1.,-9.95839695427936E-17,2.22044604925031E-16));
#1288=DIRECTION($,(2.22044604925031E-16,-6.12303176911189E-17,1.));
#1289=DIRECTION('center_axis',(1.,9.95839695427936E-17,-2.22044604925031E-16));
#1290=DIRECTION('ref_axis',(0.,1.,1.11022302462516E-16));
#1291=DIRECTION($,(2.22044604925031E-16,-6.12303176911189E-17,1.));
#1292=DIRECTION($,(9.95839695427936E-17,-1.,-6.12303176911189E-17));
#1293=DIRECTION($,(9.95839695427936E-17,-1.,-6.12303176911189E-17));
#1294=DIRECTION('center_axis',(-2.22044604925031E-16,6.12303176911189E-17,
-1.));
#1295=DIRECTION('ref_axis',(0.,-1.,-6.12303176911189E-17));
#1296=DIRECTION($,(-1.,-9.95839695427936E-17,2.22044604925031E-16));
#1297=DIRECTION($,(9.95839695427936E-17,-1.,-6.12303176911189E-17));
#1298=DIRECTION('center_axis',(-2.22044604925031E-16,6.12303176911189E-17,
-1.));
#1299=DIRECTION('ref_axis',(0.,-1.,-6.12303176911189E-17));
#1300=DIRECTION($,(9.95839695427936E-17,-1.,-6.12303176911189E-17));
#1301=DIRECTION($,(-1.,-9.95839695427936E-17,2.22044604925031E-16));
#1302=DIRECTION($,(9.95839695427936E-17,-1.,-6.12303176911189E-17));
#1303=DIRECTION('center_axis',(-2.22044604925031E-16,6.12303176911189E-17,
-1.));
#1304=DIRECTION('ref_axis',(1.11022302462516E-16,-1.,-6.12303176911189E-17));
#1305=DIRECTION($,(9.95839695427936E-17,-1.,-6.12303176911189E-17));
#1306=DIRECTION($,(-1.,-9.95839695427936E-17,2.22044604925031E-16));
#1307=DIRECTION('center_axis',(-2.22044604925031E-16,6.12303176911189E-17,
-1.));
#1308=DIRECTION('ref_axis',(0.,-1.,-6.12303176911189E-17));
#1309=DIRECTION($,(-1.,-9.95839695427936E-17,2.22044604925031E-16));
#1310=DIRECTION($,(9.95839695427936E-17,-1.,-6.12303176911189E-17));
#1311=DIRECTION($,(9.95839695427936E-17,-1.,-6.12303176911189E-17));
#1312=DIRECTION('center_axis',(1.,9.95839695427936E-17,-2.22044604925031E-16));
#1313=DIRECTION('ref_axis',(0.,1.,1.11022302462516E-16));
#1314=DIRECTION($,(2.22044604925031E-16,-6.12303176911189E-17,1.));
#1315=DIRECTION($,(9.95839695427936E-17,-1.,-6.12303176911189E-17));
#1316=DIRECTION('center_axis',(2.22044604925031E-16,-6.12303176911189E-17,
1.));
#1317=DIRECTION('ref_axis',(0.,1.,1.11022302462516E-16));
#1318=DIRECTION($,(9.95839695427936E-17,-1.,-6.12303176911189E-17));
#1319=DIRECTION($,(1.,9.95839695427936E-17,-2.22044604925031E-16));
#1320=DIRECTION('center_axis',(9.95839695427936E-17,-1.,-6.12303176911189E-17));
#1321=DIRECTION('ref_axis',(1.,0.,-2.22044604925031E-16));
#1322=DIRECTION($,(2.22044604925031E-16,-6.12303176911189E-17,1.));
#1323=DIRECTION($,(1.,9.95839695427936E-17,-2.22044604925031E-16));
#1324=DIRECTION($,(2.22044604925031E-16,-6.12303176911189E-17,1.));
#1325=DIRECTION($,(2.22044604925031E-16,-6.12303176911189E-17,1.));
#1326=DIRECTION($,(-1.,-9.95839695427936E-17,2.22044604925031E-16));
#1327=DIRECTION($,(2.22044604925031E-16,-6.12303176911189E-17,1.));
#1328=DIRECTION($,(-0.342020143325699,-9.15974012386889E-17,0.939692620785897));
#1329=DIRECTION($,(-1.,-9.95839695427936E-17,2.22044604925031E-16));
#1330=DIRECTION($,(-0.342020143325699,2.34779541667523E-17,-0.939692620785897));
#1331=DIRECTION($,(2.22044604925031E-16,-6.12303176911189E-17,1.));
#1332=DIRECTION($,(-1.,-9.95839695427936E-17,2.22044604925031E-16));
#1333=DIRECTION($,(2.22044604925031E-16,-6.12303176911189E-17,1.));
#1334=DIRECTION($,(2.22044604925031E-16,-6.12303176911189E-17,1.));
#1335=DIRECTION($,(1.,9.95839695427936E-17,-2.22044604925031E-16));
#1336=DIRECTION('center_axis',(2.22044604925031E-16,-6.12303176911189E-17,
1.));
#1337=DIRECTION('ref_axis',(0.,1.,1.11022302462516E-16));
#1338=DIRECTION($,(9.95839695427936E-17,-1.,-6.12303176911189E-17));
#1339=DIRECTION('center_axis',(-1.,-9.95839695427936E-17,2.22044604925031E-16));
#1340=DIRECTION('ref_axis',(0.,-1.,-6.24500451351651E-17));
#1341=DIRECTION('center_axis',(2.22044604925031E-16,-6.12303176911189E-17,
1.));
#1342=DIRECTION('ref_axis',(0.,1.,0.));
#1343=DIRECTION($,(-9.95839695427936E-17,1.,6.12303176911189E-17));
#1344=DIRECTION($,(-9.95839695427936E-17,1.,6.12303176911189E-17));
#1345=DIRECTION($,(-1.,-9.95839695427936E-17,2.22044604925031E-16));
#1346=DIRECTION($,(-9.95839695427936E-17,1.,6.12303176911189E-17));
#1347=DIRECTION('center_axis',(-1.,-9.95839695427936E-17,2.22044604925031E-16));
#1348=DIRECTION('ref_axis',(0.,-1.,0.));
#1349=DIRECTION('center_axis',(1.,9.95839695427936E-17,-2.22044604925031E-16));
#1350=DIRECTION('ref_axis',(9.95839695427936E-17,-1.,-6.12303176911189E-17));
#1351=DIRECTION($,(-2.22044604925031E-16,6.12303176911189E-17,-1.));
#1352=DIRECTION($,(-8.65927457071937E-17,-0.707106781186547,-0.707106781186548));
#1353=DIRECTION($,(-2.22044604925031E-16,6.12303176911189E-17,-1.));
#1354=DIRECTION($,(-2.42088253409753E-16,0.500000000000016,-0.866025403784429));
#1355=DIRECTION($,(-2.22044604925031E-16,6.12303176911189E-17,-1.));
#1356=DIRECTION($,(-9.95839695427936E-17,1.,6.12303176911189E-17));
#1357=DIRECTION('center_axis',(-0.939692620785897,-7.26363192953361E-17,
-0.342020143325699));
#1358=DIRECTION('ref_axis',(0.,-1.,0.));
#1359=DIRECTION($,(-0.342020143325699,-9.15974012386889E-17,0.939692620785897));
#1360=DIRECTION($,(-9.95839695427936E-17,1.,6.12303176911189E-17));
#1361=DIRECTION('center_axis',(2.22044604925031E-16,-6.12303176911189E-17,
1.));
#1362=DIRECTION('ref_axis',(0.,1.,0.));
#1363=DIRECTION($,(-1.,-9.95839695427936E-17,2.22044604925031E-16));
#1364=DIRECTION($,(-9.95839695427936E-17,1.,6.12303176911189E-17));
#1365=DIRECTION('center_axis',(0.939692620785897,1.14520323360525E-16,-0.342020143325699));
#1366=DIRECTION('ref_axis',(0.,1.,0.));
#1367=DIRECTION($,(-0.342020143325699,2.34779541667523E-17,-0.939692620785897));
#1368=DIRECTION($,(-9.95839695427936E-17,1.,6.12303176911189E-17));
#1369=DIRECTION('center_axis',(-1.,-9.95839695427936E-17,2.22044604925031E-16));
#1370=DIRECTION('ref_axis',(0.,-1.,0.));
#1371=DIRECTION($,(-2.22044604925031E-16,6.12303176911189E-17,-1.));
#1372=DIRECTION($,(-2.42088253409753E-16,0.500000000000016,-0.866025403784429));
#1373=DIRECTION($,(-2.22044604925031E-16,6.12303176911189E-17,-1.));
#1374=DIRECTION($,(-8.65927457071937E-17,-0.707106781186547,-0.707106781186548));
#1375=DIRECTION($,(-2.22044604925031E-16,6.12303176911189E-17,-1.));
#1376=DIRECTION('center_axis',(1.,9.95839695427936E-17,-2.22044604925031E-16));
#1377=DIRECTION('ref_axis',(9.95839695427936E-17,-1.,-6.12303176911189E-17));
#1378=DIRECTION('center_axis',(-1.,-9.95839695427936E-17,2.22044604925031E-16));
#1379=DIRECTION('ref_axis',(9.95839695427936E-17,-1.,-6.12303176911189E-17));
#1380=DIRECTION($,(-1.,-9.95839695427936E-17,2.22044604925031E-16));
#1381=DIRECTION('center_axis',(-9.95839695427936E-17,1.,6.12303176911189E-17));
#1382=DIRECTION('ref_axis',(-1.,0.,0.));
#1383=DIRECTION($,(-1.,-9.95839695427936E-17,2.22044604925031E-16));
#1384=DIRECTION('center_axis',(-2.27425746029561E-16,0.707106781186548,
-0.707106781186548));
#1385=DIRECTION('ref_axis',(-1.,0.,0.));
#1386=DIRECTION($,(-1.,-9.95839695427936E-17,2.22044604925031E-16));
#1387=DIRECTION('center_axis',(-9.95839695427936E-17,1.,6.12303176911189E-17));
#1388=DIRECTION('ref_axis',(-1.,0.,0.));
#1389=DIRECTION($,(-1.,-9.95839695427936E-17,2.22044604925031E-16));
#1390=DIRECTION('center_axis',(2.47800550287653E-17,0.866025403784429,0.500000000000017));
#1391=DIRECTION('ref_axis',(-1.,0.,0.));
#1392=DIRECTION($,(-1.,-9.95839695427936E-17,2.22044604925031E-16));
#1393=DIRECTION('center_axis',(-9.95839695427936E-17,1.,6.12303176911189E-17));
#1394=DIRECTION('ref_axis',(-1.,0.,0.));
#1395=DIRECTION('center_axis',(-1.,-9.95839695427936E-17,2.22044604925031E-16));
#1396=DIRECTION('ref_axis',(0.,-1.,-5.55111512312578E-17));
#1397=DIRECTION('center_axis',(2.22044604925031E-16,-6.12303176911189E-17,
1.));
#1398=DIRECTION('ref_axis',(-1.11022302462516E-16,1.,1.11022302462516E-16));
#1399=DIRECTION($,(9.95839695427936E-17,-1.,-6.12303176911189E-17));
#1400=DIRECTION($,(9.95839695427936E-17,-1.,-6.12303176911189E-17));
#1401=DIRECTION('center_axis',(1.,9.95839695427936E-17,-2.22044604925031E-16));
#1402=DIRECTION('ref_axis',(-1.11022302462516E-16,1.,1.11022302462516E-16));
#1403=DIRECTION('center_axis',(-1.,-9.95839695427936E-17,2.22044604925031E-16));
#1404=DIRECTION('ref_axis',(1.11022302462516E-16,-1.,-6.24500451351651E-17));
#1405=DIRECTION('center_axis',(-1.,-9.95839695427936E-17,2.22044604925031E-16));
#1406=DIRECTION('ref_axis',(0.,-1.,-6.24500451351651E-17));
#1407=DIRECTION('center_axis',(-1.,0.,0.));
#1408=DIRECTION('ref_axis',(0.,1.,0.));
#1409=DIRECTION($,(0.,-1.,0.));
#1410=DIRECTION($,(0.,0.,-1.));
#1411=DIRECTION($,(0.,1.,0.));
#1412=DIRECTION($,(0.,0.,-1.));
#1413=DIRECTION('center_axis',(-8.67361737988404E-17,-1.,0.));
#1414=DIRECTION('ref_axis',(-1.,1.11022302462516E-16,0.));
#1415=DIRECTION($,(1.,-8.67361737988404E-17,0.));
#1416=DIRECTION($,(-1.,8.67361737988404E-17,0.));
#1417=DIRECTION($,(0.,0.,-1.));
#1418=DIRECTION('center_axis',(1.,0.,0.));
#1419=DIRECTION('ref_axis',(0.,-1.,0.));
#1420=DIRECTION($,(0.,1.,0.));
#1421=DIRECTION($,(0.,-1.,0.));
#1422=DIRECTION($,(0.,0.,-1.));
#1423=DIRECTION('center_axis',(8.67361737988404E-17,1.,0.));
#1424=DIRECTION('ref_axis',(1.,-1.11022302462516E-16,0.));
#1425=DIRECTION($,(-1.,8.67361737988404E-17,0.));
#1426=DIRECTION($,(1.,-8.67361737988404E-17,0.));
#1427=DIRECTION('center_axis',(0.,0.,1.));
#1428=DIRECTION('ref_axis',(1.,0.,0.));
#1429=DIRECTION('center_axis',(0.,0.,-1.));
#1430=DIRECTION('ref_axis',(-1.,0.,0.));
#1431=DIRECTION('center_axis',(-1.,0.,0.));
#1432=DIRECTION('ref_axis',(0.,1.,0.));
#1433=DIRECTION($,(0.,-1.,0.));
#1434=DIRECTION($,(0.,0.,-1.));
#1435=DIRECTION($,(0.,1.,0.));
#1436=DIRECTION($,(0.,0.,-1.));
#1437=DIRECTION('center_axis',(-8.67361737988404E-17,-1.,0.));
#1438=DIRECTION('ref_axis',(-1.,1.11022302462516E-16,0.));
#1439=DIRECTION($,(1.,-8.67361737988404E-17,0.));
#1440=DIRECTION($,(-1.,8.67361737988404E-17,0.));
#1441=DIRECTION($,(0.,0.,-1.));
#1442=DIRECTION('center_axis',(1.,0.,0.));
#1443=DIRECTION('ref_axis',(0.,-1.,0.));
#1444=DIRECTION($,(0.,1.,0.));
#1445=DIRECTION($,(0.,-1.,0.));
#1446=DIRECTION($,(0.,0.,-1.));
#1447=DIRECTION('center_axis',(8.67361737988404E-17,1.,0.));
#1448=DIRECTION('ref_axis',(1.,-1.11022302462516E-16,0.));
#1449=DIRECTION($,(-1.,8.67361737988404E-17,0.));
#1450=DIRECTION($,(1.,-8.67361737988404E-17,0.));
#1451=DIRECTION('center_axis',(0.,0.,1.));
#1452=DIRECTION('ref_axis',(1.,0.,0.));
#1453=DIRECTION('center_axis',(0.,0.,-1.));
#1454=DIRECTION('ref_axis',(-1.,0.,0.));
#1455=DIRECTION('center_axis',(-1.,0.,0.));
#1456=DIRECTION('ref_axis',(0.,1.,0.));
#1457=DIRECTION($,(0.,-1.,0.));
#1458=DIRECTION($,(0.,0.,-1.));
#1459=DIRECTION($,(0.,1.,0.));
#1460=DIRECTION($,(0.,0.,-1.));
#1461=DIRECTION('center_axis',(-8.67361737988404E-17,-1.,0.));
#1462=DIRECTION('ref_axis',(-1.,1.11022302462516E-16,0.));
#1463=DIRECTION($,(1.,-8.67361737988404E-17,0.));
#1464=DIRECTION($,(-1.,8.67361737988404E-17,0.));
#1465=DIRECTION($,(0.,0.,-1.));
#1466=DIRECTION('center_axis',(1.,0.,0.));
#1467=DIRECTION('ref_axis',(0.,-1.,0.));
#1468=DIRECTION($,(0.,1.,0.));
#1469=DIRECTION($,(0.,-1.,0.));
#1470=DIRECTION($,(0.,0.,-1.));
#1471=DIRECTION('center_axis',(8.67361737988404E-17,1.,0.));
#1472=DIRECTION('ref_axis',(1.,-1.11022302462516E-16,0.));
#1473=DIRECTION($,(-1.,8.67361737988404E-17,0.));
#1474=DIRECTION($,(1.,-8.67361737988404E-17,0.));
#1475=DIRECTION('center_axis',(0.,0.,1.));
#1476=DIRECTION('ref_axis',(1.,0.,0.));
#1477=DIRECTION('center_axis',(0.,0.,-1.));
#1478=DIRECTION('ref_axis',(-1.,0.,0.));
#1479=CARTESIAN_POINT('',(0.,0.,0.));
#1480=CARTESIAN_POINT('Origin',(0.320000000000002,-0.340000000000001,10.66));
#1481=CARTESIAN_POINT('',(0.320000000000001,-0.34,3.16));
#1482=CARTESIAN_POINT('',(-0.319999999999999,-0.34,3.16));
#1483=CARTESIAN_POINT($,(0.320000000000001,-0.34,3.16));
#1484=CARTESIAN_POINT('',(0.32,-0.34,0.64));
#1485=CARTESIAN_POINT($,(0.320000000000002,-0.340000000000001,10.66));
#1486=CARTESIAN_POINT('',(-0.32,-0.34,0.64));
#1487=CARTESIAN_POINT($,(0.32,-0.34,0.64));
#1488=CARTESIAN_POINT($,(-0.319999999999998,-0.340000000000001,10.66));
#1489=CARTESIAN_POINT('Origin',(-0.319999999999998,-0.340000000000001,10.66));
#1490=CARTESIAN_POINT('',(-0.319999999999999,0.3,3.16));
#1491=CARTESIAN_POINT($,(-0.319999999999999,0.3,3.16));
#1492=CARTESIAN_POINT('',(-0.32,0.3,0.64));
#1493=CARTESIAN_POINT($,(-0.32,0.3,0.64));
#1494=CARTESIAN_POINT($,(-0.319999999999998,0.3,10.66));
#1495=CARTESIAN_POINT('Origin',(0.320000000000002,0.299999999999999,10.66));
#1496=CARTESIAN_POINT('',(0.320000000000001,0.3,3.16));
#1497=CARTESIAN_POINT($,(0.320000000000001,0.3,3.16));
#1498=CARTESIAN_POINT('',(0.32,0.3,0.64));
#1499=CARTESIAN_POINT($,(0.320000000000002,0.299999999999999,10.66));
#1500=CARTESIAN_POINT($,(0.32,0.3,0.64));
#1501=CARTESIAN_POINT('Origin',(-0.319999999999998,0.3,10.66));
#1502=CARTESIAN_POINT($,(0.320000000000001,0.3,3.16));
#1503=CARTESIAN_POINT($,(0.32,0.3,0.64));
#1504=CARTESIAN_POINT('Origin',(2.22,0.3,10.66));
#1505=CARTESIAN_POINT('',(2.22,0.3,0.64));
#1506=CARTESIAN_POINT('',(2.86,0.3,0.639999999999999));
#1507=CARTESIAN_POINT($,(2.22,0.3,0.64));
#1508=CARTESIAN_POINT('',(2.86,0.3,3.16));
#1509=CARTESIAN_POINT($,(2.86,0.3,10.66));
#1510=CARTESIAN_POINT('',(2.22,0.3,3.16));
#1511=CARTESIAN_POINT($,(2.22,0.3,3.16));
#1512=CARTESIAN_POINT($,(2.22,0.3,10.66));
#1513=CARTESIAN_POINT('Origin',(2.22,-0.34,10.66));
#1514=CARTESIAN_POINT('',(2.22,-0.34,0.64));
#1515=CARTESIAN_POINT($,(2.22,-0.34,0.64));
#1516=CARTESIAN_POINT('',(2.22,-0.34,3.16));
#1517=CARTESIAN_POINT($,(2.22,-0.34,3.16));
#1518=CARTESIAN_POINT($,(2.22,-0.34,10.66));
#1519=CARTESIAN_POINT('Origin',(2.86,-0.34,10.66));
#1520=CARTESIAN_POINT('',(2.86,-0.34,0.639999999999999));
#1521=CARTESIAN_POINT($,(2.22,-0.34,0.64));
#1522=CARTESIAN_POINT('',(2.86,-0.34,3.16));
#1523=CARTESIAN_POINT($,(2.22,-0.34,3.16));
#1524=CARTESIAN_POINT($,(2.86,-0.34,10.66));
#1525=CARTESIAN_POINT('Origin',(2.86,0.3,10.66));
#1526=CARTESIAN_POINT($,(2.86,-0.34,0.639999999999999));
#1527=CARTESIAN_POINT($,(2.86,-0.34,3.16));
#1528=CARTESIAN_POINT('Origin',(-2.86,0.299999999999999,10.66));
#1529=CARTESIAN_POINT('',(-2.22,0.3,0.640000000000001));
#1530=CARTESIAN_POINT('',(-2.86,0.3,0.640000000000001));
#1531=CARTESIAN_POINT($,(-2.22,0.3,0.640000000000001));
#1532=CARTESIAN_POINT('',(-2.22,0.3,3.16));
#1533=CARTESIAN_POINT($,(-2.22,0.299999999999999,10.66));
#1534=CARTESIAN_POINT('',(-2.86,0.3,3.16));
#1535=CARTESIAN_POINT($,(-2.22,0.3,3.16));
#1536=CARTESIAN_POINT($,(-2.86,0.299999999999999,10.66));
#1537=CARTESIAN_POINT('Origin',(-2.22,0.299999999999999,10.66));
#1538=CARTESIAN_POINT('',(-2.22,-0.340000000000001,0.640000000000001));
#1539=CARTESIAN_POINT($,(-2.22,-1.445,0.640000000000001));
#1540=CARTESIAN_POINT('',(-2.22,-0.34,3.16));
#1541=CARTESIAN_POINT($,(-2.22,-0.340000000000001,10.66));
#1542=CARTESIAN_POINT($,(-2.22,0.3,3.16));
#1543=CARTESIAN_POINT('Origin',(-2.86,-0.340000000000001,10.66));
#1544=CARTESIAN_POINT('',(-2.86,-0.340000000000001,0.640000000000001));
#1545=CARTESIAN_POINT($,(-2.86,0.3,0.640000000000001));
#1546=CARTESIAN_POINT('',(-2.86,-0.34,3.16));
#1547=CARTESIAN_POINT($,(-2.86,0.3,3.16));
#1548=CARTESIAN_POINT($,(-2.86,-0.340000000000001,10.66));
#1549=CARTESIAN_POINT('Origin',(-2.22,-0.340000000000001,10.66));
#1550=CARTESIAN_POINT($,(-2.842,-0.340000000000001,0.640000000000001));
#1551=CARTESIAN_POINT($,(-2.22,-0.34,3.16));
#1552=CARTESIAN_POINT('Origin',(3.81,3.19,-0.158000000000001));
#1553=CARTESIAN_POINT('',(3.81,-2.9,3.16));
#1554=CARTESIAN_POINT('',(3.81,2.9,3.16));
#1555=CARTESIAN_POINT($,(3.81,-2.9,3.16));
#1556=CARTESIAN_POINT('',(3.81,-2.9,-1.11022302462516E-15));
#1557=CARTESIAN_POINT($,(3.81,-2.9,-1.11022302462516E-15));
#1558=CARTESIAN_POINT('',(3.81,2.9,-6.66133814775094E-16));
#1559=CARTESIAN_POINT($,(3.81,2.9,-6.66133814775094E-16));
#1560=CARTESIAN_POINT($,(3.81,2.9,3.16));
#1561=CARTESIAN_POINT('Origin',(4.191,2.9,3.318));
#1562=CARTESIAN_POINT('',(-3.38,2.9,0.640000000000001));
#1563=CARTESIAN_POINT('',(-1.7,2.9,0.640000000000001));
#1564=CARTESIAN_POINT($,(-3.38,2.9,0.640000000000001));
#1565=CARTESIAN_POINT('',(-3.38,2.9,8.88178419700125E-16));
#1566=CARTESIAN_POINT($,(-3.38,2.9,8.88178419700125E-16));
#1567=CARTESIAN_POINT('',(-3.81,2.9,1.11022302462516E-15));
#1568=CARTESIAN_POINT($,(-3.38,2.9,8.88178419700125E-16));
#1569=CARTESIAN_POINT('',(-3.81,2.9,3.16));
#1570=CARTESIAN_POINT($,(-3.81,2.9,3.16));
#1571=CARTESIAN_POINT($,(3.81,2.9,3.16));
#1572=CARTESIAN_POINT('',(3.38,2.9,-4.44089209850063E-16));
#1573=CARTESIAN_POINT($,(3.81,2.9,-6.66133814775094E-16));
#1574=CARTESIAN_POINT('',(3.38,2.9,0.64));
#1575=CARTESIAN_POINT($,(3.38,2.9,-4.44089209850063E-16));
#1576=CARTESIAN_POINT('',(1.7,2.9,0.64));
#1577=CARTESIAN_POINT($,(1.7,2.9,0.64));
#1578=CARTESIAN_POINT('',(1.7,2.9,-2.22044604925031E-16));
#1579=CARTESIAN_POINT($,(1.7,2.9,-2.22044604925031E-16));
#1580=CARTESIAN_POINT('',(0.84,2.9,0.));
#1581=CARTESIAN_POINT($,(1.7,2.9,-2.22044604925031E-16));
#1582=CARTESIAN_POINT('',(0.84,2.9,0.64));
#1583=CARTESIAN_POINT($,(0.84,2.9,0.));
#1584=CARTESIAN_POINT('',(-0.84,2.9,0.640000000000001));
#1585=CARTESIAN_POINT($,(-0.84,2.9,0.640000000000001));
#1586=CARTESIAN_POINT('',(-0.840000000000001,2.9,4.44089209850063E-16));
#1587=CARTESIAN_POINT($,(-0.840000000000001,2.9,4.44089209850063E-16));
#1588=CARTESIAN_POINT('',(-1.7,2.9,6.66133814775094E-16));
#1589=CARTESIAN_POINT($,(-0.840000000000001,2.9,4.44089209850063E-16));
#1590=CARTESIAN_POINT($,(-1.7,2.9,6.66133814775094E-16));
#1591=CARTESIAN_POINT('Origin',(-1.7,-3.19,0.672));
#1592=CARTESIAN_POINT('',(-1.7,-2.9,2.22044604925031E-16));
#1593=CARTESIAN_POINT('',(-1.7,-2.9,0.64));
#1594=CARTESIAN_POINT($,(-1.7,-2.9,2.22044604925031E-16));
#1595=CARTESIAN_POINT($,(-1.7,2.9,0.640000000000001));
#1596=CARTESIAN_POINT($,(-1.7,2.9,6.66133814775094E-16));
#1597=CARTESIAN_POINT('Origin',(3.8315,3.19,-6.66133814775094E-16));
#1598=CARTESIAN_POINT('',(3.38,-2.9,-8.88178419700125E-16));
#1599=CARTESIAN_POINT($,(3.81,-2.9,-1.11022302462516E-15));
#1600=CARTESIAN_POINT($,(3.38,2.9,-4.44089209850063E-16));
#1601=CARTESIAN_POINT('Origin',(1.743,3.19,-2.22044604925031E-16));
#1602=CARTESIAN_POINT('',(1.7,-2.9,-6.66133814775094E-16));
#1603=CARTESIAN_POINT($,(1.7,2.9,-2.22044604925031E-16));
#1604=CARTESIAN_POINT('',(0.84,-2.9,-4.44089209850063E-16));
#1605=CARTESIAN_POINT($,(1.7,-2.9,-6.66133814775094E-16));
#1606=CARTESIAN_POINT($,(0.84,2.9,0.));
#1607=CARTESIAN_POINT('Origin',(-0.797000000000001,3.19,4.44089209850063E-16));
#1608=CARTESIAN_POINT('',(-0.84,-2.9,0.));
#1609=CARTESIAN_POINT($,(-0.840000000000001,2.9,4.44089209850063E-16));
#1610=CARTESIAN_POINT($,(-0.84,-2.9,0.));
#1611=CARTESIAN_POINT('Origin',(-3.3585,3.19,8.88178419700125E-16));
#1612=CARTESIAN_POINT('',(-3.38,-2.9,4.44089209850063E-16));
#1613=CARTESIAN_POINT('',(-3.81,-2.9,6.66133814775094E-16));
#1614=CARTESIAN_POINT($,(-3.38,-2.9,4.44089209850063E-16));
#1615=CARTESIAN_POINT($,(-3.81,2.9,1.11022302462516E-15));
#1616=CARTESIAN_POINT($,(-3.38,2.9,8.88178419700125E-16));
#1617=CARTESIAN_POINT('Origin',(3.38,-3.19,0.671999999999999));
#1618=CARTESIAN_POINT('',(3.38,-2.9,0.639999999999999));
#1619=CARTESIAN_POINT($,(3.38,-2.9,-8.88178419700125E-16));
#1620=CARTESIAN_POINT($,(3.38,2.9,0.64));
#1621=CARTESIAN_POINT('Origin',(1.616,-3.19,0.64));
#1622=CARTESIAN_POINT('',(1.7,-2.9,0.64));
#1623=CARTESIAN_POINT($,(1.7,2.9,0.64));
#1624=CARTESIAN_POINT($,(1.7,-2.9,0.64));
#1625=CARTESIAN_POINT('Origin',(4.191,-2.9,-0.585000000000006));
#1626=CARTESIAN_POINT('',(-0.84,-2.9,0.64));
#1627=CARTESIAN_POINT($,(-0.84,-2.9,0.));
#1628=CARTESIAN_POINT('',(0.84,-2.9,0.64));
#1629=CARTESIAN_POINT($,(-0.84,-2.9,0.64));
#1630=CARTESIAN_POINT($,(0.84,-2.9,-4.44089209850063E-16));
#1631=CARTESIAN_POINT($,(1.7,-2.9,-6.66133814775094E-16));
#1632=CARTESIAN_POINT('',(2.54,-2.9,3.16));
#1633=CARTESIAN_POINT($,(3.81,-2.9,3.16));
#1634=CARTESIAN_POINT('',(2.54,-2.9,10.95));
#1635=CARTESIAN_POINT($,(2.54,-2.9,3.16));
#1636=CARTESIAN_POINT('',(2.2670223243,-2.9,11.7));
#1637=CARTESIAN_POINT($,(2.54,-2.9,10.95));
#1638=CARTESIAN_POINT('',(-2.2670223243,-2.9,11.7));
#1639=CARTESIAN_POINT($,(2.2670223243,-2.9,11.7));
#1640=CARTESIAN_POINT('',(-2.54,-2.9,10.95));
#1641=CARTESIAN_POINT($,(-2.2670223243,-2.9,11.7));
#1642=CARTESIAN_POINT('',(-2.54,-2.9,3.16));
#1643=CARTESIAN_POINT($,(-2.54,-2.9,3.16));
#1644=CARTESIAN_POINT('',(-3.81,-2.9,3.16));
#1645=CARTESIAN_POINT($,(-2.54,-2.9,3.16));
#1646=CARTESIAN_POINT($,(-3.81,-2.9,6.66133814775094E-16));
#1647=CARTESIAN_POINT('',(-3.38,-2.9,0.640000000000001));
#1648=CARTESIAN_POINT($,(-3.38,-2.9,4.44089209850063E-16));
#1649=CARTESIAN_POINT($,(-3.38,-2.9,0.640000000000001));
#1650=CARTESIAN_POINT('Origin',(-3.464,-3.19,0.640000000000001));
#1651=CARTESIAN_POINT($,(-3.38,2.9,0.640000000000001));
#1652=CARTESIAN_POINT('Origin',(-3.38,-3.19,-0.0319999999999996));
#1653=CARTESIAN_POINT('Origin',(4.191,-3.19,3.16));
#1654=CARTESIAN_POINT($,(-3.81,-2.9,3.16));
#1655=CARTESIAN_POINT('',(-2.54,-1.65,3.16));
#1656=CARTESIAN_POINT($,(-2.54,-2.9,3.16));
#1657=CARTESIAN_POINT('',(2.54,-1.65,3.16));
#1658=CARTESIAN_POINT($,(2.54,-1.65,3.16));
#1659=CARTESIAN_POINT($,(2.54,-2.9,3.16));
#1660=CARTESIAN_POINT('Origin',(2.54,-0.0199999999999998,1.58));
#1661=CARTESIAN_POINT('',(2.54,-1.9,3.41));
#1662=CARTESIAN_POINT('Origin',(2.54,-1.65,3.41));
#1663=CARTESIAN_POINT('',(2.54,-1.9,5.45));
#1664=CARTESIAN_POINT($,(2.54,-1.9,5.45));
#1665=CARTESIAN_POINT('',(2.54,-1.37,5.98));
#1666=CARTESIAN_POINT($,(2.54,-1.37,5.98));
#1667=CARTESIAN_POINT('',(2.54,-1.37,6.98));
#1668=CARTESIAN_POINT($,(2.54,-1.37,6.98));
#1669=CARTESIAN_POINT('',(2.54,-1.9,7.897986928012));
#1670=CARTESIAN_POINT($,(2.54,-1.9,7.897986928012));
#1671=CARTESIAN_POINT('',(2.54,-1.9,10.95));
#1672=CARTESIAN_POINT($,(2.54,-1.9,10.95));
#1673=CARTESIAN_POINT($,(2.54,-2.9,10.95));
#1674=CARTESIAN_POINT('Origin',(2.55364888378499,-2.95,10.9125));
#1675=CARTESIAN_POINT('',(2.2670223243,-1.9,11.7));
#1676=CARTESIAN_POINT($,(2.54,-1.9,10.95));
#1677=CARTESIAN_POINT($,(2.2670223243,-2.9,11.7));
#1678=CARTESIAN_POINT('Origin',(2.49372455673,-2.95,11.7));
#1679=CARTESIAN_POINT('',(-2.2670223243,-1.9,11.7));
#1680=CARTESIAN_POINT($,(2.2670223243,-1.9,11.7));
#1681=CARTESIAN_POINT($,(-2.2670223243,-2.9,11.7));
#1682=CARTESIAN_POINT('Origin',(-2.25337344051501,-2.95,11.7375));
#1683=CARTESIAN_POINT('',(-2.54,-1.9,10.95));
#1684=CARTESIAN_POINT($,(-2.2670223243,-1.9,11.7));
#1685=CARTESIAN_POINT($,(-2.54,-2.9,10.95));
#1686=CARTESIAN_POINT('Origin',(-2.54,-0.0200000000000003,1.58));
#1687=CARTESIAN_POINT('',(-2.54,-1.9,7.897986928012));
#1688=CARTESIAN_POINT($,(-2.54,-1.9,10.95));
#1689=CARTESIAN_POINT('',(-2.54,-1.37,6.98));
#1690=CARTESIAN_POINT($,(-2.54,-1.9,7.897986928012));
#1691=CARTESIAN_POINT('',(-2.54,-1.37,5.98));
#1692=CARTESIAN_POINT($,(-2.54,-1.37,6.98));
#1693=CARTESIAN_POINT('',(-2.54,-1.9,5.45));
#1694=CARTESIAN_POINT($,(-2.54,-1.37,5.98));
#1695=CARTESIAN_POINT('',(-2.54,-1.9,3.41));
#1696=CARTESIAN_POINT($,(-2.54,-1.9,5.45));
#1697=CARTESIAN_POINT('Origin',(-2.54,-1.65,3.41));
#1698=CARTESIAN_POINT('Origin',(2.794,-1.65,3.41));
#1699=CARTESIAN_POINT($,(2.54,-1.9,3.41));
#1700=CARTESIAN_POINT('Origin',(2.794,-1.9,5.552));
#1701=CARTESIAN_POINT($,(2.54,-1.9,5.45));
#1702=CARTESIAN_POINT('Origin',(2.794,-1.3435,6.0065));
#1703=CARTESIAN_POINT($,(2.54,-1.37,5.98));
#1704=CARTESIAN_POINT('Origin',(2.794,-1.37,7.03));
#1705=CARTESIAN_POINT($,(2.54,-1.37,6.98));
#1706=CARTESIAN_POINT('Origin',(2.794,-1.92650000000001,7.94388627441259));
#1707=CARTESIAN_POINT($,(2.54,-1.9,7.897986928012));
#1708=CARTESIAN_POINT('Origin',(2.794,-1.9,11.8901006535995));
#1709=CARTESIAN_POINT('Origin',(-3.81,3.19,-0.157999999999999));
#1710=CARTESIAN_POINT('Origin',(-0.924,-3.19,0.64));
#1711=CARTESIAN_POINT($,(-0.84,2.9,0.640000000000001));
#1712=CARTESIAN_POINT($,(0.84,2.9,0.64));
#1713=CARTESIAN_POINT('Origin',(0.840000000000001,-3.19,0.672));
#1714=CARTESIAN_POINT('Origin',(-0.84,-3.19,-0.032));
#1715=CARTESIAN_POINT('Origin',(1.7,-3.19,-0.0320000000000007));
#1716=CARTESIAN_POINT('Origin',(2.22,-0.34,10.66));
#1717=CARTESIAN_POINT('',(2.22,0.3,10.66));
#1718=CARTESIAN_POINT('',(2.22,-0.34,10.66));
#1719=CARTESIAN_POINT($,(2.22,0.3,10.66));
#1720=CARTESIAN_POINT('',(2.22,0.3,-3.56));
#1721=CARTESIAN_POINT($,(2.22,0.3,10.66));
#1722=CARTESIAN_POINT('',(2.22,-0.34,-3.56));
#1723=CARTESIAN_POINT($,(2.22,0.3,-3.56));
#1724=CARTESIAN_POINT($,(2.22,-0.34,10.66));
#1725=CARTESIAN_POINT('Origin',(2.86,-0.34,10.66));
#1726=CARTESIAN_POINT('',(2.86,-0.34,10.66));
#1727=CARTESIAN_POINT($,(2.22,-0.34,10.66));
#1728=CARTESIAN_POINT('',(2.86,-0.34,-3.56));
#1729=CARTESIAN_POINT($,(2.22,-0.34,-3.56));
#1730=CARTESIAN_POINT($,(2.86,-0.34,10.66));
#1731=CARTESIAN_POINT('Origin',(2.86,0.3,10.66));
#1732=CARTESIAN_POINT('',(2.86,0.3,10.66));
#1733=CARTESIAN_POINT($,(2.86,-0.34,10.66));
#1734=CARTESIAN_POINT('',(2.86,0.3,-3.56));
#1735=CARTESIAN_POINT($,(2.86,-0.34,-3.56));
#1736=CARTESIAN_POINT($,(2.86,0.3,10.66));
#1737=CARTESIAN_POINT('Origin',(2.22,0.3,10.66));
#1738=CARTESIAN_POINT($,(2.86,0.3,10.66));
#1739=CARTESIAN_POINT($,(2.86,0.3,-3.56));
#1740=CARTESIAN_POINT('Origin',(2.54,-0.0200000000000003,10.66));
#1741=CARTESIAN_POINT('Origin',(2.54,-0.0200000000000004,-3.56));
#1742=CARTESIAN_POINT('Origin',(-0.319999999999998,-0.340000000000001,10.66));
#1743=CARTESIAN_POINT('',(-0.319999999999998,0.3,10.66));
#1744=CARTESIAN_POINT('',(-0.319999999999998,-0.340000000000001,10.66));
#1745=CARTESIAN_POINT($,(-0.319999999999998,0.3,10.66));
#1746=CARTESIAN_POINT('',(-0.319999999999998,0.3,-3.56));
#1747=CARTESIAN_POINT($,(-0.319999999999998,0.3,10.66));
#1748=CARTESIAN_POINT('',(-0.319999999999998,-0.340000000000001,-3.56));
#1749=CARTESIAN_POINT($,(-0.319999999999998,0.3,-3.56));
#1750=CARTESIAN_POINT($,(-0.319999999999998,-0.340000000000001,10.66));
#1751=CARTESIAN_POINT('Origin',(0.320000000000002,-0.340000000000001,10.66));
#1752=CARTESIAN_POINT('',(0.320000000000002,-0.340000000000001,10.66));
#1753=CARTESIAN_POINT($,(-0.319999999999998,-0.340000000000001,10.66));
#1754=CARTESIAN_POINT('',(0.320000000000002,-0.340000000000001,-3.56));
#1755=CARTESIAN_POINT($,(-0.319999999999998,-0.340000000000001,-3.56));
#1756=CARTESIAN_POINT($,(0.320000000000002,-0.340000000000001,10.66));
#1757=CARTESIAN_POINT('Origin',(0.320000000000002,0.299999999999999,10.66));
#1758=CARTESIAN_POINT('',(0.320000000000002,0.299999999999999,10.66));
#1759=CARTESIAN_POINT($,(0.320000000000002,-0.340000000000001,10.66));
#1760=CARTESIAN_POINT('',(0.320000000000002,0.299999999999999,-3.56));
#1761=CARTESIAN_POINT($,(0.320000000000002,-0.340000000000001,-3.56));
#1762=CARTESIAN_POINT($,(0.320000000000002,0.299999999999999,10.66));
#1763=CARTESIAN_POINT('Origin',(-0.319999999999998,0.3,10.66));
#1764=CARTESIAN_POINT($,(0.320000000000002,0.299999999999999,10.66));
#1765=CARTESIAN_POINT($,(0.320000000000002,0.299999999999999,-3.56));
#1766=CARTESIAN_POINT('Origin',(2.22803546445771E-15,-0.0200000000000006,
10.66));
#1767=CARTESIAN_POINT('Origin',(2.22044604925031E-15,-0.0200000000000006,
-3.56));
#1768=CARTESIAN_POINT('Origin',(-2.86,-0.340000000000001,10.66));
#1769=CARTESIAN_POINT('',(-2.86,0.299999999999999,10.66));
#1770=CARTESIAN_POINT('',(-2.86,-0.340000000000001,10.66));
#1771=CARTESIAN_POINT($,(-2.86,0.299999999999999,10.66));
#1772=CARTESIAN_POINT('',(-2.86,0.299999999999999,-3.56));
#1773=CARTESIAN_POINT($,(-2.86,0.299999999999999,10.66));
#1774=CARTESIAN_POINT('',(-2.86,-0.340000000000001,-3.56));
#1775=CARTESIAN_POINT($,(-2.86,0.299999999999999,-3.56));
#1776=CARTESIAN_POINT($,(-2.86,-0.340000000000001,10.66));
#1777=CARTESIAN_POINT('Origin',(-2.22,-0.340000000000001,10.66));
#1778=CARTESIAN_POINT('',(-2.22,-0.340000000000001,10.66));
#1779=CARTESIAN_POINT($,(-2.86,-0.340000000000001,10.66));
#1780=CARTESIAN_POINT('',(-2.22,-0.340000000000001,-3.56));
#1781=CARTESIAN_POINT($,(-2.86,-0.340000000000001,-3.56));
#1782=CARTESIAN_POINT($,(-2.22,-0.340000000000001,10.66));
#1783=CARTESIAN_POINT('Origin',(-2.22,0.299999999999999,10.66));
#1784=CARTESIAN_POINT('',(-2.22,0.299999999999999,10.66));
#1785=CARTESIAN_POINT($,(-2.22,-0.340000000000001,10.66));
#1786=CARTESIAN_POINT('',(-2.22,0.299999999999999,-3.56));
#1787=CARTESIAN_POINT($,(-2.22,-0.340000000000001,-3.56));
#1788=CARTESIAN_POINT($,(-2.22,0.299999999999999,10.66));
#1789=CARTESIAN_POINT('Origin',(-2.86,0.299999999999999,10.66));
#1790=CARTESIAN_POINT($,(-2.22,0.299999999999999,10.66));
#1791=CARTESIAN_POINT($,(-2.22,0.299999999999999,-3.56));
#1792=CARTESIAN_POINT('Origin',(-2.54,-0.0200000000000008,10.66));
#1793=CARTESIAN_POINT('Origin',(-2.54,-0.0200000000000008,-3.56));
#1794=UNCERTAINTY_MEASURE_WITH_UNIT(LENGTH_MEASURE(0.01),#1798,
'DISTANCE_ACCURACY_VALUE',
'Maximum model space distance between geometric entities at asserted c
onnectivities');
#1795=UNCERTAINTY_MEASURE_WITH_UNIT(LENGTH_MEASURE(1.E-6),#1798,
'DISTANCE_ACCURACY_VALUE',
'Maximum model space distance between geometric entities at asserted c
onnectivities');
#1796=(
GEOMETRIC_REPRESENTATION_CONTEXT(3)
GLOBAL_UNCERTAINTY_ASSIGNED_CONTEXT((#1794))
GLOBAL_UNIT_ASSIGNED_CONTEXT((#1798,#1800,#1799))
REPRESENTATION_CONTEXT('','3D')
);
#1797=(
GEOMETRIC_REPRESENTATION_CONTEXT(3)
GLOBAL_UNCERTAINTY_ASSIGNED_CONTEXT((#1795))
GLOBAL_UNIT_ASSIGNED_CONTEXT((#1798,#12,#1799))
REPRESENTATION_CONTEXT('','3D')
);
#1798=(
LENGTH_UNIT()
NAMED_UNIT(*)
SI_UNIT(.MILLI.,.METRE.)
);
#1799=(
NAMED_UNIT(*)
SI_UNIT($,.STERADIAN.)
SOLID_ANGLE_UNIT()
);
#1800=(
NAMED_UNIT(*)
PLANE_ANGLE_UNIT()
SI_UNIT($,.RADIAN.)
);
#1801=SHAPE_DEFINITION_REPRESENTATION(#1802,#1803);
#1802=PRODUCT_DEFINITION_SHAPE('',$,#1805);
#1803=SHAPE_REPRESENTATION('',(#1142),#1796);
#1804=PRODUCT_DEFINITION_CONTEXT('part definition',#1809,'design');
#1805=PRODUCT_DEFINITION('Product','Product',#1806,#1804);
#1806=PRODUCT_DEFINITION_FORMATION('',$,#1811);
#1807=PRODUCT_RELATED_PRODUCT_CATEGORY('Product','Product',(#1811));
#1808=APPLICATION_PROTOCOL_DEFINITION('international standard',
'automotive_design',2009,#1809);
#1809=APPLICATION_CONTEXT(
'Core Data for Automotive Mechanical Design Process');
#1810=PRODUCT_CONTEXT('part definition',#1809,'mechanical');
#1811=PRODUCT('Product','Product',$,(#1810));
#1812=PRESENTATION_STYLE_ASSIGNMENT((#1815));
#1813=PRESENTATION_STYLE_ASSIGNMENT((#1816));
#1814=PRESENTATION_STYLE_ASSIGNMENT((#1817));
#1815=SURFACE_STYLE_USAGE(.BOTH.,#1818);
#1816=SURFACE_STYLE_USAGE(.BOTH.,#1819);
#1817=SURFACE_STYLE_USAGE(.BOTH.,#1820);
#1818=SURFACE_SIDE_STYLE($,(#1821));
#1819=SURFACE_SIDE_STYLE($,(#1822));
#1820=SURFACE_SIDE_STYLE($,(#1823));
#1821=SURFACE_STYLE_FILL_AREA(#1824);
#1822=SURFACE_STYLE_FILL_AREA(#1825);
#1823=SURFACE_STYLE_FILL_AREA(#1826);
#1824=FILL_AREA_STYLE($,(#1827));
#1825=FILL_AREA_STYLE($,(#1828));
#1826=FILL_AREA_STYLE($,(#1829));
#1827=FILL_AREA_STYLE_COLOUR($,#1830);
#1828=FILL_AREA_STYLE_COLOUR($,#1831);
#1829=FILL_AREA_STYLE_COLOUR($,#1832);
#1830=COLOUR_RGB('',1.,1.,1.);
#1831=COLOUR_RGB('',1.,1.,1.);
#1832=COLOUR_RGB('',0.749019607843137,0.749019607843137,0.749019607843137);
ENDSEC;
END-ISO-10303-21;
