ISO-10303-21;
HEADER;
/****************************************************************
 * Generated by software with PDElib inside                    *
 * PDElib Version v51a, created Fri 09/10/2010                  *
 * ITI Transcendata (http://www.transcendata.com/)              *
 ****************************************************************/
FILE_DESCRIPTION((''),'2;1');
FILE_NAME('MSBOX_EDA-02993-V1-0_misc2.stp','2014-10-17T17:05:11',(''),(''),'Mechanical Desktop 2011','Mechanical Desktop 2011',', , ');
FILE_SCHEMA(('AUTOMOTIVE_DESIGN { 1 2 10303 214 1 1 1 1 }'));
ENDSEC;
DATA;
#10=(NAMED_UNIT(*)PLANE_ANGLE_UNIT()SI_UNIT($,.RADIAN.));
#11=DIMENSIONAL_EXPONENTS(0.0,0.0,0.0,0.0,0.0,0.0,0.0);
#12=PLANE_ANGLE_MEASURE_WITH_UNIT(PLANE_ANGLE_MEASURE(0.0174532925),#10);
#16=(CONVERSION_BASED_UNIT('DEGREE',#12)NAMED_UNIT(#11)PLANE_ANGLE_UNIT());
#20=(NAMED_UNIT(*)SI_UNIT($,.STERADIAN.)SOLID_ANGLE_UNIT());
#24=(LENGTH_UNIT()NAMED_UNIT(*)SI_UNIT(.MILLI.,.METRE.));
#26=UNCERTAINTY_MEASURE_WITH_UNIT(LENGTH_MEASURE(0.000001),#24,'DISTANCE_ACCURACY_VALUE','');
#28=(GEOMETRIC_REPRESENTATION_CONTEXT(3)GLOBAL_UNCERTAINTY_ASSIGNED_CONTEXT((#26))GLOBAL_UNIT_ASSIGNED_CONTEXT((#16,#20,#24))REPRESENTATION_CONTEXT('','3D'));
#29=APPLICATION_CONTEXT('automotive design');
#30=APPLICATION_PROTOCOL_DEFINITION('INTERNATIONAL_STANDARD','automotive_design',1998,#29);
#31=PRODUCT_CONTEXT('3D Mechanical Parts',#29,'mechanical');
#32=PRODUCT('Product','Product','',(#31));
#33=PRODUCT_RELATED_PRODUCT_CATEGORY('part',$,(#32));
#34=PRODUCT_CATEGORY('part',$);
#35=PERSON('1','Design','Joe',$,$,$);
#36=ORGANIZATION($,'None','None');
#37=PERSON_AND_ORGANIZATION(#35,#36);
#38=PERSON_AND_ORGANIZATION_ROLE('design_owner');
#39=APPLIED_PERSON_AND_ORGANIZATION_ASSIGNMENT(#37,#38,(#32));
#40=PRODUCT_DEFINITION_FORMATION_WITH_SPECIFIED_SOURCE('None','',#32,.BOUGHT.);
#41=PERSON('2','Creator','Joe',$,$,$);
#42=ORGANIZATION($,'None','None');
#43=PERSON_AND_ORGANIZATION(#41,#42);
#44=PERSON_AND_ORGANIZATION_ROLE('creator');
#45=APPLIED_PERSON_AND_ORGANIZATION_ASSIGNMENT(#43,#44,(#40));
#46=PERSON('3','Supplier','Joe',$,$,$);
#47=ORGANIZATION($,'None','None');
#48=PERSON_AND_ORGANIZATION(#46,#47);
#49=PERSON_AND_ORGANIZATION_ROLE('design_supplier');
#50=APPLIED_PERSON_AND_ORGANIZATION_ASSIGNMENT(#48,#49,(#40));
#51=PRODUCT_DEFINITION_CONTEXT('part definition',#29,'design');
#52=PRODUCT_DEFINITION('None','',#40,#51);
#53=PERSON('4','Creator','Joe',$,$,$);
#54=ORGANIZATION($,'None','None');
#55=PERSON_AND_ORGANIZATION(#53,#54);
#56=PERSON_AND_ORGANIZATION_ROLE('creator');
#57=APPLIED_PERSON_AND_ORGANIZATION_ASSIGNMENT(#55,#56,(#52));
#58=CARTESIAN_POINT('NONE',(0.0,0.0,0.0));
#59=DIRECTION('NONE',(0.0,0.0,1.0));
#60=DIRECTION('NONE',(1.0,0.0,0.0));
#61=AXIS2_PLACEMENT_3D('NONE',#58,#59,#60);
#62=SHAPE_REPRESENTATION('SR1',(#61),#28);
#63=PRODUCT_DEFINITION_SHAPE('PDS1','Test Part',#52);
#64=SHAPE_DEFINITION_REPRESENTATION(#63,#62);
#65=CARTESIAN_POINT('',(28.399999999999991,-0.540000000000031,10.000000000000002));
#66=CARTESIAN_POINT('',(28.399999999999991,-0.540000000000031,0.0));
#67=CARTESIAN_POINT('',(28.399999999999991,0.0,10.000000000000002));
#68=CARTESIAN_POINT('',(28.399999999999991,0.0,0.0));
#69=B_SPLINE_SURFACE_WITH_KNOTS('',1,1,((#65,#67),(#66,#68)),.UNSPECIFIED.,.F.,.F.,.U.,(2,2),(2,2),(0.0,10.000000000000002),(0.0,0.540000000000031),.UNSPECIFIED.);
#70=CARTESIAN_POINT('',(28.399999999999991,-0.540000000000006,10.000000000000002));
#71=VERTEX_POINT('',#70);
#72=CARTESIAN_POINT('',(28.399999999999991,0.0,10.000000000000002));
#73=VERTEX_POINT('',#72);
#74=CARTESIAN_POINT('',(28.399999999999988,-0.540000000000006,10.000000000000002));
#75=DIRECTION('',(0.0,1.0,0.0));
#76=VECTOR('',#75,0.540000000000006);
#77=LINE('',#74,#76);
#78=EDGE_CURVE('',#71,#73,#77,.T.);
#79=ORIENTED_EDGE('',*,*,#78,.F.);
#80=CARTESIAN_POINT('',(28.399999999999991,-0.540000000000006,0.0));
#81=VERTEX_POINT('',#80);
#82=CARTESIAN_POINT('',(28.399999999999991,-0.540000000000031,0.0));
#83=DIRECTION('',(0.0,0.0,1.0));
#84=VECTOR('',#83,10.000000000000002);
#85=LINE('',#82,#84);
#86=EDGE_CURVE('',#81,#71,#85,.T.);
#87=ORIENTED_EDGE('',*,*,#86,.F.);
#88=CARTESIAN_POINT('',(28.399999999999991,0.0,0.0));
#89=VERTEX_POINT('',#88);
#90=CARTESIAN_POINT('',(28.399999999999988,0.0,0.0));
#91=DIRECTION('',(0.0,-1.0,0.0));
#92=VECTOR('',#91,0.540000000000006);
#93=LINE('',#90,#92);
#94=EDGE_CURVE('',#89,#81,#93,.T.);
#95=ORIENTED_EDGE('',*,*,#94,.F.);
#96=CARTESIAN_POINT('',(28.399999999999991,-3.197442E-014,10.000000000000002));
#97=DIRECTION('',(0.0,0.0,-1.0));
#98=VECTOR('',#97,10.000000000000002);
#99=LINE('',#96,#98);
#100=EDGE_CURVE('',#73,#89,#99,.T.);
#101=ORIENTED_EDGE('',*,*,#100,.F.);
#102=EDGE_LOOP('',(#79,#87,#95,#101));
#103=FACE_OUTER_BOUND('',#102,.T.);
#104=ADVANCED_FACE('',(#103),#69,.T.);
#105=CARTESIAN_POINT('',(38.249999999999993,-3.180121764422943,0.0));
#106=DIRECTION('',(0.0,0.0,1.0));
#107=DIRECTION('',(1.0,0.0,0.0));
#108=AXIS2_PLACEMENT_3D('',#105,#106,#107);
#109=PLANE('',#108);
#110=ORIENTED_EDGE('',*,*,#94,.T.);
#111=CARTESIAN_POINT('',(27.397300920000003,-0.540000000000006,0.0));
#112=VERTEX_POINT('',#111);
#113=CARTESIAN_POINT('',(27.397300920000003,-0.540000000000006,0.0));
#114=DIRECTION('',(1.0,0.0,0.0));
#115=VECTOR('',#114,1.002699079999989);
#116=LINE('',#113,#115);
#117=EDGE_CURVE('',#112,#81,#116,.T.);
#118=ORIENTED_EDGE('',*,*,#117,.F.);
#119=CARTESIAN_POINT('',(27.397300920000003,-7.105427E-015,0.0));
#120=VERTEX_POINT('',#119);
#121=CARTESIAN_POINT('',(27.397300920000006,-0.539999999999981,0.0));
#122=DIRECTION('',(0.0,1.0,0.0));
#123=VECTOR('',#122,0.539999999999999);
#124=LINE('',#121,#123);
#125=EDGE_CURVE('',#112,#120,#124,.T.);
#126=ORIENTED_EDGE('',*,*,#125,.T.);
#127=CARTESIAN_POINT('',(28.399999999999991,0.0,0.0));
#128=DIRECTION('',(-1.0,0.0,0.0));
#129=VECTOR('',#128,1.002699079999985);
#130=LINE('',#127,#129);
#131=EDGE_CURVE('',#89,#120,#130,.T.);
#132=ORIENTED_EDGE('',*,*,#131,.F.);
#133=EDGE_LOOP('',(#110,#118,#126,#132));
#134=FACE_OUTER_BOUND('',#133,.T.);
#135=ADVANCED_FACE('',(#134),#109,.F.);
#136=CARTESIAN_POINT('',(28.399999999999991,-0.540000000000031,10.000000000000002));
#137=CARTESIAN_POINT('',(28.399999999999991,-0.540000000000031,-2.25));
#138=CARTESIAN_POINT('',(1.039999999999999,-0.540000000000031,10.000000000000002));
#139=CARTESIAN_POINT('',(1.039999999999999,-0.540000000000031,-2.25));
#140=B_SPLINE_SURFACE_WITH_KNOTS('',1,1,((#136,#138),(#137,#139)),.UNSPECIFIED.,.F.,.F.,.U.,(2,2),(2,2),(0.0,12.250000000000002),(0.0,27.359999999999992),.UNSPECIFIED.);
#141=ORIENTED_EDGE('',*,*,#86,.T.);
#142=CARTESIAN_POINT('',(1.04,-0.540000000000006,10.000000000000002));
#143=VERTEX_POINT('',#142);
#144=CARTESIAN_POINT('',(28.399999999999991,-0.540000000000006,10.000000000000002));
#145=DIRECTION('',(-1.0,0.0,0.0));
#146=VECTOR('',#145,27.359999999999992);
#147=LINE('',#144,#146);
#148=EDGE_CURVE('',#71,#143,#147,.T.);
#149=ORIENTED_EDGE('',*,*,#148,.T.);
#150=CARTESIAN_POINT('',(1.04,-0.540000000000006,0.0));
#151=VERTEX_POINT('',#150);
#152=CARTESIAN_POINT('',(1.04,-0.540000000000006,0.0));
#153=DIRECTION('',(0.0,0.0,1.0));
#154=VECTOR('',#153,10.000000000000002);
#155=LINE('',#152,#154);
#156=EDGE_CURVE('',#151,#143,#155,.T.);
#157=ORIENTED_EDGE('',*,*,#156,.F.);
#158=CARTESIAN_POINT('',(5.397300920000001,-0.540000000000006,0.0));
#159=VERTEX_POINT('',#158);
#160=CARTESIAN_POINT('',(1.04,-0.540000000000006,0.0));
#161=DIRECTION('',(1.0,0.0,0.0));
#162=VECTOR('',#161,4.357300920000001);
#163=LINE('',#160,#162);
#164=EDGE_CURVE('',#151,#159,#163,.T.);
#165=ORIENTED_EDGE('',*,*,#164,.T.);
#166=CARTESIAN_POINT('',(5.397300920000001,-0.540000000000006,-2.25));
#167=VERTEX_POINT('',#166);
#168=CARTESIAN_POINT('',(5.397300920000001,-0.540000000000006,0.0));
#169=DIRECTION('',(0.0,0.0,-1.0));
#170=VECTOR('',#169,2.25);
#171=LINE('',#168,#170);
#172=EDGE_CURVE('',#159,#167,#171,.T.);
#173=ORIENTED_EDGE('',*,*,#172,.T.);
#174=CARTESIAN_POINT('',(6.397300920000001,-0.540000000000006,-2.25));
#175=VERTEX_POINT('',#174);
#176=CARTESIAN_POINT('',(5.397300920000001,-0.540000000000006,-2.25));
#177=DIRECTION('',(1.0,0.0,0.0));
#178=VECTOR('',#177,1.0);
#179=LINE('',#176,#178);
#180=EDGE_CURVE('',#167,#175,#179,.T.);
#181=ORIENTED_EDGE('',*,*,#180,.T.);
#182=CARTESIAN_POINT('',(6.397300920000001,-0.540000000000006,0.0));
#183=VERTEX_POINT('',#182);
#184=CARTESIAN_POINT('',(6.397300920000001,-0.540000000000006,0.0));
#185=DIRECTION('',(0.0,0.0,-1.0));
#186=VECTOR('',#185,2.25);
#187=LINE('',#184,#186);
#188=EDGE_CURVE('',#183,#175,#187,.T.);
#189=ORIENTED_EDGE('',*,*,#188,.F.);
#190=CARTESIAN_POINT('',(15.897300919999999,-0.540000000000006,0.0));
#191=VERTEX_POINT('',#190);
#192=CARTESIAN_POINT('',(6.397300920000001,-0.540000000000006,0.0));
#193=DIRECTION('',(1.0,0.0,0.0));
#194=VECTOR('',#193,9.499999999999998);
#195=LINE('',#192,#194);
#196=EDGE_CURVE('',#183,#191,#195,.T.);
#197=ORIENTED_EDGE('',*,*,#196,.T.);
#198=CARTESIAN_POINT('',(15.897300919999999,-0.540000000000006,-2.25));
#199=VERTEX_POINT('',#198);
#200=CARTESIAN_POINT('',(15.897300919999999,-0.540000000000006,0.0));
#201=DIRECTION('',(0.0,0.0,-1.0));
#202=VECTOR('',#201,2.25);
#203=LINE('',#200,#202);
#204=EDGE_CURVE('',#191,#199,#203,.T.);
#205=ORIENTED_EDGE('',*,*,#204,.T.);
#206=CARTESIAN_POINT('',(16.897300919999999,-0.540000000000006,-2.25));
#207=VERTEX_POINT('',#206);
#208=CARTESIAN_POINT('',(15.897300919999999,-0.540000000000006,-2.25));
#209=DIRECTION('',(1.0,0.0,0.0));
#210=VECTOR('',#209,1.0);
#211=LINE('',#208,#210);
#212=EDGE_CURVE('',#199,#207,#211,.T.);
#213=ORIENTED_EDGE('',*,*,#212,.T.);
#214=CARTESIAN_POINT('',(16.897300919999999,-0.540000000000006,0.0));
#215=VERTEX_POINT('',#214);
#216=CARTESIAN_POINT('',(16.897300919999999,-0.540000000000006,0.0));
#217=DIRECTION('',(0.0,0.0,-1.0));
#218=VECTOR('',#217,2.25);
#219=LINE('',#216,#218);
#220=EDGE_CURVE('',#215,#207,#219,.T.);
#221=ORIENTED_EDGE('',*,*,#220,.F.);
#222=CARTESIAN_POINT('',(26.397300920000003,-0.540000000000006,0.0));
#223=VERTEX_POINT('',#222);
#224=CARTESIAN_POINT('',(16.897300919999999,-0.540000000000006,0.0));
#225=DIRECTION('',(1.0,0.0,0.0));
#226=VECTOR('',#225,9.500000000000004);
#227=LINE('',#224,#226);
#228=EDGE_CURVE('',#215,#223,#227,.T.);
#229=ORIENTED_EDGE('',*,*,#228,.T.);
#230=CARTESIAN_POINT('',(26.397300920000003,-0.540000000000006,-2.25));
#231=VERTEX_POINT('',#230);
#232=CARTESIAN_POINT('',(26.397300920000003,-0.540000000000006,0.0));
#233=DIRECTION('',(0.0,0.0,-1.0));
#234=VECTOR('',#233,2.25);
#235=LINE('',#232,#234);
#236=EDGE_CURVE('',#223,#231,#235,.T.);
#237=ORIENTED_EDGE('',*,*,#236,.T.);
#238=CARTESIAN_POINT('',(27.397300920000003,-0.540000000000006,-2.25));
#239=VERTEX_POINT('',#238);
#240=CARTESIAN_POINT('',(26.397300920000003,-0.540000000000006,-2.25));
#241=DIRECTION('',(1.0,0.0,0.0));
#242=VECTOR('',#241,1.0);
#243=LINE('',#240,#242);
#244=EDGE_CURVE('',#231,#239,#243,.T.);
#245=ORIENTED_EDGE('',*,*,#244,.T.);
#246=CARTESIAN_POINT('',(27.397300920000003,-0.540000000000006,0.0));
#247=DIRECTION('',(0.0,0.0,-1.0));
#248=VECTOR('',#247,2.25);
#249=LINE('',#246,#248);
#250=EDGE_CURVE('',#112,#239,#249,.T.);
#251=ORIENTED_EDGE('',*,*,#250,.F.);
#252=ORIENTED_EDGE('',*,*,#117,.T.);
#253=EDGE_LOOP('',(#141,#149,#157,#165,#173,#181,#189,#197,#205,#213,#221,#229,#237,#245,#251,#252));
#254=FACE_OUTER_BOUND('',#253,.T.);
#255=ADVANCED_FACE('',(#254),#140,.F.);
#256=CARTESIAN_POINT('',(0.540000000000001,-16.897300920000006,-2.25));
#257=CARTESIAN_POINT('',(0.540000000000001,-15.897300920000006,-2.25));
#258=CARTESIAN_POINT('',(-2.131628E-014,-16.897300920000006,-2.25));
#259=CARTESIAN_POINT('',(-2.120526E-014,-15.897300920000006,-2.25));
#260=B_SPLINE_SURFACE_WITH_KNOTS('',1,1,((#256,#258),(#257,#259)),.UNSPECIFIED.,.F.,.F.,.U.,(2,2),(2,2),(0.0,1.0),(0.0,0.540000000000022),.UNSPECIFIED.);
#261=CARTESIAN_POINT('',(0.540000000000001,-15.897300920000006,-2.25));
#262=VERTEX_POINT('',#261);
#263=CARTESIAN_POINT('',(1.831868E-015,-15.897300920000006,-2.25));
#264=VERTEX_POINT('',#263);
#265=CARTESIAN_POINT('',(0.539999999999978,-15.897300920000006,-2.25));
#266=DIRECTION('',(-1.0,0.0,0.0));
#267=VECTOR('',#266,0.539999999999999);
#268=LINE('',#265,#267);
#269=EDGE_CURVE('',#262,#264,#268,.T.);
#270=ORIENTED_EDGE('',*,*,#269,.F.);
#271=CARTESIAN_POINT('',(0.540000000000001,-16.897300920000006,-2.25));
#272=VERTEX_POINT('',#271);
#273=CARTESIAN_POINT('',(0.540000000000001,-16.897300920000006,-2.25));
#274=DIRECTION('',(0.0,1.0,0.0));
#275=VECTOR('',#274,1.0);
#276=LINE('',#273,#275);
#277=EDGE_CURVE('',#272,#262,#276,.T.);
#278=ORIENTED_EDGE('',*,*,#277,.F.);
#279=CARTESIAN_POINT('',(1.720846E-015,-16.897300920000006,-2.25));
#280=VERTEX_POINT('',#279);
#281=CARTESIAN_POINT('',(-2.131628E-014,-16.897300920000006,-2.25));
#282=DIRECTION('',(1.0,0.0,0.0));
#283=VECTOR('',#282,0.539999999999999);
#284=LINE('',#281,#283);
#285=EDGE_CURVE('',#280,#272,#284,.T.);
#286=ORIENTED_EDGE('',*,*,#285,.F.);
#287=CARTESIAN_POINT('',(1.806973E-015,-15.897300920000006,-2.25));
#288=DIRECTION('',(0.0,-1.0,0.0));
#289=VECTOR('',#288,1.0);
#290=LINE('',#287,#289);
#291=EDGE_CURVE('',#264,#280,#290,.T.);
#292=ORIENTED_EDGE('',*,*,#291,.F.);
#293=EDGE_LOOP('',(#270,#278,#286,#292));
#294=FACE_OUTER_BOUND('',#293,.T.);
#295=ADVANCED_FACE('',(#294),#260,.F.);
#296=CARTESIAN_POINT('',(0.540000000000001,-16.897300920000006,0.0));
#297=CARTESIAN_POINT('',(0.540000000000001,-16.897300920000006,-2.25));
#298=CARTESIAN_POINT('',(-2.131628E-014,-16.897300920000006,0.0));
#299=CARTESIAN_POINT('',(-2.131628E-014,-16.897300920000006,-2.25));
#300=B_SPLINE_SURFACE_WITH_KNOTS('',1,1,((#296,#298),(#297,#299)),.UNSPECIFIED.,.F.,.F.,.U.,(2,2),(2,2),(0.0,2.25),(0.0,0.540000000000022),.UNSPECIFIED.);
#301=CARTESIAN_POINT('',(0.540000000000001,-16.897300920000006,0.0));
#302=VERTEX_POINT('',#301);
#303=CARTESIAN_POINT('',(0.540000000000001,-16.897300920000006,0.0));
#304=DIRECTION('',(0.0,0.0,-1.0));
#305=VECTOR('',#304,2.25);
#306=LINE('',#303,#305);
#307=EDGE_CURVE('',#302,#272,#306,.T.);
#308=ORIENTED_EDGE('',*,*,#307,.F.);
#309=CARTESIAN_POINT('',(1.720846E-015,-16.897300920000006,0.0));
#310=VERTEX_POINT('',#309);
#311=CARTESIAN_POINT('',(0.0,-16.897300920000006,0.0));
#312=DIRECTION('',(1.0,0.0,0.0));
#313=VECTOR('',#312,0.539999999999999);
#314=LINE('',#311,#313);
#315=EDGE_CURVE('',#310,#302,#314,.T.);
#316=ORIENTED_EDGE('',*,*,#315,.F.);
#317=CARTESIAN_POINT('',(1.720846E-015,-16.897300920000006,0.0));
#318=DIRECTION('',(0.0,0.0,-1.0));
#319=VECTOR('',#318,2.25);
#320=LINE('',#317,#319);
#321=EDGE_CURVE('',#310,#280,#320,.T.);
#322=ORIENTED_EDGE('',*,*,#321,.T.);
#323=ORIENTED_EDGE('',*,*,#285,.T.);
#324=EDGE_LOOP('',(#308,#316,#322,#323));
#325=FACE_OUTER_BOUND('',#324,.T.);
#326=ADVANCED_FACE('',(#325),#300,.F.);
#327=CARTESIAN_POINT('',(0.540000000000001,-15.897300920000006,-2.25));
#328=CARTESIAN_POINT('',(0.540000000000001,-15.897300920000006,0.0));
#329=CARTESIAN_POINT('',(-2.131628E-014,-15.897300920000006,-2.25));
#330=CARTESIAN_POINT('',(-2.131628E-014,-15.897300920000006,0.0));
#331=B_SPLINE_SURFACE_WITH_KNOTS('',1,1,((#327,#329),(#328,#330)),.UNSPECIFIED.,.F.,.F.,.U.,(2,2),(2,2),(0.0,2.25),(0.0,0.540000000000022),.UNSPECIFIED.);
#332=CARTESIAN_POINT('',(1.831868E-015,-15.897300920000006,0.0));
#333=VERTEX_POINT('',#332);
#334=CARTESIAN_POINT('',(1.831868E-015,-15.897300920000006,0.0));
#335=DIRECTION('',(0.0,0.0,-1.0));
#336=VECTOR('',#335,2.25);
#337=LINE('',#334,#336);
#338=EDGE_CURVE('',#333,#264,#337,.T.);
#339=ORIENTED_EDGE('',*,*,#338,.F.);
#340=CARTESIAN_POINT('',(0.540000000000001,-15.897300920000006,0.0));
#341=VERTEX_POINT('',#340);
#342=CARTESIAN_POINT('',(0.539999999999978,-15.897300920000006,0.0));
#343=DIRECTION('',(-1.0,0.0,0.0));
#344=VECTOR('',#343,0.539999999999999);
#345=LINE('',#342,#344);
#346=EDGE_CURVE('',#341,#333,#345,.T.);
#347=ORIENTED_EDGE('',*,*,#346,.F.);
#348=CARTESIAN_POINT('',(0.540000000000001,-15.897300920000006,0.0));
#349=DIRECTION('',(0.0,0.0,-1.0));
#350=VECTOR('',#349,2.25);
#351=LINE('',#348,#350);
#352=EDGE_CURVE('',#341,#262,#351,.T.);
#353=ORIENTED_EDGE('',*,*,#352,.T.);
#354=ORIENTED_EDGE('',*,*,#269,.T.);
#355=EDGE_LOOP('',(#339,#347,#353,#354));
#356=FACE_OUTER_BOUND('',#355,.T.);
#357=ADVANCED_FACE('',(#356),#331,.F.);
#358=CARTESIAN_POINT('',(38.249999999999993,-3.180121764422943,0.0));
#359=DIRECTION('',(0.0,0.0,1.0));
#360=DIRECTION('',(1.0,0.0,0.0));
#361=AXIS2_PLACEMENT_3D('',#358,#359,#360);
#362=PLANE('',#361);
#363=ORIENTED_EDGE('',*,*,#346,.T.);
#364=CARTESIAN_POINT('',(1.720846E-015,-6.397300920000006,0.0));
#365=VERTEX_POINT('',#364);
#366=CARTESIAN_POINT('',(3.360677E-016,-6.397300920000006,0.0));
#367=DIRECTION('',(0.0,-1.0,0.0));
#368=VECTOR('',#367,9.5);
#369=LINE('',#366,#368);
#370=EDGE_CURVE('',#365,#333,#369,.T.);
#371=ORIENTED_EDGE('',*,*,#370,.F.);
#372=CARTESIAN_POINT('',(0.540000000000001,-6.397300920000006,0.0));
#373=VERTEX_POINT('',#372);
#374=CARTESIAN_POINT('',(-2.486900E-014,-6.397300920000006,0.0));
#375=DIRECTION('',(1.0,0.0,0.0));
#376=VECTOR('',#375,0.540000000000003);
#377=LINE('',#374,#376);
#378=EDGE_CURVE('',#365,#373,#377,.T.);
#379=ORIENTED_EDGE('',*,*,#378,.T.);
#380=CARTESIAN_POINT('',(0.540000000000001,-15.897300920000006,0.0));
#381=DIRECTION('',(0.0,1.0,0.0));
#382=VECTOR('',#381,9.5);
#383=LINE('',#380,#382);
#384=EDGE_CURVE('',#341,#373,#383,.T.);
#385=ORIENTED_EDGE('',*,*,#384,.F.);
#386=EDGE_LOOP('',(#363,#371,#379,#385));
#387=FACE_OUTER_BOUND('',#386,.T.);
#388=ADVANCED_FACE('',(#387),#362,.F.);
#389=CARTESIAN_POINT('',(0.540000000000001,-6.397300920000006,-2.25));
#390=CARTESIAN_POINT('',(0.540000000000001,-5.397300920000006,-2.25));
#391=CARTESIAN_POINT('',(-2.142730E-014,-6.397300920000006,-2.25));
#392=CARTESIAN_POINT('',(-2.131628E-014,-5.397300920000006,-2.25));
#393=B_SPLINE_SURFACE_WITH_KNOTS('',1,1,((#389,#391),(#390,#392)),.UNSPECIFIED.,.F.,.F.,.U.,(2,2),(2,2),(0.0,1.0),(0.0,0.540000000000022),.UNSPECIFIED.);
#394=CARTESIAN_POINT('',(0.540000000000001,-5.397300920000006,-2.25));
#395=VERTEX_POINT('',#394);
#396=CARTESIAN_POINT('',(1.831868E-015,-5.397300920000006,-2.25));
#397=VERTEX_POINT('',#396);
#398=CARTESIAN_POINT('',(0.539999999999978,-5.397300920000006,-2.25));
#399=DIRECTION('',(-1.0,0.0,0.0));
#400=VECTOR('',#399,0.539999999999999);
#401=LINE('',#398,#400);
#402=EDGE_CURVE('',#395,#397,#401,.T.);
#403=ORIENTED_EDGE('',*,*,#402,.F.);
#404=CARTESIAN_POINT('',(0.540000000000001,-6.397300920000006,-2.25));
#405=VERTEX_POINT('',#404);
#406=CARTESIAN_POINT('',(0.540000000000001,-6.397300920000006,-2.25));
#407=DIRECTION('',(0.0,1.0,0.0));
#408=VECTOR('',#407,1.0);
#409=LINE('',#406,#408);
#410=EDGE_CURVE('',#405,#395,#409,.T.);
#411=ORIENTED_EDGE('',*,*,#410,.F.);
#412=CARTESIAN_POINT('',(1.720846E-015,-6.397300920000006,-2.25));
#413=VERTEX_POINT('',#412);
#414=CARTESIAN_POINT('',(-2.131628E-014,-6.397300920000006,-2.25));
#415=DIRECTION('',(1.0,0.0,0.0));
#416=VECTOR('',#415,0.539999999999999);
#417=LINE('',#414,#416);
#418=EDGE_CURVE('',#413,#405,#417,.T.);
#419=ORIENTED_EDGE('',*,*,#418,.F.);
#420=CARTESIAN_POINT('',(1.806973E-015,-5.397300920000006,-2.25));
#421=DIRECTION('',(0.0,-1.0,0.0));
#422=VECTOR('',#421,1.0);
#423=LINE('',#420,#422);
#424=EDGE_CURVE('',#397,#413,#423,.T.);
#425=ORIENTED_EDGE('',*,*,#424,.F.);
#426=EDGE_LOOP('',(#403,#411,#419,#425));
#427=FACE_OUTER_BOUND('',#426,.T.);
#428=ADVANCED_FACE('',(#427),#393,.F.);
#429=CARTESIAN_POINT('',(0.540000000000001,-6.397300920000006,0.0));
#430=CARTESIAN_POINT('',(0.540000000000001,-6.397300920000006,-2.25));
#431=CARTESIAN_POINT('',(-2.486900E-014,-6.397300920000006,0.0));
#432=CARTESIAN_POINT('',(-2.486900E-014,-6.397300920000006,-2.25));
#433=B_SPLINE_SURFACE_WITH_KNOTS('',1,1,((#429,#431),(#430,#432)),.UNSPECIFIED.,.F.,.F.,.U.,(2,2),(2,2),(0.0,2.25),(0.0,0.540000000000026),.UNSPECIFIED.);
#434=CARTESIAN_POINT('',(0.540000000000001,-6.397300920000006,0.0));
#435=DIRECTION('',(0.0,0.0,-1.0));
#436=VECTOR('',#435,2.25);
#437=LINE('',#434,#436);
#438=EDGE_CURVE('',#373,#405,#437,.T.);
#439=ORIENTED_EDGE('',*,*,#438,.F.);
#440=ORIENTED_EDGE('',*,*,#378,.F.);
#441=CARTESIAN_POINT('',(1.720846E-015,-6.397300920000006,0.0));
#442=DIRECTION('',(0.0,0.0,-1.0));
#443=VECTOR('',#442,2.25);
#444=LINE('',#441,#443);
#445=EDGE_CURVE('',#365,#413,#444,.T.);
#446=ORIENTED_EDGE('',*,*,#445,.T.);
#447=ORIENTED_EDGE('',*,*,#418,.T.);
#448=EDGE_LOOP('',(#439,#440,#446,#447));
#449=FACE_OUTER_BOUND('',#448,.T.);
#450=ADVANCED_FACE('',(#449),#433,.F.);
#451=CARTESIAN_POINT('',(0.540000000000001,-5.397300920000006,-2.25));
#452=CARTESIAN_POINT('',(0.540000000000001,-5.397300920000006,0.0));
#453=CARTESIAN_POINT('',(-2.131628E-014,-5.397300920000006,-2.25));
#454=CARTESIAN_POINT('',(-2.131628E-014,-5.397300920000006,0.0));
#455=B_SPLINE_SURFACE_WITH_KNOTS('',1,1,((#451,#453),(#452,#454)),.UNSPECIFIED.,.F.,.F.,.U.,(2,2),(2,2),(0.0,2.25),(0.0,0.540000000000022),.UNSPECIFIED.);
#456=CARTESIAN_POINT('',(1.831868E-015,-5.397300920000006,0.0));
#457=VERTEX_POINT('',#456);
#458=CARTESIAN_POINT('',(1.831868E-015,-5.397300920000006,0.0));
#459=DIRECTION('',(0.0,0.0,-1.0));
#460=VECTOR('',#459,2.25);
#461=LINE('',#458,#460);
#462=EDGE_CURVE('',#457,#397,#461,.T.);
#463=ORIENTED_EDGE('',*,*,#462,.F.);
#464=CARTESIAN_POINT('',(0.540000000000001,-5.397300920000006,0.0));
#465=VERTEX_POINT('',#464);
#466=CARTESIAN_POINT('',(0.539999999999978,-5.397300920000006,0.0));
#467=DIRECTION('',(-1.0,0.0,0.0));
#468=VECTOR('',#467,0.539999999999999);
#469=LINE('',#466,#468);
#470=EDGE_CURVE('',#465,#457,#469,.T.);
#471=ORIENTED_EDGE('',*,*,#470,.F.);
#472=CARTESIAN_POINT('',(0.540000000000001,-5.397300920000006,0.0));
#473=DIRECTION('',(0.0,0.0,-1.0));
#474=VECTOR('',#473,2.25);
#475=LINE('',#472,#474);
#476=EDGE_CURVE('',#465,#395,#475,.T.);
#477=ORIENTED_EDGE('',*,*,#476,.T.);
#478=ORIENTED_EDGE('',*,*,#402,.T.);
#479=EDGE_LOOP('',(#463,#471,#477,#478));
#480=FACE_OUTER_BOUND('',#479,.T.);
#481=ADVANCED_FACE('',(#480),#455,.F.);
#482=CARTESIAN_POINT('',(38.249999999999993,-3.180121764422943,0.0));
#483=DIRECTION('',(0.0,0.0,1.0));
#484=DIRECTION('',(1.0,0.0,0.0));
#485=AXIS2_PLACEMENT_3D('',#482,#483,#484);
#486=PLANE('',#485);
#487=ORIENTED_EDGE('',*,*,#470,.T.);
#488=CARTESIAN_POINT('',(5.551115E-017,-1.040000000000006,0.0));
#489=VERTEX_POINT('',#488);
#490=CARTESIAN_POINT('',(5.551115E-017,-1.040000000000006,0.0));
#491=DIRECTION('',(0.0,-1.0,0.0));
#492=VECTOR('',#491,4.357300919999999);
#493=LINE('',#490,#492);
#494=EDGE_CURVE('',#489,#457,#493,.T.);
#495=ORIENTED_EDGE('',*,*,#494,.F.);
#496=CARTESIAN_POINT('',(1.04,0.0,0.0));
#497=VERTEX_POINT('',#496);
#498=CARTESIAN_POINT('',(1.040000000000003,-1.040000000000006,0.0));
#499=DIRECTION('',(0.0,0.0,1.0));
#500=DIRECTION('',(-0.70710678118655,0.707106781186545,0.0));
#501=AXIS2_PLACEMENT_3D('',#498,#499,#500);
#502=CIRCLE('',#501,1.040000000000003);
#503=EDGE_CURVE('',#497,#489,#502,.T.);
#504=ORIENTED_EDGE('',*,*,#503,.F.);
#505=CARTESIAN_POINT('',(5.397300920000001,-7.105427E-015,0.0));
#506=VERTEX_POINT('',#505);
#507=CARTESIAN_POINT('',(5.397300920000006,0.0,0.0));
#508=DIRECTION('',(-1.0,0.0,0.0));
#509=VECTOR('',#508,4.35730092);
#510=LINE('',#507,#509);
#511=EDGE_CURVE('',#506,#497,#510,.T.);
#512=ORIENTED_EDGE('',*,*,#511,.F.);
#513=CARTESIAN_POINT('',(5.39730092,1.776357E-014,0.0));
#514=DIRECTION('',(0.0,-1.0,0.0));
#515=VECTOR('',#514,0.539999999999999);
#516=LINE('',#513,#515);
#517=EDGE_CURVE('',#506,#159,#516,.T.);
#518=ORIENTED_EDGE('',*,*,#517,.T.);
#519=ORIENTED_EDGE('',*,*,#164,.F.);
#520=CARTESIAN_POINT('',(0.540000000000001,-1.040000000000006,0.0));
#521=VERTEX_POINT('',#520);
#522=CARTESIAN_POINT('',(1.040000000000001,-1.040000000000006,0.0));
#523=DIRECTION('',(0.0,0.0,-1.0));
#524=DIRECTION('',(-0.707106781186548,0.707106781186547,0.0));
#525=AXIS2_PLACEMENT_3D('',#522,#523,#524);
#526=CIRCLE('',#525,0.5);
#527=EDGE_CURVE('',#521,#151,#526,.T.);
#528=ORIENTED_EDGE('',*,*,#527,.F.);
#529=CARTESIAN_POINT('',(0.540000000000001,-5.397300920000006,0.0));
#530=DIRECTION('',(0.0,1.0,0.0));
#531=VECTOR('',#530,4.35730092);
#532=LINE('',#529,#531);
#533=EDGE_CURVE('',#465,#521,#532,.T.);
#534=ORIENTED_EDGE('',*,*,#533,.F.);
#535=EDGE_LOOP('',(#487,#495,#504,#512,#518,#519,#528,#534));
#536=FACE_OUTER_BOUND('',#535,.T.);
#537=ADVANCED_FACE('',(#536),#486,.F.);
#538=CARTESIAN_POINT('',(5.397300920000001,-0.540000000000006,-2.25));
#539=CARTESIAN_POINT('',(6.397300920000001,-0.540000000000006,-2.25));
#540=CARTESIAN_POINT('',(5.397300920000001,1.776357E-014,-2.25));
#541=CARTESIAN_POINT('',(6.397300920000001,1.776357E-014,-2.25));
#542=B_SPLINE_SURFACE_WITH_KNOTS('',1,1,((#538,#540),(#539,#541)),.UNSPECIFIED.,.F.,.F.,.U.,(2,2),(2,2),(0.0,1.0),(0.0,0.540000000000024),.UNSPECIFIED.);
#543=CARTESIAN_POINT('',(6.397300920000001,-7.105427E-015,-2.25));
#544=VERTEX_POINT('',#543);
#545=CARTESIAN_POINT('',(6.397300920000001,-0.539999999999981,-2.25));
#546=DIRECTION('',(0.0,1.0,0.0));
#547=VECTOR('',#546,0.539999999999999);
#548=LINE('',#545,#547);
#549=EDGE_CURVE('',#175,#544,#548,.T.);
#550=ORIENTED_EDGE('',*,*,#549,.F.);
#551=ORIENTED_EDGE('',*,*,#180,.F.);
#552=CARTESIAN_POINT('',(5.397300920000001,-7.105427E-015,-2.25));
#553=VERTEX_POINT('',#552);
#554=CARTESIAN_POINT('',(5.397300920000001,1.776357E-014,-2.25));
#555=DIRECTION('',(0.0,-1.0,0.0));
#556=VECTOR('',#555,0.539999999999999);
#557=LINE('',#554,#556);
#558=EDGE_CURVE('',#553,#167,#557,.T.);
#559=ORIENTED_EDGE('',*,*,#558,.F.);
#560=CARTESIAN_POINT('',(6.397300920000001,-7.105427E-015,-2.25));
#561=DIRECTION('',(-1.0,0.0,0.0));
#562=VECTOR('',#561,1.0);
#563=LINE('',#560,#562);
#564=EDGE_CURVE('',#544,#553,#563,.T.);
#565=ORIENTED_EDGE('',*,*,#564,.F.);
#566=EDGE_LOOP('',(#550,#551,#559,#565));
#567=FACE_OUTER_BOUND('',#566,.T.);
#568=ADVANCED_FACE('',(#567),#542,.F.);
#569=CARTESIAN_POINT('',(5.397300920000001,-0.540000000000006,0.0));
#570=CARTESIAN_POINT('',(5.397300920000001,-0.540000000000006,-2.25));
#571=CARTESIAN_POINT('',(5.397300920000001,1.776357E-014,0.0));
#572=CARTESIAN_POINT('',(5.397300920000001,1.776357E-014,-2.25));
#573=B_SPLINE_SURFACE_WITH_KNOTS('',1,1,((#569,#571),(#570,#572)),.UNSPECIFIED.,.F.,.F.,.U.,(2,2),(2,2),(0.0,2.25),(0.0,0.540000000000024),.UNSPECIFIED.);
#574=ORIENTED_EDGE('',*,*,#172,.F.);
#575=ORIENTED_EDGE('',*,*,#517,.F.);
#576=CARTESIAN_POINT('',(5.397300920000001,-7.105427E-015,0.0));
#577=DIRECTION('',(0.0,0.0,-1.0));
#578=VECTOR('',#577,2.25);
#579=LINE('',#576,#578);
#580=EDGE_CURVE('',#506,#553,#579,.T.);
#581=ORIENTED_EDGE('',*,*,#580,.T.);
#582=ORIENTED_EDGE('',*,*,#558,.T.);
#583=EDGE_LOOP('',(#574,#575,#581,#582));
#584=FACE_OUTER_BOUND('',#583,.T.);
#585=ADVANCED_FACE('',(#584),#573,.F.);
#586=CARTESIAN_POINT('',(6.397300920000001,-0.540000000000006,-2.25));
#587=CARTESIAN_POINT('',(6.397300920000001,-0.540000000000006,0.0));
#588=CARTESIAN_POINT('',(6.397300920000001,1.776357E-014,-2.25));
#589=CARTESIAN_POINT('',(6.397300920000001,1.776357E-014,0.0));
#590=B_SPLINE_SURFACE_WITH_KNOTS('',1,1,((#586,#588),(#587,#589)),.UNSPECIFIED.,.F.,.F.,.U.,(2,2),(2,2),(0.0,2.25),(0.0,0.540000000000024),.UNSPECIFIED.);
#591=CARTESIAN_POINT('',(6.397300920000001,-7.105427E-015,0.0));
#592=VERTEX_POINT('',#591);
#593=CARTESIAN_POINT('',(6.397300920000001,-7.105427E-015,0.0));
#594=DIRECTION('',(0.0,0.0,-1.0));
#595=VECTOR('',#594,2.25);
#596=LINE('',#593,#595);
#597=EDGE_CURVE('',#592,#544,#596,.T.);
#598=ORIENTED_EDGE('',*,*,#597,.F.);
#599=CARTESIAN_POINT('',(6.39730092,-0.539999999999981,0.0));
#600=DIRECTION('',(0.0,1.0,0.0));
#601=VECTOR('',#600,0.539999999999999);
#602=LINE('',#599,#601);
#603=EDGE_CURVE('',#183,#592,#602,.T.);
#604=ORIENTED_EDGE('',*,*,#603,.F.);
#605=ORIENTED_EDGE('',*,*,#188,.T.);
#606=ORIENTED_EDGE('',*,*,#549,.T.);
#607=EDGE_LOOP('',(#598,#604,#605,#606));
#608=FACE_OUTER_BOUND('',#607,.T.);
#609=ADVANCED_FACE('',(#608),#590,.F.);
#610=CARTESIAN_POINT('',(38.249999999999993,-8.180121764422935,0.0));
#611=DIRECTION('',(0.0,0.0,1.0));
#612=DIRECTION('',(1.0,0.0,0.0));
#613=AXIS2_PLACEMENT_3D('',#610,#611,#612);
#614=PLANE('',#613);
#615=ORIENTED_EDGE('',*,*,#315,.T.);
#616=CARTESIAN_POINT('',(0.540000000000001,-23.0,0.0));
#617=VERTEX_POINT('',#616);
#618=CARTESIAN_POINT('',(0.540000000000001,-23.0,0.0));
#619=DIRECTION('',(0.0,1.0,0.0));
#620=VECTOR('',#619,6.102699079999994);
#621=LINE('',#618,#620);
#622=EDGE_CURVE('',#617,#302,#621,.T.);
#623=ORIENTED_EDGE('',*,*,#622,.F.);
#624=CARTESIAN_POINT('',(9.436896E-016,-23.0,0.0));
#625=VERTEX_POINT('',#624);
#626=CARTESIAN_POINT('',(9.436896E-016,-23.0,0.0));
#627=DIRECTION('',(1.0,0.0,0.0));
#628=VECTOR('',#627,0.54);
#629=LINE('',#626,#628);
#630=EDGE_CURVE('',#625,#617,#629,.T.);
#631=ORIENTED_EDGE('',*,*,#630,.F.);
#632=CARTESIAN_POINT('',(6.240973E-016,-16.897300920000006,0.0));
#633=DIRECTION('',(0.0,-1.0,0.0));
#634=VECTOR('',#633,6.102699079999994);
#635=LINE('',#632,#634);
#636=EDGE_CURVE('',#310,#625,#635,.T.);
#637=ORIENTED_EDGE('',*,*,#636,.F.);
#638=EDGE_LOOP('',(#615,#623,#631,#637));
#639=FACE_OUTER_BOUND('',#638,.T.);
#640=ADVANCED_FACE('',(#639),#614,.F.);
#641=CARTESIAN_POINT('',(15.897300919999999,-0.540000000000006,-2.25));
#642=CARTESIAN_POINT('',(16.897300919999999,-0.540000000000006,-2.25));
#643=CARTESIAN_POINT('',(15.897300919999999,1.820766E-014,-2.25));
#644=CARTESIAN_POINT('',(16.897300919999999,1.820766E-014,-2.25));
#645=B_SPLINE_SURFACE_WITH_KNOTS('',1,1,((#641,#643),(#642,#644)),.UNSPECIFIED.,.F.,.F.,.U.,(2,2),(2,2),(0.0,1.0),(0.0,0.540000000000024),.UNSPECIFIED.);
#646=CARTESIAN_POINT('',(16.897300919999999,-6.883383E-015,-2.25));
#647=VERTEX_POINT('',#646);
#648=CARTESIAN_POINT('',(16.897300919999999,-0.539999999999981,-2.25));
#649=DIRECTION('',(0.0,1.0,0.0));
#650=VECTOR('',#649,0.539999999999999);
#651=LINE('',#648,#650);
#652=EDGE_CURVE('',#207,#647,#651,.T.);
#653=ORIENTED_EDGE('',*,*,#652,.F.);
#654=ORIENTED_EDGE('',*,*,#212,.F.);
#655=CARTESIAN_POINT('',(15.897300919999999,-6.883383E-015,-2.25));
#656=VERTEX_POINT('',#655);
#657=CARTESIAN_POINT('',(15.897300919999999,1.820766E-014,-2.25));
#658=DIRECTION('',(0.0,-1.0,0.0));
#659=VECTOR('',#658,0.539999999999999);
#660=LINE('',#657,#659);
#661=EDGE_CURVE('',#656,#199,#660,.T.);
#662=ORIENTED_EDGE('',*,*,#661,.F.);
#663=CARTESIAN_POINT('',(16.897300919999999,-6.883383E-015,-2.25));
#664=DIRECTION('',(-1.0,0.0,0.0));
#665=VECTOR('',#664,1.0);
#666=LINE('',#663,#665);
#667=EDGE_CURVE('',#647,#656,#666,.T.);
#668=ORIENTED_EDGE('',*,*,#667,.F.);
#669=EDGE_LOOP('',(#653,#654,#662,#668));
#670=FACE_OUTER_BOUND('',#669,.T.);
#671=ADVANCED_FACE('',(#670),#645,.F.);
#672=CARTESIAN_POINT('',(15.897300919999999,-0.540000000000006,0.0));
#673=CARTESIAN_POINT('',(15.897300919999999,-0.540000000000006,-2.25));
#674=CARTESIAN_POINT('',(15.897300919999999,1.820766E-014,0.0));
#675=CARTESIAN_POINT('',(15.897300919999999,1.820766E-014,-2.25));
#676=B_SPLINE_SURFACE_WITH_KNOTS('',1,1,((#672,#674),(#673,#675)),.UNSPECIFIED.,.F.,.F.,.U.,(2,2),(2,2),(0.0,2.25),(0.0,0.540000000000024),.UNSPECIFIED.);
#677=ORIENTED_EDGE('',*,*,#204,.F.);
#678=CARTESIAN_POINT('',(15.897300919999999,-6.883383E-015,0.0));
#679=VERTEX_POINT('',#678);
#680=CARTESIAN_POINT('',(15.897300920000003,1.820766E-014,0.0));
#681=DIRECTION('',(0.0,-1.0,0.0));
#682=VECTOR('',#681,0.539999999999999);
#683=LINE('',#680,#682);
#684=EDGE_CURVE('',#679,#191,#683,.T.);
#685=ORIENTED_EDGE('',*,*,#684,.F.);
#686=CARTESIAN_POINT('',(15.897300919999999,-6.883383E-015,0.0));
#687=DIRECTION('',(0.0,0.0,-1.0));
#688=VECTOR('',#687,2.25);
#689=LINE('',#686,#688);
#690=EDGE_CURVE('',#679,#656,#689,.T.);
#691=ORIENTED_EDGE('',*,*,#690,.T.);
#692=ORIENTED_EDGE('',*,*,#661,.T.);
#693=EDGE_LOOP('',(#677,#685,#691,#692));
#694=FACE_OUTER_BOUND('',#693,.T.);
#695=ADVANCED_FACE('',(#694),#676,.F.);
#696=CARTESIAN_POINT('',(16.897300919999999,-0.540000000000006,-2.25));
#697=CARTESIAN_POINT('',(16.897300919999999,-0.540000000000006,0.0));
#698=CARTESIAN_POINT('',(16.897300919999999,1.820766E-014,-2.25));
#699=CARTESIAN_POINT('',(16.897300919999999,1.820766E-014,0.0));
#700=B_SPLINE_SURFACE_WITH_KNOTS('',1,1,((#696,#698),(#697,#699)),.UNSPECIFIED.,.F.,.F.,.U.,(2,2),(2,2),(0.0,2.25),(0.0,0.540000000000024),.UNSPECIFIED.);
#701=CARTESIAN_POINT('',(16.897300919999999,-6.883383E-015,0.0));
#702=VERTEX_POINT('',#701);
#703=CARTESIAN_POINT('',(16.897300919999999,-6.883383E-015,0.0));
#704=DIRECTION('',(0.0,0.0,-1.0));
#705=VECTOR('',#704,2.25);
#706=LINE('',#703,#705);
#707=EDGE_CURVE('',#702,#647,#706,.T.);
#708=ORIENTED_EDGE('',*,*,#707,.F.);
#709=CARTESIAN_POINT('',(16.897300920000003,-0.539999999999981,0.0));
#710=DIRECTION('',(0.0,1.0,0.0));
#711=VECTOR('',#710,0.539999999999999);
#712=LINE('',#709,#711);
#713=EDGE_CURVE('',#215,#702,#712,.T.);
#714=ORIENTED_EDGE('',*,*,#713,.F.);
#715=ORIENTED_EDGE('',*,*,#220,.T.);
#716=ORIENTED_EDGE('',*,*,#652,.T.);
#717=EDGE_LOOP('',(#708,#714,#715,#716));
#718=FACE_OUTER_BOUND('',#717,.T.);
#719=ADVANCED_FACE('',(#718),#700,.F.);
#720=CARTESIAN_POINT('',(38.249999999999993,-3.180121764422943,0.0));
#721=DIRECTION('',(0.0,0.0,1.0));
#722=DIRECTION('',(1.0,0.0,0.0));
#723=AXIS2_PLACEMENT_3D('',#720,#721,#722);
#724=PLANE('',#723);
#725=ORIENTED_EDGE('',*,*,#603,.T.);
#726=CARTESIAN_POINT('',(15.897300919999999,0.0,0.0));
#727=DIRECTION('',(-1.0,0.0,0.0));
#728=VECTOR('',#727,9.499999999999993);
#729=LINE('',#726,#728);
#730=EDGE_CURVE('',#679,#592,#729,.T.);
#731=ORIENTED_EDGE('',*,*,#730,.F.);
#732=ORIENTED_EDGE('',*,*,#684,.T.);
#733=ORIENTED_EDGE('',*,*,#196,.F.);
#734=EDGE_LOOP('',(#725,#731,#732,#733));
#735=FACE_OUTER_BOUND('',#734,.T.);
#736=ADVANCED_FACE('',(#735),#724,.F.);
#737=CARTESIAN_POINT('',(26.397300920000003,-0.540000000000006,-2.25));
#738=CARTESIAN_POINT('',(27.397300920000003,-0.540000000000006,-2.25));
#739=CARTESIAN_POINT('',(26.397300920000003,1.776357E-014,-2.25));
#740=CARTESIAN_POINT('',(27.397300920000003,1.776357E-014,-2.25));
#741=B_SPLINE_SURFACE_WITH_KNOTS('',1,1,((#737,#739),(#738,#740)),.UNSPECIFIED.,.F.,.F.,.U.,(2,2),(2,2),(0.0,1.0),(0.0,0.540000000000024),.UNSPECIFIED.);
#742=CARTESIAN_POINT('',(27.397300920000003,-7.105427E-015,-2.25));
#743=VERTEX_POINT('',#742);
#744=CARTESIAN_POINT('',(27.397300920000003,-0.539999999999981,-2.25));
#745=DIRECTION('',(0.0,1.0,0.0));
#746=VECTOR('',#745,0.539999999999999);
#747=LINE('',#744,#746);
#748=EDGE_CURVE('',#239,#743,#747,.T.);
#749=ORIENTED_EDGE('',*,*,#748,.F.);
#750=ORIENTED_EDGE('',*,*,#244,.F.);
#751=CARTESIAN_POINT('',(26.397300920000003,-7.105427E-015,-2.25));
#752=VERTEX_POINT('',#751);
#753=CARTESIAN_POINT('',(26.397300920000003,1.776357E-014,-2.25));
#754=DIRECTION('',(0.0,-1.0,0.0));
#755=VECTOR('',#754,0.539999999999999);
#756=LINE('',#753,#755);
#757=EDGE_CURVE('',#752,#231,#756,.T.);
#758=ORIENTED_EDGE('',*,*,#757,.F.);
#759=CARTESIAN_POINT('',(27.397300920000003,-7.105427E-015,-2.25));
#760=DIRECTION('',(-1.0,0.0,0.0));
#761=VECTOR('',#760,1.0);
#762=LINE('',#759,#761);
#763=EDGE_CURVE('',#743,#752,#762,.T.);
#764=ORIENTED_EDGE('',*,*,#763,.F.);
#765=EDGE_LOOP('',(#749,#750,#758,#764));
#766=FACE_OUTER_BOUND('',#765,.T.);
#767=ADVANCED_FACE('',(#766),#741,.F.);
#768=CARTESIAN_POINT('',(26.397300920000003,-0.540000000000006,0.0));
#769=CARTESIAN_POINT('',(26.397300920000003,-0.540000000000006,-2.25));
#770=CARTESIAN_POINT('',(26.397300920000003,1.776357E-014,0.0));
#771=CARTESIAN_POINT('',(26.397300920000003,1.776357E-014,-2.25));
#772=B_SPLINE_SURFACE_WITH_KNOTS('',1,1,((#768,#770),(#769,#771)),.UNSPECIFIED.,.F.,.F.,.U.,(2,2),(2,2),(0.0,2.25),(0.0,0.540000000000024),.UNSPECIFIED.);
#773=ORIENTED_EDGE('',*,*,#236,.F.);
#774=CARTESIAN_POINT('',(26.397300920000003,-7.105427E-015,0.0));
#775=VERTEX_POINT('',#774);
#776=CARTESIAN_POINT('',(26.397300920000006,1.776357E-014,0.0));
#777=DIRECTION('',(0.0,-1.0,0.0));
#778=VECTOR('',#777,0.539999999999999);
#779=LINE('',#776,#778);
#780=EDGE_CURVE('',#775,#223,#779,.T.);
#781=ORIENTED_EDGE('',*,*,#780,.F.);
#782=CARTESIAN_POINT('',(26.397300920000003,-7.105427E-015,0.0));
#783=DIRECTION('',(0.0,0.0,-1.0));
#784=VECTOR('',#783,2.25);
#785=LINE('',#782,#784);
#786=EDGE_CURVE('',#775,#752,#785,.T.);
#787=ORIENTED_EDGE('',*,*,#786,.T.);
#788=ORIENTED_EDGE('',*,*,#757,.T.);
#789=EDGE_LOOP('',(#773,#781,#787,#788));
#790=FACE_OUTER_BOUND('',#789,.T.);
#791=ADVANCED_FACE('',(#790),#772,.F.);
#792=CARTESIAN_POINT('',(27.397300920000003,-0.540000000000006,-2.25));
#793=CARTESIAN_POINT('',(27.397300920000003,-0.540000000000006,0.0));
#794=CARTESIAN_POINT('',(27.397300920000003,1.776357E-014,-2.25));
#795=CARTESIAN_POINT('',(27.397300920000003,1.776357E-014,0.0));
#796=B_SPLINE_SURFACE_WITH_KNOTS('',1,1,((#792,#794),(#793,#795)),.UNSPECIFIED.,.F.,.F.,.U.,(2,2),(2,2),(0.0,2.25),(0.0,0.540000000000024),.UNSPECIFIED.);
#797=CARTESIAN_POINT('',(27.397300920000003,-7.105427E-015,0.0));
#798=DIRECTION('',(0.0,0.0,-1.0));
#799=VECTOR('',#798,2.25);
#800=LINE('',#797,#799);
#801=EDGE_CURVE('',#120,#743,#800,.T.);
#802=ORIENTED_EDGE('',*,*,#801,.F.);
#803=ORIENTED_EDGE('',*,*,#125,.F.);
#804=ORIENTED_EDGE('',*,*,#250,.T.);
#805=ORIENTED_EDGE('',*,*,#748,.T.);
#806=EDGE_LOOP('',(#802,#803,#804,#805));
#807=FACE_OUTER_BOUND('',#806,.T.);
#808=ADVANCED_FACE('',(#807),#796,.F.);
#809=CARTESIAN_POINT('',(38.249999999999993,-3.180121764422943,0.0));
#810=DIRECTION('',(0.0,0.0,1.0));
#811=DIRECTION('',(1.0,0.0,0.0));
#812=AXIS2_PLACEMENT_3D('',#809,#810,#811);
#813=PLANE('',#812);
#814=ORIENTED_EDGE('',*,*,#713,.T.);
#815=CARTESIAN_POINT('',(26.397300920000006,0.0,0.0));
#816=DIRECTION('',(-1.0,0.0,0.0));
#817=VECTOR('',#816,9.500000000000007);
#818=LINE('',#815,#817);
#819=EDGE_CURVE('',#775,#702,#818,.T.);
#820=ORIENTED_EDGE('',*,*,#819,.F.);
#821=ORIENTED_EDGE('',*,*,#780,.T.);
#822=ORIENTED_EDGE('',*,*,#228,.F.);
#823=EDGE_LOOP('',(#814,#820,#821,#822));
#824=FACE_OUTER_BOUND('',#823,.T.);
#825=ADVANCED_FACE('',(#824),#813,.F.);
#826=CARTESIAN_POINT('',(1.040000000000001,-1.040000000000006,0.0));
#827=DIRECTION('',(0.0,0.0,1.0));
#828=DIRECTION('',(-0.707106781186548,0.707106781186547,0.0));
#829=AXIS2_PLACEMENT_3D('',#826,#827,#828);
#830=CYLINDRICAL_SURFACE('',#829,0.5);
#831=CARTESIAN_POINT('',(0.540000000000001,-1.040000000000006,10.000000000000002));
#832=VERTEX_POINT('',#831);
#833=CARTESIAN_POINT('',(1.040000000000001,-1.040000000000006,10.000000000000002));
#834=DIRECTION('',(0.0,0.0,1.0));
#835=DIRECTION('',(-0.707106781186548,0.707106781186547,0.0));
#836=AXIS2_PLACEMENT_3D('',#833,#834,#835);
#837=CIRCLE('',#836,0.5);
#838=EDGE_CURVE('',#143,#832,#837,.T.);
#839=ORIENTED_EDGE('',*,*,#838,.T.);
#840=CARTESIAN_POINT('',(0.540000000000001,-1.040000000000006,0.0));
#841=DIRECTION('',(0.0,0.0,1.0));
#842=VECTOR('',#841,10.000000000000002);
#843=LINE('',#840,#842);
#844=EDGE_CURVE('',#521,#832,#843,.T.);
#845=ORIENTED_EDGE('',*,*,#844,.F.);
#846=ORIENTED_EDGE('',*,*,#527,.T.);
#847=ORIENTED_EDGE('',*,*,#156,.T.);
#848=EDGE_LOOP('',(#839,#845,#846,#847));
#849=FACE_OUTER_BOUND('',#848,.T.);
#850=ADVANCED_FACE('',(#849),#830,.F.);
#851=CARTESIAN_POINT('',(0.540000000000001,-1.040000000000006,0.0));
#852=DIRECTION('',(1.0,0.0,0.0));
#853=DIRECTION('',(0.0,0.0,-1.0));
#854=AXIS2_PLACEMENT_3D('',#851,#852,#853);
#855=PLANE('',#854);
#856=CARTESIAN_POINT('',(0.540000000000001,-23.0,10.000000000000002));
#857=VERTEX_POINT('',#856);
#858=CARTESIAN_POINT('',(0.540000000000001,-1.040000000000006,10.000000000000002));
#859=DIRECTION('',(0.0,-1.0,0.0));
#860=VECTOR('',#859,21.959999999999994);
#861=LINE('',#858,#860);
#862=EDGE_CURVE('',#832,#857,#861,.T.);
#863=ORIENTED_EDGE('',*,*,#862,.T.);
#864=CARTESIAN_POINT('',(0.540000000000001,-23.0,0.0));
#865=DIRECTION('',(0.0,0.0,1.0));
#866=VECTOR('',#865,10.000000000000002);
#867=LINE('',#864,#866);
#868=EDGE_CURVE('',#617,#857,#867,.T.);
#869=ORIENTED_EDGE('',*,*,#868,.F.);
#870=ORIENTED_EDGE('',*,*,#622,.T.);
#871=ORIENTED_EDGE('',*,*,#307,.T.);
#872=ORIENTED_EDGE('',*,*,#277,.T.);
#873=ORIENTED_EDGE('',*,*,#352,.F.);
#874=ORIENTED_EDGE('',*,*,#384,.T.);
#875=ORIENTED_EDGE('',*,*,#438,.T.);
#876=ORIENTED_EDGE('',*,*,#410,.T.);
#877=ORIENTED_EDGE('',*,*,#476,.F.);
#878=ORIENTED_EDGE('',*,*,#533,.T.);
#879=ORIENTED_EDGE('',*,*,#844,.T.);
#880=EDGE_LOOP('',(#863,#869,#870,#871,#872,#873,#874,#875,#876,#877,#878,#879));
#881=FACE_OUTER_BOUND('',#880,.T.);
#882=ADVANCED_FACE('',(#881),#855,.T.);
#883=CARTESIAN_POINT('',(0.540000000000001,-23.0,-14.999999999999998));
#884=DIRECTION('',(0.0,-1.0,0.0));
#885=DIRECTION('',(0.0,0.0,-1.0));
#886=AXIS2_PLACEMENT_3D('',#883,#884,#885);
#887=PLANE('',#886);
#888=CARTESIAN_POINT('',(9.436896E-016,-23.0,10.000000000000002));
#889=VERTEX_POINT('',#888);
#890=CARTESIAN_POINT('',(0.540000000000001,-23.0,10.000000000000002));
#891=DIRECTION('',(-1.0,0.0,0.0));
#892=VECTOR('',#891,0.54);
#893=LINE('',#890,#892);
#894=EDGE_CURVE('',#857,#889,#893,.T.);
#895=ORIENTED_EDGE('',*,*,#894,.T.);
#896=CARTESIAN_POINT('',(9.436896E-016,-23.0,0.0));
#897=DIRECTION('',(0.0,0.0,1.0));
#898=VECTOR('',#897,10.000000000000002);
#899=LINE('',#896,#898);
#900=EDGE_CURVE('',#625,#889,#899,.T.);
#901=ORIENTED_EDGE('',*,*,#900,.F.);
#902=ORIENTED_EDGE('',*,*,#630,.T.);
#903=ORIENTED_EDGE('',*,*,#868,.T.);
#904=EDGE_LOOP('',(#895,#901,#902,#903));
#905=FACE_OUTER_BOUND('',#904,.T.);
#906=ADVANCED_FACE('',(#905),#887,.T.);
#907=CARTESIAN_POINT('',(9.436896E-016,-18.000000000000007,0.0));
#908=DIRECTION('',(-1.0,0.0,0.0));
#909=DIRECTION('',(0.0,0.0,1.0));
#910=AXIS2_PLACEMENT_3D('',#907,#908,#909);
#911=PLANE('',#910);
#912=CARTESIAN_POINT('',(5.551115E-017,-1.040000000000006,10.000000000000002));
#913=VERTEX_POINT('',#912);
#914=CARTESIAN_POINT('',(1.205535E-015,-23.0,10.000000000000002));
#915=DIRECTION('',(0.0,1.0,0.0));
#916=VECTOR('',#915,21.959999999999994);
#917=LINE('',#914,#916);
#918=EDGE_CURVE('',#889,#913,#917,.T.);
#919=ORIENTED_EDGE('',*,*,#918,.T.);
#920=CARTESIAN_POINT('',(5.551115E-017,-1.040000000000006,0.0));
#921=DIRECTION('',(0.0,0.0,1.0));
#922=VECTOR('',#921,10.000000000000002);
#923=LINE('',#920,#922);
#924=EDGE_CURVE('',#489,#913,#923,.T.);
#925=ORIENTED_EDGE('',*,*,#924,.F.);
#926=ORIENTED_EDGE('',*,*,#494,.T.);
#927=ORIENTED_EDGE('',*,*,#462,.T.);
#928=ORIENTED_EDGE('',*,*,#424,.T.);
#929=ORIENTED_EDGE('',*,*,#445,.F.);
#930=ORIENTED_EDGE('',*,*,#370,.T.);
#931=ORIENTED_EDGE('',*,*,#338,.T.);
#932=ORIENTED_EDGE('',*,*,#291,.T.);
#933=ORIENTED_EDGE('',*,*,#321,.F.);
#934=ORIENTED_EDGE('',*,*,#636,.T.);
#935=ORIENTED_EDGE('',*,*,#900,.T.);
#936=EDGE_LOOP('',(#919,#925,#926,#927,#928,#929,#930,#931,#932,#933,#934,#935));
#937=FACE_OUTER_BOUND('',#936,.T.);
#938=ADVANCED_FACE('',(#937),#911,.T.);
#939=CARTESIAN_POINT('',(1.040000000000003,-1.040000000000006,0.0));
#940=DIRECTION('',(0.0,0.0,1.0));
#941=DIRECTION('',(-0.70710678118655,0.707106781186545,0.0));
#942=AXIS2_PLACEMENT_3D('',#939,#940,#941);
#943=CYLINDRICAL_SURFACE('',#942,1.040000000000003);
#944=CARTESIAN_POINT('',(1.04,0.0,10.000000000000002));
#945=VERTEX_POINT('',#944);
#946=CARTESIAN_POINT('',(1.040000000000003,-1.040000000000006,10.000000000000002));
#947=DIRECTION('',(0.0,0.0,-1.0));
#948=DIRECTION('',(-0.70710678118655,0.707106781186545,0.0));
#949=AXIS2_PLACEMENT_3D('',#946,#947,#948);
#950=CIRCLE('',#949,1.040000000000003);
#951=EDGE_CURVE('',#913,#945,#950,.T.);
#952=ORIENTED_EDGE('',*,*,#951,.T.);
#953=CARTESIAN_POINT('',(1.04,0.0,0.0));
#954=DIRECTION('',(0.0,0.0,1.0));
#955=VECTOR('',#954,10.000000000000002);
#956=LINE('',#953,#955);
#957=EDGE_CURVE('',#497,#945,#956,.T.);
#958=ORIENTED_EDGE('',*,*,#957,.F.);
#959=ORIENTED_EDGE('',*,*,#503,.T.);
#960=ORIENTED_EDGE('',*,*,#924,.T.);
#961=EDGE_LOOP('',(#952,#958,#959,#960));
#962=FACE_OUTER_BOUND('',#961,.T.);
#963=ADVANCED_FACE('',(#962),#943,.T.);
#964=CARTESIAN_POINT('',(38.249999999999993,-3.18012176442295,10.000000000000002));
#965=DIRECTION('',(0.0,0.0,1.0));
#966=DIRECTION('',(1.0,0.0,0.0));
#967=AXIS2_PLACEMENT_3D('',#964,#965,#966);
#968=PLANE('',#967);
#969=ORIENTED_EDGE('',*,*,#78,.T.);
#970=CARTESIAN_POINT('',(1.040000000000006,0.0,10.000000000000002));
#971=DIRECTION('',(1.0,0.0,0.0));
#972=VECTOR('',#971,27.359999999999985);
#973=LINE('',#970,#972);
#974=EDGE_CURVE('',#945,#73,#973,.T.);
#975=ORIENTED_EDGE('',*,*,#974,.F.);
#976=ORIENTED_EDGE('',*,*,#951,.F.);
#977=ORIENTED_EDGE('',*,*,#918,.F.);
#978=ORIENTED_EDGE('',*,*,#894,.F.);
#979=ORIENTED_EDGE('',*,*,#862,.F.);
#980=ORIENTED_EDGE('',*,*,#838,.F.);
#981=ORIENTED_EDGE('',*,*,#148,.F.);
#982=EDGE_LOOP('',(#969,#975,#976,#977,#978,#979,#980,#981));
#983=FACE_OUTER_BOUND('',#982,.T.);
#984=ADVANCED_FACE('',(#983),#968,.T.);
#985=CARTESIAN_POINT('',(28.399999999999991,-3.197442E-014,-2.25));
#986=CARTESIAN_POINT('',(28.399999999999991,-3.197442E-014,10.000000000000002));
#987=CARTESIAN_POINT('',(1.039999999999999,-3.197442E-014,-2.25));
#988=CARTESIAN_POINT('',(1.039999999999999,-3.197442E-014,10.000000000000002));
#989=B_SPLINE_SURFACE_WITH_KNOTS('',1,1,((#985,#987),(#986,#988)),.UNSPECIFIED.,.F.,.F.,.U.,(2,2),(2,2),(0.0,12.250000000000002),(0.0,27.359999999999992),.UNSPECIFIED.);
#990=ORIENTED_EDGE('',*,*,#100,.T.);
#991=ORIENTED_EDGE('',*,*,#131,.T.);
#992=ORIENTED_EDGE('',*,*,#801,.T.);
#993=ORIENTED_EDGE('',*,*,#763,.T.);
#994=ORIENTED_EDGE('',*,*,#786,.F.);
#995=ORIENTED_EDGE('',*,*,#819,.T.);
#996=ORIENTED_EDGE('',*,*,#707,.T.);
#997=ORIENTED_EDGE('',*,*,#667,.T.);
#998=ORIENTED_EDGE('',*,*,#690,.F.);
#999=ORIENTED_EDGE('',*,*,#730,.T.);
#1000=ORIENTED_EDGE('',*,*,#597,.T.);
#1001=ORIENTED_EDGE('',*,*,#564,.T.);
#1002=ORIENTED_EDGE('',*,*,#580,.F.);
#1003=ORIENTED_EDGE('',*,*,#511,.T.);
#1004=ORIENTED_EDGE('',*,*,#957,.T.);
#1005=ORIENTED_EDGE('',*,*,#974,.T.);
#1006=EDGE_LOOP('',(#990,#991,#992,#993,#994,#995,#996,#997,#998,#999,#1000,#1001,#1002,#1003,#1004,#1005));
#1007=FACE_OUTER_BOUND('',#1006,.T.);
#1008=ADVANCED_FACE('',(#1007),#989,.F.);
#1009=CLOSED_SHELL('',(#104,#135,#255,#295,#326,#357,#388,#428,#450,#481,#537,#568,#585,#609,#640,#671,#695,#719,#736,#767,#791,#808,#825,#850,#882,#906,#938,#963,#984,#1008));
#1010=MANIFOLD_SOLID_BREP('3984',#1009);
#1011=COLOUR_RGB('254',0.866,0.866,0.866);
#1012=SURFACE_STYLE_USAGE(.BOTH.,#1013);
#1013=SURFACE_SIDE_STYLE('NONE',(#1014));
#1014=SURFACE_STYLE_FILL_AREA(#1015);
#1015=FILL_AREA_STYLE('NONE',(#1016));
#1016=FILL_AREA_STYLE_COLOUR('NONE',#1011);
#1017=PRESENTATION_STYLE_ASSIGNMENT((#1012));
#1018=STYLED_ITEM('NONE',(#1017),#1010);
#1019=MECHANICAL_DESIGN_GEOMETRIC_PRESENTATION_REPRESENTATION('NONE',(#1018),#28);
#1020=PRESENTATION_LAYER_ASSIGNMENT('3D','None',(#1010));
#1021=ADVANCED_BREP_SHAPE_REPRESENTATION('ABSR1',(#1010),#28);
#1022=SHAPE_REPRESENTATION_RELATIONSHIP('SRRPL1','',#1021,#62);
ENDSEC;
END-ISO-10303-21;
