ISO-10303-21;
HEADER;
/* Generated by software containing ST-Developer
 * from STEP Tools, Inc. (www.steptools.com) 
 */

FILE_DESCRIPTION(
/* description */ (''),
/* implementation_level */ '2;1');

FILE_NAME(
/* name */ 'G:\\Applications\\Altium\\CernLib\\StepLib\\PWS_MYRRA_471x
x.stp',
/* time_stamp */ '2016-02-05T13:15:58+01:00',
/* author */ ('riccim'),
/* organization */ (''),
/* preprocessor_version */ 'ST-DEVELOPER v15.5',
/* originating_system */ 'AutoCAD Mechanical',
/* authorisation */ '');

FILE_SCHEMA (('AUTOMOTIVE_DESIGN { 1 0 10303 214 3 1 1 }'));
ENDSEC;

DATA;
#10=MECHANICAL_DESIGN_GEOMETRIC_PRESENTATION_REPRESENTATION('',(#41,#42,
#43,#44,#45),#371);
#11=DIMENSIONAL_EXPONENTS(0.,0.,0.,0.,0.,0.,0.);
#12=(
CONVERSION_BASED_UNIT('degree',#13)
NAMED_UNIT(#11)
PLANE_ANGLE_UNIT()
);
#13=PLANE_ANGLE_MEASURE_WITH_UNIT(PLANE_ANGLE_MEASURE(0.01745329252),#374);
#14=PRESENTATION_LAYER_ASSIGNMENT('3D','',(#215,#216,#217,#218,#219));
#15=LINE($,#345,#27);
#16=LINE($,#347,#28);
#17=LINE($,#349,#29);
#18=LINE($,#350,#30);
#19=LINE($,#353,#31);
#20=LINE($,#355,#32);
#21=LINE($,#356,#33);
#22=LINE($,#359,#34);
#23=LINE($,#361,#35);
#24=LINE($,#362,#36);
#25=LINE($,#364,#37);
#26=LINE($,#365,#38);
#27=VECTOR($,#291,27.2);
#28=VECTOR($,#292,22.3);
#29=VECTOR($,#293,27.2);
#30=VECTOR($,#294,22.3);
#31=VECTOR($,#297,32.2);
#32=VECTOR($,#298,32.2);
#33=VECTOR($,#299,22.3);
#34=VECTOR($,#302,27.2);
#35=VECTOR($,#303,27.2);
#36=VECTOR($,#304,22.3);
#37=VECTOR($,#307,32.2);
#38=VECTOR($,#308,32.2);
#39=SHAPE_REPRESENTATION_RELATIONSHIP('SRR','None',#377,#40);
#40=ADVANCED_BREP_SHAPE_REPRESENTATION($,(#215,#216,#217,#218,#219),#370);
#41=STYLED_ITEM($,(#387),#215);
#42=STYLED_ITEM($,(#387),#216);
#43=STYLED_ITEM($,(#387),#217);
#44=STYLED_ITEM($,(#387),#218);
#45=STYLED_ITEM($,(#388),#219);
#46=PLANE($,#224);
#47=PLANE($,#225);
#48=PLANE($,#229);
#49=PLANE($,#230);
#50=PLANE($,#234);
#51=PLANE($,#235);
#52=PLANE($,#239);
#53=PLANE($,#240);
#54=PLANE($,#241);
#55=PLANE($,#242);
#56=PLANE($,#243);
#57=PLANE($,#244);
#58=PLANE($,#245);
#59=PLANE($,#246);
#60=FACE_BOUND($,#83,.T.);
#61=FACE_BOUND($,#87,.T.);
#62=FACE_BOUND($,#91,.T.);
#63=FACE_BOUND($,#95,.T.);
#64=FACE_OUTER_BOUND($,#82,.T.);
#65=FACE_OUTER_BOUND($,#84,.T.);
#66=FACE_OUTER_BOUND($,#85,.T.);
#67=FACE_OUTER_BOUND($,#86,.T.);
#68=FACE_OUTER_BOUND($,#88,.T.);
#69=FACE_OUTER_BOUND($,#89,.T.);
#70=FACE_OUTER_BOUND($,#90,.T.);
#71=FACE_OUTER_BOUND($,#92,.T.);
#72=FACE_OUTER_BOUND($,#93,.T.);
#73=FACE_OUTER_BOUND($,#94,.T.);
#74=FACE_OUTER_BOUND($,#96,.T.);
#75=FACE_OUTER_BOUND($,#97,.T.);
#76=FACE_OUTER_BOUND($,#98,.T.);
#77=FACE_OUTER_BOUND($,#99,.T.);
#78=FACE_OUTER_BOUND($,#100,.T.);
#79=FACE_OUTER_BOUND($,#101,.T.);
#80=FACE_OUTER_BOUND($,#102,.T.);
#81=FACE_OUTER_BOUND($,#103,.T.);
#82=EDGE_LOOP($,(#148));
#83=EDGE_LOOP($,(#149));
#84=EDGE_LOOP($,(#150));
#85=EDGE_LOOP($,(#151));
#86=EDGE_LOOP($,(#152));
#87=EDGE_LOOP($,(#153));
#88=EDGE_LOOP($,(#154));
#89=EDGE_LOOP($,(#155));
#90=EDGE_LOOP($,(#156));
#91=EDGE_LOOP($,(#157));
#92=EDGE_LOOP($,(#158));
#93=EDGE_LOOP($,(#159));
#94=EDGE_LOOP($,(#160));
#95=EDGE_LOOP($,(#161));
#96=EDGE_LOOP($,(#162));
#97=EDGE_LOOP($,(#163));
#98=EDGE_LOOP($,(#164,#165,#166,#167));
#99=EDGE_LOOP($,(#168,#169,#170,#171));
#100=EDGE_LOOP($,(#172,#173,#174,#175));
#101=EDGE_LOOP($,(#176,#177,#178,#179));
#102=EDGE_LOOP($,(#180,#181,#182,#183));
#103=EDGE_LOOP($,(#184,#185,#186,#187));
#104=CIRCLE($,#222,0.4);
#105=CIRCLE($,#223,0.4);
#106=CIRCLE($,#227,0.4);
#107=CIRCLE($,#228,0.4);
#108=CIRCLE($,#232,0.4);
#109=CIRCLE($,#233,0.4);
#110=CIRCLE($,#237,0.4);
#111=CIRCLE($,#238,0.4);
#112=VERTEX_POINT($,#315);
#113=VERTEX_POINT($,#317);
#114=VERTEX_POINT($,#322);
#115=VERTEX_POINT($,#324);
#116=VERTEX_POINT($,#329);
#117=VERTEX_POINT($,#331);
#118=VERTEX_POINT($,#336);
#119=VERTEX_POINT($,#338);
#120=VERTEX_POINT($,#343);
#121=VERTEX_POINT($,#344);
#122=VERTEX_POINT($,#346);
#123=VERTEX_POINT($,#348);
#124=VERTEX_POINT($,#352);
#125=VERTEX_POINT($,#354);
#126=VERTEX_POINT($,#358);
#127=VERTEX_POINT($,#360);
#128=EDGE_CURVE($,#112,#112,#104,.T.);
#129=EDGE_CURVE($,#113,#113,#105,.T.);
#130=EDGE_CURVE($,#114,#114,#106,.T.);
#131=EDGE_CURVE($,#115,#115,#107,.T.);
#132=EDGE_CURVE($,#116,#116,#108,.T.);
#133=EDGE_CURVE($,#117,#117,#109,.T.);
#134=EDGE_CURVE($,#118,#118,#110,.T.);
#135=EDGE_CURVE($,#119,#119,#111,.T.);
#136=EDGE_CURVE($,#120,#121,#15,.T.);
#137=EDGE_CURVE($,#120,#122,#16,.T.);
#138=EDGE_CURVE($,#123,#122,#17,.T.);
#139=EDGE_CURVE($,#121,#123,#18,.T.);
#140=EDGE_CURVE($,#121,#124,#19,.T.);
#141=EDGE_CURVE($,#125,#123,#20,.T.);
#142=EDGE_CURVE($,#124,#125,#21,.T.);
#143=EDGE_CURVE($,#124,#126,#22,.T.);
#144=EDGE_CURVE($,#127,#125,#23,.T.);
#145=EDGE_CURVE($,#126,#127,#24,.T.);
#146=EDGE_CURVE($,#126,#120,#25,.T.);
#147=EDGE_CURVE($,#122,#127,#26,.T.);
#148=ORIENTED_EDGE($,*,*,#128,.F.);
#149=ORIENTED_EDGE($,*,*,#129,.T.);
#150=ORIENTED_EDGE($,*,*,#128,.T.);
#151=ORIENTED_EDGE($,*,*,#129,.F.);
#152=ORIENTED_EDGE($,*,*,#130,.F.);
#153=ORIENTED_EDGE($,*,*,#131,.T.);
#154=ORIENTED_EDGE($,*,*,#130,.T.);
#155=ORIENTED_EDGE($,*,*,#131,.F.);
#156=ORIENTED_EDGE($,*,*,#132,.F.);
#157=ORIENTED_EDGE($,*,*,#133,.T.);
#158=ORIENTED_EDGE($,*,*,#132,.T.);
#159=ORIENTED_EDGE($,*,*,#133,.F.);
#160=ORIENTED_EDGE($,*,*,#134,.F.);
#161=ORIENTED_EDGE($,*,*,#135,.T.);
#162=ORIENTED_EDGE($,*,*,#134,.T.);
#163=ORIENTED_EDGE($,*,*,#135,.F.);
#164=ORIENTED_EDGE($,*,*,#136,.F.);
#165=ORIENTED_EDGE($,*,*,#137,.T.);
#166=ORIENTED_EDGE($,*,*,#138,.F.);
#167=ORIENTED_EDGE($,*,*,#139,.F.);
#168=ORIENTED_EDGE($,*,*,#140,.F.);
#169=ORIENTED_EDGE($,*,*,#139,.T.);
#170=ORIENTED_EDGE($,*,*,#141,.F.);
#171=ORIENTED_EDGE($,*,*,#142,.F.);
#172=ORIENTED_EDGE($,*,*,#143,.F.);
#173=ORIENTED_EDGE($,*,*,#142,.T.);
#174=ORIENTED_EDGE($,*,*,#144,.F.);
#175=ORIENTED_EDGE($,*,*,#145,.F.);
#176=ORIENTED_EDGE($,*,*,#146,.F.);
#177=ORIENTED_EDGE($,*,*,#145,.T.);
#178=ORIENTED_EDGE($,*,*,#147,.F.);
#179=ORIENTED_EDGE($,*,*,#137,.F.);
#180=ORIENTED_EDGE($,*,*,#146,.T.);
#181=ORIENTED_EDGE($,*,*,#136,.T.);
#182=ORIENTED_EDGE($,*,*,#140,.T.);
#183=ORIENTED_EDGE($,*,*,#143,.T.);
#184=ORIENTED_EDGE($,*,*,#147,.T.);
#185=ORIENTED_EDGE($,*,*,#144,.T.);
#186=ORIENTED_EDGE($,*,*,#141,.T.);
#187=ORIENTED_EDGE($,*,*,#138,.T.);
#188=CYLINDRICAL_SURFACE($,#221,0.4);
#189=CYLINDRICAL_SURFACE($,#226,0.4);
#190=CYLINDRICAL_SURFACE($,#231,0.4);
#191=CYLINDRICAL_SURFACE($,#236,0.4);
#192=ADVANCED_FACE($,(#64,#60),#188,.T.);
#193=ADVANCED_FACE($,(#65),#46,.F.);
#194=ADVANCED_FACE($,(#66),#47,.T.);
#195=ADVANCED_FACE($,(#67,#61),#189,.T.);
#196=ADVANCED_FACE($,(#68),#48,.F.);
#197=ADVANCED_FACE($,(#69),#49,.T.);
#198=ADVANCED_FACE($,(#70,#62),#190,.T.);
#199=ADVANCED_FACE($,(#71),#50,.F.);
#200=ADVANCED_FACE($,(#72),#51,.T.);
#201=ADVANCED_FACE($,(#73,#63),#191,.T.);
#202=ADVANCED_FACE($,(#74),#52,.F.);
#203=ADVANCED_FACE($,(#75),#53,.T.);
#204=ADVANCED_FACE($,(#76),#54,.T.);
#205=ADVANCED_FACE($,(#77),#55,.T.);
#206=ADVANCED_FACE($,(#78),#56,.T.);
#207=ADVANCED_FACE($,(#79),#57,.T.);
#208=ADVANCED_FACE($,(#80),#58,.F.);
#209=ADVANCED_FACE($,(#81),#59,.T.);
#210=CLOSED_SHELL($,(#192,#193,#194));
#211=CLOSED_SHELL($,(#195,#196,#197));
#212=CLOSED_SHELL($,(#198,#199,#200));
#213=CLOSED_SHELL($,(#201,#202,#203));
#214=CLOSED_SHELL($,(#204,#205,#206,#207,#208,#209));
#215=MANIFOLD_SOLID_BREP('3D4',#210);
#216=MANIFOLD_SOLID_BREP('3D8',#211);
#217=MANIFOLD_SOLID_BREP('3DC',#212);
#218=MANIFOLD_SOLID_BREP('3E0',#213);
#219=MANIFOLD_SOLID_BREP('3EF',#214);
#220=AXIS2_PLACEMENT_3D('placement',#313,#247,#248);
#221=AXIS2_PLACEMENT_3D($,#314,#249,#250);
#222=AXIS2_PLACEMENT_3D($,#316,#251,#252);
#223=AXIS2_PLACEMENT_3D($,#318,#253,#254);
#224=AXIS2_PLACEMENT_3D($,#319,#255,#256);
#225=AXIS2_PLACEMENT_3D($,#320,#257,#258);
#226=AXIS2_PLACEMENT_3D($,#321,#259,#260);
#227=AXIS2_PLACEMENT_3D($,#323,#261,#262);
#228=AXIS2_PLACEMENT_3D($,#325,#263,#264);
#229=AXIS2_PLACEMENT_3D($,#326,#265,#266);
#230=AXIS2_PLACEMENT_3D($,#327,#267,#268);
#231=AXIS2_PLACEMENT_3D($,#328,#269,#270);
#232=AXIS2_PLACEMENT_3D($,#330,#271,#272);
#233=AXIS2_PLACEMENT_3D($,#332,#273,#274);
#234=AXIS2_PLACEMENT_3D($,#333,#275,#276);
#235=AXIS2_PLACEMENT_3D($,#334,#277,#278);
#236=AXIS2_PLACEMENT_3D($,#335,#279,#280);
#237=AXIS2_PLACEMENT_3D($,#337,#281,#282);
#238=AXIS2_PLACEMENT_3D($,#339,#283,#284);
#239=AXIS2_PLACEMENT_3D($,#340,#285,#286);
#240=AXIS2_PLACEMENT_3D($,#341,#287,#288);
#241=AXIS2_PLACEMENT_3D($,#342,#289,#290);
#242=AXIS2_PLACEMENT_3D($,#351,#295,#296);
#243=AXIS2_PLACEMENT_3D($,#357,#300,#301);
#244=AXIS2_PLACEMENT_3D($,#363,#305,#306);
#245=AXIS2_PLACEMENT_3D($,#366,#309,#310);
#246=AXIS2_PLACEMENT_3D($,#367,#311,#312);
#247=DIRECTION('axis',(0.,0.,1.));
#248=DIRECTION('refdir',(1.,0.,0.));
#249=DIRECTION('center_axis',(0.,0.,-1.));
#250=DIRECTION('ref_axis',(1.,0.,0.));
#251=DIRECTION('center_axis',(0.,0.,-1.));
#252=DIRECTION('ref_axis',(1.,0.,0.));
#253=DIRECTION('center_axis',(0.,0.,-1.));
#254=DIRECTION('ref_axis',(1.,0.,0.));
#255=DIRECTION('center_axis',(0.,0.,1.));
#256=DIRECTION('ref_axis',(1.,0.,0.));
#257=DIRECTION('center_axis',(0.,0.,1.));
#258=DIRECTION('ref_axis',(1.,0.,0.));
#259=DIRECTION('center_axis',(0.,0.,-1.));
#260=DIRECTION('ref_axis',(1.,0.,0.));
#261=DIRECTION('center_axis',(0.,0.,-1.));
#262=DIRECTION('ref_axis',(1.,0.,0.));
#263=DIRECTION('center_axis',(0.,0.,-1.));
#264=DIRECTION('ref_axis',(1.,0.,0.));
#265=DIRECTION('center_axis',(0.,0.,1.));
#266=DIRECTION('ref_axis',(1.,0.,0.));
#267=DIRECTION('center_axis',(0.,0.,1.));
#268=DIRECTION('ref_axis',(1.,0.,0.));
#269=DIRECTION('center_axis',(0.,0.,-1.));
#270=DIRECTION('ref_axis',(1.,0.,0.));
#271=DIRECTION('center_axis',(0.,0.,-1.));
#272=DIRECTION('ref_axis',(1.,0.,0.));
#273=DIRECTION('center_axis',(0.,0.,-1.));
#274=DIRECTION('ref_axis',(1.,0.,0.));
#275=DIRECTION('center_axis',(0.,0.,1.));
#276=DIRECTION('ref_axis',(1.,0.,0.));
#277=DIRECTION('center_axis',(0.,0.,1.));
#278=DIRECTION('ref_axis',(1.,0.,0.));
#279=DIRECTION('center_axis',(0.,0.,-1.));
#280=DIRECTION('ref_axis',(1.,0.,0.));
#281=DIRECTION('center_axis',(0.,0.,-1.));
#282=DIRECTION('ref_axis',(1.,0.,0.));
#283=DIRECTION('center_axis',(0.,0.,-1.));
#284=DIRECTION('ref_axis',(1.,0.,0.));
#285=DIRECTION('center_axis',(0.,0.,1.));
#286=DIRECTION('ref_axis',(1.,0.,0.));
#287=DIRECTION('center_axis',(0.,0.,1.));
#288=DIRECTION('ref_axis',(1.,0.,0.));
#289=DIRECTION('center_axis',(1.,0.,0.));
#290=DIRECTION('ref_axis',(0.,1.,0.));
#291=DIRECTION($,(0.,-1.,0.));
#292=DIRECTION($,(0.,0.,1.));
#293=DIRECTION($,(0.,1.,0.));
#294=DIRECTION($,(0.,0.,1.));
#295=DIRECTION('center_axis',(0.,-1.,0.));
#296=DIRECTION('ref_axis',(1.,0.,0.));
#297=DIRECTION($,(-1.,0.,0.));
#298=DIRECTION($,(1.,0.,0.));
#299=DIRECTION($,(0.,0.,1.));
#300=DIRECTION('center_axis',(-1.,0.,0.));
#301=DIRECTION('ref_axis',(0.,-1.,0.));
#302=DIRECTION($,(0.,1.,0.));
#303=DIRECTION($,(0.,-1.,0.));
#304=DIRECTION($,(0.,0.,1.));
#305=DIRECTION('center_axis',(0.,1.,0.));
#306=DIRECTION('ref_axis',(-1.,0.,0.));
#307=DIRECTION($,(1.,0.,0.));
#308=DIRECTION($,(-1.,0.,0.));
#309=DIRECTION('center_axis',(0.,0.,1.));
#310=DIRECTION('ref_axis',(1.,0.,0.));
#311=DIRECTION('center_axis',(0.,0.,1.));
#312=DIRECTION('ref_axis',(1.,0.,0.));
#313=CARTESIAN_POINT('',(0.,0.,0.));
#314=CARTESIAN_POINT('Origin',(-10.,-12.5,0.));
#315=CARTESIAN_POINT('',(-10.4,-12.5,-3.6));
#316=CARTESIAN_POINT('Origin',(-10.,-12.5,-3.6));
#317=CARTESIAN_POINT('',(-10.4,-12.5,0.));
#318=CARTESIAN_POINT('Origin',(-10.,-12.5,0.));
#319=CARTESIAN_POINT('Origin',(-10.,-12.5,-3.6));
#320=CARTESIAN_POINT('Origin',(-10.,-12.5,0.));
#321=CARTESIAN_POINT('Origin',(10.,-12.5,0.));
#322=CARTESIAN_POINT('',(9.6,-12.5,-3.6));
#323=CARTESIAN_POINT('Origin',(10.,-12.5,-3.6));
#324=CARTESIAN_POINT('',(9.6,-12.5,0.));
#325=CARTESIAN_POINT('Origin',(10.,-12.5,0.));
#326=CARTESIAN_POINT('Origin',(10.,-12.5,-3.6));
#327=CARTESIAN_POINT('Origin',(10.,-12.5,0.));
#328=CARTESIAN_POINT('Origin',(5.,12.5,0.));
#329=CARTESIAN_POINT('',(4.6,12.5,-3.6));
#330=CARTESIAN_POINT('Origin',(5.,12.5,-3.6));
#331=CARTESIAN_POINT('',(4.6,12.5,0.));
#332=CARTESIAN_POINT('Origin',(5.,12.5,0.));
#333=CARTESIAN_POINT('Origin',(5.,12.5,-3.6));
#334=CARTESIAN_POINT('Origin',(5.,12.5,0.));
#335=CARTESIAN_POINT('Origin',(-5.,12.5,0.));
#336=CARTESIAN_POINT('',(-5.4,12.5,-3.6));
#337=CARTESIAN_POINT('Origin',(-5.,12.5,-3.6));
#338=CARTESIAN_POINT('',(-5.4,12.5,0.));
#339=CARTESIAN_POINT('Origin',(-5.,12.5,0.));
#340=CARTESIAN_POINT('Origin',(-5.,12.5,-3.6));
#341=CARTESIAN_POINT('Origin',(-5.,12.5,0.));
#342=CARTESIAN_POINT('Origin',(16.1,-13.6,0.));
#343=CARTESIAN_POINT('',(16.1,13.6,0.));
#344=CARTESIAN_POINT('',(16.1,-13.6,0.));
#345=CARTESIAN_POINT($,(16.1,13.6,0.));
#346=CARTESIAN_POINT('',(16.1,13.6,22.3));
#347=CARTESIAN_POINT($,(16.1,13.6,0.));
#348=CARTESIAN_POINT('',(16.1,-13.6,22.3));
#349=CARTESIAN_POINT($,(16.1,13.6,22.3));
#350=CARTESIAN_POINT($,(16.1,-13.6,0.));
#351=CARTESIAN_POINT('Origin',(-16.1,-13.6,0.));
#352=CARTESIAN_POINT('',(-16.1,-13.6,0.));
#353=CARTESIAN_POINT($,(16.1,-13.6,0.));
#354=CARTESIAN_POINT('',(-16.1,-13.6,22.3));
#355=CARTESIAN_POINT($,(16.1,-13.6,22.3));
#356=CARTESIAN_POINT($,(-16.1,-13.6,0.));
#357=CARTESIAN_POINT('Origin',(-16.1,13.6,0.));
#358=CARTESIAN_POINT('',(-16.1,13.6,0.));
#359=CARTESIAN_POINT($,(-16.1,-13.6,0.));
#360=CARTESIAN_POINT('',(-16.1,13.6,22.3));
#361=CARTESIAN_POINT($,(-16.1,-13.6,22.3));
#362=CARTESIAN_POINT($,(-16.1,13.6,0.));
#363=CARTESIAN_POINT('Origin',(16.1,13.6,0.));
#364=CARTESIAN_POINT($,(-16.1,13.6,0.));
#365=CARTESIAN_POINT($,(-16.1,13.6,22.3));
#366=CARTESIAN_POINT('Origin',(0.,0.,0.));
#367=CARTESIAN_POINT('Origin',(0.,0.,22.3));
#368=UNCERTAINTY_MEASURE_WITH_UNIT(LENGTH_MEASURE(0.01),#372,
'DISTANCE_ACCURACY_VALUE',
'Maximum model space distance between geometric entities at asserted c
onnectivities');
#369=UNCERTAINTY_MEASURE_WITH_UNIT(LENGTH_MEASURE(1.E-6),#372,
'DISTANCE_ACCURACY_VALUE',
'Maximum model space distance between geometric entities at asserted c
onnectivities');
#370=(
GEOMETRIC_REPRESENTATION_CONTEXT(3)
GLOBAL_UNCERTAINTY_ASSIGNED_CONTEXT((#368))
GLOBAL_UNIT_ASSIGNED_CONTEXT((#372,#374,#373))
REPRESENTATION_CONTEXT('','3D')
);
#371=(
GEOMETRIC_REPRESENTATION_CONTEXT(3)
GLOBAL_UNCERTAINTY_ASSIGNED_CONTEXT((#369))
GLOBAL_UNIT_ASSIGNED_CONTEXT((#372,#12,#373))
REPRESENTATION_CONTEXT('','3D')
);
#372=(
LENGTH_UNIT()
NAMED_UNIT(*)
SI_UNIT(.MILLI.,.METRE.)
);
#373=(
NAMED_UNIT(*)
SI_UNIT($,.STERADIAN.)
SOLID_ANGLE_UNIT()
);
#374=(
NAMED_UNIT(*)
PLANE_ANGLE_UNIT()
SI_UNIT($,.RADIAN.)
);
#375=SHAPE_DEFINITION_REPRESENTATION(#376,#377);
#376=PRODUCT_DEFINITION_SHAPE('',$,#379);
#377=SHAPE_REPRESENTATION('',(#220),#370);
#378=PRODUCT_DEFINITION_CONTEXT('part definition',#383,'design');
#379=PRODUCT_DEFINITION('Product','Product',#380,#378);
#380=PRODUCT_DEFINITION_FORMATION('',$,#385);
#381=PRODUCT_RELATED_PRODUCT_CATEGORY('Product','Product',(#385));
#382=APPLICATION_PROTOCOL_DEFINITION('international standard',
'automotive_design',2009,#383);
#383=APPLICATION_CONTEXT(
'Core Data for Automotive Mechanical Design Process');
#384=PRODUCT_CONTEXT('part definition',#383,'mechanical');
#385=PRODUCT('Product','Product',$,(#384));
#386=PRESENTATION_STYLE_ASSIGNMENT((#389));
#387=PRESENTATION_STYLE_ASSIGNMENT((#390));
#388=PRESENTATION_STYLE_ASSIGNMENT((#391));
#389=SURFACE_STYLE_USAGE(.BOTH.,#392);
#390=SURFACE_STYLE_USAGE(.BOTH.,#393);
#391=SURFACE_STYLE_USAGE(.BOTH.,#394);
#392=SURFACE_SIDE_STYLE($,(#395));
#393=SURFACE_SIDE_STYLE($,(#396));
#394=SURFACE_SIDE_STYLE($,(#397));
#395=SURFACE_STYLE_FILL_AREA(#398);
#396=SURFACE_STYLE_FILL_AREA(#399);
#397=SURFACE_STYLE_FILL_AREA(#400);
#398=FILL_AREA_STYLE($,(#401));
#399=FILL_AREA_STYLE($,(#402));
#400=FILL_AREA_STYLE($,(#403));
#401=FILL_AREA_STYLE_COLOUR($,#404);
#402=FILL_AREA_STYLE_COLOUR($,#405);
#403=FILL_AREA_STYLE_COLOUR($,#406);
#404=COLOUR_RGB('',1.,1.,1.);
#405=COLOUR_RGB('',0.866666666666667,0.866666666666667,0.866666666666667);
#406=COLOUR_RGB('',1.,0.,0.);
ENDSEC;
END-ISO-10303-21;
