ISO-10303-21;
HEADER;
/****************************************************************
 * Generated by software with PDElib inside                    *
 * PDElib Version v51a, created Fri 09/10/2010                  *
 * ITI Transcendata (http://www.transcendata.com/)              *
 ****************************************************************/
FILE_DESCRIPTION((''),'2;1');
FILE_NAME('PWS_XPPOWER_ECL10-P.stp','2012-02-27T10:35:40',(''),(''),'Mechanical Desktop 2011','Mechanical Desktop 2011',', , ');
FILE_SCHEMA(('AUTOMOTIVE_DESIGN { 1 2 10303 214 1 1 1 1 }'));
ENDSEC;
DATA;
#10=(NAMED_UNIT(*)PLANE_ANGLE_UNIT()SI_UNIT($,.RADIAN.));
#11=DIMENSIONAL_EXPONENTS(0.0,0.0,0.0,0.0,0.0,0.0,0.0);
#12=PLANE_ANGLE_MEASURE_WITH_UNIT(PLANE_ANGLE_MEASURE(0.0174532925),#10);
#16=(CONVERSION_BASED_UNIT('DEGREE',#12)NAMED_UNIT(#11)PLANE_ANGLE_UNIT());
#20=(NAMED_UNIT(*)SI_UNIT($,.STERADIAN.)SOLID_ANGLE_UNIT());
#24=(LENGTH_UNIT()NAMED_UNIT(*)SI_UNIT(.MILLI.,.METRE.));
#26=UNCERTAINTY_MEASURE_WITH_UNIT(LENGTH_MEASURE(0.000001),#24,'DISTANCE_ACCURACY_VALUE','');
#28=(GEOMETRIC_REPRESENTATION_CONTEXT(3)GLOBAL_UNCERTAINTY_ASSIGNED_CONTEXT((#26))GLOBAL_UNIT_ASSIGNED_CONTEXT((#16,#20,#24))REPRESENTATION_CONTEXT('','3D'));
#29=APPLICATION_CONTEXT('automotive design');
#30=APPLICATION_PROTOCOL_DEFINITION('INTERNATIONAL_STANDARD','automotive_design',1998,#29);
#31=PRODUCT_CONTEXT('3D Mechanical Parts',#29,'mechanical');
#32=PRODUCT('Product','Product','',(#31));
#33=PRODUCT_RELATED_PRODUCT_CATEGORY('part',$,(#32,#70,#93,#116,#139));
#34=PRODUCT_CATEGORY('part',$);
#35=PERSON('1','Design','Joe',$,$,$);
#36=ORGANIZATION($,'None','None');
#37=PERSON_AND_ORGANIZATION(#35,#36);
#38=PERSON_AND_ORGANIZATION_ROLE('design_owner');
#39=APPLIED_PERSON_AND_ORGANIZATION_ASSIGNMENT(#37,#38,(#32,#70,#93,#116,#139));
#40=PRODUCT_DEFINITION_FORMATION_WITH_SPECIFIED_SOURCE('None','',#32,.BOUGHT.);
#41=PERSON('2','Creator','Joe',$,$,$);
#42=ORGANIZATION($,'None','None');
#43=PERSON_AND_ORGANIZATION(#41,#42);
#44=PERSON_AND_ORGANIZATION_ROLE('creator');
#45=APPLIED_PERSON_AND_ORGANIZATION_ASSIGNMENT(#43,#44,(#40,#71,#94,#117,#140));
#46=PERSON('3','Supplier','Joe',$,$,$);
#47=ORGANIZATION($,'None','None');
#48=PERSON_AND_ORGANIZATION(#46,#47);
#49=PERSON_AND_ORGANIZATION_ROLE('design_supplier');
#50=APPLIED_PERSON_AND_ORGANIZATION_ASSIGNMENT(#48,#49,(#40,#71,#94,#117,#140));
#51=PRODUCT_DEFINITION_CONTEXT('part definition',#29,'design');
#52=PRODUCT_DEFINITION('None','',#40,#51);
#53=PERSON('4','Creator','Joe',$,$,$);
#54=ORGANIZATION($,'None','None');
#55=PERSON_AND_ORGANIZATION(#53,#54);
#56=PERSON_AND_ORGANIZATION_ROLE('creator');
#57=APPLIED_PERSON_AND_ORGANIZATION_ASSIGNMENT(#55,#56,(#52,#72,#95,#118,#141));
#58=CARTESIAN_POINT('NONE',(0.0,0.0,0.0));
#59=DIRECTION('NONE',(0.0,0.0,1.0));
#60=DIRECTION('NONE',(1.0,0.0,0.0));
#61=AXIS2_PLACEMENT_3D('NONE',#58,#59,#60);
#62=SHAPE_REPRESENTATION('SR1',(#61,#79,#102,#125,#148),#28);
#63=PRODUCT_DEFINITION_SHAPE('PDS1','Test Part',#52);
#64=SHAPE_DEFINITION_REPRESENTATION(#63,#62);
#69=(GEOMETRIC_REPRESENTATION_CONTEXT(3)GLOBAL_UNCERTAINTY_ASSIGNED_CONTEXT((#26))GLOBAL_UNIT_ASSIGNED_CONTEXT((#16,#20,#24))REPRESENTATION_CONTEXT('Component','Component'));
#70=PRODUCT('CORE-10mm','CORE-10mm','',(#31));
#71=PRODUCT_DEFINITION_FORMATION_WITH_SPECIFIED_SOURCE('None','',#70,.BOUGHT.);
#72=PRODUCT_DEFINITION('None','',#71,#51);
#73=SHAPE_REPRESENTATION('SR2',(#61),#69);
#74=PRODUCT_DEFINITION_SHAPE('PDS2','Test Part',#72);
#75=SHAPE_DEFINITION_REPRESENTATION(#74,#73);
#76=CARTESIAN_POINT('NONE',(16.630193887999997,10.380455552000004,8.100000000000003));
#77=DIRECTION('NONE',(-1.0,-2.220446E-016,-2.220446E-016));
#78=DIRECTION('NONE',(2.220446E-016,-1.0,4.930381E-032));
#79=AXIS2_PLACEMENT_3D('NONE',#76,#77,#78);
#80=ITEM_DEFINED_TRANSFORMATION('IDT1','',#61,#79);
#84=(REPRESENTATION_RELATIONSHIP(' ',$,#73,#62)REPRESENTATION_RELATIONSHIP_WITH_TRANSFORMATION(#80)SHAPE_REPRESENTATION_RELATIONSHIP());
#85=NEXT_ASSEMBLY_USAGE_OCCURRENCE('NAUO1',' ',$,#52,#72,$);
#86=PRODUCT_DEFINITION_SHAPE('PDS_NAUO1',' ',#85);
#87=CONTEXT_DEPENDENT_SHAPE_REPRESENTATION(#84,#86);
#92=(GEOMETRIC_REPRESENTATION_CONTEXT(3)GLOBAL_UNCERTAINTY_ASSIGNED_CONTEXT((#26))GLOBAL_UNIT_ASSIGNED_CONTEXT((#16,#20,#24))REPRESENTATION_CONTEXT('Component','Component'));
#93=PRODUCT('ECL10US12\S\E\S\\\S\@\S\#\S\>\S\9','ECL10US12\S\E\S\\\S\@\S\#\S\>\S\9','',(#31));
#94=PRODUCT_DEFINITION_FORMATION_WITH_SPECIFIED_SOURCE('None','',#93,.BOUGHT.);
#95=PRODUCT_DEFINITION('None','',#94,#51);
#96=SHAPE_REPRESENTATION('SR3',(#61),#92);
#97=PRODUCT_DEFINITION_SHAPE('PDS3','Test Part',#95);
#98=SHAPE_DEFINITION_REPRESENTATION(#97,#96);
#99=CARTESIAN_POINT('NONE',(42.180193887999991,16.854134260000009,1.200000000000008));
#100=DIRECTION('NONE',(-2.220446E-016,1.0,-6.123234E-017));
#101=DIRECTION('NONE',(-1.0,-2.220446E-016,0.0));
#102=AXIS2_PLACEMENT_3D('NONE',#99,#100,#101);
#103=ITEM_DEFINED_TRANSFORMATION('IDT2','',#61,#102);
#107=(REPRESENTATION_RELATIONSHIP(' ',$,#96,#62)REPRESENTATION_RELATIONSHIP_WITH_TRANSFORMATION(#103)SHAPE_REPRESENTATION_RELATIONSHIP());
#108=NEXT_ASSEMBLY_USAGE_OCCURRENCE('NAUO2',' ',$,#52,#95,$);
#109=PRODUCT_DEFINITION_SHAPE('PDS_NAUO2',' ',#108);
#110=CONTEXT_DEPENDENT_SHAPE_REPRESENTATION(#107,#109);
#115=(GEOMETRIC_REPRESENTATION_CONTEXT(3)GLOBAL_UNCERTAINTY_ASSIGNED_CONTEXT((#26))GLOBAL_UNIT_ASSIGNED_CONTEXT((#16,#20,#24))REPRESENTATION_CONTEXT('Component','Component'));
#116=PRODUCT('ECL10-P_\S\9w\S\3]','ECL10-P_\S\9w\S\3]','',(#31));
#117=PRODUCT_DEFINITION_FORMATION_WITH_SPECIFIED_SOURCE('None','',#116,.BOUGHT.);
#118=PRODUCT_DEFINITION('None','',#117,#51);
#119=SHAPE_REPRESENTATION('SR4',(#61),#115);
#120=PRODUCT_DEFINITION_SHAPE('PDS4','Test Part',#118);
#121=SHAPE_DEFINITION_REPRESENTATION(#120,#119);
#122=CARTESIAN_POINT('NONE',(0.0,0.0,0.0));
#123=DIRECTION('NONE',(2.220446E-016,-1.0,6.123234E-017));
#124=DIRECTION('NONE',(1.0,2.220446E-016,0.0));
#125=AXIS2_PLACEMENT_3D('NONE',#122,#123,#124);
#126=ITEM_DEFINED_TRANSFORMATION('IDT3','',#61,#125);
#130=(REPRESENTATION_RELATIONSHIP(' ',$,#119,#62)REPRESENTATION_RELATIONSHIP_WITH_TRANSFORMATION(#126)SHAPE_REPRESENTATION_RELATIONSHIP());
#131=NEXT_ASSEMBLY_USAGE_OCCURRENCE('NAUO3',' ',$,#52,#118,$);
#132=PRODUCT_DEFINITION_SHAPE('PDS_NAUO3',' ',#131);
#133=CONTEXT_DEPENDENT_SHAPE_REPRESENTATION(#130,#132);
#138=(GEOMETRIC_REPRESENTATION_CONTEXT(3)GLOBAL_UNCERTAINTY_ASSIGNED_CONTEXT((#26))GLOBAL_UNIT_ASSIGNED_CONTEXT((#16,#20,#24))REPRESENTATION_CONTEXT('Component','Component'));
#139=PRODUCT('12.6mm\S\9q\S\.e','12.6mm\S\9q\S\.e','',(#31));
#140=PRODUCT_DEFINITION_FORMATION_WITH_SPECIFIED_SOURCE('None','',#139,.BOUGHT.);
#141=PRODUCT_DEFINITION('None','',#140,#51);
#142=SHAPE_REPRESENTATION('SR5',(#61),#138);
#143=PRODUCT_DEFINITION_SHAPE('PDS5','Test Part',#141);
#144=SHAPE_DEFINITION_REPRESENTATION(#143,#142);
#145=CARTESIAN_POINT('NONE',(27.850193888,4.254134260000016,6.350000000000006));
#146=DIRECTION('NONE',(2.220446E-016,-1.0,6.123234E-017));
#147=DIRECTION('NONE',(1.0,2.220446E-016,0.0));
#148=AXIS2_PLACEMENT_3D('NONE',#145,#146,#147);
#149=ITEM_DEFINED_TRANSFORMATION('IDT4','',#61,#148);
#153=(REPRESENTATION_RELATIONSHIP(' ',$,#142,#62)REPRESENTATION_RELATIONSHIP_WITH_TRANSFORMATION(#149)SHAPE_REPRESENTATION_RELATIONSHIP());
#154=NEXT_ASSEMBLY_USAGE_OCCURRENCE('NAUO4',' ',$,#52,#141,$);
#155=PRODUCT_DEFINITION_SHAPE('PDS_NAUO4',' ',#154);
#156=CONTEXT_DEPENDENT_SHAPE_REPRESENTATION(#153,#155);
#157=CARTESIAN_POINT('',(0.0,0.0,0.0));
#158=DIRECTION('',(-1.0,0.0,0.0));
#159=VECTOR('',#158,0.5);
#160=LINE('',#157,#159);
#161=CARTESIAN_POINT('',(-0.5,0.0,0.0));
#162=TRIMMED_CURVE('80B',#160,(PARAMETER_VALUE(0.0),#157),(PARAMETER_VALUE(1.0),#161),.T.,.PARAMETER.);
#163=COLOUR_RGB('44',0.5,0.375,0.0);
#164=CURVE_STYLE('NONE',#165,POSITIVE_LENGTH_MEASURE(0.2),#163);
#165=DRAUGHTING_PRE_DEFINED_CURVE_FONT('continuous');
#166=PRESENTATION_STYLE_ASSIGNMENT((#164));
#167=STYLED_ITEM('NONE',(#166),#162);
#168=MECHANICAL_DESIGN_GEOMETRIC_PRESENTATION_REPRESENTATION('NONE',(#167,#177,#184,#191),#28);
#169=PRESENTATION_LAYER_ASSIGNMENT('Mechanical 8','None',(#162,#176,#183,#190));
#170=INVISIBILITY((#169));
#171=CARTESIAN_POINT('',(0.0,0.0,0.0));
#172=DIRECTION('',(0.0,-1.0,0.0));
#173=VECTOR('',#172,0.5);
#174=LINE('',#171,#173);
#175=CARTESIAN_POINT('',(0.0,-0.5,0.0));
#176=TRIMMED_CURVE('80A',#174,(PARAMETER_VALUE(0.0),#171),(PARAMETER_VALUE(1.0),#175),.T.,.PARAMETER.);
#177=STYLED_ITEM('NONE',(#166),#176);
#178=CARTESIAN_POINT('',(0.0,0.0,0.0));
#179=DIRECTION('',(1.0,0.0,0.0));
#180=VECTOR('',#179,0.5);
#181=LINE('',#178,#180);
#182=CARTESIAN_POINT('',(0.5,0.0,0.0));
#183=TRIMMED_CURVE('809',#181,(PARAMETER_VALUE(0.0),#178),(PARAMETER_VALUE(1.0),#182),.T.,.PARAMETER.);
#184=STYLED_ITEM('NONE',(#166),#183);
#185=CARTESIAN_POINT('',(0.0,0.5,0.0));
#186=DIRECTION('',(0.0,-1.0,0.0));
#187=VECTOR('',#186,0.5);
#188=LINE('',#185,#187);
#189=CARTESIAN_POINT('',(0.0,0.0,0.0));
#190=TRIMMED_CURVE('808',#188,(PARAMETER_VALUE(0.0),#185),(PARAMETER_VALUE(1.0),#189),.T.,.PARAMETER.);
#191=STYLED_ITEM('NONE',(#166),#190);
#192=GEOMETRIC_CURVE_SET('GCS1',(#162,#176,#183,#190));
#193=GEOMETRICALLY_BOUNDED_WIREFRAME_SHAPE_REPRESENTATION('GBWSR1',(#192),#28);
#194=SHAPE_REPRESENTATION_RELATIONSHIP('SRRPL1','',#193,#62);
ENDSEC;
END-ISO-10303-21;
