ISO-10303-21;
HEADER;
/****************************************************************
 * Generated by software with PDElib inside                    *
 * PDElib Version v51a, created Fri 09/10/2010                  *
 * ITI Transcendata (http://www.transcendata.com/)              *
 ****************************************************************/
FILE_DESCRIPTION((''),'2;1');
FILE_NAME('PWS_ISEG_APS.stp','2013-03-28T16:16:16',(''),(''),'Mechanical Desktop 2011','Mechanical Desktop 2011',', , ');
FILE_SCHEMA(('AUTOMOTIVE_DESIGN { 1 2 10303 214 1 1 1 1 }'));
ENDSEC;
DATA;
#10=(NAMED_UNIT(*)PLANE_ANGLE_UNIT()SI_UNIT($,.RADIAN.));
#11=DIMENSIONAL_EXPONENTS(0.0,0.0,0.0,0.0,0.0,0.0,0.0);
#12=PLANE_ANGLE_MEASURE_WITH_UNIT(PLANE_ANGLE_MEASURE(0.0174532925),#10);
#16=(CONVERSION_BASED_UNIT('DEGREE',#12)NAMED_UNIT(#11)PLANE_ANGLE_UNIT());
#20=(NAMED_UNIT(*)SI_UNIT($,.STERADIAN.)SOLID_ANGLE_UNIT());
#24=(LENGTH_UNIT()NAMED_UNIT(*)SI_UNIT(.MILLI.,.METRE.));
#26=UNCERTAINTY_MEASURE_WITH_UNIT(LENGTH_MEASURE(0.000001),#24,'DISTANCE_ACCURACY_VALUE','');
#28=(GEOMETRIC_REPRESENTATION_CONTEXT(3)GLOBAL_UNCERTAINTY_ASSIGNED_CONTEXT((#26))GLOBAL_UNIT_ASSIGNED_CONTEXT((#16,#20,#24))REPRESENTATION_CONTEXT('','3D'));
#29=APPLICATION_CONTEXT('automotive design');
#30=APPLICATION_PROTOCOL_DEFINITION('INTERNATIONAL_STANDARD','automotive_design',1998,#29);
#31=PRODUCT_CONTEXT('3D Mechanical Parts',#29,'mechanical');
#32=PRODUCT('Product','Product','',(#31));
#33=PRODUCT_RELATED_PRODUCT_CATEGORY('part',$,(#32));
#34=PRODUCT_CATEGORY('part',$);
#35=PERSON('1','Design','Joe',$,$,$);
#36=ORGANIZATION($,'None','None');
#37=PERSON_AND_ORGANIZATION(#35,#36);
#38=PERSON_AND_ORGANIZATION_ROLE('design_owner');
#39=APPLIED_PERSON_AND_ORGANIZATION_ASSIGNMENT(#37,#38,(#32));
#40=PRODUCT_DEFINITION_FORMATION_WITH_SPECIFIED_SOURCE('None','',#32,.BOUGHT.);
#41=PERSON('2','Creator','Joe',$,$,$);
#42=ORGANIZATION($,'None','None');
#43=PERSON_AND_ORGANIZATION(#41,#42);
#44=PERSON_AND_ORGANIZATION_ROLE('creator');
#45=APPLIED_PERSON_AND_ORGANIZATION_ASSIGNMENT(#43,#44,(#40));
#46=PERSON('3','Supplier','Joe',$,$,$);
#47=ORGANIZATION($,'None','None');
#48=PERSON_AND_ORGANIZATION(#46,#47);
#49=PERSON_AND_ORGANIZATION_ROLE('design_supplier');
#50=APPLIED_PERSON_AND_ORGANIZATION_ASSIGNMENT(#48,#49,(#40));
#51=PRODUCT_DEFINITION_CONTEXT('part definition',#29,'design');
#52=PRODUCT_DEFINITION('None','',#40,#51);
#53=PERSON('4','Creator','Joe',$,$,$);
#54=ORGANIZATION($,'None','None');
#55=PERSON_AND_ORGANIZATION(#53,#54);
#56=PERSON_AND_ORGANIZATION_ROLE('creator');
#57=APPLIED_PERSON_AND_ORGANIZATION_ASSIGNMENT(#55,#56,(#52));
#58=CARTESIAN_POINT('NONE',(0.0,0.0,0.0));
#59=DIRECTION('NONE',(0.0,0.0,1.0));
#60=DIRECTION('NONE',(1.0,0.0,0.0));
#61=AXIS2_PLACEMENT_3D('NONE',#58,#59,#60);
#62=SHAPE_REPRESENTATION('SR1',(#61),#28);
#63=PRODUCT_DEFINITION_SHAPE('PDS1','Test Part',#52);
#64=SHAPE_DEFINITION_REPRESENTATION(#63,#62);
#65=CARTESIAN_POINT('',(16.455000000000002,-5.164999999999999,0.0));
#66=CARTESIAN_POINT('',(17.085000000000004,-5.164999999999999,0.0));
#67=CARTESIAN_POINT('',(16.455000000000002,-4.535000000000004,0.0));
#68=CARTESIAN_POINT('',(17.085000000000004,-4.535000000000004,0.0));
#69=B_SPLINE_SURFACE_WITH_KNOTS('',1,1,((#65,#67),(#66,#68)),.UNSPECIFIED.,.F.,.F.,.U.,(2,2),(2,2),(0.0,0.630000000000003),(0.0,0.629999999999995),.UNSPECIFIED.);
#70=CARTESIAN_POINT('',(17.085000000000004,-4.535000000000004,0.0));
#71=VERTEX_POINT('',#70);
#72=CARTESIAN_POINT('',(17.085000000000004,-5.164999999999999,0.0));
#73=VERTEX_POINT('',#72);
#74=CARTESIAN_POINT('',(17.085000000000004,-4.535000000000004,0.0));
#75=DIRECTION('',(0.0,-1.0,0.0));
#76=VECTOR('',#75,0.629999999999995);
#77=LINE('',#74,#76);
#78=EDGE_CURVE('',#71,#73,#77,.T.);
#79=ORIENTED_EDGE('',*,*,#78,.F.);
#80=CARTESIAN_POINT('',(16.455000000000002,-4.535000000000004,0.0));
#81=VERTEX_POINT('',#80);
#82=CARTESIAN_POINT('',(16.455000000000002,-4.535000000000004,0.0));
#83=DIRECTION('',(1.0,0.0,0.0));
#84=VECTOR('',#83,0.630000000000003);
#85=LINE('',#82,#84);
#86=EDGE_CURVE('',#81,#71,#85,.T.);
#87=ORIENTED_EDGE('',*,*,#86,.F.);
#88=CARTESIAN_POINT('',(16.455000000000002,-5.164999999999999,0.0));
#89=VERTEX_POINT('',#88);
#90=CARTESIAN_POINT('',(16.455000000000002,-5.164999999999999,0.0));
#91=DIRECTION('',(0.0,1.0,0.0));
#92=VECTOR('',#91,0.629999999999995);
#93=LINE('',#90,#92);
#94=EDGE_CURVE('',#89,#81,#93,.T.);
#95=ORIENTED_EDGE('',*,*,#94,.F.);
#96=CARTESIAN_POINT('',(17.085000000000004,-5.164999999999999,0.0));
#97=DIRECTION('',(-1.0,0.0,0.0));
#98=VECTOR('',#97,0.630000000000003);
#99=LINE('',#96,#98);
#100=EDGE_CURVE('',#73,#89,#99,.T.);
#101=ORIENTED_EDGE('',*,*,#100,.F.);
#102=EDGE_LOOP('',(#79,#87,#95,#101));
#103=FACE_OUTER_BOUND('',#102,.T.);
#104=ADVANCED_FACE('',(#103),#69,.T.);
#105=CARTESIAN_POINT('',(16.455000000000002,-5.164999999999999,-2.2));
#106=CARTESIAN_POINT('',(17.085000000000004,-5.164999999999999,-2.2));
#107=CARTESIAN_POINT('',(16.455000000000002,-4.535000000000004,-2.2));
#108=CARTESIAN_POINT('',(17.085000000000004,-4.535000000000004,-2.2));
#109=B_SPLINE_SURFACE_WITH_KNOTS('',1,1,((#105,#107),(#106,#108)),.UNSPECIFIED.,.F.,.F.,.U.,(2,2),(2,2),(0.0,0.630000000000003),(0.0,0.629999999999995),.UNSPECIFIED.);
#110=CARTESIAN_POINT('',(17.085000000000004,-5.164999999999999,-2.2));
#111=VERTEX_POINT('',#110);
#112=CARTESIAN_POINT('',(17.085000000000004,-4.535000000000004,-2.2));
#113=VERTEX_POINT('',#112);
#114=CARTESIAN_POINT('',(17.085000000000004,-5.164999999999999,-2.2));
#115=DIRECTION('',(0.0,1.0,0.0));
#116=VECTOR('',#115,0.629999999999995);
#117=LINE('',#114,#116);
#118=EDGE_CURVE('',#111,#113,#117,.T.);
#119=ORIENTED_EDGE('',*,*,#118,.F.);
#120=CARTESIAN_POINT('',(16.455000000000002,-5.164999999999999,-2.2));
#121=VERTEX_POINT('',#120);
#122=CARTESIAN_POINT('',(16.455000000000002,-5.164999999999999,-2.2));
#123=DIRECTION('',(1.0,0.0,0.0));
#124=VECTOR('',#123,0.630000000000003);
#125=LINE('',#122,#124);
#126=EDGE_CURVE('',#121,#111,#125,.T.);
#127=ORIENTED_EDGE('',*,*,#126,.F.);
#128=CARTESIAN_POINT('',(16.455000000000002,-4.535000000000004,-2.2));
#129=VERTEX_POINT('',#128);
#130=CARTESIAN_POINT('',(16.455000000000002,-4.535000000000004,-2.2));
#131=DIRECTION('',(0.0,-1.0,0.0));
#132=VECTOR('',#131,0.629999999999995);
#133=LINE('',#130,#132);
#134=EDGE_CURVE('',#129,#121,#133,.T.);
#135=ORIENTED_EDGE('',*,*,#134,.F.);
#136=CARTESIAN_POINT('',(17.085000000000004,-4.535000000000004,-2.2));
#137=DIRECTION('',(-1.0,0.0,0.0));
#138=VECTOR('',#137,0.630000000000003);
#139=LINE('',#136,#138);
#140=EDGE_CURVE('',#113,#129,#139,.T.);
#141=ORIENTED_EDGE('',*,*,#140,.F.);
#142=EDGE_LOOP('',(#119,#127,#135,#141));
#143=FACE_OUTER_BOUND('',#142,.T.);
#144=ADVANCED_FACE('',(#143),#109,.F.);
#145=CARTESIAN_POINT('',(17.085000000000004,-4.535000000000004,-2.2));
#146=CARTESIAN_POINT('',(17.085000000000004,-4.535000000000004,0.0));
#147=CARTESIAN_POINT('',(16.455000000000002,-4.535000000000004,-2.2));
#148=CARTESIAN_POINT('',(16.455000000000002,-4.535000000000004,0.0));
#149=B_SPLINE_SURFACE_WITH_KNOTS('',1,1,((#145,#147),(#146,#148)),.UNSPECIFIED.,.F.,.F.,.U.,(2,2),(2,2),(0.0,2.2),(0.0,0.630000000000003),.UNSPECIFIED.);
#150=CARTESIAN_POINT('',(16.455000000000002,-4.535000000000004,0.0));
#151=DIRECTION('',(0.0,0.0,-1.0));
#152=VECTOR('',#151,2.2);
#153=LINE('',#150,#152);
#154=EDGE_CURVE('',#81,#129,#153,.T.);
#155=ORIENTED_EDGE('',*,*,#154,.F.);
#156=ORIENTED_EDGE('',*,*,#86,.T.);
#157=CARTESIAN_POINT('',(17.085000000000004,-4.535000000000004,0.0));
#158=DIRECTION('',(0.0,0.0,-1.0));
#159=VECTOR('',#158,2.2);
#160=LINE('',#157,#159);
#161=EDGE_CURVE('',#71,#113,#160,.T.);
#162=ORIENTED_EDGE('',*,*,#161,.T.);
#163=ORIENTED_EDGE('',*,*,#140,.T.);
#164=EDGE_LOOP('',(#155,#156,#162,#163));
#165=FACE_OUTER_BOUND('',#164,.T.);
#166=ADVANCED_FACE('',(#165),#149,.F.);
#167=CARTESIAN_POINT('',(16.455000000000002,-5.164999999999999,0.0));
#168=CARTESIAN_POINT('',(16.455000000000002,-5.164999999999999,-2.2));
#169=CARTESIAN_POINT('',(16.455000000000002,-4.535000000000004,0.0));
#170=CARTESIAN_POINT('',(16.455000000000002,-4.535000000000004,-2.2));
#171=B_SPLINE_SURFACE_WITH_KNOTS('',1,1,((#167,#169),(#168,#170)),.UNSPECIFIED.,.F.,.F.,.U.,(2,2),(2,2),(0.0,2.2),(0.0,0.629999999999995),.UNSPECIFIED.);
#172=CARTESIAN_POINT('',(16.455000000000002,-5.164999999999999,0.0));
#173=DIRECTION('',(0.0,0.0,-1.0));
#174=VECTOR('',#173,2.2);
#175=LINE('',#172,#174);
#176=EDGE_CURVE('',#89,#121,#175,.T.);
#177=ORIENTED_EDGE('',*,*,#176,.F.);
#178=ORIENTED_EDGE('',*,*,#94,.T.);
#179=ORIENTED_EDGE('',*,*,#154,.T.);
#180=ORIENTED_EDGE('',*,*,#134,.T.);
#181=EDGE_LOOP('',(#177,#178,#179,#180));
#182=FACE_OUTER_BOUND('',#181,.T.);
#183=ADVANCED_FACE('',(#182),#171,.F.);
#184=CARTESIAN_POINT('',(17.085000000000004,-5.164999999999999,0.0));
#185=CARTESIAN_POINT('',(17.085000000000004,-5.164999999999999,-2.2));
#186=CARTESIAN_POINT('',(16.455000000000002,-5.164999999999999,0.0));
#187=CARTESIAN_POINT('',(16.455000000000002,-5.164999999999999,-2.2));
#188=B_SPLINE_SURFACE_WITH_KNOTS('',1,1,((#184,#186),(#185,#187)),.UNSPECIFIED.,.F.,.F.,.U.,(2,2),(2,2),(0.0,2.2),(0.0,0.630000000000003),.UNSPECIFIED.);
#189=CARTESIAN_POINT('',(17.085000000000004,-5.164999999999999,0.0));
#190=DIRECTION('',(0.0,0.0,-1.0));
#191=VECTOR('',#190,2.2);
#192=LINE('',#189,#191);
#193=EDGE_CURVE('',#73,#111,#192,.T.);
#194=ORIENTED_EDGE('',*,*,#193,.F.);
#195=ORIENTED_EDGE('',*,*,#100,.T.);
#196=ORIENTED_EDGE('',*,*,#176,.T.);
#197=ORIENTED_EDGE('',*,*,#126,.T.);
#198=EDGE_LOOP('',(#194,#195,#196,#197));
#199=FACE_OUTER_BOUND('',#198,.T.);
#200=ADVANCED_FACE('',(#199),#188,.F.);
#201=CARTESIAN_POINT('',(17.085000000000004,-5.164999999999999,-2.2));
#202=CARTESIAN_POINT('',(17.085000000000004,-5.164999999999999,0.0));
#203=CARTESIAN_POINT('',(17.085000000000004,-4.535000000000004,-2.2));
#204=CARTESIAN_POINT('',(17.085000000000004,-4.535000000000004,0.0));
#205=B_SPLINE_SURFACE_WITH_KNOTS('',1,1,((#201,#203),(#202,#204)),.UNSPECIFIED.,.F.,.F.,.U.,(2,2),(2,2),(0.0,2.2),(0.0,0.629999999999995),.UNSPECIFIED.);
#206=ORIENTED_EDGE('',*,*,#161,.F.);
#207=ORIENTED_EDGE('',*,*,#78,.T.);
#208=ORIENTED_EDGE('',*,*,#193,.T.);
#209=ORIENTED_EDGE('',*,*,#118,.T.);
#210=EDGE_LOOP('',(#206,#207,#208,#209));
#211=FACE_OUTER_BOUND('',#210,.T.);
#212=ADVANCED_FACE('',(#211),#205,.F.);
#213=CLOSED_SHELL('',(#104,#144,#166,#183,#200,#212));
#214=MANIFOLD_SOLID_BREP('1BFA',#213);
#215=COLOUR_RGB('30',1.0,0.5,0.0);
#216=SURFACE_STYLE_USAGE(.BOTH.,#217);
#217=SURFACE_SIDE_STYLE('NONE',(#218));
#218=SURFACE_STYLE_FILL_AREA(#219);
#219=FILL_AREA_STYLE('NONE',(#220));
#220=FILL_AREA_STYLE_COLOUR('NONE',#215);
#221=PRESENTATION_STYLE_ASSIGNMENT((#216));
#222=STYLED_ITEM('NONE',(#221),#214);
#223=MECHANICAL_DESIGN_GEOMETRIC_PRESENTATION_REPRESENTATION('NONE',(#222,#375,#526,#677,#828,#979,#1130,#1592),#28);
#224=PRESENTATION_LAYER_ASSIGNMENT('3D','None',(#214,#374,#525,#676,#827,#978,#1129,#1584));
#225=CARTESIAN_POINT('',(16.455000000000002,4.994999999999997,0.0));
#226=CARTESIAN_POINT('',(17.085000000000004,4.994999999999997,0.0));
#227=CARTESIAN_POINT('',(16.455000000000002,5.624999999999993,0.0));
#228=CARTESIAN_POINT('',(17.085000000000004,5.624999999999993,0.0));
#229=B_SPLINE_SURFACE_WITH_KNOTS('',1,1,((#225,#227),(#226,#228)),.UNSPECIFIED.,.F.,.F.,.U.,(2,2),(2,2),(0.0,0.630000000000003),(0.0,0.629999999999995),.UNSPECIFIED.);
#230=CARTESIAN_POINT('',(17.085000000000004,5.624999999999993,0.0));
#231=VERTEX_POINT('',#230);
#232=CARTESIAN_POINT('',(17.085000000000004,4.994999999999997,0.0));
#233=VERTEX_POINT('',#232);
#234=CARTESIAN_POINT('',(17.085000000000004,5.624999999999993,0.0));
#235=DIRECTION('',(0.0,-1.0,0.0));
#236=VECTOR('',#235,0.629999999999995);
#237=LINE('',#234,#236);
#238=EDGE_CURVE('',#231,#233,#237,.T.);
#239=ORIENTED_EDGE('',*,*,#238,.F.);
#240=CARTESIAN_POINT('',(16.455000000000002,5.624999999999993,0.0));
#241=VERTEX_POINT('',#240);
#242=CARTESIAN_POINT('',(16.455000000000002,5.624999999999993,0.0));
#243=DIRECTION('',(1.0,0.0,0.0));
#244=VECTOR('',#243,0.630000000000003);
#245=LINE('',#242,#244);
#246=EDGE_CURVE('',#241,#231,#245,.T.);
#247=ORIENTED_EDGE('',*,*,#246,.F.);
#248=CARTESIAN_POINT('',(16.455000000000002,4.994999999999997,0.0));
#249=VERTEX_POINT('',#248);
#250=CARTESIAN_POINT('',(16.455000000000002,4.994999999999997,0.0));
#251=DIRECTION('',(0.0,1.0,0.0));
#252=VECTOR('',#251,0.629999999999995);
#253=LINE('',#250,#252);
#254=EDGE_CURVE('',#249,#241,#253,.T.);
#255=ORIENTED_EDGE('',*,*,#254,.F.);
#256=CARTESIAN_POINT('',(17.085000000000004,4.994999999999997,0.0));
#257=DIRECTION('',(-1.0,0.0,0.0));
#258=VECTOR('',#257,0.630000000000003);
#259=LINE('',#256,#258);
#260=EDGE_CURVE('',#233,#249,#259,.T.);
#261=ORIENTED_EDGE('',*,*,#260,.F.);
#262=EDGE_LOOP('',(#239,#247,#255,#261));
#263=FACE_OUTER_BOUND('',#262,.T.);
#264=ADVANCED_FACE('',(#263),#229,.T.);
#265=CARTESIAN_POINT('',(16.455000000000002,4.994999999999997,-2.2));
#266=CARTESIAN_POINT('',(17.085000000000004,4.994999999999997,-2.2));
#267=CARTESIAN_POINT('',(16.455000000000002,5.624999999999993,-2.2));
#268=CARTESIAN_POINT('',(17.085000000000004,5.624999999999993,-2.2));
#269=B_SPLINE_SURFACE_WITH_KNOTS('',1,1,((#265,#267),(#266,#268)),.UNSPECIFIED.,.F.,.F.,.U.,(2,2),(2,2),(0.0,0.630000000000003),(0.0,0.629999999999995),.UNSPECIFIED.);
#270=CARTESIAN_POINT('',(17.085000000000004,4.994999999999997,-2.2));
#271=VERTEX_POINT('',#270);
#272=CARTESIAN_POINT('',(17.085000000000004,5.624999999999993,-2.2));
#273=VERTEX_POINT('',#272);
#274=CARTESIAN_POINT('',(17.085000000000004,4.994999999999997,-2.2));
#275=DIRECTION('',(0.0,1.0,0.0));
#276=VECTOR('',#275,0.629999999999995);
#277=LINE('',#274,#276);
#278=EDGE_CURVE('',#271,#273,#277,.T.);
#279=ORIENTED_EDGE('',*,*,#278,.F.);
#280=CARTESIAN_POINT('',(16.455000000000002,4.994999999999997,-2.2));
#281=VERTEX_POINT('',#280);
#282=CARTESIAN_POINT('',(16.455000000000002,4.994999999999997,-2.2));
#283=DIRECTION('',(1.0,0.0,0.0));
#284=VECTOR('',#283,0.630000000000003);
#285=LINE('',#282,#284);
#286=EDGE_CURVE('',#281,#271,#285,.T.);
#287=ORIENTED_EDGE('',*,*,#286,.F.);
#288=CARTESIAN_POINT('',(16.455000000000002,5.624999999999993,-2.2));
#289=VERTEX_POINT('',#288);
#290=CARTESIAN_POINT('',(16.455000000000002,5.624999999999993,-2.2));
#291=DIRECTION('',(0.0,-1.0,0.0));
#292=VECTOR('',#291,0.629999999999995);
#293=LINE('',#290,#292);
#294=EDGE_CURVE('',#289,#281,#293,.T.);
#295=ORIENTED_EDGE('',*,*,#294,.F.);
#296=CARTESIAN_POINT('',(17.085000000000004,5.624999999999993,-2.2));
#297=DIRECTION('',(-1.0,0.0,0.0));
#298=VECTOR('',#297,0.630000000000003);
#299=LINE('',#296,#298);
#300=EDGE_CURVE('',#273,#289,#299,.T.);
#301=ORIENTED_EDGE('',*,*,#300,.F.);
#302=EDGE_LOOP('',(#279,#287,#295,#301));
#303=FACE_OUTER_BOUND('',#302,.T.);
#304=ADVANCED_FACE('',(#303),#269,.F.);
#305=CARTESIAN_POINT('',(17.085000000000004,5.624999999999993,-2.2));
#306=CARTESIAN_POINT('',(17.085000000000004,5.624999999999993,0.0));
#307=CARTESIAN_POINT('',(16.455000000000002,5.624999999999993,-2.2));
#308=CARTESIAN_POINT('',(16.455000000000002,5.624999999999993,0.0));
#309=B_SPLINE_SURFACE_WITH_KNOTS('',1,1,((#305,#307),(#306,#308)),.UNSPECIFIED.,.F.,.F.,.U.,(2,2),(2,2),(0.0,2.2),(0.0,0.630000000000003),.UNSPECIFIED.);
#310=CARTESIAN_POINT('',(16.455000000000002,5.624999999999993,0.0));
#311=DIRECTION('',(0.0,0.0,-1.0));
#312=VECTOR('',#311,2.2);
#313=LINE('',#310,#312);
#314=EDGE_CURVE('',#241,#289,#313,.T.);
#315=ORIENTED_EDGE('',*,*,#314,.F.);
#316=ORIENTED_EDGE('',*,*,#246,.T.);
#317=CARTESIAN_POINT('',(17.085000000000004,5.624999999999993,0.0));
#318=DIRECTION('',(0.0,0.0,-1.0));
#319=VECTOR('',#318,2.2);
#320=LINE('',#317,#319);
#321=EDGE_CURVE('',#231,#273,#320,.T.);
#322=ORIENTED_EDGE('',*,*,#321,.T.);
#323=ORIENTED_EDGE('',*,*,#300,.T.);
#324=EDGE_LOOP('',(#315,#316,#322,#323));
#325=FACE_OUTER_BOUND('',#324,.T.);
#326=ADVANCED_FACE('',(#325),#309,.F.);
#327=CARTESIAN_POINT('',(16.455000000000002,4.994999999999997,0.0));
#328=CARTESIAN_POINT('',(16.455000000000002,4.994999999999997,-2.2));
#329=CARTESIAN_POINT('',(16.455000000000002,5.624999999999993,0.0));
#330=CARTESIAN_POINT('',(16.455000000000002,5.624999999999993,-2.2));
#331=B_SPLINE_SURFACE_WITH_KNOTS('',1,1,((#327,#329),(#328,#330)),.UNSPECIFIED.,.F.,.F.,.U.,(2,2),(2,2),(0.0,2.2),(0.0,0.629999999999995),.UNSPECIFIED.);
#332=CARTESIAN_POINT('',(16.455000000000002,4.994999999999997,0.0));
#333=DIRECTION('',(0.0,0.0,-1.0));
#334=VECTOR('',#333,2.2);
#335=LINE('',#332,#334);
#336=EDGE_CURVE('',#249,#281,#335,.T.);
#337=ORIENTED_EDGE('',*,*,#336,.F.);
#338=ORIENTED_EDGE('',*,*,#254,.T.);
#339=ORIENTED_EDGE('',*,*,#314,.T.);
#340=ORIENTED_EDGE('',*,*,#294,.T.);
#341=EDGE_LOOP('',(#337,#338,#339,#340));
#342=FACE_OUTER_BOUND('',#341,.T.);
#343=ADVANCED_FACE('',(#342),#331,.F.);
#344=CARTESIAN_POINT('',(17.085000000000004,4.994999999999997,0.0));
#345=CARTESIAN_POINT('',(17.085000000000004,4.994999999999997,-2.2));
#346=CARTESIAN_POINT('',(16.455000000000002,4.994999999999997,0.0));
#347=CARTESIAN_POINT('',(16.455000000000002,4.994999999999997,-2.2));
#348=B_SPLINE_SURFACE_WITH_KNOTS('',1,1,((#344,#346),(#345,#347)),.UNSPECIFIED.,.F.,.F.,.U.,(2,2),(2,2),(0.0,2.2),(0.0,0.630000000000003),.UNSPECIFIED.);
#349=CARTESIAN_POINT('',(17.085000000000004,4.994999999999997,0.0));
#350=DIRECTION('',(0.0,0.0,-1.0));
#351=VECTOR('',#350,2.2);
#352=LINE('',#349,#351);
#353=EDGE_CURVE('',#233,#271,#352,.T.);
#354=ORIENTED_EDGE('',*,*,#353,.F.);
#355=ORIENTED_EDGE('',*,*,#260,.T.);
#356=ORIENTED_EDGE('',*,*,#336,.T.);
#357=ORIENTED_EDGE('',*,*,#286,.T.);
#358=EDGE_LOOP('',(#354,#355,#356,#357));
#359=FACE_OUTER_BOUND('',#358,.T.);
#360=ADVANCED_FACE('',(#359),#348,.F.);
#361=CARTESIAN_POINT('',(17.085000000000004,4.994999999999997,-2.2));
#362=CARTESIAN_POINT('',(17.085000000000004,4.994999999999997,0.0));
#363=CARTESIAN_POINT('',(17.085000000000004,5.624999999999993,-2.2));
#364=CARTESIAN_POINT('',(17.085000000000004,5.624999999999993,0.0));
#365=B_SPLINE_SURFACE_WITH_KNOTS('',1,1,((#361,#363),(#362,#364)),.UNSPECIFIED.,.F.,.F.,.U.,(2,2),(2,2),(0.0,2.2),(0.0,0.629999999999995),.UNSPECIFIED.);
#366=ORIENTED_EDGE('',*,*,#321,.F.);
#367=ORIENTED_EDGE('',*,*,#238,.T.);
#368=ORIENTED_EDGE('',*,*,#353,.T.);
#369=ORIENTED_EDGE('',*,*,#278,.T.);
#370=EDGE_LOOP('',(#366,#367,#368,#369));
#371=FACE_OUTER_BOUND('',#370,.T.);
#372=ADVANCED_FACE('',(#371),#365,.F.);
#373=CLOSED_SHELL('',(#264,#304,#326,#343,#360,#372));
#374=MANIFOLD_SOLID_BREP('1BF6',#373);
#375=STYLED_ITEM('NONE',(#221),#374);
#376=CARTESIAN_POINT('',(-18.345000000000002,-5.164999999999999,0.0));
#377=CARTESIAN_POINT('',(-17.715,-5.164999999999999,0.0));
#378=CARTESIAN_POINT('',(-18.345000000000002,-4.535000000000004,0.0));
#379=CARTESIAN_POINT('',(-17.715,-4.535000000000004,0.0));
#380=B_SPLINE_SURFACE_WITH_KNOTS('',1,1,((#376,#378),(#377,#379)),.UNSPECIFIED.,.F.,.F.,.U.,(2,2),(2,2),(0.0,0.630000000000003),(0.0,0.629999999999995),.UNSPECIFIED.);
#381=CARTESIAN_POINT('',(-17.715,-4.535000000000004,0.0));
#382=VERTEX_POINT('',#381);
#383=CARTESIAN_POINT('',(-17.715,-5.164999999999999,0.0));
#384=VERTEX_POINT('',#383);
#385=CARTESIAN_POINT('',(-17.715,-4.535000000000004,0.0));
#386=DIRECTION('',(0.0,-1.0,0.0));
#387=VECTOR('',#386,0.629999999999995);
#388=LINE('',#385,#387);
#389=EDGE_CURVE('',#382,#384,#388,.T.);
#390=ORIENTED_EDGE('',*,*,#389,.F.);
#391=CARTESIAN_POINT('',(-18.345000000000002,-4.535000000000004,0.0));
#392=VERTEX_POINT('',#391);
#393=CARTESIAN_POINT('',(-18.345000000000002,-4.535000000000004,0.0));
#394=DIRECTION('',(1.0,0.0,0.0));
#395=VECTOR('',#394,0.630000000000003);
#396=LINE('',#393,#395);
#397=EDGE_CURVE('',#392,#382,#396,.T.);
#398=ORIENTED_EDGE('',*,*,#397,.F.);
#399=CARTESIAN_POINT('',(-18.345000000000002,-5.164999999999999,0.0));
#400=VERTEX_POINT('',#399);
#401=CARTESIAN_POINT('',(-18.345000000000002,-5.164999999999999,0.0));
#402=DIRECTION('',(0.0,1.0,0.0));
#403=VECTOR('',#402,0.629999999999995);
#404=LINE('',#401,#403);
#405=EDGE_CURVE('',#400,#392,#404,.T.);
#406=ORIENTED_EDGE('',*,*,#405,.F.);
#407=CARTESIAN_POINT('',(-17.715,-5.164999999999999,0.0));
#408=DIRECTION('',(-1.0,0.0,0.0));
#409=VECTOR('',#408,0.630000000000003);
#410=LINE('',#407,#409);
#411=EDGE_CURVE('',#384,#400,#410,.T.);
#412=ORIENTED_EDGE('',*,*,#411,.F.);
#413=EDGE_LOOP('',(#390,#398,#406,#412));
#414=FACE_OUTER_BOUND('',#413,.T.);
#415=ADVANCED_FACE('',(#414),#380,.T.);
#416=CARTESIAN_POINT('',(-18.345000000000002,-5.164999999999999,-2.2));
#417=CARTESIAN_POINT('',(-17.715,-5.164999999999999,-2.2));
#418=CARTESIAN_POINT('',(-18.345000000000002,-4.535000000000004,-2.2));
#419=CARTESIAN_POINT('',(-17.715,-4.535000000000004,-2.2));
#420=B_SPLINE_SURFACE_WITH_KNOTS('',1,1,((#416,#418),(#417,#419)),.UNSPECIFIED.,.F.,.F.,.U.,(2,2),(2,2),(0.0,0.630000000000003),(0.0,0.629999999999995),.UNSPECIFIED.);
#421=CARTESIAN_POINT('',(-17.715,-5.164999999999999,-2.2));
#422=VERTEX_POINT('',#421);
#423=CARTESIAN_POINT('',(-17.715,-4.535000000000004,-2.2));
#424=VERTEX_POINT('',#423);
#425=CARTESIAN_POINT('',(-17.715,-5.164999999999999,-2.2));
#426=DIRECTION('',(0.0,1.0,0.0));
#427=VECTOR('',#426,0.629999999999995);
#428=LINE('',#425,#427);
#429=EDGE_CURVE('',#422,#424,#428,.T.);
#430=ORIENTED_EDGE('',*,*,#429,.F.);
#431=CARTESIAN_POINT('',(-18.345000000000002,-5.164999999999999,-2.2));
#432=VERTEX_POINT('',#431);
#433=CARTESIAN_POINT('',(-18.345000000000002,-5.164999999999999,-2.2));
#434=DIRECTION('',(1.0,0.0,0.0));
#435=VECTOR('',#434,0.630000000000003);
#436=LINE('',#433,#435);
#437=EDGE_CURVE('',#432,#422,#436,.T.);
#438=ORIENTED_EDGE('',*,*,#437,.F.);
#439=CARTESIAN_POINT('',(-18.345000000000002,-4.535000000000004,-2.2));
#440=VERTEX_POINT('',#439);
#441=CARTESIAN_POINT('',(-18.345000000000002,-4.535000000000004,-2.2));
#442=DIRECTION('',(0.0,-1.0,0.0));
#443=VECTOR('',#442,0.629999999999995);
#444=LINE('',#441,#443);
#445=EDGE_CURVE('',#440,#432,#444,.T.);
#446=ORIENTED_EDGE('',*,*,#445,.F.);
#447=CARTESIAN_POINT('',(-17.715,-4.535000000000004,-2.2));
#448=DIRECTION('',(-1.0,0.0,0.0));
#449=VECTOR('',#448,0.630000000000003);
#450=LINE('',#447,#449);
#451=EDGE_CURVE('',#424,#440,#450,.T.);
#452=ORIENTED_EDGE('',*,*,#451,.F.);
#453=EDGE_LOOP('',(#430,#438,#446,#452));
#454=FACE_OUTER_BOUND('',#453,.T.);
#455=ADVANCED_FACE('',(#454),#420,.F.);
#456=CARTESIAN_POINT('',(-17.715,-4.535000000000004,-2.2));
#457=CARTESIAN_POINT('',(-17.715,-4.535000000000004,0.0));
#458=CARTESIAN_POINT('',(-18.345000000000002,-4.535000000000004,-2.2));
#459=CARTESIAN_POINT('',(-18.345000000000002,-4.535000000000004,0.0));
#460=B_SPLINE_SURFACE_WITH_KNOTS('',1,1,((#456,#458),(#457,#459)),.UNSPECIFIED.,.F.,.F.,.U.,(2,2),(2,2),(0.0,2.2),(0.0,0.630000000000003),.UNSPECIFIED.);
#461=CARTESIAN_POINT('',(-18.345000000000002,-4.535000000000004,0.0));
#462=DIRECTION('',(0.0,0.0,-1.0));
#463=VECTOR('',#462,2.2);
#464=LINE('',#461,#463);
#465=EDGE_CURVE('',#392,#440,#464,.T.);
#466=ORIENTED_EDGE('',*,*,#465,.F.);
#467=ORIENTED_EDGE('',*,*,#397,.T.);
#468=CARTESIAN_POINT('',(-17.715,-4.535000000000004,0.0));
#469=DIRECTION('',(0.0,0.0,-1.0));
#470=VECTOR('',#469,2.2);
#471=LINE('',#468,#470);
#472=EDGE_CURVE('',#382,#424,#471,.T.);
#473=ORIENTED_EDGE('',*,*,#472,.T.);
#474=ORIENTED_EDGE('',*,*,#451,.T.);
#475=EDGE_LOOP('',(#466,#467,#473,#474));
#476=FACE_OUTER_BOUND('',#475,.T.);
#477=ADVANCED_FACE('',(#476),#460,.F.);
#478=CARTESIAN_POINT('',(-18.345000000000002,-5.164999999999999,0.0));
#479=CARTESIAN_POINT('',(-18.345000000000002,-5.164999999999999,-2.2));
#480=CARTESIAN_POINT('',(-18.345000000000002,-4.535000000000004,0.0));
#481=CARTESIAN_POINT('',(-18.345000000000002,-4.535000000000004,-2.2));
#482=B_SPLINE_SURFACE_WITH_KNOTS('',1,1,((#478,#480),(#479,#481)),.UNSPECIFIED.,.F.,.F.,.U.,(2,2),(2,2),(0.0,2.2),(0.0,0.629999999999995),.UNSPECIFIED.);
#483=CARTESIAN_POINT('',(-18.345000000000002,-5.164999999999999,0.0));
#484=DIRECTION('',(0.0,0.0,-1.0));
#485=VECTOR('',#484,2.2);
#486=LINE('',#483,#485);
#487=EDGE_CURVE('',#400,#432,#486,.T.);
#488=ORIENTED_EDGE('',*,*,#487,.F.);
#489=ORIENTED_EDGE('',*,*,#405,.T.);
#490=ORIENTED_EDGE('',*,*,#465,.T.);
#491=ORIENTED_EDGE('',*,*,#445,.T.);
#492=EDGE_LOOP('',(#488,#489,#490,#491));
#493=FACE_OUTER_BOUND('',#492,.T.);
#494=ADVANCED_FACE('',(#493),#482,.F.);
#495=CARTESIAN_POINT('',(-17.715,-5.164999999999999,0.0));
#496=CARTESIAN_POINT('',(-17.715,-5.164999999999999,-2.2));
#497=CARTESIAN_POINT('',(-18.345000000000002,-5.164999999999999,0.0));
#498=CARTESIAN_POINT('',(-18.345000000000002,-5.164999999999999,-2.2));
#499=B_SPLINE_SURFACE_WITH_KNOTS('',1,1,((#495,#497),(#496,#498)),.UNSPECIFIED.,.F.,.F.,.U.,(2,2),(2,2),(0.0,2.2),(0.0,0.630000000000003),.UNSPECIFIED.);
#500=CARTESIAN_POINT('',(-17.715,-5.164999999999999,0.0));
#501=DIRECTION('',(0.0,0.0,-1.0));
#502=VECTOR('',#501,2.2);
#503=LINE('',#500,#502);
#504=EDGE_CURVE('',#384,#422,#503,.T.);
#505=ORIENTED_EDGE('',*,*,#504,.F.);
#506=ORIENTED_EDGE('',*,*,#411,.T.);
#507=ORIENTED_EDGE('',*,*,#487,.T.);
#508=ORIENTED_EDGE('',*,*,#437,.T.);
#509=EDGE_LOOP('',(#505,#506,#507,#508));
#510=FACE_OUTER_BOUND('',#509,.T.);
#511=ADVANCED_FACE('',(#510),#499,.F.);
#512=CARTESIAN_POINT('',(-17.715,-5.164999999999999,-2.2));
#513=CARTESIAN_POINT('',(-17.715,-5.164999999999999,0.0));
#514=CARTESIAN_POINT('',(-17.715,-4.535000000000004,-2.2));
#515=CARTESIAN_POINT('',(-17.715,-4.535000000000004,0.0));
#516=B_SPLINE_SURFACE_WITH_KNOTS('',1,1,((#512,#514),(#513,#515)),.UNSPECIFIED.,.F.,.F.,.U.,(2,2),(2,2),(0.0,2.2),(0.0,0.629999999999995),.UNSPECIFIED.);
#517=ORIENTED_EDGE('',*,*,#472,.F.);
#518=ORIENTED_EDGE('',*,*,#389,.T.);
#519=ORIENTED_EDGE('',*,*,#504,.T.);
#520=ORIENTED_EDGE('',*,*,#429,.T.);
#521=EDGE_LOOP('',(#517,#518,#519,#520));
#522=FACE_OUTER_BOUND('',#521,.T.);
#523=ADVANCED_FACE('',(#522),#516,.F.);
#524=CLOSED_SHELL('',(#415,#455,#477,#494,#511,#523));
#525=MANIFOLD_SOLID_BREP('1BF2',#524);
#526=STYLED_ITEM('NONE',(#221),#525);
#527=CARTESIAN_POINT('',(-18.345000000000002,-2.625,0.0));
#528=CARTESIAN_POINT('',(-17.715,-2.625,0.0));
#529=CARTESIAN_POINT('',(-18.345000000000002,-1.995000000000005,0.0));
#530=CARTESIAN_POINT('',(-17.715,-1.995000000000005,0.0));
#531=B_SPLINE_SURFACE_WITH_KNOTS('',1,1,((#527,#529),(#528,#530)),.UNSPECIFIED.,.F.,.F.,.U.,(2,2),(2,2),(0.0,0.630000000000003),(0.0,0.629999999999995),.UNSPECIFIED.);
#532=CARTESIAN_POINT('',(-17.715,-1.995000000000005,0.0));
#533=VERTEX_POINT('',#532);
#534=CARTESIAN_POINT('',(-17.715,-2.625,0.0));
#535=VERTEX_POINT('',#534);
#536=CARTESIAN_POINT('',(-17.715,-1.995000000000005,0.0));
#537=DIRECTION('',(0.0,-1.0,0.0));
#538=VECTOR('',#537,0.629999999999995);
#539=LINE('',#536,#538);
#540=EDGE_CURVE('',#533,#535,#539,.T.);
#541=ORIENTED_EDGE('',*,*,#540,.F.);
#542=CARTESIAN_POINT('',(-18.345000000000002,-1.995000000000005,0.0));
#543=VERTEX_POINT('',#542);
#544=CARTESIAN_POINT('',(-18.345000000000002,-1.995000000000005,0.0));
#545=DIRECTION('',(1.0,0.0,0.0));
#546=VECTOR('',#545,0.630000000000003);
#547=LINE('',#544,#546);
#548=EDGE_CURVE('',#543,#533,#547,.T.);
#549=ORIENTED_EDGE('',*,*,#548,.F.);
#550=CARTESIAN_POINT('',(-18.345000000000002,-2.625,0.0));
#551=VERTEX_POINT('',#550);
#552=CARTESIAN_POINT('',(-18.345000000000002,-2.625,0.0));
#553=DIRECTION('',(0.0,1.0,0.0));
#554=VECTOR('',#553,0.629999999999995);
#555=LINE('',#552,#554);
#556=EDGE_CURVE('',#551,#543,#555,.T.);
#557=ORIENTED_EDGE('',*,*,#556,.F.);
#558=CARTESIAN_POINT('',(-17.715,-2.625,0.0));
#559=DIRECTION('',(-1.0,0.0,0.0));
#560=VECTOR('',#559,0.630000000000003);
#561=LINE('',#558,#560);
#562=EDGE_CURVE('',#535,#551,#561,.T.);
#563=ORIENTED_EDGE('',*,*,#562,.F.);
#564=EDGE_LOOP('',(#541,#549,#557,#563));
#565=FACE_OUTER_BOUND('',#564,.T.);
#566=ADVANCED_FACE('',(#565),#531,.T.);
#567=CARTESIAN_POINT('',(-18.345000000000002,-2.625,-2.2));
#568=CARTESIAN_POINT('',(-17.715,-2.625,-2.2));
#569=CARTESIAN_POINT('',(-18.345000000000002,-1.995000000000005,-2.2));
#570=CARTESIAN_POINT('',(-17.715,-1.995000000000005,-2.2));
#571=B_SPLINE_SURFACE_WITH_KNOTS('',1,1,((#567,#569),(#568,#570)),.UNSPECIFIED.,.F.,.F.,.U.,(2,2),(2,2),(0.0,0.630000000000003),(0.0,0.629999999999995),.UNSPECIFIED.);
#572=CARTESIAN_POINT('',(-17.715,-2.625,-2.2));
#573=VERTEX_POINT('',#572);
#574=CARTESIAN_POINT('',(-17.715,-1.995000000000005,-2.2));
#575=VERTEX_POINT('',#574);
#576=CARTESIAN_POINT('',(-17.715,-2.625,-2.2));
#577=DIRECTION('',(0.0,1.0,0.0));
#578=VECTOR('',#577,0.629999999999995);
#579=LINE('',#576,#578);
#580=EDGE_CURVE('',#573,#575,#579,.T.);
#581=ORIENTED_EDGE('',*,*,#580,.F.);
#582=CARTESIAN_POINT('',(-18.345000000000002,-2.625,-2.2));
#583=VERTEX_POINT('',#582);
#584=CARTESIAN_POINT('',(-18.345000000000002,-2.625,-2.2));
#585=DIRECTION('',(1.0,0.0,0.0));
#586=VECTOR('',#585,0.630000000000003);
#587=LINE('',#584,#586);
#588=EDGE_CURVE('',#583,#573,#587,.T.);
#589=ORIENTED_EDGE('',*,*,#588,.F.);
#590=CARTESIAN_POINT('',(-18.345000000000002,-1.995000000000005,-2.2));
#591=VERTEX_POINT('',#590);
#592=CARTESIAN_POINT('',(-18.345000000000002,-1.995000000000005,-2.2));
#593=DIRECTION('',(0.0,-1.0,0.0));
#594=VECTOR('',#593,0.629999999999995);
#595=LINE('',#592,#594);
#596=EDGE_CURVE('',#591,#583,#595,.T.);
#597=ORIENTED_EDGE('',*,*,#596,.F.);
#598=CARTESIAN_POINT('',(-17.715,-1.995000000000005,-2.2));
#599=DIRECTION('',(-1.0,0.0,0.0));
#600=VECTOR('',#599,0.630000000000003);
#601=LINE('',#598,#600);
#602=EDGE_CURVE('',#575,#591,#601,.T.);
#603=ORIENTED_EDGE('',*,*,#602,.F.);
#604=EDGE_LOOP('',(#581,#589,#597,#603));
#605=FACE_OUTER_BOUND('',#604,.T.);
#606=ADVANCED_FACE('',(#605),#571,.F.);
#607=CARTESIAN_POINT('',(-17.715,-1.995000000000005,-2.2));
#608=CARTESIAN_POINT('',(-17.715,-1.995000000000005,0.0));
#609=CARTESIAN_POINT('',(-18.345000000000002,-1.995000000000005,-2.2));
#610=CARTESIAN_POINT('',(-18.345000000000002,-1.995000000000005,0.0));
#611=B_SPLINE_SURFACE_WITH_KNOTS('',1,1,((#607,#609),(#608,#610)),.UNSPECIFIED.,.F.,.F.,.U.,(2,2),(2,2),(0.0,2.2),(0.0,0.630000000000003),.UNSPECIFIED.);
#612=CARTESIAN_POINT('',(-18.345000000000002,-1.995000000000005,0.0));
#613=DIRECTION('',(0.0,0.0,-1.0));
#614=VECTOR('',#613,2.2);
#615=LINE('',#612,#614);
#616=EDGE_CURVE('',#543,#591,#615,.T.);
#617=ORIENTED_EDGE('',*,*,#616,.F.);
#618=ORIENTED_EDGE('',*,*,#548,.T.);
#619=CARTESIAN_POINT('',(-17.715,-1.995000000000005,0.0));
#620=DIRECTION('',(0.0,0.0,-1.0));
#621=VECTOR('',#620,2.2);
#622=LINE('',#619,#621);
#623=EDGE_CURVE('',#533,#575,#622,.T.);
#624=ORIENTED_EDGE('',*,*,#623,.T.);
#625=ORIENTED_EDGE('',*,*,#602,.T.);
#626=EDGE_LOOP('',(#617,#618,#624,#625));
#627=FACE_OUTER_BOUND('',#626,.T.);
#628=ADVANCED_FACE('',(#627),#611,.F.);
#629=CARTESIAN_POINT('',(-18.345000000000002,-2.625,0.0));
#630=CARTESIAN_POINT('',(-18.345000000000002,-2.625,-2.2));
#631=CARTESIAN_POINT('',(-18.345000000000002,-1.995000000000005,0.0));
#632=CARTESIAN_POINT('',(-18.345000000000002,-1.995000000000005,-2.2));
#633=B_SPLINE_SURFACE_WITH_KNOTS('',1,1,((#629,#631),(#630,#632)),.UNSPECIFIED.,.F.,.F.,.U.,(2,2),(2,2),(0.0,2.2),(0.0,0.629999999999995),.UNSPECIFIED.);
#634=CARTESIAN_POINT('',(-18.345000000000002,-2.625,0.0));
#635=DIRECTION('',(0.0,0.0,-1.0));
#636=VECTOR('',#635,2.2);
#637=LINE('',#634,#636);
#638=EDGE_CURVE('',#551,#583,#637,.T.);
#639=ORIENTED_EDGE('',*,*,#638,.F.);
#640=ORIENTED_EDGE('',*,*,#556,.T.);
#641=ORIENTED_EDGE('',*,*,#616,.T.);
#642=ORIENTED_EDGE('',*,*,#596,.T.);
#643=EDGE_LOOP('',(#639,#640,#641,#642));
#644=FACE_OUTER_BOUND('',#643,.T.);
#645=ADVANCED_FACE('',(#644),#633,.F.);
#646=CARTESIAN_POINT('',(-17.715,-2.625,0.0));
#647=CARTESIAN_POINT('',(-17.715,-2.625,-2.2));
#648=CARTESIAN_POINT('',(-18.345000000000002,-2.625,0.0));
#649=CARTESIAN_POINT('',(-18.345000000000002,-2.625,-2.2));
#650=B_SPLINE_SURFACE_WITH_KNOTS('',1,1,((#646,#648),(#647,#649)),.UNSPECIFIED.,.F.,.F.,.U.,(2,2),(2,2),(0.0,2.2),(0.0,0.630000000000003),.UNSPECIFIED.);
#651=CARTESIAN_POINT('',(-17.715,-2.625,0.0));
#652=DIRECTION('',(0.0,0.0,-1.0));
#653=VECTOR('',#652,2.2);
#654=LINE('',#651,#653);
#655=EDGE_CURVE('',#535,#573,#654,.T.);
#656=ORIENTED_EDGE('',*,*,#655,.F.);
#657=ORIENTED_EDGE('',*,*,#562,.T.);
#658=ORIENTED_EDGE('',*,*,#638,.T.);
#659=ORIENTED_EDGE('',*,*,#588,.T.);
#660=EDGE_LOOP('',(#656,#657,#658,#659));
#661=FACE_OUTER_BOUND('',#660,.T.);
#662=ADVANCED_FACE('',(#661),#650,.F.);
#663=CARTESIAN_POINT('',(-17.715,-2.625,-2.2));
#664=CARTESIAN_POINT('',(-17.715,-2.625,0.0));
#665=CARTESIAN_POINT('',(-17.715,-1.995000000000005,-2.2));
#666=CARTESIAN_POINT('',(-17.715,-1.995000000000005,0.0));
#667=B_SPLINE_SURFACE_WITH_KNOTS('',1,1,((#663,#665),(#664,#666)),.UNSPECIFIED.,.F.,.F.,.U.,(2,2),(2,2),(0.0,2.2),(0.0,0.629999999999995),.UNSPECIFIED.);
#668=ORIENTED_EDGE('',*,*,#623,.F.);
#669=ORIENTED_EDGE('',*,*,#540,.T.);
#670=ORIENTED_EDGE('',*,*,#655,.T.);
#671=ORIENTED_EDGE('',*,*,#580,.T.);
#672=EDGE_LOOP('',(#668,#669,#670,#671));
#673=FACE_OUTER_BOUND('',#672,.T.);
#674=ADVANCED_FACE('',(#673),#667,.F.);
#675=CLOSED_SHELL('',(#566,#606,#628,#645,#662,#674));
#676=MANIFOLD_SOLID_BREP('1BEE',#675);
#677=STYLED_ITEM('NONE',(#221),#676);
#678=CARTESIAN_POINT('',(-18.344999999999995,-0.085000000000001,0.0));
#679=CARTESIAN_POINT('',(-17.714999999999993,-0.085000000000001,0.0));
#680=CARTESIAN_POINT('',(-18.344999999999995,0.544999999999995,0.0));
#681=CARTESIAN_POINT('',(-17.714999999999993,0.544999999999995,0.0));
#682=B_SPLINE_SURFACE_WITH_KNOTS('',1,1,((#678,#680),(#679,#681)),.UNSPECIFIED.,.F.,.F.,.U.,(2,2),(2,2),(0.0,0.630000000000003),(0.0,0.629999999999995),.UNSPECIFIED.);
#683=CARTESIAN_POINT('',(-17.714999999999993,0.544999999999995,0.0));
#684=VERTEX_POINT('',#683);
#685=CARTESIAN_POINT('',(-17.714999999999993,-0.085000000000001,0.0));
#686=VERTEX_POINT('',#685);
#687=CARTESIAN_POINT('',(-17.714999999999993,0.544999999999995,0.0));
#688=DIRECTION('',(0.0,-1.0,0.0));
#689=VECTOR('',#688,0.629999999999995);
#690=LINE('',#687,#689);
#691=EDGE_CURVE('',#684,#686,#690,.T.);
#692=ORIENTED_EDGE('',*,*,#691,.F.);
#693=CARTESIAN_POINT('',(-18.344999999999995,0.544999999999995,0.0));
#694=VERTEX_POINT('',#693);
#695=CARTESIAN_POINT('',(-18.344999999999995,0.544999999999995,0.0));
#696=DIRECTION('',(1.0,0.0,0.0));
#697=VECTOR('',#696,0.630000000000003);
#698=LINE('',#695,#697);
#699=EDGE_CURVE('',#694,#684,#698,.T.);
#700=ORIENTED_EDGE('',*,*,#699,.F.);
#701=CARTESIAN_POINT('',(-18.344999999999995,-0.085000000000001,0.0));
#702=VERTEX_POINT('',#701);
#703=CARTESIAN_POINT('',(-18.344999999999995,-0.085000000000001,0.0));
#704=DIRECTION('',(0.0,1.0,0.0));
#705=VECTOR('',#704,0.629999999999995);
#706=LINE('',#703,#705);
#707=EDGE_CURVE('',#702,#694,#706,.T.);
#708=ORIENTED_EDGE('',*,*,#707,.F.);
#709=CARTESIAN_POINT('',(-17.714999999999993,-0.085000000000001,0.0));
#710=DIRECTION('',(-1.0,0.0,0.0));
#711=VECTOR('',#710,0.630000000000003);
#712=LINE('',#709,#711);
#713=EDGE_CURVE('',#686,#702,#712,.T.);
#714=ORIENTED_EDGE('',*,*,#713,.F.);
#715=EDGE_LOOP('',(#692,#700,#708,#714));
#716=FACE_OUTER_BOUND('',#715,.T.);
#717=ADVANCED_FACE('',(#716),#682,.T.);
#718=CARTESIAN_POINT('',(-18.344999999999995,-0.085000000000001,-2.2));
#719=CARTESIAN_POINT('',(-17.714999999999993,-0.085000000000001,-2.2));
#720=CARTESIAN_POINT('',(-18.344999999999995,0.544999999999995,-2.2));
#721=CARTESIAN_POINT('',(-17.714999999999993,0.544999999999995,-2.2));
#722=B_SPLINE_SURFACE_WITH_KNOTS('',1,1,((#718,#720),(#719,#721)),.UNSPECIFIED.,.F.,.F.,.U.,(2,2),(2,2),(0.0,0.630000000000003),(0.0,0.629999999999995),.UNSPECIFIED.);
#723=CARTESIAN_POINT('',(-17.714999999999993,-0.085000000000001,-2.2));
#724=VERTEX_POINT('',#723);
#725=CARTESIAN_POINT('',(-17.714999999999993,0.544999999999995,-2.2));
#726=VERTEX_POINT('',#725);
#727=CARTESIAN_POINT('',(-17.714999999999993,-0.085000000000001,-2.2));
#728=DIRECTION('',(0.0,1.0,0.0));
#729=VECTOR('',#728,0.629999999999995);
#730=LINE('',#727,#729);
#731=EDGE_CURVE('',#724,#726,#730,.T.);
#732=ORIENTED_EDGE('',*,*,#731,.F.);
#733=CARTESIAN_POINT('',(-18.344999999999995,-0.085000000000001,-2.2));
#734=VERTEX_POINT('',#733);
#735=CARTESIAN_POINT('',(-18.344999999999995,-0.085000000000001,-2.2));
#736=DIRECTION('',(1.0,0.0,0.0));
#737=VECTOR('',#736,0.630000000000003);
#738=LINE('',#735,#737);
#739=EDGE_CURVE('',#734,#724,#738,.T.);
#740=ORIENTED_EDGE('',*,*,#739,.F.);
#741=CARTESIAN_POINT('',(-18.344999999999995,0.544999999999995,-2.2));
#742=VERTEX_POINT('',#741);
#743=CARTESIAN_POINT('',(-18.344999999999995,0.544999999999995,-2.2));
#744=DIRECTION('',(0.0,-1.0,0.0));
#745=VECTOR('',#744,0.629999999999995);
#746=LINE('',#743,#745);
#747=EDGE_CURVE('',#742,#734,#746,.T.);
#748=ORIENTED_EDGE('',*,*,#747,.F.);
#749=CARTESIAN_POINT('',(-17.714999999999993,0.544999999999995,-2.2));
#750=DIRECTION('',(-1.0,0.0,0.0));
#751=VECTOR('',#750,0.630000000000003);
#752=LINE('',#749,#751);
#753=EDGE_CURVE('',#726,#742,#752,.T.);
#754=ORIENTED_EDGE('',*,*,#753,.F.);
#755=EDGE_LOOP('',(#732,#740,#748,#754));
#756=FACE_OUTER_BOUND('',#755,.T.);
#757=ADVANCED_FACE('',(#756),#722,.F.);
#758=CARTESIAN_POINT('',(-17.714999999999993,0.544999999999995,-2.2));
#759=CARTESIAN_POINT('',(-17.714999999999993,0.544999999999995,0.0));
#760=CARTESIAN_POINT('',(-18.344999999999995,0.544999999999995,-2.2));
#761=CARTESIAN_POINT('',(-18.344999999999995,0.544999999999995,0.0));
#762=B_SPLINE_SURFACE_WITH_KNOTS('',1,1,((#758,#760),(#759,#761)),.UNSPECIFIED.,.F.,.F.,.U.,(2,2),(2,2),(0.0,2.2),(0.0,0.630000000000003),.UNSPECIFIED.);
#763=CARTESIAN_POINT('',(-18.344999999999995,0.544999999999995,0.0));
#764=DIRECTION('',(0.0,0.0,-1.0));
#765=VECTOR('',#764,2.2);
#766=LINE('',#763,#765);
#767=EDGE_CURVE('',#694,#742,#766,.T.);
#768=ORIENTED_EDGE('',*,*,#767,.F.);
#769=ORIENTED_EDGE('',*,*,#699,.T.);
#770=CARTESIAN_POINT('',(-17.714999999999993,0.544999999999995,0.0));
#771=DIRECTION('',(0.0,0.0,-1.0));
#772=VECTOR('',#771,2.2);
#773=LINE('',#770,#772);
#774=EDGE_CURVE('',#684,#726,#773,.T.);
#775=ORIENTED_EDGE('',*,*,#774,.T.);
#776=ORIENTED_EDGE('',*,*,#753,.T.);
#777=EDGE_LOOP('',(#768,#769,#775,#776));
#778=FACE_OUTER_BOUND('',#777,.T.);
#779=ADVANCED_FACE('',(#778),#762,.F.);
#780=CARTESIAN_POINT('',(-18.344999999999995,-0.085000000000001,0.0));
#781=CARTESIAN_POINT('',(-18.344999999999995,-0.085000000000001,-2.2));
#782=CARTESIAN_POINT('',(-18.344999999999995,0.544999999999995,0.0));
#783=CARTESIAN_POINT('',(-18.344999999999995,0.544999999999995,-2.2));
#784=B_SPLINE_SURFACE_WITH_KNOTS('',1,1,((#780,#782),(#781,#783)),.UNSPECIFIED.,.F.,.F.,.U.,(2,2),(2,2),(0.0,2.2),(0.0,0.629999999999995),.UNSPECIFIED.);
#785=CARTESIAN_POINT('',(-18.344999999999995,-0.085000000000001,0.0));
#786=DIRECTION('',(0.0,0.0,-1.0));
#787=VECTOR('',#786,2.2);
#788=LINE('',#785,#787);
#789=EDGE_CURVE('',#702,#734,#788,.T.);
#790=ORIENTED_EDGE('',*,*,#789,.F.);
#791=ORIENTED_EDGE('',*,*,#707,.T.);
#792=ORIENTED_EDGE('',*,*,#767,.T.);
#793=ORIENTED_EDGE('',*,*,#747,.T.);
#794=EDGE_LOOP('',(#790,#791,#792,#793));
#795=FACE_OUTER_BOUND('',#794,.T.);
#796=ADVANCED_FACE('',(#795),#784,.F.);
#797=CARTESIAN_POINT('',(-17.714999999999993,-0.085000000000001,0.0));
#798=CARTESIAN_POINT('',(-17.714999999999993,-0.085000000000001,-2.2));
#799=CARTESIAN_POINT('',(-18.344999999999995,-0.085000000000001,0.0));
#800=CARTESIAN_POINT('',(-18.344999999999995,-0.085000000000001,-2.2));
#801=B_SPLINE_SURFACE_WITH_KNOTS('',1,1,((#797,#799),(#798,#800)),.UNSPECIFIED.,.F.,.F.,.U.,(2,2),(2,2),(0.0,2.2),(0.0,0.630000000000003),.UNSPECIFIED.);
#802=CARTESIAN_POINT('',(-17.714999999999993,-0.085000000000001,0.0));
#803=DIRECTION('',(0.0,0.0,-1.0));
#804=VECTOR('',#803,2.2);
#805=LINE('',#802,#804);
#806=EDGE_CURVE('',#686,#724,#805,.T.);
#807=ORIENTED_EDGE('',*,*,#806,.F.);
#808=ORIENTED_EDGE('',*,*,#713,.T.);
#809=ORIENTED_EDGE('',*,*,#789,.T.);
#810=ORIENTED_EDGE('',*,*,#739,.T.);
#811=EDGE_LOOP('',(#807,#808,#809,#810));
#812=FACE_OUTER_BOUND('',#811,.T.);
#813=ADVANCED_FACE('',(#812),#801,.F.);
#814=CARTESIAN_POINT('',(-17.714999999999993,-0.085000000000001,-2.2));
#815=CARTESIAN_POINT('',(-17.714999999999993,-0.085000000000001,0.0));
#816=CARTESIAN_POINT('',(-17.714999999999993,0.544999999999995,-2.2));
#817=CARTESIAN_POINT('',(-17.714999999999993,0.544999999999995,0.0));
#818=B_SPLINE_SURFACE_WITH_KNOTS('',1,1,((#814,#816),(#815,#817)),.UNSPECIFIED.,.F.,.F.,.U.,(2,2),(2,2),(0.0,2.2),(0.0,0.629999999999995),.UNSPECIFIED.);
#819=ORIENTED_EDGE('',*,*,#774,.F.);
#820=ORIENTED_EDGE('',*,*,#691,.T.);
#821=ORIENTED_EDGE('',*,*,#806,.T.);
#822=ORIENTED_EDGE('',*,*,#731,.T.);
#823=EDGE_LOOP('',(#819,#820,#821,#822));
#824=FACE_OUTER_BOUND('',#823,.T.);
#825=ADVANCED_FACE('',(#824),#818,.F.);
#826=CLOSED_SHELL('',(#717,#757,#779,#796,#813,#825));
#827=MANIFOLD_SOLID_BREP('1BEA',#826);
#828=STYLED_ITEM('NONE',(#221),#827);
#829=CARTESIAN_POINT('',(-18.344999999999995,2.454999999999998,0.0));
#830=CARTESIAN_POINT('',(-17.714999999999993,2.454999999999998,0.0));
#831=CARTESIAN_POINT('',(-18.344999999999995,3.084999999999994,0.0));
#832=CARTESIAN_POINT('',(-17.714999999999993,3.084999999999994,0.0));
#833=B_SPLINE_SURFACE_WITH_KNOTS('',1,1,((#829,#831),(#830,#832)),.UNSPECIFIED.,.F.,.F.,.U.,(2,2),(2,2),(0.0,0.630000000000003),(0.0,0.629999999999995),.UNSPECIFIED.);
#834=CARTESIAN_POINT('',(-17.714999999999993,3.084999999999994,0.0));
#835=VERTEX_POINT('',#834);
#836=CARTESIAN_POINT('',(-17.714999999999993,2.454999999999998,0.0));
#837=VERTEX_POINT('',#836);
#838=CARTESIAN_POINT('',(-17.714999999999993,3.084999999999994,0.0));
#839=DIRECTION('',(0.0,-1.0,0.0));
#840=VECTOR('',#839,0.629999999999995);
#841=LINE('',#838,#840);
#842=EDGE_CURVE('',#835,#837,#841,.T.);
#843=ORIENTED_EDGE('',*,*,#842,.F.);
#844=CARTESIAN_POINT('',(-18.344999999999995,3.084999999999994,0.0));
#845=VERTEX_POINT('',#844);
#846=CARTESIAN_POINT('',(-18.344999999999995,3.084999999999994,0.0));
#847=DIRECTION('',(1.0,0.0,0.0));
#848=VECTOR('',#847,0.630000000000003);
#849=LINE('',#846,#848);
#850=EDGE_CURVE('',#845,#835,#849,.T.);
#851=ORIENTED_EDGE('',*,*,#850,.F.);
#852=CARTESIAN_POINT('',(-18.344999999999995,2.454999999999998,0.0));
#853=VERTEX_POINT('',#852);
#854=CARTESIAN_POINT('',(-18.344999999999995,2.454999999999998,0.0));
#855=DIRECTION('',(0.0,1.0,0.0));
#856=VECTOR('',#855,0.629999999999995);
#857=LINE('',#854,#856);
#858=EDGE_CURVE('',#853,#845,#857,.T.);
#859=ORIENTED_EDGE('',*,*,#858,.F.);
#860=CARTESIAN_POINT('',(-17.714999999999993,2.454999999999998,0.0));
#861=DIRECTION('',(-1.0,0.0,0.0));
#862=VECTOR('',#861,0.630000000000003);
#863=LINE('',#860,#862);
#864=EDGE_CURVE('',#837,#853,#863,.T.);
#865=ORIENTED_EDGE('',*,*,#864,.F.);
#866=EDGE_LOOP('',(#843,#851,#859,#865));
#867=FACE_OUTER_BOUND('',#866,.T.);
#868=ADVANCED_FACE('',(#867),#833,.T.);
#869=CARTESIAN_POINT('',(-18.344999999999995,2.454999999999998,-2.2));
#870=CARTESIAN_POINT('',(-17.714999999999993,2.454999999999998,-2.2));
#871=CARTESIAN_POINT('',(-18.344999999999995,3.084999999999994,-2.2));
#872=CARTESIAN_POINT('',(-17.714999999999993,3.084999999999994,-2.2));
#873=B_SPLINE_SURFACE_WITH_KNOTS('',1,1,((#869,#871),(#870,#872)),.UNSPECIFIED.,.F.,.F.,.U.,(2,2),(2,2),(0.0,0.630000000000003),(0.0,0.629999999999995),.UNSPECIFIED.);
#874=CARTESIAN_POINT('',(-17.714999999999993,2.454999999999998,-2.2));
#875=VERTEX_POINT('',#874);
#876=CARTESIAN_POINT('',(-17.714999999999993,3.084999999999994,-2.2));
#877=VERTEX_POINT('',#876);
#878=CARTESIAN_POINT('',(-17.714999999999993,2.454999999999998,-2.2));
#879=DIRECTION('',(0.0,1.0,0.0));
#880=VECTOR('',#879,0.629999999999995);
#881=LINE('',#878,#880);
#882=EDGE_CURVE('',#875,#877,#881,.T.);
#883=ORIENTED_EDGE('',*,*,#882,.F.);
#884=CARTESIAN_POINT('',(-18.344999999999995,2.454999999999998,-2.2));
#885=VERTEX_POINT('',#884);
#886=CARTESIAN_POINT('',(-18.344999999999995,2.454999999999998,-2.2));
#887=DIRECTION('',(1.0,0.0,0.0));
#888=VECTOR('',#887,0.630000000000003);
#889=LINE('',#886,#888);
#890=EDGE_CURVE('',#885,#875,#889,.T.);
#891=ORIENTED_EDGE('',*,*,#890,.F.);
#892=CARTESIAN_POINT('',(-18.344999999999995,3.084999999999994,-2.2));
#893=VERTEX_POINT('',#892);
#894=CARTESIAN_POINT('',(-18.344999999999995,3.084999999999994,-2.2));
#895=DIRECTION('',(0.0,-1.0,0.0));
#896=VECTOR('',#895,0.629999999999995);
#897=LINE('',#894,#896);
#898=EDGE_CURVE('',#893,#885,#897,.T.);
#899=ORIENTED_EDGE('',*,*,#898,.F.);
#900=CARTESIAN_POINT('',(-17.714999999999993,3.084999999999994,-2.2));
#901=DIRECTION('',(-1.0,0.0,0.0));
#902=VECTOR('',#901,0.630000000000003);
#903=LINE('',#900,#902);
#904=EDGE_CURVE('',#877,#893,#903,.T.);
#905=ORIENTED_EDGE('',*,*,#904,.F.);
#906=EDGE_LOOP('',(#883,#891,#899,#905));
#907=FACE_OUTER_BOUND('',#906,.T.);
#908=ADVANCED_FACE('',(#907),#873,.F.);
#909=CARTESIAN_POINT('',(-17.714999999999993,3.084999999999994,-2.2));
#910=CARTESIAN_POINT('',(-17.714999999999993,3.084999999999994,0.0));
#911=CARTESIAN_POINT('',(-18.344999999999995,3.084999999999994,-2.2));
#912=CARTESIAN_POINT('',(-18.344999999999995,3.084999999999994,0.0));
#913=B_SPLINE_SURFACE_WITH_KNOTS('',1,1,((#909,#911),(#910,#912)),.UNSPECIFIED.,.F.,.F.,.U.,(2,2),(2,2),(0.0,2.2),(0.0,0.630000000000003),.UNSPECIFIED.);
#914=CARTESIAN_POINT('',(-18.344999999999995,3.084999999999994,0.0));
#915=DIRECTION('',(0.0,0.0,-1.0));
#916=VECTOR('',#915,2.2);
#917=LINE('',#914,#916);
#918=EDGE_CURVE('',#845,#893,#917,.T.);
#919=ORIENTED_EDGE('',*,*,#918,.F.);
#920=ORIENTED_EDGE('',*,*,#850,.T.);
#921=CARTESIAN_POINT('',(-17.714999999999993,3.084999999999994,0.0));
#922=DIRECTION('',(0.0,0.0,-1.0));
#923=VECTOR('',#922,2.2);
#924=LINE('',#921,#923);
#925=EDGE_CURVE('',#835,#877,#924,.T.);
#926=ORIENTED_EDGE('',*,*,#925,.T.);
#927=ORIENTED_EDGE('',*,*,#904,.T.);
#928=EDGE_LOOP('',(#919,#920,#926,#927));
#929=FACE_OUTER_BOUND('',#928,.T.);
#930=ADVANCED_FACE('',(#929),#913,.F.);
#931=CARTESIAN_POINT('',(-18.344999999999995,2.454999999999998,0.0));
#932=CARTESIAN_POINT('',(-18.344999999999995,2.454999999999998,-2.2));
#933=CARTESIAN_POINT('',(-18.344999999999995,3.084999999999994,0.0));
#934=CARTESIAN_POINT('',(-18.344999999999995,3.084999999999994,-2.2));
#935=B_SPLINE_SURFACE_WITH_KNOTS('',1,1,((#931,#933),(#932,#934)),.UNSPECIFIED.,.F.,.F.,.U.,(2,2),(2,2),(0.0,2.2),(0.0,0.629999999999995),.UNSPECIFIED.);
#936=CARTESIAN_POINT('',(-18.344999999999995,2.454999999999998,0.0));
#937=DIRECTION('',(0.0,0.0,-1.0));
#938=VECTOR('',#937,2.2);
#939=LINE('',#936,#938);
#940=EDGE_CURVE('',#853,#885,#939,.T.);
#941=ORIENTED_EDGE('',*,*,#940,.F.);
#942=ORIENTED_EDGE('',*,*,#858,.T.);
#943=ORIENTED_EDGE('',*,*,#918,.T.);
#944=ORIENTED_EDGE('',*,*,#898,.T.);
#945=EDGE_LOOP('',(#941,#942,#943,#944));
#946=FACE_OUTER_BOUND('',#945,.T.);
#947=ADVANCED_FACE('',(#946),#935,.F.);
#948=CARTESIAN_POINT('',(-17.714999999999993,2.454999999999998,0.0));
#949=CARTESIAN_POINT('',(-17.714999999999993,2.454999999999998,-2.2));
#950=CARTESIAN_POINT('',(-18.344999999999995,2.454999999999998,0.0));
#951=CARTESIAN_POINT('',(-18.344999999999995,2.454999999999998,-2.2));
#952=B_SPLINE_SURFACE_WITH_KNOTS('',1,1,((#948,#950),(#949,#951)),.UNSPECIFIED.,.F.,.F.,.U.,(2,2),(2,2),(0.0,2.2),(0.0,0.630000000000003),.UNSPECIFIED.);
#953=CARTESIAN_POINT('',(-17.714999999999993,2.454999999999998,0.0));
#954=DIRECTION('',(0.0,0.0,-1.0));
#955=VECTOR('',#954,2.2);
#956=LINE('',#953,#955);
#957=EDGE_CURVE('',#837,#875,#956,.T.);
#958=ORIENTED_EDGE('',*,*,#957,.F.);
#959=ORIENTED_EDGE('',*,*,#864,.T.);
#960=ORIENTED_EDGE('',*,*,#940,.T.);
#961=ORIENTED_EDGE('',*,*,#890,.T.);
#962=EDGE_LOOP('',(#958,#959,#960,#961));
#963=FACE_OUTER_BOUND('',#962,.T.);
#964=ADVANCED_FACE('',(#963),#952,.F.);
#965=CARTESIAN_POINT('',(-17.714999999999993,2.454999999999998,-2.2));
#966=CARTESIAN_POINT('',(-17.714999999999993,2.454999999999998,0.0));
#967=CARTESIAN_POINT('',(-17.714999999999993,3.084999999999994,-2.2));
#968=CARTESIAN_POINT('',(-17.714999999999993,3.084999999999994,0.0));
#969=B_SPLINE_SURFACE_WITH_KNOTS('',1,1,((#965,#967),(#966,#968)),.UNSPECIFIED.,.F.,.F.,.U.,(2,2),(2,2),(0.0,2.2),(0.0,0.629999999999995),.UNSPECIFIED.);
#970=ORIENTED_EDGE('',*,*,#925,.F.);
#971=ORIENTED_EDGE('',*,*,#842,.T.);
#972=ORIENTED_EDGE('',*,*,#957,.T.);
#973=ORIENTED_EDGE('',*,*,#882,.T.);
#974=EDGE_LOOP('',(#970,#971,#972,#973));
#975=FACE_OUTER_BOUND('',#974,.T.);
#976=ADVANCED_FACE('',(#975),#969,.F.);
#977=CLOSED_SHELL('',(#868,#908,#930,#947,#964,#976));
#978=MANIFOLD_SOLID_BREP('1BE6',#977);
#979=STYLED_ITEM('NONE',(#221),#978);
#980=CARTESIAN_POINT('',(-18.344999999999995,4.994999999999997,0.0));
#981=CARTESIAN_POINT('',(-17.714999999999993,4.994999999999997,0.0));
#982=CARTESIAN_POINT('',(-18.344999999999995,5.624999999999993,0.0));
#983=CARTESIAN_POINT('',(-17.714999999999993,5.624999999999993,0.0));
#984=B_SPLINE_SURFACE_WITH_KNOTS('',1,1,((#980,#982),(#981,#983)),.UNSPECIFIED.,.F.,.F.,.U.,(2,2),(2,2),(0.0,0.630000000000003),(0.0,0.629999999999995),.UNSPECIFIED.);
#985=CARTESIAN_POINT('',(-17.714999999999993,5.624999999999993,0.0));
#986=VERTEX_POINT('',#985);
#987=CARTESIAN_POINT('',(-17.714999999999993,4.994999999999997,0.0));
#988=VERTEX_POINT('',#987);
#989=CARTESIAN_POINT('',(-17.714999999999993,5.624999999999993,0.0));
#990=DIRECTION('',(0.0,-1.0,0.0));
#991=VECTOR('',#990,0.629999999999995);
#992=LINE('',#989,#991);
#993=EDGE_CURVE('',#986,#988,#992,.T.);
#994=ORIENTED_EDGE('',*,*,#993,.F.);
#995=CARTESIAN_POINT('',(-18.344999999999995,5.624999999999993,0.0));
#996=VERTEX_POINT('',#995);
#997=CARTESIAN_POINT('',(-18.344999999999995,5.624999999999993,0.0));
#998=DIRECTION('',(1.0,0.0,0.0));
#999=VECTOR('',#998,0.630000000000003);
#1000=LINE('',#997,#999);
#1001=EDGE_CURVE('',#996,#986,#1000,.T.);
#1002=ORIENTED_EDGE('',*,*,#1001,.F.);
#1003=CARTESIAN_POINT('',(-18.344999999999995,4.994999999999997,0.0));
#1004=VERTEX_POINT('',#1003);
#1005=CARTESIAN_POINT('',(-18.344999999999995,4.994999999999997,0.0));
#1006=DIRECTION('',(0.0,1.0,0.0));
#1007=VECTOR('',#1006,0.629999999999995);
#1008=LINE('',#1005,#1007);
#1009=EDGE_CURVE('',#1004,#996,#1008,.T.);
#1010=ORIENTED_EDGE('',*,*,#1009,.F.);
#1011=CARTESIAN_POINT('',(-17.714999999999993,4.994999999999997,0.0));
#1012=DIRECTION('',(-1.0,0.0,0.0));
#1013=VECTOR('',#1012,0.630000000000003);
#1014=LINE('',#1011,#1013);
#1015=EDGE_CURVE('',#988,#1004,#1014,.T.);
#1016=ORIENTED_EDGE('',*,*,#1015,.F.);
#1017=EDGE_LOOP('',(#994,#1002,#1010,#1016));
#1018=FACE_OUTER_BOUND('',#1017,.T.);
#1019=ADVANCED_FACE('',(#1018),#984,.T.);
#1020=CARTESIAN_POINT('',(-18.344999999999995,4.994999999999997,-2.2));
#1021=CARTESIAN_POINT('',(-17.714999999999993,4.994999999999997,-2.2));
#1022=CARTESIAN_POINT('',(-18.344999999999995,5.624999999999993,-2.2));
#1023=CARTESIAN_POINT('',(-17.714999999999993,5.624999999999993,-2.2));
#1024=B_SPLINE_SURFACE_WITH_KNOTS('',1,1,((#1020,#1022),(#1021,#1023)),.UNSPECIFIED.,.F.,.F.,.U.,(2,2),(2,2),(0.0,0.630000000000003),(0.0,0.629999999999995),.UNSPECIFIED.);
#1025=CARTESIAN_POINT('',(-17.714999999999993,4.994999999999997,-2.2));
#1026=VERTEX_POINT('',#1025);
#1027=CARTESIAN_POINT('',(-17.714999999999993,5.624999999999993,-2.2));
#1028=VERTEX_POINT('',#1027);
#1029=CARTESIAN_POINT('',(-17.714999999999993,4.994999999999997,-2.2));
#1030=DIRECTION('',(0.0,1.0,0.0));
#1031=VECTOR('',#1030,0.629999999999995);
#1032=LINE('',#1029,#1031);
#1033=EDGE_CURVE('',#1026,#1028,#1032,.T.);
#1034=ORIENTED_EDGE('',*,*,#1033,.F.);
#1035=CARTESIAN_POINT('',(-18.344999999999995,4.994999999999997,-2.2));
#1036=VERTEX_POINT('',#1035);
#1037=CARTESIAN_POINT('',(-18.344999999999995,4.994999999999997,-2.2));
#1038=DIRECTION('',(1.0,0.0,0.0));
#1039=VECTOR('',#1038,0.630000000000003);
#1040=LINE('',#1037,#1039);
#1041=EDGE_CURVE('',#1036,#1026,#1040,.T.);
#1042=ORIENTED_EDGE('',*,*,#1041,.F.);
#1043=CARTESIAN_POINT('',(-18.344999999999995,5.624999999999993,-2.2));
#1044=VERTEX_POINT('',#1043);
#1045=CARTESIAN_POINT('',(-18.344999999999995,5.624999999999993,-2.2));
#1046=DIRECTION('',(0.0,-1.0,0.0));
#1047=VECTOR('',#1046,0.629999999999995);
#1048=LINE('',#1045,#1047);
#1049=EDGE_CURVE('',#1044,#1036,#1048,.T.);
#1050=ORIENTED_EDGE('',*,*,#1049,.F.);
#1051=CARTESIAN_POINT('',(-17.714999999999993,5.624999999999993,-2.2));
#1052=DIRECTION('',(-1.0,0.0,0.0));
#1053=VECTOR('',#1052,0.630000000000003);
#1054=LINE('',#1051,#1053);
#1055=EDGE_CURVE('',#1028,#1044,#1054,.T.);
#1056=ORIENTED_EDGE('',*,*,#1055,.F.);
#1057=EDGE_LOOP('',(#1034,#1042,#1050,#1056));
#1058=FACE_OUTER_BOUND('',#1057,.T.);
#1059=ADVANCED_FACE('',(#1058),#1024,.F.);
#1060=CARTESIAN_POINT('',(-17.714999999999993,5.624999999999993,-2.2));
#1061=CARTESIAN_POINT('',(-17.714999999999993,5.624999999999993,0.0));
#1062=CARTESIAN_POINT('',(-18.344999999999995,5.624999999999993,-2.2));
#1063=CARTESIAN_POINT('',(-18.344999999999995,5.624999999999993,0.0));
#1064=B_SPLINE_SURFACE_WITH_KNOTS('',1,1,((#1060,#1062),(#1061,#1063)),.UNSPECIFIED.,.F.,.F.,.U.,(2,2),(2,2),(0.0,2.2),(0.0,0.630000000000003),.UNSPECIFIED.);
#1065=CARTESIAN_POINT('',(-18.344999999999995,5.624999999999993,0.0));
#1066=DIRECTION('',(0.0,0.0,-1.0));
#1067=VECTOR('',#1066,2.2);
#1068=LINE('',#1065,#1067);
#1069=EDGE_CURVE('',#996,#1044,#1068,.T.);
#1070=ORIENTED_EDGE('',*,*,#1069,.F.);
#1071=ORIENTED_EDGE('',*,*,#1001,.T.);
#1072=CARTESIAN_POINT('',(-17.714999999999993,5.624999999999993,0.0));
#1073=DIRECTION('',(0.0,0.0,-1.0));
#1074=VECTOR('',#1073,2.2);
#1075=LINE('',#1072,#1074);
#1076=EDGE_CURVE('',#986,#1028,#1075,.T.);
#1077=ORIENTED_EDGE('',*,*,#1076,.T.);
#1078=ORIENTED_EDGE('',*,*,#1055,.T.);
#1079=EDGE_LOOP('',(#1070,#1071,#1077,#1078));
#1080=FACE_OUTER_BOUND('',#1079,.T.);
#1081=ADVANCED_FACE('',(#1080),#1064,.F.);
#1082=CARTESIAN_POINT('',(-18.344999999999995,4.994999999999997,0.0));
#1083=CARTESIAN_POINT('',(-18.344999999999995,4.994999999999997,-2.2));
#1084=CARTESIAN_POINT('',(-18.344999999999995,5.624999999999993,0.0));
#1085=CARTESIAN_POINT('',(-18.344999999999995,5.624999999999993,-2.2));
#1086=B_SPLINE_SURFACE_WITH_KNOTS('',1,1,((#1082,#1084),(#1083,#1085)),.UNSPECIFIED.,.F.,.F.,.U.,(2,2),(2,2),(0.0,2.2),(0.0,0.629999999999995),.UNSPECIFIED.);
#1087=CARTESIAN_POINT('',(-18.344999999999995,4.994999999999997,0.0));
#1088=DIRECTION('',(0.0,0.0,-1.0));
#1089=VECTOR('',#1088,2.2);
#1090=LINE('',#1087,#1089);
#1091=EDGE_CURVE('',#1004,#1036,#1090,.T.);
#1092=ORIENTED_EDGE('',*,*,#1091,.F.);
#1093=ORIENTED_EDGE('',*,*,#1009,.T.);
#1094=ORIENTED_EDGE('',*,*,#1069,.T.);
#1095=ORIENTED_EDGE('',*,*,#1049,.T.);
#1096=EDGE_LOOP('',(#1092,#1093,#1094,#1095));
#1097=FACE_OUTER_BOUND('',#1096,.T.);
#1098=ADVANCED_FACE('',(#1097),#1086,.F.);
#1099=CARTESIAN_POINT('',(-17.714999999999993,4.994999999999997,0.0));
#1100=CARTESIAN_POINT('',(-17.714999999999993,4.994999999999997,-2.2));
#1101=CARTESIAN_POINT('',(-18.344999999999995,4.994999999999997,0.0));
#1102=CARTESIAN_POINT('',(-18.344999999999995,4.994999999999997,-2.2));
#1103=B_SPLINE_SURFACE_WITH_KNOTS('',1,1,((#1099,#1101),(#1100,#1102)),.UNSPECIFIED.,.F.,.F.,.U.,(2,2),(2,2),(0.0,2.2),(0.0,0.630000000000003),.UNSPECIFIED.);
#1104=CARTESIAN_POINT('',(-17.714999999999993,4.994999999999997,0.0));
#1105=DIRECTION('',(0.0,0.0,-1.0));
#1106=VECTOR('',#1105,2.2);
#1107=LINE('',#1104,#1106);
#1108=EDGE_CURVE('',#988,#1026,#1107,.T.);
#1109=ORIENTED_EDGE('',*,*,#1108,.F.);
#1110=ORIENTED_EDGE('',*,*,#1015,.T.);
#1111=ORIENTED_EDGE('',*,*,#1091,.T.);
#1112=ORIENTED_EDGE('',*,*,#1041,.T.);
#1113=EDGE_LOOP('',(#1109,#1110,#1111,#1112));
#1114=FACE_OUTER_BOUND('',#1113,.T.);
#1115=ADVANCED_FACE('',(#1114),#1103,.F.);
#1116=CARTESIAN_POINT('',(-17.714999999999993,4.994999999999997,-2.2));
#1117=CARTESIAN_POINT('',(-17.714999999999993,4.994999999999997,0.0));
#1118=CARTESIAN_POINT('',(-17.714999999999993,5.624999999999993,-2.2));
#1119=CARTESIAN_POINT('',(-17.714999999999993,5.624999999999993,0.0));
#1120=B_SPLINE_SURFACE_WITH_KNOTS('',1,1,((#1116,#1118),(#1117,#1119)),.UNSPECIFIED.,.F.,.F.,.U.,(2,2),(2,2),(0.0,2.2),(0.0,0.629999999999995),.UNSPECIFIED.);
#1121=ORIENTED_EDGE('',*,*,#1076,.F.);
#1122=ORIENTED_EDGE('',*,*,#993,.T.);
#1123=ORIENTED_EDGE('',*,*,#1108,.T.);
#1124=ORIENTED_EDGE('',*,*,#1033,.T.);
#1125=EDGE_LOOP('',(#1121,#1122,#1123,#1124));
#1126=FACE_OUTER_BOUND('',#1125,.T.);
#1127=ADVANCED_FACE('',(#1126),#1120,.F.);
#1128=CLOSED_SHELL('',(#1019,#1059,#1081,#1098,#1115,#1127));
#1129=MANIFOLD_SOLID_BREP('1BE2',#1128);
#1130=STYLED_ITEM('NONE',(#221),#1129);
#1131=CARTESIAN_POINT('',(-19.300000000000001,-7.350000000000001,10.5));
#1132=DIRECTION('',(0.0,0.0,1.0));
#1133=DIRECTION('',(1.0,0.0,0.0));
#1134=AXIS2_PLACEMENT_3D('',#1131,#1132,#1133);
#1135=SPHERICAL_SURFACE('',#1134,0.5);
#1136=CARTESIAN_POINT('',(-19.300000000000001,-7.850000000000001,10.5));
#1137=VERTEX_POINT('',#1136);
#1138=CARTESIAN_POINT('',(-19.300000000000001,-7.350000000000001,11.0));
#1139=VERTEX_POINT('',#1138);
#1140=CARTESIAN_POINT('',(-19.300000000000001,-7.350000000000001,10.5));
#1141=DIRECTION('',(-1.0,0.0,0.0));
#1142=DIRECTION('',(0.0,-0.707106781186548,0.707106781186548));
#1143=AXIS2_PLACEMENT_3D('',#1140,#1141,#1142);
#1144=CIRCLE('',#1143,0.5);
#1145=EDGE_CURVE('',#1137,#1139,#1144,.T.);
#1146=ORIENTED_EDGE('',*,*,#1145,.T.);
#1147=CARTESIAN_POINT('',(-19.800000000000001,-7.350000000000001,10.5));
#1148=VERTEX_POINT('',#1147);
#1149=CARTESIAN_POINT('',(-19.300000000000001,-7.350000000000001,10.5));
#1150=DIRECTION('',(0.0,-1.0,0.0));
#1151=DIRECTION('',(-1.0,0.0,0.0));
#1152=AXIS2_PLACEMENT_3D('',#1149,#1150,#1151);
#1153=CIRCLE('',#1152,0.5);
#1154=EDGE_CURVE('',#1148,#1139,#1153,.F.);
#1155=ORIENTED_EDGE('',*,*,#1154,.F.);
#1156=CARTESIAN_POINT('',(-19.300000000000001,-7.350000000000001,10.5));
#1157=DIRECTION('',(0.0,0.0,1.0));
#1158=DIRECTION('',(-0.707106781186548,-0.707106781186548,0.0));
#1159=AXIS2_PLACEMENT_3D('',#1156,#1157,#1158);
#1160=CIRCLE('',#1159,0.5);
#1161=EDGE_CURVE('',#1148,#1137,#1160,.T.);
#1162=ORIENTED_EDGE('',*,*,#1161,.T.);
#1163=EDGE_LOOP('',(#1146,#1155,#1162));
#1164=FACE_OUTER_BOUND('',#1163,.T.);
#1165=ADVANCED_FACE('',(#1164),#1135,.T.);
#1166=CARTESIAN_POINT('',(19.300000000000001,-7.350000000000001,10.5));
#1167=DIRECTION('',(0.0,0.0,1.0));
#1168=DIRECTION('',(1.0,0.0,0.0));
#1169=AXIS2_PLACEMENT_3D('',#1166,#1167,#1168);
#1170=SPHERICAL_SURFACE('',#1169,0.5);
#1171=CARTESIAN_POINT('',(19.300000000000001,-7.850000000000001,10.5));
#1172=VERTEX_POINT('',#1171);
#1173=CARTESIAN_POINT('',(19.800000000000001,-7.350000000000001,10.5));
#1174=VERTEX_POINT('',#1173);
#1175=CARTESIAN_POINT('',(19.300000000000001,-7.350000000000001,10.5));
#1176=DIRECTION('',(0.0,0.0,1.0));
#1177=DIRECTION('',(0.707106781186548,-0.707106781186548,0.0));
#1178=AXIS2_PLACEMENT_3D('',#1175,#1176,#1177);
#1179=CIRCLE('',#1178,0.5);
#1180=EDGE_CURVE('',#1172,#1174,#1179,.T.);
#1181=ORIENTED_EDGE('',*,*,#1180,.T.);
#1182=CARTESIAN_POINT('',(19.300000000000001,-7.350000000000001,11.0));
#1183=VERTEX_POINT('',#1182);
#1184=CARTESIAN_POINT('',(19.300000000000001,-7.350000000000001,10.5));
#1185=DIRECTION('',(0.0,-1.0,0.0));
#1186=DIRECTION('',(0.0,0.0,1.0));
#1187=AXIS2_PLACEMENT_3D('',#1184,#1185,#1186);
#1188=CIRCLE('',#1187,0.5);
#1189=EDGE_CURVE('',#1183,#1174,#1188,.F.);
#1190=ORIENTED_EDGE('',*,*,#1189,.F.);
#1191=CARTESIAN_POINT('',(19.300000000000001,-7.350000000000001,10.5));
#1192=DIRECTION('',(1.0,0.0,0.0));
#1193=DIRECTION('',(0.0,-0.707106781186548,0.707106781186548));
#1194=AXIS2_PLACEMENT_3D('',#1191,#1192,#1193);
#1195=CIRCLE('',#1194,0.5);
#1196=EDGE_CURVE('',#1183,#1172,#1195,.T.);
#1197=ORIENTED_EDGE('',*,*,#1196,.T.);
#1198=EDGE_LOOP('',(#1181,#1190,#1197));
#1199=FACE_OUTER_BOUND('',#1198,.T.);
#1200=ADVANCED_FACE('',(#1199),#1170,.T.);
#1201=CARTESIAN_POINT('',(-19.300000000000001,7.350000000000001,10.5));
#1202=DIRECTION('',(0.0,0.0,1.0));
#1203=DIRECTION('',(1.0,0.0,0.0));
#1204=AXIS2_PLACEMENT_3D('',#1201,#1202,#1203);
#1205=SPHERICAL_SURFACE('',#1204,0.5);
#1206=CARTESIAN_POINT('',(-19.800000000000001,7.350000000000001,10.5));
#1207=VERTEX_POINT('',#1206);
#1208=CARTESIAN_POINT('',(-19.300000000000001,7.350000000000001,11.0));
#1209=VERTEX_POINT('',#1208);
#1210=CARTESIAN_POINT('',(-19.300000000000001,7.350000000000001,10.5));
#1211=DIRECTION('',(0.0,1.0,0.0));
#1212=DIRECTION('',(-0.707106781186548,0.0,0.707106781186548));
#1213=AXIS2_PLACEMENT_3D('',#1210,#1211,#1212);
#1214=CIRCLE('',#1213,0.5);
#1215=EDGE_CURVE('',#1207,#1209,#1214,.T.);
#1216=ORIENTED_EDGE('',*,*,#1215,.T.);
#1217=CARTESIAN_POINT('',(-19.300000000000001,7.850000000000001,10.5));
#1218=VERTEX_POINT('',#1217);
#1219=CARTESIAN_POINT('',(-19.300000000000001,7.350000000000001,10.5));
#1220=DIRECTION('',(-1.0,0.0,0.0));
#1221=DIRECTION('',(0.0,1.0,0.0));
#1222=AXIS2_PLACEMENT_3D('',#1219,#1220,#1221);
#1223=CIRCLE('',#1222,0.5);
#1224=EDGE_CURVE('',#1218,#1209,#1223,.F.);
#1225=ORIENTED_EDGE('',*,*,#1224,.F.);
#1226=CARTESIAN_POINT('',(-19.300000000000001,7.350000000000001,10.5));
#1227=DIRECTION('',(0.0,0.0,1.0));
#1228=DIRECTION('',(-0.707106781186548,0.707106781186548,0.0));
#1229=AXIS2_PLACEMENT_3D('',#1226,#1227,#1228);
#1230=CIRCLE('',#1229,0.5);
#1231=EDGE_CURVE('',#1218,#1207,#1230,.T.);
#1232=ORIENTED_EDGE('',*,*,#1231,.T.);
#1233=EDGE_LOOP('',(#1216,#1225,#1232));
#1234=FACE_OUTER_BOUND('',#1233,.T.);
#1235=ADVANCED_FACE('',(#1234),#1205,.T.);
#1236=CARTESIAN_POINT('',(19.300000000000001,7.350000000000001,10.5));
#1237=DIRECTION('',(0.0,0.0,1.0));
#1238=DIRECTION('',(1.0,0.0,0.0));
#1239=AXIS2_PLACEMENT_3D('',#1236,#1237,#1238);
#1240=SPHERICAL_SURFACE('',#1239,0.5);
#1241=CARTESIAN_POINT('',(19.800000000000001,7.350000000000001,10.5));
#1242=VERTEX_POINT('',#1241);
#1243=CARTESIAN_POINT('',(19.300000000000001,7.850000000000001,10.5));
#1244=VERTEX_POINT('',#1243);
#1245=CARTESIAN_POINT('',(19.300000000000001,7.350000000000001,10.5));
#1246=DIRECTION('',(0.0,0.0,1.0));
#1247=DIRECTION('',(0.707106781186548,0.707106781186548,0.0));
#1248=AXIS2_PLACEMENT_3D('',#1245,#1246,#1247);
#1249=CIRCLE('',#1248,0.5);
#1250=EDGE_CURVE('',#1242,#1244,#1249,.T.);
#1251=ORIENTED_EDGE('',*,*,#1250,.T.);
#1252=CARTESIAN_POINT('',(19.300000000000001,7.350000000000001,11.0));
#1253=VERTEX_POINT('',#1252);
#1254=CARTESIAN_POINT('',(19.300000000000001,7.350000000000001,10.5));
#1255=DIRECTION('',(1.0,0.0,0.0));
#1256=DIRECTION('',(0.0,0.0,1.0));
#1257=AXIS2_PLACEMENT_3D('',#1254,#1255,#1256);
#1258=CIRCLE('',#1257,0.5);
#1259=EDGE_CURVE('',#1253,#1244,#1258,.F.);
#1260=ORIENTED_EDGE('',*,*,#1259,.F.);
#1261=CARTESIAN_POINT('',(19.300000000000001,7.350000000000001,10.5));
#1262=DIRECTION('',(0.0,1.0,0.0));
#1263=DIRECTION('',(0.707106781186548,0.0,0.707106781186548));
#1264=AXIS2_PLACEMENT_3D('',#1261,#1262,#1263);
#1265=CIRCLE('',#1264,0.5);
#1266=EDGE_CURVE('',#1253,#1242,#1265,.T.);
#1267=ORIENTED_EDGE('',*,*,#1266,.T.);
#1268=EDGE_LOOP('',(#1251,#1260,#1267));
#1269=FACE_OUTER_BOUND('',#1268,.T.);
#1270=ADVANCED_FACE('',(#1269),#1240,.T.);
#1271=CARTESIAN_POINT('',(0.0,7.350000000000001,10.5));
#1272=DIRECTION('',(-1.0,0.0,0.0));
#1273=DIRECTION('',(0.0,0.707106781186548,0.707106781186548));
#1274=AXIS2_PLACEMENT_3D('',#1271,#1272,#1273);
#1275=CYLINDRICAL_SURFACE('',#1274,0.5);
#1276=ORIENTED_EDGE('',*,*,#1224,.T.);
#1277=CARTESIAN_POINT('',(-19.300000000000001,7.350000000000001,11.0));
#1278=DIRECTION('',(1.0,0.0,0.0));
#1279=VECTOR('',#1278,38.600000000000001);
#1280=LINE('',#1277,#1279);
#1281=EDGE_CURVE('',#1209,#1253,#1280,.T.);
#1282=ORIENTED_EDGE('',*,*,#1281,.T.);
#1283=ORIENTED_EDGE('',*,*,#1259,.T.);
#1284=CARTESIAN_POINT('',(19.300000000000001,7.850000000000001,10.5));
#1285=DIRECTION('',(-1.0,0.0,0.0));
#1286=VECTOR('',#1285,38.600000000000001);
#1287=LINE('',#1284,#1286);
#1288=EDGE_CURVE('',#1244,#1218,#1287,.T.);
#1289=ORIENTED_EDGE('',*,*,#1288,.T.);
#1290=EDGE_LOOP('',(#1276,#1282,#1283,#1289));
#1291=FACE_OUTER_BOUND('',#1290,.T.);
#1292=ADVANCED_FACE('',(#1291),#1275,.T.);
#1293=CARTESIAN_POINT('',(19.300000000000001,0.0,10.5));
#1294=DIRECTION('',(0.0,1.0,0.0));
#1295=DIRECTION('',(0.707106781186548,0.0,0.707106781186548));
#1296=AXIS2_PLACEMENT_3D('',#1293,#1294,#1295);
#1297=CYLINDRICAL_SURFACE('',#1296,0.5);
#1298=ORIENTED_EDGE('',*,*,#1266,.F.);
#1299=CARTESIAN_POINT('',(19.300000000000001,7.350000000000001,11.0));
#1300=DIRECTION('',(0.0,-1.0,0.0));
#1301=VECTOR('',#1300,14.700000000000001);
#1302=LINE('',#1299,#1301);
#1303=EDGE_CURVE('',#1253,#1183,#1302,.T.);
#1304=ORIENTED_EDGE('',*,*,#1303,.T.);
#1305=ORIENTED_EDGE('',*,*,#1189,.T.);
#1306=CARTESIAN_POINT('',(19.800000000000001,-7.350000000000001,10.5));
#1307=DIRECTION('',(0.0,1.0,0.0));
#1308=VECTOR('',#1307,14.700000000000001);
#1309=LINE('',#1306,#1308);
#1310=EDGE_CURVE('',#1174,#1242,#1309,.T.);
#1311=ORIENTED_EDGE('',*,*,#1310,.T.);
#1312=EDGE_LOOP('',(#1298,#1304,#1305,#1311));
#1313=FACE_OUTER_BOUND('',#1312,.T.);
#1314=ADVANCED_FACE('',(#1313),#1297,.T.);
#1315=CARTESIAN_POINT('',(19.300000000000001,7.350000000000001,5.5));
#1316=DIRECTION('',(0.0,0.0,-1.0));
#1317=DIRECTION('',(0.707106781186548,0.707106781186548,0.0));
#1318=AXIS2_PLACEMENT_3D('',#1315,#1316,#1317);
#1319=CYLINDRICAL_SURFACE('',#1318,0.5);
#1320=CARTESIAN_POINT('',(19.800000000000001,7.350000000000001,0.0));
#1321=VERTEX_POINT('',#1320);
#1322=CARTESIAN_POINT('',(19.300000000000001,7.850000000000001,0.0));
#1323=VERTEX_POINT('',#1322);
#1324=CARTESIAN_POINT('',(19.300000000000001,7.350000000000001,0.0));
#1325=DIRECTION('',(0.0,0.0,1.0));
#1326=DIRECTION('',(0.707106781186548,0.707106781186548,0.0));
#1327=AXIS2_PLACEMENT_3D('',#1324,#1325,#1326);
#1328=CIRCLE('',#1327,0.5);
#1329=EDGE_CURVE('',#1321,#1323,#1328,.T.);
#1330=ORIENTED_EDGE('',*,*,#1329,.T.);
#1331=CARTESIAN_POINT('',(19.300000000000001,7.850000000000001,0.0));
#1332=DIRECTION('',(0.0,0.0,1.0));
#1333=VECTOR('',#1332,10.5);
#1334=LINE('',#1331,#1333);
#1335=EDGE_CURVE('',#1323,#1244,#1334,.T.);
#1336=ORIENTED_EDGE('',*,*,#1335,.T.);
#1337=ORIENTED_EDGE('',*,*,#1250,.F.);
#1338=CARTESIAN_POINT('',(19.800000000000001,7.350000000000001,10.5));
#1339=DIRECTION('',(0.0,0.0,-1.0));
#1340=VECTOR('',#1339,10.5);
#1341=LINE('',#1338,#1340);
#1342=EDGE_CURVE('',#1242,#1321,#1341,.T.);
#1343=ORIENTED_EDGE('',*,*,#1342,.T.);
#1344=EDGE_LOOP('',(#1330,#1336,#1337,#1343));
#1345=FACE_OUTER_BOUND('',#1344,.T.);
#1346=ADVANCED_FACE('',(#1345),#1319,.T.);
#1347=CARTESIAN_POINT('',(-19.300000000000001,7.350000000000001,5.5));
#1348=DIRECTION('',(0.0,0.0,-1.0));
#1349=DIRECTION('',(-0.707106781186548,0.707106781186548,0.0));
#1350=AXIS2_PLACEMENT_3D('',#1347,#1348,#1349);
#1351=CYLINDRICAL_SURFACE('',#1350,0.5);
#1352=CARTESIAN_POINT('',(-19.300000000000001,7.850000000000001,0.0));
#1353=VERTEX_POINT('',#1352);
#1354=CARTESIAN_POINT('',(-19.800000000000001,7.350000000000001,0.0));
#1355=VERTEX_POINT('',#1354);
#1356=CARTESIAN_POINT('',(-19.300000000000001,7.350000000000001,0.0));
#1357=DIRECTION('',(0.0,0.0,1.0));
#1358=DIRECTION('',(-0.707106781186548,0.707106781186548,0.0));
#1359=AXIS2_PLACEMENT_3D('',#1356,#1357,#1358);
#1360=CIRCLE('',#1359,0.5);
#1361=EDGE_CURVE('',#1353,#1355,#1360,.T.);
#1362=ORIENTED_EDGE('',*,*,#1361,.T.);
#1363=CARTESIAN_POINT('',(-19.800000000000001,7.350000000000001,0.0));
#1364=DIRECTION('',(0.0,0.0,1.0));
#1365=VECTOR('',#1364,10.5);
#1366=LINE('',#1363,#1365);
#1367=EDGE_CURVE('',#1355,#1207,#1366,.T.);
#1368=ORIENTED_EDGE('',*,*,#1367,.T.);
#1369=ORIENTED_EDGE('',*,*,#1231,.F.);
#1370=CARTESIAN_POINT('',(-19.300000000000001,7.850000000000001,10.5));
#1371=DIRECTION('',(0.0,0.0,-1.0));
#1372=VECTOR('',#1371,10.5);
#1373=LINE('',#1370,#1372);
#1374=EDGE_CURVE('',#1218,#1353,#1373,.T.);
#1375=ORIENTED_EDGE('',*,*,#1374,.T.);
#1376=EDGE_LOOP('',(#1362,#1368,#1369,#1375));
#1377=FACE_OUTER_BOUND('',#1376,.T.);
#1378=ADVANCED_FACE('',(#1377),#1351,.T.);
#1379=CARTESIAN_POINT('',(-19.300000000000001,0.0,10.5));
#1380=DIRECTION('',(0.0,-1.0,0.0));
#1381=DIRECTION('',(-0.707106781186548,0.0,0.707106781186548));
#1382=AXIS2_PLACEMENT_3D('',#1379,#1380,#1381);
#1383=CYLINDRICAL_SURFACE('',#1382,0.5);
#1384=ORIENTED_EDGE('',*,*,#1154,.T.);
#1385=CARTESIAN_POINT('',(-19.300000000000001,-7.350000000000001,11.0));
#1386=DIRECTION('',(0.0,1.0,0.0));
#1387=VECTOR('',#1386,14.700000000000001);
#1388=LINE('',#1385,#1387);
#1389=EDGE_CURVE('',#1139,#1209,#1388,.T.);
#1390=ORIENTED_EDGE('',*,*,#1389,.T.);
#1391=ORIENTED_EDGE('',*,*,#1215,.F.);
#1392=CARTESIAN_POINT('',(-19.800000000000001,7.350000000000001,10.5));
#1393=DIRECTION('',(0.0,-1.0,0.0));
#1394=VECTOR('',#1393,14.700000000000001);
#1395=LINE('',#1392,#1394);
#1396=EDGE_CURVE('',#1207,#1148,#1395,.T.);
#1397=ORIENTED_EDGE('',*,*,#1396,.T.);
#1398=EDGE_LOOP('',(#1384,#1390,#1391,#1397));
#1399=FACE_OUTER_BOUND('',#1398,.T.);
#1400=ADVANCED_FACE('',(#1399),#1383,.T.);
#1401=CARTESIAN_POINT('',(0.0,-7.350000000000001,10.5));
#1402=DIRECTION('',(1.0,0.0,0.0));
#1403=DIRECTION('',(0.0,-0.707106781186548,0.707106781186548));
#1404=AXIS2_PLACEMENT_3D('',#1401,#1402,#1403);
#1405=CYLINDRICAL_SURFACE('',#1404,0.5);
#1406=ORIENTED_EDGE('',*,*,#1196,.F.);
#1407=CARTESIAN_POINT('',(19.300000000000001,-7.350000000000001,11.0));
#1408=DIRECTION('',(-1.0,0.0,0.0));
#1409=VECTOR('',#1408,38.600000000000001);
#1410=LINE('',#1407,#1409);
#1411=EDGE_CURVE('',#1183,#1139,#1410,.T.);
#1412=ORIENTED_EDGE('',*,*,#1411,.T.);
#1413=ORIENTED_EDGE('',*,*,#1145,.F.);
#1414=CARTESIAN_POINT('',(-19.300000000000001,-7.850000000000001,10.5));
#1415=DIRECTION('',(1.0,0.0,0.0));
#1416=VECTOR('',#1415,38.600000000000001);
#1417=LINE('',#1414,#1416);
#1418=EDGE_CURVE('',#1137,#1172,#1417,.T.);
#1419=ORIENTED_EDGE('',*,*,#1418,.T.);
#1420=EDGE_LOOP('',(#1406,#1412,#1413,#1419));
#1421=FACE_OUTER_BOUND('',#1420,.T.);
#1422=ADVANCED_FACE('',(#1421),#1405,.T.);
#1423=CARTESIAN_POINT('',(19.300000000000001,-7.350000000000001,5.5));
#1424=DIRECTION('',(0.0,0.0,-1.0));
#1425=DIRECTION('',(0.707106781186548,-0.707106781186548,0.0));
#1426=AXIS2_PLACEMENT_3D('',#1423,#1424,#1425);
#1427=CYLINDRICAL_SURFACE('',#1426,0.5);
#1428=CARTESIAN_POINT('',(19.300000000000001,-7.850000000000001,0.0));
#1429=VERTEX_POINT('',#1428);
#1430=CARTESIAN_POINT('',(19.800000000000001,-7.350000000000001,0.0));
#1431=VERTEX_POINT('',#1430);
#1432=CARTESIAN_POINT('',(19.300000000000001,-7.350000000000001,0.0));
#1433=DIRECTION('',(0.0,0.0,1.0));
#1434=DIRECTION('',(0.707106781186548,-0.707106781186548,0.0));
#1435=AXIS2_PLACEMENT_3D('',#1432,#1433,#1434);
#1436=CIRCLE('',#1435,0.5);
#1437=EDGE_CURVE('',#1429,#1431,#1436,.T.);
#1438=ORIENTED_EDGE('',*,*,#1437,.T.);
#1439=CARTESIAN_POINT('',(19.800000000000001,-7.350000000000001,0.0));
#1440=DIRECTION('',(0.0,0.0,1.0));
#1441=VECTOR('',#1440,10.5);
#1442=LINE('',#1439,#1441);
#1443=EDGE_CURVE('',#1431,#1174,#1442,.T.);
#1444=ORIENTED_EDGE('',*,*,#1443,.T.);
#1445=ORIENTED_EDGE('',*,*,#1180,.F.);
#1446=CARTESIAN_POINT('',(19.300000000000001,-7.850000000000001,10.5));
#1447=DIRECTION('',(0.0,0.0,-1.0));
#1448=VECTOR('',#1447,10.5);
#1449=LINE('',#1446,#1448);
#1450=EDGE_CURVE('',#1172,#1429,#1449,.T.);
#1451=ORIENTED_EDGE('',*,*,#1450,.T.);
#1452=EDGE_LOOP('',(#1438,#1444,#1445,#1451));
#1453=FACE_OUTER_BOUND('',#1452,.T.);
#1454=ADVANCED_FACE('',(#1453),#1427,.T.);
#1455=CARTESIAN_POINT('',(-19.300000000000001,-7.350000000000001,5.5));
#1456=DIRECTION('',(0.0,0.0,-1.0));
#1457=DIRECTION('',(-0.707106781186548,-0.707106781186548,0.0));
#1458=AXIS2_PLACEMENT_3D('',#1455,#1456,#1457);
#1459=CYLINDRICAL_SURFACE('',#1458,0.5);
#1460=CARTESIAN_POINT('',(-19.800000000000001,-7.350000000000001,0.0));
#1461=VERTEX_POINT('',#1460);
#1462=CARTESIAN_POINT('',(-19.300000000000001,-7.850000000000001,0.0));
#1463=VERTEX_POINT('',#1462);
#1464=CARTESIAN_POINT('',(-19.300000000000001,-7.350000000000001,0.0));
#1465=DIRECTION('',(0.0,0.0,1.0));
#1466=DIRECTION('',(-0.707106781186548,-0.707106781186548,0.0));
#1467=AXIS2_PLACEMENT_3D('',#1464,#1465,#1466);
#1468=CIRCLE('',#1467,0.5);
#1469=EDGE_CURVE('',#1461,#1463,#1468,.T.);
#1470=ORIENTED_EDGE('',*,*,#1469,.T.);
#1471=CARTESIAN_POINT('',(-19.300000000000001,-7.850000000000001,0.0));
#1472=DIRECTION('',(0.0,0.0,1.0));
#1473=VECTOR('',#1472,10.5);
#1474=LINE('',#1471,#1473);
#1475=EDGE_CURVE('',#1463,#1137,#1474,.T.);
#1476=ORIENTED_EDGE('',*,*,#1475,.T.);
#1477=ORIENTED_EDGE('',*,*,#1161,.F.);
#1478=CARTESIAN_POINT('',(-19.800000000000001,-7.350000000000001,10.5));
#1479=DIRECTION('',(0.0,0.0,-1.0));
#1480=VECTOR('',#1479,10.5);
#1481=LINE('',#1478,#1480);
#1482=EDGE_CURVE('',#1148,#1461,#1481,.T.);
#1483=ORIENTED_EDGE('',*,*,#1482,.T.);
#1484=EDGE_LOOP('',(#1470,#1476,#1477,#1483));
#1485=FACE_OUTER_BOUND('',#1484,.T.);
#1486=ADVANCED_FACE('',(#1485),#1459,.T.);
#1487=CARTESIAN_POINT('',(19.800000000000001,0.0,5.5));
#1488=DIRECTION('',(-1.0,0.0,0.0));
#1489=DIRECTION('',(0.0,0.0,1.0));
#1490=AXIS2_PLACEMENT_3D('',#1487,#1488,#1489);
#1491=PLANE('',#1490);
#1492=ORIENTED_EDGE('',*,*,#1342,.F.);
#1493=ORIENTED_EDGE('',*,*,#1310,.F.);
#1494=ORIENTED_EDGE('',*,*,#1443,.F.);
#1495=CARTESIAN_POINT('',(19.800000000000001,7.350000000000001,0.0));
#1496=DIRECTION('',(0.0,-1.0,0.0));
#1497=VECTOR('',#1496,14.700000000000001);
#1498=LINE('',#1495,#1497);
#1499=EDGE_CURVE('',#1321,#1431,#1498,.T.);
#1500=ORIENTED_EDGE('',*,*,#1499,.F.);
#1501=EDGE_LOOP('',(#1492,#1493,#1494,#1500));
#1502=FACE_OUTER_BOUND('',#1501,.T.);
#1503=ADVANCED_FACE('',(#1502),#1491,.F.);
#1504=CARTESIAN_POINT('',(0.0,-7.850000000000001,5.5));
#1505=DIRECTION('',(0.0,1.0,0.0));
#1506=DIRECTION('',(0.0,0.0,1.0));
#1507=AXIS2_PLACEMENT_3D('',#1504,#1505,#1506);
#1508=PLANE('',#1507);
#1509=ORIENTED_EDGE('',*,*,#1450,.F.);
#1510=ORIENTED_EDGE('',*,*,#1418,.F.);
#1511=ORIENTED_EDGE('',*,*,#1475,.F.);
#1512=CARTESIAN_POINT('',(19.300000000000001,-7.850000000000001,0.0));
#1513=DIRECTION('',(-1.0,0.0,0.0));
#1514=VECTOR('',#1513,38.600000000000001);
#1515=LINE('',#1512,#1514);
#1516=EDGE_CURVE('',#1429,#1463,#1515,.T.);
#1517=ORIENTED_EDGE('',*,*,#1516,.F.);
#1518=EDGE_LOOP('',(#1509,#1510,#1511,#1517));
#1519=FACE_OUTER_BOUND('',#1518,.T.);
#1520=ADVANCED_FACE('',(#1519),#1508,.F.);
#1521=CARTESIAN_POINT('',(0.0,0.0,11.0));
#1522=DIRECTION('',(0.0,0.0,1.0));
#1523=DIRECTION('',(1.0,0.0,0.0));
#1524=AXIS2_PLACEMENT_3D('',#1521,#1522,#1523);
#1525=PLANE('',#1524);
#1526=ORIENTED_EDGE('',*,*,#1281,.F.);
#1527=ORIENTED_EDGE('',*,*,#1389,.F.);
#1528=ORIENTED_EDGE('',*,*,#1411,.F.);
#1529=ORIENTED_EDGE('',*,*,#1303,.F.);
#1530=EDGE_LOOP('',(#1526,#1527,#1528,#1529));
#1531=FACE_OUTER_BOUND('',#1530,.T.);
#1532=ADVANCED_FACE('',(#1531),#1525,.T.);
#1533=CARTESIAN_POINT('',(0.0,0.0,0.0));
#1534=DIRECTION('',(0.0,0.0,1.0));
#1535=DIRECTION('',(1.0,0.0,0.0));
#1536=AXIS2_PLACEMENT_3D('',#1533,#1534,#1535);
#1537=PLANE('',#1536);
#1538=ORIENTED_EDGE('',*,*,#1329,.F.);
#1539=ORIENTED_EDGE('',*,*,#1499,.T.);
#1540=ORIENTED_EDGE('',*,*,#1437,.F.);
#1541=ORIENTED_EDGE('',*,*,#1516,.T.);
#1542=ORIENTED_EDGE('',*,*,#1469,.F.);
#1543=CARTESIAN_POINT('',(-19.800000000000001,-7.350000000000001,0.0));
#1544=DIRECTION('',(0.0,1.0,0.0));
#1545=VECTOR('',#1544,14.700000000000001);
#1546=LINE('',#1543,#1545);
#1547=EDGE_CURVE('',#1461,#1355,#1546,.T.);
#1548=ORIENTED_EDGE('',*,*,#1547,.T.);
#1549=ORIENTED_EDGE('',*,*,#1361,.F.);
#1550=CARTESIAN_POINT('',(-19.300000000000001,7.850000000000001,0.0));
#1551=DIRECTION('',(1.0,0.0,0.0));
#1552=VECTOR('',#1551,38.600000000000001);
#1553=LINE('',#1550,#1552);
#1554=EDGE_CURVE('',#1353,#1323,#1553,.T.);
#1555=ORIENTED_EDGE('',*,*,#1554,.T.);
#1556=EDGE_LOOP('',(#1538,#1539,#1540,#1541,#1542,#1548,#1549,#1555));
#1557=FACE_OUTER_BOUND('',#1556,.T.);
#1558=ADVANCED_FACE('',(#1557),#1537,.F.);
#1559=CARTESIAN_POINT('',(-19.800000000000001,0.0,5.5));
#1560=DIRECTION('',(1.0,0.0,0.0));
#1561=DIRECTION('',(0.0,0.0,-1.0));
#1562=AXIS2_PLACEMENT_3D('',#1559,#1560,#1561);
#1563=PLANE('',#1562);
#1564=ORIENTED_EDGE('',*,*,#1367,.F.);
#1565=ORIENTED_EDGE('',*,*,#1547,.F.);
#1566=ORIENTED_EDGE('',*,*,#1482,.F.);
#1567=ORIENTED_EDGE('',*,*,#1396,.F.);
#1568=EDGE_LOOP('',(#1564,#1565,#1566,#1567));
#1569=FACE_OUTER_BOUND('',#1568,.T.);
#1570=ADVANCED_FACE('',(#1569),#1563,.F.);
#1571=CARTESIAN_POINT('',(0.0,7.850000000000001,5.5));
#1572=DIRECTION('',(0.0,-1.0,0.0));
#1573=DIRECTION('',(0.0,0.0,-1.0));
#1574=AXIS2_PLACEMENT_3D('',#1571,#1572,#1573);
#1575=PLANE('',#1574);
#1576=ORIENTED_EDGE('',*,*,#1335,.F.);
#1577=ORIENTED_EDGE('',*,*,#1554,.F.);
#1578=ORIENTED_EDGE('',*,*,#1374,.F.);
#1579=ORIENTED_EDGE('',*,*,#1288,.F.);
#1580=EDGE_LOOP('',(#1576,#1577,#1578,#1579));
#1581=FACE_OUTER_BOUND('',#1580,.T.);
#1582=ADVANCED_FACE('',(#1581),#1575,.F.);
#1583=CLOSED_SHELL('',(#1165,#1200,#1235,#1270,#1292,#1314,#1346,#1378,#1400,#1422,#1454,#1486,#1503,#1520,#1532,#1558,#1570,#1582));
#1584=MANIFOLD_SOLID_BREP('1BA5',#1583);
#1585=COLOUR_RGB('254',0.866,0.866,0.866);
#1586=SURFACE_STYLE_USAGE(.BOTH.,#1587);
#1587=SURFACE_SIDE_STYLE('NONE',(#1588));
#1588=SURFACE_STYLE_FILL_AREA(#1589);
#1589=FILL_AREA_STYLE('NONE',(#1590));
#1590=FILL_AREA_STYLE_COLOUR('NONE',#1585);
#1591=PRESENTATION_STYLE_ASSIGNMENT((#1586));
#1592=STYLED_ITEM('NONE',(#1591),#1584);
#1593=ADVANCED_BREP_SHAPE_REPRESENTATION('ABSR1',(#214,#374,#525,#676,#827,#978,#1129,#1584),#28);
#1594=SHAPE_REPRESENTATION_RELATIONSHIP('SRRPL1','',#1593,#62);
ENDSEC;
END-ISO-10303-21;
