ISO-10303-21;
HEADER;
/****************************************************************
 * Generated by software with PDElib inside                    *
 * PDElib Version v51a, created Wed 11/30/2011                  *
 * ITI Transcendata (http://www.transcendata.com/)              *
 ****************************************************************/
FILE_DESCRIPTION((''),'2;1');
FILE_NAME('PWS_TRACO_TMS25.stp','2014-04-15T13:28:03',(''),(''),'Mechanical Desktop 2011','Mechanical Desktop 2011',', , ');
FILE_SCHEMA(('AUTOMOTIVE_DESIGN { 1 2 10303 214 1 1 1 1 }'));
ENDSEC;
DATA;
#10=(NAMED_UNIT(*)PLANE_ANGLE_UNIT()SI_UNIT($,.RADIAN.));
#11=DIMENSIONAL_EXPONENTS(0.0,0.0,0.0,0.0,0.0,0.0,0.0);
#12=PLANE_ANGLE_MEASURE_WITH_UNIT(PLANE_ANGLE_MEASURE(0.0174532925),#10);
#16=(CONVERSION_BASED_UNIT('DEGREE',#12)NAMED_UNIT(#11)PLANE_ANGLE_UNIT());
#20=(NAMED_UNIT(*)SI_UNIT($,.STERADIAN.)SOLID_ANGLE_UNIT());
#24=(LENGTH_UNIT()NAMED_UNIT(*)SI_UNIT(.MILLI.,.METRE.));
#26=UNCERTAINTY_MEASURE_WITH_UNIT(LENGTH_MEASURE(0.000001),#24,'DISTANCE_ACCURACY_VALUE','');
#28=(GEOMETRIC_REPRESENTATION_CONTEXT(3)GLOBAL_UNCERTAINTY_ASSIGNED_CONTEXT((#26))GLOBAL_UNIT_ASSIGNED_CONTEXT((#16,#20,#24))REPRESENTATION_CONTEXT('','3D'));
#29=APPLICATION_CONTEXT('automotive design');
#30=APPLICATION_PROTOCOL_DEFINITION('INTERNATIONAL_STANDARD','automotive_design',1998,#29);
#31=PRODUCT_CONTEXT('3D Mechanical Parts',#29,'mechanical');
#32=PRODUCT('Product','Product','',(#31));
#33=PRODUCT_RELATED_PRODUCT_CATEGORY('part',$,(#32));
#34=PRODUCT_CATEGORY('part',$);
#35=PERSON('1','Design','Joe',$,$,$);
#36=ORGANIZATION($,'None','None');
#37=PERSON_AND_ORGANIZATION(#35,#36);
#38=PERSON_AND_ORGANIZATION_ROLE('design_owner');
#39=APPLIED_PERSON_AND_ORGANIZATION_ASSIGNMENT(#37,#38,(#32));
#40=PRODUCT_DEFINITION_FORMATION_WITH_SPECIFIED_SOURCE('None','',#32,.BOUGHT.);
#41=PERSON('2','Creator','Joe',$,$,$);
#42=ORGANIZATION($,'None','None');
#43=PERSON_AND_ORGANIZATION(#41,#42);
#44=PERSON_AND_ORGANIZATION_ROLE('creator');
#45=APPLIED_PERSON_AND_ORGANIZATION_ASSIGNMENT(#43,#44,(#40));
#46=PERSON('3','Supplier','Joe',$,$,$);
#47=ORGANIZATION($,'None','None');
#48=PERSON_AND_ORGANIZATION(#46,#47);
#49=PERSON_AND_ORGANIZATION_ROLE('design_supplier');
#50=APPLIED_PERSON_AND_ORGANIZATION_ASSIGNMENT(#48,#49,(#40));
#51=PRODUCT_DEFINITION_CONTEXT('part definition',#29,'design');
#52=PRODUCT_DEFINITION('None','',#40,#51);
#53=PERSON('4','Creator','Joe',$,$,$);
#54=ORGANIZATION($,'None','None');
#55=PERSON_AND_ORGANIZATION(#53,#54);
#56=PERSON_AND_ORGANIZATION_ROLE('creator');
#57=APPLIED_PERSON_AND_ORGANIZATION_ASSIGNMENT(#55,#56,(#52));
#58=CARTESIAN_POINT('NONE',(0.0,0.0,0.0));
#59=DIRECTION('NONE',(0.0,0.0,1.0));
#60=DIRECTION('NONE',(1.0,0.0,0.0));
#61=AXIS2_PLACEMENT_3D('NONE',#58,#59,#60);
#62=SHAPE_REPRESENTATION('SR1',(#61),#28);
#63=PRODUCT_DEFINITION_SHAPE('PDS1','Test Part',#52);
#64=SHAPE_DEFINITION_REPRESENTATION(#63,#62);
#65=CARTESIAN_POINT('',(32.999999999999986,-22.500000000000007,27.949999999999999));
#66=DIRECTION('',(0.0,-1.0,0.0));
#67=DIRECTION('',(0.0,0.0,-1.0));
#68=AXIS2_PLACEMENT_3D('',#65,#66,#67);
#69=PLANE('',#68);
#70=CARTESIAN_POINT('',(32.999999999999986,-22.500000000000007,27.999999999999996));
#71=VERTEX_POINT('',#70);
#72=CARTESIAN_POINT('',(-33.000000000000014,-22.499999999999993,27.999999999999996));
#73=VERTEX_POINT('',#72);
#74=CARTESIAN_POINT('',(32.999999999999986,-22.500000000000007,28.0));
#75=DIRECTION('',(-1.0,0.0,0.0));
#76=VECTOR('',#75,66.0);
#77=LINE('',#74,#76);
#78=EDGE_CURVE('',#71,#73,#77,.T.);
#79=ORIENTED_EDGE('',*,*,#78,.T.);
#80=CARTESIAN_POINT('',(-33.000000000000014,-22.499999999999993,27.949999999999999));
#81=VERTEX_POINT('',#80);
#82=CARTESIAN_POINT('',(-33.000000000000014,-22.499999999999993,27.949999999999999));
#83=DIRECTION('',(0.0,0.0,1.0));
#84=VECTOR('',#83,0.049999999999997);
#85=LINE('',#82,#84);
#86=EDGE_CURVE('',#81,#73,#85,.T.);
#87=ORIENTED_EDGE('',*,*,#86,.F.);
#88=CARTESIAN_POINT('',(32.999999999999986,-22.500000000000007,27.949999999999999));
#89=VERTEX_POINT('',#88);
#90=CARTESIAN_POINT('',(32.999999999999986,-22.500000000000007,27.949999999999999));
#91=DIRECTION('',(-1.0,0.0,0.0));
#92=VECTOR('',#91,66.0);
#93=LINE('',#90,#92);
#94=EDGE_CURVE('',#89,#81,#93,.T.);
#95=ORIENTED_EDGE('',*,*,#94,.F.);
#96=CARTESIAN_POINT('',(32.999999999999986,-22.500000000000007,27.949999999999999));
#97=DIRECTION('',(0.0,0.0,1.0));
#98=VECTOR('',#97,0.049999999999997);
#99=LINE('',#96,#98);
#100=EDGE_CURVE('',#89,#71,#99,.T.);
#101=ORIENTED_EDGE('',*,*,#100,.T.);
#102=EDGE_LOOP('',(#79,#87,#95,#101));
#103=FACE_OUTER_BOUND('',#102,.T.);
#104=ADVANCED_FACE('',(#103),#69,.T.);
#105=CARTESIAN_POINT('',(-33.000000000000014,-22.499999999999993,27.949999999999999));
#106=DIRECTION('',(-1.0,0.0,0.0));
#107=DIRECTION('',(0.0,0.0,-1.0));
#108=AXIS2_PLACEMENT_3D('',#105,#106,#107);
#109=PLANE('',#108);
#110=CARTESIAN_POINT('',(-33.0,22.500000000000004,27.999999999999996));
#111=VERTEX_POINT('',#110);
#112=CARTESIAN_POINT('',(-33.000000000000014,-22.499999999999993,28.0));
#113=DIRECTION('',(0.0,1.0,0.0));
#114=VECTOR('',#113,45.0);
#115=LINE('',#112,#114);
#116=EDGE_CURVE('',#73,#111,#115,.T.);
#117=ORIENTED_EDGE('',*,*,#116,.T.);
#118=CARTESIAN_POINT('',(-33.0,22.500000000000004,27.949999999999999));
#119=VERTEX_POINT('',#118);
#120=CARTESIAN_POINT('',(-33.0,22.500000000000004,27.949999999999999));
#121=DIRECTION('',(0.0,0.0,1.0));
#122=VECTOR('',#121,0.049999999999997);
#123=LINE('',#120,#122);
#124=EDGE_CURVE('',#119,#111,#123,.T.);
#125=ORIENTED_EDGE('',*,*,#124,.F.);
#126=CARTESIAN_POINT('',(-33.000000000000014,-22.499999999999993,27.949999999999999));
#127=DIRECTION('',(0.0,1.0,0.0));
#128=VECTOR('',#127,45.0);
#129=LINE('',#126,#128);
#130=EDGE_CURVE('',#81,#119,#129,.T.);
#131=ORIENTED_EDGE('',*,*,#130,.F.);
#132=ORIENTED_EDGE('',*,*,#86,.T.);
#133=EDGE_LOOP('',(#117,#125,#131,#132));
#134=FACE_OUTER_BOUND('',#133,.T.);
#135=ADVANCED_FACE('',(#134),#109,.T.);
#136=CARTESIAN_POINT('',(-33.0,22.500000000000004,27.949999999999999));
#137=DIRECTION('',(0.0,1.0,0.0));
#138=DIRECTION('',(0.0,0.0,1.0));
#139=AXIS2_PLACEMENT_3D('',#136,#137,#138);
#140=PLANE('',#139);
#141=CARTESIAN_POINT('',(28.000000000000018,22.499999999999989,27.999999999999996));
#142=VERTEX_POINT('',#141);
#143=CARTESIAN_POINT('',(-33.0,22.500000000000004,28.0));
#144=DIRECTION('',(1.0,0.0,0.0));
#145=VECTOR('',#144,61.000000000000021);
#146=LINE('',#143,#145);
#147=EDGE_CURVE('',#111,#142,#146,.T.);
#148=ORIENTED_EDGE('',*,*,#147,.T.);
#149=CARTESIAN_POINT('',(28.000000000000018,22.499999999999989,27.949999999999999));
#150=VERTEX_POINT('',#149);
#151=CARTESIAN_POINT('',(28.000000000000018,22.499999999999989,27.949999999999999));
#152=DIRECTION('',(0.0,0.0,1.0));
#153=VECTOR('',#152,0.049999999999997);
#154=LINE('',#151,#153);
#155=EDGE_CURVE('',#150,#142,#154,.T.);
#156=ORIENTED_EDGE('',*,*,#155,.F.);
#157=CARTESIAN_POINT('',(-33.0,22.500000000000004,27.949999999999999));
#158=DIRECTION('',(1.0,0.0,0.0));
#159=VECTOR('',#158,61.000000000000021);
#160=LINE('',#157,#159);
#161=EDGE_CURVE('',#119,#150,#160,.T.);
#162=ORIENTED_EDGE('',*,*,#161,.F.);
#163=ORIENTED_EDGE('',*,*,#124,.T.);
#164=EDGE_LOOP('',(#148,#156,#162,#163));
#165=FACE_OUTER_BOUND('',#164,.T.);
#166=ADVANCED_FACE('',(#165),#140,.T.);
#167=CARTESIAN_POINT('',(28.000000000000018,22.499999999999989,27.949999999999999));
#168=DIRECTION('',(0.707106781186548,0.707106781186547,0.0));
#169=DIRECTION('',(0.0,0.0,1.0));
#170=AXIS2_PLACEMENT_3D('',#167,#168,#169);
#171=PLANE('',#170);
#172=CARTESIAN_POINT('',(33.000000000000014,17.499999999999986,27.999999999999996));
#173=VERTEX_POINT('',#172);
#174=CARTESIAN_POINT('',(28.000000000000018,22.499999999999989,28.0));
#175=DIRECTION('',(0.707106781186547,-0.707106781186548,0.0));
#176=VECTOR('',#175,7.071067811865473);
#177=LINE('',#174,#176);
#178=EDGE_CURVE('',#142,#173,#177,.T.);
#179=ORIENTED_EDGE('',*,*,#178,.T.);
#180=CARTESIAN_POINT('',(33.000000000000014,17.499999999999986,27.949999999999999));
#181=VERTEX_POINT('',#180);
#182=CARTESIAN_POINT('',(33.000000000000014,17.499999999999986,27.949999999999999));
#183=DIRECTION('',(0.0,0.0,1.0));
#184=VECTOR('',#183,0.049999999999997);
#185=LINE('',#182,#184);
#186=EDGE_CURVE('',#181,#173,#185,.T.);
#187=ORIENTED_EDGE('',*,*,#186,.F.);
#188=CARTESIAN_POINT('',(28.000000000000018,22.499999999999989,27.949999999999999));
#189=DIRECTION('',(0.707106781186547,-0.707106781186548,0.0));
#190=VECTOR('',#189,7.071067811865473);
#191=LINE('',#188,#190);
#192=EDGE_CURVE('',#150,#181,#191,.T.);
#193=ORIENTED_EDGE('',*,*,#192,.F.);
#194=ORIENTED_EDGE('',*,*,#155,.T.);
#195=EDGE_LOOP('',(#179,#187,#193,#194));
#196=FACE_OUTER_BOUND('',#195,.T.);
#197=ADVANCED_FACE('',(#196),#171,.T.);
#198=CARTESIAN_POINT('',(33.000000000000014,17.499999999999986,27.949999999999999));
#199=DIRECTION('',(1.0,0.0,0.0));
#200=DIRECTION('',(0.0,0.0,1.0));
#201=AXIS2_PLACEMENT_3D('',#198,#199,#200);
#202=PLANE('',#201);
#203=CARTESIAN_POINT('',(33.000000000000014,17.499999999999986,28.0));
#204=DIRECTION('',(0.0,-1.0,0.0));
#205=VECTOR('',#204,39.999999999999993);
#206=LINE('',#203,#205);
#207=EDGE_CURVE('',#173,#71,#206,.T.);
#208=ORIENTED_EDGE('',*,*,#207,.T.);
#209=ORIENTED_EDGE('',*,*,#100,.F.);
#210=CARTESIAN_POINT('',(33.000000000000014,17.499999999999986,27.949999999999999));
#211=DIRECTION('',(0.0,-1.0,0.0));
#212=VECTOR('',#211,39.999999999999993);
#213=LINE('',#210,#212);
#214=EDGE_CURVE('',#181,#89,#213,.T.);
#215=ORIENTED_EDGE('',*,*,#214,.F.);
#216=ORIENTED_EDGE('',*,*,#186,.T.);
#217=EDGE_LOOP('',(#208,#209,#215,#216));
#218=FACE_OUTER_BOUND('',#217,.T.);
#219=ADVANCED_FACE('',(#218),#202,.T.);
#220=CARTESIAN_POINT('',(-0.464837428124264,-0.324454728196841,27.999999999999996));
#221=DIRECTION('',(0.0,0.0,1.0));
#222=DIRECTION('',(0.0,-1.0,0.0));
#223=AXIS2_PLACEMENT_3D('',#220,#221,#222);
#224=PLANE('',#223);
#225=ORIENTED_EDGE('',*,*,#78,.F.);
#226=ORIENTED_EDGE('',*,*,#207,.F.);
#227=ORIENTED_EDGE('',*,*,#178,.F.);
#228=ORIENTED_EDGE('',*,*,#147,.F.);
#229=ORIENTED_EDGE('',*,*,#116,.F.);
#230=EDGE_LOOP('',(#225,#226,#227,#228,#229));
#231=FACE_OUTER_BOUND('',#230,.T.);
#232=ADVANCED_FACE('',(#231),#224,.T.);
#233=CARTESIAN_POINT('',(-0.464837428124262,-0.324454728196842,27.949999999999989));
#234=DIRECTION('',(0.0,0.0,1.0));
#235=DIRECTION('',(0.0,-1.0,0.0));
#236=AXIS2_PLACEMENT_3D('',#233,#234,#235);
#237=PLANE('',#236);
#238=ORIENTED_EDGE('',*,*,#214,.T.);
#239=ORIENTED_EDGE('',*,*,#94,.T.);
#240=ORIENTED_EDGE('',*,*,#130,.T.);
#241=ORIENTED_EDGE('',*,*,#161,.T.);
#242=ORIENTED_EDGE('',*,*,#192,.T.);
#243=EDGE_LOOP('',(#238,#239,#240,#241,#242));
#244=FACE_OUTER_BOUND('',#243,.T.);
#245=ADVANCED_FACE('',(#244),#237,.F.);
#246=CLOSED_SHELL('',(#104,#135,#166,#197,#219,#232,#245));
#247=MANIFOLD_SOLID_BREP('2B78',#246);
#248=COLOUR_RGB('230',1.0,0.0,0.5);
#249=SURFACE_STYLE_USAGE(.BOTH.,#250);
#250=SURFACE_SIDE_STYLE('NONE',(#251));
#251=SURFACE_STYLE_FILL_AREA(#252);
#252=FILL_AREA_STYLE('NONE',(#253));
#253=FILL_AREA_STYLE_COLOUR('NONE',#248);
#254=PRESENTATION_STYLE_ASSIGNMENT((#249));
#255=STYLED_ITEM('NONE',(#254),#247);
#256=MECHANICAL_DESIGN_GEOMETRIC_PRESENTATION_REPRESENTATION('NONE',(#255,#353,#442,#531,#620,#709,#798,#956,#1814),#28);
#257=PRESENTATION_LAYER_ASSIGNMENT('3D','None',(#247,#345,#441,#530,#619,#708,#797,#948,#1806));
#258=CARTESIAN_POINT('',(-33.000000000000014,17.500000000000007,1.0));
#259=DIRECTION('',(0.0,0.0,-1.0));
#260=DIRECTION('',(0.0,-1.0,0.0));
#261=AXIS2_PLACEMENT_3D('',#258,#259,#260);
#262=CYLINDRICAL_SURFACE('',#261,0.55);
#263=CARTESIAN_POINT('',(-33.000000000000014,16.950000000000006,-3.6));
#264=VERTEX_POINT('',#263);
#265=CARTESIAN_POINT('',(-33.000000000000014,16.950000000000006,1.0));
#266=VERTEX_POINT('',#265);
#267=CARTESIAN_POINT('',(-33.000000000000014,16.950000000000006,-3.6));
#268=DIRECTION('',(0.0,0.0,1.0));
#269=VECTOR('',#268,4.6);
#270=LINE('',#267,#269);
#271=EDGE_CURVE('',#264,#266,#270,.T.);
#272=ORIENTED_EDGE('',*,*,#271,.F.);
#273=CARTESIAN_POINT('',(-33.000000000000014,18.050000000000008,-3.6));
#274=VERTEX_POINT('',#273);
#275=CARTESIAN_POINT('',(-33.000000000000014,17.500000000000007,-3.6));
#276=DIRECTION('',(0.0,0.0,1.0));
#277=DIRECTION('',(0.0,-1.0,0.0));
#278=AXIS2_PLACEMENT_3D('',#275,#276,#277);
#279=CIRCLE('',#278,0.55);
#280=EDGE_CURVE('',#264,#274,#279,.T.);
#281=ORIENTED_EDGE('',*,*,#280,.T.);
#282=CARTESIAN_POINT('',(-33.000000000000014,18.050000000000008,1.0));
#283=VERTEX_POINT('',#282);
#284=CARTESIAN_POINT('',(-33.000000000000014,18.050000000000008,-3.6));
#285=DIRECTION('',(0.0,0.0,1.0));
#286=VECTOR('',#285,4.6);
#287=LINE('',#284,#286);
#288=EDGE_CURVE('',#274,#283,#287,.T.);
#289=ORIENTED_EDGE('',*,*,#288,.T.);
#290=CARTESIAN_POINT('',(-33.000000000000014,17.500000000000007,1.0));
#291=DIRECTION('',(0.0,0.0,1.0));
#292=DIRECTION('',(0.0,-1.0,0.0));
#293=AXIS2_PLACEMENT_3D('',#290,#291,#292);
#294=CIRCLE('',#293,0.55);
#295=EDGE_CURVE('',#266,#283,#294,.T.);
#296=ORIENTED_EDGE('',*,*,#295,.F.);
#297=EDGE_LOOP('',(#272,#281,#289,#296));
#298=FACE_OUTER_BOUND('',#297,.T.);
#299=ADVANCED_FACE('',(#298),#262,.T.);
#300=CARTESIAN_POINT('',(-33.000000000000014,17.500000000000007,1.0));
#301=DIRECTION('',(0.0,0.0,-1.0));
#302=DIRECTION('',(0.0,-1.0,0.0));
#303=AXIS2_PLACEMENT_3D('',#300,#301,#302);
#304=CYLINDRICAL_SURFACE('',#303,0.55);
#305=ORIENTED_EDGE('',*,*,#271,.T.);
#306=CARTESIAN_POINT('',(-33.000000000000014,17.500000000000007,1.0));
#307=DIRECTION('',(0.0,0.0,1.0));
#308=DIRECTION('',(0.0,-1.0,0.0));
#309=AXIS2_PLACEMENT_3D('',#306,#307,#308);
#310=CIRCLE('',#309,0.55);
#311=EDGE_CURVE('',#283,#266,#310,.T.);
#312=ORIENTED_EDGE('',*,*,#311,.F.);
#313=ORIENTED_EDGE('',*,*,#288,.F.);
#314=CARTESIAN_POINT('',(-33.000000000000014,17.500000000000007,-3.6));
#315=DIRECTION('',(0.0,0.0,1.0));
#316=DIRECTION('',(0.0,-1.0,0.0));
#317=AXIS2_PLACEMENT_3D('',#314,#315,#316);
#318=CIRCLE('',#317,0.55);
#319=EDGE_CURVE('',#274,#264,#318,.T.);
#320=ORIENTED_EDGE('',*,*,#319,.T.);
#321=EDGE_LOOP('',(#305,#312,#313,#320));
#322=FACE_OUTER_BOUND('',#321,.T.);
#323=ADVANCED_FACE('',(#322),#304,.T.);
#324=CARTESIAN_POINT('',(-33.000000000000014,17.500000000000007,-3.6));
#325=DIRECTION('',(0.0,0.0,1.0));
#326=DIRECTION('',(0.0,-1.0,0.0));
#327=AXIS2_PLACEMENT_3D('',#324,#325,#326);
#328=PLANE('',#327);
#329=ORIENTED_EDGE('',*,*,#280,.F.);
#330=ORIENTED_EDGE('',*,*,#319,.F.);
#331=EDGE_LOOP('',(#329,#330));
#332=FACE_OUTER_BOUND('',#331,.T.);
#333=ADVANCED_FACE('',(#332),#328,.F.);
#334=CARTESIAN_POINT('',(-33.000000000000014,17.500000000000007,1.0));
#335=DIRECTION('',(0.0,0.0,1.0));
#336=DIRECTION('',(0.0,-1.0,0.0));
#337=AXIS2_PLACEMENT_3D('',#334,#335,#336);
#338=PLANE('',#337);
#339=ORIENTED_EDGE('',*,*,#295,.T.);
#340=ORIENTED_EDGE('',*,*,#311,.T.);
#341=EDGE_LOOP('',(#339,#340));
#342=FACE_OUTER_BOUND('',#341,.T.);
#343=ADVANCED_FACE('',(#342),#338,.T.);
#344=CLOSED_SHELL('',(#299,#323,#333,#343));
#345=MANIFOLD_SOLID_BREP('2B73',#344);
#346=COLOUR_RGB('254',0.866,0.866,0.866);
#347=SURFACE_STYLE_USAGE(.BOTH.,#348);
#348=SURFACE_SIDE_STYLE('NONE',(#349));
#349=SURFACE_STYLE_FILL_AREA(#350);
#350=FILL_AREA_STYLE('NONE',(#351));
#351=FILL_AREA_STYLE_COLOUR('NONE',#346);
#352=PRESENTATION_STYLE_ASSIGNMENT((#347));
#353=STYLED_ITEM('NONE',(#352),#345);
#354=CARTESIAN_POINT('',(-33.000000000000014,-17.499999999999993,1.0));
#355=DIRECTION('',(0.0,0.0,-1.0));
#356=DIRECTION('',(0.0,-1.0,0.0));
#357=AXIS2_PLACEMENT_3D('',#354,#355,#356);
#358=CYLINDRICAL_SURFACE('',#357,0.55);
#359=CARTESIAN_POINT('',(-33.000000000000014,-18.049999999999994,-3.6));
#360=VERTEX_POINT('',#359);
#361=CARTESIAN_POINT('',(-33.000000000000014,-18.049999999999994,1.0));
#362=VERTEX_POINT('',#361);
#363=CARTESIAN_POINT('',(-33.000000000000014,-18.049999999999994,-3.6));
#364=DIRECTION('',(0.0,0.0,1.0));
#365=VECTOR('',#364,4.6);
#366=LINE('',#363,#365);
#367=EDGE_CURVE('',#360,#362,#366,.T.);
#368=ORIENTED_EDGE('',*,*,#367,.F.);
#369=CARTESIAN_POINT('',(-33.000000000000014,-16.949999999999992,-3.6));
#370=VERTEX_POINT('',#369);
#371=CARTESIAN_POINT('',(-33.000000000000014,-17.499999999999993,-3.6));
#372=DIRECTION('',(0.0,0.0,1.0));
#373=DIRECTION('',(0.0,-1.0,0.0));
#374=AXIS2_PLACEMENT_3D('',#371,#372,#373);
#375=CIRCLE('',#374,0.55);
#376=EDGE_CURVE('',#360,#370,#375,.T.);
#377=ORIENTED_EDGE('',*,*,#376,.T.);
#378=CARTESIAN_POINT('',(-33.000000000000014,-16.949999999999992,1.0));
#379=VERTEX_POINT('',#378);
#380=CARTESIAN_POINT('',(-33.000000000000014,-16.949999999999992,-3.6));
#381=DIRECTION('',(0.0,0.0,1.0));
#382=VECTOR('',#381,4.6);
#383=LINE('',#380,#382);
#384=EDGE_CURVE('',#370,#379,#383,.T.);
#385=ORIENTED_EDGE('',*,*,#384,.T.);
#386=CARTESIAN_POINT('',(-33.000000000000014,-17.499999999999993,1.0));
#387=DIRECTION('',(0.0,0.0,1.0));
#388=DIRECTION('',(0.0,-1.0,0.0));
#389=AXIS2_PLACEMENT_3D('',#386,#387,#388);
#390=CIRCLE('',#389,0.55);
#391=EDGE_CURVE('',#362,#379,#390,.T.);
#392=ORIENTED_EDGE('',*,*,#391,.F.);
#393=EDGE_LOOP('',(#368,#377,#385,#392));
#394=FACE_OUTER_BOUND('',#393,.T.);
#395=ADVANCED_FACE('',(#394),#358,.T.);
#396=CARTESIAN_POINT('',(-33.000000000000014,-17.499999999999993,1.0));
#397=DIRECTION('',(0.0,0.0,-1.0));
#398=DIRECTION('',(0.0,-1.0,0.0));
#399=AXIS2_PLACEMENT_3D('',#396,#397,#398);
#400=CYLINDRICAL_SURFACE('',#399,0.55);
#401=ORIENTED_EDGE('',*,*,#367,.T.);
#402=CARTESIAN_POINT('',(-33.000000000000014,-17.499999999999993,1.0));
#403=DIRECTION('',(0.0,0.0,1.0));
#404=DIRECTION('',(0.0,-1.0,0.0));
#405=AXIS2_PLACEMENT_3D('',#402,#403,#404);
#406=CIRCLE('',#405,0.55);
#407=EDGE_CURVE('',#379,#362,#406,.T.);
#408=ORIENTED_EDGE('',*,*,#407,.F.);
#409=ORIENTED_EDGE('',*,*,#384,.F.);
#410=CARTESIAN_POINT('',(-33.000000000000014,-17.499999999999993,-3.6));
#411=DIRECTION('',(0.0,0.0,1.0));
#412=DIRECTION('',(0.0,-1.0,0.0));
#413=AXIS2_PLACEMENT_3D('',#410,#411,#412);
#414=CIRCLE('',#413,0.55);
#415=EDGE_CURVE('',#370,#360,#414,.T.);
#416=ORIENTED_EDGE('',*,*,#415,.T.);
#417=EDGE_LOOP('',(#401,#408,#409,#416));
#418=FACE_OUTER_BOUND('',#417,.T.);
#419=ADVANCED_FACE('',(#418),#400,.T.);
#420=CARTESIAN_POINT('',(-33.000000000000014,-17.499999999999993,-3.6));
#421=DIRECTION('',(0.0,0.0,1.0));
#422=DIRECTION('',(0.0,-1.0,0.0));
#423=AXIS2_PLACEMENT_3D('',#420,#421,#422);
#424=PLANE('',#423);
#425=ORIENTED_EDGE('',*,*,#376,.F.);
#426=ORIENTED_EDGE('',*,*,#415,.F.);
#427=EDGE_LOOP('',(#425,#426));
#428=FACE_OUTER_BOUND('',#427,.T.);
#429=ADVANCED_FACE('',(#428),#424,.F.);
#430=CARTESIAN_POINT('',(-33.000000000000014,-17.499999999999993,1.0));
#431=DIRECTION('',(0.0,0.0,1.0));
#432=DIRECTION('',(0.0,-1.0,0.0));
#433=AXIS2_PLACEMENT_3D('',#430,#431,#432);
#434=PLANE('',#433);
#435=ORIENTED_EDGE('',*,*,#391,.T.);
#436=ORIENTED_EDGE('',*,*,#407,.T.);
#437=EDGE_LOOP('',(#435,#436));
#438=FACE_OUTER_BOUND('',#437,.T.);
#439=ADVANCED_FACE('',(#438),#434,.T.);
#440=CLOSED_SHELL('',(#395,#419,#429,#439));
#441=MANIFOLD_SOLID_BREP('2B6F',#440);
#442=STYLED_ITEM('NONE',(#352),#441);
#443=CARTESIAN_POINT('',(-33.000000000000014,6.062002E-015,1.0));
#444=DIRECTION('',(0.0,0.0,-1.0));
#445=DIRECTION('',(0.0,-1.0,0.0));
#446=AXIS2_PLACEMENT_3D('',#443,#444,#445);
#447=CYLINDRICAL_SURFACE('',#446,0.55);
#448=CARTESIAN_POINT('',(-33.000000000000014,-0.549999999999995,-3.6));
#449=VERTEX_POINT('',#448);
#450=CARTESIAN_POINT('',(-33.000000000000014,-0.549999999999995,1.0));
#451=VERTEX_POINT('',#450);
#452=CARTESIAN_POINT('',(-33.000000000000014,-0.549999999999994,-3.6));
#453=DIRECTION('',(0.0,0.0,1.0));
#454=VECTOR('',#453,4.6);
#455=LINE('',#452,#454);
#456=EDGE_CURVE('',#449,#451,#455,.T.);
#457=ORIENTED_EDGE('',*,*,#456,.F.);
#458=CARTESIAN_POINT('',(-33.000000000000014,0.550000000000006,-3.6));
#459=VERTEX_POINT('',#458);
#460=CARTESIAN_POINT('',(-33.000000000000014,6.062002E-015,-3.6));
#461=DIRECTION('',(0.0,0.0,1.0));
#462=DIRECTION('',(0.0,-1.0,0.0));
#463=AXIS2_PLACEMENT_3D('',#460,#461,#462);
#464=CIRCLE('',#463,0.55);
#465=EDGE_CURVE('',#449,#459,#464,.T.);
#466=ORIENTED_EDGE('',*,*,#465,.T.);
#467=CARTESIAN_POINT('',(-33.000000000000014,0.550000000000006,1.0));
#468=VERTEX_POINT('',#467);
#469=CARTESIAN_POINT('',(-33.000000000000014,0.550000000000006,-3.6));
#470=DIRECTION('',(0.0,0.0,1.0));
#471=VECTOR('',#470,4.6);
#472=LINE('',#469,#471);
#473=EDGE_CURVE('',#459,#468,#472,.T.);
#474=ORIENTED_EDGE('',*,*,#473,.T.);
#475=CARTESIAN_POINT('',(-33.000000000000014,6.062002E-015,1.0));
#476=DIRECTION('',(0.0,0.0,1.0));
#477=DIRECTION('',(0.0,-1.0,0.0));
#478=AXIS2_PLACEMENT_3D('',#475,#476,#477);
#479=CIRCLE('',#478,0.55);
#480=EDGE_CURVE('',#451,#468,#479,.T.);
#481=ORIENTED_EDGE('',*,*,#480,.F.);
#482=EDGE_LOOP('',(#457,#466,#474,#481));
#483=FACE_OUTER_BOUND('',#482,.T.);
#484=ADVANCED_FACE('',(#483),#447,.T.);
#485=CARTESIAN_POINT('',(-33.000000000000014,6.062002E-015,1.0));
#486=DIRECTION('',(0.0,0.0,-1.0));
#487=DIRECTION('',(0.0,-1.0,0.0));
#488=AXIS2_PLACEMENT_3D('',#485,#486,#487);
#489=CYLINDRICAL_SURFACE('',#488,0.55);
#490=ORIENTED_EDGE('',*,*,#456,.T.);
#491=CARTESIAN_POINT('',(-33.000000000000014,6.062002E-015,1.0));
#492=DIRECTION('',(0.0,0.0,1.0));
#493=DIRECTION('',(0.0,-1.0,0.0));
#494=AXIS2_PLACEMENT_3D('',#491,#492,#493);
#495=CIRCLE('',#494,0.55);
#496=EDGE_CURVE('',#468,#451,#495,.T.);
#497=ORIENTED_EDGE('',*,*,#496,.F.);
#498=ORIENTED_EDGE('',*,*,#473,.F.);
#499=CARTESIAN_POINT('',(-33.000000000000014,6.062002E-015,-3.6));
#500=DIRECTION('',(0.0,0.0,1.0));
#501=DIRECTION('',(0.0,-1.0,0.0));
#502=AXIS2_PLACEMENT_3D('',#499,#500,#501);
#503=CIRCLE('',#502,0.55);
#504=EDGE_CURVE('',#459,#449,#503,.T.);
#505=ORIENTED_EDGE('',*,*,#504,.T.);
#506=EDGE_LOOP('',(#490,#497,#498,#505));
#507=FACE_OUTER_BOUND('',#506,.T.);
#508=ADVANCED_FACE('',(#507),#489,.T.);
#509=CARTESIAN_POINT('',(-33.000000000000014,6.062002E-015,-3.6));
#510=DIRECTION('',(0.0,0.0,1.0));
#511=DIRECTION('',(0.0,-1.0,0.0));
#512=AXIS2_PLACEMENT_3D('',#509,#510,#511);
#513=PLANE('',#512);
#514=ORIENTED_EDGE('',*,*,#465,.F.);
#515=ORIENTED_EDGE('',*,*,#504,.F.);
#516=EDGE_LOOP('',(#514,#515));
#517=FACE_OUTER_BOUND('',#516,.T.);
#518=ADVANCED_FACE('',(#517),#513,.F.);
#519=CARTESIAN_POINT('',(-33.000000000000014,6.062002E-015,1.0));
#520=DIRECTION('',(0.0,0.0,1.0));
#521=DIRECTION('',(0.0,-1.0,0.0));
#522=AXIS2_PLACEMENT_3D('',#519,#520,#521);
#523=PLANE('',#522);
#524=ORIENTED_EDGE('',*,*,#480,.T.);
#525=ORIENTED_EDGE('',*,*,#496,.T.);
#526=EDGE_LOOP('',(#524,#525));
#527=FACE_OUTER_BOUND('',#526,.T.);
#528=ADVANCED_FACE('',(#527),#523,.T.);
#529=CLOSED_SHELL('',(#484,#508,#518,#528));
#530=MANIFOLD_SOLID_BREP('2B6B',#529);
#531=STYLED_ITEM('NONE',(#352),#530);
#532=CARTESIAN_POINT('',(33.0,-10.000000000000012,1.0));
#533=DIRECTION('',(0.0,0.0,-1.0));
#534=DIRECTION('',(0.0,-1.0,0.0));
#535=AXIS2_PLACEMENT_3D('',#532,#533,#534);
#536=CYLINDRICAL_SURFACE('',#535,0.55);
#537=CARTESIAN_POINT('',(33.0,-10.550000000000013,-3.6));
#538=VERTEX_POINT('',#537);
#539=CARTESIAN_POINT('',(33.0,-10.550000000000013,1.0));
#540=VERTEX_POINT('',#539);
#541=CARTESIAN_POINT('',(33.0,-10.550000000000013,-3.6));
#542=DIRECTION('',(0.0,0.0,1.0));
#543=VECTOR('',#542,4.6);
#544=LINE('',#541,#543);
#545=EDGE_CURVE('',#538,#540,#544,.T.);
#546=ORIENTED_EDGE('',*,*,#545,.F.);
#547=CARTESIAN_POINT('',(33.0,-9.450000000000012,-3.6));
#548=VERTEX_POINT('',#547);
#549=CARTESIAN_POINT('',(33.0,-10.000000000000012,-3.6));
#550=DIRECTION('',(0.0,0.0,1.0));
#551=DIRECTION('',(0.0,-1.0,0.0));
#552=AXIS2_PLACEMENT_3D('',#549,#550,#551);
#553=CIRCLE('',#552,0.55);
#554=EDGE_CURVE('',#538,#548,#553,.T.);
#555=ORIENTED_EDGE('',*,*,#554,.T.);
#556=CARTESIAN_POINT('',(33.0,-9.450000000000012,1.0));
#557=VERTEX_POINT('',#556);
#558=CARTESIAN_POINT('',(33.0,-9.450000000000012,-3.6));
#559=DIRECTION('',(0.0,0.0,1.0));
#560=VECTOR('',#559,4.6);
#561=LINE('',#558,#560);
#562=EDGE_CURVE('',#548,#557,#561,.T.);
#563=ORIENTED_EDGE('',*,*,#562,.T.);
#564=CARTESIAN_POINT('',(33.0,-10.000000000000012,1.0));
#565=DIRECTION('',(0.0,0.0,1.0));
#566=DIRECTION('',(0.0,-1.0,0.0));
#567=AXIS2_PLACEMENT_3D('',#564,#565,#566);
#568=CIRCLE('',#567,0.55);
#569=EDGE_CURVE('',#540,#557,#568,.T.);
#570=ORIENTED_EDGE('',*,*,#569,.F.);
#571=EDGE_LOOP('',(#546,#555,#563,#570));
#572=FACE_OUTER_BOUND('',#571,.T.);
#573=ADVANCED_FACE('',(#572),#536,.T.);
#574=CARTESIAN_POINT('',(33.0,-10.000000000000012,1.0));
#575=DIRECTION('',(0.0,0.0,-1.0));
#576=DIRECTION('',(0.0,-1.0,0.0));
#577=AXIS2_PLACEMENT_3D('',#574,#575,#576);
#578=CYLINDRICAL_SURFACE('',#577,0.55);
#579=ORIENTED_EDGE('',*,*,#545,.T.);
#580=CARTESIAN_POINT('',(33.0,-10.000000000000012,1.0));
#581=DIRECTION('',(0.0,0.0,1.0));
#582=DIRECTION('',(0.0,-1.0,0.0));
#583=AXIS2_PLACEMENT_3D('',#580,#581,#582);
#584=CIRCLE('',#583,0.55);
#585=EDGE_CURVE('',#557,#540,#584,.T.);
#586=ORIENTED_EDGE('',*,*,#585,.F.);
#587=ORIENTED_EDGE('',*,*,#562,.F.);
#588=CARTESIAN_POINT('',(33.0,-10.000000000000012,-3.6));
#589=DIRECTION('',(0.0,0.0,1.0));
#590=DIRECTION('',(0.0,-1.0,0.0));
#591=AXIS2_PLACEMENT_3D('',#588,#589,#590);
#592=CIRCLE('',#591,0.55);
#593=EDGE_CURVE('',#548,#538,#592,.T.);
#594=ORIENTED_EDGE('',*,*,#593,.T.);
#595=EDGE_LOOP('',(#579,#586,#587,#594));
#596=FACE_OUTER_BOUND('',#595,.T.);
#597=ADVANCED_FACE('',(#596),#578,.T.);
#598=CARTESIAN_POINT('',(33.0,-10.000000000000012,-3.6));
#599=DIRECTION('',(0.0,0.0,1.0));
#600=DIRECTION('',(0.0,-1.0,0.0));
#601=AXIS2_PLACEMENT_3D('',#598,#599,#600);
#602=PLANE('',#601);
#603=ORIENTED_EDGE('',*,*,#554,.F.);
#604=ORIENTED_EDGE('',*,*,#593,.F.);
#605=EDGE_LOOP('',(#603,#604));
#606=FACE_OUTER_BOUND('',#605,.T.);
#607=ADVANCED_FACE('',(#606),#602,.F.);
#608=CARTESIAN_POINT('',(33.0,-10.000000000000012,1.0));
#609=DIRECTION('',(0.0,0.0,1.0));
#610=DIRECTION('',(0.0,-1.0,0.0));
#611=AXIS2_PLACEMENT_3D('',#608,#609,#610);
#612=PLANE('',#611);
#613=ORIENTED_EDGE('',*,*,#569,.T.);
#614=ORIENTED_EDGE('',*,*,#585,.T.);
#615=EDGE_LOOP('',(#613,#614));
#616=FACE_OUTER_BOUND('',#615,.T.);
#617=ADVANCED_FACE('',(#616),#612,.T.);
#618=CLOSED_SHELL('',(#573,#597,#607,#617));
#619=MANIFOLD_SOLID_BREP('2B67',#618);
#620=STYLED_ITEM('NONE',(#352),#619);
#621=CARTESIAN_POINT('',(33.0,-1.139107E-014,1.0));
#622=DIRECTION('',(0.0,0.0,-1.0));
#623=DIRECTION('',(0.0,-1.0,0.0));
#624=AXIS2_PLACEMENT_3D('',#621,#622,#623);
#625=CYLINDRICAL_SURFACE('',#624,0.55);
#626=CARTESIAN_POINT('',(33.0,-0.550000000000012,-3.6));
#627=VERTEX_POINT('',#626);
#628=CARTESIAN_POINT('',(33.0,-0.550000000000012,1.0));
#629=VERTEX_POINT('',#628);
#630=CARTESIAN_POINT('',(33.0,-0.550000000000011,-3.6));
#631=DIRECTION('',(0.0,0.0,1.0));
#632=VECTOR('',#631,4.6);
#633=LINE('',#630,#632);
#634=EDGE_CURVE('',#627,#629,#633,.T.);
#635=ORIENTED_EDGE('',*,*,#634,.F.);
#636=CARTESIAN_POINT('',(33.0,0.549999999999989,-3.6));
#637=VERTEX_POINT('',#636);
#638=CARTESIAN_POINT('',(33.0,-1.139107E-014,-3.6));
#639=DIRECTION('',(0.0,0.0,1.0));
#640=DIRECTION('',(0.0,-1.0,0.0));
#641=AXIS2_PLACEMENT_3D('',#638,#639,#640);
#642=CIRCLE('',#641,0.55);
#643=EDGE_CURVE('',#627,#637,#642,.T.);
#644=ORIENTED_EDGE('',*,*,#643,.T.);
#645=CARTESIAN_POINT('',(33.0,0.549999999999989,1.0));
#646=VERTEX_POINT('',#645);
#647=CARTESIAN_POINT('',(33.0,0.549999999999989,-3.6));
#648=DIRECTION('',(0.0,0.0,1.0));
#649=VECTOR('',#648,4.6);
#650=LINE('',#647,#649);
#651=EDGE_CURVE('',#637,#646,#650,.T.);
#652=ORIENTED_EDGE('',*,*,#651,.T.);
#653=CARTESIAN_POINT('',(33.0,-1.139107E-014,1.0));
#654=DIRECTION('',(0.0,0.0,1.0));
#655=DIRECTION('',(0.0,-1.0,0.0));
#656=AXIS2_PLACEMENT_3D('',#653,#654,#655);
#657=CIRCLE('',#656,0.55);
#658=EDGE_CURVE('',#629,#646,#657,.T.);
#659=ORIENTED_EDGE('',*,*,#658,.F.);
#660=EDGE_LOOP('',(#635,#644,#652,#659));
#661=FACE_OUTER_BOUND('',#660,.T.);
#662=ADVANCED_FACE('',(#661),#625,.T.);
#663=CARTESIAN_POINT('',(33.0,-1.139107E-014,1.0));
#664=DIRECTION('',(0.0,0.0,-1.0));
#665=DIRECTION('',(0.0,-1.0,0.0));
#666=AXIS2_PLACEMENT_3D('',#663,#664,#665);
#667=CYLINDRICAL_SURFACE('',#666,0.55);
#668=ORIENTED_EDGE('',*,*,#634,.T.);
#669=CARTESIAN_POINT('',(33.0,-1.139107E-014,1.0));
#670=DIRECTION('',(0.0,0.0,1.0));
#671=DIRECTION('',(0.0,-1.0,0.0));
#672=AXIS2_PLACEMENT_3D('',#669,#670,#671);
#673=CIRCLE('',#672,0.55);
#674=EDGE_CURVE('',#646,#629,#673,.T.);
#675=ORIENTED_EDGE('',*,*,#674,.F.);
#676=ORIENTED_EDGE('',*,*,#651,.F.);
#677=CARTESIAN_POINT('',(33.0,-1.139107E-014,-3.6));
#678=DIRECTION('',(0.0,0.0,1.0));
#679=DIRECTION('',(0.0,-1.0,0.0));
#680=AXIS2_PLACEMENT_3D('',#677,#678,#679);
#681=CIRCLE('',#680,0.55);
#682=EDGE_CURVE('',#637,#627,#681,.T.);
#683=ORIENTED_EDGE('',*,*,#682,.T.);
#684=EDGE_LOOP('',(#668,#675,#676,#683));
#685=FACE_OUTER_BOUND('',#684,.T.);
#686=ADVANCED_FACE('',(#685),#667,.T.);
#687=CARTESIAN_POINT('',(33.0,-1.139107E-014,-3.6));
#688=DIRECTION('',(0.0,0.0,1.0));
#689=DIRECTION('',(0.0,-1.0,0.0));
#690=AXIS2_PLACEMENT_3D('',#687,#688,#689);
#691=PLANE('',#690);
#692=ORIENTED_EDGE('',*,*,#643,.F.);
#693=ORIENTED_EDGE('',*,*,#682,.F.);
#694=EDGE_LOOP('',(#692,#693));
#695=FACE_OUTER_BOUND('',#694,.T.);
#696=ADVANCED_FACE('',(#695),#691,.F.);
#697=CARTESIAN_POINT('',(33.0,-1.139107E-014,1.0));
#698=DIRECTION('',(0.0,0.0,1.0));
#699=DIRECTION('',(0.0,-1.0,0.0));
#700=AXIS2_PLACEMENT_3D('',#697,#698,#699);
#701=PLANE('',#700);
#702=ORIENTED_EDGE('',*,*,#658,.T.);
#703=ORIENTED_EDGE('',*,*,#674,.T.);
#704=EDGE_LOOP('',(#702,#703));
#705=FACE_OUTER_BOUND('',#704,.T.);
#706=ADVANCED_FACE('',(#705),#701,.T.);
#707=CLOSED_SHELL('',(#662,#686,#696,#706));
#708=MANIFOLD_SOLID_BREP('2B63',#707);
#709=STYLED_ITEM('NONE',(#352),#708);
#710=CARTESIAN_POINT('',(33.0,9.999999999999991,1.0));
#711=DIRECTION('',(0.0,0.0,-1.0));
#712=DIRECTION('',(0.0,-1.0,0.0));
#713=AXIS2_PLACEMENT_3D('',#710,#711,#712);
#714=CYLINDRICAL_SURFACE('',#713,0.55);
#715=CARTESIAN_POINT('',(33.0,9.44999999999999,-3.6));
#716=VERTEX_POINT('',#715);
#717=CARTESIAN_POINT('',(33.0,9.44999999999999,1.0));
#718=VERTEX_POINT('',#717);
#719=CARTESIAN_POINT('',(33.0,9.44999999999999,-3.6));
#720=DIRECTION('',(0.0,0.0,1.0));
#721=VECTOR('',#720,4.6);
#722=LINE('',#719,#721);
#723=EDGE_CURVE('',#716,#718,#722,.T.);
#724=ORIENTED_EDGE('',*,*,#723,.F.);
#725=CARTESIAN_POINT('',(33.0,10.549999999999992,-3.6));
#726=VERTEX_POINT('',#725);
#727=CARTESIAN_POINT('',(33.0,9.999999999999991,-3.6));
#728=DIRECTION('',(0.0,0.0,1.0));
#729=DIRECTION('',(0.0,-1.0,0.0));
#730=AXIS2_PLACEMENT_3D('',#727,#728,#729);
#731=CIRCLE('',#730,0.55);
#732=EDGE_CURVE('',#716,#726,#731,.T.);
#733=ORIENTED_EDGE('',*,*,#732,.T.);
#734=CARTESIAN_POINT('',(33.0,10.549999999999992,1.0));
#735=VERTEX_POINT('',#734);
#736=CARTESIAN_POINT('',(33.0,10.549999999999992,-3.6));
#737=DIRECTION('',(0.0,0.0,1.0));
#738=VECTOR('',#737,4.6);
#739=LINE('',#736,#738);
#740=EDGE_CURVE('',#726,#735,#739,.T.);
#741=ORIENTED_EDGE('',*,*,#740,.T.);
#742=CARTESIAN_POINT('',(33.0,9.999999999999991,1.0));
#743=DIRECTION('',(0.0,0.0,1.0));
#744=DIRECTION('',(0.0,-1.0,0.0));
#745=AXIS2_PLACEMENT_3D('',#742,#743,#744);
#746=CIRCLE('',#745,0.55);
#747=EDGE_CURVE('',#718,#735,#746,.T.);
#748=ORIENTED_EDGE('',*,*,#747,.F.);
#749=EDGE_LOOP('',(#724,#733,#741,#748));
#750=FACE_OUTER_BOUND('',#749,.T.);
#751=ADVANCED_FACE('',(#750),#714,.T.);
#752=CARTESIAN_POINT('',(33.0,9.999999999999991,1.0));
#753=DIRECTION('',(0.0,0.0,-1.0));
#754=DIRECTION('',(0.0,-1.0,0.0));
#755=AXIS2_PLACEMENT_3D('',#752,#753,#754);
#756=CYLINDRICAL_SURFACE('',#755,0.55);
#757=ORIENTED_EDGE('',*,*,#723,.T.);
#758=CARTESIAN_POINT('',(33.0,9.999999999999991,1.0));
#759=DIRECTION('',(0.0,0.0,1.0));
#760=DIRECTION('',(0.0,-1.0,0.0));
#761=AXIS2_PLACEMENT_3D('',#758,#759,#760);
#762=CIRCLE('',#761,0.55);
#763=EDGE_CURVE('',#735,#718,#762,.T.);
#764=ORIENTED_EDGE('',*,*,#763,.F.);
#765=ORIENTED_EDGE('',*,*,#740,.F.);
#766=CARTESIAN_POINT('',(33.0,9.999999999999991,-3.6));
#767=DIRECTION('',(0.0,0.0,1.0));
#768=DIRECTION('',(0.0,-1.0,0.0));
#769=AXIS2_PLACEMENT_3D('',#766,#767,#768);
#770=CIRCLE('',#769,0.55);
#771=EDGE_CURVE('',#726,#716,#770,.T.);
#772=ORIENTED_EDGE('',*,*,#771,.T.);
#773=EDGE_LOOP('',(#757,#764,#765,#772));
#774=FACE_OUTER_BOUND('',#773,.T.);
#775=ADVANCED_FACE('',(#774),#756,.T.);
#776=CARTESIAN_POINT('',(33.0,9.999999999999991,-3.6));
#777=DIRECTION('',(0.0,0.0,1.0));
#778=DIRECTION('',(0.0,-1.0,0.0));
#779=AXIS2_PLACEMENT_3D('',#776,#777,#778);
#780=PLANE('',#779);
#781=ORIENTED_EDGE('',*,*,#732,.F.);
#782=ORIENTED_EDGE('',*,*,#771,.F.);
#783=EDGE_LOOP('',(#781,#782));
#784=FACE_OUTER_BOUND('',#783,.T.);
#785=ADVANCED_FACE('',(#784),#780,.F.);
#786=CARTESIAN_POINT('',(33.0,9.999999999999991,1.0));
#787=DIRECTION('',(0.0,0.0,1.0));
#788=DIRECTION('',(0.0,-1.0,0.0));
#789=AXIS2_PLACEMENT_3D('',#786,#787,#788);
#790=PLANE('',#789);
#791=ORIENTED_EDGE('',*,*,#747,.T.);
#792=ORIENTED_EDGE('',*,*,#763,.T.);
#793=EDGE_LOOP('',(#791,#792));
#794=FACE_OUTER_BOUND('',#793,.T.);
#795=ADVANCED_FACE('',(#794),#790,.T.);
#796=CLOSED_SHELL('',(#751,#775,#785,#795));
#797=MANIFOLD_SOLID_BREP('2B5F',#796);
#798=STYLED_ITEM('NONE',(#352),#797);
#799=CARTESIAN_POINT('',(37.000000000000021,24.499999999999989,0.0));
#800=DIRECTION('',(1.0,0.0,0.0));
#801=DIRECTION('',(0.0,0.0,1.0));
#802=AXIS2_PLACEMENT_3D('',#799,#800,#801);
#803=PLANE('',#802);
#804=CARTESIAN_POINT('',(37.000000000000021,24.499999999999989,27.0));
#805=VERTEX_POINT('',#804);
#806=CARTESIAN_POINT('',(36.999999999999986,-24.500000000000007,27.0));
#807=VERTEX_POINT('',#806);
#808=CARTESIAN_POINT('',(37.000000000000014,24.499999999999993,27.0));
#809=DIRECTION('',(0.0,-1.0,0.0));
#810=VECTOR('',#809,49.0);
#811=LINE('',#808,#810);
#812=EDGE_CURVE('',#805,#807,#811,.T.);
#813=ORIENTED_EDGE('',*,*,#812,.T.);
#814=CARTESIAN_POINT('',(36.999999999999986,-24.500000000000007,1.0));
#815=VERTEX_POINT('',#814);
#816=CARTESIAN_POINT('',(36.999999999999986,-24.500000000000007,1.0));
#817=DIRECTION('',(0.0,0.0,1.0));
#818=VECTOR('',#817,26.0);
#819=LINE('',#816,#818);
#820=EDGE_CURVE('',#815,#807,#819,.T.);
#821=ORIENTED_EDGE('',*,*,#820,.F.);
#822=CARTESIAN_POINT('',(37.000000000000021,24.499999999999989,1.0));
#823=VERTEX_POINT('',#822);
#824=CARTESIAN_POINT('',(36.999999999999986,-24.500000000000007,1.0));
#825=DIRECTION('',(0.0,1.0,0.0));
#826=VECTOR('',#825,49.0);
#827=LINE('',#824,#826);
#828=EDGE_CURVE('',#815,#823,#827,.T.);
#829=ORIENTED_EDGE('',*,*,#828,.T.);
#830=CARTESIAN_POINT('',(37.000000000000021,24.499999999999989,1.0));
#831=DIRECTION('',(0.0,0.0,1.0));
#832=VECTOR('',#831,26.0);
#833=LINE('',#830,#832);
#834=EDGE_CURVE('',#823,#805,#833,.T.);
#835=ORIENTED_EDGE('',*,*,#834,.T.);
#836=EDGE_LOOP('',(#813,#821,#829,#835));
#837=FACE_OUTER_BOUND('',#836,.T.);
#838=ADVANCED_FACE('',(#837),#803,.T.);
#839=CARTESIAN_POINT('',(36.999999999999986,-24.500000000000007,0.0));
#840=DIRECTION('',(0.0,-1.0,0.0));
#841=DIRECTION('',(0.0,0.0,-1.0));
#842=AXIS2_PLACEMENT_3D('',#839,#840,#841);
#843=PLANE('',#842);
#844=CARTESIAN_POINT('',(-37.000000000000014,-24.499999999999996,27.0));
#845=VERTEX_POINT('',#844);
#846=CARTESIAN_POINT('',(36.999999999999986,-24.500000000000007,27.0));
#847=DIRECTION('',(-1.0,0.0,0.0));
#848=VECTOR('',#847,74.0);
#849=LINE('',#846,#848);
#850=EDGE_CURVE('',#807,#845,#849,.T.);
#851=ORIENTED_EDGE('',*,*,#850,.T.);
#852=CARTESIAN_POINT('',(-37.000000000000014,-24.499999999999996,1.0));
#853=VERTEX_POINT('',#852);
#854=CARTESIAN_POINT('',(-37.000000000000014,-24.499999999999996,1.0));
#855=DIRECTION('',(0.0,0.0,1.0));
#856=VECTOR('',#855,26.0);
#857=LINE('',#854,#856);
#858=EDGE_CURVE('',#853,#845,#857,.T.);
#859=ORIENTED_EDGE('',*,*,#858,.F.);
#860=CARTESIAN_POINT('',(-37.000000000000014,-24.499999999999996,1.0));
#861=DIRECTION('',(1.0,0.0,0.0));
#862=VECTOR('',#861,74.0);
#863=LINE('',#860,#862);
#864=EDGE_CURVE('',#853,#815,#863,.T.);
#865=ORIENTED_EDGE('',*,*,#864,.T.);
#866=ORIENTED_EDGE('',*,*,#820,.T.);
#867=EDGE_LOOP('',(#851,#859,#865,#866));
#868=FACE_OUTER_BOUND('',#867,.T.);
#869=ADVANCED_FACE('',(#868),#843,.T.);
#870=CARTESIAN_POINT('',(-37.000000000000014,-24.499999999999996,0.0));
#871=DIRECTION('',(-1.0,0.0,0.0));
#872=DIRECTION('',(0.0,0.0,-1.0));
#873=AXIS2_PLACEMENT_3D('',#870,#871,#872);
#874=PLANE('',#873);
#875=CARTESIAN_POINT('',(-36.999999999999993,24.500000000000004,27.0));
#876=VERTEX_POINT('',#875);
#877=CARTESIAN_POINT('',(-37.000000000000007,-24.499999999999996,27.0));
#878=DIRECTION('',(0.0,1.0,0.0));
#879=VECTOR('',#878,49.0);
#880=LINE('',#877,#879);
#881=EDGE_CURVE('',#845,#876,#880,.T.);
#882=ORIENTED_EDGE('',*,*,#881,.T.);
#883=CARTESIAN_POINT('',(-36.999999999999993,24.500000000000004,1.0));
#884=VERTEX_POINT('',#883);
#885=CARTESIAN_POINT('',(-36.999999999999993,24.500000000000004,1.0));
#886=DIRECTION('',(0.0,0.0,1.0));
#887=VECTOR('',#886,26.0);
#888=LINE('',#885,#887);
#889=EDGE_CURVE('',#884,#876,#888,.T.);
#890=ORIENTED_EDGE('',*,*,#889,.F.);
#891=CARTESIAN_POINT('',(-36.999999999999993,24.500000000000004,1.0));
#892=DIRECTION('',(0.0,-1.0,0.0));
#893=VECTOR('',#892,49.0);
#894=LINE('',#891,#893);
#895=EDGE_CURVE('',#884,#853,#894,.T.);
#896=ORIENTED_EDGE('',*,*,#895,.T.);
#897=ORIENTED_EDGE('',*,*,#858,.T.);
#898=EDGE_LOOP('',(#882,#890,#896,#897));
#899=FACE_OUTER_BOUND('',#898,.T.);
#900=ADVANCED_FACE('',(#899),#874,.T.);
#901=CARTESIAN_POINT('',(-36.999999999999993,24.500000000000004,0.0));
#902=DIRECTION('',(0.0,1.0,0.0));
#903=DIRECTION('',(0.0,0.0,1.0));
#904=AXIS2_PLACEMENT_3D('',#901,#902,#903);
#905=PLANE('',#904);
#906=CARTESIAN_POINT('',(-36.999999999999993,24.500000000000004,27.0));
#907=DIRECTION('',(1.0,0.0,0.0));
#908=VECTOR('',#907,74.000000000000014);
#909=LINE('',#906,#908);
#910=EDGE_CURVE('',#876,#805,#909,.T.);
#911=ORIENTED_EDGE('',*,*,#910,.T.);
#912=ORIENTED_EDGE('',*,*,#834,.F.);
#913=CARTESIAN_POINT('',(37.000000000000021,24.499999999999989,1.0));
#914=DIRECTION('',(-1.0,0.0,0.0));
#915=VECTOR('',#914,74.000000000000014);
#916=LINE('',#913,#915);
#917=EDGE_CURVE('',#823,#884,#916,.T.);
#918=ORIENTED_EDGE('',*,*,#917,.T.);
#919=ORIENTED_EDGE('',*,*,#889,.T.);
#920=EDGE_LOOP('',(#911,#912,#918,#919));
#921=FACE_OUTER_BOUND('',#920,.T.);
#922=ADVANCED_FACE('',(#921),#905,.T.);
#923=CARTESIAN_POINT('',(1.776357E-015,-8.072708E-016,1.0));
#924=DIRECTION('',(0.0,0.0,1.0));
#925=DIRECTION('',(0.0,-1.0,0.0));
#926=AXIS2_PLACEMENT_3D('',#923,#924,#925);
#927=PLANE('',#926);
#928=ORIENTED_EDGE('',*,*,#917,.F.);
#929=ORIENTED_EDGE('',*,*,#828,.F.);
#930=ORIENTED_EDGE('',*,*,#864,.F.);
#931=ORIENTED_EDGE('',*,*,#895,.F.);
#932=EDGE_LOOP('',(#928,#929,#930,#931));
#933=FACE_OUTER_BOUND('',#932,.T.);
#934=ADVANCED_FACE('',(#933),#927,.F.);
#935=CARTESIAN_POINT('',(1.776357E-015,-6.308496E-016,27.0));
#936=DIRECTION('',(0.0,0.0,1.0));
#937=DIRECTION('',(0.0,-1.0,0.0));
#938=AXIS2_PLACEMENT_3D('',#935,#936,#937);
#939=PLANE('',#938);
#940=ORIENTED_EDGE('',*,*,#812,.F.);
#941=ORIENTED_EDGE('',*,*,#910,.F.);
#942=ORIENTED_EDGE('',*,*,#881,.F.);
#943=ORIENTED_EDGE('',*,*,#850,.F.);
#944=EDGE_LOOP('',(#940,#941,#942,#943));
#945=FACE_OUTER_BOUND('',#944,.T.);
#946=ADVANCED_FACE('',(#945),#939,.T.);
#947=CLOSED_SHELL('',(#838,#869,#900,#922,#934,#946));
#948=MANIFOLD_SOLID_BREP('2B38',#947);
#949=COLOUR_RGB('252',0.598,0.598,0.598);
#950=SURFACE_STYLE_USAGE(.BOTH.,#951);
#951=SURFACE_SIDE_STYLE('NONE',(#952));
#952=SURFACE_STYLE_FILL_AREA(#953);
#953=FILL_AREA_STYLE('NONE',(#954));
#954=FILL_AREA_STYLE_COLOUR('NONE',#949);
#955=PRESENTATION_STYLE_ASSIGNMENT((#950));
#956=STYLED_ITEM('NONE',(#955),#948);
#957=CARTESIAN_POINT('',(36.999999999999993,-24.500000000000007,26.949999999999999));
#958=DIRECTION('',(-0.408248290463863,-0.816496580927726,-0.408248290463863));
#959=DIRECTION('',(0.577350269189626,-0.577350269189626,0.577350269189626));
#960=AXIS2_PLACEMENT_3D('',#957,#958,#959);
#961=SPHERICAL_SURFACE('',#960,1.0);
#962=CARTESIAN_POINT('',(36.999999999999993,-25.500000000000007,26.949999999999999));
#963=VERTEX_POINT('',#962);
#964=CARTESIAN_POINT('',(37.999999999999993,-24.500000000000007,26.949999999999999));
#965=VERTEX_POINT('',#964);
#966=CARTESIAN_POINT('',(36.999999999999993,-24.500000000000007,26.949999999999999));
#967=DIRECTION('',(0.0,0.0,1.0));
#968=DIRECTION('',(0.707106781186548,-0.707106781186548,0.0));
#969=AXIS2_PLACEMENT_3D('',#966,#967,#968);
#970=CIRCLE('',#969,1.0);
#971=EDGE_CURVE('',#963,#965,#970,.T.);
#972=ORIENTED_EDGE('',*,*,#971,.T.);
#973=CARTESIAN_POINT('',(36.999999999999993,-24.500000000000007,27.949999999999999));
#974=VERTEX_POINT('',#973);
#975=CARTESIAN_POINT('',(36.999999999999993,-24.5,26.949999999999999));
#976=DIRECTION('',(0.0,-1.0,0.0));
#977=DIRECTION('',(0.0,0.0,1.0));
#978=AXIS2_PLACEMENT_3D('',#975,#976,#977);
#979=CIRCLE('',#978,1.0);
#980=EDGE_CURVE('',#974,#965,#979,.F.);
#981=ORIENTED_EDGE('',*,*,#980,.F.);
#982=CARTESIAN_POINT('',(36.999999999999993,-24.500000000000007,26.949999999999999));
#983=DIRECTION('',(1.0,0.0,0.0));
#984=DIRECTION('',(0.0,-1.0,0.0));
#985=AXIS2_PLACEMENT_3D('',#982,#983,#984);
#986=CIRCLE('',#985,1.0);
#987=EDGE_CURVE('',#963,#974,#986,.F.);
#988=ORIENTED_EDGE('',*,*,#987,.F.);
#989=EDGE_LOOP('',(#972,#981,#988));
#990=FACE_OUTER_BOUND('',#989,.T.);
#991=ADVANCED_FACE('',(#990),#961,.T.);
#992=CARTESIAN_POINT('',(37.000000000000028,24.499999999999989,26.949999999999999));
#993=DIRECTION('',(0.408248290463862,-0.816496580927724,0.408248290463868));
#994=DIRECTION('',(0.57735026918962,0.577350269189629,0.577350269189629));
#995=AXIS2_PLACEMENT_3D('',#992,#993,#994);
#996=SPHERICAL_SURFACE('',#995,1.0);
#997=CARTESIAN_POINT('',(38.000000000000021,24.499999999999989,26.949999999999999));
#998=VERTEX_POINT('',#997);
#999=CARTESIAN_POINT('',(37.000000000000028,25.499999999999989,26.949999999999999));
#1000=VERTEX_POINT('',#999);
#1001=CARTESIAN_POINT('',(37.000000000000028,24.499999999999989,26.949999999999999));
#1002=DIRECTION('',(0.0,0.0,1.0));
#1003=DIRECTION('',(0.707106781186548,0.707106781186548,0.0));
#1004=AXIS2_PLACEMENT_3D('',#1001,#1002,#1003);
#1005=CIRCLE('',#1004,1.0);
#1006=EDGE_CURVE('',#998,#1000,#1005,.T.);
#1007=ORIENTED_EDGE('',*,*,#1006,.T.);
#1008=CARTESIAN_POINT('',(37.000000000000021,24.499999999999989,27.949999999999999));
#1009=VERTEX_POINT('',#1008);
#1010=CARTESIAN_POINT('',(37.000000000000021,24.499999999999989,26.949999999999999));
#1011=DIRECTION('',(1.0,0.0,0.0));
#1012=DIRECTION('',(0.0,0.0,1.0));
#1013=AXIS2_PLACEMENT_3D('',#1010,#1011,#1012);
#1014=CIRCLE('',#1013,1.0);
#1015=EDGE_CURVE('',#1009,#1000,#1014,.F.);
#1016=ORIENTED_EDGE('',*,*,#1015,.F.);
#1017=CARTESIAN_POINT('',(37.000000000000021,24.499999999999989,26.949999999999999));
#1018=DIRECTION('',(0.0,1.0,0.0));
#1019=DIRECTION('',(0.707106781186548,0.0,0.707106781186548));
#1020=AXIS2_PLACEMENT_3D('',#1017,#1018,#1019);
#1021=CIRCLE('',#1020,1.0);
#1022=EDGE_CURVE('',#1009,#998,#1021,.T.);
#1023=ORIENTED_EDGE('',*,*,#1022,.T.);
#1024=EDGE_LOOP('',(#1007,#1016,#1023));
#1025=FACE_OUTER_BOUND('',#1024,.T.);
#1026=ADVANCED_FACE('',(#1025),#996,.T.);
#1027=CARTESIAN_POINT('',(-37.000000000000014,-24.499999999999993,26.949999999999999));
#1028=DIRECTION('',(0.408248290463863,-0.816496580927726,-0.408248290463863));
#1029=DIRECTION('',(-0.577350269189626,-0.577350269189626,0.577350269189626));
#1030=AXIS2_PLACEMENT_3D('',#1027,#1028,#1029);
#1031=SPHERICAL_SURFACE('',#1030,1.0);
#1032=CARTESIAN_POINT('',(-37.000000000000014,-25.499999999999993,26.949999999999999));
#1033=VERTEX_POINT('',#1032);
#1034=CARTESIAN_POINT('',(-37.000000000000014,-24.499999999999993,27.949999999999999));
#1035=VERTEX_POINT('',#1034);
#1036=CARTESIAN_POINT('',(-37.000000000000014,-24.499999999999993,26.949999999999999));
#1037=DIRECTION('',(-1.0,0.0,0.0));
#1038=DIRECTION('',(0.0,-0.707106781186548,0.707106781186548));
#1039=AXIS2_PLACEMENT_3D('',#1036,#1037,#1038);
#1040=CIRCLE('',#1039,1.0);
#1041=EDGE_CURVE('',#1033,#1035,#1040,.T.);
#1042=ORIENTED_EDGE('',*,*,#1041,.T.);
#1043=CARTESIAN_POINT('',(-38.000000000000014,-24.499999999999993,26.949999999999999));
#1044=VERTEX_POINT('',#1043);
#1045=CARTESIAN_POINT('',(-37.000000000000014,-24.499999999999993,26.949999999999999));
#1046=DIRECTION('',(0.0,-1.0,0.0));
#1047=DIRECTION('',(-1.0,0.0,0.0));
#1048=AXIS2_PLACEMENT_3D('',#1045,#1046,#1047);
#1049=CIRCLE('',#1048,1.0);
#1050=EDGE_CURVE('',#1044,#1035,#1049,.F.);
#1051=ORIENTED_EDGE('',*,*,#1050,.F.);
#1052=CARTESIAN_POINT('',(-37.000000000000014,-24.499999999999993,26.949999999999999));
#1053=DIRECTION('',(0.0,0.0,1.0));
#1054=DIRECTION('',(-0.707106781186548,-0.707106781186548,0.0));
#1055=AXIS2_PLACEMENT_3D('',#1052,#1053,#1054);
#1056=CIRCLE('',#1055,1.0);
#1057=EDGE_CURVE('',#1044,#1033,#1056,.T.);
#1058=ORIENTED_EDGE('',*,*,#1057,.T.);
#1059=EDGE_LOOP('',(#1042,#1051,#1058));
#1060=FACE_OUTER_BOUND('',#1059,.T.);
#1061=ADVANCED_FACE('',(#1060),#1031,.T.);
#1062=CARTESIAN_POINT('',(-37.000000000000007,24.500000000000007,26.949999999999999));
#1063=DIRECTION('',(-0.40824829046386,-0.816496580927729,0.40824829046386));
#1064=DIRECTION('',(-0.577350269189628,0.577350269189622,0.577350269189628));
#1065=AXIS2_PLACEMENT_3D('',#1062,#1063,#1064);
#1066=SPHERICAL_SURFACE('',#1065,1.0);
#1067=CARTESIAN_POINT('',(-37.000000000000007,24.5,27.949999999999999));
#1068=VERTEX_POINT('',#1067);
#1069=CARTESIAN_POINT('',(-37.000000000000007,25.500000000000004,26.949999999999999));
#1070=VERTEX_POINT('',#1069);
#1071=CARTESIAN_POINT('',(-37.000000000000007,24.500000000000004,26.949999999999999));
#1072=DIRECTION('',(-1.0,0.0,0.0));
#1073=DIRECTION('',(0.0,0.707106781186545,0.70710678118655));
#1074=AXIS2_PLACEMENT_3D('',#1071,#1072,#1073);
#1075=CIRCLE('',#1074,1.0);
#1076=EDGE_CURVE('',#1068,#1070,#1075,.T.);
#1077=ORIENTED_EDGE('',*,*,#1076,.T.);
#1078=CARTESIAN_POINT('',(-38.000000000000007,24.500000000000007,26.949999999999999));
#1079=VERTEX_POINT('',#1078);
#1080=CARTESIAN_POINT('',(-37.000000000000007,24.500000000000007,26.949999999999999));
#1081=DIRECTION('',(0.0,0.0,1.0));
#1082=DIRECTION('',(-1.0,0.0,0.0));
#1083=AXIS2_PLACEMENT_3D('',#1080,#1081,#1082);
#1084=CIRCLE('',#1083,1.0);
#1085=EDGE_CURVE('',#1079,#1070,#1084,.F.);
#1086=ORIENTED_EDGE('',*,*,#1085,.F.);
#1087=CARTESIAN_POINT('',(-37.000000000000007,24.500000000000007,26.949999999999999));
#1088=DIRECTION('',(-3.552714E-015,1.0,3.552714E-015));
#1089=DIRECTION('',(-0.707106781186548,-5.024296E-015,0.707106781186548));
#1090=AXIS2_PLACEMENT_3D('',#1087,#1088,#1089);
#1091=CIRCLE('',#1090,1.0);
#1092=EDGE_CURVE('',#1079,#1068,#1091,.T.);
#1093=ORIENTED_EDGE('',*,*,#1092,.T.);
#1094=EDGE_LOOP('',(#1077,#1086,#1093));
#1095=FACE_OUTER_BOUND('',#1094,.T.);
#1096=ADVANCED_FACE('',(#1095),#1066,.T.);
#1097=CARTESIAN_POINT('',(-37.000000000000007,24.500000000000007,0.0));
#1098=DIRECTION('',(0.0,0.0,1.0));
#1099=DIRECTION('',(-0.707106781186548,0.707106781186548,0.0));
#1100=AXIS2_PLACEMENT_3D('',#1097,#1098,#1099);
#1101=CYLINDRICAL_SURFACE('',#1100,1.0);
#1102=CARTESIAN_POINT('',(-37.000000000000007,25.500000000000004,0.0));
#1103=VERTEX_POINT('',#1102);
#1104=CARTESIAN_POINT('',(-38.0,24.500000000000007,0.0));
#1105=VERTEX_POINT('',#1104);
#1106=CARTESIAN_POINT('',(-37.000000000000007,24.500000000000007,0.0));
#1107=DIRECTION('',(0.0,0.0,1.0));
#1108=DIRECTION('',(-0.707106781186548,0.707106781186548,0.0));
#1109=AXIS2_PLACEMENT_3D('',#1106,#1107,#1108);
#1110=CIRCLE('',#1109,1.0);
#1111=EDGE_CURVE('',#1103,#1105,#1110,.T.);
#1112=ORIENTED_EDGE('',*,*,#1111,.T.);
#1113=CARTESIAN_POINT('',(-38.000000000000007,24.500000000000007,0.0));
#1114=DIRECTION('',(0.0,0.0,1.0));
#1115=VECTOR('',#1114,26.949999999999999);
#1116=LINE('',#1113,#1115);
#1117=EDGE_CURVE('',#1105,#1079,#1116,.T.);
#1118=ORIENTED_EDGE('',*,*,#1117,.T.);
#1119=ORIENTED_EDGE('',*,*,#1085,.T.);
#1120=CARTESIAN_POINT('',(-37.000000000000007,25.500000000000004,26.949999999999999));
#1121=DIRECTION('',(0.0,0.0,-1.0));
#1122=VECTOR('',#1121,26.949999999999999);
#1123=LINE('',#1120,#1122);
#1124=EDGE_CURVE('',#1070,#1103,#1123,.T.);
#1125=ORIENTED_EDGE('',*,*,#1124,.T.);
#1126=EDGE_LOOP('',(#1112,#1118,#1119,#1125));
#1127=FACE_OUTER_BOUND('',#1126,.T.);
#1128=ADVANCED_FACE('',(#1127),#1101,.T.);
#1129=CARTESIAN_POINT('',(-37.000000000000014,-12.749999999999993,26.949999999999999));
#1130=DIRECTION('',(1.836970E-016,1.0,0.0));
#1131=DIRECTION('',(-0.707106781186548,0.0,0.707106781186548));
#1132=AXIS2_PLACEMENT_3D('',#1129,#1130,#1131);
#1133=CYLINDRICAL_SURFACE('',#1132,1.0);
#1134=ORIENTED_EDGE('',*,*,#1092,.F.);
#1135=CARTESIAN_POINT('',(-38.000000000000007,24.500000000000007,26.949999999999999));
#1136=DIRECTION('',(0.0,-1.0,0.0));
#1137=VECTOR('',#1136,49.0);
#1138=LINE('',#1135,#1137);
#1139=EDGE_CURVE('',#1079,#1044,#1138,.T.);
#1140=ORIENTED_EDGE('',*,*,#1139,.T.);
#1141=ORIENTED_EDGE('',*,*,#1050,.T.);
#1142=CARTESIAN_POINT('',(-37.000000000000014,-24.499999999999993,27.949999999999999));
#1143=DIRECTION('',(0.0,1.0,0.0));
#1144=VECTOR('',#1143,48.999999999999993);
#1145=LINE('',#1142,#1144);
#1146=EDGE_CURVE('',#1035,#1068,#1145,.T.);
#1147=ORIENTED_EDGE('',*,*,#1146,.T.);
#1148=EDGE_LOOP('',(#1134,#1140,#1141,#1147));
#1149=FACE_OUTER_BOUND('',#1148,.T.);
#1150=ADVANCED_FACE('',(#1149),#1133,.T.);
#1151=CARTESIAN_POINT('',(-19.0,24.5,26.949999999999999));
#1152=DIRECTION('',(1.0,-1.836970E-016,0.0));
#1153=DIRECTION('',(0.0,0.707106781186548,0.707106781186548));
#1154=AXIS2_PLACEMENT_3D('',#1151,#1152,#1153);
#1155=CYLINDRICAL_SURFACE('',#1154,1.0);
#1156=ORIENTED_EDGE('',*,*,#1015,.T.);
#1157=CARTESIAN_POINT('',(37.000000000000028,25.499999999999989,26.949999999999999));
#1158=DIRECTION('',(-1.0,0.0,0.0));
#1159=VECTOR('',#1158,74.000000000000028);
#1160=LINE('',#1157,#1159);
#1161=EDGE_CURVE('',#1000,#1070,#1160,.T.);
#1162=ORIENTED_EDGE('',*,*,#1161,.T.);
#1163=ORIENTED_EDGE('',*,*,#1076,.F.);
#1164=CARTESIAN_POINT('',(-37.000000000000007,24.500000000000004,27.949999999999999));
#1165=DIRECTION('',(1.0,0.0,0.0));
#1166=VECTOR('',#1165,74.000000000000028);
#1167=LINE('',#1164,#1166);
#1168=EDGE_CURVE('',#1068,#1009,#1167,.T.);
#1169=ORIENTED_EDGE('',*,*,#1168,.T.);
#1170=EDGE_LOOP('',(#1156,#1162,#1163,#1169));
#1171=FACE_OUTER_BOUND('',#1170,.T.);
#1172=ADVANCED_FACE('',(#1171),#1155,.T.);
#1173=CARTESIAN_POINT('',(-37.000000000000014,-24.499999999999993,0.0));
#1174=DIRECTION('',(0.0,0.0,1.0));
#1175=DIRECTION('',(-0.707106781186548,-0.707106781186548,0.0));
#1176=AXIS2_PLACEMENT_3D('',#1173,#1174,#1175);
#1177=CYLINDRICAL_SURFACE('',#1176,1.0);
#1178=CARTESIAN_POINT('',(-38.000000000000007,-24.499999999999996,0.0));
#1179=VERTEX_POINT('',#1178);
#1180=CARTESIAN_POINT('',(-37.000000000000014,-25.499999999999993,0.0));
#1181=VERTEX_POINT('',#1180);
#1182=CARTESIAN_POINT('',(-37.000000000000014,-24.499999999999993,0.0));
#1183=DIRECTION('',(0.0,0.0,1.0));
#1184=DIRECTION('',(-0.707106781186548,-0.707106781186548,0.0));
#1185=AXIS2_PLACEMENT_3D('',#1182,#1183,#1184);
#1186=CIRCLE('',#1185,1.0);
#1187=EDGE_CURVE('',#1179,#1181,#1186,.T.);
#1188=ORIENTED_EDGE('',*,*,#1187,.T.);
#1189=CARTESIAN_POINT('',(-37.000000000000014,-25.499999999999993,0.0));
#1190=DIRECTION('',(0.0,0.0,1.0));
#1191=VECTOR('',#1190,26.949999999999999);
#1192=LINE('',#1189,#1191);
#1193=EDGE_CURVE('',#1181,#1033,#1192,.T.);
#1194=ORIENTED_EDGE('',*,*,#1193,.T.);
#1195=ORIENTED_EDGE('',*,*,#1057,.F.);
#1196=CARTESIAN_POINT('',(-38.000000000000014,-24.499999999999993,26.949999999999999));
#1197=DIRECTION('',(0.0,0.0,-1.0));
#1198=VECTOR('',#1197,26.949999999999999);
#1199=LINE('',#1196,#1198);
#1200=EDGE_CURVE('',#1044,#1179,#1199,.T.);
#1201=ORIENTED_EDGE('',*,*,#1200,.T.);
#1202=EDGE_LOOP('',(#1188,#1194,#1195,#1201));
#1203=FACE_OUTER_BOUND('',#1202,.T.);
#1204=ADVANCED_FACE('',(#1203),#1177,.T.);
#1205=CARTESIAN_POINT('',(18.999999999999986,-24.500000000000004,26.949999999999999));
#1206=DIRECTION('',(-1.0,1.836970E-016,0.0));
#1207=DIRECTION('',(0.0,-0.707106781186548,0.707106781186548));
#1208=AXIS2_PLACEMENT_3D('',#1205,#1206,#1207);
#1209=CYLINDRICAL_SURFACE('',#1208,1.0);
#1210=ORIENTED_EDGE('',*,*,#1041,.F.);
#1211=CARTESIAN_POINT('',(-37.000000000000014,-25.499999999999993,26.949999999999999));
#1212=DIRECTION('',(1.0,0.0,0.0));
#1213=VECTOR('',#1212,74.0);
#1214=LINE('',#1211,#1213);
#1215=EDGE_CURVE('',#1033,#963,#1214,.T.);
#1216=ORIENTED_EDGE('',*,*,#1215,.T.);
#1217=ORIENTED_EDGE('',*,*,#987,.T.);
#1218=CARTESIAN_POINT('',(36.999999999999993,-24.500000000000007,27.949999999999999));
#1219=DIRECTION('',(-1.0,0.0,0.0));
#1220=VECTOR('',#1219,74.0);
#1221=LINE('',#1218,#1220);
#1222=EDGE_CURVE('',#974,#1035,#1221,.T.);
#1223=ORIENTED_EDGE('',*,*,#1222,.T.);
#1224=EDGE_LOOP('',(#1210,#1216,#1217,#1223));
#1225=FACE_OUTER_BOUND('',#1224,.T.);
#1226=ADVANCED_FACE('',(#1225),#1209,.T.);
#1227=CARTESIAN_POINT('',(37.000000000000028,24.499999999999989,0.0));
#1228=DIRECTION('',(0.0,0.0,1.0));
#1229=DIRECTION('',(0.707106781186548,0.707106781186548,0.0));
#1230=AXIS2_PLACEMENT_3D('',#1227,#1228,#1229);
#1231=CYLINDRICAL_SURFACE('',#1230,1.0);
#1232=CARTESIAN_POINT('',(38.000000000000014,24.499999999999993,0.0));
#1233=VERTEX_POINT('',#1232);
#1234=CARTESIAN_POINT('',(37.000000000000028,25.499999999999989,0.0));
#1235=VERTEX_POINT('',#1234);
#1236=CARTESIAN_POINT('',(37.000000000000028,24.499999999999989,0.0));
#1237=DIRECTION('',(0.0,0.0,1.0));
#1238=DIRECTION('',(0.707106781186548,0.707106781186548,0.0));
#1239=AXIS2_PLACEMENT_3D('',#1236,#1237,#1238);
#1240=CIRCLE('',#1239,1.0);
#1241=EDGE_CURVE('',#1233,#1235,#1240,.T.);
#1242=ORIENTED_EDGE('',*,*,#1241,.T.);
#1243=CARTESIAN_POINT('',(37.000000000000028,25.499999999999989,0.0));
#1244=DIRECTION('',(0.0,0.0,1.0));
#1245=VECTOR('',#1244,26.949999999999999);
#1246=LINE('',#1243,#1245);
#1247=EDGE_CURVE('',#1235,#1000,#1246,.T.);
#1248=ORIENTED_EDGE('',*,*,#1247,.T.);
#1249=ORIENTED_EDGE('',*,*,#1006,.F.);
#1250=CARTESIAN_POINT('',(38.000000000000021,24.499999999999989,26.949999999999999));
#1251=DIRECTION('',(0.0,0.0,-1.0));
#1252=VECTOR('',#1251,26.949999999999999);
#1253=LINE('',#1250,#1252);
#1254=EDGE_CURVE('',#998,#1233,#1253,.T.);
#1255=ORIENTED_EDGE('',*,*,#1254,.T.);
#1256=EDGE_LOOP('',(#1242,#1248,#1249,#1255));
#1257=FACE_OUTER_BOUND('',#1256,.T.);
#1258=ADVANCED_FACE('',(#1257),#1231,.T.);
#1259=CARTESIAN_POINT('',(37.000000000000014,12.749999999999984,26.949999999999999));
#1260=DIRECTION('',(-6.016633E-016,-1.0,0.0));
#1261=DIRECTION('',(0.707106781186548,0.0,0.707106781186548));
#1262=AXIS2_PLACEMENT_3D('',#1259,#1260,#1261);
#1263=CYLINDRICAL_SURFACE('',#1262,1.0);
#1264=ORIENTED_EDGE('',*,*,#980,.T.);
#1265=CARTESIAN_POINT('',(37.999999999999993,-24.500000000000007,26.949999999999999));
#1266=DIRECTION('',(0.0,1.0,0.0));
#1267=VECTOR('',#1266,49.0);
#1268=LINE('',#1265,#1267);
#1269=EDGE_CURVE('',#965,#998,#1268,.T.);
#1270=ORIENTED_EDGE('',*,*,#1269,.T.);
#1271=ORIENTED_EDGE('',*,*,#1022,.F.);
#1272=CARTESIAN_POINT('',(37.000000000000021,24.499999999999989,27.949999999999999));
#1273=DIRECTION('',(0.0,-1.0,0.0));
#1274=VECTOR('',#1273,49.0);
#1275=LINE('',#1272,#1274);
#1276=EDGE_CURVE('',#1009,#974,#1275,.T.);
#1277=ORIENTED_EDGE('',*,*,#1276,.T.);
#1278=EDGE_LOOP('',(#1264,#1270,#1271,#1277));
#1279=FACE_OUTER_BOUND('',#1278,.T.);
#1280=ADVANCED_FACE('',(#1279),#1263,.T.);
#1281=CARTESIAN_POINT('',(36.999999999999993,-24.500000000000007,0.0));
#1282=DIRECTION('',(0.0,0.0,1.0));
#1283=DIRECTION('',(0.707106781186548,-0.707106781186548,0.0));
#1284=AXIS2_PLACEMENT_3D('',#1281,#1282,#1283);
#1285=CYLINDRICAL_SURFACE('',#1284,1.0);
#1286=CARTESIAN_POINT('',(36.999999999999986,-25.500000000000007,0.0));
#1287=VERTEX_POINT('',#1286);
#1288=CARTESIAN_POINT('',(37.999999999999986,-24.500000000000007,0.0));
#1289=VERTEX_POINT('',#1288);
#1290=CARTESIAN_POINT('',(36.999999999999993,-24.500000000000007,0.0));
#1291=DIRECTION('',(0.0,0.0,1.0));
#1292=DIRECTION('',(0.707106781186548,-0.707106781186548,0.0));
#1293=AXIS2_PLACEMENT_3D('',#1290,#1291,#1292);
#1294=CIRCLE('',#1293,1.0);
#1295=EDGE_CURVE('',#1287,#1289,#1294,.T.);
#1296=ORIENTED_EDGE('',*,*,#1295,.T.);
#1297=CARTESIAN_POINT('',(37.999999999999993,-24.500000000000007,0.0));
#1298=DIRECTION('',(0.0,0.0,1.0));
#1299=VECTOR('',#1298,26.949999999999999);
#1300=LINE('',#1297,#1299);
#1301=EDGE_CURVE('',#1289,#965,#1300,.T.);
#1302=ORIENTED_EDGE('',*,*,#1301,.T.);
#1303=ORIENTED_EDGE('',*,*,#971,.F.);
#1304=CARTESIAN_POINT('',(36.999999999999993,-25.500000000000007,26.949999999999999));
#1305=DIRECTION('',(0.0,0.0,-1.0));
#1306=VECTOR('',#1305,26.949999999999999);
#1307=LINE('',#1304,#1306);
#1308=EDGE_CURVE('',#963,#1287,#1307,.T.);
#1309=ORIENTED_EDGE('',*,*,#1308,.T.);
#1310=EDGE_LOOP('',(#1296,#1302,#1303,#1309));
#1311=FACE_OUTER_BOUND('',#1310,.T.);
#1312=ADVANCED_FACE('',(#1311),#1285,.T.);
#1313=CARTESIAN_POINT('',(-38.000000000000014,-25.499999999999993,0.0));
#1314=DIRECTION('',(-1.0,0.0,0.0));
#1315=DIRECTION('',(0.0,0.0,-1.0));
#1316=AXIS2_PLACEMENT_3D('',#1313,#1314,#1315);
#1317=PLANE('',#1316);
#1318=ORIENTED_EDGE('',*,*,#1200,.F.);
#1319=ORIENTED_EDGE('',*,*,#1139,.F.);
#1320=ORIENTED_EDGE('',*,*,#1117,.F.);
#1321=CARTESIAN_POINT('',(-38.0,24.500000000000007,0.0));
#1322=DIRECTION('',(0.0,-1.0,0.0));
#1323=VECTOR('',#1322,49.0);
#1324=LINE('',#1321,#1323);
#1325=EDGE_CURVE('',#1105,#1179,#1324,.T.);
#1326=ORIENTED_EDGE('',*,*,#1325,.T.);
#1327=EDGE_LOOP('',(#1318,#1319,#1320,#1326));
#1328=FACE_OUTER_BOUND('',#1327,.T.);
#1329=ADVANCED_FACE('',(#1328),#1317,.T.);
#1330=CARTESIAN_POINT('',(-38.0,25.500000000000004,0.0));
#1331=DIRECTION('',(0.0,1.0,0.0));
#1332=DIRECTION('',(0.0,0.0,1.0));
#1333=AXIS2_PLACEMENT_3D('',#1330,#1331,#1332);
#1334=PLANE('',#1333);
#1335=ORIENTED_EDGE('',*,*,#1124,.F.);
#1336=ORIENTED_EDGE('',*,*,#1161,.F.);
#1337=ORIENTED_EDGE('',*,*,#1247,.F.);
#1338=CARTESIAN_POINT('',(31.000000000000018,25.499999999999989,-7.888609E-031));
#1339=VERTEX_POINT('',#1338);
#1340=CARTESIAN_POINT('',(37.000000000000028,25.499999999999989,0.0));
#1341=DIRECTION('',(-1.0,0.0,0.0));
#1342=VECTOR('',#1341,6.000000000000007);
#1343=LINE('',#1340,#1342);
#1344=EDGE_CURVE('',#1235,#1339,#1343,.T.);
#1345=ORIENTED_EDGE('',*,*,#1344,.T.);
#1346=CARTESIAN_POINT('',(30.000000000000018,25.499999999999989,1.0));
#1347=VERTEX_POINT('',#1346);
#1348=CARTESIAN_POINT('',(31.000000000000021,25.499999999999989,0.0));
#1349=DIRECTION('',(-0.707106781186546,0.0,0.707106781186549));
#1350=VECTOR('',#1349,1.414213562373098);
#1351=LINE('',#1348,#1350);
#1352=EDGE_CURVE('',#1339,#1347,#1351,.T.);
#1353=ORIENTED_EDGE('',*,*,#1352,.T.);
#1354=CARTESIAN_POINT('',(-30.000000000000004,25.500000000000004,1.0));
#1355=VERTEX_POINT('',#1354);
#1356=CARTESIAN_POINT('',(30.000000000000028,25.499999999999993,1.0));
#1357=DIRECTION('',(-1.0,0.0,0.0));
#1358=VECTOR('',#1357,60.000000000000028);
#1359=LINE('',#1356,#1358);
#1360=EDGE_CURVE('',#1347,#1355,#1359,.T.);
#1361=ORIENTED_EDGE('',*,*,#1360,.T.);
#1362=CARTESIAN_POINT('',(-31.000000000000007,25.500000000000004,-7.888609E-031));
#1363=VERTEX_POINT('',#1362);
#1364=CARTESIAN_POINT('',(-30.0,25.500000000000004,0.999999999999999));
#1365=DIRECTION('',(-0.707106781186549,0.0,-0.707106781186546));
#1366=VECTOR('',#1365,1.414213562373097);
#1367=LINE('',#1364,#1366);
#1368=EDGE_CURVE('',#1355,#1363,#1367,.T.);
#1369=ORIENTED_EDGE('',*,*,#1368,.T.);
#1370=CARTESIAN_POINT('',(-31.000000000000007,25.500000000000004,0.0));
#1371=DIRECTION('',(-1.0,0.0,0.0));
#1372=VECTOR('',#1371,6.0);
#1373=LINE('',#1370,#1372);
#1374=EDGE_CURVE('',#1363,#1103,#1373,.T.);
#1375=ORIENTED_EDGE('',*,*,#1374,.T.);
#1376=EDGE_LOOP('',(#1335,#1336,#1337,#1345,#1353,#1361,#1369,#1375));
#1377=FACE_OUTER_BOUND('',#1376,.T.);
#1378=ADVANCED_FACE('',(#1377),#1334,.T.);
#1379=CARTESIAN_POINT('',(-4.440892E-015,6.287820E-016,27.949999999999999));
#1380=DIRECTION('',(0.0,0.0,1.0));
#1381=DIRECTION('',(0.0,-1.0,0.0));
#1382=AXIS2_PLACEMENT_3D('',#1379,#1380,#1381);
#1383=PLANE('',#1382);
#1384=ORIENTED_EDGE('',*,*,#1146,.F.);
#1385=ORIENTED_EDGE('',*,*,#1222,.F.);
#1386=ORIENTED_EDGE('',*,*,#1276,.F.);
#1387=ORIENTED_EDGE('',*,*,#1168,.F.);
#1388=EDGE_LOOP('',(#1384,#1385,#1386,#1387));
#1389=FACE_OUTER_BOUND('',#1388,.T.);
#1390=ADVANCED_FACE('',(#1389),#1383,.T.);
#1391=CARTESIAN_POINT('',(-30.000000000000004,25.500000000000004,1.0));
#1392=DIRECTION('',(0.0,0.0,1.0));
#1393=DIRECTION('',(0.0,-1.0,0.0));
#1394=AXIS2_PLACEMENT_3D('',#1391,#1392,#1393);
#1395=PLANE('',#1394);
#1396=CARTESIAN_POINT('',(-30.000000000000004,24.500000000000007,1.0));
#1397=VERTEX_POINT('',#1396);
#1398=CARTESIAN_POINT('',(30.000000000000018,24.499999999999993,1.0));
#1399=VERTEX_POINT('',#1398);
#1400=CARTESIAN_POINT('',(-30.0,24.500000000000007,1.0));
#1401=DIRECTION('',(1.0,0.0,0.0));
#1402=VECTOR('',#1401,60.000000000000021);
#1403=LINE('',#1400,#1402);
#1404=EDGE_CURVE('',#1397,#1399,#1403,.T.);
#1405=ORIENTED_EDGE('',*,*,#1404,.F.);
#1406=CARTESIAN_POINT('',(-30.000000000000004,25.500000000000004,1.0));
#1407=DIRECTION('',(0.0,-1.0,0.0));
#1408=VECTOR('',#1407,0.999999999999996);
#1409=LINE('',#1406,#1408);
#1410=EDGE_CURVE('',#1355,#1397,#1409,.T.);
#1411=ORIENTED_EDGE('',*,*,#1410,.F.);
#1412=ORIENTED_EDGE('',*,*,#1360,.F.);
#1413=CARTESIAN_POINT('',(30.000000000000018,25.499999999999989,1.0));
#1414=DIRECTION('',(0.0,-1.0,0.0));
#1415=VECTOR('',#1414,0.999999999999996);
#1416=LINE('',#1413,#1415);
#1417=EDGE_CURVE('',#1347,#1399,#1416,.T.);
#1418=ORIENTED_EDGE('',*,*,#1417,.T.);
#1419=EDGE_LOOP('',(#1405,#1411,#1412,#1418));
#1420=FACE_OUTER_BOUND('',#1419,.T.);
#1421=ADVANCED_FACE('',(#1420),#1395,.F.);
#1422=CARTESIAN_POINT('',(-31.000000000000007,25.500000000000004,-7.888609E-031));
#1423=DIRECTION('',(-0.707106781186546,2.853633E-016,0.707106781186549));
#1424=DIRECTION('',(0.0,-1.0,0.0));
#1425=AXIS2_PLACEMENT_3D('',#1422,#1423,#1424);
#1426=PLANE('',#1425);
#1427=CARTESIAN_POINT('',(-31.000000000000007,24.500000000000007,2.198677E-016));
#1428=VERTEX_POINT('',#1427);
#1429=CARTESIAN_POINT('',(-31.000000000000004,24.500000000000007,4.440892E-016));
#1430=DIRECTION('',(0.707106781186549,0.0,0.707106781186546));
#1431=VECTOR('',#1430,1.414213562373098);
#1432=LINE('',#1429,#1431);
#1433=EDGE_CURVE('',#1428,#1397,#1432,.T.);
#1434=ORIENTED_EDGE('',*,*,#1433,.F.);
#1435=CARTESIAN_POINT('',(-31.000000000000007,25.5,-1.776357E-015));
#1436=DIRECTION('',(0.0,-1.0,0.0));
#1437=VECTOR('',#1436,0.999999999999993);
#1438=LINE('',#1435,#1437);
#1439=EDGE_CURVE('',#1363,#1428,#1438,.T.);
#1440=ORIENTED_EDGE('',*,*,#1439,.F.);
#1441=ORIENTED_EDGE('',*,*,#1368,.F.);
#1442=ORIENTED_EDGE('',*,*,#1410,.T.);
#1443=EDGE_LOOP('',(#1434,#1440,#1441,#1442));
#1444=FACE_OUTER_BOUND('',#1443,.T.);
#1445=ADVANCED_FACE('',(#1444),#1426,.F.);
#1446=CARTESIAN_POINT('',(-31.000000000000007,25.500000000000004,-7.888609E-031));
#1447=DIRECTION('',(-0.707106781186546,2.853633E-016,0.707106781186549));
#1448=DIRECTION('',(0.0,-1.0,0.0));
#1449=AXIS2_PLACEMENT_3D('',#1446,#1447,#1448);
#1450=PLANE('',#1449);
#1451=CARTESIAN_POINT('',(-30.000000000000011,-24.499999999999989,1.000000000000011));
#1452=VERTEX_POINT('',#1451);
#1453=CARTESIAN_POINT('',(-31.000000000000014,-24.499999999999989,1.099338E-014));
#1454=VERTEX_POINT('',#1453);
#1455=CARTESIAN_POINT('',(-30.000000000000014,-24.499999999999989,1.000000000000007));
#1456=DIRECTION('',(-0.70710678118655,0.0,-0.707106781186545));
#1457=VECTOR('',#1456,1.4142135623731);
#1458=LINE('',#1455,#1457);
#1459=EDGE_CURVE('',#1452,#1454,#1458,.T.);
#1460=ORIENTED_EDGE('',*,*,#1459,.F.);
#1461=CARTESIAN_POINT('',(-30.000000000000011,-25.499999999999996,1.000000000000011));
#1462=VERTEX_POINT('',#1461);
#1463=CARTESIAN_POINT('',(-30.000000000000014,-24.499999999999989,1.000000000000011));
#1464=DIRECTION('',(0.0,-1.0,0.0));
#1465=VECTOR('',#1464,1.000000000000007);
#1466=LINE('',#1463,#1465);
#1467=EDGE_CURVE('',#1452,#1462,#1466,.T.);
#1468=ORIENTED_EDGE('',*,*,#1467,.T.);
#1469=CARTESIAN_POINT('',(-31.000000000000014,-25.499999999999996,1.121325E-014));
#1470=VERTEX_POINT('',#1469);
#1471=CARTESIAN_POINT('',(-31.000000000000021,-25.499999999999993,1.065814E-014));
#1472=DIRECTION('',(0.70710678118655,0.0,0.707106781186545));
#1473=VECTOR('',#1472,1.414213562373095);
#1474=LINE('',#1471,#1473);
#1475=EDGE_CURVE('',#1470,#1462,#1474,.T.);
#1476=ORIENTED_EDGE('',*,*,#1475,.F.);
#1477=CARTESIAN_POINT('',(-31.000000000000025,-24.499999999999993,-1.776357E-015));
#1478=DIRECTION('',(0.0,-1.0,0.0));
#1479=VECTOR('',#1478,1.000000000000007);
#1480=LINE('',#1477,#1479);
#1481=EDGE_CURVE('',#1454,#1470,#1480,.T.);
#1482=ORIENTED_EDGE('',*,*,#1481,.F.);
#1483=EDGE_LOOP('',(#1460,#1468,#1476,#1482));
#1484=FACE_OUTER_BOUND('',#1483,.T.);
#1485=ADVANCED_FACE('',(#1484),#1450,.F.);
#1486=CARTESIAN_POINT('',(30.000000000000018,25.499999999999989,1.0));
#1487=DIRECTION('',(0.707106781186547,2.557653E-017,0.707106781186548));
#1488=DIRECTION('',(0.0,-1.0,0.0));
#1489=AXIS2_PLACEMENT_3D('',#1486,#1487,#1488);
#1490=PLANE('',#1489);
#1491=CARTESIAN_POINT('',(31.000000000000018,24.499999999999993,2.198677E-016));
#1492=VERTEX_POINT('',#1491);
#1493=CARTESIAN_POINT('',(30.000000000000021,24.499999999999993,1.0));
#1494=DIRECTION('',(0.707106781186547,0.0,-0.707106781186547));
#1495=VECTOR('',#1494,1.414213562373095);
#1496=LINE('',#1493,#1495);
#1497=EDGE_CURVE('',#1399,#1492,#1496,.T.);
#1498=ORIENTED_EDGE('',*,*,#1497,.F.);
#1499=ORIENTED_EDGE('',*,*,#1417,.F.);
#1500=ORIENTED_EDGE('',*,*,#1352,.F.);
#1501=CARTESIAN_POINT('',(31.000000000000021,24.499999999999993,0.0));
#1502=DIRECTION('',(0.0,1.0,0.0));
#1503=VECTOR('',#1502,1.0);
#1504=LINE('',#1501,#1503);
#1505=EDGE_CURVE('',#1492,#1339,#1504,.T.);
#1506=ORIENTED_EDGE('',*,*,#1505,.F.);
#1507=EDGE_LOOP('',(#1498,#1499,#1500,#1506));
#1508=FACE_OUTER_BOUND('',#1507,.T.);
#1509=ADVANCED_FACE('',(#1508),#1490,.F.);
#1510=CARTESIAN_POINT('',(30.000000000000018,25.499999999999989,1.0));
#1511=DIRECTION('',(0.707106781186547,2.557653E-017,0.707106781186548));
#1512=DIRECTION('',(0.0,-1.0,0.0));
#1513=AXIS2_PLACEMENT_3D('',#1510,#1511,#1512);
#1514=PLANE('',#1513);
#1515=CARTESIAN_POINT('',(31.000000000000011,-24.500000000000004,1.099338E-014));
#1516=VERTEX_POINT('',#1515);
#1517=CARTESIAN_POINT('',(30.000000000000011,-24.500000000000004,1.000000000000011));
#1518=VERTEX_POINT('',#1517);
#1519=CARTESIAN_POINT('',(31.000000000000004,-24.5,6.883383E-015));
#1520=DIRECTION('',(-0.707106781186548,0.0,0.707106781186547));
#1521=VECTOR('',#1520,1.414213562373095);
#1522=LINE('',#1519,#1521);
#1523=EDGE_CURVE('',#1516,#1518,#1522,.T.);
#1524=ORIENTED_EDGE('',*,*,#1523,.F.);
#1525=CARTESIAN_POINT('',(31.000000000000011,-25.500000000000011,1.121325E-014));
#1526=VERTEX_POINT('',#1525);
#1527=CARTESIAN_POINT('',(31.000000000000021,-25.500000000000011,0.0));
#1528=DIRECTION('',(0.0,1.0,0.0));
#1529=VECTOR('',#1528,1.000000000000007);
#1530=LINE('',#1527,#1529);
#1531=EDGE_CURVE('',#1526,#1516,#1530,.T.);
#1532=ORIENTED_EDGE('',*,*,#1531,.F.);
#1533=CARTESIAN_POINT('',(30.000000000000011,-25.500000000000011,1.000000000000011));
#1534=VERTEX_POINT('',#1533);
#1535=CARTESIAN_POINT('',(30.000000000000004,-25.500000000000007,1.000000000000008));
#1536=DIRECTION('',(0.707106781186547,0.0,-0.707106781186548));
#1537=VECTOR('',#1536,1.414213562373095);
#1538=LINE('',#1535,#1537);
#1539=EDGE_CURVE('',#1534,#1526,#1538,.T.);
#1540=ORIENTED_EDGE('',*,*,#1539,.F.);
#1541=CARTESIAN_POINT('',(30.000000000000007,-24.500000000000004,1.000000000000011));
#1542=DIRECTION('',(0.0,-1.0,0.0));
#1543=VECTOR('',#1542,1.000000000000007);
#1544=LINE('',#1541,#1543);
#1545=EDGE_CURVE('',#1518,#1534,#1544,.T.);
#1546=ORIENTED_EDGE('',*,*,#1545,.F.);
#1547=EDGE_LOOP('',(#1524,#1532,#1540,#1546));
#1548=FACE_OUTER_BOUND('',#1547,.T.);
#1549=ADVANCED_FACE('',(#1548),#1514,.F.);
#1550=CARTESIAN_POINT('',(-30.000000000000004,25.500000000000004,1.0));
#1551=DIRECTION('',(0.0,0.0,1.0));
#1552=DIRECTION('',(0.0,-1.0,0.0));
#1553=AXIS2_PLACEMENT_3D('',#1550,#1551,#1552);
#1554=PLANE('',#1553);
#1555=CARTESIAN_POINT('',(30.000000000000011,-24.5,1.000000000000011));
#1556=DIRECTION('',(-1.0,0.0,0.0));
#1557=VECTOR('',#1556,60.000000000000021);
#1558=LINE('',#1555,#1557);
#1559=EDGE_CURVE('',#1518,#1452,#1558,.T.);
#1560=ORIENTED_EDGE('',*,*,#1559,.F.);
#1561=ORIENTED_EDGE('',*,*,#1545,.T.);
#1562=CARTESIAN_POINT('',(-30.000000000000011,-25.499999999999993,1.000000000000011));
#1563=DIRECTION('',(1.0,0.0,0.0));
#1564=VECTOR('',#1563,60.000000000000021);
#1565=LINE('',#1562,#1564);
#1566=EDGE_CURVE('',#1462,#1534,#1565,.T.);
#1567=ORIENTED_EDGE('',*,*,#1566,.F.);
#1568=ORIENTED_EDGE('',*,*,#1467,.F.);
#1569=EDGE_LOOP('',(#1560,#1561,#1567,#1568));
#1570=FACE_OUTER_BOUND('',#1569,.T.);
#1571=ADVANCED_FACE('',(#1570),#1554,.F.);
#1572=CARTESIAN_POINT('',(37.999999999999986,-25.500000000000007,0.0));
#1573=DIRECTION('',(0.0,-1.0,0.0));
#1574=DIRECTION('',(0.0,0.0,-1.0));
#1575=AXIS2_PLACEMENT_3D('',#1572,#1573,#1574);
#1576=PLANE('',#1575);
#1577=ORIENTED_EDGE('',*,*,#1193,.F.);
#1578=CARTESIAN_POINT('',(-37.000000000000014,-25.499999999999993,0.0));
#1579=DIRECTION('',(1.0,0.0,0.0));
#1580=VECTOR('',#1579,5.999999999999996);
#1581=LINE('',#1578,#1580);
#1582=EDGE_CURVE('',#1181,#1470,#1581,.T.);
#1583=ORIENTED_EDGE('',*,*,#1582,.T.);
#1584=ORIENTED_EDGE('',*,*,#1475,.T.);
#1585=ORIENTED_EDGE('',*,*,#1566,.T.);
#1586=ORIENTED_EDGE('',*,*,#1539,.T.);
#1587=CARTESIAN_POINT('',(31.000000000000014,-25.500000000000007,0.0));
#1588=DIRECTION('',(1.0,0.0,0.0));
#1589=VECTOR('',#1588,5.999999999999972);
#1590=LINE('',#1587,#1589);
#1591=EDGE_CURVE('',#1526,#1287,#1590,.T.);
#1592=ORIENTED_EDGE('',*,*,#1591,.T.);
#1593=ORIENTED_EDGE('',*,*,#1308,.F.);
#1594=ORIENTED_EDGE('',*,*,#1215,.F.);
#1595=EDGE_LOOP('',(#1577,#1583,#1584,#1585,#1586,#1592,#1593,#1594));
#1596=FACE_OUTER_BOUND('',#1595,.T.);
#1597=ADVANCED_FACE('',(#1596),#1576,.T.);
#1598=CARTESIAN_POINT('',(-36.999999999999993,24.500000000000007,0.0));
#1599=DIRECTION('',(0.0,1.0,0.0));
#1600=DIRECTION('',(0.0,0.0,1.0));
#1601=AXIS2_PLACEMENT_3D('',#1598,#1599,#1600);
#1602=PLANE('',#1601);
#1603=ORIENTED_EDGE('',*,*,#1433,.T.);
#1604=ORIENTED_EDGE('',*,*,#1404,.T.);
#1605=ORIENTED_EDGE('',*,*,#1497,.T.);
#1606=CARTESIAN_POINT('',(37.000000000000021,24.499999999999993,0.0));
#1607=VERTEX_POINT('',#1606);
#1608=CARTESIAN_POINT('',(37.000000000000014,24.499999999999993,0.0));
#1609=DIRECTION('',(-1.0,0.0,0.0));
#1610=VECTOR('',#1609,6.0);
#1611=LINE('',#1608,#1610);
#1612=EDGE_CURVE('',#1607,#1492,#1611,.T.);
#1613=ORIENTED_EDGE('',*,*,#1612,.F.);
#1614=CARTESIAN_POINT('',(37.000000000000021,24.499999999999993,27.0));
#1615=VERTEX_POINT('',#1614);
#1616=CARTESIAN_POINT('',(37.000000000000021,24.499999999999993,0.0));
#1617=DIRECTION('',(0.0,0.0,1.0));
#1618=VECTOR('',#1617,27.0);
#1619=LINE('',#1616,#1618);
#1620=EDGE_CURVE('',#1607,#1615,#1619,.T.);
#1621=ORIENTED_EDGE('',*,*,#1620,.T.);
#1622=CARTESIAN_POINT('',(-36.999999999999993,24.500000000000007,27.0));
#1623=VERTEX_POINT('',#1622);
#1624=CARTESIAN_POINT('',(-36.999999999999993,24.500000000000007,27.0));
#1625=DIRECTION('',(1.0,0.0,0.0));
#1626=VECTOR('',#1625,74.000000000000014);
#1627=LINE('',#1624,#1626);
#1628=EDGE_CURVE('',#1623,#1615,#1627,.T.);
#1629=ORIENTED_EDGE('',*,*,#1628,.F.);
#1630=CARTESIAN_POINT('',(-36.999999999999993,24.500000000000007,0.0));
#1631=VERTEX_POINT('',#1630);
#1632=CARTESIAN_POINT('',(-36.999999999999993,24.500000000000007,0.0));
#1633=DIRECTION('',(0.0,0.0,1.0));
#1634=VECTOR('',#1633,27.0);
#1635=LINE('',#1632,#1634);
#1636=EDGE_CURVE('',#1631,#1623,#1635,.T.);
#1637=ORIENTED_EDGE('',*,*,#1636,.F.);
#1638=CARTESIAN_POINT('',(-31.000000000000007,24.500000000000007,0.0));
#1639=DIRECTION('',(-1.0,0.0,0.0));
#1640=VECTOR('',#1639,5.999999999999993);
#1641=LINE('',#1638,#1640);
#1642=EDGE_CURVE('',#1428,#1631,#1641,.T.);
#1643=ORIENTED_EDGE('',*,*,#1642,.F.);
#1644=EDGE_LOOP('',(#1603,#1604,#1605,#1613,#1621,#1629,#1637,#1643));
#1645=FACE_OUTER_BOUND('',#1644,.T.);
#1646=ADVANCED_FACE('',(#1645),#1602,.F.);
#1647=CARTESIAN_POINT('',(-4.440892E-015,1.257564E-015,0.0));
#1648=DIRECTION('',(0.0,0.0,1.0));
#1649=DIRECTION('',(0.0,-1.0,0.0));
#1650=AXIS2_PLACEMENT_3D('',#1647,#1648,#1649);
#1651=PLANE('',#1650);
#1652=ORIENTED_EDGE('',*,*,#1295,.F.);
#1653=ORIENTED_EDGE('',*,*,#1591,.F.);
#1654=ORIENTED_EDGE('',*,*,#1531,.T.);
#1655=CARTESIAN_POINT('',(36.999999999999986,-24.500000000000004,0.0));
#1656=VERTEX_POINT('',#1655);
#1657=CARTESIAN_POINT('',(31.000000000000011,-24.500000000000004,0.0));
#1658=DIRECTION('',(1.0,0.0,0.0));
#1659=VECTOR('',#1658,5.999999999999975);
#1660=LINE('',#1657,#1659);
#1661=EDGE_CURVE('',#1516,#1656,#1660,.T.);
#1662=ORIENTED_EDGE('',*,*,#1661,.T.);
#1663=CARTESIAN_POINT('',(36.999999999999993,-24.5,0.0));
#1664=DIRECTION('',(0.0,1.0,0.0));
#1665=VECTOR('',#1664,48.999999999999993);
#1666=LINE('',#1663,#1665);
#1667=EDGE_CURVE('',#1656,#1607,#1666,.T.);
#1668=ORIENTED_EDGE('',*,*,#1667,.T.);
#1669=ORIENTED_EDGE('',*,*,#1612,.T.);
#1670=ORIENTED_EDGE('',*,*,#1505,.T.);
#1671=ORIENTED_EDGE('',*,*,#1344,.F.);
#1672=ORIENTED_EDGE('',*,*,#1241,.F.);
#1673=CARTESIAN_POINT('',(37.999999999999986,-24.500000000000007,0.0));
#1674=DIRECTION('',(0.0,1.0,0.0));
#1675=VECTOR('',#1674,49.0);
#1676=LINE('',#1673,#1675);
#1677=EDGE_CURVE('',#1289,#1233,#1676,.T.);
#1678=ORIENTED_EDGE('',*,*,#1677,.F.);
#1679=EDGE_LOOP('',(#1652,#1653,#1654,#1662,#1668,#1669,#1670,#1671,#1672,#1678));
#1680=FACE_OUTER_BOUND('',#1679,.T.);
#1681=ADVANCED_FACE('',(#1680),#1651,.F.);
#1682=CARTESIAN_POINT('',(-4.440892E-015,1.257564E-015,0.0));
#1683=DIRECTION('',(0.0,0.0,1.0));
#1684=DIRECTION('',(0.0,-1.0,0.0));
#1685=AXIS2_PLACEMENT_3D('',#1682,#1683,#1684);
#1686=PLANE('',#1685);
#1687=ORIENTED_EDGE('',*,*,#1187,.F.);
#1688=ORIENTED_EDGE('',*,*,#1325,.F.);
#1689=ORIENTED_EDGE('',*,*,#1111,.F.);
#1690=ORIENTED_EDGE('',*,*,#1374,.F.);
#1691=ORIENTED_EDGE('',*,*,#1439,.T.);
#1692=ORIENTED_EDGE('',*,*,#1642,.T.);
#1693=CARTESIAN_POINT('',(-37.000000000000014,-24.499999999999993,0.0));
#1694=VERTEX_POINT('',#1693);
#1695=CARTESIAN_POINT('',(-36.999999999999993,24.500000000000011,0.0));
#1696=DIRECTION('',(0.0,-1.0,0.0));
#1697=VECTOR('',#1696,49.0);
#1698=LINE('',#1695,#1697);
#1699=EDGE_CURVE('',#1631,#1694,#1698,.T.);
#1700=ORIENTED_EDGE('',*,*,#1699,.T.);
#1701=CARTESIAN_POINT('',(-37.000000000000014,-24.499999999999996,0.0));
#1702=DIRECTION('',(1.0,0.0,0.0));
#1703=VECTOR('',#1702,6.000000000000004);
#1704=LINE('',#1701,#1703);
#1705=EDGE_CURVE('',#1694,#1454,#1704,.T.);
#1706=ORIENTED_EDGE('',*,*,#1705,.T.);
#1707=ORIENTED_EDGE('',*,*,#1481,.T.);
#1708=ORIENTED_EDGE('',*,*,#1582,.F.);
#1709=EDGE_LOOP('',(#1687,#1688,#1689,#1690,#1691,#1692,#1700,#1706,#1707,#1708));
#1710=FACE_OUTER_BOUND('',#1709,.T.);
#1711=ADVANCED_FACE('',(#1710),#1686,.F.);
#1712=CARTESIAN_POINT('',(37.000000000000021,24.499999999999993,0.0));
#1713=DIRECTION('',(1.0,0.0,0.0));
#1714=DIRECTION('',(0.0,0.0,1.0));
#1715=AXIS2_PLACEMENT_3D('',#1712,#1713,#1714);
#1716=PLANE('',#1715);
#1717=CARTESIAN_POINT('',(36.999999999999986,-24.500000000000004,27.0));
#1718=VERTEX_POINT('',#1717);
#1719=CARTESIAN_POINT('',(37.000000000000014,24.499999999999996,27.0));
#1720=DIRECTION('',(0.0,-1.0,0.0));
#1721=VECTOR('',#1720,49.0);
#1722=LINE('',#1719,#1721);
#1723=EDGE_CURVE('',#1615,#1718,#1722,.T.);
#1724=ORIENTED_EDGE('',*,*,#1723,.F.);
#1725=ORIENTED_EDGE('',*,*,#1620,.F.);
#1726=ORIENTED_EDGE('',*,*,#1667,.F.);
#1727=CARTESIAN_POINT('',(36.999999999999986,-24.500000000000004,0.0));
#1728=DIRECTION('',(0.0,0.0,1.0));
#1729=VECTOR('',#1728,27.0);
#1730=LINE('',#1727,#1729);
#1731=EDGE_CURVE('',#1656,#1718,#1730,.T.);
#1732=ORIENTED_EDGE('',*,*,#1731,.T.);
#1733=EDGE_LOOP('',(#1724,#1725,#1726,#1732));
#1734=FACE_OUTER_BOUND('',#1733,.T.);
#1735=ADVANCED_FACE('',(#1734),#1716,.F.);
#1736=CARTESIAN_POINT('',(36.999999999999986,-24.500000000000004,0.0));
#1737=DIRECTION('',(0.0,-1.0,0.0));
#1738=DIRECTION('',(0.0,0.0,-1.0));
#1739=AXIS2_PLACEMENT_3D('',#1736,#1737,#1738);
#1740=PLANE('',#1739);
#1741=ORIENTED_EDGE('',*,*,#1459,.T.);
#1742=ORIENTED_EDGE('',*,*,#1705,.F.);
#1743=CARTESIAN_POINT('',(-37.000000000000014,-24.499999999999993,27.0));
#1744=VERTEX_POINT('',#1743);
#1745=CARTESIAN_POINT('',(-37.000000000000014,-24.499999999999993,0.0));
#1746=DIRECTION('',(0.0,0.0,1.0));
#1747=VECTOR('',#1746,27.0);
#1748=LINE('',#1745,#1747);
#1749=EDGE_CURVE('',#1694,#1744,#1748,.T.);
#1750=ORIENTED_EDGE('',*,*,#1749,.T.);
#1751=CARTESIAN_POINT('',(36.999999999999986,-24.500000000000004,27.0));
#1752=DIRECTION('',(-1.0,0.0,0.0));
#1753=VECTOR('',#1752,74.0);
#1754=LINE('',#1751,#1753);
#1755=EDGE_CURVE('',#1718,#1744,#1754,.T.);
#1756=ORIENTED_EDGE('',*,*,#1755,.F.);
#1757=ORIENTED_EDGE('',*,*,#1731,.F.);
#1758=ORIENTED_EDGE('',*,*,#1661,.F.);
#1759=ORIENTED_EDGE('',*,*,#1523,.T.);
#1760=ORIENTED_EDGE('',*,*,#1559,.T.);
#1761=EDGE_LOOP('',(#1741,#1742,#1750,#1756,#1757,#1758,#1759,#1760));
#1762=FACE_OUTER_BOUND('',#1761,.T.);
#1763=ADVANCED_FACE('',(#1762),#1740,.F.);
#1764=CARTESIAN_POINT('',(-37.000000000000014,-24.499999999999993,0.0));
#1765=DIRECTION('',(-1.0,0.0,0.0));
#1766=DIRECTION('',(0.0,0.0,-1.0));
#1767=AXIS2_PLACEMENT_3D('',#1764,#1765,#1766);
#1768=PLANE('',#1767);
#1769=CARTESIAN_POINT('',(-37.000000000000007,-24.499999999999993,27.0));
#1770=DIRECTION('',(0.0,1.0,0.0));
#1771=VECTOR('',#1770,49.0);
#1772=LINE('',#1769,#1771);
#1773=EDGE_CURVE('',#1744,#1623,#1772,.T.);
#1774=ORIENTED_EDGE('',*,*,#1773,.F.);
#1775=ORIENTED_EDGE('',*,*,#1749,.F.);
#1776=ORIENTED_EDGE('',*,*,#1699,.F.);
#1777=ORIENTED_EDGE('',*,*,#1636,.T.);
#1778=EDGE_LOOP('',(#1774,#1775,#1776,#1777));
#1779=FACE_OUTER_BOUND('',#1778,.T.);
#1780=ADVANCED_FACE('',(#1779),#1768,.F.);
#1781=CARTESIAN_POINT('',(1.776357E-015,1.917494E-015,27.0));
#1782=DIRECTION('',(0.0,0.0,1.0));
#1783=DIRECTION('',(0.0,-1.0,0.0));
#1784=AXIS2_PLACEMENT_3D('',#1781,#1782,#1783);
#1785=PLANE('',#1784);
#1786=ORIENTED_EDGE('',*,*,#1723,.T.);
#1787=ORIENTED_EDGE('',*,*,#1755,.T.);
#1788=ORIENTED_EDGE('',*,*,#1773,.T.);
#1789=ORIENTED_EDGE('',*,*,#1628,.T.);
#1790=EDGE_LOOP('',(#1786,#1787,#1788,#1789));
#1791=FACE_OUTER_BOUND('',#1790,.T.);
#1792=ADVANCED_FACE('',(#1791),#1785,.F.);
#1793=CARTESIAN_POINT('',(38.000000000000021,25.499999999999989,0.0));
#1794=DIRECTION('',(1.0,0.0,0.0));
#1795=DIRECTION('',(0.0,0.0,1.0));
#1796=AXIS2_PLACEMENT_3D('',#1793,#1794,#1795);
#1797=PLANE('',#1796);
#1798=ORIENTED_EDGE('',*,*,#1301,.F.);
#1799=ORIENTED_EDGE('',*,*,#1677,.T.);
#1800=ORIENTED_EDGE('',*,*,#1254,.F.);
#1801=ORIENTED_EDGE('',*,*,#1269,.F.);
#1802=EDGE_LOOP('',(#1798,#1799,#1800,#1801));
#1803=FACE_OUTER_BOUND('',#1802,.T.);
#1804=ADVANCED_FACE('',(#1803),#1797,.T.);
#1805=CLOSED_SHELL('',(#991,#1026,#1061,#1096,#1128,#1150,#1172,#1204,#1226,#1258,#1280,#1312,#1329,#1378,#1390,#1421,#1445,#1485,#1509,#1549,#1571,#1597,#1646,#1681,#1711,#1735,#1763,#1780,#1792,#1804));
#1806=MANIFOLD_SOLID_BREP('2B34',#1805);
#1807=COLOUR_RGB('250',0.33,0.33,0.33);
#1808=SURFACE_STYLE_USAGE(.BOTH.,#1809);
#1809=SURFACE_SIDE_STYLE('NONE',(#1810));
#1810=SURFACE_STYLE_FILL_AREA(#1811);
#1811=FILL_AREA_STYLE('NONE',(#1812));
#1812=FILL_AREA_STYLE_COLOUR('NONE',#1807);
#1813=PRESENTATION_STYLE_ASSIGNMENT((#1808));
#1814=STYLED_ITEM('NONE',(#1813),#1806);
#1815=ADVANCED_BREP_SHAPE_REPRESENTATION('ABSR1',(#247,#345,#441,#530,#619,#708,#797,#948,#1806),#28);
#1816=SHAPE_REPRESENTATION_RELATIONSHIP('SRRPL1','',#1815,#62);
ENDSEC;
END-ISO-10303-21;
