ISO-10303-21;
HEADER;
/* Generated by software containing ST-Developer
 * from STEP Tools, Inc. (www.steptools.com) 
 */

FILE_DESCRIPTION(
/* description */ (''),
/* implementation_level */ '2;1');

FILE_NAME(
/* name */ 
'G:\\Applications\\Altium\\CernLib\\StepLib\\REL_OMRON_G6C-2114P.stp',
/* time_stamp */ '2017-05-04T15:16:20+02:00',
/* author */ ('jchouvet'),
/* organization */ (''),
/* preprocessor_version */ 'ST-DEVELOPER v16.1',
/* originating_system */ 'AutoCAD Mechanical',
/* authorisation */ '');

FILE_SCHEMA (('AUTOMOTIVE_DESIGN { 1 0 10303 214 3 1 1 }'));
ENDSEC;

DATA;
#10=MECHANICAL_DESIGN_GEOMETRIC_PRESENTATION_REPRESENTATION('',(#49,#50,
#51,#52,#53,#54,#45,#47,#46,#48,#55,#56),#2287);
#11=DIMENSIONAL_EXPONENTS(0.,0.,0.,0.,0.,0.,0.);
#12=(
CONVERSION_BASED_UNIT('degree',#13)
NAMED_UNIT(#11)
PLANE_ANGLE_UNIT()
);
#13=PLANE_ANGLE_MEASURE_WITH_UNIT(PLANE_ANGLE_MEASURE(0.01745329252),#2290);
#14=PRESENTATION_LAYER_ASSIGNMENT('1','3D',(#57,#58,#59,#60,#61,#62,#63,
#64,#65,#66,#67,#68));
#15=CYLINDRICAL_SURFACE('',#1473,0.5);
#16=CYLINDRICAL_SURFACE('',#1479,0.5);
#17=CYLINDRICAL_SURFACE('',#1485,0.5);
#18=CYLINDRICAL_SURFACE('',#1487,0.5);
#19=CYLINDRICAL_SURFACE('',#1492,0.5);
#20=CYLINDRICAL_SURFACE('',#1494,0.5);
#21=CYLINDRICAL_SURFACE('',#1495,0.5);
#22=CYLINDRICAL_SURFACE('',#1496,0.5);
#23=CIRCLE('',#1470,0.5);
#24=CIRCLE('',#1471,0.5);
#25=CIRCLE('',#1472,0.5);
#26=CIRCLE('',#1474,0.5);
#27=CIRCLE('',#1476,0.5);
#28=CIRCLE('',#1477,0.5);
#29=CIRCLE('',#1478,0.5);
#30=CIRCLE('',#1480,0.5);
#31=CIRCLE('',#1482,0.5);
#32=CIRCLE('',#1483,0.5);
#33=CIRCLE('',#1484,0.5);
#34=CIRCLE('',#1486,0.5);
#35=CIRCLE('',#1489,0.5);
#36=CIRCLE('',#1490,0.5);
#37=CIRCLE('',#1491,0.5);
#38=CIRCLE('',#1493,0.5);
#39=SPHERICAL_SURFACE('',#1469,0.5);
#40=SPHERICAL_SURFACE('',#1475,0.5);
#41=SPHERICAL_SURFACE('',#1481,0.5);
#42=SPHERICAL_SURFACE('',#1488,0.5);
#43=SHAPE_REPRESENTATION_RELATIONSHIP('SRR','None',#2293,#44);
#44=ADVANCED_BREP_SHAPE_REPRESENTATION('',(#57,#58,#59,#60,#61,#62,#63,
#64,#65,#66,#67,#68),#2286);
#45=STYLED_ITEM('',(#2303),#57);
#46=STYLED_ITEM('',(#2303),#58);
#47=STYLED_ITEM('',(#2302),#59);
#48=STYLED_ITEM('',(#2304),#60);
#49=STYLED_ITEM('',(#2304),#61);
#50=STYLED_ITEM('',(#2304),#62);
#51=STYLED_ITEM('',(#2304),#63);
#52=STYLED_ITEM('',(#2304),#64);
#53=STYLED_ITEM('',(#2304),#65);
#54=STYLED_ITEM('',(#2303),#66);
#55=STYLED_ITEM('',(#2303),#67);
#56=STYLED_ITEM('',(#2303),#68);
#57=MANIFOLD_SOLID_BREP('2BD7',#1402);
#58=MANIFOLD_SOLID_BREP('2BDB',#1403);
#59=MANIFOLD_SOLID_BREP('2BEE',#1404);
#60=MANIFOLD_SOLID_BREP('2FC6',#1405);
#61=MANIFOLD_SOLID_BREP('2FCA',#1406);
#62=MANIFOLD_SOLID_BREP('2FCE',#1407);
#63=MANIFOLD_SOLID_BREP('2FD2',#1408);
#64=MANIFOLD_SOLID_BREP('2FD6',#1409);
#65=MANIFOLD_SOLID_BREP('2FDA',#1410);
#66=MANIFOLD_SOLID_BREP('2FDE',#1411);
#67=MANIFOLD_SOLID_BREP('307F',#1412);
#68=MANIFOLD_SOLID_BREP('3082',#1413);
#69=FACE_OUTER_BOUND('',#158,.T.);
#70=FACE_OUTER_BOUND('',#159,.T.);
#71=FACE_OUTER_BOUND('',#160,.T.);
#72=FACE_OUTER_BOUND('',#161,.T.);
#73=FACE_OUTER_BOUND('',#162,.T.);
#74=FACE_OUTER_BOUND('',#163,.T.);
#75=FACE_OUTER_BOUND('',#164,.T.);
#76=FACE_OUTER_BOUND('',#165,.T.);
#77=FACE_OUTER_BOUND('',#166,.T.);
#78=FACE_OUTER_BOUND('',#167,.T.);
#79=FACE_OUTER_BOUND('',#168,.T.);
#80=FACE_OUTER_BOUND('',#169,.T.);
#81=FACE_OUTER_BOUND('',#170,.T.);
#82=FACE_OUTER_BOUND('',#171,.T.);
#83=FACE_OUTER_BOUND('',#172,.T.);
#84=FACE_OUTER_BOUND('',#173,.T.);
#85=FACE_OUTER_BOUND('',#174,.T.);
#86=FACE_OUTER_BOUND('',#175,.T.);
#87=FACE_OUTER_BOUND('',#176,.T.);
#88=FACE_OUTER_BOUND('',#177,.T.);
#89=FACE_OUTER_BOUND('',#178,.T.);
#90=FACE_OUTER_BOUND('',#179,.T.);
#91=FACE_OUTER_BOUND('',#180,.T.);
#92=FACE_OUTER_BOUND('',#181,.T.);
#93=FACE_OUTER_BOUND('',#182,.T.);
#94=FACE_OUTER_BOUND('',#183,.T.);
#95=FACE_OUTER_BOUND('',#184,.T.);
#96=FACE_OUTER_BOUND('',#185,.T.);
#97=FACE_OUTER_BOUND('',#186,.T.);
#98=FACE_OUTER_BOUND('',#187,.T.);
#99=FACE_OUTER_BOUND('',#188,.T.);
#100=FACE_OUTER_BOUND('',#189,.T.);
#101=FACE_OUTER_BOUND('',#190,.T.);
#102=FACE_OUTER_BOUND('',#191,.T.);
#103=FACE_OUTER_BOUND('',#192,.T.);
#104=FACE_OUTER_BOUND('',#193,.T.);
#105=FACE_OUTER_BOUND('',#194,.T.);
#106=FACE_OUTER_BOUND('',#195,.T.);
#107=FACE_OUTER_BOUND('',#196,.T.);
#108=FACE_OUTER_BOUND('',#197,.T.);
#109=FACE_OUTER_BOUND('',#198,.T.);
#110=FACE_OUTER_BOUND('',#199,.T.);
#111=FACE_OUTER_BOUND('',#200,.T.);
#112=FACE_OUTER_BOUND('',#201,.T.);
#113=FACE_OUTER_BOUND('',#202,.T.);
#114=FACE_OUTER_BOUND('',#203,.T.);
#115=FACE_OUTER_BOUND('',#204,.T.);
#116=FACE_OUTER_BOUND('',#205,.T.);
#117=FACE_OUTER_BOUND('',#206,.T.);
#118=FACE_OUTER_BOUND('',#207,.T.);
#119=FACE_OUTER_BOUND('',#208,.T.);
#120=FACE_OUTER_BOUND('',#209,.T.);
#121=FACE_OUTER_BOUND('',#210,.T.);
#122=FACE_OUTER_BOUND('',#211,.T.);
#123=FACE_OUTER_BOUND('',#212,.T.);
#124=FACE_OUTER_BOUND('',#213,.T.);
#125=FACE_OUTER_BOUND('',#214,.T.);
#126=FACE_OUTER_BOUND('',#215,.T.);
#127=FACE_OUTER_BOUND('',#216,.T.);
#128=FACE_OUTER_BOUND('',#217,.T.);
#129=FACE_OUTER_BOUND('',#218,.T.);
#130=FACE_OUTER_BOUND('',#219,.T.);
#131=FACE_OUTER_BOUND('',#220,.T.);
#132=FACE_OUTER_BOUND('',#221,.T.);
#133=FACE_OUTER_BOUND('',#222,.T.);
#134=FACE_OUTER_BOUND('',#223,.T.);
#135=FACE_OUTER_BOUND('',#224,.T.);
#136=FACE_OUTER_BOUND('',#225,.T.);
#137=FACE_OUTER_BOUND('',#226,.T.);
#138=FACE_OUTER_BOUND('',#227,.T.);
#139=FACE_OUTER_BOUND('',#228,.T.);
#140=FACE_OUTER_BOUND('',#229,.T.);
#141=FACE_OUTER_BOUND('',#230,.T.);
#142=FACE_OUTER_BOUND('',#231,.T.);
#143=FACE_OUTER_BOUND('',#232,.T.);
#144=FACE_OUTER_BOUND('',#233,.T.);
#145=FACE_OUTER_BOUND('',#234,.T.);
#146=FACE_OUTER_BOUND('',#235,.T.);
#147=FACE_OUTER_BOUND('',#236,.T.);
#148=FACE_OUTER_BOUND('',#237,.T.);
#149=FACE_OUTER_BOUND('',#238,.T.);
#150=FACE_OUTER_BOUND('',#239,.T.);
#151=FACE_OUTER_BOUND('',#240,.T.);
#152=FACE_OUTER_BOUND('',#241,.T.);
#153=FACE_OUTER_BOUND('',#242,.T.);
#154=FACE_OUTER_BOUND('',#243,.T.);
#155=FACE_OUTER_BOUND('',#244,.T.);
#156=FACE_OUTER_BOUND('',#245,.T.);
#157=FACE_OUTER_BOUND('',#246,.T.);
#158=EDGE_LOOP('',(#874,#875,#876,#877));
#159=EDGE_LOOP('',(#878,#879,#880,#881));
#160=EDGE_LOOP('',(#882,#883,#884,#885));
#161=EDGE_LOOP('',(#886,#887,#888,#889));
#162=EDGE_LOOP('',(#890,#891,#892,#893));
#163=EDGE_LOOP('',(#894,#895,#896,#897));
#164=EDGE_LOOP('',(#898,#899,#900,#901));
#165=EDGE_LOOP('',(#902,#903,#904,#905));
#166=EDGE_LOOP('',(#906,#907,#908,#909));
#167=EDGE_LOOP('',(#910,#911,#912,#913));
#168=EDGE_LOOP('',(#914,#915,#916,#917));
#169=EDGE_LOOP('',(#918,#919,#920,#921));
#170=EDGE_LOOP('',(#922,#923,#924,#925));
#171=EDGE_LOOP('',(#926,#927,#928,#929));
#172=EDGE_LOOP('',(#930,#931,#932,#933));
#173=EDGE_LOOP('',(#934,#935,#936,#937));
#174=EDGE_LOOP('',(#938,#939,#940,#941));
#175=EDGE_LOOP('',(#942,#943,#944,#945));
#176=EDGE_LOOP('',(#946,#947,#948,#949));
#177=EDGE_LOOP('',(#950,#951,#952,#953));
#178=EDGE_LOOP('',(#954,#955,#956,#957));
#179=EDGE_LOOP('',(#958,#959,#960,#961));
#180=EDGE_LOOP('',(#962,#963,#964,#965));
#181=EDGE_LOOP('',(#966,#967,#968,#969));
#182=EDGE_LOOP('',(#970,#971,#972,#973));
#183=EDGE_LOOP('',(#974,#975,#976,#977));
#184=EDGE_LOOP('',(#978,#979,#980,#981));
#185=EDGE_LOOP('',(#982,#983,#984,#985));
#186=EDGE_LOOP('',(#986,#987,#988,#989));
#187=EDGE_LOOP('',(#990,#991,#992,#993));
#188=EDGE_LOOP('',(#994,#995,#996,#997));
#189=EDGE_LOOP('',(#998,#999,#1000,#1001));
#190=EDGE_LOOP('',(#1002,#1003,#1004,#1005));
#191=EDGE_LOOP('',(#1006,#1007,#1008,#1009));
#192=EDGE_LOOP('',(#1010,#1011,#1012,#1013));
#193=EDGE_LOOP('',(#1014,#1015,#1016,#1017));
#194=EDGE_LOOP('',(#1018,#1019,#1020,#1021));
#195=EDGE_LOOP('',(#1022,#1023,#1024,#1025));
#196=EDGE_LOOP('',(#1026,#1027,#1028,#1029));
#197=EDGE_LOOP('',(#1030,#1031,#1032,#1033));
#198=EDGE_LOOP('',(#1034,#1035,#1036,#1037));
#199=EDGE_LOOP('',(#1038,#1039,#1040,#1041));
#200=EDGE_LOOP('',(#1042,#1043,#1044,#1045));
#201=EDGE_LOOP('',(#1046,#1047,#1048,#1049));
#202=EDGE_LOOP('',(#1050,#1051,#1052,#1053));
#203=EDGE_LOOP('',(#1054,#1055,#1056,#1057));
#204=EDGE_LOOP('',(#1058,#1059,#1060,#1061));
#205=EDGE_LOOP('',(#1062,#1063,#1064,#1065));
#206=EDGE_LOOP('',(#1066,#1067,#1068,#1069));
#207=EDGE_LOOP('',(#1070,#1071,#1072,#1073));
#208=EDGE_LOOP('',(#1074,#1075,#1076,#1077));
#209=EDGE_LOOP('',(#1078,#1079,#1080,#1081));
#210=EDGE_LOOP('',(#1082,#1083,#1084,#1085));
#211=EDGE_LOOP('',(#1086,#1087,#1088,#1089));
#212=EDGE_LOOP('',(#1090,#1091,#1092));
#213=EDGE_LOOP('',(#1093,#1094,#1095,#1096));
#214=EDGE_LOOP('',(#1097,#1098,#1099));
#215=EDGE_LOOP('',(#1100,#1101,#1102,#1103));
#216=EDGE_LOOP('',(#1104,#1105,#1106));
#217=EDGE_LOOP('',(#1107,#1108,#1109,#1110));
#218=EDGE_LOOP('',(#1111,#1112,#1113,#1114));
#219=EDGE_LOOP('',(#1115,#1116,#1117));
#220=EDGE_LOOP('',(#1118,#1119,#1120,#1121));
#221=EDGE_LOOP('',(#1122,#1123,#1124,#1125,#1126,#1127));
#222=EDGE_LOOP('',(#1128,#1129,#1130,#1131));
#223=EDGE_LOOP('',(#1132,#1133,#1134,#1135));
#224=EDGE_LOOP('',(#1136,#1137,#1138,#1139));
#225=EDGE_LOOP('',(#1140,#1141,#1142,#1143));
#226=EDGE_LOOP('',(#1144,#1145,#1146,#1147));
#227=EDGE_LOOP('',(#1148,#1149,#1150,#1151));
#228=EDGE_LOOP('',(#1152,#1153,#1154,#1155));
#229=EDGE_LOOP('',(#1156,#1157,#1158,#1159));
#230=EDGE_LOOP('',(#1160,#1161,#1162,#1163));
#231=EDGE_LOOP('',(#1164,#1165,#1166,#1167));
#232=EDGE_LOOP('',(#1168,#1169,#1170,#1171));
#233=EDGE_LOOP('',(#1172,#1173,#1174,#1175,#1176,#1177,#1178,#1179));
#234=EDGE_LOOP('',(#1180,#1181,#1182,#1183,#1184,#1185,#1186,#1187));
#235=EDGE_LOOP('',(#1188,#1189,#1190,#1191));
#236=EDGE_LOOP('',(#1192,#1193,#1194,#1195));
#237=EDGE_LOOP('',(#1196,#1197,#1198,#1199));
#238=EDGE_LOOP('',(#1200,#1201,#1202,#1203));
#239=EDGE_LOOP('',(#1204,#1205,#1206,#1207));
#240=EDGE_LOOP('',(#1208,#1209,#1210,#1211));
#241=EDGE_LOOP('',(#1212,#1213,#1214,#1215));
#242=EDGE_LOOP('',(#1216,#1217,#1218,#1219));
#243=EDGE_LOOP('',(#1220,#1221,#1222,#1223));
#244=EDGE_LOOP('',(#1224,#1225,#1226,#1227));
#245=EDGE_LOOP('',(#1228,#1229,#1230,#1231));
#246=EDGE_LOOP('',(#1232,#1233,#1234,#1235));
#247=LINE('',#1901,#412);
#248=LINE('',#1903,#413);
#249=LINE('',#1905,#414);
#250=LINE('',#1906,#415);
#251=LINE('',#1909,#416);
#252=LINE('',#1911,#417);
#253=LINE('',#1912,#418);
#254=LINE('',#1915,#419);
#255=LINE('',#1917,#420);
#256=LINE('',#1918,#421);
#257=LINE('',#1920,#422);
#258=LINE('',#1921,#423);
#259=LINE('',#1927,#424);
#260=LINE('',#1929,#425);
#261=LINE('',#1931,#426);
#262=LINE('',#1932,#427);
#263=LINE('',#1935,#428);
#264=LINE('',#1937,#429);
#265=LINE('',#1938,#430);
#266=LINE('',#1941,#431);
#267=LINE('',#1943,#432);
#268=LINE('',#1944,#433);
#269=LINE('',#1946,#434);
#270=LINE('',#1947,#435);
#271=LINE('',#1953,#436);
#272=LINE('',#1955,#437);
#273=LINE('',#1957,#438);
#274=LINE('',#1958,#439);
#275=LINE('',#1961,#440);
#276=LINE('',#1963,#441);
#277=LINE('',#1964,#442);
#278=LINE('',#1967,#443);
#279=LINE('',#1969,#444);
#280=LINE('',#1970,#445);
#281=LINE('',#1972,#446);
#282=LINE('',#1973,#447);
#283=LINE('',#1979,#448);
#284=LINE('',#1981,#449);
#285=LINE('',#1983,#450);
#286=LINE('',#1984,#451);
#287=LINE('',#1987,#452);
#288=LINE('',#1989,#453);
#289=LINE('',#1990,#454);
#290=LINE('',#1993,#455);
#291=LINE('',#1995,#456);
#292=LINE('',#1996,#457);
#293=LINE('',#1998,#458);
#294=LINE('',#1999,#459);
#295=LINE('',#2005,#460);
#296=LINE('',#2007,#461);
#297=LINE('',#2009,#462);
#298=LINE('',#2010,#463);
#299=LINE('',#2013,#464);
#300=LINE('',#2015,#465);
#301=LINE('',#2016,#466);
#302=LINE('',#2019,#467);
#303=LINE('',#2021,#468);
#304=LINE('',#2022,#469);
#305=LINE('',#2024,#470);
#306=LINE('',#2025,#471);
#307=LINE('',#2031,#472);
#308=LINE('',#2033,#473);
#309=LINE('',#2035,#474);
#310=LINE('',#2036,#475);
#311=LINE('',#2039,#476);
#312=LINE('',#2041,#477);
#313=LINE('',#2042,#478);
#314=LINE('',#2045,#479);
#315=LINE('',#2047,#480);
#316=LINE('',#2048,#481);
#317=LINE('',#2050,#482);
#318=LINE('',#2051,#483);
#319=LINE('',#2057,#484);
#320=LINE('',#2059,#485);
#321=LINE('',#2061,#486);
#322=LINE('',#2062,#487);
#323=LINE('',#2065,#488);
#324=LINE('',#2067,#489);
#325=LINE('',#2068,#490);
#326=LINE('',#2071,#491);
#327=LINE('',#2073,#492);
#328=LINE('',#2074,#493);
#329=LINE('',#2076,#494);
#330=LINE('',#2077,#495);
#331=LINE('',#2083,#496);
#332=LINE('',#2085,#497);
#333=LINE('',#2087,#498);
#334=LINE('',#2088,#499);
#335=LINE('',#2091,#500);
#336=LINE('',#2093,#501);
#337=LINE('',#2094,#502);
#338=LINE('',#2097,#503);
#339=LINE('',#2099,#504);
#340=LINE('',#2100,#505);
#341=LINE('',#2102,#506);
#342=LINE('',#2103,#507);
#343=LINE('',#2109,#508);
#344=LINE('',#2111,#509);
#345=LINE('',#2113,#510);
#346=LINE('',#2114,#511);
#347=LINE('',#2117,#512);
#348=LINE('',#2119,#513);
#349=LINE('',#2120,#514);
#350=LINE('',#2123,#515);
#351=LINE('',#2125,#516);
#352=LINE('',#2126,#517);
#353=LINE('',#2128,#518);
#354=LINE('',#2129,#519);
#355=LINE('',#2143,#520);
#356=LINE('',#2144,#521);
#357=LINE('',#2156,#522);
#358=LINE('',#2157,#523);
#359=LINE('',#2169,#524);
#360=LINE('',#2170,#525);
#361=LINE('',#2172,#526);
#362=LINE('',#2173,#527);
#363=LINE('',#2185,#528);
#364=LINE('',#2186,#529);
#365=LINE('',#2189,#530);
#366=LINE('',#2191,#531);
#367=LINE('',#2192,#532);
#368=LINE('',#2193,#533);
#369=LINE('',#2195,#534);
#370=LINE('',#2196,#535);
#371=LINE('',#2198,#536);
#372=LINE('',#2199,#537);
#373=LINE('',#2201,#538);
#374=LINE('',#2203,#539);
#375=LINE('',#2206,#540);
#376=LINE('',#2208,#541);
#377=LINE('',#2210,#542);
#378=LINE('',#2211,#543);
#379=LINE('',#2214,#544);
#380=LINE('',#2216,#545);
#381=LINE('',#2217,#546);
#382=LINE('',#2219,#547);
#383=LINE('',#2221,#548);
#384=LINE('',#2222,#549);
#385=LINE('',#2224,#550);
#386=LINE('',#2227,#551);
#387=LINE('',#2229,#552);
#388=LINE('',#2235,#553);
#389=LINE('',#2237,#554);
#390=LINE('',#2239,#555);
#391=LINE('',#2240,#556);
#392=LINE('',#2243,#557);
#393=LINE('',#2245,#558);
#394=LINE('',#2246,#559);
#395=LINE('',#2249,#560);
#396=LINE('',#2251,#561);
#397=LINE('',#2252,#562);
#398=LINE('',#2254,#563);
#399=LINE('',#2255,#564);
#400=LINE('',#2261,#565);
#401=LINE('',#2263,#566);
#402=LINE('',#2265,#567);
#403=LINE('',#2266,#568);
#404=LINE('',#2269,#569);
#405=LINE('',#2271,#570);
#406=LINE('',#2272,#571);
#407=LINE('',#2275,#572);
#408=LINE('',#2277,#573);
#409=LINE('',#2278,#574);
#410=LINE('',#2280,#575);
#411=LINE('',#2281,#576);
#412=VECTOR('',#1524,0.3);
#413=VECTOR('',#1525,0.3);
#414=VECTOR('',#1526,0.3);
#415=VECTOR('',#1527,0.3);
#416=VECTOR('',#1530,1.);
#417=VECTOR('',#1531,0.3);
#418=VECTOR('',#1532,1.);
#419=VECTOR('',#1535,0.3);
#420=VECTOR('',#1536,0.3);
#421=VECTOR('',#1537,0.3);
#422=VECTOR('',#1540,1.);
#423=VECTOR('',#1541,1.);
#424=VECTOR('',#1548,0.3);
#425=VECTOR('',#1549,0.3);
#426=VECTOR('',#1550,0.3);
#427=VECTOR('',#1551,0.3);
#428=VECTOR('',#1554,1.);
#429=VECTOR('',#1555,0.3);
#430=VECTOR('',#1556,1.);
#431=VECTOR('',#1559,0.3);
#432=VECTOR('',#1560,0.3);
#433=VECTOR('',#1561,0.3);
#434=VECTOR('',#1564,1.);
#435=VECTOR('',#1565,1.);
#436=VECTOR('',#1572,1.);
#437=VECTOR('',#1573,0.0500000000000007);
#438=VECTOR('',#1574,1.);
#439=VECTOR('',#1575,0.0500000000000007);
#440=VECTOR('',#1578,1.5);
#441=VECTOR('',#1579,0.0500000000000007);
#442=VECTOR('',#1580,1.5);
#443=VECTOR('',#1583,1.);
#444=VECTOR('',#1584,0.0500000000000007);
#445=VECTOR('',#1585,1.);
#446=VECTOR('',#1588,1.5);
#447=VECTOR('',#1589,1.5);
#448=VECTOR('',#1596,0.5);
#449=VECTOR('',#1597,3.9);
#450=VECTOR('',#1598,0.5);
#451=VECTOR('',#1599,3.9);
#452=VECTOR('',#1602,1.);
#453=VECTOR('',#1603,1.);
#454=VECTOR('',#1604,3.9);
#455=VECTOR('',#1607,0.5);
#456=VECTOR('',#1608,0.5);
#457=VECTOR('',#1609,3.9);
#458=VECTOR('',#1612,1.);
#459=VECTOR('',#1613,1.);
#460=VECTOR('',#1620,0.5);
#461=VECTOR('',#1621,3.9);
#462=VECTOR('',#1622,0.5);
#463=VECTOR('',#1623,3.9);
#464=VECTOR('',#1626,0.699999999999999);
#465=VECTOR('',#1627,0.699999999999999);
#466=VECTOR('',#1628,3.9);
#467=VECTOR('',#1631,0.5);
#468=VECTOR('',#1632,0.5);
#469=VECTOR('',#1633,3.9);
#470=VECTOR('',#1636,0.699999999999999);
#471=VECTOR('',#1637,0.699999999999999);
#472=VECTOR('',#1644,0.5);
#473=VECTOR('',#1645,3.9);
#474=VECTOR('',#1646,0.5);
#475=VECTOR('',#1647,3.9);
#476=VECTOR('',#1650,1.);
#477=VECTOR('',#1651,1.);
#478=VECTOR('',#1652,3.9);
#479=VECTOR('',#1655,0.5);
#480=VECTOR('',#1656,0.5);
#481=VECTOR('',#1657,3.9);
#482=VECTOR('',#1660,1.);
#483=VECTOR('',#1661,1.);
#484=VECTOR('',#1668,0.5);
#485=VECTOR('',#1669,3.9);
#486=VECTOR('',#1670,0.5);
#487=VECTOR('',#1671,3.9);
#488=VECTOR('',#1674,1.);
#489=VECTOR('',#1675,1.);
#490=VECTOR('',#1676,3.9);
#491=VECTOR('',#1679,0.5);
#492=VECTOR('',#1680,0.5);
#493=VECTOR('',#1681,3.9);
#494=VECTOR('',#1684,1.);
#495=VECTOR('',#1685,1.);
#496=VECTOR('',#1692,0.5);
#497=VECTOR('',#1693,3.9);
#498=VECTOR('',#1694,0.5);
#499=VECTOR('',#1695,3.9);
#500=VECTOR('',#1698,1.);
#501=VECTOR('',#1699,1.);
#502=VECTOR('',#1700,3.9);
#503=VECTOR('',#1703,0.5);
#504=VECTOR('',#1704,0.5);
#505=VECTOR('',#1705,3.9);
#506=VECTOR('',#1708,1.);
#507=VECTOR('',#1709,1.);
#508=VECTOR('',#1716,0.5);
#509=VECTOR('',#1717,3.9);
#510=VECTOR('',#1718,0.5);
#511=VECTOR('',#1719,3.9);
#512=VECTOR('',#1722,0.699999999999999);
#513=VECTOR('',#1723,0.699999999999999);
#514=VECTOR('',#1724,3.9);
#515=VECTOR('',#1727,0.5);
#516=VECTOR('',#1728,0.5);
#517=VECTOR('',#1729,3.9);
#518=VECTOR('',#1732,0.699999999999999);
#519=VECTOR('',#1733,0.699999999999999);
#520=VECTOR('',#1750,9.2);
#521=VECTOR('',#1751,9.2);
#522=VECTOR('',#1764,9.2);
#523=VECTOR('',#1765,9.2);
#524=VECTOR('',#1778,9.2);
#525=VECTOR('',#1779,9.2);
#526=VECTOR('',#1782,19.);
#527=VECTOR('',#1783,19.);
#528=VECTOR('',#1796,9.2);
#529=VECTOR('',#1797,9.2);
#530=VECTOR('',#1800,6.25);
#531=VECTOR('',#1801,1.5);
#532=VECTOR('',#1802,6.25);
#533=VECTOR('',#1803,14.);
#534=VECTOR('',#1806,19.);
#535=VECTOR('',#1807,19.);
#536=VECTOR('',#1810,14.);
#537=VECTOR('',#1811,14.);
#538=VECTOR('',#1814,19.);
#539=VECTOR('',#1817,14.);
#540=VECTOR('',#1820,1.);
#541=VECTOR('',#1821,0.0500000000000007);
#542=VECTOR('',#1822,1.);
#543=VECTOR('',#1823,0.0500000000000007);
#544=VECTOR('',#1826,1.5);
#545=VECTOR('',#1827,0.0500000000000007);
#546=VECTOR('',#1828,1.5);
#547=VECTOR('',#1831,1.);
#548=VECTOR('',#1832,0.0500000000000007);
#549=VECTOR('',#1833,1.);
#550=VECTOR('',#1836,1.5);
#551=VECTOR('',#1841,14.);
#552=VECTOR('',#1844,19.);
#553=VECTOR('',#1851,0.3);
#554=VECTOR('',#1852,0.3);
#555=VECTOR('',#1853,0.3);
#556=VECTOR('',#1854,0.3);
#557=VECTOR('',#1857,1.);
#558=VECTOR('',#1858,0.3);
#559=VECTOR('',#1859,1.);
#560=VECTOR('',#1862,0.3);
#561=VECTOR('',#1863,0.3);
#562=VECTOR('',#1864,0.3);
#563=VECTOR('',#1867,1.);
#564=VECTOR('',#1868,1.);
#565=VECTOR('',#1875,0.3);
#566=VECTOR('',#1876,0.3);
#567=VECTOR('',#1877,0.3);
#568=VECTOR('',#1878,0.3);
#569=VECTOR('',#1881,1.);
#570=VECTOR('',#1882,0.3);
#571=VECTOR('',#1883,1.);
#572=VECTOR('',#1886,0.3);
#573=VECTOR('',#1887,0.3);
#574=VECTOR('',#1888,0.3);
#575=VECTOR('',#1891,1.);
#576=VECTOR('',#1892,1.);
#577=VERTEX_POINT('',#1899);
#578=VERTEX_POINT('',#1900);
#579=VERTEX_POINT('',#1902);
#580=VERTEX_POINT('',#1904);
#581=VERTEX_POINT('',#1908);
#582=VERTEX_POINT('',#1910);
#583=VERTEX_POINT('',#1914);
#584=VERTEX_POINT('',#1916);
#585=VERTEX_POINT('',#1925);
#586=VERTEX_POINT('',#1926);
#587=VERTEX_POINT('',#1928);
#588=VERTEX_POINT('',#1930);
#589=VERTEX_POINT('',#1934);
#590=VERTEX_POINT('',#1936);
#591=VERTEX_POINT('',#1940);
#592=VERTEX_POINT('',#1942);
#593=VERTEX_POINT('',#1951);
#594=VERTEX_POINT('',#1952);
#595=VERTEX_POINT('',#1954);
#596=VERTEX_POINT('',#1956);
#597=VERTEX_POINT('',#1960);
#598=VERTEX_POINT('',#1962);
#599=VERTEX_POINT('',#1966);
#600=VERTEX_POINT('',#1968);
#601=VERTEX_POINT('',#1977);
#602=VERTEX_POINT('',#1978);
#603=VERTEX_POINT('',#1980);
#604=VERTEX_POINT('',#1982);
#605=VERTEX_POINT('',#1986);
#606=VERTEX_POINT('',#1988);
#607=VERTEX_POINT('',#1992);
#608=VERTEX_POINT('',#1994);
#609=VERTEX_POINT('',#2003);
#610=VERTEX_POINT('',#2004);
#611=VERTEX_POINT('',#2006);
#612=VERTEX_POINT('',#2008);
#613=VERTEX_POINT('',#2012);
#614=VERTEX_POINT('',#2014);
#615=VERTEX_POINT('',#2018);
#616=VERTEX_POINT('',#2020);
#617=VERTEX_POINT('',#2029);
#618=VERTEX_POINT('',#2030);
#619=VERTEX_POINT('',#2032);
#620=VERTEX_POINT('',#2034);
#621=VERTEX_POINT('',#2038);
#622=VERTEX_POINT('',#2040);
#623=VERTEX_POINT('',#2044);
#624=VERTEX_POINT('',#2046);
#625=VERTEX_POINT('',#2055);
#626=VERTEX_POINT('',#2056);
#627=VERTEX_POINT('',#2058);
#628=VERTEX_POINT('',#2060);
#629=VERTEX_POINT('',#2064);
#630=VERTEX_POINT('',#2066);
#631=VERTEX_POINT('',#2070);
#632=VERTEX_POINT('',#2072);
#633=VERTEX_POINT('',#2081);
#634=VERTEX_POINT('',#2082);
#635=VERTEX_POINT('',#2084);
#636=VERTEX_POINT('',#2086);
#637=VERTEX_POINT('',#2090);
#638=VERTEX_POINT('',#2092);
#639=VERTEX_POINT('',#2096);
#640=VERTEX_POINT('',#2098);
#641=VERTEX_POINT('',#2107);
#642=VERTEX_POINT('',#2108);
#643=VERTEX_POINT('',#2110);
#644=VERTEX_POINT('',#2112);
#645=VERTEX_POINT('',#2116);
#646=VERTEX_POINT('',#2118);
#647=VERTEX_POINT('',#2122);
#648=VERTEX_POINT('',#2124);
#649=VERTEX_POINT('',#2133);
#650=VERTEX_POINT('',#2134);
#651=VERTEX_POINT('',#2136);
#652=VERTEX_POINT('',#2140);
#653=VERTEX_POINT('',#2141);
#654=VERTEX_POINT('',#2146);
#655=VERTEX_POINT('',#2147);
#656=VERTEX_POINT('',#2149);
#657=VERTEX_POINT('',#2153);
#658=VERTEX_POINT('',#2154);
#659=VERTEX_POINT('',#2159);
#660=VERTEX_POINT('',#2160);
#661=VERTEX_POINT('',#2162);
#662=VERTEX_POINT('',#2166);
#663=VERTEX_POINT('',#2167);
#664=VERTEX_POINT('',#2175);
#665=VERTEX_POINT('',#2176);
#666=VERTEX_POINT('',#2178);
#667=VERTEX_POINT('',#2182);
#668=VERTEX_POINT('',#2183);
#669=VERTEX_POINT('',#2188);
#670=VERTEX_POINT('',#2190);
#671=VERTEX_POINT('',#2205);
#672=VERTEX_POINT('',#2207);
#673=VERTEX_POINT('',#2209);
#674=VERTEX_POINT('',#2213);
#675=VERTEX_POINT('',#2215);
#676=VERTEX_POINT('',#2220);
#677=VERTEX_POINT('',#2233);
#678=VERTEX_POINT('',#2234);
#679=VERTEX_POINT('',#2236);
#680=VERTEX_POINT('',#2238);
#681=VERTEX_POINT('',#2242);
#682=VERTEX_POINT('',#2244);
#683=VERTEX_POINT('',#2248);
#684=VERTEX_POINT('',#2250);
#685=VERTEX_POINT('',#2259);
#686=VERTEX_POINT('',#2260);
#687=VERTEX_POINT('',#2262);
#688=VERTEX_POINT('',#2264);
#689=VERTEX_POINT('',#2268);
#690=VERTEX_POINT('',#2270);
#691=VERTEX_POINT('',#2274);
#692=VERTEX_POINT('',#2276);
#693=EDGE_CURVE('',#577,#578,#247,.T.);
#694=EDGE_CURVE('',#579,#578,#248,.T.);
#695=EDGE_CURVE('',#580,#579,#249,.T.);
#696=EDGE_CURVE('',#580,#577,#250,.T.);
#697=EDGE_CURVE('',#578,#581,#251,.T.);
#698=EDGE_CURVE('',#582,#581,#252,.T.);
#699=EDGE_CURVE('',#579,#582,#253,.T.);
#700=EDGE_CURVE('',#581,#583,#254,.T.);
#701=EDGE_CURVE('',#584,#583,#255,.T.);
#702=EDGE_CURVE('',#582,#584,#256,.T.);
#703=EDGE_CURVE('',#583,#577,#257,.T.);
#704=EDGE_CURVE('',#584,#580,#258,.T.);
#705=EDGE_CURVE('',#585,#586,#259,.T.);
#706=EDGE_CURVE('',#587,#586,#260,.T.);
#707=EDGE_CURVE('',#588,#587,#261,.T.);
#708=EDGE_CURVE('',#588,#585,#262,.T.);
#709=EDGE_CURVE('',#586,#589,#263,.T.);
#710=EDGE_CURVE('',#590,#589,#264,.T.);
#711=EDGE_CURVE('',#587,#590,#265,.T.);
#712=EDGE_CURVE('',#589,#591,#266,.T.);
#713=EDGE_CURVE('',#592,#591,#267,.T.);
#714=EDGE_CURVE('',#590,#592,#268,.T.);
#715=EDGE_CURVE('',#591,#585,#269,.T.);
#716=EDGE_CURVE('',#592,#588,#270,.T.);
#717=EDGE_CURVE('',#593,#594,#271,.T.);
#718=EDGE_CURVE('',#595,#594,#272,.T.);
#719=EDGE_CURVE('',#596,#595,#273,.T.);
#720=EDGE_CURVE('',#596,#593,#274,.T.);
#721=EDGE_CURVE('',#594,#597,#275,.T.);
#722=EDGE_CURVE('',#598,#597,#276,.T.);
#723=EDGE_CURVE('',#595,#598,#277,.T.);
#724=EDGE_CURVE('',#597,#599,#278,.T.);
#725=EDGE_CURVE('',#600,#599,#279,.T.);
#726=EDGE_CURVE('',#598,#600,#280,.T.);
#727=EDGE_CURVE('',#599,#593,#281,.T.);
#728=EDGE_CURVE('',#600,#596,#282,.T.);
#729=EDGE_CURVE('',#601,#602,#283,.T.);
#730=EDGE_CURVE('',#602,#603,#284,.T.);
#731=EDGE_CURVE('',#604,#603,#285,.T.);
#732=EDGE_CURVE('',#601,#604,#286,.T.);
#733=EDGE_CURVE('',#605,#601,#287,.T.);
#734=EDGE_CURVE('',#606,#604,#288,.T.);
#735=EDGE_CURVE('',#605,#606,#289,.T.);
#736=EDGE_CURVE('',#607,#605,#290,.T.);
#737=EDGE_CURVE('',#608,#606,#291,.T.);
#738=EDGE_CURVE('',#607,#608,#292,.T.);
#739=EDGE_CURVE('',#602,#607,#293,.T.);
#740=EDGE_CURVE('',#603,#608,#294,.T.);
#741=EDGE_CURVE('',#609,#610,#295,.T.);
#742=EDGE_CURVE('',#609,#611,#296,.T.);
#743=EDGE_CURVE('',#612,#611,#297,.T.);
#744=EDGE_CURVE('',#610,#612,#298,.T.);
#745=EDGE_CURVE('',#610,#613,#299,.T.);
#746=EDGE_CURVE('',#614,#612,#300,.T.);
#747=EDGE_CURVE('',#613,#614,#301,.T.);
#748=EDGE_CURVE('',#613,#615,#302,.T.);
#749=EDGE_CURVE('',#616,#614,#303,.T.);
#750=EDGE_CURVE('',#615,#616,#304,.T.);
#751=EDGE_CURVE('',#615,#609,#305,.T.);
#752=EDGE_CURVE('',#611,#616,#306,.T.);
#753=EDGE_CURVE('',#617,#618,#307,.T.);
#754=EDGE_CURVE('',#618,#619,#308,.T.);
#755=EDGE_CURVE('',#620,#619,#309,.T.);
#756=EDGE_CURVE('',#617,#620,#310,.T.);
#757=EDGE_CURVE('',#621,#617,#311,.T.);
#758=EDGE_CURVE('',#622,#620,#312,.T.);
#759=EDGE_CURVE('',#621,#622,#313,.T.);
#760=EDGE_CURVE('',#623,#621,#314,.T.);
#761=EDGE_CURVE('',#624,#622,#315,.T.);
#762=EDGE_CURVE('',#623,#624,#316,.T.);
#763=EDGE_CURVE('',#618,#623,#317,.T.);
#764=EDGE_CURVE('',#619,#624,#318,.T.);
#765=EDGE_CURVE('',#625,#626,#319,.T.);
#766=EDGE_CURVE('',#626,#627,#320,.T.);
#767=EDGE_CURVE('',#628,#627,#321,.T.);
#768=EDGE_CURVE('',#625,#628,#322,.T.);
#769=EDGE_CURVE('',#629,#625,#323,.T.);
#770=EDGE_CURVE('',#630,#628,#324,.T.);
#771=EDGE_CURVE('',#629,#630,#325,.T.);
#772=EDGE_CURVE('',#631,#629,#326,.T.);
#773=EDGE_CURVE('',#632,#630,#327,.T.);
#774=EDGE_CURVE('',#631,#632,#328,.T.);
#775=EDGE_CURVE('',#626,#631,#329,.T.);
#776=EDGE_CURVE('',#627,#632,#330,.T.);
#777=EDGE_CURVE('',#633,#634,#331,.T.);
#778=EDGE_CURVE('',#634,#635,#332,.T.);
#779=EDGE_CURVE('',#636,#635,#333,.T.);
#780=EDGE_CURVE('',#633,#636,#334,.T.);
#781=EDGE_CURVE('',#637,#633,#335,.T.);
#782=EDGE_CURVE('',#638,#636,#336,.T.);
#783=EDGE_CURVE('',#637,#638,#337,.T.);
#784=EDGE_CURVE('',#639,#637,#338,.T.);
#785=EDGE_CURVE('',#640,#638,#339,.T.);
#786=EDGE_CURVE('',#639,#640,#340,.T.);
#787=EDGE_CURVE('',#634,#639,#341,.T.);
#788=EDGE_CURVE('',#635,#640,#342,.T.);
#789=EDGE_CURVE('',#641,#642,#343,.T.);
#790=EDGE_CURVE('',#641,#643,#344,.T.);
#791=EDGE_CURVE('',#644,#643,#345,.T.);
#792=EDGE_CURVE('',#642,#644,#346,.T.);
#793=EDGE_CURVE('',#642,#645,#347,.T.);
#794=EDGE_CURVE('',#646,#644,#348,.T.);
#795=EDGE_CURVE('',#645,#646,#349,.T.);
#796=EDGE_CURVE('',#645,#647,#350,.T.);
#797=EDGE_CURVE('',#648,#646,#351,.T.);
#798=EDGE_CURVE('',#647,#648,#352,.T.);
#799=EDGE_CURVE('',#647,#641,#353,.T.);
#800=EDGE_CURVE('',#643,#648,#354,.T.);
#801=EDGE_CURVE('',#649,#650,#23,.F.);
#802=EDGE_CURVE('',#651,#649,#24,.F.);
#803=EDGE_CURVE('',#650,#651,#25,.F.);
#804=EDGE_CURVE('',#652,#653,#26,.T.);
#805=EDGE_CURVE('',#653,#651,#355,.T.);
#806=EDGE_CURVE('',#649,#652,#356,.T.);
#807=EDGE_CURVE('',#654,#655,#27,.F.);
#808=EDGE_CURVE('',#656,#654,#28,.F.);
#809=EDGE_CURVE('',#655,#656,#29,.F.);
#810=EDGE_CURVE('',#657,#658,#30,.T.);
#811=EDGE_CURVE('',#658,#656,#357,.T.);
#812=EDGE_CURVE('',#654,#657,#358,.T.);
#813=EDGE_CURVE('',#659,#660,#31,.F.);
#814=EDGE_CURVE('',#661,#659,#32,.F.);
#815=EDGE_CURVE('',#660,#661,#33,.F.);
#816=EDGE_CURVE('',#662,#663,#34,.T.);
#817=EDGE_CURVE('',#663,#661,#359,.T.);
#818=EDGE_CURVE('',#659,#662,#360,.T.);
#819=EDGE_CURVE('',#650,#660,#361,.T.);
#820=EDGE_CURVE('',#661,#649,#362,.T.);
#821=EDGE_CURVE('',#664,#665,#35,.F.);
#822=EDGE_CURVE('',#666,#664,#36,.F.);
#823=EDGE_CURVE('',#665,#666,#37,.F.);
#824=EDGE_CURVE('',#667,#668,#38,.T.);
#825=EDGE_CURVE('',#668,#666,#363,.T.);
#826=EDGE_CURVE('',#664,#667,#364,.T.);
#827=EDGE_CURVE('',#660,#669,#365,.T.);
#828=EDGE_CURVE('',#669,#670,#366,.T.);
#829=EDGE_CURVE('',#670,#665,#367,.T.);
#830=EDGE_CURVE('',#666,#659,#368,.T.);
#831=EDGE_CURVE('',#665,#655,#369,.T.);
#832=EDGE_CURVE('',#656,#664,#370,.T.);
#833=EDGE_CURVE('',#655,#650,#371,.T.);
#834=EDGE_CURVE('',#651,#654,#372,.T.);
#835=EDGE_CURVE('',#652,#663,#373,.T.);
#836=EDGE_CURVE('',#662,#668,#374,.T.);
#837=EDGE_CURVE('',#671,#669,#375,.T.);
#838=EDGE_CURVE('',#671,#672,#376,.T.);
#839=EDGE_CURVE('',#672,#673,#377,.T.);
#840=EDGE_CURVE('',#669,#673,#378,.T.);
#841=EDGE_CURVE('',#674,#671,#379,.T.);
#842=EDGE_CURVE('',#674,#675,#380,.T.);
#843=EDGE_CURVE('',#675,#672,#381,.T.);
#844=EDGE_CURVE('',#670,#674,#382,.T.);
#845=EDGE_CURVE('',#670,#676,#383,.T.);
#846=EDGE_CURVE('',#676,#675,#384,.T.);
#847=EDGE_CURVE('',#673,#676,#385,.T.);
#848=EDGE_CURVE('',#657,#653,#386,.T.);
#849=EDGE_CURVE('',#667,#658,#387,.T.);
#850=EDGE_CURVE('',#677,#678,#388,.T.);
#851=EDGE_CURVE('',#679,#678,#389,.T.);
#852=EDGE_CURVE('',#680,#679,#390,.T.);
#853=EDGE_CURVE('',#680,#677,#391,.T.);
#854=EDGE_CURVE('',#678,#681,#392,.T.);
#855=EDGE_CURVE('',#682,#681,#393,.T.);
#856=EDGE_CURVE('',#679,#682,#394,.T.);
#857=EDGE_CURVE('',#681,#683,#395,.T.);
#858=EDGE_CURVE('',#684,#683,#396,.T.);
#859=EDGE_CURVE('',#682,#684,#397,.T.);
#860=EDGE_CURVE('',#683,#677,#398,.T.);
#861=EDGE_CURVE('',#684,#680,#399,.T.);
#862=EDGE_CURVE('',#685,#686,#400,.T.);
#863=EDGE_CURVE('',#687,#686,#401,.T.);
#864=EDGE_CURVE('',#688,#687,#402,.T.);
#865=EDGE_CURVE('',#688,#685,#403,.T.);
#866=EDGE_CURVE('',#686,#689,#404,.T.);
#867=EDGE_CURVE('',#690,#689,#405,.T.);
#868=EDGE_CURVE('',#687,#690,#406,.T.);
#869=EDGE_CURVE('',#689,#691,#407,.T.);
#870=EDGE_CURVE('',#692,#691,#408,.T.);
#871=EDGE_CURVE('',#690,#692,#409,.T.);
#872=EDGE_CURVE('',#691,#685,#410,.T.);
#873=EDGE_CURVE('',#692,#688,#411,.T.);
#874=ORIENTED_EDGE('',*,*,#693,.T.);
#875=ORIENTED_EDGE('',*,*,#694,.F.);
#876=ORIENTED_EDGE('',*,*,#695,.F.);
#877=ORIENTED_EDGE('',*,*,#696,.T.);
#878=ORIENTED_EDGE('',*,*,#697,.T.);
#879=ORIENTED_EDGE('',*,*,#698,.F.);
#880=ORIENTED_EDGE('',*,*,#699,.F.);
#881=ORIENTED_EDGE('',*,*,#694,.T.);
#882=ORIENTED_EDGE('',*,*,#700,.T.);
#883=ORIENTED_EDGE('',*,*,#701,.F.);
#884=ORIENTED_EDGE('',*,*,#702,.F.);
#885=ORIENTED_EDGE('',*,*,#698,.T.);
#886=ORIENTED_EDGE('',*,*,#703,.T.);
#887=ORIENTED_EDGE('',*,*,#696,.F.);
#888=ORIENTED_EDGE('',*,*,#704,.F.);
#889=ORIENTED_EDGE('',*,*,#701,.T.);
#890=ORIENTED_EDGE('',*,*,#693,.F.);
#891=ORIENTED_EDGE('',*,*,#703,.F.);
#892=ORIENTED_EDGE('',*,*,#700,.F.);
#893=ORIENTED_EDGE('',*,*,#697,.F.);
#894=ORIENTED_EDGE('',*,*,#704,.T.);
#895=ORIENTED_EDGE('',*,*,#695,.T.);
#896=ORIENTED_EDGE('',*,*,#699,.T.);
#897=ORIENTED_EDGE('',*,*,#702,.T.);
#898=ORIENTED_EDGE('',*,*,#705,.T.);
#899=ORIENTED_EDGE('',*,*,#706,.F.);
#900=ORIENTED_EDGE('',*,*,#707,.F.);
#901=ORIENTED_EDGE('',*,*,#708,.T.);
#902=ORIENTED_EDGE('',*,*,#709,.T.);
#903=ORIENTED_EDGE('',*,*,#710,.F.);
#904=ORIENTED_EDGE('',*,*,#711,.F.);
#905=ORIENTED_EDGE('',*,*,#706,.T.);
#906=ORIENTED_EDGE('',*,*,#712,.T.);
#907=ORIENTED_EDGE('',*,*,#713,.F.);
#908=ORIENTED_EDGE('',*,*,#714,.F.);
#909=ORIENTED_EDGE('',*,*,#710,.T.);
#910=ORIENTED_EDGE('',*,*,#715,.T.);
#911=ORIENTED_EDGE('',*,*,#708,.F.);
#912=ORIENTED_EDGE('',*,*,#716,.F.);
#913=ORIENTED_EDGE('',*,*,#713,.T.);
#914=ORIENTED_EDGE('',*,*,#705,.F.);
#915=ORIENTED_EDGE('',*,*,#715,.F.);
#916=ORIENTED_EDGE('',*,*,#712,.F.);
#917=ORIENTED_EDGE('',*,*,#709,.F.);
#918=ORIENTED_EDGE('',*,*,#716,.T.);
#919=ORIENTED_EDGE('',*,*,#707,.T.);
#920=ORIENTED_EDGE('',*,*,#711,.T.);
#921=ORIENTED_EDGE('',*,*,#714,.T.);
#922=ORIENTED_EDGE('',*,*,#717,.T.);
#923=ORIENTED_EDGE('',*,*,#718,.F.);
#924=ORIENTED_EDGE('',*,*,#719,.F.);
#925=ORIENTED_EDGE('',*,*,#720,.T.);
#926=ORIENTED_EDGE('',*,*,#721,.T.);
#927=ORIENTED_EDGE('',*,*,#722,.F.);
#928=ORIENTED_EDGE('',*,*,#723,.F.);
#929=ORIENTED_EDGE('',*,*,#718,.T.);
#930=ORIENTED_EDGE('',*,*,#724,.T.);
#931=ORIENTED_EDGE('',*,*,#725,.F.);
#932=ORIENTED_EDGE('',*,*,#726,.F.);
#933=ORIENTED_EDGE('',*,*,#722,.T.);
#934=ORIENTED_EDGE('',*,*,#727,.T.);
#935=ORIENTED_EDGE('',*,*,#720,.F.);
#936=ORIENTED_EDGE('',*,*,#728,.F.);
#937=ORIENTED_EDGE('',*,*,#725,.T.);
#938=ORIENTED_EDGE('',*,*,#717,.F.);
#939=ORIENTED_EDGE('',*,*,#727,.F.);
#940=ORIENTED_EDGE('',*,*,#724,.F.);
#941=ORIENTED_EDGE('',*,*,#721,.F.);
#942=ORIENTED_EDGE('',*,*,#728,.T.);
#943=ORIENTED_EDGE('',*,*,#719,.T.);
#944=ORIENTED_EDGE('',*,*,#723,.T.);
#945=ORIENTED_EDGE('',*,*,#726,.T.);
#946=ORIENTED_EDGE('',*,*,#729,.T.);
#947=ORIENTED_EDGE('',*,*,#730,.T.);
#948=ORIENTED_EDGE('',*,*,#731,.F.);
#949=ORIENTED_EDGE('',*,*,#732,.F.);
#950=ORIENTED_EDGE('',*,*,#733,.T.);
#951=ORIENTED_EDGE('',*,*,#732,.T.);
#952=ORIENTED_EDGE('',*,*,#734,.F.);
#953=ORIENTED_EDGE('',*,*,#735,.F.);
#954=ORIENTED_EDGE('',*,*,#736,.T.);
#955=ORIENTED_EDGE('',*,*,#735,.T.);
#956=ORIENTED_EDGE('',*,*,#737,.F.);
#957=ORIENTED_EDGE('',*,*,#738,.F.);
#958=ORIENTED_EDGE('',*,*,#739,.T.);
#959=ORIENTED_EDGE('',*,*,#738,.T.);
#960=ORIENTED_EDGE('',*,*,#740,.F.);
#961=ORIENTED_EDGE('',*,*,#730,.F.);
#962=ORIENTED_EDGE('',*,*,#740,.T.);
#963=ORIENTED_EDGE('',*,*,#737,.T.);
#964=ORIENTED_EDGE('',*,*,#734,.T.);
#965=ORIENTED_EDGE('',*,*,#731,.T.);
#966=ORIENTED_EDGE('',*,*,#739,.F.);
#967=ORIENTED_EDGE('',*,*,#729,.F.);
#968=ORIENTED_EDGE('',*,*,#733,.F.);
#969=ORIENTED_EDGE('',*,*,#736,.F.);
#970=ORIENTED_EDGE('',*,*,#741,.F.);
#971=ORIENTED_EDGE('',*,*,#742,.T.);
#972=ORIENTED_EDGE('',*,*,#743,.F.);
#973=ORIENTED_EDGE('',*,*,#744,.F.);
#974=ORIENTED_EDGE('',*,*,#745,.F.);
#975=ORIENTED_EDGE('',*,*,#744,.T.);
#976=ORIENTED_EDGE('',*,*,#746,.F.);
#977=ORIENTED_EDGE('',*,*,#747,.F.);
#978=ORIENTED_EDGE('',*,*,#748,.F.);
#979=ORIENTED_EDGE('',*,*,#747,.T.);
#980=ORIENTED_EDGE('',*,*,#749,.F.);
#981=ORIENTED_EDGE('',*,*,#750,.F.);
#982=ORIENTED_EDGE('',*,*,#751,.F.);
#983=ORIENTED_EDGE('',*,*,#750,.T.);
#984=ORIENTED_EDGE('',*,*,#752,.F.);
#985=ORIENTED_EDGE('',*,*,#742,.F.);
#986=ORIENTED_EDGE('',*,*,#751,.T.);
#987=ORIENTED_EDGE('',*,*,#741,.T.);
#988=ORIENTED_EDGE('',*,*,#745,.T.);
#989=ORIENTED_EDGE('',*,*,#748,.T.);
#990=ORIENTED_EDGE('',*,*,#752,.T.);
#991=ORIENTED_EDGE('',*,*,#749,.T.);
#992=ORIENTED_EDGE('',*,*,#746,.T.);
#993=ORIENTED_EDGE('',*,*,#743,.T.);
#994=ORIENTED_EDGE('',*,*,#753,.T.);
#995=ORIENTED_EDGE('',*,*,#754,.T.);
#996=ORIENTED_EDGE('',*,*,#755,.F.);
#997=ORIENTED_EDGE('',*,*,#756,.F.);
#998=ORIENTED_EDGE('',*,*,#757,.T.);
#999=ORIENTED_EDGE('',*,*,#756,.T.);
#1000=ORIENTED_EDGE('',*,*,#758,.F.);
#1001=ORIENTED_EDGE('',*,*,#759,.F.);
#1002=ORIENTED_EDGE('',*,*,#760,.T.);
#1003=ORIENTED_EDGE('',*,*,#759,.T.);
#1004=ORIENTED_EDGE('',*,*,#761,.F.);
#1005=ORIENTED_EDGE('',*,*,#762,.F.);
#1006=ORIENTED_EDGE('',*,*,#763,.T.);
#1007=ORIENTED_EDGE('',*,*,#762,.T.);
#1008=ORIENTED_EDGE('',*,*,#764,.F.);
#1009=ORIENTED_EDGE('',*,*,#754,.F.);
#1010=ORIENTED_EDGE('',*,*,#764,.T.);
#1011=ORIENTED_EDGE('',*,*,#761,.T.);
#1012=ORIENTED_EDGE('',*,*,#758,.T.);
#1013=ORIENTED_EDGE('',*,*,#755,.T.);
#1014=ORIENTED_EDGE('',*,*,#763,.F.);
#1015=ORIENTED_EDGE('',*,*,#753,.F.);
#1016=ORIENTED_EDGE('',*,*,#757,.F.);
#1017=ORIENTED_EDGE('',*,*,#760,.F.);
#1018=ORIENTED_EDGE('',*,*,#765,.T.);
#1019=ORIENTED_EDGE('',*,*,#766,.T.);
#1020=ORIENTED_EDGE('',*,*,#767,.F.);
#1021=ORIENTED_EDGE('',*,*,#768,.F.);
#1022=ORIENTED_EDGE('',*,*,#769,.T.);
#1023=ORIENTED_EDGE('',*,*,#768,.T.);
#1024=ORIENTED_EDGE('',*,*,#770,.F.);
#1025=ORIENTED_EDGE('',*,*,#771,.F.);
#1026=ORIENTED_EDGE('',*,*,#772,.T.);
#1027=ORIENTED_EDGE('',*,*,#771,.T.);
#1028=ORIENTED_EDGE('',*,*,#773,.F.);
#1029=ORIENTED_EDGE('',*,*,#774,.F.);
#1030=ORIENTED_EDGE('',*,*,#775,.T.);
#1031=ORIENTED_EDGE('',*,*,#774,.T.);
#1032=ORIENTED_EDGE('',*,*,#776,.F.);
#1033=ORIENTED_EDGE('',*,*,#766,.F.);
#1034=ORIENTED_EDGE('',*,*,#776,.T.);
#1035=ORIENTED_EDGE('',*,*,#773,.T.);
#1036=ORIENTED_EDGE('',*,*,#770,.T.);
#1037=ORIENTED_EDGE('',*,*,#767,.T.);
#1038=ORIENTED_EDGE('',*,*,#775,.F.);
#1039=ORIENTED_EDGE('',*,*,#765,.F.);
#1040=ORIENTED_EDGE('',*,*,#769,.F.);
#1041=ORIENTED_EDGE('',*,*,#772,.F.);
#1042=ORIENTED_EDGE('',*,*,#777,.T.);
#1043=ORIENTED_EDGE('',*,*,#778,.T.);
#1044=ORIENTED_EDGE('',*,*,#779,.F.);
#1045=ORIENTED_EDGE('',*,*,#780,.F.);
#1046=ORIENTED_EDGE('',*,*,#781,.T.);
#1047=ORIENTED_EDGE('',*,*,#780,.T.);
#1048=ORIENTED_EDGE('',*,*,#782,.F.);
#1049=ORIENTED_EDGE('',*,*,#783,.F.);
#1050=ORIENTED_EDGE('',*,*,#784,.T.);
#1051=ORIENTED_EDGE('',*,*,#783,.T.);
#1052=ORIENTED_EDGE('',*,*,#785,.F.);
#1053=ORIENTED_EDGE('',*,*,#786,.F.);
#1054=ORIENTED_EDGE('',*,*,#787,.T.);
#1055=ORIENTED_EDGE('',*,*,#786,.T.);
#1056=ORIENTED_EDGE('',*,*,#788,.F.);
#1057=ORIENTED_EDGE('',*,*,#778,.F.);
#1058=ORIENTED_EDGE('',*,*,#788,.T.);
#1059=ORIENTED_EDGE('',*,*,#785,.T.);
#1060=ORIENTED_EDGE('',*,*,#782,.T.);
#1061=ORIENTED_EDGE('',*,*,#779,.T.);
#1062=ORIENTED_EDGE('',*,*,#787,.F.);
#1063=ORIENTED_EDGE('',*,*,#777,.F.);
#1064=ORIENTED_EDGE('',*,*,#781,.F.);
#1065=ORIENTED_EDGE('',*,*,#784,.F.);
#1066=ORIENTED_EDGE('',*,*,#789,.F.);
#1067=ORIENTED_EDGE('',*,*,#790,.T.);
#1068=ORIENTED_EDGE('',*,*,#791,.F.);
#1069=ORIENTED_EDGE('',*,*,#792,.F.);
#1070=ORIENTED_EDGE('',*,*,#793,.F.);
#1071=ORIENTED_EDGE('',*,*,#792,.T.);
#1072=ORIENTED_EDGE('',*,*,#794,.F.);
#1073=ORIENTED_EDGE('',*,*,#795,.F.);
#1074=ORIENTED_EDGE('',*,*,#796,.F.);
#1075=ORIENTED_EDGE('',*,*,#795,.T.);
#1076=ORIENTED_EDGE('',*,*,#797,.F.);
#1077=ORIENTED_EDGE('',*,*,#798,.F.);
#1078=ORIENTED_EDGE('',*,*,#799,.F.);
#1079=ORIENTED_EDGE('',*,*,#798,.T.);
#1080=ORIENTED_EDGE('',*,*,#800,.F.);
#1081=ORIENTED_EDGE('',*,*,#790,.F.);
#1082=ORIENTED_EDGE('',*,*,#799,.T.);
#1083=ORIENTED_EDGE('',*,*,#789,.T.);
#1084=ORIENTED_EDGE('',*,*,#793,.T.);
#1085=ORIENTED_EDGE('',*,*,#796,.T.);
#1086=ORIENTED_EDGE('',*,*,#800,.T.);
#1087=ORIENTED_EDGE('',*,*,#797,.T.);
#1088=ORIENTED_EDGE('',*,*,#794,.T.);
#1089=ORIENTED_EDGE('',*,*,#791,.T.);
#1090=ORIENTED_EDGE('',*,*,#801,.F.);
#1091=ORIENTED_EDGE('',*,*,#802,.F.);
#1092=ORIENTED_EDGE('',*,*,#803,.F.);
#1093=ORIENTED_EDGE('',*,*,#804,.T.);
#1094=ORIENTED_EDGE('',*,*,#805,.T.);
#1095=ORIENTED_EDGE('',*,*,#802,.T.);
#1096=ORIENTED_EDGE('',*,*,#806,.T.);
#1097=ORIENTED_EDGE('',*,*,#807,.F.);
#1098=ORIENTED_EDGE('',*,*,#808,.F.);
#1099=ORIENTED_EDGE('',*,*,#809,.F.);
#1100=ORIENTED_EDGE('',*,*,#810,.T.);
#1101=ORIENTED_EDGE('',*,*,#811,.T.);
#1102=ORIENTED_EDGE('',*,*,#808,.T.);
#1103=ORIENTED_EDGE('',*,*,#812,.T.);
#1104=ORIENTED_EDGE('',*,*,#813,.F.);
#1105=ORIENTED_EDGE('',*,*,#814,.F.);
#1106=ORIENTED_EDGE('',*,*,#815,.F.);
#1107=ORIENTED_EDGE('',*,*,#816,.T.);
#1108=ORIENTED_EDGE('',*,*,#817,.T.);
#1109=ORIENTED_EDGE('',*,*,#814,.T.);
#1110=ORIENTED_EDGE('',*,*,#818,.T.);
#1111=ORIENTED_EDGE('',*,*,#801,.T.);
#1112=ORIENTED_EDGE('',*,*,#819,.T.);
#1113=ORIENTED_EDGE('',*,*,#815,.T.);
#1114=ORIENTED_EDGE('',*,*,#820,.T.);
#1115=ORIENTED_EDGE('',*,*,#821,.F.);
#1116=ORIENTED_EDGE('',*,*,#822,.F.);
#1117=ORIENTED_EDGE('',*,*,#823,.F.);
#1118=ORIENTED_EDGE('',*,*,#824,.T.);
#1119=ORIENTED_EDGE('',*,*,#825,.T.);
#1120=ORIENTED_EDGE('',*,*,#822,.T.);
#1121=ORIENTED_EDGE('',*,*,#826,.T.);
#1122=ORIENTED_EDGE('',*,*,#813,.T.);
#1123=ORIENTED_EDGE('',*,*,#827,.T.);
#1124=ORIENTED_EDGE('',*,*,#828,.T.);
#1125=ORIENTED_EDGE('',*,*,#829,.T.);
#1126=ORIENTED_EDGE('',*,*,#823,.T.);
#1127=ORIENTED_EDGE('',*,*,#830,.T.);
#1128=ORIENTED_EDGE('',*,*,#821,.T.);
#1129=ORIENTED_EDGE('',*,*,#831,.T.);
#1130=ORIENTED_EDGE('',*,*,#809,.T.);
#1131=ORIENTED_EDGE('',*,*,#832,.T.);
#1132=ORIENTED_EDGE('',*,*,#807,.T.);
#1133=ORIENTED_EDGE('',*,*,#833,.T.);
#1134=ORIENTED_EDGE('',*,*,#803,.T.);
#1135=ORIENTED_EDGE('',*,*,#834,.T.);
#1136=ORIENTED_EDGE('',*,*,#806,.F.);
#1137=ORIENTED_EDGE('',*,*,#820,.F.);
#1138=ORIENTED_EDGE('',*,*,#817,.F.);
#1139=ORIENTED_EDGE('',*,*,#835,.F.);
#1140=ORIENTED_EDGE('',*,*,#818,.F.);
#1141=ORIENTED_EDGE('',*,*,#830,.F.);
#1142=ORIENTED_EDGE('',*,*,#825,.F.);
#1143=ORIENTED_EDGE('',*,*,#836,.F.);
#1144=ORIENTED_EDGE('',*,*,#837,.F.);
#1145=ORIENTED_EDGE('',*,*,#838,.T.);
#1146=ORIENTED_EDGE('',*,*,#839,.T.);
#1147=ORIENTED_EDGE('',*,*,#840,.F.);
#1148=ORIENTED_EDGE('',*,*,#841,.F.);
#1149=ORIENTED_EDGE('',*,*,#842,.T.);
#1150=ORIENTED_EDGE('',*,*,#843,.T.);
#1151=ORIENTED_EDGE('',*,*,#838,.F.);
#1152=ORIENTED_EDGE('',*,*,#844,.F.);
#1153=ORIENTED_EDGE('',*,*,#845,.T.);
#1154=ORIENTED_EDGE('',*,*,#846,.T.);
#1155=ORIENTED_EDGE('',*,*,#842,.F.);
#1156=ORIENTED_EDGE('',*,*,#828,.F.);
#1157=ORIENTED_EDGE('',*,*,#840,.T.);
#1158=ORIENTED_EDGE('',*,*,#847,.T.);
#1159=ORIENTED_EDGE('',*,*,#845,.F.);
#1160=ORIENTED_EDGE('',*,*,#847,.F.);
#1161=ORIENTED_EDGE('',*,*,#839,.F.);
#1162=ORIENTED_EDGE('',*,*,#843,.F.);
#1163=ORIENTED_EDGE('',*,*,#846,.F.);
#1164=ORIENTED_EDGE('',*,*,#805,.F.);
#1165=ORIENTED_EDGE('',*,*,#848,.F.);
#1166=ORIENTED_EDGE('',*,*,#812,.F.);
#1167=ORIENTED_EDGE('',*,*,#834,.F.);
#1168=ORIENTED_EDGE('',*,*,#811,.F.);
#1169=ORIENTED_EDGE('',*,*,#849,.F.);
#1170=ORIENTED_EDGE('',*,*,#826,.F.);
#1171=ORIENTED_EDGE('',*,*,#832,.F.);
#1172=ORIENTED_EDGE('',*,*,#804,.F.);
#1173=ORIENTED_EDGE('',*,*,#835,.T.);
#1174=ORIENTED_EDGE('',*,*,#816,.F.);
#1175=ORIENTED_EDGE('',*,*,#836,.T.);
#1176=ORIENTED_EDGE('',*,*,#824,.F.);
#1177=ORIENTED_EDGE('',*,*,#849,.T.);
#1178=ORIENTED_EDGE('',*,*,#810,.F.);
#1179=ORIENTED_EDGE('',*,*,#848,.T.);
#1180=ORIENTED_EDGE('',*,*,#829,.F.);
#1181=ORIENTED_EDGE('',*,*,#844,.T.);
#1182=ORIENTED_EDGE('',*,*,#841,.T.);
#1183=ORIENTED_EDGE('',*,*,#837,.T.);
#1184=ORIENTED_EDGE('',*,*,#827,.F.);
#1185=ORIENTED_EDGE('',*,*,#819,.F.);
#1186=ORIENTED_EDGE('',*,*,#833,.F.);
#1187=ORIENTED_EDGE('',*,*,#831,.F.);
#1188=ORIENTED_EDGE('',*,*,#850,.T.);
#1189=ORIENTED_EDGE('',*,*,#851,.F.);
#1190=ORIENTED_EDGE('',*,*,#852,.F.);
#1191=ORIENTED_EDGE('',*,*,#853,.T.);
#1192=ORIENTED_EDGE('',*,*,#854,.T.);
#1193=ORIENTED_EDGE('',*,*,#855,.F.);
#1194=ORIENTED_EDGE('',*,*,#856,.F.);
#1195=ORIENTED_EDGE('',*,*,#851,.T.);
#1196=ORIENTED_EDGE('',*,*,#857,.T.);
#1197=ORIENTED_EDGE('',*,*,#858,.F.);
#1198=ORIENTED_EDGE('',*,*,#859,.F.);
#1199=ORIENTED_EDGE('',*,*,#855,.T.);
#1200=ORIENTED_EDGE('',*,*,#860,.T.);
#1201=ORIENTED_EDGE('',*,*,#853,.F.);
#1202=ORIENTED_EDGE('',*,*,#861,.F.);
#1203=ORIENTED_EDGE('',*,*,#858,.T.);
#1204=ORIENTED_EDGE('',*,*,#850,.F.);
#1205=ORIENTED_EDGE('',*,*,#860,.F.);
#1206=ORIENTED_EDGE('',*,*,#857,.F.);
#1207=ORIENTED_EDGE('',*,*,#854,.F.);
#1208=ORIENTED_EDGE('',*,*,#861,.T.);
#1209=ORIENTED_EDGE('',*,*,#852,.T.);
#1210=ORIENTED_EDGE('',*,*,#856,.T.);
#1211=ORIENTED_EDGE('',*,*,#859,.T.);
#1212=ORIENTED_EDGE('',*,*,#862,.T.);
#1213=ORIENTED_EDGE('',*,*,#863,.F.);
#1214=ORIENTED_EDGE('',*,*,#864,.F.);
#1215=ORIENTED_EDGE('',*,*,#865,.T.);
#1216=ORIENTED_EDGE('',*,*,#866,.T.);
#1217=ORIENTED_EDGE('',*,*,#867,.F.);
#1218=ORIENTED_EDGE('',*,*,#868,.F.);
#1219=ORIENTED_EDGE('',*,*,#863,.T.);
#1220=ORIENTED_EDGE('',*,*,#869,.T.);
#1221=ORIENTED_EDGE('',*,*,#870,.F.);
#1222=ORIENTED_EDGE('',*,*,#871,.F.);
#1223=ORIENTED_EDGE('',*,*,#867,.T.);
#1224=ORIENTED_EDGE('',*,*,#872,.T.);
#1225=ORIENTED_EDGE('',*,*,#865,.F.);
#1226=ORIENTED_EDGE('',*,*,#873,.F.);
#1227=ORIENTED_EDGE('',*,*,#870,.T.);
#1228=ORIENTED_EDGE('',*,*,#862,.F.);
#1229=ORIENTED_EDGE('',*,*,#872,.F.);
#1230=ORIENTED_EDGE('',*,*,#869,.F.);
#1231=ORIENTED_EDGE('',*,*,#866,.F.);
#1232=ORIENTED_EDGE('',*,*,#873,.T.);
#1233=ORIENTED_EDGE('',*,*,#864,.T.);
#1234=ORIENTED_EDGE('',*,*,#868,.T.);
#1235=ORIENTED_EDGE('',*,*,#871,.T.);
#1236=PLANE('',#1415);
#1237=PLANE('',#1416);
#1238=PLANE('',#1417);
#1239=PLANE('',#1418);
#1240=PLANE('',#1419);
#1241=PLANE('',#1420);
#1242=PLANE('',#1421);
#1243=PLANE('',#1422);
#1244=PLANE('',#1423);
#1245=PLANE('',#1424);
#1246=PLANE('',#1425);
#1247=PLANE('',#1426);
#1248=PLANE('',#1427);
#1249=PLANE('',#1428);
#1250=PLANE('',#1429);
#1251=PLANE('',#1430);
#1252=PLANE('',#1431);
#1253=PLANE('',#1432);
#1254=PLANE('',#1433);
#1255=PLANE('',#1434);
#1256=PLANE('',#1435);
#1257=PLANE('',#1436);
#1258=PLANE('',#1437);
#1259=PLANE('',#1438);
#1260=PLANE('',#1439);
#1261=PLANE('',#1440);
#1262=PLANE('',#1441);
#1263=PLANE('',#1442);
#1264=PLANE('',#1443);
#1265=PLANE('',#1444);
#1266=PLANE('',#1445);
#1267=PLANE('',#1446);
#1268=PLANE('',#1447);
#1269=PLANE('',#1448);
#1270=PLANE('',#1449);
#1271=PLANE('',#1450);
#1272=PLANE('',#1451);
#1273=PLANE('',#1452);
#1274=PLANE('',#1453);
#1275=PLANE('',#1454);
#1276=PLANE('',#1455);
#1277=PLANE('',#1456);
#1278=PLANE('',#1457);
#1279=PLANE('',#1458);
#1280=PLANE('',#1459);
#1281=PLANE('',#1460);
#1282=PLANE('',#1461);
#1283=PLANE('',#1462);
#1284=PLANE('',#1463);
#1285=PLANE('',#1464);
#1286=PLANE('',#1465);
#1287=PLANE('',#1466);
#1288=PLANE('',#1467);
#1289=PLANE('',#1468);
#1290=PLANE('',#1497);
#1291=PLANE('',#1498);
#1292=PLANE('',#1499);
#1293=PLANE('',#1500);
#1294=PLANE('',#1501);
#1295=PLANE('',#1502);
#1296=PLANE('',#1503);
#1297=PLANE('',#1504);
#1298=PLANE('',#1505);
#1299=PLANE('',#1506);
#1300=PLANE('',#1507);
#1301=PLANE('',#1508);
#1302=PLANE('',#1509);
#1303=PLANE('',#1510);
#1304=PLANE('',#1511);
#1305=PLANE('',#1512);
#1306=PLANE('',#1513);
#1307=PLANE('',#1514);
#1308=PLANE('',#1515);
#1309=PLANE('',#1516);
#1310=PLANE('',#1517);
#1311=PLANE('',#1518);
#1312=PLANE('',#1519);
#1313=ADVANCED_FACE('',(#69),#1236,.T.);
#1314=ADVANCED_FACE('',(#70),#1237,.T.);
#1315=ADVANCED_FACE('',(#71),#1238,.T.);
#1316=ADVANCED_FACE('',(#72),#1239,.T.);
#1317=ADVANCED_FACE('',(#73),#1240,.T.);
#1318=ADVANCED_FACE('',(#74),#1241,.F.);
#1319=ADVANCED_FACE('',(#75),#1242,.T.);
#1320=ADVANCED_FACE('',(#76),#1243,.T.);
#1321=ADVANCED_FACE('',(#77),#1244,.T.);
#1322=ADVANCED_FACE('',(#78),#1245,.T.);
#1323=ADVANCED_FACE('',(#79),#1246,.T.);
#1324=ADVANCED_FACE('',(#80),#1247,.F.);
#1325=ADVANCED_FACE('',(#81),#1248,.T.);
#1326=ADVANCED_FACE('',(#82),#1249,.T.);
#1327=ADVANCED_FACE('',(#83),#1250,.T.);
#1328=ADVANCED_FACE('',(#84),#1251,.T.);
#1329=ADVANCED_FACE('',(#85),#1252,.F.);
#1330=ADVANCED_FACE('',(#86),#1253,.T.);
#1331=ADVANCED_FACE('',(#87),#1254,.T.);
#1332=ADVANCED_FACE('',(#88),#1255,.T.);
#1333=ADVANCED_FACE('',(#89),#1256,.T.);
#1334=ADVANCED_FACE('',(#90),#1257,.T.);
#1335=ADVANCED_FACE('',(#91),#1258,.T.);
#1336=ADVANCED_FACE('',(#92),#1259,.T.);
#1337=ADVANCED_FACE('',(#93),#1260,.T.);
#1338=ADVANCED_FACE('',(#94),#1261,.T.);
#1339=ADVANCED_FACE('',(#95),#1262,.T.);
#1340=ADVANCED_FACE('',(#96),#1263,.T.);
#1341=ADVANCED_FACE('',(#97),#1264,.T.);
#1342=ADVANCED_FACE('',(#98),#1265,.T.);
#1343=ADVANCED_FACE('',(#99),#1266,.T.);
#1344=ADVANCED_FACE('',(#100),#1267,.T.);
#1345=ADVANCED_FACE('',(#101),#1268,.T.);
#1346=ADVANCED_FACE('',(#102),#1269,.T.);
#1347=ADVANCED_FACE('',(#103),#1270,.T.);
#1348=ADVANCED_FACE('',(#104),#1271,.T.);
#1349=ADVANCED_FACE('',(#105),#1272,.T.);
#1350=ADVANCED_FACE('',(#106),#1273,.T.);
#1351=ADVANCED_FACE('',(#107),#1274,.T.);
#1352=ADVANCED_FACE('',(#108),#1275,.T.);
#1353=ADVANCED_FACE('',(#109),#1276,.T.);
#1354=ADVANCED_FACE('',(#110),#1277,.T.);
#1355=ADVANCED_FACE('',(#111),#1278,.T.);
#1356=ADVANCED_FACE('',(#112),#1279,.T.);
#1357=ADVANCED_FACE('',(#113),#1280,.T.);
#1358=ADVANCED_FACE('',(#114),#1281,.T.);
#1359=ADVANCED_FACE('',(#115),#1282,.T.);
#1360=ADVANCED_FACE('',(#116),#1283,.T.);
#1361=ADVANCED_FACE('',(#117),#1284,.T.);
#1362=ADVANCED_FACE('',(#118),#1285,.T.);
#1363=ADVANCED_FACE('',(#119),#1286,.T.);
#1364=ADVANCED_FACE('',(#120),#1287,.T.);
#1365=ADVANCED_FACE('',(#121),#1288,.T.);
#1366=ADVANCED_FACE('',(#122),#1289,.T.);
#1367=ADVANCED_FACE('',(#123),#39,.T.);
#1368=ADVANCED_FACE('',(#124),#15,.T.);
#1369=ADVANCED_FACE('',(#125),#40,.T.);
#1370=ADVANCED_FACE('',(#126),#16,.T.);
#1371=ADVANCED_FACE('',(#127),#41,.T.);
#1372=ADVANCED_FACE('',(#128),#17,.T.);
#1373=ADVANCED_FACE('',(#129),#18,.T.);
#1374=ADVANCED_FACE('',(#130),#42,.T.);
#1375=ADVANCED_FACE('',(#131),#19,.T.);
#1376=ADVANCED_FACE('',(#132),#20,.T.);
#1377=ADVANCED_FACE('',(#133),#21,.T.);
#1378=ADVANCED_FACE('',(#134),#22,.T.);
#1379=ADVANCED_FACE('',(#135),#1290,.T.);
#1380=ADVANCED_FACE('',(#136),#1291,.T.);
#1381=ADVANCED_FACE('',(#137),#1292,.F.);
#1382=ADVANCED_FACE('',(#138),#1293,.F.);
#1383=ADVANCED_FACE('',(#139),#1294,.F.);
#1384=ADVANCED_FACE('',(#140),#1295,.F.);
#1385=ADVANCED_FACE('',(#141),#1296,.F.);
#1386=ADVANCED_FACE('',(#142),#1297,.T.);
#1387=ADVANCED_FACE('',(#143),#1298,.T.);
#1388=ADVANCED_FACE('',(#144),#1299,.F.);
#1389=ADVANCED_FACE('',(#145),#1300,.T.);
#1390=ADVANCED_FACE('',(#146),#1301,.T.);
#1391=ADVANCED_FACE('',(#147),#1302,.T.);
#1392=ADVANCED_FACE('',(#148),#1303,.T.);
#1393=ADVANCED_FACE('',(#149),#1304,.T.);
#1394=ADVANCED_FACE('',(#150),#1305,.T.);
#1395=ADVANCED_FACE('',(#151),#1306,.F.);
#1396=ADVANCED_FACE('',(#152),#1307,.T.);
#1397=ADVANCED_FACE('',(#153),#1308,.T.);
#1398=ADVANCED_FACE('',(#154),#1309,.T.);
#1399=ADVANCED_FACE('',(#155),#1310,.T.);
#1400=ADVANCED_FACE('',(#156),#1311,.T.);
#1401=ADVANCED_FACE('',(#157),#1312,.F.);
#1402=CLOSED_SHELL('',(#1313,#1314,#1315,#1316,#1317,#1318));
#1403=CLOSED_SHELL('',(#1319,#1320,#1321,#1322,#1323,#1324));
#1404=CLOSED_SHELL('',(#1325,#1326,#1327,#1328,#1329,#1330));
#1405=CLOSED_SHELL('',(#1331,#1332,#1333,#1334,#1335,#1336));
#1406=CLOSED_SHELL('',(#1337,#1338,#1339,#1340,#1341,#1342));
#1407=CLOSED_SHELL('',(#1343,#1344,#1345,#1346,#1347,#1348));
#1408=CLOSED_SHELL('',(#1349,#1350,#1351,#1352,#1353,#1354));
#1409=CLOSED_SHELL('',(#1355,#1356,#1357,#1358,#1359,#1360));
#1410=CLOSED_SHELL('',(#1361,#1362,#1363,#1364,#1365,#1366));
#1411=CLOSED_SHELL('',(#1367,#1368,#1369,#1370,#1371,#1372,#1373,#1374,
#1375,#1376,#1377,#1378,#1379,#1380,#1381,#1382,#1383,#1384,#1385,#1386,
#1387,#1388,#1389));
#1412=CLOSED_SHELL('',(#1390,#1391,#1392,#1393,#1394,#1395));
#1413=CLOSED_SHELL('',(#1396,#1397,#1398,#1399,#1400,#1401));
#1414=AXIS2_PLACEMENT_3D('placement',#1897,#1520,#1521);
#1415=AXIS2_PLACEMENT_3D('',#1898,#1522,#1523);
#1416=AXIS2_PLACEMENT_3D('',#1907,#1528,#1529);
#1417=AXIS2_PLACEMENT_3D('',#1913,#1533,#1534);
#1418=AXIS2_PLACEMENT_3D('',#1919,#1538,#1539);
#1419=AXIS2_PLACEMENT_3D('',#1922,#1542,#1543);
#1420=AXIS2_PLACEMENT_3D('',#1923,#1544,#1545);
#1421=AXIS2_PLACEMENT_3D('',#1924,#1546,#1547);
#1422=AXIS2_PLACEMENT_3D('',#1933,#1552,#1553);
#1423=AXIS2_PLACEMENT_3D('',#1939,#1557,#1558);
#1424=AXIS2_PLACEMENT_3D('',#1945,#1562,#1563);
#1425=AXIS2_PLACEMENT_3D('',#1948,#1566,#1567);
#1426=AXIS2_PLACEMENT_3D('',#1949,#1568,#1569);
#1427=AXIS2_PLACEMENT_3D('',#1950,#1570,#1571);
#1428=AXIS2_PLACEMENT_3D('',#1959,#1576,#1577);
#1429=AXIS2_PLACEMENT_3D('',#1965,#1581,#1582);
#1430=AXIS2_PLACEMENT_3D('',#1971,#1586,#1587);
#1431=AXIS2_PLACEMENT_3D('',#1974,#1590,#1591);
#1432=AXIS2_PLACEMENT_3D('',#1975,#1592,#1593);
#1433=AXIS2_PLACEMENT_3D('',#1976,#1594,#1595);
#1434=AXIS2_PLACEMENT_3D('',#1985,#1600,#1601);
#1435=AXIS2_PLACEMENT_3D('',#1991,#1605,#1606);
#1436=AXIS2_PLACEMENT_3D('',#1997,#1610,#1611);
#1437=AXIS2_PLACEMENT_3D('',#2000,#1614,#1615);
#1438=AXIS2_PLACEMENT_3D('',#2001,#1616,#1617);
#1439=AXIS2_PLACEMENT_3D('',#2002,#1618,#1619);
#1440=AXIS2_PLACEMENT_3D('',#2011,#1624,#1625);
#1441=AXIS2_PLACEMENT_3D('',#2017,#1629,#1630);
#1442=AXIS2_PLACEMENT_3D('',#2023,#1634,#1635);
#1443=AXIS2_PLACEMENT_3D('',#2026,#1638,#1639);
#1444=AXIS2_PLACEMENT_3D('',#2027,#1640,#1641);
#1445=AXIS2_PLACEMENT_3D('',#2028,#1642,#1643);
#1446=AXIS2_PLACEMENT_3D('',#2037,#1648,#1649);
#1447=AXIS2_PLACEMENT_3D('',#2043,#1653,#1654);
#1448=AXIS2_PLACEMENT_3D('',#2049,#1658,#1659);
#1449=AXIS2_PLACEMENT_3D('',#2052,#1662,#1663);
#1450=AXIS2_PLACEMENT_3D('',#2053,#1664,#1665);
#1451=AXIS2_PLACEMENT_3D('',#2054,#1666,#1667);
#1452=AXIS2_PLACEMENT_3D('',#2063,#1672,#1673);
#1453=AXIS2_PLACEMENT_3D('',#2069,#1677,#1678);
#1454=AXIS2_PLACEMENT_3D('',#2075,#1682,#1683);
#1455=AXIS2_PLACEMENT_3D('',#2078,#1686,#1687);
#1456=AXIS2_PLACEMENT_3D('',#2079,#1688,#1689);
#1457=AXIS2_PLACEMENT_3D('',#2080,#1690,#1691);
#1458=AXIS2_PLACEMENT_3D('',#2089,#1696,#1697);
#1459=AXIS2_PLACEMENT_3D('',#2095,#1701,#1702);
#1460=AXIS2_PLACEMENT_3D('',#2101,#1706,#1707);
#1461=AXIS2_PLACEMENT_3D('',#2104,#1710,#1711);
#1462=AXIS2_PLACEMENT_3D('',#2105,#1712,#1713);
#1463=AXIS2_PLACEMENT_3D('',#2106,#1714,#1715);
#1464=AXIS2_PLACEMENT_3D('',#2115,#1720,#1721);
#1465=AXIS2_PLACEMENT_3D('',#2121,#1725,#1726);
#1466=AXIS2_PLACEMENT_3D('',#2127,#1730,#1731);
#1467=AXIS2_PLACEMENT_3D('',#2130,#1734,#1735);
#1468=AXIS2_PLACEMENT_3D('',#2131,#1736,#1737);
#1469=AXIS2_PLACEMENT_3D('',#2132,#1738,#1739);
#1470=AXIS2_PLACEMENT_3D('',#2135,#1740,#1741);
#1471=AXIS2_PLACEMENT_3D('',#2137,#1742,#1743);
#1472=AXIS2_PLACEMENT_3D('',#2138,#1744,#1745);
#1473=AXIS2_PLACEMENT_3D('',#2139,#1746,#1747);
#1474=AXIS2_PLACEMENT_3D('',#2142,#1748,#1749);
#1475=AXIS2_PLACEMENT_3D('',#2145,#1752,#1753);
#1476=AXIS2_PLACEMENT_3D('',#2148,#1754,#1755);
#1477=AXIS2_PLACEMENT_3D('',#2150,#1756,#1757);
#1478=AXIS2_PLACEMENT_3D('',#2151,#1758,#1759);
#1479=AXIS2_PLACEMENT_3D('',#2152,#1760,#1761);
#1480=AXIS2_PLACEMENT_3D('',#2155,#1762,#1763);
#1481=AXIS2_PLACEMENT_3D('',#2158,#1766,#1767);
#1482=AXIS2_PLACEMENT_3D('',#2161,#1768,#1769);
#1483=AXIS2_PLACEMENT_3D('',#2163,#1770,#1771);
#1484=AXIS2_PLACEMENT_3D('',#2164,#1772,#1773);
#1485=AXIS2_PLACEMENT_3D('',#2165,#1774,#1775);
#1486=AXIS2_PLACEMENT_3D('',#2168,#1776,#1777);
#1487=AXIS2_PLACEMENT_3D('',#2171,#1780,#1781);
#1488=AXIS2_PLACEMENT_3D('',#2174,#1784,#1785);
#1489=AXIS2_PLACEMENT_3D('',#2177,#1786,#1787);
#1490=AXIS2_PLACEMENT_3D('',#2179,#1788,#1789);
#1491=AXIS2_PLACEMENT_3D('',#2180,#1790,#1791);
#1492=AXIS2_PLACEMENT_3D('',#2181,#1792,#1793);
#1493=AXIS2_PLACEMENT_3D('',#2184,#1794,#1795);
#1494=AXIS2_PLACEMENT_3D('',#2187,#1798,#1799);
#1495=AXIS2_PLACEMENT_3D('',#2194,#1804,#1805);
#1496=AXIS2_PLACEMENT_3D('',#2197,#1808,#1809);
#1497=AXIS2_PLACEMENT_3D('',#2200,#1812,#1813);
#1498=AXIS2_PLACEMENT_3D('',#2202,#1815,#1816);
#1499=AXIS2_PLACEMENT_3D('',#2204,#1818,#1819);
#1500=AXIS2_PLACEMENT_3D('',#2212,#1824,#1825);
#1501=AXIS2_PLACEMENT_3D('',#2218,#1829,#1830);
#1502=AXIS2_PLACEMENT_3D('',#2223,#1834,#1835);
#1503=AXIS2_PLACEMENT_3D('',#2225,#1837,#1838);
#1504=AXIS2_PLACEMENT_3D('',#2226,#1839,#1840);
#1505=AXIS2_PLACEMENT_3D('',#2228,#1842,#1843);
#1506=AXIS2_PLACEMENT_3D('',#2230,#1845,#1846);
#1507=AXIS2_PLACEMENT_3D('',#2231,#1847,#1848);
#1508=AXIS2_PLACEMENT_3D('',#2232,#1849,#1850);
#1509=AXIS2_PLACEMENT_3D('',#2241,#1855,#1856);
#1510=AXIS2_PLACEMENT_3D('',#2247,#1860,#1861);
#1511=AXIS2_PLACEMENT_3D('',#2253,#1865,#1866);
#1512=AXIS2_PLACEMENT_3D('',#2256,#1869,#1870);
#1513=AXIS2_PLACEMENT_3D('',#2257,#1871,#1872);
#1514=AXIS2_PLACEMENT_3D('',#2258,#1873,#1874);
#1515=AXIS2_PLACEMENT_3D('',#2267,#1879,#1880);
#1516=AXIS2_PLACEMENT_3D('',#2273,#1884,#1885);
#1517=AXIS2_PLACEMENT_3D('',#2279,#1889,#1890);
#1518=AXIS2_PLACEMENT_3D('',#2282,#1893,#1894);
#1519=AXIS2_PLACEMENT_3D('',#2283,#1895,#1896);
#1520=DIRECTION('axis',(0.,0.,1.));
#1521=DIRECTION('refdir',(1.,0.,0.));
#1522=DIRECTION('center_axis',(1.,0.,0.));
#1523=DIRECTION('ref_axis',(0.,0.,-1.));
#1524=DIRECTION('',(0.,-1.,0.));
#1525=DIRECTION('',(0.,0.,1.));
#1526=DIRECTION('',(0.,-1.,0.));
#1527=DIRECTION('',(0.,0.,1.));
#1528=DIRECTION('center_axis',(0.,-1.,0.));
#1529=DIRECTION('ref_axis',(0.,0.,-1.));
#1530=DIRECTION('',(-1.,0.,0.));
#1531=DIRECTION('',(0.,0.,1.));
#1532=DIRECTION('',(-1.,0.,0.));
#1533=DIRECTION('center_axis',(-1.,0.,0.));
#1534=DIRECTION('ref_axis',(0.,0.,1.));
#1535=DIRECTION('',(0.,1.,0.));
#1536=DIRECTION('',(0.,0.,1.));
#1537=DIRECTION('',(0.,1.,0.));
#1538=DIRECTION('center_axis',(0.,1.,0.));
#1539=DIRECTION('ref_axis',(0.,0.,1.));
#1540=DIRECTION('',(1.,0.,0.));
#1541=DIRECTION('',(1.,0.,0.));
#1542=DIRECTION('center_axis',(0.,0.,1.));
#1543=DIRECTION('ref_axis',(1.,0.,0.));
#1544=DIRECTION('center_axis',(0.,0.,1.));
#1545=DIRECTION('ref_axis',(1.,0.,0.));
#1546=DIRECTION('center_axis',(1.,0.,0.));
#1547=DIRECTION('ref_axis',(0.,0.,-1.));
#1548=DIRECTION('',(0.,-1.,0.));
#1549=DIRECTION('',(0.,0.,1.));
#1550=DIRECTION('',(0.,-1.,0.));
#1551=DIRECTION('',(0.,0.,1.));
#1552=DIRECTION('center_axis',(0.,-1.,0.));
#1553=DIRECTION('ref_axis',(0.,0.,-1.));
#1554=DIRECTION('',(-1.,0.,0.));
#1555=DIRECTION('',(0.,0.,1.));
#1556=DIRECTION('',(-1.,0.,0.));
#1557=DIRECTION('center_axis',(-1.,0.,0.));
#1558=DIRECTION('ref_axis',(0.,0.,1.));
#1559=DIRECTION('',(0.,1.,0.));
#1560=DIRECTION('',(0.,0.,1.));
#1561=DIRECTION('',(0.,1.,0.));
#1562=DIRECTION('center_axis',(0.,1.,0.));
#1563=DIRECTION('ref_axis',(0.,0.,1.));
#1564=DIRECTION('',(1.,0.,0.));
#1565=DIRECTION('',(1.,0.,0.));
#1566=DIRECTION('center_axis',(0.,0.,1.));
#1567=DIRECTION('ref_axis',(1.,0.,0.));
#1568=DIRECTION('center_axis',(0.,0.,1.));
#1569=DIRECTION('ref_axis',(1.,0.,0.));
#1570=DIRECTION('center_axis',(0.,-1.,0.));
#1571=DIRECTION('ref_axis',(0.,0.,-1.));
#1572=DIRECTION('',(1.,0.,0.));
#1573=DIRECTION('',(0.,0.,-1.));
#1574=DIRECTION('',(1.,0.,0.));
#1575=DIRECTION('',(0.,0.,-1.));
#1576=DIRECTION('center_axis',(1.,0.,0.));
#1577=DIRECTION('ref_axis',(0.,0.,-1.));
#1578=DIRECTION('',(0.,1.,0.));
#1579=DIRECTION('',(0.,0.,-1.));
#1580=DIRECTION('',(0.,1.,0.));
#1581=DIRECTION('center_axis',(-2.22044604925031E-16,1.,0.));
#1582=DIRECTION('ref_axis',(0.,0.,1.));
#1583=DIRECTION('',(-1.,-2.22044604925031E-16,0.));
#1584=DIRECTION('',(0.,0.,-1.));
#1585=DIRECTION('',(-1.,-2.22044604925031E-16,0.));
#1586=DIRECTION('center_axis',(-1.,0.,0.));
#1587=DIRECTION('ref_axis',(0.,0.,1.));
#1588=DIRECTION('',(0.,-1.,0.));
#1589=DIRECTION('',(0.,-1.,0.));
#1590=DIRECTION('center_axis',(0.,0.,1.));
#1591=DIRECTION('ref_axis',(1.,0.,0.));
#1592=DIRECTION('center_axis',(0.,0.,1.));
#1593=DIRECTION('ref_axis',(1.,0.,0.));
#1594=DIRECTION('center_axis',(-1.,0.,0.));
#1595=DIRECTION('ref_axis',(0.,1.,0.));
#1596=DIRECTION('',(0.,1.,0.));
#1597=DIRECTION('',(0.,0.,-1.));
#1598=DIRECTION('',(0.,1.,0.));
#1599=DIRECTION('',(0.,0.,-1.));
#1600=DIRECTION('center_axis',(0.,-1.,0.));
#1601=DIRECTION('ref_axis',(-1.,0.,0.));
#1602=DIRECTION('',(-1.,0.,0.));
#1603=DIRECTION('',(-1.,0.,0.));
#1604=DIRECTION('',(0.,0.,-1.));
#1605=DIRECTION('center_axis',(1.,0.,0.));
#1606=DIRECTION('ref_axis',(0.,-1.,0.));
#1607=DIRECTION('',(0.,-1.,0.));
#1608=DIRECTION('',(0.,-1.,0.));
#1609=DIRECTION('',(0.,0.,-1.));
#1610=DIRECTION('center_axis',(0.,1.,0.));
#1611=DIRECTION('ref_axis',(1.,0.,0.));
#1612=DIRECTION('',(1.,0.,0.));
#1613=DIRECTION('',(1.,0.,0.));
#1614=DIRECTION('center_axis',(0.,0.,-1.));
#1615=DIRECTION('ref_axis',(-1.,0.,0.));
#1616=DIRECTION('center_axis',(0.,0.,1.));
#1617=DIRECTION('ref_axis',(1.,0.,0.));
#1618=DIRECTION('center_axis',(1.,0.,0.));
#1619=DIRECTION('ref_axis',(0.,-1.,0.));
#1620=DIRECTION('',(0.,1.,0.));
#1621=DIRECTION('',(0.,0.,-1.));
#1622=DIRECTION('',(0.,-1.,0.));
#1623=DIRECTION('',(0.,0.,-1.));
#1624=DIRECTION('center_axis',(0.,1.,0.));
#1625=DIRECTION('ref_axis',(1.,0.,0.));
#1626=DIRECTION('',(-1.,0.,0.));
#1627=DIRECTION('',(1.,0.,0.));
#1628=DIRECTION('',(0.,0.,-1.));
#1629=DIRECTION('center_axis',(-1.,0.,0.));
#1630=DIRECTION('ref_axis',(0.,1.,0.));
#1631=DIRECTION('',(0.,-1.,0.));
#1632=DIRECTION('',(0.,1.,0.));
#1633=DIRECTION('',(0.,0.,-1.));
#1634=DIRECTION('center_axis',(0.,-1.,0.));
#1635=DIRECTION('ref_axis',(-1.,0.,0.));
#1636=DIRECTION('',(1.,0.,0.));
#1637=DIRECTION('',(-1.,0.,0.));
#1638=DIRECTION('center_axis',(0.,0.,1.));
#1639=DIRECTION('ref_axis',(1.,0.,0.));
#1640=DIRECTION('center_axis',(0.,0.,-1.));
#1641=DIRECTION('ref_axis',(-1.,0.,0.));
#1642=DIRECTION('center_axis',(-1.,0.,0.));
#1643=DIRECTION('ref_axis',(0.,1.,0.));
#1644=DIRECTION('',(0.,1.,0.));
#1645=DIRECTION('',(0.,0.,-1.));
#1646=DIRECTION('',(0.,1.,0.));
#1647=DIRECTION('',(0.,0.,-1.));
#1648=DIRECTION('center_axis',(0.,-1.,0.));
#1649=DIRECTION('ref_axis',(-1.,0.,0.));
#1650=DIRECTION('',(-1.,0.,0.));
#1651=DIRECTION('',(-1.,0.,0.));
#1652=DIRECTION('',(0.,0.,-1.));
#1653=DIRECTION('center_axis',(1.,0.,0.));
#1654=DIRECTION('ref_axis',(0.,-1.,0.));
#1655=DIRECTION('',(0.,-1.,0.));
#1656=DIRECTION('',(0.,-1.,0.));
#1657=DIRECTION('',(0.,0.,-1.));
#1658=DIRECTION('center_axis',(0.,1.,0.));
#1659=DIRECTION('ref_axis',(1.,0.,0.));
#1660=DIRECTION('',(1.,0.,0.));
#1661=DIRECTION('',(1.,0.,0.));
#1662=DIRECTION('center_axis',(0.,0.,-1.));
#1663=DIRECTION('ref_axis',(-1.,0.,0.));
#1664=DIRECTION('center_axis',(0.,0.,1.));
#1665=DIRECTION('ref_axis',(1.,0.,0.));
#1666=DIRECTION('center_axis',(-1.,0.,0.));
#1667=DIRECTION('ref_axis',(0.,1.,0.));
#1668=DIRECTION('',(0.,1.,0.));
#1669=DIRECTION('',(0.,0.,-1.));
#1670=DIRECTION('',(0.,1.,0.));
#1671=DIRECTION('',(0.,0.,-1.));
#1672=DIRECTION('center_axis',(0.,-1.,0.));
#1673=DIRECTION('ref_axis',(-1.,0.,0.));
#1674=DIRECTION('',(-1.,0.,0.));
#1675=DIRECTION('',(-1.,0.,0.));
#1676=DIRECTION('',(0.,0.,-1.));
#1677=DIRECTION('center_axis',(1.,0.,0.));
#1678=DIRECTION('ref_axis',(0.,-1.,0.));
#1679=DIRECTION('',(0.,-1.,0.));
#1680=DIRECTION('',(0.,-1.,0.));
#1681=DIRECTION('',(0.,0.,-1.));
#1682=DIRECTION('center_axis',(0.,1.,0.));
#1683=DIRECTION('ref_axis',(1.,0.,0.));
#1684=DIRECTION('',(1.,0.,0.));
#1685=DIRECTION('',(1.,0.,0.));
#1686=DIRECTION('center_axis',(0.,0.,-1.));
#1687=DIRECTION('ref_axis',(-1.,0.,0.));
#1688=DIRECTION('center_axis',(0.,0.,1.));
#1689=DIRECTION('ref_axis',(1.,0.,0.));
#1690=DIRECTION('center_axis',(-1.,0.,0.));
#1691=DIRECTION('ref_axis',(0.,1.,0.));
#1692=DIRECTION('',(0.,1.,0.));
#1693=DIRECTION('',(0.,0.,-1.));
#1694=DIRECTION('',(0.,1.,0.));
#1695=DIRECTION('',(0.,0.,-1.));
#1696=DIRECTION('center_axis',(0.,-1.,0.));
#1697=DIRECTION('ref_axis',(-1.,0.,0.));
#1698=DIRECTION('',(-1.,0.,0.));
#1699=DIRECTION('',(-1.,0.,0.));
#1700=DIRECTION('',(0.,0.,-1.));
#1701=DIRECTION('center_axis',(1.,0.,0.));
#1702=DIRECTION('ref_axis',(0.,-1.,0.));
#1703=DIRECTION('',(0.,-1.,0.));
#1704=DIRECTION('',(0.,-1.,0.));
#1705=DIRECTION('',(0.,0.,-1.));
#1706=DIRECTION('center_axis',(0.,1.,0.));
#1707=DIRECTION('ref_axis',(1.,0.,0.));
#1708=DIRECTION('',(1.,0.,0.));
#1709=DIRECTION('',(1.,0.,0.));
#1710=DIRECTION('center_axis',(0.,0.,-1.));
#1711=DIRECTION('ref_axis',(-1.,0.,0.));
#1712=DIRECTION('center_axis',(0.,0.,1.));
#1713=DIRECTION('ref_axis',(1.,0.,0.));
#1714=DIRECTION('center_axis',(1.,0.,0.));
#1715=DIRECTION('ref_axis',(0.,-1.,0.));
#1716=DIRECTION('',(0.,1.,0.));
#1717=DIRECTION('',(0.,0.,-1.));
#1718=DIRECTION('',(0.,-1.,0.));
#1719=DIRECTION('',(0.,0.,-1.));
#1720=DIRECTION('center_axis',(0.,1.,0.));
#1721=DIRECTION('ref_axis',(1.,0.,0.));
#1722=DIRECTION('',(-1.,0.,0.));
#1723=DIRECTION('',(1.,0.,0.));
#1724=DIRECTION('',(0.,0.,-1.));
#1725=DIRECTION('center_axis',(-1.,0.,0.));
#1726=DIRECTION('ref_axis',(0.,1.,0.));
#1727=DIRECTION('',(0.,-1.,0.));
#1728=DIRECTION('',(0.,1.,0.));
#1729=DIRECTION('',(0.,0.,-1.));
#1730=DIRECTION('center_axis',(0.,-1.,0.));
#1731=DIRECTION('ref_axis',(-1.,0.,0.));
#1732=DIRECTION('',(1.,0.,0.));
#1733=DIRECTION('',(-1.,0.,0.));
#1734=DIRECTION('center_axis',(0.,0.,1.));
#1735=DIRECTION('ref_axis',(1.,0.,0.));
#1736=DIRECTION('center_axis',(0.,0.,-1.));
#1737=DIRECTION('ref_axis',(-1.,0.,0.));
#1738=DIRECTION('center_axis',(-0.408248290463863,-0.816496580927726,-0.408248290463863));
#1739=DIRECTION('ref_axis',(0.577350269189626,-0.577350269189626,0.577350269189626));
#1740=DIRECTION('center_axis',(1.,0.,0.));
#1741=DIRECTION('ref_axis',(0.,-1.,0.));
#1742=DIRECTION('center_axis',(0.,0.,1.));
#1743=DIRECTION('ref_axis',(1.,0.,0.));
#1744=DIRECTION('center_axis',(0.,-1.,0.));
#1745=DIRECTION('ref_axis',(0.,0.,1.));
#1746=DIRECTION('center_axis',(0.,0.,1.));
#1747=DIRECTION('ref_axis',(0.707106781186548,-0.707106781186548,0.));
#1748=DIRECTION('center_axis',(0.,0.,1.));
#1749=DIRECTION('ref_axis',(0.707106781186548,-0.707106781186548,0.));
#1750=DIRECTION('',(0.,0.,1.));
#1751=DIRECTION('',(0.,0.,-1.));
#1752=DIRECTION('center_axis',(0.408248290463863,-0.816496580927726,0.408248290463863));
#1753=DIRECTION('ref_axis',(0.577350269189626,0.577350269189626,0.577350269189626));
#1754=DIRECTION('center_axis',(0.,1.,0.));
#1755=DIRECTION('ref_axis',(1.,0.,0.));
#1756=DIRECTION('center_axis',(0.,0.,1.));
#1757=DIRECTION('ref_axis',(0.,1.,0.));
#1758=DIRECTION('center_axis',(1.,0.,0.));
#1759=DIRECTION('ref_axis',(0.,0.,1.));
#1760=DIRECTION('center_axis',(0.,0.,1.));
#1761=DIRECTION('ref_axis',(0.707106781186548,0.707106781186548,0.));
#1762=DIRECTION('center_axis',(0.,0.,1.));
#1763=DIRECTION('ref_axis',(0.707106781186548,0.707106781186548,0.));
#1764=DIRECTION('',(0.,0.,1.));
#1765=DIRECTION('',(0.,0.,-1.));
#1766=DIRECTION('center_axis',(0.408248290463863,-0.816496580927726,-0.408248290463863));
#1767=DIRECTION('ref_axis',(-0.577350269189626,-0.577350269189626,0.577350269189626));
#1768=DIRECTION('center_axis',(0.,-1.,0.));
#1769=DIRECTION('ref_axis',(-1.,0.,0.));
#1770=DIRECTION('center_axis',(0.,0.,1.));
#1771=DIRECTION('ref_axis',(0.,-1.,0.));
#1772=DIRECTION('center_axis',(-1.,0.,0.));
#1773=DIRECTION('ref_axis',(0.,0.,1.));
#1774=DIRECTION('center_axis',(0.,0.,1.));
#1775=DIRECTION('ref_axis',(-0.707106781186548,-0.707106781186548,0.));
#1776=DIRECTION('center_axis',(0.,0.,1.));
#1777=DIRECTION('ref_axis',(-0.707106781186548,-0.707106781186548,0.));
#1778=DIRECTION('',(0.,0.,1.));
#1779=DIRECTION('',(0.,0.,-1.));
#1780=DIRECTION('center_axis',(1.,0.,0.));
#1781=DIRECTION('ref_axis',(0.,-0.707106781186548,0.707106781186548));
#1782=DIRECTION('',(-1.,0.,0.));
#1783=DIRECTION('',(1.,0.,0.));
#1784=DIRECTION('center_axis',(-0.408248290463863,-0.816496580927726,0.408248290463863));
#1785=DIRECTION('ref_axis',(-0.577350269189626,0.577350269189626,0.577350269189626));
#1786=DIRECTION('center_axis',(-1.,0.,0.));
#1787=DIRECTION('ref_axis',(0.,1.,0.));
#1788=DIRECTION('center_axis',(0.,0.,1.));
#1789=DIRECTION('ref_axis',(-1.,0.,0.));
#1790=DIRECTION('center_axis',(0.,1.,0.));
#1791=DIRECTION('ref_axis',(0.,0.,1.));
#1792=DIRECTION('center_axis',(0.,0.,1.));
#1793=DIRECTION('ref_axis',(-0.707106781186548,0.707106781186548,0.));
#1794=DIRECTION('center_axis',(0.,0.,1.));
#1795=DIRECTION('ref_axis',(-0.707106781186548,0.707106781186548,0.));
#1796=DIRECTION('',(0.,0.,1.));
#1797=DIRECTION('',(0.,0.,-1.));
#1798=DIRECTION('center_axis',(0.,-1.,0.));
#1799=DIRECTION('ref_axis',(-0.707106781186548,0.,0.707106781186548));
#1800=DIRECTION('',(0.,1.,0.));
#1801=DIRECTION('',(0.,1.,0.));
#1802=DIRECTION('',(0.,1.,0.));
#1803=DIRECTION('',(0.,-1.,0.));
#1804=DIRECTION('center_axis',(-1.,0.,0.));
#1805=DIRECTION('ref_axis',(0.,0.707106781186548,0.707106781186548));
#1806=DIRECTION('',(1.,0.,0.));
#1807=DIRECTION('',(-1.,0.,0.));
#1808=DIRECTION('center_axis',(0.,1.,0.));
#1809=DIRECTION('ref_axis',(0.707106781186548,0.,0.707106781186548));
#1810=DIRECTION('',(0.,-1.,0.));
#1811=DIRECTION('',(0.,1.,0.));
#1812=DIRECTION('center_axis',(0.,-1.,0.));
#1813=DIRECTION('ref_axis',(1.,0.,0.));
#1814=DIRECTION('',(-1.,0.,0.));
#1815=DIRECTION('center_axis',(-1.,0.,0.));
#1816=DIRECTION('ref_axis',(0.,-1.,0.));
#1817=DIRECTION('',(0.,1.,0.));
#1818=DIRECTION('center_axis',(0.,-1.,0.));
#1819=DIRECTION('ref_axis',(-1.,0.,0.));
#1820=DIRECTION('',(-1.,0.,0.));
#1821=DIRECTION('',(0.,0.,-1.));
#1822=DIRECTION('',(-1.,0.,0.));
#1823=DIRECTION('',(0.,0.,-1.));
#1824=DIRECTION('center_axis',(1.,0.,0.));
#1825=DIRECTION('ref_axis',(0.,-1.,0.));
#1826=DIRECTION('',(0.,-1.,0.));
#1827=DIRECTION('',(0.,0.,-1.));
#1828=DIRECTION('',(0.,-1.,0.));
#1829=DIRECTION('center_axis',(-2.22044604925031E-16,1.,0.));
#1830=DIRECTION('ref_axis',(1.,2.22044604925031E-16,0.));
#1831=DIRECTION('',(1.,2.22044604925031E-16,0.));
#1832=DIRECTION('',(0.,0.,-1.));
#1833=DIRECTION('',(1.,2.22044604925031E-16,0.));
#1834=DIRECTION('center_axis',(-1.,0.,0.));
#1835=DIRECTION('ref_axis',(0.,1.,0.));
#1836=DIRECTION('',(0.,1.,0.));
#1837=DIRECTION('center_axis',(0.,0.,-1.));
#1838=DIRECTION('ref_axis',(-1.,0.,0.));
#1839=DIRECTION('center_axis',(1.,0.,0.));
#1840=DIRECTION('ref_axis',(0.,1.,0.));
#1841=DIRECTION('',(0.,-1.,0.));
#1842=DIRECTION('center_axis',(0.,1.,0.));
#1843=DIRECTION('ref_axis',(-1.,0.,0.));
#1844=DIRECTION('',(1.,0.,0.));
#1845=DIRECTION('center_axis',(0.,0.,1.));
#1846=DIRECTION('ref_axis',(1.,0.,0.));
#1847=DIRECTION('center_axis',(0.,0.,1.));
#1848=DIRECTION('ref_axis',(1.,0.,0.));
#1849=DIRECTION('center_axis',(1.,0.,0.));
#1850=DIRECTION('ref_axis',(0.,0.,-1.));
#1851=DIRECTION('',(0.,-1.,0.));
#1852=DIRECTION('',(0.,0.,1.));
#1853=DIRECTION('',(0.,-1.,0.));
#1854=DIRECTION('',(0.,0.,1.));
#1855=DIRECTION('center_axis',(0.,-1.,0.));
#1856=DIRECTION('ref_axis',(0.,0.,-1.));
#1857=DIRECTION('',(-1.,0.,0.));
#1858=DIRECTION('',(0.,0.,1.));
#1859=DIRECTION('',(-1.,0.,0.));
#1860=DIRECTION('center_axis',(-1.,0.,0.));
#1861=DIRECTION('ref_axis',(0.,0.,1.));
#1862=DIRECTION('',(0.,1.,0.));
#1863=DIRECTION('',(0.,0.,1.));
#1864=DIRECTION('',(0.,1.,0.));
#1865=DIRECTION('center_axis',(0.,1.,0.));
#1866=DIRECTION('ref_axis',(0.,0.,1.));
#1867=DIRECTION('',(1.,0.,0.));
#1868=DIRECTION('',(1.,0.,0.));
#1869=DIRECTION('center_axis',(0.,0.,1.));
#1870=DIRECTION('ref_axis',(1.,0.,0.));
#1871=DIRECTION('center_axis',(0.,0.,1.));
#1872=DIRECTION('ref_axis',(1.,0.,0.));
#1873=DIRECTION('center_axis',(1.,0.,0.));
#1874=DIRECTION('ref_axis',(0.,0.,-1.));
#1875=DIRECTION('',(0.,-1.,0.));
#1876=DIRECTION('',(0.,0.,1.));
#1877=DIRECTION('',(0.,-1.,0.));
#1878=DIRECTION('',(0.,0.,1.));
#1879=DIRECTION('center_axis',(0.,-1.,0.));
#1880=DIRECTION('ref_axis',(0.,0.,-1.));
#1881=DIRECTION('',(-1.,0.,0.));
#1882=DIRECTION('',(0.,0.,1.));
#1883=DIRECTION('',(-1.,0.,0.));
#1884=DIRECTION('center_axis',(-1.,0.,0.));
#1885=DIRECTION('ref_axis',(0.,0.,1.));
#1886=DIRECTION('',(0.,1.,0.));
#1887=DIRECTION('',(0.,0.,1.));
#1888=DIRECTION('',(0.,1.,0.));
#1889=DIRECTION('center_axis',(0.,1.,0.));
#1890=DIRECTION('ref_axis',(0.,0.,1.));
#1891=DIRECTION('',(1.,0.,0.));
#1892=DIRECTION('',(1.,0.,0.));
#1893=DIRECTION('center_axis',(0.,0.,1.));
#1894=DIRECTION('ref_axis',(1.,0.,0.));
#1895=DIRECTION('center_axis',(0.,0.,1.));
#1896=DIRECTION('ref_axis',(1.,0.,0.));
#1897=CARTESIAN_POINT('',(0.,0.,0.));
#1898=CARTESIAN_POINT('Origin',(-4.58,-7.2,0.));
#1899=CARTESIAN_POINT('',(-4.58,-7.2,0.3));
#1900=CARTESIAN_POINT('',(-4.58,-7.5,0.3));
#1901=CARTESIAN_POINT('',(-4.58,-7.2,0.3));
#1902=CARTESIAN_POINT('',(-4.58,-7.5,0.));
#1903=CARTESIAN_POINT('',(-4.58,-7.5,0.));
#1904=CARTESIAN_POINT('',(-4.58,-7.2,0.));
#1905=CARTESIAN_POINT('',(-4.58,-7.2,0.));
#1906=CARTESIAN_POINT('',(-4.58,-7.2,0.));
#1907=CARTESIAN_POINT('Origin',(-5.08,-7.5,0.));
#1908=CARTESIAN_POINT('',(-5.58,-7.5,0.3));
#1909=CARTESIAN_POINT('',(-5.08,-7.5,0.3));
#1910=CARTESIAN_POINT('',(-5.58,-7.5,0.));
#1911=CARTESIAN_POINT('',(-5.58,-7.5,0.));
#1912=CARTESIAN_POINT('',(-5.08,-7.5,0.));
#1913=CARTESIAN_POINT('Origin',(-5.58,-7.5,0.));
#1914=CARTESIAN_POINT('',(-5.58,-7.2,0.3));
#1915=CARTESIAN_POINT('',(-5.58,-7.5,0.3));
#1916=CARTESIAN_POINT('',(-5.58,-7.2,0.));
#1917=CARTESIAN_POINT('',(-5.58,-7.2,0.));
#1918=CARTESIAN_POINT('',(-5.58,-7.5,0.));
#1919=CARTESIAN_POINT('Origin',(-5.08,-7.2,0.));
#1920=CARTESIAN_POINT('',(-5.08,-7.2,0.3));
#1921=CARTESIAN_POINT('',(-5.08,-7.2,0.));
#1922=CARTESIAN_POINT('Origin',(-4.83,-7.35,0.3));
#1923=CARTESIAN_POINT('Origin',(-4.83,-7.35,0.));
#1924=CARTESIAN_POINT('Origin',(-4.58,7.5,0.));
#1925=CARTESIAN_POINT('',(-4.58,7.5,0.3));
#1926=CARTESIAN_POINT('',(-4.58,7.2,0.3));
#1927=CARTESIAN_POINT('',(-4.58,7.5,0.3));
#1928=CARTESIAN_POINT('',(-4.58,7.2,0.));
#1929=CARTESIAN_POINT('',(-4.58,7.2,0.));
#1930=CARTESIAN_POINT('',(-4.58,7.5,0.));
#1931=CARTESIAN_POINT('',(-4.58,7.5,0.));
#1932=CARTESIAN_POINT('',(-4.58,7.5,0.));
#1933=CARTESIAN_POINT('Origin',(-4.58,7.2,0.));
#1934=CARTESIAN_POINT('',(-5.58,7.2,0.3));
#1935=CARTESIAN_POINT('',(-4.58,7.2,0.3));
#1936=CARTESIAN_POINT('',(-5.58,7.2,0.));
#1937=CARTESIAN_POINT('',(-5.58,7.2,0.));
#1938=CARTESIAN_POINT('',(-5.08,7.2,0.));
#1939=CARTESIAN_POINT('Origin',(-5.58,7.2,0.));
#1940=CARTESIAN_POINT('',(-5.58,7.5,0.3));
#1941=CARTESIAN_POINT('',(-5.58,7.2,0.3));
#1942=CARTESIAN_POINT('',(-5.58,7.5,0.));
#1943=CARTESIAN_POINT('',(-5.58,7.5,0.));
#1944=CARTESIAN_POINT('',(-5.58,7.2,0.));
#1945=CARTESIAN_POINT('Origin',(-5.08,7.5,0.));
#1946=CARTESIAN_POINT('',(-5.08,7.5,0.3));
#1947=CARTESIAN_POINT('',(-5.58,7.5,0.));
#1948=CARTESIAN_POINT('Origin',(-4.83,7.35,0.3));
#1949=CARTESIAN_POINT('Origin',(-5.33,7.35,0.));
#1950=CARTESIAN_POINT('Origin',(-9.5,-0.75,10.));
#1951=CARTESIAN_POINT('',(-9.5,-0.75,9.95));
#1952=CARTESIAN_POINT('',(-8.5,-0.75,9.95));
#1953=CARTESIAN_POINT('',(-9.5,-0.75,9.95));
#1954=CARTESIAN_POINT('',(-8.5,-0.75,10.));
#1955=CARTESIAN_POINT('',(-8.5,-0.75,10.));
#1956=CARTESIAN_POINT('',(-9.5,-0.75,10.));
#1957=CARTESIAN_POINT('',(-9.5,-0.75,10.));
#1958=CARTESIAN_POINT('',(-9.5,-0.75,10.));
#1959=CARTESIAN_POINT('Origin',(-8.5,-0.75,10.));
#1960=CARTESIAN_POINT('',(-8.5,0.75,9.95));
#1961=CARTESIAN_POINT('',(-8.5,-0.75,9.95));
#1962=CARTESIAN_POINT('',(-8.5,0.75,10.));
#1963=CARTESIAN_POINT('',(-8.5,0.75,10.));
#1964=CARTESIAN_POINT('',(-8.5,-0.75,10.));
#1965=CARTESIAN_POINT('Origin',(-8.5,0.75,10.));
#1966=CARTESIAN_POINT('',(-9.5,0.75,9.95));
#1967=CARTESIAN_POINT('',(-8.5,0.75,9.95));
#1968=CARTESIAN_POINT('',(-9.5,0.75,10.));
#1969=CARTESIAN_POINT('',(-9.5,0.75,10.));
#1970=CARTESIAN_POINT('',(-8.5,0.75,10.));
#1971=CARTESIAN_POINT('Origin',(-9.5,0.75,10.));
#1972=CARTESIAN_POINT('',(-9.5,0.75,9.95));
#1973=CARTESIAN_POINT('',(-9.5,0.75,10.));
#1974=CARTESIAN_POINT('Origin',(-9.,5.55111512312578E-17,9.95));
#1975=CARTESIAN_POINT('Origin',(-9.,5.55111512312578E-17,10.));
#1976=CARTESIAN_POINT('Origin',(0.77,-5.33,0.3));
#1977=CARTESIAN_POINT('',(0.77,-5.33,0.3));
#1978=CARTESIAN_POINT('',(0.77,-4.83,0.3));
#1979=CARTESIAN_POINT('',(0.77,-5.33,0.3));
#1980=CARTESIAN_POINT('',(0.77,-4.83,-3.6));
#1981=CARTESIAN_POINT('',(0.77,-4.83,0.3));
#1982=CARTESIAN_POINT('',(0.77,-5.33,-3.6));
#1983=CARTESIAN_POINT('',(0.77,-5.33,-3.6));
#1984=CARTESIAN_POINT('',(0.77,-5.33,0.3));
#1985=CARTESIAN_POINT('Origin',(1.77,-5.33,0.3));
#1986=CARTESIAN_POINT('',(1.77,-5.33,0.3));
#1987=CARTESIAN_POINT('',(1.77,-5.33,0.3));
#1988=CARTESIAN_POINT('',(1.77,-5.33,-3.6));
#1989=CARTESIAN_POINT('',(1.77,-5.33,-3.6));
#1990=CARTESIAN_POINT('',(1.77,-5.33,0.3));
#1991=CARTESIAN_POINT('Origin',(1.77,-4.83,0.3));
#1992=CARTESIAN_POINT('',(1.77,-4.83,0.3));
#1993=CARTESIAN_POINT('',(1.77,-4.83,0.3));
#1994=CARTESIAN_POINT('',(1.77,-4.83,-3.6));
#1995=CARTESIAN_POINT('',(1.77,-4.83,-3.6));
#1996=CARTESIAN_POINT('',(1.77,-4.83,0.3));
#1997=CARTESIAN_POINT('Origin',(0.77,-4.83,0.3));
#1998=CARTESIAN_POINT('',(0.77,-4.83,0.3));
#1999=CARTESIAN_POINT('',(0.77,-4.83,-3.6));
#2000=CARTESIAN_POINT('Origin',(1.27,-5.08,-3.6));
#2001=CARTESIAN_POINT('Origin',(1.27,-5.08,0.3));
#2002=CARTESIAN_POINT('Origin',(-8.54,-4.83,0.3));
#2003=CARTESIAN_POINT('',(-8.54,-5.33,0.3));
#2004=CARTESIAN_POINT('',(-8.54,-4.83,0.3));
#2005=CARTESIAN_POINT('',(-8.54,-5.33,0.3));
#2006=CARTESIAN_POINT('',(-8.54,-5.33,-3.6));
#2007=CARTESIAN_POINT('',(-8.54,-5.33,0.3));
#2008=CARTESIAN_POINT('',(-8.54,-4.83,-3.6));
#2009=CARTESIAN_POINT('',(-8.54,-5.33,-3.6));
#2010=CARTESIAN_POINT('',(-8.54,-4.83,0.3));
#2011=CARTESIAN_POINT('Origin',(-9.24,-4.83,0.3));
#2012=CARTESIAN_POINT('',(-9.24,-4.83,0.3));
#2013=CARTESIAN_POINT('',(-8.54,-4.83,0.3));
#2014=CARTESIAN_POINT('',(-9.24,-4.83,-3.6));
#2015=CARTESIAN_POINT('',(-8.54,-4.83,-3.6));
#2016=CARTESIAN_POINT('',(-9.24,-4.83,0.3));
#2017=CARTESIAN_POINT('Origin',(-9.24,-5.33,0.3));
#2018=CARTESIAN_POINT('',(-9.24,-5.33,0.3));
#2019=CARTESIAN_POINT('',(-9.24,-4.83,0.3));
#2020=CARTESIAN_POINT('',(-9.24,-5.33,-3.6));
#2021=CARTESIAN_POINT('',(-9.24,-4.83,-3.6));
#2022=CARTESIAN_POINT('',(-9.24,-5.33,0.3));
#2023=CARTESIAN_POINT('Origin',(-8.54,-5.33,0.3));
#2024=CARTESIAN_POINT('',(-9.24,-5.33,0.3));
#2025=CARTESIAN_POINT('',(-9.24,-5.33,-3.6));
#2026=CARTESIAN_POINT('Origin',(-8.89,-5.08,0.3));
#2027=CARTESIAN_POINT('Origin',(-8.89,-5.08,-3.6));
#2028=CARTESIAN_POINT('Origin',(8.39,-5.33000000000003,0.3));
#2029=CARTESIAN_POINT('',(8.39,-5.33000000000003,0.3));
#2030=CARTESIAN_POINT('',(8.39,-4.83000000000003,0.3));
#2031=CARTESIAN_POINT('',(8.39,-5.33000000000003,0.3));
#2032=CARTESIAN_POINT('',(8.39,-4.83000000000003,-3.6));
#2033=CARTESIAN_POINT('',(8.39,-4.83000000000003,0.3));
#2034=CARTESIAN_POINT('',(8.39,-5.33000000000003,-3.6));
#2035=CARTESIAN_POINT('',(8.39,-5.33000000000003,-3.6));
#2036=CARTESIAN_POINT('',(8.39,-5.33000000000003,0.3));
#2037=CARTESIAN_POINT('Origin',(9.39,-5.33000000000003,0.3));
#2038=CARTESIAN_POINT('',(9.39,-5.33000000000003,0.3));
#2039=CARTESIAN_POINT('',(9.39,-5.33000000000003,0.3));
#2040=CARTESIAN_POINT('',(9.39,-5.33000000000003,-3.6));
#2041=CARTESIAN_POINT('',(9.39,-5.33000000000003,-3.6));
#2042=CARTESIAN_POINT('',(9.39,-5.33000000000003,0.3));
#2043=CARTESIAN_POINT('Origin',(9.39,-4.83000000000003,0.3));
#2044=CARTESIAN_POINT('',(9.39,-4.83000000000003,0.3));
#2045=CARTESIAN_POINT('',(9.39,-4.83000000000003,0.3));
#2046=CARTESIAN_POINT('',(9.39,-4.83000000000003,-3.6));
#2047=CARTESIAN_POINT('',(9.39,-4.83000000000003,-3.6));
#2048=CARTESIAN_POINT('',(9.39,-4.83000000000003,0.3));
#2049=CARTESIAN_POINT('Origin',(8.39,-4.83000000000003,0.3));
#2050=CARTESIAN_POINT('',(8.39,-4.83000000000003,0.3));
#2051=CARTESIAN_POINT('',(8.39,-4.83000000000003,-3.6));
#2052=CARTESIAN_POINT('Origin',(8.89,-5.08000000000003,-3.6));
#2053=CARTESIAN_POINT('Origin',(8.89,-5.08000000000003,0.3));
#2054=CARTESIAN_POINT('Origin',(8.39,4.83,0.3));
#2055=CARTESIAN_POINT('',(8.39,4.83,0.3));
#2056=CARTESIAN_POINT('',(8.39,5.33,0.3));
#2057=CARTESIAN_POINT('',(8.39,4.83,0.3));
#2058=CARTESIAN_POINT('',(8.39,5.33,-3.6));
#2059=CARTESIAN_POINT('',(8.39,5.33,0.3));
#2060=CARTESIAN_POINT('',(8.39,4.83,-3.6));
#2061=CARTESIAN_POINT('',(8.39,4.83,-3.6));
#2062=CARTESIAN_POINT('',(8.39,4.83,0.3));
#2063=CARTESIAN_POINT('Origin',(9.39,4.83,0.3));
#2064=CARTESIAN_POINT('',(9.39,4.83,0.3));
#2065=CARTESIAN_POINT('',(9.39,4.83,0.3));
#2066=CARTESIAN_POINT('',(9.39,4.83,-3.6));
#2067=CARTESIAN_POINT('',(9.39,4.83,-3.6));
#2068=CARTESIAN_POINT('',(9.39,4.83,0.3));
#2069=CARTESIAN_POINT('Origin',(9.39,5.33,0.3));
#2070=CARTESIAN_POINT('',(9.39,5.33,0.3));
#2071=CARTESIAN_POINT('',(9.39,5.33,0.3));
#2072=CARTESIAN_POINT('',(9.39,5.33,-3.6));
#2073=CARTESIAN_POINT('',(9.39,5.33,-3.6));
#2074=CARTESIAN_POINT('',(9.39,5.33,0.3));
#2075=CARTESIAN_POINT('Origin',(8.39,5.33,0.3));
#2076=CARTESIAN_POINT('',(8.39,5.33,0.3));
#2077=CARTESIAN_POINT('',(8.39,5.33,-3.6));
#2078=CARTESIAN_POINT('Origin',(8.89,5.08,-3.6));
#2079=CARTESIAN_POINT('Origin',(8.89,5.08,0.3));
#2080=CARTESIAN_POINT('Origin',(0.77,4.83,0.3));
#2081=CARTESIAN_POINT('',(0.77,4.83,0.3));
#2082=CARTESIAN_POINT('',(0.77,5.33,0.3));
#2083=CARTESIAN_POINT('',(0.77,4.83,0.3));
#2084=CARTESIAN_POINT('',(0.77,5.33,-3.6));
#2085=CARTESIAN_POINT('',(0.77,5.33,0.3));
#2086=CARTESIAN_POINT('',(0.77,4.83,-3.6));
#2087=CARTESIAN_POINT('',(0.77,4.83,-3.6));
#2088=CARTESIAN_POINT('',(0.77,4.83,0.3));
#2089=CARTESIAN_POINT('Origin',(1.77,4.83,0.3));
#2090=CARTESIAN_POINT('',(1.77,4.83,0.3));
#2091=CARTESIAN_POINT('',(1.77,4.83,0.3));
#2092=CARTESIAN_POINT('',(1.77,4.83,-3.6));
#2093=CARTESIAN_POINT('',(1.77,4.83,-3.6));
#2094=CARTESIAN_POINT('',(1.77,4.83,0.3));
#2095=CARTESIAN_POINT('Origin',(1.77,5.33,0.3));
#2096=CARTESIAN_POINT('',(1.77,5.33,0.3));
#2097=CARTESIAN_POINT('',(1.77,5.33,0.3));
#2098=CARTESIAN_POINT('',(1.77,5.33,-3.6));
#2099=CARTESIAN_POINT('',(1.77,5.33,-3.6));
#2100=CARTESIAN_POINT('',(1.77,5.33,0.3));
#2101=CARTESIAN_POINT('Origin',(0.77,5.33,0.3));
#2102=CARTESIAN_POINT('',(0.77,5.33,0.3));
#2103=CARTESIAN_POINT('',(0.77,5.33,-3.6));
#2104=CARTESIAN_POINT('Origin',(1.27,5.08,-3.6));
#2105=CARTESIAN_POINT('Origin',(1.27,5.08,0.3));
#2106=CARTESIAN_POINT('Origin',(-8.54,5.33,0.3));
#2107=CARTESIAN_POINT('',(-8.54,4.83,0.3));
#2108=CARTESIAN_POINT('',(-8.54,5.33,0.3));
#2109=CARTESIAN_POINT('',(-8.54,4.83,0.3));
#2110=CARTESIAN_POINT('',(-8.54,4.83,-3.6));
#2111=CARTESIAN_POINT('',(-8.54,4.83,0.3));
#2112=CARTESIAN_POINT('',(-8.54,5.33,-3.6));
#2113=CARTESIAN_POINT('',(-8.54,4.83,-3.6));
#2114=CARTESIAN_POINT('',(-8.54,5.33,0.3));
#2115=CARTESIAN_POINT('Origin',(-9.24,5.33,0.3));
#2116=CARTESIAN_POINT('',(-9.24,5.33,0.3));
#2117=CARTESIAN_POINT('',(-8.54,5.33,0.3));
#2118=CARTESIAN_POINT('',(-9.24,5.33,-3.6));
#2119=CARTESIAN_POINT('',(-8.54,5.33,-3.6));
#2120=CARTESIAN_POINT('',(-9.24,5.33,0.3));
#2121=CARTESIAN_POINT('Origin',(-9.24,4.83,0.3));
#2122=CARTESIAN_POINT('',(-9.24,4.83,0.3));
#2123=CARTESIAN_POINT('',(-9.24,5.33,0.3));
#2124=CARTESIAN_POINT('',(-9.24,4.83,-3.6));
#2125=CARTESIAN_POINT('',(-9.24,5.33,-3.6));
#2126=CARTESIAN_POINT('',(-9.24,4.83,0.3));
#2127=CARTESIAN_POINT('Origin',(-8.54,4.83,0.3));
#2128=CARTESIAN_POINT('',(-9.24,4.83,0.3));
#2129=CARTESIAN_POINT('',(-9.24,4.83,-3.6));
#2130=CARTESIAN_POINT('Origin',(-8.89,5.08,0.3));
#2131=CARTESIAN_POINT('Origin',(-8.89,5.08,-3.6));
#2132=CARTESIAN_POINT('Origin',(9.5,-7.,9.5));
#2133=CARTESIAN_POINT('',(9.5,-7.5,9.5));
#2134=CARTESIAN_POINT('',(9.5,-7.,10.));
#2135=CARTESIAN_POINT('Origin',(9.5,-7.,9.5));
#2136=CARTESIAN_POINT('',(10.,-7.,9.5));
#2137=CARTESIAN_POINT('Origin',(9.5,-7.,9.5));
#2138=CARTESIAN_POINT('Origin',(9.5,-7.,9.5));
#2139=CARTESIAN_POINT('Origin',(9.5,-7.,0.3));
#2140=CARTESIAN_POINT('',(9.5,-7.5,0.3));
#2141=CARTESIAN_POINT('',(10.,-7.,0.3));
#2142=CARTESIAN_POINT('Origin',(9.5,-7.,0.3));
#2143=CARTESIAN_POINT('',(10.,-7.,0.3));
#2144=CARTESIAN_POINT('',(9.5,-7.5,0.3));
#2145=CARTESIAN_POINT('Origin',(9.5,7.,9.5));
#2146=CARTESIAN_POINT('',(10.,7.,9.5));
#2147=CARTESIAN_POINT('',(9.5,7.,10.));
#2148=CARTESIAN_POINT('Origin',(9.5,7.,9.5));
#2149=CARTESIAN_POINT('',(9.5,7.5,9.5));
#2150=CARTESIAN_POINT('Origin',(9.5,7.,9.5));
#2151=CARTESIAN_POINT('Origin',(9.5,7.,9.5));
#2152=CARTESIAN_POINT('Origin',(9.5,7.,0.3));
#2153=CARTESIAN_POINT('',(10.,7.,0.3));
#2154=CARTESIAN_POINT('',(9.5,7.5,0.3));
#2155=CARTESIAN_POINT('Origin',(9.5,7.,0.3));
#2156=CARTESIAN_POINT('',(9.5,7.5,0.3));
#2157=CARTESIAN_POINT('',(10.,7.,0.3));
#2158=CARTESIAN_POINT('Origin',(-9.5,-7.,9.5));
#2159=CARTESIAN_POINT('',(-10.,-7.,9.5));
#2160=CARTESIAN_POINT('',(-9.5,-7.,10.));
#2161=CARTESIAN_POINT('Origin',(-9.5,-7.,9.5));
#2162=CARTESIAN_POINT('',(-9.5,-7.5,9.5));
#2163=CARTESIAN_POINT('Origin',(-9.5,-7.,9.5));
#2164=CARTESIAN_POINT('Origin',(-9.5,-7.,9.5));
#2165=CARTESIAN_POINT('Origin',(-9.5,-7.,0.3));
#2166=CARTESIAN_POINT('',(-10.,-7.,0.3));
#2167=CARTESIAN_POINT('',(-9.5,-7.5,0.3));
#2168=CARTESIAN_POINT('Origin',(-9.5,-7.,0.3));
#2169=CARTESIAN_POINT('',(-9.5,-7.5,0.3));
#2170=CARTESIAN_POINT('',(-10.,-7.,0.3));
#2171=CARTESIAN_POINT('Origin',(-5.,-7.,9.5));
#2172=CARTESIAN_POINT('',(-5.,-7.,10.));
#2173=CARTESIAN_POINT('',(-5.,-7.5,9.5));
#2174=CARTESIAN_POINT('Origin',(-9.5,7.,9.5));
#2175=CARTESIAN_POINT('',(-9.5,7.5,9.5));
#2176=CARTESIAN_POINT('',(-9.5,7.,10.));
#2177=CARTESIAN_POINT('Origin',(-9.5,7.,9.5));
#2178=CARTESIAN_POINT('',(-10.,7.,9.5));
#2179=CARTESIAN_POINT('Origin',(-9.5,7.,9.5));
#2180=CARTESIAN_POINT('Origin',(-9.5,7.,9.5));
#2181=CARTESIAN_POINT('Origin',(-9.5,7.,0.3));
#2182=CARTESIAN_POINT('',(-9.5,7.5,0.3));
#2183=CARTESIAN_POINT('',(-10.,7.,0.3));
#2184=CARTESIAN_POINT('Origin',(-9.5,7.,0.3));
#2185=CARTESIAN_POINT('',(-10.,7.,0.3));
#2186=CARTESIAN_POINT('',(-9.5,7.5,0.3));
#2187=CARTESIAN_POINT('Origin',(-9.5,3.75,9.5));
#2188=CARTESIAN_POINT('',(-9.5,-0.75,10.));
#2189=CARTESIAN_POINT('',(-9.5,3.75,10.));
#2190=CARTESIAN_POINT('',(-9.5,0.75,10.));
#2191=CARTESIAN_POINT('',(-9.5,-0.375000000000001,10.));
#2192=CARTESIAN_POINT('',(-9.5,3.75,10.));
#2193=CARTESIAN_POINT('',(-10.,3.75,9.5));
#2194=CARTESIAN_POINT('Origin',(5.,7.,9.5));
#2195=CARTESIAN_POINT('',(5.,7.,10.));
#2196=CARTESIAN_POINT('',(5.,7.5,9.5));
#2197=CARTESIAN_POINT('Origin',(9.5,-3.75,9.5));
#2198=CARTESIAN_POINT('',(9.5,-3.75,10.));
#2199=CARTESIAN_POINT('',(10.,-3.75,9.5));
#2200=CARTESIAN_POINT('Origin',(-10.,-7.5,0.3));
#2201=CARTESIAN_POINT('',(10.,-7.5,0.3));
#2202=CARTESIAN_POINT('Origin',(-10.,7.5,0.3));
#2203=CARTESIAN_POINT('',(-10.,-7.5,0.3));
#2204=CARTESIAN_POINT('Origin',(-8.5,-0.75,10.));
#2205=CARTESIAN_POINT('',(-8.5,-0.75,10.));
#2206=CARTESIAN_POINT('',(-4.25,-0.75,10.));
#2207=CARTESIAN_POINT('',(-8.5,-0.75,9.95));
#2208=CARTESIAN_POINT('',(-8.5,-0.75,10.));
#2209=CARTESIAN_POINT('',(-9.5,-0.75,9.95));
#2210=CARTESIAN_POINT('',(-9.5,-0.75,9.95));
#2211=CARTESIAN_POINT('',(-9.5,-0.75,10.));
#2212=CARTESIAN_POINT('Origin',(-8.5,0.75,10.));
#2213=CARTESIAN_POINT('',(-8.5,0.75,10.));
#2214=CARTESIAN_POINT('',(-8.5,0.374999999999999,10.));
#2215=CARTESIAN_POINT('',(-8.5,0.75,9.95));
#2216=CARTESIAN_POINT('',(-8.5,0.75,10.));
#2217=CARTESIAN_POINT('',(-8.5,-0.75,9.95));
#2218=CARTESIAN_POINT('Origin',(-9.5,0.75,10.));
#2219=CARTESIAN_POINT('',(-4.75,0.750000000000001,10.));
#2220=CARTESIAN_POINT('',(-9.5,0.75,9.95));
#2221=CARTESIAN_POINT('',(-9.5,0.75,10.));
#2222=CARTESIAN_POINT('',(-8.5,0.75,9.95));
#2223=CARTESIAN_POINT('Origin',(-9.5,-0.75,10.));
#2224=CARTESIAN_POINT('',(-9.5,0.75,9.95));
#2225=CARTESIAN_POINT('Origin',(-9.,0.,9.95));
#2226=CARTESIAN_POINT('Origin',(10.,-7.5,0.3));
#2227=CARTESIAN_POINT('',(10.,7.5,0.3));
#2228=CARTESIAN_POINT('Origin',(10.,7.5,0.3));
#2229=CARTESIAN_POINT('',(-10.,7.5,0.3));
#2230=CARTESIAN_POINT('Origin',(-2.1316282072803E-15,-1.59872115546023E-15,
0.3));
#2231=CARTESIAN_POINT('Origin',(-1.77635683940025E-15,-1.77635683940025E-15,
10.));
#2232=CARTESIAN_POINT('Origin',(5.58,-7.2,0.));
#2233=CARTESIAN_POINT('',(5.58,-7.2,0.3));
#2234=CARTESIAN_POINT('',(5.58,-7.5,0.3));
#2235=CARTESIAN_POINT('',(5.58,-7.2,0.3));
#2236=CARTESIAN_POINT('',(5.58,-7.5,0.));
#2237=CARTESIAN_POINT('',(5.58,-7.5,0.));
#2238=CARTESIAN_POINT('',(5.58,-7.2,0.));
#2239=CARTESIAN_POINT('',(5.58,-7.2,0.));
#2240=CARTESIAN_POINT('',(5.58,-7.2,0.));
#2241=CARTESIAN_POINT('Origin',(5.08,-7.5,0.));
#2242=CARTESIAN_POINT('',(4.58,-7.5,0.3));
#2243=CARTESIAN_POINT('',(5.08,-7.5,0.3));
#2244=CARTESIAN_POINT('',(4.58,-7.5,0.));
#2245=CARTESIAN_POINT('',(4.58,-7.5,0.));
#2246=CARTESIAN_POINT('',(5.08,-7.5,0.));
#2247=CARTESIAN_POINT('Origin',(4.58,-7.5,0.));
#2248=CARTESIAN_POINT('',(4.58,-7.2,0.3));
#2249=CARTESIAN_POINT('',(4.58,-7.5,0.3));
#2250=CARTESIAN_POINT('',(4.58,-7.2,0.));
#2251=CARTESIAN_POINT('',(4.58,-7.2,0.));
#2252=CARTESIAN_POINT('',(4.58,-7.5,0.));
#2253=CARTESIAN_POINT('Origin',(5.08,-7.2,0.));
#2254=CARTESIAN_POINT('',(5.08,-7.2,0.3));
#2255=CARTESIAN_POINT('',(5.08,-7.2,0.));
#2256=CARTESIAN_POINT('Origin',(5.33,-7.35,0.3));
#2257=CARTESIAN_POINT('Origin',(5.33,-7.35,0.));
#2258=CARTESIAN_POINT('Origin',(5.58,7.5,0.));
#2259=CARTESIAN_POINT('',(5.58,7.5,0.3));
#2260=CARTESIAN_POINT('',(5.58,7.2,0.3));
#2261=CARTESIAN_POINT('',(5.58,7.5,0.3));
#2262=CARTESIAN_POINT('',(5.58,7.2,0.));
#2263=CARTESIAN_POINT('',(5.58,7.2,0.));
#2264=CARTESIAN_POINT('',(5.58,7.5,0.));
#2265=CARTESIAN_POINT('',(5.58,7.5,0.));
#2266=CARTESIAN_POINT('',(5.58,7.5,0.));
#2267=CARTESIAN_POINT('Origin',(5.58,7.2,0.));
#2268=CARTESIAN_POINT('',(4.58,7.2,0.3));
#2269=CARTESIAN_POINT('',(5.58,7.2,0.3));
#2270=CARTESIAN_POINT('',(4.58,7.2,0.));
#2271=CARTESIAN_POINT('',(4.58,7.2,0.));
#2272=CARTESIAN_POINT('',(5.08,7.2,0.));
#2273=CARTESIAN_POINT('Origin',(4.58,7.2,0.));
#2274=CARTESIAN_POINT('',(4.58,7.5,0.3));
#2275=CARTESIAN_POINT('',(4.58,7.2,0.3));
#2276=CARTESIAN_POINT('',(4.58,7.5,0.));
#2277=CARTESIAN_POINT('',(4.58,7.5,0.));
#2278=CARTESIAN_POINT('',(4.58,7.2,0.));
#2279=CARTESIAN_POINT('Origin',(5.08,7.5,0.));
#2280=CARTESIAN_POINT('',(5.08,7.5,0.3));
#2281=CARTESIAN_POINT('',(4.58,7.5,0.));
#2282=CARTESIAN_POINT('Origin',(5.33,7.35,0.3));
#2283=CARTESIAN_POINT('Origin',(4.83,7.35,0.));
#2284=UNCERTAINTY_MEASURE_WITH_UNIT(LENGTH_MEASURE(0.01),#2288,
'DISTANCE_ACCURACY_VALUE',
'Maximum model space distance between geometric entities at asserted c
onnectivities');
#2285=UNCERTAINTY_MEASURE_WITH_UNIT(LENGTH_MEASURE(1.E-6),#2288,
'DISTANCE_ACCURACY_VALUE',
'Maximum model space distance between geometric entities at asserted c
onnectivities');
#2286=(
GEOMETRIC_REPRESENTATION_CONTEXT(3)
GLOBAL_UNCERTAINTY_ASSIGNED_CONTEXT((#2284))
GLOBAL_UNIT_ASSIGNED_CONTEXT((#2288,#2290,#2289))
REPRESENTATION_CONTEXT('','3D')
);
#2287=(
GEOMETRIC_REPRESENTATION_CONTEXT(3)
GLOBAL_UNCERTAINTY_ASSIGNED_CONTEXT((#2285))
GLOBAL_UNIT_ASSIGNED_CONTEXT((#2288,#12,#2289))
REPRESENTATION_CONTEXT('','3D')
);
#2288=(
LENGTH_UNIT()
NAMED_UNIT(*)
SI_UNIT(.MILLI.,.METRE.)
);
#2289=(
NAMED_UNIT(*)
SI_UNIT($,.STERADIAN.)
SOLID_ANGLE_UNIT()
);
#2290=(
NAMED_UNIT(*)
PLANE_ANGLE_UNIT()
SI_UNIT($,.RADIAN.)
);
#2291=SHAPE_DEFINITION_REPRESENTATION(#2292,#2293);
#2292=PRODUCT_DEFINITION_SHAPE('',$,#2295);
#2293=SHAPE_REPRESENTATION('',(#1414),#2286);
#2294=PRODUCT_DEFINITION_CONTEXT('part definition',#2299,'design');
#2295=PRODUCT_DEFINITION('Product','Product',#2296,#2294);
#2296=PRODUCT_DEFINITION_FORMATION('',$,#2301);
#2297=PRODUCT_RELATED_PRODUCT_CATEGORY('Product','Product',(#2301));
#2298=APPLICATION_PROTOCOL_DEFINITION('international standard',
'automotive_design',2009,#2299);
#2299=APPLICATION_CONTEXT(
'Core Data for Automotive Mechanical Design Process');
#2300=PRODUCT_CONTEXT('part definition',#2299,'mechanical');
#2301=PRODUCT('Product','Product',$,(#2300));
#2302=PRESENTATION_STYLE_ASSIGNMENT((#2305));
#2303=PRESENTATION_STYLE_ASSIGNMENT((#2306));
#2304=PRESENTATION_STYLE_ASSIGNMENT((#2307));
#2305=SURFACE_STYLE_USAGE(.BOTH.,#2308);
#2306=SURFACE_STYLE_USAGE(.BOTH.,#2309);
#2307=SURFACE_STYLE_USAGE(.BOTH.,#2310);
#2308=SURFACE_SIDE_STYLE('',(#2311));
#2309=SURFACE_SIDE_STYLE('',(#2312));
#2310=SURFACE_SIDE_STYLE('',(#2313));
#2311=SURFACE_STYLE_FILL_AREA(#2314);
#2312=SURFACE_STYLE_FILL_AREA(#2315);
#2313=SURFACE_STYLE_FILL_AREA(#2316);
#2314=FILL_AREA_STYLE('',(#2317));
#2315=FILL_AREA_STYLE('',(#2318));
#2316=FILL_AREA_STYLE('',(#2319));
#2317=FILL_AREA_STYLE_COLOUR('',#2320);
#2318=FILL_AREA_STYLE_COLOUR('',#2321);
#2319=FILL_AREA_STYLE_COLOUR('',#2322);
#2320=COLOUR_RGB('',1.,1.,1.);
#2321=COLOUR_RGB('',0.329411764705882,0.329411764705882,0.329411764705882);
#2322=COLOUR_RGB('',0.866666666666667,0.866666666666667,0.866666666666667);
ENDSEC;
END-ISO-10303-21;
