ISO-10303-21;
HEADER;
/****************************************************************
 * Generated by software with PDE/Lib inside                    *
 * PDElib Version v51a, created Mon 11/23/2009                  *
 * ITI Transcendata (http://www.transcendata.com/)              *
 ****************************************************************/
FILE_DESCRIPTION((''),'2;1');
FILE_NAME('RES1016-650X250.stp','2011-09-28T16:56:23',(''),(''),'Mechanical Desktop 2011','Mechanical Desktop 2011',', , ');
FILE_SCHEMA(('AUTOMOTIVE_DESIGN { 1 2 10303 214 1 1 1 1 }'));
ENDSEC;
DATA;
#10=(NAMED_UNIT(*)PLANE_ANGLE_UNIT()SI_UNIT($,.RADIAN.));
#11=DIMENSIONAL_EXPONENTS(0.0,0.0,0.0,0.0,0.0,0.0,0.0);
#12=PLANE_ANGLE_MEASURE_WITH_UNIT(PLANE_ANGLE_MEASURE(0.017453292500000),#10);
#16=(CONVERSION_BASED_UNIT('DEGREE',#12)NAMED_UNIT(#11)PLANE_ANGLE_UNIT());
#20=(NAMED_UNIT(*)SI_UNIT($,.STERADIAN.)SOLID_ANGLE_UNIT());
#24=(LENGTH_UNIT()NAMED_UNIT(*)SI_UNIT(.MILLI.,.METRE.));
#26=UNCERTAINTY_MEASURE_WITH_UNIT(LENGTH_MEASURE(0.000001000000000),#24,'DISTANCE_ACCURACY_VALUE','');
#28=(GEOMETRIC_REPRESENTATION_CONTEXT(3)GLOBAL_UNCERTAINTY_ASSIGNED_CONTEXT((#26))GLOBAL_UNIT_ASSIGNED_CONTEXT((#16,#20,#24))REPRESENTATION_CONTEXT('','3D'));
#29=APPLICATION_CONTEXT('automotive design');
#30=APPLICATION_PROTOCOL_DEFINITION('INTERNATIONAL_STANDARD','automotive_design',1998,#29);
#31=PRODUCT_CONTEXT('3D Mechanical Parts',#29,'mechanical');
#32=PRODUCT('Product','Product','',(#31));
#33=PRODUCT_RELATED_PRODUCT_CATEGORY('part',$,(#32));
#34=PRODUCT_CATEGORY('part',$);
#35=PERSON('1','Design','Joe',$,$,$);
#36=ORGANIZATION($,'None','None');
#37=PERSON_AND_ORGANIZATION(#35,#36);
#38=PERSON_AND_ORGANIZATION_ROLE('design_owner');
#39=APPLIED_PERSON_AND_ORGANIZATION_ASSIGNMENT(#37,#38,(#32));
#40=PRODUCT_DEFINITION_FORMATION_WITH_SPECIFIED_SOURCE('None','',#32,.BOUGHT.);
#41=PERSON('2','Creator','Joe',$,$,$);
#42=ORGANIZATION($,'None','None');
#43=PERSON_AND_ORGANIZATION(#41,#42);
#44=PERSON_AND_ORGANIZATION_ROLE('creator');
#45=APPLIED_PERSON_AND_ORGANIZATION_ASSIGNMENT(#43,#44,(#40));
#46=PERSON('3','Supplier','Joe',$,$,$);
#47=ORGANIZATION($,'None','None');
#48=PERSON_AND_ORGANIZATION(#46,#47);
#49=PERSON_AND_ORGANIZATION_ROLE('design_supplier');
#50=APPLIED_PERSON_AND_ORGANIZATION_ASSIGNMENT(#48,#49,(#40));
#51=PRODUCT_DEFINITION_CONTEXT('part definition',#29,'design');
#52=PRODUCT_DEFINITION('None','',#40,#51);
#53=PERSON('4','Creator','Joe',$,$,$);
#54=ORGANIZATION($,'None','None');
#55=PERSON_AND_ORGANIZATION(#53,#54);
#56=PERSON_AND_ORGANIZATION_ROLE('creator');
#57=APPLIED_PERSON_AND_ORGANIZATION_ASSIGNMENT(#55,#56,(#52));
#58=CARTESIAN_POINT('NONE',(0.0,0.0,0.0));
#59=DIRECTION('NONE',(0.0,0.0,1.0));
#60=DIRECTION('NONE',(1.0,0.0,0.0));
#61=AXIS2_PLACEMENT_3D('NONE',#58,#59,#60);
#62=SHAPE_REPRESENTATION('SR1',(#61),#28);
#63=PRODUCT_DEFINITION_SHAPE('PDS1','Test Part',#52);
#64=SHAPE_DEFINITION_REPRESENTATION(#63,#62);
#65=CARTESIAN_POINT('',(-3.150000000000000,1.060647E-015,1.250000000000002));
#66=DIRECTION('',(1.0,1.608143E-016,-2.220446E-016));
#67=DIRECTION('',(0.0,1.0,0.0));
#68=AXIS2_PLACEMENT_3D('',#65,#66,#67);
#69=CYLINDRICAL_SURFACE('',#68,1.250000000000000);
#70=CARTESIAN_POINT('',(-0.050000000000001,1.250000000000002,1.250000000000001));
#71=VERTEX_POINT('',#70);
#72=CARTESIAN_POINT('',(-0.950000000000001,1.250000000000002,1.250000000000001));
#73=VERTEX_POINT('',#72);
#74=CARTESIAN_POINT('',(-0.050000000000001,1.250000000000002,1.250000000000001));
#75=DIRECTION('',(-1.0,0.0,0.0));
#76=VECTOR('',#75,0.899999999999999);
#77=LINE('',#74,#76);
#78=EDGE_CURVE('',#71,#73,#77,.T.);
#79=ORIENTED_EDGE('',*,*,#78,.F.);
#80=CARTESIAN_POINT('',(-0.050000000000001,-1.249999999999999,1.250000000000002));
#81=VERTEX_POINT('',#80);
#82=CARTESIAN_POINT('',(-0.050000000000001,1.060647E-015,1.250000000000001));
#83=DIRECTION('',(-1.0,0.0,0.0));
#84=DIRECTION('',(0.0,1.0,0.0));
#85=AXIS2_PLACEMENT_3D('',#82,#83,#84);
#86=CIRCLE('',#85,1.250000000000000);
#87=EDGE_CURVE('',#71,#81,#86,.T.);
#88=ORIENTED_EDGE('',*,*,#87,.T.);
#89=CARTESIAN_POINT('',(-0.950000000000001,-1.249999999999999,1.250000000000002));
#90=VERTEX_POINT('',#89);
#91=CARTESIAN_POINT('',(-0.050000000000001,-1.249999999999998,1.250000000000002));
#92=DIRECTION('',(-1.0,0.0,0.0));
#93=VECTOR('',#92,0.899999999999999);
#94=LINE('',#91,#93);
#95=EDGE_CURVE('',#81,#90,#94,.T.);
#96=ORIENTED_EDGE('',*,*,#95,.T.);
#97=CARTESIAN_POINT('',(-0.950000000000001,1.060647E-015,1.250000000000002));
#98=DIRECTION('',(1.0,0.0,0.0));
#99=DIRECTION('',(0.0,1.0,0.0));
#100=AXIS2_PLACEMENT_3D('',#97,#98,#99);
#101=CIRCLE('',#100,1.250000000000000);
#102=EDGE_CURVE('',#90,#73,#101,.T.);
#103=ORIENTED_EDGE('',*,*,#102,.T.);
#104=EDGE_LOOP('',(#79,#88,#96,#103));
#105=FACE_OUTER_BOUND('',#104,.T.);
#106=ADVANCED_FACE('',(#105),#69,.T.);
#107=CARTESIAN_POINT('',(-0.950000000000001,1.060647E-015,1.249999999999999));
#108=DIRECTION('',(1.0,0.0,0.0));
#109=DIRECTION('',(0.0,0.0,-1.0));
#110=AXIS2_PLACEMENT_3D('',#107,#108,#109);
#111=PLANE('',#110);
#112=ORIENTED_EDGE('',*,*,#102,.F.);
#113=CARTESIAN_POINT('',(-0.950000000000001,1.060647E-015,1.250000000000002));
#114=DIRECTION('',(1.0,0.0,0.0));
#115=DIRECTION('',(0.0,1.0,0.0));
#116=AXIS2_PLACEMENT_3D('',#113,#114,#115);
#117=CIRCLE('',#116,1.250000000000000);
#118=EDGE_CURVE('',#73,#90,#117,.T.);
#119=ORIENTED_EDGE('',*,*,#118,.F.);
#120=EDGE_LOOP('',(#112,#119));
#121=FACE_OUTER_BOUND('',#120,.T.);
#122=ADVANCED_FACE('',(#121),#111,.F.);
#123=CARTESIAN_POINT('',(-0.050000000000001,1.060647E-015,1.249999999999999));
#124=DIRECTION('',(1.0,0.0,0.0));
#125=DIRECTION('',(0.0,0.0,-1.0));
#126=AXIS2_PLACEMENT_3D('',#123,#124,#125);
#127=PLANE('',#126);
#128=CARTESIAN_POINT('',(-0.050000000000001,1.060647E-015,1.250000000000001));
#129=DIRECTION('',(-1.0,0.0,0.0));
#130=DIRECTION('',(0.0,1.0,0.0));
#131=AXIS2_PLACEMENT_3D('',#128,#129,#130);
#132=CIRCLE('',#131,1.250000000000000);
#133=EDGE_CURVE('',#81,#71,#132,.T.);
#134=ORIENTED_EDGE('',*,*,#133,.F.);
#135=ORIENTED_EDGE('',*,*,#87,.F.);
#136=EDGE_LOOP('',(#134,#135));
#137=FACE_OUTER_BOUND('',#136,.T.);
#138=ADVANCED_FACE('',(#137),#127,.T.);
#139=CARTESIAN_POINT('',(-3.150000000000000,1.060647E-015,1.250000000000002));
#140=DIRECTION('',(1.0,1.608143E-016,-2.220446E-016));
#141=DIRECTION('',(0.0,1.0,0.0));
#142=AXIS2_PLACEMENT_3D('',#139,#140,#141);
#143=CYLINDRICAL_SURFACE('',#142,1.250000000000000);
#144=ORIENTED_EDGE('',*,*,#78,.T.);
#145=ORIENTED_EDGE('',*,*,#118,.T.);
#146=ORIENTED_EDGE('',*,*,#95,.F.);
#147=ORIENTED_EDGE('',*,*,#133,.T.);
#148=EDGE_LOOP('',(#144,#145,#146,#147));
#149=FACE_OUTER_BOUND('',#148,.T.);
#150=ADVANCED_FACE('',(#149),#143,.T.);
#151=CLOSED_SHELL('',(#106,#122,#138,#150));
#152=MANIFOLD_SOLID_BREP('E4',#151);
#153=COLOUR_RGB('252',0.598000000000000,0.598000000000000,0.598000000000000);
#154=SURFACE_STYLE_USAGE(.BOTH.,#155);
#155=SURFACE_SIDE_STYLE('NONE',(#156));
#156=SURFACE_STYLE_FILL_AREA(#157);
#157=FILL_AREA_STYLE('NONE',(#158));
#158=FILL_AREA_STYLE_COLOUR('NONE',#153);
#159=PRESENTATION_STYLE_ASSIGNMENT((#154));
#160=STYLED_ITEM('NONE',(#159),#152);
#161=MECHANICAL_DESIGN_GEOMETRIC_PRESENTATION_REPRESENTATION('NONE',(#160,#251,#340,#481,#570,#711,#807,#903,#999,#1095,#1184,#1602,#1833),#28);
#162=PRESENTATION_LAYER_ASSIGNMENT('0','None',(#152,#250,#339,#480,#569,#710,#799,#895,#991,#1087,#1183,#1594,#1832));
#163=CARTESIAN_POINT('',(-3.150000000000000,1.060647E-015,1.250000000000002));
#164=DIRECTION('',(1.0,1.608143E-016,-2.220446E-016));
#165=DIRECTION('',(0.0,1.0,0.0));
#166=AXIS2_PLACEMENT_3D('',#163,#164,#165);
#167=CYLINDRICAL_SURFACE('',#166,1.250000000000000);
#168=CARTESIAN_POINT('',(0.949999999999999,1.250000000000002,1.250000000000001));
#169=VERTEX_POINT('',#168);
#170=CARTESIAN_POINT('',(0.349999999999999,1.250000000000002,1.250000000000001));
#171=VERTEX_POINT('',#170);
#172=CARTESIAN_POINT('',(0.949999999999999,1.250000000000002,1.250000000000001));
#173=DIRECTION('',(-1.0,0.0,0.0));
#174=VECTOR('',#173,0.600000000000000);
#175=LINE('',#172,#174);
#176=EDGE_CURVE('',#169,#171,#175,.T.);
#177=ORIENTED_EDGE('',*,*,#176,.F.);
#178=CARTESIAN_POINT('',(0.949999999999999,-1.249999999999999,1.250000000000002));
#179=VERTEX_POINT('',#178);
#180=CARTESIAN_POINT('',(0.949999999999999,1.060647E-015,1.250000000000001));
#181=DIRECTION('',(-1.0,0.0,0.0));
#182=DIRECTION('',(0.0,1.0,0.0));
#183=AXIS2_PLACEMENT_3D('',#180,#181,#182);
#184=CIRCLE('',#183,1.250000000000000);
#185=EDGE_CURVE('',#169,#179,#184,.T.);
#186=ORIENTED_EDGE('',*,*,#185,.T.);
#187=CARTESIAN_POINT('',(0.349999999999999,-1.249999999999999,1.250000000000002));
#188=VERTEX_POINT('',#187);
#189=CARTESIAN_POINT('',(0.949999999999999,-1.249999999999998,1.250000000000001));
#190=DIRECTION('',(-1.0,0.0,0.0));
#191=VECTOR('',#190,0.600000000000000);
#192=LINE('',#189,#191);
#193=EDGE_CURVE('',#179,#188,#192,.T.);
#194=ORIENTED_EDGE('',*,*,#193,.T.);
#195=CARTESIAN_POINT('',(0.349999999999999,1.060647E-015,1.250000000000001));
#196=DIRECTION('',(1.0,0.0,0.0));
#197=DIRECTION('',(0.0,1.0,0.0));
#198=AXIS2_PLACEMENT_3D('',#195,#196,#197);
#199=CIRCLE('',#198,1.250000000000000);
#200=EDGE_CURVE('',#188,#171,#199,.T.);
#201=ORIENTED_EDGE('',*,*,#200,.T.);
#202=EDGE_LOOP('',(#177,#186,#194,#201));
#203=FACE_OUTER_BOUND('',#202,.T.);
#204=ADVANCED_FACE('',(#203),#167,.T.);
#205=CARTESIAN_POINT('',(-3.150000000000000,1.060647E-015,1.250000000000002));
#206=DIRECTION('',(1.0,1.608143E-016,-2.220446E-016));
#207=DIRECTION('',(0.0,1.0,0.0));
#208=AXIS2_PLACEMENT_3D('',#205,#206,#207);
#209=CYLINDRICAL_SURFACE('',#208,1.250000000000000);
#210=ORIENTED_EDGE('',*,*,#176,.T.);
#211=CARTESIAN_POINT('',(0.349999999999999,1.060647E-015,1.250000000000001));
#212=DIRECTION('',(1.0,0.0,0.0));
#213=DIRECTION('',(0.0,1.0,0.0));
#214=AXIS2_PLACEMENT_3D('',#211,#212,#213);
#215=CIRCLE('',#214,1.250000000000000);
#216=EDGE_CURVE('',#171,#188,#215,.T.);
#217=ORIENTED_EDGE('',*,*,#216,.T.);
#218=ORIENTED_EDGE('',*,*,#193,.F.);
#219=CARTESIAN_POINT('',(0.949999999999999,1.060647E-015,1.250000000000001));
#220=DIRECTION('',(-1.0,0.0,0.0));
#221=DIRECTION('',(0.0,1.0,0.0));
#222=AXIS2_PLACEMENT_3D('',#219,#220,#221);
#223=CIRCLE('',#222,1.250000000000000);
#224=EDGE_CURVE('',#179,#169,#223,.T.);
#225=ORIENTED_EDGE('',*,*,#224,.T.);
#226=EDGE_LOOP('',(#210,#217,#218,#225));
#227=FACE_OUTER_BOUND('',#226,.T.);
#228=ADVANCED_FACE('',(#227),#209,.T.);
#229=CARTESIAN_POINT('',(0.349999999999999,1.060647E-015,1.249999999999999));
#230=DIRECTION('',(1.0,0.0,0.0));
#231=DIRECTION('',(0.0,0.0,-1.0));
#232=AXIS2_PLACEMENT_3D('',#229,#230,#231);
#233=PLANE('',#232);
#234=ORIENTED_EDGE('',*,*,#200,.F.);
#235=ORIENTED_EDGE('',*,*,#216,.F.);
#236=EDGE_LOOP('',(#234,#235));
#237=FACE_OUTER_BOUND('',#236,.T.);
#238=ADVANCED_FACE('',(#237),#233,.F.);
#239=CARTESIAN_POINT('',(0.949999999999999,1.060647E-015,1.250000000000000));
#240=DIRECTION('',(1.0,0.0,0.0));
#241=DIRECTION('',(0.0,0.0,-1.0));
#242=AXIS2_PLACEMENT_3D('',#239,#240,#241);
#243=PLANE('',#242);
#244=ORIENTED_EDGE('',*,*,#224,.F.);
#245=ORIENTED_EDGE('',*,*,#185,.F.);
#246=EDGE_LOOP('',(#244,#245));
#247=FACE_OUTER_BOUND('',#246,.T.);
#248=ADVANCED_FACE('',(#247),#243,.T.);
#249=CLOSED_SHELL('',(#204,#228,#238,#248));
#250=MANIFOLD_SOLID_BREP('E4',#249);
#251=STYLED_ITEM('NONE',(#159),#250);
#252=CARTESIAN_POINT('',(-3.150000000000000,1.060647E-015,1.250000000000002));
#253=DIRECTION('',(1.0,1.608143E-016,-2.220446E-016));
#254=DIRECTION('',(0.0,1.0,0.0));
#255=AXIS2_PLACEMENT_3D('',#252,#253,#254);
#256=CYLINDRICAL_SURFACE('',#255,1.250000000000000);
#257=CARTESIAN_POINT('',(1.949999999999999,1.250000000000002,1.250000000000000));
#258=VERTEX_POINT('',#257);
#259=CARTESIAN_POINT('',(1.349999999999999,1.250000000000002,1.250000000000001));
#260=VERTEX_POINT('',#259);
#261=CARTESIAN_POINT('',(1.949999999999999,1.250000000000002,1.250000000000000));
#262=DIRECTION('',(-1.0,0.0,0.0));
#263=VECTOR('',#262,0.600000000000000);
#264=LINE('',#261,#263);
#265=EDGE_CURVE('',#258,#260,#264,.T.);
#266=ORIENTED_EDGE('',*,*,#265,.F.);
#267=CARTESIAN_POINT('',(1.949999999999999,-1.249999999999999,1.250000000000001));
#268=VERTEX_POINT('',#267);
#269=CARTESIAN_POINT('',(1.949999999999999,1.060647E-015,1.250000000000001));
#270=DIRECTION('',(-1.0,0.0,0.0));
#271=DIRECTION('',(0.0,1.0,0.0));
#272=AXIS2_PLACEMENT_3D('',#269,#270,#271);
#273=CIRCLE('',#272,1.250000000000000);
#274=EDGE_CURVE('',#258,#268,#273,.T.);
#275=ORIENTED_EDGE('',*,*,#274,.T.);
#276=CARTESIAN_POINT('',(1.349999999999999,-1.249999999999999,1.250000000000001));
#277=VERTEX_POINT('',#276);
#278=CARTESIAN_POINT('',(1.949999999999999,-1.249999999999998,1.250000000000001));
#279=DIRECTION('',(-1.0,0.0,0.0));
#280=VECTOR('',#279,0.600000000000000);
#281=LINE('',#278,#280);
#282=EDGE_CURVE('',#268,#277,#281,.T.);
#283=ORIENTED_EDGE('',*,*,#282,.T.);
#284=CARTESIAN_POINT('',(1.349999999999999,1.060647E-015,1.250000000000001));
#285=DIRECTION('',(1.0,0.0,0.0));
#286=DIRECTION('',(0.0,1.0,0.0));
#287=AXIS2_PLACEMENT_3D('',#284,#285,#286);
#288=CIRCLE('',#287,1.250000000000000);
#289=EDGE_CURVE('',#277,#260,#288,.T.);
#290=ORIENTED_EDGE('',*,*,#289,.T.);
#291=EDGE_LOOP('',(#266,#275,#283,#290));
#292=FACE_OUTER_BOUND('',#291,.T.);
#293=ADVANCED_FACE('',(#292),#256,.T.);
#294=CARTESIAN_POINT('',(1.349999999999999,1.060647E-015,1.250000000000000));
#295=DIRECTION('',(1.0,0.0,0.0));
#296=DIRECTION('',(0.0,0.0,-1.0));
#297=AXIS2_PLACEMENT_3D('',#294,#295,#296);
#298=PLANE('',#297);
#299=ORIENTED_EDGE('',*,*,#289,.F.);
#300=CARTESIAN_POINT('',(1.349999999999999,1.060647E-015,1.250000000000001));
#301=DIRECTION('',(1.0,0.0,0.0));
#302=DIRECTION('',(0.0,1.0,0.0));
#303=AXIS2_PLACEMENT_3D('',#300,#301,#302);
#304=CIRCLE('',#303,1.250000000000000);
#305=EDGE_CURVE('',#260,#277,#304,.T.);
#306=ORIENTED_EDGE('',*,*,#305,.F.);
#307=EDGE_LOOP('',(#299,#306));
#308=FACE_OUTER_BOUND('',#307,.T.);
#309=ADVANCED_FACE('',(#308),#298,.F.);
#310=CARTESIAN_POINT('',(1.949999999999999,1.060647E-015,1.250000000000000));
#311=DIRECTION('',(1.0,0.0,0.0));
#312=DIRECTION('',(0.0,0.0,-1.0));
#313=AXIS2_PLACEMENT_3D('',#310,#311,#312);
#314=PLANE('',#313);
#315=CARTESIAN_POINT('',(1.949999999999999,1.060647E-015,1.250000000000001));
#316=DIRECTION('',(-1.0,0.0,0.0));
#317=DIRECTION('',(0.0,1.0,0.0));
#318=AXIS2_PLACEMENT_3D('',#315,#316,#317);
#319=CIRCLE('',#318,1.250000000000000);
#320=EDGE_CURVE('',#268,#258,#319,.T.);
#321=ORIENTED_EDGE('',*,*,#320,.F.);
#322=ORIENTED_EDGE('',*,*,#274,.F.);
#323=EDGE_LOOP('',(#321,#322));
#324=FACE_OUTER_BOUND('',#323,.T.);
#325=ADVANCED_FACE('',(#324),#314,.T.);
#326=CARTESIAN_POINT('',(-3.150000000000000,1.060647E-015,1.250000000000002));
#327=DIRECTION('',(1.0,1.608143E-016,-2.220446E-016));
#328=DIRECTION('',(0.0,1.0,0.0));
#329=AXIS2_PLACEMENT_3D('',#326,#327,#328);
#330=CYLINDRICAL_SURFACE('',#329,1.250000000000000);
#331=ORIENTED_EDGE('',*,*,#265,.T.);
#332=ORIENTED_EDGE('',*,*,#305,.T.);
#333=ORIENTED_EDGE('',*,*,#282,.F.);
#334=ORIENTED_EDGE('',*,*,#320,.T.);
#335=EDGE_LOOP('',(#331,#332,#333,#334));
#336=FACE_OUTER_BOUND('',#335,.T.);
#337=ADVANCED_FACE('',(#336),#330,.T.);
#338=CLOSED_SHELL('',(#293,#309,#325,#337));
#339=MANIFOLD_SOLID_BREP('E4',#338);
#340=STYLED_ITEM('NONE',(#159),#339);
#341=CARTESIAN_POINT('',(-3.050000000000000,1.060647E-015,1.250000000000002));
#342=DIRECTION('',(1.0,1.608143E-016,-2.220446E-016));
#343=DIRECTION('',(0.0,1.0,0.0));
#344=AXIS2_PLACEMENT_3D('',#341,#342,#343);
#345=TOROIDAL_SURFACE('',#344,1.050000000000000,0.200000000000000);
#346=CARTESIAN_POINT('',(-3.050000000000000,1.250000000000001,1.250000000000001));
#347=VERTEX_POINT('',#346);
#348=CARTESIAN_POINT('',(-3.250000000000000,1.050000000000002,1.250000000000002));
#349=VERTEX_POINT('',#348);
#350=CARTESIAN_POINT('',(-3.050000000000000,1.050000000000001,1.250000000000002));
#351=DIRECTION('',(0.0,0.0,1.0));
#352=DIRECTION('',(0.0,1.0,0.0));
#353=AXIS2_PLACEMENT_3D('',#350,#351,#352);
#354=CIRCLE('',#353,0.200000000000000);
#355=EDGE_CURVE('',#347,#349,#354,.T.);
#356=ORIENTED_EDGE('',*,*,#355,.F.);
#357=CARTESIAN_POINT('',(-3.050000000000000,-1.249999999999999,1.250000000000002));
#358=VERTEX_POINT('',#357);
#359=CARTESIAN_POINT('',(-3.050000000000000,1.060647E-015,1.250000000000002));
#360=DIRECTION('',(-1.0,0.0,0.0));
#361=DIRECTION('',(0.0,-1.0,0.0));
#362=AXIS2_PLACEMENT_3D('',#359,#360,#361);
#363=CIRCLE('',#362,1.250000000000000);
#364=EDGE_CURVE('',#347,#358,#363,.T.);
#365=ORIENTED_EDGE('',*,*,#364,.T.);
#366=CARTESIAN_POINT('',(-3.250000000000000,-1.049999999999999,1.250000000000002));
#367=VERTEX_POINT('',#366);
#368=CARTESIAN_POINT('',(-3.050000000000000,-1.049999999999999,1.250000000000002));
#369=DIRECTION('',(0.0,0.0,-1.0));
#370=DIRECTION('',(0.0,-1.0,0.0));
#371=AXIS2_PLACEMENT_3D('',#368,#369,#370);
#372=CIRCLE('',#371,0.200000000000000);
#373=EDGE_CURVE('',#358,#367,#372,.T.);
#374=ORIENTED_EDGE('',*,*,#373,.T.);
#375=CARTESIAN_POINT('',(-3.250000000000000,1.060647E-015,1.250000000000002));
#376=DIRECTION('',(1.0,0.0,0.0));
#377=DIRECTION('',(0.0,-1.0,0.0));
#378=AXIS2_PLACEMENT_3D('',#375,#376,#377);
#379=CIRCLE('',#378,1.050000000000000);
#380=EDGE_CURVE('',#367,#349,#379,.T.);
#381=ORIENTED_EDGE('',*,*,#380,.T.);
#382=EDGE_LOOP('',(#356,#365,#374,#381));
#383=FACE_OUTER_BOUND('',#382,.T.);
#384=ADVANCED_FACE('',(#383),#345,.T.);
#385=CARTESIAN_POINT('',(-3.150000000000000,1.060647E-015,1.250000000000002));
#386=DIRECTION('',(1.0,1.608143E-016,-2.220446E-016));
#387=DIRECTION('',(0.0,1.0,0.0));
#388=AXIS2_PLACEMENT_3D('',#385,#386,#387);
#389=CYLINDRICAL_SURFACE('',#388,1.250000000000000);
#390=CARTESIAN_POINT('',(-2.350000000000000,1.250000000000001,1.250000000000002));
#391=VERTEX_POINT('',#390);
#392=CARTESIAN_POINT('',(-2.350000000000000,1.250000000000001,1.250000000000001));
#393=DIRECTION('',(-1.0,0.0,0.0));
#394=VECTOR('',#393,0.700000000000000);
#395=LINE('',#392,#394);
#396=EDGE_CURVE('',#391,#347,#395,.T.);
#397=ORIENTED_EDGE('',*,*,#396,.F.);
#398=CARTESIAN_POINT('',(-2.350000000000000,-1.249999999999999,1.250000000000002));
#399=VERTEX_POINT('',#398);
#400=CARTESIAN_POINT('',(-2.350000000000000,1.060647E-015,1.250000000000002));
#401=DIRECTION('',(-1.0,0.0,0.0));
#402=DIRECTION('',(0.0,1.0,0.0));
#403=AXIS2_PLACEMENT_3D('',#400,#401,#402);
#404=CIRCLE('',#403,1.250000000000000);
#405=EDGE_CURVE('',#391,#399,#404,.T.);
#406=ORIENTED_EDGE('',*,*,#405,.T.);
#407=CARTESIAN_POINT('',(-2.350000000000000,-1.249999999999999,1.250000000000002));
#408=DIRECTION('',(-1.0,0.0,0.0));
#409=VECTOR('',#408,0.700000000000000);
#410=LINE('',#407,#409);
#411=EDGE_CURVE('',#399,#358,#410,.T.);
#412=ORIENTED_EDGE('',*,*,#411,.T.);
#413=ORIENTED_EDGE('',*,*,#364,.F.);
#414=EDGE_LOOP('',(#397,#406,#412,#413));
#415=FACE_OUTER_BOUND('',#414,.T.);
#416=ADVANCED_FACE('',(#415),#389,.T.);
#417=CARTESIAN_POINT('',(-3.150000000000000,1.060647E-015,1.250000000000002));
#418=DIRECTION('',(1.0,1.608143E-016,-2.220446E-016));
#419=DIRECTION('',(0.0,1.0,0.0));
#420=AXIS2_PLACEMENT_3D('',#417,#418,#419);
#421=CYLINDRICAL_SURFACE('',#420,1.250000000000000);
#422=ORIENTED_EDGE('',*,*,#396,.T.);
#423=CARTESIAN_POINT('',(-3.050000000000000,1.060647E-015,1.250000000000002));
#424=DIRECTION('',(-1.0,0.0,0.0));
#425=DIRECTION('',(0.0,-1.0,0.0));
#426=AXIS2_PLACEMENT_3D('',#423,#424,#425);
#427=CIRCLE('',#426,1.250000000000000);
#428=EDGE_CURVE('',#358,#347,#427,.T.);
#429=ORIENTED_EDGE('',*,*,#428,.F.);
#430=ORIENTED_EDGE('',*,*,#411,.F.);
#431=CARTESIAN_POINT('',(-2.350000000000000,1.060647E-015,1.250000000000002));
#432=DIRECTION('',(-1.0,0.0,0.0));
#433=DIRECTION('',(0.0,1.0,0.0));
#434=AXIS2_PLACEMENT_3D('',#431,#432,#433);
#435=CIRCLE('',#434,1.250000000000000);
#436=EDGE_CURVE('',#399,#391,#435,.T.);
#437=ORIENTED_EDGE('',*,*,#436,.T.);
#438=EDGE_LOOP('',(#422,#429,#430,#437));
#439=FACE_OUTER_BOUND('',#438,.T.);
#440=ADVANCED_FACE('',(#439),#421,.T.);
#441=CARTESIAN_POINT('',(-3.250000000000000,1.060647E-015,1.250000000000002));
#442=DIRECTION('',(1.0,0.0,0.0));
#443=DIRECTION('',(0.0,1.0,0.0));
#444=AXIS2_PLACEMENT_3D('',#441,#442,#443);
#445=PLANE('',#444);
#446=CARTESIAN_POINT('',(-3.250000000000000,1.060647E-015,1.250000000000002));
#447=DIRECTION('',(1.0,0.0,0.0));
#448=DIRECTION('',(0.0,-1.0,0.0));
#449=AXIS2_PLACEMENT_3D('',#446,#447,#448);
#450=CIRCLE('',#449,1.050000000000000);
#451=EDGE_CURVE('',#349,#367,#450,.T.);
#452=ORIENTED_EDGE('',*,*,#451,.F.);
#453=ORIENTED_EDGE('',*,*,#380,.F.);
#454=EDGE_LOOP('',(#452,#453));
#455=FACE_OUTER_BOUND('',#454,.T.);
#456=ADVANCED_FACE('',(#455),#445,.F.);
#457=CARTESIAN_POINT('',(-3.050000000000000,1.060647E-015,1.250000000000002));
#458=DIRECTION('',(1.0,1.608143E-016,-2.220446E-016));
#459=DIRECTION('',(0.0,1.0,0.0));
#460=AXIS2_PLACEMENT_3D('',#457,#458,#459);
#461=TOROIDAL_SURFACE('',#460,1.050000000000000,0.200000000000000);
#462=ORIENTED_EDGE('',*,*,#355,.T.);
#463=ORIENTED_EDGE('',*,*,#451,.T.);
#464=ORIENTED_EDGE('',*,*,#373,.F.);
#465=ORIENTED_EDGE('',*,*,#428,.T.);
#466=EDGE_LOOP('',(#462,#463,#464,#465));
#467=FACE_OUTER_BOUND('',#466,.T.);
#468=ADVANCED_FACE('',(#467),#461,.T.);
#469=CARTESIAN_POINT('',(-2.350000000000000,-0.010000000000001,1.250000000000002));
#470=DIRECTION('',(1.0,0.0,0.0));
#471=DIRECTION('',(0.0,0.0,-1.0));
#472=AXIS2_PLACEMENT_3D('',#469,#470,#471);
#473=PLANE('',#472);
#474=ORIENTED_EDGE('',*,*,#405,.F.);
#475=ORIENTED_EDGE('',*,*,#436,.F.);
#476=EDGE_LOOP('',(#474,#475));
#477=FACE_OUTER_BOUND('',#476,.T.);
#478=ADVANCED_FACE('',(#477),#473,.T.);
#479=CLOSED_SHELL('',(#384,#416,#440,#456,#468,#478));
#480=MANIFOLD_SOLID_BREP('E4',#479);
#481=STYLED_ITEM('NONE',(#159),#480);
#482=CARTESIAN_POINT('',(-3.150000000000000,1.060647E-015,1.250000000000002));
#483=DIRECTION('',(1.0,1.608143E-016,-2.220446E-016));
#484=DIRECTION('',(0.0,1.0,0.0));
#485=AXIS2_PLACEMENT_3D('',#482,#483,#484);
#486=CYLINDRICAL_SURFACE('',#485,1.250000000000000);
#487=CARTESIAN_POINT('',(-1.350000000000001,1.250000000000001,1.250000000000001));
#488=VERTEX_POINT('',#487);
#489=CARTESIAN_POINT('',(-1.850000000000000,1.250000000000001,1.250000000000002));
#490=VERTEX_POINT('',#489);
#491=CARTESIAN_POINT('',(-1.350000000000001,1.250000000000001,1.250000000000001));
#492=DIRECTION('',(-1.0,0.0,0.0));
#493=VECTOR('',#492,0.499999999999999);
#494=LINE('',#491,#493);
#495=EDGE_CURVE('',#488,#490,#494,.T.);
#496=ORIENTED_EDGE('',*,*,#495,.F.);
#497=CARTESIAN_POINT('',(-1.350000000000001,-1.249999999999999,1.250000000000002));
#498=VERTEX_POINT('',#497);
#499=CARTESIAN_POINT('',(-1.350000000000001,1.060647E-015,1.250000000000002));
#500=DIRECTION('',(-1.0,0.0,0.0));
#501=DIRECTION('',(0.0,1.0,0.0));
#502=AXIS2_PLACEMENT_3D('',#499,#500,#501);
#503=CIRCLE('',#502,1.250000000000000);
#504=EDGE_CURVE('',#488,#498,#503,.T.);
#505=ORIENTED_EDGE('',*,*,#504,.T.);
#506=CARTESIAN_POINT('',(-1.850000000000000,-1.249999999999999,1.250000000000002));
#507=VERTEX_POINT('',#506);
#508=CARTESIAN_POINT('',(-1.350000000000001,-1.249999999999999,1.250000000000002));
#509=DIRECTION('',(-1.0,0.0,0.0));
#510=VECTOR('',#509,0.499999999999999);
#511=LINE('',#508,#510);
#512=EDGE_CURVE('',#498,#507,#511,.T.);
#513=ORIENTED_EDGE('',*,*,#512,.T.);
#514=CARTESIAN_POINT('',(-1.850000000000000,1.060647E-015,1.250000000000002));
#515=DIRECTION('',(1.0,0.0,0.0));
#516=DIRECTION('',(0.0,1.0,0.0));
#517=AXIS2_PLACEMENT_3D('',#514,#515,#516);
#518=CIRCLE('',#517,1.250000000000000);
#519=EDGE_CURVE('',#507,#490,#518,.T.);
#520=ORIENTED_EDGE('',*,*,#519,.T.);
#521=EDGE_LOOP('',(#496,#505,#513,#520));
#522=FACE_OUTER_BOUND('',#521,.T.);
#523=ADVANCED_FACE('',(#522),#486,.T.);
#524=CARTESIAN_POINT('',(-1.350000000000001,1.060647E-015,1.249999999999999));
#525=DIRECTION('',(1.0,0.0,0.0));
#526=DIRECTION('',(0.0,0.0,-1.0));
#527=AXIS2_PLACEMENT_3D('',#524,#525,#526);
#528=PLANE('',#527);
#529=CARTESIAN_POINT('',(-1.350000000000001,1.060647E-015,1.250000000000002));
#530=DIRECTION('',(-1.0,0.0,0.0));
#531=DIRECTION('',(0.0,1.0,0.0));
#532=AXIS2_PLACEMENT_3D('',#529,#530,#531);
#533=CIRCLE('',#532,1.250000000000000);
#534=EDGE_CURVE('',#498,#488,#533,.T.);
#535=ORIENTED_EDGE('',*,*,#534,.F.);
#536=ORIENTED_EDGE('',*,*,#504,.F.);
#537=EDGE_LOOP('',(#535,#536));
#538=FACE_OUTER_BOUND('',#537,.T.);
#539=ADVANCED_FACE('',(#538),#528,.T.);
#540=CARTESIAN_POINT('',(-1.850000000000000,-0.010000000000001,1.250000000000002));
#541=DIRECTION('',(1.0,0.0,0.0));
#542=DIRECTION('',(0.0,0.0,-1.0));
#543=AXIS2_PLACEMENT_3D('',#540,#541,#542);
#544=PLANE('',#543);
#545=CARTESIAN_POINT('',(-1.850000000000000,1.060647E-015,1.250000000000002));
#546=DIRECTION('',(1.0,0.0,0.0));
#547=DIRECTION('',(0.0,1.0,0.0));
#548=AXIS2_PLACEMENT_3D('',#545,#546,#547);
#549=CIRCLE('',#548,1.250000000000000);
#550=EDGE_CURVE('',#490,#507,#549,.T.);
#551=ORIENTED_EDGE('',*,*,#550,.F.);
#552=ORIENTED_EDGE('',*,*,#519,.F.);
#553=EDGE_LOOP('',(#551,#552));
#554=FACE_OUTER_BOUND('',#553,.T.);
#555=ADVANCED_FACE('',(#554),#544,.F.);
#556=CARTESIAN_POINT('',(-3.150000000000000,1.060647E-015,1.250000000000002));
#557=DIRECTION('',(1.0,1.608143E-016,-2.220446E-016));
#558=DIRECTION('',(0.0,1.0,0.0));
#559=AXIS2_PLACEMENT_3D('',#556,#557,#558);
#560=CYLINDRICAL_SURFACE('',#559,1.250000000000000);
#561=ORIENTED_EDGE('',*,*,#495,.T.);
#562=ORIENTED_EDGE('',*,*,#550,.T.);
#563=ORIENTED_EDGE('',*,*,#512,.F.);
#564=ORIENTED_EDGE('',*,*,#534,.T.);
#565=EDGE_LOOP('',(#561,#562,#563,#564));
#566=FACE_OUTER_BOUND('',#565,.T.);
#567=ADVANCED_FACE('',(#566),#560,.T.);
#568=CLOSED_SHELL('',(#523,#539,#555,#567));
#569=MANIFOLD_SOLID_BREP('E4',#568);
#570=STYLED_ITEM('NONE',(#159),#569);
#571=CARTESIAN_POINT('',(3.050000000000000,1.060647E-015,1.250000000000001));
#572=DIRECTION('',(-1.0,-1.608143E-016,2.220446E-016));
#573=DIRECTION('',(0.0,-1.0,0.0));
#574=AXIS2_PLACEMENT_3D('',#571,#572,#573);
#575=TOROIDAL_SURFACE('',#574,1.050000000000000,0.200000000000000);
#576=CARTESIAN_POINT('',(3.049999999999999,-1.249999999999998,1.250000000000001));
#577=VERTEX_POINT('',#576);
#578=CARTESIAN_POINT('',(3.250000000000000,-1.049999999999999,1.250000000000001));
#579=VERTEX_POINT('',#578);
#580=CARTESIAN_POINT('',(3.050000000000000,-1.049999999999999,1.250000000000001));
#581=DIRECTION('',(0.0,0.0,1.0));
#582=DIRECTION('',(0.0,-1.0,0.0));
#583=AXIS2_PLACEMENT_3D('',#580,#581,#582);
#584=CIRCLE('',#583,0.200000000000000);
#585=EDGE_CURVE('',#577,#579,#584,.T.);
#586=ORIENTED_EDGE('',*,*,#585,.F.);
#587=CARTESIAN_POINT('',(3.049999999999999,1.250000000000001,1.250000000000001));
#588=VERTEX_POINT('',#587);
#589=CARTESIAN_POINT('',(3.050000000000000,1.060647E-015,1.250000000000001));
#590=DIRECTION('',(1.0,0.0,0.0));
#591=DIRECTION('',(0.0,-1.0,0.0));
#592=AXIS2_PLACEMENT_3D('',#589,#590,#591);
#593=CIRCLE('',#592,1.250000000000000);
#594=EDGE_CURVE('',#577,#588,#593,.T.);
#595=ORIENTED_EDGE('',*,*,#594,.T.);
#596=CARTESIAN_POINT('',(3.249999999999999,1.050000000000002,1.250000000000000));
#597=VERTEX_POINT('',#596);
#598=CARTESIAN_POINT('',(3.050000000000000,1.050000000000001,1.250000000000000));
#599=DIRECTION('',(0.0,0.0,-1.0));
#600=DIRECTION('',(0.0,1.0,0.0));
#601=AXIS2_PLACEMENT_3D('',#598,#599,#600);
#602=CIRCLE('',#601,0.200000000000000);
#603=EDGE_CURVE('',#588,#597,#602,.T.);
#604=ORIENTED_EDGE('',*,*,#603,.T.);
#605=CARTESIAN_POINT('',(3.250000000000000,1.060647E-015,1.250000000000001));
#606=DIRECTION('',(-1.0,0.0,0.0));
#607=DIRECTION('',(0.0,-1.0,0.0));
#608=AXIS2_PLACEMENT_3D('',#605,#606,#607);
#609=CIRCLE('',#608,1.050000000000000);
#610=EDGE_CURVE('',#597,#579,#609,.T.);
#611=ORIENTED_EDGE('',*,*,#610,.T.);
#612=EDGE_LOOP('',(#586,#595,#604,#611));
#613=FACE_OUTER_BOUND('',#612,.T.);
#614=ADVANCED_FACE('',(#613),#575,.T.);
#615=CARTESIAN_POINT('',(-3.150000000000000,1.060647E-015,1.250000000000002));
#616=DIRECTION('',(1.0,1.608143E-016,-2.220446E-016));
#617=DIRECTION('',(0.0,1.0,0.0));
#618=AXIS2_PLACEMENT_3D('',#615,#616,#617);
#619=CYLINDRICAL_SURFACE('',#618,1.250000000000000);
#620=CARTESIAN_POINT('',(2.349999999999999,1.250000000000002,1.250000000000000));
#621=VERTEX_POINT('',#620);
#622=CARTESIAN_POINT('',(3.049999999999999,1.250000000000002,1.250000000000000));
#623=DIRECTION('',(-1.0,0.0,0.0));
#624=VECTOR('',#623,0.700000000000000);
#625=LINE('',#622,#624);
#626=EDGE_CURVE('',#588,#621,#625,.T.);
#627=ORIENTED_EDGE('',*,*,#626,.F.);
#628=ORIENTED_EDGE('',*,*,#594,.F.);
#629=CARTESIAN_POINT('',(2.349999999999999,-1.249999999999999,1.250000000000001));
#630=VERTEX_POINT('',#629);
#631=CARTESIAN_POINT('',(3.049999999999999,-1.249999999999998,1.250000000000001));
#632=DIRECTION('',(-1.0,0.0,0.0));
#633=VECTOR('',#632,0.700000000000000);
#634=LINE('',#631,#633);
#635=EDGE_CURVE('',#577,#630,#634,.T.);
#636=ORIENTED_EDGE('',*,*,#635,.T.);
#637=CARTESIAN_POINT('',(2.349999999999999,1.060647E-015,1.250000000000001));
#638=DIRECTION('',(1.0,0.0,0.0));
#639=DIRECTION('',(0.0,1.0,0.0));
#640=AXIS2_PLACEMENT_3D('',#637,#638,#639);
#641=CIRCLE('',#640,1.250000000000000);
#642=EDGE_CURVE('',#630,#621,#641,.T.);
#643=ORIENTED_EDGE('',*,*,#642,.T.);
#644=EDGE_LOOP('',(#627,#628,#636,#643));
#645=FACE_OUTER_BOUND('',#644,.T.);
#646=ADVANCED_FACE('',(#645),#619,.T.);
#647=CARTESIAN_POINT('',(-3.150000000000000,1.060647E-015,1.250000000000002));
#648=DIRECTION('',(1.0,1.608143E-016,-2.220446E-016));
#649=DIRECTION('',(0.0,1.0,0.0));
#650=AXIS2_PLACEMENT_3D('',#647,#648,#649);
#651=CYLINDRICAL_SURFACE('',#650,1.250000000000000);
#652=ORIENTED_EDGE('',*,*,#626,.T.);
#653=CARTESIAN_POINT('',(2.349999999999999,1.060647E-015,1.250000000000001));
#654=DIRECTION('',(1.0,0.0,0.0));
#655=DIRECTION('',(0.0,1.0,0.0));
#656=AXIS2_PLACEMENT_3D('',#653,#654,#655);
#657=CIRCLE('',#656,1.250000000000000);
#658=EDGE_CURVE('',#621,#630,#657,.T.);
#659=ORIENTED_EDGE('',*,*,#658,.T.);
#660=ORIENTED_EDGE('',*,*,#635,.F.);
#661=CARTESIAN_POINT('',(3.050000000000000,1.060647E-015,1.250000000000001));
#662=DIRECTION('',(1.0,0.0,0.0));
#663=DIRECTION('',(0.0,-1.0,0.0));
#664=AXIS2_PLACEMENT_3D('',#661,#662,#663);
#665=CIRCLE('',#664,1.250000000000000);
#666=EDGE_CURVE('',#588,#577,#665,.T.);
#667=ORIENTED_EDGE('',*,*,#666,.F.);
#668=EDGE_LOOP('',(#652,#659,#660,#667));
#669=FACE_OUTER_BOUND('',#668,.T.);
#670=ADVANCED_FACE('',(#669),#651,.T.);
#671=CARTESIAN_POINT('',(2.349999999999999,1.060647E-015,1.250000000000000));
#672=DIRECTION('',(1.0,0.0,0.0));
#673=DIRECTION('',(0.0,0.0,-1.0));
#674=AXIS2_PLACEMENT_3D('',#671,#672,#673);
#675=PLANE('',#674);
#676=ORIENTED_EDGE('',*,*,#642,.F.);
#677=ORIENTED_EDGE('',*,*,#658,.F.);
#678=EDGE_LOOP('',(#676,#677));
#679=FACE_OUTER_BOUND('',#678,.T.);
#680=ADVANCED_FACE('',(#679),#675,.F.);
#681=CARTESIAN_POINT('',(3.050000000000000,1.060647E-015,1.250000000000001));
#682=DIRECTION('',(-1.0,-1.608143E-016,2.220446E-016));
#683=DIRECTION('',(0.0,-1.0,0.0));
#684=AXIS2_PLACEMENT_3D('',#681,#682,#683);
#685=TOROIDAL_SURFACE('',#684,1.050000000000000,0.200000000000000);
#686=ORIENTED_EDGE('',*,*,#585,.T.);
#687=CARTESIAN_POINT('',(3.250000000000000,1.060647E-015,1.250000000000001));
#688=DIRECTION('',(-1.0,0.0,0.0));
#689=DIRECTION('',(0.0,-1.0,0.0));
#690=AXIS2_PLACEMENT_3D('',#687,#688,#689);
#691=CIRCLE('',#690,1.050000000000000);
#692=EDGE_CURVE('',#579,#597,#691,.T.);
#693=ORIENTED_EDGE('',*,*,#692,.T.);
#694=ORIENTED_EDGE('',*,*,#603,.F.);
#695=ORIENTED_EDGE('',*,*,#666,.T.);
#696=EDGE_LOOP('',(#686,#693,#694,#695));
#697=FACE_OUTER_BOUND('',#696,.T.);
#698=ADVANCED_FACE('',(#697),#685,.T.);
#699=CARTESIAN_POINT('',(3.250000000000000,1.060647E-015,1.250000000000001));
#700=DIRECTION('',(1.0,0.0,0.0));
#701=DIRECTION('',(0.0,1.0,0.0));
#702=AXIS2_PLACEMENT_3D('',#699,#700,#701);
#703=PLANE('',#702);
#704=ORIENTED_EDGE('',*,*,#610,.F.);
#705=ORIENTED_EDGE('',*,*,#692,.F.);
#706=EDGE_LOOP('',(#704,#705));
#707=FACE_OUTER_BOUND('',#706,.T.);
#708=ADVANCED_FACE('',(#707),#703,.T.);
#709=CLOSED_SHELL('',(#614,#646,#670,#680,#698,#708));
#710=MANIFOLD_SOLID_BREP('E4',#709);
#711=STYLED_ITEM('NONE',(#159),#710);
#712=CARTESIAN_POINT('',(-1.350000000000001,-1.161896E-016,1.249999999999999));
#713=DIRECTION('',(1.0,0.0,0.0));
#714=DIRECTION('',(0.0,1.0,0.0));
#715=AXIS2_PLACEMENT_3D('',#712,#713,#714);
#716=CYLINDRICAL_SURFACE('',#715,1.260000000000000);
#717=CARTESIAN_POINT('',(-0.950000000000001,1.260000000000000,1.249999999999999));
#718=VERTEX_POINT('',#717);
#719=CARTESIAN_POINT('',(-1.350000000000001,1.260000000000000,1.249999999999999));
#720=VERTEX_POINT('',#719);
#721=CARTESIAN_POINT('',(-0.950000000000001,1.260000000000000,1.249999999999999));
#722=DIRECTION('',(-1.0,0.0,0.0));
#723=VECTOR('',#722,0.400000000000000);
#724=LINE('',#721,#723);
#725=EDGE_CURVE('',#718,#720,#724,.T.);
#726=ORIENTED_EDGE('',*,*,#725,.F.);
#727=CARTESIAN_POINT('',(-0.950000000000000,-1.260000000000000,1.249999999999999));
#728=VERTEX_POINT('',#727);
#729=CARTESIAN_POINT('',(-0.950000000000001,-1.161896E-016,1.249999999999999));
#730=DIRECTION('',(-1.0,0.0,0.0));
#731=DIRECTION('',(0.0,1.0,0.0));
#732=AXIS2_PLACEMENT_3D('',#729,#730,#731);
#733=CIRCLE('',#732,1.260000000000000);
#734=EDGE_CURVE('',#718,#728,#733,.T.);
#735=ORIENTED_EDGE('',*,*,#734,.T.);
#736=CARTESIAN_POINT('',(-1.350000000000001,-1.260000000000000,1.249999999999999));
#737=VERTEX_POINT('',#736);
#738=CARTESIAN_POINT('',(-0.950000000000000,-1.260000000000000,1.249999999999999));
#739=DIRECTION('',(-1.0,0.0,0.0));
#740=VECTOR('',#739,0.400000000000000);
#741=LINE('',#738,#740);
#742=EDGE_CURVE('',#728,#737,#741,.T.);
#743=ORIENTED_EDGE('',*,*,#742,.T.);
#744=CARTESIAN_POINT('',(-1.350000000000001,-1.161896E-016,1.249999999999999));
#745=DIRECTION('',(1.0,0.0,0.0));
#746=DIRECTION('',(0.0,1.0,0.0));
#747=AXIS2_PLACEMENT_3D('',#744,#745,#746);
#748=CIRCLE('',#747,1.260000000000000);
#749=EDGE_CURVE('',#737,#720,#748,.T.);
#750=ORIENTED_EDGE('',*,*,#749,.T.);
#751=EDGE_LOOP('',(#726,#735,#743,#750));
#752=FACE_OUTER_BOUND('',#751,.T.);
#753=ADVANCED_FACE('',(#752),#716,.T.);
#754=CARTESIAN_POINT('',(-1.350000000000001,-1.161896E-016,1.249999999999999));
#755=DIRECTION('',(1.0,0.0,0.0));
#756=DIRECTION('',(0.0,1.0,0.0));
#757=AXIS2_PLACEMENT_3D('',#754,#755,#756);
#758=CYLINDRICAL_SURFACE('',#757,1.260000000000000);
#759=ORIENTED_EDGE('',*,*,#725,.T.);
#760=CARTESIAN_POINT('',(-1.350000000000001,-1.161896E-016,1.249999999999999));
#761=DIRECTION('',(1.0,0.0,0.0));
#762=DIRECTION('',(0.0,1.0,0.0));
#763=AXIS2_PLACEMENT_3D('',#760,#761,#762);
#764=CIRCLE('',#763,1.260000000000000);
#765=EDGE_CURVE('',#720,#737,#764,.T.);
#766=ORIENTED_EDGE('',*,*,#765,.T.);
#767=ORIENTED_EDGE('',*,*,#742,.F.);
#768=CARTESIAN_POINT('',(-0.950000000000001,-1.161896E-016,1.249999999999999));
#769=DIRECTION('',(-1.0,0.0,0.0));
#770=DIRECTION('',(0.0,1.0,0.0));
#771=AXIS2_PLACEMENT_3D('',#768,#769,#770);
#772=CIRCLE('',#771,1.260000000000000);
#773=EDGE_CURVE('',#728,#718,#772,.T.);
#774=ORIENTED_EDGE('',*,*,#773,.T.);
#775=EDGE_LOOP('',(#759,#766,#767,#774));
#776=FACE_OUTER_BOUND('',#775,.T.);
#777=ADVANCED_FACE('',(#776),#758,.T.);
#778=CARTESIAN_POINT('',(-0.950000000000001,-1.161896E-016,1.249999999999999));
#779=DIRECTION('',(1.0,0.0,0.0));
#780=DIRECTION('',(0.0,0.0,-1.0));
#781=AXIS2_PLACEMENT_3D('',#778,#779,#780);
#782=PLANE('',#781);
#783=ORIENTED_EDGE('',*,*,#734,.F.);
#784=ORIENTED_EDGE('',*,*,#773,.F.);
#785=EDGE_LOOP('',(#783,#784));
#786=FACE_OUTER_BOUND('',#785,.T.);
#787=ADVANCED_FACE('',(#786),#782,.T.);
#788=CARTESIAN_POINT('',(-1.350000000000001,-1.161896E-016,1.249999999999999));
#789=DIRECTION('',(1.0,0.0,0.0));
#790=DIRECTION('',(0.0,0.0,-1.0));
#791=AXIS2_PLACEMENT_3D('',#788,#789,#790);
#792=PLANE('',#791);
#793=ORIENTED_EDGE('',*,*,#765,.F.);
#794=ORIENTED_EDGE('',*,*,#749,.F.);
#795=EDGE_LOOP('',(#793,#794));
#796=FACE_OUTER_BOUND('',#795,.T.);
#797=ADVANCED_FACE('',(#796),#792,.F.);
#798=CLOSED_SHELL('',(#753,#777,#787,#797));
#799=MANIFOLD_SOLID_BREP('C5',#798);
#800=COLOUR_RGB('40',1.0,0.750000000000000,0.0);
#801=SURFACE_STYLE_USAGE(.BOTH.,#802);
#802=SURFACE_SIDE_STYLE('NONE',(#803));
#803=SURFACE_STYLE_FILL_AREA(#804);
#804=FILL_AREA_STYLE('NONE',(#805));
#805=FILL_AREA_STYLE_COLOUR('NONE',#800);
#806=PRESENTATION_STYLE_ASSIGNMENT((#801));
#807=STYLED_ITEM('NONE',(#806),#799);
#808=CARTESIAN_POINT('',(-0.050000000000001,-1.161896E-016,1.249999999999999));
#809=DIRECTION('',(1.0,0.0,0.0));
#810=DIRECTION('',(0.0,1.0,0.0));
#811=AXIS2_PLACEMENT_3D('',#808,#809,#810);
#812=CYLINDRICAL_SURFACE('',#811,1.260000000000000);
#813=CARTESIAN_POINT('',(0.349999999999999,1.260000000000000,1.249999999999999));
#814=VERTEX_POINT('',#813);
#815=CARTESIAN_POINT('',(-0.050000000000001,1.260000000000000,1.249999999999999));
#816=VERTEX_POINT('',#815);
#817=CARTESIAN_POINT('',(0.349999999999999,1.260000000000000,1.249999999999999));
#818=DIRECTION('',(-1.0,0.0,0.0));
#819=VECTOR('',#818,0.400000000000000);
#820=LINE('',#817,#819);
#821=EDGE_CURVE('',#814,#816,#820,.T.);
#822=ORIENTED_EDGE('',*,*,#821,.F.);
#823=CARTESIAN_POINT('',(0.349999999999999,-1.260000000000000,1.249999999999999));
#824=VERTEX_POINT('',#823);
#825=CARTESIAN_POINT('',(0.349999999999999,-1.161896E-016,1.249999999999999));
#826=DIRECTION('',(-1.0,0.0,0.0));
#827=DIRECTION('',(0.0,1.0,0.0));
#828=AXIS2_PLACEMENT_3D('',#825,#826,#827);
#829=CIRCLE('',#828,1.260000000000000);
#830=EDGE_CURVE('',#814,#824,#829,.T.);
#831=ORIENTED_EDGE('',*,*,#830,.T.);
#832=CARTESIAN_POINT('',(-0.050000000000001,-1.260000000000000,1.249999999999999));
#833=VERTEX_POINT('',#832);
#834=CARTESIAN_POINT('',(0.349999999999999,-1.260000000000000,1.249999999999999));
#835=DIRECTION('',(-1.0,0.0,0.0));
#836=VECTOR('',#835,0.400000000000000);
#837=LINE('',#834,#836);
#838=EDGE_CURVE('',#824,#833,#837,.T.);
#839=ORIENTED_EDGE('',*,*,#838,.T.);
#840=CARTESIAN_POINT('',(-0.050000000000001,-1.161896E-016,1.249999999999999));
#841=DIRECTION('',(1.0,0.0,0.0));
#842=DIRECTION('',(0.0,1.0,0.0));
#843=AXIS2_PLACEMENT_3D('',#840,#841,#842);
#844=CIRCLE('',#843,1.260000000000000);
#845=EDGE_CURVE('',#833,#816,#844,.T.);
#846=ORIENTED_EDGE('',*,*,#845,.T.);
#847=EDGE_LOOP('',(#822,#831,#839,#846));
#848=FACE_OUTER_BOUND('',#847,.T.);
#849=ADVANCED_FACE('',(#848),#812,.T.);
#850=CARTESIAN_POINT('',(-0.050000000000001,-1.161896E-016,1.249999999999999));
#851=DIRECTION('',(1.0,0.0,0.0));
#852=DIRECTION('',(0.0,1.0,0.0));
#853=AXIS2_PLACEMENT_3D('',#850,#851,#852);
#854=CYLINDRICAL_SURFACE('',#853,1.260000000000000);
#855=ORIENTED_EDGE('',*,*,#821,.T.);
#856=CARTESIAN_POINT('',(-0.050000000000001,-1.161896E-016,1.249999999999999));
#857=DIRECTION('',(1.0,0.0,0.0));
#858=DIRECTION('',(0.0,1.0,0.0));
#859=AXIS2_PLACEMENT_3D('',#856,#857,#858);
#860=CIRCLE('',#859,1.260000000000000);
#861=EDGE_CURVE('',#816,#833,#860,.T.);
#862=ORIENTED_EDGE('',*,*,#861,.T.);
#863=ORIENTED_EDGE('',*,*,#838,.F.);
#864=CARTESIAN_POINT('',(0.349999999999999,-1.161896E-016,1.249999999999999));
#865=DIRECTION('',(-1.0,0.0,0.0));
#866=DIRECTION('',(0.0,1.0,0.0));
#867=AXIS2_PLACEMENT_3D('',#864,#865,#866);
#868=CIRCLE('',#867,1.260000000000000);
#869=EDGE_CURVE('',#824,#814,#868,.T.);
#870=ORIENTED_EDGE('',*,*,#869,.T.);
#871=EDGE_LOOP('',(#855,#862,#863,#870));
#872=FACE_OUTER_BOUND('',#871,.T.);
#873=ADVANCED_FACE('',(#872),#854,.T.);
#874=CARTESIAN_POINT('',(0.349999999999999,-1.161896E-016,1.249999999999999));
#875=DIRECTION('',(1.0,0.0,0.0));
#876=DIRECTION('',(0.0,0.0,-1.0));
#877=AXIS2_PLACEMENT_3D('',#874,#875,#876);
#878=PLANE('',#877);
#879=ORIENTED_EDGE('',*,*,#830,.F.);
#880=ORIENTED_EDGE('',*,*,#869,.F.);
#881=EDGE_LOOP('',(#879,#880));
#882=FACE_OUTER_BOUND('',#881,.T.);
#883=ADVANCED_FACE('',(#882),#878,.T.);
#884=CARTESIAN_POINT('',(-0.050000000000001,-1.161896E-016,1.249999999999999));
#885=DIRECTION('',(1.0,0.0,0.0));
#886=DIRECTION('',(0.0,0.0,-1.0));
#887=AXIS2_PLACEMENT_3D('',#884,#885,#886);
#888=PLANE('',#887);
#889=ORIENTED_EDGE('',*,*,#861,.F.);
#890=ORIENTED_EDGE('',*,*,#845,.F.);
#891=EDGE_LOOP('',(#889,#890));
#892=FACE_OUTER_BOUND('',#891,.T.);
#893=ADVANCED_FACE('',(#892),#888,.F.);
#894=CLOSED_SHELL('',(#849,#873,#883,#893));
#895=MANIFOLD_SOLID_BREP('C4',#894);
#896=COLOUR_RGB('250',0.330000000000000,0.330000000000000,0.330000000000000);
#897=SURFACE_STYLE_USAGE(.BOTH.,#898);
#898=SURFACE_SIDE_STYLE('NONE',(#899));
#899=SURFACE_STYLE_FILL_AREA(#900);
#900=FILL_AREA_STYLE('NONE',(#901));
#901=FILL_AREA_STYLE_COLOUR('NONE',#896);
#902=PRESENTATION_STYLE_ASSIGNMENT((#897));
#903=STYLED_ITEM('NONE',(#902),#895);
#904=CARTESIAN_POINT('',(0.949999999999999,-1.161896E-016,1.250000000000000));
#905=DIRECTION('',(1.0,0.0,0.0));
#906=DIRECTION('',(0.0,1.0,0.0));
#907=AXIS2_PLACEMENT_3D('',#904,#905,#906);
#908=CYLINDRICAL_SURFACE('',#907,1.260000000000000);
#909=CARTESIAN_POINT('',(1.349999999999999,1.260000000000000,1.250000000000000));
#910=VERTEX_POINT('',#909);
#911=CARTESIAN_POINT('',(0.949999999999999,1.260000000000000,1.250000000000000));
#912=VERTEX_POINT('',#911);
#913=CARTESIAN_POINT('',(1.349999999999999,1.260000000000000,1.250000000000000));
#914=DIRECTION('',(-1.0,0.0,0.0));
#915=VECTOR('',#914,0.400000000000000);
#916=LINE('',#913,#915);
#917=EDGE_CURVE('',#910,#912,#916,.T.);
#918=ORIENTED_EDGE('',*,*,#917,.F.);
#919=CARTESIAN_POINT('',(1.349999999999999,-1.260000000000000,1.250000000000000));
#920=VERTEX_POINT('',#919);
#921=CARTESIAN_POINT('',(1.349999999999999,-1.161896E-016,1.250000000000000));
#922=DIRECTION('',(-1.0,0.0,0.0));
#923=DIRECTION('',(0.0,1.0,0.0));
#924=AXIS2_PLACEMENT_3D('',#921,#922,#923);
#925=CIRCLE('',#924,1.260000000000000);
#926=EDGE_CURVE('',#910,#920,#925,.T.);
#927=ORIENTED_EDGE('',*,*,#926,.T.);
#928=CARTESIAN_POINT('',(0.949999999999999,-1.260000000000000,1.250000000000000));
#929=VERTEX_POINT('',#928);
#930=CARTESIAN_POINT('',(1.349999999999999,-1.260000000000000,1.250000000000000));
#931=DIRECTION('',(-1.0,0.0,0.0));
#932=VECTOR('',#931,0.400000000000000);
#933=LINE('',#930,#932);
#934=EDGE_CURVE('',#920,#929,#933,.T.);
#935=ORIENTED_EDGE('',*,*,#934,.T.);
#936=CARTESIAN_POINT('',(0.949999999999999,-1.161896E-016,1.250000000000000));
#937=DIRECTION('',(1.0,0.0,0.0));
#938=DIRECTION('',(0.0,1.0,0.0));
#939=AXIS2_PLACEMENT_3D('',#936,#937,#938);
#940=CIRCLE('',#939,1.260000000000000);
#941=EDGE_CURVE('',#929,#912,#940,.T.);
#942=ORIENTED_EDGE('',*,*,#941,.T.);
#943=EDGE_LOOP('',(#918,#927,#935,#942));
#944=FACE_OUTER_BOUND('',#943,.T.);
#945=ADVANCED_FACE('',(#944),#908,.T.);
#946=CARTESIAN_POINT('',(0.949999999999999,-1.161896E-016,1.250000000000000));
#947=DIRECTION('',(1.0,0.0,0.0));
#948=DIRECTION('',(0.0,1.0,0.0));
#949=AXIS2_PLACEMENT_3D('',#946,#947,#948);
#950=CYLINDRICAL_SURFACE('',#949,1.260000000000000);
#951=ORIENTED_EDGE('',*,*,#917,.T.);
#952=CARTESIAN_POINT('',(0.949999999999999,-1.161896E-016,1.250000000000000));
#953=DIRECTION('',(1.0,0.0,0.0));
#954=DIRECTION('',(0.0,1.0,0.0));
#955=AXIS2_PLACEMENT_3D('',#952,#953,#954);
#956=CIRCLE('',#955,1.260000000000000);
#957=EDGE_CURVE('',#912,#929,#956,.T.);
#958=ORIENTED_EDGE('',*,*,#957,.T.);
#959=ORIENTED_EDGE('',*,*,#934,.F.);
#960=CARTESIAN_POINT('',(1.349999999999999,-1.161896E-016,1.250000000000000));
#961=DIRECTION('',(-1.0,0.0,0.0));
#962=DIRECTION('',(0.0,1.0,0.0));
#963=AXIS2_PLACEMENT_3D('',#960,#961,#962);
#964=CIRCLE('',#963,1.260000000000000);
#965=EDGE_CURVE('',#920,#910,#964,.T.);
#966=ORIENTED_EDGE('',*,*,#965,.T.);
#967=EDGE_LOOP('',(#951,#958,#959,#966));
#968=FACE_OUTER_BOUND('',#967,.T.);
#969=ADVANCED_FACE('',(#968),#950,.T.);
#970=CARTESIAN_POINT('',(1.349999999999999,-1.161896E-016,1.250000000000000));
#971=DIRECTION('',(1.0,0.0,0.0));
#972=DIRECTION('',(0.0,0.0,-1.0));
#973=AXIS2_PLACEMENT_3D('',#970,#971,#972);
#974=PLANE('',#973);
#975=ORIENTED_EDGE('',*,*,#926,.F.);
#976=ORIENTED_EDGE('',*,*,#965,.F.);
#977=EDGE_LOOP('',(#975,#976));
#978=FACE_OUTER_BOUND('',#977,.T.);
#979=ADVANCED_FACE('',(#978),#974,.T.);
#980=CARTESIAN_POINT('',(0.949999999999999,-1.161896E-016,1.250000000000000));
#981=DIRECTION('',(1.0,0.0,0.0));
#982=DIRECTION('',(0.0,0.0,-1.0));
#983=AXIS2_PLACEMENT_3D('',#980,#981,#982);
#984=PLANE('',#983);
#985=ORIENTED_EDGE('',*,*,#957,.F.);
#986=ORIENTED_EDGE('',*,*,#941,.F.);
#987=EDGE_LOOP('',(#985,#986));
#988=FACE_OUTER_BOUND('',#987,.T.);
#989=ADVANCED_FACE('',(#988),#984,.F.);
#990=CLOSED_SHELL('',(#945,#969,#979,#989));
#991=MANIFOLD_SOLID_BREP('C3',#990);
#992=DRAUGHTING_PRE_DEFINED_COLOUR('red');
#993=SURFACE_STYLE_USAGE(.BOTH.,#994);
#994=SURFACE_SIDE_STYLE('NONE',(#995));
#995=SURFACE_STYLE_FILL_AREA(#996);
#996=FILL_AREA_STYLE('NONE',(#997));
#997=FILL_AREA_STYLE_COLOUR('NONE',#992);
#998=PRESENTATION_STYLE_ASSIGNMENT((#993));
#999=STYLED_ITEM('NONE',(#998),#991);
#1000=CARTESIAN_POINT('',(-2.350000000000000,-0.009999999999999,1.250000000000002));
#1001=DIRECTION('',(1.0,0.0,0.0));
#1002=DIRECTION('',(0.0,1.0,0.0));
#1003=AXIS2_PLACEMENT_3D('',#1000,#1001,#1002);
#1004=CYLINDRICAL_SURFACE('',#1003,1.260000000000000);
#1005=CARTESIAN_POINT('',(-1.850000000000000,1.250000000000001,1.250000000000002));
#1006=VERTEX_POINT('',#1005);
#1007=CARTESIAN_POINT('',(-2.350000000000000,1.250000000000001,1.250000000000002));
#1008=VERTEX_POINT('',#1007);
#1009=CARTESIAN_POINT('',(-1.850000000000000,1.250000000000001,1.250000000000002));
#1010=DIRECTION('',(-1.0,0.0,0.0));
#1011=VECTOR('',#1010,0.500000000000000);
#1012=LINE('',#1009,#1011);
#1013=EDGE_CURVE('',#1006,#1008,#1012,.T.);
#1014=ORIENTED_EDGE('',*,*,#1013,.F.);
#1015=CARTESIAN_POINT('',(-1.849999999999999,-1.269999999999999,1.250000000000002));
#1016=VERTEX_POINT('',#1015);
#1017=CARTESIAN_POINT('',(-1.850000000000000,-0.009999999999999,1.250000000000002));
#1018=DIRECTION('',(-1.0,0.0,0.0));
#1019=DIRECTION('',(0.0,1.0,0.0));
#1020=AXIS2_PLACEMENT_3D('',#1017,#1018,#1019);
#1021=CIRCLE('',#1020,1.260000000000000);
#1022=EDGE_CURVE('',#1006,#1016,#1021,.T.);
#1023=ORIENTED_EDGE('',*,*,#1022,.T.);
#1024=CARTESIAN_POINT('',(-2.349999999999999,-1.269999999999999,1.250000000000002));
#1025=VERTEX_POINT('',#1024);
#1026=CARTESIAN_POINT('',(-1.849999999999999,-1.269999999999999,1.250000000000002));
#1027=DIRECTION('',(-1.0,0.0,0.0));
#1028=VECTOR('',#1027,0.500000000000000);
#1029=LINE('',#1026,#1028);
#1030=EDGE_CURVE('',#1016,#1025,#1029,.T.);
#1031=ORIENTED_EDGE('',*,*,#1030,.T.);
#1032=CARTESIAN_POINT('',(-2.350000000000000,-0.009999999999999,1.250000000000002));
#1033=DIRECTION('',(1.0,0.0,0.0));
#1034=DIRECTION('',(0.0,1.0,0.0));
#1035=AXIS2_PLACEMENT_3D('',#1032,#1033,#1034);
#1036=CIRCLE('',#1035,1.260000000000000);
#1037=EDGE_CURVE('',#1025,#1008,#1036,.T.);
#1038=ORIENTED_EDGE('',*,*,#1037,.T.);
#1039=EDGE_LOOP('',(#1014,#1023,#1031,#1038));
#1040=FACE_OUTER_BOUND('',#1039,.T.);
#1041=ADVANCED_FACE('',(#1040),#1004,.T.);
#1042=CARTESIAN_POINT('',(-2.350000000000000,-0.009999999999999,1.250000000000002));
#1043=DIRECTION('',(1.0,0.0,0.0));
#1044=DIRECTION('',(0.0,1.0,0.0));
#1045=AXIS2_PLACEMENT_3D('',#1042,#1043,#1044);
#1046=CYLINDRICAL_SURFACE('',#1045,1.260000000000000);
#1047=ORIENTED_EDGE('',*,*,#1013,.T.);
#1048=CARTESIAN_POINT('',(-2.350000000000000,-0.009999999999999,1.250000000000002));
#1049=DIRECTION('',(1.0,0.0,0.0));
#1050=DIRECTION('',(0.0,1.0,0.0));
#1051=AXIS2_PLACEMENT_3D('',#1048,#1049,#1050);
#1052=CIRCLE('',#1051,1.260000000000000);
#1053=EDGE_CURVE('',#1008,#1025,#1052,.T.);
#1054=ORIENTED_EDGE('',*,*,#1053,.T.);
#1055=ORIENTED_EDGE('',*,*,#1030,.F.);
#1056=CARTESIAN_POINT('',(-1.850000000000000,-0.009999999999999,1.250000000000002));
#1057=DIRECTION('',(-1.0,0.0,0.0));
#1058=DIRECTION('',(0.0,1.0,0.0));
#1059=AXIS2_PLACEMENT_3D('',#1056,#1057,#1058);
#1060=CIRCLE('',#1059,1.260000000000000);
#1061=EDGE_CURVE('',#1016,#1006,#1060,.T.);
#1062=ORIENTED_EDGE('',*,*,#1061,.T.);
#1063=EDGE_LOOP('',(#1047,#1054,#1055,#1062));
#1064=FACE_OUTER_BOUND('',#1063,.T.);
#1065=ADVANCED_FACE('',(#1064),#1046,.T.);
#1066=CARTESIAN_POINT('',(-1.850000000000000,-0.009999999999999,1.250000000000002));
#1067=DIRECTION('',(1.0,0.0,0.0));
#1068=DIRECTION('',(0.0,0.0,-1.0));
#1069=AXIS2_PLACEMENT_3D('',#1066,#1067,#1068);
#1070=PLANE('',#1069);
#1071=ORIENTED_EDGE('',*,*,#1022,.F.);
#1072=ORIENTED_EDGE('',*,*,#1061,.F.);
#1073=EDGE_LOOP('',(#1071,#1072));
#1074=FACE_OUTER_BOUND('',#1073,.T.);
#1075=ADVANCED_FACE('',(#1074),#1070,.T.);
#1076=CARTESIAN_POINT('',(-2.350000000000000,-0.009999999999999,1.250000000000002));
#1077=DIRECTION('',(1.0,0.0,0.0));
#1078=DIRECTION('',(0.0,0.0,-1.0));
#1079=AXIS2_PLACEMENT_3D('',#1076,#1077,#1078);
#1080=PLANE('',#1079);
#1081=ORIENTED_EDGE('',*,*,#1053,.F.);
#1082=ORIENTED_EDGE('',*,*,#1037,.F.);
#1083=EDGE_LOOP('',(#1081,#1082));
#1084=FACE_OUTER_BOUND('',#1083,.T.);
#1085=ADVANCED_FACE('',(#1084),#1080,.F.);
#1086=CLOSED_SHELL('',(#1041,#1065,#1075,#1085));
#1087=MANIFOLD_SOLID_BREP('C2',#1086);
#1088=COLOUR_RGB('32',0.650000000000000,0.325000000000000,0.0);
#1089=SURFACE_STYLE_USAGE(.BOTH.,#1090);
#1090=SURFACE_SIDE_STYLE('NONE',(#1091));
#1091=SURFACE_STYLE_FILL_AREA(#1092);
#1092=FILL_AREA_STYLE('NONE',(#1093));
#1093=FILL_AREA_STYLE_COLOUR('NONE',#1088);
#1094=PRESENTATION_STYLE_ASSIGNMENT((#1089));
#1095=STYLED_ITEM('NONE',(#1094),#1087);
#1096=CARTESIAN_POINT('',(1.949999999999999,-1.161896E-016,1.250000000000000));
#1097=DIRECTION('',(1.0,0.0,0.0));
#1098=DIRECTION('',(0.0,1.0,0.0));
#1099=AXIS2_PLACEMENT_3D('',#1096,#1097,#1098);
#1100=CYLINDRICAL_SURFACE('',#1099,1.260000000000000);
#1101=CARTESIAN_POINT('',(2.349999999999999,1.260000000000000,1.250000000000000));
#1102=VERTEX_POINT('',#1101);
#1103=CARTESIAN_POINT('',(1.949999999999999,1.260000000000000,1.250000000000000));
#1104=VERTEX_POINT('',#1103);
#1105=CARTESIAN_POINT('',(2.349999999999999,1.260000000000000,1.250000000000000));
#1106=DIRECTION('',(-1.0,0.0,0.0));
#1107=VECTOR('',#1106,0.400000000000000);
#1108=LINE('',#1105,#1107);
#1109=EDGE_CURVE('',#1102,#1104,#1108,.T.);
#1110=ORIENTED_EDGE('',*,*,#1109,.F.);
#1111=CARTESIAN_POINT('',(2.350000000000000,-1.260000000000000,1.250000000000000));
#1112=VERTEX_POINT('',#1111);
#1113=CARTESIAN_POINT('',(2.349999999999999,-1.161896E-016,1.250000000000000));
#1114=DIRECTION('',(-1.0,0.0,0.0));
#1115=DIRECTION('',(0.0,1.0,0.0));
#1116=AXIS2_PLACEMENT_3D('',#1113,#1114,#1115);
#1117=CIRCLE('',#1116,1.260000000000000);
#1118=EDGE_CURVE('',#1102,#1112,#1117,.T.);
#1119=ORIENTED_EDGE('',*,*,#1118,.T.);
#1120=CARTESIAN_POINT('',(1.949999999999999,-1.260000000000000,1.250000000000000));
#1121=VERTEX_POINT('',#1120);
#1122=CARTESIAN_POINT('',(2.350000000000000,-1.260000000000000,1.250000000000000));
#1123=DIRECTION('',(-1.0,0.0,0.0));
#1124=VECTOR('',#1123,0.400000000000001);
#1125=LINE('',#1122,#1124);
#1126=EDGE_CURVE('',#1112,#1121,#1125,.T.);
#1127=ORIENTED_EDGE('',*,*,#1126,.T.);
#1128=CARTESIAN_POINT('',(1.949999999999999,-1.161896E-016,1.250000000000000));
#1129=DIRECTION('',(1.0,0.0,0.0));
#1130=DIRECTION('',(0.0,1.0,0.0));
#1131=AXIS2_PLACEMENT_3D('',#1128,#1129,#1130);
#1132=CIRCLE('',#1131,1.260000000000000);
#1133=EDGE_CURVE('',#1121,#1104,#1132,.T.);
#1134=ORIENTED_EDGE('',*,*,#1133,.T.);
#1135=EDGE_LOOP('',(#1110,#1119,#1127,#1134));
#1136=FACE_OUTER_BOUND('',#1135,.T.);
#1137=ADVANCED_FACE('',(#1136),#1100,.T.);
#1138=CARTESIAN_POINT('',(1.949999999999999,-1.161896E-016,1.250000000000000));
#1139=DIRECTION('',(1.0,0.0,0.0));
#1140=DIRECTION('',(0.0,1.0,0.0));
#1141=AXIS2_PLACEMENT_3D('',#1138,#1139,#1140);
#1142=CYLINDRICAL_SURFACE('',#1141,1.260000000000000);
#1143=ORIENTED_EDGE('',*,*,#1109,.T.);
#1144=CARTESIAN_POINT('',(1.949999999999999,-1.161896E-016,1.250000000000000));
#1145=DIRECTION('',(1.0,0.0,0.0));
#1146=DIRECTION('',(0.0,1.0,0.0));
#1147=AXIS2_PLACEMENT_3D('',#1144,#1145,#1146);
#1148=CIRCLE('',#1147,1.260000000000000);
#1149=EDGE_CURVE('',#1104,#1121,#1148,.T.);
#1150=ORIENTED_EDGE('',*,*,#1149,.T.);
#1151=ORIENTED_EDGE('',*,*,#1126,.F.);
#1152=CARTESIAN_POINT('',(2.349999999999999,-1.161896E-016,1.250000000000000));
#1153=DIRECTION('',(-1.0,0.0,0.0));
#1154=DIRECTION('',(0.0,1.0,0.0));
#1155=AXIS2_PLACEMENT_3D('',#1152,#1153,#1154);
#1156=CIRCLE('',#1155,1.260000000000000);
#1157=EDGE_CURVE('',#1112,#1102,#1156,.T.);
#1158=ORIENTED_EDGE('',*,*,#1157,.T.);
#1159=EDGE_LOOP('',(#1143,#1150,#1151,#1158));
#1160=FACE_OUTER_BOUND('',#1159,.T.);
#1161=ADVANCED_FACE('',(#1160),#1142,.T.);
#1162=CARTESIAN_POINT('',(2.349999999999999,-1.161896E-016,1.250000000000000));
#1163=DIRECTION('',(1.0,0.0,0.0));
#1164=DIRECTION('',(0.0,0.0,-1.0));
#1165=AXIS2_PLACEMENT_3D('',#1162,#1163,#1164);
#1166=PLANE('',#1165);
#1167=ORIENTED_EDGE('',*,*,#1118,.F.);
#1168=ORIENTED_EDGE('',*,*,#1157,.F.);
#1169=EDGE_LOOP('',(#1167,#1168));
#1170=FACE_OUTER_BOUND('',#1169,.T.);
#1171=ADVANCED_FACE('',(#1170),#1166,.T.);
#1172=CARTESIAN_POINT('',(1.949999999999999,-1.161896E-016,1.250000000000000));
#1173=DIRECTION('',(1.0,0.0,0.0));
#1174=DIRECTION('',(0.0,0.0,-1.0));
#1175=AXIS2_PLACEMENT_3D('',#1172,#1173,#1174);
#1176=PLANE('',#1175);
#1177=ORIENTED_EDGE('',*,*,#1149,.F.);
#1178=ORIENTED_EDGE('',*,*,#1133,.F.);
#1179=EDGE_LOOP('',(#1177,#1178));
#1180=FACE_OUTER_BOUND('',#1179,.T.);
#1181=ADVANCED_FACE('',(#1180),#1176,.F.);
#1182=CLOSED_SHELL('',(#1137,#1161,#1171,#1181));
#1183=MANIFOLD_SOLID_BREP('C1',#1182);
#1184=STYLED_ITEM('NONE',(#998),#1183);
#1185=CARTESIAN_POINT('',(4.779999999999999,-2.311220E-016,0.750000000000000));
#1186=CARTESIAN_POINT('',(4.779999999999999,0.300000000000000,0.750000000000000));
#1187=CARTESIAN_POINT('',(5.079999999999998,0.300000000000000,0.750000000000000));
#1188=CARTESIAN_POINT('',(5.379999999999998,0.300000000000000,0.750000000000000));
#1189=CARTESIAN_POINT('',(5.379999999999998,-3.729713E-016,0.750000000000000));
#1190=CARTESIAN_POINT('',(4.779999999999999,-2.923524E-016,0.550000000000000));
#1191=CARTESIAN_POINT('',(4.779999999999999,0.300000000000000,0.550000000000000));
#1192=CARTESIAN_POINT('',(5.079999999999998,0.300000000000000,0.250000000000000));
#1193=CARTESIAN_POINT('',(5.379999999999998,0.299999999999999,-0.050000000000000));
#1194=CARTESIAN_POINT('',(5.379999999999998,-6.178925E-016,-0.050000000000000));
#1195=CARTESIAN_POINT('',(4.579999999999998,-2.744687E-016,0.550000000000000));
#1196=CARTESIAN_POINT('',(4.579999999999998,0.300000000000000,0.550000000000000));
#1197=CARTESIAN_POINT('',(4.579999999999998,0.300000000000000,0.250000000000000));
#1198=CARTESIAN_POINT('',(4.579999999999998,0.300000000000000,-0.050000000000000));
#1199=CARTESIAN_POINT('',(4.579999999999998,-5.463577E-016,-0.050000000000000));
#1200=CARTESIAN_POINT('',(4.379999999999998,-2.565850E-016,0.550000000000000));
#1201=CARTESIAN_POINT('',(4.379999999999998,0.300000000000000,0.550000000000000));
#1202=CARTESIAN_POINT('',(4.079999999999998,0.300000000000000,0.250000000000000));
#1203=CARTESIAN_POINT('',(3.779999999999999,0.300000000000000,-0.049999999999999));
#1204=CARTESIAN_POINT('',(3.779999999999999,-4.748230E-016,-0.049999999999999));
#1205=CARTESIAN_POINT('',(4.379999999999998,-1.953547E-016,0.750000000000000));
#1206=CARTESIAN_POINT('',(4.379999999999998,0.300000000000000,0.750000000000000));
#1207=CARTESIAN_POINT('',(4.079999999999998,0.300000000000000,0.750000000000000));
#1208=CARTESIAN_POINT('',(3.779999999999999,0.300000000000000,0.750000000000000));
#1209=CARTESIAN_POINT('',(3.779999999999999,-2.299017E-016,0.750000000000000));
#1210=CARTESIAN_POINT('',(4.379999999999998,-1.341243E-016,0.950000000000000));
#1211=CARTESIAN_POINT('',(4.379999999999998,0.300000000000000,0.950000000000000));
#1212=CARTESIAN_POINT('',(4.079999999999998,0.300000000000000,1.250000000000000));
#1213=CARTESIAN_POINT('',(3.779999999999999,0.300000000000000,1.550000000000000));
#1214=CARTESIAN_POINT('',(3.779999999999999,1.501958E-017,1.550000000000000));
#1215=CARTESIAN_POINT('',(4.579999999999998,-1.520080E-016,0.950000000000000));
#1216=CARTESIAN_POINT('',(4.579999999999998,0.300000000000000,0.950000000000000));
#1217=CARTESIAN_POINT('',(4.579999999999998,0.300000000000000,1.250000000000000));
#1218=CARTESIAN_POINT('',(4.579999999999998,0.300000000000000,1.550000000000000));
#1219=CARTESIAN_POINT('',(4.579999999999998,-5.651521E-017,1.550000000000000));
#1220=CARTESIAN_POINT('',(4.779999999999999,-1.698917E-016,0.950000000000000));
#1221=CARTESIAN_POINT('',(4.779999999999999,0.300000000000000,0.950000000000000));
#1222=CARTESIAN_POINT('',(5.079999999999998,0.300000000000000,1.250000000000000));
#1223=CARTESIAN_POINT('',(5.379999999999998,0.300000000000000,1.550000000000000));
#1224=CARTESIAN_POINT('',(5.379999999999998,-1.280500E-016,1.550000000000000));
#1225=CARTESIAN_POINT('',(4.779999999999999,-2.311220E-016,0.750000000000000));
#1226=CARTESIAN_POINT('',(4.779999999999999,0.300000000000000,0.750000000000000));
#1227=CARTESIAN_POINT('',(5.079999999999998,0.300000000000000,0.750000000000000));
#1228=CARTESIAN_POINT('',(5.379999999999998,0.300000000000000,0.750000000000000));
#1229=CARTESIAN_POINT('',(5.379999999999998,-3.729713E-016,0.750000000000000));
#1237=(BOUNDED_SURFACE()B_SPLINE_SURFACE(2,2,((#1185,#1190,#1195,#1200,#1205,#1210,#1215,#1220,#1225),(#1186,#1191,#1196,#1201,#1206,#1211,#1216,#1221,#1226),(#1187,#1192,#1197,#1202,#1207,#1212,#1217,#1222,#1227),(#1188,#1193,#1198,#1203,#1208,#1213,#1218,#1223,#1228),(#1189,#1194,#1199,#1204,#1209,#1214,#1219,#1224,#1229)),.UNSPECIFIED.,.F.,.T.,.U.)B_SPLINE_SURFACE_WITH_KNOTS((3,2,3),(3,2,2,2,3),(-3.141592653589794,-1.570796326794897,1.059708E-015),(0.0,1.570796326794897,3.141592653589793,4.712388980384690,6.283185307179586),.UNSPECIFIED.)GEOMETRIC_REPRESENTATION_ITEM()RATIONAL_B_SPLINE_SURFACE(((1.0,0.707106781186548,1.0,0.707106781186548,1.0,0.707106781186548,1.0,0.707106781186548,1.0),(0.707106781186544,0.499999999999998,0.707106781186544,0.499999999999998,0.707106781186544,0.499999999999998,0.707106781186544,0.499999999999998,0.707106781186544),(1.0,0.707106781186548,1.0,0.707106781186548,1.0,0.707106781186548,1.0,0.707106781186548,1.0),(0.707106781186544,0.499999999999998,0.707106781186544,0.499999999999998,0.707106781186544,0.499999999999998,0.707106781186544,0.499999999999998,0.707106781186544),(1.0,0.707106781186548,1.0,0.707106781186548,1.0,0.707106781186548,1.0,0.707106781186548,1.0)))REPRESENTATION_ITEM('')SURFACE());
#1238=CARTESIAN_POINT('',(5.379999999999998,-5.505901E-017,0.750000000000000));
#1239=VERTEX_POINT('',#1238);
#1240=CARTESIAN_POINT('',(4.579999999999998,2.613970E-016,1.550000000000000));
#1241=VERTEX_POINT('',#1240);
#1242=CARTESIAN_POINT('',(4.579999999999998,1.647577E-017,0.750000000000000));
#1243=DIRECTION('',(0.0,-1.0,0.0));
#1244=DIRECTION('',(-1.0,0.0,0.0));
#1245=AXIS2_PLACEMENT_3D('',#1242,#1243,#1244);
#1246=CIRCLE('',#1245,0.800000000000000);
#1247=EDGE_CURVE('',#1239,#1241,#1246,.T.);
#1248=ORIENTED_EDGE('',*,*,#1247,.F.);
#1249=CARTESIAN_POINT('',(5.079999999999998,0.300000000000000,0.750000000000000));
#1250=VERTEX_POINT('',#1249);
#1251=CARTESIAN_POINT('',(5.079999999999998,-2.823347E-017,0.750000000000000));
#1252=DIRECTION('',(0.0,0.0,-1.0));
#1253=DIRECTION('',(0.0,1.0,0.0));
#1254=AXIS2_PLACEMENT_3D('',#1251,#1252,#1253);
#1255=CIRCLE('',#1254,0.300000000000000);
#1256=EDGE_CURVE('',#1250,#1239,#1255,.T.);
#1257=ORIENTED_EDGE('',*,*,#1256,.F.);
#1258=CARTESIAN_POINT('',(4.779999999999999,3.533027E-017,0.750000000000000));
#1259=VERTEX_POINT('',#1258);
#1260=CARTESIAN_POINT('',(5.079999999999998,-2.823347E-017,0.750000000000000));
#1261=DIRECTION('',(0.0,0.0,-1.0));
#1262=DIRECTION('',(0.0,1.0,0.0));
#1263=AXIS2_PLACEMENT_3D('',#1260,#1261,#1262);
#1264=CIRCLE('',#1263,0.300000000000000);
#1265=EDGE_CURVE('',#1259,#1250,#1264,.T.);
#1266=ORIENTED_EDGE('',*,*,#1265,.F.);
#1267=CARTESIAN_POINT('',(4.579999999999998,1.144443E-016,0.950000000000000));
#1268=VERTEX_POINT('',#1267);
#1269=CARTESIAN_POINT('',(4.579999999999998,5.321397E-017,0.750000000000000));
#1270=DIRECTION('',(0.0,-1.0,0.0));
#1271=DIRECTION('',(-1.0,0.0,0.0));
#1272=AXIS2_PLACEMENT_3D('',#1269,#1270,#1271);
#1273=CIRCLE('',#1272,0.200000000000000);
#1274=EDGE_CURVE('',#1259,#1268,#1273,.T.);
#1275=ORIENTED_EDGE('',*,*,#1274,.T.);
#1276=CARTESIAN_POINT('',(4.579999999999998,0.300000000000000,1.250000000000000));
#1277=VERTEX_POINT('',#1276);
#1278=CARTESIAN_POINT('',(4.579999999999998,1.695516E-016,1.250000000000000));
#1279=DIRECTION('',(1.0,0.0,0.0));
#1280=DIRECTION('',(0.0,1.0,0.0));
#1281=AXIS2_PLACEMENT_3D('',#1278,#1279,#1280);
#1282=CIRCLE('',#1281,0.300000000000000);
#1283=EDGE_CURVE('',#1268,#1277,#1282,.T.);
#1284=ORIENTED_EDGE('',*,*,#1283,.T.);
#1285=CARTESIAN_POINT('',(4.579999999999998,1.695516E-016,1.250000000000000));
#1286=DIRECTION('',(1.0,0.0,0.0));
#1287=DIRECTION('',(0.0,1.0,0.0));
#1288=AXIS2_PLACEMENT_3D('',#1285,#1286,#1287);
#1289=CIRCLE('',#1288,0.300000000000000);
#1290=EDGE_CURVE('',#1277,#1241,#1289,.T.);
#1291=ORIENTED_EDGE('',*,*,#1290,.T.);
#1292=EDGE_LOOP('',(#1248,#1257,#1266,#1275,#1284,#1291));
#1293=FACE_OUTER_BOUND('',#1292,.T.);
#1294=ADVANCED_FACE('',(#1293),#1237,.T.);
#1295=CARTESIAN_POINT('',(3.149999999999999,-0.300000000000000,1.250000000000001));
#1296=CARTESIAN_POINT('',(4.579999999999998,-0.300000000000000,1.250000000000001));
#1297=CARTESIAN_POINT('',(3.149999999999999,-0.299999999999999,1.550000000000001));
#1298=CARTESIAN_POINT('',(4.579999999999998,-0.300000000000000,1.550000000000001));
#1299=CARTESIAN_POINT('',(3.149999999999999,5.194646E-016,1.550000000000001));
#1300=CARTESIAN_POINT('',(4.579999999999998,3.915962E-016,1.550000000000001));
#1301=CARTESIAN_POINT('',(3.149999999999999,0.300000000000000,1.550000000000001));
#1302=CARTESIAN_POINT('',(4.579999999999998,0.300000000000000,1.550000000000000));
#1303=CARTESIAN_POINT('',(3.149999999999999,0.300000000000000,1.250000000000000));
#1304=CARTESIAN_POINT('',(4.579999999999998,0.300000000000000,1.250000000000000));
#1305=CARTESIAN_POINT('',(3.149999999999999,0.300000000000000,0.950000000000001));
#1306=CARTESIAN_POINT('',(4.579999999999998,0.300000000000000,0.950000000000000));
#1307=CARTESIAN_POINT('',(3.149999999999999,7.537539E-017,0.950000000000001));
#1308=CARTESIAN_POINT('',(4.579999999999998,-5.249304E-017,0.950000000000000));
#1309=CARTESIAN_POINT('',(3.149999999999999,-0.300000000000000,0.950000000000001));
#1310=CARTESIAN_POINT('',(4.579999999999998,-0.300000000000000,0.950000000000001));
#1311=CARTESIAN_POINT('',(3.149999999999999,-0.300000000000000,1.250000000000001));
#1312=CARTESIAN_POINT('',(4.579999999999998,-0.300000000000000,1.250000000000001));
#1320=(BOUNDED_SURFACE()B_SPLINE_SURFACE(1,2,((#1295,#1297,#1299,#1301,#1303,#1305,#1307,#1309,#1311),(#1296,#1298,#1300,#1302,#1304,#1306,#1308,#1310,#1312)),.UNSPECIFIED.,.F.,.T.,.U.)B_SPLINE_SURFACE_WITH_KNOTS((2,2),(3,2,2,2,3),(0.0,4.766666666666666),(0.0,0.471238898038469,0.942477796076938,1.413716694115407,1.884955592153876),.UNSPECIFIED.)GEOMETRIC_REPRESENTATION_ITEM()RATIONAL_B_SPLINE_SURFACE(((1.0,0.707106781186548,1.0,0.707106781186548,1.0,0.707106781186548,1.0,0.707106781186548,1.0),(1.0,0.707106781186548,1.0,0.707106781186548,1.0,0.707106781186548,1.0,0.707106781186548,1.0)))REPRESENTATION_ITEM('')SURFACE());
#1321=CARTESIAN_POINT('',(3.149999999999999,0.300000000000000,1.250000000000000));
#1322=VERTEX_POINT('',#1321);
#1323=CARTESIAN_POINT('',(4.579999999999998,0.300000000000000,1.250000000000000));
#1324=DIRECTION('',(-1.0,0.0,0.0));
#1325=VECTOR('',#1324,1.429999999999999);
#1326=LINE('',#1323,#1325);
#1327=EDGE_CURVE('',#1277,#1322,#1326,.T.);
#1328=ORIENTED_EDGE('',*,*,#1327,.F.);
#1329=ORIENTED_EDGE('',*,*,#1283,.F.);
#1330=CARTESIAN_POINT('',(4.579999999999998,-0.300000000000000,1.250000000000001));
#1331=VERTEX_POINT('',#1330);
#1332=CARTESIAN_POINT('',(4.579999999999998,1.695516E-016,1.250000000000000));
#1333=DIRECTION('',(1.0,0.0,0.0));
#1334=DIRECTION('',(0.0,1.0,0.0));
#1335=AXIS2_PLACEMENT_3D('',#1332,#1333,#1334);
#1336=CIRCLE('',#1335,0.300000000000000);
#1337=EDGE_CURVE('',#1331,#1268,#1336,.T.);
#1338=ORIENTED_EDGE('',*,*,#1337,.F.);
#1339=CARTESIAN_POINT('',(3.149999999999999,-0.300000000000000,1.250000000000001));
#1340=VERTEX_POINT('',#1339);
#1341=CARTESIAN_POINT('',(4.579999999999998,-0.300000000000000,1.250000000000001));
#1342=DIRECTION('',(-1.0,0.0,0.0));
#1343=VECTOR('',#1342,1.429999999999999);
#1344=LINE('',#1341,#1343);
#1345=EDGE_CURVE('',#1331,#1340,#1344,.T.);
#1346=ORIENTED_EDGE('',*,*,#1345,.T.);
#1347=CARTESIAN_POINT('',(3.149999999999999,2.974200E-016,1.250000000000001));
#1348=DIRECTION('',(1.0,0.0,0.0));
#1349=DIRECTION('',(0.0,1.0,0.0));
#1350=AXIS2_PLACEMENT_3D('',#1347,#1348,#1349);
#1351=CIRCLE('',#1350,0.300000000000000);
#1352=EDGE_CURVE('',#1340,#1322,#1351,.T.);
#1353=ORIENTED_EDGE('',*,*,#1352,.T.);
#1354=EDGE_LOOP('',(#1328,#1329,#1338,#1346,#1353));
#1355=FACE_OUTER_BOUND('',#1354,.T.);
#1356=ADVANCED_FACE('',(#1355),#1320,.T.);
#1357=CARTESIAN_POINT('',(5.079999999999998,-0.300000000000000,0.750000000000000));
#1358=CARTESIAN_POINT('',(5.079999999999998,-0.300000000000001,-3.200000000000001));
#1359=CARTESIAN_POINT('',(5.379999999999998,-0.300000000000000,0.750000000000000));
#1360=CARTESIAN_POINT('',(5.379999999999998,-0.300000000000001,-3.200000000000001));
#1361=CARTESIAN_POINT('',(5.379999999999998,-2.823347E-017,0.750000000000000));
#1362=CARTESIAN_POINT('',(5.379999999999998,-1.237532E-015,-3.200000000000001));
#1363=CARTESIAN_POINT('',(5.379999999999998,0.300000000000000,0.750000000000000));
#1364=CARTESIAN_POINT('',(5.379999999999998,0.299999999999999,-3.200000000000001));
#1365=CARTESIAN_POINT('',(5.079999999999998,0.300000000000000,0.750000000000000));
#1366=CARTESIAN_POINT('',(5.079999999999998,0.299999999999999,-3.200000000000001));
#1367=CARTESIAN_POINT('',(4.779999999999999,0.300000000000000,0.750000000000000));
#1368=CARTESIAN_POINT('',(4.779999999999999,0.299999999999999,-3.200000000000001));
#1369=CARTESIAN_POINT('',(4.779999999999999,-2.823347E-017,0.750000000000000));
#1370=CARTESIAN_POINT('',(4.779999999999999,-1.237532E-015,-3.200000000000001));
#1371=CARTESIAN_POINT('',(4.779999999999999,-0.300000000000000,0.750000000000000));
#1372=CARTESIAN_POINT('',(4.779999999999999,-0.300000000000001,-3.200000000000001));
#1373=CARTESIAN_POINT('',(5.079999999999998,-0.300000000000000,0.750000000000000));
#1374=CARTESIAN_POINT('',(5.079999999999998,-0.300000000000001,-3.200000000000001));
#1382=(BOUNDED_SURFACE()B_SPLINE_SURFACE(1,2,((#1357,#1359,#1361,#1363,#1365,#1367,#1369,#1371,#1373),(#1358,#1360,#1362,#1364,#1366,#1368,#1370,#1372,#1374)),.UNSPECIFIED.,.F.,.T.,.U.)B_SPLINE_SURFACE_WITH_KNOTS((2,2),(3,2,2,2,3),(-7.401487E-016,13.166666666666671),(0.0,0.471238898038469,0.942477796076938,1.413716694115407,1.884955592153876),.UNSPECIFIED.)GEOMETRIC_REPRESENTATION_ITEM()RATIONAL_B_SPLINE_SURFACE(((1.0,0.707106781186548,1.0,0.707106781186548,1.0,0.707106781186548,1.0,0.707106781186548,1.0),(1.0,0.707106781186548,1.0,0.707106781186548,1.0,0.707106781186548,1.0,0.707106781186548,1.0)))REPRESENTATION_ITEM('')SURFACE());
#1383=CARTESIAN_POINT('',(5.079999999999998,0.299999999999999,-3.200000000000001));
#1384=VERTEX_POINT('',#1383);
#1385=CARTESIAN_POINT('',(5.079999999999998,0.299999999999999,-3.200000000000001));
#1386=DIRECTION('',(0.0,0.0,1.0));
#1387=VECTOR('',#1386,3.950000000000001);
#1388=LINE('',#1385,#1387);
#1389=EDGE_CURVE('',#1384,#1250,#1388,.T.);
#1390=ORIENTED_EDGE('',*,*,#1389,.F.);
#1391=CARTESIAN_POINT('',(5.079999999999998,-0.300000000000001,-3.200000000000001));
#1392=VERTEX_POINT('',#1391);
#1393=CARTESIAN_POINT('',(5.079999999999998,-1.237532E-015,-3.200000000000001));
#1394=DIRECTION('',(0.0,0.0,-1.0));
#1395=DIRECTION('',(0.0,1.0,0.0));
#1396=AXIS2_PLACEMENT_3D('',#1393,#1394,#1395);
#1397=CIRCLE('',#1396,0.300000000000000);
#1398=EDGE_CURVE('',#1392,#1384,#1397,.T.);
#1399=ORIENTED_EDGE('',*,*,#1398,.F.);
#1400=CARTESIAN_POINT('',(5.079999999999998,-0.300000000000000,0.750000000000000));
#1401=VERTEX_POINT('',#1400);
#1402=CARTESIAN_POINT('',(5.079999999999998,-0.300000000000001,-3.200000000000001));
#1403=DIRECTION('',(0.0,0.0,1.0));
#1404=VECTOR('',#1403,3.950000000000001);
#1405=LINE('',#1402,#1404);
#1406=EDGE_CURVE('',#1392,#1401,#1405,.T.);
#1407=ORIENTED_EDGE('',*,*,#1406,.T.);
#1408=CARTESIAN_POINT('',(5.079999999999998,-2.823347E-017,0.750000000000000));
#1409=DIRECTION('',(0.0,0.0,-1.0));
#1410=DIRECTION('',(0.0,1.0,0.0));
#1411=AXIS2_PLACEMENT_3D('',#1408,#1409,#1410);
#1412=CIRCLE('',#1411,0.300000000000000);
#1413=EDGE_CURVE('',#1401,#1259,#1412,.T.);
#1414=ORIENTED_EDGE('',*,*,#1413,.T.);
#1415=ORIENTED_EDGE('',*,*,#1265,.T.);
#1416=EDGE_LOOP('',(#1390,#1399,#1407,#1414,#1415));
#1417=FACE_OUTER_BOUND('',#1416,.T.);
#1418=ADVANCED_FACE('',(#1417),#1382,.T.);
#1419=CARTESIAN_POINT('',(5.079999999999998,-0.300000000000000,0.750000000000000));
#1420=CARTESIAN_POINT('',(5.079999999999998,-0.300000000000001,-3.200000000000001));
#1421=CARTESIAN_POINT('',(5.379999999999998,-0.300000000000000,0.750000000000000));
#1422=CARTESIAN_POINT('',(5.379999999999998,-0.300000000000001,-3.200000000000001));
#1423=CARTESIAN_POINT('',(5.379999999999998,-2.823347E-017,0.750000000000000));
#1424=CARTESIAN_POINT('',(5.379999999999998,-1.237532E-015,-3.200000000000001));
#1425=CARTESIAN_POINT('',(5.379999999999998,0.300000000000000,0.750000000000000));
#1426=CARTESIAN_POINT('',(5.379999999999998,0.299999999999999,-3.200000000000001));
#1427=CARTESIAN_POINT('',(5.079999999999998,0.300000000000000,0.750000000000000));
#1428=CARTESIAN_POINT('',(5.079999999999998,0.299999999999999,-3.200000000000001));
#1429=CARTESIAN_POINT('',(4.779999999999999,0.300000000000000,0.750000000000000));
#1430=CARTESIAN_POINT('',(4.779999999999999,0.299999999999999,-3.200000000000001));
#1431=CARTESIAN_POINT('',(4.779999999999999,-2.823347E-017,0.750000000000000));
#1432=CARTESIAN_POINT('',(4.779999999999999,-1.237532E-015,-3.200000000000001));
#1433=CARTESIAN_POINT('',(4.779999999999999,-0.300000000000000,0.750000000000000));
#1434=CARTESIAN_POINT('',(4.779999999999999,-0.300000000000001,-3.200000000000001));
#1435=CARTESIAN_POINT('',(5.079999999999998,-0.300000000000000,0.750000000000000));
#1436=CARTESIAN_POINT('',(5.079999999999998,-0.300000000000001,-3.200000000000001));
#1444=(BOUNDED_SURFACE()B_SPLINE_SURFACE(1,2,((#1419,#1421,#1423,#1425,#1427,#1429,#1431,#1433,#1435),(#1420,#1422,#1424,#1426,#1428,#1430,#1432,#1434,#1436)),.UNSPECIFIED.,.F.,.T.,.U.)B_SPLINE_SURFACE_WITH_KNOTS((2,2),(3,2,2,2,3),(-7.401487E-016,13.166666666666671),(0.0,0.471238898038469,0.942477796076938,1.413716694115407,1.884955592153876),.UNSPECIFIED.)GEOMETRIC_REPRESENTATION_ITEM()RATIONAL_B_SPLINE_SURFACE(((1.0,0.707106781186548,1.0,0.707106781186548,1.0,0.707106781186548,1.0,0.707106781186548,1.0),(1.0,0.707106781186548,1.0,0.707106781186548,1.0,0.707106781186548,1.0,0.707106781186548,1.0)))REPRESENTATION_ITEM('')SURFACE());
#1445=ORIENTED_EDGE('',*,*,#1389,.T.);
#1446=ORIENTED_EDGE('',*,*,#1256,.T.);
#1447=CARTESIAN_POINT('',(5.079999999999998,-2.823347E-017,0.750000000000000));
#1448=DIRECTION('',(0.0,0.0,-1.0));
#1449=DIRECTION('',(0.0,1.0,0.0));
#1450=AXIS2_PLACEMENT_3D('',#1447,#1448,#1449);
#1451=CIRCLE('',#1450,0.300000000000000);
#1452=EDGE_CURVE('',#1239,#1401,#1451,.T.);
#1453=ORIENTED_EDGE('',*,*,#1452,.T.);
#1454=ORIENTED_EDGE('',*,*,#1406,.F.);
#1455=CARTESIAN_POINT('',(5.079999999999998,-1.237532E-015,-3.200000000000001));
#1456=DIRECTION('',(0.0,0.0,-1.0));
#1457=DIRECTION('',(0.0,1.0,0.0));
#1458=AXIS2_PLACEMENT_3D('',#1455,#1456,#1457);
#1459=CIRCLE('',#1458,0.300000000000000);
#1460=EDGE_CURVE('',#1384,#1392,#1459,.T.);
#1461=ORIENTED_EDGE('',*,*,#1460,.F.);
#1462=EDGE_LOOP('',(#1445,#1446,#1453,#1454,#1461));
#1463=FACE_OUTER_BOUND('',#1462,.T.);
#1464=ADVANCED_FACE('',(#1463),#1444,.T.);
#1465=CARTESIAN_POINT('',(5.379999999999998,2.797661E-016,0.750000000000000));
#1466=CARTESIAN_POINT('',(5.379999999999998,-0.300000000000000,0.750000000000000));
#1467=CARTESIAN_POINT('',(5.079999999999998,-0.300000000000000,0.750000000000000));
#1468=CARTESIAN_POINT('',(4.779999999999999,-0.300000000000000,0.750000000000000));
#1469=CARTESIAN_POINT('',(4.779999999999999,3.615330E-016,0.750000000000000));
#1470=CARTESIAN_POINT('',(5.379999999999998,3.484487E-017,-0.050000000000000));
#1471=CARTESIAN_POINT('',(5.379999999999998,-0.300000000000000,-0.049999999999999));
#1472=CARTESIAN_POINT('',(5.079999999999998,-0.300000000000000,0.250000000000000));
#1473=CARTESIAN_POINT('',(4.779999999999999,-0.300000000000000,0.550000000000000));
#1474=CARTESIAN_POINT('',(4.779999999999999,3.003026E-016,0.550000000000000));
#1475=CARTESIAN_POINT('',(4.579999999999998,1.063797E-016,-0.050000000000000));
#1476=CARTESIAN_POINT('',(4.579999999999998,-0.300000000000000,-0.049999999999999));
#1477=CARTESIAN_POINT('',(4.579999999999998,-0.300000000000000,0.250000000000000));
#1478=CARTESIAN_POINT('',(4.579999999999998,-0.300000000000000,0.550000000000000));
#1479=CARTESIAN_POINT('',(4.579999999999998,3.181863E-016,0.550000000000000));
#1480=CARTESIAN_POINT('',(3.779999999999999,1.779144E-016,-0.049999999999999));
#1481=CARTESIAN_POINT('',(3.779999999999999,-0.300000000000000,-0.049999999999999));
#1482=CARTESIAN_POINT('',(4.079999999999998,-0.300000000000000,0.250000000000001));
#1483=CARTESIAN_POINT('',(4.379999999999998,-0.300000000000000,0.550000000000000));
#1484=CARTESIAN_POINT('',(4.379999999999998,3.360700E-016,0.550000000000000));
#1485=CARTESIAN_POINT('',(3.779999999999999,4.228357E-016,0.750000000000000));
#1486=CARTESIAN_POINT('',(3.779999999999999,-0.300000000000000,0.750000000000001));
#1487=CARTESIAN_POINT('',(4.079999999999998,-0.300000000000000,0.750000000000000));
#1488=CARTESIAN_POINT('',(4.379999999999998,-0.300000000000000,0.750000000000000));
#1489=CARTESIAN_POINT('',(4.379999999999998,3.973004E-016,0.750000000000000));
#1490=CARTESIAN_POINT('',(3.779999999999999,6.677570E-016,1.550000000000000));
#1491=CARTESIAN_POINT('',(3.779999999999999,-0.300000000000000,1.550000000000000));
#1492=CARTESIAN_POINT('',(4.079999999999998,-0.300000000000000,1.250000000000000));
#1493=CARTESIAN_POINT('',(4.379999999999998,-0.300000000000000,0.950000000000000));
#1494=CARTESIAN_POINT('',(4.379999999999998,4.585307E-016,0.950000000000000));
#1495=CARTESIAN_POINT('',(4.579999999999998,5.962222E-016,1.550000000000000));
#1496=CARTESIAN_POINT('',(4.579999999999998,-0.300000000000000,1.550000000000000));
#1497=CARTESIAN_POINT('',(4.579999999999998,-0.300000000000000,1.250000000000000));
#1498=CARTESIAN_POINT('',(4.579999999999998,-0.300000000000000,0.950000000000001));
#1499=CARTESIAN_POINT('',(4.579999999999998,4.406470E-016,0.950000000000000));
#1500=CARTESIAN_POINT('',(5.379999999999998,5.246874E-016,1.550000000000000));
#1501=CARTESIAN_POINT('',(5.379999999999998,-0.300000000000000,1.550000000000000));
#1502=CARTESIAN_POINT('',(5.079999999999998,-0.300000000000000,1.250000000000000));
#1503=CARTESIAN_POINT('',(4.779999999999999,-0.300000000000000,0.950000000000000));
#1504=CARTESIAN_POINT('',(4.779999999999999,4.227633E-016,0.950000000000000));
#1505=CARTESIAN_POINT('',(5.379999999999998,2.797661E-016,0.750000000000000));
#1506=CARTESIAN_POINT('',(5.379999999999998,-0.300000000000000,0.750000000000000));
#1507=CARTESIAN_POINT('',(5.079999999999998,-0.300000000000000,0.750000000000000));
#1508=CARTESIAN_POINT('',(4.779999999999999,-0.300000000000000,0.750000000000000));
#1509=CARTESIAN_POINT('',(4.779999999999999,3.615330E-016,0.750000000000000));
#1517=(BOUNDED_SURFACE()B_SPLINE_SURFACE(2,2,((#1465,#1470,#1475,#1480,#1485,#1490,#1495,#1500,#1505),(#1466,#1471,#1476,#1481,#1486,#1491,#1496,#1501,#1506),(#1467,#1472,#1477,#1482,#1487,#1492,#1497,#1502,#1507),(#1468,#1473,#1478,#1483,#1488,#1493,#1498,#1503,#1508),(#1469,#1474,#1479,#1484,#1489,#1494,#1499,#1504,#1509)),.UNSPECIFIED.,.F.,.T.,.U.)B_SPLINE_SURFACE_WITH_KNOTS((3,2,3),(3,2,2,2,3),(-1.116084E-015,1.570796326794897,3.141592653589794),(0.0,1.570796326794897,3.141592653589793,4.712388980384690,6.283185307179586),.UNSPECIFIED.)GEOMETRIC_REPRESENTATION_ITEM()RATIONAL_B_SPLINE_SURFACE(((1.0,0.707106781186548,1.0,0.707106781186548,1.0,0.707106781186548,1.0,0.707106781186548,1.0),(0.707106781186544,0.499999999999998,0.707106781186544,0.499999999999998,0.707106781186544,0.499999999999998,0.707106781186544,0.499999999999998,0.707106781186544),(1.0,0.707106781186548,1.0,0.707106781186548,1.0,0.707106781186548,1.0,0.707106781186548,1.0),(0.707106781186552,0.500000000000003,0.707106781186552,0.500000000000003,0.707106781186552,0.500000000000003,0.707106781186552,0.500000000000003,0.707106781186552),(1.0,0.707106781186548,1.0,0.707106781186548,1.0,0.707106781186548,1.0,0.707106781186548,1.0)))REPRESENTATION_ITEM('')SURFACE());
#1518=ORIENTED_EDGE('',*,*,#1247,.T.);
#1519=CARTESIAN_POINT('',(4.579999999999998,1.695516E-016,1.250000000000000));
#1520=DIRECTION('',(1.0,0.0,0.0));
#1521=DIRECTION('',(0.0,1.0,0.0));
#1522=AXIS2_PLACEMENT_3D('',#1519,#1520,#1521);
#1523=CIRCLE('',#1522,0.300000000000000);
#1524=EDGE_CURVE('',#1241,#1331,#1523,.T.);
#1525=ORIENTED_EDGE('',*,*,#1524,.T.);
#1526=ORIENTED_EDGE('',*,*,#1337,.T.);
#1527=ORIENTED_EDGE('',*,*,#1274,.F.);
#1528=ORIENTED_EDGE('',*,*,#1413,.F.);
#1529=ORIENTED_EDGE('',*,*,#1452,.F.);
#1530=EDGE_LOOP('',(#1518,#1525,#1526,#1527,#1528,#1529));
#1531=FACE_OUTER_BOUND('',#1530,.T.);
#1532=ADVANCED_FACE('',(#1531),#1517,.T.);
#1533=CARTESIAN_POINT('',(3.149999999999999,-0.300000000000000,1.250000000000001));
#1534=CARTESIAN_POINT('',(4.579999999999998,-0.300000000000000,1.250000000000001));
#1535=CARTESIAN_POINT('',(3.149999999999999,-0.299999999999999,1.550000000000001));
#1536=CARTESIAN_POINT('',(4.579999999999998,-0.300000000000000,1.550000000000001));
#1537=CARTESIAN_POINT('',(3.149999999999999,5.194646E-016,1.550000000000001));
#1538=CARTESIAN_POINT('',(4.579999999999998,3.915962E-016,1.550000000000001));
#1539=CARTESIAN_POINT('',(3.149999999999999,0.300000000000000,1.550000000000001));
#1540=CARTESIAN_POINT('',(4.579999999999998,0.300000000000000,1.550000000000000));
#1541=CARTESIAN_POINT('',(3.149999999999999,0.300000000000000,1.250000000000000));
#1542=CARTESIAN_POINT('',(4.579999999999998,0.300000000000000,1.250000000000000));
#1543=CARTESIAN_POINT('',(3.149999999999999,0.300000000000000,0.950000000000001));
#1544=CARTESIAN_POINT('',(4.579999999999998,0.300000000000000,0.950000000000000));
#1545=CARTESIAN_POINT('',(3.149999999999999,7.537539E-017,0.950000000000001));
#1546=CARTESIAN_POINT('',(4.579999999999998,-5.249304E-017,0.950000000000000));
#1547=CARTESIAN_POINT('',(3.149999999999999,-0.300000000000000,0.950000000000001));
#1548=CARTESIAN_POINT('',(4.579999999999998,-0.300000000000000,0.950000000000001));
#1549=CARTESIAN_POINT('',(3.149999999999999,-0.300000000000000,1.250000000000001));
#1550=CARTESIAN_POINT('',(4.579999999999998,-0.300000000000000,1.250000000000001));
#1558=(BOUNDED_SURFACE()B_SPLINE_SURFACE(1,2,((#1533,#1535,#1537,#1539,#1541,#1543,#1545,#1547,#1549),(#1534,#1536,#1538,#1540,#1542,#1544,#1546,#1548,#1550)),.UNSPECIFIED.,.F.,.T.,.U.)B_SPLINE_SURFACE_WITH_KNOTS((2,2),(3,2,2,2,3),(0.0,4.766666666666666),(0.0,0.471238898038469,0.942477796076938,1.413716694115407,1.884955592153876),.UNSPECIFIED.)GEOMETRIC_REPRESENTATION_ITEM()RATIONAL_B_SPLINE_SURFACE(((1.0,0.707106781186548,1.0,0.707106781186548,1.0,0.707106781186548,1.0,0.707106781186548,1.0),(1.0,0.707106781186548,1.0,0.707106781186548,1.0,0.707106781186548,1.0,0.707106781186548,1.0)))REPRESENTATION_ITEM('')SURFACE());
#1559=ORIENTED_EDGE('',*,*,#1327,.T.);
#1560=CARTESIAN_POINT('',(3.149999999999999,2.974200E-016,1.250000000000001));
#1561=DIRECTION('',(1.0,0.0,0.0));
#1562=DIRECTION('',(0.0,1.0,0.0));
#1563=AXIS2_PLACEMENT_3D('',#1560,#1561,#1562);
#1564=CIRCLE('',#1563,0.300000000000000);
#1565=EDGE_CURVE('',#1322,#1340,#1564,.T.);
#1566=ORIENTED_EDGE('',*,*,#1565,.T.);
#1567=ORIENTED_EDGE('',*,*,#1345,.F.);
#1568=ORIENTED_EDGE('',*,*,#1524,.F.);
#1569=ORIENTED_EDGE('',*,*,#1290,.F.);
#1570=EDGE_LOOP('',(#1559,#1566,#1567,#1568,#1569));
#1571=FACE_OUTER_BOUND('',#1570,.T.);
#1572=ADVANCED_FACE('',(#1571),#1558,.T.);
#1573=CARTESIAN_POINT('',(5.379999999999998,0.299999999999999,-3.200000000000001));
#1574=CARTESIAN_POINT('',(4.779999999999999,0.299999999999999,-3.200000000000001));
#1575=CARTESIAN_POINT('',(5.379999999999998,-0.300000000000001,-3.200000000000001));
#1576=CARTESIAN_POINT('',(4.779999999999999,-0.300000000000001,-3.200000000000001));
#1577=B_SPLINE_SURFACE_WITH_KNOTS('',1,1,((#1573,#1575),(#1574,#1576)),.UNSPECIFIED.,.F.,.F.,.U.,(2,2),(2,2),(0.0,0.600000000000000),(0.0,0.600000000000000),.UNSPECIFIED.);
#1578=ORIENTED_EDGE('',*,*,#1460,.T.);
#1579=ORIENTED_EDGE('',*,*,#1398,.T.);
#1580=EDGE_LOOP('',(#1578,#1579));
#1581=FACE_OUTER_BOUND('',#1580,.T.);
#1582=ADVANCED_FACE('',(#1581),#1577,.F.);
#1583=CARTESIAN_POINT('',(3.149999999999999,-0.300000000000000,1.550000000000001));
#1584=CARTESIAN_POINT('',(3.149999999999999,0.300000000000000,1.550000000000001));
#1585=CARTESIAN_POINT('',(3.149999999999999,-0.300000000000000,0.950000000000001));
#1586=CARTESIAN_POINT('',(3.149999999999999,0.300000000000000,0.950000000000000));
#1587=B_SPLINE_SURFACE_WITH_KNOTS('',1,1,((#1583,#1585),(#1584,#1586)),.UNSPECIFIED.,.F.,.F.,.U.,(2,2),(2,2),(0.0,0.600000000000000),(0.0,0.600000000000000),.UNSPECIFIED.);
#1588=ORIENTED_EDGE('',*,*,#1565,.F.);
#1589=ORIENTED_EDGE('',*,*,#1352,.F.);
#1590=EDGE_LOOP('',(#1588,#1589));
#1591=FACE_OUTER_BOUND('',#1590,.T.);
#1592=ADVANCED_FACE('',(#1591),#1587,.T.);
#1593=CLOSED_SHELL('',(#1294,#1356,#1418,#1464,#1532,#1572,#1582,#1592));
#1594=MANIFOLD_SOLID_BREP('A7',#1593);
#1595=COLOUR_RGB('9',0.750000000000000,0.750000000000000,0.750000000000000);
#1596=SURFACE_STYLE_USAGE(.BOTH.,#1597);
#1597=SURFACE_SIDE_STYLE('NONE',(#1598));
#1598=SURFACE_STYLE_FILL_AREA(#1599);
#1599=FILL_AREA_STYLE('NONE',(#1600));
#1600=FILL_AREA_STYLE_COLOUR('NONE',#1595);
#1601=PRESENTATION_STYLE_ASSIGNMENT((#1596));
#1602=STYLED_ITEM('NONE',(#1601),#1594);
#1603=CARTESIAN_POINT('',(-4.580000000000000,9.951304E-016,0.750000000000002));
#1604=DIRECTION('',(-6.123032E-017,-1.0,3.061516E-016));
#1605=DIRECTION('',(1.0,0.0,0.0));
#1606=AXIS2_PLACEMENT_3D('',#1603,#1604,#1605);
#1607=TOROIDAL_SURFACE('',#1606,0.500000000000000,0.300000000000000);
#1608=CARTESIAN_POINT('',(-5.380000000000000,1.044115E-015,0.750000000000002));
#1609=VERTEX_POINT('',#1608);
#1610=CARTESIAN_POINT('',(-4.580000000000000,1.240052E-015,1.550000000000002));
#1611=VERTEX_POINT('',#1610);
#1612=CARTESIAN_POINT('',(-4.580000000000000,9.951304E-016,0.750000000000002));
#1613=DIRECTION('',(0.0,1.0,0.0));
#1614=DIRECTION('',(1.0,0.0,0.0));
#1615=AXIS2_PLACEMENT_3D('',#1612,#1613,#1614);
#1616=CIRCLE('',#1615,0.800000000000000);
#1617=EDGE_CURVE('',#1609,#1611,#1616,.T.);
#1618=ORIENTED_EDGE('',*,*,#1617,.F.);
#1619=CARTESIAN_POINT('',(-5.080000000000000,-0.299999999999999,0.750000000000002));
#1620=VERTEX_POINT('',#1619);
#1621=CARTESIAN_POINT('',(-5.080000000000000,1.025746E-015,0.750000000000002));
#1622=DIRECTION('',(0.0,0.0,1.0));
#1623=DIRECTION('',(0.0,1.0,0.0));
#1624=AXIS2_PLACEMENT_3D('',#1621,#1622,#1623);
#1625=CIRCLE('',#1624,0.300000000000000);
#1626=EDGE_CURVE('',#1609,#1620,#1625,.T.);
#1627=ORIENTED_EDGE('',*,*,#1626,.T.);
#1628=CARTESIAN_POINT('',(-4.780000000000000,1.044115E-015,0.750000000000002));
#1629=VERTEX_POINT('',#1628);
#1630=CARTESIAN_POINT('',(-5.080000000000000,1.025746E-015,0.750000000000002));
#1631=DIRECTION('',(0.0,0.0,1.0));
#1632=DIRECTION('',(0.0,1.0,0.0));
#1633=AXIS2_PLACEMENT_3D('',#1630,#1631,#1632);
#1634=CIRCLE('',#1633,0.300000000000000);
#1635=EDGE_CURVE('',#1620,#1629,#1634,.T.);
#1636=ORIENTED_EDGE('',*,*,#1635,.T.);
#1637=CARTESIAN_POINT('',(-4.580000000000000,1.093099E-015,0.950000000000002));
#1638=VERTEX_POINT('',#1637);
#1639=CARTESIAN_POINT('',(-4.580000000000000,1.031869E-015,0.750000000000002));
#1640=DIRECTION('',(0.0,1.0,0.0));
#1641=DIRECTION('',(1.0,0.0,0.0));
#1642=AXIS2_PLACEMENT_3D('',#1639,#1640,#1641);
#1643=CIRCLE('',#1642,0.200000000000000);
#1644=EDGE_CURVE('',#1629,#1638,#1643,.T.);
#1645=ORIENTED_EDGE('',*,*,#1644,.T.);
#1646=CARTESIAN_POINT('',(-4.579999999999999,-0.299999999999999,1.250000000000002));
#1647=VERTEX_POINT('',#1646);
#1648=CARTESIAN_POINT('',(-4.579999999999999,1.148206E-015,1.250000000000002));
#1649=DIRECTION('',(1.0,0.0,0.0));
#1650=DIRECTION('',(0.0,1.0,0.0));
#1651=AXIS2_PLACEMENT_3D('',#1648,#1649,#1650);
#1652=CIRCLE('',#1651,0.300000000000000);
#1653=EDGE_CURVE('',#1647,#1638,#1652,.T.);
#1654=ORIENTED_EDGE('',*,*,#1653,.F.);
#1655=CARTESIAN_POINT('',(-4.579999999999999,1.148206E-015,1.250000000000002));
#1656=DIRECTION('',(1.0,0.0,0.0));
#1657=DIRECTION('',(0.0,1.0,0.0));
#1658=AXIS2_PLACEMENT_3D('',#1655,#1656,#1657);
#1659=CIRCLE('',#1658,0.300000000000000);
#1660=EDGE_CURVE('',#1611,#1647,#1659,.T.);
#1661=ORIENTED_EDGE('',*,*,#1660,.F.);
#1662=EDGE_LOOP('',(#1618,#1627,#1636,#1645,#1654,#1661));
#1663=FACE_OUTER_BOUND('',#1662,.T.);
#1664=ADVANCED_FACE('',(#1663),#1607,.T.);
#1665=CARTESIAN_POINT('',(-3.150000000000000,1.060647E-015,1.250000000000002));
#1666=DIRECTION('',(-1.0,6.123032E-017,2.220446E-016));
#1667=DIRECTION('',(0.0,1.0,0.0));
#1668=AXIS2_PLACEMENT_3D('',#1665,#1666,#1667);
#1669=CYLINDRICAL_SURFACE('',#1668,0.300000000000000);
#1670=CARTESIAN_POINT('',(-4.580000000000000,0.300000000000001,1.250000000000002));
#1671=VERTEX_POINT('',#1670);
#1672=CARTESIAN_POINT('',(-3.150000000000000,0.300000000000001,1.250000000000002));
#1673=VERTEX_POINT('',#1672);
#1674=CARTESIAN_POINT('',(-4.579999999999999,0.300000000000001,1.250000000000002));
#1675=DIRECTION('',(1.0,0.0,0.0));
#1676=VECTOR('',#1675,1.429999999999999);
#1677=LINE('',#1674,#1676);
#1678=EDGE_CURVE('',#1671,#1673,#1677,.T.);
#1679=ORIENTED_EDGE('',*,*,#1678,.F.);
#1680=CARTESIAN_POINT('',(-4.579999999999999,1.148206E-015,1.250000000000002));
#1681=DIRECTION('',(1.0,0.0,0.0));
#1682=DIRECTION('',(0.0,1.0,0.0));
#1683=AXIS2_PLACEMENT_3D('',#1680,#1681,#1682);
#1684=CIRCLE('',#1683,0.300000000000000);
#1685=EDGE_CURVE('',#1671,#1611,#1684,.T.);
#1686=ORIENTED_EDGE('',*,*,#1685,.T.);
#1687=ORIENTED_EDGE('',*,*,#1660,.T.);
#1688=CARTESIAN_POINT('',(-3.150000000000000,-0.299999999999999,1.250000000000002));
#1689=VERTEX_POINT('',#1688);
#1690=CARTESIAN_POINT('',(-4.579999999999999,-0.299999999999999,1.250000000000002));
#1691=DIRECTION('',(1.0,0.0,0.0));
#1692=VECTOR('',#1691,1.429999999999999);
#1693=LINE('',#1690,#1692);
#1694=EDGE_CURVE('',#1647,#1689,#1693,.T.);
#1695=ORIENTED_EDGE('',*,*,#1694,.T.);
#1696=CARTESIAN_POINT('',(-3.150000000000000,1.060647E-015,1.250000000000002));
#1697=DIRECTION('',(1.0,0.0,0.0));
#1698=DIRECTION('',(0.0,1.0,0.0));
#1699=AXIS2_PLACEMENT_3D('',#1696,#1697,#1698);
#1700=CIRCLE('',#1699,0.300000000000000);
#1701=EDGE_CURVE('',#1673,#1689,#1700,.T.);
#1702=ORIENTED_EDGE('',*,*,#1701,.F.);
#1703=EDGE_LOOP('',(#1679,#1686,#1687,#1695,#1702));
#1704=FACE_OUTER_BOUND('',#1703,.T.);
#1705=ADVANCED_FACE('',(#1704),#1669,.T.);
#1706=CARTESIAN_POINT('',(-5.080000000000000,1.025746E-015,0.750000000000002));
#1707=DIRECTION('',(-3.906861E-016,-3.061516E-016,-1.0));
#1708=DIRECTION('',(0.0,1.0,0.0));
#1709=AXIS2_PLACEMENT_3D('',#1706,#1707,#1708);
#1710=CYLINDRICAL_SURFACE('',#1709,0.300000000000000);
#1711=CARTESIAN_POINT('',(-5.080000000000001,0.300000000000000,-3.199999999999999));
#1712=VERTEX_POINT('',#1711);
#1713=CARTESIAN_POINT('',(-5.080000000000000,0.300000000000001,0.750000000000002));
#1714=VERTEX_POINT('',#1713);
#1715=CARTESIAN_POINT('',(-5.080000000000002,0.300000000000000,-3.199999999999998));
#1716=DIRECTION('',(0.0,0.0,1.0));
#1717=VECTOR('',#1716,3.950000000000001);
#1718=LINE('',#1715,#1717);
#1719=EDGE_CURVE('',#1712,#1714,#1718,.T.);
#1720=ORIENTED_EDGE('',*,*,#1719,.F.);
#1721=CARTESIAN_POINT('',(-5.080000000000002,-0.300000000000000,-3.199999999999998));
#1722=VERTEX_POINT('',#1721);
#1723=CARTESIAN_POINT('',(-5.080000000000001,-1.835532E-016,-3.199999999999998));
#1724=DIRECTION('',(0.0,0.0,1.0));
#1725=DIRECTION('',(0.0,1.0,0.0));
#1726=AXIS2_PLACEMENT_3D('',#1723,#1724,#1725);
#1727=CIRCLE('',#1726,0.300000000000000);
#1728=EDGE_CURVE('',#1712,#1722,#1727,.T.);
#1729=ORIENTED_EDGE('',*,*,#1728,.T.);
#1730=CARTESIAN_POINT('',(-5.080000000000002,-0.300000000000000,-3.199999999999998));
#1731=DIRECTION('',(0.0,0.0,1.0));
#1732=VECTOR('',#1731,3.950000000000001);
#1733=LINE('',#1730,#1732);
#1734=EDGE_CURVE('',#1722,#1620,#1733,.T.);
#1735=ORIENTED_EDGE('',*,*,#1734,.T.);
#1736=ORIENTED_EDGE('',*,*,#1626,.F.);
#1737=CARTESIAN_POINT('',(-5.080000000000000,1.025746E-015,0.750000000000002));
#1738=DIRECTION('',(0.0,0.0,1.0));
#1739=DIRECTION('',(0.0,1.0,0.0));
#1740=AXIS2_PLACEMENT_3D('',#1737,#1738,#1739);
#1741=CIRCLE('',#1740,0.300000000000000);
#1742=EDGE_CURVE('',#1714,#1609,#1741,.T.);
#1743=ORIENTED_EDGE('',*,*,#1742,.F.);
#1744=EDGE_LOOP('',(#1720,#1729,#1735,#1736,#1743));
#1745=FACE_OUTER_BOUND('',#1744,.T.);
#1746=ADVANCED_FACE('',(#1745),#1710,.T.);
#1747=CARTESIAN_POINT('',(-5.080000000000000,1.025746E-015,0.750000000000002));
#1748=DIRECTION('',(-3.906861E-016,-3.061516E-016,-1.0));
#1749=DIRECTION('',(0.0,1.0,0.0));
#1750=AXIS2_PLACEMENT_3D('',#1747,#1748,#1749);
#1751=CYLINDRICAL_SURFACE('',#1750,0.300000000000000);
#1752=ORIENTED_EDGE('',*,*,#1719,.T.);
#1753=CARTESIAN_POINT('',(-5.080000000000000,1.025746E-015,0.750000000000002));
#1754=DIRECTION('',(0.0,0.0,1.0));
#1755=DIRECTION('',(0.0,1.0,0.0));
#1756=AXIS2_PLACEMENT_3D('',#1753,#1754,#1755);
#1757=CIRCLE('',#1756,0.300000000000000);
#1758=EDGE_CURVE('',#1629,#1714,#1757,.T.);
#1759=ORIENTED_EDGE('',*,*,#1758,.F.);
#1760=ORIENTED_EDGE('',*,*,#1635,.F.);
#1761=ORIENTED_EDGE('',*,*,#1734,.F.);
#1762=CARTESIAN_POINT('',(-5.080000000000001,-1.835532E-016,-3.199999999999998));
#1763=DIRECTION('',(0.0,0.0,1.0));
#1764=DIRECTION('',(0.0,1.0,0.0));
#1765=AXIS2_PLACEMENT_3D('',#1762,#1763,#1764);
#1766=CIRCLE('',#1765,0.300000000000000);
#1767=EDGE_CURVE('',#1722,#1712,#1766,.T.);
#1768=ORIENTED_EDGE('',*,*,#1767,.T.);
#1769=EDGE_LOOP('',(#1752,#1759,#1760,#1761,#1768));
#1770=FACE_OUTER_BOUND('',#1769,.T.);
#1771=ADVANCED_FACE('',(#1770),#1751,.T.);
#1772=CARTESIAN_POINT('',(-4.580000000000000,9.951304E-016,0.750000000000002));
#1773=DIRECTION('',(-6.123032E-017,-1.0,3.061516E-016));
#1774=DIRECTION('',(1.0,0.0,0.0));
#1775=AXIS2_PLACEMENT_3D('',#1772,#1773,#1774);
#1776=TOROIDAL_SURFACE('',#1775,0.500000000000000,0.300000000000000);
#1777=ORIENTED_EDGE('',*,*,#1617,.T.);
#1778=ORIENTED_EDGE('',*,*,#1685,.F.);
#1779=CARTESIAN_POINT('',(-4.579999999999999,1.148206E-015,1.250000000000002));
#1780=DIRECTION('',(1.0,0.0,0.0));
#1781=DIRECTION('',(0.0,1.0,0.0));
#1782=AXIS2_PLACEMENT_3D('',#1779,#1780,#1781);
#1783=CIRCLE('',#1782,0.300000000000000);
#1784=EDGE_CURVE('',#1638,#1671,#1783,.T.);
#1785=ORIENTED_EDGE('',*,*,#1784,.F.);
#1786=ORIENTED_EDGE('',*,*,#1644,.F.);
#1787=ORIENTED_EDGE('',*,*,#1758,.T.);
#1788=ORIENTED_EDGE('',*,*,#1742,.T.);
#1789=EDGE_LOOP('',(#1777,#1778,#1785,#1786,#1787,#1788));
#1790=FACE_OUTER_BOUND('',#1789,.T.);
#1791=ADVANCED_FACE('',(#1790),#1776,.T.);
#1792=CARTESIAN_POINT('',(-3.150000000000000,1.060647E-015,1.250000000000002));
#1793=DIRECTION('',(-1.0,6.123032E-017,2.220446E-016));
#1794=DIRECTION('',(0.0,1.0,0.0));
#1795=AXIS2_PLACEMENT_3D('',#1792,#1793,#1794);
#1796=CYLINDRICAL_SURFACE('',#1795,0.300000000000000);
#1797=ORIENTED_EDGE('',*,*,#1678,.T.);
#1798=CARTESIAN_POINT('',(-3.150000000000000,1.060647E-015,1.250000000000002));
#1799=DIRECTION('',(1.0,0.0,0.0));
#1800=DIRECTION('',(0.0,1.0,0.0));
#1801=AXIS2_PLACEMENT_3D('',#1798,#1799,#1800);
#1802=CIRCLE('',#1801,0.300000000000000);
#1803=EDGE_CURVE('',#1689,#1673,#1802,.T.);
#1804=ORIENTED_EDGE('',*,*,#1803,.F.);
#1805=ORIENTED_EDGE('',*,*,#1694,.F.);
#1806=ORIENTED_EDGE('',*,*,#1653,.T.);
#1807=ORIENTED_EDGE('',*,*,#1784,.T.);
#1808=EDGE_LOOP('',(#1797,#1804,#1805,#1806,#1807));
#1809=FACE_OUTER_BOUND('',#1808,.T.);
#1810=ADVANCED_FACE('',(#1809),#1796,.T.);
#1811=CARTESIAN_POINT('',(-5.080000000000001,-1.835532E-016,-3.199999999999998));
#1812=DIRECTION('',(0.0,0.0,1.0));
#1813=DIRECTION('',(1.0,0.0,0.0));
#1814=AXIS2_PLACEMENT_3D('',#1811,#1812,#1813);
#1815=PLANE('',#1814);
#1816=ORIENTED_EDGE('',*,*,#1728,.F.);
#1817=ORIENTED_EDGE('',*,*,#1767,.F.);
#1818=EDGE_LOOP('',(#1816,#1817));
#1819=FACE_OUTER_BOUND('',#1818,.T.);
#1820=ADVANCED_FACE('',(#1819),#1815,.F.);
#1821=CARTESIAN_POINT('',(-3.150000000000000,1.060647E-015,1.250000000000002));
#1822=DIRECTION('',(1.0,0.0,0.0));
#1823=DIRECTION('',(0.0,1.0,0.0));
#1824=AXIS2_PLACEMENT_3D('',#1821,#1822,#1823);
#1825=PLANE('',#1824);
#1826=ORIENTED_EDGE('',*,*,#1701,.T.);
#1827=ORIENTED_EDGE('',*,*,#1803,.T.);
#1828=EDGE_LOOP('',(#1826,#1827));
#1829=FACE_OUTER_BOUND('',#1828,.T.);
#1830=ADVANCED_FACE('',(#1829),#1825,.T.);
#1831=CLOSED_SHELL('',(#1664,#1705,#1746,#1771,#1791,#1810,#1820,#1830));
#1832=MANIFOLD_SOLID_BREP('A5',#1831);
#1833=STYLED_ITEM('NONE',(#1601),#1832);
#1834=ADVANCED_BREP_SHAPE_REPRESENTATION('ABSR1',(#152,#250,#339,#480,#569,#710,#799,#895,#991,#1087,#1183,#1594,#1832),#28);
#1835=SHAPE_REPRESENTATION_RELATIONSHIP('SRRPL1','',#1834,#62);
ENDSEC;
END-ISO-10303-21;
