ISO-10303-21;
HEADER;
/* Generated by software containing ST-Developer
 * from STEP Tools, Inc. (www.steptools.com) 
 */

FILE_DESCRIPTION(
/* description */ (''),
/* implementation_level */ '2;1');

FILE_NAME(
/* name */ 
'G:\\Applications\\Altium\\CernLib\\StepLib\\RES_VISHAY_WSL2512_0R005-
0R2.stp',
/* time_stamp */ '2016-11-08T10:10:28+01:00',
/* author */ ('riccim'),
/* organization */ (''),
/* preprocessor_version */ 'ST-DEVELOPER v15.5',
/* originating_system */ 'AutoCAD Mechanical',
/* authorisation */ '');

FILE_SCHEMA (('AUTOMOTIVE_DESIGN { 1 0 10303 214 3 1 1 }'));
ENDSEC;

DATA;
#10=MECHANICAL_DESIGN_GEOMETRIC_PRESENTATION_REPRESENTATION('',(#17,#18,
#19),#741);
#11=DIMENSIONAL_EXPONENTS(0.,0.,0.,0.,0.,0.,0.);
#12=(
CONVERSION_BASED_UNIT('degree',#13)
NAMED_UNIT(#11)
PLANE_ANGLE_UNIT()
);
#13=PLANE_ANGLE_MEASURE_WITH_UNIT(PLANE_ANGLE_MEASURE(0.01745329252),#744);
#14=PRESENTATION_LAYER_ASSIGNMENT('3D','',(#467,#468,#469));
#15=SHAPE_REPRESENTATION_RELATIONSHIP('SRR','None',#747,#16);
#16=ADVANCED_BREP_SHAPE_REPRESENTATION($,(#467,#468,#469),#740);
#17=STYLED_ITEM($,(#757),#467);
#18=STYLED_ITEM($,(#757),#468);
#19=STYLED_ITEM($,(#758),#469);
#20=FACE_OUTER_BOUND($,#46,.T.);
#21=FACE_OUTER_BOUND($,#47,.T.);
#22=FACE_OUTER_BOUND($,#48,.T.);
#23=FACE_OUTER_BOUND($,#49,.T.);
#24=FACE_OUTER_BOUND($,#50,.T.);
#25=FACE_OUTER_BOUND($,#51,.T.);
#26=FACE_OUTER_BOUND($,#52,.T.);
#27=FACE_OUTER_BOUND($,#53,.T.);
#28=FACE_OUTER_BOUND($,#54,.T.);
#29=FACE_OUTER_BOUND($,#55,.T.);
#30=FACE_OUTER_BOUND($,#56,.T.);
#31=FACE_OUTER_BOUND($,#57,.T.);
#32=FACE_OUTER_BOUND($,#58,.T.);
#33=FACE_OUTER_BOUND($,#59,.T.);
#34=FACE_OUTER_BOUND($,#60,.T.);
#35=FACE_OUTER_BOUND($,#61,.T.);
#36=FACE_OUTER_BOUND($,#62,.T.);
#37=FACE_OUTER_BOUND($,#63,.T.);
#38=FACE_OUTER_BOUND($,#64,.T.);
#39=FACE_OUTER_BOUND($,#65,.T.);
#40=FACE_OUTER_BOUND($,#66,.T.);
#41=FACE_OUTER_BOUND($,#67,.T.);
#42=FACE_OUTER_BOUND($,#68,.T.);
#43=FACE_OUTER_BOUND($,#69,.T.);
#44=FACE_OUTER_BOUND($,#70,.T.);
#45=FACE_OUTER_BOUND($,#71,.T.);
#46=EDGE_LOOP($,(#292,#293,#294,#295));
#47=EDGE_LOOP($,(#296,#297,#298,#299));
#48=EDGE_LOOP($,(#300,#301,#302,#303));
#49=EDGE_LOOP($,(#304,#305,#306,#307));
#50=EDGE_LOOP($,(#308,#309,#310,#311));
#51=EDGE_LOOP($,(#312,#313,#314,#315));
#52=EDGE_LOOP($,(#316,#317,#318,#319));
#53=EDGE_LOOP($,(#320,#321,#322,#323));
#54=EDGE_LOOP($,(#324,#325,#326,#327,#328,#329,#330,#331));
#55=EDGE_LOOP($,(#332,#333,#334,#335,#336,#337,#338,#339));
#56=EDGE_LOOP($,(#340,#341,#342,#343));
#57=EDGE_LOOP($,(#344,#345,#346,#347));
#58=EDGE_LOOP($,(#348,#349,#350,#351));
#59=EDGE_LOOP($,(#352,#353,#354,#355));
#60=EDGE_LOOP($,(#356,#357,#358,#359));
#61=EDGE_LOOP($,(#360,#361,#362,#363));
#62=EDGE_LOOP($,(#364,#365,#366,#367));
#63=EDGE_LOOP($,(#368,#369,#370,#371));
#64=EDGE_LOOP($,(#372,#373,#374,#375,#376,#377,#378,#379));
#65=EDGE_LOOP($,(#380,#381,#382,#383,#384,#385,#386,#387));
#66=EDGE_LOOP($,(#388,#389,#390,#391));
#67=EDGE_LOOP($,(#392,#393,#394,#395));
#68=EDGE_LOOP($,(#396,#397,#398,#399));
#69=EDGE_LOOP($,(#400,#401,#402,#403));
#70=EDGE_LOOP($,(#404,#405,#406,#407));
#71=EDGE_LOOP($,(#408,#409,#410,#411));
#72=LINE($,#615,#132);
#73=LINE($,#617,#133);
#74=LINE($,#619,#134);
#75=LINE($,#620,#135);
#76=LINE($,#623,#136);
#77=LINE($,#625,#137);
#78=LINE($,#626,#138);
#79=LINE($,#629,#139);
#80=LINE($,#631,#140);
#81=LINE($,#632,#141);
#82=LINE($,#635,#142);
#83=LINE($,#637,#143);
#84=LINE($,#638,#144);
#85=LINE($,#641,#145);
#86=LINE($,#643,#146);
#87=LINE($,#644,#147);
#88=LINE($,#647,#148);
#89=LINE($,#649,#149);
#90=LINE($,#650,#150);
#91=LINE($,#653,#151);
#92=LINE($,#655,#152);
#93=LINE($,#656,#153);
#94=LINE($,#658,#154);
#95=LINE($,#659,#155);
#96=LINE($,#665,#156);
#97=LINE($,#667,#157);
#98=LINE($,#669,#158);
#99=LINE($,#670,#159);
#100=LINE($,#673,#160);
#101=LINE($,#675,#161);
#102=LINE($,#676,#162);
#103=LINE($,#679,#163);
#104=LINE($,#681,#164);
#105=LINE($,#682,#165);
#106=LINE($,#685,#166);
#107=LINE($,#687,#167);
#108=LINE($,#688,#168);
#109=LINE($,#691,#169);
#110=LINE($,#693,#170);
#111=LINE($,#694,#171);
#112=LINE($,#697,#172);
#113=LINE($,#699,#173);
#114=LINE($,#700,#174);
#115=LINE($,#703,#175);
#116=LINE($,#705,#176);
#117=LINE($,#706,#177);
#118=LINE($,#708,#178);
#119=LINE($,#709,#179);
#120=LINE($,#715,#180);
#121=LINE($,#717,#181);
#122=LINE($,#719,#182);
#123=LINE($,#720,#183);
#124=LINE($,#723,#184);
#125=LINE($,#725,#185);
#126=LINE($,#726,#186);
#127=LINE($,#729,#187);
#128=LINE($,#731,#188);
#129=LINE($,#732,#189);
#130=LINE($,#734,#190);
#131=LINE($,#735,#191);
#132=VECTOR($,#501,1.317);
#133=VECTOR($,#502,0.889);
#134=VECTOR($,#503,1.317);
#135=VECTOR($,#504,0.889);
#136=VECTOR($,#507,3.434);
#137=VECTOR($,#508,3.434);
#138=VECTOR($,#509,0.889);
#139=VECTOR($,#512,1.317);
#140=VECTOR($,#513,1.317);
#141=VECTOR($,#514,0.889);
#142=VECTOR($,#517,0.889000000000001);
#143=VECTOR($,#518,0.889000000000001);
#144=VECTOR($,#519,0.889);
#145=VECTOR($,#522,1.016);
#146=VECTOR($,#523,1.016);
#147=VECTOR($,#524,0.889);
#148=VECTOR($,#527,0.508);
#149=VECTOR($,#528,0.508);
#150=VECTOR($,#529,0.889);
#151=VECTOR($,#532,1.016);
#152=VECTOR($,#533,1.016);
#153=VECTOR($,#534,0.889);
#154=VECTOR($,#537,2.037);
#155=VECTOR($,#538,2.037);
#156=VECTOR($,#545,0.889);
#157=VECTOR($,#546,0.889);
#158=VECTOR($,#547,0.889);
#159=VECTOR($,#548,0.889);
#160=VECTOR($,#551,1.016);
#161=VECTOR($,#552,1.016);
#162=VECTOR($,#553,0.889);
#163=VECTOR($,#556,0.508);
#164=VECTOR($,#557,0.508);
#165=VECTOR($,#558,0.889);
#166=VECTOR($,#561,1.016);
#167=VECTOR($,#562,1.016);
#168=VECTOR($,#563,0.889);
#169=VECTOR($,#566,2.037);
#170=VECTOR($,#567,2.037);
#171=VECTOR($,#568,0.889);
#172=VECTOR($,#571,1.317);
#173=VECTOR($,#572,1.317);
#174=VECTOR($,#573,0.889);
#175=VECTOR($,#576,3.434);
#176=VECTOR($,#577,3.434);
#177=VECTOR($,#578,0.889);
#178=VECTOR($,#581,1.317);
#179=VECTOR($,#582,1.317);
#180=VECTOR($,#589,3.97);
#181=VECTOR($,#590,3.434);
#182=VECTOR($,#591,3.97);
#183=VECTOR($,#592,3.434);
#184=VECTOR($,#595,0.499);
#185=VECTOR($,#596,3.434);
#186=VECTOR($,#597,0.499);
#187=VECTOR($,#600,3.97);
#188=VECTOR($,#601,3.434);
#189=VECTOR($,#602,3.97);
#190=VECTOR($,#605,0.499);
#191=VECTOR($,#606,0.499);
#192=VERTEX_POINT($,#613);
#193=VERTEX_POINT($,#614);
#194=VERTEX_POINT($,#616);
#195=VERTEX_POINT($,#618);
#196=VERTEX_POINT($,#622);
#197=VERTEX_POINT($,#624);
#198=VERTEX_POINT($,#628);
#199=VERTEX_POINT($,#630);
#200=VERTEX_POINT($,#634);
#201=VERTEX_POINT($,#636);
#202=VERTEX_POINT($,#640);
#203=VERTEX_POINT($,#642);
#204=VERTEX_POINT($,#646);
#205=VERTEX_POINT($,#648);
#206=VERTEX_POINT($,#652);
#207=VERTEX_POINT($,#654);
#208=VERTEX_POINT($,#663);
#209=VERTEX_POINT($,#664);
#210=VERTEX_POINT($,#666);
#211=VERTEX_POINT($,#668);
#212=VERTEX_POINT($,#672);
#213=VERTEX_POINT($,#674);
#214=VERTEX_POINT($,#678);
#215=VERTEX_POINT($,#680);
#216=VERTEX_POINT($,#684);
#217=VERTEX_POINT($,#686);
#218=VERTEX_POINT($,#690);
#219=VERTEX_POINT($,#692);
#220=VERTEX_POINT($,#696);
#221=VERTEX_POINT($,#698);
#222=VERTEX_POINT($,#702);
#223=VERTEX_POINT($,#704);
#224=VERTEX_POINT($,#713);
#225=VERTEX_POINT($,#714);
#226=VERTEX_POINT($,#716);
#227=VERTEX_POINT($,#718);
#228=VERTEX_POINT($,#722);
#229=VERTEX_POINT($,#724);
#230=VERTEX_POINT($,#728);
#231=VERTEX_POINT($,#730);
#232=EDGE_CURVE($,#192,#193,#72,.T.);
#233=EDGE_CURVE($,#193,#194,#73,.T.);
#234=EDGE_CURVE($,#195,#194,#74,.T.);
#235=EDGE_CURVE($,#192,#195,#75,.T.);
#236=EDGE_CURVE($,#196,#192,#76,.T.);
#237=EDGE_CURVE($,#197,#195,#77,.T.);
#238=EDGE_CURVE($,#196,#197,#78,.T.);
#239=EDGE_CURVE($,#198,#196,#79,.T.);
#240=EDGE_CURVE($,#199,#197,#80,.T.);
#241=EDGE_CURVE($,#198,#199,#81,.T.);
#242=EDGE_CURVE($,#200,#198,#82,.T.);
#243=EDGE_CURVE($,#201,#199,#83,.T.);
#244=EDGE_CURVE($,#200,#201,#84,.T.);
#245=EDGE_CURVE($,#202,#200,#85,.T.);
#246=EDGE_CURVE($,#203,#201,#86,.T.);
#247=EDGE_CURVE($,#202,#203,#87,.T.);
#248=EDGE_CURVE($,#204,#202,#88,.T.);
#249=EDGE_CURVE($,#205,#203,#89,.T.);
#250=EDGE_CURVE($,#204,#205,#90,.T.);
#251=EDGE_CURVE($,#206,#204,#91,.T.);
#252=EDGE_CURVE($,#207,#205,#92,.T.);
#253=EDGE_CURVE($,#206,#207,#93,.T.);
#254=EDGE_CURVE($,#193,#206,#94,.T.);
#255=EDGE_CURVE($,#194,#207,#95,.T.);
#256=EDGE_CURVE($,#208,#209,#96,.T.);
#257=EDGE_CURVE($,#208,#210,#97,.T.);
#258=EDGE_CURVE($,#211,#210,#98,.T.);
#259=EDGE_CURVE($,#209,#211,#99,.T.);
#260=EDGE_CURVE($,#209,#212,#100,.T.);
#261=EDGE_CURVE($,#213,#211,#101,.T.);
#262=EDGE_CURVE($,#212,#213,#102,.T.);
#263=EDGE_CURVE($,#212,#214,#103,.T.);
#264=EDGE_CURVE($,#215,#213,#104,.T.);
#265=EDGE_CURVE($,#214,#215,#105,.T.);
#266=EDGE_CURVE($,#214,#216,#106,.T.);
#267=EDGE_CURVE($,#217,#215,#107,.T.);
#268=EDGE_CURVE($,#216,#217,#108,.T.);
#269=EDGE_CURVE($,#216,#218,#109,.T.);
#270=EDGE_CURVE($,#219,#217,#110,.T.);
#271=EDGE_CURVE($,#218,#219,#111,.T.);
#272=EDGE_CURVE($,#218,#220,#112,.T.);
#273=EDGE_CURVE($,#221,#219,#113,.T.);
#274=EDGE_CURVE($,#220,#221,#114,.T.);
#275=EDGE_CURVE($,#220,#222,#115,.T.);
#276=EDGE_CURVE($,#223,#221,#116,.T.);
#277=EDGE_CURVE($,#222,#223,#117,.T.);
#278=EDGE_CURVE($,#222,#208,#118,.T.);
#279=EDGE_CURVE($,#210,#223,#119,.T.);
#280=EDGE_CURVE($,#224,#225,#120,.T.);
#281=EDGE_CURVE($,#226,#225,#121,.T.);
#282=EDGE_CURVE($,#227,#226,#122,.T.);
#283=EDGE_CURVE($,#227,#224,#123,.T.);
#284=EDGE_CURVE($,#225,#228,#124,.T.);
#285=EDGE_CURVE($,#229,#228,#125,.T.);
#286=EDGE_CURVE($,#226,#229,#126,.T.);
#287=EDGE_CURVE($,#228,#230,#127,.T.);
#288=EDGE_CURVE($,#231,#230,#128,.T.);
#289=EDGE_CURVE($,#229,#231,#129,.T.);
#290=EDGE_CURVE($,#230,#224,#130,.T.);
#291=EDGE_CURVE($,#231,#227,#131,.T.);
#292=ORIENTED_EDGE($,*,*,#232,.T.);
#293=ORIENTED_EDGE($,*,*,#233,.T.);
#294=ORIENTED_EDGE($,*,*,#234,.F.);
#295=ORIENTED_EDGE($,*,*,#235,.F.);
#296=ORIENTED_EDGE($,*,*,#236,.T.);
#297=ORIENTED_EDGE($,*,*,#235,.T.);
#298=ORIENTED_EDGE($,*,*,#237,.F.);
#299=ORIENTED_EDGE($,*,*,#238,.F.);
#300=ORIENTED_EDGE($,*,*,#239,.T.);
#301=ORIENTED_EDGE($,*,*,#238,.T.);
#302=ORIENTED_EDGE($,*,*,#240,.F.);
#303=ORIENTED_EDGE($,*,*,#241,.F.);
#304=ORIENTED_EDGE($,*,*,#242,.T.);
#305=ORIENTED_EDGE($,*,*,#241,.T.);
#306=ORIENTED_EDGE($,*,*,#243,.F.);
#307=ORIENTED_EDGE($,*,*,#244,.F.);
#308=ORIENTED_EDGE($,*,*,#245,.T.);
#309=ORIENTED_EDGE($,*,*,#244,.T.);
#310=ORIENTED_EDGE($,*,*,#246,.F.);
#311=ORIENTED_EDGE($,*,*,#247,.F.);
#312=ORIENTED_EDGE($,*,*,#248,.T.);
#313=ORIENTED_EDGE($,*,*,#247,.T.);
#314=ORIENTED_EDGE($,*,*,#249,.F.);
#315=ORIENTED_EDGE($,*,*,#250,.F.);
#316=ORIENTED_EDGE($,*,*,#251,.T.);
#317=ORIENTED_EDGE($,*,*,#250,.T.);
#318=ORIENTED_EDGE($,*,*,#252,.F.);
#319=ORIENTED_EDGE($,*,*,#253,.F.);
#320=ORIENTED_EDGE($,*,*,#254,.T.);
#321=ORIENTED_EDGE($,*,*,#253,.T.);
#322=ORIENTED_EDGE($,*,*,#255,.F.);
#323=ORIENTED_EDGE($,*,*,#233,.F.);
#324=ORIENTED_EDGE($,*,*,#255,.T.);
#325=ORIENTED_EDGE($,*,*,#252,.T.);
#326=ORIENTED_EDGE($,*,*,#249,.T.);
#327=ORIENTED_EDGE($,*,*,#246,.T.);
#328=ORIENTED_EDGE($,*,*,#243,.T.);
#329=ORIENTED_EDGE($,*,*,#240,.T.);
#330=ORIENTED_EDGE($,*,*,#237,.T.);
#331=ORIENTED_EDGE($,*,*,#234,.T.);
#332=ORIENTED_EDGE($,*,*,#254,.F.);
#333=ORIENTED_EDGE($,*,*,#232,.F.);
#334=ORIENTED_EDGE($,*,*,#236,.F.);
#335=ORIENTED_EDGE($,*,*,#239,.F.);
#336=ORIENTED_EDGE($,*,*,#242,.F.);
#337=ORIENTED_EDGE($,*,*,#245,.F.);
#338=ORIENTED_EDGE($,*,*,#248,.F.);
#339=ORIENTED_EDGE($,*,*,#251,.F.);
#340=ORIENTED_EDGE($,*,*,#256,.F.);
#341=ORIENTED_EDGE($,*,*,#257,.T.);
#342=ORIENTED_EDGE($,*,*,#258,.F.);
#343=ORIENTED_EDGE($,*,*,#259,.F.);
#344=ORIENTED_EDGE($,*,*,#260,.F.);
#345=ORIENTED_EDGE($,*,*,#259,.T.);
#346=ORIENTED_EDGE($,*,*,#261,.F.);
#347=ORIENTED_EDGE($,*,*,#262,.F.);
#348=ORIENTED_EDGE($,*,*,#263,.F.);
#349=ORIENTED_EDGE($,*,*,#262,.T.);
#350=ORIENTED_EDGE($,*,*,#264,.F.);
#351=ORIENTED_EDGE($,*,*,#265,.F.);
#352=ORIENTED_EDGE($,*,*,#266,.F.);
#353=ORIENTED_EDGE($,*,*,#265,.T.);
#354=ORIENTED_EDGE($,*,*,#267,.F.);
#355=ORIENTED_EDGE($,*,*,#268,.F.);
#356=ORIENTED_EDGE($,*,*,#269,.F.);
#357=ORIENTED_EDGE($,*,*,#268,.T.);
#358=ORIENTED_EDGE($,*,*,#270,.F.);
#359=ORIENTED_EDGE($,*,*,#271,.F.);
#360=ORIENTED_EDGE($,*,*,#272,.F.);
#361=ORIENTED_EDGE($,*,*,#271,.T.);
#362=ORIENTED_EDGE($,*,*,#273,.F.);
#363=ORIENTED_EDGE($,*,*,#274,.F.);
#364=ORIENTED_EDGE($,*,*,#275,.F.);
#365=ORIENTED_EDGE($,*,*,#274,.T.);
#366=ORIENTED_EDGE($,*,*,#276,.F.);
#367=ORIENTED_EDGE($,*,*,#277,.F.);
#368=ORIENTED_EDGE($,*,*,#278,.F.);
#369=ORIENTED_EDGE($,*,*,#277,.T.);
#370=ORIENTED_EDGE($,*,*,#279,.F.);
#371=ORIENTED_EDGE($,*,*,#257,.F.);
#372=ORIENTED_EDGE($,*,*,#278,.T.);
#373=ORIENTED_EDGE($,*,*,#256,.T.);
#374=ORIENTED_EDGE($,*,*,#260,.T.);
#375=ORIENTED_EDGE($,*,*,#263,.T.);
#376=ORIENTED_EDGE($,*,*,#266,.T.);
#377=ORIENTED_EDGE($,*,*,#269,.T.);
#378=ORIENTED_EDGE($,*,*,#272,.T.);
#379=ORIENTED_EDGE($,*,*,#275,.T.);
#380=ORIENTED_EDGE($,*,*,#279,.T.);
#381=ORIENTED_EDGE($,*,*,#276,.T.);
#382=ORIENTED_EDGE($,*,*,#273,.T.);
#383=ORIENTED_EDGE($,*,*,#270,.T.);
#384=ORIENTED_EDGE($,*,*,#267,.T.);
#385=ORIENTED_EDGE($,*,*,#264,.T.);
#386=ORIENTED_EDGE($,*,*,#261,.T.);
#387=ORIENTED_EDGE($,*,*,#258,.T.);
#388=ORIENTED_EDGE($,*,*,#280,.T.);
#389=ORIENTED_EDGE($,*,*,#281,.F.);
#390=ORIENTED_EDGE($,*,*,#282,.F.);
#391=ORIENTED_EDGE($,*,*,#283,.T.);
#392=ORIENTED_EDGE($,*,*,#284,.T.);
#393=ORIENTED_EDGE($,*,*,#285,.F.);
#394=ORIENTED_EDGE($,*,*,#286,.F.);
#395=ORIENTED_EDGE($,*,*,#281,.T.);
#396=ORIENTED_EDGE($,*,*,#287,.T.);
#397=ORIENTED_EDGE($,*,*,#288,.F.);
#398=ORIENTED_EDGE($,*,*,#289,.F.);
#399=ORIENTED_EDGE($,*,*,#285,.T.);
#400=ORIENTED_EDGE($,*,*,#290,.T.);
#401=ORIENTED_EDGE($,*,*,#283,.F.);
#402=ORIENTED_EDGE($,*,*,#291,.F.);
#403=ORIENTED_EDGE($,*,*,#288,.T.);
#404=ORIENTED_EDGE($,*,*,#286,.T.);
#405=ORIENTED_EDGE($,*,*,#289,.T.);
#406=ORIENTED_EDGE($,*,*,#291,.T.);
#407=ORIENTED_EDGE($,*,*,#282,.T.);
#408=ORIENTED_EDGE($,*,*,#287,.F.);
#409=ORIENTED_EDGE($,*,*,#284,.F.);
#410=ORIENTED_EDGE($,*,*,#280,.F.);
#411=ORIENTED_EDGE($,*,*,#290,.F.);
#412=PLANE($,#471);
#413=PLANE($,#472);
#414=PLANE($,#473);
#415=PLANE($,#474);
#416=PLANE($,#475);
#417=PLANE($,#476);
#418=PLANE($,#477);
#419=PLANE($,#478);
#420=PLANE($,#479);
#421=PLANE($,#480);
#422=PLANE($,#481);
#423=PLANE($,#482);
#424=PLANE($,#483);
#425=PLANE($,#484);
#426=PLANE($,#485);
#427=PLANE($,#486);
#428=PLANE($,#487);
#429=PLANE($,#488);
#430=PLANE($,#489);
#431=PLANE($,#490);
#432=PLANE($,#491);
#433=PLANE($,#492);
#434=PLANE($,#493);
#435=PLANE($,#494);
#436=PLANE($,#495);
#437=PLANE($,#496);
#438=ADVANCED_FACE($,(#20),#412,.T.);
#439=ADVANCED_FACE($,(#21),#413,.T.);
#440=ADVANCED_FACE($,(#22),#414,.T.);
#441=ADVANCED_FACE($,(#23),#415,.T.);
#442=ADVANCED_FACE($,(#24),#416,.T.);
#443=ADVANCED_FACE($,(#25),#417,.T.);
#444=ADVANCED_FACE($,(#26),#418,.T.);
#445=ADVANCED_FACE($,(#27),#419,.T.);
#446=ADVANCED_FACE($,(#28),#420,.T.);
#447=ADVANCED_FACE($,(#29),#421,.F.);
#448=ADVANCED_FACE($,(#30),#422,.T.);
#449=ADVANCED_FACE($,(#31),#423,.T.);
#450=ADVANCED_FACE($,(#32),#424,.T.);
#451=ADVANCED_FACE($,(#33),#425,.T.);
#452=ADVANCED_FACE($,(#34),#426,.T.);
#453=ADVANCED_FACE($,(#35),#427,.T.);
#454=ADVANCED_FACE($,(#36),#428,.T.);
#455=ADVANCED_FACE($,(#37),#429,.T.);
#456=ADVANCED_FACE($,(#38),#430,.F.);
#457=ADVANCED_FACE($,(#39),#431,.T.);
#458=ADVANCED_FACE($,(#40),#432,.T.);
#459=ADVANCED_FACE($,(#41),#433,.T.);
#460=ADVANCED_FACE($,(#42),#434,.T.);
#461=ADVANCED_FACE($,(#43),#435,.T.);
#462=ADVANCED_FACE($,(#44),#436,.F.);
#463=ADVANCED_FACE($,(#45),#437,.T.);
#464=CLOSED_SHELL($,(#438,#439,#440,#441,#442,#443,#444,#445,#446,#447));
#465=CLOSED_SHELL($,(#448,#449,#450,#451,#452,#453,#454,#455,#456,#457));
#466=CLOSED_SHELL($,(#458,#459,#460,#461,#462,#463));
#467=MANIFOLD_SOLID_BREP('442',#464);
#468=MANIFOLD_SOLID_BREP('443',#465);
#469=MANIFOLD_SOLID_BREP('444',#466);
#470=AXIS2_PLACEMENT_3D('placement',#611,#497,#498);
#471=AXIS2_PLACEMENT_3D($,#612,#499,#500);
#472=AXIS2_PLACEMENT_3D($,#621,#505,#506);
#473=AXIS2_PLACEMENT_3D($,#627,#510,#511);
#474=AXIS2_PLACEMENT_3D($,#633,#515,#516);
#475=AXIS2_PLACEMENT_3D($,#639,#520,#521);
#476=AXIS2_PLACEMENT_3D($,#645,#525,#526);
#477=AXIS2_PLACEMENT_3D($,#651,#530,#531);
#478=AXIS2_PLACEMENT_3D($,#657,#535,#536);
#479=AXIS2_PLACEMENT_3D($,#660,#539,#540);
#480=AXIS2_PLACEMENT_3D($,#661,#541,#542);
#481=AXIS2_PLACEMENT_3D($,#662,#543,#544);
#482=AXIS2_PLACEMENT_3D($,#671,#549,#550);
#483=AXIS2_PLACEMENT_3D($,#677,#554,#555);
#484=AXIS2_PLACEMENT_3D($,#683,#559,#560);
#485=AXIS2_PLACEMENT_3D($,#689,#564,#565);
#486=AXIS2_PLACEMENT_3D($,#695,#569,#570);
#487=AXIS2_PLACEMENT_3D($,#701,#574,#575);
#488=AXIS2_PLACEMENT_3D($,#707,#579,#580);
#489=AXIS2_PLACEMENT_3D($,#710,#583,#584);
#490=AXIS2_PLACEMENT_3D($,#711,#585,#586);
#491=AXIS2_PLACEMENT_3D($,#712,#587,#588);
#492=AXIS2_PLACEMENT_3D($,#721,#593,#594);
#493=AXIS2_PLACEMENT_3D($,#727,#598,#599);
#494=AXIS2_PLACEMENT_3D($,#733,#603,#604);
#495=AXIS2_PLACEMENT_3D($,#736,#607,#608);
#496=AXIS2_PLACEMENT_3D($,#737,#609,#610);
#497=DIRECTION('axis',(0.,0.,1.));
#498=DIRECTION('refdir',(1.,0.,0.));
#499=DIRECTION('center_axis',(-1.,5.0036813658627E-17,0.));
#500=DIRECTION('ref_axis',(0.,-1.,0.));
#501=DIRECTION($,(-5.0036813658627E-17,-1.,0.));
#502=DIRECTION($,(0.,0.,1.));
#503=DIRECTION($,(-5.0036813658627E-17,-1.,0.));
#504=DIRECTION($,(0.,0.,1.));
#505=DIRECTION('center_axis',(2.83276944882399E-16,1.,0.));
#506=DIRECTION('ref_axis',(-1.,2.22044604925031E-16,0.));
#507=DIRECTION($,(-1.,2.83276944882399E-16,0.));
#508=DIRECTION($,(-1.,2.83276944882399E-16,0.));
#509=DIRECTION($,(0.,0.,1.));
#510=DIRECTION('center_axis',(1.,-5.16517076106171E-16,0.));
#511=DIRECTION('ref_axis',(4.44089209850063E-16,1.,0.));
#512=DIRECTION($,(5.16517076106171E-16,1.,0.));
#513=DIRECTION($,(5.16517076106171E-16,1.,0.));
#514=DIRECTION($,(0.,0.,1.));
#515=DIRECTION('center_axis',(-2.83276944882399E-16,-1.,0.));
#516=DIRECTION('ref_axis',(1.,-4.44089209850063E-16,0.));
#517=DIRECTION($,(1.,-2.83276944882399E-16,0.));
#518=DIRECTION($,(1.,-2.83276944882399E-16,0.));
#519=DIRECTION($,(0.,0.,1.));
#520=DIRECTION('center_axis',(-1.,2.83276944882399E-16,0.));
#521=DIRECTION('ref_axis',(-3.33066907387547E-16,-1.,0.));
#522=DIRECTION($,(-2.83276944882399E-16,-1.,0.));
#523=DIRECTION($,(-2.83276944882399E-16,-1.,0.));
#524=DIRECTION($,(0.,0.,1.));
#525=DIRECTION('center_axis',(-2.83276944882399E-16,-1.,0.));
#526=DIRECTION('ref_axis',(1.,-4.44089209850063E-16,0.));
#527=DIRECTION($,(1.,-2.83276944882399E-16,0.));
#528=DIRECTION($,(1.,-2.83276944882399E-16,0.));
#529=DIRECTION($,(0.,0.,1.));
#530=DIRECTION('center_axis',(1.,-2.83276944882399E-16,0.));
#531=DIRECTION('ref_axis',(2.77555756156289E-16,1.,0.));
#532=DIRECTION($,(2.83276944882399E-16,1.,0.));
#533=DIRECTION($,(2.83276944882399E-16,1.,0.));
#534=DIRECTION($,(0.,0.,1.));
#535=DIRECTION('center_axis',(-2.83276944882399E-16,-1.,0.));
#536=DIRECTION('ref_axis',(1.,-4.44089209850063E-16,0.));
#537=DIRECTION($,(1.,-2.83276944882399E-16,0.));
#538=DIRECTION($,(1.,-2.83276944882399E-16,0.));
#539=DIRECTION('center_axis',(0.,0.,1.));
#540=DIRECTION('ref_axis',(2.77555756156289E-16,1.,0.));
#541=DIRECTION('center_axis',(0.,0.,1.));
#542=DIRECTION('ref_axis',(2.77555756156289E-16,1.,0.));
#543=DIRECTION('center_axis',(2.83276944882399E-16,1.,0.));
#544=DIRECTION('ref_axis',(-1.,4.44089209850063E-16,0.));
#545=DIRECTION($,(1.,-2.83276944882399E-16,0.));
#546=DIRECTION($,(0.,0.,1.));
#547=DIRECTION($,(-1.,2.83276944882399E-16,0.));
#548=DIRECTION($,(0.,0.,1.));
#549=DIRECTION('center_axis',(1.,-2.83276944882399E-16,0.));
#550=DIRECTION('ref_axis',(3.33066907387547E-16,1.,0.));
#551=DIRECTION($,(-2.83276944882399E-16,-1.,0.));
#552=DIRECTION($,(2.83276944882399E-16,1.,0.));
#553=DIRECTION($,(0.,0.,1.));
#554=DIRECTION('center_axis',(2.83276944882399E-16,1.,0.));
#555=DIRECTION('ref_axis',(-1.,4.44089209850063E-16,0.));
#556=DIRECTION($,(1.,-2.83276944882399E-16,0.));
#557=DIRECTION($,(-1.,2.83276944882399E-16,0.));
#558=DIRECTION($,(0.,0.,1.));
#559=DIRECTION('center_axis',(-1.,2.83276944882399E-16,0.));
#560=DIRECTION('ref_axis',(-2.77555756156289E-16,-1.,0.));
#561=DIRECTION($,(2.83276944882399E-16,1.,0.));
#562=DIRECTION($,(-2.83276944882399E-16,-1.,0.));
#563=DIRECTION($,(0.,0.,1.));
#564=DIRECTION('center_axis',(2.83276944882399E-16,1.,0.));
#565=DIRECTION('ref_axis',(-1.,4.44089209850063E-16,0.));
#566=DIRECTION($,(1.,-2.83276944882399E-16,0.));
#567=DIRECTION($,(-1.,2.83276944882399E-16,0.));
#568=DIRECTION($,(0.,0.,1.));
#569=DIRECTION('center_axis',(1.,-5.0036813658627E-17,0.));
#570=DIRECTION('ref_axis',(0.,1.,0.));
#571=DIRECTION($,(-5.0036813658627E-17,-1.,0.));
#572=DIRECTION($,(5.0036813658627E-17,1.,0.));
#573=DIRECTION($,(0.,0.,1.));
#574=DIRECTION('center_axis',(-2.83276944882399E-16,-1.,0.));
#575=DIRECTION('ref_axis',(1.,-2.22044604925031E-16,0.));
#576=DIRECTION($,(-1.,2.83276944882399E-16,0.));
#577=DIRECTION($,(1.,-2.83276944882399E-16,0.));
#578=DIRECTION($,(0.,0.,1.));
#579=DIRECTION('center_axis',(-1.,5.16517076106171E-16,0.));
#580=DIRECTION('ref_axis',(-4.44089209850063E-16,-1.,0.));
#581=DIRECTION($,(5.16517076106171E-16,1.,0.));
#582=DIRECTION($,(-5.16517076106171E-16,-1.,0.));
#583=DIRECTION('center_axis',(0.,0.,1.));
#584=DIRECTION('ref_axis',(2.77555756156289E-16,1.,0.));
#585=DIRECTION('center_axis',(0.,0.,1.));
#586=DIRECTION('ref_axis',(2.77555756156289E-16,1.,0.));
#587=DIRECTION('center_axis',(0.,0.,1.));
#588=DIRECTION('ref_axis',(4.44089209850063E-16,1.,0.));
#589=DIRECTION($,(-5.16517076106171E-16,-1.,0.));
#590=DIRECTION($,(-1.,5.16028103084737E-16,0.));
#591=DIRECTION($,(-5.16517076106171E-16,-1.,0.));
#592=DIRECTION($,(-1.,5.16028103084737E-16,0.));
#593=DIRECTION('center_axis',(-5.16028103084737E-16,-1.,0.));
#594=DIRECTION('ref_axis',(0.,0.,1.));
#595=DIRECTION($,(0.,0.,-1.));
#596=DIRECTION($,(-1.,5.16028103084737E-16,0.));
#597=DIRECTION($,(0.,0.,-1.));
#598=DIRECTION('center_axis',(6.31351380634168E-32,1.22348255232621E-16,
-1.));
#599=DIRECTION('ref_axis',(-4.44089209850063E-16,-1.,-1.11022302462516E-16));
#600=DIRECTION($,(5.16517076106171E-16,1.,1.22348255232621E-16));
#601=DIRECTION($,(-1.,5.16028103084737E-16,0.));
#602=DIRECTION($,(5.16517076106171E-16,1.,1.22348255232621E-16));
#603=DIRECTION('center_axis',(5.16028103084737E-16,1.,0.));
#604=DIRECTION('ref_axis',(0.,0.,-1.));
#605=DIRECTION($,(0.,0.,1.));
#606=DIRECTION($,(0.,0.,1.));
#607=DIRECTION('center_axis',(-1.,5.0532154980743E-16,0.));
#608=DIRECTION('ref_axis',(0.,0.,1.));
#609=DIRECTION('center_axis',(-1.,5.16517076106171E-16,0.));
#610=DIRECTION('ref_axis',(0.,0.,1.));
#611=CARTESIAN_POINT('',(0.,0.,0.));
#612=CARTESIAN_POINT('Origin',(-1.717,-1.985,0.));
#613=CARTESIAN_POINT('',(-1.717,-1.985,0.));
#614=CARTESIAN_POINT('',(-1.717,-3.302,0.));
#615=CARTESIAN_POINT($,(-1.717,-1.985,0.));
#616=CARTESIAN_POINT('',(-1.717,-3.302,0.889));
#617=CARTESIAN_POINT($,(-1.717,-3.302,0.));
#618=CARTESIAN_POINT('',(-1.717,-1.985,0.889));
#619=CARTESIAN_POINT($,(-1.717,-1.985,0.889));
#620=CARTESIAN_POINT($,(-1.717,-1.985,0.));
#621=CARTESIAN_POINT('Origin',(1.59,-1.985,0.));
#622=CARTESIAN_POINT('',(1.717,-1.985,0.));
#623=CARTESIAN_POINT($,(1.59,-1.985,0.));
#624=CARTESIAN_POINT('',(1.717,-1.985,0.889));
#625=CARTESIAN_POINT($,(1.59,-1.985,0.889));
#626=CARTESIAN_POINT($,(1.717,-1.985,0.));
#627=CARTESIAN_POINT('Origin',(1.717,-3.175,0.));
#628=CARTESIAN_POINT('',(1.717,-3.302,0.));
#629=CARTESIAN_POINT($,(1.717,-3.175,0.));
#630=CARTESIAN_POINT('',(1.717,-3.302,0.889));
#631=CARTESIAN_POINT($,(1.717,-3.175,0.889));
#632=CARTESIAN_POINT($,(1.717,-3.302,0.));
#633=CARTESIAN_POINT('Origin',(0.827999999999999,-3.302,0.));
#634=CARTESIAN_POINT('',(0.827999999999999,-3.302,0.));
#635=CARTESIAN_POINT($,(0.827999999999999,-3.302,0.));
#636=CARTESIAN_POINT('',(0.827999999999999,-3.302,0.889));
#637=CARTESIAN_POINT($,(0.827999999999999,-3.302,0.889));
#638=CARTESIAN_POINT($,(0.827999999999999,-3.302,0.));
#639=CARTESIAN_POINT('Origin',(0.827999999999999,-2.286,0.));
#640=CARTESIAN_POINT('',(0.827999999999999,-2.286,0.));
#641=CARTESIAN_POINT($,(0.827999999999999,-2.286,0.));
#642=CARTESIAN_POINT('',(0.827999999999999,-2.286,0.889));
#643=CARTESIAN_POINT($,(0.827999999999999,-2.286,0.889));
#644=CARTESIAN_POINT($,(0.827999999999999,-2.286,0.));
#645=CARTESIAN_POINT('Origin',(0.319999999999999,-2.286,0.));
#646=CARTESIAN_POINT('',(0.319999999999999,-2.286,0.));
#647=CARTESIAN_POINT($,(0.319999999999999,-2.286,0.));
#648=CARTESIAN_POINT('',(0.319999999999999,-2.286,0.889));
#649=CARTESIAN_POINT($,(0.319999999999999,-2.286,0.889));
#650=CARTESIAN_POINT($,(0.319999999999999,-2.286,0.));
#651=CARTESIAN_POINT('Origin',(0.319999999999999,-3.175,0.));
#652=CARTESIAN_POINT('',(0.319999999999999,-3.302,0.));
#653=CARTESIAN_POINT($,(0.319999999999999,-3.175,0.));
#654=CARTESIAN_POINT('',(0.319999999999999,-3.302,0.889));
#655=CARTESIAN_POINT($,(0.319999999999999,-3.175,0.889));
#656=CARTESIAN_POINT($,(0.319999999999999,-3.302,0.));
#657=CARTESIAN_POINT('Origin',(-1.59,-3.302,0.));
#658=CARTESIAN_POINT($,(-1.59,-3.302,0.));
#659=CARTESIAN_POINT($,(-1.59,-3.302,0.889));
#660=CARTESIAN_POINT('Origin',(0.097030994485643,-2.56250399315459,0.889));
#661=CARTESIAN_POINT('Origin',(0.097030994485643,-2.56250399315459,0.));
#662=CARTESIAN_POINT('Origin',(-0.827999999999999,3.302,0.));
#663=CARTESIAN_POINT('',(-1.717,3.302,0.));
#664=CARTESIAN_POINT('',(-0.827999999999999,3.302,0.));
#665=CARTESIAN_POINT($,(-1.59,3.302,0.));
#666=CARTESIAN_POINT('',(-1.717,3.302,0.889));
#667=CARTESIAN_POINT($,(-1.717,3.302,0.));
#668=CARTESIAN_POINT('',(-0.827999999999999,3.302,0.889));
#669=CARTESIAN_POINT($,(-1.59,3.302,0.889));
#670=CARTESIAN_POINT($,(-0.827999999999999,3.302,0.));
#671=CARTESIAN_POINT('Origin',(-0.827999999999999,2.286,0.));
#672=CARTESIAN_POINT('',(-0.827999999999999,2.286,0.));
#673=CARTESIAN_POINT($,(-0.827999999999999,3.175,0.));
#674=CARTESIAN_POINT('',(-0.827999999999999,2.286,0.889));
#675=CARTESIAN_POINT($,(-0.827999999999999,3.175,0.889));
#676=CARTESIAN_POINT($,(-0.827999999999999,2.286,0.));
#677=CARTESIAN_POINT('Origin',(-0.319999999999999,2.286,0.));
#678=CARTESIAN_POINT('',(-0.319999999999999,2.286,0.));
#679=CARTESIAN_POINT($,(-0.827999999999999,2.286,0.));
#680=CARTESIAN_POINT('',(-0.319999999999999,2.286,0.889));
#681=CARTESIAN_POINT($,(-0.827999999999999,2.286,0.889));
#682=CARTESIAN_POINT($,(-0.319999999999999,2.286,0.));
#683=CARTESIAN_POINT('Origin',(-0.319999999999999,3.175,0.));
#684=CARTESIAN_POINT('',(-0.319999999999999,3.302,0.));
#685=CARTESIAN_POINT($,(-0.319999999999999,2.286,0.));
#686=CARTESIAN_POINT('',(-0.319999999999999,3.302,0.889));
#687=CARTESIAN_POINT($,(-0.319999999999999,2.286,0.889));
#688=CARTESIAN_POINT($,(-0.319999999999999,3.302,0.));
#689=CARTESIAN_POINT('Origin',(1.59,3.302,0.));
#690=CARTESIAN_POINT('',(1.717,3.302,0.));
#691=CARTESIAN_POINT($,(-0.319999999999999,3.302,0.));
#692=CARTESIAN_POINT('',(1.717,3.302,0.889));
#693=CARTESIAN_POINT($,(-0.319999999999999,3.302,0.889));
#694=CARTESIAN_POINT($,(1.717,3.302,0.));
#695=CARTESIAN_POINT('Origin',(1.717,1.985,0.));
#696=CARTESIAN_POINT('',(1.717,1.985,0.));
#697=CARTESIAN_POINT($,(1.717,3.175,0.));
#698=CARTESIAN_POINT('',(1.717,1.985,0.889));
#699=CARTESIAN_POINT($,(1.717,3.175,0.889));
#700=CARTESIAN_POINT($,(1.717,1.985,0.));
#701=CARTESIAN_POINT('Origin',(-1.59,1.985,0.));
#702=CARTESIAN_POINT('',(-1.717,1.985,0.));
#703=CARTESIAN_POINT($,(1.59,1.985,0.));
#704=CARTESIAN_POINT('',(-1.717,1.985,0.889));
#705=CARTESIAN_POINT($,(1.59,1.985,0.889));
#706=CARTESIAN_POINT($,(-1.717,1.985,0.));
#707=CARTESIAN_POINT('Origin',(-1.717,3.175,0.));
#708=CARTESIAN_POINT($,(-1.717,1.985,0.));
#709=CARTESIAN_POINT($,(-1.717,1.985,0.889));
#710=CARTESIAN_POINT('Origin',(-0.097030994485643,2.56250399315459,0.));
#711=CARTESIAN_POINT('Origin',(-0.097030994485643,2.56250399315459,0.889));
#712=CARTESIAN_POINT('Origin',(1.59,-1.985,0.889));
#713=CARTESIAN_POINT('',(-1.717,1.985,0.889));
#714=CARTESIAN_POINT('',(-1.717,-1.985,0.889));
#715=CARTESIAN_POINT($,(-1.717,-0.992499999999999,0.889));
#716=CARTESIAN_POINT('',(1.717,-1.985,0.889));
#717=CARTESIAN_POINT($,(1.59,-1.985,0.889));
#718=CARTESIAN_POINT('',(1.717,1.985,0.889));
#719=CARTESIAN_POINT($,(1.717,1.985,0.889));
#720=CARTESIAN_POINT($,(1.59,1.985,0.889));
#721=CARTESIAN_POINT('Origin',(1.59,-1.985,0.39));
#722=CARTESIAN_POINT('',(-1.717,-1.985,0.39));
#723=CARTESIAN_POINT($,(-1.717,-1.985,0.45125));
#724=CARTESIAN_POINT('',(1.717,-1.985,0.39));
#725=CARTESIAN_POINT($,(1.59,-1.985,0.39));
#726=CARTESIAN_POINT($,(1.717,-1.985,0.635));
#727=CARTESIAN_POINT('Origin',(1.59,1.985,0.39));
#728=CARTESIAN_POINT('',(-1.717,1.985,0.39));
#729=CARTESIAN_POINT($,(-1.717,0.992500000000002,0.39));
#730=CARTESIAN_POINT('',(1.717,1.985,0.39));
#731=CARTESIAN_POINT($,(1.59,1.985,0.39));
#732=CARTESIAN_POINT($,(1.717,-1.985,0.39));
#733=CARTESIAN_POINT('Origin',(1.59,1.985,0.635));
#734=CARTESIAN_POINT($,(-1.717,1.985,0.57375));
#735=CARTESIAN_POINT($,(1.717,1.985,0.39));
#736=CARTESIAN_POINT('Origin',(1.717,-6.89156033564473E-16,0.5125));
#737=CARTESIAN_POINT('Origin',(-1.717,1.05333608157647E-15,0.5125));
#738=UNCERTAINTY_MEASURE_WITH_UNIT(LENGTH_MEASURE(0.01),#742,
'DISTANCE_ACCURACY_VALUE',
'Maximum model space distance between geometric entities at asserted c
onnectivities');
#739=UNCERTAINTY_MEASURE_WITH_UNIT(LENGTH_MEASURE(1.E-6),#742,
'DISTANCE_ACCURACY_VALUE',
'Maximum model space distance between geometric entities at asserted c
onnectivities');
#740=(
GEOMETRIC_REPRESENTATION_CONTEXT(3)
GLOBAL_UNCERTAINTY_ASSIGNED_CONTEXT((#738))
GLOBAL_UNIT_ASSIGNED_CONTEXT((#742,#744,#743))
REPRESENTATION_CONTEXT('','3D')
);
#741=(
GEOMETRIC_REPRESENTATION_CONTEXT(3)
GLOBAL_UNCERTAINTY_ASSIGNED_CONTEXT((#739))
GLOBAL_UNIT_ASSIGNED_CONTEXT((#742,#12,#743))
REPRESENTATION_CONTEXT('','3D')
);
#742=(
LENGTH_UNIT()
NAMED_UNIT(*)
SI_UNIT(.MILLI.,.METRE.)
);
#743=(
NAMED_UNIT(*)
SI_UNIT($,.STERADIAN.)
SOLID_ANGLE_UNIT()
);
#744=(
NAMED_UNIT(*)
PLANE_ANGLE_UNIT()
SI_UNIT($,.RADIAN.)
);
#745=SHAPE_DEFINITION_REPRESENTATION(#746,#747);
#746=PRODUCT_DEFINITION_SHAPE('',$,#749);
#747=SHAPE_REPRESENTATION('',(#470),#740);
#748=PRODUCT_DEFINITION_CONTEXT('part definition',#753,'design');
#749=PRODUCT_DEFINITION('Product','Product',#750,#748);
#750=PRODUCT_DEFINITION_FORMATION('',$,#755);
#751=PRODUCT_RELATED_PRODUCT_CATEGORY('Product','Product',(#755));
#752=APPLICATION_PROTOCOL_DEFINITION('international standard',
'automotive_design',2009,#753);
#753=APPLICATION_CONTEXT(
'Core Data for Automotive Mechanical Design Process');
#754=PRODUCT_CONTEXT('part definition',#753,'mechanical');
#755=PRODUCT('Product','Product',$,(#754));
#756=PRESENTATION_STYLE_ASSIGNMENT((#759));
#757=PRESENTATION_STYLE_ASSIGNMENT((#760));
#758=PRESENTATION_STYLE_ASSIGNMENT((#761));
#759=SURFACE_STYLE_USAGE(.BOTH.,#762);
#760=SURFACE_STYLE_USAGE(.BOTH.,#763);
#761=SURFACE_STYLE_USAGE(.BOTH.,#764);
#762=SURFACE_SIDE_STYLE($,(#765));
#763=SURFACE_SIDE_STYLE($,(#766));
#764=SURFACE_SIDE_STYLE($,(#767));
#765=SURFACE_STYLE_FILL_AREA(#768);
#766=SURFACE_STYLE_FILL_AREA(#769);
#767=SURFACE_STYLE_FILL_AREA(#770);
#768=FILL_AREA_STYLE($,(#771));
#769=FILL_AREA_STYLE($,(#772));
#770=FILL_AREA_STYLE($,(#773));
#771=FILL_AREA_STYLE_COLOUR($,#774);
#772=FILL_AREA_STYLE_COLOUR($,#775);
#773=FILL_AREA_STYLE_COLOUR($,#776);
#774=COLOUR_RGB('',1.,1.,1.);
#775=COLOUR_RGB('',0.749019607843137,0.749019607843137,0.749019607843137);
#776=COLOUR_RGB('',0.329411764705882,0.329411764705882,0.329411764705882);
ENDSEC;
END-ISO-10303-21;
