ISO-10303-21;
HEADER;
/****************************************************************
 * Generated by software with PDElib inside                    *
 * PDElib Version v51a, created Fri 09/10/2010                  *
 * ITI Transcendata (http://www.transcendata.com/)              *
 ****************************************************************/
FILE_DESCRIPTION((''),'2;1');
FILE_NAME('RES_VISHAY_AC01.stp','2012-02-28T11:13:03',(''),(''),'Mechanical Desktop 2011','Mechanical Desktop 2011',', , ');
FILE_SCHEMA(('AUTOMOTIVE_DESIGN { 1 2 10303 214 1 1 1 1 }'));
ENDSEC;
DATA;
#10=(NAMED_UNIT(*)PLANE_ANGLE_UNIT()SI_UNIT($,.RADIAN.));
#11=DIMENSIONAL_EXPONENTS(0.0,0.0,0.0,0.0,0.0,0.0,0.0);
#12=PLANE_ANGLE_MEASURE_WITH_UNIT(PLANE_ANGLE_MEASURE(0.0174532925),#10);
#16=(CONVERSION_BASED_UNIT('DEGREE',#12)NAMED_UNIT(#11)PLANE_ANGLE_UNIT());
#20=(NAMED_UNIT(*)SI_UNIT($,.STERADIAN.)SOLID_ANGLE_UNIT());
#24=(LENGTH_UNIT()NAMED_UNIT(*)SI_UNIT(.MILLI.,.METRE.));
#26=UNCERTAINTY_MEASURE_WITH_UNIT(LENGTH_MEASURE(0.000001),#24,'DISTANCE_ACCURACY_VALUE','');
#28=(GEOMETRIC_REPRESENTATION_CONTEXT(3)GLOBAL_UNCERTAINTY_ASSIGNED_CONTEXT((#26))GLOBAL_UNIT_ASSIGNED_CONTEXT((#16,#20,#24))REPRESENTATION_CONTEXT('','3D'));
#29=APPLICATION_CONTEXT('automotive design');
#30=APPLICATION_PROTOCOL_DEFINITION('INTERNATIONAL_STANDARD','automotive_design',1998,#29);
#31=PRODUCT_CONTEXT('3D Mechanical Parts',#29,'mechanical');
#32=PRODUCT('Product','Product','',(#31));
#33=PRODUCT_RELATED_PRODUCT_CATEGORY('part',$,(#32));
#34=PRODUCT_CATEGORY('part',$);
#35=PERSON('1','Design','Joe',$,$,$);
#36=ORGANIZATION($,'None','None');
#37=PERSON_AND_ORGANIZATION(#35,#36);
#38=PERSON_AND_ORGANIZATION_ROLE('design_owner');
#39=APPLIED_PERSON_AND_ORGANIZATION_ASSIGNMENT(#37,#38,(#32));
#40=PRODUCT_DEFINITION_FORMATION_WITH_SPECIFIED_SOURCE('None','',#32,.BOUGHT.);
#41=PERSON('2','Creator','Joe',$,$,$);
#42=ORGANIZATION($,'None','None');
#43=PERSON_AND_ORGANIZATION(#41,#42);
#44=PERSON_AND_ORGANIZATION_ROLE('creator');
#45=APPLIED_PERSON_AND_ORGANIZATION_ASSIGNMENT(#43,#44,(#40));
#46=PERSON('3','Supplier','Joe',$,$,$);
#47=ORGANIZATION($,'None','None');
#48=PERSON_AND_ORGANIZATION(#46,#47);
#49=PERSON_AND_ORGANIZATION_ROLE('design_supplier');
#50=APPLIED_PERSON_AND_ORGANIZATION_ASSIGNMENT(#48,#49,(#40));
#51=PRODUCT_DEFINITION_CONTEXT('part definition',#29,'design');
#52=PRODUCT_DEFINITION('None','',#40,#51);
#53=PERSON('4','Creator','Joe',$,$,$);
#54=ORGANIZATION($,'None','None');
#55=PERSON_AND_ORGANIZATION(#53,#54);
#56=PERSON_AND_ORGANIZATION_ROLE('creator');
#57=APPLIED_PERSON_AND_ORGANIZATION_ASSIGNMENT(#55,#56,(#52));
#58=CARTESIAN_POINT('NONE',(0.0,0.0,0.0));
#59=DIRECTION('NONE',(0.0,0.0,1.0));
#60=DIRECTION('NONE',(1.0,0.0,0.0));
#61=AXIS2_PLACEMENT_3D('NONE',#58,#59,#60);
#62=SHAPE_REPRESENTATION('SR1',(#61),#28);
#63=PRODUCT_DEFINITION_SHAPE('PDS1','Test Part',#52);
#64=SHAPE_DEFINITION_REPRESENTATION(#63,#62);
#65=CARTESIAN_POINT('',(-4.15,0.0,2.15));
#66=DIRECTION('',(-1.0,0.0,-2.220446E-016));
#67=DIRECTION('',(0.0,0.0,1.0));
#68=AXIS2_PLACEMENT_3D('',#65,#66,#67);
#69=TOROIDAL_SURFACE('',#68,2.0,0.15);
#70=CARTESIAN_POINT('',(-4.150000000000001,0.0,4.3));
#71=VERTEX_POINT('',#70);
#72=CARTESIAN_POINT('',(-4.000000000000002,0.0,4.15));
#73=VERTEX_POINT('',#72);
#74=CARTESIAN_POINT('',(-4.150000000000001,0.0,4.15));
#75=DIRECTION('',(0.0,1.0,0.0));
#76=DIRECTION('',(0.0,0.0,1.0));
#77=AXIS2_PLACEMENT_3D('',#74,#75,#76);
#78=CIRCLE('',#77,0.15);
#79=EDGE_CURVE('',#71,#73,#78,.T.);
#80=ORIENTED_EDGE('',*,*,#79,.F.);
#81=CARTESIAN_POINT('',(-4.15,-2.15,2.15));
#82=VERTEX_POINT('',#81);
#83=CARTESIAN_POINT('',(-4.15,0.0,2.15));
#84=DIRECTION('',(1.0,0.0,0.0));
#85=DIRECTION('',(0.0,1.0,0.0));
#86=AXIS2_PLACEMENT_3D('',#83,#84,#85);
#87=CIRCLE('',#86,2.15);
#88=EDGE_CURVE('',#71,#82,#87,.T.);
#89=ORIENTED_EDGE('',*,*,#88,.T.);
#90=CARTESIAN_POINT('',(-4.15,-2.632991E-016,0.0));
#91=VERTEX_POINT('',#90);
#92=CARTESIAN_POINT('',(-4.15,0.0,2.15));
#93=DIRECTION('',(1.0,0.0,0.0));
#94=DIRECTION('',(0.0,1.0,0.0));
#95=AXIS2_PLACEMENT_3D('',#92,#93,#94);
#96=CIRCLE('',#95,2.15);
#97=EDGE_CURVE('',#82,#91,#96,.T.);
#98=ORIENTED_EDGE('',*,*,#97,.T.);
#99=CARTESIAN_POINT('',(-3.999999999999999,-2.449294E-016,0.15));
#100=VERTEX_POINT('',#99);
#101=CARTESIAN_POINT('',(-4.15,-2.449294E-016,0.15));
#102=DIRECTION('',(0.0,-1.0,0.0));
#103=DIRECTION('',(0.0,0.0,-1.0));
#104=AXIS2_PLACEMENT_3D('',#101,#102,#103);
#105=CIRCLE('',#104,0.15);
#106=EDGE_CURVE('',#91,#100,#105,.T.);
#107=ORIENTED_EDGE('',*,*,#106,.T.);
#108=CARTESIAN_POINT('',(-4.0,-2.0,2.15));
#109=VERTEX_POINT('',#108);
#110=CARTESIAN_POINT('',(-4.0,0.0,2.15));
#111=DIRECTION('',(-1.0,0.0,0.0));
#112=DIRECTION('',(0.0,1.0,0.0));
#113=AXIS2_PLACEMENT_3D('',#110,#111,#112);
#114=CIRCLE('',#113,2.0);
#115=EDGE_CURVE('',#100,#109,#114,.T.);
#116=ORIENTED_EDGE('',*,*,#115,.T.);
#117=CARTESIAN_POINT('',(-4.0,0.0,2.15));
#118=DIRECTION('',(-1.0,0.0,0.0));
#119=DIRECTION('',(0.0,1.0,0.0));
#120=AXIS2_PLACEMENT_3D('',#117,#118,#119);
#121=CIRCLE('',#120,2.0);
#122=EDGE_CURVE('',#109,#73,#121,.T.);
#123=ORIENTED_EDGE('',*,*,#122,.T.);
#124=EDGE_LOOP('',(#80,#89,#98,#107,#116,#123));
#125=FACE_OUTER_BOUND('',#124,.T.);
#126=ADVANCED_FACE('',(#125),#69,.T.);
#127=CARTESIAN_POINT('',(-5.5,0.0,2.15));
#128=DIRECTION('',(1.0,0.0,2.220446E-016));
#129=DIRECTION('',(0.0,1.0,0.0));
#130=AXIS2_PLACEMENT_3D('',#127,#128,#129);
#131=CYLINDRICAL_SURFACE('',#130,2.15);
#132=CARTESIAN_POINT('',(-4.15,2.15,2.15));
#133=VERTEX_POINT('',#132);
#134=CARTESIAN_POINT('',(-5.35,2.15,2.149999999999999));
#135=VERTEX_POINT('',#134);
#136=CARTESIAN_POINT('',(-4.15,2.15,2.15));
#137=DIRECTION('',(-1.0,0.0,0.0));
#138=VECTOR('',#137,1.199999999999999);
#139=LINE('',#136,#138);
#140=EDGE_CURVE('',#133,#135,#139,.T.);
#141=ORIENTED_EDGE('',*,*,#140,.F.);
#142=CARTESIAN_POINT('',(-4.15,0.0,2.15));
#143=DIRECTION('',(1.0,0.0,0.0));
#144=DIRECTION('',(0.0,1.0,0.0));
#145=AXIS2_PLACEMENT_3D('',#142,#143,#144);
#146=CIRCLE('',#145,2.15);
#147=EDGE_CURVE('',#91,#133,#146,.T.);
#148=ORIENTED_EDGE('',*,*,#147,.F.);
#149=ORIENTED_EDGE('',*,*,#97,.F.);
#150=CARTESIAN_POINT('',(-5.35,-2.15,2.149999999999999));
#151=VERTEX_POINT('',#150);
#152=CARTESIAN_POINT('',(-4.15,-2.15,2.15));
#153=DIRECTION('',(-1.0,0.0,0.0));
#154=VECTOR('',#153,1.199999999999999);
#155=LINE('',#152,#154);
#156=EDGE_CURVE('',#82,#151,#155,.T.);
#157=ORIENTED_EDGE('',*,*,#156,.T.);
#158=CARTESIAN_POINT('',(-5.349999999999999,0.0,-4.440892E-016));
#159=VERTEX_POINT('',#158);
#160=CARTESIAN_POINT('',(-5.35,0.0,2.15));
#161=DIRECTION('',(-1.0,0.0,0.0));
#162=DIRECTION('',(0.0,-1.0,0.0));
#163=AXIS2_PLACEMENT_3D('',#160,#161,#162);
#164=CIRCLE('',#163,2.15);
#165=EDGE_CURVE('',#159,#151,#164,.T.);
#166=ORIENTED_EDGE('',*,*,#165,.F.);
#167=CARTESIAN_POINT('',(-5.35,0.0,2.15));
#168=DIRECTION('',(-1.0,0.0,0.0));
#169=DIRECTION('',(0.0,-1.0,0.0));
#170=AXIS2_PLACEMENT_3D('',#167,#168,#169);
#171=CIRCLE('',#170,2.15);
#172=EDGE_CURVE('',#135,#159,#171,.T.);
#173=ORIENTED_EDGE('',*,*,#172,.F.);
#174=EDGE_LOOP('',(#141,#148,#149,#157,#166,#173));
#175=FACE_OUTER_BOUND('',#174,.T.);
#176=ADVANCED_FACE('',(#175),#131,.T.);
#177=CARTESIAN_POINT('',(-5.35,0.0,2.15));
#178=DIRECTION('',(1.0,0.0,2.220446E-016));
#179=DIRECTION('',(0.0,0.0,-1.0));
#180=AXIS2_PLACEMENT_3D('',#177,#178,#179);
#181=TOROIDAL_SURFACE('',#180,2.0,0.15);
#182=CARTESIAN_POINT('',(-5.499999999999998,0.0,0.149999999999999));
#183=VERTEX_POINT('',#182);
#184=CARTESIAN_POINT('',(-5.349999999999999,0.0,0.149999999999999));
#185=DIRECTION('',(0.0,1.0,0.0));
#186=DIRECTION('',(0.0,0.0,-1.0));
#187=AXIS2_PLACEMENT_3D('',#184,#185,#186);
#188=CIRCLE('',#187,0.15);
#189=EDGE_CURVE('',#159,#183,#188,.T.);
#190=ORIENTED_EDGE('',*,*,#189,.F.);
#191=ORIENTED_EDGE('',*,*,#165,.T.);
#192=CARTESIAN_POINT('',(-5.350000000000001,-2.632991E-016,4.299999999999999));
#193=VERTEX_POINT('',#192);
#194=CARTESIAN_POINT('',(-5.35,0.0,2.15));
#195=DIRECTION('',(-1.0,0.0,0.0));
#196=DIRECTION('',(0.0,-1.0,0.0));
#197=AXIS2_PLACEMENT_3D('',#194,#195,#196);
#198=CIRCLE('',#197,2.15);
#199=EDGE_CURVE('',#151,#193,#198,.T.);
#200=ORIENTED_EDGE('',*,*,#199,.T.);
#201=CARTESIAN_POINT('',(-5.500000000000002,-2.449294E-016,4.15));
#202=VERTEX_POINT('',#201);
#203=CARTESIAN_POINT('',(-5.350000000000001,-2.449294E-016,4.15));
#204=DIRECTION('',(0.0,-1.0,0.0));
#205=DIRECTION('',(0.0,0.0,1.0));
#206=AXIS2_PLACEMENT_3D('',#203,#204,#205);
#207=CIRCLE('',#206,0.15);
#208=EDGE_CURVE('',#193,#202,#207,.T.);
#209=ORIENTED_EDGE('',*,*,#208,.T.);
#210=CARTESIAN_POINT('',(-5.5,0.0,2.15));
#211=DIRECTION('',(1.0,0.0,0.0));
#212=DIRECTION('',(0.0,-1.0,0.0));
#213=AXIS2_PLACEMENT_3D('',#210,#211,#212);
#214=CIRCLE('',#213,2.0);
#215=EDGE_CURVE('',#202,#183,#214,.T.);
#216=ORIENTED_EDGE('',*,*,#215,.T.);
#217=EDGE_LOOP('',(#190,#191,#200,#209,#216));
#218=FACE_OUTER_BOUND('',#217,.T.);
#219=ADVANCED_FACE('',(#218),#181,.T.);
#220=CARTESIAN_POINT('',(-5.35,0.0,2.15));
#221=DIRECTION('',(1.0,0.0,2.220446E-016));
#222=DIRECTION('',(0.0,0.0,-1.0));
#223=AXIS2_PLACEMENT_3D('',#220,#221,#222);
#224=TOROIDAL_SURFACE('',#223,2.0,0.15);
#225=ORIENTED_EDGE('',*,*,#189,.T.);
#226=CARTESIAN_POINT('',(-5.5,2.0,2.15));
#227=VERTEX_POINT('',#226);
#228=CARTESIAN_POINT('',(-5.5,0.0,2.15));
#229=DIRECTION('',(1.0,0.0,0.0));
#230=DIRECTION('',(0.0,-1.0,0.0));
#231=AXIS2_PLACEMENT_3D('',#228,#229,#230);
#232=CIRCLE('',#231,2.0);
#233=EDGE_CURVE('',#183,#227,#232,.T.);
#234=ORIENTED_EDGE('',*,*,#233,.T.);
#235=CARTESIAN_POINT('',(-5.5,0.0,2.15));
#236=DIRECTION('',(1.0,0.0,0.0));
#237=DIRECTION('',(0.0,-1.0,0.0));
#238=AXIS2_PLACEMENT_3D('',#235,#236,#237);
#239=CIRCLE('',#238,2.0);
#240=EDGE_CURVE('',#227,#202,#239,.T.);
#241=ORIENTED_EDGE('',*,*,#240,.T.);
#242=ORIENTED_EDGE('',*,*,#208,.F.);
#243=CARTESIAN_POINT('',(-5.35,0.0,2.15));
#244=DIRECTION('',(-1.0,0.0,0.0));
#245=DIRECTION('',(0.0,-1.0,0.0));
#246=AXIS2_PLACEMENT_3D('',#243,#244,#245);
#247=CIRCLE('',#246,2.15);
#248=EDGE_CURVE('',#193,#135,#247,.T.);
#249=ORIENTED_EDGE('',*,*,#248,.T.);
#250=ORIENTED_EDGE('',*,*,#172,.T.);
#251=EDGE_LOOP('',(#225,#234,#241,#242,#249,#250));
#252=FACE_OUTER_BOUND('',#251,.T.);
#253=ADVANCED_FACE('',(#252),#224,.T.);
#254=CARTESIAN_POINT('',(-5.5,0.0,2.15));
#255=DIRECTION('',(1.0,0.0,2.220446E-016));
#256=DIRECTION('',(0.0,1.0,0.0));
#257=AXIS2_PLACEMENT_3D('',#254,#255,#256);
#258=CYLINDRICAL_SURFACE('',#257,2.15);
#259=ORIENTED_EDGE('',*,*,#140,.T.);
#260=ORIENTED_EDGE('',*,*,#248,.F.);
#261=ORIENTED_EDGE('',*,*,#199,.F.);
#262=ORIENTED_EDGE('',*,*,#156,.F.);
#263=ORIENTED_EDGE('',*,*,#88,.F.);
#264=CARTESIAN_POINT('',(-4.15,0.0,2.15));
#265=DIRECTION('',(1.0,0.0,0.0));
#266=DIRECTION('',(0.0,1.0,0.0));
#267=AXIS2_PLACEMENT_3D('',#264,#265,#266);
#268=CIRCLE('',#267,2.15);
#269=EDGE_CURVE('',#133,#71,#268,.T.);
#270=ORIENTED_EDGE('',*,*,#269,.F.);
#271=EDGE_LOOP('',(#259,#260,#261,#262,#263,#270));
#272=FACE_OUTER_BOUND('',#271,.T.);
#273=ADVANCED_FACE('',(#272),#258,.T.);
#274=CARTESIAN_POINT('',(-5.5,0.0,2.15));
#275=DIRECTION('',(1.0,0.0,0.0));
#276=DIRECTION('',(0.0,0.0,-1.0));
#277=AXIS2_PLACEMENT_3D('',#274,#275,#276);
#278=PLANE('',#277);
#279=ORIENTED_EDGE('',*,*,#240,.F.);
#280=ORIENTED_EDGE('',*,*,#233,.F.);
#281=ORIENTED_EDGE('',*,*,#215,.F.);
#282=EDGE_LOOP('',(#279,#280,#281));
#283=FACE_OUTER_BOUND('',#282,.T.);
#284=ADVANCED_FACE('',(#283),#278,.F.);
#285=CARTESIAN_POINT('',(-4.15,0.0,2.15));
#286=DIRECTION('',(-1.0,0.0,-2.220446E-016));
#287=DIRECTION('',(0.0,0.0,1.0));
#288=AXIS2_PLACEMENT_3D('',#285,#286,#287);
#289=TOROIDAL_SURFACE('',#288,2.0,0.15);
#290=ORIENTED_EDGE('',*,*,#79,.T.);
#291=CARTESIAN_POINT('',(-4.0,0.0,2.15));
#292=DIRECTION('',(-1.0,0.0,0.0));
#293=DIRECTION('',(0.0,1.0,0.0));
#294=AXIS2_PLACEMENT_3D('',#291,#292,#293);
#295=CIRCLE('',#294,2.0);
#296=EDGE_CURVE('',#73,#100,#295,.T.);
#297=ORIENTED_EDGE('',*,*,#296,.T.);
#298=ORIENTED_EDGE('',*,*,#106,.F.);
#299=ORIENTED_EDGE('',*,*,#147,.T.);
#300=ORIENTED_EDGE('',*,*,#269,.T.);
#301=EDGE_LOOP('',(#290,#297,#298,#299,#300));
#302=FACE_OUTER_BOUND('',#301,.T.);
#303=ADVANCED_FACE('',(#302),#289,.T.);
#304=CARTESIAN_POINT('',(-4.0,2.109424E-015,2.150000000000002));
#305=DIRECTION('',(1.0,0.0,0.0));
#306=DIRECTION('',(0.0,0.0,-1.0));
#307=AXIS2_PLACEMENT_3D('',#304,#305,#306);
#308=PLANE('',#307);
#309=ORIENTED_EDGE('',*,*,#122,.F.);
#310=ORIENTED_EDGE('',*,*,#115,.F.);
#311=ORIENTED_EDGE('',*,*,#296,.F.);
#312=EDGE_LOOP('',(#309,#310,#311));
#313=FACE_OUTER_BOUND('',#312,.T.);
#314=ADVANCED_FACE('',(#313),#308,.T.);
#315=CLOSED_SHELL('',(#126,#176,#219,#253,#273,#284,#303,#314));
#316=MANIFOLD_SOLID_BREP('11C7',#315);
#317=COLOUR_RGB('252',0.598,0.598,0.598);
#318=SURFACE_STYLE_USAGE(.BOTH.,#319);
#319=SURFACE_SIDE_STYLE('NONE',(#320));
#320=SURFACE_STYLE_FILL_AREA(#321);
#321=FILL_AREA_STYLE('NONE',(#322));
#322=FILL_AREA_STYLE_COLOUR('NONE',#317);
#323=PRESENTATION_STYLE_ASSIGNMENT((#318));
#324=STYLED_ITEM('NONE',(#323),#316);
#325=MECHANICAL_DESIGN_GEOMETRIC_PRESENTATION_REPRESENTATION('NONE',(#324,#415,#793,#984,#1237),#28);
#326=PRESENTATION_LAYER_ASSIGNMENT('3D','None',(#316,#414,#785,#983,#1236));
#327=CARTESIAN_POINT('',(-5.5,0.0,2.15));
#328=DIRECTION('',(1.0,-2.220446E-016,0.0));
#329=DIRECTION('',(0.0,1.0,0.0));
#330=AXIS2_PLACEMENT_3D('',#327,#328,#329);
#331=CYLINDRICAL_SURFACE('',#330,2.0);
#332=CARTESIAN_POINT('',(5.5,1.999999999999998,2.15));
#333=VERTEX_POINT('',#332);
#334=CARTESIAN_POINT('',(-5.5,2.0,2.15));
#335=VERTEX_POINT('',#334);
#336=CARTESIAN_POINT('',(5.5,1.999999999999998,2.15));
#337=DIRECTION('',(-1.0,0.0,0.0));
#338=VECTOR('',#337,11.0);
#339=LINE('',#336,#338);
#340=EDGE_CURVE('',#333,#335,#339,.T.);
#341=ORIENTED_EDGE('',*,*,#340,.F.);
#342=CARTESIAN_POINT('',(5.5,-2.000000000000003,2.149999999999999));
#343=VERTEX_POINT('',#342);
#344=CARTESIAN_POINT('',(5.5,-2.442491E-015,2.15));
#345=DIRECTION('',(-1.0,0.0,0.0));
#346=DIRECTION('',(0.0,1.0,0.0));
#347=AXIS2_PLACEMENT_3D('',#344,#345,#346);
#348=CIRCLE('',#347,2.0);
#349=EDGE_CURVE('',#333,#343,#348,.T.);
#350=ORIENTED_EDGE('',*,*,#349,.T.);
#351=CARTESIAN_POINT('',(-5.5,-2.0,2.149999999999999));
#352=VERTEX_POINT('',#351);
#353=CARTESIAN_POINT('',(5.5,-2.000000000000003,2.149999999999999));
#354=DIRECTION('',(-1.0,0.0,0.0));
#355=VECTOR('',#354,11.0);
#356=LINE('',#353,#355);
#357=EDGE_CURVE('',#343,#352,#356,.T.);
#358=ORIENTED_EDGE('',*,*,#357,.T.);
#359=CARTESIAN_POINT('',(-5.5,0.0,2.15));
#360=DIRECTION('',(1.0,0.0,0.0));
#361=DIRECTION('',(0.0,1.0,0.0));
#362=AXIS2_PLACEMENT_3D('',#359,#360,#361);
#363=CIRCLE('',#362,2.0);
#364=EDGE_CURVE('',#352,#335,#363,.T.);
#365=ORIENTED_EDGE('',*,*,#364,.T.);
#366=EDGE_LOOP('',(#341,#350,#358,#365));
#367=FACE_OUTER_BOUND('',#366,.T.);
#368=ADVANCED_FACE('',(#367),#331,.T.);
#369=CARTESIAN_POINT('',(-5.5,0.0,2.15));
#370=DIRECTION('',(1.0,-2.220446E-016,0.0));
#371=DIRECTION('',(0.0,1.0,0.0));
#372=AXIS2_PLACEMENT_3D('',#369,#370,#371);
#373=CYLINDRICAL_SURFACE('',#372,2.0);
#374=ORIENTED_EDGE('',*,*,#340,.T.);
#375=CARTESIAN_POINT('',(-5.5,0.0,2.15));
#376=DIRECTION('',(1.0,0.0,0.0));
#377=DIRECTION('',(0.0,1.0,0.0));
#378=AXIS2_PLACEMENT_3D('',#375,#376,#377);
#379=CIRCLE('',#378,2.0);
#380=EDGE_CURVE('',#335,#352,#379,.T.);
#381=ORIENTED_EDGE('',*,*,#380,.T.);
#382=ORIENTED_EDGE('',*,*,#357,.F.);
#383=CARTESIAN_POINT('',(5.5,-2.442491E-015,2.15));
#384=DIRECTION('',(-1.0,0.0,0.0));
#385=DIRECTION('',(0.0,1.0,0.0));
#386=AXIS2_PLACEMENT_3D('',#383,#384,#385);
#387=CIRCLE('',#386,2.0);
#388=EDGE_CURVE('',#343,#333,#387,.T.);
#389=ORIENTED_EDGE('',*,*,#388,.T.);
#390=EDGE_LOOP('',(#374,#381,#382,#389));
#391=FACE_OUTER_BOUND('',#390,.T.);
#392=ADVANCED_FACE('',(#391),#373,.T.);
#393=CARTESIAN_POINT('',(-5.5,0.0,2.15));
#394=DIRECTION('',(1.0,0.0,0.0));
#395=DIRECTION('',(0.0,0.0,-1.0));
#396=AXIS2_PLACEMENT_3D('',#393,#394,#395);
#397=PLANE('',#396);
#398=ORIENTED_EDGE('',*,*,#380,.F.);
#399=ORIENTED_EDGE('',*,*,#364,.F.);
#400=EDGE_LOOP('',(#398,#399));
#401=FACE_OUTER_BOUND('',#400,.T.);
#402=ADVANCED_FACE('',(#401),#397,.F.);
#403=CARTESIAN_POINT('',(5.5,-2.442491E-015,2.15));
#404=DIRECTION('',(1.0,0.0,0.0));
#405=DIRECTION('',(0.0,0.0,-1.0));
#406=AXIS2_PLACEMENT_3D('',#403,#404,#405);
#407=PLANE('',#406);
#408=ORIENTED_EDGE('',*,*,#349,.F.);
#409=ORIENTED_EDGE('',*,*,#388,.F.);
#410=EDGE_LOOP('',(#408,#409));
#411=FACE_OUTER_BOUND('',#410,.T.);
#412=ADVANCED_FACE('',(#411),#407,.T.);
#413=CLOSED_SHELL('',(#368,#392,#402,#412));
#414=MANIFOLD_SOLID_BREP('11C3',#413);
#415=STYLED_ITEM('NONE',(#323),#414);
#416=CARTESIAN_POINT('',(6.419999999999998,-4.898587E-017,0.149999999999999));
#417=CARTESIAN_POINT('',(6.419999999999998,-0.4,0.149999999999999));
#418=CARTESIAN_POINT('',(6.419999999999998,-0.4,-0.250000000000001));
#419=CARTESIAN_POINT('',(6.419999999999998,-0.4,-0.650000000000001));
#420=CARTESIAN_POINT('',(6.419999999999998,0.0,-0.650000000000001));
#421=CARTESIAN_POINT('',(7.219999999999999,-4.898587E-017,0.149999999999999));
#422=CARTESIAN_POINT('',(7.219999999999998,-0.4,0.149999999999999));
#423=CARTESIAN_POINT('',(7.619999999999997,-0.4,-0.250000000000001));
#424=CARTESIAN_POINT('',(8.019999999999998,-0.4,-0.65));
#425=CARTESIAN_POINT('',(8.019999999999998,0.0,-0.65));
#426=CARTESIAN_POINT('',(7.219999999999999,-4.898587E-017,0.949999999999999));
#427=CARTESIAN_POINT('',(7.219999999999999,-0.4,0.949999999999999));
#428=CARTESIAN_POINT('',(7.619999999999998,-0.4,0.949999999999999));
#429=CARTESIAN_POINT('',(8.019999999999998,-0.4,0.949999999999999));
#430=CARTESIAN_POINT('',(8.019999999999998,0.0,0.949999999999999));
#431=CARTESIAN_POINT('',(7.219999999999999,-4.898587E-017,1.749999999999999));
#432=CARTESIAN_POINT('',(7.219999999999998,-0.4,1.749999999999999));
#433=CARTESIAN_POINT('',(7.619999999999997,-0.4,2.149999999999999));
#434=CARTESIAN_POINT('',(8.019999999999998,-0.4,2.549999999999999));
#435=CARTESIAN_POINT('',(8.019999999999998,0.0,2.549999999999999));
#436=CARTESIAN_POINT('',(6.419999999999998,-4.898587E-017,1.75));
#437=CARTESIAN_POINT('',(6.419999999999998,-0.4,1.75));
#438=CARTESIAN_POINT('',(6.419999999999998,-0.4,2.15));
#439=CARTESIAN_POINT('',(6.419999999999998,-0.4,2.549999999999999));
#440=CARTESIAN_POINT('',(6.419999999999998,0.0,2.549999999999999));
#441=CARTESIAN_POINT('',(5.619999999999998,-4.898587E-017,1.749999999999999));
#442=CARTESIAN_POINT('',(5.619999999999998,-0.4,1.749999999999999));
#443=CARTESIAN_POINT('',(5.219999999999998,-0.4,2.149999999999999));
#444=CARTESIAN_POINT('',(4.819999999999999,-0.4,2.549999999999999));
#445=CARTESIAN_POINT('',(4.819999999999999,0.0,2.549999999999999));
#446=CARTESIAN_POINT('',(5.619999999999997,-4.898587E-017,0.949999999999999));
#447=CARTESIAN_POINT('',(5.619999999999997,-0.4,0.949999999999999));
#448=CARTESIAN_POINT('',(5.219999999999998,-0.4,0.949999999999999));
#449=CARTESIAN_POINT('',(4.819999999999999,-0.4,0.949999999999999));
#450=CARTESIAN_POINT('',(4.819999999999999,0.0,0.949999999999999));
#451=CARTESIAN_POINT('',(5.619999999999998,-4.898587E-017,0.149999999999999));
#452=CARTESIAN_POINT('',(5.619999999999998,-0.4,0.149999999999999));
#453=CARTESIAN_POINT('',(5.219999999999998,-0.4,-0.250000000000001));
#454=CARTESIAN_POINT('',(4.819999999999999,-0.4,-0.65));
#455=CARTESIAN_POINT('',(4.819999999999999,0.0,-0.65));
#456=CARTESIAN_POINT('',(6.419999999999998,-4.898587E-017,0.149999999999999));
#457=CARTESIAN_POINT('',(6.419999999999998,-0.4,0.149999999999999));
#458=CARTESIAN_POINT('',(6.419999999999998,-0.4,-0.250000000000001));
#459=CARTESIAN_POINT('',(6.419999999999998,-0.4,-0.650000000000001));
#460=CARTESIAN_POINT('',(6.419999999999998,0.0,-0.650000000000001));
#468=(BOUNDED_SURFACE()B_SPLINE_SURFACE(2,2,((#416,#421,#426,#431,#436,#441,#446,#451,#456),(#417,#422,#427,#432,#437,#442,#447,#452,#457),(#418,#423,#428,#433,#438,#443,#448,#453,#458),(#419,#424,#429,#434,#439,#444,#449,#454,#459),(#420,#425,#430,#435,#440,#445,#450,#455,#460)),.UNSPECIFIED.,.F.,.T.,.U.)B_SPLINE_SURFACE_WITH_KNOTS((3,2,3),(3,2,2,2,3),(-3.141592653589793,-1.570796326794897,0.0),(0.0,1.570796326794897,3.141592653589793,4.71238898038469,6.283185307179586),.UNSPECIFIED.)GEOMETRIC_REPRESENTATION_ITEM()RATIONAL_B_SPLINE_SURFACE(((1.0,0.707106781186548,1.0,0.707106781186548,1.0,0.707106781186548,1.0,0.707106781186548,1.0),(0.707106781186547,0.5,0.707106781186547,0.5,0.707106781186547,0.5,0.707106781186547,0.5,0.707106781186547),(1.0,0.707106781186548,1.0,0.707106781186548,1.0,0.707106781186548,1.0,0.707106781186548,1.0),(0.707106781186548,0.5,0.707106781186548,0.5,0.707106781186548,0.5,0.707106781186548,0.5,0.707106781186548),(1.0,0.707106781186548,1.0,0.707106781186548,1.0,0.707106781186548,1.0,0.707106781186548,1.0)))REPRESENTATION_ITEM('')SURFACE());
#469=CARTESIAN_POINT('',(6.419999999999998,-4.898587E-017,2.549999999999999));
#470=VERTEX_POINT('',#469);
#471=CARTESIAN_POINT('',(8.019999999999998,-4.898587E-017,0.949999999999999));
#472=VERTEX_POINT('',#471);
#473=CARTESIAN_POINT('',(6.419999999999998,0.0,0.949999999999999));
#474=DIRECTION('',(0.0,1.0,0.0));
#475=DIRECTION('',(0.0,0.0,1.0));
#476=AXIS2_PLACEMENT_3D('',#473,#474,#475);
#477=CIRCLE('',#476,1.6);
#478=EDGE_CURVE('',#470,#472,#477,.T.);
#479=ORIENTED_EDGE('',*,*,#478,.F.);
#480=CARTESIAN_POINT('',(6.419999999999998,0.0,1.749999999999999));
#481=VERTEX_POINT('',#480);
#482=CARTESIAN_POINT('',(6.419999999999998,0.0,2.15));
#483=DIRECTION('',(-1.0,0.0,0.0));
#484=DIRECTION('',(0.0,0.0,-1.0));
#485=AXIS2_PLACEMENT_3D('',#482,#483,#484);
#486=CIRCLE('',#485,0.4);
#487=EDGE_CURVE('',#481,#470,#486,.T.);
#488=ORIENTED_EDGE('',*,*,#487,.F.);
#489=CARTESIAN_POINT('',(7.219999999999998,0.0,0.95));
#490=VERTEX_POINT('',#489);
#491=CARTESIAN_POINT('',(6.419999999999998,-4.898587E-017,0.949999999999999));
#492=DIRECTION('',(0.0,1.0,0.0));
#493=DIRECTION('',(0.0,0.0,1.0));
#494=AXIS2_PLACEMENT_3D('',#491,#492,#493);
#495=CIRCLE('',#494,0.8);
#496=EDGE_CURVE('',#481,#490,#495,.T.);
#497=ORIENTED_EDGE('',*,*,#496,.T.);
#498=CARTESIAN_POINT('',(7.619999999999998,0.0,0.949999999999999));
#499=DIRECTION('',(0.0,0.0,1.0));
#500=DIRECTION('',(-1.0,0.0,0.0));
#501=AXIS2_PLACEMENT_3D('',#498,#499,#500);
#502=CIRCLE('',#501,0.4);
#503=EDGE_CURVE('',#490,#472,#502,.T.);
#504=ORIENTED_EDGE('',*,*,#503,.T.);
#505=EDGE_LOOP('',(#479,#488,#497,#504));
#506=FACE_OUTER_BOUND('',#505,.T.);
#507=ADVANCED_FACE('',(#506),#468,.T.);
#508=CARTESIAN_POINT('',(8.019999999999998,-4.898587E-017,-3.8));
#509=CARTESIAN_POINT('',(8.019999999999998,-4.898587E-017,0.95));
#510=CARTESIAN_POINT('',(8.019999999999998,-0.399999999999999,-3.8));
#511=CARTESIAN_POINT('',(8.019999999999998,-0.399999999999999,0.95));
#512=CARTESIAN_POINT('',(7.619999999999998,-0.399999999999999,-3.8));
#513=CARTESIAN_POINT('',(7.619999999999998,-0.399999999999999,0.95));
#514=CARTESIAN_POINT('',(7.219999999999999,-0.399999999999999,-3.8));
#515=CARTESIAN_POINT('',(7.219999999999999,-0.399999999999999,0.95));
#516=CARTESIAN_POINT('',(7.219999999999999,4.898587E-017,-3.8));
#517=CARTESIAN_POINT('',(7.219999999999999,4.898587E-017,0.95));
#518=CARTESIAN_POINT('',(7.219999999999999,0.399999999999999,-3.8));
#519=CARTESIAN_POINT('',(7.219999999999999,0.399999999999999,0.95));
#520=CARTESIAN_POINT('',(7.619999999999998,0.399999999999999,-3.8));
#521=CARTESIAN_POINT('',(7.619999999999998,0.399999999999999,0.95));
#522=CARTESIAN_POINT('',(8.019999999999998,0.399999999999999,-3.8));
#523=CARTESIAN_POINT('',(8.019999999999998,0.399999999999999,0.95));
#524=CARTESIAN_POINT('',(8.019999999999998,-4.898587E-017,-3.8));
#525=CARTESIAN_POINT('',(8.019999999999998,-4.898587E-017,0.95));
#533=(BOUNDED_SURFACE()B_SPLINE_SURFACE(1,2,((#508,#510,#512,#514,#516,#518,#520,#522,#524),(#509,#511,#513,#515,#517,#519,#521,#523,#525)),.UNSPECIFIED.,.F.,.T.,.U.)B_SPLINE_SURFACE_WITH_KNOTS((2,2),(3,2,2,2,3),(0.0,11.875),(0.0,0.628318530717959,1.256637061435917,1.884955592153876,2.513274122871835),.UNSPECIFIED.)GEOMETRIC_REPRESENTATION_ITEM()RATIONAL_B_SPLINE_SURFACE(((1.0,0.707106781186548,1.0,0.707106781186548,1.0,0.707106781186548,1.0,0.707106781186548,1.0),(1.0,0.707106781186548,1.0,0.707106781186548,1.0,0.707106781186548,1.0,0.707106781186548,1.0)))REPRESENTATION_ITEM('')SURFACE());
#534=CARTESIAN_POINT('',(7.219999999999998,0.0,-3.8));
#535=VERTEX_POINT('',#534);
#536=CARTESIAN_POINT('',(7.219999999999998,0.0,0.949999999999999));
#537=DIRECTION('',(0.0,0.0,-1.0));
#538=VECTOR('',#537,4.749999999999999);
#539=LINE('',#536,#538);
#540=EDGE_CURVE('',#490,#535,#539,.T.);
#541=ORIENTED_EDGE('',*,*,#540,.F.);
#542=CARTESIAN_POINT('',(7.619999999999998,0.0,0.949999999999999));
#543=DIRECTION('',(0.0,0.0,1.0));
#544=DIRECTION('',(-1.0,0.0,0.0));
#545=AXIS2_PLACEMENT_3D('',#542,#543,#544);
#546=CIRCLE('',#545,0.4);
#547=EDGE_CURVE('',#472,#490,#546,.T.);
#548=ORIENTED_EDGE('',*,*,#547,.F.);
#549=CARTESIAN_POINT('',(8.019999999999998,-4.898587E-017,-3.8));
#550=VERTEX_POINT('',#549);
#551=CARTESIAN_POINT('',(8.019999999999998,-4.898587E-017,0.949999999999999));
#552=DIRECTION('',(0.0,0.0,-1.0));
#553=VECTOR('',#552,4.749999999999999);
#554=LINE('',#551,#553);
#555=EDGE_CURVE('',#472,#550,#554,.T.);
#556=ORIENTED_EDGE('',*,*,#555,.T.);
#557=CARTESIAN_POINT('',(7.619999999999998,0.0,-3.8));
#558=DIRECTION('',(0.0,0.0,-1.0));
#559=DIRECTION('',(-1.0,0.0,0.0));
#560=AXIS2_PLACEMENT_3D('',#557,#558,#559);
#561=CIRCLE('',#560,0.4);
#562=EDGE_CURVE('',#535,#550,#561,.T.);
#563=ORIENTED_EDGE('',*,*,#562,.F.);
#564=EDGE_LOOP('',(#541,#548,#556,#563));
#565=FACE_OUTER_BOUND('',#564,.T.);
#566=ADVANCED_FACE('',(#565),#533,.T.);
#567=CARTESIAN_POINT('',(6.419999999999998,-4.898587E-017,2.549999999999999));
#568=CARTESIAN_POINT('',(5.5,-4.898587E-017,2.549999999999999));
#569=CARTESIAN_POINT('',(6.419999999999997,-0.4,2.549999999999999));
#570=CARTESIAN_POINT('',(5.5,-0.4,2.549999999999999));
#571=CARTESIAN_POINT('',(6.419999999999998,-0.4,2.15));
#572=CARTESIAN_POINT('',(5.5,-0.4,2.15));
#573=CARTESIAN_POINT('',(6.419999999999997,-0.4,1.75));
#574=CARTESIAN_POINT('',(5.5,-0.4,1.75));
#575=CARTESIAN_POINT('',(6.419999999999998,4.898587E-017,1.75));
#576=CARTESIAN_POINT('',(5.5,4.898587E-017,1.75));
#577=CARTESIAN_POINT('',(6.419999999999997,0.4,1.75));
#578=CARTESIAN_POINT('',(5.5,0.4,1.75));
#579=CARTESIAN_POINT('',(6.419999999999998,0.4,2.15));
#580=CARTESIAN_POINT('',(5.5,0.4,2.15));
#581=CARTESIAN_POINT('',(6.419999999999997,0.4,2.549999999999999));
#582=CARTESIAN_POINT('',(5.5,0.4,2.549999999999999));
#583=CARTESIAN_POINT('',(6.419999999999998,-4.898587E-017,2.549999999999999));
#584=CARTESIAN_POINT('',(5.5,-4.898587E-017,2.549999999999999));
#592=(BOUNDED_SURFACE()B_SPLINE_SURFACE(1,2,((#567,#569,#571,#573,#575,#577,#579,#581,#583),(#568,#570,#572,#574,#576,#578,#580,#582,#584)),.UNSPECIFIED.,.F.,.T.,.U.)B_SPLINE_SURFACE_WITH_KNOTS((2,2),(3,2,2,2,3),(0.0,2.299999999999995),(0.0,0.628318530717959,1.256637061435917,1.884955592153876,2.513274122871835),.UNSPECIFIED.)GEOMETRIC_REPRESENTATION_ITEM()RATIONAL_B_SPLINE_SURFACE(((1.0,0.707106781186548,1.0,0.707106781186548,1.0,0.707106781186548,1.0,0.707106781186548,1.0),(1.0,0.707106781186548,1.0,0.707106781186548,1.0,0.707106781186548,1.0,0.707106781186548,1.0)))REPRESENTATION_ITEM('')SURFACE());
#593=CARTESIAN_POINT('',(5.5,0.0,1.749999999999999));
#594=VERTEX_POINT('',#593);
#595=CARTESIAN_POINT('',(5.5,0.0,1.75));
#596=DIRECTION('',(1.0,0.0,0.0));
#597=VECTOR('',#596,0.919999999999998);
#598=LINE('',#595,#597);
#599=EDGE_CURVE('',#594,#481,#598,.T.);
#600=ORIENTED_EDGE('',*,*,#599,.F.);
#601=CARTESIAN_POINT('',(5.5,-4.898587E-017,2.549999999999999));
#602=VERTEX_POINT('',#601);
#603=CARTESIAN_POINT('',(5.5,0.0,2.15));
#604=DIRECTION('',(-1.0,0.0,0.0));
#605=DIRECTION('',(0.0,0.0,-1.0));
#606=AXIS2_PLACEMENT_3D('',#603,#604,#605);
#607=CIRCLE('',#606,0.4);
#608=EDGE_CURVE('',#602,#594,#607,.T.);
#609=ORIENTED_EDGE('',*,*,#608,.F.);
#610=CARTESIAN_POINT('',(5.5,-4.898587E-017,2.549999999999999));
#611=DIRECTION('',(1.0,0.0,0.0));
#612=VECTOR('',#611,0.919999999999998);
#613=LINE('',#610,#612);
#614=EDGE_CURVE('',#602,#470,#613,.T.);
#615=ORIENTED_EDGE('',*,*,#614,.T.);
#616=CARTESIAN_POINT('',(6.419999999999998,0.0,2.15));
#617=DIRECTION('',(-1.0,0.0,0.0));
#618=DIRECTION('',(0.0,0.0,-1.0));
#619=AXIS2_PLACEMENT_3D('',#616,#617,#618);
#620=CIRCLE('',#619,0.4);
#621=EDGE_CURVE('',#470,#481,#620,.T.);
#622=ORIENTED_EDGE('',*,*,#621,.T.);
#623=EDGE_LOOP('',(#600,#609,#615,#622));
#624=FACE_OUTER_BOUND('',#623,.T.);
#625=ADVANCED_FACE('',(#624),#592,.T.);
#626=CARTESIAN_POINT('',(6.419999999999998,-4.898587E-017,2.549999999999999));
#627=CARTESIAN_POINT('',(5.5,-4.898587E-017,2.549999999999999));
#628=CARTESIAN_POINT('',(6.419999999999997,-0.4,2.549999999999999));
#629=CARTESIAN_POINT('',(5.5,-0.4,2.549999999999999));
#630=CARTESIAN_POINT('',(6.419999999999998,-0.4,2.15));
#631=CARTESIAN_POINT('',(5.5,-0.4,2.15));
#632=CARTESIAN_POINT('',(6.419999999999997,-0.4,1.75));
#633=CARTESIAN_POINT('',(5.5,-0.4,1.75));
#634=CARTESIAN_POINT('',(6.419999999999998,4.898587E-017,1.75));
#635=CARTESIAN_POINT('',(5.5,4.898587E-017,1.75));
#636=CARTESIAN_POINT('',(6.419999999999997,0.4,1.75));
#637=CARTESIAN_POINT('',(5.5,0.4,1.75));
#638=CARTESIAN_POINT('',(6.419999999999998,0.4,2.15));
#639=CARTESIAN_POINT('',(5.5,0.4,2.15));
#640=CARTESIAN_POINT('',(6.419999999999997,0.4,2.549999999999999));
#641=CARTESIAN_POINT('',(5.5,0.4,2.549999999999999));
#642=CARTESIAN_POINT('',(6.419999999999998,-4.898587E-017,2.549999999999999));
#643=CARTESIAN_POINT('',(5.5,-4.898587E-017,2.549999999999999));
#651=(BOUNDED_SURFACE()B_SPLINE_SURFACE(1,2,((#626,#628,#630,#632,#634,#636,#638,#640,#642),(#627,#629,#631,#633,#635,#637,#639,#641,#643)),.UNSPECIFIED.,.F.,.T.,.U.)B_SPLINE_SURFACE_WITH_KNOTS((2,2),(3,2,2,2,3),(0.0,2.299999999999995),(0.0,0.628318530717959,1.256637061435917,1.884955592153876,2.513274122871835),.UNSPECIFIED.)GEOMETRIC_REPRESENTATION_ITEM()RATIONAL_B_SPLINE_SURFACE(((1.0,0.707106781186548,1.0,0.707106781186548,1.0,0.707106781186548,1.0,0.707106781186548,1.0),(1.0,0.707106781186548,1.0,0.707106781186548,1.0,0.707106781186548,1.0,0.707106781186548,1.0)))REPRESENTATION_ITEM('')SURFACE());
#652=ORIENTED_EDGE('',*,*,#599,.T.);
#653=ORIENTED_EDGE('',*,*,#487,.T.);
#654=ORIENTED_EDGE('',*,*,#614,.F.);
#655=CARTESIAN_POINT('',(5.5,0.0,2.15));
#656=DIRECTION('',(-1.0,0.0,0.0));
#657=DIRECTION('',(0.0,0.0,-1.0));
#658=AXIS2_PLACEMENT_3D('',#655,#656,#657);
#659=CIRCLE('',#658,0.4);
#660=EDGE_CURVE('',#594,#602,#659,.T.);
#661=ORIENTED_EDGE('',*,*,#660,.F.);
#662=EDGE_LOOP('',(#652,#653,#654,#661));
#663=FACE_OUTER_BOUND('',#662,.T.);
#664=ADVANCED_FACE('',(#663),#651,.T.);
#665=CARTESIAN_POINT('',(6.419999999999998,-4.898587E-017,-0.650000000000001));
#666=CARTESIAN_POINT('',(6.419999999999998,0.4,-0.650000000000001));
#667=CARTESIAN_POINT('',(6.419999999999998,0.4,-0.250000000000001));
#668=CARTESIAN_POINT('',(6.419999999999998,0.4,0.149999999999999));
#669=CARTESIAN_POINT('',(6.419999999999998,4.898587E-017,0.149999999999999));
#670=CARTESIAN_POINT('',(8.019999999999998,-4.898587E-017,-0.65));
#671=CARTESIAN_POINT('',(8.019999999999998,0.4,-0.65));
#672=CARTESIAN_POINT('',(7.619999999999997,0.4,-0.250000000000001));
#673=CARTESIAN_POINT('',(7.219999999999998,0.4,0.149999999999999));
#674=CARTESIAN_POINT('',(7.219999999999999,4.898587E-017,0.149999999999999));
#675=CARTESIAN_POINT('',(8.019999999999998,-4.898587E-017,0.949999999999999));
#676=CARTESIAN_POINT('',(8.019999999999998,0.4,0.949999999999999));
#677=CARTESIAN_POINT('',(7.619999999999998,0.4,0.949999999999999));
#678=CARTESIAN_POINT('',(7.219999999999999,0.4,0.949999999999999));
#679=CARTESIAN_POINT('',(7.219999999999999,4.898587E-017,0.949999999999999));
#680=CARTESIAN_POINT('',(8.019999999999998,-4.898587E-017,2.549999999999999));
#681=CARTESIAN_POINT('',(8.019999999999998,0.4,2.549999999999999));
#682=CARTESIAN_POINT('',(7.619999999999997,0.4,2.149999999999999));
#683=CARTESIAN_POINT('',(7.219999999999998,0.4,1.749999999999999));
#684=CARTESIAN_POINT('',(7.219999999999999,4.898587E-017,1.749999999999999));
#685=CARTESIAN_POINT('',(6.419999999999998,-4.898587E-017,2.549999999999999));
#686=CARTESIAN_POINT('',(6.419999999999998,0.4,2.549999999999999));
#687=CARTESIAN_POINT('',(6.419999999999998,0.4,2.15));
#688=CARTESIAN_POINT('',(6.419999999999998,0.4,1.75));
#689=CARTESIAN_POINT('',(6.419999999999998,4.898587E-017,1.75));
#690=CARTESIAN_POINT('',(4.819999999999999,-4.898587E-017,2.549999999999999));
#691=CARTESIAN_POINT('',(4.819999999999999,0.4,2.549999999999999));
#692=CARTESIAN_POINT('',(5.219999999999998,0.4,2.149999999999999));
#693=CARTESIAN_POINT('',(5.619999999999998,0.4,1.749999999999999));
#694=CARTESIAN_POINT('',(5.619999999999998,4.898587E-017,1.749999999999999));
#695=CARTESIAN_POINT('',(4.819999999999999,-4.898587E-017,0.949999999999999));
#696=CARTESIAN_POINT('',(4.819999999999999,0.4,0.949999999999999));
#697=CARTESIAN_POINT('',(5.219999999999998,0.4,0.949999999999999));
#698=CARTESIAN_POINT('',(5.619999999999997,0.4,0.949999999999999));
#699=CARTESIAN_POINT('',(5.619999999999997,4.898587E-017,0.949999999999999));
#700=CARTESIAN_POINT('',(4.819999999999999,-4.898587E-017,-0.65));
#701=CARTESIAN_POINT('',(4.819999999999999,0.4,-0.65));
#702=CARTESIAN_POINT('',(5.219999999999998,0.4,-0.250000000000001));
#703=CARTESIAN_POINT('',(5.619999999999998,0.4,0.149999999999999));
#704=CARTESIAN_POINT('',(5.619999999999998,4.898587E-017,0.149999999999999));
#705=CARTESIAN_POINT('',(6.419999999999998,-4.898587E-017,-0.650000000000001));
#706=CARTESIAN_POINT('',(6.419999999999998,0.4,-0.650000000000001));
#707=CARTESIAN_POINT('',(6.419999999999998,0.4,-0.250000000000001));
#708=CARTESIAN_POINT('',(6.419999999999998,0.4,0.149999999999999));
#709=CARTESIAN_POINT('',(6.419999999999998,4.898587E-017,0.149999999999999));
#717=(BOUNDED_SURFACE()B_SPLINE_SURFACE(2,2,((#665,#670,#675,#680,#685,#690,#695,#700,#705),(#666,#671,#676,#681,#686,#691,#696,#701,#706),(#667,#672,#677,#682,#687,#692,#697,#702,#707),(#668,#673,#678,#683,#688,#693,#698,#703,#708),(#669,#674,#679,#684,#689,#694,#699,#704,#709)),.UNSPECIFIED.,.F.,.T.,.U.)B_SPLINE_SURFACE_WITH_KNOTS((3,2,3),(3,2,2,2,3),(-1.224647E-016,1.570796326794897,3.141592653589793),(0.0,1.570796326794897,3.141592653589793,4.71238898038469,6.283185307179586),.UNSPECIFIED.)GEOMETRIC_REPRESENTATION_ITEM()RATIONAL_B_SPLINE_SURFACE(((1.0,0.707106781186548,1.0,0.707106781186548,1.0,0.707106781186548,1.0,0.707106781186548,1.0),(0.707106781186547,0.5,0.707106781186547,0.5,0.707106781186547,0.5,0.707106781186547,0.5,0.707106781186547),(1.0,0.707106781186548,1.0,0.707106781186548,1.0,0.707106781186548,1.0,0.707106781186548,1.0),(0.707106781186547,0.5,0.707106781186547,0.5,0.707106781186547,0.5,0.707106781186547,0.5,0.707106781186547),(1.0,0.707106781186548,1.0,0.707106781186548,1.0,0.707106781186548,1.0,0.707106781186548,1.0)))REPRESENTATION_ITEM('')SURFACE());
#718=ORIENTED_EDGE('',*,*,#478,.T.);
#719=ORIENTED_EDGE('',*,*,#547,.T.);
#720=ORIENTED_EDGE('',*,*,#496,.F.);
#721=ORIENTED_EDGE('',*,*,#621,.F.);
#722=EDGE_LOOP('',(#718,#719,#720,#721));
#723=FACE_OUTER_BOUND('',#722,.T.);
#724=ADVANCED_FACE('',(#723),#717,.T.);
#725=CARTESIAN_POINT('',(8.019999999999998,-4.898587E-017,-3.8));
#726=CARTESIAN_POINT('',(8.019999999999998,-4.898587E-017,0.95));
#727=CARTESIAN_POINT('',(8.019999999999998,-0.399999999999999,-3.8));
#728=CARTESIAN_POINT('',(8.019999999999998,-0.399999999999999,0.95));
#729=CARTESIAN_POINT('',(7.619999999999998,-0.399999999999999,-3.8));
#730=CARTESIAN_POINT('',(7.619999999999998,-0.399999999999999,0.95));
#731=CARTESIAN_POINT('',(7.219999999999999,-0.399999999999999,-3.8));
#732=CARTESIAN_POINT('',(7.219999999999999,-0.399999999999999,0.95));
#733=CARTESIAN_POINT('',(7.219999999999999,4.898587E-017,-3.8));
#734=CARTESIAN_POINT('',(7.219999999999999,4.898587E-017,0.95));
#735=CARTESIAN_POINT('',(7.219999999999999,0.399999999999999,-3.8));
#736=CARTESIAN_POINT('',(7.219999999999999,0.399999999999999,0.95));
#737=CARTESIAN_POINT('',(7.619999999999998,0.399999999999999,-3.8));
#738=CARTESIAN_POINT('',(7.619999999999998,0.399999999999999,0.95));
#739=CARTESIAN_POINT('',(8.019999999999998,0.399999999999999,-3.8));
#740=CARTESIAN_POINT('',(8.019999999999998,0.399999999999999,0.95));
#741=CARTESIAN_POINT('',(8.019999999999998,-4.898587E-017,-3.8));
#742=CARTESIAN_POINT('',(8.019999999999998,-4.898587E-017,0.95));
#750=(BOUNDED_SURFACE()B_SPLINE_SURFACE(1,2,((#725,#727,#729,#731,#733,#735,#737,#739,#741),(#726,#728,#730,#732,#734,#736,#738,#740,#742)),.UNSPECIFIED.,.F.,.T.,.U.)B_SPLINE_SURFACE_WITH_KNOTS((2,2),(3,2,2,2,3),(0.0,11.875),(0.0,0.628318530717959,1.256637061435917,1.884955592153876,2.513274122871835),.UNSPECIFIED.)GEOMETRIC_REPRESENTATION_ITEM()RATIONAL_B_SPLINE_SURFACE(((1.0,0.707106781186548,1.0,0.707106781186548,1.0,0.707106781186548,1.0,0.707106781186548,1.0),(1.0,0.707106781186548,1.0,0.707106781186548,1.0,0.707106781186548,1.0,0.707106781186548,1.0)))REPRESENTATION_ITEM('')SURFACE());
#751=ORIENTED_EDGE('',*,*,#540,.T.);
#752=CARTESIAN_POINT('',(7.619999999999998,0.0,-3.8));
#753=DIRECTION('',(0.0,0.0,-1.0));
#754=DIRECTION('',(-1.0,0.0,0.0));
#755=AXIS2_PLACEMENT_3D('',#752,#753,#754);
#756=CIRCLE('',#755,0.4);
#757=EDGE_CURVE('',#550,#535,#756,.T.);
#758=ORIENTED_EDGE('',*,*,#757,.F.);
#759=ORIENTED_EDGE('',*,*,#555,.F.);
#760=ORIENTED_EDGE('',*,*,#503,.F.);
#761=EDGE_LOOP('',(#751,#758,#759,#760));
#762=FACE_OUTER_BOUND('',#761,.T.);
#763=ADVANCED_FACE('',(#762),#750,.T.);
#764=CARTESIAN_POINT('',(8.019999999999998,0.4,-3.8));
#765=CARTESIAN_POINT('',(7.219999999999998,0.4,-3.8));
#766=CARTESIAN_POINT('',(8.019999999999998,-0.4,-3.8));
#767=CARTESIAN_POINT('',(7.219999999999997,-0.4,-3.8));
#768=B_SPLINE_SURFACE_WITH_KNOTS('',1,1,((#764,#766),(#765,#767)),.UNSPECIFIED.,.F.,.F.,.U.,(2,2),(2,2),(0.0,0.8),(0.0,0.8),.UNSPECIFIED.);
#769=ORIENTED_EDGE('',*,*,#562,.T.);
#770=ORIENTED_EDGE('',*,*,#757,.T.);
#771=EDGE_LOOP('',(#769,#770));
#772=FACE_OUTER_BOUND('',#771,.T.);
#773=ADVANCED_FACE('',(#772),#768,.F.);
#774=CARTESIAN_POINT('',(5.5,0.4,2.549999999999999));
#775=CARTESIAN_POINT('',(5.5,0.4,1.749999999999999));
#776=CARTESIAN_POINT('',(5.5,-0.4,2.549999999999999));
#777=CARTESIAN_POINT('',(5.5,-0.4,1.75));
#778=B_SPLINE_SURFACE_WITH_KNOTS('',1,1,((#774,#776),(#775,#777)),.UNSPECIFIED.,.F.,.F.,.U.,(2,2),(2,2),(0.0,0.8),(0.0,0.8),.UNSPECIFIED.);
#779=ORIENTED_EDGE('',*,*,#660,.T.);
#780=ORIENTED_EDGE('',*,*,#608,.T.);
#781=EDGE_LOOP('',(#779,#780));
#782=FACE_OUTER_BOUND('',#781,.T.);
#783=ADVANCED_FACE('',(#782),#778,.T.);
#784=CLOSED_SHELL('',(#507,#566,#625,#664,#724,#763,#773,#783));
#785=MANIFOLD_SOLID_BREP('11B6',#784);
#786=COLOUR_RGB('254',0.866,0.866,0.866);
#787=SURFACE_STYLE_USAGE(.BOTH.,#788);
#788=SURFACE_SIDE_STYLE('NONE',(#789));
#789=SURFACE_STYLE_FILL_AREA(#790);
#790=FILL_AREA_STYLE('NONE',(#791));
#791=FILL_AREA_STYLE_COLOUR('NONE',#786);
#792=PRESENTATION_STYLE_ASSIGNMENT((#787));
#793=STYLED_ITEM('NONE',(#792),#785);
#794=CARTESIAN_POINT('',(-6.419999999999998,0.0,0.949999999999999));
#795=DIRECTION('',(0.0,1.0,0.0));
#796=DIRECTION('',(0.0,0.0,1.0));
#797=AXIS2_PLACEMENT_3D('',#794,#795,#796);
#798=TOROIDAL_SURFACE('',#797,1.2,0.4);
#799=CARTESIAN_POINT('',(-6.419999999999998,-4.898587E-017,2.549999999999999));
#800=VERTEX_POINT('',#799);
#801=CARTESIAN_POINT('',(-8.019999999999998,-4.898587E-017,0.949999999999999));
#802=VERTEX_POINT('',#801);
#803=CARTESIAN_POINT('',(-6.419999999999998,0.0,0.949999999999999));
#804=DIRECTION('',(0.0,-1.0,0.0));
#805=DIRECTION('',(0.0,0.0,1.0));
#806=AXIS2_PLACEMENT_3D('',#803,#804,#805);
#807=CIRCLE('',#806,1.6);
#808=EDGE_CURVE('',#800,#802,#807,.T.);
#809=ORIENTED_EDGE('',*,*,#808,.F.);
#810=CARTESIAN_POINT('',(-6.419999999999998,0.0,1.749999999999999));
#811=VERTEX_POINT('',#810);
#812=CARTESIAN_POINT('',(-6.419999999999998,0.0,2.15));
#813=DIRECTION('',(-1.0,0.0,0.0));
#814=DIRECTION('',(0.0,0.0,-1.0));
#815=AXIS2_PLACEMENT_3D('',#812,#813,#814);
#816=CIRCLE('',#815,0.4);
#817=EDGE_CURVE('',#800,#811,#816,.T.);
#818=ORIENTED_EDGE('',*,*,#817,.T.);
#819=CARTESIAN_POINT('',(-7.219999999999998,0.0,0.95));
#820=VERTEX_POINT('',#819);
#821=CARTESIAN_POINT('',(-6.419999999999998,-4.898587E-017,0.949999999999999));
#822=DIRECTION('',(0.0,-1.0,0.0));
#823=DIRECTION('',(0.0,0.0,1.0));
#824=AXIS2_PLACEMENT_3D('',#821,#822,#823);
#825=CIRCLE('',#824,0.8);
#826=EDGE_CURVE('',#811,#820,#825,.T.);
#827=ORIENTED_EDGE('',*,*,#826,.T.);
#828=CARTESIAN_POINT('',(-7.619999999999998,0.0,0.949999999999999));
#829=DIRECTION('',(0.0,0.0,-1.0));
#830=DIRECTION('',(1.0,0.0,0.0));
#831=AXIS2_PLACEMENT_3D('',#828,#829,#830);
#832=CIRCLE('',#831,0.4);
#833=EDGE_CURVE('',#802,#820,#832,.T.);
#834=ORIENTED_EDGE('',*,*,#833,.F.);
#835=EDGE_LOOP('',(#809,#818,#827,#834));
#836=FACE_OUTER_BOUND('',#835,.T.);
#837=ADVANCED_FACE('',(#836),#798,.T.);
#838=CARTESIAN_POINT('',(-7.619999999999998,0.0,-3.8));
#839=DIRECTION('',(0.0,0.0,1.0));
#840=DIRECTION('',(1.0,0.0,0.0));
#841=AXIS2_PLACEMENT_3D('',#838,#839,#840);
#842=CYLINDRICAL_SURFACE('',#841,0.4);
#843=CARTESIAN_POINT('',(-7.219999999999998,0.0,-3.8));
#844=VERTEX_POINT('',#843);
#845=CARTESIAN_POINT('',(-7.219999999999998,0.0,0.949999999999999));
#846=DIRECTION('',(0.0,0.0,-1.0));
#847=VECTOR('',#846,4.749999999999999);
#848=LINE('',#845,#847);
#849=EDGE_CURVE('',#820,#844,#848,.T.);
#850=ORIENTED_EDGE('',*,*,#849,.F.);
#851=CARTESIAN_POINT('',(-7.619999999999998,0.0,0.949999999999999));
#852=DIRECTION('',(0.0,0.0,-1.0));
#853=DIRECTION('',(1.0,0.0,0.0));
#854=AXIS2_PLACEMENT_3D('',#851,#852,#853);
#855=CIRCLE('',#854,0.4);
#856=EDGE_CURVE('',#820,#802,#855,.T.);
#857=ORIENTED_EDGE('',*,*,#856,.T.);
#858=CARTESIAN_POINT('',(-8.019999999999998,-4.898587E-017,-3.8));
#859=VERTEX_POINT('',#858);
#860=CARTESIAN_POINT('',(-8.019999999999998,-4.898587E-017,0.949999999999999));
#861=DIRECTION('',(0.0,0.0,-1.0));
#862=VECTOR('',#861,4.749999999999999);
#863=LINE('',#860,#862);
#864=EDGE_CURVE('',#802,#859,#863,.T.);
#865=ORIENTED_EDGE('',*,*,#864,.T.);
#866=CARTESIAN_POINT('',(-7.619999999999998,0.0,-3.8));
#867=DIRECTION('',(0.0,0.0,1.0));
#868=DIRECTION('',(1.0,0.0,0.0));
#869=AXIS2_PLACEMENT_3D('',#866,#867,#868);
#870=CIRCLE('',#869,0.4);
#871=EDGE_CURVE('',#859,#844,#870,.T.);
#872=ORIENTED_EDGE('',*,*,#871,.T.);
#873=EDGE_LOOP('',(#850,#857,#865,#872));
#874=FACE_OUTER_BOUND('',#873,.T.);
#875=ADVANCED_FACE('',(#874),#842,.T.);
#876=CARTESIAN_POINT('',(-6.419999999999998,0.0,2.15));
#877=DIRECTION('',(1.0,0.0,0.0));
#878=DIRECTION('',(0.0,0.0,-1.0));
#879=AXIS2_PLACEMENT_3D('',#876,#877,#878);
#880=CYLINDRICAL_SURFACE('',#879,0.4);
#881=CARTESIAN_POINT('',(-5.5,0.0,1.749999999999999));
#882=VERTEX_POINT('',#881);
#883=CARTESIAN_POINT('',(-5.5,0.0,1.75));
#884=DIRECTION('',(-1.0,0.0,0.0));
#885=VECTOR('',#884,0.919999999999998);
#886=LINE('',#883,#885);
#887=EDGE_CURVE('',#882,#811,#886,.T.);
#888=ORIENTED_EDGE('',*,*,#887,.F.);
#889=CARTESIAN_POINT('',(-5.5,-4.898587E-017,2.549999999999999));
#890=VERTEX_POINT('',#889);
#891=CARTESIAN_POINT('',(-5.5,0.0,2.15));
#892=DIRECTION('',(-1.0,0.0,0.0));
#893=DIRECTION('',(0.0,0.0,-1.0));
#894=AXIS2_PLACEMENT_3D('',#891,#892,#893);
#895=CIRCLE('',#894,0.4);
#896=EDGE_CURVE('',#882,#890,#895,.T.);
#897=ORIENTED_EDGE('',*,*,#896,.T.);
#898=CARTESIAN_POINT('',(-5.5,-4.898587E-017,2.549999999999999));
#899=DIRECTION('',(-1.0,0.0,0.0));
#900=VECTOR('',#899,0.919999999999998);
#901=LINE('',#898,#900);
#902=EDGE_CURVE('',#890,#800,#901,.T.);
#903=ORIENTED_EDGE('',*,*,#902,.T.);
#904=CARTESIAN_POINT('',(-6.419999999999998,0.0,2.15));
#905=DIRECTION('',(-1.0,0.0,0.0));
#906=DIRECTION('',(0.0,0.0,-1.0));
#907=AXIS2_PLACEMENT_3D('',#904,#905,#906);
#908=CIRCLE('',#907,0.4);
#909=EDGE_CURVE('',#811,#800,#908,.T.);
#910=ORIENTED_EDGE('',*,*,#909,.F.);
#911=EDGE_LOOP('',(#888,#897,#903,#910));
#912=FACE_OUTER_BOUND('',#911,.T.);
#913=ADVANCED_FACE('',(#912),#880,.T.);
#914=CARTESIAN_POINT('',(-6.419999999999998,0.0,2.15));
#915=DIRECTION('',(1.0,0.0,0.0));
#916=DIRECTION('',(0.0,0.0,-1.0));
#917=AXIS2_PLACEMENT_3D('',#914,#915,#916);
#918=CYLINDRICAL_SURFACE('',#917,0.4);
#919=ORIENTED_EDGE('',*,*,#887,.T.);
#920=ORIENTED_EDGE('',*,*,#817,.F.);
#921=ORIENTED_EDGE('',*,*,#902,.F.);
#922=CARTESIAN_POINT('',(-5.5,0.0,2.15));
#923=DIRECTION('',(-1.0,0.0,0.0));
#924=DIRECTION('',(0.0,0.0,-1.0));
#925=AXIS2_PLACEMENT_3D('',#922,#923,#924);
#926=CIRCLE('',#925,0.4);
#927=EDGE_CURVE('',#890,#882,#926,.T.);
#928=ORIENTED_EDGE('',*,*,#927,.T.);
#929=EDGE_LOOP('',(#919,#920,#921,#928));
#930=FACE_OUTER_BOUND('',#929,.T.);
#931=ADVANCED_FACE('',(#930),#918,.T.);
#932=CARTESIAN_POINT('',(-6.419999999999998,0.0,0.949999999999999));
#933=DIRECTION('',(0.0,1.0,0.0));
#934=DIRECTION('',(0.0,0.0,1.0));
#935=AXIS2_PLACEMENT_3D('',#932,#933,#934);
#936=TOROIDAL_SURFACE('',#935,1.2,0.4);
#937=ORIENTED_EDGE('',*,*,#808,.T.);
#938=ORIENTED_EDGE('',*,*,#856,.F.);
#939=ORIENTED_EDGE('',*,*,#826,.F.);
#940=ORIENTED_EDGE('',*,*,#909,.T.);
#941=EDGE_LOOP('',(#937,#938,#939,#940));
#942=FACE_OUTER_BOUND('',#941,.T.);
#943=ADVANCED_FACE('',(#942),#936,.T.);
#944=CARTESIAN_POINT('',(-7.619999999999998,0.0,-3.8));
#945=DIRECTION('',(0.0,0.0,1.0));
#946=DIRECTION('',(1.0,0.0,0.0));
#947=AXIS2_PLACEMENT_3D('',#944,#945,#946);
#948=CYLINDRICAL_SURFACE('',#947,0.4);
#949=ORIENTED_EDGE('',*,*,#849,.T.);
#950=CARTESIAN_POINT('',(-7.619999999999998,0.0,-3.8));
#951=DIRECTION('',(0.0,0.0,1.0));
#952=DIRECTION('',(1.0,0.0,0.0));
#953=AXIS2_PLACEMENT_3D('',#950,#951,#952);
#954=CIRCLE('',#953,0.4);
#955=EDGE_CURVE('',#844,#859,#954,.T.);
#956=ORIENTED_EDGE('',*,*,#955,.T.);
#957=ORIENTED_EDGE('',*,*,#864,.F.);
#958=ORIENTED_EDGE('',*,*,#833,.T.);
#959=EDGE_LOOP('',(#949,#956,#957,#958));
#960=FACE_OUTER_BOUND('',#959,.T.);
#961=ADVANCED_FACE('',(#960),#948,.T.);
#962=CARTESIAN_POINT('',(-7.619999999999998,0.0,-3.8));
#963=DIRECTION('',(0.0,0.0,1.0));
#964=DIRECTION('',(1.0,0.0,0.0));
#965=AXIS2_PLACEMENT_3D('',#962,#963,#964);
#966=PLANE('',#965);
#967=ORIENTED_EDGE('',*,*,#955,.F.);
#968=ORIENTED_EDGE('',*,*,#871,.F.);
#969=EDGE_LOOP('',(#967,#968));
#970=FACE_OUTER_BOUND('',#969,.T.);
#971=ADVANCED_FACE('',(#970),#966,.F.);
#972=CARTESIAN_POINT('',(-5.5,0.0,2.149999999999999));
#973=DIRECTION('',(1.0,0.0,0.0));
#974=DIRECTION('',(0.0,0.0,-1.0));
#975=AXIS2_PLACEMENT_3D('',#972,#973,#974);
#976=PLANE('',#975);
#977=ORIENTED_EDGE('',*,*,#896,.F.);
#978=ORIENTED_EDGE('',*,*,#927,.F.);
#979=EDGE_LOOP('',(#977,#978));
#980=FACE_OUTER_BOUND('',#979,.T.);
#981=ADVANCED_FACE('',(#980),#976,.T.);
#982=CLOSED_SHELL('',(#837,#875,#913,#931,#943,#961,#971,#981));
#983=MANIFOLD_SOLID_BREP('11AE',#982);
#984=STYLED_ITEM('NONE',(#792),#983);
#985=CARTESIAN_POINT('',(4.15,-2.109424E-015,2.149999999999999));
#986=DIRECTION('',(1.0,0.0,2.220446E-016));
#987=DIRECTION('',(0.0,0.0,-1.0));
#988=AXIS2_PLACEMENT_3D('',#985,#986,#987);
#989=TOROIDAL_SURFACE('',#988,2.0,0.15);
#990=CARTESIAN_POINT('',(4.150000000000001,-2.109424E-015,-8.881784E-016));
#991=VERTEX_POINT('',#990);
#992=CARTESIAN_POINT('',(4.000000000000002,-2.109424E-015,0.149999999999999));
#993=VERTEX_POINT('',#992);
#994=CARTESIAN_POINT('',(4.150000000000001,-2.109424E-015,0.149999999999999));
#995=DIRECTION('',(0.0,1.0,0.0));
#996=DIRECTION('',(0.0,0.0,-1.0));
#997=AXIS2_PLACEMENT_3D('',#994,#995,#996);
#998=CIRCLE('',#997,0.15);
#999=EDGE_CURVE('',#991,#993,#998,.T.);
#1000=ORIENTED_EDGE('',*,*,#999,.F.);
#1001=CARTESIAN_POINT('',(4.15,-2.150000000000002,2.149999999999999));
#1002=VERTEX_POINT('',#1001);
#1003=CARTESIAN_POINT('',(4.15,-2.109424E-015,2.149999999999999));
#1004=DIRECTION('',(-1.0,0.0,0.0));
#1005=DIRECTION('',(0.0,-1.0,0.0));
#1006=AXIS2_PLACEMENT_3D('',#1003,#1004,#1005);
#1007=CIRCLE('',#1006,2.15);
#1008=EDGE_CURVE('',#991,#1002,#1007,.T.);
#1009=ORIENTED_EDGE('',*,*,#1008,.T.);
#1010=CARTESIAN_POINT('',(4.15,-2.372723E-015,4.299999999999999));
#1011=VERTEX_POINT('',#1010);
#1012=CARTESIAN_POINT('',(4.15,-2.109424E-015,2.149999999999999));
#1013=DIRECTION('',(-1.0,0.0,0.0));
#1014=DIRECTION('',(0.0,-1.0,0.0));
#1015=AXIS2_PLACEMENT_3D('',#1012,#1013,#1014);
#1016=CIRCLE('',#1015,2.15);
#1017=EDGE_CURVE('',#1002,#1011,#1016,.T.);
#1018=ORIENTED_EDGE('',*,*,#1017,.T.);
#1019=CARTESIAN_POINT('',(3.999999999999999,-2.354353E-015,4.149999999999999));
#1020=VERTEX_POINT('',#1019);
#1021=CARTESIAN_POINT('',(4.15,-2.354353E-015,4.149999999999999));
#1022=DIRECTION('',(0.0,-1.0,0.0));
#1023=DIRECTION('',(0.0,0.0,1.0));
#1024=AXIS2_PLACEMENT_3D('',#1021,#1022,#1023);
#1025=CIRCLE('',#1024,0.15);
#1026=EDGE_CURVE('',#1011,#1020,#1025,.T.);
#1027=ORIENTED_EDGE('',*,*,#1026,.T.);
#1028=CARTESIAN_POINT('',(4.0,-2.109424E-015,2.149999999999999));
#1029=DIRECTION('',(1.0,0.0,0.0));
#1030=DIRECTION('',(0.0,-1.0,0.0));
#1031=AXIS2_PLACEMENT_3D('',#1028,#1029,#1030);
#1032=CIRCLE('',#1031,2.0);
#1033=EDGE_CURVE('',#1020,#993,#1032,.T.);
#1034=ORIENTED_EDGE('',*,*,#1033,.T.);
#1035=EDGE_LOOP('',(#1000,#1009,#1018,#1027,#1034));
#1036=FACE_OUTER_BOUND('',#1035,.T.);
#1037=ADVANCED_FACE('',(#1036),#989,.T.);
#1038=CARTESIAN_POINT('',(4.0,-2.109424E-015,2.149999999999999));
#1039=DIRECTION('',(1.0,0.0,2.220446E-016));
#1040=DIRECTION('',(0.0,1.0,0.0));
#1041=AXIS2_PLACEMENT_3D('',#1038,#1039,#1040);
#1042=CYLINDRICAL_SURFACE('',#1041,2.15);
#1043=CARTESIAN_POINT('',(5.35,2.149999999999998,2.15));
#1044=VERTEX_POINT('',#1043);
#1045=CARTESIAN_POINT('',(4.15,2.149999999999998,2.149999999999998));
#1046=VERTEX_POINT('',#1045);
#1047=CARTESIAN_POINT('',(5.35,2.149999999999998,2.15));
#1048=DIRECTION('',(-1.0,0.0,0.0));
#1049=VECTOR('',#1048,1.199999999999999);
#1050=LINE('',#1047,#1049);
#1051=EDGE_CURVE('',#1044,#1046,#1050,.T.);
#1052=ORIENTED_EDGE('',*,*,#1051,.F.);
#1053=CARTESIAN_POINT('',(5.350000000000001,-2.372723E-015,-4.440892E-016));
#1054=VERTEX_POINT('',#1053);
#1055=CARTESIAN_POINT('',(5.35,-2.109424E-015,2.15));
#1056=DIRECTION('',(1.0,0.0,0.0));
#1057=DIRECTION('',(0.0,1.0,0.0));
#1058=AXIS2_PLACEMENT_3D('',#1055,#1056,#1057);
#1059=CIRCLE('',#1058,2.15);
#1060=EDGE_CURVE('',#1054,#1044,#1059,.T.);
#1061=ORIENTED_EDGE('',*,*,#1060,.F.);
#1062=CARTESIAN_POINT('',(5.35,-2.150000000000002,2.149999999999999));
#1063=VERTEX_POINT('',#1062);
#1064=CARTESIAN_POINT('',(5.35,-2.109424E-015,2.15));
#1065=DIRECTION('',(1.0,0.0,0.0));
#1066=DIRECTION('',(0.0,1.0,0.0));
#1067=AXIS2_PLACEMENT_3D('',#1064,#1065,#1066);
#1068=CIRCLE('',#1067,2.15);
#1069=EDGE_CURVE('',#1063,#1054,#1068,.T.);
#1070=ORIENTED_EDGE('',*,*,#1069,.F.);
#1071=CARTESIAN_POINT('',(5.35,-2.150000000000002,2.149999999999999));
#1072=DIRECTION('',(-1.0,0.0,0.0));
#1073=VECTOR('',#1072,1.199999999999999);
#1074=LINE('',#1071,#1073);
#1075=EDGE_CURVE('',#1063,#1002,#1074,.T.);
#1076=ORIENTED_EDGE('',*,*,#1075,.T.);
#1077=ORIENTED_EDGE('',*,*,#1008,.F.);
#1078=CARTESIAN_POINT('',(4.15,-2.109424E-015,2.149999999999999));
#1079=DIRECTION('',(-1.0,0.0,0.0));
#1080=DIRECTION('',(0.0,-1.0,0.0));
#1081=AXIS2_PLACEMENT_3D('',#1078,#1079,#1080);
#1082=CIRCLE('',#1081,2.15);
#1083=EDGE_CURVE('',#1046,#991,#1082,.T.);
#1084=ORIENTED_EDGE('',*,*,#1083,.F.);
#1085=EDGE_LOOP('',(#1052,#1061,#1070,#1076,#1077,#1084));
#1086=FACE_OUTER_BOUND('',#1085,.T.);
#1087=ADVANCED_FACE('',(#1086),#1042,.T.);
#1088=CARTESIAN_POINT('',(5.35,-2.109424E-015,2.15));
#1089=DIRECTION('',(-1.0,0.0,-2.220446E-016));
#1090=DIRECTION('',(0.0,0.0,1.0));
#1091=AXIS2_PLACEMENT_3D('',#1088,#1089,#1090);
#1092=TOROIDAL_SURFACE('',#1091,2.0,0.15);
#1093=CARTESIAN_POINT('',(5.349999999999999,-2.109424E-015,4.299999999999999));
#1094=VERTEX_POINT('',#1093);
#1095=CARTESIAN_POINT('',(5.499999999999998,-2.109424E-015,4.15));
#1096=VERTEX_POINT('',#1095);
#1097=CARTESIAN_POINT('',(5.349999999999999,-2.109424E-015,4.15));
#1098=DIRECTION('',(0.0,1.0,0.0));
#1099=DIRECTION('',(0.0,0.0,1.0));
#1100=AXIS2_PLACEMENT_3D('',#1097,#1098,#1099);
#1101=CIRCLE('',#1100,0.15);
#1102=EDGE_CURVE('',#1094,#1096,#1101,.T.);
#1103=ORIENTED_EDGE('',*,*,#1102,.F.);
#1104=CARTESIAN_POINT('',(5.35,-2.109424E-015,2.15));
#1105=DIRECTION('',(1.0,0.0,0.0));
#1106=DIRECTION('',(0.0,1.0,0.0));
#1107=AXIS2_PLACEMENT_3D('',#1104,#1105,#1106);
#1108=CIRCLE('',#1107,2.15);
#1109=EDGE_CURVE('',#1094,#1063,#1108,.T.);
#1110=ORIENTED_EDGE('',*,*,#1109,.T.);
#1111=ORIENTED_EDGE('',*,*,#1069,.T.);
#1112=CARTESIAN_POINT('',(5.500000000000002,-2.354353E-015,0.149999999999999));
#1113=VERTEX_POINT('',#1112);
#1114=CARTESIAN_POINT('',(5.350000000000001,-2.354353E-015,0.149999999999999));
#1115=DIRECTION('',(0.0,-1.0,0.0));
#1116=DIRECTION('',(0.0,0.0,-1.0));
#1117=AXIS2_PLACEMENT_3D('',#1114,#1115,#1116);
#1118=CIRCLE('',#1117,0.15);
#1119=EDGE_CURVE('',#1054,#1113,#1118,.T.);
#1120=ORIENTED_EDGE('',*,*,#1119,.T.);
#1121=CARTESIAN_POINT('',(5.5,-2.000000000000002,2.15));
#1122=VERTEX_POINT('',#1121);
#1123=CARTESIAN_POINT('',(5.5,-2.109424E-015,2.15));
#1124=DIRECTION('',(-1.0,0.0,0.0));
#1125=DIRECTION('',(0.0,1.0,0.0));
#1126=AXIS2_PLACEMENT_3D('',#1123,#1124,#1125);
#1127=CIRCLE('',#1126,2.0);
#1128=EDGE_CURVE('',#1113,#1122,#1127,.T.);
#1129=ORIENTED_EDGE('',*,*,#1128,.T.);
#1130=CARTESIAN_POINT('',(5.5,-2.109424E-015,2.15));
#1131=DIRECTION('',(-1.0,0.0,0.0));
#1132=DIRECTION('',(0.0,1.0,0.0));
#1133=AXIS2_PLACEMENT_3D('',#1130,#1131,#1132);
#1134=CIRCLE('',#1133,2.0);
#1135=EDGE_CURVE('',#1122,#1096,#1134,.T.);
#1136=ORIENTED_EDGE('',*,*,#1135,.T.);
#1137=EDGE_LOOP('',(#1103,#1110,#1111,#1120,#1129,#1136));
#1138=FACE_OUTER_BOUND('',#1137,.T.);
#1139=ADVANCED_FACE('',(#1138),#1092,.T.);
#1140=CARTESIAN_POINT('',(5.35,-2.109424E-015,2.15));
#1141=DIRECTION('',(-1.0,0.0,-2.220446E-016));
#1142=DIRECTION('',(0.0,0.0,1.0));
#1143=AXIS2_PLACEMENT_3D('',#1140,#1141,#1142);
#1144=TOROIDAL_SURFACE('',#1143,2.0,0.15);
#1145=ORIENTED_EDGE('',*,*,#1102,.T.);
#1146=CARTESIAN_POINT('',(5.5,-2.109424E-015,2.15));
#1147=DIRECTION('',(-1.0,0.0,0.0));
#1148=DIRECTION('',(0.0,1.0,0.0));
#1149=AXIS2_PLACEMENT_3D('',#1146,#1147,#1148);
#1150=CIRCLE('',#1149,2.0);
#1151=EDGE_CURVE('',#1096,#1113,#1150,.T.);
#1152=ORIENTED_EDGE('',*,*,#1151,.T.);
#1153=ORIENTED_EDGE('',*,*,#1119,.F.);
#1154=ORIENTED_EDGE('',*,*,#1060,.T.);
#1155=CARTESIAN_POINT('',(5.35,-2.109424E-015,2.15));
#1156=DIRECTION('',(1.0,0.0,0.0));
#1157=DIRECTION('',(0.0,1.0,0.0));
#1158=AXIS2_PLACEMENT_3D('',#1155,#1156,#1157);
#1159=CIRCLE('',#1158,2.15);
#1160=EDGE_CURVE('',#1044,#1094,#1159,.T.);
#1161=ORIENTED_EDGE('',*,*,#1160,.T.);
#1162=EDGE_LOOP('',(#1145,#1152,#1153,#1154,#1161));
#1163=FACE_OUTER_BOUND('',#1162,.T.);
#1164=ADVANCED_FACE('',(#1163),#1144,.T.);
#1165=CARTESIAN_POINT('',(4.0,-2.109424E-015,2.149999999999999));
#1166=DIRECTION('',(1.0,0.0,2.220446E-016));
#1167=DIRECTION('',(0.0,1.0,0.0));
#1168=AXIS2_PLACEMENT_3D('',#1165,#1166,#1167);
#1169=CYLINDRICAL_SURFACE('',#1168,2.15);
#1170=ORIENTED_EDGE('',*,*,#1051,.T.);
#1171=CARTESIAN_POINT('',(4.15,-2.109424E-015,2.149999999999999));
#1172=DIRECTION('',(-1.0,0.0,0.0));
#1173=DIRECTION('',(0.0,-1.0,0.0));
#1174=AXIS2_PLACEMENT_3D('',#1171,#1172,#1173);
#1175=CIRCLE('',#1174,2.15);
#1176=EDGE_CURVE('',#1011,#1046,#1175,.T.);
#1177=ORIENTED_EDGE('',*,*,#1176,.F.);
#1178=ORIENTED_EDGE('',*,*,#1017,.F.);
#1179=ORIENTED_EDGE('',*,*,#1075,.F.);
#1180=ORIENTED_EDGE('',*,*,#1109,.F.);
#1181=ORIENTED_EDGE('',*,*,#1160,.F.);
#1182=EDGE_LOOP('',(#1170,#1177,#1178,#1179,#1180,#1181));
#1183=FACE_OUTER_BOUND('',#1182,.T.);
#1184=ADVANCED_FACE('',(#1183),#1169,.T.);
#1185=CARTESIAN_POINT('',(5.5,0.0,2.150000000000001));
#1186=DIRECTION('',(1.0,0.0,0.0));
#1187=DIRECTION('',(0.0,0.0,-1.0));
#1188=AXIS2_PLACEMENT_3D('',#1185,#1186,#1187);
#1189=PLANE('',#1188);
#1190=ORIENTED_EDGE('',*,*,#1135,.F.);
#1191=ORIENTED_EDGE('',*,*,#1128,.F.);
#1192=ORIENTED_EDGE('',*,*,#1151,.F.);
#1193=EDGE_LOOP('',(#1190,#1191,#1192));
#1194=FACE_OUTER_BOUND('',#1193,.T.);
#1195=ADVANCED_FACE('',(#1194),#1189,.T.);
#1196=CARTESIAN_POINT('',(4.15,-2.109424E-015,2.149999999999999));
#1197=DIRECTION('',(1.0,0.0,2.220446E-016));
#1198=DIRECTION('',(0.0,0.0,-1.0));
#1199=AXIS2_PLACEMENT_3D('',#1196,#1197,#1198);
#1200=TOROIDAL_SURFACE('',#1199,2.0,0.15);
#1201=ORIENTED_EDGE('',*,*,#999,.T.);
#1202=CARTESIAN_POINT('',(4.0,1.999999999999998,2.149999999999999));
#1203=VERTEX_POINT('',#1202);
#1204=CARTESIAN_POINT('',(4.0,-2.109424E-015,2.149999999999999));
#1205=DIRECTION('',(1.0,0.0,0.0));
#1206=DIRECTION('',(0.0,-1.0,0.0));
#1207=AXIS2_PLACEMENT_3D('',#1204,#1205,#1206);
#1208=CIRCLE('',#1207,2.0);
#1209=EDGE_CURVE('',#993,#1203,#1208,.T.);
#1210=ORIENTED_EDGE('',*,*,#1209,.T.);
#1211=CARTESIAN_POINT('',(4.0,-2.109424E-015,2.149999999999999));
#1212=DIRECTION('',(1.0,0.0,0.0));
#1213=DIRECTION('',(0.0,-1.0,0.0));
#1214=AXIS2_PLACEMENT_3D('',#1211,#1212,#1213);
#1215=CIRCLE('',#1214,2.0);
#1216=EDGE_CURVE('',#1203,#1020,#1215,.T.);
#1217=ORIENTED_EDGE('',*,*,#1216,.T.);
#1218=ORIENTED_EDGE('',*,*,#1026,.F.);
#1219=ORIENTED_EDGE('',*,*,#1176,.T.);
#1220=ORIENTED_EDGE('',*,*,#1083,.T.);
#1221=EDGE_LOOP('',(#1201,#1210,#1217,#1218,#1219,#1220));
#1222=FACE_OUTER_BOUND('',#1221,.T.);
#1223=ADVANCED_FACE('',(#1222),#1200,.T.);
#1224=CARTESIAN_POINT('',(4.0,-2.109424E-015,2.149999999999999));
#1225=DIRECTION('',(1.0,0.0,0.0));
#1226=DIRECTION('',(0.0,0.0,-1.0));
#1227=AXIS2_PLACEMENT_3D('',#1224,#1225,#1226);
#1228=PLANE('',#1227);
#1229=ORIENTED_EDGE('',*,*,#1216,.F.);
#1230=ORIENTED_EDGE('',*,*,#1209,.F.);
#1231=ORIENTED_EDGE('',*,*,#1033,.F.);
#1232=EDGE_LOOP('',(#1229,#1230,#1231));
#1233=FACE_OUTER_BOUND('',#1232,.T.);
#1234=ADVANCED_FACE('',(#1233),#1228,.F.);
#1235=CLOSED_SHELL('',(#1037,#1087,#1139,#1164,#1184,#1195,#1223,#1234));
#1236=MANIFOLD_SOLID_BREP('117F',#1235);
#1237=STYLED_ITEM('NONE',(#323),#1236);
#1238=ADVANCED_BREP_SHAPE_REPRESENTATION('ABSR1',(#316,#414,#785,#983,#1236),#28);
#1239=SHAPE_REPRESENTATION_RELATIONSHIP('SRRPL1','',#1238,#62);
ENDSEC;
END-ISO-10303-21;
