ISO-10303-21;
HEADER;
/****************************************************************
 * Generated by software with PDElib inside                    *
 * PDElib Version v51a, created Fri 09/10/2010                  *
 * ITI Transcendata (http://www.transcendata.com/)              *
 ****************************************************************/
FILE_DESCRIPTION((''),'2;1');
FILE_NAME('RES_TYCO_HB1(RE).stp','2012-05-23T11:20:22',(''),(''),'Mechanical Desktop 2011','Mechanical Desktop 2011',', , ');
FILE_SCHEMA(('AUTOMOTIVE_DESIGN { 1 2 10303 214 1 1 1 1 }'));
ENDSEC;
DATA;
#10=(NAMED_UNIT(*)PLANE_ANGLE_UNIT()SI_UNIT($,.RADIAN.));
#11=DIMENSIONAL_EXPONENTS(0.0,0.0,0.0,0.0,0.0,0.0,0.0);
#12=PLANE_ANGLE_MEASURE_WITH_UNIT(PLANE_ANGLE_MEASURE(0.0174532925),#10);
#16=(CONVERSION_BASED_UNIT('DEGREE',#12)NAMED_UNIT(#11)PLANE_ANGLE_UNIT());
#20=(NAMED_UNIT(*)SI_UNIT($,.STERADIAN.)SOLID_ANGLE_UNIT());
#24=(LENGTH_UNIT()NAMED_UNIT(*)SI_UNIT(.MILLI.,.METRE.));
#26=UNCERTAINTY_MEASURE_WITH_UNIT(LENGTH_MEASURE(0.000001),#24,'DISTANCE_ACCURACY_VALUE','');
#28=(GEOMETRIC_REPRESENTATION_CONTEXT(3)GLOBAL_UNCERTAINTY_ASSIGNED_CONTEXT((#26))GLOBAL_UNIT_ASSIGNED_CONTEXT((#16,#20,#24))REPRESENTATION_CONTEXT('','3D'));
#29=APPLICATION_CONTEXT('automotive design');
#30=APPLICATION_PROTOCOL_DEFINITION('INTERNATIONAL_STANDARD','automotive_design',1998,#29);
#31=PRODUCT_CONTEXT('3D Mechanical Parts',#29,'mechanical');
#32=PRODUCT('Product','Product','',(#31));
#33=PRODUCT_RELATED_PRODUCT_CATEGORY('part',$,(#32));
#34=PRODUCT_CATEGORY('part',$);
#35=PERSON('1','Design','Joe',$,$,$);
#36=ORGANIZATION($,'None','None');
#37=PERSON_AND_ORGANIZATION(#35,#36);
#38=PERSON_AND_ORGANIZATION_ROLE('design_owner');
#39=APPLIED_PERSON_AND_ORGANIZATION_ASSIGNMENT(#37,#38,(#32));
#40=PRODUCT_DEFINITION_FORMATION_WITH_SPECIFIED_SOURCE('None','',#32,.BOUGHT.);
#41=PERSON('2','Creator','Joe',$,$,$);
#42=ORGANIZATION($,'None','None');
#43=PERSON_AND_ORGANIZATION(#41,#42);
#44=PERSON_AND_ORGANIZATION_ROLE('creator');
#45=APPLIED_PERSON_AND_ORGANIZATION_ASSIGNMENT(#43,#44,(#40));
#46=PERSON('3','Supplier','Joe',$,$,$);
#47=ORGANIZATION($,'None','None');
#48=PERSON_AND_ORGANIZATION(#46,#47);
#49=PERSON_AND_ORGANIZATION_ROLE('design_supplier');
#50=APPLIED_PERSON_AND_ORGANIZATION_ASSIGNMENT(#48,#49,(#40));
#51=PRODUCT_DEFINITION_CONTEXT('part definition',#29,'design');
#52=PRODUCT_DEFINITION('None','',#40,#51);
#53=PERSON('4','Creator','Joe',$,$,$);
#54=ORGANIZATION($,'None','None');
#55=PERSON_AND_ORGANIZATION(#53,#54);
#56=PERSON_AND_ORGANIZATION_ROLE('creator');
#57=APPLIED_PERSON_AND_ORGANIZATION_ASSIGNMENT(#55,#56,(#52));
#58=CARTESIAN_POINT('NONE',(0.0,0.0,0.0));
#59=DIRECTION('NONE',(0.0,0.0,1.0));
#60=DIRECTION('NONE',(1.0,0.0,0.0));
#61=AXIS2_PLACEMENT_3D('NONE',#58,#59,#60);
#62=SHAPE_REPRESENTATION('SR1',(#61),#28);
#63=PRODUCT_DEFINITION_SHAPE('PDS1','Test Part',#52);
#64=SHAPE_DEFINITION_REPRESENTATION(#63,#62);
#65=CARTESIAN_POINT('',(-12.950000000000001,-2.1,8.299999999999999));
#66=DIRECTION('',(0.577350269189626,0.577350269189626,0.577350269189626));
#67=DIRECTION('',(-0.707106781186548,0.0,0.707106781186548));
#68=AXIS2_PLACEMENT_3D('',#65,#66,#67);
#69=SPHERICAL_SURFACE('',#68,0.3);
#70=CARTESIAN_POINT('',(-13.218328157299975,-2.234164078649987,8.299999999999999));
#71=VERTEX_POINT('',#70);
#72=CARTESIAN_POINT('',(-13.123205080756888,-2.273205080756887,8.126794919243112));
#73=VERTEX_POINT('',#72);
#74=CARTESIAN_POINT('',(-12.950000000000001,-2.1,8.299999999999999));
#75=DIRECTION('',(0.408248290463863,-0.816496580927726,0.408248290463863));
#76=DIRECTION('',(-0.707106781186547,0.0,0.707106781186547));
#77=AXIS2_PLACEMENT_3D('',#74,#75,#76);
#78=CIRCLE('',#77,0.299999999999999);
#79=EDGE_CURVE('',#71,#73,#78,.T.);
#80=ORIENTED_EDGE('',*,*,#79,.F.);
#81=CARTESIAN_POINT('',(-13.250000000000002,-2.1,8.299999999999999));
#82=VERTEX_POINT('',#81);
#83=CARTESIAN_POINT('',(-12.950000000000001,-2.1,8.299999999999999));
#84=DIRECTION('',(0.0,0.0,-1.0));
#85=DIRECTION('',(-0.707106781186548,-0.707106781186547,0.0));
#86=AXIS2_PLACEMENT_3D('',#83,#84,#85);
#87=CIRCLE('',#86,0.3);
#88=EDGE_CURVE('',#71,#82,#87,.T.);
#89=ORIENTED_EDGE('',*,*,#88,.T.);
#90=CARTESIAN_POINT('',(-12.950000000000001,-2.1,7.999999999999998));
#91=VERTEX_POINT('',#90);
#92=CARTESIAN_POINT('',(-12.950000000000001,-2.1,8.299999999999999));
#93=DIRECTION('',(0.0,-1.0,0.0));
#94=DIRECTION('',(0.0,0.0,-1.0));
#95=AXIS2_PLACEMENT_3D('',#92,#93,#94);
#96=CIRCLE('',#95,0.300000000000001);
#97=EDGE_CURVE('',#91,#82,#96,.F.);
#98=ORIENTED_EDGE('',*,*,#97,.F.);
#99=CARTESIAN_POINT('',(-12.950000000000001,-2.234164078649987,8.031671842700025));
#100=VERTEX_POINT('',#99);
#101=CARTESIAN_POINT('',(-12.950000000000001,-2.1,8.299999999999999));
#102=DIRECTION('',(-1.0,0.0,0.0));
#103=DIRECTION('',(0.0,-0.707106781186547,-0.707106781186548));
#104=AXIS2_PLACEMENT_3D('',#101,#102,#103);
#105=CIRCLE('',#104,0.3);
#106=EDGE_CURVE('',#91,#100,#105,.T.);
#107=ORIENTED_EDGE('',*,*,#106,.T.);
#108=CARTESIAN_POINT('',(-12.950000000000001,-2.1,8.299999999999999));
#109=DIRECTION('',(-0.408248290463863,0.816496580927726,-0.408248290463863));
#110=DIRECTION('',(0.707106781186547,0.0,-0.707106781186547));
#111=AXIS2_PLACEMENT_3D('',#108,#109,#110);
#112=CIRCLE('',#111,0.299999999999999);
#113=EDGE_CURVE('',#100,#73,#112,.T.);
#114=ORIENTED_EDGE('',*,*,#113,.T.);
#115=EDGE_LOOP('',(#80,#89,#98,#107,#114));
#116=FACE_OUTER_BOUND('',#115,.T.);
#117=ADVANCED_FACE('',(#116),#69,.T.);
#118=CARTESIAN_POINT('',(12.949999999999999,-0.6,18.099999999999998));
#119=DIRECTION('',(0.577350269189626,0.577350269189626,0.577350269189626));
#120=DIRECTION('',(-0.707106781186548,0.0,0.707106781186548));
#121=AXIS2_PLACEMENT_3D('',#118,#119,#120);
#122=SPHERICAL_SURFACE('',#121,0.3);
#123=CARTESIAN_POINT('',(13.123205080756886,-0.426794919243113,18.273205080756885));
#124=VERTEX_POINT('',#123);
#125=CARTESIAN_POINT('',(12.949999999999999,-0.465835921350012,18.368328157299974));
#126=VERTEX_POINT('',#125);
#127=CARTESIAN_POINT('',(12.949999999999999,-0.6,18.099999999999998));
#128=DIRECTION('',(0.408248290463863,-0.816496580927726,0.408248290463863));
#129=DIRECTION('',(-0.707106781186547,0.0,0.707106781186547));
#130=AXIS2_PLACEMENT_3D('',#127,#128,#129);
#131=CIRCLE('',#130,0.299999999999999);
#132=EDGE_CURVE('',#124,#126,#131,.T.);
#133=ORIENTED_EDGE('',*,*,#132,.F.);
#134=CARTESIAN_POINT('',(13.218328157299974,-0.465835921350013,18.099999999999998));
#135=VERTEX_POINT('',#134);
#136=CARTESIAN_POINT('',(12.949999999999999,-0.6,18.099999999999998));
#137=DIRECTION('',(-0.408248290463863,0.816496580927726,-0.408248290463863));
#138=DIRECTION('',(0.707106781186547,0.0,-0.707106781186547));
#139=AXIS2_PLACEMENT_3D('',#136,#137,#138);
#140=CIRCLE('',#139,0.299999999999999);
#141=EDGE_CURVE('',#124,#135,#140,.T.);
#142=ORIENTED_EDGE('',*,*,#141,.T.);
#143=CARTESIAN_POINT('',(12.949999999999999,-0.3,18.099999999999998));
#144=VERTEX_POINT('',#143);
#145=CARTESIAN_POINT('',(12.949999999999999,-0.6,18.099999999999998));
#146=DIRECTION('',(0.0,0.0,1.0));
#147=DIRECTION('',(0.707106781186548,0.707106781186547,0.0));
#148=AXIS2_PLACEMENT_3D('',#145,#146,#147);
#149=CIRCLE('',#148,0.3);
#150=EDGE_CURVE('',#135,#144,#149,.T.);
#151=ORIENTED_EDGE('',*,*,#150,.T.);
#152=CARTESIAN_POINT('',(12.949999999999999,-0.6,18.099999999999998));
#153=DIRECTION('',(1.0,0.0,0.0));
#154=DIRECTION('',(0.0,0.0,1.0));
#155=AXIS2_PLACEMENT_3D('',#152,#153,#154);
#156=CIRCLE('',#155,0.300000000000001);
#157=EDGE_CURVE('',#126,#144,#156,.F.);
#158=ORIENTED_EDGE('',*,*,#157,.F.);
#159=EDGE_LOOP('',(#133,#142,#151,#158));
#160=FACE_OUTER_BOUND('',#159,.T.);
#161=ADVANCED_FACE('',(#160),#122,.T.);
#162=CARTESIAN_POINT('',(-5.725,-0.6,8.299999999999999));
#163=DIRECTION('',(-1.0,0.0,0.0));
#164=DIRECTION('',(0.0,0.707106781186547,-0.707106781186548));
#165=AXIS2_PLACEMENT_3D('',#162,#163,#164);
#166=CYLINDRICAL_SURFACE('',#165,0.3);
#167=CARTESIAN_POINT('',(10.011250543006184,-0.3,8.299999999999999));
#168=VERTEX_POINT('',#167);
#169=CARTESIAN_POINT('',(10.011250543006184,-0.6,7.999999999999998));
#170=VERTEX_POINT('',#169);
#171=CARTESIAN_POINT('',(10.011250543006184,-0.6,8.299999999999999));
#172=DIRECTION('',(-1.0,0.0,0.0));
#173=DIRECTION('',(0.0,1.0,0.0));
#174=AXIS2_PLACEMENT_3D('',#171,#172,#173);
#175=CIRCLE('',#174,0.3);
#176=EDGE_CURVE('',#168,#170,#175,.T.);
#177=ORIENTED_EDGE('',*,*,#176,.T.);
#178=CARTESIAN_POINT('',(-10.011250543006184,-0.6,7.999999999999998));
#179=VERTEX_POINT('',#178);
#180=CARTESIAN_POINT('',(10.011250543006184,-0.6,7.999999999999998));
#181=DIRECTION('',(-1.0,0.0,0.0));
#182=VECTOR('',#181,20.022501086012369);
#183=LINE('',#180,#182);
#184=EDGE_CURVE('',#170,#179,#183,.T.);
#185=ORIENTED_EDGE('',*,*,#184,.T.);
#186=CARTESIAN_POINT('',(-10.011250543006184,-0.3,8.299999999999999));
#187=VERTEX_POINT('',#186);
#188=CARTESIAN_POINT('',(-10.011250543006184,-0.6,8.299999999999999));
#189=DIRECTION('',(1.0,0.0,0.0));
#190=DIRECTION('',(0.0,0.0,-1.0));
#191=AXIS2_PLACEMENT_3D('',#188,#189,#190);
#192=CIRCLE('',#191,0.300000000000001);
#193=EDGE_CURVE('',#179,#187,#192,.T.);
#194=ORIENTED_EDGE('',*,*,#193,.T.);
#195=CARTESIAN_POINT('',(-10.011250543006184,-0.3,8.299999999999999));
#196=DIRECTION('',(1.0,0.0,0.0));
#197=VECTOR('',#196,20.022501086012369);
#198=LINE('',#195,#197);
#199=EDGE_CURVE('',#187,#168,#198,.T.);
#200=ORIENTED_EDGE('',*,*,#199,.T.);
#201=EDGE_LOOP('',(#177,#185,#194,#200));
#202=FACE_OUTER_BOUND('',#201,.T.);
#203=ADVANCED_FACE('',(#202),#166,.T.);
#204=CARTESIAN_POINT('',(-11.449999999999998,0.054044927476035,7.999999999999998));
#205=DIRECTION('',(0.0,0.0,1.0));
#206=DIRECTION('',(1.0,0.0,0.0));
#207=AXIS2_PLACEMENT_3D('',#204,#205,#206);
#208=PLANE('',#207);
#209=ORIENTED_EDGE('',*,*,#184,.F.);
#210=CARTESIAN_POINT('',(11.180234476813661,0.13125,7.999999999999998));
#211=VERTEX_POINT('',#210);
#212=CARTESIAN_POINT('',(10.011250543006184,0.7,7.999999999999998));
#213=DIRECTION('',(0.0,0.0,-1.0));
#214=DIRECTION('',(0.530330085889911,-0.847791247890658,0.0));
#215=AXIS2_PLACEMENT_3D('',#212,#213,#214);
#216=CIRCLE('',#215,1.3);
#217=EDGE_CURVE('',#211,#170,#216,.T.);
#218=ORIENTED_EDGE('',*,*,#217,.F.);
#219=CARTESIAN_POINT('',(11.719765523186339,0.13125,7.999999999999998));
#220=VERTEX_POINT('',#219);
#221=CARTESIAN_POINT('',(11.449999999999999,0.0,7.999999999999998));
#222=DIRECTION('',(0.0,0.0,1.0));
#223=DIRECTION('',(0.0,1.0,0.0));
#224=AXIS2_PLACEMENT_3D('',#221,#222,#223);
#225=CIRCLE('',#224,0.3);
#226=EDGE_CURVE('',#220,#211,#225,.T.);
#227=ORIENTED_EDGE('',*,*,#226,.F.);
#228=CARTESIAN_POINT('',(12.949999999999999,-0.598556264080016,7.999999999999998));
#229=VERTEX_POINT('',#228);
#230=CARTESIAN_POINT('',(12.888749456993814,0.7,7.999999999999998));
#231=DIRECTION('',(0.0,0.0,-1.0));
#232=DIRECTION('',(-0.530330085889911,-0.847791247890658,0.0));
#233=AXIS2_PLACEMENT_3D('',#230,#231,#232);
#234=CIRCLE('',#233,1.3);
#235=EDGE_CURVE('',#229,#220,#234,.T.);
#236=ORIENTED_EDGE('',*,*,#235,.F.);
#237=CARTESIAN_POINT('',(12.949999999999998,-2.1,7.999999999999998));
#238=VERTEX_POINT('',#237);
#239=CARTESIAN_POINT('',(12.949999999999999,-2.1,7.999999999999998));
#240=DIRECTION('',(0.0,1.0,0.0));
#241=VECTOR('',#240,1.501443735919984);
#242=LINE('',#239,#241);
#243=EDGE_CURVE('',#238,#229,#242,.T.);
#244=ORIENTED_EDGE('',*,*,#243,.F.);
#245=CARTESIAN_POINT('',(-12.950000000000001,-2.1,7.999999999999998));
#246=DIRECTION('',(1.0,0.0,0.0));
#247=VECTOR('',#246,25.899999999999999);
#248=LINE('',#245,#247);
#249=EDGE_CURVE('',#91,#238,#248,.T.);
#250=ORIENTED_EDGE('',*,*,#249,.F.);
#251=CARTESIAN_POINT('',(-12.950000000000001,-0.6,7.999999999999998));
#252=VERTEX_POINT('',#251);
#253=CARTESIAN_POINT('',(-12.950000000000001,-0.6,7.999999999999998));
#254=DIRECTION('',(0.0,-1.0,0.0));
#255=VECTOR('',#254,1.5);
#256=LINE('',#253,#255);
#257=EDGE_CURVE('',#252,#91,#256,.T.);
#258=ORIENTED_EDGE('',*,*,#257,.F.);
#259=CARTESIAN_POINT('',(-12.888749456993814,-0.6,7.999999999999998));
#260=VERTEX_POINT('',#259);
#261=CARTESIAN_POINT('',(-12.888749456993814,-0.6,7.999999999999998));
#262=DIRECTION('',(-1.0,0.0,0.0));
#263=VECTOR('',#262,0.061250543006187);
#264=LINE('',#261,#263);
#265=EDGE_CURVE('',#260,#252,#264,.T.);
#266=ORIENTED_EDGE('',*,*,#265,.F.);
#267=CARTESIAN_POINT('',(-11.719765523186338,0.13125,7.999999999999998));
#268=VERTEX_POINT('',#267);
#269=CARTESIAN_POINT('',(-12.888749456993814,0.7,7.999999999999998));
#270=DIRECTION('',(0.0,0.0,-1.0));
#271=DIRECTION('',(0.530330085889911,-0.847791247890658,0.0));
#272=AXIS2_PLACEMENT_3D('',#269,#270,#271);
#273=CIRCLE('',#272,1.3);
#274=EDGE_CURVE('',#268,#260,#273,.T.);
#275=ORIENTED_EDGE('',*,*,#274,.F.);
#276=CARTESIAN_POINT('',(-11.180234476813659,0.13125,7.999999999999998));
#277=VERTEX_POINT('',#276);
#278=CARTESIAN_POINT('',(-11.449999999999999,0.0,7.999999999999998));
#279=DIRECTION('',(0.0,0.0,1.0));
#280=DIRECTION('',(0.0,1.0,0.0));
#281=AXIS2_PLACEMENT_3D('',#278,#279,#280);
#282=CIRCLE('',#281,0.3);
#283=EDGE_CURVE('',#277,#268,#282,.T.);
#284=ORIENTED_EDGE('',*,*,#283,.F.);
#285=CARTESIAN_POINT('',(-10.011250543006184,0.7,7.999999999999998));
#286=DIRECTION('',(0.0,0.0,-1.0));
#287=DIRECTION('',(-0.530330085889911,-0.847791247890658,0.0));
#288=AXIS2_PLACEMENT_3D('',#285,#286,#287);
#289=CIRCLE('',#288,1.3);
#290=EDGE_CURVE('',#179,#277,#289,.T.);
#291=ORIENTED_EDGE('',*,*,#290,.F.);
#292=EDGE_LOOP('',(#209,#218,#227,#236,#244,#250,#258,#266,#275,#284,#291));
#293=FACE_OUTER_BOUND('',#292,.T.);
#294=ADVANCED_FACE('',(#293),#208,.F.);
#295=CARTESIAN_POINT('',(10.011250543006184,0.7,8.299999999999999));
#296=DIRECTION('',(0.0,0.0,-1.0));
#297=DIRECTION('',(-1.0,0.0,0.0));
#298=AXIS2_PLACEMENT_3D('',#295,#296,#297);
#299=TOROIDAL_SURFACE('',#298,1.3,0.3);
#300=ORIENTED_EDGE('',*,*,#176,.F.);
#301=CARTESIAN_POINT('',(10.910468953627319,0.2625,8.299999999999999));
#302=VERTEX_POINT('',#301);
#303=CARTESIAN_POINT('',(10.011250543006184,0.7,8.299999999999999));
#304=DIRECTION('',(0.0,0.0,1.0));
#305=DIRECTION('',(0.530330085889911,-0.847791247890658,0.0));
#306=AXIS2_PLACEMENT_3D('',#303,#304,#305);
#307=CIRCLE('',#306,1.0);
#308=EDGE_CURVE('',#168,#302,#307,.T.);
#309=ORIENTED_EDGE('',*,*,#308,.T.);
#310=CARTESIAN_POINT('',(11.180234476813661,0.13125,8.299999999999999));
#311=DIRECTION('',(-0.437499999999999,-0.899218410621135,0.0));
#312=DIRECTION('',(-0.899218410621135,0.437499999999999,0.0));
#313=AXIS2_PLACEMENT_3D('',#310,#311,#312);
#314=CIRCLE('',#313,0.300000000000001);
#315=EDGE_CURVE('',#302,#211,#314,.T.);
#316=ORIENTED_EDGE('',*,*,#315,.T.);
#317=ORIENTED_EDGE('',*,*,#217,.T.);
#318=EDGE_LOOP('',(#300,#309,#316,#317));
#319=FACE_OUTER_BOUND('',#318,.T.);
#320=ADVANCED_FACE('',(#319),#299,.T.);
#321=CARTESIAN_POINT('',(12.032997405581259,0.141823922825167,8.299999999999999));
#322=CARTESIAN_POINT('',(12.032997405581259,0.141823922825167,8.000193586586681));
#323=CARTESIAN_POINT('',(11.741686864276586,0.070957734858241,8.000000062499927));
#324=CARTESIAN_POINT('',(11.450376322971914,0.000091546891316,7.999806538413172));
#325=CARTESIAN_POINT('',(11.450000242915282,0.000000059093227,8.299612701988126));
#326=CARTESIAN_POINT('',(11.921538369936334,0.599999999999999,8.299999999999999));
#327=CARTESIAN_POINT('',(11.921538369936334,0.599999999999999,8.000193586586681));
#328=CARTESIAN_POINT('',(11.685921373227538,0.300193649046279,8.000000062499927));
#329=CARTESIAN_POINT('',(11.450304376518741,0.00038729809256,7.999806538413173));
#330=CARTESIAN_POINT('',(11.450000196474075,0.000000249999688,8.299612701988126));
#331=CARTESIAN_POINT('',(11.449999999999999,0.599999999999999,8.299999999999999));
#332=CARTESIAN_POINT('',(11.449999999999999,0.599999999999999,8.000193586586681));
#333=CARTESIAN_POINT('',(11.449999999999998,0.300193649046279,8.000000062499927));
#334=CARTESIAN_POINT('',(11.450000000000001,0.00038729809256,7.999806538413172));
#335=CARTESIAN_POINT('',(11.449999999999999,0.000000249999688,8.299612701988126));
#336=CARTESIAN_POINT('',(10.978461630063665,0.599999999999999,8.299999999999999));
#337=CARTESIAN_POINT('',(10.978461630063665,0.599999999999999,8.000193586586681));
#338=CARTESIAN_POINT('',(11.214078626772462,0.300193649046278,8.000000062499927));
#339=CARTESIAN_POINT('',(11.449695623481256,0.00038729809256,7.999806538413173));
#340=CARTESIAN_POINT('',(11.449999803525923,0.000000249999688,8.299612701988126));
#341=CARTESIAN_POINT('',(10.867002594418739,0.141823922825166,8.299999999999999));
#342=CARTESIAN_POINT('',(10.867002594418739,0.141823922825166,8.000193586586681));
#343=CARTESIAN_POINT('',(11.158313135723413,0.070957734858241,8.000000062499927));
#344=CARTESIAN_POINT('',(11.449623677028084,0.000091546891316,7.999806538413172));
#345=CARTESIAN_POINT('',(11.449999757084717,0.000000059093227,8.299612701988126));
#353=(BOUNDED_SURFACE()B_SPLINE_SURFACE(2,2,((#321,#326,#331,#336,#341),(#322,#327,#332,#337,#342),(#323,#328,#333,#338,#343),(#324,#329,#334,#339,#344),(#325,#330,#335,#340,#345)),.UNSPECIFIED.,.F.,.F.,.U.)B_SPLINE_SURFACE_WITH_KNOTS((3,2,3),(3,2,3),(0.0,1.570150829929138,3.140301659858276),(0.0,1.332164748095814,2.664329496191629),.UNSPECIFIED.)GEOMETRIC_REPRESENTATION_ITEM()RATIONAL_B_SPLINE_SURFACE(((1.0,0.786248435517875,1.0,0.786248435517875,1.0),(0.707334961959655,0.556141007227874,0.707334961959655,0.556141007227874,0.707334961959655),(1.0,0.786248435517875,1.0,0.786248435517875,1.0),(0.707334961959649,0.55614100722787,0.707334961959649,0.55614100722787,0.707334961959649),(1.0,0.786248435517875,1.0,0.786248435517875,1.0)))REPRESENTATION_ITEM('')SURFACE());
#354=CARTESIAN_POINT('',(11.989531046372679,0.2625,8.299999999999999));
#355=VERTEX_POINT('',#354);
#356=CARTESIAN_POINT('',(11.719765523186339,0.13125,8.299999999999999));
#357=DIRECTION('',(-0.4375,0.899218410621135,0.0));
#358=DIRECTION('',(0.899218410621135,0.4375,0.0));
#359=AXIS2_PLACEMENT_3D('',#356,#357,#358);
#360=CIRCLE('',#359,0.3);
#361=EDGE_CURVE('',#355,#220,#360,.T.);
#362=ORIENTED_EDGE('',*,*,#361,.T.);
#363=ORIENTED_EDGE('',*,*,#226,.T.);
#364=ORIENTED_EDGE('',*,*,#315,.F.);
#365=CARTESIAN_POINT('',(11.449999999999999,0.0,8.299999999999999));
#366=DIRECTION('',(0.0,0.0,-1.0));
#367=DIRECTION('',(0.0,1.0,0.0));
#368=AXIS2_PLACEMENT_3D('',#365,#366,#367);
#369=CIRCLE('',#368,0.6);
#370=EDGE_CURVE('',#302,#355,#369,.T.);
#371=ORIENTED_EDGE('',*,*,#370,.T.);
#372=EDGE_LOOP('',(#362,#363,#364,#371));
#373=FACE_OUTER_BOUND('',#372,.T.);
#374=ADVANCED_FACE('',(#373),#353,.T.);
#375=CARTESIAN_POINT('',(12.888749456993814,0.7,8.299999999999999));
#376=DIRECTION('',(0.0,0.0,1.0));
#377=DIRECTION('',(1.0,0.0,0.0));
#378=AXIS2_PLACEMENT_3D('',#375,#376,#377);
#379=TOROIDAL_SURFACE('',#378,1.3,0.3);
#380=CARTESIAN_POINT('',(13.146342788165411,-0.373175156705813,8.073175156705812));
#381=VERTEX_POINT('',#380);
#382=CARTESIAN_POINT('',(13.146342788165411,-0.373175156705813,8.073175156705812));
#383=CARTESIAN_POINT('',(13.14219751027424,-0.37843316304803,8.069586945612826));
#384=CARTESIAN_POINT('',(13.137995358407519,-0.383724577991269,8.06614836489727));
#385=CARTESIAN_POINT('',(13.107734330123304,-0.421549804053523,8.042700427207549));
#386=CARTESIAN_POINT('',(13.079143730435767,-0.455773749734088,8.027390161775816));
#387=CARTESIAN_POINT('',(13.017918946730209,-0.525820394511593,8.005891531778342));
#388=CARTESIAN_POINT('',(12.984562904851211,-0.562304973464265,8.00007749204519));
#389=CARTESIAN_POINT('',(12.950452893430775,-0.598081439861188,8.000000256427288));
#390=CARTESIAN_POINT('',(12.950226462971697,-0.598318867479095,7.999999999999999));
#391=CARTESIAN_POINT('',(12.949999999999998,-0.598556264080016,7.999999999999999));
#392=B_SPLINE_CURVE_WITH_KNOTS('',3,(#382,#383,#384,#385,#386,#387,#388,#389,#390,#391),.UNSPECIFIED.,.F.,.U.,(4,2,2,2,4),(0.111231243537279,0.133748825507312,0.271743086584283,0.417732650403781,0.418708098064728),.UNSPECIFIED.);
#393=EDGE_CURVE('',#381,#229,#392,.T.);
#394=ORIENTED_EDGE('',*,*,#393,.T.);
#395=ORIENTED_EDGE('',*,*,#235,.T.);
#396=ORIENTED_EDGE('',*,*,#361,.F.);
#397=CARTESIAN_POINT('',(12.888749456993814,-0.3,8.299999999999999));
#398=VERTEX_POINT('',#397);
#399=CARTESIAN_POINT('',(12.888749456993814,0.7,8.299999999999999));
#400=DIRECTION('',(0.0,0.0,1.0));
#401=DIRECTION('',(-0.530330085889911,-0.847791247890658,0.0));
#402=AXIS2_PLACEMENT_3D('',#399,#400,#401);
#403=CIRCLE('',#402,1.0);
#404=EDGE_CURVE('',#355,#398,#403,.T.);
#405=ORIENTED_EDGE('',*,*,#404,.T.);
#406=CARTESIAN_POINT('',(12.949999999999999,-0.3,8.266519812098608));
#407=VERTEX_POINT('',#406);
#408=CARTESIAN_POINT('',(12.888749456993814,-0.3,8.299999999999999));
#409=CARTESIAN_POINT('',(12.908853637533252,-0.3,8.288988486818392));
#410=CARTESIAN_POINT('',(12.929283517308413,-0.3,8.277797620559412));
#411=CARTESIAN_POINT('',(12.949999999999999,-0.3,8.266519812098608));
#412=B_SPLINE_CURVE_WITH_KNOTS('',3,(#408,#409,#410,#411),.UNSPECIFIED.,.F.,.U.,(4,4),(0.0,0.068766877778472),.UNSPECIFIED.);
#413=EDGE_CURVE('',#398,#407,#412,.T.);
#414=ORIENTED_EDGE('',*,*,#413,.T.);
#415=CARTESIAN_POINT('',(12.949999999999999,-0.3,8.266519812098608));
#416=CARTESIAN_POINT('',(12.952042962752882,-0.3,8.265407647308736));
#417=CARTESIAN_POINT('',(12.954200834865297,-0.30002049544499,8.264048172403653));
#418=CARTESIAN_POINT('',(12.965086061580571,-0.300256881496241,8.256353339684587));
#419=CARTESIAN_POINT('',(12.974834885300226,-0.300875650791503,8.247191461027603));
#420=CARTESIAN_POINT('',(13.017125911286257,-0.305753056272294,8.205354985542153));
#421=CARTESIAN_POINT('',(13.070853302368766,-0.317543800950836,8.145902632986594));
#422=CARTESIAN_POINT('',(13.132020960276979,-0.361359074839205,8.086651404821776));
#423=CARTESIAN_POINT('',(13.139254978653058,-0.367039848679454,8.079771265481577));
#424=CARTESIAN_POINT('',(13.146342788165411,-0.373175156705813,8.073175156705812));
#425=B_SPLINE_CURVE_WITH_KNOTS('',3,(#415,#416,#417,#418,#419,#420,#421,#422,#423,#424),.UNSPECIFIED.,.F.,.U.,(4,2,2,2,4),(0.014583063106042,0.020575501954286,0.042790252637072,0.119093676108603,0.129469581248801),.UNSPECIFIED.);
#426=EDGE_CURVE('',#407,#381,#425,.T.);
#427=ORIENTED_EDGE('',*,*,#426,.T.);
#428=EDGE_LOOP('',(#394,#395,#396,#405,#414,#427));
#429=FACE_OUTER_BOUND('',#428,.T.);
#430=ADVANCED_FACE('',(#429),#379,.T.);
#431=CARTESIAN_POINT('',(12.950157933786151,-0.3,8.266361878312456));
#432=CARTESIAN_POINT('',(12.950157933786151,-0.3,18.099999999999998));
#433=CARTESIAN_POINT('',(-12.950000000000003,-0.3,8.266361878312456));
#434=CARTESIAN_POINT('',(-12.950000000000003,-0.3,18.099999999999998));
#435=B_SPLINE_SURFACE_WITH_KNOTS('',1,1,((#431,#433),(#432,#434)),.UNSPECIFIED.,.F.,.F.,.U.,(2,2),(2,2),(0.0,9.833638121687542),(0.0,25.900157933786154),.UNSPECIFIED.);
#436=ORIENTED_EDGE('',*,*,#199,.F.);
#437=CARTESIAN_POINT('',(-10.011250543006184,-0.3,9.5));
#438=VERTEX_POINT('',#437);
#439=CARTESIAN_POINT('',(-10.011250543006184,-0.3,9.5));
#440=DIRECTION('',(0.0,0.0,-1.0));
#441=VECTOR('',#440,1.200000000000001);
#442=LINE('',#439,#441);
#443=EDGE_CURVE('',#438,#187,#442,.T.);
#444=ORIENTED_EDGE('',*,*,#443,.F.);
#445=CARTESIAN_POINT('',(-12.888749456993814,-0.3,9.5));
#446=VERTEX_POINT('',#445);
#447=CARTESIAN_POINT('',(-11.449999999999999,-0.3,9.5));
#448=DIRECTION('',(0.0,1.0,0.0));
#449=DIRECTION('',(1.0,0.0,0.0));
#450=AXIS2_PLACEMENT_3D('',#447,#448,#449);
#451=CIRCLE('',#450,1.438749456993815);
#452=EDGE_CURVE('',#446,#438,#451,.T.);
#453=ORIENTED_EDGE('',*,*,#452,.F.);
#454=CARTESIAN_POINT('',(-12.888749456993814,-0.3,8.299999999999999));
#455=VERTEX_POINT('',#454);
#456=CARTESIAN_POINT('',(-12.888749456993814,-0.3,8.299999999999999));
#457=DIRECTION('',(0.0,0.0,1.0));
#458=VECTOR('',#457,1.200000000000001);
#459=LINE('',#456,#458);
#460=EDGE_CURVE('',#455,#446,#459,.T.);
#461=ORIENTED_EDGE('',*,*,#460,.F.);
#462=CARTESIAN_POINT('',(-12.950000000000001,-0.3,8.299999999999999));
#463=VERTEX_POINT('',#462);
#464=CARTESIAN_POINT('',(-12.950000000000001,-0.3,8.299999999999999));
#465=DIRECTION('',(1.0,0.0,0.0));
#466=VECTOR('',#465,0.061250543006187);
#467=LINE('',#464,#466);
#468=EDGE_CURVE('',#463,#455,#467,.T.);
#469=ORIENTED_EDGE('',*,*,#468,.F.);
#470=CARTESIAN_POINT('',(-12.950000000000001,-0.3,18.099999999999998));
#471=VERTEX_POINT('',#470);
#472=CARTESIAN_POINT('',(-12.950000000000001,-0.3,18.099999999999998));
#473=DIRECTION('',(0.0,0.0,-1.0));
#474=VECTOR('',#473,9.799999999999999);
#475=LINE('',#472,#474);
#476=EDGE_CURVE('',#471,#463,#475,.T.);
#477=ORIENTED_EDGE('',*,*,#476,.F.);
#478=CARTESIAN_POINT('',(12.949999999999999,-0.3,18.099999999999998));
#479=DIRECTION('',(-1.0,0.0,0.0));
#480=VECTOR('',#479,25.899999999999999);
#481=LINE('',#478,#480);
#482=EDGE_CURVE('',#144,#471,#481,.T.);
#483=ORIENTED_EDGE('',*,*,#482,.F.);
#484=CARTESIAN_POINT('',(12.949999999999999,-0.3,8.266519812098608));
#485=DIRECTION('',(0.0,0.0,1.0));
#486=VECTOR('',#485,9.83348018790139);
#487=LINE('',#484,#486);
#488=EDGE_CURVE('',#407,#144,#487,.T.);
#489=ORIENTED_EDGE('',*,*,#488,.F.);
#490=ORIENTED_EDGE('',*,*,#413,.F.);
#491=CARTESIAN_POINT('',(12.888749456993814,-0.3,9.5));
#492=VERTEX_POINT('',#491);
#493=CARTESIAN_POINT('',(12.888749456993814,-0.3,9.5));
#494=DIRECTION('',(0.0,0.0,-1.0));
#495=VECTOR('',#494,1.200000000000001);
#496=LINE('',#493,#495);
#497=EDGE_CURVE('',#492,#398,#496,.T.);
#498=ORIENTED_EDGE('',*,*,#497,.F.);
#499=CARTESIAN_POINT('',(10.011250543006184,-0.3,9.5));
#500=VERTEX_POINT('',#499);
#501=CARTESIAN_POINT('',(11.449999999999999,-0.3,9.5));
#502=DIRECTION('',(0.0,1.0,0.0));
#503=DIRECTION('',(1.0,0.0,0.0));
#504=AXIS2_PLACEMENT_3D('',#501,#502,#503);
#505=CIRCLE('',#504,1.438749456993815);
#506=EDGE_CURVE('',#500,#492,#505,.T.);
#507=ORIENTED_EDGE('',*,*,#506,.F.);
#508=CARTESIAN_POINT('',(10.011250543006184,-0.3,8.299999999999999));
#509=DIRECTION('',(0.0,0.0,1.0));
#510=VECTOR('',#509,1.200000000000001);
#511=LINE('',#508,#510);
#512=EDGE_CURVE('',#168,#500,#511,.T.);
#513=ORIENTED_EDGE('',*,*,#512,.F.);
#514=EDGE_LOOP('',(#436,#444,#453,#461,#469,#477,#483,#489,#490,#498,#507,#513));
#515=FACE_OUTER_BOUND('',#514,.T.);
#516=ADVANCED_FACE('',(#515),#435,.F.);
#517=CARTESIAN_POINT('',(12.949999999999999,-0.497977536261982,8.299999999999999));
#518=DIRECTION('',(0.0,1.0,0.0));
#519=DIRECTION('',(0.707106781186548,0.0,-0.707106781186548));
#520=AXIS2_PLACEMENT_3D('',#517,#518,#519);
#521=CYLINDRICAL_SURFACE('',#520,0.3);
#522=ORIENTED_EDGE('',*,*,#393,.F.);
#523=CARTESIAN_POINT('',(13.25,-0.6,8.299999999999999));
#524=VERTEX_POINT('',#523);
#525=CARTESIAN_POINT('',(12.949999999999999,-0.6,8.299999999999999));
#526=DIRECTION('',(0.0,0.707106781186546,0.707106781186549));
#527=DIRECTION('',(0.0,-0.707106781186549,0.707106781186546));
#528=AXIS2_PLACEMENT_3D('',#525,#526,#527);
#529=ELLIPSE('',#528,0.424264068711928,0.3);
#530=EDGE_CURVE('',#524,#381,#529,.T.);
#531=ORIENTED_EDGE('',*,*,#530,.F.);
#532=CARTESIAN_POINT('',(13.25,-2.1,8.299999999999999));
#533=VERTEX_POINT('',#532);
#534=CARTESIAN_POINT('',(13.25,-0.6,8.299999999999999));
#535=DIRECTION('',(0.0,-1.0,0.0));
#536=VECTOR('',#535,1.5);
#537=LINE('',#534,#536);
#538=EDGE_CURVE('',#524,#533,#537,.T.);
#539=ORIENTED_EDGE('',*,*,#538,.T.);
#540=CARTESIAN_POINT('',(12.949999999999999,-2.1,8.299999999999999));
#541=DIRECTION('',(7.401487E-016,-1.0,-7.401487E-016));
#542=DIRECTION('',(0.707106781186543,1.046728E-015,-0.707106781186552));
#543=AXIS2_PLACEMENT_3D('',#540,#541,#542);
#544=CIRCLE('',#543,0.3);
#545=EDGE_CURVE('',#238,#533,#544,.T.);
#546=ORIENTED_EDGE('',*,*,#545,.F.);
#547=ORIENTED_EDGE('',*,*,#243,.T.);
#548=EDGE_LOOP('',(#522,#531,#539,#546,#547));
#549=FACE_OUTER_BOUND('',#548,.T.);
#550=ADVANCED_FACE('',(#549),#521,.T.);
#551=CARTESIAN_POINT('',(12.949999999999999,-2.1,18.099999999999998));
#552=DIRECTION('',(0.577350269189626,0.577350269189626,0.577350269189626));
#553=DIRECTION('',(-0.707106781186548,0.0,0.707106781186548));
#554=AXIS2_PLACEMENT_3D('',#551,#552,#553);
#555=SPHERICAL_SURFACE('',#554,0.3);
#556=CARTESIAN_POINT('',(13.25,-2.1,18.099999999999998));
#557=VERTEX_POINT('',#556);
#558=CARTESIAN_POINT('',(12.949999999999999,-2.1,18.399999999999999));
#559=VERTEX_POINT('',#558);
#560=CARTESIAN_POINT('',(12.949999999999999,-2.1,18.099999999999998));
#561=DIRECTION('',(0.0,-1.0,0.0));
#562=DIRECTION('',(0.707106781186543,0.0,0.707106781186552));
#563=AXIS2_PLACEMENT_3D('',#560,#561,#562);
#564=CIRCLE('',#563,0.3);
#565=EDGE_CURVE('',#557,#559,#564,.T.);
#566=ORIENTED_EDGE('',*,*,#565,.T.);
#567=CARTESIAN_POINT('',(12.949999999999999,-2.4,18.099999999999998));
#568=VERTEX_POINT('',#567);
#569=CARTESIAN_POINT('',(12.949999999999999,-2.1,18.099999999999998));
#570=DIRECTION('',(1.0,0.0,0.0));
#571=DIRECTION('',(0.0,-1.0,0.0));
#572=AXIS2_PLACEMENT_3D('',#569,#570,#571);
#573=CIRCLE('',#572,0.3);
#574=EDGE_CURVE('',#568,#559,#573,.F.);
#575=ORIENTED_EDGE('',*,*,#574,.F.);
#576=CARTESIAN_POINT('',(12.949999999999999,-2.1,18.099999999999998));
#577=DIRECTION('',(0.0,0.0,1.0));
#578=DIRECTION('',(1.0,0.0,0.0));
#579=AXIS2_PLACEMENT_3D('',#576,#577,#578);
#580=CIRCLE('',#579,0.300000000000001);
#581=EDGE_CURVE('',#557,#568,#580,.F.);
#582=ORIENTED_EDGE('',*,*,#581,.F.);
#583=EDGE_LOOP('',(#566,#575,#582));
#584=FACE_OUTER_BOUND('',#583,.T.);
#585=ADVANCED_FACE('',(#584),#555,.T.);
#586=CARTESIAN_POINT('',(12.949999999999999,-0.6,18.099999999999998));
#587=DIRECTION('',(0.577350269189626,0.577350269189626,0.577350269189626));
#588=DIRECTION('',(-0.707106781186548,0.0,0.707106781186548));
#589=AXIS2_PLACEMENT_3D('',#586,#587,#588);
#590=SPHERICAL_SURFACE('',#589,0.3);
#591=ORIENTED_EDGE('',*,*,#132,.T.);
#592=CARTESIAN_POINT('',(12.949999999999999,-0.6,18.399999999999999));
#593=VERTEX_POINT('',#592);
#594=CARTESIAN_POINT('',(12.949999999999999,-0.6,18.099999999999998));
#595=DIRECTION('',(1.0,0.0,0.0));
#596=DIRECTION('',(0.0,0.0,1.0));
#597=AXIS2_PLACEMENT_3D('',#594,#595,#596);
#598=CIRCLE('',#597,0.300000000000001);
#599=EDGE_CURVE('',#593,#126,#598,.F.);
#600=ORIENTED_EDGE('',*,*,#599,.F.);
#601=CARTESIAN_POINT('',(13.25,-0.6,18.099999999999998));
#602=VERTEX_POINT('',#601);
#603=CARTESIAN_POINT('',(12.949999999999999,-0.6,18.099999999999998));
#604=DIRECTION('',(0.0,1.0,0.0));
#605=DIRECTION('',(0.707106781186543,0.0,0.707106781186552));
#606=AXIS2_PLACEMENT_3D('',#603,#604,#605);
#607=CIRCLE('',#606,0.3);
#608=EDGE_CURVE('',#593,#602,#607,.T.);
#609=ORIENTED_EDGE('',*,*,#608,.T.);
#610=CARTESIAN_POINT('',(12.949999999999999,-0.6,18.099999999999998));
#611=DIRECTION('',(0.0,0.0,1.0));
#612=DIRECTION('',(0.707106781186548,0.707106781186547,0.0));
#613=AXIS2_PLACEMENT_3D('',#610,#611,#612);
#614=CIRCLE('',#613,0.3);
#615=EDGE_CURVE('',#602,#135,#614,.T.);
#616=ORIENTED_EDGE('',*,*,#615,.T.);
#617=ORIENTED_EDGE('',*,*,#141,.F.);
#618=EDGE_LOOP('',(#591,#600,#609,#616,#617));
#619=FACE_OUTER_BOUND('',#618,.T.);
#620=ADVANCED_FACE('',(#619),#590,.T.);
#621=CARTESIAN_POINT('',(-12.950000000000001,-2.1,18.099999999999998));
#622=DIRECTION('',(0.577350269189626,0.577350269189626,0.577350269189626));
#623=DIRECTION('',(-0.707106781186548,0.0,0.707106781186548));
#624=AXIS2_PLACEMENT_3D('',#621,#622,#623);
#625=SPHERICAL_SURFACE('',#624,0.3);
#626=CARTESIAN_POINT('',(-12.950000000000001,-2.1,18.399999999999999));
#627=VERTEX_POINT('',#626);
#628=CARTESIAN_POINT('',(-13.250000000000002,-2.1,18.099999999999998));
#629=VERTEX_POINT('',#628);
#630=CARTESIAN_POINT('',(-12.950000000000001,-2.1,18.099999999999998));
#631=DIRECTION('',(0.0,-1.0,0.0));
#632=DIRECTION('',(-0.707106781186543,0.0,0.707106781186552));
#633=AXIS2_PLACEMENT_3D('',#630,#631,#632);
#634=CIRCLE('',#633,0.3);
#635=EDGE_CURVE('',#627,#629,#634,.T.);
#636=ORIENTED_EDGE('',*,*,#635,.T.);
#637=CARTESIAN_POINT('',(-12.950000000000001,-2.4,18.099999999999998));
#638=VERTEX_POINT('',#637);
#639=CARTESIAN_POINT('',(-12.950000000000001,-2.1,18.099999999999998));
#640=DIRECTION('',(0.0,0.0,1.0));
#641=DIRECTION('',(0.0,-1.0,0.0));
#642=AXIS2_PLACEMENT_3D('',#639,#640,#641);
#643=CIRCLE('',#642,0.3);
#644=EDGE_CURVE('',#638,#629,#643,.F.);
#645=ORIENTED_EDGE('',*,*,#644,.F.);
#646=CARTESIAN_POINT('',(-12.950000000000001,-2.1,18.099999999999998));
#647=DIRECTION('',(-1.0,0.0,0.0));
#648=DIRECTION('',(0.0,-0.707106781186543,0.707106781186552));
#649=AXIS2_PLACEMENT_3D('',#646,#647,#648);
#650=CIRCLE('',#649,0.3);
#651=EDGE_CURVE('',#638,#627,#650,.T.);
#652=ORIENTED_EDGE('',*,*,#651,.T.);
#653=EDGE_LOOP('',(#636,#645,#652));
#654=FACE_OUTER_BOUND('',#653,.T.);
#655=ADVANCED_FACE('',(#654),#625,.T.);
#656=CARTESIAN_POINT('',(12.949999999999999,-2.1,8.299999999999999));
#657=DIRECTION('',(0.577350269189626,0.577350269189626,0.577350269189626));
#658=DIRECTION('',(-0.707106781186548,0.0,0.707106781186548));
#659=AXIS2_PLACEMENT_3D('',#656,#657,#658);
#660=SPHERICAL_SURFACE('',#659,0.3);
#661=CARTESIAN_POINT('',(12.949999999999998,-2.4,8.299999999999999));
#662=VERTEX_POINT('',#661);
#663=CARTESIAN_POINT('',(12.949999999999999,-2.1,8.299999999999999));
#664=DIRECTION('',(0.0,0.0,-1.0));
#665=DIRECTION('',(0.707106781186548,-0.707106781186547,0.0));
#666=AXIS2_PLACEMENT_3D('',#663,#664,#665);
#667=CIRCLE('',#666,0.3);
#668=EDGE_CURVE('',#533,#662,#667,.T.);
#669=ORIENTED_EDGE('',*,*,#668,.T.);
#670=CARTESIAN_POINT('',(12.949999999999998,-2.1,8.299999999999999));
#671=DIRECTION('',(1.0,0.0,0.0));
#672=DIRECTION('',(0.0,0.0,-1.0));
#673=AXIS2_PLACEMENT_3D('',#670,#671,#672);
#674=CIRCLE('',#673,0.300000000000001);
#675=EDGE_CURVE('',#238,#662,#674,.F.);
#676=ORIENTED_EDGE('',*,*,#675,.F.);
#677=ORIENTED_EDGE('',*,*,#545,.T.);
#678=EDGE_LOOP('',(#669,#676,#677));
#679=FACE_OUTER_BOUND('',#678,.T.);
#680=ADVANCED_FACE('',(#679),#660,.T.);
#681=CARTESIAN_POINT('',(-12.950000000000001,-0.6,18.099999999999998));
#682=DIRECTION('',(0.577350269189626,0.577350269189626,0.577350269189626));
#683=DIRECTION('',(-0.707106781186548,0.0,0.707106781186548));
#684=AXIS2_PLACEMENT_3D('',#681,#682,#683);
#685=SPHERICAL_SURFACE('',#684,0.3);
#686=CARTESIAN_POINT('',(-12.950000000000001,-0.6,18.399999999999999));
#687=VERTEX_POINT('',#686);
#688=CARTESIAN_POINT('',(-12.950000000000001,-0.6,18.099999999999998));
#689=DIRECTION('',(-1.0,0.0,0.0));
#690=DIRECTION('',(0.0,0.707106781186542,0.707106781186553));
#691=AXIS2_PLACEMENT_3D('',#688,#689,#690);
#692=CIRCLE('',#691,0.3);
#693=EDGE_CURVE('',#687,#471,#692,.T.);
#694=ORIENTED_EDGE('',*,*,#693,.T.);
#695=CARTESIAN_POINT('',(-13.250000000000002,-0.6,18.099999999999998));
#696=VERTEX_POINT('',#695);
#697=CARTESIAN_POINT('',(-12.950000000000001,-0.6,18.099999999999998));
#698=DIRECTION('',(0.0,0.0,1.0));
#699=DIRECTION('',(-1.0,0.0,0.0));
#700=AXIS2_PLACEMENT_3D('',#697,#698,#699);
#701=CIRCLE('',#700,0.300000000000001);
#702=EDGE_CURVE('',#696,#471,#701,.F.);
#703=ORIENTED_EDGE('',*,*,#702,.F.);
#704=CARTESIAN_POINT('',(-12.950000000000001,-0.6,18.099999999999998));
#705=DIRECTION('',(0.0,1.0,0.0));
#706=DIRECTION('',(-0.707106781186543,0.0,0.707106781186552));
#707=AXIS2_PLACEMENT_3D('',#704,#705,#706);
#708=CIRCLE('',#707,0.3);
#709=EDGE_CURVE('',#696,#687,#708,.T.);
#710=ORIENTED_EDGE('',*,*,#709,.T.);
#711=EDGE_LOOP('',(#694,#703,#710));
#712=FACE_OUTER_BOUND('',#711,.T.);
#713=ADVANCED_FACE('',(#712),#685,.T.);
#714=CARTESIAN_POINT('',(-12.950000000000001,-2.1,8.299999999999999));
#715=DIRECTION('',(0.577350269189626,0.577350269189626,0.577350269189626));
#716=DIRECTION('',(-0.707106781186548,0.0,0.707106781186548));
#717=AXIS2_PLACEMENT_3D('',#714,#715,#716);
#718=SPHERICAL_SURFACE('',#717,0.3);
#719=ORIENTED_EDGE('',*,*,#79,.T.);
#720=ORIENTED_EDGE('',*,*,#113,.F.);
#721=CARTESIAN_POINT('',(-12.950000000000001,-2.4,8.299999999999999));
#722=VERTEX_POINT('',#721);
#723=CARTESIAN_POINT('',(-12.950000000000001,-2.1,8.299999999999999));
#724=DIRECTION('',(-1.0,0.0,0.0));
#725=DIRECTION('',(0.0,-0.707106781186547,-0.707106781186548));
#726=AXIS2_PLACEMENT_3D('',#723,#724,#725);
#727=CIRCLE('',#726,0.3);
#728=EDGE_CURVE('',#100,#722,#727,.T.);
#729=ORIENTED_EDGE('',*,*,#728,.T.);
#730=CARTESIAN_POINT('',(-12.950000000000001,-2.1,8.299999999999999));
#731=DIRECTION('',(0.0,0.0,-1.0));
#732=DIRECTION('',(-0.707106781186548,-0.707106781186547,0.0));
#733=AXIS2_PLACEMENT_3D('',#730,#731,#732);
#734=CIRCLE('',#733,0.3);
#735=EDGE_CURVE('',#722,#71,#734,.T.);
#736=ORIENTED_EDGE('',*,*,#735,.T.);
#737=EDGE_LOOP('',(#719,#720,#729,#736));
#738=FACE_OUTER_BOUND('',#737,.T.);
#739=ADVANCED_FACE('',(#738),#718,.T.);
#740=CARTESIAN_POINT('',(-12.950000000000001,-0.6,8.299999999999999));
#741=DIRECTION('',(0.577350269189626,0.577350269189626,0.577350269189626));
#742=DIRECTION('',(-0.707106781186548,0.0,0.707106781186548));
#743=AXIS2_PLACEMENT_3D('',#740,#741,#742);
#744=SPHERICAL_SURFACE('',#743,0.300000000000001);
#745=CARTESIAN_POINT('',(-12.950000000000001,-0.6,8.299999999999999));
#746=DIRECTION('',(-1.0,0.0,0.0));
#747=DIRECTION('',(0.0,0.707106781186547,-0.707106781186548));
#748=AXIS2_PLACEMENT_3D('',#745,#746,#747);
#749=CIRCLE('',#748,0.3);
#750=EDGE_CURVE('',#463,#252,#749,.T.);
#751=ORIENTED_EDGE('',*,*,#750,.T.);
#752=CARTESIAN_POINT('',(-13.250000000000002,-0.6,8.299999999999999));
#753=VERTEX_POINT('',#752);
#754=CARTESIAN_POINT('',(-12.950000000000001,-0.6,8.299999999999999));
#755=DIRECTION('',(0.0,1.0,0.0));
#756=DIRECTION('',(-1.0,0.0,0.0));
#757=AXIS2_PLACEMENT_3D('',#754,#755,#756);
#758=CIRCLE('',#757,0.300000000000001);
#759=EDGE_CURVE('',#753,#252,#758,.F.);
#760=ORIENTED_EDGE('',*,*,#759,.F.);
#761=CARTESIAN_POINT('',(-12.950000000000001,-0.6,8.299999999999999));
#762=DIRECTION('',(0.0,0.0,-1.0));
#763=DIRECTION('',(-0.707106781186548,0.707106781186547,0.0));
#764=AXIS2_PLACEMENT_3D('',#761,#762,#763);
#765=CIRCLE('',#764,0.3);
#766=EDGE_CURVE('',#753,#463,#765,.T.);
#767=ORIENTED_EDGE('',*,*,#766,.T.);
#768=EDGE_LOOP('',(#751,#760,#767));
#769=FACE_OUTER_BOUND('',#768,.T.);
#770=ADVANCED_FACE('',(#769),#744,.T.);
#771=CARTESIAN_POINT('',(-12.950000000000001,-0.497977536261982,8.299999999999999));
#772=DIRECTION('',(0.0,-1.0,0.0));
#773=DIRECTION('',(-0.707106781186548,0.0,-0.707106781186548));
#774=AXIS2_PLACEMENT_3D('',#771,#772,#773);
#775=CYLINDRICAL_SURFACE('',#774,0.3);
#776=ORIENTED_EDGE('',*,*,#97,.T.);
#777=CARTESIAN_POINT('',(-13.250000000000002,-2.1,8.299999999999999));
#778=DIRECTION('',(0.0,1.0,0.0));
#779=VECTOR('',#778,1.5);
#780=LINE('',#777,#779);
#781=EDGE_CURVE('',#82,#753,#780,.T.);
#782=ORIENTED_EDGE('',*,*,#781,.T.);
#783=ORIENTED_EDGE('',*,*,#759,.T.);
#784=ORIENTED_EDGE('',*,*,#257,.T.);
#785=EDGE_LOOP('',(#776,#782,#783,#784));
#786=FACE_OUTER_BOUND('',#785,.T.);
#787=ADVANCED_FACE('',(#786),#775,.T.);
#788=CARTESIAN_POINT('',(-12.950000000000001,-0.6,13.199999999999999));
#789=DIRECTION('',(0.0,0.0,-1.0));
#790=DIRECTION('',(-0.707106781186548,0.707106781186547,0.0));
#791=AXIS2_PLACEMENT_3D('',#788,#789,#790);
#792=CYLINDRICAL_SURFACE('',#791,0.3);
#793=ORIENTED_EDGE('',*,*,#766,.F.);
#794=CARTESIAN_POINT('',(-13.250000000000002,-0.6,8.299999999999999));
#795=DIRECTION('',(0.0,0.0,1.0));
#796=VECTOR('',#795,9.799999999999999);
#797=LINE('',#794,#796);
#798=EDGE_CURVE('',#753,#696,#797,.T.);
#799=ORIENTED_EDGE('',*,*,#798,.T.);
#800=ORIENTED_EDGE('',*,*,#702,.T.);
#801=ORIENTED_EDGE('',*,*,#476,.T.);
#802=EDGE_LOOP('',(#793,#799,#800,#801));
#803=FACE_OUTER_BOUND('',#802,.T.);
#804=ADVANCED_FACE('',(#803),#792,.T.);
#805=CARTESIAN_POINT('',(-5.725,-0.6,8.299999999999999));
#806=DIRECTION('',(-1.0,0.0,0.0));
#807=DIRECTION('',(0.0,0.707106781186547,-0.707106781186548));
#808=AXIS2_PLACEMENT_3D('',#805,#806,#807);
#809=CYLINDRICAL_SURFACE('',#808,0.3);
#810=CARTESIAN_POINT('',(-12.888749456993814,-0.6,8.299999999999999));
#811=DIRECTION('',(-1.0,0.0,0.0));
#812=DIRECTION('',(0.0,1.0,0.0));
#813=AXIS2_PLACEMENT_3D('',#810,#811,#812);
#814=CIRCLE('',#813,0.3);
#815=EDGE_CURVE('',#455,#260,#814,.T.);
#816=ORIENTED_EDGE('',*,*,#815,.T.);
#817=ORIENTED_EDGE('',*,*,#265,.T.);
#818=ORIENTED_EDGE('',*,*,#750,.F.);
#819=ORIENTED_EDGE('',*,*,#468,.T.);
#820=EDGE_LOOP('',(#816,#817,#818,#819));
#821=FACE_OUTER_BOUND('',#820,.T.);
#822=ADVANCED_FACE('',(#821),#809,.T.);
#823=CARTESIAN_POINT('',(-5.725,-2.1,8.299999999999999));
#824=DIRECTION('',(1.0,0.0,0.0));
#825=DIRECTION('',(0.0,-0.707106781186547,-0.707106781186548));
#826=AXIS2_PLACEMENT_3D('',#823,#824,#825);
#827=CYLINDRICAL_SURFACE('',#826,0.3);
#828=ORIENTED_EDGE('',*,*,#675,.T.);
#829=CARTESIAN_POINT('',(12.949999999999998,-2.4,8.299999999999999));
#830=DIRECTION('',(-1.0,0.0,0.0));
#831=VECTOR('',#830,25.899999999999999);
#832=LINE('',#829,#831);
#833=EDGE_CURVE('',#662,#722,#832,.T.);
#834=ORIENTED_EDGE('',*,*,#833,.T.);
#835=ORIENTED_EDGE('',*,*,#728,.F.);
#836=ORIENTED_EDGE('',*,*,#106,.F.);
#837=ORIENTED_EDGE('',*,*,#249,.T.);
#838=EDGE_LOOP('',(#828,#834,#835,#836,#837));
#839=FACE_OUTER_BOUND('',#838,.T.);
#840=ADVANCED_FACE('',(#839),#827,.T.);
#841=CARTESIAN_POINT('',(-12.950000000000001,-2.1,13.199999999999999));
#842=DIRECTION('',(0.0,0.0,-1.0));
#843=DIRECTION('',(-0.707106781186548,-0.707106781186547,0.0));
#844=AXIS2_PLACEMENT_3D('',#841,#842,#843);
#845=CYLINDRICAL_SURFACE('',#844,0.3);
#846=ORIENTED_EDGE('',*,*,#735,.F.);
#847=CARTESIAN_POINT('',(-12.950000000000001,-2.4,8.299999999999999));
#848=DIRECTION('',(0.0,0.0,1.0));
#849=VECTOR('',#848,9.799999999999999);
#850=LINE('',#847,#849);
#851=EDGE_CURVE('',#722,#638,#850,.T.);
#852=ORIENTED_EDGE('',*,*,#851,.T.);
#853=ORIENTED_EDGE('',*,*,#644,.T.);
#854=CARTESIAN_POINT('',(-13.250000000000002,-2.1,18.099999999999998));
#855=DIRECTION('',(0.0,0.0,-1.0));
#856=VECTOR('',#855,9.799999999999999);
#857=LINE('',#854,#856);
#858=EDGE_CURVE('',#629,#82,#857,.T.);
#859=ORIENTED_EDGE('',*,*,#858,.T.);
#860=ORIENTED_EDGE('',*,*,#88,.F.);
#861=EDGE_LOOP('',(#846,#852,#853,#859,#860));
#862=FACE_OUTER_BOUND('',#861,.T.);
#863=ADVANCED_FACE('',(#862),#845,.T.);
#864=CARTESIAN_POINT('',(-12.950000000000001,-1.05,18.099999999999998));
#865=DIRECTION('',(0.0,1.0,0.0));
#866=DIRECTION('',(-0.707106781186543,0.0,0.707106781186552));
#867=AXIS2_PLACEMENT_3D('',#864,#865,#866);
#868=CYLINDRICAL_SURFACE('',#867,0.3);
#869=ORIENTED_EDGE('',*,*,#709,.F.);
#870=CARTESIAN_POINT('',(-13.250000000000002,-0.6,18.099999999999998));
#871=DIRECTION('',(0.0,-1.0,0.0));
#872=VECTOR('',#871,1.5);
#873=LINE('',#870,#872);
#874=EDGE_CURVE('',#696,#629,#873,.T.);
#875=ORIENTED_EDGE('',*,*,#874,.T.);
#876=ORIENTED_EDGE('',*,*,#635,.F.);
#877=CARTESIAN_POINT('',(-12.950000000000001,-2.1,18.399999999999999));
#878=DIRECTION('',(0.0,1.0,0.0));
#879=VECTOR('',#878,1.5);
#880=LINE('',#877,#879);
#881=EDGE_CURVE('',#627,#687,#880,.T.);
#882=ORIENTED_EDGE('',*,*,#881,.T.);
#883=EDGE_LOOP('',(#869,#875,#876,#882));
#884=FACE_OUTER_BOUND('',#883,.T.);
#885=ADVANCED_FACE('',(#884),#868,.T.);
#886=CARTESIAN_POINT('',(-1.776357E-015,-0.6,18.099999999999998));
#887=DIRECTION('',(1.0,0.0,0.0));
#888=DIRECTION('',(0.0,0.707106781186542,0.707106781186553));
#889=AXIS2_PLACEMENT_3D('',#886,#887,#888);
#890=CYLINDRICAL_SURFACE('',#889,0.3);
#891=ORIENTED_EDGE('',*,*,#599,.T.);
#892=ORIENTED_EDGE('',*,*,#157,.T.);
#893=ORIENTED_EDGE('',*,*,#482,.T.);
#894=ORIENTED_EDGE('',*,*,#693,.F.);
#895=CARTESIAN_POINT('',(-12.950000000000001,-0.6,18.399999999999999));
#896=DIRECTION('',(1.0,0.0,0.0));
#897=VECTOR('',#896,25.899999999999999);
#898=LINE('',#895,#897);
#899=EDGE_CURVE('',#687,#593,#898,.T.);
#900=ORIENTED_EDGE('',*,*,#899,.T.);
#901=EDGE_LOOP('',(#891,#892,#893,#894,#900));
#902=FACE_OUTER_BOUND('',#901,.T.);
#903=ADVANCED_FACE('',(#902),#890,.T.);
#904=CARTESIAN_POINT('',(-12.888749456993814,0.7,8.299999999999999));
#905=DIRECTION('',(0.0,0.0,1.0));
#906=DIRECTION('',(1.0,0.0,0.0));
#907=AXIS2_PLACEMENT_3D('',#904,#905,#906);
#908=TOROIDAL_SURFACE('',#907,1.3,0.3);
#909=CARTESIAN_POINT('',(-11.989531046372679,0.2625,8.299999999999999));
#910=VERTEX_POINT('',#909);
#911=CARTESIAN_POINT('',(-11.719765523186338,0.13125,8.299999999999999));
#912=DIRECTION('',(-0.437499999999999,-0.899218410621135,0.0));
#913=DIRECTION('',(-0.899218410621135,0.437499999999999,0.0));
#914=AXIS2_PLACEMENT_3D('',#911,#912,#913);
#915=CIRCLE('',#914,0.300000000000001);
#916=EDGE_CURVE('',#910,#268,#915,.T.);
#917=ORIENTED_EDGE('',*,*,#916,.T.);
#918=ORIENTED_EDGE('',*,*,#274,.T.);
#919=ORIENTED_EDGE('',*,*,#815,.F.);
#920=CARTESIAN_POINT('',(-12.888749456993814,0.7,8.299999999999999));
#921=DIRECTION('',(0.0,0.0,1.0));
#922=DIRECTION('',(0.530330085889911,-0.847791247890658,0.0));
#923=AXIS2_PLACEMENT_3D('',#920,#921,#922);
#924=CIRCLE('',#923,1.0);
#925=EDGE_CURVE('',#455,#910,#924,.T.);
#926=ORIENTED_EDGE('',*,*,#925,.T.);
#927=EDGE_LOOP('',(#917,#918,#919,#926));
#928=FACE_OUTER_BOUND('',#927,.T.);
#929=ADVANCED_FACE('',(#928),#908,.T.);
#930=CARTESIAN_POINT('',(12.949999999999999,-2.1,13.199999999999999));
#931=DIRECTION('',(0.0,0.0,-1.0));
#932=DIRECTION('',(0.707106781186548,-0.707106781186547,0.0));
#933=AXIS2_PLACEMENT_3D('',#930,#931,#932);
#934=CYLINDRICAL_SURFACE('',#933,0.3);
#935=ORIENTED_EDGE('',*,*,#668,.F.);
#936=CARTESIAN_POINT('',(13.25,-2.1,8.299999999999999));
#937=DIRECTION('',(0.0,0.0,1.0));
#938=VECTOR('',#937,9.799999999999999);
#939=LINE('',#936,#938);
#940=EDGE_CURVE('',#533,#557,#939,.T.);
#941=ORIENTED_EDGE('',*,*,#940,.T.);
#942=ORIENTED_EDGE('',*,*,#581,.T.);
#943=CARTESIAN_POINT('',(12.949999999999999,-2.4,18.099999999999998));
#944=DIRECTION('',(0.0,0.0,-1.0));
#945=VECTOR('',#944,9.799999999999999);
#946=LINE('',#943,#945);
#947=EDGE_CURVE('',#568,#662,#946,.T.);
#948=ORIENTED_EDGE('',*,*,#947,.T.);
#949=EDGE_LOOP('',(#935,#941,#942,#948));
#950=FACE_OUTER_BOUND('',#949,.T.);
#951=ADVANCED_FACE('',(#950),#934,.T.);
#952=CARTESIAN_POINT('',(-1.776357E-015,-2.1,18.099999999999998));
#953=DIRECTION('',(-1.0,0.0,0.0));
#954=DIRECTION('',(0.0,-0.707106781186543,0.707106781186552));
#955=AXIS2_PLACEMENT_3D('',#952,#953,#954);
#956=CYLINDRICAL_SURFACE('',#955,0.3);
#957=ORIENTED_EDGE('',*,*,#651,.F.);
#958=CARTESIAN_POINT('',(-12.950000000000001,-2.4,18.099999999999998));
#959=DIRECTION('',(1.0,0.0,0.0));
#960=VECTOR('',#959,25.899999999999999);
#961=LINE('',#958,#960);
#962=EDGE_CURVE('',#638,#568,#961,.T.);
#963=ORIENTED_EDGE('',*,*,#962,.T.);
#964=ORIENTED_EDGE('',*,*,#574,.T.);
#965=CARTESIAN_POINT('',(12.949999999999999,-2.1,18.399999999999999));
#966=DIRECTION('',(-1.0,0.0,0.0));
#967=VECTOR('',#966,25.899999999999999);
#968=LINE('',#965,#967);
#969=EDGE_CURVE('',#559,#627,#968,.T.);
#970=ORIENTED_EDGE('',*,*,#969,.T.);
#971=EDGE_LOOP('',(#957,#963,#964,#970));
#972=FACE_OUTER_BOUND('',#971,.T.);
#973=ADVANCED_FACE('',(#972),#956,.T.);
#974=CARTESIAN_POINT('',(12.949999999999999,-1.05,18.099999999999998));
#975=DIRECTION('',(0.0,-1.0,0.0));
#976=DIRECTION('',(0.707106781186543,0.0,0.707106781186552));
#977=AXIS2_PLACEMENT_3D('',#974,#975,#976);
#978=CYLINDRICAL_SURFACE('',#977,0.3);
#979=ORIENTED_EDGE('',*,*,#565,.F.);
#980=CARTESIAN_POINT('',(13.25,-2.1,18.099999999999998));
#981=DIRECTION('',(0.0,1.0,0.0));
#982=VECTOR('',#981,1.5);
#983=LINE('',#980,#982);
#984=EDGE_CURVE('',#557,#602,#983,.T.);
#985=ORIENTED_EDGE('',*,*,#984,.T.);
#986=ORIENTED_EDGE('',*,*,#608,.F.);
#987=CARTESIAN_POINT('',(12.949999999999999,-0.6,18.399999999999999));
#988=DIRECTION('',(0.0,-1.0,0.0));
#989=VECTOR('',#988,1.5);
#990=LINE('',#987,#989);
#991=EDGE_CURVE('',#593,#559,#990,.T.);
#992=ORIENTED_EDGE('',*,*,#991,.T.);
#993=EDGE_LOOP('',(#979,#985,#986,#992));
#994=FACE_OUTER_BOUND('',#993,.T.);
#995=ADVANCED_FACE('',(#994),#978,.T.);
#996=CARTESIAN_POINT('',(12.949999999999999,-0.6,13.199999999999999));
#997=DIRECTION('',(0.0,0.0,-1.0));
#998=DIRECTION('',(0.707106781186548,0.707106781186547,0.0));
#999=AXIS2_PLACEMENT_3D('',#996,#997,#998);
#1000=CYLINDRICAL_SURFACE('',#999,0.3);
#1001=ORIENTED_EDGE('',*,*,#426,.F.);
#1002=ORIENTED_EDGE('',*,*,#488,.T.);
#1003=ORIENTED_EDGE('',*,*,#150,.F.);
#1004=ORIENTED_EDGE('',*,*,#615,.F.);
#1005=CARTESIAN_POINT('',(13.25,-0.6,18.099999999999998));
#1006=DIRECTION('',(0.0,0.0,-1.0));
#1007=VECTOR('',#1006,9.799999999999999);
#1008=LINE('',#1005,#1007);
#1009=EDGE_CURVE('',#602,#524,#1008,.T.);
#1010=ORIENTED_EDGE('',*,*,#1009,.T.);
#1011=ORIENTED_EDGE('',*,*,#530,.T.);
#1012=EDGE_LOOP('',(#1001,#1002,#1003,#1004,#1010,#1011));
#1013=FACE_OUTER_BOUND('',#1012,.T.);
#1014=ADVANCED_FACE('',(#1013),#1000,.T.);
#1015=CARTESIAN_POINT('',(-11.450000242915282,0.000000059093227,8.299612701988126));
#1016=CARTESIAN_POINT('',(-11.450376322971914,0.000091546891316,7.999806538413172));
#1017=CARTESIAN_POINT('',(-11.741686864276586,0.070957734858241,8.000000062499927));
#1018=CARTESIAN_POINT('',(-12.032997405581259,0.141823922825167,8.000193586586681));
#1019=CARTESIAN_POINT('',(-12.032997405581259,0.141823922825167,8.299999999999999));
#1020=CARTESIAN_POINT('',(-11.450000196474075,0.000000249999688,8.299612701988126));
#1021=CARTESIAN_POINT('',(-11.450304376518741,0.00038729809256,7.999806538413173));
#1022=CARTESIAN_POINT('',(-11.685921373227538,0.300193649046279,8.000000062499927));
#1023=CARTESIAN_POINT('',(-11.921538369936334,0.599999999999999,8.000193586586681));
#1024=CARTESIAN_POINT('',(-11.921538369936334,0.599999999999999,8.299999999999999));
#1025=CARTESIAN_POINT('',(-11.449999999999999,0.000000249999688,8.299612701988126));
#1026=CARTESIAN_POINT('',(-11.450000000000001,0.00038729809256,7.999806538413172));
#1027=CARTESIAN_POINT('',(-11.449999999999998,0.300193649046279,8.000000062499927));
#1028=CARTESIAN_POINT('',(-11.449999999999999,0.599999999999999,8.000193586586681));
#1029=CARTESIAN_POINT('',(-11.449999999999999,0.599999999999999,8.299999999999999));
#1030=CARTESIAN_POINT('',(-11.449999803525923,0.000000249999688,8.299612701988126));
#1031=CARTESIAN_POINT('',(-11.449695623481256,0.00038729809256,7.999806538413173));
#1032=CARTESIAN_POINT('',(-11.214078626772462,0.300193649046278,8.000000062499927));
#1033=CARTESIAN_POINT('',(-10.978461630063665,0.599999999999999,8.000193586586681));
#1034=CARTESIAN_POINT('',(-10.978461630063665,0.599999999999999,8.299999999999999));
#1035=CARTESIAN_POINT('',(-11.449999757084717,0.000000059093227,8.299612701988126));
#1036=CARTESIAN_POINT('',(-11.449623677028084,0.000091546891316,7.999806538413172));
#1037=CARTESIAN_POINT('',(-11.158313135723413,0.070957734858241,8.000000062499927));
#1038=CARTESIAN_POINT('',(-10.867002594418739,0.141823922825166,8.000193586586681));
#1039=CARTESIAN_POINT('',(-10.867002594418739,0.141823922825166,8.299999999999999));
#1047=(BOUNDED_SURFACE()B_SPLINE_SURFACE(2,2,((#1015,#1020,#1025,#1030,#1035),(#1016,#1021,#1026,#1031,#1036),(#1017,#1022,#1027,#1032,#1037),(#1018,#1023,#1028,#1033,#1038),(#1019,#1024,#1029,#1034,#1039)),.UNSPECIFIED.,.F.,.F.,.U.)B_SPLINE_SURFACE_WITH_KNOTS((3,2,3),(3,2,3),(-3.140301659858276,-1.570150829929138,0.0),(0.0,1.332164748095814,2.664329496191629),.UNSPECIFIED.)GEOMETRIC_REPRESENTATION_ITEM()RATIONAL_B_SPLINE_SURFACE(((1.0,0.786248435517875,1.0,0.786248435517875,1.0),(0.707334961959649,0.55614100722787,0.707334961959649,0.55614100722787,0.707334961959649),(1.0,0.786248435517875,1.0,0.786248435517875,1.0),(0.707334961959655,0.556141007227874,0.707334961959655,0.556141007227874,0.707334961959655),(1.0,0.786248435517875,1.0,0.786248435517875,1.0)))REPRESENTATION_ITEM('')SURFACE());
#1048=CARTESIAN_POINT('',(-10.910468953627319,0.2625,8.299999999999999));
#1049=VERTEX_POINT('',#1048);
#1050=CARTESIAN_POINT('',(-11.180234476813659,0.13125,8.299999999999999));
#1051=DIRECTION('',(-0.4375,0.899218410621135,0.0));
#1052=DIRECTION('',(0.899218410621135,0.4375,0.0));
#1053=AXIS2_PLACEMENT_3D('',#1050,#1051,#1052);
#1054=CIRCLE('',#1053,0.3);
#1055=EDGE_CURVE('',#1049,#277,#1054,.T.);
#1056=ORIENTED_EDGE('',*,*,#1055,.T.);
#1057=ORIENTED_EDGE('',*,*,#283,.T.);
#1058=ORIENTED_EDGE('',*,*,#916,.F.);
#1059=CARTESIAN_POINT('',(-11.449999999999999,0.0,8.299999999999999));
#1060=DIRECTION('',(0.0,0.0,-1.0));
#1061=DIRECTION('',(0.0,1.0,0.0));
#1062=AXIS2_PLACEMENT_3D('',#1059,#1060,#1061);
#1063=CIRCLE('',#1062,0.6);
#1064=EDGE_CURVE('',#910,#1049,#1063,.T.);
#1065=ORIENTED_EDGE('',*,*,#1064,.T.);
#1066=EDGE_LOOP('',(#1056,#1057,#1058,#1065));
#1067=FACE_OUTER_BOUND('',#1066,.T.);
#1068=ADVANCED_FACE('',(#1067),#1047,.T.);
#1069=CARTESIAN_POINT('',(-10.011250543006184,0.7,8.299999999999999));
#1070=DIRECTION('',(0.0,0.0,1.0));
#1071=DIRECTION('',(1.0,0.0,0.0));
#1072=AXIS2_PLACEMENT_3D('',#1069,#1070,#1071);
#1073=TOROIDAL_SURFACE('',#1072,1.3,0.3);
#1074=ORIENTED_EDGE('',*,*,#193,.F.);
#1075=ORIENTED_EDGE('',*,*,#290,.T.);
#1076=ORIENTED_EDGE('',*,*,#1055,.F.);
#1077=CARTESIAN_POINT('',(-10.011250543006184,0.7,8.299999999999999));
#1078=DIRECTION('',(0.0,0.0,1.0));
#1079=DIRECTION('',(-0.530330085889911,-0.847791247890658,0.0));
#1080=AXIS2_PLACEMENT_3D('',#1077,#1078,#1079);
#1081=CIRCLE('',#1080,1.0);
#1082=EDGE_CURVE('',#1049,#187,#1081,.T.);
#1083=ORIENTED_EDGE('',*,*,#1082,.T.);
#1084=EDGE_LOOP('',(#1074,#1075,#1076,#1083));
#1085=FACE_OUTER_BOUND('',#1084,.T.);
#1086=ADVANCED_FACE('',(#1085),#1073,.T.);
#1087=CARTESIAN_POINT('',(-13.250000000000002,-2.1,18.099999999999998));
#1088=CARTESIAN_POINT('',(-13.250000000000002,-2.1,8.299999999999999));
#1089=CARTESIAN_POINT('',(-13.250000000000002,-0.6,18.099999999999998));
#1090=CARTESIAN_POINT('',(-13.250000000000002,-0.6,8.300000000000001));
#1091=B_SPLINE_SURFACE_WITH_KNOTS('',1,1,((#1087,#1089),(#1088,#1090)),.UNSPECIFIED.,.F.,.F.,.U.,(2,2),(2,2),(0.0,9.799999999999999),(0.0,1.5),.UNSPECIFIED.);
#1092=ORIENTED_EDGE('',*,*,#781,.F.);
#1093=ORIENTED_EDGE('',*,*,#858,.F.);
#1094=ORIENTED_EDGE('',*,*,#874,.F.);
#1095=ORIENTED_EDGE('',*,*,#798,.F.);
#1096=EDGE_LOOP('',(#1092,#1093,#1094,#1095));
#1097=FACE_OUTER_BOUND('',#1096,.T.);
#1098=ADVANCED_FACE('',(#1097),#1091,.F.);
#1099=CARTESIAN_POINT('',(12.949999999999999,-2.4,18.099999999999998));
#1100=CARTESIAN_POINT('',(12.949999999999999,-2.4,8.299999999999999));
#1101=CARTESIAN_POINT('',(-12.949999999999999,-2.4,18.099999999999998));
#1102=CARTESIAN_POINT('',(-12.949999999999999,-2.4,8.300000000000001));
#1103=B_SPLINE_SURFACE_WITH_KNOTS('',1,1,((#1099,#1101),(#1100,#1102)),.UNSPECIFIED.,.F.,.F.,.U.,(2,2),(2,2),(0.0,9.799999999999999),(0.0,25.899999999999999),.UNSPECIFIED.);
#1104=ORIENTED_EDGE('',*,*,#833,.F.);
#1105=ORIENTED_EDGE('',*,*,#947,.F.);
#1106=ORIENTED_EDGE('',*,*,#962,.F.);
#1107=ORIENTED_EDGE('',*,*,#851,.F.);
#1108=EDGE_LOOP('',(#1104,#1105,#1106,#1107));
#1109=FACE_OUTER_BOUND('',#1108,.T.);
#1110=ADVANCED_FACE('',(#1109),#1103,.F.);
#1111=CARTESIAN_POINT('',(-12.950000000000001,-2.1,18.399999999999999));
#1112=CARTESIAN_POINT('',(12.949999999999998,-2.1,18.399999999999999));
#1113=CARTESIAN_POINT('',(-12.950000000000001,-0.6,18.399999999999999));
#1114=CARTESIAN_POINT('',(12.949999999999998,-0.6,18.399999999999999));
#1115=B_SPLINE_SURFACE_WITH_KNOTS('',1,1,((#1111,#1113),(#1112,#1114)),.UNSPECIFIED.,.F.,.F.,.U.,(2,2),(2,2),(0.0,25.899999999999999),(0.0,1.5),.UNSPECIFIED.);
#1116=ORIENTED_EDGE('',*,*,#881,.F.);
#1117=ORIENTED_EDGE('',*,*,#969,.F.);
#1118=ORIENTED_EDGE('',*,*,#991,.F.);
#1119=ORIENTED_EDGE('',*,*,#899,.F.);
#1120=EDGE_LOOP('',(#1116,#1117,#1118,#1119));
#1121=FACE_OUTER_BOUND('',#1120,.T.);
#1122=ADVANCED_FACE('',(#1121),#1115,.T.);
#1123=CARTESIAN_POINT('',(13.25,-2.1,8.299999999999999));
#1124=CARTESIAN_POINT('',(13.25,-2.1,18.099999999999998));
#1125=CARTESIAN_POINT('',(13.25,-0.6,8.299999999999999));
#1126=CARTESIAN_POINT('',(13.25,-0.6,18.100000000000001));
#1127=B_SPLINE_SURFACE_WITH_KNOTS('',1,1,((#1123,#1125),(#1124,#1126)),.UNSPECIFIED.,.F.,.F.,.U.,(2,2),(2,2),(0.0,9.799999999999999),(0.0,1.5),.UNSPECIFIED.);
#1128=ORIENTED_EDGE('',*,*,#538,.F.);
#1129=ORIENTED_EDGE('',*,*,#1009,.F.);
#1130=ORIENTED_EDGE('',*,*,#984,.F.);
#1131=ORIENTED_EDGE('',*,*,#940,.F.);
#1132=EDGE_LOOP('',(#1128,#1129,#1130,#1131));
#1133=FACE_OUTER_BOUND('',#1132,.T.);
#1134=ADVANCED_FACE('',(#1133),#1127,.F.);
#1135=CARTESIAN_POINT('',(10.011250543006184,0.7,7.999999999999998));
#1136=DIRECTION('',(0.0,0.0,1.0));
#1137=DIRECTION('',(0.0,1.0,0.0));
#1138=AXIS2_PLACEMENT_3D('',#1135,#1136,#1137);
#1139=CYLINDRICAL_SURFACE('',#1138,1.0);
#1140=ORIENTED_EDGE('',*,*,#308,.F.);
#1141=ORIENTED_EDGE('',*,*,#512,.T.);
#1142=CARTESIAN_POINT('',(10.910468953627319,0.2625,9.5));
#1143=VERTEX_POINT('',#1142);
#1144=CARTESIAN_POINT('',(10.011250543006184,0.7,9.5));
#1145=DIRECTION('',(0.0,0.0,1.0));
#1146=DIRECTION('',(0.0,-1.0,0.0));
#1147=AXIS2_PLACEMENT_3D('',#1144,#1145,#1146);
#1148=CIRCLE('',#1147,1.0);
#1149=EDGE_CURVE('',#500,#1143,#1148,.T.);
#1150=ORIENTED_EDGE('',*,*,#1149,.T.);
#1151=CARTESIAN_POINT('',(10.910468953627319,0.2625,9.5));
#1152=DIRECTION('',(0.0,0.0,-1.0));
#1153=VECTOR('',#1152,1.200000000000001);
#1154=LINE('',#1151,#1153);
#1155=EDGE_CURVE('',#1143,#302,#1154,.T.);
#1156=ORIENTED_EDGE('',*,*,#1155,.T.);
#1157=EDGE_LOOP('',(#1140,#1141,#1150,#1156));
#1158=FACE_OUTER_BOUND('',#1157,.T.);
#1159=ADVANCED_FACE('',(#1158),#1139,.F.);
#1160=CARTESIAN_POINT('',(10.910468953627319,0.2625,9.5));
#1161=CARTESIAN_POINT('',(10.636793785177408,-0.3,9.5));
#1162=CARTESIAN_POINT('',(10.011250543006184,-0.3,9.5));
#1163=CARTESIAN_POINT('',(10.910468953627319,0.2625,10.03953104637268));
#1164=CARTESIAN_POINT('',(10.636793785177408,-0.3,10.313206214822591));
#1165=CARTESIAN_POINT('',(10.011250543006184,-0.3,10.938749456993815));
#1166=CARTESIAN_POINT('',(11.449999999999999,0.2625,10.03953104637268));
#1167=CARTESIAN_POINT('',(11.449999999999999,-0.3,10.313206214822593));
#1168=CARTESIAN_POINT('',(11.449999999999999,-0.3,10.938749456993815));
#1169=CARTESIAN_POINT('',(11.989531046372679,0.2625,10.03953104637268));
#1170=CARTESIAN_POINT('',(12.26320621482259,-0.3,10.313206214822591));
#1171=CARTESIAN_POINT('',(12.888749456993814,-0.3,10.938749456993815));
#1172=CARTESIAN_POINT('',(11.989531046372679,0.2625,9.5));
#1173=CARTESIAN_POINT('',(12.26320621482259,-0.3,9.5));
#1174=CARTESIAN_POINT('',(12.888749456993814,-0.3,9.5));
#1175=CARTESIAN_POINT('',(11.989531046372679,0.2625,8.96046895362732));
#1176=CARTESIAN_POINT('',(12.26320621482259,-0.3,8.686793785177409));
#1177=CARTESIAN_POINT('',(12.888749456993814,-0.3,8.061250543006185));
#1178=CARTESIAN_POINT('',(11.449999999999999,0.2625,8.96046895362732));
#1179=CARTESIAN_POINT('',(11.449999999999999,-0.3,8.686793785177409));
#1180=CARTESIAN_POINT('',(11.449999999999999,-0.3,8.061250543006185));
#1181=CARTESIAN_POINT('',(10.910468953627319,0.2625,8.96046895362732));
#1182=CARTESIAN_POINT('',(10.636793785177408,-0.3,8.686793785177409));
#1183=CARTESIAN_POINT('',(10.011250543006184,-0.3,8.061250543006185));
#1184=CARTESIAN_POINT('',(10.910468953627319,0.2625,9.5));
#1185=CARTESIAN_POINT('',(10.636793785177408,-0.3,9.5));
#1186=CARTESIAN_POINT('',(10.011250543006184,-0.3,9.5));
#1194=(BOUNDED_SURFACE()B_SPLINE_SURFACE(2,2,((#1160,#1163,#1166,#1169,#1172,#1175,#1178,#1181,#1184),(#1161,#1164,#1167,#1170,#1173,#1176,#1179,#1182,#1185),(#1162,#1165,#1168,#1171,#1174,#1177,#1180,#1183,#1186)),.UNSPECIFIED.,.F.,.T.,.U.)B_SPLINE_SURFACE_WITH_KNOTS((3,3),(3,2,2,2,3),(-2.688776058844868,-1.570796326794897),(0.0,1.570796326794897,3.141592653589793,4.71238898038469,6.283185307179586),.UNSPECIFIED.)GEOMETRIC_REPRESENTATION_ITEM()RATIONAL_B_SPLINE_SURFACE(((1.0,0.707106781186548,1.0,0.707106781186548,1.0,0.707106781186548,1.0,0.707106781186548,1.0),(0.847791247890665,0.599478940414094,0.847791247890665,0.599478940414094,0.847791247890665,0.599478940414094,0.847791247890665,0.599478940414094,0.847791247890665),(1.0,0.707106781186548,1.0,0.707106781186548,1.0,0.707106781186548,1.0,0.707106781186548,1.0)))REPRESENTATION_ITEM('')SURFACE());
#1195=CARTESIAN_POINT('',(11.989531046372679,0.2625,9.5));
#1196=VERTEX_POINT('',#1195);
#1197=CARTESIAN_POINT('',(12.888749456993814,0.7,9.5));
#1198=DIRECTION('',(0.0,0.0,-1.0));
#1199=DIRECTION('',(0.0,-1.0,0.0));
#1200=AXIS2_PLACEMENT_3D('',#1197,#1198,#1199);
#1201=CIRCLE('',#1200,1.0);
#1202=EDGE_CURVE('',#492,#1196,#1201,.T.);
#1203=ORIENTED_EDGE('',*,*,#1202,.T.);
#1204=CARTESIAN_POINT('',(11.449999999999999,0.2625,9.5));
#1205=DIRECTION('',(0.0,-1.0,0.0));
#1206=DIRECTION('',(1.0,0.0,0.0));
#1207=AXIS2_PLACEMENT_3D('',#1204,#1205,#1206);
#1208=CIRCLE('',#1207,0.53953104637268);
#1209=EDGE_CURVE('',#1196,#1143,#1208,.T.);
#1210=ORIENTED_EDGE('',*,*,#1209,.T.);
#1211=ORIENTED_EDGE('',*,*,#1149,.F.);
#1212=ORIENTED_EDGE('',*,*,#506,.T.);
#1213=EDGE_LOOP('',(#1203,#1210,#1211,#1212));
#1214=FACE_OUTER_BOUND('',#1213,.T.);
#1215=ADVANCED_FACE('',(#1214),#1194,.T.);
#1216=CARTESIAN_POINT('',(12.888749456993814,0.7,7.999999999999998));
#1217=DIRECTION('',(0.0,0.0,-1.0));
#1218=DIRECTION('',(0.0,1.0,0.0));
#1219=AXIS2_PLACEMENT_3D('',#1216,#1217,#1218);
#1220=CYLINDRICAL_SURFACE('',#1219,1.0);
#1221=ORIENTED_EDGE('',*,*,#404,.F.);
#1222=CARTESIAN_POINT('',(11.989531046372679,0.2625,8.299999999999999));
#1223=DIRECTION('',(0.0,0.0,1.0));
#1224=VECTOR('',#1223,1.200000000000001);
#1225=LINE('',#1222,#1224);
#1226=EDGE_CURVE('',#355,#1196,#1225,.T.);
#1227=ORIENTED_EDGE('',*,*,#1226,.T.);
#1228=ORIENTED_EDGE('',*,*,#1202,.F.);
#1229=ORIENTED_EDGE('',*,*,#497,.T.);
#1230=EDGE_LOOP('',(#1221,#1227,#1228,#1229));
#1231=FACE_OUTER_BOUND('',#1230,.T.);
#1232=ADVANCED_FACE('',(#1231),#1220,.F.);
#1233=CARTESIAN_POINT('',(-12.888749456993814,0.7,7.999999999999998));
#1234=DIRECTION('',(0.0,0.0,1.0));
#1235=DIRECTION('',(0.0,1.0,0.0));
#1236=AXIS2_PLACEMENT_3D('',#1233,#1234,#1235);
#1237=CYLINDRICAL_SURFACE('',#1236,1.0);
#1238=ORIENTED_EDGE('',*,*,#925,.F.);
#1239=ORIENTED_EDGE('',*,*,#460,.T.);
#1240=CARTESIAN_POINT('',(-11.989531046372679,0.2625,9.5));
#1241=VERTEX_POINT('',#1240);
#1242=CARTESIAN_POINT('',(-12.888749456993814,0.7,9.5));
#1243=DIRECTION('',(0.0,0.0,1.0));
#1244=DIRECTION('',(0.0,-1.0,0.0));
#1245=AXIS2_PLACEMENT_3D('',#1242,#1243,#1244);
#1246=CIRCLE('',#1245,1.0);
#1247=EDGE_CURVE('',#446,#1241,#1246,.T.);
#1248=ORIENTED_EDGE('',*,*,#1247,.T.);
#1249=CARTESIAN_POINT('',(-11.989531046372679,0.2625,9.5));
#1250=DIRECTION('',(0.0,0.0,-1.0));
#1251=VECTOR('',#1250,1.200000000000001);
#1252=LINE('',#1249,#1251);
#1253=EDGE_CURVE('',#1241,#910,#1252,.T.);
#1254=ORIENTED_EDGE('',*,*,#1253,.T.);
#1255=EDGE_LOOP('',(#1238,#1239,#1248,#1254));
#1256=FACE_OUTER_BOUND('',#1255,.T.);
#1257=ADVANCED_FACE('',(#1256),#1237,.F.);
#1258=CARTESIAN_POINT('',(-11.989531046372679,0.2625,9.5));
#1259=CARTESIAN_POINT('',(-12.26320621482259,-0.3,9.5));
#1260=CARTESIAN_POINT('',(-12.888749456993814,-0.3,9.5));
#1261=CARTESIAN_POINT('',(-11.989531046372679,0.2625,10.03953104637268));
#1262=CARTESIAN_POINT('',(-12.26320621482259,-0.3,10.313206214822591));
#1263=CARTESIAN_POINT('',(-12.888749456993814,-0.3,10.938749456993815));
#1264=CARTESIAN_POINT('',(-11.449999999999999,0.2625,10.03953104637268));
#1265=CARTESIAN_POINT('',(-11.449999999999999,-0.3,10.313206214822593));
#1266=CARTESIAN_POINT('',(-11.449999999999999,-0.3,10.938749456993815));
#1267=CARTESIAN_POINT('',(-10.910468953627319,0.2625,10.03953104637268));
#1268=CARTESIAN_POINT('',(-10.636793785177408,-0.3,10.313206214822591));
#1269=CARTESIAN_POINT('',(-10.011250543006184,-0.3,10.938749456993815));
#1270=CARTESIAN_POINT('',(-10.910468953627319,0.2625,9.5));
#1271=CARTESIAN_POINT('',(-10.636793785177408,-0.3,9.5));
#1272=CARTESIAN_POINT('',(-10.011250543006184,-0.3,9.5));
#1273=CARTESIAN_POINT('',(-10.910468953627319,0.2625,8.96046895362732));
#1274=CARTESIAN_POINT('',(-10.636793785177408,-0.3,8.686793785177409));
#1275=CARTESIAN_POINT('',(-10.011250543006184,-0.3,8.061250543006185));
#1276=CARTESIAN_POINT('',(-11.449999999999999,0.2625,8.96046895362732));
#1277=CARTESIAN_POINT('',(-11.449999999999999,-0.3,8.686793785177409));
#1278=CARTESIAN_POINT('',(-11.449999999999999,-0.3,8.061250543006185));
#1279=CARTESIAN_POINT('',(-11.989531046372679,0.2625,8.96046895362732));
#1280=CARTESIAN_POINT('',(-12.26320621482259,-0.3,8.686793785177409));
#1281=CARTESIAN_POINT('',(-12.888749456993814,-0.3,8.061250543006185));
#1282=CARTESIAN_POINT('',(-11.989531046372679,0.2625,9.5));
#1283=CARTESIAN_POINT('',(-12.26320621482259,-0.3,9.5));
#1284=CARTESIAN_POINT('',(-12.888749456993814,-0.3,9.5));
#1292=(BOUNDED_SURFACE()B_SPLINE_SURFACE(2,2,((#1258,#1261,#1264,#1267,#1270,#1273,#1276,#1279,#1282),(#1259,#1262,#1265,#1268,#1271,#1274,#1277,#1280,#1283),(#1260,#1263,#1266,#1269,#1272,#1275,#1278,#1281,#1284)),.UNSPECIFIED.,.F.,.T.,.U.)B_SPLINE_SURFACE_WITH_KNOTS((3,3),(3,2,2,2,3),(-2.688776058844868,-1.570796326794897),(0.0,1.570796326794897,3.141592653589793,4.71238898038469,6.283185307179586),.UNSPECIFIED.)GEOMETRIC_REPRESENTATION_ITEM()RATIONAL_B_SPLINE_SURFACE(((1.0,0.707106781186548,1.0,0.707106781186548,1.0,0.707106781186548,1.0,0.707106781186548,1.0),(0.847791247890665,0.599478940414094,0.847791247890665,0.599478940414094,0.847791247890665,0.599478940414094,0.847791247890665,0.599478940414094,0.847791247890665),(1.0,0.707106781186548,1.0,0.707106781186548,1.0,0.707106781186548,1.0,0.707106781186548,1.0)))REPRESENTATION_ITEM('')SURFACE());
#1293=CARTESIAN_POINT('',(-10.910468953627319,0.2625,9.5));
#1294=VERTEX_POINT('',#1293);
#1295=CARTESIAN_POINT('',(-10.011250543006184,0.7,9.5));
#1296=DIRECTION('',(0.0,0.0,-1.0));
#1297=DIRECTION('',(0.0,-1.0,0.0));
#1298=AXIS2_PLACEMENT_3D('',#1295,#1296,#1297);
#1299=CIRCLE('',#1298,1.0);
#1300=EDGE_CURVE('',#438,#1294,#1299,.T.);
#1301=ORIENTED_EDGE('',*,*,#1300,.T.);
#1302=CARTESIAN_POINT('',(-11.449999999999999,0.2625,9.5));
#1303=DIRECTION('',(0.0,-1.0,0.0));
#1304=DIRECTION('',(1.0,0.0,0.0));
#1305=AXIS2_PLACEMENT_3D('',#1302,#1303,#1304);
#1306=CIRCLE('',#1305,0.53953104637268);
#1307=EDGE_CURVE('',#1294,#1241,#1306,.T.);
#1308=ORIENTED_EDGE('',*,*,#1307,.T.);
#1309=ORIENTED_EDGE('',*,*,#1247,.F.);
#1310=ORIENTED_EDGE('',*,*,#452,.T.);
#1311=EDGE_LOOP('',(#1301,#1308,#1309,#1310));
#1312=FACE_OUTER_BOUND('',#1311,.T.);
#1313=ADVANCED_FACE('',(#1312),#1292,.T.);
#1314=CARTESIAN_POINT('',(-10.011250543006184,0.7,7.999999999999998));
#1315=DIRECTION('',(0.0,0.0,-1.0));
#1316=DIRECTION('',(0.0,1.0,0.0));
#1317=AXIS2_PLACEMENT_3D('',#1314,#1315,#1316);
#1318=CYLINDRICAL_SURFACE('',#1317,1.0);
#1319=ORIENTED_EDGE('',*,*,#1082,.F.);
#1320=CARTESIAN_POINT('',(-10.910468953627319,0.2625,8.299999999999999));
#1321=DIRECTION('',(0.0,0.0,1.0));
#1322=VECTOR('',#1321,1.200000000000001);
#1323=LINE('',#1320,#1322);
#1324=EDGE_CURVE('',#1049,#1294,#1323,.T.);
#1325=ORIENTED_EDGE('',*,*,#1324,.T.);
#1326=ORIENTED_EDGE('',*,*,#1300,.F.);
#1327=ORIENTED_EDGE('',*,*,#443,.T.);
#1328=EDGE_LOOP('',(#1319,#1325,#1326,#1327));
#1329=FACE_OUTER_BOUND('',#1328,.T.);
#1330=ADVANCED_FACE('',(#1329),#1318,.F.);
#1331=CARTESIAN_POINT('',(11.449999999999999,-0.6,8.299999999999999));
#1332=CARTESIAN_POINT('',(11.449999999999999,-0.6,9.5));
#1333=CARTESIAN_POINT('',(10.85,-0.6,8.299999999999999));
#1334=CARTESIAN_POINT('',(10.85,-0.6,9.5));
#1335=CARTESIAN_POINT('',(10.85,0.0,8.299999999999999));
#1336=CARTESIAN_POINT('',(10.85,0.0,9.5));
#1337=CARTESIAN_POINT('',(10.85,0.6,8.299999999999999));
#1338=CARTESIAN_POINT('',(10.85,0.6,9.5));
#1339=CARTESIAN_POINT('',(11.449999999999999,0.6,8.299999999999999));
#1340=CARTESIAN_POINT('',(11.449999999999999,0.6,9.5));
#1341=CARTESIAN_POINT('',(12.049999999999997,0.6,8.299999999999999));
#1342=CARTESIAN_POINT('',(12.049999999999997,0.6,9.5));
#1343=CARTESIAN_POINT('',(12.049999999999999,0.0,8.299999999999999));
#1344=CARTESIAN_POINT('',(12.049999999999999,0.0,9.5));
#1345=CARTESIAN_POINT('',(12.049999999999997,-0.6,8.299999999999999));
#1346=CARTESIAN_POINT('',(12.049999999999997,-0.6,9.5));
#1347=CARTESIAN_POINT('',(11.449999999999999,-0.6,8.299999999999999));
#1348=CARTESIAN_POINT('',(11.449999999999999,-0.6,9.5));
#1356=(BOUNDED_SURFACE()B_SPLINE_SURFACE(1,2,((#1331,#1333,#1335,#1337,#1339,#1341,#1343,#1345,#1347),(#1332,#1334,#1336,#1338,#1340,#1342,#1344,#1346,#1348)),.UNSPECIFIED.,.F.,.T.,.U.)B_SPLINE_SURFACE_WITH_KNOTS((2,2),(3,2,2,2,3),(0.500000000000001,2.500000000000004),(0.0,0.942477796076937,1.884955592153875,2.827433388230812,3.76991118430775),.UNSPECIFIED.)GEOMETRIC_REPRESENTATION_ITEM()RATIONAL_B_SPLINE_SURFACE(((1.0,0.707106781186548,1.0,0.707106781186548,1.0,0.707106781186548,1.0,0.707106781186548,1.0),(1.0,0.707106781186548,1.0,0.707106781186548,1.0,0.707106781186548,1.0,0.707106781186548,1.0)))REPRESENTATION_ITEM('')SURFACE());
#1357=ORIENTED_EDGE('',*,*,#370,.F.);
#1358=ORIENTED_EDGE('',*,*,#1155,.F.);
#1359=CARTESIAN_POINT('',(11.449999999999999,0.0,9.5));
#1360=DIRECTION('',(0.0,0.0,-1.0));
#1361=DIRECTION('',(0.0,1.0,0.0));
#1362=AXIS2_PLACEMENT_3D('',#1359,#1360,#1361);
#1363=CIRCLE('',#1362,0.6);
#1364=EDGE_CURVE('',#1143,#1196,#1363,.T.);
#1365=ORIENTED_EDGE('',*,*,#1364,.T.);
#1366=ORIENTED_EDGE('',*,*,#1226,.F.);
#1367=EDGE_LOOP('',(#1357,#1358,#1365,#1366));
#1368=FACE_OUTER_BOUND('',#1367,.T.);
#1369=ADVANCED_FACE('',(#1368),#1356,.T.);
#1370=CARTESIAN_POINT('',(11.449999999999999,0.0,9.5));
#1371=DIRECTION('',(0.0,0.0,1.0));
#1372=DIRECTION('',(1.0,0.0,0.0));
#1373=AXIS2_PLACEMENT_3D('',#1370,#1371,#1372);
#1374=SPHERICAL_SURFACE('',#1373,0.6);
#1375=ORIENTED_EDGE('',*,*,#1209,.F.);
#1376=ORIENTED_EDGE('',*,*,#1364,.F.);
#1377=EDGE_LOOP('',(#1375,#1376));
#1378=FACE_OUTER_BOUND('',#1377,.T.);
#1379=ADVANCED_FACE('',(#1378),#1374,.T.);
#1380=CARTESIAN_POINT('',(-11.449999999999999,0.0,7.999999999999998));
#1381=DIRECTION('',(0.0,0.0,1.0));
#1382=DIRECTION('',(0.0,1.0,0.0));
#1383=AXIS2_PLACEMENT_3D('',#1380,#1381,#1382);
#1384=CYLINDRICAL_SURFACE('',#1383,0.6);
#1385=ORIENTED_EDGE('',*,*,#1064,.F.);
#1386=ORIENTED_EDGE('',*,*,#1253,.F.);
#1387=CARTESIAN_POINT('',(-11.449999999999999,0.0,9.5));
#1388=DIRECTION('',(0.0,0.0,1.0));
#1389=DIRECTION('',(0.0,1.0,0.0));
#1390=AXIS2_PLACEMENT_3D('',#1387,#1388,#1389);
#1391=CIRCLE('',#1390,0.6);
#1392=EDGE_CURVE('',#1294,#1241,#1391,.T.);
#1393=ORIENTED_EDGE('',*,*,#1392,.F.);
#1394=ORIENTED_EDGE('',*,*,#1324,.F.);
#1395=EDGE_LOOP('',(#1385,#1386,#1393,#1394));
#1396=FACE_OUTER_BOUND('',#1395,.T.);
#1397=ADVANCED_FACE('',(#1396),#1384,.T.);
#1398=CARTESIAN_POINT('',(-11.449999999999999,0.0,9.5));
#1399=DIRECTION('',(0.0,0.0,1.0));
#1400=DIRECTION('',(1.0,0.0,0.0));
#1401=AXIS2_PLACEMENT_3D('',#1398,#1399,#1400);
#1402=SPHERICAL_SURFACE('',#1401,0.6);
#1403=ORIENTED_EDGE('',*,*,#1307,.F.);
#1404=ORIENTED_EDGE('',*,*,#1392,.T.);
#1405=EDGE_LOOP('',(#1403,#1404));
#1406=FACE_OUTER_BOUND('',#1405,.T.);
#1407=ADVANCED_FACE('',(#1406),#1402,.T.);
#1408=CLOSED_SHELL('',(#117,#161,#203,#294,#320,#374,#430,#516,#550,#585,#620,#655,#680,#713,#739,#770,#787,#804,#822,#840,#863,#885,#903,#929,#951,#973,#995,#1014,#1068,#1086,#1098,#1110,#1122,#1134,#1159,#1215,#1232,#1257,#1313,#1330,#1369,#1379,#1397,#1407));
#1409=MANIFOLD_SOLID_BREP('123F',#1408);
#1410=COLOUR_RGB('150',0.0,0.5,1.0);
#1411=SURFACE_STYLE_USAGE(.BOTH.,#1412);
#1412=SURFACE_SIDE_STYLE('NONE',(#1413));
#1413=SURFACE_STYLE_FILL_AREA(#1414);
#1414=FILL_AREA_STYLE('NONE',(#1415));
#1415=FILL_AREA_STYLE_COLOUR('NONE',#1410);
#1416=PRESENTATION_STYLE_ASSIGNMENT((#1411));
#1417=STYLED_ITEM('NONE',(#1416),#1409);
#1418=MECHANICAL_DESIGN_GEOMETRIC_PRESENTATION_REPRESENTATION('NONE',(#1417,#1515,#1604),#28);
#1419=PRESENTATION_LAYER_ASSIGNMENT('3D','None',(#1409,#1507,#1603));
#1420=CARTESIAN_POINT('',(11.449999999999999,0.0,9.5));
#1421=DIRECTION('',(0.0,0.0,-1.0));
#1422=DIRECTION('',(1.0,0.0,0.0));
#1423=AXIS2_PLACEMENT_3D('',#1420,#1421,#1422);
#1424=CYLINDRICAL_SURFACE('',#1423,0.3);
#1425=CARTESIAN_POINT('',(11.75,0.0,-2.1));
#1426=VERTEX_POINT('',#1425);
#1427=CARTESIAN_POINT('',(11.75,0.0,9.5));
#1428=VERTEX_POINT('',#1427);
#1429=CARTESIAN_POINT('',(11.75,0.0,-2.1));
#1430=DIRECTION('',(0.0,0.0,1.0));
#1431=VECTOR('',#1430,11.6);
#1432=LINE('',#1429,#1431);
#1433=EDGE_CURVE('',#1426,#1428,#1432,.T.);
#1434=ORIENTED_EDGE('',*,*,#1433,.F.);
#1435=CARTESIAN_POINT('',(11.149999999999999,3.673940E-017,-2.1));
#1436=VERTEX_POINT('',#1435);
#1437=CARTESIAN_POINT('',(11.449999999999999,0.0,-2.1));
#1438=DIRECTION('',(0.0,0.0,1.0));
#1439=DIRECTION('',(1.0,0.0,0.0));
#1440=AXIS2_PLACEMENT_3D('',#1437,#1438,#1439);
#1441=CIRCLE('',#1440,0.3);
#1442=EDGE_CURVE('',#1426,#1436,#1441,.T.);
#1443=ORIENTED_EDGE('',*,*,#1442,.T.);
#1444=CARTESIAN_POINT('',(11.149999999999999,3.673940E-017,9.5));
#1445=VERTEX_POINT('',#1444);
#1446=CARTESIAN_POINT('',(11.149999999999999,3.673940E-017,-2.1));
#1447=DIRECTION('',(0.0,0.0,1.0));
#1448=VECTOR('',#1447,11.6);
#1449=LINE('',#1446,#1448);
#1450=EDGE_CURVE('',#1436,#1445,#1449,.T.);
#1451=ORIENTED_EDGE('',*,*,#1450,.T.);
#1452=CARTESIAN_POINT('',(11.449999999999999,0.0,9.5));
#1453=DIRECTION('',(0.0,0.0,1.0));
#1454=DIRECTION('',(1.0,0.0,0.0));
#1455=AXIS2_PLACEMENT_3D('',#1452,#1453,#1454);
#1456=CIRCLE('',#1455,0.3);
#1457=EDGE_CURVE('',#1428,#1445,#1456,.T.);
#1458=ORIENTED_EDGE('',*,*,#1457,.F.);
#1459=EDGE_LOOP('',(#1434,#1443,#1451,#1458));
#1460=FACE_OUTER_BOUND('',#1459,.T.);
#1461=ADVANCED_FACE('',(#1460),#1424,.T.);
#1462=CARTESIAN_POINT('',(11.449999999999999,0.0,9.5));
#1463=DIRECTION('',(0.0,0.0,-1.0));
#1464=DIRECTION('',(1.0,0.0,0.0));
#1465=AXIS2_PLACEMENT_3D('',#1462,#1463,#1464);
#1466=CYLINDRICAL_SURFACE('',#1465,0.3);
#1467=ORIENTED_EDGE('',*,*,#1433,.T.);
#1468=CARTESIAN_POINT('',(11.449999999999999,0.0,9.5));
#1469=DIRECTION('',(0.0,0.0,1.0));
#1470=DIRECTION('',(1.0,0.0,0.0));
#1471=AXIS2_PLACEMENT_3D('',#1468,#1469,#1470);
#1472=CIRCLE('',#1471,0.3);
#1473=EDGE_CURVE('',#1445,#1428,#1472,.T.);
#1474=ORIENTED_EDGE('',*,*,#1473,.F.);
#1475=ORIENTED_EDGE('',*,*,#1450,.F.);
#1476=CARTESIAN_POINT('',(11.449999999999999,0.0,-2.1));
#1477=DIRECTION('',(0.0,0.0,1.0));
#1478=DIRECTION('',(1.0,0.0,0.0));
#1479=AXIS2_PLACEMENT_3D('',#1476,#1477,#1478);
#1480=CIRCLE('',#1479,0.3);
#1481=EDGE_CURVE('',#1436,#1426,#1480,.T.);
#1482=ORIENTED_EDGE('',*,*,#1481,.T.);
#1483=EDGE_LOOP('',(#1467,#1474,#1475,#1482));
#1484=FACE_OUTER_BOUND('',#1483,.T.);
#1485=ADVANCED_FACE('',(#1484),#1466,.T.);
#1486=CARTESIAN_POINT('',(11.449999999999999,0.0,-2.1));
#1487=DIRECTION('',(0.0,0.0,1.0));
#1488=DIRECTION('',(1.0,0.0,0.0));
#1489=AXIS2_PLACEMENT_3D('',#1486,#1487,#1488);
#1490=PLANE('',#1489);
#1491=ORIENTED_EDGE('',*,*,#1442,.F.);
#1492=ORIENTED_EDGE('',*,*,#1481,.F.);
#1493=EDGE_LOOP('',(#1491,#1492));
#1494=FACE_OUTER_BOUND('',#1493,.T.);
#1495=ADVANCED_FACE('',(#1494),#1490,.F.);
#1496=CARTESIAN_POINT('',(11.449999999999999,0.0,9.5));
#1497=DIRECTION('',(0.0,0.0,1.0));
#1498=DIRECTION('',(1.0,0.0,0.0));
#1499=AXIS2_PLACEMENT_3D('',#1496,#1497,#1498);
#1500=PLANE('',#1499);
#1501=ORIENTED_EDGE('',*,*,#1457,.T.);
#1502=ORIENTED_EDGE('',*,*,#1473,.T.);
#1503=EDGE_LOOP('',(#1501,#1502));
#1504=FACE_OUTER_BOUND('',#1503,.T.);
#1505=ADVANCED_FACE('',(#1504),#1500,.T.);
#1506=CLOSED_SHELL('',(#1461,#1485,#1495,#1505));
#1507=MANIFOLD_SOLID_BREP('11B1',#1506);
#1508=COLOUR_RGB('254',0.866,0.866,0.866);
#1509=SURFACE_STYLE_USAGE(.BOTH.,#1510);
#1510=SURFACE_SIDE_STYLE('NONE',(#1511));
#1511=SURFACE_STYLE_FILL_AREA(#1512);
#1512=FILL_AREA_STYLE('NONE',(#1513));
#1513=FILL_AREA_STYLE_COLOUR('NONE',#1508);
#1514=PRESENTATION_STYLE_ASSIGNMENT((#1509));
#1515=STYLED_ITEM('NONE',(#1514),#1507);
#1516=CARTESIAN_POINT('',(-11.449999999999999,0.0,9.5));
#1517=DIRECTION('',(0.0,0.0,-1.0));
#1518=DIRECTION('',(1.0,0.0,0.0));
#1519=AXIS2_PLACEMENT_3D('',#1516,#1517,#1518);
#1520=CYLINDRICAL_SURFACE('',#1519,0.3);
#1521=CARTESIAN_POINT('',(-11.149999999999999,0.0,-2.1));
#1522=VERTEX_POINT('',#1521);
#1523=CARTESIAN_POINT('',(-11.149999999999999,0.0,9.5));
#1524=VERTEX_POINT('',#1523);
#1525=CARTESIAN_POINT('',(-11.149999999999999,0.0,-2.1));
#1526=DIRECTION('',(0.0,0.0,1.0));
#1527=VECTOR('',#1526,11.6);
#1528=LINE('',#1525,#1527);
#1529=EDGE_CURVE('',#1522,#1524,#1528,.T.);
#1530=ORIENTED_EDGE('',*,*,#1529,.F.);
#1531=CARTESIAN_POINT('',(-11.75,3.673940E-017,-2.1));
#1532=VERTEX_POINT('',#1531);
#1533=CARTESIAN_POINT('',(-11.449999999999999,0.0,-2.1));
#1534=DIRECTION('',(0.0,0.0,1.0));
#1535=DIRECTION('',(1.0,0.0,0.0));
#1536=AXIS2_PLACEMENT_3D('',#1533,#1534,#1535);
#1537=CIRCLE('',#1536,0.3);
#1538=EDGE_CURVE('',#1522,#1532,#1537,.T.);
#1539=ORIENTED_EDGE('',*,*,#1538,.T.);
#1540=CARTESIAN_POINT('',(-11.75,3.673940E-017,9.5));
#1541=VERTEX_POINT('',#1540);
#1542=CARTESIAN_POINT('',(-11.75,3.673940E-017,-2.1));
#1543=DIRECTION('',(0.0,0.0,1.0));
#1544=VECTOR('',#1543,11.6);
#1545=LINE('',#1542,#1544);
#1546=EDGE_CURVE('',#1532,#1541,#1545,.T.);
#1547=ORIENTED_EDGE('',*,*,#1546,.T.);
#1548=CARTESIAN_POINT('',(-11.449999999999999,0.0,9.5));
#1549=DIRECTION('',(0.0,0.0,1.0));
#1550=DIRECTION('',(1.0,0.0,0.0));
#1551=AXIS2_PLACEMENT_3D('',#1548,#1549,#1550);
#1552=CIRCLE('',#1551,0.3);
#1553=EDGE_CURVE('',#1524,#1541,#1552,.T.);
#1554=ORIENTED_EDGE('',*,*,#1553,.F.);
#1555=EDGE_LOOP('',(#1530,#1539,#1547,#1554));
#1556=FACE_OUTER_BOUND('',#1555,.T.);
#1557=ADVANCED_FACE('',(#1556),#1520,.T.);
#1558=CARTESIAN_POINT('',(-11.449999999999999,0.0,9.5));
#1559=DIRECTION('',(0.0,0.0,-1.0));
#1560=DIRECTION('',(1.0,0.0,0.0));
#1561=AXIS2_PLACEMENT_3D('',#1558,#1559,#1560);
#1562=CYLINDRICAL_SURFACE('',#1561,0.3);
#1563=ORIENTED_EDGE('',*,*,#1529,.T.);
#1564=CARTESIAN_POINT('',(-11.449999999999999,0.0,9.5));
#1565=DIRECTION('',(0.0,0.0,1.0));
#1566=DIRECTION('',(1.0,0.0,0.0));
#1567=AXIS2_PLACEMENT_3D('',#1564,#1565,#1566);
#1568=CIRCLE('',#1567,0.3);
#1569=EDGE_CURVE('',#1541,#1524,#1568,.T.);
#1570=ORIENTED_EDGE('',*,*,#1569,.F.);
#1571=ORIENTED_EDGE('',*,*,#1546,.F.);
#1572=CARTESIAN_POINT('',(-11.449999999999999,0.0,-2.1));
#1573=DIRECTION('',(0.0,0.0,1.0));
#1574=DIRECTION('',(1.0,0.0,0.0));
#1575=AXIS2_PLACEMENT_3D('',#1572,#1573,#1574);
#1576=CIRCLE('',#1575,0.3);
#1577=EDGE_CURVE('',#1532,#1522,#1576,.T.);
#1578=ORIENTED_EDGE('',*,*,#1577,.T.);
#1579=EDGE_LOOP('',(#1563,#1570,#1571,#1578));
#1580=FACE_OUTER_BOUND('',#1579,.T.);
#1581=ADVANCED_FACE('',(#1580),#1562,.T.);
#1582=CARTESIAN_POINT('',(-11.449999999999999,0.0,-2.1));
#1583=DIRECTION('',(0.0,0.0,1.0));
#1584=DIRECTION('',(1.0,0.0,0.0));
#1585=AXIS2_PLACEMENT_3D('',#1582,#1583,#1584);
#1586=PLANE('',#1585);
#1587=ORIENTED_EDGE('',*,*,#1538,.F.);
#1588=ORIENTED_EDGE('',*,*,#1577,.F.);
#1589=EDGE_LOOP('',(#1587,#1588));
#1590=FACE_OUTER_BOUND('',#1589,.T.);
#1591=ADVANCED_FACE('',(#1590),#1586,.F.);
#1592=CARTESIAN_POINT('',(-11.449999999999999,0.0,9.5));
#1593=DIRECTION('',(0.0,0.0,1.0));
#1594=DIRECTION('',(1.0,0.0,0.0));
#1595=AXIS2_PLACEMENT_3D('',#1592,#1593,#1594);
#1596=PLANE('',#1595);
#1597=ORIENTED_EDGE('',*,*,#1553,.T.);
#1598=ORIENTED_EDGE('',*,*,#1569,.T.);
#1599=EDGE_LOOP('',(#1597,#1598));
#1600=FACE_OUTER_BOUND('',#1599,.T.);
#1601=ADVANCED_FACE('',(#1600),#1596,.T.);
#1602=CLOSED_SHELL('',(#1557,#1581,#1591,#1601));
#1603=MANIFOLD_SOLID_BREP('1191',#1602);
#1604=STYLED_ITEM('NONE',(#1514),#1603);
#1605=ADVANCED_BREP_SHAPE_REPRESENTATION('ABSR1',(#1409,#1507,#1603),#28);
#1606=SHAPE_REPRESENTATION_RELATIONSHIP('SRRPL1','',#1605,#62);
ENDSEC;
END-ISO-10303-21;
