ISO-10303-21;
HEADER;
/****************************************************************
 * Generated by software with PDElib inside                    *
 * PDElib Version v51a, created Fri 09/10/2010                  *
 * ITI Transcendata (http://www.transcendata.com/)              *
 ****************************************************************/
FILE_DESCRIPTION((''),'2;1');
FILE_NAME('RES_WELWYN_W21.stp','2012-06-12T18:26:43',(''),(''),'Mechanical Desktop 2011','Mechanical Desktop 2011',', , ');
FILE_SCHEMA(('AUTOMOTIVE_DESIGN { 1 2 10303 214 1 1 1 1 }'));
ENDSEC;
DATA;
#10=(NAMED_UNIT(*)PLANE_ANGLE_UNIT()SI_UNIT($,.RADIAN.));
#11=DIMENSIONAL_EXPONENTS(0.0,0.0,0.0,0.0,0.0,0.0,0.0);
#12=PLANE_ANGLE_MEASURE_WITH_UNIT(PLANE_ANGLE_MEASURE(0.0174532925),#10);
#16=(CONVERSION_BASED_UNIT('DEGREE',#12)NAMED_UNIT(#11)PLANE_ANGLE_UNIT());
#20=(NAMED_UNIT(*)SI_UNIT($,.STERADIAN.)SOLID_ANGLE_UNIT());
#24=(LENGTH_UNIT()NAMED_UNIT(*)SI_UNIT(.MILLI.,.METRE.));
#26=UNCERTAINTY_MEASURE_WITH_UNIT(LENGTH_MEASURE(0.000001),#24,'DISTANCE_ACCURACY_VALUE','');
#28=(GEOMETRIC_REPRESENTATION_CONTEXT(3)GLOBAL_UNCERTAINTY_ASSIGNED_CONTEXT((#26))GLOBAL_UNIT_ASSIGNED_CONTEXT((#16,#20,#24))REPRESENTATION_CONTEXT('','3D'));
#29=APPLICATION_CONTEXT('automotive design');
#30=APPLICATION_PROTOCOL_DEFINITION('INTERNATIONAL_STANDARD','automotive_design',1998,#29);
#31=PRODUCT_CONTEXT('3D Mechanical Parts',#29,'mechanical');
#32=PRODUCT('Product','Product','',(#31));
#33=PRODUCT_RELATED_PRODUCT_CATEGORY('part',$,(#32));
#34=PRODUCT_CATEGORY('part',$);
#35=PERSON('1','Design','Joe',$,$,$);
#36=ORGANIZATION($,'None','None');
#37=PERSON_AND_ORGANIZATION(#35,#36);
#38=PERSON_AND_ORGANIZATION_ROLE('design_owner');
#39=APPLIED_PERSON_AND_ORGANIZATION_ASSIGNMENT(#37,#38,(#32));
#40=PRODUCT_DEFINITION_FORMATION_WITH_SPECIFIED_SOURCE('None','',#32,.BOUGHT.);
#41=PERSON('2','Creator','Joe',$,$,$);
#42=ORGANIZATION($,'None','None');
#43=PERSON_AND_ORGANIZATION(#41,#42);
#44=PERSON_AND_ORGANIZATION_ROLE('creator');
#45=APPLIED_PERSON_AND_ORGANIZATION_ASSIGNMENT(#43,#44,(#40));
#46=PERSON('3','Supplier','Joe',$,$,$);
#47=ORGANIZATION($,'None','None');
#48=PERSON_AND_ORGANIZATION(#46,#47);
#49=PERSON_AND_ORGANIZATION_ROLE('design_supplier');
#50=APPLIED_PERSON_AND_ORGANIZATION_ASSIGNMENT(#48,#49,(#40));
#51=PRODUCT_DEFINITION_CONTEXT('part definition',#29,'design');
#52=PRODUCT_DEFINITION('None','',#40,#51);
#53=PERSON('4','Creator','Joe',$,$,$);
#54=ORGANIZATION($,'None','None');
#55=PERSON_AND_ORGANIZATION(#53,#54);
#56=PERSON_AND_ORGANIZATION_ROLE('creator');
#57=APPLIED_PERSON_AND_ORGANIZATION_ASSIGNMENT(#55,#56,(#52));
#58=CARTESIAN_POINT('NONE',(0.0,0.0,0.0));
#59=DIRECTION('NONE',(0.0,0.0,1.0));
#60=DIRECTION('NONE',(1.0,0.0,0.0));
#61=AXIS2_PLACEMENT_3D('NONE',#58,#59,#60);
#62=SHAPE_REPRESENTATION('SR1',(#61),#28);
#63=PRODUCT_DEFINITION_SHAPE('PDS1','Test Part',#52);
#64=SHAPE_DEFINITION_REPRESENTATION(#63,#62);
#65=CARTESIAN_POINT('',(-5.85,0.0,2.8));
#66=DIRECTION('',(1.0,-2.220446E-016,0.0));
#67=DIRECTION('',(0.0,0.0,-1.0));
#68=AXIS2_PLACEMENT_3D('',#65,#66,#67);
#69=TOROIDAL_SURFACE('',#68,2.032223454054237,0.5);
#70=CARTESIAN_POINT('',(-5.883259505261886,7.385094E-018,0.268883967017459));
#71=VERTEX_POINT('',#70);
#72=CARTESIAN_POINT('',(-6.35,1.110223E-016,0.767776545945763));
#73=VERTEX_POINT('',#72);
#74=CARTESIAN_POINT('',(-5.85,0.0,0.767776545945763));
#75=DIRECTION('',(0.0,1.0,0.0));
#76=DIRECTION('',(0.0,0.0,-1.0));
#77=AXIS2_PLACEMENT_3D('',#74,#75,#76);
#78=CIRCLE('',#77,0.5);
#79=EDGE_CURVE('',#71,#73,#78,.T.);
#80=ORIENTED_EDGE('',*,*,#79,.F.);
#81=CARTESIAN_POINT('',(-5.883259505261886,-2.531116032982541,2.8));
#82=VERTEX_POINT('',#81);
#83=CARTESIAN_POINT('',(-5.883259505261886,0.0,2.8));
#84=DIRECTION('',(-1.0,0.0,0.0));
#85=DIRECTION('',(0.0,-1.0,0.0));
#86=AXIS2_PLACEMENT_3D('',#83,#84,#85);
#87=CIRCLE('',#86,2.531116032982541);
#88=EDGE_CURVE('',#71,#82,#87,.T.);
#89=ORIENTED_EDGE('',*,*,#88,.T.);
#90=CARTESIAN_POINT('',(-5.883259505261886,-3.025872E-016,5.331116032982541));
#91=VERTEX_POINT('',#90);
#92=CARTESIAN_POINT('',(-5.883259505261886,0.0,2.8));
#93=DIRECTION('',(-1.0,0.0,0.0));
#94=DIRECTION('',(0.0,-1.0,0.0));
#95=AXIS2_PLACEMENT_3D('',#92,#93,#94);
#96=CIRCLE('',#95,2.531116032982541);
#97=EDGE_CURVE('',#82,#91,#96,.T.);
#98=ORIENTED_EDGE('',*,*,#97,.T.);
#99=CARTESIAN_POINT('',(-6.35,-1.378533E-016,4.832223454054237));
#100=VERTEX_POINT('',#99);
#101=CARTESIAN_POINT('',(-5.85,-2.488756E-016,4.832223454054237));
#102=DIRECTION('',(0.0,-1.0,0.0));
#103=DIRECTION('',(0.0,0.0,1.0));
#104=AXIS2_PLACEMENT_3D('',#101,#102,#103);
#105=CIRCLE('',#104,0.5);
#106=EDGE_CURVE('',#91,#100,#105,.T.);
#107=ORIENTED_EDGE('',*,*,#106,.T.);
#108=CARTESIAN_POINT('',(-6.35,1.110223E-016,2.8));
#109=DIRECTION('',(1.0,0.0,0.0));
#110=DIRECTION('',(0.0,-1.0,0.0));
#111=AXIS2_PLACEMENT_3D('',#108,#109,#110);
#112=CIRCLE('',#111,2.032223454054237);
#113=EDGE_CURVE('',#100,#73,#112,.T.);
#114=ORIENTED_EDGE('',*,*,#113,.T.);
#115=EDGE_LOOP('',(#80,#89,#98,#107,#114));
#116=FACE_OUTER_BOUND('',#115,.T.);
#117=ADVANCED_FACE('',(#116),#69,.T.);
#118=CARTESIAN_POINT('',(5.85,0.0,2.8));
#119=DIRECTION('',(-1.0,2.220446E-016,0.0));
#120=DIRECTION('',(0.0,0.0,1.0));
#121=AXIS2_PLACEMENT_3D('',#118,#119,#120);
#122=TOROIDAL_SURFACE('',#121,2.032223454054235,0.5);
#123=CARTESIAN_POINT('',(5.883259505261886,-7.385094E-018,5.331116032982539));
#124=VERTEX_POINT('',#123);
#125=CARTESIAN_POINT('',(6.35,-1.110223E-016,4.832223454054235));
#126=VERTEX_POINT('',#125);
#127=CARTESIAN_POINT('',(5.85,0.0,4.832223454054235));
#128=DIRECTION('',(0.0,1.0,0.0));
#129=DIRECTION('',(0.0,0.0,1.0));
#130=AXIS2_PLACEMENT_3D('',#127,#128,#129);
#131=CIRCLE('',#130,0.5);
#132=EDGE_CURVE('',#124,#126,#131,.T.);
#133=ORIENTED_EDGE('',*,*,#132,.F.);
#134=CARTESIAN_POINT('',(5.883259505261889,-2.531116032982539,2.8));
#135=VERTEX_POINT('',#134);
#136=CARTESIAN_POINT('',(5.883259505261886,0.0,2.8));
#137=DIRECTION('',(1.0,0.0,0.0));
#138=DIRECTION('',(0.0,-1.0,0.0));
#139=AXIS2_PLACEMENT_3D('',#136,#137,#138);
#140=CIRCLE('',#139,2.531116032982539);
#141=EDGE_CURVE('',#124,#135,#140,.T.);
#142=ORIENTED_EDGE('',*,*,#141,.T.);
#143=CARTESIAN_POINT('',(5.883259505261886,-3.173574E-016,0.268883967017461));
#144=VERTEX_POINT('',#143);
#145=CARTESIAN_POINT('',(5.883259505261886,0.0,2.8));
#146=DIRECTION('',(1.0,0.0,0.0));
#147=DIRECTION('',(0.0,-1.0,0.0));
#148=AXIS2_PLACEMENT_3D('',#145,#146,#147);
#149=CIRCLE('',#148,2.531116032982539);
#150=EDGE_CURVE('',#135,#144,#149,.T.);
#151=ORIENTED_EDGE('',*,*,#150,.T.);
#152=CARTESIAN_POINT('',(6.35,-3.598979E-016,0.767776545945765));
#153=VERTEX_POINT('',#152);
#154=CARTESIAN_POINT('',(5.85,-2.488756E-016,0.767776545945765));
#155=DIRECTION('',(0.0,-1.0,0.0));
#156=DIRECTION('',(0.0,0.0,-1.0));
#157=AXIS2_PLACEMENT_3D('',#154,#155,#156);
#158=CIRCLE('',#157,0.5);
#159=EDGE_CURVE('',#144,#153,#158,.T.);
#160=ORIENTED_EDGE('',*,*,#159,.T.);
#161=CARTESIAN_POINT('',(6.350000000000001,-1.110223E-016,2.8));
#162=DIRECTION('',(-1.0,0.0,0.0));
#163=DIRECTION('',(0.0,-1.0,0.0));
#164=AXIS2_PLACEMENT_3D('',#161,#162,#163);
#165=CIRCLE('',#164,2.032223454054235);
#166=EDGE_CURVE('',#153,#126,#165,.T.);
#167=ORIENTED_EDGE('',*,*,#166,.T.);
#168=EDGE_LOOP('',(#133,#142,#151,#160,#167));
#169=FACE_OUTER_BOUND('',#168,.T.);
#170=ADVANCED_FACE('',(#169),#122,.T.);
#171=CARTESIAN_POINT('',(-4.1,0.0,2.8));
#172=DIRECTION('',(1.0,0.0,0.0));
#173=DIRECTION('',(0.0,-1.0,0.0));
#174=AXIS2_PLACEMENT_3D('',#171,#172,#173);
#175=CONICAL_SURFACE('',#174,2.65,3.814074834290352);
#176=CARTESIAN_POINT('',(-2.182226321508659,-2.777851578566089,2.8));
#177=VERTEX_POINT('',#176);
#178=CARTESIAN_POINT('',(-5.883259505261886,-2.531116032982541,2.8));
#179=DIRECTION('',(0.997785157856609,-0.066519010523774,0.0));
#180=VECTOR('',#179,3.709248583837023);
#181=LINE('',#178,#180);
#182=EDGE_CURVE('',#82,#177,#181,.T.);
#183=ORIENTED_EDGE('',*,*,#182,.F.);
#184=ORIENTED_EDGE('',*,*,#88,.F.);
#185=CARTESIAN_POINT('',(-5.883259505261886,2.531116032982541,2.799999999999999));
#186=VERTEX_POINT('',#185);
#187=CARTESIAN_POINT('',(-5.883259505261886,0.0,2.8));
#188=DIRECTION('',(-1.0,0.0,0.0));
#189=DIRECTION('',(0.0,-1.0,0.0));
#190=AXIS2_PLACEMENT_3D('',#187,#188,#189);
#191=CIRCLE('',#190,2.531116032982541);
#192=EDGE_CURVE('',#186,#71,#191,.T.);
#193=ORIENTED_EDGE('',*,*,#192,.F.);
#194=CARTESIAN_POINT('',(-2.182226321508659,2.777851578566088,2.8));
#195=VERTEX_POINT('',#194);
#196=CARTESIAN_POINT('',(-5.883259505261885,2.531116032982541,2.799999999999999));
#197=DIRECTION('',(0.997785157856609,0.066519010523774,0.0));
#198=VECTOR('',#197,3.709248583837021);
#199=LINE('',#196,#198);
#200=EDGE_CURVE('',#186,#195,#199,.T.);
#201=ORIENTED_EDGE('',*,*,#200,.T.);
#202=CARTESIAN_POINT('',(-2.18222632150866,-1.924868E-016,0.022148421433911));
#203=VERTEX_POINT('',#202);
#204=CARTESIAN_POINT('',(-2.18222632150866,1.477019E-016,2.8));
#205=DIRECTION('',(1.0,0.0,0.0));
#206=DIRECTION('',(0.0,-1.0,0.0));
#207=AXIS2_PLACEMENT_3D('',#204,#205,#206);
#208=CIRCLE('',#207,2.777851578566088);
#209=EDGE_CURVE('',#203,#195,#208,.T.);
#210=ORIENTED_EDGE('',*,*,#209,.F.);
#211=CARTESIAN_POINT('',(-2.18222632150866,1.477019E-016,2.8));
#212=DIRECTION('',(1.0,0.0,0.0));
#213=DIRECTION('',(0.0,-1.0,0.0));
#214=AXIS2_PLACEMENT_3D('',#211,#212,#213);
#215=CIRCLE('',#214,2.777851578566088);
#216=EDGE_CURVE('',#177,#203,#215,.T.);
#217=ORIENTED_EDGE('',*,*,#216,.F.);
#218=EDGE_LOOP('',(#183,#184,#193,#201,#210,#217));
#219=FACE_OUTER_BOUND('',#218,.T.);
#220=ADVANCED_FACE('',(#219),#175,.T.);
#221=CARTESIAN_POINT('',(-1.517036216270918,3.429011E-016,0.0));
#222=CARTESIAN_POINT('',(-1.849999999999989,4.168339E-016,0.0));
#223=CARTESIAN_POINT('',(-2.182226321508661,4.878906E-016,0.022148421433911));
#224=CARTESIAN_POINT('',(-1.517036216270917,2.8,8.881784E-016));
#225=CARTESIAN_POINT('',(-1.849999999999988,2.8,8.881784E-016));
#226=CARTESIAN_POINT('',(-2.18222632150866,2.777851578566088,0.022148421433912));
#227=CARTESIAN_POINT('',(-1.517036216270917,2.8,2.8));
#228=CARTESIAN_POINT('',(-1.849999999999988,2.8,2.8));
#229=CARTESIAN_POINT('',(-2.18222632150866,2.777851578566088,2.8));
#230=CARTESIAN_POINT('',(-1.517036216270917,2.799999999999999,5.6));
#231=CARTESIAN_POINT('',(-1.849999999999988,2.799999999999999,5.6));
#232=CARTESIAN_POINT('',(-2.18222632150866,2.777851578566088,5.577851578566088));
#233=CARTESIAN_POINT('',(-1.517036216270918,-3.429011E-016,5.6));
#234=CARTESIAN_POINT('',(-1.849999999999989,-2.689683E-016,5.6));
#235=CARTESIAN_POINT('',(-2.182226321508661,-1.924868E-016,5.577851578566088));
#236=CARTESIAN_POINT('',(-1.517036216270918,-2.8,5.599999999999999));
#237=CARTESIAN_POINT('',(-1.849999999999989,-2.8,5.599999999999999));
#238=CARTESIAN_POINT('',(-2.182226321508661,-2.777851578566088,5.577851578566087));
#239=CARTESIAN_POINT('',(-1.517036216270918,-2.8,2.799999999999999));
#240=CARTESIAN_POINT('',(-1.849999999999989,-2.8,2.799999999999999));
#241=CARTESIAN_POINT('',(-2.182226321508661,-2.777851578566088,2.799999999999999));
#242=CARTESIAN_POINT('',(-1.517036216270918,-2.799999999999999,0.0));
#243=CARTESIAN_POINT('',(-1.849999999999989,-2.799999999999999,0.0));
#244=CARTESIAN_POINT('',(-2.182226321508661,-2.777851578566088,0.022148421433911));
#245=CARTESIAN_POINT('',(-1.517036216270918,3.429011E-016,0.0));
#246=CARTESIAN_POINT('',(-1.849999999999989,4.168339E-016,0.0));
#247=CARTESIAN_POINT('',(-2.182226321508661,4.878906E-016,0.022148421433911));
#255=(BOUNDED_SURFACE()B_SPLINE_SURFACE(2,2,((#221,#224,#227,#230,#233,#236,#239,#242,#245),(#222,#225,#228,#231,#234,#237,#240,#243,#246),(#223,#226,#229,#232,#235,#238,#241,#244,#247)),.UNSPECIFIED.,.F.,.T.,.U.)B_SPLINE_SURFACE_WITH_KNOTS((3,3),(3,2,2,2,3),(-6.217249E-017,0.066568163775824),(0.0,1.570796326794897,3.141592653589793,4.71238898038469,6.283185307179586),.UNSPECIFIED.)GEOMETRIC_REPRESENTATION_ITEM()RATIONAL_B_SPLINE_SURFACE(((1.0,0.707106781186548,1.0,0.707106781186548,1.0,0.707106781186548,1.0,0.707106781186548,1.0),(0.999446136081824,0.706715140254151,0.999446136081824,0.706715140254151,0.999446136081824,0.706715140254151,0.999446136081824,0.706715140254151,0.999446136081824),(1.0,0.707106781186548,1.0,0.707106781186548,1.0,0.707106781186548,1.0,0.707106781186548,1.0)))REPRESENTATION_ITEM('')SURFACE());
#256=CARTESIAN_POINT('',(-2.18222632150866,1.477019E-016,5.577851578566088));
#257=VERTEX_POINT('',#256);
#258=CARTESIAN_POINT('',(-1.517036216270918,0.0,5.6));
#259=VERTEX_POINT('',#258);
#260=CARTESIAN_POINT('',(-1.517036216270918,0.0,-4.4));
#261=DIRECTION('',(0.0,1.0,0.0));
#262=DIRECTION('',(0.0,0.0,1.0));
#263=AXIS2_PLACEMENT_3D('',#260,#261,#262);
#264=CIRCLE('',#263,10.0);
#265=EDGE_CURVE('',#257,#259,#264,.T.);
#266=ORIENTED_EDGE('',*,*,#265,.F.);
#267=CARTESIAN_POINT('',(-2.18222632150866,1.477019E-016,2.8));
#268=DIRECTION('',(1.0,0.0,0.0));
#269=DIRECTION('',(0.0,-1.0,0.0));
#270=AXIS2_PLACEMENT_3D('',#267,#268,#269);
#271=CIRCLE('',#270,2.777851578566088);
#272=EDGE_CURVE('',#257,#177,#271,.T.);
#273=ORIENTED_EDGE('',*,*,#272,.T.);
#274=ORIENTED_EDGE('',*,*,#216,.T.);
#275=CARTESIAN_POINT('',(-1.517036216270918,-3.429011E-016,0.0));
#276=VERTEX_POINT('',#275);
#277=CARTESIAN_POINT('',(-1.517036216270918,8.817457E-016,10.0));
#278=DIRECTION('',(0.0,-1.0,0.0));
#279=DIRECTION('',(0.0,0.0,-1.0));
#280=AXIS2_PLACEMENT_3D('',#277,#278,#279);
#281=CIRCLE('',#280,10.0);
#282=EDGE_CURVE('',#203,#276,#281,.T.);
#283=ORIENTED_EDGE('',*,*,#282,.T.);
#284=CARTESIAN_POINT('',(-1.517036216270919,-2.799999999999999,2.799999999999999));
#285=VERTEX_POINT('',#284);
#286=CARTESIAN_POINT('',(-1.517036216270918,9.860761E-033,2.8));
#287=DIRECTION('',(-1.0,0.0,0.0));
#288=DIRECTION('',(0.0,-1.0,0.0));
#289=AXIS2_PLACEMENT_3D('',#286,#287,#288);
#290=CIRCLE('',#289,2.8);
#291=EDGE_CURVE('',#276,#285,#290,.T.);
#292=ORIENTED_EDGE('',*,*,#291,.T.);
#293=CARTESIAN_POINT('',(-1.517036216270918,9.860761E-033,2.8));
#294=DIRECTION('',(-1.0,0.0,0.0));
#295=DIRECTION('',(0.0,-1.0,0.0));
#296=AXIS2_PLACEMENT_3D('',#293,#294,#295);
#297=CIRCLE('',#296,2.8);
#298=EDGE_CURVE('',#285,#259,#297,.T.);
#299=ORIENTED_EDGE('',*,*,#298,.T.);
#300=EDGE_LOOP('',(#266,#273,#274,#283,#292,#299));
#301=FACE_OUTER_BOUND('',#300,.T.);
#302=ADVANCED_FACE('',(#301),#255,.T.);
#303=CARTESIAN_POINT('',(4.100000000000001,0.0,2.8));
#304=DIRECTION('',(-1.0,0.0,0.0));
#305=DIRECTION('',(0.0,-1.0,0.0));
#306=AXIS2_PLACEMENT_3D('',#303,#304,#305);
#307=CONICAL_SURFACE('',#306,2.649999999999999,3.814074834290375);
#308=CARTESIAN_POINT('',(2.182226321508661,-2.777851578566089,2.8));
#309=VERTEX_POINT('',#308);
#310=CARTESIAN_POINT('',(5.883259505261889,-2.531116032982539,2.8));
#311=DIRECTION('',(-0.997785157856609,-0.066519010523774,0.0));
#312=VECTOR('',#311,3.709248583837025);
#313=LINE('',#310,#312);
#314=EDGE_CURVE('',#135,#309,#313,.T.);
#315=ORIENTED_EDGE('',*,*,#314,.F.);
#316=ORIENTED_EDGE('',*,*,#141,.F.);
#317=CARTESIAN_POINT('',(5.883259505261887,2.531116032982539,2.8));
#318=VERTEX_POINT('',#317);
#319=CARTESIAN_POINT('',(5.883259505261886,0.0,2.8));
#320=DIRECTION('',(1.0,0.0,0.0));
#321=DIRECTION('',(0.0,-1.0,0.0));
#322=AXIS2_PLACEMENT_3D('',#319,#320,#321);
#323=CIRCLE('',#322,2.531116032982539);
#324=EDGE_CURVE('',#318,#124,#323,.T.);
#325=ORIENTED_EDGE('',*,*,#324,.F.);
#326=CARTESIAN_POINT('',(2.182226321508662,2.777851578566088,2.799999999999999));
#327=VERTEX_POINT('',#326);
#328=CARTESIAN_POINT('',(5.883259505261887,2.531116032982539,2.8));
#329=DIRECTION('',(-0.997785157856609,0.066519010523774,0.0));
#330=VECTOR('',#329,3.709248583837021);
#331=LINE('',#328,#330);
#332=EDGE_CURVE('',#318,#327,#331,.T.);
#333=ORIENTED_EDGE('',*,*,#332,.T.);
#334=CARTESIAN_POINT('',(2.182226321508662,-4.878906E-016,5.577851578566088));
#335=VERTEX_POINT('',#334);
#336=CARTESIAN_POINT('',(2.182226321508662,-1.477019E-016,2.8));
#337=DIRECTION('',(-1.0,0.0,0.0));
#338=DIRECTION('',(0.0,-1.0,0.0));
#339=AXIS2_PLACEMENT_3D('',#336,#337,#338);
#340=CIRCLE('',#339,2.777851578566088);
#341=EDGE_CURVE('',#335,#327,#340,.T.);
#342=ORIENTED_EDGE('',*,*,#341,.F.);
#343=CARTESIAN_POINT('',(2.182226321508662,-1.477019E-016,2.8));
#344=DIRECTION('',(-1.0,0.0,0.0));
#345=DIRECTION('',(0.0,-1.0,0.0));
#346=AXIS2_PLACEMENT_3D('',#343,#344,#345);
#347=CIRCLE('',#346,2.777851578566088);
#348=EDGE_CURVE('',#309,#335,#347,.T.);
#349=ORIENTED_EDGE('',*,*,#348,.F.);
#350=EDGE_LOOP('',(#315,#316,#325,#333,#342,#349));
#351=FACE_OUTER_BOUND('',#350,.T.);
#352=ADVANCED_FACE('',(#351),#307,.T.);
#353=CARTESIAN_POINT('',(0.0,0.0,2.8));
#354=DIRECTION('',(1.0,-2.220446E-016,0.0));
#355=DIRECTION('',(0.0,1.0,0.0));
#356=AXIS2_PLACEMENT_3D('',#353,#354,#355);
#357=CYLINDRICAL_SURFACE('',#356,2.8);
#358=CARTESIAN_POINT('',(1.517036216270922,2.8,2.8));
#359=VERTEX_POINT('',#358);
#360=CARTESIAN_POINT('',(-1.517036216270918,2.8,2.799999999999999));
#361=VERTEX_POINT('',#360);
#362=CARTESIAN_POINT('',(1.517036216270922,2.799999999999999,2.8));
#363=DIRECTION('',(-1.0,0.0,0.0));
#364=VECTOR('',#363,3.03407243254184);
#365=LINE('',#362,#364);
#366=EDGE_CURVE('',#359,#361,#365,.T.);
#367=ORIENTED_EDGE('',*,*,#366,.F.);
#368=CARTESIAN_POINT('',(1.517036216270921,0.0,0.0));
#369=VERTEX_POINT('',#368);
#370=CARTESIAN_POINT('',(1.517036216270921,9.860761E-033,2.8));
#371=DIRECTION('',(1.0,0.0,0.0));
#372=DIRECTION('',(0.0,-1.0,0.0));
#373=AXIS2_PLACEMENT_3D('',#370,#371,#372);
#374=CIRCLE('',#373,2.8);
#375=EDGE_CURVE('',#369,#359,#374,.T.);
#376=ORIENTED_EDGE('',*,*,#375,.F.);
#377=CARTESIAN_POINT('',(1.517036216270921,-2.8,2.799999999999999));
#378=VERTEX_POINT('',#377);
#379=CARTESIAN_POINT('',(1.517036216270921,9.860761E-033,2.8));
#380=DIRECTION('',(1.0,0.0,0.0));
#381=DIRECTION('',(0.0,-1.0,0.0));
#382=AXIS2_PLACEMENT_3D('',#379,#380,#381);
#383=CIRCLE('',#382,2.8);
#384=EDGE_CURVE('',#378,#369,#383,.T.);
#385=ORIENTED_EDGE('',*,*,#384,.F.);
#386=CARTESIAN_POINT('',(1.517036216270921,-2.8,2.799999999999999));
#387=DIRECTION('',(-1.0,0.0,0.0));
#388=VECTOR('',#387,3.03407243254184);
#389=LINE('',#386,#388);
#390=EDGE_CURVE('',#378,#285,#389,.T.);
#391=ORIENTED_EDGE('',*,*,#390,.T.);
#392=ORIENTED_EDGE('',*,*,#291,.F.);
#393=CARTESIAN_POINT('',(-1.517036216270918,9.860761E-033,2.8));
#394=DIRECTION('',(-1.0,0.0,0.0));
#395=DIRECTION('',(0.0,-1.0,0.0));
#396=AXIS2_PLACEMENT_3D('',#393,#394,#395);
#397=CIRCLE('',#396,2.8);
#398=EDGE_CURVE('',#361,#276,#397,.T.);
#399=ORIENTED_EDGE('',*,*,#398,.F.);
#400=EDGE_LOOP('',(#367,#376,#385,#391,#392,#399));
#401=FACE_OUTER_BOUND('',#400,.T.);
#402=ADVANCED_FACE('',(#401),#357,.T.);
#403=CARTESIAN_POINT('',(1.517036216270921,3.429011E-016,5.6));
#404=CARTESIAN_POINT('',(1.849999999999991,2.689683E-016,5.6));
#405=CARTESIAN_POINT('',(2.182226321508662,1.924868E-016,5.577851578566088));
#406=CARTESIAN_POINT('',(1.517036216270921,2.8,5.599999999999999));
#407=CARTESIAN_POINT('',(1.849999999999992,2.8,5.599999999999999));
#408=CARTESIAN_POINT('',(2.182226321508663,2.777851578566088,5.577851578566087));
#409=CARTESIAN_POINT('',(1.517036216270921,2.8,2.799999999999999));
#410=CARTESIAN_POINT('',(1.849999999999992,2.8,2.799999999999999));
#411=CARTESIAN_POINT('',(2.182226321508663,2.777851578566088,2.799999999999999));
#412=CARTESIAN_POINT('',(1.517036216270921,2.799999999999999,0.0));
#413=CARTESIAN_POINT('',(1.849999999999992,2.799999999999999,0.0));
#414=CARTESIAN_POINT('',(2.182226321508663,2.777851578566088,0.022148421433911));
#415=CARTESIAN_POINT('',(1.517036216270921,-3.429011E-016,0.0));
#416=CARTESIAN_POINT('',(1.849999999999991,-4.168339E-016,0.0));
#417=CARTESIAN_POINT('',(2.182226321508662,-4.878906E-016,0.022148421433911));
#418=CARTESIAN_POINT('',(1.51703621627092,-2.8,8.881784E-016));
#419=CARTESIAN_POINT('',(1.84999999999999,-2.8,8.881784E-016));
#420=CARTESIAN_POINT('',(2.182226321508662,-2.777851578566088,0.022148421433912));
#421=CARTESIAN_POINT('',(1.51703621627092,-2.8,2.8));
#422=CARTESIAN_POINT('',(1.84999999999999,-2.8,2.8));
#423=CARTESIAN_POINT('',(2.182226321508662,-2.777851578566088,2.8));
#424=CARTESIAN_POINT('',(1.51703621627092,-2.799999999999999,5.6));
#425=CARTESIAN_POINT('',(1.84999999999999,-2.799999999999999,5.6));
#426=CARTESIAN_POINT('',(2.182226321508662,-2.777851578566088,5.577851578566088));
#427=CARTESIAN_POINT('',(1.517036216270921,3.429011E-016,5.6));
#428=CARTESIAN_POINT('',(1.849999999999991,2.689683E-016,5.6));
#429=CARTESIAN_POINT('',(2.182226321508662,1.924868E-016,5.577851578566088));
#437=(BOUNDED_SURFACE()B_SPLINE_SURFACE(2,2,((#403,#406,#409,#412,#415,#418,#421,#424,#427),(#404,#407,#410,#413,#416,#419,#422,#425,#428),(#405,#408,#411,#414,#417,#420,#423,#426,#429)),.UNSPECIFIED.,.F.,.T.,.U.)B_SPLINE_SURFACE_WITH_KNOTS((3,3),(3,2,2,2,3),(-6.661338E-017,0.066568163775824),(0.0,1.570796326794897,3.141592653589793,4.71238898038469,6.283185307179586),.UNSPECIFIED.)GEOMETRIC_REPRESENTATION_ITEM()RATIONAL_B_SPLINE_SURFACE(((1.0,0.707106781186548,1.0,0.707106781186548,1.0,0.707106781186548,1.0,0.707106781186548,1.0),(0.99944613608184,0.706715140254162,0.99944613608184,0.706715140254162,0.99944613608184,0.706715140254162,0.99944613608184,0.706715140254162,0.99944613608184),(1.0,0.707106781186548,1.0,0.707106781186548,1.0,0.707106781186548,1.0,0.707106781186548,1.0)))REPRESENTATION_ITEM('')SURFACE());
#438=CARTESIAN_POINT('',(2.182226321508662,-1.477019E-016,0.022148421433911));
#439=VERTEX_POINT('',#438);
#440=CARTESIAN_POINT('',(1.517036216270921,0.0,10.0));
#441=DIRECTION('',(0.0,1.0,0.0));
#442=DIRECTION('',(0.0,0.0,-1.0));
#443=AXIS2_PLACEMENT_3D('',#440,#441,#442);
#444=CIRCLE('',#443,10.0);
#445=EDGE_CURVE('',#439,#369,#444,.T.);
#446=ORIENTED_EDGE('',*,*,#445,.F.);
#447=CARTESIAN_POINT('',(2.182226321508662,-1.477019E-016,2.8));
#448=DIRECTION('',(-1.0,0.0,0.0));
#449=DIRECTION('',(0.0,-1.0,0.0));
#450=AXIS2_PLACEMENT_3D('',#447,#448,#449);
#451=CIRCLE('',#450,2.777851578566088);
#452=EDGE_CURVE('',#439,#309,#451,.T.);
#453=ORIENTED_EDGE('',*,*,#452,.T.);
#454=ORIENTED_EDGE('',*,*,#348,.T.);
#455=CARTESIAN_POINT('',(1.517036216270921,-3.429011E-016,5.6));
#456=VERTEX_POINT('',#455);
#457=CARTESIAN_POINT('',(1.517036216270921,8.817457E-016,-4.4));
#458=DIRECTION('',(0.0,-1.0,0.0));
#459=DIRECTION('',(0.0,0.0,1.0));
#460=AXIS2_PLACEMENT_3D('',#457,#458,#459);
#461=CIRCLE('',#460,10.0);
#462=EDGE_CURVE('',#335,#456,#461,.T.);
#463=ORIENTED_EDGE('',*,*,#462,.T.);
#464=CARTESIAN_POINT('',(1.517036216270921,9.860761E-033,2.8));
#465=DIRECTION('',(1.0,0.0,0.0));
#466=DIRECTION('',(0.0,-1.0,0.0));
#467=AXIS2_PLACEMENT_3D('',#464,#465,#466);
#468=CIRCLE('',#467,2.8);
#469=EDGE_CURVE('',#456,#378,#468,.T.);
#470=ORIENTED_EDGE('',*,*,#469,.T.);
#471=ORIENTED_EDGE('',*,*,#384,.T.);
#472=EDGE_LOOP('',(#446,#453,#454,#463,#470,#471));
#473=FACE_OUTER_BOUND('',#472,.T.);
#474=ADVANCED_FACE('',(#473),#437,.T.);
#475=CARTESIAN_POINT('',(1.517036216270921,3.429011E-016,5.6));
#476=CARTESIAN_POINT('',(1.849999999999991,2.689683E-016,5.600000000000001));
#477=CARTESIAN_POINT('',(2.182226321508662,1.924868E-016,5.577851578566088));
#478=CARTESIAN_POINT('',(1.517036216270921,2.8,5.599999999999999));
#479=CARTESIAN_POINT('',(1.849999999999992,2.8,5.599999999999999));
#480=CARTESIAN_POINT('',(2.182226321508663,2.777851578566088,5.577851578566087));
#481=CARTESIAN_POINT('',(1.517036216270921,2.8,2.799999999999999));
#482=CARTESIAN_POINT('',(1.849999999999992,2.8,2.799999999999999));
#483=CARTESIAN_POINT('',(2.182226321508663,2.777851578566088,2.799999999999999));
#484=CARTESIAN_POINT('',(1.517036216270921,2.799999999999999,0.0));
#485=CARTESIAN_POINT('',(1.849999999999992,2.799999999999999,0.0));
#486=CARTESIAN_POINT('',(2.182226321508663,2.777851578566088,0.022148421433911));
#487=CARTESIAN_POINT('',(1.517036216270921,-3.429011E-016,0.0));
#488=CARTESIAN_POINT('',(1.849999999999991,-4.168339E-016,0.0));
#489=CARTESIAN_POINT('',(2.182226321508662,-4.878906E-016,0.022148421433911));
#490=CARTESIAN_POINT('',(1.51703621627092,-2.8,8.881784E-016));
#491=CARTESIAN_POINT('',(1.84999999999999,-2.8,8.881784E-016));
#492=CARTESIAN_POINT('',(2.182226321508662,-2.777851578566088,0.022148421433912));
#493=CARTESIAN_POINT('',(1.51703621627092,-2.8,2.8));
#494=CARTESIAN_POINT('',(1.84999999999999,-2.8,2.8));
#495=CARTESIAN_POINT('',(2.182226321508662,-2.777851578566088,2.8));
#496=CARTESIAN_POINT('',(1.51703621627092,-2.799999999999999,5.6));
#497=CARTESIAN_POINT('',(1.84999999999999,-2.799999999999999,5.6));
#498=CARTESIAN_POINT('',(2.182226321508662,-2.777851578566088,5.577851578566088));
#499=CARTESIAN_POINT('',(1.517036216270921,3.429011E-016,5.6));
#500=CARTESIAN_POINT('',(1.849999999999991,2.689683E-016,5.600000000000001));
#501=CARTESIAN_POINT('',(2.182226321508662,1.924868E-016,5.577851578566088));
#509=(BOUNDED_SURFACE()B_SPLINE_SURFACE(2,2,((#475,#478,#481,#484,#487,#490,#493,#496,#499),(#476,#479,#482,#485,#488,#491,#494,#497,#500),(#477,#480,#483,#486,#489,#492,#495,#498,#501)),.UNSPECIFIED.,.F.,.T.,.U.)B_SPLINE_SURFACE_WITH_KNOTS((3,3),(3,2,2,2,3),(-6.217249E-017,0.066568163775824),(0.0,1.570796326794897,3.141592653589793,4.71238898038469,6.283185307179586),.UNSPECIFIED.)GEOMETRIC_REPRESENTATION_ITEM()RATIONAL_B_SPLINE_SURFACE(((1.0,0.707106781186548,1.0,0.707106781186548,1.0,0.707106781186548,1.0,0.707106781186548,1.0),(0.999446136081843,0.706715140254164,0.999446136081843,0.706715140254164,0.999446136081843,0.706715140254164,0.999446136081843,0.706715140254164,0.999446136081843),(1.0,0.707106781186548,1.0,0.707106781186548,1.0,0.707106781186548,1.0,0.707106781186548,1.0)))REPRESENTATION_ITEM('')SURFACE());
#510=ORIENTED_EDGE('',*,*,#445,.T.);
#511=ORIENTED_EDGE('',*,*,#375,.T.);
#512=CARTESIAN_POINT('',(1.517036216270921,9.860761E-033,2.8));
#513=DIRECTION('',(1.0,0.0,0.0));
#514=DIRECTION('',(0.0,-1.0,0.0));
#515=AXIS2_PLACEMENT_3D('',#512,#513,#514);
#516=CIRCLE('',#515,2.8);
#517=EDGE_CURVE('',#359,#456,#516,.T.);
#518=ORIENTED_EDGE('',*,*,#517,.T.);
#519=ORIENTED_EDGE('',*,*,#462,.F.);
#520=ORIENTED_EDGE('',*,*,#341,.T.);
#521=CARTESIAN_POINT('',(2.182226321508662,-1.477019E-016,2.8));
#522=DIRECTION('',(-1.0,0.0,0.0));
#523=DIRECTION('',(0.0,-1.0,0.0));
#524=AXIS2_PLACEMENT_3D('',#521,#522,#523);
#525=CIRCLE('',#524,2.777851578566088);
#526=EDGE_CURVE('',#327,#439,#525,.T.);
#527=ORIENTED_EDGE('',*,*,#526,.T.);
#528=EDGE_LOOP('',(#510,#511,#518,#519,#520,#527));
#529=FACE_OUTER_BOUND('',#528,.T.);
#530=ADVANCED_FACE('',(#529),#509,.T.);
#531=CARTESIAN_POINT('',(0.0,0.0,2.8));
#532=DIRECTION('',(1.0,-2.220446E-016,0.0));
#533=DIRECTION('',(0.0,1.0,0.0));
#534=AXIS2_PLACEMENT_3D('',#531,#532,#533);
#535=CYLINDRICAL_SURFACE('',#534,2.8);
#536=ORIENTED_EDGE('',*,*,#366,.T.);
#537=CARTESIAN_POINT('',(-1.517036216270918,9.860761E-033,2.8));
#538=DIRECTION('',(-1.0,0.0,0.0));
#539=DIRECTION('',(0.0,-1.0,0.0));
#540=AXIS2_PLACEMENT_3D('',#537,#538,#539);
#541=CIRCLE('',#540,2.8);
#542=EDGE_CURVE('',#259,#361,#541,.T.);
#543=ORIENTED_EDGE('',*,*,#542,.F.);
#544=ORIENTED_EDGE('',*,*,#298,.F.);
#545=ORIENTED_EDGE('',*,*,#390,.F.);
#546=ORIENTED_EDGE('',*,*,#469,.F.);
#547=ORIENTED_EDGE('',*,*,#517,.F.);
#548=EDGE_LOOP('',(#536,#543,#544,#545,#546,#547));
#549=FACE_OUTER_BOUND('',#548,.T.);
#550=ADVANCED_FACE('',(#549),#535,.T.);
#551=CARTESIAN_POINT('',(4.100000000000001,0.0,2.8));
#552=DIRECTION('',(-1.0,0.0,0.0));
#553=DIRECTION('',(0.0,-1.0,0.0));
#554=AXIS2_PLACEMENT_3D('',#551,#552,#553);
#555=CONICAL_SURFACE('',#554,2.649999999999999,3.814074834290375);
#556=ORIENTED_EDGE('',*,*,#314,.T.);
#557=ORIENTED_EDGE('',*,*,#452,.F.);
#558=ORIENTED_EDGE('',*,*,#526,.F.);
#559=ORIENTED_EDGE('',*,*,#332,.F.);
#560=CARTESIAN_POINT('',(5.883259505261886,0.0,2.8));
#561=DIRECTION('',(1.0,0.0,0.0));
#562=DIRECTION('',(0.0,-1.0,0.0));
#563=AXIS2_PLACEMENT_3D('',#560,#561,#562);
#564=CIRCLE('',#563,2.531116032982539);
#565=EDGE_CURVE('',#144,#318,#564,.T.);
#566=ORIENTED_EDGE('',*,*,#565,.F.);
#567=ORIENTED_EDGE('',*,*,#150,.F.);
#568=EDGE_LOOP('',(#556,#557,#558,#559,#566,#567));
#569=FACE_OUTER_BOUND('',#568,.T.);
#570=ADVANCED_FACE('',(#569),#555,.T.);
#571=CARTESIAN_POINT('',(-1.517036216270918,3.429011E-016,0.0));
#572=CARTESIAN_POINT('',(-1.849999999999989,4.168339E-016,0.0));
#573=CARTESIAN_POINT('',(-2.182226321508661,4.878906E-016,0.022148421433911));
#574=CARTESIAN_POINT('',(-1.517036216270917,2.8,8.881784E-016));
#575=CARTESIAN_POINT('',(-1.849999999999988,2.8,8.881784E-016));
#576=CARTESIAN_POINT('',(-2.18222632150866,2.777851578566088,0.022148421433912));
#577=CARTESIAN_POINT('',(-1.517036216270917,2.8,2.8));
#578=CARTESIAN_POINT('',(-1.849999999999988,2.8,2.8));
#579=CARTESIAN_POINT('',(-2.18222632150866,2.777851578566088,2.8));
#580=CARTESIAN_POINT('',(-1.517036216270917,2.799999999999999,5.6));
#581=CARTESIAN_POINT('',(-1.849999999999988,2.799999999999999,5.6));
#582=CARTESIAN_POINT('',(-2.18222632150866,2.777851578566088,5.577851578566088));
#583=CARTESIAN_POINT('',(-1.517036216270918,-3.429011E-016,5.6));
#584=CARTESIAN_POINT('',(-1.849999999999989,-2.689683E-016,5.600000000000001));
#585=CARTESIAN_POINT('',(-2.182226321508661,-1.924868E-016,5.577851578566088));
#586=CARTESIAN_POINT('',(-1.517036216270918,-2.8,5.599999999999999));
#587=CARTESIAN_POINT('',(-1.849999999999989,-2.8,5.599999999999999));
#588=CARTESIAN_POINT('',(-2.182226321508661,-2.777851578566088,5.577851578566087));
#589=CARTESIAN_POINT('',(-1.517036216270918,-2.8,2.799999999999999));
#590=CARTESIAN_POINT('',(-1.849999999999989,-2.8,2.799999999999999));
#591=CARTESIAN_POINT('',(-2.182226321508661,-2.777851578566088,2.799999999999999));
#592=CARTESIAN_POINT('',(-1.517036216270918,-2.799999999999999,0.0));
#593=CARTESIAN_POINT('',(-1.849999999999989,-2.799999999999999,0.0));
#594=CARTESIAN_POINT('',(-2.182226321508661,-2.777851578566088,0.022148421433911));
#595=CARTESIAN_POINT('',(-1.517036216270918,3.429011E-016,0.0));
#596=CARTESIAN_POINT('',(-1.849999999999989,4.168339E-016,0.0));
#597=CARTESIAN_POINT('',(-2.182226321508661,4.878906E-016,0.022148421433911));
#605=(BOUNDED_SURFACE()B_SPLINE_SURFACE(2,2,((#571,#574,#577,#580,#583,#586,#589,#592,#595),(#572,#575,#578,#581,#584,#587,#590,#593,#596),(#573,#576,#579,#582,#585,#588,#591,#594,#597)),.UNSPECIFIED.,.F.,.T.,.U.)B_SPLINE_SURFACE_WITH_KNOTS((3,3),(3,2,2,2,3),(-6.661338E-017,0.066568163775824),(0.0,1.570796326794897,3.141592653589793,4.71238898038469,6.283185307179586),.UNSPECIFIED.)GEOMETRIC_REPRESENTATION_ITEM()RATIONAL_B_SPLINE_SURFACE(((1.0,0.707106781186548,1.0,0.707106781186548,1.0,0.707106781186548,1.0,0.707106781186548,1.0),(0.999446136081822,0.706715140254149,0.999446136081822,0.706715140254149,0.999446136081822,0.706715140254149,0.999446136081822,0.706715140254149,0.999446136081822),(1.0,0.707106781186548,1.0,0.707106781186548,1.0,0.707106781186548,1.0,0.707106781186548,1.0)))REPRESENTATION_ITEM('')SURFACE());
#606=ORIENTED_EDGE('',*,*,#265,.T.);
#607=ORIENTED_EDGE('',*,*,#542,.T.);
#608=ORIENTED_EDGE('',*,*,#398,.T.);
#609=ORIENTED_EDGE('',*,*,#282,.F.);
#610=ORIENTED_EDGE('',*,*,#209,.T.);
#611=CARTESIAN_POINT('',(-2.18222632150866,1.477019E-016,2.8));
#612=DIRECTION('',(1.0,0.0,0.0));
#613=DIRECTION('',(0.0,-1.0,0.0));
#614=AXIS2_PLACEMENT_3D('',#611,#612,#613);
#615=CIRCLE('',#614,2.777851578566088);
#616=EDGE_CURVE('',#195,#257,#615,.T.);
#617=ORIENTED_EDGE('',*,*,#616,.T.);
#618=EDGE_LOOP('',(#606,#607,#608,#609,#610,#617));
#619=FACE_OUTER_BOUND('',#618,.T.);
#620=ADVANCED_FACE('',(#619),#605,.T.);
#621=CARTESIAN_POINT('',(-4.1,0.0,2.8));
#622=DIRECTION('',(1.0,0.0,0.0));
#623=DIRECTION('',(0.0,-1.0,0.0));
#624=AXIS2_PLACEMENT_3D('',#621,#622,#623);
#625=CONICAL_SURFACE('',#624,2.65,3.814074834290352);
#626=ORIENTED_EDGE('',*,*,#182,.T.);
#627=ORIENTED_EDGE('',*,*,#272,.F.);
#628=ORIENTED_EDGE('',*,*,#616,.F.);
#629=ORIENTED_EDGE('',*,*,#200,.F.);
#630=CARTESIAN_POINT('',(-5.883259505261886,0.0,2.8));
#631=DIRECTION('',(-1.0,0.0,0.0));
#632=DIRECTION('',(0.0,-1.0,0.0));
#633=AXIS2_PLACEMENT_3D('',#630,#631,#632);
#634=CIRCLE('',#633,2.531116032982541);
#635=EDGE_CURVE('',#91,#186,#634,.T.);
#636=ORIENTED_EDGE('',*,*,#635,.F.);
#637=ORIENTED_EDGE('',*,*,#97,.F.);
#638=EDGE_LOOP('',(#626,#627,#628,#629,#636,#637));
#639=FACE_OUTER_BOUND('',#638,.T.);
#640=ADVANCED_FACE('',(#639),#625,.T.);
#641=CARTESIAN_POINT('',(5.85,0.0,2.8));
#642=DIRECTION('',(-1.0,2.220446E-016,0.0));
#643=DIRECTION('',(0.0,0.0,1.0));
#644=AXIS2_PLACEMENT_3D('',#641,#642,#643);
#645=TOROIDAL_SURFACE('',#644,2.032223454054235,0.5);
#646=ORIENTED_EDGE('',*,*,#132,.T.);
#647=CARTESIAN_POINT('',(6.350000000000001,2.032223454054235,2.799999999999999));
#648=VERTEX_POINT('',#647);
#649=CARTESIAN_POINT('',(6.350000000000001,-1.110223E-016,2.8));
#650=DIRECTION('',(-1.0,0.0,0.0));
#651=DIRECTION('',(0.0,-1.0,0.0));
#652=AXIS2_PLACEMENT_3D('',#649,#650,#651);
#653=CIRCLE('',#652,2.032223454054235);
#654=EDGE_CURVE('',#126,#648,#653,.T.);
#655=ORIENTED_EDGE('',*,*,#654,.T.);
#656=CARTESIAN_POINT('',(6.350000000000001,-1.110223E-016,2.8));
#657=DIRECTION('',(-1.0,0.0,0.0));
#658=DIRECTION('',(0.0,-1.0,0.0));
#659=AXIS2_PLACEMENT_3D('',#656,#657,#658);
#660=CIRCLE('',#659,2.032223454054235);
#661=EDGE_CURVE('',#648,#153,#660,.T.);
#662=ORIENTED_EDGE('',*,*,#661,.T.);
#663=ORIENTED_EDGE('',*,*,#159,.F.);
#664=ORIENTED_EDGE('',*,*,#565,.T.);
#665=ORIENTED_EDGE('',*,*,#324,.T.);
#666=EDGE_LOOP('',(#646,#655,#662,#663,#664,#665));
#667=FACE_OUTER_BOUND('',#666,.T.);
#668=ADVANCED_FACE('',(#667),#645,.T.);
#669=CARTESIAN_POINT('',(6.350000000000001,0.0,2.8));
#670=DIRECTION('',(1.0,0.0,0.0));
#671=DIRECTION('',(0.0,1.0,0.0));
#672=AXIS2_PLACEMENT_3D('',#669,#670,#671);
#673=PLANE('',#672);
#674=ORIENTED_EDGE('',*,*,#661,.F.);
#675=ORIENTED_EDGE('',*,*,#654,.F.);
#676=ORIENTED_EDGE('',*,*,#166,.F.);
#677=EDGE_LOOP('',(#674,#675,#676));
#678=FACE_OUTER_BOUND('',#677,.T.);
#679=ADVANCED_FACE('',(#678),#673,.T.);
#680=CARTESIAN_POINT('',(-5.85,0.0,2.8));
#681=DIRECTION('',(1.0,-2.220446E-016,0.0));
#682=DIRECTION('',(0.0,0.0,-1.0));
#683=AXIS2_PLACEMENT_3D('',#680,#681,#682);
#684=TOROIDAL_SURFACE('',#683,2.032223454054237,0.5);
#685=ORIENTED_EDGE('',*,*,#79,.T.);
#686=CARTESIAN_POINT('',(-6.349999999999999,2.032223454054237,2.8));
#687=VERTEX_POINT('',#686);
#688=CARTESIAN_POINT('',(-6.35,1.110223E-016,2.8));
#689=DIRECTION('',(1.0,0.0,0.0));
#690=DIRECTION('',(0.0,-1.0,0.0));
#691=AXIS2_PLACEMENT_3D('',#688,#689,#690);
#692=CIRCLE('',#691,2.032223454054237);
#693=EDGE_CURVE('',#73,#687,#692,.T.);
#694=ORIENTED_EDGE('',*,*,#693,.T.);
#695=CARTESIAN_POINT('',(-6.35,1.110223E-016,2.8));
#696=DIRECTION('',(1.0,0.0,0.0));
#697=DIRECTION('',(0.0,-1.0,0.0));
#698=AXIS2_PLACEMENT_3D('',#695,#696,#697);
#699=CIRCLE('',#698,2.032223454054237);
#700=EDGE_CURVE('',#687,#100,#699,.T.);
#701=ORIENTED_EDGE('',*,*,#700,.T.);
#702=ORIENTED_EDGE('',*,*,#106,.F.);
#703=ORIENTED_EDGE('',*,*,#635,.T.);
#704=ORIENTED_EDGE('',*,*,#192,.T.);
#705=EDGE_LOOP('',(#685,#694,#701,#702,#703,#704));
#706=FACE_OUTER_BOUND('',#705,.T.);
#707=ADVANCED_FACE('',(#706),#684,.T.);
#708=CARTESIAN_POINT('',(-6.35,0.0,2.8));
#709=DIRECTION('',(-1.0,0.0,0.0));
#710=DIRECTION('',(0.0,-1.0,0.0));
#711=AXIS2_PLACEMENT_3D('',#708,#709,#710);
#712=PLANE('',#711);
#713=ORIENTED_EDGE('',*,*,#700,.F.);
#714=ORIENTED_EDGE('',*,*,#693,.F.);
#715=ORIENTED_EDGE('',*,*,#113,.F.);
#716=EDGE_LOOP('',(#713,#714,#715));
#717=FACE_OUTER_BOUND('',#716,.T.);
#718=ADVANCED_FACE('',(#717),#712,.T.);
#719=CLOSED_SHELL('',(#117,#170,#220,#302,#352,#402,#474,#530,#550,#570,#620,#640,#668,#679,#707,#718));
#720=MANIFOLD_SOLID_BREP('41B',#719);
#721=COLOUR_RGB('88',0.0375,0.15,0.0);
#722=SURFACE_STYLE_USAGE(.BOTH.,#723);
#723=SURFACE_SIDE_STYLE('NONE',(#724));
#724=SURFACE_STYLE_FILL_AREA(#725);
#725=FILL_AREA_STYLE('NONE',(#726));
#726=FILL_AREA_STYLE_COLOUR('NONE',#721);
#727=PRESENTATION_STYLE_ASSIGNMENT((#722));
#728=STYLED_ITEM('NONE',(#727),#720);
#729=MECHANICAL_DESIGN_GEOMETRIC_PRESENTATION_REPRESENTATION('NONE',(#728,#1128,#1339),#28);
#730=PRESENTATION_LAYER_ASSIGNMENT('3D','None',(#720,#1120,#1338));
#731=CARTESIAN_POINT('',(8.590000000000003,7.503747E-016,4.440892E-016));
#732=CARTESIAN_POINT('',(8.590000000000003,-0.400000000000001,2.886580E-015));
#733=CARTESIAN_POINT('',(8.590000000000003,-0.400000000000002,-0.399999999999999));
#734=CARTESIAN_POINT('',(8.590000000000003,-0.400000000000002,-0.800000000000001));
#735=CARTESIAN_POINT('',(8.590000000000003,-7.888609E-031,-0.799999999999999));
#736=CARTESIAN_POINT('',(9.790000000000003,7.503747E-016,6.661338E-016));
#737=CARTESIAN_POINT('',(9.790000000000001,-0.400000000000001,3.108624E-015));
#738=CARTESIAN_POINT('',(10.190000000000003,-0.400000000000002,-0.399999999999999));
#739=CARTESIAN_POINT('',(10.590000000000005,-0.400000000000002,-0.800000000000001));
#740=CARTESIAN_POINT('',(10.590000000000003,-3.944305E-031,-0.799999999999999));
#741=CARTESIAN_POINT('',(9.790000000000003,2.082642E-015,1.2));
#742=CARTESIAN_POINT('',(9.790000000000001,-0.4,1.200000000000001));
#743=CARTESIAN_POINT('',(10.190000000000003,-0.4,1.200000000000001));
#744=CARTESIAN_POINT('',(10.590000000000005,-0.4,1.200000000000001));
#745=CARTESIAN_POINT('',(10.590000000000003,2.220446E-015,1.2));
#746=CARTESIAN_POINT('',(9.790000000000003,3.414910E-015,2.4));
#747=CARTESIAN_POINT('',(9.790000000000001,-0.399999999999999,2.399999999999998));
#748=CARTESIAN_POINT('',(10.190000000000003,-0.399999999999998,2.8));
#749=CARTESIAN_POINT('',(10.590000000000005,-0.399999999999998,3.200000000000002));
#750=CARTESIAN_POINT('',(10.590000000000003,4.440892E-015,3.199999999999999));
#751=CARTESIAN_POINT('',(8.590000000000003,3.414910E-015,2.4));
#752=CARTESIAN_POINT('',(8.590000000000003,-0.399999999999999,2.399999999999999));
#753=CARTESIAN_POINT('',(8.590000000000003,-0.399999999999998,2.8));
#754=CARTESIAN_POINT('',(8.590000000000003,-0.399999999999998,3.200000000000002));
#755=CARTESIAN_POINT('',(8.590000000000003,4.440892E-015,3.2));
#756=CARTESIAN_POINT('',(7.390000000000004,3.414910E-015,2.4));
#757=CARTESIAN_POINT('',(7.390000000000006,-0.399999999999999,2.399999999999998));
#758=CARTESIAN_POINT('',(6.990000000000004,-0.399999999999998,2.8));
#759=CARTESIAN_POINT('',(6.590000000000002,-0.399999999999998,3.200000000000002));
#760=CARTESIAN_POINT('',(6.590000000000004,4.440892E-015,3.199999999999999));
#761=CARTESIAN_POINT('',(7.390000000000004,2.082642E-015,1.2));
#762=CARTESIAN_POINT('',(7.390000000000006,-0.4,1.200000000000001));
#763=CARTESIAN_POINT('',(6.990000000000004,-0.4,1.200000000000001));
#764=CARTESIAN_POINT('',(6.590000000000003,-0.4,1.200000000000001));
#765=CARTESIAN_POINT('',(6.590000000000003,2.220446E-015,1.2));
#766=CARTESIAN_POINT('',(7.390000000000004,7.503747E-016,6.661338E-016));
#767=CARTESIAN_POINT('',(7.390000000000006,-0.400000000000001,3.108624E-015));
#768=CARTESIAN_POINT('',(6.990000000000004,-0.400000000000002,-0.399999999999999));
#769=CARTESIAN_POINT('',(6.590000000000002,-0.400000000000002,-0.800000000000001));
#770=CARTESIAN_POINT('',(6.590000000000004,-3.944305E-031,-0.799999999999999));
#771=CARTESIAN_POINT('',(8.590000000000003,7.503747E-016,4.440892E-016));
#772=CARTESIAN_POINT('',(8.590000000000003,-0.400000000000001,2.886580E-015));
#773=CARTESIAN_POINT('',(8.590000000000003,-0.400000000000002,-0.399999999999999));
#774=CARTESIAN_POINT('',(8.590000000000003,-0.400000000000002,-0.800000000000001));
#775=CARTESIAN_POINT('',(8.590000000000003,-7.888609E-031,-0.799999999999999));
#783=(BOUNDED_SURFACE()B_SPLINE_SURFACE(2,2,((#731,#736,#741,#746,#751,#756,#761,#766,#771),(#732,#737,#742,#747,#752,#757,#762,#767,#772),(#733,#738,#743,#748,#753,#758,#763,#768,#773),(#734,#739,#744,#749,#754,#759,#764,#769,#774),(#735,#740,#745,#750,#755,#760,#765,#770,#775)),.UNSPECIFIED.,.F.,.T.,.U.)B_SPLINE_SURFACE_WITH_KNOTS((3,2,3),(3,2,2,2,3),(-3.141592653589798,-1.570796326794897,5.551115E-015),(0.0,1.570796326794897,3.141592653589793,4.71238898038469,6.283185307179586),.UNSPECIFIED.)GEOMETRIC_REPRESENTATION_ITEM()RATIONAL_B_SPLINE_SURFACE(((1.0,0.707106781186548,1.0,0.707106781186548,1.0,0.707106781186548,1.0,0.707106781186548,1.0),(0.707106781186546,0.499999999999999,0.707106781186546,0.499999999999999,0.707106781186546,0.499999999999999,0.707106781186546,0.499999999999999,0.707106781186546),(1.0,0.707106781186548,1.0,0.707106781186548,1.0,0.707106781186548,1.0,0.707106781186548,1.0),(0.707106781186545,0.499999999999998,0.707106781186545,0.499999999999998,0.707106781186545,0.499999999999998,0.707106781186545,0.499999999999998,0.707106781186545),(1.0,0.707106781186548,1.0,0.707106781186548,1.0,0.707106781186548,1.0,0.707106781186548,1.0)))REPRESENTATION_ITEM('')SURFACE());
#784=CARTESIAN_POINT('',(8.590000000000003,0.0,3.2));
#785=VERTEX_POINT('',#784);
#786=CARTESIAN_POINT('',(10.590000000000003,6.661338E-016,1.200000000000001));
#787=VERTEX_POINT('',#786);
#788=CARTESIAN_POINT('',(8.590000000000003,0.0,1.2));
#789=DIRECTION('',(0.0,1.0,0.0));
#790=DIRECTION('',(0.0,0.0,1.0));
#791=AXIS2_PLACEMENT_3D('',#788,#789,#790);
#792=CIRCLE('',#791,2.0);
#793=EDGE_CURVE('',#785,#787,#792,.T.);
#794=ORIENTED_EDGE('',*,*,#793,.F.);
#795=CARTESIAN_POINT('',(8.590000000000003,-3.951033E-016,2.4));
#796=VERTEX_POINT('',#795);
#797=CARTESIAN_POINT('',(8.590000000000003,0.0,2.8));
#798=DIRECTION('',(-1.0,0.0,0.0));
#799=DIRECTION('',(0.0,0.0,1.0));
#800=AXIS2_PLACEMENT_3D('',#797,#798,#799);
#801=CIRCLE('',#800,0.4);
#802=EDGE_CURVE('',#796,#785,#801,.T.);
#803=ORIENTED_EDGE('',*,*,#802,.F.);
#804=CARTESIAN_POINT('',(9.790000000000003,7.151197E-016,1.200000000000001));
#805=VERTEX_POINT('',#804);
#806=CARTESIAN_POINT('',(8.590000000000003,-4.898587E-017,1.2));
#807=DIRECTION('',(0.0,1.0,0.0));
#808=DIRECTION('',(0.0,0.0,1.0));
#809=AXIS2_PLACEMENT_3D('',#806,#807,#808);
#810=CIRCLE('',#809,1.2);
#811=EDGE_CURVE('',#796,#805,#810,.T.);
#812=ORIENTED_EDGE('',*,*,#811,.T.);
#813=CARTESIAN_POINT('',(10.190000000000005,-0.400000000000002,1.200000000000001));
#814=VERTEX_POINT('',#813);
#815=CARTESIAN_POINT('',(10.190000000000005,0.0,1.2));
#816=DIRECTION('',(0.0,0.0,1.0));
#817=DIRECTION('',(1.0,0.0,0.0));
#818=AXIS2_PLACEMENT_3D('',#815,#816,#817);
#819=CIRCLE('',#818,0.4);
#820=EDGE_CURVE('',#805,#814,#819,.T.);
#821=ORIENTED_EDGE('',*,*,#820,.T.);
#822=CARTESIAN_POINT('',(10.190000000000005,0.0,1.2));
#823=DIRECTION('',(0.0,0.0,1.0));
#824=DIRECTION('',(1.0,0.0,0.0));
#825=AXIS2_PLACEMENT_3D('',#822,#823,#824);
#826=CIRCLE('',#825,0.4);
#827=EDGE_CURVE('',#814,#787,#826,.T.);
#828=ORIENTED_EDGE('',*,*,#827,.T.);
#829=EDGE_LOOP('',(#794,#803,#812,#821,#828));
#830=FACE_OUTER_BOUND('',#829,.T.);
#831=ADVANCED_FACE('',(#830),#783,.T.);
#832=CARTESIAN_POINT('',(8.590000000000003,-3.951033E-016,2.4));
#833=CARTESIAN_POINT('',(6.350000000000001,-3.951033E-016,2.4));
#834=CARTESIAN_POINT('',(8.590000000000003,0.399999999999999,2.4));
#835=CARTESIAN_POINT('',(6.350000000000001,0.399999999999999,2.4));
#836=CARTESIAN_POINT('',(8.590000000000003,0.4,2.799999999999999));
#837=CARTESIAN_POINT('',(6.350000000000001,0.4,2.799999999999999));
#838=CARTESIAN_POINT('',(8.590000000000003,0.4,3.199999999999999));
#839=CARTESIAN_POINT('',(6.350000000000001,0.4,3.199999999999999));
#840=CARTESIAN_POINT('',(8.590000000000003,3.951033E-016,3.2));
#841=CARTESIAN_POINT('',(6.350000000000001,3.951033E-016,3.2));
#842=CARTESIAN_POINT('',(8.590000000000003,-0.399999999999999,3.2));
#843=CARTESIAN_POINT('',(6.350000000000001,-0.399999999999999,3.2));
#844=CARTESIAN_POINT('',(8.590000000000003,-0.4,2.8));
#845=CARTESIAN_POINT('',(6.350000000000001,-0.4,2.8));
#846=CARTESIAN_POINT('',(8.590000000000003,-0.4,2.4));
#847=CARTESIAN_POINT('',(6.350000000000001,-0.4,2.4));
#848=CARTESIAN_POINT('',(8.590000000000003,-3.951033E-016,2.4));
#849=CARTESIAN_POINT('',(6.350000000000001,-3.951033E-016,2.4));
#857=(BOUNDED_SURFACE()B_SPLINE_SURFACE(1,2,((#832,#834,#836,#838,#840,#842,#844,#846,#848),(#833,#835,#837,#839,#841,#843,#845,#847,#849)),.UNSPECIFIED.,.F.,.T.,.U.)B_SPLINE_SURFACE_WITH_KNOTS((2,2),(3,2,2,2,3),(0.0,5.600000000000007),(0.0,0.628318530717959,1.256637061435917,1.884955592153876,2.513274122871835),.UNSPECIFIED.)GEOMETRIC_REPRESENTATION_ITEM()RATIONAL_B_SPLINE_SURFACE(((1.0,0.707106781186548,1.0,0.707106781186548,1.0,0.707106781186548,1.0,0.707106781186548,1.0),(1.0,0.707106781186548,1.0,0.707106781186548,1.0,0.707106781186548,1.0,0.707106781186548,1.0)))REPRESENTATION_ITEM('')SURFACE());
#858=CARTESIAN_POINT('',(6.350000000000001,4.440892E-016,3.2));
#859=VERTEX_POINT('',#858);
#860=CARTESIAN_POINT('',(6.350000000000001,4.440892E-016,3.2));
#861=DIRECTION('',(1.0,0.0,0.0));
#862=VECTOR('',#861,2.240000000000003);
#863=LINE('',#860,#862);
#864=EDGE_CURVE('',#859,#785,#863,.T.);
#865=ORIENTED_EDGE('',*,*,#864,.F.);
#866=CARTESIAN_POINT('',(6.350000000000001,-3.951033E-016,2.4));
#867=VERTEX_POINT('',#866);
#868=CARTESIAN_POINT('',(6.350000000000001,0.0,2.8));
#869=DIRECTION('',(1.0,0.0,0.0));
#870=DIRECTION('',(0.0,0.0,1.0));
#871=AXIS2_PLACEMENT_3D('',#868,#869,#870);
#872=CIRCLE('',#871,0.4);
#873=EDGE_CURVE('',#859,#867,#872,.T.);
#874=ORIENTED_EDGE('',*,*,#873,.T.);
#875=CARTESIAN_POINT('',(6.350000000000001,-3.951033E-016,2.4));
#876=DIRECTION('',(1.0,0.0,0.0));
#877=VECTOR('',#876,2.240000000000003);
#878=LINE('',#875,#877);
#879=EDGE_CURVE('',#867,#796,#878,.T.);
#880=ORIENTED_EDGE('',*,*,#879,.T.);
#881=ORIENTED_EDGE('',*,*,#802,.T.);
#882=EDGE_LOOP('',(#865,#874,#880,#881));
#883=FACE_OUTER_BOUND('',#882,.T.);
#884=ADVANCED_FACE('',(#883),#857,.T.);
#885=CARTESIAN_POINT('',(9.790000000000003,-4.835995E-015,-3.799999999999997));
#886=CARTESIAN_POINT('',(9.790000000000003,7.151197E-016,1.200000000000001));
#887=CARTESIAN_POINT('',(9.790000000000003,0.399999999999995,-3.799999999999998));
#888=CARTESIAN_POINT('',(9.790000000000003,0.400000000000001,1.200000000000001));
#889=CARTESIAN_POINT('',(10.190000000000003,0.399999999999995,-3.799999999999998));
#890=CARTESIAN_POINT('',(10.190000000000003,0.400000000000001,1.200000000000001));
#891=CARTESIAN_POINT('',(10.590000000000003,0.399999999999995,-3.799999999999998));
#892=CARTESIAN_POINT('',(10.590000000000003,0.400000000000001,1.200000000000001));
#893=CARTESIAN_POINT('',(10.590000000000003,-4.933967E-015,-3.799999999999997));
#894=CARTESIAN_POINT('',(10.590000000000003,6.171479E-016,1.200000000000001));
#895=CARTESIAN_POINT('',(10.590000000000003,-0.400000000000005,-3.799999999999997));
#896=CARTESIAN_POINT('',(10.590000000000003,-0.4,1.200000000000002));
#897=CARTESIAN_POINT('',(10.190000000000003,-0.400000000000005,-3.799999999999997));
#898=CARTESIAN_POINT('',(10.190000000000003,-0.4,1.200000000000002));
#899=CARTESIAN_POINT('',(9.790000000000003,-0.400000000000005,-3.799999999999997));
#900=CARTESIAN_POINT('',(9.790000000000003,-0.4,1.200000000000002));
#901=CARTESIAN_POINT('',(9.790000000000003,-4.835995E-015,-3.799999999999997));
#902=CARTESIAN_POINT('',(9.790000000000003,7.151197E-016,1.200000000000001));
#910=(BOUNDED_SURFACE()B_SPLINE_SURFACE(1,2,((#885,#887,#889,#891,#893,#895,#897,#899,#901),(#886,#888,#890,#892,#894,#896,#898,#900,#902)),.UNSPECIFIED.,.F.,.T.,.U.)B_SPLINE_SURFACE_WITH_KNOTS((2,2),(3,2,2,2,3),(12.999999999999998,25.499999999999993),(0.0,0.628318530717959,1.256637061435917,1.884955592153876,2.513274122871835),.UNSPECIFIED.)GEOMETRIC_REPRESENTATION_ITEM()RATIONAL_B_SPLINE_SURFACE(((1.0,0.707106781186548,1.0,0.707106781186548,1.0,0.707106781186548,1.0,0.707106781186548,1.0),(1.0,0.707106781186548,1.0,0.707106781186548,1.0,0.707106781186548,1.0,0.707106781186548,1.0)))REPRESENTATION_ITEM('')SURFACE());
#911=CARTESIAN_POINT('',(10.590000000000003,-1.065814E-014,-3.799999999999997));
#912=VERTEX_POINT('',#911);
#913=CARTESIAN_POINT('',(10.590000000000003,6.661338E-016,1.200000000000001));
#914=DIRECTION('',(0.0,0.0,-1.0));
#915=VECTOR('',#914,4.999999999999998);
#916=LINE('',#913,#915);
#917=EDGE_CURVE('',#787,#912,#916,.T.);
#918=ORIENTED_EDGE('',*,*,#917,.F.);
#919=ORIENTED_EDGE('',*,*,#827,.F.);
#920=ORIENTED_EDGE('',*,*,#820,.F.);
#921=CARTESIAN_POINT('',(9.790000000000003,-4.835995E-015,-3.799999999999997));
#922=VERTEX_POINT('',#921);
#923=CARTESIAN_POINT('',(9.790000000000003,7.151197E-016,1.200000000000001));
#924=DIRECTION('',(0.0,0.0,-1.0));
#925=VECTOR('',#924,4.999999999999998);
#926=LINE('',#923,#925);
#927=EDGE_CURVE('',#805,#922,#926,.T.);
#928=ORIENTED_EDGE('',*,*,#927,.T.);
#929=CARTESIAN_POINT('',(10.190000000000005,-1.065814E-014,-3.799999999999997));
#930=DIRECTION('',(0.0,0.0,1.0));
#931=DIRECTION('',(1.0,0.0,0.0));
#932=AXIS2_PLACEMENT_3D('',#929,#930,#931);
#933=CIRCLE('',#932,0.4);
#934=EDGE_CURVE('',#922,#912,#933,.T.);
#935=ORIENTED_EDGE('',*,*,#934,.T.);
#936=EDGE_LOOP('',(#918,#919,#920,#928,#935));
#937=FACE_OUTER_BOUND('',#936,.T.);
#938=ADVANCED_FACE('',(#937),#910,.T.);
#939=CARTESIAN_POINT('',(6.350000000000001,0.0,2.8));
#940=DIRECTION('',(1.0,0.0,0.0));
#941=DIRECTION('',(0.0,1.0,0.0));
#942=AXIS2_PLACEMENT_3D('',#939,#940,#941);
#943=PLANE('',#942);
#944=CARTESIAN_POINT('',(6.350000000000001,0.399999999999999,2.8));
#945=VERTEX_POINT('',#944);
#946=CARTESIAN_POINT('',(6.350000000000001,0.0,2.8));
#947=DIRECTION('',(1.0,0.0,0.0));
#948=DIRECTION('',(0.0,0.0,1.0));
#949=AXIS2_PLACEMENT_3D('',#946,#947,#948);
#950=CIRCLE('',#949,0.4);
#951=EDGE_CURVE('',#945,#859,#950,.T.);
#952=ORIENTED_EDGE('',*,*,#951,.F.);
#953=CARTESIAN_POINT('',(6.350000000000001,0.0,2.8));
#954=DIRECTION('',(1.0,0.0,0.0));
#955=DIRECTION('',(0.0,0.0,1.0));
#956=AXIS2_PLACEMENT_3D('',#953,#954,#955);
#957=CIRCLE('',#956,0.4);
#958=EDGE_CURVE('',#867,#945,#957,.T.);
#959=ORIENTED_EDGE('',*,*,#958,.F.);
#960=ORIENTED_EDGE('',*,*,#873,.F.);
#961=EDGE_LOOP('',(#952,#959,#960));
#962=FACE_OUTER_BOUND('',#961,.T.);
#963=ADVANCED_FACE('',(#962),#943,.F.);
#964=CARTESIAN_POINT('',(9.790000000000003,-4.835995E-015,-3.799999999999997));
#965=CARTESIAN_POINT('',(9.790000000000003,7.151197E-016,1.200000000000001));
#966=CARTESIAN_POINT('',(9.790000000000003,0.399999999999995,-3.799999999999998));
#967=CARTESIAN_POINT('',(9.790000000000003,0.400000000000001,1.200000000000001));
#968=CARTESIAN_POINT('',(10.190000000000003,0.399999999999995,-3.799999999999998));
#969=CARTESIAN_POINT('',(10.190000000000003,0.400000000000001,1.200000000000001));
#970=CARTESIAN_POINT('',(10.590000000000003,0.399999999999995,-3.799999999999998));
#971=CARTESIAN_POINT('',(10.590000000000003,0.400000000000001,1.200000000000001));
#972=CARTESIAN_POINT('',(10.590000000000003,-4.933967E-015,-3.799999999999997));
#973=CARTESIAN_POINT('',(10.590000000000003,6.171479E-016,1.200000000000001));
#974=CARTESIAN_POINT('',(10.590000000000003,-0.400000000000005,-3.799999999999997));
#975=CARTESIAN_POINT('',(10.590000000000003,-0.4,1.200000000000002));
#976=CARTESIAN_POINT('',(10.190000000000003,-0.400000000000005,-3.799999999999997));
#977=CARTESIAN_POINT('',(10.190000000000003,-0.4,1.200000000000002));
#978=CARTESIAN_POINT('',(9.790000000000003,-0.400000000000005,-3.799999999999997));
#979=CARTESIAN_POINT('',(9.790000000000003,-0.4,1.200000000000002));
#980=CARTESIAN_POINT('',(9.790000000000003,-4.835995E-015,-3.799999999999997));
#981=CARTESIAN_POINT('',(9.790000000000003,7.151197E-016,1.200000000000001));
#989=(BOUNDED_SURFACE()B_SPLINE_SURFACE(1,2,((#964,#966,#968,#970,#972,#974,#976,#978,#980),(#965,#967,#969,#971,#973,#975,#977,#979,#981)),.UNSPECIFIED.,.F.,.T.,.U.)B_SPLINE_SURFACE_WITH_KNOTS((2,2),(3,2,2,2,3),(12.999999999999998,25.499999999999993),(0.0,0.628318530717959,1.256637061435917,1.884955592153876,2.513274122871835),.UNSPECIFIED.)GEOMETRIC_REPRESENTATION_ITEM()RATIONAL_B_SPLINE_SURFACE(((1.0,0.707106781186548,1.0,0.707106781186548,1.0,0.707106781186548,1.0,0.707106781186548,1.0),(1.0,0.707106781186548,1.0,0.707106781186548,1.0,0.707106781186548,1.0,0.707106781186548,1.0)))REPRESENTATION_ITEM('')SURFACE());
#990=ORIENTED_EDGE('',*,*,#917,.T.);
#991=CARTESIAN_POINT('',(10.190000000000005,-1.065814E-014,-3.799999999999997));
#992=DIRECTION('',(0.0,0.0,1.0));
#993=DIRECTION('',(1.0,0.0,0.0));
#994=AXIS2_PLACEMENT_3D('',#991,#992,#993);
#995=CIRCLE('',#994,0.4);
#996=EDGE_CURVE('',#912,#922,#995,.T.);
#997=ORIENTED_EDGE('',*,*,#996,.T.);
#998=ORIENTED_EDGE('',*,*,#927,.F.);
#999=CARTESIAN_POINT('',(10.190000000000005,0.0,1.2));
#1000=DIRECTION('',(0.0,0.0,1.0));
#1001=DIRECTION('',(1.0,0.0,0.0));
#1002=AXIS2_PLACEMENT_3D('',#999,#1000,#1001);
#1003=CIRCLE('',#1002,0.4);
#1004=EDGE_CURVE('',#787,#805,#1003,.T.);
#1005=ORIENTED_EDGE('',*,*,#1004,.F.);
#1006=EDGE_LOOP('',(#990,#997,#998,#1005));
#1007=FACE_OUTER_BOUND('',#1006,.T.);
#1008=ADVANCED_FACE('',(#1007),#989,.T.);
#1009=CARTESIAN_POINT('',(8.590000000000003,-3.951033E-016,2.4));
#1010=CARTESIAN_POINT('',(6.350000000000001,-3.951033E-016,2.4));
#1011=CARTESIAN_POINT('',(8.590000000000003,0.399999999999999,2.4));
#1012=CARTESIAN_POINT('',(6.350000000000001,0.399999999999999,2.4));
#1013=CARTESIAN_POINT('',(8.590000000000003,0.4,2.799999999999999));
#1014=CARTESIAN_POINT('',(6.350000000000001,0.4,2.799999999999999));
#1015=CARTESIAN_POINT('',(8.590000000000003,0.4,3.199999999999999));
#1016=CARTESIAN_POINT('',(6.350000000000001,0.4,3.199999999999999));
#1017=CARTESIAN_POINT('',(8.590000000000003,3.951033E-016,3.2));
#1018=CARTESIAN_POINT('',(6.350000000000001,3.951033E-016,3.2));
#1019=CARTESIAN_POINT('',(8.590000000000003,-0.399999999999999,3.2));
#1020=CARTESIAN_POINT('',(6.350000000000001,-0.399999999999999,3.2));
#1021=CARTESIAN_POINT('',(8.590000000000003,-0.4,2.8));
#1022=CARTESIAN_POINT('',(6.350000000000001,-0.4,2.8));
#1023=CARTESIAN_POINT('',(8.590000000000003,-0.4,2.4));
#1024=CARTESIAN_POINT('',(6.350000000000001,-0.4,2.4));
#1025=CARTESIAN_POINT('',(8.590000000000003,-3.951033E-016,2.4));
#1026=CARTESIAN_POINT('',(6.350000000000001,-3.951033E-016,2.4));
#1034=(BOUNDED_SURFACE()B_SPLINE_SURFACE(1,2,((#1009,#1011,#1013,#1015,#1017,#1019,#1021,#1023,#1025),(#1010,#1012,#1014,#1016,#1018,#1020,#1022,#1024,#1026)),.UNSPECIFIED.,.F.,.T.,.U.)B_SPLINE_SURFACE_WITH_KNOTS((2,2),(3,2,2,2,3),(0.0,5.600000000000007),(0.0,0.628318530717959,1.256637061435917,1.884955592153876,2.513274122871835),.UNSPECIFIED.)GEOMETRIC_REPRESENTATION_ITEM()RATIONAL_B_SPLINE_SURFACE(((1.0,0.707106781186548,1.0,0.707106781186548,1.0,0.707106781186548,1.0,0.707106781186548,1.0),(1.0,0.707106781186548,1.0,0.707106781186548,1.0,0.707106781186548,1.0,0.707106781186548,1.0)))REPRESENTATION_ITEM('')SURFACE());
#1035=ORIENTED_EDGE('',*,*,#864,.T.);
#1036=CARTESIAN_POINT('',(8.590000000000003,0.0,2.8));
#1037=DIRECTION('',(-1.0,0.0,0.0));
#1038=DIRECTION('',(0.0,0.0,1.0));
#1039=AXIS2_PLACEMENT_3D('',#1036,#1037,#1038);
#1040=CIRCLE('',#1039,0.4);
#1041=EDGE_CURVE('',#785,#796,#1040,.T.);
#1042=ORIENTED_EDGE('',*,*,#1041,.T.);
#1043=ORIENTED_EDGE('',*,*,#879,.F.);
#1044=ORIENTED_EDGE('',*,*,#958,.T.);
#1045=ORIENTED_EDGE('',*,*,#951,.T.);
#1046=EDGE_LOOP('',(#1035,#1042,#1043,#1044,#1045));
#1047=FACE_OUTER_BOUND('',#1046,.T.);
#1048=ADVANCED_FACE('',(#1047),#1034,.T.);
#1049=CARTESIAN_POINT('',(8.590000000000003,-4.835995E-015,-0.799999999999999));
#1050=CARTESIAN_POINT('',(8.590000000000003,0.399999999999998,-0.800000000000002));
#1051=CARTESIAN_POINT('',(8.590000000000003,0.399999999999998,-0.4));
#1052=CARTESIAN_POINT('',(8.590000000000003,0.399999999999999,2.664535E-015));
#1053=CARTESIAN_POINT('',(8.590000000000003,-3.947817E-015,4.440892E-016));
#1054=CARTESIAN_POINT('',(10.590000000000003,-4.835995E-015,-0.799999999999999));
#1055=CARTESIAN_POINT('',(10.590000000000005,0.399999999999998,-0.800000000000002));
#1056=CARTESIAN_POINT('',(10.190000000000003,0.399999999999998,-0.4));
#1057=CARTESIAN_POINT('',(9.790000000000001,0.399999999999999,2.886580E-015));
#1058=CARTESIAN_POINT('',(9.790000000000003,-3.947817E-015,6.661338E-016));
#1059=CARTESIAN_POINT('',(10.590000000000003,-2.615549E-015,1.2));
#1060=CARTESIAN_POINT('',(10.590000000000005,0.4,1.2));
#1061=CARTESIAN_POINT('',(10.190000000000003,0.4,1.2));
#1062=CARTESIAN_POINT('',(9.790000000000001,0.4,1.2));
#1063=CARTESIAN_POINT('',(9.790000000000003,-2.615549E-015,1.2));
#1064=CARTESIAN_POINT('',(10.590000000000003,-3.951033E-016,3.199999999999999));
#1065=CARTESIAN_POINT('',(10.590000000000005,0.400000000000002,3.200000000000002));
#1066=CARTESIAN_POINT('',(10.190000000000003,0.400000000000002,2.799999999999999));
#1067=CARTESIAN_POINT('',(9.790000000000001,0.400000000000001,2.399999999999997));
#1068=CARTESIAN_POINT('',(9.790000000000003,-1.283282E-015,2.4));
#1069=CARTESIAN_POINT('',(8.590000000000003,-3.951033E-016,3.2));
#1070=CARTESIAN_POINT('',(8.590000000000003,0.400000000000002,3.200000000000002));
#1071=CARTESIAN_POINT('',(8.590000000000003,0.400000000000002,2.799999999999999));
#1072=CARTESIAN_POINT('',(8.590000000000003,0.400000000000001,2.399999999999997));
#1073=CARTESIAN_POINT('',(8.590000000000003,-1.283282E-015,2.4));
#1074=CARTESIAN_POINT('',(6.590000000000004,-3.951033E-016,3.199999999999999));
#1075=CARTESIAN_POINT('',(6.590000000000002,0.400000000000002,3.200000000000002));
#1076=CARTESIAN_POINT('',(6.990000000000004,0.400000000000002,2.799999999999999));
#1077=CARTESIAN_POINT('',(7.390000000000007,0.400000000000001,2.399999999999997));
#1078=CARTESIAN_POINT('',(7.390000000000004,-1.283282E-015,2.4));
#1079=CARTESIAN_POINT('',(6.590000000000003,-2.615549E-015,1.2));
#1080=CARTESIAN_POINT('',(6.590000000000003,0.4,1.2));
#1081=CARTESIAN_POINT('',(6.990000000000004,0.4,1.2));
#1082=CARTESIAN_POINT('',(7.390000000000006,0.4,1.2));
#1083=CARTESIAN_POINT('',(7.390000000000004,-2.615549E-015,1.2));
#1084=CARTESIAN_POINT('',(6.590000000000004,-4.835995E-015,-0.799999999999999));
#1085=CARTESIAN_POINT('',(6.590000000000002,0.399999999999998,-0.800000000000002));
#1086=CARTESIAN_POINT('',(6.990000000000004,0.399999999999998,-0.4));
#1087=CARTESIAN_POINT('',(7.390000000000007,0.399999999999999,2.886580E-015));
#1088=CARTESIAN_POINT('',(7.390000000000004,-3.947817E-015,6.661338E-016));
#1089=CARTESIAN_POINT('',(8.590000000000003,-4.835995E-015,-0.799999999999999));
#1090=CARTESIAN_POINT('',(8.590000000000003,0.399999999999998,-0.800000000000002));
#1091=CARTESIAN_POINT('',(8.590000000000003,0.399999999999998,-0.4));
#1092=CARTESIAN_POINT('',(8.590000000000003,0.399999999999999,2.664535E-015));
#1093=CARTESIAN_POINT('',(8.590000000000003,-3.947817E-015,4.440892E-016));
#1101=(BOUNDED_SURFACE()B_SPLINE_SURFACE(2,2,((#1049,#1054,#1059,#1064,#1069,#1074,#1079,#1084,#1089),(#1050,#1055,#1060,#1065,#1070,#1075,#1080,#1085,#1090),(#1051,#1056,#1061,#1066,#1071,#1076,#1081,#1086,#1091),(#1052,#1057,#1062,#1067,#1072,#1077,#1082,#1087,#1092),(#1053,#1058,#1063,#1068,#1073,#1078,#1083,#1088,#1093)),.UNSPECIFIED.,.F.,.T.,.U.)B_SPLINE_SURFACE_WITH_KNOTS((3,2,3),(3,2,2,2,3),(-6.538873E-015,1.570796326794897,3.1415926535898),(0.0,1.570796326794897,3.141592653589793,4.71238898038469,6.283185307179586),.UNSPECIFIED.)GEOMETRIC_REPRESENTATION_ITEM()RATIONAL_B_SPLINE_SURFACE(((1.0,0.707106781186548,1.0,0.707106781186548,1.0,0.707106781186548,1.0,0.707106781186548,1.0),(0.707106781186545,0.499999999999998,0.707106781186545,0.499999999999998,0.707106781186545,0.499999999999998,0.707106781186545,0.499999999999998,0.707106781186545),(1.0,0.707106781186548,1.0,0.707106781186548,1.0,0.707106781186548,1.0,0.707106781186548,1.0),(0.707106781186546,0.499999999999999,0.707106781186546,0.499999999999999,0.707106781186546,0.499999999999999,0.707106781186546,0.499999999999999,0.707106781186546),(1.0,0.707106781186548,1.0,0.707106781186548,1.0,0.707106781186548,1.0,0.707106781186548,1.0)))REPRESENTATION_ITEM('')SURFACE());
#1102=ORIENTED_EDGE('',*,*,#793,.T.);
#1103=ORIENTED_EDGE('',*,*,#1004,.T.);
#1104=ORIENTED_EDGE('',*,*,#811,.F.);
#1105=ORIENTED_EDGE('',*,*,#1041,.F.);
#1106=EDGE_LOOP('',(#1102,#1103,#1104,#1105));
#1107=FACE_OUTER_BOUND('',#1106,.T.);
#1108=ADVANCED_FACE('',(#1107),#1101,.T.);
#1109=CARTESIAN_POINT('',(9.790000000000005,0.399999999999989,-3.799999999999997));
#1110=CARTESIAN_POINT('',(10.590000000000005,0.399999999999989,-3.799999999999997));
#1111=CARTESIAN_POINT('',(9.790000000000005,-0.400000000000011,-3.799999999999997));
#1112=CARTESIAN_POINT('',(10.590000000000005,-0.400000000000011,-3.799999999999997));
#1113=B_SPLINE_SURFACE_WITH_KNOTS('',1,1,((#1109,#1111),(#1110,#1112)),.UNSPECIFIED.,.F.,.F.,.U.,(2,2),(2,2),(0.0,0.800000000000001),(0.0,0.8),.UNSPECIFIED.);
#1114=ORIENTED_EDGE('',*,*,#996,.F.);
#1115=ORIENTED_EDGE('',*,*,#934,.F.);
#1116=EDGE_LOOP('',(#1114,#1115));
#1117=FACE_OUTER_BOUND('',#1116,.T.);
#1118=ADVANCED_FACE('',(#1117),#1113,.T.);
#1119=CLOSED_SHELL('',(#831,#884,#938,#963,#1008,#1048,#1108,#1118));
#1120=MANIFOLD_SOLID_BREP('375',#1119);
#1121=COLOUR_RGB('254',0.866,0.866,0.866);
#1122=SURFACE_STYLE_USAGE(.BOTH.,#1123);
#1123=SURFACE_SIDE_STYLE('NONE',(#1124));
#1124=SURFACE_STYLE_FILL_AREA(#1125);
#1125=FILL_AREA_STYLE('NONE',(#1126));
#1126=FILL_AREA_STYLE_COLOUR('NONE',#1121);
#1127=PRESENTATION_STYLE_ASSIGNMENT((#1122));
#1128=STYLED_ITEM('NONE',(#1127),#1120);
#1129=CARTESIAN_POINT('',(-8.59,0.0,1.2));
#1130=DIRECTION('',(0.0,1.0,-1.110223E-015));
#1131=DIRECTION('',(0.0,0.0,1.0));
#1132=AXIS2_PLACEMENT_3D('',#1129,#1130,#1131);
#1133=TOROIDAL_SURFACE('',#1132,1.6,0.4);
#1134=CARTESIAN_POINT('',(-8.59,0.0,3.2));
#1135=VERTEX_POINT('',#1134);
#1136=CARTESIAN_POINT('',(-10.59,6.661338E-016,1.200000000000001));
#1137=VERTEX_POINT('',#1136);
#1138=CARTESIAN_POINT('',(-8.59,0.0,1.2));
#1139=DIRECTION('',(0.0,-1.0,0.0));
#1140=DIRECTION('',(0.0,0.0,1.0));
#1141=AXIS2_PLACEMENT_3D('',#1138,#1139,#1140);
#1142=CIRCLE('',#1141,2.0);
#1143=EDGE_CURVE('',#1135,#1137,#1142,.T.);
#1144=ORIENTED_EDGE('',*,*,#1143,.F.);
#1145=CARTESIAN_POINT('',(-8.59,-3.951033E-016,2.4));
#1146=VERTEX_POINT('',#1145);
#1147=CARTESIAN_POINT('',(-8.59,0.0,2.8));
#1148=DIRECTION('',(-1.0,0.0,0.0));
#1149=DIRECTION('',(0.0,0.0,1.0));
#1150=AXIS2_PLACEMENT_3D('',#1147,#1148,#1149);
#1151=CIRCLE('',#1150,0.4);
#1152=EDGE_CURVE('',#1135,#1146,#1151,.T.);
#1153=ORIENTED_EDGE('',*,*,#1152,.T.);
#1154=CARTESIAN_POINT('',(-9.789999999999999,7.151197E-016,1.200000000000001));
#1155=VERTEX_POINT('',#1154);
#1156=CARTESIAN_POINT('',(-8.59,-4.898587E-017,1.2));
#1157=DIRECTION('',(0.0,-1.0,0.0));
#1158=DIRECTION('',(0.0,0.0,1.0));
#1159=AXIS2_PLACEMENT_3D('',#1156,#1157,#1158);
#1160=CIRCLE('',#1159,1.2);
#1161=EDGE_CURVE('',#1146,#1155,#1160,.T.);
#1162=ORIENTED_EDGE('',*,*,#1161,.T.);
#1163=CARTESIAN_POINT('',(-10.19,0.0,1.2));
#1164=DIRECTION('',(0.0,0.0,-1.0));
#1165=DIRECTION('',(-1.0,0.0,0.0));
#1166=AXIS2_PLACEMENT_3D('',#1163,#1164,#1165);
#1167=CIRCLE('',#1166,0.4);
#1168=EDGE_CURVE('',#1137,#1155,#1167,.T.);
#1169=ORIENTED_EDGE('',*,*,#1168,.F.);
#1170=EDGE_LOOP('',(#1144,#1153,#1162,#1169));
#1171=FACE_OUTER_BOUND('',#1170,.T.);
#1172=ADVANCED_FACE('',(#1171),#1133,.T.);
#1173=CARTESIAN_POINT('',(-8.59,0.0,2.8));
#1174=DIRECTION('',(1.0,0.0,0.0));
#1175=DIRECTION('',(0.0,0.0,1.0));
#1176=AXIS2_PLACEMENT_3D('',#1173,#1174,#1175);
#1177=CYLINDRICAL_SURFACE('',#1176,0.4);
#1178=CARTESIAN_POINT('',(-6.349999999999997,4.440892E-016,3.2));
#1179=VERTEX_POINT('',#1178);
#1180=CARTESIAN_POINT('',(-6.349999999999997,4.440892E-016,3.2));
#1181=DIRECTION('',(-1.0,0.0,0.0));
#1182=VECTOR('',#1181,2.240000000000003);
#1183=LINE('',#1180,#1182);
#1184=EDGE_CURVE('',#1179,#1135,#1183,.T.);
#1185=ORIENTED_EDGE('',*,*,#1184,.F.);
#1186=CARTESIAN_POINT('',(-6.349999999999997,0.399999999999999,2.8));
#1187=VERTEX_POINT('',#1186);
#1188=CARTESIAN_POINT('',(-6.349999999999997,0.0,2.8));
#1189=DIRECTION('',(-1.0,0.0,0.0));
#1190=DIRECTION('',(0.0,0.0,1.0));
#1191=AXIS2_PLACEMENT_3D('',#1188,#1189,#1190);
#1192=CIRCLE('',#1191,0.4);
#1193=EDGE_CURVE('',#1179,#1187,#1192,.T.);
#1194=ORIENTED_EDGE('',*,*,#1193,.T.);
#1195=CARTESIAN_POINT('',(-6.349999999999997,-3.951033E-016,2.4));
#1196=VERTEX_POINT('',#1195);
#1197=CARTESIAN_POINT('',(-6.349999999999997,0.0,2.8));
#1198=DIRECTION('',(-1.0,0.0,0.0));
#1199=DIRECTION('',(0.0,0.0,1.0));
#1200=AXIS2_PLACEMENT_3D('',#1197,#1198,#1199);
#1201=CIRCLE('',#1200,0.4);
#1202=EDGE_CURVE('',#1187,#1196,#1201,.T.);
#1203=ORIENTED_EDGE('',*,*,#1202,.T.);
#1204=CARTESIAN_POINT('',(-6.349999999999997,-3.951033E-016,2.4));
#1205=DIRECTION('',(-1.0,0.0,0.0));
#1206=VECTOR('',#1205,2.240000000000003);
#1207=LINE('',#1204,#1206);
#1208=EDGE_CURVE('',#1196,#1146,#1207,.T.);
#1209=ORIENTED_EDGE('',*,*,#1208,.T.);
#1210=ORIENTED_EDGE('',*,*,#1152,.F.);
#1211=EDGE_LOOP('',(#1185,#1194,#1203,#1209,#1210));
#1212=FACE_OUTER_BOUND('',#1211,.T.);
#1213=ADVANCED_FACE('',(#1212),#1177,.T.);
#1214=CARTESIAN_POINT('',(-10.190000000000001,-1.065814E-014,-8.999999999999996));
#1215=DIRECTION('',(1.741526E-016,1.110223E-015,1.0));
#1216=DIRECTION('',(-1.0,0.0,0.0));
#1217=AXIS2_PLACEMENT_3D('',#1214,#1215,#1216);
#1218=CYLINDRICAL_SURFACE('',#1217,0.4);
#1219=CARTESIAN_POINT('',(-10.59,-1.065814E-014,-3.799999999999997));
#1220=VERTEX_POINT('',#1219);
#1221=CARTESIAN_POINT('',(-10.59,6.661338E-016,1.200000000000001));
#1222=DIRECTION('',(0.0,0.0,-1.0));
#1223=VECTOR('',#1222,4.999999999999998);
#1224=LINE('',#1221,#1223);
#1225=EDGE_CURVE('',#1137,#1220,#1224,.T.);
#1226=ORIENTED_EDGE('',*,*,#1225,.F.);
#1227=ORIENTED_EDGE('',*,*,#1168,.T.);
#1228=CARTESIAN_POINT('',(-9.789999999999999,-4.835995E-015,-3.799999999999997));
#1229=VERTEX_POINT('',#1228);
#1230=CARTESIAN_POINT('',(-9.789999999999999,7.151197E-016,1.200000000000001));
#1231=DIRECTION('',(0.0,0.0,-1.0));
#1232=VECTOR('',#1231,4.999999999999998);
#1233=LINE('',#1230,#1232);
#1234=EDGE_CURVE('',#1155,#1229,#1233,.T.);
#1235=ORIENTED_EDGE('',*,*,#1234,.T.);
#1236=CARTESIAN_POINT('',(-10.190000000000001,-1.065814E-014,-3.799999999999997));
#1237=DIRECTION('',(0.0,0.0,-1.0));
#1238=DIRECTION('',(-1.0,0.0,0.0));
#1239=AXIS2_PLACEMENT_3D('',#1236,#1237,#1238);
#1240=CIRCLE('',#1239,0.4);
#1241=EDGE_CURVE('',#1220,#1229,#1240,.T.);
#1242=ORIENTED_EDGE('',*,*,#1241,.F.);
#1243=EDGE_LOOP('',(#1226,#1227,#1235,#1242));
#1244=FACE_OUTER_BOUND('',#1243,.T.);
#1245=ADVANCED_FACE('',(#1244),#1218,.T.);
#1246=CARTESIAN_POINT('',(-6.349999999999997,0.0,2.8));
#1247=DIRECTION('',(-1.0,0.0,0.0));
#1248=DIRECTION('',(0.0,-1.0,0.0));
#1249=AXIS2_PLACEMENT_3D('',#1246,#1247,#1248);
#1250=PLANE('',#1249);
#1251=ORIENTED_EDGE('',*,*,#1202,.F.);
#1252=ORIENTED_EDGE('',*,*,#1193,.F.);
#1253=CARTESIAN_POINT('',(-6.349999999999997,0.0,2.8));
#1254=DIRECTION('',(-1.0,0.0,0.0));
#1255=DIRECTION('',(0.0,0.0,1.0));
#1256=AXIS2_PLACEMENT_3D('',#1253,#1254,#1255);
#1257=CIRCLE('',#1256,0.4);
#1258=EDGE_CURVE('',#1196,#1179,#1257,.T.);
#1259=ORIENTED_EDGE('',*,*,#1258,.F.);
#1260=EDGE_LOOP('',(#1251,#1252,#1259));
#1261=FACE_OUTER_BOUND('',#1260,.T.);
#1262=ADVANCED_FACE('',(#1261),#1250,.F.);
#1263=CARTESIAN_POINT('',(-10.190000000000001,-1.065814E-014,-8.999999999999996));
#1264=DIRECTION('',(1.741526E-016,1.110223E-015,1.0));
#1265=DIRECTION('',(-1.0,0.0,0.0));
#1266=AXIS2_PLACEMENT_3D('',#1263,#1264,#1265);
#1267=CYLINDRICAL_SURFACE('',#1266,0.4);
#1268=ORIENTED_EDGE('',*,*,#1225,.T.);
#1269=CARTESIAN_POINT('',(-10.190000000000001,-1.065814E-014,-3.799999999999997));
#1270=DIRECTION('',(0.0,0.0,-1.0));
#1271=DIRECTION('',(-1.0,0.0,0.0));
#1272=AXIS2_PLACEMENT_3D('',#1269,#1270,#1271);
#1273=CIRCLE('',#1272,0.4);
#1274=EDGE_CURVE('',#1229,#1220,#1273,.T.);
#1275=ORIENTED_EDGE('',*,*,#1274,.F.);
#1276=ORIENTED_EDGE('',*,*,#1234,.F.);
#1277=CARTESIAN_POINT('',(-10.19,-0.400000000000002,1.200000000000001));
#1278=VERTEX_POINT('',#1277);
#1279=CARTESIAN_POINT('',(-10.19,0.0,1.2));
#1280=DIRECTION('',(0.0,0.0,-1.0));
#1281=DIRECTION('',(-1.0,0.0,0.0));
#1282=AXIS2_PLACEMENT_3D('',#1279,#1280,#1281);
#1283=CIRCLE('',#1282,0.4);
#1284=EDGE_CURVE('',#1155,#1278,#1283,.T.);
#1285=ORIENTED_EDGE('',*,*,#1284,.T.);
#1286=CARTESIAN_POINT('',(-10.19,0.0,1.2));
#1287=DIRECTION('',(0.0,0.0,-1.0));
#1288=DIRECTION('',(-1.0,0.0,0.0));
#1289=AXIS2_PLACEMENT_3D('',#1286,#1287,#1288);
#1290=CIRCLE('',#1289,0.4);
#1291=EDGE_CURVE('',#1278,#1137,#1290,.T.);
#1292=ORIENTED_EDGE('',*,*,#1291,.T.);
#1293=EDGE_LOOP('',(#1268,#1275,#1276,#1285,#1292));
#1294=FACE_OUTER_BOUND('',#1293,.T.);
#1295=ADVANCED_FACE('',(#1294),#1267,.T.);
#1296=CARTESIAN_POINT('',(-8.59,0.0,2.8));
#1297=DIRECTION('',(1.0,0.0,0.0));
#1298=DIRECTION('',(0.0,0.0,1.0));
#1299=AXIS2_PLACEMENT_3D('',#1296,#1297,#1298);
#1300=CYLINDRICAL_SURFACE('',#1299,0.4);
#1301=ORIENTED_EDGE('',*,*,#1184,.T.);
#1302=CARTESIAN_POINT('',(-8.59,0.0,2.8));
#1303=DIRECTION('',(-1.0,0.0,0.0));
#1304=DIRECTION('',(0.0,0.0,1.0));
#1305=AXIS2_PLACEMENT_3D('',#1302,#1303,#1304);
#1306=CIRCLE('',#1305,0.4);
#1307=EDGE_CURVE('',#1146,#1135,#1306,.T.);
#1308=ORIENTED_EDGE('',*,*,#1307,.F.);
#1309=ORIENTED_EDGE('',*,*,#1208,.F.);
#1310=ORIENTED_EDGE('',*,*,#1258,.T.);
#1311=EDGE_LOOP('',(#1301,#1308,#1309,#1310));
#1312=FACE_OUTER_BOUND('',#1311,.T.);
#1313=ADVANCED_FACE('',(#1312),#1300,.T.);
#1314=CARTESIAN_POINT('',(-8.59,0.0,1.2));
#1315=DIRECTION('',(0.0,1.0,-1.110223E-015));
#1316=DIRECTION('',(0.0,0.0,1.0));
#1317=AXIS2_PLACEMENT_3D('',#1314,#1315,#1316);
#1318=TOROIDAL_SURFACE('',#1317,1.6,0.4);
#1319=ORIENTED_EDGE('',*,*,#1143,.T.);
#1320=ORIENTED_EDGE('',*,*,#1291,.F.);
#1321=ORIENTED_EDGE('',*,*,#1284,.F.);
#1322=ORIENTED_EDGE('',*,*,#1161,.F.);
#1323=ORIENTED_EDGE('',*,*,#1307,.T.);
#1324=EDGE_LOOP('',(#1319,#1320,#1321,#1322,#1323));
#1325=FACE_OUTER_BOUND('',#1324,.T.);
#1326=ADVANCED_FACE('',(#1325),#1318,.T.);
#1327=CARTESIAN_POINT('',(-10.190000000000001,-1.065814E-014,-3.799999999999997));
#1328=DIRECTION('',(0.0,0.0,-1.0));
#1329=DIRECTION('',(-1.0,0.0,0.0));
#1330=AXIS2_PLACEMENT_3D('',#1327,#1328,#1329);
#1331=PLANE('',#1330);
#1332=ORIENTED_EDGE('',*,*,#1241,.T.);
#1333=ORIENTED_EDGE('',*,*,#1274,.T.);
#1334=EDGE_LOOP('',(#1332,#1333));
#1335=FACE_OUTER_BOUND('',#1334,.T.);
#1336=ADVANCED_FACE('',(#1335),#1331,.T.);
#1337=CLOSED_SHELL('',(#1172,#1213,#1245,#1262,#1295,#1313,#1326,#1336));
#1338=MANIFOLD_SOLID_BREP('373',#1337);
#1339=STYLED_ITEM('NONE',(#1127),#1338);
#1340=ADVANCED_BREP_SHAPE_REPRESENTATION('ABSR1',(#720,#1120,#1338),#28);
#1341=SHAPE_REPRESENTATION_RELATIONSHIP('SRRPL1','',#1340,#62);
ENDSEC;
END-ISO-10303-21;
