ISO-10303-21;
HEADER;
/* Generated by software containing ST-Developer
 * from STEP Tools, Inc. (www.steptools.com) 
 */

FILE_DESCRIPTION(
/* description */ (''),
/* implementation_level */ '2;1');

FILE_NAME(
/* name */ 'G:\\Applications\\Altium\\CernLib\\StepLib\\RESC3216X50N.s
tp',
/* time_stamp */ '2016-07-19T11:07:09+02:00',
/* author */ ('riccim'),
/* organization */ (''),
/* preprocessor_version */ 'ST-DEVELOPER v15.5',
/* originating_system */ 'AutoCAD Mechanical',
/* authorisation */ '');

FILE_SCHEMA (('AUTOMOTIVE_DESIGN { 1 0 10303 214 3 1 1 }'));
ENDSEC;

DATA;
#10=MECHANICAL_DESIGN_GEOMETRIC_PRESENTATION_REPRESENTATION('',(#17,#18,
#19),#477);
#11=DIMENSIONAL_EXPONENTS(0.,0.,0.,0.,0.,0.,0.);
#12=(
CONVERSION_BASED_UNIT('degree',#13)
NAMED_UNIT(#11)
PLANE_ANGLE_UNIT()
);
#13=PLANE_ANGLE_MEASURE_WITH_UNIT(PLANE_ANGLE_MEASURE(0.01745329252),#480);
#14=PRESENTATION_LAYER_ASSIGNMENT('3D','',(#299,#300,#301));
#15=SHAPE_REPRESENTATION_RELATIONSHIP('SRR','None',#483,#16);
#16=ADVANCED_BREP_SHAPE_REPRESENTATION($,(#299,#300,#301),#476);
#17=STYLED_ITEM($,(#493),#299);
#18=STYLED_ITEM($,(#494),#300);
#19=STYLED_ITEM($,(#494),#301);
#20=FACE_OUTER_BOUND($,#38,.T.);
#21=FACE_OUTER_BOUND($,#39,.T.);
#22=FACE_OUTER_BOUND($,#40,.T.);
#23=FACE_OUTER_BOUND($,#41,.T.);
#24=FACE_OUTER_BOUND($,#42,.T.);
#25=FACE_OUTER_BOUND($,#43,.T.);
#26=FACE_OUTER_BOUND($,#44,.T.);
#27=FACE_OUTER_BOUND($,#45,.T.);
#28=FACE_OUTER_BOUND($,#46,.T.);
#29=FACE_OUTER_BOUND($,#47,.T.);
#30=FACE_OUTER_BOUND($,#48,.T.);
#31=FACE_OUTER_BOUND($,#49,.T.);
#32=FACE_OUTER_BOUND($,#50,.T.);
#33=FACE_OUTER_BOUND($,#51,.T.);
#34=FACE_OUTER_BOUND($,#52,.T.);
#35=FACE_OUTER_BOUND($,#53,.T.);
#36=FACE_OUTER_BOUND($,#54,.T.);
#37=FACE_OUTER_BOUND($,#55,.T.);
#38=EDGE_LOOP($,(#188,#189,#190,#191));
#39=EDGE_LOOP($,(#192,#193,#194,#195));
#40=EDGE_LOOP($,(#196,#197,#198,#199));
#41=EDGE_LOOP($,(#200,#201,#202,#203));
#42=EDGE_LOOP($,(#204,#205,#206,#207));
#43=EDGE_LOOP($,(#208,#209,#210,#211));
#44=EDGE_LOOP($,(#212,#213,#214,#215));
#45=EDGE_LOOP($,(#216,#217,#218,#219));
#46=EDGE_LOOP($,(#220,#221,#222,#223));
#47=EDGE_LOOP($,(#224,#225,#226,#227));
#48=EDGE_LOOP($,(#228,#229,#230,#231));
#49=EDGE_LOOP($,(#232,#233,#234,#235));
#50=EDGE_LOOP($,(#236,#237,#238,#239));
#51=EDGE_LOOP($,(#240,#241,#242,#243));
#52=EDGE_LOOP($,(#244,#245,#246,#247));
#53=EDGE_LOOP($,(#248,#249,#250,#251));
#54=EDGE_LOOP($,(#252,#253,#254,#255));
#55=EDGE_LOOP($,(#256,#257,#258,#259));
#56=LINE($,#399,#92);
#57=LINE($,#401,#93);
#58=LINE($,#403,#94);
#59=LINE($,#404,#95);
#60=LINE($,#407,#96);
#61=LINE($,#409,#97);
#62=LINE($,#410,#98);
#63=LINE($,#413,#99);
#64=LINE($,#415,#100);
#65=LINE($,#416,#101);
#66=LINE($,#418,#102);
#67=LINE($,#419,#103);
#68=LINE($,#425,#104);
#69=LINE($,#427,#105);
#70=LINE($,#429,#106);
#71=LINE($,#430,#107);
#72=LINE($,#433,#108);
#73=LINE($,#435,#109);
#74=LINE($,#436,#110);
#75=LINE($,#439,#111);
#76=LINE($,#441,#112);
#77=LINE($,#442,#113);
#78=LINE($,#444,#114);
#79=LINE($,#445,#115);
#80=LINE($,#451,#116);
#81=LINE($,#453,#117);
#82=LINE($,#455,#118);
#83=LINE($,#456,#119);
#84=LINE($,#459,#120);
#85=LINE($,#461,#121);
#86=LINE($,#462,#122);
#87=LINE($,#465,#123);
#88=LINE($,#467,#124);
#89=LINE($,#468,#125);
#90=LINE($,#470,#126);
#91=LINE($,#471,#127);
#92=VECTOR($,#325,2.07);
#93=VECTOR($,#326,0.5);
#94=VECTOR($,#327,2.07);
#95=VECTOR($,#328,0.5);
#96=VECTOR($,#331,1.75);
#97=VECTOR($,#332,0.5);
#98=VECTOR($,#333,1.75);
#99=VECTOR($,#336,2.07);
#100=VECTOR($,#337,0.5);
#101=VECTOR($,#338,2.07);
#102=VECTOR($,#341,1.75);
#103=VECTOR($,#342,1.75);
#104=VECTOR($,#349,1.75);
#105=VECTOR($,#350,0.51);
#106=VECTOR($,#351,1.75);
#107=VECTOR($,#352,0.51);
#108=VECTOR($,#355,0.64);
#109=VECTOR($,#356,0.51);
#110=VECTOR($,#357,0.64);
#111=VECTOR($,#360,1.75);
#112=VECTOR($,#361,0.51);
#113=VECTOR($,#362,1.75);
#114=VECTOR($,#365,0.64);
#115=VECTOR($,#366,0.64);
#116=VECTOR($,#373,1.75);
#117=VECTOR($,#374,0.51);
#118=VECTOR($,#375,1.75);
#119=VECTOR($,#376,0.51);
#120=VECTOR($,#379,0.64);
#121=VECTOR($,#380,0.51);
#122=VECTOR($,#381,0.64);
#123=VECTOR($,#384,1.75);
#124=VECTOR($,#385,0.51);
#125=VECTOR($,#386,1.75);
#126=VECTOR($,#389,0.64);
#127=VECTOR($,#390,0.64);
#128=VERTEX_POINT($,#397);
#129=VERTEX_POINT($,#398);
#130=VERTEX_POINT($,#400);
#131=VERTEX_POINT($,#402);
#132=VERTEX_POINT($,#406);
#133=VERTEX_POINT($,#408);
#134=VERTEX_POINT($,#412);
#135=VERTEX_POINT($,#414);
#136=VERTEX_POINT($,#423);
#137=VERTEX_POINT($,#424);
#138=VERTEX_POINT($,#426);
#139=VERTEX_POINT($,#428);
#140=VERTEX_POINT($,#432);
#141=VERTEX_POINT($,#434);
#142=VERTEX_POINT($,#438);
#143=VERTEX_POINT($,#440);
#144=VERTEX_POINT($,#449);
#145=VERTEX_POINT($,#450);
#146=VERTEX_POINT($,#452);
#147=VERTEX_POINT($,#454);
#148=VERTEX_POINT($,#458);
#149=VERTEX_POINT($,#460);
#150=VERTEX_POINT($,#464);
#151=VERTEX_POINT($,#466);
#152=EDGE_CURVE($,#128,#129,#56,.T.);
#153=EDGE_CURVE($,#130,#129,#57,.T.);
#154=EDGE_CURVE($,#131,#130,#58,.T.);
#155=EDGE_CURVE($,#131,#128,#59,.T.);
#156=EDGE_CURVE($,#129,#132,#60,.T.);
#157=EDGE_CURVE($,#133,#132,#61,.T.);
#158=EDGE_CURVE($,#130,#133,#62,.T.);
#159=EDGE_CURVE($,#132,#134,#63,.T.);
#160=EDGE_CURVE($,#135,#134,#64,.T.);
#161=EDGE_CURVE($,#133,#135,#65,.T.);
#162=EDGE_CURVE($,#134,#128,#66,.T.);
#163=EDGE_CURVE($,#135,#131,#67,.T.);
#164=EDGE_CURVE($,#136,#137,#68,.T.);
#165=EDGE_CURVE($,#138,#137,#69,.T.);
#166=EDGE_CURVE($,#139,#138,#70,.T.);
#167=EDGE_CURVE($,#139,#136,#71,.T.);
#168=EDGE_CURVE($,#137,#140,#72,.T.);
#169=EDGE_CURVE($,#141,#140,#73,.T.);
#170=EDGE_CURVE($,#138,#141,#74,.T.);
#171=EDGE_CURVE($,#140,#142,#75,.T.);
#172=EDGE_CURVE($,#143,#142,#76,.T.);
#173=EDGE_CURVE($,#141,#143,#77,.T.);
#174=EDGE_CURVE($,#142,#136,#78,.T.);
#175=EDGE_CURVE($,#143,#139,#79,.T.);
#176=EDGE_CURVE($,#144,#145,#80,.T.);
#177=EDGE_CURVE($,#146,#145,#81,.T.);
#178=EDGE_CURVE($,#146,#147,#82,.T.);
#179=EDGE_CURVE($,#147,#144,#83,.T.);
#180=EDGE_CURVE($,#145,#148,#84,.T.);
#181=EDGE_CURVE($,#149,#148,#85,.T.);
#182=EDGE_CURVE($,#149,#146,#86,.T.);
#183=EDGE_CURVE($,#148,#150,#87,.T.);
#184=EDGE_CURVE($,#151,#150,#88,.T.);
#185=EDGE_CURVE($,#151,#149,#89,.T.);
#186=EDGE_CURVE($,#150,#144,#90,.T.);
#187=EDGE_CURVE($,#147,#151,#91,.T.);
#188=ORIENTED_EDGE($,*,*,#152,.T.);
#189=ORIENTED_EDGE($,*,*,#153,.F.);
#190=ORIENTED_EDGE($,*,*,#154,.F.);
#191=ORIENTED_EDGE($,*,*,#155,.T.);
#192=ORIENTED_EDGE($,*,*,#156,.T.);
#193=ORIENTED_EDGE($,*,*,#157,.F.);
#194=ORIENTED_EDGE($,*,*,#158,.F.);
#195=ORIENTED_EDGE($,*,*,#153,.T.);
#196=ORIENTED_EDGE($,*,*,#159,.T.);
#197=ORIENTED_EDGE($,*,*,#160,.F.);
#198=ORIENTED_EDGE($,*,*,#161,.F.);
#199=ORIENTED_EDGE($,*,*,#157,.T.);
#200=ORIENTED_EDGE($,*,*,#162,.T.);
#201=ORIENTED_EDGE($,*,*,#155,.F.);
#202=ORIENTED_EDGE($,*,*,#163,.F.);
#203=ORIENTED_EDGE($,*,*,#160,.T.);
#204=ORIENTED_EDGE($,*,*,#162,.F.);
#205=ORIENTED_EDGE($,*,*,#159,.F.);
#206=ORIENTED_EDGE($,*,*,#156,.F.);
#207=ORIENTED_EDGE($,*,*,#152,.F.);
#208=ORIENTED_EDGE($,*,*,#161,.T.);
#209=ORIENTED_EDGE($,*,*,#163,.T.);
#210=ORIENTED_EDGE($,*,*,#154,.T.);
#211=ORIENTED_EDGE($,*,*,#158,.T.);
#212=ORIENTED_EDGE($,*,*,#164,.T.);
#213=ORIENTED_EDGE($,*,*,#165,.F.);
#214=ORIENTED_EDGE($,*,*,#166,.F.);
#215=ORIENTED_EDGE($,*,*,#167,.T.);
#216=ORIENTED_EDGE($,*,*,#168,.T.);
#217=ORIENTED_EDGE($,*,*,#169,.F.);
#218=ORIENTED_EDGE($,*,*,#170,.F.);
#219=ORIENTED_EDGE($,*,*,#165,.T.);
#220=ORIENTED_EDGE($,*,*,#171,.T.);
#221=ORIENTED_EDGE($,*,*,#172,.F.);
#222=ORIENTED_EDGE($,*,*,#173,.F.);
#223=ORIENTED_EDGE($,*,*,#169,.T.);
#224=ORIENTED_EDGE($,*,*,#174,.T.);
#225=ORIENTED_EDGE($,*,*,#167,.F.);
#226=ORIENTED_EDGE($,*,*,#175,.F.);
#227=ORIENTED_EDGE($,*,*,#172,.T.);
#228=ORIENTED_EDGE($,*,*,#174,.F.);
#229=ORIENTED_EDGE($,*,*,#171,.F.);
#230=ORIENTED_EDGE($,*,*,#168,.F.);
#231=ORIENTED_EDGE($,*,*,#164,.F.);
#232=ORIENTED_EDGE($,*,*,#173,.T.);
#233=ORIENTED_EDGE($,*,*,#175,.T.);
#234=ORIENTED_EDGE($,*,*,#166,.T.);
#235=ORIENTED_EDGE($,*,*,#170,.T.);
#236=ORIENTED_EDGE($,*,*,#176,.T.);
#237=ORIENTED_EDGE($,*,*,#177,.F.);
#238=ORIENTED_EDGE($,*,*,#178,.T.);
#239=ORIENTED_EDGE($,*,*,#179,.T.);
#240=ORIENTED_EDGE($,*,*,#180,.T.);
#241=ORIENTED_EDGE($,*,*,#181,.F.);
#242=ORIENTED_EDGE($,*,*,#182,.T.);
#243=ORIENTED_EDGE($,*,*,#177,.T.);
#244=ORIENTED_EDGE($,*,*,#183,.T.);
#245=ORIENTED_EDGE($,*,*,#184,.F.);
#246=ORIENTED_EDGE($,*,*,#185,.T.);
#247=ORIENTED_EDGE($,*,*,#181,.T.);
#248=ORIENTED_EDGE($,*,*,#186,.T.);
#249=ORIENTED_EDGE($,*,*,#179,.F.);
#250=ORIENTED_EDGE($,*,*,#187,.T.);
#251=ORIENTED_EDGE($,*,*,#184,.T.);
#252=ORIENTED_EDGE($,*,*,#186,.F.);
#253=ORIENTED_EDGE($,*,*,#183,.F.);
#254=ORIENTED_EDGE($,*,*,#180,.F.);
#255=ORIENTED_EDGE($,*,*,#176,.F.);
#256=ORIENTED_EDGE($,*,*,#185,.F.);
#257=ORIENTED_EDGE($,*,*,#187,.F.);
#258=ORIENTED_EDGE($,*,*,#178,.F.);
#259=ORIENTED_EDGE($,*,*,#182,.F.);
#260=PLANE($,#303);
#261=PLANE($,#304);
#262=PLANE($,#305);
#263=PLANE($,#306);
#264=PLANE($,#307);
#265=PLANE($,#308);
#266=PLANE($,#309);
#267=PLANE($,#310);
#268=PLANE($,#311);
#269=PLANE($,#312);
#270=PLANE($,#313);
#271=PLANE($,#314);
#272=PLANE($,#315);
#273=PLANE($,#316);
#274=PLANE($,#317);
#275=PLANE($,#318);
#276=PLANE($,#319);
#277=PLANE($,#320);
#278=ADVANCED_FACE($,(#20),#260,.T.);
#279=ADVANCED_FACE($,(#21),#261,.T.);
#280=ADVANCED_FACE($,(#22),#262,.T.);
#281=ADVANCED_FACE($,(#23),#263,.T.);
#282=ADVANCED_FACE($,(#24),#264,.T.);
#283=ADVANCED_FACE($,(#25),#265,.F.);
#284=ADVANCED_FACE($,(#26),#266,.T.);
#285=ADVANCED_FACE($,(#27),#267,.T.);
#286=ADVANCED_FACE($,(#28),#268,.T.);
#287=ADVANCED_FACE($,(#29),#269,.T.);
#288=ADVANCED_FACE($,(#30),#270,.T.);
#289=ADVANCED_FACE($,(#31),#271,.F.);
#290=ADVANCED_FACE($,(#32),#272,.T.);
#291=ADVANCED_FACE($,(#33),#273,.T.);
#292=ADVANCED_FACE($,(#34),#274,.T.);
#293=ADVANCED_FACE($,(#35),#275,.T.);
#294=ADVANCED_FACE($,(#36),#276,.T.);
#295=ADVANCED_FACE($,(#37),#277,.F.);
#296=CLOSED_SHELL($,(#278,#279,#280,#281,#282,#283));
#297=CLOSED_SHELL($,(#284,#285,#286,#287,#288,#289));
#298=CLOSED_SHELL($,(#290,#291,#292,#293,#294,#295));
#299=MANIFOLD_SOLID_BREP('446',#296);
#300=MANIFOLD_SOLID_BREP('447',#297);
#301=MANIFOLD_SOLID_BREP('448',#298);
#302=AXIS2_PLACEMENT_3D('placement',#395,#321,#322);
#303=AXIS2_PLACEMENT_3D($,#396,#323,#324);
#304=AXIS2_PLACEMENT_3D($,#405,#329,#330);
#305=AXIS2_PLACEMENT_3D($,#411,#334,#335);
#306=AXIS2_PLACEMENT_3D($,#417,#339,#340);
#307=AXIS2_PLACEMENT_3D($,#420,#343,#344);
#308=AXIS2_PLACEMENT_3D($,#421,#345,#346);
#309=AXIS2_PLACEMENT_3D($,#422,#347,#348);
#310=AXIS2_PLACEMENT_3D($,#431,#353,#354);
#311=AXIS2_PLACEMENT_3D($,#437,#358,#359);
#312=AXIS2_PLACEMENT_3D($,#443,#363,#364);
#313=AXIS2_PLACEMENT_3D($,#446,#367,#368);
#314=AXIS2_PLACEMENT_3D($,#447,#369,#370);
#315=AXIS2_PLACEMENT_3D($,#448,#371,#372);
#316=AXIS2_PLACEMENT_3D($,#457,#377,#378);
#317=AXIS2_PLACEMENT_3D($,#463,#382,#383);
#318=AXIS2_PLACEMENT_3D($,#469,#387,#388);
#319=AXIS2_PLACEMENT_3D($,#472,#391,#392);
#320=AXIS2_PLACEMENT_3D($,#473,#393,#394);
#321=DIRECTION('axis',(0.,0.,1.));
#322=DIRECTION('refdir',(1.,0.,0.));
#323=DIRECTION('center_axis',(0.,1.,0.));
#324=DIRECTION('ref_axis',(0.,0.,1.));
#325=DIRECTION($,(1.,0.,0.));
#326=DIRECTION($,(0.,0.,1.));
#327=DIRECTION($,(1.,0.,0.));
#328=DIRECTION($,(0.,0.,1.));
#329=DIRECTION('center_axis',(1.,1.26882631385732E-16,0.));
#330=DIRECTION('ref_axis',(0.,0.,-1.));
#331=DIRECTION($,(1.26882631385732E-16,-1.,0.));
#332=DIRECTION($,(0.,0.,1.));
#333=DIRECTION($,(1.26882631385732E-16,-1.,0.));
#334=DIRECTION('center_axis',(0.,-1.,0.));
#335=DIRECTION('ref_axis',(0.,0.,-1.));
#336=DIRECTION($,(-1.,0.,0.));
#337=DIRECTION($,(0.,0.,1.));
#338=DIRECTION($,(-1.,0.,0.));
#339=DIRECTION('center_axis',(-1.,0.,0.));
#340=DIRECTION('ref_axis',(0.,0.,1.));
#341=DIRECTION($,(0.,1.,0.));
#342=DIRECTION($,(0.,1.,0.));
#343=DIRECTION('center_axis',(0.,0.,1.));
#344=DIRECTION('ref_axis',(1.,0.,0.));
#345=DIRECTION('center_axis',(0.,0.,1.));
#346=DIRECTION('ref_axis',(1.,0.,0.));
#347=DIRECTION('center_axis',(1.,0.,0.));
#348=DIRECTION('ref_axis',(0.,0.,-1.));
#349=DIRECTION($,(0.,-1.,0.));
#350=DIRECTION($,(0.,0.,1.));
#351=DIRECTION($,(0.,-1.,0.));
#352=DIRECTION($,(0.,0.,1.));
#353=DIRECTION('center_axis',(0.,-1.,0.));
#354=DIRECTION('ref_axis',(0.,0.,-1.));
#355=DIRECTION($,(-1.,0.,0.));
#356=DIRECTION($,(0.,0.,1.));
#357=DIRECTION($,(-1.,0.,0.));
#358=DIRECTION('center_axis',(-1.,-1.26882631385732E-16,0.));
#359=DIRECTION('ref_axis',(0.,0.,1.));
#360=DIRECTION($,(-1.26882631385732E-16,1.,0.));
#361=DIRECTION($,(0.,0.,1.));
#362=DIRECTION($,(-1.26882631385732E-16,1.,0.));
#363=DIRECTION('center_axis',(0.,1.,0.));
#364=DIRECTION('ref_axis',(0.,0.,1.));
#365=DIRECTION($,(1.,0.,0.));
#366=DIRECTION($,(1.,0.,0.));
#367=DIRECTION('center_axis',(0.,0.,1.));
#368=DIRECTION('ref_axis',(1.,0.,0.));
#369=DIRECTION('center_axis',(0.,0.,1.));
#370=DIRECTION('ref_axis',(1.,0.,0.));
#371=DIRECTION('center_axis',(1.,0.,0.));
#372=DIRECTION('ref_axis',(0.,0.,-1.));
#373=DIRECTION($,(0.,-1.,0.));
#374=DIRECTION($,(0.,0.,1.));
#375=DIRECTION($,(0.,1.,0.));
#376=DIRECTION($,(0.,0.,1.));
#377=DIRECTION('center_axis',(0.,-1.,0.));
#378=DIRECTION('ref_axis',(0.,0.,-1.));
#379=DIRECTION($,(-1.,0.,0.));
#380=DIRECTION($,(0.,0.,1.));
#381=DIRECTION($,(1.,0.,0.));
#382=DIRECTION('center_axis',(-1.,0.,0.));
#383=DIRECTION('ref_axis',(0.,0.,1.));
#384=DIRECTION($,(0.,1.,0.));
#385=DIRECTION($,(0.,0.,1.));
#386=DIRECTION($,(0.,-1.,0.));
#387=DIRECTION('center_axis',(0.,1.,0.));
#388=DIRECTION('ref_axis',(0.,0.,1.));
#389=DIRECTION($,(1.,0.,0.));
#390=DIRECTION($,(-1.,0.,0.));
#391=DIRECTION('center_axis',(0.,0.,1.));
#392=DIRECTION('ref_axis',(1.,0.,0.));
#393=DIRECTION('center_axis',(0.,0.,1.));
#394=DIRECTION('ref_axis',(1.,0.,0.));
#395=CARTESIAN_POINT('',(0.,0.,0.));
#396=CARTESIAN_POINT('Origin',(-0.925,0.875,0.));
#397=CARTESIAN_POINT('',(-1.035,0.875,0.5));
#398=CARTESIAN_POINT('',(1.035,0.875,0.5));
#399=CARTESIAN_POINT($,(-0.925,0.875,0.5));
#400=CARTESIAN_POINT('',(1.035,0.875,0.));
#401=CARTESIAN_POINT($,(1.035,0.875,0.));
#402=CARTESIAN_POINT('',(-1.035,0.875,0.));
#403=CARTESIAN_POINT($,(-0.925,0.875,0.));
#404=CARTESIAN_POINT($,(-1.035,0.875,0.));
#405=CARTESIAN_POINT('Origin',(1.035,0.875,0.));
#406=CARTESIAN_POINT('',(1.035,-0.875,0.5));
#407=CARTESIAN_POINT($,(1.035,0.875,0.5));
#408=CARTESIAN_POINT('',(1.035,-0.875,0.));
#409=CARTESIAN_POINT($,(1.035,-0.875,0.));
#410=CARTESIAN_POINT($,(1.035,0.875,0.));
#411=CARTESIAN_POINT('Origin',(0.925,-0.875,0.));
#412=CARTESIAN_POINT('',(-1.035,-0.875,0.5));
#413=CARTESIAN_POINT($,(0.925,-0.875,0.5));
#414=CARTESIAN_POINT('',(-1.035,-0.875,0.));
#415=CARTESIAN_POINT($,(-1.035,-0.875,0.));
#416=CARTESIAN_POINT($,(0.925,-0.875,0.));
#417=CARTESIAN_POINT('Origin',(-1.035,-0.875,0.));
#418=CARTESIAN_POINT($,(-1.035,-0.875,0.5));
#419=CARTESIAN_POINT($,(-1.035,-0.875,0.));
#420=CARTESIAN_POINT('Origin',(0.,-1.11022302462516E-16,0.5));
#421=CARTESIAN_POINT('Origin',(0.,-1.11022302462516E-16,0.));
#422=CARTESIAN_POINT('Origin',(1.675,0.875,0.));
#423=CARTESIAN_POINT('',(1.675,0.875,0.51));
#424=CARTESIAN_POINT('',(1.675,-0.875,0.51));
#425=CARTESIAN_POINT($,(1.675,0.875,0.51));
#426=CARTESIAN_POINT('',(1.675,-0.875,0.));
#427=CARTESIAN_POINT($,(1.675,-0.875,0.));
#428=CARTESIAN_POINT('',(1.675,0.875,0.));
#429=CARTESIAN_POINT($,(1.675,0.875,0.));
#430=CARTESIAN_POINT($,(1.675,0.875,0.));
#431=CARTESIAN_POINT('Origin',(1.675,-0.875,0.));
#432=CARTESIAN_POINT('',(1.035,-0.875,0.51));
#433=CARTESIAN_POINT($,(1.675,-0.875,0.51));
#434=CARTESIAN_POINT('',(1.035,-0.875,0.));
#435=CARTESIAN_POINT($,(1.035,-0.875,0.));
#436=CARTESIAN_POINT($,(1.675,-0.875,0.));
#437=CARTESIAN_POINT('Origin',(1.035,-0.875,0.));
#438=CARTESIAN_POINT('',(1.035,0.875,0.51));
#439=CARTESIAN_POINT($,(1.035,-0.875,0.51));
#440=CARTESIAN_POINT('',(1.035,0.875,0.));
#441=CARTESIAN_POINT($,(1.035,0.875,0.));
#442=CARTESIAN_POINT($,(1.035,-0.875,0.));
#443=CARTESIAN_POINT('Origin',(0.925,0.875,0.));
#444=CARTESIAN_POINT($,(0.925,0.875,0.51));
#445=CARTESIAN_POINT($,(0.925,0.875,0.));
#446=CARTESIAN_POINT('Origin',(1.3,1.11022302462516E-16,0.51));
#447=CARTESIAN_POINT('Origin',(1.3,1.11022302462516E-16,0.));
#448=CARTESIAN_POINT('Origin',(-1.035,0.875,0.));
#449=CARTESIAN_POINT('',(-1.035,0.875,0.51));
#450=CARTESIAN_POINT('',(-1.035,-0.875,0.51));
#451=CARTESIAN_POINT($,(-1.035,-0.875,0.51));
#452=CARTESIAN_POINT('',(-1.035,-0.875,0.));
#453=CARTESIAN_POINT($,(-1.035,-0.875,0.));
#454=CARTESIAN_POINT('',(-1.035,0.875,0.));
#455=CARTESIAN_POINT($,(-1.035,-0.875,0.));
#456=CARTESIAN_POINT($,(-1.035,0.875,-0.14));
#457=CARTESIAN_POINT('Origin',(-0.925,-0.875,0.));
#458=CARTESIAN_POINT('',(-1.675,-0.875,0.51));
#459=CARTESIAN_POINT($,(-1.675,-0.875,0.51));
#460=CARTESIAN_POINT('',(-1.675,-0.875,0.));
#461=CARTESIAN_POINT($,(-1.675,-0.875,0.));
#462=CARTESIAN_POINT($,(-1.675,-0.875,0.));
#463=CARTESIAN_POINT('Origin',(-1.675,-0.875,0.));
#464=CARTESIAN_POINT('',(-1.675,0.875,0.51));
#465=CARTESIAN_POINT($,(-1.675,0.875,0.51));
#466=CARTESIAN_POINT('',(-1.675,0.875,0.));
#467=CARTESIAN_POINT($,(-1.675,0.875,-0.14));
#468=CARTESIAN_POINT($,(-1.675,0.875,0.));
#469=CARTESIAN_POINT('Origin',(-1.675,0.875,-0.14));
#470=CARTESIAN_POINT($,(-0.925,0.875,0.51));
#471=CARTESIAN_POINT($,(-0.925,0.875,0.));
#472=CARTESIAN_POINT('Origin',(-1.3,0.,0.51));
#473=CARTESIAN_POINT('Origin',(-1.3,0.,0.));
#474=UNCERTAINTY_MEASURE_WITH_UNIT(LENGTH_MEASURE(0.01),#478,
'DISTANCE_ACCURACY_VALUE',
'Maximum model space distance between geometric entities at asserted c
onnectivities');
#475=UNCERTAINTY_MEASURE_WITH_UNIT(LENGTH_MEASURE(1.E-6),#478,
'DISTANCE_ACCURACY_VALUE',
'Maximum model space distance between geometric entities at asserted c
onnectivities');
#476=(
GEOMETRIC_REPRESENTATION_CONTEXT(3)
GLOBAL_UNCERTAINTY_ASSIGNED_CONTEXT((#474))
GLOBAL_UNIT_ASSIGNED_CONTEXT((#478,#480,#479))
REPRESENTATION_CONTEXT('','3D')
);
#477=(
GEOMETRIC_REPRESENTATION_CONTEXT(3)
GLOBAL_UNCERTAINTY_ASSIGNED_CONTEXT((#475))
GLOBAL_UNIT_ASSIGNED_CONTEXT((#478,#12,#479))
REPRESENTATION_CONTEXT('','3D')
);
#478=(
LENGTH_UNIT()
NAMED_UNIT(*)
SI_UNIT(.MILLI.,.METRE.)
);
#479=(
NAMED_UNIT(*)
SI_UNIT($,.STERADIAN.)
SOLID_ANGLE_UNIT()
);
#480=(
NAMED_UNIT(*)
PLANE_ANGLE_UNIT()
SI_UNIT($,.RADIAN.)
);
#481=SHAPE_DEFINITION_REPRESENTATION(#482,#483);
#482=PRODUCT_DEFINITION_SHAPE('',$,#485);
#483=SHAPE_REPRESENTATION('',(#302),#476);
#484=PRODUCT_DEFINITION_CONTEXT('part definition',#489,'design');
#485=PRODUCT_DEFINITION('Product','Product',#486,#484);
#486=PRODUCT_DEFINITION_FORMATION('',$,#491);
#487=PRODUCT_RELATED_PRODUCT_CATEGORY('Product','Product',(#491));
#488=APPLICATION_PROTOCOL_DEFINITION('international standard',
'automotive_design',2009,#489);
#489=APPLICATION_CONTEXT(
'Core Data for Automotive Mechanical Design Process');
#490=PRODUCT_CONTEXT('part definition',#489,'mechanical');
#491=PRODUCT('Product','Product',$,(#490));
#492=PRESENTATION_STYLE_ASSIGNMENT((#495));
#493=PRESENTATION_STYLE_ASSIGNMENT((#496));
#494=PRESENTATION_STYLE_ASSIGNMENT((#497));
#495=SURFACE_STYLE_USAGE(.BOTH.,#498);
#496=SURFACE_STYLE_USAGE(.BOTH.,#499);
#497=SURFACE_STYLE_USAGE(.BOTH.,#500);
#498=SURFACE_SIDE_STYLE($,(#501));
#499=SURFACE_SIDE_STYLE($,(#502));
#500=SURFACE_SIDE_STYLE($,(#503));
#501=SURFACE_STYLE_FILL_AREA(#504);
#502=SURFACE_STYLE_FILL_AREA(#505);
#503=SURFACE_STYLE_FILL_AREA(#506);
#504=FILL_AREA_STYLE($,(#507));
#505=FILL_AREA_STYLE($,(#508));
#506=FILL_AREA_STYLE($,(#509));
#507=FILL_AREA_STYLE_COLOUR($,#510);
#508=FILL_AREA_STYLE_COLOUR($,#511);
#509=FILL_AREA_STYLE_COLOUR($,#512);
#510=COLOUR_RGB('',1.,1.,1.);
#511=COLOUR_RGB('',0.329411764705882,0.329411764705882,0.329411764705882);
#512=COLOUR_RGB('',0.866666666666667,0.866666666666667,0.866666666666667);
ENDSEC;
END-ISO-10303-21;
