ISO-10303-21;
HEADER;
/****************************************************************
 * Generated by software with PDE/Lib inside                    *
 * PDE/Lib Version 3.2.2, created Thu Mar 23, 2000 at 18:38:49  *
 * International Technegroup Inc. (www.iti-oh.com)              *
 ****************************************************************/
FILE_DESCRIPTION((''),'2;1');
FILE_NAME('RESC3225X70N.stp','2009-05-27T10:21:01',(''),(''),'Mechanical Desktop 2006','Mechanical Desktop 2006',', , ');
FILE_SCHEMA(('AUTOMOTIVE_DESIGN { 1 2 10303 214 0 1 1 1 }'));
ENDSEC;
DATA;
#8=(NAMED_UNIT(*)PLANE_ANGLE_UNIT()SI_UNIT($,.RADIAN.));
#9=DIMENSIONAL_EXPONENTS(0.0,0.0,0.0,0.0,0.0,0.0,0.0);
#10=PLANE_ANGLE_MEASURE_WITH_UNIT(PLANE_ANGLE_MEASURE(0.017453292500000),#8);
#14=(CONVERSION_BASED_UNIT('DEGREE',#10)NAMED_UNIT(#9)PLANE_ANGLE_UNIT());
#18=(NAMED_UNIT(*)SI_UNIT($,.STERADIAN.)SOLID_ANGLE_UNIT());
#22=(LENGTH_UNIT()NAMED_UNIT(*)SI_UNIT(.MILLI.,.METRE.));
#23=UNCERTAINTY_MEASURE_WITH_UNIT(LENGTH_MEASURE(0.000001000000000),#22,'DISTANCE_ACCURACY_VALUE','');
#28=(GEOMETRIC_REPRESENTATION_CONTEXT(3)GLOBAL_UNCERTAINTY_ASSIGNED_CONTEXT((#23))GLOBAL_UNIT_ASSIGNED_CONTEXT((#14,#18,#22))REPRESENTATION_CONTEXT('None','None'));
#29=APPLICATION_CONTEXT('automotive design');
#30=APPLICATION_PROTOCOL_DEFINITION('DRAFT_INTERNATIONAL_STANDARD','automotive_design',1998,#29);
#31=PRODUCT_CONTEXT('3D Mechanical Parts',#29,'mechanical');
#32=PRODUCT('Product','Product','',(#31));
#33=PRODUCT_RELATED_PRODUCT_CATEGORY('part',$,(#32));
#34=PRODUCT_CATEGORY('part',$);
#35=PERSON('1','Design','Joe',$,$,$);
#36=ORGANIZATION($,'None','None');
#37=PERSON_AND_ORGANIZATION(#35,#36);
#38=PERSON_AND_ORGANIZATION_ROLE('design_owner');
#39=APPLIED_PERSON_AND_ORGANIZATION_ASSIGNMENT(#37,#38,(#32));
#40=PRODUCT_DEFINITION_FORMATION_WITH_SPECIFIED_SOURCE('None','',#32,.BOUGHT.);
#41=PERSON('2','Creator','Joe',$,$,$);
#42=ORGANIZATION($,'None','None');
#43=PERSON_AND_ORGANIZATION(#41,#42);
#44=PERSON_AND_ORGANIZATION_ROLE('creator');
#45=APPLIED_PERSON_AND_ORGANIZATION_ASSIGNMENT(#43,#44,(#40));
#46=PERSON('3','Supplier','Joe',$,$,$);
#47=ORGANIZATION($,'None','None');
#48=PERSON_AND_ORGANIZATION(#46,#47);
#49=PERSON_AND_ORGANIZATION_ROLE('design_supplier');
#50=APPLIED_PERSON_AND_ORGANIZATION_ASSIGNMENT(#48,#49,(#40));
#51=PRODUCT_DEFINITION_CONTEXT('part definition',#29,'design');
#52=PRODUCT_DEFINITION('None','',#40,#51);
#53=PERSON('4','Creator','Joe',$,$,$);
#54=ORGANIZATION($,'None','None');
#55=PERSON_AND_ORGANIZATION(#53,#54);
#56=PERSON_AND_ORGANIZATION_ROLE('creator');
#57=APPLIED_PERSON_AND_ORGANIZATION_ASSIGNMENT(#55,#56,(#52));
#58=CARTESIAN_POINT('NONE',(0.0,0.0,0.0));
#59=DIRECTION('NONE',(0.0,0.0,1.0));
#60=DIRECTION('NONE',(1.0,0.0,0.0));
#61=AXIS2_PLACEMENT_3D('NONE',#58,#59,#60);
#62=SHAPE_REPRESENTATION('SR1',(#61),#28);
#63=PRODUCT_DEFINITION_SHAPE('PDS1','Test Part',#52);
#64=SHAPE_DEFINITION_REPRESENTATION(#63,#62);
#65=CARTESIAN_POINT('',(-1.700000000000000,1.350000000000000,0.0));
#66=DIRECTION('',(0.0,1.0,0.0));
#67=DIRECTION('',(0.0,0.0,1.0));
#68=AXIS2_PLACEMENT_3D('',#65,#66,#67);
#69=PLANE('',#68);
#70=CARTESIAN_POINT('',(-1.700000000000000,1.350000000000000,0.700000000000000));
#71=VERTEX_POINT('',#70);
#72=CARTESIAN_POINT('',(-1.000000000000000,1.350000000000000,0.700000000000000));
#73=VERTEX_POINT('',#72);
#74=CARTESIAN_POINT('',(-1.700000000000000,1.350000000000000,0.700000000000000));
#75=DIRECTION('',(1.0,0.0,0.0));
#76=VECTOR('',#75,0.700000000000000);
#77=LINE('',#74,#76);
#78=EDGE_CURVE('',#71,#73,#77,.T.);
#79=ORIENTED_EDGE('',*,*,#78,.T.);
#80=CARTESIAN_POINT('',(-1.000000000000000,1.350000000000000,0.0));
#81=VERTEX_POINT('',#80);
#82=CARTESIAN_POINT('',(-1.000000000000000,1.350000000000000,0.0));
#83=DIRECTION('',(0.0,0.0,1.0));
#84=VECTOR('',#83,0.700000000000000);
#85=LINE('',#82,#84);
#86=EDGE_CURVE('',#81,#73,#85,.T.);
#87=ORIENTED_EDGE('',*,*,#86,.F.);
#88=CARTESIAN_POINT('',(-1.700000000000000,1.350000000000000,0.0));
#89=VERTEX_POINT('',#88);
#90=CARTESIAN_POINT('',(-1.700000000000000,1.350000000000000,0.0));
#91=DIRECTION('',(1.0,0.0,0.0));
#92=VECTOR('',#91,0.700000000000000);
#93=LINE('',#90,#92);
#94=EDGE_CURVE('',#89,#81,#93,.T.);
#95=ORIENTED_EDGE('',*,*,#94,.F.);
#96=CARTESIAN_POINT('',(-1.700000000000000,1.350000000000000,0.0));
#97=DIRECTION('',(0.0,0.0,1.0));
#98=VECTOR('',#97,0.700000000000000);
#99=LINE('',#96,#98);
#100=EDGE_CURVE('',#89,#71,#99,.T.);
#101=ORIENTED_EDGE('',*,*,#100,.T.);
#102=EDGE_LOOP('',(#79,#87,#95,#101));
#103=FACE_OUTER_BOUND('',#102,.T.);
#104=ADVANCED_FACE('',(#103),#69,.T.);
#105=CARTESIAN_POINT('',(-1.000000000000000,1.350000000000000,0.0));
#106=DIRECTION('',(1.0,0.0,0.0));
#107=DIRECTION('',(0.0,0.0,-1.0));
#108=AXIS2_PLACEMENT_3D('',#105,#106,#107);
#109=PLANE('',#108);
#110=CARTESIAN_POINT('',(-1.0,-1.350000000000000,0.700000000000000));
#111=VERTEX_POINT('',#110);
#112=CARTESIAN_POINT('',(-1.000000000000000,1.350000000000000,0.700000000000000));
#113=DIRECTION('',(0.0,-1.0,0.0));
#114=VECTOR('',#113,2.700000000000000);
#115=LINE('',#112,#114);
#116=EDGE_CURVE('',#73,#111,#115,.T.);
#117=ORIENTED_EDGE('',*,*,#116,.T.);
#118=CARTESIAN_POINT('',(-1.0,-1.350000000000000,0.0));
#119=VERTEX_POINT('',#118);
#120=CARTESIAN_POINT('',(-1.0,-1.350000000000000,0.0));
#121=DIRECTION('',(0.0,0.0,1.0));
#122=VECTOR('',#121,0.700000000000000);
#123=LINE('',#120,#122);
#124=EDGE_CURVE('',#119,#111,#123,.T.);
#125=ORIENTED_EDGE('',*,*,#124,.F.);
#126=CARTESIAN_POINT('',(-1.000000000000000,1.350000000000000,0.0));
#127=DIRECTION('',(0.0,-1.0,0.0));
#128=VECTOR('',#127,2.700000000000000);
#129=LINE('',#126,#128);
#130=EDGE_CURVE('',#81,#119,#129,.T.);
#131=ORIENTED_EDGE('',*,*,#130,.F.);
#132=ORIENTED_EDGE('',*,*,#86,.T.);
#133=EDGE_LOOP('',(#117,#125,#131,#132));
#134=FACE_OUTER_BOUND('',#133,.T.);
#135=ADVANCED_FACE('',(#134),#109,.T.);
#136=CARTESIAN_POINT('',(-1.0,-1.350000000000000,0.0));
#137=DIRECTION('',(0.0,-1.0,0.0));
#138=DIRECTION('',(0.0,0.0,-1.0));
#139=AXIS2_PLACEMENT_3D('',#136,#137,#138);
#140=PLANE('',#139);
#141=CARTESIAN_POINT('',(-1.700000000000000,-1.350000000000000,0.700000000000000));
#142=VERTEX_POINT('',#141);
#143=CARTESIAN_POINT('',(-1.0,-1.350000000000000,0.700000000000000));
#144=DIRECTION('',(-1.0,0.0,0.0));
#145=VECTOR('',#144,0.700000000000000);
#146=LINE('',#143,#145);
#147=EDGE_CURVE('',#111,#142,#146,.T.);
#148=ORIENTED_EDGE('',*,*,#147,.T.);
#149=CARTESIAN_POINT('',(-1.700000000000000,-1.350000000000000,0.0));
#150=VERTEX_POINT('',#149);
#151=CARTESIAN_POINT('',(-1.700000000000000,-1.350000000000000,0.0));
#152=DIRECTION('',(0.0,0.0,1.0));
#153=VECTOR('',#152,0.700000000000000);
#154=LINE('',#151,#153);
#155=EDGE_CURVE('',#150,#142,#154,.T.);
#156=ORIENTED_EDGE('',*,*,#155,.F.);
#157=CARTESIAN_POINT('',(-1.0,-1.350000000000000,0.0));
#158=DIRECTION('',(-1.0,0.0,0.0));
#159=VECTOR('',#158,0.700000000000000);
#160=LINE('',#157,#159);
#161=EDGE_CURVE('',#119,#150,#160,.T.);
#162=ORIENTED_EDGE('',*,*,#161,.F.);
#163=ORIENTED_EDGE('',*,*,#124,.T.);
#164=EDGE_LOOP('',(#148,#156,#162,#163));
#165=FACE_OUTER_BOUND('',#164,.T.);
#166=ADVANCED_FACE('',(#165),#140,.T.);
#167=CARTESIAN_POINT('',(-1.700000000000000,-1.350000000000000,0.0));
#168=DIRECTION('',(-1.0,0.0,0.0));
#169=DIRECTION('',(0.0,0.0,1.0));
#170=AXIS2_PLACEMENT_3D('',#167,#168,#169);
#171=PLANE('',#170);
#172=CARTESIAN_POINT('',(-1.700000000000000,-1.350000000000000,0.700000000000000));
#173=DIRECTION('',(0.0,1.0,0.0));
#174=VECTOR('',#173,2.700000000000000);
#175=LINE('',#172,#174);
#176=EDGE_CURVE('',#142,#71,#175,.T.);
#177=ORIENTED_EDGE('',*,*,#176,.T.);
#178=ORIENTED_EDGE('',*,*,#100,.F.);
#179=CARTESIAN_POINT('',(-1.700000000000000,-1.350000000000000,0.0));
#180=DIRECTION('',(0.0,1.0,0.0));
#181=VECTOR('',#180,2.700000000000000);
#182=LINE('',#179,#181);
#183=EDGE_CURVE('',#150,#89,#182,.T.);
#184=ORIENTED_EDGE('',*,*,#183,.F.);
#185=ORIENTED_EDGE('',*,*,#155,.T.);
#186=EDGE_LOOP('',(#177,#178,#184,#185));
#187=FACE_OUTER_BOUND('',#186,.T.);
#188=ADVANCED_FACE('',(#187),#171,.T.);
#189=CARTESIAN_POINT('',(-1.349999999999999,0.0,0.700000000000000));
#190=DIRECTION('',(0.0,0.0,1.0));
#191=DIRECTION('',(1.0,0.0,0.0));
#192=AXIS2_PLACEMENT_3D('',#189,#190,#191);
#193=PLANE('',#192);
#194=ORIENTED_EDGE('',*,*,#78,.F.);
#195=ORIENTED_EDGE('',*,*,#176,.F.);
#196=ORIENTED_EDGE('',*,*,#147,.F.);
#197=ORIENTED_EDGE('',*,*,#116,.F.);
#198=EDGE_LOOP('',(#194,#195,#196,#197));
#199=FACE_OUTER_BOUND('',#198,.T.);
#200=ADVANCED_FACE('',(#199),#193,.T.);
#201=CARTESIAN_POINT('',(-1.349999999999999,0.0,0.0));
#202=DIRECTION('',(0.0,0.0,1.0));
#203=DIRECTION('',(1.0,0.0,0.0));
#204=AXIS2_PLACEMENT_3D('',#201,#202,#203);
#205=PLANE('',#204);
#206=ORIENTED_EDGE('',*,*,#183,.T.);
#207=ORIENTED_EDGE('',*,*,#94,.T.);
#208=ORIENTED_EDGE('',*,*,#130,.T.);
#209=ORIENTED_EDGE('',*,*,#161,.T.);
#210=EDGE_LOOP('',(#206,#207,#208,#209));
#211=FACE_OUTER_BOUND('',#210,.T.);
#212=ADVANCED_FACE('',(#211),#205,.F.);
#213=CLOSED_SHELL('',(#104,#135,#166,#188,#200,#212));
#214=MANIFOLD_SOLID_BREP('45F',#213);
#215=COLOUR_RGB('254',0.866000000000000,0.866000000000000,0.866000000000000);
#216=SURFACE_STYLE_USAGE(.BOTH.,#217);
#217=SURFACE_SIDE_STYLE('NONE',(#218));
#218=SURFACE_STYLE_FILL_AREA(#219);
#219=FILL_AREA_STYLE('NONE',(#220));
#220=FILL_AREA_STYLE_COLOUR('NONE',#215);
#221=PRESENTATION_STYLE_ASSIGNMENT((#216));
#222=STYLED_ITEM('NONE',(#221),#214);
#223=MECHANICAL_DESIGN_GEOMETRIC_PRESENTATION_REPRESENTATION('NONE',(#222,#375,#533),#28);
#224=PRESENTATION_LAYER_ASSIGNMENT('3D','None',(#214,#374,#525));
#225=CARTESIAN_POINT('',(1.0,1.350000000000000,0.0));
#226=DIRECTION('',(0.0,1.0,0.0));
#227=DIRECTION('',(0.0,0.0,1.0));
#228=AXIS2_PLACEMENT_3D('',#225,#226,#227);
#229=PLANE('',#228);
#230=CARTESIAN_POINT('',(1.0,1.350000000000000,0.700000000000000));
#231=VERTEX_POINT('',#230);
#232=CARTESIAN_POINT('',(1.700000000000000,1.350000000000000,0.700000000000000));
#233=VERTEX_POINT('',#232);
#234=CARTESIAN_POINT('',(1.0,1.350000000000000,0.700000000000000));
#235=DIRECTION('',(1.0,0.0,0.0));
#236=VECTOR('',#235,0.700000000000000);
#237=LINE('',#234,#236);
#238=EDGE_CURVE('',#231,#233,#237,.T.);
#239=ORIENTED_EDGE('',*,*,#238,.T.);
#240=CARTESIAN_POINT('',(1.700000000000000,1.350000000000000,0.0));
#241=VERTEX_POINT('',#240);
#242=CARTESIAN_POINT('',(1.700000000000000,1.350000000000000,0.0));
#243=DIRECTION('',(0.0,0.0,1.0));
#244=VECTOR('',#243,0.700000000000000);
#245=LINE('',#242,#244);
#246=EDGE_CURVE('',#241,#233,#245,.T.);
#247=ORIENTED_EDGE('',*,*,#246,.F.);
#248=CARTESIAN_POINT('',(1.0,1.350000000000000,0.0));
#249=VERTEX_POINT('',#248);
#250=CARTESIAN_POINT('',(1.0,1.350000000000000,0.0));
#251=DIRECTION('',(1.0,0.0,0.0));
#252=VECTOR('',#251,0.700000000000000);
#253=LINE('',#250,#252);
#254=EDGE_CURVE('',#249,#241,#253,.T.);
#255=ORIENTED_EDGE('',*,*,#254,.F.);
#256=CARTESIAN_POINT('',(1.0,1.350000000000000,0.0));
#257=DIRECTION('',(0.0,0.0,1.0));
#258=VECTOR('',#257,0.700000000000000);
#259=LINE('',#256,#258);
#260=EDGE_CURVE('',#249,#231,#259,.T.);
#261=ORIENTED_EDGE('',*,*,#260,.T.);
#262=EDGE_LOOP('',(#239,#247,#255,#261));
#263=FACE_OUTER_BOUND('',#262,.T.);
#264=ADVANCED_FACE('',(#263),#229,.T.);
#265=CARTESIAN_POINT('',(1.700000000000000,1.350000000000000,0.0));
#266=DIRECTION('',(1.0,0.0,0.0));
#267=DIRECTION('',(0.0,0.0,-1.0));
#268=AXIS2_PLACEMENT_3D('',#265,#266,#267);
#269=PLANE('',#268);
#270=CARTESIAN_POINT('',(1.700000000000000,-1.350000000000000,0.700000000000000));
#271=VERTEX_POINT('',#270);
#272=CARTESIAN_POINT('',(1.700000000000000,1.350000000000000,0.700000000000000));
#273=DIRECTION('',(0.0,-1.0,0.0));
#274=VECTOR('',#273,2.700000000000000);
#275=LINE('',#272,#274);
#276=EDGE_CURVE('',#233,#271,#275,.T.);
#277=ORIENTED_EDGE('',*,*,#276,.T.);
#278=CARTESIAN_POINT('',(1.700000000000000,-1.350000000000000,0.0));
#279=VERTEX_POINT('',#278);
#280=CARTESIAN_POINT('',(1.700000000000000,-1.350000000000000,0.0));
#281=DIRECTION('',(0.0,0.0,1.0));
#282=VECTOR('',#281,0.700000000000000);
#283=LINE('',#280,#282);
#284=EDGE_CURVE('',#279,#271,#283,.T.);
#285=ORIENTED_EDGE('',*,*,#284,.F.);
#286=CARTESIAN_POINT('',(1.700000000000000,1.350000000000000,0.0));
#287=DIRECTION('',(0.0,-1.0,0.0));
#288=VECTOR('',#287,2.700000000000000);
#289=LINE('',#286,#288);
#290=EDGE_CURVE('',#241,#279,#289,.T.);
#291=ORIENTED_EDGE('',*,*,#290,.F.);
#292=ORIENTED_EDGE('',*,*,#246,.T.);
#293=EDGE_LOOP('',(#277,#285,#291,#292));
#294=FACE_OUTER_BOUND('',#293,.T.);
#295=ADVANCED_FACE('',(#294),#269,.T.);
#296=CARTESIAN_POINT('',(1.700000000000000,-1.350000000000000,0.0));
#297=DIRECTION('',(0.0,-1.0,0.0));
#298=DIRECTION('',(0.0,0.0,-1.0));
#299=AXIS2_PLACEMENT_3D('',#296,#297,#298);
#300=PLANE('',#299);
#301=CARTESIAN_POINT('',(1.0,-1.350000000000000,0.700000000000000));
#302=VERTEX_POINT('',#301);
#303=CARTESIAN_POINT('',(1.700000000000000,-1.350000000000000,0.700000000000000));
#304=DIRECTION('',(-1.0,0.0,0.0));
#305=VECTOR('',#304,0.700000000000000);
#306=LINE('',#303,#305);
#307=EDGE_CURVE('',#271,#302,#306,.T.);
#308=ORIENTED_EDGE('',*,*,#307,.T.);
#309=CARTESIAN_POINT('',(1.0,-1.350000000000000,0.0));
#310=VERTEX_POINT('',#309);
#311=CARTESIAN_POINT('',(1.0,-1.350000000000000,0.0));
#312=DIRECTION('',(0.0,0.0,1.0));
#313=VECTOR('',#312,0.700000000000000);
#314=LINE('',#311,#313);
#315=EDGE_CURVE('',#310,#302,#314,.T.);
#316=ORIENTED_EDGE('',*,*,#315,.F.);
#317=CARTESIAN_POINT('',(1.700000000000000,-1.350000000000000,0.0));
#318=DIRECTION('',(-1.0,0.0,0.0));
#319=VECTOR('',#318,0.700000000000000);
#320=LINE('',#317,#319);
#321=EDGE_CURVE('',#279,#310,#320,.T.);
#322=ORIENTED_EDGE('',*,*,#321,.F.);
#323=ORIENTED_EDGE('',*,*,#284,.T.);
#324=EDGE_LOOP('',(#308,#316,#322,#323));
#325=FACE_OUTER_BOUND('',#324,.T.);
#326=ADVANCED_FACE('',(#325),#300,.T.);
#327=CARTESIAN_POINT('',(1.0,-1.350000000000000,0.0));
#328=DIRECTION('',(-1.0,0.0,0.0));
#329=DIRECTION('',(0.0,0.0,1.0));
#330=AXIS2_PLACEMENT_3D('',#327,#328,#329);
#331=PLANE('',#330);
#332=CARTESIAN_POINT('',(1.0,-1.350000000000000,0.700000000000000));
#333=DIRECTION('',(0.0,1.0,0.0));
#334=VECTOR('',#333,2.700000000000000);
#335=LINE('',#332,#334);
#336=EDGE_CURVE('',#302,#231,#335,.T.);
#337=ORIENTED_EDGE('',*,*,#336,.T.);
#338=ORIENTED_EDGE('',*,*,#260,.F.);
#339=CARTESIAN_POINT('',(1.0,-1.350000000000000,0.0));
#340=DIRECTION('',(0.0,1.0,0.0));
#341=VECTOR('',#340,2.700000000000000);
#342=LINE('',#339,#341);
#343=EDGE_CURVE('',#310,#249,#342,.T.);
#344=ORIENTED_EDGE('',*,*,#343,.F.);
#345=ORIENTED_EDGE('',*,*,#315,.T.);
#346=EDGE_LOOP('',(#337,#338,#344,#345));
#347=FACE_OUTER_BOUND('',#346,.T.);
#348=ADVANCED_FACE('',(#347),#331,.T.);
#349=CARTESIAN_POINT('',(1.350000000000000,1.110223E-016,0.700000000000000));
#350=DIRECTION('',(0.0,0.0,1.0));
#351=DIRECTION('',(1.0,0.0,0.0));
#352=AXIS2_PLACEMENT_3D('',#349,#350,#351);
#353=PLANE('',#352);
#354=ORIENTED_EDGE('',*,*,#238,.F.);
#355=ORIENTED_EDGE('',*,*,#336,.F.);
#356=ORIENTED_EDGE('',*,*,#307,.F.);
#357=ORIENTED_EDGE('',*,*,#276,.F.);
#358=EDGE_LOOP('',(#354,#355,#356,#357));
#359=FACE_OUTER_BOUND('',#358,.T.);
#360=ADVANCED_FACE('',(#359),#353,.T.);
#361=CARTESIAN_POINT('',(1.350000000000000,1.110223E-016,0.0));
#362=DIRECTION('',(0.0,0.0,1.0));
#363=DIRECTION('',(1.0,0.0,0.0));
#364=AXIS2_PLACEMENT_3D('',#361,#362,#363);
#365=PLANE('',#364);
#366=ORIENTED_EDGE('',*,*,#343,.T.);
#367=ORIENTED_EDGE('',*,*,#254,.T.);
#368=ORIENTED_EDGE('',*,*,#290,.T.);
#369=ORIENTED_EDGE('',*,*,#321,.T.);
#370=EDGE_LOOP('',(#366,#367,#368,#369));
#371=FACE_OUTER_BOUND('',#370,.T.);
#372=ADVANCED_FACE('',(#371),#365,.F.);
#373=CLOSED_SHELL('',(#264,#295,#326,#348,#360,#372));
#374=MANIFOLD_SOLID_BREP('45E',#373);
#375=STYLED_ITEM('NONE',(#221),#374);
#376=CARTESIAN_POINT('',(-1.0,-1.350000000000000,0.0));
#377=DIRECTION('',(-1.0,0.0,0.0));
#378=DIRECTION('',(0.0,0.0,1.0));
#379=AXIS2_PLACEMENT_3D('',#376,#377,#378);
#380=PLANE('',#379);
#381=CARTESIAN_POINT('',(-1.0,-1.350000000000000,0.700000000000000));
#382=VERTEX_POINT('',#381);
#383=CARTESIAN_POINT('',(-1.000000000000000,1.350000000000000,0.700000000000000));
#384=VERTEX_POINT('',#383);
#385=CARTESIAN_POINT('',(-1.0,-1.350000000000000,0.700000000000000));
#386=DIRECTION('',(0.0,1.0,0.0));
#387=VECTOR('',#386,2.700000000000000);
#388=LINE('',#385,#387);
#389=EDGE_CURVE('',#382,#384,#388,.T.);
#390=ORIENTED_EDGE('',*,*,#389,.T.);
#391=CARTESIAN_POINT('',(-1.000000000000000,1.350000000000000,0.0));
#392=VERTEX_POINT('',#391);
#393=CARTESIAN_POINT('',(-1.000000000000000,1.350000000000000,0.0));
#394=DIRECTION('',(0.0,0.0,1.0));
#395=VECTOR('',#394,0.700000000000000);
#396=LINE('',#393,#395);
#397=EDGE_CURVE('',#392,#384,#396,.T.);
#398=ORIENTED_EDGE('',*,*,#397,.F.);
#399=CARTESIAN_POINT('',(-1.0,-1.350000000000000,0.0));
#400=VERTEX_POINT('',#399);
#401=CARTESIAN_POINT('',(-1.0,-1.350000000000000,0.0));
#402=DIRECTION('',(0.0,1.0,0.0));
#403=VECTOR('',#402,2.700000000000000);
#404=LINE('',#401,#403);
#405=EDGE_CURVE('',#400,#392,#404,.T.);
#406=ORIENTED_EDGE('',*,*,#405,.F.);
#407=CARTESIAN_POINT('',(-1.0,-1.350000000000000,0.0));
#408=DIRECTION('',(0.0,0.0,1.0));
#409=VECTOR('',#408,0.700000000000000);
#410=LINE('',#407,#409);
#411=EDGE_CURVE('',#400,#382,#410,.T.);
#412=ORIENTED_EDGE('',*,*,#411,.T.);
#413=EDGE_LOOP('',(#390,#398,#406,#412));
#414=FACE_OUTER_BOUND('',#413,.T.);
#415=ADVANCED_FACE('',(#414),#380,.T.);
#416=CARTESIAN_POINT('',(-1.000000000000000,1.350000000000000,0.0));
#417=DIRECTION('',(0.0,1.0,0.0));
#418=DIRECTION('',(0.0,0.0,1.0));
#419=AXIS2_PLACEMENT_3D('',#416,#417,#418);
#420=PLANE('',#419);
#421=CARTESIAN_POINT('',(1.0,1.350000000000000,0.700000000000000));
#422=VERTEX_POINT('',#421);
#423=CARTESIAN_POINT('',(-1.000000000000000,1.350000000000000,0.700000000000000));
#424=DIRECTION('',(1.0,0.0,0.0));
#425=VECTOR('',#424,2.0);
#426=LINE('',#423,#425);
#427=EDGE_CURVE('',#384,#422,#426,.T.);
#428=ORIENTED_EDGE('',*,*,#427,.T.);
#429=CARTESIAN_POINT('',(1.0,1.350000000000000,0.0));
#430=VERTEX_POINT('',#429);
#431=CARTESIAN_POINT('',(1.0,1.350000000000000,0.0));
#432=DIRECTION('',(0.0,0.0,1.0));
#433=VECTOR('',#432,0.700000000000000);
#434=LINE('',#431,#433);
#435=EDGE_CURVE('',#430,#422,#434,.T.);
#436=ORIENTED_EDGE('',*,*,#435,.F.);
#437=CARTESIAN_POINT('',(-1.000000000000000,1.350000000000000,0.0));
#438=DIRECTION('',(1.0,0.0,0.0));
#439=VECTOR('',#438,2.0);
#440=LINE('',#437,#439);
#441=EDGE_CURVE('',#392,#430,#440,.T.);
#442=ORIENTED_EDGE('',*,*,#441,.F.);
#443=ORIENTED_EDGE('',*,*,#397,.T.);
#444=EDGE_LOOP('',(#428,#436,#442,#443));
#445=FACE_OUTER_BOUND('',#444,.T.);
#446=ADVANCED_FACE('',(#445),#420,.T.);
#447=CARTESIAN_POINT('',(1.0,1.350000000000000,0.0));
#448=DIRECTION('',(1.0,0.0,0.0));
#449=DIRECTION('',(0.0,0.0,-1.0));
#450=AXIS2_PLACEMENT_3D('',#447,#448,#449);
#451=PLANE('',#450);
#452=CARTESIAN_POINT('',(1.0,-1.350000000000000,0.700000000000000));
#453=VERTEX_POINT('',#452);
#454=CARTESIAN_POINT('',(1.0,1.350000000000000,0.700000000000000));
#455=DIRECTION('',(0.0,-1.0,0.0));
#456=VECTOR('',#455,2.700000000000000);
#457=LINE('',#454,#456);
#458=EDGE_CURVE('',#422,#453,#457,.T.);
#459=ORIENTED_EDGE('',*,*,#458,.T.);
#460=CARTESIAN_POINT('',(1.0,-1.350000000000000,0.0));
#461=VERTEX_POINT('',#460);
#462=CARTESIAN_POINT('',(1.0,-1.350000000000000,0.0));
#463=DIRECTION('',(0.0,0.0,1.0));
#464=VECTOR('',#463,0.700000000000000);
#465=LINE('',#462,#464);
#466=EDGE_CURVE('',#461,#453,#465,.T.);
#467=ORIENTED_EDGE('',*,*,#466,.F.);
#468=CARTESIAN_POINT('',(1.0,1.350000000000000,0.0));
#469=DIRECTION('',(0.0,-1.0,0.0));
#470=VECTOR('',#469,2.700000000000000);
#471=LINE('',#468,#470);
#472=EDGE_CURVE('',#430,#461,#471,.T.);
#473=ORIENTED_EDGE('',*,*,#472,.F.);
#474=ORIENTED_EDGE('',*,*,#435,.T.);
#475=EDGE_LOOP('',(#459,#467,#473,#474));
#476=FACE_OUTER_BOUND('',#475,.T.);
#477=ADVANCED_FACE('',(#476),#451,.T.);
#478=CARTESIAN_POINT('',(1.0,-1.350000000000000,0.0));
#479=DIRECTION('',(0.0,-1.0,0.0));
#480=DIRECTION('',(0.0,0.0,-1.0));
#481=AXIS2_PLACEMENT_3D('',#478,#479,#480);
#482=PLANE('',#481);
#483=CARTESIAN_POINT('',(1.0,-1.350000000000000,0.700000000000000));
#484=DIRECTION('',(-1.0,0.0,0.0));
#485=VECTOR('',#484,2.0);
#486=LINE('',#483,#485);
#487=EDGE_CURVE('',#453,#382,#486,.T.);
#488=ORIENTED_EDGE('',*,*,#487,.T.);
#489=ORIENTED_EDGE('',*,*,#411,.F.);
#490=CARTESIAN_POINT('',(1.0,-1.350000000000000,0.0));
#491=DIRECTION('',(-1.0,0.0,0.0));
#492=VECTOR('',#491,2.0);
#493=LINE('',#490,#492);
#494=EDGE_CURVE('',#461,#400,#493,.T.);
#495=ORIENTED_EDGE('',*,*,#494,.F.);
#496=ORIENTED_EDGE('',*,*,#466,.T.);
#497=EDGE_LOOP('',(#488,#489,#495,#496));
#498=FACE_OUTER_BOUND('',#497,.T.);
#499=ADVANCED_FACE('',(#498),#482,.T.);
#500=CARTESIAN_POINT('',(0.0,0.0,0.700000000000000));
#501=DIRECTION('',(0.0,0.0,1.0));
#502=DIRECTION('',(1.0,0.0,0.0));
#503=AXIS2_PLACEMENT_3D('',#500,#501,#502);
#504=PLANE('',#503);
#505=ORIENTED_EDGE('',*,*,#389,.F.);
#506=ORIENTED_EDGE('',*,*,#487,.F.);
#507=ORIENTED_EDGE('',*,*,#458,.F.);
#508=ORIENTED_EDGE('',*,*,#427,.F.);
#509=EDGE_LOOP('',(#505,#506,#507,#508));
#510=FACE_OUTER_BOUND('',#509,.T.);
#511=ADVANCED_FACE('',(#510),#504,.T.);
#512=CARTESIAN_POINT('',(0.0,0.0,0.0));
#513=DIRECTION('',(0.0,0.0,1.0));
#514=DIRECTION('',(1.0,0.0,0.0));
#515=AXIS2_PLACEMENT_3D('',#512,#513,#514);
#516=PLANE('',#515);
#517=ORIENTED_EDGE('',*,*,#494,.T.);
#518=ORIENTED_EDGE('',*,*,#405,.T.);
#519=ORIENTED_EDGE('',*,*,#441,.T.);
#520=ORIENTED_EDGE('',*,*,#472,.T.);
#521=EDGE_LOOP('',(#517,#518,#519,#520));
#522=FACE_OUTER_BOUND('',#521,.T.);
#523=ADVANCED_FACE('',(#522),#516,.F.);
#524=CLOSED_SHELL('',(#415,#446,#477,#499,#511,#523));
#525=MANIFOLD_SOLID_BREP('45D',#524);
#526=COLOUR_RGB('250',0.330000000000000,0.330000000000000,0.330000000000000);
#527=SURFACE_STYLE_USAGE(.BOTH.,#528);
#528=SURFACE_SIDE_STYLE('NONE',(#529));
#529=SURFACE_STYLE_FILL_AREA(#530);
#530=FILL_AREA_STYLE('NONE',(#531));
#531=FILL_AREA_STYLE_COLOUR('NONE',#526);
#532=PRESENTATION_STYLE_ASSIGNMENT((#527));
#533=STYLED_ITEM('NONE',(#532),#525);
#534=ADVANCED_BREP_SHAPE_REPRESENTATION('ABSR1',(#214,#374,#525),#28);
#535=SHAPE_REPRESENTATION_RELATIONSHIP('SRRPL1','',#534,#62);
ENDSEC;
END-ISO-10303-21;
