ISO-10303-21;
HEADER;
/****************************************************************
 * Generated by software with PDElib inside                    *
 * PDElib Version v51a, created Fri 09/10/2010                  *
 * ITI Transcendata (http://www.transcendata.com/)              *
 ****************************************************************/
FILE_DESCRIPTION((''),'2;1');
FILE_NAME('SAMTEC_TS-101-T-A.stp','2014-02-03T14:58:30',(''),(''),'Mechanical Desktop 2011','Mechanical Desktop 2011',', , ');
FILE_SCHEMA(('AUTOMOTIVE_DESIGN { 1 2 10303 214 1 1 1 1 }'));
ENDSEC;
DATA;
#10=(NAMED_UNIT(*)PLANE_ANGLE_UNIT()SI_UNIT($,.RADIAN.));
#11=DIMENSIONAL_EXPONENTS(0.0,0.0,0.0,0.0,0.0,0.0,0.0);
#12=PLANE_ANGLE_MEASURE_WITH_UNIT(PLANE_ANGLE_MEASURE(0.0174532925),#10);
#16=(CONVERSION_BASED_UNIT('DEGREE',#12)NAMED_UNIT(#11)PLANE_ANGLE_UNIT());
#20=(NAMED_UNIT(*)SI_UNIT($,.STERADIAN.)SOLID_ANGLE_UNIT());
#24=(LENGTH_UNIT()NAMED_UNIT(*)SI_UNIT(.MILLI.,.METRE.));
#26=UNCERTAINTY_MEASURE_WITH_UNIT(LENGTH_MEASURE(0.000001),#24,'DISTANCE_ACCURACY_VALUE','');
#28=(GEOMETRIC_REPRESENTATION_CONTEXT(3)GLOBAL_UNCERTAINTY_ASSIGNED_CONTEXT((#26))GLOBAL_UNIT_ASSIGNED_CONTEXT((#16,#20,#24))REPRESENTATION_CONTEXT('','3D'));
#29=APPLICATION_CONTEXT('automotive design');
#30=APPLICATION_PROTOCOL_DEFINITION('INTERNATIONAL_STANDARD','automotive_design',1998,#29);
#31=PRODUCT_CONTEXT('3D Mechanical Parts',#29,'mechanical');
#32=PRODUCT('Product','Product','',(#31));
#33=PRODUCT_RELATED_PRODUCT_CATEGORY('part',$,(#32));
#34=PRODUCT_CATEGORY('part',$);
#35=PERSON('1','Design','Joe',$,$,$);
#36=ORGANIZATION($,'None','None');
#37=PERSON_AND_ORGANIZATION(#35,#36);
#38=PERSON_AND_ORGANIZATION_ROLE('design_owner');
#39=APPLIED_PERSON_AND_ORGANIZATION_ASSIGNMENT(#37,#38,(#32));
#40=PRODUCT_DEFINITION_FORMATION_WITH_SPECIFIED_SOURCE('None','',#32,.BOUGHT.);
#41=PERSON('2','Creator','Joe',$,$,$);
#42=ORGANIZATION($,'None','None');
#43=PERSON_AND_ORGANIZATION(#41,#42);
#44=PERSON_AND_ORGANIZATION_ROLE('creator');
#45=APPLIED_PERSON_AND_ORGANIZATION_ASSIGNMENT(#43,#44,(#40));
#46=PERSON('3','Supplier','Joe',$,$,$);
#47=ORGANIZATION($,'None','None');
#48=PERSON_AND_ORGANIZATION(#46,#47);
#49=PERSON_AND_ORGANIZATION_ROLE('design_supplier');
#50=APPLIED_PERSON_AND_ORGANIZATION_ASSIGNMENT(#48,#49,(#40));
#51=PRODUCT_DEFINITION_CONTEXT('part definition',#29,'design');
#52=PRODUCT_DEFINITION('None','',#40,#51);
#53=PERSON('4','Creator','Joe',$,$,$);
#54=ORGANIZATION($,'None','None');
#55=PERSON_AND_ORGANIZATION(#53,#54);
#56=PERSON_AND_ORGANIZATION_ROLE('creator');
#57=APPLIED_PERSON_AND_ORGANIZATION_ASSIGNMENT(#55,#56,(#52));
#58=CARTESIAN_POINT('NONE',(0.0,0.0,0.0));
#59=DIRECTION('NONE',(0.0,0.0,1.0));
#60=DIRECTION('NONE',(1.0,0.0,0.0));
#61=AXIS2_PLACEMENT_3D('NONE',#58,#59,#60);
#62=SHAPE_REPRESENTATION('SR1',(#61),#28);
#63=PRODUCT_DEFINITION_SHAPE('PDS1','Test Part',#52);
#64=SHAPE_DEFINITION_REPRESENTATION(#63,#62);
#65=CARTESIAN_POINT('',(-1.06582271536749,1.27,2.666999999999999));
#66=DIRECTION('',(-0.96592582628907,0.258819045102513,0.0));
#67=DIRECTION('',(0.0,0.0,1.0));
#68=AXIS2_PLACEMENT_3D('',#65,#66,#67);
#69=PLANE('',#68);
#70=CARTESIAN_POINT('',(-1.06582271536749,1.27,0.126999999999998));
#71=VERTEX_POINT('',#70);
#72=CARTESIAN_POINT('',(-1.269999999999999,0.508000000000001,0.126999999999998));
#73=VERTEX_POINT('',#72);
#74=CARTESIAN_POINT('',(-1.06582271536749,1.270000000000001,0.126999999999999));
#75=DIRECTION('',(-0.258819045102513,-0.96592582628907,0.0));
#76=VECTOR('',#75,0.788880449472482);
#77=LINE('',#74,#76);
#78=EDGE_CURVE('',#71,#73,#77,.T.);
#79=ORIENTED_EDGE('',*,*,#78,.T.);
#80=CARTESIAN_POINT('',(-1.269999999999999,0.508000000000001,2.666999999999999));
#81=VERTEX_POINT('',#80);
#82=CARTESIAN_POINT('',(-1.269999999999999,0.508000000000001,2.666999999999999));
#83=DIRECTION('',(0.0,0.0,-1.0));
#84=VECTOR('',#83,2.540000000000001);
#85=LINE('',#82,#84);
#86=EDGE_CURVE('',#81,#73,#85,.T.);
#87=ORIENTED_EDGE('',*,*,#86,.F.);
#88=CARTESIAN_POINT('',(-1.06582271536749,1.27,2.666999999999999));
#89=VERTEX_POINT('',#88);
#90=CARTESIAN_POINT('',(-1.269999999999999,0.508000000000001,2.666999999999999));
#91=DIRECTION('',(0.258819045102513,0.96592582628907,0.0));
#92=VECTOR('',#91,0.788880449472481);
#93=LINE('',#90,#92);
#94=EDGE_CURVE('',#81,#89,#93,.T.);
#95=ORIENTED_EDGE('',*,*,#94,.T.);
#96=CARTESIAN_POINT('',(-1.06582271536749,1.27,2.666999999999999));
#97=DIRECTION('',(0.0,0.0,-1.0));
#98=VECTOR('',#97,2.540000000000001);
#99=LINE('',#96,#98);
#100=EDGE_CURVE('',#89,#71,#99,.T.);
#101=ORIENTED_EDGE('',*,*,#100,.T.);
#102=EDGE_LOOP('',(#79,#87,#95,#101));
#103=FACE_OUTER_BOUND('',#102,.T.);
#104=ADVANCED_FACE('',(#103),#69,.T.);
#105=CARTESIAN_POINT('',(-1.269999999999999,0.508000000000001,2.666999999999999));
#106=DIRECTION('',(-1.0,0.0,0.0));
#107=DIRECTION('',(0.0,0.0,1.0));
#108=AXIS2_PLACEMENT_3D('',#105,#106,#107);
#109=PLANE('',#108);
#110=CARTESIAN_POINT('',(-1.269999999999999,-0.507999999999999,0.126999999999998));
#111=VERTEX_POINT('',#110);
#112=CARTESIAN_POINT('',(-1.269999999999999,0.508000000000001,0.126999999999999));
#113=DIRECTION('',(0.0,-1.0,0.0));
#114=VECTOR('',#113,1.016);
#115=LINE('',#112,#114);
#116=EDGE_CURVE('',#73,#111,#115,.T.);
#117=ORIENTED_EDGE('',*,*,#116,.T.);
#118=CARTESIAN_POINT('',(-1.269999999999999,-0.507999999999999,2.666999999999999));
#119=VERTEX_POINT('',#118);
#120=CARTESIAN_POINT('',(-1.269999999999999,-0.507999999999999,2.666999999999999));
#121=DIRECTION('',(0.0,0.0,-1.0));
#122=VECTOR('',#121,2.540000000000001);
#123=LINE('',#120,#122);
#124=EDGE_CURVE('',#119,#111,#123,.T.);
#125=ORIENTED_EDGE('',*,*,#124,.F.);
#126=CARTESIAN_POINT('',(-1.269999999999999,-0.507999999999999,2.666999999999999));
#127=DIRECTION('',(0.0,1.0,0.0));
#128=VECTOR('',#127,1.016);
#129=LINE('',#126,#128);
#130=EDGE_CURVE('',#119,#81,#129,.T.);
#131=ORIENTED_EDGE('',*,*,#130,.T.);
#132=ORIENTED_EDGE('',*,*,#86,.T.);
#133=EDGE_LOOP('',(#117,#125,#131,#132));
#134=FACE_OUTER_BOUND('',#133,.T.);
#135=ADVANCED_FACE('',(#134),#109,.T.);
#136=CARTESIAN_POINT('',(-1.269999999999999,-0.507999999999999,2.666999999999999));
#137=DIRECTION('',(-0.96592582628907,-0.258819045102514,0.0));
#138=DIRECTION('',(0.0,0.0,1.0));
#139=AXIS2_PLACEMENT_3D('',#136,#137,#138);
#140=PLANE('',#139);
#141=CARTESIAN_POINT('',(-1.065822715367489,-1.269999999999999,0.126999999999998));
#142=VERTEX_POINT('',#141);
#143=CARTESIAN_POINT('',(-1.269999999999999,-0.507999999999999,0.126999999999999));
#144=DIRECTION('',(0.258819045102514,-0.96592582628907,0.0));
#145=VECTOR('',#144,0.788880449472481);
#146=LINE('',#143,#145);
#147=EDGE_CURVE('',#111,#142,#146,.T.);
#148=ORIENTED_EDGE('',*,*,#147,.T.);
#149=CARTESIAN_POINT('',(-1.065822715367489,-1.269999999999999,2.666999999999999));
#150=VERTEX_POINT('',#149);
#151=CARTESIAN_POINT('',(-1.065822715367489,-1.269999999999999,2.666999999999999));
#152=DIRECTION('',(0.0,0.0,-1.0));
#153=VECTOR('',#152,2.540000000000001);
#154=LINE('',#151,#153);
#155=EDGE_CURVE('',#150,#142,#154,.T.);
#156=ORIENTED_EDGE('',*,*,#155,.F.);
#157=CARTESIAN_POINT('',(-1.065822715367489,-1.269999999999999,2.666999999999999));
#158=DIRECTION('',(-0.258819045102514,0.96592582628907,0.0));
#159=VECTOR('',#158,0.788880449472481);
#160=LINE('',#157,#159);
#161=EDGE_CURVE('',#150,#119,#160,.T.);
#162=ORIENTED_EDGE('',*,*,#161,.T.);
#163=ORIENTED_EDGE('',*,*,#124,.T.);
#164=EDGE_LOOP('',(#148,#156,#162,#163));
#165=FACE_OUTER_BOUND('',#164,.T.);
#166=ADVANCED_FACE('',(#165),#140,.T.);
#167=CARTESIAN_POINT('',(-1.065822715367489,-1.269999999999999,2.666999999999999));
#168=DIRECTION('',(0.0,-1.0,0.0));
#169=DIRECTION('',(0.0,0.0,-1.0));
#170=AXIS2_PLACEMENT_3D('',#167,#168,#169);
#171=PLANE('',#170);
#172=CARTESIAN_POINT('',(1.06582271536749,-1.269999999999998,0.126999999999998));
#173=VERTEX_POINT('',#172);
#174=CARTESIAN_POINT('',(-1.065822715367489,-1.269999999999999,0.126999999999999));
#175=DIRECTION('',(1.0,0.0,0.0));
#176=VECTOR('',#175,2.131645430734979);
#177=LINE('',#174,#176);
#178=EDGE_CURVE('',#142,#173,#177,.T.);
#179=ORIENTED_EDGE('',*,*,#178,.T.);
#180=CARTESIAN_POINT('',(1.06582271536749,-1.269999999999998,2.666999999999999));
#181=VERTEX_POINT('',#180);
#182=CARTESIAN_POINT('',(1.06582271536749,-1.269999999999998,2.666999999999999));
#183=DIRECTION('',(0.0,0.0,-1.0));
#184=VECTOR('',#183,2.540000000000001);
#185=LINE('',#182,#184);
#186=EDGE_CURVE('',#181,#173,#185,.T.);
#187=ORIENTED_EDGE('',*,*,#186,.F.);
#188=CARTESIAN_POINT('',(1.06582271536749,-1.269999999999998,2.666999999999999));
#189=DIRECTION('',(-1.0,0.0,0.0));
#190=VECTOR('',#189,2.131645430734979);
#191=LINE('',#188,#190);
#192=EDGE_CURVE('',#181,#150,#191,.T.);
#193=ORIENTED_EDGE('',*,*,#192,.T.);
#194=ORIENTED_EDGE('',*,*,#155,.T.);
#195=EDGE_LOOP('',(#179,#187,#193,#194));
#196=FACE_OUTER_BOUND('',#195,.T.);
#197=ADVANCED_FACE('',(#196),#171,.T.);
#198=CARTESIAN_POINT('',(1.06582271536749,-1.269999999999998,2.666999999999999));
#199=DIRECTION('',(0.96592582628907,-0.258819045102514,0.0));
#200=DIRECTION('',(0.0,0.0,-1.0));
#201=AXIS2_PLACEMENT_3D('',#198,#199,#200);
#202=PLANE('',#201);
#203=CARTESIAN_POINT('',(1.270000000000001,-0.507999999999998,0.126999999999998));
#204=VERTEX_POINT('',#203);
#205=CARTESIAN_POINT('',(1.06582271536749,-1.269999999999998,0.126999999999999));
#206=DIRECTION('',(0.258819045102514,0.96592582628907,0.0));
#207=VECTOR('',#206,0.788880449472482);
#208=LINE('',#205,#207);
#209=EDGE_CURVE('',#173,#204,#208,.T.);
#210=ORIENTED_EDGE('',*,*,#209,.T.);
#211=CARTESIAN_POINT('',(1.270000000000001,-0.507999999999998,2.666999999999999));
#212=VERTEX_POINT('',#211);
#213=CARTESIAN_POINT('',(1.270000000000001,-0.507999999999998,2.666999999999999));
#214=DIRECTION('',(0.0,0.0,-1.0));
#215=VECTOR('',#214,2.540000000000001);
#216=LINE('',#213,#215);
#217=EDGE_CURVE('',#212,#204,#216,.T.);
#218=ORIENTED_EDGE('',*,*,#217,.F.);
#219=CARTESIAN_POINT('',(1.270000000000001,-0.507999999999998,2.666999999999999));
#220=DIRECTION('',(-0.258819045102514,-0.96592582628907,0.0));
#221=VECTOR('',#220,0.788880449472482);
#222=LINE('',#219,#221);
#223=EDGE_CURVE('',#212,#181,#222,.T.);
#224=ORIENTED_EDGE('',*,*,#223,.T.);
#225=ORIENTED_EDGE('',*,*,#186,.T.);
#226=EDGE_LOOP('',(#210,#218,#224,#225));
#227=FACE_OUTER_BOUND('',#226,.T.);
#228=ADVANCED_FACE('',(#227),#202,.T.);
#229=CARTESIAN_POINT('',(1.270000000000001,-0.507999999999998,2.666999999999999));
#230=DIRECTION('',(1.0,0.0,0.0));
#231=DIRECTION('',(0.0,0.0,-1.0));
#232=AXIS2_PLACEMENT_3D('',#229,#230,#231);
#233=PLANE('',#232);
#234=CARTESIAN_POINT('',(1.27,0.508000000000002,0.126999999999998));
#235=VERTEX_POINT('',#234);
#236=CARTESIAN_POINT('',(1.270000000000001,-0.507999999999998,0.126999999999999));
#237=DIRECTION('',(0.0,1.0,0.0));
#238=VECTOR('',#237,1.016);
#239=LINE('',#236,#238);
#240=EDGE_CURVE('',#204,#235,#239,.T.);
#241=ORIENTED_EDGE('',*,*,#240,.T.);
#242=CARTESIAN_POINT('',(1.27,0.508000000000002,2.666999999999999));
#243=VERTEX_POINT('',#242);
#244=CARTESIAN_POINT('',(1.27,0.508000000000002,2.666999999999999));
#245=DIRECTION('',(0.0,0.0,-1.0));
#246=VECTOR('',#245,2.540000000000001);
#247=LINE('',#244,#246);
#248=EDGE_CURVE('',#243,#235,#247,.T.);
#249=ORIENTED_EDGE('',*,*,#248,.F.);
#250=CARTESIAN_POINT('',(1.27,0.508000000000002,2.666999999999999));
#251=DIRECTION('',(0.0,-1.0,0.0));
#252=VECTOR('',#251,1.016);
#253=LINE('',#250,#252);
#254=EDGE_CURVE('',#243,#212,#253,.T.);
#255=ORIENTED_EDGE('',*,*,#254,.T.);
#256=ORIENTED_EDGE('',*,*,#217,.T.);
#257=EDGE_LOOP('',(#241,#249,#255,#256));
#258=FACE_OUTER_BOUND('',#257,.T.);
#259=ADVANCED_FACE('',(#258),#233,.T.);
#260=CARTESIAN_POINT('',(1.27,0.508000000000002,2.666999999999999));
#261=DIRECTION('',(0.96592582628907,0.258819045102513,0.0));
#262=DIRECTION('',(0.0,0.0,-1.0));
#263=AXIS2_PLACEMENT_3D('',#260,#261,#262);
#264=PLANE('',#263);
#265=CARTESIAN_POINT('',(1.06582271536749,1.270000000000001,0.126999999999998));
#266=VERTEX_POINT('',#265);
#267=CARTESIAN_POINT('',(1.27,0.508000000000001,0.126999999999999));
#268=DIRECTION('',(-0.258819045102513,0.96592582628907,0.0));
#269=VECTOR('',#268,0.788880449472482);
#270=LINE('',#267,#269);
#271=EDGE_CURVE('',#235,#266,#270,.T.);
#272=ORIENTED_EDGE('',*,*,#271,.T.);
#273=CARTESIAN_POINT('',(1.06582271536749,1.270000000000001,2.666999999999999));
#274=VERTEX_POINT('',#273);
#275=CARTESIAN_POINT('',(1.06582271536749,1.270000000000001,2.666999999999999));
#276=DIRECTION('',(0.0,0.0,-1.0));
#277=VECTOR('',#276,2.540000000000001);
#278=LINE('',#275,#277);
#279=EDGE_CURVE('',#274,#266,#278,.T.);
#280=ORIENTED_EDGE('',*,*,#279,.F.);
#281=CARTESIAN_POINT('',(1.06582271536749,1.270000000000001,2.666999999999999));
#282=DIRECTION('',(0.258819045102513,-0.96592582628907,0.0));
#283=VECTOR('',#282,0.788880449472481);
#284=LINE('',#281,#283);
#285=EDGE_CURVE('',#274,#243,#284,.T.);
#286=ORIENTED_EDGE('',*,*,#285,.T.);
#287=ORIENTED_EDGE('',*,*,#248,.T.);
#288=EDGE_LOOP('',(#272,#280,#286,#287));
#289=FACE_OUTER_BOUND('',#288,.T.);
#290=ADVANCED_FACE('',(#289),#264,.T.);
#291=CARTESIAN_POINT('',(1.06582271536749,1.270000000000001,2.666999999999999));
#292=DIRECTION('',(0.0,1.0,0.0));
#293=DIRECTION('',(0.0,0.0,1.0));
#294=AXIS2_PLACEMENT_3D('',#291,#292,#293);
#295=PLANE('',#294);
#296=CARTESIAN_POINT('',(1.06582271536749,1.270000000000001,0.126999999999999));
#297=DIRECTION('',(-1.0,0.0,0.0));
#298=VECTOR('',#297,2.13164543073498);
#299=LINE('',#296,#298);
#300=EDGE_CURVE('',#266,#71,#299,.T.);
#301=ORIENTED_EDGE('',*,*,#300,.T.);
#302=ORIENTED_EDGE('',*,*,#100,.F.);
#303=CARTESIAN_POINT('',(-1.06582271536749,1.27,2.666999999999999));
#304=DIRECTION('',(1.0,0.0,0.0));
#305=VECTOR('',#304,2.13164543073498);
#306=LINE('',#303,#305);
#307=EDGE_CURVE('',#89,#274,#306,.T.);
#308=ORIENTED_EDGE('',*,*,#307,.T.);
#309=ORIENTED_EDGE('',*,*,#279,.T.);
#310=EDGE_LOOP('',(#301,#302,#308,#309));
#311=FACE_OUTER_BOUND('',#310,.T.);
#312=ADVANCED_FACE('',(#311),#295,.T.);
#313=CARTESIAN_POINT('',(8.881784E-016,1.276756E-015,2.666999999999999));
#314=DIRECTION('',(0.0,0.0,1.0));
#315=DIRECTION('',(1.0,0.0,0.0));
#316=AXIS2_PLACEMENT_3D('',#313,#314,#315);
#317=PLANE('',#316);
#318=ORIENTED_EDGE('',*,*,#307,.F.);
#319=ORIENTED_EDGE('',*,*,#94,.F.);
#320=ORIENTED_EDGE('',*,*,#130,.F.);
#321=ORIENTED_EDGE('',*,*,#161,.F.);
#322=ORIENTED_EDGE('',*,*,#192,.F.);
#323=ORIENTED_EDGE('',*,*,#223,.F.);
#324=ORIENTED_EDGE('',*,*,#254,.F.);
#325=ORIENTED_EDGE('',*,*,#285,.F.);
#326=EDGE_LOOP('',(#318,#319,#320,#321,#322,#323,#324,#325));
#327=FACE_OUTER_BOUND('',#326,.T.);
#328=ADVANCED_FACE('',(#327),#317,.T.);
#329=CARTESIAN_POINT('',(0.0,1.290634E-015,0.126999999999998));
#330=DIRECTION('',(0.0,0.0,1.0));
#331=DIRECTION('',(1.0,0.0,0.0));
#332=AXIS2_PLACEMENT_3D('',#329,#330,#331);
#333=PLANE('',#332);
#334=ORIENTED_EDGE('',*,*,#78,.F.);
#335=ORIENTED_EDGE('',*,*,#300,.F.);
#336=ORIENTED_EDGE('',*,*,#271,.F.);
#337=ORIENTED_EDGE('',*,*,#240,.F.);
#338=ORIENTED_EDGE('',*,*,#209,.F.);
#339=ORIENTED_EDGE('',*,*,#178,.F.);
#340=ORIENTED_EDGE('',*,*,#147,.F.);
#341=ORIENTED_EDGE('',*,*,#116,.F.);
#342=EDGE_LOOP('',(#334,#335,#336,#337,#338,#339,#340,#341));
#343=FACE_OUTER_BOUND('',#342,.T.);
#344=ADVANCED_FACE('',(#343),#333,.F.);
#345=CLOSED_SHELL('',(#104,#135,#166,#197,#228,#259,#290,#312,#328,#344));
#346=MANIFOLD_SOLID_BREP('2421',#345);
#347=COLOUR_RGB('250',0.33,0.33,0.33);
#348=SURFACE_STYLE_USAGE(.BOTH.,#349);
#349=SURFACE_SIDE_STYLE('NONE',(#350));
#350=SURFACE_STYLE_FILL_AREA(#351);
#351=FILL_AREA_STYLE('NONE',(#352));
#352=FILL_AREA_STYLE_COLOUR('NONE',#347);
#353=PRESENTATION_STYLE_ASSIGNMENT((#348));
#354=STYLED_ITEM('NONE',(#353),#346);
#355=MECHANICAL_DESIGN_GEOMETRIC_PRESENTATION_REPRESENTATION('NONE',(#354,#578,#793),#28);
#356=PRESENTATION_LAYER_ASSIGNMENT('3D','None',(#346,#570,#792));
#357=CARTESIAN_POINT('',(0.0,4.829211E-016,7.886699999999999));
#358=DIRECTION('',(0.0,0.0,1.0));
#359=DIRECTION('',(1.0,0.0,0.0));
#360=AXIS2_PLACEMENT_3D('',#357,#358,#359);
#361=SPHERICAL_SURFACE('',#360,0.3175);
#362=CARTESIAN_POINT('',(-1.944127E-017,4.829211E-016,8.204199999999998));
#363=VERTEX_POINT('',#362);
#364=CARTESIAN_POINT('',(0.3175,4.829211E-016,7.886699999999999));
#365=VERTEX_POINT('',#364);
#366=CARTESIAN_POINT('',(0.0,4.829211E-016,7.886699999999999));
#367=DIRECTION('',(0.0,1.0,0.0));
#368=DIRECTION('',(1.0,0.0,0.0));
#369=AXIS2_PLACEMENT_3D('',#366,#367,#368);
#370=CIRCLE('',#369,0.3175);
#371=EDGE_CURVE('',#363,#365,#370,.T.);
#372=ORIENTED_EDGE('',*,*,#371,.F.);
#373=CARTESIAN_POINT('',(-0.3175,4.440386E-016,7.886699999999999));
#374=VERTEX_POINT('',#373);
#375=CARTESIAN_POINT('',(0.0,4.829211E-016,7.886699999999999));
#376=DIRECTION('',(0.0,-1.0,0.0));
#377=DIRECTION('',(-1.0,0.0,0.0));
#378=AXIS2_PLACEMENT_3D('',#375,#376,#377);
#379=CIRCLE('',#378,0.3175);
#380=EDGE_CURVE('',#363,#374,#379,.T.);
#381=ORIENTED_EDGE('',*,*,#380,.T.);
#382=CARTESIAN_POINT('',(0.061656763746829,-0.31145576489169,7.886699999999999));
#383=VERTEX_POINT('',#382);
#384=CARTESIAN_POINT('',(0.0,4.829211E-016,7.886699999999999));
#385=DIRECTION('',(1.166462E-017,-5.892318E-017,-1.0));
#386=DIRECTION('',(-0.194194531486074,0.980963039028945,-6.006666E-017));
#387=AXIS2_PLACEMENT_3D('',#384,#385,#386);
#388=CIRCLE('',#387,0.3175);
#389=EDGE_CURVE('',#383,#374,#388,.T.);
#390=ORIENTED_EDGE('',*,*,#389,.F.);
#391=CARTESIAN_POINT('',(0.0,4.829211E-016,7.886699999999999));
#392=DIRECTION('',(1.166462E-017,-5.892318E-017,-1.0));
#393=DIRECTION('',(-0.194194531486074,0.980963039028945,-6.006666E-017));
#394=AXIS2_PLACEMENT_3D('',#391,#392,#393);
#395=CIRCLE('',#394,0.3175);
#396=EDGE_CURVE('',#365,#383,#395,.T.);
#397=ORIENTED_EDGE('',*,*,#396,.F.);
#398=EDGE_LOOP('',(#372,#381,#390,#397));
#399=FACE_OUTER_BOUND('',#398,.T.);
#400=ADVANCED_FACE('',(#399),#361,.T.);
#401=CARTESIAN_POINT('',(0.0,5.023624E-016,8.204199999999998));
#402=DIRECTION('',(1.359631E-032,-6.123234E-017,-1.0));
#403=DIRECTION('',(-0.194194531486074,0.980963039028945,-6.006666E-017));
#404=AXIS2_PLACEMENT_3D('',#401,#402,#403);
#405=CYLINDRICAL_SURFACE('',#404,0.3175);
#406=CARTESIAN_POINT('',(-0.061656763746829,0.311455764891691,3.987799999999999));
#407=VERTEX_POINT('',#406);
#408=CARTESIAN_POINT('',(-0.061656763746828,0.311455764891691,7.886699999999999));
#409=VERTEX_POINT('',#408);
#410=CARTESIAN_POINT('',(-0.061656763746829,0.311455764891691,3.987799999999999));
#411=DIRECTION('',(0.0,0.0,1.0));
#412=VECTOR('',#411,3.898899999999999);
#413=LINE('',#410,#412);
#414=EDGE_CURVE('',#407,#409,#413,.T.);
#415=ORIENTED_EDGE('',*,*,#414,.F.);
#416=CARTESIAN_POINT('',(0.061656763746829,-0.31145576489169,3.987799999999999));
#417=VERTEX_POINT('',#416);
#418=CARTESIAN_POINT('',(0.0,2.441823E-016,3.987799999999999));
#419=DIRECTION('',(-1.166462E-017,5.892318E-017,1.0));
#420=DIRECTION('',(0.194194531486074,-0.980963039028945,6.006666E-017));
#421=AXIS2_PLACEMENT_3D('',#418,#419,#420);
#422=CIRCLE('',#421,0.3175);
#423=EDGE_CURVE('',#407,#417,#422,.T.);
#424=ORIENTED_EDGE('',*,*,#423,.T.);
#425=CARTESIAN_POINT('',(0.061656763746829,-0.31145576489169,3.987799999999999));
#426=DIRECTION('',(0.0,0.0,1.0));
#427=VECTOR('',#426,3.898899999999999);
#428=LINE('',#425,#427);
#429=EDGE_CURVE('',#417,#383,#428,.T.);
#430=ORIENTED_EDGE('',*,*,#429,.T.);
#431=ORIENTED_EDGE('',*,*,#389,.T.);
#432=CARTESIAN_POINT('',(0.0,4.829211E-016,7.886699999999999));
#433=DIRECTION('',(1.166462E-017,-5.892318E-017,-1.0));
#434=DIRECTION('',(-0.194194531486074,0.980963039028945,-6.006666E-017));
#435=AXIS2_PLACEMENT_3D('',#432,#433,#434);
#436=CIRCLE('',#435,0.3175);
#437=EDGE_CURVE('',#374,#409,#436,.T.);
#438=ORIENTED_EDGE('',*,*,#437,.T.);
#439=EDGE_LOOP('',(#415,#424,#430,#431,#438));
#440=FACE_OUTER_BOUND('',#439,.T.);
#441=ADVANCED_FACE('',(#440),#405,.T.);
#442=CARTESIAN_POINT('',(0.0,2.482261E-016,4.053839999999999));
#443=DIRECTION('',(1.359631E-032,-6.123234E-017,-1.0));
#444=DIRECTION('',(-0.194194531486074,0.980963039028945,-6.006666E-017));
#445=AXIS2_PLACEMENT_3D('',#442,#443,#444);
#446=CYLINDRICAL_SURFACE('',#445,0.889000000000001);
#447=CARTESIAN_POINT('',(-0.17263893849112,0.872076141696733,2.666999999999999));
#448=VERTEX_POINT('',#447);
#449=CARTESIAN_POINT('',(-0.17263893849112,0.872076141696733,3.987799999999999));
#450=VERTEX_POINT('',#449);
#451=CARTESIAN_POINT('',(-0.17263893849112,0.872076141696733,2.666999999999999));
#452=DIRECTION('',(0.0,0.0,1.0));
#453=VECTOR('',#452,1.3208);
#454=LINE('',#451,#453);
#455=EDGE_CURVE('',#448,#450,#454,.T.);
#456=ORIENTED_EDGE('',*,*,#455,.F.);
#457=CARTESIAN_POINT('',(0.17263893849112,-0.872076141696733,2.666999999999999));
#458=VERTEX_POINT('',#457);
#459=CARTESIAN_POINT('',(0.0,1.633067E-016,2.666999999999999));
#460=DIRECTION('',(-1.166462E-017,5.892318E-017,1.0));
#461=DIRECTION('',(0.194194531486074,-0.980963039028945,6.006666E-017));
#462=AXIS2_PLACEMENT_3D('',#459,#460,#461);
#463=CIRCLE('',#462,0.889000000000001);
#464=EDGE_CURVE('',#448,#458,#463,.T.);
#465=ORIENTED_EDGE('',*,*,#464,.T.);
#466=CARTESIAN_POINT('',(0.17263893849112,-0.872076141696733,3.987799999999999));
#467=VERTEX_POINT('',#466);
#468=CARTESIAN_POINT('',(0.17263893849112,-0.872076141696733,2.666999999999999));
#469=DIRECTION('',(0.0,0.0,1.0));
#470=VECTOR('',#469,1.3208);
#471=LINE('',#468,#470);
#472=EDGE_CURVE('',#458,#467,#471,.T.);
#473=ORIENTED_EDGE('',*,*,#472,.T.);
#474=CARTESIAN_POINT('',(0.0,2.441823E-016,3.987799999999999));
#475=DIRECTION('',(-1.166462E-017,5.892318E-017,1.0));
#476=DIRECTION('',(0.194194531486074,-0.980963039028945,6.006666E-017));
#477=AXIS2_PLACEMENT_3D('',#474,#475,#476);
#478=CIRCLE('',#477,0.889000000000001);
#479=EDGE_CURVE('',#450,#467,#478,.T.);
#480=ORIENTED_EDGE('',*,*,#479,.F.);
#481=EDGE_LOOP('',(#456,#465,#473,#480));
#482=FACE_OUTER_BOUND('',#481,.T.);
#483=ADVANCED_FACE('',(#482),#446,.T.);
#484=CARTESIAN_POINT('',(-1.149186588206638,0.769380923526174,3.987799999999999));
#485=DIRECTION('',(0.0,0.0,1.0));
#486=DIRECTION('',(0.0,-1.0,0.0));
#487=AXIS2_PLACEMENT_3D('',#484,#485,#486);
#488=PLANE('',#487);
#489=CARTESIAN_POINT('',(0.0,2.441823E-016,3.987799999999999));
#490=DIRECTION('',(-1.166462E-017,5.892318E-017,1.0));
#491=DIRECTION('',(0.194194531486074,-0.980963039028945,6.006666E-017));
#492=AXIS2_PLACEMENT_3D('',#489,#490,#491);
#493=CIRCLE('',#492,0.889000000000001);
#494=EDGE_CURVE('',#467,#450,#493,.T.);
#495=ORIENTED_EDGE('',*,*,#494,.T.);
#496=ORIENTED_EDGE('',*,*,#479,.T.);
#497=EDGE_LOOP('',(#495,#496));
#498=FACE_OUTER_BOUND('',#497,.T.);
#499=CARTESIAN_POINT('',(0.0,2.441823E-016,3.987799999999999));
#500=DIRECTION('',(-1.166462E-017,5.892318E-017,1.0));
#501=DIRECTION('',(0.194194531486074,-0.980963039028945,6.006666E-017));
#502=AXIS2_PLACEMENT_3D('',#499,#500,#501);
#503=CIRCLE('',#502,0.3175);
#504=EDGE_CURVE('',#417,#407,#503,.T.);
#505=ORIENTED_EDGE('',*,*,#504,.F.);
#506=ORIENTED_EDGE('',*,*,#423,.F.);
#507=EDGE_LOOP('',(#505,#506));
#508=FACE_BOUND('',#507,.T.);
#509=ADVANCED_FACE('',(#498,#508),#488,.T.);
#510=CARTESIAN_POINT('',(0.0,2.482261E-016,4.053839999999999));
#511=DIRECTION('',(1.359631E-032,-6.123234E-017,-1.0));
#512=DIRECTION('',(-0.194194531486074,0.980963039028945,-6.006666E-017));
#513=AXIS2_PLACEMENT_3D('',#510,#511,#512);
#514=CYLINDRICAL_SURFACE('',#513,0.889000000000001);
#515=ORIENTED_EDGE('',*,*,#455,.T.);
#516=ORIENTED_EDGE('',*,*,#494,.F.);
#517=ORIENTED_EDGE('',*,*,#472,.F.);
#518=CARTESIAN_POINT('',(0.0,1.633067E-016,2.666999999999999));
#519=DIRECTION('',(-1.166462E-017,5.892318E-017,1.0));
#520=DIRECTION('',(0.194194531486074,-0.980963039028945,6.006666E-017));
#521=AXIS2_PLACEMENT_3D('',#518,#519,#520);
#522=CIRCLE('',#521,0.889000000000001);
#523=EDGE_CURVE('',#458,#448,#522,.T.);
#524=ORIENTED_EDGE('',*,*,#523,.T.);
#525=EDGE_LOOP('',(#515,#516,#517,#524));
#526=FACE_OUTER_BOUND('',#525,.T.);
#527=ADVANCED_FACE('',(#526),#514,.T.);
#528=CARTESIAN_POINT('',(-1.149186588206638,0.769380923526174,2.666999999999999));
#529=DIRECTION('',(0.0,0.0,1.0));
#530=DIRECTION('',(0.0,-1.0,0.0));
#531=AXIS2_PLACEMENT_3D('',#528,#529,#530);
#532=PLANE('',#531);
#533=ORIENTED_EDGE('',*,*,#523,.F.);
#534=ORIENTED_EDGE('',*,*,#464,.F.);
#535=EDGE_LOOP('',(#533,#534));
#536=FACE_OUTER_BOUND('',#535,.T.);
#537=ADVANCED_FACE('',(#536),#532,.F.);
#538=CARTESIAN_POINT('',(0.0,5.023624E-016,8.204199999999998));
#539=DIRECTION('',(1.359631E-032,-6.123234E-017,-1.0));
#540=DIRECTION('',(-0.194194531486074,0.980963039028945,-6.006666E-017));
#541=AXIS2_PLACEMENT_3D('',#538,#539,#540);
#542=CYLINDRICAL_SURFACE('',#541,0.3175);
#543=ORIENTED_EDGE('',*,*,#414,.T.);
#544=CARTESIAN_POINT('',(0.0,4.829211E-016,7.886699999999999));
#545=DIRECTION('',(1.166462E-017,-5.892318E-017,-1.0));
#546=DIRECTION('',(-0.194194531486074,0.980963039028945,-6.006666E-017));
#547=AXIS2_PLACEMENT_3D('',#544,#545,#546);
#548=CIRCLE('',#547,0.3175);
#549=EDGE_CURVE('',#409,#365,#548,.T.);
#550=ORIENTED_EDGE('',*,*,#549,.T.);
#551=ORIENTED_EDGE('',*,*,#396,.T.);
#552=ORIENTED_EDGE('',*,*,#429,.F.);
#553=ORIENTED_EDGE('',*,*,#504,.T.);
#554=EDGE_LOOP('',(#543,#550,#551,#552,#553));
#555=FACE_OUTER_BOUND('',#554,.T.);
#556=ADVANCED_FACE('',(#555),#542,.T.);
#557=CARTESIAN_POINT('',(0.0,4.829211E-016,7.886699999999999));
#558=DIRECTION('',(0.0,0.0,1.0));
#559=DIRECTION('',(1.0,0.0,0.0));
#560=AXIS2_PLACEMENT_3D('',#557,#558,#559);
#561=SPHERICAL_SURFACE('',#560,0.3175);
#562=ORIENTED_EDGE('',*,*,#371,.T.);
#563=ORIENTED_EDGE('',*,*,#549,.F.);
#564=ORIENTED_EDGE('',*,*,#437,.F.);
#565=ORIENTED_EDGE('',*,*,#380,.F.);
#566=EDGE_LOOP('',(#562,#563,#564,#565));
#567=FACE_OUTER_BOUND('',#566,.T.);
#568=ADVANCED_FACE('',(#567),#561,.T.);
#569=CLOSED_SHELL('',(#400,#441,#483,#509,#527,#537,#556,#568));
#570=MANIFOLD_SOLID_BREP('23FF',#569);
#571=COLOUR_RGB('254',0.866,0.866,0.866);
#572=SURFACE_STYLE_USAGE(.BOTH.,#573);
#573=SURFACE_SIDE_STYLE('NONE',(#574));
#574=SURFACE_STYLE_FILL_AREA(#575);
#575=FILL_AREA_STYLE('NONE',(#576));
#576=FILL_AREA_STYLE_COLOUR('NONE',#571);
#577=PRESENTATION_STYLE_ASSIGNMENT((#572));
#578=STYLED_ITEM('NONE',(#577),#570);
#579=CARTESIAN_POINT('',(0.0,-3.888254E-019,-0.00635));
#580=DIRECTION('',(-1.359631E-032,6.123234E-017,1.0));
#581=DIRECTION('',(0.194194531486074,-0.980963039028945,6.006666E-017));
#582=AXIS2_PLACEMENT_3D('',#579,#580,#581);
#583=CONICAL_SURFACE('',#582,0.52705,44.999999999999993);
#584=CARTESIAN_POINT('',(0.128246068593403,-0.647827990974716,0.127));
#585=VERTEX_POINT('',#584);
#586=CARTESIAN_POINT('',(0.103583363094672,-0.52324568501804,2.541370E-016));
#587=VERTEX_POINT('',#586);
#588=CARTESIAN_POINT('',(0.128246068593403,-0.647827990974716,0.127));
#589=DIRECTION('',(-0.137316270083148,0.693645616990731,-0.707106781186548));
#590=VECTOR('',#589,0.179605122421383);
#591=LINE('',#588,#590);
#592=EDGE_CURVE('',#585,#587,#591,.T.);
#593=ORIENTED_EDGE('',*,*,#592,.F.);
#594=CARTESIAN_POINT('',(-0.128246068593403,0.647827990974716,0.127));
#595=VERTEX_POINT('',#594);
#596=CARTESIAN_POINT('',(0.0,7.776507E-018,0.127));
#597=DIRECTION('',(-1.166462E-017,5.892318E-017,1.0));
#598=DIRECTION('',(-0.194194531486074,0.980963039028945,-6.006666E-017));
#599=AXIS2_PLACEMENT_3D('',#596,#597,#598);
#600=CIRCLE('',#599,0.6604);
#601=EDGE_CURVE('',#595,#585,#600,.T.);
#602=ORIENTED_EDGE('',*,*,#601,.F.);
#603=CARTESIAN_POINT('',(-0.103583363094671,0.52324568501804,2.220446E-016));
#604=VERTEX_POINT('',#603);
#605=CARTESIAN_POINT('',(-0.128246068593403,0.647827990974715,0.127));
#606=DIRECTION('',(0.137316270083148,-0.693645616990731,-0.707106781186548));
#607=VECTOR('',#606,0.179605122421383);
#608=LINE('',#605,#607);
#609=EDGE_CURVE('',#595,#604,#608,.T.);
#610=ORIENTED_EDGE('',*,*,#609,.T.);
#611=CARTESIAN_POINT('',(0.0,-4.930381E-032,2.220446E-016));
#612=DIRECTION('',(1.166462E-017,-5.892318E-017,-1.0));
#613=DIRECTION('',(-0.194194531486074,0.980963039028945,-6.006666E-017));
#614=AXIS2_PLACEMENT_3D('',#611,#612,#613);
#615=CIRCLE('',#614,0.5334);
#616=EDGE_CURVE('',#587,#604,#615,.T.);
#617=ORIENTED_EDGE('',*,*,#616,.F.);
#618=EDGE_LOOP('',(#593,#602,#610,#617));
#619=FACE_OUTER_BOUND('',#618,.T.);
#620=ADVANCED_FACE('',(#619),#583,.T.);
#621=CARTESIAN_POINT('',(0.0,-2.395164E-016,-3.911599999999997));
#622=DIRECTION('',(-1.359631E-032,6.123234E-017,1.0));
#623=DIRECTION('',(0.194194531486074,-0.980963039028945,6.006666E-017));
#624=AXIS2_PLACEMENT_3D('',#621,#622,#623);
#625=CYLINDRICAL_SURFACE('',#624,0.2286);
#626=CARTESIAN_POINT('',(0.044392869897717,-0.224248150722017,0.0));
#627=VERTEX_POINT('',#626);
#628=CARTESIAN_POINT('',(0.044392869897717,-0.224248150722017,-3.683));
#629=VERTEX_POINT('',#628);
#630=CARTESIAN_POINT('',(0.044392869897717,-0.224248150722017,0.0));
#631=DIRECTION('',(0.0,0.0,-1.0));
#632=VECTOR('',#631,3.683);
#633=LINE('',#630,#632);
#634=EDGE_CURVE('',#627,#629,#633,.T.);
#635=ORIENTED_EDGE('',*,*,#634,.F.);
#636=CARTESIAN_POINT('',(-0.044392869897716,0.224248150722017,2.220446E-016));
#637=VERTEX_POINT('',#636);
#638=CARTESIAN_POINT('',(0.0,-4.930381E-032,2.220446E-016));
#639=DIRECTION('',(1.166462E-017,-5.892318E-017,-1.0));
#640=DIRECTION('',(-0.194194531486074,0.980963039028945,-6.006666E-017));
#641=AXIS2_PLACEMENT_3D('',#638,#639,#640);
#642=CIRCLE('',#641,0.2286);
#643=EDGE_CURVE('',#627,#637,#642,.T.);
#644=ORIENTED_EDGE('',*,*,#643,.T.);
#645=CARTESIAN_POINT('',(-0.044392869897717,0.224248150722017,-3.683));
#646=VERTEX_POINT('',#645);
#647=CARTESIAN_POINT('',(-0.044392869897717,0.224248150722017,0.0));
#648=DIRECTION('',(0.0,0.0,-1.0));
#649=VECTOR('',#648,3.683);
#650=LINE('',#647,#649);
#651=EDGE_CURVE('',#637,#646,#650,.T.);
#652=ORIENTED_EDGE('',*,*,#651,.T.);
#653=CARTESIAN_POINT('',(-0.2286,-2.535141E-016,-3.683));
#654=VERTEX_POINT('',#653);
#655=CARTESIAN_POINT('',(0.0,-2.255187E-016,-3.683));
#656=DIRECTION('',(-1.166462E-017,5.892318E-017,1.0));
#657=DIRECTION('',(0.194194531486074,-0.980963039028945,6.006666E-017));
#658=AXIS2_PLACEMENT_3D('',#655,#656,#657);
#659=CIRCLE('',#658,0.2286);
#660=EDGE_CURVE('',#646,#654,#659,.T.);
#661=ORIENTED_EDGE('',*,*,#660,.T.);
#662=CARTESIAN_POINT('',(0.0,-2.255187E-016,-3.683));
#663=DIRECTION('',(-1.166462E-017,5.892318E-017,1.0));
#664=DIRECTION('',(0.194194531486074,-0.980963039028945,6.006666E-017));
#665=AXIS2_PLACEMENT_3D('',#662,#663,#664);
#666=CIRCLE('',#665,0.2286);
#667=EDGE_CURVE('',#654,#629,#666,.T.);
#668=ORIENTED_EDGE('',*,*,#667,.T.);
#669=EDGE_LOOP('',(#635,#644,#652,#661,#668));
#670=FACE_OUTER_BOUND('',#669,.T.);
#671=ADVANCED_FACE('',(#670),#625,.T.);
#672=CARTESIAN_POINT('',(0.0,-2.255187E-016,-3.683));
#673=DIRECTION('',(0.0,0.0,1.0));
#674=DIRECTION('',(1.0,0.0,0.0));
#675=AXIS2_PLACEMENT_3D('',#672,#673,#674);
#676=SPHERICAL_SURFACE('',#675,0.2286);
#677=CARTESIAN_POINT('',(0.2286,-2.255187E-016,-3.683));
#678=VERTEX_POINT('',#677);
#679=CARTESIAN_POINT('',(-1.399771E-017,-2.255187E-016,-3.9116));
#680=VERTEX_POINT('',#679);
#681=CARTESIAN_POINT('',(0.0,-2.255187E-016,-3.683));
#682=DIRECTION('',(0.0,1.0,0.0));
#683=DIRECTION('',(1.0,0.0,0.0));
#684=AXIS2_PLACEMENT_3D('',#681,#682,#683);
#685=CIRCLE('',#684,0.2286);
#686=EDGE_CURVE('',#678,#680,#685,.T.);
#687=ORIENTED_EDGE('',*,*,#686,.F.);
#688=CARTESIAN_POINT('',(0.0,-2.255187E-016,-3.683));
#689=DIRECTION('',(-1.166462E-017,5.892318E-017,1.0));
#690=DIRECTION('',(0.194194531486074,-0.980963039028945,6.006666E-017));
#691=AXIS2_PLACEMENT_3D('',#688,#689,#690);
#692=CIRCLE('',#691,0.2286);
#693=EDGE_CURVE('',#629,#678,#692,.T.);
#694=ORIENTED_EDGE('',*,*,#693,.F.);
#695=ORIENTED_EDGE('',*,*,#667,.F.);
#696=CARTESIAN_POINT('',(0.0,-2.255187E-016,-3.683));
#697=DIRECTION('',(0.0,-1.0,0.0));
#698=DIRECTION('',(-1.0,0.0,0.0));
#699=AXIS2_PLACEMENT_3D('',#696,#697,#698);
#700=CIRCLE('',#699,0.2286);
#701=EDGE_CURVE('',#654,#680,#700,.T.);
#702=ORIENTED_EDGE('',*,*,#701,.T.);
#703=EDGE_LOOP('',(#687,#694,#695,#702));
#704=FACE_OUTER_BOUND('',#703,.T.);
#705=ADVANCED_FACE('',(#704),#676,.T.);
#706=CARTESIAN_POINT('',(0.0,-2.255187E-016,-3.683));
#707=DIRECTION('',(0.0,0.0,1.0));
#708=DIRECTION('',(1.0,0.0,0.0));
#709=AXIS2_PLACEMENT_3D('',#706,#707,#708);
#710=SPHERICAL_SURFACE('',#709,0.2286);
#711=ORIENTED_EDGE('',*,*,#686,.T.);
#712=ORIENTED_EDGE('',*,*,#701,.F.);
#713=ORIENTED_EDGE('',*,*,#660,.F.);
#714=CARTESIAN_POINT('',(0.0,-2.255187E-016,-3.683));
#715=DIRECTION('',(-1.166462E-017,5.892318E-017,1.0));
#716=DIRECTION('',(0.194194531486074,-0.980963039028945,6.006666E-017));
#717=AXIS2_PLACEMENT_3D('',#714,#715,#716);
#718=CIRCLE('',#717,0.2286);
#719=EDGE_CURVE('',#678,#646,#718,.T.);
#720=ORIENTED_EDGE('',*,*,#719,.F.);
#721=EDGE_LOOP('',(#711,#712,#713,#720));
#722=FACE_OUTER_BOUND('',#721,.T.);
#723=ADVANCED_FACE('',(#722),#710,.T.);
#724=CARTESIAN_POINT('',(0.0,-2.395164E-016,-3.911599999999997));
#725=DIRECTION('',(-1.359631E-032,6.123234E-017,1.0));
#726=DIRECTION('',(0.194194531486074,-0.980963039028945,6.006666E-017));
#727=AXIS2_PLACEMENT_3D('',#724,#725,#726);
#728=CYLINDRICAL_SURFACE('',#727,0.2286);
#729=ORIENTED_EDGE('',*,*,#634,.T.);
#730=ORIENTED_EDGE('',*,*,#693,.T.);
#731=ORIENTED_EDGE('',*,*,#719,.T.);
#732=ORIENTED_EDGE('',*,*,#651,.F.);
#733=CARTESIAN_POINT('',(0.0,-4.930381E-032,2.220446E-016));
#734=DIRECTION('',(1.166462E-017,-5.892318E-017,-1.0));
#735=DIRECTION('',(-0.194194531486074,0.980963039028945,-6.006666E-017));
#736=AXIS2_PLACEMENT_3D('',#733,#734,#735);
#737=CIRCLE('',#736,0.2286);
#738=EDGE_CURVE('',#637,#627,#737,.T.);
#739=ORIENTED_EDGE('',*,*,#738,.T.);
#740=EDGE_LOOP('',(#729,#730,#731,#732,#739));
#741=FACE_OUTER_BOUND('',#740,.T.);
#742=ADVANCED_FACE('',(#741),#728,.T.);
#743=CARTESIAN_POINT('',(0.0,-3.888254E-019,-0.00635));
#744=DIRECTION('',(-1.359631E-032,6.123234E-017,1.0));
#745=DIRECTION('',(0.194194531486074,-0.980963039028945,6.006666E-017));
#746=AXIS2_PLACEMENT_3D('',#743,#744,#745);
#747=CONICAL_SURFACE('',#746,0.52705,44.999999999999993);
#748=ORIENTED_EDGE('',*,*,#592,.T.);
#749=CARTESIAN_POINT('',(0.0,-4.930381E-032,2.220446E-016));
#750=DIRECTION('',(1.166462E-017,-5.892318E-017,-1.0));
#751=DIRECTION('',(-0.194194531486074,0.980963039028945,-6.006666E-017));
#752=AXIS2_PLACEMENT_3D('',#749,#750,#751);
#753=CIRCLE('',#752,0.5334);
#754=EDGE_CURVE('',#604,#587,#753,.T.);
#755=ORIENTED_EDGE('',*,*,#754,.F.);
#756=ORIENTED_EDGE('',*,*,#609,.F.);
#757=CARTESIAN_POINT('',(0.0,7.776507E-018,0.127));
#758=DIRECTION('',(-1.166462E-017,5.892318E-017,1.0));
#759=DIRECTION('',(-0.194194531486074,0.980963039028945,-6.006666E-017));
#760=AXIS2_PLACEMENT_3D('',#757,#758,#759);
#761=CIRCLE('',#760,0.6604);
#762=EDGE_CURVE('',#585,#595,#761,.T.);
#763=ORIENTED_EDGE('',*,*,#762,.F.);
#764=EDGE_LOOP('',(#748,#755,#756,#763));
#765=FACE_OUTER_BOUND('',#764,.T.);
#766=ADVANCED_FACE('',(#765),#747,.T.);
#767=CARTESIAN_POINT('',(-0.461628554115705,-0.689511952923983,2.220446E-016));
#768=DIRECTION('',(0.0,0.0,-1.0));
#769=DIRECTION('',(0.0,1.0,0.0));
#770=AXIS2_PLACEMENT_3D('',#767,#768,#769);
#771=PLANE('',#770);
#772=ORIENTED_EDGE('',*,*,#754,.T.);
#773=ORIENTED_EDGE('',*,*,#616,.T.);
#774=EDGE_LOOP('',(#772,#773));
#775=FACE_OUTER_BOUND('',#774,.T.);
#776=ORIENTED_EDGE('',*,*,#738,.F.);
#777=ORIENTED_EDGE('',*,*,#643,.F.);
#778=EDGE_LOOP('',(#776,#777));
#779=FACE_BOUND('',#778,.T.);
#780=ADVANCED_FACE('',(#775,#779),#771,.T.);
#781=CARTESIAN_POINT('',(0.0,1.290634E-015,0.126999999999998));
#782=DIRECTION('',(0.0,0.0,1.0));
#783=DIRECTION('',(1.0,0.0,0.0));
#784=AXIS2_PLACEMENT_3D('',#781,#782,#783);
#785=PLANE('',#784);
#786=ORIENTED_EDGE('',*,*,#601,.T.);
#787=ORIENTED_EDGE('',*,*,#762,.T.);
#788=EDGE_LOOP('',(#786,#787));
#789=FACE_OUTER_BOUND('',#788,.T.);
#790=ADVANCED_FACE('',(#789),#785,.T.);
#791=CLOSED_SHELL('',(#620,#671,#705,#723,#742,#766,#780,#790));
#792=MANIFOLD_SOLID_BREP('23FF',#791);
#793=STYLED_ITEM('NONE',(#577),#792);
#794=ADVANCED_BREP_SHAPE_REPRESENTATION('ABSR1',(#346,#570,#792),#28);
#795=SHAPE_REPRESENTATION_RELATIONSHIP('SRRPL1','',#794,#62);
ENDSEC;
END-ISO-10303-21;
