ISO-10303-21;
HEADER;
/****************************************************************
 * Generated by software with PDE/Lib inside                    *
 * PDElib Version v51a, created Mon 11/23/2009                  *
 * ITI Transcendata (http://www.transcendata.com/)              *
 ****************************************************************/
FILE_DESCRIPTION((''),'2;1');
FILE_NAME('SIEMENS_CASE E 9_Part2.stp','2011-10-03T11:16:47',(''),(''),'Mechanical Desktop 2011','Mechanical Desktop 2011',', , ');
FILE_SCHEMA(('AUTOMOTIVE_DESIGN { 1 2 10303 214 1 1 1 1 }'));
ENDSEC;
DATA;
#10=(NAMED_UNIT(*)PLANE_ANGLE_UNIT()SI_UNIT($,.RADIAN.));
#11=DIMENSIONAL_EXPONENTS(0.0,0.0,0.0,0.0,0.0,0.0,0.0);
#12=PLANE_ANGLE_MEASURE_WITH_UNIT(PLANE_ANGLE_MEASURE(0.017453292500000),#10);
#16=(CONVERSION_BASED_UNIT('DEGREE',#12)NAMED_UNIT(#11)PLANE_ANGLE_UNIT());
#20=(NAMED_UNIT(*)SI_UNIT($,.STERADIAN.)SOLID_ANGLE_UNIT());
#24=(LENGTH_UNIT()NAMED_UNIT(*)SI_UNIT(.MILLI.,.METRE.));
#26=UNCERTAINTY_MEASURE_WITH_UNIT(LENGTH_MEASURE(0.000001000000000),#24,'DISTANCE_ACCURACY_VALUE','');
#28=(GEOMETRIC_REPRESENTATION_CONTEXT(3)GLOBAL_UNCERTAINTY_ASSIGNED_CONTEXT((#26))GLOBAL_UNIT_ASSIGNED_CONTEXT((#16,#20,#24))REPRESENTATION_CONTEXT('','3D'));
#29=APPLICATION_CONTEXT('automotive design');
#30=APPLICATION_PROTOCOL_DEFINITION('INTERNATIONAL_STANDARD','automotive_design',1998,#29);
#31=PRODUCT_CONTEXT('3D Mechanical Parts',#29,'mechanical');
#32=PRODUCT('Product','Product','',(#31));
#33=PRODUCT_RELATED_PRODUCT_CATEGORY('part',$,(#32));
#34=PRODUCT_CATEGORY('part',$);
#35=PERSON('1','Design','Joe',$,$,$);
#36=ORGANIZATION($,'None','None');
#37=PERSON_AND_ORGANIZATION(#35,#36);
#38=PERSON_AND_ORGANIZATION_ROLE('design_owner');
#39=APPLIED_PERSON_AND_ORGANIZATION_ASSIGNMENT(#37,#38,(#32));
#40=PRODUCT_DEFINITION_FORMATION_WITH_SPECIFIED_SOURCE('None','',#32,.BOUGHT.);
#41=PERSON('2','Creator','Joe',$,$,$);
#42=ORGANIZATION($,'None','None');
#43=PERSON_AND_ORGANIZATION(#41,#42);
#44=PERSON_AND_ORGANIZATION_ROLE('creator');
#45=APPLIED_PERSON_AND_ORGANIZATION_ASSIGNMENT(#43,#44,(#40));
#46=PERSON('3','Supplier','Joe',$,$,$);
#47=ORGANIZATION($,'None','None');
#48=PERSON_AND_ORGANIZATION(#46,#47);
#49=PERSON_AND_ORGANIZATION_ROLE('design_supplier');
#50=APPLIED_PERSON_AND_ORGANIZATION_ASSIGNMENT(#48,#49,(#40));
#51=PRODUCT_DEFINITION_CONTEXT('part definition',#29,'design');
#52=PRODUCT_DEFINITION('None','',#40,#51);
#53=PERSON('4','Creator','Joe',$,$,$);
#54=ORGANIZATION($,'None','None');
#55=PERSON_AND_ORGANIZATION(#53,#54);
#56=PERSON_AND_ORGANIZATION_ROLE('creator');
#57=APPLIED_PERSON_AND_ORGANIZATION_ASSIGNMENT(#55,#56,(#52));
#58=CARTESIAN_POINT('NONE',(0.0,0.0,0.0));
#59=DIRECTION('NONE',(0.0,0.0,1.0));
#60=DIRECTION('NONE',(1.0,0.0,0.0));
#61=AXIS2_PLACEMENT_3D('NONE',#58,#59,#60);
#62=SHAPE_REPRESENTATION('SR1',(#61),#28);
#63=PRODUCT_DEFINITION_SHAPE('PDS1','Test Part',#52);
#64=SHAPE_DEFINITION_REPRESENTATION(#63,#62);
#65=CARTESIAN_POINT('D4D',(-1.803817E-016,-2.500000000000000,29.500000000000000));
#66=DRAUGHTING_PRE_DEFINED_COLOUR('red');
#67=POINT_STYLE('NONE',#72,POSITIVE_LENGTH_MEASURE(0.020000000000000),#66);
#72=(PRE_DEFINED_ITEM('dot')PRE_DEFINED_MARKER()PRE_DEFINED_POINT_MARKER_SYMBOL()PRE_DEFINED_SYMBOL());
#73=PRESENTATION_STYLE_ASSIGNMENT((#67));
#74=STYLED_ITEM('NONE',(#73),#65);
#75=MECHANICAL_DESIGN_GEOMETRIC_PRESENTATION_REPRESENTATION('NONE',(#74,#374,#666,#829),#28);
#76=PRESENTATION_LAYER_ASSIGNMENT('Mechanical 14','None',(#65));
#77=CARTESIAN_POINT('',(0.0,0.0,-4.0));
#78=DIRECTION('',(0.0,0.0,-1.0));
#79=DIRECTION('',(1.0,0.0,0.0));
#80=AXIS2_PLACEMENT_3D('',#77,#78,#79);
#81=CYLINDRICAL_SURFACE('',#80,3.250000000000000);
#82=CARTESIAN_POINT('',(3.250000000000000,0.0,-7.200000000000002));
#83=VERTEX_POINT('',#82);
#84=CARTESIAN_POINT('',(3.250000000000000,0.0,-10.400000000000000));
#85=VERTEX_POINT('',#84);
#86=CARTESIAN_POINT('',(3.250000000000000,0.0,-7.200000000000002));
#87=DIRECTION('',(0.0,0.0,-1.0));
#88=VECTOR('',#87,3.199999999999998);
#89=LINE('',#86,#88);
#90=EDGE_CURVE('',#83,#85,#89,.T.);
#91=ORIENTED_EDGE('',*,*,#90,.F.);
#92=CARTESIAN_POINT('',(-3.250000000000000,3.979971E-016,-7.200000000000002));
#93=VERTEX_POINT('',#92);
#94=CARTESIAN_POINT('',(0.0,0.0,-7.200000000000002));
#95=DIRECTION('',(0.0,0.0,-1.0));
#96=DIRECTION('',(1.0,0.0,0.0));
#97=AXIS2_PLACEMENT_3D('',#94,#95,#96);
#98=CIRCLE('',#97,3.250000000000000);
#99=EDGE_CURVE('',#93,#83,#98,.T.);
#100=ORIENTED_EDGE('',*,*,#99,.F.);
#101=CARTESIAN_POINT('',(-3.250000000000000,3.979971E-016,-10.400000000000000));
#102=VERTEX_POINT('',#101);
#103=CARTESIAN_POINT('',(-3.250000000000000,3.979971E-016,-7.200000000000002));
#104=DIRECTION('',(0.0,0.0,-1.0));
#105=VECTOR('',#104,3.199999999999998);
#106=LINE('',#103,#105);
#107=EDGE_CURVE('',#93,#102,#106,.T.);
#108=ORIENTED_EDGE('',*,*,#107,.T.);
#109=CARTESIAN_POINT('',(0.0,0.0,-10.400000000000000));
#110=DIRECTION('',(0.0,0.0,1.0));
#111=DIRECTION('',(1.0,0.0,0.0));
#112=AXIS2_PLACEMENT_3D('',#109,#110,#111);
#113=CIRCLE('',#112,3.250000000000000);
#114=EDGE_CURVE('',#85,#102,#113,.T.);
#115=ORIENTED_EDGE('',*,*,#114,.F.);
#116=EDGE_LOOP('',(#91,#100,#108,#115));
#117=FACE_OUTER_BOUND('',#116,.T.);
#118=ADVANCED_FACE('',(#117),#81,.F.);
#119=CARTESIAN_POINT('',(0.0,0.0,-4.0));
#120=DIRECTION('',(0.0,0.0,-1.0));
#121=DIRECTION('',(1.0,0.0,0.0));
#122=AXIS2_PLACEMENT_3D('',#119,#120,#121);
#123=CYLINDRICAL_SURFACE('',#122,3.250000000000000);
#124=ORIENTED_EDGE('',*,*,#90,.T.);
#125=CARTESIAN_POINT('',(0.0,0.0,-10.400000000000000));
#126=DIRECTION('',(0.0,0.0,1.0));
#127=DIRECTION('',(1.0,0.0,0.0));
#128=AXIS2_PLACEMENT_3D('',#125,#126,#127);
#129=CIRCLE('',#128,3.250000000000000);
#130=EDGE_CURVE('',#102,#85,#129,.T.);
#131=ORIENTED_EDGE('',*,*,#130,.F.);
#132=ORIENTED_EDGE('',*,*,#107,.F.);
#133=CARTESIAN_POINT('',(0.0,0.0,-7.200000000000002));
#134=DIRECTION('',(0.0,0.0,-1.0));
#135=DIRECTION('',(1.0,0.0,0.0));
#136=AXIS2_PLACEMENT_3D('',#133,#134,#135);
#137=CIRCLE('',#136,3.250000000000000);
#138=EDGE_CURVE('',#83,#93,#137,.T.);
#139=ORIENTED_EDGE('',*,*,#138,.F.);
#140=EDGE_LOOP('',(#124,#131,#132,#139));
#141=FACE_OUTER_BOUND('',#140,.T.);
#142=ADVANCED_FACE('',(#141),#123,.F.);
#143=CARTESIAN_POINT('',(-3.099999999999996,5.369357503463523,-10.400000000000000));
#144=DIRECTION('',(0.0,1.0,0.0));
#145=DIRECTION('',(0.0,0.0,-1.0));
#146=AXIS2_PLACEMENT_3D('',#143,#144,#145);
#147=PLANE('',#146);
#148=CARTESIAN_POINT('',(-3.099999999999996,5.369357503463523,-7.200000000000002));
#149=VERTEX_POINT('',#148);
#150=CARTESIAN_POINT('',(3.100000000000003,5.369357503463519,-7.200000000000002));
#151=VERTEX_POINT('',#150);
#152=CARTESIAN_POINT('',(-3.099999999999996,5.369357503463523,-7.200000000000002));
#153=DIRECTION('',(1.0,0.0,0.0));
#154=VECTOR('',#153,6.199999999999999);
#155=LINE('',#152,#154);
#156=EDGE_CURVE('',#149,#151,#155,.T.);
#157=ORIENTED_EDGE('',*,*,#156,.T.);
#158=CARTESIAN_POINT('',(3.100000000000003,5.369357503463519,-10.400000000000000));
#159=VERTEX_POINT('',#158);
#160=CARTESIAN_POINT('',(3.100000000000003,5.369357503463519,-10.400000000000000));
#161=DIRECTION('',(0.0,0.0,1.0));
#162=VECTOR('',#161,3.199999999999999);
#163=LINE('',#160,#162);
#164=EDGE_CURVE('',#159,#151,#163,.T.);
#165=ORIENTED_EDGE('',*,*,#164,.F.);
#166=CARTESIAN_POINT('',(-3.099999999999996,5.369357503463523,-10.400000000000000));
#167=VERTEX_POINT('',#166);
#168=CARTESIAN_POINT('',(-3.099999999999996,5.369357503463523,-10.400000000000000));
#169=DIRECTION('',(1.0,0.0,0.0));
#170=VECTOR('',#169,6.199999999999999);
#171=LINE('',#168,#170);
#172=EDGE_CURVE('',#167,#159,#171,.T.);
#173=ORIENTED_EDGE('',*,*,#172,.F.);
#174=CARTESIAN_POINT('',(-3.099999999999996,5.369357503463523,-10.400000000000000));
#175=DIRECTION('',(0.0,0.0,1.0));
#176=VECTOR('',#175,3.199999999999999);
#177=LINE('',#174,#176);
#178=EDGE_CURVE('',#167,#149,#177,.T.);
#179=ORIENTED_EDGE('',*,*,#178,.T.);
#180=EDGE_LOOP('',(#157,#165,#173,#179));
#181=FACE_OUTER_BOUND('',#180,.T.);
#182=ADVANCED_FACE('',(#181),#147,.T.);
#183=CARTESIAN_POINT('',(3.100000000000003,5.369357503463519,-10.400000000000000));
#184=DIRECTION('',(0.866025403784439,0.500000000000000,0.0));
#185=DIRECTION('',(0.0,0.0,-1.0));
#186=AXIS2_PLACEMENT_3D('',#183,#184,#185);
#187=PLANE('',#186);
#188=CARTESIAN_POINT('',(6.199999999999999,-6.303335E-016,-7.200000000000002));
#189=VERTEX_POINT('',#188);
#190=CARTESIAN_POINT('',(3.100000000000003,5.369357503463519,-7.200000000000002));
#191=DIRECTION('',(0.500000000000000,-0.866025403784439,0.0));
#192=VECTOR('',#191,6.199999999999998);
#193=LINE('',#190,#192);
#194=EDGE_CURVE('',#151,#189,#193,.T.);
#195=ORIENTED_EDGE('',*,*,#194,.T.);
#196=CARTESIAN_POINT('',(6.199999999999999,-6.303335E-016,-10.400000000000000));
#197=VERTEX_POINT('',#196);
#198=CARTESIAN_POINT('',(6.199999999999999,-6.303335E-016,-10.400000000000000));
#199=DIRECTION('',(0.0,0.0,1.0));
#200=VECTOR('',#199,3.199999999999999);
#201=LINE('',#198,#200);
#202=EDGE_CURVE('',#197,#189,#201,.T.);
#203=ORIENTED_EDGE('',*,*,#202,.F.);
#204=CARTESIAN_POINT('',(3.100000000000003,5.369357503463519,-10.400000000000000));
#205=DIRECTION('',(0.500000000000000,-0.866025403784439,0.0));
#206=VECTOR('',#205,6.199999999999998);
#207=LINE('',#204,#206);
#208=EDGE_CURVE('',#159,#197,#207,.T.);
#209=ORIENTED_EDGE('',*,*,#208,.F.);
#210=ORIENTED_EDGE('',*,*,#164,.T.);
#211=EDGE_LOOP('',(#195,#203,#209,#210));
#212=FACE_OUTER_BOUND('',#211,.T.);
#213=ADVANCED_FACE('',(#212),#187,.T.);
#214=CARTESIAN_POINT('',(6.199999999999999,-6.303335E-016,-10.400000000000000));
#215=DIRECTION('',(0.866025403784439,-0.500000000000000,0.0));
#216=DIRECTION('',(0.0,0.0,1.0));
#217=AXIS2_PLACEMENT_3D('',#214,#215,#216);
#218=PLANE('',#217);
#219=CARTESIAN_POINT('',(3.099999999999997,-5.369357503463520,-7.200000000000002));
#220=VERTEX_POINT('',#219);
#221=CARTESIAN_POINT('',(6.199999999999999,-6.303335E-016,-7.200000000000002));
#222=DIRECTION('',(-0.500000000000000,-0.866025403784438,0.0));
#223=VECTOR('',#222,6.200000000000002);
#224=LINE('',#221,#223);
#225=EDGE_CURVE('',#189,#220,#224,.T.);
#226=ORIENTED_EDGE('',*,*,#225,.T.);
#227=CARTESIAN_POINT('',(3.099999999999997,-5.369357503463520,-10.400000000000000));
#228=VERTEX_POINT('',#227);
#229=CARTESIAN_POINT('',(3.099999999999997,-5.369357503463520,-10.400000000000000));
#230=DIRECTION('',(0.0,0.0,1.0));
#231=VECTOR('',#230,3.199999999999999);
#232=LINE('',#229,#231);
#233=EDGE_CURVE('',#228,#220,#232,.T.);
#234=ORIENTED_EDGE('',*,*,#233,.F.);
#235=CARTESIAN_POINT('',(6.199999999999999,-6.303335E-016,-10.400000000000000));
#236=DIRECTION('',(-0.500000000000000,-0.866025403784438,0.0));
#237=VECTOR('',#236,6.200000000000001);
#238=LINE('',#235,#237);
#239=EDGE_CURVE('',#197,#228,#238,.T.);
#240=ORIENTED_EDGE('',*,*,#239,.F.);
#241=ORIENTED_EDGE('',*,*,#202,.T.);
#242=EDGE_LOOP('',(#226,#234,#240,#241));
#243=FACE_OUTER_BOUND('',#242,.T.);
#244=ADVANCED_FACE('',(#243),#218,.T.);
#245=CARTESIAN_POINT('',(3.099999999999997,-5.369357503463520,-10.400000000000000));
#246=DIRECTION('',(0.0,-1.0,0.0));
#247=DIRECTION('',(0.0,0.0,1.0));
#248=AXIS2_PLACEMENT_3D('',#245,#246,#247);
#249=PLANE('',#248);
#250=CARTESIAN_POINT('',(-3.100000000000003,-5.369357503463519,-7.200000000000002));
#251=VERTEX_POINT('',#250);
#252=CARTESIAN_POINT('',(3.099999999999997,-5.369357503463520,-7.200000000000002));
#253=DIRECTION('',(-1.0,0.0,0.0));
#254=VECTOR('',#253,6.200000000000000);
#255=LINE('',#252,#254);
#256=EDGE_CURVE('',#220,#251,#255,.T.);
#257=ORIENTED_EDGE('',*,*,#256,.T.);
#258=CARTESIAN_POINT('',(-3.100000000000003,-5.369357503463519,-10.400000000000000));
#259=VERTEX_POINT('',#258);
#260=CARTESIAN_POINT('',(-3.100000000000003,-5.369357503463519,-10.400000000000000));
#261=DIRECTION('',(0.0,0.0,1.0));
#262=VECTOR('',#261,3.199999999999999);
#263=LINE('',#260,#262);
#264=EDGE_CURVE('',#259,#251,#263,.T.);
#265=ORIENTED_EDGE('',*,*,#264,.F.);
#266=CARTESIAN_POINT('',(3.099999999999997,-5.369357503463520,-10.400000000000000));
#267=DIRECTION('',(-1.0,0.0,0.0));
#268=VECTOR('',#267,6.200000000000000);
#269=LINE('',#266,#268);
#270=EDGE_CURVE('',#228,#259,#269,.T.);
#271=ORIENTED_EDGE('',*,*,#270,.F.);
#272=ORIENTED_EDGE('',*,*,#233,.T.);
#273=EDGE_LOOP('',(#257,#265,#271,#272));
#274=FACE_OUTER_BOUND('',#273,.T.);
#275=ADVANCED_FACE('',(#274),#249,.T.);
#276=CARTESIAN_POINT('',(-3.100000000000003,-5.369357503463519,-10.400000000000000));
#277=DIRECTION('',(-0.866025403784439,-0.500000000000000,0.0));
#278=DIRECTION('',(0.0,0.0,1.0));
#279=AXIS2_PLACEMENT_3D('',#276,#277,#278);
#280=PLANE('',#279);
#281=CARTESIAN_POINT('',(-6.200000000000001,1.647434E-015,-7.200000000000002));
#282=VERTEX_POINT('',#281);
#283=CARTESIAN_POINT('',(-3.100000000000003,-5.369357503463519,-7.200000000000002));
#284=DIRECTION('',(-0.500000000000000,0.866025403784439,0.0));
#285=VECTOR('',#284,6.200000000000000);
#286=LINE('',#283,#285);
#287=EDGE_CURVE('',#251,#282,#286,.T.);
#288=ORIENTED_EDGE('',*,*,#287,.T.);
#289=CARTESIAN_POINT('',(-6.200000000000001,1.647434E-015,-10.400000000000000));
#290=VERTEX_POINT('',#289);
#291=CARTESIAN_POINT('',(-6.200000000000001,1.647434E-015,-10.400000000000000));
#292=DIRECTION('',(0.0,0.0,1.0));
#293=VECTOR('',#292,3.199999999999999);
#294=LINE('',#291,#293);
#295=EDGE_CURVE('',#290,#282,#294,.T.);
#296=ORIENTED_EDGE('',*,*,#295,.F.);
#297=CARTESIAN_POINT('',(-3.100000000000003,-5.369357503463519,-10.400000000000000));
#298=DIRECTION('',(-0.500000000000000,0.866025403784439,0.0));
#299=VECTOR('',#298,6.199999999999997);
#300=LINE('',#297,#299);
#301=EDGE_CURVE('',#259,#290,#300,.T.);
#302=ORIENTED_EDGE('',*,*,#301,.F.);
#303=ORIENTED_EDGE('',*,*,#264,.T.);
#304=EDGE_LOOP('',(#288,#296,#302,#303));
#305=FACE_OUTER_BOUND('',#304,.T.);
#306=ADVANCED_FACE('',(#305),#280,.T.);
#307=CARTESIAN_POINT('',(-6.200000000000001,1.647434E-015,-10.400000000000000));
#308=DIRECTION('',(-0.866025403784438,0.500000000000000,0.0));
#309=DIRECTION('',(0.0,0.0,-1.0));
#310=AXIS2_PLACEMENT_3D('',#307,#308,#309);
#311=PLANE('',#310);
#312=CARTESIAN_POINT('',(-6.200000000000001,1.647434E-015,-7.200000000000002));
#313=DIRECTION('',(0.500000000000000,0.866025403784438,0.0));
#314=VECTOR('',#313,6.200000000000005);
#315=LINE('',#312,#314);
#316=EDGE_CURVE('',#282,#149,#315,.T.);
#317=ORIENTED_EDGE('',*,*,#316,.T.);
#318=ORIENTED_EDGE('',*,*,#178,.F.);
#319=CARTESIAN_POINT('',(-6.200000000000001,1.647434E-015,-10.400000000000000));
#320=DIRECTION('',(0.500000000000000,0.866025403784438,0.0));
#321=VECTOR('',#320,6.200000000000005);
#322=LINE('',#319,#321);
#323=EDGE_CURVE('',#290,#167,#322,.T.);
#324=ORIENTED_EDGE('',*,*,#323,.F.);
#325=ORIENTED_EDGE('',*,*,#295,.T.);
#326=EDGE_LOOP('',(#317,#318,#324,#325));
#327=FACE_OUTER_BOUND('',#326,.T.);
#328=ADVANCED_FACE('',(#327),#311,.T.);
#329=CARTESIAN_POINT('',(-1.110223E-015,7.216450E-016,-7.200000000000002));
#330=DIRECTION('',(0.0,0.0,1.0));
#331=DIRECTION('',(0.0,1.0,0.0));
#332=AXIS2_PLACEMENT_3D('',#329,#330,#331);
#333=PLANE('',#332);
#334=ORIENTED_EDGE('',*,*,#316,.F.);
#335=ORIENTED_EDGE('',*,*,#287,.F.);
#336=ORIENTED_EDGE('',*,*,#256,.F.);
#337=ORIENTED_EDGE('',*,*,#225,.F.);
#338=ORIENTED_EDGE('',*,*,#194,.F.);
#339=ORIENTED_EDGE('',*,*,#156,.F.);
#340=EDGE_LOOP('',(#334,#335,#336,#337,#338,#339));
#341=FACE_OUTER_BOUND('',#340,.T.);
#342=ORIENTED_EDGE('',*,*,#99,.T.);
#343=ORIENTED_EDGE('',*,*,#138,.T.);
#344=EDGE_LOOP('',(#342,#343));
#345=FACE_BOUND('',#344,.T.);
#346=ADVANCED_FACE('',(#341,#345),#333,.T.);
#347=CARTESIAN_POINT('',(-8.814498E-016,6.661338E-016,-10.400000000000000));
#348=DIRECTION('',(0.0,0.0,1.0));
#349=DIRECTION('',(0.0,1.0,0.0));
#350=AXIS2_PLACEMENT_3D('',#347,#348,#349);
#351=PLANE('',#350);
#352=ORIENTED_EDGE('',*,*,#301,.T.);
#353=ORIENTED_EDGE('',*,*,#323,.T.);
#354=ORIENTED_EDGE('',*,*,#172,.T.);
#355=ORIENTED_EDGE('',*,*,#208,.T.);
#356=ORIENTED_EDGE('',*,*,#239,.T.);
#357=ORIENTED_EDGE('',*,*,#270,.T.);
#358=EDGE_LOOP('',(#352,#353,#354,#355,#356,#357));
#359=FACE_OUTER_BOUND('',#358,.T.);
#360=ORIENTED_EDGE('',*,*,#114,.T.);
#361=ORIENTED_EDGE('',*,*,#130,.T.);
#362=EDGE_LOOP('',(#360,#361));
#363=FACE_BOUND('',#362,.T.);
#364=ADVANCED_FACE('',(#359,#363),#351,.F.);
#365=CLOSED_SHELL('',(#118,#142,#182,#213,#244,#275,#306,#328,#346,#364));
#366=MANIFOLD_SOLID_BREP('D3A',#365);
#367=COLOUR_RGB('254',0.866000000000000,0.866000000000000,0.866000000000000);
#368=SURFACE_STYLE_USAGE(.BOTH.,#369);
#369=SURFACE_SIDE_STYLE('NONE',(#370));
#370=SURFACE_STYLE_FILL_AREA(#371);
#371=FILL_AREA_STYLE('NONE',(#372));
#372=FILL_AREA_STYLE_COLOUR('NONE',#367);
#373=PRESENTATION_STYLE_ASSIGNMENT((#368));
#374=STYLED_ITEM('NONE',(#373),#366);
#375=PRESENTATION_LAYER_ASSIGNMENT('3D','None',(#366,#665,#828));
#376=CARTESIAN_POINT('',(0.0,0.0,-4.0));
#377=DIRECTION('',(0.0,0.0,-1.0));
#378=DIRECTION('',(1.0,0.0,0.0));
#379=AXIS2_PLACEMENT_3D('',#376,#377,#378);
#380=CYLINDRICAL_SURFACE('',#379,3.250000000000000);
#381=CARTESIAN_POINT('',(3.250000000000000,0.0,-4.0));
#382=VERTEX_POINT('',#381);
#383=CARTESIAN_POINT('',(3.250000000000000,0.0,-7.199999999999999));
#384=VERTEX_POINT('',#383);
#385=CARTESIAN_POINT('',(3.250000000000000,0.0,-4.0));
#386=DIRECTION('',(0.0,0.0,-1.0));
#387=VECTOR('',#386,3.199999999999999);
#388=LINE('',#385,#387);
#389=EDGE_CURVE('',#382,#384,#388,.T.);
#390=ORIENTED_EDGE('',*,*,#389,.F.);
#391=CARTESIAN_POINT('',(-3.250000000000000,3.979971E-016,-4.0));
#392=VERTEX_POINT('',#391);
#393=CARTESIAN_POINT('',(0.0,0.0,-4.0));
#394=DIRECTION('',(0.0,0.0,-1.0));
#395=DIRECTION('',(1.0,0.0,0.0));
#396=AXIS2_PLACEMENT_3D('',#393,#394,#395);
#397=CIRCLE('',#396,3.250000000000000);
#398=EDGE_CURVE('',#392,#382,#397,.T.);
#399=ORIENTED_EDGE('',*,*,#398,.F.);
#400=CARTESIAN_POINT('',(-3.250000000000000,-3.979971E-016,-7.199999999999999));
#401=VERTEX_POINT('',#400);
#402=CARTESIAN_POINT('',(-3.250000000000000,3.979971E-016,-4.0));
#403=DIRECTION('',(0.0,0.0,-1.0));
#404=VECTOR('',#403,3.199999999999999);
#405=LINE('',#402,#404);
#406=EDGE_CURVE('',#392,#401,#405,.T.);
#407=ORIENTED_EDGE('',*,*,#406,.T.);
#408=CARTESIAN_POINT('',(0.0,0.0,-7.199999999999999));
#409=DIRECTION('',(0.0,0.0,1.0));
#410=DIRECTION('',(1.0,0.0,0.0));
#411=AXIS2_PLACEMENT_3D('',#408,#409,#410);
#412=CIRCLE('',#411,3.250000000000000);
#413=EDGE_CURVE('',#384,#401,#412,.T.);
#414=ORIENTED_EDGE('',*,*,#413,.F.);
#415=EDGE_LOOP('',(#390,#399,#407,#414));
#416=FACE_OUTER_BOUND('',#415,.T.);
#417=ADVANCED_FACE('',(#416),#380,.F.);
#418=CARTESIAN_POINT('',(0.0,0.0,-4.0));
#419=DIRECTION('',(0.0,0.0,-1.0));
#420=DIRECTION('',(1.0,0.0,0.0));
#421=AXIS2_PLACEMENT_3D('',#418,#419,#420);
#422=CYLINDRICAL_SURFACE('',#421,3.250000000000000);
#423=ORIENTED_EDGE('',*,*,#389,.T.);
#424=CARTESIAN_POINT('',(0.0,0.0,-7.199999999999999));
#425=DIRECTION('',(0.0,0.0,1.0));
#426=DIRECTION('',(1.0,0.0,0.0));
#427=AXIS2_PLACEMENT_3D('',#424,#425,#426);
#428=CIRCLE('',#427,3.250000000000000);
#429=EDGE_CURVE('',#401,#384,#428,.T.);
#430=ORIENTED_EDGE('',*,*,#429,.F.);
#431=ORIENTED_EDGE('',*,*,#406,.F.);
#432=CARTESIAN_POINT('',(0.0,0.0,-4.0));
#433=DIRECTION('',(0.0,0.0,-1.0));
#434=DIRECTION('',(1.0,0.0,0.0));
#435=AXIS2_PLACEMENT_3D('',#432,#433,#434);
#436=CIRCLE('',#435,3.250000000000000);
#437=EDGE_CURVE('',#382,#392,#436,.T.);
#438=ORIENTED_EDGE('',*,*,#437,.F.);
#439=EDGE_LOOP('',(#423,#430,#431,#438));
#440=FACE_OUTER_BOUND('',#439,.T.);
#441=ADVANCED_FACE('',(#440),#422,.F.);
#442=CARTESIAN_POINT('',(5.369357503463523,3.099999999999997,-7.199999999999999));
#443=DIRECTION('',(1.0,0.0,0.0));
#444=DIRECTION('',(0.0,0.0,-1.0));
#445=AXIS2_PLACEMENT_3D('',#442,#443,#444);
#446=PLANE('',#445);
#447=CARTESIAN_POINT('',(5.369357503463524,3.099999999999997,-4.000000000000001));
#448=VERTEX_POINT('',#447);
#449=CARTESIAN_POINT('',(5.369357503463519,-3.100000000000002,-4.000000000000001));
#450=VERTEX_POINT('',#449);
#451=CARTESIAN_POINT('',(5.369357503463524,3.099999999999997,-4.000000000000001));
#452=DIRECTION('',(0.0,-1.0,0.0));
#453=VECTOR('',#452,6.199999999999999);
#454=LINE('',#451,#453);
#455=EDGE_CURVE('',#448,#450,#454,.T.);
#456=ORIENTED_EDGE('',*,*,#455,.T.);
#457=CARTESIAN_POINT('',(5.369357503463519,-3.100000000000002,-7.199999999999998));
#458=VERTEX_POINT('',#457);
#459=CARTESIAN_POINT('',(5.369357503463519,-3.100000000000002,-7.199999999999998));
#460=DIRECTION('',(0.0,0.0,1.0));
#461=VECTOR('',#460,3.199999999999999);
#462=LINE('',#459,#461);
#463=EDGE_CURVE('',#458,#450,#462,.T.);
#464=ORIENTED_EDGE('',*,*,#463,.F.);
#465=CARTESIAN_POINT('',(5.369357503463523,3.099999999999997,-7.199999999999999));
#466=VERTEX_POINT('',#465);
#467=CARTESIAN_POINT('',(5.369357503463523,3.099999999999997,-7.199999999999999));
#468=DIRECTION('',(0.0,-1.0,0.0));
#469=VECTOR('',#468,6.199999999999999);
#470=LINE('',#467,#469);
#471=EDGE_CURVE('',#466,#458,#470,.T.);
#472=ORIENTED_EDGE('',*,*,#471,.F.);
#473=CARTESIAN_POINT('',(5.369357503463523,3.099999999999997,-7.199999999999999));
#474=DIRECTION('',(0.0,0.0,1.0));
#475=VECTOR('',#474,3.199999999999999);
#476=LINE('',#473,#475);
#477=EDGE_CURVE('',#466,#448,#476,.T.);
#478=ORIENTED_EDGE('',*,*,#477,.T.);
#479=EDGE_LOOP('',(#456,#464,#472,#478));
#480=FACE_OUTER_BOUND('',#479,.T.);
#481=ADVANCED_FACE('',(#480),#446,.T.);
#482=CARTESIAN_POINT('',(5.369357503463519,-3.100000000000002,-7.199999999999998));
#483=DIRECTION('',(0.500000000000000,-0.866025403784439,0.0));
#484=DIRECTION('',(0.0,0.0,-1.0));
#485=AXIS2_PLACEMENT_3D('',#482,#483,#484);
#486=PLANE('',#485);
#487=CARTESIAN_POINT('',(0.0,-6.199999999999999,-4.0));
#488=VERTEX_POINT('',#487);
#489=CARTESIAN_POINT('',(5.369357503463519,-3.100000000000002,-4.000000000000001));
#490=DIRECTION('',(-0.866025403784439,-0.500000000000000,0.0));
#491=VECTOR('',#490,6.199999999999998);
#492=LINE('',#489,#491);
#493=EDGE_CURVE('',#450,#488,#492,.T.);
#494=ORIENTED_EDGE('',*,*,#493,.T.);
#495=CARTESIAN_POINT('',(0.0,-6.199999999999999,-7.199999999999999));
#496=VERTEX_POINT('',#495);
#497=CARTESIAN_POINT('',(0.0,-6.199999999999999,-7.199999999999999));
#498=DIRECTION('',(0.0,0.0,1.0));
#499=VECTOR('',#498,3.199999999999999);
#500=LINE('',#497,#499);
#501=EDGE_CURVE('',#496,#488,#500,.T.);
#502=ORIENTED_EDGE('',*,*,#501,.F.);
#503=CARTESIAN_POINT('',(5.369357503463519,-3.100000000000002,-7.199999999999998));
#504=DIRECTION('',(-0.866025403784439,-0.500000000000000,0.0));
#505=VECTOR('',#504,6.199999999999998);
#506=LINE('',#503,#505);
#507=EDGE_CURVE('',#458,#496,#506,.T.);
#508=ORIENTED_EDGE('',*,*,#507,.F.);
#509=ORIENTED_EDGE('',*,*,#463,.T.);
#510=EDGE_LOOP('',(#494,#502,#508,#509));
#511=FACE_OUTER_BOUND('',#510,.T.);
#512=ADVANCED_FACE('',(#511),#486,.T.);
#513=CARTESIAN_POINT('',(0.0,-6.199999999999999,-7.199999999999999));
#514=DIRECTION('',(-0.500000000000000,-0.866025403784439,0.0));
#515=DIRECTION('',(0.0,0.0,1.0));
#516=AXIS2_PLACEMENT_3D('',#513,#514,#515);
#517=PLANE('',#516);
#518=CARTESIAN_POINT('',(-5.369357503463519,-3.099999999999998,-4.0));
#519=VERTEX_POINT('',#518);
#520=CARTESIAN_POINT('',(0.0,-6.199999999999999,-4.0));
#521=DIRECTION('',(-0.866025403784438,0.500000000000000,0.0));
#522=VECTOR('',#521,6.200000000000002);
#523=LINE('',#520,#522);
#524=EDGE_CURVE('',#488,#519,#523,.T.);
#525=ORIENTED_EDGE('',*,*,#524,.T.);
#526=CARTESIAN_POINT('',(-5.369357503463519,-3.099999999999998,-7.199999999999998));
#527=VERTEX_POINT('',#526);
#528=CARTESIAN_POINT('',(-5.369357503463519,-3.099999999999998,-7.199999999999998));
#529=DIRECTION('',(0.0,0.0,1.0));
#530=VECTOR('',#529,3.199999999999999);
#531=LINE('',#528,#530);
#532=EDGE_CURVE('',#527,#519,#531,.T.);
#533=ORIENTED_EDGE('',*,*,#532,.F.);
#534=CARTESIAN_POINT('',(0.0,-6.199999999999999,-7.199999999999999));
#535=DIRECTION('',(-0.866025403784438,0.500000000000000,0.0));
#536=VECTOR('',#535,6.200000000000001);
#537=LINE('',#534,#536);
#538=EDGE_CURVE('',#496,#527,#537,.T.);
#539=ORIENTED_EDGE('',*,*,#538,.F.);
#540=ORIENTED_EDGE('',*,*,#501,.T.);
#541=EDGE_LOOP('',(#525,#533,#539,#540));
#542=FACE_OUTER_BOUND('',#541,.T.);
#543=ADVANCED_FACE('',(#542),#517,.T.);
#544=CARTESIAN_POINT('',(-5.369357503463519,-3.099999999999998,-7.199999999999998));
#545=DIRECTION('',(-1.0,0.0,0.0));
#546=DIRECTION('',(0.0,0.0,1.0));
#547=AXIS2_PLACEMENT_3D('',#544,#545,#546);
#548=PLANE('',#547);
#549=CARTESIAN_POINT('',(-5.369357503463519,3.100000000000002,-4.000000000000001));
#550=VERTEX_POINT('',#549);
#551=CARTESIAN_POINT('',(-5.369357503463519,-3.099999999999998,-4.0));
#552=DIRECTION('',(0.0,1.0,0.0));
#553=VECTOR('',#552,6.200000000000000);
#554=LINE('',#551,#553);
#555=EDGE_CURVE('',#519,#550,#554,.T.);
#556=ORIENTED_EDGE('',*,*,#555,.T.);
#557=CARTESIAN_POINT('',(-5.369357503463519,3.100000000000002,-7.199999999999999));
#558=VERTEX_POINT('',#557);
#559=CARTESIAN_POINT('',(-5.369357503463519,3.100000000000002,-7.199999999999999));
#560=DIRECTION('',(0.0,0.0,1.0));
#561=VECTOR('',#560,3.199999999999999);
#562=LINE('',#559,#561);
#563=EDGE_CURVE('',#558,#550,#562,.T.);
#564=ORIENTED_EDGE('',*,*,#563,.F.);
#565=CARTESIAN_POINT('',(-5.369357503463519,-3.099999999999998,-7.199999999999998));
#566=DIRECTION('',(0.0,1.0,0.0));
#567=VECTOR('',#566,6.200000000000000);
#568=LINE('',#565,#567);
#569=EDGE_CURVE('',#527,#558,#568,.T.);
#570=ORIENTED_EDGE('',*,*,#569,.F.);
#571=ORIENTED_EDGE('',*,*,#532,.T.);
#572=EDGE_LOOP('',(#556,#564,#570,#571));
#573=FACE_OUTER_BOUND('',#572,.T.);
#574=ADVANCED_FACE('',(#573),#548,.T.);
#575=CARTESIAN_POINT('',(-5.369357503463519,3.100000000000002,-7.199999999999999));
#576=DIRECTION('',(-0.500000000000000,0.866025403784439,0.0));
#577=DIRECTION('',(0.0,0.0,1.0));
#578=AXIS2_PLACEMENT_3D('',#575,#576,#577);
#579=PLANE('',#578);
#580=CARTESIAN_POINT('',(1.332268E-015,6.200000000000001,-4.000000000000001));
#581=VERTEX_POINT('',#580);
#582=CARTESIAN_POINT('',(-5.369357503463519,3.100000000000002,-4.000000000000001));
#583=DIRECTION('',(0.866025403784439,0.500000000000000,0.0));
#584=VECTOR('',#583,6.200000000000000);
#585=LINE('',#582,#584);
#586=EDGE_CURVE('',#550,#581,#585,.T.);
#587=ORIENTED_EDGE('',*,*,#586,.T.);
#588=CARTESIAN_POINT('',(1.332268E-015,6.200000000000001,-7.199999999999999));
#589=VERTEX_POINT('',#588);
#590=CARTESIAN_POINT('',(1.332268E-015,6.200000000000001,-7.199999999999999));
#591=DIRECTION('',(0.0,0.0,1.0));
#592=VECTOR('',#591,3.199999999999999);
#593=LINE('',#590,#592);
#594=EDGE_CURVE('',#589,#581,#593,.T.);
#595=ORIENTED_EDGE('',*,*,#594,.F.);
#596=CARTESIAN_POINT('',(-5.369357503463519,3.100000000000002,-7.199999999999999));
#597=DIRECTION('',(0.866025403784439,0.500000000000000,0.0));
#598=VECTOR('',#597,6.199999999999997);
#599=LINE('',#596,#598);
#600=EDGE_CURVE('',#558,#589,#599,.T.);
#601=ORIENTED_EDGE('',*,*,#600,.F.);
#602=ORIENTED_EDGE('',*,*,#563,.T.);
#603=EDGE_LOOP('',(#587,#595,#601,#602));
#604=FACE_OUTER_BOUND('',#603,.T.);
#605=ADVANCED_FACE('',(#604),#579,.T.);
#606=CARTESIAN_POINT('',(1.332268E-015,6.200000000000001,-7.199999999999999));
#607=DIRECTION('',(0.500000000000000,0.866025403784439,0.0));
#608=DIRECTION('',(0.0,0.0,-1.0));
#609=AXIS2_PLACEMENT_3D('',#606,#607,#608);
#610=PLANE('',#609);
#611=CARTESIAN_POINT('',(1.332268E-015,6.200000000000001,-4.000000000000001));
#612=DIRECTION('',(0.866025403784438,-0.500000000000000,0.0));
#613=VECTOR('',#612,6.200000000000005);
#614=LINE('',#611,#613);
#615=EDGE_CURVE('',#581,#448,#614,.T.);
#616=ORIENTED_EDGE('',*,*,#615,.T.);
#617=ORIENTED_EDGE('',*,*,#477,.F.);
#618=CARTESIAN_POINT('',(1.332268E-015,6.200000000000001,-7.199999999999999));
#619=DIRECTION('',(0.866025403784438,-0.500000000000000,0.0));
#620=VECTOR('',#619,6.200000000000005);
#621=LINE('',#618,#620);
#622=EDGE_CURVE('',#589,#466,#621,.T.);
#623=ORIENTED_EDGE('',*,*,#622,.F.);
#624=ORIENTED_EDGE('',*,*,#594,.T.);
#625=EDGE_LOOP('',(#616,#617,#623,#624));
#626=FACE_OUTER_BOUND('',#625,.T.);
#627=ADVANCED_FACE('',(#626),#610,.T.);
#628=CARTESIAN_POINT('',(4.440892E-016,1.110223E-015,-4.0));
#629=DIRECTION('',(0.0,0.0,1.0));
#630=DIRECTION('',(1.0,0.0,0.0));
#631=AXIS2_PLACEMENT_3D('',#628,#629,#630);
#632=PLANE('',#631);
#633=ORIENTED_EDGE('',*,*,#615,.F.);
#634=ORIENTED_EDGE('',*,*,#586,.F.);
#635=ORIENTED_EDGE('',*,*,#555,.F.);
#636=ORIENTED_EDGE('',*,*,#524,.F.);
#637=ORIENTED_EDGE('',*,*,#493,.F.);
#638=ORIENTED_EDGE('',*,*,#455,.F.);
#639=EDGE_LOOP('',(#633,#634,#635,#636,#637,#638));
#640=FACE_OUTER_BOUND('',#639,.T.);
#641=ORIENTED_EDGE('',*,*,#437,.T.);
#642=ORIENTED_EDGE('',*,*,#398,.T.);
#643=EDGE_LOOP('',(#641,#642));
#644=FACE_BOUND('',#643,.T.);
#645=ADVANCED_FACE('',(#640,#644),#632,.T.);
#646=CARTESIAN_POINT('',(1.332268E-015,8.814498E-016,-7.199999999999999));
#647=DIRECTION('',(0.0,0.0,1.0));
#648=DIRECTION('',(1.0,0.0,0.0));
#649=AXIS2_PLACEMENT_3D('',#646,#647,#648);
#650=PLANE('',#649);
#651=ORIENTED_EDGE('',*,*,#600,.T.);
#652=ORIENTED_EDGE('',*,*,#622,.T.);
#653=ORIENTED_EDGE('',*,*,#471,.T.);
#654=ORIENTED_EDGE('',*,*,#507,.T.);
#655=ORIENTED_EDGE('',*,*,#538,.T.);
#656=ORIENTED_EDGE('',*,*,#569,.T.);
#657=EDGE_LOOP('',(#651,#652,#653,#654,#655,#656));
#658=FACE_OUTER_BOUND('',#657,.T.);
#659=ORIENTED_EDGE('',*,*,#429,.T.);
#660=ORIENTED_EDGE('',*,*,#413,.T.);
#661=EDGE_LOOP('',(#659,#660));
#662=FACE_BOUND('',#661,.T.);
#663=ADVANCED_FACE('',(#658,#662),#650,.F.);
#664=CLOSED_SHELL('',(#417,#441,#481,#512,#543,#574,#605,#627,#645,#663));
#665=MANIFOLD_SOLID_BREP('D35',#664);
#666=STYLED_ITEM('NONE',(#373),#665);
#667=CARTESIAN_POINT('',(0.0,0.0,-4.0));
#668=DIRECTION('',(0.0,0.0,1.0));
#669=DIRECTION('',(1.0,0.0,0.0));
#670=AXIS2_PLACEMENT_3D('',#667,#668,#669);
#671=CYLINDRICAL_SURFACE('',#670,5.850000000000000);
#672=CARTESIAN_POINT('',(5.849999999999994,0.0,-2.500000000000000));
#673=VERTEX_POINT('',#672);
#674=CARTESIAN_POINT('',(5.849999999999994,0.0,-4.0));
#675=VERTEX_POINT('',#674);
#676=CARTESIAN_POINT('',(5.850000000000000,0.0,-2.500000000000000));
#677=DIRECTION('',(0.0,0.0,-1.0));
#678=VECTOR('',#677,1.500000000000000);
#679=LINE('',#676,#678);
#680=EDGE_CURVE('',#673,#675,#679,.T.);
#681=ORIENTED_EDGE('',*,*,#680,.F.);
#682=CARTESIAN_POINT('',(-5.850000000000000,-7.163947E-016,-2.500000000000000));
#683=VERTEX_POINT('',#682);
#684=CARTESIAN_POINT('',(0.0,0.0,-2.500000000000000));
#685=DIRECTION('',(0.0,0.0,-1.0));
#686=DIRECTION('',(1.0,0.0,0.0));
#687=AXIS2_PLACEMENT_3D('',#684,#685,#686);
#688=CIRCLE('',#687,5.850000000000000);
#689=EDGE_CURVE('',#673,#683,#688,.T.);
#690=ORIENTED_EDGE('',*,*,#689,.T.);
#691=CARTESIAN_POINT('',(-5.850000000000000,-7.163947E-016,-4.0));
#692=VERTEX_POINT('',#691);
#693=CARTESIAN_POINT('',(-5.850000000000000,-7.163947E-016,-2.500000000000000));
#694=DIRECTION('',(0.0,0.0,-1.0));
#695=VECTOR('',#694,1.500000000000000);
#696=LINE('',#693,#695);
#697=EDGE_CURVE('',#683,#692,#696,.T.);
#698=ORIENTED_EDGE('',*,*,#697,.T.);
#699=CARTESIAN_POINT('',(0.0,0.0,-4.0));
#700=DIRECTION('',(0.0,0.0,1.0));
#701=DIRECTION('',(1.0,0.0,0.0));
#702=AXIS2_PLACEMENT_3D('',#699,#700,#701);
#703=CIRCLE('',#702,5.850000000000000);
#704=EDGE_CURVE('',#692,#675,#703,.T.);
#705=ORIENTED_EDGE('',*,*,#704,.T.);
#706=EDGE_LOOP('',(#681,#690,#698,#705));
#707=FACE_OUTER_BOUND('',#706,.T.);
#708=ADVANCED_FACE('',(#707),#671,.T.);
#709=CARTESIAN_POINT('',(0.0,0.0,-4.0));
#710=DIRECTION('',(0.0,0.0,1.0));
#711=DIRECTION('',(1.0,0.0,0.0));
#712=AXIS2_PLACEMENT_3D('',#709,#710,#711);
#713=CYLINDRICAL_SURFACE('',#712,3.250000000000000);
#714=CARTESIAN_POINT('',(3.250000000000000,0.0,-4.0));
#715=VERTEX_POINT('',#714);
#716=CARTESIAN_POINT('',(3.250000000000000,0.0,-2.500000000000000));
#717=VERTEX_POINT('',#716);
#718=CARTESIAN_POINT('',(3.250000000000000,0.0,-4.0));
#719=DIRECTION('',(0.0,0.0,1.0));
#720=VECTOR('',#719,1.500000000000000);
#721=LINE('',#718,#720);
#722=EDGE_CURVE('',#715,#717,#721,.T.);
#723=ORIENTED_EDGE('',*,*,#722,.F.);
#724=CARTESIAN_POINT('',(-3.250000000000000,-3.979971E-016,-4.0));
#725=VERTEX_POINT('',#724);
#726=CARTESIAN_POINT('',(0.0,0.0,-4.0));
#727=DIRECTION('',(0.0,0.0,1.0));
#728=DIRECTION('',(1.0,0.0,0.0));
#729=AXIS2_PLACEMENT_3D('',#726,#727,#728);
#730=CIRCLE('',#729,3.250000000000000);
#731=EDGE_CURVE('',#725,#715,#730,.T.);
#732=ORIENTED_EDGE('',*,*,#731,.F.);
#733=CARTESIAN_POINT('',(-3.250000000000000,-3.979971E-016,-2.500000000000000));
#734=VERTEX_POINT('',#733);
#735=CARTESIAN_POINT('',(-3.250000000000000,-3.979971E-016,-4.0));
#736=DIRECTION('',(0.0,0.0,1.0));
#737=VECTOR('',#736,1.500000000000000);
#738=LINE('',#735,#737);
#739=EDGE_CURVE('',#725,#734,#738,.T.);
#740=ORIENTED_EDGE('',*,*,#739,.T.);
#741=CARTESIAN_POINT('',(0.0,0.0,-2.500000000000000));
#742=DIRECTION('',(0.0,0.0,-1.0));
#743=DIRECTION('',(1.0,0.0,0.0));
#744=AXIS2_PLACEMENT_3D('',#741,#742,#743);
#745=CIRCLE('',#744,3.250000000000000);
#746=EDGE_CURVE('',#717,#734,#745,.T.);
#747=ORIENTED_EDGE('',*,*,#746,.F.);
#748=EDGE_LOOP('',(#723,#732,#740,#747));
#749=FACE_OUTER_BOUND('',#748,.T.);
#750=ADVANCED_FACE('',(#749),#713,.F.);
#751=CARTESIAN_POINT('',(0.0,0.0,-4.0));
#752=DIRECTION('',(0.0,0.0,1.0));
#753=DIRECTION('',(1.0,0.0,0.0));
#754=AXIS2_PLACEMENT_3D('',#751,#752,#753);
#755=CYLINDRICAL_SURFACE('',#754,3.250000000000000);
#756=ORIENTED_EDGE('',*,*,#722,.T.);
#757=CARTESIAN_POINT('',(0.0,0.0,-2.500000000000000));
#758=DIRECTION('',(0.0,0.0,-1.0));
#759=DIRECTION('',(1.0,0.0,0.0));
#760=AXIS2_PLACEMENT_3D('',#757,#758,#759);
#761=CIRCLE('',#760,3.250000000000000);
#762=EDGE_CURVE('',#734,#717,#761,.T.);
#763=ORIENTED_EDGE('',*,*,#762,.F.);
#764=ORIENTED_EDGE('',*,*,#739,.F.);
#765=CARTESIAN_POINT('',(0.0,0.0,-4.0));
#766=DIRECTION('',(0.0,0.0,1.0));
#767=DIRECTION('',(1.0,0.0,0.0));
#768=AXIS2_PLACEMENT_3D('',#765,#766,#767);
#769=CIRCLE('',#768,3.250000000000000);
#770=EDGE_CURVE('',#715,#725,#769,.T.);
#771=ORIENTED_EDGE('',*,*,#770,.F.);
#772=EDGE_LOOP('',(#756,#763,#764,#771));
#773=FACE_OUTER_BOUND('',#772,.T.);
#774=ADVANCED_FACE('',(#773),#755,.F.);
#775=CARTESIAN_POINT('',(0.0,0.0,-4.0));
#776=DIRECTION('',(0.0,0.0,1.0));
#777=DIRECTION('',(1.0,0.0,0.0));
#778=AXIS2_PLACEMENT_3D('',#775,#776,#777);
#779=CYLINDRICAL_SURFACE('',#778,5.850000000000000);
#780=ORIENTED_EDGE('',*,*,#680,.T.);
#781=CARTESIAN_POINT('',(0.0,0.0,-4.0));
#782=DIRECTION('',(0.0,0.0,1.0));
#783=DIRECTION('',(1.0,0.0,0.0));
#784=AXIS2_PLACEMENT_3D('',#781,#782,#783);
#785=CIRCLE('',#784,5.850000000000000);
#786=EDGE_CURVE('',#675,#692,#785,.T.);
#787=ORIENTED_EDGE('',*,*,#786,.T.);
#788=ORIENTED_EDGE('',*,*,#697,.F.);
#789=CARTESIAN_POINT('',(0.0,0.0,-2.500000000000000));
#790=DIRECTION('',(0.0,0.0,-1.0));
#791=DIRECTION('',(1.0,0.0,0.0));
#792=AXIS2_PLACEMENT_3D('',#789,#790,#791);
#793=CIRCLE('',#792,5.850000000000000);
#794=EDGE_CURVE('',#683,#673,#793,.T.);
#795=ORIENTED_EDGE('',*,*,#794,.T.);
#796=EDGE_LOOP('',(#780,#787,#788,#795));
#797=FACE_OUTER_BOUND('',#796,.T.);
#798=ADVANCED_FACE('',(#797),#779,.T.);
#799=CARTESIAN_POINT('',(0.0,0.0,-4.0));
#800=DIRECTION('',(0.0,0.0,1.0));
#801=DIRECTION('',(1.0,0.0,0.0));
#802=AXIS2_PLACEMENT_3D('',#799,#800,#801);
#803=PLANE('',#802);
#804=ORIENTED_EDGE('',*,*,#786,.F.);
#805=ORIENTED_EDGE('',*,*,#704,.F.);
#806=EDGE_LOOP('',(#804,#805));
#807=FACE_OUTER_BOUND('',#806,.T.);
#808=ORIENTED_EDGE('',*,*,#770,.T.);
#809=ORIENTED_EDGE('',*,*,#731,.T.);
#810=EDGE_LOOP('',(#808,#809));
#811=FACE_BOUND('',#810,.T.);
#812=ADVANCED_FACE('',(#807,#811),#803,.F.);
#813=CARTESIAN_POINT('',(0.0,0.0,-2.500000000000000));
#814=DIRECTION('',(0.0,0.0,1.0));
#815=DIRECTION('',(1.0,0.0,0.0));
#816=AXIS2_PLACEMENT_3D('',#813,#814,#815);
#817=PLANE('',#816);
#818=ORIENTED_EDGE('',*,*,#689,.F.);
#819=ORIENTED_EDGE('',*,*,#794,.F.);
#820=EDGE_LOOP('',(#818,#819));
#821=FACE_OUTER_BOUND('',#820,.T.);
#822=ORIENTED_EDGE('',*,*,#746,.T.);
#823=ORIENTED_EDGE('',*,*,#762,.T.);
#824=EDGE_LOOP('',(#822,#823));
#825=FACE_BOUND('',#824,.T.);
#826=ADVANCED_FACE('',(#821,#825),#817,.T.);
#827=CLOSED_SHELL('',(#708,#750,#774,#798,#812,#826));
#828=MANIFOLD_SOLID_BREP('D29',#827);
#829=STYLED_ITEM('NONE',(#373),#828);
#830=ADVANCED_BREP_SHAPE_REPRESENTATION('ABSR1',(#366,#665,#828),#28);
#831=SHAPE_REPRESENTATION_RELATIONSHIP('SRRPL1','',#830,#62);
#832=GEOMETRIC_CURVE_SET('GCS1',(#65));
#833=GEOMETRICALLY_BOUNDED_WIREFRAME_SHAPE_REPRESENTATION('GBWSR1',(#832),#28);
#834=SHAPE_REPRESENTATION_RELATIONSHIP('SRRPL2','',#833,#62);
ENDSEC;
END-ISO-10303-21;
