ISO-10303-21;
HEADER;
/****************************************************************
 * Generated by software with PDE/Lib inside                    *
 * PDElib Version v51a, created Mon 11/03/2008                  *
 * International Technegroup Inc. (www.iti-oh.com)              *
 ****************************************************************/
FILE_DESCRIPTION((''),'2;1');
FILE_NAME('SFH350V.stp','2010-10-06T16:47:35',(''),(''),'Mechanical Desktop 2010','Mechanical Desktop 2010',', , ');
FILE_SCHEMA(('AUTOMOTIVE_DESIGN { 1 2 10303 214 1 1 1 1 }'));
ENDSEC;
DATA;
#8=(NAMED_UNIT(*)PLANE_ANGLE_UNIT()SI_UNIT($,.RADIAN.));
#9=DIMENSIONAL_EXPONENTS(0.0,0.0,0.0,0.0,0.0,0.0,0.0);
#10=PLANE_ANGLE_MEASURE_WITH_UNIT(PLANE_ANGLE_MEASURE(0.017453292500000),#8);
#14=(CONVERSION_BASED_UNIT('DEGREE',#10)NAMED_UNIT(#9)PLANE_ANGLE_UNIT());
#18=(NAMED_UNIT(*)SI_UNIT($,.STERADIAN.)SOLID_ANGLE_UNIT());
#22=(LENGTH_UNIT()NAMED_UNIT(*)SI_UNIT(.MILLI.,.METRE.));
#23=UNCERTAINTY_MEASURE_WITH_UNIT(LENGTH_MEASURE(0.000001000000000),#22,'DISTANCE_ACCURACY_VALUE','');
#28=(GEOMETRIC_REPRESENTATION_CONTEXT(3)GLOBAL_UNCERTAINTY_ASSIGNED_CONTEXT((#23))GLOBAL_UNIT_ASSIGNED_CONTEXT((#14,#18,#22))REPRESENTATION_CONTEXT('None','None'));
#29=APPLICATION_CONTEXT('automotive design');
#30=APPLICATION_PROTOCOL_DEFINITION('INTERNATIONAL_STANDARD','automotive_design',1998,#29);
#31=PRODUCT_CONTEXT('3D Mechanical Parts',#29,'mechanical');
#32=PRODUCT('Product','Product','',(#31));
#33=PRODUCT_RELATED_PRODUCT_CATEGORY('part',$,(#32));
#34=PRODUCT_CATEGORY('part',$);
#35=PERSON('1','Design','Joe',$,$,$);
#36=ORGANIZATION($,'None','None');
#37=PERSON_AND_ORGANIZATION(#35,#36);
#38=PERSON_AND_ORGANIZATION_ROLE('design_owner');
#39=APPLIED_PERSON_AND_ORGANIZATION_ASSIGNMENT(#37,#38,(#32));
#40=PRODUCT_DEFINITION_FORMATION_WITH_SPECIFIED_SOURCE('None','',#32,.BOUGHT.);
#41=PERSON('2','Creator','Joe',$,$,$);
#42=ORGANIZATION($,'None','None');
#43=PERSON_AND_ORGANIZATION(#41,#42);
#44=PERSON_AND_ORGANIZATION_ROLE('creator');
#45=APPLIED_PERSON_AND_ORGANIZATION_ASSIGNMENT(#43,#44,(#40));
#46=PERSON('3','Supplier','Joe',$,$,$);
#47=ORGANIZATION($,'None','None');
#48=PERSON_AND_ORGANIZATION(#46,#47);
#49=PERSON_AND_ORGANIZATION_ROLE('design_supplier');
#50=APPLIED_PERSON_AND_ORGANIZATION_ASSIGNMENT(#48,#49,(#40));
#51=PRODUCT_DEFINITION_CONTEXT('part definition',#29,'design');
#52=PRODUCT_DEFINITION('None','',#40,#51);
#53=PERSON('4','Creator','Joe',$,$,$);
#54=ORGANIZATION($,'None','None');
#55=PERSON_AND_ORGANIZATION(#53,#54);
#56=PERSON_AND_ORGANIZATION_ROLE('creator');
#57=APPLIED_PERSON_AND_ORGANIZATION_ASSIGNMENT(#55,#56,(#52));
#58=CARTESIAN_POINT('NONE',(0.0,0.0,0.0));
#59=DIRECTION('NONE',(0.0,0.0,1.0));
#60=DIRECTION('NONE',(1.0,0.0,0.0));
#61=AXIS2_PLACEMENT_3D('NONE',#58,#59,#60);
#62=SHAPE_REPRESENTATION('SR1',(#61),#28);
#63=PRODUCT_DEFINITION_SHAPE('PDS1','Test Part',#52);
#64=SHAPE_DEFINITION_REPRESENTATION(#63,#62);
#65=CARTESIAN_POINT('',(-0.000290625620230,0.999999999999992,1.600000000000000));
#66=DIRECTION('',(0.0,0.0,1.0));
#67=DIRECTION('',(-1.0,0.0,0.0));
#68=AXIS2_PLACEMENT_3D('',#65,#66,#67);
#69=PLANE('',#68);
#70=CARTESIAN_POINT('',(-0.500290625620231,1.769999999999993,1.600000000000000));
#71=VERTEX_POINT('',#70);
#72=CARTESIAN_POINT('',(-0.500290625620231,0.729999999999992,1.600000000000000));
#73=VERTEX_POINT('',#72);
#74=CARTESIAN_POINT('',(-0.500290625620231,1.769999999999993,1.600000000000000));
#75=DIRECTION('',(0.0,-1.0,0.0));
#76=VECTOR('',#75,1.040000000000001);
#77=LINE('',#74,#76);
#78=EDGE_CURVE('',#71,#73,#77,.T.);
#79=ORIENTED_EDGE('',*,*,#78,.T.);
#80=CARTESIAN_POINT('',(0.499709374379770,0.729999999999992,1.600000000000000));
#81=VERTEX_POINT('',#80);
#82=CARTESIAN_POINT('',(-0.500290625620231,0.729999999999992,1.600000000000000));
#83=DIRECTION('',(1.0,0.0,0.0));
#84=VECTOR('',#83,1.000000000000001);
#85=LINE('',#82,#84);
#86=EDGE_CURVE('',#73,#81,#85,.T.);
#87=ORIENTED_EDGE('',*,*,#86,.T.);
#88=CARTESIAN_POINT('',(0.499709374379770,1.769999999999993,1.600000000000000));
#89=VERTEX_POINT('',#88);
#90=CARTESIAN_POINT('',(0.499709374379770,0.729999999999992,1.600000000000000));
#91=DIRECTION('',(0.0,1.0,0.0));
#92=VECTOR('',#91,1.040000000000001);
#93=LINE('',#90,#92);
#94=EDGE_CURVE('',#81,#89,#93,.T.);
#95=ORIENTED_EDGE('',*,*,#94,.T.);
#96=CARTESIAN_POINT('',(0.499709374379770,1.769999999999993,1.600000000000000));
#97=DIRECTION('',(-1.0,0.0,0.0));
#98=VECTOR('',#97,1.000000000000001);
#99=LINE('',#96,#98);
#100=EDGE_CURVE('',#89,#71,#99,.T.);
#101=ORIENTED_EDGE('',*,*,#100,.T.);
#102=EDGE_LOOP('',(#79,#87,#95,#101));
#103=FACE_OUTER_BOUND('',#102,.T.);
#104=ADVANCED_FACE('',(#103),#69,.T.);
#105=CARTESIAN_POINT('',(-0.500290625620231,0.999999999999992,1.100000000000000));
#106=DIRECTION('',(1.0,0.0,0.0));
#107=DIRECTION('',(0.0,0.0,1.0));
#108=AXIS2_PLACEMENT_3D('',#105,#106,#107);
#109=PLANE('',#108);
#110=CARTESIAN_POINT('',(-0.500290625620231,1.769999999999993,0.600000000000000));
#111=VERTEX_POINT('',#110);
#112=CARTESIAN_POINT('',(-0.500290625620231,1.769999999999993,1.600000000000000));
#113=DIRECTION('',(0.0,0.0,-1.0));
#114=VECTOR('',#113,1.000000000000000);
#115=LINE('',#112,#114);
#116=EDGE_CURVE('',#71,#111,#115,.T.);
#117=ORIENTED_EDGE('',*,*,#116,.T.);
#118=CARTESIAN_POINT('',(-0.500290625620231,0.729999999999992,0.600000000000000));
#119=VERTEX_POINT('',#118);
#120=CARTESIAN_POINT('',(-0.500290625620231,0.729999999999992,0.600000000000000));
#121=DIRECTION('',(0.0,1.0,0.0));
#122=VECTOR('',#121,1.040000000000001);
#123=LINE('',#120,#122);
#124=EDGE_CURVE('',#119,#111,#123,.T.);
#125=ORIENTED_EDGE('',*,*,#124,.F.);
#126=CARTESIAN_POINT('',(-0.500290625620231,0.729999999999992,1.600000000000000));
#127=DIRECTION('',(0.0,0.0,-1.0));
#128=VECTOR('',#127,1.000000000000000);
#129=LINE('',#126,#128);
#130=EDGE_CURVE('',#73,#119,#129,.T.);
#131=ORIENTED_EDGE('',*,*,#130,.F.);
#132=ORIENTED_EDGE('',*,*,#78,.F.);
#133=EDGE_LOOP('',(#117,#125,#131,#132));
#134=FACE_OUTER_BOUND('',#133,.T.);
#135=ADVANCED_FACE('',(#134),#109,.F.);
#136=CARTESIAN_POINT('',(-0.000290625620230,0.999999999999992,0.600000000000000));
#137=DIRECTION('',(0.0,0.0,1.0));
#138=DIRECTION('',(-1.0,0.0,0.0));
#139=AXIS2_PLACEMENT_3D('',#136,#137,#138);
#140=PLANE('',#139);
#141=ORIENTED_EDGE('',*,*,#124,.T.);
#142=CARTESIAN_POINT('',(0.499709374379770,1.769999999999993,0.600000000000000));
#143=VERTEX_POINT('',#142);
#144=CARTESIAN_POINT('',(-0.500290625620231,1.769999999999993,0.600000000000000));
#145=DIRECTION('',(1.0,0.0,0.0));
#146=VECTOR('',#145,1.000000000000001);
#147=LINE('',#144,#146);
#148=EDGE_CURVE('',#111,#143,#147,.T.);
#149=ORIENTED_EDGE('',*,*,#148,.T.);
#150=CARTESIAN_POINT('',(0.499709374379770,0.729999999999992,0.600000000000000));
#151=VERTEX_POINT('',#150);
#152=CARTESIAN_POINT('',(0.499709374379770,1.769999999999993,0.600000000000000));
#153=DIRECTION('',(0.0,-1.0,0.0));
#154=VECTOR('',#153,1.040000000000001);
#155=LINE('',#152,#154);
#156=EDGE_CURVE('',#143,#151,#155,.T.);
#157=ORIENTED_EDGE('',*,*,#156,.T.);
#158=CARTESIAN_POINT('',(0.499709374379770,0.729999999999992,0.600000000000000));
#159=DIRECTION('',(-1.0,0.0,0.0));
#160=VECTOR('',#159,1.000000000000001);
#161=LINE('',#158,#160);
#162=EDGE_CURVE('',#151,#119,#161,.T.);
#163=ORIENTED_EDGE('',*,*,#162,.T.);
#164=EDGE_LOOP('',(#141,#149,#157,#163));
#165=FACE_OUTER_BOUND('',#164,.T.);
#166=ADVANCED_FACE('',(#165),#140,.F.);
#167=CARTESIAN_POINT('',(0.499709374379770,0.999999999999992,1.100000000000000));
#168=DIRECTION('',(-1.0,0.0,0.0));
#169=DIRECTION('',(0.0,0.0,-1.0));
#170=AXIS2_PLACEMENT_3D('',#167,#168,#169);
#171=PLANE('',#170);
#172=CARTESIAN_POINT('',(0.499709374379770,0.729999999999992,1.600000000000000));
#173=DIRECTION('',(0.0,0.0,-1.0));
#174=VECTOR('',#173,1.000000000000000);
#175=LINE('',#172,#174);
#176=EDGE_CURVE('',#81,#151,#175,.T.);
#177=ORIENTED_EDGE('',*,*,#176,.T.);
#178=ORIENTED_EDGE('',*,*,#156,.F.);
#179=CARTESIAN_POINT('',(0.499709374379770,1.769999999999993,1.600000000000000));
#180=DIRECTION('',(0.0,0.0,-1.0));
#181=VECTOR('',#180,1.000000000000000);
#182=LINE('',#179,#181);
#183=EDGE_CURVE('',#89,#143,#182,.T.);
#184=ORIENTED_EDGE('',*,*,#183,.F.);
#185=ORIENTED_EDGE('',*,*,#94,.F.);
#186=EDGE_LOOP('',(#177,#178,#184,#185));
#187=FACE_OUTER_BOUND('',#186,.T.);
#188=ADVANCED_FACE('',(#187),#171,.F.);
#189=CARTESIAN_POINT('',(-0.000290625620230,0.729999999999992,1.100000000000000));
#190=DIRECTION('',(0.0,1.0,0.0));
#191=DIRECTION('',(0.0,0.0,-1.0));
#192=AXIS2_PLACEMENT_3D('',#189,#190,#191);
#193=PLANE('',#192);
#194=ORIENTED_EDGE('',*,*,#130,.T.);
#195=ORIENTED_EDGE('',*,*,#162,.F.);
#196=ORIENTED_EDGE('',*,*,#176,.F.);
#197=ORIENTED_EDGE('',*,*,#86,.F.);
#198=EDGE_LOOP('',(#194,#195,#196,#197));
#199=FACE_OUTER_BOUND('',#198,.T.);
#200=ADVANCED_FACE('',(#199),#193,.F.);
#201=CARTESIAN_POINT('',(-0.000290625620230,1.769999999999993,1.100000000000000));
#202=DIRECTION('',(0.0,-1.0,0.0));
#203=DIRECTION('',(0.0,0.0,1.0));
#204=AXIS2_PLACEMENT_3D('',#201,#202,#203);
#205=PLANE('',#204);
#206=ORIENTED_EDGE('',*,*,#183,.T.);
#207=ORIENTED_EDGE('',*,*,#148,.F.);
#208=ORIENTED_EDGE('',*,*,#116,.F.);
#209=ORIENTED_EDGE('',*,*,#100,.F.);
#210=EDGE_LOOP('',(#206,#207,#208,#209));
#211=FACE_OUTER_BOUND('',#210,.T.);
#212=ADVANCED_FACE('',(#211),#205,.F.);
#213=CLOSED_SHELL('',(#104,#135,#166,#188,#200,#212));
#214=MANIFOLD_SOLID_BREP('BB1',#213);
#215=COLOUR_RGB('250',0.330000000000000,0.330000000000000,0.330000000000000);
#216=SURFACE_STYLE_USAGE(.BOTH.,#217);
#217=SURFACE_SIDE_STYLE('NONE',(#218));
#218=SURFACE_STYLE_FILL_AREA(#219);
#219=FILL_AREA_STYLE('NONE',(#220));
#220=FILL_AREA_STYLE_COLOUR('NONE',#215);
#221=PRESENTATION_STYLE_ASSIGNMENT((#216));
#222=STYLED_ITEM('NONE',(#221),#214);
#223=MECHANICAL_DESIGN_GEOMETRIC_PRESENTATION_REPRESENTATION('NONE',(#222,#375,#668,#757,#846,#942,#1031,#1120,#1209,#1762),#28);
#224=PRESENTATION_LAYER_ASSIGNMENT('3D','None',(#214,#374,#667,#756,#845,#934,#1030,#1119,#1208,#1761));
#225=CARTESIAN_POINT('',(-0.000290625620230,-1.000000000000008,1.600000000000000));
#226=DIRECTION('',(0.0,0.0,1.0));
#227=DIRECTION('',(-1.0,0.0,0.0));
#228=AXIS2_PLACEMENT_3D('',#225,#226,#227);
#229=PLANE('',#228);
#230=CARTESIAN_POINT('',(-0.500290625620231,-0.730000000000007,1.600000000000000));
#231=VERTEX_POINT('',#230);
#232=CARTESIAN_POINT('',(-0.500290625620231,-1.770000000000009,1.600000000000000));
#233=VERTEX_POINT('',#232);
#234=CARTESIAN_POINT('',(-0.500290625620231,-0.730000000000007,1.600000000000000));
#235=DIRECTION('',(0.0,-1.0,0.0));
#236=VECTOR('',#235,1.040000000000001);
#237=LINE('',#234,#236);
#238=EDGE_CURVE('',#231,#233,#237,.T.);
#239=ORIENTED_EDGE('',*,*,#238,.T.);
#240=CARTESIAN_POINT('',(0.499709374379770,-1.770000000000009,1.600000000000000));
#241=VERTEX_POINT('',#240);
#242=CARTESIAN_POINT('',(-0.500290625620231,-1.770000000000009,1.600000000000000));
#243=DIRECTION('',(1.0,0.0,0.0));
#244=VECTOR('',#243,1.000000000000001);
#245=LINE('',#242,#244);
#246=EDGE_CURVE('',#233,#241,#245,.T.);
#247=ORIENTED_EDGE('',*,*,#246,.T.);
#248=CARTESIAN_POINT('',(0.499709374379770,-0.730000000000007,1.600000000000000));
#249=VERTEX_POINT('',#248);
#250=CARTESIAN_POINT('',(0.499709374379770,-1.770000000000009,1.600000000000000));
#251=DIRECTION('',(0.0,1.0,0.0));
#252=VECTOR('',#251,1.040000000000001);
#253=LINE('',#250,#252);
#254=EDGE_CURVE('',#241,#249,#253,.T.);
#255=ORIENTED_EDGE('',*,*,#254,.T.);
#256=CARTESIAN_POINT('',(0.499709374379770,-0.730000000000007,1.600000000000000));
#257=DIRECTION('',(-1.0,0.0,0.0));
#258=VECTOR('',#257,1.000000000000001);
#259=LINE('',#256,#258);
#260=EDGE_CURVE('',#249,#231,#259,.T.);
#261=ORIENTED_EDGE('',*,*,#260,.T.);
#262=EDGE_LOOP('',(#239,#247,#255,#261));
#263=FACE_OUTER_BOUND('',#262,.T.);
#264=ADVANCED_FACE('',(#263),#229,.T.);
#265=CARTESIAN_POINT('',(0.499709374379770,-1.000000000000008,1.100000000000000));
#266=DIRECTION('',(-1.0,0.0,0.0));
#267=DIRECTION('',(0.0,0.0,-1.0));
#268=AXIS2_PLACEMENT_3D('',#265,#266,#267);
#269=PLANE('',#268);
#270=CARTESIAN_POINT('',(0.499709374379770,-1.770000000000009,0.600000000000000));
#271=VERTEX_POINT('',#270);
#272=CARTESIAN_POINT('',(0.499709374379770,-1.770000000000009,1.600000000000000));
#273=DIRECTION('',(0.0,0.0,-1.0));
#274=VECTOR('',#273,1.000000000000000);
#275=LINE('',#272,#274);
#276=EDGE_CURVE('',#241,#271,#275,.T.);
#277=ORIENTED_EDGE('',*,*,#276,.T.);
#278=CARTESIAN_POINT('',(0.499709374379770,-0.730000000000007,0.600000000000000));
#279=VERTEX_POINT('',#278);
#280=CARTESIAN_POINT('',(0.499709374379770,-0.730000000000007,0.600000000000000));
#281=DIRECTION('',(0.0,-1.0,0.0));
#282=VECTOR('',#281,1.040000000000001);
#283=LINE('',#280,#282);
#284=EDGE_CURVE('',#279,#271,#283,.T.);
#285=ORIENTED_EDGE('',*,*,#284,.F.);
#286=CARTESIAN_POINT('',(0.499709374379770,-0.730000000000007,1.600000000000000));
#287=DIRECTION('',(0.0,0.0,-1.0));
#288=VECTOR('',#287,1.000000000000000);
#289=LINE('',#286,#288);
#290=EDGE_CURVE('',#249,#279,#289,.T.);
#291=ORIENTED_EDGE('',*,*,#290,.F.);
#292=ORIENTED_EDGE('',*,*,#254,.F.);
#293=EDGE_LOOP('',(#277,#285,#291,#292));
#294=FACE_OUTER_BOUND('',#293,.T.);
#295=ADVANCED_FACE('',(#294),#269,.F.);
#296=CARTESIAN_POINT('',(-0.000290625620230,-1.000000000000008,0.600000000000000));
#297=DIRECTION('',(0.0,0.0,1.0));
#298=DIRECTION('',(-1.0,0.0,0.0));
#299=AXIS2_PLACEMENT_3D('',#296,#297,#298);
#300=PLANE('',#299);
#301=CARTESIAN_POINT('',(-0.500290625620231,-1.770000000000009,0.600000000000000));
#302=VERTEX_POINT('',#301);
#303=CARTESIAN_POINT('',(-0.500290625620231,-0.730000000000007,0.600000000000000));
#304=VERTEX_POINT('',#303);
#305=CARTESIAN_POINT('',(-0.500290625620231,-1.770000000000009,0.600000000000000));
#306=DIRECTION('',(0.0,1.0,0.0));
#307=VECTOR('',#306,1.040000000000001);
#308=LINE('',#305,#307);
#309=EDGE_CURVE('',#302,#304,#308,.T.);
#310=ORIENTED_EDGE('',*,*,#309,.T.);
#311=CARTESIAN_POINT('',(-0.500290625620231,-0.730000000000007,0.600000000000000));
#312=DIRECTION('',(1.0,0.0,0.0));
#313=VECTOR('',#312,1.000000000000001);
#314=LINE('',#311,#313);
#315=EDGE_CURVE('',#304,#279,#314,.T.);
#316=ORIENTED_EDGE('',*,*,#315,.T.);
#317=ORIENTED_EDGE('',*,*,#284,.T.);
#318=CARTESIAN_POINT('',(0.499709374379770,-1.770000000000009,0.600000000000000));
#319=DIRECTION('',(-1.0,0.0,0.0));
#320=VECTOR('',#319,1.000000000000001);
#321=LINE('',#318,#320);
#322=EDGE_CURVE('',#271,#302,#321,.T.);
#323=ORIENTED_EDGE('',*,*,#322,.T.);
#324=EDGE_LOOP('',(#310,#316,#317,#323));
#325=FACE_OUTER_BOUND('',#324,.T.);
#326=ADVANCED_FACE('',(#325),#300,.F.);
#327=CARTESIAN_POINT('',(-0.500290625620231,-1.000000000000008,1.100000000000000));
#328=DIRECTION('',(1.0,0.0,0.0));
#329=DIRECTION('',(0.0,0.0,1.0));
#330=AXIS2_PLACEMENT_3D('',#327,#328,#329);
#331=PLANE('',#330);
#332=CARTESIAN_POINT('',(-0.500290625620231,-0.730000000000007,1.600000000000000));
#333=DIRECTION('',(0.0,0.0,-1.0));
#334=VECTOR('',#333,1.000000000000000);
#335=LINE('',#332,#334);
#336=EDGE_CURVE('',#231,#304,#335,.T.);
#337=ORIENTED_EDGE('',*,*,#336,.T.);
#338=ORIENTED_EDGE('',*,*,#309,.F.);
#339=CARTESIAN_POINT('',(-0.500290625620231,-1.770000000000009,1.600000000000000));
#340=DIRECTION('',(0.0,0.0,-1.0));
#341=VECTOR('',#340,1.000000000000000);
#342=LINE('',#339,#341);
#343=EDGE_CURVE('',#233,#302,#342,.T.);
#344=ORIENTED_EDGE('',*,*,#343,.F.);
#345=ORIENTED_EDGE('',*,*,#238,.F.);
#346=EDGE_LOOP('',(#337,#338,#344,#345));
#347=FACE_OUTER_BOUND('',#346,.T.);
#348=ADVANCED_FACE('',(#347),#331,.F.);
#349=CARTESIAN_POINT('',(-0.000290625620230,-0.730000000000007,1.100000000000000));
#350=DIRECTION('',(0.0,-1.0,0.0));
#351=DIRECTION('',(0.0,0.0,1.0));
#352=AXIS2_PLACEMENT_3D('',#349,#350,#351);
#353=PLANE('',#352);
#354=ORIENTED_EDGE('',*,*,#290,.T.);
#355=ORIENTED_EDGE('',*,*,#315,.F.);
#356=ORIENTED_EDGE('',*,*,#336,.F.);
#357=ORIENTED_EDGE('',*,*,#260,.F.);
#358=EDGE_LOOP('',(#354,#355,#356,#357));
#359=FACE_OUTER_BOUND('',#358,.T.);
#360=ADVANCED_FACE('',(#359),#353,.F.);
#361=CARTESIAN_POINT('',(-0.000290625620230,-1.770000000000009,1.100000000000000));
#362=DIRECTION('',(0.0,1.0,0.0));
#363=DIRECTION('',(0.0,0.0,-1.0));
#364=AXIS2_PLACEMENT_3D('',#361,#362,#363);
#365=PLANE('',#364);
#366=ORIENTED_EDGE('',*,*,#343,.T.);
#367=ORIENTED_EDGE('',*,*,#322,.F.);
#368=ORIENTED_EDGE('',*,*,#276,.F.);
#369=ORIENTED_EDGE('',*,*,#246,.F.);
#370=EDGE_LOOP('',(#366,#367,#368,#369));
#371=FACE_OUTER_BOUND('',#370,.T.);
#372=ADVANCED_FACE('',(#371),#365,.F.);
#373=CLOSED_SHELL('',(#264,#295,#326,#348,#360,#372));
#374=MANIFOLD_SOLID_BREP('BAD',#373);
#375=STYLED_ITEM('NONE',(#221),#374);
#376=CARTESIAN_POINT('',(13.999709374379769,7.216450E-015,4.800000000000002));
#377=DIRECTION('',(1.0,2.014425E-015,-4.578239E-016));
#378=DIRECTION('',(0.0,-1.0,0.0));
#379=AXIS2_PLACEMENT_3D('',#376,#377,#378);
#380=CYLINDRICAL_SURFACE('',#379,3.500000000000000);
#381=CARTESIAN_POINT('',(23.499709374379773,-3.499999999999974,4.799999999999997));
#382=VERTEX_POINT('',#381);
#383=CARTESIAN_POINT('',(13.999709374379776,-3.499999999999993,4.800000000000002));
#384=VERTEX_POINT('',#383);
#385=CARTESIAN_POINT('',(23.499709374379773,-3.499999999999974,4.799999999999997));
#386=DIRECTION('',(-1.0,0.0,0.0));
#387=VECTOR('',#386,9.499999999999996);
#388=LINE('',#385,#387);
#389=EDGE_CURVE('',#382,#384,#388,.T.);
#390=ORIENTED_EDGE('',*,*,#389,.F.);
#391=CARTESIAN_POINT('',(23.499709374379758,3.500000000000026,4.799999999999997));
#392=VERTEX_POINT('',#391);
#393=CARTESIAN_POINT('',(23.499709374379766,2.635349E-014,4.799999999999997));
#394=DIRECTION('',(1.0,0.0,0.0));
#395=DIRECTION('',(0.0,1.0,0.0));
#396=AXIS2_PLACEMENT_3D('',#393,#394,#395);
#397=CIRCLE('',#396,3.500000000000000);
#398=EDGE_CURVE('',#392,#382,#397,.T.);
#399=ORIENTED_EDGE('',*,*,#398,.F.);
#400=CARTESIAN_POINT('',(13.999709374379762,3.500000000000007,4.800000000000002));
#401=VERTEX_POINT('',#400);
#402=CARTESIAN_POINT('',(23.499709374379758,3.500000000000026,4.799999999999997));
#403=DIRECTION('',(-1.0,0.0,0.0));
#404=VECTOR('',#403,9.499999999999996);
#405=LINE('',#402,#404);
#406=EDGE_CURVE('',#392,#401,#405,.T.);
#407=ORIENTED_EDGE('',*,*,#406,.T.);
#408=CARTESIAN_POINT('',(13.999709374379769,7.216450E-015,4.800000000000002));
#409=DIRECTION('',(-1.0,0.0,0.0));
#410=DIRECTION('',(0.0,-1.0,0.0));
#411=AXIS2_PLACEMENT_3D('',#408,#409,#410);
#412=CIRCLE('',#411,3.500000000000000);
#413=EDGE_CURVE('',#384,#401,#412,.T.);
#414=ORIENTED_EDGE('',*,*,#413,.F.);
#415=EDGE_LOOP('',(#390,#399,#407,#414));
#416=FACE_OUTER_BOUND('',#415,.T.);
#417=ADVANCED_FACE('',(#416),#380,.T.);
#418=CARTESIAN_POINT('',(23.599709374379763,2.655333E-014,4.799999999999997));
#419=DIRECTION('',(-1.0,-1.998401E-015,0.0));
#420=DIRECTION('',(0.0,1.0,0.0));
#421=AXIS2_PLACEMENT_3D('',#418,#419,#420);
#422=CONICAL_SURFACE('',#421,3.400000000000000,45.000000000000135);
#423=CARTESIAN_POINT('',(23.699709374379758,3.300000000000025,4.799999999999997));
#424=VERTEX_POINT('',#423);
#425=CARTESIAN_POINT('',(23.499709374379758,3.500000000000025,4.799999999999997));
#426=DIRECTION('',(0.707106781186545,-0.707106781186550,0.0));
#427=VECTOR('',#426,0.282842712474619);
#428=LINE('',#425,#427);
#429=EDGE_CURVE('',#392,#424,#428,.T.);
#430=ORIENTED_EDGE('',*,*,#429,.F.);
#431=ORIENTED_EDGE('',*,*,#398,.T.);
#432=CARTESIAN_POINT('',(23.699709374379772,-3.299999999999973,4.799999999999997));
#433=VERTEX_POINT('',#432);
#434=CARTESIAN_POINT('',(23.499709374379773,-3.499999999999973,4.799999999999997));
#435=DIRECTION('',(0.707106781186545,0.707106781186550,0.0));
#436=VECTOR('',#435,0.282842712474619);
#437=LINE('',#434,#436);
#438=EDGE_CURVE('',#382,#433,#437,.T.);
#439=ORIENTED_EDGE('',*,*,#438,.T.);
#440=CARTESIAN_POINT('',(23.699709374379765,2.675317E-014,4.799999999999997));
#441=DIRECTION('',(-1.0,0.0,0.0));
#442=DIRECTION('',(0.0,1.0,0.0));
#443=AXIS2_PLACEMENT_3D('',#440,#441,#442);
#444=CIRCLE('',#443,3.300000000000000);
#445=EDGE_CURVE('',#433,#424,#444,.T.);
#446=ORIENTED_EDGE('',*,*,#445,.T.);
#447=EDGE_LOOP('',(#430,#431,#439,#446));
#448=FACE_OUTER_BOUND('',#447,.T.);
#449=ADVANCED_FACE('',(#448),#422,.T.);
#450=CARTESIAN_POINT('',(12.999709374379769,5.440093E-015,4.800000000000003));
#451=DIRECTION('',(1.0,1.992176E-015,0.0));
#452=DIRECTION('',(0.0,1.0,0.0));
#453=AXIS2_PLACEMENT_3D('',#450,#451,#452);
#454=CYLINDRICAL_SURFACE('',#453,2.350000000000000);
#455=CARTESIAN_POINT('',(10.099709374379763,2.350000000000000,4.800000000000003));
#456=VERTEX_POINT('',#455);
#457=CARTESIAN_POINT('',(23.699709374379765,2.350000000000027,4.800000000000003));
#458=VERTEX_POINT('',#457);
#459=CARTESIAN_POINT('',(10.099709374379763,2.350000000000000,4.800000000000003));
#460=DIRECTION('',(1.0,0.0,0.0));
#461=VECTOR('',#460,13.599999999999994);
#462=LINE('',#459,#461);
#463=EDGE_CURVE('',#456,#458,#462,.T.);
#464=ORIENTED_EDGE('',*,*,#463,.F.);
#465=CARTESIAN_POINT('',(10.099709374379772,-2.349999999999999,4.800000000000004));
#466=VERTEX_POINT('',#465);
#467=CARTESIAN_POINT('',(10.099709374379769,9.325873E-016,4.800000000000004));
#468=DIRECTION('',(1.0,0.0,0.0));
#469=DIRECTION('',(0.0,1.0,0.0));
#470=AXIS2_PLACEMENT_3D('',#467,#468,#469);
#471=CIRCLE('',#470,2.350000000000000);
#472=EDGE_CURVE('',#466,#456,#471,.T.);
#473=ORIENTED_EDGE('',*,*,#472,.F.);
#474=CARTESIAN_POINT('',(23.699709374379772,-2.349999999999973,4.800000000000003));
#475=VERTEX_POINT('',#474);
#476=CARTESIAN_POINT('',(10.099709374379774,-2.350000000000001,4.800000000000003));
#477=DIRECTION('',(1.0,0.0,0.0));
#478=VECTOR('',#477,13.599999999999998);
#479=LINE('',#476,#478);
#480=EDGE_CURVE('',#466,#475,#479,.T.);
#481=ORIENTED_EDGE('',*,*,#480,.T.);
#482=CARTESIAN_POINT('',(23.699709374379765,2.675637E-014,4.800000000000003));
#483=DIRECTION('',(-1.0,0.0,0.0));
#484=DIRECTION('',(0.0,1.0,0.0));
#485=AXIS2_PLACEMENT_3D('',#482,#483,#484);
#486=CIRCLE('',#485,2.350000000000000);
#487=EDGE_CURVE('',#458,#475,#486,.T.);
#488=ORIENTED_EDGE('',*,*,#487,.F.);
#489=EDGE_LOOP('',(#464,#473,#481,#488));
#490=FACE_OUTER_BOUND('',#489,.T.);
#491=ADVANCED_FACE('',(#490),#454,.F.);
#492=CARTESIAN_POINT('',(12.999709374379769,5.440093E-015,4.800000000000003));
#493=DIRECTION('',(1.0,1.332268E-015,0.0));
#494=DIRECTION('',(0.0,1.0,0.0));
#495=AXIS2_PLACEMENT_3D('',#492,#493,#494);
#496=CYLINDRICAL_SURFACE('',#495,2.900000000000000);
#497=CARTESIAN_POINT('',(13.999709374379764,2.900000000000007,4.800000000000003));
#498=VERTEX_POINT('',#497);
#499=CARTESIAN_POINT('',(10.099709374379763,2.900000000000001,4.800000000000004));
#500=VERTEX_POINT('',#499);
#501=CARTESIAN_POINT('',(13.999709374379764,2.900000000000007,4.800000000000003));
#502=DIRECTION('',(-1.0,0.0,0.0));
#503=VECTOR('',#502,3.900000000000000);
#504=LINE('',#501,#503);
#505=EDGE_CURVE('',#498,#500,#504,.T.);
#506=ORIENTED_EDGE('',*,*,#505,.F.);
#507=CARTESIAN_POINT('',(13.999709374379773,-2.899999999999994,4.800000000000003));
#508=VERTEX_POINT('',#507);
#509=CARTESIAN_POINT('',(13.999709374379769,6.772360E-015,4.800000000000003));
#510=DIRECTION('',(1.0,0.0,0.0));
#511=DIRECTION('',(0.0,1.0,0.0));
#512=AXIS2_PLACEMENT_3D('',#509,#510,#511);
#513=CIRCLE('',#512,2.900000000000000);
#514=EDGE_CURVE('',#508,#498,#513,.T.);
#515=ORIENTED_EDGE('',*,*,#514,.F.);
#516=CARTESIAN_POINT('',(10.099709374379771,-2.899999999999999,4.800000000000003));
#517=VERTEX_POINT('',#516);
#518=CARTESIAN_POINT('',(13.999709374379773,-2.899999999999994,4.800000000000003));
#519=DIRECTION('',(-1.0,0.0,0.0));
#520=VECTOR('',#519,3.900000000000002);
#521=LINE('',#518,#520);
#522=EDGE_CURVE('',#508,#517,#521,.T.);
#523=ORIENTED_EDGE('',*,*,#522,.T.);
#524=CARTESIAN_POINT('',(10.099709374379769,9.325873E-016,4.800000000000004));
#525=DIRECTION('',(1.0,0.0,0.0));
#526=DIRECTION('',(0.0,1.0,0.0));
#527=AXIS2_PLACEMENT_3D('',#524,#525,#526);
#528=CIRCLE('',#527,2.900000000000000);
#529=EDGE_CURVE('',#517,#500,#528,.T.);
#530=ORIENTED_EDGE('',*,*,#529,.T.);
#531=EDGE_LOOP('',(#506,#515,#523,#530));
#532=FACE_OUTER_BOUND('',#531,.T.);
#533=ADVANCED_FACE('',(#532),#496,.T.);
#534=CARTESIAN_POINT('',(12.999709374379769,5.440093E-015,4.800000000000003));
#535=DIRECTION('',(1.0,1.332268E-015,0.0));
#536=DIRECTION('',(0.0,1.0,0.0));
#537=AXIS2_PLACEMENT_3D('',#534,#535,#536);
#538=CYLINDRICAL_SURFACE('',#537,2.900000000000000);
#539=ORIENTED_EDGE('',*,*,#505,.T.);
#540=CARTESIAN_POINT('',(10.099709374379769,9.325873E-016,4.800000000000004));
#541=DIRECTION('',(1.0,0.0,0.0));
#542=DIRECTION('',(0.0,1.0,0.0));
#543=AXIS2_PLACEMENT_3D('',#540,#541,#542);
#544=CIRCLE('',#543,2.900000000000000);
#545=EDGE_CURVE('',#500,#517,#544,.T.);
#546=ORIENTED_EDGE('',*,*,#545,.T.);
#547=ORIENTED_EDGE('',*,*,#522,.F.);
#548=CARTESIAN_POINT('',(13.999709374379769,6.772360E-015,4.800000000000003));
#549=DIRECTION('',(1.0,0.0,0.0));
#550=DIRECTION('',(0.0,1.0,0.0));
#551=AXIS2_PLACEMENT_3D('',#548,#549,#550);
#552=CIRCLE('',#551,2.900000000000000);
#553=EDGE_CURVE('',#498,#508,#552,.T.);
#554=ORIENTED_EDGE('',*,*,#553,.F.);
#555=EDGE_LOOP('',(#539,#546,#547,#554));
#556=FACE_OUTER_BOUND('',#555,.T.);
#557=ADVANCED_FACE('',(#556),#538,.T.);
#558=CARTESIAN_POINT('',(12.999709374379769,5.440093E-015,4.800000000000003));
#559=DIRECTION('',(1.0,1.992176E-015,0.0));
#560=DIRECTION('',(0.0,1.0,0.0));
#561=AXIS2_PLACEMENT_3D('',#558,#559,#560);
#562=CYLINDRICAL_SURFACE('',#561,2.350000000000000);
#563=ORIENTED_EDGE('',*,*,#463,.T.);
#564=CARTESIAN_POINT('',(23.699709374379765,2.675637E-014,4.800000000000003));
#565=DIRECTION('',(-1.0,0.0,0.0));
#566=DIRECTION('',(0.0,1.0,0.0));
#567=AXIS2_PLACEMENT_3D('',#564,#565,#566);
#568=CIRCLE('',#567,2.350000000000000);
#569=EDGE_CURVE('',#475,#458,#568,.T.);
#570=ORIENTED_EDGE('',*,*,#569,.F.);
#571=ORIENTED_EDGE('',*,*,#480,.F.);
#572=CARTESIAN_POINT('',(10.099709374379769,9.325873E-016,4.800000000000004));
#573=DIRECTION('',(1.0,0.0,0.0));
#574=DIRECTION('',(0.0,1.0,0.0));
#575=AXIS2_PLACEMENT_3D('',#572,#573,#574);
#576=CIRCLE('',#575,2.350000000000000);
#577=EDGE_CURVE('',#456,#466,#576,.T.);
#578=ORIENTED_EDGE('',*,*,#577,.F.);
#579=EDGE_LOOP('',(#563,#570,#571,#578));
#580=FACE_OUTER_BOUND('',#579,.T.);
#581=ADVANCED_FACE('',(#580),#562,.F.);
#582=CARTESIAN_POINT('',(10.099709374379769,9.325873E-016,4.800000000000004));
#583=DIRECTION('',(1.0,0.0,0.0));
#584=DIRECTION('',(0.0,0.0,-1.0));
#585=AXIS2_PLACEMENT_3D('',#582,#583,#584);
#586=PLANE('',#585);
#587=ORIENTED_EDGE('',*,*,#545,.F.);
#588=ORIENTED_EDGE('',*,*,#529,.F.);
#589=EDGE_LOOP('',(#587,#588));
#590=FACE_OUTER_BOUND('',#589,.T.);
#591=ORIENTED_EDGE('',*,*,#472,.T.);
#592=ORIENTED_EDGE('',*,*,#577,.T.);
#593=EDGE_LOOP('',(#591,#592));
#594=FACE_BOUND('',#593,.T.);
#595=ADVANCED_FACE('',(#590,#594),#586,.F.);
#596=CARTESIAN_POINT('',(23.599709374379763,2.655333E-014,4.799999999999997));
#597=DIRECTION('',(-1.0,-1.998401E-015,0.0));
#598=DIRECTION('',(0.0,1.0,0.0));
#599=AXIS2_PLACEMENT_3D('',#596,#597,#598);
#600=CONICAL_SURFACE('',#599,3.400000000000000,45.000000000000135);
#601=ORIENTED_EDGE('',*,*,#429,.T.);
#602=CARTESIAN_POINT('',(23.699709374379765,2.675317E-014,4.799999999999997));
#603=DIRECTION('',(-1.0,0.0,0.0));
#604=DIRECTION('',(0.0,1.0,0.0));
#605=AXIS2_PLACEMENT_3D('',#602,#603,#604);
#606=CIRCLE('',#605,3.300000000000000);
#607=EDGE_CURVE('',#424,#433,#606,.T.);
#608=ORIENTED_EDGE('',*,*,#607,.T.);
#609=ORIENTED_EDGE('',*,*,#438,.F.);
#610=CARTESIAN_POINT('',(23.499709374379766,2.635349E-014,4.799999999999997));
#611=DIRECTION('',(1.0,0.0,0.0));
#612=DIRECTION('',(0.0,1.0,0.0));
#613=AXIS2_PLACEMENT_3D('',#610,#611,#612);
#614=CIRCLE('',#613,3.500000000000000);
#615=EDGE_CURVE('',#382,#392,#614,.T.);
#616=ORIENTED_EDGE('',*,*,#615,.T.);
#617=EDGE_LOOP('',(#601,#608,#609,#616));
#618=FACE_OUTER_BOUND('',#617,.T.);
#619=ADVANCED_FACE('',(#618),#600,.T.);
#620=CARTESIAN_POINT('',(13.999709374379769,7.216450E-015,4.800000000000002));
#621=DIRECTION('',(1.0,2.014425E-015,-4.578239E-016));
#622=DIRECTION('',(0.0,-1.0,0.0));
#623=AXIS2_PLACEMENT_3D('',#620,#621,#622);
#624=CYLINDRICAL_SURFACE('',#623,3.500000000000000);
#625=ORIENTED_EDGE('',*,*,#389,.T.);
#626=CARTESIAN_POINT('',(13.999709374379769,7.216450E-015,4.800000000000002));
#627=DIRECTION('',(-1.0,0.0,0.0));
#628=DIRECTION('',(0.0,-1.0,0.0));
#629=AXIS2_PLACEMENT_3D('',#626,#627,#628);
#630=CIRCLE('',#629,3.500000000000000);
#631=EDGE_CURVE('',#401,#384,#630,.T.);
#632=ORIENTED_EDGE('',*,*,#631,.F.);
#633=ORIENTED_EDGE('',*,*,#406,.F.);
#634=ORIENTED_EDGE('',*,*,#615,.F.);
#635=EDGE_LOOP('',(#625,#632,#633,#634));
#636=FACE_OUTER_BOUND('',#635,.T.);
#637=ADVANCED_FACE('',(#636),#624,.T.);
#638=CARTESIAN_POINT('',(23.699709374379765,2.675637E-014,4.799999999999996));
#639=DIRECTION('',(-1.0,0.0,0.0));
#640=DIRECTION('',(0.0,0.0,1.0));
#641=AXIS2_PLACEMENT_3D('',#638,#639,#640);
#642=PLANE('',#641);
#643=ORIENTED_EDGE('',*,*,#445,.F.);
#644=ORIENTED_EDGE('',*,*,#607,.F.);
#645=EDGE_LOOP('',(#643,#644));
#646=FACE_OUTER_BOUND('',#645,.T.);
#647=ORIENTED_EDGE('',*,*,#487,.T.);
#648=ORIENTED_EDGE('',*,*,#569,.T.);
#649=EDGE_LOOP('',(#647,#648));
#650=FACE_BOUND('',#649,.T.);
#651=ADVANCED_FACE('',(#646,#650),#642,.F.);
#652=CARTESIAN_POINT('',(13.999709374379769,7.216450E-015,4.800000000000002));
#653=DIRECTION('',(-1.0,0.0,0.0));
#654=DIRECTION('',(0.0,0.0,1.0));
#655=AXIS2_PLACEMENT_3D('',#652,#653,#654);
#656=PLANE('',#655);
#657=ORIENTED_EDGE('',*,*,#413,.T.);
#658=ORIENTED_EDGE('',*,*,#631,.T.);
#659=EDGE_LOOP('',(#657,#658));
#660=FACE_OUTER_BOUND('',#659,.T.);
#661=ORIENTED_EDGE('',*,*,#553,.T.);
#662=ORIENTED_EDGE('',*,*,#514,.T.);
#663=EDGE_LOOP('',(#661,#662));
#664=FACE_BOUND('',#663,.T.);
#665=ADVANCED_FACE('',(#660,#664),#656,.T.);
#666=CLOSED_SHELL('',(#417,#449,#491,#533,#557,#581,#595,#619,#637,#651,#665));
#667=MANIFOLD_SOLID_BREP('9E4',#666);
#668=STYLED_ITEM('NONE',(#221),#667);
#669=CARTESIAN_POINT('',(1.799709374379772,-4.100000000000009,0.600000000000000));
#670=DIRECTION('',(0.0,-1.480297E-015,-1.0));
#671=DIRECTION('',(-1.0,0.0,0.0));
#672=AXIS2_PLACEMENT_3D('',#669,#670,#671);
#673=CYLINDRICAL_SURFACE('',#672,0.500000000000000);
#674=CARTESIAN_POINT('',(1.299709374379772,-4.100000000000009,-3.108624E-016));
#675=VERTEX_POINT('',#674);
#676=CARTESIAN_POINT('',(1.299709374379772,-4.100000000000009,0.600000000000000));
#677=VERTEX_POINT('',#676);
#678=CARTESIAN_POINT('',(1.299709374379772,-4.100000000000009,-3.330669E-016));
#679=DIRECTION('',(0.0,0.0,1.0));
#680=VECTOR('',#679,0.600000000000000);
#681=LINE('',#678,#680);
#682=EDGE_CURVE('',#675,#677,#681,.T.);
#683=ORIENTED_EDGE('',*,*,#682,.F.);
#684=CARTESIAN_POINT('',(2.299709374379772,-4.100000000000009,-3.330669E-016));
#685=VERTEX_POINT('',#684);
#686=CARTESIAN_POINT('',(1.799709374379772,-4.100000000000009,-8.881784E-017));
#687=DIRECTION('',(0.0,0.0,1.0));
#688=DIRECTION('',(-1.0,0.0,0.0));
#689=AXIS2_PLACEMENT_3D('',#686,#687,#688);
#690=CIRCLE('',#689,0.500000000000000);
#691=EDGE_CURVE('',#675,#685,#690,.T.);
#692=ORIENTED_EDGE('',*,*,#691,.T.);
#693=CARTESIAN_POINT('',(2.299709374379772,-4.100000000000009,0.600000000000000));
#694=VERTEX_POINT('',#693);
#695=CARTESIAN_POINT('',(2.299709374379772,-4.100000000000009,-3.330669E-016));
#696=DIRECTION('',(0.0,0.0,1.0));
#697=VECTOR('',#696,0.600000000000000);
#698=LINE('',#695,#697);
#699=EDGE_CURVE('',#685,#694,#698,.T.);
#700=ORIENTED_EDGE('',*,*,#699,.T.);
#701=CARTESIAN_POINT('',(1.799709374379772,-4.100000000000009,0.600000000000000));
#702=DIRECTION('',(0.0,0.0,-1.0));
#703=DIRECTION('',(-1.0,0.0,0.0));
#704=AXIS2_PLACEMENT_3D('',#701,#702,#703);
#705=CIRCLE('',#704,0.500000000000000);
#706=EDGE_CURVE('',#694,#677,#705,.T.);
#707=ORIENTED_EDGE('',*,*,#706,.T.);
#708=EDGE_LOOP('',(#683,#692,#700,#707));
#709=FACE_OUTER_BOUND('',#708,.T.);
#710=ADVANCED_FACE('',(#709),#673,.T.);
#711=CARTESIAN_POINT('',(1.799709374379772,-4.100000000000009,0.600000000000000));
#712=DIRECTION('',(0.0,-1.480297E-015,-1.0));
#713=DIRECTION('',(-1.0,0.0,0.0));
#714=AXIS2_PLACEMENT_3D('',#711,#712,#713);
#715=CYLINDRICAL_SURFACE('',#714,0.500000000000000);
#716=ORIENTED_EDGE('',*,*,#682,.T.);
#717=CARTESIAN_POINT('',(1.799709374379772,-4.100000000000009,0.600000000000000));
#718=DIRECTION('',(0.0,0.0,-1.0));
#719=DIRECTION('',(-1.0,0.0,0.0));
#720=AXIS2_PLACEMENT_3D('',#717,#718,#719);
#721=CIRCLE('',#720,0.500000000000000);
#722=EDGE_CURVE('',#677,#694,#721,.T.);
#723=ORIENTED_EDGE('',*,*,#722,.T.);
#724=ORIENTED_EDGE('',*,*,#699,.F.);
#725=CARTESIAN_POINT('',(1.799709374379772,-4.100000000000009,-8.881784E-017));
#726=DIRECTION('',(0.0,0.0,1.0));
#727=DIRECTION('',(-1.0,0.0,0.0));
#728=AXIS2_PLACEMENT_3D('',#725,#726,#727);
#729=CIRCLE('',#728,0.500000000000000);
#730=EDGE_CURVE('',#685,#675,#729,.T.);
#731=ORIENTED_EDGE('',*,*,#730,.T.);
#732=EDGE_LOOP('',(#716,#723,#724,#731));
#733=FACE_OUTER_BOUND('',#732,.T.);
#734=ADVANCED_FACE('',(#733),#715,.T.);
#735=CARTESIAN_POINT('',(1.799709374379772,-4.100000000000009,-8.881784E-017));
#736=DIRECTION('',(0.0,0.0,-1.0));
#737=DIRECTION('',(-1.0,0.0,0.0));
#738=AXIS2_PLACEMENT_3D('',#735,#736,#737);
#739=PLANE('',#738);
#740=ORIENTED_EDGE('',*,*,#691,.F.);
#741=ORIENTED_EDGE('',*,*,#730,.F.);
#742=EDGE_LOOP('',(#740,#741));
#743=FACE_OUTER_BOUND('',#742,.T.);
#744=ADVANCED_FACE('',(#743),#739,.T.);
#745=CARTESIAN_POINT('',(1.799709374379772,-4.100000000000009,0.600000000000000));
#746=DIRECTION('',(0.0,0.0,-1.0));
#747=DIRECTION('',(-1.0,0.0,0.0));
#748=AXIS2_PLACEMENT_3D('',#745,#746,#747);
#749=PLANE('',#748);
#750=ORIENTED_EDGE('',*,*,#722,.F.);
#751=ORIENTED_EDGE('',*,*,#706,.F.);
#752=EDGE_LOOP('',(#750,#751));
#753=FACE_OUTER_BOUND('',#752,.T.);
#754=ADVANCED_FACE('',(#753),#749,.F.);
#755=CLOSED_SHELL('',(#710,#734,#744,#754));
#756=MANIFOLD_SOLID_BREP('9D3',#755);
#757=STYLED_ITEM('NONE',(#221),#756);
#758=CARTESIAN_POINT('',(1.799709374379772,4.099999999999989,0.600000000000000));
#759=DIRECTION('',(0.0,-1.480297E-015,-1.0));
#760=DIRECTION('',(-1.0,0.0,0.0));
#761=AXIS2_PLACEMENT_3D('',#758,#759,#760);
#762=CYLINDRICAL_SURFACE('',#761,0.500000000000000);
#763=CARTESIAN_POINT('',(1.299709374379772,4.099999999999989,-3.108624E-016));
#764=VERTEX_POINT('',#763);
#765=CARTESIAN_POINT('',(1.299709374379772,4.099999999999989,0.600000000000000));
#766=VERTEX_POINT('',#765);
#767=CARTESIAN_POINT('',(1.299709374379772,4.099999999999988,-3.330669E-016));
#768=DIRECTION('',(0.0,0.0,1.0));
#769=VECTOR('',#768,0.600000000000000);
#770=LINE('',#767,#769);
#771=EDGE_CURVE('',#764,#766,#770,.T.);
#772=ORIENTED_EDGE('',*,*,#771,.F.);
#773=CARTESIAN_POINT('',(2.299709374379772,4.099999999999988,-3.330669E-016));
#774=VERTEX_POINT('',#773);
#775=CARTESIAN_POINT('',(1.799709374379772,4.099999999999989,-8.881784E-017));
#776=DIRECTION('',(0.0,0.0,1.0));
#777=DIRECTION('',(-1.0,0.0,0.0));
#778=AXIS2_PLACEMENT_3D('',#775,#776,#777);
#779=CIRCLE('',#778,0.500000000000000);
#780=EDGE_CURVE('',#764,#774,#779,.T.);
#781=ORIENTED_EDGE('',*,*,#780,.T.);
#782=CARTESIAN_POINT('',(2.299709374379772,4.099999999999989,0.600000000000000));
#783=VERTEX_POINT('',#782);
#784=CARTESIAN_POINT('',(2.299709374379772,4.099999999999988,-3.330669E-016));
#785=DIRECTION('',(0.0,0.0,1.0));
#786=VECTOR('',#785,0.600000000000000);
#787=LINE('',#784,#786);
#788=EDGE_CURVE('',#774,#783,#787,.T.);
#789=ORIENTED_EDGE('',*,*,#788,.T.);
#790=CARTESIAN_POINT('',(1.799709374379772,4.099999999999989,0.600000000000000));
#791=DIRECTION('',(0.0,0.0,-1.0));
#792=DIRECTION('',(-1.0,0.0,0.0));
#793=AXIS2_PLACEMENT_3D('',#790,#791,#792);
#794=CIRCLE('',#793,0.500000000000000);
#795=EDGE_CURVE('',#783,#766,#794,.T.);
#796=ORIENTED_EDGE('',*,*,#795,.T.);
#797=EDGE_LOOP('',(#772,#781,#789,#796));
#798=FACE_OUTER_BOUND('',#797,.T.);
#799=ADVANCED_FACE('',(#798),#762,.T.);
#800=CARTESIAN_POINT('',(1.799709374379772,4.099999999999989,0.600000000000000));
#801=DIRECTION('',(0.0,-1.480297E-015,-1.0));
#802=DIRECTION('',(-1.0,0.0,0.0));
#803=AXIS2_PLACEMENT_3D('',#800,#801,#802);
#804=CYLINDRICAL_SURFACE('',#803,0.500000000000000);
#805=ORIENTED_EDGE('',*,*,#771,.T.);
#806=CARTESIAN_POINT('',(1.799709374379772,4.099999999999989,0.600000000000000));
#807=DIRECTION('',(0.0,0.0,-1.0));
#808=DIRECTION('',(-1.0,0.0,0.0));
#809=AXIS2_PLACEMENT_3D('',#806,#807,#808);
#810=CIRCLE('',#809,0.500000000000000);
#811=EDGE_CURVE('',#766,#783,#810,.T.);
#812=ORIENTED_EDGE('',*,*,#811,.T.);
#813=ORIENTED_EDGE('',*,*,#788,.F.);
#814=CARTESIAN_POINT('',(1.799709374379772,4.099999999999989,-8.881784E-017));
#815=DIRECTION('',(0.0,0.0,1.0));
#816=DIRECTION('',(-1.0,0.0,0.0));
#817=AXIS2_PLACEMENT_3D('',#814,#815,#816);
#818=CIRCLE('',#817,0.500000000000000);
#819=EDGE_CURVE('',#774,#764,#818,.T.);
#820=ORIENTED_EDGE('',*,*,#819,.T.);
#821=EDGE_LOOP('',(#805,#812,#813,#820));
#822=FACE_OUTER_BOUND('',#821,.T.);
#823=ADVANCED_FACE('',(#822),#804,.T.);
#824=CARTESIAN_POINT('',(1.799709374379772,4.099999999999989,-8.881784E-017));
#825=DIRECTION('',(0.0,0.0,-1.0));
#826=DIRECTION('',(-1.0,0.0,0.0));
#827=AXIS2_PLACEMENT_3D('',#824,#825,#826);
#828=PLANE('',#827);
#829=ORIENTED_EDGE('',*,*,#780,.F.);
#830=ORIENTED_EDGE('',*,*,#819,.F.);
#831=EDGE_LOOP('',(#829,#830));
#832=FACE_OUTER_BOUND('',#831,.T.);
#833=ADVANCED_FACE('',(#832),#828,.T.);
#834=CARTESIAN_POINT('',(1.799709374379772,4.099999999999989,0.600000000000000));
#835=DIRECTION('',(0.0,0.0,-1.0));
#836=DIRECTION('',(-1.0,0.0,0.0));
#837=AXIS2_PLACEMENT_3D('',#834,#835,#836);
#838=PLANE('',#837);
#839=ORIENTED_EDGE('',*,*,#811,.F.);
#840=ORIENTED_EDGE('',*,*,#795,.F.);
#841=EDGE_LOOP('',(#839,#840));
#842=FACE_OUTER_BOUND('',#841,.T.);
#843=ADVANCED_FACE('',(#842),#838,.F.);
#844=CLOSED_SHELL('',(#799,#823,#833,#843));
#845=MANIFOLD_SOLID_BREP('9D2',#844);
#846=STYLED_ITEM('NONE',(#221),#845);
#847=CARTESIAN_POINT('',(7.619709374379771,-2.539999999999997,-3.599999999999993));
#848=DIRECTION('',(0.0,0.0,1.0));
#849=DIRECTION('',(1.0,0.0,0.0));
#850=AXIS2_PLACEMENT_3D('',#847,#848,#849);
#851=CYLINDRICAL_SURFACE('',#850,0.300000000000000);
#852=CARTESIAN_POINT('',(7.919709374379771,-2.539999999999997,0.600000000000007));
#853=VERTEX_POINT('',#852);
#854=CARTESIAN_POINT('',(7.919709374379771,-2.539999999999997,-3.599999999999993));
#855=VERTEX_POINT('',#854);
#856=CARTESIAN_POINT('',(7.919709374379771,-2.539999999999997,0.600000000000007));
#857=DIRECTION('',(0.0,0.0,-1.0));
#858=VECTOR('',#857,4.200000000000000);
#859=LINE('',#856,#858);
#860=EDGE_CURVE('',#853,#855,#859,.T.);
#861=ORIENTED_EDGE('',*,*,#860,.F.);
#862=CARTESIAN_POINT('',(7.319709374379771,-2.539999999999997,0.600000000000007));
#863=VERTEX_POINT('',#862);
#864=CARTESIAN_POINT('',(7.619709374379771,-2.539999999999997,0.600000000000007));
#865=DIRECTION('',(0.0,0.0,-1.0));
#866=DIRECTION('',(1.0,0.0,0.0));
#867=AXIS2_PLACEMENT_3D('',#864,#865,#866);
#868=CIRCLE('',#867,0.300000000000000);
#869=EDGE_CURVE('',#853,#863,#868,.T.);
#870=ORIENTED_EDGE('',*,*,#869,.T.);
#871=CARTESIAN_POINT('',(7.319709374379771,-2.539999999999997,-3.599999999999993));
#872=VERTEX_POINT('',#871);
#873=CARTESIAN_POINT('',(7.319709374379771,-2.539999999999997,0.600000000000007));
#874=DIRECTION('',(0.0,0.0,-1.0));
#875=VECTOR('',#874,4.200000000000000);
#876=LINE('',#873,#875);
#877=EDGE_CURVE('',#863,#872,#876,.T.);
#878=ORIENTED_EDGE('',*,*,#877,.T.);
#879=CARTESIAN_POINT('',(7.619709374379771,-2.539999999999997,-3.599999999999993));
#880=DIRECTION('',(0.0,0.0,1.0));
#881=DIRECTION('',(1.0,0.0,0.0));
#882=AXIS2_PLACEMENT_3D('',#879,#880,#881);
#883=CIRCLE('',#882,0.300000000000000);
#884=EDGE_CURVE('',#872,#855,#883,.T.);
#885=ORIENTED_EDGE('',*,*,#884,.T.);
#886=EDGE_LOOP('',(#861,#870,#878,#885));
#887=FACE_OUTER_BOUND('',#886,.T.);
#888=ADVANCED_FACE('',(#887),#851,.T.);
#889=CARTESIAN_POINT('',(7.619709374379771,-2.539999999999997,-3.599999999999993));
#890=DIRECTION('',(0.0,0.0,1.0));
#891=DIRECTION('',(1.0,0.0,0.0));
#892=AXIS2_PLACEMENT_3D('',#889,#890,#891);
#893=CYLINDRICAL_SURFACE('',#892,0.300000000000000);
#894=ORIENTED_EDGE('',*,*,#860,.T.);
#895=CARTESIAN_POINT('',(7.619709374379771,-2.539999999999997,-3.599999999999993));
#896=DIRECTION('',(0.0,0.0,1.0));
#897=DIRECTION('',(1.0,0.0,0.0));
#898=AXIS2_PLACEMENT_3D('',#895,#896,#897);
#899=CIRCLE('',#898,0.300000000000000);
#900=EDGE_CURVE('',#855,#872,#899,.T.);
#901=ORIENTED_EDGE('',*,*,#900,.T.);
#902=ORIENTED_EDGE('',*,*,#877,.F.);
#903=CARTESIAN_POINT('',(7.619709374379771,-2.539999999999997,0.600000000000007));
#904=DIRECTION('',(0.0,0.0,-1.0));
#905=DIRECTION('',(1.0,0.0,0.0));
#906=AXIS2_PLACEMENT_3D('',#903,#904,#905);
#907=CIRCLE('',#906,0.300000000000000);
#908=EDGE_CURVE('',#863,#853,#907,.T.);
#909=ORIENTED_EDGE('',*,*,#908,.T.);
#910=EDGE_LOOP('',(#894,#901,#902,#909));
#911=FACE_OUTER_BOUND('',#910,.T.);
#912=ADVANCED_FACE('',(#911),#893,.T.);
#913=CARTESIAN_POINT('',(7.619709374379771,-2.539999999999997,0.600000000000007));
#914=DIRECTION('',(0.0,0.0,1.0));
#915=DIRECTION('',(1.0,0.0,0.0));
#916=AXIS2_PLACEMENT_3D('',#913,#914,#915);
#917=PLANE('',#916);
#918=ORIENTED_EDGE('',*,*,#869,.F.);
#919=ORIENTED_EDGE('',*,*,#908,.F.);
#920=EDGE_LOOP('',(#918,#919));
#921=FACE_OUTER_BOUND('',#920,.T.);
#922=ADVANCED_FACE('',(#921),#917,.T.);
#923=CARTESIAN_POINT('',(7.619709374379771,-2.539999999999997,-3.599999999999993));
#924=DIRECTION('',(0.0,0.0,1.0));
#925=DIRECTION('',(1.0,0.0,0.0));
#926=AXIS2_PLACEMENT_3D('',#923,#924,#925);
#927=PLANE('',#926);
#928=ORIENTED_EDGE('',*,*,#900,.F.);
#929=ORIENTED_EDGE('',*,*,#884,.F.);
#930=EDGE_LOOP('',(#928,#929));
#931=FACE_OUTER_BOUND('',#930,.T.);
#932=ADVANCED_FACE('',(#931),#927,.F.);
#933=CLOSED_SHELL('',(#888,#912,#922,#932));
#934=MANIFOLD_SOLID_BREP('9CF',#933);
#935=COLOUR_RGB('254',0.866000000000000,0.866000000000000,0.866000000000000);
#936=SURFACE_STYLE_USAGE(.BOTH.,#937);
#937=SURFACE_SIDE_STYLE('NONE',(#938));
#938=SURFACE_STYLE_FILL_AREA(#939);
#939=FILL_AREA_STYLE('NONE',(#940));
#940=FILL_AREA_STYLE_COLOUR('NONE',#935);
#941=PRESENTATION_STYLE_ASSIGNMENT((#936));
#942=STYLED_ITEM('NONE',(#941),#934);
#943=CARTESIAN_POINT('',(7.619709374379766,2.539999999999998,-3.599999999999998));
#944=DIRECTION('',(0.0,0.0,1.0));
#945=DIRECTION('',(1.0,0.0,0.0));
#946=AXIS2_PLACEMENT_3D('',#943,#944,#945);
#947=CYLINDRICAL_SURFACE('',#946,0.300000000000000);
#948=CARTESIAN_POINT('',(7.919709374379766,2.539999999999998,0.600000000000002));
#949=VERTEX_POINT('',#948);
#950=CARTESIAN_POINT('',(7.919709374379766,2.539999999999998,-3.599999999999998));
#951=VERTEX_POINT('',#950);
#952=CARTESIAN_POINT('',(7.919709374379766,2.539999999999998,0.600000000000002));
#953=DIRECTION('',(0.0,0.0,-1.0));
#954=VECTOR('',#953,4.200000000000000);
#955=LINE('',#952,#954);
#956=EDGE_CURVE('',#949,#951,#955,.T.);
#957=ORIENTED_EDGE('',*,*,#956,.F.);
#958=CARTESIAN_POINT('',(7.319709374379766,2.539999999999998,0.600000000000002));
#959=VERTEX_POINT('',#958);
#960=CARTESIAN_POINT('',(7.619709374379766,2.539999999999998,0.600000000000002));
#961=DIRECTION('',(0.0,0.0,-1.0));
#962=DIRECTION('',(1.0,0.0,0.0));
#963=AXIS2_PLACEMENT_3D('',#960,#961,#962);
#964=CIRCLE('',#963,0.300000000000000);
#965=EDGE_CURVE('',#949,#959,#964,.T.);
#966=ORIENTED_EDGE('',*,*,#965,.T.);
#967=CARTESIAN_POINT('',(7.319709374379766,2.539999999999998,-3.599999999999998));
#968=VERTEX_POINT('',#967);
#969=CARTESIAN_POINT('',(7.319709374379766,2.539999999999998,0.600000000000002));
#970=DIRECTION('',(0.0,0.0,-1.0));
#971=VECTOR('',#970,4.200000000000000);
#972=LINE('',#969,#971);
#973=EDGE_CURVE('',#959,#968,#972,.T.);
#974=ORIENTED_EDGE('',*,*,#973,.T.);
#975=CARTESIAN_POINT('',(7.619709374379766,2.539999999999998,-3.599999999999998));
#976=DIRECTION('',(0.0,0.0,1.0));
#977=DIRECTION('',(1.0,0.0,0.0));
#978=AXIS2_PLACEMENT_3D('',#975,#976,#977);
#979=CIRCLE('',#978,0.300000000000000);
#980=EDGE_CURVE('',#968,#951,#979,.T.);
#981=ORIENTED_EDGE('',*,*,#980,.T.);
#982=EDGE_LOOP('',(#957,#966,#974,#981));
#983=FACE_OUTER_BOUND('',#982,.T.);
#984=ADVANCED_FACE('',(#983),#947,.T.);
#985=CARTESIAN_POINT('',(7.619709374379766,2.539999999999998,-3.599999999999998));
#986=DIRECTION('',(0.0,0.0,1.0));
#987=DIRECTION('',(1.0,0.0,0.0));
#988=AXIS2_PLACEMENT_3D('',#985,#986,#987);
#989=CYLINDRICAL_SURFACE('',#988,0.300000000000000);
#990=ORIENTED_EDGE('',*,*,#956,.T.);
#991=CARTESIAN_POINT('',(7.619709374379766,2.539999999999998,-3.599999999999998));
#992=DIRECTION('',(0.0,0.0,1.0));
#993=DIRECTION('',(1.0,0.0,0.0));
#994=AXIS2_PLACEMENT_3D('',#991,#992,#993);
#995=CIRCLE('',#994,0.300000000000000);
#996=EDGE_CURVE('',#951,#968,#995,.T.);
#997=ORIENTED_EDGE('',*,*,#996,.T.);
#998=ORIENTED_EDGE('',*,*,#973,.F.);
#999=CARTESIAN_POINT('',(7.619709374379766,2.539999999999998,0.600000000000002));
#1000=DIRECTION('',(0.0,0.0,-1.0));
#1001=DIRECTION('',(1.0,0.0,0.0));
#1002=AXIS2_PLACEMENT_3D('',#999,#1000,#1001);
#1003=CIRCLE('',#1002,0.300000000000000);
#1004=EDGE_CURVE('',#959,#949,#1003,.T.);
#1005=ORIENTED_EDGE('',*,*,#1004,.T.);
#1006=EDGE_LOOP('',(#990,#997,#998,#1005));
#1007=FACE_OUTER_BOUND('',#1006,.T.);
#1008=ADVANCED_FACE('',(#1007),#989,.T.);
#1009=CARTESIAN_POINT('',(7.619709374379766,2.539999999999998,0.600000000000002));
#1010=DIRECTION('',(0.0,0.0,1.0));
#1011=DIRECTION('',(1.0,0.0,0.0));
#1012=AXIS2_PLACEMENT_3D('',#1009,#1010,#1011);
#1013=PLANE('',#1012);
#1014=ORIENTED_EDGE('',*,*,#965,.F.);
#1015=ORIENTED_EDGE('',*,*,#1004,.F.);
#1016=EDGE_LOOP('',(#1014,#1015));
#1017=FACE_OUTER_BOUND('',#1016,.T.);
#1018=ADVANCED_FACE('',(#1017),#1013,.T.);
#1019=CARTESIAN_POINT('',(7.619709374379766,2.539999999999998,-3.599999999999998));
#1020=DIRECTION('',(0.0,0.0,1.0));
#1021=DIRECTION('',(1.0,0.0,0.0));
#1022=AXIS2_PLACEMENT_3D('',#1019,#1020,#1021);
#1023=PLANE('',#1022);
#1024=ORIENTED_EDGE('',*,*,#996,.F.);
#1025=ORIENTED_EDGE('',*,*,#980,.F.);
#1026=EDGE_LOOP('',(#1024,#1025));
#1027=FACE_OUTER_BOUND('',#1026,.T.);
#1028=ADVANCED_FACE('',(#1027),#1023,.F.);
#1029=CLOSED_SHELL('',(#984,#1008,#1018,#1028));
#1030=MANIFOLD_SOLID_BREP('9CE',#1029);
#1031=STYLED_ITEM('NONE',(#941),#1030);
#1032=CARTESIAN_POINT('',(12.499709374379769,-4.100000000000009,0.600000000000000));
#1033=DIRECTION('',(0.0,-1.480297E-015,-1.0));
#1034=DIRECTION('',(-1.0,0.0,0.0));
#1035=AXIS2_PLACEMENT_3D('',#1032,#1033,#1034);
#1036=CYLINDRICAL_SURFACE('',#1035,0.500000000000000);
#1037=CARTESIAN_POINT('',(11.999709374379769,-4.100000000000009,-3.330669E-016));
#1038=VERTEX_POINT('',#1037);
#1039=CARTESIAN_POINT('',(11.999709374379769,-4.100000000000009,0.600000000000000));
#1040=VERTEX_POINT('',#1039);
#1041=CARTESIAN_POINT('',(11.999709374379769,-4.100000000000009,-3.330669E-016));
#1042=DIRECTION('',(0.0,0.0,1.0));
#1043=VECTOR('',#1042,0.600000000000000);
#1044=LINE('',#1041,#1043);
#1045=EDGE_CURVE('',#1038,#1040,#1044,.T.);
#1046=ORIENTED_EDGE('',*,*,#1045,.F.);
#1047=CARTESIAN_POINT('',(12.999709374379769,-4.100000000000009,-3.330669E-016));
#1048=VERTEX_POINT('',#1047);
#1049=CARTESIAN_POINT('',(12.499709374379769,-4.100000000000009,-1.110223E-016));
#1050=DIRECTION('',(0.0,0.0,1.0));
#1051=DIRECTION('',(-1.0,0.0,0.0));
#1052=AXIS2_PLACEMENT_3D('',#1049,#1050,#1051);
#1053=CIRCLE('',#1052,0.500000000000000);
#1054=EDGE_CURVE('',#1038,#1048,#1053,.T.);
#1055=ORIENTED_EDGE('',*,*,#1054,.T.);
#1056=CARTESIAN_POINT('',(12.999709374379769,-4.100000000000009,0.600000000000000));
#1057=VERTEX_POINT('',#1056);
#1058=CARTESIAN_POINT('',(12.999709374379769,-4.100000000000009,-3.330669E-016));
#1059=DIRECTION('',(0.0,0.0,1.0));
#1060=VECTOR('',#1059,0.600000000000000);
#1061=LINE('',#1058,#1060);
#1062=EDGE_CURVE('',#1048,#1057,#1061,.T.);
#1063=ORIENTED_EDGE('',*,*,#1062,.T.);
#1064=CARTESIAN_POINT('',(12.499709374379769,-4.100000000000009,0.600000000000000));
#1065=DIRECTION('',(0.0,0.0,-1.0));
#1066=DIRECTION('',(-1.0,0.0,0.0));
#1067=AXIS2_PLACEMENT_3D('',#1064,#1065,#1066);
#1068=CIRCLE('',#1067,0.500000000000000);
#1069=EDGE_CURVE('',#1057,#1040,#1068,.T.);
#1070=ORIENTED_EDGE('',*,*,#1069,.T.);
#1071=EDGE_LOOP('',(#1046,#1055,#1063,#1070));
#1072=FACE_OUTER_BOUND('',#1071,.T.);
#1073=ADVANCED_FACE('',(#1072),#1036,.T.);
#1074=CARTESIAN_POINT('',(12.499709374379769,-4.100000000000009,0.600000000000000));
#1075=DIRECTION('',(0.0,-1.480297E-015,-1.0));
#1076=DIRECTION('',(-1.0,0.0,0.0));
#1077=AXIS2_PLACEMENT_3D('',#1074,#1075,#1076);
#1078=CYLINDRICAL_SURFACE('',#1077,0.500000000000000);
#1079=ORIENTED_EDGE('',*,*,#1045,.T.);
#1080=CARTESIAN_POINT('',(12.499709374379769,-4.100000000000009,0.600000000000000));
#1081=DIRECTION('',(0.0,0.0,-1.0));
#1082=DIRECTION('',(-1.0,0.0,0.0));
#1083=AXIS2_PLACEMENT_3D('',#1080,#1081,#1082);
#1084=CIRCLE('',#1083,0.500000000000000);
#1085=EDGE_CURVE('',#1040,#1057,#1084,.T.);
#1086=ORIENTED_EDGE('',*,*,#1085,.T.);
#1087=ORIENTED_EDGE('',*,*,#1062,.F.);
#1088=CARTESIAN_POINT('',(12.499709374379769,-4.100000000000009,-1.110223E-016));
#1089=DIRECTION('',(0.0,0.0,1.0));
#1090=DIRECTION('',(-1.0,0.0,0.0));
#1091=AXIS2_PLACEMENT_3D('',#1088,#1089,#1090);
#1092=CIRCLE('',#1091,0.500000000000000);
#1093=EDGE_CURVE('',#1048,#1038,#1092,.T.);
#1094=ORIENTED_EDGE('',*,*,#1093,.T.);
#1095=EDGE_LOOP('',(#1079,#1086,#1087,#1094));
#1096=FACE_OUTER_BOUND('',#1095,.T.);
#1097=ADVANCED_FACE('',(#1096),#1078,.T.);
#1098=CARTESIAN_POINT('',(12.499709374379769,-4.100000000000009,-1.110223E-016));
#1099=DIRECTION('',(0.0,0.0,-1.0));
#1100=DIRECTION('',(-1.0,0.0,0.0));
#1101=AXIS2_PLACEMENT_3D('',#1098,#1099,#1100);
#1102=PLANE('',#1101);
#1103=ORIENTED_EDGE('',*,*,#1054,.F.);
#1104=ORIENTED_EDGE('',*,*,#1093,.F.);
#1105=EDGE_LOOP('',(#1103,#1104));
#1106=FACE_OUTER_BOUND('',#1105,.T.);
#1107=ADVANCED_FACE('',(#1106),#1102,.T.);
#1108=CARTESIAN_POINT('',(12.499709374379769,-4.100000000000009,0.600000000000000));
#1109=DIRECTION('',(0.0,0.0,-1.0));
#1110=DIRECTION('',(-1.0,0.0,0.0));
#1111=AXIS2_PLACEMENT_3D('',#1108,#1109,#1110);
#1112=PLANE('',#1111);
#1113=ORIENTED_EDGE('',*,*,#1085,.F.);
#1114=ORIENTED_EDGE('',*,*,#1069,.F.);
#1115=EDGE_LOOP('',(#1113,#1114));
#1116=FACE_OUTER_BOUND('',#1115,.T.);
#1117=ADVANCED_FACE('',(#1116),#1112,.F.);
#1118=CLOSED_SHELL('',(#1073,#1097,#1107,#1117));
#1119=MANIFOLD_SOLID_BREP('9C5',#1118);
#1120=STYLED_ITEM('NONE',(#221),#1119);
#1121=CARTESIAN_POINT('',(12.499709374379769,4.099999999999989,0.600000000000000));
#1122=DIRECTION('',(0.0,-1.480297E-015,-1.0));
#1123=DIRECTION('',(-1.0,0.0,0.0));
#1124=AXIS2_PLACEMENT_3D('',#1121,#1122,#1123);
#1125=CYLINDRICAL_SURFACE('',#1124,0.500000000000000);
#1126=CARTESIAN_POINT('',(11.999709374379769,4.099999999999989,-3.330669E-016));
#1127=VERTEX_POINT('',#1126);
#1128=CARTESIAN_POINT('',(11.999709374379769,4.099999999999989,0.600000000000000));
#1129=VERTEX_POINT('',#1128);
#1130=CARTESIAN_POINT('',(11.999709374379769,4.099999999999988,-3.330669E-016));
#1131=DIRECTION('',(0.0,0.0,1.0));
#1132=VECTOR('',#1131,0.600000000000000);
#1133=LINE('',#1130,#1132);
#1134=EDGE_CURVE('',#1127,#1129,#1133,.T.);
#1135=ORIENTED_EDGE('',*,*,#1134,.F.);
#1136=CARTESIAN_POINT('',(12.999709374379769,4.099999999999988,-3.330669E-016));
#1137=VERTEX_POINT('',#1136);
#1138=CARTESIAN_POINT('',(12.499709374379769,4.099999999999989,-1.110223E-016));
#1139=DIRECTION('',(0.0,0.0,1.0));
#1140=DIRECTION('',(-1.0,0.0,0.0));
#1141=AXIS2_PLACEMENT_3D('',#1138,#1139,#1140);
#1142=CIRCLE('',#1141,0.500000000000000);
#1143=EDGE_CURVE('',#1127,#1137,#1142,.T.);
#1144=ORIENTED_EDGE('',*,*,#1143,.T.);
#1145=CARTESIAN_POINT('',(12.999709374379769,4.099999999999989,0.600000000000000));
#1146=VERTEX_POINT('',#1145);
#1147=CARTESIAN_POINT('',(12.999709374379769,4.099999999999988,-3.330669E-016));
#1148=DIRECTION('',(0.0,0.0,1.0));
#1149=VECTOR('',#1148,0.600000000000000);
#1150=LINE('',#1147,#1149);
#1151=EDGE_CURVE('',#1137,#1146,#1150,.T.);
#1152=ORIENTED_EDGE('',*,*,#1151,.T.);
#1153=CARTESIAN_POINT('',(12.499709374379769,4.099999999999989,0.600000000000000));
#1154=DIRECTION('',(0.0,0.0,-1.0));
#1155=DIRECTION('',(-1.0,0.0,0.0));
#1156=AXIS2_PLACEMENT_3D('',#1153,#1154,#1155);
#1157=CIRCLE('',#1156,0.500000000000000);
#1158=EDGE_CURVE('',#1146,#1129,#1157,.T.);
#1159=ORIENTED_EDGE('',*,*,#1158,.T.);
#1160=EDGE_LOOP('',(#1135,#1144,#1152,#1159));
#1161=FACE_OUTER_BOUND('',#1160,.T.);
#1162=ADVANCED_FACE('',(#1161),#1125,.T.);
#1163=CARTESIAN_POINT('',(12.499709374379769,4.099999999999989,0.600000000000000));
#1164=DIRECTION('',(0.0,-1.480297E-015,-1.0));
#1165=DIRECTION('',(-1.0,0.0,0.0));
#1166=AXIS2_PLACEMENT_3D('',#1163,#1164,#1165);
#1167=CYLINDRICAL_SURFACE('',#1166,0.500000000000000);
#1168=ORIENTED_EDGE('',*,*,#1134,.T.);
#1169=CARTESIAN_POINT('',(12.499709374379769,4.099999999999989,0.600000000000000));
#1170=DIRECTION('',(0.0,0.0,-1.0));
#1171=DIRECTION('',(-1.0,0.0,0.0));
#1172=AXIS2_PLACEMENT_3D('',#1169,#1170,#1171);
#1173=CIRCLE('',#1172,0.500000000000000);
#1174=EDGE_CURVE('',#1129,#1146,#1173,.T.);
#1175=ORIENTED_EDGE('',*,*,#1174,.T.);
#1176=ORIENTED_EDGE('',*,*,#1151,.F.);
#1177=CARTESIAN_POINT('',(12.499709374379769,4.099999999999989,-1.110223E-016));
#1178=DIRECTION('',(0.0,0.0,1.0));
#1179=DIRECTION('',(-1.0,0.0,0.0));
#1180=AXIS2_PLACEMENT_3D('',#1177,#1178,#1179);
#1181=CIRCLE('',#1180,0.500000000000000);
#1182=EDGE_CURVE('',#1137,#1127,#1181,.T.);
#1183=ORIENTED_EDGE('',*,*,#1182,.T.);
#1184=EDGE_LOOP('',(#1168,#1175,#1176,#1183));
#1185=FACE_OUTER_BOUND('',#1184,.T.);
#1186=ADVANCED_FACE('',(#1185),#1167,.T.);
#1187=CARTESIAN_POINT('',(12.499709374379769,4.099999999999989,-1.110223E-016));
#1188=DIRECTION('',(0.0,0.0,-1.0));
#1189=DIRECTION('',(-1.0,0.0,0.0));
#1190=AXIS2_PLACEMENT_3D('',#1187,#1188,#1189);
#1191=PLANE('',#1190);
#1192=ORIENTED_EDGE('',*,*,#1143,.F.);
#1193=ORIENTED_EDGE('',*,*,#1182,.F.);
#1194=EDGE_LOOP('',(#1192,#1193));
#1195=FACE_OUTER_BOUND('',#1194,.T.);
#1196=ADVANCED_FACE('',(#1195),#1191,.T.);
#1197=CARTESIAN_POINT('',(12.499709374379769,4.099999999999989,0.600000000000000));
#1198=DIRECTION('',(0.0,0.0,-1.0));
#1199=DIRECTION('',(-1.0,0.0,0.0));
#1200=AXIS2_PLACEMENT_3D('',#1197,#1198,#1199);
#1201=PLANE('',#1200);
#1202=ORIENTED_EDGE('',*,*,#1174,.F.);
#1203=ORIENTED_EDGE('',*,*,#1158,.F.);
#1204=EDGE_LOOP('',(#1202,#1203));
#1205=FACE_OUTER_BOUND('',#1204,.T.);
#1206=ADVANCED_FACE('',(#1205),#1201,.F.);
#1207=CLOSED_SHELL('',(#1162,#1186,#1196,#1206));
#1208=MANIFOLD_SOLID_BREP('9C4',#1207);
#1209=STYLED_ITEM('NONE',(#221),#1208);
#1210=CARTESIAN_POINT('',(13.399709374379768,5.440093E-015,4.800000000000003));
#1211=DIRECTION('',(1.0,0.0,1.480297E-016));
#1212=DIRECTION('',(0.0,1.0,0.0));
#1213=AXIS2_PLACEMENT_3D('',#1210,#1211,#1212);
#1214=CYLINDRICAL_SURFACE('',#1213,2.900000000000000);
#1215=CARTESIAN_POINT('',(0.499709374379766,2.900000000000005,4.800000000000002));
#1216=VERTEX_POINT('',#1215);
#1217=CARTESIAN_POINT('',(12.999709374379769,2.900000000000005,4.800000000000003));
#1218=VERTEX_POINT('',#1217);
#1219=CARTESIAN_POINT('',(0.499709374379766,2.900000000000005,4.800000000000002));
#1220=DIRECTION('',(1.0,0.0,0.0));
#1221=VECTOR('',#1220,12.500000000000004);
#1222=LINE('',#1219,#1221);
#1223=EDGE_CURVE('',#1216,#1218,#1222,.T.);
#1224=ORIENTED_EDGE('',*,*,#1223,.F.);
#1225=CARTESIAN_POINT('',(0.499709374379766,-2.899999999999995,4.800000000000002));
#1226=VERTEX_POINT('',#1225);
#1227=CARTESIAN_POINT('',(0.499709374379769,5.440093E-015,4.800000000000002));
#1228=DIRECTION('',(1.0,0.0,0.0));
#1229=DIRECTION('',(0.0,1.0,0.0));
#1230=AXIS2_PLACEMENT_3D('',#1227,#1228,#1229);
#1231=CIRCLE('',#1230,2.900000000000000);
#1232=EDGE_CURVE('',#1226,#1216,#1231,.T.);
#1233=ORIENTED_EDGE('',*,*,#1232,.F.);
#1234=CARTESIAN_POINT('',(12.999709374379769,-2.899999999999995,4.800000000000003));
#1235=VERTEX_POINT('',#1234);
#1236=CARTESIAN_POINT('',(0.499709374379766,-2.899999999999995,4.800000000000002));
#1237=DIRECTION('',(1.0,0.0,0.0));
#1238=VECTOR('',#1237,12.500000000000004);
#1239=LINE('',#1236,#1238);
#1240=EDGE_CURVE('',#1226,#1235,#1239,.T.);
#1241=ORIENTED_EDGE('',*,*,#1240,.T.);
#1242=CARTESIAN_POINT('',(12.999709374379769,5.440093E-015,4.800000000000003));
#1243=DIRECTION('',(1.0,0.0,0.0));
#1244=DIRECTION('',(0.0,1.0,0.0));
#1245=AXIS2_PLACEMENT_3D('',#1242,#1243,#1244);
#1246=CIRCLE('',#1245,2.900000000000000);
#1247=EDGE_CURVE('',#1235,#1218,#1246,.T.);
#1248=ORIENTED_EDGE('',*,*,#1247,.T.);
#1249=EDGE_LOOP('',(#1224,#1233,#1241,#1248));
#1250=FACE_OUTER_BOUND('',#1249,.T.);
#1251=ADVANCED_FACE('',(#1250),#1214,.F.);
#1252=CARTESIAN_POINT('',(6.249709374379769,-9.933584E-015,0.600000000000000));
#1253=DIRECTION('',(0.0,0.0,1.0));
#1254=DIRECTION('',(1.0,0.0,0.0));
#1255=AXIS2_PLACEMENT_3D('',#1252,#1253,#1254);
#1256=PLANE('',#1255);
#1257=CARTESIAN_POINT('',(0.499709374379770,-3.270000000000007,0.600000000000000));
#1258=VERTEX_POINT('',#1257);
#1259=CARTESIAN_POINT('',(0.499709374379766,3.269999999999993,0.600000000000000));
#1260=VERTEX_POINT('',#1259);
#1261=CARTESIAN_POINT('',(0.499709374379777,-3.270000000000007,0.600000000000000));
#1262=DIRECTION('',(0.0,1.0,0.0));
#1263=VECTOR('',#1262,6.540000000000000);
#1264=LINE('',#1261,#1263);
#1265=EDGE_CURVE('',#1258,#1260,#1264,.T.);
#1266=ORIENTED_EDGE('',*,*,#1265,.T.);
#1267=CARTESIAN_POINT('',(-0.500290625620235,3.269999999999991,0.600000000000000));
#1268=VERTEX_POINT('',#1267);
#1269=CARTESIAN_POINT('',(0.499709374379766,3.269999999999993,0.600000000000000));
#1270=DIRECTION('',(-1.0,0.0,0.0));
#1271=VECTOR('',#1270,1.000000000000001);
#1272=LINE('',#1269,#1271);
#1273=EDGE_CURVE('',#1260,#1268,#1272,.T.);
#1274=ORIENTED_EDGE('',*,*,#1273,.T.);
#1275=CARTESIAN_POINT('',(-0.500290625620231,4.599999999999991,0.600000000000000));
#1276=VERTEX_POINT('',#1275);
#1277=CARTESIAN_POINT('',(-0.500290625620231,3.269999999999992,0.600000000000000));
#1278=DIRECTION('',(0.0,1.0,0.0));
#1279=VECTOR('',#1278,1.329999999999999);
#1280=LINE('',#1277,#1279);
#1281=EDGE_CURVE('',#1268,#1276,#1280,.T.);
#1282=ORIENTED_EDGE('',*,*,#1281,.T.);
#1283=CARTESIAN_POINT('',(12.999709374379769,4.599999999999989,0.600000000000000));
#1284=VERTEX_POINT('',#1283);
#1285=CARTESIAN_POINT('',(-0.500290625620231,4.599999999999991,0.600000000000000));
#1286=DIRECTION('',(1.0,0.0,0.0));
#1287=VECTOR('',#1286,13.500000000000000);
#1288=LINE('',#1285,#1287);
#1289=EDGE_CURVE('',#1276,#1284,#1288,.T.);
#1290=ORIENTED_EDGE('',*,*,#1289,.T.);
#1291=CARTESIAN_POINT('',(12.999709374379769,-4.600000000000009,0.600000000000000));
#1292=VERTEX_POINT('',#1291);
#1293=CARTESIAN_POINT('',(12.999709374379769,4.599999999999989,0.600000000000000));
#1294=DIRECTION('',(0.0,-1.0,0.0));
#1295=VECTOR('',#1294,9.199999999999998);
#1296=LINE('',#1293,#1295);
#1297=EDGE_CURVE('',#1284,#1292,#1296,.T.);
#1298=ORIENTED_EDGE('',*,*,#1297,.T.);
#1299=CARTESIAN_POINT('',(-0.500290625620231,-4.600000000000009,0.600000000000000));
#1300=VERTEX_POINT('',#1299);
#1301=CARTESIAN_POINT('',(12.999709374379769,-4.600000000000009,0.600000000000000));
#1302=DIRECTION('',(-1.0,0.0,0.0));
#1303=VECTOR('',#1302,13.500000000000000);
#1304=LINE('',#1301,#1303);
#1305=EDGE_CURVE('',#1292,#1300,#1304,.T.);
#1306=ORIENTED_EDGE('',*,*,#1305,.T.);
#1307=CARTESIAN_POINT('',(-0.500290625620226,-3.270000000000009,0.600000000000000));
#1308=VERTEX_POINT('',#1307);
#1309=CARTESIAN_POINT('',(-0.500290625620231,-4.600000000000009,0.600000000000000));
#1310=DIRECTION('',(0.0,1.0,0.0));
#1311=VECTOR('',#1310,1.330000000000000);
#1312=LINE('',#1309,#1311);
#1313=EDGE_CURVE('',#1300,#1308,#1312,.T.);
#1314=ORIENTED_EDGE('',*,*,#1313,.T.);
#1315=CARTESIAN_POINT('',(-0.500290625620226,-3.270000000000009,0.600000000000000));
#1316=DIRECTION('',(1.0,0.0,0.0));
#1317=VECTOR('',#1316,0.999999999999996);
#1318=LINE('',#1315,#1317);
#1319=EDGE_CURVE('',#1308,#1258,#1318,.T.);
#1320=ORIENTED_EDGE('',*,*,#1319,.T.);
#1321=EDGE_LOOP('',(#1266,#1274,#1282,#1290,#1298,#1306,#1314,#1320));
#1322=FACE_OUTER_BOUND('',#1321,.T.);
#1323=ADVANCED_FACE('',(#1322),#1256,.F.);
#1324=CARTESIAN_POINT('',(-0.500290625620230,4.599999999999991,1.600000000000000));
#1325=DIRECTION('',(0.0,0.0,-1.0));
#1326=DIRECTION('',(-1.0,0.0,0.0));
#1327=AXIS2_PLACEMENT_3D('',#1324,#1325,#1326);
#1328=PLANE('',#1327);
#1329=CARTESIAN_POINT('',(0.499709374379770,-3.270000000000007,1.600000000000000));
#1330=VERTEX_POINT('',#1329);
#1331=CARTESIAN_POINT('',(-0.500290625620226,-3.270000000000009,1.600000000000000));
#1332=VERTEX_POINT('',#1331);
#1333=CARTESIAN_POINT('',(0.499709374379770,-3.270000000000007,1.600000000000000));
#1334=DIRECTION('',(-1.0,0.0,0.0));
#1335=VECTOR('',#1334,0.999999999999996);
#1336=LINE('',#1333,#1335);
#1337=EDGE_CURVE('',#1330,#1332,#1336,.T.);
#1338=ORIENTED_EDGE('',*,*,#1337,.T.);
#1339=CARTESIAN_POINT('',(-0.500290625620230,-4.600000000000009,1.600000000000000));
#1340=VERTEX_POINT('',#1339);
#1341=CARTESIAN_POINT('',(-0.500290625620231,-4.600000000000009,1.600000000000000));
#1342=DIRECTION('',(0.0,1.0,0.0));
#1343=VECTOR('',#1342,1.330000000000000);
#1344=LINE('',#1341,#1343);
#1345=EDGE_CURVE('',#1340,#1332,#1344,.T.);
#1346=ORIENTED_EDGE('',*,*,#1345,.F.);
#1347=CARTESIAN_POINT('',(0.499709374379770,-4.600000000000009,1.600000000000000));
#1348=VERTEX_POINT('',#1347);
#1349=CARTESIAN_POINT('',(0.499709374379770,-4.600000000000009,1.600000000000000));
#1350=DIRECTION('',(-1.0,0.0,0.0));
#1351=VECTOR('',#1350,1.000000000000001);
#1352=LINE('',#1349,#1351);
#1353=EDGE_CURVE('',#1348,#1340,#1352,.T.);
#1354=ORIENTED_EDGE('',*,*,#1353,.F.);
#1355=CARTESIAN_POINT('',(0.499709374379770,-3.270000000000007,1.600000000000000));
#1356=DIRECTION('',(0.0,-1.0,0.0));
#1357=VECTOR('',#1356,1.330000000000002);
#1358=LINE('',#1355,#1357);
#1359=EDGE_CURVE('',#1330,#1348,#1358,.T.);
#1360=ORIENTED_EDGE('',*,*,#1359,.F.);
#1361=EDGE_LOOP('',(#1338,#1346,#1354,#1360));
#1362=FACE_OUTER_BOUND('',#1361,.T.);
#1363=ADVANCED_FACE('',(#1362),#1328,.F.);
#1364=CARTESIAN_POINT('',(-0.500290625620231,-4.600000000000009,0.600000000000000));
#1365=DIRECTION('',(-1.0,0.0,0.0));
#1366=DIRECTION('',(0.0,0.0,1.0));
#1367=AXIS2_PLACEMENT_3D('',#1364,#1365,#1366);
#1368=PLANE('',#1367);
#1369=CARTESIAN_POINT('',(-0.500290625620231,-3.270000000000009,1.600000000000000));
#1370=DIRECTION('',(0.0,0.0,-1.0));
#1371=VECTOR('',#1370,1.000000000000000);
#1372=LINE('',#1369,#1371);
#1373=EDGE_CURVE('',#1332,#1308,#1372,.T.);
#1374=ORIENTED_EDGE('',*,*,#1373,.T.);
#1375=ORIENTED_EDGE('',*,*,#1313,.F.);
#1376=CARTESIAN_POINT('',(-0.500290625620231,-4.600000000000009,0.600000000000000));
#1377=DIRECTION('',(0.0,0.0,1.0));
#1378=VECTOR('',#1377,1.000000000000000);
#1379=LINE('',#1376,#1378);
#1380=EDGE_CURVE('',#1300,#1340,#1379,.T.);
#1381=ORIENTED_EDGE('',*,*,#1380,.T.);
#1382=ORIENTED_EDGE('',*,*,#1345,.T.);
#1383=EDGE_LOOP('',(#1374,#1375,#1381,#1382));
#1384=FACE_OUTER_BOUND('',#1383,.T.);
#1385=ADVANCED_FACE('',(#1384),#1368,.T.);
#1386=CARTESIAN_POINT('',(0.499709374379769,0.999999999999991,4.600000000000000));
#1387=DIRECTION('',(1.0,0.0,0.0));
#1388=DIRECTION('',(0.0,0.0,-1.0));
#1389=AXIS2_PLACEMENT_3D('',#1386,#1387,#1388);
#1390=PLANE('',#1389);
#1391=CARTESIAN_POINT('',(0.499709374379770,4.599999999999991,1.600000000000000));
#1392=VERTEX_POINT('',#1391);
#1393=CARTESIAN_POINT('',(0.499709374379768,4.599999999999991,7.600000000000000));
#1394=VERTEX_POINT('',#1393);
#1395=CARTESIAN_POINT('',(0.499709374379770,4.599999999999991,1.600000000000000));
#1396=DIRECTION('',(0.0,0.0,1.0));
#1397=VECTOR('',#1396,6.0);
#1398=LINE('',#1395,#1397);
#1399=EDGE_CURVE('',#1392,#1394,#1398,.T.);
#1400=ORIENTED_EDGE('',*,*,#1399,.F.);
#1401=CARTESIAN_POINT('',(0.499709374379766,3.269999999999993,1.600000000000000));
#1402=VERTEX_POINT('',#1401);
#1403=CARTESIAN_POINT('',(0.499709374379770,4.599999999999991,1.600000000000000));
#1404=DIRECTION('',(0.0,-1.0,0.0));
#1405=VECTOR('',#1404,1.329999999999997);
#1406=LINE('',#1403,#1405);
#1407=EDGE_CURVE('',#1392,#1402,#1406,.T.);
#1408=ORIENTED_EDGE('',*,*,#1407,.T.);
#1409=CARTESIAN_POINT('',(0.499709374379764,3.269999999999993,1.600000000000000));
#1410=DIRECTION('',(0.0,0.0,-1.0));
#1411=VECTOR('',#1410,1.000000000000000);
#1412=LINE('',#1409,#1411);
#1413=EDGE_CURVE('',#1402,#1260,#1412,.T.);
#1414=ORIENTED_EDGE('',*,*,#1413,.T.);
#1415=ORIENTED_EDGE('',*,*,#1265,.F.);
#1416=CARTESIAN_POINT('',(0.499709374379770,-3.270000000000007,1.600000000000000));
#1417=DIRECTION('',(0.0,0.0,-1.0));
#1418=VECTOR('',#1417,1.0);
#1419=LINE('',#1416,#1418);
#1420=EDGE_CURVE('',#1258,#1330,#1419,.F.);
#1421=ORIENTED_EDGE('',*,*,#1420,.T.);
#1422=ORIENTED_EDGE('',*,*,#1359,.T.);
#1423=CARTESIAN_POINT('',(0.499709374379769,-4.600000000000009,7.600000000000000));
#1424=VERTEX_POINT('',#1423);
#1425=CARTESIAN_POINT('',(0.499709374379769,-4.600000000000009,7.600000000000000));
#1426=DIRECTION('',(0.0,0.0,-1.0));
#1427=VECTOR('',#1426,6.0);
#1428=LINE('',#1425,#1427);
#1429=EDGE_CURVE('',#1424,#1348,#1428,.T.);
#1430=ORIENTED_EDGE('',*,*,#1429,.F.);
#1431=CARTESIAN_POINT('',(0.499709374379769,-0.754983443527077,7.600000000000000));
#1432=VERTEX_POINT('',#1431);
#1433=CARTESIAN_POINT('',(0.499709374379768,-4.600000000000009,7.600000000000000));
#1434=DIRECTION('',(0.0,1.0,0.0));
#1435=VECTOR('',#1434,3.845016556472932);
#1436=LINE('',#1433,#1435);
#1437=EDGE_CURVE('',#1424,#1432,#1436,.T.);
#1438=ORIENTED_EDGE('',*,*,#1437,.T.);
#1439=CARTESIAN_POINT('',(0.499709374379769,5.440093E-015,4.800000000000002));
#1440=DIRECTION('',(1.0,0.0,0.0));
#1441=DIRECTION('',(0.0,1.0,0.0));
#1442=AXIS2_PLACEMENT_3D('',#1439,#1440,#1441);
#1443=CIRCLE('',#1442,2.900000000000000);
#1444=EDGE_CURVE('',#1432,#1226,#1443,.T.);
#1445=ORIENTED_EDGE('',*,*,#1444,.T.);
#1446=ORIENTED_EDGE('',*,*,#1232,.T.);
#1447=CARTESIAN_POINT('',(0.499709374379769,0.754983443527088,7.600000000000000));
#1448=VERTEX_POINT('',#1447);
#1449=CARTESIAN_POINT('',(0.499709374379769,5.440093E-015,4.800000000000002));
#1450=DIRECTION('',(1.0,0.0,0.0));
#1451=DIRECTION('',(0.0,1.0,0.0));
#1452=AXIS2_PLACEMENT_3D('',#1449,#1450,#1451);
#1453=CIRCLE('',#1452,2.900000000000000);
#1454=EDGE_CURVE('',#1216,#1448,#1453,.T.);
#1455=ORIENTED_EDGE('',*,*,#1454,.T.);
#1456=CARTESIAN_POINT('',(0.499709374379768,0.754983443527088,7.600000000000000));
#1457=DIRECTION('',(0.0,1.0,0.0));
#1458=VECTOR('',#1457,3.845016556472903);
#1459=LINE('',#1456,#1458);
#1460=EDGE_CURVE('',#1448,#1394,#1459,.T.);
#1461=ORIENTED_EDGE('',*,*,#1460,.T.);
#1462=EDGE_LOOP('',(#1400,#1408,#1414,#1415,#1421,#1422,#1430,#1438,#1445,#1446,#1455,#1461));
#1463=FACE_OUTER_BOUND('',#1462,.T.);
#1464=ADVANCED_FACE('',(#1463),#1390,.F.);
#1465=CARTESIAN_POINT('',(0.499709374379768,-8.881784E-015,4.800000000000000));
#1466=DIRECTION('',(1.0,0.0,0.0));
#1467=DIRECTION('',(0.0,0.0,-1.0));
#1468=AXIS2_PLACEMENT_3D('',#1465,#1466,#1467);
#1469=PLANE('',#1468);
#1470=CARTESIAN_POINT('',(0.499709374379768,-0.754983443527077,7.600000000000000));
#1471=DIRECTION('',(0.0,1.0,0.0));
#1472=VECTOR('',#1471,1.509966887054165);
#1473=LINE('',#1470,#1472);
#1474=EDGE_CURVE('',#1432,#1448,#1473,.T.);
#1475=ORIENTED_EDGE('',*,*,#1474,.T.);
#1476=CARTESIAN_POINT('',(0.499709374379768,5.440093E-015,4.800000000000002));
#1477=DIRECTION('',(-1.0,0.0,0.0));
#1478=DIRECTION('',(0.0,1.0,0.0));
#1479=AXIS2_PLACEMENT_3D('',#1476,#1477,#1478);
#1480=CIRCLE('',#1479,2.900000000000000);
#1481=EDGE_CURVE('',#1448,#1432,#1480,.F.);
#1482=ORIENTED_EDGE('',*,*,#1481,.T.);
#1483=EDGE_LOOP('',(#1475,#1482));
#1484=FACE_OUTER_BOUND('',#1483,.T.);
#1485=ADVANCED_FACE('',(#1484),#1469,.T.);
#1486=CARTESIAN_POINT('',(13.399709374379768,5.440093E-015,4.800000000000003));
#1487=DIRECTION('',(1.0,0.0,1.480297E-016));
#1488=DIRECTION('',(0.0,1.0,0.0));
#1489=AXIS2_PLACEMENT_3D('',#1486,#1487,#1488);
#1490=CYLINDRICAL_SURFACE('',#1489,2.900000000000000);
#1491=ORIENTED_EDGE('',*,*,#1223,.T.);
#1492=CARTESIAN_POINT('',(12.999709374379769,5.440093E-015,4.800000000000003));
#1493=DIRECTION('',(1.0,0.0,0.0));
#1494=DIRECTION('',(0.0,1.0,0.0));
#1495=AXIS2_PLACEMENT_3D('',#1492,#1493,#1494);
#1496=CIRCLE('',#1495,2.900000000000000);
#1497=EDGE_CURVE('',#1218,#1235,#1496,.T.);
#1498=ORIENTED_EDGE('',*,*,#1497,.T.);
#1499=ORIENTED_EDGE('',*,*,#1240,.F.);
#1500=ORIENTED_EDGE('',*,*,#1444,.F.);
#1501=ORIENTED_EDGE('',*,*,#1481,.F.);
#1502=ORIENTED_EDGE('',*,*,#1454,.F.);
#1503=EDGE_LOOP('',(#1491,#1498,#1499,#1500,#1501,#1502));
#1504=FACE_OUTER_BOUND('',#1503,.T.);
#1505=ADVANCED_FACE('',(#1504),#1490,.F.);
#1506=CARTESIAN_POINT('',(-0.500290625620232,-4.600000000000009,7.600000000000000));
#1507=DIRECTION('',(0.0,0.0,1.0));
#1508=DIRECTION('',(1.0,0.0,0.0));
#1509=AXIS2_PLACEMENT_3D('',#1506,#1507,#1508);
#1510=PLANE('',#1509);
#1511=CARTESIAN_POINT('',(-0.500290625620232,-4.600000000000009,7.600000000000000));
#1512=VERTEX_POINT('',#1511);
#1513=CARTESIAN_POINT('',(-0.500290625620233,-4.600000000000009,7.600000000000000));
#1514=DIRECTION('',(1.0,0.0,0.0));
#1515=VECTOR('',#1514,1.000000000000001);
#1516=LINE('',#1513,#1515);
#1517=EDGE_CURVE('',#1512,#1424,#1516,.T.);
#1518=ORIENTED_EDGE('',*,*,#1517,.F.);
#1519=CARTESIAN_POINT('',(-0.500290625620232,4.599999999999991,7.600000000000000));
#1520=VERTEX_POINT('',#1519);
#1521=CARTESIAN_POINT('',(-0.500290625620231,4.599999999999991,7.600000000000000));
#1522=DIRECTION('',(0.0,-1.0,0.0));
#1523=VECTOR('',#1522,9.199999999999999);
#1524=LINE('',#1521,#1523);
#1525=EDGE_CURVE('',#1520,#1512,#1524,.T.);
#1526=ORIENTED_EDGE('',*,*,#1525,.F.);
#1527=CARTESIAN_POINT('',(0.499709374379768,4.599999999999991,7.600000000000000));
#1528=DIRECTION('',(-1.0,0.0,0.0));
#1529=VECTOR('',#1528,1.0);
#1530=LINE('',#1527,#1529);
#1531=EDGE_CURVE('',#1394,#1520,#1530,.T.);
#1532=ORIENTED_EDGE('',*,*,#1531,.F.);
#1533=ORIENTED_EDGE('',*,*,#1460,.F.);
#1534=ORIENTED_EDGE('',*,*,#1474,.F.);
#1535=ORIENTED_EDGE('',*,*,#1437,.F.);
#1536=EDGE_LOOP('',(#1518,#1526,#1532,#1533,#1534,#1535));
#1537=FACE_OUTER_BOUND('',#1536,.T.);
#1538=ADVANCED_FACE('',(#1537),#1510,.F.);
#1539=CARTESIAN_POINT('',(12.999709374379769,-4.600000000000009,0.600000000000000));
#1540=DIRECTION('',(0.0,-1.0,0.0));
#1541=DIRECTION('',(0.0,0.0,-1.0));
#1542=AXIS2_PLACEMENT_3D('',#1539,#1540,#1541);
#1543=PLANE('',#1542);
#1544=CARTESIAN_POINT('',(12.999709374379769,-4.600000000000009,7.600000000000000));
#1545=VERTEX_POINT('',#1544);
#1546=CARTESIAN_POINT('',(0.499709374379769,-4.600000000000009,7.600000000000000));
#1547=DIRECTION('',(1.0,0.0,0.0));
#1548=VECTOR('',#1547,12.500000000000000);
#1549=LINE('',#1546,#1548);
#1550=EDGE_CURVE('',#1424,#1545,#1549,.T.);
#1551=ORIENTED_EDGE('',*,*,#1550,.F.);
#1552=ORIENTED_EDGE('',*,*,#1429,.T.);
#1553=ORIENTED_EDGE('',*,*,#1353,.T.);
#1554=ORIENTED_EDGE('',*,*,#1380,.F.);
#1555=ORIENTED_EDGE('',*,*,#1305,.F.);
#1556=CARTESIAN_POINT('',(12.999709374379769,-4.600000000000009,0.600000000000000));
#1557=DIRECTION('',(0.0,0.0,1.0));
#1558=VECTOR('',#1557,7.0);
#1559=LINE('',#1556,#1558);
#1560=EDGE_CURVE('',#1292,#1545,#1559,.T.);
#1561=ORIENTED_EDGE('',*,*,#1560,.T.);
#1562=EDGE_LOOP('',(#1551,#1552,#1553,#1554,#1555,#1561));
#1563=FACE_OUTER_BOUND('',#1562,.T.);
#1564=ADVANCED_FACE('',(#1563),#1543,.T.);
#1565=CARTESIAN_POINT('',(-0.500290625620231,4.599999999999991,0.600000000000000));
#1566=DIRECTION('',(0.0,1.0,0.0));
#1567=DIRECTION('',(0.0,0.0,1.0));
#1568=AXIS2_PLACEMENT_3D('',#1565,#1566,#1567);
#1569=PLANE('',#1568);
#1570=ORIENTED_EDGE('',*,*,#1531,.T.);
#1571=CARTESIAN_POINT('',(-0.500290625620231,4.599999999999991,8.600000000000000));
#1572=VERTEX_POINT('',#1571);
#1573=CARTESIAN_POINT('',(-0.500290625620231,4.599999999999991,7.600000000000000));
#1574=DIRECTION('',(0.0,0.0,1.0));
#1575=VECTOR('',#1574,1.0);
#1576=LINE('',#1573,#1575);
#1577=EDGE_CURVE('',#1520,#1572,#1576,.T.);
#1578=ORIENTED_EDGE('',*,*,#1577,.T.);
#1579=CARTESIAN_POINT('',(12.999709374379769,4.599999999999989,8.600000000000000));
#1580=VERTEX_POINT('',#1579);
#1581=CARTESIAN_POINT('',(-0.500290625620231,4.599999999999991,8.600000000000000));
#1582=DIRECTION('',(1.0,0.0,0.0));
#1583=VECTOR('',#1582,13.500000000000000);
#1584=LINE('',#1581,#1583);
#1585=EDGE_CURVE('',#1572,#1580,#1584,.T.);
#1586=ORIENTED_EDGE('',*,*,#1585,.T.);
#1587=CARTESIAN_POINT('',(12.999709374379769,4.599999999999989,0.600000000000000));
#1588=DIRECTION('',(0.0,0.0,1.0));
#1589=VECTOR('',#1588,8.0);
#1590=LINE('',#1587,#1589);
#1591=EDGE_CURVE('',#1284,#1580,#1590,.T.);
#1592=ORIENTED_EDGE('',*,*,#1591,.F.);
#1593=ORIENTED_EDGE('',*,*,#1289,.F.);
#1594=CARTESIAN_POINT('',(-0.500290625620230,4.599999999999991,1.600000000000000));
#1595=VERTEX_POINT('',#1594);
#1596=CARTESIAN_POINT('',(-0.500290625620231,4.599999999999991,0.600000000000000));
#1597=DIRECTION('',(0.0,0.0,1.0));
#1598=VECTOR('',#1597,1.000000000000000);
#1599=LINE('',#1596,#1598);
#1600=EDGE_CURVE('',#1276,#1595,#1599,.T.);
#1601=ORIENTED_EDGE('',*,*,#1600,.T.);
#1602=CARTESIAN_POINT('',(-0.500290625620230,4.599999999999991,1.600000000000000));
#1603=DIRECTION('',(1.0,0.0,0.0));
#1604=VECTOR('',#1603,1.0);
#1605=LINE('',#1602,#1604);
#1606=EDGE_CURVE('',#1595,#1392,#1605,.T.);
#1607=ORIENTED_EDGE('',*,*,#1606,.T.);
#1608=ORIENTED_EDGE('',*,*,#1399,.T.);
#1609=EDGE_LOOP('',(#1570,#1578,#1586,#1592,#1593,#1601,#1607,#1608));
#1610=FACE_OUTER_BOUND('',#1609,.T.);
#1611=ADVANCED_FACE('',(#1610),#1569,.T.);
#1612=CARTESIAN_POINT('',(-0.500290625620231,-4.600000000000009,0.600000000000000));
#1613=DIRECTION('',(-1.0,0.0,0.0));
#1614=DIRECTION('',(0.0,0.0,1.0));
#1615=AXIS2_PLACEMENT_3D('',#1612,#1613,#1614);
#1616=PLANE('',#1615);
#1617=CARTESIAN_POINT('',(-0.500290625620235,3.269999999999991,1.600000000000000));
#1618=VERTEX_POINT('',#1617);
#1619=CARTESIAN_POINT('',(-0.500290625620231,3.269999999999991,0.600000000000000));
#1620=DIRECTION('',(0.0,0.0,1.0));
#1621=VECTOR('',#1620,1.000000000000000);
#1622=LINE('',#1619,#1621);
#1623=EDGE_CURVE('',#1268,#1618,#1622,.T.);
#1624=ORIENTED_EDGE('',*,*,#1623,.T.);
#1625=CARTESIAN_POINT('',(-0.500290625620231,3.269999999999991,1.600000000000000));
#1626=DIRECTION('',(0.0,1.0,0.0));
#1627=VECTOR('',#1626,1.330000000000000);
#1628=LINE('',#1625,#1627);
#1629=EDGE_CURVE('',#1618,#1595,#1628,.T.);
#1630=ORIENTED_EDGE('',*,*,#1629,.T.);
#1631=ORIENTED_EDGE('',*,*,#1600,.F.);
#1632=ORIENTED_EDGE('',*,*,#1281,.F.);
#1633=EDGE_LOOP('',(#1624,#1630,#1631,#1632));
#1634=FACE_OUTER_BOUND('',#1633,.T.);
#1635=ADVANCED_FACE('',(#1634),#1616,.T.);
#1636=CARTESIAN_POINT('',(-0.500290625620230,4.599999999999991,1.600000000000000));
#1637=DIRECTION('',(0.0,0.0,-1.0));
#1638=DIRECTION('',(-1.0,0.0,0.0));
#1639=AXIS2_PLACEMENT_3D('',#1636,#1637,#1638);
#1640=PLANE('',#1639);
#1641=CARTESIAN_POINT('',(-0.500290625620235,3.269999999999991,1.600000000000000));
#1642=DIRECTION('',(1.0,0.0,0.0));
#1643=VECTOR('',#1642,1.000000000000001);
#1644=LINE('',#1641,#1643);
#1645=EDGE_CURVE('',#1618,#1402,#1644,.T.);
#1646=ORIENTED_EDGE('',*,*,#1645,.T.);
#1647=ORIENTED_EDGE('',*,*,#1407,.F.);
#1648=ORIENTED_EDGE('',*,*,#1606,.F.);
#1649=ORIENTED_EDGE('',*,*,#1629,.F.);
#1650=EDGE_LOOP('',(#1646,#1647,#1648,#1649));
#1651=FACE_OUTER_BOUND('',#1650,.T.);
#1652=ADVANCED_FACE('',(#1651),#1640,.F.);
#1653=CARTESIAN_POINT('',(-0.500290625620235,3.269999999999991,1.600000000000000));
#1654=DIRECTION('',(0.0,1.0,0.0));
#1655=DIRECTION('',(0.0,0.0,1.0));
#1656=AXIS2_PLACEMENT_3D('',#1653,#1654,#1655);
#1657=PLANE('',#1656);
#1658=ORIENTED_EDGE('',*,*,#1413,.F.);
#1659=ORIENTED_EDGE('',*,*,#1645,.F.);
#1660=ORIENTED_EDGE('',*,*,#1623,.F.);
#1661=ORIENTED_EDGE('',*,*,#1273,.F.);
#1662=EDGE_LOOP('',(#1658,#1659,#1660,#1661));
#1663=FACE_OUTER_BOUND('',#1662,.T.);
#1664=ADVANCED_FACE('',(#1663),#1657,.F.);
#1665=CARTESIAN_POINT('',(12.999709374379769,4.599999999999989,0.600000000000000));
#1666=DIRECTION('',(1.0,0.0,0.0));
#1667=DIRECTION('',(0.0,0.0,-1.0));
#1668=AXIS2_PLACEMENT_3D('',#1665,#1666,#1667);
#1669=PLANE('',#1668);
#1670=CARTESIAN_POINT('',(12.999709374379769,-3.600000000000009,8.600000000000000));
#1671=VERTEX_POINT('',#1670);
#1672=CARTESIAN_POINT('',(12.999709374379769,-4.600000000000009,7.599999999999999));
#1673=DIRECTION('',(0.0,0.707106781186547,0.707106781186548));
#1674=VECTOR('',#1673,1.414213562373096);
#1675=LINE('',#1672,#1674);
#1676=EDGE_CURVE('',#1545,#1671,#1675,.T.);
#1677=ORIENTED_EDGE('',*,*,#1676,.F.);
#1678=ORIENTED_EDGE('',*,*,#1560,.F.);
#1679=ORIENTED_EDGE('',*,*,#1297,.F.);
#1680=ORIENTED_EDGE('',*,*,#1591,.T.);
#1681=CARTESIAN_POINT('',(12.999709374379769,4.599999999999989,8.600000000000000));
#1682=DIRECTION('',(0.0,-1.0,0.0));
#1683=VECTOR('',#1682,8.199999999999998);
#1684=LINE('',#1681,#1683);
#1685=EDGE_CURVE('',#1580,#1671,#1684,.T.);
#1686=ORIENTED_EDGE('',*,*,#1685,.T.);
#1687=EDGE_LOOP('',(#1677,#1678,#1679,#1680,#1686));
#1688=FACE_OUTER_BOUND('',#1687,.T.);
#1689=ORIENTED_EDGE('',*,*,#1247,.F.);
#1690=ORIENTED_EDGE('',*,*,#1497,.F.);
#1691=EDGE_LOOP('',(#1689,#1690));
#1692=FACE_BOUND('',#1691,.T.);
#1693=ADVANCED_FACE('',(#1688,#1692),#1669,.T.);
#1694=CARTESIAN_POINT('',(9.624709374379769,-4.100000000000009,8.100000000000000));
#1695=DIRECTION('',(2.146417E-050,-0.707106781186548,0.707106781186548));
#1696=DIRECTION('',(1.0,0.0,0.0));
#1697=AXIS2_PLACEMENT_3D('',#1694,#1695,#1696);
#1698=PLANE('',#1697);
#1699=CARTESIAN_POINT('',(-0.500290625620231,-3.600000000000009,8.600000000000000));
#1700=VERTEX_POINT('',#1699);
#1701=CARTESIAN_POINT('',(-0.500290625620231,-3.600000000000008,8.600000000000000));
#1702=DIRECTION('',(0.0,-0.707106781186548,-0.707106781186547));
#1703=VECTOR('',#1702,1.414213562373095);
#1704=LINE('',#1701,#1703);
#1705=EDGE_CURVE('',#1700,#1512,#1704,.T.);
#1706=ORIENTED_EDGE('',*,*,#1705,.T.);
#1707=ORIENTED_EDGE('',*,*,#1517,.T.);
#1708=ORIENTED_EDGE('',*,*,#1550,.T.);
#1709=ORIENTED_EDGE('',*,*,#1676,.T.);
#1710=CARTESIAN_POINT('',(12.999709374379769,-3.600000000000009,8.600000000000000));
#1711=DIRECTION('',(-1.0,0.0,0.0));
#1712=VECTOR('',#1711,13.500000000000000);
#1713=LINE('',#1710,#1712);
#1714=EDGE_CURVE('',#1671,#1700,#1713,.T.);
#1715=ORIENTED_EDGE('',*,*,#1714,.T.);
#1716=EDGE_LOOP('',(#1706,#1707,#1708,#1709,#1715));
#1717=FACE_OUTER_BOUND('',#1716,.T.);
#1718=ADVANCED_FACE('',(#1717),#1698,.T.);
#1719=CARTESIAN_POINT('',(-0.500290625620231,-4.600000000000009,0.600000000000000));
#1720=DIRECTION('',(-1.0,0.0,0.0));
#1721=DIRECTION('',(0.0,0.0,1.0));
#1722=AXIS2_PLACEMENT_3D('',#1719,#1720,#1721);
#1723=PLANE('',#1722);
#1724=ORIENTED_EDGE('',*,*,#1705,.F.);
#1725=CARTESIAN_POINT('',(-0.500290625620231,-3.600000000000008,8.600000000000000));
#1726=DIRECTION('',(0.0,1.0,0.0));
#1727=VECTOR('',#1726,8.199999999999999);
#1728=LINE('',#1725,#1727);
#1729=EDGE_CURVE('',#1700,#1572,#1728,.T.);
#1730=ORIENTED_EDGE('',*,*,#1729,.T.);
#1731=ORIENTED_EDGE('',*,*,#1577,.F.);
#1732=ORIENTED_EDGE('',*,*,#1525,.T.);
#1733=EDGE_LOOP('',(#1724,#1730,#1731,#1732));
#1734=FACE_OUTER_BOUND('',#1733,.T.);
#1735=ADVANCED_FACE('',(#1734),#1723,.T.);
#1736=CARTESIAN_POINT('',(6.249709374379769,-9.933584E-015,8.600000000000000));
#1737=DIRECTION('',(0.0,0.0,1.0));
#1738=DIRECTION('',(1.0,0.0,0.0));
#1739=AXIS2_PLACEMENT_3D('',#1736,#1737,#1738);
#1740=PLANE('',#1739);
#1741=ORIENTED_EDGE('',*,*,#1714,.F.);
#1742=ORIENTED_EDGE('',*,*,#1685,.F.);
#1743=ORIENTED_EDGE('',*,*,#1585,.F.);
#1744=ORIENTED_EDGE('',*,*,#1729,.F.);
#1745=EDGE_LOOP('',(#1741,#1742,#1743,#1744));
#1746=FACE_OUTER_BOUND('',#1745,.T.);
#1747=ADVANCED_FACE('',(#1746),#1740,.T.);
#1748=CARTESIAN_POINT('',(-0.500290625620226,-3.270000000000009,0.600000000000000));
#1749=DIRECTION('',(0.0,-1.0,0.0));
#1750=DIRECTION('',(0.0,0.0,-1.0));
#1751=AXIS2_PLACEMENT_3D('',#1748,#1749,#1750);
#1752=PLANE('',#1751);
#1753=ORIENTED_EDGE('',*,*,#1420,.F.);
#1754=ORIENTED_EDGE('',*,*,#1319,.F.);
#1755=ORIENTED_EDGE('',*,*,#1373,.F.);
#1756=ORIENTED_EDGE('',*,*,#1337,.F.);
#1757=EDGE_LOOP('',(#1753,#1754,#1755,#1756));
#1758=FACE_OUTER_BOUND('',#1757,.T.);
#1759=ADVANCED_FACE('',(#1758),#1752,.F.);
#1760=CLOSED_SHELL('',(#1251,#1323,#1363,#1385,#1464,#1485,#1505,#1538,#1564,#1611,#1635,#1652,#1664,#1693,#1718,#1735,#1747,#1759));
#1761=MANIFOLD_SOLID_BREP('969',#1760);
#1762=STYLED_ITEM('NONE',(#221),#1761);
#1763=ADVANCED_BREP_SHAPE_REPRESENTATION('ABSR1',(#214,#374,#667,#756,#845,#934,#1030,#1119,#1208,#1761),#28);
#1764=SHAPE_REPRESENTATION_RELATIONSHIP('SRRPL1','',#1763,#62);
ENDSEC;
END-ISO-10303-21;
