ISO-10303-21;
HEADER;
/* Generated by software containing ST-Developer
 * from STEP Tools, Inc. (www.steptools.com) 
 */

FILE_DESCRIPTION(
/* description */ (''),
/* implementation_level */ '2;1');

FILE_NAME(
/* name */ 
'G:\\Applications\\Altium\\CernLib\\StepLib\\SKS-HIRSCHMANN_930 103-10
0_Part3.stp',
/* time_stamp */ '2015-05-27T15:17:45+02:00',
/* author */ ('admchouv'),
/* organization */ (''),
/* preprocessor_version */ 'ST-DEVELOPER v15.5',
/* originating_system */ 'AutoCAD Mechanical',
/* authorisation */ '');

FILE_SCHEMA (('AUTOMOTIVE_DESIGN { 1 0 10303 214 3 1 1 }'));
ENDSEC;

DATA;
#10=MECHANICAL_DESIGN_GEOMETRIC_PRESENTATION_REPRESENTATION('',(#17),#355);
#11=DIMENSIONAL_EXPONENTS(0.,0.,0.,0.,0.,0.,0.);
#12=(
CONVERSION_BASED_UNIT('degree',#13)
NAMED_UNIT(#11)
PLANE_ANGLE_UNIT()
);
#13=PLANE_ANGLE_MEASURE_WITH_UNIT(PLANE_ANGLE_MEASURE(0.01745329252),#358);
#14=PRESENTATION_LAYER_ASSIGNMENT('3D','',(#205));
#15=SHAPE_REPRESENTATION_RELATIONSHIP('SRR','None',#361,#16);
#16=ADVANCED_BREP_SHAPE_REPRESENTATION($,(#205),#354);
#17=STYLED_ITEM($,(#371),#205);
#18=CYLINDRICAL_SURFACE($,#225,1.621);
#19=CONICAL_SURFACE($,#215,3.10542740578362,1.0471975511966);
#20=CONICAL_SURFACE($,#217,1.60205,0.785398163397448);
#21=CONICAL_SURFACE($,#222,3.10542740578363,1.0471975511966);
#22=CONICAL_SURFACE($,#223,1.60205,0.785398163397448);
#23=(
BOUNDED_CURVE()
B_SPLINE_CURVE(2,(#288,#289,#290),.UNSPECIFIED.,.F.,.F.)
B_SPLINE_CURVE_WITH_KNOTS((3,3),(4.84952274286573,11.7221936679987),
 .UNSPECIFIED.)
CURVE()
GEOMETRIC_REPRESENTATION_ITEM()
RATIONAL_B_SPLINE_CURVE((1.59330396568679,1.83978894698058,1.59330396568679))
REPRESENTATION_ITEM($)
);
#24=(
BOUNDED_CURVE()
B_SPLINE_CURVE(2,(#293,#294,#295),.UNSPECIFIED.,.F.,.F.)
B_SPLINE_CURVE_WITH_KNOTS((3,3),(-12.441948236905,-5.27828719513463),
 .UNSPECIFIED.)
CURVE()
GEOMETRIC_REPRESENTATION_ITEM()
RATIONAL_B_SPLINE_CURVE((1.65547416375828,1.91157690816521,1.65547416375828))
REPRESENTATION_ITEM($)
);
#25=(
BOUNDED_CURVE()
B_SPLINE_CURVE(2,(#300,#301,#302),.UNSPECIFIED.,.F.,.F.)
B_SPLINE_CURVE_WITH_KNOTS((3,3),(4.8498161383608,11.7226851939958),
 .UNSPECIFIED.)
CURVE()
GEOMETRIC_REPRESENTATION_ITEM()
RATIONAL_B_SPLINE_CURVE((1.59334629107701,1.83983782013145,1.59334629107701))
REPRESENTATION_ITEM($)
);
#26=(
BOUNDED_CURVE()
B_SPLINE_CURVE(2,(#303,#304,#305),.UNSPECIFIED.,.F.,.F.)
B_SPLINE_CURVE_WITH_KNOTS((3,3),(5.27828719513462,12.441948236905),
 .UNSPECIFIED.)
CURVE()
GEOMETRIC_REPRESENTATION_ITEM()
RATIONAL_B_SPLINE_CURVE((1.65547416375828,1.9115769081652,1.65547416375828))
REPRESENTATION_ITEM($)
);
#27=(
BOUNDED_CURVE()
B_SPLINE_CURVE(2,(#308,#309,#310),.UNSPECIFIED.,.F.,.F.)
B_SPLINE_CURVE_WITH_KNOTS((3,3),(-11.7226851939958,-4.84981613836079),
 .UNSPECIFIED.)
CURVE()
GEOMETRIC_REPRESENTATION_ITEM()
RATIONAL_B_SPLINE_CURVE((1.59334629107701,1.83983782013145,1.59334629107701))
REPRESENTATION_ITEM($)
);
#28=(
BOUNDED_CURVE()
B_SPLINE_CURVE(2,(#312,#313,#314),.UNSPECIFIED.,.F.,.F.)
B_SPLINE_CURVE_WITH_KNOTS((3,3),(-11.7226851939958,-4.84981613836079),
 .UNSPECIFIED.)
CURVE()
GEOMETRIC_REPRESENTATION_ITEM()
RATIONAL_B_SPLINE_CURVE((1.59334629107701,1.83983782013145,1.59334629107701))
REPRESENTATION_ITEM($)
);
#29=(
BOUNDED_CURVE()
B_SPLINE_CURVE(2,(#316,#317,#318),.UNSPECIFIED.,.F.,.F.)
B_SPLINE_CURVE_WITH_KNOTS((3,3),(-11.7226851939958,-4.84981613836079),
 .UNSPECIFIED.)
CURVE()
GEOMETRIC_REPRESENTATION_ITEM()
RATIONAL_B_SPLINE_CURVE((1.59334629107701,1.83983782013145,1.59334629107701))
REPRESENTATION_ITEM($)
);
#30=(
BOUNDED_CURVE()
B_SPLINE_CURVE(2,(#319,#320,#321),.UNSPECIFIED.,.F.,.F.)
B_SPLINE_CURVE_WITH_KNOTS((3,3),(-11.7221936679987,-4.84952274286573),
 .UNSPECIFIED.)
CURVE()
GEOMETRIC_REPRESENTATION_ITEM()
RATIONAL_B_SPLINE_CURVE((1.59330396568679,1.83978894698058,1.59330396568679))
REPRESENTATION_ITEM($)
);
#31=(
BOUNDED_CURVE()
B_SPLINE_CURVE(2,(#325,#326,#327),.UNSPECIFIED.,.F.,.F.)
B_SPLINE_CURVE_WITH_KNOTS((3,3),(5.27828719513462,12.441948236905),
 .UNSPECIFIED.)
CURVE()
GEOMETRIC_REPRESENTATION_ITEM()
RATIONAL_B_SPLINE_CURVE((1.65547416375828,1.9115769081652,1.65547416375828))
REPRESENTATION_ITEM($)
);
#32=(
BOUNDED_CURVE()
B_SPLINE_CURVE(2,(#333,#334,#335),.UNSPECIFIED.,.F.,.F.)
B_SPLINE_CURVE_WITH_KNOTS((3,3),(5.27828719513462,12.441948236905),
 .UNSPECIFIED.)
CURVE()
GEOMETRIC_REPRESENTATION_ITEM()
RATIONAL_B_SPLINE_CURVE((1.65547416375828,1.9115769081652,1.65547416375828))
REPRESENTATION_ITEM($)
);
#33=(
BOUNDED_CURVE()
B_SPLINE_CURVE(2,(#339,#340,#341),.UNSPECIFIED.,.F.,.F.)
B_SPLINE_CURVE_WITH_KNOTS((3,3),(5.27828719513462,12.4419482369051),
 .UNSPECIFIED.)
CURVE()
GEOMETRIC_REPRESENTATION_ITEM()
RATIONAL_B_SPLINE_CURVE((1.65547416375828,1.9115769081652,1.65547416375828))
REPRESENTATION_ITEM($)
);
#34=(
BOUNDED_CURVE()
B_SPLINE_CURVE(2,(#344,#345,#346),.UNSPECIFIED.,.F.,.F.)
B_SPLINE_CURVE_WITH_KNOTS((3,3),(-12.441948236905,-5.27828719513463),
 .UNSPECIFIED.)
CURVE()
GEOMETRIC_REPRESENTATION_ITEM()
RATIONAL_B_SPLINE_CURVE((1.65547416375828,1.9115769081652,1.65547416375828))
REPRESENTATION_ITEM($)
);
#35=LINE($,#286,#41);
#36=LINE($,#292,#42);
#37=LINE($,#299,#43);
#38=LINE($,#324,#44);
#39=LINE($,#336,#45);
#40=LINE($,#342,#46);
#41=VECTOR($,#242,2.17064002922798);
#42=VECTOR($,#243,2.17064002922798);
#43=VECTOR($,#246,2.17064002922798);
#44=VECTOR($,#251,2.17064002922798);
#45=VECTOR($,#258,2.17064002922798);
#46=VECTOR($,#261,2.17064002922798);
#47=FACE_BOUND($,#68,.T.);
#48=FACE_BOUND($,#70,.T.);
#49=FACE_BOUND($,#74,.T.);
#50=FACE_BOUND($,#77,.T.);
#51=FACE_BOUND($,#82,.T.);
#52=FACE_BOUND($,#84,.T.);
#53=FACE_BOUND($,#86,.T.);
#54=FACE_OUTER_BOUND($,#67,.T.);
#55=FACE_OUTER_BOUND($,#69,.T.);
#56=FACE_OUTER_BOUND($,#71,.T.);
#57=FACE_OUTER_BOUND($,#72,.T.);
#58=FACE_OUTER_BOUND($,#73,.T.);
#59=FACE_OUTER_BOUND($,#75,.T.);
#60=FACE_OUTER_BOUND($,#76,.T.);
#61=FACE_OUTER_BOUND($,#78,.T.);
#62=FACE_OUTER_BOUND($,#79,.T.);
#63=FACE_OUTER_BOUND($,#80,.T.);
#64=FACE_OUTER_BOUND($,#81,.T.);
#65=FACE_OUTER_BOUND($,#83,.T.);
#66=FACE_OUTER_BOUND($,#85,.T.);
#67=EDGE_LOOP($,(#135));
#68=EDGE_LOOP($,(#136));
#69=EDGE_LOOP($,(#137));
#70=EDGE_LOOP($,(#138));
#71=EDGE_LOOP($,(#139,#140,#141,#142));
#72=EDGE_LOOP($,(#143,#144,#145,#146));
#73=EDGE_LOOP($,(#147,#148,#149,#150,#151,#152));
#74=EDGE_LOOP($,(#153));
#75=EDGE_LOOP($,(#154,#155,#156,#157));
#76=EDGE_LOOP($,(#158));
#77=EDGE_LOOP($,(#159));
#78=EDGE_LOOP($,(#160,#161,#162,#163));
#79=EDGE_LOOP($,(#164,#165,#166,#167));
#80=EDGE_LOOP($,(#168,#169,#170,#171));
#81=EDGE_LOOP($,(#172,#173,#174,#175,#176,#177));
#82=EDGE_LOOP($,(#178));
#83=EDGE_LOOP($,(#179));
#84=EDGE_LOOP($,(#180));
#85=EDGE_LOOP($,(#181));
#86=EDGE_LOOP($,(#182));
#87=CIRCLE($,#208,3.15);
#88=CIRCLE($,#209,2.);
#89=CIRCLE($,#211,3.15);
#90=CIRCLE($,#212,2.);
#91=CIRCLE($,#218,1.621);
#92=CIRCLE($,#224,1.621);
#93=VERTEX_POINT($,#274);
#94=VERTEX_POINT($,#276);
#95=VERTEX_POINT($,#279);
#96=VERTEX_POINT($,#281);
#97=VERTEX_POINT($,#284);
#98=VERTEX_POINT($,#285);
#99=VERTEX_POINT($,#287);
#100=VERTEX_POINT($,#291);
#101=VERTEX_POINT($,#297);
#102=VERTEX_POINT($,#298);
#103=VERTEX_POINT($,#307);
#104=VERTEX_POINT($,#311);
#105=VERTEX_POINT($,#315);
#106=VERTEX_POINT($,#323);
#107=VERTEX_POINT($,#329);
#108=VERTEX_POINT($,#332);
#109=VERTEX_POINT($,#338);
#110=VERTEX_POINT($,#349);
#111=EDGE_CURVE($,#93,#93,#87,.T.);
#112=EDGE_CURVE($,#94,#94,#88,.T.);
#113=EDGE_CURVE($,#95,#95,#89,.T.);
#114=EDGE_CURVE($,#96,#96,#90,.T.);
#115=EDGE_CURVE($,#97,#98,#35,.T.);
#116=EDGE_CURVE($,#99,#98,#23,.T.);
#117=EDGE_CURVE($,#100,#99,#36,.T.);
#118=EDGE_CURVE($,#97,#100,#24,.F.);
#119=EDGE_CURVE($,#101,#102,#37,.T.);
#120=EDGE_CURVE($,#98,#102,#25,.T.);
#121=EDGE_CURVE($,#101,#97,#26,.T.);
#122=EDGE_CURVE($,#103,#101,#27,.T.);
#123=EDGE_CURVE($,#100,#104,#28,.T.);
#124=EDGE_CURVE($,#104,#105,#29,.T.);
#125=EDGE_CURVE($,#105,#103,#30,.T.);
#126=EDGE_CURVE($,#103,#106,#38,.T.);
#127=EDGE_CURVE($,#102,#106,#31,.T.);
#128=EDGE_CURVE($,#107,#107,#91,.T.);
#129=EDGE_CURVE($,#108,#99,#32,.T.);
#130=EDGE_CURVE($,#104,#108,#39,.T.);
#131=EDGE_CURVE($,#109,#108,#33,.T.);
#132=EDGE_CURVE($,#105,#109,#40,.T.);
#133=EDGE_CURVE($,#106,#109,#34,.F.);
#134=EDGE_CURVE($,#110,#110,#92,.T.);
#135=ORIENTED_EDGE($,*,*,#111,.T.);
#136=ORIENTED_EDGE($,*,*,#112,.F.);
#137=ORIENTED_EDGE($,*,*,#113,.F.);
#138=ORIENTED_EDGE($,*,*,#114,.T.);
#139=ORIENTED_EDGE($,*,*,#115,.T.);
#140=ORIENTED_EDGE($,*,*,#116,.F.);
#141=ORIENTED_EDGE($,*,*,#117,.F.);
#142=ORIENTED_EDGE($,*,*,#118,.F.);
#143=ORIENTED_EDGE($,*,*,#119,.T.);
#144=ORIENTED_EDGE($,*,*,#120,.F.);
#145=ORIENTED_EDGE($,*,*,#115,.F.);
#146=ORIENTED_EDGE($,*,*,#121,.F.);
#147=ORIENTED_EDGE($,*,*,#122,.T.);
#148=ORIENTED_EDGE($,*,*,#121,.T.);
#149=ORIENTED_EDGE($,*,*,#118,.T.);
#150=ORIENTED_EDGE($,*,*,#123,.T.);
#151=ORIENTED_EDGE($,*,*,#124,.T.);
#152=ORIENTED_EDGE($,*,*,#125,.T.);
#153=ORIENTED_EDGE($,*,*,#111,.F.);
#154=ORIENTED_EDGE($,*,*,#126,.T.);
#155=ORIENTED_EDGE($,*,*,#127,.F.);
#156=ORIENTED_EDGE($,*,*,#119,.F.);
#157=ORIENTED_EDGE($,*,*,#122,.F.);
#158=ORIENTED_EDGE($,*,*,#112,.T.);
#159=ORIENTED_EDGE($,*,*,#128,.F.);
#160=ORIENTED_EDGE($,*,*,#117,.T.);
#161=ORIENTED_EDGE($,*,*,#129,.F.);
#162=ORIENTED_EDGE($,*,*,#130,.F.);
#163=ORIENTED_EDGE($,*,*,#123,.F.);
#164=ORIENTED_EDGE($,*,*,#130,.T.);
#165=ORIENTED_EDGE($,*,*,#131,.F.);
#166=ORIENTED_EDGE($,*,*,#132,.F.);
#167=ORIENTED_EDGE($,*,*,#124,.F.);
#168=ORIENTED_EDGE($,*,*,#132,.T.);
#169=ORIENTED_EDGE($,*,*,#133,.F.);
#170=ORIENTED_EDGE($,*,*,#126,.F.);
#171=ORIENTED_EDGE($,*,*,#125,.F.);
#172=ORIENTED_EDGE($,*,*,#120,.T.);
#173=ORIENTED_EDGE($,*,*,#127,.T.);
#174=ORIENTED_EDGE($,*,*,#133,.T.);
#175=ORIENTED_EDGE($,*,*,#131,.T.);
#176=ORIENTED_EDGE($,*,*,#129,.T.);
#177=ORIENTED_EDGE($,*,*,#116,.T.);
#178=ORIENTED_EDGE($,*,*,#113,.T.);
#179=ORIENTED_EDGE($,*,*,#114,.F.);
#180=ORIENTED_EDGE($,*,*,#134,.T.);
#181=ORIENTED_EDGE($,*,*,#128,.T.);
#182=ORIENTED_EDGE($,*,*,#134,.F.);
#183=PLANE($,#207);
#184=PLANE($,#210);
#185=PLANE($,#213);
#186=PLANE($,#214);
#187=PLANE($,#216);
#188=PLANE($,#219);
#189=PLANE($,#220);
#190=PLANE($,#221);
#191=ADVANCED_FACE($,(#54,#47),#183,.F.);
#192=ADVANCED_FACE($,(#55,#48),#184,.F.);
#193=ADVANCED_FACE($,(#56),#185,.F.);
#194=ADVANCED_FACE($,(#57),#186,.F.);
#195=ADVANCED_FACE($,(#58,#49),#19,.T.);
#196=ADVANCED_FACE($,(#59),#187,.F.);
#197=ADVANCED_FACE($,(#60,#50),#20,.F.);
#198=ADVANCED_FACE($,(#61),#188,.F.);
#199=ADVANCED_FACE($,(#62),#189,.F.);
#200=ADVANCED_FACE($,(#63),#190,.F.);
#201=ADVANCED_FACE($,(#64,#51),#21,.T.);
#202=ADVANCED_FACE($,(#65,#52),#22,.F.);
#203=ADVANCED_FACE($,(#66,#53),#18,.F.);
#204=CLOSED_SHELL($,(#191,#192,#193,#194,#195,#196,#197,#198,#199,#200,
#201,#202,#203));
#205=MANIFOLD_SOLID_BREP('B74',#204);
#206=AXIS2_PLACEMENT_3D('placement',#272,#226,#227);
#207=AXIS2_PLACEMENT_3D($,#273,#228,#229);
#208=AXIS2_PLACEMENT_3D($,#275,#230,#231);
#209=AXIS2_PLACEMENT_3D($,#277,#232,#233);
#210=AXIS2_PLACEMENT_3D($,#278,#234,#235);
#211=AXIS2_PLACEMENT_3D($,#280,#236,#237);
#212=AXIS2_PLACEMENT_3D($,#282,#238,#239);
#213=AXIS2_PLACEMENT_3D($,#283,#240,#241);
#214=AXIS2_PLACEMENT_3D($,#296,#244,#245);
#215=AXIS2_PLACEMENT_3D($,#306,#247,#248);
#216=AXIS2_PLACEMENT_3D($,#322,#249,#250);
#217=AXIS2_PLACEMENT_3D($,#328,#252,#253);
#218=AXIS2_PLACEMENT_3D($,#330,#254,#255);
#219=AXIS2_PLACEMENT_3D($,#331,#256,#257);
#220=AXIS2_PLACEMENT_3D($,#337,#259,#260);
#221=AXIS2_PLACEMENT_3D($,#343,#262,#263);
#222=AXIS2_PLACEMENT_3D($,#347,#264,#265);
#223=AXIS2_PLACEMENT_3D($,#348,#266,#267);
#224=AXIS2_PLACEMENT_3D($,#350,#268,#269);
#225=AXIS2_PLACEMENT_3D($,#351,#270,#271);
#226=DIRECTION('axis',(0.,0.,1.));
#227=DIRECTION('refdir',(1.,0.,0.));
#228=DIRECTION('center_axis',(-6.12323399573676E-17,-3.82856869892695E-16,
-1.));
#229=DIRECTION('ref_axis',(-1.,-4.44089209850063E-16,0.));
#230=DIRECTION('center_axis',(6.12323399573676E-17,3.82856869892695E-16,
1.));
#231=DIRECTION('ref_axis',(1.,2.22044604925031E-16,-6.12323399573677E-17));
#232=DIRECTION('center_axis',(6.12323399573676E-17,3.82856869892695E-16,
1.));
#233=DIRECTION('ref_axis',(1.,2.22044604925031E-16,-6.12323399573677E-17));
#234=DIRECTION('center_axis',(6.12323399573676E-17,3.82856869892695E-16,
1.));
#235=DIRECTION('ref_axis',(1.,0.,0.));
#236=DIRECTION('center_axis',(6.12323399573676E-17,3.82856869892695E-16,
1.));
#237=DIRECTION('ref_axis',(1.,2.22044604925031E-16,-6.12323399573677E-17));
#238=DIRECTION('center_axis',(6.12323399573676E-17,3.82856869892695E-16,
1.));
#239=DIRECTION('ref_axis',(1.,2.22044604925031E-16,-6.12323399573677E-17));
#240=DIRECTION('center_axis',(1.,2.22044604925031E-16,-6.12323399573677E-17));
#241=DIRECTION('ref_axis',(0.,-4.44089209850063E-16,-1.));
#242=DIRECTION($,(-6.12323399573676E-17,-3.82856869892695E-16,-1.));
#243=DIRECTION($,(-6.12323399573676E-17,-3.82856869892695E-16,-1.));
#244=DIRECTION('center_axis',(0.5,-0.866025403784439,3.00947605361784E-16));
#245=DIRECTION('ref_axis',(0.866025403784439,0.5,0.));
#246=DIRECTION($,(-6.12323399573676E-17,-3.82856869892695E-16,-1.));
#247=DIRECTION('center_axis',(-6.12323399573676E-17,-3.82856869892695E-16,
-1.));
#248=DIRECTION('ref_axis',(-1.,-2.22044604925031E-16,6.12323399573677E-17));
#249=DIRECTION('center_axis',(-0.5,-0.866025403784439,3.62179945319151E-16));
#250=DIRECTION('ref_axis',(0.866025403784439,-0.5,0.));
#251=DIRECTION($,(-6.12323399573676E-17,-3.82856869892695E-16,-1.));
#252=DIRECTION('center_axis',(6.12323399573676E-17,3.82856869892695E-16,
1.));
#253=DIRECTION('ref_axis',(1.,2.22044604925031E-16,-6.12323399573677E-17));
#254=DIRECTION('center_axis',(6.12323399573676E-17,3.82856869892695E-16,
1.));
#255=DIRECTION('ref_axis',(1.,2.22044604925031E-16,-6.12323399573677E-17));
#256=DIRECTION('center_axis',(0.5,0.866025403784439,-3.62179945319151E-16));
#257=DIRECTION('ref_axis',(-0.866025403784439,0.5,0.));
#258=DIRECTION($,(-6.12323399573676E-17,-3.82856869892695E-16,-1.));
#259=DIRECTION('center_axis',(-0.5,0.866025403784439,-3.00947605361784E-16));
#260=DIRECTION('ref_axis',(-0.866025403784439,-0.5,0.));
#261=DIRECTION($,(-6.12323399573676E-17,-3.82856869892695E-16,-1.));
#262=DIRECTION('center_axis',(-1.,-2.22044604925031E-16,6.12323399573677E-17));
#263=DIRECTION('ref_axis',(0.,4.44089209850063E-16,1.));
#264=DIRECTION('center_axis',(6.12323399573676E-17,3.82856869892695E-16,
1.));
#265=DIRECTION('ref_axis',(1.,2.22044604925031E-16,-6.12323399573677E-17));
#266=DIRECTION('center_axis',(-6.12323399573676E-17,-3.82856869892695E-16,
-1.));
#267=DIRECTION('ref_axis',(-1.,-2.22044604925031E-16,6.12323399573677E-17));
#268=DIRECTION('center_axis',(6.12323399573676E-17,3.82856869892695E-16,
1.));
#269=DIRECTION('ref_axis',(1.,2.22044604925031E-16,-6.12323399573677E-17));
#270=DIRECTION('center_axis',(-6.12323399573676E-17,-3.82856869892695E-16,
-1.));
#271=DIRECTION('ref_axis',(1.,2.22044604925031E-16,-6.12323399573677E-17));
#272=CARTESIAN_POINT('',(0.,0.,0.));
#273=CARTESIAN_POINT('Origin',(3.465,-3.465,-7.1));
#274=CARTESIAN_POINT('',(3.15,-3.17016337778455E-16,-7.1));
#275=CARTESIAN_POINT('Origin',(0.,-1.0164568432923E-15,-7.1));
#276=CARTESIAN_POINT('',(2.,-5.7236763344224E-16,-7.1));
#277=CARTESIAN_POINT('Origin',(0.,-1.0164568432923E-15,-7.1));
#278=CARTESIAN_POINT('Origin',(-3.465,-3.465,-10.3));
#279=CARTESIAN_POINT('',(3.15,-1.54215832143508E-15,-10.3));
#280=CARTESIAN_POINT('Origin',(-1.95943487863576E-16,-2.24159882694893E-15,
-10.3));
#281=CARTESIAN_POINT('',(2.,-1.79750961709886E-15,-10.3));
#282=CARTESIAN_POINT('Origin',(-1.95943487863576E-16,-2.24159882694893E-15,
-10.3));
#283=CARTESIAN_POINT('Origin',(-3.5,-2.22279853638007,-7.16227988522869));
#284=CARTESIAN_POINT('',(-3.5,2.02072594216369,-7.61467998538601));
#285=CARTESIAN_POINT('',(-3.5,2.02072594216369,-9.78532001461399));
#286=CARTESIAN_POINT($,(-3.5,2.02072594216369,-7.61467998538601));
#287=CARTESIAN_POINT('',(-3.5,-2.02072594216369,-9.78532001461398));
#288=CARTESIAN_POINT('Ctrl Pts',(-3.5,-2.02072594216478,-9.78532001461367));
#289=CARTESIAN_POINT('Ctrl Pts',(-3.5,-3.99680288865056E-15,-10.3686533479476));
#290=CARTESIAN_POINT('Ctrl Pts',(-3.5,2.02072594216477,-9.78532001461368));
#291=CARTESIAN_POINT('',(-3.5,-2.02072594216369,-7.61467998538601));
#292=CARTESIAN_POINT($,(-3.5,-2.02072594216369,-7.61467998538601));
#293=CARTESIAN_POINT('Ctrl Pts',(-3.5,-2.02072594216614,-7.61467998538672));
#294=CARTESIAN_POINT('Ctrl Pts',(-3.5,-1.11022302462516E-16,-7.03134665205215));
#295=CARTESIAN_POINT('Ctrl Pts',(-3.5,2.02072594216614,-7.61467998538672));
#296=CARTESIAN_POINT('Origin',(-3.67500000000013,1.91968964505543,-10.2377187952005));
#297=CARTESIAN_POINT('',(-9.28897646813406E-16,4.04145188432738,-7.61467998538601));
#298=CARTESIAN_POINT('',(-1.06181101500816E-15,4.04145188432738,-9.78532001461399));
#299=CARTESIAN_POINT($,(-9.28897646813406E-16,4.04145188432738,-7.61467998538601));
#300=CARTESIAN_POINT('Ctrl Pts',(-3.50000000000094,2.02072594216314,-9.78532001461367));
#301=CARTESIAN_POINT('Ctrl Pts',(-1.75,3.03108891324553,-10.3686533479476));
#302=CARTESIAN_POINT('Ctrl Pts',(9.38432767527555E-13,4.04145188432792,
-9.78532001461368));
#303=CARTESIAN_POINT('Ctrl Pts',(2.11867793299366E-12,4.0414518843286,-7.61467998538672));
#304=CARTESIAN_POINT('Ctrl Pts',(-1.75,3.03108891324553,-7.03134665205215));
#305=CARTESIAN_POINT('Ctrl Pts',(-3.50000000000212,2.02072594216246,-7.61467998538672));
#306=CARTESIAN_POINT('Origin',(1.57575299172046E-18,-1.00660440488224E-15,
-7.0742660007307));
#307=CARTESIAN_POINT('',(3.5,2.02072594216369,-7.61467998538601));
#308=CARTESIAN_POINT('Ctrl Pts',(3.50000000000094,2.02072594216315,-7.61467998538633));
#309=CARTESIAN_POINT('Ctrl Pts',(1.75,3.03108891324553,-7.03134665205245));
#310=CARTESIAN_POINT('Ctrl Pts',(-9.41359273039594E-13,4.04145188432792,
-7.61467998538633));
#311=CARTESIAN_POINT('',(8.65867527144587E-16,-4.04145188432738,-7.61467998538601));
#312=CARTESIAN_POINT('Ctrl Pts',(-3.50000000000094,-2.02072594216315,-7.61467998538632));
#313=CARTESIAN_POINT('Ctrl Pts',(-1.75,-3.03108891324554,-7.03134665205245));
#314=CARTESIAN_POINT('Ctrl Pts',(9.41359273039594E-13,-4.04145188432792,
-7.61467998538632));
#315=CARTESIAN_POINT('',(3.5,-2.02072594216369,-7.61467998538601));
#316=CARTESIAN_POINT('Ctrl Pts',(-9.38154052716884E-13,-4.04145188432792,
-7.61467998538633));
#317=CARTESIAN_POINT('Ctrl Pts',(1.75,-3.03108891324554,-7.03134665205245));
#318=CARTESIAN_POINT('Ctrl Pts',(3.50000000000094,-2.02072594216315,-7.61467998538633));
#319=CARTESIAN_POINT('Ctrl Pts',(3.5,-2.02072594216478,-7.61467998538633));
#320=CARTESIAN_POINT('Ctrl Pts',(3.5,-2.55351295663786E-15,-7.03134665205245));
#321=CARTESIAN_POINT('Ctrl Pts',(3.5,2.02072594216477,-7.61467998538633));
#322=CARTESIAN_POINT('Origin',(-0.175000000000136,4.14248818143564,-10.2377187952005));
#323=CARTESIAN_POINT('',(3.5,2.02072594216369,-9.78532001461399));
#324=CARTESIAN_POINT($,(3.5,2.02072594216369,-7.61467998538601));
#325=CARTESIAN_POINT('Ctrl Pts',(-2.12444541533848E-12,4.04145188432861,
-9.78532001461328));
#326=CARTESIAN_POINT('Ctrl Pts',(1.75,3.03108891324554,-10.3686533479479));
#327=CARTESIAN_POINT('Ctrl Pts',(3.50000000000212,2.02072594216247,-9.78532001461328));
#328=CARTESIAN_POINT('Origin',(-2.43674096860344E-17,-1.1688147346661E-15,
-7.49795));
#329=CARTESIAN_POINT('',(1.621,-8.01625292398159E-16,-7.479));
#330=CARTESIAN_POINT('Origin',(-2.32070568438423E-17,-1.16155959698163E-15,
-7.479));
#331=CARTESIAN_POINT('Origin',(0.175000000000136,-4.14248818143564,-10.2377187952005));
#332=CARTESIAN_POINT('',(7.32954158949829E-16,-4.04145188432738,-9.78532001461398));
#333=CARTESIAN_POINT('Ctrl Pts',(2.1241771603457E-12,-4.04145188432861,
-9.78532001461328));
#334=CARTESIAN_POINT('Ctrl Pts',(-1.75,-3.03108891324554,-10.3686533479478));
#335=CARTESIAN_POINT('Ctrl Pts',(-3.50000000000212,-2.02072594216247,-9.78532001461328));
#336=CARTESIAN_POINT($,(8.65867527144587E-16,-4.04145188432738,-7.61467998538601));
#337=CARTESIAN_POINT('Origin',(3.67500000000013,-1.91968964505543,-10.2377187952005));
#338=CARTESIAN_POINT('',(3.5,-2.02072594216369,-9.78532001461398));
#339=CARTESIAN_POINT('Ctrl Pts',(3.50000000000213,-2.02072594216247,-9.78532001461328));
#340=CARTESIAN_POINT('Ctrl Pts',(1.75,-3.03108891324554,-10.3686533479478));
#341=CARTESIAN_POINT('Ctrl Pts',(-2.12444541533848E-12,-4.04145188432861,
-9.78532001461327));
#342=CARTESIAN_POINT($,(3.5,-2.02072594216369,-7.61467998538601));
#343=CARTESIAN_POINT('Origin',(3.5,-2.22279853638007,-10.2377201147713));
#344=CARTESIAN_POINT('Ctrl Pts',(3.5,-2.02072594216614,-9.78532001461328));
#345=CARTESIAN_POINT('Ctrl Pts',(3.5,-1.33226762955019E-15,-10.3686533479478));
#346=CARTESIAN_POINT('Ctrl Pts',(3.5,2.02072594216614,-9.78532001461328));
#347=CARTESIAN_POINT('Origin',(-1.97519240855297E-16,-2.25145126535899E-15,
-10.3257339992693));
#348=CARTESIAN_POINT('Origin',(-1.71576078177542E-16,-2.08924093557513E-15,
-9.90205));
#349=CARTESIAN_POINT('',(1.621,-1.73656176867612E-15,-9.921));
#350=CARTESIAN_POINT('Origin',(-1.72736431019734E-16,-2.0964960732596E-15,
-9.921));
#351=CARTESIAN_POINT('Origin',(0.,-1.0164568432923E-15,-7.1));
#352=UNCERTAINTY_MEASURE_WITH_UNIT(LENGTH_MEASURE(0.01),#356,
'DISTANCE_ACCURACY_VALUE',
'Maximum model space distance between geometric entities at asserted c
onnectivities');
#353=UNCERTAINTY_MEASURE_WITH_UNIT(LENGTH_MEASURE(1.E-6),#356,
'DISTANCE_ACCURACY_VALUE',
'Maximum model space distance between geometric entities at asserted c
onnectivities');
#354=(
GEOMETRIC_REPRESENTATION_CONTEXT(3)
GLOBAL_UNCERTAINTY_ASSIGNED_CONTEXT((#352))
GLOBAL_UNIT_ASSIGNED_CONTEXT((#356,#358,#357))
REPRESENTATION_CONTEXT('','3D')
);
#355=(
GEOMETRIC_REPRESENTATION_CONTEXT(3)
GLOBAL_UNCERTAINTY_ASSIGNED_CONTEXT((#353))
GLOBAL_UNIT_ASSIGNED_CONTEXT((#356,#12,#357))
REPRESENTATION_CONTEXT('','3D')
);
#356=(
LENGTH_UNIT()
NAMED_UNIT(*)
SI_UNIT(.MILLI.,.METRE.)
);
#357=(
NAMED_UNIT(*)
SI_UNIT($,.STERADIAN.)
SOLID_ANGLE_UNIT()
);
#358=(
NAMED_UNIT(*)
PLANE_ANGLE_UNIT()
SI_UNIT($,.RADIAN.)
);
#359=SHAPE_DEFINITION_REPRESENTATION(#360,#361);
#360=PRODUCT_DEFINITION_SHAPE('',$,#363);
#361=SHAPE_REPRESENTATION('',(#206),#354);
#362=PRODUCT_DEFINITION_CONTEXT('part definition',#367,'design');
#363=PRODUCT_DEFINITION('Product','Product',#364,#362);
#364=PRODUCT_DEFINITION_FORMATION('',$,#369);
#365=PRODUCT_RELATED_PRODUCT_CATEGORY('Product','Product',(#369));
#366=APPLICATION_PROTOCOL_DEFINITION('international standard',
'automotive_design',2009,#367);
#367=APPLICATION_CONTEXT(
'Core Data for Automotive Mechanical Design Process');
#368=PRODUCT_CONTEXT('part definition',#367,'mechanical');
#369=PRODUCT('Product','Product',$,(#368));
#370=PRESENTATION_STYLE_ASSIGNMENT((#372));
#371=PRESENTATION_STYLE_ASSIGNMENT((#373));
#372=SURFACE_STYLE_USAGE(.BOTH.,#374);
#373=SURFACE_STYLE_USAGE(.BOTH.,#375);
#374=SURFACE_SIDE_STYLE($,(#376));
#375=SURFACE_SIDE_STYLE($,(#377));
#376=SURFACE_STYLE_FILL_AREA(#378);
#377=SURFACE_STYLE_FILL_AREA(#379);
#378=FILL_AREA_STYLE($,(#380));
#379=FILL_AREA_STYLE($,(#381));
#380=FILL_AREA_STYLE_COLOUR($,#382);
#381=FILL_AREA_STYLE_COLOUR($,#383);
#382=COLOUR_RGB('',1.,1.,1.);
#383=COLOUR_RGB('',0.866666666666667,0.866666666666667,0.866666666666667);
ENDSEC;
END-ISO-10303-21;
