ISO-10303-21;
HEADER;
/****************************************************************
 * Generated by software with PDElib inside                    *
 * PDElib Version v51a, created Wed 11/30/2011                  *
 * ITI Transcendata (http://www.transcendata.com/)              *
 ****************************************************************/
FILE_DESCRIPTION((''),'2;1');
FILE_NAME('SODFL3517X110N.stp','2014-06-19T09:21:55',(''),(''),'Mechanical Desktop 2011','Mechanical Desktop 2011',', , ');
FILE_SCHEMA(('AUTOMOTIVE_DESIGN { 1 2 10303 214 1 1 1 1 }'));
ENDSEC;
DATA;
#10=(NAMED_UNIT(*)PLANE_ANGLE_UNIT()SI_UNIT($,.RADIAN.));
#11=DIMENSIONAL_EXPONENTS(0.0,0.0,0.0,0.0,0.0,0.0,0.0);
#12=PLANE_ANGLE_MEASURE_WITH_UNIT(PLANE_ANGLE_MEASURE(0.0174532925),#10);
#16=(CONVERSION_BASED_UNIT('DEGREE',#12)NAMED_UNIT(#11)PLANE_ANGLE_UNIT());
#20=(NAMED_UNIT(*)SI_UNIT($,.STERADIAN.)SOLID_ANGLE_UNIT());
#24=(LENGTH_UNIT()NAMED_UNIT(*)SI_UNIT(.MILLI.,.METRE.));
#26=UNCERTAINTY_MEASURE_WITH_UNIT(LENGTH_MEASURE(0.000001),#24,'DISTANCE_ACCURACY_VALUE','');
#28=(GEOMETRIC_REPRESENTATION_CONTEXT(3)GLOBAL_UNCERTAINTY_ASSIGNED_CONTEXT((#26))GLOBAL_UNIT_ASSIGNED_CONTEXT((#16,#20,#24))REPRESENTATION_CONTEXT('','3D'));
#29=APPLICATION_CONTEXT('automotive design');
#30=APPLICATION_PROTOCOL_DEFINITION('INTERNATIONAL_STANDARD','automotive_design',1998,#29);
#31=PRODUCT_CONTEXT('3D Mechanical Parts',#29,'mechanical');
#32=PRODUCT('Product','Product','',(#31));
#33=PRODUCT_RELATED_PRODUCT_CATEGORY('part',$,(#32));
#34=PRODUCT_CATEGORY('part',$);
#35=PERSON('1','Design','Joe',$,$,$);
#36=ORGANIZATION($,'None','None');
#37=PERSON_AND_ORGANIZATION(#35,#36);
#38=PERSON_AND_ORGANIZATION_ROLE('design_owner');
#39=APPLIED_PERSON_AND_ORGANIZATION_ASSIGNMENT(#37,#38,(#32));
#40=PRODUCT_DEFINITION_FORMATION_WITH_SPECIFIED_SOURCE('None','',#32,.BOUGHT.);
#41=PERSON('2','Creator','Joe',$,$,$);
#42=ORGANIZATION($,'None','None');
#43=PERSON_AND_ORGANIZATION(#41,#42);
#44=PERSON_AND_ORGANIZATION_ROLE('creator');
#45=APPLIED_PERSON_AND_ORGANIZATION_ASSIGNMENT(#43,#44,(#40));
#46=PERSON('3','Supplier','Joe',$,$,$);
#47=ORGANIZATION($,'None','None');
#48=PERSON_AND_ORGANIZATION(#46,#47);
#49=PERSON_AND_ORGANIZATION_ROLE('design_supplier');
#50=APPLIED_PERSON_AND_ORGANIZATION_ASSIGNMENT(#48,#49,(#40));
#51=PRODUCT_DEFINITION_CONTEXT('part definition',#29,'design');
#52=PRODUCT_DEFINITION('None','',#40,#51);
#53=PERSON('4','Creator','Joe',$,$,$);
#54=ORGANIZATION($,'None','None');
#55=PERSON_AND_ORGANIZATION(#53,#54);
#56=PERSON_AND_ORGANIZATION_ROLE('creator');
#57=APPLIED_PERSON_AND_ORGANIZATION_ASSIGNMENT(#55,#56,(#52));
#58=CARTESIAN_POINT('NONE',(0.0,0.0,0.0));
#59=DIRECTION('NONE',(0.0,0.0,1.0));
#60=DIRECTION('NONE',(1.0,0.0,0.0));
#61=AXIS2_PLACEMENT_3D('NONE',#58,#59,#60);
#62=SHAPE_REPRESENTATION('SR1',(#61),#28);
#63=PRODUCT_DEFINITION_SHAPE('PDS1','Test Part',#52);
#64=SHAPE_DEFINITION_REPRESENTATION(#63,#62);
#65=CARTESIAN_POINT('',(-1.0,0.85,1.1));
#66=DIRECTION('',(-1.0,0.0,0.0));
#67=DIRECTION('',(0.0,0.0,1.0));
#68=AXIS2_PLACEMENT_3D('',#65,#66,#67);
#69=PLANE('',#68);
#70=CARTESIAN_POINT('',(-1.0,0.85,1.09));
#71=VERTEX_POINT('',#70);
#72=CARTESIAN_POINT('',(-1.0,-0.85,1.09));
#73=VERTEX_POINT('',#72);
#74=CARTESIAN_POINT('',(-1.0,0.85,1.09));
#75=DIRECTION('',(0.0,-1.0,0.0));
#76=VECTOR('',#75,1.7);
#77=LINE('',#74,#76);
#78=EDGE_CURVE('',#71,#73,#77,.T.);
#79=ORIENTED_EDGE('',*,*,#78,.T.);
#80=CARTESIAN_POINT('',(-1.0,-0.85,1.1));
#81=VERTEX_POINT('',#80);
#82=CARTESIAN_POINT('',(-1.0,-0.85,1.1));
#83=DIRECTION('',(0.0,0.0,-1.0));
#84=VECTOR('',#83,0.01);
#85=LINE('',#82,#84);
#86=EDGE_CURVE('',#81,#73,#85,.T.);
#87=ORIENTED_EDGE('',*,*,#86,.F.);
#88=CARTESIAN_POINT('',(-1.0,0.85,1.1));
#89=VERTEX_POINT('',#88);
#90=CARTESIAN_POINT('',(-1.0,-0.85,1.1));
#91=DIRECTION('',(0.0,1.0,0.0));
#92=VECTOR('',#91,1.7);
#93=LINE('',#90,#92);
#94=EDGE_CURVE('',#81,#89,#93,.T.);
#95=ORIENTED_EDGE('',*,*,#94,.T.);
#96=CARTESIAN_POINT('',(-1.0,0.85,1.1));
#97=DIRECTION('',(0.0,0.0,-1.0));
#98=VECTOR('',#97,0.01);
#99=LINE('',#96,#98);
#100=EDGE_CURVE('',#89,#71,#99,.T.);
#101=ORIENTED_EDGE('',*,*,#100,.T.);
#102=EDGE_LOOP('',(#79,#87,#95,#101));
#103=FACE_OUTER_BOUND('',#102,.T.);
#104=ADVANCED_FACE('',(#103),#69,.T.);
#105=CARTESIAN_POINT('',(-1.0,-0.85,1.1));
#106=DIRECTION('',(0.0,-1.0,0.0));
#107=DIRECTION('',(0.0,0.0,-1.0));
#108=AXIS2_PLACEMENT_3D('',#105,#106,#107);
#109=PLANE('',#108);
#110=CARTESIAN_POINT('',(-0.6,-0.85,1.09));
#111=VERTEX_POINT('',#110);
#112=CARTESIAN_POINT('',(-1.0,-0.85,1.09));
#113=DIRECTION('',(1.0,0.0,0.0));
#114=VECTOR('',#113,0.4);
#115=LINE('',#112,#114);
#116=EDGE_CURVE('',#73,#111,#115,.T.);
#117=ORIENTED_EDGE('',*,*,#116,.T.);
#118=CARTESIAN_POINT('',(-0.6,-0.85,1.1));
#119=VERTEX_POINT('',#118);
#120=CARTESIAN_POINT('',(-0.6,-0.85,1.1));
#121=DIRECTION('',(0.0,0.0,-1.0));
#122=VECTOR('',#121,0.01);
#123=LINE('',#120,#122);
#124=EDGE_CURVE('',#119,#111,#123,.T.);
#125=ORIENTED_EDGE('',*,*,#124,.F.);
#126=CARTESIAN_POINT('',(-0.6,-0.85,1.1));
#127=DIRECTION('',(-1.0,0.0,0.0));
#128=VECTOR('',#127,0.4);
#129=LINE('',#126,#128);
#130=EDGE_CURVE('',#119,#81,#129,.T.);
#131=ORIENTED_EDGE('',*,*,#130,.T.);
#132=ORIENTED_EDGE('',*,*,#86,.T.);
#133=EDGE_LOOP('',(#117,#125,#131,#132));
#134=FACE_OUTER_BOUND('',#133,.T.);
#135=ADVANCED_FACE('',(#134),#109,.T.);
#136=CARTESIAN_POINT('',(-0.6,-0.85,1.1));
#137=DIRECTION('',(1.0,0.0,0.0));
#138=DIRECTION('',(0.0,0.0,-1.0));
#139=AXIS2_PLACEMENT_3D('',#136,#137,#138);
#140=PLANE('',#139);
#141=CARTESIAN_POINT('',(-0.6,0.85,1.09));
#142=VERTEX_POINT('',#141);
#143=CARTESIAN_POINT('',(-0.6,-0.85,1.09));
#144=DIRECTION('',(0.0,1.0,0.0));
#145=VECTOR('',#144,1.7);
#146=LINE('',#143,#145);
#147=EDGE_CURVE('',#111,#142,#146,.T.);
#148=ORIENTED_EDGE('',*,*,#147,.T.);
#149=CARTESIAN_POINT('',(-0.6,0.85,1.1));
#150=VERTEX_POINT('',#149);
#151=CARTESIAN_POINT('',(-0.6,0.85,1.1));
#152=DIRECTION('',(0.0,0.0,-1.0));
#153=VECTOR('',#152,0.01);
#154=LINE('',#151,#153);
#155=EDGE_CURVE('',#150,#142,#154,.T.);
#156=ORIENTED_EDGE('',*,*,#155,.F.);
#157=CARTESIAN_POINT('',(-0.6,0.85,1.1));
#158=DIRECTION('',(0.0,-1.0,0.0));
#159=VECTOR('',#158,1.7);
#160=LINE('',#157,#159);
#161=EDGE_CURVE('',#150,#119,#160,.T.);
#162=ORIENTED_EDGE('',*,*,#161,.T.);
#163=ORIENTED_EDGE('',*,*,#124,.T.);
#164=EDGE_LOOP('',(#148,#156,#162,#163));
#165=FACE_OUTER_BOUND('',#164,.T.);
#166=ADVANCED_FACE('',(#165),#140,.T.);
#167=CARTESIAN_POINT('',(-0.6,0.85,1.1));
#168=DIRECTION('',(0.0,1.0,0.0));
#169=DIRECTION('',(0.0,0.0,1.0));
#170=AXIS2_PLACEMENT_3D('',#167,#168,#169);
#171=PLANE('',#170);
#172=CARTESIAN_POINT('',(-0.6,0.85,1.09));
#173=DIRECTION('',(-1.0,0.0,0.0));
#174=VECTOR('',#173,0.4);
#175=LINE('',#172,#174);
#176=EDGE_CURVE('',#142,#71,#175,.T.);
#177=ORIENTED_EDGE('',*,*,#176,.T.);
#178=ORIENTED_EDGE('',*,*,#100,.F.);
#179=CARTESIAN_POINT('',(-1.0,0.85,1.1));
#180=DIRECTION('',(1.0,0.0,0.0));
#181=VECTOR('',#180,0.4);
#182=LINE('',#179,#181);
#183=EDGE_CURVE('',#89,#150,#182,.T.);
#184=ORIENTED_EDGE('',*,*,#183,.T.);
#185=ORIENTED_EDGE('',*,*,#155,.T.);
#186=EDGE_LOOP('',(#177,#178,#184,#185));
#187=FACE_OUTER_BOUND('',#186,.T.);
#188=ADVANCED_FACE('',(#187),#171,.T.);
#189=CARTESIAN_POINT('',(-0.8,2.463157E-018,1.1));
#190=DIRECTION('',(0.0,0.0,1.0));
#191=DIRECTION('',(1.0,0.0,0.0));
#192=AXIS2_PLACEMENT_3D('',#189,#190,#191);
#193=PLANE('',#192);
#194=ORIENTED_EDGE('',*,*,#183,.F.);
#195=ORIENTED_EDGE('',*,*,#94,.F.);
#196=ORIENTED_EDGE('',*,*,#130,.F.);
#197=ORIENTED_EDGE('',*,*,#161,.F.);
#198=EDGE_LOOP('',(#194,#195,#196,#197));
#199=FACE_OUTER_BOUND('',#198,.T.);
#200=ADVANCED_FACE('',(#199),#193,.T.);
#201=CARTESIAN_POINT('',(-0.8,-2.463157E-018,1.09));
#202=DIRECTION('',(0.0,0.0,1.0));
#203=DIRECTION('',(1.0,0.0,0.0));
#204=AXIS2_PLACEMENT_3D('',#201,#202,#203);
#205=PLANE('',#204);
#206=ORIENTED_EDGE('',*,*,#78,.F.);
#207=ORIENTED_EDGE('',*,*,#176,.F.);
#208=ORIENTED_EDGE('',*,*,#147,.F.);
#209=ORIENTED_EDGE('',*,*,#116,.F.);
#210=EDGE_LOOP('',(#206,#207,#208,#209));
#211=FACE_OUTER_BOUND('',#210,.T.);
#212=ADVANCED_FACE('',(#211),#205,.F.);
#213=CLOSED_SHELL('',(#104,#135,#166,#188,#200,#212));
#214=MANIFOLD_SOLID_BREP('2C04',#213);
#215=DRAUGHTING_PRE_DEFINED_COLOUR('white');
#216=SURFACE_STYLE_USAGE(.BOTH.,#217);
#217=SURFACE_SIDE_STYLE('NONE',(#218));
#218=SURFACE_STYLE_FILL_AREA(#219);
#219=FILL_AREA_STYLE('NONE',(#220));
#220=FILL_AREA_STYLE_COLOUR('NONE',#215);
#221=PRESENTATION_STYLE_ASSIGNMENT((#216));
#222=STYLED_ITEM('NONE',(#221),#214);
#223=MECHANICAL_DESIGN_GEOMETRIC_PRESENTATION_REPRESENTATION('NONE',(#222,#646,#959,#1117,#1268),#28);
#224=PRESENTATION_LAYER_ASSIGNMENT('3D','None',(#214,#638,#958,#1109,#1267));
#225=CARTESIAN_POINT('',(-1.75,0.45,0.0));
#226=DIRECTION('',(0.0,1.0,0.0));
#227=DIRECTION('',(0.0,0.0,1.0));
#228=AXIS2_PLACEMENT_3D('',#225,#226,#227);
#229=PLANE('',#228);
#230=CARTESIAN_POINT('',(-1.4,0.45,0.0));
#231=VERTEX_POINT('',#230);
#232=CARTESIAN_POINT('',(-1.4,0.45,0.22));
#233=VERTEX_POINT('',#232);
#234=CARTESIAN_POINT('',(-1.4,0.45,0.0));
#235=DIRECTION('',(0.0,0.0,1.0));
#236=VECTOR('',#235,0.22);
#237=LINE('',#234,#236);
#238=EDGE_CURVE('',#231,#233,#237,.T.);
#239=ORIENTED_EDGE('',*,*,#238,.F.);
#240=CARTESIAN_POINT('',(-1.349999999999999,0.45,0.0));
#241=VERTEX_POINT('',#240);
#242=CARTESIAN_POINT('',(-1.349999999999999,0.45,0.0));
#243=DIRECTION('',(-1.0,0.0,0.0));
#244=VECTOR('',#243,0.050000000000001);
#245=LINE('',#242,#244);
#246=EDGE_CURVE('',#241,#231,#245,.T.);
#247=ORIENTED_EDGE('',*,*,#246,.F.);
#248=CARTESIAN_POINT('',(-1.349999999999999,0.45,0.22));
#249=VERTEX_POINT('',#248);
#250=CARTESIAN_POINT('',(-1.349999999999999,0.45,0.0));
#251=DIRECTION('',(0.0,0.0,1.0));
#252=VECTOR('',#251,0.22);
#253=LINE('',#250,#252);
#254=EDGE_CURVE('',#241,#249,#253,.T.);
#255=ORIENTED_EDGE('',*,*,#254,.T.);
#256=CARTESIAN_POINT('',(-1.4,0.45,0.22));
#257=DIRECTION('',(1.0,0.0,0.0));
#258=VECTOR('',#257,0.050000000000001);
#259=LINE('',#256,#258);
#260=EDGE_CURVE('',#233,#249,#259,.T.);
#261=ORIENTED_EDGE('',*,*,#260,.F.);
#262=EDGE_LOOP('',(#239,#247,#255,#261));
#263=FACE_OUTER_BOUND('',#262,.T.);
#264=ADVANCED_FACE('',(#263),#229,.F.);
#265=CARTESIAN_POINT('',(-1.4,-0.45,0.0));
#266=DIRECTION('',(0.0,-1.0,0.0));
#267=DIRECTION('',(0.0,0.0,-1.0));
#268=AXIS2_PLACEMENT_3D('',#265,#266,#267);
#269=PLANE('',#268);
#270=CARTESIAN_POINT('',(-1.4,-0.45,0.22));
#271=VERTEX_POINT('',#270);
#272=CARTESIAN_POINT('',(-1.4,-0.45,0.0));
#273=VERTEX_POINT('',#272);
#274=CARTESIAN_POINT('',(-1.4,-0.45,0.22));
#275=DIRECTION('',(0.0,0.0,-1.0));
#276=VECTOR('',#275,0.22);
#277=LINE('',#274,#276);
#278=EDGE_CURVE('',#271,#273,#277,.T.);
#279=ORIENTED_EDGE('',*,*,#278,.F.);
#280=CARTESIAN_POINT('',(-1.349999999999999,-0.45,0.22));
#281=VERTEX_POINT('',#280);
#282=CARTESIAN_POINT('',(-1.349999999999999,-0.45,0.22));
#283=DIRECTION('',(-1.0,0.0,0.0));
#284=VECTOR('',#283,0.050000000000001);
#285=LINE('',#282,#284);
#286=EDGE_CURVE('',#281,#271,#285,.T.);
#287=ORIENTED_EDGE('',*,*,#286,.F.);
#288=CARTESIAN_POINT('',(-1.349999999999999,-0.45,0.0));
#289=VERTEX_POINT('',#288);
#290=CARTESIAN_POINT('',(-1.349999999999999,-0.45,0.0));
#291=DIRECTION('',(0.0,0.0,1.0));
#292=VECTOR('',#291,0.22);
#293=LINE('',#290,#292);
#294=EDGE_CURVE('',#289,#281,#293,.T.);
#295=ORIENTED_EDGE('',*,*,#294,.F.);
#296=CARTESIAN_POINT('',(-1.4,-0.45,0.0));
#297=DIRECTION('',(1.0,0.0,0.0));
#298=VECTOR('',#297,0.050000000000001);
#299=LINE('',#296,#298);
#300=EDGE_CURVE('',#273,#289,#299,.T.);
#301=ORIENTED_EDGE('',*,*,#300,.F.);
#302=EDGE_LOOP('',(#279,#287,#295,#301));
#303=FACE_OUTER_BOUND('',#302,.T.);
#304=ADVANCED_FACE('',(#303),#269,.F.);
#305=CARTESIAN_POINT('',(-1.349999999999999,0.45,0.0));
#306=DIRECTION('',(1.0,0.0,0.0));
#307=DIRECTION('',(0.0,0.0,-1.0));
#308=AXIS2_PLACEMENT_3D('',#305,#306,#307);
#309=PLANE('',#308);
#310=CARTESIAN_POINT('',(-1.349999999999999,0.45,0.22));
#311=DIRECTION('',(0.0,-1.0,0.0));
#312=VECTOR('',#311,0.9);
#313=LINE('',#310,#312);
#314=EDGE_CURVE('',#249,#281,#313,.T.);
#315=ORIENTED_EDGE('',*,*,#314,.F.);
#316=ORIENTED_EDGE('',*,*,#254,.F.);
#317=CARTESIAN_POINT('',(-1.349999999999999,-0.45,0.0));
#318=DIRECTION('',(0.0,1.0,0.0));
#319=VECTOR('',#318,0.9);
#320=LINE('',#317,#319);
#321=EDGE_CURVE('',#289,#241,#320,.T.);
#322=ORIENTED_EDGE('',*,*,#321,.F.);
#323=ORIENTED_EDGE('',*,*,#294,.T.);
#324=EDGE_LOOP('',(#315,#316,#322,#323));
#325=FACE_OUTER_BOUND('',#324,.T.);
#326=ADVANCED_FACE('',(#325),#309,.F.);
#327=CARTESIAN_POINT('',(1.85,-0.45,0.0));
#328=DIRECTION('',(0.0,-1.0,0.0));
#329=DIRECTION('',(0.0,0.0,-1.0));
#330=AXIS2_PLACEMENT_3D('',#327,#328,#329);
#331=PLANE('',#330);
#332=CARTESIAN_POINT('',(1.4,-0.45,0.0));
#333=VERTEX_POINT('',#332);
#334=CARTESIAN_POINT('',(1.4,-0.45,0.22));
#335=VERTEX_POINT('',#334);
#336=CARTESIAN_POINT('',(1.4,-0.45,0.0));
#337=DIRECTION('',(0.0,0.0,1.0));
#338=VECTOR('',#337,0.22);
#339=LINE('',#336,#338);
#340=EDGE_CURVE('',#333,#335,#339,.T.);
#341=ORIENTED_EDGE('',*,*,#340,.F.);
#342=CARTESIAN_POINT('',(1.35,-0.45,0.0));
#343=VERTEX_POINT('',#342);
#344=CARTESIAN_POINT('',(1.35,-0.45,0.0));
#345=DIRECTION('',(1.0,0.0,0.0));
#346=VECTOR('',#345,0.05);
#347=LINE('',#344,#346);
#348=EDGE_CURVE('',#343,#333,#347,.T.);
#349=ORIENTED_EDGE('',*,*,#348,.F.);
#350=CARTESIAN_POINT('',(1.35,-0.45,0.22));
#351=VERTEX_POINT('',#350);
#352=CARTESIAN_POINT('',(1.35,-0.45,0.0));
#353=DIRECTION('',(0.0,0.0,1.0));
#354=VECTOR('',#353,0.22);
#355=LINE('',#352,#354);
#356=EDGE_CURVE('',#343,#351,#355,.T.);
#357=ORIENTED_EDGE('',*,*,#356,.T.);
#358=CARTESIAN_POINT('',(1.4,-0.45,0.22));
#359=DIRECTION('',(-1.0,0.0,0.0));
#360=VECTOR('',#359,0.05);
#361=LINE('',#358,#360);
#362=EDGE_CURVE('',#335,#351,#361,.T.);
#363=ORIENTED_EDGE('',*,*,#362,.F.);
#364=EDGE_LOOP('',(#341,#349,#357,#363));
#365=FACE_OUTER_BOUND('',#364,.T.);
#366=ADVANCED_FACE('',(#365),#331,.F.);
#367=CARTESIAN_POINT('',(1.35,-0.45,0.0));
#368=DIRECTION('',(-1.0,0.0,0.0));
#369=DIRECTION('',(0.0,0.0,1.0));
#370=AXIS2_PLACEMENT_3D('',#367,#368,#369);
#371=PLANE('',#370);
#372=CARTESIAN_POINT('',(1.35,0.45,0.22));
#373=VERTEX_POINT('',#372);
#374=CARTESIAN_POINT('',(1.35,-0.45,0.22));
#375=DIRECTION('',(0.0,1.0,0.0));
#376=VECTOR('',#375,0.9);
#377=LINE('',#374,#376);
#378=EDGE_CURVE('',#351,#373,#377,.T.);
#379=ORIENTED_EDGE('',*,*,#378,.F.);
#380=ORIENTED_EDGE('',*,*,#356,.F.);
#381=CARTESIAN_POINT('',(1.35,0.45,0.0));
#382=VERTEX_POINT('',#381);
#383=CARTESIAN_POINT('',(1.35,0.45,0.0));
#384=DIRECTION('',(0.0,-1.0,0.0));
#385=VECTOR('',#384,0.9);
#386=LINE('',#383,#385);
#387=EDGE_CURVE('',#382,#343,#386,.T.);
#388=ORIENTED_EDGE('',*,*,#387,.F.);
#389=CARTESIAN_POINT('',(1.35,0.45,0.0));
#390=DIRECTION('',(0.0,0.0,1.0));
#391=VECTOR('',#390,0.22);
#392=LINE('',#389,#391);
#393=EDGE_CURVE('',#382,#373,#392,.T.);
#394=ORIENTED_EDGE('',*,*,#393,.T.);
#395=EDGE_LOOP('',(#379,#380,#388,#394));
#396=FACE_OUTER_BOUND('',#395,.T.);
#397=ADVANCED_FACE('',(#396),#371,.F.);
#398=CARTESIAN_POINT('',(1.3,0.45,0.0));
#399=DIRECTION('',(0.0,1.0,0.0));
#400=DIRECTION('',(0.0,0.0,1.0));
#401=AXIS2_PLACEMENT_3D('',#398,#399,#400);
#402=PLANE('',#401);
#403=CARTESIAN_POINT('',(1.4,0.45,0.22));
#404=VERTEX_POINT('',#403);
#405=CARTESIAN_POINT('',(1.4,0.45,0.0));
#406=VERTEX_POINT('',#405);
#407=CARTESIAN_POINT('',(1.4,0.45,0.22));
#408=DIRECTION('',(0.0,0.0,-1.0));
#409=VECTOR('',#408,0.22);
#410=LINE('',#407,#409);
#411=EDGE_CURVE('',#404,#406,#410,.T.);
#412=ORIENTED_EDGE('',*,*,#411,.F.);
#413=CARTESIAN_POINT('',(1.35,0.45,0.22));
#414=DIRECTION('',(1.0,0.0,0.0));
#415=VECTOR('',#414,0.05);
#416=LINE('',#413,#415);
#417=EDGE_CURVE('',#373,#404,#416,.T.);
#418=ORIENTED_EDGE('',*,*,#417,.F.);
#419=ORIENTED_EDGE('',*,*,#393,.F.);
#420=CARTESIAN_POINT('',(1.4,0.45,0.0));
#421=DIRECTION('',(-1.0,0.0,0.0));
#422=VECTOR('',#421,0.05);
#423=LINE('',#420,#422);
#424=EDGE_CURVE('',#406,#382,#423,.T.);
#425=ORIENTED_EDGE('',*,*,#424,.F.);
#426=EDGE_LOOP('',(#412,#418,#419,#425));
#427=FACE_OUTER_BOUND('',#426,.T.);
#428=ADVANCED_FACE('',(#427),#402,.F.);
#429=CARTESIAN_POINT('',(-1.4,0.0,0.11));
#430=DIRECTION('',(1.0,0.0,0.0));
#431=DIRECTION('',(0.0,0.0,1.0));
#432=AXIS2_PLACEMENT_3D('',#429,#430,#431);
#433=PLANE('',#432);
#434=ORIENTED_EDGE('',*,*,#238,.T.);
#435=CARTESIAN_POINT('',(-1.4,0.95,0.22));
#436=VERTEX_POINT('',#435);
#437=CARTESIAN_POINT('',(-1.4,0.95,0.22));
#438=DIRECTION('',(0.0,-1.0,0.0));
#439=VECTOR('',#438,0.5);
#440=LINE('',#437,#439);
#441=EDGE_CURVE('',#436,#233,#440,.T.);
#442=ORIENTED_EDGE('',*,*,#441,.F.);
#443=CARTESIAN_POINT('',(-1.4,0.95,0.0));
#444=VERTEX_POINT('',#443);
#445=CARTESIAN_POINT('',(-1.4,0.95,0.0));
#446=DIRECTION('',(0.0,0.0,1.0));
#447=VECTOR('',#446,0.22);
#448=LINE('',#445,#447);
#449=EDGE_CURVE('',#444,#436,#448,.T.);
#450=ORIENTED_EDGE('',*,*,#449,.F.);
#451=CARTESIAN_POINT('',(-1.4,0.45,0.0));
#452=DIRECTION('',(0.0,1.0,0.0));
#453=VECTOR('',#452,0.5);
#454=LINE('',#451,#453);
#455=EDGE_CURVE('',#231,#444,#454,.T.);
#456=ORIENTED_EDGE('',*,*,#455,.F.);
#457=EDGE_LOOP('',(#434,#442,#450,#456));
#458=FACE_OUTER_BOUND('',#457,.T.);
#459=ADVANCED_FACE('',(#458),#433,.F.);
#460=CARTESIAN_POINT('',(0.0,0.0,0.0));
#461=DIRECTION('',(0.0,0.0,-1.0));
#462=DIRECTION('',(1.0,0.0,0.0));
#463=AXIS2_PLACEMENT_3D('',#460,#461,#462);
#464=PLANE('',#463);
#465=ORIENTED_EDGE('',*,*,#300,.T.);
#466=ORIENTED_EDGE('',*,*,#321,.T.);
#467=ORIENTED_EDGE('',*,*,#246,.T.);
#468=ORIENTED_EDGE('',*,*,#455,.T.);
#469=CARTESIAN_POINT('',(1.4,0.95,0.0));
#470=VERTEX_POINT('',#469);
#471=CARTESIAN_POINT('',(-1.4,0.95,0.0));
#472=DIRECTION('',(1.0,0.0,0.0));
#473=VECTOR('',#472,2.8);
#474=LINE('',#471,#473);
#475=EDGE_CURVE('',#444,#470,#474,.T.);
#476=ORIENTED_EDGE('',*,*,#475,.T.);
#477=CARTESIAN_POINT('',(1.4,0.95,0.0));
#478=DIRECTION('',(0.0,-1.0,0.0));
#479=VECTOR('',#478,0.5);
#480=LINE('',#477,#479);
#481=EDGE_CURVE('',#470,#406,#480,.T.);
#482=ORIENTED_EDGE('',*,*,#481,.T.);
#483=ORIENTED_EDGE('',*,*,#424,.T.);
#484=ORIENTED_EDGE('',*,*,#387,.T.);
#485=ORIENTED_EDGE('',*,*,#348,.T.);
#486=CARTESIAN_POINT('',(1.4,-0.95,0.0));
#487=VERTEX_POINT('',#486);
#488=CARTESIAN_POINT('',(1.4,-0.45,0.0));
#489=DIRECTION('',(0.0,-1.0,0.0));
#490=VECTOR('',#489,0.5);
#491=LINE('',#488,#490);
#492=EDGE_CURVE('',#333,#487,#491,.T.);
#493=ORIENTED_EDGE('',*,*,#492,.T.);
#494=CARTESIAN_POINT('',(-1.4,-0.95,0.0));
#495=VERTEX_POINT('',#494);
#496=CARTESIAN_POINT('',(1.4,-0.95,0.0));
#497=DIRECTION('',(-1.0,0.0,0.0));
#498=VECTOR('',#497,2.8);
#499=LINE('',#496,#498);
#500=EDGE_CURVE('',#487,#495,#499,.T.);
#501=ORIENTED_EDGE('',*,*,#500,.T.);
#502=CARTESIAN_POINT('',(-1.4,-0.95,0.0));
#503=DIRECTION('',(0.0,1.0,0.0));
#504=VECTOR('',#503,0.5);
#505=LINE('',#502,#504);
#506=EDGE_CURVE('',#495,#273,#505,.T.);
#507=ORIENTED_EDGE('',*,*,#506,.T.);
#508=EDGE_LOOP('',(#465,#466,#467,#468,#476,#482,#483,#484,#485,#493,#501,#507));
#509=FACE_OUTER_BOUND('',#508,.T.);
#510=ADVANCED_FACE('',(#509),#464,.T.);
#511=CARTESIAN_POINT('',(1.4,0.0,0.11));
#512=DIRECTION('',(-1.0,0.0,0.0));
#513=DIRECTION('',(0.0,0.0,-1.0));
#514=AXIS2_PLACEMENT_3D('',#511,#512,#513);
#515=PLANE('',#514);
#516=ORIENTED_EDGE('',*,*,#340,.T.);
#517=CARTESIAN_POINT('',(1.4,-0.95,0.22));
#518=VERTEX_POINT('',#517);
#519=CARTESIAN_POINT('',(1.4,-0.95,0.22));
#520=DIRECTION('',(0.0,1.0,0.0));
#521=VECTOR('',#520,0.5);
#522=LINE('',#519,#521);
#523=EDGE_CURVE('',#518,#335,#522,.T.);
#524=ORIENTED_EDGE('',*,*,#523,.F.);
#525=CARTESIAN_POINT('',(1.4,-0.95,0.0));
#526=DIRECTION('',(0.0,0.0,1.0));
#527=VECTOR('',#526,0.22);
#528=LINE('',#525,#527);
#529=EDGE_CURVE('',#487,#518,#528,.T.);
#530=ORIENTED_EDGE('',*,*,#529,.F.);
#531=ORIENTED_EDGE('',*,*,#492,.F.);
#532=EDGE_LOOP('',(#516,#524,#530,#531));
#533=FACE_OUTER_BOUND('',#532,.T.);
#534=ADVANCED_FACE('',(#533),#515,.F.);
#535=CARTESIAN_POINT('',(0.0,0.0,0.22));
#536=DIRECTION('',(0.0,0.0,-1.0));
#537=DIRECTION('',(1.0,0.0,0.0));
#538=AXIS2_PLACEMENT_3D('',#535,#536,#537);
#539=PLANE('',#538);
#540=ORIENTED_EDGE('',*,*,#286,.T.);
#541=CARTESIAN_POINT('',(-1.4,-0.95,0.22));
#542=VERTEX_POINT('',#541);
#543=CARTESIAN_POINT('',(-1.4,-0.45,0.22));
#544=DIRECTION('',(0.0,-1.0,0.0));
#545=VECTOR('',#544,0.5);
#546=LINE('',#543,#545);
#547=EDGE_CURVE('',#271,#542,#546,.T.);
#548=ORIENTED_EDGE('',*,*,#547,.T.);
#549=CARTESIAN_POINT('',(-1.4,-0.95,0.22));
#550=DIRECTION('',(1.0,0.0,0.0));
#551=VECTOR('',#550,2.8);
#552=LINE('',#549,#551);
#553=EDGE_CURVE('',#542,#518,#552,.T.);
#554=ORIENTED_EDGE('',*,*,#553,.T.);
#555=ORIENTED_EDGE('',*,*,#523,.T.);
#556=ORIENTED_EDGE('',*,*,#362,.T.);
#557=ORIENTED_EDGE('',*,*,#378,.T.);
#558=ORIENTED_EDGE('',*,*,#417,.T.);
#559=CARTESIAN_POINT('',(1.4,0.95,0.22));
#560=VERTEX_POINT('',#559);
#561=CARTESIAN_POINT('',(1.4,0.45,0.22));
#562=DIRECTION('',(0.0,1.0,0.0));
#563=VECTOR('',#562,0.5);
#564=LINE('',#561,#563);
#565=EDGE_CURVE('',#404,#560,#564,.T.);
#566=ORIENTED_EDGE('',*,*,#565,.T.);
#567=CARTESIAN_POINT('',(1.4,0.95,0.22));
#568=DIRECTION('',(-1.0,0.0,0.0));
#569=VECTOR('',#568,2.8);
#570=LINE('',#567,#569);
#571=EDGE_CURVE('',#560,#436,#570,.T.);
#572=ORIENTED_EDGE('',*,*,#571,.T.);
#573=ORIENTED_EDGE('',*,*,#441,.T.);
#574=ORIENTED_EDGE('',*,*,#260,.T.);
#575=ORIENTED_EDGE('',*,*,#314,.T.);
#576=EDGE_LOOP('',(#540,#548,#554,#555,#556,#557,#558,#566,#572,#573,#574,#575));
#577=FACE_OUTER_BOUND('',#576,.T.);
#578=ADVANCED_FACE('',(#577),#539,.F.);
#579=CARTESIAN_POINT('',(0.0,0.95,0.11));
#580=DIRECTION('',(0.0,-1.0,0.0));
#581=DIRECTION('',(0.0,0.0,-1.0));
#582=AXIS2_PLACEMENT_3D('',#579,#580,#581);
#583=PLANE('',#582);
#584=ORIENTED_EDGE('',*,*,#449,.T.);
#585=ORIENTED_EDGE('',*,*,#571,.F.);
#586=CARTESIAN_POINT('',(1.4,0.95,0.0));
#587=DIRECTION('',(0.0,0.0,1.0));
#588=VECTOR('',#587,0.22);
#589=LINE('',#586,#588);
#590=EDGE_CURVE('',#470,#560,#589,.T.);
#591=ORIENTED_EDGE('',*,*,#590,.F.);
#592=ORIENTED_EDGE('',*,*,#475,.F.);
#593=EDGE_LOOP('',(#584,#585,#591,#592));
#594=FACE_OUTER_BOUND('',#593,.T.);
#595=ADVANCED_FACE('',(#594),#583,.F.);
#596=CARTESIAN_POINT('',(-1.4,0.0,0.11));
#597=DIRECTION('',(1.0,0.0,0.0));
#598=DIRECTION('',(0.0,0.0,1.0));
#599=AXIS2_PLACEMENT_3D('',#596,#597,#598);
#600=PLANE('',#599);
#601=ORIENTED_EDGE('',*,*,#278,.T.);
#602=ORIENTED_EDGE('',*,*,#506,.F.);
#603=CARTESIAN_POINT('',(-1.4,-0.95,0.0));
#604=DIRECTION('',(0.0,0.0,1.0));
#605=VECTOR('',#604,0.22);
#606=LINE('',#603,#605);
#607=EDGE_CURVE('',#495,#542,#606,.T.);
#608=ORIENTED_EDGE('',*,*,#607,.T.);
#609=ORIENTED_EDGE('',*,*,#547,.F.);
#610=EDGE_LOOP('',(#601,#602,#608,#609));
#611=FACE_OUTER_BOUND('',#610,.T.);
#612=ADVANCED_FACE('',(#611),#600,.F.);
#613=CARTESIAN_POINT('',(0.0,-0.95,0.11));
#614=DIRECTION('',(0.0,1.0,0.0));
#615=DIRECTION('',(0.0,0.0,1.0));
#616=AXIS2_PLACEMENT_3D('',#613,#614,#615);
#617=PLANE('',#616);
#618=ORIENTED_EDGE('',*,*,#529,.T.);
#619=ORIENTED_EDGE('',*,*,#553,.F.);
#620=ORIENTED_EDGE('',*,*,#607,.F.);
#621=ORIENTED_EDGE('',*,*,#500,.F.);
#622=EDGE_LOOP('',(#618,#619,#620,#621));
#623=FACE_OUTER_BOUND('',#622,.T.);
#624=ADVANCED_FACE('',(#623),#617,.F.);
#625=CARTESIAN_POINT('',(1.4,0.0,0.11));
#626=DIRECTION('',(-1.0,0.0,0.0));
#627=DIRECTION('',(0.0,0.0,-1.0));
#628=AXIS2_PLACEMENT_3D('',#625,#626,#627);
#629=PLANE('',#628);
#630=ORIENTED_EDGE('',*,*,#411,.T.);
#631=ORIENTED_EDGE('',*,*,#481,.F.);
#632=ORIENTED_EDGE('',*,*,#590,.T.);
#633=ORIENTED_EDGE('',*,*,#565,.F.);
#634=EDGE_LOOP('',(#630,#631,#632,#633));
#635=FACE_OUTER_BOUND('',#634,.T.);
#636=ADVANCED_FACE('',(#635),#629,.F.);
#637=CLOSED_SHELL('',(#264,#304,#326,#366,#397,#428,#459,#510,#534,#578,#595,#612,#624,#636));
#638=MANIFOLD_SOLID_BREP('2BC4',#637);
#639=COLOUR_RGB('250',0.33,0.33,0.33);
#640=SURFACE_STYLE_USAGE(.BOTH.,#641);
#641=SURFACE_SIDE_STYLE('NONE',(#642));
#642=SURFACE_STYLE_FILL_AREA(#643);
#643=FILL_AREA_STYLE('NONE',(#644));
#644=FILL_AREA_STYLE_COLOUR('NONE',#639);
#645=PRESENTATION_STYLE_ASSIGNMENT((#640));
#646=STYLED_ITEM('NONE',(#645),#638);
#647=CARTESIAN_POINT('',(-1.0,0.85,1.1));
#648=DIRECTION('',(-1.0,0.0,0.0));
#649=DIRECTION('',(0.0,0.0,1.0));
#650=AXIS2_PLACEMENT_3D('',#647,#648,#649);
#651=PLANE('',#650);
#652=CARTESIAN_POINT('',(-1.0,0.85,1.09));
#653=VERTEX_POINT('',#652);
#654=CARTESIAN_POINT('',(-1.0,-0.85,1.09));
#655=VERTEX_POINT('',#654);
#656=CARTESIAN_POINT('',(-1.0,0.85,1.09));
#657=DIRECTION('',(0.0,-1.0,0.0));
#658=VECTOR('',#657,1.7);
#659=LINE('',#656,#658);
#660=EDGE_CURVE('',#653,#655,#659,.T.);
#661=ORIENTED_EDGE('',*,*,#660,.F.);
#662=CARTESIAN_POINT('',(-1.0,0.85,1.1));
#663=VERTEX_POINT('',#662);
#664=CARTESIAN_POINT('',(-1.0,0.85,1.1));
#665=DIRECTION('',(0.0,0.0,-1.0));
#666=VECTOR('',#665,0.01);
#667=LINE('',#664,#666);
#668=EDGE_CURVE('',#663,#653,#667,.T.);
#669=ORIENTED_EDGE('',*,*,#668,.F.);
#670=CARTESIAN_POINT('',(-1.0,-0.85,1.1));
#671=VERTEX_POINT('',#670);
#672=CARTESIAN_POINT('',(-1.0,-0.85,1.1));
#673=DIRECTION('',(0.0,1.0,0.0));
#674=VECTOR('',#673,1.7);
#675=LINE('',#672,#674);
#676=EDGE_CURVE('',#671,#663,#675,.T.);
#677=ORIENTED_EDGE('',*,*,#676,.F.);
#678=CARTESIAN_POINT('',(-1.0,-0.85,1.1));
#679=DIRECTION('',(0.0,0.0,-1.0));
#680=VECTOR('',#679,0.01);
#681=LINE('',#678,#680);
#682=EDGE_CURVE('',#671,#655,#681,.T.);
#683=ORIENTED_EDGE('',*,*,#682,.T.);
#684=EDGE_LOOP('',(#661,#669,#677,#683));
#685=FACE_OUTER_BOUND('',#684,.T.);
#686=ADVANCED_FACE('',(#685),#651,.F.);
#687=CARTESIAN_POINT('',(-1.0,-0.85,1.1));
#688=DIRECTION('',(0.0,-1.0,0.0));
#689=DIRECTION('',(0.0,0.0,-1.0));
#690=AXIS2_PLACEMENT_3D('',#687,#688,#689);
#691=PLANE('',#690);
#692=CARTESIAN_POINT('',(-0.6,-0.85,1.09));
#693=VERTEX_POINT('',#692);
#694=CARTESIAN_POINT('',(-1.0,-0.85,1.09));
#695=DIRECTION('',(1.0,0.0,0.0));
#696=VECTOR('',#695,0.4);
#697=LINE('',#694,#696);
#698=EDGE_CURVE('',#655,#693,#697,.T.);
#699=ORIENTED_EDGE('',*,*,#698,.F.);
#700=ORIENTED_EDGE('',*,*,#682,.F.);
#701=CARTESIAN_POINT('',(-0.6,-0.85,1.1));
#702=VERTEX_POINT('',#701);
#703=CARTESIAN_POINT('',(-0.6,-0.85,1.1));
#704=DIRECTION('',(-1.0,0.0,0.0));
#705=VECTOR('',#704,0.4);
#706=LINE('',#703,#705);
#707=EDGE_CURVE('',#702,#671,#706,.T.);
#708=ORIENTED_EDGE('',*,*,#707,.F.);
#709=CARTESIAN_POINT('',(-0.6,-0.85,1.1));
#710=DIRECTION('',(0.0,0.0,-1.0));
#711=VECTOR('',#710,0.01);
#712=LINE('',#709,#711);
#713=EDGE_CURVE('',#702,#693,#712,.T.);
#714=ORIENTED_EDGE('',*,*,#713,.T.);
#715=EDGE_LOOP('',(#699,#700,#708,#714));
#716=FACE_OUTER_BOUND('',#715,.T.);
#717=ADVANCED_FACE('',(#716),#691,.F.);
#718=CARTESIAN_POINT('',(-0.6,-0.85,1.1));
#719=DIRECTION('',(1.0,0.0,0.0));
#720=DIRECTION('',(0.0,0.0,-1.0));
#721=AXIS2_PLACEMENT_3D('',#718,#719,#720);
#722=PLANE('',#721);
#723=CARTESIAN_POINT('',(-0.6,0.85,1.09));
#724=VERTEX_POINT('',#723);
#725=CARTESIAN_POINT('',(-0.6,-0.85,1.09));
#726=DIRECTION('',(0.0,1.0,0.0));
#727=VECTOR('',#726,1.7);
#728=LINE('',#725,#727);
#729=EDGE_CURVE('',#693,#724,#728,.T.);
#730=ORIENTED_EDGE('',*,*,#729,.F.);
#731=ORIENTED_EDGE('',*,*,#713,.F.);
#732=CARTESIAN_POINT('',(-0.6,0.85,1.1));
#733=VERTEX_POINT('',#732);
#734=CARTESIAN_POINT('',(-0.6,0.85,1.1));
#735=DIRECTION('',(0.0,-1.0,0.0));
#736=VECTOR('',#735,1.7);
#737=LINE('',#734,#736);
#738=EDGE_CURVE('',#733,#702,#737,.T.);
#739=ORIENTED_EDGE('',*,*,#738,.F.);
#740=CARTESIAN_POINT('',(-0.6,0.85,1.1));
#741=DIRECTION('',(0.0,0.0,-1.0));
#742=VECTOR('',#741,0.01);
#743=LINE('',#740,#742);
#744=EDGE_CURVE('',#733,#724,#743,.T.);
#745=ORIENTED_EDGE('',*,*,#744,.T.);
#746=EDGE_LOOP('',(#730,#731,#739,#745));
#747=FACE_OUTER_BOUND('',#746,.T.);
#748=ADVANCED_FACE('',(#747),#722,.F.);
#749=CARTESIAN_POINT('',(-0.6,0.85,1.1));
#750=DIRECTION('',(0.0,1.0,0.0));
#751=DIRECTION('',(0.0,0.0,1.0));
#752=AXIS2_PLACEMENT_3D('',#749,#750,#751);
#753=PLANE('',#752);
#754=CARTESIAN_POINT('',(-0.6,0.85,1.09));
#755=DIRECTION('',(-1.0,0.0,0.0));
#756=VECTOR('',#755,0.4);
#757=LINE('',#754,#756);
#758=EDGE_CURVE('',#724,#653,#757,.T.);
#759=ORIENTED_EDGE('',*,*,#758,.F.);
#760=ORIENTED_EDGE('',*,*,#744,.F.);
#761=CARTESIAN_POINT('',(-1.0,0.85,1.1));
#762=DIRECTION('',(1.0,0.0,0.0));
#763=VECTOR('',#762,0.4);
#764=LINE('',#761,#763);
#765=EDGE_CURVE('',#663,#733,#764,.T.);
#766=ORIENTED_EDGE('',*,*,#765,.F.);
#767=ORIENTED_EDGE('',*,*,#668,.T.);
#768=EDGE_LOOP('',(#759,#760,#766,#767));
#769=FACE_OUTER_BOUND('',#768,.T.);
#770=ADVANCED_FACE('',(#769),#753,.F.);
#771=CARTESIAN_POINT('',(-0.8,-2.463157E-018,1.09));
#772=DIRECTION('',(0.0,0.0,1.0));
#773=DIRECTION('',(1.0,0.0,0.0));
#774=AXIS2_PLACEMENT_3D('',#771,#772,#773);
#775=PLANE('',#774);
#776=ORIENTED_EDGE('',*,*,#660,.T.);
#777=ORIENTED_EDGE('',*,*,#698,.T.);
#778=ORIENTED_EDGE('',*,*,#729,.T.);
#779=ORIENTED_EDGE('',*,*,#758,.T.);
#780=EDGE_LOOP('',(#776,#777,#778,#779));
#781=FACE_OUTER_BOUND('',#780,.T.);
#782=ADVANCED_FACE('',(#781),#775,.T.);
#783=CARTESIAN_POINT('',(1.110223E-016,4.327078E-017,1.1));
#784=DIRECTION('',(0.0,0.0,1.0));
#785=DIRECTION('',(1.0,0.0,0.0));
#786=AXIS2_PLACEMENT_3D('',#783,#784,#785);
#787=PLANE('',#786);
#788=ORIENTED_EDGE('',*,*,#676,.T.);
#789=CARTESIAN_POINT('',(-1.3,0.85,1.1));
#790=VERTEX_POINT('',#789);
#791=CARTESIAN_POINT('',(-1.3,0.85,1.1));
#792=DIRECTION('',(1.0,0.0,0.0));
#793=VECTOR('',#792,0.3);
#794=LINE('',#791,#793);
#795=EDGE_CURVE('',#790,#663,#794,.T.);
#796=ORIENTED_EDGE('',*,*,#795,.F.);
#797=CARTESIAN_POINT('',(-1.3,-0.85,1.1));
#798=VERTEX_POINT('',#797);
#799=CARTESIAN_POINT('',(-1.3,-0.85,1.1));
#800=DIRECTION('',(0.0,1.0,0.0));
#801=VECTOR('',#800,1.7);
#802=LINE('',#799,#801);
#803=EDGE_CURVE('',#798,#790,#802,.T.);
#804=ORIENTED_EDGE('',*,*,#803,.F.);
#805=CARTESIAN_POINT('',(-1.0,-0.85,1.1));
#806=DIRECTION('',(-1.0,0.0,0.0));
#807=VECTOR('',#806,0.3);
#808=LINE('',#805,#807);
#809=EDGE_CURVE('',#671,#798,#808,.T.);
#810=ORIENTED_EDGE('',*,*,#809,.F.);
#811=EDGE_LOOP('',(#788,#796,#804,#810));
#812=FACE_OUTER_BOUND('',#811,.T.);
#813=ADVANCED_FACE('',(#812),#787,.T.);
#814=CARTESIAN_POINT('',(1.110223E-016,4.327078E-017,1.1));
#815=DIRECTION('',(0.0,0.0,1.0));
#816=DIRECTION('',(1.0,0.0,0.0));
#817=AXIS2_PLACEMENT_3D('',#814,#815,#816);
#818=PLANE('',#817);
#819=ORIENTED_EDGE('',*,*,#738,.T.);
#820=CARTESIAN_POINT('',(1.3,-0.85,1.1));
#821=VERTEX_POINT('',#820);
#822=CARTESIAN_POINT('',(1.3,-0.85,1.1));
#823=DIRECTION('',(-1.0,0.0,0.0));
#824=VECTOR('',#823,1.9);
#825=LINE('',#822,#824);
#826=EDGE_CURVE('',#821,#702,#825,.T.);
#827=ORIENTED_EDGE('',*,*,#826,.F.);
#828=CARTESIAN_POINT('',(1.3,0.85,1.1));
#829=VERTEX_POINT('',#828);
#830=CARTESIAN_POINT('',(1.3,0.85,1.1));
#831=DIRECTION('',(0.0,-1.0,0.0));
#832=VECTOR('',#831,1.7);
#833=LINE('',#830,#832);
#834=EDGE_CURVE('',#829,#821,#833,.T.);
#835=ORIENTED_EDGE('',*,*,#834,.F.);
#836=CARTESIAN_POINT('',(-0.6,0.85,1.1));
#837=DIRECTION('',(1.0,0.0,0.0));
#838=VECTOR('',#837,1.9);
#839=LINE('',#836,#838);
#840=EDGE_CURVE('',#733,#829,#839,.T.);
#841=ORIENTED_EDGE('',*,*,#840,.F.);
#842=EDGE_LOOP('',(#819,#827,#835,#841));
#843=FACE_OUTER_BOUND('',#842,.T.);
#844=ADVANCED_FACE('',(#843),#818,.T.);
#845=CARTESIAN_POINT('',(-1.35,-0.475,0.66));
#846=DIRECTION('',(-0.993605254789719,-2.322365E-016,0.112909688044286));
#847=DIRECTION('',(0.112909688044286,0.0,0.993605254789719));
#848=AXIS2_PLACEMENT_3D('',#845,#846,#847);
#849=PLANE('',#848);
#850=ORIENTED_EDGE('',*,*,#803,.T.);
#851=CARTESIAN_POINT('',(-1.4,0.95,0.22));
#852=VERTEX_POINT('',#851);
#853=CARTESIAN_POINT('',(-1.3,0.85,1.1));
#854=DIRECTION('',(-0.1121967772163,0.1121967772163,-0.987331639503441));
#855=VECTOR('',#854,0.891291198206288);
#856=LINE('',#853,#855);
#857=EDGE_CURVE('',#790,#852,#856,.T.);
#858=ORIENTED_EDGE('',*,*,#857,.T.);
#859=CARTESIAN_POINT('',(-1.4,-0.95,0.22));
#860=VERTEX_POINT('',#859);
#861=CARTESIAN_POINT('',(-1.4,-0.95,0.22));
#862=DIRECTION('',(0.0,1.0,0.0));
#863=VECTOR('',#862,1.9);
#864=LINE('',#861,#863);
#865=EDGE_CURVE('',#860,#852,#864,.T.);
#866=ORIENTED_EDGE('',*,*,#865,.F.);
#867=CARTESIAN_POINT('',(-1.3,-0.85,1.1));
#868=DIRECTION('',(-0.1121967772163,-0.1121967772163,-0.987331639503441));
#869=VECTOR('',#868,0.891291198206288);
#870=LINE('',#867,#869);
#871=EDGE_CURVE('',#798,#860,#870,.T.);
#872=ORIENTED_EDGE('',*,*,#871,.F.);
#873=EDGE_LOOP('',(#850,#858,#866,#872));
#874=FACE_OUTER_BOUND('',#873,.T.);
#875=ADVANCED_FACE('',(#874),#849,.T.);
#876=CARTESIAN_POINT('',(-0.7,0.9,0.66));
#877=DIRECTION('',(-1.854637E-034,0.993605254789719,0.112909688044286));
#878=DIRECTION('',(0.0,-0.112909688044286,0.993605254789719));
#879=AXIS2_PLACEMENT_3D('',#876,#877,#878);
#880=PLANE('',#879);
#881=CARTESIAN_POINT('',(1.4,0.95,0.22));
#882=VERTEX_POINT('',#881);
#883=CARTESIAN_POINT('',(-1.4,0.95,0.22));
#884=DIRECTION('',(1.0,0.0,0.0));
#885=VECTOR('',#884,2.8);
#886=LINE('',#883,#885);
#887=EDGE_CURVE('',#852,#882,#886,.T.);
#888=ORIENTED_EDGE('',*,*,#887,.F.);
#889=ORIENTED_EDGE('',*,*,#857,.F.);
#890=ORIENTED_EDGE('',*,*,#795,.T.);
#891=ORIENTED_EDGE('',*,*,#765,.T.);
#892=ORIENTED_EDGE('',*,*,#840,.T.);
#893=CARTESIAN_POINT('',(1.3,0.85,1.1));
#894=DIRECTION('',(0.1121967772163,0.1121967772163,-0.987331639503441));
#895=VECTOR('',#894,0.891291198206288);
#896=LINE('',#893,#895);
#897=EDGE_CURVE('',#829,#882,#896,.T.);
#898=ORIENTED_EDGE('',*,*,#897,.T.);
#899=EDGE_LOOP('',(#888,#889,#890,#891,#892,#898));
#900=FACE_OUTER_BOUND('',#899,.T.);
#901=ADVANCED_FACE('',(#900),#880,.T.);
#902=CARTESIAN_POINT('',(1.35,0.475,0.66));
#903=DIRECTION('',(0.993605254789719,-1.150799E-034,0.112909688044286));
#904=DIRECTION('',(0.112909688044286,0.0,-0.993605254789719));
#905=AXIS2_PLACEMENT_3D('',#902,#903,#904);
#906=PLANE('',#905);
#907=CARTESIAN_POINT('',(1.4,-0.95,0.22));
#908=VERTEX_POINT('',#907);
#909=CARTESIAN_POINT('',(1.4,0.95,0.22));
#910=DIRECTION('',(0.0,-1.0,0.0));
#911=VECTOR('',#910,1.9);
#912=LINE('',#909,#911);
#913=EDGE_CURVE('',#882,#908,#912,.T.);
#914=ORIENTED_EDGE('',*,*,#913,.F.);
#915=ORIENTED_EDGE('',*,*,#897,.F.);
#916=ORIENTED_EDGE('',*,*,#834,.T.);
#917=CARTESIAN_POINT('',(1.3,-0.85,1.1));
#918=DIRECTION('',(0.1121967772163,-0.1121967772163,-0.987331639503441));
#919=VECTOR('',#918,0.891291198206288);
#920=LINE('',#917,#919);
#921=EDGE_CURVE('',#821,#908,#920,.T.);
#922=ORIENTED_EDGE('',*,*,#921,.T.);
#923=EDGE_LOOP('',(#914,#915,#916,#922));
#924=FACE_OUTER_BOUND('',#923,.T.);
#925=ADVANCED_FACE('',(#924),#906,.T.);
#926=CARTESIAN_POINT('',(0.7,-0.9,0.66));
#927=DIRECTION('',(-1.854637E-034,-0.993605254789719,0.112909688044286));
#928=DIRECTION('',(0.0,-0.112909688044286,-0.993605254789719));
#929=AXIS2_PLACEMENT_3D('',#926,#927,#928);
#930=PLANE('',#929);
#931=CARTESIAN_POINT('',(1.4,-0.95,0.22));
#932=DIRECTION('',(-1.0,0.0,0.0));
#933=VECTOR('',#932,2.8);
#934=LINE('',#931,#933);
#935=EDGE_CURVE('',#908,#860,#934,.T.);
#936=ORIENTED_EDGE('',*,*,#935,.F.);
#937=ORIENTED_EDGE('',*,*,#921,.F.);
#938=ORIENTED_EDGE('',*,*,#826,.T.);
#939=ORIENTED_EDGE('',*,*,#707,.T.);
#940=ORIENTED_EDGE('',*,*,#809,.T.);
#941=ORIENTED_EDGE('',*,*,#871,.T.);
#942=EDGE_LOOP('',(#936,#937,#938,#939,#940,#941));
#943=FACE_OUTER_BOUND('',#942,.T.);
#944=ADVANCED_FACE('',(#943),#930,.T.);
#945=CARTESIAN_POINT('',(1.110223E-016,6.775152E-017,0.22));
#946=DIRECTION('',(0.0,0.0,1.0));
#947=DIRECTION('',(1.0,0.0,0.0));
#948=AXIS2_PLACEMENT_3D('',#945,#946,#947);
#949=PLANE('',#948);
#950=ORIENTED_EDGE('',*,*,#887,.T.);
#951=ORIENTED_EDGE('',*,*,#913,.T.);
#952=ORIENTED_EDGE('',*,*,#935,.T.);
#953=ORIENTED_EDGE('',*,*,#865,.T.);
#954=EDGE_LOOP('',(#950,#951,#952,#953));
#955=FACE_OUTER_BOUND('',#954,.T.);
#956=ADVANCED_FACE('',(#955),#949,.F.);
#957=CLOSED_SHELL('',(#686,#717,#748,#770,#782,#813,#844,#875,#901,#925,#944,#956));
#958=MANIFOLD_SOLID_BREP('2B8B',#957);
#959=STYLED_ITEM('NONE',(#645),#958);
#960=CARTESIAN_POINT('',(1.85,-0.45,0.0));
#961=DIRECTION('',(0.0,-1.0,0.0));
#962=DIRECTION('',(0.0,0.0,-1.0));
#963=AXIS2_PLACEMENT_3D('',#960,#961,#962);
#964=PLANE('',#963);
#965=CARTESIAN_POINT('',(1.85,-0.45,0.22));
#966=VERTEX_POINT('',#965);
#967=CARTESIAN_POINT('',(1.35,-0.45,0.22));
#968=VERTEX_POINT('',#967);
#969=CARTESIAN_POINT('',(1.85,-0.45,0.22));
#970=DIRECTION('',(-1.0,0.0,0.0));
#971=VECTOR('',#970,0.5);
#972=LINE('',#969,#971);
#973=EDGE_CURVE('',#966,#968,#972,.T.);
#974=ORIENTED_EDGE('',*,*,#973,.T.);
#975=CARTESIAN_POINT('',(1.35,-0.45,0.0));
#976=VERTEX_POINT('',#975);
#977=CARTESIAN_POINT('',(1.35,-0.45,0.0));
#978=DIRECTION('',(0.0,0.0,1.0));
#979=VECTOR('',#978,0.22);
#980=LINE('',#977,#979);
#981=EDGE_CURVE('',#976,#968,#980,.T.);
#982=ORIENTED_EDGE('',*,*,#981,.F.);
#983=CARTESIAN_POINT('',(1.85,-0.45,0.0));
#984=VERTEX_POINT('',#983);
#985=CARTESIAN_POINT('',(1.85,-0.45,0.0));
#986=DIRECTION('',(-1.0,0.0,0.0));
#987=VECTOR('',#986,0.5);
#988=LINE('',#985,#987);
#989=EDGE_CURVE('',#984,#976,#988,.T.);
#990=ORIENTED_EDGE('',*,*,#989,.F.);
#991=CARTESIAN_POINT('',(1.85,-0.45,0.0));
#992=DIRECTION('',(0.0,0.0,1.0));
#993=VECTOR('',#992,0.22);
#994=LINE('',#991,#993);
#995=EDGE_CURVE('',#984,#966,#994,.T.);
#996=ORIENTED_EDGE('',*,*,#995,.T.);
#997=EDGE_LOOP('',(#974,#982,#990,#996));
#998=FACE_OUTER_BOUND('',#997,.T.);
#999=ADVANCED_FACE('',(#998),#964,.T.);
#1000=CARTESIAN_POINT('',(1.35,-0.45,0.0));
#1001=DIRECTION('',(-1.0,0.0,0.0));
#1002=DIRECTION('',(0.0,0.0,1.0));
#1003=AXIS2_PLACEMENT_3D('',#1000,#1001,#1002);
#1004=PLANE('',#1003);
#1005=CARTESIAN_POINT('',(1.35,0.45,0.22));
#1006=VERTEX_POINT('',#1005);
#1007=CARTESIAN_POINT('',(1.35,-0.45,0.22));
#1008=DIRECTION('',(0.0,1.0,0.0));
#1009=VECTOR('',#1008,0.9);
#1010=LINE('',#1007,#1009);
#1011=EDGE_CURVE('',#968,#1006,#1010,.T.);
#1012=ORIENTED_EDGE('',*,*,#1011,.T.);
#1013=CARTESIAN_POINT('',(1.35,0.45,0.0));
#1014=VERTEX_POINT('',#1013);
#1015=CARTESIAN_POINT('',(1.35,0.45,0.0));
#1016=DIRECTION('',(0.0,0.0,1.0));
#1017=VECTOR('',#1016,0.22);
#1018=LINE('',#1015,#1017);
#1019=EDGE_CURVE('',#1014,#1006,#1018,.T.);
#1020=ORIENTED_EDGE('',*,*,#1019,.F.);
#1021=CARTESIAN_POINT('',(1.35,-0.45,0.0));
#1022=DIRECTION('',(0.0,1.0,0.0));
#1023=VECTOR('',#1022,0.9);
#1024=LINE('',#1021,#1023);
#1025=EDGE_CURVE('',#976,#1014,#1024,.T.);
#1026=ORIENTED_EDGE('',*,*,#1025,.F.);
#1027=ORIENTED_EDGE('',*,*,#981,.T.);
#1028=EDGE_LOOP('',(#1012,#1020,#1026,#1027));
#1029=FACE_OUTER_BOUND('',#1028,.T.);
#1030=ADVANCED_FACE('',(#1029),#1004,.T.);
#1031=CARTESIAN_POINT('',(1.3,0.45,0.0));
#1032=DIRECTION('',(0.0,1.0,0.0));
#1033=DIRECTION('',(0.0,0.0,1.0));
#1034=AXIS2_PLACEMENT_3D('',#1031,#1032,#1033);
#1035=PLANE('',#1034);
#1036=CARTESIAN_POINT('',(1.85,0.45,0.22));
#1037=VERTEX_POINT('',#1036);
#1038=CARTESIAN_POINT('',(1.35,0.45,0.22));
#1039=DIRECTION('',(1.0,0.0,0.0));
#1040=VECTOR('',#1039,0.5);
#1041=LINE('',#1038,#1040);
#1042=EDGE_CURVE('',#1006,#1037,#1041,.T.);
#1043=ORIENTED_EDGE('',*,*,#1042,.T.);
#1044=CARTESIAN_POINT('',(1.85,0.45,0.0));
#1045=VERTEX_POINT('',#1044);
#1046=CARTESIAN_POINT('',(1.85,0.45,0.22));
#1047=DIRECTION('',(0.0,0.0,-1.0));
#1048=VECTOR('',#1047,0.22);
#1049=LINE('',#1046,#1048);
#1050=EDGE_CURVE('',#1045,#1037,#1049,.F.);
#1051=ORIENTED_EDGE('',*,*,#1050,.F.);
#1052=CARTESIAN_POINT('',(1.35,0.45,0.0));
#1053=DIRECTION('',(1.0,0.0,0.0));
#1054=VECTOR('',#1053,0.5);
#1055=LINE('',#1052,#1054);
#1056=EDGE_CURVE('',#1014,#1045,#1055,.T.);
#1057=ORIENTED_EDGE('',*,*,#1056,.F.);
#1058=ORIENTED_EDGE('',*,*,#1019,.T.);
#1059=EDGE_LOOP('',(#1043,#1051,#1057,#1058));
#1060=FACE_OUTER_BOUND('',#1059,.T.);
#1061=ADVANCED_FACE('',(#1060),#1035,.T.);
#1062=CARTESIAN_POINT('',(1.85,0.45,0.0));
#1063=DIRECTION('',(1.0,0.0,0.0));
#1064=DIRECTION('',(0.0,0.0,-1.0));
#1065=AXIS2_PLACEMENT_3D('',#1062,#1063,#1064);
#1066=PLANE('',#1065);
#1067=CARTESIAN_POINT('',(1.85,-0.45,0.22));
#1068=DIRECTION('',(0.0,1.0,0.0));
#1069=VECTOR('',#1068,0.9);
#1070=LINE('',#1067,#1069);
#1071=EDGE_CURVE('',#1037,#966,#1070,.F.);
#1072=ORIENTED_EDGE('',*,*,#1071,.T.);
#1073=ORIENTED_EDGE('',*,*,#995,.F.);
#1074=CARTESIAN_POINT('',(1.85,0.45,0.0));
#1075=DIRECTION('',(0.0,-1.0,0.0));
#1076=VECTOR('',#1075,0.9);
#1077=LINE('',#1074,#1076);
#1078=EDGE_CURVE('',#1045,#984,#1077,.T.);
#1079=ORIENTED_EDGE('',*,*,#1078,.F.);
#1080=ORIENTED_EDGE('',*,*,#1050,.T.);
#1081=EDGE_LOOP('',(#1072,#1073,#1079,#1080));
#1082=FACE_OUTER_BOUND('',#1081,.T.);
#1083=ADVANCED_FACE('',(#1082),#1066,.T.);
#1084=CARTESIAN_POINT('',(1.675000000000001,-2.775558E-017,0.22));
#1085=DIRECTION('',(0.0,0.0,1.0));
#1086=DIRECTION('',(1.0,0.0,0.0));
#1087=AXIS2_PLACEMENT_3D('',#1084,#1085,#1086);
#1088=PLANE('',#1087);
#1089=ORIENTED_EDGE('',*,*,#973,.F.);
#1090=ORIENTED_EDGE('',*,*,#1071,.F.);
#1091=ORIENTED_EDGE('',*,*,#1042,.F.);
#1092=ORIENTED_EDGE('',*,*,#1011,.F.);
#1093=EDGE_LOOP('',(#1089,#1090,#1091,#1092));
#1094=FACE_OUTER_BOUND('',#1093,.T.);
#1095=ADVANCED_FACE('',(#1094),#1088,.T.);
#1096=CARTESIAN_POINT('',(1.625,-2.775558E-017,0.0));
#1097=DIRECTION('',(0.0,0.0,1.0));
#1098=DIRECTION('',(1.0,0.0,0.0));
#1099=AXIS2_PLACEMENT_3D('',#1096,#1097,#1098);
#1100=PLANE('',#1099);
#1101=ORIENTED_EDGE('',*,*,#1078,.T.);
#1102=ORIENTED_EDGE('',*,*,#989,.T.);
#1103=ORIENTED_EDGE('',*,*,#1025,.T.);
#1104=ORIENTED_EDGE('',*,*,#1056,.T.);
#1105=EDGE_LOOP('',(#1101,#1102,#1103,#1104));
#1106=FACE_OUTER_BOUND('',#1105,.T.);
#1107=ADVANCED_FACE('',(#1106),#1100,.F.);
#1108=CLOSED_SHELL('',(#999,#1030,#1061,#1083,#1095,#1107));
#1109=MANIFOLD_SOLID_BREP('2B87',#1108);
#1110=COLOUR_RGB('254',0.866,0.866,0.866);
#1111=SURFACE_STYLE_USAGE(.BOTH.,#1112);
#1112=SURFACE_SIDE_STYLE('NONE',(#1113));
#1113=SURFACE_STYLE_FILL_AREA(#1114);
#1114=FILL_AREA_STYLE('NONE',(#1115));
#1115=FILL_AREA_STYLE_COLOUR('NONE',#1110);
#1116=PRESENTATION_STYLE_ASSIGNMENT((#1111));
#1117=STYLED_ITEM('NONE',(#1116),#1109);
#1118=CARTESIAN_POINT('',(-1.4,-0.45,0.0));
#1119=DIRECTION('',(0.0,-1.0,0.0));
#1120=DIRECTION('',(0.0,0.0,-1.0));
#1121=AXIS2_PLACEMENT_3D('',#1118,#1119,#1120);
#1122=PLANE('',#1121);
#1123=CARTESIAN_POINT('',(-1.349999999999999,-0.45,0.22));
#1124=VERTEX_POINT('',#1123);
#1125=CARTESIAN_POINT('',(-1.85,-0.45,0.22));
#1126=VERTEX_POINT('',#1125);
#1127=CARTESIAN_POINT('',(-1.349999999999999,-0.45,0.22));
#1128=DIRECTION('',(-1.0,0.0,0.0));
#1129=VECTOR('',#1128,0.5);
#1130=LINE('',#1127,#1129);
#1131=EDGE_CURVE('',#1124,#1126,#1130,.T.);
#1132=ORIENTED_EDGE('',*,*,#1131,.T.);
#1133=CARTESIAN_POINT('',(-1.85,-0.45,0.0));
#1134=VERTEX_POINT('',#1133);
#1135=CARTESIAN_POINT('',(-1.85,-0.45,0.0));
#1136=DIRECTION('',(0.0,0.0,1.0));
#1137=VECTOR('',#1136,0.22);
#1138=LINE('',#1135,#1137);
#1139=EDGE_CURVE('',#1134,#1126,#1138,.T.);
#1140=ORIENTED_EDGE('',*,*,#1139,.F.);
#1141=CARTESIAN_POINT('',(-1.349999999999999,-0.45,0.0));
#1142=VERTEX_POINT('',#1141);
#1143=CARTESIAN_POINT('',(-1.349999999999999,-0.45,0.0));
#1144=DIRECTION('',(-1.0,0.0,0.0));
#1145=VECTOR('',#1144,0.5);
#1146=LINE('',#1143,#1145);
#1147=EDGE_CURVE('',#1142,#1134,#1146,.T.);
#1148=ORIENTED_EDGE('',*,*,#1147,.F.);
#1149=CARTESIAN_POINT('',(-1.349999999999999,-0.45,0.0));
#1150=DIRECTION('',(0.0,0.0,1.0));
#1151=VECTOR('',#1150,0.22);
#1152=LINE('',#1149,#1151);
#1153=EDGE_CURVE('',#1142,#1124,#1152,.T.);
#1154=ORIENTED_EDGE('',*,*,#1153,.T.);
#1155=EDGE_LOOP('',(#1132,#1140,#1148,#1154));
#1156=FACE_OUTER_BOUND('',#1155,.T.);
#1157=ADVANCED_FACE('',(#1156),#1122,.T.);
#1158=CARTESIAN_POINT('',(-1.85,-0.45,0.0));
#1159=DIRECTION('',(-1.0,0.0,0.0));
#1160=DIRECTION('',(0.0,0.0,1.0));
#1161=AXIS2_PLACEMENT_3D('',#1158,#1159,#1160);
#1162=PLANE('',#1161);
#1163=CARTESIAN_POINT('',(-1.85,0.45,0.22));
#1164=VERTEX_POINT('',#1163);
#1165=CARTESIAN_POINT('',(-1.85,0.45,0.22));
#1166=DIRECTION('',(0.0,-1.0,0.0));
#1167=VECTOR('',#1166,0.9);
#1168=LINE('',#1165,#1167);
#1169=EDGE_CURVE('',#1126,#1164,#1168,.F.);
#1170=ORIENTED_EDGE('',*,*,#1169,.T.);
#1171=CARTESIAN_POINT('',(-1.85,0.45,0.0));
#1172=VERTEX_POINT('',#1171);
#1173=CARTESIAN_POINT('',(-1.85,0.45,0.0));
#1174=DIRECTION('',(0.0,0.0,1.0));
#1175=VECTOR('',#1174,0.22);
#1176=LINE('',#1173,#1175);
#1177=EDGE_CURVE('',#1172,#1164,#1176,.T.);
#1178=ORIENTED_EDGE('',*,*,#1177,.F.);
#1179=CARTESIAN_POINT('',(-1.85,-0.45,0.0));
#1180=DIRECTION('',(0.0,1.0,0.0));
#1181=VECTOR('',#1180,0.9);
#1182=LINE('',#1179,#1181);
#1183=EDGE_CURVE('',#1134,#1172,#1182,.T.);
#1184=ORIENTED_EDGE('',*,*,#1183,.F.);
#1185=ORIENTED_EDGE('',*,*,#1139,.T.);
#1186=EDGE_LOOP('',(#1170,#1178,#1184,#1185));
#1187=FACE_OUTER_BOUND('',#1186,.T.);
#1188=ADVANCED_FACE('',(#1187),#1162,.T.);
#1189=CARTESIAN_POINT('',(-1.75,0.45,0.0));
#1190=DIRECTION('',(0.0,1.0,0.0));
#1191=DIRECTION('',(0.0,0.0,1.0));
#1192=AXIS2_PLACEMENT_3D('',#1189,#1190,#1191);
#1193=PLANE('',#1192);
#1194=CARTESIAN_POINT('',(-1.349999999999999,0.45,0.22));
#1195=VERTEX_POINT('',#1194);
#1196=CARTESIAN_POINT('',(-1.85,0.45,0.22));
#1197=DIRECTION('',(1.0,0.0,0.0));
#1198=VECTOR('',#1197,0.5);
#1199=LINE('',#1196,#1198);
#1200=EDGE_CURVE('',#1164,#1195,#1199,.T.);
#1201=ORIENTED_EDGE('',*,*,#1200,.T.);
#1202=CARTESIAN_POINT('',(-1.349999999999999,0.45,0.0));
#1203=VERTEX_POINT('',#1202);
#1204=CARTESIAN_POINT('',(-1.349999999999999,0.45,0.0));
#1205=DIRECTION('',(0.0,0.0,1.0));
#1206=VECTOR('',#1205,0.22);
#1207=LINE('',#1204,#1206);
#1208=EDGE_CURVE('',#1203,#1195,#1207,.T.);
#1209=ORIENTED_EDGE('',*,*,#1208,.F.);
#1210=CARTESIAN_POINT('',(-1.85,0.45,0.0));
#1211=DIRECTION('',(1.0,0.0,0.0));
#1212=VECTOR('',#1211,0.5);
#1213=LINE('',#1210,#1212);
#1214=EDGE_CURVE('',#1172,#1203,#1213,.T.);
#1215=ORIENTED_EDGE('',*,*,#1214,.F.);
#1216=ORIENTED_EDGE('',*,*,#1177,.T.);
#1217=EDGE_LOOP('',(#1201,#1209,#1215,#1216));
#1218=FACE_OUTER_BOUND('',#1217,.T.);
#1219=ADVANCED_FACE('',(#1218),#1193,.T.);
#1220=CARTESIAN_POINT('',(-1.349999999999999,0.45,0.0));
#1221=DIRECTION('',(1.0,0.0,0.0));
#1222=DIRECTION('',(0.0,0.0,-1.0));
#1223=AXIS2_PLACEMENT_3D('',#1220,#1221,#1222);
#1224=PLANE('',#1223);
#1225=CARTESIAN_POINT('',(-1.349999999999999,0.45,0.22));
#1226=DIRECTION('',(0.0,-1.0,0.0));
#1227=VECTOR('',#1226,0.9);
#1228=LINE('',#1225,#1227);
#1229=EDGE_CURVE('',#1195,#1124,#1228,.T.);
#1230=ORIENTED_EDGE('',*,*,#1229,.T.);
#1231=ORIENTED_EDGE('',*,*,#1153,.F.);
#1232=CARTESIAN_POINT('',(-1.349999999999999,0.45,0.0));
#1233=DIRECTION('',(0.0,-1.0,0.0));
#1234=VECTOR('',#1233,0.9);
#1235=LINE('',#1232,#1234);
#1236=EDGE_CURVE('',#1203,#1142,#1235,.T.);
#1237=ORIENTED_EDGE('',*,*,#1236,.F.);
#1238=ORIENTED_EDGE('',*,*,#1208,.T.);
#1239=EDGE_LOOP('',(#1230,#1231,#1237,#1238));
#1240=FACE_OUTER_BOUND('',#1239,.T.);
#1241=ADVANCED_FACE('',(#1240),#1224,.T.);
#1242=CARTESIAN_POINT('',(-1.675,0.0,0.22));
#1243=DIRECTION('',(0.0,0.0,1.0));
#1244=DIRECTION('',(1.0,0.0,0.0));
#1245=AXIS2_PLACEMENT_3D('',#1242,#1243,#1244);
#1246=PLANE('',#1245);
#1247=ORIENTED_EDGE('',*,*,#1131,.F.);
#1248=ORIENTED_EDGE('',*,*,#1229,.F.);
#1249=ORIENTED_EDGE('',*,*,#1200,.F.);
#1250=ORIENTED_EDGE('',*,*,#1169,.F.);
#1251=EDGE_LOOP('',(#1247,#1248,#1249,#1250));
#1252=FACE_OUTER_BOUND('',#1251,.T.);
#1253=ADVANCED_FACE('',(#1252),#1246,.T.);
#1254=CARTESIAN_POINT('',(-1.625,0.0,0.0));
#1255=DIRECTION('',(0.0,0.0,1.0));
#1256=DIRECTION('',(1.0,0.0,0.0));
#1257=AXIS2_PLACEMENT_3D('',#1254,#1255,#1256);
#1258=PLANE('',#1257);
#1259=ORIENTED_EDGE('',*,*,#1236,.T.);
#1260=ORIENTED_EDGE('',*,*,#1147,.T.);
#1261=ORIENTED_EDGE('',*,*,#1183,.T.);
#1262=ORIENTED_EDGE('',*,*,#1214,.T.);
#1263=EDGE_LOOP('',(#1259,#1260,#1261,#1262));
#1264=FACE_OUTER_BOUND('',#1263,.T.);
#1265=ADVANCED_FACE('',(#1264),#1258,.F.);
#1266=CLOSED_SHELL('',(#1157,#1188,#1219,#1241,#1253,#1265));
#1267=MANIFOLD_SOLID_BREP('2B83',#1266);
#1268=STYLED_ITEM('NONE',(#1116),#1267);
#1269=ADVANCED_BREP_SHAPE_REPRESENTATION('ABSR1',(#214,#638,#958,#1109,#1267),#28);
#1270=SHAPE_REPRESENTATION_RELATIONSHIP('SRRPL1','',#1269,#62);
ENDSEC;
END-ISO-10303-21;
