ISO-10303-21;
HEADER;
/****************************************************************
 * Generated by software with PDE/Lib inside                    *
 * PDElib Version v51a, created Mon 11/23/2009                  *
 * ITI Transcendata (http://www.transcendata.com/)              *
 ****************************************************************/
FILE_DESCRIPTION((''),'2;1');
FILE_NAME('SENS_ACTIVE_RBS 040200.stp','2011-04-06T17:42:06',(''),(''),'Mechanical Desktop 2011','Mechanical Desktop 2011',', , ');
FILE_SCHEMA(('AUTOMOTIVE_DESIGN { 1 2 10303 214 1 1 1 1 }'));
ENDSEC;
DATA;
#10=(NAMED_UNIT(*)PLANE_ANGLE_UNIT()SI_UNIT($,.RADIAN.));
#11=DIMENSIONAL_EXPONENTS(0.0,0.0,0.0,0.0,0.0,0.0,0.0);
#12=PLANE_ANGLE_MEASURE_WITH_UNIT(PLANE_ANGLE_MEASURE(0.017453292500000),#10);
#16=(CONVERSION_BASED_UNIT('DEGREE',#12)NAMED_UNIT(#11)PLANE_ANGLE_UNIT());
#20=(NAMED_UNIT(*)SI_UNIT($,.STERADIAN.)SOLID_ANGLE_UNIT());
#24=(LENGTH_UNIT()NAMED_UNIT(*)SI_UNIT(.MILLI.,.METRE.));
#26=UNCERTAINTY_MEASURE_WITH_UNIT(LENGTH_MEASURE(0.000001000000000),#24,'DISTANCE_ACCURACY_VALUE','');
#28=(GEOMETRIC_REPRESENTATION_CONTEXT(3)GLOBAL_UNCERTAINTY_ASSIGNED_CONTEXT((#26))GLOBAL_UNIT_ASSIGNED_CONTEXT((#16,#20,#24))REPRESENTATION_CONTEXT('','3D'));
#29=APPLICATION_CONTEXT('automotive design');
#30=APPLICATION_PROTOCOL_DEFINITION('INTERNATIONAL_STANDARD','automotive_design',1998,#29);
#31=PRODUCT_CONTEXT('3D Mechanical Parts',#29,'mechanical');
#32=PRODUCT('Product','Product','',(#31));
#33=PRODUCT_RELATED_PRODUCT_CATEGORY('part',$,(#32));
#34=PRODUCT_CATEGORY('part',$);
#35=PERSON('1','Design','Joe',$,$,$);
#36=ORGANIZATION($,'None','None');
#37=PERSON_AND_ORGANIZATION(#35,#36);
#38=PERSON_AND_ORGANIZATION_ROLE('design_owner');
#39=APPLIED_PERSON_AND_ORGANIZATION_ASSIGNMENT(#37,#38,(#32));
#40=PRODUCT_DEFINITION_FORMATION_WITH_SPECIFIED_SOURCE('None','',#32,.BOUGHT.);
#41=PERSON('2','Creator','Joe',$,$,$);
#42=ORGANIZATION($,'None','None');
#43=PERSON_AND_ORGANIZATION(#41,#42);
#44=PERSON_AND_ORGANIZATION_ROLE('creator');
#45=APPLIED_PERSON_AND_ORGANIZATION_ASSIGNMENT(#43,#44,(#40));
#46=PERSON('3','Supplier','Joe',$,$,$);
#47=ORGANIZATION($,'None','None');
#48=PERSON_AND_ORGANIZATION(#46,#47);
#49=PERSON_AND_ORGANIZATION_ROLE('design_supplier');
#50=APPLIED_PERSON_AND_ORGANIZATION_ASSIGNMENT(#48,#49,(#40));
#51=PRODUCT_DEFINITION_CONTEXT('part definition',#29,'design');
#52=PRODUCT_DEFINITION('None','',#40,#51);
#53=PERSON('4','Creator','Joe',$,$,$);
#54=ORGANIZATION($,'None','None');
#55=PERSON_AND_ORGANIZATION(#53,#54);
#56=PERSON_AND_ORGANIZATION_ROLE('creator');
#57=APPLIED_PERSON_AND_ORGANIZATION_ASSIGNMENT(#55,#56,(#52));
#58=CARTESIAN_POINT('NONE',(0.0,0.0,0.0));
#59=DIRECTION('NONE',(0.0,0.0,1.0));
#60=DIRECTION('NONE',(1.0,0.0,0.0));
#61=AXIS2_PLACEMENT_3D('NONE',#58,#59,#60);
#62=SHAPE_REPRESENTATION('SR1',(#61),#28);
#63=PRODUCT_DEFINITION_SHAPE('PDS1','Test Part',#52);
#64=SHAPE_DEFINITION_REPRESENTATION(#63,#62);
#65=CARTESIAN_POINT('',(-0.969999999999999,-0.970000000000002,-1.060000000000000));
#66=DIRECTION('',(1.0,0.0,0.0));
#67=DIRECTION('',(0.0,0.0,-1.0));
#68=AXIS2_PLACEMENT_3D('',#65,#66,#67);
#69=PLANE('',#68);
#70=CARTESIAN_POINT('',(-0.970000000000000,-0.970000000000001,3.670000000000000));
#71=VERTEX_POINT('',#70);
#72=CARTESIAN_POINT('',(-0.970000000000000,-1.570000000000001,3.670000000000000));
#73=VERTEX_POINT('',#72);
#74=CARTESIAN_POINT('',(-0.970000000000000,-0.970000000000001,3.670000000000000));
#75=DIRECTION('',(0.0,-1.0,0.0));
#76=VECTOR('',#75,0.600000000000000);
#77=LINE('',#74,#76);
#78=EDGE_CURVE('',#71,#73,#77,.T.);
#79=ORIENTED_EDGE('',*,*,#78,.T.);
#80=CARTESIAN_POINT('',(-0.969999999999999,-1.570000000000003,-3.600000000000000));
#81=VERTEX_POINT('',#80);
#82=CARTESIAN_POINT('',(-0.969999999999999,-1.570000000000003,-3.600000000000000));
#83=DIRECTION('',(0.0,0.0,1.0));
#84=VECTOR('',#83,7.270000000000000);
#85=LINE('',#82,#84);
#86=EDGE_CURVE('',#81,#73,#85,.T.);
#87=ORIENTED_EDGE('',*,*,#86,.F.);
#88=CARTESIAN_POINT('',(-0.969999999999999,-0.970000000000002,-3.600000000000000));
#89=VERTEX_POINT('',#88);
#90=CARTESIAN_POINT('',(-0.969999999999999,-1.570000000000003,-3.600000000000000));
#91=DIRECTION('',(0.0,1.0,0.0));
#92=VECTOR('',#91,0.600000000000000);
#93=LINE('',#90,#92);
#94=EDGE_CURVE('',#81,#89,#93,.T.);
#95=ORIENTED_EDGE('',*,*,#94,.T.);
#96=CARTESIAN_POINT('',(-0.969999999999999,-0.970000000000002,-3.600000000000000));
#97=DIRECTION('',(0.0,0.0,1.0));
#98=VECTOR('',#97,7.270000000000000);
#99=LINE('',#96,#98);
#100=EDGE_CURVE('',#89,#71,#99,.T.);
#101=ORIENTED_EDGE('',*,*,#100,.T.);
#102=EDGE_LOOP('',(#79,#87,#95,#101));
#103=FACE_OUTER_BOUND('',#102,.T.);
#104=ADVANCED_FACE('',(#103),#69,.T.);
#105=CARTESIAN_POINT('',(-0.969999999999999,-1.570000000000002,-1.060000000000000));
#106=DIRECTION('',(0.0,-1.0,0.0));
#107=DIRECTION('',(0.0,0.0,-1.0));
#108=AXIS2_PLACEMENT_3D('',#105,#106,#107);
#109=PLANE('',#108);
#110=CARTESIAN_POINT('',(-1.569999999999999,-1.570000000000003,-3.600000000000000));
#111=VERTEX_POINT('',#110);
#112=CARTESIAN_POINT('',(-1.570000000000001,-1.570000000000001,3.670000000000000));
#113=VERTEX_POINT('',#112);
#114=CARTESIAN_POINT('',(-1.569999999999999,-1.570000000000003,-3.600000000000000));
#115=DIRECTION('',(0.0,0.0,1.0));
#116=VECTOR('',#115,7.270000000000000);
#117=LINE('',#114,#116);
#118=EDGE_CURVE('',#111,#113,#117,.T.);
#119=ORIENTED_EDGE('',*,*,#118,.F.);
#120=CARTESIAN_POINT('',(-1.569999999999999,-1.570000000000003,-3.600000000000000));
#121=DIRECTION('',(1.0,0.0,0.0));
#122=VECTOR('',#121,0.600000000000000);
#123=LINE('',#120,#122);
#124=EDGE_CURVE('',#111,#81,#123,.T.);
#125=ORIENTED_EDGE('',*,*,#124,.T.);
#126=ORIENTED_EDGE('',*,*,#86,.T.);
#127=CARTESIAN_POINT('',(-0.670000000000000,-1.570000000000001,3.970000000000000));
#128=VERTEX_POINT('',#127);
#129=CARTESIAN_POINT('',(-0.670000000000000,-1.570000000000001,3.670000000000000));
#130=DIRECTION('',(1.110223E-016,1.0,-1.110223E-016));
#131=DIRECTION('',(-0.707106781186548,1.570092E-016,0.707106781186547));
#132=AXIS2_PLACEMENT_3D('',#129,#130,#131);
#133=CIRCLE('',#132,0.300000000000000);
#134=EDGE_CURVE('',#73,#128,#133,.T.);
#135=ORIENTED_EDGE('',*,*,#134,.T.);
#136=CARTESIAN_POINT('',(2.770000000000000,-1.570000000000001,3.970000000000001));
#137=VERTEX_POINT('',#136);
#138=CARTESIAN_POINT('',(-0.670000000000000,-1.570000000000001,3.970000000000000));
#139=DIRECTION('',(1.0,0.0,0.0));
#140=VECTOR('',#139,3.440000000000000);
#141=LINE('',#138,#140);
#142=EDGE_CURVE('',#128,#137,#141,.T.);
#143=ORIENTED_EDGE('',*,*,#142,.T.);
#144=CARTESIAN_POINT('',(2.770000000000001,-1.570000000000001,4.570000000000000));
#145=VERTEX_POINT('',#144);
#146=CARTESIAN_POINT('',(2.770000000000000,-1.570000000000001,4.570000000000000));
#147=DIRECTION('',(0.0,0.0,-1.0));
#148=VECTOR('',#147,0.600000000000000);
#149=LINE('',#146,#148);
#150=EDGE_CURVE('',#137,#145,#149,.F.);
#151=ORIENTED_EDGE('',*,*,#150,.T.);
#152=CARTESIAN_POINT('',(-0.670000000000001,-1.570000000000000,4.569999999999999));
#153=VERTEX_POINT('',#152);
#154=CARTESIAN_POINT('',(-0.670000000000001,-1.570000000000000,4.569999999999999));
#155=DIRECTION('',(1.0,0.0,0.0));
#156=VECTOR('',#155,3.440000000000001);
#157=LINE('',#154,#156);
#158=EDGE_CURVE('',#153,#145,#157,.T.);
#159=ORIENTED_EDGE('',*,*,#158,.F.);
#160=CARTESIAN_POINT('',(-0.670000000000000,-1.570000000000001,3.670000000000000));
#161=DIRECTION('',(1.110223E-016,1.0,-1.110223E-016));
#162=DIRECTION('',(-0.707106781186548,1.570092E-016,0.707106781186547));
#163=AXIS2_PLACEMENT_3D('',#160,#161,#162);
#164=CIRCLE('',#163,0.900000000000000);
#165=EDGE_CURVE('',#113,#153,#164,.T.);
#166=ORIENTED_EDGE('',*,*,#165,.F.);
#167=EDGE_LOOP('',(#119,#125,#126,#135,#143,#151,#159,#166));
#168=FACE_OUTER_BOUND('',#167,.T.);
#169=ADVANCED_FACE('',(#168),#109,.T.);
#170=CARTESIAN_POINT('',(-1.569999999999999,-0.970000000000002,-1.060000000000000));
#171=DIRECTION('',(0.0,1.0,0.0));
#172=DIRECTION('',(0.0,0.0,1.0));
#173=AXIS2_PLACEMENT_3D('',#170,#171,#172);
#174=PLANE('',#173);
#175=ORIENTED_EDGE('',*,*,#100,.F.);
#176=CARTESIAN_POINT('',(-1.569999999999999,-0.970000000000002,-3.600000000000000));
#177=VERTEX_POINT('',#176);
#178=CARTESIAN_POINT('',(-0.969999999999999,-0.970000000000002,-3.600000000000000));
#179=DIRECTION('',(-1.0,0.0,0.0));
#180=VECTOR('',#179,0.600000000000000);
#181=LINE('',#178,#180);
#182=EDGE_CURVE('',#89,#177,#181,.T.);
#183=ORIENTED_EDGE('',*,*,#182,.T.);
#184=CARTESIAN_POINT('',(-1.570000000000001,-0.970000000000001,3.670000000000000));
#185=VERTEX_POINT('',#184);
#186=CARTESIAN_POINT('',(-1.569999999999999,-0.970000000000002,-3.600000000000000));
#187=DIRECTION('',(0.0,0.0,1.0));
#188=VECTOR('',#187,7.270000000000000);
#189=LINE('',#186,#188);
#190=EDGE_CURVE('',#177,#185,#189,.T.);
#191=ORIENTED_EDGE('',*,*,#190,.T.);
#192=CARTESIAN_POINT('',(-0.670000000000001,-0.970000000000001,4.569999999999999));
#193=VERTEX_POINT('',#192);
#194=CARTESIAN_POINT('',(-0.670000000000000,-0.970000000000001,3.670000000000000));
#195=DIRECTION('',(1.110223E-016,1.0,-1.110223E-016));
#196=DIRECTION('',(-0.707106781186548,1.570092E-016,0.707106781186547));
#197=AXIS2_PLACEMENT_3D('',#194,#195,#196);
#198=CIRCLE('',#197,0.900000000000000);
#199=EDGE_CURVE('',#185,#193,#198,.T.);
#200=ORIENTED_EDGE('',*,*,#199,.T.);
#201=CARTESIAN_POINT('',(2.770000000000001,-0.970000000000001,4.570000000000000));
#202=VERTEX_POINT('',#201);
#203=CARTESIAN_POINT('',(-0.670000000000001,-0.970000000000001,4.569999999999999));
#204=DIRECTION('',(1.0,0.0,0.0));
#205=VECTOR('',#204,3.440000000000001);
#206=LINE('',#203,#205);
#207=EDGE_CURVE('',#193,#202,#206,.T.);
#208=ORIENTED_EDGE('',*,*,#207,.T.);
#209=CARTESIAN_POINT('',(2.770000000000000,-0.970000000000000,3.970000000000001));
#210=VERTEX_POINT('',#209);
#211=CARTESIAN_POINT('',(2.770000000000000,-0.970000000000001,3.970000000000001));
#212=DIRECTION('',(0.0,0.0,1.0));
#213=VECTOR('',#212,0.600000000000000);
#214=LINE('',#211,#213);
#215=EDGE_CURVE('',#202,#210,#214,.F.);
#216=ORIENTED_EDGE('',*,*,#215,.T.);
#217=CARTESIAN_POINT('',(-0.670000000000000,-0.970000000000001,3.970000000000000));
#218=VERTEX_POINT('',#217);
#219=CARTESIAN_POINT('',(-0.670000000000000,-0.970000000000001,3.970000000000000));
#220=DIRECTION('',(1.0,0.0,0.0));
#221=VECTOR('',#220,3.440000000000000);
#222=LINE('',#219,#221);
#223=EDGE_CURVE('',#218,#210,#222,.T.);
#224=ORIENTED_EDGE('',*,*,#223,.F.);
#225=CARTESIAN_POINT('',(-0.670000000000000,-0.970000000000001,3.670000000000000));
#226=DIRECTION('',(1.110223E-016,1.0,-1.110223E-016));
#227=DIRECTION('',(-0.707106781186548,1.570092E-016,0.707106781186547));
#228=AXIS2_PLACEMENT_3D('',#225,#226,#227);
#229=CIRCLE('',#228,0.300000000000000);
#230=EDGE_CURVE('',#71,#218,#229,.T.);
#231=ORIENTED_EDGE('',*,*,#230,.F.);
#232=EDGE_LOOP('',(#175,#183,#191,#200,#208,#216,#224,#231));
#233=FACE_OUTER_BOUND('',#232,.T.);
#234=ADVANCED_FACE('',(#233),#174,.T.);
#235=CARTESIAN_POINT('',(-0.670000000000000,-1.270000000000001,3.670000000000000));
#236=DIRECTION('',(0.0,1.0,-2.220446E-016));
#237=DIRECTION('',(-0.707106781186548,1.570092E-016,0.707106781186547));
#238=AXIS2_PLACEMENT_3D('',#235,#236,#237);
#239=CYLINDRICAL_SURFACE('',#238,0.900000000000000);
#240=CARTESIAN_POINT('',(-0.670000000000000,-1.570000000000000,4.569999999999999));
#241=DIRECTION('',(0.0,1.0,0.0));
#242=VECTOR('',#241,0.600000000000000);
#243=LINE('',#240,#242);
#244=EDGE_CURVE('',#153,#193,#243,.T.);
#245=ORIENTED_EDGE('',*,*,#244,.T.);
#246=ORIENTED_EDGE('',*,*,#199,.F.);
#247=CARTESIAN_POINT('',(-1.570000000000001,-1.570000000000001,3.670000000000000));
#248=DIRECTION('',(0.0,1.0,0.0));
#249=VECTOR('',#248,0.600000000000000);
#250=LINE('',#247,#249);
#251=EDGE_CURVE('',#113,#185,#250,.T.);
#252=ORIENTED_EDGE('',*,*,#251,.F.);
#253=ORIENTED_EDGE('',*,*,#165,.T.);
#254=EDGE_LOOP('',(#245,#246,#252,#253));
#255=FACE_OUTER_BOUND('',#254,.T.);
#256=ADVANCED_FACE('',(#255),#239,.T.);
#257=CARTESIAN_POINT('',(-0.670000000000000,-0.970000000000001,3.970000000000000));
#258=DIRECTION('',(0.0,0.0,-1.0));
#259=DIRECTION('',(-1.0,0.0,0.0));
#260=AXIS2_PLACEMENT_3D('',#257,#258,#259);
#261=PLANE('',#260);
#262=CARTESIAN_POINT('',(2.770000000000000,-1.570000000000001,3.970000000000001));
#263=DIRECTION('',(0.0,1.0,0.0));
#264=VECTOR('',#263,0.600000000000000);
#265=LINE('',#262,#264);
#266=EDGE_CURVE('',#210,#137,#265,.F.);
#267=ORIENTED_EDGE('',*,*,#266,.T.);
#268=ORIENTED_EDGE('',*,*,#142,.F.);
#269=CARTESIAN_POINT('',(-0.670000000000000,-0.970000000000001,3.970000000000000));
#270=DIRECTION('',(0.0,-1.0,0.0));
#271=VECTOR('',#270,0.600000000000000);
#272=LINE('',#269,#271);
#273=EDGE_CURVE('',#218,#128,#272,.T.);
#274=ORIENTED_EDGE('',*,*,#273,.F.);
#275=ORIENTED_EDGE('',*,*,#223,.T.);
#276=EDGE_LOOP('',(#267,#268,#274,#275));
#277=FACE_OUTER_BOUND('',#276,.T.);
#278=ADVANCED_FACE('',(#277),#261,.T.);
#279=CARTESIAN_POINT('',(-0.670000000000001,-1.570000000000000,4.569999999999999));
#280=DIRECTION('',(0.0,0.0,1.0));
#281=DIRECTION('',(1.0,0.0,0.0));
#282=AXIS2_PLACEMENT_3D('',#279,#280,#281);
#283=PLANE('',#282);
#284=CARTESIAN_POINT('',(2.770000000000001,-0.970000000000001,4.570000000000000));
#285=DIRECTION('',(0.0,-1.0,0.0));
#286=VECTOR('',#285,0.600000000000000);
#287=LINE('',#284,#286);
#288=EDGE_CURVE('',#145,#202,#287,.F.);
#289=ORIENTED_EDGE('',*,*,#288,.T.);
#290=ORIENTED_EDGE('',*,*,#207,.F.);
#291=ORIENTED_EDGE('',*,*,#244,.F.);
#292=ORIENTED_EDGE('',*,*,#158,.T.);
#293=EDGE_LOOP('',(#289,#290,#291,#292));
#294=FACE_OUTER_BOUND('',#293,.T.);
#295=ADVANCED_FACE('',(#294),#283,.T.);
#296=CARTESIAN_POINT('',(2.770000000000001,-1.570000000000000,3.970000000000000));
#297=DIRECTION('',(1.0,0.0,0.0));
#298=DIRECTION('',(0.0,0.0,-1.0));
#299=AXIS2_PLACEMENT_3D('',#296,#297,#298);
#300=PLANE('',#299);
#301=ORIENTED_EDGE('',*,*,#288,.F.);
#302=ORIENTED_EDGE('',*,*,#150,.F.);
#303=ORIENTED_EDGE('',*,*,#266,.F.);
#304=ORIENTED_EDGE('',*,*,#215,.F.);
#305=EDGE_LOOP('',(#301,#302,#303,#304));
#306=FACE_OUTER_BOUND('',#305,.T.);
#307=ADVANCED_FACE('',(#306),#300,.T.);
#308=CARTESIAN_POINT('',(-0.670000000000000,-1.270000000000001,3.670000000000000));
#309=DIRECTION('',(0.0,1.0,-2.220446E-016));
#310=DIRECTION('',(-0.707106781186548,1.570092E-016,0.707106781186547));
#311=AXIS2_PLACEMENT_3D('',#308,#309,#310);
#312=CYLINDRICAL_SURFACE('',#311,0.300000000000000);
#313=ORIENTED_EDGE('',*,*,#273,.T.);
#314=ORIENTED_EDGE('',*,*,#134,.F.);
#315=ORIENTED_EDGE('',*,*,#78,.F.);
#316=ORIENTED_EDGE('',*,*,#230,.T.);
#317=EDGE_LOOP('',(#313,#314,#315,#316));
#318=FACE_OUTER_BOUND('',#317,.T.);
#319=ADVANCED_FACE('',(#318),#312,.F.);
#320=CARTESIAN_POINT('',(-1.269999999999999,-1.270000000000003,-3.600000000000001));
#321=DIRECTION('',(0.0,0.0,1.0));
#322=DIRECTION('',(1.0,0.0,0.0));
#323=AXIS2_PLACEMENT_3D('',#320,#321,#322);
#324=PLANE('',#323);
#325=ORIENTED_EDGE('',*,*,#182,.F.);
#326=ORIENTED_EDGE('',*,*,#94,.F.);
#327=ORIENTED_EDGE('',*,*,#124,.F.);
#328=CARTESIAN_POINT('',(-1.569999999999999,-0.970000000000002,-3.600000000000000));
#329=DIRECTION('',(0.0,-1.0,0.0));
#330=VECTOR('',#329,0.600000000000000);
#331=LINE('',#328,#330);
#332=EDGE_CURVE('',#177,#111,#331,.T.);
#333=ORIENTED_EDGE('',*,*,#332,.F.);
#334=EDGE_LOOP('',(#325,#326,#327,#333));
#335=FACE_OUTER_BOUND('',#334,.T.);
#336=ADVANCED_FACE('',(#335),#324,.F.);
#337=CARTESIAN_POINT('',(-1.569999999999999,-1.570000000000003,-3.600000000000000));
#338=DIRECTION('',(-1.0,0.0,0.0));
#339=DIRECTION('',(0.0,0.0,1.0));
#340=AXIS2_PLACEMENT_3D('',#337,#338,#339);
#341=PLANE('',#340);
#342=ORIENTED_EDGE('',*,*,#251,.T.);
#343=ORIENTED_EDGE('',*,*,#190,.F.);
#344=ORIENTED_EDGE('',*,*,#332,.T.);
#345=ORIENTED_EDGE('',*,*,#118,.T.);
#346=EDGE_LOOP('',(#342,#343,#344,#345));
#347=FACE_OUTER_BOUND('',#346,.T.);
#348=ADVANCED_FACE('',(#347),#341,.T.);
#349=CLOSED_SHELL('',(#104,#169,#234,#256,#278,#295,#307,#319,#336,#348));
#350=MANIFOLD_SOLID_BREP('8CB',#349);
#351=COLOUR_RGB('40',1.0,0.750000000000000,0.0);
#352=SURFACE_STYLE_USAGE(.BOTH.,#353);
#353=SURFACE_SIDE_STYLE('NONE',(#354));
#354=SURFACE_STYLE_FILL_AREA(#355);
#355=FILL_AREA_STYLE('NONE',(#356));
#356=FILL_AREA_STYLE_COLOUR('NONE',#351);
#357=PRESENTATION_STYLE_ASSIGNMENT((#352));
#358=STYLED_ITEM('NONE',(#357),#350);
#359=MECHANICAL_DESIGN_GEOMETRIC_PRESENTATION_REPRESENTATION('NONE',(#358,#647,#934,#1221,#1511),#28);
#360=PRESENTATION_LAYER_ASSIGNMENT('3D','None',(#350,#646,#933,#1220,#1503));
#361=CARTESIAN_POINT('',(-0.969999999999999,1.569999999999998,-1.060000000000000));
#362=DIRECTION('',(1.0,0.0,0.0));
#363=DIRECTION('',(0.0,0.0,-1.0));
#364=AXIS2_PLACEMENT_3D('',#361,#362,#363);
#365=PLANE('',#364);
#366=CARTESIAN_POINT('',(-0.970000000000000,1.569999999999999,3.670000000000000));
#367=VERTEX_POINT('',#366);
#368=CARTESIAN_POINT('',(-0.970000000000000,0.969999999999999,3.670000000000000));
#369=VERTEX_POINT('',#368);
#370=CARTESIAN_POINT('',(-0.970000000000000,1.569999999999999,3.670000000000000));
#371=DIRECTION('',(0.0,-1.0,0.0));
#372=VECTOR('',#371,0.600000000000000);
#373=LINE('',#370,#372);
#374=EDGE_CURVE('',#367,#369,#373,.T.);
#375=ORIENTED_EDGE('',*,*,#374,.T.);
#376=CARTESIAN_POINT('',(-0.969999999999999,0.969999999999998,-3.600000000000000));
#377=VERTEX_POINT('',#376);
#378=CARTESIAN_POINT('',(-0.969999999999999,0.969999999999998,-3.600000000000000));
#379=DIRECTION('',(0.0,0.0,1.0));
#380=VECTOR('',#379,7.270000000000000);
#381=LINE('',#378,#380);
#382=EDGE_CURVE('',#377,#369,#381,.T.);
#383=ORIENTED_EDGE('',*,*,#382,.F.);
#384=CARTESIAN_POINT('',(-0.969999999999999,1.569999999999998,-3.600000000000000));
#385=VERTEX_POINT('',#384);
#386=CARTESIAN_POINT('',(-0.969999999999999,0.969999999999998,-3.600000000000000));
#387=DIRECTION('',(0.0,1.0,0.0));
#388=VECTOR('',#387,0.600000000000000);
#389=LINE('',#386,#388);
#390=EDGE_CURVE('',#377,#385,#389,.T.);
#391=ORIENTED_EDGE('',*,*,#390,.T.);
#392=CARTESIAN_POINT('',(-0.969999999999999,1.569999999999998,-3.600000000000000));
#393=DIRECTION('',(0.0,0.0,1.0));
#394=VECTOR('',#393,7.270000000000000);
#395=LINE('',#392,#394);
#396=EDGE_CURVE('',#385,#367,#395,.T.);
#397=ORIENTED_EDGE('',*,*,#396,.T.);
#398=EDGE_LOOP('',(#375,#383,#391,#397));
#399=FACE_OUTER_BOUND('',#398,.T.);
#400=ADVANCED_FACE('',(#399),#365,.T.);
#401=CARTESIAN_POINT('',(-0.969999999999999,0.969999999999998,-1.060000000000000));
#402=DIRECTION('',(0.0,-1.0,0.0));
#403=DIRECTION('',(0.0,0.0,-1.0));
#404=AXIS2_PLACEMENT_3D('',#401,#402,#403);
#405=PLANE('',#404);
#406=CARTESIAN_POINT('',(-1.569999999999999,0.969999999999998,-3.600000000000000));
#407=VERTEX_POINT('',#406);
#408=CARTESIAN_POINT('',(-1.570000000000001,0.969999999999999,3.670000000000000));
#409=VERTEX_POINT('',#408);
#410=CARTESIAN_POINT('',(-1.569999999999999,0.969999999999998,-3.600000000000000));
#411=DIRECTION('',(0.0,0.0,1.0));
#412=VECTOR('',#411,7.270000000000000);
#413=LINE('',#410,#412);
#414=EDGE_CURVE('',#407,#409,#413,.T.);
#415=ORIENTED_EDGE('',*,*,#414,.F.);
#416=CARTESIAN_POINT('',(-1.569999999999999,0.969999999999998,-3.600000000000000));
#417=DIRECTION('',(1.0,0.0,0.0));
#418=VECTOR('',#417,0.600000000000000);
#419=LINE('',#416,#418);
#420=EDGE_CURVE('',#407,#377,#419,.T.);
#421=ORIENTED_EDGE('',*,*,#420,.T.);
#422=ORIENTED_EDGE('',*,*,#382,.T.);
#423=CARTESIAN_POINT('',(-0.670000000000000,0.970000000000000,3.970000000000000));
#424=VERTEX_POINT('',#423);
#425=CARTESIAN_POINT('',(-0.670000000000000,0.969999999999999,3.670000000000000));
#426=DIRECTION('',(1.110223E-016,1.0,-1.110223E-016));
#427=DIRECTION('',(-0.707106781186548,1.570092E-016,0.707106781186547));
#428=AXIS2_PLACEMENT_3D('',#425,#426,#427);
#429=CIRCLE('',#428,0.300000000000000);
#430=EDGE_CURVE('',#369,#424,#429,.T.);
#431=ORIENTED_EDGE('',*,*,#430,.T.);
#432=CARTESIAN_POINT('',(2.770000000000000,0.969999999999999,3.970000000000001));
#433=VERTEX_POINT('',#432);
#434=CARTESIAN_POINT('',(-0.670000000000000,0.970000000000000,3.970000000000000));
#435=DIRECTION('',(1.0,0.0,0.0));
#436=VECTOR('',#435,3.440000000000000);
#437=LINE('',#434,#436);
#438=EDGE_CURVE('',#424,#433,#437,.T.);
#439=ORIENTED_EDGE('',*,*,#438,.T.);
#440=CARTESIAN_POINT('',(2.770000000000001,0.969999999999999,4.570000000000000));
#441=VERTEX_POINT('',#440);
#442=CARTESIAN_POINT('',(2.770000000000000,0.969999999999999,4.570000000000000));
#443=DIRECTION('',(0.0,0.0,-1.0));
#444=VECTOR('',#443,0.600000000000000);
#445=LINE('',#442,#444);
#446=EDGE_CURVE('',#433,#441,#445,.F.);
#447=ORIENTED_EDGE('',*,*,#446,.T.);
#448=CARTESIAN_POINT('',(-0.670000000000001,0.970000000000000,4.569999999999999));
#449=VERTEX_POINT('',#448);
#450=CARTESIAN_POINT('',(-0.670000000000001,0.970000000000000,4.569999999999999));
#451=DIRECTION('',(1.0,0.0,0.0));
#452=VECTOR('',#451,3.440000000000001);
#453=LINE('',#450,#452);
#454=EDGE_CURVE('',#449,#441,#453,.T.);
#455=ORIENTED_EDGE('',*,*,#454,.F.);
#456=CARTESIAN_POINT('',(-0.670000000000000,0.969999999999999,3.670000000000000));
#457=DIRECTION('',(1.110223E-016,1.0,-1.110223E-016));
#458=DIRECTION('',(-0.707106781186548,1.570092E-016,0.707106781186547));
#459=AXIS2_PLACEMENT_3D('',#456,#457,#458);
#460=CIRCLE('',#459,0.900000000000000);
#461=EDGE_CURVE('',#409,#449,#460,.T.);
#462=ORIENTED_EDGE('',*,*,#461,.F.);
#463=EDGE_LOOP('',(#415,#421,#422,#431,#439,#447,#455,#462));
#464=FACE_OUTER_BOUND('',#463,.T.);
#465=ADVANCED_FACE('',(#464),#405,.T.);
#466=CARTESIAN_POINT('',(-1.569999999999999,1.569999999999998,-1.060000000000000));
#467=DIRECTION('',(0.0,1.0,0.0));
#468=DIRECTION('',(0.0,0.0,1.0));
#469=AXIS2_PLACEMENT_3D('',#466,#467,#468);
#470=PLANE('',#469);
#471=ORIENTED_EDGE('',*,*,#396,.F.);
#472=CARTESIAN_POINT('',(-1.569999999999999,1.569999999999998,-3.600000000000000));
#473=VERTEX_POINT('',#472);
#474=CARTESIAN_POINT('',(-0.969999999999999,1.569999999999998,-3.600000000000000));
#475=DIRECTION('',(-1.0,0.0,0.0));
#476=VECTOR('',#475,0.600000000000000);
#477=LINE('',#474,#476);
#478=EDGE_CURVE('',#385,#473,#477,.T.);
#479=ORIENTED_EDGE('',*,*,#478,.T.);
#480=CARTESIAN_POINT('',(-1.570000000000001,1.569999999999999,3.670000000000000));
#481=VERTEX_POINT('',#480);
#482=CARTESIAN_POINT('',(-1.569999999999999,1.569999999999998,-3.600000000000000));
#483=DIRECTION('',(0.0,0.0,1.0));
#484=VECTOR('',#483,7.270000000000000);
#485=LINE('',#482,#484);
#486=EDGE_CURVE('',#473,#481,#485,.T.);
#487=ORIENTED_EDGE('',*,*,#486,.T.);
#488=CARTESIAN_POINT('',(-0.670000000000001,1.569999999999999,4.569999999999999));
#489=VERTEX_POINT('',#488);
#490=CARTESIAN_POINT('',(-0.670000000000000,1.569999999999999,3.670000000000000));
#491=DIRECTION('',(1.110223E-016,1.0,-1.110223E-016));
#492=DIRECTION('',(-0.707106781186548,1.570092E-016,0.707106781186547));
#493=AXIS2_PLACEMENT_3D('',#490,#491,#492);
#494=CIRCLE('',#493,0.900000000000000);
#495=EDGE_CURVE('',#481,#489,#494,.T.);
#496=ORIENTED_EDGE('',*,*,#495,.T.);
#497=CARTESIAN_POINT('',(2.770000000000001,1.569999999999999,4.570000000000000));
#498=VERTEX_POINT('',#497);
#499=CARTESIAN_POINT('',(-0.670000000000001,1.569999999999999,4.569999999999999));
#500=DIRECTION('',(1.0,0.0,0.0));
#501=VECTOR('',#500,3.440000000000001);
#502=LINE('',#499,#501);
#503=EDGE_CURVE('',#489,#498,#502,.T.);
#504=ORIENTED_EDGE('',*,*,#503,.T.);
#505=CARTESIAN_POINT('',(2.770000000000000,1.570000000000000,3.970000000000001));
#506=VERTEX_POINT('',#505);
#507=CARTESIAN_POINT('',(2.770000000000000,1.570000000000000,3.970000000000001));
#508=DIRECTION('',(0.0,0.0,1.0));
#509=VECTOR('',#508,0.600000000000000);
#510=LINE('',#507,#509);
#511=EDGE_CURVE('',#498,#506,#510,.F.);
#512=ORIENTED_EDGE('',*,*,#511,.T.);
#513=CARTESIAN_POINT('',(-0.670000000000000,1.569999999999999,3.970000000000000));
#514=VERTEX_POINT('',#513);
#515=CARTESIAN_POINT('',(-0.670000000000000,1.569999999999999,3.970000000000000));
#516=DIRECTION('',(1.0,0.0,0.0));
#517=VECTOR('',#516,3.440000000000000);
#518=LINE('',#515,#517);
#519=EDGE_CURVE('',#514,#506,#518,.T.);
#520=ORIENTED_EDGE('',*,*,#519,.F.);
#521=CARTESIAN_POINT('',(-0.670000000000000,1.569999999999999,3.670000000000000));
#522=DIRECTION('',(1.110223E-016,1.0,-1.110223E-016));
#523=DIRECTION('',(-0.707106781186548,1.570092E-016,0.707106781186547));
#524=AXIS2_PLACEMENT_3D('',#521,#522,#523);
#525=CIRCLE('',#524,0.300000000000000);
#526=EDGE_CURVE('',#367,#514,#525,.T.);
#527=ORIENTED_EDGE('',*,*,#526,.F.);
#528=EDGE_LOOP('',(#471,#479,#487,#496,#504,#512,#520,#527));
#529=FACE_OUTER_BOUND('',#528,.T.);
#530=ADVANCED_FACE('',(#529),#470,.T.);
#531=CARTESIAN_POINT('',(-0.670000000000000,1.269999999999999,3.670000000000000));
#532=DIRECTION('',(0.0,1.0,-2.220446E-016));
#533=DIRECTION('',(-0.707106781186548,1.570092E-016,0.707106781186547));
#534=AXIS2_PLACEMENT_3D('',#531,#532,#533);
#535=CYLINDRICAL_SURFACE('',#534,0.900000000000000);
#536=CARTESIAN_POINT('',(-0.670000000000000,0.970000000000000,4.569999999999999));
#537=DIRECTION('',(0.0,1.0,0.0));
#538=VECTOR('',#537,0.600000000000000);
#539=LINE('',#536,#538);
#540=EDGE_CURVE('',#449,#489,#539,.T.);
#541=ORIENTED_EDGE('',*,*,#540,.T.);
#542=ORIENTED_EDGE('',*,*,#495,.F.);
#543=CARTESIAN_POINT('',(-1.570000000000001,0.969999999999999,3.670000000000000));
#544=DIRECTION('',(0.0,1.0,0.0));
#545=VECTOR('',#544,0.600000000000000);
#546=LINE('',#543,#545);
#547=EDGE_CURVE('',#409,#481,#546,.T.);
#548=ORIENTED_EDGE('',*,*,#547,.F.);
#549=ORIENTED_EDGE('',*,*,#461,.T.);
#550=EDGE_LOOP('',(#541,#542,#548,#549));
#551=FACE_OUTER_BOUND('',#550,.T.);
#552=ADVANCED_FACE('',(#551),#535,.T.);
#553=CARTESIAN_POINT('',(-0.670000000000000,1.569999999999999,3.970000000000000));
#554=DIRECTION('',(0.0,0.0,-1.0));
#555=DIRECTION('',(-1.0,0.0,0.0));
#556=AXIS2_PLACEMENT_3D('',#553,#554,#555);
#557=PLANE('',#556);
#558=CARTESIAN_POINT('',(2.770000000000000,0.969999999999999,3.970000000000001));
#559=DIRECTION('',(0.0,1.0,0.0));
#560=VECTOR('',#559,0.600000000000000);
#561=LINE('',#558,#560);
#562=EDGE_CURVE('',#506,#433,#561,.F.);
#563=ORIENTED_EDGE('',*,*,#562,.T.);
#564=ORIENTED_EDGE('',*,*,#438,.F.);
#565=CARTESIAN_POINT('',(-0.670000000000000,1.569999999999999,3.970000000000000));
#566=DIRECTION('',(0.0,-1.0,0.0));
#567=VECTOR('',#566,0.600000000000000);
#568=LINE('',#565,#567);
#569=EDGE_CURVE('',#514,#424,#568,.T.);
#570=ORIENTED_EDGE('',*,*,#569,.F.);
#571=ORIENTED_EDGE('',*,*,#519,.T.);
#572=EDGE_LOOP('',(#563,#564,#570,#571));
#573=FACE_OUTER_BOUND('',#572,.T.);
#574=ADVANCED_FACE('',(#573),#557,.T.);
#575=CARTESIAN_POINT('',(-0.670000000000001,0.970000000000000,4.569999999999999));
#576=DIRECTION('',(0.0,0.0,1.0));
#577=DIRECTION('',(1.0,0.0,0.0));
#578=AXIS2_PLACEMENT_3D('',#575,#576,#577);
#579=PLANE('',#578);
#580=CARTESIAN_POINT('',(2.770000000000001,1.569999999999999,4.570000000000000));
#581=DIRECTION('',(0.0,-1.0,0.0));
#582=VECTOR('',#581,0.600000000000000);
#583=LINE('',#580,#582);
#584=EDGE_CURVE('',#441,#498,#583,.F.);
#585=ORIENTED_EDGE('',*,*,#584,.T.);
#586=ORIENTED_EDGE('',*,*,#503,.F.);
#587=ORIENTED_EDGE('',*,*,#540,.F.);
#588=ORIENTED_EDGE('',*,*,#454,.T.);
#589=EDGE_LOOP('',(#585,#586,#587,#588));
#590=FACE_OUTER_BOUND('',#589,.T.);
#591=ADVANCED_FACE('',(#590),#579,.T.);
#592=CARTESIAN_POINT('',(2.770000000000001,0.970000000000000,3.970000000000000));
#593=DIRECTION('',(1.0,0.0,0.0));
#594=DIRECTION('',(0.0,0.0,-1.0));
#595=AXIS2_PLACEMENT_3D('',#592,#593,#594);
#596=PLANE('',#595);
#597=ORIENTED_EDGE('',*,*,#584,.F.);
#598=ORIENTED_EDGE('',*,*,#446,.F.);
#599=ORIENTED_EDGE('',*,*,#562,.F.);
#600=ORIENTED_EDGE('',*,*,#511,.F.);
#601=EDGE_LOOP('',(#597,#598,#599,#600));
#602=FACE_OUTER_BOUND('',#601,.T.);
#603=ADVANCED_FACE('',(#602),#596,.T.);
#604=CARTESIAN_POINT('',(-0.670000000000000,1.269999999999999,3.670000000000000));
#605=DIRECTION('',(0.0,1.0,-2.220446E-016));
#606=DIRECTION('',(-0.707106781186548,1.570092E-016,0.707106781186547));
#607=AXIS2_PLACEMENT_3D('',#604,#605,#606);
#608=CYLINDRICAL_SURFACE('',#607,0.300000000000000);
#609=ORIENTED_EDGE('',*,*,#569,.T.);
#610=ORIENTED_EDGE('',*,*,#430,.F.);
#611=ORIENTED_EDGE('',*,*,#374,.F.);
#612=ORIENTED_EDGE('',*,*,#526,.T.);
#613=EDGE_LOOP('',(#609,#610,#611,#612));
#614=FACE_OUTER_BOUND('',#613,.T.);
#615=ADVANCED_FACE('',(#614),#608,.F.);
#616=CARTESIAN_POINT('',(-1.269999999999999,1.269999999999997,-3.600000000000001));
#617=DIRECTION('',(0.0,0.0,1.0));
#618=DIRECTION('',(1.0,0.0,0.0));
#619=AXIS2_PLACEMENT_3D('',#616,#617,#618);
#620=PLANE('',#619);
#621=ORIENTED_EDGE('',*,*,#478,.F.);
#622=ORIENTED_EDGE('',*,*,#390,.F.);
#623=ORIENTED_EDGE('',*,*,#420,.F.);
#624=CARTESIAN_POINT('',(-1.569999999999999,1.569999999999998,-3.600000000000000));
#625=DIRECTION('',(0.0,-1.0,0.0));
#626=VECTOR('',#625,0.600000000000000);
#627=LINE('',#624,#626);
#628=EDGE_CURVE('',#473,#407,#627,.T.);
#629=ORIENTED_EDGE('',*,*,#628,.F.);
#630=EDGE_LOOP('',(#621,#622,#623,#629));
#631=FACE_OUTER_BOUND('',#630,.T.);
#632=ADVANCED_FACE('',(#631),#620,.F.);
#633=CARTESIAN_POINT('',(-1.569999999999999,0.969999999999998,-3.600000000000000));
#634=DIRECTION('',(-1.0,0.0,0.0));
#635=DIRECTION('',(0.0,0.0,1.0));
#636=AXIS2_PLACEMENT_3D('',#633,#634,#635);
#637=PLANE('',#636);
#638=ORIENTED_EDGE('',*,*,#547,.T.);
#639=ORIENTED_EDGE('',*,*,#486,.F.);
#640=ORIENTED_EDGE('',*,*,#628,.T.);
#641=ORIENTED_EDGE('',*,*,#414,.T.);
#642=EDGE_LOOP('',(#638,#639,#640,#641));
#643=FACE_OUTER_BOUND('',#642,.T.);
#644=ADVANCED_FACE('',(#643),#637,.T.);
#645=CLOSED_SHELL('',(#400,#465,#530,#552,#574,#591,#603,#615,#632,#644));
#646=MANIFOLD_SOLID_BREP('8C1',#645);
#647=STYLED_ITEM('NONE',(#357),#646);
#648=CARTESIAN_POINT('',(1.869999999999999,0.970000000000002,2.029999999999999));
#649=DIRECTION('',(0.0,0.0,1.0));
#650=DIRECTION('',(1.0,0.0,0.0));
#651=AXIS2_PLACEMENT_3D('',#648,#649,#650);
#652=PLANE('',#651);
#653=CARTESIAN_POINT('',(2.770000000000000,0.970000000000002,2.029999999999999));
#654=VERTEX_POINT('',#653);
#655=CARTESIAN_POINT('',(2.770000000000000,1.570000000000001,2.029999999999999));
#656=VERTEX_POINT('',#655);
#657=CARTESIAN_POINT('',(2.770000000000001,0.970000000000002,2.029999999999999));
#658=DIRECTION('',(0.0,1.0,0.0));
#659=VECTOR('',#658,0.600000000000000);
#660=LINE('',#657,#659);
#661=EDGE_CURVE('',#654,#656,#660,.T.);
#662=ORIENTED_EDGE('',*,*,#661,.T.);
#663=CARTESIAN_POINT('',(1.869999999999999,1.570000000000001,2.029999999999999));
#664=VERTEX_POINT('',#663);
#665=CARTESIAN_POINT('',(1.869999999999999,1.570000000000001,2.029999999999999));
#666=DIRECTION('',(1.0,0.0,0.0));
#667=VECTOR('',#666,0.900000000000001);
#668=LINE('',#665,#667);
#669=EDGE_CURVE('',#664,#656,#668,.T.);
#670=ORIENTED_EDGE('',*,*,#669,.F.);
#671=CARTESIAN_POINT('',(1.869999999999999,0.970000000000002,2.029999999999999));
#672=VERTEX_POINT('',#671);
#673=CARTESIAN_POINT('',(1.870000000000000,0.970000000000002,2.029999999999999));
#674=DIRECTION('',(0.0,1.0,0.0));
#675=VECTOR('',#674,0.600000000000000);
#676=LINE('',#673,#675);
#677=EDGE_CURVE('',#672,#664,#676,.T.);
#678=ORIENTED_EDGE('',*,*,#677,.F.);
#679=CARTESIAN_POINT('',(1.869999999999999,0.970000000000002,2.029999999999999));
#680=DIRECTION('',(1.0,0.0,0.0));
#681=VECTOR('',#680,0.900000000000001);
#682=LINE('',#679,#681);
#683=EDGE_CURVE('',#672,#654,#682,.T.);
#684=ORIENTED_EDGE('',*,*,#683,.T.);
#685=EDGE_LOOP('',(#662,#670,#678,#684));
#686=FACE_OUTER_BOUND('',#685,.T.);
#687=ADVANCED_FACE('',(#686),#652,.T.);
#688=CARTESIAN_POINT('',(1.870000000000000,1.570000000000001,1.430000000000000));
#689=DIRECTION('',(0.0,0.0,-1.0));
#690=DIRECTION('',(-1.0,0.0,0.0));
#691=AXIS2_PLACEMENT_3D('',#688,#689,#690);
#692=PLANE('',#691);
#693=CARTESIAN_POINT('',(2.770000000000001,1.570000000000001,1.430000000000000));
#694=VERTEX_POINT('',#693);
#695=CARTESIAN_POINT('',(2.770000000000001,0.970000000000002,1.430000000000000));
#696=VERTEX_POINT('',#695);
#697=CARTESIAN_POINT('',(2.770000000000001,1.570000000000001,1.430000000000000));
#698=DIRECTION('',(0.0,-1.0,0.0));
#699=VECTOR('',#698,0.600000000000000);
#700=LINE('',#697,#699);
#701=EDGE_CURVE('',#694,#696,#700,.T.);
#702=ORIENTED_EDGE('',*,*,#701,.T.);
#703=CARTESIAN_POINT('',(1.870000000000000,0.970000000000002,1.430000000000000));
#704=VERTEX_POINT('',#703);
#705=CARTESIAN_POINT('',(1.870000000000000,0.970000000000002,1.430000000000000));
#706=DIRECTION('',(1.0,0.0,0.0));
#707=VECTOR('',#706,0.900000000000001);
#708=LINE('',#705,#707);
#709=EDGE_CURVE('',#704,#696,#708,.T.);
#710=ORIENTED_EDGE('',*,*,#709,.F.);
#711=CARTESIAN_POINT('',(1.870000000000000,1.570000000000001,1.430000000000000));
#712=VERTEX_POINT('',#711);
#713=CARTESIAN_POINT('',(1.870000000000000,1.570000000000001,1.429999999999999));
#714=DIRECTION('',(0.0,-1.0,0.0));
#715=VECTOR('',#714,0.600000000000000);
#716=LINE('',#713,#715);
#717=EDGE_CURVE('',#712,#704,#716,.T.);
#718=ORIENTED_EDGE('',*,*,#717,.F.);
#719=CARTESIAN_POINT('',(1.870000000000000,1.570000000000001,1.430000000000000));
#720=DIRECTION('',(1.0,0.0,0.0));
#721=VECTOR('',#720,0.900000000000001);
#722=LINE('',#719,#721);
#723=EDGE_CURVE('',#712,#694,#722,.T.);
#724=ORIENTED_EDGE('',*,*,#723,.T.);
#725=EDGE_LOOP('',(#702,#710,#718,#724));
#726=FACE_OUTER_BOUND('',#725,.T.);
#727=ADVANCED_FACE('',(#726),#692,.T.);
#728=CARTESIAN_POINT('',(1.870000000000000,1.270000000000001,1.129999999999999));
#729=DIRECTION('',(0.0,1.0,-2.220446E-016));
#730=DIRECTION('',(-0.707106781186548,1.570092E-016,0.707106781186547));
#731=AXIS2_PLACEMENT_3D('',#728,#729,#730);
#732=CYLINDRICAL_SURFACE('',#731,0.900000000000000);
#733=ORIENTED_EDGE('',*,*,#677,.T.);
#734=CARTESIAN_POINT('',(0.970000000000000,1.570000000000001,1.129999999999999));
#735=VERTEX_POINT('',#734);
#736=CARTESIAN_POINT('',(1.870000000000000,1.570000000000001,1.129999999999999));
#737=DIRECTION('',(1.110223E-016,1.0,-1.110223E-016));
#738=DIRECTION('',(-0.707106781186548,1.570092E-016,0.707106781186547));
#739=AXIS2_PLACEMENT_3D('',#736,#737,#738);
#740=CIRCLE('',#739,0.900000000000000);
#741=EDGE_CURVE('',#735,#664,#740,.T.);
#742=ORIENTED_EDGE('',*,*,#741,.F.);
#743=CARTESIAN_POINT('',(0.970000000000000,0.970000000000001,1.129999999999999));
#744=VERTEX_POINT('',#743);
#745=CARTESIAN_POINT('',(0.970000000000000,0.970000000000001,1.129999999999999));
#746=DIRECTION('',(0.0,1.0,0.0));
#747=VECTOR('',#746,0.600000000000000);
#748=LINE('',#745,#747);
#749=EDGE_CURVE('',#744,#735,#748,.T.);
#750=ORIENTED_EDGE('',*,*,#749,.F.);
#751=CARTESIAN_POINT('',(1.870000000000000,0.970000000000001,1.129999999999999));
#752=DIRECTION('',(1.110223E-016,1.0,-1.110223E-016));
#753=DIRECTION('',(-0.707106781186548,1.570092E-016,0.707106781186547));
#754=AXIS2_PLACEMENT_3D('',#751,#752,#753);
#755=CIRCLE('',#754,0.900000000000000);
#756=EDGE_CURVE('',#744,#672,#755,.T.);
#757=ORIENTED_EDGE('',*,*,#756,.T.);
#758=EDGE_LOOP('',(#733,#742,#750,#757));
#759=FACE_OUTER_BOUND('',#758,.T.);
#760=ADVANCED_FACE('',(#759),#732,.T.);
#761=CARTESIAN_POINT('',(1.870000000000000,1.270000000000001,1.129999999999999));
#762=DIRECTION('',(0.0,1.0,-2.220446E-016));
#763=DIRECTION('',(-0.707106781186548,1.570092E-016,0.707106781186547));
#764=AXIS2_PLACEMENT_3D('',#761,#762,#763);
#765=CYLINDRICAL_SURFACE('',#764,0.300000000000000);
#766=ORIENTED_EDGE('',*,*,#717,.T.);
#767=CARTESIAN_POINT('',(1.570000000000000,0.970000000000001,1.129999999999999));
#768=VERTEX_POINT('',#767);
#769=CARTESIAN_POINT('',(1.870000000000000,0.970000000000001,1.129999999999999));
#770=DIRECTION('',(1.110223E-016,1.0,-1.110223E-016));
#771=DIRECTION('',(-0.707106781186548,1.570092E-016,0.707106781186547));
#772=AXIS2_PLACEMENT_3D('',#769,#770,#771);
#773=CIRCLE('',#772,0.300000000000000);
#774=EDGE_CURVE('',#768,#704,#773,.T.);
#775=ORIENTED_EDGE('',*,*,#774,.F.);
#776=CARTESIAN_POINT('',(1.570000000000000,1.570000000000001,1.129999999999999));
#777=VERTEX_POINT('',#776);
#778=CARTESIAN_POINT('',(1.570000000000000,1.570000000000001,1.129999999999999));
#779=DIRECTION('',(0.0,-1.0,0.0));
#780=VECTOR('',#779,0.600000000000000);
#781=LINE('',#778,#780);
#782=EDGE_CURVE('',#777,#768,#781,.T.);
#783=ORIENTED_EDGE('',*,*,#782,.F.);
#784=CARTESIAN_POINT('',(1.870000000000000,1.570000000000001,1.129999999999999));
#785=DIRECTION('',(1.110223E-016,1.0,-1.110223E-016));
#786=DIRECTION('',(-0.707106781186548,1.570092E-016,0.707106781186547));
#787=AXIS2_PLACEMENT_3D('',#784,#785,#786);
#788=CIRCLE('',#787,0.300000000000000);
#789=EDGE_CURVE('',#777,#712,#788,.T.);
#790=ORIENTED_EDGE('',*,*,#789,.T.);
#791=EDGE_LOOP('',(#766,#775,#783,#790));
#792=FACE_OUTER_BOUND('',#791,.T.);
#793=ADVANCED_FACE('',(#792),#765,.F.);
#794=CARTESIAN_POINT('',(1.570000000000001,1.570000000000000,-3.600000000000000));
#795=DIRECTION('',(1.0,0.0,0.0));
#796=DIRECTION('',(0.0,0.0,-1.0));
#797=AXIS2_PLACEMENT_3D('',#794,#795,#796);
#798=PLANE('',#797);
#799=ORIENTED_EDGE('',*,*,#782,.T.);
#800=CARTESIAN_POINT('',(1.570000000000001,0.970000000000000,-3.600000000000000));
#801=VERTEX_POINT('',#800);
#802=CARTESIAN_POINT('',(1.570000000000001,0.970000000000000,-3.600000000000000));
#803=DIRECTION('',(0.0,0.0,1.0));
#804=VECTOR('',#803,4.730000000000000);
#805=LINE('',#802,#804);
#806=EDGE_CURVE('',#801,#768,#805,.T.);
#807=ORIENTED_EDGE('',*,*,#806,.F.);
#808=CARTESIAN_POINT('',(1.570000000000001,1.570000000000000,-3.600000000000000));
#809=VERTEX_POINT('',#808);
#810=CARTESIAN_POINT('',(1.570000000000001,0.970000000000000,-3.600000000000000));
#811=DIRECTION('',(0.0,1.0,0.0));
#812=VECTOR('',#811,0.600000000000000);
#813=LINE('',#810,#812);
#814=EDGE_CURVE('',#801,#809,#813,.T.);
#815=ORIENTED_EDGE('',*,*,#814,.T.);
#816=CARTESIAN_POINT('',(1.570000000000001,1.570000000000000,-3.600000000000000));
#817=DIRECTION('',(0.0,0.0,1.0));
#818=VECTOR('',#817,4.730000000000000);
#819=LINE('',#816,#818);
#820=EDGE_CURVE('',#809,#777,#819,.T.);
#821=ORIENTED_EDGE('',*,*,#820,.T.);
#822=EDGE_LOOP('',(#799,#807,#815,#821));
#823=FACE_OUTER_BOUND('',#822,.T.);
#824=ADVANCED_FACE('',(#823),#798,.T.);
#825=CARTESIAN_POINT('',(1.570000000000001,0.970000000000000,-3.600000000000000));
#826=DIRECTION('',(0.0,-1.0,0.0));
#827=DIRECTION('',(0.0,0.0,-1.0));
#828=AXIS2_PLACEMENT_3D('',#825,#826,#827);
#829=PLANE('',#828);
#830=CARTESIAN_POINT('',(0.970000000000001,0.970000000000000,-3.600000000000000));
#831=VERTEX_POINT('',#830);
#832=CARTESIAN_POINT('',(0.970000000000001,0.970000000000000,-3.600000000000000));
#833=DIRECTION('',(0.0,0.0,1.0));
#834=VECTOR('',#833,4.730000000000000);
#835=LINE('',#832,#834);
#836=EDGE_CURVE('',#831,#744,#835,.T.);
#837=ORIENTED_EDGE('',*,*,#836,.F.);
#838=CARTESIAN_POINT('',(0.970000000000001,0.970000000000000,-3.600000000000000));
#839=DIRECTION('',(1.0,0.0,0.0));
#840=VECTOR('',#839,0.600000000000000);
#841=LINE('',#838,#840);
#842=EDGE_CURVE('',#831,#801,#841,.T.);
#843=ORIENTED_EDGE('',*,*,#842,.T.);
#844=ORIENTED_EDGE('',*,*,#806,.T.);
#845=ORIENTED_EDGE('',*,*,#774,.T.);
#846=ORIENTED_EDGE('',*,*,#709,.T.);
#847=CARTESIAN_POINT('',(2.770000000000001,0.970000000000001,1.430000000000000));
#848=DIRECTION('',(0.0,0.0,1.0));
#849=VECTOR('',#848,0.600000000000000);
#850=LINE('',#847,#849);
#851=EDGE_CURVE('',#696,#654,#850,.T.);
#852=ORIENTED_EDGE('',*,*,#851,.T.);
#853=ORIENTED_EDGE('',*,*,#683,.F.);
#854=ORIENTED_EDGE('',*,*,#756,.F.);
#855=EDGE_LOOP('',(#837,#843,#844,#845,#846,#852,#853,#854));
#856=FACE_OUTER_BOUND('',#855,.T.);
#857=ADVANCED_FACE('',(#856),#829,.T.);
#858=CARTESIAN_POINT('',(0.970000000000001,0.970000000000000,-3.600000000000000));
#859=DIRECTION('',(-1.0,0.0,0.0));
#860=DIRECTION('',(0.0,0.0,1.0));
#861=AXIS2_PLACEMENT_3D('',#858,#859,#860);
#862=PLANE('',#861);
#863=ORIENTED_EDGE('',*,*,#749,.T.);
#864=CARTESIAN_POINT('',(0.970000000000001,1.570000000000000,-3.600000000000000));
#865=VERTEX_POINT('',#864);
#866=CARTESIAN_POINT('',(0.970000000000001,1.570000000000000,-3.600000000000000));
#867=DIRECTION('',(0.0,0.0,1.0));
#868=VECTOR('',#867,4.730000000000000);
#869=LINE('',#866,#868);
#870=EDGE_CURVE('',#865,#735,#869,.T.);
#871=ORIENTED_EDGE('',*,*,#870,.F.);
#872=CARTESIAN_POINT('',(0.970000000000001,1.570000000000000,-3.600000000000000));
#873=DIRECTION('',(0.0,-1.0,0.0));
#874=VECTOR('',#873,0.600000000000000);
#875=LINE('',#872,#874);
#876=EDGE_CURVE('',#865,#831,#875,.T.);
#877=ORIENTED_EDGE('',*,*,#876,.T.);
#878=ORIENTED_EDGE('',*,*,#836,.T.);
#879=EDGE_LOOP('',(#863,#871,#877,#878));
#880=FACE_OUTER_BOUND('',#879,.T.);
#881=ADVANCED_FACE('',(#880),#862,.T.);
#882=CARTESIAN_POINT('',(0.970000000000001,1.570000000000000,-3.600000000000000));
#883=DIRECTION('',(0.0,1.0,0.0));
#884=DIRECTION('',(0.0,0.0,1.0));
#885=AXIS2_PLACEMENT_3D('',#882,#883,#884);
#886=PLANE('',#885);
#887=ORIENTED_EDGE('',*,*,#820,.F.);
#888=CARTESIAN_POINT('',(1.570000000000001,1.570000000000000,-3.600000000000000));
#889=DIRECTION('',(-1.0,0.0,0.0));
#890=VECTOR('',#889,0.600000000000000);
#891=LINE('',#888,#890);
#892=EDGE_CURVE('',#809,#865,#891,.T.);
#893=ORIENTED_EDGE('',*,*,#892,.T.);
#894=ORIENTED_EDGE('',*,*,#870,.T.);
#895=ORIENTED_EDGE('',*,*,#741,.T.);
#896=ORIENTED_EDGE('',*,*,#669,.T.);
#897=CARTESIAN_POINT('',(2.770000000000001,1.570000000000002,2.029999999999999));
#898=DIRECTION('',(0.0,0.0,-1.0));
#899=VECTOR('',#898,0.600000000000000);
#900=LINE('',#897,#899);
#901=EDGE_CURVE('',#656,#694,#900,.T.);
#902=ORIENTED_EDGE('',*,*,#901,.T.);
#903=ORIENTED_EDGE('',*,*,#723,.F.);
#904=ORIENTED_EDGE('',*,*,#789,.F.);
#905=EDGE_LOOP('',(#887,#893,#894,#895,#896,#902,#903,#904));
#906=FACE_OUTER_BOUND('',#905,.T.);
#907=ADVANCED_FACE('',(#906),#886,.T.);
#908=CARTESIAN_POINT('',(1.270000000000001,1.270000000000000,-3.600000000000001));
#909=DIRECTION('',(0.0,0.0,1.0));
#910=DIRECTION('',(1.0,0.0,0.0));
#911=AXIS2_PLACEMENT_3D('',#908,#909,#910);
#912=PLANE('',#911);
#913=ORIENTED_EDGE('',*,*,#892,.F.);
#914=ORIENTED_EDGE('',*,*,#814,.F.);
#915=ORIENTED_EDGE('',*,*,#842,.F.);
#916=ORIENTED_EDGE('',*,*,#876,.F.);
#917=EDGE_LOOP('',(#913,#914,#915,#916));
#918=FACE_OUTER_BOUND('',#917,.T.);
#919=ADVANCED_FACE('',(#918),#912,.F.);
#920=CARTESIAN_POINT('',(2.770000000000001,1.270000000000001,1.730000000000000));
#921=DIRECTION('',(1.0,0.0,0.0));
#922=DIRECTION('',(0.0,0.0,-1.0));
#923=AXIS2_PLACEMENT_3D('',#920,#921,#922);
#924=PLANE('',#923);
#925=ORIENTED_EDGE('',*,*,#661,.F.);
#926=ORIENTED_EDGE('',*,*,#851,.F.);
#927=ORIENTED_EDGE('',*,*,#701,.F.);
#928=ORIENTED_EDGE('',*,*,#901,.F.);
#929=EDGE_LOOP('',(#925,#926,#927,#928));
#930=FACE_OUTER_BOUND('',#929,.T.);
#931=ADVANCED_FACE('',(#930),#924,.T.);
#932=CLOSED_SHELL('',(#687,#727,#760,#793,#824,#857,#881,#907,#919,#931));
#933=MANIFOLD_SOLID_BREP('8BD',#932);
#934=STYLED_ITEM('NONE',(#357),#933);
#935=CARTESIAN_POINT('',(1.869999999999999,-1.569999999999998,2.029999999999999));
#936=DIRECTION('',(0.0,0.0,1.0));
#937=DIRECTION('',(1.0,0.0,0.0));
#938=AXIS2_PLACEMENT_3D('',#935,#936,#937);
#939=PLANE('',#938);
#940=CARTESIAN_POINT('',(2.770000000000000,-1.569999999999998,2.029999999999999));
#941=VERTEX_POINT('',#940);
#942=CARTESIAN_POINT('',(2.770000000000000,-0.969999999999999,2.029999999999999));
#943=VERTEX_POINT('',#942);
#944=CARTESIAN_POINT('',(2.770000000000001,-1.569999999999998,2.029999999999999));
#945=DIRECTION('',(0.0,1.0,0.0));
#946=VECTOR('',#945,0.600000000000000);
#947=LINE('',#944,#946);
#948=EDGE_CURVE('',#941,#943,#947,.T.);
#949=ORIENTED_EDGE('',*,*,#948,.T.);
#950=CARTESIAN_POINT('',(1.869999999999999,-0.969999999999999,2.029999999999999));
#951=VERTEX_POINT('',#950);
#952=CARTESIAN_POINT('',(1.869999999999999,-0.969999999999999,2.029999999999999));
#953=DIRECTION('',(1.0,0.0,0.0));
#954=VECTOR('',#953,0.900000000000001);
#955=LINE('',#952,#954);
#956=EDGE_CURVE('',#951,#943,#955,.T.);
#957=ORIENTED_EDGE('',*,*,#956,.F.);
#958=CARTESIAN_POINT('',(1.869999999999999,-1.569999999999998,2.029999999999999));
#959=VERTEX_POINT('',#958);
#960=CARTESIAN_POINT('',(1.870000000000000,-1.569999999999998,2.029999999999999));
#961=DIRECTION('',(0.0,1.0,0.0));
#962=VECTOR('',#961,0.600000000000000);
#963=LINE('',#960,#962);
#964=EDGE_CURVE('',#959,#951,#963,.T.);
#965=ORIENTED_EDGE('',*,*,#964,.F.);
#966=CARTESIAN_POINT('',(1.869999999999999,-1.569999999999998,2.029999999999999));
#967=DIRECTION('',(1.0,0.0,0.0));
#968=VECTOR('',#967,0.900000000000001);
#969=LINE('',#966,#968);
#970=EDGE_CURVE('',#959,#941,#969,.T.);
#971=ORIENTED_EDGE('',*,*,#970,.T.);
#972=EDGE_LOOP('',(#949,#957,#965,#971));
#973=FACE_OUTER_BOUND('',#972,.T.);
#974=ADVANCED_FACE('',(#973),#939,.T.);
#975=CARTESIAN_POINT('',(1.870000000000000,-0.969999999999999,1.430000000000000));
#976=DIRECTION('',(0.0,0.0,-1.0));
#977=DIRECTION('',(-1.0,0.0,0.0));
#978=AXIS2_PLACEMENT_3D('',#975,#976,#977);
#979=PLANE('',#978);
#980=CARTESIAN_POINT('',(2.770000000000001,-0.969999999999999,1.430000000000000));
#981=VERTEX_POINT('',#980);
#982=CARTESIAN_POINT('',(2.770000000000001,-1.569999999999999,1.430000000000000));
#983=VERTEX_POINT('',#982);
#984=CARTESIAN_POINT('',(2.770000000000001,-0.969999999999999,1.430000000000000));
#985=DIRECTION('',(0.0,-1.0,0.0));
#986=VECTOR('',#985,0.600000000000000);
#987=LINE('',#984,#986);
#988=EDGE_CURVE('',#981,#983,#987,.T.);
#989=ORIENTED_EDGE('',*,*,#988,.T.);
#990=CARTESIAN_POINT('',(1.870000000000000,-1.569999999999999,1.430000000000000));
#991=VERTEX_POINT('',#990);
#992=CARTESIAN_POINT('',(1.870000000000000,-1.569999999999999,1.430000000000000));
#993=DIRECTION('',(1.0,0.0,0.0));
#994=VECTOR('',#993,0.900000000000001);
#995=LINE('',#992,#994);
#996=EDGE_CURVE('',#991,#983,#995,.T.);
#997=ORIENTED_EDGE('',*,*,#996,.F.);
#998=CARTESIAN_POINT('',(1.870000000000000,-0.969999999999999,1.430000000000000));
#999=VERTEX_POINT('',#998);
#1000=CARTESIAN_POINT('',(1.870000000000000,-0.969999999999999,1.429999999999999));
#1001=DIRECTION('',(0.0,-1.0,0.0));
#1002=VECTOR('',#1001,0.600000000000000);
#1003=LINE('',#1000,#1002);
#1004=EDGE_CURVE('',#999,#991,#1003,.T.);
#1005=ORIENTED_EDGE('',*,*,#1004,.F.);
#1006=CARTESIAN_POINT('',(1.870000000000000,-0.969999999999999,1.430000000000000));
#1007=DIRECTION('',(1.0,0.0,0.0));
#1008=VECTOR('',#1007,0.900000000000001);
#1009=LINE('',#1006,#1008);
#1010=EDGE_CURVE('',#999,#981,#1009,.T.);
#1011=ORIENTED_EDGE('',*,*,#1010,.T.);
#1012=EDGE_LOOP('',(#989,#997,#1005,#1011));
#1013=FACE_OUTER_BOUND('',#1012,.T.);
#1014=ADVANCED_FACE('',(#1013),#979,.T.);
#1015=CARTESIAN_POINT('',(1.870000000000000,-1.269999999999999,1.129999999999999));
#1016=DIRECTION('',(0.0,1.0,-2.220446E-016));
#1017=DIRECTION('',(-0.707106781186548,1.570092E-016,0.707106781186547));
#1018=AXIS2_PLACEMENT_3D('',#1015,#1016,#1017);
#1019=CYLINDRICAL_SURFACE('',#1018,0.900000000000000);
#1020=ORIENTED_EDGE('',*,*,#964,.T.);
#1021=CARTESIAN_POINT('',(0.970000000000000,-0.969999999999999,1.129999999999999));
#1022=VERTEX_POINT('',#1021);
#1023=CARTESIAN_POINT('',(1.870000000000000,-0.969999999999999,1.129999999999999));
#1024=DIRECTION('',(1.110223E-016,1.0,-1.110223E-016));
#1025=DIRECTION('',(-0.707106781186548,1.570092E-016,0.707106781186547));
#1026=AXIS2_PLACEMENT_3D('',#1023,#1024,#1025);
#1027=CIRCLE('',#1026,0.900000000000000);
#1028=EDGE_CURVE('',#1022,#951,#1027,.T.);
#1029=ORIENTED_EDGE('',*,*,#1028,.F.);
#1030=CARTESIAN_POINT('',(0.970000000000000,-1.569999999999999,1.129999999999999));
#1031=VERTEX_POINT('',#1030);
#1032=CARTESIAN_POINT('',(0.970000000000000,-1.569999999999999,1.129999999999999));
#1033=DIRECTION('',(0.0,1.0,0.0));
#1034=VECTOR('',#1033,0.600000000000000);
#1035=LINE('',#1032,#1034);
#1036=EDGE_CURVE('',#1031,#1022,#1035,.T.);
#1037=ORIENTED_EDGE('',*,*,#1036,.F.);
#1038=CARTESIAN_POINT('',(1.870000000000000,-1.569999999999999,1.129999999999999));
#1039=DIRECTION('',(1.110223E-016,1.0,-1.110223E-016));
#1040=DIRECTION('',(-0.707106781186548,1.570092E-016,0.707106781186547));
#1041=AXIS2_PLACEMENT_3D('',#1038,#1039,#1040);
#1042=CIRCLE('',#1041,0.900000000000000);
#1043=EDGE_CURVE('',#1031,#959,#1042,.T.);
#1044=ORIENTED_EDGE('',*,*,#1043,.T.);
#1045=EDGE_LOOP('',(#1020,#1029,#1037,#1044));
#1046=FACE_OUTER_BOUND('',#1045,.T.);
#1047=ADVANCED_FACE('',(#1046),#1019,.T.);
#1048=CARTESIAN_POINT('',(1.870000000000000,-1.269999999999999,1.129999999999999));
#1049=DIRECTION('',(0.0,1.0,-2.220446E-016));
#1050=DIRECTION('',(-0.707106781186548,1.570092E-016,0.707106781186547));
#1051=AXIS2_PLACEMENT_3D('',#1048,#1049,#1050);
#1052=CYLINDRICAL_SURFACE('',#1051,0.300000000000000);
#1053=ORIENTED_EDGE('',*,*,#1004,.T.);
#1054=CARTESIAN_POINT('',(1.570000000000000,-1.569999999999999,1.129999999999999));
#1055=VERTEX_POINT('',#1054);
#1056=CARTESIAN_POINT('',(1.870000000000000,-1.569999999999999,1.129999999999999));
#1057=DIRECTION('',(1.110223E-016,1.0,-1.110223E-016));
#1058=DIRECTION('',(-0.707106781186548,1.570092E-016,0.707106781186547));
#1059=AXIS2_PLACEMENT_3D('',#1056,#1057,#1058);
#1060=CIRCLE('',#1059,0.300000000000000);
#1061=EDGE_CURVE('',#1055,#991,#1060,.T.);
#1062=ORIENTED_EDGE('',*,*,#1061,.F.);
#1063=CARTESIAN_POINT('',(1.570000000000000,-0.969999999999999,1.129999999999999));
#1064=VERTEX_POINT('',#1063);
#1065=CARTESIAN_POINT('',(1.570000000000000,-0.969999999999999,1.129999999999999));
#1066=DIRECTION('',(0.0,-1.0,0.0));
#1067=VECTOR('',#1066,0.600000000000000);
#1068=LINE('',#1065,#1067);
#1069=EDGE_CURVE('',#1064,#1055,#1068,.T.);
#1070=ORIENTED_EDGE('',*,*,#1069,.F.);
#1071=CARTESIAN_POINT('',(1.870000000000000,-0.969999999999999,1.129999999999999));
#1072=DIRECTION('',(1.110223E-016,1.0,-1.110223E-016));
#1073=DIRECTION('',(-0.707106781186548,1.570092E-016,0.707106781186547));
#1074=AXIS2_PLACEMENT_3D('',#1071,#1072,#1073);
#1075=CIRCLE('',#1074,0.300000000000000);
#1076=EDGE_CURVE('',#1064,#999,#1075,.T.);
#1077=ORIENTED_EDGE('',*,*,#1076,.T.);
#1078=EDGE_LOOP('',(#1053,#1062,#1070,#1077));
#1079=FACE_OUTER_BOUND('',#1078,.T.);
#1080=ADVANCED_FACE('',(#1079),#1052,.F.);
#1081=CARTESIAN_POINT('',(1.570000000000001,-0.970000000000000,-3.600000000000000));
#1082=DIRECTION('',(1.0,0.0,0.0));
#1083=DIRECTION('',(0.0,0.0,-1.0));
#1084=AXIS2_PLACEMENT_3D('',#1081,#1082,#1083);
#1085=PLANE('',#1084);
#1086=ORIENTED_EDGE('',*,*,#1069,.T.);
#1087=CARTESIAN_POINT('',(1.570000000000001,-1.570000000000000,-3.600000000000000));
#1088=VERTEX_POINT('',#1087);
#1089=CARTESIAN_POINT('',(1.570000000000001,-1.570000000000000,-3.600000000000000));
#1090=DIRECTION('',(0.0,0.0,1.0));
#1091=VECTOR('',#1090,4.730000000000000);
#1092=LINE('',#1089,#1091);
#1093=EDGE_CURVE('',#1088,#1055,#1092,.T.);
#1094=ORIENTED_EDGE('',*,*,#1093,.F.);
#1095=CARTESIAN_POINT('',(1.570000000000001,-0.970000000000000,-3.600000000000000));
#1096=VERTEX_POINT('',#1095);
#1097=CARTESIAN_POINT('',(1.570000000000001,-1.570000000000000,-3.600000000000000));
#1098=DIRECTION('',(0.0,1.0,0.0));
#1099=VECTOR('',#1098,0.600000000000000);
#1100=LINE('',#1097,#1099);
#1101=EDGE_CURVE('',#1088,#1096,#1100,.T.);
#1102=ORIENTED_EDGE('',*,*,#1101,.T.);
#1103=CARTESIAN_POINT('',(1.570000000000001,-0.970000000000000,-3.600000000000000));
#1104=DIRECTION('',(0.0,0.0,1.0));
#1105=VECTOR('',#1104,4.730000000000000);
#1106=LINE('',#1103,#1105);
#1107=EDGE_CURVE('',#1096,#1064,#1106,.T.);
#1108=ORIENTED_EDGE('',*,*,#1107,.T.);
#1109=EDGE_LOOP('',(#1086,#1094,#1102,#1108));
#1110=FACE_OUTER_BOUND('',#1109,.T.);
#1111=ADVANCED_FACE('',(#1110),#1085,.T.);
#1112=CARTESIAN_POINT('',(1.570000000000001,-1.570000000000000,-3.600000000000000));
#1113=DIRECTION('',(0.0,-1.0,0.0));
#1114=DIRECTION('',(0.0,0.0,-1.0));
#1115=AXIS2_PLACEMENT_3D('',#1112,#1113,#1114);
#1116=PLANE('',#1115);
#1117=CARTESIAN_POINT('',(0.970000000000001,-1.570000000000000,-3.600000000000000));
#1118=VERTEX_POINT('',#1117);
#1119=CARTESIAN_POINT('',(0.970000000000001,-1.570000000000000,-3.600000000000000));
#1120=DIRECTION('',(0.0,0.0,1.0));
#1121=VECTOR('',#1120,4.730000000000000);
#1122=LINE('',#1119,#1121);
#1123=EDGE_CURVE('',#1118,#1031,#1122,.T.);
#1124=ORIENTED_EDGE('',*,*,#1123,.F.);
#1125=CARTESIAN_POINT('',(0.970000000000001,-1.570000000000000,-3.600000000000000));
#1126=DIRECTION('',(1.0,0.0,0.0));
#1127=VECTOR('',#1126,0.600000000000000);
#1128=LINE('',#1125,#1127);
#1129=EDGE_CURVE('',#1118,#1088,#1128,.T.);
#1130=ORIENTED_EDGE('',*,*,#1129,.T.);
#1131=ORIENTED_EDGE('',*,*,#1093,.T.);
#1132=ORIENTED_EDGE('',*,*,#1061,.T.);
#1133=ORIENTED_EDGE('',*,*,#996,.T.);
#1134=CARTESIAN_POINT('',(2.770000000000001,-1.569999999999999,1.430000000000000));
#1135=DIRECTION('',(0.0,0.0,1.0));
#1136=VECTOR('',#1135,0.600000000000000);
#1137=LINE('',#1134,#1136);
#1138=EDGE_CURVE('',#983,#941,#1137,.T.);
#1139=ORIENTED_EDGE('',*,*,#1138,.T.);
#1140=ORIENTED_EDGE('',*,*,#970,.F.);
#1141=ORIENTED_EDGE('',*,*,#1043,.F.);
#1142=EDGE_LOOP('',(#1124,#1130,#1131,#1132,#1133,#1139,#1140,#1141));
#1143=FACE_OUTER_BOUND('',#1142,.T.);
#1144=ADVANCED_FACE('',(#1143),#1116,.T.);
#1145=CARTESIAN_POINT('',(0.970000000000001,-1.570000000000000,-3.600000000000000));
#1146=DIRECTION('',(-1.0,0.0,0.0));
#1147=DIRECTION('',(0.0,0.0,1.0));
#1148=AXIS2_PLACEMENT_3D('',#1145,#1146,#1147);
#1149=PLANE('',#1148);
#1150=ORIENTED_EDGE('',*,*,#1036,.T.);
#1151=CARTESIAN_POINT('',(0.970000000000001,-0.970000000000000,-3.600000000000000));
#1152=VERTEX_POINT('',#1151);
#1153=CARTESIAN_POINT('',(0.970000000000001,-0.970000000000000,-3.600000000000000));
#1154=DIRECTION('',(0.0,0.0,1.0));
#1155=VECTOR('',#1154,4.730000000000000);
#1156=LINE('',#1153,#1155);
#1157=EDGE_CURVE('',#1152,#1022,#1156,.T.);
#1158=ORIENTED_EDGE('',*,*,#1157,.F.);
#1159=CARTESIAN_POINT('',(0.970000000000001,-0.970000000000000,-3.600000000000000));
#1160=DIRECTION('',(0.0,-1.0,0.0));
#1161=VECTOR('',#1160,0.600000000000000);
#1162=LINE('',#1159,#1161);
#1163=EDGE_CURVE('',#1152,#1118,#1162,.T.);
#1164=ORIENTED_EDGE('',*,*,#1163,.T.);
#1165=ORIENTED_EDGE('',*,*,#1123,.T.);
#1166=EDGE_LOOP('',(#1150,#1158,#1164,#1165));
#1167=FACE_OUTER_BOUND('',#1166,.T.);
#1168=ADVANCED_FACE('',(#1167),#1149,.T.);
#1169=CARTESIAN_POINT('',(0.970000000000001,-0.970000000000000,-3.600000000000000));
#1170=DIRECTION('',(0.0,1.0,0.0));
#1171=DIRECTION('',(0.0,0.0,1.0));
#1172=AXIS2_PLACEMENT_3D('',#1169,#1170,#1171);
#1173=PLANE('',#1172);
#1174=ORIENTED_EDGE('',*,*,#1107,.F.);
#1175=CARTESIAN_POINT('',(1.570000000000001,-0.970000000000000,-3.600000000000000));
#1176=DIRECTION('',(-1.0,0.0,0.0));
#1177=VECTOR('',#1176,0.600000000000000);
#1178=LINE('',#1175,#1177);
#1179=EDGE_CURVE('',#1096,#1152,#1178,.T.);
#1180=ORIENTED_EDGE('',*,*,#1179,.T.);
#1181=ORIENTED_EDGE('',*,*,#1157,.T.);
#1182=ORIENTED_EDGE('',*,*,#1028,.T.);
#1183=ORIENTED_EDGE('',*,*,#956,.T.);
#1184=CARTESIAN_POINT('',(2.770000000000001,-0.969999999999998,2.029999999999999));
#1185=DIRECTION('',(0.0,0.0,-1.0));
#1186=VECTOR('',#1185,0.600000000000000);
#1187=LINE('',#1184,#1186);
#1188=EDGE_CURVE('',#943,#981,#1187,.T.);
#1189=ORIENTED_EDGE('',*,*,#1188,.T.);
#1190=ORIENTED_EDGE('',*,*,#1010,.F.);
#1191=ORIENTED_EDGE('',*,*,#1076,.F.);
#1192=EDGE_LOOP('',(#1174,#1180,#1181,#1182,#1183,#1189,#1190,#1191));
#1193=FACE_OUTER_BOUND('',#1192,.T.);
#1194=ADVANCED_FACE('',(#1193),#1173,.T.);
#1195=CARTESIAN_POINT('',(1.270000000000001,-1.270000000000000,-3.600000000000001));
#1196=DIRECTION('',(0.0,0.0,1.0));
#1197=DIRECTION('',(1.0,0.0,0.0));
#1198=AXIS2_PLACEMENT_3D('',#1195,#1196,#1197);
#1199=PLANE('',#1198);
#1200=ORIENTED_EDGE('',*,*,#1179,.F.);
#1201=ORIENTED_EDGE('',*,*,#1101,.F.);
#1202=ORIENTED_EDGE('',*,*,#1129,.F.);
#1203=ORIENTED_EDGE('',*,*,#1163,.F.);
#1204=EDGE_LOOP('',(#1200,#1201,#1202,#1203));
#1205=FACE_OUTER_BOUND('',#1204,.T.);
#1206=ADVANCED_FACE('',(#1205),#1199,.F.);
#1207=CARTESIAN_POINT('',(2.770000000000001,-1.269999999999999,1.730000000000000));
#1208=DIRECTION('',(1.0,0.0,0.0));
#1209=DIRECTION('',(0.0,0.0,-1.0));
#1210=AXIS2_PLACEMENT_3D('',#1207,#1208,#1209);
#1211=PLANE('',#1210);
#1212=ORIENTED_EDGE('',*,*,#948,.F.);
#1213=ORIENTED_EDGE('',*,*,#1138,.F.);
#1214=ORIENTED_EDGE('',*,*,#988,.F.);
#1215=ORIENTED_EDGE('',*,*,#1188,.F.);
#1216=EDGE_LOOP('',(#1212,#1213,#1214,#1215));
#1217=FACE_OUTER_BOUND('',#1216,.T.);
#1218=ADVANCED_FACE('',(#1217),#1211,.T.);
#1219=CLOSED_SHELL('',(#974,#1014,#1047,#1080,#1111,#1144,#1168,#1194,#1206,#1218));
#1220=MANIFOLD_SOLID_BREP('8B9',#1219);
#1221=STYLED_ITEM('NONE',(#357),#1220);
#1222=CARTESIAN_POINT('',(2.770000000000000,-1.100000000000004,0.400000000000001));
#1223=CARTESIAN_POINT('',(13.770000000000000,-1.100000000000004,0.400000000000001));
#1224=CARTESIAN_POINT('',(2.770000000000000,0.0,0.400000000000001));
#1225=CARTESIAN_POINT('',(13.770000000000000,0.0,0.400000000000001));
#1226=B_SPLINE_SURFACE_WITH_KNOTS('',1,1,((#1222,#1224),(#1223,#1225)),.UNSPECIFIED.,.F.,.F.,.U.,(2,2),(2,2),(0.0,11.0),(0.0,1.100000000000004),.UNSPECIFIED.);
#1227=CARTESIAN_POINT('',(13.770000000000000,-1.100000000000004,0.400000000000001));
#1228=VERTEX_POINT('',#1227);
#1229=CARTESIAN_POINT('',(13.770000000000000,0.0,0.400000000000001));
#1230=VERTEX_POINT('',#1229);
#1231=CARTESIAN_POINT('',(13.770000000000000,-1.100000000000004,0.400000000000001));
#1232=DIRECTION('',(0.0,1.0,0.0));
#1233=VECTOR('',#1232,1.100000000000004);
#1234=LINE('',#1231,#1233);
#1235=EDGE_CURVE('',#1228,#1230,#1234,.T.);
#1236=ORIENTED_EDGE('',*,*,#1235,.F.);
#1237=CARTESIAN_POINT('',(2.770000000000001,-1.100000000000004,0.400000000000001));
#1238=VERTEX_POINT('',#1237);
#1239=CARTESIAN_POINT('',(13.770000000000000,-1.100000000000004,0.400000000000001));
#1240=DIRECTION('',(-1.0,0.0,0.0));
#1241=VECTOR('',#1240,10.999999999999998);
#1242=LINE('',#1239,#1241);
#1243=EDGE_CURVE('',#1228,#1238,#1242,.T.);
#1244=ORIENTED_EDGE('',*,*,#1243,.T.);
#1245=CARTESIAN_POINT('',(2.770000000000001,0.0,0.400000000000001));
#1246=VERTEX_POINT('',#1245);
#1247=CARTESIAN_POINT('',(2.770000000000000,0.0,0.400000000000001));
#1248=DIRECTION('',(0.0,-1.0,0.0));
#1249=VECTOR('',#1248,1.100000000000004);
#1250=LINE('',#1247,#1249);
#1251=EDGE_CURVE('',#1246,#1238,#1250,.T.);
#1252=ORIENTED_EDGE('',*,*,#1251,.F.);
#1253=CARTESIAN_POINT('',(2.770000000000001,0.0,0.400000000000001));
#1254=DIRECTION('',(1.0,0.0,0.0));
#1255=VECTOR('',#1254,10.999999999999998);
#1256=LINE('',#1253,#1255);
#1257=EDGE_CURVE('',#1246,#1230,#1256,.T.);
#1258=ORIENTED_EDGE('',*,*,#1257,.T.);
#1259=EDGE_LOOP('',(#1236,#1244,#1252,#1258));
#1260=FACE_OUTER_BOUND('',#1259,.T.);
#1261=ADVANCED_FACE('',(#1260),#1226,.F.);
#1262=CARTESIAN_POINT('',(13.770000000000000,0.0,0.0));
#1263=CARTESIAN_POINT('',(13.770000000000000,0.0,0.400000000000001));
#1264=CARTESIAN_POINT('',(2.770000000000000,0.0,0.0));
#1265=CARTESIAN_POINT('',(2.770000000000000,0.0,0.400000000000001));
#1266=B_SPLINE_SURFACE_WITH_KNOTS('',1,1,((#1262,#1264),(#1263,#1265)),.UNSPECIFIED.,.F.,.F.,.U.,(2,2),(2,2),(0.0,0.400000000000001),(0.0,11.0),.UNSPECIFIED.);
#1267=CARTESIAN_POINT('',(2.770000000000001,0.0,6.661338E-016));
#1268=VERTEX_POINT('',#1267);
#1269=CARTESIAN_POINT('',(2.770000000000000,0.0,6.661338E-016));
#1270=DIRECTION('',(0.0,0.0,1.0));
#1271=VECTOR('',#1270,0.400000000000000);
#1272=LINE('',#1269,#1271);
#1273=EDGE_CURVE('',#1268,#1246,#1272,.T.);
#1274=ORIENTED_EDGE('',*,*,#1273,.F.);
#1275=CARTESIAN_POINT('',(13.770000000000000,0.0,6.661338E-016));
#1276=VERTEX_POINT('',#1275);
#1277=CARTESIAN_POINT('',(13.770000000000000,0.0,0.0));
#1278=DIRECTION('',(-1.0,0.0,0.0));
#1279=VECTOR('',#1278,11.0);
#1280=LINE('',#1277,#1279);
#1281=EDGE_CURVE('',#1276,#1268,#1280,.T.);
#1282=ORIENTED_EDGE('',*,*,#1281,.F.);
#1283=CARTESIAN_POINT('',(13.770000000000000,0.0,0.400000000000001));
#1284=DIRECTION('',(0.0,0.0,-1.0));
#1285=VECTOR('',#1284,0.400000000000000);
#1286=LINE('',#1283,#1285);
#1287=EDGE_CURVE('',#1230,#1276,#1286,.T.);
#1288=ORIENTED_EDGE('',*,*,#1287,.F.);
#1289=ORIENTED_EDGE('',*,*,#1257,.F.);
#1290=EDGE_LOOP('',(#1274,#1282,#1288,#1289));
#1291=FACE_OUTER_BOUND('',#1290,.T.);
#1292=ADVANCED_FACE('',(#1291),#1266,.T.);
#1293=CARTESIAN_POINT('',(13.770000000000000,-1.100000000000004,0.400000000000001));
#1294=CARTESIAN_POINT('',(13.770000000000000,-1.100000000000004,0.0));
#1295=CARTESIAN_POINT('',(2.770000000000000,-1.100000000000004,0.400000000000001));
#1296=CARTESIAN_POINT('',(2.770000000000000,-1.100000000000004,0.0));
#1297=B_SPLINE_SURFACE_WITH_KNOTS('',1,1,((#1293,#1295),(#1294,#1296)),.UNSPECIFIED.,.F.,.F.,.U.,(2,2),(2,2),(0.0,0.400000000000001),(0.0,11.0),.UNSPECIFIED.);
#1298=CARTESIAN_POINT('',(13.770000000000000,-1.100000000000004,6.661338E-016));
#1299=VERTEX_POINT('',#1298);
#1300=CARTESIAN_POINT('',(13.770000000000000,-1.100000000000004,6.661338E-016));
#1301=DIRECTION('',(0.0,0.0,1.0));
#1302=VECTOR('',#1301,0.400000000000000);
#1303=LINE('',#1300,#1302);
#1304=EDGE_CURVE('',#1299,#1228,#1303,.T.);
#1305=ORIENTED_EDGE('',*,*,#1304,.F.);
#1306=CARTESIAN_POINT('',(2.770000000000001,-1.100000000000004,6.661338E-016));
#1307=VERTEX_POINT('',#1306);
#1308=CARTESIAN_POINT('',(2.770000000000001,-1.100000000000004,0.0));
#1309=DIRECTION('',(1.0,0.0,0.0));
#1310=VECTOR('',#1309,11.0);
#1311=LINE('',#1308,#1310);
#1312=EDGE_CURVE('',#1307,#1299,#1311,.T.);
#1313=ORIENTED_EDGE('',*,*,#1312,.F.);
#1314=CARTESIAN_POINT('',(2.770000000000000,-1.100000000000004,0.400000000000001));
#1315=DIRECTION('',(0.0,0.0,-1.0));
#1316=VECTOR('',#1315,0.400000000000000);
#1317=LINE('',#1314,#1316);
#1318=EDGE_CURVE('',#1238,#1307,#1317,.T.);
#1319=ORIENTED_EDGE('',*,*,#1318,.F.);
#1320=ORIENTED_EDGE('',*,*,#1243,.F.);
#1321=EDGE_LOOP('',(#1305,#1313,#1319,#1320));
#1322=FACE_OUTER_BOUND('',#1321,.T.);
#1323=ADVANCED_FACE('',(#1322),#1297,.T.);
#1324=CARTESIAN_POINT('',(2.770000000000000,-5.551115E-016,3.0));
#1325=DIRECTION('',(1.0,0.0,0.0));
#1326=DIRECTION('',(0.0,0.0,1.0));
#1327=AXIS2_PLACEMENT_3D('',#1324,#1325,#1326);
#1328=PLANE('',#1327);
#1329=ORIENTED_EDGE('',*,*,#1273,.T.);
#1330=ORIENTED_EDGE('',*,*,#1251,.T.);
#1331=ORIENTED_EDGE('',*,*,#1318,.T.);
#1332=CARTESIAN_POINT('',(2.769999999999999,-2.500000000000000,0.0));
#1333=VERTEX_POINT('',#1332);
#1334=CARTESIAN_POINT('',(2.770000000000000,-2.500000000000000,0.0));
#1335=DIRECTION('',(0.0,1.0,0.0));
#1336=VECTOR('',#1335,1.399999999999997);
#1337=LINE('',#1334,#1336);
#1338=EDGE_CURVE('',#1333,#1307,#1337,.T.);
#1339=ORIENTED_EDGE('',*,*,#1338,.F.);
#1340=CARTESIAN_POINT('',(2.769999999999999,-2.500000000000000,6.0));
#1341=VERTEX_POINT('',#1340);
#1342=CARTESIAN_POINT('',(2.769999999999999,-2.500000000000000,6.0));
#1343=DIRECTION('',(0.0,0.0,-1.0));
#1344=VECTOR('',#1343,6.0);
#1345=LINE('',#1342,#1344);
#1346=EDGE_CURVE('',#1341,#1333,#1345,.T.);
#1347=ORIENTED_EDGE('',*,*,#1346,.F.);
#1348=CARTESIAN_POINT('',(2.770000000000001,2.500000000000000,6.0));
#1349=VERTEX_POINT('',#1348);
#1350=CARTESIAN_POINT('',(2.770000000000001,2.500000000000000,6.0));
#1351=DIRECTION('',(0.0,-1.0,0.0));
#1352=VECTOR('',#1351,5.0);
#1353=LINE('',#1350,#1352);
#1354=EDGE_CURVE('',#1349,#1341,#1353,.T.);
#1355=ORIENTED_EDGE('',*,*,#1354,.F.);
#1356=CARTESIAN_POINT('',(2.770000000000001,2.500000000000000,0.0));
#1357=VERTEX_POINT('',#1356);
#1358=CARTESIAN_POINT('',(2.770000000000001,2.500000000000000,6.0));
#1359=DIRECTION('',(0.0,0.0,-1.0));
#1360=VECTOR('',#1359,6.0);
#1361=LINE('',#1358,#1360);
#1362=EDGE_CURVE('',#1349,#1357,#1361,.T.);
#1363=ORIENTED_EDGE('',*,*,#1362,.T.);
#1364=CARTESIAN_POINT('',(2.770000000000000,1.972152E-031,0.0));
#1365=DIRECTION('',(0.0,1.0,0.0));
#1366=VECTOR('',#1365,2.500000000000000);
#1367=LINE('',#1364,#1366);
#1368=EDGE_CURVE('',#1268,#1357,#1367,.T.);
#1369=ORIENTED_EDGE('',*,*,#1368,.F.);
#1370=EDGE_LOOP('',(#1329,#1330,#1331,#1339,#1347,#1355,#1363,#1369));
#1371=FACE_OUTER_BOUND('',#1370,.T.);
#1372=ADVANCED_FACE('',(#1371),#1328,.F.);
#1373=CARTESIAN_POINT('',(8.270000000000000,-1.776357E-015,0.0));
#1374=DIRECTION('',(0.0,0.0,1.0));
#1375=DIRECTION('',(0.0,-1.0,0.0));
#1376=AXIS2_PLACEMENT_3D('',#1373,#1374,#1375);
#1377=PLANE('',#1376);
#1378=ORIENTED_EDGE('',*,*,#1312,.T.);
#1379=CARTESIAN_POINT('',(13.770000000000000,-2.500000000000003,0.0));
#1380=VERTEX_POINT('',#1379);
#1381=CARTESIAN_POINT('',(13.770000000000000,-1.100000000000004,0.0));
#1382=DIRECTION('',(0.0,-1.0,0.0));
#1383=VECTOR('',#1382,1.400000000000000);
#1384=LINE('',#1381,#1383);
#1385=EDGE_CURVE('',#1299,#1380,#1384,.T.);
#1386=ORIENTED_EDGE('',*,*,#1385,.T.);
#1387=CARTESIAN_POINT('',(13.770000000000000,-2.500000000000003,0.0));
#1388=DIRECTION('',(-1.0,0.0,0.0));
#1389=VECTOR('',#1388,11.0);
#1390=LINE('',#1387,#1389);
#1391=EDGE_CURVE('',#1380,#1333,#1390,.T.);
#1392=ORIENTED_EDGE('',*,*,#1391,.T.);
#1393=ORIENTED_EDGE('',*,*,#1338,.T.);
#1394=EDGE_LOOP('',(#1378,#1386,#1392,#1393));
#1395=FACE_OUTER_BOUND('',#1394,.T.);
#1396=ADVANCED_FACE('',(#1395),#1377,.F.);
#1397=CARTESIAN_POINT('',(13.770000000000000,-2.997602E-015,3.0));
#1398=DIRECTION('',(-1.0,0.0,0.0));
#1399=DIRECTION('',(0.0,0.0,-1.0));
#1400=AXIS2_PLACEMENT_3D('',#1397,#1398,#1399);
#1401=PLANE('',#1400);
#1402=ORIENTED_EDGE('',*,*,#1304,.T.);
#1403=ORIENTED_EDGE('',*,*,#1235,.T.);
#1404=ORIENTED_EDGE('',*,*,#1287,.T.);
#1405=CARTESIAN_POINT('',(13.770000000000000,2.499999999999997,0.0));
#1406=VERTEX_POINT('',#1405);
#1407=CARTESIAN_POINT('',(13.770000000000000,2.499999999999997,0.0));
#1408=DIRECTION('',(0.0,-1.0,0.0));
#1409=VECTOR('',#1408,2.499999999999997);
#1410=LINE('',#1407,#1409);
#1411=EDGE_CURVE('',#1406,#1276,#1410,.T.);
#1412=ORIENTED_EDGE('',*,*,#1411,.F.);
#1413=CARTESIAN_POINT('',(13.770000000000000,2.499999999999997,6.0));
#1414=VERTEX_POINT('',#1413);
#1415=CARTESIAN_POINT('',(13.770000000000000,2.499999999999997,6.0));
#1416=DIRECTION('',(0.0,0.0,-1.0));
#1417=VECTOR('',#1416,6.0);
#1418=LINE('',#1415,#1417);
#1419=EDGE_CURVE('',#1414,#1406,#1418,.T.);
#1420=ORIENTED_EDGE('',*,*,#1419,.F.);
#1421=CARTESIAN_POINT('',(13.770000000000000,-2.500000000000003,6.0));
#1422=VERTEX_POINT('',#1421);
#1423=CARTESIAN_POINT('',(13.770000000000000,-2.500000000000003,6.0));
#1424=DIRECTION('',(0.0,1.0,0.0));
#1425=VECTOR('',#1424,5.0);
#1426=LINE('',#1423,#1425);
#1427=EDGE_CURVE('',#1422,#1414,#1426,.T.);
#1428=ORIENTED_EDGE('',*,*,#1427,.F.);
#1429=CARTESIAN_POINT('',(13.770000000000000,-2.500000000000003,6.0));
#1430=DIRECTION('',(0.0,0.0,-1.0));
#1431=VECTOR('',#1430,6.0);
#1432=LINE('',#1429,#1431);
#1433=EDGE_CURVE('',#1422,#1380,#1432,.T.);
#1434=ORIENTED_EDGE('',*,*,#1433,.T.);
#1435=ORIENTED_EDGE('',*,*,#1385,.F.);
#1436=EDGE_LOOP('',(#1402,#1403,#1404,#1412,#1420,#1428,#1434,#1435));
#1437=FACE_OUTER_BOUND('',#1436,.T.);
#1438=ADVANCED_FACE('',(#1437),#1401,.F.);
#1439=CARTESIAN_POINT('',(8.270000000000000,-1.776357E-015,6.0));
#1440=DIRECTION('',(0.0,0.0,1.0));
#1441=DIRECTION('',(0.0,-1.0,0.0));
#1442=AXIS2_PLACEMENT_3D('',#1439,#1440,#1441);
#1443=PLANE('',#1442);
#1444=CARTESIAN_POINT('',(2.770000000000000,-2.500000000000000,6.0));
#1445=DIRECTION('',(1.0,0.0,0.0));
#1446=VECTOR('',#1445,11.0);
#1447=LINE('',#1444,#1446);
#1448=EDGE_CURVE('',#1341,#1422,#1447,.T.);
#1449=ORIENTED_EDGE('',*,*,#1448,.T.);
#1450=ORIENTED_EDGE('',*,*,#1427,.T.);
#1451=CARTESIAN_POINT('',(13.770000000000000,2.499999999999997,6.0));
#1452=DIRECTION('',(-1.0,0.0,0.0));
#1453=VECTOR('',#1452,10.999999999999998);
#1454=LINE('',#1451,#1453);
#1455=EDGE_CURVE('',#1414,#1349,#1454,.T.);
#1456=ORIENTED_EDGE('',*,*,#1455,.T.);
#1457=ORIENTED_EDGE('',*,*,#1354,.T.);
#1458=EDGE_LOOP('',(#1449,#1450,#1456,#1457));
#1459=FACE_OUTER_BOUND('',#1458,.T.);
#1460=ADVANCED_FACE('',(#1459),#1443,.T.);
#1461=CARTESIAN_POINT('',(8.270000000000000,-1.776357E-015,0.0));
#1462=DIRECTION('',(0.0,0.0,1.0));
#1463=DIRECTION('',(0.0,-1.0,0.0));
#1464=AXIS2_PLACEMENT_3D('',#1461,#1462,#1463);
#1465=PLANE('',#1464);
#1466=ORIENTED_EDGE('',*,*,#1281,.T.);
#1467=ORIENTED_EDGE('',*,*,#1368,.T.);
#1468=CARTESIAN_POINT('',(2.770000000000001,2.500000000000000,0.0));
#1469=DIRECTION('',(1.0,0.0,0.0));
#1470=VECTOR('',#1469,10.999999999999998);
#1471=LINE('',#1468,#1470);
#1472=EDGE_CURVE('',#1357,#1406,#1471,.T.);
#1473=ORIENTED_EDGE('',*,*,#1472,.T.);
#1474=ORIENTED_EDGE('',*,*,#1411,.T.);
#1475=EDGE_LOOP('',(#1466,#1467,#1473,#1474));
#1476=FACE_OUTER_BOUND('',#1475,.T.);
#1477=ADVANCED_FACE('',(#1476),#1465,.F.);
#1478=CARTESIAN_POINT('',(8.270000000000001,2.499999999999998,3.0));
#1479=DIRECTION('',(0.0,-1.0,0.0));
#1480=DIRECTION('',(0.0,0.0,-1.0));
#1481=AXIS2_PLACEMENT_3D('',#1478,#1479,#1480);
#1482=PLANE('',#1481);
#1483=ORIENTED_EDGE('',*,*,#1419,.T.);
#1484=ORIENTED_EDGE('',*,*,#1472,.F.);
#1485=ORIENTED_EDGE('',*,*,#1362,.F.);
#1486=ORIENTED_EDGE('',*,*,#1455,.F.);
#1487=EDGE_LOOP('',(#1483,#1484,#1485,#1486));
#1488=FACE_OUTER_BOUND('',#1487,.T.);
#1489=ADVANCED_FACE('',(#1488),#1482,.F.);
#1490=CARTESIAN_POINT('',(8.270000000000000,-2.500000000000002,3.0));
#1491=DIRECTION('',(0.0,1.0,0.0));
#1492=DIRECTION('',(0.0,0.0,1.0));
#1493=AXIS2_PLACEMENT_3D('',#1490,#1491,#1492);
#1494=PLANE('',#1493);
#1495=ORIENTED_EDGE('',*,*,#1346,.T.);
#1496=ORIENTED_EDGE('',*,*,#1391,.F.);
#1497=ORIENTED_EDGE('',*,*,#1433,.F.);
#1498=ORIENTED_EDGE('',*,*,#1448,.F.);
#1499=EDGE_LOOP('',(#1495,#1496,#1497,#1498));
#1500=FACE_OUTER_BOUND('',#1499,.T.);
#1501=ADVANCED_FACE('',(#1500),#1494,.F.);
#1502=CLOSED_SHELL('',(#1261,#1292,#1323,#1372,#1396,#1438,#1460,#1477,#1489,#1501));
#1503=MANIFOLD_SOLID_BREP('88A',#1502);
#1504=COLOUR_RGB('250',0.330000000000000,0.330000000000000,0.330000000000000);
#1505=SURFACE_STYLE_USAGE(.BOTH.,#1506);
#1506=SURFACE_SIDE_STYLE('NONE',(#1507));
#1507=SURFACE_STYLE_FILL_AREA(#1508);
#1508=FILL_AREA_STYLE('NONE',(#1509));
#1509=FILL_AREA_STYLE_COLOUR('NONE',#1504);
#1510=PRESENTATION_STYLE_ASSIGNMENT((#1505));
#1511=STYLED_ITEM('NONE',(#1510),#1503);
#1512=ADVANCED_BREP_SHAPE_REPRESENTATION('ABSR1',(#350,#646,#933,#1220,#1503),#28);
#1513=SHAPE_REPRESENTATION_RELATIONSHIP('SRRPL1','',#1512,#62);
ENDSEC;
END-ISO-10303-21;
