ISO-10303-21;
HEADER;
/****************************************************************
 * Generated by software with PDElib inside                    *
 * PDElib Version v51a, created Fri 09/10/2010                  *
 * ITI Transcendata (http://www.transcendata.com/)              *
 ****************************************************************/
FILE_DESCRIPTION((''),'2;1');
FILE_NAME('TGS 2620.stp','2013-04-25T15:59:14',(''),(''),'Mechanical Desktop 2011','Mechanical Desktop 2011',', , ');
FILE_SCHEMA(('AUTOMOTIVE_DESIGN { 1 2 10303 214 1 1 1 1 }'));
ENDSEC;
DATA;
#10=(NAMED_UNIT(*)PLANE_ANGLE_UNIT()SI_UNIT($,.RADIAN.));
#11=DIMENSIONAL_EXPONENTS(0.0,0.0,0.0,0.0,0.0,0.0,0.0);
#12=PLANE_ANGLE_MEASURE_WITH_UNIT(PLANE_ANGLE_MEASURE(0.0174532925),#10);
#16=(CONVERSION_BASED_UNIT('DEGREE',#12)NAMED_UNIT(#11)PLANE_ANGLE_UNIT());
#20=(NAMED_UNIT(*)SI_UNIT($,.STERADIAN.)SOLID_ANGLE_UNIT());
#24=(LENGTH_UNIT()NAMED_UNIT(*)SI_UNIT(.MILLI.,.METRE.));
#26=UNCERTAINTY_MEASURE_WITH_UNIT(LENGTH_MEASURE(0.000001),#24,'DISTANCE_ACCURACY_VALUE','');
#28=(GEOMETRIC_REPRESENTATION_CONTEXT(3)GLOBAL_UNCERTAINTY_ASSIGNED_CONTEXT((#26))GLOBAL_UNIT_ASSIGNED_CONTEXT((#16,#20,#24))REPRESENTATION_CONTEXT('','3D'));
#29=APPLICATION_CONTEXT('automotive design');
#30=APPLICATION_PROTOCOL_DEFINITION('INTERNATIONAL_STANDARD','automotive_design',1998,#29);
#31=PRODUCT_CONTEXT('3D Mechanical Parts',#29,'mechanical');
#32=PRODUCT('Product','Product','',(#31));
#33=PRODUCT_RELATED_PRODUCT_CATEGORY('part',$,(#32));
#34=PRODUCT_CATEGORY('part',$);
#35=PERSON('1','Design','Joe',$,$,$);
#36=ORGANIZATION($,'None','None');
#37=PERSON_AND_ORGANIZATION(#35,#36);
#38=PERSON_AND_ORGANIZATION_ROLE('design_owner');
#39=APPLIED_PERSON_AND_ORGANIZATION_ASSIGNMENT(#37,#38,(#32));
#40=PRODUCT_DEFINITION_FORMATION_WITH_SPECIFIED_SOURCE('None','',#32,.BOUGHT.);
#41=PERSON('2','Creator','Joe',$,$,$);
#42=ORGANIZATION($,'None','None');
#43=PERSON_AND_ORGANIZATION(#41,#42);
#44=PERSON_AND_ORGANIZATION_ROLE('creator');
#45=APPLIED_PERSON_AND_ORGANIZATION_ASSIGNMENT(#43,#44,(#40));
#46=PERSON('3','Supplier','Joe',$,$,$);
#47=ORGANIZATION($,'None','None');
#48=PERSON_AND_ORGANIZATION(#46,#47);
#49=PERSON_AND_ORGANIZATION_ROLE('design_supplier');
#50=APPLIED_PERSON_AND_ORGANIZATION_ASSIGNMENT(#48,#49,(#40));
#51=PRODUCT_DEFINITION_CONTEXT('part definition',#29,'design');
#52=PRODUCT_DEFINITION('None','',#40,#51);
#53=PERSON('4','Creator','Joe',$,$,$);
#54=ORGANIZATION($,'None','None');
#55=PERSON_AND_ORGANIZATION(#53,#54);
#56=PERSON_AND_ORGANIZATION_ROLE('creator');
#57=APPLIED_PERSON_AND_ORGANIZATION_ASSIGNMENT(#55,#56,(#52));
#58=CARTESIAN_POINT('NONE',(0.0,0.0,0.0));
#59=DIRECTION('NONE',(0.0,0.0,1.0));
#60=DIRECTION('NONE',(1.0,0.0,0.0));
#61=AXIS2_PLACEMENT_3D('NONE',#58,#59,#60);
#62=SHAPE_REPRESENTATION('SR1',(#61),#28);
#63=PRODUCT_DEFINITION_SHAPE('PDS1','Test Part',#52);
#64=SHAPE_DEFINITION_REPRESENTATION(#63,#62);
#65=CARTESIAN_POINT('',(-0.25,5.2,0.0));
#66=DIRECTION('',(0.0,1.0,0.0));
#67=DIRECTION('',(0.0,0.0,1.0));
#68=AXIS2_PLACEMENT_3D('',#65,#66,#67);
#69=PLANE('',#68);
#70=CARTESIAN_POINT('',(-0.25,5.2,0.5));
#71=VERTEX_POINT('',#70);
#72=CARTESIAN_POINT('',(0.25,5.2,0.5));
#73=VERTEX_POINT('',#72);
#74=CARTESIAN_POINT('',(-0.25,5.2,0.5));
#75=DIRECTION('',(1.0,0.0,0.0));
#76=VECTOR('',#75,0.5);
#77=LINE('',#74,#76);
#78=EDGE_CURVE('',#71,#73,#77,.T.);
#79=ORIENTED_EDGE('',*,*,#78,.T.);
#80=CARTESIAN_POINT('',(0.25,5.2,0.0));
#81=VERTEX_POINT('',#80);
#82=CARTESIAN_POINT('',(0.25,5.2,0.0));
#83=DIRECTION('',(0.0,0.0,1.0));
#84=VECTOR('',#83,0.5);
#85=LINE('',#82,#84);
#86=EDGE_CURVE('',#81,#73,#85,.T.);
#87=ORIENTED_EDGE('',*,*,#86,.F.);
#88=CARTESIAN_POINT('',(-0.25,5.2,0.0));
#89=VERTEX_POINT('',#88);
#90=CARTESIAN_POINT('',(0.25,5.2,0.0));
#91=DIRECTION('',(-1.0,0.0,0.0));
#92=VECTOR('',#91,0.5);
#93=LINE('',#90,#92);
#94=EDGE_CURVE('',#81,#89,#93,.T.);
#95=ORIENTED_EDGE('',*,*,#94,.T.);
#96=CARTESIAN_POINT('',(-0.25,5.2,0.0));
#97=DIRECTION('',(0.0,0.0,1.0));
#98=VECTOR('',#97,0.5);
#99=LINE('',#96,#98);
#100=EDGE_CURVE('',#89,#71,#99,.T.);
#101=ORIENTED_EDGE('',*,*,#100,.T.);
#102=EDGE_LOOP('',(#79,#87,#95,#101));
#103=FACE_OUTER_BOUND('',#102,.T.);
#104=ADVANCED_FACE('',(#103),#69,.T.);
#105=CARTESIAN_POINT('',(0.25,5.2,0.0));
#106=DIRECTION('',(1.0,0.0,0.0));
#107=DIRECTION('',(0.0,0.0,-1.0));
#108=AXIS2_PLACEMENT_3D('',#105,#106,#107);
#109=PLANE('',#108);
#110=CARTESIAN_POINT('',(0.250000000000001,4.693346354148605,0.5));
#111=VERTEX_POINT('',#110);
#112=CARTESIAN_POINT('',(0.25,5.2,0.5));
#113=DIRECTION('',(0.0,-1.0,0.0));
#114=VECTOR('',#113,0.506653645851396);
#115=LINE('',#112,#114);
#116=EDGE_CURVE('',#73,#111,#115,.T.);
#117=ORIENTED_EDGE('',*,*,#116,.T.);
#118=CARTESIAN_POINT('',(0.250000000000001,4.693346354148605,0.0));
#119=VERTEX_POINT('',#118);
#120=CARTESIAN_POINT('',(0.250000000000001,4.693346354148605,0.0));
#121=DIRECTION('',(0.0,0.0,1.0));
#122=VECTOR('',#121,0.5);
#123=LINE('',#120,#122);
#124=EDGE_CURVE('',#119,#111,#123,.T.);
#125=ORIENTED_EDGE('',*,*,#124,.F.);
#126=CARTESIAN_POINT('',(0.250000000000001,4.693346354148605,0.0));
#127=DIRECTION('',(0.0,1.0,0.0));
#128=VECTOR('',#127,0.506653645851396);
#129=LINE('',#126,#128);
#130=EDGE_CURVE('',#119,#81,#129,.T.);
#131=ORIENTED_EDGE('',*,*,#130,.T.);
#132=ORIENTED_EDGE('',*,*,#86,.T.);
#133=EDGE_LOOP('',(#117,#125,#131,#132));
#134=FACE_OUTER_BOUND('',#133,.T.);
#135=ADVANCED_FACE('',(#134),#109,.T.);
#136=CARTESIAN_POINT('',(-7.809702E-015,-6.217249E-015,0.0));
#137=DIRECTION('',(0.0,0.0,1.0));
#138=DIRECTION('',(0.0,1.0,0.0));
#139=AXIS2_PLACEMENT_3D('',#136,#137,#138);
#140=CYLINDRICAL_SURFACE('',#139,4.700000000000007);
#141=CARTESIAN_POINT('',(-0.25,4.693346354148606,0.5));
#142=VERTEX_POINT('',#141);
#143=CARTESIAN_POINT('',(-7.809702E-015,-6.217249E-015,0.5));
#144=DIRECTION('',(0.0,0.0,1.0));
#145=DIRECTION('',(0.0,1.0,0.0));
#146=AXIS2_PLACEMENT_3D('',#143,#144,#145);
#147=CIRCLE('',#146,4.700000000000007);
#148=EDGE_CURVE('',#111,#142,#147,.T.);
#149=ORIENTED_EDGE('',*,*,#148,.T.);
#150=CARTESIAN_POINT('',(-0.25,4.693346354148606,0.0));
#151=VERTEX_POINT('',#150);
#152=CARTESIAN_POINT('',(-0.25,4.693346354148606,0.0));
#153=DIRECTION('',(0.0,0.0,1.0));
#154=VECTOR('',#153,0.5);
#155=LINE('',#152,#154);
#156=EDGE_CURVE('',#151,#142,#155,.T.);
#157=ORIENTED_EDGE('',*,*,#156,.F.);
#158=CARTESIAN_POINT('',(-7.809702E-015,-6.217249E-015,0.0));
#159=DIRECTION('',(0.0,0.0,-1.0));
#160=DIRECTION('',(0.0,1.0,0.0));
#161=AXIS2_PLACEMENT_3D('',#158,#159,#160);
#162=CIRCLE('',#161,4.700000000000007);
#163=EDGE_CURVE('',#151,#119,#162,.T.);
#164=ORIENTED_EDGE('',*,*,#163,.T.);
#165=ORIENTED_EDGE('',*,*,#124,.T.);
#166=EDGE_LOOP('',(#149,#157,#164,#165));
#167=FACE_OUTER_BOUND('',#166,.T.);
#168=ADVANCED_FACE('',(#167),#140,.F.);
#169=CARTESIAN_POINT('',(-0.25,4.693346354148606,0.0));
#170=DIRECTION('',(-1.0,0.0,0.0));
#171=DIRECTION('',(0.0,0.0,1.0));
#172=AXIS2_PLACEMENT_3D('',#169,#170,#171);
#173=PLANE('',#172);
#174=CARTESIAN_POINT('',(-0.25,4.693346354148606,0.5));
#175=DIRECTION('',(0.0,1.0,0.0));
#176=VECTOR('',#175,0.506653645851395);
#177=LINE('',#174,#176);
#178=EDGE_CURVE('',#142,#71,#177,.T.);
#179=ORIENTED_EDGE('',*,*,#178,.T.);
#180=ORIENTED_EDGE('',*,*,#100,.F.);
#181=CARTESIAN_POINT('',(-0.25,5.2,0.0));
#182=DIRECTION('',(0.0,-1.0,0.0));
#183=VECTOR('',#182,0.506653645851395);
#184=LINE('',#181,#183);
#185=EDGE_CURVE('',#89,#151,#184,.T.);
#186=ORIENTED_EDGE('',*,*,#185,.T.);
#187=ORIENTED_EDGE('',*,*,#156,.T.);
#188=EDGE_LOOP('',(#179,#180,#186,#187));
#189=FACE_OUTER_BOUND('',#188,.T.);
#190=ADVANCED_FACE('',(#189),#173,.T.);
#191=CARTESIAN_POINT('',(5.674941E-016,4.947635232681672,0.0));
#192=DIRECTION('',(0.0,0.0,1.0));
#193=DIRECTION('',(1.0,0.0,0.0));
#194=AXIS2_PLACEMENT_3D('',#191,#192,#193);
#195=PLANE('',#194);
#196=ORIENTED_EDGE('',*,*,#185,.F.);
#197=ORIENTED_EDGE('',*,*,#94,.F.);
#198=ORIENTED_EDGE('',*,*,#130,.F.);
#199=ORIENTED_EDGE('',*,*,#163,.F.);
#200=EDGE_LOOP('',(#196,#197,#198,#199));
#201=FACE_OUTER_BOUND('',#200,.T.);
#202=ADVANCED_FACE('',(#201),#195,.F.);
#203=CARTESIAN_POINT('',(5.646698E-016,4.947635232681672,0.5));
#204=DIRECTION('',(0.0,0.0,1.0));
#205=DIRECTION('',(1.0,0.0,0.0));
#206=AXIS2_PLACEMENT_3D('',#203,#204,#205);
#207=PLANE('',#206);
#208=ORIENTED_EDGE('',*,*,#78,.F.);
#209=ORIENTED_EDGE('',*,*,#178,.F.);
#210=ORIENTED_EDGE('',*,*,#148,.F.);
#211=ORIENTED_EDGE('',*,*,#116,.F.);
#212=EDGE_LOOP('',(#208,#209,#210,#211));
#213=FACE_OUTER_BOUND('',#212,.T.);
#214=ADVANCED_FACE('',(#213),#207,.T.);
#215=CLOSED_SHELL('',(#104,#135,#168,#190,#202,#214));
#216=MANIFOLD_SOLID_BREP('1C01',#215);
#217=COLOUR_RGB('254',0.866,0.866,0.866);
#218=SURFACE_STYLE_USAGE(.BOTH.,#219);
#219=SURFACE_SIDE_STYLE('NONE',(#220));
#220=SURFACE_STYLE_FILL_AREA(#221);
#221=FILL_AREA_STYLE('NONE',(#222));
#222=FILL_AREA_STYLE_COLOUR('NONE',#217);
#223=PRESENTATION_STYLE_ASSIGNMENT((#218));
#224=STYLED_ITEM('NONE',(#223),#216);
#225=MECHANICAL_DESIGN_GEOMETRIC_PRESENTATION_REPRESENTATION('NONE',(#224,#322,#411,#1020,#1109,#1198,#1287,#1376),#28);
#226=PRESENTATION_LAYER_ASSIGNMENT('3D','None',(#216,#314,#410,#1019,#1108,#1197,#1286,#1375));
#227=CARTESIAN_POINT('',(0.0,0.0,8.100000000000001));
#228=DIRECTION('',(0.0,0.0,-1.0));
#229=DIRECTION('',(1.0,0.0,0.0));
#230=AXIS2_PLACEMENT_3D('',#227,#228,#229);
#231=CYLINDRICAL_SURFACE('',#230,3.65);
#232=CARTESIAN_POINT('',(3.65,0.0,7.900000000000001));
#233=VERTEX_POINT('',#232);
#234=CARTESIAN_POINT('',(3.65,0.0,8.100000000000001));
#235=VERTEX_POINT('',#234);
#236=CARTESIAN_POINT('',(3.65,0.0,7.900000000000001));
#237=DIRECTION('',(0.0,0.0,1.0));
#238=VECTOR('',#237,0.2);
#239=LINE('',#236,#238);
#240=EDGE_CURVE('',#233,#235,#239,.T.);
#241=ORIENTED_EDGE('',*,*,#240,.F.);
#242=CARTESIAN_POINT('',(-3.65,4.469961E-016,7.900000000000001));
#243=VERTEX_POINT('',#242);
#244=CARTESIAN_POINT('',(0.0,0.0,7.900000000000001));
#245=DIRECTION('',(0.0,0.0,1.0));
#246=DIRECTION('',(1.0,0.0,0.0));
#247=AXIS2_PLACEMENT_3D('',#244,#245,#246);
#248=CIRCLE('',#247,3.65);
#249=EDGE_CURVE('',#233,#243,#248,.T.);
#250=ORIENTED_EDGE('',*,*,#249,.T.);
#251=CARTESIAN_POINT('',(-3.65,4.469961E-016,8.100000000000001));
#252=VERTEX_POINT('',#251);
#253=CARTESIAN_POINT('',(-3.65,4.469961E-016,7.900000000000001));
#254=DIRECTION('',(0.0,0.0,1.0));
#255=VECTOR('',#254,0.2);
#256=LINE('',#253,#255);
#257=EDGE_CURVE('',#243,#252,#256,.T.);
#258=ORIENTED_EDGE('',*,*,#257,.T.);
#259=CARTESIAN_POINT('',(0.0,0.0,8.100000000000001));
#260=DIRECTION('',(0.0,0.0,1.0));
#261=DIRECTION('',(1.0,0.0,0.0));
#262=AXIS2_PLACEMENT_3D('',#259,#260,#261);
#263=CIRCLE('',#262,3.65);
#264=EDGE_CURVE('',#235,#252,#263,.T.);
#265=ORIENTED_EDGE('',*,*,#264,.F.);
#266=EDGE_LOOP('',(#241,#250,#258,#265));
#267=FACE_OUTER_BOUND('',#266,.T.);
#268=ADVANCED_FACE('',(#267),#231,.T.);
#269=CARTESIAN_POINT('',(0.0,0.0,8.100000000000001));
#270=DIRECTION('',(0.0,0.0,-1.0));
#271=DIRECTION('',(1.0,0.0,0.0));
#272=AXIS2_PLACEMENT_3D('',#269,#270,#271);
#273=CYLINDRICAL_SURFACE('',#272,3.65);
#274=ORIENTED_EDGE('',*,*,#240,.T.);
#275=CARTESIAN_POINT('',(0.0,0.0,8.100000000000001));
#276=DIRECTION('',(0.0,0.0,1.0));
#277=DIRECTION('',(1.0,0.0,0.0));
#278=AXIS2_PLACEMENT_3D('',#275,#276,#277);
#279=CIRCLE('',#278,3.65);
#280=EDGE_CURVE('',#252,#235,#279,.T.);
#281=ORIENTED_EDGE('',*,*,#280,.F.);
#282=ORIENTED_EDGE('',*,*,#257,.F.);
#283=CARTESIAN_POINT('',(0.0,0.0,7.900000000000001));
#284=DIRECTION('',(0.0,0.0,1.0));
#285=DIRECTION('',(1.0,0.0,0.0));
#286=AXIS2_PLACEMENT_3D('',#283,#284,#285);
#287=CIRCLE('',#286,3.65);
#288=EDGE_CURVE('',#243,#233,#287,.T.);
#289=ORIENTED_EDGE('',*,*,#288,.T.);
#290=EDGE_LOOP('',(#274,#281,#282,#289));
#291=FACE_OUTER_BOUND('',#290,.T.);
#292=ADVANCED_FACE('',(#291),#273,.T.);
#293=CARTESIAN_POINT('',(0.0,0.0,7.900000000000001));
#294=DIRECTION('',(0.0,0.0,1.0));
#295=DIRECTION('',(1.0,0.0,0.0));
#296=AXIS2_PLACEMENT_3D('',#293,#294,#295);
#297=PLANE('',#296);
#298=ORIENTED_EDGE('',*,*,#249,.F.);
#299=ORIENTED_EDGE('',*,*,#288,.F.);
#300=EDGE_LOOP('',(#298,#299));
#301=FACE_OUTER_BOUND('',#300,.T.);
#302=ADVANCED_FACE('',(#301),#297,.F.);
#303=CARTESIAN_POINT('',(0.0,0.0,8.100000000000001));
#304=DIRECTION('',(0.0,0.0,1.0));
#305=DIRECTION('',(1.0,0.0,0.0));
#306=AXIS2_PLACEMENT_3D('',#303,#304,#305);
#307=PLANE('',#306);
#308=ORIENTED_EDGE('',*,*,#264,.T.);
#309=ORIENTED_EDGE('',*,*,#280,.T.);
#310=EDGE_LOOP('',(#308,#309));
#311=FACE_OUTER_BOUND('',#310,.T.);
#312=ADVANCED_FACE('',(#311),#307,.T.);
#313=CLOSED_SHELL('',(#268,#292,#302,#312));
#314=MANIFOLD_SOLID_BREP('1BE8',#313);
#315=COLOUR_RGB('253',0.732,0.732,0.732);
#316=SURFACE_STYLE_USAGE(.BOTH.,#317);
#317=SURFACE_SIDE_STYLE('NONE',(#318));
#318=SURFACE_STYLE_FILL_AREA(#319);
#319=FILL_AREA_STYLE('NONE',(#320));
#320=FILL_AREA_STYLE_COLOUR('NONE',#315);
#321=PRESENTATION_STYLE_ASSIGNMENT((#316));
#322=STYLED_ITEM('NONE',(#321),#314);
#323=CARTESIAN_POINT('',(0.0,0.0,0.0));
#324=DIRECTION('',(0.0,0.0,1.0));
#325=DIRECTION('',(1.0,0.0,0.0));
#326=AXIS2_PLACEMENT_3D('',#323,#324,#325);
#327=CYLINDRICAL_SURFACE('',#326,4.7);
#328=CARTESIAN_POINT('',(4.7,0.0,0.5));
#329=VERTEX_POINT('',#328);
#330=CARTESIAN_POINT('',(4.7,0.0,0.0));
#331=VERTEX_POINT('',#330);
#332=CARTESIAN_POINT('',(4.7,0.0,0.5));
#333=DIRECTION('',(0.0,0.0,-1.0));
#334=VECTOR('',#333,0.5);
#335=LINE('',#332,#334);
#336=EDGE_CURVE('',#329,#331,#335,.T.);
#337=ORIENTED_EDGE('',*,*,#336,.F.);
#338=CARTESIAN_POINT('',(-4.7,-5.755840E-016,0.5));
#339=VERTEX_POINT('',#338);
#340=CARTESIAN_POINT('',(0.0,0.0,0.5));
#341=DIRECTION('',(0.0,0.0,-1.0));
#342=DIRECTION('',(1.0,0.0,0.0));
#343=AXIS2_PLACEMENT_3D('',#340,#341,#342);
#344=CIRCLE('',#343,4.7);
#345=EDGE_CURVE('',#329,#339,#344,.T.);
#346=ORIENTED_EDGE('',*,*,#345,.T.);
#347=CARTESIAN_POINT('',(-4.7,-5.755840E-016,0.0));
#348=VERTEX_POINT('',#347);
#349=CARTESIAN_POINT('',(-4.7,-5.755840E-016,0.5));
#350=DIRECTION('',(0.0,0.0,-1.0));
#351=VECTOR('',#350,0.5);
#352=LINE('',#349,#351);
#353=EDGE_CURVE('',#339,#348,#352,.T.);
#354=ORIENTED_EDGE('',*,*,#353,.T.);
#355=CARTESIAN_POINT('',(0.0,0.0,0.0));
#356=DIRECTION('',(0.0,0.0,1.0));
#357=DIRECTION('',(1.0,0.0,0.0));
#358=AXIS2_PLACEMENT_3D('',#355,#356,#357);
#359=CIRCLE('',#358,4.7);
#360=EDGE_CURVE('',#348,#331,#359,.T.);
#361=ORIENTED_EDGE('',*,*,#360,.T.);
#362=EDGE_LOOP('',(#337,#346,#354,#361));
#363=FACE_OUTER_BOUND('',#362,.T.);
#364=ADVANCED_FACE('',(#363),#327,.T.);
#365=CARTESIAN_POINT('',(0.0,0.0,0.0));
#366=DIRECTION('',(0.0,0.0,1.0));
#367=DIRECTION('',(1.0,0.0,0.0));
#368=AXIS2_PLACEMENT_3D('',#365,#366,#367);
#369=CYLINDRICAL_SURFACE('',#368,4.7);
#370=ORIENTED_EDGE('',*,*,#336,.T.);
#371=CARTESIAN_POINT('',(0.0,0.0,0.0));
#372=DIRECTION('',(0.0,0.0,1.0));
#373=DIRECTION('',(1.0,0.0,0.0));
#374=AXIS2_PLACEMENT_3D('',#371,#372,#373);
#375=CIRCLE('',#374,4.7);
#376=EDGE_CURVE('',#331,#348,#375,.T.);
#377=ORIENTED_EDGE('',*,*,#376,.T.);
#378=ORIENTED_EDGE('',*,*,#353,.F.);
#379=CARTESIAN_POINT('',(0.0,0.0,0.5));
#380=DIRECTION('',(0.0,0.0,-1.0));
#381=DIRECTION('',(1.0,0.0,0.0));
#382=AXIS2_PLACEMENT_3D('',#379,#380,#381);
#383=CIRCLE('',#382,4.7);
#384=EDGE_CURVE('',#339,#329,#383,.T.);
#385=ORIENTED_EDGE('',*,*,#384,.T.);
#386=EDGE_LOOP('',(#370,#377,#378,#385));
#387=FACE_OUTER_BOUND('',#386,.T.);
#388=ADVANCED_FACE('',(#387),#369,.T.);
#389=CARTESIAN_POINT('',(0.0,0.0,0.0));
#390=DIRECTION('',(0.0,0.0,1.0));
#391=DIRECTION('',(1.0,0.0,0.0));
#392=AXIS2_PLACEMENT_3D('',#389,#390,#391);
#393=PLANE('',#392);
#394=ORIENTED_EDGE('',*,*,#376,.F.);
#395=ORIENTED_EDGE('',*,*,#360,.F.);
#396=EDGE_LOOP('',(#394,#395));
#397=FACE_OUTER_BOUND('',#396,.T.);
#398=ADVANCED_FACE('',(#397),#393,.F.);
#399=CARTESIAN_POINT('',(0.0,0.0,0.5));
#400=DIRECTION('',(0.0,0.0,1.0));
#401=DIRECTION('',(1.0,0.0,0.0));
#402=AXIS2_PLACEMENT_3D('',#399,#400,#401);
#403=PLANE('',#402);
#404=ORIENTED_EDGE('',*,*,#345,.F.);
#405=ORIENTED_EDGE('',*,*,#384,.F.);
#406=EDGE_LOOP('',(#404,#405));
#407=FACE_OUTER_BOUND('',#406,.T.);
#408=ADVANCED_FACE('',(#407),#403,.T.);
#409=CLOSED_SHELL('',(#364,#388,#398,#408));
#410=MANIFOLD_SOLID_BREP('1BD6',#409);
#411=STYLED_ITEM('NONE',(#223),#410);
#412=CARTESIAN_POINT('',(0.0,0.0,0.0));
#413=DIRECTION('',(0.0,0.0,1.0));
#414=DIRECTION('',(1.0,0.0,0.0));
#415=AXIS2_PLACEMENT_3D('',#412,#413,#414);
#416=CYLINDRICAL_SURFACE('',#415,4.15);
#417=CARTESIAN_POINT('',(4.15,0.0,0.5));
#418=VERTEX_POINT('',#417);
#419=CARTESIAN_POINT('',(4.15,0.0,0.0));
#420=VERTEX_POINT('',#419);
#421=CARTESIAN_POINT('',(4.15,0.0,0.5));
#422=DIRECTION('',(0.0,0.0,-1.0));
#423=VECTOR('',#422,0.5);
#424=LINE('',#421,#423);
#425=EDGE_CURVE('',#418,#420,#424,.T.);
#426=ORIENTED_EDGE('',*,*,#425,.F.);
#427=CARTESIAN_POINT('',(-4.15,5.082284E-016,0.5));
#428=VERTEX_POINT('',#427);
#429=CARTESIAN_POINT('',(0.0,0.0,0.5));
#430=DIRECTION('',(0.0,0.0,-1.0));
#431=DIRECTION('',(1.0,0.0,0.0));
#432=AXIS2_PLACEMENT_3D('',#429,#430,#431);
#433=CIRCLE('',#432,4.15);
#434=EDGE_CURVE('',#418,#428,#433,.T.);
#435=ORIENTED_EDGE('',*,*,#434,.T.);
#436=CARTESIAN_POINT('',(-4.15,-5.082284E-016,0.0));
#437=VERTEX_POINT('',#436);
#438=CARTESIAN_POINT('',(-4.15,-5.082284E-016,0.5));
#439=DIRECTION('',(0.0,0.0,-1.0));
#440=VECTOR('',#439,0.5);
#441=LINE('',#438,#440);
#442=EDGE_CURVE('',#428,#437,#441,.T.);
#443=ORIENTED_EDGE('',*,*,#442,.T.);
#444=CARTESIAN_POINT('',(0.0,0.0,0.0));
#445=DIRECTION('',(0.0,0.0,1.0));
#446=DIRECTION('',(1.0,0.0,0.0));
#447=AXIS2_PLACEMENT_3D('',#444,#445,#446);
#448=CIRCLE('',#447,4.15);
#449=EDGE_CURVE('',#437,#420,#448,.T.);
#450=ORIENTED_EDGE('',*,*,#449,.T.);
#451=EDGE_LOOP('',(#426,#435,#443,#450));
#452=FACE_OUTER_BOUND('',#451,.T.);
#453=ADVANCED_FACE('',(#452),#416,.T.);
#454=CARTESIAN_POINT('',(0.0,0.0,0.5));
#455=DIRECTION('',(0.0,0.0,1.0));
#456=DIRECTION('',(1.0,0.0,0.0));
#457=AXIS2_PLACEMENT_3D('',#454,#455,#456);
#458=CYLINDRICAL_SURFACE('',#457,4.7);
#459=CARTESIAN_POINT('',(4.7,0.0,1.0));
#460=VERTEX_POINT('',#459);
#461=CARTESIAN_POINT('',(4.7,0.0,0.5));
#462=VERTEX_POINT('',#461);
#463=CARTESIAN_POINT('',(4.7,0.0,1.0));
#464=DIRECTION('',(0.0,0.0,-1.0));
#465=VECTOR('',#464,0.5);
#466=LINE('',#463,#465);
#467=EDGE_CURVE('',#460,#462,#466,.T.);
#468=ORIENTED_EDGE('',*,*,#467,.F.);
#469=CARTESIAN_POINT('',(-4.7,-5.755840E-016,1.0));
#470=VERTEX_POINT('',#469);
#471=CARTESIAN_POINT('',(0.0,0.0,1.0));
#472=DIRECTION('',(0.0,0.0,-1.0));
#473=DIRECTION('',(1.0,0.0,0.0));
#474=AXIS2_PLACEMENT_3D('',#471,#472,#473);
#475=CIRCLE('',#474,4.7);
#476=EDGE_CURVE('',#460,#470,#475,.T.);
#477=ORIENTED_EDGE('',*,*,#476,.T.);
#478=CARTESIAN_POINT('',(-4.7,-5.755840E-016,0.5));
#479=VERTEX_POINT('',#478);
#480=CARTESIAN_POINT('',(-4.7,-5.755840E-016,1.0));
#481=DIRECTION('',(0.0,0.0,-1.0));
#482=VECTOR('',#481,0.5);
#483=LINE('',#480,#482);
#484=EDGE_CURVE('',#470,#479,#483,.T.);
#485=ORIENTED_EDGE('',*,*,#484,.T.);
#486=CARTESIAN_POINT('',(0.0,0.0,0.5));
#487=DIRECTION('',(0.0,0.0,1.0));
#488=DIRECTION('',(1.0,0.0,0.0));
#489=AXIS2_PLACEMENT_3D('',#486,#487,#488);
#490=CIRCLE('',#489,4.7);
#491=EDGE_CURVE('',#479,#462,#490,.T.);
#492=ORIENTED_EDGE('',*,*,#491,.T.);
#493=EDGE_LOOP('',(#468,#477,#485,#492));
#494=FACE_OUTER_BOUND('',#493,.T.);
#495=ADVANCED_FACE('',(#494),#458,.T.);
#496=CARTESIAN_POINT('',(-4.15,-5.082284E-016,1.5));
#497=CARTESIAN_POINT('',(-4.15,-5.082284E-016,1.0));
#498=CARTESIAN_POINT('',(-4.65,-5.694608E-016,1.0));
#499=CARTESIAN_POINT('',(-5.15,-6.306931E-016,1.0));
#500=CARTESIAN_POINT('',(-5.15,-6.306931E-016,1.5));
#501=CARTESIAN_POINT('',(-4.149999999999999,-4.15,1.5));
#502=CARTESIAN_POINT('',(-4.149999999999999,-4.15,1.0));
#503=CARTESIAN_POINT('',(-4.649999999999999,-4.65,1.0));
#504=CARTESIAN_POINT('',(-5.149999999999999,-5.15,1.0));
#505=CARTESIAN_POINT('',(-5.149999999999999,-5.15,1.5));
#506=CARTESIAN_POINT('',(5.082284E-016,-4.15,1.5));
#507=CARTESIAN_POINT('',(5.082284E-016,-4.15,1.0));
#508=CARTESIAN_POINT('',(5.694608E-016,-4.65,1.0));
#509=CARTESIAN_POINT('',(6.306931E-016,-5.15,1.0));
#510=CARTESIAN_POINT('',(6.306931E-016,-5.15,1.5));
#511=CARTESIAN_POINT('',(4.15,-4.149999999999999,1.5));
#512=CARTESIAN_POINT('',(4.15,-4.149999999999999,1.0));
#513=CARTESIAN_POINT('',(4.65,-4.649999999999999,1.0));
#514=CARTESIAN_POINT('',(5.15,-5.149999999999999,1.0));
#515=CARTESIAN_POINT('',(5.15,-5.149999999999999,1.5));
#516=CARTESIAN_POINT('',(4.15,5.082284E-016,1.5));
#517=CARTESIAN_POINT('',(4.15,5.082284E-016,1.0));
#518=CARTESIAN_POINT('',(4.65,5.694608E-016,1.0));
#519=CARTESIAN_POINT('',(5.15,6.306931E-016,1.0));
#520=CARTESIAN_POINT('',(5.15,6.306931E-016,1.5));
#521=CARTESIAN_POINT('',(4.149999999999999,4.15,1.5));
#522=CARTESIAN_POINT('',(4.149999999999999,4.15,1.0));
#523=CARTESIAN_POINT('',(4.649999999999999,4.65,1.0));
#524=CARTESIAN_POINT('',(5.149999999999999,5.15,1.0));
#525=CARTESIAN_POINT('',(5.149999999999999,5.15,1.5));
#526=CARTESIAN_POINT('',(-5.082284E-016,4.15,1.5));
#527=CARTESIAN_POINT('',(-5.082284E-016,4.15,1.0));
#528=CARTESIAN_POINT('',(-5.694608E-016,4.65,1.0));
#529=CARTESIAN_POINT('',(-6.306931E-016,5.15,1.0));
#530=CARTESIAN_POINT('',(-6.306931E-016,5.15,1.5));
#531=CARTESIAN_POINT('',(-4.15,4.149999999999999,1.5));
#532=CARTESIAN_POINT('',(-4.15,4.149999999999999,1.0));
#533=CARTESIAN_POINT('',(-4.65,4.649999999999999,1.0));
#534=CARTESIAN_POINT('',(-5.15,5.149999999999999,1.0));
#535=CARTESIAN_POINT('',(-5.15,5.149999999999999,1.5));
#536=CARTESIAN_POINT('',(-4.15,-5.082284E-016,1.5));
#537=CARTESIAN_POINT('',(-4.15,-5.082284E-016,1.0));
#538=CARTESIAN_POINT('',(-4.65,-5.694608E-016,1.0));
#539=CARTESIAN_POINT('',(-5.15,-6.306931E-016,1.0));
#540=CARTESIAN_POINT('',(-5.15,-6.306931E-016,1.5));
#548=(BOUNDED_SURFACE()B_SPLINE_SURFACE(2,2,((#496,#501,#506,#511,#516,#521,#526,#531,#536),(#497,#502,#507,#512,#517,#522,#527,#532,#537),(#498,#503,#508,#513,#518,#523,#528,#533,#538),(#499,#504,#509,#514,#519,#524,#529,#534,#539),(#500,#505,#510,#515,#520,#525,#530,#535,#540)),.UNSPECIFIED.,.F.,.T.,.U.)B_SPLINE_SURFACE_WITH_KNOTS((3,2,3),(3,2,2,2,3),(-3.141592653589793,-1.570796326794897,0.0),(0.0,1.570796326794897,3.141592653589793,4.71238898038469,6.283185307179586),.UNSPECIFIED.)GEOMETRIC_REPRESENTATION_ITEM()RATIONAL_B_SPLINE_SURFACE(((1.0,0.707106781186548,1.0,0.707106781186548,1.0,0.707106781186548,1.0,0.707106781186548,1.0),(0.707106781186548,0.500000000000001,0.707106781186548,0.500000000000001,0.707106781186548,0.500000000000001,0.707106781186548,0.500000000000001,0.707106781186548),(1.0,0.707106781186548,1.0,0.707106781186548,1.0,0.707106781186548,1.0,0.707106781186548,1.0),(0.707106781186548,0.500000000000001,0.707106781186548,0.500000000000001,0.707106781186548,0.500000000000001,0.707106781186548,0.500000000000001,0.707106781186548),(1.0,0.707106781186548,1.0,0.707106781186548,1.0,0.707106781186548,1.0,0.707106781186548,1.0)))REPRESENTATION_ITEM('')SURFACE());
#549=CARTESIAN_POINT('',(4.65,0.0,1.0));
#550=VERTEX_POINT('',#549);
#551=CARTESIAN_POINT('',(4.15,0.0,1.5));
#552=VERTEX_POINT('',#551);
#553=CARTESIAN_POINT('',(4.65,0.0,1.5));
#554=DIRECTION('',(0.0,1.0,0.0));
#555=DIRECTION('',(1.0,0.0,0.0));
#556=AXIS2_PLACEMENT_3D('',#553,#554,#555);
#557=CIRCLE('',#556,0.5);
#558=EDGE_CURVE('',#550,#552,#557,.T.);
#559=ORIENTED_EDGE('',*,*,#558,.F.);
#560=CARTESIAN_POINT('',(-4.65,-5.694608E-016,1.0));
#561=VERTEX_POINT('',#560);
#562=CARTESIAN_POINT('',(0.0,0.0,1.0));
#563=DIRECTION('',(0.0,0.0,1.0));
#564=DIRECTION('',(1.0,0.0,0.0));
#565=AXIS2_PLACEMENT_3D('',#562,#563,#564);
#566=CIRCLE('',#565,4.65);
#567=EDGE_CURVE('',#550,#561,#566,.T.);
#568=ORIENTED_EDGE('',*,*,#567,.T.);
#569=CARTESIAN_POINT('',(-4.15,5.082284E-016,1.5));
#570=VERTEX_POINT('',#569);
#571=CARTESIAN_POINT('',(-4.65,-5.694608E-016,1.5));
#572=DIRECTION('',(0.0,-1.0,0.0));
#573=DIRECTION('',(-1.0,0.0,0.0));
#574=AXIS2_PLACEMENT_3D('',#571,#572,#573);
#575=CIRCLE('',#574,0.5);
#576=EDGE_CURVE('',#561,#570,#575,.T.);
#577=ORIENTED_EDGE('',*,*,#576,.T.);
#578=CARTESIAN_POINT('',(0.0,0.0,1.5));
#579=DIRECTION('',(0.0,0.0,-1.0));
#580=DIRECTION('',(1.0,0.0,0.0));
#581=AXIS2_PLACEMENT_3D('',#578,#579,#580);
#582=CIRCLE('',#581,4.15);
#583=EDGE_CURVE('',#570,#552,#582,.T.);
#584=ORIENTED_EDGE('',*,*,#583,.T.);
#585=EDGE_LOOP('',(#559,#568,#577,#584));
#586=FACE_OUTER_BOUND('',#585,.T.);
#587=ADVANCED_FACE('',(#586),#548,.T.);
#588=CARTESIAN_POINT('',(0.0,0.0,8.100000000000001));
#589=DIRECTION('',(0.0,0.0,-1.0));
#590=DIRECTION('',(1.0,0.0,0.0));
#591=AXIS2_PLACEMENT_3D('',#588,#589,#590);
#592=CYLINDRICAL_SURFACE('',#591,3.65);
#593=CARTESIAN_POINT('',(3.65,0.0,8.100000000000001));
#594=VERTEX_POINT('',#593);
#595=CARTESIAN_POINT('',(3.65,0.0,7.900000000000001));
#596=VERTEX_POINT('',#595);
#597=CARTESIAN_POINT('',(3.65,0.0,8.100000000000001));
#598=DIRECTION('',(0.0,0.0,-1.0));
#599=VECTOR('',#598,0.2);
#600=LINE('',#597,#599);
#601=EDGE_CURVE('',#594,#596,#600,.T.);
#602=ORIENTED_EDGE('',*,*,#601,.F.);
#603=CARTESIAN_POINT('',(-3.65,4.469961E-016,8.100000000000001));
#604=VERTEX_POINT('',#603);
#605=CARTESIAN_POINT('',(0.0,0.0,8.100000000000001));
#606=DIRECTION('',(0.0,0.0,1.0));
#607=DIRECTION('',(1.0,0.0,0.0));
#608=AXIS2_PLACEMENT_3D('',#605,#606,#607);
#609=CIRCLE('',#608,3.65);
#610=EDGE_CURVE('',#594,#604,#609,.T.);
#611=ORIENTED_EDGE('',*,*,#610,.T.);
#612=CARTESIAN_POINT('',(-3.65,4.469961E-016,7.900000000000001));
#613=VERTEX_POINT('',#612);
#614=CARTESIAN_POINT('',(-3.65,4.469961E-016,8.100000000000001));
#615=DIRECTION('',(0.0,0.0,-1.0));
#616=VECTOR('',#615,0.2);
#617=LINE('',#614,#616);
#618=EDGE_CURVE('',#604,#613,#617,.T.);
#619=ORIENTED_EDGE('',*,*,#618,.T.);
#620=CARTESIAN_POINT('',(0.0,0.0,7.900000000000001));
#621=DIRECTION('',(0.0,0.0,1.0));
#622=DIRECTION('',(1.0,0.0,0.0));
#623=AXIS2_PLACEMENT_3D('',#620,#621,#622);
#624=CIRCLE('',#623,3.65);
#625=EDGE_CURVE('',#596,#613,#624,.T.);
#626=ORIENTED_EDGE('',*,*,#625,.F.);
#627=EDGE_LOOP('',(#602,#611,#619,#626));
#628=FACE_OUTER_BOUND('',#627,.T.);
#629=ADVANCED_FACE('',(#628),#592,.F.);
#630=CARTESIAN_POINT('',(0.0,0.0,8.300000000000001));
#631=DIRECTION('',(0.0,0.0,-1.0));
#632=DIRECTION('',(1.0,0.0,0.0));
#633=AXIS2_PLACEMENT_3D('',#630,#631,#632);
#634=CYLINDRICAL_SURFACE('',#633,2.0);
#635=CARTESIAN_POINT('',(2.0,0.0,8.300000000000001));
#636=VERTEX_POINT('',#635);
#637=CARTESIAN_POINT('',(2.0,0.0,8.100000000000001));
#638=VERTEX_POINT('',#637);
#639=CARTESIAN_POINT('',(2.0,0.0,8.300000000000001));
#640=DIRECTION('',(0.0,0.0,-1.0));
#641=VECTOR('',#640,0.199999999999999);
#642=LINE('',#639,#641);
#643=EDGE_CURVE('',#636,#638,#642,.T.);
#644=ORIENTED_EDGE('',*,*,#643,.F.);
#645=CARTESIAN_POINT('',(-2.0,2.449294E-016,8.300000000000001));
#646=VERTEX_POINT('',#645);
#647=CARTESIAN_POINT('',(0.0,0.0,8.300000000000001));
#648=DIRECTION('',(0.0,0.0,-1.0));
#649=DIRECTION('',(1.0,0.0,0.0));
#650=AXIS2_PLACEMENT_3D('',#647,#648,#649);
#651=CIRCLE('',#650,2.0);
#652=EDGE_CURVE('',#646,#636,#651,.T.);
#653=ORIENTED_EDGE('',*,*,#652,.F.);
#654=CARTESIAN_POINT('',(-2.0,2.449294E-016,8.100000000000001));
#655=VERTEX_POINT('',#654);
#656=CARTESIAN_POINT('',(-2.0,2.449294E-016,8.300000000000001));
#657=DIRECTION('',(0.0,0.0,-1.0));
#658=VECTOR('',#657,0.199999999999999);
#659=LINE('',#656,#658);
#660=EDGE_CURVE('',#646,#655,#659,.T.);
#661=ORIENTED_EDGE('',*,*,#660,.T.);
#662=CARTESIAN_POINT('',(0.0,0.0,8.100000000000001));
#663=DIRECTION('',(0.0,0.0,-1.0));
#664=DIRECTION('',(1.0,0.0,0.0));
#665=AXIS2_PLACEMENT_3D('',#662,#663,#664);
#666=CIRCLE('',#665,2.0);
#667=EDGE_CURVE('',#655,#638,#666,.T.);
#668=ORIENTED_EDGE('',*,*,#667,.T.);
#669=EDGE_LOOP('',(#644,#653,#661,#668));
#670=FACE_OUTER_BOUND('',#669,.T.);
#671=ADVANCED_FACE('',(#670),#634,.F.);
#672=CARTESIAN_POINT('',(0.0,0.0,0.0));
#673=DIRECTION('',(0.0,0.0,1.0));
#674=DIRECTION('',(1.0,0.0,0.0));
#675=AXIS2_PLACEMENT_3D('',#672,#673,#674);
#676=CYLINDRICAL_SURFACE('',#675,4.15);
#677=CARTESIAN_POINT('',(4.15,1.016457E-015,7.800000000000001));
#678=VERTEX_POINT('',#677);
#679=CARTESIAN_POINT('',(4.15,0.0,7.800000000000001));
#680=DIRECTION('',(0.0,0.0,-1.0));
#681=VECTOR('',#680,6.300000000000001);
#682=LINE('',#679,#681);
#683=EDGE_CURVE('',#678,#552,#682,.T.);
#684=ORIENTED_EDGE('',*,*,#683,.F.);
#685=CARTESIAN_POINT('',(-4.15,0.0,7.800000000000001));
#686=VERTEX_POINT('',#685);
#687=CARTESIAN_POINT('',(0.0,0.0,7.800000000000001));
#688=DIRECTION('',(0.0,0.0,1.0));
#689=DIRECTION('',(-1.0,0.0,0.0));
#690=AXIS2_PLACEMENT_3D('',#687,#688,#689);
#691=CIRCLE('',#690,4.15);
#692=EDGE_CURVE('',#686,#678,#691,.T.);
#693=ORIENTED_EDGE('',*,*,#692,.F.);
#694=CARTESIAN_POINT('',(-4.15,-5.082284E-016,7.800000000000001));
#695=DIRECTION('',(0.0,0.0,-1.0));
#696=VECTOR('',#695,6.300000000000001);
#697=LINE('',#694,#696);
#698=EDGE_CURVE('',#686,#570,#697,.T.);
#699=ORIENTED_EDGE('',*,*,#698,.T.);
#700=CARTESIAN_POINT('',(0.0,0.0,1.5));
#701=DIRECTION('',(0.0,0.0,-1.0));
#702=DIRECTION('',(1.0,0.0,0.0));
#703=AXIS2_PLACEMENT_3D('',#700,#701,#702);
#704=CIRCLE('',#703,4.15);
#705=EDGE_CURVE('',#552,#570,#704,.T.);
#706=ORIENTED_EDGE('',*,*,#705,.F.);
#707=EDGE_LOOP('',(#684,#693,#699,#706));
#708=FACE_OUTER_BOUND('',#707,.T.);
#709=ADVANCED_FACE('',(#708),#676,.T.);
#710=CARTESIAN_POINT('',(0.0,0.0,7.800000000000001));
#711=DIRECTION('',(0.0,0.0,-1.0));
#712=DIRECTION('',(-1.0,0.0,0.0));
#713=AXIS2_PLACEMENT_3D('',#710,#711,#712);
#714=TOROIDAL_SURFACE('',#713,3.65,0.5);
#715=CARTESIAN_POINT('',(-3.65,0.0,8.300000000000001));
#716=VERTEX_POINT('',#715);
#717=CARTESIAN_POINT('',(-3.65,0.0,7.800000000000001));
#718=DIRECTION('',(0.0,1.0,0.0));
#719=DIRECTION('',(-1.0,0.0,0.0));
#720=AXIS2_PLACEMENT_3D('',#717,#718,#719);
#721=CIRCLE('',#720,0.5);
#722=EDGE_CURVE('',#686,#716,#721,.T.);
#723=ORIENTED_EDGE('',*,*,#722,.F.);
#724=ORIENTED_EDGE('',*,*,#692,.T.);
#725=CARTESIAN_POINT('',(3.65,0.0,8.300000000000001));
#726=VERTEX_POINT('',#725);
#727=CARTESIAN_POINT('',(3.65,-4.469961E-016,7.800000000000001));
#728=DIRECTION('',(0.0,-1.0,0.0));
#729=DIRECTION('',(1.0,0.0,0.0));
#730=AXIS2_PLACEMENT_3D('',#727,#728,#729);
#731=CIRCLE('',#730,0.5);
#732=EDGE_CURVE('',#678,#726,#731,.T.);
#733=ORIENTED_EDGE('',*,*,#732,.T.);
#734=CARTESIAN_POINT('',(0.0,0.0,8.300000000000001));
#735=DIRECTION('',(0.0,0.0,-1.0));
#736=DIRECTION('',(-1.0,0.0,0.0));
#737=AXIS2_PLACEMENT_3D('',#734,#735,#736);
#738=CIRCLE('',#737,3.65);
#739=EDGE_CURVE('',#726,#716,#738,.T.);
#740=ORIENTED_EDGE('',*,*,#739,.T.);
#741=EDGE_LOOP('',(#723,#724,#733,#740));
#742=FACE_OUTER_BOUND('',#741,.T.);
#743=ADVANCED_FACE('',(#742),#714,.T.);
#744=CARTESIAN_POINT('',(0.0,0.0,7.800000000000001));
#745=DIRECTION('',(0.0,0.0,-1.0));
#746=DIRECTION('',(-1.0,0.0,0.0));
#747=AXIS2_PLACEMENT_3D('',#744,#745,#746);
#748=TOROIDAL_SURFACE('',#747,3.65,0.5);
#749=ORIENTED_EDGE('',*,*,#722,.T.);
#750=CARTESIAN_POINT('',(0.0,0.0,8.300000000000001));
#751=DIRECTION('',(0.0,0.0,-1.0));
#752=DIRECTION('',(-1.0,0.0,0.0));
#753=AXIS2_PLACEMENT_3D('',#750,#751,#752);
#754=CIRCLE('',#753,3.65);
#755=EDGE_CURVE('',#716,#726,#754,.T.);
#756=ORIENTED_EDGE('',*,*,#755,.T.);
#757=ORIENTED_EDGE('',*,*,#732,.F.);
#758=CARTESIAN_POINT('',(0.0,0.0,7.800000000000001));
#759=DIRECTION('',(0.0,0.0,1.0));
#760=DIRECTION('',(-1.0,0.0,0.0));
#761=AXIS2_PLACEMENT_3D('',#758,#759,#760);
#762=CIRCLE('',#761,4.15);
#763=EDGE_CURVE('',#678,#686,#762,.T.);
#764=ORIENTED_EDGE('',*,*,#763,.T.);
#765=EDGE_LOOP('',(#749,#756,#757,#764));
#766=FACE_OUTER_BOUND('',#765,.T.);
#767=ADVANCED_FACE('',(#766),#748,.T.);
#768=CARTESIAN_POINT('',(0.0,0.0,0.0));
#769=DIRECTION('',(0.0,0.0,1.0));
#770=DIRECTION('',(1.0,0.0,0.0));
#771=AXIS2_PLACEMENT_3D('',#768,#769,#770);
#772=CYLINDRICAL_SURFACE('',#771,4.15);
#773=ORIENTED_EDGE('',*,*,#683,.T.);
#774=ORIENTED_EDGE('',*,*,#583,.F.);
#775=ORIENTED_EDGE('',*,*,#698,.F.);
#776=ORIENTED_EDGE('',*,*,#763,.F.);
#777=EDGE_LOOP('',(#773,#774,#775,#776));
#778=FACE_OUTER_BOUND('',#777,.T.);
#779=ADVANCED_FACE('',(#778),#772,.T.);
#780=CARTESIAN_POINT('',(0.0,0.0,8.300000000000001));
#781=DIRECTION('',(0.0,0.0,1.0));
#782=DIRECTION('',(1.0,0.0,0.0));
#783=AXIS2_PLACEMENT_3D('',#780,#781,#782);
#784=PLANE('',#783);
#785=ORIENTED_EDGE('',*,*,#739,.F.);
#786=ORIENTED_EDGE('',*,*,#755,.F.);
#787=EDGE_LOOP('',(#785,#786));
#788=FACE_OUTER_BOUND('',#787,.T.);
#789=CARTESIAN_POINT('',(0.0,0.0,8.300000000000001));
#790=DIRECTION('',(0.0,0.0,-1.0));
#791=DIRECTION('',(1.0,0.0,0.0));
#792=AXIS2_PLACEMENT_3D('',#789,#790,#791);
#793=CIRCLE('',#792,2.0);
#794=EDGE_CURVE('',#636,#646,#793,.T.);
#795=ORIENTED_EDGE('',*,*,#794,.T.);
#796=ORIENTED_EDGE('',*,*,#652,.T.);
#797=EDGE_LOOP('',(#795,#796));
#798=FACE_BOUND('',#797,.T.);
#799=ADVANCED_FACE('',(#788,#798),#784,.T.);
#800=CARTESIAN_POINT('',(0.0,0.0,8.300000000000001));
#801=DIRECTION('',(0.0,0.0,-1.0));
#802=DIRECTION('',(1.0,0.0,0.0));
#803=AXIS2_PLACEMENT_3D('',#800,#801,#802);
#804=CYLINDRICAL_SURFACE('',#803,2.0);
#805=ORIENTED_EDGE('',*,*,#643,.T.);
#806=CARTESIAN_POINT('',(0.0,0.0,8.100000000000001));
#807=DIRECTION('',(0.0,0.0,-1.0));
#808=DIRECTION('',(1.0,0.0,0.0));
#809=AXIS2_PLACEMENT_3D('',#806,#807,#808);
#810=CIRCLE('',#809,2.0);
#811=EDGE_CURVE('',#638,#655,#810,.T.);
#812=ORIENTED_EDGE('',*,*,#811,.T.);
#813=ORIENTED_EDGE('',*,*,#660,.F.);
#814=ORIENTED_EDGE('',*,*,#794,.F.);
#815=EDGE_LOOP('',(#805,#812,#813,#814));
#816=FACE_OUTER_BOUND('',#815,.T.);
#817=ADVANCED_FACE('',(#816),#804,.F.);
#818=CARTESIAN_POINT('',(0.0,0.0,8.100000000000001));
#819=DIRECTION('',(0.0,0.0,-1.0));
#820=DIRECTION('',(1.0,0.0,0.0));
#821=AXIS2_PLACEMENT_3D('',#818,#819,#820);
#822=CYLINDRICAL_SURFACE('',#821,3.65);
#823=ORIENTED_EDGE('',*,*,#601,.T.);
#824=CARTESIAN_POINT('',(0.0,0.0,7.900000000000001));
#825=DIRECTION('',(0.0,0.0,1.0));
#826=DIRECTION('',(1.0,0.0,0.0));
#827=AXIS2_PLACEMENT_3D('',#824,#825,#826);
#828=CIRCLE('',#827,3.65);
#829=EDGE_CURVE('',#613,#596,#828,.T.);
#830=ORIENTED_EDGE('',*,*,#829,.F.);
#831=ORIENTED_EDGE('',*,*,#618,.F.);
#832=CARTESIAN_POINT('',(0.0,0.0,8.100000000000001));
#833=DIRECTION('',(0.0,0.0,1.0));
#834=DIRECTION('',(1.0,0.0,0.0));
#835=AXIS2_PLACEMENT_3D('',#832,#833,#834);
#836=CIRCLE('',#835,3.65);
#837=EDGE_CURVE('',#604,#594,#836,.T.);
#838=ORIENTED_EDGE('',*,*,#837,.T.);
#839=EDGE_LOOP('',(#823,#830,#831,#838));
#840=FACE_OUTER_BOUND('',#839,.T.);
#841=ADVANCED_FACE('',(#840),#822,.F.);
#842=CARTESIAN_POINT('',(0.0,0.0,7.900000000000001));
#843=DIRECTION('',(0.0,0.0,1.0));
#844=DIRECTION('',(1.0,0.0,0.0));
#845=AXIS2_PLACEMENT_3D('',#842,#843,#844);
#846=PLANE('',#845);
#847=ORIENTED_EDGE('',*,*,#625,.T.);
#848=ORIENTED_EDGE('',*,*,#829,.T.);
#849=EDGE_LOOP('',(#847,#848));
#850=FACE_OUTER_BOUND('',#849,.T.);
#851=ADVANCED_FACE('',(#850),#846,.T.);
#852=CARTESIAN_POINT('',(0.0,0.0,8.100000000000001));
#853=DIRECTION('',(0.0,0.0,1.0));
#854=DIRECTION('',(1.0,0.0,0.0));
#855=AXIS2_PLACEMENT_3D('',#852,#853,#854);
#856=PLANE('',#855);
#857=ORIENTED_EDGE('',*,*,#610,.F.);
#858=ORIENTED_EDGE('',*,*,#837,.F.);
#859=EDGE_LOOP('',(#857,#858));
#860=FACE_OUTER_BOUND('',#859,.T.);
#861=ORIENTED_EDGE('',*,*,#811,.F.);
#862=ORIENTED_EDGE('',*,*,#667,.F.);
#863=EDGE_LOOP('',(#861,#862));
#864=FACE_BOUND('',#863,.T.);
#865=ADVANCED_FACE('',(#860,#864),#856,.F.);
#866=CARTESIAN_POINT('',(-4.15,-5.082284E-016,1.5));
#867=CARTESIAN_POINT('',(-4.15,-5.082284E-016,1.0));
#868=CARTESIAN_POINT('',(-4.65,-5.694608E-016,1.0));
#869=CARTESIAN_POINT('',(-5.15,-6.306931E-016,1.0));
#870=CARTESIAN_POINT('',(-5.15,-6.306931E-016,1.5));
#871=CARTESIAN_POINT('',(-4.149999999999999,-4.15,1.5));
#872=CARTESIAN_POINT('',(-4.149999999999999,-4.15,1.0));
#873=CARTESIAN_POINT('',(-4.649999999999999,-4.65,1.0));
#874=CARTESIAN_POINT('',(-5.149999999999999,-5.15,1.0));
#875=CARTESIAN_POINT('',(-5.149999999999999,-5.15,1.5));
#876=CARTESIAN_POINT('',(5.082284E-016,-4.15,1.5));
#877=CARTESIAN_POINT('',(5.082284E-016,-4.15,1.0));
#878=CARTESIAN_POINT('',(5.694608E-016,-4.65,1.0));
#879=CARTESIAN_POINT('',(6.306931E-016,-5.15,1.0));
#880=CARTESIAN_POINT('',(6.306931E-016,-5.15,1.5));
#881=CARTESIAN_POINT('',(4.15,-4.149999999999999,1.5));
#882=CARTESIAN_POINT('',(4.15,-4.149999999999999,1.0));
#883=CARTESIAN_POINT('',(4.65,-4.649999999999999,1.0));
#884=CARTESIAN_POINT('',(5.15,-5.149999999999999,1.0));
#885=CARTESIAN_POINT('',(5.15,-5.149999999999999,1.5));
#886=CARTESIAN_POINT('',(4.15,5.082284E-016,1.5));
#887=CARTESIAN_POINT('',(4.15,5.082284E-016,1.0));
#888=CARTESIAN_POINT('',(4.65,5.694608E-016,1.0));
#889=CARTESIAN_POINT('',(5.15,6.306931E-016,1.0));
#890=CARTESIAN_POINT('',(5.15,6.306931E-016,1.5));
#891=CARTESIAN_POINT('',(4.149999999999999,4.15,1.5));
#892=CARTESIAN_POINT('',(4.149999999999999,4.15,1.0));
#893=CARTESIAN_POINT('',(4.649999999999999,4.65,1.0));
#894=CARTESIAN_POINT('',(5.149999999999999,5.15,1.0));
#895=CARTESIAN_POINT('',(5.149999999999999,5.15,1.5));
#896=CARTESIAN_POINT('',(-5.082284E-016,4.15,1.5));
#897=CARTESIAN_POINT('',(-5.082284E-016,4.15,1.0));
#898=CARTESIAN_POINT('',(-5.694608E-016,4.65,1.0));
#899=CARTESIAN_POINT('',(-6.306931E-016,5.15,1.0));
#900=CARTESIAN_POINT('',(-6.306931E-016,5.15,1.5));
#901=CARTESIAN_POINT('',(-4.15,4.149999999999999,1.5));
#902=CARTESIAN_POINT('',(-4.15,4.149999999999999,1.0));
#903=CARTESIAN_POINT('',(-4.65,4.649999999999999,1.0));
#904=CARTESIAN_POINT('',(-5.15,5.149999999999999,1.0));
#905=CARTESIAN_POINT('',(-5.15,5.149999999999999,1.5));
#906=CARTESIAN_POINT('',(-4.15,-5.082284E-016,1.5));
#907=CARTESIAN_POINT('',(-4.15,-5.082284E-016,1.0));
#908=CARTESIAN_POINT('',(-4.65,-5.694608E-016,1.0));
#909=CARTESIAN_POINT('',(-5.15,-6.306931E-016,1.0));
#910=CARTESIAN_POINT('',(-5.15,-6.306931E-016,1.5));
#918=(BOUNDED_SURFACE()B_SPLINE_SURFACE(2,2,((#866,#871,#876,#881,#886,#891,#896,#901,#906),(#867,#872,#877,#882,#887,#892,#897,#902,#907),(#868,#873,#878,#883,#888,#893,#898,#903,#908),(#869,#874,#879,#884,#889,#894,#899,#904,#909),(#870,#875,#880,#885,#890,#895,#900,#905,#910)),.UNSPECIFIED.,.F.,.T.,.U.)B_SPLINE_SURFACE_WITH_KNOTS((3,2,3),(3,2,2,2,3),(-3.141592653589793,-1.570796326794897,0.0),(0.0,1.570796326794897,3.141592653589793,4.71238898038469,6.283185307179586),.UNSPECIFIED.)GEOMETRIC_REPRESENTATION_ITEM()RATIONAL_B_SPLINE_SURFACE(((1.0,0.707106781186548,1.0,0.707106781186548,1.0,0.707106781186548,1.0,0.707106781186548,1.0),(0.707106781186548,0.500000000000001,0.707106781186548,0.500000000000001,0.707106781186548,0.500000000000001,0.707106781186548,0.500000000000001,0.707106781186548),(1.0,0.707106781186548,1.0,0.707106781186548,1.0,0.707106781186548,1.0,0.707106781186548,1.0),(0.707106781186548,0.500000000000001,0.707106781186548,0.500000000000001,0.707106781186548,0.500000000000001,0.707106781186548,0.500000000000001,0.707106781186548),(1.0,0.707106781186548,1.0,0.707106781186548,1.0,0.707106781186548,1.0,0.707106781186548,1.0)))REPRESENTATION_ITEM('')SURFACE());
#919=ORIENTED_EDGE('',*,*,#558,.T.);
#920=ORIENTED_EDGE('',*,*,#705,.T.);
#921=ORIENTED_EDGE('',*,*,#576,.F.);
#922=CARTESIAN_POINT('',(0.0,0.0,1.0));
#923=DIRECTION('',(0.0,0.0,1.0));
#924=DIRECTION('',(1.0,0.0,0.0));
#925=AXIS2_PLACEMENT_3D('',#922,#923,#924);
#926=CIRCLE('',#925,4.65);
#927=EDGE_CURVE('',#561,#550,#926,.T.);
#928=ORIENTED_EDGE('',*,*,#927,.T.);
#929=EDGE_LOOP('',(#919,#920,#921,#928));
#930=FACE_OUTER_BOUND('',#929,.T.);
#931=ADVANCED_FACE('',(#930),#918,.T.);
#932=CARTESIAN_POINT('',(0.0,0.0,1.0));
#933=DIRECTION('',(0.0,0.0,1.0));
#934=DIRECTION('',(1.0,0.0,0.0));
#935=AXIS2_PLACEMENT_3D('',#932,#933,#934);
#936=PLANE('',#935);
#937=ORIENTED_EDGE('',*,*,#476,.F.);
#938=CARTESIAN_POINT('',(0.0,0.0,1.0));
#939=DIRECTION('',(0.0,0.0,-1.0));
#940=DIRECTION('',(1.0,0.0,0.0));
#941=AXIS2_PLACEMENT_3D('',#938,#939,#940);
#942=CIRCLE('',#941,4.7);
#943=EDGE_CURVE('',#470,#460,#942,.T.);
#944=ORIENTED_EDGE('',*,*,#943,.F.);
#945=EDGE_LOOP('',(#937,#944));
#946=FACE_OUTER_BOUND('',#945,.T.);
#947=ORIENTED_EDGE('',*,*,#927,.F.);
#948=ORIENTED_EDGE('',*,*,#567,.F.);
#949=EDGE_LOOP('',(#947,#948));
#950=FACE_BOUND('',#949,.T.);
#951=ADVANCED_FACE('',(#946,#950),#936,.T.);
#952=CARTESIAN_POINT('',(0.0,0.0,0.5));
#953=DIRECTION('',(0.0,0.0,1.0));
#954=DIRECTION('',(1.0,0.0,0.0));
#955=AXIS2_PLACEMENT_3D('',#952,#953,#954);
#956=PLANE('',#955);
#957=CARTESIAN_POINT('',(0.0,0.0,0.5));
#958=DIRECTION('',(0.0,0.0,1.0));
#959=DIRECTION('',(1.0,0.0,0.0));
#960=AXIS2_PLACEMENT_3D('',#957,#958,#959);
#961=CIRCLE('',#960,4.7);
#962=EDGE_CURVE('',#462,#479,#961,.T.);
#963=ORIENTED_EDGE('',*,*,#962,.F.);
#964=ORIENTED_EDGE('',*,*,#491,.F.);
#965=EDGE_LOOP('',(#963,#964));
#966=FACE_OUTER_BOUND('',#965,.T.);
#967=CARTESIAN_POINT('',(0.0,0.0,0.5));
#968=DIRECTION('',(0.0,0.0,-1.0));
#969=DIRECTION('',(1.0,0.0,0.0));
#970=AXIS2_PLACEMENT_3D('',#967,#968,#969);
#971=CIRCLE('',#970,4.15);
#972=EDGE_CURVE('',#428,#418,#971,.T.);
#973=ORIENTED_EDGE('',*,*,#972,.F.);
#974=ORIENTED_EDGE('',*,*,#434,.F.);
#975=EDGE_LOOP('',(#973,#974));
#976=FACE_BOUND('',#975,.T.);
#977=ADVANCED_FACE('',(#966,#976),#956,.F.);
#978=CARTESIAN_POINT('',(0.0,0.0,0.5));
#979=DIRECTION('',(0.0,0.0,1.0));
#980=DIRECTION('',(1.0,0.0,0.0));
#981=AXIS2_PLACEMENT_3D('',#978,#979,#980);
#982=CYLINDRICAL_SURFACE('',#981,4.7);
#983=ORIENTED_EDGE('',*,*,#467,.T.);
#984=ORIENTED_EDGE('',*,*,#962,.T.);
#985=ORIENTED_EDGE('',*,*,#484,.F.);
#986=ORIENTED_EDGE('',*,*,#943,.T.);
#987=EDGE_LOOP('',(#983,#984,#985,#986));
#988=FACE_OUTER_BOUND('',#987,.T.);
#989=ADVANCED_FACE('',(#988),#982,.T.);
#990=CARTESIAN_POINT('',(0.0,0.0,0.0));
#991=DIRECTION('',(0.0,0.0,1.0));
#992=DIRECTION('',(1.0,0.0,0.0));
#993=AXIS2_PLACEMENT_3D('',#990,#991,#992);
#994=CYLINDRICAL_SURFACE('',#993,4.15);
#995=ORIENTED_EDGE('',*,*,#425,.T.);
#996=CARTESIAN_POINT('',(0.0,0.0,0.0));
#997=DIRECTION('',(0.0,0.0,1.0));
#998=DIRECTION('',(1.0,0.0,0.0));
#999=AXIS2_PLACEMENT_3D('',#996,#997,#998);
#1000=CIRCLE('',#999,4.15);
#1001=EDGE_CURVE('',#420,#437,#1000,.T.);
#1002=ORIENTED_EDGE('',*,*,#1001,.T.);
#1003=ORIENTED_EDGE('',*,*,#442,.F.);
#1004=ORIENTED_EDGE('',*,*,#972,.T.);
#1005=EDGE_LOOP('',(#995,#1002,#1003,#1004));
#1006=FACE_OUTER_BOUND('',#1005,.T.);
#1007=ADVANCED_FACE('',(#1006),#994,.T.);
#1008=CARTESIAN_POINT('',(0.0,0.0,0.0));
#1009=DIRECTION('',(0.0,0.0,1.0));
#1010=DIRECTION('',(1.0,0.0,0.0));
#1011=AXIS2_PLACEMENT_3D('',#1008,#1009,#1010);
#1012=PLANE('',#1011);
#1013=ORIENTED_EDGE('',*,*,#1001,.F.);
#1014=ORIENTED_EDGE('',*,*,#449,.F.);
#1015=EDGE_LOOP('',(#1013,#1014));
#1016=FACE_OUTER_BOUND('',#1015,.T.);
#1017=ADVANCED_FACE('',(#1016),#1012,.F.);
#1018=CLOSED_SHELL('',(#453,#495,#587,#629,#671,#709,#743,#767,#779,#799,#817,#841,#851,#865,#931,#951,#977,#989,#1007,#1017));
#1019=MANIFOLD_SOLID_BREP('1BCC',#1018);
#1020=STYLED_ITEM('NONE',(#223),#1019);
#1021=CARTESIAN_POINT('',(-1.799999999999999,1.806239186818845,0.0));
#1022=DIRECTION('',(0.0,0.0,-1.0));
#1023=DIRECTION('',(1.0,0.0,0.0));
#1024=AXIS2_PLACEMENT_3D('',#1021,#1022,#1023);
#1025=CYLINDRICAL_SURFACE('',#1024,0.275);
#1026=CARTESIAN_POINT('',(-1.524999999999999,1.806239186818845,-4.6));
#1027=VERTEX_POINT('',#1026);
#1028=CARTESIAN_POINT('',(-1.524999999999999,1.806239186818845,0.0));
#1029=VERTEX_POINT('',#1028);
#1030=CARTESIAN_POINT('',(-1.524999999999999,1.806239186818845,-4.6));
#1031=DIRECTION('',(0.0,0.0,1.0));
#1032=VECTOR('',#1031,4.6);
#1033=LINE('',#1030,#1032);
#1034=EDGE_CURVE('',#1027,#1029,#1033,.T.);
#1035=ORIENTED_EDGE('',*,*,#1034,.F.);
#1036=CARTESIAN_POINT('',(-2.074999999999999,1.806239186818845,-4.6));
#1037=VERTEX_POINT('',#1036);
#1038=CARTESIAN_POINT('',(-1.799999999999999,1.806239186818845,-4.6));
#1039=DIRECTION('',(0.0,0.0,1.0));
#1040=DIRECTION('',(1.0,0.0,0.0));
#1041=AXIS2_PLACEMENT_3D('',#1038,#1039,#1040);
#1042=CIRCLE('',#1041,0.275);
#1043=EDGE_CURVE('',#1027,#1037,#1042,.T.);
#1044=ORIENTED_EDGE('',*,*,#1043,.T.);
#1045=CARTESIAN_POINT('',(-2.074999999999999,1.806239186818845,0.0));
#1046=VERTEX_POINT('',#1045);
#1047=CARTESIAN_POINT('',(-2.074999999999999,1.806239186818845,-4.6));
#1048=DIRECTION('',(0.0,0.0,1.0));
#1049=VECTOR('',#1048,4.6);
#1050=LINE('',#1047,#1049);
#1051=EDGE_CURVE('',#1037,#1046,#1050,.T.);
#1052=ORIENTED_EDGE('',*,*,#1051,.T.);
#1053=CARTESIAN_POINT('',(-1.799999999999999,1.806239186818845,0.0));
#1054=DIRECTION('',(0.0,0.0,1.0));
#1055=DIRECTION('',(1.0,0.0,0.0));
#1056=AXIS2_PLACEMENT_3D('',#1053,#1054,#1055);
#1057=CIRCLE('',#1056,0.275);
#1058=EDGE_CURVE('',#1029,#1046,#1057,.T.);
#1059=ORIENTED_EDGE('',*,*,#1058,.F.);
#1060=EDGE_LOOP('',(#1035,#1044,#1052,#1059));
#1061=FACE_OUTER_BOUND('',#1060,.T.);
#1062=ADVANCED_FACE('',(#1061),#1025,.T.);
#1063=CARTESIAN_POINT('',(-1.799999999999999,1.806239186818845,0.0));
#1064=DIRECTION('',(0.0,0.0,-1.0));
#1065=DIRECTION('',(1.0,0.0,0.0));
#1066=AXIS2_PLACEMENT_3D('',#1063,#1064,#1065);
#1067=CYLINDRICAL_SURFACE('',#1066,0.275);
#1068=ORIENTED_EDGE('',*,*,#1034,.T.);
#1069=CARTESIAN_POINT('',(-1.799999999999999,1.806239186818845,0.0));
#1070=DIRECTION('',(0.0,0.0,1.0));
#1071=DIRECTION('',(1.0,0.0,0.0));
#1072=AXIS2_PLACEMENT_3D('',#1069,#1070,#1071);
#1073=CIRCLE('',#1072,0.275);
#1074=EDGE_CURVE('',#1046,#1029,#1073,.T.);
#1075=ORIENTED_EDGE('',*,*,#1074,.F.);
#1076=ORIENTED_EDGE('',*,*,#1051,.F.);
#1077=CARTESIAN_POINT('',(-1.799999999999999,1.806239186818845,-4.6));
#1078=DIRECTION('',(0.0,0.0,1.0));
#1079=DIRECTION('',(1.0,0.0,0.0));
#1080=AXIS2_PLACEMENT_3D('',#1077,#1078,#1079);
#1081=CIRCLE('',#1080,0.275);
#1082=EDGE_CURVE('',#1037,#1027,#1081,.T.);
#1083=ORIENTED_EDGE('',*,*,#1082,.T.);
#1084=EDGE_LOOP('',(#1068,#1075,#1076,#1083));
#1085=FACE_OUTER_BOUND('',#1084,.T.);
#1086=ADVANCED_FACE('',(#1085),#1067,.T.);
#1087=CARTESIAN_POINT('',(-1.799999999999999,1.806239186818845,-4.6));
#1088=DIRECTION('',(0.0,0.0,1.0));
#1089=DIRECTION('',(1.0,0.0,0.0));
#1090=AXIS2_PLACEMENT_3D('',#1087,#1088,#1089);
#1091=PLANE('',#1090);
#1092=ORIENTED_EDGE('',*,*,#1043,.F.);
#1093=ORIENTED_EDGE('',*,*,#1082,.F.);
#1094=EDGE_LOOP('',(#1092,#1093));
#1095=FACE_OUTER_BOUND('',#1094,.T.);
#1096=ADVANCED_FACE('',(#1095),#1091,.F.);
#1097=CARTESIAN_POINT('',(-1.799999999999999,1.806239186818845,0.0));
#1098=DIRECTION('',(0.0,0.0,1.0));
#1099=DIRECTION('',(1.0,0.0,0.0));
#1100=AXIS2_PLACEMENT_3D('',#1097,#1098,#1099);
#1101=PLANE('',#1100);
#1102=ORIENTED_EDGE('',*,*,#1058,.T.);
#1103=ORIENTED_EDGE('',*,*,#1074,.T.);
#1104=EDGE_LOOP('',(#1102,#1103));
#1105=FACE_OUTER_BOUND('',#1104,.T.);
#1106=ADVANCED_FACE('',(#1105),#1101,.T.);
#1107=CLOSED_SHELL('',(#1062,#1086,#1096,#1106));
#1108=MANIFOLD_SOLID_BREP('1BC8',#1107);
#1109=STYLED_ITEM('NONE',(#223),#1108);
#1110=CARTESIAN_POINT('',(-1.8,-1.806239186818844,0.0));
#1111=DIRECTION('',(0.0,0.0,-1.0));
#1112=DIRECTION('',(1.0,0.0,0.0));
#1113=AXIS2_PLACEMENT_3D('',#1110,#1111,#1112);
#1114=CYLINDRICAL_SURFACE('',#1113,0.275);
#1115=CARTESIAN_POINT('',(-1.525,-1.806239186818844,-4.6));
#1116=VERTEX_POINT('',#1115);
#1117=CARTESIAN_POINT('',(-1.525,-1.806239186818844,0.0));
#1118=VERTEX_POINT('',#1117);
#1119=CARTESIAN_POINT('',(-1.525,-1.806239186818844,-4.6));
#1120=DIRECTION('',(0.0,0.0,1.0));
#1121=VECTOR('',#1120,4.6);
#1122=LINE('',#1119,#1121);
#1123=EDGE_CURVE('',#1116,#1118,#1122,.T.);
#1124=ORIENTED_EDGE('',*,*,#1123,.F.);
#1125=CARTESIAN_POINT('',(-2.075,-1.806239186818844,-4.6));
#1126=VERTEX_POINT('',#1125);
#1127=CARTESIAN_POINT('',(-1.8,-1.806239186818844,-4.6));
#1128=DIRECTION('',(0.0,0.0,1.0));
#1129=DIRECTION('',(1.0,0.0,0.0));
#1130=AXIS2_PLACEMENT_3D('',#1127,#1128,#1129);
#1131=CIRCLE('',#1130,0.275);
#1132=EDGE_CURVE('',#1116,#1126,#1131,.T.);
#1133=ORIENTED_EDGE('',*,*,#1132,.T.);
#1134=CARTESIAN_POINT('',(-2.075,-1.806239186818844,0.0));
#1135=VERTEX_POINT('',#1134);
#1136=CARTESIAN_POINT('',(-2.075,-1.806239186818844,-4.6));
#1137=DIRECTION('',(0.0,0.0,1.0));
#1138=VECTOR('',#1137,4.6);
#1139=LINE('',#1136,#1138);
#1140=EDGE_CURVE('',#1126,#1135,#1139,.T.);
#1141=ORIENTED_EDGE('',*,*,#1140,.T.);
#1142=CARTESIAN_POINT('',(-1.8,-1.806239186818844,0.0));
#1143=DIRECTION('',(0.0,0.0,1.0));
#1144=DIRECTION('',(1.0,0.0,0.0));
#1145=AXIS2_PLACEMENT_3D('',#1142,#1143,#1144);
#1146=CIRCLE('',#1145,0.275);
#1147=EDGE_CURVE('',#1118,#1135,#1146,.T.);
#1148=ORIENTED_EDGE('',*,*,#1147,.F.);
#1149=EDGE_LOOP('',(#1124,#1133,#1141,#1148));
#1150=FACE_OUTER_BOUND('',#1149,.T.);
#1151=ADVANCED_FACE('',(#1150),#1114,.T.);
#1152=CARTESIAN_POINT('',(-1.8,-1.806239186818844,0.0));
#1153=DIRECTION('',(0.0,0.0,-1.0));
#1154=DIRECTION('',(1.0,0.0,0.0));
#1155=AXIS2_PLACEMENT_3D('',#1152,#1153,#1154);
#1156=CYLINDRICAL_SURFACE('',#1155,0.275);
#1157=ORIENTED_EDGE('',*,*,#1123,.T.);
#1158=CARTESIAN_POINT('',(-1.8,-1.806239186818844,0.0));
#1159=DIRECTION('',(0.0,0.0,1.0));
#1160=DIRECTION('',(1.0,0.0,0.0));
#1161=AXIS2_PLACEMENT_3D('',#1158,#1159,#1160);
#1162=CIRCLE('',#1161,0.275);
#1163=EDGE_CURVE('',#1135,#1118,#1162,.T.);
#1164=ORIENTED_EDGE('',*,*,#1163,.F.);
#1165=ORIENTED_EDGE('',*,*,#1140,.F.);
#1166=CARTESIAN_POINT('',(-1.8,-1.806239186818844,-4.6));
#1167=DIRECTION('',(0.0,0.0,1.0));
#1168=DIRECTION('',(1.0,0.0,0.0));
#1169=AXIS2_PLACEMENT_3D('',#1166,#1167,#1168);
#1170=CIRCLE('',#1169,0.275);
#1171=EDGE_CURVE('',#1126,#1116,#1170,.T.);
#1172=ORIENTED_EDGE('',*,*,#1171,.T.);
#1173=EDGE_LOOP('',(#1157,#1164,#1165,#1172));
#1174=FACE_OUTER_BOUND('',#1173,.T.);
#1175=ADVANCED_FACE('',(#1174),#1156,.T.);
#1176=CARTESIAN_POINT('',(-1.8,-1.806239186818844,-4.6));
#1177=DIRECTION('',(0.0,0.0,1.0));
#1178=DIRECTION('',(1.0,0.0,0.0));
#1179=AXIS2_PLACEMENT_3D('',#1176,#1177,#1178);
#1180=PLANE('',#1179);
#1181=ORIENTED_EDGE('',*,*,#1132,.F.);
#1182=ORIENTED_EDGE('',*,*,#1171,.F.);
#1183=EDGE_LOOP('',(#1181,#1182));
#1184=FACE_OUTER_BOUND('',#1183,.T.);
#1185=ADVANCED_FACE('',(#1184),#1180,.F.);
#1186=CARTESIAN_POINT('',(-1.8,-1.806239186818844,0.0));
#1187=DIRECTION('',(0.0,0.0,1.0));
#1188=DIRECTION('',(1.0,0.0,0.0));
#1189=AXIS2_PLACEMENT_3D('',#1186,#1187,#1188);
#1190=PLANE('',#1189);
#1191=ORIENTED_EDGE('',*,*,#1147,.T.);
#1192=ORIENTED_EDGE('',*,*,#1163,.T.);
#1193=EDGE_LOOP('',(#1191,#1192));
#1194=FACE_OUTER_BOUND('',#1193,.T.);
#1195=ADVANCED_FACE('',(#1194),#1190,.T.);
#1196=CLOSED_SHELL('',(#1151,#1175,#1185,#1195));
#1197=MANIFOLD_SOLID_BREP('1BC4',#1196);
#1198=STYLED_ITEM('NONE',(#223),#1197);
#1199=CARTESIAN_POINT('',(1.800000000000001,-1.806239186818844,0.0));
#1200=DIRECTION('',(0.0,0.0,-1.0));
#1201=DIRECTION('',(1.0,0.0,0.0));
#1202=AXIS2_PLACEMENT_3D('',#1199,#1200,#1201);
#1203=CYLINDRICAL_SURFACE('',#1202,0.275);
#1204=CARTESIAN_POINT('',(2.075,-1.806239186818844,-4.6));
#1205=VERTEX_POINT('',#1204);
#1206=CARTESIAN_POINT('',(2.075,-1.806239186818844,0.0));
#1207=VERTEX_POINT('',#1206);
#1208=CARTESIAN_POINT('',(2.075000000000001,-1.806239186818844,-4.6));
#1209=DIRECTION('',(0.0,0.0,1.0));
#1210=VECTOR('',#1209,4.6);
#1211=LINE('',#1208,#1210);
#1212=EDGE_CURVE('',#1205,#1207,#1211,.T.);
#1213=ORIENTED_EDGE('',*,*,#1212,.F.);
#1214=CARTESIAN_POINT('',(1.525,-1.806239186818844,-4.6));
#1215=VERTEX_POINT('',#1214);
#1216=CARTESIAN_POINT('',(1.800000000000001,-1.806239186818844,-4.6));
#1217=DIRECTION('',(0.0,0.0,1.0));
#1218=DIRECTION('',(1.0,0.0,0.0));
#1219=AXIS2_PLACEMENT_3D('',#1216,#1217,#1218);
#1220=CIRCLE('',#1219,0.275);
#1221=EDGE_CURVE('',#1205,#1215,#1220,.T.);
#1222=ORIENTED_EDGE('',*,*,#1221,.T.);
#1223=CARTESIAN_POINT('',(1.525,-1.806239186818844,0.0));
#1224=VERTEX_POINT('',#1223);
#1225=CARTESIAN_POINT('',(1.525,-1.806239186818844,-4.6));
#1226=DIRECTION('',(0.0,0.0,1.0));
#1227=VECTOR('',#1226,4.6);
#1228=LINE('',#1225,#1227);
#1229=EDGE_CURVE('',#1215,#1224,#1228,.T.);
#1230=ORIENTED_EDGE('',*,*,#1229,.T.);
#1231=CARTESIAN_POINT('',(1.800000000000001,-1.806239186818844,0.0));
#1232=DIRECTION('',(0.0,0.0,1.0));
#1233=DIRECTION('',(1.0,0.0,0.0));
#1234=AXIS2_PLACEMENT_3D('',#1231,#1232,#1233);
#1235=CIRCLE('',#1234,0.275);
#1236=EDGE_CURVE('',#1207,#1224,#1235,.T.);
#1237=ORIENTED_EDGE('',*,*,#1236,.F.);
#1238=EDGE_LOOP('',(#1213,#1222,#1230,#1237));
#1239=FACE_OUTER_BOUND('',#1238,.T.);
#1240=ADVANCED_FACE('',(#1239),#1203,.T.);
#1241=CARTESIAN_POINT('',(1.800000000000001,-1.806239186818844,0.0));
#1242=DIRECTION('',(0.0,0.0,-1.0));
#1243=DIRECTION('',(1.0,0.0,0.0));
#1244=AXIS2_PLACEMENT_3D('',#1241,#1242,#1243);
#1245=CYLINDRICAL_SURFACE('',#1244,0.275);
#1246=ORIENTED_EDGE('',*,*,#1212,.T.);
#1247=CARTESIAN_POINT('',(1.800000000000001,-1.806239186818844,0.0));
#1248=DIRECTION('',(0.0,0.0,1.0));
#1249=DIRECTION('',(1.0,0.0,0.0));
#1250=AXIS2_PLACEMENT_3D('',#1247,#1248,#1249);
#1251=CIRCLE('',#1250,0.275);
#1252=EDGE_CURVE('',#1224,#1207,#1251,.T.);
#1253=ORIENTED_EDGE('',*,*,#1252,.F.);
#1254=ORIENTED_EDGE('',*,*,#1229,.F.);
#1255=CARTESIAN_POINT('',(1.800000000000001,-1.806239186818844,-4.6));
#1256=DIRECTION('',(0.0,0.0,1.0));
#1257=DIRECTION('',(1.0,0.0,0.0));
#1258=AXIS2_PLACEMENT_3D('',#1255,#1256,#1257);
#1259=CIRCLE('',#1258,0.275);
#1260=EDGE_CURVE('',#1215,#1205,#1259,.T.);
#1261=ORIENTED_EDGE('',*,*,#1260,.T.);
#1262=EDGE_LOOP('',(#1246,#1253,#1254,#1261));
#1263=FACE_OUTER_BOUND('',#1262,.T.);
#1264=ADVANCED_FACE('',(#1263),#1245,.T.);
#1265=CARTESIAN_POINT('',(1.800000000000001,-1.806239186818844,-4.6));
#1266=DIRECTION('',(0.0,0.0,1.0));
#1267=DIRECTION('',(1.0,0.0,0.0));
#1268=AXIS2_PLACEMENT_3D('',#1265,#1266,#1267);
#1269=PLANE('',#1268);
#1270=ORIENTED_EDGE('',*,*,#1221,.F.);
#1271=ORIENTED_EDGE('',*,*,#1260,.F.);
#1272=EDGE_LOOP('',(#1270,#1271));
#1273=FACE_OUTER_BOUND('',#1272,.T.);
#1274=ADVANCED_FACE('',(#1273),#1269,.F.);
#1275=CARTESIAN_POINT('',(1.800000000000001,-1.806239186818844,0.0));
#1276=DIRECTION('',(0.0,0.0,1.0));
#1277=DIRECTION('',(1.0,0.0,0.0));
#1278=AXIS2_PLACEMENT_3D('',#1275,#1276,#1277);
#1279=PLANE('',#1278);
#1280=ORIENTED_EDGE('',*,*,#1236,.T.);
#1281=ORIENTED_EDGE('',*,*,#1252,.T.);
#1282=EDGE_LOOP('',(#1280,#1281));
#1283=FACE_OUTER_BOUND('',#1282,.T.);
#1284=ADVANCED_FACE('',(#1283),#1279,.T.);
#1285=CLOSED_SHELL('',(#1240,#1264,#1274,#1284));
#1286=MANIFOLD_SOLID_BREP('1BC0',#1285);
#1287=STYLED_ITEM('NONE',(#223),#1286);
#1288=CARTESIAN_POINT('',(1.800000000000001,1.806239186818844,0.0));
#1289=DIRECTION('',(0.0,0.0,-1.0));
#1290=DIRECTION('',(1.0,0.0,0.0));
#1291=AXIS2_PLACEMENT_3D('',#1288,#1289,#1290);
#1292=CYLINDRICAL_SURFACE('',#1291,0.275);
#1293=CARTESIAN_POINT('',(2.075000000000001,1.806239186818844,-4.6));
#1294=VERTEX_POINT('',#1293);
#1295=CARTESIAN_POINT('',(2.075000000000001,1.806239186818844,0.0));
#1296=VERTEX_POINT('',#1295);
#1297=CARTESIAN_POINT('',(2.075000000000001,1.806239186818844,-4.6));
#1298=DIRECTION('',(0.0,0.0,1.0));
#1299=VECTOR('',#1298,4.6);
#1300=LINE('',#1297,#1299);
#1301=EDGE_CURVE('',#1294,#1296,#1300,.T.);
#1302=ORIENTED_EDGE('',*,*,#1301,.F.);
#1303=CARTESIAN_POINT('',(1.525000000000001,1.806239186818844,-4.6));
#1304=VERTEX_POINT('',#1303);
#1305=CARTESIAN_POINT('',(1.800000000000001,1.806239186818844,-4.6));
#1306=DIRECTION('',(0.0,0.0,1.0));
#1307=DIRECTION('',(1.0,0.0,0.0));
#1308=AXIS2_PLACEMENT_3D('',#1305,#1306,#1307);
#1309=CIRCLE('',#1308,0.275);
#1310=EDGE_CURVE('',#1294,#1304,#1309,.T.);
#1311=ORIENTED_EDGE('',*,*,#1310,.T.);
#1312=CARTESIAN_POINT('',(1.525000000000001,1.806239186818844,0.0));
#1313=VERTEX_POINT('',#1312);
#1314=CARTESIAN_POINT('',(1.525000000000001,1.806239186818844,-4.6));
#1315=DIRECTION('',(0.0,0.0,1.0));
#1316=VECTOR('',#1315,4.6);
#1317=LINE('',#1314,#1316);
#1318=EDGE_CURVE('',#1304,#1313,#1317,.T.);
#1319=ORIENTED_EDGE('',*,*,#1318,.T.);
#1320=CARTESIAN_POINT('',(1.800000000000001,1.806239186818844,0.0));
#1321=DIRECTION('',(0.0,0.0,1.0));
#1322=DIRECTION('',(1.0,0.0,0.0));
#1323=AXIS2_PLACEMENT_3D('',#1320,#1321,#1322);
#1324=CIRCLE('',#1323,0.275);
#1325=EDGE_CURVE('',#1296,#1313,#1324,.T.);
#1326=ORIENTED_EDGE('',*,*,#1325,.F.);
#1327=EDGE_LOOP('',(#1302,#1311,#1319,#1326));
#1328=FACE_OUTER_BOUND('',#1327,.T.);
#1329=ADVANCED_FACE('',(#1328),#1292,.T.);
#1330=CARTESIAN_POINT('',(1.800000000000001,1.806239186818844,0.0));
#1331=DIRECTION('',(0.0,0.0,-1.0));
#1332=DIRECTION('',(1.0,0.0,0.0));
#1333=AXIS2_PLACEMENT_3D('',#1330,#1331,#1332);
#1334=CYLINDRICAL_SURFACE('',#1333,0.275);
#1335=ORIENTED_EDGE('',*,*,#1301,.T.);
#1336=CARTESIAN_POINT('',(1.800000000000001,1.806239186818844,0.0));
#1337=DIRECTION('',(0.0,0.0,1.0));
#1338=DIRECTION('',(1.0,0.0,0.0));
#1339=AXIS2_PLACEMENT_3D('',#1336,#1337,#1338);
#1340=CIRCLE('',#1339,0.275);
#1341=EDGE_CURVE('',#1313,#1296,#1340,.T.);
#1342=ORIENTED_EDGE('',*,*,#1341,.F.);
#1343=ORIENTED_EDGE('',*,*,#1318,.F.);
#1344=CARTESIAN_POINT('',(1.800000000000001,1.806239186818844,-4.6));
#1345=DIRECTION('',(0.0,0.0,1.0));
#1346=DIRECTION('',(1.0,0.0,0.0));
#1347=AXIS2_PLACEMENT_3D('',#1344,#1345,#1346);
#1348=CIRCLE('',#1347,0.275);
#1349=EDGE_CURVE('',#1304,#1294,#1348,.T.);
#1350=ORIENTED_EDGE('',*,*,#1349,.T.);
#1351=EDGE_LOOP('',(#1335,#1342,#1343,#1350));
#1352=FACE_OUTER_BOUND('',#1351,.T.);
#1353=ADVANCED_FACE('',(#1352),#1334,.T.);
#1354=CARTESIAN_POINT('',(1.800000000000001,1.806239186818844,-4.6));
#1355=DIRECTION('',(0.0,0.0,1.0));
#1356=DIRECTION('',(1.0,0.0,0.0));
#1357=AXIS2_PLACEMENT_3D('',#1354,#1355,#1356);
#1358=PLANE('',#1357);
#1359=ORIENTED_EDGE('',*,*,#1310,.F.);
#1360=ORIENTED_EDGE('',*,*,#1349,.F.);
#1361=EDGE_LOOP('',(#1359,#1360));
#1362=FACE_OUTER_BOUND('',#1361,.T.);
#1363=ADVANCED_FACE('',(#1362),#1358,.F.);
#1364=CARTESIAN_POINT('',(1.800000000000001,1.806239186818844,0.0));
#1365=DIRECTION('',(0.0,0.0,1.0));
#1366=DIRECTION('',(1.0,0.0,0.0));
#1367=AXIS2_PLACEMENT_3D('',#1364,#1365,#1366);
#1368=PLANE('',#1367);
#1369=ORIENTED_EDGE('',*,*,#1325,.T.);
#1370=ORIENTED_EDGE('',*,*,#1341,.T.);
#1371=EDGE_LOOP('',(#1369,#1370));
#1372=FACE_OUTER_BOUND('',#1371,.T.);
#1373=ADVANCED_FACE('',(#1372),#1368,.T.);
#1374=CLOSED_SHELL('',(#1329,#1353,#1363,#1373));
#1375=MANIFOLD_SOLID_BREP('1BBC',#1374);
#1376=STYLED_ITEM('NONE',(#223),#1375);
#1377=ADVANCED_BREP_SHAPE_REPRESENTATION('ABSR1',(#216,#314,#410,#1019,#1108,#1197,#1286,#1375),#28);
#1378=SHAPE_REPRESENTATION_RELATIONSHIP('SRRPL1','',#1377,#62);
ENDSEC;
END-ISO-10303-21;
