ISO-10303-21;
HEADER;
/****************************************************************
 * Generated by software with PDE/Lib inside                    *
 * PDE/Lib Version 3.2.2, created Thu Mar 23, 2000 at 18:38:49  *
 * International Technegroup Inc. (www.iti-oh.com)              *
 ****************************************************************/
FILE_DESCRIPTION((''),'2;1');
FILE_NAME('TO-220-V.stp','2009-01-27T11:34:36',(''),(''),'Mechanical Desktop 2006','Mechanical Desktop 2006',', , ');
FILE_SCHEMA(('AUTOMOTIVE_DESIGN { 1 2 10303 214 0 1 1 1 }'));
ENDSEC;
DATA;
#8=(NAMED_UNIT(*)PLANE_ANGLE_UNIT()SI_UNIT($,.RADIAN.));
#9=DIMENSIONAL_EXPONENTS(0.0,0.0,0.0,0.0,0.0,0.0,0.0);
#10=PLANE_ANGLE_MEASURE_WITH_UNIT(PLANE_ANGLE_MEASURE(0.017453292500000),#8);
#14=(CONVERSION_BASED_UNIT('DEGREE',#10)NAMED_UNIT(#9)PLANE_ANGLE_UNIT());
#18=(NAMED_UNIT(*)SI_UNIT($,.STERADIAN.)SOLID_ANGLE_UNIT());
#22=(LENGTH_UNIT()NAMED_UNIT(*)SI_UNIT(.MILLI.,.METRE.));
#23=UNCERTAINTY_MEASURE_WITH_UNIT(LENGTH_MEASURE(0.000001000000000),#22,'DISTANCE_ACCURACY_VALUE','');
#28=(GEOMETRIC_REPRESENTATION_CONTEXT(3)GLOBAL_UNCERTAINTY_ASSIGNED_CONTEXT((#23))GLOBAL_UNIT_ASSIGNED_CONTEXT((#14,#18,#22))REPRESENTATION_CONTEXT('None','None'));
#29=APPLICATION_CONTEXT('automotive design');
#30=APPLICATION_PROTOCOL_DEFINITION('DRAFT_INTERNATIONAL_STANDARD','automotive_design',1998,#29);
#31=PRODUCT_CONTEXT('3D Mechanical Parts',#29,'mechanical');
#32=PRODUCT('Product','Product','',(#31));
#33=PRODUCT_RELATED_PRODUCT_CATEGORY('part',$,(#32));
#34=PRODUCT_CATEGORY('part',$);
#35=PERSON('1','Design','Joe',$,$,$);
#36=ORGANIZATION($,'None','None');
#37=PERSON_AND_ORGANIZATION(#35,#36);
#38=PERSON_AND_ORGANIZATION_ROLE('design_owner');
#39=APPLIED_PERSON_AND_ORGANIZATION_ASSIGNMENT(#37,#38,(#32));
#40=PRODUCT_DEFINITION_FORMATION_WITH_SPECIFIED_SOURCE('None','',#32,.BOUGHT.);
#41=PERSON('2','Creator','Joe',$,$,$);
#42=ORGANIZATION($,'None','None');
#43=PERSON_AND_ORGANIZATION(#41,#42);
#44=PERSON_AND_ORGANIZATION_ROLE('creator');
#45=APPLIED_PERSON_AND_ORGANIZATION_ASSIGNMENT(#43,#44,(#40));
#46=PERSON('3','Supplier','Joe',$,$,$);
#47=ORGANIZATION($,'None','None');
#48=PERSON_AND_ORGANIZATION(#46,#47);
#49=PERSON_AND_ORGANIZATION_ROLE('design_supplier');
#50=APPLIED_PERSON_AND_ORGANIZATION_ASSIGNMENT(#48,#49,(#40));
#51=PRODUCT_DEFINITION_CONTEXT('part definition',#29,'design');
#52=PRODUCT_DEFINITION('None','',#40,#51);
#53=PERSON('4','Creator','Joe',$,$,$);
#54=ORGANIZATION($,'None','None');
#55=PERSON_AND_ORGANIZATION(#53,#54);
#56=PERSON_AND_ORGANIZATION_ROLE('creator');
#57=APPLIED_PERSON_AND_ORGANIZATION_ASSIGNMENT(#55,#56,(#52));
#58=CARTESIAN_POINT('NONE',(0.0,0.0,0.0));
#59=DIRECTION('NONE',(0.0,0.0,1.0));
#60=DIRECTION('NONE',(1.0,0.0,0.0));
#61=AXIS2_PLACEMENT_3D('NONE',#58,#59,#60);
#62=SHAPE_REPRESENTATION('SR1',(#61),#28);
#63=PRODUCT_DEFINITION_SHAPE('PDS1','Test Part',#52);
#64=SHAPE_DEFINITION_REPRESENTATION(#63,#62);
#65=CARTESIAN_POINT('',(-2.070000000000023,-0.280000000000000,-2.700000000000046));
#66=DIRECTION('',(1.0,0.0,0.0));
#67=DIRECTION('',(0.0,-1.0,0.0));
#68=AXIS2_PLACEMENT_3D('',#65,#66,#67);
#69=PLANE('',#68);
#70=CARTESIAN_POINT('',(-2.070000000000023,0.280000000000000,-2.700000000000046));
#71=VERTEX_POINT('',#70);
#72=CARTESIAN_POINT('',(-2.069999999999783,0.279999999999812,1.010000000000147));
#73=VERTEX_POINT('',#72);
#74=CARTESIAN_POINT('',(-2.070000000000023,0.280000000000000,-2.700000000000046));
#75=DIRECTION('',(0.0,0.0,1.0));
#76=VECTOR('',#75,3.710000000000193);
#77=LINE('',#74,#76);
#78=EDGE_CURVE('',#71,#73,#77,.T.);
#79=ORIENTED_EDGE('',*,*,#78,.T.);
#80=CARTESIAN_POINT('',(-2.069999999999783,-0.280000000000189,1.010000000000147));
#81=VERTEX_POINT('',#80);
#82=CARTESIAN_POINT('',(-2.069999999999783,-0.280000000000189,1.010000000000147));
#83=DIRECTION('',(0.0,1.0,0.0));
#84=VECTOR('',#83,0.560000000000001);
#85=LINE('',#82,#84);
#86=EDGE_CURVE('',#81,#73,#85,.T.);
#87=ORIENTED_EDGE('',*,*,#86,.F.);
#88=CARTESIAN_POINT('',(-2.070000000000023,-0.280000000000000,-2.700000000000046));
#89=VERTEX_POINT('',#88);
#90=CARTESIAN_POINT('',(-2.069999999999783,-0.280000000000189,1.010000000000147));
#91=DIRECTION('',(0.0,0.0,-1.0));
#92=VECTOR('',#91,3.710000000000193);
#93=LINE('',#90,#92);
#94=EDGE_CURVE('',#81,#89,#93,.T.);
#95=ORIENTED_EDGE('',*,*,#94,.T.);
#96=CARTESIAN_POINT('',(-2.070000000000023,-0.280000000000000,-2.700000000000046));
#97=DIRECTION('',(0.0,1.0,0.0));
#98=VECTOR('',#97,0.560000000000001);
#99=LINE('',#96,#98);
#100=EDGE_CURVE('',#89,#71,#99,.T.);
#101=ORIENTED_EDGE('',*,*,#100,.T.);
#102=EDGE_LOOP('',(#79,#87,#95,#101));
#103=FACE_OUTER_BOUND('',#102,.T.);
#104=ADVANCED_FACE('',(#103),#69,.T.);
#105=CARTESIAN_POINT('',(-2.540000000000023,-0.279999999999999,1.657019685938622));
#106=DIRECTION('',(0.0,-1.0,0.0));
#107=DIRECTION('',(0.0,0.0,-1.0));
#108=AXIS2_PLACEMENT_3D('',#105,#106,#107);
#109=PLANE('',#108);
#110=CARTESIAN_POINT('',(-2.740000000000010,-0.280000000000000,-3.500000000000000));
#111=VERTEX_POINT('',#110);
#112=CARTESIAN_POINT('',(-3.010000000000006,-0.280000000000000,-2.700000000000046));
#113=VERTEX_POINT('',#112);
#114=CARTESIAN_POINT('',(-2.740000000000010,-0.280000000000000,-3.500000000000000));
#115=DIRECTION('',(-0.319778644158192,0.0,0.947492278987195));
#116=VECTOR('',#115,0.844334057112424);
#117=LINE('',#114,#116);
#118=EDGE_CURVE('',#111,#113,#117,.T.);
#119=ORIENTED_EDGE('',*,*,#118,.F.);
#120=CARTESIAN_POINT('',(-2.340000000000004,-0.280000000000001,-3.500000000000000));
#121=VERTEX_POINT('',#120);
#122=CARTESIAN_POINT('',(-2.340000000000004,-0.280000000000001,-3.500000000000000));
#123=DIRECTION('',(-1.0,0.0,0.0));
#124=VECTOR('',#123,0.400000000000006);
#125=LINE('',#122,#124);
#126=EDGE_CURVE('',#121,#111,#125,.T.);
#127=ORIENTED_EDGE('',*,*,#126,.F.);
#128=CARTESIAN_POINT('',(-2.070000000000023,-0.280000000000000,-2.700000000000046));
#129=DIRECTION('',(-0.319778644158176,-5.259639E-016,-0.947492278987200));
#130=VECTOR('',#129,0.844334057112419);
#131=LINE('',#128,#130);
#132=EDGE_CURVE('',#89,#121,#131,.T.);
#133=ORIENTED_EDGE('',*,*,#132,.F.);
#134=ORIENTED_EDGE('',*,*,#94,.F.);
#135=CARTESIAN_POINT('',(-3.009999999999780,-0.280000000000188,1.010000000000147));
#136=VERTEX_POINT('',#135);
#137=CARTESIAN_POINT('',(-3.009999999999780,-0.280000000000188,1.010000000000147));
#138=DIRECTION('',(1.0,0.0,0.0));
#139=VECTOR('',#138,0.939999999999998);
#140=LINE('',#137,#139);
#141=EDGE_CURVE('',#136,#81,#140,.T.);
#142=ORIENTED_EDGE('',*,*,#141,.F.);
#143=CARTESIAN_POINT('',(-3.010000000000006,-0.280000000000000,-2.700000000000046));
#144=DIRECTION('',(0.0,0.0,1.0));
#145=VECTOR('',#144,3.710000000000193);
#146=LINE('',#143,#145);
#147=EDGE_CURVE('',#113,#136,#146,.T.);
#148=ORIENTED_EDGE('',*,*,#147,.F.);
#149=EDGE_LOOP('',(#119,#127,#133,#134,#142,#148));
#150=FACE_OUTER_BOUND('',#149,.T.);
#151=ADVANCED_FACE('',(#150),#109,.T.);
#152=CARTESIAN_POINT('',(-3.010000000000010,-0.279999999999999,6.600000000000023));
#153=DIRECTION('',(-1.0,0.0,0.0));
#154=DIRECTION('',(0.0,1.0,0.0));
#155=AXIS2_PLACEMENT_3D('',#152,#153,#154);
#156=PLANE('',#155);
#157=CARTESIAN_POINT('',(-3.009999999999780,0.279999999999812,1.010000000000147));
#158=VERTEX_POINT('',#157);
#159=CARTESIAN_POINT('',(-3.010000000000006,0.280000000000000,-2.700000000000046));
#160=VERTEX_POINT('',#159);
#161=CARTESIAN_POINT('',(-3.009999999999780,0.279999999999812,1.010000000000147));
#162=DIRECTION('',(0.0,0.0,-1.0));
#163=VECTOR('',#162,3.710000000000193);
#164=LINE('',#161,#163);
#165=EDGE_CURVE('',#158,#160,#164,.T.);
#166=ORIENTED_EDGE('',*,*,#165,.T.);
#167=CARTESIAN_POINT('',(-3.010000000000006,-0.280000000000000,-2.700000000000046));
#168=DIRECTION('',(0.0,1.0,0.0));
#169=VECTOR('',#168,0.560000000000001);
#170=LINE('',#167,#169);
#171=EDGE_CURVE('',#113,#160,#170,.T.);
#172=ORIENTED_EDGE('',*,*,#171,.F.);
#173=ORIENTED_EDGE('',*,*,#147,.T.);
#174=CARTESIAN_POINT('',(-3.009999999999780,-0.280000000000188,1.010000000000147));
#175=DIRECTION('',(0.0,1.0,0.0));
#176=VECTOR('',#175,0.560000000000001);
#177=LINE('',#174,#176);
#178=EDGE_CURVE('',#136,#158,#177,.T.);
#179=ORIENTED_EDGE('',*,*,#178,.T.);
#180=EDGE_LOOP('',(#166,#172,#173,#179));
#181=FACE_OUTER_BOUND('',#180,.T.);
#182=ADVANCED_FACE('',(#181),#156,.T.);
#183=CARTESIAN_POINT('',(-2.540000000000024,0.280000000000000,1.657019685938622));
#184=DIRECTION('',(0.0,-1.0,0.0));
#185=DIRECTION('',(0.0,0.0,-1.0));
#186=AXIS2_PLACEMENT_3D('',#183,#184,#185);
#187=PLANE('',#186);
#188=CARTESIAN_POINT('',(-2.740000000000010,0.280000000000000,-3.500000000000000));
#189=VERTEX_POINT('',#188);
#190=CARTESIAN_POINT('',(-2.340000000000004,0.280000000000000,-3.500000000000000));
#191=VERTEX_POINT('',#190);
#192=CARTESIAN_POINT('',(-2.740000000000010,0.280000000000000,-3.500000000000000));
#193=DIRECTION('',(1.0,0.0,0.0));
#194=VECTOR('',#193,0.400000000000006);
#195=LINE('',#192,#194);
#196=EDGE_CURVE('',#189,#191,#195,.T.);
#197=ORIENTED_EDGE('',*,*,#196,.F.);
#198=CARTESIAN_POINT('',(-3.010000000000006,0.280000000000000,-2.700000000000046));
#199=DIRECTION('',(0.319778644158192,0.0,-0.947492278987195));
#200=VECTOR('',#199,0.844334057112424);
#201=LINE('',#198,#200);
#202=EDGE_CURVE('',#160,#189,#201,.T.);
#203=ORIENTED_EDGE('',*,*,#202,.F.);
#204=ORIENTED_EDGE('',*,*,#165,.F.);
#205=CARTESIAN_POINT('',(-2.069999999999783,0.279999999999812,1.010000000000147));
#206=DIRECTION('',(-1.0,0.0,0.0));
#207=VECTOR('',#206,0.939999999999998);
#208=LINE('',#205,#207);
#209=EDGE_CURVE('',#73,#158,#208,.T.);
#210=ORIENTED_EDGE('',*,*,#209,.F.);
#211=ORIENTED_EDGE('',*,*,#78,.F.);
#212=CARTESIAN_POINT('',(-2.340000000000004,0.280000000000000,-3.500000000000000));
#213=DIRECTION('',(0.319778644158176,5.259639E-016,0.947492278987200));
#214=VECTOR('',#213,0.844334057112419);
#215=LINE('',#212,#214);
#216=EDGE_CURVE('',#191,#71,#215,.T.);
#217=ORIENTED_EDGE('',*,*,#216,.F.);
#218=EDGE_LOOP('',(#197,#203,#204,#210,#211,#217));
#219=FACE_OUTER_BOUND('',#218,.T.);
#220=ADVANCED_FACE('',(#219),#187,.F.);
#221=CARTESIAN_POINT('',(-2.740000000000010,-0.280000000000000,-3.500000000000000));
#222=DIRECTION('',(0.0,0.0,-1.0));
#223=DIRECTION('',(0.0,1.0,0.0));
#224=AXIS2_PLACEMENT_3D('',#221,#222,#223);
#225=PLANE('',#224);
#226=ORIENTED_EDGE('',*,*,#196,.T.);
#227=CARTESIAN_POINT('',(-2.340000000000004,-0.280000000000001,-3.500000000000000));
#228=DIRECTION('',(0.0,1.0,0.0));
#229=VECTOR('',#228,0.560000000000001);
#230=LINE('',#227,#229);
#231=EDGE_CURVE('',#121,#191,#230,.T.);
#232=ORIENTED_EDGE('',*,*,#231,.F.);
#233=ORIENTED_EDGE('',*,*,#126,.T.);
#234=CARTESIAN_POINT('',(-2.740000000000010,-0.280000000000000,-3.500000000000000));
#235=DIRECTION('',(0.0,1.0,0.0));
#236=VECTOR('',#235,0.560000000000001);
#237=LINE('',#234,#236);
#238=EDGE_CURVE('',#111,#189,#237,.T.);
#239=ORIENTED_EDGE('',*,*,#238,.T.);
#240=EDGE_LOOP('',(#226,#232,#233,#239));
#241=FACE_OUTER_BOUND('',#240,.T.);
#242=ADVANCED_FACE('',(#241),#225,.T.);
#243=CARTESIAN_POINT('',(-2.340000000000004,-0.280000000000001,-3.500000000000000));
#244=DIRECTION('',(0.947492278987200,-2.974951E-017,-0.319778644158176));
#245=DIRECTION('',(0.0,-1.0,0.0));
#246=AXIS2_PLACEMENT_3D('',#243,#244,#245);
#247=PLANE('',#246);
#248=ORIENTED_EDGE('',*,*,#216,.T.);
#249=ORIENTED_EDGE('',*,*,#100,.F.);
#250=ORIENTED_EDGE('',*,*,#132,.T.);
#251=ORIENTED_EDGE('',*,*,#231,.T.);
#252=EDGE_LOOP('',(#248,#249,#250,#251));
#253=FACE_OUTER_BOUND('',#252,.T.);
#254=ADVANCED_FACE('',(#253),#247,.T.);
#255=CARTESIAN_POINT('',(-3.010000000000006,-0.280000000000000,-2.700000000000046));
#256=DIRECTION('',(-0.947492278987195,-7.310044E-017,-0.319778644158192));
#257=DIRECTION('',(0.0,1.0,0.0));
#258=AXIS2_PLACEMENT_3D('',#255,#256,#257);
#259=PLANE('',#258);
#260=ORIENTED_EDGE('',*,*,#202,.T.);
#261=ORIENTED_EDGE('',*,*,#238,.F.);
#262=ORIENTED_EDGE('',*,*,#118,.T.);
#263=ORIENTED_EDGE('',*,*,#171,.T.);
#264=EDGE_LOOP('',(#260,#261,#262,#263));
#265=FACE_OUTER_BOUND('',#264,.T.);
#266=ADVANCED_FACE('',(#265),#259,.T.);
#267=CARTESIAN_POINT('',(-2.069999999999783,-0.280000000000189,1.010000000000147));
#268=DIRECTION('',(0.0,0.0,1.0));
#269=DIRECTION('',(0.0,-1.0,0.0));
#270=AXIS2_PLACEMENT_3D('',#267,#268,#269);
#271=PLANE('',#270);
#272=ORIENTED_EDGE('',*,*,#209,.T.);
#273=ORIENTED_EDGE('',*,*,#178,.F.);
#274=ORIENTED_EDGE('',*,*,#141,.T.);
#275=ORIENTED_EDGE('',*,*,#86,.T.);
#276=EDGE_LOOP('',(#272,#273,#274,#275));
#277=FACE_OUTER_BOUND('',#276,.T.);
#278=ADVANCED_FACE('',(#277),#271,.T.);
#279=CLOSED_SHELL('',(#104,#151,#182,#220,#242,#254,#266,#278));
#280=MANIFOLD_SOLID_BREP('10E',#279);
#281=COLOUR_RGB('254',0.866000000000000,0.866000000000000,0.866000000000000);
#282=SURFACE_STYLE_USAGE(.BOTH.,#283);
#283=SURFACE_SIDE_STYLE('NONE',(#284));
#284=SURFACE_STYLE_FILL_AREA(#285);
#285=FILL_AREA_STYLE('NONE',(#286));
#286=FILL_AREA_STYLE_COLOUR('NONE',#281);
#287=PRESENTATION_STYLE_ASSIGNMENT((#282));
#288=STYLED_ITEM('NONE',(#287),#280);
#289=MECHANICAL_DESIGN_GEOMETRIC_PRESENTATION_REPRESENTATION('NONE',(#288,#507,#724,#875,#1026,#1177,#1534,#2003),#28);
#290=PRESENTATION_LAYER_ASSIGNMENT('0','None',(#280,#506,#723,#874,#1025,#1176,#1533,#1995));
#291=CARTESIAN_POINT('',(0.469999999999984,-0.280000000000002,-2.700000000000046));
#292=DIRECTION('',(1.0,0.0,0.0));
#293=DIRECTION('',(0.0,-1.0,0.0));
#294=AXIS2_PLACEMENT_3D('',#291,#292,#293);
#295=PLANE('',#294);
#296=CARTESIAN_POINT('',(0.469999999999984,0.279999999999999,-2.700000000000046));
#297=VERTEX_POINT('',#296);
#298=CARTESIAN_POINT('',(0.470000000000224,0.279999999999811,1.010000000000147));
#299=VERTEX_POINT('',#298);
#300=CARTESIAN_POINT('',(0.469999999999984,0.279999999999999,-2.700000000000046));
#301=DIRECTION('',(0.0,0.0,1.0));
#302=VECTOR('',#301,3.710000000000193);
#303=LINE('',#300,#302);
#304=EDGE_CURVE('',#297,#299,#303,.T.);
#305=ORIENTED_EDGE('',*,*,#304,.T.);
#306=CARTESIAN_POINT('',(0.470000000000224,-0.280000000000190,1.010000000000147));
#307=VERTEX_POINT('',#306);
#308=CARTESIAN_POINT('',(0.470000000000224,-0.280000000000190,1.010000000000147));
#309=DIRECTION('',(0.0,1.0,0.0));
#310=VECTOR('',#309,0.560000000000001);
#311=LINE('',#308,#310);
#312=EDGE_CURVE('',#307,#299,#311,.T.);
#313=ORIENTED_EDGE('',*,*,#312,.F.);
#314=CARTESIAN_POINT('',(0.469999999999984,-0.280000000000002,-2.700000000000046));
#315=VERTEX_POINT('',#314);
#316=CARTESIAN_POINT('',(0.470000000000224,-0.280000000000190,1.010000000000147));
#317=DIRECTION('',(0.0,0.0,-1.0));
#318=VECTOR('',#317,3.710000000000193);
#319=LINE('',#316,#318);
#320=EDGE_CURVE('',#307,#315,#319,.T.);
#321=ORIENTED_EDGE('',*,*,#320,.T.);
#322=CARTESIAN_POINT('',(0.469999999999984,-0.280000000000002,-2.700000000000046));
#323=DIRECTION('',(0.0,1.0,0.0));
#324=VECTOR('',#323,0.560000000000001);
#325=LINE('',#322,#324);
#326=EDGE_CURVE('',#315,#297,#325,.T.);
#327=ORIENTED_EDGE('',*,*,#326,.T.);
#328=EDGE_LOOP('',(#305,#313,#321,#327));
#329=FACE_OUTER_BOUND('',#328,.T.);
#330=ADVANCED_FACE('',(#329),#295,.T.);
#331=CARTESIAN_POINT('',(-1.643130E-014,-0.280000000000001,1.657019685938622));
#332=DIRECTION('',(0.0,-1.0,0.0));
#333=DIRECTION('',(0.0,0.0,-1.0));
#334=AXIS2_PLACEMENT_3D('',#331,#332,#333);
#335=PLANE('',#334);
#336=CARTESIAN_POINT('',(-0.200000000000003,-0.280000000000002,-3.500000000000000));
#337=VERTEX_POINT('',#336);
#338=CARTESIAN_POINT('',(-0.469999999999999,-0.280000000000002,-2.700000000000046));
#339=VERTEX_POINT('',#338);
#340=CARTESIAN_POINT('',(-0.200000000000003,-0.280000000000002,-3.500000000000000));
#341=DIRECTION('',(-0.319778644158192,0.0,0.947492278987195));
#342=VECTOR('',#341,0.844334057112424);
#343=LINE('',#340,#342);
#344=EDGE_CURVE('',#337,#339,#343,.T.);
#345=ORIENTED_EDGE('',*,*,#344,.F.);
#346=CARTESIAN_POINT('',(0.200000000000003,-0.280000000000002,-3.500000000000000));
#347=VERTEX_POINT('',#346);
#348=CARTESIAN_POINT('',(0.200000000000003,-0.280000000000002,-3.500000000000000));
#349=DIRECTION('',(-1.0,0.0,0.0));
#350=VECTOR('',#349,0.400000000000006);
#351=LINE('',#348,#350);
#352=EDGE_CURVE('',#347,#337,#351,.T.);
#353=ORIENTED_EDGE('',*,*,#352,.F.);
#354=CARTESIAN_POINT('',(0.469999999999984,-0.280000000000002,-2.700000000000046));
#355=DIRECTION('',(-0.319778644158176,-5.259639E-016,-0.947492278987200));
#356=VECTOR('',#355,0.844334057112419);
#357=LINE('',#354,#356);
#358=EDGE_CURVE('',#315,#347,#357,.T.);
#359=ORIENTED_EDGE('',*,*,#358,.F.);
#360=ORIENTED_EDGE('',*,*,#320,.F.);
#361=CARTESIAN_POINT('',(-0.469999999999774,-0.280000000000189,1.010000000000147));
#362=VERTEX_POINT('',#361);
#363=CARTESIAN_POINT('',(-0.469999999999774,-0.280000000000189,1.010000000000147));
#364=DIRECTION('',(1.0,0.0,0.0));
#365=VECTOR('',#364,0.939999999999998);
#366=LINE('',#363,#365);
#367=EDGE_CURVE('',#362,#307,#366,.T.);
#368=ORIENTED_EDGE('',*,*,#367,.F.);
#369=CARTESIAN_POINT('',(-0.469999999999999,-0.280000000000002,-2.700000000000046));
#370=DIRECTION('',(0.0,0.0,1.0));
#371=VECTOR('',#370,3.710000000000193);
#372=LINE('',#369,#371);
#373=EDGE_CURVE('',#339,#362,#372,.T.);
#374=ORIENTED_EDGE('',*,*,#373,.F.);
#375=EDGE_LOOP('',(#345,#353,#359,#360,#368,#374));
#376=FACE_OUTER_BOUND('',#375,.T.);
#377=ADVANCED_FACE('',(#376),#335,.T.);
#378=CARTESIAN_POINT('',(-0.470000000000004,-0.280000000000000,6.600000000000023));
#379=DIRECTION('',(-1.0,0.0,0.0));
#380=DIRECTION('',(0.0,1.0,0.0));
#381=AXIS2_PLACEMENT_3D('',#378,#379,#380);
#382=PLANE('',#381);
#383=CARTESIAN_POINT('',(-0.469999999999774,0.279999999999811,1.010000000000147));
#384=VERTEX_POINT('',#383);
#385=CARTESIAN_POINT('',(-0.469999999999999,0.279999999999999,-2.700000000000046));
#386=VERTEX_POINT('',#385);
#387=CARTESIAN_POINT('',(-0.469999999999774,0.279999999999811,1.010000000000147));
#388=DIRECTION('',(0.0,0.0,-1.0));
#389=VECTOR('',#388,3.710000000000193);
#390=LINE('',#387,#389);
#391=EDGE_CURVE('',#384,#386,#390,.T.);
#392=ORIENTED_EDGE('',*,*,#391,.T.);
#393=CARTESIAN_POINT('',(-0.469999999999999,-0.280000000000002,-2.700000000000046));
#394=DIRECTION('',(0.0,1.0,0.0));
#395=VECTOR('',#394,0.560000000000001);
#396=LINE('',#393,#395);
#397=EDGE_CURVE('',#339,#386,#396,.T.);
#398=ORIENTED_EDGE('',*,*,#397,.F.);
#399=ORIENTED_EDGE('',*,*,#373,.T.);
#400=CARTESIAN_POINT('',(-0.469999999999774,-0.280000000000189,1.010000000000147));
#401=DIRECTION('',(0.0,1.0,0.0));
#402=VECTOR('',#401,0.560000000000001);
#403=LINE('',#400,#402);
#404=EDGE_CURVE('',#362,#384,#403,.T.);
#405=ORIENTED_EDGE('',*,*,#404,.T.);
#406=EDGE_LOOP('',(#392,#398,#399,#405));
#407=FACE_OUTER_BOUND('',#406,.T.);
#408=ADVANCED_FACE('',(#407),#382,.T.);
#409=CARTESIAN_POINT('',(-1.687539E-014,0.279999999999999,1.657019685938622));
#410=DIRECTION('',(0.0,-1.0,0.0));
#411=DIRECTION('',(0.0,0.0,-1.0));
#412=AXIS2_PLACEMENT_3D('',#409,#410,#411);
#413=PLANE('',#412);
#414=CARTESIAN_POINT('',(-0.200000000000003,0.279999999999999,-3.500000000000000));
#415=VERTEX_POINT('',#414);
#416=CARTESIAN_POINT('',(0.200000000000003,0.279999999999998,-3.500000000000000));
#417=VERTEX_POINT('',#416);
#418=CARTESIAN_POINT('',(-0.200000000000003,0.279999999999999,-3.500000000000000));
#419=DIRECTION('',(1.0,0.0,0.0));
#420=VECTOR('',#419,0.400000000000006);
#421=LINE('',#418,#420);
#422=EDGE_CURVE('',#415,#417,#421,.T.);
#423=ORIENTED_EDGE('',*,*,#422,.F.);
#424=CARTESIAN_POINT('',(-0.469999999999999,0.279999999999999,-2.700000000000046));
#425=DIRECTION('',(0.319778644158192,0.0,-0.947492278987195));
#426=VECTOR('',#425,0.844334057112424);
#427=LINE('',#424,#426);
#428=EDGE_CURVE('',#386,#415,#427,.T.);
#429=ORIENTED_EDGE('',*,*,#428,.F.);
#430=ORIENTED_EDGE('',*,*,#391,.F.);
#431=CARTESIAN_POINT('',(0.470000000000224,0.279999999999811,1.010000000000147));
#432=DIRECTION('',(-1.0,0.0,0.0));
#433=VECTOR('',#432,0.939999999999998);
#434=LINE('',#431,#433);
#435=EDGE_CURVE('',#299,#384,#434,.T.);
#436=ORIENTED_EDGE('',*,*,#435,.F.);
#437=ORIENTED_EDGE('',*,*,#304,.F.);
#438=CARTESIAN_POINT('',(0.200000000000003,0.279999999999998,-3.500000000000000));
#439=DIRECTION('',(0.319778644158176,5.259639E-016,0.947492278987200));
#440=VECTOR('',#439,0.844334057112419);
#441=LINE('',#438,#440);
#442=EDGE_CURVE('',#417,#297,#441,.T.);
#443=ORIENTED_EDGE('',*,*,#442,.F.);
#444=EDGE_LOOP('',(#423,#429,#430,#436,#437,#443));
#445=FACE_OUTER_BOUND('',#444,.T.);
#446=ADVANCED_FACE('',(#445),#413,.F.);
#447=CARTESIAN_POINT('',(-0.200000000000003,-0.280000000000002,-3.500000000000000));
#448=DIRECTION('',(0.0,0.0,-1.0));
#449=DIRECTION('',(0.0,1.0,0.0));
#450=AXIS2_PLACEMENT_3D('',#447,#448,#449);
#451=PLANE('',#450);
#452=ORIENTED_EDGE('',*,*,#422,.T.);
#453=CARTESIAN_POINT('',(0.200000000000003,-0.280000000000002,-3.500000000000000));
#454=DIRECTION('',(0.0,1.0,0.0));
#455=VECTOR('',#454,0.560000000000001);
#456=LINE('',#453,#455);
#457=EDGE_CURVE('',#347,#417,#456,.T.);
#458=ORIENTED_EDGE('',*,*,#457,.F.);
#459=ORIENTED_EDGE('',*,*,#352,.T.);
#460=CARTESIAN_POINT('',(-0.200000000000003,-0.280000000000002,-3.500000000000000));
#461=DIRECTION('',(0.0,1.0,0.0));
#462=VECTOR('',#461,0.560000000000001);
#463=LINE('',#460,#462);
#464=EDGE_CURVE('',#337,#415,#463,.T.);
#465=ORIENTED_EDGE('',*,*,#464,.T.);
#466=EDGE_LOOP('',(#452,#458,#459,#465));
#467=FACE_OUTER_BOUND('',#466,.T.);
#468=ADVANCED_FACE('',(#467),#451,.T.);
#469=CARTESIAN_POINT('',(0.200000000000003,-0.280000000000002,-3.500000000000000));
#470=DIRECTION('',(0.947492278987200,-2.974951E-017,-0.319778644158176));
#471=DIRECTION('',(0.0,-1.0,0.0));
#472=AXIS2_PLACEMENT_3D('',#469,#470,#471);
#473=PLANE('',#472);
#474=ORIENTED_EDGE('',*,*,#442,.T.);
#475=ORIENTED_EDGE('',*,*,#326,.F.);
#476=ORIENTED_EDGE('',*,*,#358,.T.);
#477=ORIENTED_EDGE('',*,*,#457,.T.);
#478=EDGE_LOOP('',(#474,#475,#476,#477));
#479=FACE_OUTER_BOUND('',#478,.T.);
#480=ADVANCED_FACE('',(#479),#473,.T.);
#481=CARTESIAN_POINT('',(-0.469999999999999,-0.280000000000002,-2.700000000000046));
#482=DIRECTION('',(-0.947492278987195,-7.310044E-017,-0.319778644158192));
#483=DIRECTION('',(0.0,1.0,0.0));
#484=AXIS2_PLACEMENT_3D('',#481,#482,#483);
#485=PLANE('',#484);
#486=ORIENTED_EDGE('',*,*,#428,.T.);
#487=ORIENTED_EDGE('',*,*,#464,.F.);
#488=ORIENTED_EDGE('',*,*,#344,.T.);
#489=ORIENTED_EDGE('',*,*,#397,.T.);
#490=EDGE_LOOP('',(#486,#487,#488,#489));
#491=FACE_OUTER_BOUND('',#490,.T.);
#492=ADVANCED_FACE('',(#491),#485,.T.);
#493=CARTESIAN_POINT('',(0.470000000000224,-0.280000000000190,1.010000000000147));
#494=DIRECTION('',(0.0,0.0,1.0));
#495=DIRECTION('',(0.0,-1.0,0.0));
#496=AXIS2_PLACEMENT_3D('',#493,#494,#495);
#497=PLANE('',#496);
#498=ORIENTED_EDGE('',*,*,#435,.T.);
#499=ORIENTED_EDGE('',*,*,#404,.F.);
#500=ORIENTED_EDGE('',*,*,#367,.T.);
#501=ORIENTED_EDGE('',*,*,#312,.T.);
#502=EDGE_LOOP('',(#498,#499,#500,#501));
#503=FACE_OUTER_BOUND('',#502,.T.);
#504=ADVANCED_FACE('',(#503),#497,.T.);
#505=CLOSED_SHELL('',(#330,#377,#408,#446,#468,#480,#492,#504));
#506=MANIFOLD_SOLID_BREP('10D',#505);
#507=STYLED_ITEM('NONE',(#287),#506);
#508=CARTESIAN_POINT('',(3.009999999999990,-0.280000000000002,-2.700000000000042));
#509=DIRECTION('',(1.0,0.0,0.0));
#510=DIRECTION('',(0.0,-1.0,0.0));
#511=AXIS2_PLACEMENT_3D('',#508,#509,#510);
#512=PLANE('',#511);
#513=CARTESIAN_POINT('',(3.009999999999990,0.279999999999998,-2.700000000000042));
#514=VERTEX_POINT('',#513);
#515=CARTESIAN_POINT('',(3.010000000000230,0.279999999999810,1.010000000000151));
#516=VERTEX_POINT('',#515);
#517=CARTESIAN_POINT('',(3.009999999999990,0.279999999999998,-2.700000000000042));
#518=DIRECTION('',(0.0,0.0,1.0));
#519=VECTOR('',#518,3.710000000000193);
#520=LINE('',#517,#519);
#521=EDGE_CURVE('',#514,#516,#520,.T.);
#522=ORIENTED_EDGE('',*,*,#521,.T.);
#523=CARTESIAN_POINT('',(3.010000000000230,-0.280000000000191,1.010000000000151));
#524=VERTEX_POINT('',#523);
#525=CARTESIAN_POINT('',(3.010000000000230,-0.280000000000191,1.010000000000151));
#526=DIRECTION('',(0.0,1.0,0.0));
#527=VECTOR('',#526,0.560000000000001);
#528=LINE('',#525,#527);
#529=EDGE_CURVE('',#524,#516,#528,.T.);
#530=ORIENTED_EDGE('',*,*,#529,.F.);
#531=CARTESIAN_POINT('',(3.009999999999990,-0.280000000000002,-2.700000000000042));
#532=VERTEX_POINT('',#531);
#533=CARTESIAN_POINT('',(3.010000000000230,-0.280000000000191,1.010000000000151));
#534=DIRECTION('',(0.0,0.0,-1.0));
#535=VECTOR('',#534,3.710000000000193);
#536=LINE('',#533,#535);
#537=EDGE_CURVE('',#524,#532,#536,.T.);
#538=ORIENTED_EDGE('',*,*,#537,.T.);
#539=CARTESIAN_POINT('',(3.009999999999990,-0.280000000000002,-2.700000000000042));
#540=DIRECTION('',(0.0,1.0,0.0));
#541=VECTOR('',#540,0.560000000000001);
#542=LINE('',#539,#541);
#543=EDGE_CURVE('',#532,#514,#542,.T.);
#544=ORIENTED_EDGE('',*,*,#543,.T.);
#545=EDGE_LOOP('',(#522,#530,#538,#544));
#546=FACE_OUTER_BOUND('',#545,.T.);
#547=ADVANCED_FACE('',(#546),#512,.T.);
#548=CARTESIAN_POINT('',(2.539999999999989,-0.280000000000002,1.657019685938625));
#549=DIRECTION('',(0.0,-1.0,0.0));
#550=DIRECTION('',(0.0,0.0,-1.0));
#551=AXIS2_PLACEMENT_3D('',#548,#549,#550);
#552=PLANE('',#551);
#553=CARTESIAN_POINT('',(2.340000000000003,-0.280000000000002,-3.499999999999996));
#554=VERTEX_POINT('',#553);
#555=CARTESIAN_POINT('',(2.070000000000007,-0.280000000000002,-2.700000000000042));
#556=VERTEX_POINT('',#555);
#557=CARTESIAN_POINT('',(2.340000000000003,-0.280000000000002,-3.499999999999996));
#558=DIRECTION('',(-0.319778644158192,0.0,0.947492278987195));
#559=VECTOR('',#558,0.844334057112424);
#560=LINE('',#557,#559);
#561=EDGE_CURVE('',#554,#556,#560,.T.);
#562=ORIENTED_EDGE('',*,*,#561,.F.);
#563=CARTESIAN_POINT('',(2.740000000000009,-0.280000000000003,-3.499999999999996));
#564=VERTEX_POINT('',#563);
#565=CARTESIAN_POINT('',(2.740000000000009,-0.280000000000003,-3.499999999999996));
#566=DIRECTION('',(-1.0,0.0,0.0));
#567=VECTOR('',#566,0.400000000000006);
#568=LINE('',#565,#567);
#569=EDGE_CURVE('',#564,#554,#568,.T.);
#570=ORIENTED_EDGE('',*,*,#569,.F.);
#571=CARTESIAN_POINT('',(3.009999999999990,-0.280000000000002,-2.700000000000042));
#572=DIRECTION('',(-0.319778644158176,-5.259639E-016,-0.947492278987200));
#573=VECTOR('',#572,0.844334057112419);
#574=LINE('',#571,#573);
#575=EDGE_CURVE('',#532,#564,#574,.T.);
#576=ORIENTED_EDGE('',*,*,#575,.F.);
#577=ORIENTED_EDGE('',*,*,#537,.F.);
#578=CARTESIAN_POINT('',(2.070000000000232,-0.280000000000190,1.010000000000151));
#579=VERTEX_POINT('',#578);
#580=CARTESIAN_POINT('',(2.070000000000232,-0.280000000000190,1.010000000000151));
#581=DIRECTION('',(1.0,0.0,0.0));
#582=VECTOR('',#581,0.939999999999998);
#583=LINE('',#580,#582);
#584=EDGE_CURVE('',#579,#524,#583,.T.);
#585=ORIENTED_EDGE('',*,*,#584,.F.);
#586=CARTESIAN_POINT('',(2.070000000000007,-0.280000000000002,-2.700000000000042));
#587=DIRECTION('',(0.0,0.0,1.0));
#588=VECTOR('',#587,3.710000000000193);
#589=LINE('',#586,#588);
#590=EDGE_CURVE('',#556,#579,#589,.T.);
#591=ORIENTED_EDGE('',*,*,#590,.F.);
#592=EDGE_LOOP('',(#562,#570,#576,#577,#585,#591));
#593=FACE_OUTER_BOUND('',#592,.T.);
#594=ADVANCED_FACE('',(#593),#552,.T.);
#595=CARTESIAN_POINT('',(2.070000000000002,-0.280000000000001,6.600000000000026));
#596=DIRECTION('',(-1.0,0.0,0.0));
#597=DIRECTION('',(0.0,1.0,0.0));
#598=AXIS2_PLACEMENT_3D('',#595,#596,#597);
#599=PLANE('',#598);
#600=CARTESIAN_POINT('',(2.070000000000232,0.279999999999810,1.010000000000151));
#601=VERTEX_POINT('',#600);
#602=CARTESIAN_POINT('',(2.070000000000007,0.279999999999998,-2.700000000000042));
#603=VERTEX_POINT('',#602);
#604=CARTESIAN_POINT('',(2.070000000000232,0.279999999999810,1.010000000000151));
#605=DIRECTION('',(0.0,0.0,-1.0));
#606=VECTOR('',#605,3.710000000000193);
#607=LINE('',#604,#606);
#608=EDGE_CURVE('',#601,#603,#607,.T.);
#609=ORIENTED_EDGE('',*,*,#608,.T.);
#610=CARTESIAN_POINT('',(2.070000000000007,-0.280000000000002,-2.700000000000042));
#611=DIRECTION('',(0.0,1.0,0.0));
#612=VECTOR('',#611,0.560000000000001);
#613=LINE('',#610,#612);
#614=EDGE_CURVE('',#556,#603,#613,.T.);
#615=ORIENTED_EDGE('',*,*,#614,.F.);
#616=ORIENTED_EDGE('',*,*,#590,.T.);
#617=CARTESIAN_POINT('',(2.070000000000232,-0.280000000000190,1.010000000000151));
#618=DIRECTION('',(0.0,1.0,0.0));
#619=VECTOR('',#618,0.560000000000001);
#620=LINE('',#617,#619);
#621=EDGE_CURVE('',#579,#601,#620,.T.);
#622=ORIENTED_EDGE('',*,*,#621,.T.);
#623=EDGE_LOOP('',(#609,#615,#616,#622));
#624=FACE_OUTER_BOUND('',#623,.T.);
#625=ADVANCED_FACE('',(#624),#599,.T.);
#626=CARTESIAN_POINT('',(2.539999999999989,0.279999999999998,1.657019685938625));
#627=DIRECTION('',(0.0,-1.0,0.0));
#628=DIRECTION('',(0.0,0.0,-1.0));
#629=AXIS2_PLACEMENT_3D('',#626,#627,#628);
#630=PLANE('',#629);
#631=CARTESIAN_POINT('',(2.340000000000003,0.279999999999998,-3.499999999999996));
#632=VERTEX_POINT('',#631);
#633=CARTESIAN_POINT('',(2.740000000000009,0.279999999999998,-3.499999999999996));
#634=VERTEX_POINT('',#633);
#635=CARTESIAN_POINT('',(2.340000000000003,0.279999999999998,-3.499999999999996));
#636=DIRECTION('',(1.0,0.0,0.0));
#637=VECTOR('',#636,0.400000000000006);
#638=LINE('',#635,#637);
#639=EDGE_CURVE('',#632,#634,#638,.T.);
#640=ORIENTED_EDGE('',*,*,#639,.F.);
#641=CARTESIAN_POINT('',(2.070000000000007,0.279999999999998,-2.700000000000042));
#642=DIRECTION('',(0.319778644158192,0.0,-0.947492278987195));
#643=VECTOR('',#642,0.844334057112424);
#644=LINE('',#641,#643);
#645=EDGE_CURVE('',#603,#632,#644,.T.);
#646=ORIENTED_EDGE('',*,*,#645,.F.);
#647=ORIENTED_EDGE('',*,*,#608,.F.);
#648=CARTESIAN_POINT('',(3.010000000000230,0.279999999999810,1.010000000000151));
#649=DIRECTION('',(-1.0,0.0,0.0));
#650=VECTOR('',#649,0.939999999999998);
#651=LINE('',#648,#650);
#652=EDGE_CURVE('',#516,#601,#651,.T.);
#653=ORIENTED_EDGE('',*,*,#652,.F.);
#654=ORIENTED_EDGE('',*,*,#521,.F.);
#655=CARTESIAN_POINT('',(2.740000000000009,0.279999999999998,-3.499999999999996));
#656=DIRECTION('',(0.319778644158176,5.259639E-016,0.947492278987200));
#657=VECTOR('',#656,0.844334057112419);
#658=LINE('',#655,#657);
#659=EDGE_CURVE('',#634,#514,#658,.T.);
#660=ORIENTED_EDGE('',*,*,#659,.F.);
#661=EDGE_LOOP('',(#640,#646,#647,#653,#654,#660));
#662=FACE_OUTER_BOUND('',#661,.T.);
#663=ADVANCED_FACE('',(#662),#630,.F.);
#664=CARTESIAN_POINT('',(2.340000000000003,-0.280000000000002,-3.499999999999996));
#665=DIRECTION('',(0.0,0.0,-1.0));
#666=DIRECTION('',(0.0,1.0,0.0));
#667=AXIS2_PLACEMENT_3D('',#664,#665,#666);
#668=PLANE('',#667);
#669=ORIENTED_EDGE('',*,*,#639,.T.);
#670=CARTESIAN_POINT('',(2.740000000000009,-0.280000000000003,-3.499999999999996));
#671=DIRECTION('',(0.0,1.0,0.0));
#672=VECTOR('',#671,0.560000000000001);
#673=LINE('',#670,#672);
#674=EDGE_CURVE('',#564,#634,#673,.T.);
#675=ORIENTED_EDGE('',*,*,#674,.F.);
#676=ORIENTED_EDGE('',*,*,#569,.T.);
#677=CARTESIAN_POINT('',(2.340000000000003,-0.280000000000002,-3.499999999999996));
#678=DIRECTION('',(0.0,1.0,0.0));
#679=VECTOR('',#678,0.560000000000001);
#680=LINE('',#677,#679);
#681=EDGE_CURVE('',#554,#632,#680,.T.);
#682=ORIENTED_EDGE('',*,*,#681,.T.);
#683=EDGE_LOOP('',(#669,#675,#676,#682));
#684=FACE_OUTER_BOUND('',#683,.T.);
#685=ADVANCED_FACE('',(#684),#668,.T.);
#686=CARTESIAN_POINT('',(2.740000000000009,-0.280000000000003,-3.499999999999996));
#687=DIRECTION('',(0.947492278987200,-2.974951E-017,-0.319778644158176));
#688=DIRECTION('',(0.0,-1.0,0.0));
#689=AXIS2_PLACEMENT_3D('',#686,#687,#688);
#690=PLANE('',#689);
#691=ORIENTED_EDGE('',*,*,#659,.T.);
#692=ORIENTED_EDGE('',*,*,#543,.F.);
#693=ORIENTED_EDGE('',*,*,#575,.T.);
#694=ORIENTED_EDGE('',*,*,#674,.T.);
#695=EDGE_LOOP('',(#691,#692,#693,#694));
#696=FACE_OUTER_BOUND('',#695,.T.);
#697=ADVANCED_FACE('',(#696),#690,.T.);
#698=CARTESIAN_POINT('',(2.070000000000007,-0.280000000000002,-2.700000000000042));
#699=DIRECTION('',(-0.947492278987195,-7.310044E-017,-0.319778644158192));
#700=DIRECTION('',(0.0,1.0,0.0));
#701=AXIS2_PLACEMENT_3D('',#698,#699,#700);
#702=PLANE('',#701);
#703=ORIENTED_EDGE('',*,*,#645,.T.);
#704=ORIENTED_EDGE('',*,*,#681,.F.);
#705=ORIENTED_EDGE('',*,*,#561,.T.);
#706=ORIENTED_EDGE('',*,*,#614,.T.);
#707=EDGE_LOOP('',(#703,#704,#705,#706));
#708=FACE_OUTER_BOUND('',#707,.T.);
#709=ADVANCED_FACE('',(#708),#702,.T.);
#710=CARTESIAN_POINT('',(3.010000000000230,-0.280000000000191,1.010000000000151));
#711=DIRECTION('',(0.0,0.0,1.0));
#712=DIRECTION('',(0.0,-1.0,0.0));
#713=AXIS2_PLACEMENT_3D('',#710,#711,#712);
#714=PLANE('',#713);
#715=ORIENTED_EDGE('',*,*,#652,.T.);
#716=ORIENTED_EDGE('',*,*,#621,.F.);
#717=ORIENTED_EDGE('',*,*,#584,.T.);
#718=ORIENTED_EDGE('',*,*,#529,.T.);
#719=EDGE_LOOP('',(#715,#716,#717,#718));
#720=FACE_OUTER_BOUND('',#719,.T.);
#721=ADVANCED_FACE('',(#720),#714,.T.);
#722=CLOSED_SHELL('',(#547,#594,#625,#663,#685,#697,#709,#721));
#723=MANIFOLD_SOLID_BREP('F0',#722);
#724=STYLED_ITEM('NONE',(#287),#723);
#725=CARTESIAN_POINT('',(3.240000000000004,-0.280000000000191,1.010000000000161));
#726=DIRECTION('',(1.0,0.0,0.0));
#727=DIRECTION('',(0.0,-1.0,0.0));
#728=AXIS2_PLACEMENT_3D('',#725,#726,#727);
#729=PLANE('',#728);
#730=CARTESIAN_POINT('',(3.240000000000004,0.279999999999809,1.010000000000161));
#731=VERTEX_POINT('',#730);
#732=CARTESIAN_POINT('',(3.240000000000016,0.279999999999810,5.010000000000048));
#733=VERTEX_POINT('',#732);
#734=CARTESIAN_POINT('',(3.240000000000004,0.279999999999809,1.010000000000161));
#735=DIRECTION('',(0.0,0.0,1.0));
#736=VECTOR('',#735,3.999999999999886);
#737=LINE('',#734,#736);
#738=EDGE_CURVE('',#731,#733,#737,.T.);
#739=ORIENTED_EDGE('',*,*,#738,.T.);
#740=CARTESIAN_POINT('',(3.240000000000016,-0.280000000000190,5.010000000000048));
#741=VERTEX_POINT('',#740);
#742=CARTESIAN_POINT('',(3.240000000000016,-0.280000000000190,5.010000000000048));
#743=DIRECTION('',(0.0,1.0,0.0));
#744=VECTOR('',#743,0.560000000000000);
#745=LINE('',#742,#744);
#746=EDGE_CURVE('',#741,#733,#745,.T.);
#747=ORIENTED_EDGE('',*,*,#746,.F.);
#748=CARTESIAN_POINT('',(3.240000000000004,-0.280000000000191,1.010000000000161));
#749=VERTEX_POINT('',#748);
#750=CARTESIAN_POINT('',(3.240000000000004,-0.280000000000191,1.010000000000161));
#751=DIRECTION('',(0.0,0.0,1.0));
#752=VECTOR('',#751,3.999999999999886);
#753=LINE('',#750,#752);
#754=EDGE_CURVE('',#749,#741,#753,.T.);
#755=ORIENTED_EDGE('',*,*,#754,.F.);
#756=CARTESIAN_POINT('',(3.240000000000004,-0.280000000000191,1.010000000000161));
#757=DIRECTION('',(0.0,1.0,0.0));
#758=VECTOR('',#757,0.560000000000000);
#759=LINE('',#756,#758);
#760=EDGE_CURVE('',#749,#731,#759,.T.);
#761=ORIENTED_EDGE('',*,*,#760,.T.);
#762=EDGE_LOOP('',(#739,#747,#755,#761));
#763=FACE_OUTER_BOUND('',#762,.T.);
#764=ADVANCED_FACE('',(#763),#729,.T.);
#765=CARTESIAN_POINT('',(3.240000000000016,-0.280000000000190,5.010000000000048));
#766=DIRECTION('',(0.0,0.0,1.0));
#767=DIRECTION('',(0.0,-1.0,0.0));
#768=AXIS2_PLACEMENT_3D('',#765,#766,#767);
#769=PLANE('',#768);
#770=CARTESIAN_POINT('',(1.840000000000011,0.279999999999810,5.010000000000046));
#771=VERTEX_POINT('',#770);
#772=CARTESIAN_POINT('',(3.240000000000016,0.279999999999810,5.010000000000048));
#773=DIRECTION('',(-1.0,0.0,0.0));
#774=VECTOR('',#773,1.400000000000005);
#775=LINE('',#772,#774);
#776=EDGE_CURVE('',#733,#771,#775,.T.);
#777=ORIENTED_EDGE('',*,*,#776,.T.);
#778=CARTESIAN_POINT('',(1.840000000000011,-0.280000000000190,5.010000000000046));
#779=VERTEX_POINT('',#778);
#780=CARTESIAN_POINT('',(1.840000000000011,-0.280000000000190,5.010000000000046));
#781=DIRECTION('',(0.0,1.0,0.0));
#782=VECTOR('',#781,0.560000000000000);
#783=LINE('',#780,#782);
#784=EDGE_CURVE('',#779,#771,#783,.T.);
#785=ORIENTED_EDGE('',*,*,#784,.F.);
#786=CARTESIAN_POINT('',(3.240000000000016,-0.280000000000190,5.010000000000048));
#787=DIRECTION('',(-1.0,0.0,0.0));
#788=VECTOR('',#787,1.400000000000005);
#789=LINE('',#786,#788);
#790=EDGE_CURVE('',#741,#779,#789,.T.);
#791=ORIENTED_EDGE('',*,*,#790,.F.);
#792=ORIENTED_EDGE('',*,*,#746,.T.);
#793=EDGE_LOOP('',(#777,#785,#791,#792));
#794=FACE_OUTER_BOUND('',#793,.T.);
#795=ADVANCED_FACE('',(#794),#769,.T.);
#796=CARTESIAN_POINT('',(1.840000000000011,-0.280000000000190,5.010000000000046));
#797=DIRECTION('',(-1.0,0.0,0.0));
#798=DIRECTION('',(0.0,1.0,0.0));
#799=AXIS2_PLACEMENT_3D('',#796,#797,#798);
#800=PLANE('',#799);
#801=CARTESIAN_POINT('',(1.840000000000013,0.279999999999809,1.010000000000101));
#802=VERTEX_POINT('',#801);
#803=CARTESIAN_POINT('',(1.840000000000011,0.279999999999810,5.010000000000046));
#804=DIRECTION('',(0.0,0.0,-1.0));
#805=VECTOR('',#804,3.999999999999945);
#806=LINE('',#803,#805);
#807=EDGE_CURVE('',#771,#802,#806,.T.);
#808=ORIENTED_EDGE('',*,*,#807,.T.);
#809=CARTESIAN_POINT('',(1.840000000000013,-0.280000000000191,1.010000000000101));
#810=VERTEX_POINT('',#809);
#811=CARTESIAN_POINT('',(1.840000000000013,-0.280000000000191,1.010000000000101));
#812=DIRECTION('',(0.0,1.0,0.0));
#813=VECTOR('',#812,0.560000000000000);
#814=LINE('',#811,#813);
#815=EDGE_CURVE('',#810,#802,#814,.T.);
#816=ORIENTED_EDGE('',*,*,#815,.F.);
#817=CARTESIAN_POINT('',(1.840000000000011,-0.280000000000190,5.010000000000046));
#818=DIRECTION('',(0.0,0.0,-1.0));
#819=VECTOR('',#818,3.999999999999945);
#820=LINE('',#817,#819);
#821=EDGE_CURVE('',#779,#810,#820,.T.);
#822=ORIENTED_EDGE('',*,*,#821,.F.);
#823=ORIENTED_EDGE('',*,*,#784,.T.);
#824=EDGE_LOOP('',(#808,#816,#822,#823));
#825=FACE_OUTER_BOUND('',#824,.T.);
#826=ADVANCED_FACE('',(#825),#800,.T.);
#827=CARTESIAN_POINT('',(1.840000000000013,-0.280000000000191,1.010000000000101));
#828=DIRECTION('',(0.0,0.0,-1.0));
#829=DIRECTION('',(0.0,1.0,0.0));
#830=AXIS2_PLACEMENT_3D('',#827,#828,#829);
#831=PLANE('',#830);
#832=CARTESIAN_POINT('',(1.840000000000013,0.279999999999809,1.010000000000101));
#833=DIRECTION('',(1.0,0.0,0.0));
#834=VECTOR('',#833,1.399999999999991);
#835=LINE('',#832,#834);
#836=EDGE_CURVE('',#802,#731,#835,.T.);
#837=ORIENTED_EDGE('',*,*,#836,.T.);
#838=ORIENTED_EDGE('',*,*,#760,.F.);
#839=CARTESIAN_POINT('',(1.840000000000013,-0.280000000000191,1.010000000000101));
#840=DIRECTION('',(1.0,0.0,0.0));
#841=VECTOR('',#840,1.399999999999991);
#842=LINE('',#839,#841);
#843=EDGE_CURVE('',#810,#749,#842,.T.);
#844=ORIENTED_EDGE('',*,*,#843,.F.);
#845=ORIENTED_EDGE('',*,*,#815,.T.);
#846=EDGE_LOOP('',(#837,#838,#844,#845));
#847=FACE_OUTER_BOUND('',#846,.T.);
#848=ADVANCED_FACE('',(#847),#831,.T.);
#849=CARTESIAN_POINT('',(2.540000000000014,0.279999999999809,3.010000000000103));
#850=DIRECTION('',(0.0,-1.0,0.0));
#851=DIRECTION('',(0.0,0.0,-1.0));
#852=AXIS2_PLACEMENT_3D('',#849,#850,#851);
#853=PLANE('',#852);
#854=ORIENTED_EDGE('',*,*,#738,.F.);
#855=ORIENTED_EDGE('',*,*,#836,.F.);
#856=ORIENTED_EDGE('',*,*,#807,.F.);
#857=ORIENTED_EDGE('',*,*,#776,.F.);
#858=EDGE_LOOP('',(#854,#855,#856,#857));
#859=FACE_OUTER_BOUND('',#858,.T.);
#860=ADVANCED_FACE('',(#859),#853,.F.);
#861=CARTESIAN_POINT('',(2.540000000000014,-0.280000000000190,3.010000000000103));
#862=DIRECTION('',(0.0,-1.0,0.0));
#863=DIRECTION('',(0.0,0.0,-1.0));
#864=AXIS2_PLACEMENT_3D('',#861,#862,#863);
#865=PLANE('',#864);
#866=ORIENTED_EDGE('',*,*,#843,.T.);
#867=ORIENTED_EDGE('',*,*,#754,.T.);
#868=ORIENTED_EDGE('',*,*,#790,.T.);
#869=ORIENTED_EDGE('',*,*,#821,.T.);
#870=EDGE_LOOP('',(#866,#867,#868,#869));
#871=FACE_OUTER_BOUND('',#870,.T.);
#872=ADVANCED_FACE('',(#871),#865,.T.);
#873=CLOSED_SHELL('',(#764,#795,#826,#848,#860,#872));
#874=MANIFOLD_SOLID_BREP('EF',#873);
#875=STYLED_ITEM('NONE',(#287),#874);
#876=CARTESIAN_POINT('',(-1.840000000000008,-0.280000000000189,1.010000000000161));
#877=DIRECTION('',(1.0,0.0,0.0));
#878=DIRECTION('',(0.0,-1.0,0.0));
#879=AXIS2_PLACEMENT_3D('',#876,#877,#878);
#880=PLANE('',#879);
#881=CARTESIAN_POINT('',(-1.840000000000009,0.279999999999811,1.010000000000161));
#882=VERTEX_POINT('',#881);
#883=CARTESIAN_POINT('',(-1.839999999999996,0.279999999999812,5.010000000000044));
#884=VERTEX_POINT('',#883);
#885=CARTESIAN_POINT('',(-1.840000000000009,0.279999999999811,1.010000000000161));
#886=DIRECTION('',(0.0,0.0,1.0));
#887=VECTOR('',#886,3.999999999999883);
#888=LINE('',#885,#887);
#889=EDGE_CURVE('',#882,#884,#888,.T.);
#890=ORIENTED_EDGE('',*,*,#889,.T.);
#891=CARTESIAN_POINT('',(-1.839999999999996,-0.280000000000188,5.010000000000044));
#892=VERTEX_POINT('',#891);
#893=CARTESIAN_POINT('',(-1.839999999999996,-0.280000000000188,5.010000000000044));
#894=DIRECTION('',(0.0,1.0,0.0));
#895=VECTOR('',#894,0.560000000000000);
#896=LINE('',#893,#895);
#897=EDGE_CURVE('',#892,#884,#896,.T.);
#898=ORIENTED_EDGE('',*,*,#897,.F.);
#899=CARTESIAN_POINT('',(-1.840000000000008,-0.280000000000189,1.010000000000161));
#900=VERTEX_POINT('',#899);
#901=CARTESIAN_POINT('',(-1.840000000000008,-0.280000000000189,1.010000000000161));
#902=DIRECTION('',(0.0,0.0,1.0));
#903=VECTOR('',#902,3.999999999999883);
#904=LINE('',#901,#903);
#905=EDGE_CURVE('',#900,#892,#904,.T.);
#906=ORIENTED_EDGE('',*,*,#905,.F.);
#907=CARTESIAN_POINT('',(-1.840000000000008,-0.280000000000189,1.010000000000161));
#908=DIRECTION('',(0.0,1.0,0.0));
#909=VECTOR('',#908,0.560000000000000);
#910=LINE('',#907,#909);
#911=EDGE_CURVE('',#900,#882,#910,.T.);
#912=ORIENTED_EDGE('',*,*,#911,.T.);
#913=EDGE_LOOP('',(#890,#898,#906,#912));
#914=FACE_OUTER_BOUND('',#913,.T.);
#915=ADVANCED_FACE('',(#914),#880,.T.);
#916=CARTESIAN_POINT('',(-1.839999999999996,-0.280000000000188,5.010000000000044));
#917=DIRECTION('',(0.0,0.0,1.0));
#918=DIRECTION('',(0.0,-1.0,0.0));
#919=AXIS2_PLACEMENT_3D('',#916,#917,#918);
#920=PLANE('',#919);
#921=CARTESIAN_POINT('',(-3.240000000000002,0.279999999999812,5.010000000000042));
#922=VERTEX_POINT('',#921);
#923=CARTESIAN_POINT('',(-1.839999999999996,0.279999999999812,5.010000000000044));
#924=DIRECTION('',(-1.0,0.0,0.0));
#925=VECTOR('',#924,1.400000000000006);
#926=LINE('',#923,#925);
#927=EDGE_CURVE('',#884,#922,#926,.T.);
#928=ORIENTED_EDGE('',*,*,#927,.T.);
#929=CARTESIAN_POINT('',(-3.240000000000002,-0.280000000000188,5.010000000000044));
#930=VERTEX_POINT('',#929);
#931=CARTESIAN_POINT('',(-3.240000000000002,-0.280000000000188,5.010000000000044));
#932=DIRECTION('',(0.0,1.0,0.0));
#933=VECTOR('',#932,0.560000000000000);
#934=LINE('',#931,#933);
#935=EDGE_CURVE('',#930,#922,#934,.T.);
#936=ORIENTED_EDGE('',*,*,#935,.F.);
#937=CARTESIAN_POINT('',(-1.839999999999996,-0.280000000000188,5.010000000000044));
#938=DIRECTION('',(-1.0,0.0,0.0));
#939=VECTOR('',#938,1.400000000000006);
#940=LINE('',#937,#939);
#941=EDGE_CURVE('',#892,#930,#940,.T.);
#942=ORIENTED_EDGE('',*,*,#941,.F.);
#943=ORIENTED_EDGE('',*,*,#897,.T.);
#944=EDGE_LOOP('',(#928,#936,#942,#943));
#945=FACE_OUTER_BOUND('',#944,.T.);
#946=ADVANCED_FACE('',(#945),#920,.T.);
#947=CARTESIAN_POINT('',(-3.240000000000002,-0.280000000000188,5.010000000000044));
#948=DIRECTION('',(-1.0,0.0,0.0));
#949=DIRECTION('',(0.0,1.0,0.0));
#950=AXIS2_PLACEMENT_3D('',#947,#948,#949);
#951=PLANE('',#950);
#952=CARTESIAN_POINT('',(-3.240000000000000,0.279999999999811,1.010000000000101));
#953=VERTEX_POINT('',#952);
#954=CARTESIAN_POINT('',(-3.240000000000002,0.279999999999812,5.010000000000042));
#955=DIRECTION('',(0.0,0.0,-1.0));
#956=VECTOR('',#955,3.999999999999941);
#957=LINE('',#954,#956);
#958=EDGE_CURVE('',#922,#953,#957,.T.);
#959=ORIENTED_EDGE('',*,*,#958,.T.);
#960=CARTESIAN_POINT('',(-3.240000000000000,-0.280000000000189,1.010000000000101));
#961=VERTEX_POINT('',#960);
#962=CARTESIAN_POINT('',(-3.240000000000000,-0.280000000000189,1.010000000000101));
#963=DIRECTION('',(0.0,1.0,0.0));
#964=VECTOR('',#963,0.560000000000000);
#965=LINE('',#962,#964);
#966=EDGE_CURVE('',#961,#953,#965,.T.);
#967=ORIENTED_EDGE('',*,*,#966,.F.);
#968=CARTESIAN_POINT('',(-3.240000000000002,-0.280000000000188,5.010000000000044));
#969=DIRECTION('',(0.0,0.0,-1.0));
#970=VECTOR('',#969,3.999999999999943);
#971=LINE('',#968,#970);
#972=EDGE_CURVE('',#930,#961,#971,.T.);
#973=ORIENTED_EDGE('',*,*,#972,.F.);
#974=ORIENTED_EDGE('',*,*,#935,.T.);
#975=EDGE_LOOP('',(#959,#967,#973,#974));
#976=FACE_OUTER_BOUND('',#975,.T.);
#977=ADVANCED_FACE('',(#976),#951,.T.);
#978=CARTESIAN_POINT('',(-3.240000000000000,-0.280000000000189,1.010000000000101));
#979=DIRECTION('',(0.0,0.0,-1.0));
#980=DIRECTION('',(0.0,1.0,0.0));
#981=AXIS2_PLACEMENT_3D('',#978,#979,#980);
#982=PLANE('',#981);
#983=CARTESIAN_POINT('',(-3.240000000000000,0.279999999999811,1.010000000000101));
#984=DIRECTION('',(1.0,0.0,0.0));
#985=VECTOR('',#984,1.399999999999992);
#986=LINE('',#983,#985);
#987=EDGE_CURVE('',#953,#882,#986,.T.);
#988=ORIENTED_EDGE('',*,*,#987,.T.);
#989=ORIENTED_EDGE('',*,*,#911,.F.);
#990=CARTESIAN_POINT('',(-3.240000000000000,-0.280000000000189,1.010000000000101));
#991=DIRECTION('',(1.0,0.0,0.0));
#992=VECTOR('',#991,1.399999999999992);
#993=LINE('',#990,#992);
#994=EDGE_CURVE('',#961,#900,#993,.T.);
#995=ORIENTED_EDGE('',*,*,#994,.F.);
#996=ORIENTED_EDGE('',*,*,#966,.T.);
#997=EDGE_LOOP('',(#988,#989,#995,#996));
#998=FACE_OUTER_BOUND('',#997,.T.);
#999=ADVANCED_FACE('',(#998),#982,.T.);
#1000=CARTESIAN_POINT('',(-2.539999999999999,0.279999999999812,3.010000000000101));
#1001=DIRECTION('',(0.0,-1.0,0.0));
#1002=DIRECTION('',(0.0,0.0,-1.0));
#1003=AXIS2_PLACEMENT_3D('',#1000,#1001,#1002);
#1004=PLANE('',#1003);
#1005=ORIENTED_EDGE('',*,*,#889,.F.);
#1006=ORIENTED_EDGE('',*,*,#987,.F.);
#1007=ORIENTED_EDGE('',*,*,#958,.F.);
#1008=ORIENTED_EDGE('',*,*,#927,.F.);
#1009=EDGE_LOOP('',(#1005,#1006,#1007,#1008));
#1010=FACE_OUTER_BOUND('',#1009,.T.);
#1011=ADVANCED_FACE('',(#1010),#1004,.F.);
#1012=CARTESIAN_POINT('',(-2.539999999999998,-0.280000000000188,3.010000000000101));
#1013=DIRECTION('',(0.0,-1.0,0.0));
#1014=DIRECTION('',(0.0,0.0,-1.0));
#1015=AXIS2_PLACEMENT_3D('',#1012,#1013,#1014);
#1016=PLANE('',#1015);
#1017=ORIENTED_EDGE('',*,*,#994,.T.);
#1018=ORIENTED_EDGE('',*,*,#905,.T.);
#1019=ORIENTED_EDGE('',*,*,#941,.T.);
#1020=ORIENTED_EDGE('',*,*,#972,.T.);
#1021=EDGE_LOOP('',(#1017,#1018,#1019,#1020));
#1022=FACE_OUTER_BOUND('',#1021,.T.);
#1023=ADVANCED_FACE('',(#1022),#1016,.T.);
#1024=CLOSED_SHELL('',(#915,#946,#977,#999,#1011,#1023));
#1025=MANIFOLD_SOLID_BREP('ED',#1024);
#1026=STYLED_ITEM('NONE',(#287),#1025);
#1027=CARTESIAN_POINT('',(0.699999999999998,-0.280000000000190,1.010000000000158));
#1028=DIRECTION('',(1.0,0.0,0.0));
#1029=DIRECTION('',(0.0,-1.0,0.0));
#1030=AXIS2_PLACEMENT_3D('',#1027,#1028,#1029);
#1031=PLANE('',#1030);
#1032=CARTESIAN_POINT('',(0.699999999999998,0.279999999999810,1.010000000000158));
#1033=VERTEX_POINT('',#1032);
#1034=CARTESIAN_POINT('',(0.700000000000010,0.279999999999811,5.010000000000044));
#1035=VERTEX_POINT('',#1034);
#1036=CARTESIAN_POINT('',(0.699999999999998,0.279999999999810,1.010000000000158));
#1037=DIRECTION('',(0.0,0.0,1.0));
#1038=VECTOR('',#1037,3.999999999999886);
#1039=LINE('',#1036,#1038);
#1040=EDGE_CURVE('',#1033,#1035,#1039,.T.);
#1041=ORIENTED_EDGE('',*,*,#1040,.T.);
#1042=CARTESIAN_POINT('',(0.700000000000010,-0.280000000000189,5.010000000000046));
#1043=VERTEX_POINT('',#1042);
#1044=CARTESIAN_POINT('',(0.700000000000010,-0.280000000000189,5.010000000000046));
#1045=DIRECTION('',(0.0,1.0,0.0));
#1046=VECTOR('',#1045,0.560000000000000);
#1047=LINE('',#1044,#1046);
#1048=EDGE_CURVE('',#1043,#1035,#1047,.T.);
#1049=ORIENTED_EDGE('',*,*,#1048,.F.);
#1050=CARTESIAN_POINT('',(0.699999999999998,-0.280000000000190,1.010000000000158));
#1051=VERTEX_POINT('',#1050);
#1052=CARTESIAN_POINT('',(0.699999999999998,-0.280000000000190,1.010000000000158));
#1053=DIRECTION('',(0.0,0.0,1.0));
#1054=VECTOR('',#1053,3.999999999999888);
#1055=LINE('',#1052,#1054);
#1056=EDGE_CURVE('',#1051,#1043,#1055,.T.);
#1057=ORIENTED_EDGE('',*,*,#1056,.F.);
#1058=CARTESIAN_POINT('',(0.699999999999998,-0.280000000000190,1.010000000000158));
#1059=DIRECTION('',(0.0,1.0,0.0));
#1060=VECTOR('',#1059,0.560000000000000);
#1061=LINE('',#1058,#1060);
#1062=EDGE_CURVE('',#1051,#1033,#1061,.T.);
#1063=ORIENTED_EDGE('',*,*,#1062,.T.);
#1064=EDGE_LOOP('',(#1041,#1049,#1057,#1063));
#1065=FACE_OUTER_BOUND('',#1064,.T.);
#1066=ADVANCED_FACE('',(#1065),#1031,.T.);
#1067=CARTESIAN_POINT('',(0.700000000000010,-0.280000000000189,5.010000000000046));
#1068=DIRECTION('',(0.0,0.0,1.0));
#1069=DIRECTION('',(0.0,-1.0,0.0));
#1070=AXIS2_PLACEMENT_3D('',#1067,#1068,#1069);
#1071=PLANE('',#1070);
#1072=CARTESIAN_POINT('',(-0.699999999999996,0.279999999999811,5.010000000000046));
#1073=VERTEX_POINT('',#1072);
#1074=CARTESIAN_POINT('',(0.700000000000010,0.279999999999811,5.010000000000044));
#1075=DIRECTION('',(-1.0,0.0,0.0));
#1076=VECTOR('',#1075,1.400000000000006);
#1077=LINE('',#1074,#1076);
#1078=EDGE_CURVE('',#1035,#1073,#1077,.T.);
#1079=ORIENTED_EDGE('',*,*,#1078,.T.);
#1080=CARTESIAN_POINT('',(-0.699999999999996,-0.280000000000189,5.010000000000046));
#1081=VERTEX_POINT('',#1080);
#1082=CARTESIAN_POINT('',(-0.699999999999996,-0.280000000000189,5.010000000000046));
#1083=DIRECTION('',(0.0,1.0,0.0));
#1084=VECTOR('',#1083,0.560000000000000);
#1085=LINE('',#1082,#1084);
#1086=EDGE_CURVE('',#1081,#1073,#1085,.T.);
#1087=ORIENTED_EDGE('',*,*,#1086,.F.);
#1088=CARTESIAN_POINT('',(0.700000000000010,-0.280000000000189,5.010000000000046));
#1089=DIRECTION('',(-1.0,0.0,0.0));
#1090=VECTOR('',#1089,1.400000000000006);
#1091=LINE('',#1088,#1090);
#1092=EDGE_CURVE('',#1043,#1081,#1091,.T.);
#1093=ORIENTED_EDGE('',*,*,#1092,.F.);
#1094=ORIENTED_EDGE('',*,*,#1048,.T.);
#1095=EDGE_LOOP('',(#1079,#1087,#1093,#1094));
#1096=FACE_OUTER_BOUND('',#1095,.T.);
#1097=ADVANCED_FACE('',(#1096),#1071,.T.);
#1098=CARTESIAN_POINT('',(-0.699999999999996,-0.280000000000189,5.010000000000046));
#1099=DIRECTION('',(-1.0,0.0,0.0));
#1100=DIRECTION('',(0.0,1.0,0.0));
#1101=AXIS2_PLACEMENT_3D('',#1098,#1099,#1100);
#1102=PLANE('',#1101);
#1103=CARTESIAN_POINT('',(-0.699999999999994,0.279999999999810,1.010000000000101));
#1104=VERTEX_POINT('',#1103);
#1105=CARTESIAN_POINT('',(-0.699999999999996,0.279999999999811,5.010000000000046));
#1106=DIRECTION('',(0.0,0.0,-1.0));
#1107=VECTOR('',#1106,3.999999999999945);
#1108=LINE('',#1105,#1107);
#1109=EDGE_CURVE('',#1073,#1104,#1108,.T.);
#1110=ORIENTED_EDGE('',*,*,#1109,.T.);
#1111=CARTESIAN_POINT('',(-0.699999999999994,-0.280000000000189,1.010000000000101));
#1112=VERTEX_POINT('',#1111);
#1113=CARTESIAN_POINT('',(-0.699999999999994,-0.280000000000189,1.010000000000101));
#1114=DIRECTION('',(0.0,1.0,0.0));
#1115=VECTOR('',#1114,0.560000000000000);
#1116=LINE('',#1113,#1115);
#1117=EDGE_CURVE('',#1112,#1104,#1116,.T.);
#1118=ORIENTED_EDGE('',*,*,#1117,.F.);
#1119=CARTESIAN_POINT('',(-0.699999999999996,-0.280000000000189,5.010000000000046));
#1120=DIRECTION('',(0.0,0.0,-1.0));
#1121=VECTOR('',#1120,3.999999999999945);
#1122=LINE('',#1119,#1121);
#1123=EDGE_CURVE('',#1081,#1112,#1122,.T.);
#1124=ORIENTED_EDGE('',*,*,#1123,.F.);
#1125=ORIENTED_EDGE('',*,*,#1086,.T.);
#1126=EDGE_LOOP('',(#1110,#1118,#1124,#1125));
#1127=FACE_OUTER_BOUND('',#1126,.T.);
#1128=ADVANCED_FACE('',(#1127),#1102,.T.);
#1129=CARTESIAN_POINT('',(-0.699999999999994,-0.280000000000189,1.010000000000101));
#1130=DIRECTION('',(0.0,0.0,-1.0));
#1131=DIRECTION('',(0.0,1.0,0.0));
#1132=AXIS2_PLACEMENT_3D('',#1129,#1130,#1131);
#1133=PLANE('',#1132);
#1134=CARTESIAN_POINT('',(-0.699999999999994,0.279999999999810,1.010000000000101));
#1135=DIRECTION('',(1.0,0.0,0.0));
#1136=VECTOR('',#1135,1.399999999999992);
#1137=LINE('',#1134,#1136);
#1138=EDGE_CURVE('',#1104,#1033,#1137,.T.);
#1139=ORIENTED_EDGE('',*,*,#1138,.T.);
#1140=ORIENTED_EDGE('',*,*,#1062,.F.);
#1141=CARTESIAN_POINT('',(-0.699999999999994,-0.280000000000189,1.010000000000101));
#1142=DIRECTION('',(1.0,0.0,0.0));
#1143=VECTOR('',#1142,1.399999999999992);
#1144=LINE('',#1141,#1143);
#1145=EDGE_CURVE('',#1112,#1051,#1144,.T.);
#1146=ORIENTED_EDGE('',*,*,#1145,.F.);
#1147=ORIENTED_EDGE('',*,*,#1117,.T.);
#1148=EDGE_LOOP('',(#1139,#1140,#1146,#1147));
#1149=FACE_OUTER_BOUND('',#1148,.T.);
#1150=ADVANCED_FACE('',(#1149),#1133,.T.);
#1151=CARTESIAN_POINT('',(8.059697E-015,0.279999999999810,3.010000000000103));
#1152=DIRECTION('',(0.0,-1.0,0.0));
#1153=DIRECTION('',(0.0,0.0,-1.0));
#1154=AXIS2_PLACEMENT_3D('',#1151,#1152,#1153);
#1155=PLANE('',#1154);
#1156=ORIENTED_EDGE('',*,*,#1040,.F.);
#1157=ORIENTED_EDGE('',*,*,#1138,.F.);
#1158=ORIENTED_EDGE('',*,*,#1109,.F.);
#1159=ORIENTED_EDGE('',*,*,#1078,.F.);
#1160=EDGE_LOOP('',(#1156,#1157,#1158,#1159));
#1161=FACE_OUTER_BOUND('',#1160,.T.);
#1162=ADVANCED_FACE('',(#1161),#1155,.F.);
#1163=CARTESIAN_POINT('',(8.072508E-015,-0.280000000000189,3.010000000000103));
#1164=DIRECTION('',(0.0,-1.0,0.0));
#1165=DIRECTION('',(0.0,0.0,-1.0));
#1166=AXIS2_PLACEMENT_3D('',#1163,#1164,#1165);
#1167=PLANE('',#1166);
#1168=ORIENTED_EDGE('',*,*,#1145,.T.);
#1169=ORIENTED_EDGE('',*,*,#1056,.T.);
#1170=ORIENTED_EDGE('',*,*,#1092,.T.);
#1171=ORIENTED_EDGE('',*,*,#1123,.T.);
#1172=EDGE_LOOP('',(#1168,#1169,#1170,#1171));
#1173=FACE_OUTER_BOUND('',#1172,.T.);
#1174=ADVANCED_FACE('',(#1173),#1167,.T.);
#1175=CLOSED_SHELL('',(#1066,#1097,#1128,#1150,#1162,#1174));
#1176=MANIFOLD_SOLID_BREP('D0',#1175);
#1177=STYLED_ITEM('NONE',(#287),#1176);
#1178=CARTESIAN_POINT('',(1.468514E-014,1.629999999999801,17.959999999999976));
#1179=DIRECTION('',(-2.287667E-017,1.0,-1.608143E-016));
#1180=DIRECTION('',(0.0,0.0,-1.0));
#1181=AXIS2_PLACEMENT_3D('',#1178,#1179,#1180);
#1182=CYLINDRICAL_SURFACE('',#1181,1.945000000000000);
#1183=CARTESIAN_POINT('',(1.563779E-014,2.949999999999801,16.014999999999983));
#1184=VERTEX_POINT('',#1183);
#1185=CARTESIAN_POINT('',(1.566799E-014,1.629999999999801,16.014999999999983));
#1186=VERTEX_POINT('',#1185);
#1187=CARTESIAN_POINT('',(1.563779E-014,2.949999999999801,16.014999999999983));
#1188=DIRECTION('',(0.0,-1.0,0.0));
#1189=VECTOR('',#1188,1.320000000000000);
#1190=LINE('',#1187,#1189);
#1191=EDGE_CURVE('',#1184,#1186,#1190,.T.);
#1192=ORIENTED_EDGE('',*,*,#1191,.F.);
#1193=CARTESIAN_POINT('',(1.343391E-014,2.949999999999802,19.904999999999976));
#1194=VERTEX_POINT('',#1193);
#1195=CARTESIAN_POINT('',(1.465494E-014,2.949999999999801,17.959999999999976));
#1196=DIRECTION('',(0.0,-1.0,0.0));
#1197=DIRECTION('',(0.0,0.0,-1.0));
#1198=AXIS2_PLACEMENT_3D('',#1195,#1196,#1197);
#1199=CIRCLE('',#1198,1.945000000000000);
#1200=EDGE_CURVE('',#1194,#1184,#1199,.T.);
#1201=ORIENTED_EDGE('',*,*,#1200,.F.);
#1202=CARTESIAN_POINT('',(1.346411E-014,1.629999999999801,19.904999999999976));
#1203=VERTEX_POINT('',#1202);
#1204=CARTESIAN_POINT('',(1.346411E-014,1.629999999999801,19.904999999999976));
#1205=DIRECTION('',(0.0,1.0,0.0));
#1206=VECTOR('',#1205,1.320000000000001);
#1207=LINE('',#1204,#1206);
#1208=EDGE_CURVE('',#1203,#1194,#1207,.T.);
#1209=ORIENTED_EDGE('',*,*,#1208,.F.);
#1210=CARTESIAN_POINT('',(1.468514E-014,1.629999999999801,17.959999999999976));
#1211=DIRECTION('',(0.0,1.0,0.0));
#1212=DIRECTION('',(0.0,0.0,-1.0));
#1213=AXIS2_PLACEMENT_3D('',#1210,#1211,#1212);
#1214=CIRCLE('',#1213,1.945000000000000);
#1215=EDGE_CURVE('',#1186,#1203,#1214,.T.);
#1216=ORIENTED_EDGE('',*,*,#1215,.F.);
#1217=EDGE_LOOP('',(#1192,#1201,#1209,#1216));
#1218=FACE_OUTER_BOUND('',#1217,.T.);
#1219=ADVANCED_FACE('',(#1218),#1182,.F.);
#1220=CARTESIAN_POINT('',(1.468514E-014,1.629999999999801,17.959999999999976));
#1221=DIRECTION('',(-2.287667E-017,1.0,-1.608143E-016));
#1222=DIRECTION('',(0.0,0.0,-1.0));
#1223=AXIS2_PLACEMENT_3D('',#1220,#1221,#1222);
#1224=CYLINDRICAL_SURFACE('',#1223,1.945000000000000);
#1225=ORIENTED_EDGE('',*,*,#1191,.T.);
#1226=CARTESIAN_POINT('',(1.468514E-014,1.629999999999801,17.959999999999976));
#1227=DIRECTION('',(0.0,1.0,0.0));
#1228=DIRECTION('',(0.0,0.0,-1.0));
#1229=AXIS2_PLACEMENT_3D('',#1226,#1227,#1228);
#1230=CIRCLE('',#1229,1.945000000000000);
#1231=EDGE_CURVE('',#1203,#1186,#1230,.T.);
#1232=ORIENTED_EDGE('',*,*,#1231,.F.);
#1233=ORIENTED_EDGE('',*,*,#1208,.T.);
#1234=CARTESIAN_POINT('',(1.465494E-014,2.949999999999801,17.959999999999976));
#1235=DIRECTION('',(0.0,-1.0,0.0));
#1236=DIRECTION('',(0.0,0.0,-1.0));
#1237=AXIS2_PLACEMENT_3D('',#1234,#1235,#1236);
#1238=CIRCLE('',#1237,1.945000000000000);
#1239=EDGE_CURVE('',#1184,#1194,#1238,.T.);
#1240=ORIENTED_EDGE('',*,*,#1239,.F.);
#1241=EDGE_LOOP('',(#1225,#1232,#1233,#1240));
#1242=FACE_OUTER_BOUND('',#1241,.T.);
#1243=ADVANCED_FACE('',(#1242),#1224,.F.);
#1244=CARTESIAN_POINT('',(5.269999999999998,2.949999999999800,13.899999999999919));
#1245=DIRECTION('',(0.0,0.0,-1.0));
#1246=DIRECTION('',(0.0,1.0,0.0));
#1247=AXIS2_PLACEMENT_3D('',#1244,#1245,#1246);
#1248=PLANE('',#1247);
#1249=CARTESIAN_POINT('',(4.450000000000005,2.949999999999798,13.899999999999919));
#1250=VERTEX_POINT('',#1249);
#1251=CARTESIAN_POINT('',(4.450000000000005,2.849999999999798,13.899999999999919));
#1252=VERTEX_POINT('',#1251);
#1253=CARTESIAN_POINT('',(4.450000000000005,2.949999999999798,13.899999999999919));
#1254=DIRECTION('',(0.0,-1.0,0.0));
#1255=VECTOR('',#1254,0.100000000000000);
#1256=LINE('',#1253,#1255);
#1257=EDGE_CURVE('',#1250,#1252,#1256,.T.);
#1258=ORIENTED_EDGE('',*,*,#1257,.F.);
#1259=CARTESIAN_POINT('',(5.269999999999998,2.949999999999800,13.899999999999919));
#1260=VERTEX_POINT('',#1259);
#1261=CARTESIAN_POINT('',(5.269999999999998,2.949999999999800,13.899999999999919));
#1262=DIRECTION('',(-1.0,0.0,0.0));
#1263=VECTOR('',#1262,0.819999999999993);
#1264=LINE('',#1261,#1263);
#1265=EDGE_CURVE('',#1260,#1250,#1264,.T.);
#1266=ORIENTED_EDGE('',*,*,#1265,.F.);
#1267=CARTESIAN_POINT('',(5.269999999999998,1.629999999999800,13.899999999999920));
#1268=VERTEX_POINT('',#1267);
#1269=CARTESIAN_POINT('',(5.269999999999998,2.949999999999800,13.899999999999919));
#1270=DIRECTION('',(0.0,-1.0,0.0));
#1271=VECTOR('',#1270,1.320000000000000);
#1272=LINE('',#1269,#1271);
#1273=EDGE_CURVE('',#1260,#1268,#1272,.T.);
#1274=ORIENTED_EDGE('',*,*,#1273,.T.);
#1275=CARTESIAN_POINT('',(-5.269999999999994,1.629999999999801,13.899999999999915));
#1276=VERTEX_POINT('',#1275);
#1277=CARTESIAN_POINT('',(5.269999999999998,1.629999999999800,13.899999999999920));
#1278=DIRECTION('',(-1.0,0.0,0.0));
#1279=VECTOR('',#1278,10.539999999999992);
#1280=LINE('',#1277,#1279);
#1281=EDGE_CURVE('',#1268,#1276,#1280,.T.);
#1282=ORIENTED_EDGE('',*,*,#1281,.T.);
#1283=CARTESIAN_POINT('',(-5.269999999999994,2.949999999999800,13.899999999999915));
#1284=VERTEX_POINT('',#1283);
#1285=CARTESIAN_POINT('',(-5.269999999999994,2.949999999999800,13.899999999999915));
#1286=DIRECTION('',(0.0,-1.0,0.0));
#1287=VECTOR('',#1286,1.320000000000000);
#1288=LINE('',#1285,#1287);
#1289=EDGE_CURVE('',#1284,#1276,#1288,.T.);
#1290=ORIENTED_EDGE('',*,*,#1289,.F.);
#1291=CARTESIAN_POINT('',(-4.450000000000001,2.949999999999798,13.899999999999915));
#1292=VERTEX_POINT('',#1291);
#1293=CARTESIAN_POINT('',(-4.450000000000001,2.949999999999798,13.899999999999915));
#1294=DIRECTION('',(-1.0,0.0,0.0));
#1295=VECTOR('',#1294,0.819999999999993);
#1296=LINE('',#1293,#1295);
#1297=EDGE_CURVE('',#1292,#1284,#1296,.T.);
#1298=ORIENTED_EDGE('',*,*,#1297,.F.);
#1299=CARTESIAN_POINT('',(-4.450000000000001,2.849999999999798,13.899999999999915));
#1300=VERTEX_POINT('',#1299);
#1301=CARTESIAN_POINT('',(-4.450000000000001,2.949999999999798,13.899999999999915));
#1302=DIRECTION('',(0.0,-1.0,0.0));
#1303=VECTOR('',#1302,0.100000000000000);
#1304=LINE('',#1301,#1303);
#1305=EDGE_CURVE('',#1292,#1300,#1304,.T.);
#1306=ORIENTED_EDGE('',*,*,#1305,.T.);
#1307=CARTESIAN_POINT('',(-4.450000000000001,2.849999999999798,13.899999999999915));
#1308=DIRECTION('',(1.0,0.0,0.0));
#1309=VECTOR('',#1308,8.900000000000006);
#1310=LINE('',#1307,#1309);
#1311=EDGE_CURVE('',#1300,#1252,#1310,.T.);
#1312=ORIENTED_EDGE('',*,*,#1311,.T.);
#1313=EDGE_LOOP('',(#1258,#1266,#1274,#1282,#1290,#1298,#1306,#1312));
#1314=FACE_OUTER_BOUND('',#1313,.T.);
#1315=ADVANCED_FACE('',(#1314),#1248,.T.);
#1316=CARTESIAN_POINT('',(-5.269999999999994,2.949999999999800,13.899999999999915));
#1317=DIRECTION('',(-1.0,0.0,0.0));
#1318=DIRECTION('',(0.0,1.0,0.0));
#1319=AXIS2_PLACEMENT_3D('',#1316,#1317,#1318);
#1320=PLANE('',#1319);
#1321=CARTESIAN_POINT('',(-5.269999999999996,1.629999999999801,20.499999999999993));
#1322=VERTEX_POINT('',#1321);
#1323=CARTESIAN_POINT('',(-5.269999999999994,1.629999999999801,13.899999999999915));
#1324=DIRECTION('',(0.0,0.0,1.0));
#1325=VECTOR('',#1324,6.600000000000078);
#1326=LINE('',#1323,#1325);
#1327=EDGE_CURVE('',#1276,#1322,#1326,.T.);
#1328=ORIENTED_EDGE('',*,*,#1327,.T.);
#1329=CARTESIAN_POINT('',(-5.269999999999998,2.949999999999801,20.499999999999993));
#1330=VERTEX_POINT('',#1329);
#1331=CARTESIAN_POINT('',(-5.269999999999998,2.949999999999801,20.499999999999993));
#1332=DIRECTION('',(0.0,-1.0,0.0));
#1333=VECTOR('',#1332,1.320000000000000);
#1334=LINE('',#1331,#1333);
#1335=EDGE_CURVE('',#1330,#1322,#1334,.T.);
#1336=ORIENTED_EDGE('',*,*,#1335,.F.);
#1337=CARTESIAN_POINT('',(-5.269999999999994,2.949999999999800,13.899999999999915));
#1338=DIRECTION('',(0.0,0.0,1.0));
#1339=VECTOR('',#1338,6.600000000000078);
#1340=LINE('',#1337,#1339);
#1341=EDGE_CURVE('',#1284,#1330,#1340,.T.);
#1342=ORIENTED_EDGE('',*,*,#1341,.F.);
#1343=ORIENTED_EDGE('',*,*,#1289,.T.);
#1344=EDGE_LOOP('',(#1328,#1336,#1342,#1343));
#1345=FACE_OUTER_BOUND('',#1344,.T.);
#1346=ADVANCED_FACE('',(#1345),#1320,.T.);
#1347=CARTESIAN_POINT('',(-5.269999999999998,2.949999999999801,20.499999999999993));
#1348=DIRECTION('',(0.0,0.0,1.0));
#1349=DIRECTION('',(0.0,-1.0,0.0));
#1350=AXIS2_PLACEMENT_3D('',#1347,#1348,#1349);
#1351=PLANE('',#1350);
#1352=CARTESIAN_POINT('',(5.269999999999996,1.629999999999801,20.500000000000000));
#1353=VERTEX_POINT('',#1352);
#1354=CARTESIAN_POINT('',(-5.269999999999996,1.629999999999801,20.499999999999993));
#1355=DIRECTION('',(1.0,0.0,0.0));
#1356=VECTOR('',#1355,10.539999999999992);
#1357=LINE('',#1354,#1356);
#1358=EDGE_CURVE('',#1322,#1353,#1357,.T.);
#1359=ORIENTED_EDGE('',*,*,#1358,.T.);
#1360=CARTESIAN_POINT('',(5.269999999999994,2.949999999999802,20.500000000000000));
#1361=VERTEX_POINT('',#1360);
#1362=CARTESIAN_POINT('',(5.269999999999994,2.949999999999802,20.500000000000000));
#1363=DIRECTION('',(0.0,-1.0,0.0));
#1364=VECTOR('',#1363,1.320000000000001);
#1365=LINE('',#1362,#1364);
#1366=EDGE_CURVE('',#1361,#1353,#1365,.T.);
#1367=ORIENTED_EDGE('',*,*,#1366,.F.);
#1368=CARTESIAN_POINT('',(-5.269999999999998,2.949999999999801,20.499999999999993));
#1369=DIRECTION('',(1.0,0.0,0.0));
#1370=VECTOR('',#1369,10.539999999999992);
#1371=LINE('',#1368,#1370);
#1372=EDGE_CURVE('',#1330,#1361,#1371,.T.);
#1373=ORIENTED_EDGE('',*,*,#1372,.F.);
#1374=ORIENTED_EDGE('',*,*,#1335,.T.);
#1375=EDGE_LOOP('',(#1359,#1367,#1373,#1374));
#1376=FACE_OUTER_BOUND('',#1375,.T.);
#1377=ADVANCED_FACE('',(#1376),#1351,.T.);
#1378=CARTESIAN_POINT('',(5.269999999999994,2.949999999999802,20.500000000000000));
#1379=DIRECTION('',(1.0,0.0,0.0));
#1380=DIRECTION('',(0.0,-1.0,0.0));
#1381=AXIS2_PLACEMENT_3D('',#1378,#1379,#1380);
#1382=PLANE('',#1381);
#1383=CARTESIAN_POINT('',(5.269999999999996,1.629999999999801,20.500000000000000));
#1384=DIRECTION('',(0.0,0.0,-1.0));
#1385=VECTOR('',#1384,6.600000000000080);
#1386=LINE('',#1383,#1385);
#1387=EDGE_CURVE('',#1353,#1268,#1386,.T.);
#1388=ORIENTED_EDGE('',*,*,#1387,.T.);
#1389=ORIENTED_EDGE('',*,*,#1273,.F.);
#1390=CARTESIAN_POINT('',(5.269999999999994,2.949999999999802,20.500000000000000));
#1391=DIRECTION('',(0.0,0.0,-1.0));
#1392=VECTOR('',#1391,6.600000000000081);
#1393=LINE('',#1390,#1392);
#1394=EDGE_CURVE('',#1361,#1260,#1393,.T.);
#1395=ORIENTED_EDGE('',*,*,#1394,.F.);
#1396=ORIENTED_EDGE('',*,*,#1366,.T.);
#1397=EDGE_LOOP('',(#1388,#1389,#1395,#1396));
#1398=FACE_OUTER_BOUND('',#1397,.T.);
#1399=ADVANCED_FACE('',(#1398),#1382,.T.);
#1400=CARTESIAN_POINT('',(1.506918E-014,1.629999999999801,17.199999999999985));
#1401=DIRECTION('',(0.0,-1.0,0.0));
#1402=DIRECTION('',(0.0,0.0,-1.0));
#1403=AXIS2_PLACEMENT_3D('',#1400,#1401,#1402);
#1404=PLANE('',#1403);
#1405=ORIENTED_EDGE('',*,*,#1281,.F.);
#1406=ORIENTED_EDGE('',*,*,#1387,.F.);
#1407=ORIENTED_EDGE('',*,*,#1358,.F.);
#1408=ORIENTED_EDGE('',*,*,#1327,.F.);
#1409=EDGE_LOOP('',(#1405,#1406,#1407,#1408));
#1410=FACE_OUTER_BOUND('',#1409,.T.);
#1411=ORIENTED_EDGE('',*,*,#1215,.T.);
#1412=ORIENTED_EDGE('',*,*,#1231,.T.);
#1413=EDGE_LOOP('',(#1411,#1412));
#1414=FACE_BOUND('',#1413,.T.);
#1415=ADVANCED_FACE('',(#1410,#1414),#1404,.T.);
#1416=CARTESIAN_POINT('',(4.450000000000005,2.949999999999798,13.899999999999919));
#1417=DIRECTION('',(1.0,0.0,0.0));
#1418=DIRECTION('',(0.0,-1.0,0.0));
#1419=AXIS2_PLACEMENT_3D('',#1416,#1417,#1418);
#1420=PLANE('',#1419);
#1421=CARTESIAN_POINT('',(4.449999999999994,2.849999999999797,7.600000000000078));
#1422=VERTEX_POINT('',#1421);
#1423=CARTESIAN_POINT('',(4.450000000000005,2.849999999999798,13.899999999999919));
#1424=DIRECTION('',(0.0,0.0,-1.0));
#1425=VECTOR('',#1424,6.299999999999841);
#1426=LINE('',#1423,#1425);
#1427=EDGE_CURVE('',#1252,#1422,#1426,.T.);
#1428=ORIENTED_EDGE('',*,*,#1427,.T.);
#1429=CARTESIAN_POINT('',(4.449999999999994,2.949999999999797,7.600000000000078));
#1430=VERTEX_POINT('',#1429);
#1431=CARTESIAN_POINT('',(4.449999999999994,2.949999999999797,7.600000000000078));
#1432=DIRECTION('',(0.0,-1.0,0.0));
#1433=VECTOR('',#1432,0.100000000000000);
#1434=LINE('',#1431,#1433);
#1435=EDGE_CURVE('',#1430,#1422,#1434,.T.);
#1436=ORIENTED_EDGE('',*,*,#1435,.F.);
#1437=CARTESIAN_POINT('',(4.449999999999994,2.949999999999797,7.600000000000078));
#1438=DIRECTION('',(0.0,0.0,1.0));
#1439=VECTOR('',#1438,6.299999999999841);
#1440=LINE('',#1437,#1439);
#1441=EDGE_CURVE('',#1430,#1250,#1440,.T.);
#1442=ORIENTED_EDGE('',*,*,#1441,.T.);
#1443=ORIENTED_EDGE('',*,*,#1257,.T.);
#1444=EDGE_LOOP('',(#1428,#1436,#1442,#1443));
#1445=FACE_OUTER_BOUND('',#1444,.T.);
#1446=ADVANCED_FACE('',(#1445),#1420,.T.);
#1447=CARTESIAN_POINT('',(4.449999999999994,2.949999999999797,7.600000000000078));
#1448=DIRECTION('',(0.0,0.0,-1.0));
#1449=DIRECTION('',(0.0,1.0,0.0));
#1450=AXIS2_PLACEMENT_3D('',#1447,#1448,#1449);
#1451=PLANE('',#1450);
#1452=CARTESIAN_POINT('',(-4.449999999999998,2.849999999999797,7.600000000000074));
#1453=VERTEX_POINT('',#1452);
#1454=CARTESIAN_POINT('',(4.449999999999994,2.849999999999797,7.600000000000078));
#1455=DIRECTION('',(-1.0,0.0,0.0));
#1456=VECTOR('',#1455,8.899999999999992);
#1457=LINE('',#1454,#1456);
#1458=EDGE_CURVE('',#1422,#1453,#1457,.T.);
#1459=ORIENTED_EDGE('',*,*,#1458,.T.);
#1460=CARTESIAN_POINT('',(-4.449999999999998,2.949999999999797,7.600000000000074));
#1461=VERTEX_POINT('',#1460);
#1462=CARTESIAN_POINT('',(-4.449999999999998,2.949999999999797,7.600000000000074));
#1463=DIRECTION('',(0.0,-1.0,0.0));
#1464=VECTOR('',#1463,0.100000000000000);
#1465=LINE('',#1462,#1464);
#1466=EDGE_CURVE('',#1461,#1453,#1465,.T.);
#1467=ORIENTED_EDGE('',*,*,#1466,.F.);
#1468=CARTESIAN_POINT('',(-4.449999999999998,2.949999999999797,7.600000000000074));
#1469=DIRECTION('',(1.0,0.0,0.0));
#1470=VECTOR('',#1469,8.899999999999992);
#1471=LINE('',#1468,#1470);
#1472=EDGE_CURVE('',#1461,#1430,#1471,.T.);
#1473=ORIENTED_EDGE('',*,*,#1472,.T.);
#1474=ORIENTED_EDGE('',*,*,#1435,.T.);
#1475=EDGE_LOOP('',(#1459,#1467,#1473,#1474));
#1476=FACE_OUTER_BOUND('',#1475,.T.);
#1477=ADVANCED_FACE('',(#1476),#1451,.T.);
#1478=CARTESIAN_POINT('',(-4.449999999999998,2.949999999999797,7.600000000000074));
#1479=DIRECTION('',(-1.0,0.0,0.0));
#1480=DIRECTION('',(0.0,1.0,0.0));
#1481=AXIS2_PLACEMENT_3D('',#1478,#1479,#1480);
#1482=PLANE('',#1481);
#1483=CARTESIAN_POINT('',(-4.449999999999998,2.849999999999797,7.600000000000074));
#1484=DIRECTION('',(0.0,0.0,1.0));
#1485=VECTOR('',#1484,6.299999999999841);
#1486=LINE('',#1483,#1485);
#1487=EDGE_CURVE('',#1453,#1300,#1486,.T.);
#1488=ORIENTED_EDGE('',*,*,#1487,.T.);
#1489=ORIENTED_EDGE('',*,*,#1305,.F.);
#1490=CARTESIAN_POINT('',(-4.450000000000001,2.949999999999798,13.899999999999915));
#1491=DIRECTION('',(0.0,0.0,-1.0));
#1492=VECTOR('',#1491,6.299999999999841);
#1493=LINE('',#1490,#1492);
#1494=EDGE_CURVE('',#1292,#1461,#1493,.T.);
#1495=ORIENTED_EDGE('',*,*,#1494,.T.);
#1496=ORIENTED_EDGE('',*,*,#1466,.T.);
#1497=EDGE_LOOP('',(#1488,#1489,#1495,#1496));
#1498=FACE_OUTER_BOUND('',#1497,.T.);
#1499=ADVANCED_FACE('',(#1498),#1482,.T.);
#1500=CARTESIAN_POINT('',(-1.012112E-014,2.849999999999797,10.749999999999996));
#1501=DIRECTION('',(0.0,-1.0,0.0));
#1502=DIRECTION('',(0.0,0.0,-1.0));
#1503=AXIS2_PLACEMENT_3D('',#1500,#1501,#1502);
#1504=PLANE('',#1503);
#1505=ORIENTED_EDGE('',*,*,#1427,.F.);
#1506=ORIENTED_EDGE('',*,*,#1311,.F.);
#1507=ORIENTED_EDGE('',*,*,#1487,.F.);
#1508=ORIENTED_EDGE('',*,*,#1458,.F.);
#1509=EDGE_LOOP('',(#1505,#1506,#1507,#1508));
#1510=FACE_OUTER_BOUND('',#1509,.T.);
#1511=ADVANCED_FACE('',(#1510),#1504,.T.);
#1512=CARTESIAN_POINT('',(-1.012341E-014,2.949999999999797,10.749999999999996));
#1513=DIRECTION('',(0.0,-1.0,0.0));
#1514=DIRECTION('',(0.0,0.0,-1.0));
#1515=AXIS2_PLACEMENT_3D('',#1512,#1513,#1514);
#1516=PLANE('',#1515);
#1517=ORIENTED_EDGE('',*,*,#1441,.F.);
#1518=ORIENTED_EDGE('',*,*,#1472,.F.);
#1519=ORIENTED_EDGE('',*,*,#1494,.F.);
#1520=ORIENTED_EDGE('',*,*,#1297,.T.);
#1521=ORIENTED_EDGE('',*,*,#1341,.T.);
#1522=ORIENTED_EDGE('',*,*,#1372,.T.);
#1523=ORIENTED_EDGE('',*,*,#1394,.T.);
#1524=ORIENTED_EDGE('',*,*,#1265,.T.);
#1525=EDGE_LOOP('',(#1517,#1518,#1519,#1520,#1521,#1522,#1523,#1524));
#1526=FACE_OUTER_BOUND('',#1525,.T.);
#1527=ORIENTED_EDGE('',*,*,#1239,.T.);
#1528=ORIENTED_EDGE('',*,*,#1200,.T.);
#1529=EDGE_LOOP('',(#1527,#1528));
#1530=FACE_BOUND('',#1529,.T.);
#1531=ADVANCED_FACE('',(#1526,#1530),#1516,.F.);
#1532=CLOSED_SHELL('',(#1219,#1243,#1315,#1346,#1377,#1399,#1415,#1446,#1477,#1499,#1511,#1531));
#1533=MANIFOLD_SOLID_BREP('C1',#1532);
#1534=STYLED_ITEM('NONE',(#287),#1533);
#1535=CARTESIAN_POINT('',(-3.269999999999989,-1.750000000000012,7.190493304527246));
#1536=DIRECTION('',(-2.287667E-017,1.0,-1.608143E-016));
#1537=DIRECTION('',(0.0,0.0,-1.0));
#1538=AXIS2_PLACEMENT_3D('',#1535,#1536,#1537);
#1539=CYLINDRICAL_SURFACE('',#1538,0.800000000000000);
#1540=CARTESIAN_POINT('',(-3.269999999999989,-1.650000000000013,6.390493304527235));
#1541=VERTEX_POINT('',#1540);
#1542=CARTESIAN_POINT('',(-3.269999999999989,-1.750000000000012,6.390493304527235));
#1543=VERTEX_POINT('',#1542);
#1544=CARTESIAN_POINT('',(-3.269999999999989,-1.650000000000013,6.390493304527235));
#1545=DIRECTION('',(0.0,-1.0,0.0));
#1546=VECTOR('',#1545,0.100000000000000);
#1547=LINE('',#1544,#1546);
#1548=EDGE_CURVE('',#1541,#1543,#1547,.T.);
#1549=ORIENTED_EDGE('',*,*,#1548,.F.);
#1550=CARTESIAN_POINT('',(-3.269999999999990,-1.650000000000012,7.990493304527246));
#1551=VERTEX_POINT('',#1550);
#1552=CARTESIAN_POINT('',(-3.269999999999989,-1.650000000000012,7.190493304527246));
#1553=DIRECTION('',(0.0,-1.0,0.0));
#1554=DIRECTION('',(0.0,0.0,-1.0));
#1555=AXIS2_PLACEMENT_3D('',#1552,#1553,#1554);
#1556=CIRCLE('',#1555,0.800000000000000);
#1557=EDGE_CURVE('',#1551,#1541,#1556,.T.);
#1558=ORIENTED_EDGE('',*,*,#1557,.F.);
#1559=CARTESIAN_POINT('',(-3.269999999999990,-1.750000000000215,7.990493304527246));
#1560=VERTEX_POINT('',#1559);
#1561=CARTESIAN_POINT('',(-3.269999999999990,-1.750000000000215,7.990493304527246));
#1562=DIRECTION('',(0.0,1.0,0.0));
#1563=VECTOR('',#1562,0.100000000000204);
#1564=LINE('',#1561,#1563);
#1565=EDGE_CURVE('',#1560,#1551,#1564,.T.);
#1566=ORIENTED_EDGE('',*,*,#1565,.F.);
#1567=CARTESIAN_POINT('',(-3.269999999999989,-1.750000000000219,7.190493304527246));
#1568=DIRECTION('',(0.0,1.0,0.0));
#1569=DIRECTION('',(0.0,0.0,-1.0));
#1570=AXIS2_PLACEMENT_3D('',#1567,#1568,#1569);
#1571=CIRCLE('',#1570,0.800000000000000);
#1572=EDGE_CURVE('',#1543,#1560,#1571,.T.);
#1573=ORIENTED_EDGE('',*,*,#1572,.F.);
#1574=EDGE_LOOP('',(#1549,#1558,#1566,#1573));
#1575=FACE_OUTER_BOUND('',#1574,.T.);
#1576=ADVANCED_FACE('',(#1575),#1539,.F.);
#1577=CARTESIAN_POINT('',(-3.269999999999989,-1.750000000000012,7.190493304527246));
#1578=DIRECTION('',(-2.287667E-017,1.0,-1.608143E-016));
#1579=DIRECTION('',(0.0,0.0,-1.0));
#1580=AXIS2_PLACEMENT_3D('',#1577,#1578,#1579);
#1581=CYLINDRICAL_SURFACE('',#1580,0.800000000000000);
#1582=ORIENTED_EDGE('',*,*,#1548,.T.);
#1583=CARTESIAN_POINT('',(-3.269999999999989,-1.750000000000219,7.190493304527246));
#1584=DIRECTION('',(0.0,1.0,0.0));
#1585=DIRECTION('',(0.0,0.0,-1.0));
#1586=AXIS2_PLACEMENT_3D('',#1583,#1584,#1585);
#1587=CIRCLE('',#1586,0.800000000000000);
#1588=EDGE_CURVE('',#1560,#1543,#1587,.T.);
#1589=ORIENTED_EDGE('',*,*,#1588,.F.);
#1590=ORIENTED_EDGE('',*,*,#1565,.T.);
#1591=CARTESIAN_POINT('',(-3.269999999999989,-1.650000000000012,7.190493304527246));
#1592=DIRECTION('',(0.0,-1.0,0.0));
#1593=DIRECTION('',(0.0,0.0,-1.0));
#1594=AXIS2_PLACEMENT_3D('',#1591,#1592,#1593);
#1595=CIRCLE('',#1594,0.800000000000000);
#1596=EDGE_CURVE('',#1541,#1551,#1595,.T.);
#1597=ORIENTED_EDGE('',*,*,#1596,.F.);
#1598=EDGE_LOOP('',(#1582,#1589,#1590,#1597));
#1599=FACE_OUTER_BOUND('',#1598,.T.);
#1600=ADVANCED_FACE('',(#1599),#1581,.F.);
#1601=CARTESIAN_POINT('',(-3.269999999999989,-1.650000000000012,7.190493304527246));
#1602=DIRECTION('',(0.0,-1.0,0.0));
#1603=DIRECTION('',(0.0,0.0,-1.0));
#1604=AXIS2_PLACEMENT_3D('',#1601,#1602,#1603);
#1605=PLANE('',#1604);
#1606=ORIENTED_EDGE('',*,*,#1596,.T.);
#1607=ORIENTED_EDGE('',*,*,#1557,.T.);
#1608=EDGE_LOOP('',(#1606,#1607));
#1609=FACE_OUTER_BOUND('',#1608,.T.);
#1610=ADVANCED_FACE('',(#1609),#1605,.T.);
#1611=CARTESIAN_POINT('',(4.450000000000005,2.949999999999798,13.899999999999919));
#1612=DIRECTION('',(1.0,0.0,0.0));
#1613=DIRECTION('',(0.0,-1.0,0.0));
#1614=AXIS2_PLACEMENT_3D('',#1611,#1612,#1613);
#1615=PLANE('',#1614);
#1616=CARTESIAN_POINT('',(4.450000000000005,2.849999999999798,13.899999999999919));
#1617=VERTEX_POINT('',#1616);
#1618=CARTESIAN_POINT('',(4.449999999999994,2.849999999999797,7.600000000000078));
#1619=VERTEX_POINT('',#1618);
#1620=CARTESIAN_POINT('',(4.450000000000005,2.849999999999798,13.899999999999919));
#1621=DIRECTION('',(0.0,0.0,-1.0));
#1622=VECTOR('',#1621,6.299999999999841);
#1623=LINE('',#1620,#1622);
#1624=EDGE_CURVE('',#1617,#1619,#1623,.T.);
#1625=ORIENTED_EDGE('',*,*,#1624,.F.);
#1626=CARTESIAN_POINT('',(4.450000000000005,2.949999999999798,13.899999999999919));
#1627=VERTEX_POINT('',#1626);
#1628=CARTESIAN_POINT('',(4.450000000000005,2.949999999999798,13.899999999999919));
#1629=DIRECTION('',(0.0,-1.0,0.0));
#1630=VECTOR('',#1629,0.100000000000000);
#1631=LINE('',#1628,#1630);
#1632=EDGE_CURVE('',#1627,#1617,#1631,.T.);
#1633=ORIENTED_EDGE('',*,*,#1632,.F.);
#1634=CARTESIAN_POINT('',(4.449999999999994,2.949999999999797,7.600000000000078));
#1635=VERTEX_POINT('',#1634);
#1636=CARTESIAN_POINT('',(4.449999999999994,2.949999999999797,7.600000000000078));
#1637=DIRECTION('',(0.0,0.0,1.0));
#1638=VECTOR('',#1637,6.299999999999841);
#1639=LINE('',#1636,#1638);
#1640=EDGE_CURVE('',#1635,#1627,#1639,.T.);
#1641=ORIENTED_EDGE('',*,*,#1640,.F.);
#1642=CARTESIAN_POINT('',(4.449999999999994,2.949999999999797,7.600000000000078));
#1643=DIRECTION('',(0.0,-1.0,0.0));
#1644=VECTOR('',#1643,0.100000000000000);
#1645=LINE('',#1642,#1644);
#1646=EDGE_CURVE('',#1635,#1619,#1645,.T.);
#1647=ORIENTED_EDGE('',*,*,#1646,.T.);
#1648=EDGE_LOOP('',(#1625,#1633,#1641,#1647));
#1649=FACE_OUTER_BOUND('',#1648,.T.);
#1650=ADVANCED_FACE('',(#1649),#1615,.F.);
#1651=CARTESIAN_POINT('',(4.449999999999994,2.949999999999797,7.600000000000078));
#1652=DIRECTION('',(0.0,0.0,-1.0));
#1653=DIRECTION('',(0.0,1.0,0.0));
#1654=AXIS2_PLACEMENT_3D('',#1651,#1652,#1653);
#1655=PLANE('',#1654);
#1656=CARTESIAN_POINT('',(-4.449999999999998,2.849999999999797,7.600000000000074));
#1657=VERTEX_POINT('',#1656);
#1658=CARTESIAN_POINT('',(4.449999999999994,2.849999999999797,7.600000000000078));
#1659=DIRECTION('',(-1.0,0.0,0.0));
#1660=VECTOR('',#1659,8.899999999999992);
#1661=LINE('',#1658,#1660);
#1662=EDGE_CURVE('',#1619,#1657,#1661,.T.);
#1663=ORIENTED_EDGE('',*,*,#1662,.F.);
#1664=ORIENTED_EDGE('',*,*,#1646,.F.);
#1665=CARTESIAN_POINT('',(-4.449999999999998,2.949999999999797,7.600000000000074));
#1666=VERTEX_POINT('',#1665);
#1667=CARTESIAN_POINT('',(-4.449999999999998,2.949999999999797,7.600000000000074));
#1668=DIRECTION('',(1.0,0.0,0.0));
#1669=VECTOR('',#1668,8.899999999999992);
#1670=LINE('',#1667,#1669);
#1671=EDGE_CURVE('',#1666,#1635,#1670,.T.);
#1672=ORIENTED_EDGE('',*,*,#1671,.F.);
#1673=CARTESIAN_POINT('',(-4.449999999999998,2.949999999999797,7.600000000000074));
#1674=DIRECTION('',(0.0,-1.0,0.0));
#1675=VECTOR('',#1674,0.100000000000000);
#1676=LINE('',#1673,#1675);
#1677=EDGE_CURVE('',#1666,#1657,#1676,.T.);
#1678=ORIENTED_EDGE('',*,*,#1677,.T.);
#1679=EDGE_LOOP('',(#1663,#1664,#1672,#1678));
#1680=FACE_OUTER_BOUND('',#1679,.T.);
#1681=ADVANCED_FACE('',(#1680),#1655,.F.);
#1682=CARTESIAN_POINT('',(-4.449999999999998,2.949999999999797,7.600000000000074));
#1683=DIRECTION('',(-1.0,0.0,0.0));
#1684=DIRECTION('',(0.0,1.0,0.0));
#1685=AXIS2_PLACEMENT_3D('',#1682,#1683,#1684);
#1686=PLANE('',#1685);
#1687=CARTESIAN_POINT('',(-4.450000000000001,2.849999999999798,13.899999999999915));
#1688=VERTEX_POINT('',#1687);
#1689=CARTESIAN_POINT('',(-4.449999999999998,2.849999999999797,7.600000000000074));
#1690=DIRECTION('',(0.0,0.0,1.0));
#1691=VECTOR('',#1690,6.299999999999841);
#1692=LINE('',#1689,#1691);
#1693=EDGE_CURVE('',#1657,#1688,#1692,.T.);
#1694=ORIENTED_EDGE('',*,*,#1693,.F.);
#1695=ORIENTED_EDGE('',*,*,#1677,.F.);
#1696=CARTESIAN_POINT('',(-4.450000000000001,2.949999999999798,13.899999999999915));
#1697=VERTEX_POINT('',#1696);
#1698=CARTESIAN_POINT('',(-4.450000000000001,2.949999999999798,13.899999999999915));
#1699=DIRECTION('',(0.0,0.0,-1.0));
#1700=VECTOR('',#1699,6.299999999999841);
#1701=LINE('',#1698,#1700);
#1702=EDGE_CURVE('',#1697,#1666,#1701,.T.);
#1703=ORIENTED_EDGE('',*,*,#1702,.F.);
#1704=CARTESIAN_POINT('',(-4.450000000000001,2.849999999999798,13.899999999999915));
#1705=DIRECTION('',(0.0,1.0,0.0));
#1706=VECTOR('',#1705,0.100000000000000);
#1707=LINE('',#1704,#1706);
#1708=EDGE_CURVE('',#1688,#1697,#1707,.T.);
#1709=ORIENTED_EDGE('',*,*,#1708,.F.);
#1710=EDGE_LOOP('',(#1694,#1695,#1703,#1709));
#1711=FACE_OUTER_BOUND('',#1710,.T.);
#1712=ADVANCED_FACE('',(#1711),#1686,.F.);
#1713=CARTESIAN_POINT('',(-1.012112E-014,2.849999999999797,10.749999999999996));
#1714=DIRECTION('',(0.0,-1.0,0.0));
#1715=DIRECTION('',(0.0,0.0,-1.0));
#1716=AXIS2_PLACEMENT_3D('',#1713,#1714,#1715);
#1717=PLANE('',#1716);
#1718=ORIENTED_EDGE('',*,*,#1624,.T.);
#1719=ORIENTED_EDGE('',*,*,#1662,.T.);
#1720=ORIENTED_EDGE('',*,*,#1693,.T.);
#1721=CARTESIAN_POINT('',(4.450000000000005,2.849999999999798,13.899999999999919));
#1722=DIRECTION('',(-1.0,0.0,0.0));
#1723=VECTOR('',#1722,8.900000000000006);
#1724=LINE('',#1721,#1723);
#1725=EDGE_CURVE('',#1617,#1688,#1724,.T.);
#1726=ORIENTED_EDGE('',*,*,#1725,.F.);
#1727=EDGE_LOOP('',(#1718,#1719,#1720,#1726));
#1728=FACE_OUTER_BOUND('',#1727,.T.);
#1729=ADVANCED_FACE('',(#1728),#1717,.F.);
#1730=CARTESIAN_POINT('',(-5.269999999999994,2.949999999999798,13.899999999999915));
#1731=DIRECTION('',(0.0,1.0,0.0));
#1732=DIRECTION('',(1.0,0.0,0.0));
#1733=AXIS2_PLACEMENT_3D('',#1730,#1731,#1732);
#1734=PLANE('',#1733);
#1735=ORIENTED_EDGE('',*,*,#1702,.T.);
#1736=ORIENTED_EDGE('',*,*,#1671,.T.);
#1737=ORIENTED_EDGE('',*,*,#1640,.T.);
#1738=CARTESIAN_POINT('',(5.269999999999998,2.949999999999800,13.899999999999919));
#1739=VERTEX_POINT('',#1738);
#1740=CARTESIAN_POINT('',(4.450000000000005,2.949999999999798,13.899999999999919));
#1741=DIRECTION('',(1.0,0.0,0.0));
#1742=VECTOR('',#1741,0.819999999999993);
#1743=LINE('',#1740,#1742);
#1744=EDGE_CURVE('',#1627,#1739,#1743,.T.);
#1745=ORIENTED_EDGE('',*,*,#1744,.T.);
#1746=CARTESIAN_POINT('',(5.270000000000003,2.949999999999799,5.290628308159285));
#1747=VERTEX_POINT('',#1746);
#1748=CARTESIAN_POINT('',(5.269999999999998,2.949999999999800,13.899999999999919));
#1749=DIRECTION('',(0.0,0.0,-1.0));
#1750=VECTOR('',#1749,8.609371691840634);
#1751=LINE('',#1748,#1750);
#1752=EDGE_CURVE('',#1739,#1747,#1751,.T.);
#1753=ORIENTED_EDGE('',*,*,#1752,.T.);
#1754=CARTESIAN_POINT('',(-5.269999999999989,2.949999999999796,5.290628308159278));
#1755=VERTEX_POINT('',#1754);
#1756=CARTESIAN_POINT('',(-5.269999999999989,2.949999999999796,5.290628308159278));
#1757=DIRECTION('',(1.0,0.0,0.0));
#1758=VECTOR('',#1757,10.539999999999992);
#1759=LINE('',#1756,#1758);
#1760=EDGE_CURVE('',#1755,#1747,#1759,.T.);
#1761=ORIENTED_EDGE('',*,*,#1760,.F.);
#1762=CARTESIAN_POINT('',(-5.269999999999994,2.949999999999798,13.899999999999915));
#1763=VERTEX_POINT('',#1762);
#1764=CARTESIAN_POINT('',(-5.269999999999989,2.949999999999796,5.290628308159278));
#1765=DIRECTION('',(0.0,0.0,1.0));
#1766=VECTOR('',#1765,8.609371691840638);
#1767=LINE('',#1764,#1766);
#1768=EDGE_CURVE('',#1755,#1763,#1767,.T.);
#1769=ORIENTED_EDGE('',*,*,#1768,.T.);
#1770=CARTESIAN_POINT('',(-5.269999999999994,2.949999999999798,13.899999999999915));
#1771=DIRECTION('',(1.0,0.0,0.0));
#1772=VECTOR('',#1771,0.819999999999993);
#1773=LINE('',#1770,#1772);
#1774=EDGE_CURVE('',#1763,#1697,#1773,.T.);
#1775=ORIENTED_EDGE('',*,*,#1774,.T.);
#1776=EDGE_LOOP('',(#1735,#1736,#1737,#1745,#1753,#1761,#1769,#1775));
#1777=FACE_OUTER_BOUND('',#1776,.T.);
#1778=ADVANCED_FACE('',(#1777),#1734,.T.);
#1779=CARTESIAN_POINT('',(-5.269999999999989,2.949999999999796,5.290628308159278));
#1780=DIRECTION('',(6.889867E-016,0.104528463267610,-0.994521895368278));
#1781=DIRECTION('',(1.0,0.0,0.0));
#1782=AXIS2_PLACEMENT_3D('',#1779,#1780,#1781);
#1783=PLANE('',#1782);
#1784=CARTESIAN_POINT('',(5.270000000000003,0.279999999999812,5.010000000000048));
#1785=VERTEX_POINT('',#1784);
#1786=CARTESIAN_POINT('',(5.270000000000003,2.949999999999799,5.290628308159285));
#1787=DIRECTION('',(0.0,-0.994521895368278,-0.104528463267610));
#1788=VECTOR('',#1787,2.684707106434564);
#1789=LINE('',#1786,#1788);
#1790=EDGE_CURVE('',#1747,#1785,#1789,.T.);
#1791=ORIENTED_EDGE('',*,*,#1790,.T.);
#1792=CARTESIAN_POINT('',(-5.269999999999989,0.279999999999809,5.010000000000042));
#1793=VERTEX_POINT('',#1792);
#1794=CARTESIAN_POINT('',(-5.269999999999989,0.279999999999809,5.010000000000042));
#1795=DIRECTION('',(1.0,0.0,0.0));
#1796=VECTOR('',#1795,10.539999999999992);
#1797=LINE('',#1794,#1796);
#1798=EDGE_CURVE('',#1793,#1785,#1797,.T.);
#1799=ORIENTED_EDGE('',*,*,#1798,.F.);
#1800=CARTESIAN_POINT('',(-5.269999999999989,0.279999999999809,5.010000000000042));
#1801=DIRECTION('',(0.0,0.994521895368278,0.104528463267609));
#1802=VECTOR('',#1801,2.684707106434564);
#1803=LINE('',#1800,#1802);
#1804=EDGE_CURVE('',#1793,#1755,#1803,.T.);
#1805=ORIENTED_EDGE('',*,*,#1804,.T.);
#1806=ORIENTED_EDGE('',*,*,#1760,.T.);
#1807=EDGE_LOOP('',(#1791,#1799,#1805,#1806));
#1808=FACE_OUTER_BOUND('',#1807,.T.);
#1809=ADVANCED_FACE('',(#1808),#1783,.T.);
#1810=CARTESIAN_POINT('',(-5.269999999999989,0.279999999999809,5.010000000000042));
#1811=DIRECTION('',(0.0,0.0,-1.0));
#1812=DIRECTION('',(1.0,0.0,0.0));
#1813=AXIS2_PLACEMENT_3D('',#1810,#1811,#1812);
#1814=PLANE('',#1813);
#1815=CARTESIAN_POINT('',(5.270000000000003,-0.280000000000176,5.010000000000048));
#1816=VERTEX_POINT('',#1815);
#1817=CARTESIAN_POINT('',(5.270000000000003,0.279999999999812,5.010000000000048));
#1818=DIRECTION('',(0.0,-1.0,0.0));
#1819=VECTOR('',#1818,0.559999999999988);
#1820=LINE('',#1817,#1819);
#1821=EDGE_CURVE('',#1785,#1816,#1820,.T.);
#1822=ORIENTED_EDGE('',*,*,#1821,.T.);
#1823=CARTESIAN_POINT('',(-5.269999999999989,-0.280000000000179,5.010000000000042));
#1824=VERTEX_POINT('',#1823);
#1825=CARTESIAN_POINT('',(-5.269999999999989,-0.280000000000179,5.010000000000042));
#1826=DIRECTION('',(1.0,0.0,0.0));
#1827=VECTOR('',#1826,10.539999999999992);
#1828=LINE('',#1825,#1827);
#1829=EDGE_CURVE('',#1824,#1816,#1828,.T.);
#1830=ORIENTED_EDGE('',*,*,#1829,.F.);
#1831=CARTESIAN_POINT('',(-5.269999999999989,-0.280000000000179,5.010000000000042));
#1832=DIRECTION('',(0.0,1.0,0.0));
#1833=VECTOR('',#1832,0.559999999999988);
#1834=LINE('',#1831,#1833);
#1835=EDGE_CURVE('',#1824,#1793,#1834,.T.);
#1836=ORIENTED_EDGE('',*,*,#1835,.T.);
#1837=ORIENTED_EDGE('',*,*,#1798,.T.);
#1838=EDGE_LOOP('',(#1822,#1830,#1836,#1837));
#1839=FACE_OUTER_BOUND('',#1838,.T.);
#1840=ADVANCED_FACE('',(#1839),#1814,.T.);
#1841=CARTESIAN_POINT('',(-5.269999999999989,-0.280000000000179,5.010000000000042));
#1842=DIRECTION('',(7.620409E-016,-0.121869343405101,-0.992546151641328));
#1843=DIRECTION('',(1.0,0.0,0.0));
#1844=AXIS2_PLACEMENT_3D('',#1841,#1842,#1843);
#1845=PLANE('',#1844);
#1846=CARTESIAN_POINT('',(5.270000000000001,-1.750000000000218,5.190493304527251));
#1847=VERTEX_POINT('',#1846);
#1848=CARTESIAN_POINT('',(5.270000000000003,-0.280000000000176,5.010000000000048));
#1849=DIRECTION('',(-1.199399E-015,-0.992546151641328,0.121869343405100));
#1850=VECTOR('',#1849,1.481039443424540);
#1851=LINE('',#1848,#1850);
#1852=EDGE_CURVE('',#1816,#1847,#1851,.T.);
#1853=ORIENTED_EDGE('',*,*,#1852,.T.);
#1854=CARTESIAN_POINT('',(-5.269999999999991,-1.750000000000219,5.190493304527244));
#1855=VERTEX_POINT('',#1854);
#1856=CARTESIAN_POINT('',(-5.269999999999991,-1.750000000000219,5.190493304527244));
#1857=DIRECTION('',(1.0,0.0,0.0));
#1858=VECTOR('',#1857,10.539999999999992);
#1859=LINE('',#1856,#1858);
#1860=EDGE_CURVE('',#1855,#1847,#1859,.T.);
#1861=ORIENTED_EDGE('',*,*,#1860,.F.);
#1862=CARTESIAN_POINT('',(-5.269999999999991,-1.750000000000219,5.190493304527244));
#1863=DIRECTION('',(1.199399E-015,0.992546151641328,-0.121869343405099));
#1864=VECTOR('',#1863,1.481039443424539);
#1865=LINE('',#1862,#1864);
#1866=EDGE_CURVE('',#1855,#1824,#1865,.T.);
#1867=ORIENTED_EDGE('',*,*,#1866,.T.);
#1868=ORIENTED_EDGE('',*,*,#1829,.T.);
#1869=EDGE_LOOP('',(#1853,#1861,#1867,#1868));
#1870=FACE_OUTER_BOUND('',#1869,.T.);
#1871=ADVANCED_FACE('',(#1870),#1845,.T.);
#1872=CARTESIAN_POINT('',(-5.269999999999991,-1.750000000000219,5.190493304527244));
#1873=DIRECTION('',(0.0,-1.0,0.0));
#1874=DIRECTION('',(-1.0,0.0,0.0));
#1875=AXIS2_PLACEMENT_3D('',#1872,#1873,#1874);
#1876=PLANE('',#1875);
#1877=CARTESIAN_POINT('',(5.269999999999998,-1.750000000000188,13.484988184148222));
#1878=VERTEX_POINT('',#1877);
#1879=CARTESIAN_POINT('',(5.270000000000001,-1.750000000000218,5.190493304527251));
#1880=DIRECTION('',(0.0,0.0,1.0));
#1881=VECTOR('',#1880,8.294494879620970);
#1882=LINE('',#1879,#1881);
#1883=EDGE_CURVE('',#1847,#1878,#1882,.T.);
#1884=ORIENTED_EDGE('',*,*,#1883,.T.);
#1885=CARTESIAN_POINT('',(-5.269999999999994,-1.750000000000190,13.484988184148218));
#1886=VERTEX_POINT('',#1885);
#1887=CARTESIAN_POINT('',(-5.269999999999994,-1.750000000000190,13.484988184148218));
#1888=DIRECTION('',(1.0,0.0,0.0));
#1889=VECTOR('',#1888,10.539999999999992);
#1890=LINE('',#1887,#1889);
#1891=EDGE_CURVE('',#1886,#1878,#1890,.T.);
#1892=ORIENTED_EDGE('',*,*,#1891,.F.);
#1893=CARTESIAN_POINT('',(-5.269999999999994,-1.750000000000190,13.484988184148218));
#1894=DIRECTION('',(0.0,0.0,-1.0));
#1895=VECTOR('',#1894,8.294494879620974);
#1896=LINE('',#1893,#1895);
#1897=EDGE_CURVE('',#1886,#1855,#1896,.T.);
#1898=ORIENTED_EDGE('',*,*,#1897,.T.);
#1899=ORIENTED_EDGE('',*,*,#1860,.T.);
#1900=EDGE_LOOP('',(#1884,#1892,#1898,#1899));
#1901=FACE_OUTER_BOUND('',#1900,.T.);
#1902=ORIENTED_EDGE('',*,*,#1572,.T.);
#1903=ORIENTED_EDGE('',*,*,#1588,.T.);
#1904=EDGE_LOOP('',(#1902,#1903));
#1905=FACE_BOUND('',#1904,.T.);
#1906=ADVANCED_FACE('',(#1901,#1905),#1876,.T.);
#1907=CARTESIAN_POINT('',(-5.269999999999994,-1.750000000000190,13.484988184148218));
#1908=DIRECTION('',(-6.818440E-016,-0.121869343405113,0.992546151641326));
#1909=DIRECTION('',(-1.0,0.0,0.0));
#1910=AXIS2_PLACEMENT_3D('',#1907,#1908,#1909);
#1911=PLANE('',#1910);
#1912=CARTESIAN_POINT('',(5.269999999999998,1.629999999999807,13.899999999999920));
#1913=VERTEX_POINT('',#1912);
#1914=CARTESIAN_POINT('',(5.269999999999998,-1.750000000000188,13.484988184148222));
#1915=DIRECTION('',(0.0,0.992546151641326,0.121869343405113));
#1916=VECTOR('',#1915,3.405383210050889);
#1917=LINE('',#1914,#1916);
#1918=EDGE_CURVE('',#1878,#1913,#1917,.T.);
#1919=ORIENTED_EDGE('',*,*,#1918,.T.);
#1920=CARTESIAN_POINT('',(-5.269999999999994,1.629999999999805,13.899999999999915));
#1921=VERTEX_POINT('',#1920);
#1922=CARTESIAN_POINT('',(-5.269999999999994,1.629999999999805,13.899999999999915));
#1923=DIRECTION('',(1.0,0.0,0.0));
#1924=VECTOR('',#1923,10.539999999999992);
#1925=LINE('',#1922,#1924);
#1926=EDGE_CURVE('',#1921,#1913,#1925,.T.);
#1927=ORIENTED_EDGE('',*,*,#1926,.F.);
#1928=CARTESIAN_POINT('',(-5.269999999999994,1.629999999999805,13.899999999999915));
#1929=DIRECTION('',(0.0,-0.992546151641326,-0.121869343405113));
#1930=VECTOR('',#1929,3.405383210050888);
#1931=LINE('',#1928,#1930);
#1932=EDGE_CURVE('',#1921,#1886,#1931,.T.);
#1933=ORIENTED_EDGE('',*,*,#1932,.T.);
#1934=ORIENTED_EDGE('',*,*,#1891,.T.);
#1935=EDGE_LOOP('',(#1919,#1927,#1933,#1934));
#1936=FACE_OUTER_BOUND('',#1935,.T.);
#1937=ADVANCED_FACE('',(#1936),#1911,.T.);
#1938=CARTESIAN_POINT('',(-5.269999999999994,1.629999999999805,13.899999999999915));
#1939=DIRECTION('',(0.0,0.0,1.0));
#1940=DIRECTION('',(-1.0,0.0,0.0));
#1941=AXIS2_PLACEMENT_3D('',#1938,#1939,#1940);
#1942=PLANE('',#1941);
#1943=ORIENTED_EDGE('',*,*,#1708,.T.);
#1944=ORIENTED_EDGE('',*,*,#1774,.F.);
#1945=CARTESIAN_POINT('',(-5.269999999999994,2.949999999999798,13.899999999999915));
#1946=DIRECTION('',(0.0,-1.0,0.0));
#1947=VECTOR('',#1946,1.319999999999993);
#1948=LINE('',#1945,#1947);
#1949=EDGE_CURVE('',#1763,#1921,#1948,.T.);
#1950=ORIENTED_EDGE('',*,*,#1949,.T.);
#1951=ORIENTED_EDGE('',*,*,#1926,.T.);
#1952=CARTESIAN_POINT('',(5.269999999999998,1.629999999999807,13.899999999999920));
#1953=DIRECTION('',(0.0,1.0,0.0));
#1954=VECTOR('',#1953,1.319999999999993);
#1955=LINE('',#1952,#1954);
#1956=EDGE_CURVE('',#1913,#1739,#1955,.T.);
#1957=ORIENTED_EDGE('',*,*,#1956,.T.);
#1958=ORIENTED_EDGE('',*,*,#1744,.F.);
#1959=ORIENTED_EDGE('',*,*,#1632,.T.);
#1960=ORIENTED_EDGE('',*,*,#1725,.T.);
#1961=EDGE_LOOP('',(#1943,#1944,#1950,#1951,#1957,#1958,#1959,#1960));
#1962=FACE_OUTER_BOUND('',#1961,.T.);
#1963=ADVANCED_FACE('',(#1962),#1942,.T.);
#1964=CARTESIAN_POINT('',(5.270000000000001,0.627330931597224,9.456423619563225));
#1965=DIRECTION('',(-1.0,0.0,0.0));
#1966=DIRECTION('',(0.0,0.0,-1.0));
#1967=AXIS2_PLACEMENT_3D('',#1964,#1965,#1966);
#1968=PLANE('',#1967);
#1969=ORIENTED_EDGE('',*,*,#1752,.F.);
#1970=ORIENTED_EDGE('',*,*,#1956,.F.);
#1971=ORIENTED_EDGE('',*,*,#1918,.F.);
#1972=ORIENTED_EDGE('',*,*,#1883,.F.);
#1973=ORIENTED_EDGE('',*,*,#1852,.F.);
#1974=ORIENTED_EDGE('',*,*,#1821,.F.);
#1975=ORIENTED_EDGE('',*,*,#1790,.F.);
#1976=EDGE_LOOP('',(#1969,#1970,#1971,#1972,#1973,#1974,#1975));
#1977=FACE_OUTER_BOUND('',#1976,.T.);
#1978=ADVANCED_FACE('',(#1977),#1968,.F.);
#1979=CARTESIAN_POINT('',(-5.269999999999991,0.627330931597221,9.456423619563219));
#1980=DIRECTION('',(-1.0,0.0,0.0));
#1981=DIRECTION('',(0.0,0.0,-1.0));
#1982=AXIS2_PLACEMENT_3D('',#1979,#1980,#1981);
#1983=PLANE('',#1982);
#1984=ORIENTED_EDGE('',*,*,#1949,.F.);
#1985=ORIENTED_EDGE('',*,*,#1768,.F.);
#1986=ORIENTED_EDGE('',*,*,#1804,.F.);
#1987=ORIENTED_EDGE('',*,*,#1835,.F.);
#1988=ORIENTED_EDGE('',*,*,#1866,.F.);
#1989=ORIENTED_EDGE('',*,*,#1897,.F.);
#1990=ORIENTED_EDGE('',*,*,#1932,.F.);
#1991=EDGE_LOOP('',(#1984,#1985,#1986,#1987,#1988,#1989,#1990));
#1992=FACE_OUTER_BOUND('',#1991,.T.);
#1993=ADVANCED_FACE('',(#1992),#1983,.T.);
#1994=CLOSED_SHELL('',(#1576,#1600,#1610,#1650,#1681,#1712,#1729,#1778,#1809,#1840,#1871,#1906,#1937,#1963,#1978,#1993));
#1995=MANIFOLD_SOLID_BREP('A1',#1994);
#1996=COLOUR_RGB('251',0.464000000000000,0.464000000000000,0.464000000000000);
#1997=SURFACE_STYLE_USAGE(.BOTH.,#1998);
#1998=SURFACE_SIDE_STYLE('NONE',(#1999));
#1999=SURFACE_STYLE_FILL_AREA(#2000);
#2000=FILL_AREA_STYLE('NONE',(#2001));
#2001=FILL_AREA_STYLE_COLOUR('NONE',#1996);
#2002=PRESENTATION_STYLE_ASSIGNMENT((#1997));
#2003=STYLED_ITEM('NONE',(#2002),#1995);
#2004=ADVANCED_BREP_SHAPE_REPRESENTATION('ABSR1',(#280,#506,#723,#874,#1025,#1176,#1533,#1995),#28);
#2005=SHAPE_REPRESENTATION_RELATIONSHIP('SRRPL1','',#2004,#62);
ENDSEC;
END-ISO-10303-21;
