ISO-10303-21;
HEADER;
/****************************************************************
 * Generated by software with PDE/Lib inside                    *
 * PDE/Lib Version 3.2.2, created Thu Mar 23, 2000 at 18:38:49  *
 * International Technegroup Inc. (www.iti-oh.com)              *
 ****************************************************************/
FILE_DESCRIPTION((''),'2;1');
FILE_NAME('TO-251AA-V.stp','2009-02-04T09:27:23',(''),(''),'Mechanical Desktop 2006','Mechanical Desktop 2006',', , ');
FILE_SCHEMA(('AUTOMOTIVE_DESIGN { 1 2 10303 214 0 1 1 1 }'));
ENDSEC;
DATA;
#8=(NAMED_UNIT(*)PLANE_ANGLE_UNIT()SI_UNIT($,.RADIAN.));
#9=DIMENSIONAL_EXPONENTS(0.0,0.0,0.0,0.0,0.0,0.0,0.0);
#10=PLANE_ANGLE_MEASURE_WITH_UNIT(PLANE_ANGLE_MEASURE(0.017453292500000),#8);
#14=(CONVERSION_BASED_UNIT('DEGREE',#10)NAMED_UNIT(#9)PLANE_ANGLE_UNIT());
#18=(NAMED_UNIT(*)SI_UNIT($,.STERADIAN.)SOLID_ANGLE_UNIT());
#22=(LENGTH_UNIT()NAMED_UNIT(*)SI_UNIT(.MILLI.,.METRE.));
#23=UNCERTAINTY_MEASURE_WITH_UNIT(LENGTH_MEASURE(0.000001000000000),#22,'DISTANCE_ACCURACY_VALUE','');
#28=(GEOMETRIC_REPRESENTATION_CONTEXT(3)GLOBAL_UNCERTAINTY_ASSIGNED_CONTEXT((#23))GLOBAL_UNIT_ASSIGNED_CONTEXT((#14,#18,#22))REPRESENTATION_CONTEXT('None','None'));
#29=APPLICATION_CONTEXT('automotive design');
#30=APPLICATION_PROTOCOL_DEFINITION('DRAFT_INTERNATIONAL_STANDARD','automotive_design',1998,#29);
#31=PRODUCT_CONTEXT('3D Mechanical Parts',#29,'mechanical');
#32=PRODUCT('TO-251AA-V_3D','TO-251AA-V_3D','',(#31));
#33=PRODUCT_RELATED_PRODUCT_CATEGORY('part',$,(#32));
#34=PRODUCT_CATEGORY('part',$);
#35=PERSON('1','Design','Joe',$,$,$);
#36=ORGANIZATION($,'None','None');
#37=PERSON_AND_ORGANIZATION(#35,#36);
#38=PERSON_AND_ORGANIZATION_ROLE('design_owner');
#39=APPLIED_PERSON_AND_ORGANIZATION_ASSIGNMENT(#37,#38,(#32));
#40=PRODUCT_DEFINITION_FORMATION_WITH_SPECIFIED_SOURCE('None','',#32,.BOUGHT.);
#41=PERSON('2','Creator','Joe',$,$,$);
#42=ORGANIZATION($,'None','None');
#43=PERSON_AND_ORGANIZATION(#41,#42);
#44=PERSON_AND_ORGANIZATION_ROLE('creator');
#45=APPLIED_PERSON_AND_ORGANIZATION_ASSIGNMENT(#43,#44,(#40));
#46=PERSON('3','Supplier','Joe',$,$,$);
#47=ORGANIZATION($,'None','None');
#48=PERSON_AND_ORGANIZATION(#46,#47);
#49=PERSON_AND_ORGANIZATION_ROLE('design_supplier');
#50=APPLIED_PERSON_AND_ORGANIZATION_ASSIGNMENT(#48,#49,(#40));
#51=PRODUCT_DEFINITION_CONTEXT('part definition',#29,'design');
#52=PRODUCT_DEFINITION('None','',#40,#51);
#53=PERSON('4','Creator','Joe',$,$,$);
#54=ORGANIZATION($,'None','None');
#55=PERSON_AND_ORGANIZATION(#53,#54);
#56=PERSON_AND_ORGANIZATION_ROLE('creator');
#57=APPLIED_PERSON_AND_ORGANIZATION_ASSIGNMENT(#55,#56,(#52));
#58=CARTESIAN_POINT('NONE',(0.0,0.0,0.0));
#59=DIRECTION('NONE',(0.0,0.0,1.0));
#60=DIRECTION('NONE',(1.0,0.0,0.0));
#61=AXIS2_PLACEMENT_3D('NONE',#58,#59,#60);
#62=SHAPE_REPRESENTATION('SR1',(#61),#28);
#63=PRODUCT_DEFINITION_SHAPE('PDS1','Test Part',#52);
#64=SHAPE_DEFINITION_REPRESENTATION(#63,#62);
#65=CARTESIAN_POINT('',(-1.835000000000002,-0.290000000000000,3.0));
#66=DIRECTION('',(1.0,0.0,0.0));
#67=DIRECTION('',(0.0,0.0,-1.0));
#68=AXIS2_PLACEMENT_3D('',#65,#66,#67);
#69=PLANE('',#68);
#70=CARTESIAN_POINT('',(-1.835000000000006,-0.290000000000000,-3.200000000000001));
#71=VERTEX_POINT('',#70);
#72=CARTESIAN_POINT('',(-1.835000000000005,0.289999999999997,-3.200000000000001));
#73=VERTEX_POINT('',#72);
#74=CARTESIAN_POINT('',(-1.835000000000006,-0.290000000000000,-3.200000000000001));
#75=DIRECTION('',(0.0,1.0,0.0));
#76=VECTOR('',#75,0.579999999999997);
#77=LINE('',#74,#76);
#78=EDGE_CURVE('',#71,#73,#77,.T.);
#79=ORIENTED_EDGE('',*,*,#78,.T.);
#80=CARTESIAN_POINT('',(-1.835000000000001,0.289999999999997,3.0));
#81=VERTEX_POINT('',#80);
#82=CARTESIAN_POINT('',(-1.835000000000001,0.289999999999997,3.0));
#83=DIRECTION('',(0.0,0.0,-1.0));
#84=VECTOR('',#83,6.200000000000001);
#85=LINE('',#82,#84);
#86=EDGE_CURVE('',#81,#73,#85,.T.);
#87=ORIENTED_EDGE('',*,*,#86,.F.);
#88=CARTESIAN_POINT('',(-1.835000000000002,-0.290000000000000,3.0));
#89=VERTEX_POINT('',#88);
#90=CARTESIAN_POINT('',(-1.835000000000002,-0.290000000000000,3.0));
#91=DIRECTION('',(0.0,1.0,0.0));
#92=VECTOR('',#91,0.579999999999997);
#93=LINE('',#90,#92);
#94=EDGE_CURVE('',#89,#81,#93,.T.);
#95=ORIENTED_EDGE('',*,*,#94,.F.);
#96=CARTESIAN_POINT('',(-1.835000000000002,-0.290000000000000,3.0));
#97=DIRECTION('',(0.0,0.0,-1.0));
#98=VECTOR('',#97,6.200000000000001);
#99=LINE('',#96,#98);
#100=EDGE_CURVE('',#89,#71,#99,.T.);
#101=ORIENTED_EDGE('',*,*,#100,.T.);
#102=EDGE_LOOP('',(#79,#87,#95,#101));
#103=FACE_OUTER_BOUND('',#102,.T.);
#104=ADVANCED_FACE('',(#103),#69,.T.);
#105=CARTESIAN_POINT('',(-1.835000000000001,0.289999999999997,3.0));
#106=DIRECTION('',(0.0,1.0,0.0));
#107=DIRECTION('',(0.0,0.0,1.0));
#108=AXIS2_PLACEMENT_3D('',#105,#106,#107);
#109=PLANE('',#108);
#110=CARTESIAN_POINT('',(-2.725000000000005,0.289999999999998,-3.200000000000001));
#111=VERTEX_POINT('',#110);
#112=CARTESIAN_POINT('',(-1.835000000000005,0.289999999999997,-3.200000000000001));
#113=DIRECTION('',(-1.0,0.0,0.0));
#114=VECTOR('',#113,0.890000000000000);
#115=LINE('',#112,#114);
#116=EDGE_CURVE('',#73,#111,#115,.T.);
#117=ORIENTED_EDGE('',*,*,#116,.T.);
#118=CARTESIAN_POINT('',(-2.725000000000001,0.289999999999998,3.0));
#119=VERTEX_POINT('',#118);
#120=CARTESIAN_POINT('',(-2.725000000000001,0.289999999999998,3.0));
#121=DIRECTION('',(0.0,0.0,-1.0));
#122=VECTOR('',#121,6.200000000000001);
#123=LINE('',#120,#122);
#124=EDGE_CURVE('',#119,#111,#123,.T.);
#125=ORIENTED_EDGE('',*,*,#124,.F.);
#126=CARTESIAN_POINT('',(-1.835000000000001,0.289999999999997,3.0));
#127=DIRECTION('',(-1.0,0.0,0.0));
#128=VECTOR('',#127,0.890000000000000);
#129=LINE('',#126,#128);
#130=EDGE_CURVE('',#81,#119,#129,.T.);
#131=ORIENTED_EDGE('',*,*,#130,.F.);
#132=ORIENTED_EDGE('',*,*,#86,.T.);
#133=EDGE_LOOP('',(#117,#125,#131,#132));
#134=FACE_OUTER_BOUND('',#133,.T.);
#135=ADVANCED_FACE('',(#134),#109,.T.);
#136=CARTESIAN_POINT('',(-2.725000000000001,0.289999999999998,3.0));
#137=DIRECTION('',(-1.0,0.0,0.0));
#138=DIRECTION('',(0.0,0.0,1.0));
#139=AXIS2_PLACEMENT_3D('',#136,#137,#138);
#140=PLANE('',#139);
#141=CARTESIAN_POINT('',(-2.725000000000006,-0.289999999999999,-3.200000000000001));
#142=VERTEX_POINT('',#141);
#143=CARTESIAN_POINT('',(-2.725000000000005,0.289999999999998,-3.200000000000001));
#144=DIRECTION('',(0.0,-1.0,0.0));
#145=VECTOR('',#144,0.579999999999997);
#146=LINE('',#143,#145);
#147=EDGE_CURVE('',#111,#142,#146,.T.);
#148=ORIENTED_EDGE('',*,*,#147,.T.);
#149=CARTESIAN_POINT('',(-2.725000000000002,-0.289999999999999,3.0));
#150=VERTEX_POINT('',#149);
#151=CARTESIAN_POINT('',(-2.725000000000002,-0.289999999999999,3.0));
#152=DIRECTION('',(0.0,0.0,-1.0));
#153=VECTOR('',#152,6.200000000000001);
#154=LINE('',#151,#153);
#155=EDGE_CURVE('',#150,#142,#154,.T.);
#156=ORIENTED_EDGE('',*,*,#155,.F.);
#157=CARTESIAN_POINT('',(-2.725000000000001,0.289999999999998,3.0));
#158=DIRECTION('',(0.0,-1.0,0.0));
#159=VECTOR('',#158,0.579999999999997);
#160=LINE('',#157,#159);
#161=EDGE_CURVE('',#119,#150,#160,.T.);
#162=ORIENTED_EDGE('',*,*,#161,.F.);
#163=ORIENTED_EDGE('',*,*,#124,.T.);
#164=EDGE_LOOP('',(#148,#156,#162,#163));
#165=FACE_OUTER_BOUND('',#164,.T.);
#166=ADVANCED_FACE('',(#165),#140,.T.);
#167=CARTESIAN_POINT('',(-2.725000000000002,-0.289999999999999,3.0));
#168=DIRECTION('',(0.0,-1.0,0.0));
#169=DIRECTION('',(0.0,0.0,-1.0));
#170=AXIS2_PLACEMENT_3D('',#167,#168,#169);
#171=PLANE('',#170);
#172=CARTESIAN_POINT('',(-2.725000000000006,-0.289999999999999,-3.200000000000001));
#173=DIRECTION('',(1.0,0.0,0.0));
#174=VECTOR('',#173,0.890000000000000);
#175=LINE('',#172,#174);
#176=EDGE_CURVE('',#142,#71,#175,.T.);
#177=ORIENTED_EDGE('',*,*,#176,.T.);
#178=ORIENTED_EDGE('',*,*,#100,.F.);
#179=CARTESIAN_POINT('',(-2.725000000000002,-0.289999999999999,3.0));
#180=DIRECTION('',(1.0,0.0,0.0));
#181=VECTOR('',#180,0.890000000000000);
#182=LINE('',#179,#181);
#183=EDGE_CURVE('',#150,#89,#182,.T.);
#184=ORIENTED_EDGE('',*,*,#183,.F.);
#185=ORIENTED_EDGE('',*,*,#155,.T.);
#186=EDGE_LOOP('',(#177,#178,#184,#185));
#187=FACE_OUTER_BOUND('',#186,.T.);
#188=ADVANCED_FACE('',(#187),#171,.T.);
#189=CARTESIAN_POINT('',(-2.280000000000005,-9.436896E-016,-3.200000000000001));
#190=DIRECTION('',(0.0,0.0,1.0));
#191=DIRECTION('',(1.0,0.0,0.0));
#192=AXIS2_PLACEMENT_3D('',#189,#190,#191);
#193=PLANE('',#192);
#194=ORIENTED_EDGE('',*,*,#78,.F.);
#195=ORIENTED_EDGE('',*,*,#176,.F.);
#196=ORIENTED_EDGE('',*,*,#147,.F.);
#197=ORIENTED_EDGE('',*,*,#116,.F.);
#198=EDGE_LOOP('',(#194,#195,#196,#197));
#199=FACE_OUTER_BOUND('',#198,.T.);
#200=ADVANCED_FACE('',(#199),#193,.F.);
#201=CARTESIAN_POINT('',(-2.280000000000001,-9.436896E-016,3.000000000000000));
#202=DIRECTION('',(0.0,0.0,1.0));
#203=DIRECTION('',(1.0,0.0,0.0));
#204=AXIS2_PLACEMENT_3D('',#201,#202,#203);
#205=PLANE('',#204);
#206=ORIENTED_EDGE('',*,*,#183,.T.);
#207=ORIENTED_EDGE('',*,*,#94,.T.);
#208=ORIENTED_EDGE('',*,*,#130,.T.);
#209=ORIENTED_EDGE('',*,*,#161,.T.);
#210=EDGE_LOOP('',(#206,#207,#208,#209));
#211=FACE_OUTER_BOUND('',#210,.T.);
#212=ADVANCED_FACE('',(#211),#205,.T.);
#213=CLOSED_SHELL('',(#104,#135,#166,#188,#200,#212));
#214=MANIFOLD_SOLID_BREP('253',#213);
#215=COLOUR_RGB('253',0.732000000000000,0.732000000000000,0.732000000000000);
#216=SURFACE_STYLE_USAGE(.BOTH.,#217);
#217=SURFACE_SIDE_STYLE('NONE',(#218));
#218=SURFACE_STYLE_FILL_AREA(#219);
#219=FILL_AREA_STYLE('NONE',(#220));
#220=FILL_AREA_STYLE_COLOUR('NONE',#215);
#221=PRESENTATION_STYLE_ASSIGNMENT((#216));
#222=STYLED_ITEM('NONE',(#221),#214);
#223=MECHANICAL_DESIGN_GEOMETRIC_PRESENTATION_REPRESENTATION('NONE',(#222,#375,#526,#677,#894,#1298),#28);
#224=PRESENTATION_LAYER_ASSIGNMENT('0','None',(#214,#374,#525,#676,#893,#1290));
#225=CARTESIAN_POINT('',(2.724999999999998,-0.289999999999999,3.000000000000001));
#226=DIRECTION('',(1.0,0.0,0.0));
#227=DIRECTION('',(0.0,0.0,-1.0));
#228=AXIS2_PLACEMENT_3D('',#225,#226,#227);
#229=PLANE('',#228);
#230=CARTESIAN_POINT('',(2.724999999999994,-0.289999999999999,-3.200000000000000));
#231=VERTEX_POINT('',#230);
#232=CARTESIAN_POINT('',(2.724999999999994,0.289999999999998,-3.200000000000000));
#233=VERTEX_POINT('',#232);
#234=CARTESIAN_POINT('',(2.724999999999994,-0.289999999999999,-3.200000000000000));
#235=DIRECTION('',(0.0,1.0,0.0));
#236=VECTOR('',#235,0.579999999999997);
#237=LINE('',#234,#236);
#238=EDGE_CURVE('',#231,#233,#237,.T.);
#239=ORIENTED_EDGE('',*,*,#238,.T.);
#240=CARTESIAN_POINT('',(2.724999999999999,0.289999999999998,3.000000000000001));
#241=VERTEX_POINT('',#240);
#242=CARTESIAN_POINT('',(2.724999999999999,0.289999999999998,3.000000000000001));
#243=DIRECTION('',(0.0,0.0,-1.0));
#244=VECTOR('',#243,6.200000000000001);
#245=LINE('',#242,#244);
#246=EDGE_CURVE('',#241,#233,#245,.T.);
#247=ORIENTED_EDGE('',*,*,#246,.F.);
#248=CARTESIAN_POINT('',(2.724999999999998,-0.289999999999999,3.000000000000001));
#249=VERTEX_POINT('',#248);
#250=CARTESIAN_POINT('',(2.724999999999998,-0.289999999999999,3.000000000000001));
#251=DIRECTION('',(0.0,1.0,0.0));
#252=VECTOR('',#251,0.579999999999997);
#253=LINE('',#250,#252);
#254=EDGE_CURVE('',#249,#241,#253,.T.);
#255=ORIENTED_EDGE('',*,*,#254,.F.);
#256=CARTESIAN_POINT('',(2.724999999999998,-0.289999999999999,3.000000000000001));
#257=DIRECTION('',(0.0,0.0,-1.0));
#258=VECTOR('',#257,6.200000000000001);
#259=LINE('',#256,#258);
#260=EDGE_CURVE('',#249,#231,#259,.T.);
#261=ORIENTED_EDGE('',*,*,#260,.T.);
#262=EDGE_LOOP('',(#239,#247,#255,#261));
#263=FACE_OUTER_BOUND('',#262,.T.);
#264=ADVANCED_FACE('',(#263),#229,.T.);
#265=CARTESIAN_POINT('',(2.724999999999999,0.289999999999998,3.000000000000001));
#266=DIRECTION('',(0.0,1.0,0.0));
#267=DIRECTION('',(0.0,0.0,1.0));
#268=AXIS2_PLACEMENT_3D('',#265,#266,#267);
#269=PLANE('',#268);
#270=CARTESIAN_POINT('',(1.834999999999995,0.289999999999999,-3.200000000000000));
#271=VERTEX_POINT('',#270);
#272=CARTESIAN_POINT('',(2.724999999999994,0.289999999999998,-3.200000000000000));
#273=DIRECTION('',(-1.0,0.0,0.0));
#274=VECTOR('',#273,0.890000000000000);
#275=LINE('',#272,#274);
#276=EDGE_CURVE('',#233,#271,#275,.T.);
#277=ORIENTED_EDGE('',*,*,#276,.T.);
#278=CARTESIAN_POINT('',(1.834999999999999,0.289999999999999,3.000000000000001));
#279=VERTEX_POINT('',#278);
#280=CARTESIAN_POINT('',(1.834999999999999,0.289999999999999,3.000000000000001));
#281=DIRECTION('',(0.0,0.0,-1.0));
#282=VECTOR('',#281,6.200000000000001);
#283=LINE('',#280,#282);
#284=EDGE_CURVE('',#279,#271,#283,.T.);
#285=ORIENTED_EDGE('',*,*,#284,.F.);
#286=CARTESIAN_POINT('',(2.724999999999999,0.289999999999998,3.000000000000001));
#287=DIRECTION('',(-1.0,0.0,0.0));
#288=VECTOR('',#287,0.890000000000000);
#289=LINE('',#286,#288);
#290=EDGE_CURVE('',#241,#279,#289,.T.);
#291=ORIENTED_EDGE('',*,*,#290,.F.);
#292=ORIENTED_EDGE('',*,*,#246,.T.);
#293=EDGE_LOOP('',(#277,#285,#291,#292));
#294=FACE_OUTER_BOUND('',#293,.T.);
#295=ADVANCED_FACE('',(#294),#269,.T.);
#296=CARTESIAN_POINT('',(1.834999999999999,0.289999999999999,3.000000000000001));
#297=DIRECTION('',(-1.0,0.0,0.0));
#298=DIRECTION('',(0.0,0.0,1.0));
#299=AXIS2_PLACEMENT_3D('',#296,#297,#298);
#300=PLANE('',#299);
#301=CARTESIAN_POINT('',(1.834999999999994,-0.289999999999998,-3.200000000000000));
#302=VERTEX_POINT('',#301);
#303=CARTESIAN_POINT('',(1.834999999999995,0.289999999999999,-3.200000000000000));
#304=DIRECTION('',(0.0,-1.0,0.0));
#305=VECTOR('',#304,0.579999999999997);
#306=LINE('',#303,#305);
#307=EDGE_CURVE('',#271,#302,#306,.T.);
#308=ORIENTED_EDGE('',*,*,#307,.T.);
#309=CARTESIAN_POINT('',(1.834999999999998,-0.289999999999998,3.000000000000001));
#310=VERTEX_POINT('',#309);
#311=CARTESIAN_POINT('',(1.834999999999998,-0.289999999999998,3.000000000000001));
#312=DIRECTION('',(0.0,0.0,-1.0));
#313=VECTOR('',#312,6.200000000000001);
#314=LINE('',#311,#313);
#315=EDGE_CURVE('',#310,#302,#314,.T.);
#316=ORIENTED_EDGE('',*,*,#315,.F.);
#317=CARTESIAN_POINT('',(1.834999999999999,0.289999999999999,3.000000000000001));
#318=DIRECTION('',(0.0,-1.0,0.0));
#319=VECTOR('',#318,0.579999999999997);
#320=LINE('',#317,#319);
#321=EDGE_CURVE('',#279,#310,#320,.T.);
#322=ORIENTED_EDGE('',*,*,#321,.F.);
#323=ORIENTED_EDGE('',*,*,#284,.T.);
#324=EDGE_LOOP('',(#308,#316,#322,#323));
#325=FACE_OUTER_BOUND('',#324,.T.);
#326=ADVANCED_FACE('',(#325),#300,.T.);
#327=CARTESIAN_POINT('',(1.834999999999998,-0.289999999999998,3.000000000000001));
#328=DIRECTION('',(0.0,-1.0,0.0));
#329=DIRECTION('',(0.0,0.0,-1.0));
#330=AXIS2_PLACEMENT_3D('',#327,#328,#329);
#331=PLANE('',#330);
#332=CARTESIAN_POINT('',(1.834999999999994,-0.289999999999998,-3.200000000000000));
#333=DIRECTION('',(1.0,0.0,0.0));
#334=VECTOR('',#333,0.890000000000000);
#335=LINE('',#332,#334);
#336=EDGE_CURVE('',#302,#231,#335,.T.);
#337=ORIENTED_EDGE('',*,*,#336,.T.);
#338=ORIENTED_EDGE('',*,*,#260,.F.);
#339=CARTESIAN_POINT('',(1.834999999999998,-0.289999999999998,3.000000000000001));
#340=DIRECTION('',(1.0,0.0,0.0));
#341=VECTOR('',#340,0.890000000000000);
#342=LINE('',#339,#341);
#343=EDGE_CURVE('',#310,#249,#342,.T.);
#344=ORIENTED_EDGE('',*,*,#343,.F.);
#345=ORIENTED_EDGE('',*,*,#315,.T.);
#346=EDGE_LOOP('',(#337,#338,#344,#345));
#347=FACE_OUTER_BOUND('',#346,.T.);
#348=ADVANCED_FACE('',(#347),#331,.T.);
#349=CARTESIAN_POINT('',(2.279999999999995,5.551115E-017,-3.199999999999999));
#350=DIRECTION('',(0.0,0.0,1.0));
#351=DIRECTION('',(1.0,0.0,0.0));
#352=AXIS2_PLACEMENT_3D('',#349,#350,#351);
#353=PLANE('',#352);
#354=ORIENTED_EDGE('',*,*,#238,.F.);
#355=ORIENTED_EDGE('',*,*,#336,.F.);
#356=ORIENTED_EDGE('',*,*,#307,.F.);
#357=ORIENTED_EDGE('',*,*,#276,.F.);
#358=EDGE_LOOP('',(#354,#355,#356,#357));
#359=FACE_OUTER_BOUND('',#358,.T.);
#360=ADVANCED_FACE('',(#359),#353,.F.);
#361=CARTESIAN_POINT('',(2.279999999999999,5.551115E-017,3.000000000000002));
#362=DIRECTION('',(0.0,0.0,1.0));
#363=DIRECTION('',(1.0,0.0,0.0));
#364=AXIS2_PLACEMENT_3D('',#361,#362,#363);
#365=PLANE('',#364);
#366=ORIENTED_EDGE('',*,*,#343,.T.);
#367=ORIENTED_EDGE('',*,*,#254,.T.);
#368=ORIENTED_EDGE('',*,*,#290,.T.);
#369=ORIENTED_EDGE('',*,*,#321,.T.);
#370=EDGE_LOOP('',(#366,#367,#368,#369));
#371=FACE_OUTER_BOUND('',#370,.T.);
#372=ADVANCED_FACE('',(#371),#365,.T.);
#373=CLOSED_SHELL('',(#264,#295,#326,#348,#360,#372));
#374=MANIFOLD_SOLID_BREP('252',#373);
#375=STYLED_ITEM('NONE',(#221),#374);
#376=CARTESIAN_POINT('',(0.444999999999998,-0.289999999999999,3.000000000000000));
#377=DIRECTION('',(1.0,0.0,0.0));
#378=DIRECTION('',(0.0,0.0,-1.0));
#379=AXIS2_PLACEMENT_3D('',#376,#377,#378);
#380=PLANE('',#379);
#381=CARTESIAN_POINT('',(0.444999999999994,-0.289999999999999,-3.200000000000001));
#382=VERTEX_POINT('',#381);
#383=CARTESIAN_POINT('',(0.444999999999995,0.289999999999998,-3.200000000000001));
#384=VERTEX_POINT('',#383);
#385=CARTESIAN_POINT('',(0.444999999999994,-0.289999999999999,-3.200000000000001));
#386=DIRECTION('',(0.0,1.0,0.0));
#387=VECTOR('',#386,0.579999999999997);
#388=LINE('',#385,#387);
#389=EDGE_CURVE('',#382,#384,#388,.T.);
#390=ORIENTED_EDGE('',*,*,#389,.T.);
#391=CARTESIAN_POINT('',(0.444999999999999,0.289999999999998,3.000000000000000));
#392=VERTEX_POINT('',#391);
#393=CARTESIAN_POINT('',(0.444999999999999,0.289999999999998,3.000000000000000));
#394=DIRECTION('',(0.0,0.0,-1.0));
#395=VECTOR('',#394,6.200000000000001);
#396=LINE('',#393,#395);
#397=EDGE_CURVE('',#392,#384,#396,.T.);
#398=ORIENTED_EDGE('',*,*,#397,.F.);
#399=CARTESIAN_POINT('',(0.444999999999998,-0.289999999999999,3.000000000000000));
#400=VERTEX_POINT('',#399);
#401=CARTESIAN_POINT('',(0.444999999999998,-0.289999999999999,3.000000000000000));
#402=DIRECTION('',(0.0,1.0,0.0));
#403=VECTOR('',#402,0.579999999999997);
#404=LINE('',#401,#403);
#405=EDGE_CURVE('',#400,#392,#404,.T.);
#406=ORIENTED_EDGE('',*,*,#405,.F.);
#407=CARTESIAN_POINT('',(0.444999999999998,-0.289999999999999,3.000000000000000));
#408=DIRECTION('',(0.0,0.0,-1.0));
#409=VECTOR('',#408,6.200000000000001);
#410=LINE('',#407,#409);
#411=EDGE_CURVE('',#400,#382,#410,.T.);
#412=ORIENTED_EDGE('',*,*,#411,.T.);
#413=EDGE_LOOP('',(#390,#398,#406,#412));
#414=FACE_OUTER_BOUND('',#413,.T.);
#415=ADVANCED_FACE('',(#414),#380,.T.);
#416=CARTESIAN_POINT('',(0.444999999999999,0.289999999999998,3.000000000000000));
#417=DIRECTION('',(0.0,1.0,0.0));
#418=DIRECTION('',(0.0,0.0,1.0));
#419=AXIS2_PLACEMENT_3D('',#416,#417,#418);
#420=PLANE('',#419);
#421=CARTESIAN_POINT('',(-0.445000000000005,0.289999999999999,-3.200000000000001));
#422=VERTEX_POINT('',#421);
#423=CARTESIAN_POINT('',(0.444999999999995,0.289999999999998,-3.200000000000001));
#424=DIRECTION('',(-1.0,0.0,0.0));
#425=VECTOR('',#424,0.890000000000000);
#426=LINE('',#423,#425);
#427=EDGE_CURVE('',#384,#422,#426,.T.);
#428=ORIENTED_EDGE('',*,*,#427,.T.);
#429=CARTESIAN_POINT('',(-0.445000000000001,0.289999999999999,3.000000000000000));
#430=VERTEX_POINT('',#429);
#431=CARTESIAN_POINT('',(-0.445000000000001,0.289999999999999,3.000000000000000));
#432=DIRECTION('',(0.0,0.0,-1.0));
#433=VECTOR('',#432,6.200000000000001);
#434=LINE('',#431,#433);
#435=EDGE_CURVE('',#430,#422,#434,.T.);
#436=ORIENTED_EDGE('',*,*,#435,.F.);
#437=CARTESIAN_POINT('',(0.444999999999999,0.289999999999998,3.000000000000000));
#438=DIRECTION('',(-1.0,0.0,0.0));
#439=VECTOR('',#438,0.890000000000000);
#440=LINE('',#437,#439);
#441=EDGE_CURVE('',#392,#430,#440,.T.);
#442=ORIENTED_EDGE('',*,*,#441,.F.);
#443=ORIENTED_EDGE('',*,*,#397,.T.);
#444=EDGE_LOOP('',(#428,#436,#442,#443));
#445=FACE_OUTER_BOUND('',#444,.T.);
#446=ADVANCED_FACE('',(#445),#420,.T.);
#447=CARTESIAN_POINT('',(-0.445000000000001,0.289999999999999,3.000000000000000));
#448=DIRECTION('',(-1.0,0.0,0.0));
#449=DIRECTION('',(0.0,0.0,1.0));
#450=AXIS2_PLACEMENT_3D('',#447,#448,#449);
#451=PLANE('',#450);
#452=CARTESIAN_POINT('',(-0.445000000000006,-0.289999999999999,-3.200000000000001));
#453=VERTEX_POINT('',#452);
#454=CARTESIAN_POINT('',(-0.445000000000005,0.289999999999999,-3.200000000000001));
#455=DIRECTION('',(0.0,-1.0,0.0));
#456=VECTOR('',#455,0.579999999999997);
#457=LINE('',#454,#456);
#458=EDGE_CURVE('',#422,#453,#457,.T.);
#459=ORIENTED_EDGE('',*,*,#458,.T.);
#460=CARTESIAN_POINT('',(-0.445000000000002,-0.289999999999999,3.000000000000000));
#461=VERTEX_POINT('',#460);
#462=CARTESIAN_POINT('',(-0.445000000000002,-0.289999999999999,3.000000000000000));
#463=DIRECTION('',(0.0,0.0,-1.0));
#464=VECTOR('',#463,6.200000000000001);
#465=LINE('',#462,#464);
#466=EDGE_CURVE('',#461,#453,#465,.T.);
#467=ORIENTED_EDGE('',*,*,#466,.F.);
#468=CARTESIAN_POINT('',(-0.445000000000001,0.289999999999999,3.000000000000000));
#469=DIRECTION('',(0.0,-1.0,0.0));
#470=VECTOR('',#469,0.579999999999997);
#471=LINE('',#468,#470);
#472=EDGE_CURVE('',#430,#461,#471,.T.);
#473=ORIENTED_EDGE('',*,*,#472,.F.);
#474=ORIENTED_EDGE('',*,*,#435,.T.);
#475=EDGE_LOOP('',(#459,#467,#473,#474));
#476=FACE_OUTER_BOUND('',#475,.T.);
#477=ADVANCED_FACE('',(#476),#451,.T.);
#478=CARTESIAN_POINT('',(-0.445000000000002,-0.289999999999999,3.000000000000000));
#479=DIRECTION('',(0.0,-1.0,0.0));
#480=DIRECTION('',(0.0,0.0,-1.0));
#481=AXIS2_PLACEMENT_3D('',#478,#479,#480);
#482=PLANE('',#481);
#483=CARTESIAN_POINT('',(-0.445000000000006,-0.289999999999999,-3.200000000000001));
#484=DIRECTION('',(1.0,0.0,0.0));
#485=VECTOR('',#484,0.890000000000000);
#486=LINE('',#483,#485);
#487=EDGE_CURVE('',#453,#382,#486,.T.);
#488=ORIENTED_EDGE('',*,*,#487,.T.);
#489=ORIENTED_EDGE('',*,*,#411,.F.);
#490=CARTESIAN_POINT('',(-0.445000000000002,-0.289999999999999,3.000000000000000));
#491=DIRECTION('',(1.0,0.0,0.0));
#492=VECTOR('',#491,0.890000000000000);
#493=LINE('',#490,#492);
#494=EDGE_CURVE('',#461,#400,#493,.T.);
#495=ORIENTED_EDGE('',*,*,#494,.F.);
#496=ORIENTED_EDGE('',*,*,#466,.T.);
#497=EDGE_LOOP('',(#488,#489,#495,#496));
#498=FACE_OUTER_BOUND('',#497,.T.);
#499=ADVANCED_FACE('',(#498),#482,.T.);
#500=CARTESIAN_POINT('',(-5.329071E-015,-4.440892E-016,-3.200000000000000));
#501=DIRECTION('',(0.0,0.0,1.0));
#502=DIRECTION('',(1.0,0.0,0.0));
#503=AXIS2_PLACEMENT_3D('',#500,#501,#502);
#504=PLANE('',#503);
#505=ORIENTED_EDGE('',*,*,#389,.F.);
#506=ORIENTED_EDGE('',*,*,#487,.F.);
#507=ORIENTED_EDGE('',*,*,#458,.F.);
#508=ORIENTED_EDGE('',*,*,#427,.F.);
#509=EDGE_LOOP('',(#505,#506,#507,#508));
#510=FACE_OUTER_BOUND('',#509,.T.);
#511=ADVANCED_FACE('',(#510),#504,.F.);
#512=CARTESIAN_POINT('',(-1.332268E-015,-4.440892E-016,3.000000000000001));
#513=DIRECTION('',(0.0,0.0,1.0));
#514=DIRECTION('',(1.0,0.0,0.0));
#515=AXIS2_PLACEMENT_3D('',#512,#513,#514);
#516=PLANE('',#515);
#517=ORIENTED_EDGE('',*,*,#494,.T.);
#518=ORIENTED_EDGE('',*,*,#405,.T.);
#519=ORIENTED_EDGE('',*,*,#441,.T.);
#520=ORIENTED_EDGE('',*,*,#472,.T.);
#521=EDGE_LOOP('',(#517,#518,#519,#520));
#522=FACE_OUTER_BOUND('',#521,.T.);
#523=ADVANCED_FACE('',(#522),#516,.T.);
#524=CLOSED_SHELL('',(#415,#446,#477,#499,#511,#523));
#525=MANIFOLD_SOLID_BREP('250',#524);
#526=STYLED_ITEM('NONE',(#221),#525);
#527=CARTESIAN_POINT('',(-2.604999999999984,1.290000000000001,4.009999999999991));
#528=DIRECTION('',(-1.0,0.0,0.0));
#529=DIRECTION('',(0.0,0.0,-1.0));
#530=AXIS2_PLACEMENT_3D('',#527,#528,#529);
#531=PLANE('',#530);
#532=CARTESIAN_POINT('',(-2.604999999999984,0.709999999999989,4.009999999999990));
#533=VERTEX_POINT('',#532);
#534=CARTESIAN_POINT('',(-2.604999999999987,0.709999999999987,9.219999999999967));
#535=VERTEX_POINT('',#534);
#536=CARTESIAN_POINT('',(-2.604999999999984,0.709999999999989,4.009999999999990));
#537=DIRECTION('',(0.0,0.0,1.0));
#538=VECTOR('',#537,5.209999999999977);
#539=LINE('',#536,#538);
#540=EDGE_CURVE('',#533,#535,#539,.T.);
#541=ORIENTED_EDGE('',*,*,#540,.T.);
#542=CARTESIAN_POINT('',(-2.604999999999987,1.289999999999999,9.219999999999969));
#543=VERTEX_POINT('',#542);
#544=CARTESIAN_POINT('',(-2.604999999999987,1.289999999999999,9.219999999999969));
#545=DIRECTION('',(0.0,-1.0,0.0));
#546=VECTOR('',#545,0.580000000000012);
#547=LINE('',#544,#546);
#548=EDGE_CURVE('',#543,#535,#547,.T.);
#549=ORIENTED_EDGE('',*,*,#548,.F.);
#550=CARTESIAN_POINT('',(-2.604999999999984,1.290000000000001,4.009999999999991));
#551=VERTEX_POINT('',#550);
#552=CARTESIAN_POINT('',(-2.604999999999984,1.290000000000001,4.009999999999991));
#553=DIRECTION('',(0.0,0.0,1.0));
#554=VECTOR('',#553,5.209999999999978);
#555=LINE('',#552,#554);
#556=EDGE_CURVE('',#551,#543,#555,.T.);
#557=ORIENTED_EDGE('',*,*,#556,.F.);
#558=CARTESIAN_POINT('',(-2.604999999999984,1.290000000000001,4.009999999999991));
#559=DIRECTION('',(0.0,-1.0,0.0));
#560=VECTOR('',#559,0.580000000000012);
#561=LINE('',#558,#560);
#562=EDGE_CURVE('',#551,#533,#561,.T.);
#563=ORIENTED_EDGE('',*,*,#562,.T.);
#564=EDGE_LOOP('',(#541,#549,#557,#563));
#565=FACE_OUTER_BOUND('',#564,.T.);
#566=ADVANCED_FACE('',(#565),#531,.T.);
#567=CARTESIAN_POINT('',(-2.604999999999987,1.289999999999999,9.219999999999969));
#568=DIRECTION('',(0.0,0.0,1.0));
#569=DIRECTION('',(-1.0,0.0,0.0));
#570=AXIS2_PLACEMENT_3D('',#567,#568,#569);
#571=PLANE('',#570);
#572=CARTESIAN_POINT('',(2.605000000000007,0.709999999999982,9.219999999999970));
#573=VERTEX_POINT('',#572);
#574=CARTESIAN_POINT('',(-2.604999999999987,0.709999999999987,9.219999999999967));
#575=DIRECTION('',(1.0,0.0,0.0));
#576=VECTOR('',#575,5.209999999999994);
#577=LINE('',#574,#576);
#578=EDGE_CURVE('',#535,#573,#577,.T.);
#579=ORIENTED_EDGE('',*,*,#578,.T.);
#580=CARTESIAN_POINT('',(2.605000000000006,1.289999999999994,9.219999999999972));
#581=VERTEX_POINT('',#580);
#582=CARTESIAN_POINT('',(2.605000000000006,1.289999999999994,9.219999999999972));
#583=DIRECTION('',(0.0,-1.0,0.0));
#584=VECTOR('',#583,0.580000000000012);
#585=LINE('',#582,#584);
#586=EDGE_CURVE('',#581,#573,#585,.T.);
#587=ORIENTED_EDGE('',*,*,#586,.F.);
#588=CARTESIAN_POINT('',(-2.604999999999987,1.289999999999999,9.219999999999969));
#589=DIRECTION('',(1.0,0.0,0.0));
#590=VECTOR('',#589,5.209999999999994);
#591=LINE('',#588,#590);
#592=EDGE_CURVE('',#543,#581,#591,.T.);
#593=ORIENTED_EDGE('',*,*,#592,.F.);
#594=ORIENTED_EDGE('',*,*,#548,.T.);
#595=EDGE_LOOP('',(#579,#587,#593,#594));
#596=FACE_OUTER_BOUND('',#595,.T.);
#597=ADVANCED_FACE('',(#596),#571,.T.);
#598=CARTESIAN_POINT('',(2.605000000000006,1.289999999999994,9.219999999999972));
#599=DIRECTION('',(1.0,0.0,0.0));
#600=DIRECTION('',(0.0,0.0,1.0));
#601=AXIS2_PLACEMENT_3D('',#598,#599,#600);
#602=PLANE('',#601);
#603=CARTESIAN_POINT('',(2.605000000000009,0.709999999999983,4.009999999999994));
#604=VERTEX_POINT('',#603);
#605=CARTESIAN_POINT('',(2.605000000000007,0.709999999999982,9.219999999999970));
#606=DIRECTION('',(0.0,0.0,-1.0));
#607=VECTOR('',#606,5.209999999999977);
#608=LINE('',#605,#607);
#609=EDGE_CURVE('',#573,#604,#608,.T.);
#610=ORIENTED_EDGE('',*,*,#609,.T.);
#611=CARTESIAN_POINT('',(2.605000000000008,1.289999999999996,4.009999999999993));
#612=VERTEX_POINT('',#611);
#613=CARTESIAN_POINT('',(2.605000000000008,1.289999999999996,4.009999999999993));
#614=DIRECTION('',(0.0,-1.0,0.0));
#615=VECTOR('',#614,0.580000000000013);
#616=LINE('',#613,#615);
#617=EDGE_CURVE('',#612,#604,#616,.T.);
#618=ORIENTED_EDGE('',*,*,#617,.F.);
#619=CARTESIAN_POINT('',(2.605000000000006,1.289999999999994,9.219999999999972));
#620=DIRECTION('',(0.0,0.0,-1.0));
#621=VECTOR('',#620,5.209999999999980);
#622=LINE('',#619,#621);
#623=EDGE_CURVE('',#581,#612,#622,.T.);
#624=ORIENTED_EDGE('',*,*,#623,.F.);
#625=ORIENTED_EDGE('',*,*,#586,.T.);
#626=EDGE_LOOP('',(#610,#618,#624,#625));
#627=FACE_OUTER_BOUND('',#626,.T.);
#628=ADVANCED_FACE('',(#627),#602,.T.);
#629=CARTESIAN_POINT('',(2.605000000000008,1.289999999999996,4.009999999999993));
#630=DIRECTION('',(0.0,0.0,-1.0));
#631=DIRECTION('',(1.0,0.0,0.0));
#632=AXIS2_PLACEMENT_3D('',#629,#630,#631);
#633=PLANE('',#632);
#634=CARTESIAN_POINT('',(2.605000000000009,0.709999999999983,4.009999999999994));
#635=DIRECTION('',(-1.0,0.0,0.0));
#636=VECTOR('',#635,5.209999999999994);
#637=LINE('',#634,#636);
#638=EDGE_CURVE('',#604,#533,#637,.T.);
#639=ORIENTED_EDGE('',*,*,#638,.T.);
#640=ORIENTED_EDGE('',*,*,#562,.F.);
#641=CARTESIAN_POINT('',(2.605000000000008,1.289999999999996,4.009999999999993));
#642=DIRECTION('',(-1.0,0.0,0.0));
#643=VECTOR('',#642,5.209999999999993);
#644=LINE('',#641,#643);
#645=EDGE_CURVE('',#612,#551,#644,.T.);
#646=ORIENTED_EDGE('',*,*,#645,.F.);
#647=ORIENTED_EDGE('',*,*,#617,.T.);
#648=EDGE_LOOP('',(#639,#640,#646,#647));
#649=FACE_OUTER_BOUND('',#648,.T.);
#650=ADVANCED_FACE('',(#649),#633,.T.);
#651=CARTESIAN_POINT('',(1.199041E-014,0.709999999999985,6.614999999999980));
#652=DIRECTION('',(0.0,-1.0,0.0));
#653=DIRECTION('',(1.0,0.0,0.0));
#654=AXIS2_PLACEMENT_3D('',#651,#652,#653);
#655=PLANE('',#654);
#656=ORIENTED_EDGE('',*,*,#540,.F.);
#657=ORIENTED_EDGE('',*,*,#638,.F.);
#658=ORIENTED_EDGE('',*,*,#609,.F.);
#659=ORIENTED_EDGE('',*,*,#578,.F.);
#660=EDGE_LOOP('',(#656,#657,#658,#659));
#661=FACE_OUTER_BOUND('',#660,.T.);
#662=ADVANCED_FACE('',(#661),#655,.T.);
#663=CARTESIAN_POINT('',(1.065814E-014,1.289999999999984,6.614999999999981));
#664=DIRECTION('',(0.0,-1.0,0.0));
#665=DIRECTION('',(1.0,0.0,0.0));
#666=AXIS2_PLACEMENT_3D('',#663,#664,#665);
#667=PLANE('',#666);
#668=ORIENTED_EDGE('',*,*,#645,.T.);
#669=ORIENTED_EDGE('',*,*,#556,.T.);
#670=ORIENTED_EDGE('',*,*,#592,.T.);
#671=ORIENTED_EDGE('',*,*,#623,.T.);
#672=EDGE_LOOP('',(#668,#669,#670,#671));
#673=FACE_OUTER_BOUND('',#672,.T.);
#674=ADVANCED_FACE('',(#673),#667,.F.);
#675=CLOSED_SHELL('',(#566,#597,#628,#650,#662,#674));
#676=MANIFOLD_SOLID_BREP('DD',#675);
#677=STYLED_ITEM('NONE',(#221),#676);
#678=CARTESIAN_POINT('',(-2.330000000000005,1.144999999999989,10.239999999999979));
#679=DIRECTION('',(-0.529998940003180,2.109739E-016,0.847998304005088));
#680=DIRECTION('',(-0.847998304005088,1.059935E-015,-0.529998940003180));
#681=AXIS2_PLACEMENT_3D('',#678,#679,#680);
#682=PLANE('',#681);
#683=CARTESIAN_POINT('',(-2.730000000000005,0.709999999999987,9.989999999999977));
#684=VERTEX_POINT('',#683);
#685=CARTESIAN_POINT('',(-1.930000000000004,0.709999999999986,10.489999999999977));
#686=VERTEX_POINT('',#685);
#687=CARTESIAN_POINT('',(-2.730000000000005,0.709999999999987,9.989999999999977));
#688=DIRECTION('',(0.847998304005088,-9.414672E-016,0.529998940003180));
#689=VECTOR('',#688,0.943398113205661);
#690=LINE('',#687,#689);
#691=EDGE_CURVE('',#684,#686,#690,.T.);
#692=ORIENTED_EDGE('',*,*,#691,.T.);
#693=CARTESIAN_POINT('',(-1.930000000000003,1.289999999999984,10.489999999999981));
#694=VERTEX_POINT('',#693);
#695=CARTESIAN_POINT('',(-1.930000000000004,0.709999999999986,10.489999999999977));
#696=DIRECTION('',(0.0,1.0,0.0));
#697=VECTOR('',#696,0.579999999999998);
#698=LINE('',#695,#697);
#699=EDGE_CURVE('',#686,#694,#698,.T.);
#700=ORIENTED_EDGE('',*,*,#699,.T.);
#701=CARTESIAN_POINT('',(-2.730000000000003,1.289999999999985,9.989999999999979));
#702=VERTEX_POINT('',#701);
#703=CARTESIAN_POINT('',(-1.930000000000003,1.289999999999984,10.489999999999981));
#704=DIRECTION('',(-0.847998304005087,9.414672E-016,-0.529998940003181));
#705=VECTOR('',#704,0.943398113205661);
#706=LINE('',#703,#705);
#707=EDGE_CURVE('',#694,#702,#706,.T.);
#708=ORIENTED_EDGE('',*,*,#707,.T.);
#709=CARTESIAN_POINT('',(-2.730000000000003,1.289999999999985,9.989999999999979));
#710=DIRECTION('',(0.0,-1.0,0.0));
#711=VECTOR('',#710,0.579999999999998);
#712=LINE('',#709,#711);
#713=EDGE_CURVE('',#702,#684,#712,.T.);
#714=ORIENTED_EDGE('',*,*,#713,.T.);
#715=EDGE_LOOP('',(#692,#700,#708,#714));
#716=FACE_OUTER_BOUND('',#715,.T.);
#717=ADVANCED_FACE('',(#716),#682,.T.);
#718=CARTESIAN_POINT('',(2.729999999999996,1.289999999999979,10.489999999999982));
#719=DIRECTION('',(0.0,0.0,1.0));
#720=DIRECTION('',(-1.0,0.0,0.0));
#721=AXIS2_PLACEMENT_3D('',#718,#719,#720);
#722=PLANE('',#721);
#723=ORIENTED_EDGE('',*,*,#699,.F.);
#724=CARTESIAN_POINT('',(1.929999999999996,0.709999999999982,10.489999999999979));
#725=VERTEX_POINT('',#724);
#726=CARTESIAN_POINT('',(1.929999999999996,0.709999999999982,10.489999999999979));
#727=DIRECTION('',(-1.0,0.0,0.0));
#728=VECTOR('',#727,3.860000000000000);
#729=LINE('',#726,#728);
#730=EDGE_CURVE('',#725,#686,#729,.T.);
#731=ORIENTED_EDGE('',*,*,#730,.F.);
#732=CARTESIAN_POINT('',(1.929999999999996,1.289999999999980,10.489999999999982));
#733=VERTEX_POINT('',#732);
#734=CARTESIAN_POINT('',(1.929999999999996,1.289999999999980,10.489999999999982));
#735=DIRECTION('',(0.0,-1.0,0.0));
#736=VECTOR('',#735,0.579999999999998);
#737=LINE('',#734,#736);
#738=EDGE_CURVE('',#733,#725,#737,.T.);
#739=ORIENTED_EDGE('',*,*,#738,.F.);
#740=CARTESIAN_POINT('',(1.929999999999996,1.289999999999980,10.489999999999982));
#741=DIRECTION('',(-1.0,0.0,0.0));
#742=VECTOR('',#741,3.859999999999999);
#743=LINE('',#740,#742);
#744=EDGE_CURVE('',#733,#694,#743,.T.);
#745=ORIENTED_EDGE('',*,*,#744,.T.);
#746=EDGE_LOOP('',(#723,#731,#739,#745));
#747=FACE_OUTER_BOUND('',#746,.T.);
#748=ADVANCED_FACE('',(#747),#722,.T.);
#749=CARTESIAN_POINT('',(2.729999999999996,0.709999999999981,10.489999999999981));
#750=DIRECTION('',(0.0,-1.0,0.0));
#751=DIRECTION('',(1.0,0.0,0.0));
#752=AXIS2_PLACEMENT_3D('',#749,#750,#751);
#753=PLANE('',#752);
#754=ORIENTED_EDGE('',*,*,#691,.F.);
#755=CARTESIAN_POINT('',(-2.730000000000004,0.709999999999987,9.219999999999967));
#756=VERTEX_POINT('',#755);
#757=CARTESIAN_POINT('',(-2.730000000000005,0.709999999999987,9.989999999999977));
#758=DIRECTION('',(0.0,0.0,-1.0));
#759=VECTOR('',#758,0.770000000000010);
#760=LINE('',#757,#759);
#761=EDGE_CURVE('',#684,#756,#760,.T.);
#762=ORIENTED_EDGE('',*,*,#761,.T.);
#763=CARTESIAN_POINT('',(2.729999999999996,0.709999999999982,9.219999999999970));
#764=VERTEX_POINT('',#763);
#765=CARTESIAN_POINT('',(2.729999999999996,0.709999999999982,9.219999999999970));
#766=DIRECTION('',(-1.0,0.0,0.0));
#767=VECTOR('',#766,5.460000000000001);
#768=LINE('',#765,#767);
#769=EDGE_CURVE('',#764,#756,#768,.T.);
#770=ORIENTED_EDGE('',*,*,#769,.F.);
#771=CARTESIAN_POINT('',(2.729999999999996,0.709999999999981,9.989999999999981));
#772=VERTEX_POINT('',#771);
#773=CARTESIAN_POINT('',(2.729999999999996,0.709999999999982,9.219999999999970));
#774=DIRECTION('',(0.0,0.0,1.0));
#775=VECTOR('',#774,0.770000000000010);
#776=LINE('',#773,#775);
#777=EDGE_CURVE('',#764,#772,#776,.T.);
#778=ORIENTED_EDGE('',*,*,#777,.T.);
#779=CARTESIAN_POINT('',(1.929999999999996,0.709999999999982,10.489999999999979));
#780=DIRECTION('',(0.847998304005089,-8.237838E-016,-0.529998940003178));
#781=VECTOR('',#780,0.943398113205660);
#782=LINE('',#779,#781);
#783=EDGE_CURVE('',#725,#772,#782,.T.);
#784=ORIENTED_EDGE('',*,*,#783,.F.);
#785=ORIENTED_EDGE('',*,*,#730,.T.);
#786=EDGE_LOOP('',(#754,#762,#770,#778,#784,#785));
#787=FACE_OUTER_BOUND('',#786,.T.);
#788=ADVANCED_FACE('',(#787),#753,.T.);
#789=CARTESIAN_POINT('',(2.329999999999997,1.144999999999984,10.239999999999982));
#790=DIRECTION('',(0.529998940003180,-8.603013E-016,0.847998304005088));
#791=DIRECTION('',(-0.847998304005088,6.541054E-016,0.529998940003180));
#792=AXIS2_PLACEMENT_3D('',#789,#790,#791);
#793=PLANE('',#792);
#794=CARTESIAN_POINT('',(2.729999999999996,1.289999999999980,9.989999999999982));
#795=VERTEX_POINT('',#794);
#796=CARTESIAN_POINT('',(2.729999999999996,1.289999999999980,9.989999999999982));
#797=DIRECTION('',(-0.847998304005088,4.707336E-016,0.529998940003180));
#798=VECTOR('',#797,0.943398113205661);
#799=LINE('',#796,#798);
#800=EDGE_CURVE('',#795,#733,#799,.T.);
#801=ORIENTED_EDGE('',*,*,#800,.T.);
#802=ORIENTED_EDGE('',*,*,#738,.T.);
#803=ORIENTED_EDGE('',*,*,#783,.T.);
#804=CARTESIAN_POINT('',(2.729999999999996,0.709999999999981,9.989999999999981));
#805=DIRECTION('',(0.0,1.0,0.0));
#806=VECTOR('',#805,0.579999999999998);
#807=LINE('',#804,#806);
#808=EDGE_CURVE('',#772,#795,#807,.T.);
#809=ORIENTED_EDGE('',*,*,#808,.T.);
#810=EDGE_LOOP('',(#801,#802,#803,#809));
#811=FACE_OUTER_BOUND('',#810,.T.);
#812=ADVANCED_FACE('',(#811),#793,.T.);
#813=CARTESIAN_POINT('',(2.729999999999996,0.709999999999982,9.219999999999970));
#814=DIRECTION('',(0.0,0.0,-1.0));
#815=DIRECTION('',(1.0,0.0,0.0));
#816=AXIS2_PLACEMENT_3D('',#813,#814,#815);
#817=PLANE('',#816);
#818=CARTESIAN_POINT('',(-2.730000000000003,1.289999999999985,9.219999999999969));
#819=VERTEX_POINT('',#818);
#820=CARTESIAN_POINT('',(-2.730000000000004,0.709999999999987,9.219999999999967));
#821=DIRECTION('',(0.0,1.0,0.0));
#822=VECTOR('',#821,0.579999999999998);
#823=LINE('',#820,#822);
#824=EDGE_CURVE('',#756,#819,#823,.T.);
#825=ORIENTED_EDGE('',*,*,#824,.T.);
#826=CARTESIAN_POINT('',(2.729999999999997,1.289999999999980,9.219999999999972));
#827=VERTEX_POINT('',#826);
#828=CARTESIAN_POINT('',(2.729999999999997,1.289999999999980,9.219999999999972));
#829=DIRECTION('',(-1.0,0.0,0.0));
#830=VECTOR('',#829,5.460000000000000);
#831=LINE('',#828,#830);
#832=EDGE_CURVE('',#827,#819,#831,.T.);
#833=ORIENTED_EDGE('',*,*,#832,.F.);
#834=CARTESIAN_POINT('',(2.729999999999997,1.289999999999980,9.219999999999972));
#835=DIRECTION('',(0.0,-1.0,0.0));
#836=VECTOR('',#835,0.579999999999998);
#837=LINE('',#834,#836);
#838=EDGE_CURVE('',#827,#764,#837,.T.);
#839=ORIENTED_EDGE('',*,*,#838,.T.);
#840=ORIENTED_EDGE('',*,*,#769,.T.);
#841=EDGE_LOOP('',(#825,#833,#839,#840));
#842=FACE_OUTER_BOUND('',#841,.T.);
#843=ADVANCED_FACE('',(#842),#817,.T.);
#844=CARTESIAN_POINT('',(2.729999999999997,1.289999999999980,9.219999999999972));
#845=DIRECTION('',(0.0,1.0,0.0));
#846=DIRECTION('',(-1.0,0.0,0.0));
#847=AXIS2_PLACEMENT_3D('',#844,#845,#846);
#848=PLANE('',#847);
#849=ORIENTED_EDGE('',*,*,#707,.F.);
#850=ORIENTED_EDGE('',*,*,#744,.F.);
#851=ORIENTED_EDGE('',*,*,#800,.F.);
#852=CARTESIAN_POINT('',(2.729999999999996,1.289999999999980,9.989999999999982));
#853=DIRECTION('',(0.0,0.0,-1.0));
#854=VECTOR('',#853,0.770000000000010);
#855=LINE('',#852,#854);
#856=EDGE_CURVE('',#795,#827,#855,.T.);
#857=ORIENTED_EDGE('',*,*,#856,.T.);
#858=ORIENTED_EDGE('',*,*,#832,.T.);
#859=CARTESIAN_POINT('',(-2.730000000000003,1.289999999999985,9.219999999999969));
#860=DIRECTION('',(0.0,0.0,1.0));
#861=VECTOR('',#860,0.770000000000010);
#862=LINE('',#859,#861);
#863=EDGE_CURVE('',#819,#702,#862,.T.);
#864=ORIENTED_EDGE('',*,*,#863,.T.);
#865=EDGE_LOOP('',(#849,#850,#851,#857,#858,#864));
#866=FACE_OUTER_BOUND('',#865,.T.);
#867=ADVANCED_FACE('',(#866),#848,.T.);
#868=CARTESIAN_POINT('',(-2.730000000000003,0.999999999999993,9.854999999999931));
#869=DIRECTION('',(1.0,0.0,0.0));
#870=DIRECTION('',(0.0,0.0,1.0));
#871=AXIS2_PLACEMENT_3D('',#868,#869,#870);
#872=PLANE('',#871);
#873=ORIENTED_EDGE('',*,*,#713,.F.);
#874=ORIENTED_EDGE('',*,*,#863,.F.);
#875=ORIENTED_EDGE('',*,*,#824,.F.);
#876=ORIENTED_EDGE('',*,*,#761,.F.);
#877=EDGE_LOOP('',(#873,#874,#875,#876));
#878=FACE_OUTER_BOUND('',#877,.T.);
#879=ADVANCED_FACE('',(#878),#872,.F.);
#880=CARTESIAN_POINT('',(2.729999999999996,0.999999999999987,9.854999999999935));
#881=DIRECTION('',(1.0,0.0,0.0));
#882=DIRECTION('',(0.0,0.0,1.0));
#883=AXIS2_PLACEMENT_3D('',#880,#881,#882);
#884=PLANE('',#883);
#885=ORIENTED_EDGE('',*,*,#808,.F.);
#886=ORIENTED_EDGE('',*,*,#777,.F.);
#887=ORIENTED_EDGE('',*,*,#838,.F.);
#888=ORIENTED_EDGE('',*,*,#856,.F.);
#889=EDGE_LOOP('',(#885,#886,#887,#888));
#890=FACE_OUTER_BOUND('',#889,.T.);
#891=ADVANCED_FACE('',(#890),#884,.T.);
#892=CLOSED_SHELL('',(#717,#748,#788,#812,#843,#867,#879,#891));
#893=MANIFOLD_SOLID_BREP('C8',#892);
#894=STYLED_ITEM('NONE',(#221),#893);
#895=CARTESIAN_POINT('',(-2.604999999999984,1.290000000000001,4.009999999999991));
#896=DIRECTION('',(-1.0,0.0,0.0));
#897=DIRECTION('',(0.0,0.0,-1.0));
#898=AXIS2_PLACEMENT_3D('',#895,#896,#897);
#899=PLANE('',#898);
#900=CARTESIAN_POINT('',(-2.604999999999984,0.709999999999989,4.009999999999990));
#901=VERTEX_POINT('',#900);
#902=CARTESIAN_POINT('',(-2.604999999999987,0.709999999999987,9.219999999999967));
#903=VERTEX_POINT('',#902);
#904=CARTESIAN_POINT('',(-2.604999999999984,0.709999999999989,4.009999999999990));
#905=DIRECTION('',(0.0,0.0,1.0));
#906=VECTOR('',#905,5.209999999999977);
#907=LINE('',#904,#906);
#908=EDGE_CURVE('',#901,#903,#907,.T.);
#909=ORIENTED_EDGE('',*,*,#908,.F.);
#910=CARTESIAN_POINT('',(-2.604999999999984,1.290000000000001,4.009999999999991));
#911=VERTEX_POINT('',#910);
#912=CARTESIAN_POINT('',(-2.604999999999984,1.290000000000001,4.009999999999991));
#913=DIRECTION('',(0.0,-1.0,0.0));
#914=VECTOR('',#913,0.580000000000012);
#915=LINE('',#912,#914);
#916=EDGE_CURVE('',#911,#901,#915,.T.);
#917=ORIENTED_EDGE('',*,*,#916,.F.);
#918=CARTESIAN_POINT('',(-2.604999999999987,1.289999999999999,9.219999999999969));
#919=VERTEX_POINT('',#918);
#920=CARTESIAN_POINT('',(-2.604999999999987,1.289999999999999,9.219999999999969));
#921=DIRECTION('',(0.0,0.0,-1.0));
#922=VECTOR('',#921,5.209999999999978);
#923=LINE('',#920,#922);
#924=EDGE_CURVE('',#919,#911,#923,.T.);
#925=ORIENTED_EDGE('',*,*,#924,.F.);
#926=CARTESIAN_POINT('',(-2.604999999999987,0.709999999999987,9.219999999999967));
#927=DIRECTION('',(0.0,1.0,0.0));
#928=VECTOR('',#927,0.580000000000012);
#929=LINE('',#926,#928);
#930=EDGE_CURVE('',#903,#919,#929,.T.);
#931=ORIENTED_EDGE('',*,*,#930,.F.);
#932=EDGE_LOOP('',(#909,#917,#925,#931));
#933=FACE_OUTER_BOUND('',#932,.T.);
#934=ADVANCED_FACE('',(#933),#899,.F.);
#935=CARTESIAN_POINT('',(2.605000000000006,1.289999999999994,9.219999999999972));
#936=DIRECTION('',(1.0,0.0,0.0));
#937=DIRECTION('',(0.0,0.0,1.0));
#938=AXIS2_PLACEMENT_3D('',#935,#936,#937);
#939=PLANE('',#938);
#940=CARTESIAN_POINT('',(2.605000000000007,0.709999999999982,9.219999999999970));
#941=VERTEX_POINT('',#940);
#942=CARTESIAN_POINT('',(2.605000000000009,0.709999999999983,4.009999999999994));
#943=VERTEX_POINT('',#942);
#944=CARTESIAN_POINT('',(2.605000000000007,0.709999999999982,9.219999999999970));
#945=DIRECTION('',(0.0,0.0,-1.0));
#946=VECTOR('',#945,5.209999999999977);
#947=LINE('',#944,#946);
#948=EDGE_CURVE('',#941,#943,#947,.T.);
#949=ORIENTED_EDGE('',*,*,#948,.F.);
#950=CARTESIAN_POINT('',(2.605000000000006,1.289999999999994,9.219999999999972));
#951=VERTEX_POINT('',#950);
#952=CARTESIAN_POINT('',(2.605000000000006,1.289999999999994,9.219999999999972));
#953=DIRECTION('',(0.0,-1.0,0.0));
#954=VECTOR('',#953,0.580000000000012);
#955=LINE('',#952,#954);
#956=EDGE_CURVE('',#951,#941,#955,.T.);
#957=ORIENTED_EDGE('',*,*,#956,.F.);
#958=CARTESIAN_POINT('',(2.605000000000008,1.289999999999996,4.009999999999993));
#959=VERTEX_POINT('',#958);
#960=CARTESIAN_POINT('',(2.605000000000008,1.289999999999996,4.009999999999993));
#961=DIRECTION('',(0.0,0.0,1.0));
#962=VECTOR('',#961,5.209999999999980);
#963=LINE('',#960,#962);
#964=EDGE_CURVE('',#959,#951,#963,.T.);
#965=ORIENTED_EDGE('',*,*,#964,.F.);
#966=CARTESIAN_POINT('',(2.605000000000008,1.289999999999996,4.009999999999993));
#967=DIRECTION('',(0.0,-1.0,0.0));
#968=VECTOR('',#967,0.580000000000013);
#969=LINE('',#966,#968);
#970=EDGE_CURVE('',#959,#943,#969,.T.);
#971=ORIENTED_EDGE('',*,*,#970,.T.);
#972=EDGE_LOOP('',(#949,#957,#965,#971));
#973=FACE_OUTER_BOUND('',#972,.T.);
#974=ADVANCED_FACE('',(#973),#939,.F.);
#975=CARTESIAN_POINT('',(2.605000000000008,1.289999999999996,4.009999999999993));
#976=DIRECTION('',(0.0,0.0,-1.0));
#977=DIRECTION('',(1.0,0.0,0.0));
#978=AXIS2_PLACEMENT_3D('',#975,#976,#977);
#979=PLANE('',#978);
#980=CARTESIAN_POINT('',(2.605000000000009,0.709999999999983,4.009999999999994));
#981=DIRECTION('',(-1.0,0.0,0.0));
#982=VECTOR('',#981,5.209999999999994);
#983=LINE('',#980,#982);
#984=EDGE_CURVE('',#943,#901,#983,.T.);
#985=ORIENTED_EDGE('',*,*,#984,.F.);
#986=ORIENTED_EDGE('',*,*,#970,.F.);
#987=CARTESIAN_POINT('',(-2.604999999999984,1.290000000000001,4.009999999999991));
#988=DIRECTION('',(1.0,0.0,0.0));
#989=VECTOR('',#988,5.209999999999993);
#990=LINE('',#987,#989);
#991=EDGE_CURVE('',#911,#959,#990,.T.);
#992=ORIENTED_EDGE('',*,*,#991,.F.);
#993=ORIENTED_EDGE('',*,*,#916,.T.);
#994=EDGE_LOOP('',(#985,#986,#992,#993));
#995=FACE_OUTER_BOUND('',#994,.T.);
#996=ADVANCED_FACE('',(#995),#979,.F.);
#997=CARTESIAN_POINT('',(1.199041E-014,0.709999999999985,6.614999999999980));
#998=DIRECTION('',(0.0,-1.0,0.0));
#999=DIRECTION('',(1.0,0.0,0.0));
#1000=AXIS2_PLACEMENT_3D('',#997,#998,#999);
#1001=PLANE('',#1000);
#1002=ORIENTED_EDGE('',*,*,#908,.T.);
#1003=CARTESIAN_POINT('',(2.605000000000007,0.709999999999982,9.219999999999970));
#1004=DIRECTION('',(-1.0,0.0,0.0));
#1005=VECTOR('',#1004,5.209999999999994);
#1006=LINE('',#1003,#1005);
#1007=EDGE_CURVE('',#941,#903,#1006,.T.);
#1008=ORIENTED_EDGE('',*,*,#1007,.F.);
#1009=ORIENTED_EDGE('',*,*,#948,.T.);
#1010=ORIENTED_EDGE('',*,*,#984,.T.);
#1011=EDGE_LOOP('',(#1002,#1008,#1009,#1010));
#1012=FACE_OUTER_BOUND('',#1011,.T.);
#1013=ADVANCED_FACE('',(#1012),#1001,.F.);
#1014=CARTESIAN_POINT('',(3.364999999999997,1.289999999999979,9.219999999999974));
#1015=DIRECTION('',(0.0,0.0,1.0));
#1016=DIRECTION('',(-1.0,0.0,0.0));
#1017=AXIS2_PLACEMENT_3D('',#1014,#1015,#1016);
#1018=PLANE('',#1017);
#1019=ORIENTED_EDGE('',*,*,#930,.T.);
#1020=CARTESIAN_POINT('',(-3.365000000000003,1.289999999999986,9.219999999999969));
#1021=VERTEX_POINT('',#1020);
#1022=CARTESIAN_POINT('',(-2.604999999999987,1.289999999999999,9.219999999999969));
#1023=DIRECTION('',(-1.0,0.0,0.0));
#1024=VECTOR('',#1023,0.760000000000016);
#1025=LINE('',#1022,#1024);
#1026=EDGE_CURVE('',#919,#1021,#1025,.T.);
#1027=ORIENTED_EDGE('',*,*,#1026,.T.);
#1028=CARTESIAN_POINT('',(-3.365000000000004,0.709999999999988,9.219999999999937));
#1029=VERTEX_POINT('',#1028);
#1030=CARTESIAN_POINT('',(-3.365000000000003,1.289999999999986,9.219999999999969));
#1031=DIRECTION('',(0.0,-1.0,0.0));
#1032=VECTOR('',#1031,0.579999999999998);
#1033=LINE('',#1030,#1032);
#1034=EDGE_CURVE('',#1021,#1029,#1033,.T.);
#1035=ORIENTED_EDGE('',*,*,#1034,.T.);
#1036=CARTESIAN_POINT('',(-2.604999999999987,0.709999999999987,9.219999999999967));
#1037=DIRECTION('',(-1.0,0.0,0.0));
#1038=VECTOR('',#1037,0.760000000000017);
#1039=LINE('',#1036,#1038);
#1040=EDGE_CURVE('',#903,#1029,#1039,.T.);
#1041=ORIENTED_EDGE('',*,*,#1040,.F.);
#1042=EDGE_LOOP('',(#1019,#1027,#1035,#1041));
#1043=FACE_OUTER_BOUND('',#1042,.T.);
#1044=ADVANCED_FACE('',(#1043),#1018,.T.);
#1045=CARTESIAN_POINT('',(3.364999999999998,-0.290000000000002,3.000000000000002));
#1046=DIRECTION('',(0.0,0.0,-1.0));
#1047=DIRECTION('',(1.0,0.0,0.0));
#1048=AXIS2_PLACEMENT_3D('',#1045,#1046,#1047);
#1049=PLANE('',#1048);
#1050=CARTESIAN_POINT('',(-3.365000000000003,-0.289999999999996,2.999999999999999));
#1051=VERTEX_POINT('',#1050);
#1052=CARTESIAN_POINT('',(-3.365000000000002,0.289999999999988,3.000000000000000));
#1053=VERTEX_POINT('',#1052);
#1054=CARTESIAN_POINT('',(-3.365000000000003,-0.289999999999996,2.999999999999999));
#1055=DIRECTION('',(0.0,1.0,0.0));
#1056=VECTOR('',#1055,0.579999999999984);
#1057=LINE('',#1054,#1056);
#1058=EDGE_CURVE('',#1051,#1053,#1057,.T.);
#1059=ORIENTED_EDGE('',*,*,#1058,.T.);
#1060=CARTESIAN_POINT('',(3.364999999999999,0.289999999999982,3.000000000000002));
#1061=VERTEX_POINT('',#1060);
#1062=CARTESIAN_POINT('',(3.364999999999999,0.289999999999982,3.000000000000002));
#1063=DIRECTION('',(-1.0,0.0,0.0));
#1064=VECTOR('',#1063,6.730000000000001);
#1065=LINE('',#1062,#1064);
#1066=EDGE_CURVE('',#1061,#1053,#1065,.T.);
#1067=ORIENTED_EDGE('',*,*,#1066,.F.);
#1068=CARTESIAN_POINT('',(3.364999999999998,-0.290000000000002,3.000000000000002));
#1069=VERTEX_POINT('',#1068);
#1070=CARTESIAN_POINT('',(3.364999999999998,-0.290000000000002,3.000000000000002));
#1071=DIRECTION('',(0.0,1.0,0.0));
#1072=VECTOR('',#1071,0.579999999999984);
#1073=LINE('',#1070,#1072);
#1074=EDGE_CURVE('',#1069,#1061,#1073,.T.);
#1075=ORIENTED_EDGE('',*,*,#1074,.F.);
#1076=CARTESIAN_POINT('',(3.364999999999998,-0.290000000000002,3.000000000000002));
#1077=DIRECTION('',(-1.0,0.0,0.0));
#1078=VECTOR('',#1077,6.730000000000001);
#1079=LINE('',#1076,#1078);
#1080=EDGE_CURVE('',#1069,#1051,#1079,.T.);
#1081=ORIENTED_EDGE('',*,*,#1080,.T.);
#1082=EDGE_LOOP('',(#1059,#1067,#1075,#1081));
#1083=FACE_OUTER_BOUND('',#1082,.T.);
#1084=ADVANCED_FACE('',(#1083),#1049,.T.);
#1085=CARTESIAN_POINT('',(3.364999999999999,0.289999999999982,3.000000000000002));
#1086=DIRECTION('',(5.639450E-016,0.121869343405100,-0.992546151641328));
#1087=DIRECTION('',(1.0,0.0,0.0));
#1088=AXIS2_PLACEMENT_3D('',#1085,#1086,#1087);
#1089=PLANE('',#1088);
#1090=CARTESIAN_POINT('',(-3.365000000000001,1.290000000000003,3.122784560902857));
#1091=VERTEX_POINT('',#1090);
#1092=CARTESIAN_POINT('',(-3.365000000000002,0.289999999999988,3.000000000000000));
#1093=DIRECTION('',(8.815581E-016,0.992546151641328,0.121869343405100));
#1094=VECTOR('',#1093,1.007509825458857);
#1095=LINE('',#1092,#1094);
#1096=EDGE_CURVE('',#1053,#1091,#1095,.T.);
#1097=ORIENTED_EDGE('',*,*,#1096,.T.);
#1098=CARTESIAN_POINT('',(3.365000000000000,1.289999999999996,3.122784560902860));
#1099=VERTEX_POINT('',#1098);
#1100=CARTESIAN_POINT('',(3.365000000000000,1.289999999999996,3.122784560902860));
#1101=DIRECTION('',(-1.0,0.0,0.0));
#1102=VECTOR('',#1101,6.730000000000000);
#1103=LINE('',#1100,#1102);
#1104=EDGE_CURVE('',#1099,#1091,#1103,.T.);
#1105=ORIENTED_EDGE('',*,*,#1104,.F.);
#1106=CARTESIAN_POINT('',(3.364999999999999,0.289999999999982,3.000000000000002));
#1107=DIRECTION('',(4.407790E-016,0.992546151641328,0.121869343405100));
#1108=VECTOR('',#1107,1.007509825458856);
#1109=LINE('',#1106,#1108);
#1110=EDGE_CURVE('',#1061,#1099,#1109,.T.);
#1111=ORIENTED_EDGE('',*,*,#1110,.F.);
#1112=ORIENTED_EDGE('',*,*,#1066,.T.);
#1113=EDGE_LOOP('',(#1097,#1105,#1111,#1112));
#1114=FACE_OUTER_BOUND('',#1113,.T.);
#1115=ADVANCED_FACE('',(#1114),#1089,.T.);
#1116=CARTESIAN_POINT('',(3.365000000000000,1.289999999999996,3.122784560902860));
#1117=DIRECTION('',(0.0,1.0,0.0));
#1118=DIRECTION('',(-1.0,0.0,0.0));
#1119=AXIS2_PLACEMENT_3D('',#1116,#1117,#1118);
#1120=PLANE('',#1119);
#1121=ORIENTED_EDGE('',*,*,#964,.T.);
#1122=CARTESIAN_POINT('',(3.364999999999997,1.289999999999979,9.219999999999974));
#1123=VERTEX_POINT('',#1122);
#1124=CARTESIAN_POINT('',(3.364999999999997,1.289999999999979,9.219999999999974));
#1125=DIRECTION('',(-1.0,0.0,0.0));
#1126=VECTOR('',#1125,0.759999999999991);
#1127=LINE('',#1124,#1126);
#1128=EDGE_CURVE('',#1123,#951,#1127,.T.);
#1129=ORIENTED_EDGE('',*,*,#1128,.F.);
#1130=CARTESIAN_POINT('',(3.365000000000000,1.289999999999996,3.122784560902860));
#1131=DIRECTION('',(0.0,0.0,1.0));
#1132=VECTOR('',#1131,6.097215439097115);
#1133=LINE('',#1130,#1132);
#1134=EDGE_CURVE('',#1099,#1123,#1133,.T.);
#1135=ORIENTED_EDGE('',*,*,#1134,.F.);
#1136=ORIENTED_EDGE('',*,*,#1104,.T.);
#1137=CARTESIAN_POINT('',(-3.365000000000001,1.290000000000003,3.122784560902857));
#1138=DIRECTION('',(0.0,0.0,1.0));
#1139=VECTOR('',#1138,6.097215439097111);
#1140=LINE('',#1137,#1139);
#1141=EDGE_CURVE('',#1091,#1021,#1140,.T.);
#1142=ORIENTED_EDGE('',*,*,#1141,.T.);
#1143=ORIENTED_EDGE('',*,*,#1026,.F.);
#1144=ORIENTED_EDGE('',*,*,#924,.T.);
#1145=ORIENTED_EDGE('',*,*,#991,.T.);
#1146=EDGE_LOOP('',(#1121,#1129,#1135,#1136,#1142,#1143,#1144,#1145));
#1147=FACE_OUTER_BOUND('',#1146,.T.);
#1148=ADVANCED_FACE('',(#1147),#1120,.T.);
#1149=CARTESIAN_POINT('',(3.364999999999997,1.289999999999979,9.219999999999974));
#1150=DIRECTION('',(0.0,0.0,1.0));
#1151=DIRECTION('',(-1.0,0.0,0.0));
#1152=AXIS2_PLACEMENT_3D('',#1149,#1150,#1151);
#1153=PLANE('',#1152);
#1154=ORIENTED_EDGE('',*,*,#956,.T.);
#1155=CARTESIAN_POINT('',(3.364999999999997,0.709999999999981,9.219999999999942));
#1156=VERTEX_POINT('',#1155);
#1157=CARTESIAN_POINT('',(3.364999999999997,0.709999999999981,9.219999999999942));
#1158=DIRECTION('',(-1.0,0.0,0.0));
#1159=VECTOR('',#1158,0.759999999999990);
#1160=LINE('',#1157,#1159);
#1161=EDGE_CURVE('',#1156,#941,#1160,.T.);
#1162=ORIENTED_EDGE('',*,*,#1161,.F.);
#1163=CARTESIAN_POINT('',(3.364999999999997,1.289999999999979,9.219999999999974));
#1164=DIRECTION('',(0.0,-1.0,0.0));
#1165=VECTOR('',#1164,0.579999999999998);
#1166=LINE('',#1163,#1165);
#1167=EDGE_CURVE('',#1123,#1156,#1166,.T.);
#1168=ORIENTED_EDGE('',*,*,#1167,.F.);
#1169=ORIENTED_EDGE('',*,*,#1128,.T.);
#1170=EDGE_LOOP('',(#1154,#1162,#1168,#1169));
#1171=FACE_OUTER_BOUND('',#1170,.T.);
#1172=ADVANCED_FACE('',(#1171),#1153,.T.);
#1173=CARTESIAN_POINT('',(3.364999999999997,0.709999999999981,9.219999999999942));
#1174=DIRECTION('',(-5.639450E-016,-0.121869343405119,0.992546151641326));
#1175=DIRECTION('',(-1.0,0.0,0.0));
#1176=AXIS2_PLACEMENT_3D('',#1173,#1174,#1175);
#1177=PLANE('',#1176);
#1178=CARTESIAN_POINT('',(-3.365000000000006,-1.089999999999996,8.998987790374768));
#1179=VERTEX_POINT('',#1178);
#1180=CARTESIAN_POINT('',(-3.365000000000004,0.709999999999988,9.219999999999937));
#1181=DIRECTION('',(-1.469263E-015,-0.992546151641326,-0.121869343405116));
#1182=VECTOR('',#1181,1.813517685825904);
#1183=LINE('',#1180,#1182);
#1184=EDGE_CURVE('',#1029,#1179,#1183,.T.);
#1185=ORIENTED_EDGE('',*,*,#1184,.T.);
#1186=CARTESIAN_POINT('',(3.364999999999995,-1.090000000000002,8.998987790374773));
#1187=VERTEX_POINT('',#1186);
#1188=CARTESIAN_POINT('',(3.364999999999995,-1.090000000000002,8.998987790374773));
#1189=DIRECTION('',(-1.0,0.0,0.0));
#1190=VECTOR('',#1189,6.730000000000001);
#1191=LINE('',#1188,#1190);
#1192=EDGE_CURVE('',#1187,#1179,#1191,.T.);
#1193=ORIENTED_EDGE('',*,*,#1192,.F.);
#1194=CARTESIAN_POINT('',(3.364999999999997,0.709999999999981,9.219999999999942));
#1195=DIRECTION('',(-9.795090E-016,-0.992546151641326,-0.121869343405116));
#1196=VECTOR('',#1195,1.813517685825903);
#1197=LINE('',#1194,#1196);
#1198=EDGE_CURVE('',#1156,#1187,#1197,.T.);
#1199=ORIENTED_EDGE('',*,*,#1198,.F.);
#1200=ORIENTED_EDGE('',*,*,#1161,.T.);
#1201=ORIENTED_EDGE('',*,*,#1007,.T.);
#1202=ORIENTED_EDGE('',*,*,#1040,.T.);
#1203=EDGE_LOOP('',(#1185,#1193,#1199,#1200,#1201,#1202));
#1204=FACE_OUTER_BOUND('',#1203,.T.);
#1205=ADVANCED_FACE('',(#1204),#1177,.T.);
#1206=CARTESIAN_POINT('',(3.364999999999995,-1.090000000000002,8.998987790374773));
#1207=DIRECTION('',(0.0,-1.0,0.0));
#1208=DIRECTION('',(1.0,0.0,0.0));
#1209=AXIS2_PLACEMENT_3D('',#1206,#1207,#1208);
#1210=PLANE('',#1209);
#1211=CARTESIAN_POINT('',(-3.365000000000003,-1.090000000000008,3.098227648722341));
#1212=VERTEX_POINT('',#1211);
#1213=CARTESIAN_POINT('',(-3.365000000000006,-1.089999999999996,8.998987790374768));
#1214=DIRECTION('',(0.0,0.0,-1.0));
#1215=VECTOR('',#1214,5.900760141652427);
#1216=LINE('',#1213,#1215);
#1217=EDGE_CURVE('',#1179,#1212,#1216,.T.);
#1218=ORIENTED_EDGE('',*,*,#1217,.T.);
#1219=CARTESIAN_POINT('',(3.364999999999998,-1.090000000000014,3.098227648722344));
#1220=VERTEX_POINT('',#1219);
#1221=CARTESIAN_POINT('',(3.364999999999998,-1.090000000000014,3.098227648722344));
#1222=DIRECTION('',(-1.0,0.0,0.0));
#1223=VECTOR('',#1222,6.730000000000000);
#1224=LINE('',#1221,#1223);
#1225=EDGE_CURVE('',#1220,#1212,#1224,.T.);
#1226=ORIENTED_EDGE('',*,*,#1225,.F.);
#1227=CARTESIAN_POINT('',(3.364999999999995,-1.090000000000002,8.998987790374773));
#1228=DIRECTION('',(0.0,0.0,-1.0));
#1229=VECTOR('',#1228,5.900760141652429);
#1230=LINE('',#1227,#1229);
#1231=EDGE_CURVE('',#1187,#1220,#1230,.T.);
#1232=ORIENTED_EDGE('',*,*,#1231,.F.);
#1233=ORIENTED_EDGE('',*,*,#1192,.T.);
#1234=EDGE_LOOP('',(#1218,#1226,#1232,#1233));
#1235=FACE_OUTER_BOUND('',#1234,.T.);
#1236=ADVANCED_FACE('',(#1235),#1210,.T.);
#1237=CARTESIAN_POINT('',(3.364999999999998,-1.090000000000014,3.098227648722344));
#1238=DIRECTION('',(3.176131E-016,-0.121869343405169,-0.992546151641319));
#1239=DIRECTION('',(1.0,0.0,0.0));
#1240=AXIS2_PLACEMENT_3D('',#1237,#1238,#1239);
#1241=PLANE('',#1240);
#1242=CARTESIAN_POINT('',(-3.365000000000003,-1.090000000000008,3.098227648722341));
#1243=DIRECTION('',(0.0,0.992546151641319,-0.121869343405169));
#1244=VECTOR('',#1243,0.806007860367093);
#1245=LINE('',#1242,#1244);
#1246=EDGE_CURVE('',#1212,#1051,#1245,.T.);
#1247=ORIENTED_EDGE('',*,*,#1246,.T.);
#1248=ORIENTED_EDGE('',*,*,#1080,.F.);
#1249=CARTESIAN_POINT('',(3.364999999999998,-1.090000000000014,3.098227648722344));
#1250=DIRECTION('',(1.101948E-015,0.992546151641320,-0.121869343405168));
#1251=VECTOR('',#1250,0.806007860367093);
#1252=LINE('',#1249,#1251);
#1253=EDGE_CURVE('',#1220,#1069,#1252,.T.);
#1254=ORIENTED_EDGE('',*,*,#1253,.F.);
#1255=ORIENTED_EDGE('',*,*,#1225,.T.);
#1256=EDGE_LOOP('',(#1247,#1248,#1254,#1255));
#1257=FACE_OUTER_BOUND('',#1256,.T.);
#1258=ADVANCED_FACE('',(#1257),#1241,.T.);
#1259=CARTESIAN_POINT('',(-3.365000000000003,0.113720410764069,6.104822494739521));
#1260=DIRECTION('',(1.0,0.0,0.0));
#1261=DIRECTION('',(0.0,0.0,1.0));
#1262=AXIS2_PLACEMENT_3D('',#1259,#1260,#1261);
#1263=PLANE('',#1262);
#1264=ORIENTED_EDGE('',*,*,#1058,.F.);
#1265=ORIENTED_EDGE('',*,*,#1246,.F.);
#1266=ORIENTED_EDGE('',*,*,#1217,.F.);
#1267=ORIENTED_EDGE('',*,*,#1184,.F.);
#1268=ORIENTED_EDGE('',*,*,#1034,.F.);
#1269=ORIENTED_EDGE('',*,*,#1141,.F.);
#1270=ORIENTED_EDGE('',*,*,#1096,.F.);
#1271=EDGE_LOOP('',(#1264,#1265,#1266,#1267,#1268,#1269,#1270));
#1272=FACE_OUTER_BOUND('',#1271,.T.);
#1273=ADVANCED_FACE('',(#1272),#1263,.F.);
#1274=CARTESIAN_POINT('',(3.364999999999998,0.113720410764063,6.104822494739524));
#1275=DIRECTION('',(1.0,0.0,0.0));
#1276=DIRECTION('',(0.0,0.0,1.0));
#1277=AXIS2_PLACEMENT_3D('',#1274,#1275,#1276);
#1278=PLANE('',#1277);
#1279=ORIENTED_EDGE('',*,*,#1253,.T.);
#1280=ORIENTED_EDGE('',*,*,#1074,.T.);
#1281=ORIENTED_EDGE('',*,*,#1110,.T.);
#1282=ORIENTED_EDGE('',*,*,#1134,.T.);
#1283=ORIENTED_EDGE('',*,*,#1167,.T.);
#1284=ORIENTED_EDGE('',*,*,#1198,.T.);
#1285=ORIENTED_EDGE('',*,*,#1231,.T.);
#1286=EDGE_LOOP('',(#1279,#1280,#1281,#1282,#1283,#1284,#1285));
#1287=FACE_OUTER_BOUND('',#1286,.T.);
#1288=ADVANCED_FACE('',(#1287),#1278,.T.);
#1289=CLOSED_SHELL('',(#934,#974,#996,#1013,#1044,#1084,#1115,#1148,#1172,#1205,#1236,#1258,#1273,#1288));
#1290=MANIFOLD_SOLID_BREP('C7',#1289);
#1291=COLOUR_RGB('250',0.330000000000000,0.330000000000000,0.330000000000000);
#1292=SURFACE_STYLE_USAGE(.BOTH.,#1293);
#1293=SURFACE_SIDE_STYLE('NONE',(#1294));
#1294=SURFACE_STYLE_FILL_AREA(#1295);
#1295=FILL_AREA_STYLE('NONE',(#1296));
#1296=FILL_AREA_STYLE_COLOUR('NONE',#1291);
#1297=PRESENTATION_STYLE_ASSIGNMENT((#1292));
#1298=STYLED_ITEM('NONE',(#1297),#1290);
#1299=ADVANCED_BREP_SHAPE_REPRESENTATION('ABSR1',(#214,#374,#525,#676,#893,#1290),#28);
#1300=SHAPE_REPRESENTATION_RELATIONSHIP('SRRPL1','',#1299,#62);
ENDSEC;
END-ISO-10303-21;
