ISO-10303-21;
HEADER;
/* Generated by software containing ST-Developer
 * from STEP Tools, Inc. (www.steptools.com) 
 */

FILE_DESCRIPTION(
/* description */ (''),
/* implementation_level */ '2;1');

FILE_NAME(
/* name */ 'G:\\Applications\\Altium\\CernLib\\StepLib\\TO-5-3.stp',
/* time_stamp */ '2017-05-31T10:37:44+02:00',
/* author */ ('jchouvet'),
/* organization */ (''),
/* preprocessor_version */ 'ST-DEVELOPER v16.1',
/* originating_system */ 'AutoCAD Mechanical',
/* authorisation */ '');

FILE_SCHEMA (('AUTOMOTIVE_DESIGN { 1 0 10303 214 3 1 1 }'));
ENDSEC;

DATA;
#10=MECHANICAL_DESIGN_GEOMETRIC_PRESENTATION_REPRESENTATION('',(#43,#44,
#41,#45,#47,#46,#42),#531);
#11=DIMENSIONAL_EXPONENTS(0.,0.,0.,0.,0.,0.,0.);
#12=(
CONVERSION_BASED_UNIT('degree',#13)
NAMED_UNIT(#11)
PLANE_ANGLE_UNIT()
);
#13=PLANE_ANGLE_MEASURE_WITH_UNIT(PLANE_ANGLE_MEASURE(0.01745329252),#534);
#14=PRESENTATION_LAYER_ASSIGNMENT('2','3D',(#48,#49,#50,#51,#52,#53,#54));
#15=CONICAL_SURFACE('',#342,4.675,0.785398163397448);
#16=LINE('',#485,#26);
#17=LINE('',#487,#27);
#18=LINE('',#489,#28);
#19=LINE('',#490,#29);
#20=LINE('',#493,#30);
#21=LINE('',#495,#31);
#22=LINE('',#496,#32);
#23=LINE('',#499,#33);
#24=LINE('',#501,#34);
#25=LINE('',#502,#35);
#26=VECTOR('',#398,0.921592151169373);
#27=VECTOR('',#399,0.5);
#28=VECTOR('',#400,0.921592151169373);
#29=VECTOR('',#401,0.5);
#30=VECTOR('',#404,0.899999999999997);
#31=VECTOR('',#405,0.899999999999997);
#32=VECTOR('',#406,0.5);
#33=VECTOR('',#409,0.921592151169378);
#34=VECTOR('',#410,0.921592151169378);
#35=VECTOR('',#411,0.5);
#36=TOROIDAL_SURFACE('',#321,3.75,0.5);
#37=TOROIDAL_SURFACE('',#336,4.65,0.05);
#38=TOROIDAL_SURFACE('',#345,4.45,0.2);
#39=SHAPE_REPRESENTATION_RELATIONSHIP('SRR','None',#537,#40);
#40=ADVANCED_BREP_SHAPE_REPRESENTATION('',(#48,#49,#50,#51,#52,#53,#54),
#530);
#41=STYLED_ITEM('',(#547),#48);
#42=STYLED_ITEM('',(#547),#49);
#43=STYLED_ITEM('',(#547),#50);
#44=STYLED_ITEM('',(#548),#51);
#45=STYLED_ITEM('',(#548),#52);
#46=STYLED_ITEM('',(#548),#53);
#47=STYLED_ITEM('',(#548),#54);
#48=MANIFOLD_SOLID_BREP('85E',#298);
#49=MANIFOLD_SOLID_BREP('862',#299);
#50=MANIFOLD_SOLID_BREP('866',#300);
#51=MANIFOLD_SOLID_BREP('86A',#301);
#52=MANIFOLD_SOLID_BREP('884',#302);
#53=MANIFOLD_SOLID_BREP('888',#303);
#54=MANIFOLD_SOLID_BREP('8C0',#304);
#55=PLANE('',#309);
#56=PLANE('',#310);
#57=PLANE('',#314);
#58=PLANE('',#315);
#59=PLANE('',#319);
#60=PLANE('',#320);
#61=PLANE('',#326);
#62=PLANE('',#327);
#63=PLANE('',#328);
#64=PLANE('',#329);
#65=PLANE('',#330);
#66=PLANE('',#334);
#67=PLANE('',#335);
#68=PLANE('',#341);
#69=PLANE('',#344);
#70=PLANE('',#348);
#71=PLANE('',#349);
#72=FACE_BOUND('',#109,.T.);
#73=FACE_BOUND('',#113,.T.);
#74=FACE_BOUND('',#117,.T.);
#75=FACE_BOUND('',#121,.T.);
#76=FACE_BOUND('',#123,.T.);
#77=FACE_BOUND('',#133,.T.);
#78=FACE_BOUND('',#135,.T.);
#79=FACE_BOUND('',#138,.T.);
#80=FACE_BOUND('',#141,.T.);
#81=FACE_OUTER_BOUND('',#108,.T.);
#82=FACE_OUTER_BOUND('',#110,.T.);
#83=FACE_OUTER_BOUND('',#111,.T.);
#84=FACE_OUTER_BOUND('',#112,.T.);
#85=FACE_OUTER_BOUND('',#114,.T.);
#86=FACE_OUTER_BOUND('',#115,.T.);
#87=FACE_OUTER_BOUND('',#116,.T.);
#88=FACE_OUTER_BOUND('',#118,.T.);
#89=FACE_OUTER_BOUND('',#119,.T.);
#90=FACE_OUTER_BOUND('',#120,.T.);
#91=FACE_OUTER_BOUND('',#122,.T.);
#92=FACE_OUTER_BOUND('',#124,.T.);
#93=FACE_OUTER_BOUND('',#125,.T.);
#94=FACE_OUTER_BOUND('',#126,.T.);
#95=FACE_OUTER_BOUND('',#127,.T.);
#96=FACE_OUTER_BOUND('',#128,.T.);
#97=FACE_OUTER_BOUND('',#129,.T.);
#98=FACE_OUTER_BOUND('',#130,.T.);
#99=FACE_OUTER_BOUND('',#131,.T.);
#100=FACE_OUTER_BOUND('',#132,.T.);
#101=FACE_OUTER_BOUND('',#134,.T.);
#102=FACE_OUTER_BOUND('',#136,.T.);
#103=FACE_OUTER_BOUND('',#137,.T.);
#104=FACE_OUTER_BOUND('',#139,.T.);
#105=FACE_OUTER_BOUND('',#140,.T.);
#106=FACE_OUTER_BOUND('',#142,.T.);
#107=FACE_OUTER_BOUND('',#143,.T.);
#108=EDGE_LOOP('',(#211));
#109=EDGE_LOOP('',(#212));
#110=EDGE_LOOP('',(#213));
#111=EDGE_LOOP('',(#214));
#112=EDGE_LOOP('',(#215));
#113=EDGE_LOOP('',(#216));
#114=EDGE_LOOP('',(#217));
#115=EDGE_LOOP('',(#218));
#116=EDGE_LOOP('',(#219));
#117=EDGE_LOOP('',(#220));
#118=EDGE_LOOP('',(#221));
#119=EDGE_LOOP('',(#222));
#120=EDGE_LOOP('',(#223));
#121=EDGE_LOOP('',(#224));
#122=EDGE_LOOP('',(#225));
#123=EDGE_LOOP('',(#226));
#124=EDGE_LOOP('',(#227));
#125=EDGE_LOOP('',(#228));
#126=EDGE_LOOP('',(#229,#230,#231,#232));
#127=EDGE_LOOP('',(#233,#234,#235,#236));
#128=EDGE_LOOP('',(#237,#238,#239,#240));
#129=EDGE_LOOP('',(#241,#242,#243,#244));
#130=EDGE_LOOP('',(#245,#246,#247,#248));
#131=EDGE_LOOP('',(#249,#250,#251,#252));
#132=EDGE_LOOP('',(#253));
#133=EDGE_LOOP('',(#254));
#134=EDGE_LOOP('',(#255));
#135=EDGE_LOOP('',(#256));
#136=EDGE_LOOP('',(#257));
#137=EDGE_LOOP('',(#258));
#138=EDGE_LOOP('',(#259));
#139=EDGE_LOOP('',(#260));
#140=EDGE_LOOP('',(#261));
#141=EDGE_LOOP('',(#262));
#142=EDGE_LOOP('',(#263));
#143=EDGE_LOOP('',(#264));
#144=CIRCLE('',#307,0.245);
#145=CIRCLE('',#308,0.245);
#146=CIRCLE('',#312,0.245);
#147=CIRCLE('',#313,0.245);
#148=CIRCLE('',#317,0.245);
#149=CIRCLE('',#318,0.245);
#150=CIRCLE('',#322,3.75);
#151=CIRCLE('',#323,4.25);
#152=CIRCLE('',#325,4.25);
#153=CIRCLE('',#332,4.7);
#154=CIRCLE('',#333,4.7);
#155=CIRCLE('',#337,4.65);
#156=CIRCLE('',#338,4.7);
#157=CIRCLE('',#340,4.7);
#158=CIRCLE('',#343,4.65);
#159=CIRCLE('',#346,4.45);
#160=CIRCLE('',#347,4.25);
#161=VERTEX_POINT('',#452);
#162=VERTEX_POINT('',#454);
#163=VERTEX_POINT('',#459);
#164=VERTEX_POINT('',#461);
#165=VERTEX_POINT('',#466);
#166=VERTEX_POINT('',#468);
#167=VERTEX_POINT('',#473);
#168=VERTEX_POINT('',#475);
#169=VERTEX_POINT('',#478);
#170=VERTEX_POINT('',#483);
#171=VERTEX_POINT('',#484);
#172=VERTEX_POINT('',#486);
#173=VERTEX_POINT('',#488);
#174=VERTEX_POINT('',#492);
#175=VERTEX_POINT('',#494);
#176=VERTEX_POINT('',#498);
#177=VERTEX_POINT('',#500);
#178=VERTEX_POINT('',#509);
#179=VERTEX_POINT('',#511);
#180=VERTEX_POINT('',#514);
#181=VERTEX_POINT('',#518);
#182=VERTEX_POINT('',#522);
#183=VERTEX_POINT('',#524);
#184=EDGE_CURVE('',#161,#161,#144,.T.);
#185=EDGE_CURVE('',#162,#162,#145,.T.);
#186=EDGE_CURVE('',#163,#163,#146,.T.);
#187=EDGE_CURVE('',#164,#164,#147,.T.);
#188=EDGE_CURVE('',#165,#165,#148,.T.);
#189=EDGE_CURVE('',#166,#166,#149,.T.);
#190=EDGE_CURVE('',#167,#167,#150,.T.);
#191=EDGE_CURVE('',#168,#168,#151,.T.);
#192=EDGE_CURVE('',#169,#169,#152,.T.);
#193=EDGE_CURVE('',#170,#171,#16,.T.);
#194=EDGE_CURVE('',#171,#172,#17,.T.);
#195=EDGE_CURVE('',#173,#172,#18,.T.);
#196=EDGE_CURVE('',#170,#173,#19,.T.);
#197=EDGE_CURVE('',#174,#170,#20,.T.);
#198=EDGE_CURVE('',#175,#173,#21,.T.);
#199=EDGE_CURVE('',#174,#175,#22,.T.);
#200=EDGE_CURVE('',#176,#174,#23,.T.);
#201=EDGE_CURVE('',#177,#175,#24,.T.);
#202=EDGE_CURVE('',#176,#177,#25,.T.);
#203=EDGE_CURVE('',#171,#176,#153,.T.);
#204=EDGE_CURVE('',#172,#177,#154,.T.);
#205=EDGE_CURVE('',#178,#178,#155,.T.);
#206=EDGE_CURVE('',#179,#179,#156,.T.);
#207=EDGE_CURVE('',#180,#180,#157,.T.);
#208=EDGE_CURVE('',#181,#181,#158,.T.);
#209=EDGE_CURVE('',#182,#182,#159,.T.);
#210=EDGE_CURVE('',#183,#183,#160,.T.);
#211=ORIENTED_EDGE('',*,*,#184,.F.);
#212=ORIENTED_EDGE('',*,*,#185,.F.);
#213=ORIENTED_EDGE('',*,*,#185,.T.);
#214=ORIENTED_EDGE('',*,*,#184,.T.);
#215=ORIENTED_EDGE('',*,*,#186,.F.);
#216=ORIENTED_EDGE('',*,*,#187,.F.);
#217=ORIENTED_EDGE('',*,*,#187,.T.);
#218=ORIENTED_EDGE('',*,*,#186,.T.);
#219=ORIENTED_EDGE('',*,*,#188,.F.);
#220=ORIENTED_EDGE('',*,*,#189,.F.);
#221=ORIENTED_EDGE('',*,*,#189,.T.);
#222=ORIENTED_EDGE('',*,*,#188,.T.);
#223=ORIENTED_EDGE('',*,*,#190,.T.);
#224=ORIENTED_EDGE('',*,*,#191,.T.);
#225=ORIENTED_EDGE('',*,*,#192,.T.);
#226=ORIENTED_EDGE('',*,*,#191,.F.);
#227=ORIENTED_EDGE('',*,*,#190,.F.);
#228=ORIENTED_EDGE('',*,*,#192,.F.);
#229=ORIENTED_EDGE('',*,*,#193,.T.);
#230=ORIENTED_EDGE('',*,*,#194,.T.);
#231=ORIENTED_EDGE('',*,*,#195,.F.);
#232=ORIENTED_EDGE('',*,*,#196,.F.);
#233=ORIENTED_EDGE('',*,*,#197,.T.);
#234=ORIENTED_EDGE('',*,*,#196,.T.);
#235=ORIENTED_EDGE('',*,*,#198,.F.);
#236=ORIENTED_EDGE('',*,*,#199,.F.);
#237=ORIENTED_EDGE('',*,*,#200,.T.);
#238=ORIENTED_EDGE('',*,*,#199,.T.);
#239=ORIENTED_EDGE('',*,*,#201,.F.);
#240=ORIENTED_EDGE('',*,*,#202,.F.);
#241=ORIENTED_EDGE('',*,*,#203,.T.);
#242=ORIENTED_EDGE('',*,*,#202,.T.);
#243=ORIENTED_EDGE('',*,*,#204,.F.);
#244=ORIENTED_EDGE('',*,*,#194,.F.);
#245=ORIENTED_EDGE('',*,*,#204,.T.);
#246=ORIENTED_EDGE('',*,*,#201,.T.);
#247=ORIENTED_EDGE('',*,*,#198,.T.);
#248=ORIENTED_EDGE('',*,*,#195,.T.);
#249=ORIENTED_EDGE('',*,*,#203,.F.);
#250=ORIENTED_EDGE('',*,*,#193,.F.);
#251=ORIENTED_EDGE('',*,*,#197,.F.);
#252=ORIENTED_EDGE('',*,*,#200,.F.);
#253=ORIENTED_EDGE('',*,*,#205,.T.);
#254=ORIENTED_EDGE('',*,*,#206,.T.);
#255=ORIENTED_EDGE('',*,*,#207,.F.);
#256=ORIENTED_EDGE('',*,*,#206,.F.);
#257=ORIENTED_EDGE('',*,*,#205,.F.);
#258=ORIENTED_EDGE('',*,*,#208,.T.);
#259=ORIENTED_EDGE('',*,*,#207,.T.);
#260=ORIENTED_EDGE('',*,*,#208,.F.);
#261=ORIENTED_EDGE('',*,*,#209,.T.);
#262=ORIENTED_EDGE('',*,*,#210,.F.);
#263=ORIENTED_EDGE('',*,*,#210,.T.);
#264=ORIENTED_EDGE('',*,*,#209,.F.);
#265=CYLINDRICAL_SURFACE('',#306,0.245);
#266=CYLINDRICAL_SURFACE('',#311,0.245);
#267=CYLINDRICAL_SURFACE('',#316,0.245);
#268=CYLINDRICAL_SURFACE('',#324,4.25);
#269=CYLINDRICAL_SURFACE('',#331,4.7);
#270=CYLINDRICAL_SURFACE('',#339,4.7);
#271=ADVANCED_FACE('',(#81,#72),#265,.T.);
#272=ADVANCED_FACE('',(#82),#55,.T.);
#273=ADVANCED_FACE('',(#83),#56,.F.);
#274=ADVANCED_FACE('',(#84,#73),#266,.T.);
#275=ADVANCED_FACE('',(#85),#57,.T.);
#276=ADVANCED_FACE('',(#86),#58,.F.);
#277=ADVANCED_FACE('',(#87,#74),#267,.T.);
#278=ADVANCED_FACE('',(#88),#59,.T.);
#279=ADVANCED_FACE('',(#89),#60,.F.);
#280=ADVANCED_FACE('',(#90,#75),#36,.T.);
#281=ADVANCED_FACE('',(#91,#76),#268,.T.);
#282=ADVANCED_FACE('',(#92),#61,.T.);
#283=ADVANCED_FACE('',(#93),#62,.F.);
#284=ADVANCED_FACE('',(#94),#63,.T.);
#285=ADVANCED_FACE('',(#95),#64,.T.);
#286=ADVANCED_FACE('',(#96),#65,.T.);
#287=ADVANCED_FACE('',(#97),#269,.T.);
#288=ADVANCED_FACE('',(#98),#66,.T.);
#289=ADVANCED_FACE('',(#99),#67,.F.);
#290=ADVANCED_FACE('',(#100,#77),#37,.T.);
#291=ADVANCED_FACE('',(#101,#78),#270,.T.);
#292=ADVANCED_FACE('',(#102),#68,.T.);
#293=ADVANCED_FACE('',(#103,#79),#15,.T.);
#294=ADVANCED_FACE('',(#104),#69,.F.);
#295=ADVANCED_FACE('',(#105,#80),#38,.F.);
#296=ADVANCED_FACE('',(#106),#70,.F.);
#297=ADVANCED_FACE('',(#107),#71,.T.);
#298=CLOSED_SHELL('',(#271,#272,#273));
#299=CLOSED_SHELL('',(#274,#275,#276));
#300=CLOSED_SHELL('',(#277,#278,#279));
#301=CLOSED_SHELL('',(#280,#281,#282,#283));
#302=CLOSED_SHELL('',(#284,#285,#286,#287,#288,#289));
#303=CLOSED_SHELL('',(#290,#291,#292,#293,#294));
#304=CLOSED_SHELL('',(#295,#296,#297));
#305=AXIS2_PLACEMENT_3D('placement',#450,#350,#351);
#306=AXIS2_PLACEMENT_3D('',#451,#352,#353);
#307=AXIS2_PLACEMENT_3D('',#453,#354,#355);
#308=AXIS2_PLACEMENT_3D('',#455,#356,#357);
#309=AXIS2_PLACEMENT_3D('',#456,#358,#359);
#310=AXIS2_PLACEMENT_3D('',#457,#360,#361);
#311=AXIS2_PLACEMENT_3D('',#458,#362,#363);
#312=AXIS2_PLACEMENT_3D('',#460,#364,#365);
#313=AXIS2_PLACEMENT_3D('',#462,#366,#367);
#314=AXIS2_PLACEMENT_3D('',#463,#368,#369);
#315=AXIS2_PLACEMENT_3D('',#464,#370,#371);
#316=AXIS2_PLACEMENT_3D('',#465,#372,#373);
#317=AXIS2_PLACEMENT_3D('',#467,#374,#375);
#318=AXIS2_PLACEMENT_3D('',#469,#376,#377);
#319=AXIS2_PLACEMENT_3D('',#470,#378,#379);
#320=AXIS2_PLACEMENT_3D('',#471,#380,#381);
#321=AXIS2_PLACEMENT_3D('',#472,#382,#383);
#322=AXIS2_PLACEMENT_3D('',#474,#384,#385);
#323=AXIS2_PLACEMENT_3D('',#476,#386,#387);
#324=AXIS2_PLACEMENT_3D('',#477,#388,#389);
#325=AXIS2_PLACEMENT_3D('',#479,#390,#391);
#326=AXIS2_PLACEMENT_3D('',#480,#392,#393);
#327=AXIS2_PLACEMENT_3D('',#481,#394,#395);
#328=AXIS2_PLACEMENT_3D('',#482,#396,#397);
#329=AXIS2_PLACEMENT_3D('',#491,#402,#403);
#330=AXIS2_PLACEMENT_3D('',#497,#407,#408);
#331=AXIS2_PLACEMENT_3D('',#503,#412,#413);
#332=AXIS2_PLACEMENT_3D('',#504,#414,#415);
#333=AXIS2_PLACEMENT_3D('',#505,#416,#417);
#334=AXIS2_PLACEMENT_3D('',#506,#418,#419);
#335=AXIS2_PLACEMENT_3D('',#507,#420,#421);
#336=AXIS2_PLACEMENT_3D('',#508,#422,#423);
#337=AXIS2_PLACEMENT_3D('',#510,#424,#425);
#338=AXIS2_PLACEMENT_3D('',#512,#426,#427);
#339=AXIS2_PLACEMENT_3D('',#513,#428,#429);
#340=AXIS2_PLACEMENT_3D('',#515,#430,#431);
#341=AXIS2_PLACEMENT_3D('',#516,#432,#433);
#342=AXIS2_PLACEMENT_3D('',#517,#434,#435);
#343=AXIS2_PLACEMENT_3D('',#519,#436,#437);
#344=AXIS2_PLACEMENT_3D('',#520,#438,#439);
#345=AXIS2_PLACEMENT_3D('',#521,#440,#441);
#346=AXIS2_PLACEMENT_3D('',#523,#442,#443);
#347=AXIS2_PLACEMENT_3D('',#525,#444,#445);
#348=AXIS2_PLACEMENT_3D('',#526,#446,#447);
#349=AXIS2_PLACEMENT_3D('',#527,#448,#449);
#350=DIRECTION('axis',(0.,0.,1.));
#351=DIRECTION('refdir',(1.,0.,0.));
#352=DIRECTION('center_axis',(0.,0.,-1.));
#353=DIRECTION('ref_axis',(-1.,0.,0.));
#354=DIRECTION('center_axis',(0.,0.,-1.));
#355=DIRECTION('ref_axis',(-1.,0.,0.));
#356=DIRECTION('center_axis',(0.,0.,1.));
#357=DIRECTION('ref_axis',(-1.,0.,0.));
#358=DIRECTION('center_axis',(0.,0.,1.));
#359=DIRECTION('ref_axis',(1.,0.,0.));
#360=DIRECTION('center_axis',(0.,0.,1.));
#361=DIRECTION('ref_axis',(1.,0.,0.));
#362=DIRECTION('center_axis',(0.,0.,-1.));
#363=DIRECTION('ref_axis',(1.,-1.22460635382238E-16,0.));
#364=DIRECTION('center_axis',(0.,0.,-1.));
#365=DIRECTION('ref_axis',(1.,-1.22460635382238E-16,0.));
#366=DIRECTION('center_axis',(0.,0.,1.));
#367=DIRECTION('ref_axis',(1.,-1.22460635382238E-16,0.));
#368=DIRECTION('center_axis',(0.,0.,1.));
#369=DIRECTION('ref_axis',(-1.,1.22460635382238E-16,0.));
#370=DIRECTION('center_axis',(0.,0.,1.));
#371=DIRECTION('ref_axis',(-1.,1.22460635382238E-16,0.));
#372=DIRECTION('center_axis',(0.,0.,-1.));
#373=DIRECTION('ref_axis',(-1.,0.,0.));
#374=DIRECTION('center_axis',(0.,0.,-1.));
#375=DIRECTION('ref_axis',(-1.,0.,0.));
#376=DIRECTION('center_axis',(0.,0.,1.));
#377=DIRECTION('ref_axis',(-1.,0.,0.));
#378=DIRECTION('center_axis',(0.,0.,1.));
#379=DIRECTION('ref_axis',(1.,0.,0.));
#380=DIRECTION('center_axis',(0.,0.,1.));
#381=DIRECTION('ref_axis',(1.,0.,0.));
#382=DIRECTION('center_axis',(0.,0.,-1.));
#383=DIRECTION('ref_axis',(-1.,0.,0.));
#384=DIRECTION('center_axis',(0.,0.,-1.));
#385=DIRECTION('ref_axis',(-1.,-1.22460635382238E-16,0.));
#386=DIRECTION('center_axis',(0.,0.,1.));
#387=DIRECTION('ref_axis',(-1.,-1.22460635382238E-16,0.));
#388=DIRECTION('center_axis',(0.,0.,1.));
#389=DIRECTION('ref_axis',(1.,0.,0.));
#390=DIRECTION('center_axis',(0.,0.,1.));
#391=DIRECTION('ref_axis',(1.,0.,0.));
#392=DIRECTION('center_axis',(0.,0.,1.));
#393=DIRECTION('ref_axis',(1.,0.,0.));
#394=DIRECTION('center_axis',(0.,0.,1.));
#395=DIRECTION('ref_axis',(1.,0.,0.));
#396=DIRECTION('center_axis',(-0.707106781186545,0.70710678118655,0.));
#397=DIRECTION('ref_axis',(-0.70710678118655,-0.707106781186545,0.));
#398=DIRECTION('',(-0.70710678118655,-0.707106781186545,0.));
#399=DIRECTION('',(0.,0.,1.));
#400=DIRECTION('',(-0.70710678118655,-0.707106781186545,0.));
#401=DIRECTION('',(0.,0.,1.));
#402=DIRECTION('center_axis',(0.707106781186545,0.70710678118655,0.));
#403=DIRECTION('ref_axis',(-0.70710678118655,0.707106781186545,0.));
#404=DIRECTION('',(-0.70710678118655,0.707106781186545,0.));
#405=DIRECTION('',(-0.70710678118655,0.707106781186545,0.));
#406=DIRECTION('',(0.,0.,1.));
#407=DIRECTION('center_axis',(0.707106781186553,-0.707106781186542,0.));
#408=DIRECTION('ref_axis',(0.707106781186542,0.707106781186554,0.));
#409=DIRECTION('',(0.707106781186542,0.707106781186553,0.));
#410=DIRECTION('',(0.707106781186542,0.707106781186553,0.));
#411=DIRECTION('',(0.,0.,1.));
#412=DIRECTION('center_axis',(0.,0.,1.));
#413=DIRECTION('ref_axis',(0.63615656670863,0.771559992893287,0.));
#414=DIRECTION('center_axis',(0.,0.,1.));
#415=DIRECTION('ref_axis',(0.63615656670863,0.771559992893287,0.));
#416=DIRECTION('center_axis',(0.,0.,1.));
#417=DIRECTION('ref_axis',(0.63615656670863,0.771559992893287,0.));
#418=DIRECTION('center_axis',(0.,0.,1.));
#419=DIRECTION('ref_axis',(-1.66533453693773E-16,-1.,0.));
#420=DIRECTION('center_axis',(0.,0.,1.));
#421=DIRECTION('ref_axis',(-1.66533453693773E-16,-1.,0.));
#422=DIRECTION('center_axis',(0.,0.,-1.));
#423=DIRECTION('ref_axis',(-1.,0.,0.));
#424=DIRECTION('center_axis',(0.,0.,-1.));
#425=DIRECTION('ref_axis',(-1.,-1.22460635382238E-16,0.));
#426=DIRECTION('center_axis',(0.,0.,1.));
#427=DIRECTION('ref_axis',(-1.,-1.22460635382238E-16,0.));
#428=DIRECTION('center_axis',(0.,0.,1.));
#429=DIRECTION('ref_axis',(1.,0.,0.));
#430=DIRECTION('center_axis',(0.,0.,-1.));
#431=DIRECTION('ref_axis',(-1.,0.,0.));
#432=DIRECTION('center_axis',(0.,0.,1.));
#433=DIRECTION('ref_axis',(1.,0.,0.));
#434=DIRECTION('center_axis',(0.,0.,1.));
#435=DIRECTION('ref_axis',(-1.,0.,0.));
#436=DIRECTION('center_axis',(0.,0.,1.));
#437=DIRECTION('ref_axis',(-1.,0.,0.));
#438=DIRECTION('center_axis',(0.,0.,1.));
#439=DIRECTION('ref_axis',(1.,0.,0.));
#440=DIRECTION('center_axis',(-1.22460635382238E-16,-4.44089209850063E-16,
-1.));
#441=DIRECTION('ref_axis',(-1.,2.71917234023173E-32,1.91006111763468E-16));
#442=DIRECTION('center_axis',(1.22460635382238E-16,4.44089209850063E-16,
1.));
#443=DIRECTION('ref_axis',(-1.,2.71917234023173E-32,1.22460635382238E-16));
#444=DIRECTION('center_axis',(1.22460635382238E-16,4.44089209850063E-16,
1.));
#445=DIRECTION('ref_axis',(-1.,0.,1.22460635382238E-16));
#446=DIRECTION('center_axis',(-1.22460635382238E-16,-4.44089209850063E-16,
-1.));
#447=DIRECTION('ref_axis',(-1.,2.71917234023173E-32,0.));
#448=DIRECTION('center_axis',(-1.22460635382238E-16,-4.44089209850063E-16,
-1.));
#449=DIRECTION('ref_axis',(-1.,2.71917234023173E-32,0.));
#450=CARTESIAN_POINT('',(0.,0.,0.));
#451=CARTESIAN_POINT('Origin',(1.55525006935442E-16,2.54,4.65));
#452=CARTESIAN_POINT('',(0.245,2.54,-3.65));
#453=CARTESIAN_POINT('Origin',(1.55525006935442E-16,2.54,-3.65));
#454=CARTESIAN_POINT('',(0.245,2.54,4.65));
#455=CARTESIAN_POINT('Origin',(1.55525006935442E-16,2.54,4.65));
#456=CARTESIAN_POINT('Origin',(1.54313438705779E-16,2.54,4.65));
#457=CARTESIAN_POINT('Origin',(1.54313438705779E-16,2.54,-3.65));
#458=CARTESIAN_POINT('Origin',(-2.54,4.44089209850063E-16,4.65));
#459=CARTESIAN_POINT('',(-2.785,4.44089209850063E-16,-3.65));
#460=CARTESIAN_POINT('Origin',(-2.54,4.44089209850063E-16,-3.65));
#461=CARTESIAN_POINT('',(-2.785,4.44089209850063E-16,4.65));
#462=CARTESIAN_POINT('Origin',(-2.54,4.44089209850063E-16,4.65));
#463=CARTESIAN_POINT('Origin',(-2.54,0.,4.65));
#464=CARTESIAN_POINT('Origin',(-2.54,0.,-3.65));
#465=CARTESIAN_POINT('Origin',(1.55525006935442E-16,-2.54,4.65));
#466=CARTESIAN_POINT('',(0.245,-2.54,-3.65));
#467=CARTESIAN_POINT('Origin',(1.55525006935442E-16,-2.54,-3.65));
#468=CARTESIAN_POINT('',(0.245,-2.54,4.65));
#469=CARTESIAN_POINT('Origin',(1.55525006935442E-16,-2.54,4.65));
#470=CARTESIAN_POINT('Origin',(1.54313438705779E-16,-2.54,4.65));
#471=CARTESIAN_POINT('Origin',(1.54313438705779E-16,-2.54,-3.65));
#472=CARTESIAN_POINT('Origin',(0.,0.,10.75));
#473=CARTESIAN_POINT('',(3.75,0.,11.25));
#474=CARTESIAN_POINT('Origin',(0.,0.,11.25));
#475=CARTESIAN_POINT('',(4.25,1.04091540074902E-15,10.75));
#476=CARTESIAN_POINT('Origin',(0.,0.,10.75));
#477=CARTESIAN_POINT('Origin',(0.,0.,4.65));
#478=CARTESIAN_POINT('',(4.25,0.,4.65));
#479=CARTESIAN_POINT('Origin',(0.,0.,4.65));
#480=CARTESIAN_POINT('Origin',(0.,0.,11.25));
#481=CARTESIAN_POINT('Origin',(0.,0.,4.65));
#482=CARTESIAN_POINT('Origin',(3.64159992311072,4.27799602617861,4.65));
#483=CARTESIAN_POINT('',(3.64159992311072,4.27799602617861,4.65));
#484=CARTESIAN_POINT('',(2.98993586353056,3.62633196659845,4.65));
#485=CARTESIAN_POINT('',(3.64159992311072,4.27799602617861,4.65));
#486=CARTESIAN_POINT('',(2.98993586353056,3.62633196659845,5.15));
#487=CARTESIAN_POINT('',(2.98993586353056,3.62633196659845,4.65));
#488=CARTESIAN_POINT('',(3.64159992311072,4.27799602617861,5.15));
#489=CARTESIAN_POINT('',(3.64159992311072,4.27799602617861,5.15));
#490=CARTESIAN_POINT('',(3.64159992311072,4.27799602617861,4.65));
#491=CARTESIAN_POINT('Origin',(4.27799602617861,3.64159992311072,4.65));
#492=CARTESIAN_POINT('',(4.27799602617861,3.64159992311072,4.65));
#493=CARTESIAN_POINT('',(4.27799602617861,3.64159992311072,4.65));
#494=CARTESIAN_POINT('',(4.27799602617861,3.64159992311072,5.15));
#495=CARTESIAN_POINT('',(4.27799602617861,3.64159992311072,5.15));
#496=CARTESIAN_POINT('',(4.27799602617861,3.64159992311072,4.65));
#497=CARTESIAN_POINT('Origin',(3.62633196659845,2.98993586353055,4.65));
#498=CARTESIAN_POINT('',(3.62633196659846,2.98993586353055,4.65));
#499=CARTESIAN_POINT('',(3.62633196659845,2.98993586353055,4.65));
#500=CARTESIAN_POINT('',(3.62633196659846,2.98993586353055,5.15));
#501=CARTESIAN_POINT('',(3.62633196659845,2.98993586353055,5.15));
#502=CARTESIAN_POINT('',(3.62633196659846,2.98993586353055,4.65));
#503=CARTESIAN_POINT('Origin',(-4.44089209850062E-16,5.32907051820075E-15,
4.65));
#504=CARTESIAN_POINT('Origin',(-4.44089209850062E-16,5.32907051820075E-15,
4.65));
#505=CARTESIAN_POINT('Origin',(-4.44089209850062E-16,5.32907051820075E-15,
5.15));
#506=CARTESIAN_POINT('Origin',(0.331136281489816,0.33113628148982,5.15));
#507=CARTESIAN_POINT('Origin',(0.331136281489816,0.33113628148982,4.65));
#508=CARTESIAN_POINT('Origin',(0.,0.,5.3));
#509=CARTESIAN_POINT('',(4.65,0.,5.35));
#510=CARTESIAN_POINT('Origin',(0.,0.,5.35));
#511=CARTESIAN_POINT('',(4.7,1.15112997259303E-15,5.3));
#512=CARTESIAN_POINT('Origin',(0.,0.,5.3));
#513=CARTESIAN_POINT('Origin',(0.,0.,5.15));
#514=CARTESIAN_POINT('',(4.7,-5.75564986296517E-16,5.2));
#515=CARTESIAN_POINT('Origin',(0.,0.,5.2));
#516=CARTESIAN_POINT('Origin',(0.,0.,5.35));
#517=CARTESIAN_POINT('Origin',(0.,0.,5.175));
#518=CARTESIAN_POINT('',(4.65,5.69441954527405E-16,5.15));
#519=CARTESIAN_POINT('Origin',(0.,0.,5.15));
#520=CARTESIAN_POINT('Origin',(0.,0.,5.15));
#521=CARTESIAN_POINT('Origin',(0.,0.,5.55));
#522=CARTESIAN_POINT('',(-4.45,0.,5.35));
#523=CARTESIAN_POINT('Origin',(0.,0.,5.35));
#524=CARTESIAN_POINT('',(4.25,5.2045770037451E-16,5.55));
#525=CARTESIAN_POINT('Origin',(0.,0.,5.55));
#526=CARTESIAN_POINT('Origin',(0.,0.,5.55));
#527=CARTESIAN_POINT('Origin',(0.,0.,5.35));
#528=UNCERTAINTY_MEASURE_WITH_UNIT(LENGTH_MEASURE(0.01),#532,
'DISTANCE_ACCURACY_VALUE',
'Maximum model space distance between geometric entities at asserted c
onnectivities');
#529=UNCERTAINTY_MEASURE_WITH_UNIT(LENGTH_MEASURE(1.E-6),#532,
'DISTANCE_ACCURACY_VALUE',
'Maximum model space distance between geometric entities at asserted c
onnectivities');
#530=(
GEOMETRIC_REPRESENTATION_CONTEXT(3)
GLOBAL_UNCERTAINTY_ASSIGNED_CONTEXT((#528))
GLOBAL_UNIT_ASSIGNED_CONTEXT((#532,#534,#533))
REPRESENTATION_CONTEXT('','3D')
);
#531=(
GEOMETRIC_REPRESENTATION_CONTEXT(3)
GLOBAL_UNCERTAINTY_ASSIGNED_CONTEXT((#529))
GLOBAL_UNIT_ASSIGNED_CONTEXT((#532,#12,#533))
REPRESENTATION_CONTEXT('','3D')
);
#532=(
LENGTH_UNIT()
NAMED_UNIT(*)
SI_UNIT(.MILLI.,.METRE.)
);
#533=(
NAMED_UNIT(*)
SI_UNIT($,.STERADIAN.)
SOLID_ANGLE_UNIT()
);
#534=(
NAMED_UNIT(*)
PLANE_ANGLE_UNIT()
SI_UNIT($,.RADIAN.)
);
#535=SHAPE_DEFINITION_REPRESENTATION(#536,#537);
#536=PRODUCT_DEFINITION_SHAPE('',$,#539);
#537=SHAPE_REPRESENTATION('',(#305),#530);
#538=PRODUCT_DEFINITION_CONTEXT('part definition',#543,'design');
#539=PRODUCT_DEFINITION('Product','Product',#540,#538);
#540=PRODUCT_DEFINITION_FORMATION('',$,#545);
#541=PRODUCT_RELATED_PRODUCT_CATEGORY('Product','Product',(#545));
#542=APPLICATION_PROTOCOL_DEFINITION('international standard',
'automotive_design',2009,#543);
#543=APPLICATION_CONTEXT(
'Core Data for Automotive Mechanical Design Process');
#544=PRODUCT_CONTEXT('part definition',#543,'mechanical');
#545=PRODUCT('Product','Product',$,(#544));
#546=PRESENTATION_STYLE_ASSIGNMENT((#549));
#547=PRESENTATION_STYLE_ASSIGNMENT((#550));
#548=PRESENTATION_STYLE_ASSIGNMENT((#551));
#549=SURFACE_STYLE_USAGE(.BOTH.,#552);
#550=SURFACE_STYLE_USAGE(.BOTH.,#553);
#551=SURFACE_STYLE_USAGE(.BOTH.,#554);
#552=SURFACE_SIDE_STYLE('',(#555));
#553=SURFACE_SIDE_STYLE('',(#556));
#554=SURFACE_SIDE_STYLE('',(#557));
#555=SURFACE_STYLE_FILL_AREA(#558);
#556=SURFACE_STYLE_FILL_AREA(#559);
#557=SURFACE_STYLE_FILL_AREA(#560);
#558=FILL_AREA_STYLE('',(#561));
#559=FILL_AREA_STYLE('',(#562));
#560=FILL_AREA_STYLE('',(#563));
#561=FILL_AREA_STYLE_COLOUR('',#564);
#562=FILL_AREA_STYLE_COLOUR('',#565);
#563=FILL_AREA_STYLE_COLOUR('',#566);
#564=COLOUR_RGB('',1.,1.,1.);
#565=COLOUR_RGB('',0.733333333333333,0.733333333333333,0.733333333333333);
#566=COLOUR_RGB('',0.866666666666667,0.866666666666667,0.866666666666667);
ENDSEC;
END-ISO-10303-21;
