ISO-10303-21;
HEADER;
/* Generated by software containing ST-Developer
 * from STEP Tools, Inc. (www.steptools.com) 
 */

FILE_DESCRIPTION(
/* description */ (''),
/* implementation_level */ '2;1');

FILE_NAME(
/* name */ 
'G:\\Applications\\Altium\\CernLib\\StepLib\\TO254P1524X483-4N-R765X10
75.stp',
/* time_stamp */ '2016-02-19T13:56:00+01:00',
/* author */ ('riccim'),
/* organization */ (''),
/* preprocessor_version */ 'ST-DEVELOPER v15.5',
/* originating_system */ 'AutoCAD Mechanical',
/* authorisation */ '');

FILE_SCHEMA (('AUTOMOTIVE_DESIGN { 1 0 10303 214 3 1 1 }'));
ENDSEC;

DATA;
#10=MECHANICAL_DESIGN_GEOMETRIC_PRESENTATION_REPRESENTATION('',(#17,#18,
#19,#20,#21,#22),#2058);
#11=DIMENSIONAL_EXPONENTS(0.,0.,0.,0.,0.,0.,0.);
#12=(
CONVERSION_BASED_UNIT('degree',#13)
NAMED_UNIT(#11)
PLANE_ANGLE_UNIT()
);
#13=PLANE_ANGLE_MEASURE_WITH_UNIT(PLANE_ANGLE_MEASURE(0.01745329252),#2061);
#14=PRESENTATION_LAYER_ASSIGNMENT('3D','',(#1259,#1260,#1261,#1262,#1263,
#1264));
#15=SHAPE_REPRESENTATION_RELATIONSHIP('SRR','None',#2064,#16);
#16=ADVANCED_BREP_SHAPE_REPRESENTATION($,(#1259,#1260,#1261,#1262,#1263,
#1264),#2057);
#17=STYLED_ITEM($,(#2074),#1259);
#18=STYLED_ITEM($,(#2074),#1260);
#19=STYLED_ITEM($,(#2074),#1261);
#20=STYLED_ITEM($,(#2075),#1262);
#21=STYLED_ITEM($,(#2074),#1263);
#22=STYLED_ITEM($,(#2074),#1264);
#23=PLANE($,#1269);
#24=PLANE($,#1270);
#25=PLANE($,#1274);
#26=PLANE($,#1275);
#27=PLANE($,#1280);
#28=PLANE($,#1283);
#29=PLANE($,#1284);
#30=PLANE($,#1285);
#31=PLANE($,#1286);
#32=PLANE($,#1287);
#33=PLANE($,#1288);
#34=PLANE($,#1289);
#35=PLANE($,#1294);
#36=PLANE($,#1299);
#37=PLANE($,#1300);
#38=PLANE($,#1302);
#39=PLANE($,#1305);
#40=PLANE($,#1306);
#41=PLANE($,#1308);
#42=PLANE($,#1309);
#43=PLANE($,#1310);
#44=PLANE($,#1311);
#45=PLANE($,#1312);
#46=PLANE($,#1313);
#47=PLANE($,#1314);
#48=PLANE($,#1315);
#49=PLANE($,#1316);
#50=PLANE($,#1317);
#51=PLANE($,#1318);
#52=PLANE($,#1319);
#53=PLANE($,#1320);
#54=PLANE($,#1321);
#55=PLANE($,#1322);
#56=PLANE($,#1323);
#57=PLANE($,#1324);
#58=PLANE($,#1325);
#59=PLANE($,#1326);
#60=PLANE($,#1327);
#61=PLANE($,#1328);
#62=PLANE($,#1329);
#63=PLANE($,#1330);
#64=PLANE($,#1331);
#65=PLANE($,#1332);
#66=PLANE($,#1333);
#67=PLANE($,#1334);
#68=PLANE($,#1335);
#69=PLANE($,#1336);
#70=PLANE($,#1337);
#71=PLANE($,#1338);
#72=PLANE($,#1339);
#73=PLANE($,#1344);
#74=PLANE($,#1349);
#75=PLANE($,#1350);
#76=PLANE($,#1352);
#77=PLANE($,#1355);
#78=PLANE($,#1356);
#79=PLANE($,#1358);
#80=PLANE($,#1359);
#81=FACE_OUTER_BOUND($,#151,.T.);
#82=FACE_OUTER_BOUND($,#152,.T.);
#83=FACE_OUTER_BOUND($,#153,.T.);
#84=FACE_OUTER_BOUND($,#154,.T.);
#85=FACE_OUTER_BOUND($,#155,.T.);
#86=FACE_OUTER_BOUND($,#156,.T.);
#87=FACE_OUTER_BOUND($,#157,.T.);
#88=FACE_OUTER_BOUND($,#158,.T.);
#89=FACE_OUTER_BOUND($,#159,.T.);
#90=FACE_OUTER_BOUND($,#160,.T.);
#91=FACE_OUTER_BOUND($,#161,.T.);
#92=FACE_OUTER_BOUND($,#162,.T.);
#93=FACE_OUTER_BOUND($,#163,.T.);
#94=FACE_OUTER_BOUND($,#164,.T.);
#95=FACE_OUTER_BOUND($,#165,.T.);
#96=FACE_OUTER_BOUND($,#166,.T.);
#97=FACE_OUTER_BOUND($,#167,.T.);
#98=FACE_OUTER_BOUND($,#168,.T.);
#99=FACE_OUTER_BOUND($,#169,.T.);
#100=FACE_OUTER_BOUND($,#170,.T.);
#101=FACE_OUTER_BOUND($,#171,.T.);
#102=FACE_OUTER_BOUND($,#172,.T.);
#103=FACE_OUTER_BOUND($,#173,.T.);
#104=FACE_OUTER_BOUND($,#174,.T.);
#105=FACE_OUTER_BOUND($,#175,.T.);
#106=FACE_OUTER_BOUND($,#176,.T.);
#107=FACE_OUTER_BOUND($,#177,.T.);
#108=FACE_OUTER_BOUND($,#178,.T.);
#109=FACE_OUTER_BOUND($,#179,.T.);
#110=FACE_OUTER_BOUND($,#180,.T.);
#111=FACE_OUTER_BOUND($,#181,.T.);
#112=FACE_OUTER_BOUND($,#182,.T.);
#113=FACE_OUTER_BOUND($,#183,.T.);
#114=FACE_OUTER_BOUND($,#184,.T.);
#115=FACE_OUTER_BOUND($,#185,.T.);
#116=FACE_OUTER_BOUND($,#186,.T.);
#117=FACE_OUTER_BOUND($,#187,.T.);
#118=FACE_OUTER_BOUND($,#188,.T.);
#119=FACE_OUTER_BOUND($,#189,.T.);
#120=FACE_OUTER_BOUND($,#190,.T.);
#121=FACE_OUTER_BOUND($,#191,.T.);
#122=FACE_OUTER_BOUND($,#192,.T.);
#123=FACE_OUTER_BOUND($,#193,.T.);
#124=FACE_OUTER_BOUND($,#194,.T.);
#125=FACE_OUTER_BOUND($,#195,.T.);
#126=FACE_OUTER_BOUND($,#196,.T.);
#127=FACE_OUTER_BOUND($,#197,.T.);
#128=FACE_OUTER_BOUND($,#198,.T.);
#129=FACE_OUTER_BOUND($,#199,.T.);
#130=FACE_OUTER_BOUND($,#200,.T.);
#131=FACE_OUTER_BOUND($,#201,.T.);
#132=FACE_OUTER_BOUND($,#202,.T.);
#133=FACE_OUTER_BOUND($,#203,.T.);
#134=FACE_OUTER_BOUND($,#204,.T.);
#135=FACE_OUTER_BOUND($,#205,.T.);
#136=FACE_OUTER_BOUND($,#206,.T.);
#137=FACE_OUTER_BOUND($,#207,.T.);
#138=FACE_OUTER_BOUND($,#208,.T.);
#139=FACE_OUTER_BOUND($,#209,.T.);
#140=FACE_OUTER_BOUND($,#210,.T.);
#141=FACE_OUTER_BOUND($,#211,.T.);
#142=FACE_OUTER_BOUND($,#212,.T.);
#143=FACE_OUTER_BOUND($,#213,.T.);
#144=FACE_OUTER_BOUND($,#214,.T.);
#145=FACE_OUTER_BOUND($,#215,.T.);
#146=FACE_OUTER_BOUND($,#216,.T.);
#147=FACE_OUTER_BOUND($,#217,.T.);
#148=FACE_OUTER_BOUND($,#218,.T.);
#149=FACE_OUTER_BOUND($,#219,.T.);
#150=FACE_OUTER_BOUND($,#220,.T.);
#151=EDGE_LOOP($,(#827,#828,#829,#830));
#152=EDGE_LOOP($,(#831,#832,#833,#834));
#153=EDGE_LOOP($,(#835,#836,#837,#838,#839,#840,#841,#842,#843,#844,#845,
#846));
#154=EDGE_LOOP($,(#847,#848,#849,#850));
#155=EDGE_LOOP($,(#851,#852,#853,#854));
#156=EDGE_LOOP($,(#855,#856,#857,#858));
#157=EDGE_LOOP($,(#859,#860,#861,#862));
#158=EDGE_LOOP($,(#863,#864,#865,#866));
#159=EDGE_LOOP($,(#867,#868,#869,#870));
#160=EDGE_LOOP($,(#871,#872,#873,#874));
#161=EDGE_LOOP($,(#875,#876,#877,#878));
#162=EDGE_LOOP($,(#879,#880,#881,#882,#883,#884,#885,#886,#887,#888,#889,
#890));
#163=EDGE_LOOP($,(#891,#892,#893,#894));
#164=EDGE_LOOP($,(#895,#896,#897,#898));
#165=EDGE_LOOP($,(#899,#900,#901,#902));
#166=EDGE_LOOP($,(#903,#904,#905,#906,#907,#908,#909,#910,#911,#912,#913,
#914));
#167=EDGE_LOOP($,(#915,#916,#917,#918,#919,#920,#921,#922,#923,#924,#925,
#926));
#168=EDGE_LOOP($,(#927,#928,#929,#930));
#169=EDGE_LOOP($,(#931,#932,#933,#934));
#170=EDGE_LOOP($,(#935,#936,#937,#938));
#171=EDGE_LOOP($,(#939,#940,#941,#942));
#172=EDGE_LOOP($,(#943,#944,#945,#946));
#173=EDGE_LOOP($,(#947,#948,#949,#950));
#174=EDGE_LOOP($,(#951,#952,#953,#954));
#175=EDGE_LOOP($,(#955,#956,#957,#958));
#176=EDGE_LOOP($,(#959,#960,#961,#962));
#177=EDGE_LOOP($,(#963,#964,#965,#966));
#178=EDGE_LOOP($,(#967,#968,#969,#970));
#179=EDGE_LOOP($,(#971,#972,#973,#974));
#180=EDGE_LOOP($,(#975,#976,#977,#978));
#181=EDGE_LOOP($,(#979,#980,#981,#982,#983,#984));
#182=EDGE_LOOP($,(#985,#986,#987,#988));
#183=EDGE_LOOP($,(#989,#990,#991,#992,#993,#994));
#184=EDGE_LOOP($,(#995,#996,#997,#998));
#185=EDGE_LOOP($,(#999,#1000,#1001,#1002));
#186=EDGE_LOOP($,(#1003,#1004,#1005,#1006));
#187=EDGE_LOOP($,(#1007,#1008,#1009,#1010));
#188=EDGE_LOOP($,(#1011,#1012,#1013,#1014));
#189=EDGE_LOOP($,(#1015,#1016,#1017,#1018));
#190=EDGE_LOOP($,(#1019,#1020,#1021,#1022,#1023,#1024,#1025));
#191=EDGE_LOOP($,(#1026,#1027,#1028,#1029));
#192=EDGE_LOOP($,(#1030,#1031,#1032,#1033));
#193=EDGE_LOOP($,(#1034,#1035,#1036,#1037,#1038,#1039,#1040));
#194=EDGE_LOOP($,(#1041,#1042,#1043,#1044));
#195=EDGE_LOOP($,(#1045,#1046,#1047,#1048,#1049,#1050));
#196=EDGE_LOOP($,(#1051,#1052,#1053,#1054));
#197=EDGE_LOOP($,(#1055,#1056,#1057,#1058));
#198=EDGE_LOOP($,(#1059,#1060,#1061,#1062));
#199=EDGE_LOOP($,(#1063,#1064,#1065,#1066));
#200=EDGE_LOOP($,(#1067,#1068,#1069,#1070,#1071,#1072,#1073,#1074));
#201=EDGE_LOOP($,(#1075,#1076,#1077,#1078));
#202=EDGE_LOOP($,(#1079,#1080,#1081,#1082));
#203=EDGE_LOOP($,(#1083,#1084,#1085,#1086));
#204=EDGE_LOOP($,(#1087,#1088,#1089,#1090));
#205=EDGE_LOOP($,(#1091,#1092,#1093,#1094));
#206=EDGE_LOOP($,(#1095,#1096,#1097,#1098));
#207=EDGE_LOOP($,(#1099,#1100,#1101,#1102));
#208=EDGE_LOOP($,(#1103,#1104,#1105,#1106,#1107,#1108,#1109,#1110,#1111,
#1112,#1113,#1114));
#209=EDGE_LOOP($,(#1115,#1116,#1117,#1118,#1119,#1120,#1121,#1122,#1123,
#1124,#1125,#1126));
#210=EDGE_LOOP($,(#1127,#1128,#1129,#1130));
#211=EDGE_LOOP($,(#1131,#1132,#1133,#1134));
#212=EDGE_LOOP($,(#1135,#1136,#1137,#1138));
#213=EDGE_LOOP($,(#1139,#1140,#1141,#1142));
#214=EDGE_LOOP($,(#1143,#1144,#1145,#1146));
#215=EDGE_LOOP($,(#1147,#1148,#1149,#1150));
#216=EDGE_LOOP($,(#1151,#1152,#1153,#1154));
#217=EDGE_LOOP($,(#1155,#1156,#1157,#1158));
#218=EDGE_LOOP($,(#1159,#1160,#1161,#1162));
#219=EDGE_LOOP($,(#1163,#1164,#1165,#1166));
#220=EDGE_LOOP($,(#1167,#1168,#1169,#1170));
#221=LINE($,#1704,#369);
#222=LINE($,#1707,#370);
#223=LINE($,#1711,#371);
#224=LINE($,#1713,#372);
#225=LINE($,#1715,#373);
#226=LINE($,#1716,#374);
#227=LINE($,#1719,#375);
#228=LINE($,#1723,#376);
#229=LINE($,#1725,#377);
#230=LINE($,#1727,#378);
#231=LINE($,#1731,#379);
#232=LINE($,#1734,#380);
#233=LINE($,#1735,#381);
#234=LINE($,#1738,#382);
#235=LINE($,#1740,#383);
#236=LINE($,#1741,#384);
#237=LINE($,#1744,#385);
#238=LINE($,#1745,#386);
#239=LINE($,#1750,#387);
#240=LINE($,#1754,#388);
#241=LINE($,#1755,#389);
#242=LINE($,#1759,#390);
#243=LINE($,#1762,#391);
#244=LINE($,#1763,#392);
#245=LINE($,#1765,#393);
#246=LINE($,#1768,#394);
#247=LINE($,#1769,#395);
#248=LINE($,#1771,#396);
#249=LINE($,#1776,#397);
#250=LINE($,#1778,#398);
#251=LINE($,#1780,#399);
#252=LINE($,#1781,#400);
#253=LINE($,#1787,#401);
#254=LINE($,#1789,#402);
#255=LINE($,#1791,#403);
#256=LINE($,#1795,#404);
#257=LINE($,#1799,#405);
#258=LINE($,#1800,#406);
#259=LINE($,#1803,#407);
#260=LINE($,#1809,#408);
#261=LINE($,#1812,#409);
#262=LINE($,#1814,#410);
#263=LINE($,#1818,#411);
#264=LINE($,#1822,#412);
#265=LINE($,#1824,#413);
#266=LINE($,#1825,#414);
#267=LINE($,#1827,#415);
#268=LINE($,#1828,#416);
#269=LINE($,#1830,#417);
#270=LINE($,#1831,#418);
#271=LINE($,#1833,#419);
#272=LINE($,#1835,#420);
#273=LINE($,#1838,#421);
#274=LINE($,#1840,#422);
#275=LINE($,#1843,#423);
#276=LINE($,#1845,#424);
#277=LINE($,#1850,#425);
#278=LINE($,#1852,#426);
#279=LINE($,#1854,#427);
#280=LINE($,#1855,#428);
#281=LINE($,#1858,#429);
#282=LINE($,#1860,#430);
#283=LINE($,#1861,#431);
#284=LINE($,#1865,#432);
#285=LINE($,#1866,#433);
#286=LINE($,#1868,#434);
#287=LINE($,#1869,#435);
#288=LINE($,#1872,#436);
#289=LINE($,#1873,#437);
#290=LINE($,#1876,#438);
#291=LINE($,#1878,#439);
#292=LINE($,#1879,#440);
#293=LINE($,#1881,#441);
#294=LINE($,#1883,#442);
#295=LINE($,#1888,#443);
#296=LINE($,#1890,#444);
#297=LINE($,#1892,#445);
#298=LINE($,#1893,#446);
#299=LINE($,#1896,#447);
#300=LINE($,#1898,#448);
#301=LINE($,#1899,#449);
#302=LINE($,#1902,#450);
#303=LINE($,#1903,#451);
#304=LINE($,#1907,#452);
#305=LINE($,#1909,#453);
#306=LINE($,#1911,#454);
#307=LINE($,#1913,#455);
#308=LINE($,#1915,#456);
#309=LINE($,#1917,#457);
#310=LINE($,#1918,#458);
#311=LINE($,#1922,#459);
#312=LINE($,#1923,#460);
#313=LINE($,#1924,#461);
#314=LINE($,#1927,#462);
#315=LINE($,#1928,#463);
#316=LINE($,#1931,#464);
#317=LINE($,#1933,#465);
#318=LINE($,#1935,#466);
#319=LINE($,#1937,#467);
#320=LINE($,#1938,#468);
#321=LINE($,#1940,#469);
#322=LINE($,#1941,#470);
#323=LINE($,#1943,#471);
#324=LINE($,#1944,#472);
#325=LINE($,#1948,#473);
#326=LINE($,#1949,#474);
#327=LINE($,#1951,#475);
#328=LINE($,#1953,#476);
#329=LINE($,#1958,#477);
#330=LINE($,#1960,#478);
#331=LINE($,#1962,#479);
#332=LINE($,#1963,#480);
#333=LINE($,#1966,#481);
#334=LINE($,#1968,#482);
#335=LINE($,#1969,#483);
#336=LINE($,#1972,#484);
#337=LINE($,#1974,#485);
#338=LINE($,#1975,#486);
#339=LINE($,#1977,#487);
#340=LINE($,#1978,#488);
#341=LINE($,#1984,#489);
#342=LINE($,#1986,#490);
#343=LINE($,#1988,#491);
#344=LINE($,#1989,#492);
#345=LINE($,#1995,#493);
#346=LINE($,#1997,#494);
#347=LINE($,#1999,#495);
#348=LINE($,#2003,#496);
#349=LINE($,#2007,#497);
#350=LINE($,#2008,#498);
#351=LINE($,#2011,#499);
#352=LINE($,#2017,#500);
#353=LINE($,#2020,#501);
#354=LINE($,#2022,#502);
#355=LINE($,#2026,#503);
#356=LINE($,#2030,#504);
#357=LINE($,#2032,#505);
#358=LINE($,#2033,#506);
#359=LINE($,#2035,#507);
#360=LINE($,#2036,#508);
#361=LINE($,#2038,#509);
#362=LINE($,#2039,#510);
#363=LINE($,#2041,#511);
#364=LINE($,#2043,#512);
#365=LINE($,#2046,#513);
#366=LINE($,#2048,#514);
#367=LINE($,#2051,#515);
#368=LINE($,#2053,#516);
#369=VECTOR($,#1366,0.75);
#370=VECTOR($,#1369,0.749999999999999);
#371=VECTOR($,#1372,0.749999999999999);
#372=VECTOR($,#1373,0.538521958531159);
#373=VECTOR($,#1374,0.749999999999999);
#374=VECTOR($,#1375,0.538521958531159);
#375=VECTOR($,#1378,1.74122755152945);
#376=VECTOR($,#1381,2.285);
#377=VECTOR($,#1382,0.560000000000002);
#378=VECTOR($,#1383,2.285);
#379=VECTOR($,#1386,1.74122755152945);
#380=VECTOR($,#1389,0.560000000000002);
#381=VECTOR($,#1390,0.538521958531157);
#382=VECTOR($,#1393,0.749999999999999);
#383=VECTOR($,#1394,2.285);
#384=VECTOR($,#1395,0.749999999999996);
#385=VECTOR($,#1398,1.74122755152945);
#386=VECTOR($,#1399,0.75);
#387=VECTOR($,#1406,0.749999999999999);
#388=VECTOR($,#1411,0.749999999999999);
#389=VECTOR($,#1412,1.74122755152945);
#390=VECTOR($,#1417,0.749999999999999);
#391=VECTOR($,#1420,0.560000000000002);
#392=VECTOR($,#1421,0.749999999999996);
#393=VECTOR($,#1424,2.285);
#394=VECTOR($,#1427,0.538521958531157);
#395=VECTOR($,#1428,0.560000000000002);
#396=VECTOR($,#1431,0.749999999999996);
#397=VECTOR($,#1436,0.739869834560986);
#398=VECTOR($,#1437,0.538521958531159);
#399=VECTOR($,#1438,0.739869834560987);
#400=VECTOR($,#1439,0.538521958531159);
#401=VECTOR($,#1444,2.285);
#402=VECTOR($,#1445,0.56);
#403=VECTOR($,#1446,2.285);
#404=VECTOR($,#1449,1.74122755152945);
#405=VECTOR($,#1452,0.538521958531157);
#406=VECTOR($,#1453,0.56);
#407=VECTOR($,#1456,1.74122755152945);
#408=VECTOR($,#1461,1.74122755152945);
#409=VECTOR($,#1464,0.56);
#410=VECTOR($,#1465,0.538521958531157);
#411=VECTOR($,#1468,1.74122755152945);
#412=VECTOR($,#1471,2.285);
#413=VECTOR($,#1472,0.56);
#414=VECTOR($,#1473,2.285);
#415=VECTOR($,#1476,0.739869834560986);
#416=VECTOR($,#1477,0.739869834560982);
#417=VECTOR($,#1480,0.739869834560986);
#418=VECTOR($,#1481,0.739869834560986);
#419=VECTOR($,#1484,0.739869834560986);
#420=VECTOR($,#1487,0.739869834560986);
#421=VECTOR($,#1492,0.739869834560986);
#422=VECTOR($,#1495,0.739869834560982);
#423=VECTOR($,#1500,0.739869834560986);
#424=VECTOR($,#1503,0.739869834560987);
#425=VECTOR($,#1508,1.85661579410356);
#426=VECTOR($,#1509,1.65);
#427=VECTOR($,#1510,1.85661579410355);
#428=VECTOR($,#1511,1.64999999999999);
#429=VECTOR($,#1514,1.045);
#430=VECTOR($,#1515,1.65);
#431=VECTOR($,#1516,1.045);
#432=VECTOR($,#1519,1.85661579410355);
#433=VECTOR($,#1520,6.67070367729265);
#434=VECTOR($,#1521,10.16);
#435=VECTOR($,#1522,1.045);
#436=VECTOR($,#1525,1.65);
#437=VECTOR($,#1526,6.67070367729265);
#438=VECTOR($,#1529,1.85661579410355);
#439=VECTOR($,#1530,1.045);
#440=VECTOR($,#1531,10.16);
#441=VECTOR($,#1534,1.65);
#442=VECTOR($,#1537,1.65);
#443=VECTOR($,#1542,6.22);
#444=VECTOR($,#1543,1.65);
#445=VECTOR($,#1544,6.22);
#446=VECTOR($,#1545,1.65);
#447=VECTOR($,#1548,4.92);
#448=VECTOR($,#1549,1.65);
#449=VECTOR($,#1550,4.92);
#450=VECTOR($,#1553,4.92);
#451=VECTOR($,#1554,6.22);
#452=VECTOR($,#1557,1.65);
#453=VECTOR($,#1558,9.06977437371113);
#454=VECTOR($,#1559,2.5639521950115);
#455=VECTOR($,#1560,0.56);
#456=VECTOR($,#1561,1.77191943774063);
#457=VECTOR($,#1562,8.64658962001081);
#458=VECTOR($,#1563,3.22905662579667);
#459=VECTOR($,#1566,0.56);
#460=VECTOR($,#1567,10.16);
#461=VECTOR($,#1568,10.16);
#462=VECTOR($,#1571,2.5639521950115);
#463=VECTOR($,#1572,10.16);
#464=VECTOR($,#1575,9.06977437371113);
#465=VECTOR($,#1576,1.65);
#466=VECTOR($,#1577,3.22905662579667);
#467=VECTOR($,#1578,8.64658962001081);
#468=VECTOR($,#1579,1.77191943774063);
#469=VECTOR($,#1582,10.16);
#470=VECTOR($,#1583,10.16);
#471=VECTOR($,#1586,1.97);
#472=VECTOR($,#1587,1.97);
#473=VECTOR($,#1592,1.65);
#474=VECTOR($,#1593,1.97);
#475=VECTOR($,#1596,4.92);
#476=VECTOR($,#1599,1.97);
#477=VECTOR($,#1604,6.22);
#478=VECTOR($,#1605,1.65);
#479=VECTOR($,#1606,6.22);
#480=VECTOR($,#1607,1.65);
#481=VECTOR($,#1610,4.92);
#482=VECTOR($,#1611,4.92);
#483=VECTOR($,#1612,1.65);
#484=VECTOR($,#1615,6.22);
#485=VECTOR($,#1616,6.22);
#486=VECTOR($,#1617,1.65);
#487=VECTOR($,#1620,4.92);
#488=VECTOR($,#1621,4.92);
#489=VECTOR($,#1628,0.739869834560986);
#490=VECTOR($,#1629,0.538521958531159);
#491=VECTOR($,#1630,0.739869834560987);
#492=VECTOR($,#1631,0.538521958531159);
#493=VECTOR($,#1636,2.285);
#494=VECTOR($,#1637,0.56);
#495=VECTOR($,#1638,2.285);
#496=VECTOR($,#1641,1.74122755152945);
#497=VECTOR($,#1644,0.538521958531157);
#498=VECTOR($,#1645,0.56);
#499=VECTOR($,#1648,1.74122755152945);
#500=VECTOR($,#1653,1.74122755152945);
#501=VECTOR($,#1656,0.56);
#502=VECTOR($,#1657,0.538521958531157);
#503=VECTOR($,#1660,1.74122755152945);
#504=VECTOR($,#1663,2.285);
#505=VECTOR($,#1664,0.56);
#506=VECTOR($,#1665,2.285);
#507=VECTOR($,#1668,0.739869834560986);
#508=VECTOR($,#1669,0.739869834560982);
#509=VECTOR($,#1672,0.739869834560986);
#510=VECTOR($,#1673,0.739869834560986);
#511=VECTOR($,#1676,0.739869834560986);
#512=VECTOR($,#1679,0.739869834560986);
#513=VECTOR($,#1684,0.739869834560986);
#514=VECTOR($,#1687,0.739869834560982);
#515=VECTOR($,#1692,0.739869834560986);
#516=VECTOR($,#1695,0.739869834560987);
#517=CIRCLE($,#1267,0.76);
#518=CIRCLE($,#1268,0.76);
#519=CIRCLE($,#1271,0.2);
#520=CIRCLE($,#1272,0.76);
#521=CIRCLE($,#1273,0.2);
#522=CIRCLE($,#1277,0.2);
#523=CIRCLE($,#1279,0.2);
#524=CIRCLE($,#1282,0.76);
#525=CIRCLE($,#1290,0.76);
#526=CIRCLE($,#1291,0.2);
#527=CIRCLE($,#1292,0.76);
#528=CIRCLE($,#1293,0.2);
#529=CIRCLE($,#1295,0.76);
#530=CIRCLE($,#1296,0.2);
#531=CIRCLE($,#1297,0.76);
#532=CIRCLE($,#1298,0.2);
#533=CIRCLE($,#1340,0.76);
#534=CIRCLE($,#1341,0.2);
#535=CIRCLE($,#1342,0.76);
#536=CIRCLE($,#1343,0.2);
#537=CIRCLE($,#1345,0.76);
#538=CIRCLE($,#1346,0.2);
#539=CIRCLE($,#1347,0.76);
#540=CIRCLE($,#1348,0.2);
#541=VERTEX_POINT($,#1700);
#542=VERTEX_POINT($,#1701);
#543=VERTEX_POINT($,#1703);
#544=VERTEX_POINT($,#1705);
#545=VERTEX_POINT($,#1709);
#546=VERTEX_POINT($,#1710);
#547=VERTEX_POINT($,#1712);
#548=VERTEX_POINT($,#1714);
#549=VERTEX_POINT($,#1718);
#550=VERTEX_POINT($,#1720);
#551=VERTEX_POINT($,#1722);
#552=VERTEX_POINT($,#1724);
#553=VERTEX_POINT($,#1726);
#554=VERTEX_POINT($,#1728);
#555=VERTEX_POINT($,#1730);
#556=VERTEX_POINT($,#1733);
#557=VERTEX_POINT($,#1737);
#558=VERTEX_POINT($,#1739);
#559=VERTEX_POINT($,#1743);
#560=VERTEX_POINT($,#1749);
#561=VERTEX_POINT($,#1753);
#562=VERTEX_POINT($,#1757);
#563=VERTEX_POINT($,#1761);
#564=VERTEX_POINT($,#1767);
#565=VERTEX_POINT($,#1774);
#566=VERTEX_POINT($,#1775);
#567=VERTEX_POINT($,#1777);
#568=VERTEX_POINT($,#1779);
#569=VERTEX_POINT($,#1783);
#570=VERTEX_POINT($,#1784);
#571=VERTEX_POINT($,#1786);
#572=VERTEX_POINT($,#1788);
#573=VERTEX_POINT($,#1790);
#574=VERTEX_POINT($,#1792);
#575=VERTEX_POINT($,#1794);
#576=VERTEX_POINT($,#1796);
#577=VERTEX_POINT($,#1798);
#578=VERTEX_POINT($,#1801);
#579=VERTEX_POINT($,#1805);
#580=VERTEX_POINT($,#1806);
#581=VERTEX_POINT($,#1808);
#582=VERTEX_POINT($,#1811);
#583=VERTEX_POINT($,#1813);
#584=VERTEX_POINT($,#1815);
#585=VERTEX_POINT($,#1817);
#586=VERTEX_POINT($,#1819);
#587=VERTEX_POINT($,#1821);
#588=VERTEX_POINT($,#1823);
#589=VERTEX_POINT($,#1848);
#590=VERTEX_POINT($,#1849);
#591=VERTEX_POINT($,#1851);
#592=VERTEX_POINT($,#1853);
#593=VERTEX_POINT($,#1857);
#594=VERTEX_POINT($,#1859);
#595=VERTEX_POINT($,#1863);
#596=VERTEX_POINT($,#1864);
#597=VERTEX_POINT($,#1867);
#598=VERTEX_POINT($,#1871);
#599=VERTEX_POINT($,#1875);
#600=VERTEX_POINT($,#1877);
#601=VERTEX_POINT($,#1886);
#602=VERTEX_POINT($,#1887);
#603=VERTEX_POINT($,#1889);
#604=VERTEX_POINT($,#1891);
#605=VERTEX_POINT($,#1895);
#606=VERTEX_POINT($,#1897);
#607=VERTEX_POINT($,#1901);
#608=VERTEX_POINT($,#1905);
#609=VERTEX_POINT($,#1906);
#610=VERTEX_POINT($,#1908);
#611=VERTEX_POINT($,#1910);
#612=VERTEX_POINT($,#1912);
#613=VERTEX_POINT($,#1914);
#614=VERTEX_POINT($,#1916);
#615=VERTEX_POINT($,#1920);
#616=VERTEX_POINT($,#1921);
#617=VERTEX_POINT($,#1926);
#618=VERTEX_POINT($,#1930);
#619=VERTEX_POINT($,#1932);
#620=VERTEX_POINT($,#1934);
#621=VERTEX_POINT($,#1936);
#622=VERTEX_POINT($,#1947);
#623=VERTEX_POINT($,#1956);
#624=VERTEX_POINT($,#1957);
#625=VERTEX_POINT($,#1959);
#626=VERTEX_POINT($,#1961);
#627=VERTEX_POINT($,#1965);
#628=VERTEX_POINT($,#1967);
#629=VERTEX_POINT($,#1971);
#630=VERTEX_POINT($,#1973);
#631=VERTEX_POINT($,#1982);
#632=VERTEX_POINT($,#1983);
#633=VERTEX_POINT($,#1985);
#634=VERTEX_POINT($,#1987);
#635=VERTEX_POINT($,#1991);
#636=VERTEX_POINT($,#1992);
#637=VERTEX_POINT($,#1994);
#638=VERTEX_POINT($,#1996);
#639=VERTEX_POINT($,#1998);
#640=VERTEX_POINT($,#2000);
#641=VERTEX_POINT($,#2002);
#642=VERTEX_POINT($,#2004);
#643=VERTEX_POINT($,#2006);
#644=VERTEX_POINT($,#2009);
#645=VERTEX_POINT($,#2013);
#646=VERTEX_POINT($,#2014);
#647=VERTEX_POINT($,#2016);
#648=VERTEX_POINT($,#2019);
#649=VERTEX_POINT($,#2021);
#650=VERTEX_POINT($,#2023);
#651=VERTEX_POINT($,#2025);
#652=VERTEX_POINT($,#2027);
#653=VERTEX_POINT($,#2029);
#654=VERTEX_POINT($,#2031);
#655=EDGE_CURVE($,#541,#542,#517,.T.);
#656=EDGE_CURVE($,#542,#543,#221,.T.);
#657=EDGE_CURVE($,#543,#544,#518,.T.);
#658=EDGE_CURVE($,#544,#541,#222,.T.);
#659=EDGE_CURVE($,#545,#546,#223,.T.);
#660=EDGE_CURVE($,#545,#547,#224,.F.);
#661=EDGE_CURVE($,#547,#548,#225,.T.);
#662=EDGE_CURVE($,#548,#546,#226,.T.);
#663=EDGE_CURVE($,#549,#543,#227,.T.);
#664=EDGE_CURVE($,#550,#549,#519,.T.);
#665=EDGE_CURVE($,#551,#550,#228,.T.);
#666=EDGE_CURVE($,#552,#551,#229,.T.);
#667=EDGE_CURVE($,#553,#552,#230,.T.);
#668=EDGE_CURVE($,#554,#553,#520,.T.);
#669=EDGE_CURVE($,#555,#554,#231,.T.);
#670=EDGE_CURVE($,#546,#555,#521,.T.);
#671=EDGE_CURVE($,#548,#556,#232,.F.);
#672=EDGE_CURVE($,#544,#556,#233,.T.);
#673=EDGE_CURVE($,#557,#550,#234,.T.);
#674=EDGE_CURVE($,#557,#558,#235,.F.);
#675=EDGE_CURVE($,#558,#551,#236,.T.);
#676=EDGE_CURVE($,#542,#559,#237,.F.);
#677=EDGE_CURVE($,#549,#559,#238,.T.);
#678=EDGE_CURVE($,#559,#557,#522,.T.);
#679=EDGE_CURVE($,#555,#560,#239,.T.);
#680=EDGE_CURVE($,#560,#545,#523,.T.);
#681=EDGE_CURVE($,#561,#554,#240,.T.);
#682=EDGE_CURVE($,#561,#560,#241,.F.);
#683=EDGE_CURVE($,#562,#561,#524,.T.);
#684=EDGE_CURVE($,#553,#562,#242,.T.);
#685=EDGE_CURVE($,#558,#563,#243,.T.);
#686=EDGE_CURVE($,#563,#552,#244,.T.);
#687=EDGE_CURVE($,#563,#562,#245,.F.);
#688=EDGE_CURVE($,#564,#541,#246,.T.);
#689=EDGE_CURVE($,#564,#547,#247,.T.);
#690=EDGE_CURVE($,#556,#564,#248,.T.);
#691=EDGE_CURVE($,#565,#566,#249,.T.);
#692=EDGE_CURVE($,#565,#567,#250,.F.);
#693=EDGE_CURVE($,#567,#568,#251,.T.);
#694=EDGE_CURVE($,#568,#566,#252,.T.);
#695=EDGE_CURVE($,#569,#570,#525,.T.);
#696=EDGE_CURVE($,#571,#569,#253,.F.);
#697=EDGE_CURVE($,#572,#571,#254,.T.);
#698=EDGE_CURVE($,#573,#572,#255,.F.);
#699=EDGE_CURVE($,#574,#573,#526,.T.);
#700=EDGE_CURVE($,#575,#574,#256,.F.);
#701=EDGE_CURVE($,#576,#575,#527,.T.);
#702=EDGE_CURVE($,#577,#576,#257,.F.);
#703=EDGE_CURVE($,#577,#567,#258,.T.);
#704=EDGE_CURVE($,#578,#565,#528,.T.);
#705=EDGE_CURVE($,#570,#578,#259,.F.);
#706=EDGE_CURVE($,#579,#580,#529,.T.);
#707=EDGE_CURVE($,#581,#579,#260,.T.);
#708=EDGE_CURVE($,#566,#581,#530,.T.);
#709=EDGE_CURVE($,#568,#582,#261,.F.);
#710=EDGE_CURVE($,#583,#582,#262,.T.);
#711=EDGE_CURVE($,#584,#583,#531,.T.);
#712=EDGE_CURVE($,#585,#584,#263,.T.);
#713=EDGE_CURVE($,#586,#585,#532,.T.);
#714=EDGE_CURVE($,#587,#586,#264,.T.);
#715=EDGE_CURVE($,#588,#587,#265,.T.);
#716=EDGE_CURVE($,#580,#588,#266,.T.);
#717=EDGE_CURVE($,#573,#586,#267,.T.);
#718=EDGE_CURVE($,#572,#587,#268,.T.);
#719=EDGE_CURVE($,#575,#584,#269,.T.);
#720=EDGE_CURVE($,#585,#574,#270,.T.);
#721=EDGE_CURVE($,#581,#578,#271,.T.);
#722=EDGE_CURVE($,#570,#579,#272,.T.);
#723=EDGE_CURVE($,#580,#569,#273,.T.);
#724=EDGE_CURVE($,#571,#588,#274,.T.);
#725=EDGE_CURVE($,#583,#576,#275,.T.);
#726=EDGE_CURVE($,#582,#577,#276,.T.);
#727=EDGE_CURVE($,#589,#590,#277,.T.);
#728=EDGE_CURVE($,#591,#589,#278,.T.);
#729=EDGE_CURVE($,#592,#591,#279,.T.);
#730=EDGE_CURVE($,#590,#592,#280,.T.);
#731=EDGE_CURVE($,#589,#593,#281,.T.);
#732=EDGE_CURVE($,#593,#594,#282,.T.);
#733=EDGE_CURVE($,#594,#591,#283,.T.);
#734=EDGE_CURVE($,#595,#596,#284,.T.);
#735=EDGE_CURVE($,#592,#596,#285,.T.);
#736=EDGE_CURVE($,#594,#597,#286,.T.);
#737=EDGE_CURVE($,#595,#597,#287,.T.);
#738=EDGE_CURVE($,#596,#598,#288,.T.);
#739=EDGE_CURVE($,#590,#598,#289,.T.);
#740=EDGE_CURVE($,#598,#599,#290,.T.);
#741=EDGE_CURVE($,#600,#599,#291,.F.);
#742=EDGE_CURVE($,#593,#600,#292,.T.);
#743=EDGE_CURVE($,#599,#595,#293,.T.);
#744=EDGE_CURVE($,#597,#600,#294,.F.);
#745=EDGE_CURVE($,#601,#602,#295,.T.);
#746=EDGE_CURVE($,#603,#601,#296,.T.);
#747=EDGE_CURVE($,#604,#603,#297,.T.);
#748=EDGE_CURVE($,#602,#604,#298,.T.);
#749=EDGE_CURVE($,#605,#604,#299,.T.);
#750=EDGE_CURVE($,#606,#605,#300,.T.);
#751=EDGE_CURVE($,#602,#606,#301,.T.);
#752=EDGE_CURVE($,#603,#607,#302,.T.);
#753=EDGE_CURVE($,#607,#605,#303,.T.);
#754=EDGE_CURVE($,#608,#609,#304,.T.);
#755=EDGE_CURVE($,#609,#610,#305,.T.);
#756=EDGE_CURVE($,#610,#611,#306,.F.);
#757=EDGE_CURVE($,#611,#612,#307,.T.);
#758=EDGE_CURVE($,#612,#613,#308,.T.);
#759=EDGE_CURVE($,#613,#614,#309,.T.);
#760=EDGE_CURVE($,#614,#608,#310,.T.);
#761=EDGE_CURVE($,#615,#616,#311,.F.);
#762=EDGE_CURVE($,#612,#616,#312,.T.);
#763=EDGE_CURVE($,#611,#615,#313,.T.);
#764=EDGE_CURVE($,#617,#615,#314,.T.);
#765=EDGE_CURVE($,#610,#617,#315,.T.);
#766=EDGE_CURVE($,#618,#617,#316,.T.);
#767=EDGE_CURVE($,#619,#618,#317,.T.);
#768=EDGE_CURVE($,#620,#619,#318,.T.);
#769=EDGE_CURVE($,#621,#620,#319,.T.);
#770=EDGE_CURVE($,#616,#621,#320,.T.);
#771=EDGE_CURVE($,#614,#620,#321,.F.);
#772=EDGE_CURVE($,#613,#621,#322,.F.);
#773=EDGE_CURVE($,#605,#619,#323,.T.);
#774=EDGE_CURVE($,#607,#608,#324,.T.);
#775=EDGE_CURVE($,#607,#622,#325,.T.);
#776=EDGE_CURVE($,#622,#609,#326,.T.);
#777=EDGE_CURVE($,#622,#601,#327,.T.);
#778=EDGE_CURVE($,#606,#618,#328,.T.);
#779=EDGE_CURVE($,#623,#624,#329,.T.);
#780=EDGE_CURVE($,#624,#625,#330,.T.);
#781=EDGE_CURVE($,#626,#625,#331,.T.);
#782=EDGE_CURVE($,#623,#626,#332,.T.);
#783=EDGE_CURVE($,#627,#623,#333,.T.);
#784=EDGE_CURVE($,#628,#626,#334,.T.);
#785=EDGE_CURVE($,#627,#628,#335,.T.);
#786=EDGE_CURVE($,#629,#627,#336,.T.);
#787=EDGE_CURVE($,#630,#628,#337,.T.);
#788=EDGE_CURVE($,#629,#630,#338,.T.);
#789=EDGE_CURVE($,#624,#629,#339,.T.);
#790=EDGE_CURVE($,#625,#630,#340,.T.);
#791=EDGE_CURVE($,#631,#632,#341,.T.);
#792=EDGE_CURVE($,#631,#633,#342,.F.);
#793=EDGE_CURVE($,#633,#634,#343,.T.);
#794=EDGE_CURVE($,#634,#632,#344,.T.);
#795=EDGE_CURVE($,#635,#636,#533,.T.);
#796=EDGE_CURVE($,#637,#635,#345,.F.);
#797=EDGE_CURVE($,#638,#637,#346,.T.);
#798=EDGE_CURVE($,#639,#638,#347,.F.);
#799=EDGE_CURVE($,#640,#639,#534,.T.);
#800=EDGE_CURVE($,#641,#640,#348,.F.);
#801=EDGE_CURVE($,#642,#641,#535,.T.);
#802=EDGE_CURVE($,#643,#642,#349,.F.);
#803=EDGE_CURVE($,#643,#633,#350,.T.);
#804=EDGE_CURVE($,#644,#631,#536,.T.);
#805=EDGE_CURVE($,#636,#644,#351,.F.);
#806=EDGE_CURVE($,#645,#646,#537,.T.);
#807=EDGE_CURVE($,#647,#645,#352,.T.);
#808=EDGE_CURVE($,#632,#647,#538,.T.);
#809=EDGE_CURVE($,#634,#648,#353,.F.);
#810=EDGE_CURVE($,#649,#648,#354,.T.);
#811=EDGE_CURVE($,#650,#649,#539,.T.);
#812=EDGE_CURVE($,#651,#650,#355,.T.);
#813=EDGE_CURVE($,#652,#651,#540,.T.);
#814=EDGE_CURVE($,#653,#652,#356,.T.);
#815=EDGE_CURVE($,#654,#653,#357,.T.);
#816=EDGE_CURVE($,#646,#654,#358,.T.);
#817=EDGE_CURVE($,#639,#652,#359,.T.);
#818=EDGE_CURVE($,#638,#653,#360,.T.);
#819=EDGE_CURVE($,#641,#650,#361,.T.);
#820=EDGE_CURVE($,#651,#640,#362,.T.);
#821=EDGE_CURVE($,#647,#644,#363,.T.);
#822=EDGE_CURVE($,#636,#645,#364,.T.);
#823=EDGE_CURVE($,#646,#635,#365,.T.);
#824=EDGE_CURVE($,#637,#654,#366,.T.);
#825=EDGE_CURVE($,#649,#642,#367,.T.);
#826=EDGE_CURVE($,#648,#643,#368,.T.);
#827=ORIENTED_EDGE($,*,*,#655,.T.);
#828=ORIENTED_EDGE($,*,*,#656,.T.);
#829=ORIENTED_EDGE($,*,*,#657,.T.);
#830=ORIENTED_EDGE($,*,*,#658,.T.);
#831=ORIENTED_EDGE($,*,*,#659,.F.);
#832=ORIENTED_EDGE($,*,*,#660,.T.);
#833=ORIENTED_EDGE($,*,*,#661,.T.);
#834=ORIENTED_EDGE($,*,*,#662,.T.);
#835=ORIENTED_EDGE($,*,*,#657,.F.);
#836=ORIENTED_EDGE($,*,*,#663,.F.);
#837=ORIENTED_EDGE($,*,*,#664,.F.);
#838=ORIENTED_EDGE($,*,*,#665,.F.);
#839=ORIENTED_EDGE($,*,*,#666,.F.);
#840=ORIENTED_EDGE($,*,*,#667,.F.);
#841=ORIENTED_EDGE($,*,*,#668,.F.);
#842=ORIENTED_EDGE($,*,*,#669,.F.);
#843=ORIENTED_EDGE($,*,*,#670,.F.);
#844=ORIENTED_EDGE($,*,*,#662,.F.);
#845=ORIENTED_EDGE($,*,*,#671,.T.);
#846=ORIENTED_EDGE($,*,*,#672,.F.);
#847=ORIENTED_EDGE($,*,*,#673,.F.);
#848=ORIENTED_EDGE($,*,*,#674,.T.);
#849=ORIENTED_EDGE($,*,*,#675,.T.);
#850=ORIENTED_EDGE($,*,*,#665,.T.);
#851=ORIENTED_EDGE($,*,*,#656,.F.);
#852=ORIENTED_EDGE($,*,*,#676,.T.);
#853=ORIENTED_EDGE($,*,*,#677,.F.);
#854=ORIENTED_EDGE($,*,*,#663,.T.);
#855=ORIENTED_EDGE($,*,*,#664,.T.);
#856=ORIENTED_EDGE($,*,*,#677,.T.);
#857=ORIENTED_EDGE($,*,*,#678,.T.);
#858=ORIENTED_EDGE($,*,*,#673,.T.);
#859=ORIENTED_EDGE($,*,*,#670,.T.);
#860=ORIENTED_EDGE($,*,*,#679,.T.);
#861=ORIENTED_EDGE($,*,*,#680,.T.);
#862=ORIENTED_EDGE($,*,*,#659,.T.);
#863=ORIENTED_EDGE($,*,*,#681,.F.);
#864=ORIENTED_EDGE($,*,*,#682,.T.);
#865=ORIENTED_EDGE($,*,*,#679,.F.);
#866=ORIENTED_EDGE($,*,*,#669,.T.);
#867=ORIENTED_EDGE($,*,*,#683,.T.);
#868=ORIENTED_EDGE($,*,*,#681,.T.);
#869=ORIENTED_EDGE($,*,*,#668,.T.);
#870=ORIENTED_EDGE($,*,*,#684,.T.);
#871=ORIENTED_EDGE($,*,*,#666,.T.);
#872=ORIENTED_EDGE($,*,*,#675,.F.);
#873=ORIENTED_EDGE($,*,*,#685,.T.);
#874=ORIENTED_EDGE($,*,*,#686,.T.);
#875=ORIENTED_EDGE($,*,*,#684,.F.);
#876=ORIENTED_EDGE($,*,*,#667,.T.);
#877=ORIENTED_EDGE($,*,*,#686,.F.);
#878=ORIENTED_EDGE($,*,*,#687,.T.);
#879=ORIENTED_EDGE($,*,*,#655,.F.);
#880=ORIENTED_EDGE($,*,*,#688,.F.);
#881=ORIENTED_EDGE($,*,*,#689,.T.);
#882=ORIENTED_EDGE($,*,*,#660,.F.);
#883=ORIENTED_EDGE($,*,*,#680,.F.);
#884=ORIENTED_EDGE($,*,*,#682,.F.);
#885=ORIENTED_EDGE($,*,*,#683,.F.);
#886=ORIENTED_EDGE($,*,*,#687,.F.);
#887=ORIENTED_EDGE($,*,*,#685,.F.);
#888=ORIENTED_EDGE($,*,*,#674,.F.);
#889=ORIENTED_EDGE($,*,*,#678,.F.);
#890=ORIENTED_EDGE($,*,*,#676,.F.);
#891=ORIENTED_EDGE($,*,*,#658,.F.);
#892=ORIENTED_EDGE($,*,*,#672,.T.);
#893=ORIENTED_EDGE($,*,*,#690,.T.);
#894=ORIENTED_EDGE($,*,*,#688,.T.);
#895=ORIENTED_EDGE($,*,*,#689,.F.);
#896=ORIENTED_EDGE($,*,*,#690,.F.);
#897=ORIENTED_EDGE($,*,*,#671,.F.);
#898=ORIENTED_EDGE($,*,*,#661,.F.);
#899=ORIENTED_EDGE($,*,*,#691,.F.);
#900=ORIENTED_EDGE($,*,*,#692,.T.);
#901=ORIENTED_EDGE($,*,*,#693,.T.);
#902=ORIENTED_EDGE($,*,*,#694,.T.);
#903=ORIENTED_EDGE($,*,*,#695,.F.);
#904=ORIENTED_EDGE($,*,*,#696,.F.);
#905=ORIENTED_EDGE($,*,*,#697,.F.);
#906=ORIENTED_EDGE($,*,*,#698,.F.);
#907=ORIENTED_EDGE($,*,*,#699,.F.);
#908=ORIENTED_EDGE($,*,*,#700,.F.);
#909=ORIENTED_EDGE($,*,*,#701,.F.);
#910=ORIENTED_EDGE($,*,*,#702,.F.);
#911=ORIENTED_EDGE($,*,*,#703,.T.);
#912=ORIENTED_EDGE($,*,*,#692,.F.);
#913=ORIENTED_EDGE($,*,*,#704,.F.);
#914=ORIENTED_EDGE($,*,*,#705,.F.);
#915=ORIENTED_EDGE($,*,*,#706,.F.);
#916=ORIENTED_EDGE($,*,*,#707,.F.);
#917=ORIENTED_EDGE($,*,*,#708,.F.);
#918=ORIENTED_EDGE($,*,*,#694,.F.);
#919=ORIENTED_EDGE($,*,*,#709,.T.);
#920=ORIENTED_EDGE($,*,*,#710,.F.);
#921=ORIENTED_EDGE($,*,*,#711,.F.);
#922=ORIENTED_EDGE($,*,*,#712,.F.);
#923=ORIENTED_EDGE($,*,*,#713,.F.);
#924=ORIENTED_EDGE($,*,*,#714,.F.);
#925=ORIENTED_EDGE($,*,*,#715,.F.);
#926=ORIENTED_EDGE($,*,*,#716,.F.);
#927=ORIENTED_EDGE($,*,*,#717,.F.);
#928=ORIENTED_EDGE($,*,*,#698,.T.);
#929=ORIENTED_EDGE($,*,*,#718,.T.);
#930=ORIENTED_EDGE($,*,*,#714,.T.);
#931=ORIENTED_EDGE($,*,*,#719,.F.);
#932=ORIENTED_EDGE($,*,*,#700,.T.);
#933=ORIENTED_EDGE($,*,*,#720,.F.);
#934=ORIENTED_EDGE($,*,*,#712,.T.);
#935=ORIENTED_EDGE($,*,*,#708,.T.);
#936=ORIENTED_EDGE($,*,*,#721,.T.);
#937=ORIENTED_EDGE($,*,*,#704,.T.);
#938=ORIENTED_EDGE($,*,*,#691,.T.);
#939=ORIENTED_EDGE($,*,*,#722,.F.);
#940=ORIENTED_EDGE($,*,*,#705,.T.);
#941=ORIENTED_EDGE($,*,*,#721,.F.);
#942=ORIENTED_EDGE($,*,*,#707,.T.);
#943=ORIENTED_EDGE($,*,*,#713,.T.);
#944=ORIENTED_EDGE($,*,*,#720,.T.);
#945=ORIENTED_EDGE($,*,*,#699,.T.);
#946=ORIENTED_EDGE($,*,*,#717,.T.);
#947=ORIENTED_EDGE($,*,*,#695,.T.);
#948=ORIENTED_EDGE($,*,*,#722,.T.);
#949=ORIENTED_EDGE($,*,*,#706,.T.);
#950=ORIENTED_EDGE($,*,*,#723,.T.);
#951=ORIENTED_EDGE($,*,*,#715,.T.);
#952=ORIENTED_EDGE($,*,*,#718,.F.);
#953=ORIENTED_EDGE($,*,*,#697,.T.);
#954=ORIENTED_EDGE($,*,*,#724,.T.);
#955=ORIENTED_EDGE($,*,*,#723,.F.);
#956=ORIENTED_EDGE($,*,*,#716,.T.);
#957=ORIENTED_EDGE($,*,*,#724,.F.);
#958=ORIENTED_EDGE($,*,*,#696,.T.);
#959=ORIENTED_EDGE($,*,*,#701,.T.);
#960=ORIENTED_EDGE($,*,*,#719,.T.);
#961=ORIENTED_EDGE($,*,*,#711,.T.);
#962=ORIENTED_EDGE($,*,*,#725,.T.);
#963=ORIENTED_EDGE($,*,*,#709,.F.);
#964=ORIENTED_EDGE($,*,*,#693,.F.);
#965=ORIENTED_EDGE($,*,*,#703,.F.);
#966=ORIENTED_EDGE($,*,*,#726,.F.);
#967=ORIENTED_EDGE($,*,*,#725,.F.);
#968=ORIENTED_EDGE($,*,*,#710,.T.);
#969=ORIENTED_EDGE($,*,*,#726,.T.);
#970=ORIENTED_EDGE($,*,*,#702,.T.);
#971=ORIENTED_EDGE($,*,*,#727,.F.);
#972=ORIENTED_EDGE($,*,*,#728,.F.);
#973=ORIENTED_EDGE($,*,*,#729,.F.);
#974=ORIENTED_EDGE($,*,*,#730,.F.);
#975=ORIENTED_EDGE($,*,*,#728,.T.);
#976=ORIENTED_EDGE($,*,*,#731,.T.);
#977=ORIENTED_EDGE($,*,*,#732,.T.);
#978=ORIENTED_EDGE($,*,*,#733,.T.);
#979=ORIENTED_EDGE($,*,*,#734,.T.);
#980=ORIENTED_EDGE($,*,*,#735,.F.);
#981=ORIENTED_EDGE($,*,*,#729,.T.);
#982=ORIENTED_EDGE($,*,*,#733,.F.);
#983=ORIENTED_EDGE($,*,*,#736,.T.);
#984=ORIENTED_EDGE($,*,*,#737,.F.);
#985=ORIENTED_EDGE($,*,*,#738,.T.);
#986=ORIENTED_EDGE($,*,*,#739,.F.);
#987=ORIENTED_EDGE($,*,*,#730,.T.);
#988=ORIENTED_EDGE($,*,*,#735,.T.);
#989=ORIENTED_EDGE($,*,*,#740,.T.);
#990=ORIENTED_EDGE($,*,*,#741,.F.);
#991=ORIENTED_EDGE($,*,*,#742,.F.);
#992=ORIENTED_EDGE($,*,*,#731,.F.);
#993=ORIENTED_EDGE($,*,*,#727,.T.);
#994=ORIENTED_EDGE($,*,*,#739,.T.);
#995=ORIENTED_EDGE($,*,*,#740,.F.);
#996=ORIENTED_EDGE($,*,*,#738,.F.);
#997=ORIENTED_EDGE($,*,*,#734,.F.);
#998=ORIENTED_EDGE($,*,*,#743,.F.);
#999=ORIENTED_EDGE($,*,*,#742,.T.);
#1000=ORIENTED_EDGE($,*,*,#744,.F.);
#1001=ORIENTED_EDGE($,*,*,#736,.F.);
#1002=ORIENTED_EDGE($,*,*,#732,.F.);
#1003=ORIENTED_EDGE($,*,*,#743,.T.);
#1004=ORIENTED_EDGE($,*,*,#737,.T.);
#1005=ORIENTED_EDGE($,*,*,#744,.T.);
#1006=ORIENTED_EDGE($,*,*,#741,.T.);
#1007=ORIENTED_EDGE($,*,*,#745,.F.);
#1008=ORIENTED_EDGE($,*,*,#746,.F.);
#1009=ORIENTED_EDGE($,*,*,#747,.F.);
#1010=ORIENTED_EDGE($,*,*,#748,.F.);
#1011=ORIENTED_EDGE($,*,*,#748,.T.);
#1012=ORIENTED_EDGE($,*,*,#749,.F.);
#1013=ORIENTED_EDGE($,*,*,#750,.F.);
#1014=ORIENTED_EDGE($,*,*,#751,.F.);
#1015=ORIENTED_EDGE($,*,*,#747,.T.);
#1016=ORIENTED_EDGE($,*,*,#752,.T.);
#1017=ORIENTED_EDGE($,*,*,#753,.T.);
#1018=ORIENTED_EDGE($,*,*,#749,.T.);
#1019=ORIENTED_EDGE($,*,*,#754,.T.);
#1020=ORIENTED_EDGE($,*,*,#755,.T.);
#1021=ORIENTED_EDGE($,*,*,#756,.T.);
#1022=ORIENTED_EDGE($,*,*,#757,.T.);
#1023=ORIENTED_EDGE($,*,*,#758,.T.);
#1024=ORIENTED_EDGE($,*,*,#759,.T.);
#1025=ORIENTED_EDGE($,*,*,#760,.T.);
#1026=ORIENTED_EDGE($,*,*,#761,.T.);
#1027=ORIENTED_EDGE($,*,*,#762,.F.);
#1028=ORIENTED_EDGE($,*,*,#757,.F.);
#1029=ORIENTED_EDGE($,*,*,#763,.T.);
#1030=ORIENTED_EDGE($,*,*,#764,.T.);
#1031=ORIENTED_EDGE($,*,*,#763,.F.);
#1032=ORIENTED_EDGE($,*,*,#756,.F.);
#1033=ORIENTED_EDGE($,*,*,#765,.T.);
#1034=ORIENTED_EDGE($,*,*,#766,.F.);
#1035=ORIENTED_EDGE($,*,*,#767,.F.);
#1036=ORIENTED_EDGE($,*,*,#768,.F.);
#1037=ORIENTED_EDGE($,*,*,#769,.F.);
#1038=ORIENTED_EDGE($,*,*,#770,.F.);
#1039=ORIENTED_EDGE($,*,*,#761,.F.);
#1040=ORIENTED_EDGE($,*,*,#764,.F.);
#1041=ORIENTED_EDGE($,*,*,#769,.T.);
#1042=ORIENTED_EDGE($,*,*,#771,.F.);
#1043=ORIENTED_EDGE($,*,*,#759,.F.);
#1044=ORIENTED_EDGE($,*,*,#772,.T.);
#1045=ORIENTED_EDGE($,*,*,#768,.T.);
#1046=ORIENTED_EDGE($,*,*,#773,.F.);
#1047=ORIENTED_EDGE($,*,*,#753,.F.);
#1048=ORIENTED_EDGE($,*,*,#774,.T.);
#1049=ORIENTED_EDGE($,*,*,#760,.F.);
#1050=ORIENTED_EDGE($,*,*,#771,.T.);
#1051=ORIENTED_EDGE($,*,*,#770,.T.);
#1052=ORIENTED_EDGE($,*,*,#772,.F.);
#1053=ORIENTED_EDGE($,*,*,#758,.F.);
#1054=ORIENTED_EDGE($,*,*,#762,.T.);
#1055=ORIENTED_EDGE($,*,*,#775,.T.);
#1056=ORIENTED_EDGE($,*,*,#776,.T.);
#1057=ORIENTED_EDGE($,*,*,#754,.F.);
#1058=ORIENTED_EDGE($,*,*,#774,.F.);
#1059=ORIENTED_EDGE($,*,*,#746,.T.);
#1060=ORIENTED_EDGE($,*,*,#777,.F.);
#1061=ORIENTED_EDGE($,*,*,#775,.F.);
#1062=ORIENTED_EDGE($,*,*,#752,.F.);
#1063=ORIENTED_EDGE($,*,*,#750,.T.);
#1064=ORIENTED_EDGE($,*,*,#773,.T.);
#1065=ORIENTED_EDGE($,*,*,#767,.T.);
#1066=ORIENTED_EDGE($,*,*,#778,.F.);
#1067=ORIENTED_EDGE($,*,*,#745,.T.);
#1068=ORIENTED_EDGE($,*,*,#751,.T.);
#1069=ORIENTED_EDGE($,*,*,#778,.T.);
#1070=ORIENTED_EDGE($,*,*,#766,.T.);
#1071=ORIENTED_EDGE($,*,*,#765,.F.);
#1072=ORIENTED_EDGE($,*,*,#755,.F.);
#1073=ORIENTED_EDGE($,*,*,#776,.F.);
#1074=ORIENTED_EDGE($,*,*,#777,.T.);
#1075=ORIENTED_EDGE($,*,*,#779,.T.);
#1076=ORIENTED_EDGE($,*,*,#780,.T.);
#1077=ORIENTED_EDGE($,*,*,#781,.F.);
#1078=ORIENTED_EDGE($,*,*,#782,.F.);
#1079=ORIENTED_EDGE($,*,*,#783,.T.);
#1080=ORIENTED_EDGE($,*,*,#782,.T.);
#1081=ORIENTED_EDGE($,*,*,#784,.F.);
#1082=ORIENTED_EDGE($,*,*,#785,.F.);
#1083=ORIENTED_EDGE($,*,*,#786,.T.);
#1084=ORIENTED_EDGE($,*,*,#785,.T.);
#1085=ORIENTED_EDGE($,*,*,#787,.F.);
#1086=ORIENTED_EDGE($,*,*,#788,.F.);
#1087=ORIENTED_EDGE($,*,*,#789,.T.);
#1088=ORIENTED_EDGE($,*,*,#788,.T.);
#1089=ORIENTED_EDGE($,*,*,#790,.F.);
#1090=ORIENTED_EDGE($,*,*,#780,.F.);
#1091=ORIENTED_EDGE($,*,*,#790,.T.);
#1092=ORIENTED_EDGE($,*,*,#787,.T.);
#1093=ORIENTED_EDGE($,*,*,#784,.T.);
#1094=ORIENTED_EDGE($,*,*,#781,.T.);
#1095=ORIENTED_EDGE($,*,*,#789,.F.);
#1096=ORIENTED_EDGE($,*,*,#779,.F.);
#1097=ORIENTED_EDGE($,*,*,#783,.F.);
#1098=ORIENTED_EDGE($,*,*,#786,.F.);
#1099=ORIENTED_EDGE($,*,*,#791,.F.);
#1100=ORIENTED_EDGE($,*,*,#792,.T.);
#1101=ORIENTED_EDGE($,*,*,#793,.T.);
#1102=ORIENTED_EDGE($,*,*,#794,.T.);
#1103=ORIENTED_EDGE($,*,*,#795,.F.);
#1104=ORIENTED_EDGE($,*,*,#796,.F.);
#1105=ORIENTED_EDGE($,*,*,#797,.F.);
#1106=ORIENTED_EDGE($,*,*,#798,.F.);
#1107=ORIENTED_EDGE($,*,*,#799,.F.);
#1108=ORIENTED_EDGE($,*,*,#800,.F.);
#1109=ORIENTED_EDGE($,*,*,#801,.F.);
#1110=ORIENTED_EDGE($,*,*,#802,.F.);
#1111=ORIENTED_EDGE($,*,*,#803,.T.);
#1112=ORIENTED_EDGE($,*,*,#792,.F.);
#1113=ORIENTED_EDGE($,*,*,#804,.F.);
#1114=ORIENTED_EDGE($,*,*,#805,.F.);
#1115=ORIENTED_EDGE($,*,*,#806,.F.);
#1116=ORIENTED_EDGE($,*,*,#807,.F.);
#1117=ORIENTED_EDGE($,*,*,#808,.F.);
#1118=ORIENTED_EDGE($,*,*,#794,.F.);
#1119=ORIENTED_EDGE($,*,*,#809,.T.);
#1120=ORIENTED_EDGE($,*,*,#810,.F.);
#1121=ORIENTED_EDGE($,*,*,#811,.F.);
#1122=ORIENTED_EDGE($,*,*,#812,.F.);
#1123=ORIENTED_EDGE($,*,*,#813,.F.);
#1124=ORIENTED_EDGE($,*,*,#814,.F.);
#1125=ORIENTED_EDGE($,*,*,#815,.F.);
#1126=ORIENTED_EDGE($,*,*,#816,.F.);
#1127=ORIENTED_EDGE($,*,*,#817,.F.);
#1128=ORIENTED_EDGE($,*,*,#798,.T.);
#1129=ORIENTED_EDGE($,*,*,#818,.T.);
#1130=ORIENTED_EDGE($,*,*,#814,.T.);
#1131=ORIENTED_EDGE($,*,*,#819,.F.);
#1132=ORIENTED_EDGE($,*,*,#800,.T.);
#1133=ORIENTED_EDGE($,*,*,#820,.F.);
#1134=ORIENTED_EDGE($,*,*,#812,.T.);
#1135=ORIENTED_EDGE($,*,*,#808,.T.);
#1136=ORIENTED_EDGE($,*,*,#821,.T.);
#1137=ORIENTED_EDGE($,*,*,#804,.T.);
#1138=ORIENTED_EDGE($,*,*,#791,.T.);
#1139=ORIENTED_EDGE($,*,*,#822,.F.);
#1140=ORIENTED_EDGE($,*,*,#805,.T.);
#1141=ORIENTED_EDGE($,*,*,#821,.F.);
#1142=ORIENTED_EDGE($,*,*,#807,.T.);
#1143=ORIENTED_EDGE($,*,*,#813,.T.);
#1144=ORIENTED_EDGE($,*,*,#820,.T.);
#1145=ORIENTED_EDGE($,*,*,#799,.T.);
#1146=ORIENTED_EDGE($,*,*,#817,.T.);
#1147=ORIENTED_EDGE($,*,*,#795,.T.);
#1148=ORIENTED_EDGE($,*,*,#822,.T.);
#1149=ORIENTED_EDGE($,*,*,#806,.T.);
#1150=ORIENTED_EDGE($,*,*,#823,.T.);
#1151=ORIENTED_EDGE($,*,*,#815,.T.);
#1152=ORIENTED_EDGE($,*,*,#818,.F.);
#1153=ORIENTED_EDGE($,*,*,#797,.T.);
#1154=ORIENTED_EDGE($,*,*,#824,.T.);
#1155=ORIENTED_EDGE($,*,*,#823,.F.);
#1156=ORIENTED_EDGE($,*,*,#816,.T.);
#1157=ORIENTED_EDGE($,*,*,#824,.F.);
#1158=ORIENTED_EDGE($,*,*,#796,.T.);
#1159=ORIENTED_EDGE($,*,*,#801,.T.);
#1160=ORIENTED_EDGE($,*,*,#819,.T.);
#1161=ORIENTED_EDGE($,*,*,#811,.T.);
#1162=ORIENTED_EDGE($,*,*,#825,.T.);
#1163=ORIENTED_EDGE($,*,*,#809,.F.);
#1164=ORIENTED_EDGE($,*,*,#793,.F.);
#1165=ORIENTED_EDGE($,*,*,#803,.F.);
#1166=ORIENTED_EDGE($,*,*,#826,.F.);
#1167=ORIENTED_EDGE($,*,*,#825,.F.);
#1168=ORIENTED_EDGE($,*,*,#810,.T.);
#1169=ORIENTED_EDGE($,*,*,#826,.T.);
#1170=ORIENTED_EDGE($,*,*,#802,.T.);
#1171=CYLINDRICAL_SURFACE($,#1266,0.76);
#1172=CYLINDRICAL_SURFACE($,#1276,0.2);
#1173=CYLINDRICAL_SURFACE($,#1278,0.2);
#1174=CYLINDRICAL_SURFACE($,#1281,0.76);
#1175=CYLINDRICAL_SURFACE($,#1301,0.2);
#1176=CYLINDRICAL_SURFACE($,#1303,0.2);
#1177=CYLINDRICAL_SURFACE($,#1304,0.76);
#1178=CYLINDRICAL_SURFACE($,#1307,0.76);
#1179=CYLINDRICAL_SURFACE($,#1351,0.2);
#1180=CYLINDRICAL_SURFACE($,#1353,0.2);
#1181=CYLINDRICAL_SURFACE($,#1354,0.76);
#1182=CYLINDRICAL_SURFACE($,#1357,0.76);
#1183=ADVANCED_FACE($,(#81),#1171,.T.);
#1184=ADVANCED_FACE($,(#82),#23,.T.);
#1185=ADVANCED_FACE($,(#83),#24,.F.);
#1186=ADVANCED_FACE($,(#84),#25,.T.);
#1187=ADVANCED_FACE($,(#85),#26,.T.);
#1188=ADVANCED_FACE($,(#86),#1172,.F.);
#1189=ADVANCED_FACE($,(#87),#1173,.F.);
#1190=ADVANCED_FACE($,(#88),#27,.T.);
#1191=ADVANCED_FACE($,(#89),#1174,.T.);
#1192=ADVANCED_FACE($,(#90),#28,.T.);
#1193=ADVANCED_FACE($,(#91),#29,.T.);
#1194=ADVANCED_FACE($,(#92),#30,.T.);
#1195=ADVANCED_FACE($,(#93),#31,.T.);
#1196=ADVANCED_FACE($,(#94),#32,.T.);
#1197=ADVANCED_FACE($,(#95),#33,.T.);
#1198=ADVANCED_FACE($,(#96),#34,.T.);
#1199=ADVANCED_FACE($,(#97),#35,.F.);
#1200=ADVANCED_FACE($,(#98),#36,.T.);
#1201=ADVANCED_FACE($,(#99),#37,.T.);
#1202=ADVANCED_FACE($,(#100),#1175,.F.);
#1203=ADVANCED_FACE($,(#101),#38,.T.);
#1204=ADVANCED_FACE($,(#102),#1176,.F.);
#1205=ADVANCED_FACE($,(#103),#1177,.T.);
#1206=ADVANCED_FACE($,(#104),#39,.T.);
#1207=ADVANCED_FACE($,(#105),#40,.T.);
#1208=ADVANCED_FACE($,(#106),#1178,.T.);
#1209=ADVANCED_FACE($,(#107),#41,.T.);
#1210=ADVANCED_FACE($,(#108),#42,.T.);
#1211=ADVANCED_FACE($,(#109),#43,.F.);
#1212=ADVANCED_FACE($,(#110),#44,.T.);
#1213=ADVANCED_FACE($,(#111),#45,.F.);
#1214=ADVANCED_FACE($,(#112),#46,.F.);
#1215=ADVANCED_FACE($,(#113),#47,.F.);
#1216=ADVANCED_FACE($,(#114),#48,.T.);
#1217=ADVANCED_FACE($,(#115),#49,.F.);
#1218=ADVANCED_FACE($,(#116),#50,.F.);
#1219=ADVANCED_FACE($,(#117),#51,.F.);
#1220=ADVANCED_FACE($,(#118),#52,.F.);
#1221=ADVANCED_FACE($,(#119),#53,.F.);
#1222=ADVANCED_FACE($,(#120),#54,.T.);
#1223=ADVANCED_FACE($,(#121),#55,.T.);
#1224=ADVANCED_FACE($,(#122),#56,.T.);
#1225=ADVANCED_FACE($,(#123),#57,.F.);
#1226=ADVANCED_FACE($,(#124),#58,.T.);
#1227=ADVANCED_FACE($,(#125),#59,.T.);
#1228=ADVANCED_FACE($,(#126),#60,.T.);
#1229=ADVANCED_FACE($,(#127),#61,.T.);
#1230=ADVANCED_FACE($,(#128),#62,.F.);
#1231=ADVANCED_FACE($,(#129),#63,.T.);
#1232=ADVANCED_FACE($,(#130),#64,.F.);
#1233=ADVANCED_FACE($,(#131),#65,.T.);
#1234=ADVANCED_FACE($,(#132),#66,.T.);
#1235=ADVANCED_FACE($,(#133),#67,.T.);
#1236=ADVANCED_FACE($,(#134),#68,.T.);
#1237=ADVANCED_FACE($,(#135),#69,.T.);
#1238=ADVANCED_FACE($,(#136),#70,.F.);
#1239=ADVANCED_FACE($,(#137),#71,.T.);
#1240=ADVANCED_FACE($,(#138),#72,.T.);
#1241=ADVANCED_FACE($,(#139),#73,.F.);
#1242=ADVANCED_FACE($,(#140),#74,.T.);
#1243=ADVANCED_FACE($,(#141),#75,.T.);
#1244=ADVANCED_FACE($,(#142),#1179,.F.);
#1245=ADVANCED_FACE($,(#143),#76,.T.);
#1246=ADVANCED_FACE($,(#144),#1180,.F.);
#1247=ADVANCED_FACE($,(#145),#1181,.T.);
#1248=ADVANCED_FACE($,(#146),#77,.T.);
#1249=ADVANCED_FACE($,(#147),#78,.T.);
#1250=ADVANCED_FACE($,(#148),#1182,.T.);
#1251=ADVANCED_FACE($,(#149),#79,.T.);
#1252=ADVANCED_FACE($,(#150),#80,.T.);
#1253=CLOSED_SHELL($,(#1183,#1184,#1185,#1186,#1187,#1188,#1189,#1190,#1191,
#1192,#1193,#1194,#1195,#1196));
#1254=CLOSED_SHELL($,(#1197,#1198,#1199,#1200,#1201,#1202,#1203,#1204,#1205,
#1206,#1207,#1208,#1209,#1210));
#1255=CLOSED_SHELL($,(#1211,#1212,#1213,#1214,#1215,#1216,#1217,#1218));
#1256=CLOSED_SHELL($,(#1219,#1220,#1221,#1222,#1223,#1224,#1225,#1226,#1227,
#1228,#1229,#1230,#1231,#1232));
#1257=CLOSED_SHELL($,(#1233,#1234,#1235,#1236,#1237,#1238));
#1258=CLOSED_SHELL($,(#1239,#1240,#1241,#1242,#1243,#1244,#1245,#1246,#1247,
#1248,#1249,#1250,#1251,#1252));
#1259=MANIFOLD_SOLID_BREP('1BC2',#1253);
#1260=MANIFOLD_SOLID_BREP('1BC5',#1254);
#1261=MANIFOLD_SOLID_BREP('1BD1',#1255);
#1262=MANIFOLD_SOLID_BREP('1BD4',#1256);
#1263=MANIFOLD_SOLID_BREP('1C97',#1257);
#1264=MANIFOLD_SOLID_BREP('1CA8',#1258);
#1265=AXIS2_PLACEMENT_3D('placement',#1698,#1360,#1361);
#1266=AXIS2_PLACEMENT_3D($,#1699,#1362,#1363);
#1267=AXIS2_PLACEMENT_3D($,#1702,#1364,#1365);
#1268=AXIS2_PLACEMENT_3D($,#1706,#1367,#1368);
#1269=AXIS2_PLACEMENT_3D($,#1708,#1370,#1371);
#1270=AXIS2_PLACEMENT_3D($,#1717,#1376,#1377);
#1271=AXIS2_PLACEMENT_3D($,#1721,#1379,#1380);
#1272=AXIS2_PLACEMENT_3D($,#1729,#1384,#1385);
#1273=AXIS2_PLACEMENT_3D($,#1732,#1387,#1388);
#1274=AXIS2_PLACEMENT_3D($,#1736,#1391,#1392);
#1275=AXIS2_PLACEMENT_3D($,#1742,#1396,#1397);
#1276=AXIS2_PLACEMENT_3D($,#1746,#1400,#1401);
#1277=AXIS2_PLACEMENT_3D($,#1747,#1402,#1403);
#1278=AXIS2_PLACEMENT_3D($,#1748,#1404,#1405);
#1279=AXIS2_PLACEMENT_3D($,#1751,#1407,#1408);
#1280=AXIS2_PLACEMENT_3D($,#1752,#1409,#1410);
#1281=AXIS2_PLACEMENT_3D($,#1756,#1413,#1414);
#1282=AXIS2_PLACEMENT_3D($,#1758,#1415,#1416);
#1283=AXIS2_PLACEMENT_3D($,#1760,#1418,#1419);
#1284=AXIS2_PLACEMENT_3D($,#1764,#1422,#1423);
#1285=AXIS2_PLACEMENT_3D($,#1766,#1425,#1426);
#1286=AXIS2_PLACEMENT_3D($,#1770,#1429,#1430);
#1287=AXIS2_PLACEMENT_3D($,#1772,#1432,#1433);
#1288=AXIS2_PLACEMENT_3D($,#1773,#1434,#1435);
#1289=AXIS2_PLACEMENT_3D($,#1782,#1440,#1441);
#1290=AXIS2_PLACEMENT_3D($,#1785,#1442,#1443);
#1291=AXIS2_PLACEMENT_3D($,#1793,#1447,#1448);
#1292=AXIS2_PLACEMENT_3D($,#1797,#1450,#1451);
#1293=AXIS2_PLACEMENT_3D($,#1802,#1454,#1455);
#1294=AXIS2_PLACEMENT_3D($,#1804,#1457,#1458);
#1295=AXIS2_PLACEMENT_3D($,#1807,#1459,#1460);
#1296=AXIS2_PLACEMENT_3D($,#1810,#1462,#1463);
#1297=AXIS2_PLACEMENT_3D($,#1816,#1466,#1467);
#1298=AXIS2_PLACEMENT_3D($,#1820,#1469,#1470);
#1299=AXIS2_PLACEMENT_3D($,#1826,#1474,#1475);
#1300=AXIS2_PLACEMENT_3D($,#1829,#1478,#1479);
#1301=AXIS2_PLACEMENT_3D($,#1832,#1482,#1483);
#1302=AXIS2_PLACEMENT_3D($,#1834,#1485,#1486);
#1303=AXIS2_PLACEMENT_3D($,#1836,#1488,#1489);
#1304=AXIS2_PLACEMENT_3D($,#1837,#1490,#1491);
#1305=AXIS2_PLACEMENT_3D($,#1839,#1493,#1494);
#1306=AXIS2_PLACEMENT_3D($,#1841,#1496,#1497);
#1307=AXIS2_PLACEMENT_3D($,#1842,#1498,#1499);
#1308=AXIS2_PLACEMENT_3D($,#1844,#1501,#1502);
#1309=AXIS2_PLACEMENT_3D($,#1846,#1504,#1505);
#1310=AXIS2_PLACEMENT_3D($,#1847,#1506,#1507);
#1311=AXIS2_PLACEMENT_3D($,#1856,#1512,#1513);
#1312=AXIS2_PLACEMENT_3D($,#1862,#1517,#1518);
#1313=AXIS2_PLACEMENT_3D($,#1870,#1523,#1524);
#1314=AXIS2_PLACEMENT_3D($,#1874,#1527,#1528);
#1315=AXIS2_PLACEMENT_3D($,#1880,#1532,#1533);
#1316=AXIS2_PLACEMENT_3D($,#1882,#1535,#1536);
#1317=AXIS2_PLACEMENT_3D($,#1884,#1538,#1539);
#1318=AXIS2_PLACEMENT_3D($,#1885,#1540,#1541);
#1319=AXIS2_PLACEMENT_3D($,#1894,#1546,#1547);
#1320=AXIS2_PLACEMENT_3D($,#1900,#1551,#1552);
#1321=AXIS2_PLACEMENT_3D($,#1904,#1555,#1556);
#1322=AXIS2_PLACEMENT_3D($,#1919,#1564,#1565);
#1323=AXIS2_PLACEMENT_3D($,#1925,#1569,#1570);
#1324=AXIS2_PLACEMENT_3D($,#1929,#1573,#1574);
#1325=AXIS2_PLACEMENT_3D($,#1939,#1580,#1581);
#1326=AXIS2_PLACEMENT_3D($,#1942,#1584,#1585);
#1327=AXIS2_PLACEMENT_3D($,#1945,#1588,#1589);
#1328=AXIS2_PLACEMENT_3D($,#1946,#1590,#1591);
#1329=AXIS2_PLACEMENT_3D($,#1950,#1594,#1595);
#1330=AXIS2_PLACEMENT_3D($,#1952,#1597,#1598);
#1331=AXIS2_PLACEMENT_3D($,#1954,#1600,#1601);
#1332=AXIS2_PLACEMENT_3D($,#1955,#1602,#1603);
#1333=AXIS2_PLACEMENT_3D($,#1964,#1608,#1609);
#1334=AXIS2_PLACEMENT_3D($,#1970,#1613,#1614);
#1335=AXIS2_PLACEMENT_3D($,#1976,#1618,#1619);
#1336=AXIS2_PLACEMENT_3D($,#1979,#1622,#1623);
#1337=AXIS2_PLACEMENT_3D($,#1980,#1624,#1625);
#1338=AXIS2_PLACEMENT_3D($,#1981,#1626,#1627);
#1339=AXIS2_PLACEMENT_3D($,#1990,#1632,#1633);
#1340=AXIS2_PLACEMENT_3D($,#1993,#1634,#1635);
#1341=AXIS2_PLACEMENT_3D($,#2001,#1639,#1640);
#1342=AXIS2_PLACEMENT_3D($,#2005,#1642,#1643);
#1343=AXIS2_PLACEMENT_3D($,#2010,#1646,#1647);
#1344=AXIS2_PLACEMENT_3D($,#2012,#1649,#1650);
#1345=AXIS2_PLACEMENT_3D($,#2015,#1651,#1652);
#1346=AXIS2_PLACEMENT_3D($,#2018,#1654,#1655);
#1347=AXIS2_PLACEMENT_3D($,#2024,#1658,#1659);
#1348=AXIS2_PLACEMENT_3D($,#2028,#1661,#1662);
#1349=AXIS2_PLACEMENT_3D($,#2034,#1666,#1667);
#1350=AXIS2_PLACEMENT_3D($,#2037,#1670,#1671);
#1351=AXIS2_PLACEMENT_3D($,#2040,#1674,#1675);
#1352=AXIS2_PLACEMENT_3D($,#2042,#1677,#1678);
#1353=AXIS2_PLACEMENT_3D($,#2044,#1680,#1681);
#1354=AXIS2_PLACEMENT_3D($,#2045,#1682,#1683);
#1355=AXIS2_PLACEMENT_3D($,#2047,#1685,#1686);
#1356=AXIS2_PLACEMENT_3D($,#2049,#1688,#1689);
#1357=AXIS2_PLACEMENT_3D($,#2050,#1690,#1691);
#1358=AXIS2_PLACEMENT_3D($,#2052,#1693,#1694);
#1359=AXIS2_PLACEMENT_3D($,#2054,#1696,#1697);
#1360=DIRECTION('axis',(0.,0.,1.));
#1361=DIRECTION('refdir',(1.,0.,0.));
#1362=DIRECTION('center_axis',(0.,1.,0.));
#1363=DIRECTION('ref_axis',(-0.648013413165148,0.,0.761628923005196));
#1364=DIRECTION('center_axis',(8.43787709524556E-29,-1.,-1.28157321315464E-28));
#1365=DIRECTION('ref_axis',(-0.648013413165148,0.,0.761628923005196));
#1366=DIRECTION($,(0.,-1.,0.));
#1367=DIRECTION('center_axis',(8.80756517146023E-29,1.,-1.28071910925571E-28));
#1368=DIRECTION('ref_axis',(-0.648013413165148,0.,0.761628923005196));
#1369=DIRECTION($,(0.,1.,0.));
#1370=DIRECTION('center_axis',(0.,0.,-1.));
#1371=DIRECTION('ref_axis',(-1.,0.,0.));
#1372=DIRECTION($,(0.,-1.,0.));
#1373=DIRECTION($,(-1.,-8.43787709524556E-29,0.));
#1374=DIRECTION($,(0.,-1.,0.));
#1375=DIRECTION($,(-1.,8.80756517146023E-29,0.));
#1376=DIRECTION('center_axis',(8.80756517146023E-29,1.,-1.28071910925571E-28));
#1377=DIRECTION('ref_axis',(0.,0.,1.));
#1378=DIRECTION($,(0.160157232716111,1.12312744054499E-28,0.987091515923786));
#1379=DIRECTION('center_axis',(-8.80756517146023E-29,-1.,1.28071910925571E-28));
#1380=DIRECTION('ref_axis',(0.648013413165149,0.,-0.761628923005195));
#1381=DIRECTION($,(1.,-8.80756517146023E-29,0.));
#1382=DIRECTION($,(0.,1.28071910925571E-28,1.));
#1383=DIRECTION($,(-1.,8.80756517146023E-29,0.));
#1384=DIRECTION('center_axis',(8.80756517146023E-29,1.,-1.28071910925571E-28));
#1385=DIRECTION('ref_axis',(0.648013413165147,0.,-0.761628923005197));
#1386=DIRECTION($,(-0.160157232716111,-1.12312744054499E-28,-0.987091515923786));
#1387=DIRECTION('center_axis',(-8.80756517146023E-29,-1.,1.28071910925571E-28));
#1388=DIRECTION('ref_axis',(-0.648013413165148,0.,0.761628923005196));
#1389=DIRECTION($,(0.,-1.28071910925571E-28,-1.));
#1390=DIRECTION($,(1.,-8.80756517146023E-29,0.));
#1391=DIRECTION('center_axis',(0.,0.,1.));
#1392=DIRECTION('ref_axis',(1.,0.,0.));
#1393=DIRECTION($,(0.,-1.,0.));
#1394=DIRECTION($,(1.,8.43787709524556E-29,0.));
#1395=DIRECTION($,(0.,-1.,0.));
#1396=DIRECTION('center_axis',(-0.987091515923786,0.,0.160157232716111));
#1397=DIRECTION('ref_axis',(0.160157232716111,0.,0.987091515923786));
#1398=DIRECTION($,(0.160157232716111,-1.12989134118281E-28,0.987091515923786));
#1399=DIRECTION($,(0.,1.,0.));
#1400=DIRECTION('center_axis',(0.,1.,0.));
#1401=DIRECTION('ref_axis',(0.648013413165149,0.,-0.761628923005195));
#1402=DIRECTION('center_axis',(-8.43787709524556E-29,1.,1.28157321315464E-28));
#1403=DIRECTION('ref_axis',(0.648013413165149,0.,-0.761628923005195));
#1404=DIRECTION('center_axis',(0.,1.,0.));
#1405=DIRECTION('ref_axis',(-0.648013413165148,0.,0.761628923005196));
#1406=DIRECTION($,(0.,1.,0.));
#1407=DIRECTION('center_axis',(-8.43787709524556E-29,1.,1.28157321315464E-28));
#1408=DIRECTION('ref_axis',(-0.648013413165148,0.,0.761628923005196));
#1409=DIRECTION('center_axis',(0.987091515923786,0.,-0.160157232716111));
#1410=DIRECTION('ref_axis',(-0.160157232716111,0.,-0.987091515923786));
#1411=DIRECTION($,(0.,-1.,0.));
#1412=DIRECTION($,(-0.160157232716111,1.12989134118281E-28,-0.987091515923786));
#1413=DIRECTION('center_axis',(0.,1.,0.));
#1414=DIRECTION('ref_axis',(0.648013413165147,0.,-0.761628923005197));
#1415=DIRECTION('center_axis',(8.43787709524556E-29,-1.,-1.28157321315464E-28));
#1416=DIRECTION('ref_axis',(0.648013413165147,0.,-0.761628923005197));
#1417=DIRECTION($,(0.,1.,0.));
#1418=DIRECTION('center_axis',(-1.,0.,0.));
#1419=DIRECTION('ref_axis',(0.,0.,1.));
#1420=DIRECTION($,(0.,0.,-1.));
#1421=DIRECTION($,(0.,-1.,0.));
#1422=DIRECTION('center_axis',(0.,0.,-1.));
#1423=DIRECTION('ref_axis',(-1.,0.,0.));
#1424=DIRECTION($,(-1.,-8.43787709524556E-29,0.));
#1425=DIRECTION('center_axis',(-8.43787709524556E-29,1.,1.28157321315464E-28));
#1426=DIRECTION('ref_axis',(0.,0.,1.));
#1427=DIRECTION($,(-1.,0.,0.));
#1428=DIRECTION($,(0.,1.28157321315464E-28,-1.));
#1429=DIRECTION('center_axis',(0.,0.,1.));
#1430=DIRECTION('ref_axis',(1.,0.,0.));
#1431=DIRECTION($,(0.,1.,0.));
#1432=DIRECTION('center_axis',(1.,0.,0.));
#1433=DIRECTION('ref_axis',(0.,1.,0.));
#1434=DIRECTION('center_axis',(0.,0.,-1.));
#1435=DIRECTION('ref_axis',(-1.,0.,0.));
#1436=DIRECTION($,(0.,-1.,0.));
#1437=DIRECTION($,(-1.,-8.43787709524556E-29,0.));
#1438=DIRECTION($,(0.,-1.,0.));
#1439=DIRECTION($,(-1.,8.80756517146023E-29,0.));
#1440=DIRECTION('center_axis',(-8.43787709524556E-29,1.,1.28157321315464E-28));
#1441=DIRECTION('ref_axis',(0.,0.,1.));
#1442=DIRECTION('center_axis',(8.43787709524556E-29,-1.,-1.28157321315464E-28));
#1443=DIRECTION('ref_axis',(0.648013413165147,0.,-0.761628923005197));
#1444=DIRECTION($,(-1.,-8.43787709524556E-29,0.));
#1445=DIRECTION($,(0.,0.,-1.));
#1446=DIRECTION($,(1.,8.43787709524556E-29,0.));
#1447=DIRECTION('center_axis',(-8.43787709524556E-29,1.,1.28157321315464E-28));
#1448=DIRECTION('ref_axis',(0.648013413165149,0.,-0.761628923005195));
#1449=DIRECTION($,(0.160157232716111,-1.12989134118281E-28,0.987091515923786));
#1450=DIRECTION('center_axis',(8.43787709524556E-29,-1.,-1.28157321315464E-28));
#1451=DIRECTION('ref_axis',(-0.648013413165148,0.,0.761628923005196));
#1452=DIRECTION($,(1.,8.43787709524556E-29,0.));
#1453=DIRECTION($,(0.,1.28157321315464E-28,-1.));
#1454=DIRECTION('center_axis',(-8.43787709524556E-29,1.,1.28157321315464E-28));
#1455=DIRECTION('ref_axis',(-0.648013413165145,0.,0.761628923005199));
#1456=DIRECTION($,(-0.160157232716111,1.12989134118281E-28,-0.987091515923786));
#1457=DIRECTION('center_axis',(8.80756517146023E-29,1.,-1.28071910925571E-28));
#1458=DIRECTION('ref_axis',(0.,0.,1.));
#1459=DIRECTION('center_axis',(8.80756517146023E-29,1.,-1.28071910925571E-28));
#1460=DIRECTION('ref_axis',(0.648013413165147,0.,-0.761628923005197));
#1461=DIRECTION($,(-0.160157232716111,-1.12312744054499E-28,-0.987091515923786));
#1462=DIRECTION('center_axis',(-8.80756517146023E-29,-1.,1.28071910925571E-28));
#1463=DIRECTION('ref_axis',(-0.648013413165145,0.,0.761628923005199));
#1464=DIRECTION($,(0.,-1.28071910925571E-28,-1.));
#1465=DIRECTION($,(1.,-8.80756517146023E-29,0.));
#1466=DIRECTION('center_axis',(8.80756517146023E-29,1.,-1.28071910925571E-28));
#1467=DIRECTION('ref_axis',(-0.648013413165148,0.,0.761628923005196));
#1468=DIRECTION($,(0.160157232716111,1.12312744054499E-28,0.987091515923786));
#1469=DIRECTION('center_axis',(-8.80756517146023E-29,-1.,1.28071910925571E-28));
#1470=DIRECTION('ref_axis',(0.648013413165149,0.,-0.761628923005195));
#1471=DIRECTION($,(1.,-8.80756517146023E-29,0.));
#1472=DIRECTION($,(0.,1.28071910925571E-28,1.));
#1473=DIRECTION($,(-1.,8.80756517146023E-29,0.));
#1474=DIRECTION('center_axis',(0.,0.,1.));
#1475=DIRECTION('ref_axis',(1.,0.,0.));
#1476=DIRECTION($,(0.,-1.,0.));
#1477=DIRECTION($,(0.,-1.,0.));
#1478=DIRECTION('center_axis',(-0.987091515923786,0.,0.160157232716111));
#1479=DIRECTION('ref_axis',(0.160157232716111,0.,0.987091515923786));
#1480=DIRECTION($,(0.,-1.,0.));
#1481=DIRECTION($,(0.,1.,0.));
#1482=DIRECTION('center_axis',(0.,1.,0.));
#1483=DIRECTION('ref_axis',(-0.648013413165145,0.,0.761628923005199));
#1484=DIRECTION($,(0.,1.,0.));
#1485=DIRECTION('center_axis',(0.987091515923786,0.,-0.160157232716111));
#1486=DIRECTION('ref_axis',(-0.160157232716111,0.,-0.987091515923786));
#1487=DIRECTION($,(0.,-1.,0.));
#1488=DIRECTION('center_axis',(0.,1.,0.));
#1489=DIRECTION('ref_axis',(0.648013413165149,0.,-0.761628923005195));
#1490=DIRECTION('center_axis',(0.,1.,0.));
#1491=DIRECTION('ref_axis',(0.648013413165147,0.,-0.761628923005197));
#1492=DIRECTION($,(0.,1.,0.));
#1493=DIRECTION('center_axis',(-1.,0.,0.));
#1494=DIRECTION('ref_axis',(0.,0.,1.));
#1495=DIRECTION($,(0.,-1.,0.));
#1496=DIRECTION('center_axis',(0.,0.,-1.));
#1497=DIRECTION('ref_axis',(-1.,0.,0.));
#1498=DIRECTION('center_axis',(0.,1.,0.));
#1499=DIRECTION('ref_axis',(-0.648013413165148,0.,0.761628923005196));
#1500=DIRECTION($,(0.,1.,0.));
#1501=DIRECTION('center_axis',(1.,0.,0.));
#1502=DIRECTION('ref_axis',(0.,1.,0.));
#1503=DIRECTION($,(0.,1.,0.));
#1504=DIRECTION('center_axis',(0.,0.,1.));
#1505=DIRECTION('ref_axis',(1.,0.,0.));
#1506=DIRECTION('center_axis',(-0.939692620785908,0.34202014332567,0.));
#1507=DIRECTION('ref_axis',(0.,0.,1.));
#1508=DIRECTION($,(0.34202014332567,0.939692620785908,0.));
#1509=DIRECTION($,(0.,0.,1.));
#1510=DIRECTION($,(-0.34202014332567,-0.939692620785908,0.));
#1511=DIRECTION($,(0.,0.,-1.));
#1512=DIRECTION('center_axis',(0.,-1.,0.));
#1513=DIRECTION('ref_axis',(1.,0.,0.));
#1514=DIRECTION($,(-1.,0.,0.));
#1515=DIRECTION($,(0.,0.,-1.));
#1516=DIRECTION($,(1.,0.,0.));
#1517=DIRECTION('center_axis',(0.,0.,1.));
#1518=DIRECTION('ref_axis',(0.,-1.,0.));
#1519=DIRECTION($,(0.342020143325669,-0.939692620785908,0.));
#1520=DIRECTION($,(0.,1.,0.));
#1521=DIRECTION($,(0.,1.,0.));
#1522=DIRECTION($,(-1.,0.,0.));
#1523=DIRECTION('center_axis',(-1.,0.,0.));
#1524=DIRECTION('ref_axis',(0.,-1.,0.));
#1525=DIRECTION($,(0.,0.,1.));
#1526=DIRECTION($,(0.,1.,0.));
#1527=DIRECTION('center_axis',(0.,0.,-1.));
#1528=DIRECTION('ref_axis',(0.,1.,0.));
#1529=DIRECTION($,(-0.342020143325669,0.939692620785908,0.));
#1530=DIRECTION($,(-1.,0.,0.));
#1531=DIRECTION($,(0.,1.,0.));
#1532=DIRECTION('center_axis',(0.939692620785908,0.342020143325669,0.));
#1533=DIRECTION('ref_axis',(0.,0.,1.));
#1534=DIRECTION($,(0.,0.,-1.));
#1535=DIRECTION('center_axis',(1.,0.,0.));
#1536=DIRECTION('ref_axis',(0.,1.,0.));
#1537=DIRECTION($,(0.,0.,-1.));
#1538=DIRECTION('center_axis',(0.,-1.,0.));
#1539=DIRECTION('ref_axis',(1.,0.,0.));
#1540=DIRECTION('center_axis',(-1.,0.,0.));
#1541=DIRECTION('ref_axis',(0.,-1.,0.));
#1542=DIRECTION($,(0.,-1.,0.));
#1543=DIRECTION($,(0.,0.,-1.));
#1544=DIRECTION($,(0.,1.,0.));
#1545=DIRECTION($,(0.,0.,1.));
#1546=DIRECTION('center_axis',(-3.08931624243522E-16,-1.,0.));
#1547=DIRECTION('ref_axis',(1.,-4.44089209850063E-16,0.));
#1548=DIRECTION($,(-1.,3.08931624243522E-16,0.));
#1549=DIRECTION($,(0.,0.,1.));
#1550=DIRECTION($,(1.,-3.08931624243522E-16,0.));
#1551=DIRECTION('center_axis',(0.,0.,1.));
#1552=DIRECTION('ref_axis',(1.,0.,0.));
#1553=DIRECTION($,(1.,0.,0.));
#1554=DIRECTION($,(0.,-1.,0.));
#1555=DIRECTION('center_axis',(4.65738330530303E-31,1.,6.47027695241419E-30));
#1556=DIRECTION('ref_axis',(0.,0.,1.));
#1557=DIRECTION($,(-1.07657990266682E-15,0.,-1.));
#1558=DIRECTION($,(-1.,0.,9.64818171425226E-17));
#1559=DIRECTION($,(0.17364817766693,6.29110429450747E-30,-0.984807753012208));
#1560=DIRECTION($,(0.,0.,1.));
#1561=DIRECTION($,(0.17364817766693,0.,0.984807753012208));
#1562=DIRECTION($,(1.,0.,0.));
#1563=DIRECTION($,(0.173648177666931,0.,-0.984807753012208));
#1564=DIRECTION('center_axis',(-1.,0.,0.));
#1565=DIRECTION('ref_axis',(0.,0.,1.));
#1566=DIRECTION($,(0.,-1.42649426611095E-28,-1.));
#1567=DIRECTION($,(0.,-1.,0.));
#1568=DIRECTION($,(0.,-1.,0.));
#1569=DIRECTION('center_axis',(-0.984807753012208,0.,-0.17364817766693));
#1570=DIRECTION('ref_axis',(-0.17364817766693,0.,0.984807753012208));
#1571=DIRECTION($,(-0.17364817766693,0.,0.984807753012208));
#1572=DIRECTION($,(0.,-1.,0.));
#1573=DIRECTION('center_axis',(-1.19782007323242E-29,1.,-1.42649426611095E-28));
#1574=DIRECTION('ref_axis',(0.,0.,1.));
#1575=DIRECTION($,(-1.,0.,9.64818171425226E-17));
#1576=DIRECTION($,(-1.07657990266682E-15,-1.42649426611096E-28,-1.));
#1577=DIRECTION($,(0.173648177666931,-1.38402268560456E-28,-0.984807753012208));
#1578=DIRECTION($,(1.,0.,0.));
#1579=DIRECTION($,(0.17364817766693,0.,0.984807753012208));
#1580=DIRECTION('center_axis',(0.,0.,1.));
#1581=DIRECTION('ref_axis',(1.,0.,0.));
#1582=DIRECTION($,(0.,1.,0.));
#1583=DIRECTION($,(0.,1.,0.));
#1584=DIRECTION('center_axis',(0.984807753012208,0.,0.173648177666931));
#1585=DIRECTION('ref_axis',(0.173648177666931,0.,-0.984807753012208));
#1586=DIRECTION($,(0.,-1.,0.));
#1587=DIRECTION($,(0.,1.,0.));
#1588=DIRECTION('center_axis',(-0.984807753012208,0.,0.17364817766693));
#1589=DIRECTION('ref_axis',(0.17364817766693,0.,0.984807753012208));
#1590=DIRECTION('center_axis',(1.,0.,0.));
#1591=DIRECTION('ref_axis',(0.,1.,0.));
#1592=DIRECTION($,(0.,0.,-1.));
#1593=DIRECTION($,(0.,1.,0.));
#1594=DIRECTION('center_axis',(0.,1.,0.));
#1595=DIRECTION('ref_axis',(-1.,0.,0.));
#1596=DIRECTION($,(-1.,0.,0.));
#1597=DIRECTION('center_axis',(1.,0.,0.));
#1598=DIRECTION('ref_axis',(0.,1.,0.));
#1599=DIRECTION($,(0.,-1.,0.));
#1600=DIRECTION('center_axis',(0.,0.,1.));
#1601=DIRECTION('ref_axis',(1.,0.,0.));
#1602=DIRECTION('center_axis',(1.,0.,0.));
#1603=DIRECTION('ref_axis',(0.,1.,0.));
#1604=DIRECTION($,(0.,1.,0.));
#1605=DIRECTION($,(0.,0.,1.));
#1606=DIRECTION($,(0.,1.,0.));
#1607=DIRECTION($,(0.,0.,1.));
#1608=DIRECTION('center_axis',(-3.08931624243522E-16,-1.,0.));
#1609=DIRECTION('ref_axis',(1.,-4.44089209850063E-16,0.));
#1610=DIRECTION($,(1.,-3.08931624243522E-16,0.));
#1611=DIRECTION($,(1.,-3.08931624243522E-16,0.));
#1612=DIRECTION($,(0.,0.,1.));
#1613=DIRECTION('center_axis',(-1.,0.,0.));
#1614=DIRECTION('ref_axis',(0.,-1.,0.));
#1615=DIRECTION($,(0.,-1.,0.));
#1616=DIRECTION($,(0.,-1.,0.));
#1617=DIRECTION($,(0.,0.,1.));
#1618=DIRECTION('center_axis',(0.,1.,0.));
#1619=DIRECTION('ref_axis',(-1.,0.,0.));
#1620=DIRECTION($,(-1.,0.,0.));
#1621=DIRECTION($,(-1.,0.,0.));
#1622=DIRECTION('center_axis',(0.,0.,1.));
#1623=DIRECTION('ref_axis',(1.,0.,0.));
#1624=DIRECTION('center_axis',(0.,0.,1.));
#1625=DIRECTION('ref_axis',(1.,0.,0.));
#1626=DIRECTION('center_axis',(0.,0.,-1.));
#1627=DIRECTION('ref_axis',(-1.,0.,0.));
#1628=DIRECTION($,(0.,-1.,0.));
#1629=DIRECTION($,(-1.,-8.43787709524556E-29,0.));
#1630=DIRECTION($,(0.,-1.,0.));
#1631=DIRECTION($,(-1.,8.80756517146023E-29,0.));
#1632=DIRECTION('center_axis',(-8.43787709524556E-29,1.,1.28157321315464E-28));
#1633=DIRECTION('ref_axis',(0.,0.,1.));
#1634=DIRECTION('center_axis',(8.43787709524556E-29,-1.,-1.28157321315464E-28));
#1635=DIRECTION('ref_axis',(0.648013413165147,0.,-0.761628923005197));
#1636=DIRECTION($,(-1.,-8.43787709524556E-29,0.));
#1637=DIRECTION($,(0.,0.,-1.));
#1638=DIRECTION($,(1.,8.43787709524556E-29,0.));
#1639=DIRECTION('center_axis',(-8.43787709524556E-29,1.,1.28157321315464E-28));
#1640=DIRECTION('ref_axis',(0.648013413165149,0.,-0.761628923005195));
#1641=DIRECTION($,(0.160157232716111,-1.12989134118281E-28,0.987091515923786));
#1642=DIRECTION('center_axis',(8.43787709524556E-29,-1.,-1.28157321315464E-28));
#1643=DIRECTION('ref_axis',(-0.648013413165148,0.,0.761628923005196));
#1644=DIRECTION($,(1.,8.43787709524556E-29,0.));
#1645=DIRECTION($,(0.,1.28157321315464E-28,-1.));
#1646=DIRECTION('center_axis',(-8.43787709524556E-29,1.,1.28157321315464E-28));
#1647=DIRECTION('ref_axis',(-0.648013413165145,0.,0.761628923005199));
#1648=DIRECTION($,(-0.160157232716111,1.12989134118281E-28,-0.987091515923786));
#1649=DIRECTION('center_axis',(8.80756517146023E-29,1.,-1.28071910925571E-28));
#1650=DIRECTION('ref_axis',(0.,0.,1.));
#1651=DIRECTION('center_axis',(8.80756517146023E-29,1.,-1.28071910925571E-28));
#1652=DIRECTION('ref_axis',(0.648013413165147,0.,-0.761628923005197));
#1653=DIRECTION($,(-0.160157232716111,-1.12312744054499E-28,-0.987091515923786));
#1654=DIRECTION('center_axis',(-8.80756517146023E-29,-1.,1.28071910925571E-28));
#1655=DIRECTION('ref_axis',(-0.648013413165145,0.,0.761628923005199));
#1656=DIRECTION($,(0.,-1.28071910925571E-28,-1.));
#1657=DIRECTION($,(1.,-8.80756517146023E-29,0.));
#1658=DIRECTION('center_axis',(8.80756517146023E-29,1.,-1.28071910925571E-28));
#1659=DIRECTION('ref_axis',(-0.648013413165148,0.,0.761628923005196));
#1660=DIRECTION($,(0.160157232716111,1.12312744054499E-28,0.987091515923786));
#1661=DIRECTION('center_axis',(-8.80756517146023E-29,-1.,1.28071910925571E-28));
#1662=DIRECTION('ref_axis',(0.648013413165149,0.,-0.761628923005195));
#1663=DIRECTION($,(1.,-8.80756517146023E-29,0.));
#1664=DIRECTION($,(0.,1.28071910925571E-28,1.));
#1665=DIRECTION($,(-1.,8.80756517146023E-29,0.));
#1666=DIRECTION('center_axis',(0.,0.,1.));
#1667=DIRECTION('ref_axis',(1.,0.,0.));
#1668=DIRECTION($,(0.,-1.,0.));
#1669=DIRECTION($,(0.,-1.,0.));
#1670=DIRECTION('center_axis',(-0.987091515923786,0.,0.160157232716111));
#1671=DIRECTION('ref_axis',(0.160157232716111,0.,0.987091515923786));
#1672=DIRECTION($,(0.,-1.,0.));
#1673=DIRECTION($,(0.,1.,0.));
#1674=DIRECTION('center_axis',(0.,1.,0.));
#1675=DIRECTION('ref_axis',(-0.648013413165145,0.,0.761628923005199));
#1676=DIRECTION($,(0.,1.,0.));
#1677=DIRECTION('center_axis',(0.987091515923786,0.,-0.160157232716111));
#1678=DIRECTION('ref_axis',(-0.160157232716111,0.,-0.987091515923786));
#1679=DIRECTION($,(0.,-1.,0.));
#1680=DIRECTION('center_axis',(0.,1.,0.));
#1681=DIRECTION('ref_axis',(0.648013413165149,0.,-0.761628923005195));
#1682=DIRECTION('center_axis',(0.,1.,0.));
#1683=DIRECTION('ref_axis',(0.648013413165147,0.,-0.761628923005197));
#1684=DIRECTION($,(0.,1.,0.));
#1685=DIRECTION('center_axis',(-1.,0.,0.));
#1686=DIRECTION('ref_axis',(0.,0.,1.));
#1687=DIRECTION($,(0.,-1.,0.));
#1688=DIRECTION('center_axis',(0.,0.,-1.));
#1689=DIRECTION('ref_axis',(-1.,0.,0.));
#1690=DIRECTION('center_axis',(0.,1.,0.));
#1691=DIRECTION('ref_axis',(-0.648013413165148,0.,0.761628923005196));
#1692=DIRECTION($,(0.,1.,0.));
#1693=DIRECTION('center_axis',(1.,0.,0.));
#1694=DIRECTION('ref_axis',(0.,1.,0.));
#1695=DIRECTION($,(0.,1.,0.));
#1696=DIRECTION('center_axis',(0.,0.,1.));
#1697=DIRECTION('ref_axis',(1.,0.,0.));
#1698=CARTESIAN_POINT('',(0.,0.,0.));
#1699=CARTESIAN_POINT('Origin',(-4.11102195853116,-2.045,2.325));
#1700=CARTESIAN_POINT('',(-4.11102195853116,-2.165,3.085));
#1701=CARTESIAN_POINT('',(-4.86121151063324,-2.165,2.44671949686425));
#1702=CARTESIAN_POINT('Origin',(-4.11102195853116,-2.165,2.325));
#1703=CARTESIAN_POINT('',(-4.86121151063324,-2.915,2.44671949686425));
#1704=CARTESIAN_POINT($,(-4.86121151063324,-2.045,2.44671949686425));
#1705=CARTESIAN_POINT('',(-4.11102195853116,-2.915,3.085));
#1706=CARTESIAN_POINT('Origin',(-4.11102195853116,-2.915,2.325));
#1707=CARTESIAN_POINT($,(-4.11102195853116,-2.045,3.085));
#1708=CARTESIAN_POINT('Origin',(-3.01199834410207,-2.045,2.525));
#1709=CARTESIAN_POINT('',(-4.11102195853116,-2.165,2.525));
#1710=CARTESIAN_POINT('',(-4.11102195853116,-2.915,2.525));
#1711=CARTESIAN_POINT($,(-4.11102195853116,-2.045,2.525));
#1712=CARTESIAN_POINT('',(-3.5725,-2.165,2.525));
#1713=CARTESIAN_POINT($,(-4.08754220933291,-2.165,2.525));
#1714=CARTESIAN_POINT('',(-3.5725,-2.915,2.525));
#1715=CARTESIAN_POINT($,(-3.5725,1.4375,2.525));
#1716=CARTESIAN_POINT($,(-4.01293205900628,-2.915,2.525));
#1717=CARTESIAN_POINT('Origin',(-5.01386577391049,-2.915,1.43841639614645));
#1718=CARTESIAN_POINT('',(-5.14008169681524,-2.915,0.72796855345678));
#1719=CARTESIAN_POINT($,(-5.08426981826469,-2.915,1.07195196819693));
#1720=CARTESIAN_POINT('',(-5.3375,-2.915,0.560000000000002));
#1721=CARTESIAN_POINT('Origin',(-5.3375,-2.915,0.760000000000002));
#1722=CARTESIAN_POINT('',(-7.6225,-2.915,0.560000000000002));
#1723=CARTESIAN_POINT($,(-6.39475719423699,-2.915,0.560000000000002));
#1724=CARTESIAN_POINT('',(-7.6225,-2.915,3.42511028730227E-16));
#1725=CARTESIAN_POINT($,(-7.6225,-2.915,0.629208198073227));
#1726=CARTESIAN_POINT('',(-5.3375,-2.915,3.42511028730227E-16));
#1727=CARTESIAN_POINT($,(-5.20593371490421,-2.915,3.42511028730227E-16));
#1728=CARTESIAN_POINT('',(-4.58731044789792,-2.915,0.638280503135756));
#1729=CARTESIAN_POINT('Origin',(-5.3375,-2.915,0.76));
#1730=CARTESIAN_POINT('',(-4.30844026171592,-2.915,2.35703144654322));
#1731=CARTESIAN_POINT($,(-4.39050494844033,-2.915,1.85124500999687));
#1732=CARTESIAN_POINT('Origin',(-4.11102195853116,-2.915,2.325));
#1733=CARTESIAN_POINT('',(-3.5725,-2.915,3.085));
#1734=CARTESIAN_POINT($,(-3.5725,-2.915,2.16420819807322));
#1735=CARTESIAN_POINT($,(-4.40970088079641,-2.915,3.085));
#1736=CARTESIAN_POINT('Origin',(-7.77564861456349,-2.045,0.560000000000002));
#1737=CARTESIAN_POINT('',(-5.3375,-2.165,0.560000000000002));
#1738=CARTESIAN_POINT($,(-5.3375,-2.045,0.560000000000002));
#1739=CARTESIAN_POINT('',(-7.6225,-2.165,0.560000000000002));
#1740=CARTESIAN_POINT($,(-6.46936734456362,-2.165,0.560000000000002));
#1741=CARTESIAN_POINT($,(-7.6225,-2.165,0.560000000000002));
#1742=CARTESIAN_POINT('Origin',(-5.14401001072547,-2.045,0.703757312622312));
#1743=CARTESIAN_POINT('',(-5.14008169681524,-2.165,0.72796855345678));
#1744=CARTESIAN_POINT($,(-5.08426981826469,-2.165,1.07195196819693));
#1745=CARTESIAN_POINT($,(-5.14008169681524,-2.045,0.72796855345678));
#1746=CARTESIAN_POINT('Origin',(-5.3375,-2.045,0.760000000000002));
#1747=CARTESIAN_POINT('Origin',(-5.3375,-2.165,0.760000000000002));
#1748=CARTESIAN_POINT('Origin',(-4.11102195853116,-2.045,2.325));
#1749=CARTESIAN_POINT('',(-4.30844026171592,-2.165,2.35703144654322));
#1750=CARTESIAN_POINT($,(-4.30844026171592,-2.045,2.35703144654322));
#1751=CARTESIAN_POINT('Origin',(-4.11102195853116,-2.165,2.325));
#1752=CARTESIAN_POINT('Origin',(-4.30925151999406,-2.045,2.35203144654322));
#1753=CARTESIAN_POINT('',(-4.58731044789792,-2.165,0.638280503135756));
#1754=CARTESIAN_POINT($,(-4.58731044789792,-1.985,0.638280503135756));
#1755=CARTESIAN_POINT($,(-4.39050494844033,-2.165,1.85124500999687));
#1756=CARTESIAN_POINT('Origin',(-5.3375,-1.985,0.76));
#1757=CARTESIAN_POINT('',(-5.3375,-2.165,3.42511028730227E-16));
#1758=CARTESIAN_POINT('Origin',(-5.3375,-2.165,0.76));
#1759=CARTESIAN_POINT($,(-5.3375,-1.985,3.42511028730227E-16));
#1760=CARTESIAN_POINT('Origin',(-7.6225,-2.165,-0.179999999999998));
#1761=CARTESIAN_POINT('',(-7.6225,-2.165,3.42511028730227E-16));
#1762=CARTESIAN_POINT($,(-7.6225,-2.165,0.565000000000002));
#1763=CARTESIAN_POINT($,(-7.6225,-2.045,3.42511028730227E-16));
#1764=CARTESIAN_POINT('Origin',(-5.55115027046142,-1.925,3.42511028730227E-16));
#1765=CARTESIAN_POINT($,(-5.28054386523084,-2.165,3.42511028730227E-16));
#1766=CARTESIAN_POINT('Origin',(-5.16308607456375,-2.165,1.46262763698092));
#1767=CARTESIAN_POINT('',(-3.5725,-2.165,3.085));
#1768=CARTESIAN_POINT($,(-2.85884972953858,-2.165,3.085));
#1769=CARTESIAN_POINT($,(-3.5725,-2.165,2.17631381849046));
#1770=CARTESIAN_POINT('Origin',(-3.95868460224582,-2.045,3.085));
#1771=CARTESIAN_POINT($,(-3.5725,1.4375,3.085));
#1772=CARTESIAN_POINT('Origin',(-3.5725,4.92,2.89));
#1773=CARTESIAN_POINT('Origin',(-3.01199834410207,3.0270670533972,2.525));
#1774=CARTESIAN_POINT('',(-4.11102195853116,2.90993491728049,2.525));
#1775=CARTESIAN_POINT('',(-4.11102195853116,2.17006508271951,2.525));
#1776=CARTESIAN_POINT($,(-4.11102195853116,3.0270670533972,2.525));
#1777=CARTESIAN_POINT('',(-3.5725,2.90993491728049,2.525));
#1778=CARTESIAN_POINT($,(-4.08754220933291,2.90993491728049,2.525));
#1779=CARTESIAN_POINT('',(-3.5725,2.17006508271951,2.525));
#1780=CARTESIAN_POINT($,(-3.5725,3.9735335266986,2.525));
#1781=CARTESIAN_POINT($,(-4.01293205900628,2.17006508271951,2.525));
#1782=CARTESIAN_POINT('Origin',(-5.16308607456375,2.90993491728049,1.28262763698093));
#1783=CARTESIAN_POINT('',(-5.3375,2.90993491728049,-7.6771199589493E-16));
#1784=CARTESIAN_POINT('',(-4.58731044789792,2.90993491728049,0.638280503135757));
#1785=CARTESIAN_POINT('Origin',(-5.3375,2.90993491728049,0.760000000000002));
#1786=CARTESIAN_POINT('',(-7.6225,2.90993491728049,-7.86600238580289E-16));
#1787=CARTESIAN_POINT($,(-5.28054386523084,2.90993491728049,-7.86600238580289E-16));
#1788=CARTESIAN_POINT('',(-7.6225,2.90993491728049,0.559999999999999));
#1789=CARTESIAN_POINT($,(-7.6225,2.90993491728049,0.564999999999999));
#1790=CARTESIAN_POINT('',(-5.3375,2.90993491728049,0.560000000000002));
#1791=CARTESIAN_POINT($,(-6.46936734456362,2.90993491728049,0.560000000000002));
#1792=CARTESIAN_POINT('',(-5.14008169681524,2.90993491728049,0.72796855345678));
#1793=CARTESIAN_POINT('Origin',(-5.3375,2.90993491728049,0.760000000000002));
#1794=CARTESIAN_POINT('',(-4.86121151063324,2.90993491728049,2.44671949686425));
#1795=CARTESIAN_POINT($,(-5.0984979043712,2.90993491728049,0.984260498724145));
#1796=CARTESIAN_POINT('',(-4.11102195853116,2.90993491728049,3.085));
#1797=CARTESIAN_POINT('Origin',(-4.11102195853116,2.90993491728049,2.325));
#1798=CARTESIAN_POINT('',(-3.5725,2.90993491728049,3.085));
#1799=CARTESIAN_POINT($,(-4.48431103112304,2.90993491728049,3.085));
#1800=CARTESIAN_POINT($,(-3.5725,2.90993491728049,2.08631381849046));
#1801=CARTESIAN_POINT('',(-4.30844026171592,2.90993491728049,2.35703144654322));
#1802=CARTESIAN_POINT('Origin',(-4.11102195853116,2.90993491728049,2.325));
#1803=CARTESIAN_POINT($,(-4.40473303454684,2.90993491728049,1.76355354052409));
#1804=CARTESIAN_POINT('Origin',(-5.01386577391049,2.17006508271951,1.43841639614645));
#1805=CARTESIAN_POINT('',(-4.58731044789792,2.17006508271951,0.638280503135757));
#1806=CARTESIAN_POINT('',(-5.3375,2.17006508271951,-7.6771199589493E-16));
#1807=CARTESIAN_POINT('Origin',(-5.3375,2.17006508271951,0.760000000000002));
#1808=CARTESIAN_POINT('',(-4.30844026171592,2.17006508271951,2.35703144654322));
#1809=CARTESIAN_POINT($,(-4.39050494844032,2.17006508271951,1.85124500999687));
#1810=CARTESIAN_POINT('Origin',(-4.11102195853116,2.17006508271951,2.325));
#1811=CARTESIAN_POINT('',(-3.5725,2.17006508271951,3.085));
#1812=CARTESIAN_POINT($,(-3.5725,2.17006508271951,2.16420819807322));
#1813=CARTESIAN_POINT('',(-4.11102195853116,2.17006508271951,3.085));
#1814=CARTESIAN_POINT($,(-4.40970088079641,2.17006508271951,3.085));
#1815=CARTESIAN_POINT('',(-4.86121151063324,2.17006508271951,2.44671949686425));
#1816=CARTESIAN_POINT('Origin',(-4.11102195853116,2.17006508271951,2.325));
#1817=CARTESIAN_POINT('',(-5.14008169681524,2.17006508271951,0.72796855345678));
#1818=CARTESIAN_POINT($,(-5.08426981826469,2.17006508271951,1.07195196819693));
#1819=CARTESIAN_POINT('',(-5.3375,2.17006508271951,0.560000000000002));
#1820=CARTESIAN_POINT('Origin',(-5.3375,2.17006508271951,0.760000000000002));
#1821=CARTESIAN_POINT('',(-7.6225,2.17006508271951,0.559999999999999));
#1822=CARTESIAN_POINT($,(-6.39475719423699,2.17006508271951,0.560000000000002));
#1823=CARTESIAN_POINT('',(-7.6225,2.17006508271951,-7.86600238580289E-16));
#1824=CARTESIAN_POINT($,(-7.6225,2.17006508271951,0.629208198073225));
#1825=CARTESIAN_POINT($,(-5.20593371490421,2.17006508271951,-7.86600238580289E-16));
#1826=CARTESIAN_POINT('Origin',(-7.77564861456349,3.0270670533972,0.560000000000002));
#1827=CARTESIAN_POINT($,(-5.3375,3.0270670533972,0.560000000000002));
#1828=CARTESIAN_POINT($,(-7.6225,3.0270670533972,0.559999999999999));
#1829=CARTESIAN_POINT('Origin',(-5.14401001072547,3.0270670533972,0.703757312622312));
#1830=CARTESIAN_POINT($,(-4.86121151063324,3.0270670533972,2.44671949686425));
#1831=CARTESIAN_POINT($,(-5.14008169681524,3.0270670533972,0.72796855345678));
#1832=CARTESIAN_POINT('Origin',(-4.11102195853116,3.0270670533972,2.325));
#1833=CARTESIAN_POINT($,(-4.30844026171592,3.0270670533972,2.35703144654322));
#1834=CARTESIAN_POINT('Origin',(-4.30925151999406,3.0270670533972,2.35203144654322));
#1835=CARTESIAN_POINT($,(-4.58731044789792,3.035,0.638280503135757));
#1836=CARTESIAN_POINT('Origin',(-5.3375,3.0270670533972,0.760000000000002));
#1837=CARTESIAN_POINT('Origin',(-5.3375,3.035,0.760000000000002));
#1838=CARTESIAN_POINT($,(-5.3375,3.035,-7.6771199589493E-16));
#1839=CARTESIAN_POINT('Origin',(-7.6225,3.0270670533972,-0.180000000000001));
#1840=CARTESIAN_POINT($,(-7.6225,3.035,-7.86600238580289E-16));
#1841=CARTESIAN_POINT('Origin',(-5.55115027046142,3.0429329466028,-7.86600238580289E-16));
#1842=CARTESIAN_POINT('Origin',(-4.11102195853116,3.0270670533972,2.325));
#1843=CARTESIAN_POINT($,(-4.11102195853116,3.0270670533972,3.085));
#1844=CARTESIAN_POINT('Origin',(-3.5725,4.92,2.89));
#1845=CARTESIAN_POINT($,(-3.5725,3.9735335266986,3.085));
#1846=CARTESIAN_POINT('Origin',(-3.95868460224582,3.0270670533972,3.085));
#1847=CARTESIAN_POINT('Origin',(6.9875,-5.08,1.23068944843034E-15));
#1848=CARTESIAN_POINT('',(6.9875,-5.08,1.65));
#1849=CARTESIAN_POINT('',(7.6225,-3.33535183864632,1.65));
#1850=CARTESIAN_POINT($,(7.79185004201176,-2.87006642223534,1.65));
#1851=CARTESIAN_POINT('',(6.9875,-5.08,1.23068944843034E-15));
#1852=CARTESIAN_POINT($,(6.9875,-5.08,0.412500000000001));
#1853=CARTESIAN_POINT('',(7.6225,-3.33535183864632,3.89522470753072E-15));
#1854=CARTESIAN_POINT($,(7.83282775212927,-2.7574810889865,1.23068944843034E-15));
#1855=CARTESIAN_POINT($,(7.6225,-3.33535183864632,0.4125));
#1856=CARTESIAN_POINT('Origin',(6.7825,-5.08,0.825000000000002));
#1857=CARTESIAN_POINT('',(5.9425,-5.08,1.65));
#1858=CARTESIAN_POINT($,(6.7825,-5.08,1.65));
#1859=CARTESIAN_POINT('',(5.9425,-5.08,-2.32202423037016E-15));
#1860=CARTESIAN_POINT($,(5.9425,-5.08,0.825));
#1861=CARTESIAN_POINT($,(6.7825,-5.08,1.23068944843034E-15));
#1862=CARTESIAN_POINT('Origin',(6.7825,-4.44089209850063E-16,3.89522470753072E-15));
#1863=CARTESIAN_POINT('',(6.9875,5.08,3.42511028730217E-16));
#1864=CARTESIAN_POINT('',(7.6225,3.33535183864633,3.42511028730217E-16));
#1865=CARTESIAN_POINT($,(7.83282775212927,2.7574810889865,3.42511028730217E-16));
#1866=CARTESIAN_POINT($,(7.6225,-4.44089209850063E-16,-2.32202423037016E-15));
#1867=CARTESIAN_POINT('',(5.9425,5.08,3.42511028730217E-16));
#1868=CARTESIAN_POINT($,(5.9425,-4.44089209850063E-16,-2.32202423037016E-15));
#1869=CARTESIAN_POINT($,(6.7825,5.08,3.42511028730217E-16));
#1870=CARTESIAN_POINT('Origin',(7.6225,-4.44089209850063E-16,0.824999999999998));
#1871=CARTESIAN_POINT('',(7.6225,3.33535183864633,1.65));
#1872=CARTESIAN_POINT($,(7.6225,3.33535183864633,0.412499999999999));
#1873=CARTESIAN_POINT($,(7.6225,-4.44089209850063E-16,1.65));
#1874=CARTESIAN_POINT('Origin',(6.7825,-4.44089209850063E-16,1.65));
#1875=CARTESIAN_POINT('',(6.9875,5.08,1.65));
#1876=CARTESIAN_POINT($,(7.79185004201176,2.87006642223533,1.65));
#1877=CARTESIAN_POINT('',(5.9425,5.08,1.65));
#1878=CARTESIAN_POINT($,(6.7825,5.08,1.65));
#1879=CARTESIAN_POINT($,(5.9425,-4.44089209850063E-16,1.65));
#1880=CARTESIAN_POINT('Origin',(6.9875,5.08,3.42511028730217E-16));
#1881=CARTESIAN_POINT($,(6.9875,5.08,0.4125));
#1882=CARTESIAN_POINT('Origin',(5.9425,-4.44089209850063E-16,0.824999999999998));
#1883=CARTESIAN_POINT($,(5.9425,5.08,0.824999999999999));
#1884=CARTESIAN_POINT('Origin',(6.7825,5.08,0.825000000000001));
#1885=CARTESIAN_POINT('Origin',(1.0225,4.175,1.77635683940025E-15));
#1886=CARTESIAN_POINT('',(1.0225,3.11000000000001,1.77635683940025E-15));
#1887=CARTESIAN_POINT('',(1.0225,-3.11,1.77635683940025E-15));
#1888=CARTESIAN_POINT($,(1.0225,2.0875,1.77635683940025E-15));
#1889=CARTESIAN_POINT('',(1.0225,3.11000000000001,1.65));
#1890=CARTESIAN_POINT($,(1.0225,3.11,1.77635683940025E-15));
#1891=CARTESIAN_POINT('',(1.0225,-3.11,1.65));
#1892=CARTESIAN_POINT($,(1.0225,2.0875,1.65));
#1893=CARTESIAN_POINT($,(1.0225,-3.11,1.77635683940025E-15));
#1894=CARTESIAN_POINT('Origin',(0.192500000000002,-3.11,1.77635683940025E-15));
#1895=CARTESIAN_POINT('',(5.9425,-3.11,1.65));
#1896=CARTESIAN_POINT($,(1.63,-3.11,1.65));
#1897=CARTESIAN_POINT('',(5.9425,-3.11,1.77635683940025E-15));
#1898=CARTESIAN_POINT($,(5.9425,-3.11,1.77635683940025E-15));
#1899=CARTESIAN_POINT($,(1.63,-3.11,1.77635683940025E-15));
#1900=CARTESIAN_POINT('Origin',(3.0675,4.0102601374339E-15,1.65));
#1901=CARTESIAN_POINT('',(5.9425,3.11,1.65));
#1902=CARTESIAN_POINT($,(4.505,3.11,1.65));
#1903=CARTESIAN_POINT($,(5.9425,5.335,1.65));
#1904=CARTESIAN_POINT('Origin',(1.13946872635846,5.08,2.38209094974212));
#1905=CARTESIAN_POINT('',(5.9425,5.08,1.65));
#1906=CARTESIAN_POINT('',(5.9425,5.08,3.42511028730227E-16));
#1907=CARTESIAN_POINT($,(5.9425,5.08,1.65));
#1908=CARTESIAN_POINT('',(-3.12727437371113,5.08,1.23068944843035E-15));
#1909=CARTESIAN_POINT($,(6.0775,5.08,-5.45667390969908E-16));
#1910=CARTESIAN_POINT('',(-3.5725,5.08,2.525));
#1911=CARTESIAN_POINT($,(-3.26545909076872,5.08,0.783684473597759));
#1912=CARTESIAN_POINT('',(-3.5725,5.08,3.085));
#1913=CARTESIAN_POINT($,(-3.5725,5.08,2.345));
#1914=CARTESIAN_POINT('',(-3.26480941866373,5.08,4.83));
#1915=CARTESIAN_POINT($,(-3.5725,5.08,3.085));
#1916=CARTESIAN_POINT('',(5.38178020134708,5.08,4.83));
#1917=CARTESIAN_POINT($,(-3.29566664028771,5.08,4.83));
#1918=CARTESIAN_POINT($,(5.38178020134708,5.08,4.83));
#1919=CARTESIAN_POINT('Origin',(-3.5725,5.08,2.345));
#1920=CARTESIAN_POINT('',(-3.5725,-5.08,2.525));
#1921=CARTESIAN_POINT('',(-3.5725,-5.08,3.085));
#1922=CARTESIAN_POINT($,(-3.5725,-5.08,2.27604547487106));
#1923=CARTESIAN_POINT($,(-3.5725,5.08,3.085));
#1924=CARTESIAN_POINT($,(-3.5725,5.335,2.525));
#1925=CARTESIAN_POINT('Origin',(-3.12815600861467,5.59,0.00499999999999846));
#1926=CARTESIAN_POINT('',(-3.12727437371113,-5.08,1.23068944843035E-15));
#1927=CARTESIAN_POINT($,(-3.12815600861467,-5.08,0.00499999999999846));
#1928=CARTESIAN_POINT($,(-3.12727437371113,5.4625,1.23068944843035E-15));
#1929=CARTESIAN_POINT('Origin',(1.27446872635845,-5.08,2.38209094974212));
#1930=CARTESIAN_POINT('',(5.9425,-5.08,3.42511028730227E-16));
#1931=CARTESIAN_POINT($,(6.0775,-5.08,3.42511028730217E-16));
#1932=CARTESIAN_POINT('',(5.9425,-5.08,1.65));
#1933=CARTESIAN_POINT($,(5.9425,-5.08,2.01604547487106));
#1934=CARTESIAN_POINT('',(5.38178020134708,-5.08,4.83));
#1935=CARTESIAN_POINT($,(5.5291634547333,-5.08,3.99414803455463));
#1936=CARTESIAN_POINT('',(-3.26480941866373,-5.08,4.83));
#1937=CARTESIAN_POINT($,(-3.29566664028771,-5.08,4.83));
#1938=CARTESIAN_POINT($,(-3.5725,-5.08,3.085));
#1939=CARTESIAN_POINT('Origin',(-3.29566664028771,5.335,4.83));
#1940=CARTESIAN_POINT($,(5.38178020134708,5.335,4.83));
#1941=CARTESIAN_POINT($,(-3.26480941866373,5.335,4.83));
#1942=CARTESIAN_POINT('Origin',(5.38178020134708,5.335,4.83));
#1943=CARTESIAN_POINT($,(5.9425,5.335,1.65));
#1944=CARTESIAN_POINT($,(5.9425,-4.175,1.65));
#1945=CARTESIAN_POINT('Origin',(-3.5725,5.335,3.085));
#1946=CARTESIAN_POINT('Origin',(5.9425,-4.175,1.77635683940025E-15));
#1947=CARTESIAN_POINT('',(5.9425,3.11,1.77635683940025E-15));
#1948=CARTESIAN_POINT($,(5.9425,3.11,1.77635683940025E-15));
#1949=CARTESIAN_POINT($,(5.9425,-4.175,1.77635683940025E-15));
#1950=CARTESIAN_POINT('Origin',(5.9425,3.11,1.77635683940025E-15));
#1951=CARTESIAN_POINT($,(4.505,3.11,1.77635683940025E-15));
#1952=CARTESIAN_POINT('Origin',(5.9425,-4.175,1.77635683940025E-15));
#1953=CARTESIAN_POINT($,(5.9425,5.335,3.49023551387347E-16));
#1954=CARTESIAN_POINT('Origin',(3.0675,3.88656797840409E-15,1.77635683940025E-15));
#1955=CARTESIAN_POINT('Origin',(5.9425,-4.17499999999999,1.77635683940025E-15));
#1956=CARTESIAN_POINT('',(5.9425,-3.10999999999999,1.77635683940025E-15));
#1957=CARTESIAN_POINT('',(5.9425,3.11000000000001,1.77635683940025E-15));
#1958=CARTESIAN_POINT($,(5.9425,-4.17499999999999,1.77635683940025E-15));
#1959=CARTESIAN_POINT('',(5.9425,3.11000000000001,1.65));
#1960=CARTESIAN_POINT($,(5.9425,3.11000000000001,1.77635683940025E-15));
#1961=CARTESIAN_POINT('',(5.9425,-3.10999999999999,1.65));
#1962=CARTESIAN_POINT($,(5.9425,-4.17499999999999,1.65));
#1963=CARTESIAN_POINT($,(5.9425,-3.10999999999999,1.77635683940025E-15));
#1964=CARTESIAN_POINT('Origin',(0.192500000000002,-3.10999999999999,1.77635683940025E-15));
#1965=CARTESIAN_POINT('',(1.0225,-3.10999999999999,1.77635683940025E-15));
#1966=CARTESIAN_POINT($,(0.192500000000002,-3.10999999999999,1.77635683940025E-15));
#1967=CARTESIAN_POINT('',(1.0225,-3.10999999999999,1.65));
#1968=CARTESIAN_POINT($,(0.192500000000002,-3.10999999999999,1.65));
#1969=CARTESIAN_POINT($,(1.0225,-3.10999999999999,1.77635683940025E-15));
#1970=CARTESIAN_POINT('Origin',(1.0225,4.17500000000001,1.77635683940025E-15));
#1971=CARTESIAN_POINT('',(1.0225,3.11000000000001,1.77635683940025E-15));
#1972=CARTESIAN_POINT($,(1.0225,4.17500000000001,1.77635683940025E-15));
#1973=CARTESIAN_POINT('',(1.0225,3.11000000000001,1.65));
#1974=CARTESIAN_POINT($,(1.0225,4.17500000000001,1.65));
#1975=CARTESIAN_POINT($,(1.0225,3.11000000000001,1.77635683940025E-15));
#1976=CARTESIAN_POINT('Origin',(5.9425,3.11000000000001,1.77635683940025E-15));
#1977=CARTESIAN_POINT($,(5.9425,3.11000000000001,1.77635683940025E-15));
#1978=CARTESIAN_POINT($,(5.9425,3.11000000000001,1.65));
#1979=CARTESIAN_POINT('Origin',(3.0675,7.105427357601E-15,1.65));
#1980=CARTESIAN_POINT('Origin',(3.0675,7.4392816572046E-15,1.77635683940025E-15));
#1981=CARTESIAN_POINT('Origin',(-3.01199834410207,0.487067053397202,2.525));
#1982=CARTESIAN_POINT('',(-4.11102195853116,0.369934917280495,2.525));
#1983=CARTESIAN_POINT('',(-4.11102195853116,-0.369934917280491,2.525));
#1984=CARTESIAN_POINT($,(-4.11102195853116,0.487067053397202,2.525));
#1985=CARTESIAN_POINT('',(-3.5725,0.369934917280495,2.525));
#1986=CARTESIAN_POINT($,(-4.08754220933291,0.369934917280495,2.525));
#1987=CARTESIAN_POINT('',(-3.5725,-0.369934917280492,2.525));
#1988=CARTESIAN_POINT($,(-3.5725,1.4335335266986,2.525));
#1989=CARTESIAN_POINT($,(-4.01293205900628,-0.369934917280491,2.525));
#1990=CARTESIAN_POINT('Origin',(-5.16308607456375,0.369934917280494,1.28262763698093));
#1991=CARTESIAN_POINT('',(-5.3375,0.369934917280494,-7.6771199589493E-16));
#1992=CARTESIAN_POINT('',(-4.58731044789792,0.369934917280495,0.638280503135757));
#1993=CARTESIAN_POINT('Origin',(-5.3375,0.369934917280494,0.760000000000002));
#1994=CARTESIAN_POINT('',(-7.6225,0.369934917280491,-7.86600238580289E-16));
#1995=CARTESIAN_POINT($,(-5.28054386523084,0.369934917280495,-7.86600238580289E-16));
#1996=CARTESIAN_POINT('',(-7.6225,0.369934917280491,0.559999999999999));
#1997=CARTESIAN_POINT($,(-7.6225,0.369934917280491,0.564999999999999));
#1998=CARTESIAN_POINT('',(-5.3375,0.369934917280495,0.560000000000002));
#1999=CARTESIAN_POINT($,(-6.46936734456362,0.369934917280495,0.560000000000002));
#2000=CARTESIAN_POINT('',(-5.14008169681524,0.369934917280494,0.72796855345678));
#2001=CARTESIAN_POINT('Origin',(-5.3375,0.369934917280494,0.760000000000002));
#2002=CARTESIAN_POINT('',(-4.86121151063324,0.369934917280494,2.44671949686425));
#2003=CARTESIAN_POINT($,(-5.0984979043712,0.369934917280494,0.984260498724145));
#2004=CARTESIAN_POINT('',(-4.11102195853116,0.369934917280494,3.085));
#2005=CARTESIAN_POINT('Origin',(-4.11102195853116,0.369934917280494,2.325));
#2006=CARTESIAN_POINT('',(-3.5725,0.369934917280495,3.085));
#2007=CARTESIAN_POINT($,(-4.48431103112304,0.369934917280495,3.085));
#2008=CARTESIAN_POINT($,(-3.5725,0.369934917280494,2.08631381849046));
#2009=CARTESIAN_POINT('',(-4.30844026171592,0.369934917280495,2.35703144654322));
#2010=CARTESIAN_POINT('Origin',(-4.11102195853116,0.369934917280494,2.325));
#2011=CARTESIAN_POINT($,(-4.40473303454684,0.369934917280495,1.76355354052409));
#2012=CARTESIAN_POINT('Origin',(-5.01386577391049,-0.369934917280492,1.43841639614645));
#2013=CARTESIAN_POINT('',(-4.58731044789792,-0.369934917280491,0.638280503135757));
#2014=CARTESIAN_POINT('',(-5.3375,-0.369934917280492,-7.6771199589493E-16));
#2015=CARTESIAN_POINT('Origin',(-5.3375,-0.369934917280492,0.760000000000002));
#2016=CARTESIAN_POINT('',(-4.30844026171592,-0.369934917280491,2.35703144654322));
#2017=CARTESIAN_POINT($,(-4.39050494844032,-0.369934917280491,1.85124500999687));
#2018=CARTESIAN_POINT('Origin',(-4.11102195853116,-0.369934917280492,2.325));
#2019=CARTESIAN_POINT('',(-3.5725,-0.369934917280492,3.085));
#2020=CARTESIAN_POINT($,(-3.5725,-0.369934917280491,2.16420819807322));
#2021=CARTESIAN_POINT('',(-4.11102195853116,-0.369934917280492,3.085));
#2022=CARTESIAN_POINT($,(-4.40970088079641,-0.369934917280491,3.085));
#2023=CARTESIAN_POINT('',(-4.86121151063324,-0.369934917280492,2.44671949686425));
#2024=CARTESIAN_POINT('Origin',(-4.11102195853116,-0.369934917280492,2.325));
#2025=CARTESIAN_POINT('',(-5.14008169681524,-0.369934917280492,0.72796855345678));
#2026=CARTESIAN_POINT($,(-5.08426981826469,-0.369934917280492,1.07195196819693));
#2027=CARTESIAN_POINT('',(-5.3375,-0.369934917280491,0.560000000000002));
#2028=CARTESIAN_POINT('Origin',(-5.3375,-0.369934917280492,0.760000000000002));
#2029=CARTESIAN_POINT('',(-7.6225,-0.369934917280491,0.559999999999999));
#2030=CARTESIAN_POINT($,(-6.39475719423699,-0.369934917280491,0.560000000000002));
#2031=CARTESIAN_POINT('',(-7.6225,-0.369934917280491,-7.86600238580289E-16));
#2032=CARTESIAN_POINT($,(-7.6225,-0.369934917280491,0.629208198073225));
#2033=CARTESIAN_POINT($,(-5.20593371490421,-0.369934917280491,-7.86600238580289E-16));
#2034=CARTESIAN_POINT('Origin',(-7.77564861456349,0.487067053397202,0.560000000000002));
#2035=CARTESIAN_POINT($,(-5.3375,0.487067053397202,0.560000000000002));
#2036=CARTESIAN_POINT($,(-7.6225,0.487067053397202,0.559999999999999));
#2037=CARTESIAN_POINT('Origin',(-5.14401001072547,0.487067053397201,0.703757312622312));
#2038=CARTESIAN_POINT($,(-4.86121151063324,0.487067053397202,2.44671949686425));
#2039=CARTESIAN_POINT($,(-5.14008169681524,0.487067053397202,0.72796855345678));
#2040=CARTESIAN_POINT('Origin',(-4.11102195853116,0.487067053397202,2.325));
#2041=CARTESIAN_POINT($,(-4.30844026171592,0.487067053397202,2.35703144654322));
#2042=CARTESIAN_POINT('Origin',(-4.30925151999406,0.487067053397202,2.35203144654322));
#2043=CARTESIAN_POINT($,(-4.58731044789792,0.495000000000001,0.638280503135757));
#2044=CARTESIAN_POINT('Origin',(-5.3375,0.487067053397202,0.760000000000002));
#2045=CARTESIAN_POINT('Origin',(-5.3375,0.495000000000001,0.760000000000002));
#2046=CARTESIAN_POINT($,(-5.3375,0.495000000000001,-7.6771199589493E-16));
#2047=CARTESIAN_POINT('Origin',(-7.6225,0.487067053397202,-0.180000000000001));
#2048=CARTESIAN_POINT($,(-7.6225,0.495000000000001,-7.86600238580289E-16));
#2049=CARTESIAN_POINT('Origin',(-5.55115027046142,0.502932946602799,-7.86600238580289E-16));
#2050=CARTESIAN_POINT('Origin',(-4.11102195853116,0.487067053397202,2.325));
#2051=CARTESIAN_POINT($,(-4.11102195853116,0.487067053397202,3.085));
#2052=CARTESIAN_POINT('Origin',(-3.5725,2.38,2.89));
#2053=CARTESIAN_POINT($,(-3.5725,1.4335335266986,3.085));
#2054=CARTESIAN_POINT('Origin',(-3.95868460224582,0.487067053397202,3.085));
#2055=UNCERTAINTY_MEASURE_WITH_UNIT(LENGTH_MEASURE(0.01),#2059,
'DISTANCE_ACCURACY_VALUE',
'Maximum model space distance between geometric entities at asserted c
onnectivities');
#2056=UNCERTAINTY_MEASURE_WITH_UNIT(LENGTH_MEASURE(1.E-6),#2059,
'DISTANCE_ACCURACY_VALUE',
'Maximum model space distance between geometric entities at asserted c
onnectivities');
#2057=(
GEOMETRIC_REPRESENTATION_CONTEXT(3)
GLOBAL_UNCERTAINTY_ASSIGNED_CONTEXT((#2055))
GLOBAL_UNIT_ASSIGNED_CONTEXT((#2059,#2061,#2060))
REPRESENTATION_CONTEXT('','3D')
);
#2058=(
GEOMETRIC_REPRESENTATION_CONTEXT(3)
GLOBAL_UNCERTAINTY_ASSIGNED_CONTEXT((#2056))
GLOBAL_UNIT_ASSIGNED_CONTEXT((#2059,#12,#2060))
REPRESENTATION_CONTEXT('','3D')
);
#2059=(
LENGTH_UNIT()
NAMED_UNIT(*)
SI_UNIT(.MILLI.,.METRE.)
);
#2060=(
NAMED_UNIT(*)
SI_UNIT($,.STERADIAN.)
SOLID_ANGLE_UNIT()
);
#2061=(
NAMED_UNIT(*)
PLANE_ANGLE_UNIT()
SI_UNIT($,.RADIAN.)
);
#2062=SHAPE_DEFINITION_REPRESENTATION(#2063,#2064);
#2063=PRODUCT_DEFINITION_SHAPE('',$,#2066);
#2064=SHAPE_REPRESENTATION('',(#1265),#2057);
#2065=PRODUCT_DEFINITION_CONTEXT('part definition',#2070,'design');
#2066=PRODUCT_DEFINITION('Product','Product',#2067,#2065);
#2067=PRODUCT_DEFINITION_FORMATION('',$,#2072);
#2068=PRODUCT_RELATED_PRODUCT_CATEGORY('Product','Product',(#2072));
#2069=APPLICATION_PROTOCOL_DEFINITION('international standard',
'automotive_design',2009,#2070);
#2070=APPLICATION_CONTEXT(
'Core Data for Automotive Mechanical Design Process');
#2071=PRODUCT_CONTEXT('part definition',#2070,'mechanical');
#2072=PRODUCT('Product','Product',$,(#2071));
#2073=PRESENTATION_STYLE_ASSIGNMENT((#2076));
#2074=PRESENTATION_STYLE_ASSIGNMENT((#2077));
#2075=PRESENTATION_STYLE_ASSIGNMENT((#2078));
#2076=SURFACE_STYLE_USAGE(.BOTH.,#2079);
#2077=SURFACE_STYLE_USAGE(.BOTH.,#2080);
#2078=SURFACE_STYLE_USAGE(.BOTH.,#2081);
#2079=SURFACE_SIDE_STYLE($,(#2082));
#2080=SURFACE_SIDE_STYLE($,(#2083));
#2081=SURFACE_SIDE_STYLE($,(#2084));
#2082=SURFACE_STYLE_FILL_AREA(#2085);
#2083=SURFACE_STYLE_FILL_AREA(#2086);
#2084=SURFACE_STYLE_FILL_AREA(#2087);
#2085=FILL_AREA_STYLE($,(#2088));
#2086=FILL_AREA_STYLE($,(#2089));
#2087=FILL_AREA_STYLE($,(#2090));
#2088=FILL_AREA_STYLE_COLOUR($,#2091);
#2089=FILL_AREA_STYLE_COLOUR($,#2092);
#2090=FILL_AREA_STYLE_COLOUR($,#2093);
#2091=COLOUR_RGB('',1.,1.,1.);
#2092=COLOUR_RGB('',0.866666666666667,0.866666666666667,0.866666666666667);
#2093=COLOUR_RGB('',0.329411764705882,0.329411764705882,0.329411764705882);
ENDSEC;
END-ISO-10303-21;
