ISO-10303-21;
HEADER;
/****************************************************************
 * Generated by software with PDElib inside                    *
 * PDElib Version v51a, created Wed 11/30/2011                  *
 * ITI Transcendata (http://www.transcendata.com/)              *
 ****************************************************************/
FILE_DESCRIPTION((''),'2;1');
FILE_NAME('TYCO_640445-4.stp','2014-11-05T11:00:35',(''),(''),'Mechanical Desktop 2011','Mechanical Desktop 2011',', , ');
FILE_SCHEMA(('AUTOMOTIVE_DESIGN { 1 2 10303 214 1 1 1 1 }'));
ENDSEC;
DATA;
#10=(NAMED_UNIT(*)PLANE_ANGLE_UNIT()SI_UNIT($,.RADIAN.));
#11=DIMENSIONAL_EXPONENTS(0.0,0.0,0.0,0.0,0.0,0.0,0.0);
#12=PLANE_ANGLE_MEASURE_WITH_UNIT(PLANE_ANGLE_MEASURE(0.0174532925),#10);
#16=(CONVERSION_BASED_UNIT('DEGREE',#12)NAMED_UNIT(#11)PLANE_ANGLE_UNIT());
#20=(NAMED_UNIT(*)SI_UNIT($,.STERADIAN.)SOLID_ANGLE_UNIT());
#24=(LENGTH_UNIT()NAMED_UNIT(*)SI_UNIT(.MILLI.,.METRE.));
#26=UNCERTAINTY_MEASURE_WITH_UNIT(LENGTH_MEASURE(0.000001),#24,'DISTANCE_ACCURACY_VALUE','');
#28=(GEOMETRIC_REPRESENTATION_CONTEXT(3)GLOBAL_UNCERTAINTY_ASSIGNED_CONTEXT((#26))GLOBAL_UNIT_ASSIGNED_CONTEXT((#16,#20,#24))REPRESENTATION_CONTEXT('','3D'));
#29=APPLICATION_CONTEXT('automotive design');
#30=APPLICATION_PROTOCOL_DEFINITION('INTERNATIONAL_STANDARD','automotive_design',1998,#29);
#31=PRODUCT_CONTEXT('3D Mechanical Parts',#29,'mechanical');
#32=PRODUCT('Product','Product','',(#31));
#33=PRODUCT_RELATED_PRODUCT_CATEGORY('part',$,(#32));
#34=PRODUCT_CATEGORY('part',$);
#35=PERSON('1','Design','Joe',$,$,$);
#36=ORGANIZATION($,'None','None');
#37=PERSON_AND_ORGANIZATION(#35,#36);
#38=PERSON_AND_ORGANIZATION_ROLE('design_owner');
#39=APPLIED_PERSON_AND_ORGANIZATION_ASSIGNMENT(#37,#38,(#32));
#40=PRODUCT_DEFINITION_FORMATION_WITH_SPECIFIED_SOURCE('None','',#32,.BOUGHT.);
#41=PERSON('2','Creator','Joe',$,$,$);
#42=ORGANIZATION($,'None','None');
#43=PERSON_AND_ORGANIZATION(#41,#42);
#44=PERSON_AND_ORGANIZATION_ROLE('creator');
#45=APPLIED_PERSON_AND_ORGANIZATION_ASSIGNMENT(#43,#44,(#40));
#46=PERSON('3','Supplier','Joe',$,$,$);
#47=ORGANIZATION($,'None','None');
#48=PERSON_AND_ORGANIZATION(#46,#47);
#49=PERSON_AND_ORGANIZATION_ROLE('design_supplier');
#50=APPLIED_PERSON_AND_ORGANIZATION_ASSIGNMENT(#48,#49,(#40));
#51=PRODUCT_DEFINITION_CONTEXT('part definition',#29,'design');
#52=PRODUCT_DEFINITION('None','',#40,#51);
#53=PERSON('4','Creator','Joe',$,$,$);
#54=ORGANIZATION($,'None','None');
#55=PERSON_AND_ORGANIZATION(#53,#54);
#56=PERSON_AND_ORGANIZATION_ROLE('creator');
#57=APPLIED_PERSON_AND_ORGANIZATION_ASSIGNMENT(#55,#56,(#52));
#58=CARTESIAN_POINT('NONE',(0.0,0.0,0.0));
#59=DIRECTION('NONE',(0.0,0.0,1.0));
#60=DIRECTION('NONE',(1.0,0.0,0.0));
#61=AXIS2_PLACEMENT_3D('NONE',#58,#59,#60);
#62=SHAPE_REPRESENTATION('SR1',(#61),#28);
#63=PRODUCT_DEFINITION_SHAPE('PDS1','Test Part',#52);
#64=SHAPE_DEFINITION_REPRESENTATION(#63,#62);
#65=CARTESIAN_POINT('',(-5.3721,0.571500000000002,0.634999999999999));
#66=CARTESIAN_POINT('',(-6.5151,0.571500000000002,0.634999999999999));
#67=CARTESIAN_POINT('',(-5.3721,-0.571499999999999,0.634999999999999));
#68=CARTESIAN_POINT('',(-6.5151,-0.571499999999999,0.634999999999999));
#69=B_SPLINE_SURFACE_WITH_KNOTS('',1,1,((#65,#67),(#66,#68)),.UNSPECIFIED.,.F.,.F.,.U.,(2,2),(2,2),(0.0,1.143000000000001),(0.0,1.143000000000001),.UNSPECIFIED.);
#70=CARTESIAN_POINT('',(-6.5151,-0.571499999999999,0.634999999999999));
#71=VERTEX_POINT('',#70);
#72=CARTESIAN_POINT('',(-6.5151,0.571500000000002,0.634999999999999));
#73=VERTEX_POINT('',#72);
#74=CARTESIAN_POINT('',(-6.5151,-0.571499999999998,0.634999999999999));
#75=DIRECTION('',(0.0,1.0,0.0));
#76=VECTOR('',#75,1.143);
#77=LINE('',#74,#76);
#78=EDGE_CURVE('',#71,#73,#77,.T.);
#79=ORIENTED_EDGE('',*,*,#78,.F.);
#80=CARTESIAN_POINT('',(-5.3721,-0.571499999999999,0.634999999999999));
#81=VERTEX_POINT('',#80);
#82=CARTESIAN_POINT('',(-5.3721,-0.571499999999999,0.634999999999999));
#83=DIRECTION('',(-1.0,0.0,0.0));
#84=VECTOR('',#83,1.143000000000001);
#85=LINE('',#82,#84);
#86=EDGE_CURVE('',#81,#71,#85,.T.);
#87=ORIENTED_EDGE('',*,*,#86,.F.);
#88=CARTESIAN_POINT('',(-5.3721,0.571500000000002,0.634999999999999));
#89=VERTEX_POINT('',#88);
#90=CARTESIAN_POINT('',(-5.3721,0.571500000000002,0.634999999999999));
#91=DIRECTION('',(0.0,-1.0,0.0));
#92=VECTOR('',#91,1.143);
#93=LINE('',#90,#92);
#94=EDGE_CURVE('',#89,#81,#93,.T.);
#95=ORIENTED_EDGE('',*,*,#94,.F.);
#96=CARTESIAN_POINT('',(-6.5151,0.571500000000002,0.634999999999999));
#97=DIRECTION('',(1.0,0.0,0.0));
#98=VECTOR('',#97,1.143000000000001);
#99=LINE('',#96,#98);
#100=EDGE_CURVE('',#73,#89,#99,.T.);
#101=ORIENTED_EDGE('',*,*,#100,.F.);
#102=EDGE_LOOP('',(#79,#87,#95,#101));
#103=FACE_OUTER_BOUND('',#102,.T.);
#104=ADVANCED_FACE('',(#103),#69,.T.);
#105=CARTESIAN_POINT('',(-5.3721,0.571500000000002,-3.175));
#106=CARTESIAN_POINT('',(-6.5151,0.571500000000002,-3.175));
#107=CARTESIAN_POINT('',(-5.3721,-0.571499999999999,-3.175));
#108=CARTESIAN_POINT('',(-6.5151,-0.571499999999999,-3.175));
#109=B_SPLINE_SURFACE_WITH_KNOTS('',1,1,((#105,#107),(#106,#108)),.UNSPECIFIED.,.F.,.F.,.U.,(2,2),(2,2),(0.0,1.143000000000001),(0.0,1.143000000000001),.UNSPECIFIED.);
#110=CARTESIAN_POINT('',(-6.5151,0.571500000000002,-3.175));
#111=VERTEX_POINT('',#110);
#112=CARTESIAN_POINT('',(-6.5151,-0.571499999999999,-3.175));
#113=VERTEX_POINT('',#112);
#114=CARTESIAN_POINT('',(-6.5151,0.571500000000002,-3.175));
#115=DIRECTION('',(0.0,-1.0,0.0));
#116=VECTOR('',#115,1.143);
#117=LINE('',#114,#116);
#118=EDGE_CURVE('',#111,#113,#117,.T.);
#119=ORIENTED_EDGE('',*,*,#118,.F.);
#120=CARTESIAN_POINT('',(-5.3721,0.571500000000002,-3.175));
#121=VERTEX_POINT('',#120);
#122=CARTESIAN_POINT('',(-5.3721,0.571500000000002,-3.175));
#123=DIRECTION('',(-1.0,0.0,0.0));
#124=VECTOR('',#123,1.143000000000001);
#125=LINE('',#122,#124);
#126=EDGE_CURVE('',#121,#111,#125,.T.);
#127=ORIENTED_EDGE('',*,*,#126,.F.);
#128=CARTESIAN_POINT('',(-5.3721,-0.571499999999999,-3.175));
#129=VERTEX_POINT('',#128);
#130=CARTESIAN_POINT('',(-5.3721,-0.571499999999998,-3.175));
#131=DIRECTION('',(0.0,1.0,0.0));
#132=VECTOR('',#131,1.143);
#133=LINE('',#130,#132);
#134=EDGE_CURVE('',#129,#121,#133,.T.);
#135=ORIENTED_EDGE('',*,*,#134,.F.);
#136=CARTESIAN_POINT('',(-6.5151,-0.571499999999999,-3.175));
#137=DIRECTION('',(1.0,0.0,0.0));
#138=VECTOR('',#137,1.143000000000001);
#139=LINE('',#136,#138);
#140=EDGE_CURVE('',#113,#129,#139,.T.);
#141=ORIENTED_EDGE('',*,*,#140,.F.);
#142=EDGE_LOOP('',(#119,#127,#135,#141));
#143=FACE_OUTER_BOUND('',#142,.T.);
#144=ADVANCED_FACE('',(#143),#109,.F.);
#145=CARTESIAN_POINT('',(-6.5151,-0.571499999999999,-3.175));
#146=CARTESIAN_POINT('',(-6.5151,-0.571499999999999,0.634999999999999));
#147=CARTESIAN_POINT('',(-5.3721,-0.571499999999999,-3.175));
#148=CARTESIAN_POINT('',(-5.3721,-0.571499999999999,0.634999999999999));
#149=B_SPLINE_SURFACE_WITH_KNOTS('',1,1,((#145,#147),(#146,#148)),.UNSPECIFIED.,.F.,.F.,.U.,(2,2),(2,2),(0.0,3.809999999999999),(0.0,1.143000000000001),.UNSPECIFIED.);
#150=CARTESIAN_POINT('',(-5.3721,-0.571499999999999,0.634999999999999));
#151=DIRECTION('',(0.0,0.0,-1.0));
#152=VECTOR('',#151,3.809999999999999);
#153=LINE('',#150,#152);
#154=EDGE_CURVE('',#81,#129,#153,.T.);
#155=ORIENTED_EDGE('',*,*,#154,.F.);
#156=ORIENTED_EDGE('',*,*,#86,.T.);
#157=CARTESIAN_POINT('',(-6.5151,-0.571499999999999,0.634999999999999));
#158=DIRECTION('',(0.0,0.0,-1.0));
#159=VECTOR('',#158,3.809999999999999);
#160=LINE('',#157,#159);
#161=EDGE_CURVE('',#71,#113,#160,.T.);
#162=ORIENTED_EDGE('',*,*,#161,.T.);
#163=ORIENTED_EDGE('',*,*,#140,.T.);
#164=EDGE_LOOP('',(#155,#156,#162,#163));
#165=FACE_OUTER_BOUND('',#164,.T.);
#166=ADVANCED_FACE('',(#165),#149,.F.);
#167=CARTESIAN_POINT('',(-5.3721,0.571500000000002,0.634999999999999));
#168=CARTESIAN_POINT('',(-5.3721,0.571500000000002,-3.175));
#169=CARTESIAN_POINT('',(-5.3721,-0.571499999999999,0.634999999999999));
#170=CARTESIAN_POINT('',(-5.3721,-0.571499999999999,-3.175));
#171=B_SPLINE_SURFACE_WITH_KNOTS('',1,1,((#167,#169),(#168,#170)),.UNSPECIFIED.,.F.,.F.,.U.,(2,2),(2,2),(0.0,3.809999999999999),(0.0,1.143000000000001),.UNSPECIFIED.);
#172=CARTESIAN_POINT('',(-5.3721,0.571500000000002,0.634999999999999));
#173=DIRECTION('',(0.0,0.0,-1.0));
#174=VECTOR('',#173,3.809999999999999);
#175=LINE('',#172,#174);
#176=EDGE_CURVE('',#89,#121,#175,.T.);
#177=ORIENTED_EDGE('',*,*,#176,.F.);
#178=ORIENTED_EDGE('',*,*,#94,.T.);
#179=ORIENTED_EDGE('',*,*,#154,.T.);
#180=ORIENTED_EDGE('',*,*,#134,.T.);
#181=EDGE_LOOP('',(#177,#178,#179,#180));
#182=FACE_OUTER_BOUND('',#181,.T.);
#183=ADVANCED_FACE('',(#182),#171,.F.);
#184=CARTESIAN_POINT('',(-6.5151,0.571500000000002,0.634999999999999));
#185=CARTESIAN_POINT('',(-6.5151,0.571500000000002,-3.175));
#186=CARTESIAN_POINT('',(-5.3721,0.571500000000002,0.634999999999999));
#187=CARTESIAN_POINT('',(-5.3721,0.571500000000002,-3.175));
#188=B_SPLINE_SURFACE_WITH_KNOTS('',1,1,((#184,#186),(#185,#187)),.UNSPECIFIED.,.F.,.F.,.U.,(2,2),(2,2),(0.0,3.809999999999999),(0.0,1.143000000000001),.UNSPECIFIED.);
#189=CARTESIAN_POINT('',(-6.5151,0.571500000000002,0.634999999999999));
#190=DIRECTION('',(0.0,0.0,-1.0));
#191=VECTOR('',#190,3.809999999999999);
#192=LINE('',#189,#191);
#193=EDGE_CURVE('',#73,#111,#192,.T.);
#194=ORIENTED_EDGE('',*,*,#193,.F.);
#195=ORIENTED_EDGE('',*,*,#100,.T.);
#196=ORIENTED_EDGE('',*,*,#176,.T.);
#197=ORIENTED_EDGE('',*,*,#126,.T.);
#198=EDGE_LOOP('',(#194,#195,#196,#197));
#199=FACE_OUTER_BOUND('',#198,.T.);
#200=ADVANCED_FACE('',(#199),#188,.F.);
#201=CARTESIAN_POINT('',(-6.5151,0.571500000000002,-3.175));
#202=CARTESIAN_POINT('',(-6.5151,0.571500000000002,0.634999999999999));
#203=CARTESIAN_POINT('',(-6.5151,-0.571499999999999,-3.175));
#204=CARTESIAN_POINT('',(-6.5151,-0.571499999999999,0.634999999999999));
#205=B_SPLINE_SURFACE_WITH_KNOTS('',1,1,((#201,#203),(#202,#204)),.UNSPECIFIED.,.F.,.F.,.U.,(2,2),(2,2),(0.0,3.809999999999999),(0.0,1.143000000000001),.UNSPECIFIED.);
#206=ORIENTED_EDGE('',*,*,#161,.F.);
#207=ORIENTED_EDGE('',*,*,#78,.T.);
#208=ORIENTED_EDGE('',*,*,#193,.T.);
#209=ORIENTED_EDGE('',*,*,#118,.T.);
#210=EDGE_LOOP('',(#206,#207,#208,#209));
#211=FACE_OUTER_BOUND('',#210,.T.);
#212=ADVANCED_FACE('',(#211),#205,.F.);
#213=CLOSED_SHELL('',(#104,#144,#166,#183,#200,#212));
#214=MANIFOLD_SOLID_BREP('2C30',#213);
#215=COLOUR_RGB('254',0.866,0.866,0.866);
#216=SURFACE_STYLE_USAGE(.BOTH.,#217);
#217=SURFACE_SIDE_STYLE('NONE',(#218));
#218=SURFACE_STYLE_FILL_AREA(#219);
#219=FILL_AREA_STYLE('NONE',(#220));
#220=FILL_AREA_STYLE_COLOUR('NONE',#215);
#221=PRESENTATION_STYLE_ASSIGNMENT((#216));
#222=STYLED_ITEM('NONE',(#221),#214);
#223=MECHANICAL_DESIGN_GEOMETRIC_PRESENTATION_REPRESENTATION('NONE',(#222,#375,#526,#677,#828,#979,#1130,#1281,#1938),#28);
#224=PRESENTATION_LAYER_ASSIGNMENT('3D','None',(#214,#374,#525,#676,#827,#978,#1129,#1280,#1930));
#225=CARTESIAN_POINT('',(-1.4097,0.571500000000002,0.634999999999999));
#226=CARTESIAN_POINT('',(-2.5527,0.571500000000002,0.634999999999999));
#227=CARTESIAN_POINT('',(-1.4097,-0.5715,0.634999999999999));
#228=CARTESIAN_POINT('',(-2.552700000000001,-0.571499999999999,0.634999999999999));
#229=B_SPLINE_SURFACE_WITH_KNOTS('',1,1,((#225,#227),(#226,#228)),.UNSPECIFIED.,.F.,.F.,.U.,(2,2),(2,2),(0.0,1.143),(0.0,1.143000000000001),.UNSPECIFIED.);
#230=CARTESIAN_POINT('',(-2.5527,-0.571499999999999,0.634999999999999));
#231=VERTEX_POINT('',#230);
#232=CARTESIAN_POINT('',(-2.5527,0.571500000000002,0.634999999999999));
#233=VERTEX_POINT('',#232);
#234=CARTESIAN_POINT('',(-2.5527,-0.571499999999999,0.634999999999999));
#235=DIRECTION('',(0.0,1.0,0.0));
#236=VECTOR('',#235,1.143);
#237=LINE('',#234,#236);
#238=EDGE_CURVE('',#231,#233,#237,.T.);
#239=ORIENTED_EDGE('',*,*,#238,.F.);
#240=CARTESIAN_POINT('',(-1.4097,-0.571499999999999,0.634999999999999));
#241=VERTEX_POINT('',#240);
#242=CARTESIAN_POINT('',(-1.4097,-0.571499999999999,0.634999999999999));
#243=DIRECTION('',(-1.0,0.0,0.0));
#244=VECTOR('',#243,1.143);
#245=LINE('',#242,#244);
#246=EDGE_CURVE('',#241,#231,#245,.T.);
#247=ORIENTED_EDGE('',*,*,#246,.F.);
#248=CARTESIAN_POINT('',(-1.4097,0.571500000000001,0.634999999999999));
#249=VERTEX_POINT('',#248);
#250=CARTESIAN_POINT('',(-1.4097,0.571500000000001,0.634999999999999));
#251=DIRECTION('',(0.0,-1.0,0.0));
#252=VECTOR('',#251,1.143);
#253=LINE('',#250,#252);
#254=EDGE_CURVE('',#249,#241,#253,.T.);
#255=ORIENTED_EDGE('',*,*,#254,.F.);
#256=CARTESIAN_POINT('',(-2.5527,0.571500000000002,0.634999999999999));
#257=DIRECTION('',(1.0,0.0,0.0));
#258=VECTOR('',#257,1.143);
#259=LINE('',#256,#258);
#260=EDGE_CURVE('',#233,#249,#259,.T.);
#261=ORIENTED_EDGE('',*,*,#260,.F.);
#262=EDGE_LOOP('',(#239,#247,#255,#261));
#263=FACE_OUTER_BOUND('',#262,.T.);
#264=ADVANCED_FACE('',(#263),#229,.T.);
#265=CARTESIAN_POINT('',(-1.4097,0.571500000000002,-3.175));
#266=CARTESIAN_POINT('',(-2.5527,0.571500000000002,-3.175));
#267=CARTESIAN_POINT('',(-1.4097,-0.5715,-3.175));
#268=CARTESIAN_POINT('',(-2.552700000000001,-0.571499999999999,-3.175));
#269=B_SPLINE_SURFACE_WITH_KNOTS('',1,1,((#265,#267),(#266,#268)),.UNSPECIFIED.,.F.,.F.,.U.,(2,2),(2,2),(0.0,1.143),(0.0,1.143000000000001),.UNSPECIFIED.);
#270=CARTESIAN_POINT('',(-2.5527,0.571500000000002,-3.175));
#271=VERTEX_POINT('',#270);
#272=CARTESIAN_POINT('',(-2.5527,-0.571499999999999,-3.175));
#273=VERTEX_POINT('',#272);
#274=CARTESIAN_POINT('',(-2.5527,0.571500000000001,-3.175));
#275=DIRECTION('',(0.0,-1.0,0.0));
#276=VECTOR('',#275,1.143);
#277=LINE('',#274,#276);
#278=EDGE_CURVE('',#271,#273,#277,.T.);
#279=ORIENTED_EDGE('',*,*,#278,.F.);
#280=CARTESIAN_POINT('',(-1.4097,0.571500000000001,-3.175));
#281=VERTEX_POINT('',#280);
#282=CARTESIAN_POINT('',(-1.4097,0.571500000000001,-3.175));
#283=DIRECTION('',(-1.0,0.0,0.0));
#284=VECTOR('',#283,1.143);
#285=LINE('',#282,#284);
#286=EDGE_CURVE('',#281,#271,#285,.T.);
#287=ORIENTED_EDGE('',*,*,#286,.F.);
#288=CARTESIAN_POINT('',(-1.4097,-0.571499999999999,-3.175));
#289=VERTEX_POINT('',#288);
#290=CARTESIAN_POINT('',(-1.4097,-0.571499999999999,-3.175));
#291=DIRECTION('',(0.0,1.0,0.0));
#292=VECTOR('',#291,1.143);
#293=LINE('',#290,#292);
#294=EDGE_CURVE('',#289,#281,#293,.T.);
#295=ORIENTED_EDGE('',*,*,#294,.F.);
#296=CARTESIAN_POINT('',(-2.5527,-0.571499999999999,-3.175));
#297=DIRECTION('',(1.0,0.0,0.0));
#298=VECTOR('',#297,1.143);
#299=LINE('',#296,#298);
#300=EDGE_CURVE('',#273,#289,#299,.T.);
#301=ORIENTED_EDGE('',*,*,#300,.F.);
#302=EDGE_LOOP('',(#279,#287,#295,#301));
#303=FACE_OUTER_BOUND('',#302,.T.);
#304=ADVANCED_FACE('',(#303),#269,.F.);
#305=CARTESIAN_POINT('',(-2.5527,-0.571499999999999,-3.175));
#306=CARTESIAN_POINT('',(-2.5527,-0.571499999999999,0.634999999999999));
#307=CARTESIAN_POINT('',(-1.4097,-0.571499999999999,-3.175));
#308=CARTESIAN_POINT('',(-1.4097,-0.571499999999999,0.634999999999999));
#309=B_SPLINE_SURFACE_WITH_KNOTS('',1,1,((#305,#307),(#306,#308)),.UNSPECIFIED.,.F.,.F.,.U.,(2,2),(2,2),(0.0,3.809999999999999),(0.0,1.143),.UNSPECIFIED.);
#310=CARTESIAN_POINT('',(-1.4097,-0.571499999999999,0.634999999999999));
#311=DIRECTION('',(0.0,0.0,-1.0));
#312=VECTOR('',#311,3.809999999999999);
#313=LINE('',#310,#312);
#314=EDGE_CURVE('',#241,#289,#313,.T.);
#315=ORIENTED_EDGE('',*,*,#314,.F.);
#316=ORIENTED_EDGE('',*,*,#246,.T.);
#317=CARTESIAN_POINT('',(-2.5527,-0.571499999999999,0.634999999999999));
#318=DIRECTION('',(0.0,0.0,-1.0));
#319=VECTOR('',#318,3.809999999999999);
#320=LINE('',#317,#319);
#321=EDGE_CURVE('',#231,#273,#320,.T.);
#322=ORIENTED_EDGE('',*,*,#321,.T.);
#323=ORIENTED_EDGE('',*,*,#300,.T.);
#324=EDGE_LOOP('',(#315,#316,#322,#323));
#325=FACE_OUTER_BOUND('',#324,.T.);
#326=ADVANCED_FACE('',(#325),#309,.F.);
#327=CARTESIAN_POINT('',(-1.4097,0.571500000000001,0.634999999999999));
#328=CARTESIAN_POINT('',(-1.4097,0.571500000000001,-3.175));
#329=CARTESIAN_POINT('',(-1.4097,-0.571499999999999,0.634999999999999));
#330=CARTESIAN_POINT('',(-1.4097,-0.571499999999999,-3.175));
#331=B_SPLINE_SURFACE_WITH_KNOTS('',1,1,((#327,#329),(#328,#330)),.UNSPECIFIED.,.F.,.F.,.U.,(2,2),(2,2),(0.0,3.809999999999999),(0.0,1.143000000000001),.UNSPECIFIED.);
#332=CARTESIAN_POINT('',(-1.4097,0.571500000000001,0.634999999999999));
#333=DIRECTION('',(0.0,0.0,-1.0));
#334=VECTOR('',#333,3.809999999999999);
#335=LINE('',#332,#334);
#336=EDGE_CURVE('',#249,#281,#335,.T.);
#337=ORIENTED_EDGE('',*,*,#336,.F.);
#338=ORIENTED_EDGE('',*,*,#254,.T.);
#339=ORIENTED_EDGE('',*,*,#314,.T.);
#340=ORIENTED_EDGE('',*,*,#294,.T.);
#341=EDGE_LOOP('',(#337,#338,#339,#340));
#342=FACE_OUTER_BOUND('',#341,.T.);
#343=ADVANCED_FACE('',(#342),#331,.F.);
#344=CARTESIAN_POINT('',(-2.5527,0.571500000000002,0.634999999999999));
#345=CARTESIAN_POINT('',(-2.5527,0.571500000000002,-3.175));
#346=CARTESIAN_POINT('',(-1.4097,0.571500000000001,0.634999999999999));
#347=CARTESIAN_POINT('',(-1.4097,0.571500000000001,-3.175));
#348=B_SPLINE_SURFACE_WITH_KNOTS('',1,1,((#344,#346),(#345,#347)),.UNSPECIFIED.,.F.,.F.,.U.,(2,2),(2,2),(0.0,3.809999999999999),(0.0,1.143),.UNSPECIFIED.);
#349=CARTESIAN_POINT('',(-2.5527,0.571500000000002,0.634999999999999));
#350=DIRECTION('',(0.0,0.0,-1.0));
#351=VECTOR('',#350,3.809999999999999);
#352=LINE('',#349,#351);
#353=EDGE_CURVE('',#233,#271,#352,.T.);
#354=ORIENTED_EDGE('',*,*,#353,.F.);
#355=ORIENTED_EDGE('',*,*,#260,.T.);
#356=ORIENTED_EDGE('',*,*,#336,.T.);
#357=ORIENTED_EDGE('',*,*,#286,.T.);
#358=EDGE_LOOP('',(#354,#355,#356,#357));
#359=FACE_OUTER_BOUND('',#358,.T.);
#360=ADVANCED_FACE('',(#359),#348,.F.);
#361=CARTESIAN_POINT('',(-2.5527,0.571500000000002,-3.175));
#362=CARTESIAN_POINT('',(-2.5527,0.571500000000002,0.634999999999999));
#363=CARTESIAN_POINT('',(-2.5527,-0.571499999999999,-3.175));
#364=CARTESIAN_POINT('',(-2.5527,-0.571499999999999,0.634999999999999));
#365=B_SPLINE_SURFACE_WITH_KNOTS('',1,1,((#361,#363),(#362,#364)),.UNSPECIFIED.,.F.,.F.,.U.,(2,2),(2,2),(0.0,3.809999999999999),(0.0,1.143000000000001),.UNSPECIFIED.);
#366=ORIENTED_EDGE('',*,*,#321,.F.);
#367=ORIENTED_EDGE('',*,*,#238,.T.);
#368=ORIENTED_EDGE('',*,*,#353,.T.);
#369=ORIENTED_EDGE('',*,*,#278,.T.);
#370=EDGE_LOOP('',(#366,#367,#368,#369));
#371=FACE_OUTER_BOUND('',#370,.T.);
#372=ADVANCED_FACE('',(#371),#365,.F.);
#373=CLOSED_SHELL('',(#264,#304,#326,#343,#360,#372));
#374=MANIFOLD_SOLID_BREP('2C2C',#373);
#375=STYLED_ITEM('NONE',(#221),#374);
#376=CARTESIAN_POINT('',(2.5527,0.571500000000001,0.634999999999999));
#377=CARTESIAN_POINT('',(1.4097,0.571500000000001,0.634999999999999));
#378=CARTESIAN_POINT('',(2.5527,-0.5715,0.634999999999999));
#379=CARTESIAN_POINT('',(1.4097,-0.5715,0.634999999999999));
#380=B_SPLINE_SURFACE_WITH_KNOTS('',1,1,((#376,#378),(#377,#379)),.UNSPECIFIED.,.F.,.F.,.U.,(2,2),(2,2),(0.0,1.143),(0.0,1.143000000000001),.UNSPECIFIED.);
#381=CARTESIAN_POINT('',(1.4097,-0.5715,0.634999999999999));
#382=VERTEX_POINT('',#381);
#383=CARTESIAN_POINT('',(1.4097,0.571500000000001,0.634999999999999));
#384=VERTEX_POINT('',#383);
#385=CARTESIAN_POINT('',(1.4097,-0.571499999999999,0.634999999999999));
#386=DIRECTION('',(0.0,1.0,0.0));
#387=VECTOR('',#386,1.143);
#388=LINE('',#385,#387);
#389=EDGE_CURVE('',#382,#384,#388,.T.);
#390=ORIENTED_EDGE('',*,*,#389,.F.);
#391=CARTESIAN_POINT('',(2.5527,-0.5715,0.634999999999999));
#392=VERTEX_POINT('',#391);
#393=CARTESIAN_POINT('',(2.5527,-0.5715,0.634999999999999));
#394=DIRECTION('',(-1.0,0.0,0.0));
#395=VECTOR('',#394,1.143);
#396=LINE('',#393,#395);
#397=EDGE_CURVE('',#392,#382,#396,.T.);
#398=ORIENTED_EDGE('',*,*,#397,.F.);
#399=CARTESIAN_POINT('',(2.5527,0.571500000000001,0.634999999999999));
#400=VERTEX_POINT('',#399);
#401=CARTESIAN_POINT('',(2.5527,0.571500000000001,0.634999999999999));
#402=DIRECTION('',(0.0,-1.0,0.0));
#403=VECTOR('',#402,1.143);
#404=LINE('',#401,#403);
#405=EDGE_CURVE('',#400,#392,#404,.T.);
#406=ORIENTED_EDGE('',*,*,#405,.F.);
#407=CARTESIAN_POINT('',(1.4097,0.571500000000001,0.634999999999999));
#408=DIRECTION('',(1.0,0.0,0.0));
#409=VECTOR('',#408,1.143);
#410=LINE('',#407,#409);
#411=EDGE_CURVE('',#384,#400,#410,.T.);
#412=ORIENTED_EDGE('',*,*,#411,.F.);
#413=EDGE_LOOP('',(#390,#398,#406,#412));
#414=FACE_OUTER_BOUND('',#413,.T.);
#415=ADVANCED_FACE('',(#414),#380,.T.);
#416=CARTESIAN_POINT('',(2.5527,0.571500000000001,-3.175));
#417=CARTESIAN_POINT('',(1.4097,0.571500000000001,-3.175));
#418=CARTESIAN_POINT('',(2.5527,-0.5715,-3.175));
#419=CARTESIAN_POINT('',(1.4097,-0.5715,-3.175));
#420=B_SPLINE_SURFACE_WITH_KNOTS('',1,1,((#416,#418),(#417,#419)),.UNSPECIFIED.,.F.,.F.,.U.,(2,2),(2,2),(0.0,1.143),(0.0,1.143000000000001),.UNSPECIFIED.);
#421=CARTESIAN_POINT('',(1.4097,0.571500000000001,-3.175));
#422=VERTEX_POINT('',#421);
#423=CARTESIAN_POINT('',(1.4097,-0.5715,-3.175));
#424=VERTEX_POINT('',#423);
#425=CARTESIAN_POINT('',(1.4097,0.571500000000001,-3.175));
#426=DIRECTION('',(0.0,-1.0,0.0));
#427=VECTOR('',#426,1.143);
#428=LINE('',#425,#427);
#429=EDGE_CURVE('',#422,#424,#428,.T.);
#430=ORIENTED_EDGE('',*,*,#429,.F.);
#431=CARTESIAN_POINT('',(2.5527,0.571500000000001,-3.175));
#432=VERTEX_POINT('',#431);
#433=CARTESIAN_POINT('',(2.5527,0.571500000000001,-3.175));
#434=DIRECTION('',(-1.0,0.0,0.0));
#435=VECTOR('',#434,1.143);
#436=LINE('',#433,#435);
#437=EDGE_CURVE('',#432,#422,#436,.T.);
#438=ORIENTED_EDGE('',*,*,#437,.F.);
#439=CARTESIAN_POINT('',(2.5527,-0.5715,-3.175));
#440=VERTEX_POINT('',#439);
#441=CARTESIAN_POINT('',(2.5527,-0.571499999999999,-3.175));
#442=DIRECTION('',(0.0,1.0,0.0));
#443=VECTOR('',#442,1.143);
#444=LINE('',#441,#443);
#445=EDGE_CURVE('',#440,#432,#444,.T.);
#446=ORIENTED_EDGE('',*,*,#445,.F.);
#447=CARTESIAN_POINT('',(1.4097,-0.5715,-3.175));
#448=DIRECTION('',(1.0,0.0,0.0));
#449=VECTOR('',#448,1.143);
#450=LINE('',#447,#449);
#451=EDGE_CURVE('',#424,#440,#450,.T.);
#452=ORIENTED_EDGE('',*,*,#451,.F.);
#453=EDGE_LOOP('',(#430,#438,#446,#452));
#454=FACE_OUTER_BOUND('',#453,.T.);
#455=ADVANCED_FACE('',(#454),#420,.F.);
#456=CARTESIAN_POINT('',(1.4097,-0.5715,-3.175));
#457=CARTESIAN_POINT('',(1.4097,-0.5715,0.634999999999999));
#458=CARTESIAN_POINT('',(2.5527,-0.5715,-3.175));
#459=CARTESIAN_POINT('',(2.5527,-0.5715,0.634999999999999));
#460=B_SPLINE_SURFACE_WITH_KNOTS('',1,1,((#456,#458),(#457,#459)),.UNSPECIFIED.,.F.,.F.,.U.,(2,2),(2,2),(0.0,3.809999999999999),(0.0,1.143),.UNSPECIFIED.);
#461=CARTESIAN_POINT('',(2.5527,-0.5715,0.634999999999999));
#462=DIRECTION('',(0.0,0.0,-1.0));
#463=VECTOR('',#462,3.809999999999999);
#464=LINE('',#461,#463);
#465=EDGE_CURVE('',#392,#440,#464,.T.);
#466=ORIENTED_EDGE('',*,*,#465,.F.);
#467=ORIENTED_EDGE('',*,*,#397,.T.);
#468=CARTESIAN_POINT('',(1.4097,-0.5715,0.634999999999999));
#469=DIRECTION('',(0.0,0.0,-1.0));
#470=VECTOR('',#469,3.809999999999999);
#471=LINE('',#468,#470);
#472=EDGE_CURVE('',#382,#424,#471,.T.);
#473=ORIENTED_EDGE('',*,*,#472,.T.);
#474=ORIENTED_EDGE('',*,*,#451,.T.);
#475=EDGE_LOOP('',(#466,#467,#473,#474));
#476=FACE_OUTER_BOUND('',#475,.T.);
#477=ADVANCED_FACE('',(#476),#460,.F.);
#478=CARTESIAN_POINT('',(2.5527,0.571500000000001,0.634999999999999));
#479=CARTESIAN_POINT('',(2.5527,0.571500000000001,-3.175));
#480=CARTESIAN_POINT('',(2.5527,-0.5715,0.634999999999999));
#481=CARTESIAN_POINT('',(2.5527,-0.5715,-3.175));
#482=B_SPLINE_SURFACE_WITH_KNOTS('',1,1,((#478,#480),(#479,#481)),.UNSPECIFIED.,.F.,.F.,.U.,(2,2),(2,2),(0.0,3.809999999999999),(0.0,1.143000000000001),.UNSPECIFIED.);
#483=CARTESIAN_POINT('',(2.5527,0.571500000000001,0.634999999999999));
#484=DIRECTION('',(0.0,0.0,-1.0));
#485=VECTOR('',#484,3.809999999999999);
#486=LINE('',#483,#485);
#487=EDGE_CURVE('',#400,#432,#486,.T.);
#488=ORIENTED_EDGE('',*,*,#487,.F.);
#489=ORIENTED_EDGE('',*,*,#405,.T.);
#490=ORIENTED_EDGE('',*,*,#465,.T.);
#491=ORIENTED_EDGE('',*,*,#445,.T.);
#492=EDGE_LOOP('',(#488,#489,#490,#491));
#493=FACE_OUTER_BOUND('',#492,.T.);
#494=ADVANCED_FACE('',(#493),#482,.F.);
#495=CARTESIAN_POINT('',(1.4097,0.571500000000001,0.634999999999999));
#496=CARTESIAN_POINT('',(1.4097,0.571500000000001,-3.175));
#497=CARTESIAN_POINT('',(2.5527,0.571500000000001,0.634999999999999));
#498=CARTESIAN_POINT('',(2.5527,0.571500000000001,-3.175));
#499=B_SPLINE_SURFACE_WITH_KNOTS('',1,1,((#495,#497),(#496,#498)),.UNSPECIFIED.,.F.,.F.,.U.,(2,2),(2,2),(0.0,3.809999999999999),(0.0,1.143),.UNSPECIFIED.);
#500=CARTESIAN_POINT('',(1.4097,0.571500000000001,0.634999999999999));
#501=DIRECTION('',(0.0,0.0,-1.0));
#502=VECTOR('',#501,3.809999999999999);
#503=LINE('',#500,#502);
#504=EDGE_CURVE('',#384,#422,#503,.T.);
#505=ORIENTED_EDGE('',*,*,#504,.F.);
#506=ORIENTED_EDGE('',*,*,#411,.T.);
#507=ORIENTED_EDGE('',*,*,#487,.T.);
#508=ORIENTED_EDGE('',*,*,#437,.T.);
#509=EDGE_LOOP('',(#505,#506,#507,#508));
#510=FACE_OUTER_BOUND('',#509,.T.);
#511=ADVANCED_FACE('',(#510),#499,.F.);
#512=CARTESIAN_POINT('',(1.4097,0.571500000000001,-3.175));
#513=CARTESIAN_POINT('',(1.4097,0.571500000000001,0.634999999999999));
#514=CARTESIAN_POINT('',(1.4097,-0.5715,-3.175));
#515=CARTESIAN_POINT('',(1.4097,-0.5715,0.634999999999999));
#516=B_SPLINE_SURFACE_WITH_KNOTS('',1,1,((#512,#514),(#513,#515)),.UNSPECIFIED.,.F.,.F.,.U.,(2,2),(2,2),(0.0,3.809999999999999),(0.0,1.143000000000001),.UNSPECIFIED.);
#517=ORIENTED_EDGE('',*,*,#472,.F.);
#518=ORIENTED_EDGE('',*,*,#389,.T.);
#519=ORIENTED_EDGE('',*,*,#504,.T.);
#520=ORIENTED_EDGE('',*,*,#429,.T.);
#521=EDGE_LOOP('',(#517,#518,#519,#520));
#522=FACE_OUTER_BOUND('',#521,.T.);
#523=ADVANCED_FACE('',(#522),#516,.F.);
#524=CLOSED_SHELL('',(#415,#455,#477,#494,#511,#523));
#525=MANIFOLD_SOLID_BREP('2C28',#524);
#526=STYLED_ITEM('NONE',(#221),#525);
#527=CARTESIAN_POINT('',(6.5151,0.571500000000001,0.634999999999999));
#528=CARTESIAN_POINT('',(5.3721,0.571500000000001,0.634999999999999));
#529=CARTESIAN_POINT('',(6.5151,-0.571500000000001,0.634999999999999));
#530=CARTESIAN_POINT('',(5.3721,-0.5715,0.634999999999999));
#531=B_SPLINE_SURFACE_WITH_KNOTS('',1,1,((#527,#529),(#528,#530)),.UNSPECIFIED.,.F.,.F.,.U.,(2,2),(2,2),(0.0,1.143000000000001),(0.0,1.143000000000001),.UNSPECIFIED.);
#532=CARTESIAN_POINT('',(5.3721,-0.5715,0.634999999999999));
#533=VERTEX_POINT('',#532);
#534=CARTESIAN_POINT('',(5.3721,0.571500000000001,0.634999999999999));
#535=VERTEX_POINT('',#534);
#536=CARTESIAN_POINT('',(5.3721,-0.5715,0.634999999999999));
#537=DIRECTION('',(0.0,1.0,0.0));
#538=VECTOR('',#537,1.143);
#539=LINE('',#536,#538);
#540=EDGE_CURVE('',#533,#535,#539,.T.);
#541=ORIENTED_EDGE('',*,*,#540,.F.);
#542=CARTESIAN_POINT('',(6.5151,-0.5715,0.634999999999999));
#543=VERTEX_POINT('',#542);
#544=CARTESIAN_POINT('',(6.5151,-0.5715,0.634999999999999));
#545=DIRECTION('',(-1.0,0.0,0.0));
#546=VECTOR('',#545,1.143000000000001);
#547=LINE('',#544,#546);
#548=EDGE_CURVE('',#543,#533,#547,.T.);
#549=ORIENTED_EDGE('',*,*,#548,.F.);
#550=CARTESIAN_POINT('',(6.5151,0.5715,0.634999999999999));
#551=VERTEX_POINT('',#550);
#552=CARTESIAN_POINT('',(6.5151,0.5715,0.634999999999999));
#553=DIRECTION('',(0.0,-1.0,0.0));
#554=VECTOR('',#553,1.143);
#555=LINE('',#552,#554);
#556=EDGE_CURVE('',#551,#543,#555,.T.);
#557=ORIENTED_EDGE('',*,*,#556,.F.);
#558=CARTESIAN_POINT('',(5.3721,0.571500000000001,0.634999999999999));
#559=DIRECTION('',(1.0,0.0,0.0));
#560=VECTOR('',#559,1.143000000000001);
#561=LINE('',#558,#560);
#562=EDGE_CURVE('',#535,#551,#561,.T.);
#563=ORIENTED_EDGE('',*,*,#562,.F.);
#564=EDGE_LOOP('',(#541,#549,#557,#563));
#565=FACE_OUTER_BOUND('',#564,.T.);
#566=ADVANCED_FACE('',(#565),#531,.T.);
#567=CARTESIAN_POINT('',(6.5151,0.571500000000001,-3.175));
#568=CARTESIAN_POINT('',(5.3721,0.571500000000001,-3.175));
#569=CARTESIAN_POINT('',(6.5151,-0.571500000000001,-3.175));
#570=CARTESIAN_POINT('',(5.3721,-0.5715,-3.175));
#571=B_SPLINE_SURFACE_WITH_KNOTS('',1,1,((#567,#569),(#568,#570)),.UNSPECIFIED.,.F.,.F.,.U.,(2,2),(2,2),(0.0,1.143000000000001),(0.0,1.143000000000001),.UNSPECIFIED.);
#572=CARTESIAN_POINT('',(5.3721,0.571500000000001,-3.175));
#573=VERTEX_POINT('',#572);
#574=CARTESIAN_POINT('',(5.3721,-0.5715,-3.175));
#575=VERTEX_POINT('',#574);
#576=CARTESIAN_POINT('',(5.3721,0.5715,-3.175));
#577=DIRECTION('',(0.0,-1.0,0.0));
#578=VECTOR('',#577,1.143);
#579=LINE('',#576,#578);
#580=EDGE_CURVE('',#573,#575,#579,.T.);
#581=ORIENTED_EDGE('',*,*,#580,.F.);
#582=CARTESIAN_POINT('',(6.5151,0.5715,-3.175));
#583=VERTEX_POINT('',#582);
#584=CARTESIAN_POINT('',(6.5151,0.5715,-3.175));
#585=DIRECTION('',(-1.0,0.0,0.0));
#586=VECTOR('',#585,1.143000000000001);
#587=LINE('',#584,#586);
#588=EDGE_CURVE('',#583,#573,#587,.T.);
#589=ORIENTED_EDGE('',*,*,#588,.F.);
#590=CARTESIAN_POINT('',(6.5151,-0.5715,-3.175));
#591=VERTEX_POINT('',#590);
#592=CARTESIAN_POINT('',(6.5151,-0.5715,-3.175));
#593=DIRECTION('',(0.0,1.0,0.0));
#594=VECTOR('',#593,1.143);
#595=LINE('',#592,#594);
#596=EDGE_CURVE('',#591,#583,#595,.T.);
#597=ORIENTED_EDGE('',*,*,#596,.F.);
#598=CARTESIAN_POINT('',(5.3721,-0.5715,-3.175));
#599=DIRECTION('',(1.0,0.0,0.0));
#600=VECTOR('',#599,1.143000000000001);
#601=LINE('',#598,#600);
#602=EDGE_CURVE('',#575,#591,#601,.T.);
#603=ORIENTED_EDGE('',*,*,#602,.F.);
#604=EDGE_LOOP('',(#581,#589,#597,#603));
#605=FACE_OUTER_BOUND('',#604,.T.);
#606=ADVANCED_FACE('',(#605),#571,.F.);
#607=CARTESIAN_POINT('',(5.3721,-0.5715,-3.175));
#608=CARTESIAN_POINT('',(5.3721,-0.5715,0.634999999999999));
#609=CARTESIAN_POINT('',(6.5151,-0.5715,-3.175));
#610=CARTESIAN_POINT('',(6.5151,-0.5715,0.634999999999999));
#611=B_SPLINE_SURFACE_WITH_KNOTS('',1,1,((#607,#609),(#608,#610)),.UNSPECIFIED.,.F.,.F.,.U.,(2,2),(2,2),(0.0,3.809999999999999),(0.0,1.143000000000001),.UNSPECIFIED.);
#612=CARTESIAN_POINT('',(6.5151,-0.5715,0.634999999999999));
#613=DIRECTION('',(0.0,0.0,-1.0));
#614=VECTOR('',#613,3.809999999999999);
#615=LINE('',#612,#614);
#616=EDGE_CURVE('',#543,#591,#615,.T.);
#617=ORIENTED_EDGE('',*,*,#616,.F.);
#618=ORIENTED_EDGE('',*,*,#548,.T.);
#619=CARTESIAN_POINT('',(5.3721,-0.5715,0.634999999999999));
#620=DIRECTION('',(0.0,0.0,-1.0));
#621=VECTOR('',#620,3.809999999999999);
#622=LINE('',#619,#621);
#623=EDGE_CURVE('',#533,#575,#622,.T.);
#624=ORIENTED_EDGE('',*,*,#623,.T.);
#625=ORIENTED_EDGE('',*,*,#602,.T.);
#626=EDGE_LOOP('',(#617,#618,#624,#625));
#627=FACE_OUTER_BOUND('',#626,.T.);
#628=ADVANCED_FACE('',(#627),#611,.F.);
#629=CARTESIAN_POINT('',(6.5151,0.5715,0.634999999999999));
#630=CARTESIAN_POINT('',(6.5151,0.5715,-3.175));
#631=CARTESIAN_POINT('',(6.5151,-0.5715,0.634999999999999));
#632=CARTESIAN_POINT('',(6.5151,-0.5715,-3.175));
#633=B_SPLINE_SURFACE_WITH_KNOTS('',1,1,((#629,#631),(#630,#632)),.UNSPECIFIED.,.F.,.F.,.U.,(2,2),(2,2),(0.0,3.809999999999999),(0.0,1.143000000000001),.UNSPECIFIED.);
#634=CARTESIAN_POINT('',(6.5151,0.5715,0.634999999999999));
#635=DIRECTION('',(0.0,0.0,-1.0));
#636=VECTOR('',#635,3.809999999999999);
#637=LINE('',#634,#636);
#638=EDGE_CURVE('',#551,#583,#637,.T.);
#639=ORIENTED_EDGE('',*,*,#638,.F.);
#640=ORIENTED_EDGE('',*,*,#556,.T.);
#641=ORIENTED_EDGE('',*,*,#616,.T.);
#642=ORIENTED_EDGE('',*,*,#596,.T.);
#643=EDGE_LOOP('',(#639,#640,#641,#642));
#644=FACE_OUTER_BOUND('',#643,.T.);
#645=ADVANCED_FACE('',(#644),#633,.F.);
#646=CARTESIAN_POINT('',(5.3721,0.571500000000001,0.634999999999999));
#647=CARTESIAN_POINT('',(5.3721,0.571500000000001,-3.175));
#648=CARTESIAN_POINT('',(6.5151,0.5715,0.634999999999999));
#649=CARTESIAN_POINT('',(6.5151,0.571500000000001,-3.175));
#650=B_SPLINE_SURFACE_WITH_KNOTS('',1,1,((#646,#648),(#647,#649)),.UNSPECIFIED.,.F.,.F.,.U.,(2,2),(2,2),(0.0,3.809999999999999),(0.0,1.143000000000001),.UNSPECIFIED.);
#651=CARTESIAN_POINT('',(5.3721,0.571500000000001,0.634999999999999));
#652=DIRECTION('',(0.0,0.0,-1.0));
#653=VECTOR('',#652,3.809999999999999);
#654=LINE('',#651,#653);
#655=EDGE_CURVE('',#535,#573,#654,.T.);
#656=ORIENTED_EDGE('',*,*,#655,.F.);
#657=ORIENTED_EDGE('',*,*,#562,.T.);
#658=ORIENTED_EDGE('',*,*,#638,.T.);
#659=ORIENTED_EDGE('',*,*,#588,.T.);
#660=EDGE_LOOP('',(#656,#657,#658,#659));
#661=FACE_OUTER_BOUND('',#660,.T.);
#662=ADVANCED_FACE('',(#661),#650,.F.);
#663=CARTESIAN_POINT('',(5.3721,0.571500000000001,-3.175));
#664=CARTESIAN_POINT('',(5.3721,0.571500000000001,0.634999999999999));
#665=CARTESIAN_POINT('',(5.3721,-0.5715,-3.175));
#666=CARTESIAN_POINT('',(5.3721,-0.5715,0.634999999999999));
#667=B_SPLINE_SURFACE_WITH_KNOTS('',1,1,((#663,#665),(#664,#666)),.UNSPECIFIED.,.F.,.F.,.U.,(2,2),(2,2),(0.0,3.809999999999999),(0.0,1.143000000000001),.UNSPECIFIED.);
#668=ORIENTED_EDGE('',*,*,#623,.F.);
#669=ORIENTED_EDGE('',*,*,#540,.T.);
#670=ORIENTED_EDGE('',*,*,#655,.T.);
#671=ORIENTED_EDGE('',*,*,#580,.T.);
#672=EDGE_LOOP('',(#668,#669,#670,#671));
#673=FACE_OUTER_BOUND('',#672,.T.);
#674=ADVANCED_FACE('',(#673),#667,.F.);
#675=CLOSED_SHELL('',(#566,#606,#628,#645,#662,#674));
#676=MANIFOLD_SOLID_BREP('2C24',#675);
#677=STYLED_ITEM('NONE',(#221),#676);
#678=CARTESIAN_POINT('',(6.5151,0.571500000000001,13.335000000000001));
#679=CARTESIAN_POINT('',(5.3721,0.571500000000001,13.335000000000001));
#680=CARTESIAN_POINT('',(6.5151,-0.571500000000001,13.335000000000001));
#681=CARTESIAN_POINT('',(5.3721,-0.5715,13.335000000000001));
#682=B_SPLINE_SURFACE_WITH_KNOTS('',1,1,((#678,#680),(#679,#681)),.UNSPECIFIED.,.F.,.F.,.U.,(2,2),(2,2),(0.0,1.143000000000001),(0.0,1.143000000000001),.UNSPECIFIED.);
#683=CARTESIAN_POINT('',(5.3721,-0.5715,13.335000000000001));
#684=VERTEX_POINT('',#683);
#685=CARTESIAN_POINT('',(5.3721,0.571500000000001,13.335000000000001));
#686=VERTEX_POINT('',#685);
#687=CARTESIAN_POINT('',(5.3721,-0.5715,13.335000000000001));
#688=DIRECTION('',(0.0,1.0,0.0));
#689=VECTOR('',#688,1.143);
#690=LINE('',#687,#689);
#691=EDGE_CURVE('',#684,#686,#690,.T.);
#692=ORIENTED_EDGE('',*,*,#691,.F.);
#693=CARTESIAN_POINT('',(6.5151,-0.5715,13.335000000000001));
#694=VERTEX_POINT('',#693);
#695=CARTESIAN_POINT('',(6.5151,-0.5715,13.335000000000001));
#696=DIRECTION('',(-1.0,0.0,0.0));
#697=VECTOR('',#696,1.143000000000001);
#698=LINE('',#695,#697);
#699=EDGE_CURVE('',#694,#684,#698,.T.);
#700=ORIENTED_EDGE('',*,*,#699,.F.);
#701=CARTESIAN_POINT('',(6.5151,0.5715,13.335000000000001));
#702=VERTEX_POINT('',#701);
#703=CARTESIAN_POINT('',(6.5151,0.5715,13.335000000000001));
#704=DIRECTION('',(0.0,-1.0,0.0));
#705=VECTOR('',#704,1.143);
#706=LINE('',#703,#705);
#707=EDGE_CURVE('',#702,#694,#706,.T.);
#708=ORIENTED_EDGE('',*,*,#707,.F.);
#709=CARTESIAN_POINT('',(5.3721,0.571500000000001,13.335000000000001));
#710=DIRECTION('',(1.0,0.0,0.0));
#711=VECTOR('',#710,1.143000000000001);
#712=LINE('',#709,#711);
#713=EDGE_CURVE('',#686,#702,#712,.T.);
#714=ORIENTED_EDGE('',*,*,#713,.F.);
#715=EDGE_LOOP('',(#692,#700,#708,#714));
#716=FACE_OUTER_BOUND('',#715,.T.);
#717=ADVANCED_FACE('',(#716),#682,.T.);
#718=CARTESIAN_POINT('',(6.5151,0.571500000000001,3.175));
#719=CARTESIAN_POINT('',(5.3721,0.571500000000001,3.175));
#720=CARTESIAN_POINT('',(6.5151,-0.571500000000001,3.175));
#721=CARTESIAN_POINT('',(5.3721,-0.5715,3.175));
#722=B_SPLINE_SURFACE_WITH_KNOTS('',1,1,((#718,#720),(#719,#721)),.UNSPECIFIED.,.F.,.F.,.U.,(2,2),(2,2),(0.0,1.143000000000001),(0.0,1.143000000000001),.UNSPECIFIED.);
#723=CARTESIAN_POINT('',(5.3721,0.571500000000001,3.175));
#724=VERTEX_POINT('',#723);
#725=CARTESIAN_POINT('',(5.3721,-0.5715,3.175));
#726=VERTEX_POINT('',#725);
#727=CARTESIAN_POINT('',(5.3721,0.5715,3.175));
#728=DIRECTION('',(0.0,-1.0,0.0));
#729=VECTOR('',#728,1.143);
#730=LINE('',#727,#729);
#731=EDGE_CURVE('',#724,#726,#730,.T.);
#732=ORIENTED_EDGE('',*,*,#731,.F.);
#733=CARTESIAN_POINT('',(6.5151,0.5715,3.175));
#734=VERTEX_POINT('',#733);
#735=CARTESIAN_POINT('',(6.5151,0.5715,3.175));
#736=DIRECTION('',(-1.0,0.0,0.0));
#737=VECTOR('',#736,1.143000000000001);
#738=LINE('',#735,#737);
#739=EDGE_CURVE('',#734,#724,#738,.T.);
#740=ORIENTED_EDGE('',*,*,#739,.F.);
#741=CARTESIAN_POINT('',(6.5151,-0.5715,3.175));
#742=VERTEX_POINT('',#741);
#743=CARTESIAN_POINT('',(6.5151,-0.5715,3.175));
#744=DIRECTION('',(0.0,1.0,0.0));
#745=VECTOR('',#744,1.143);
#746=LINE('',#743,#745);
#747=EDGE_CURVE('',#742,#734,#746,.T.);
#748=ORIENTED_EDGE('',*,*,#747,.F.);
#749=CARTESIAN_POINT('',(5.3721,-0.5715,3.175));
#750=DIRECTION('',(1.0,0.0,0.0));
#751=VECTOR('',#750,1.143000000000001);
#752=LINE('',#749,#751);
#753=EDGE_CURVE('',#726,#742,#752,.T.);
#754=ORIENTED_EDGE('',*,*,#753,.F.);
#755=EDGE_LOOP('',(#732,#740,#748,#754));
#756=FACE_OUTER_BOUND('',#755,.T.);
#757=ADVANCED_FACE('',(#756),#722,.F.);
#758=CARTESIAN_POINT('',(5.3721,-0.5715,3.174999999999999));
#759=CARTESIAN_POINT('',(5.3721,-0.5715,13.335000000000001));
#760=CARTESIAN_POINT('',(6.5151,-0.5715,3.174999999999999));
#761=CARTESIAN_POINT('',(6.5151,-0.5715,13.334999999999999));
#762=B_SPLINE_SURFACE_WITH_KNOTS('',1,1,((#758,#760),(#759,#761)),.UNSPECIFIED.,.F.,.F.,.U.,(2,2),(2,2),(0.0,10.160000000000002),(0.0,1.143000000000001),.UNSPECIFIED.);
#763=CARTESIAN_POINT('',(6.5151,-0.5715,13.334999999999999));
#764=DIRECTION('',(0.0,0.0,-1.0));
#765=VECTOR('',#764,10.16);
#766=LINE('',#763,#765);
#767=EDGE_CURVE('',#694,#742,#766,.T.);
#768=ORIENTED_EDGE('',*,*,#767,.F.);
#769=ORIENTED_EDGE('',*,*,#699,.T.);
#770=CARTESIAN_POINT('',(5.3721,-0.5715,13.334999999999999));
#771=DIRECTION('',(0.0,0.0,-1.0));
#772=VECTOR('',#771,10.16);
#773=LINE('',#770,#772);
#774=EDGE_CURVE('',#684,#726,#773,.T.);
#775=ORIENTED_EDGE('',*,*,#774,.T.);
#776=ORIENTED_EDGE('',*,*,#753,.T.);
#777=EDGE_LOOP('',(#768,#769,#775,#776));
#778=FACE_OUTER_BOUND('',#777,.T.);
#779=ADVANCED_FACE('',(#778),#762,.F.);
#780=CARTESIAN_POINT('',(6.5151,0.5715,13.335000000000001));
#781=CARTESIAN_POINT('',(6.5151,0.5715,3.174999999999999));
#782=CARTESIAN_POINT('',(6.5151,-0.5715,13.335000000000001));
#783=CARTESIAN_POINT('',(6.5151,-0.5715,3.174999999999997));
#784=B_SPLINE_SURFACE_WITH_KNOTS('',1,1,((#780,#782),(#781,#783)),.UNSPECIFIED.,.F.,.F.,.U.,(2,2),(2,2),(0.0,10.160000000000002),(0.0,1.143000000000001),.UNSPECIFIED.);
#785=CARTESIAN_POINT('',(6.5151,0.5715,13.334999999999999));
#786=DIRECTION('',(0.0,0.0,-1.0));
#787=VECTOR('',#786,10.16);
#788=LINE('',#785,#787);
#789=EDGE_CURVE('',#702,#734,#788,.T.);
#790=ORIENTED_EDGE('',*,*,#789,.F.);
#791=ORIENTED_EDGE('',*,*,#707,.T.);
#792=ORIENTED_EDGE('',*,*,#767,.T.);
#793=ORIENTED_EDGE('',*,*,#747,.T.);
#794=EDGE_LOOP('',(#790,#791,#792,#793));
#795=FACE_OUTER_BOUND('',#794,.T.);
#796=ADVANCED_FACE('',(#795),#784,.F.);
#797=CARTESIAN_POINT('',(5.3721,0.571500000000001,13.335000000000001));
#798=CARTESIAN_POINT('',(5.3721,0.571500000000001,3.174999999999999));
#799=CARTESIAN_POINT('',(6.5151,0.5715,13.335000000000001));
#800=CARTESIAN_POINT('',(6.5151,0.571500000000001,3.174999999999997));
#801=B_SPLINE_SURFACE_WITH_KNOTS('',1,1,((#797,#799),(#798,#800)),.UNSPECIFIED.,.F.,.F.,.U.,(2,2),(2,2),(0.0,10.160000000000002),(0.0,1.143000000000001),.UNSPECIFIED.);
#802=CARTESIAN_POINT('',(5.3721,0.571500000000001,13.334999999999999));
#803=DIRECTION('',(0.0,0.0,-1.0));
#804=VECTOR('',#803,10.16);
#805=LINE('',#802,#804);
#806=EDGE_CURVE('',#686,#724,#805,.T.);
#807=ORIENTED_EDGE('',*,*,#806,.F.);
#808=ORIENTED_EDGE('',*,*,#713,.T.);
#809=ORIENTED_EDGE('',*,*,#789,.T.);
#810=ORIENTED_EDGE('',*,*,#739,.T.);
#811=EDGE_LOOP('',(#807,#808,#809,#810));
#812=FACE_OUTER_BOUND('',#811,.T.);
#813=ADVANCED_FACE('',(#812),#801,.F.);
#814=CARTESIAN_POINT('',(5.3721,0.571500000000001,3.174999999999999));
#815=CARTESIAN_POINT('',(5.3721,0.571500000000001,13.335000000000001));
#816=CARTESIAN_POINT('',(5.3721,-0.5715,3.174999999999999));
#817=CARTESIAN_POINT('',(5.3721,-0.5715,13.334999999999999));
#818=B_SPLINE_SURFACE_WITH_KNOTS('',1,1,((#814,#816),(#815,#817)),.UNSPECIFIED.,.F.,.F.,.U.,(2,2),(2,2),(0.0,10.160000000000002),(0.0,1.143000000000001),.UNSPECIFIED.);
#819=ORIENTED_EDGE('',*,*,#774,.F.);
#820=ORIENTED_EDGE('',*,*,#691,.T.);
#821=ORIENTED_EDGE('',*,*,#806,.T.);
#822=ORIENTED_EDGE('',*,*,#731,.T.);
#823=EDGE_LOOP('',(#819,#820,#821,#822));
#824=FACE_OUTER_BOUND('',#823,.T.);
#825=ADVANCED_FACE('',(#824),#818,.F.);
#826=CLOSED_SHELL('',(#717,#757,#779,#796,#813,#825));
#827=MANIFOLD_SOLID_BREP('2C20',#826);
#828=STYLED_ITEM('NONE',(#221),#827);
#829=CARTESIAN_POINT('',(2.5527,0.571500000000001,13.335000000000001));
#830=CARTESIAN_POINT('',(1.4097,0.571500000000001,13.335000000000001));
#831=CARTESIAN_POINT('',(2.5527,-0.5715,13.335000000000001));
#832=CARTESIAN_POINT('',(1.4097,-0.5715,13.335000000000001));
#833=B_SPLINE_SURFACE_WITH_KNOTS('',1,1,((#829,#831),(#830,#832)),.UNSPECIFIED.,.F.,.F.,.U.,(2,2),(2,2),(0.0,1.143),(0.0,1.143000000000001),.UNSPECIFIED.);
#834=CARTESIAN_POINT('',(1.4097,-0.5715,13.335000000000001));
#835=VERTEX_POINT('',#834);
#836=CARTESIAN_POINT('',(1.4097,0.571500000000001,13.335000000000001));
#837=VERTEX_POINT('',#836);
#838=CARTESIAN_POINT('',(1.4097,-0.571499999999999,13.335000000000001));
#839=DIRECTION('',(0.0,1.0,0.0));
#840=VECTOR('',#839,1.143);
#841=LINE('',#838,#840);
#842=EDGE_CURVE('',#835,#837,#841,.T.);
#843=ORIENTED_EDGE('',*,*,#842,.F.);
#844=CARTESIAN_POINT('',(2.5527,-0.5715,13.335000000000001));
#845=VERTEX_POINT('',#844);
#846=CARTESIAN_POINT('',(2.5527,-0.5715,13.335000000000001));
#847=DIRECTION('',(-1.0,0.0,0.0));
#848=VECTOR('',#847,1.143);
#849=LINE('',#846,#848);
#850=EDGE_CURVE('',#845,#835,#849,.T.);
#851=ORIENTED_EDGE('',*,*,#850,.F.);
#852=CARTESIAN_POINT('',(2.5527,0.571500000000001,13.335000000000001));
#853=VERTEX_POINT('',#852);
#854=CARTESIAN_POINT('',(2.5527,0.571500000000001,13.335000000000001));
#855=DIRECTION('',(0.0,-1.0,0.0));
#856=VECTOR('',#855,1.143);
#857=LINE('',#854,#856);
#858=EDGE_CURVE('',#853,#845,#857,.T.);
#859=ORIENTED_EDGE('',*,*,#858,.F.);
#860=CARTESIAN_POINT('',(1.4097,0.571500000000001,13.335000000000001));
#861=DIRECTION('',(1.0,0.0,0.0));
#862=VECTOR('',#861,1.143);
#863=LINE('',#860,#862);
#864=EDGE_CURVE('',#837,#853,#863,.T.);
#865=ORIENTED_EDGE('',*,*,#864,.F.);
#866=EDGE_LOOP('',(#843,#851,#859,#865));
#867=FACE_OUTER_BOUND('',#866,.T.);
#868=ADVANCED_FACE('',(#867),#833,.T.);
#869=CARTESIAN_POINT('',(2.5527,0.571500000000001,3.175));
#870=CARTESIAN_POINT('',(1.4097,0.571500000000001,3.175));
#871=CARTESIAN_POINT('',(2.5527,-0.5715,3.175));
#872=CARTESIAN_POINT('',(1.4097,-0.5715,3.175));
#873=B_SPLINE_SURFACE_WITH_KNOTS('',1,1,((#869,#871),(#870,#872)),.UNSPECIFIED.,.F.,.F.,.U.,(2,2),(2,2),(0.0,1.143),(0.0,1.143000000000001),.UNSPECIFIED.);
#874=CARTESIAN_POINT('',(1.4097,0.571500000000001,3.175));
#875=VERTEX_POINT('',#874);
#876=CARTESIAN_POINT('',(1.4097,-0.5715,3.175));
#877=VERTEX_POINT('',#876);
#878=CARTESIAN_POINT('',(1.4097,0.571500000000001,3.175));
#879=DIRECTION('',(0.0,-1.0,0.0));
#880=VECTOR('',#879,1.143);
#881=LINE('',#878,#880);
#882=EDGE_CURVE('',#875,#877,#881,.T.);
#883=ORIENTED_EDGE('',*,*,#882,.F.);
#884=CARTESIAN_POINT('',(2.5527,0.571500000000001,3.175));
#885=VERTEX_POINT('',#884);
#886=CARTESIAN_POINT('',(2.5527,0.571500000000001,3.175));
#887=DIRECTION('',(-1.0,0.0,0.0));
#888=VECTOR('',#887,1.143);
#889=LINE('',#886,#888);
#890=EDGE_CURVE('',#885,#875,#889,.T.);
#891=ORIENTED_EDGE('',*,*,#890,.F.);
#892=CARTESIAN_POINT('',(2.5527,-0.5715,3.175));
#893=VERTEX_POINT('',#892);
#894=CARTESIAN_POINT('',(2.5527,-0.571499999999999,3.175));
#895=DIRECTION('',(0.0,1.0,0.0));
#896=VECTOR('',#895,1.143);
#897=LINE('',#894,#896);
#898=EDGE_CURVE('',#893,#885,#897,.T.);
#899=ORIENTED_EDGE('',*,*,#898,.F.);
#900=CARTESIAN_POINT('',(1.4097,-0.5715,3.175));
#901=DIRECTION('',(1.0,0.0,0.0));
#902=VECTOR('',#901,1.143);
#903=LINE('',#900,#902);
#904=EDGE_CURVE('',#877,#893,#903,.T.);
#905=ORIENTED_EDGE('',*,*,#904,.F.);
#906=EDGE_LOOP('',(#883,#891,#899,#905));
#907=FACE_OUTER_BOUND('',#906,.T.);
#908=ADVANCED_FACE('',(#907),#873,.F.);
#909=CARTESIAN_POINT('',(1.4097,-0.5715,3.174999999999999));
#910=CARTESIAN_POINT('',(1.4097,-0.5715,13.335000000000001));
#911=CARTESIAN_POINT('',(2.5527,-0.5715,3.174999999999999));
#912=CARTESIAN_POINT('',(2.5527,-0.5715,13.334999999999999));
#913=B_SPLINE_SURFACE_WITH_KNOTS('',1,1,((#909,#911),(#910,#912)),.UNSPECIFIED.,.F.,.F.,.U.,(2,2),(2,2),(0.0,10.160000000000002),(0.0,1.143),.UNSPECIFIED.);
#914=CARTESIAN_POINT('',(2.5527,-0.5715,13.334999999999999));
#915=DIRECTION('',(0.0,0.0,-1.0));
#916=VECTOR('',#915,10.16);
#917=LINE('',#914,#916);
#918=EDGE_CURVE('',#845,#893,#917,.T.);
#919=ORIENTED_EDGE('',*,*,#918,.F.);
#920=ORIENTED_EDGE('',*,*,#850,.T.);
#921=CARTESIAN_POINT('',(1.4097,-0.5715,13.334999999999999));
#922=DIRECTION('',(0.0,0.0,-1.0));
#923=VECTOR('',#922,10.16);
#924=LINE('',#921,#923);
#925=EDGE_CURVE('',#835,#877,#924,.T.);
#926=ORIENTED_EDGE('',*,*,#925,.T.);
#927=ORIENTED_EDGE('',*,*,#904,.T.);
#928=EDGE_LOOP('',(#919,#920,#926,#927));
#929=FACE_OUTER_BOUND('',#928,.T.);
#930=ADVANCED_FACE('',(#929),#913,.F.);
#931=CARTESIAN_POINT('',(2.5527,0.571500000000001,13.335000000000001));
#932=CARTESIAN_POINT('',(2.5527,0.571500000000001,3.174999999999999));
#933=CARTESIAN_POINT('',(2.5527,-0.5715,13.335000000000001));
#934=CARTESIAN_POINT('',(2.5527,-0.5715,3.174999999999997));
#935=B_SPLINE_SURFACE_WITH_KNOTS('',1,1,((#931,#933),(#932,#934)),.UNSPECIFIED.,.F.,.F.,.U.,(2,2),(2,2),(0.0,10.160000000000002),(0.0,1.143000000000001),.UNSPECIFIED.);
#936=CARTESIAN_POINT('',(2.5527,0.571500000000001,13.334999999999999));
#937=DIRECTION('',(0.0,0.0,-1.0));
#938=VECTOR('',#937,10.16);
#939=LINE('',#936,#938);
#940=EDGE_CURVE('',#853,#885,#939,.T.);
#941=ORIENTED_EDGE('',*,*,#940,.F.);
#942=ORIENTED_EDGE('',*,*,#858,.T.);
#943=ORIENTED_EDGE('',*,*,#918,.T.);
#944=ORIENTED_EDGE('',*,*,#898,.T.);
#945=EDGE_LOOP('',(#941,#942,#943,#944));
#946=FACE_OUTER_BOUND('',#945,.T.);
#947=ADVANCED_FACE('',(#946),#935,.F.);
#948=CARTESIAN_POINT('',(1.4097,0.571500000000001,13.335000000000001));
#949=CARTESIAN_POINT('',(1.4097,0.571500000000001,3.174999999999999));
#950=CARTESIAN_POINT('',(2.5527,0.571500000000001,13.335000000000001));
#951=CARTESIAN_POINT('',(2.5527,0.571500000000001,3.174999999999997));
#952=B_SPLINE_SURFACE_WITH_KNOTS('',1,1,((#948,#950),(#949,#951)),.UNSPECIFIED.,.F.,.F.,.U.,(2,2),(2,2),(0.0,10.160000000000002),(0.0,1.143),.UNSPECIFIED.);
#953=CARTESIAN_POINT('',(1.4097,0.571500000000001,13.334999999999999));
#954=DIRECTION('',(0.0,0.0,-1.0));
#955=VECTOR('',#954,10.16);
#956=LINE('',#953,#955);
#957=EDGE_CURVE('',#837,#875,#956,.T.);
#958=ORIENTED_EDGE('',*,*,#957,.F.);
#959=ORIENTED_EDGE('',*,*,#864,.T.);
#960=ORIENTED_EDGE('',*,*,#940,.T.);
#961=ORIENTED_EDGE('',*,*,#890,.T.);
#962=EDGE_LOOP('',(#958,#959,#960,#961));
#963=FACE_OUTER_BOUND('',#962,.T.);
#964=ADVANCED_FACE('',(#963),#952,.F.);
#965=CARTESIAN_POINT('',(1.4097,0.571500000000001,3.174999999999999));
#966=CARTESIAN_POINT('',(1.4097,0.571500000000001,13.335000000000001));
#967=CARTESIAN_POINT('',(1.4097,-0.5715,3.174999999999999));
#968=CARTESIAN_POINT('',(1.4097,-0.5715,13.334999999999999));
#969=B_SPLINE_SURFACE_WITH_KNOTS('',1,1,((#965,#967),(#966,#968)),.UNSPECIFIED.,.F.,.F.,.U.,(2,2),(2,2),(0.0,10.160000000000002),(0.0,1.143000000000001),.UNSPECIFIED.);
#970=ORIENTED_EDGE('',*,*,#925,.F.);
#971=ORIENTED_EDGE('',*,*,#842,.T.);
#972=ORIENTED_EDGE('',*,*,#957,.T.);
#973=ORIENTED_EDGE('',*,*,#882,.T.);
#974=EDGE_LOOP('',(#970,#971,#972,#973));
#975=FACE_OUTER_BOUND('',#974,.T.);
#976=ADVANCED_FACE('',(#975),#969,.F.);
#977=CLOSED_SHELL('',(#868,#908,#930,#947,#964,#976));
#978=MANIFOLD_SOLID_BREP('2C1C',#977);
#979=STYLED_ITEM('NONE',(#221),#978);
#980=CARTESIAN_POINT('',(-1.4097,0.571500000000002,13.335000000000001));
#981=CARTESIAN_POINT('',(-2.5527,0.571500000000002,13.335000000000001));
#982=CARTESIAN_POINT('',(-1.4097,-0.5715,13.335000000000001));
#983=CARTESIAN_POINT('',(-2.552700000000001,-0.571499999999999,13.335000000000001));
#984=B_SPLINE_SURFACE_WITH_KNOTS('',1,1,((#980,#982),(#981,#983)),.UNSPECIFIED.,.F.,.F.,.U.,(2,2),(2,2),(0.0,1.143),(0.0,1.143000000000001),.UNSPECIFIED.);
#985=CARTESIAN_POINT('',(-2.5527,-0.571499999999999,13.335000000000001));
#986=VERTEX_POINT('',#985);
#987=CARTESIAN_POINT('',(-2.5527,0.571500000000002,13.335000000000001));
#988=VERTEX_POINT('',#987);
#989=CARTESIAN_POINT('',(-2.5527,-0.571499999999999,13.335000000000001));
#990=DIRECTION('',(0.0,1.0,0.0));
#991=VECTOR('',#990,1.143);
#992=LINE('',#989,#991);
#993=EDGE_CURVE('',#986,#988,#992,.T.);
#994=ORIENTED_EDGE('',*,*,#993,.F.);
#995=CARTESIAN_POINT('',(-1.4097,-0.571499999999999,13.335000000000001));
#996=VERTEX_POINT('',#995);
#997=CARTESIAN_POINT('',(-1.4097,-0.571499999999999,13.335000000000001));
#998=DIRECTION('',(-1.0,0.0,0.0));
#999=VECTOR('',#998,1.143);
#1000=LINE('',#997,#999);
#1001=EDGE_CURVE('',#996,#986,#1000,.T.);
#1002=ORIENTED_EDGE('',*,*,#1001,.F.);
#1003=CARTESIAN_POINT('',(-1.4097,0.571500000000001,13.335000000000001));
#1004=VERTEX_POINT('',#1003);
#1005=CARTESIAN_POINT('',(-1.4097,0.571500000000001,13.335000000000001));
#1006=DIRECTION('',(0.0,-1.0,0.0));
#1007=VECTOR('',#1006,1.143);
#1008=LINE('',#1005,#1007);
#1009=EDGE_CURVE('',#1004,#996,#1008,.T.);
#1010=ORIENTED_EDGE('',*,*,#1009,.F.);
#1011=CARTESIAN_POINT('',(-2.5527,0.571500000000002,13.335000000000001));
#1012=DIRECTION('',(1.0,0.0,0.0));
#1013=VECTOR('',#1012,1.143);
#1014=LINE('',#1011,#1013);
#1015=EDGE_CURVE('',#988,#1004,#1014,.T.);
#1016=ORIENTED_EDGE('',*,*,#1015,.F.);
#1017=EDGE_LOOP('',(#994,#1002,#1010,#1016));
#1018=FACE_OUTER_BOUND('',#1017,.T.);
#1019=ADVANCED_FACE('',(#1018),#984,.T.);
#1020=CARTESIAN_POINT('',(-1.4097,0.571500000000002,3.175));
#1021=CARTESIAN_POINT('',(-2.5527,0.571500000000002,3.175));
#1022=CARTESIAN_POINT('',(-1.4097,-0.5715,3.175));
#1023=CARTESIAN_POINT('',(-2.552700000000001,-0.571499999999999,3.175));
#1024=B_SPLINE_SURFACE_WITH_KNOTS('',1,1,((#1020,#1022),(#1021,#1023)),.UNSPECIFIED.,.F.,.F.,.U.,(2,2),(2,2),(0.0,1.143),(0.0,1.143000000000001),.UNSPECIFIED.);
#1025=CARTESIAN_POINT('',(-2.5527,0.571500000000002,3.175));
#1026=VERTEX_POINT('',#1025);
#1027=CARTESIAN_POINT('',(-2.5527,-0.571499999999999,3.175));
#1028=VERTEX_POINT('',#1027);
#1029=CARTESIAN_POINT('',(-2.5527,0.571500000000001,3.175));
#1030=DIRECTION('',(0.0,-1.0,0.0));
#1031=VECTOR('',#1030,1.143);
#1032=LINE('',#1029,#1031);
#1033=EDGE_CURVE('',#1026,#1028,#1032,.T.);
#1034=ORIENTED_EDGE('',*,*,#1033,.F.);
#1035=CARTESIAN_POINT('',(-1.4097,0.571500000000001,3.175));
#1036=VERTEX_POINT('',#1035);
#1037=CARTESIAN_POINT('',(-1.4097,0.571500000000001,3.175));
#1038=DIRECTION('',(-1.0,0.0,0.0));
#1039=VECTOR('',#1038,1.143);
#1040=LINE('',#1037,#1039);
#1041=EDGE_CURVE('',#1036,#1026,#1040,.T.);
#1042=ORIENTED_EDGE('',*,*,#1041,.F.);
#1043=CARTESIAN_POINT('',(-1.4097,-0.571499999999999,3.175));
#1044=VERTEX_POINT('',#1043);
#1045=CARTESIAN_POINT('',(-1.4097,-0.571499999999999,3.175));
#1046=DIRECTION('',(0.0,1.0,0.0));
#1047=VECTOR('',#1046,1.143);
#1048=LINE('',#1045,#1047);
#1049=EDGE_CURVE('',#1044,#1036,#1048,.T.);
#1050=ORIENTED_EDGE('',*,*,#1049,.F.);
#1051=CARTESIAN_POINT('',(-2.5527,-0.571499999999999,3.175));
#1052=DIRECTION('',(1.0,0.0,0.0));
#1053=VECTOR('',#1052,1.143);
#1054=LINE('',#1051,#1053);
#1055=EDGE_CURVE('',#1028,#1044,#1054,.T.);
#1056=ORIENTED_EDGE('',*,*,#1055,.F.);
#1057=EDGE_LOOP('',(#1034,#1042,#1050,#1056));
#1058=FACE_OUTER_BOUND('',#1057,.T.);
#1059=ADVANCED_FACE('',(#1058),#1024,.F.);
#1060=CARTESIAN_POINT('',(-2.5527,-0.571499999999999,3.174999999999999));
#1061=CARTESIAN_POINT('',(-2.5527,-0.571499999999999,13.335000000000001));
#1062=CARTESIAN_POINT('',(-1.4097,-0.571499999999999,3.174999999999999));
#1063=CARTESIAN_POINT('',(-1.4097,-0.571499999999999,13.334999999999999));
#1064=B_SPLINE_SURFACE_WITH_KNOTS('',1,1,((#1060,#1062),(#1061,#1063)),.UNSPECIFIED.,.F.,.F.,.U.,(2,2),(2,2),(0.0,10.160000000000002),(0.0,1.143),.UNSPECIFIED.);
#1065=CARTESIAN_POINT('',(-1.4097,-0.571499999999999,13.334999999999999));
#1066=DIRECTION('',(0.0,0.0,-1.0));
#1067=VECTOR('',#1066,10.16);
#1068=LINE('',#1065,#1067);
#1069=EDGE_CURVE('',#996,#1044,#1068,.T.);
#1070=ORIENTED_EDGE('',*,*,#1069,.F.);
#1071=ORIENTED_EDGE('',*,*,#1001,.T.);
#1072=CARTESIAN_POINT('',(-2.5527,-0.571499999999999,13.334999999999999));
#1073=DIRECTION('',(0.0,0.0,-1.0));
#1074=VECTOR('',#1073,10.16);
#1075=LINE('',#1072,#1074);
#1076=EDGE_CURVE('',#986,#1028,#1075,.T.);
#1077=ORIENTED_EDGE('',*,*,#1076,.T.);
#1078=ORIENTED_EDGE('',*,*,#1055,.T.);
#1079=EDGE_LOOP('',(#1070,#1071,#1077,#1078));
#1080=FACE_OUTER_BOUND('',#1079,.T.);
#1081=ADVANCED_FACE('',(#1080),#1064,.F.);
#1082=CARTESIAN_POINT('',(-1.4097,0.571500000000001,13.335000000000001));
#1083=CARTESIAN_POINT('',(-1.4097,0.571500000000001,3.174999999999999));
#1084=CARTESIAN_POINT('',(-1.4097,-0.571499999999999,13.335000000000001));
#1085=CARTESIAN_POINT('',(-1.4097,-0.571499999999999,3.174999999999997));
#1086=B_SPLINE_SURFACE_WITH_KNOTS('',1,1,((#1082,#1084),(#1083,#1085)),.UNSPECIFIED.,.F.,.F.,.U.,(2,2),(2,2),(0.0,10.160000000000002),(0.0,1.143000000000001),.UNSPECIFIED.);
#1087=CARTESIAN_POINT('',(-1.4097,0.571500000000001,13.334999999999999));
#1088=DIRECTION('',(0.0,0.0,-1.0));
#1089=VECTOR('',#1088,10.16);
#1090=LINE('',#1087,#1089);
#1091=EDGE_CURVE('',#1004,#1036,#1090,.T.);
#1092=ORIENTED_EDGE('',*,*,#1091,.F.);
#1093=ORIENTED_EDGE('',*,*,#1009,.T.);
#1094=ORIENTED_EDGE('',*,*,#1069,.T.);
#1095=ORIENTED_EDGE('',*,*,#1049,.T.);
#1096=EDGE_LOOP('',(#1092,#1093,#1094,#1095));
#1097=FACE_OUTER_BOUND('',#1096,.T.);
#1098=ADVANCED_FACE('',(#1097),#1086,.F.);
#1099=CARTESIAN_POINT('',(-2.5527,0.571500000000002,13.335000000000001));
#1100=CARTESIAN_POINT('',(-2.5527,0.571500000000002,3.174999999999999));
#1101=CARTESIAN_POINT('',(-1.4097,0.571500000000001,13.335000000000001));
#1102=CARTESIAN_POINT('',(-1.4097,0.571500000000001,3.174999999999997));
#1103=B_SPLINE_SURFACE_WITH_KNOTS('',1,1,((#1099,#1101),(#1100,#1102)),.UNSPECIFIED.,.F.,.F.,.U.,(2,2),(2,2),(0.0,10.160000000000002),(0.0,1.143),.UNSPECIFIED.);
#1104=CARTESIAN_POINT('',(-2.5527,0.571500000000002,13.334999999999999));
#1105=DIRECTION('',(0.0,0.0,-1.0));
#1106=VECTOR('',#1105,10.16);
#1107=LINE('',#1104,#1106);
#1108=EDGE_CURVE('',#988,#1026,#1107,.T.);
#1109=ORIENTED_EDGE('',*,*,#1108,.F.);
#1110=ORIENTED_EDGE('',*,*,#1015,.T.);
#1111=ORIENTED_EDGE('',*,*,#1091,.T.);
#1112=ORIENTED_EDGE('',*,*,#1041,.T.);
#1113=EDGE_LOOP('',(#1109,#1110,#1111,#1112));
#1114=FACE_OUTER_BOUND('',#1113,.T.);
#1115=ADVANCED_FACE('',(#1114),#1103,.F.);
#1116=CARTESIAN_POINT('',(-2.5527,0.571500000000002,3.174999999999999));
#1117=CARTESIAN_POINT('',(-2.5527,0.571500000000002,13.335000000000001));
#1118=CARTESIAN_POINT('',(-2.5527,-0.571499999999999,3.174999999999999));
#1119=CARTESIAN_POINT('',(-2.5527,-0.571499999999999,13.334999999999999));
#1120=B_SPLINE_SURFACE_WITH_KNOTS('',1,1,((#1116,#1118),(#1117,#1119)),.UNSPECIFIED.,.F.,.F.,.U.,(2,2),(2,2),(0.0,10.160000000000002),(0.0,1.143000000000001),.UNSPECIFIED.);
#1121=ORIENTED_EDGE('',*,*,#1076,.F.);
#1122=ORIENTED_EDGE('',*,*,#993,.T.);
#1123=ORIENTED_EDGE('',*,*,#1108,.T.);
#1124=ORIENTED_EDGE('',*,*,#1033,.T.);
#1125=EDGE_LOOP('',(#1121,#1122,#1123,#1124));
#1126=FACE_OUTER_BOUND('',#1125,.T.);
#1127=ADVANCED_FACE('',(#1126),#1120,.F.);
#1128=CLOSED_SHELL('',(#1019,#1059,#1081,#1098,#1115,#1127));
#1129=MANIFOLD_SOLID_BREP('2C18',#1128);
#1130=STYLED_ITEM('NONE',(#221),#1129);
#1131=CARTESIAN_POINT('',(-5.3721,0.571500000000002,13.335000000000001));
#1132=CARTESIAN_POINT('',(-6.5151,0.571500000000002,13.335000000000001));
#1133=CARTESIAN_POINT('',(-5.3721,-0.571499999999999,13.335000000000001));
#1134=CARTESIAN_POINT('',(-6.5151,-0.571499999999999,13.335000000000001));
#1135=B_SPLINE_SURFACE_WITH_KNOTS('',1,1,((#1131,#1133),(#1132,#1134)),.UNSPECIFIED.,.F.,.F.,.U.,(2,2),(2,2),(0.0,1.143000000000001),(0.0,1.143000000000001),.UNSPECIFIED.);
#1136=CARTESIAN_POINT('',(-6.5151,-0.571499999999999,13.335000000000001));
#1137=VERTEX_POINT('',#1136);
#1138=CARTESIAN_POINT('',(-6.5151,0.571500000000002,13.335000000000001));
#1139=VERTEX_POINT('',#1138);
#1140=CARTESIAN_POINT('',(-6.5151,-0.571499999999998,13.335000000000001));
#1141=DIRECTION('',(0.0,1.0,0.0));
#1142=VECTOR('',#1141,1.143);
#1143=LINE('',#1140,#1142);
#1144=EDGE_CURVE('',#1137,#1139,#1143,.T.);
#1145=ORIENTED_EDGE('',*,*,#1144,.F.);
#1146=CARTESIAN_POINT('',(-5.3721,-0.571499999999999,13.335000000000001));
#1147=VERTEX_POINT('',#1146);
#1148=CARTESIAN_POINT('',(-5.3721,-0.571499999999999,13.335000000000001));
#1149=DIRECTION('',(-1.0,0.0,0.0));
#1150=VECTOR('',#1149,1.143000000000001);
#1151=LINE('',#1148,#1150);
#1152=EDGE_CURVE('',#1147,#1137,#1151,.T.);
#1153=ORIENTED_EDGE('',*,*,#1152,.F.);
#1154=CARTESIAN_POINT('',(-5.3721,0.571500000000002,13.335000000000001));
#1155=VERTEX_POINT('',#1154);
#1156=CARTESIAN_POINT('',(-5.3721,0.571500000000002,13.335000000000001));
#1157=DIRECTION('',(0.0,-1.0,0.0));
#1158=VECTOR('',#1157,1.143);
#1159=LINE('',#1156,#1158);
#1160=EDGE_CURVE('',#1155,#1147,#1159,.T.);
#1161=ORIENTED_EDGE('',*,*,#1160,.F.);
#1162=CARTESIAN_POINT('',(-6.5151,0.571500000000002,13.335000000000001));
#1163=DIRECTION('',(1.0,0.0,0.0));
#1164=VECTOR('',#1163,1.143000000000001);
#1165=LINE('',#1162,#1164);
#1166=EDGE_CURVE('',#1139,#1155,#1165,.T.);
#1167=ORIENTED_EDGE('',*,*,#1166,.F.);
#1168=EDGE_LOOP('',(#1145,#1153,#1161,#1167));
#1169=FACE_OUTER_BOUND('',#1168,.T.);
#1170=ADVANCED_FACE('',(#1169),#1135,.T.);
#1171=CARTESIAN_POINT('',(-5.3721,0.571500000000002,3.175));
#1172=CARTESIAN_POINT('',(-6.5151,0.571500000000002,3.175));
#1173=CARTESIAN_POINT('',(-5.3721,-0.571499999999999,3.175));
#1174=CARTESIAN_POINT('',(-6.5151,-0.571499999999999,3.175));
#1175=B_SPLINE_SURFACE_WITH_KNOTS('',1,1,((#1171,#1173),(#1172,#1174)),.UNSPECIFIED.,.F.,.F.,.U.,(2,2),(2,2),(0.0,1.143000000000001),(0.0,1.143000000000001),.UNSPECIFIED.);
#1176=CARTESIAN_POINT('',(-6.5151,0.571500000000002,3.175));
#1177=VERTEX_POINT('',#1176);
#1178=CARTESIAN_POINT('',(-6.5151,-0.571499999999999,3.175));
#1179=VERTEX_POINT('',#1178);
#1180=CARTESIAN_POINT('',(-6.5151,0.571500000000002,3.175));
#1181=DIRECTION('',(0.0,-1.0,0.0));
#1182=VECTOR('',#1181,1.143);
#1183=LINE('',#1180,#1182);
#1184=EDGE_CURVE('',#1177,#1179,#1183,.T.);
#1185=ORIENTED_EDGE('',*,*,#1184,.F.);
#1186=CARTESIAN_POINT('',(-5.3721,0.571500000000002,3.175));
#1187=VERTEX_POINT('',#1186);
#1188=CARTESIAN_POINT('',(-5.3721,0.571500000000002,3.175));
#1189=DIRECTION('',(-1.0,0.0,0.0));
#1190=VECTOR('',#1189,1.143000000000001);
#1191=LINE('',#1188,#1190);
#1192=EDGE_CURVE('',#1187,#1177,#1191,.T.);
#1193=ORIENTED_EDGE('',*,*,#1192,.F.);
#1194=CARTESIAN_POINT('',(-5.3721,-0.571499999999999,3.175));
#1195=VERTEX_POINT('',#1194);
#1196=CARTESIAN_POINT('',(-5.3721,-0.571499999999998,3.175));
#1197=DIRECTION('',(0.0,1.0,0.0));
#1198=VECTOR('',#1197,1.143);
#1199=LINE('',#1196,#1198);
#1200=EDGE_CURVE('',#1195,#1187,#1199,.T.);
#1201=ORIENTED_EDGE('',*,*,#1200,.F.);
#1202=CARTESIAN_POINT('',(-6.5151,-0.571499999999999,3.175));
#1203=DIRECTION('',(1.0,0.0,0.0));
#1204=VECTOR('',#1203,1.143000000000001);
#1205=LINE('',#1202,#1204);
#1206=EDGE_CURVE('',#1179,#1195,#1205,.T.);
#1207=ORIENTED_EDGE('',*,*,#1206,.F.);
#1208=EDGE_LOOP('',(#1185,#1193,#1201,#1207));
#1209=FACE_OUTER_BOUND('',#1208,.T.);
#1210=ADVANCED_FACE('',(#1209),#1175,.F.);
#1211=CARTESIAN_POINT('',(-6.5151,-0.571499999999999,3.174999999999999));
#1212=CARTESIAN_POINT('',(-6.5151,-0.571499999999999,13.335000000000001));
#1213=CARTESIAN_POINT('',(-5.3721,-0.571499999999999,3.174999999999999));
#1214=CARTESIAN_POINT('',(-5.3721,-0.571499999999999,13.334999999999999));
#1215=B_SPLINE_SURFACE_WITH_KNOTS('',1,1,((#1211,#1213),(#1212,#1214)),.UNSPECIFIED.,.F.,.F.,.U.,(2,2),(2,2),(0.0,10.160000000000002),(0.0,1.143000000000001),.UNSPECIFIED.);
#1216=CARTESIAN_POINT('',(-5.3721,-0.571499999999999,13.334999999999999));
#1217=DIRECTION('',(0.0,0.0,-1.0));
#1218=VECTOR('',#1217,10.16);
#1219=LINE('',#1216,#1218);
#1220=EDGE_CURVE('',#1147,#1195,#1219,.T.);
#1221=ORIENTED_EDGE('',*,*,#1220,.F.);
#1222=ORIENTED_EDGE('',*,*,#1152,.T.);
#1223=CARTESIAN_POINT('',(-6.5151,-0.571499999999999,13.334999999999999));
#1224=DIRECTION('',(0.0,0.0,-1.0));
#1225=VECTOR('',#1224,10.16);
#1226=LINE('',#1223,#1225);
#1227=EDGE_CURVE('',#1137,#1179,#1226,.T.);
#1228=ORIENTED_EDGE('',*,*,#1227,.T.);
#1229=ORIENTED_EDGE('',*,*,#1206,.T.);
#1230=EDGE_LOOP('',(#1221,#1222,#1228,#1229));
#1231=FACE_OUTER_BOUND('',#1230,.T.);
#1232=ADVANCED_FACE('',(#1231),#1215,.F.);
#1233=CARTESIAN_POINT('',(-5.3721,0.571500000000002,13.335000000000001));
#1234=CARTESIAN_POINT('',(-5.3721,0.571500000000002,3.174999999999999));
#1235=CARTESIAN_POINT('',(-5.3721,-0.571499999999999,13.335000000000001));
#1236=CARTESIAN_POINT('',(-5.3721,-0.571499999999999,3.174999999999997));
#1237=B_SPLINE_SURFACE_WITH_KNOTS('',1,1,((#1233,#1235),(#1234,#1236)),.UNSPECIFIED.,.F.,.F.,.U.,(2,2),(2,2),(0.0,10.160000000000002),(0.0,1.143000000000001),.UNSPECIFIED.);
#1238=CARTESIAN_POINT('',(-5.3721,0.571500000000002,13.334999999999999));
#1239=DIRECTION('',(0.0,0.0,-1.0));
#1240=VECTOR('',#1239,10.16);
#1241=LINE('',#1238,#1240);
#1242=EDGE_CURVE('',#1155,#1187,#1241,.T.);
#1243=ORIENTED_EDGE('',*,*,#1242,.F.);
#1244=ORIENTED_EDGE('',*,*,#1160,.T.);
#1245=ORIENTED_EDGE('',*,*,#1220,.T.);
#1246=ORIENTED_EDGE('',*,*,#1200,.T.);
#1247=EDGE_LOOP('',(#1243,#1244,#1245,#1246));
#1248=FACE_OUTER_BOUND('',#1247,.T.);
#1249=ADVANCED_FACE('',(#1248),#1237,.F.);
#1250=CARTESIAN_POINT('',(-6.5151,0.571500000000002,13.335000000000001));
#1251=CARTESIAN_POINT('',(-6.5151,0.571500000000002,3.174999999999999));
#1252=CARTESIAN_POINT('',(-5.3721,0.571500000000002,13.335000000000001));
#1253=CARTESIAN_POINT('',(-5.3721,0.571500000000002,3.174999999999997));
#1254=B_SPLINE_SURFACE_WITH_KNOTS('',1,1,((#1250,#1252),(#1251,#1253)),.UNSPECIFIED.,.F.,.F.,.U.,(2,2),(2,2),(0.0,10.160000000000002),(0.0,1.143000000000001),.UNSPECIFIED.);
#1255=CARTESIAN_POINT('',(-6.5151,0.571500000000002,13.334999999999999));
#1256=DIRECTION('',(0.0,0.0,-1.0));
#1257=VECTOR('',#1256,10.16);
#1258=LINE('',#1255,#1257);
#1259=EDGE_CURVE('',#1139,#1177,#1258,.T.);
#1260=ORIENTED_EDGE('',*,*,#1259,.F.);
#1261=ORIENTED_EDGE('',*,*,#1166,.T.);
#1262=ORIENTED_EDGE('',*,*,#1242,.T.);
#1263=ORIENTED_EDGE('',*,*,#1192,.T.);
#1264=EDGE_LOOP('',(#1260,#1261,#1262,#1263));
#1265=FACE_OUTER_BOUND('',#1264,.T.);
#1266=ADVANCED_FACE('',(#1265),#1254,.F.);
#1267=CARTESIAN_POINT('',(-6.5151,0.571500000000002,3.174999999999999));
#1268=CARTESIAN_POINT('',(-6.5151,0.571500000000002,13.335000000000001));
#1269=CARTESIAN_POINT('',(-6.5151,-0.571499999999999,3.174999999999999));
#1270=CARTESIAN_POINT('',(-6.5151,-0.571499999999999,13.334999999999999));
#1271=B_SPLINE_SURFACE_WITH_KNOTS('',1,1,((#1267,#1269),(#1268,#1270)),.UNSPECIFIED.,.F.,.F.,.U.,(2,2),(2,2),(0.0,10.160000000000002),(0.0,1.143000000000001),.UNSPECIFIED.);
#1272=ORIENTED_EDGE('',*,*,#1227,.F.);
#1273=ORIENTED_EDGE('',*,*,#1144,.T.);
#1274=ORIENTED_EDGE('',*,*,#1259,.T.);
#1275=ORIENTED_EDGE('',*,*,#1184,.T.);
#1276=EDGE_LOOP('',(#1272,#1273,#1274,#1275));
#1277=FACE_OUTER_BOUND('',#1276,.T.);
#1278=ADVANCED_FACE('',(#1277),#1271,.F.);
#1279=CLOSED_SHELL('',(#1170,#1210,#1232,#1249,#1266,#1278));
#1280=MANIFOLD_SOLID_BREP('2C14',#1279);
#1281=STYLED_ITEM('NONE',(#221),#1280);
#1282=CARTESIAN_POINT('',(7.9248,3.416299999999999,-0.15875));
#1283=DIRECTION('',(-1.0,0.0,0.0));
#1284=DIRECTION('',(0.0,0.0,-1.0));
#1285=AXIS2_PLACEMENT_3D('',#1282,#1283,#1284);
#1286=PLANE('',#1285);
#1287=CARTESIAN_POINT('',(7.924799999999999,-4.584700000000001,0.0));
#1288=VERTEX_POINT('',#1287);
#1289=CARTESIAN_POINT('',(7.924799999999999,-4.584700000000001,3.175));
#1290=VERTEX_POINT('',#1289);
#1291=CARTESIAN_POINT('',(7.924799999999999,-4.584700000000001,0.0));
#1292=DIRECTION('',(0.0,0.0,1.0));
#1293=VECTOR('',#1292,3.175);
#1294=LINE('',#1291,#1293);
#1295=EDGE_CURVE('',#1288,#1290,#1294,.T.);
#1296=ORIENTED_EDGE('',*,*,#1295,.F.);
#1297=CARTESIAN_POINT('',(7.9248,-2.792317420935001,0.0));
#1298=VERTEX_POINT('',#1297);
#1299=CARTESIAN_POINT('',(7.9248,-2.792317420935001,0.0));
#1300=DIRECTION('',(0.0,-1.0,0.0));
#1301=VECTOR('',#1300,1.792382579065);
#1302=LINE('',#1299,#1301);
#1303=EDGE_CURVE('',#1298,#1288,#1302,.T.);
#1304=ORIENTED_EDGE('',*,*,#1303,.F.);
#1305=CARTESIAN_POINT('',(7.9248,-2.425700000000001,0.635));
#1306=VERTEX_POINT('',#1305);
#1307=CARTESIAN_POINT('',(7.9248,-2.425700000000001,0.635));
#1308=DIRECTION('',(0.0,-0.500000000000017,-0.866025403784429));
#1309=VECTOR('',#1308,0.733234841870618);
#1310=LINE('',#1307,#1309);
#1311=EDGE_CURVE('',#1306,#1298,#1310,.T.);
#1312=ORIENTED_EDGE('',*,*,#1311,.F.);
#1313=CARTESIAN_POINT('',(7.9248,1.892299999999999,0.635));
#1314=VERTEX_POINT('',#1313);
#1315=CARTESIAN_POINT('',(7.9248,1.892299999999999,0.635));
#1316=DIRECTION('',(0.0,-1.0,0.0));
#1317=VECTOR('',#1316,4.318);
#1318=LINE('',#1315,#1317);
#1319=EDGE_CURVE('',#1314,#1306,#1318,.T.);
#1320=ORIENTED_EDGE('',*,*,#1319,.F.);
#1321=CARTESIAN_POINT('',(7.9248,2.258917420934999,0.0));
#1322=VERTEX_POINT('',#1321);
#1323=CARTESIAN_POINT('',(7.9248,2.258917420934999,0.0));
#1324=DIRECTION('',(0.0,-0.500000000000017,0.866025403784429));
#1325=VECTOR('',#1324,0.733234841870618);
#1326=LINE('',#1323,#1325);
#1327=EDGE_CURVE('',#1322,#1314,#1326,.T.);
#1328=ORIENTED_EDGE('',*,*,#1327,.F.);
#1329=CARTESIAN_POINT('',(7.9248,3.035299999999999,0.0));
#1330=VERTEX_POINT('',#1329);
#1331=CARTESIAN_POINT('',(7.9248,3.035299999999999,0.0));
#1332=DIRECTION('',(0.0,-1.0,0.0));
#1333=VECTOR('',#1332,0.776382579065);
#1334=LINE('',#1331,#1333);
#1335=EDGE_CURVE('',#1330,#1322,#1334,.T.);
#1336=ORIENTED_EDGE('',*,*,#1335,.F.);
#1337=CARTESIAN_POINT('',(7.9248,3.035299999999999,3.175));
#1338=VERTEX_POINT('',#1337);
#1339=CARTESIAN_POINT('',(7.9248,3.035299999999999,3.175));
#1340=DIRECTION('',(0.0,0.0,-1.0));
#1341=VECTOR('',#1340,3.175);
#1342=LINE('',#1339,#1341);
#1343=EDGE_CURVE('',#1338,#1330,#1342,.T.);
#1344=ORIENTED_EDGE('',*,*,#1343,.F.);
#1345=CARTESIAN_POINT('',(7.9248,-2.108200000000001,3.175));
#1346=VERTEX_POINT('',#1345);
#1347=CARTESIAN_POINT('',(7.9248,-2.108200000000001,3.175));
#1348=DIRECTION('',(0.0,1.0,0.0));
#1349=VECTOR('',#1348,5.1435);
#1350=LINE('',#1347,#1349);
#1351=EDGE_CURVE('',#1346,#1338,#1350,.T.);
#1352=ORIENTED_EDGE('',*,*,#1351,.F.);
#1353=CARTESIAN_POINT('',(7.9248,-2.108200000000001,2.667));
#1354=VERTEX_POINT('',#1353);
#1355=CARTESIAN_POINT('',(7.9248,-2.108200000000001,2.667));
#1356=DIRECTION('',(0.0,0.0,1.0));
#1357=VECTOR('',#1356,0.508);
#1358=LINE('',#1355,#1357);
#1359=EDGE_CURVE('',#1354,#1346,#1358,.T.);
#1360=ORIENTED_EDGE('',*,*,#1359,.F.);
#1361=CARTESIAN_POINT('',(7.924799999999999,-3.632200000000001,2.667));
#1362=VERTEX_POINT('',#1361);
#1363=CARTESIAN_POINT('',(7.9248,-2.870200000000001,2.667));
#1364=DIRECTION('',(1.0,0.0,0.0));
#1365=DIRECTION('',(0.0,-1.0,0.0));
#1366=AXIS2_PLACEMENT_3D('',#1363,#1364,#1365);
#1367=CIRCLE('',#1366,0.762);
#1368=EDGE_CURVE('',#1362,#1354,#1367,.T.);
#1369=ORIENTED_EDGE('',*,*,#1368,.F.);
#1370=CARTESIAN_POINT('',(7.924799999999999,-3.632200000000001,3.175));
#1371=VERTEX_POINT('',#1370);
#1372=CARTESIAN_POINT('',(7.924799999999999,-3.632200000000001,3.175));
#1373=DIRECTION('',(0.0,0.0,-1.0));
#1374=VECTOR('',#1373,0.508);
#1375=LINE('',#1372,#1374);
#1376=EDGE_CURVE('',#1371,#1362,#1375,.T.);
#1377=ORIENTED_EDGE('',*,*,#1376,.F.);
#1378=CARTESIAN_POINT('',(7.924799999999999,-4.584700000000001,3.175));
#1379=DIRECTION('',(0.0,1.0,0.0));
#1380=VECTOR('',#1379,0.9525);
#1381=LINE('',#1378,#1380);
#1382=EDGE_CURVE('',#1290,#1371,#1381,.T.);
#1383=ORIENTED_EDGE('',*,*,#1382,.F.);
#1384=EDGE_LOOP('',(#1296,#1304,#1312,#1320,#1328,#1336,#1344,#1352,#1360,#1369,#1377,#1383));
#1385=FACE_OUTER_BOUND('',#1384,.T.);
#1386=ADVANCED_FACE('',(#1385),#1286,.F.);
#1387=CARTESIAN_POINT('',(8.023860000000001,-4.632325000000001,3.175));
#1388=DIRECTION('',(0.0,0.0,1.0));
#1389=DIRECTION('',(-1.0,0.0,0.0));
#1390=AXIS2_PLACEMENT_3D('',#1387,#1388,#1389);
#1391=PLANE('',#1390);
#1392=CARTESIAN_POINT('',(5.943599999999999,-3.632200000000001,3.175));
#1393=VERTEX_POINT('',#1392);
#1394=CARTESIAN_POINT('',(7.924799999999999,-3.632200000000001,3.175));
#1395=DIRECTION('',(-1.0,0.0,0.0));
#1396=VECTOR('',#1395,1.9812);
#1397=LINE('',#1394,#1396);
#1398=EDGE_CURVE('',#1371,#1393,#1397,.T.);
#1399=ORIENTED_EDGE('',*,*,#1398,.T.);
#1400=CARTESIAN_POINT('',(5.943599999999999,-4.584700000000001,3.175));
#1401=VERTEX_POINT('',#1400);
#1402=CARTESIAN_POINT('',(5.943599999999999,-3.632200000000001,3.175));
#1403=DIRECTION('',(0.0,-1.0,0.0));
#1404=VECTOR('',#1403,0.9525);
#1405=LINE('',#1402,#1404);
#1406=EDGE_CURVE('',#1393,#1401,#1405,.T.);
#1407=ORIENTED_EDGE('',*,*,#1406,.T.);
#1408=CARTESIAN_POINT('',(7.924799999999999,-4.584700000000001,3.175));
#1409=DIRECTION('',(-1.0,0.0,0.0));
#1410=VECTOR('',#1409,1.9812);
#1411=LINE('',#1408,#1410);
#1412=EDGE_CURVE('',#1290,#1401,#1411,.T.);
#1413=ORIENTED_EDGE('',*,*,#1412,.F.);
#1414=ORIENTED_EDGE('',*,*,#1382,.T.);
#1415=EDGE_LOOP('',(#1399,#1407,#1413,#1414));
#1416=FACE_OUTER_BOUND('',#1415,.T.);
#1417=ADVANCED_FACE('',(#1416),#1391,.T.);
#1418=CARTESIAN_POINT('',(-5.844540000000002,-4.632324999999999,3.175));
#1419=DIRECTION('',(0.0,0.0,1.0));
#1420=DIRECTION('',(-1.0,0.0,0.0));
#1421=AXIS2_PLACEMENT_3D('',#1418,#1419,#1420);
#1422=PLANE('',#1421);
#1423=CARTESIAN_POINT('',(-5.943600000000001,-4.584699999999999,3.175));
#1424=VERTEX_POINT('',#1423);
#1425=CARTESIAN_POINT('',(-7.924800000000001,-4.584699999999999,3.175));
#1426=VERTEX_POINT('',#1425);
#1427=CARTESIAN_POINT('',(-5.943600000000001,-4.584699999999999,3.175));
#1428=DIRECTION('',(-1.0,0.0,0.0));
#1429=VECTOR('',#1428,1.9812);
#1430=LINE('',#1427,#1429);
#1431=EDGE_CURVE('',#1424,#1426,#1430,.T.);
#1432=ORIENTED_EDGE('',*,*,#1431,.F.);
#1433=CARTESIAN_POINT('',(-5.943600000000001,-3.632199999999999,3.175));
#1434=VERTEX_POINT('',#1433);
#1435=CARTESIAN_POINT('',(-5.943600000000001,-4.584699999999999,3.175));
#1436=DIRECTION('',(0.0,1.0,0.0));
#1437=VECTOR('',#1436,0.9525);
#1438=LINE('',#1435,#1437);
#1439=EDGE_CURVE('',#1424,#1434,#1438,.T.);
#1440=ORIENTED_EDGE('',*,*,#1439,.T.);
#1441=CARTESIAN_POINT('',(-7.924800000000001,-3.632199999999999,3.175));
#1442=VERTEX_POINT('',#1441);
#1443=CARTESIAN_POINT('',(-5.943600000000001,-3.632199999999999,3.175));
#1444=DIRECTION('',(-1.0,0.0,0.0));
#1445=VECTOR('',#1444,1.9812);
#1446=LINE('',#1443,#1445);
#1447=EDGE_CURVE('',#1434,#1442,#1446,.T.);
#1448=ORIENTED_EDGE('',*,*,#1447,.T.);
#1449=CARTESIAN_POINT('',(-7.924800000000001,-4.584699999999999,3.175));
#1450=DIRECTION('',(0.0,1.0,0.0));
#1451=VECTOR('',#1450,0.9525);
#1452=LINE('',#1449,#1451);
#1453=EDGE_CURVE('',#1426,#1442,#1452,.T.);
#1454=ORIENTED_EDGE('',*,*,#1453,.F.);
#1455=EDGE_LOOP('',(#1432,#1440,#1448,#1454));
#1456=FACE_OUTER_BOUND('',#1455,.T.);
#1457=ADVANCED_FACE('',(#1456),#1422,.T.);
#1458=CARTESIAN_POINT('',(8.717280000000001,-4.584700000000001,-0.51435));
#1459=DIRECTION('',(0.0,-1.0,0.0));
#1460=DIRECTION('',(0.0,0.0,1.0));
#1461=AXIS2_PLACEMENT_3D('',#1458,#1459,#1460);
#1462=PLANE('',#1461);
#1463=CARTESIAN_POINT('',(5.943599999999999,-4.584700000000001,10.286999999999999));
#1464=VERTEX_POINT('',#1463);
#1465=CARTESIAN_POINT('',(5.943599999999999,-4.584700000000001,10.286999999999999));
#1466=DIRECTION('',(0.0,0.0,-1.0));
#1467=VECTOR('',#1466,7.112);
#1468=LINE('',#1465,#1467);
#1469=EDGE_CURVE('',#1464,#1401,#1468,.T.);
#1470=ORIENTED_EDGE('',*,*,#1469,.F.);
#1471=CARTESIAN_POINT('',(-5.943600000000001,-4.584699999999999,10.286999999999999));
#1472=VERTEX_POINT('',#1471);
#1473=CARTESIAN_POINT('',(5.943599999999999,-4.584700000000001,10.286999999999999));
#1474=DIRECTION('',(-1.0,0.0,0.0));
#1475=VECTOR('',#1474,11.8872);
#1476=LINE('',#1473,#1475);
#1477=EDGE_CURVE('',#1464,#1472,#1476,.T.);
#1478=ORIENTED_EDGE('',*,*,#1477,.T.);
#1479=CARTESIAN_POINT('',(-5.943600000000001,-4.584699999999999,10.286999999999999));
#1480=DIRECTION('',(0.0,0.0,-1.0));
#1481=VECTOR('',#1480,7.112);
#1482=LINE('',#1479,#1481);
#1483=EDGE_CURVE('',#1472,#1424,#1482,.T.);
#1484=ORIENTED_EDGE('',*,*,#1483,.T.);
#1485=ORIENTED_EDGE('',*,*,#1431,.T.);
#1486=CARTESIAN_POINT('',(-7.924800000000001,-4.584699999999999,0.0));
#1487=VERTEX_POINT('',#1486);
#1488=CARTESIAN_POINT('',(-7.924800000000001,-4.584699999999999,0.0));
#1489=DIRECTION('',(0.0,0.0,1.0));
#1490=VECTOR('',#1489,3.175);
#1491=LINE('',#1488,#1490);
#1492=EDGE_CURVE('',#1487,#1426,#1491,.T.);
#1493=ORIENTED_EDGE('',*,*,#1492,.F.);
#1494=CARTESIAN_POINT('',(7.924799999999999,-4.584700000000001,0.0));
#1495=DIRECTION('',(-1.0,0.0,0.0));
#1496=VECTOR('',#1495,15.849600000000001);
#1497=LINE('',#1494,#1496);
#1498=EDGE_CURVE('',#1288,#1487,#1497,.T.);
#1499=ORIENTED_EDGE('',*,*,#1498,.F.);
#1500=ORIENTED_EDGE('',*,*,#1295,.T.);
#1501=ORIENTED_EDGE('',*,*,#1412,.T.);
#1502=EDGE_LOOP('',(#1470,#1478,#1484,#1485,#1493,#1499,#1500,#1501));
#1503=FACE_OUTER_BOUND('',#1502,.T.);
#1504=ADVANCED_FACE('',(#1503),#1462,.T.);
#1505=CARTESIAN_POINT('',(8.717280000000001,-2.702698291981751,0.0));
#1506=DIRECTION('',(0.0,0.0,-1.0));
#1507=DIRECTION('',(1.0,0.0,0.0));
#1508=AXIS2_PLACEMENT_3D('',#1505,#1506,#1507);
#1509=PLANE('',#1508);
#1510=ORIENTED_EDGE('',*,*,#1498,.T.);
#1511=CARTESIAN_POINT('',(-7.9248,-2.792317420934999,0.0));
#1512=VERTEX_POINT('',#1511);
#1513=CARTESIAN_POINT('',(-7.9248,-2.792317420934999,0.0));
#1514=DIRECTION('',(0.0,-1.0,0.0));
#1515=VECTOR('',#1514,1.792382579065);
#1516=LINE('',#1513,#1515);
#1517=EDGE_CURVE('',#1512,#1487,#1516,.T.);
#1518=ORIENTED_EDGE('',*,*,#1517,.F.);
#1519=CARTESIAN_POINT('',(7.9248,-2.792317420935001,0.0));
#1520=DIRECTION('',(-1.0,0.0,0.0));
#1521=VECTOR('',#1520,15.849600000000001);
#1522=LINE('',#1519,#1521);
#1523=EDGE_CURVE('',#1298,#1512,#1522,.T.);
#1524=ORIENTED_EDGE('',*,*,#1523,.F.);
#1525=ORIENTED_EDGE('',*,*,#1303,.T.);
#1526=EDGE_LOOP('',(#1510,#1518,#1524,#1525));
#1527=FACE_OUTER_BOUND('',#1526,.T.);
#1528=ADVANCED_FACE('',(#1527),#1509,.T.);
#1529=CARTESIAN_POINT('',(8.717280000000001,-2.407369128953235,0.666749999999991));
#1530=DIRECTION('',(1.060575E-016,0.866025403784429,-0.500000000000017));
#1531=DIRECTION('',(1.0,0.0,0.0));
#1532=AXIS2_PLACEMENT_3D('',#1529,#1530,#1531);
#1533=PLANE('',#1532);
#1534=ORIENTED_EDGE('',*,*,#1523,.T.);
#1535=CARTESIAN_POINT('',(-7.9248,-2.425699999999999,0.635));
#1536=VERTEX_POINT('',#1535);
#1537=CARTESIAN_POINT('',(-7.9248,-2.425699999999999,0.635));
#1538=DIRECTION('',(0.0,-0.500000000000017,-0.866025403784429));
#1539=VECTOR('',#1538,0.733234841870618);
#1540=LINE('',#1537,#1539);
#1541=EDGE_CURVE('',#1536,#1512,#1540,.T.);
#1542=ORIENTED_EDGE('',*,*,#1541,.F.);
#1543=CARTESIAN_POINT('',(7.9248,-2.425700000000001,0.635));
#1544=DIRECTION('',(-1.0,0.0,0.0));
#1545=VECTOR('',#1544,15.849600000000001);
#1546=LINE('',#1543,#1545);
#1547=EDGE_CURVE('',#1306,#1536,#1546,.T.);
#1548=ORIENTED_EDGE('',*,*,#1547,.F.);
#1549=ORIENTED_EDGE('',*,*,#1311,.T.);
#1550=EDGE_LOOP('',(#1534,#1542,#1548,#1549));
#1551=FACE_OUTER_BOUND('',#1550,.T.);
#1552=ADVANCED_FACE('',(#1551),#1533,.T.);
#1553=CARTESIAN_POINT('',(8.717280000000001,2.108199999999999,0.635));
#1554=DIRECTION('',(0.0,0.0,-1.0));
#1555=DIRECTION('',(1.0,0.0,0.0));
#1556=AXIS2_PLACEMENT_3D('',#1553,#1554,#1555);
#1557=PLANE('',#1556);
#1558=ORIENTED_EDGE('',*,*,#1547,.T.);
#1559=CARTESIAN_POINT('',(-7.9248,1.892300000000001,0.635));
#1560=VERTEX_POINT('',#1559);
#1561=CARTESIAN_POINT('',(-7.9248,1.892300000000001,0.635));
#1562=DIRECTION('',(0.0,-1.0,0.0));
#1563=VECTOR('',#1562,4.318);
#1564=LINE('',#1561,#1563);
#1565=EDGE_CURVE('',#1560,#1536,#1564,.T.);
#1566=ORIENTED_EDGE('',*,*,#1565,.F.);
#1567=CARTESIAN_POINT('',(7.9248,1.892299999999999,0.635));
#1568=DIRECTION('',(-1.0,0.0,0.0));
#1569=VECTOR('',#1568,15.849600000000001);
#1570=LINE('',#1567,#1569);
#1571=EDGE_CURVE('',#1314,#1560,#1570,.T.);
#1572=ORIENTED_EDGE('',*,*,#1571,.F.);
#1573=ORIENTED_EDGE('',*,*,#1319,.T.);
#1574=EDGE_LOOP('',(#1558,#1566,#1572,#1573));
#1575=FACE_OUTER_BOUND('',#1574,.T.);
#1576=ADVANCED_FACE('',(#1575),#1557,.T.);
#1577=CARTESIAN_POINT('',(8.717280000000001,2.277248291981765,-0.031749999999991));
#1578=DIRECTION('',(-1.060575E-016,-0.866025403784429,-0.500000000000017));
#1579=DIRECTION('',(1.0,0.0,0.0));
#1580=AXIS2_PLACEMENT_3D('',#1577,#1578,#1579);
#1581=PLANE('',#1580);
#1582=ORIENTED_EDGE('',*,*,#1571,.T.);
#1583=CARTESIAN_POINT('',(-7.9248,2.258917420935001,0.0));
#1584=VERTEX_POINT('',#1583);
#1585=CARTESIAN_POINT('',(-7.9248,2.258917420935001,0.0));
#1586=DIRECTION('',(0.0,-0.500000000000017,0.866025403784429));
#1587=VECTOR('',#1586,0.733234841870618);
#1588=LINE('',#1585,#1587);
#1589=EDGE_CURVE('',#1584,#1560,#1588,.T.);
#1590=ORIENTED_EDGE('',*,*,#1589,.F.);
#1591=CARTESIAN_POINT('',(7.9248,2.258917420934999,0.0));
#1592=DIRECTION('',(-1.0,0.0,0.0));
#1593=VECTOR('',#1592,15.849600000000001);
#1594=LINE('',#1591,#1593);
#1595=EDGE_CURVE('',#1322,#1584,#1594,.T.);
#1596=ORIENTED_EDGE('',*,*,#1595,.F.);
#1597=ORIENTED_EDGE('',*,*,#1327,.T.);
#1598=EDGE_LOOP('',(#1582,#1590,#1596,#1597));
#1599=FACE_OUTER_BOUND('',#1598,.T.);
#1600=ADVANCED_FACE('',(#1599),#1581,.T.);
#1601=CARTESIAN_POINT('',(8.717280000000001,3.074119128953249,0.0));
#1602=DIRECTION('',(0.0,0.0,-1.0));
#1603=DIRECTION('',(1.0,0.0,0.0));
#1604=AXIS2_PLACEMENT_3D('',#1601,#1602,#1603);
#1605=PLANE('',#1604);
#1606=ORIENTED_EDGE('',*,*,#1595,.T.);
#1607=CARTESIAN_POINT('',(-7.9248,3.035300000000001,0.0));
#1608=VERTEX_POINT('',#1607);
#1609=CARTESIAN_POINT('',(-7.9248,3.035300000000001,0.0));
#1610=DIRECTION('',(0.0,-1.0,0.0));
#1611=VECTOR('',#1610,0.776382579065);
#1612=LINE('',#1609,#1611);
#1613=EDGE_CURVE('',#1608,#1584,#1612,.T.);
#1614=ORIENTED_EDGE('',*,*,#1613,.F.);
#1615=CARTESIAN_POINT('',(7.9248,3.035299999999999,0.0));
#1616=DIRECTION('',(-1.0,0.0,0.0));
#1617=VECTOR('',#1616,15.849600000000001);
#1618=LINE('',#1615,#1617);
#1619=EDGE_CURVE('',#1330,#1608,#1618,.T.);
#1620=ORIENTED_EDGE('',*,*,#1619,.F.);
#1621=ORIENTED_EDGE('',*,*,#1335,.T.);
#1622=EDGE_LOOP('',(#1606,#1614,#1620,#1621));
#1623=FACE_OUTER_BOUND('',#1622,.T.);
#1624=ADVANCED_FACE('',(#1623),#1605,.T.);
#1625=CARTESIAN_POINT('',(8.717280000000001,3.035299999999999,3.33375));
#1626=DIRECTION('',(0.0,1.0,0.0));
#1627=DIRECTION('',(0.0,0.0,-1.0));
#1628=AXIS2_PLACEMENT_3D('',#1625,#1626,#1627);
#1629=PLANE('',#1628);
#1630=ORIENTED_EDGE('',*,*,#1619,.T.);
#1631=CARTESIAN_POINT('',(-7.9248,3.035300000000001,3.175));
#1632=VERTEX_POINT('',#1631);
#1633=CARTESIAN_POINT('',(-7.9248,3.035300000000001,3.175));
#1634=DIRECTION('',(0.0,0.0,-1.0));
#1635=VECTOR('',#1634,3.175);
#1636=LINE('',#1633,#1635);
#1637=EDGE_CURVE('',#1632,#1608,#1636,.T.);
#1638=ORIENTED_EDGE('',*,*,#1637,.F.);
#1639=CARTESIAN_POINT('',(7.9248,3.035299999999999,3.175));
#1640=DIRECTION('',(-1.0,0.0,0.0));
#1641=VECTOR('',#1640,15.849600000000001);
#1642=LINE('',#1639,#1641);
#1643=EDGE_CURVE('',#1338,#1632,#1642,.T.);
#1644=ORIENTED_EDGE('',*,*,#1643,.F.);
#1645=ORIENTED_EDGE('',*,*,#1343,.T.);
#1646=EDGE_LOOP('',(#1630,#1638,#1644,#1645));
#1647=FACE_OUTER_BOUND('',#1646,.T.);
#1648=ADVANCED_FACE('',(#1647),#1629,.T.);
#1649=CARTESIAN_POINT('',(8.717280000000001,-2.365375000000001,3.175));
#1650=DIRECTION('',(0.0,0.0,1.0));
#1651=DIRECTION('',(-1.0,0.0,0.0));
#1652=AXIS2_PLACEMENT_3D('',#1649,#1650,#1651);
#1653=PLANE('',#1652);
#1654=ORIENTED_EDGE('',*,*,#1643,.T.);
#1655=CARTESIAN_POINT('',(-7.9248,-2.108199999999999,3.175));
#1656=VERTEX_POINT('',#1655);
#1657=CARTESIAN_POINT('',(-7.9248,-2.108199999999999,3.175));
#1658=DIRECTION('',(0.0,1.0,0.0));
#1659=VECTOR('',#1658,5.1435);
#1660=LINE('',#1657,#1659);
#1661=EDGE_CURVE('',#1656,#1632,#1660,.T.);
#1662=ORIENTED_EDGE('',*,*,#1661,.F.);
#1663=CARTESIAN_POINT('',(7.9248,-2.108200000000001,3.175));
#1664=DIRECTION('',(-1.0,0.0,0.0));
#1665=VECTOR('',#1664,15.849600000000001);
#1666=LINE('',#1663,#1665);
#1667=EDGE_CURVE('',#1346,#1656,#1666,.T.);
#1668=ORIENTED_EDGE('',*,*,#1667,.F.);
#1669=ORIENTED_EDGE('',*,*,#1351,.T.);
#1670=EDGE_LOOP('',(#1654,#1662,#1668,#1669));
#1671=FACE_OUTER_BOUND('',#1670,.T.);
#1672=ADVANCED_FACE('',(#1671),#1653,.T.);
#1673=CARTESIAN_POINT('',(8.717280000000001,-2.108200000000001,2.6416));
#1674=DIRECTION('',(0.0,-1.0,0.0));
#1675=DIRECTION('',(0.0,0.0,1.0));
#1676=AXIS2_PLACEMENT_3D('',#1673,#1674,#1675);
#1677=PLANE('',#1676);
#1678=ORIENTED_EDGE('',*,*,#1667,.T.);
#1679=CARTESIAN_POINT('',(-7.9248,-2.108199999999999,2.667));
#1680=VERTEX_POINT('',#1679);
#1681=CARTESIAN_POINT('',(-7.9248,-2.108199999999999,2.667));
#1682=DIRECTION('',(0.0,0.0,1.0));
#1683=VECTOR('',#1682,0.508);
#1684=LINE('',#1681,#1683);
#1685=EDGE_CURVE('',#1680,#1656,#1684,.T.);
#1686=ORIENTED_EDGE('',*,*,#1685,.F.);
#1687=CARTESIAN_POINT('',(7.9248,-2.108200000000001,2.667));
#1688=DIRECTION('',(-1.0,0.0,0.0));
#1689=VECTOR('',#1688,15.849600000000001);
#1690=LINE('',#1687,#1689);
#1691=EDGE_CURVE('',#1354,#1680,#1690,.T.);
#1692=ORIENTED_EDGE('',*,*,#1691,.F.);
#1693=ORIENTED_EDGE('',*,*,#1359,.T.);
#1694=EDGE_LOOP('',(#1678,#1686,#1692,#1693));
#1695=FACE_OUTER_BOUND('',#1694,.T.);
#1696=ADVANCED_FACE('',(#1695),#1677,.T.);
#1697=CARTESIAN_POINT('',(8.717280000000001,-2.870200000000001,2.667));
#1698=DIRECTION('',(-1.0,1.224647E-016,0.0));
#1699=DIRECTION('',(0.0,-1.0,0.0));
#1700=AXIS2_PLACEMENT_3D('',#1697,#1698,#1699);
#1701=CYLINDRICAL_SURFACE('',#1700,0.762);
#1702=ORIENTED_EDGE('',*,*,#1691,.T.);
#1703=CARTESIAN_POINT('',(-7.924800000000001,-3.632199999999999,2.667));
#1704=VERTEX_POINT('',#1703);
#1705=CARTESIAN_POINT('',(-7.9248,-2.870199999999999,2.667));
#1706=DIRECTION('',(1.0,0.0,0.0));
#1707=DIRECTION('',(0.0,-1.0,0.0));
#1708=AXIS2_PLACEMENT_3D('',#1705,#1706,#1707);
#1709=CIRCLE('',#1708,0.762);
#1710=EDGE_CURVE('',#1704,#1680,#1709,.T.);
#1711=ORIENTED_EDGE('',*,*,#1710,.F.);
#1712=CARTESIAN_POINT('',(7.924799999999999,-3.632200000000001,2.667));
#1713=DIRECTION('',(-1.0,0.0,0.0));
#1714=VECTOR('',#1713,15.849600000000001);
#1715=LINE('',#1712,#1714);
#1716=EDGE_CURVE('',#1362,#1704,#1715,.T.);
#1717=ORIENTED_EDGE('',*,*,#1716,.F.);
#1718=ORIENTED_EDGE('',*,*,#1368,.T.);
#1719=EDGE_LOOP('',(#1702,#1711,#1717,#1718));
#1720=FACE_OUTER_BOUND('',#1719,.T.);
#1721=ADVANCED_FACE('',(#1720),#1701,.F.);
#1722=CARTESIAN_POINT('',(8.717280000000001,-3.632200000000001,5.30733));
#1723=DIRECTION('',(0.0,1.0,0.0));
#1724=DIRECTION('',(0.0,0.0,-1.0));
#1725=AXIS2_PLACEMENT_3D('',#1722,#1723,#1724);
#1726=PLANE('',#1725);
#1727=ORIENTED_EDGE('',*,*,#1376,.T.);
#1728=ORIENTED_EDGE('',*,*,#1716,.T.);
#1729=CARTESIAN_POINT('',(-7.924800000000001,-3.632199999999999,3.175));
#1730=DIRECTION('',(0.0,0.0,-1.0));
#1731=VECTOR('',#1730,0.508);
#1732=LINE('',#1729,#1731);
#1733=EDGE_CURVE('',#1442,#1704,#1732,.T.);
#1734=ORIENTED_EDGE('',*,*,#1733,.F.);
#1735=ORIENTED_EDGE('',*,*,#1447,.F.);
#1736=CARTESIAN_POINT('',(-5.943600000000001,-3.632199999999999,5.1816));
#1737=VERTEX_POINT('',#1736);
#1738=CARTESIAN_POINT('',(-5.943600000000001,-3.632199999999999,5.1816));
#1739=DIRECTION('',(0.0,0.0,-1.0));
#1740=VECTOR('',#1739,2.0066);
#1741=LINE('',#1738,#1740);
#1742=EDGE_CURVE('',#1737,#1434,#1741,.T.);
#1743=ORIENTED_EDGE('',*,*,#1742,.F.);
#1744=CARTESIAN_POINT('',(5.943599999999999,-3.632200000000001,5.1816));
#1745=VERTEX_POINT('',#1744);
#1746=CARTESIAN_POINT('',(5.943599999999999,-3.632200000000001,5.1816));
#1747=DIRECTION('',(-1.0,0.0,0.0));
#1748=VECTOR('',#1747,11.8872);
#1749=LINE('',#1746,#1748);
#1750=EDGE_CURVE('',#1745,#1737,#1749,.T.);
#1751=ORIENTED_EDGE('',*,*,#1750,.F.);
#1752=CARTESIAN_POINT('',(5.943599999999999,-3.632200000000001,5.1816));
#1753=DIRECTION('',(0.0,0.0,-1.0));
#1754=VECTOR('',#1753,2.0066);
#1755=LINE('',#1752,#1754);
#1756=EDGE_CURVE('',#1745,#1393,#1755,.T.);
#1757=ORIENTED_EDGE('',*,*,#1756,.T.);
#1758=ORIENTED_EDGE('',*,*,#1398,.F.);
#1759=EDGE_LOOP('',(#1727,#1728,#1734,#1735,#1743,#1751,#1757,#1758));
#1760=FACE_OUTER_BOUND('',#1759,.T.);
#1761=ADVANCED_FACE('',(#1760),#1726,.T.);
#1762=CARTESIAN_POINT('',(5.9436,-2.317750000000001,2.794000000000001));
#1763=DIRECTION('',(-1.0,0.0,0.0));
#1764=DIRECTION('',(0.0,0.0,-1.0));
#1765=AXIS2_PLACEMENT_3D('',#1762,#1763,#1764);
#1766=PLANE('',#1765);
#1767=CARTESIAN_POINT('',(5.943599999999999,-4.076700000000001,10.795));
#1768=VERTEX_POINT('',#1767);
#1769=CARTESIAN_POINT('',(5.943599999999999,-4.076700000000001,10.286999999999999));
#1770=DIRECTION('',(-1.0,0.0,0.0));
#1771=DIRECTION('',(0.0,-1.0,0.0));
#1772=AXIS2_PLACEMENT_3D('',#1769,#1770,#1771);
#1773=CIRCLE('',#1772,0.508);
#1774=EDGE_CURVE('',#1464,#1768,#1773,.T.);
#1775=ORIENTED_EDGE('',*,*,#1774,.F.);
#1776=ORIENTED_EDGE('',*,*,#1469,.T.);
#1777=ORIENTED_EDGE('',*,*,#1406,.F.);
#1778=ORIENTED_EDGE('',*,*,#1756,.F.);
#1779=CARTESIAN_POINT('',(5.9436,-2.425700000000001,7.271319299332));
#1780=VERTEX_POINT('',#1779);
#1781=CARTESIAN_POINT('',(5.9436,-2.425700000000001,7.271319299332));
#1782=DIRECTION('',(0.0,-0.500000000000016,-0.866025403784429));
#1783=VECTOR('',#1782,2.41300000000013);
#1784=LINE('',#1781,#1783);
#1785=EDGE_CURVE('',#1780,#1745,#1784,.T.);
#1786=ORIENTED_EDGE('',*,*,#1785,.F.);
#1787=CARTESIAN_POINT('',(5.9436,-2.425700000000001,10.795));
#1788=VERTEX_POINT('',#1787);
#1789=CARTESIAN_POINT('',(5.9436,-2.425700000000001,10.795));
#1790=DIRECTION('',(0.0,0.0,-1.0));
#1791=VECTOR('',#1790,3.523680700668);
#1792=LINE('',#1789,#1791);
#1793=EDGE_CURVE('',#1788,#1780,#1792,.T.);
#1794=ORIENTED_EDGE('',*,*,#1793,.F.);
#1795=CARTESIAN_POINT('',(5.943599999999999,-4.076700000000001,10.795));
#1796=DIRECTION('',(0.0,1.0,0.0));
#1797=VECTOR('',#1796,1.651);
#1798=LINE('',#1795,#1797);
#1799=EDGE_CURVE('',#1768,#1788,#1798,.T.);
#1800=ORIENTED_EDGE('',*,*,#1799,.F.);
#1801=EDGE_LOOP('',(#1775,#1776,#1777,#1778,#1786,#1794,#1800));
#1802=FACE_OUTER_BOUND('',#1801,.T.);
#1803=ADVANCED_FACE('',(#1802),#1766,.F.);
#1804=CARTESIAN_POINT('',(6.537959999999999,-4.159250000000001,10.795));
#1805=DIRECTION('',(0.0,0.0,1.0));
#1806=DIRECTION('',(-1.0,0.0,0.0));
#1807=AXIS2_PLACEMENT_3D('',#1804,#1805,#1806);
#1808=PLANE('',#1807);
#1809=CARTESIAN_POINT('',(-5.943600000000001,-4.076699999999999,10.795));
#1810=VERTEX_POINT('',#1809);
#1811=CARTESIAN_POINT('',(5.943599999999999,-4.076700000000001,10.795));
#1812=DIRECTION('',(-1.0,0.0,0.0));
#1813=VECTOR('',#1812,11.8872);
#1814=LINE('',#1811,#1813);
#1815=EDGE_CURVE('',#1768,#1810,#1814,.T.);
#1816=ORIENTED_EDGE('',*,*,#1815,.F.);
#1817=ORIENTED_EDGE('',*,*,#1799,.T.);
#1818=CARTESIAN_POINT('',(-5.9436,-2.425699999999999,10.795));
#1819=VERTEX_POINT('',#1818);
#1820=CARTESIAN_POINT('',(5.9436,-2.425700000000001,10.795));
#1821=DIRECTION('',(-1.0,0.0,0.0));
#1822=VECTOR('',#1821,11.8872);
#1823=LINE('',#1820,#1822);
#1824=EDGE_CURVE('',#1788,#1819,#1823,.T.);
#1825=ORIENTED_EDGE('',*,*,#1824,.T.);
#1826=CARTESIAN_POINT('',(-5.943600000000001,-4.076699999999999,10.795));
#1827=DIRECTION('',(0.0,1.0,0.0));
#1828=VECTOR('',#1827,1.651);
#1829=LINE('',#1826,#1828);
#1830=EDGE_CURVE('',#1810,#1819,#1829,.T.);
#1831=ORIENTED_EDGE('',*,*,#1830,.F.);
#1832=EDGE_LOOP('',(#1816,#1817,#1825,#1831));
#1833=FACE_OUTER_BOUND('',#1832,.T.);
#1834=ADVANCED_FACE('',(#1833),#1808,.T.);
#1835=CARTESIAN_POINT('',(-5.943600000000001,-4.692649999999999,2.794000000000001));
#1836=DIRECTION('',(1.0,0.0,0.0));
#1837=DIRECTION('',(0.0,0.0,1.0));
#1838=AXIS2_PLACEMENT_3D('',#1835,#1836,#1837);
#1839=PLANE('',#1838);
#1840=CARTESIAN_POINT('',(-5.9436,-2.425699999999999,7.271319299332));
#1841=VERTEX_POINT('',#1840);
#1842=CARTESIAN_POINT('',(-5.9436,-2.425699999999999,10.795));
#1843=DIRECTION('',(0.0,0.0,-1.0));
#1844=VECTOR('',#1843,3.523680700668);
#1845=LINE('',#1842,#1844);
#1846=EDGE_CURVE('',#1819,#1841,#1845,.T.);
#1847=ORIENTED_EDGE('',*,*,#1846,.T.);
#1848=CARTESIAN_POINT('',(-5.9436,-2.425699999999999,7.271319299332));
#1849=DIRECTION('',(0.0,-0.500000000000016,-0.866025403784429));
#1850=VECTOR('',#1849,2.41300000000013);
#1851=LINE('',#1848,#1850);
#1852=EDGE_CURVE('',#1841,#1737,#1851,.T.);
#1853=ORIENTED_EDGE('',*,*,#1852,.T.);
#1854=ORIENTED_EDGE('',*,*,#1742,.T.);
#1855=ORIENTED_EDGE('',*,*,#1439,.F.);
#1856=ORIENTED_EDGE('',*,*,#1483,.F.);
#1857=CARTESIAN_POINT('',(-5.943600000000001,-4.076699999999999,10.286999999999999));
#1858=DIRECTION('',(-1.0,0.0,0.0));
#1859=DIRECTION('',(0.0,-1.0,0.0));
#1860=AXIS2_PLACEMENT_3D('',#1857,#1858,#1859);
#1861=CIRCLE('',#1860,0.508);
#1862=EDGE_CURVE('',#1472,#1810,#1861,.T.);
#1863=ORIENTED_EDGE('',*,*,#1862,.T.);
#1864=ORIENTED_EDGE('',*,*,#1830,.T.);
#1865=EDGE_LOOP('',(#1847,#1853,#1854,#1855,#1856,#1863,#1864));
#1866=FACE_OUTER_BOUND('',#1865,.T.);
#1867=ADVANCED_FACE('',(#1866),#1839,.F.);
#1868=CARTESIAN_POINT('',(7.924799999999999,-4.076700000000001,10.286999999999999));
#1869=DIRECTION('',(-1.0,1.224647E-016,0.0));
#1870=DIRECTION('',(0.0,-1.0,0.0));
#1871=AXIS2_PLACEMENT_3D('',#1868,#1869,#1870);
#1872=CYLINDRICAL_SURFACE('',#1871,0.508);
#1873=ORIENTED_EDGE('',*,*,#1477,.F.);
#1874=ORIENTED_EDGE('',*,*,#1774,.T.);
#1875=ORIENTED_EDGE('',*,*,#1815,.T.);
#1876=ORIENTED_EDGE('',*,*,#1862,.F.);
#1877=EDGE_LOOP('',(#1873,#1874,#1875,#1876));
#1878=FACE_OUTER_BOUND('',#1877,.T.);
#1879=ADVANCED_FACE('',(#1878),#1872,.T.);
#1880=CARTESIAN_POINT('',(6.53796,-2.365374999999996,7.375805264298597));
#1881=DIRECTION('',(1.060575E-016,0.866025403784429,-0.500000000000017));
#1882=DIRECTION('',(1.0,0.0,0.0));
#1883=AXIS2_PLACEMENT_3D('',#1880,#1881,#1882);
#1884=PLANE('',#1883);
#1885=CARTESIAN_POINT('',(5.9436,-2.425700000000001,7.271319299332));
#1886=DIRECTION('',(-1.0,0.0,0.0));
#1887=VECTOR('',#1886,11.8872);
#1888=LINE('',#1885,#1887);
#1889=EDGE_CURVE('',#1780,#1841,#1888,.T.);
#1890=ORIENTED_EDGE('',*,*,#1889,.F.);
#1891=ORIENTED_EDGE('',*,*,#1785,.T.);
#1892=ORIENTED_EDGE('',*,*,#1750,.T.);
#1893=ORIENTED_EDGE('',*,*,#1852,.F.);
#1894=EDGE_LOOP('',(#1890,#1891,#1892,#1893));
#1895=FACE_OUTER_BOUND('',#1894,.T.);
#1896=ADVANCED_FACE('',(#1895),#1884,.T.);
#1897=CARTESIAN_POINT('',(6.53796,-2.425700000000001,10.971184035033399));
#1898=DIRECTION('',(0.0,1.0,0.0));
#1899=DIRECTION('',(0.0,0.0,-1.0));
#1900=AXIS2_PLACEMENT_3D('',#1897,#1898,#1899);
#1901=PLANE('',#1900);
#1902=ORIENTED_EDGE('',*,*,#1824,.F.);
#1903=ORIENTED_EDGE('',*,*,#1793,.T.);
#1904=ORIENTED_EDGE('',*,*,#1889,.T.);
#1905=ORIENTED_EDGE('',*,*,#1846,.F.);
#1906=EDGE_LOOP('',(#1902,#1903,#1904,#1905));
#1907=FACE_OUTER_BOUND('',#1906,.T.);
#1908=ADVANCED_FACE('',(#1907),#1901,.T.);
#1909=CARTESIAN_POINT('',(-7.9248,3.416300000000001,-0.15875));
#1910=DIRECTION('',(-1.0,0.0,0.0));
#1911=DIRECTION('',(0.0,0.0,-1.0));
#1912=AXIS2_PLACEMENT_3D('',#1909,#1910,#1911);
#1913=PLANE('',#1912);
#1914=ORIENTED_EDGE('',*,*,#1733,.T.);
#1915=ORIENTED_EDGE('',*,*,#1710,.T.);
#1916=ORIENTED_EDGE('',*,*,#1685,.T.);
#1917=ORIENTED_EDGE('',*,*,#1661,.T.);
#1918=ORIENTED_EDGE('',*,*,#1637,.T.);
#1919=ORIENTED_EDGE('',*,*,#1613,.T.);
#1920=ORIENTED_EDGE('',*,*,#1589,.T.);
#1921=ORIENTED_EDGE('',*,*,#1565,.T.);
#1922=ORIENTED_EDGE('',*,*,#1541,.T.);
#1923=ORIENTED_EDGE('',*,*,#1517,.T.);
#1924=ORIENTED_EDGE('',*,*,#1492,.T.);
#1925=ORIENTED_EDGE('',*,*,#1453,.T.);
#1926=EDGE_LOOP('',(#1914,#1915,#1916,#1917,#1918,#1919,#1920,#1921,#1922,#1923,#1924,#1925));
#1927=FACE_OUTER_BOUND('',#1926,.T.);
#1928=ADVANCED_FACE('',(#1927),#1913,.T.);
#1929=CLOSED_SHELL('',(#1386,#1417,#1457,#1504,#1528,#1552,#1576,#1600,#1624,#1648,#1672,#1696,#1721,#1761,#1803,#1834,#1867,#1879,#1896,#1908,#1928));
#1930=MANIFOLD_SOLID_BREP('2BB2',#1929);
#1931=DRAUGHTING_PRE_DEFINED_COLOUR('white');
#1932=SURFACE_STYLE_USAGE(.BOTH.,#1933);
#1933=SURFACE_SIDE_STYLE('NONE',(#1934));
#1934=SURFACE_STYLE_FILL_AREA(#1935);
#1935=FILL_AREA_STYLE('NONE',(#1936));
#1936=FILL_AREA_STYLE_COLOUR('NONE',#1931);
#1937=PRESENTATION_STYLE_ASSIGNMENT((#1932));
#1938=STYLED_ITEM('NONE',(#1937),#1930);
#1939=ADVANCED_BREP_SHAPE_REPRESENTATION('ABSR1',(#214,#374,#525,#676,#827,#978,#1129,#1280,#1930),#28);
#1940=SHAPE_REPRESENTATION_RELATIONSHIP('SRRPL1','',#1939,#62);
ENDSEC;
END-ISO-10303-21;
