ISO-10303-21;
HEADER;
/****************************************************************
 * Generated by software with PDElib inside                    *
 * PDElib Version v51a, created Fri 09/10/2010                  *
 * ITI Transcendata (http://www.transcendata.com/)              *
 ****************************************************************/
FILE_DESCRIPTION((''),'2;1');
FILE_NAME('VERO_20-313145.stp','2013-07-15T12:57:42',(''),(''),'Mechanical Desktop 2011','Mechanical Desktop 2011',', , ');
FILE_SCHEMA(('AUTOMOTIVE_DESIGN { 1 2 10303 214 1 1 1 1 }'));
ENDSEC;
DATA;
#10=(NAMED_UNIT(*)PLANE_ANGLE_UNIT()SI_UNIT($,.RADIAN.));
#11=DIMENSIONAL_EXPONENTS(0.0,0.0,0.0,0.0,0.0,0.0,0.0);
#12=PLANE_ANGLE_MEASURE_WITH_UNIT(PLANE_ANGLE_MEASURE(0.0174532925),#10);
#16=(CONVERSION_BASED_UNIT('DEGREE',#12)NAMED_UNIT(#11)PLANE_ANGLE_UNIT());
#20=(NAMED_UNIT(*)SI_UNIT($,.STERADIAN.)SOLID_ANGLE_UNIT());
#24=(LENGTH_UNIT()NAMED_UNIT(*)SI_UNIT(.MILLI.,.METRE.));
#26=UNCERTAINTY_MEASURE_WITH_UNIT(LENGTH_MEASURE(0.000001),#24,'DISTANCE_ACCURACY_VALUE','');
#28=(GEOMETRIC_REPRESENTATION_CONTEXT(3)GLOBAL_UNCERTAINTY_ASSIGNED_CONTEXT((#26))GLOBAL_UNIT_ASSIGNED_CONTEXT((#16,#20,#24))REPRESENTATION_CONTEXT('','3D'));
#29=APPLICATION_CONTEXT('automotive design');
#30=APPLICATION_PROTOCOL_DEFINITION('INTERNATIONAL_STANDARD','automotive_design',1998,#29);
#31=PRODUCT_CONTEXT('3D Mechanical Parts',#29,'mechanical');
#32=PRODUCT('Product','Product','',(#31));
#33=PRODUCT_RELATED_PRODUCT_CATEGORY('part',$,(#32));
#34=PRODUCT_CATEGORY('part',$);
#35=PERSON('1','Design','Joe',$,$,$);
#36=ORGANIZATION($,'None','None');
#37=PERSON_AND_ORGANIZATION(#35,#36);
#38=PERSON_AND_ORGANIZATION_ROLE('design_owner');
#39=APPLIED_PERSON_AND_ORGANIZATION_ASSIGNMENT(#37,#38,(#32));
#40=PRODUCT_DEFINITION_FORMATION_WITH_SPECIFIED_SOURCE('None','',#32,.BOUGHT.);
#41=PERSON('2','Creator','Joe',$,$,$);
#42=ORGANIZATION($,'None','None');
#43=PERSON_AND_ORGANIZATION(#41,#42);
#44=PERSON_AND_ORGANIZATION_ROLE('creator');
#45=APPLIED_PERSON_AND_ORGANIZATION_ASSIGNMENT(#43,#44,(#40));
#46=PERSON('3','Supplier','Joe',$,$,$);
#47=ORGANIZATION($,'None','None');
#48=PERSON_AND_ORGANIZATION(#46,#47);
#49=PERSON_AND_ORGANIZATION_ROLE('design_supplier');
#50=APPLIED_PERSON_AND_ORGANIZATION_ASSIGNMENT(#48,#49,(#40));
#51=PRODUCT_DEFINITION_CONTEXT('part definition',#29,'design');
#52=PRODUCT_DEFINITION('None','',#40,#51);
#53=PERSON('4','Creator','Joe',$,$,$);
#54=ORGANIZATION($,'None','None');
#55=PERSON_AND_ORGANIZATION(#53,#54);
#56=PERSON_AND_ORGANIZATION_ROLE('creator');
#57=APPLIED_PERSON_AND_ORGANIZATION_ASSIGNMENT(#55,#56,(#52));
#58=CARTESIAN_POINT('NONE',(0.0,0.0,0.0));
#59=DIRECTION('NONE',(0.0,0.0,1.0));
#60=DIRECTION('NONE',(1.0,0.0,0.0));
#61=AXIS2_PLACEMENT_3D('NONE',#58,#59,#60);
#62=SHAPE_REPRESENTATION('SR1',(#61),#28);
#63=PRODUCT_DEFINITION_SHAPE('PDS1','Test Part',#52);
#64=SHAPE_DEFINITION_REPRESENTATION(#63,#62);
#65=CARTESIAN_POINT('',(4.161818E-016,0.25,4.199999999999999));
#66=DIRECTION('',(2.323567E-016,-1.0,5.701782E-017));
#67=DIRECTION('',(0.0,0.0,-1.0));
#68=AXIS2_PLACEMENT_3D('',#65,#66,#67);
#69=TOROIDAL_SURFACE('',#68,1.05,0.05);
#70=CARTESIAN_POINT('',(0.758555442508898,0.3,3.473987850900461));
#71=VERTEX_POINT('',#70);
#72=CARTESIAN_POINT('',(0.722433754770379,0.25,3.508559858000439));
#73=VERTEX_POINT('',#72);
#74=CARTESIAN_POINT('',(0.758555442508898,0.25,3.473987850900461));
#75=DIRECTION('',(0.691440141999557,0.0,0.722433754770382));
#76=DIRECTION('',(0.0,1.0,0.0));
#77=AXIS2_PLACEMENT_3D('',#74,#75,#76);
#78=CIRCLE('',#77,0.05);
#79=EDGE_CURVE('',#71,#73,#78,.T.);
#80=ORIENTED_EDGE('',*,*,#79,.T.);
#81=CARTESIAN_POINT('',(-0.721012859064163,0.25,3.507078318232052));
#82=VERTEX_POINT('',#81);
#83=CARTESIAN_POINT('',(4.161818E-016,0.25,4.199999999999999));
#84=DIRECTION('',(-5.697608E-020,-1.0,5.551112E-017));
#85=DIRECTION('',(-0.001026389873933,5.551115E-017,0.999999473261775));
#86=AXIS2_PLACEMENT_3D('',#83,#84,#85);
#87=CIRCLE('',#86,1.0);
#88=EDGE_CURVE('',#73,#82,#87,.T.);
#89=ORIENTED_EDGE('',*,*,#88,.T.);
#90=CARTESIAN_POINT('',(-0.757063502017371,0.3,3.472432234143655));
#91=VERTEX_POINT('',#90);
#92=CARTESIAN_POINT('',(-0.757063502017371,0.25,3.472432234143655));
#93=DIRECTION('',(-0.692921681767951,-1.538595E-015,0.721012859064161));
#94=DIRECTION('',(0.721012859064161,-5.551115E-016,0.692921681767951));
#95=AXIS2_PLACEMENT_3D('',#92,#93,#94);
#96=CIRCLE('',#95,0.05);
#97=EDGE_CURVE('',#82,#91,#96,.T.);
#98=ORIENTED_EDGE('',*,*,#97,.T.);
#99=CARTESIAN_POINT('',(4.045640E-016,0.3,4.199999999999999));
#100=DIRECTION('',(5.827770E-020,1.0,-5.677927E-017));
#101=DIRECTION('',(-0.001026389873933,5.677930E-017,0.999999473261775));
#102=AXIS2_PLACEMENT_3D('',#99,#100,#101);
#103=CIRCLE('',#102,1.05);
#104=EDGE_CURVE('',#91,#71,#103,.T.);
#105=ORIENTED_EDGE('',*,*,#104,.T.);
#106=EDGE_LOOP('',(#80,#89,#98,#105));
#107=FACE_OUTER_BOUND('',#106,.T.);
#108=ADVANCED_FACE('',(#107),#69,.T.);
#109=CARTESIAN_POINT('',(1.444867509540758,0.25,2.817119716000879));
#110=DIRECTION('',(-2.323567E-016,1.0,-5.701782E-017));
#111=DIRECTION('',(0.0,0.0,1.0));
#112=AXIS2_PLACEMENT_3D('',#109,#110,#111);
#113=TOROIDAL_SURFACE('',#112,0.95,0.05);
#114=CARTESIAN_POINT('',(0.500260686263406,0.3,2.918203589184826));
#115=VERTEX_POINT('',#114);
#116=CARTESIAN_POINT('',(0.45054453766986,0.25,2.923523793036612));
#117=VERTEX_POINT('',#116);
#118=CARTESIAN_POINT('',(0.500260686263406,0.25,2.918203589184826));
#119=DIRECTION('',(0.106404077035735,0.0,0.994322971870897));
#120=DIRECTION('',(0.0,1.0,0.0));
#121=AXIS2_PLACEMENT_3D('',#118,#119,#120);
#122=CIRCLE('',#121,0.05);
#123=EDGE_CURVE('',#115,#117,#122,.T.);
#124=ORIENTED_EDGE('',*,*,#123,.T.);
#125=CARTESIAN_POINT('',(1.444867509540758,0.25,2.817119716000879));
#126=DIRECTION('',(-1.698988E-016,1.0,7.895864E-017));
#127=DIRECTION('',(-0.906851814765846,-1.873501E-016,0.421449624576761));
#128=AXIS2_PLACEMENT_3D('',#125,#126,#127);
#129=CIRCLE('',#128,1.0);
#130=EDGE_CURVE('',#117,#73,#129,.T.);
#131=ORIENTED_EDGE('',*,*,#130,.T.);
#132=ORIENTED_EDGE('',*,*,#79,.F.);
#133=CARTESIAN_POINT('',(1.444867509540758,0.3,2.817119716000879));
#134=DIRECTION('',(1.692938E-016,-1.0,-7.867745E-017));
#135=DIRECTION('',(-0.906851814765846,-1.866829E-016,0.421449624576761));
#136=AXIS2_PLACEMENT_3D('',#133,#134,#135);
#137=CIRCLE('',#136,0.95);
#138=EDGE_CURVE('',#71,#115,#137,.T.);
#139=ORIENTED_EDGE('',*,*,#138,.T.);
#140=EDGE_LOOP('',(#124,#131,#132,#139));
#141=FACE_OUTER_BOUND('',#140,.T.);
#142=ADVANCED_FACE('',(#141),#113,.T.);
#143=CARTESIAN_POINT('',(-1.442025718128327,0.25,2.814156636464105));
#144=DIRECTION('',(-2.323567E-016,1.0,-5.701782E-017));
#145=DIRECTION('',(0.0,0.0,1.0));
#146=AXIS2_PLACEMENT_3D('',#143,#144,#145);
#147=TOROIDAL_SURFACE('',#146,0.95,0.05);
#148=CARTESIAN_POINT('',(-0.447612147414211,0.25,2.919710652870878));
#149=VERTEX_POINT('',#148);
#150=CARTESIAN_POINT('',(-0.497332825949917,0.3,2.914432952050539));
#151=VERTEX_POINT('',#150);
#152=CARTESIAN_POINT('',(-0.497332825949917,0.25,2.914432952050539));
#153=DIRECTION('',(-0.105554016406772,0.0,0.994413570714116));
#154=DIRECTION('',(0.994413570714116,0.0,0.105554016406772));
#155=AXIS2_PLACEMENT_3D('',#152,#153,#154);
#156=CIRCLE('',#155,0.05);
#157=EDGE_CURVE('',#149,#151,#156,.T.);
#158=ORIENTED_EDGE('',*,*,#157,.T.);
#159=CARTESIAN_POINT('',(-1.442025718128327,0.3,2.814156636464105));
#160=DIRECTION('',(2.127929E-016,-1.0,9.904822E-017));
#161=DIRECTION('',(0.906599223788231,2.347155E-016,0.421992710158098));
#162=AXIS2_PLACEMENT_3D('',#159,#160,#161);
#163=CIRCLE('',#162,0.95);
#164=EDGE_CURVE('',#151,#91,#163,.T.);
#165=ORIENTED_EDGE('',*,*,#164,.T.);
#166=ORIENTED_EDGE('',*,*,#97,.F.);
#167=CARTESIAN_POINT('',(-1.442025718128327,0.25,2.814156636464105));
#168=DIRECTION('',(-2.075963E-016,1.0,-9.662937E-017));
#169=DIRECTION('',(0.906599223788231,2.289835E-016,0.421992710158098));
#170=AXIS2_PLACEMENT_3D('',#167,#168,#169);
#171=CIRCLE('',#170,1.0);
#172=EDGE_CURVE('',#82,#149,#171,.T.);
#173=ORIENTED_EDGE('',*,*,#172,.T.);
#174=EDGE_LOOP('',(#158,#165,#166,#173));
#175=FACE_OUTER_BOUND('',#174,.T.);
#176=ADVANCED_FACE('',(#175),#147,.T.);
#177=CARTESIAN_POINT('',(0.262583520538454,0.25,0.697162137078438));
#178=DIRECTION('',(0.106404077035734,8.141783E-017,0.994322971870898));
#179=DIRECTION('',(-0.703092516099473,0.707106781186547,0.075239044417861));
#180=AXIS2_PLACEMENT_3D('',#177,#178,#179);
#181=CYLINDRICAL_SURFACE('',#180,0.05);
#182=CARTESIAN_POINT('',(0.200778903960576,0.3,0.119611429031615));
#183=VERTEX_POINT('',#182);
#184=CARTESIAN_POINT('',(0.151062755367031,0.25,0.124931632883402));
#185=VERTEX_POINT('',#184);
#186=CARTESIAN_POINT('',(0.200778903960576,0.25,0.119611429031615));
#187=DIRECTION('',(0.106404077035733,0.0,0.994322971870898));
#188=DIRECTION('',(0.0,1.0,0.0));
#189=AXIS2_PLACEMENT_3D('',#186,#187,#188);
#190=CIRCLE('',#189,0.05);
#191=EDGE_CURVE('',#183,#185,#190,.T.);
#192=ORIENTED_EDGE('',*,*,#191,.T.);
#193=CARTESIAN_POINT('',(0.151062755367031,0.25,0.124931632883402));
#194=DIRECTION('',(0.106404077035734,8.875250E-017,0.994322971870898));
#195=VECTOR('',#194,2.814570556373084);
#196=LINE('',#193,#195);
#197=EDGE_CURVE('',#185,#117,#196,.T.);
#198=ORIENTED_EDGE('',*,*,#197,.T.);
#199=ORIENTED_EDGE('',*,*,#123,.F.);
#200=CARTESIAN_POINT('',(0.500260686263405,0.3,2.918203589184826));
#201=DIRECTION('',(-0.106404077035734,-7.889111E-017,-0.994322971870898));
#202=VECTOR('',#201,2.814570556373084);
#203=LINE('',#200,#202);
#204=EDGE_CURVE('',#115,#183,#203,.T.);
#205=ORIENTED_EDGE('',*,*,#204,.T.);
#206=EDGE_LOOP('',(#192,#198,#199,#205));
#207=FACE_OUTER_BOUND('',#206,.T.);
#208=ADVANCED_FACE('',(#207),#181,.T.);
#209=CARTESIAN_POINT('',(-0.410325378083096,0.25,2.094744702779756));
#210=DIRECTION('',(0.105554016406774,-3.217311E-017,-0.994413570714116));
#211=DIRECTION('',(0.70315657915588,0.707106781186547,0.074637960782711));
#212=AXIS2_PLACEMENT_3D('',#209,#210,#211);
#213=CYLINDRICAL_SURFACE('',#212,0.05);
#214=CARTESIAN_POINT('',(-0.150911222794626,0.25,0.124521649847699));
#215=VERTEX_POINT('',#214);
#216=CARTESIAN_POINT('',(-0.200631901330331,0.3,0.11924394902736));
#217=VERTEX_POINT('',#216);
#218=CARTESIAN_POINT('',(-0.200631901330331,0.25,0.11924394902736));
#219=DIRECTION('',(-0.105554016406777,0.0,0.994413570714116));
#220=DIRECTION('',(0.994413570714116,0.0,0.105554016406777));
#221=AXIS2_PLACEMENT_3D('',#218,#219,#220);
#222=CIRCLE('',#221,0.05);
#223=EDGE_CURVE('',#215,#217,#222,.T.);
#224=ORIENTED_EDGE('',*,*,#223,.T.);
#225=CARTESIAN_POINT('',(-0.200631901330331,0.3,0.11924394902736));
#226=DIRECTION('',(-0.105554016406773,1.974859E-017,0.994413570714116));
#227=VECTOR('',#226,2.810891851582311);
#228=LINE('',#225,#227);
#229=EDGE_CURVE('',#217,#151,#228,.T.);
#230=ORIENTED_EDGE('',*,*,#229,.T.);
#231=ORIENTED_EDGE('',*,*,#157,.F.);
#232=CARTESIAN_POINT('',(-0.447612147414211,0.25,2.919710652870878));
#233=DIRECTION('',(0.105554016406774,-2.962289E-017,-0.994413570714116));
#234=VECTOR('',#233,2.810891851582311);
#235=LINE('',#232,#234);
#236=EDGE_CURVE('',#149,#215,#235,.T.);
#237=ORIENTED_EDGE('',*,*,#236,.T.);
#238=EDGE_LOOP('',(#224,#230,#231,#237));
#239=FACE_OUTER_BOUND('',#238,.T.);
#240=ADVANCED_FACE('',(#239),#213,.T.);
#241=CARTESIAN_POINT('',(1.145385727237928,0.25,0.018527555847664));
#242=DIRECTION('',(-2.323567E-016,1.0,-5.701782E-017));
#243=DIRECTION('',(0.0,0.0,1.0));
#244=AXIS2_PLACEMENT_3D('',#241,#242,#243);
#245=TOROIDAL_SURFACE('',#244,0.949999999999999,0.05);
#246=CARTESIAN_POINT('',(0.204360713651155,0.3,-0.111748780468693));
#247=VERTEX_POINT('',#246);
#248=CARTESIAN_POINT('',(0.154833081357114,0.25,-0.118605429748501));
#249=VERTEX_POINT('',#248);
#250=CARTESIAN_POINT('',(0.204360713651155,0.25,-0.111748780468693));
#251=DIRECTION('',(-0.137132985596166,0.0,0.990552645880814));
#252=DIRECTION('',(0.0,1.0,0.0));
#253=AXIS2_PLACEMENT_3D('',#250,#251,#252);
#254=CIRCLE('',#253,0.05);
#255=EDGE_CURVE('',#247,#249,#254,.T.);
#256=ORIENTED_EDGE('',*,*,#255,.T.);
#257=CARTESIAN_POINT('',(1.145385727237928,0.25,0.018527555847664));
#258=DIRECTION('',(-2.289561E-016,1.0,-3.544590E-018));
#259=DIRECTION('',(-0.999880182674481,-2.289835E-016,-0.015479673602717));
#260=AXIS2_PLACEMENT_3D('',#257,#258,#259);
#261=CIRCLE('',#260,0.999999999999999);
#262=EDGE_CURVE('',#249,#185,#261,.T.);
#263=ORIENTED_EDGE('',*,*,#262,.T.);
#264=ORIENTED_EDGE('',*,*,#191,.F.);
#265=CARTESIAN_POINT('',(1.145385727237928,0.3,0.018527555847664));
#266=DIRECTION('',(2.331835E-016,-1.0,3.610037E-018));
#267=DIRECTION('',(-0.999880182674481,-2.332114E-016,-0.015479673602717));
#268=AXIS2_PLACEMENT_3D('',#265,#266,#267);
#269=CIRCLE('',#268,0.949999999999999);
#270=EDGE_CURVE('',#183,#247,#269,.T.);
#271=ORIENTED_EDGE('',*,*,#270,.T.);
#272=EDGE_LOOP('',(#256,#263,#264,#271));
#273=FACE_OUTER_BOUND('',#272,.T.);
#274=ADVANCED_FACE('',(#273),#245,.T.);
#275=CARTESIAN_POINT('',(-1.145324793508745,0.25,0.018967633440926));
#276=DIRECTION('',(-2.323567E-016,1.0,-5.701782E-017));
#277=DIRECTION('',(0.0,0.0,1.0));
#278=AXIS2_PLACEMENT_3D('',#275,#276,#277);
#279=TOROIDAL_SURFACE('',#278,0.950000000000002,0.05);
#280=CARTESIAN_POINT('',(-0.154777650342828,0.25,-0.118205094044701));
#281=VERTEX_POINT('',#280);
#282=CARTESIAN_POINT('',(-0.204305007501124,0.3,-0.111346457670419));
#283=VERTEX_POINT('',#282);
#284=CARTESIAN_POINT('',(-0.204305007501124,0.25,-0.111346457670419));
#285=DIRECTION('',(0.137172727485626,0.0,0.990547143165914));
#286=DIRECTION('',(0.990547143165914,0.0,-0.137172727485626));
#287=AXIS2_PLACEMENT_3D('',#284,#285,#286);
#288=CIRCLE('',#287,0.05);
#289=EDGE_CURVE('',#281,#283,#288,.T.);
#290=ORIENTED_EDGE('',*,*,#289,.T.);
#291=CARTESIAN_POINT('',(-1.145324793508745,0.3,0.018967633440926));
#292=DIRECTION('',(2.313897E-016,-1.0,-3.685838E-018));
#293=DIRECTION('',(0.999873155436194,2.314191E-016,-0.015927116439217));
#294=AXIS2_PLACEMENT_3D('',#291,#292,#293);
#295=CIRCLE('',#294,0.950000000000002);
#296=EDGE_CURVE('',#283,#217,#295,.T.);
#297=ORIENTED_EDGE('',*,*,#296,.T.);
#298=ORIENTED_EDGE('',*,*,#223,.F.);
#299=CARTESIAN_POINT('',(-1.145324793508745,0.25,0.018967633440926));
#300=DIRECTION('',(-2.289545E-016,1.0,3.647047E-018));
#301=DIRECTION('',(0.999873155436194,2.289835E-016,-0.015927116439217));
#302=AXIS2_PLACEMENT_3D('',#299,#300,#301);
#303=CIRCLE('',#302,1.000000000000002);
#304=EDGE_CURVE('',#215,#281,#303,.T.);
#305=ORIENTED_EDGE('',*,*,#304,.T.);
#306=EDGE_LOOP('',(#290,#297,#298,#305));
#307=FACE_OUTER_BOUND('',#306,.T.);
#308=ADVANCED_FACE('',(#307),#279,.T.);
#309=CARTESIAN_POINT('',(-9.823393824585942,0.249999999999997,-1.499999999999995));
#310=DIRECTION('',(2.323567E-016,-1.0,5.701782E-017));
#311=DIRECTION('',(0.0,0.0,-1.0));
#312=AXIS2_PLACEMENT_3D('',#309,#310,#311);
#313=TOROIDAL_SURFACE('',#312,10.123393824585943,0.05);
#314=CARTESIAN_POINT('',(0.079792658948779,0.3,-3.599999999999995));
#315=VERTEX_POINT('',#314);
#316=CARTESIAN_POINT('',(0.030403395786532,0.249999999999999,-3.591875590226595));
#317=VERTEX_POINT('',#316);
#318=CARTESIAN_POINT('',(0.030403395786532,0.249999999999999,-3.591875590226595));
#319=CARTESIAN_POINT('',(0.030403395786532,0.256168584548423,-3.591875590226595));
#320=CARTESIAN_POINT('',(0.031829444375622,0.263428434674931,-3.592110171638682));
#321=CARTESIAN_POINT('',(0.036491806621401,0.274828554704385,-3.592877118520888));
#322=CARTESIAN_POINT('',(0.040554225378703,0.280985168562741,-3.593545376205702));
#323=CARTESIAN_POINT('',(0.049172517783835,0.289713646299236,-3.594963063665753));
#324=CARTESIAN_POINT('',(0.05525446442149,0.293828802219983,-3.595963528615837));
#325=CARTESIAN_POINT('',(0.066518887091135,0.298554460669046,-3.597816497859948));
#326=CARTESIAN_POINT('',(0.073695318145773,0.299999999999999,-3.598997002748367));
#327=CARTESIAN_POINT('',(0.079792658948779,0.299999999999999,-3.599999999999995));
#328=B_SPLINE_CURVE_WITH_KNOTS('',3,(#318,#319,#320,#321,#322,#323,#324,#325,#326,#327),.UNSPECIFIED.,.F.,.U.,(4,2,2,2,4),(0.148174410745865,0.166680164391134,0.185195986796224,0.203723924024856,0.222261780297712),.UNSPECIFIED.);
#329=EDGE_CURVE('',#315,#317,#328,.F.);
#330=ORIENTED_EDGE('',*,*,#329,.T.);
#331=CARTESIAN_POINT('',(-9.823393824585942,0.249999999999997,-1.499999999999995));
#332=DIRECTION('',(2.314294E-016,-1.0,-2.947518E-018));
#333=DIRECTION('',(0.999918905160292,2.314481E-016,-0.012735112996879));
#334=AXIS2_PLACEMENT_3D('',#331,#332,#333);
#335=CIRCLE('',#334,10.07339382458594);
#336=EDGE_CURVE('',#317,#249,#335,.T.);
#337=ORIENTED_EDGE('',*,*,#336,.T.);
#338=ORIENTED_EDGE('',*,*,#255,.F.);
#339=CARTESIAN_POINT('',(-9.823393824585942,0.299999999999997,-1.499999999999995));
#340=DIRECTION('',(-2.315929E-016,1.0,2.949601E-018));
#341=DIRECTION('',(0.999918905160292,2.316117E-016,-0.012735112996879));
#342=AXIS2_PLACEMENT_3D('',#339,#340,#341);
#343=CIRCLE('',#342,10.123393824585941);
#344=EDGE_CURVE('',#247,#315,#343,.T.);
#345=ORIENTED_EDGE('',*,*,#344,.T.);
#346=EDGE_LOOP('',(#330,#337,#338,#345));
#347=FACE_OUTER_BOUND('',#346,.T.);
#348=ADVANCED_FACE('',(#347),#313,.T.);
#349=CARTESIAN_POINT('',(9.823393824585867,0.250000000000003,-1.500000000000007));
#350=DIRECTION('',(2.323567E-016,-1.0,5.701782E-017));
#351=DIRECTION('',(0.0,0.0,-1.0));
#352=AXIS2_PLACEMENT_3D('',#349,#350,#351);
#353=TOROIDAL_SURFACE('',#352,10.12339382458587,0.05);
#354=CARTESIAN_POINT('',(-0.030403395786536,0.25,-3.591875590226596));
#355=VERTEX_POINT('',#354);
#356=CARTESIAN_POINT('',(-0.079792658948781,0.3,-3.599999999999997));
#357=VERTEX_POINT('',#356);
#358=CARTESIAN_POINT('',(-0.079792658948781,0.3,-3.599999999999997));
#359=CARTESIAN_POINT('',(-0.073695318145775,0.3,-3.598997002748368));
#360=CARTESIAN_POINT('',(-0.066518887091138,0.298554460669047,-3.597816497859949));
#361=CARTESIAN_POINT('',(-0.055254464421494,0.293828802219985,-3.595963528615838));
#362=CARTESIAN_POINT('',(-0.04917251778384,0.289713646299237,-3.594963063665755));
#363=CARTESIAN_POINT('',(-0.040554225378708,0.280985168562742,-3.593545376205704));
#364=CARTESIAN_POINT('',(-0.036491806621405,0.274828554704386,-3.592877118520889));
#365=CARTESIAN_POINT('',(-0.031829444375625,0.263428434674932,-3.592110171638683));
#366=CARTESIAN_POINT('',(-0.030403395786536,0.256168584548423,-3.591875590226596));
#367=CARTESIAN_POINT('',(-0.030403395786536,0.25,-3.591875590226596));
#368=B_SPLINE_CURVE_WITH_KNOTS('',3,(#358,#359,#360,#361,#362,#363,#364,#365,#366,#367),.UNSPECIFIED.,.F.,.U.,(4,2,2,2,4),(0.074087041320429,0.092624897593283,0.111152834821913,0.129668657227005,0.148174410872274),.UNSPECIFIED.);
#369=EDGE_CURVE('',#355,#357,#368,.F.);
#370=ORIENTED_EDGE('',*,*,#369,.T.);
#371=CARTESIAN_POINT('',(9.823393824585867,0.300000000000002,-1.500000000000007));
#372=DIRECTION('',(-2.330440E-016,1.0,-2.963407E-018));
#373=DIRECTION('',(-0.999919160432069,-2.330629E-016,-0.012715054102379));
#374=AXIS2_PLACEMENT_3D('',#371,#372,#373);
#375=CIRCLE('',#374,10.123393824585868);
#376=EDGE_CURVE('',#357,#283,#375,.T.);
#377=ORIENTED_EDGE('',*,*,#376,.T.);
#378=ORIENTED_EDGE('',*,*,#289,.F.);
#379=CARTESIAN_POINT('',(9.823393824585867,0.250000000000003,-1.500000000000007));
#380=DIRECTION('',(2.328070E-016,-1.0,2.960393E-018));
#381=DIRECTION('',(-0.999919160432069,-2.328258E-016,-0.012715054102379));
#382=AXIS2_PLACEMENT_3D('',#379,#380,#381);
#383=CIRCLE('',#382,10.073393824585867);
#384=EDGE_CURVE('',#281,#355,#383,.T.);
#385=ORIENTED_EDGE('',*,*,#384,.T.);
#386=EDGE_LOOP('',(#370,#377,#378,#385));
#387=FACE_OUTER_BOUND('',#386,.T.);
#388=ADVANCED_FACE('',(#387),#353,.T.);
#389=CARTESIAN_POINT('',(-0.030455717989204,0.3,-3.591884197097553));
#390=DIRECTION('',(0.162316058048866,4.505176E-017,-0.986738819191521));
#391=DIRECTION('',(-0.986738819191521,0.0,-0.162316058048866));
#392=AXIS2_PLACEMENT_3D('',#389,#390,#391);
#393=PLANE('',#392);
#394=ORIENTED_EDGE('',*,*,#369,.F.);
#395=CARTESIAN_POINT('',(-0.030403395786536,-0.25,-3.591875590226596));
#396=VERTEX_POINT('',#395);
#397=CARTESIAN_POINT('',(-0.030403395786536,0.25,-3.591875590226596));
#398=DIRECTION('',(0.0,-1.0,0.0));
#399=VECTOR('',#398,0.5);
#400=LINE('',#397,#399);
#401=EDGE_CURVE('',#355,#396,#400,.T.);
#402=ORIENTED_EDGE('',*,*,#401,.T.);
#403=CARTESIAN_POINT('',(-0.079792658948781,-0.3,-3.599999999999997));
#404=VERTEX_POINT('',#403);
#405=CARTESIAN_POINT('',(-0.030403395786536,-0.25,-3.591875590226596));
#406=CARTESIAN_POINT('',(-0.030403395786536,-0.256168584548423,-3.591875590226596));
#407=CARTESIAN_POINT('',(-0.031829444375625,-0.263428434674931,-3.592110171638683));
#408=CARTESIAN_POINT('',(-0.036491806621405,-0.274828554704385,-3.592877118520889));
#409=CARTESIAN_POINT('',(-0.040554225378708,-0.280985168562741,-3.593545376205704));
#410=CARTESIAN_POINT('',(-0.04917251778384,-0.289713646299236,-3.594963063665755));
#411=CARTESIAN_POINT('',(-0.055254464421494,-0.293828802219984,-3.595963528615838));
#412=CARTESIAN_POINT('',(-0.066518887091138,-0.298554460669046,-3.597816497859949));
#413=CARTESIAN_POINT('',(-0.073695318145775,-0.3,-3.598997002748368));
#414=CARTESIAN_POINT('',(-0.079792658948781,-0.3,-3.599999999999997));
#415=B_SPLINE_CURVE_WITH_KNOTS('',3,(#405,#406,#407,#408,#409,#410,#411,#412,#413,#414),.UNSPECIFIED.,.F.,.U.,(4,2,2,2,4),(0.148174410872274,0.166680164517543,0.185195986922635,0.203723924151265,0.222261780424119),.UNSPECIFIED.);
#416=EDGE_CURVE('',#404,#396,#415,.F.);
#417=ORIENTED_EDGE('',*,*,#416,.F.);
#418=CARTESIAN_POINT('',(-0.178569647502856,-0.3,-3.616248566587426));
#419=VERTEX_POINT('',#418);
#420=CARTESIAN_POINT('',(-0.079792658948783,-0.3,-3.599999999999997));
#421=DIRECTION('',(-0.986738819191521,-5.545321E-016,-0.162316058048866));
#422=VECTOR('',#421,0.100104492326558);
#423=LINE('',#420,#422);
#424=EDGE_CURVE('',#404,#419,#423,.T.);
#425=ORIENTED_EDGE('',*,*,#424,.T.);
#426=CARTESIAN_POINT('',(-0.227957387894159,-0.25,-3.624372725868831));
#427=VERTEX_POINT('',#426);
#428=CARTESIAN_POINT('',(-0.178569647502856,-0.3,-3.616248566587426));
#429=CARTESIAN_POINT('',(-0.184666793024613,-0.3,-3.61725153171578));
#430=CARTESIAN_POINT('',(-0.191842990865098,-0.298554489769513,-3.618431998241057));
#431=CARTESIAN_POINT('',(-0.203107045098928,-0.293828898756462,-3.620284906878402));
#432=CARTESIAN_POINT('',(-0.209188775599065,-0.289713788378947,-3.621285336274406));
#433=CARTESIAN_POINT('',(-0.217806806646551,-0.280985374718024,-3.622702980741781));
#434=CARTESIAN_POINT('',(-0.221869101008531,-0.274828762828508,-3.623371217963877));
#435=CARTESIAN_POINT('',(-0.226531368412167,-0.263428593292173,-3.624138149244788));
#436=CARTESIAN_POINT('',(-0.227957387894161,-0.256168653242831,-3.624372725868832));
#437=CARTESIAN_POINT('',(-0.227957387894161,-0.25,-3.624372725868832));
#438=B_SPLINE_CURVE_WITH_KNOTS('',3,(#428,#429,#430,#431,#432,#433,#434,#435,#436,#437),.UNSPECIFIED.,.F.,.U.,(4,2,2,2,4),(0.222259489538741,0.240796752094456,0.259324170673385,0.277839813793883,0.296345773522376),.UNSPECIFIED.);
#439=EDGE_CURVE('',#427,#419,#438,.F.);
#440=ORIENTED_EDGE('',*,*,#439,.F.);
#441=CARTESIAN_POINT('',(-0.227957387894159,0.25,-3.624372725868831));
#442=VERTEX_POINT('',#441);
#443=CARTESIAN_POINT('',(-0.227957387894159,-0.25,-3.624372725868831));
#444=DIRECTION('',(0.0,1.0,0.0));
#445=VECTOR('',#444,0.5);
#446=LINE('',#443,#445);
#447=EDGE_CURVE('',#442,#427,#446,.F.);
#448=ORIENTED_EDGE('',*,*,#447,.F.);
#449=CARTESIAN_POINT('',(-0.178569647502856,0.3,-3.616248566587426));
#450=VERTEX_POINT('',#449);
#451=CARTESIAN_POINT('',(-0.227957387894159,0.25,-3.624372725868831));
#452=CARTESIAN_POINT('',(-0.227957387894159,0.256168653242831,-3.624372725868831));
#453=CARTESIAN_POINT('',(-0.226531368412167,0.263428593292174,-3.624138149244788));
#454=CARTESIAN_POINT('',(-0.221869101008531,0.274828762828508,-3.623371217963877));
#455=CARTESIAN_POINT('',(-0.217806806646551,0.280985374718024,-3.622702980741781));
#456=CARTESIAN_POINT('',(-0.209188775599065,0.289713788378947,-3.621285336274406));
#457=CARTESIAN_POINT('',(-0.203107045098928,0.293828898756462,-3.620284906878402));
#458=CARTESIAN_POINT('',(-0.191842990865098,0.298554489769513,-3.618431998241057));
#459=CARTESIAN_POINT('',(-0.184666793024613,0.3,-3.61725153171578));
#460=CARTESIAN_POINT('',(-0.178569647502856,0.3,-3.616248566587426));
#461=B_SPLINE_CURVE_WITH_KNOTS('',3,(#451,#452,#453,#454,#455,#456,#457,#458,#459,#460),.UNSPECIFIED.,.F.,.U.,(4,2,2,2,4),(0.0,0.018505959728494,0.037021602848991,0.05554902142792,0.074086283983635),.UNSPECIFIED.);
#462=EDGE_CURVE('',#450,#442,#461,.F.);
#463=ORIENTED_EDGE('',*,*,#462,.F.);
#464=CARTESIAN_POINT('',(-0.079792658948783,0.3,-3.599999999999997));
#465=DIRECTION('',(-0.986738819191521,-5.545321E-016,-0.162316058048866));
#466=VECTOR('',#465,0.100104492326558);
#467=LINE('',#464,#466);
#468=EDGE_CURVE('',#357,#450,#467,.T.);
#469=ORIENTED_EDGE('',*,*,#468,.F.);
#470=EDGE_LOOP('',(#394,#402,#417,#425,#440,#448,#463,#469));
#471=FACE_OUTER_BOUND('',#470,.T.);
#472=ADVANCED_FACE('',(#471),#393,.T.);
#473=CARTESIAN_POINT('',(9.823393824585867,0.300000000000002,-1.500000000000007));
#474=DIRECTION('',(2.775558E-016,-1.0,0.0));
#475=DIRECTION('',(-0.999919160432069,-2.775333E-016,-0.012715054102379));
#476=AXIS2_PLACEMENT_3D('',#473,#474,#475);
#477=CYLINDRICAL_SURFACE('',#476,10.073393824585869);
#478=ORIENTED_EDGE('',*,*,#384,.F.);
#479=CARTESIAN_POINT('',(-0.154777650342828,-0.25,-0.118205094044701));
#480=VERTEX_POINT('',#479);
#481=CARTESIAN_POINT('',(-0.154777650342828,0.25,-0.118205094044701));
#482=DIRECTION('',(0.0,-1.0,0.0));
#483=VECTOR('',#482,0.5);
#484=LINE('',#481,#483);
#485=EDGE_CURVE('',#281,#480,#484,.T.);
#486=ORIENTED_EDGE('',*,*,#485,.T.);
#487=CARTESIAN_POINT('',(9.823393824585867,-0.249999999999997,-1.500000000000007));
#488=DIRECTION('',(-2.328070E-016,1.0,-2.960393E-018));
#489=DIRECTION('',(-0.999919160432069,-2.328258E-016,-0.012715054102379));
#490=AXIS2_PLACEMENT_3D('',#487,#488,#489);
#491=CIRCLE('',#490,10.073393824585867);
#492=EDGE_CURVE('',#396,#480,#491,.T.);
#493=ORIENTED_EDGE('',*,*,#492,.F.);
#494=ORIENTED_EDGE('',*,*,#401,.F.);
#495=EDGE_LOOP('',(#478,#486,#493,#494));
#496=FACE_OUTER_BOUND('',#495,.T.);
#497=ADVANCED_FACE('',(#496),#477,.F.);
#498=CARTESIAN_POINT('',(-1.145324793508745,0.3,0.018967633440926));
#499=DIRECTION('',(2.775558E-016,-1.0,0.0));
#500=DIRECTION('',(0.999873155436194,2.775205E-016,-0.015927116439217));
#501=AXIS2_PLACEMENT_3D('',#498,#499,#500);
#502=CYLINDRICAL_SURFACE('',#501,1.000000000000002);
#503=ORIENTED_EDGE('',*,*,#304,.F.);
#504=CARTESIAN_POINT('',(-0.150911222794625,-0.25,0.124521649847699));
#505=VERTEX_POINT('',#504);
#506=CARTESIAN_POINT('',(-0.150911222794626,0.25,0.124521649847699));
#507=DIRECTION('',(0.0,-1.0,0.0));
#508=VECTOR('',#507,0.5);
#509=LINE('',#506,#508);
#510=EDGE_CURVE('',#215,#505,#509,.T.);
#511=ORIENTED_EDGE('',*,*,#510,.T.);
#512=CARTESIAN_POINT('',(-1.145324793508744,-0.25,0.018967633440926));
#513=DIRECTION('',(2.289545E-016,-1.0,-3.647047E-018));
#514=DIRECTION('',(0.999873155436194,2.289835E-016,-0.015927116439217));
#515=AXIS2_PLACEMENT_3D('',#512,#513,#514);
#516=CIRCLE('',#515,1.000000000000002);
#517=EDGE_CURVE('',#480,#505,#516,.T.);
#518=ORIENTED_EDGE('',*,*,#517,.F.);
#519=ORIENTED_EDGE('',*,*,#485,.F.);
#520=EDGE_LOOP('',(#503,#511,#518,#519));
#521=FACE_OUTER_BOUND('',#520,.T.);
#522=ADVANCED_FACE('',(#521),#502,.T.);
#523=CARTESIAN_POINT('',(-0.447612147414211,0.3,2.919710652870878));
#524=DIRECTION('',(0.994413570714116,2.760052E-016,0.105554016406774));
#525=DIRECTION('',(0.105554016406774,0.0,-0.994413570714116));
#526=AXIS2_PLACEMENT_3D('',#523,#524,#525);
#527=PLANE('',#526);
#528=ORIENTED_EDGE('',*,*,#236,.F.);
#529=CARTESIAN_POINT('',(-0.447612147414211,-0.25,2.919710652870878));
#530=VERTEX_POINT('',#529);
#531=CARTESIAN_POINT('',(-0.447612147414211,0.25,2.919710652870878));
#532=DIRECTION('',(0.0,-1.0,0.0));
#533=VECTOR('',#532,0.5);
#534=LINE('',#531,#533);
#535=EDGE_CURVE('',#149,#530,#534,.T.);
#536=ORIENTED_EDGE('',*,*,#535,.T.);
#537=CARTESIAN_POINT('',(-0.150911222794625,-0.25,0.124521649847698));
#538=DIRECTION('',(-0.105554016406774,1.974859E-017,0.994413570714116));
#539=VECTOR('',#538,2.810891851582311);
#540=LINE('',#537,#539);
#541=EDGE_CURVE('',#505,#530,#540,.T.);
#542=ORIENTED_EDGE('',*,*,#541,.F.);
#543=ORIENTED_EDGE('',*,*,#510,.F.);
#544=EDGE_LOOP('',(#528,#536,#542,#543));
#545=FACE_OUTER_BOUND('',#544,.T.);
#546=ADVANCED_FACE('',(#545),#527,.T.);
#547=CARTESIAN_POINT('',(-1.442025718128327,0.3,2.814156636464105));
#548=DIRECTION('',(2.775558E-016,-1.0,0.0));
#549=DIRECTION('',(0.906599223788231,2.516318E-016,0.421992710158098));
#550=AXIS2_PLACEMENT_3D('',#547,#548,#549);
#551=CYLINDRICAL_SURFACE('',#550,1.0);
#552=ORIENTED_EDGE('',*,*,#172,.F.);
#553=CARTESIAN_POINT('',(-0.721012859064163,-0.25,3.507078318232052));
#554=VERTEX_POINT('',#553);
#555=CARTESIAN_POINT('',(-0.721012859064163,0.25,3.507078318232052));
#556=DIRECTION('',(0.0,-1.0,0.0));
#557=VECTOR('',#556,0.5);
#558=LINE('',#555,#557);
#559=EDGE_CURVE('',#82,#554,#558,.T.);
#560=ORIENTED_EDGE('',*,*,#559,.T.);
#561=CARTESIAN_POINT('',(-1.442025718128327,-0.250000000000001,2.814156636464105));
#562=DIRECTION('',(2.075963E-016,-1.0,9.662937E-017));
#563=DIRECTION('',(0.906599223788231,2.289835E-016,0.421992710158098));
#564=AXIS2_PLACEMENT_3D('',#561,#562,#563);
#565=CIRCLE('',#564,1.0);
#566=EDGE_CURVE('',#530,#554,#565,.T.);
#567=ORIENTED_EDGE('',*,*,#566,.F.);
#568=ORIENTED_EDGE('',*,*,#535,.F.);
#569=EDGE_LOOP('',(#552,#560,#567,#568));
#570=FACE_OUTER_BOUND('',#569,.T.);
#571=ADVANCED_FACE('',(#570),#551,.T.);
#572=CARTESIAN_POINT('',(4.023041E-016,0.3,4.199999999999999));
#573=DIRECTION('',(2.775558E-016,-1.0,0.0));
#574=DIRECTION('',(-0.001026389873933,-2.848804E-019,0.999999473261775));
#575=AXIS2_PLACEMENT_3D('',#572,#573,#574);
#576=CYLINDRICAL_SURFACE('',#575,1.0);
#577=ORIENTED_EDGE('',*,*,#88,.F.);
#578=CARTESIAN_POINT('',(0.722433754770379,-0.25,3.508559858000439));
#579=VERTEX_POINT('',#578);
#580=CARTESIAN_POINT('',(0.722433754770379,0.25,3.508559858000439));
#581=DIRECTION('',(0.0,-1.0,0.0));
#582=VECTOR('',#581,0.5);
#583=LINE('',#580,#582);
#584=EDGE_CURVE('',#73,#579,#583,.T.);
#585=ORIENTED_EDGE('',*,*,#584,.T.);
#586=CARTESIAN_POINT('',(5.549597E-016,-0.25,4.199999999999999));
#587=DIRECTION('',(5.697608E-020,1.0,-5.551112E-017));
#588=DIRECTION('',(-0.001026389873933,5.551115E-017,0.999999473261775));
#589=AXIS2_PLACEMENT_3D('',#586,#587,#588);
#590=CIRCLE('',#589,1.0);
#591=EDGE_CURVE('',#554,#579,#590,.T.);
#592=ORIENTED_EDGE('',*,*,#591,.F.);
#593=ORIENTED_EDGE('',*,*,#559,.F.);
#594=EDGE_LOOP('',(#577,#585,#592,#593));
#595=FACE_OUTER_BOUND('',#594,.T.);
#596=ADVANCED_FACE('',(#595),#576,.F.);
#597=CARTESIAN_POINT('',(6.215297E-016,0.25,4.199999999999999));
#598=DIRECTION('',(-2.323567E-016,1.0,-5.701782E-017));
#599=DIRECTION('',(0.0,0.0,1.0));
#600=AXIS2_PLACEMENT_3D('',#597,#598,#599);
#601=TOROIDAL_SURFACE('',#600,1.15,0.05);
#602=CARTESIAN_POINT('',(-0.829164787923787,0.3,3.40314006596686));
#603=VERTEX_POINT('',#602);
#604=CARTESIAN_POINT('',(-0.865215430876996,0.25,3.368493981878463));
#605=VERTEX_POINT('',#604);
#606=CARTESIAN_POINT('',(-0.829164787923787,0.25,3.40314006596686));
#607=DIRECTION('',(-0.692921681767942,0.0,0.721012859064169));
#608=DIRECTION('',(0.0,1.0,0.0));
#609=AXIS2_PLACEMENT_3D('',#606,#607,#608);
#610=CIRCLE('',#609,0.05);
#611=EDGE_CURVE('',#603,#605,#610,.T.);
#612=ORIENTED_EDGE('',*,*,#611,.T.);
#613=CARTESIAN_POINT('',(0.866920505724455,0.25,3.370271829600527));
#614=VERTEX_POINT('',#613);
#615=CARTESIAN_POINT('',(6.215297E-016,0.25,4.199999999999999));
#616=DIRECTION('',(5.935009E-020,1.0,-5.782409E-017));
#617=DIRECTION('',(-0.001026389873933,5.782412E-017,0.999999473261775));
#618=AXIS2_PLACEMENT_3D('',#615,#616,#617);
#619=CIRCLE('',#618,1.199999999999999);
#620=EDGE_CURVE('',#605,#614,#619,.T.);
#621=ORIENTED_EDGE('',*,*,#620,.T.);
#622=CARTESIAN_POINT('',(0.830798817985935,0.3,3.404843836700505));
#623=VERTEX_POINT('',#622);
#624=CARTESIAN_POINT('',(0.830798817985935,0.25,3.404843836700505));
#625=DIRECTION('',(0.69144014199956,0.0,0.722433754770379));
#626=DIRECTION('',(0.722433754770379,1.110223E-015,-0.69144014199956));
#627=AXIS2_PLACEMENT_3D('',#624,#625,#626);
#628=CIRCLE('',#627,0.05);
#629=EDGE_CURVE('',#614,#623,#628,.T.);
#630=ORIENTED_EDGE('',*,*,#629,.T.);
#631=CARTESIAN_POINT('',(6.099119E-016,0.3,4.199999999999999));
#632=DIRECTION('',(-5.827770E-020,-1.0,5.677927E-017));
#633=DIRECTION('',(-0.001026389873933,5.677930E-017,0.999999473261775));
#634=AXIS2_PLACEMENT_3D('',#631,#632,#633);
#635=CIRCLE('',#634,1.15);
#636=EDGE_CURVE('',#623,#603,#635,.T.);
#637=ORIENTED_EDGE('',*,*,#636,.T.);
#638=EDGE_LOOP('',(#612,#621,#630,#637));
#639=FACE_OUTER_BOUND('',#638,.T.);
#640=ADVANCED_FACE('',(#639),#601,.T.);
#641=CARTESIAN_POINT('',(-1.442025718128327,0.25,2.814156636464105));
#642=DIRECTION('',(2.323567E-016,-1.0,5.701782E-017));
#643=DIRECTION('',(0.0,0.0,-1.0));
#644=AXIS2_PLACEMENT_3D('',#641,#642,#643);
#645=TOROIDAL_SURFACE('',#644,0.85,0.05);
#646=CARTESIAN_POINT('',(-0.596774183021328,0.3,2.903877550409862));
#647=VERTEX_POINT('',#646);
#648=CARTESIAN_POINT('',(-0.646494861557034,0.25,2.898599849589523));
#649=VERTEX_POINT('',#648);
#650=CARTESIAN_POINT('',(-0.596774183021328,0.25,2.903877550409862));
#651=DIRECTION('',(-0.105554016406772,0.0,0.994413570714116));
#652=DIRECTION('',(0.0,1.0,0.0));
#653=AXIS2_PLACEMENT_3D('',#650,#651,#652);
#654=CIRCLE('',#653,0.05);
#655=EDGE_CURVE('',#647,#649,#654,.T.);
#656=ORIENTED_EDGE('',*,*,#655,.T.);
#657=CARTESIAN_POINT('',(-1.442025718128327,0.25,2.814156636464105));
#658=DIRECTION('',(2.123144E-016,-1.0,9.882549E-017));
#659=DIRECTION('',(0.906599223788231,2.341877E-016,0.421992710158098));
#660=AXIS2_PLACEMENT_3D('',#657,#658,#659);
#661=CIRCLE('',#660,0.8);
#662=EDGE_CURVE('',#649,#605,#661,.T.);
#663=ORIENTED_EDGE('',*,*,#662,.T.);
#664=ORIENTED_EDGE('',*,*,#611,.F.);
#665=CARTESIAN_POINT('',(-1.442025718128327,0.3,2.814156636464105));
#666=DIRECTION('',(-2.127929E-016,1.0,-9.904822E-017));
#667=DIRECTION('',(0.906599223788231,2.347155E-016,0.421992710158098));
#668=AXIS2_PLACEMENT_3D('',#665,#666,#667);
#669=CIRCLE('',#668,0.85);
#670=EDGE_CURVE('',#603,#647,#669,.T.);
#671=ORIENTED_EDGE('',*,*,#670,.T.);
#672=EDGE_LOOP('',(#656,#663,#664,#671));
#673=FACE_OUTER_BOUND('',#672,.T.);
#674=ADVANCED_FACE('',(#673),#645,.T.);
#675=CARTESIAN_POINT('',(1.444867509540758,0.25,2.817119716000879));
#676=DIRECTION('',(2.323567E-016,-1.0,5.701782E-017));
#677=DIRECTION('',(0.0,0.0,-1.0));
#678=AXIS2_PLACEMENT_3D('',#675,#676,#677);
#679=TOROIDAL_SURFACE('',#678,0.85,0.05);
#680=CARTESIAN_POINT('',(0.64940913204404,0.25,2.902242977629466));
#681=VERTEX_POINT('',#680);
#682=CARTESIAN_POINT('',(0.599692983450495,0.3,2.907563181481252));
#683=VERTEX_POINT('',#682);
#684=CARTESIAN_POINT('',(0.599692983450495,0.25,2.907563181481252));
#685=DIRECTION('',(0.106404077035727,0.0,0.994322971870898));
#686=DIRECTION('',(0.994322971870898,1.110223E-015,-0.106404077035727));
#687=AXIS2_PLACEMENT_3D('',#684,#685,#686);
#688=CIRCLE('',#687,0.05);
#689=EDGE_CURVE('',#681,#683,#688,.T.);
#690=ORIENTED_EDGE('',*,*,#689,.T.);
#691=CARTESIAN_POINT('',(1.444867509540758,0.3,2.817119716000879));
#692=DIRECTION('',(-1.692938E-016,1.0,7.867745E-017));
#693=DIRECTION('',(-0.906851814765846,-1.866829E-016,0.421449624576761));
#694=AXIS2_PLACEMENT_3D('',#691,#692,#693);
#695=CIRCLE('',#694,0.85);
#696=EDGE_CURVE('',#683,#623,#695,.T.);
#697=ORIENTED_EDGE('',*,*,#696,.T.);
#698=ORIENTED_EDGE('',*,*,#629,.F.);
#699=CARTESIAN_POINT('',(1.444867509540758,0.25,2.817119716000879));
#700=DIRECTION('',(1.651794E-016,-1.0,-7.676535E-017));
#701=DIRECTION('',(-0.906851814765846,-1.821460E-016,0.421449624576761));
#702=AXIS2_PLACEMENT_3D('',#699,#700,#701);
#703=CIRCLE('',#702,0.8);
#704=EDGE_CURVE('',#614,#681,#703,.T.);
#705=ORIENTED_EDGE('',*,*,#704,.T.);
#706=EDGE_LOOP('',(#690,#697,#698,#705));
#707=FACE_OUTER_BOUND('',#706,.T.);
#708=ADVANCED_FACE('',(#707),#679,.T.);
#709=CARTESIAN_POINT('',(-0.361416272844715,0.25,0.686594799627489));
#710=DIRECTION('',(-0.105554016406773,3.217311E-017,0.994413570714116));
#711=DIRECTION('',(-0.703156579155881,0.707106781186547,-0.074637960782705));
#712=AXIS2_PLACEMENT_3D('',#709,#710,#711);
#713=CYLINDRICAL_SURFACE('',#712,0.05);
#714=CARTESIAN_POINT('',(-0.300073258401743,0.3,0.108688547386683));
#715=VERTEX_POINT('',#714);
#716=CARTESIAN_POINT('',(-0.349793936937449,0.25,0.103410846566344));
#717=VERTEX_POINT('',#716);
#718=CARTESIAN_POINT('',(-0.300073258401743,0.25,0.108688547386683));
#719=DIRECTION('',(-0.10555401640677,0.0,0.994413570714117));
#720=DIRECTION('',(0.0,1.0,0.0));
#721=AXIS2_PLACEMENT_3D('',#718,#719,#720);
#722=CIRCLE('',#721,0.05);
#723=EDGE_CURVE('',#715,#717,#722,.T.);
#724=ORIENTED_EDGE('',*,*,#723,.T.);
#725=CARTESIAN_POINT('',(-0.349793936937449,0.25,0.103410846566344));
#726=DIRECTION('',(-0.105554016406773,3.949718E-017,0.994413570714116));
#727=VECTOR('',#726,2.810891851582311);
#728=LINE('',#725,#727);
#729=EDGE_CURVE('',#717,#649,#728,.T.);
#730=ORIENTED_EDGE('',*,*,#729,.T.);
#731=ORIENTED_EDGE('',*,*,#655,.F.);
#732=CARTESIAN_POINT('',(-0.596774183021328,0.3,2.903877550409862));
#733=DIRECTION('',(0.105554016406773,-1.974859E-017,-0.994413570714116));
#734=VECTOR('',#733,2.810891851582311);
#735=LINE('',#732,#734);
#736=EDGE_CURVE('',#647,#715,#735,.T.);
#737=ORIENTED_EDGE('',*,*,#736,.T.);
#738=EDGE_LOOP('',(#724,#730,#731,#737));
#739=FACE_OUTER_BOUND('',#738,.T.);
#740=ADVANCED_FACE('',(#739),#713,.T.);
#741=CARTESIAN_POINT('',(0.511756708876958,0.25,2.08581780945147));
#742=DIRECTION('',(-0.106404077035734,-8.141783E-017,-0.994322971870898));
#743=DIRECTION('',(0.70309251609947,0.707106781186549,-0.075239044417871));
#744=AXIS2_PLACEMENT_3D('',#741,#742,#743);
#745=CYLINDRICAL_SURFACE('',#744,0.05);
#746=CARTESIAN_POINT('',(0.349927349741211,0.25,0.103650817476254));
#747=VERTEX_POINT('',#746);
#748=CARTESIAN_POINT('',(0.300211201147666,0.3,0.10897102132804));
#749=VERTEX_POINT('',#748);
#750=CARTESIAN_POINT('',(0.300211201147666,0.25,0.10897102132804));
#751=DIRECTION('',(0.106404077035731,0.0,0.994322971870898));
#752=DIRECTION('',(0.994322971870898,0.0,-0.106404077035731));
#753=AXIS2_PLACEMENT_3D('',#750,#751,#752);
#754=CIRCLE('',#753,0.05);
#755=EDGE_CURVE('',#747,#749,#754,.T.);
#756=ORIENTED_EDGE('',*,*,#755,.T.);
#757=CARTESIAN_POINT('',(0.300211201147666,0.3,0.10897102132804));
#758=DIRECTION('',(0.106404077035734,7.889111E-017,0.994322971870897));
#759=VECTOR('',#758,2.814570556373086);
#760=LINE('',#757,#759);
#761=EDGE_CURVE('',#749,#683,#760,.T.);
#762=ORIENTED_EDGE('',*,*,#761,.T.);
#763=ORIENTED_EDGE('',*,*,#689,.F.);
#764=CARTESIAN_POINT('',(0.64940913204404,0.25,2.902242977629466));
#765=DIRECTION('',(-0.106404077035734,-7.889111E-017,-0.994322971870897));
#766=VECTOR('',#765,2.814570556373086);
#767=LINE('',#764,#766);
#768=EDGE_CURVE('',#681,#747,#767,.T.);
#769=ORIENTED_EDGE('',*,*,#768,.T.);
#770=EDGE_LOOP('',(#756,#762,#763,#769));
#771=FACE_OUTER_BOUND('',#770,.T.);
#772=ADVANCED_FACE('',(#771),#745,.T.);
#773=CARTESIAN_POINT('',(-1.145324793508743,0.25,0.018967633440926));
#774=DIRECTION('',(2.323567E-016,-1.0,5.701782E-017));
#775=DIRECTION('',(0.0,0.0,-1.0));
#776=AXIS2_PLACEMENT_3D('',#773,#774,#775);
#777=TOROIDAL_SURFACE('',#776,0.850000000000002,0.05);
#778=CARTESIAN_POINT('',(-0.303359721817715,0.3,-0.097629184921857));
#779=VERTEX_POINT('',#778);
#780=CARTESIAN_POINT('',(-0.35288707897601,0.25,-0.090770548547575));
#781=VERTEX_POINT('',#780);
#782=CARTESIAN_POINT('',(-0.303359721817715,0.25,-0.097629184921857));
#783=DIRECTION('',(0.137172727485626,0.0,0.990547143165914));
#784=DIRECTION('',(0.0,1.0,0.0));
#785=AXIS2_PLACEMENT_3D('',#782,#783,#784);
#786=CIRCLE('',#785,0.05);
#787=EDGE_CURVE('',#779,#781,#786,.T.);
#788=ORIENTED_EDGE('',*,*,#787,.T.);
#789=CARTESIAN_POINT('',(-1.145324793508743,0.25,0.018967633440926));
#790=DIRECTION('',(2.341580E-016,-1.0,-3.729934E-018));
#791=DIRECTION('',(0.999873155436194,2.341877E-016,-0.015927116439217));
#792=AXIS2_PLACEMENT_3D('',#789,#790,#791);
#793=CIRCLE('',#792,0.800000000000001);
#794=EDGE_CURVE('',#781,#717,#793,.T.);
#795=ORIENTED_EDGE('',*,*,#794,.T.);
#796=ORIENTED_EDGE('',*,*,#723,.F.);
#797=CARTESIAN_POINT('',(-1.145324793508743,0.3,0.018967633440926));
#798=DIRECTION('',(-2.313897E-016,1.0,3.685838E-018));
#799=DIRECTION('',(0.999873155436194,2.314191E-016,-0.015927116439217));
#800=AXIS2_PLACEMENT_3D('',#797,#798,#799);
#801=CIRCLE('',#800,0.850000000000002);
#802=EDGE_CURVE('',#715,#779,#801,.T.);
#803=ORIENTED_EDGE('',*,*,#802,.T.);
#804=EDGE_LOOP('',(#788,#795,#796,#803));
#805=FACE_OUTER_BOUND('',#804,.T.);
#806=ADVANCED_FACE('',(#805),#777,.T.);
#807=CARTESIAN_POINT('',(1.145385727237914,0.25,0.018527555847659));
#808=DIRECTION('',(2.323567E-016,-1.0,5.701782E-017));
#809=DIRECTION('',(0.0,0.0,-1.0));
#810=AXIS2_PLACEMENT_3D('',#807,#808,#809);
#811=TOROIDAL_SURFACE('',#810,0.849999999999985,0.05);
#812=CARTESIAN_POINT('',(0.352943610533275,0.25,-0.091178832629265));
#813=VERTEX_POINT('',#812);
#814=CARTESIAN_POINT('',(0.303415978239235,0.3,-0.098035481909073));
#815=VERTEX_POINT('',#814);
#816=CARTESIAN_POINT('',(0.303415978239235,0.25,-0.098035481909073));
#817=DIRECTION('',(-0.137132985596156,-2.465190E-032,0.990552645880816));
#818=DIRECTION('',(0.990552645880816,1.110223E-015,0.137132985596156));
#819=AXIS2_PLACEMENT_3D('',#816,#817,#818);
#820=CIRCLE('',#819,0.05);
#821=EDGE_CURVE('',#813,#815,#820,.T.);
#822=ORIENTED_EDGE('',*,*,#821,.T.);
#823=CARTESIAN_POINT('',(1.145385727237914,0.3,0.018527555847659));
#824=DIRECTION('',(-2.331835E-016,1.0,-3.610037E-018));
#825=DIRECTION('',(-0.999880182674481,-2.332114E-016,-0.015479673602709));
#826=AXIS2_PLACEMENT_3D('',#823,#824,#825);
#827=CIRCLE('',#826,0.849999999999985);
#828=EDGE_CURVE('',#815,#749,#827,.T.);
#829=ORIENTED_EDGE('',*,*,#828,.T.);
#830=ORIENTED_EDGE('',*,*,#755,.F.);
#831=CARTESIAN_POINT('',(1.145385727237914,0.25,0.018527555847659));
#832=DIRECTION('',(2.341596E-016,-1.0,3.625149E-018));
#833=DIRECTION('',(-0.999880182674481,-2.341877E-016,-0.015479673602709));
#834=AXIS2_PLACEMENT_3D('',#831,#832,#833);
#835=CIRCLE('',#834,0.799999999999985);
#836=EDGE_CURVE('',#747,#813,#835,.T.);
#837=ORIENTED_EDGE('',*,*,#836,.T.);
#838=EDGE_LOOP('',(#822,#829,#830,#837));
#839=FACE_OUTER_BOUND('',#838,.T.);
#840=ADVANCED_FACE('',(#839),#811,.T.);
#841=CARTESIAN_POINT('',(9.82339382458586,0.250000000000003,-1.500000000000005));
#842=DIRECTION('',(-2.323567E-016,1.0,-5.701782E-017));
#843=DIRECTION('',(0.0,0.0,1.0));
#844=AXIS2_PLACEMENT_3D('',#841,#842,#843);
#845=TOROIDAL_SURFACE('',#844,10.223393824585861,0.05);
#846=ORIENTED_EDGE('',*,*,#462,.T.);
#847=CARTESIAN_POINT('',(9.82339382458586,0.250000000000003,-1.500000000000005));
#848=DIRECTION('',(-2.330023E-016,1.0,-2.962877E-018));
#849=DIRECTION('',(-0.999919160432069,-2.330212E-016,-0.012715054102379));
#850=AXIS2_PLACEMENT_3D('',#847,#848,#849);
#851=CIRCLE('',#850,10.273393824585861);
#852=EDGE_CURVE('',#442,#781,#851,.T.);
#853=ORIENTED_EDGE('',*,*,#852,.T.);
#854=ORIENTED_EDGE('',*,*,#787,.F.);
#855=CARTESIAN_POINT('',(9.82339382458586,0.300000000000002,-1.500000000000005));
#856=DIRECTION('',(2.330440E-016,-1.0,2.963407E-018));
#857=DIRECTION('',(-0.999919160432069,-2.330629E-016,-0.012715054102379));
#858=AXIS2_PLACEMENT_3D('',#855,#856,#857);
#859=CIRCLE('',#858,10.223393824585861);
#860=EDGE_CURVE('',#779,#450,#859,.T.);
#861=ORIENTED_EDGE('',*,*,#860,.T.);
#862=EDGE_LOOP('',(#846,#853,#854,#861));
#863=FACE_OUTER_BOUND('',#862,.T.);
#864=ADVANCED_FACE('',(#863),#845,.T.);
#865=CARTESIAN_POINT('',(-9.823393824585946,0.249999999999997,-1.499999999999994));
#866=DIRECTION('',(-2.323567E-016,1.0,-5.701782E-017));
#867=DIRECTION('',(0.0,0.0,1.0));
#868=AXIS2_PLACEMENT_3D('',#865,#866,#867);
#869=TOROIDAL_SURFACE('',#868,10.223393824585944,0.05);
#870=CARTESIAN_POINT('',(0.227957387894158,0.249999999999999,-3.624372725868828));
#871=VERTEX_POINT('',#870);
#872=CARTESIAN_POINT('',(0.178569647502854,0.3,-3.616248566587425));
#873=VERTEX_POINT('',#872);
#874=CARTESIAN_POINT('',(0.178569647502854,0.299999999999999,-3.616248566587425));
#875=CARTESIAN_POINT('',(0.184666793024611,0.299999999999999,-3.617251531715779));
#876=CARTESIAN_POINT('',(0.191842990865097,0.298554489769513,-3.618431998241054));
#877=CARTESIAN_POINT('',(0.203107045098927,0.293828898756462,-3.620284906878399));
#878=CARTESIAN_POINT('',(0.209188775599063,0.289713788378947,-3.621285336274404));
#879=CARTESIAN_POINT('',(0.217806806646549,0.280985374718024,-3.622702980741778));
#880=CARTESIAN_POINT('',(0.221869101008531,0.274828762828509,-3.623371217963874));
#881=CARTESIAN_POINT('',(0.226531368412168,0.263428593292175,-3.624138149244786));
#882=CARTESIAN_POINT('',(0.227957387894158,0.256168653242831,-3.624372725868828));
#883=CARTESIAN_POINT('',(0.227957387894158,0.249999999999999,-3.624372725868828));
#884=B_SPLINE_CURVE_WITH_KNOTS('',3,(#874,#875,#876,#877,#878,#879,#880,#881,#882,#883),.UNSPECIFIED.,.F.,.U.,(4,2,2,2,4),(0.222259489538742,0.240796752094458,0.259324170673386,0.277839813793882,0.296345773522377),.UNSPECIFIED.);
#885=EDGE_CURVE('',#871,#873,#884,.F.);
#886=ORIENTED_EDGE('',*,*,#885,.T.);
#887=CARTESIAN_POINT('',(-9.823393824585946,0.299999999999997,-1.499999999999994));
#888=DIRECTION('',(2.315929E-016,-1.0,-2.949601E-018));
#889=DIRECTION('',(0.999918905160292,2.316117E-016,-0.012735112996879));
#890=AXIS2_PLACEMENT_3D('',#887,#888,#889);
#891=CIRCLE('',#890,10.223393824585944);
#892=EDGE_CURVE('',#873,#815,#891,.T.);
#893=ORIENTED_EDGE('',*,*,#892,.T.);
#894=ORIENTED_EDGE('',*,*,#821,.F.);
#895=CARTESIAN_POINT('',(-9.823393824585946,0.249999999999997,-1.499999999999994));
#896=DIRECTION('',(-2.316515E-016,1.0,2.950348E-018));
#897=DIRECTION('',(0.999918905160292,2.316703E-016,-0.012735112996879));
#898=AXIS2_PLACEMENT_3D('',#895,#896,#897);
#899=CIRCLE('',#898,10.273393824585945);
#900=EDGE_CURVE('',#813,#871,#899,.T.);
#901=ORIENTED_EDGE('',*,*,#900,.T.);
#902=EDGE_LOOP('',(#886,#893,#894,#901));
#903=FACE_OUTER_BOUND('',#902,.T.);
#904=ADVANCED_FACE('',(#903),#869,.T.);
#905=CARTESIAN_POINT('',(0.000236688625724,0.3,1.309400805347625));
#906=DIRECTION('',(0.0,1.0,0.0));
#907=DIRECTION('',(0.0,0.0,1.0));
#908=AXIS2_PLACEMENT_3D('',#905,#906,#907);
#909=PLANE('',#908);
#910=ORIENTED_EDGE('',*,*,#376,.F.);
#911=ORIENTED_EDGE('',*,*,#468,.T.);
#912=ORIENTED_EDGE('',*,*,#860,.F.);
#913=ORIENTED_EDGE('',*,*,#802,.F.);
#914=ORIENTED_EDGE('',*,*,#736,.F.);
#915=ORIENTED_EDGE('',*,*,#670,.F.);
#916=ORIENTED_EDGE('',*,*,#636,.F.);
#917=ORIENTED_EDGE('',*,*,#696,.F.);
#918=ORIENTED_EDGE('',*,*,#761,.F.);
#919=ORIENTED_EDGE('',*,*,#828,.F.);
#920=ORIENTED_EDGE('',*,*,#892,.F.);
#921=CARTESIAN_POINT('',(0.178569647502854,0.3,-3.616248566587424));
#922=DIRECTION('',(-0.986738819191523,-5.545321E-016,0.162316058048853));
#923=VECTOR('',#922,0.100104492326558);
#924=LINE('',#921,#923);
#925=EDGE_CURVE('',#873,#315,#924,.T.);
#926=ORIENTED_EDGE('',*,*,#925,.T.);
#927=ORIENTED_EDGE('',*,*,#344,.F.);
#928=ORIENTED_EDGE('',*,*,#270,.F.);
#929=ORIENTED_EDGE('',*,*,#204,.F.);
#930=ORIENTED_EDGE('',*,*,#138,.F.);
#931=ORIENTED_EDGE('',*,*,#104,.F.);
#932=ORIENTED_EDGE('',*,*,#164,.F.);
#933=ORIENTED_EDGE('',*,*,#229,.F.);
#934=ORIENTED_EDGE('',*,*,#296,.F.);
#935=EDGE_LOOP('',(#910,#911,#912,#913,#914,#915,#916,#917,#918,#919,#920,#926,#927,#928,#929,#930,#931,#932,#933,#934));
#936=FACE_OUTER_BOUND('',#935,.T.);
#937=ADVANCED_FACE('',(#936),#909,.T.);
#938=CARTESIAN_POINT('',(0.227803481827512,0.3,-3.624347408707324));
#939=DIRECTION('',(-0.162316058048853,-4.505176E-017,-0.986738819191523));
#940=DIRECTION('',(-0.986738819191523,0.0,0.162316058048853));
#941=AXIS2_PLACEMENT_3D('',#938,#939,#940);
#942=PLANE('',#941);
#943=ORIENTED_EDGE('',*,*,#329,.F.);
#944=ORIENTED_EDGE('',*,*,#925,.F.);
#945=ORIENTED_EDGE('',*,*,#885,.F.);
#946=CARTESIAN_POINT('',(0.227957387894158,-0.250000000000001,-3.624372725868828));
#947=VERTEX_POINT('',#946);
#948=CARTESIAN_POINT('',(0.227957387894158,0.249999999999999,-3.624372725868828));
#949=DIRECTION('',(0.0,-1.0,0.0));
#950=VECTOR('',#949,0.5);
#951=LINE('',#948,#950);
#952=EDGE_CURVE('',#871,#947,#951,.T.);
#953=ORIENTED_EDGE('',*,*,#952,.T.);
#954=CARTESIAN_POINT('',(0.178569647502854,-0.3,-3.616248566587425));
#955=VERTEX_POINT('',#954);
#956=CARTESIAN_POINT('',(0.227957387894158,-0.250000000000001,-3.624372725868828));
#957=CARTESIAN_POINT('',(0.227957387894158,-0.256170258582137,-3.624372725868828));
#958=CARTESIAN_POINT('',(0.226530634974356,-0.263432014863742,-3.624138028596108));
#959=CARTESIAN_POINT('',(0.221866016505229,-0.274834674695085,-3.623370710570826));
#960=CARTESIAN_POINT('',(0.217801742742403,-0.28099226565769,-3.622702147742261));
#961=CARTESIAN_POINT('',(0.209181969993887,-0.289718915885993,-3.621284216769441));
#962=CARTESIAN_POINT('',(0.203101205529828,-0.293832023213873,-3.620283946283946));
#963=CARTESIAN_POINT('',(0.191839609709571,-0.298555232756989,-3.61843144204946));
#964=CARTESIAN_POINT('',(0.184665206829188,-0.300000000000001,-3.617251270790614));
#965=CARTESIAN_POINT('',(0.178569647502854,-0.300000000000001,-3.616248566587425));
#966=B_SPLINE_CURVE_WITH_KNOTS('',3,(#956,#957,#958,#959,#960,#961,#962,#963,#964,#965),.UNSPECIFIED.,.F.,.U.,(4,2,2,2,4),(0.0,0.018510775746409,0.037031241442784,0.055553844088298,0.074086284105185),.UNSPECIFIED.);
#967=EDGE_CURVE('',#955,#947,#966,.F.);
#968=ORIENTED_EDGE('',*,*,#967,.F.);
#969=CARTESIAN_POINT('',(0.079792658948779,-0.3,-3.599999999999995));
#970=VERTEX_POINT('',#969);
#971=CARTESIAN_POINT('',(0.178569647502854,-0.3,-3.616248566587424));
#972=DIRECTION('',(-0.986738819191523,-5.545321E-016,0.162316058048853));
#973=VECTOR('',#972,0.100104492326558);
#974=LINE('',#971,#973);
#975=EDGE_CURVE('',#955,#970,#974,.T.);
#976=ORIENTED_EDGE('',*,*,#975,.T.);
#977=CARTESIAN_POINT('',(0.030403395786532,-0.250000000000001,-3.591875590226595));
#978=VERTEX_POINT('',#977);
#979=CARTESIAN_POINT('',(0.079792658948779,-0.300000000000001,-3.599999999999995));
#980=CARTESIAN_POINT('',(0.073695318145773,-0.300000000000001,-3.598997002748367));
#981=CARTESIAN_POINT('',(0.066518887091135,-0.298554460669047,-3.597816497859948));
#982=CARTESIAN_POINT('',(0.05525446442149,-0.293828802219985,-3.595963528615837));
#983=CARTESIAN_POINT('',(0.049172517783835,-0.289713646299237,-3.594963063665753));
#984=CARTESIAN_POINT('',(0.040554225378703,-0.280985168562742,-3.593545376205702));
#985=CARTESIAN_POINT('',(0.036491806621401,-0.274828554704386,-3.592877118520888));
#986=CARTESIAN_POINT('',(0.031829444375622,-0.263428434674932,-3.592110171638682));
#987=CARTESIAN_POINT('',(0.030403395786532,-0.256168584548424,-3.591875590226595));
#988=CARTESIAN_POINT('',(0.030403395786532,-0.250000000000001,-3.591875590226595));
#989=B_SPLINE_CURVE_WITH_KNOTS('',3,(#979,#980,#981,#982,#983,#984,#985,#986,#987,#988),.UNSPECIFIED.,.F.,.U.,(4,2,2,2,4),(0.074087041194017,0.092624897466873,0.111152834695505,0.129668657100595,0.148174410745864),.UNSPECIFIED.);
#990=EDGE_CURVE('',#978,#970,#989,.F.);
#991=ORIENTED_EDGE('',*,*,#990,.F.);
#992=CARTESIAN_POINT('',(0.030403395786532,-0.250000000000001,-3.591875590226595));
#993=DIRECTION('',(0.0,1.0,0.0));
#994=VECTOR('',#993,0.5);
#995=LINE('',#992,#994);
#996=EDGE_CURVE('',#317,#978,#995,.F.);
#997=ORIENTED_EDGE('',*,*,#996,.F.);
#998=EDGE_LOOP('',(#943,#944,#945,#953,#968,#976,#991,#997));
#999=FACE_OUTER_BOUND('',#998,.T.);
#1000=ADVANCED_FACE('',(#999),#942,.T.);
#1001=CARTESIAN_POINT('',(7.603076E-016,-0.25,4.199999999999999));
#1002=DIRECTION('',(-2.323567E-016,1.0,-5.701782E-017));
#1003=DIRECTION('',(0.0,0.0,1.0));
#1004=AXIS2_PLACEMENT_3D('',#1001,#1002,#1003);
#1005=TOROIDAL_SURFACE('',#1004,1.15,0.05);
#1006=CARTESIAN_POINT('',(-0.865215430876996,-0.25,3.368493981878463));
#1007=VERTEX_POINT('',#1006);
#1008=CARTESIAN_POINT('',(-0.829164787923787,-0.3,3.403140065966861));
#1009=VERTEX_POINT('',#1008);
#1010=CARTESIAN_POINT('',(-0.829164787923787,-0.25,3.403140065966861));
#1011=DIRECTION('',(-0.692921681767945,0.0,0.721012859064166));
#1012=DIRECTION('',(-0.721012859064166,0.0,-0.692921681767945));
#1013=AXIS2_PLACEMENT_3D('',#1010,#1011,#1012);
#1014=CIRCLE('',#1013,0.05);
#1015=EDGE_CURVE('',#1007,#1009,#1014,.T.);
#1016=ORIENTED_EDGE('',*,*,#1015,.T.);
#1017=CARTESIAN_POINT('',(0.830798817985936,-0.3,3.404843836700505));
#1018=VERTEX_POINT('',#1017);
#1019=CARTESIAN_POINT('',(7.719254E-016,-0.3,4.199999999999999));
#1020=DIRECTION('',(5.827770E-020,1.0,-5.677927E-017));
#1021=DIRECTION('',(-0.001026389873933,5.677930E-017,0.999999473261775));
#1022=AXIS2_PLACEMENT_3D('',#1019,#1020,#1021);
#1023=CIRCLE('',#1022,1.15);
#1024=EDGE_CURVE('',#1009,#1018,#1023,.T.);
#1025=ORIENTED_EDGE('',*,*,#1024,.T.);
#1026=CARTESIAN_POINT('',(0.866920505724455,-0.25,3.370271829600527));
#1027=VERTEX_POINT('',#1026);
#1028=CARTESIAN_POINT('',(0.830798817985936,-0.25,3.404843836700505));
#1029=DIRECTION('',(0.691440141999556,0.0,0.722433754770383));
#1030=DIRECTION('',(0.0,-1.0,0.0));
#1031=AXIS2_PLACEMENT_3D('',#1028,#1029,#1030);
#1032=CIRCLE('',#1031,0.05);
#1033=EDGE_CURVE('',#1018,#1027,#1032,.T.);
#1034=ORIENTED_EDGE('',*,*,#1033,.T.);
#1035=CARTESIAN_POINT('',(7.603076E-016,-0.25,4.199999999999999));
#1036=DIRECTION('',(-5.935009E-020,-1.0,5.782409E-017));
#1037=DIRECTION('',(-0.001026389873933,5.782412E-017,0.999999473261775));
#1038=AXIS2_PLACEMENT_3D('',#1035,#1036,#1037);
#1039=CIRCLE('',#1038,1.199999999999999);
#1040=EDGE_CURVE('',#1027,#1007,#1039,.T.);
#1041=ORIENTED_EDGE('',*,*,#1040,.T.);
#1042=EDGE_LOOP('',(#1016,#1025,#1034,#1041));
#1043=FACE_OUTER_BOUND('',#1042,.T.);
#1044=ADVANCED_FACE('',(#1043),#1005,.T.);
#1045=CARTESIAN_POINT('',(-1.442025718128327,-0.250000000000001,2.814156636464105));
#1046=DIRECTION('',(2.323567E-016,-1.0,5.701782E-017));
#1047=DIRECTION('',(0.0,0.0,-1.0));
#1048=AXIS2_PLACEMENT_3D('',#1045,#1046,#1047);
#1049=TOROIDAL_SURFACE('',#1048,0.85,0.05);
#1050=CARTESIAN_POINT('',(-0.646494861557034,-0.25,2.898599849589523));
#1051=VERTEX_POINT('',#1050);
#1052=CARTESIAN_POINT('',(-0.596774183021328,-0.3,2.903877550409862));
#1053=VERTEX_POINT('',#1052);
#1054=CARTESIAN_POINT('',(-0.596774183021328,-0.25,2.903877550409862));
#1055=DIRECTION('',(-0.105554016406772,4.930381E-032,0.994413570714116));
#1056=DIRECTION('',(-0.994413570714116,2.220446E-015,-0.105554016406772));
#1057=AXIS2_PLACEMENT_3D('',#1054,#1055,#1056);
#1058=CIRCLE('',#1057,0.05);
#1059=EDGE_CURVE('',#1051,#1053,#1058,.T.);
#1060=ORIENTED_EDGE('',*,*,#1059,.T.);
#1061=CARTESIAN_POINT('',(-1.442025718128327,-0.3,2.814156636464105));
#1062=DIRECTION('',(2.127929E-016,-1.0,9.904822E-017));
#1063=DIRECTION('',(0.906599223788231,2.347155E-016,0.421992710158098));
#1064=AXIS2_PLACEMENT_3D('',#1061,#1062,#1063);
#1065=CIRCLE('',#1064,0.85);
#1066=EDGE_CURVE('',#1053,#1009,#1065,.T.);
#1067=ORIENTED_EDGE('',*,*,#1066,.T.);
#1068=ORIENTED_EDGE('',*,*,#1015,.F.);
#1069=CARTESIAN_POINT('',(-1.442025718128327,-0.250000000000001,2.814156636464105));
#1070=DIRECTION('',(-2.123144E-016,1.0,-9.882549E-017));
#1071=DIRECTION('',(0.906599223788231,2.341877E-016,0.421992710158098));
#1072=AXIS2_PLACEMENT_3D('',#1069,#1070,#1071);
#1073=CIRCLE('',#1072,0.8);
#1074=EDGE_CURVE('',#1007,#1051,#1073,.T.);
#1075=ORIENTED_EDGE('',*,*,#1074,.T.);
#1076=EDGE_LOOP('',(#1060,#1067,#1068,#1075));
#1077=FACE_OUTER_BOUND('',#1076,.T.);
#1078=ADVANCED_FACE('',(#1077),#1049,.T.);
#1079=CARTESIAN_POINT('',(1.444867509540759,-0.25,2.817119716000879));
#1080=DIRECTION('',(2.323567E-016,-1.0,5.701782E-017));
#1081=DIRECTION('',(0.0,0.0,-1.0));
#1082=AXIS2_PLACEMENT_3D('',#1079,#1080,#1081);
#1083=TOROIDAL_SURFACE('',#1082,0.85,0.05);
#1084=CARTESIAN_POINT('',(0.599692983450495,-0.3,2.907563181481252));
#1085=VERTEX_POINT('',#1084);
#1086=CARTESIAN_POINT('',(0.64940913204404,-0.25,2.902242977629466));
#1087=VERTEX_POINT('',#1086);
#1088=CARTESIAN_POINT('',(0.599692983450495,-0.25,2.907563181481252));
#1089=DIRECTION('',(0.106404077035727,0.0,0.994322971870898));
#1090=DIRECTION('',(0.0,-1.0,0.0));
#1091=AXIS2_PLACEMENT_3D('',#1088,#1089,#1090);
#1092=CIRCLE('',#1091,0.05);
#1093=EDGE_CURVE('',#1085,#1087,#1092,.T.);
#1094=ORIENTED_EDGE('',*,*,#1093,.T.);
#1095=CARTESIAN_POINT('',(1.444867509540759,-0.25,2.817119716000879));
#1096=DIRECTION('',(-1.651794E-016,1.0,7.676535E-017));
#1097=DIRECTION('',(-0.906851814765846,-1.821460E-016,0.421449624576761));
#1098=AXIS2_PLACEMENT_3D('',#1095,#1096,#1097);
#1099=CIRCLE('',#1098,0.8);
#1100=EDGE_CURVE('',#1087,#1027,#1099,.T.);
#1101=ORIENTED_EDGE('',*,*,#1100,.T.);
#1102=ORIENTED_EDGE('',*,*,#1033,.F.);
#1103=CARTESIAN_POINT('',(1.444867509540759,-0.3,2.817119716000879));
#1104=DIRECTION('',(1.692938E-016,-1.0,-7.867745E-017));
#1105=DIRECTION('',(-0.906851814765846,-1.866829E-016,0.421449624576761));
#1106=AXIS2_PLACEMENT_3D('',#1103,#1104,#1105);
#1107=CIRCLE('',#1106,0.85);
#1108=EDGE_CURVE('',#1018,#1085,#1107,.T.);
#1109=ORIENTED_EDGE('',*,*,#1108,.T.);
#1110=EDGE_LOOP('',(#1094,#1101,#1102,#1109));
#1111=FACE_OUTER_BOUND('',#1110,.T.);
#1112=ADVANCED_FACE('',(#1111),#1083,.T.);
#1113=CARTESIAN_POINT('',(-0.361416272844715,-0.25,0.686594799627489));
#1114=DIRECTION('',(-0.105554016406773,3.217311E-017,0.994413570714116));
#1115=DIRECTION('',(-0.70315657915588,-0.707106781186548,-0.074637960782705));
#1116=AXIS2_PLACEMENT_3D('',#1113,#1114,#1115);
#1117=CYLINDRICAL_SURFACE('',#1116,0.05);
#1118=CARTESIAN_POINT('',(-0.349793936937449,-0.25,0.103410846566344));
#1119=VERTEX_POINT('',#1118);
#1120=CARTESIAN_POINT('',(-0.300073258401743,-0.3,0.108688547386683));
#1121=VERTEX_POINT('',#1120);
#1122=CARTESIAN_POINT('',(-0.300073258401743,-0.25,0.108688547386683));
#1123=DIRECTION('',(-0.10555401640677,0.0,0.994413570714117));
#1124=DIRECTION('',(-0.994413570714117,-1.110223E-015,-0.10555401640677));
#1125=AXIS2_PLACEMENT_3D('',#1122,#1123,#1124);
#1126=CIRCLE('',#1125,0.05);
#1127=EDGE_CURVE('',#1119,#1121,#1126,.T.);
#1128=ORIENTED_EDGE('',*,*,#1127,.T.);
#1129=CARTESIAN_POINT('',(-0.300073258401743,-0.3,0.108688547386683));
#1130=DIRECTION('',(-0.105554016406773,1.974859E-017,0.994413570714116));
#1131=VECTOR('',#1130,2.810891851582311);
#1132=LINE('',#1129,#1131);
#1133=EDGE_CURVE('',#1121,#1053,#1132,.T.);
#1134=ORIENTED_EDGE('',*,*,#1133,.T.);
#1135=ORIENTED_EDGE('',*,*,#1059,.F.);
#1136=CARTESIAN_POINT('',(-0.646494861557034,-0.25,2.898599849589524));
#1137=DIRECTION('',(0.105554016406773,-1.974859E-017,-0.994413570714116));
#1138=VECTOR('',#1137,2.810891851582311);
#1139=LINE('',#1136,#1138);
#1140=EDGE_CURVE('',#1051,#1119,#1139,.T.);
#1141=ORIENTED_EDGE('',*,*,#1140,.T.);
#1142=EDGE_LOOP('',(#1128,#1134,#1135,#1141));
#1143=FACE_OUTER_BOUND('',#1142,.T.);
#1144=ADVANCED_FACE('',(#1143),#1117,.T.);
#1145=CARTESIAN_POINT('',(0.511756708876958,-0.25,2.08581780945147));
#1146=DIRECTION('',(-0.106404077035734,-8.141783E-017,-0.994322971870898));
#1147=DIRECTION('',(0.703092516099473,-0.707106781186546,-0.075239044417871));
#1148=AXIS2_PLACEMENT_3D('',#1145,#1146,#1147);
#1149=CYLINDRICAL_SURFACE('',#1148,0.05);
#1150=CARTESIAN_POINT('',(0.300211201147666,-0.3,0.10897102132804));
#1151=VERTEX_POINT('',#1150);
#1152=CARTESIAN_POINT('',(0.349927349741211,-0.25,0.103650817476254));
#1153=VERTEX_POINT('',#1152);
#1154=CARTESIAN_POINT('',(0.300211201147666,-0.25,0.10897102132804));
#1155=DIRECTION('',(0.106404077035731,0.0,0.994322971870898));
#1156=DIRECTION('',(0.0,-1.0,0.0));
#1157=AXIS2_PLACEMENT_3D('',#1154,#1155,#1156);
#1158=CIRCLE('',#1157,0.05);
#1159=EDGE_CURVE('',#1151,#1153,#1158,.T.);
#1160=ORIENTED_EDGE('',*,*,#1159,.T.);
#1161=CARTESIAN_POINT('',(0.349927349741211,-0.25,0.103650817476254));
#1162=DIRECTION('',(0.106404077035734,6.902972E-017,0.994322971870897));
#1163=VECTOR('',#1162,2.814570556373086);
#1164=LINE('',#1161,#1163);
#1165=EDGE_CURVE('',#1153,#1087,#1164,.T.);
#1166=ORIENTED_EDGE('',*,*,#1165,.T.);
#1167=ORIENTED_EDGE('',*,*,#1093,.F.);
#1168=CARTESIAN_POINT('',(0.599692983450495,-0.3,2.907563181481252));
#1169=DIRECTION('',(-0.106404077035734,-7.889111E-017,-0.994322971870897));
#1170=VECTOR('',#1169,2.814570556373086);
#1171=LINE('',#1168,#1170);
#1172=EDGE_CURVE('',#1085,#1151,#1171,.T.);
#1173=ORIENTED_EDGE('',*,*,#1172,.T.);
#1174=EDGE_LOOP('',(#1160,#1166,#1167,#1173));
#1175=FACE_OUTER_BOUND('',#1174,.T.);
#1176=ADVANCED_FACE('',(#1175),#1149,.T.);
#1177=CARTESIAN_POINT('',(-1.145324793508743,-0.25,0.018967633440926));
#1178=DIRECTION('',(2.323567E-016,-1.0,5.701782E-017));
#1179=DIRECTION('',(0.0,0.0,-1.0));
#1180=AXIS2_PLACEMENT_3D('',#1177,#1178,#1179);
#1181=TOROIDAL_SURFACE('',#1180,0.850000000000002,0.05);
#1182=CARTESIAN_POINT('',(-0.35288707897601,-0.25,-0.090770548547575));
#1183=VERTEX_POINT('',#1182);
#1184=CARTESIAN_POINT('',(-0.303359721817715,-0.3,-0.097629184921857));
#1185=VERTEX_POINT('',#1184);
#1186=CARTESIAN_POINT('',(-0.303359721817715,-0.25,-0.097629184921857));
#1187=DIRECTION('',(0.137172727485626,2.749321E-016,0.990547143165914));
#1188=DIRECTION('',(-0.990547143165914,0.0,0.137172727485626));
#1189=AXIS2_PLACEMENT_3D('',#1186,#1187,#1188);
#1190=CIRCLE('',#1189,0.05);
#1191=EDGE_CURVE('',#1183,#1185,#1190,.T.);
#1192=ORIENTED_EDGE('',*,*,#1191,.T.);
#1193=CARTESIAN_POINT('',(-1.145324793508743,-0.3,0.018967633440926));
#1194=DIRECTION('',(2.313897E-016,-1.0,-3.685838E-018));
#1195=DIRECTION('',(0.999873155436194,2.314191E-016,-0.015927116439217));
#1196=AXIS2_PLACEMENT_3D('',#1193,#1194,#1195);
#1197=CIRCLE('',#1196,0.850000000000002);
#1198=EDGE_CURVE('',#1185,#1121,#1197,.T.);
#1199=ORIENTED_EDGE('',*,*,#1198,.T.);
#1200=ORIENTED_EDGE('',*,*,#1127,.F.);
#1201=CARTESIAN_POINT('',(-1.145324793508743,-0.25,0.018967633440926));
#1202=DIRECTION('',(-2.341580E-016,1.0,3.729934E-018));
#1203=DIRECTION('',(0.999873155436194,2.341877E-016,-0.015927116439217));
#1204=AXIS2_PLACEMENT_3D('',#1201,#1202,#1203);
#1205=CIRCLE('',#1204,0.800000000000001);
#1206=EDGE_CURVE('',#1119,#1183,#1205,.T.);
#1207=ORIENTED_EDGE('',*,*,#1206,.T.);
#1208=EDGE_LOOP('',(#1192,#1199,#1200,#1207));
#1209=FACE_OUTER_BOUND('',#1208,.T.);
#1210=ADVANCED_FACE('',(#1209),#1181,.T.);
#1211=CARTESIAN_POINT('',(1.145385727237914,-0.25,0.018527555847659));
#1212=DIRECTION('',(2.323567E-016,-1.0,5.701782E-017));
#1213=DIRECTION('',(0.0,0.0,-1.0));
#1214=AXIS2_PLACEMENT_3D('',#1211,#1212,#1213);
#1215=TOROIDAL_SURFACE('',#1214,0.849999999999985,0.05);
#1216=CARTESIAN_POINT('',(0.303415978239235,-0.3,-0.098035481909073));
#1217=VERTEX_POINT('',#1216);
#1218=CARTESIAN_POINT('',(0.352943610533275,-0.25,-0.091178832629265));
#1219=VERTEX_POINT('',#1218);
#1220=CARTESIAN_POINT('',(0.303415978239235,-0.25,-0.098035481909073));
#1221=DIRECTION('',(-0.137132985596157,0.0,0.990552645880816));
#1222=DIRECTION('',(0.0,-1.0,0.0));
#1223=AXIS2_PLACEMENT_3D('',#1220,#1221,#1222);
#1224=CIRCLE('',#1223,0.05);
#1225=EDGE_CURVE('',#1217,#1219,#1224,.T.);
#1226=ORIENTED_EDGE('',*,*,#1225,.T.);
#1227=CARTESIAN_POINT('',(1.145385727237914,-0.25,0.018527555847659));
#1228=DIRECTION('',(-2.341596E-016,1.0,-3.625149E-018));
#1229=DIRECTION('',(-0.999880182674481,-2.341877E-016,-0.015479673602709));
#1230=AXIS2_PLACEMENT_3D('',#1227,#1228,#1229);
#1231=CIRCLE('',#1230,0.799999999999985);
#1232=EDGE_CURVE('',#1219,#1153,#1231,.T.);
#1233=ORIENTED_EDGE('',*,*,#1232,.T.);
#1234=ORIENTED_EDGE('',*,*,#1159,.F.);
#1235=CARTESIAN_POINT('',(1.145385727237914,-0.3,0.018527555847659));
#1236=DIRECTION('',(2.331835E-016,-1.0,3.610037E-018));
#1237=DIRECTION('',(-0.999880182674481,-2.332114E-016,-0.015479673602709));
#1238=AXIS2_PLACEMENT_3D('',#1235,#1236,#1237);
#1239=CIRCLE('',#1238,0.849999999999985);
#1240=EDGE_CURVE('',#1151,#1217,#1239,.T.);
#1241=ORIENTED_EDGE('',*,*,#1240,.T.);
#1242=EDGE_LOOP('',(#1226,#1233,#1234,#1241));
#1243=FACE_OUTER_BOUND('',#1242,.T.);
#1244=ADVANCED_FACE('',(#1243),#1215,.T.);
#1245=CARTESIAN_POINT('',(9.82339382458586,-0.249999999999997,-1.500000000000005));
#1246=DIRECTION('',(-2.323567E-016,1.0,-5.701782E-017));
#1247=DIRECTION('',(0.0,0.0,1.0));
#1248=AXIS2_PLACEMENT_3D('',#1245,#1246,#1247);
#1249=TOROIDAL_SURFACE('',#1248,10.223393824585861,0.05);
#1250=ORIENTED_EDGE('',*,*,#439,.T.);
#1251=CARTESIAN_POINT('',(9.82339382458586,-0.299999999999998,-1.500000000000005));
#1252=DIRECTION('',(-2.330440E-016,1.0,-2.963407E-018));
#1253=DIRECTION('',(-0.999919160432069,-2.330629E-016,-0.012715054102379));
#1254=AXIS2_PLACEMENT_3D('',#1251,#1252,#1253);
#1255=CIRCLE('',#1254,10.223393824585861);
#1256=EDGE_CURVE('',#419,#1185,#1255,.T.);
#1257=ORIENTED_EDGE('',*,*,#1256,.T.);
#1258=ORIENTED_EDGE('',*,*,#1191,.F.);
#1259=CARTESIAN_POINT('',(9.82339382458586,-0.249999999999997,-1.500000000000005));
#1260=DIRECTION('',(2.330023E-016,-1.0,2.962877E-018));
#1261=DIRECTION('',(-0.999919160432069,-2.330212E-016,-0.012715054102379));
#1262=AXIS2_PLACEMENT_3D('',#1259,#1260,#1261);
#1263=CIRCLE('',#1262,10.273393824585861);
#1264=EDGE_CURVE('',#1183,#427,#1263,.T.);
#1265=ORIENTED_EDGE('',*,*,#1264,.T.);
#1266=EDGE_LOOP('',(#1250,#1257,#1258,#1265));
#1267=FACE_OUTER_BOUND('',#1266,.T.);
#1268=ADVANCED_FACE('',(#1267),#1249,.T.);
#1269=CARTESIAN_POINT('',(-9.823393824585946,-0.250000000000003,-1.499999999999994));
#1270=DIRECTION('',(-2.323567E-016,1.0,-5.701782E-017));
#1271=DIRECTION('',(0.0,0.0,1.0));
#1272=AXIS2_PLACEMENT_3D('',#1269,#1270,#1271);
#1273=TOROIDAL_SURFACE('',#1272,10.223393824585944,0.05);
#1274=ORIENTED_EDGE('',*,*,#967,.T.);
#1275=CARTESIAN_POINT('',(-9.823393824585946,-0.250000000000003,-1.499999999999994));
#1276=DIRECTION('',(2.316515E-016,-1.0,-2.950348E-018));
#1277=DIRECTION('',(0.999918905160292,2.316703E-016,-0.012735112996879));
#1278=AXIS2_PLACEMENT_3D('',#1275,#1276,#1277);
#1279=CIRCLE('',#1278,10.273393824585945);
#1280=EDGE_CURVE('',#947,#1219,#1279,.T.);
#1281=ORIENTED_EDGE('',*,*,#1280,.T.);
#1282=ORIENTED_EDGE('',*,*,#1225,.F.);
#1283=CARTESIAN_POINT('',(-9.823393824585946,-0.300000000000002,-1.499999999999994));
#1284=DIRECTION('',(-2.315929E-016,1.0,2.949601E-018));
#1285=DIRECTION('',(0.999918905160292,2.316117E-016,-0.012735112996879));
#1286=AXIS2_PLACEMENT_3D('',#1283,#1284,#1285);
#1287=CIRCLE('',#1286,10.223393824585944);
#1288=EDGE_CURVE('',#1217,#955,#1287,.T.);
#1289=ORIENTED_EDGE('',*,*,#1288,.T.);
#1290=EDGE_LOOP('',(#1274,#1281,#1282,#1289));
#1291=FACE_OUTER_BOUND('',#1290,.T.);
#1292=ADVANCED_FACE('',(#1291),#1273,.T.);
#1293=CARTESIAN_POINT('',(9.82339382458586,0.300000000000002,-1.500000000000005));
#1294=DIRECTION('',(2.775558E-016,-1.0,0.0));
#1295=DIRECTION('',(-0.999919160432069,-2.775333E-016,-0.012715054102379));
#1296=AXIS2_PLACEMENT_3D('',#1293,#1294,#1295);
#1297=CYLINDRICAL_SURFACE('',#1296,10.273393824585861);
#1298=ORIENTED_EDGE('',*,*,#852,.F.);
#1299=ORIENTED_EDGE('',*,*,#447,.T.);
#1300=ORIENTED_EDGE('',*,*,#1264,.F.);
#1301=CARTESIAN_POINT('',(-0.35288707897601,0.25,-0.090770548547575));
#1302=DIRECTION('',(0.0,-1.0,0.0));
#1303=VECTOR('',#1302,0.5);
#1304=LINE('',#1301,#1303);
#1305=EDGE_CURVE('',#781,#1183,#1304,.T.);
#1306=ORIENTED_EDGE('',*,*,#1305,.F.);
#1307=EDGE_LOOP('',(#1298,#1299,#1300,#1306));
#1308=FACE_OUTER_BOUND('',#1307,.T.);
#1309=ADVANCED_FACE('',(#1308),#1297,.T.);
#1310=CARTESIAN_POINT('',(-1.145324793508743,0.3,0.018967633440926));
#1311=DIRECTION('',(2.775558E-016,-1.0,0.0));
#1312=DIRECTION('',(0.999873155436194,2.775205E-016,-0.015927116439217));
#1313=AXIS2_PLACEMENT_3D('',#1310,#1311,#1312);
#1314=CYLINDRICAL_SURFACE('',#1313,0.800000000000001);
#1315=ORIENTED_EDGE('',*,*,#794,.F.);
#1316=ORIENTED_EDGE('',*,*,#1305,.T.);
#1317=ORIENTED_EDGE('',*,*,#1206,.F.);
#1318=CARTESIAN_POINT('',(-0.349793936937449,0.25,0.103410846566344));
#1319=DIRECTION('',(0.0,-1.0,0.0));
#1320=VECTOR('',#1319,0.5);
#1321=LINE('',#1318,#1320);
#1322=EDGE_CURVE('',#717,#1119,#1321,.T.);
#1323=ORIENTED_EDGE('',*,*,#1322,.F.);
#1324=EDGE_LOOP('',(#1315,#1316,#1317,#1323));
#1325=FACE_OUTER_BOUND('',#1324,.T.);
#1326=ADVANCED_FACE('',(#1325),#1314,.F.);
#1327=CARTESIAN_POINT('',(-0.349793936937449,0.3,0.103410846566344));
#1328=DIRECTION('',(-0.994413570714116,-2.760052E-016,-0.105554016406773));
#1329=DIRECTION('',(-0.105554016406773,0.0,0.994413570714116));
#1330=AXIS2_PLACEMENT_3D('',#1327,#1328,#1329);
#1331=PLANE('',#1330);
#1332=ORIENTED_EDGE('',*,*,#729,.F.);
#1333=ORIENTED_EDGE('',*,*,#1322,.T.);
#1334=ORIENTED_EDGE('',*,*,#1140,.F.);
#1335=CARTESIAN_POINT('',(-0.646494861557034,0.25,2.898599849589523));
#1336=DIRECTION('',(0.0,-1.0,0.0));
#1337=VECTOR('',#1336,0.5);
#1338=LINE('',#1335,#1337);
#1339=EDGE_CURVE('',#649,#1051,#1338,.T.);
#1340=ORIENTED_EDGE('',*,*,#1339,.F.);
#1341=EDGE_LOOP('',(#1332,#1333,#1334,#1340));
#1342=FACE_OUTER_BOUND('',#1341,.T.);
#1343=ADVANCED_FACE('',(#1342),#1331,.T.);
#1344=CARTESIAN_POINT('',(-1.442025718128327,0.3,2.814156636464105));
#1345=DIRECTION('',(2.775558E-016,-1.0,0.0));
#1346=DIRECTION('',(0.906599223788231,2.516318E-016,0.421992710158098));
#1347=AXIS2_PLACEMENT_3D('',#1344,#1345,#1346);
#1348=CYLINDRICAL_SURFACE('',#1347,0.8);
#1349=ORIENTED_EDGE('',*,*,#662,.F.);
#1350=ORIENTED_EDGE('',*,*,#1339,.T.);
#1351=ORIENTED_EDGE('',*,*,#1074,.F.);
#1352=CARTESIAN_POINT('',(-0.865215430876996,0.25,3.368493981878463));
#1353=DIRECTION('',(0.0,-1.0,0.0));
#1354=VECTOR('',#1353,0.5);
#1355=LINE('',#1352,#1354);
#1356=EDGE_CURVE('',#605,#1007,#1355,.T.);
#1357=ORIENTED_EDGE('',*,*,#1356,.F.);
#1358=EDGE_LOOP('',(#1349,#1350,#1351,#1357));
#1359=FACE_OUTER_BOUND('',#1358,.T.);
#1360=ADVANCED_FACE('',(#1359),#1348,.F.);
#1361=CARTESIAN_POINT('',(6.076519E-016,0.3,4.199999999999999));
#1362=DIRECTION('',(2.775558E-016,-1.0,0.0));
#1363=DIRECTION('',(-0.001026389873933,-2.848804E-019,0.999999473261775));
#1364=AXIS2_PLACEMENT_3D('',#1361,#1362,#1363);
#1365=CYLINDRICAL_SURFACE('',#1364,1.2);
#1366=ORIENTED_EDGE('',*,*,#620,.F.);
#1367=ORIENTED_EDGE('',*,*,#1356,.T.);
#1368=ORIENTED_EDGE('',*,*,#1040,.F.);
#1369=CARTESIAN_POINT('',(0.866920505724455,0.25,3.370271829600527));
#1370=DIRECTION('',(0.0,-1.0,0.0));
#1371=VECTOR('',#1370,0.5);
#1372=LINE('',#1369,#1371);
#1373=EDGE_CURVE('',#614,#1027,#1372,.T.);
#1374=ORIENTED_EDGE('',*,*,#1373,.F.);
#1375=EDGE_LOOP('',(#1366,#1367,#1368,#1374));
#1376=FACE_OUTER_BOUND('',#1375,.T.);
#1377=ADVANCED_FACE('',(#1376),#1365,.T.);
#1378=CARTESIAN_POINT('',(-9.823393824585942,-0.250000000000003,-1.499999999999995));
#1379=DIRECTION('',(2.323567E-016,-1.0,5.701782E-017));
#1380=DIRECTION('',(0.0,0.0,-1.0));
#1381=AXIS2_PLACEMENT_3D('',#1378,#1379,#1380);
#1382=TOROIDAL_SURFACE('',#1381,10.123393824585943,0.05);
#1383=ORIENTED_EDGE('',*,*,#990,.T.);
#1384=CARTESIAN_POINT('',(0.204360713651152,-0.3,-0.111748780468693));
#1385=VERTEX_POINT('',#1384);
#1386=CARTESIAN_POINT('',(-9.823393824585942,-0.300000000000002,-1.499999999999995));
#1387=DIRECTION('',(2.315929E-016,-1.0,-2.949601E-018));
#1388=DIRECTION('',(0.999918905160292,2.316117E-016,-0.012735112996879));
#1389=AXIS2_PLACEMENT_3D('',#1386,#1387,#1388);
#1390=CIRCLE('',#1389,10.123393824585941);
#1391=EDGE_CURVE('',#970,#1385,#1390,.T.);
#1392=ORIENTED_EDGE('',*,*,#1391,.T.);
#1393=CARTESIAN_POINT('',(0.154833081357114,-0.25,-0.118605429748501));
#1394=VERTEX_POINT('',#1393);
#1395=CARTESIAN_POINT('',(0.204360713651152,-0.25,-0.111748780468693));
#1396=DIRECTION('',(0.137132985596167,0.0,-0.990552645880814));
#1397=DIRECTION('',(0.0,-1.0,0.0));
#1398=AXIS2_PLACEMENT_3D('',#1395,#1396,#1397);
#1399=CIRCLE('',#1398,0.05);
#1400=EDGE_CURVE('',#1385,#1394,#1399,.T.);
#1401=ORIENTED_EDGE('',*,*,#1400,.T.);
#1402=CARTESIAN_POINT('',(-9.823393824585942,-0.250000000000003,-1.499999999999995));
#1403=DIRECTION('',(-2.314294E-016,1.0,2.947518E-018));
#1404=DIRECTION('',(0.999918905160292,2.314481E-016,-0.012735112996879));
#1405=AXIS2_PLACEMENT_3D('',#1402,#1403,#1404);
#1406=CIRCLE('',#1405,10.07339382458594);
#1407=EDGE_CURVE('',#1394,#978,#1406,.T.);
#1408=ORIENTED_EDGE('',*,*,#1407,.T.);
#1409=EDGE_LOOP('',(#1383,#1392,#1401,#1408));
#1410=FACE_OUTER_BOUND('',#1409,.T.);
#1411=ADVANCED_FACE('',(#1410),#1382,.T.);
#1412=CARTESIAN_POINT('',(1.145385727237928,-0.25,0.018527555847664));
#1413=DIRECTION('',(-2.323567E-016,1.0,-5.701782E-017));
#1414=DIRECTION('',(0.0,0.0,1.0));
#1415=AXIS2_PLACEMENT_3D('',#1412,#1413,#1414);
#1416=TOROIDAL_SURFACE('',#1415,0.949999999999999,0.05);
#1417=CARTESIAN_POINT('',(0.200778903960577,-0.3,0.119611429031615));
#1418=VERTEX_POINT('',#1417);
#1419=CARTESIAN_POINT('',(0.151062755367031,-0.25,0.124931632883402));
#1420=VERTEX_POINT('',#1419);
#1421=CARTESIAN_POINT('',(0.200778903960577,-0.25,0.119611429031615));
#1422=DIRECTION('',(-0.106404077035738,0.0,-0.994322971870897));
#1423=DIRECTION('',(0.0,-1.0,0.0));
#1424=AXIS2_PLACEMENT_3D('',#1421,#1422,#1423);
#1425=CIRCLE('',#1424,0.05);
#1426=EDGE_CURVE('',#1418,#1420,#1425,.T.);
#1427=ORIENTED_EDGE('',*,*,#1426,.T.);
#1428=CARTESIAN_POINT('',(1.145385727237928,-0.25,0.018527555847664));
#1429=DIRECTION('',(2.289561E-016,-1.0,3.544590E-018));
#1430=DIRECTION('',(-0.999880182674481,-2.289835E-016,-0.015479673602717));
#1431=AXIS2_PLACEMENT_3D('',#1428,#1429,#1430);
#1432=CIRCLE('',#1431,0.999999999999999);
#1433=EDGE_CURVE('',#1420,#1394,#1432,.T.);
#1434=ORIENTED_EDGE('',*,*,#1433,.T.);
#1435=ORIENTED_EDGE('',*,*,#1400,.F.);
#1436=CARTESIAN_POINT('',(1.145385727237928,-0.3,0.018527555847664));
#1437=DIRECTION('',(-2.331835E-016,1.0,-3.610037E-018));
#1438=DIRECTION('',(-0.999880182674481,-2.332114E-016,-0.015479673602717));
#1439=AXIS2_PLACEMENT_3D('',#1436,#1437,#1438);
#1440=CIRCLE('',#1439,0.949999999999999);
#1441=EDGE_CURVE('',#1385,#1418,#1440,.T.);
#1442=ORIENTED_EDGE('',*,*,#1441,.T.);
#1443=EDGE_LOOP('',(#1427,#1434,#1435,#1442));
#1444=FACE_OUTER_BOUND('',#1443,.T.);
#1445=ADVANCED_FACE('',(#1444),#1416,.T.);
#1446=CARTESIAN_POINT('',(0.262583520538454,-0.25,0.697162137078438));
#1447=DIRECTION('',(0.106404077035734,8.141783E-017,0.994322971870898));
#1448=DIRECTION('',(-0.703092516099473,-0.707106781186547,0.075239044417861));
#1449=AXIS2_PLACEMENT_3D('',#1446,#1447,#1448);
#1450=CYLINDRICAL_SURFACE('',#1449,0.05);
#1451=CARTESIAN_POINT('',(0.500260686263405,-0.3,2.918203589184826));
#1452=VERTEX_POINT('',#1451);
#1453=CARTESIAN_POINT('',(0.450544537669861,-0.25,2.923523793036612));
#1454=VERTEX_POINT('',#1453);
#1455=CARTESIAN_POINT('',(0.500260686263405,-0.25,2.918203589184826));
#1456=DIRECTION('',(-0.106404077035727,0.0,-0.994322971870898));
#1457=DIRECTION('',(0.0,-1.0,0.0));
#1458=AXIS2_PLACEMENT_3D('',#1455,#1456,#1457);
#1459=CIRCLE('',#1458,0.05);
#1460=EDGE_CURVE('',#1452,#1454,#1459,.T.);
#1461=ORIENTED_EDGE('',*,*,#1460,.T.);
#1462=CARTESIAN_POINT('',(0.450544537669861,-0.25,2.923523793036613));
#1463=DIRECTION('',(-0.106404077035734,-8.875250E-017,-0.994322971870898));
#1464=VECTOR('',#1463,2.814570556373084);
#1465=LINE('',#1462,#1464);
#1466=EDGE_CURVE('',#1454,#1420,#1465,.T.);
#1467=ORIENTED_EDGE('',*,*,#1466,.T.);
#1468=ORIENTED_EDGE('',*,*,#1426,.F.);
#1469=CARTESIAN_POINT('',(0.200778903960576,-0.3,0.119611429031615));
#1470=DIRECTION('',(0.106404077035734,7.889111E-017,0.994322971870898));
#1471=VECTOR('',#1470,2.814570556373085);
#1472=LINE('',#1469,#1471);
#1473=EDGE_CURVE('',#1418,#1452,#1472,.T.);
#1474=ORIENTED_EDGE('',*,*,#1473,.T.);
#1475=EDGE_LOOP('',(#1461,#1467,#1468,#1474));
#1476=FACE_OUTER_BOUND('',#1475,.T.);
#1477=ADVANCED_FACE('',(#1476),#1450,.T.);
#1478=CARTESIAN_POINT('',(1.444867509540759,-0.25,2.817119716000879));
#1479=DIRECTION('',(-2.323567E-016,1.0,-5.701782E-017));
#1480=DIRECTION('',(0.0,0.0,1.0));
#1481=AXIS2_PLACEMENT_3D('',#1478,#1479,#1480);
#1482=TOROIDAL_SURFACE('',#1481,0.95,0.05);
#1483=CARTESIAN_POINT('',(0.758555442508898,-0.3,3.47398785090046));
#1484=VERTEX_POINT('',#1483);
#1485=CARTESIAN_POINT('',(0.758555442508898,-0.25,3.47398785090046));
#1486=DIRECTION('',(-0.691440141999563,0.0,-0.722433754770376));
#1487=DIRECTION('',(0.0,-1.0,0.0));
#1488=AXIS2_PLACEMENT_3D('',#1485,#1486,#1487);
#1489=CIRCLE('',#1488,0.05);
#1490=EDGE_CURVE('',#1484,#579,#1489,.T.);
#1491=ORIENTED_EDGE('',*,*,#1490,.T.);
#1492=CARTESIAN_POINT('',(1.444867509540759,-0.25,2.817119716000879));
#1493=DIRECTION('',(1.698988E-016,-1.0,-7.895864E-017));
#1494=DIRECTION('',(-0.906851814765846,-1.873501E-016,0.42144962457676));
#1495=AXIS2_PLACEMENT_3D('',#1492,#1493,#1494);
#1496=CIRCLE('',#1495,1.0);
#1497=EDGE_CURVE('',#579,#1454,#1496,.T.);
#1498=ORIENTED_EDGE('',*,*,#1497,.T.);
#1499=ORIENTED_EDGE('',*,*,#1460,.F.);
#1500=CARTESIAN_POINT('',(1.444867509540759,-0.3,2.817119716000879));
#1501=DIRECTION('',(-1.692938E-016,1.0,7.867745E-017));
#1502=DIRECTION('',(-0.906851814765846,-1.866829E-016,0.42144962457676));
#1503=AXIS2_PLACEMENT_3D('',#1500,#1501,#1502);
#1504=CIRCLE('',#1503,0.95);
#1505=EDGE_CURVE('',#1452,#1484,#1504,.T.);
#1506=ORIENTED_EDGE('',*,*,#1505,.T.);
#1507=EDGE_LOOP('',(#1491,#1498,#1499,#1506));
#1508=FACE_OUTER_BOUND('',#1507,.T.);
#1509=ADVANCED_FACE('',(#1508),#1482,.T.);
#1510=CARTESIAN_POINT('',(5.549597E-016,-0.25,4.199999999999999));
#1511=DIRECTION('',(2.323567E-016,-1.0,5.701782E-017));
#1512=DIRECTION('',(0.0,0.0,-1.0));
#1513=AXIS2_PLACEMENT_3D('',#1510,#1511,#1512);
#1514=TOROIDAL_SURFACE('',#1513,1.05,0.05);
#1515=CARTESIAN_POINT('',(-0.757063502017371,-0.3,3.472432234143655));
#1516=VERTEX_POINT('',#1515);
#1517=CARTESIAN_POINT('',(-0.757063502017371,-0.25,3.472432234143655));
#1518=DIRECTION('',(-0.692921681767946,0.0,0.721012859064165));
#1519=DIRECTION('',(0.0,-1.0,0.0));
#1520=AXIS2_PLACEMENT_3D('',#1517,#1518,#1519);
#1521=CIRCLE('',#1520,0.05);
#1522=EDGE_CURVE('',#1516,#554,#1521,.T.);
#1523=ORIENTED_EDGE('',*,*,#1522,.T.);
#1524=ORIENTED_EDGE('',*,*,#591,.T.);
#1525=ORIENTED_EDGE('',*,*,#1490,.F.);
#1526=CARTESIAN_POINT('',(5.665776E-016,-0.3,4.199999999999999));
#1527=DIRECTION('',(-5.827770E-020,-1.0,5.677927E-017));
#1528=DIRECTION('',(-0.001026389873933,5.677930E-017,0.999999473261775));
#1529=AXIS2_PLACEMENT_3D('',#1526,#1527,#1528);
#1530=CIRCLE('',#1529,1.05);
#1531=EDGE_CURVE('',#1484,#1516,#1530,.T.);
#1532=ORIENTED_EDGE('',*,*,#1531,.T.);
#1533=EDGE_LOOP('',(#1523,#1524,#1525,#1532));
#1534=FACE_OUTER_BOUND('',#1533,.T.);
#1535=ADVANCED_FACE('',(#1534),#1514,.T.);
#1536=CARTESIAN_POINT('',(-1.442025718128327,-0.250000000000001,2.814156636464105));
#1537=DIRECTION('',(-2.323567E-016,1.0,-5.701782E-017));
#1538=DIRECTION('',(0.0,0.0,1.0));
#1539=AXIS2_PLACEMENT_3D('',#1536,#1537,#1538);
#1540=TOROIDAL_SURFACE('',#1539,0.95,0.05);
#1541=CARTESIAN_POINT('',(-0.497332825949916,-0.3,2.914432952050539));
#1542=VERTEX_POINT('',#1541);
#1543=CARTESIAN_POINT('',(-0.497332825949916,-0.25,2.914432952050539));
#1544=DIRECTION('',(-0.105554016406773,0.0,0.994413570714116));
#1545=DIRECTION('',(0.0,-1.0,0.0));
#1546=AXIS2_PLACEMENT_3D('',#1543,#1544,#1545);
#1547=CIRCLE('',#1546,0.05);
#1548=EDGE_CURVE('',#1542,#530,#1547,.T.);
#1549=ORIENTED_EDGE('',*,*,#1548,.T.);
#1550=ORIENTED_EDGE('',*,*,#566,.T.);
#1551=ORIENTED_EDGE('',*,*,#1522,.F.);
#1552=CARTESIAN_POINT('',(-1.442025718128327,-0.3,2.814156636464105));
#1553=DIRECTION('',(-2.127929E-016,1.0,-9.904822E-017));
#1554=DIRECTION('',(0.906599223788231,2.347155E-016,0.421992710158098));
#1555=AXIS2_PLACEMENT_3D('',#1552,#1553,#1554);
#1556=CIRCLE('',#1555,0.95);
#1557=EDGE_CURVE('',#1516,#1542,#1556,.T.);
#1558=ORIENTED_EDGE('',*,*,#1557,.T.);
#1559=EDGE_LOOP('',(#1549,#1550,#1551,#1558));
#1560=FACE_OUTER_BOUND('',#1559,.T.);
#1561=ADVANCED_FACE('',(#1560),#1540,.T.);
#1562=CARTESIAN_POINT('',(-0.410325378083095,-0.25,2.094744702779756));
#1563=DIRECTION('',(0.105554016406774,-3.217311E-017,-0.994413570714116));
#1564=DIRECTION('',(0.703156579155879,-0.707106781186547,0.074637960782711));
#1565=AXIS2_PLACEMENT_3D('',#1562,#1563,#1564);
#1566=CYLINDRICAL_SURFACE('',#1565,0.05);
#1567=CARTESIAN_POINT('',(-0.200631901330331,-0.3,0.11924394902736));
#1568=VERTEX_POINT('',#1567);
#1569=CARTESIAN_POINT('',(-0.200631901330331,-0.25,0.11924394902736));
#1570=DIRECTION('',(-0.105554016406777,0.0,0.994413570714116));
#1571=DIRECTION('',(0.0,-1.0,0.0));
#1572=AXIS2_PLACEMENT_3D('',#1569,#1570,#1571);
#1573=CIRCLE('',#1572,0.05);
#1574=EDGE_CURVE('',#1568,#505,#1573,.T.);
#1575=ORIENTED_EDGE('',*,*,#1574,.T.);
#1576=ORIENTED_EDGE('',*,*,#541,.T.);
#1577=ORIENTED_EDGE('',*,*,#1548,.F.);
#1578=CARTESIAN_POINT('',(-0.497332825949916,-0.3,2.914432952050539));
#1579=DIRECTION('',(0.105554016406773,-1.974859E-017,-0.994413570714116));
#1580=VECTOR('',#1579,2.810891851582311);
#1581=LINE('',#1578,#1580);
#1582=EDGE_CURVE('',#1542,#1568,#1581,.T.);
#1583=ORIENTED_EDGE('',*,*,#1582,.T.);
#1584=EDGE_LOOP('',(#1575,#1576,#1577,#1583));
#1585=FACE_OUTER_BOUND('',#1584,.T.);
#1586=ADVANCED_FACE('',(#1585),#1566,.T.);
#1587=CARTESIAN_POINT('',(-1.145324793508744,-0.25,0.018967633440926));
#1588=DIRECTION('',(-2.323567E-016,1.0,-5.701782E-017));
#1589=DIRECTION('',(0.0,0.0,1.0));
#1590=AXIS2_PLACEMENT_3D('',#1587,#1588,#1589);
#1591=TOROIDAL_SURFACE('',#1590,0.950000000000002,0.05);
#1592=CARTESIAN_POINT('',(-0.204305007501123,-0.3,-0.111346457670419));
#1593=VERTEX_POINT('',#1592);
#1594=CARTESIAN_POINT('',(-0.204305007501123,-0.25,-0.111346457670419));
#1595=DIRECTION('',(0.137172727485627,0.0,0.990547143165914));
#1596=DIRECTION('',(0.0,-1.0,0.0));
#1597=AXIS2_PLACEMENT_3D('',#1594,#1595,#1596);
#1598=CIRCLE('',#1597,0.05);
#1599=EDGE_CURVE('',#1593,#480,#1598,.T.);
#1600=ORIENTED_EDGE('',*,*,#1599,.T.);
#1601=ORIENTED_EDGE('',*,*,#517,.T.);
#1602=ORIENTED_EDGE('',*,*,#1574,.F.);
#1603=CARTESIAN_POINT('',(-1.145324793508744,-0.3,0.018967633440926));
#1604=DIRECTION('',(-2.313897E-016,1.0,3.685838E-018));
#1605=DIRECTION('',(0.999873155436194,2.314191E-016,-0.015927116439217));
#1606=AXIS2_PLACEMENT_3D('',#1603,#1604,#1605);
#1607=CIRCLE('',#1606,0.950000000000002);
#1608=EDGE_CURVE('',#1568,#1593,#1607,.T.);
#1609=ORIENTED_EDGE('',*,*,#1608,.T.);
#1610=EDGE_LOOP('',(#1600,#1601,#1602,#1609));
#1611=FACE_OUTER_BOUND('',#1610,.T.);
#1612=ADVANCED_FACE('',(#1611),#1591,.T.);
#1613=CARTESIAN_POINT('',(9.823393824585867,-0.249999999999997,-1.500000000000007));
#1614=DIRECTION('',(2.323567E-016,-1.0,5.701782E-017));
#1615=DIRECTION('',(0.0,0.0,-1.0));
#1616=AXIS2_PLACEMENT_3D('',#1613,#1614,#1615);
#1617=TOROIDAL_SURFACE('',#1616,10.12339382458587,0.05);
#1618=ORIENTED_EDGE('',*,*,#416,.T.);
#1619=ORIENTED_EDGE('',*,*,#492,.T.);
#1620=ORIENTED_EDGE('',*,*,#1599,.F.);
#1621=CARTESIAN_POINT('',(9.823393824585867,-0.299999999999998,-1.500000000000007));
#1622=DIRECTION('',(2.330440E-016,-1.0,2.963407E-018));
#1623=DIRECTION('',(-0.999919160432069,-2.330629E-016,-0.012715054102379));
#1624=AXIS2_PLACEMENT_3D('',#1621,#1622,#1623);
#1625=CIRCLE('',#1624,10.123393824585868);
#1626=EDGE_CURVE('',#1593,#404,#1625,.T.);
#1627=ORIENTED_EDGE('',*,*,#1626,.T.);
#1628=EDGE_LOOP('',(#1618,#1619,#1620,#1627));
#1629=FACE_OUTER_BOUND('',#1628,.T.);
#1630=ADVANCED_FACE('',(#1629),#1617,.T.);
#1631=CARTESIAN_POINT('',(0.000236688625724,-0.3,1.309400805347625));
#1632=DIRECTION('',(0.0,1.0,0.0));
#1633=DIRECTION('',(0.0,0.0,1.0));
#1634=AXIS2_PLACEMENT_3D('',#1631,#1632,#1633);
#1635=PLANE('',#1634);
#1636=ORIENTED_EDGE('',*,*,#1256,.F.);
#1637=ORIENTED_EDGE('',*,*,#424,.F.);
#1638=ORIENTED_EDGE('',*,*,#1626,.F.);
#1639=ORIENTED_EDGE('',*,*,#1608,.F.);
#1640=ORIENTED_EDGE('',*,*,#1582,.F.);
#1641=ORIENTED_EDGE('',*,*,#1557,.F.);
#1642=ORIENTED_EDGE('',*,*,#1531,.F.);
#1643=ORIENTED_EDGE('',*,*,#1505,.F.);
#1644=ORIENTED_EDGE('',*,*,#1473,.F.);
#1645=ORIENTED_EDGE('',*,*,#1441,.F.);
#1646=ORIENTED_EDGE('',*,*,#1391,.F.);
#1647=ORIENTED_EDGE('',*,*,#975,.F.);
#1648=ORIENTED_EDGE('',*,*,#1288,.F.);
#1649=ORIENTED_EDGE('',*,*,#1240,.F.);
#1650=ORIENTED_EDGE('',*,*,#1172,.F.);
#1651=ORIENTED_EDGE('',*,*,#1108,.F.);
#1652=ORIENTED_EDGE('',*,*,#1024,.F.);
#1653=ORIENTED_EDGE('',*,*,#1066,.F.);
#1654=ORIENTED_EDGE('',*,*,#1133,.F.);
#1655=ORIENTED_EDGE('',*,*,#1198,.F.);
#1656=EDGE_LOOP('',(#1636,#1637,#1638,#1639,#1640,#1641,#1642,#1643,#1644,#1645,#1646,#1647,#1648,#1649,#1650,#1651,#1652,#1653,#1654,#1655));
#1657=FACE_OUTER_BOUND('',#1656,.T.);
#1658=ADVANCED_FACE('',(#1657),#1635,.F.);
#1659=CARTESIAN_POINT('',(1.444867509540758,0.3,2.817119716000879));
#1660=DIRECTION('',(2.775558E-016,-1.0,0.0));
#1661=DIRECTION('',(-0.906851814765846,-2.517019E-016,0.421449624576761));
#1662=AXIS2_PLACEMENT_3D('',#1659,#1660,#1661);
#1663=CYLINDRICAL_SURFACE('',#1662,0.8);
#1664=ORIENTED_EDGE('',*,*,#704,.F.);
#1665=ORIENTED_EDGE('',*,*,#1373,.T.);
#1666=ORIENTED_EDGE('',*,*,#1100,.F.);
#1667=CARTESIAN_POINT('',(0.64940913204404,0.25,2.902242977629466));
#1668=DIRECTION('',(0.0,-1.0,0.0));
#1669=VECTOR('',#1668,0.5);
#1670=LINE('',#1667,#1669);
#1671=EDGE_CURVE('',#681,#1087,#1670,.T.);
#1672=ORIENTED_EDGE('',*,*,#1671,.F.);
#1673=EDGE_LOOP('',(#1664,#1665,#1666,#1672));
#1674=FACE_OUTER_BOUND('',#1673,.T.);
#1675=ADVANCED_FACE('',(#1674),#1663,.F.);
#1676=CARTESIAN_POINT('',(0.64940913204404,0.3,2.902242977629466));
#1677=DIRECTION('',(0.994322971870898,2.759801E-016,-0.106404077035734));
#1678=DIRECTION('',(-0.106404077035734,0.0,-0.994322971870898));
#1679=AXIS2_PLACEMENT_3D('',#1676,#1677,#1678);
#1680=PLANE('',#1679);
#1681=ORIENTED_EDGE('',*,*,#768,.F.);
#1682=ORIENTED_EDGE('',*,*,#1671,.T.);
#1683=ORIENTED_EDGE('',*,*,#1165,.F.);
#1684=CARTESIAN_POINT('',(0.349927349741211,0.25,0.103650817476254));
#1685=DIRECTION('',(0.0,-1.0,0.0));
#1686=VECTOR('',#1685,0.5);
#1687=LINE('',#1684,#1686);
#1688=EDGE_CURVE('',#747,#1153,#1687,.T.);
#1689=ORIENTED_EDGE('',*,*,#1688,.F.);
#1690=EDGE_LOOP('',(#1681,#1682,#1683,#1689));
#1691=FACE_OUTER_BOUND('',#1690,.T.);
#1692=ADVANCED_FACE('',(#1691),#1680,.T.);
#1693=CARTESIAN_POINT('',(1.145385727237914,0.3,0.018527555847659));
#1694=DIRECTION('',(2.775558E-016,-1.0,0.0));
#1695=DIRECTION('',(-0.999880182674481,-2.775225E-016,-0.015479673602709));
#1696=AXIS2_PLACEMENT_3D('',#1693,#1694,#1695);
#1697=CYLINDRICAL_SURFACE('',#1696,0.799999999999985);
#1698=ORIENTED_EDGE('',*,*,#836,.F.);
#1699=ORIENTED_EDGE('',*,*,#1688,.T.);
#1700=ORIENTED_EDGE('',*,*,#1232,.F.);
#1701=CARTESIAN_POINT('',(0.352943610533275,0.25,-0.091178832629265));
#1702=DIRECTION('',(0.0,-1.0,0.0));
#1703=VECTOR('',#1702,0.5);
#1704=LINE('',#1701,#1703);
#1705=EDGE_CURVE('',#813,#1219,#1704,.T.);
#1706=ORIENTED_EDGE('',*,*,#1705,.F.);
#1707=EDGE_LOOP('',(#1698,#1699,#1700,#1706));
#1708=FACE_OUTER_BOUND('',#1707,.T.);
#1709=ADVANCED_FACE('',(#1708),#1697,.F.);
#1710=CARTESIAN_POINT('',(-9.823393824585946,0.299999999999998,-1.499999999999994));
#1711=DIRECTION('',(2.775558E-016,-1.0,0.0));
#1712=DIRECTION('',(0.999918905160292,2.775332E-016,-0.012735112996879));
#1713=AXIS2_PLACEMENT_3D('',#1710,#1711,#1712);
#1714=CYLINDRICAL_SURFACE('',#1713,10.273393824585945);
#1715=ORIENTED_EDGE('',*,*,#900,.F.);
#1716=ORIENTED_EDGE('',*,*,#1705,.T.);
#1717=ORIENTED_EDGE('',*,*,#1280,.F.);
#1718=ORIENTED_EDGE('',*,*,#952,.F.);
#1719=EDGE_LOOP('',(#1715,#1716,#1717,#1718));
#1720=FACE_OUTER_BOUND('',#1719,.T.);
#1721=ADVANCED_FACE('',(#1720),#1714,.T.);
#1722=CARTESIAN_POINT('',(-9.823393824585942,0.299999999999998,-1.499999999999995));
#1723=DIRECTION('',(2.775558E-016,-1.0,0.0));
#1724=DIRECTION('',(0.999918905160292,2.775332E-016,-0.012735112996879));
#1725=AXIS2_PLACEMENT_3D('',#1722,#1723,#1724);
#1726=CYLINDRICAL_SURFACE('',#1725,10.073393824585942);
#1727=ORIENTED_EDGE('',*,*,#336,.F.);
#1728=ORIENTED_EDGE('',*,*,#996,.T.);
#1729=ORIENTED_EDGE('',*,*,#1407,.F.);
#1730=CARTESIAN_POINT('',(0.154833081357114,0.25,-0.118605429748501));
#1731=DIRECTION('',(0.0,-1.0,0.0));
#1732=VECTOR('',#1731,0.5);
#1733=LINE('',#1730,#1732);
#1734=EDGE_CURVE('',#249,#1394,#1733,.T.);
#1735=ORIENTED_EDGE('',*,*,#1734,.F.);
#1736=EDGE_LOOP('',(#1727,#1728,#1729,#1735));
#1737=FACE_OUTER_BOUND('',#1736,.T.);
#1738=ADVANCED_FACE('',(#1737),#1726,.F.);
#1739=CARTESIAN_POINT('',(1.145385727237928,0.3,0.018527555847664));
#1740=DIRECTION('',(2.775558E-016,-1.0,0.0));
#1741=DIRECTION('',(-0.999880182674481,-2.775225E-016,-0.015479673602717));
#1742=AXIS2_PLACEMENT_3D('',#1739,#1740,#1741);
#1743=CYLINDRICAL_SURFACE('',#1742,0.999999999999999);
#1744=ORIENTED_EDGE('',*,*,#262,.F.);
#1745=ORIENTED_EDGE('',*,*,#1734,.T.);
#1746=ORIENTED_EDGE('',*,*,#1433,.F.);
#1747=CARTESIAN_POINT('',(0.151062755367031,0.25,0.124931632883402));
#1748=DIRECTION('',(0.0,-1.0,0.0));
#1749=VECTOR('',#1748,0.5);
#1750=LINE('',#1747,#1749);
#1751=EDGE_CURVE('',#185,#1420,#1750,.T.);
#1752=ORIENTED_EDGE('',*,*,#1751,.F.);
#1753=EDGE_LOOP('',(#1744,#1745,#1746,#1752));
#1754=FACE_OUTER_BOUND('',#1753,.T.);
#1755=ADVANCED_FACE('',(#1754),#1743,.T.);
#1756=CARTESIAN_POINT('',(0.151062755367031,0.3,0.124931632883402));
#1757=DIRECTION('',(-0.994322971870898,-2.759801E-016,0.106404077035734));
#1758=DIRECTION('',(0.106404077035734,0.0,0.994322971870898));
#1759=AXIS2_PLACEMENT_3D('',#1756,#1757,#1758);
#1760=PLANE('',#1759);
#1761=ORIENTED_EDGE('',*,*,#197,.F.);
#1762=ORIENTED_EDGE('',*,*,#1751,.T.);
#1763=ORIENTED_EDGE('',*,*,#1466,.F.);
#1764=CARTESIAN_POINT('',(0.45054453766986,0.25,2.923523793036612));
#1765=DIRECTION('',(0.0,-1.0,0.0));
#1766=VECTOR('',#1765,0.5);
#1767=LINE('',#1764,#1766);
#1768=EDGE_CURVE('',#117,#1454,#1767,.T.);
#1769=ORIENTED_EDGE('',*,*,#1768,.F.);
#1770=EDGE_LOOP('',(#1761,#1762,#1763,#1769));
#1771=FACE_OUTER_BOUND('',#1770,.T.);
#1772=ADVANCED_FACE('',(#1771),#1760,.T.);
#1773=CARTESIAN_POINT('',(1.444867509540758,0.3,2.817119716000879));
#1774=DIRECTION('',(2.775558E-016,-1.0,0.0));
#1775=DIRECTION('',(-0.906851814765846,-2.517019E-016,0.421449624576761));
#1776=AXIS2_PLACEMENT_3D('',#1773,#1774,#1775);
#1777=CYLINDRICAL_SURFACE('',#1776,1.0);
#1778=ORIENTED_EDGE('',*,*,#130,.F.);
#1779=ORIENTED_EDGE('',*,*,#1768,.T.);
#1780=ORIENTED_EDGE('',*,*,#1497,.F.);
#1781=ORIENTED_EDGE('',*,*,#584,.F.);
#1782=EDGE_LOOP('',(#1778,#1779,#1780,#1781));
#1783=FACE_OUTER_BOUND('',#1782,.T.);
#1784=ADVANCED_FACE('',(#1783),#1777,.T.);
#1785=CLOSED_SHELL('',(#108,#142,#176,#208,#240,#274,#308,#348,#388,#472,#497,#522,#546,#571,#596,#640,#674,#708,#740,#772,#806,#840,#864,#904,#937,#1000,#1044,#1078,#1112,#1144,#1176,#1210,#1244,#1268,#1292,#1309,#1326,#1343,#1360,#1377,#1411,#1445,#1477,#1509,#1535,#1561,#1586,#1612,#1630,#1658,#1675,#1692,#1709,#1721,#1738,#1755,#1772,#1784));
#1786=MANIFOLD_SOLID_BREP('207',#1785);
#1787=COLOUR_RGB('254',0.866,0.866,0.866);
#1788=SURFACE_STYLE_USAGE(.BOTH.,#1789);
#1789=SURFACE_SIDE_STYLE('NONE',(#1790));
#1790=SURFACE_STYLE_FILL_AREA(#1791);
#1791=FILL_AREA_STYLE('NONE',(#1792));
#1792=FILL_AREA_STYLE_COLOUR('NONE',#1787);
#1793=PRESENTATION_STYLE_ASSIGNMENT((#1788));
#1794=STYLED_ITEM('NONE',(#1793),#1786);
#1795=MECHANICAL_DESIGN_GEOMETRIC_PRESENTATION_REPRESENTATION('NONE',(#1794,#1966),#28);
#1796=PRESENTATION_LAYER_ASSIGNMENT('3D','None',(#1786,#1958));
#1797=CARTESIAN_POINT('',(0.0,0.0,0.0));
#1798=DIRECTION('',(0.0,2.449213E-016,1.0));
#1799=DIRECTION('',(1.0,0.0,0.0));
#1800=AXIS2_PLACEMENT_3D('',#1797,#1798,#1799);
#1801=CYLINDRICAL_SURFACE('',#1800,1.5);
#1802=CARTESIAN_POINT('',(1.5,7.592559E-016,3.1));
#1803=VERTEX_POINT('',#1802);
#1804=CARTESIAN_POINT('',(1.5,-4.930381E-032,-7.821382E-032));
#1805=VERTEX_POINT('',#1804);
#1806=CARTESIAN_POINT('',(1.5,7.592559E-016,3.100000000000001));
#1807=DIRECTION('',(0.0,0.0,-1.0));
#1808=VECTOR('',#1807,3.100000000000001);
#1809=LINE('',#1806,#1808);
#1810=EDGE_CURVE('',#1803,#1805,#1809,.T.);
#1811=ORIENTED_EDGE('',*,*,#1810,.F.);
#1812=CARTESIAN_POINT('',(-1.5,5.755589E-016,3.100000000000001));
#1813=VERTEX_POINT('',#1812);
#1814=CARTESIAN_POINT('',(9.860761E-032,7.592559E-016,3.1));
#1815=DIRECTION('',(0.0,0.0,-1.0));
#1816=DIRECTION('',(1.0,0.0,0.0));
#1817=AXIS2_PLACEMENT_3D('',#1814,#1815,#1816);
#1818=CIRCLE('',#1817,1.5);
#1819=EDGE_CURVE('',#1803,#1813,#1818,.T.);
#1820=ORIENTED_EDGE('',*,*,#1819,.T.);
#1821=CARTESIAN_POINT('',(-1.5,-1.836970E-016,4.499131E-032));
#1822=VERTEX_POINT('',#1821);
#1823=CARTESIAN_POINT('',(-1.5,5.755589E-016,3.100000000000001));
#1824=DIRECTION('',(0.0,0.0,-1.0));
#1825=VECTOR('',#1824,3.100000000000001);
#1826=LINE('',#1823,#1825);
#1827=EDGE_CURVE('',#1813,#1822,#1826,.T.);
#1828=ORIENTED_EDGE('',*,*,#1827,.T.);
#1829=CARTESIAN_POINT('',(0.0,0.0,0.0));
#1830=DIRECTION('',(0.0,0.0,1.0));
#1831=DIRECTION('',(1.0,0.0,0.0));
#1832=AXIS2_PLACEMENT_3D('',#1829,#1830,#1831);
#1833=CIRCLE('',#1832,1.5);
#1834=EDGE_CURVE('',#1822,#1805,#1833,.T.);
#1835=ORIENTED_EDGE('',*,*,#1834,.T.);
#1836=EDGE_LOOP('',(#1811,#1820,#1828,#1835));
#1837=FACE_OUTER_BOUND('',#1836,.T.);
#1838=ADVANCED_FACE('',(#1837),#1801,.T.);
#1839=CARTESIAN_POINT('',(0.0,0.0,0.0));
#1840=DIRECTION('',(0.0,2.449213E-016,1.0));
#1841=DIRECTION('',(1.0,0.0,0.0));
#1842=AXIS2_PLACEMENT_3D('',#1839,#1840,#1841);
#1843=CYLINDRICAL_SURFACE('',#1842,0.8);
#1844=CARTESIAN_POINT('',(0.8,-2.465190E-032,-3.842712E-032));
#1845=VERTEX_POINT('',#1844);
#1846=CARTESIAN_POINT('',(0.8,7.592559E-016,3.1));
#1847=VERTEX_POINT('',#1846);
#1848=CARTESIAN_POINT('',(0.8,-2.465190E-032,-3.842712E-032));
#1849=DIRECTION('',(0.0,0.0,1.0));
#1850=VECTOR('',#1849,3.1);
#1851=LINE('',#1848,#1850);
#1852=EDGE_CURVE('',#1845,#1847,#1851,.T.);
#1853=ORIENTED_EDGE('',*,*,#1852,.F.);
#1854=CARTESIAN_POINT('',(-0.8,-9.797174E-017,2.399536E-032));
#1855=VERTEX_POINT('',#1854);
#1856=CARTESIAN_POINT('',(0.0,0.0,0.0));
#1857=DIRECTION('',(0.0,0.0,1.0));
#1858=DIRECTION('',(1.0,0.0,0.0));
#1859=AXIS2_PLACEMENT_3D('',#1856,#1857,#1858);
#1860=CIRCLE('',#1859,0.8);
#1861=EDGE_CURVE('',#1855,#1845,#1860,.T.);
#1862=ORIENTED_EDGE('',*,*,#1861,.F.);
#1863=CARTESIAN_POINT('',(-0.8,6.612842E-016,3.1));
#1864=VERTEX_POINT('',#1863);
#1865=CARTESIAN_POINT('',(-0.8,-9.797174E-017,2.399536E-032));
#1866=DIRECTION('',(0.0,0.0,1.0));
#1867=VECTOR('',#1866,3.1);
#1868=LINE('',#1865,#1867);
#1869=EDGE_CURVE('',#1855,#1864,#1868,.T.);
#1870=ORIENTED_EDGE('',*,*,#1869,.T.);
#1871=CARTESIAN_POINT('',(9.860761E-032,7.592559E-016,3.1));
#1872=DIRECTION('',(0.0,0.0,-1.0));
#1873=DIRECTION('',(1.0,0.0,0.0));
#1874=AXIS2_PLACEMENT_3D('',#1871,#1872,#1873);
#1875=CIRCLE('',#1874,0.8);
#1876=EDGE_CURVE('',#1847,#1864,#1875,.T.);
#1877=ORIENTED_EDGE('',*,*,#1876,.F.);
#1878=EDGE_LOOP('',(#1853,#1862,#1870,#1877));
#1879=FACE_OUTER_BOUND('',#1878,.T.);
#1880=ADVANCED_FACE('',(#1879),#1843,.F.);
#1881=CARTESIAN_POINT('',(0.0,0.0,0.0));
#1882=DIRECTION('',(0.0,2.449213E-016,1.0));
#1883=DIRECTION('',(1.0,0.0,0.0));
#1884=AXIS2_PLACEMENT_3D('',#1881,#1882,#1883);
#1885=CYLINDRICAL_SURFACE('',#1884,0.8);
#1886=ORIENTED_EDGE('',*,*,#1852,.T.);
#1887=CARTESIAN_POINT('',(9.860761E-032,7.592559E-016,3.1));
#1888=DIRECTION('',(0.0,0.0,-1.0));
#1889=DIRECTION('',(1.0,0.0,0.0));
#1890=AXIS2_PLACEMENT_3D('',#1887,#1888,#1889);
#1891=CIRCLE('',#1890,0.8);
#1892=EDGE_CURVE('',#1864,#1847,#1891,.T.);
#1893=ORIENTED_EDGE('',*,*,#1892,.F.);
#1894=ORIENTED_EDGE('',*,*,#1869,.F.);
#1895=CARTESIAN_POINT('',(0.0,0.0,0.0));
#1896=DIRECTION('',(0.0,0.0,1.0));
#1897=DIRECTION('',(1.0,0.0,0.0));
#1898=AXIS2_PLACEMENT_3D('',#1895,#1896,#1897);
#1899=CIRCLE('',#1898,0.8);
#1900=EDGE_CURVE('',#1845,#1855,#1899,.T.);
#1901=ORIENTED_EDGE('',*,*,#1900,.F.);
#1902=EDGE_LOOP('',(#1886,#1893,#1894,#1901));
#1903=FACE_OUTER_BOUND('',#1902,.T.);
#1904=ADVANCED_FACE('',(#1903),#1885,.F.);
#1905=CARTESIAN_POINT('',(0.0,0.0,0.0));
#1906=DIRECTION('',(0.0,2.449213E-016,1.0));
#1907=DIRECTION('',(1.0,0.0,0.0));
#1908=AXIS2_PLACEMENT_3D('',#1905,#1906,#1907);
#1909=CYLINDRICAL_SURFACE('',#1908,1.5);
#1910=ORIENTED_EDGE('',*,*,#1810,.T.);
#1911=CARTESIAN_POINT('',(0.0,0.0,0.0));
#1912=DIRECTION('',(0.0,0.0,1.0));
#1913=DIRECTION('',(1.0,0.0,0.0));
#1914=AXIS2_PLACEMENT_3D('',#1911,#1912,#1913);
#1915=CIRCLE('',#1914,1.5);
#1916=EDGE_CURVE('',#1805,#1822,#1915,.T.);
#1917=ORIENTED_EDGE('',*,*,#1916,.T.);
#1918=ORIENTED_EDGE('',*,*,#1827,.F.);
#1919=CARTESIAN_POINT('',(9.860761E-032,7.592559E-016,3.1));
#1920=DIRECTION('',(0.0,0.0,-1.0));
#1921=DIRECTION('',(1.0,0.0,0.0));
#1922=AXIS2_PLACEMENT_3D('',#1919,#1920,#1921);
#1923=CIRCLE('',#1922,1.5);
#1924=EDGE_CURVE('',#1813,#1803,#1923,.T.);
#1925=ORIENTED_EDGE('',*,*,#1924,.T.);
#1926=EDGE_LOOP('',(#1910,#1917,#1918,#1925));
#1927=FACE_OUTER_BOUND('',#1926,.T.);
#1928=ADVANCED_FACE('',(#1927),#1909,.T.);
#1929=CARTESIAN_POINT('',(9.860761E-032,7.592559E-016,3.1));
#1930=DIRECTION('',(0.0,0.0,1.0));
#1931=DIRECTION('',(1.0,0.0,0.0));
#1932=AXIS2_PLACEMENT_3D('',#1929,#1930,#1931);
#1933=PLANE('',#1932);
#1934=ORIENTED_EDGE('',*,*,#1819,.F.);
#1935=ORIENTED_EDGE('',*,*,#1924,.F.);
#1936=EDGE_LOOP('',(#1934,#1935));
#1937=FACE_OUTER_BOUND('',#1936,.T.);
#1938=ORIENTED_EDGE('',*,*,#1876,.T.);
#1939=ORIENTED_EDGE('',*,*,#1892,.T.);
#1940=EDGE_LOOP('',(#1938,#1939));
#1941=FACE_BOUND('',#1940,.T.);
#1942=ADVANCED_FACE('',(#1937,#1941),#1933,.T.);
#1943=CARTESIAN_POINT('',(0.0,0.0,0.0));
#1944=DIRECTION('',(0.0,0.0,1.0));
#1945=DIRECTION('',(1.0,0.0,0.0));
#1946=AXIS2_PLACEMENT_3D('',#1943,#1944,#1945);
#1947=PLANE('',#1946);
#1948=ORIENTED_EDGE('',*,*,#1916,.F.);
#1949=ORIENTED_EDGE('',*,*,#1834,.F.);
#1950=EDGE_LOOP('',(#1948,#1949));
#1951=FACE_OUTER_BOUND('',#1950,.T.);
#1952=ORIENTED_EDGE('',*,*,#1900,.T.);
#1953=ORIENTED_EDGE('',*,*,#1861,.T.);
#1954=EDGE_LOOP('',(#1952,#1953));
#1955=FACE_BOUND('',#1954,.T.);
#1956=ADVANCED_FACE('',(#1951,#1955),#1947,.F.);
#1957=CLOSED_SHELL('',(#1838,#1880,#1904,#1928,#1942,#1956));
#1958=MANIFOLD_SOLID_BREP('120',#1957);
#1959=COLOUR_RGB('250',0.33,0.33,0.33);
#1960=SURFACE_STYLE_USAGE(.BOTH.,#1961);
#1961=SURFACE_SIDE_STYLE('NONE',(#1962));
#1962=SURFACE_STYLE_FILL_AREA(#1963);
#1963=FILL_AREA_STYLE('NONE',(#1964));
#1964=FILL_AREA_STYLE_COLOUR('NONE',#1959);
#1965=PRESENTATION_STYLE_ASSIGNMENT((#1960));
#1966=STYLED_ITEM('NONE',(#1965),#1958);
#1967=ADVANCED_BREP_SHAPE_REPRESENTATION('ABSR1',(#1786,#1958),#28);
#1968=SHAPE_REPRESENTATION_RELATIONSHIP('SRRPL1','',#1967,#62);
ENDSEC;
END-ISO-10303-21;
