ISO-10303-21;
HEADER;
/****************************************************************
 * Generated by software with PDElib inside                    *
 * PDElib Version v51a, created Fri 09/10/2010                  *
 * ITI Transcendata (http://www.transcendata.com/)              *
 ****************************************************************/
FILE_DESCRIPTION((''),'2;1');
FILE_NAME('VISHAY_1.5KE.stp','2012-12-11T11:24:09',(''),(''),'Mechanical Desktop 2011','Mechanical Desktop 2011',', , ');
FILE_SCHEMA(('AUTOMOTIVE_DESIGN { 1 2 10303 214 1 1 1 1 }'));
ENDSEC;
DATA;
#10=(NAMED_UNIT(*)PLANE_ANGLE_UNIT()SI_UNIT($,.RADIAN.));
#11=DIMENSIONAL_EXPONENTS(0.0,0.0,0.0,0.0,0.0,0.0,0.0);
#12=PLANE_ANGLE_MEASURE_WITH_UNIT(PLANE_ANGLE_MEASURE(0.0174532925),#10);
#16=(CONVERSION_BASED_UNIT('DEGREE',#12)NAMED_UNIT(#11)PLANE_ANGLE_UNIT());
#20=(NAMED_UNIT(*)SI_UNIT($,.STERADIAN.)SOLID_ANGLE_UNIT());
#24=(LENGTH_UNIT()NAMED_UNIT(*)SI_UNIT(.MILLI.,.METRE.));
#26=UNCERTAINTY_MEASURE_WITH_UNIT(LENGTH_MEASURE(0.000001),#24,'DISTANCE_ACCURACY_VALUE','');
#28=(GEOMETRIC_REPRESENTATION_CONTEXT(3)GLOBAL_UNCERTAINTY_ASSIGNED_CONTEXT((#26))GLOBAL_UNIT_ASSIGNED_CONTEXT((#16,#20,#24))REPRESENTATION_CONTEXT('','3D'));
#29=APPLICATION_CONTEXT('automotive design');
#30=APPLICATION_PROTOCOL_DEFINITION('INTERNATIONAL_STANDARD','automotive_design',1998,#29);
#31=PRODUCT_CONTEXT('3D Mechanical Parts',#29,'mechanical');
#32=PRODUCT('Product','Product','',(#31));
#33=PRODUCT_RELATED_PRODUCT_CATEGORY('part',$,(#32));
#34=PRODUCT_CATEGORY('part',$);
#35=PERSON('1','Design','Joe',$,$,$);
#36=ORGANIZATION($,'None','None');
#37=PERSON_AND_ORGANIZATION(#35,#36);
#38=PERSON_AND_ORGANIZATION_ROLE('design_owner');
#39=APPLIED_PERSON_AND_ORGANIZATION_ASSIGNMENT(#37,#38,(#32));
#40=PRODUCT_DEFINITION_FORMATION_WITH_SPECIFIED_SOURCE('None','',#32,.BOUGHT.);
#41=PERSON('2','Creator','Joe',$,$,$);
#42=ORGANIZATION($,'None','None');
#43=PERSON_AND_ORGANIZATION(#41,#42);
#44=PERSON_AND_ORGANIZATION_ROLE('creator');
#45=APPLIED_PERSON_AND_ORGANIZATION_ASSIGNMENT(#43,#44,(#40));
#46=PERSON('3','Supplier','Joe',$,$,$);
#47=ORGANIZATION($,'None','None');
#48=PERSON_AND_ORGANIZATION(#46,#47);
#49=PERSON_AND_ORGANIZATION_ROLE('design_supplier');
#50=APPLIED_PERSON_AND_ORGANIZATION_ASSIGNMENT(#48,#49,(#40));
#51=PRODUCT_DEFINITION_CONTEXT('part definition',#29,'design');
#52=PRODUCT_DEFINITION('None','',#40,#51);
#53=PERSON('4','Creator','Joe',$,$,$);
#54=ORGANIZATION($,'None','None');
#55=PERSON_AND_ORGANIZATION(#53,#54);
#56=PERSON_AND_ORGANIZATION_ROLE('creator');
#57=APPLIED_PERSON_AND_ORGANIZATION_ASSIGNMENT(#55,#56,(#52));
#58=CARTESIAN_POINT('NONE',(0.0,0.0,0.0));
#59=DIRECTION('NONE',(0.0,0.0,1.0));
#60=DIRECTION('NONE',(1.0,0.0,0.0));
#61=AXIS2_PLACEMENT_3D('NONE',#58,#59,#60);
#62=SHAPE_REPRESENTATION('SR1',(#61),#28);
#63=PRODUCT_DEFINITION_SHAPE('PDS1','Test Part',#52);
#64=SHAPE_DEFINITION_REPRESENTATION(#63,#62);
#65=CARTESIAN_POINT('',(8.16,2.286905E-016,-0.815000000000002));
#66=CARTESIAN_POINT('',(8.16,-0.535,-0.815000000000001));
#67=CARTESIAN_POINT('',(8.16,-0.535,-1.350000000000002));
#68=CARTESIAN_POINT('',(8.16,-0.535000000000001,-1.885000000000003));
#69=CARTESIAN_POINT('',(8.16,1.443290E-016,-1.885000000000002));
#70=CARTESIAN_POINT('',(9.625,2.286905E-016,-0.815000000000002));
#71=CARTESIAN_POINT('',(9.625,-0.535,-0.815000000000001));
#72=CARTESIAN_POINT('',(10.16,-0.535,-1.350000000000001));
#73=CARTESIAN_POINT('',(10.695,-0.535000000000001,-1.885000000000002));
#74=CARTESIAN_POINT('',(10.695,1.443290E-016,-1.885000000000002));
#75=CARTESIAN_POINT('',(9.625,5.539858E-016,0.649999999999998));
#76=CARTESIAN_POINT('',(9.625,-0.535,0.649999999999998));
#77=CARTESIAN_POINT('',(10.16,-0.535,0.649999999999998));
#78=CARTESIAN_POINT('',(10.695,-0.535,0.649999999999998));
#79=CARTESIAN_POINT('',(10.695,7.072121E-016,0.649999999999998));
#80=CARTESIAN_POINT('',(9.625,8.792812E-016,2.114999999999998));
#81=CARTESIAN_POINT('',(9.625,-0.535,2.114999999999997));
#82=CARTESIAN_POINT('',(10.16,-0.535,2.649999999999998));
#83=CARTESIAN_POINT('',(10.695,-0.534999999999999,3.184999999999998));
#84=CARTESIAN_POINT('',(10.695,1.270095E-015,3.184999999999998));
#85=CARTESIAN_POINT('',(8.16,8.792812E-016,2.114999999999998));
#86=CARTESIAN_POINT('',(8.16,-0.535,2.114999999999998));
#87=CARTESIAN_POINT('',(8.16,-0.535,2.649999999999998));
#88=CARTESIAN_POINT('',(8.16,-0.534999999999999,3.184999999999999));
#89=CARTESIAN_POINT('',(8.16,1.270095E-015,3.184999999999998));
#90=CARTESIAN_POINT('',(6.695000000000001,8.792812E-016,2.114999999999998));
#91=CARTESIAN_POINT('',(6.695000000000001,-0.535,2.114999999999997));
#92=CARTESIAN_POINT('',(6.16,-0.535,2.649999999999998));
#93=CARTESIAN_POINT('',(5.625,-0.534999999999999,3.184999999999998));
#94=CARTESIAN_POINT('',(5.625,1.270095E-015,3.184999999999998));
#95=CARTESIAN_POINT('',(6.695,5.539858E-016,0.649999999999998));
#96=CARTESIAN_POINT('',(6.695,-0.535,0.649999999999998));
#97=CARTESIAN_POINT('',(6.16,-0.535,0.649999999999998));
#98=CARTESIAN_POINT('',(5.625,-0.535,0.649999999999998));
#99=CARTESIAN_POINT('',(5.625,7.072121E-016,0.649999999999998));
#100=CARTESIAN_POINT('',(6.695000000000001,2.286905E-016,-0.815000000000002));
#101=CARTESIAN_POINT('',(6.695000000000001,-0.535,-0.815000000000001));
#102=CARTESIAN_POINT('',(6.16,-0.535,-1.350000000000001));
#103=CARTESIAN_POINT('',(5.625,-0.535000000000001,-1.885000000000002));
#104=CARTESIAN_POINT('',(5.625,1.443290E-016,-1.885000000000002));
#105=CARTESIAN_POINT('',(8.16,2.286905E-016,-0.815000000000002));
#106=CARTESIAN_POINT('',(8.16,-0.535,-0.815000000000001));
#107=CARTESIAN_POINT('',(8.16,-0.535,-1.350000000000002));
#108=CARTESIAN_POINT('',(8.16,-0.535000000000001,-1.885000000000003));
#109=CARTESIAN_POINT('',(8.16,1.443290E-016,-1.885000000000002));
#117=(BOUNDED_SURFACE()B_SPLINE_SURFACE(2,2,((#65,#70,#75,#80,#85,#90,#95,#100,#105),(#66,#71,#76,#81,#86,#91,#96,#101,#106),(#67,#72,#77,#82,#87,#92,#97,#102,#107),(#68,#73,#78,#83,#88,#93,#98,#103,#108),(#69,#74,#79,#84,#89,#94,#99,#104,#109)),.UNSPECIFIED.,.F.,.T.,.U.)B_SPLINE_SURFACE_WITH_KNOTS((3,2,3),(3,2,2,2,3),(-3.141592653589794,-1.570796326794897,1.052118E-015),(0.0,1.570796326794897,3.141592653589793,4.71238898038469,6.283185307179586),.UNSPECIFIED.)GEOMETRIC_REPRESENTATION_ITEM()RATIONAL_B_SPLINE_SURFACE(((1.0,0.707106781186548,1.0,0.707106781186548,1.0,0.707106781186548,1.0,0.707106781186548,1.0),(0.707106781186547,0.5,0.707106781186547,0.5,0.707106781186547,0.5,0.707106781186547,0.5,0.707106781186547),(1.0,0.707106781186548,1.0,0.707106781186548,1.0,0.707106781186548,1.0,0.707106781186548,1.0),(0.707106781186547,0.5,0.707106781186547,0.5,0.707106781186547,0.5,0.707106781186547,0.5,0.707106781186547),(1.0,0.707106781186548,1.0,0.707106781186548,1.0,0.707106781186548,1.0,0.707106781186548,1.0)))REPRESENTATION_ITEM('')SURFACE());
#118=CARTESIAN_POINT('',(8.16,6.416935E-016,3.184999999999999));
#119=VERTEX_POINT('',#118);
#120=CARTESIAN_POINT('',(10.695,7.881039E-017,0.649999999999999));
#121=VERTEX_POINT('',#120);
#122=CARTESIAN_POINT('',(8.16,1.443290E-016,0.649999999999998));
#123=DIRECTION('',(0.0,1.0,0.0));
#124=DIRECTION('',(0.0,0.0,1.0));
#125=AXIS2_PLACEMENT_3D('',#122,#123,#124);
#126=CIRCLE('',#125,2.535);
#127=EDGE_CURVE('',#119,#121,#126,.T.);
#128=ORIENTED_EDGE('',*,*,#127,.F.);
#129=CARTESIAN_POINT('',(8.16,4.696243E-016,2.114999999999998));
#130=VERTEX_POINT('',#129);
#131=CARTESIAN_POINT('',(8.16,5.884182E-016,2.649999999999999));
#132=DIRECTION('',(-1.0,0.0,0.0));
#133=DIRECTION('',(0.0,0.0,-1.0));
#134=AXIS2_PLACEMENT_3D('',#131,#132,#133);
#135=CIRCLE('',#134,0.535);
#136=EDGE_CURVE('',#130,#119,#135,.T.);
#137=ORIENTED_EDGE('',*,*,#136,.F.);
#138=CARTESIAN_POINT('',(9.625,1.443290E-016,0.649999999999997));
#139=VERTEX_POINT('',#138);
#140=CARTESIAN_POINT('',(8.16,7.881039E-017,0.649999999999998));
#141=DIRECTION('',(0.0,1.0,0.0));
#142=DIRECTION('',(0.0,0.0,1.0));
#143=AXIS2_PLACEMENT_3D('',#140,#141,#142);
#144=CIRCLE('',#143,1.465);
#145=EDGE_CURVE('',#130,#139,#144,.T.);
#146=ORIENTED_EDGE('',*,*,#145,.T.);
#147=CARTESIAN_POINT('',(10.16,1.443290E-016,0.649999999999998));
#148=DIRECTION('',(0.0,0.0,1.0));
#149=DIRECTION('',(-1.0,0.0,0.0));
#150=AXIS2_PLACEMENT_3D('',#147,#148,#149);
#151=CIRCLE('',#150,0.535);
#152=EDGE_CURVE('',#139,#121,#151,.T.);
#153=ORIENTED_EDGE('',*,*,#152,.T.);
#154=EDGE_LOOP('',(#128,#137,#146,#153));
#155=FACE_OUTER_BOUND('',#154,.T.);
#156=ADVANCED_FACE('',(#155),#117,.T.);
#157=CARTESIAN_POINT('',(10.695,-9.092881E-016,-3.799999999999999));
#158=CARTESIAN_POINT('',(10.695,7.881039E-017,0.649999999999999));
#159=CARTESIAN_POINT('',(10.695,-0.535000000000001,-3.799999999999999));
#160=CARTESIAN_POINT('',(10.695,-0.535,0.649999999999999));
#161=CARTESIAN_POINT('',(10.16,-0.535000000000001,-3.799999999999999));
#162=CARTESIAN_POINT('',(10.16,-0.535,0.649999999999999));
#163=CARTESIAN_POINT('',(9.625,-0.535000000000001,-3.799999999999999));
#164=CARTESIAN_POINT('',(9.625,-0.535,0.649999999999999));
#165=CARTESIAN_POINT('',(9.625,-7.782509E-016,-3.799999999999999));
#166=CARTESIAN_POINT('',(9.625,2.098476E-016,0.649999999999999));
#167=CARTESIAN_POINT('',(9.625,0.534999999999999,-3.799999999999999));
#168=CARTESIAN_POINT('',(9.625,0.535,0.649999999999998));
#169=CARTESIAN_POINT('',(10.16,0.534999999999999,-3.799999999999999));
#170=CARTESIAN_POINT('',(10.16,0.535,0.649999999999998));
#171=CARTESIAN_POINT('',(10.695,0.534999999999999,-3.799999999999999));
#172=CARTESIAN_POINT('',(10.695,0.535,0.649999999999998));
#173=CARTESIAN_POINT('',(10.695,-9.092881E-016,-3.799999999999999));
#174=CARTESIAN_POINT('',(10.695,7.881039E-017,0.649999999999999));
#182=(BOUNDED_SURFACE()B_SPLINE_SURFACE(1,2,((#157,#159,#161,#163,#165,#167,#169,#171,#173),(#158,#160,#162,#164,#166,#168,#170,#172,#174)),.UNSPECIFIED.,.F.,.T.,.U.)B_SPLINE_SURFACE_WITH_KNOTS((2,2),(3,2,2,2,3),(0.0,8.317757009345788),(0.0,0.84037603483527,1.680752069670539,2.521128104505809,3.361504139341079),.UNSPECIFIED.)GEOMETRIC_REPRESENTATION_ITEM()RATIONAL_B_SPLINE_SURFACE(((1.0,0.707106781186548,1.0,0.707106781186548,1.0,0.707106781186548,1.0,0.707106781186548,1.0),(1.0,0.707106781186548,1.0,0.707106781186548,1.0,0.707106781186548,1.0,0.707106781186548,1.0)))REPRESENTATION_ITEM('')SURFACE());
#183=CARTESIAN_POINT('',(9.625,-8.437695E-016,-3.799999999999999));
#184=VERTEX_POINT('',#183);
#185=CARTESIAN_POINT('',(9.625,1.443290E-016,0.649999999999997));
#186=DIRECTION('',(0.0,0.0,-1.0));
#187=VECTOR('',#186,4.449999999999996);
#188=LINE('',#185,#187);
#189=EDGE_CURVE('',#139,#184,#188,.T.);
#190=ORIENTED_EDGE('',*,*,#189,.F.);
#191=CARTESIAN_POINT('',(10.16,1.443290E-016,0.649999999999998));
#192=DIRECTION('',(0.0,0.0,1.0));
#193=DIRECTION('',(-1.0,0.0,0.0));
#194=AXIS2_PLACEMENT_3D('',#191,#192,#193);
#195=CIRCLE('',#194,0.535);
#196=EDGE_CURVE('',#121,#139,#195,.T.);
#197=ORIENTED_EDGE('',*,*,#196,.F.);
#198=CARTESIAN_POINT('',(10.695,-9.092881E-016,-3.799999999999999));
#199=VERTEX_POINT('',#198);
#200=CARTESIAN_POINT('',(10.695,7.881039E-017,0.649999999999999));
#201=DIRECTION('',(0.0,0.0,-1.0));
#202=VECTOR('',#201,4.449999999999998);
#203=LINE('',#200,#202);
#204=EDGE_CURVE('',#121,#199,#203,.T.);
#205=ORIENTED_EDGE('',*,*,#204,.T.);
#206=CARTESIAN_POINT('',(10.16,-8.437695E-016,-3.799999999999999));
#207=DIRECTION('',(0.0,0.0,-1.0));
#208=DIRECTION('',(-1.0,0.0,0.0));
#209=AXIS2_PLACEMENT_3D('',#206,#207,#208);
#210=CIRCLE('',#209,0.535);
#211=EDGE_CURVE('',#184,#199,#210,.T.);
#212=ORIENTED_EDGE('',*,*,#211,.F.);
#213=EDGE_LOOP('',(#190,#197,#205,#212));
#214=FACE_OUTER_BOUND('',#213,.T.);
#215=ADVANCED_FACE('',(#214),#182,.T.);
#216=CARTESIAN_POINT('',(8.16,6.416935E-016,3.184999999999999));
#217=CARTESIAN_POINT('',(4.750000000000001,6.416935E-016,3.184999999999999));
#218=CARTESIAN_POINT('',(8.16,-0.534999999999999,3.184999999999999));
#219=CARTESIAN_POINT('',(4.750000000000001,-0.534999999999999,3.184999999999999));
#220=CARTESIAN_POINT('',(8.16,-0.535,2.649999999999999));
#221=CARTESIAN_POINT('',(4.750000000000001,-0.535,2.649999999999999));
#222=CARTESIAN_POINT('',(8.16,-0.534999999999999,2.114999999999998));
#223=CARTESIAN_POINT('',(4.750000000000001,-0.534999999999999,2.114999999999998));
#224=CARTESIAN_POINT('',(8.16,5.351429E-016,2.114999999999998));
#225=CARTESIAN_POINT('',(4.750000000000001,5.351429E-016,2.114999999999998));
#226=CARTESIAN_POINT('',(8.16,0.535000000000001,2.114999999999998));
#227=CARTESIAN_POINT('',(4.750000000000001,0.535000000000001,2.114999999999998));
#228=CARTESIAN_POINT('',(8.16,0.535000000000001,2.649999999999999));
#229=CARTESIAN_POINT('',(4.750000000000001,0.535000000000001,2.649999999999999));
#230=CARTESIAN_POINT('',(8.16,0.535000000000001,3.184999999999999));
#231=CARTESIAN_POINT('',(4.750000000000001,0.535000000000001,3.184999999999999));
#232=CARTESIAN_POINT('',(8.16,6.416935E-016,3.184999999999999));
#233=CARTESIAN_POINT('',(4.750000000000001,6.416935E-016,3.184999999999999));
#241=(BOUNDED_SURFACE()B_SPLINE_SURFACE(1,2,((#216,#218,#220,#222,#224,#226,#228,#230,#232),(#217,#219,#221,#223,#225,#227,#229,#231,#233)),.UNSPECIFIED.,.F.,.T.,.U.)B_SPLINE_SURFACE_WITH_KNOTS((2,2),(3,2,2,2,3),(0.0,6.373831775700933),(0.0,0.84037603483527,1.680752069670539,2.521128104505809,3.361504139341079),.UNSPECIFIED.)GEOMETRIC_REPRESENTATION_ITEM()RATIONAL_B_SPLINE_SURFACE(((1.0,0.707106781186548,1.0,0.707106781186548,1.0,0.707106781186548,1.0,0.707106781186548,1.0),(1.0,0.707106781186548,1.0,0.707106781186548,1.0,0.707106781186548,1.0,0.707106781186548,1.0)))REPRESENTATION_ITEM('')SURFACE());
#242=CARTESIAN_POINT('',(4.750000000000001,4.696243E-016,2.114999999999998));
#243=VERTEX_POINT('',#242);
#244=CARTESIAN_POINT('',(4.750000000000001,4.696243E-016,2.114999999999998));
#245=DIRECTION('',(1.0,0.0,0.0));
#246=VECTOR('',#245,3.409999999999999);
#247=LINE('',#244,#246);
#248=EDGE_CURVE('',#243,#130,#247,.T.);
#249=ORIENTED_EDGE('',*,*,#248,.F.);
#250=CARTESIAN_POINT('',(4.750000000000001,6.416935E-016,3.184999999999999));
#251=VERTEX_POINT('',#250);
#252=CARTESIAN_POINT('',(4.750000000000001,5.884182E-016,2.649999999999999));
#253=DIRECTION('',(-1.0,0.0,0.0));
#254=DIRECTION('',(0.0,0.0,-1.0));
#255=AXIS2_PLACEMENT_3D('',#252,#253,#254);
#256=CIRCLE('',#255,0.535);
#257=EDGE_CURVE('',#251,#243,#256,.T.);
#258=ORIENTED_EDGE('',*,*,#257,.F.);
#259=CARTESIAN_POINT('',(4.750000000000001,6.416935E-016,3.184999999999999));
#260=DIRECTION('',(1.0,0.0,0.0));
#261=VECTOR('',#260,3.409999999999999);
#262=LINE('',#259,#261);
#263=EDGE_CURVE('',#251,#119,#262,.T.);
#264=ORIENTED_EDGE('',*,*,#263,.T.);
#265=CARTESIAN_POINT('',(8.16,5.884182E-016,2.649999999999999));
#266=DIRECTION('',(-1.0,0.0,0.0));
#267=DIRECTION('',(0.0,0.0,-1.0));
#268=AXIS2_PLACEMENT_3D('',#265,#266,#267);
#269=CIRCLE('',#268,0.535);
#270=EDGE_CURVE('',#119,#130,#269,.T.);
#271=ORIENTED_EDGE('',*,*,#270,.T.);
#272=EDGE_LOOP('',(#249,#258,#264,#271));
#273=FACE_OUTER_BOUND('',#272,.T.);
#274=ADVANCED_FACE('',(#273),#241,.T.);
#275=CARTESIAN_POINT('',(8.16,6.416935E-016,3.184999999999999));
#276=CARTESIAN_POINT('',(4.750000000000001,6.416935E-016,3.184999999999999));
#277=CARTESIAN_POINT('',(8.16,-0.534999999999999,3.184999999999999));
#278=CARTESIAN_POINT('',(4.750000000000001,-0.534999999999999,3.184999999999999));
#279=CARTESIAN_POINT('',(8.16,-0.535,2.649999999999999));
#280=CARTESIAN_POINT('',(4.750000000000001,-0.535,2.649999999999999));
#281=CARTESIAN_POINT('',(8.16,-0.534999999999999,2.114999999999998));
#282=CARTESIAN_POINT('',(4.750000000000001,-0.534999999999999,2.114999999999998));
#283=CARTESIAN_POINT('',(8.16,5.351429E-016,2.114999999999998));
#284=CARTESIAN_POINT('',(4.750000000000001,5.351429E-016,2.114999999999998));
#285=CARTESIAN_POINT('',(8.16,0.535000000000001,2.114999999999998));
#286=CARTESIAN_POINT('',(4.750000000000001,0.535000000000001,2.114999999999998));
#287=CARTESIAN_POINT('',(8.16,0.535000000000001,2.649999999999999));
#288=CARTESIAN_POINT('',(4.750000000000001,0.535000000000001,2.649999999999999));
#289=CARTESIAN_POINT('',(8.16,0.535000000000001,3.184999999999999));
#290=CARTESIAN_POINT('',(4.750000000000001,0.535000000000001,3.184999999999999));
#291=CARTESIAN_POINT('',(8.16,6.416935E-016,3.184999999999999));
#292=CARTESIAN_POINT('',(4.750000000000001,6.416935E-016,3.184999999999999));
#300=(BOUNDED_SURFACE()B_SPLINE_SURFACE(1,2,((#275,#277,#279,#281,#283,#285,#287,#289,#291),(#276,#278,#280,#282,#284,#286,#288,#290,#292)),.UNSPECIFIED.,.F.,.T.,.U.)B_SPLINE_SURFACE_WITH_KNOTS((2,2),(3,2,2,2,3),(0.0,6.373831775700933),(0.0,0.84037603483527,1.680752069670539,2.521128104505809,3.361504139341079),.UNSPECIFIED.)GEOMETRIC_REPRESENTATION_ITEM()RATIONAL_B_SPLINE_SURFACE(((1.0,0.707106781186548,1.0,0.707106781186548,1.0,0.707106781186548,1.0,0.707106781186548,1.0),(1.0,0.707106781186548,1.0,0.707106781186548,1.0,0.707106781186548,1.0,0.707106781186548,1.0)))REPRESENTATION_ITEM('')SURFACE());
#301=ORIENTED_EDGE('',*,*,#248,.T.);
#302=ORIENTED_EDGE('',*,*,#136,.T.);
#303=ORIENTED_EDGE('',*,*,#263,.F.);
#304=CARTESIAN_POINT('',(4.750000000000001,5.884182E-016,2.649999999999999));
#305=DIRECTION('',(-1.0,0.0,0.0));
#306=DIRECTION('',(0.0,0.0,-1.0));
#307=AXIS2_PLACEMENT_3D('',#304,#305,#306);
#308=CIRCLE('',#307,0.535);
#309=EDGE_CURVE('',#243,#251,#308,.T.);
#310=ORIENTED_EDGE('',*,*,#309,.F.);
#311=EDGE_LOOP('',(#301,#302,#303,#310));
#312=FACE_OUTER_BOUND('',#311,.T.);
#313=ADVANCED_FACE('',(#312),#300,.T.);
#314=CARTESIAN_POINT('',(8.16,-1.046956E-015,-1.885000000000002));
#315=CARTESIAN_POINT('',(8.16,0.535,-1.885000000000003));
#316=CARTESIAN_POINT('',(8.16,0.535,-1.350000000000002));
#317=CARTESIAN_POINT('',(8.16,0.535,-0.815000000000001));
#318=CARTESIAN_POINT('',(8.16,-8.282109E-016,-0.815000000000002));
#319=CARTESIAN_POINT('',(10.695,-1.046956E-015,-1.885000000000002));
#320=CARTESIAN_POINT('',(10.695,0.535,-1.885000000000003));
#321=CARTESIAN_POINT('',(10.16,0.535,-1.350000000000002));
#322=CARTESIAN_POINT('',(9.625,0.535,-0.815000000000001));
#323=CARTESIAN_POINT('',(9.625,-8.282109E-016,-0.815000000000002));
#324=CARTESIAN_POINT('',(10.695,-4.840727E-016,0.649999999999998));
#325=CARTESIAN_POINT('',(10.695,0.535,0.649999999999998));
#326=CARTESIAN_POINT('',(10.16,0.535,0.649999999999998));
#327=CARTESIAN_POINT('',(9.625,0.535,0.649999999999998));
#328=CARTESIAN_POINT('',(9.625,-5.029156E-016,0.649999999999998));
#329=CARTESIAN_POINT('',(10.695,7.881039E-017,3.184999999999998));
#330=CARTESIAN_POINT('',(10.695,0.535000000000001,3.184999999999998));
#331=CARTESIAN_POINT('',(10.16,0.535000000000001,2.649999999999997));
#332=CARTESIAN_POINT('',(9.625,0.535000000000001,2.114999999999997));
#333=CARTESIAN_POINT('',(9.625,-1.776202E-016,2.114999999999998));
#334=CARTESIAN_POINT('',(8.16,7.881039E-017,3.184999999999998));
#335=CARTESIAN_POINT('',(8.16,0.535000000000001,3.184999999999998));
#336=CARTESIAN_POINT('',(8.16,0.535000000000001,2.649999999999998));
#337=CARTESIAN_POINT('',(8.16,0.535000000000001,2.114999999999997));
#338=CARTESIAN_POINT('',(8.16,-1.776202E-016,2.114999999999998));
#339=CARTESIAN_POINT('',(5.625,7.881039E-017,3.184999999999998));
#340=CARTESIAN_POINT('',(5.625,0.535000000000001,3.184999999999998));
#341=CARTESIAN_POINT('',(6.16,0.535000000000001,2.649999999999997));
#342=CARTESIAN_POINT('',(6.695000000000001,0.535000000000001,2.114999999999997));
#343=CARTESIAN_POINT('',(6.695000000000001,-1.776202E-016,2.114999999999998));
#344=CARTESIAN_POINT('',(5.625,-4.840727E-016,0.649999999999998));
#345=CARTESIAN_POINT('',(5.625,0.535,0.649999999999998));
#346=CARTESIAN_POINT('',(6.16,0.535,0.649999999999998));
#347=CARTESIAN_POINT('',(6.695000000000001,0.535,0.649999999999998));
#348=CARTESIAN_POINT('',(6.695,-5.029156E-016,0.649999999999998));
#349=CARTESIAN_POINT('',(5.625,-1.046956E-015,-1.885000000000002));
#350=CARTESIAN_POINT('',(5.625,0.535,-1.885000000000003));
#351=CARTESIAN_POINT('',(6.16,0.535,-1.350000000000002));
#352=CARTESIAN_POINT('',(6.695000000000001,0.535,-0.815000000000001));
#353=CARTESIAN_POINT('',(6.695000000000001,-8.282109E-016,-0.815000000000002));
#354=CARTESIAN_POINT('',(8.16,-1.046956E-015,-1.885000000000002));
#355=CARTESIAN_POINT('',(8.16,0.535,-1.885000000000003));
#356=CARTESIAN_POINT('',(8.16,0.535,-1.350000000000002));
#357=CARTESIAN_POINT('',(8.16,0.535,-0.815000000000001));
#358=CARTESIAN_POINT('',(8.16,-8.282109E-016,-0.815000000000002));
#366=(BOUNDED_SURFACE()B_SPLINE_SURFACE(2,2,((#314,#319,#324,#329,#334,#339,#344,#349,#354),(#315,#320,#325,#330,#335,#340,#345,#350,#355),(#316,#321,#326,#331,#336,#341,#346,#351,#356),(#317,#322,#327,#332,#337,#342,#347,#352,#357),(#318,#323,#328,#333,#338,#343,#348,#353,#358)),.UNSPECIFIED.,.F.,.T.,.U.)B_SPLINE_SURFACE_WITH_KNOTS((3,2,3),(3,2,2,2,3),(-1.174583E-015,1.570796326794897,3.141592653589794),(0.0,1.570796326794897,3.141592653589793,4.71238898038469,6.283185307179586),.UNSPECIFIED.)GEOMETRIC_REPRESENTATION_ITEM()RATIONAL_B_SPLINE_SURFACE(((1.0,0.707106781186548,1.0,0.707106781186548,1.0,0.707106781186548,1.0,0.707106781186548,1.0),(0.707106781186547,0.5,0.707106781186547,0.5,0.707106781186547,0.5,0.707106781186547,0.5,0.707106781186547),(1.0,0.707106781186548,1.0,0.707106781186548,1.0,0.707106781186548,1.0,0.707106781186548,1.0),(0.707106781186548,0.5,0.707106781186548,0.5,0.707106781186548,0.5,0.707106781186548,0.5,0.707106781186548),(1.0,0.707106781186548,1.0,0.707106781186548,1.0,0.707106781186548,1.0,0.707106781186548,1.0)))REPRESENTATION_ITEM('')SURFACE());
#367=ORIENTED_EDGE('',*,*,#127,.T.);
#368=ORIENTED_EDGE('',*,*,#196,.T.);
#369=ORIENTED_EDGE('',*,*,#145,.F.);
#370=ORIENTED_EDGE('',*,*,#270,.F.);
#371=EDGE_LOOP('',(#367,#368,#369,#370));
#372=FACE_OUTER_BOUND('',#371,.T.);
#373=ADVANCED_FACE('',(#372),#366,.T.);
#374=CARTESIAN_POINT('',(10.695,-9.092881E-016,-3.799999999999999));
#375=CARTESIAN_POINT('',(10.695,7.881039E-017,0.649999999999999));
#376=CARTESIAN_POINT('',(10.695,-0.535000000000001,-3.799999999999999));
#377=CARTESIAN_POINT('',(10.695,-0.535,0.649999999999999));
#378=CARTESIAN_POINT('',(10.16,-0.535000000000001,-3.799999999999999));
#379=CARTESIAN_POINT('',(10.16,-0.535,0.649999999999999));
#380=CARTESIAN_POINT('',(9.625,-0.535000000000001,-3.799999999999999));
#381=CARTESIAN_POINT('',(9.625,-0.535,0.649999999999999));
#382=CARTESIAN_POINT('',(9.625,-7.782509E-016,-3.799999999999999));
#383=CARTESIAN_POINT('',(9.625,2.098476E-016,0.649999999999999));
#384=CARTESIAN_POINT('',(9.625,0.534999999999999,-3.799999999999999));
#385=CARTESIAN_POINT('',(9.625,0.535,0.649999999999998));
#386=CARTESIAN_POINT('',(10.16,0.534999999999999,-3.799999999999999));
#387=CARTESIAN_POINT('',(10.16,0.535,0.649999999999998));
#388=CARTESIAN_POINT('',(10.695,0.534999999999999,-3.799999999999999));
#389=CARTESIAN_POINT('',(10.695,0.535,0.649999999999998));
#390=CARTESIAN_POINT('',(10.695,-9.092881E-016,-3.799999999999999));
#391=CARTESIAN_POINT('',(10.695,7.881039E-017,0.649999999999999));
#399=(BOUNDED_SURFACE()B_SPLINE_SURFACE(1,2,((#374,#376,#378,#380,#382,#384,#386,#388,#390),(#375,#377,#379,#381,#383,#385,#387,#389,#391)),.UNSPECIFIED.,.F.,.T.,.U.)B_SPLINE_SURFACE_WITH_KNOTS((2,2),(3,2,2,2,3),(0.0,8.317757009345788),(0.0,0.84037603483527,1.680752069670539,2.521128104505809,3.361504139341079),.UNSPECIFIED.)GEOMETRIC_REPRESENTATION_ITEM()RATIONAL_B_SPLINE_SURFACE(((1.0,0.707106781186548,1.0,0.707106781186548,1.0,0.707106781186548,1.0,0.707106781186548,1.0),(1.0,0.707106781186548,1.0,0.707106781186548,1.0,0.707106781186548,1.0,0.707106781186548,1.0)))REPRESENTATION_ITEM('')SURFACE());
#400=ORIENTED_EDGE('',*,*,#189,.T.);
#401=CARTESIAN_POINT('',(10.16,-8.437695E-016,-3.799999999999999));
#402=DIRECTION('',(0.0,0.0,-1.0));
#403=DIRECTION('',(-1.0,0.0,0.0));
#404=AXIS2_PLACEMENT_3D('',#401,#402,#403);
#405=CIRCLE('',#404,0.535);
#406=EDGE_CURVE('',#199,#184,#405,.T.);
#407=ORIENTED_EDGE('',*,*,#406,.F.);
#408=ORIENTED_EDGE('',*,*,#204,.F.);
#409=ORIENTED_EDGE('',*,*,#152,.F.);
#410=EDGE_LOOP('',(#400,#407,#408,#409));
#411=FACE_OUTER_BOUND('',#410,.T.);
#412=ADVANCED_FACE('',(#411),#399,.T.);
#413=CARTESIAN_POINT('',(10.695,0.534999999999999,-3.799999999999999));
#414=CARTESIAN_POINT('',(9.625,0.534999999999999,-3.799999999999999));
#415=CARTESIAN_POINT('',(10.695,-0.535000000000001,-3.799999999999999));
#416=CARTESIAN_POINT('',(9.625,-0.535000000000001,-3.799999999999999));
#417=B_SPLINE_SURFACE_WITH_KNOTS('',1,1,((#413,#415),(#414,#416)),.UNSPECIFIED.,.F.,.F.,.U.,(2,2),(2,2),(0.0,1.07),(0.0,1.07),.UNSPECIFIED.);
#418=ORIENTED_EDGE('',*,*,#211,.T.);
#419=ORIENTED_EDGE('',*,*,#406,.T.);
#420=EDGE_LOOP('',(#418,#419));
#421=FACE_OUTER_BOUND('',#420,.T.);
#422=ADVANCED_FACE('',(#421),#417,.F.);
#423=CARTESIAN_POINT('',(4.750000000000001,0.535000000000001,3.184999999999999));
#424=CARTESIAN_POINT('',(4.750000000000001,0.535000000000001,2.114999999999998));
#425=CARTESIAN_POINT('',(4.750000000000001,-0.534999999999999,3.184999999999999));
#426=CARTESIAN_POINT('',(4.750000000000001,-0.534999999999999,2.114999999999998));
#427=B_SPLINE_SURFACE_WITH_KNOTS('',1,1,((#423,#425),(#424,#426)),.UNSPECIFIED.,.F.,.F.,.U.,(2,2),(2,2),(0.0,1.07),(0.0,1.07),.UNSPECIFIED.);
#428=ORIENTED_EDGE('',*,*,#309,.T.);
#429=ORIENTED_EDGE('',*,*,#257,.T.);
#430=EDGE_LOOP('',(#428,#429));
#431=FACE_OUTER_BOUND('',#430,.T.);
#432=ADVANCED_FACE('',(#431),#427,.T.);
#433=CLOSED_SHELL('',(#156,#215,#274,#313,#373,#412,#422,#432));
#434=MANIFOLD_SOLID_BREP('431',#433);
#435=COLOUR_RGB('253',0.732,0.732,0.732);
#436=SURFACE_STYLE_USAGE(.BOTH.,#437);
#437=SURFACE_SIDE_STYLE('NONE',(#438));
#438=SURFACE_STYLE_FILL_AREA(#439);
#439=FILL_AREA_STYLE('NONE',(#440));
#440=FILL_AREA_STYLE_COLOUR('NONE',#435);
#441=PRESENTATION_STYLE_ASSIGNMENT((#436));
#442=STYLED_ITEM('NONE',(#441),#434);
#443=MECHANICAL_DESIGN_GEOMETRIC_PRESENTATION_REPRESENTATION('NONE',(#442,#635,#731,#827,#916),#28);
#444=PRESENTATION_LAYER_ASSIGNMENT('3D','None',(#434,#634,#723,#819,#915));
#445=CARTESIAN_POINT('',(-8.16,1.443290E-016,0.649999999999998));
#446=DIRECTION('',(0.0,1.0,-2.220446E-016));
#447=DIRECTION('',(0.0,0.0,1.0));
#448=AXIS2_PLACEMENT_3D('',#445,#446,#447);
#449=TOROIDAL_SURFACE('',#448,2.0,0.535);
#450=CARTESIAN_POINT('',(-8.16,6.416935E-016,3.184999999999999));
#451=VERTEX_POINT('',#450);
#452=CARTESIAN_POINT('',(-10.695,7.881039E-017,0.649999999999999));
#453=VERTEX_POINT('',#452);
#454=CARTESIAN_POINT('',(-8.16,1.443290E-016,0.649999999999998));
#455=DIRECTION('',(0.0,-1.0,0.0));
#456=DIRECTION('',(0.0,0.0,1.0));
#457=AXIS2_PLACEMENT_3D('',#454,#455,#456);
#458=CIRCLE('',#457,2.535);
#459=EDGE_CURVE('',#451,#453,#458,.T.);
#460=ORIENTED_EDGE('',*,*,#459,.F.);
#461=CARTESIAN_POINT('',(-8.16,4.696243E-016,2.114999999999998));
#462=VERTEX_POINT('',#461);
#463=CARTESIAN_POINT('',(-8.16,5.884182E-016,2.649999999999999));
#464=DIRECTION('',(-1.0,0.0,0.0));
#465=DIRECTION('',(0.0,0.0,-1.0));
#466=AXIS2_PLACEMENT_3D('',#463,#464,#465);
#467=CIRCLE('',#466,0.535);
#468=EDGE_CURVE('',#451,#462,#467,.T.);
#469=ORIENTED_EDGE('',*,*,#468,.T.);
#470=CARTESIAN_POINT('',(-9.625,1.443290E-016,0.649999999999997));
#471=VERTEX_POINT('',#470);
#472=CARTESIAN_POINT('',(-8.16,7.881039E-017,0.649999999999998));
#473=DIRECTION('',(0.0,-1.0,0.0));
#474=DIRECTION('',(0.0,0.0,1.0));
#475=AXIS2_PLACEMENT_3D('',#472,#473,#474);
#476=CIRCLE('',#475,1.465);
#477=EDGE_CURVE('',#462,#471,#476,.T.);
#478=ORIENTED_EDGE('',*,*,#477,.T.);
#479=CARTESIAN_POINT('',(-10.16,1.443290E-016,0.649999999999998));
#480=DIRECTION('',(0.0,0.0,-1.0));
#481=DIRECTION('',(1.0,0.0,0.0));
#482=AXIS2_PLACEMENT_3D('',#479,#480,#481);
#483=CIRCLE('',#482,0.535);
#484=EDGE_CURVE('',#453,#471,#483,.T.);
#485=ORIENTED_EDGE('',*,*,#484,.F.);
#486=EDGE_LOOP('',(#460,#469,#478,#485));
#487=FACE_OUTER_BOUND('',#486,.T.);
#488=ADVANCED_FACE('',(#487),#449,.T.);
#489=CARTESIAN_POINT('',(-10.16,-8.437695E-016,-3.799999999999999));
#490=DIRECTION('',(0.0,2.220446E-016,1.0));
#491=DIRECTION('',(1.0,0.0,0.0));
#492=AXIS2_PLACEMENT_3D('',#489,#490,#491);
#493=CYLINDRICAL_SURFACE('',#492,0.535);
#494=CARTESIAN_POINT('',(-9.625,-8.437695E-016,-3.799999999999999));
#495=VERTEX_POINT('',#494);
#496=CARTESIAN_POINT('',(-9.625,1.443290E-016,0.649999999999997));
#497=DIRECTION('',(0.0,0.0,-1.0));
#498=VECTOR('',#497,4.449999999999996);
#499=LINE('',#496,#498);
#500=EDGE_CURVE('',#471,#495,#499,.T.);
#501=ORIENTED_EDGE('',*,*,#500,.F.);
#502=CARTESIAN_POINT('',(-10.16,1.443290E-016,0.649999999999998));
#503=DIRECTION('',(0.0,0.0,-1.0));
#504=DIRECTION('',(1.0,0.0,0.0));
#505=AXIS2_PLACEMENT_3D('',#502,#503,#504);
#506=CIRCLE('',#505,0.535);
#507=EDGE_CURVE('',#471,#453,#506,.T.);
#508=ORIENTED_EDGE('',*,*,#507,.T.);
#509=CARTESIAN_POINT('',(-10.695,-9.092881E-016,-3.799999999999999));
#510=VERTEX_POINT('',#509);
#511=CARTESIAN_POINT('',(-10.695,7.881039E-017,0.649999999999999));
#512=DIRECTION('',(0.0,0.0,-1.0));
#513=VECTOR('',#512,4.449999999999998);
#514=LINE('',#511,#513);
#515=EDGE_CURVE('',#453,#510,#514,.T.);
#516=ORIENTED_EDGE('',*,*,#515,.T.);
#517=CARTESIAN_POINT('',(-10.16,-8.437695E-016,-3.799999999999999));
#518=DIRECTION('',(0.0,0.0,1.0));
#519=DIRECTION('',(1.0,0.0,0.0));
#520=AXIS2_PLACEMENT_3D('',#517,#518,#519);
#521=CIRCLE('',#520,0.535);
#522=EDGE_CURVE('',#510,#495,#521,.T.);
#523=ORIENTED_EDGE('',*,*,#522,.T.);
#524=EDGE_LOOP('',(#501,#508,#516,#523));
#525=FACE_OUTER_BOUND('',#524,.T.);
#526=ADVANCED_FACE('',(#525),#493,.T.);
#527=CARTESIAN_POINT('',(-8.16,5.884182E-016,2.649999999999999));
#528=DIRECTION('',(1.0,0.0,0.0));
#529=DIRECTION('',(0.0,0.0,-1.0));
#530=AXIS2_PLACEMENT_3D('',#527,#528,#529);
#531=CYLINDRICAL_SURFACE('',#530,0.535);
#532=CARTESIAN_POINT('',(-4.750000000000001,4.696243E-016,2.114999999999998));
#533=VERTEX_POINT('',#532);
#534=CARTESIAN_POINT('',(-4.750000000000001,4.696243E-016,2.114999999999998));
#535=DIRECTION('',(-1.0,0.0,0.0));
#536=VECTOR('',#535,3.409999999999999);
#537=LINE('',#534,#536);
#538=EDGE_CURVE('',#533,#462,#537,.T.);
#539=ORIENTED_EDGE('',*,*,#538,.F.);
#540=CARTESIAN_POINT('',(-4.750000000000001,6.416935E-016,3.184999999999999));
#541=VERTEX_POINT('',#540);
#542=CARTESIAN_POINT('',(-4.750000000000001,5.884182E-016,2.649999999999999));
#543=DIRECTION('',(-1.0,0.0,0.0));
#544=DIRECTION('',(0.0,0.0,-1.0));
#545=AXIS2_PLACEMENT_3D('',#542,#543,#544);
#546=CIRCLE('',#545,0.535);
#547=EDGE_CURVE('',#533,#541,#546,.T.);
#548=ORIENTED_EDGE('',*,*,#547,.T.);
#549=CARTESIAN_POINT('',(-4.750000000000001,6.416935E-016,3.184999999999999));
#550=DIRECTION('',(-1.0,0.0,0.0));
#551=VECTOR('',#550,3.409999999999999);
#552=LINE('',#549,#551);
#553=EDGE_CURVE('',#541,#451,#552,.T.);
#554=ORIENTED_EDGE('',*,*,#553,.T.);
#555=CARTESIAN_POINT('',(-8.16,5.884182E-016,2.649999999999999));
#556=DIRECTION('',(-1.0,0.0,0.0));
#557=DIRECTION('',(0.0,0.0,-1.0));
#558=AXIS2_PLACEMENT_3D('',#555,#556,#557);
#559=CIRCLE('',#558,0.535);
#560=EDGE_CURVE('',#462,#451,#559,.T.);
#561=ORIENTED_EDGE('',*,*,#560,.F.);
#562=EDGE_LOOP('',(#539,#548,#554,#561));
#563=FACE_OUTER_BOUND('',#562,.T.);
#564=ADVANCED_FACE('',(#563),#531,.T.);
#565=CARTESIAN_POINT('',(-8.16,5.884182E-016,2.649999999999999));
#566=DIRECTION('',(1.0,0.0,0.0));
#567=DIRECTION('',(0.0,0.0,-1.0));
#568=AXIS2_PLACEMENT_3D('',#565,#566,#567);
#569=CYLINDRICAL_SURFACE('',#568,0.535);
#570=ORIENTED_EDGE('',*,*,#538,.T.);
#571=ORIENTED_EDGE('',*,*,#468,.F.);
#572=ORIENTED_EDGE('',*,*,#553,.F.);
#573=CARTESIAN_POINT('',(-4.750000000000001,5.884182E-016,2.649999999999999));
#574=DIRECTION('',(-1.0,0.0,0.0));
#575=DIRECTION('',(0.0,0.0,-1.0));
#576=AXIS2_PLACEMENT_3D('',#573,#574,#575);
#577=CIRCLE('',#576,0.535);
#578=EDGE_CURVE('',#541,#533,#577,.T.);
#579=ORIENTED_EDGE('',*,*,#578,.T.);
#580=EDGE_LOOP('',(#570,#571,#572,#579));
#581=FACE_OUTER_BOUND('',#580,.T.);
#582=ADVANCED_FACE('',(#581),#569,.T.);
#583=CARTESIAN_POINT('',(-8.16,1.443290E-016,0.649999999999998));
#584=DIRECTION('',(0.0,1.0,-2.220446E-016));
#585=DIRECTION('',(0.0,0.0,1.0));
#586=AXIS2_PLACEMENT_3D('',#583,#584,#585);
#587=TOROIDAL_SURFACE('',#586,2.0,0.535);
#588=ORIENTED_EDGE('',*,*,#459,.T.);
#589=ORIENTED_EDGE('',*,*,#507,.F.);
#590=ORIENTED_EDGE('',*,*,#477,.F.);
#591=ORIENTED_EDGE('',*,*,#560,.T.);
#592=EDGE_LOOP('',(#588,#589,#590,#591));
#593=FACE_OUTER_BOUND('',#592,.T.);
#594=ADVANCED_FACE('',(#593),#587,.T.);
#595=CARTESIAN_POINT('',(-10.16,-8.437695E-016,-3.799999999999999));
#596=DIRECTION('',(0.0,2.220446E-016,1.0));
#597=DIRECTION('',(1.0,0.0,0.0));
#598=AXIS2_PLACEMENT_3D('',#595,#596,#597);
#599=CYLINDRICAL_SURFACE('',#598,0.535);
#600=ORIENTED_EDGE('',*,*,#500,.T.);
#601=CARTESIAN_POINT('',(-10.16,-8.437695E-016,-3.799999999999999));
#602=DIRECTION('',(0.0,0.0,1.0));
#603=DIRECTION('',(1.0,0.0,0.0));
#604=AXIS2_PLACEMENT_3D('',#601,#602,#603);
#605=CIRCLE('',#604,0.535);
#606=EDGE_CURVE('',#495,#510,#605,.T.);
#607=ORIENTED_EDGE('',*,*,#606,.T.);
#608=ORIENTED_EDGE('',*,*,#515,.F.);
#609=ORIENTED_EDGE('',*,*,#484,.T.);
#610=EDGE_LOOP('',(#600,#607,#608,#609));
#611=FACE_OUTER_BOUND('',#610,.T.);
#612=ADVANCED_FACE('',(#611),#599,.T.);
#613=CARTESIAN_POINT('',(-10.16,-8.437695E-016,-3.799999999999999));
#614=DIRECTION('',(0.0,0.0,1.0));
#615=DIRECTION('',(1.0,0.0,0.0));
#616=AXIS2_PLACEMENT_3D('',#613,#614,#615);
#617=PLANE('',#616);
#618=ORIENTED_EDGE('',*,*,#606,.F.);
#619=ORIENTED_EDGE('',*,*,#522,.F.);
#620=EDGE_LOOP('',(#618,#619));
#621=FACE_OUTER_BOUND('',#620,.T.);
#622=ADVANCED_FACE('',(#621),#617,.F.);
#623=CARTESIAN_POINT('',(-4.750000000000001,5.884182E-016,2.649999999999999));
#624=DIRECTION('',(1.0,0.0,0.0));
#625=DIRECTION('',(0.0,0.0,-1.0));
#626=AXIS2_PLACEMENT_3D('',#623,#624,#625);
#627=PLANE('',#626);
#628=ORIENTED_EDGE('',*,*,#547,.F.);
#629=ORIENTED_EDGE('',*,*,#578,.F.);
#630=EDGE_LOOP('',(#628,#629));
#631=FACE_OUTER_BOUND('',#630,.T.);
#632=ADVANCED_FACE('',(#631),#627,.T.);
#633=CLOSED_SHELL('',(#488,#526,#564,#582,#594,#612,#622,#632));
#634=MANIFOLD_SOLID_BREP('42D',#633);
#635=STYLED_ITEM('NONE',(#441),#634);
#636=CARTESIAN_POINT('',(-4.750000000000001,0.0,2.649999999999999));
#637=DIRECTION('',(1.0,0.0,0.0));
#638=DIRECTION('',(0.0,1.0,0.0));
#639=AXIS2_PLACEMENT_3D('',#636,#637,#638);
#640=CYLINDRICAL_SURFACE('',#639,2.65);
#641=CARTESIAN_POINT('',(-3.750000000000001,2.65,2.649999999999999));
#642=VERTEX_POINT('',#641);
#643=CARTESIAN_POINT('',(-4.750000000000001,2.65,2.649999999999999));
#644=VERTEX_POINT('',#643);
#645=CARTESIAN_POINT('',(-3.750000000000001,2.65,2.649999999999999));
#646=DIRECTION('',(-1.0,0.0,0.0));
#647=VECTOR('',#646,1.0);
#648=LINE('',#645,#647);
#649=EDGE_CURVE('',#642,#644,#648,.T.);
#650=ORIENTED_EDGE('',*,*,#649,.F.);
#651=CARTESIAN_POINT('',(-3.750000000000001,-2.65,2.649999999999998));
#652=VERTEX_POINT('',#651);
#653=CARTESIAN_POINT('',(-3.750000000000001,0.0,2.649999999999999));
#654=DIRECTION('',(-1.0,0.0,0.0));
#655=DIRECTION('',(0.0,1.0,0.0));
#656=AXIS2_PLACEMENT_3D('',#653,#654,#655);
#657=CIRCLE('',#656,2.65);
#658=EDGE_CURVE('',#642,#652,#657,.T.);
#659=ORIENTED_EDGE('',*,*,#658,.T.);
#660=CARTESIAN_POINT('',(-4.750000000000001,-2.65,2.649999999999998));
#661=VERTEX_POINT('',#660);
#662=CARTESIAN_POINT('',(-3.750000000000001,-2.65,2.649999999999998));
#663=DIRECTION('',(-1.0,0.0,0.0));
#664=VECTOR('',#663,1.0);
#665=LINE('',#662,#664);
#666=EDGE_CURVE('',#652,#661,#665,.T.);
#667=ORIENTED_EDGE('',*,*,#666,.T.);
#668=CARTESIAN_POINT('',(-4.750000000000001,0.0,2.649999999999999));
#669=DIRECTION('',(1.0,0.0,0.0));
#670=DIRECTION('',(0.0,1.0,0.0));
#671=AXIS2_PLACEMENT_3D('',#668,#669,#670);
#672=CIRCLE('',#671,2.65);
#673=EDGE_CURVE('',#661,#644,#672,.T.);
#674=ORIENTED_EDGE('',*,*,#673,.T.);
#675=EDGE_LOOP('',(#650,#659,#667,#674));
#676=FACE_OUTER_BOUND('',#675,.T.);
#677=ADVANCED_FACE('',(#676),#640,.T.);
#678=CARTESIAN_POINT('',(-4.750000000000001,0.0,2.649999999999999));
#679=DIRECTION('',(1.0,0.0,0.0));
#680=DIRECTION('',(0.0,1.0,0.0));
#681=AXIS2_PLACEMENT_3D('',#678,#679,#680);
#682=CYLINDRICAL_SURFACE('',#681,2.65);
#683=ORIENTED_EDGE('',*,*,#649,.T.);
#684=CARTESIAN_POINT('',(-4.750000000000001,0.0,2.649999999999999));
#685=DIRECTION('',(1.0,0.0,0.0));
#686=DIRECTION('',(0.0,1.0,0.0));
#687=AXIS2_PLACEMENT_3D('',#684,#685,#686);
#688=CIRCLE('',#687,2.65);
#689=EDGE_CURVE('',#644,#661,#688,.T.);
#690=ORIENTED_EDGE('',*,*,#689,.T.);
#691=ORIENTED_EDGE('',*,*,#666,.F.);
#692=CARTESIAN_POINT('',(-3.750000000000001,0.0,2.649999999999999));
#693=DIRECTION('',(-1.0,0.0,0.0));
#694=DIRECTION('',(0.0,1.0,0.0));
#695=AXIS2_PLACEMENT_3D('',#692,#693,#694);
#696=CIRCLE('',#695,2.65);
#697=EDGE_CURVE('',#652,#642,#696,.T.);
#698=ORIENTED_EDGE('',*,*,#697,.T.);
#699=EDGE_LOOP('',(#683,#690,#691,#698));
#700=FACE_OUTER_BOUND('',#699,.T.);
#701=ADVANCED_FACE('',(#700),#682,.T.);
#702=CARTESIAN_POINT('',(-4.750000000000001,0.0,2.649999999999999));
#703=DIRECTION('',(1.0,0.0,0.0));
#704=DIRECTION('',(0.0,0.0,-1.0));
#705=AXIS2_PLACEMENT_3D('',#702,#703,#704);
#706=PLANE('',#705);
#707=ORIENTED_EDGE('',*,*,#689,.F.);
#708=ORIENTED_EDGE('',*,*,#673,.F.);
#709=EDGE_LOOP('',(#707,#708));
#710=FACE_OUTER_BOUND('',#709,.T.);
#711=ADVANCED_FACE('',(#710),#706,.F.);
#712=CARTESIAN_POINT('',(-3.750000000000001,0.0,2.649999999999999));
#713=DIRECTION('',(1.0,0.0,0.0));
#714=DIRECTION('',(0.0,0.0,-1.0));
#715=AXIS2_PLACEMENT_3D('',#712,#713,#714);
#716=PLANE('',#715);
#717=ORIENTED_EDGE('',*,*,#658,.F.);
#718=ORIENTED_EDGE('',*,*,#697,.F.);
#719=EDGE_LOOP('',(#717,#718));
#720=FACE_OUTER_BOUND('',#719,.T.);
#721=ADVANCED_FACE('',(#720),#716,.T.);
#722=CLOSED_SHELL('',(#677,#701,#711,#721));
#723=MANIFOLD_SOLID_BREP('421',#722);
#724=COLOUR_RGB('250',0.33,0.33,0.33);
#725=SURFACE_STYLE_USAGE(.BOTH.,#726);
#726=SURFACE_SIDE_STYLE('NONE',(#727));
#727=SURFACE_STYLE_FILL_AREA(#728);
#728=FILL_AREA_STYLE('NONE',(#729));
#729=FILL_AREA_STYLE_COLOUR('NONE',#724);
#730=PRESENTATION_STYLE_ASSIGNMENT((#725));
#731=STYLED_ITEM('NONE',(#730),#723);
#732=CARTESIAN_POINT('',(-3.750000000000001,0.0,2.649999999999999));
#733=DIRECTION('',(1.0,0.0,0.0));
#734=DIRECTION('',(0.0,1.0,0.0));
#735=AXIS2_PLACEMENT_3D('',#732,#733,#734);
#736=CYLINDRICAL_SURFACE('',#735,2.65);
#737=CARTESIAN_POINT('',(-2.750000000000001,2.65,2.649999999999999));
#738=VERTEX_POINT('',#737);
#739=CARTESIAN_POINT('',(-3.750000000000001,2.65,2.649999999999999));
#740=VERTEX_POINT('',#739);
#741=CARTESIAN_POINT('',(-2.750000000000001,2.65,2.649999999999999));
#742=DIRECTION('',(-1.0,0.0,0.0));
#743=VECTOR('',#742,1.0);
#744=LINE('',#741,#743);
#745=EDGE_CURVE('',#738,#740,#744,.T.);
#746=ORIENTED_EDGE('',*,*,#745,.F.);
#747=CARTESIAN_POINT('',(-2.750000000000001,-2.65,2.649999999999998));
#748=VERTEX_POINT('',#747);
#749=CARTESIAN_POINT('',(-2.750000000000001,0.0,2.649999999999999));
#750=DIRECTION('',(-1.0,0.0,0.0));
#751=DIRECTION('',(0.0,1.0,0.0));
#752=AXIS2_PLACEMENT_3D('',#749,#750,#751);
#753=CIRCLE('',#752,2.65);
#754=EDGE_CURVE('',#738,#748,#753,.T.);
#755=ORIENTED_EDGE('',*,*,#754,.T.);
#756=CARTESIAN_POINT('',(-3.750000000000001,-2.65,2.649999999999998));
#757=VERTEX_POINT('',#756);
#758=CARTESIAN_POINT('',(-2.750000000000001,-2.65,2.649999999999998));
#759=DIRECTION('',(-1.0,0.0,0.0));
#760=VECTOR('',#759,1.0);
#761=LINE('',#758,#760);
#762=EDGE_CURVE('',#748,#757,#761,.T.);
#763=ORIENTED_EDGE('',*,*,#762,.T.);
#764=CARTESIAN_POINT('',(-3.750000000000001,0.0,2.649999999999999));
#765=DIRECTION('',(1.0,0.0,0.0));
#766=DIRECTION('',(0.0,1.0,0.0));
#767=AXIS2_PLACEMENT_3D('',#764,#765,#766);
#768=CIRCLE('',#767,2.65);
#769=EDGE_CURVE('',#757,#740,#768,.T.);
#770=ORIENTED_EDGE('',*,*,#769,.T.);
#771=EDGE_LOOP('',(#746,#755,#763,#770));
#772=FACE_OUTER_BOUND('',#771,.T.);
#773=ADVANCED_FACE('',(#772),#736,.T.);
#774=CARTESIAN_POINT('',(-3.750000000000001,0.0,2.649999999999999));
#775=DIRECTION('',(1.0,0.0,0.0));
#776=DIRECTION('',(0.0,1.0,0.0));
#777=AXIS2_PLACEMENT_3D('',#774,#775,#776);
#778=CYLINDRICAL_SURFACE('',#777,2.65);
#779=ORIENTED_EDGE('',*,*,#745,.T.);
#780=CARTESIAN_POINT('',(-3.750000000000001,0.0,2.649999999999999));
#781=DIRECTION('',(1.0,0.0,0.0));
#782=DIRECTION('',(0.0,1.0,0.0));
#783=AXIS2_PLACEMENT_3D('',#780,#781,#782);
#784=CIRCLE('',#783,2.65);
#785=EDGE_CURVE('',#740,#757,#784,.T.);
#786=ORIENTED_EDGE('',*,*,#785,.T.);
#787=ORIENTED_EDGE('',*,*,#762,.F.);
#788=CARTESIAN_POINT('',(-2.750000000000001,0.0,2.649999999999999));
#789=DIRECTION('',(-1.0,0.0,0.0));
#790=DIRECTION('',(0.0,1.0,0.0));
#791=AXIS2_PLACEMENT_3D('',#788,#789,#790);
#792=CIRCLE('',#791,2.65);
#793=EDGE_CURVE('',#748,#738,#792,.T.);
#794=ORIENTED_EDGE('',*,*,#793,.T.);
#795=EDGE_LOOP('',(#779,#786,#787,#794));
#796=FACE_OUTER_BOUND('',#795,.T.);
#797=ADVANCED_FACE('',(#796),#778,.T.);
#798=CARTESIAN_POINT('',(-3.750000000000001,0.0,2.649999999999999));
#799=DIRECTION('',(1.0,0.0,0.0));
#800=DIRECTION('',(0.0,0.0,-1.0));
#801=AXIS2_PLACEMENT_3D('',#798,#799,#800);
#802=PLANE('',#801);
#803=ORIENTED_EDGE('',*,*,#785,.F.);
#804=ORIENTED_EDGE('',*,*,#769,.F.);
#805=EDGE_LOOP('',(#803,#804));
#806=FACE_OUTER_BOUND('',#805,.T.);
#807=ADVANCED_FACE('',(#806),#802,.F.);
#808=CARTESIAN_POINT('',(-2.750000000000001,0.0,2.649999999999999));
#809=DIRECTION('',(1.0,0.0,0.0));
#810=DIRECTION('',(0.0,0.0,-1.0));
#811=AXIS2_PLACEMENT_3D('',#808,#809,#810);
#812=PLANE('',#811);
#813=ORIENTED_EDGE('',*,*,#754,.F.);
#814=ORIENTED_EDGE('',*,*,#793,.F.);
#815=EDGE_LOOP('',(#813,#814));
#816=FACE_OUTER_BOUND('',#815,.T.);
#817=ADVANCED_FACE('',(#816),#812,.T.);
#818=CLOSED_SHELL('',(#773,#797,#807,#817));
#819=MANIFOLD_SOLID_BREP('41D',#818);
#820=COLOUR_RGB('255',1.0,1.0,1.0);
#821=SURFACE_STYLE_USAGE(.BOTH.,#822);
#822=SURFACE_SIDE_STYLE('NONE',(#823));
#823=SURFACE_STYLE_FILL_AREA(#824);
#824=FILL_AREA_STYLE('NONE',(#825));
#825=FILL_AREA_STYLE_COLOUR('NONE',#820);
#826=PRESENTATION_STYLE_ASSIGNMENT((#821));
#827=STYLED_ITEM('NONE',(#826),#819);
#828=CARTESIAN_POINT('',(-2.750000000000001,0.0,2.649999999999999));
#829=DIRECTION('',(1.0,0.0,2.368476E-016));
#830=DIRECTION('',(0.0,1.0,0.0));
#831=AXIS2_PLACEMENT_3D('',#828,#829,#830);
#832=CYLINDRICAL_SURFACE('',#831,2.65);
#833=CARTESIAN_POINT('',(4.75,2.65,2.65));
#834=VERTEX_POINT('',#833);
#835=CARTESIAN_POINT('',(-2.750000000000001,2.65,2.649999999999999));
#836=VERTEX_POINT('',#835);
#837=CARTESIAN_POINT('',(4.749999999999999,2.65,2.65));
#838=DIRECTION('',(-1.0,0.0,0.0));
#839=VECTOR('',#838,7.5);
#840=LINE('',#837,#839);
#841=EDGE_CURVE('',#834,#836,#840,.T.);
#842=ORIENTED_EDGE('',*,*,#841,.F.);
#843=CARTESIAN_POINT('',(4.749999999999999,-2.65,2.65));
#844=VERTEX_POINT('',#843);
#845=CARTESIAN_POINT('',(4.75,0.0,2.65));
#846=DIRECTION('',(-1.0,0.0,0.0));
#847=DIRECTION('',(0.0,1.0,0.0));
#848=AXIS2_PLACEMENT_3D('',#845,#846,#847);
#849=CIRCLE('',#848,2.65);
#850=EDGE_CURVE('',#834,#844,#849,.T.);
#851=ORIENTED_EDGE('',*,*,#850,.T.);
#852=CARTESIAN_POINT('',(-2.750000000000001,-2.65,2.649999999999998));
#853=VERTEX_POINT('',#852);
#854=CARTESIAN_POINT('',(4.749999999999999,-2.65,2.65));
#855=DIRECTION('',(-1.0,0.0,0.0));
#856=VECTOR('',#855,7.5);
#857=LINE('',#854,#856);
#858=EDGE_CURVE('',#844,#853,#857,.T.);
#859=ORIENTED_EDGE('',*,*,#858,.T.);
#860=CARTESIAN_POINT('',(-2.750000000000001,0.0,2.649999999999999));
#861=DIRECTION('',(1.0,0.0,0.0));
#862=DIRECTION('',(0.0,1.0,0.0));
#863=AXIS2_PLACEMENT_3D('',#860,#861,#862);
#864=CIRCLE('',#863,2.65);
#865=EDGE_CURVE('',#853,#836,#864,.T.);
#866=ORIENTED_EDGE('',*,*,#865,.T.);
#867=EDGE_LOOP('',(#842,#851,#859,#866));
#868=FACE_OUTER_BOUND('',#867,.T.);
#869=ADVANCED_FACE('',(#868),#832,.T.);
#870=CARTESIAN_POINT('',(-2.750000000000001,0.0,2.649999999999999));
#871=DIRECTION('',(1.0,0.0,2.368476E-016));
#872=DIRECTION('',(0.0,1.0,0.0));
#873=AXIS2_PLACEMENT_3D('',#870,#871,#872);
#874=CYLINDRICAL_SURFACE('',#873,2.65);
#875=ORIENTED_EDGE('',*,*,#841,.T.);
#876=CARTESIAN_POINT('',(-2.750000000000001,0.0,2.649999999999999));
#877=DIRECTION('',(1.0,0.0,0.0));
#878=DIRECTION('',(0.0,1.0,0.0));
#879=AXIS2_PLACEMENT_3D('',#876,#877,#878);
#880=CIRCLE('',#879,2.65);
#881=EDGE_CURVE('',#836,#853,#880,.T.);
#882=ORIENTED_EDGE('',*,*,#881,.T.);
#883=ORIENTED_EDGE('',*,*,#858,.F.);
#884=CARTESIAN_POINT('',(4.75,0.0,2.65));
#885=DIRECTION('',(-1.0,0.0,0.0));
#886=DIRECTION('',(0.0,1.0,0.0));
#887=AXIS2_PLACEMENT_3D('',#884,#885,#886);
#888=CIRCLE('',#887,2.65);
#889=EDGE_CURVE('',#844,#834,#888,.T.);
#890=ORIENTED_EDGE('',*,*,#889,.T.);
#891=EDGE_LOOP('',(#875,#882,#883,#890));
#892=FACE_OUTER_BOUND('',#891,.T.);
#893=ADVANCED_FACE('',(#892),#874,.T.);
#894=CARTESIAN_POINT('',(-2.750000000000001,0.0,2.649999999999999));
#895=DIRECTION('',(1.0,0.0,0.0));
#896=DIRECTION('',(0.0,0.0,-1.0));
#897=AXIS2_PLACEMENT_3D('',#894,#895,#896);
#898=PLANE('',#897);
#899=ORIENTED_EDGE('',*,*,#881,.F.);
#900=ORIENTED_EDGE('',*,*,#865,.F.);
#901=EDGE_LOOP('',(#899,#900));
#902=FACE_OUTER_BOUND('',#901,.T.);
#903=ADVANCED_FACE('',(#902),#898,.F.);
#904=CARTESIAN_POINT('',(4.75,0.0,2.65));
#905=DIRECTION('',(1.0,0.0,0.0));
#906=DIRECTION('',(0.0,0.0,-1.0));
#907=AXIS2_PLACEMENT_3D('',#904,#905,#906);
#908=PLANE('',#907);
#909=ORIENTED_EDGE('',*,*,#850,.F.);
#910=ORIENTED_EDGE('',*,*,#889,.F.);
#911=EDGE_LOOP('',(#909,#910));
#912=FACE_OUTER_BOUND('',#911,.T.);
#913=ADVANCED_FACE('',(#912),#908,.T.);
#914=CLOSED_SHELL('',(#869,#893,#903,#913));
#915=MANIFOLD_SOLID_BREP('419',#914);
#916=STYLED_ITEM('NONE',(#730),#915);
#917=ADVANCED_BREP_SHAPE_REPRESENTATION('ABSR1',(#434,#634,#723,#819,#915),#28);
#918=SHAPE_REPRESENTATION_RELATIONSHIP('SRRPL1','',#917,#62);
ENDSEC;
END-ISO-10303-21;
