ISO-10303-21;
HEADER;
/****************************************************************
 * Generated by software with PDElib inside                    *
 * PDElib Version v51a, created Fri 09/10/2010                  *
 * ITI Transcendata (http://www.transcendata.com/)              *
 ****************************************************************/
FILE_DESCRIPTION((''),'2;1');
FILE_NAME('XFMR_TRIAD_CST206-1A.stp','2012-05-22T16:47:55',(''),(''),'Mechanical Desktop 2011','Mechanical Desktop 2011',', , ');
FILE_SCHEMA(('AUTOMOTIVE_DESIGN { 1 2 10303 214 1 1 1 1 }'));
ENDSEC;
DATA;
#10=(NAMED_UNIT(*)PLANE_ANGLE_UNIT()SI_UNIT($,.RADIAN.));
#11=DIMENSIONAL_EXPONENTS(0.0,0.0,0.0,0.0,0.0,0.0,0.0);
#12=PLANE_ANGLE_MEASURE_WITH_UNIT(PLANE_ANGLE_MEASURE(0.0174532925),#10);
#16=(CONVERSION_BASED_UNIT('DEGREE',#12)NAMED_UNIT(#11)PLANE_ANGLE_UNIT());
#20=(NAMED_UNIT(*)SI_UNIT($,.STERADIAN.)SOLID_ANGLE_UNIT());
#24=(LENGTH_UNIT()NAMED_UNIT(*)SI_UNIT(.MILLI.,.METRE.));
#26=UNCERTAINTY_MEASURE_WITH_UNIT(LENGTH_MEASURE(0.000001),#24,'DISTANCE_ACCURACY_VALUE','');
#28=(GEOMETRIC_REPRESENTATION_CONTEXT(3)GLOBAL_UNCERTAINTY_ASSIGNED_CONTEXT((#26))GLOBAL_UNIT_ASSIGNED_CONTEXT((#16,#20,#24))REPRESENTATION_CONTEXT('','3D'));
#29=APPLICATION_CONTEXT('automotive design');
#30=APPLICATION_PROTOCOL_DEFINITION('INTERNATIONAL_STANDARD','automotive_design',1998,#29);
#31=PRODUCT_CONTEXT('3D Mechanical Parts',#29,'mechanical');
#32=PRODUCT('Product','Product','',(#31));
#33=PRODUCT_RELATED_PRODUCT_CATEGORY('part',$,(#32));
#34=PRODUCT_CATEGORY('part',$);
#35=PERSON('1','Design','Joe',$,$,$);
#36=ORGANIZATION($,'None','None');
#37=PERSON_AND_ORGANIZATION(#35,#36);
#38=PERSON_AND_ORGANIZATION_ROLE('design_owner');
#39=APPLIED_PERSON_AND_ORGANIZATION_ASSIGNMENT(#37,#38,(#32));
#40=PRODUCT_DEFINITION_FORMATION_WITH_SPECIFIED_SOURCE('None','',#32,.BOUGHT.);
#41=PERSON('2','Creator','Joe',$,$,$);
#42=ORGANIZATION($,'None','None');
#43=PERSON_AND_ORGANIZATION(#41,#42);
#44=PERSON_AND_ORGANIZATION_ROLE('creator');
#45=APPLIED_PERSON_AND_ORGANIZATION_ASSIGNMENT(#43,#44,(#40));
#46=PERSON('3','Supplier','Joe',$,$,$);
#47=ORGANIZATION($,'None','None');
#48=PERSON_AND_ORGANIZATION(#46,#47);
#49=PERSON_AND_ORGANIZATION_ROLE('design_supplier');
#50=APPLIED_PERSON_AND_ORGANIZATION_ASSIGNMENT(#48,#49,(#40));
#51=PRODUCT_DEFINITION_CONTEXT('part definition',#29,'design');
#52=PRODUCT_DEFINITION('None','',#40,#51);
#53=PERSON('4','Creator','Joe',$,$,$);
#54=ORGANIZATION($,'None','None');
#55=PERSON_AND_ORGANIZATION(#53,#54);
#56=PERSON_AND_ORGANIZATION_ROLE('creator');
#57=APPLIED_PERSON_AND_ORGANIZATION_ASSIGNMENT(#55,#56,(#52));
#58=CARTESIAN_POINT('NONE',(0.0,0.0,0.0));
#59=DIRECTION('NONE',(0.0,0.0,1.0));
#60=DIRECTION('NONE',(1.0,0.0,0.0));
#61=AXIS2_PLACEMENT_3D('NONE',#58,#59,#60);
#62=SHAPE_REPRESENTATION('SR1',(#61),#28);
#63=PRODUCT_DEFINITION_SHAPE('PDS1','Test Part',#52);
#64=SHAPE_DEFINITION_REPRESENTATION(#63,#62);
#65=CARTESIAN_POINT('',(0.0,-5.08,12.000000000000002));
#66=DIRECTION('',(-0.894427190999916,0.0,0.447213595499958));
#67=DIRECTION('',(0.447213595499958,0.0,0.894427190999916));
#68=AXIS2_PLACEMENT_3D('',#65,#66,#67);
#69=PLANE('',#68);
#70=CARTESIAN_POINT('',(0.0,-4.58,12.000000000000002));
#71=VERTEX_POINT('',#70);
#72=CARTESIAN_POINT('',(-2.0,-4.58,8.000000000000002));
#73=VERTEX_POINT('',#72);
#74=CARTESIAN_POINT('',(4.440892E-016,-4.58,12.000000000000004));
#75=DIRECTION('',(-0.447213595499958,0.0,-0.894427190999916));
#76=VECTOR('',#75,4.472135954999581);
#77=LINE('',#74,#76);
#78=EDGE_CURVE('',#71,#73,#77,.T.);
#79=ORIENTED_EDGE('',*,*,#78,.T.);
#80=CARTESIAN_POINT('',(-2.0,-5.08,8.000000000000002));
#81=VERTEX_POINT('',#80);
#82=CARTESIAN_POINT('',(-2.0,-5.08,8.000000000000002));
#83=DIRECTION('',(0.0,1.0,0.0));
#84=VECTOR('',#83,0.5);
#85=LINE('',#82,#84);
#86=EDGE_CURVE('',#81,#73,#85,.T.);
#87=ORIENTED_EDGE('',*,*,#86,.F.);
#88=CARTESIAN_POINT('',(0.0,-5.08,12.000000000000002));
#89=VERTEX_POINT('',#88);
#90=CARTESIAN_POINT('',(-2.0,-5.08,8.000000000000002));
#91=DIRECTION('',(0.447213595499958,0.0,0.894427190999916));
#92=VECTOR('',#91,4.472135954999581);
#93=LINE('',#90,#92);
#94=EDGE_CURVE('',#81,#89,#93,.T.);
#95=ORIENTED_EDGE('',*,*,#94,.T.);
#96=CARTESIAN_POINT('',(0.0,-5.08,12.000000000000002));
#97=DIRECTION('',(0.0,1.0,0.0));
#98=VECTOR('',#97,0.5);
#99=LINE('',#96,#98);
#100=EDGE_CURVE('',#89,#71,#99,.T.);
#101=ORIENTED_EDGE('',*,*,#100,.T.);
#102=EDGE_LOOP('',(#79,#87,#95,#101));
#103=FACE_OUTER_BOUND('',#102,.T.);
#104=ADVANCED_FACE('',(#103),#69,.T.);
#105=CARTESIAN_POINT('',(-2.0,-5.08,8.000000000000002));
#106=DIRECTION('',(0.0,0.0,-1.0));
#107=DIRECTION('',(-1.0,0.0,0.0));
#108=AXIS2_PLACEMENT_3D('',#105,#106,#107);
#109=PLANE('',#108);
#110=CARTESIAN_POINT('',(-1.0,-4.58,8.000000000000002));
#111=VERTEX_POINT('',#110);
#112=CARTESIAN_POINT('',(-2.0,-4.58,8.000000000000002));
#113=DIRECTION('',(1.0,0.0,0.0));
#114=VECTOR('',#113,1.0);
#115=LINE('',#112,#114);
#116=EDGE_CURVE('',#73,#111,#115,.T.);
#117=ORIENTED_EDGE('',*,*,#116,.T.);
#118=CARTESIAN_POINT('',(-1.0,-5.08,8.000000000000002));
#119=VERTEX_POINT('',#118);
#120=CARTESIAN_POINT('',(-1.0,-5.08,8.000000000000002));
#121=DIRECTION('',(0.0,1.0,0.0));
#122=VECTOR('',#121,0.5);
#123=LINE('',#120,#122);
#124=EDGE_CURVE('',#119,#111,#123,.T.);
#125=ORIENTED_EDGE('',*,*,#124,.F.);
#126=CARTESIAN_POINT('',(-1.0,-5.08,8.000000000000002));
#127=DIRECTION('',(-1.0,0.0,0.0));
#128=VECTOR('',#127,1.0);
#129=LINE('',#126,#128);
#130=EDGE_CURVE('',#119,#81,#129,.T.);
#131=ORIENTED_EDGE('',*,*,#130,.T.);
#132=ORIENTED_EDGE('',*,*,#86,.T.);
#133=EDGE_LOOP('',(#117,#125,#131,#132));
#134=FACE_OUTER_BOUND('',#133,.T.);
#135=ADVANCED_FACE('',(#134),#109,.T.);
#136=CARTESIAN_POINT('',(-1.0,-5.08,8.000000000000002));
#137=DIRECTION('',(-1.0,0.0,0.0));
#138=DIRECTION('',(0.0,0.0,1.0));
#139=AXIS2_PLACEMENT_3D('',#136,#137,#138);
#140=PLANE('',#139);
#141=CARTESIAN_POINT('',(-1.0,-4.58,2.000000000000002));
#142=VERTEX_POINT('',#141);
#143=CARTESIAN_POINT('',(-1.0,-4.58,8.000000000000002));
#144=DIRECTION('',(0.0,0.0,-1.0));
#145=VECTOR('',#144,6.0);
#146=LINE('',#143,#145);
#147=EDGE_CURVE('',#111,#142,#146,.T.);
#148=ORIENTED_EDGE('',*,*,#147,.T.);
#149=CARTESIAN_POINT('',(-1.0,-5.08,2.000000000000002));
#150=VERTEX_POINT('',#149);
#151=CARTESIAN_POINT('',(-1.0,-5.08,2.000000000000002));
#152=DIRECTION('',(0.0,1.0,0.0));
#153=VECTOR('',#152,0.5);
#154=LINE('',#151,#153);
#155=EDGE_CURVE('',#150,#142,#154,.T.);
#156=ORIENTED_EDGE('',*,*,#155,.F.);
#157=CARTESIAN_POINT('',(-1.0,-5.08,2.000000000000002));
#158=DIRECTION('',(0.0,0.0,1.0));
#159=VECTOR('',#158,6.0);
#160=LINE('',#157,#159);
#161=EDGE_CURVE('',#150,#119,#160,.T.);
#162=ORIENTED_EDGE('',*,*,#161,.T.);
#163=ORIENTED_EDGE('',*,*,#124,.T.);
#164=EDGE_LOOP('',(#148,#156,#162,#163));
#165=FACE_OUTER_BOUND('',#164,.T.);
#166=ADVANCED_FACE('',(#165),#140,.T.);
#167=CARTESIAN_POINT('',(-1.0,-5.08,2.000000000000002));
#168=DIRECTION('',(0.0,0.0,-1.0));
#169=DIRECTION('',(-1.0,0.0,0.0));
#170=AXIS2_PLACEMENT_3D('',#167,#168,#169);
#171=PLANE('',#170);
#172=CARTESIAN_POINT('',(1.0,-4.58,2.000000000000002));
#173=VERTEX_POINT('',#172);
#174=CARTESIAN_POINT('',(-1.0,-4.58,2.000000000000002));
#175=DIRECTION('',(1.0,0.0,0.0));
#176=VECTOR('',#175,2.0);
#177=LINE('',#174,#176);
#178=EDGE_CURVE('',#142,#173,#177,.T.);
#179=ORIENTED_EDGE('',*,*,#178,.T.);
#180=CARTESIAN_POINT('',(1.0,-5.08,2.000000000000002));
#181=VERTEX_POINT('',#180);
#182=CARTESIAN_POINT('',(1.0,-5.08,2.000000000000002));
#183=DIRECTION('',(0.0,1.0,0.0));
#184=VECTOR('',#183,0.5);
#185=LINE('',#182,#184);
#186=EDGE_CURVE('',#181,#173,#185,.T.);
#187=ORIENTED_EDGE('',*,*,#186,.F.);
#188=CARTESIAN_POINT('',(1.0,-5.08,2.000000000000002));
#189=DIRECTION('',(-1.0,0.0,0.0));
#190=VECTOR('',#189,2.0);
#191=LINE('',#188,#190);
#192=EDGE_CURVE('',#181,#150,#191,.T.);
#193=ORIENTED_EDGE('',*,*,#192,.T.);
#194=ORIENTED_EDGE('',*,*,#155,.T.);
#195=EDGE_LOOP('',(#179,#187,#193,#194));
#196=FACE_OUTER_BOUND('',#195,.T.);
#197=ADVANCED_FACE('',(#196),#171,.T.);
#198=CARTESIAN_POINT('',(1.0,-5.08,2.000000000000002));
#199=DIRECTION('',(1.0,0.0,0.0));
#200=DIRECTION('',(0.0,0.0,-1.0));
#201=AXIS2_PLACEMENT_3D('',#198,#199,#200);
#202=PLANE('',#201);
#203=CARTESIAN_POINT('',(1.0,-4.58,8.000000000000002));
#204=VERTEX_POINT('',#203);
#205=CARTESIAN_POINT('',(1.0,-4.58,2.000000000000002));
#206=DIRECTION('',(0.0,0.0,1.0));
#207=VECTOR('',#206,6.0);
#208=LINE('',#205,#207);
#209=EDGE_CURVE('',#173,#204,#208,.T.);
#210=ORIENTED_EDGE('',*,*,#209,.T.);
#211=CARTESIAN_POINT('',(1.0,-5.08,8.000000000000002));
#212=VERTEX_POINT('',#211);
#213=CARTESIAN_POINT('',(1.0,-5.08,8.000000000000002));
#214=DIRECTION('',(0.0,1.0,0.0));
#215=VECTOR('',#214,0.5);
#216=LINE('',#213,#215);
#217=EDGE_CURVE('',#212,#204,#216,.T.);
#218=ORIENTED_EDGE('',*,*,#217,.F.);
#219=CARTESIAN_POINT('',(1.0,-5.08,8.000000000000002));
#220=DIRECTION('',(0.0,0.0,-1.0));
#221=VECTOR('',#220,6.0);
#222=LINE('',#219,#221);
#223=EDGE_CURVE('',#212,#181,#222,.T.);
#224=ORIENTED_EDGE('',*,*,#223,.T.);
#225=ORIENTED_EDGE('',*,*,#186,.T.);
#226=EDGE_LOOP('',(#210,#218,#224,#225));
#227=FACE_OUTER_BOUND('',#226,.T.);
#228=ADVANCED_FACE('',(#227),#202,.T.);
#229=CARTESIAN_POINT('',(1.0,-5.08,8.000000000000002));
#230=DIRECTION('',(0.0,0.0,-1.0));
#231=DIRECTION('',(-1.0,0.0,0.0));
#232=AXIS2_PLACEMENT_3D('',#229,#230,#231);
#233=PLANE('',#232);
#234=CARTESIAN_POINT('',(2.0,-4.58,8.000000000000002));
#235=VERTEX_POINT('',#234);
#236=CARTESIAN_POINT('',(1.0,-4.58,8.000000000000002));
#237=DIRECTION('',(1.0,0.0,0.0));
#238=VECTOR('',#237,1.0);
#239=LINE('',#236,#238);
#240=EDGE_CURVE('',#204,#235,#239,.T.);
#241=ORIENTED_EDGE('',*,*,#240,.T.);
#242=CARTESIAN_POINT('',(2.0,-5.08,8.000000000000002));
#243=VERTEX_POINT('',#242);
#244=CARTESIAN_POINT('',(2.0,-5.08,8.000000000000002));
#245=DIRECTION('',(0.0,1.0,0.0));
#246=VECTOR('',#245,0.5);
#247=LINE('',#244,#246);
#248=EDGE_CURVE('',#243,#235,#247,.T.);
#249=ORIENTED_EDGE('',*,*,#248,.F.);
#250=CARTESIAN_POINT('',(2.0,-5.08,8.000000000000002));
#251=DIRECTION('',(-1.0,0.0,0.0));
#252=VECTOR('',#251,1.0);
#253=LINE('',#250,#252);
#254=EDGE_CURVE('',#243,#212,#253,.T.);
#255=ORIENTED_EDGE('',*,*,#254,.T.);
#256=ORIENTED_EDGE('',*,*,#217,.T.);
#257=EDGE_LOOP('',(#241,#249,#255,#256));
#258=FACE_OUTER_BOUND('',#257,.T.);
#259=ADVANCED_FACE('',(#258),#233,.T.);
#260=CARTESIAN_POINT('',(2.0,-5.08,8.000000000000002));
#261=DIRECTION('',(0.894427190999916,0.0,0.447213595499958));
#262=DIRECTION('',(0.447213595499958,0.0,-0.894427190999916));
#263=AXIS2_PLACEMENT_3D('',#260,#261,#262);
#264=PLANE('',#263);
#265=CARTESIAN_POINT('',(2.0,-4.58,8.0));
#266=DIRECTION('',(-0.447213595499958,0.0,0.894427190999916));
#267=VECTOR('',#266,4.472135954999581);
#268=LINE('',#265,#267);
#269=EDGE_CURVE('',#235,#71,#268,.T.);
#270=ORIENTED_EDGE('',*,*,#269,.T.);
#271=ORIENTED_EDGE('',*,*,#100,.F.);
#272=CARTESIAN_POINT('',(0.0,-5.08,12.000000000000002));
#273=DIRECTION('',(0.447213595499958,0.0,-0.894427190999916));
#274=VECTOR('',#273,4.472135954999581);
#275=LINE('',#272,#274);
#276=EDGE_CURVE('',#89,#243,#275,.T.);
#277=ORIENTED_EDGE('',*,*,#276,.T.);
#278=ORIENTED_EDGE('',*,*,#248,.T.);
#279=EDGE_LOOP('',(#270,#271,#277,#278));
#280=FACE_OUTER_BOUND('',#279,.T.);
#281=ADVANCED_FACE('',(#280),#264,.T.);
#282=CARTESIAN_POINT('',(9.020562E-017,-5.079999999999999,6.792850868181437));
#283=DIRECTION('',(0.0,1.0,0.0));
#284=DIRECTION('',(0.0,0.0,1.0));
#285=AXIS2_PLACEMENT_3D('',#282,#283,#284);
#286=PLANE('',#285);
#287=ORIENTED_EDGE('',*,*,#276,.F.);
#288=ORIENTED_EDGE('',*,*,#94,.F.);
#289=ORIENTED_EDGE('',*,*,#130,.F.);
#290=ORIENTED_EDGE('',*,*,#161,.F.);
#291=ORIENTED_EDGE('',*,*,#192,.F.);
#292=ORIENTED_EDGE('',*,*,#223,.F.);
#293=ORIENTED_EDGE('',*,*,#254,.F.);
#294=EDGE_LOOP('',(#287,#288,#289,#290,#291,#292,#293));
#295=FACE_OUTER_BOUND('',#294,.T.);
#296=ADVANCED_FACE('',(#295),#286,.F.);
#297=CARTESIAN_POINT('',(8.326673E-017,-4.58,6.792850868181438));
#298=DIRECTION('',(0.0,1.0,0.0));
#299=DIRECTION('',(0.0,0.0,1.0));
#300=AXIS2_PLACEMENT_3D('',#297,#298,#299);
#301=PLANE('',#300);
#302=ORIENTED_EDGE('',*,*,#78,.F.);
#303=ORIENTED_EDGE('',*,*,#269,.F.);
#304=ORIENTED_EDGE('',*,*,#240,.F.);
#305=ORIENTED_EDGE('',*,*,#209,.F.);
#306=ORIENTED_EDGE('',*,*,#178,.F.);
#307=ORIENTED_EDGE('',*,*,#147,.F.);
#308=ORIENTED_EDGE('',*,*,#116,.F.);
#309=EDGE_LOOP('',(#302,#303,#304,#305,#306,#307,#308));
#310=FACE_OUTER_BOUND('',#309,.T.);
#311=ADVANCED_FACE('',(#310),#301,.T.);
#312=CLOSED_SHELL('',(#104,#135,#166,#197,#228,#259,#281,#296,#311));
#313=MANIFOLD_SOLID_BREP('122A',#312);
#314=DRAUGHTING_PRE_DEFINED_COLOUR('white');
#315=SURFACE_STYLE_USAGE(.BOTH.,#316);
#316=SURFACE_SIDE_STYLE('NONE',(#317));
#317=SURFACE_STYLE_FILL_AREA(#318);
#318=FILL_AREA_STYLE('NONE',(#319));
#319=FILL_AREA_STYLE_COLOUR('NONE',#314);
#320=PRESENTATION_STYLE_ASSIGNMENT((#315));
#321=STYLED_ITEM('NONE',(#320),#313);
#322=MECHANICAL_DESIGN_GEOMETRIC_PRESENTATION_REPRESENTATION('NONE',(#321,#798,#913,#1028,#1143,#1258,#1354,#1443),#28);
#323=PRESENTATION_LAYER_ASSIGNMENT('3D','None',(#313,#790,#912,#1027,#1142,#1257,#1346,#1442));
#324=CARTESIAN_POINT('',(0.0,0.0,17.780000000000001));
#325=DIRECTION('',(0.0,1.0,0.0));
#326=DIRECTION('',(-1.0,0.0,0.0));
#327=AXIS2_PLACEMENT_3D('',#324,#325,#326);
#328=CYLINDRICAL_SURFACE('',#327,4.572);
#329=CARTESIAN_POINT('',(-4.572,-5.08,17.780000000000001));
#330=VERTEX_POINT('',#329);
#331=CARTESIAN_POINT('',(-4.572,5.08,17.780000000000001));
#332=VERTEX_POINT('',#331);
#333=CARTESIAN_POINT('',(-4.572,-5.079999999999999,17.780000000000001));
#334=DIRECTION('',(0.0,1.0,0.0));
#335=VECTOR('',#334,10.16);
#336=LINE('',#333,#335);
#337=EDGE_CURVE('',#330,#332,#336,.T.);
#338=ORIENTED_EDGE('',*,*,#337,.F.);
#339=CARTESIAN_POINT('',(4.572,-5.079999999999999,17.780000000000001));
#340=VERTEX_POINT('',#339);
#341=CARTESIAN_POINT('',(0.0,-5.079999999999999,17.780000000000001));
#342=DIRECTION('',(0.0,1.0,0.0));
#343=DIRECTION('',(-1.0,0.0,0.0));
#344=AXIS2_PLACEMENT_3D('',#341,#342,#343);
#345=CIRCLE('',#344,4.572);
#346=EDGE_CURVE('',#340,#330,#345,.T.);
#347=ORIENTED_EDGE('',*,*,#346,.F.);
#348=CARTESIAN_POINT('',(4.572,5.080000000000001,17.780000000000001));
#349=VERTEX_POINT('',#348);
#350=CARTESIAN_POINT('',(4.572,-5.079999999999999,17.780000000000001));
#351=DIRECTION('',(0.0,1.0,0.0));
#352=VECTOR('',#351,10.16);
#353=LINE('',#350,#352);
#354=EDGE_CURVE('',#340,#349,#353,.T.);
#355=ORIENTED_EDGE('',*,*,#354,.T.);
#356=CARTESIAN_POINT('',(0.0,5.080000000000001,17.780000000000001));
#357=DIRECTION('',(0.0,-1.0,0.0));
#358=DIRECTION('',(-1.0,0.0,0.0));
#359=AXIS2_PLACEMENT_3D('',#356,#357,#358);
#360=CIRCLE('',#359,4.572);
#361=EDGE_CURVE('',#332,#349,#360,.T.);
#362=ORIENTED_EDGE('',*,*,#361,.F.);
#363=EDGE_LOOP('',(#338,#347,#355,#362));
#364=FACE_OUTER_BOUND('',#363,.T.);
#365=ADVANCED_FACE('',(#364),#328,.F.);
#366=CARTESIAN_POINT('',(0.0,-5.08,12.000000000000002));
#367=DIRECTION('',(-0.894427190999916,0.0,0.447213595499958));
#368=DIRECTION('',(0.447213595499958,0.0,0.894427190999916));
#369=AXIS2_PLACEMENT_3D('',#366,#367,#368);
#370=PLANE('',#369);
#371=CARTESIAN_POINT('',(0.0,-4.58,12.000000000000002));
#372=VERTEX_POINT('',#371);
#373=CARTESIAN_POINT('',(-2.0,-4.58,8.000000000000002));
#374=VERTEX_POINT('',#373);
#375=CARTESIAN_POINT('',(4.440892E-016,-4.58,12.000000000000004));
#376=DIRECTION('',(-0.447213595499958,0.0,-0.894427190999916));
#377=VECTOR('',#376,4.472135954999581);
#378=LINE('',#375,#377);
#379=EDGE_CURVE('',#372,#374,#378,.T.);
#380=ORIENTED_EDGE('',*,*,#379,.F.);
#381=CARTESIAN_POINT('',(0.0,-5.08,12.000000000000002));
#382=VERTEX_POINT('',#381);
#383=CARTESIAN_POINT('',(0.0,-5.08,12.000000000000002));
#384=DIRECTION('',(0.0,1.0,0.0));
#385=VECTOR('',#384,0.5);
#386=LINE('',#383,#385);
#387=EDGE_CURVE('',#382,#372,#386,.T.);
#388=ORIENTED_EDGE('',*,*,#387,.F.);
#389=CARTESIAN_POINT('',(-2.0,-5.08,8.000000000000002));
#390=VERTEX_POINT('',#389);
#391=CARTESIAN_POINT('',(-2.0,-5.079999999999999,8.0));
#392=DIRECTION('',(0.447213595499958,0.0,0.894427190999916));
#393=VECTOR('',#392,4.47213595499958);
#394=LINE('',#391,#393);
#395=EDGE_CURVE('',#390,#382,#394,.T.);
#396=ORIENTED_EDGE('',*,*,#395,.F.);
#397=CARTESIAN_POINT('',(-2.0,-5.08,8.000000000000002));
#398=DIRECTION('',(0.0,1.0,0.0));
#399=VECTOR('',#398,0.5);
#400=LINE('',#397,#399);
#401=EDGE_CURVE('',#390,#374,#400,.T.);
#402=ORIENTED_EDGE('',*,*,#401,.T.);
#403=EDGE_LOOP('',(#380,#388,#396,#402));
#404=FACE_OUTER_BOUND('',#403,.T.);
#405=ADVANCED_FACE('',(#404),#370,.F.);
#406=CARTESIAN_POINT('',(-2.0,-5.08,8.000000000000002));
#407=DIRECTION('',(0.0,0.0,-1.0));
#408=DIRECTION('',(-1.0,0.0,0.0));
#409=AXIS2_PLACEMENT_3D('',#406,#407,#408);
#410=PLANE('',#409);
#411=CARTESIAN_POINT('',(-1.0,-4.58,8.000000000000002));
#412=VERTEX_POINT('',#411);
#413=CARTESIAN_POINT('',(-2.0,-4.58,8.000000000000002));
#414=DIRECTION('',(1.0,0.0,0.0));
#415=VECTOR('',#414,1.0);
#416=LINE('',#413,#415);
#417=EDGE_CURVE('',#374,#412,#416,.T.);
#418=ORIENTED_EDGE('',*,*,#417,.F.);
#419=ORIENTED_EDGE('',*,*,#401,.F.);
#420=CARTESIAN_POINT('',(-1.0,-5.08,8.000000000000002));
#421=VERTEX_POINT('',#420);
#422=CARTESIAN_POINT('',(-1.0,-5.079999999999999,8.0));
#423=DIRECTION('',(-1.0,0.0,0.0));
#424=VECTOR('',#423,1.0);
#425=LINE('',#422,#424);
#426=EDGE_CURVE('',#421,#390,#425,.T.);
#427=ORIENTED_EDGE('',*,*,#426,.F.);
#428=CARTESIAN_POINT('',(-1.0,-5.08,8.000000000000002));
#429=DIRECTION('',(0.0,1.0,0.0));
#430=VECTOR('',#429,0.5);
#431=LINE('',#428,#430);
#432=EDGE_CURVE('',#421,#412,#431,.T.);
#433=ORIENTED_EDGE('',*,*,#432,.T.);
#434=EDGE_LOOP('',(#418,#419,#427,#433));
#435=FACE_OUTER_BOUND('',#434,.T.);
#436=ADVANCED_FACE('',(#435),#410,.F.);
#437=CARTESIAN_POINT('',(-1.0,-5.08,8.000000000000002));
#438=DIRECTION('',(-1.0,0.0,0.0));
#439=DIRECTION('',(0.0,0.0,1.0));
#440=AXIS2_PLACEMENT_3D('',#437,#438,#439);
#441=PLANE('',#440);
#442=CARTESIAN_POINT('',(-1.0,-4.58,2.000000000000002));
#443=VERTEX_POINT('',#442);
#444=CARTESIAN_POINT('',(-1.0,-4.58,8.000000000000002));
#445=DIRECTION('',(0.0,0.0,-1.0));
#446=VECTOR('',#445,6.0);
#447=LINE('',#444,#446);
#448=EDGE_CURVE('',#412,#443,#447,.T.);
#449=ORIENTED_EDGE('',*,*,#448,.F.);
#450=ORIENTED_EDGE('',*,*,#432,.F.);
#451=CARTESIAN_POINT('',(-1.0,-5.08,2.000000000000002));
#452=VERTEX_POINT('',#451);
#453=CARTESIAN_POINT('',(-1.0,-5.079999999999999,2.000000000000002));
#454=DIRECTION('',(0.0,0.0,1.0));
#455=VECTOR('',#454,6.0);
#456=LINE('',#453,#455);
#457=EDGE_CURVE('',#452,#421,#456,.T.);
#458=ORIENTED_EDGE('',*,*,#457,.F.);
#459=CARTESIAN_POINT('',(-1.0,-5.08,2.000000000000002));
#460=DIRECTION('',(0.0,1.0,0.0));
#461=VECTOR('',#460,0.5);
#462=LINE('',#459,#461);
#463=EDGE_CURVE('',#452,#443,#462,.T.);
#464=ORIENTED_EDGE('',*,*,#463,.T.);
#465=EDGE_LOOP('',(#449,#450,#458,#464));
#466=FACE_OUTER_BOUND('',#465,.T.);
#467=ADVANCED_FACE('',(#466),#441,.F.);
#468=CARTESIAN_POINT('',(-1.0,-5.08,2.000000000000002));
#469=DIRECTION('',(0.0,0.0,-1.0));
#470=DIRECTION('',(-1.0,0.0,0.0));
#471=AXIS2_PLACEMENT_3D('',#468,#469,#470);
#472=PLANE('',#471);
#473=CARTESIAN_POINT('',(1.0,-4.58,2.000000000000002));
#474=VERTEX_POINT('',#473);
#475=CARTESIAN_POINT('',(-1.0,-4.58,2.000000000000002));
#476=DIRECTION('',(1.0,0.0,0.0));
#477=VECTOR('',#476,2.0);
#478=LINE('',#475,#477);
#479=EDGE_CURVE('',#443,#474,#478,.T.);
#480=ORIENTED_EDGE('',*,*,#479,.F.);
#481=ORIENTED_EDGE('',*,*,#463,.F.);
#482=CARTESIAN_POINT('',(1.0,-5.08,2.000000000000002));
#483=VERTEX_POINT('',#482);
#484=CARTESIAN_POINT('',(1.0,-5.079999999999999,2.0));
#485=DIRECTION('',(-1.0,0.0,0.0));
#486=VECTOR('',#485,2.0);
#487=LINE('',#484,#486);
#488=EDGE_CURVE('',#483,#452,#487,.T.);
#489=ORIENTED_EDGE('',*,*,#488,.F.);
#490=CARTESIAN_POINT('',(1.0,-5.08,2.000000000000002));
#491=DIRECTION('',(0.0,1.0,0.0));
#492=VECTOR('',#491,0.5);
#493=LINE('',#490,#492);
#494=EDGE_CURVE('',#483,#474,#493,.T.);
#495=ORIENTED_EDGE('',*,*,#494,.T.);
#496=EDGE_LOOP('',(#480,#481,#489,#495));
#497=FACE_OUTER_BOUND('',#496,.T.);
#498=ADVANCED_FACE('',(#497),#472,.F.);
#499=CARTESIAN_POINT('',(1.0,-5.08,2.000000000000002));
#500=DIRECTION('',(1.0,0.0,0.0));
#501=DIRECTION('',(0.0,0.0,-1.0));
#502=AXIS2_PLACEMENT_3D('',#499,#500,#501);
#503=PLANE('',#502);
#504=CARTESIAN_POINT('',(1.0,-4.58,8.000000000000002));
#505=VERTEX_POINT('',#504);
#506=CARTESIAN_POINT('',(1.0,-4.58,2.000000000000002));
#507=DIRECTION('',(0.0,0.0,1.0));
#508=VECTOR('',#507,6.0);
#509=LINE('',#506,#508);
#510=EDGE_CURVE('',#474,#505,#509,.T.);
#511=ORIENTED_EDGE('',*,*,#510,.F.);
#512=ORIENTED_EDGE('',*,*,#494,.F.);
#513=CARTESIAN_POINT('',(1.0,-5.08,8.000000000000002));
#514=VERTEX_POINT('',#513);
#515=CARTESIAN_POINT('',(1.0,-5.079999999999999,8.000000000000002));
#516=DIRECTION('',(0.0,0.0,-1.0));
#517=VECTOR('',#516,6.0);
#518=LINE('',#515,#517);
#519=EDGE_CURVE('',#514,#483,#518,.T.);
#520=ORIENTED_EDGE('',*,*,#519,.F.);
#521=CARTESIAN_POINT('',(1.0,-5.08,8.000000000000002));
#522=DIRECTION('',(0.0,1.0,0.0));
#523=VECTOR('',#522,0.5);
#524=LINE('',#521,#523);
#525=EDGE_CURVE('',#514,#505,#524,.T.);
#526=ORIENTED_EDGE('',*,*,#525,.T.);
#527=EDGE_LOOP('',(#511,#512,#520,#526));
#528=FACE_OUTER_BOUND('',#527,.T.);
#529=ADVANCED_FACE('',(#528),#503,.F.);
#530=CARTESIAN_POINT('',(1.0,-5.08,8.000000000000002));
#531=DIRECTION('',(0.0,0.0,-1.0));
#532=DIRECTION('',(-1.0,0.0,0.0));
#533=AXIS2_PLACEMENT_3D('',#530,#531,#532);
#534=PLANE('',#533);
#535=CARTESIAN_POINT('',(2.0,-4.58,8.000000000000002));
#536=VERTEX_POINT('',#535);
#537=CARTESIAN_POINT('',(1.0,-4.58,8.000000000000002));
#538=DIRECTION('',(1.0,0.0,0.0));
#539=VECTOR('',#538,1.0);
#540=LINE('',#537,#539);
#541=EDGE_CURVE('',#505,#536,#540,.T.);
#542=ORIENTED_EDGE('',*,*,#541,.F.);
#543=ORIENTED_EDGE('',*,*,#525,.F.);
#544=CARTESIAN_POINT('',(2.0,-5.08,8.000000000000002));
#545=VERTEX_POINT('',#544);
#546=CARTESIAN_POINT('',(2.0,-5.079999999999999,8.0));
#547=DIRECTION('',(-1.0,0.0,0.0));
#548=VECTOR('',#547,1.0);
#549=LINE('',#546,#548);
#550=EDGE_CURVE('',#545,#514,#549,.T.);
#551=ORIENTED_EDGE('',*,*,#550,.F.);
#552=CARTESIAN_POINT('',(2.0,-5.08,8.000000000000002));
#553=DIRECTION('',(0.0,1.0,0.0));
#554=VECTOR('',#553,0.5);
#555=LINE('',#552,#554);
#556=EDGE_CURVE('',#545,#536,#555,.T.);
#557=ORIENTED_EDGE('',*,*,#556,.T.);
#558=EDGE_LOOP('',(#542,#543,#551,#557));
#559=FACE_OUTER_BOUND('',#558,.T.);
#560=ADVANCED_FACE('',(#559),#534,.F.);
#561=CARTESIAN_POINT('',(2.0,-5.08,8.000000000000002));
#562=DIRECTION('',(0.894427190999916,0.0,0.447213595499958));
#563=DIRECTION('',(0.447213595499958,0.0,-0.894427190999916));
#564=AXIS2_PLACEMENT_3D('',#561,#562,#563);
#565=PLANE('',#564);
#566=CARTESIAN_POINT('',(2.0,-4.58,8.0));
#567=DIRECTION('',(-0.447213595499958,0.0,0.894427190999916));
#568=VECTOR('',#567,4.472135954999581);
#569=LINE('',#566,#568);
#570=EDGE_CURVE('',#536,#372,#569,.T.);
#571=ORIENTED_EDGE('',*,*,#570,.F.);
#572=ORIENTED_EDGE('',*,*,#556,.F.);
#573=CARTESIAN_POINT('',(-6.661338E-016,-5.079999999999999,12.0));
#574=DIRECTION('',(0.447213595499958,0.0,-0.894427190999916));
#575=VECTOR('',#574,4.47213595499958);
#576=LINE('',#573,#575);
#577=EDGE_CURVE('',#382,#545,#576,.T.);
#578=ORIENTED_EDGE('',*,*,#577,.F.);
#579=ORIENTED_EDGE('',*,*,#387,.T.);
#580=EDGE_LOOP('',(#571,#572,#578,#579));
#581=FACE_OUTER_BOUND('',#580,.T.);
#582=ADVANCED_FACE('',(#581),#565,.F.);
#583=CARTESIAN_POINT('',(8.326673E-017,-4.58,6.792850868181438));
#584=DIRECTION('',(0.0,1.0,0.0));
#585=DIRECTION('',(0.0,0.0,1.0));
#586=AXIS2_PLACEMENT_3D('',#583,#584,#585);
#587=PLANE('',#586);
#588=ORIENTED_EDGE('',*,*,#379,.T.);
#589=ORIENTED_EDGE('',*,*,#417,.T.);
#590=ORIENTED_EDGE('',*,*,#448,.T.);
#591=ORIENTED_EDGE('',*,*,#479,.T.);
#592=ORIENTED_EDGE('',*,*,#510,.T.);
#593=ORIENTED_EDGE('',*,*,#541,.T.);
#594=ORIENTED_EDGE('',*,*,#570,.T.);
#595=EDGE_LOOP('',(#588,#589,#590,#591,#592,#593,#594));
#596=FACE_OUTER_BOUND('',#595,.T.);
#597=ADVANCED_FACE('',(#596),#587,.F.);
#598=CARTESIAN_POINT('',(0.0,0.0,17.780000000000001));
#599=DIRECTION('',(0.0,1.0,0.0));
#600=DIRECTION('',(-1.0,0.0,0.0));
#601=AXIS2_PLACEMENT_3D('',#598,#599,#600);
#602=CYLINDRICAL_SURFACE('',#601,4.572);
#603=ORIENTED_EDGE('',*,*,#337,.T.);
#604=CARTESIAN_POINT('',(0.0,5.080000000000001,17.780000000000001));
#605=DIRECTION('',(0.0,-1.0,0.0));
#606=DIRECTION('',(-1.0,0.0,0.0));
#607=AXIS2_PLACEMENT_3D('',#604,#605,#606);
#608=CIRCLE('',#607,4.572);
#609=EDGE_CURVE('',#349,#332,#608,.T.);
#610=ORIENTED_EDGE('',*,*,#609,.F.);
#611=ORIENTED_EDGE('',*,*,#354,.F.);
#612=CARTESIAN_POINT('',(0.0,-5.079999999999999,17.780000000000001));
#613=DIRECTION('',(0.0,1.0,0.0));
#614=DIRECTION('',(-1.0,0.0,0.0));
#615=AXIS2_PLACEMENT_3D('',#612,#613,#614);
#616=CIRCLE('',#615,4.572);
#617=EDGE_CURVE('',#330,#340,#616,.T.);
#618=ORIENTED_EDGE('',*,*,#617,.F.);
#619=EDGE_LOOP('',(#603,#610,#611,#618));
#620=FACE_OUTER_BOUND('',#619,.T.);
#621=ADVANCED_FACE('',(#620),#602,.F.);
#622=CARTESIAN_POINT('',(13.6525,5.08,1.000000000000002));
#623=DIRECTION('',(1.0,0.0,0.0));
#624=DIRECTION('',(0.0,0.0,-1.0));
#625=AXIS2_PLACEMENT_3D('',#622,#623,#624);
#626=PLANE('',#625);
#627=CARTESIAN_POINT('',(13.6525,-5.08,17.780000000000008));
#628=VERTEX_POINT('',#627);
#629=CARTESIAN_POINT('',(13.6525,5.08,17.780000000000008));
#630=VERTEX_POINT('',#629);
#631=CARTESIAN_POINT('',(13.6525,-5.08,17.780000000000008));
#632=DIRECTION('',(0.0,1.0,0.0));
#633=VECTOR('',#632,10.16);
#634=LINE('',#631,#633);
#635=EDGE_CURVE('',#628,#630,#634,.T.);
#636=ORIENTED_EDGE('',*,*,#635,.F.);
#637=CARTESIAN_POINT('',(13.6525,-5.08,1.000000000000002));
#638=VERTEX_POINT('',#637);
#639=CARTESIAN_POINT('',(13.6525,-5.08,1.000000000000002));
#640=DIRECTION('',(0.0,0.0,1.0));
#641=VECTOR('',#640,16.780000000000001);
#642=LINE('',#639,#641);
#643=EDGE_CURVE('',#638,#628,#642,.T.);
#644=ORIENTED_EDGE('',*,*,#643,.F.);
#645=CARTESIAN_POINT('',(13.6525,5.08,1.000000000000002));
#646=VERTEX_POINT('',#645);
#647=CARTESIAN_POINT('',(13.6525,5.08,1.000000000000002));
#648=DIRECTION('',(0.0,-1.0,0.0));
#649=VECTOR('',#648,10.16);
#650=LINE('',#647,#649);
#651=EDGE_CURVE('',#646,#638,#650,.T.);
#652=ORIENTED_EDGE('',*,*,#651,.F.);
#653=CARTESIAN_POINT('',(13.6525,5.08,1.000000000000002));
#654=DIRECTION('',(0.0,0.0,1.0));
#655=VECTOR('',#654,16.780000000000001);
#656=LINE('',#653,#655);
#657=EDGE_CURVE('',#646,#630,#656,.T.);
#658=ORIENTED_EDGE('',*,*,#657,.T.);
#659=EDGE_LOOP('',(#636,#644,#652,#658));
#660=FACE_OUTER_BOUND('',#659,.T.);
#661=ADVANCED_FACE('',(#660),#626,.T.);
#662=CARTESIAN_POINT('',(-13.6525,-5.08,1.000000000000002));
#663=DIRECTION('',(-1.0,0.0,0.0));
#664=DIRECTION('',(0.0,0.0,1.0));
#665=AXIS2_PLACEMENT_3D('',#662,#663,#664);
#666=PLANE('',#665);
#667=CARTESIAN_POINT('',(-13.6525,-5.08,17.779999999999994));
#668=VERTEX_POINT('',#667);
#669=CARTESIAN_POINT('',(-13.6525,5.08,17.779999999999994));
#670=VERTEX_POINT('',#669);
#671=CARTESIAN_POINT('',(-13.6525,-5.08,17.779999999999994));
#672=DIRECTION('',(0.0,1.0,0.0));
#673=VECTOR('',#672,10.16);
#674=LINE('',#671,#673);
#675=EDGE_CURVE('',#668,#670,#674,.T.);
#676=ORIENTED_EDGE('',*,*,#675,.T.);
#677=CARTESIAN_POINT('',(-13.6525,5.08,1.000000000000002));
#678=VERTEX_POINT('',#677);
#679=CARTESIAN_POINT('',(-13.6525,5.08,1.000000000000002));
#680=DIRECTION('',(0.0,0.0,1.0));
#681=VECTOR('',#680,16.780000000000001);
#682=LINE('',#679,#681);
#683=EDGE_CURVE('',#678,#670,#682,.T.);
#684=ORIENTED_EDGE('',*,*,#683,.F.);
#685=CARTESIAN_POINT('',(-13.6525,-5.08,1.000000000000002));
#686=VERTEX_POINT('',#685);
#687=CARTESIAN_POINT('',(-13.6525,-5.08,1.000000000000002));
#688=DIRECTION('',(0.0,1.0,0.0));
#689=VECTOR('',#688,10.16);
#690=LINE('',#687,#689);
#691=EDGE_CURVE('',#686,#678,#690,.T.);
#692=ORIENTED_EDGE('',*,*,#691,.F.);
#693=CARTESIAN_POINT('',(-13.6525,-5.08,1.000000000000002));
#694=DIRECTION('',(0.0,0.0,1.0));
#695=VECTOR('',#694,16.780000000000001);
#696=LINE('',#693,#695);
#697=EDGE_CURVE('',#686,#668,#696,.T.);
#698=ORIENTED_EDGE('',*,*,#697,.T.);
#699=EDGE_LOOP('',(#676,#684,#692,#698));
#700=FACE_OUTER_BOUND('',#699,.T.);
#701=ADVANCED_FACE('',(#700),#666,.T.);
#702=CARTESIAN_POINT('',(9.100750E-017,0.0,1.000000000000002));
#703=DIRECTION('',(0.0,0.0,1.0));
#704=DIRECTION('',(1.0,0.0,0.0));
#705=AXIS2_PLACEMENT_3D('',#702,#703,#704);
#706=PLANE('',#705);
#707=ORIENTED_EDGE('',*,*,#691,.T.);
#708=CARTESIAN_POINT('',(-13.6525,5.08,1.000000000000002));
#709=DIRECTION('',(1.0,0.0,0.0));
#710=VECTOR('',#709,27.305);
#711=LINE('',#708,#710);
#712=EDGE_CURVE('',#678,#646,#711,.T.);
#713=ORIENTED_EDGE('',*,*,#712,.T.);
#714=ORIENTED_EDGE('',*,*,#651,.T.);
#715=CARTESIAN_POINT('',(13.6525,-5.08,1.000000000000002));
#716=DIRECTION('',(-1.0,0.0,0.0));
#717=VECTOR('',#716,27.305);
#718=LINE('',#715,#717);
#719=EDGE_CURVE('',#638,#686,#718,.T.);
#720=ORIENTED_EDGE('',*,*,#719,.T.);
#721=EDGE_LOOP('',(#707,#713,#714,#720));
#722=FACE_OUTER_BOUND('',#721,.T.);
#723=ADVANCED_FACE('',(#722),#706,.F.);
#724=CARTESIAN_POINT('',(1.672097E-016,-5.08,17.458720238095239));
#725=DIRECTION('',(0.0,1.0,0.0));
#726=DIRECTION('',(0.0,0.0,1.0));
#727=AXIS2_PLACEMENT_3D('',#724,#725,#726);
#728=CYLINDRICAL_SURFACE('',#727,13.656279761904761);
#729=CARTESIAN_POINT('',(1.672097E-016,5.08,17.458720238095239));
#730=DIRECTION('',(0.0,-1.0,0.0));
#731=DIRECTION('',(0.0,0.0,1.0));
#732=AXIS2_PLACEMENT_3D('',#729,#730,#731);
#733=CIRCLE('',#732,13.656279761904761);
#734=EDGE_CURVE('',#630,#670,#733,.T.);
#735=ORIENTED_EDGE('',*,*,#734,.T.);
#736=ORIENTED_EDGE('',*,*,#675,.F.);
#737=CARTESIAN_POINT('',(1.672097E-016,-5.08,17.458720238095239));
#738=DIRECTION('',(0.0,1.0,0.0));
#739=DIRECTION('',(0.0,0.0,1.0));
#740=AXIS2_PLACEMENT_3D('',#737,#738,#739);
#741=CIRCLE('',#740,13.656279761904761);
#742=EDGE_CURVE('',#668,#628,#741,.T.);
#743=ORIENTED_EDGE('',*,*,#742,.T.);
#744=ORIENTED_EDGE('',*,*,#635,.T.);
#745=EDGE_LOOP('',(#735,#736,#743,#744));
#746=FACE_OUTER_BOUND('',#745,.T.);
#747=ADVANCED_FACE('',(#746),#728,.T.);
#748=CARTESIAN_POINT('',(-2.146140E-015,-5.079999999999999,22.436571400729413));
#749=DIRECTION('',(0.0,1.0,0.0));
#750=DIRECTION('',(0.0,0.0,1.0));
#751=AXIS2_PLACEMENT_3D('',#748,#749,#750);
#752=PLANE('',#751);
#753=ORIENTED_EDGE('',*,*,#742,.F.);
#754=ORIENTED_EDGE('',*,*,#697,.F.);
#755=ORIENTED_EDGE('',*,*,#719,.F.);
#756=ORIENTED_EDGE('',*,*,#643,.T.);
#757=EDGE_LOOP('',(#753,#754,#755,#756));
#758=FACE_OUTER_BOUND('',#757,.T.);
#759=ORIENTED_EDGE('',*,*,#395,.T.);
#760=ORIENTED_EDGE('',*,*,#577,.T.);
#761=ORIENTED_EDGE('',*,*,#550,.T.);
#762=ORIENTED_EDGE('',*,*,#519,.T.);
#763=ORIENTED_EDGE('',*,*,#488,.T.);
#764=ORIENTED_EDGE('',*,*,#457,.T.);
#765=ORIENTED_EDGE('',*,*,#426,.T.);
#766=EDGE_LOOP('',(#759,#760,#761,#762,#763,#764,#765));
#767=FACE_BOUND('',#766,.T.);
#768=ORIENTED_EDGE('',*,*,#617,.T.);
#769=ORIENTED_EDGE('',*,*,#346,.T.);
#770=EDGE_LOOP('',(#768,#769));
#771=FACE_BOUND('',#770,.T.);
#772=ADVANCED_FACE('',(#758,#767,#771),#752,.F.);
#773=CARTESIAN_POINT('',(-2.146140E-015,5.080000000000001,22.436571400729413));
#774=DIRECTION('',(0.0,1.0,0.0));
#775=DIRECTION('',(0.0,0.0,1.0));
#776=AXIS2_PLACEMENT_3D('',#773,#774,#775);
#777=PLANE('',#776);
#778=ORIENTED_EDGE('',*,*,#734,.F.);
#779=ORIENTED_EDGE('',*,*,#657,.F.);
#780=ORIENTED_EDGE('',*,*,#712,.F.);
#781=ORIENTED_EDGE('',*,*,#683,.T.);
#782=EDGE_LOOP('',(#778,#779,#780,#781));
#783=FACE_OUTER_BOUND('',#782,.T.);
#784=ORIENTED_EDGE('',*,*,#361,.T.);
#785=ORIENTED_EDGE('',*,*,#609,.T.);
#786=EDGE_LOOP('',(#784,#785));
#787=FACE_BOUND('',#786,.T.);
#788=ADVANCED_FACE('',(#783,#787),#777,.T.);
#789=CLOSED_SHELL('',(#365,#405,#436,#467,#498,#529,#560,#582,#597,#621,#661,#701,#723,#747,#772,#788));
#790=MANIFOLD_SOLID_BREP('11C8',#789);
#791=COLOUR_RGB('250',0.33,0.33,0.33);
#792=SURFACE_STYLE_USAGE(.BOTH.,#793);
#793=SURFACE_SIDE_STYLE('NONE',(#794));
#794=SURFACE_STYLE_FILL_AREA(#795);
#795=FILL_AREA_STYLE('NONE',(#796));
#796=FILL_AREA_STYLE_COLOUR('NONE',#791);
#797=PRESENTATION_STYLE_ASSIGNMENT((#792));
#798=STYLED_ITEM('NONE',(#797),#790);
#799=CARTESIAN_POINT('',(6.35,-4.0,0.0));
#800=DIRECTION('',(0.0,0.0,1.0));
#801=DIRECTION('',(1.0,0.0,0.0));
#802=AXIS2_PLACEMENT_3D('',#799,#800,#801);
#803=CYLINDRICAL_SURFACE('',#802,0.5);
#804=CARTESIAN_POINT('',(6.85,-4.0,1.0));
#805=VERTEX_POINT('',#804);
#806=CARTESIAN_POINT('',(6.85,-4.0,0.5));
#807=VERTEX_POINT('',#806);
#808=CARTESIAN_POINT('',(6.85,-4.0,1.0));
#809=DIRECTION('',(0.0,0.0,-1.0));
#810=VECTOR('',#809,0.5);
#811=LINE('',#808,#810);
#812=EDGE_CURVE('',#805,#807,#811,.T.);
#813=ORIENTED_EDGE('',*,*,#812,.F.);
#814=CARTESIAN_POINT('',(5.85,-4.0,1.0));
#815=VERTEX_POINT('',#814);
#816=CARTESIAN_POINT('',(6.35,-4.0,1.0));
#817=DIRECTION('',(0.0,0.0,-1.0));
#818=DIRECTION('',(1.0,0.0,0.0));
#819=AXIS2_PLACEMENT_3D('',#816,#817,#818);
#820=CIRCLE('',#819,0.5);
#821=EDGE_CURVE('',#805,#815,#820,.T.);
#822=ORIENTED_EDGE('',*,*,#821,.T.);
#823=CARTESIAN_POINT('',(5.85,-4.0,0.5));
#824=VERTEX_POINT('',#823);
#825=CARTESIAN_POINT('',(5.85,-4.0,1.0));
#826=DIRECTION('',(0.0,0.0,-1.0));
#827=VECTOR('',#826,0.5);
#828=LINE('',#825,#827);
#829=EDGE_CURVE('',#815,#824,#828,.T.);
#830=ORIENTED_EDGE('',*,*,#829,.T.);
#831=CARTESIAN_POINT('',(6.35,-4.0,0.5));
#832=DIRECTION('',(0.0,0.0,-1.0));
#833=DIRECTION('',(1.0,0.0,0.0));
#834=AXIS2_PLACEMENT_3D('',#831,#832,#833);
#835=CIRCLE('',#834,0.5);
#836=EDGE_CURVE('',#807,#824,#835,.T.);
#837=ORIENTED_EDGE('',*,*,#836,.F.);
#838=EDGE_LOOP('',(#813,#822,#830,#837));
#839=FACE_OUTER_BOUND('',#838,.T.);
#840=ADVANCED_FACE('',(#839),#803,.T.);
#841=CARTESIAN_POINT('',(6.35,-4.0,0.5));
#842=DIRECTION('',(0.0,0.0,1.0));
#843=DIRECTION('',(1.0,0.0,0.0));
#844=AXIS2_PLACEMENT_3D('',#841,#842,#843);
#845=SPHERICAL_SURFACE('',#844,0.5);
#846=CARTESIAN_POINT('',(6.35,-4.0,0.0));
#847=VERTEX_POINT('',#846);
#848=CARTESIAN_POINT('',(6.35,-4.0,0.5));
#849=DIRECTION('',(0.0,1.0,0.0));
#850=DIRECTION('',(1.0,0.0,0.0));
#851=AXIS2_PLACEMENT_3D('',#848,#849,#850);
#852=CIRCLE('',#851,0.5);
#853=EDGE_CURVE('',#807,#847,#852,.T.);
#854=ORIENTED_EDGE('',*,*,#853,.F.);
#855=ORIENTED_EDGE('',*,*,#836,.T.);
#856=CARTESIAN_POINT('',(6.35,-4.0,0.5));
#857=DIRECTION('',(0.0,-1.0,0.0));
#858=DIRECTION('',(-1.0,0.0,0.0));
#859=AXIS2_PLACEMENT_3D('',#856,#857,#858);
#860=CIRCLE('',#859,0.5);
#861=EDGE_CURVE('',#824,#847,#860,.T.);
#862=ORIENTED_EDGE('',*,*,#861,.T.);
#863=EDGE_LOOP('',(#854,#855,#862));
#864=FACE_OUTER_BOUND('',#863,.T.);
#865=ADVANCED_FACE('',(#864),#845,.T.);
#866=CARTESIAN_POINT('',(6.35,-4.0,0.5));
#867=DIRECTION('',(0.0,0.0,1.0));
#868=DIRECTION('',(1.0,0.0,0.0));
#869=AXIS2_PLACEMENT_3D('',#866,#867,#868);
#870=SPHERICAL_SURFACE('',#869,0.5);
#871=ORIENTED_EDGE('',*,*,#853,.T.);
#872=ORIENTED_EDGE('',*,*,#861,.F.);
#873=CARTESIAN_POINT('',(6.35,-4.0,0.5));
#874=DIRECTION('',(0.0,0.0,-1.0));
#875=DIRECTION('',(1.0,0.0,0.0));
#876=AXIS2_PLACEMENT_3D('',#873,#874,#875);
#877=CIRCLE('',#876,0.5);
#878=EDGE_CURVE('',#824,#807,#877,.T.);
#879=ORIENTED_EDGE('',*,*,#878,.T.);
#880=EDGE_LOOP('',(#871,#872,#879));
#881=FACE_OUTER_BOUND('',#880,.T.);
#882=ADVANCED_FACE('',(#881),#870,.T.);
#883=CARTESIAN_POINT('',(6.35,-4.0,0.0));
#884=DIRECTION('',(0.0,0.0,1.0));
#885=DIRECTION('',(1.0,0.0,0.0));
#886=AXIS2_PLACEMENT_3D('',#883,#884,#885);
#887=CYLINDRICAL_SURFACE('',#886,0.5);
#888=ORIENTED_EDGE('',*,*,#812,.T.);
#889=ORIENTED_EDGE('',*,*,#878,.F.);
#890=ORIENTED_EDGE('',*,*,#829,.F.);
#891=CARTESIAN_POINT('',(6.35,-4.0,1.0));
#892=DIRECTION('',(0.0,0.0,-1.0));
#893=DIRECTION('',(1.0,0.0,0.0));
#894=AXIS2_PLACEMENT_3D('',#891,#892,#893);
#895=CIRCLE('',#894,0.5);
#896=EDGE_CURVE('',#815,#805,#895,.T.);
#897=ORIENTED_EDGE('',*,*,#896,.T.);
#898=EDGE_LOOP('',(#888,#889,#890,#897));
#899=FACE_OUTER_BOUND('',#898,.T.);
#900=ADVANCED_FACE('',(#899),#887,.T.);
#901=CARTESIAN_POINT('',(6.35,-4.0,1.0));
#902=DIRECTION('',(0.0,0.0,1.0));
#903=DIRECTION('',(1.0,0.0,0.0));
#904=AXIS2_PLACEMENT_3D('',#901,#902,#903);
#905=PLANE('',#904);
#906=ORIENTED_EDGE('',*,*,#821,.F.);
#907=ORIENTED_EDGE('',*,*,#896,.F.);
#908=EDGE_LOOP('',(#906,#907));
#909=FACE_OUTER_BOUND('',#908,.T.);
#910=ADVANCED_FACE('',(#909),#905,.T.);
#911=CLOSED_SHELL('',(#840,#865,#882,#900,#910));
#912=MANIFOLD_SOLID_BREP('11B9',#911);
#913=STYLED_ITEM('NONE',(#797),#912);
#914=CARTESIAN_POINT('',(6.35,4.0,0.0));
#915=DIRECTION('',(0.0,0.0,1.0));
#916=DIRECTION('',(1.0,0.0,0.0));
#917=AXIS2_PLACEMENT_3D('',#914,#915,#916);
#918=CYLINDRICAL_SURFACE('',#917,0.5);
#919=CARTESIAN_POINT('',(6.85,4.0,1.0));
#920=VERTEX_POINT('',#919);
#921=CARTESIAN_POINT('',(6.85,4.0,0.5));
#922=VERTEX_POINT('',#921);
#923=CARTESIAN_POINT('',(6.85,4.0,1.0));
#924=DIRECTION('',(0.0,0.0,-1.0));
#925=VECTOR('',#924,0.5);
#926=LINE('',#923,#925);
#927=EDGE_CURVE('',#920,#922,#926,.T.);
#928=ORIENTED_EDGE('',*,*,#927,.F.);
#929=CARTESIAN_POINT('',(5.85,4.0,1.0));
#930=VERTEX_POINT('',#929);
#931=CARTESIAN_POINT('',(6.35,4.0,1.0));
#932=DIRECTION('',(0.0,0.0,-1.0));
#933=DIRECTION('',(1.0,0.0,0.0));
#934=AXIS2_PLACEMENT_3D('',#931,#932,#933);
#935=CIRCLE('',#934,0.5);
#936=EDGE_CURVE('',#920,#930,#935,.T.);
#937=ORIENTED_EDGE('',*,*,#936,.T.);
#938=CARTESIAN_POINT('',(5.85,4.0,0.5));
#939=VERTEX_POINT('',#938);
#940=CARTESIAN_POINT('',(5.85,4.0,1.0));
#941=DIRECTION('',(0.0,0.0,-1.0));
#942=VECTOR('',#941,0.5);
#943=LINE('',#940,#942);
#944=EDGE_CURVE('',#930,#939,#943,.T.);
#945=ORIENTED_EDGE('',*,*,#944,.T.);
#946=CARTESIAN_POINT('',(6.35,4.0,0.5));
#947=DIRECTION('',(0.0,0.0,-1.0));
#948=DIRECTION('',(1.0,0.0,0.0));
#949=AXIS2_PLACEMENT_3D('',#946,#947,#948);
#950=CIRCLE('',#949,0.5);
#951=EDGE_CURVE('',#922,#939,#950,.T.);
#952=ORIENTED_EDGE('',*,*,#951,.F.);
#953=EDGE_LOOP('',(#928,#937,#945,#952));
#954=FACE_OUTER_BOUND('',#953,.T.);
#955=ADVANCED_FACE('',(#954),#918,.T.);
#956=CARTESIAN_POINT('',(6.35,4.0,0.5));
#957=DIRECTION('',(0.0,0.0,1.0));
#958=DIRECTION('',(1.0,0.0,0.0));
#959=AXIS2_PLACEMENT_3D('',#956,#957,#958);
#960=SPHERICAL_SURFACE('',#959,0.5);
#961=CARTESIAN_POINT('',(6.35,4.0,0.0));
#962=VERTEX_POINT('',#961);
#963=CARTESIAN_POINT('',(6.35,4.0,0.5));
#964=DIRECTION('',(0.0,1.0,0.0));
#965=DIRECTION('',(1.0,0.0,0.0));
#966=AXIS2_PLACEMENT_3D('',#963,#964,#965);
#967=CIRCLE('',#966,0.5);
#968=EDGE_CURVE('',#922,#962,#967,.T.);
#969=ORIENTED_EDGE('',*,*,#968,.F.);
#970=ORIENTED_EDGE('',*,*,#951,.T.);
#971=CARTESIAN_POINT('',(6.35,4.0,0.5));
#972=DIRECTION('',(0.0,-1.0,0.0));
#973=DIRECTION('',(-1.0,0.0,0.0));
#974=AXIS2_PLACEMENT_3D('',#971,#972,#973);
#975=CIRCLE('',#974,0.5);
#976=EDGE_CURVE('',#939,#962,#975,.T.);
#977=ORIENTED_EDGE('',*,*,#976,.T.);
#978=EDGE_LOOP('',(#969,#970,#977));
#979=FACE_OUTER_BOUND('',#978,.T.);
#980=ADVANCED_FACE('',(#979),#960,.T.);
#981=CARTESIAN_POINT('',(6.35,4.0,0.5));
#982=DIRECTION('',(0.0,0.0,1.0));
#983=DIRECTION('',(1.0,0.0,0.0));
#984=AXIS2_PLACEMENT_3D('',#981,#982,#983);
#985=SPHERICAL_SURFACE('',#984,0.5);
#986=ORIENTED_EDGE('',*,*,#968,.T.);
#987=ORIENTED_EDGE('',*,*,#976,.F.);
#988=CARTESIAN_POINT('',(6.35,4.0,0.5));
#989=DIRECTION('',(0.0,0.0,-1.0));
#990=DIRECTION('',(1.0,0.0,0.0));
#991=AXIS2_PLACEMENT_3D('',#988,#989,#990);
#992=CIRCLE('',#991,0.5);
#993=EDGE_CURVE('',#939,#922,#992,.T.);
#994=ORIENTED_EDGE('',*,*,#993,.T.);
#995=EDGE_LOOP('',(#986,#987,#994));
#996=FACE_OUTER_BOUND('',#995,.T.);
#997=ADVANCED_FACE('',(#996),#985,.T.);
#998=CARTESIAN_POINT('',(6.35,4.0,0.0));
#999=DIRECTION('',(0.0,0.0,1.0));
#1000=DIRECTION('',(1.0,0.0,0.0));
#1001=AXIS2_PLACEMENT_3D('',#998,#999,#1000);
#1002=CYLINDRICAL_SURFACE('',#1001,0.5);
#1003=ORIENTED_EDGE('',*,*,#927,.T.);
#1004=ORIENTED_EDGE('',*,*,#993,.F.);
#1005=ORIENTED_EDGE('',*,*,#944,.F.);
#1006=CARTESIAN_POINT('',(6.35,4.0,1.0));
#1007=DIRECTION('',(0.0,0.0,-1.0));
#1008=DIRECTION('',(1.0,0.0,0.0));
#1009=AXIS2_PLACEMENT_3D('',#1006,#1007,#1008);
#1010=CIRCLE('',#1009,0.5);
#1011=EDGE_CURVE('',#930,#920,#1010,.T.);
#1012=ORIENTED_EDGE('',*,*,#1011,.T.);
#1013=EDGE_LOOP('',(#1003,#1004,#1005,#1012));
#1014=FACE_OUTER_BOUND('',#1013,.T.);
#1015=ADVANCED_FACE('',(#1014),#1002,.T.);
#1016=CARTESIAN_POINT('',(6.35,4.0,1.0));
#1017=DIRECTION('',(0.0,0.0,1.0));
#1018=DIRECTION('',(1.0,0.0,0.0));
#1019=AXIS2_PLACEMENT_3D('',#1016,#1017,#1018);
#1020=PLANE('',#1019);
#1021=ORIENTED_EDGE('',*,*,#936,.F.);
#1022=ORIENTED_EDGE('',*,*,#1011,.F.);
#1023=EDGE_LOOP('',(#1021,#1022));
#1024=FACE_OUTER_BOUND('',#1023,.T.);
#1025=ADVANCED_FACE('',(#1024),#1020,.T.);
#1026=CLOSED_SHELL('',(#955,#980,#997,#1015,#1025));
#1027=MANIFOLD_SOLID_BREP('11B4',#1026);
#1028=STYLED_ITEM('NONE',(#797),#1027);
#1029=CARTESIAN_POINT('',(-6.35,-4.0,0.0));
#1030=DIRECTION('',(0.0,0.0,1.0));
#1031=DIRECTION('',(1.0,0.0,0.0));
#1032=AXIS2_PLACEMENT_3D('',#1029,#1030,#1031);
#1033=CYLINDRICAL_SURFACE('',#1032,0.5);
#1034=CARTESIAN_POINT('',(-5.85,-4.0,1.0));
#1035=VERTEX_POINT('',#1034);
#1036=CARTESIAN_POINT('',(-5.85,-4.0,0.5));
#1037=VERTEX_POINT('',#1036);
#1038=CARTESIAN_POINT('',(-5.85,-4.0,1.0));
#1039=DIRECTION('',(0.0,0.0,-1.0));
#1040=VECTOR('',#1039,0.5);
#1041=LINE('',#1038,#1040);
#1042=EDGE_CURVE('',#1035,#1037,#1041,.T.);
#1043=ORIENTED_EDGE('',*,*,#1042,.F.);
#1044=CARTESIAN_POINT('',(-6.85,-4.0,1.0));
#1045=VERTEX_POINT('',#1044);
#1046=CARTESIAN_POINT('',(-6.35,-4.0,1.0));
#1047=DIRECTION('',(0.0,0.0,-1.0));
#1048=DIRECTION('',(1.0,0.0,0.0));
#1049=AXIS2_PLACEMENT_3D('',#1046,#1047,#1048);
#1050=CIRCLE('',#1049,0.5);
#1051=EDGE_CURVE('',#1035,#1045,#1050,.T.);
#1052=ORIENTED_EDGE('',*,*,#1051,.T.);
#1053=CARTESIAN_POINT('',(-6.85,-4.0,0.5));
#1054=VERTEX_POINT('',#1053);
#1055=CARTESIAN_POINT('',(-6.85,-4.0,1.0));
#1056=DIRECTION('',(0.0,0.0,-1.0));
#1057=VECTOR('',#1056,0.5);
#1058=LINE('',#1055,#1057);
#1059=EDGE_CURVE('',#1045,#1054,#1058,.T.);
#1060=ORIENTED_EDGE('',*,*,#1059,.T.);
#1061=CARTESIAN_POINT('',(-6.35,-4.0,0.5));
#1062=DIRECTION('',(0.0,0.0,-1.0));
#1063=DIRECTION('',(1.0,0.0,0.0));
#1064=AXIS2_PLACEMENT_3D('',#1061,#1062,#1063);
#1065=CIRCLE('',#1064,0.5);
#1066=EDGE_CURVE('',#1037,#1054,#1065,.T.);
#1067=ORIENTED_EDGE('',*,*,#1066,.F.);
#1068=EDGE_LOOP('',(#1043,#1052,#1060,#1067));
#1069=FACE_OUTER_BOUND('',#1068,.T.);
#1070=ADVANCED_FACE('',(#1069),#1033,.T.);
#1071=CARTESIAN_POINT('',(-6.35,-4.0,0.5));
#1072=DIRECTION('',(0.0,0.0,1.0));
#1073=DIRECTION('',(1.0,0.0,0.0));
#1074=AXIS2_PLACEMENT_3D('',#1071,#1072,#1073);
#1075=SPHERICAL_SURFACE('',#1074,0.5);
#1076=CARTESIAN_POINT('',(-6.35,-4.0,0.0));
#1077=VERTEX_POINT('',#1076);
#1078=CARTESIAN_POINT('',(-6.35,-4.0,0.5));
#1079=DIRECTION('',(0.0,1.0,0.0));
#1080=DIRECTION('',(1.0,0.0,0.0));
#1081=AXIS2_PLACEMENT_3D('',#1078,#1079,#1080);
#1082=CIRCLE('',#1081,0.5);
#1083=EDGE_CURVE('',#1037,#1077,#1082,.T.);
#1084=ORIENTED_EDGE('',*,*,#1083,.F.);
#1085=ORIENTED_EDGE('',*,*,#1066,.T.);
#1086=CARTESIAN_POINT('',(-6.35,-4.0,0.5));
#1087=DIRECTION('',(0.0,-1.0,0.0));
#1088=DIRECTION('',(-1.0,0.0,0.0));
#1089=AXIS2_PLACEMENT_3D('',#1086,#1087,#1088);
#1090=CIRCLE('',#1089,0.5);
#1091=EDGE_CURVE('',#1054,#1077,#1090,.T.);
#1092=ORIENTED_EDGE('',*,*,#1091,.T.);
#1093=EDGE_LOOP('',(#1084,#1085,#1092));
#1094=FACE_OUTER_BOUND('',#1093,.T.);
#1095=ADVANCED_FACE('',(#1094),#1075,.T.);
#1096=CARTESIAN_POINT('',(-6.35,-4.0,0.5));
#1097=DIRECTION('',(0.0,0.0,1.0));
#1098=DIRECTION('',(1.0,0.0,0.0));
#1099=AXIS2_PLACEMENT_3D('',#1096,#1097,#1098);
#1100=SPHERICAL_SURFACE('',#1099,0.5);
#1101=ORIENTED_EDGE('',*,*,#1083,.T.);
#1102=ORIENTED_EDGE('',*,*,#1091,.F.);
#1103=CARTESIAN_POINT('',(-6.35,-4.0,0.5));
#1104=DIRECTION('',(0.0,0.0,-1.0));
#1105=DIRECTION('',(1.0,0.0,0.0));
#1106=AXIS2_PLACEMENT_3D('',#1103,#1104,#1105);
#1107=CIRCLE('',#1106,0.5);
#1108=EDGE_CURVE('',#1054,#1037,#1107,.T.);
#1109=ORIENTED_EDGE('',*,*,#1108,.T.);
#1110=EDGE_LOOP('',(#1101,#1102,#1109));
#1111=FACE_OUTER_BOUND('',#1110,.T.);
#1112=ADVANCED_FACE('',(#1111),#1100,.T.);
#1113=CARTESIAN_POINT('',(-6.35,-4.0,0.0));
#1114=DIRECTION('',(0.0,0.0,1.0));
#1115=DIRECTION('',(1.0,0.0,0.0));
#1116=AXIS2_PLACEMENT_3D('',#1113,#1114,#1115);
#1117=CYLINDRICAL_SURFACE('',#1116,0.5);
#1118=ORIENTED_EDGE('',*,*,#1042,.T.);
#1119=ORIENTED_EDGE('',*,*,#1108,.F.);
#1120=ORIENTED_EDGE('',*,*,#1059,.F.);
#1121=CARTESIAN_POINT('',(-6.35,-4.0,1.0));
#1122=DIRECTION('',(0.0,0.0,-1.0));
#1123=DIRECTION('',(1.0,0.0,0.0));
#1124=AXIS2_PLACEMENT_3D('',#1121,#1122,#1123);
#1125=CIRCLE('',#1124,0.5);
#1126=EDGE_CURVE('',#1045,#1035,#1125,.T.);
#1127=ORIENTED_EDGE('',*,*,#1126,.T.);
#1128=EDGE_LOOP('',(#1118,#1119,#1120,#1127));
#1129=FACE_OUTER_BOUND('',#1128,.T.);
#1130=ADVANCED_FACE('',(#1129),#1117,.T.);
#1131=CARTESIAN_POINT('',(-6.35,-4.0,1.0));
#1132=DIRECTION('',(0.0,0.0,1.0));
#1133=DIRECTION('',(1.0,0.0,0.0));
#1134=AXIS2_PLACEMENT_3D('',#1131,#1132,#1133);
#1135=PLANE('',#1134);
#1136=ORIENTED_EDGE('',*,*,#1051,.F.);
#1137=ORIENTED_EDGE('',*,*,#1126,.F.);
#1138=EDGE_LOOP('',(#1136,#1137));
#1139=FACE_OUTER_BOUND('',#1138,.T.);
#1140=ADVANCED_FACE('',(#1139),#1135,.T.);
#1141=CLOSED_SHELL('',(#1070,#1095,#1112,#1130,#1140));
#1142=MANIFOLD_SOLID_BREP('11AF',#1141);
#1143=STYLED_ITEM('NONE',(#797),#1142);
#1144=CARTESIAN_POINT('',(-6.35,4.0,0.0));
#1145=DIRECTION('',(0.0,0.0,1.0));
#1146=DIRECTION('',(1.0,0.0,0.0));
#1147=AXIS2_PLACEMENT_3D('',#1144,#1145,#1146);
#1148=CYLINDRICAL_SURFACE('',#1147,0.5);
#1149=CARTESIAN_POINT('',(-5.85,4.0,1.0));
#1150=VERTEX_POINT('',#1149);
#1151=CARTESIAN_POINT('',(-5.85,4.0,0.5));
#1152=VERTEX_POINT('',#1151);
#1153=CARTESIAN_POINT('',(-5.85,4.0,1.0));
#1154=DIRECTION('',(0.0,0.0,-1.0));
#1155=VECTOR('',#1154,0.5);
#1156=LINE('',#1153,#1155);
#1157=EDGE_CURVE('',#1150,#1152,#1156,.T.);
#1158=ORIENTED_EDGE('',*,*,#1157,.F.);
#1159=CARTESIAN_POINT('',(-6.85,4.0,1.0));
#1160=VERTEX_POINT('',#1159);
#1161=CARTESIAN_POINT('',(-6.35,4.0,1.0));
#1162=DIRECTION('',(0.0,0.0,-1.0));
#1163=DIRECTION('',(1.0,0.0,0.0));
#1164=AXIS2_PLACEMENT_3D('',#1161,#1162,#1163);
#1165=CIRCLE('',#1164,0.5);
#1166=EDGE_CURVE('',#1150,#1160,#1165,.T.);
#1167=ORIENTED_EDGE('',*,*,#1166,.T.);
#1168=CARTESIAN_POINT('',(-6.85,4.0,0.5));
#1169=VERTEX_POINT('',#1168);
#1170=CARTESIAN_POINT('',(-6.85,4.0,1.0));
#1171=DIRECTION('',(0.0,0.0,-1.0));
#1172=VECTOR('',#1171,0.5);
#1173=LINE('',#1170,#1172);
#1174=EDGE_CURVE('',#1160,#1169,#1173,.T.);
#1175=ORIENTED_EDGE('',*,*,#1174,.T.);
#1176=CARTESIAN_POINT('',(-6.35,4.0,0.5));
#1177=DIRECTION('',(0.0,0.0,-1.0));
#1178=DIRECTION('',(1.0,0.0,0.0));
#1179=AXIS2_PLACEMENT_3D('',#1176,#1177,#1178);
#1180=CIRCLE('',#1179,0.5);
#1181=EDGE_CURVE('',#1152,#1169,#1180,.T.);
#1182=ORIENTED_EDGE('',*,*,#1181,.F.);
#1183=EDGE_LOOP('',(#1158,#1167,#1175,#1182));
#1184=FACE_OUTER_BOUND('',#1183,.T.);
#1185=ADVANCED_FACE('',(#1184),#1148,.T.);
#1186=CARTESIAN_POINT('',(-6.35,4.0,0.5));
#1187=DIRECTION('',(0.0,0.0,1.0));
#1188=DIRECTION('',(1.0,0.0,0.0));
#1189=AXIS2_PLACEMENT_3D('',#1186,#1187,#1188);
#1190=SPHERICAL_SURFACE('',#1189,0.5);
#1191=CARTESIAN_POINT('',(-6.35,4.0,0.0));
#1192=VERTEX_POINT('',#1191);
#1193=CARTESIAN_POINT('',(-6.35,4.0,0.5));
#1194=DIRECTION('',(0.0,1.0,0.0));
#1195=DIRECTION('',(1.0,0.0,0.0));
#1196=AXIS2_PLACEMENT_3D('',#1193,#1194,#1195);
#1197=CIRCLE('',#1196,0.5);
#1198=EDGE_CURVE('',#1152,#1192,#1197,.T.);
#1199=ORIENTED_EDGE('',*,*,#1198,.F.);
#1200=ORIENTED_EDGE('',*,*,#1181,.T.);
#1201=CARTESIAN_POINT('',(-6.35,4.0,0.5));
#1202=DIRECTION('',(0.0,-1.0,0.0));
#1203=DIRECTION('',(-1.0,0.0,0.0));
#1204=AXIS2_PLACEMENT_3D('',#1201,#1202,#1203);
#1205=CIRCLE('',#1204,0.5);
#1206=EDGE_CURVE('',#1169,#1192,#1205,.T.);
#1207=ORIENTED_EDGE('',*,*,#1206,.T.);
#1208=EDGE_LOOP('',(#1199,#1200,#1207));
#1209=FACE_OUTER_BOUND('',#1208,.T.);
#1210=ADVANCED_FACE('',(#1209),#1190,.T.);
#1211=CARTESIAN_POINT('',(-6.35,4.0,0.5));
#1212=DIRECTION('',(0.0,0.0,1.0));
#1213=DIRECTION('',(1.0,0.0,0.0));
#1214=AXIS2_PLACEMENT_3D('',#1211,#1212,#1213);
#1215=SPHERICAL_SURFACE('',#1214,0.5);
#1216=ORIENTED_EDGE('',*,*,#1198,.T.);
#1217=ORIENTED_EDGE('',*,*,#1206,.F.);
#1218=CARTESIAN_POINT('',(-6.35,4.0,0.5));
#1219=DIRECTION('',(0.0,0.0,-1.0));
#1220=DIRECTION('',(1.0,0.0,0.0));
#1221=AXIS2_PLACEMENT_3D('',#1218,#1219,#1220);
#1222=CIRCLE('',#1221,0.5);
#1223=EDGE_CURVE('',#1169,#1152,#1222,.T.);
#1224=ORIENTED_EDGE('',*,*,#1223,.T.);
#1225=EDGE_LOOP('',(#1216,#1217,#1224));
#1226=FACE_OUTER_BOUND('',#1225,.T.);
#1227=ADVANCED_FACE('',(#1226),#1215,.T.);
#1228=CARTESIAN_POINT('',(-6.35,4.0,0.0));
#1229=DIRECTION('',(0.0,0.0,1.0));
#1230=DIRECTION('',(1.0,0.0,0.0));
#1231=AXIS2_PLACEMENT_3D('',#1228,#1229,#1230);
#1232=CYLINDRICAL_SURFACE('',#1231,0.5);
#1233=ORIENTED_EDGE('',*,*,#1157,.T.);
#1234=ORIENTED_EDGE('',*,*,#1223,.F.);
#1235=ORIENTED_EDGE('',*,*,#1174,.F.);
#1236=CARTESIAN_POINT('',(-6.35,4.0,1.0));
#1237=DIRECTION('',(0.0,0.0,-1.0));
#1238=DIRECTION('',(1.0,0.0,0.0));
#1239=AXIS2_PLACEMENT_3D('',#1236,#1237,#1238);
#1240=CIRCLE('',#1239,0.5);
#1241=EDGE_CURVE('',#1160,#1150,#1240,.T.);
#1242=ORIENTED_EDGE('',*,*,#1241,.T.);
#1243=EDGE_LOOP('',(#1233,#1234,#1235,#1242));
#1244=FACE_OUTER_BOUND('',#1243,.T.);
#1245=ADVANCED_FACE('',(#1244),#1232,.T.);
#1246=CARTESIAN_POINT('',(-6.35,4.0,1.0));
#1247=DIRECTION('',(0.0,0.0,1.0));
#1248=DIRECTION('',(1.0,0.0,0.0));
#1249=AXIS2_PLACEMENT_3D('',#1246,#1247,#1248);
#1250=PLANE('',#1249);
#1251=ORIENTED_EDGE('',*,*,#1166,.F.);
#1252=ORIENTED_EDGE('',*,*,#1241,.F.);
#1253=EDGE_LOOP('',(#1251,#1252));
#1254=FACE_OUTER_BOUND('',#1253,.T.);
#1255=ADVANCED_FACE('',(#1254),#1250,.T.);
#1256=CLOSED_SHELL('',(#1185,#1210,#1227,#1245,#1255));
#1257=MANIFOLD_SOLID_BREP('11AA',#1256);
#1258=STYLED_ITEM('NONE',(#797),#1257);
#1259=CARTESIAN_POINT('',(6.35,0.0,1.0));
#1260=DIRECTION('',(0.0,0.0,-1.0));
#1261=DIRECTION('',(1.0,0.0,0.0));
#1262=AXIS2_PLACEMENT_3D('',#1259,#1260,#1261);
#1263=CYLINDRICAL_SURFACE('',#1262,0.57);
#1264=CARTESIAN_POINT('',(6.92,0.0,-3.6));
#1265=VERTEX_POINT('',#1264);
#1266=CARTESIAN_POINT('',(6.92,0.0,1.0));
#1267=VERTEX_POINT('',#1266);
#1268=CARTESIAN_POINT('',(6.92,0.0,-3.6));
#1269=DIRECTION('',(0.0,0.0,1.0));
#1270=VECTOR('',#1269,4.6);
#1271=LINE('',#1268,#1270);
#1272=EDGE_CURVE('',#1265,#1267,#1271,.T.);
#1273=ORIENTED_EDGE('',*,*,#1272,.F.);
#1274=CARTESIAN_POINT('',(5.779999999999999,6.980487E-017,-3.6));
#1275=VERTEX_POINT('',#1274);
#1276=CARTESIAN_POINT('',(6.35,0.0,-3.6));
#1277=DIRECTION('',(0.0,0.0,1.0));
#1278=DIRECTION('',(1.0,0.0,0.0));
#1279=AXIS2_PLACEMENT_3D('',#1276,#1277,#1278);
#1280=CIRCLE('',#1279,0.57);
#1281=EDGE_CURVE('',#1265,#1275,#1280,.T.);
#1282=ORIENTED_EDGE('',*,*,#1281,.T.);
#1283=CARTESIAN_POINT('',(5.779999999999999,6.980487E-017,1.0));
#1284=VERTEX_POINT('',#1283);
#1285=CARTESIAN_POINT('',(5.779999999999999,6.980487E-017,-3.6));
#1286=DIRECTION('',(0.0,0.0,1.0));
#1287=VECTOR('',#1286,4.6);
#1288=LINE('',#1285,#1287);
#1289=EDGE_CURVE('',#1275,#1284,#1288,.T.);
#1290=ORIENTED_EDGE('',*,*,#1289,.T.);
#1291=CARTESIAN_POINT('',(6.35,0.0,1.0));
#1292=DIRECTION('',(0.0,0.0,1.0));
#1293=DIRECTION('',(1.0,0.0,0.0));
#1294=AXIS2_PLACEMENT_3D('',#1291,#1292,#1293);
#1295=CIRCLE('',#1294,0.57);
#1296=EDGE_CURVE('',#1267,#1284,#1295,.T.);
#1297=ORIENTED_EDGE('',*,*,#1296,.F.);
#1298=EDGE_LOOP('',(#1273,#1282,#1290,#1297));
#1299=FACE_OUTER_BOUND('',#1298,.T.);
#1300=ADVANCED_FACE('',(#1299),#1263,.T.);
#1301=CARTESIAN_POINT('',(6.35,0.0,1.0));
#1302=DIRECTION('',(0.0,0.0,-1.0));
#1303=DIRECTION('',(1.0,0.0,0.0));
#1304=AXIS2_PLACEMENT_3D('',#1301,#1302,#1303);
#1305=CYLINDRICAL_SURFACE('',#1304,0.57);
#1306=ORIENTED_EDGE('',*,*,#1272,.T.);
#1307=CARTESIAN_POINT('',(6.35,0.0,1.0));
#1308=DIRECTION('',(0.0,0.0,1.0));
#1309=DIRECTION('',(1.0,0.0,0.0));
#1310=AXIS2_PLACEMENT_3D('',#1307,#1308,#1309);
#1311=CIRCLE('',#1310,0.57);
#1312=EDGE_CURVE('',#1284,#1267,#1311,.T.);
#1313=ORIENTED_EDGE('',*,*,#1312,.F.);
#1314=ORIENTED_EDGE('',*,*,#1289,.F.);
#1315=CARTESIAN_POINT('',(6.35,0.0,-3.6));
#1316=DIRECTION('',(0.0,0.0,1.0));
#1317=DIRECTION('',(1.0,0.0,0.0));
#1318=AXIS2_PLACEMENT_3D('',#1315,#1316,#1317);
#1319=CIRCLE('',#1318,0.57);
#1320=EDGE_CURVE('',#1275,#1265,#1319,.T.);
#1321=ORIENTED_EDGE('',*,*,#1320,.T.);
#1322=EDGE_LOOP('',(#1306,#1313,#1314,#1321));
#1323=FACE_OUTER_BOUND('',#1322,.T.);
#1324=ADVANCED_FACE('',(#1323),#1305,.T.);
#1325=CARTESIAN_POINT('',(6.35,0.0,-3.6));
#1326=DIRECTION('',(0.0,0.0,1.0));
#1327=DIRECTION('',(1.0,0.0,0.0));
#1328=AXIS2_PLACEMENT_3D('',#1325,#1326,#1327);
#1329=PLANE('',#1328);
#1330=ORIENTED_EDGE('',*,*,#1281,.F.);
#1331=ORIENTED_EDGE('',*,*,#1320,.F.);
#1332=EDGE_LOOP('',(#1330,#1331));
#1333=FACE_OUTER_BOUND('',#1332,.T.);
#1334=ADVANCED_FACE('',(#1333),#1329,.F.);
#1335=CARTESIAN_POINT('',(6.35,0.0,1.0));
#1336=DIRECTION('',(0.0,0.0,1.0));
#1337=DIRECTION('',(1.0,0.0,0.0));
#1338=AXIS2_PLACEMENT_3D('',#1335,#1336,#1337);
#1339=PLANE('',#1338);
#1340=ORIENTED_EDGE('',*,*,#1296,.T.);
#1341=ORIENTED_EDGE('',*,*,#1312,.T.);
#1342=EDGE_LOOP('',(#1340,#1341));
#1343=FACE_OUTER_BOUND('',#1342,.T.);
#1344=ADVANCED_FACE('',(#1343),#1339,.T.);
#1345=CLOSED_SHELL('',(#1300,#1324,#1334,#1344));
#1346=MANIFOLD_SOLID_BREP('11A5',#1345);
#1347=COLOUR_RGB('254',0.866,0.866,0.866);
#1348=SURFACE_STYLE_USAGE(.BOTH.,#1349);
#1349=SURFACE_SIDE_STYLE('NONE',(#1350));
#1350=SURFACE_STYLE_FILL_AREA(#1351);
#1351=FILL_AREA_STYLE('NONE',(#1352));
#1352=FILL_AREA_STYLE_COLOUR('NONE',#1347);
#1353=PRESENTATION_STYLE_ASSIGNMENT((#1348));
#1354=STYLED_ITEM('NONE',(#1353),#1346);
#1355=CARTESIAN_POINT('',(-6.35,0.0,1.0));
#1356=DIRECTION('',(0.0,0.0,-1.0));
#1357=DIRECTION('',(1.0,0.0,0.0));
#1358=AXIS2_PLACEMENT_3D('',#1355,#1356,#1357);
#1359=CYLINDRICAL_SURFACE('',#1358,0.57);
#1360=CARTESIAN_POINT('',(-5.779999999999999,0.0,-3.6));
#1361=VERTEX_POINT('',#1360);
#1362=CARTESIAN_POINT('',(-5.779999999999999,0.0,1.0));
#1363=VERTEX_POINT('',#1362);
#1364=CARTESIAN_POINT('',(-5.779999999999999,0.0,-3.6));
#1365=DIRECTION('',(0.0,0.0,1.0));
#1366=VECTOR('',#1365,4.6);
#1367=LINE('',#1364,#1366);
#1368=EDGE_CURVE('',#1361,#1363,#1367,.T.);
#1369=ORIENTED_EDGE('',*,*,#1368,.F.);
#1370=CARTESIAN_POINT('',(-6.92,6.980487E-017,-3.6));
#1371=VERTEX_POINT('',#1370);
#1372=CARTESIAN_POINT('',(-6.35,0.0,-3.6));
#1373=DIRECTION('',(0.0,0.0,1.0));
#1374=DIRECTION('',(1.0,0.0,0.0));
#1375=AXIS2_PLACEMENT_3D('',#1372,#1373,#1374);
#1376=CIRCLE('',#1375,0.57);
#1377=EDGE_CURVE('',#1361,#1371,#1376,.T.);
#1378=ORIENTED_EDGE('',*,*,#1377,.T.);
#1379=CARTESIAN_POINT('',(-6.92,6.980487E-017,1.0));
#1380=VERTEX_POINT('',#1379);
#1381=CARTESIAN_POINT('',(-6.92,6.980487E-017,-3.6));
#1382=DIRECTION('',(0.0,0.0,1.0));
#1383=VECTOR('',#1382,4.6);
#1384=LINE('',#1381,#1383);
#1385=EDGE_CURVE('',#1371,#1380,#1384,.T.);
#1386=ORIENTED_EDGE('',*,*,#1385,.T.);
#1387=CARTESIAN_POINT('',(-6.35,0.0,1.0));
#1388=DIRECTION('',(0.0,0.0,1.0));
#1389=DIRECTION('',(1.0,0.0,0.0));
#1390=AXIS2_PLACEMENT_3D('',#1387,#1388,#1389);
#1391=CIRCLE('',#1390,0.57);
#1392=EDGE_CURVE('',#1363,#1380,#1391,.T.);
#1393=ORIENTED_EDGE('',*,*,#1392,.F.);
#1394=EDGE_LOOP('',(#1369,#1378,#1386,#1393));
#1395=FACE_OUTER_BOUND('',#1394,.T.);
#1396=ADVANCED_FACE('',(#1395),#1359,.T.);
#1397=CARTESIAN_POINT('',(-6.35,0.0,1.0));
#1398=DIRECTION('',(0.0,0.0,-1.0));
#1399=DIRECTION('',(1.0,0.0,0.0));
#1400=AXIS2_PLACEMENT_3D('',#1397,#1398,#1399);
#1401=CYLINDRICAL_SURFACE('',#1400,0.57);
#1402=ORIENTED_EDGE('',*,*,#1368,.T.);
#1403=CARTESIAN_POINT('',(-6.35,0.0,1.0));
#1404=DIRECTION('',(0.0,0.0,1.0));
#1405=DIRECTION('',(1.0,0.0,0.0));
#1406=AXIS2_PLACEMENT_3D('',#1403,#1404,#1405);
#1407=CIRCLE('',#1406,0.57);
#1408=EDGE_CURVE('',#1380,#1363,#1407,.T.);
#1409=ORIENTED_EDGE('',*,*,#1408,.F.);
#1410=ORIENTED_EDGE('',*,*,#1385,.F.);
#1411=CARTESIAN_POINT('',(-6.35,0.0,-3.6));
#1412=DIRECTION('',(0.0,0.0,1.0));
#1413=DIRECTION('',(1.0,0.0,0.0));
#1414=AXIS2_PLACEMENT_3D('',#1411,#1412,#1413);
#1415=CIRCLE('',#1414,0.57);
#1416=EDGE_CURVE('',#1371,#1361,#1415,.T.);
#1417=ORIENTED_EDGE('',*,*,#1416,.T.);
#1418=EDGE_LOOP('',(#1402,#1409,#1410,#1417));
#1419=FACE_OUTER_BOUND('',#1418,.T.);
#1420=ADVANCED_FACE('',(#1419),#1401,.T.);
#1421=CARTESIAN_POINT('',(-6.35,0.0,-3.6));
#1422=DIRECTION('',(0.0,0.0,1.0));
#1423=DIRECTION('',(1.0,0.0,0.0));
#1424=AXIS2_PLACEMENT_3D('',#1421,#1422,#1423);
#1425=PLANE('',#1424);
#1426=ORIENTED_EDGE('',*,*,#1377,.F.);
#1427=ORIENTED_EDGE('',*,*,#1416,.F.);
#1428=EDGE_LOOP('',(#1426,#1427));
#1429=FACE_OUTER_BOUND('',#1428,.T.);
#1430=ADVANCED_FACE('',(#1429),#1425,.F.);
#1431=CARTESIAN_POINT('',(-6.35,0.0,1.0));
#1432=DIRECTION('',(0.0,0.0,1.0));
#1433=DIRECTION('',(1.0,0.0,0.0));
#1434=AXIS2_PLACEMENT_3D('',#1431,#1432,#1433);
#1435=PLANE('',#1434);
#1436=ORIENTED_EDGE('',*,*,#1392,.T.);
#1437=ORIENTED_EDGE('',*,*,#1408,.T.);
#1438=EDGE_LOOP('',(#1436,#1437));
#1439=FACE_OUTER_BOUND('',#1438,.T.);
#1440=ADVANCED_FACE('',(#1439),#1435,.T.);
#1441=CLOSED_SHELL('',(#1396,#1420,#1430,#1440));
#1442=MANIFOLD_SOLID_BREP('11A1',#1441);
#1443=STYLED_ITEM('NONE',(#1353),#1442);
#1444=ADVANCED_BREP_SHAPE_REPRESENTATION('ABSR1',(#313,#790,#912,#1027,#1142,#1257,#1346,#1442),#28);
#1445=SHAPE_REPRESENTATION_RELATIONSHIP('SRRPL1','',#1444,#62);
ENDSEC;
END-ISO-10303-21;
