ISO-10303-21;
HEADER;
/****************************************************************
 * Generated by software with PDE/Lib inside                    *
 * PDE/Lib Version 3.2.2, created Thu Mar 23, 2000 at 18:38:49  *
 * International Technegroup Inc. (www.iti-oh.com)              *
 ****************************************************************/
FILE_DESCRIPTION((''),'2;1');
FILE_NAME('XFMR_VAC_T60403-D4097.stp','2009-12-18T11:05:12',(''),(''),'Mechanical Desktop 2006','Mechanical Desktop 2006',', , ');
FILE_SCHEMA(('AUTOMOTIVE_DESIGN { 1 2 10303 214 0 1 1 1 }'));
ENDSEC;
DATA;
#8=(NAMED_UNIT(*)PLANE_ANGLE_UNIT()SI_UNIT($,.RADIAN.));
#9=DIMENSIONAL_EXPONENTS(0.0,0.0,0.0,0.0,0.0,0.0,0.0);
#10=PLANE_ANGLE_MEASURE_WITH_UNIT(PLANE_ANGLE_MEASURE(0.017453292500000),#8);
#14=(CONVERSION_BASED_UNIT('DEGREE',#10)NAMED_UNIT(#9)PLANE_ANGLE_UNIT());
#18=(NAMED_UNIT(*)SI_UNIT($,.STERADIAN.)SOLID_ANGLE_UNIT());
#22=(LENGTH_UNIT()NAMED_UNIT(*)SI_UNIT(.MILLI.,.METRE.));
#23=UNCERTAINTY_MEASURE_WITH_UNIT(LENGTH_MEASURE(0.000001000000000),#22,'DISTANCE_ACCURACY_VALUE','');
#28=(GEOMETRIC_REPRESENTATION_CONTEXT(3)GLOBAL_UNCERTAINTY_ASSIGNED_CONTEXT((#23))GLOBAL_UNIT_ASSIGNED_CONTEXT((#14,#18,#22))REPRESENTATION_CONTEXT('None','None'));
#29=APPLICATION_CONTEXT('automotive design');
#30=APPLICATION_PROTOCOL_DEFINITION('DRAFT_INTERNATIONAL_STANDARD','automotive_design',1998,#29);
#31=PRODUCT_CONTEXT('3D Mechanical Parts',#29,'mechanical');
#32=PRODUCT('Product','Product','',(#31));
#33=PRODUCT_RELATED_PRODUCT_CATEGORY('part',$,(#32));
#34=PRODUCT_CATEGORY('part',$);
#35=PERSON('1','Design','Joe',$,$,$);
#36=ORGANIZATION($,'None','None');
#37=PERSON_AND_ORGANIZATION(#35,#36);
#38=PERSON_AND_ORGANIZATION_ROLE('design_owner');
#39=APPLIED_PERSON_AND_ORGANIZATION_ASSIGNMENT(#37,#38,(#32));
#40=PRODUCT_DEFINITION_FORMATION_WITH_SPECIFIED_SOURCE('None','',#32,.BOUGHT.);
#41=PERSON('2','Creator','Joe',$,$,$);
#42=ORGANIZATION($,'None','None');
#43=PERSON_AND_ORGANIZATION(#41,#42);
#44=PERSON_AND_ORGANIZATION_ROLE('creator');
#45=APPLIED_PERSON_AND_ORGANIZATION_ASSIGNMENT(#43,#44,(#40));
#46=PERSON('3','Supplier','Joe',$,$,$);
#47=ORGANIZATION($,'None','None');
#48=PERSON_AND_ORGANIZATION(#46,#47);
#49=PERSON_AND_ORGANIZATION_ROLE('design_supplier');
#50=APPLIED_PERSON_AND_ORGANIZATION_ASSIGNMENT(#48,#49,(#40));
#51=PRODUCT_DEFINITION_CONTEXT('part definition',#29,'design');
#52=PRODUCT_DEFINITION('None','',#40,#51);
#53=PERSON('4','Creator','Joe',$,$,$);
#54=ORGANIZATION($,'None','None');
#55=PERSON_AND_ORGANIZATION(#53,#54);
#56=PERSON_AND_ORGANIZATION_ROLE('creator');
#57=APPLIED_PERSON_AND_ORGANIZATION_ASSIGNMENT(#55,#56,(#52));
#58=CARTESIAN_POINT('NONE',(0.0,0.0,0.0));
#59=DIRECTION('NONE',(0.0,0.0,1.0));
#60=DIRECTION('NONE',(1.0,0.0,0.0));
#61=AXIS2_PLACEMENT_3D('NONE',#58,#59,#60);
#62=SHAPE_REPRESENTATION('SR1',(#61),#28);
#63=PRODUCT_DEFINITION_SHAPE('PDS1','Test Part',#52);
#64=SHAPE_DEFINITION_REPRESENTATION(#63,#62);
#65=CARTESIAN_POINT('',(-4.400001360000031,-8.300003720000008,2.000000000000000));
#66=DIRECTION('',(0.0,0.0,1.0));
#67=DIRECTION('',(0.0,1.0,0.0));
#68=AXIS2_PLACEMENT_3D('',#65,#66,#67);
#69=CYLINDRICAL_SURFACE('',#68,0.499999000000003);
#70=CARTESIAN_POINT('',(-4.400001360000029,-7.800004720000006,2.0));
#71=VERTEX_POINT('',#70);
#72=CARTESIAN_POINT('',(-4.400001360000029,-7.800004720000006,13.500000000000000));
#73=VERTEX_POINT('',#72);
#74=CARTESIAN_POINT('',(-4.400001360000029,-7.800004720000006,2.0));
#75=DIRECTION('',(0.0,0.0,1.0));
#76=VECTOR('',#75,11.500000000000000);
#77=LINE('',#74,#76);
#78=EDGE_CURVE('',#71,#73,#77,.T.);
#79=ORIENTED_EDGE('',*,*,#78,.F.);
#80=CARTESIAN_POINT('',(-3.900002360000028,-8.300003720000007,2.000000000000000));
#81=VERTEX_POINT('',#80);
#82=CARTESIAN_POINT('',(-4.400001360000031,-8.300003720000008,2.000000000000000));
#83=DIRECTION('',(0.0,0.0,1.0));
#84=DIRECTION('',(0.0,1.0,0.0));
#85=AXIS2_PLACEMENT_3D('',#82,#83,#84);
#86=CIRCLE('',#85,0.499999000000003);
#87=EDGE_CURVE('',#81,#71,#86,.T.);
#88=ORIENTED_EDGE('',*,*,#87,.F.);
#89=CARTESIAN_POINT('',(-3.900002360000028,-8.300003720000007,13.500000000000000));
#90=VERTEX_POINT('',#89);
#91=CARTESIAN_POINT('',(-3.900002360000028,-8.300003720000007,2.000000000000000));
#92=DIRECTION('',(0.0,0.0,1.0));
#93=VECTOR('',#92,11.500000000000000);
#94=LINE('',#91,#93);
#95=EDGE_CURVE('',#81,#90,#94,.T.);
#96=ORIENTED_EDGE('',*,*,#95,.T.);
#97=CARTESIAN_POINT('',(-4.400001360000031,-8.300003720000008,13.500000000000000));
#98=DIRECTION('',(0.0,0.0,1.0));
#99=DIRECTION('',(0.0,1.0,0.0));
#100=AXIS2_PLACEMENT_3D('',#97,#98,#99);
#101=CIRCLE('',#100,0.499999000000003);
#102=EDGE_CURVE('',#90,#73,#101,.T.);
#103=ORIENTED_EDGE('',*,*,#102,.T.);
#104=EDGE_LOOP('',(#79,#88,#96,#103));
#105=FACE_OUTER_BOUND('',#104,.T.);
#106=ADVANCED_FACE('',(#105),#69,.F.);
#107=CARTESIAN_POINT('',(-6.900002980000008,-4.183825022028416,13.0));
#108=DIRECTION('',(-0.707106781186548,1.298891E-016,0.707106781186548));
#109=DIRECTION('',(0.0,-1.0,0.0));
#110=AXIS2_PLACEMENT_3D('',#107,#108,#109);
#111=PLANE('',#110);
#112=CARTESIAN_POINT('',(-6.400002980000005,8.300003720000007,13.500000000000000));
#113=VERTEX_POINT('',#112);
#114=CARTESIAN_POINT('',(-7.400002980000005,8.300003720000008,12.500000000000000));
#115=VERTEX_POINT('',#114);
#116=CARTESIAN_POINT('',(-6.400002980000005,8.300003720000007,13.500000000000000));
#117=DIRECTION('',(-0.707106781186547,1.256074E-015,-0.707106781186547));
#118=VECTOR('',#117,1.414213562373095);
#119=LINE('',#116,#118);
#120=EDGE_CURVE('',#113,#115,#119,.T.);
#121=ORIENTED_EDGE('',*,*,#120,.T.);
#122=CARTESIAN_POINT('',(-7.400002980000009,-8.300003720000003,12.500000000000000));
#123=VERTEX_POINT('',#122);
#124=CARTESIAN_POINT('',(-7.400002980000005,8.300003720000008,12.500000000000000));
#125=DIRECTION('',(0.0,-1.0,0.0));
#126=VECTOR('',#125,16.600007440000013);
#127=LINE('',#124,#126);
#128=EDGE_CURVE('',#115,#123,#127,.T.);
#129=ORIENTED_EDGE('',*,*,#128,.T.);
#130=CARTESIAN_POINT('',(-6.400002980000009,-8.300003720000005,13.500000000000000));
#131=VERTEX_POINT('',#130);
#132=CARTESIAN_POINT('',(-7.400002980000009,-8.300003720000003,12.500000000000000));
#133=DIRECTION('',(0.707106781186547,-1.256074E-015,0.707106781186547));
#134=VECTOR('',#133,1.414213562373095);
#135=LINE('',#132,#134);
#136=EDGE_CURVE('',#123,#131,#135,.T.);
#137=ORIENTED_EDGE('',*,*,#136,.T.);
#138=CARTESIAN_POINT('',(-6.400002980000009,-8.300003720000005,13.500000000000000));
#139=DIRECTION('',(0.0,1.0,0.0));
#140=VECTOR('',#139,16.600007440000013);
#141=LINE('',#138,#140);
#142=EDGE_CURVE('',#131,#113,#141,.T.);
#143=ORIENTED_EDGE('',*,*,#142,.T.);
#144=EDGE_LOOP('',(#121,#129,#137,#143));
#145=FACE_OUTER_BOUND('',#144,.T.);
#146=ADVANCED_FACE('',(#145),#111,.T.);
#147=CARTESIAN_POINT('',(-0.039631797608017,-0.067646324056830,13.500000000000000));
#148=DIRECTION('',(0.0,0.0,1.0));
#149=DIRECTION('',(0.0,-1.0,0.0));
#150=AXIS2_PLACEMENT_3D('',#147,#148,#149);
#151=PLANE('',#150);
#152=ORIENTED_EDGE('',*,*,#142,.F.);
#153=CARTESIAN_POINT('',(-4.900000360000034,-8.300003720000005,13.500000000000000));
#154=VERTEX_POINT('',#153);
#155=CARTESIAN_POINT('',(-4.900000360000034,-8.300003720000005,13.500000000000000));
#156=DIRECTION('',(-1.0,0.0,0.0));
#157=VECTOR('',#156,1.500002619999975);
#158=LINE('',#155,#157);
#159=EDGE_CURVE('',#154,#131,#158,.T.);
#160=ORIENTED_EDGE('',*,*,#159,.F.);
#161=CARTESIAN_POINT('',(-4.400001360000031,-8.300003720000008,13.500000000000000));
#162=DIRECTION('',(0.0,0.0,1.0));
#163=DIRECTION('',(0.0,1.0,0.0));
#164=AXIS2_PLACEMENT_3D('',#161,#162,#163);
#165=CIRCLE('',#164,0.499999000000003);
#166=EDGE_CURVE('',#73,#154,#165,.T.);
#167=ORIENTED_EDGE('',*,*,#166,.F.);
#168=ORIENTED_EDGE('',*,*,#102,.F.);
#169=CARTESIAN_POINT('',(7.400002980000012,-8.300003720000008,13.500000000000000));
#170=VERTEX_POINT('',#169);
#171=CARTESIAN_POINT('',(7.400002980000012,-8.300003720000008,13.500000000000000));
#172=DIRECTION('',(-1.0,0.0,0.0));
#173=VECTOR('',#172,11.300005340000039);
#174=LINE('',#171,#173);
#175=EDGE_CURVE('',#170,#90,#174,.T.);
#176=ORIENTED_EDGE('',*,*,#175,.F.);
#177=CARTESIAN_POINT('',(7.400002980000014,8.300003720000005,13.500000000000000));
#178=VERTEX_POINT('',#177);
#179=CARTESIAN_POINT('',(7.400002980000014,8.300003720000005,13.500000000000000));
#180=DIRECTION('',(0.0,-1.0,0.0));
#181=VECTOR('',#180,16.600007440000013);
#182=LINE('',#179,#181);
#183=EDGE_CURVE('',#178,#170,#182,.T.);
#184=ORIENTED_EDGE('',*,*,#183,.F.);
#185=CARTESIAN_POINT('',(-6.400002980000005,8.300003720000007,13.500000000000000));
#186=DIRECTION('',(1.0,0.0,0.0));
#187=VECTOR('',#186,13.800005960000020);
#188=LINE('',#185,#187);
#189=EDGE_CURVE('',#113,#178,#188,.T.);
#190=ORIENTED_EDGE('',*,*,#189,.F.);
#191=EDGE_LOOP('',(#152,#160,#167,#168,#176,#184,#190));
#192=FACE_OUTER_BOUND('',#191,.T.);
#193=ADVANCED_FACE('',(#192),#151,.T.);
#194=CARTESIAN_POINT('',(-4.900000360000034,-8.300003720000005,2.000000000000000));
#195=DIRECTION('',(0.0,-1.0,0.0));
#196=DIRECTION('',(0.0,0.0,-1.0));
#197=AXIS2_PLACEMENT_3D('',#194,#195,#196);
#198=PLANE('',#197);
#199=ORIENTED_EDGE('',*,*,#136,.F.);
#200=CARTESIAN_POINT('',(-7.400002980000009,-8.300003720000003,2.000000000000000));
#201=VERTEX_POINT('',#200);
#202=CARTESIAN_POINT('',(-7.400002980000009,-8.300003720000003,2.000000000000000));
#203=DIRECTION('',(0.0,0.0,1.0));
#204=VECTOR('',#203,10.500000000000000);
#205=LINE('',#202,#204);
#206=EDGE_CURVE('',#201,#123,#205,.T.);
#207=ORIENTED_EDGE('',*,*,#206,.F.);
#208=CARTESIAN_POINT('',(-4.900000360000034,-8.300003720000005,2.000000000000000));
#209=VERTEX_POINT('',#208);
#210=CARTESIAN_POINT('',(-4.900000360000034,-8.300003720000005,2.000000000000000));
#211=DIRECTION('',(-1.0,0.0,0.0));
#212=VECTOR('',#211,2.500002619999975);
#213=LINE('',#210,#212);
#214=EDGE_CURVE('',#209,#201,#213,.T.);
#215=ORIENTED_EDGE('',*,*,#214,.F.);
#216=CARTESIAN_POINT('',(-4.900000360000034,-8.300003720000005,2.000000000000000));
#217=DIRECTION('',(0.0,0.0,1.0));
#218=VECTOR('',#217,11.500000000000000);
#219=LINE('',#216,#218);
#220=EDGE_CURVE('',#209,#154,#219,.T.);
#221=ORIENTED_EDGE('',*,*,#220,.T.);
#222=ORIENTED_EDGE('',*,*,#159,.T.);
#223=EDGE_LOOP('',(#199,#207,#215,#221,#222));
#224=FACE_OUTER_BOUND('',#223,.T.);
#225=ADVANCED_FACE('',(#224),#198,.T.);
#226=CARTESIAN_POINT('',(7.400002980000014,8.300003720000005,2.000000000000000));
#227=DIRECTION('',(1.0,0.0,0.0));
#228=DIRECTION('',(0.0,0.0,1.0));
#229=AXIS2_PLACEMENT_3D('',#226,#227,#228);
#230=PLANE('',#229);
#231=ORIENTED_EDGE('',*,*,#183,.T.);
#232=CARTESIAN_POINT('',(7.400002980000012,-8.300003720000008,2.000000000000000));
#233=VERTEX_POINT('',#232);
#234=CARTESIAN_POINT('',(7.400002980000012,-8.300003720000008,2.000000000000000));
#235=DIRECTION('',(0.0,0.0,1.0));
#236=VECTOR('',#235,11.500000000000000);
#237=LINE('',#234,#236);
#238=EDGE_CURVE('',#233,#170,#237,.T.);
#239=ORIENTED_EDGE('',*,*,#238,.F.);
#240=CARTESIAN_POINT('',(7.400002980000014,8.300003720000005,2.000000000000000));
#241=VERTEX_POINT('',#240);
#242=CARTESIAN_POINT('',(7.400002980000014,8.300003720000005,2.000000000000000));
#243=DIRECTION('',(0.0,-1.0,0.0));
#244=VECTOR('',#243,16.600007440000013);
#245=LINE('',#242,#244);
#246=EDGE_CURVE('',#241,#233,#245,.T.);
#247=ORIENTED_EDGE('',*,*,#246,.F.);
#248=CARTESIAN_POINT('',(7.400002980000014,8.300003720000005,2.000000000000000));
#249=DIRECTION('',(0.0,0.0,1.0));
#250=VECTOR('',#249,11.500000000000000);
#251=LINE('',#248,#250);
#252=EDGE_CURVE('',#241,#178,#251,.T.);
#253=ORIENTED_EDGE('',*,*,#252,.T.);
#254=EDGE_LOOP('',(#231,#239,#247,#253));
#255=FACE_OUTER_BOUND('',#254,.T.);
#256=ADVANCED_FACE('',(#255),#230,.T.);
#257=CARTESIAN_POINT('',(7.400002980000012,-8.300003720000008,2.000000000000000));
#258=DIRECTION('',(0.0,-1.0,0.0));
#259=DIRECTION('',(0.0,0.0,-1.0));
#260=AXIS2_PLACEMENT_3D('',#257,#258,#259);
#261=PLANE('',#260);
#262=ORIENTED_EDGE('',*,*,#175,.T.);
#263=ORIENTED_EDGE('',*,*,#95,.F.);
#264=CARTESIAN_POINT('',(7.400002980000012,-8.300003720000008,2.000000000000000));
#265=DIRECTION('',(-1.0,0.0,0.0));
#266=VECTOR('',#265,11.300005340000039);
#267=LINE('',#264,#266);
#268=EDGE_CURVE('',#233,#81,#267,.T.);
#269=ORIENTED_EDGE('',*,*,#268,.F.);
#270=ORIENTED_EDGE('',*,*,#238,.T.);
#271=EDGE_LOOP('',(#262,#263,#269,#270));
#272=FACE_OUTER_BOUND('',#271,.T.);
#273=ADVANCED_FACE('',(#272),#261,.T.);
#274=CARTESIAN_POINT('',(-4.400001360000031,-8.300003720000008,2.000000000000000));
#275=DIRECTION('',(0.0,0.0,1.0));
#276=DIRECTION('',(0.0,1.0,0.0));
#277=AXIS2_PLACEMENT_3D('',#274,#275,#276);
#278=CYLINDRICAL_SURFACE('',#277,0.499999000000003);
#279=ORIENTED_EDGE('',*,*,#78,.T.);
#280=ORIENTED_EDGE('',*,*,#166,.T.);
#281=ORIENTED_EDGE('',*,*,#220,.F.);
#282=CARTESIAN_POINT('',(-4.400001360000031,-8.300003720000008,2.000000000000000));
#283=DIRECTION('',(0.0,0.0,1.0));
#284=DIRECTION('',(0.0,1.0,0.0));
#285=AXIS2_PLACEMENT_3D('',#282,#283,#284);
#286=CIRCLE('',#285,0.499999000000003);
#287=EDGE_CURVE('',#71,#209,#286,.T.);
#288=ORIENTED_EDGE('',*,*,#287,.F.);
#289=EDGE_LOOP('',(#279,#280,#281,#288));
#290=FACE_OUTER_BOUND('',#289,.T.);
#291=ADVANCED_FACE('',(#290),#278,.F.);
#292=CARTESIAN_POINT('',(-7.400002980000009,-8.300003720000003,2.000000000000000));
#293=DIRECTION('',(-1.0,0.0,0.0));
#294=DIRECTION('',(0.0,0.0,-1.0));
#295=AXIS2_PLACEMENT_3D('',#292,#293,#294);
#296=PLANE('',#295);
#297=ORIENTED_EDGE('',*,*,#128,.F.);
#298=CARTESIAN_POINT('',(-7.400002980000005,8.300003720000008,2.000000000000000));
#299=VERTEX_POINT('',#298);
#300=CARTESIAN_POINT('',(-7.400002980000005,8.300003720000008,2.000000000000000));
#301=DIRECTION('',(0.0,0.0,1.0));
#302=VECTOR('',#301,10.500000000000000);
#303=LINE('',#300,#302);
#304=EDGE_CURVE('',#299,#115,#303,.T.);
#305=ORIENTED_EDGE('',*,*,#304,.F.);
#306=CARTESIAN_POINT('',(-7.400002980000009,-8.300003720000003,2.000000000000000));
#307=DIRECTION('',(0.0,1.0,0.0));
#308=VECTOR('',#307,16.600007440000013);
#309=LINE('',#306,#308);
#310=EDGE_CURVE('',#201,#299,#309,.T.);
#311=ORIENTED_EDGE('',*,*,#310,.F.);
#312=ORIENTED_EDGE('',*,*,#206,.T.);
#313=EDGE_LOOP('',(#297,#305,#311,#312));
#314=FACE_OUTER_BOUND('',#313,.T.);
#315=ADVANCED_FACE('',(#314),#296,.T.);
#316=CARTESIAN_POINT('',(-7.400002980000005,8.300003720000008,2.000000000000000));
#317=DIRECTION('',(0.0,1.0,0.0));
#318=DIRECTION('',(0.0,0.0,1.0));
#319=AXIS2_PLACEMENT_3D('',#316,#317,#318);
#320=PLANE('',#319);
#321=ORIENTED_EDGE('',*,*,#120,.F.);
#322=ORIENTED_EDGE('',*,*,#189,.T.);
#323=ORIENTED_EDGE('',*,*,#252,.F.);
#324=CARTESIAN_POINT('',(-7.400002980000005,8.300003720000008,2.000000000000000));
#325=DIRECTION('',(1.0,0.0,0.0));
#326=VECTOR('',#325,14.800005960000020);
#327=LINE('',#324,#326);
#328=EDGE_CURVE('',#299,#241,#327,.T.);
#329=ORIENTED_EDGE('',*,*,#328,.F.);
#330=ORIENTED_EDGE('',*,*,#304,.T.);
#331=EDGE_LOOP('',(#321,#322,#323,#329,#330));
#332=FACE_OUTER_BOUND('',#331,.T.);
#333=ADVANCED_FACE('',(#332),#320,.T.);
#334=CARTESIAN_POINT('',(-0.039631797608017,-0.067646324056830,2.000000000000000));
#335=DIRECTION('',(0.0,0.0,1.0));
#336=DIRECTION('',(0.0,-1.0,0.0));
#337=AXIS2_PLACEMENT_3D('',#334,#335,#336);
#338=PLANE('',#337);
#339=ORIENTED_EDGE('',*,*,#328,.T.);
#340=ORIENTED_EDGE('',*,*,#246,.T.);
#341=ORIENTED_EDGE('',*,*,#268,.T.);
#342=ORIENTED_EDGE('',*,*,#87,.T.);
#343=ORIENTED_EDGE('',*,*,#287,.T.);
#344=ORIENTED_EDGE('',*,*,#214,.T.);
#345=ORIENTED_EDGE('',*,*,#310,.T.);
#346=EDGE_LOOP('',(#339,#340,#341,#342,#343,#344,#345));
#347=FACE_OUTER_BOUND('',#346,.T.);
#348=ADVANCED_FACE('',(#347),#338,.F.);
#349=CLOSED_SHELL('',(#106,#146,#193,#225,#256,#273,#291,#315,#333,#348));
#350=MANIFOLD_SOLID_BREP('45F',#349);
#351=COLOUR_RGB('250',0.330000000000000,0.330000000000000,0.330000000000000);
#352=SURFACE_STYLE_USAGE(.BOTH.,#353);
#353=SURFACE_SIDE_STYLE('NONE',(#354));
#354=SURFACE_STYLE_FILL_AREA(#355);
#355=FILL_AREA_STYLE('NONE',(#356));
#356=FILL_AREA_STYLE_COLOUR('NONE',#351);
#357=PRESENTATION_STYLE_ASSIGNMENT((#352));
#358=STYLED_ITEM('NONE',(#357),#350);
#359=MECHANICAL_DESIGN_GEOMETRIC_PRESENTATION_REPRESENTATION('NONE',(#358,#511,#662,#758,#847,#936,#1025,#1114,#1203),#28);
#360=PRESENTATION_LAYER_ASSIGNMENT('3D','None',(#350,#510,#661,#750,#846,#935,#1024,#1113,#1202));
#361=CARTESIAN_POINT('',(-7.400002980000006,4.150000000000002,2.000000000000000));
#362=DIRECTION('',(-1.0,0.0,0.0));
#363=DIRECTION('',(0.0,0.0,-1.0));
#364=AXIS2_PLACEMENT_3D('',#361,#362,#363);
#365=PLANE('',#364);
#366=CARTESIAN_POINT('',(-7.400002980000006,4.150000000000002,0.0));
#367=VERTEX_POINT('',#366);
#368=CARTESIAN_POINT('',(-7.400002980000008,-4.149999999999997,0.0));
#369=VERTEX_POINT('',#368);
#370=CARTESIAN_POINT('',(-7.400002980000006,4.150000000000002,0.0));
#371=DIRECTION('',(0.0,-1.0,0.0));
#372=VECTOR('',#371,8.299999999999999);
#373=LINE('',#370,#372);
#374=EDGE_CURVE('',#367,#369,#373,.T.);
#375=ORIENTED_EDGE('',*,*,#374,.T.);
#376=CARTESIAN_POINT('',(-7.400002980000008,-4.149999999999997,2.000000000000000));
#377=VERTEX_POINT('',#376);
#378=CARTESIAN_POINT('',(-7.400002980000008,-4.149999999999997,2.000000000000000));
#379=DIRECTION('',(0.0,0.0,-1.0));
#380=VECTOR('',#379,2.000000000000000);
#381=LINE('',#378,#380);
#382=EDGE_CURVE('',#377,#369,#381,.T.);
#383=ORIENTED_EDGE('',*,*,#382,.F.);
#384=CARTESIAN_POINT('',(-7.400002980000006,4.150000000000002,2.000000000000000));
#385=VERTEX_POINT('',#384);
#386=CARTESIAN_POINT('',(-7.400002980000008,-4.149999999999997,2.000000000000000));
#387=DIRECTION('',(0.0,1.0,0.0));
#388=VECTOR('',#387,8.299999999999999);
#389=LINE('',#386,#388);
#390=EDGE_CURVE('',#377,#385,#389,.T.);
#391=ORIENTED_EDGE('',*,*,#390,.T.);
#392=CARTESIAN_POINT('',(-7.400002980000006,4.150000000000002,2.000000000000000));
#393=DIRECTION('',(0.0,0.0,-1.0));
#394=VECTOR('',#393,2.000000000000000);
#395=LINE('',#392,#394);
#396=EDGE_CURVE('',#385,#367,#395,.T.);
#397=ORIENTED_EDGE('',*,*,#396,.T.);
#398=EDGE_LOOP('',(#375,#383,#391,#397));
#399=FACE_OUTER_BOUND('',#398,.T.);
#400=ADVANCED_FACE('',(#399),#365,.T.);
#401=CARTESIAN_POINT('',(-7.400002980000008,-4.149999999999997,2.000000000000000));
#402=DIRECTION('',(0.0,-1.0,0.0));
#403=DIRECTION('',(0.0,0.0,-1.0));
#404=AXIS2_PLACEMENT_3D('',#401,#402,#403);
#405=PLANE('',#404);
#406=CARTESIAN_POINT('',(-6.900002980000009,-4.149999999999998,0.0));
#407=VERTEX_POINT('',#406);
#408=CARTESIAN_POINT('',(-7.400002980000008,-4.149999999999997,0.0));
#409=DIRECTION('',(1.0,0.0,0.0));
#410=VECTOR('',#409,0.499999999999999);
#411=LINE('',#408,#410);
#412=EDGE_CURVE('',#369,#407,#411,.T.);
#413=ORIENTED_EDGE('',*,*,#412,.T.);
#414=CARTESIAN_POINT('',(-6.900002980000009,-4.149999999999998,2.000000000000000));
#415=VERTEX_POINT('',#414);
#416=CARTESIAN_POINT('',(-6.900002980000009,-4.149999999999998,2.000000000000000));
#417=DIRECTION('',(0.0,0.0,-1.0));
#418=VECTOR('',#417,2.000000000000000);
#419=LINE('',#416,#418);
#420=EDGE_CURVE('',#415,#407,#419,.T.);
#421=ORIENTED_EDGE('',*,*,#420,.F.);
#422=CARTESIAN_POINT('',(-6.900002980000009,-4.149999999999998,2.000000000000000));
#423=DIRECTION('',(-1.0,0.0,0.0));
#424=VECTOR('',#423,0.499999999999999);
#425=LINE('',#422,#424);
#426=EDGE_CURVE('',#415,#377,#425,.T.);
#427=ORIENTED_EDGE('',*,*,#426,.T.);
#428=ORIENTED_EDGE('',*,*,#382,.T.);
#429=EDGE_LOOP('',(#413,#421,#427,#428));
#430=FACE_OUTER_BOUND('',#429,.T.);
#431=ADVANCED_FACE('',(#430),#405,.T.);
#432=CARTESIAN_POINT('',(-6.900002980000009,-4.149999999999998,2.000000000000000));
#433=DIRECTION('',(1.0,0.0,0.0));
#434=DIRECTION('',(0.0,0.0,1.0));
#435=AXIS2_PLACEMENT_3D('',#432,#433,#434);
#436=PLANE('',#435);
#437=CARTESIAN_POINT('',(-6.900002980000007,4.150000000000001,0.0));
#438=VERTEX_POINT('',#437);
#439=CARTESIAN_POINT('',(-6.900002980000009,-4.149999999999998,0.0));
#440=DIRECTION('',(0.0,1.0,0.0));
#441=VECTOR('',#440,8.299999999999999);
#442=LINE('',#439,#441);
#443=EDGE_CURVE('',#407,#438,#442,.T.);
#444=ORIENTED_EDGE('',*,*,#443,.T.);
#445=CARTESIAN_POINT('',(-6.900002980000007,4.150000000000001,2.000000000000000));
#446=VERTEX_POINT('',#445);
#447=CARTESIAN_POINT('',(-6.900002980000007,4.150000000000001,2.000000000000000));
#448=DIRECTION('',(0.0,0.0,-1.0));
#449=VECTOR('',#448,2.000000000000000);
#450=LINE('',#447,#449);
#451=EDGE_CURVE('',#446,#438,#450,.T.);
#452=ORIENTED_EDGE('',*,*,#451,.F.);
#453=CARTESIAN_POINT('',(-6.900002980000007,4.150000000000001,2.000000000000000));
#454=DIRECTION('',(0.0,-1.0,0.0));
#455=VECTOR('',#454,8.299999999999999);
#456=LINE('',#453,#455);
#457=EDGE_CURVE('',#446,#415,#456,.T.);
#458=ORIENTED_EDGE('',*,*,#457,.T.);
#459=ORIENTED_EDGE('',*,*,#420,.T.);
#460=EDGE_LOOP('',(#444,#452,#458,#459));
#461=FACE_OUTER_BOUND('',#460,.T.);
#462=ADVANCED_FACE('',(#461),#436,.T.);
#463=CARTESIAN_POINT('',(-6.900002980000007,4.150000000000001,2.000000000000000));
#464=DIRECTION('',(0.0,1.0,0.0));
#465=DIRECTION('',(0.0,0.0,1.0));
#466=AXIS2_PLACEMENT_3D('',#463,#464,#465);
#467=PLANE('',#466);
#468=CARTESIAN_POINT('',(-6.900002980000007,4.150000000000001,0.0));
#469=DIRECTION('',(-1.0,0.0,0.0));
#470=VECTOR('',#469,0.499999999999999);
#471=LINE('',#468,#470);
#472=EDGE_CURVE('',#438,#367,#471,.T.);
#473=ORIENTED_EDGE('',*,*,#472,.T.);
#474=ORIENTED_EDGE('',*,*,#396,.F.);
#475=CARTESIAN_POINT('',(-7.400002980000006,4.150000000000002,2.000000000000000));
#476=DIRECTION('',(1.0,0.0,0.0));
#477=VECTOR('',#476,0.499999999999999);
#478=LINE('',#475,#477);
#479=EDGE_CURVE('',#385,#446,#478,.T.);
#480=ORIENTED_EDGE('',*,*,#479,.T.);
#481=ORIENTED_EDGE('',*,*,#451,.T.);
#482=EDGE_LOOP('',(#473,#474,#480,#481));
#483=FACE_OUTER_BOUND('',#482,.T.);
#484=ADVANCED_FACE('',(#483),#467,.T.);
#485=CARTESIAN_POINT('',(-7.150002980000011,2.179892E-015,0.0));
#486=DIRECTION('',(0.0,0.0,1.0));
#487=DIRECTION('',(0.0,-1.0,0.0));
#488=AXIS2_PLACEMENT_3D('',#485,#486,#487);
#489=PLANE('',#488);
#490=ORIENTED_EDGE('',*,*,#374,.F.);
#491=ORIENTED_EDGE('',*,*,#472,.F.);
#492=ORIENTED_EDGE('',*,*,#443,.F.);
#493=ORIENTED_EDGE('',*,*,#412,.F.);
#494=EDGE_LOOP('',(#490,#491,#492,#493));
#495=FACE_OUTER_BOUND('',#494,.T.);
#496=ADVANCED_FACE('',(#495),#489,.F.);
#497=CARTESIAN_POINT('',(-7.150002980000011,2.179892E-015,2.0));
#498=DIRECTION('',(0.0,0.0,1.0));
#499=DIRECTION('',(0.0,-1.0,0.0));
#500=AXIS2_PLACEMENT_3D('',#497,#498,#499);
#501=PLANE('',#500);
#502=ORIENTED_EDGE('',*,*,#479,.F.);
#503=ORIENTED_EDGE('',*,*,#390,.F.);
#504=ORIENTED_EDGE('',*,*,#426,.F.);
#505=ORIENTED_EDGE('',*,*,#457,.F.);
#506=EDGE_LOOP('',(#502,#503,#504,#505));
#507=FACE_OUTER_BOUND('',#506,.T.);
#508=ADVANCED_FACE('',(#507),#501,.T.);
#509=CLOSED_SHELL('',(#400,#431,#462,#484,#496,#508));
#510=MANIFOLD_SOLID_BREP('45E',#509);
#511=STYLED_ITEM('NONE',(#357),#510);
#512=CARTESIAN_POINT('',(6.900002980000014,4.149999999999999,2.000000000000000));
#513=DIRECTION('',(-1.0,0.0,0.0));
#514=DIRECTION('',(0.0,0.0,-1.0));
#515=AXIS2_PLACEMENT_3D('',#512,#513,#514);
#516=PLANE('',#515);
#517=CARTESIAN_POINT('',(6.900002980000014,4.149999999999999,0.0));
#518=VERTEX_POINT('',#517);
#519=CARTESIAN_POINT('',(6.900002980000012,-4.150000000000000,0.0));
#520=VERTEX_POINT('',#519);
#521=CARTESIAN_POINT('',(6.900002980000014,4.149999999999999,0.0));
#522=DIRECTION('',(0.0,-1.0,0.0));
#523=VECTOR('',#522,8.299999999999999);
#524=LINE('',#521,#523);
#525=EDGE_CURVE('',#518,#520,#524,.T.);
#526=ORIENTED_EDGE('',*,*,#525,.T.);
#527=CARTESIAN_POINT('',(6.900002980000012,-4.150000000000000,2.000000000000000));
#528=VERTEX_POINT('',#527);
#529=CARTESIAN_POINT('',(6.900002980000012,-4.150000000000000,2.000000000000000));
#530=DIRECTION('',(0.0,0.0,-1.0));
#531=VECTOR('',#530,2.000000000000000);
#532=LINE('',#529,#531);
#533=EDGE_CURVE('',#528,#520,#532,.T.);
#534=ORIENTED_EDGE('',*,*,#533,.F.);
#535=CARTESIAN_POINT('',(6.900002980000014,4.149999999999999,2.000000000000000));
#536=VERTEX_POINT('',#535);
#537=CARTESIAN_POINT('',(6.900002980000014,4.149999999999999,2.000000000000000));
#538=DIRECTION('',(0.0,-1.0,0.0));
#539=VECTOR('',#538,8.299999999999999);
#540=LINE('',#537,#539);
#541=EDGE_CURVE('',#536,#528,#540,.T.);
#542=ORIENTED_EDGE('',*,*,#541,.F.);
#543=CARTESIAN_POINT('',(6.900002980000014,4.149999999999999,2.000000000000000));
#544=DIRECTION('',(0.0,0.0,-1.0));
#545=VECTOR('',#544,2.000000000000000);
#546=LINE('',#543,#545);
#547=EDGE_CURVE('',#536,#518,#546,.T.);
#548=ORIENTED_EDGE('',*,*,#547,.T.);
#549=EDGE_LOOP('',(#526,#534,#542,#548));
#550=FACE_OUTER_BOUND('',#549,.T.);
#551=ADVANCED_FACE('',(#550),#516,.T.);
#552=CARTESIAN_POINT('',(6.900002980000012,-4.150000000000000,2.000000000000000));
#553=DIRECTION('',(0.0,-1.0,0.0));
#554=DIRECTION('',(0.0,0.0,-1.0));
#555=AXIS2_PLACEMENT_3D('',#552,#553,#554);
#556=PLANE('',#555);
#557=CARTESIAN_POINT('',(7.400002980000012,-4.150000000000001,0.0));
#558=VERTEX_POINT('',#557);
#559=CARTESIAN_POINT('',(6.900002980000012,-4.150000000000000,0.0));
#560=DIRECTION('',(1.0,0.0,0.0));
#561=VECTOR('',#560,0.500000000000000);
#562=LINE('',#559,#561);
#563=EDGE_CURVE('',#520,#558,#562,.T.);
#564=ORIENTED_EDGE('',*,*,#563,.T.);
#565=CARTESIAN_POINT('',(7.400002980000012,-4.150000000000001,2.000000000000000));
#566=VERTEX_POINT('',#565);
#567=CARTESIAN_POINT('',(7.400002980000012,-4.150000000000001,2.000000000000000));
#568=DIRECTION('',(0.0,0.0,-1.0));
#569=VECTOR('',#568,2.000000000000000);
#570=LINE('',#567,#569);
#571=EDGE_CURVE('',#566,#558,#570,.T.);
#572=ORIENTED_EDGE('',*,*,#571,.F.);
#573=CARTESIAN_POINT('',(6.900002980000012,-4.150000000000000,2.000000000000000));
#574=DIRECTION('',(1.0,0.0,0.0));
#575=VECTOR('',#574,0.500000000000000);
#576=LINE('',#573,#575);
#577=EDGE_CURVE('',#528,#566,#576,.T.);
#578=ORIENTED_EDGE('',*,*,#577,.F.);
#579=ORIENTED_EDGE('',*,*,#533,.T.);
#580=EDGE_LOOP('',(#564,#572,#578,#579));
#581=FACE_OUTER_BOUND('',#580,.T.);
#582=ADVANCED_FACE('',(#581),#556,.T.);
#583=CARTESIAN_POINT('',(7.400002980000012,-4.150000000000001,2.000000000000000));
#584=DIRECTION('',(1.0,0.0,0.0));
#585=DIRECTION('',(0.0,0.0,1.0));
#586=AXIS2_PLACEMENT_3D('',#583,#584,#585);
#587=PLANE('',#586);
#588=CARTESIAN_POINT('',(7.400002980000013,4.149999999999998,0.0));
#589=VERTEX_POINT('',#588);
#590=CARTESIAN_POINT('',(7.400002980000012,-4.150000000000001,0.0));
#591=DIRECTION('',(0.0,1.0,0.0));
#592=VECTOR('',#591,8.299999999999999);
#593=LINE('',#590,#592);
#594=EDGE_CURVE('',#558,#589,#593,.T.);
#595=ORIENTED_EDGE('',*,*,#594,.T.);
#596=CARTESIAN_POINT('',(7.400002980000013,4.149999999999998,2.000000000000000));
#597=VERTEX_POINT('',#596);
#598=CARTESIAN_POINT('',(7.400002980000013,4.149999999999998,2.000000000000000));
#599=DIRECTION('',(0.0,0.0,-1.0));
#600=VECTOR('',#599,2.000000000000000);
#601=LINE('',#598,#600);
#602=EDGE_CURVE('',#597,#589,#601,.T.);
#603=ORIENTED_EDGE('',*,*,#602,.F.);
#604=CARTESIAN_POINT('',(7.400002980000012,-4.150000000000001,2.000000000000000));
#605=DIRECTION('',(0.0,1.0,0.0));
#606=VECTOR('',#605,8.299999999999999);
#607=LINE('',#604,#606);
#608=EDGE_CURVE('',#566,#597,#607,.T.);
#609=ORIENTED_EDGE('',*,*,#608,.F.);
#610=ORIENTED_EDGE('',*,*,#571,.T.);
#611=EDGE_LOOP('',(#595,#603,#609,#610));
#612=FACE_OUTER_BOUND('',#611,.T.);
#613=ADVANCED_FACE('',(#612),#587,.T.);
#614=CARTESIAN_POINT('',(7.400002980000013,4.149999999999998,2.000000000000000));
#615=DIRECTION('',(0.0,1.0,0.0));
#616=DIRECTION('',(0.0,0.0,1.0));
#617=AXIS2_PLACEMENT_3D('',#614,#615,#616);
#618=PLANE('',#617);
#619=CARTESIAN_POINT('',(7.400002980000013,4.149999999999998,0.0));
#620=DIRECTION('',(-1.0,0.0,0.0));
#621=VECTOR('',#620,0.499999999999999);
#622=LINE('',#619,#621);
#623=EDGE_CURVE('',#589,#518,#622,.T.);
#624=ORIENTED_EDGE('',*,*,#623,.T.);
#625=ORIENTED_EDGE('',*,*,#547,.F.);
#626=CARTESIAN_POINT('',(7.400002980000013,4.149999999999998,2.000000000000000));
#627=DIRECTION('',(-1.0,0.0,0.0));
#628=VECTOR('',#627,0.499999999999999);
#629=LINE('',#626,#628);
#630=EDGE_CURVE('',#597,#536,#629,.T.);
#631=ORIENTED_EDGE('',*,*,#630,.F.);
#632=ORIENTED_EDGE('',*,*,#602,.T.);
#633=EDGE_LOOP('',(#624,#625,#631,#632));
#634=FACE_OUTER_BOUND('',#633,.T.);
#635=ADVANCED_FACE('',(#634),#618,.T.);
#636=CARTESIAN_POINT('',(7.150002980000012,-1.524769E-015,0.0));
#637=DIRECTION('',(0.0,0.0,1.0));
#638=DIRECTION('',(0.0,-1.0,0.0));
#639=AXIS2_PLACEMENT_3D('',#636,#637,#638);
#640=PLANE('',#639);
#641=ORIENTED_EDGE('',*,*,#525,.F.);
#642=ORIENTED_EDGE('',*,*,#623,.F.);
#643=ORIENTED_EDGE('',*,*,#594,.F.);
#644=ORIENTED_EDGE('',*,*,#563,.F.);
#645=EDGE_LOOP('',(#641,#642,#643,#644));
#646=FACE_OUTER_BOUND('',#645,.T.);
#647=ADVANCED_FACE('',(#646),#640,.F.);
#648=CARTESIAN_POINT('',(7.150002980000012,-1.524769E-015,2.0));
#649=DIRECTION('',(0.0,0.0,1.0));
#650=DIRECTION('',(0.0,-1.0,0.0));
#651=AXIS2_PLACEMENT_3D('',#648,#649,#650);
#652=PLANE('',#651);
#653=ORIENTED_EDGE('',*,*,#630,.T.);
#654=ORIENTED_EDGE('',*,*,#541,.T.);
#655=ORIENTED_EDGE('',*,*,#577,.T.);
#656=ORIENTED_EDGE('',*,*,#608,.T.);
#657=EDGE_LOOP('',(#653,#654,#655,#656));
#658=FACE_OUTER_BOUND('',#657,.T.);
#659=ADVANCED_FACE('',(#658),#652,.T.);
#660=CLOSED_SHELL('',(#551,#582,#613,#635,#647,#659));
#661=MANIFOLD_SOLID_BREP('45D',#660);
#662=STYLED_ITEM('NONE',(#357),#661);
#663=CARTESIAN_POINT('',(6.250002740000015,-7.500005320000001,2.0));
#664=DIRECTION('',(0.0,0.0,-1.0));
#665=DIRECTION('',(0.0,-1.0,0.0));
#666=AXIS2_PLACEMENT_3D('',#663,#664,#665);
#667=CYLINDRICAL_SURFACE('',#666,0.300000000000000);
#668=CARTESIAN_POINT('',(6.250002740000015,-7.800005320000000,2.0));
#669=VERTEX_POINT('',#668);
#670=CARTESIAN_POINT('',(6.250002740000015,-7.800005320000000,-3.600000000000000));
#671=VERTEX_POINT('',#670);
#672=CARTESIAN_POINT('',(6.250002740000015,-7.800005320000000,2.0));
#673=DIRECTION('',(0.0,0.0,-1.0));
#674=VECTOR('',#673,5.600000000000000);
#675=LINE('',#672,#674);
#676=EDGE_CURVE('',#669,#671,#675,.T.);
#677=ORIENTED_EDGE('',*,*,#676,.F.);
#678=CARTESIAN_POINT('',(6.250002740000015,-7.200005320000001,2.0));
#679=VERTEX_POINT('',#678);
#680=CARTESIAN_POINT('',(6.250002740000015,-7.500005320000001,2.0));
#681=DIRECTION('',(0.0,0.0,1.0));
#682=DIRECTION('',(0.0,-1.0,0.0));
#683=AXIS2_PLACEMENT_3D('',#680,#681,#682);
#684=CIRCLE('',#683,0.300000000000000);
#685=EDGE_CURVE('',#679,#669,#684,.T.);
#686=ORIENTED_EDGE('',*,*,#685,.F.);
#687=CARTESIAN_POINT('',(6.250002740000015,-7.200005320000001,-3.600000000000000));
#688=VERTEX_POINT('',#687);
#689=CARTESIAN_POINT('',(6.250002740000015,-7.200005320000001,-3.600000000000000));
#690=DIRECTION('',(0.0,0.0,1.0));
#691=VECTOR('',#690,5.600000000000000);
#692=LINE('',#689,#691);
#693=EDGE_CURVE('',#688,#679,#692,.T.);
#694=ORIENTED_EDGE('',*,*,#693,.F.);
#695=CARTESIAN_POINT('',(6.250002740000015,-7.500005320000001,-3.600000000000000));
#696=DIRECTION('',(0.0,0.0,1.0));
#697=DIRECTION('',(0.0,-1.0,0.0));
#698=AXIS2_PLACEMENT_3D('',#695,#696,#697);
#699=CIRCLE('',#698,0.300000000000000);
#700=EDGE_CURVE('',#688,#671,#699,.T.);
#701=ORIENTED_EDGE('',*,*,#700,.T.);
#702=EDGE_LOOP('',(#677,#686,#694,#701));
#703=FACE_OUTER_BOUND('',#702,.T.);
#704=ADVANCED_FACE('',(#703),#667,.T.);
#705=CARTESIAN_POINT('',(6.250002740000015,-7.500005320000001,2.0));
#706=DIRECTION('',(0.0,0.0,-1.0));
#707=DIRECTION('',(0.0,-1.0,0.0));
#708=AXIS2_PLACEMENT_3D('',#705,#706,#707);
#709=CYLINDRICAL_SURFACE('',#708,0.300000000000000);
#710=ORIENTED_EDGE('',*,*,#676,.T.);
#711=CARTESIAN_POINT('',(6.250002740000015,-7.500005320000001,-3.600000000000000));
#712=DIRECTION('',(0.0,0.0,1.0));
#713=DIRECTION('',(0.0,-1.0,0.0));
#714=AXIS2_PLACEMENT_3D('',#711,#712,#713);
#715=CIRCLE('',#714,0.300000000000000);
#716=EDGE_CURVE('',#671,#688,#715,.T.);
#717=ORIENTED_EDGE('',*,*,#716,.T.);
#718=ORIENTED_EDGE('',*,*,#693,.T.);
#719=CARTESIAN_POINT('',(6.250002740000015,-7.500005320000001,2.0));
#720=DIRECTION('',(0.0,0.0,1.0));
#721=DIRECTION('',(0.0,-1.0,0.0));
#722=AXIS2_PLACEMENT_3D('',#719,#720,#721);
#723=CIRCLE('',#722,0.300000000000000);
#724=EDGE_CURVE('',#669,#679,#723,.T.);
#725=ORIENTED_EDGE('',*,*,#724,.F.);
#726=EDGE_LOOP('',(#710,#717,#718,#725));
#727=FACE_OUTER_BOUND('',#726,.T.);
#728=ADVANCED_FACE('',(#727),#709,.T.);
#729=CARTESIAN_POINT('',(6.250002740000015,-7.500005320000001,-3.600000000000000));
#730=DIRECTION('',(0.0,0.0,1.0));
#731=DIRECTION('',(0.0,-1.0,0.0));
#732=AXIS2_PLACEMENT_3D('',#729,#730,#731);
#733=PLANE('',#732);
#734=ORIENTED_EDGE('',*,*,#716,.F.);
#735=ORIENTED_EDGE('',*,*,#700,.F.);
#736=EDGE_LOOP('',(#734,#735));
#737=FACE_OUTER_BOUND('',#736,.T.);
#738=ADVANCED_FACE('',(#737),#733,.F.);
#739=CARTESIAN_POINT('',(6.250002740000015,-7.500005320000001,2.0));
#740=DIRECTION('',(0.0,0.0,1.0));
#741=DIRECTION('',(0.0,-1.0,0.0));
#742=AXIS2_PLACEMENT_3D('',#739,#740,#741);
#743=PLANE('',#742);
#744=ORIENTED_EDGE('',*,*,#724,.T.);
#745=ORIENTED_EDGE('',*,*,#685,.T.);
#746=EDGE_LOOP('',(#744,#745));
#747=FACE_OUTER_BOUND('',#746,.T.);
#748=ADVANCED_FACE('',(#747),#743,.T.);
#749=CLOSED_SHELL('',(#704,#728,#738,#748));
#750=MANIFOLD_SOLID_BREP('444',#749);
#751=COLOUR_RGB('253',0.732000000000000,0.732000000000000,0.732000000000000);
#752=SURFACE_STYLE_USAGE(.BOTH.,#753);
#753=SURFACE_SIDE_STYLE('NONE',(#754));
#754=SURFACE_STYLE_FILL_AREA(#755);
#755=FILL_AREA_STYLE('NONE',(#756));
#756=FILL_AREA_STYLE_COLOUR('NONE',#751);
#757=PRESENTATION_STYLE_ASSIGNMENT((#752));
#758=STYLED_ITEM('NONE',(#757),#750);
#759=CARTESIAN_POINT('',(-6.250002740000012,-7.500005319999999,2.000000000000000));
#760=DIRECTION('',(0.0,0.0,-1.0));
#761=DIRECTION('',(0.0,-1.0,0.0));
#762=AXIS2_PLACEMENT_3D('',#759,#760,#761);
#763=CYLINDRICAL_SURFACE('',#762,0.300000000000000);
#764=CARTESIAN_POINT('',(-6.250002740000012,-7.800005319999998,2.000000000000000));
#765=VERTEX_POINT('',#764);
#766=CARTESIAN_POINT('',(-6.250002740000012,-7.800005319999998,-3.600000000000000));
#767=VERTEX_POINT('',#766);
#768=CARTESIAN_POINT('',(-6.250002740000012,-7.800005319999998,2.000000000000000));
#769=DIRECTION('',(0.0,0.0,-1.0));
#770=VECTOR('',#769,5.600000000000000);
#771=LINE('',#768,#770);
#772=EDGE_CURVE('',#765,#767,#771,.T.);
#773=ORIENTED_EDGE('',*,*,#772,.F.);
#774=CARTESIAN_POINT('',(-6.250002740000012,-7.200005319999999,2.000000000000000));
#775=VERTEX_POINT('',#774);
#776=CARTESIAN_POINT('',(-6.250002740000012,-7.500005319999999,2.000000000000000));
#777=DIRECTION('',(0.0,0.0,1.0));
#778=DIRECTION('',(0.0,-1.0,0.0));
#779=AXIS2_PLACEMENT_3D('',#776,#777,#778);
#780=CIRCLE('',#779,0.300000000000000);
#781=EDGE_CURVE('',#775,#765,#780,.T.);
#782=ORIENTED_EDGE('',*,*,#781,.F.);
#783=CARTESIAN_POINT('',(-6.250002740000012,-7.200005319999999,-3.600000000000000));
#784=VERTEX_POINT('',#783);
#785=CARTESIAN_POINT('',(-6.250002740000012,-7.200005319999999,-3.600000000000000));
#786=DIRECTION('',(0.0,0.0,1.0));
#787=VECTOR('',#786,5.600000000000000);
#788=LINE('',#785,#787);
#789=EDGE_CURVE('',#784,#775,#788,.T.);
#790=ORIENTED_EDGE('',*,*,#789,.F.);
#791=CARTESIAN_POINT('',(-6.250002740000012,-7.500005319999999,-3.600000000000000));
#792=DIRECTION('',(0.0,0.0,1.0));
#793=DIRECTION('',(0.0,-1.0,0.0));
#794=AXIS2_PLACEMENT_3D('',#791,#792,#793);
#795=CIRCLE('',#794,0.300000000000000);
#796=EDGE_CURVE('',#784,#767,#795,.T.);
#797=ORIENTED_EDGE('',*,*,#796,.T.);
#798=EDGE_LOOP('',(#773,#782,#790,#797));
#799=FACE_OUTER_BOUND('',#798,.T.);
#800=ADVANCED_FACE('',(#799),#763,.T.);
#801=CARTESIAN_POINT('',(-6.250002740000012,-7.500005319999999,2.000000000000000));
#802=DIRECTION('',(0.0,0.0,-1.0));
#803=DIRECTION('',(0.0,-1.0,0.0));
#804=AXIS2_PLACEMENT_3D('',#801,#802,#803);
#805=CYLINDRICAL_SURFACE('',#804,0.300000000000000);
#806=ORIENTED_EDGE('',*,*,#772,.T.);
#807=CARTESIAN_POINT('',(-6.250002740000012,-7.500005319999999,-3.600000000000000));
#808=DIRECTION('',(0.0,0.0,1.0));
#809=DIRECTION('',(0.0,-1.0,0.0));
#810=AXIS2_PLACEMENT_3D('',#807,#808,#809);
#811=CIRCLE('',#810,0.300000000000000);
#812=EDGE_CURVE('',#767,#784,#811,.T.);
#813=ORIENTED_EDGE('',*,*,#812,.T.);
#814=ORIENTED_EDGE('',*,*,#789,.T.);
#815=CARTESIAN_POINT('',(-6.250002740000012,-7.500005319999999,2.000000000000000));
#816=DIRECTION('',(0.0,0.0,1.0));
#817=DIRECTION('',(0.0,-1.0,0.0));
#818=AXIS2_PLACEMENT_3D('',#815,#816,#817);
#819=CIRCLE('',#818,0.300000000000000);
#820=EDGE_CURVE('',#765,#775,#819,.T.);
#821=ORIENTED_EDGE('',*,*,#820,.F.);
#822=EDGE_LOOP('',(#806,#813,#814,#821));
#823=FACE_OUTER_BOUND('',#822,.T.);
#824=ADVANCED_FACE('',(#823),#805,.T.);
#825=CARTESIAN_POINT('',(-6.250002740000012,-7.500005319999999,-3.600000000000000));
#826=DIRECTION('',(0.0,0.0,1.0));
#827=DIRECTION('',(0.0,-1.0,0.0));
#828=AXIS2_PLACEMENT_3D('',#825,#826,#827);
#829=PLANE('',#828);
#830=ORIENTED_EDGE('',*,*,#812,.F.);
#831=ORIENTED_EDGE('',*,*,#796,.F.);
#832=EDGE_LOOP('',(#830,#831));
#833=FACE_OUTER_BOUND('',#832,.T.);
#834=ADVANCED_FACE('',(#833),#829,.F.);
#835=CARTESIAN_POINT('',(-6.250002740000012,-7.500005319999999,2.000000000000000));
#836=DIRECTION('',(0.0,0.0,1.0));
#837=DIRECTION('',(0.0,-1.0,0.0));
#838=AXIS2_PLACEMENT_3D('',#835,#836,#837);
#839=PLANE('',#838);
#840=ORIENTED_EDGE('',*,*,#820,.T.);
#841=ORIENTED_EDGE('',*,*,#781,.T.);
#842=EDGE_LOOP('',(#840,#841));
#843=FACE_OUTER_BOUND('',#842,.T.);
#844=ADVANCED_FACE('',(#843),#839,.T.);
#845=CLOSED_SHELL('',(#800,#824,#834,#844));
#846=MANIFOLD_SOLID_BREP('443',#845);
#847=STYLED_ITEM('NONE',(#757),#846);
#848=CARTESIAN_POINT('',(1.250000039999977,-7.500005320000000,2.000000000000000));
#849=DIRECTION('',(0.0,0.0,-1.0));
#850=DIRECTION('',(0.0,-1.0,0.0));
#851=AXIS2_PLACEMENT_3D('',#848,#849,#850);
#852=CYLINDRICAL_SURFACE('',#851,0.300000000000000);
#853=CARTESIAN_POINT('',(1.250000039999977,-7.800005319999999,2.000000000000000));
#854=VERTEX_POINT('',#853);
#855=CARTESIAN_POINT('',(1.250000039999977,-7.800005319999999,-3.600000000000000));
#856=VERTEX_POINT('',#855);
#857=CARTESIAN_POINT('',(1.250000039999977,-7.800005319999999,2.000000000000000));
#858=DIRECTION('',(0.0,0.0,-1.0));
#859=VECTOR('',#858,5.600000000000000);
#860=LINE('',#857,#859);
#861=EDGE_CURVE('',#854,#856,#860,.T.);
#862=ORIENTED_EDGE('',*,*,#861,.F.);
#863=CARTESIAN_POINT('',(1.250000039999977,-7.200005320000000,2.000000000000000));
#864=VERTEX_POINT('',#863);
#865=CARTESIAN_POINT('',(1.250000039999977,-7.500005320000000,2.000000000000000));
#866=DIRECTION('',(0.0,0.0,1.0));
#867=DIRECTION('',(0.0,-1.0,0.0));
#868=AXIS2_PLACEMENT_3D('',#865,#866,#867);
#869=CIRCLE('',#868,0.300000000000000);
#870=EDGE_CURVE('',#864,#854,#869,.T.);
#871=ORIENTED_EDGE('',*,*,#870,.F.);
#872=CARTESIAN_POINT('',(1.250000039999977,-7.200005320000000,-3.600000000000000));
#873=VERTEX_POINT('',#872);
#874=CARTESIAN_POINT('',(1.250000039999977,-7.200005320000000,-3.600000000000000));
#875=DIRECTION('',(0.0,0.0,1.0));
#876=VECTOR('',#875,5.600000000000000);
#877=LINE('',#874,#876);
#878=EDGE_CURVE('',#873,#864,#877,.T.);
#879=ORIENTED_EDGE('',*,*,#878,.F.);
#880=CARTESIAN_POINT('',(1.250000039999977,-7.500005320000000,-3.600000000000000));
#881=DIRECTION('',(0.0,0.0,1.0));
#882=DIRECTION('',(0.0,-1.0,0.0));
#883=AXIS2_PLACEMENT_3D('',#880,#881,#882);
#884=CIRCLE('',#883,0.300000000000000);
#885=EDGE_CURVE('',#873,#856,#884,.T.);
#886=ORIENTED_EDGE('',*,*,#885,.T.);
#887=EDGE_LOOP('',(#862,#871,#879,#886));
#888=FACE_OUTER_BOUND('',#887,.T.);
#889=ADVANCED_FACE('',(#888),#852,.T.);
#890=CARTESIAN_POINT('',(1.250000039999977,-7.500005320000000,2.000000000000000));
#891=DIRECTION('',(0.0,0.0,-1.0));
#892=DIRECTION('',(0.0,-1.0,0.0));
#893=AXIS2_PLACEMENT_3D('',#890,#891,#892);
#894=CYLINDRICAL_SURFACE('',#893,0.300000000000000);
#895=ORIENTED_EDGE('',*,*,#861,.T.);
#896=CARTESIAN_POINT('',(1.250000039999977,-7.500005320000000,-3.600000000000000));
#897=DIRECTION('',(0.0,0.0,1.0));
#898=DIRECTION('',(0.0,-1.0,0.0));
#899=AXIS2_PLACEMENT_3D('',#896,#897,#898);
#900=CIRCLE('',#899,0.300000000000000);
#901=EDGE_CURVE('',#856,#873,#900,.T.);
#902=ORIENTED_EDGE('',*,*,#901,.T.);
#903=ORIENTED_EDGE('',*,*,#878,.T.);
#904=CARTESIAN_POINT('',(1.250000039999977,-7.500005320000000,2.000000000000000));
#905=DIRECTION('',(0.0,0.0,1.0));
#906=DIRECTION('',(0.0,-1.0,0.0));
#907=AXIS2_PLACEMENT_3D('',#904,#905,#906);
#908=CIRCLE('',#907,0.300000000000000);
#909=EDGE_CURVE('',#854,#864,#908,.T.);
#910=ORIENTED_EDGE('',*,*,#909,.F.);
#911=EDGE_LOOP('',(#895,#902,#903,#910));
#912=FACE_OUTER_BOUND('',#911,.T.);
#913=ADVANCED_FACE('',(#912),#894,.T.);
#914=CARTESIAN_POINT('',(1.250000039999977,-7.500005320000000,-3.600000000000000));
#915=DIRECTION('',(0.0,0.0,1.0));
#916=DIRECTION('',(0.0,-1.0,0.0));
#917=AXIS2_PLACEMENT_3D('',#914,#915,#916);
#918=PLANE('',#917);
#919=ORIENTED_EDGE('',*,*,#901,.F.);
#920=ORIENTED_EDGE('',*,*,#885,.F.);
#921=EDGE_LOOP('',(#919,#920));
#922=FACE_OUTER_BOUND('',#921,.T.);
#923=ADVANCED_FACE('',(#922),#918,.F.);
#924=CARTESIAN_POINT('',(1.250000039999977,-7.500005320000000,2.000000000000000));
#925=DIRECTION('',(0.0,0.0,1.0));
#926=DIRECTION('',(0.0,-1.0,0.0));
#927=AXIS2_PLACEMENT_3D('',#924,#925,#926);
#928=PLANE('',#927);
#929=ORIENTED_EDGE('',*,*,#909,.T.);
#930=ORIENTED_EDGE('',*,*,#870,.T.);
#931=EDGE_LOOP('',(#929,#930));
#932=FACE_OUTER_BOUND('',#931,.T.);
#933=ADVANCED_FACE('',(#932),#928,.T.);
#934=CLOSED_SHELL('',(#889,#913,#923,#933));
#935=MANIFOLD_SOLID_BREP('442',#934);
#936=STYLED_ITEM('NONE',(#757),#935);
#937=CARTESIAN_POINT('',(6.250002740000019,7.500005319999999,2.0));
#938=DIRECTION('',(0.0,0.0,-1.0));
#939=DIRECTION('',(0.0,-1.0,0.0));
#940=AXIS2_PLACEMENT_3D('',#937,#938,#939);
#941=CYLINDRICAL_SURFACE('',#940,0.300000000000000);
#942=CARTESIAN_POINT('',(6.250002740000018,7.200005320000000,2.0));
#943=VERTEX_POINT('',#942);
#944=CARTESIAN_POINT('',(6.250002740000018,7.200005320000000,-3.600000000000000));
#945=VERTEX_POINT('',#944);
#946=CARTESIAN_POINT('',(6.250002740000018,7.200005320000000,2.0));
#947=DIRECTION('',(0.0,0.0,-1.0));
#948=VECTOR('',#947,5.600000000000000);
#949=LINE('',#946,#948);
#950=EDGE_CURVE('',#943,#945,#949,.T.);
#951=ORIENTED_EDGE('',*,*,#950,.F.);
#952=CARTESIAN_POINT('',(6.250002740000019,7.800005319999999,2.0));
#953=VERTEX_POINT('',#952);
#954=CARTESIAN_POINT('',(6.250002740000019,7.500005319999999,2.0));
#955=DIRECTION('',(0.0,0.0,1.0));
#956=DIRECTION('',(0.0,-1.0,0.0));
#957=AXIS2_PLACEMENT_3D('',#954,#955,#956);
#958=CIRCLE('',#957,0.300000000000000);
#959=EDGE_CURVE('',#953,#943,#958,.T.);
#960=ORIENTED_EDGE('',*,*,#959,.F.);
#961=CARTESIAN_POINT('',(6.250002740000019,7.800005319999999,-3.600000000000000));
#962=VERTEX_POINT('',#961);
#963=CARTESIAN_POINT('',(6.250002740000019,7.800005319999999,-3.600000000000000));
#964=DIRECTION('',(0.0,0.0,1.0));
#965=VECTOR('',#964,5.600000000000000);
#966=LINE('',#963,#965);
#967=EDGE_CURVE('',#962,#953,#966,.T.);
#968=ORIENTED_EDGE('',*,*,#967,.F.);
#969=CARTESIAN_POINT('',(6.250002740000019,7.500005319999999,-3.600000000000000));
#970=DIRECTION('',(0.0,0.0,1.0));
#971=DIRECTION('',(0.0,-1.0,0.0));
#972=AXIS2_PLACEMENT_3D('',#969,#970,#971);
#973=CIRCLE('',#972,0.300000000000000);
#974=EDGE_CURVE('',#962,#945,#973,.T.);
#975=ORIENTED_EDGE('',*,*,#974,.T.);
#976=EDGE_LOOP('',(#951,#960,#968,#975));
#977=FACE_OUTER_BOUND('',#976,.T.);
#978=ADVANCED_FACE('',(#977),#941,.T.);
#979=CARTESIAN_POINT('',(6.250002740000019,7.500005319999999,2.0));
#980=DIRECTION('',(0.0,0.0,-1.0));
#981=DIRECTION('',(0.0,-1.0,0.0));
#982=AXIS2_PLACEMENT_3D('',#979,#980,#981);
#983=CYLINDRICAL_SURFACE('',#982,0.300000000000000);
#984=ORIENTED_EDGE('',*,*,#950,.T.);
#985=CARTESIAN_POINT('',(6.250002740000019,7.500005319999999,-3.600000000000000));
#986=DIRECTION('',(0.0,0.0,1.0));
#987=DIRECTION('',(0.0,-1.0,0.0));
#988=AXIS2_PLACEMENT_3D('',#985,#986,#987);
#989=CIRCLE('',#988,0.300000000000000);
#990=EDGE_CURVE('',#945,#962,#989,.T.);
#991=ORIENTED_EDGE('',*,*,#990,.T.);
#992=ORIENTED_EDGE('',*,*,#967,.T.);
#993=CARTESIAN_POINT('',(6.250002740000019,7.500005319999999,2.0));
#994=DIRECTION('',(0.0,0.0,1.0));
#995=DIRECTION('',(0.0,-1.0,0.0));
#996=AXIS2_PLACEMENT_3D('',#993,#994,#995);
#997=CIRCLE('',#996,0.300000000000000);
#998=EDGE_CURVE('',#943,#953,#997,.T.);
#999=ORIENTED_EDGE('',*,*,#998,.F.);
#1000=EDGE_LOOP('',(#984,#991,#992,#999));
#1001=FACE_OUTER_BOUND('',#1000,.T.);
#1002=ADVANCED_FACE('',(#1001),#983,.T.);
#1003=CARTESIAN_POINT('',(6.250002740000019,7.500005319999999,-3.600000000000000));
#1004=DIRECTION('',(0.0,0.0,1.0));
#1005=DIRECTION('',(0.0,-1.0,0.0));
#1006=AXIS2_PLACEMENT_3D('',#1003,#1004,#1005);
#1007=PLANE('',#1006);
#1008=ORIENTED_EDGE('',*,*,#990,.F.);
#1009=ORIENTED_EDGE('',*,*,#974,.F.);
#1010=EDGE_LOOP('',(#1008,#1009));
#1011=FACE_OUTER_BOUND('',#1010,.T.);
#1012=ADVANCED_FACE('',(#1011),#1007,.F.);
#1013=CARTESIAN_POINT('',(6.250002740000019,7.500005319999999,2.0));
#1014=DIRECTION('',(0.0,0.0,1.0));
#1015=DIRECTION('',(0.0,-1.0,0.0));
#1016=AXIS2_PLACEMENT_3D('',#1013,#1014,#1015);
#1017=PLANE('',#1016);
#1018=ORIENTED_EDGE('',*,*,#998,.T.);
#1019=ORIENTED_EDGE('',*,*,#959,.T.);
#1020=EDGE_LOOP('',(#1018,#1019));
#1021=FACE_OUTER_BOUND('',#1020,.T.);
#1022=ADVANCED_FACE('',(#1021),#1017,.T.);
#1023=CLOSED_SHELL('',(#978,#1002,#1012,#1022));
#1024=MANIFOLD_SOLID_BREP('441',#1023);
#1025=STYLED_ITEM('NONE',(#757),#1024);
#1026=CARTESIAN_POINT('',(1.250000039999980,7.500005320000000,2.000000000000000));
#1027=DIRECTION('',(0.0,0.0,-1.0));
#1028=DIRECTION('',(0.0,-1.0,0.0));
#1029=AXIS2_PLACEMENT_3D('',#1026,#1027,#1028);
#1030=CYLINDRICAL_SURFACE('',#1029,0.300000000000000);
#1031=CARTESIAN_POINT('',(1.250000039999980,7.200005320000001,2.000000000000000));
#1032=VERTEX_POINT('',#1031);
#1033=CARTESIAN_POINT('',(1.250000039999980,7.200005320000001,-3.600000000000000));
#1034=VERTEX_POINT('',#1033);
#1035=CARTESIAN_POINT('',(1.250000039999980,7.200005320000001,2.000000000000000));
#1036=DIRECTION('',(0.0,0.0,-1.0));
#1037=VECTOR('',#1036,5.600000000000000);
#1038=LINE('',#1035,#1037);
#1039=EDGE_CURVE('',#1032,#1034,#1038,.T.);
#1040=ORIENTED_EDGE('',*,*,#1039,.F.);
#1041=CARTESIAN_POINT('',(1.250000039999980,7.800005320000000,2.000000000000000));
#1042=VERTEX_POINT('',#1041);
#1043=CARTESIAN_POINT('',(1.250000039999980,7.500005320000000,2.000000000000000));
#1044=DIRECTION('',(0.0,0.0,1.0));
#1045=DIRECTION('',(0.0,-1.0,0.0));
#1046=AXIS2_PLACEMENT_3D('',#1043,#1044,#1045);
#1047=CIRCLE('',#1046,0.300000000000000);
#1048=EDGE_CURVE('',#1042,#1032,#1047,.T.);
#1049=ORIENTED_EDGE('',*,*,#1048,.F.);
#1050=CARTESIAN_POINT('',(1.250000039999980,7.800005320000000,-3.600000000000000));
#1051=VERTEX_POINT('',#1050);
#1052=CARTESIAN_POINT('',(1.250000039999980,7.800005320000000,-3.600000000000000));
#1053=DIRECTION('',(0.0,0.0,1.0));
#1054=VECTOR('',#1053,5.600000000000000);
#1055=LINE('',#1052,#1054);
#1056=EDGE_CURVE('',#1051,#1042,#1055,.T.);
#1057=ORIENTED_EDGE('',*,*,#1056,.F.);
#1058=CARTESIAN_POINT('',(1.250000039999980,7.500005320000000,-3.600000000000000));
#1059=DIRECTION('',(0.0,0.0,1.0));
#1060=DIRECTION('',(0.0,-1.0,0.0));
#1061=AXIS2_PLACEMENT_3D('',#1058,#1059,#1060);
#1062=CIRCLE('',#1061,0.300000000000000);
#1063=EDGE_CURVE('',#1051,#1034,#1062,.T.);
#1064=ORIENTED_EDGE('',*,*,#1063,.T.);
#1065=EDGE_LOOP('',(#1040,#1049,#1057,#1064));
#1066=FACE_OUTER_BOUND('',#1065,.T.);
#1067=ADVANCED_FACE('',(#1066),#1030,.T.);
#1068=CARTESIAN_POINT('',(1.250000039999980,7.500005320000000,2.000000000000000));
#1069=DIRECTION('',(0.0,0.0,-1.0));
#1070=DIRECTION('',(0.0,-1.0,0.0));
#1071=AXIS2_PLACEMENT_3D('',#1068,#1069,#1070);
#1072=CYLINDRICAL_SURFACE('',#1071,0.300000000000000);
#1073=ORIENTED_EDGE('',*,*,#1039,.T.);
#1074=CARTESIAN_POINT('',(1.250000039999980,7.500005320000000,-3.600000000000000));
#1075=DIRECTION('',(0.0,0.0,1.0));
#1076=DIRECTION('',(0.0,-1.0,0.0));
#1077=AXIS2_PLACEMENT_3D('',#1074,#1075,#1076);
#1078=CIRCLE('',#1077,0.300000000000000);
#1079=EDGE_CURVE('',#1034,#1051,#1078,.T.);
#1080=ORIENTED_EDGE('',*,*,#1079,.T.);
#1081=ORIENTED_EDGE('',*,*,#1056,.T.);
#1082=CARTESIAN_POINT('',(1.250000039999980,7.500005320000000,2.000000000000000));
#1083=DIRECTION('',(0.0,0.0,1.0));
#1084=DIRECTION('',(0.0,-1.0,0.0));
#1085=AXIS2_PLACEMENT_3D('',#1082,#1083,#1084);
#1086=CIRCLE('',#1085,0.300000000000000);
#1087=EDGE_CURVE('',#1032,#1042,#1086,.T.);
#1088=ORIENTED_EDGE('',*,*,#1087,.F.);
#1089=EDGE_LOOP('',(#1073,#1080,#1081,#1088));
#1090=FACE_OUTER_BOUND('',#1089,.T.);
#1091=ADVANCED_FACE('',(#1090),#1072,.T.);
#1092=CARTESIAN_POINT('',(1.250000039999980,7.500005320000000,-3.600000000000000));
#1093=DIRECTION('',(0.0,0.0,1.0));
#1094=DIRECTION('',(0.0,-1.0,0.0));
#1095=AXIS2_PLACEMENT_3D('',#1092,#1093,#1094);
#1096=PLANE('',#1095);
#1097=ORIENTED_EDGE('',*,*,#1079,.F.);
#1098=ORIENTED_EDGE('',*,*,#1063,.F.);
#1099=EDGE_LOOP('',(#1097,#1098));
#1100=FACE_OUTER_BOUND('',#1099,.T.);
#1101=ADVANCED_FACE('',(#1100),#1096,.F.);
#1102=CARTESIAN_POINT('',(1.250000039999980,7.500005320000000,2.000000000000000));
#1103=DIRECTION('',(0.0,0.0,1.0));
#1104=DIRECTION('',(0.0,-1.0,0.0));
#1105=AXIS2_PLACEMENT_3D('',#1102,#1103,#1104);
#1106=PLANE('',#1105);
#1107=ORIENTED_EDGE('',*,*,#1087,.T.);
#1108=ORIENTED_EDGE('',*,*,#1048,.T.);
#1109=EDGE_LOOP('',(#1107,#1108));
#1110=FACE_OUTER_BOUND('',#1109,.T.);
#1111=ADVANCED_FACE('',(#1110),#1106,.T.);
#1112=CLOSED_SHELL('',(#1067,#1091,#1101,#1111));
#1113=MANIFOLD_SOLID_BREP('440',#1112);
#1114=STYLED_ITEM('NONE',(#757),#1113);
#1115=CARTESIAN_POINT('',(-6.250002740000008,7.500005320000001,2.000000000000000));
#1116=DIRECTION('',(0.0,0.0,-1.0));
#1117=DIRECTION('',(0.0,-1.0,0.0));
#1118=AXIS2_PLACEMENT_3D('',#1115,#1116,#1117);
#1119=CYLINDRICAL_SURFACE('',#1118,0.300000000000000);
#1120=CARTESIAN_POINT('',(-6.250002740000009,7.200005320000002,2.000000000000000));
#1121=VERTEX_POINT('',#1120);
#1122=CARTESIAN_POINT('',(-6.250002740000009,7.200005320000002,-3.600000000000000));
#1123=VERTEX_POINT('',#1122);
#1124=CARTESIAN_POINT('',(-6.250002740000009,7.200005320000002,2.000000000000000));
#1125=DIRECTION('',(0.0,0.0,-1.0));
#1126=VECTOR('',#1125,5.600000000000000);
#1127=LINE('',#1124,#1126);
#1128=EDGE_CURVE('',#1121,#1123,#1127,.T.);
#1129=ORIENTED_EDGE('',*,*,#1128,.F.);
#1130=CARTESIAN_POINT('',(-6.250002740000008,7.800005320000000,2.000000000000000));
#1131=VERTEX_POINT('',#1130);
#1132=CARTESIAN_POINT('',(-6.250002740000008,7.500005320000001,2.000000000000000));
#1133=DIRECTION('',(0.0,0.0,1.0));
#1134=DIRECTION('',(0.0,-1.0,0.0));
#1135=AXIS2_PLACEMENT_3D('',#1132,#1133,#1134);
#1136=CIRCLE('',#1135,0.300000000000000);
#1137=EDGE_CURVE('',#1131,#1121,#1136,.T.);
#1138=ORIENTED_EDGE('',*,*,#1137,.F.);
#1139=CARTESIAN_POINT('',(-6.250002740000008,7.800005320000000,-3.600000000000000));
#1140=VERTEX_POINT('',#1139);
#1141=CARTESIAN_POINT('',(-6.250002740000008,7.800005320000000,-3.600000000000000));
#1142=DIRECTION('',(0.0,0.0,1.0));
#1143=VECTOR('',#1142,5.600000000000000);
#1144=LINE('',#1141,#1143);
#1145=EDGE_CURVE('',#1140,#1131,#1144,.T.);
#1146=ORIENTED_EDGE('',*,*,#1145,.F.);
#1147=CARTESIAN_POINT('',(-6.250002740000008,7.500005320000001,-3.600000000000000));
#1148=DIRECTION('',(0.0,0.0,1.0));
#1149=DIRECTION('',(0.0,-1.0,0.0));
#1150=AXIS2_PLACEMENT_3D('',#1147,#1148,#1149);
#1151=CIRCLE('',#1150,0.300000000000000);
#1152=EDGE_CURVE('',#1140,#1123,#1151,.T.);
#1153=ORIENTED_EDGE('',*,*,#1152,.T.);
#1154=EDGE_LOOP('',(#1129,#1138,#1146,#1153));
#1155=FACE_OUTER_BOUND('',#1154,.T.);
#1156=ADVANCED_FACE('',(#1155),#1119,.T.);
#1157=CARTESIAN_POINT('',(-6.250002740000008,7.500005320000001,2.000000000000000));
#1158=DIRECTION('',(0.0,0.0,-1.0));
#1159=DIRECTION('',(0.0,-1.0,0.0));
#1160=AXIS2_PLACEMENT_3D('',#1157,#1158,#1159);
#1161=CYLINDRICAL_SURFACE('',#1160,0.300000000000000);
#1162=ORIENTED_EDGE('',*,*,#1128,.T.);
#1163=CARTESIAN_POINT('',(-6.250002740000008,7.500005320000001,-3.600000000000000));
#1164=DIRECTION('',(0.0,0.0,1.0));
#1165=DIRECTION('',(0.0,-1.0,0.0));
#1166=AXIS2_PLACEMENT_3D('',#1163,#1164,#1165);
#1167=CIRCLE('',#1166,0.300000000000000);
#1168=EDGE_CURVE('',#1123,#1140,#1167,.T.);
#1169=ORIENTED_EDGE('',*,*,#1168,.T.);
#1170=ORIENTED_EDGE('',*,*,#1145,.T.);
#1171=CARTESIAN_POINT('',(-6.250002740000008,7.500005320000001,2.000000000000000));
#1172=DIRECTION('',(0.0,0.0,1.0));
#1173=DIRECTION('',(0.0,-1.0,0.0));
#1174=AXIS2_PLACEMENT_3D('',#1171,#1172,#1173);
#1175=CIRCLE('',#1174,0.300000000000000);
#1176=EDGE_CURVE('',#1121,#1131,#1175,.T.);
#1177=ORIENTED_EDGE('',*,*,#1176,.F.);
#1178=EDGE_LOOP('',(#1162,#1169,#1170,#1177));
#1179=FACE_OUTER_BOUND('',#1178,.T.);
#1180=ADVANCED_FACE('',(#1179),#1161,.T.);
#1181=CARTESIAN_POINT('',(-6.250002740000008,7.500005320000001,-3.600000000000000));
#1182=DIRECTION('',(0.0,0.0,1.0));
#1183=DIRECTION('',(0.0,-1.0,0.0));
#1184=AXIS2_PLACEMENT_3D('',#1181,#1182,#1183);
#1185=PLANE('',#1184);
#1186=ORIENTED_EDGE('',*,*,#1168,.F.);
#1187=ORIENTED_EDGE('',*,*,#1152,.F.);
#1188=EDGE_LOOP('',(#1186,#1187));
#1189=FACE_OUTER_BOUND('',#1188,.T.);
#1190=ADVANCED_FACE('',(#1189),#1185,.F.);
#1191=CARTESIAN_POINT('',(-6.250002740000008,7.500005320000001,2.000000000000000));
#1192=DIRECTION('',(0.0,0.0,1.0));
#1193=DIRECTION('',(0.0,-1.0,0.0));
#1194=AXIS2_PLACEMENT_3D('',#1191,#1192,#1193);
#1195=PLANE('',#1194);
#1196=ORIENTED_EDGE('',*,*,#1176,.T.);
#1197=ORIENTED_EDGE('',*,*,#1137,.T.);
#1198=EDGE_LOOP('',(#1196,#1197));
#1199=FACE_OUTER_BOUND('',#1198,.T.);
#1200=ADVANCED_FACE('',(#1199),#1195,.T.);
#1201=CLOSED_SHELL('',(#1156,#1180,#1190,#1200));
#1202=MANIFOLD_SOLID_BREP('43F',#1201);
#1203=STYLED_ITEM('NONE',(#757),#1202);
#1204=ADVANCED_BREP_SHAPE_REPRESENTATION('ABSR1',(#350,#510,#661,#750,#846,#935,#1024,#1113,#1202),#28);
#1205=SHAPE_REPRESENTATION_RELATIONSHIP('SRRPL1','',#1204,#62);
ENDSEC;
END-ISO-10303-21;
