ISO-10303-21;
HEADER;
/* Generated by software containing ST-Developer
 * from STEP Tools, Inc. (www.steptools.com) 
 */

FILE_DESCRIPTION(
/* description */ (''),
/* implementation_level */ '2;1');

FILE_NAME(
/* name */ 
'G:\\Applications\\Altium\\CernLib\\StepLib\\XTAL_ABRACON_ABMM2.stp',
/* time_stamp */ '2015-12-10T10:27:43+01:00',
/* author */ ('riccim'),
/* organization */ (''),
/* preprocessor_version */ 'ST-DEVELOPER v15.5',
/* originating_system */ 'AutoCAD Mechanical',
/* authorisation */ '');

FILE_SCHEMA (('AUTOMOTIVE_DESIGN { 1 0 10303 214 3 1 1 }'));
ENDSEC;

DATA;
#10=MECHANICAL_DESIGN_GEOMETRIC_PRESENTATION_REPRESENTATION('',(#33,#34,
#35,#36,#37,#38),#2034);
#11=DIMENSIONAL_EXPONENTS(0.,0.,0.,0.,0.,0.,0.);
#12=(
CONVERSION_BASED_UNIT('degree',#13)
NAMED_UNIT(#11)
PLANE_ANGLE_UNIT()
);
#13=PLANE_ANGLE_MEASURE_WITH_UNIT(PLANE_ANGLE_MEASURE(0.01745329252),#2037);
#14=PRESENTATION_LAYER_ASSIGNMENT('3D','',(#1269,#1270,#1271,#1272,#1273,
#1274));
#15=CIRCLE($,#1339,0.15);
#16=CIRCLE($,#1340,0.15);
#17=CIRCLE($,#1343,0.15);
#18=CIRCLE($,#1344,0.15);
#19=CIRCLE($,#1347,0.15);
#20=CIRCLE($,#1348,0.15);
#21=CIRCLE($,#1351,0.150000000000001);
#22=CIRCLE($,#1352,0.150000000000001);
#23=CYLINDRICAL_SURFACE($,#1338,0.15);
#24=CYLINDRICAL_SURFACE($,#1342,0.15);
#25=CYLINDRICAL_SURFACE($,#1346,0.15);
#26=CYLINDRICAL_SURFACE($,#1350,0.150000000000001);
#27=FACE_BOUND($,#173,.T.);
#28=FACE_BOUND($,#174,.T.);
#29=FACE_BOUND($,#175,.T.);
#30=FACE_BOUND($,#176,.T.);
#31=SHAPE_REPRESENTATION_RELATIONSHIP('SRR','None',#2040,#32);
#32=ADVANCED_BREP_SHAPE_REPRESENTATION($,(#1269,#1270,#1271,#1272,#1273,
#1274),#2033);
#33=STYLED_ITEM($,(#2050),#1269);
#34=STYLED_ITEM($,(#2050),#1270);
#35=STYLED_ITEM($,(#2050),#1271);
#36=STYLED_ITEM($,(#2050),#1272);
#37=STYLED_ITEM($,(#2051),#1273);
#38=STYLED_ITEM($,(#2052),#1274);
#39=FACE_OUTER_BOUND($,#111,.T.);
#40=FACE_OUTER_BOUND($,#112,.T.);
#41=FACE_OUTER_BOUND($,#113,.T.);
#42=FACE_OUTER_BOUND($,#114,.T.);
#43=FACE_OUTER_BOUND($,#115,.T.);
#44=FACE_OUTER_BOUND($,#116,.T.);
#45=FACE_OUTER_BOUND($,#117,.T.);
#46=FACE_OUTER_BOUND($,#118,.T.);
#47=FACE_OUTER_BOUND($,#119,.T.);
#48=FACE_OUTER_BOUND($,#120,.T.);
#49=FACE_OUTER_BOUND($,#121,.T.);
#50=FACE_OUTER_BOUND($,#122,.T.);
#51=FACE_OUTER_BOUND($,#123,.T.);
#52=FACE_OUTER_BOUND($,#124,.T.);
#53=FACE_OUTER_BOUND($,#125,.T.);
#54=FACE_OUTER_BOUND($,#126,.T.);
#55=FACE_OUTER_BOUND($,#127,.T.);
#56=FACE_OUTER_BOUND($,#128,.T.);
#57=FACE_OUTER_BOUND($,#129,.T.);
#58=FACE_OUTER_BOUND($,#130,.T.);
#59=FACE_OUTER_BOUND($,#131,.T.);
#60=FACE_OUTER_BOUND($,#132,.T.);
#61=FACE_OUTER_BOUND($,#133,.T.);
#62=FACE_OUTER_BOUND($,#134,.T.);
#63=FACE_OUTER_BOUND($,#135,.T.);
#64=FACE_OUTER_BOUND($,#136,.T.);
#65=FACE_OUTER_BOUND($,#137,.T.);
#66=FACE_OUTER_BOUND($,#138,.T.);
#67=FACE_OUTER_BOUND($,#139,.T.);
#68=FACE_OUTER_BOUND($,#140,.T.);
#69=FACE_OUTER_BOUND($,#141,.T.);
#70=FACE_OUTER_BOUND($,#142,.T.);
#71=FACE_OUTER_BOUND($,#143,.T.);
#72=FACE_OUTER_BOUND($,#144,.T.);
#73=FACE_OUTER_BOUND($,#145,.T.);
#74=FACE_OUTER_BOUND($,#146,.T.);
#75=FACE_OUTER_BOUND($,#147,.T.);
#76=FACE_OUTER_BOUND($,#148,.T.);
#77=FACE_OUTER_BOUND($,#149,.T.);
#78=FACE_OUTER_BOUND($,#150,.T.);
#79=FACE_OUTER_BOUND($,#151,.T.);
#80=FACE_OUTER_BOUND($,#152,.T.);
#81=FACE_OUTER_BOUND($,#153,.T.);
#82=FACE_OUTER_BOUND($,#154,.T.);
#83=FACE_OUTER_BOUND($,#155,.T.);
#84=FACE_OUTER_BOUND($,#156,.T.);
#85=FACE_OUTER_BOUND($,#157,.T.);
#86=FACE_OUTER_BOUND($,#158,.T.);
#87=FACE_OUTER_BOUND($,#159,.T.);
#88=FACE_OUTER_BOUND($,#160,.T.);
#89=FACE_OUTER_BOUND($,#161,.T.);
#90=FACE_OUTER_BOUND($,#162,.T.);
#91=FACE_OUTER_BOUND($,#163,.T.);
#92=FACE_OUTER_BOUND($,#164,.T.);
#93=FACE_OUTER_BOUND($,#165,.T.);
#94=FACE_OUTER_BOUND($,#166,.T.);
#95=FACE_OUTER_BOUND($,#167,.T.);
#96=FACE_OUTER_BOUND($,#168,.T.);
#97=FACE_OUTER_BOUND($,#169,.T.);
#98=FACE_OUTER_BOUND($,#170,.T.);
#99=FACE_OUTER_BOUND($,#171,.T.);
#100=FACE_OUTER_BOUND($,#172,.T.);
#101=FACE_OUTER_BOUND($,#177,.T.);
#102=FACE_OUTER_BOUND($,#178,.T.);
#103=FACE_OUTER_BOUND($,#179,.T.);
#104=FACE_OUTER_BOUND($,#180,.T.);
#105=FACE_OUTER_BOUND($,#181,.T.);
#106=FACE_OUTER_BOUND($,#182,.T.);
#107=FACE_OUTER_BOUND($,#183,.T.);
#108=FACE_OUTER_BOUND($,#184,.T.);
#109=FACE_OUTER_BOUND($,#185,.T.);
#110=FACE_OUTER_BOUND($,#186,.T.);
#111=EDGE_LOOP($,(#787,#788,#789,#790));
#112=EDGE_LOOP($,(#791,#792,#793,#794));
#113=EDGE_LOOP($,(#795,#796,#797,#798));
#114=EDGE_LOOP($,(#799,#800,#801,#802));
#115=EDGE_LOOP($,(#803,#804,#805,#806));
#116=EDGE_LOOP($,(#807,#808,#809,#810,#811));
#117=EDGE_LOOP($,(#812,#813,#814,#815,#816));
#118=EDGE_LOOP($,(#817,#818,#819,#820));
#119=EDGE_LOOP($,(#821,#822,#823,#824));
#120=EDGE_LOOP($,(#825,#826,#827,#828));
#121=EDGE_LOOP($,(#829,#830,#831,#832));
#122=EDGE_LOOP($,(#833,#834,#835,#836));
#123=EDGE_LOOP($,(#837,#838,#839,#840,#841));
#124=EDGE_LOOP($,(#842,#843,#844,#845,#846));
#125=EDGE_LOOP($,(#847,#848,#849,#850));
#126=EDGE_LOOP($,(#851,#852,#853,#854));
#127=EDGE_LOOP($,(#855,#856,#857,#858));
#128=EDGE_LOOP($,(#859,#860,#861,#862));
#129=EDGE_LOOP($,(#863,#864,#865,#866));
#130=EDGE_LOOP($,(#867,#868,#869,#870,#871));
#131=EDGE_LOOP($,(#872,#873,#874,#875,#876));
#132=EDGE_LOOP($,(#877,#878,#879,#880));
#133=EDGE_LOOP($,(#881,#882,#883,#884));
#134=EDGE_LOOP($,(#885,#886,#887,#888));
#135=EDGE_LOOP($,(#889,#890,#891,#892));
#136=EDGE_LOOP($,(#893,#894,#895,#896));
#137=EDGE_LOOP($,(#897,#898,#899,#900,#901));
#138=EDGE_LOOP($,(#902,#903,#904,#905,#906));
#139=EDGE_LOOP($,(#907,#908,#909,#910));
#140=EDGE_LOOP($,(#911,#912,#913,#914));
#141=EDGE_LOOP($,(#915,#916,#917,#918));
#142=EDGE_LOOP($,(#919,#920,#921,#922));
#143=EDGE_LOOP($,(#923,#924,#925,#926));
#144=EDGE_LOOP($,(#927,#928,#929,#930,#931));
#145=EDGE_LOOP($,(#932,#933,#934,#935));
#146=EDGE_LOOP($,(#936,#937,#938,#939));
#147=EDGE_LOOP($,(#940,#941,#942,#943));
#148=EDGE_LOOP($,(#944,#945,#946,#947));
#149=EDGE_LOOP($,(#948,#949,#950,#951));
#150=EDGE_LOOP($,(#952,#953,#954,#955,#956));
#151=EDGE_LOOP($,(#957,#958,#959,#960));
#152=EDGE_LOOP($,(#961,#962,#963,#964));
#153=EDGE_LOOP($,(#965,#966,#967,#968));
#154=EDGE_LOOP($,(#969,#970,#971,#972));
#155=EDGE_LOOP($,(#973,#974,#975,#976));
#156=EDGE_LOOP($,(#977,#978,#979,#980,#981));
#157=EDGE_LOOP($,(#982,#983,#984,#985));
#158=EDGE_LOOP($,(#986,#987,#988,#989));
#159=EDGE_LOOP($,(#990,#991,#992,#993));
#160=EDGE_LOOP($,(#994,#995,#996,#997));
#161=EDGE_LOOP($,(#998,#999,#1000,#1001));
#162=EDGE_LOOP($,(#1002,#1003,#1004,#1005,#1006));
#163=EDGE_LOOP($,(#1007,#1008,#1009,#1010));
#164=EDGE_LOOP($,(#1011,#1012,#1013,#1014));
#165=EDGE_LOOP($,(#1015,#1016,#1017,#1018));
#166=EDGE_LOOP($,(#1019,#1020,#1021,#1022));
#167=EDGE_LOOP($,(#1023,#1024,#1025,#1026));
#168=EDGE_LOOP($,(#1027,#1028,#1029,#1030));
#169=EDGE_LOOP($,(#1031,#1032,#1033,#1034));
#170=EDGE_LOOP($,(#1035,#1036,#1037,#1038));
#171=EDGE_LOOP($,(#1039,#1040,#1041,#1042,#1043,#1044,#1045,#1046));
#172=EDGE_LOOP($,(#1047,#1048,#1049,#1050,#1051,#1052,#1053,#1054));
#173=EDGE_LOOP($,(#1055,#1056,#1057,#1058,#1059));
#174=EDGE_LOOP($,(#1060,#1061,#1062,#1063,#1064));
#175=EDGE_LOOP($,(#1065,#1066,#1067,#1068,#1069));
#176=EDGE_LOOP($,(#1070,#1071,#1072,#1073,#1074));
#177=EDGE_LOOP($,(#1075,#1076,#1077,#1078));
#178=EDGE_LOOP($,(#1079,#1080,#1081,#1082));
#179=EDGE_LOOP($,(#1083,#1084,#1085,#1086));
#180=EDGE_LOOP($,(#1087,#1088,#1089,#1090));
#181=EDGE_LOOP($,(#1091,#1092,#1093,#1094));
#182=EDGE_LOOP($,(#1095,#1096,#1097,#1098));
#183=EDGE_LOOP($,(#1099,#1100,#1101,#1102));
#184=EDGE_LOOP($,(#1103,#1104,#1105,#1106));
#185=EDGE_LOOP($,(#1107,#1108,#1109,#1110,#1111,#1112,#1113,#1114));
#186=EDGE_LOOP($,(#1115,#1116,#1117,#1118,#1119,#1120,#1121,#1122));
#187=LINE($,#1682,#347);
#188=LINE($,#1684,#348);
#189=LINE($,#1686,#349);
#190=LINE($,#1687,#350);
#191=LINE($,#1690,#351);
#192=LINE($,#1692,#352);
#193=LINE($,#1693,#353);
#194=LINE($,#1696,#354);
#195=LINE($,#1698,#355);
#196=LINE($,#1699,#356);
#197=LINE($,#1702,#357);
#198=LINE($,#1704,#358);
#199=LINE($,#1705,#359);
#200=LINE($,#1707,#360);
#201=LINE($,#1708,#361);
#202=LINE($,#1714,#362);
#203=LINE($,#1716,#363);
#204=LINE($,#1718,#364);
#205=LINE($,#1719,#365);
#206=LINE($,#1722,#366);
#207=LINE($,#1724,#367);
#208=LINE($,#1725,#368);
#209=LINE($,#1728,#369);
#210=LINE($,#1730,#370);
#211=LINE($,#1731,#371);
#212=LINE($,#1734,#372);
#213=LINE($,#1736,#373);
#214=LINE($,#1737,#374);
#215=LINE($,#1739,#375);
#216=LINE($,#1740,#376);
#217=LINE($,#1746,#377);
#218=LINE($,#1748,#378);
#219=LINE($,#1750,#379);
#220=LINE($,#1751,#380);
#221=LINE($,#1754,#381);
#222=LINE($,#1756,#382);
#223=LINE($,#1757,#383);
#224=LINE($,#1760,#384);
#225=LINE($,#1762,#385);
#226=LINE($,#1763,#386);
#227=LINE($,#1766,#387);
#228=LINE($,#1768,#388);
#229=LINE($,#1769,#389);
#230=LINE($,#1771,#390);
#231=LINE($,#1772,#391);
#232=LINE($,#1778,#392);
#233=LINE($,#1780,#393);
#234=LINE($,#1782,#394);
#235=LINE($,#1783,#395);
#236=LINE($,#1786,#396);
#237=LINE($,#1788,#397);
#238=LINE($,#1789,#398);
#239=LINE($,#1792,#399);
#240=LINE($,#1794,#400);
#241=LINE($,#1795,#401);
#242=LINE($,#1798,#402);
#243=LINE($,#1800,#403);
#244=LINE($,#1801,#404);
#245=LINE($,#1803,#405);
#246=LINE($,#1804,#406);
#247=LINE($,#1810,#407);
#248=LINE($,#1812,#408);
#249=LINE($,#1814,#409);
#250=LINE($,#1815,#410);
#251=LINE($,#1818,#411);
#252=LINE($,#1820,#412);
#253=LINE($,#1821,#413);
#254=LINE($,#1824,#414);
#255=LINE($,#1826,#415);
#256=LINE($,#1827,#416);
#257=LINE($,#1830,#417);
#258=LINE($,#1832,#418);
#259=LINE($,#1833,#419);
#260=LINE($,#1835,#420);
#261=LINE($,#1836,#421);
#262=LINE($,#1841,#422);
#263=LINE($,#1843,#423);
#264=LINE($,#1845,#424);
#265=LINE($,#1846,#425);
#266=LINE($,#1849,#426);
#267=LINE($,#1851,#427);
#268=LINE($,#1852,#428);
#269=LINE($,#1855,#429);
#270=LINE($,#1857,#430);
#271=LINE($,#1858,#431);
#272=LINE($,#1861,#432);
#273=LINE($,#1863,#433);
#274=LINE($,#1864,#434);
#275=LINE($,#1866,#435);
#276=LINE($,#1867,#436);
#277=LINE($,#1872,#437);
#278=LINE($,#1874,#438);
#279=LINE($,#1876,#439);
#280=LINE($,#1877,#440);
#281=LINE($,#1880,#441);
#282=LINE($,#1882,#442);
#283=LINE($,#1883,#443);
#284=LINE($,#1886,#444);
#285=LINE($,#1888,#445);
#286=LINE($,#1889,#446);
#287=LINE($,#1892,#447);
#288=LINE($,#1894,#448);
#289=LINE($,#1895,#449);
#290=LINE($,#1897,#450);
#291=LINE($,#1898,#451);
#292=LINE($,#1903,#452);
#293=LINE($,#1905,#453);
#294=LINE($,#1907,#454);
#295=LINE($,#1908,#455);
#296=LINE($,#1911,#456);
#297=LINE($,#1913,#457);
#298=LINE($,#1914,#458);
#299=LINE($,#1917,#459);
#300=LINE($,#1919,#460);
#301=LINE($,#1920,#461);
#302=LINE($,#1923,#462);
#303=LINE($,#1925,#463);
#304=LINE($,#1926,#464);
#305=LINE($,#1928,#465);
#306=LINE($,#1929,#466);
#307=LINE($,#1934,#467);
#308=LINE($,#1936,#468);
#309=LINE($,#1938,#469);
#310=LINE($,#1939,#470);
#311=LINE($,#1942,#471);
#312=LINE($,#1944,#472);
#313=LINE($,#1945,#473);
#314=LINE($,#1948,#474);
#315=LINE($,#1950,#475);
#316=LINE($,#1951,#476);
#317=LINE($,#1954,#477);
#318=LINE($,#1956,#478);
#319=LINE($,#1957,#479);
#320=LINE($,#1960,#480);
#321=LINE($,#1962,#481);
#322=LINE($,#1963,#482);
#323=LINE($,#1966,#483);
#324=LINE($,#1968,#484);
#325=LINE($,#1969,#485);
#326=LINE($,#1972,#486);
#327=LINE($,#1974,#487);
#328=LINE($,#1975,#488);
#329=LINE($,#1977,#489);
#330=LINE($,#1978,#490);
#331=LINE($,#1986,#491);
#332=LINE($,#1989,#492);
#333=LINE($,#1992,#493);
#334=LINE($,#1994,#494);
#335=LINE($,#1995,#495);
#336=LINE($,#2001,#496);
#337=LINE($,#2004,#497);
#338=LINE($,#2006,#498);
#339=LINE($,#2007,#499);
#340=LINE($,#2013,#500);
#341=LINE($,#2016,#501);
#342=LINE($,#2018,#502);
#343=LINE($,#2019,#503);
#344=LINE($,#2025,#504);
#345=LINE($,#2027,#505);
#346=LINE($,#2028,#506);
#347=VECTOR($,#1360,0.9);
#348=VECTOR($,#1361,0.2);
#349=VECTOR($,#1362,0.9);
#350=VECTOR($,#1363,0.2);
#351=VECTOR($,#1366,1.1);
#352=VECTOR($,#1367,1.1);
#353=VECTOR($,#1368,0.2);
#354=VECTOR($,#1371,1.2);
#355=VECTOR($,#1372,1.2);
#356=VECTOR($,#1373,0.2);
#357=VECTOR($,#1376,0.800000000000001);
#358=VECTOR($,#1377,0.800000000000001);
#359=VECTOR($,#1378,0.2);
#360=VECTOR($,#1381,0.424264068711929);
#361=VECTOR($,#1382,0.424264068711929);
#362=VECTOR($,#1389,0.800000000000001);
#363=VECTOR($,#1390,0.2);
#364=VECTOR($,#1391,0.800000000000001);
#365=VECTOR($,#1392,0.2);
#366=VECTOR($,#1395,1.2);
#367=VECTOR($,#1396,1.2);
#368=VECTOR($,#1397,0.2);
#369=VECTOR($,#1400,1.1);
#370=VECTOR($,#1401,1.1);
#371=VECTOR($,#1402,0.2);
#372=VECTOR($,#1405,0.9);
#373=VECTOR($,#1406,0.9);
#374=VECTOR($,#1407,0.2);
#375=VECTOR($,#1410,0.424264068711929);
#376=VECTOR($,#1411,0.424264068711929);
#377=VECTOR($,#1418,0.800000000000001);
#378=VECTOR($,#1419,0.2);
#379=VECTOR($,#1420,0.800000000000001);
#380=VECTOR($,#1421,0.2);
#381=VECTOR($,#1424,0.424264068711929);
#382=VECTOR($,#1425,0.424264068711929);
#383=VECTOR($,#1426,0.2);
#384=VECTOR($,#1429,0.9);
#385=VECTOR($,#1430,0.9);
#386=VECTOR($,#1431,0.2);
#387=VECTOR($,#1434,1.1);
#388=VECTOR($,#1435,1.1);
#389=VECTOR($,#1436,0.2);
#390=VECTOR($,#1439,1.2);
#391=VECTOR($,#1440,1.2);
#392=VECTOR($,#1447,1.1);
#393=VECTOR($,#1448,0.2);
#394=VECTOR($,#1449,1.1);
#395=VECTOR($,#1450,0.2);
#396=VECTOR($,#1453,0.9);
#397=VECTOR($,#1454,0.9);
#398=VECTOR($,#1455,0.2);
#399=VECTOR($,#1458,0.424264068711929);
#400=VECTOR($,#1459,0.424264068711929);
#401=VECTOR($,#1460,0.2);
#402=VECTOR($,#1463,0.800000000000001);
#403=VECTOR($,#1464,0.800000000000001);
#404=VECTOR($,#1465,0.2);
#405=VECTOR($,#1468,1.2);
#406=VECTOR($,#1469,1.2);
#407=VECTOR($,#1476,0.9);
#408=VECTOR($,#1477,0.2);
#409=VECTOR($,#1478,0.9);
#410=VECTOR($,#1479,0.2);
#411=VECTOR($,#1482,0.424264068711929);
#412=VECTOR($,#1483,0.424264068711929);
#413=VECTOR($,#1484,0.2);
#414=VECTOR($,#1487,0.800000000000001);
#415=VECTOR($,#1488,0.800000000000001);
#416=VECTOR($,#1489,0.2);
#417=VECTOR($,#1492,1.1);
#418=VECTOR($,#1493,0.2);
#419=VECTOR($,#1494,1.1);
#420=VECTOR($,#1497,1.2);
#421=VECTOR($,#1498,1.2);
#422=VECTOR($,#1503,1.2);
#423=VECTOR($,#1504,0.2);
#424=VECTOR($,#1505,1.2);
#425=VECTOR($,#1506,0.2);
#426=VECTOR($,#1509,1.1);
#427=VECTOR($,#1510,1.1);
#428=VECTOR($,#1511,0.2);
#429=VECTOR($,#1514,0.9);
#430=VECTOR($,#1515,0.9);
#431=VECTOR($,#1516,0.2);
#432=VECTOR($,#1519,0.800000000000001);
#433=VECTOR($,#1520,0.2);
#434=VECTOR($,#1521,0.800000000000001);
#435=VECTOR($,#1524,0.424264068711929);
#436=VECTOR($,#1525,0.424264068711929);
#437=VECTOR($,#1530,0.424264068711929);
#438=VECTOR($,#1531,0.2);
#439=VECTOR($,#1532,0.424264068711929);
#440=VECTOR($,#1533,0.2);
#441=VECTOR($,#1536,0.9);
#442=VECTOR($,#1537,0.9);
#443=VECTOR($,#1538,0.2);
#444=VECTOR($,#1541,1.1);
#445=VECTOR($,#1542,1.1);
#446=VECTOR($,#1543,0.2);
#447=VECTOR($,#1546,0.800000000000001);
#448=VECTOR($,#1547,0.2);
#449=VECTOR($,#1548,0.800000000000001);
#450=VECTOR($,#1551,1.2);
#451=VECTOR($,#1552,1.2);
#452=VECTOR($,#1557,1.1);
#453=VECTOR($,#1558,0.2);
#454=VECTOR($,#1559,1.1);
#455=VECTOR($,#1560,0.2);
#456=VECTOR($,#1563,1.2);
#457=VECTOR($,#1564,1.2);
#458=VECTOR($,#1565,0.2);
#459=VECTOR($,#1568,0.800000000000001);
#460=VECTOR($,#1569,0.800000000000001);
#461=VECTOR($,#1570,0.2);
#462=VECTOR($,#1573,0.9);
#463=VECTOR($,#1574,0.2);
#464=VECTOR($,#1575,0.9);
#465=VECTOR($,#1578,0.424264068711929);
#466=VECTOR($,#1579,0.424264068711929);
#467=VECTOR($,#1584,0.424264068711927);
#468=VECTOR($,#1585,1.);
#469=VECTOR($,#1586,0.424264068711927);
#470=VECTOR($,#1587,1.);
#471=VECTOR($,#1590,3.3);
#472=VECTOR($,#1591,3.3);
#473=VECTOR($,#1592,1.);
#474=VECTOR($,#1595,0.424264068711929);
#475=VECTOR($,#1596,0.424264068711929);
#476=VECTOR($,#1597,1.);
#477=VECTOR($,#1600,5.6);
#478=VECTOR($,#1601,5.6);
#479=VECTOR($,#1602,1.);
#480=VECTOR($,#1605,0.424264068711929);
#481=VECTOR($,#1606,0.424264068711929);
#482=VECTOR($,#1607,1.);
#483=VECTOR($,#1610,3.3);
#484=VECTOR($,#1611,3.3);
#485=VECTOR($,#1612,1.);
#486=VECTOR($,#1615,0.424264068711929);
#487=VECTOR($,#1616,0.424264068711929);
#488=VECTOR($,#1617,1.);
#489=VECTOR($,#1620,5.6);
#490=VECTOR($,#1621,5.6);
#491=VECTOR($,#1630,0.2);
#492=VECTOR($,#1633,0.2);
#493=VECTOR($,#1636,3.3);
#494=VECTOR($,#1637,3.3);
#495=VECTOR($,#1638,0.2);
#496=VECTOR($,#1645,0.2);
#497=VECTOR($,#1648,5.6);
#498=VECTOR($,#1649,5.6);
#499=VECTOR($,#1650,0.2);
#500=VECTOR($,#1657,0.2);
#501=VECTOR($,#1660,3.3);
#502=VECTOR($,#1661,3.3);
#503=VECTOR($,#1662,0.2);
#504=VECTOR($,#1669,0.2);
#505=VECTOR($,#1672,5.6);
#506=VECTOR($,#1673,5.6);
#507=VERTEX_POINT($,#1680);
#508=VERTEX_POINT($,#1681);
#509=VERTEX_POINT($,#1683);
#510=VERTEX_POINT($,#1685);
#511=VERTEX_POINT($,#1689);
#512=VERTEX_POINT($,#1691);
#513=VERTEX_POINT($,#1695);
#514=VERTEX_POINT($,#1697);
#515=VERTEX_POINT($,#1701);
#516=VERTEX_POINT($,#1703);
#517=VERTEX_POINT($,#1712);
#518=VERTEX_POINT($,#1713);
#519=VERTEX_POINT($,#1715);
#520=VERTEX_POINT($,#1717);
#521=VERTEX_POINT($,#1721);
#522=VERTEX_POINT($,#1723);
#523=VERTEX_POINT($,#1727);
#524=VERTEX_POINT($,#1729);
#525=VERTEX_POINT($,#1733);
#526=VERTEX_POINT($,#1735);
#527=VERTEX_POINT($,#1744);
#528=VERTEX_POINT($,#1745);
#529=VERTEX_POINT($,#1747);
#530=VERTEX_POINT($,#1749);
#531=VERTEX_POINT($,#1753);
#532=VERTEX_POINT($,#1755);
#533=VERTEX_POINT($,#1759);
#534=VERTEX_POINT($,#1761);
#535=VERTEX_POINT($,#1765);
#536=VERTEX_POINT($,#1767);
#537=VERTEX_POINT($,#1776);
#538=VERTEX_POINT($,#1777);
#539=VERTEX_POINT($,#1779);
#540=VERTEX_POINT($,#1781);
#541=VERTEX_POINT($,#1785);
#542=VERTEX_POINT($,#1787);
#543=VERTEX_POINT($,#1791);
#544=VERTEX_POINT($,#1793);
#545=VERTEX_POINT($,#1797);
#546=VERTEX_POINT($,#1799);
#547=VERTEX_POINT($,#1808);
#548=VERTEX_POINT($,#1809);
#549=VERTEX_POINT($,#1811);
#550=VERTEX_POINT($,#1813);
#551=VERTEX_POINT($,#1817);
#552=VERTEX_POINT($,#1819);
#553=VERTEX_POINT($,#1823);
#554=VERTEX_POINT($,#1825);
#555=VERTEX_POINT($,#1829);
#556=VERTEX_POINT($,#1831);
#557=VERTEX_POINT($,#1839);
#558=VERTEX_POINT($,#1840);
#559=VERTEX_POINT($,#1842);
#560=VERTEX_POINT($,#1844);
#561=VERTEX_POINT($,#1848);
#562=VERTEX_POINT($,#1850);
#563=VERTEX_POINT($,#1854);
#564=VERTEX_POINT($,#1856);
#565=VERTEX_POINT($,#1860);
#566=VERTEX_POINT($,#1862);
#567=VERTEX_POINT($,#1870);
#568=VERTEX_POINT($,#1871);
#569=VERTEX_POINT($,#1873);
#570=VERTEX_POINT($,#1875);
#571=VERTEX_POINT($,#1879);
#572=VERTEX_POINT($,#1881);
#573=VERTEX_POINT($,#1885);
#574=VERTEX_POINT($,#1887);
#575=VERTEX_POINT($,#1891);
#576=VERTEX_POINT($,#1893);
#577=VERTEX_POINT($,#1901);
#578=VERTEX_POINT($,#1902);
#579=VERTEX_POINT($,#1904);
#580=VERTEX_POINT($,#1906);
#581=VERTEX_POINT($,#1910);
#582=VERTEX_POINT($,#1912);
#583=VERTEX_POINT($,#1916);
#584=VERTEX_POINT($,#1918);
#585=VERTEX_POINT($,#1922);
#586=VERTEX_POINT($,#1924);
#587=VERTEX_POINT($,#1932);
#588=VERTEX_POINT($,#1933);
#589=VERTEX_POINT($,#1935);
#590=VERTEX_POINT($,#1937);
#591=VERTEX_POINT($,#1941);
#592=VERTEX_POINT($,#1943);
#593=VERTEX_POINT($,#1947);
#594=VERTEX_POINT($,#1949);
#595=VERTEX_POINT($,#1953);
#596=VERTEX_POINT($,#1955);
#597=VERTEX_POINT($,#1959);
#598=VERTEX_POINT($,#1961);
#599=VERTEX_POINT($,#1965);
#600=VERTEX_POINT($,#1967);
#601=VERTEX_POINT($,#1971);
#602=VERTEX_POINT($,#1973);
#603=VERTEX_POINT($,#1982);
#604=VERTEX_POINT($,#1983);
#605=VERTEX_POINT($,#1985);
#606=VERTEX_POINT($,#1987);
#607=VERTEX_POINT($,#1991);
#608=VERTEX_POINT($,#1993);
#609=VERTEX_POINT($,#1997);
#610=VERTEX_POINT($,#1999);
#611=VERTEX_POINT($,#2003);
#612=VERTEX_POINT($,#2005);
#613=VERTEX_POINT($,#2009);
#614=VERTEX_POINT($,#2011);
#615=VERTEX_POINT($,#2015);
#616=VERTEX_POINT($,#2017);
#617=VERTEX_POINT($,#2021);
#618=VERTEX_POINT($,#2023);
#619=EDGE_CURVE($,#507,#508,#187,.T.);
#620=EDGE_CURVE($,#507,#509,#188,.T.);
#621=EDGE_CURVE($,#510,#509,#189,.T.);
#622=EDGE_CURVE($,#508,#510,#190,.T.);
#623=EDGE_CURVE($,#508,#511,#191,.T.);
#624=EDGE_CURVE($,#512,#510,#192,.T.);
#625=EDGE_CURVE($,#511,#512,#193,.T.);
#626=EDGE_CURVE($,#511,#513,#194,.T.);
#627=EDGE_CURVE($,#514,#512,#195,.T.);
#628=EDGE_CURVE($,#513,#514,#196,.T.);
#629=EDGE_CURVE($,#513,#515,#197,.T.);
#630=EDGE_CURVE($,#516,#514,#198,.T.);
#631=EDGE_CURVE($,#515,#516,#199,.T.);
#632=EDGE_CURVE($,#515,#507,#200,.T.);
#633=EDGE_CURVE($,#509,#516,#201,.T.);
#634=EDGE_CURVE($,#517,#518,#202,.T.);
#635=EDGE_CURVE($,#517,#519,#203,.T.);
#636=EDGE_CURVE($,#520,#519,#204,.T.);
#637=EDGE_CURVE($,#518,#520,#205,.T.);
#638=EDGE_CURVE($,#518,#521,#206,.T.);
#639=EDGE_CURVE($,#522,#520,#207,.T.);
#640=EDGE_CURVE($,#521,#522,#208,.T.);
#641=EDGE_CURVE($,#521,#523,#209,.T.);
#642=EDGE_CURVE($,#524,#522,#210,.T.);
#643=EDGE_CURVE($,#523,#524,#211,.T.);
#644=EDGE_CURVE($,#523,#525,#212,.T.);
#645=EDGE_CURVE($,#526,#524,#213,.T.);
#646=EDGE_CURVE($,#525,#526,#214,.T.);
#647=EDGE_CURVE($,#525,#517,#215,.T.);
#648=EDGE_CURVE($,#519,#526,#216,.T.);
#649=EDGE_CURVE($,#527,#528,#217,.T.);
#650=EDGE_CURVE($,#528,#529,#218,.T.);
#651=EDGE_CURVE($,#530,#529,#219,.T.);
#652=EDGE_CURVE($,#527,#530,#220,.T.);
#653=EDGE_CURVE($,#531,#527,#221,.T.);
#654=EDGE_CURVE($,#532,#530,#222,.T.);
#655=EDGE_CURVE($,#531,#532,#223,.T.);
#656=EDGE_CURVE($,#533,#531,#224,.T.);
#657=EDGE_CURVE($,#534,#532,#225,.T.);
#658=EDGE_CURVE($,#533,#534,#226,.T.);
#659=EDGE_CURVE($,#535,#533,#227,.T.);
#660=EDGE_CURVE($,#536,#534,#228,.T.);
#661=EDGE_CURVE($,#535,#536,#229,.T.);
#662=EDGE_CURVE($,#528,#535,#230,.T.);
#663=EDGE_CURVE($,#529,#536,#231,.T.);
#664=EDGE_CURVE($,#537,#538,#232,.T.);
#665=EDGE_CURVE($,#537,#539,#233,.T.);
#666=EDGE_CURVE($,#540,#539,#234,.T.);
#667=EDGE_CURVE($,#538,#540,#235,.T.);
#668=EDGE_CURVE($,#538,#541,#236,.T.);
#669=EDGE_CURVE($,#542,#540,#237,.T.);
#670=EDGE_CURVE($,#541,#542,#238,.T.);
#671=EDGE_CURVE($,#541,#543,#239,.T.);
#672=EDGE_CURVE($,#544,#542,#240,.T.);
#673=EDGE_CURVE($,#543,#544,#241,.T.);
#674=EDGE_CURVE($,#543,#545,#242,.T.);
#675=EDGE_CURVE($,#546,#544,#243,.T.);
#676=EDGE_CURVE($,#545,#546,#244,.T.);
#677=EDGE_CURVE($,#545,#537,#245,.T.);
#678=EDGE_CURVE($,#539,#546,#246,.T.);
#679=EDGE_CURVE($,#547,#548,#247,.T.);
#680=EDGE_CURVE($,#547,#549,#248,.T.);
#681=EDGE_CURVE($,#549,#550,#249,.T.);
#682=EDGE_CURVE($,#548,#550,#250,.T.);
#683=EDGE_CURVE($,#548,#551,#251,.T.);
#684=EDGE_CURVE($,#550,#552,#252,.T.);
#685=EDGE_CURVE($,#551,#552,#253,.T.);
#686=EDGE_CURVE($,#551,#553,#254,.T.);
#687=EDGE_CURVE($,#552,#554,#255,.T.);
#688=EDGE_CURVE($,#553,#554,#256,.T.);
#689=EDGE_CURVE($,#555,#547,#257,.T.);
#690=EDGE_CURVE($,#555,#556,#258,.T.);
#691=EDGE_CURVE($,#556,#549,#259,.T.);
#692=EDGE_CURVE($,#553,#555,#260,.T.);
#693=EDGE_CURVE($,#554,#556,#261,.T.);
#694=EDGE_CURVE($,#557,#558,#262,.T.);
#695=EDGE_CURVE($,#557,#559,#263,.T.);
#696=EDGE_CURVE($,#559,#560,#264,.T.);
#697=EDGE_CURVE($,#558,#560,#265,.T.);
#698=EDGE_CURVE($,#558,#561,#266,.T.);
#699=EDGE_CURVE($,#560,#562,#267,.T.);
#700=EDGE_CURVE($,#561,#562,#268,.T.);
#701=EDGE_CURVE($,#561,#563,#269,.T.);
#702=EDGE_CURVE($,#562,#564,#270,.T.);
#703=EDGE_CURVE($,#563,#564,#271,.T.);
#704=EDGE_CURVE($,#565,#557,#272,.T.);
#705=EDGE_CURVE($,#565,#566,#273,.T.);
#706=EDGE_CURVE($,#566,#559,#274,.T.);
#707=EDGE_CURVE($,#563,#565,#275,.T.);
#708=EDGE_CURVE($,#564,#566,#276,.T.);
#709=EDGE_CURVE($,#567,#568,#277,.T.);
#710=EDGE_CURVE($,#567,#569,#278,.T.);
#711=EDGE_CURVE($,#569,#570,#279,.T.);
#712=EDGE_CURVE($,#568,#570,#280,.T.);
#713=EDGE_CURVE($,#568,#571,#281,.T.);
#714=EDGE_CURVE($,#570,#572,#282,.T.);
#715=EDGE_CURVE($,#571,#572,#283,.T.);
#716=EDGE_CURVE($,#571,#573,#284,.T.);
#717=EDGE_CURVE($,#572,#574,#285,.T.);
#718=EDGE_CURVE($,#573,#574,#286,.T.);
#719=EDGE_CURVE($,#575,#567,#287,.T.);
#720=EDGE_CURVE($,#575,#576,#288,.T.);
#721=EDGE_CURVE($,#576,#569,#289,.T.);
#722=EDGE_CURVE($,#573,#575,#290,.T.);
#723=EDGE_CURVE($,#574,#576,#291,.T.);
#724=EDGE_CURVE($,#577,#578,#292,.T.);
#725=EDGE_CURVE($,#577,#579,#293,.T.);
#726=EDGE_CURVE($,#579,#580,#294,.T.);
#727=EDGE_CURVE($,#578,#580,#295,.T.);
#728=EDGE_CURVE($,#578,#581,#296,.T.);
#729=EDGE_CURVE($,#580,#582,#297,.T.);
#730=EDGE_CURVE($,#581,#582,#298,.T.);
#731=EDGE_CURVE($,#581,#583,#299,.T.);
#732=EDGE_CURVE($,#582,#584,#300,.T.);
#733=EDGE_CURVE($,#583,#584,#301,.T.);
#734=EDGE_CURVE($,#585,#577,#302,.T.);
#735=EDGE_CURVE($,#585,#586,#303,.T.);
#736=EDGE_CURVE($,#586,#579,#304,.T.);
#737=EDGE_CURVE($,#583,#585,#305,.T.);
#738=EDGE_CURVE($,#584,#586,#306,.T.);
#739=EDGE_CURVE($,#587,#588,#307,.T.);
#740=EDGE_CURVE($,#588,#589,#308,.T.);
#741=EDGE_CURVE($,#590,#589,#309,.T.);
#742=EDGE_CURVE($,#587,#590,#310,.T.);
#743=EDGE_CURVE($,#591,#587,#311,.T.);
#744=EDGE_CURVE($,#592,#590,#312,.T.);
#745=EDGE_CURVE($,#591,#592,#313,.T.);
#746=EDGE_CURVE($,#593,#591,#314,.T.);
#747=EDGE_CURVE($,#594,#592,#315,.T.);
#748=EDGE_CURVE($,#593,#594,#316,.T.);
#749=EDGE_CURVE($,#595,#593,#317,.T.);
#750=EDGE_CURVE($,#596,#594,#318,.T.);
#751=EDGE_CURVE($,#595,#596,#319,.T.);
#752=EDGE_CURVE($,#597,#595,#320,.T.);
#753=EDGE_CURVE($,#598,#596,#321,.T.);
#754=EDGE_CURVE($,#597,#598,#322,.T.);
#755=EDGE_CURVE($,#599,#597,#323,.T.);
#756=EDGE_CURVE($,#600,#598,#324,.T.);
#757=EDGE_CURVE($,#599,#600,#325,.T.);
#758=EDGE_CURVE($,#601,#599,#326,.T.);
#759=EDGE_CURVE($,#602,#600,#327,.T.);
#760=EDGE_CURVE($,#601,#602,#328,.T.);
#761=EDGE_CURVE($,#588,#601,#329,.T.);
#762=EDGE_CURVE($,#589,#602,#330,.T.);
#763=EDGE_CURVE($,#603,#604,#15,.T.);
#764=EDGE_CURVE($,#603,#605,#331,.T.);
#765=EDGE_CURVE($,#606,#605,#16,.T.);
#766=EDGE_CURVE($,#604,#606,#332,.T.);
#767=EDGE_CURVE($,#604,#607,#333,.T.);
#768=EDGE_CURVE($,#608,#606,#334,.T.);
#769=EDGE_CURVE($,#607,#608,#335,.T.);
#770=EDGE_CURVE($,#607,#609,#17,.T.);
#771=EDGE_CURVE($,#610,#608,#18,.T.);
#772=EDGE_CURVE($,#609,#610,#336,.T.);
#773=EDGE_CURVE($,#609,#611,#337,.T.);
#774=EDGE_CURVE($,#612,#610,#338,.T.);
#775=EDGE_CURVE($,#611,#612,#339,.T.);
#776=EDGE_CURVE($,#611,#613,#19,.T.);
#777=EDGE_CURVE($,#614,#612,#20,.T.);
#778=EDGE_CURVE($,#613,#614,#340,.T.);
#779=EDGE_CURVE($,#613,#615,#341,.T.);
#780=EDGE_CURVE($,#616,#614,#342,.T.);
#781=EDGE_CURVE($,#615,#616,#343,.T.);
#782=EDGE_CURVE($,#615,#617,#21,.T.);
#783=EDGE_CURVE($,#618,#616,#22,.T.);
#784=EDGE_CURVE($,#617,#618,#344,.T.);
#785=EDGE_CURVE($,#617,#603,#345,.T.);
#786=EDGE_CURVE($,#605,#618,#346,.T.);
#787=ORIENTED_EDGE($,*,*,#619,.F.);
#788=ORIENTED_EDGE($,*,*,#620,.T.);
#789=ORIENTED_EDGE($,*,*,#621,.F.);
#790=ORIENTED_EDGE($,*,*,#622,.F.);
#791=ORIENTED_EDGE($,*,*,#623,.F.);
#792=ORIENTED_EDGE($,*,*,#622,.T.);
#793=ORIENTED_EDGE($,*,*,#624,.F.);
#794=ORIENTED_EDGE($,*,*,#625,.F.);
#795=ORIENTED_EDGE($,*,*,#626,.F.);
#796=ORIENTED_EDGE($,*,*,#625,.T.);
#797=ORIENTED_EDGE($,*,*,#627,.F.);
#798=ORIENTED_EDGE($,*,*,#628,.F.);
#799=ORIENTED_EDGE($,*,*,#629,.F.);
#800=ORIENTED_EDGE($,*,*,#628,.T.);
#801=ORIENTED_EDGE($,*,*,#630,.F.);
#802=ORIENTED_EDGE($,*,*,#631,.F.);
#803=ORIENTED_EDGE($,*,*,#632,.F.);
#804=ORIENTED_EDGE($,*,*,#631,.T.);
#805=ORIENTED_EDGE($,*,*,#633,.F.);
#806=ORIENTED_EDGE($,*,*,#620,.F.);
#807=ORIENTED_EDGE($,*,*,#632,.T.);
#808=ORIENTED_EDGE($,*,*,#619,.T.);
#809=ORIENTED_EDGE($,*,*,#623,.T.);
#810=ORIENTED_EDGE($,*,*,#626,.T.);
#811=ORIENTED_EDGE($,*,*,#629,.T.);
#812=ORIENTED_EDGE($,*,*,#633,.T.);
#813=ORIENTED_EDGE($,*,*,#630,.T.);
#814=ORIENTED_EDGE($,*,*,#627,.T.);
#815=ORIENTED_EDGE($,*,*,#624,.T.);
#816=ORIENTED_EDGE($,*,*,#621,.T.);
#817=ORIENTED_EDGE($,*,*,#634,.F.);
#818=ORIENTED_EDGE($,*,*,#635,.T.);
#819=ORIENTED_EDGE($,*,*,#636,.F.);
#820=ORIENTED_EDGE($,*,*,#637,.F.);
#821=ORIENTED_EDGE($,*,*,#638,.F.);
#822=ORIENTED_EDGE($,*,*,#637,.T.);
#823=ORIENTED_EDGE($,*,*,#639,.F.);
#824=ORIENTED_EDGE($,*,*,#640,.F.);
#825=ORIENTED_EDGE($,*,*,#641,.F.);
#826=ORIENTED_EDGE($,*,*,#640,.T.);
#827=ORIENTED_EDGE($,*,*,#642,.F.);
#828=ORIENTED_EDGE($,*,*,#643,.F.);
#829=ORIENTED_EDGE($,*,*,#644,.F.);
#830=ORIENTED_EDGE($,*,*,#643,.T.);
#831=ORIENTED_EDGE($,*,*,#645,.F.);
#832=ORIENTED_EDGE($,*,*,#646,.F.);
#833=ORIENTED_EDGE($,*,*,#647,.F.);
#834=ORIENTED_EDGE($,*,*,#646,.T.);
#835=ORIENTED_EDGE($,*,*,#648,.F.);
#836=ORIENTED_EDGE($,*,*,#635,.F.);
#837=ORIENTED_EDGE($,*,*,#647,.T.);
#838=ORIENTED_EDGE($,*,*,#634,.T.);
#839=ORIENTED_EDGE($,*,*,#638,.T.);
#840=ORIENTED_EDGE($,*,*,#641,.T.);
#841=ORIENTED_EDGE($,*,*,#644,.T.);
#842=ORIENTED_EDGE($,*,*,#648,.T.);
#843=ORIENTED_EDGE($,*,*,#645,.T.);
#844=ORIENTED_EDGE($,*,*,#642,.T.);
#845=ORIENTED_EDGE($,*,*,#639,.T.);
#846=ORIENTED_EDGE($,*,*,#636,.T.);
#847=ORIENTED_EDGE($,*,*,#649,.T.);
#848=ORIENTED_EDGE($,*,*,#650,.T.);
#849=ORIENTED_EDGE($,*,*,#651,.F.);
#850=ORIENTED_EDGE($,*,*,#652,.F.);
#851=ORIENTED_EDGE($,*,*,#653,.T.);
#852=ORIENTED_EDGE($,*,*,#652,.T.);
#853=ORIENTED_EDGE($,*,*,#654,.F.);
#854=ORIENTED_EDGE($,*,*,#655,.F.);
#855=ORIENTED_EDGE($,*,*,#656,.T.);
#856=ORIENTED_EDGE($,*,*,#655,.T.);
#857=ORIENTED_EDGE($,*,*,#657,.F.);
#858=ORIENTED_EDGE($,*,*,#658,.F.);
#859=ORIENTED_EDGE($,*,*,#659,.T.);
#860=ORIENTED_EDGE($,*,*,#658,.T.);
#861=ORIENTED_EDGE($,*,*,#660,.F.);
#862=ORIENTED_EDGE($,*,*,#661,.F.);
#863=ORIENTED_EDGE($,*,*,#662,.T.);
#864=ORIENTED_EDGE($,*,*,#661,.T.);
#865=ORIENTED_EDGE($,*,*,#663,.F.);
#866=ORIENTED_EDGE($,*,*,#650,.F.);
#867=ORIENTED_EDGE($,*,*,#663,.T.);
#868=ORIENTED_EDGE($,*,*,#660,.T.);
#869=ORIENTED_EDGE($,*,*,#657,.T.);
#870=ORIENTED_EDGE($,*,*,#654,.T.);
#871=ORIENTED_EDGE($,*,*,#651,.T.);
#872=ORIENTED_EDGE($,*,*,#662,.F.);
#873=ORIENTED_EDGE($,*,*,#649,.F.);
#874=ORIENTED_EDGE($,*,*,#653,.F.);
#875=ORIENTED_EDGE($,*,*,#656,.F.);
#876=ORIENTED_EDGE($,*,*,#659,.F.);
#877=ORIENTED_EDGE($,*,*,#664,.F.);
#878=ORIENTED_EDGE($,*,*,#665,.T.);
#879=ORIENTED_EDGE($,*,*,#666,.F.);
#880=ORIENTED_EDGE($,*,*,#667,.F.);
#881=ORIENTED_EDGE($,*,*,#668,.F.);
#882=ORIENTED_EDGE($,*,*,#667,.T.);
#883=ORIENTED_EDGE($,*,*,#669,.F.);
#884=ORIENTED_EDGE($,*,*,#670,.F.);
#885=ORIENTED_EDGE($,*,*,#671,.F.);
#886=ORIENTED_EDGE($,*,*,#670,.T.);
#887=ORIENTED_EDGE($,*,*,#672,.F.);
#888=ORIENTED_EDGE($,*,*,#673,.F.);
#889=ORIENTED_EDGE($,*,*,#674,.F.);
#890=ORIENTED_EDGE($,*,*,#673,.T.);
#891=ORIENTED_EDGE($,*,*,#675,.F.);
#892=ORIENTED_EDGE($,*,*,#676,.F.);
#893=ORIENTED_EDGE($,*,*,#677,.F.);
#894=ORIENTED_EDGE($,*,*,#676,.T.);
#895=ORIENTED_EDGE($,*,*,#678,.F.);
#896=ORIENTED_EDGE($,*,*,#665,.F.);
#897=ORIENTED_EDGE($,*,*,#677,.T.);
#898=ORIENTED_EDGE($,*,*,#664,.T.);
#899=ORIENTED_EDGE($,*,*,#668,.T.);
#900=ORIENTED_EDGE($,*,*,#671,.T.);
#901=ORIENTED_EDGE($,*,*,#674,.T.);
#902=ORIENTED_EDGE($,*,*,#678,.T.);
#903=ORIENTED_EDGE($,*,*,#675,.T.);
#904=ORIENTED_EDGE($,*,*,#672,.T.);
#905=ORIENTED_EDGE($,*,*,#669,.T.);
#906=ORIENTED_EDGE($,*,*,#666,.T.);
#907=ORIENTED_EDGE($,*,*,#679,.F.);
#908=ORIENTED_EDGE($,*,*,#680,.T.);
#909=ORIENTED_EDGE($,*,*,#681,.T.);
#910=ORIENTED_EDGE($,*,*,#682,.F.);
#911=ORIENTED_EDGE($,*,*,#683,.F.);
#912=ORIENTED_EDGE($,*,*,#682,.T.);
#913=ORIENTED_EDGE($,*,*,#684,.T.);
#914=ORIENTED_EDGE($,*,*,#685,.F.);
#915=ORIENTED_EDGE($,*,*,#686,.F.);
#916=ORIENTED_EDGE($,*,*,#685,.T.);
#917=ORIENTED_EDGE($,*,*,#687,.T.);
#918=ORIENTED_EDGE($,*,*,#688,.F.);
#919=ORIENTED_EDGE($,*,*,#689,.F.);
#920=ORIENTED_EDGE($,*,*,#690,.T.);
#921=ORIENTED_EDGE($,*,*,#691,.T.);
#922=ORIENTED_EDGE($,*,*,#680,.F.);
#923=ORIENTED_EDGE($,*,*,#692,.F.);
#924=ORIENTED_EDGE($,*,*,#688,.T.);
#925=ORIENTED_EDGE($,*,*,#693,.T.);
#926=ORIENTED_EDGE($,*,*,#690,.F.);
#927=ORIENTED_EDGE($,*,*,#693,.F.);
#928=ORIENTED_EDGE($,*,*,#687,.F.);
#929=ORIENTED_EDGE($,*,*,#684,.F.);
#930=ORIENTED_EDGE($,*,*,#681,.F.);
#931=ORIENTED_EDGE($,*,*,#691,.F.);
#932=ORIENTED_EDGE($,*,*,#694,.F.);
#933=ORIENTED_EDGE($,*,*,#695,.T.);
#934=ORIENTED_EDGE($,*,*,#696,.T.);
#935=ORIENTED_EDGE($,*,*,#697,.F.);
#936=ORIENTED_EDGE($,*,*,#698,.F.);
#937=ORIENTED_EDGE($,*,*,#697,.T.);
#938=ORIENTED_EDGE($,*,*,#699,.T.);
#939=ORIENTED_EDGE($,*,*,#700,.F.);
#940=ORIENTED_EDGE($,*,*,#701,.F.);
#941=ORIENTED_EDGE($,*,*,#700,.T.);
#942=ORIENTED_EDGE($,*,*,#702,.T.);
#943=ORIENTED_EDGE($,*,*,#703,.F.);
#944=ORIENTED_EDGE($,*,*,#704,.F.);
#945=ORIENTED_EDGE($,*,*,#705,.T.);
#946=ORIENTED_EDGE($,*,*,#706,.T.);
#947=ORIENTED_EDGE($,*,*,#695,.F.);
#948=ORIENTED_EDGE($,*,*,#707,.F.);
#949=ORIENTED_EDGE($,*,*,#703,.T.);
#950=ORIENTED_EDGE($,*,*,#708,.T.);
#951=ORIENTED_EDGE($,*,*,#705,.F.);
#952=ORIENTED_EDGE($,*,*,#708,.F.);
#953=ORIENTED_EDGE($,*,*,#702,.F.);
#954=ORIENTED_EDGE($,*,*,#699,.F.);
#955=ORIENTED_EDGE($,*,*,#696,.F.);
#956=ORIENTED_EDGE($,*,*,#706,.F.);
#957=ORIENTED_EDGE($,*,*,#709,.F.);
#958=ORIENTED_EDGE($,*,*,#710,.T.);
#959=ORIENTED_EDGE($,*,*,#711,.T.);
#960=ORIENTED_EDGE($,*,*,#712,.F.);
#961=ORIENTED_EDGE($,*,*,#713,.F.);
#962=ORIENTED_EDGE($,*,*,#712,.T.);
#963=ORIENTED_EDGE($,*,*,#714,.T.);
#964=ORIENTED_EDGE($,*,*,#715,.F.);
#965=ORIENTED_EDGE($,*,*,#716,.F.);
#966=ORIENTED_EDGE($,*,*,#715,.T.);
#967=ORIENTED_EDGE($,*,*,#717,.T.);
#968=ORIENTED_EDGE($,*,*,#718,.F.);
#969=ORIENTED_EDGE($,*,*,#719,.F.);
#970=ORIENTED_EDGE($,*,*,#720,.T.);
#971=ORIENTED_EDGE($,*,*,#721,.T.);
#972=ORIENTED_EDGE($,*,*,#710,.F.);
#973=ORIENTED_EDGE($,*,*,#722,.F.);
#974=ORIENTED_EDGE($,*,*,#718,.T.);
#975=ORIENTED_EDGE($,*,*,#723,.T.);
#976=ORIENTED_EDGE($,*,*,#720,.F.);
#977=ORIENTED_EDGE($,*,*,#723,.F.);
#978=ORIENTED_EDGE($,*,*,#717,.F.);
#979=ORIENTED_EDGE($,*,*,#714,.F.);
#980=ORIENTED_EDGE($,*,*,#711,.F.);
#981=ORIENTED_EDGE($,*,*,#721,.F.);
#982=ORIENTED_EDGE($,*,*,#724,.F.);
#983=ORIENTED_EDGE($,*,*,#725,.T.);
#984=ORIENTED_EDGE($,*,*,#726,.T.);
#985=ORIENTED_EDGE($,*,*,#727,.F.);
#986=ORIENTED_EDGE($,*,*,#728,.F.);
#987=ORIENTED_EDGE($,*,*,#727,.T.);
#988=ORIENTED_EDGE($,*,*,#729,.T.);
#989=ORIENTED_EDGE($,*,*,#730,.F.);
#990=ORIENTED_EDGE($,*,*,#731,.F.);
#991=ORIENTED_EDGE($,*,*,#730,.T.);
#992=ORIENTED_EDGE($,*,*,#732,.T.);
#993=ORIENTED_EDGE($,*,*,#733,.F.);
#994=ORIENTED_EDGE($,*,*,#734,.F.);
#995=ORIENTED_EDGE($,*,*,#735,.T.);
#996=ORIENTED_EDGE($,*,*,#736,.T.);
#997=ORIENTED_EDGE($,*,*,#725,.F.);
#998=ORIENTED_EDGE($,*,*,#737,.F.);
#999=ORIENTED_EDGE($,*,*,#733,.T.);
#1000=ORIENTED_EDGE($,*,*,#738,.T.);
#1001=ORIENTED_EDGE($,*,*,#735,.F.);
#1002=ORIENTED_EDGE($,*,*,#738,.F.);
#1003=ORIENTED_EDGE($,*,*,#732,.F.);
#1004=ORIENTED_EDGE($,*,*,#729,.F.);
#1005=ORIENTED_EDGE($,*,*,#726,.F.);
#1006=ORIENTED_EDGE($,*,*,#736,.F.);
#1007=ORIENTED_EDGE($,*,*,#739,.T.);
#1008=ORIENTED_EDGE($,*,*,#740,.T.);
#1009=ORIENTED_EDGE($,*,*,#741,.F.);
#1010=ORIENTED_EDGE($,*,*,#742,.F.);
#1011=ORIENTED_EDGE($,*,*,#743,.T.);
#1012=ORIENTED_EDGE($,*,*,#742,.T.);
#1013=ORIENTED_EDGE($,*,*,#744,.F.);
#1014=ORIENTED_EDGE($,*,*,#745,.F.);
#1015=ORIENTED_EDGE($,*,*,#746,.T.);
#1016=ORIENTED_EDGE($,*,*,#745,.T.);
#1017=ORIENTED_EDGE($,*,*,#747,.F.);
#1018=ORIENTED_EDGE($,*,*,#748,.F.);
#1019=ORIENTED_EDGE($,*,*,#749,.T.);
#1020=ORIENTED_EDGE($,*,*,#748,.T.);
#1021=ORIENTED_EDGE($,*,*,#750,.F.);
#1022=ORIENTED_EDGE($,*,*,#751,.F.);
#1023=ORIENTED_EDGE($,*,*,#752,.T.);
#1024=ORIENTED_EDGE($,*,*,#751,.T.);
#1025=ORIENTED_EDGE($,*,*,#753,.F.);
#1026=ORIENTED_EDGE($,*,*,#754,.F.);
#1027=ORIENTED_EDGE($,*,*,#755,.T.);
#1028=ORIENTED_EDGE($,*,*,#754,.T.);
#1029=ORIENTED_EDGE($,*,*,#756,.F.);
#1030=ORIENTED_EDGE($,*,*,#757,.F.);
#1031=ORIENTED_EDGE($,*,*,#758,.T.);
#1032=ORIENTED_EDGE($,*,*,#757,.T.);
#1033=ORIENTED_EDGE($,*,*,#759,.F.);
#1034=ORIENTED_EDGE($,*,*,#760,.F.);
#1035=ORIENTED_EDGE($,*,*,#761,.T.);
#1036=ORIENTED_EDGE($,*,*,#760,.T.);
#1037=ORIENTED_EDGE($,*,*,#762,.F.);
#1038=ORIENTED_EDGE($,*,*,#740,.F.);
#1039=ORIENTED_EDGE($,*,*,#762,.T.);
#1040=ORIENTED_EDGE($,*,*,#759,.T.);
#1041=ORIENTED_EDGE($,*,*,#756,.T.);
#1042=ORIENTED_EDGE($,*,*,#753,.T.);
#1043=ORIENTED_EDGE($,*,*,#750,.T.);
#1044=ORIENTED_EDGE($,*,*,#747,.T.);
#1045=ORIENTED_EDGE($,*,*,#744,.T.);
#1046=ORIENTED_EDGE($,*,*,#741,.T.);
#1047=ORIENTED_EDGE($,*,*,#761,.F.);
#1048=ORIENTED_EDGE($,*,*,#739,.F.);
#1049=ORIENTED_EDGE($,*,*,#743,.F.);
#1050=ORIENTED_EDGE($,*,*,#746,.F.);
#1051=ORIENTED_EDGE($,*,*,#749,.F.);
#1052=ORIENTED_EDGE($,*,*,#752,.F.);
#1053=ORIENTED_EDGE($,*,*,#755,.F.);
#1054=ORIENTED_EDGE($,*,*,#758,.F.);
#1055=ORIENTED_EDGE($,*,*,#686,.T.);
#1056=ORIENTED_EDGE($,*,*,#692,.T.);
#1057=ORIENTED_EDGE($,*,*,#689,.T.);
#1058=ORIENTED_EDGE($,*,*,#679,.T.);
#1059=ORIENTED_EDGE($,*,*,#683,.T.);
#1060=ORIENTED_EDGE($,*,*,#701,.T.);
#1061=ORIENTED_EDGE($,*,*,#707,.T.);
#1062=ORIENTED_EDGE($,*,*,#704,.T.);
#1063=ORIENTED_EDGE($,*,*,#694,.T.);
#1064=ORIENTED_EDGE($,*,*,#698,.T.);
#1065=ORIENTED_EDGE($,*,*,#716,.T.);
#1066=ORIENTED_EDGE($,*,*,#722,.T.);
#1067=ORIENTED_EDGE($,*,*,#719,.T.);
#1068=ORIENTED_EDGE($,*,*,#709,.T.);
#1069=ORIENTED_EDGE($,*,*,#713,.T.);
#1070=ORIENTED_EDGE($,*,*,#731,.T.);
#1071=ORIENTED_EDGE($,*,*,#737,.T.);
#1072=ORIENTED_EDGE($,*,*,#734,.T.);
#1073=ORIENTED_EDGE($,*,*,#724,.T.);
#1074=ORIENTED_EDGE($,*,*,#728,.T.);
#1075=ORIENTED_EDGE($,*,*,#763,.F.);
#1076=ORIENTED_EDGE($,*,*,#764,.T.);
#1077=ORIENTED_EDGE($,*,*,#765,.F.);
#1078=ORIENTED_EDGE($,*,*,#766,.F.);
#1079=ORIENTED_EDGE($,*,*,#767,.F.);
#1080=ORIENTED_EDGE($,*,*,#766,.T.);
#1081=ORIENTED_EDGE($,*,*,#768,.F.);
#1082=ORIENTED_EDGE($,*,*,#769,.F.);
#1083=ORIENTED_EDGE($,*,*,#770,.F.);
#1084=ORIENTED_EDGE($,*,*,#769,.T.);
#1085=ORIENTED_EDGE($,*,*,#771,.F.);
#1086=ORIENTED_EDGE($,*,*,#772,.F.);
#1087=ORIENTED_EDGE($,*,*,#773,.F.);
#1088=ORIENTED_EDGE($,*,*,#772,.T.);
#1089=ORIENTED_EDGE($,*,*,#774,.F.);
#1090=ORIENTED_EDGE($,*,*,#775,.F.);
#1091=ORIENTED_EDGE($,*,*,#776,.F.);
#1092=ORIENTED_EDGE($,*,*,#775,.T.);
#1093=ORIENTED_EDGE($,*,*,#777,.F.);
#1094=ORIENTED_EDGE($,*,*,#778,.F.);
#1095=ORIENTED_EDGE($,*,*,#779,.F.);
#1096=ORIENTED_EDGE($,*,*,#778,.T.);
#1097=ORIENTED_EDGE($,*,*,#780,.F.);
#1098=ORIENTED_EDGE($,*,*,#781,.F.);
#1099=ORIENTED_EDGE($,*,*,#782,.F.);
#1100=ORIENTED_EDGE($,*,*,#781,.T.);
#1101=ORIENTED_EDGE($,*,*,#783,.F.);
#1102=ORIENTED_EDGE($,*,*,#784,.F.);
#1103=ORIENTED_EDGE($,*,*,#785,.F.);
#1104=ORIENTED_EDGE($,*,*,#784,.T.);
#1105=ORIENTED_EDGE($,*,*,#786,.F.);
#1106=ORIENTED_EDGE($,*,*,#764,.F.);
#1107=ORIENTED_EDGE($,*,*,#785,.T.);
#1108=ORIENTED_EDGE($,*,*,#763,.T.);
#1109=ORIENTED_EDGE($,*,*,#767,.T.);
#1110=ORIENTED_EDGE($,*,*,#770,.T.);
#1111=ORIENTED_EDGE($,*,*,#773,.T.);
#1112=ORIENTED_EDGE($,*,*,#776,.T.);
#1113=ORIENTED_EDGE($,*,*,#779,.T.);
#1114=ORIENTED_EDGE($,*,*,#782,.T.);
#1115=ORIENTED_EDGE($,*,*,#786,.T.);
#1116=ORIENTED_EDGE($,*,*,#783,.T.);
#1117=ORIENTED_EDGE($,*,*,#780,.T.);
#1118=ORIENTED_EDGE($,*,*,#777,.T.);
#1119=ORIENTED_EDGE($,*,*,#774,.T.);
#1120=ORIENTED_EDGE($,*,*,#771,.T.);
#1121=ORIENTED_EDGE($,*,*,#768,.T.);
#1122=ORIENTED_EDGE($,*,*,#765,.T.);
#1123=PLANE($,#1276);
#1124=PLANE($,#1277);
#1125=PLANE($,#1278);
#1126=PLANE($,#1279);
#1127=PLANE($,#1280);
#1128=PLANE($,#1281);
#1129=PLANE($,#1282);
#1130=PLANE($,#1283);
#1131=PLANE($,#1284);
#1132=PLANE($,#1285);
#1133=PLANE($,#1286);
#1134=PLANE($,#1287);
#1135=PLANE($,#1288);
#1136=PLANE($,#1289);
#1137=PLANE($,#1290);
#1138=PLANE($,#1291);
#1139=PLANE($,#1292);
#1140=PLANE($,#1293);
#1141=PLANE($,#1294);
#1142=PLANE($,#1295);
#1143=PLANE($,#1296);
#1144=PLANE($,#1297);
#1145=PLANE($,#1298);
#1146=PLANE($,#1299);
#1147=PLANE($,#1300);
#1148=PLANE($,#1301);
#1149=PLANE($,#1302);
#1150=PLANE($,#1303);
#1151=PLANE($,#1304);
#1152=PLANE($,#1305);
#1153=PLANE($,#1306);
#1154=PLANE($,#1307);
#1155=PLANE($,#1308);
#1156=PLANE($,#1309);
#1157=PLANE($,#1310);
#1158=PLANE($,#1311);
#1159=PLANE($,#1312);
#1160=PLANE($,#1313);
#1161=PLANE($,#1314);
#1162=PLANE($,#1315);
#1163=PLANE($,#1316);
#1164=PLANE($,#1317);
#1165=PLANE($,#1318);
#1166=PLANE($,#1319);
#1167=PLANE($,#1320);
#1168=PLANE($,#1321);
#1169=PLANE($,#1322);
#1170=PLANE($,#1323);
#1171=PLANE($,#1324);
#1172=PLANE($,#1325);
#1173=PLANE($,#1326);
#1174=PLANE($,#1327);
#1175=PLANE($,#1328);
#1176=PLANE($,#1329);
#1177=PLANE($,#1330);
#1178=PLANE($,#1331);
#1179=PLANE($,#1332);
#1180=PLANE($,#1333);
#1181=PLANE($,#1334);
#1182=PLANE($,#1335);
#1183=PLANE($,#1336);
#1184=PLANE($,#1337);
#1185=PLANE($,#1341);
#1186=PLANE($,#1345);
#1187=PLANE($,#1349);
#1188=PLANE($,#1353);
#1189=PLANE($,#1354);
#1190=PLANE($,#1355);
#1191=ADVANCED_FACE($,(#39),#1123,.T.);
#1192=ADVANCED_FACE($,(#40),#1124,.T.);
#1193=ADVANCED_FACE($,(#41),#1125,.T.);
#1194=ADVANCED_FACE($,(#42),#1126,.T.);
#1195=ADVANCED_FACE($,(#43),#1127,.T.);
#1196=ADVANCED_FACE($,(#44),#1128,.F.);
#1197=ADVANCED_FACE($,(#45),#1129,.T.);
#1198=ADVANCED_FACE($,(#46),#1130,.T.);
#1199=ADVANCED_FACE($,(#47),#1131,.T.);
#1200=ADVANCED_FACE($,(#48),#1132,.T.);
#1201=ADVANCED_FACE($,(#49),#1133,.T.);
#1202=ADVANCED_FACE($,(#50),#1134,.T.);
#1203=ADVANCED_FACE($,(#51),#1135,.F.);
#1204=ADVANCED_FACE($,(#52),#1136,.T.);
#1205=ADVANCED_FACE($,(#53),#1137,.T.);
#1206=ADVANCED_FACE($,(#54),#1138,.T.);
#1207=ADVANCED_FACE($,(#55),#1139,.T.);
#1208=ADVANCED_FACE($,(#56),#1140,.T.);
#1209=ADVANCED_FACE($,(#57),#1141,.T.);
#1210=ADVANCED_FACE($,(#58),#1142,.T.);
#1211=ADVANCED_FACE($,(#59),#1143,.F.);
#1212=ADVANCED_FACE($,(#60),#1144,.T.);
#1213=ADVANCED_FACE($,(#61),#1145,.T.);
#1214=ADVANCED_FACE($,(#62),#1146,.T.);
#1215=ADVANCED_FACE($,(#63),#1147,.T.);
#1216=ADVANCED_FACE($,(#64),#1148,.T.);
#1217=ADVANCED_FACE($,(#65),#1149,.F.);
#1218=ADVANCED_FACE($,(#66),#1150,.T.);
#1219=ADVANCED_FACE($,(#67),#1151,.F.);
#1220=ADVANCED_FACE($,(#68),#1152,.F.);
#1221=ADVANCED_FACE($,(#69),#1153,.F.);
#1222=ADVANCED_FACE($,(#70),#1154,.F.);
#1223=ADVANCED_FACE($,(#71),#1155,.F.);
#1224=ADVANCED_FACE($,(#72),#1156,.F.);
#1225=ADVANCED_FACE($,(#73),#1157,.F.);
#1226=ADVANCED_FACE($,(#74),#1158,.F.);
#1227=ADVANCED_FACE($,(#75),#1159,.F.);
#1228=ADVANCED_FACE($,(#76),#1160,.F.);
#1229=ADVANCED_FACE($,(#77),#1161,.F.);
#1230=ADVANCED_FACE($,(#78),#1162,.F.);
#1231=ADVANCED_FACE($,(#79),#1163,.F.);
#1232=ADVANCED_FACE($,(#80),#1164,.F.);
#1233=ADVANCED_FACE($,(#81),#1165,.F.);
#1234=ADVANCED_FACE($,(#82),#1166,.F.);
#1235=ADVANCED_FACE($,(#83),#1167,.F.);
#1236=ADVANCED_FACE($,(#84),#1168,.F.);
#1237=ADVANCED_FACE($,(#85),#1169,.F.);
#1238=ADVANCED_FACE($,(#86),#1170,.F.);
#1239=ADVANCED_FACE($,(#87),#1171,.F.);
#1240=ADVANCED_FACE($,(#88),#1172,.F.);
#1241=ADVANCED_FACE($,(#89),#1173,.F.);
#1242=ADVANCED_FACE($,(#90),#1174,.F.);
#1243=ADVANCED_FACE($,(#91),#1175,.T.);
#1244=ADVANCED_FACE($,(#92),#1176,.T.);
#1245=ADVANCED_FACE($,(#93),#1177,.T.);
#1246=ADVANCED_FACE($,(#94),#1178,.T.);
#1247=ADVANCED_FACE($,(#95),#1179,.T.);
#1248=ADVANCED_FACE($,(#96),#1180,.T.);
#1249=ADVANCED_FACE($,(#97),#1181,.T.);
#1250=ADVANCED_FACE($,(#98),#1182,.T.);
#1251=ADVANCED_FACE($,(#99),#1183,.T.);
#1252=ADVANCED_FACE($,(#100,#27,#28,#29,#30),#1184,.F.);
#1253=ADVANCED_FACE($,(#101),#23,.T.);
#1254=ADVANCED_FACE($,(#102),#1185,.T.);
#1255=ADVANCED_FACE($,(#103),#24,.T.);
#1256=ADVANCED_FACE($,(#104),#1186,.T.);
#1257=ADVANCED_FACE($,(#105),#25,.T.);
#1258=ADVANCED_FACE($,(#106),#1187,.T.);
#1259=ADVANCED_FACE($,(#107),#26,.T.);
#1260=ADVANCED_FACE($,(#108),#1188,.T.);
#1261=ADVANCED_FACE($,(#109),#1189,.F.);
#1262=ADVANCED_FACE($,(#110),#1190,.T.);
#1263=CLOSED_SHELL($,(#1191,#1192,#1193,#1194,#1195,#1196,#1197));
#1264=CLOSED_SHELL($,(#1198,#1199,#1200,#1201,#1202,#1203,#1204));
#1265=CLOSED_SHELL($,(#1205,#1206,#1207,#1208,#1209,#1210,#1211));
#1266=CLOSED_SHELL($,(#1212,#1213,#1214,#1215,#1216,#1217,#1218));
#1267=CLOSED_SHELL($,(#1219,#1220,#1221,#1222,#1223,#1224,#1225,#1226,#1227,
#1228,#1229,#1230,#1231,#1232,#1233,#1234,#1235,#1236,#1237,#1238,#1239,
#1240,#1241,#1242,#1243,#1244,#1245,#1246,#1247,#1248,#1249,#1250,#1251,
#1252));
#1268=CLOSED_SHELL($,(#1253,#1254,#1255,#1256,#1257,#1258,#1259,#1260,#1261,
#1262));
#1269=MANIFOLD_SOLID_BREP('4E4',#1263);
#1270=MANIFOLD_SOLID_BREP('4E8',#1264);
#1271=MANIFOLD_SOLID_BREP('4EC',#1265);
#1272=MANIFOLD_SOLID_BREP('4F0',#1266);
#1273=MANIFOLD_SOLID_BREP('4F4',#1267);
#1274=MANIFOLD_SOLID_BREP('516',#1268);
#1275=AXIS2_PLACEMENT_3D('placement',#1678,#1356,#1357);
#1276=AXIS2_PLACEMENT_3D($,#1679,#1358,#1359);
#1277=AXIS2_PLACEMENT_3D($,#1688,#1364,#1365);
#1278=AXIS2_PLACEMENT_3D($,#1694,#1369,#1370);
#1279=AXIS2_PLACEMENT_3D($,#1700,#1374,#1375);
#1280=AXIS2_PLACEMENT_3D($,#1706,#1379,#1380);
#1281=AXIS2_PLACEMENT_3D($,#1709,#1383,#1384);
#1282=AXIS2_PLACEMENT_3D($,#1710,#1385,#1386);
#1283=AXIS2_PLACEMENT_3D($,#1711,#1387,#1388);
#1284=AXIS2_PLACEMENT_3D($,#1720,#1393,#1394);
#1285=AXIS2_PLACEMENT_3D($,#1726,#1398,#1399);
#1286=AXIS2_PLACEMENT_3D($,#1732,#1403,#1404);
#1287=AXIS2_PLACEMENT_3D($,#1738,#1408,#1409);
#1288=AXIS2_PLACEMENT_3D($,#1741,#1412,#1413);
#1289=AXIS2_PLACEMENT_3D($,#1742,#1414,#1415);
#1290=AXIS2_PLACEMENT_3D($,#1743,#1416,#1417);
#1291=AXIS2_PLACEMENT_3D($,#1752,#1422,#1423);
#1292=AXIS2_PLACEMENT_3D($,#1758,#1427,#1428);
#1293=AXIS2_PLACEMENT_3D($,#1764,#1432,#1433);
#1294=AXIS2_PLACEMENT_3D($,#1770,#1437,#1438);
#1295=AXIS2_PLACEMENT_3D($,#1773,#1441,#1442);
#1296=AXIS2_PLACEMENT_3D($,#1774,#1443,#1444);
#1297=AXIS2_PLACEMENT_3D($,#1775,#1445,#1446);
#1298=AXIS2_PLACEMENT_3D($,#1784,#1451,#1452);
#1299=AXIS2_PLACEMENT_3D($,#1790,#1456,#1457);
#1300=AXIS2_PLACEMENT_3D($,#1796,#1461,#1462);
#1301=AXIS2_PLACEMENT_3D($,#1802,#1466,#1467);
#1302=AXIS2_PLACEMENT_3D($,#1805,#1470,#1471);
#1303=AXIS2_PLACEMENT_3D($,#1806,#1472,#1473);
#1304=AXIS2_PLACEMENT_3D($,#1807,#1474,#1475);
#1305=AXIS2_PLACEMENT_3D($,#1816,#1480,#1481);
#1306=AXIS2_PLACEMENT_3D($,#1822,#1485,#1486);
#1307=AXIS2_PLACEMENT_3D($,#1828,#1490,#1491);
#1308=AXIS2_PLACEMENT_3D($,#1834,#1495,#1496);
#1309=AXIS2_PLACEMENT_3D($,#1837,#1499,#1500);
#1310=AXIS2_PLACEMENT_3D($,#1838,#1501,#1502);
#1311=AXIS2_PLACEMENT_3D($,#1847,#1507,#1508);
#1312=AXIS2_PLACEMENT_3D($,#1853,#1512,#1513);
#1313=AXIS2_PLACEMENT_3D($,#1859,#1517,#1518);
#1314=AXIS2_PLACEMENT_3D($,#1865,#1522,#1523);
#1315=AXIS2_PLACEMENT_3D($,#1868,#1526,#1527);
#1316=AXIS2_PLACEMENT_3D($,#1869,#1528,#1529);
#1317=AXIS2_PLACEMENT_3D($,#1878,#1534,#1535);
#1318=AXIS2_PLACEMENT_3D($,#1884,#1539,#1540);
#1319=AXIS2_PLACEMENT_3D($,#1890,#1544,#1545);
#1320=AXIS2_PLACEMENT_3D($,#1896,#1549,#1550);
#1321=AXIS2_PLACEMENT_3D($,#1899,#1553,#1554);
#1322=AXIS2_PLACEMENT_3D($,#1900,#1555,#1556);
#1323=AXIS2_PLACEMENT_3D($,#1909,#1561,#1562);
#1324=AXIS2_PLACEMENT_3D($,#1915,#1566,#1567);
#1325=AXIS2_PLACEMENT_3D($,#1921,#1571,#1572);
#1326=AXIS2_PLACEMENT_3D($,#1927,#1576,#1577);
#1327=AXIS2_PLACEMENT_3D($,#1930,#1580,#1581);
#1328=AXIS2_PLACEMENT_3D($,#1931,#1582,#1583);
#1329=AXIS2_PLACEMENT_3D($,#1940,#1588,#1589);
#1330=AXIS2_PLACEMENT_3D($,#1946,#1593,#1594);
#1331=AXIS2_PLACEMENT_3D($,#1952,#1598,#1599);
#1332=AXIS2_PLACEMENT_3D($,#1958,#1603,#1604);
#1333=AXIS2_PLACEMENT_3D($,#1964,#1608,#1609);
#1334=AXIS2_PLACEMENT_3D($,#1970,#1613,#1614);
#1335=AXIS2_PLACEMENT_3D($,#1976,#1618,#1619);
#1336=AXIS2_PLACEMENT_3D($,#1979,#1622,#1623);
#1337=AXIS2_PLACEMENT_3D($,#1980,#1624,#1625);
#1338=AXIS2_PLACEMENT_3D($,#1981,#1626,#1627);
#1339=AXIS2_PLACEMENT_3D($,#1984,#1628,#1629);
#1340=AXIS2_PLACEMENT_3D($,#1988,#1631,#1632);
#1341=AXIS2_PLACEMENT_3D($,#1990,#1634,#1635);
#1342=AXIS2_PLACEMENT_3D($,#1996,#1639,#1640);
#1343=AXIS2_PLACEMENT_3D($,#1998,#1641,#1642);
#1344=AXIS2_PLACEMENT_3D($,#2000,#1643,#1644);
#1345=AXIS2_PLACEMENT_3D($,#2002,#1646,#1647);
#1346=AXIS2_PLACEMENT_3D($,#2008,#1651,#1652);
#1347=AXIS2_PLACEMENT_3D($,#2010,#1653,#1654);
#1348=AXIS2_PLACEMENT_3D($,#2012,#1655,#1656);
#1349=AXIS2_PLACEMENT_3D($,#2014,#1658,#1659);
#1350=AXIS2_PLACEMENT_3D($,#2020,#1663,#1664);
#1351=AXIS2_PLACEMENT_3D($,#2022,#1665,#1666);
#1352=AXIS2_PLACEMENT_3D($,#2024,#1667,#1668);
#1353=AXIS2_PLACEMENT_3D($,#2026,#1670,#1671);
#1354=AXIS2_PLACEMENT_3D($,#2029,#1674,#1675);
#1355=AXIS2_PLACEMENT_3D($,#2030,#1676,#1677);
#1356=DIRECTION('axis',(0.,0.,1.));
#1357=DIRECTION('refdir',(1.,0.,0.));
#1358=DIRECTION('center_axis',(-1.,0.,0.));
#1359=DIRECTION('ref_axis',(0.,-1.,0.));
#1360=DIRECTION($,(0.,1.,0.));
#1361=DIRECTION($,(0.,0.,1.));
#1362=DIRECTION($,(0.,-1.,0.));
#1363=DIRECTION($,(0.,0.,1.));
#1364=DIRECTION('center_axis',(0.,1.,0.));
#1365=DIRECTION('ref_axis',(-1.,0.,0.));
#1366=DIRECTION($,(1.,0.,0.));
#1367=DIRECTION($,(-1.,0.,0.));
#1368=DIRECTION($,(0.,0.,1.));
#1369=DIRECTION('center_axis',(1.,0.,0.));
#1370=DIRECTION('ref_axis',(0.,1.,0.));
#1371=DIRECTION($,(0.,-1.,0.));
#1372=DIRECTION($,(0.,1.,0.));
#1373=DIRECTION($,(0.,0.,1.));
#1374=DIRECTION('center_axis',(0.,-1.,0.));
#1375=DIRECTION('ref_axis',(1.,0.,0.));
#1376=DIRECTION($,(-1.,0.,0.));
#1377=DIRECTION($,(1.,0.,0.));
#1378=DIRECTION($,(0.,0.,1.));
#1379=DIRECTION('center_axis',(-0.707106781186546,-0.707106781186549,0.));
#1380=DIRECTION('ref_axis',(0.707106781186549,-0.707106781186547,0.));
#1381=DIRECTION($,(-0.707106781186549,0.707106781186546,0.));
#1382=DIRECTION($,(0.707106781186549,-0.707106781186546,0.));
#1383=DIRECTION('center_axis',(0.,0.,1.));
#1384=DIRECTION('ref_axis',(1.,0.,0.));
#1385=DIRECTION('center_axis',(0.,0.,1.));
#1386=DIRECTION('ref_axis',(1.,0.,0.));
#1387=DIRECTION('center_axis',(0.,-1.,0.));
#1388=DIRECTION('ref_axis',(1.,0.,0.));
#1389=DIRECTION($,(-1.,0.,0.));
#1390=DIRECTION($,(0.,0.,1.));
#1391=DIRECTION($,(1.,0.,0.));
#1392=DIRECTION($,(0.,0.,1.));
#1393=DIRECTION('center_axis',(-1.,0.,0.));
#1394=DIRECTION('ref_axis',(0.,-1.,0.));
#1395=DIRECTION($,(0.,1.,0.));
#1396=DIRECTION($,(0.,-1.,0.));
#1397=DIRECTION($,(0.,0.,1.));
#1398=DIRECTION('center_axis',(0.,1.,0.));
#1399=DIRECTION('ref_axis',(-1.,0.,0.));
#1400=DIRECTION($,(1.,0.,0.));
#1401=DIRECTION($,(-1.,0.,0.));
#1402=DIRECTION($,(0.,0.,1.));
#1403=DIRECTION('center_axis',(1.,0.,0.));
#1404=DIRECTION('ref_axis',(0.,1.,0.));
#1405=DIRECTION($,(0.,-1.,0.));
#1406=DIRECTION($,(0.,1.,0.));
#1407=DIRECTION($,(0.,0.,1.));
#1408=DIRECTION('center_axis',(0.707106781186546,-0.707106781186549,0.));
#1409=DIRECTION('ref_axis',(0.707106781186549,0.707106781186546,0.));
#1410=DIRECTION($,(-0.707106781186549,-0.707106781186546,0.));
#1411=DIRECTION($,(0.707106781186549,0.707106781186546,0.));
#1412=DIRECTION('center_axis',(0.,0.,1.));
#1413=DIRECTION('ref_axis',(1.,0.,0.));
#1414=DIRECTION('center_axis',(0.,0.,1.));
#1415=DIRECTION('ref_axis',(1.,0.,0.));
#1416=DIRECTION('center_axis',(0.,1.,0.));
#1417=DIRECTION('ref_axis',(-1.,0.,0.));
#1418=DIRECTION($,(-1.,0.,0.));
#1419=DIRECTION($,(0.,0.,1.));
#1420=DIRECTION($,(-1.,0.,0.));
#1421=DIRECTION($,(0.,0.,1.));
#1422=DIRECTION('center_axis',(0.707106781186546,0.707106781186549,0.));
#1423=DIRECTION('ref_axis',(-0.707106781186549,0.707106781186547,0.));
#1424=DIRECTION($,(-0.707106781186549,0.707106781186546,0.));
#1425=DIRECTION($,(-0.707106781186549,0.707106781186546,0.));
#1426=DIRECTION($,(0.,0.,1.));
#1427=DIRECTION('center_axis',(1.,0.,0.));
#1428=DIRECTION('ref_axis',(0.,1.,0.));
#1429=DIRECTION($,(0.,1.,0.));
#1430=DIRECTION($,(0.,1.,0.));
#1431=DIRECTION($,(0.,0.,1.));
#1432=DIRECTION('center_axis',(0.,-1.,0.));
#1433=DIRECTION('ref_axis',(1.,0.,0.));
#1434=DIRECTION($,(1.,0.,0.));
#1435=DIRECTION($,(1.,0.,0.));
#1436=DIRECTION($,(0.,0.,1.));
#1437=DIRECTION('center_axis',(-1.,0.,0.));
#1438=DIRECTION('ref_axis',(0.,-1.,0.));
#1439=DIRECTION($,(0.,-1.,0.));
#1440=DIRECTION($,(0.,-1.,0.));
#1441=DIRECTION('center_axis',(0.,0.,1.));
#1442=DIRECTION('ref_axis',(1.,0.,0.));
#1443=DIRECTION('center_axis',(0.,0.,1.));
#1444=DIRECTION('ref_axis',(1.,0.,0.));
#1445=DIRECTION('center_axis',(0.,-1.,0.));
#1446=DIRECTION('ref_axis',(1.,0.,0.));
#1447=DIRECTION($,(-1.,0.,0.));
#1448=DIRECTION($,(0.,0.,1.));
#1449=DIRECTION($,(1.,0.,0.));
#1450=DIRECTION($,(0.,0.,1.));
#1451=DIRECTION('center_axis',(-1.,0.,0.));
#1452=DIRECTION('ref_axis',(0.,-1.,0.));
#1453=DIRECTION($,(0.,1.,0.));
#1454=DIRECTION($,(0.,-1.,0.));
#1455=DIRECTION($,(0.,0.,1.));
#1456=DIRECTION('center_axis',(-0.707106781186546,0.707106781186549,0.));
#1457=DIRECTION('ref_axis',(-0.707106781186549,-0.707106781186546,0.));
#1458=DIRECTION($,(0.707106781186549,0.707106781186546,0.));
#1459=DIRECTION($,(-0.707106781186549,-0.707106781186546,0.));
#1460=DIRECTION($,(0.,0.,1.));
#1461=DIRECTION('center_axis',(0.,1.,0.));
#1462=DIRECTION('ref_axis',(-1.,0.,0.));
#1463=DIRECTION($,(1.,0.,0.));
#1464=DIRECTION($,(-1.,0.,0.));
#1465=DIRECTION($,(0.,0.,1.));
#1466=DIRECTION('center_axis',(1.,0.,0.));
#1467=DIRECTION('ref_axis',(0.,1.,0.));
#1468=DIRECTION($,(0.,-1.,0.));
#1469=DIRECTION($,(0.,1.,0.));
#1470=DIRECTION('center_axis',(0.,0.,1.));
#1471=DIRECTION('ref_axis',(1.,0.,0.));
#1472=DIRECTION('center_axis',(0.,0.,1.));
#1473=DIRECTION('ref_axis',(1.,0.,0.));
#1474=DIRECTION('center_axis',(1.,0.,0.));
#1475=DIRECTION('ref_axis',(0.,1.,0.));
#1476=DIRECTION($,(0.,1.,0.));
#1477=DIRECTION($,(0.,0.,1.));
#1478=DIRECTION($,(0.,1.,0.));
#1479=DIRECTION($,(0.,0.,1.));
#1480=DIRECTION('center_axis',(0.707106781186546,0.707106781186549,0.));
#1481=DIRECTION('ref_axis',(-0.707106781186549,0.707106781186547,0.));
#1482=DIRECTION($,(-0.707106781186549,0.707106781186546,0.));
#1483=DIRECTION($,(-0.707106781186549,0.707106781186546,0.));
#1484=DIRECTION($,(0.,0.,1.));
#1485=DIRECTION('center_axis',(0.,1.,0.));
#1486=DIRECTION('ref_axis',(-1.,0.,0.));
#1487=DIRECTION($,(-1.,0.,0.));
#1488=DIRECTION($,(-1.,0.,0.));
#1489=DIRECTION($,(0.,0.,1.));
#1490=DIRECTION('center_axis',(0.,-1.,0.));
#1491=DIRECTION('ref_axis',(1.,0.,0.));
#1492=DIRECTION($,(1.,0.,0.));
#1493=DIRECTION($,(0.,0.,1.));
#1494=DIRECTION($,(1.,0.,0.));
#1495=DIRECTION('center_axis',(-1.,0.,0.));
#1496=DIRECTION('ref_axis',(0.,-1.,0.));
#1497=DIRECTION($,(0.,-1.,0.));
#1498=DIRECTION($,(0.,-1.,0.));
#1499=DIRECTION('center_axis',(0.,0.,1.));
#1500=DIRECTION('ref_axis',(1.,0.,0.));
#1501=DIRECTION('center_axis',(1.,0.,0.));
#1502=DIRECTION('ref_axis',(0.,1.,0.));
#1503=DIRECTION($,(0.,1.,0.));
#1504=DIRECTION($,(0.,0.,1.));
#1505=DIRECTION($,(0.,1.,0.));
#1506=DIRECTION($,(0.,0.,1.));
#1507=DIRECTION('center_axis',(0.,1.,0.));
#1508=DIRECTION('ref_axis',(-1.,0.,0.));
#1509=DIRECTION($,(-1.,0.,0.));
#1510=DIRECTION($,(-1.,0.,0.));
#1511=DIRECTION($,(0.,0.,1.));
#1512=DIRECTION('center_axis',(-1.,0.,0.));
#1513=DIRECTION('ref_axis',(0.,-1.,0.));
#1514=DIRECTION($,(0.,-1.,0.));
#1515=DIRECTION($,(0.,-1.,0.));
#1516=DIRECTION($,(0.,0.,1.));
#1517=DIRECTION('center_axis',(0.,-1.,0.));
#1518=DIRECTION('ref_axis',(1.,0.,0.));
#1519=DIRECTION($,(1.,0.,0.));
#1520=DIRECTION($,(0.,0.,1.));
#1521=DIRECTION($,(1.,0.,0.));
#1522=DIRECTION('center_axis',(-0.707106781186546,-0.707106781186549,0.));
#1523=DIRECTION('ref_axis',(0.707106781186549,-0.707106781186547,0.));
#1524=DIRECTION($,(0.707106781186549,-0.707106781186546,0.));
#1525=DIRECTION($,(0.707106781186549,-0.707106781186546,0.));
#1526=DIRECTION('center_axis',(0.,0.,1.));
#1527=DIRECTION('ref_axis',(1.,0.,0.));
#1528=DIRECTION('center_axis',(-0.707106781186546,0.707106781186549,0.));
#1529=DIRECTION('ref_axis',(-0.707106781186549,-0.707106781186546,0.));
#1530=DIRECTION($,(-0.707106781186549,-0.707106781186546,0.));
#1531=DIRECTION($,(0.,0.,1.));
#1532=DIRECTION($,(-0.707106781186549,-0.707106781186546,0.));
#1533=DIRECTION($,(0.,0.,1.));
#1534=DIRECTION('center_axis',(-1.,0.,0.));
#1535=DIRECTION('ref_axis',(0.,-1.,0.));
#1536=DIRECTION($,(0.,-1.,0.));
#1537=DIRECTION($,(0.,-1.,0.));
#1538=DIRECTION($,(0.,0.,1.));
#1539=DIRECTION('center_axis',(0.,-1.,0.));
#1540=DIRECTION('ref_axis',(1.,0.,0.));
#1541=DIRECTION($,(1.,0.,0.));
#1542=DIRECTION($,(1.,0.,0.));
#1543=DIRECTION($,(0.,0.,1.));
#1544=DIRECTION('center_axis',(0.,1.,0.));
#1545=DIRECTION('ref_axis',(-1.,0.,0.));
#1546=DIRECTION($,(-1.,0.,0.));
#1547=DIRECTION($,(0.,0.,1.));
#1548=DIRECTION($,(-1.,0.,0.));
#1549=DIRECTION('center_axis',(1.,0.,0.));
#1550=DIRECTION('ref_axis',(0.,1.,0.));
#1551=DIRECTION($,(0.,1.,0.));
#1552=DIRECTION($,(0.,1.,0.));
#1553=DIRECTION('center_axis',(0.,0.,1.));
#1554=DIRECTION('ref_axis',(1.,0.,0.));
#1555=DIRECTION('center_axis',(0.,1.,0.));
#1556=DIRECTION('ref_axis',(-1.,0.,0.));
#1557=DIRECTION($,(-1.,0.,0.));
#1558=DIRECTION($,(0.,0.,1.));
#1559=DIRECTION($,(-1.,0.,0.));
#1560=DIRECTION($,(0.,0.,1.));
#1561=DIRECTION('center_axis',(-1.,0.,0.));
#1562=DIRECTION('ref_axis',(0.,-1.,0.));
#1563=DIRECTION($,(0.,-1.,0.));
#1564=DIRECTION($,(0.,-1.,0.));
#1565=DIRECTION($,(0.,0.,1.));
#1566=DIRECTION('center_axis',(0.,-1.,0.));
#1567=DIRECTION('ref_axis',(1.,0.,0.));
#1568=DIRECTION($,(1.,0.,0.));
#1569=DIRECTION($,(1.,0.,0.));
#1570=DIRECTION($,(0.,0.,1.));
#1571=DIRECTION('center_axis',(1.,0.,0.));
#1572=DIRECTION('ref_axis',(0.,1.,0.));
#1573=DIRECTION($,(0.,1.,0.));
#1574=DIRECTION($,(0.,0.,1.));
#1575=DIRECTION($,(0.,1.,0.));
#1576=DIRECTION('center_axis',(0.707106781186546,-0.707106781186549,0.));
#1577=DIRECTION('ref_axis',(0.707106781186549,0.707106781186546,0.));
#1578=DIRECTION($,(0.707106781186549,0.707106781186546,0.));
#1579=DIRECTION($,(0.707106781186549,0.707106781186546,0.));
#1580=DIRECTION('center_axis',(0.,0.,1.));
#1581=DIRECTION('ref_axis',(1.,0.,0.));
#1582=DIRECTION('center_axis',(0.707106781186551,-0.707106781186544,0.));
#1583=DIRECTION('ref_axis',(0.707106781186544,0.707106781186551,0.));
#1584=DIRECTION($,(0.707106781186544,0.707106781186551,0.));
#1585=DIRECTION($,(0.,0.,1.));
#1586=DIRECTION($,(0.707106781186544,0.707106781186551,0.));
#1587=DIRECTION($,(0.,0.,1.));
#1588=DIRECTION('center_axis',(0.,-1.,0.));
#1589=DIRECTION('ref_axis',(1.,0.,0.));
#1590=DIRECTION($,(1.,0.,0.));
#1591=DIRECTION($,(1.,0.,0.));
#1592=DIRECTION($,(0.,0.,1.));
#1593=DIRECTION('center_axis',(-0.707106781186547,-0.707106781186548,0.));
#1594=DIRECTION('ref_axis',(0.707106781186548,-0.707106781186547,0.));
#1595=DIRECTION($,(0.707106781186548,-0.707106781186547,0.));
#1596=DIRECTION($,(0.707106781186548,-0.707106781186547,0.));
#1597=DIRECTION($,(0.,0.,1.));
#1598=DIRECTION('center_axis',(-1.,0.,0.));
#1599=DIRECTION('ref_axis',(0.,-1.,0.));
#1600=DIRECTION($,(0.,-1.,0.));
#1601=DIRECTION($,(0.,-1.,0.));
#1602=DIRECTION($,(0.,0.,1.));
#1603=DIRECTION('center_axis',(-0.707106781186546,0.707106781186549,0.));
#1604=DIRECTION('ref_axis',(-0.707106781186549,-0.707106781186546,0.));
#1605=DIRECTION($,(-0.707106781186549,-0.707106781186546,0.));
#1606=DIRECTION($,(-0.707106781186549,-0.707106781186546,0.));
#1607=DIRECTION($,(0.,0.,1.));
#1608=DIRECTION('center_axis',(0.,1.,0.));
#1609=DIRECTION('ref_axis',(-1.,0.,0.));
#1610=DIRECTION($,(-1.,0.,0.));
#1611=DIRECTION($,(-1.,0.,0.));
#1612=DIRECTION($,(0.,0.,1.));
#1613=DIRECTION('center_axis',(0.707106781186546,0.707106781186549,0.));
#1614=DIRECTION('ref_axis',(-0.707106781186549,0.707106781186547,0.));
#1615=DIRECTION($,(-0.707106781186549,0.707106781186546,0.));
#1616=DIRECTION($,(-0.707106781186549,0.707106781186546,0.));
#1617=DIRECTION($,(0.,0.,1.));
#1618=DIRECTION('center_axis',(1.,0.,0.));
#1619=DIRECTION('ref_axis',(0.,1.,0.));
#1620=DIRECTION($,(0.,1.,0.));
#1621=DIRECTION($,(0.,1.,0.));
#1622=DIRECTION('center_axis',(0.,0.,1.));
#1623=DIRECTION('ref_axis',(1.,0.,0.));
#1624=DIRECTION('center_axis',(0.,0.,1.));
#1625=DIRECTION('ref_axis',(1.,0.,0.));
#1626=DIRECTION('center_axis',(0.,0.,1.));
#1627=DIRECTION('ref_axis',(-1.,0.,0.));
#1628=DIRECTION('center_axis',(0.,0.,-1.));
#1629=DIRECTION('ref_axis',(-1.,0.,0.));
#1630=DIRECTION($,(0.,0.,1.));
#1631=DIRECTION('center_axis',(0.,0.,1.));
#1632=DIRECTION('ref_axis',(-1.,0.,0.));
#1633=DIRECTION($,(0.,0.,1.));
#1634=DIRECTION('center_axis',(0.,1.,0.));
#1635=DIRECTION('ref_axis',(-1.,0.,0.));
#1636=DIRECTION($,(1.,0.,0.));
#1637=DIRECTION($,(-1.,0.,0.));
#1638=DIRECTION($,(0.,0.,1.));
#1639=DIRECTION('center_axis',(0.,0.,1.));
#1640=DIRECTION('ref_axis',(0.,1.,0.));
#1641=DIRECTION('center_axis',(0.,0.,-1.));
#1642=DIRECTION('ref_axis',(0.,1.,0.));
#1643=DIRECTION('center_axis',(0.,0.,1.));
#1644=DIRECTION('ref_axis',(0.,1.,0.));
#1645=DIRECTION($,(0.,0.,1.));
#1646=DIRECTION('center_axis',(1.,3.1720657846433E-16,0.));
#1647=DIRECTION('ref_axis',(-2.22044604925031E-16,1.,0.));
#1648=DIRECTION($,(3.1720657846433E-16,-1.,0.));
#1649=DIRECTION($,(-3.1720657846433E-16,1.,0.));
#1650=DIRECTION($,(0.,0.,1.));
#1651=DIRECTION('center_axis',(0.,0.,1.));
#1652=DIRECTION('ref_axis',(1.,-2.96059473233376E-15,0.));
#1653=DIRECTION('center_axis',(0.,0.,-1.));
#1654=DIRECTION('ref_axis',(1.,-2.96059473233376E-15,0.));
#1655=DIRECTION('center_axis',(0.,0.,1.));
#1656=DIRECTION('ref_axis',(1.,-2.96059473233376E-15,0.));
#1657=DIRECTION($,(0.,0.,1.));
#1658=DIRECTION('center_axis',(0.,-1.,0.));
#1659=DIRECTION('ref_axis',(1.,0.,0.));
#1660=DIRECTION($,(-1.,0.,0.));
#1661=DIRECTION($,(1.,0.,0.));
#1662=DIRECTION($,(0.,0.,1.));
#1663=DIRECTION('center_axis',(0.,0.,1.));
#1664=DIRECTION('ref_axis',(-2.96059473233374E-15,-1.,0.));
#1665=DIRECTION('center_axis',(0.,0.,-1.));
#1666=DIRECTION('ref_axis',(-2.96059473233374E-15,-1.,0.));
#1667=DIRECTION('center_axis',(0.,0.,1.));
#1668=DIRECTION('ref_axis',(-2.96059473233374E-15,-1.,0.));
#1669=DIRECTION($,(0.,0.,1.));
#1670=DIRECTION('center_axis',(-1.,0.,0.));
#1671=DIRECTION('ref_axis',(0.,-1.,0.));
#1672=DIRECTION($,(0.,1.,0.));
#1673=DIRECTION($,(0.,-1.,0.));
#1674=DIRECTION('center_axis',(0.,0.,1.));
#1675=DIRECTION('ref_axis',(1.,0.,0.));
#1676=DIRECTION('center_axis',(0.,0.,1.));
#1677=DIRECTION('ref_axis',(1.,0.,0.));
#1678=CARTESIAN_POINT('',(0.,0.,0.));
#1679=CARTESIAN_POINT('Origin',(-1.8,-1.7,0.));
#1680=CARTESIAN_POINT('',(-1.8,-2.6,0.));
#1681=CARTESIAN_POINT('',(-1.8,-1.7,0.));
#1682=CARTESIAN_POINT($,(-1.8,-2.6,0.));
#1683=CARTESIAN_POINT('',(-1.8,-2.6,0.2));
#1684=CARTESIAN_POINT($,(-1.8,-2.6,0.));
#1685=CARTESIAN_POINT('',(-1.8,-1.7,0.2));
#1686=CARTESIAN_POINT($,(-1.8,-2.6,0.2));
#1687=CARTESIAN_POINT($,(-1.8,-1.7,0.));
#1688=CARTESIAN_POINT('Origin',(-0.699999999999999,-1.7,0.));
#1689=CARTESIAN_POINT('',(-0.699999999999999,-1.7,0.));
#1690=CARTESIAN_POINT($,(-1.8,-1.7,0.));
#1691=CARTESIAN_POINT('',(-0.699999999999999,-1.7,0.2));
#1692=CARTESIAN_POINT($,(-1.8,-1.7,0.2));
#1693=CARTESIAN_POINT($,(-0.699999999999999,-1.7,0.));
#1694=CARTESIAN_POINT('Origin',(-0.699999999999999,-2.9,0.));
#1695=CARTESIAN_POINT('',(-0.699999999999999,-2.9,0.));
#1696=CARTESIAN_POINT($,(-0.699999999999999,-1.7,0.));
#1697=CARTESIAN_POINT('',(-0.699999999999999,-2.9,0.2));
#1698=CARTESIAN_POINT($,(-0.699999999999999,-1.7,0.2));
#1699=CARTESIAN_POINT($,(-0.699999999999999,-2.9,0.));
#1700=CARTESIAN_POINT('Origin',(-1.5,-2.9,0.));
#1701=CARTESIAN_POINT('',(-1.5,-2.9,0.));
#1702=CARTESIAN_POINT($,(-0.699999999999999,-2.9,0.));
#1703=CARTESIAN_POINT('',(-1.5,-2.9,0.2));
#1704=CARTESIAN_POINT($,(-0.699999999999999,-2.9,0.2));
#1705=CARTESIAN_POINT($,(-1.5,-2.9,0.));
#1706=CARTESIAN_POINT('Origin',(-1.8,-2.6,0.));
#1707=CARTESIAN_POINT($,(-1.5,-2.9,0.));
#1708=CARTESIAN_POINT($,(-1.5,-2.9,0.2));
#1709=CARTESIAN_POINT('Origin',(-1.22394044055132,-2.27195439350984,0.));
#1710=CARTESIAN_POINT('Origin',(-1.22394044055132,-2.27195439350984,0.2));
#1711=CARTESIAN_POINT('Origin',(0.699999999999999,-2.9,0.));
#1712=CARTESIAN_POINT('',(1.5,-2.9,0.));
#1713=CARTESIAN_POINT('',(0.699999999999999,-2.9,0.));
#1714=CARTESIAN_POINT($,(1.5,-2.9,0.));
#1715=CARTESIAN_POINT('',(1.5,-2.9,0.2));
#1716=CARTESIAN_POINT($,(1.5,-2.9,0.));
#1717=CARTESIAN_POINT('',(0.699999999999999,-2.9,0.2));
#1718=CARTESIAN_POINT($,(1.5,-2.9,0.2));
#1719=CARTESIAN_POINT($,(0.699999999999999,-2.9,0.));
#1720=CARTESIAN_POINT('Origin',(0.699999999999999,-1.7,0.));
#1721=CARTESIAN_POINT('',(0.699999999999999,-1.7,0.));
#1722=CARTESIAN_POINT($,(0.699999999999999,-2.9,0.));
#1723=CARTESIAN_POINT('',(0.699999999999999,-1.7,0.2));
#1724=CARTESIAN_POINT($,(0.699999999999999,-2.9,0.2));
#1725=CARTESIAN_POINT($,(0.699999999999999,-1.7,0.));
#1726=CARTESIAN_POINT('Origin',(1.8,-1.7,0.));
#1727=CARTESIAN_POINT('',(1.8,-1.7,0.));
#1728=CARTESIAN_POINT($,(0.699999999999999,-1.7,0.));
#1729=CARTESIAN_POINT('',(1.8,-1.7,0.2));
#1730=CARTESIAN_POINT($,(0.699999999999999,-1.7,0.2));
#1731=CARTESIAN_POINT($,(1.8,-1.7,0.));
#1732=CARTESIAN_POINT('Origin',(1.8,-2.6,0.));
#1733=CARTESIAN_POINT('',(1.8,-2.6,0.));
#1734=CARTESIAN_POINT($,(1.8,-1.7,0.));
#1735=CARTESIAN_POINT('',(1.8,-2.6,0.2));
#1736=CARTESIAN_POINT($,(1.8,-1.7,0.2));
#1737=CARTESIAN_POINT($,(1.8,-2.6,0.));
#1738=CARTESIAN_POINT('Origin',(1.5,-2.9,0.));
#1739=CARTESIAN_POINT($,(1.8,-2.6,0.));
#1740=CARTESIAN_POINT($,(1.8,-2.6,0.2));
#1741=CARTESIAN_POINT('Origin',(1.22394044055133,-2.27195439350984,0.));
#1742=CARTESIAN_POINT('Origin',(1.22394044055133,-2.27195439350984,0.2));
#1743=CARTESIAN_POINT('Origin',(1.5,2.9,0.));
#1744=CARTESIAN_POINT('',(1.5,2.9,0.));
#1745=CARTESIAN_POINT('',(0.699999999999999,2.9,0.));
#1746=CARTESIAN_POINT($,(1.5,2.9,0.));
#1747=CARTESIAN_POINT('',(0.699999999999999,2.9,0.2));
#1748=CARTESIAN_POINT($,(0.699999999999999,2.9,0.));
#1749=CARTESIAN_POINT('',(1.5,2.9,0.2));
#1750=CARTESIAN_POINT($,(1.5,2.9,0.2));
#1751=CARTESIAN_POINT($,(1.5,2.9,0.));
#1752=CARTESIAN_POINT('Origin',(1.8,2.6,0.));
#1753=CARTESIAN_POINT('',(1.8,2.6,0.));
#1754=CARTESIAN_POINT($,(1.8,2.6,0.));
#1755=CARTESIAN_POINT('',(1.8,2.6,0.2));
#1756=CARTESIAN_POINT($,(1.8,2.6,0.2));
#1757=CARTESIAN_POINT($,(1.8,2.6,0.));
#1758=CARTESIAN_POINT('Origin',(1.8,1.7,0.));
#1759=CARTESIAN_POINT('',(1.8,1.7,0.));
#1760=CARTESIAN_POINT($,(1.8,1.7,0.));
#1761=CARTESIAN_POINT('',(1.8,1.7,0.2));
#1762=CARTESIAN_POINT($,(1.8,1.7,0.2));
#1763=CARTESIAN_POINT($,(1.8,1.7,0.));
#1764=CARTESIAN_POINT('Origin',(0.699999999999999,1.7,0.));
#1765=CARTESIAN_POINT('',(0.699999999999999,1.7,0.));
#1766=CARTESIAN_POINT($,(0.699999999999999,1.7,0.));
#1767=CARTESIAN_POINT('',(0.699999999999999,1.7,0.2));
#1768=CARTESIAN_POINT($,(0.699999999999999,1.7,0.2));
#1769=CARTESIAN_POINT($,(0.699999999999999,1.7,0.));
#1770=CARTESIAN_POINT('Origin',(0.699999999999999,2.9,0.));
#1771=CARTESIAN_POINT($,(0.699999999999999,2.9,0.));
#1772=CARTESIAN_POINT($,(0.699999999999999,2.9,0.2));
#1773=CARTESIAN_POINT('Origin',(1.22394044055133,2.27195439350984,0.2));
#1774=CARTESIAN_POINT('Origin',(1.22394044055133,2.27195439350984,0.));
#1775=CARTESIAN_POINT('Origin',(-1.8,1.7,0.));
#1776=CARTESIAN_POINT('',(-0.699999999999999,1.7,0.));
#1777=CARTESIAN_POINT('',(-1.8,1.7,0.));
#1778=CARTESIAN_POINT($,(-0.699999999999999,1.7,0.));
#1779=CARTESIAN_POINT('',(-0.699999999999999,1.7,0.2));
#1780=CARTESIAN_POINT($,(-0.699999999999999,1.7,0.));
#1781=CARTESIAN_POINT('',(-1.8,1.7,0.2));
#1782=CARTESIAN_POINT($,(-0.699999999999999,1.7,0.2));
#1783=CARTESIAN_POINT($,(-1.8,1.7,0.));
#1784=CARTESIAN_POINT('Origin',(-1.8,2.6,0.));
#1785=CARTESIAN_POINT('',(-1.8,2.6,0.));
#1786=CARTESIAN_POINT($,(-1.8,1.7,0.));
#1787=CARTESIAN_POINT('',(-1.8,2.6,0.2));
#1788=CARTESIAN_POINT($,(-1.8,1.7,0.2));
#1789=CARTESIAN_POINT($,(-1.8,2.6,0.));
#1790=CARTESIAN_POINT('Origin',(-1.5,2.9,0.));
#1791=CARTESIAN_POINT('',(-1.5,2.9,0.));
#1792=CARTESIAN_POINT($,(-1.8,2.6,0.));
#1793=CARTESIAN_POINT('',(-1.5,2.9,0.2));
#1794=CARTESIAN_POINT($,(-1.8,2.6,0.2));
#1795=CARTESIAN_POINT($,(-1.5,2.9,0.));
#1796=CARTESIAN_POINT('Origin',(-0.699999999999999,2.9,0.));
#1797=CARTESIAN_POINT('',(-0.699999999999999,2.9,0.));
#1798=CARTESIAN_POINT($,(-1.5,2.9,0.));
#1799=CARTESIAN_POINT('',(-0.699999999999999,2.9,0.2));
#1800=CARTESIAN_POINT($,(-1.5,2.9,0.2));
#1801=CARTESIAN_POINT($,(-0.699999999999999,2.9,0.));
#1802=CARTESIAN_POINT('Origin',(-0.699999999999999,1.7,0.));
#1803=CARTESIAN_POINT($,(-0.699999999999999,2.9,0.));
#1804=CARTESIAN_POINT($,(-0.699999999999999,2.9,0.2));
#1805=CARTESIAN_POINT('Origin',(-1.22394044055132,2.27195439350984,0.));
#1806=CARTESIAN_POINT('Origin',(-1.22394044055132,2.27195439350984,0.2));
#1807=CARTESIAN_POINT('Origin',(1.8,1.7,0.));
#1808=CARTESIAN_POINT('',(1.8,1.7,0.));
#1809=CARTESIAN_POINT('',(1.8,2.6,0.));
#1810=CARTESIAN_POINT($,(1.8,0.85,0.));
#1811=CARTESIAN_POINT('',(1.8,1.7,0.2));
#1812=CARTESIAN_POINT($,(1.8,1.7,0.));
#1813=CARTESIAN_POINT('',(1.8,2.6,0.2));
#1814=CARTESIAN_POINT($,(1.8,1.7,0.2));
#1815=CARTESIAN_POINT($,(1.8,2.6,0.));
#1816=CARTESIAN_POINT('Origin',(1.8,2.6,0.));
#1817=CARTESIAN_POINT('',(1.5,2.9,0.));
#1818=CARTESIAN_POINT($,(2.,2.4,0.));
#1819=CARTESIAN_POINT('',(1.5,2.9,0.2));
#1820=CARTESIAN_POINT($,(1.8,2.6,0.2));
#1821=CARTESIAN_POINT($,(1.5,2.9,0.));
#1822=CARTESIAN_POINT('Origin',(1.5,2.9,0.));
#1823=CARTESIAN_POINT('',(0.699999999999999,2.9,0.));
#1824=CARTESIAN_POINT($,(0.749999999999996,2.9,0.));
#1825=CARTESIAN_POINT('',(0.699999999999999,2.9,0.2));
#1826=CARTESIAN_POINT($,(1.5,2.9,0.2));
#1827=CARTESIAN_POINT($,(0.699999999999999,2.9,0.));
#1828=CARTESIAN_POINT('Origin',(0.699999999999999,1.7,0.));
#1829=CARTESIAN_POINT('',(0.699999999999999,1.7,0.));
#1830=CARTESIAN_POINT($,(0.349999999999998,1.7,0.));
#1831=CARTESIAN_POINT('',(0.699999999999999,1.7,0.2));
#1832=CARTESIAN_POINT($,(0.699999999999999,1.7,0.));
#1833=CARTESIAN_POINT($,(0.699999999999999,1.7,0.2));
#1834=CARTESIAN_POINT('Origin',(0.699999999999999,2.9,0.));
#1835=CARTESIAN_POINT($,(0.699999999999999,1.45,0.));
#1836=CARTESIAN_POINT($,(0.699999999999999,2.9,0.2));
#1837=CARTESIAN_POINT('Origin',(1.22394044055133,2.27195439350984,0.2));
#1838=CARTESIAN_POINT('Origin',(-0.699999999999999,-2.9,0.));
#1839=CARTESIAN_POINT('',(-0.699999999999999,-2.9,0.));
#1840=CARTESIAN_POINT('',(-0.699999999999999,-1.7,0.));
#1841=CARTESIAN_POINT($,(-0.699999999999999,-1.45,0.));
#1842=CARTESIAN_POINT('',(-0.699999999999999,-2.9,0.2));
#1843=CARTESIAN_POINT($,(-0.699999999999999,-2.9,0.));
#1844=CARTESIAN_POINT('',(-0.699999999999999,-1.7,0.2));
#1845=CARTESIAN_POINT($,(-0.699999999999999,-1.7,0.2));
#1846=CARTESIAN_POINT($,(-0.699999999999999,-1.7,0.));
#1847=CARTESIAN_POINT('Origin',(-0.699999999999999,-1.7,0.));
#1848=CARTESIAN_POINT('',(-1.8,-1.7,0.));
#1849=CARTESIAN_POINT($,(-0.350000000000005,-1.7,0.));
#1850=CARTESIAN_POINT('',(-1.8,-1.7,0.2));
#1851=CARTESIAN_POINT($,(-1.8,-1.7,0.2));
#1852=CARTESIAN_POINT($,(-1.8,-1.7,0.));
#1853=CARTESIAN_POINT('Origin',(-1.8,-1.7,0.));
#1854=CARTESIAN_POINT('',(-1.8,-2.6,0.));
#1855=CARTESIAN_POINT($,(-1.8,-0.85,0.));
#1856=CARTESIAN_POINT('',(-1.8,-2.6,0.2));
#1857=CARTESIAN_POINT($,(-1.8,-2.6,0.2));
#1858=CARTESIAN_POINT($,(-1.8,-2.6,0.));
#1859=CARTESIAN_POINT('Origin',(-1.5,-2.9,0.));
#1860=CARTESIAN_POINT('',(-1.5,-2.9,0.));
#1861=CARTESIAN_POINT($,(-0.750000000000004,-2.9,0.));
#1862=CARTESIAN_POINT('',(-1.5,-2.9,0.2));
#1863=CARTESIAN_POINT($,(-1.5,-2.9,0.));
#1864=CARTESIAN_POINT($,(-0.699999999999999,-2.9,0.2));
#1865=CARTESIAN_POINT('Origin',(-1.8,-2.6,0.));
#1866=CARTESIAN_POINT($,(-2.,-2.4,0.));
#1867=CARTESIAN_POINT($,(-1.5,-2.9,0.2));
#1868=CARTESIAN_POINT('Origin',(-1.22394044055132,-2.27195439350984,0.2));
#1869=CARTESIAN_POINT('Origin',(-1.5,2.9,0.));
#1870=CARTESIAN_POINT('',(-1.5,2.9,0.));
#1871=CARTESIAN_POINT('',(-1.8,2.6,0.));
#1872=CARTESIAN_POINT($,(-1.85,2.55,0.));
#1873=CARTESIAN_POINT('',(-1.5,2.9,0.2));
#1874=CARTESIAN_POINT($,(-1.5,2.9,0.));
#1875=CARTESIAN_POINT('',(-1.8,2.6,0.2));
#1876=CARTESIAN_POINT($,(-1.8,2.6,0.2));
#1877=CARTESIAN_POINT($,(-1.8,2.6,0.));
#1878=CARTESIAN_POINT('Origin',(-1.8,2.6,0.));
#1879=CARTESIAN_POINT('',(-1.8,1.7,0.));
#1880=CARTESIAN_POINT($,(-1.8,1.3,0.));
#1881=CARTESIAN_POINT('',(-1.8,1.7,0.2));
#1882=CARTESIAN_POINT($,(-1.8,1.7,0.2));
#1883=CARTESIAN_POINT($,(-1.8,1.7,0.));
#1884=CARTESIAN_POINT('Origin',(-1.8,1.7,0.));
#1885=CARTESIAN_POINT('',(-0.699999999999999,1.7,0.));
#1886=CARTESIAN_POINT($,(-0.900000000000002,1.7,0.));
#1887=CARTESIAN_POINT('',(-0.699999999999999,1.7,0.2));
#1888=CARTESIAN_POINT($,(-0.699999999999999,1.7,0.2));
#1889=CARTESIAN_POINT($,(-0.699999999999999,1.7,0.));
#1890=CARTESIAN_POINT('Origin',(-0.699999999999999,2.9,0.));
#1891=CARTESIAN_POINT('',(-0.699999999999999,2.9,0.));
#1892=CARTESIAN_POINT($,(-0.350000000000005,2.9,0.));
#1893=CARTESIAN_POINT('',(-0.699999999999999,2.9,0.2));
#1894=CARTESIAN_POINT($,(-0.699999999999999,2.9,0.));
#1895=CARTESIAN_POINT($,(-1.5,2.9,0.2));
#1896=CARTESIAN_POINT('Origin',(-0.699999999999999,1.7,0.));
#1897=CARTESIAN_POINT($,(-0.699999999999999,0.85,0.));
#1898=CARTESIAN_POINT($,(-0.699999999999999,2.9,0.2));
#1899=CARTESIAN_POINT('Origin',(-1.22394044055132,2.27195439350984,0.2));
#1900=CARTESIAN_POINT('Origin',(1.8,-1.7,0.));
#1901=CARTESIAN_POINT('',(1.8,-1.7,0.));
#1902=CARTESIAN_POINT('',(0.699999999999999,-1.7,0.));
#1903=CARTESIAN_POINT($,(0.899999999999995,-1.7,0.));
#1904=CARTESIAN_POINT('',(1.8,-1.7,0.2));
#1905=CARTESIAN_POINT($,(1.8,-1.7,0.));
#1906=CARTESIAN_POINT('',(0.699999999999999,-1.7,0.2));
#1907=CARTESIAN_POINT($,(0.699999999999999,-1.7,0.2));
#1908=CARTESIAN_POINT($,(0.699999999999999,-1.7,0.));
#1909=CARTESIAN_POINT('Origin',(0.699999999999999,-1.7,0.));
#1910=CARTESIAN_POINT('',(0.699999999999999,-2.9,0.));
#1911=CARTESIAN_POINT($,(0.699999999999999,-0.85,0.));
#1912=CARTESIAN_POINT('',(0.699999999999999,-2.9,0.2));
#1913=CARTESIAN_POINT($,(0.699999999999999,-2.9,0.2));
#1914=CARTESIAN_POINT($,(0.699999999999999,-2.9,0.));
#1915=CARTESIAN_POINT('Origin',(0.699999999999999,-2.9,0.));
#1916=CARTESIAN_POINT('',(1.5,-2.9,0.));
#1917=CARTESIAN_POINT($,(0.349999999999998,-2.9,0.));
#1918=CARTESIAN_POINT('',(1.5,-2.9,0.2));
#1919=CARTESIAN_POINT($,(1.5,-2.9,0.2));
#1920=CARTESIAN_POINT($,(1.5,-2.9,0.));
#1921=CARTESIAN_POINT('Origin',(1.8,-2.6,0.));
#1922=CARTESIAN_POINT('',(1.8,-2.6,0.));
#1923=CARTESIAN_POINT($,(1.8,-1.3,0.));
#1924=CARTESIAN_POINT('',(1.8,-2.6,0.2));
#1925=CARTESIAN_POINT($,(1.8,-2.6,0.));
#1926=CARTESIAN_POINT($,(1.8,-1.7,0.2));
#1927=CARTESIAN_POINT('Origin',(1.5,-2.9,0.));
#1928=CARTESIAN_POINT($,(1.85,-2.55,0.));
#1929=CARTESIAN_POINT($,(1.8,-2.6,0.2));
#1930=CARTESIAN_POINT('Origin',(1.22394044055133,-2.27195439350984,0.2));
#1931=CARTESIAN_POINT('Origin',(1.65,-3.1,0.));
#1932=CARTESIAN_POINT('',(1.65,-3.1,0.));
#1933=CARTESIAN_POINT('',(1.95,-2.8,0.));
#1934=CARTESIAN_POINT($,(1.65,-3.1,0.));
#1935=CARTESIAN_POINT('',(1.95,-2.8,1.));
#1936=CARTESIAN_POINT($,(1.95,-2.8,0.));
#1937=CARTESIAN_POINT('',(1.65,-3.1,1.));
#1938=CARTESIAN_POINT($,(1.65,-3.1,1.));
#1939=CARTESIAN_POINT($,(1.65,-3.1,0.));
#1940=CARTESIAN_POINT('Origin',(-1.65,-3.1,0.));
#1941=CARTESIAN_POINT('',(-1.65,-3.1,0.));
#1942=CARTESIAN_POINT($,(-1.65,-3.1,0.));
#1943=CARTESIAN_POINT('',(-1.65,-3.1,1.));
#1944=CARTESIAN_POINT($,(-1.65,-3.1,1.));
#1945=CARTESIAN_POINT($,(-1.65,-3.1,0.));
#1946=CARTESIAN_POINT('Origin',(-1.95,-2.8,0.));
#1947=CARTESIAN_POINT('',(-1.95,-2.8,0.));
#1948=CARTESIAN_POINT($,(-1.95,-2.8,0.));
#1949=CARTESIAN_POINT('',(-1.95,-2.8,1.));
#1950=CARTESIAN_POINT($,(-1.95,-2.8,1.));
#1951=CARTESIAN_POINT($,(-1.95,-2.8,0.));
#1952=CARTESIAN_POINT('Origin',(-1.95,2.8,0.));
#1953=CARTESIAN_POINT('',(-1.95,2.8,0.));
#1954=CARTESIAN_POINT($,(-1.95,2.8,0.));
#1955=CARTESIAN_POINT('',(-1.95,2.8,1.));
#1956=CARTESIAN_POINT($,(-1.95,2.8,1.));
#1957=CARTESIAN_POINT($,(-1.95,2.8,0.));
#1958=CARTESIAN_POINT('Origin',(-1.65,3.1,0.));
#1959=CARTESIAN_POINT('',(-1.65,3.1,0.));
#1960=CARTESIAN_POINT($,(-1.65,3.1,0.));
#1961=CARTESIAN_POINT('',(-1.65,3.1,1.));
#1962=CARTESIAN_POINT($,(-1.65,3.1,1.));
#1963=CARTESIAN_POINT($,(-1.65,3.1,0.));
#1964=CARTESIAN_POINT('Origin',(1.65,3.1,0.));
#1965=CARTESIAN_POINT('',(1.65,3.1,0.));
#1966=CARTESIAN_POINT($,(1.65,3.1,0.));
#1967=CARTESIAN_POINT('',(1.65,3.1,1.));
#1968=CARTESIAN_POINT($,(1.65,3.1,1.));
#1969=CARTESIAN_POINT($,(1.65,3.1,0.));
#1970=CARTESIAN_POINT('Origin',(1.95,2.8,0.));
#1971=CARTESIAN_POINT('',(1.95,2.8,0.));
#1972=CARTESIAN_POINT($,(1.95,2.8,0.));
#1973=CARTESIAN_POINT('',(1.95,2.8,1.));
#1974=CARTESIAN_POINT($,(1.95,2.8,1.));
#1975=CARTESIAN_POINT($,(1.95,2.8,0.));
#1976=CARTESIAN_POINT('Origin',(1.95,-2.8,0.));
#1977=CARTESIAN_POINT($,(1.95,-2.8,0.));
#1978=CARTESIAN_POINT($,(1.95,-2.8,1.));
#1979=CARTESIAN_POINT('Origin',(-7.105427357601E-15,-4.44089209850063E-16,
1.));
#1980=CARTESIAN_POINT('Origin',(-7.105427357601E-15,-2.4980018054066E-16,
0.));
#1981=CARTESIAN_POINT('Origin',(-1.65,2.8,1.));
#1982=CARTESIAN_POINT('',(-1.8,2.8,1.));
#1983=CARTESIAN_POINT('',(-1.65,2.95,1.));
#1984=CARTESIAN_POINT('Origin',(-1.65,2.8,1.));
#1985=CARTESIAN_POINT('',(-1.8,2.8,1.2));
#1986=CARTESIAN_POINT($,(-1.8,2.8,1.));
#1987=CARTESIAN_POINT('',(-1.65,2.95,1.2));
#1988=CARTESIAN_POINT('Origin',(-1.65,2.8,1.2));
#1989=CARTESIAN_POINT($,(-1.65,2.95,1.));
#1990=CARTESIAN_POINT('Origin',(1.65,2.95,1.));
#1991=CARTESIAN_POINT('',(1.65,2.95,1.));
#1992=CARTESIAN_POINT($,(-1.65,2.95,1.));
#1993=CARTESIAN_POINT('',(1.65,2.95,1.2));
#1994=CARTESIAN_POINT($,(-1.65,2.95,1.2));
#1995=CARTESIAN_POINT($,(1.65,2.95,1.));
#1996=CARTESIAN_POINT('Origin',(1.65,2.8,1.));
#1997=CARTESIAN_POINT('',(1.8,2.8,1.));
#1998=CARTESIAN_POINT('Origin',(1.65,2.8,1.));
#1999=CARTESIAN_POINT('',(1.8,2.8,1.2));
#2000=CARTESIAN_POINT('Origin',(1.65,2.8,1.2));
#2001=CARTESIAN_POINT($,(1.8,2.8,1.));
#2002=CARTESIAN_POINT('Origin',(1.8,-2.8,1.));
#2003=CARTESIAN_POINT('',(1.8,-2.8,1.));
#2004=CARTESIAN_POINT($,(1.8,2.8,1.));
#2005=CARTESIAN_POINT('',(1.8,-2.8,1.2));
#2006=CARTESIAN_POINT($,(1.8,2.8,1.2));
#2007=CARTESIAN_POINT($,(1.8,-2.8,1.));
#2008=CARTESIAN_POINT('Origin',(1.65,-2.8,1.));
#2009=CARTESIAN_POINT('',(1.65,-2.95,1.));
#2010=CARTESIAN_POINT('Origin',(1.65,-2.8,1.));
#2011=CARTESIAN_POINT('',(1.65,-2.95,1.2));
#2012=CARTESIAN_POINT('Origin',(1.65,-2.8,1.2));
#2013=CARTESIAN_POINT($,(1.65,-2.95,1.));
#2014=CARTESIAN_POINT('Origin',(-1.65,-2.95,1.));
#2015=CARTESIAN_POINT('',(-1.65,-2.95,1.));
#2016=CARTESIAN_POINT($,(1.65,-2.95,1.));
#2017=CARTESIAN_POINT('',(-1.65,-2.95,1.2));
#2018=CARTESIAN_POINT($,(1.65,-2.95,1.2));
#2019=CARTESIAN_POINT($,(-1.65,-2.95,1.));
#2020=CARTESIAN_POINT('Origin',(-1.65,-2.8,1.));
#2021=CARTESIAN_POINT('',(-1.8,-2.8,1.));
#2022=CARTESIAN_POINT('Origin',(-1.65,-2.8,1.));
#2023=CARTESIAN_POINT('',(-1.8,-2.8,1.2));
#2024=CARTESIAN_POINT('Origin',(-1.65,-2.8,1.2));
#2025=CARTESIAN_POINT($,(-1.8,-2.8,1.));
#2026=CARTESIAN_POINT('Origin',(-1.8,2.8,1.));
#2027=CARTESIAN_POINT($,(-1.8,-2.8,1.));
#2028=CARTESIAN_POINT($,(-1.8,-2.8,1.2));
#2029=CARTESIAN_POINT('Origin',(4.1617934761799E-16,-3.73436603808575E-16,
1.));
#2030=CARTESIAN_POINT('Origin',(4.1617934761799E-16,-3.73436603808575E-16,
1.2));
#2031=UNCERTAINTY_MEASURE_WITH_UNIT(LENGTH_MEASURE(0.01),#2035,
'DISTANCE_ACCURACY_VALUE',
'Maximum model space distance between geometric entities at asserted c
onnectivities');
#2032=UNCERTAINTY_MEASURE_WITH_UNIT(LENGTH_MEASURE(1.E-6),#2035,
'DISTANCE_ACCURACY_VALUE',
'Maximum model space distance between geometric entities at asserted c
onnectivities');
#2033=(
GEOMETRIC_REPRESENTATION_CONTEXT(3)
GLOBAL_UNCERTAINTY_ASSIGNED_CONTEXT((#2031))
GLOBAL_UNIT_ASSIGNED_CONTEXT((#2035,#2037,#2036))
REPRESENTATION_CONTEXT('','3D')
);
#2034=(
GEOMETRIC_REPRESENTATION_CONTEXT(3)
GLOBAL_UNCERTAINTY_ASSIGNED_CONTEXT((#2032))
GLOBAL_UNIT_ASSIGNED_CONTEXT((#2035,#12,#2036))
REPRESENTATION_CONTEXT('','3D')
);
#2035=(
LENGTH_UNIT()
NAMED_UNIT(*)
SI_UNIT(.MILLI.,.METRE.)
);
#2036=(
NAMED_UNIT(*)
SI_UNIT($,.STERADIAN.)
SOLID_ANGLE_UNIT()
);
#2037=(
NAMED_UNIT(*)
PLANE_ANGLE_UNIT()
SI_UNIT($,.RADIAN.)
);
#2038=SHAPE_DEFINITION_REPRESENTATION(#2039,#2040);
#2039=PRODUCT_DEFINITION_SHAPE('',$,#2042);
#2040=SHAPE_REPRESENTATION('',(#1275),#2033);
#2041=PRODUCT_DEFINITION_CONTEXT('part definition',#2046,'design');
#2042=PRODUCT_DEFINITION('Product','Product',#2043,#2041);
#2043=PRODUCT_DEFINITION_FORMATION('',$,#2048);
#2044=PRODUCT_RELATED_PRODUCT_CATEGORY('Product','Product',(#2048));
#2045=APPLICATION_PROTOCOL_DEFINITION('international standard',
'automotive_design',2009,#2046);
#2046=APPLICATION_CONTEXT(
'Core Data for Automotive Mechanical Design Process');
#2047=PRODUCT_CONTEXT('part definition',#2046,'mechanical');
#2048=PRODUCT('Product','Product',$,(#2047));
#2049=PRESENTATION_STYLE_ASSIGNMENT((#2053));
#2050=PRESENTATION_STYLE_ASSIGNMENT((#2054));
#2051=PRESENTATION_STYLE_ASSIGNMENT((#2055));
#2052=PRESENTATION_STYLE_ASSIGNMENT((#2056));
#2053=SURFACE_STYLE_USAGE(.BOTH.,#2057);
#2054=SURFACE_STYLE_USAGE(.BOTH.,#2058);
#2055=SURFACE_STYLE_USAGE(.BOTH.,#2059);
#2056=SURFACE_STYLE_USAGE(.BOTH.,#2060);
#2057=SURFACE_SIDE_STYLE($,(#2061));
#2058=SURFACE_SIDE_STYLE($,(#2062));
#2059=SURFACE_SIDE_STYLE($,(#2063));
#2060=SURFACE_SIDE_STYLE($,(#2064));
#2061=SURFACE_STYLE_FILL_AREA(#2065);
#2062=SURFACE_STYLE_FILL_AREA(#2066);
#2063=SURFACE_STYLE_FILL_AREA(#2067);
#2064=SURFACE_STYLE_FILL_AREA(#2068);
#2065=FILL_AREA_STYLE($,(#2069));
#2066=FILL_AREA_STYLE($,(#2070));
#2067=FILL_AREA_STYLE($,(#2071));
#2068=FILL_AREA_STYLE($,(#2072));
#2069=FILL_AREA_STYLE_COLOUR($,#2073);
#2070=FILL_AREA_STYLE_COLOUR($,#2074);
#2071=FILL_AREA_STYLE_COLOUR($,#2075);
#2072=FILL_AREA_STYLE_COLOUR($,#2076);
#2073=COLOUR_RGB('',1.,1.,1.);
#2074=COLOUR_RGB('',1.,0.749019607843137,0.);
#2075=COLOUR_RGB('',0.329411764705882,0.329411764705882,0.329411764705882);
#2076=COLOUR_RGB('',0.866666666666667,0.866666666666667,0.866666666666667);
ENDSEC;
END-ISO-10303-21;
